<cesDoc id="asm-w-literature-essay-aes34" lang="asm">
<cesHeader type="text">
<fileDesc>
<titleStmt>
<h.title>asm-w-literature-essay-aes34.txt</h.title>
<respStmt>
<respType>Electronic file created by</respType>
<respName>Central Institute for Indian Languages, Mysore</respName>
<respType>transferred into Unicode and CES format by</respType>
<respName>"Unicodify" software by Andrew Hardie</respName>
</respStmt></titleStmt>
<publicationStmt>
<distributor>UCREL (on behalf of CIIL)</distributor>
<pubAddress>Department of Linguistics, Lancaster University, Lancaster, LA1 4YT, UK</pubAddress>
<availability region="WORLD"></availability>
<pubDate>03-07-21</pubDate>
</publicationStmt>
<sourceDesc>
<biblStruct>
<monogr>
<h.title>রত্নসঙ্গ</h.title>
<h.author>তীর্থনাথ</h.author>
<imprint>
<pubPlace>India</pubPlace>
<publisher>Unknown - Book.</publisher>
<pubDate>1988</pubDate>
</imprint>
<idno type="CIIL code">aes34</idno>
</monogr></biblStruct></sourceDesc></fileDesc>
<encodingDesc>
<projectDesc>Text collected for the CIIL Corpus, subsequently integrated into the EMILLE/CIIL Monolingual Written Corpora.</projectDesc>
<samplingDesc>Simple written text only has been transcribed. Diagrams, pictures and tables have been omitted. Sampling begins at page 1076.</samplingDesc>
<editorialDecl><conformance level="1"></conformance></editorialDecl>
</encodingDesc>
<profileDesc>
<creation><date>03-07-21</date></creation>
<langUsage>Assamese</langUsage>
<wsdUsage>
<writingSystem id="ISO/IEC 10646">Universal Multiple-Octet Coded Character Set (UCS).</writingSystem>
</wsdUsage>
<textClass>
<channel mode="w">print</channel>
<constitution type="composite"></constitution>
<domain type="public"></domain>
<factuality type="fact"></factuality>
</textClass>
<translations></translations>
</profileDesc>
<revisionDesc></revisionDesc>
</cesHeader>

<text><body>
<p>&lt;রত্ন সঙ্গম ( শ্রীতীর্থনাথ শর্মা )
আনন্দময ফুকন :
সংসারত মানুহ দুবিধ । এবিধ নিজর দুখ-বেজারর কথা আনর আগত
তিলকে তাল করি কব । বেজার বা দুখর কোনো কারণ নাথাকিলে মনেরে
পাতি লৈ হলেও দুখ করিবর সুয়োগ উলিযাব । ইবিধে মানুহর আগততো
বেজার করি নেদেখু঵াযেই নিজর মনর ভিতরতো দুখ-বেজারক লাই নিদিযে ।
তেওঁলোকর মনেরে দুখ-বেজার আনর আগত কো঵াটোতো লাজর কথাই ,
নিজর মনতো তাক থলি পুতিবলৈ দিযাটো নিতান্ত দুর্বলতা । পুরুষালির
ওপরত তেনে কামে কাপুরুষতার ছাঁ পেলায । এনে বিধর পুরুষ আছিল
দেশভক্ত তরুণরাম ফুকণ ।</p>

<p>তেওঁ এদিন সুধিছিল - `` হাঁহিটো কি বস্তহে ? """" কোনে কি উত্তর দিলে
মনত নাই , কিন্তু তেওঁ ক'লে - `` হাঁহি আন একো নহয , এটা বিকাশ - আনন্দর
বিকাশ । ঈশ্঵র আনন্দময , হাঁহির মাজত তেওঁ প্রকাশ পায । য়দি জী঵নর
সদ্য়঵হার করিবব খোজা , হাঁহিবা আরু হঁহু঵াবা । """" ফুকনে এনে সদ্঵্য়঵হার
করিছিল , য়ি তেওঁর গুরিত পোন্ধর মিনিট বহি আহিছে অথবা হঁহা নাই , সি
নিশ্চয জী঵নতে হঁহা নাই । য়ি তেওঁক হঁহা দেখা নাই , সিও সংসারত বহুত
বস্তু দেখা নাই ।</p>

<p>বহুতর ধারণা , নিতান্তই য়দি হাঁহিব লগা হয , নি:শব্দে গোঁফর তলত
হঁহাই ভদ্রলোকর কাম । নহলে গাম্ভীর্য়র হানি ঘটে , মর্য়দার লাঘ঵ হয ।
ঢেকডেককৌ হাঁহা য়দি শুনিবলৈ অশু঵লা হয , হা: করি য়দি হাঁহা , মুখর
সৌন্দর্য় নাথাকিব । গতিকে হয নাহাঁহিবা , নহয নীর঵ে মিচিকিযাবা । ফুকন
ডাঙরীযা ভদ্রলোক আছিল , গাম্ভীর্য়ত গরর সমুখর ব্রহ্মপুত্রর নিচিনা ,
মর্য়দাবোধো উলামূলা নাছিল । তথাপি অসম ছাত্র সন্মিলনর দরে বিরাট
সভাপতির আসনত বহি তেওঁক হাঁহি থর হো঵া আমি দেখিছিলোঁ ।
হাঁহির মোল তেওঁ বুজিছিল । সেইদেখি প্রাণভরি হাঁহি তার সদ্঵্য়঵হার
করিছিল ।</p>

<p>সুখর দিনত দুখর কথা মনলৈ নানাকৈ থাকিব পারি । সমযমতে হঁহাও
একো টান কথা নহয । য়িজনে জঞ্জালবিপদর বা ' মারলীর সোঁমাজত থাকি
নিজেও হাঁহিমুখ লৈ দহজনর মুখতো পূর্ণিমার জোনাক জিলিকাব পারে ,
তে঵েঁই আনন্দময ।</p>

<p>1930 চনর কথা । দেশর ইমরপরা সিমুরলৈ তেতিযা আইন অমান্য়র
খলকনি লাগিছে । ফুকন নানা কারণত দেখাদেখিকৈ সেই য়ুদ্ধর সেনাদলর
মাজত নাই । গাঁ঵র মাজ সোমালে বতরা সোধে - এইবার ফুকন নাই
কেলেই ? সভা পতা হয ফুকন নাহে শুনিলে মানুহ গোট নাখায , খালেও
ভাগিবলৈ ধরে । আহিল বুলি কলেই রাইজে হিলদল ভাঙে । স্঵েচ্ছাসে঵ক~
সকলে নাপাই কেইজনমান স্঵েচ্ছাসে঵কে এঠাইত এখন সভার য়ো-জা করি
ফুকনর কাষ চাপিলহি ।</p>

<p>ঘরত তেতিযা তেওঁর তিঁযহর জালি য়েন সাদরী জীযেক নরিযাপাটীত ।
দিনে দিনে কৃষ্ণপক্ষর জোনটির দরে নি:শেষ হৈ আহিছে । দেশর দহজনর
মাজত মূর জিলিকাই উজ্জল ভবিষ্য়ত লৈ উঠি অহা জোঁ঵াযেকে ভগা হিযা
লৈ দিহিঙে-দিপাঙে ঘুরি ফুরিছে । এনে অ঵স্থাতো তেওঁক আজুরিবলৈ
খোজাত কিজানি অলপ আমনি পাইছিল । তথাপি উত্সাহ আরু দেশভক্তির
ভরা-সুঁতি হেন সেই ডেকা কেইজনক বিফল মনেরে ঘূরাই নপঠিযালে ।
কলে - `` য়ো঵ার কিবা এটা ভাল দিহা করিবা । """"</p>

<p>সভার দিনা আনিবলৈ য়াওঁতেও মুখখন অলপ গম্ভীর । বাটতে য়াওঁতে
পলাশবারীর হাটরপরা বেমারীর কারণে কা঵ৈ মাছ কিনি মটরত ভরাই
ললে । কিন্তু সভাত গৈ তেওঁর স্঵ভা঵সিদ্ধ ওজস্঵িতা আরু হাস্য়রসর মাজেদি
একোবার শ্রোতার চকুমুকলৈ তেজ আনি দিছিল , আকৌ ওকোবার হাঁহির
গির্জনি তুলিছিল । উভতি আহোঁতে স্঵েচ্ছাসে঵কসকলে সমস্঵রে জাতীয
গীত গাওঁতে তে঵োঁ লগত সমানে য়োগ দিছিল , টিনর ` বডি ' থকা বাছর গাত
ঢকিযাই তাল রাখিছিল । দেশভক্ত ফুকন এনেকু঵াই আছিল ।</p>

<p>আন এদিনর কথা । 1934 চনর কেন্দ্রীয ব্য়঵স্থাপক সভার নির্বাচনর
সমযর জিরণি নথকা দিনবিলাকরে এটা । এঠাইত ভোট সংগ্রহ করিবলৈ
গৈ ঘূরি আহোঁতে অসম-বেংগল রেলর আওহতীযা ষ্টেছন এটাত তিনিঘণ্টামান
র'বলগা হ'ল । ফুকন আরু লগত দুজন ।</p>

<p>তেতিযা সন্ধিযা লাগি ভাগিছে । শুক্লপক্ষর ফরিংফুটা জোনাক ।
ষ্টেছনর প্লেটফর্মতে পাটী পারি লৈ বঙালীবাবু কেইজনমানে হার্মনিযাম এটা
বজাই আমোদ করিছিল । ফুকনর অহার লগে লগে কাঁহ পরি জীণ গ'ল ।
গোটেইখন নিমাওমাও হৈ পরিল ।</p>

<p>কিছু সময ইফাল সিফাল করি আমনি লাগিছিল । এনেতে ফুকনে
মাত লগালে - `` এওঁলোকে অলপ সকাহ পাই আমোদ করিছিল , মই অহাত
বন্ধ করিলে । কথাটো বেযা হ'ল । """" ঈশ্঵রে সুয়োগ মিলাই দিলে ।
বঙালী বাবু কিজনর মাজত তুমুল তর্ক হ'ল - মন্ত্র শক্তি আছে নে নাই ।
ফুকনর কাণত পরিল । লাহে লাহে ওচর চাপি তেওঁলোকর কাষ পালেগৈ ।
আটাইকেউজন সসম্ভ্রমে থিয হ'ল । //
অসমীযা খণ্ডবাক্য় আরু প্রবচনর সংগ্রহর প্রচেষ্টা বহুদিন আগরেপরাই
হৈ আহিছে । এই বিষযত প্রথম পটিকটীযা অসম বন্ধু কর্ণেল-পি-আর-টি
গর্ডন চাহাব । তেখেতের Assames Proverbs নামর ` নাতিবৃহত্ '
গ্রন্থখনেই অসমীযা প্রবচনর প্রথম সংগ্রহ গ্রন্থ । ইযাত অর্থবোর ইংরাজীত
দিযা হৈছে আরু প্রবনবিলাকর আঁতিগুরি দিবলৈকো স্থানে স্থানে য়িমানদুর
সম্ভ঵ গর্ডন চাহাবে চেষ্টা করিছে । গর্ডন চাহাবর এই গ্রন্থ অসমীযা প্রবচনর
বহুল সংগ্রহ নহয কিন্তু নমুনা-সংগ্রহ বুলিহে ক'ব পারি । খণ্ডবাক্য়র সংগ্রহ
এখন স্঵র্গীয বেণুধর রাজখো঵াই সংকলন করি 1917 চনত প্রকাশ করিছিল ।
সেইখন গ্রন্থই সেই সমযত এটা ডাঙর অভা঵ পূরণ করিছিল । গ্রন্থখন
স্঵র্গীয রাজখো঵ার বহুদিনীযা পরিশ্রমর ফল আছিল । য়দিও এই খণ্ডবাক্য়বোর
সম্পূর্ণাংগ নাছিল আরু অর্থতো ঠাযে ঠাযে দ্঵িমত হো঵ার থল আছে ,
তথাপি আজিকালি বহুতে সেইখনরপরা বহুত সহাযতা পাব ইযাত সন্দেহ
নাই । স্঵র্গীয রাজখো঵াই দ্঵িতীয সংস্করণ পরিবর্ধিত আরু সম্পূর্ণাংগ করিবলৈ
য়ত্ন করিব বুলি প্রতিশ্রুতি দিছিল কিন্তু কালত তেখেতর এই সংকল্পর প্রতি
বিমুখ হ'ল । ইযাত য়োজনাবোরক স্থান দিযা নাছিল ই কে঵ল খণ্ডবাক্য় বা
ভংগিতাবোররহে সংগ্রহ আছিল ।</p>

<p>ইযার পিচত প্রবচনবোরর সংগ্রহ দুই চারিখন ওলাইছে কিন্তু সেইবোরত
অর্থ দিযার প্রযোজন সংগ্রাহকসকলে অনুভ঵ নকরিছিল বা করিলেও গ্রন্থর
কলে঵র বৃদ্ধি আরু ছপা খরচর পরিমাণলৈ চাই অর্থ সন্নিবিষ্ট করিবলৈ আগ
নাবাঢ়িল । ইযার ভিতরত ডিব্রুগড়রপরা ওলো঵া ` পটন্তর ' নামর গ্রন্থখন
উল্লেখ করিব পারি । ` পটন্তর মালাত ' বিষয অনুসরি পটন্তরবিলাক সজো঵া
আছে । পটন্তরর সংখ্য়াও নিচেই কম নহয । ` পটন্তর মালাত ' বিবিধ
প্রকারর রসাল আরু সামাজিক রুচির আভাস দিযা বহুত সংখ্য়ক পটন্তর
পো঵া য়ায । ইযার পাছতে স্঵র্গীয ডিম্বেশ্঵র নেওগর ` রহরহী ' নামর পটন্তর
সংগ্রহর গ্রন্থখনর নাম উল্লেখ করিব পারি । এইখনো এখন উপাদেয সংগ্রহ ।
পূর্বর সংগ্রহবোরত প্রকাশ নোপো঵া বহুত পটন্তর ইযাত সন্নিবিষ্ট আছে ।
স্঵র্গীয নেওগর অর্থবোর আরু সেইবোরর আঁতিগুরি দেখু঵াবর কারণে য়িখিনি
আধার-বিদ্য় লাগে সেইখিনি সম্পূর্ণরূপে আছিল কিন্তু ওপরত কো঵া গ্রন্থ~
কলে঵র আরু ব্য়য বৃদ্ধির ভযেই তেখেতকো হোঁহোকা মারিবলৈ বাধ্য় করিলে ।
এই কথা স্঵র্গীয নেওগে নিজেই এই লেখকক কৈছিল । নেওগর পিছত
বহুদিনলৈ এই কাম কোনেও হাতত লো঵া নাছিল কে঵ল ঁ চন্দ্রধর বরু঵া
ডাঙরীযাই তলে তলে রত্নকোষ নির্মাণর কামত মূর পুতি লাগি আছিল ।
তাক দুই এজন সান্নিধ্য়লৈ অহা লোকে জনার বাহিরে সাহিত্য় সমাজতে
জনাজাত হৈ পরা নাছিল । ইতিমধ্য়ে গু঵াহাটীর কমারকুচীযা বরু঵ার ঘরর
ঁ প্রফুল্ল চন্দ্র বরু঵াই ` অসমীযা প্রবাদ বাক্য় ' নাম দি এখন প্রবচন-কোষ
সংকলন করি প্রকাশ করিছিল । বরু঵াদে঵ে অর্থও দিছে । এইখন সংগ্রহর
বিশেষত্঵ হৈছে - কামরূপ জিলাত প্রচলিত প্রবচন আরু উজনিত চলা
প্রবচনরো কামরূপীযা রূপান্তর পো঵া য়ায । সেইফালরপরা চালে বরু঵ার
এই কোষখনর এটা বিশেষ মুল্য় আছে কারণ ইতিপূর্বে প্রকাশিত হো঵া
সংগ্রহ গ্রন্থবোরত উজনীযা খণ্ডবাক্য় আরু প্রবচনবোরেহে প্রাধ্য়ন্য় লাভ
করিছিল । অলপতে নগাঁও কলেজর অধ্য়াপক ড. সর্বেশ্঵র রাজগুরু঵ে
` অসমীযা প্রবাদ ' নামেরে এখন আপেক্ষিকভা঵ে বৃহত্ সংগ্রহ-গ্রন্থ প্রকাশ
করিছে । ইযাত খণ্ড বাক্য় , পটন্তর , ফকরা আটাইবিলাক মিলাই বর্ণানুক্রমে
সজো঵া হৈছে । বিষয অনুসরি এইবিলাকর বিভাগ করা হলে হযতো বেছি
উপয়োগী হ'লহেঁতেন , ইযাত কেইবাহেজারো খণ্ডবাক্য় , ফকরা , পটন্তর সংগৃহীত
হৈছে । এখন সুবৃহত্ পাতনিরে ড: রাজগুরুদে঵ে অসমীযা প্রবাদর বিষযে
বহুত জানিবলগীযা কথা রাইজর আগত উপস্থাপিত করিছে । এই খণ্ডবাক্য়
আরু প্রবচন সংগ্রহবিলাকর উপরিও কান্তিরাম বুঢ়াভকতর ফকরার পুথি ,
ঁ দিবাকর শর্মার ডাকর বচন আদি সংগ্রহর বিষযবস্তুত অলপ প্রভেদ থাকিলেও
একে শ্রেণীর গ্রন্থ বুলিযে সামরি ল'ব লাগিব । চন্দ্রধর বরু঵া ডাঙরীযার
রত্নকোষ ওপরত উল্লেখ করা সংগ্রহবোরতকৈ আকারে প্রকারে আরু গুনে
অকলেই সভা-শু঵নি । এই সম্পর্কত প্রতিভাধর শিক্ষাব্রতী ঁহরেন্দ্রনাথ
শর্মার ` অসমীযা বচন-ভঙ্গী '-র নাম উল্লেখ করিব পারি । বর্তমানলৈকে
এইখন সুবৃহত্ অসমীযা খণ্ডবাক্য় কোষ । ইযাত ফকরা পটন্তর দিযা নাই ,
জকু঵া ঠাঁচবোরহে আছে । রত্নকোষ বর্ণানুক্রমিক রূপে অভিদানর নিযমত
সজো঵া হৈছে কিন্তু প্রত্য়েক খণ্ডবাক্য় বা পটন্তরতে অর্থ ধরি য়ো঵া প্রণালীত
বরু঵া স্঵কীয মনন আরু সুকীযা ঠগ এটাও পরিলক্ষিত হয । বহুত প্রবচন
পুরণিকলীযা । সেই প্রবচনবোরর উদ্ভ঵কালত সমাজর য়ি পরিবেশ আছিল ,
আরু য়ি পরিবেশর প্রভা঵ তাত পরিছে , আজি সি নাই । গতিকে অর্থ ভাবি
উলিযাব লগা হয । বরু঵া ডাঙরীযাই নিজেই লিখিছে য়ে `` এই গ্রন্থর
সকলোবিলাক কাম লিখকে অকলশরে করা । কোনো কথাত কিবা সন্দেহ
হলে সুধিবলৈকো আগর বুঢ়া তরপর মানুহ নোহো঵া হ'ল । সেইবাবে
অনেক বাক্য়র অর্থ লিখকে নিজেহে ভাবি চিন্তি উলিযাব লগাত পরিছে । """"
পিছে নিজে ভাবি চিন্তি উলিযাবলৈকো নিজর আধার-বিদ্য়া আরু আধার
অভিজ্ঞতার প্রযোজন হয । পুরণি কথার কো঵িদ এজনহে এইবোরর অর্থ
ভাবি উলিযাবলৈ সক্ষম হ'ব । //
কটন কলেজর আই. এ. শ্রেণীত পঢ়ি থাকোঁতে এদিন শুনিবলৈ পালোঁ
কলিকতার আলিবাটত অকলশরীযাকৈ ক'রবালৈ য়াওঁতে দু঵রা ডাঙরীযা
এদিন দুর্ঘটনার মুখত পরিল , মটরে কুন্দিযালে । তেতিযা কলিকতার
মেডিকেল কলেজ হাস্পাতালত চিকিত্সাধীন হৈ আছিল । আইন অমান্য়
আন্দোলনর পিছর গান্দী আরউইন সন্ধির সমযর দিন কেইটা । এই
আন্দোলনর সমযত ত্য়াগবীর হেম বরু঵া , দেশপ্রাণ অমিয দাস আরু শ্রদ্঵েয
বিষ্ণুরাম মেধি আদি স্঵রাজ য়োদ্ধাসকলক মাজে মাজে লগ পো঵ার সুয়োগ
ঘটিছিল । এদিন ত্য়াগবীর হেম বরু঵া প্রভৃতি কেইজনমানর সৈতে মেধি
ডাঙরীযা গধূলি ফুরোঁতে আমিও দুজন নে এজন লগত আছিলোঁ । দু঵রা
ডাঙরীযার দুর্ঘটনার কথা উঠিল , কোনোবা এজনে কলে বোলে মুখ-মণ্ডলত
বিশেষ আঘাত পাইচে , সম্ভ঵ত : মুখর আকৃতির পরিবর্তন ঘটাব । এই কথা
শুনি মেধি ডাঙরীযাই দু:খ করি কৈছিল - মানুহজনে মুখখনর কারণে বর
য়ত্ন করিছিল । তার য়দি বিকৃতি ঘটে দুখর কথা হব । দু঵রা ডাঙরীযা
ডাক্তরসকলর বিশেষ য়ত্নত ভাল হৈ উঠিল আরু আশংকা করা মতে মুখর
আকৃতিরো বিশেষ সালসলনি নঘটিল । অ঵শ্য়ে দুর্ঘটনার আগর কবি দু঵রাক
আমি দেখা নাছিলোঁ । তেখেত সর্বাতিকাল কলিকতা প্রবাসী , অসমলৈ
নাহিছিলেই বুলিব লাগে , আহিলেও গু঵াহাটীত স্঵র্গীয বিষ্ণুপ্রসাদ দু঵রার
ঘরত কেই রাতিমান কটাই শি঵সাগর পাইছিলগৈ । সভা-সমিতিলৈ
নগৈছিল , মানুহর ঘরে ঘরেও বরকৈ নুফুরিছিল । দু঵রা সম্পর্কে এনে
অকলশরীযা চলন-ফুরণর , পরিপাটি বেশভুষার আরু শারীরিক সুদর্শনতার
প্রতি য়ত্নশীল মৃদু-স্঵ভা঵র মানুহ এজনর ধারণালৈযে কটন কলেজর শিক্ষাসাং
করি কলিকতাত এম. এ. পঢ়িবলৈ গৈছিলোঁ 1934 চনর জুলাই মাহত ।
দু঵রা ডাঙরীযা তেতিযা স্কটিছ চার্চ কলেজিযেট স্কুলর শিক্ষক - সেই কলেজর
` ডানডাচ ' নামর ছাত্রবাসর অধীক্ষক ।</p>

<p>মানুহজন দেখা নাছিলোঁ তেখেতর ছযামযা মূর্তি এটা কল্পনাহে করি
গৈছিলোঁ । কবিতাবিলাকর সৈতে কিন্তু ইতিমধ্য়ে অলপ অচরপ পরিচয
ঘটিছিল । স্কুলীযা জী঵নত তেখেতর দুই এটা কুচুরা কবিতা ` বাঁহী '-ত পঢ়িবলৈ
পাইছিলোঁ । কলেজীযা কালত ` ওমর-তীর্থ ' আরু ` কথা-কবিতা ' দুইখনেই
আমার হাতত আহি পরিছিল । ওমর তীর্থখন ছপা হো঵ার পিছতে
কলিকতারপরা কোনোবা এজনে নি আমার গু঵াহাটীর হোষ্টেলত দুই চারি
কপি বেচিছিল । মই নিজে এখন কিনি লৈছিলোঁ , সেইখন মোর ব্য়ক্তিগত
পুথিভঁরালত এতিযাও আছে । পিছে তেখেতর কবিতার ফালে মোর মনটো
চাল খালে এম. এ. পঢ়িবলৈ য়ো঵ার আগর কর্মহীন সুরুঙাখিনিত । সেই
সমযতে অলপদিন অগা-পিছাকৈ বাঁহী আরু আ঵াহনত অতীতক য়ো঵াহে
পাহরি , অতীতক নায়াবা পাহরি , শূন্য় পরিচয আরু আজি মোক য়ো঵াহে
পাহরি - এই চারিটা কবিতা প্রকাশিত হৈছিল । এই কবিতা চারিটার নাম
কেইটা শুনাত আপাত-বিরোধী । এটাত পাহরি য়ো঵া , আনটোত নায়াবা ,
আকৌ এটা আজি পাহরি য়ো঵া এনেবোর ভাবর দেখাত মিল নথকা
শিরোনামাই মনত কৌতুহলর সৃষ্টি করিছিল । কবিতা কেইটা পঢ়ি হলে
রস পাইছিলোঁ , তার ছন্দর নিমজ গতি আরু ললিতা কান্তা ভাষার মোহনী
শক্তির এটা প্রাথমিক আকর্ষণ আছিল । কবিতা কেইটা মন দি পঢ়িছিলোঁ ।
তার মাজত ভাবর ক্রমগতি উলিযাবলৈ আরু আপাত বিরোধ কেনেকৈ
পরিহার করিব পারি তার বিষযে চিন্তা করিও চাইছিলোঁ । সেই বিষযে এটা
আলোচনামূলক প্রবন্ধ লিখিবলৈ মনতে ইচ্ছার উদয হৈছিল । কবিজনর
লগত কথা- বতরাহে নালাগে দেখা সাক্ষাতেই হো঵া নাছিল ।</p>

<p>কলিকতা বিশ্঵বিদ্য়ালযরর এম. এ. শ্রেণীত ভর্তি হো঵ার পিছতে কলিকতা
এ. এছ. এল. ক্লাবর কিবা উপলক্ষ্য়ে এখন সভা হৈছিল । সেই সভাতে
দু঵রাদে঵ক পোনপ্রথমে পাওঁ । প্রথম দেখাতে মানুহজন আদর-সনা
মাত-কথাবোর শুনি আরু শু঵নি আকৃতি দেখি ওচর চাপি কথা হবর মন গ'ল ।
কলিকতার পুরণি প্রবাসী ছাত্র কিন্ত তেতিযা রেলর কিবা চাকরি করিবলৈ
আরম্ভ করা স্঵র্গীয বন্দু হরেন্দ্রনাথ কলিতাক অনুরোধ করিলোঁ । কলিতাই
মোক নি চিনাকি করি দিলে । কথা-বতরা বিশেষ একো নহ'ল মইহে কলো
আপোনার অতীতক য়ো঵াহে পাহরি আদি পাহরণি কবিতা কেইটা মোর বর
ভাল লাগিছে , কেবা বারো পঢ়িছোঁ । দু঵রা য়েন নির্লিপ্ত এনে ভাব দেখু঵াই
কলে `` অ ' তুমি হবলা সেই কবিতা কেইটাক পাহরণি কবিতা নাম দিছা
য়ি বোলা বোলা । """" ইযার পিছত দিন দু঵রা ডাঙরীযার লগত দেখা
সাক্ষাত্ হো঵ার সুয়োগ হো঵া নাছিল ।</p>

<p>ইতিমধ্য়ে সেই কবিতা চারিটার বিষযে আলোচনা করি এটি প্রবন্ধ লিখি
পেলালোঁ । লিখি অঁতাই ভাব হ'ল দু঵রা ডাঙরীযাক এবার পঢ়ি শুনালে
কেনে হয । বন্ধু শ্রীশি঵প্রসাদ বরু঵া ( শিপ্রা বরু঵া ) তেতিযা দু঵রা থকা
ছাত্রাবাসতে থাকি স্কটিছ চার্চ কলেজত বি-এ শ্রেণীত ভর্তি হৈছিল । তেওঁর
লগত কথা-বতরা হৈ তেওঁর য়োগেই এদিন কোনোবা এটা শনিবারে আবেলি
দু঵রার তালৈ গৈ প্রবন্ধটো পঢ়ি শুনো঵ার ঠিক-ঠিকনা হ'ল । সেইদিনা য়থা
সমযত ` ঵ান ' ছাত্রাবাসর দু঵রা থকা এমুরীযা কোঠাত উপস্থিত হলোঁগৈ । দু঵রা
ডাঙরীযাই কিবা কিতাপ পঢ়ি আছিল আরু মোলৈকে বাট চাই আছিল । মই
গৈ পাওঁতেই ` আহা বাহিরতে বহো ' বুলি বারিণ্ডাত পারি থো঵া বেতর চকী
দুখনলৈ আঙুলীযাই দি নিজেও উঠি আহিল । দুযো মুখা-মুখিকৈ বহিলোঁ । //
দু঵রা ডাঙরীযার কাপ-কাঠী আকৌ সজী঵ হৈ পরিল । দু঵রা মরম~
আকলু঵া আছিল । এষারি আ ঐ দেহি আরু এফেরি মরমে তেখেতক
অভিভূত করি পেলাইছিল । তেখেত পরিযালর নুমলীযা ল'রা , নুমলীযা
ল'রার স্঵ভা঵টো শেহলৈকে অলপ অচরপ গাত লাগিযে থাকিল । সরু
কালতো তেখেতে নিজর কান-সমনীযা ল'রার লগতকৈও ডাঙরর লগত
ফুরি-চাকিহে ভাল পাইছিল । দু঵রা য়েতিযা সরু ল'রা মোর পিতৃ-দে঵তা
তেতিযা শি঵সাগর বেজবরু঵া হাইস্কুলর ওপর শ্রেণীর ছাত্র । পিতৃদে঵তার
মুখেই শুনিছিলোঁ ধুনীযা সরু ল'রা এটি প্রাযে ঁরাযবাহাদুর ফণীধর চলিহার
লগত আলিবাটত ফুরিছিল । সেই ধুনীযা ল'রাটিযেই য়তীন্দ্রনাথ দু঵রা ।
রাযবাহাদুর চলিহা শি঵সাগরত চলিহা চাহাব বুলিহে সাধারণতে প্রসিদ্ধ
আছিল । য়েই সেই মানুহে য়েতিযাই তেতিযাই লাগ বুলিলেই তেখেতক
লগ পো঵াও উজু কথা নাছিল । গৃহস্থসূত্রেও চলিহা ডাঙরীযার হেনো
অনুশাসন বর কঠোর আছিল আরু নিজেও নির্ধারিত নিযমত সকলো কাম
কাজ করিছিল । তেনেহেন লোক এজনর সরু ল'রা এটি নিত্য় ভ্রমণর লগরীযা
হো঵া কথাষার শুনোতে নহয নহয য়েন লাগে । তথাপি সরু কালরেপরা
ডাঙরর লগত ফুরা-চকা করা আরু ডাঙরর মরম-চেনেহর সরহীযা ভাগ-পো঵া
দু঵ারার স্঵ভা঵ত য়ে এটা বিশেষত্঵ই গঢ় লৈছিল তাক এনেবোর কথারপরাই
গম ধরিব পারি । এনেবা঵ে ডাঙর হো঵া দু঵রাই মরম দিযাতকৈ পো঵ার
কারণেহে য়ে বেছিকৈ হাবিলাস করিছিল তাত একো বিচিত্রতা নাই ।
কেইজনমান ন঵য়ু঵কে দু঵রাক আপোন য়েন করি লৈ সততে অহা য়ো঵া
করিবলৈ ধরিলে ইজনর পাছত সিজনকৈ । তেওঁবিলাকর প্রথম ` আবদার '
হ'ল কবিতা লাগে , দু঵রাই তেওঁলোকক কবিতা লিখি উপহার দিব লাগে ।
দু঵রা গলি য়ো঵াদি গ'ল আরু এটা দুটাকৈ কবিতা লিখি উপহার দিবলৈ
ধরিলে । সেই কবিতাবোরর কোনোটোর নকল রাখিছিল কোনোটোর নকল
নারাখিছিল । সেইবোর কবিতার কিছুমান কার হাতত পরি ক'লৈ গ'ল আজি
সেই উরহি গছর ওর কোনে পাব ? তথাপি দু঵রার ভতিজাক শ্রীমান বসন্ত
লাল দু঵রাই অ'র ত'র পরা গোটাই আনি নতুনকৈ ওলো঵া `` প্রেমর সুর """" নামর
সংকলনত ছাই দি তাক রক্ষা করিলে । আজি মোর য়িমানখিনি মনত পরে
রোহ ভগার পিছত দু঵রাই য়িটো প্রথম কবিতা লিখিছিল সেইটো হ'ল তুমি
মোর ঈস্঵রর দান ( মরমর সুর পৃ:47 ) ।</p>

<p>এই কবিতাটো য়তিনারাযণ শর্মাক উদ্দেশ্য় করি লিখা , য়তিনারাযণ এজন
সঁচাকৈযে কাব্য়ামোদী য়ু঵ক আছিল । কবিতার প্রেমতে দু঵রাকো কবিতা
ভাল পো঵াদি ভাল পাইছিল । য়তিনারাযণর সান্নিধ্য় আরু কবিতা বঢ়িযাকৈ
উপলব্ধি করিছিল । সেইকারণেই য়তি-সংয়োগ দু঵রার পক্ষে ঈশ্঵রর দান ।</p>

<p>ইযার পিছত দু঵রা ডাঙরীযাই বহুত কবিতা লিখিছিল । দু঵রা নিতৌ
একোটা বা দুটাকৈ কবিতা লিখার অভ্য়াস নাছিল , কাব্য় প্রেরণার সোঁতো
অবিচ্ছিন্ন ধারারে নবৈছিল । একোটা কবিতার বিষযবস্তু আরু ভাবটো মুরত
লৈ ভালে কেইটা দিন ধরি মগজুত পক ধরিবলৈ এরি দিযে ; তার পিছত
তাক ছন্দোবদ্ধ করে । ছন্দোবদ্ধ করোঁতেও কাপ-কাকত লৈ মেজর গুরিত
বহি কবিতা লিখা দেখা মোর মনত নপরে । অন্তিমরূপ দি চাফা নকলটোহে
মেজত থৈ লিখিছিল । বাটে পথে গৈ থাকোঁতে কবিতার একোটা স্ত঵ক
মনে মনে রচনা করিছিল । এনেরূপে কবিতা পাগুলি গৈ থাকোঁতেহে তেখেত
পথ-দুর্ঘটনার কবলত পরিছিল । নহলে তেখেতে আগফালে পাছফালে
নোচো঵াকৈ ঘপ করে ট্রামরপরা নামি নগ'লহেঁতেন । এই দুর্ঘটনাত বহুদিন
শারীরিক কষ্ট ভুগিব লগা হৈছিল । পিছে এই অভ্য়াস হলে এরিব নো঵ারিলে ।
পিছলৈ অকলে অকলে বরকৈ ফুরিবলৈ বা আন কামতো ওলাই নগৈছিল ।
মই বহুতদিন তেখেতর লগত ফুরিবলৈ গৈছিলোঁ আরু একো খণ্ড কবিতার
সৃষ্টি কালর লগরীযা আছিলোঁ । আমি কেতিযাবা কলিকতার পার্শ্঵নথর
মন্দিরর ফুলনিত গৈ বহিছিলোঁ । তার পরিবেশটো য়িমানেই ভাল নহওক
কৃত্রিম কৃত্রিম য়েন অনুভ঵ হৈছিল । এদিন মানিকতলা পুল পার হৈ
কিছুদুর আগু঵াই শ্রীরামকৃষ্ণ পরমহংস সমাধি স্থানর আশ্রম পালোঁগৈ ।
সেই আশ্রমত সোমালে কলিকতাহে নালাগে কলিকতার উপকণ্ঠর ক'রবাত
আছোঁ বুলিও মনলৈ ভাব নাহে । শান্ত আরু সুখদাযক প্রাকৃতিক চৌপাশ
এটাই ঠাইকণ আগুরি থৈছিল । তাত সোমাই দু঵রাই ঠাইডোখর নোপো঵াই
পো঵াদি পালে আরু প্রায এদিন দুদিনর অন্তরে অন্তরে তালৈ য়াবলৈ মোক
লগ ধরে । দুই এদিন মোর সহধর্মিনীকো উচটাই আমার লগতে লৈছিল ।
এই ঠাইর এচুকত বহিও দু঵রাই কেইটামান কবিতার প্রাথমিক রূপ দিছিল।
এই সমযছো঵াত দু঵রার মনলৈ পূর্ব-সোঁ঵রণ এটাই আবেলির র'দ চেরেঙার
দরে পু঵ার কোমল মধুর স্঵র্ণিম র'দালির পুর্বনুবুতি জাগ্রত করি তুলিছিল ।
সেই দিনকেইটা `` অতীতর মধু সোঁ঵রণ """"-র দিন বুলিও কব পারি । এইছো঵া
কালতে লিখা এটি কবিতা মোর প্রায মুখস্থ আছে । //
দু঵রার বিযা করো঵া নহ'ল । অকলশরীযা জী঵নর একমাত্র সংগী হ'ল
সাধন নামর ল'রাজন । সাধনেই তেখেতর জী঵ন-য়াত্রার নামে-গামে সাধন
হৈ পরিল । সাধনক লগু঵া ল'রা বুলি তেখেতে কস্মিন কালেও নাভাবিছিল ।
তেখেতর ঘরলৈ য়ো঵া আন কোনোবাই তেনেভা঵ে সাধনক ব্য়঵হার করিলে
বর দুখ পাইছিল । আমি সেইকারণেই সাধনক ঘরর এজনর দরে ব্য়঵হার
করিছিলোঁ কেতিযাবা চুপতিও করিছিলোঁ । সাধনে দু঵রাক লৈযো হাঁহি~
ধেমালি করিছিল । দু঵রা আরু মই এদিন ওচরর গেলামালর দোকান এখনলৈ
গৈছিলোঁ । দোকানীজন বিহারী মানুহ আছিল । সেই দোকানরপরাই
দু঵রার চাউল দাইল প্রভৃতি ভোজ্য়দ্রব্য় সদায অনা হৈছিল । সেইদিনা
বিহারী দোকানীজনর ভাব-ভক্তি অলপ চরা বিধর য়েন পালোঁ । দু঵রাই
ভাল মাটিমাহ আছেনে নাই সুধিছিল , মাটিমাহর আঞ্জাত দু঵রার বিশেষ
প্রীতি আছিল । দোকানীজনে মাটিমাহর দালি আনি দেখু঵ালে । দু঵রাই
সুধিলে - সিজিবতো ? দোকানীজনে ক'লে আপোনাক নিসিজা পুরণি বস্তু
দিম নে ? `` আপতো ভাল ব্রহ্মচারী হৈঁ , আপ দে঵তা হৈঁ । """" দু঵রা য়ে ডাং~
বরলা এই কথা কেইদিনমান আগতে দোকানীজনে সাধনর মুখে শুনিছিল ।
বিহারী দোকানীর মুখত ` দে঵তা ' কথাষার `` দেওতা """" হিচাপে উচ্চারিত হৈছিল ।
দোকানরপরা ঘরলৈ আহি সাধনক কথাটো কলোহি । সাধনে বর রহইচ্
পালে । সেই দিনরপরা দু঵রার কথা কলে সি ` দেওতা ' বুলি কয , মইও
দু঵রার ফ্লেটত সোমাযে সাধনক সোধো তোর ` দেওতা ' আছে নে ? দু঵রাই
নিজেও এনেবোর রং-রহইচত ভাগ লৈছিল আরু হাঁহি ধেমালিত য়োগ
দিছিল ।</p>

<p>নিরাশাবাদী কবি , দুখবাদী কবি , অকলশরীযা না঵রীযা আদি দু঵রা~
সম্বন্ধীয উক্তিবোর শুনি দু঵রাক নজনা আরু নেদেখা মানুহে তেখেতক
গোমোঠা মারি থকা অরসিক গম্ভীর মূর্তির মানুহ বুলি ভাবি থাকিব পারে ।
প্রকৃততে চরিত্রত হাস্য়-পরিহাসর এটা লঘু দিশো আছিল । তার প্রমাণ
দিবলৈ বহুত ক্ষুদ্র ঘটনার উল্লেখ করিব পারি । তারে এটা এই প্রসংগত
উল্লেখ করিবর মন গৈছে । দু঵রা থকা ফ্লেটটোর আগফালর বারাণ্ডাখনত থিয
দিলেই মাণিকতলা সমুচাকৈ দেখা পো঵া গৈছিল । তাতে থিয হৈ
দু঵রাই বজারখনর আলেখলেখ চাই থাকে । তেনে অ঵স্থাতে কেতিযাবা
মইও গৈ কাষত থিয দিওঁ । বজারর কিনা-বেচা , হাই-কাজিযা , বিবিধ বস্তর
পোহার চাই দু঵রাই ভাল পায ।
 +&gt;*"",0",0
</p></body></text></cesDoc>