<cesDoc id="asm-w-literature-juvenile-acl24" lang="asm">
<cesHeader type="text">
<fileDesc>
<titleStmt>
<h.title>asm-w-literature-juvenile-acl24.txt</h.title>
<respStmt>
<respType>Electronic file created by</respType>
<respName>Central Institute for Indian Languages, Mysore</respName>
<respType>transferred into Unicode and CES format by</respType>
<respName>"Unicodify" software by Andrew Hardie</respName>
</respStmt></titleStmt>
<publicationStmt>
<distributor>UCREL (on behalf of CIIL)</distributor>
<pubAddress>Department of Linguistics, Lancaster University, Lancaster, LA1 4YT, UK</pubAddress>
<availability region="WORLD"></availability>
<pubDate>03-07-21</pubDate>
</publicationStmt>
<sourceDesc>
<biblStruct>
<monogr>
<h.title>চান্দমাম</h.title>
<h.author>বি.রেড্ড</h.author>
<imprint>
<pubPlace>India</pubPlace>
<publisher>Unknown - Magaz</publisher>
<pubDate>1985</pubDate>
</imprint>
<idno type="CIIL code">acl24</idno>
</monogr></biblStruct></sourceDesc></fileDesc>
<encodingDesc>
<projectDesc>Text collected for the CIIL Corpus, subsequently integrated into the EMILLE/CIIL Monolingual Written Corpora.</projectDesc>
<samplingDesc>Simple written text only has been transcribed. Diagrams, pictures and tables have been omitted. Sampling begins at page 06410.</samplingDesc>
<editorialDecl><conformance level="1"></conformance></editorialDecl>
</encodingDesc>
<profileDesc>
<creation><date>03-07-21</date></creation>
<langUsage>Assamese</langUsage>
<wsdUsage>
<writingSystem id="ISO/IEC 10646">Universal Multiple-Octet Coded Character Set (UCS).</writingSystem>
</wsdUsage>
<textClass>
<channel mode="w">print</channel>
<constitution type="composite"></constitution>
<domain type="public"></domain>
<factuality type="fiction"></factuality>
</textClass>
<translations></translations>
</profileDesc>
<revisionDesc></revisionDesc>
</cesHeader>

<text><body>
<p>&lt;চান্দমামা ( বি. নাগিরেড্ডি )
তার পাছত এদিন রাজসভাত কবি , সংগীত
শিল্পী আরু বিদুষকর প্রযোজন নাই বুলি কামর
পরা বর্খাস্ত করিলে । এওঁলোকক চিরদিনর কারণে
বিদায দিলে । আনকি বিভিন্ন গুণীজনলৈ য়ি উপহার
প্রদানর ঐতিহ্য় আহিছিল , তাকো বন্ধ করি দিলে ।</p>

<p>রাজকুমারর এইবোর কামর খাম-খেযালীর বাবে
গোটেই দেশখনতে অস্থির অ঵স্থার সৃষ্টি হ'ল ।
কিন্তু কুমারবর্মাই সেইবোর কথাত মুঠেই মূর
নঘমালে । তেওঁ য়ি করিলে ভালেই করিলে বুলি
ভাবি থাকিল ।</p>

<p>কিন্তু রজা কুমারবর্মার মহামন্ত্রী অনন্তবর্মাই
জানিব পারিছিল য়ে রূপাংহারী সামন্ত অঞ্চলর
রজা শুক্রপালে কুমারবর্মাক সিংহাসনচ্য়ুত করিবলৈ
চক্রান্ত করি আছে । এই গোপন সংবাদ জানিব পারি
মহামন্ত্রী অনন্তবর্মাই কুমারবর্মাক ক'লে , মহারাজ
আপুনি য়িবোর নিস্প্রযোজনীয বুলি ভাবিছিল , সেইবোর
নোহো঵া করিলে । তার পাছত দেশর অ঵স্থা কেনেকু঵া
হ'ল এবার চাবনেকি ?</p>

<p>মহামন্ত্রীর কথাত সন্মত হৈ , ছদ্মবেশ ধরি
কুমারবর্মাই , মহামন্ত্রী আরু অন্য়ান্য় মন্ত্রী
একেলগে দেশর অ঵স্থার বুজ ল'বলৈ ওলাল ।
এখন গাওঁর এজোপা বরগছর তলত বহুতো
মানুহ গোট খাইছিলহি । ছদ্মবেশী রজা আরু
মন্ত্রীযে আঁরত থাকি সকলোবোর কথা শুনি
থাকিল ।</p>

<p>গাওঁবুঢ়াই তার ন঵াগত আরু চারিজন মানুহক
চিনাকি করি দি ক'লে , এওঁলোক আমার
চুবুরীযা গাওঁরপরা আহিছে । আমার রজার
মইমতালি তথা নির্বুদ্ধিতার ফলত এওঁলোক
বিপাঙত পরিছে । গুরুর আশ্রমত থাকি এজন
মানুহ এলেহু঵া দেখি রজাই শিক্ষাব্য়঵স্থাক বাতিল
করি দিলে । এতিযা দেশত অশিক্ষার সংখ্য়া
দোপত দোপে বাঢ়ি য়ো঵াত গরু আরু মানুহর
মাজত ভেদাভেদ নাইকীযা হৈ পরিছে ।</p>

<p>চুবুরীযা গাওঁরপরা অহা এজনে ক'লে , এটা
চোর ধরা নপরিল বুলি গোটেইখন দেশরপরা
কতো঵াল , প্রহরী আদিত বর্খাস্ত করাত এতিযা
চোরবিলাকে ডকাইত হৈ পরিছে ।</p>

<p>আন এজনে ক'লে , অনুগ্রহ করি এই কথা
মন দি শুনক । আমার দেশ এতিযা অরক্ষিত ।
প্রহরী , সৈন্য় আদি একো঵ে নাই । ইপিনে এজন
সামন্ত রজাই আমার রজাক তথা আমার দেশখনক
আক্রমণ করিবলৈ য়োজা করি আছে ।</p>

<p>এজনে কৈ উঠিল , আমার রজাই কবি-শিল্পী~
সকলক আমার দেশরপরা খেদি পঠিও঵াত
তেওঁলোক গ'ল চুবুরীযা দেশলৈ । এই কথাত
আমার রজার আরু আমারো মান-সন্মান বাঢ়িল
নে টুটিল কওঁকচোন ?</p>

<p>সকলোটির কথার অন্তত গাওঁবুঢ়াই ক'লে ,
আমি এটা কাম করোঁ আহক । আমার রজাই
আমার সকলোকে অপ্রযোজনীয বুলি খেদিলে
আমিও আমার রজা কুমারবর্মাক আমার অপ্রযো~
জনীয বুলি খেদিব পারো দেখোন ? য়িজনে আমার
হৈ , আমার কারণে রাজত্঵ করিব তেওঁকহে আমি
রজা পাতিম ।</p>

<p>আঁতরত থাকি কুমারবর্মার মূরটো আচন্দ্রাই
করি উঠিল । তেওঁ তাত আরু নরৈ পোনে
পোনে রাজধানীলৈ উভতি আহিল ।</p>

<p>তার পাছত রজা কুমারবর্মাই মহামন্ত্রী অনন্ত~
বর্মার পরামর্শমতে আগর সকলো ব্য়঵স্থা
ঘুরাই আনিলে । আনকি কবি-শিল্পীহঁতো ঘুরি
আহিল আরু রজা কুমারবর্মার খামখেযালীরো
অ঵সান ঘটিল । //
সুখ আরু দুখ :
ককাঁকর মৃত্য়ুর পাছত ন঵ই আরু এই ভ঵ত
পার-কূল নোপো঵া হৈ পরিল । ককাকে য়িকেইটা
টকা সাঁচি থৈ গৈছিল , সেই টকাকেইটারে টানিটুনি
কথমপি তিনি মাহমান চলিল । তার পাছত গাওঁর
ঘরে ঘরে ন঵ই কাম-বন বিচারি থাকিল ।
বহুতেই তাক ক'লে , তুমিতো কোনো কাম-বন
শিকা নাই , ইযাত তোমাকনো আমি কি কাম দিম ?
তুমি বরঞ্চ নগরলৈ য়ো঵া , তাত কাম পাবা ।</p>

<p>তার পাছত গাওঁত থাকি পেট প্র঵র্ত্তো঵া অসম্ভ঵
দেখি সি ককাকর মাটি-বারিখিনি বিক্রি করি নগরলৈ
খোজ ল'লে । এটা সরু খোটালি ভাড়ালৈ লৈ তাত
থাকি দিনে-নিশাই চকরি ঘূরাদি ঘূরি ঘূরি চাকরি
বিচারি থাকিল ।</p>

<p>নগরর বিভিন্ন ঠাইত চাকরি সন্ধান করি সি
ভাগরি পরিল । কিন্তু কোনেও চাকরি এটা দি
তার ভাগর নুগুচালে । বহুতেই তাক ক'লে ,
তোমাক চিনি নাপাও , ইযাতো কোনো এজন
চিনাকি মানুহ নাই তোমার , তোমাক কি বিশ্঵াস
করি চাকরি এটা দিওঁ কো঵াচোন ?</p>

<p>অ঵শেষত এদিন ন঵ তার জী঵নর প্রতি
বিতৃষ্ণ হৈ উঠিল । সি দিনতে আন্ধার য়েন
দেখি আধা টোপনি আধা উজাগরে দিনবোর
রাতিবোর পার করিবলৈ ধরিলে ।</p>

<p>এনিশা খুটুক-খুটুককৈ কিবা এটা শব্দ শুনি
ন঵র চিলমিলিযা টোপনি আঁতরিল । জোনাক
রাতি সি তার খোটালীর ফুটাইদি এজনী ছো঵ালী
জাঁপ মারি পরিবলৈ ধরা দেখি কোথার দু঵ার
খুলি তালৈ দৌরি গ'ল । ন঵ই জঁপিযাই মরিবলৈ
ধরা য়ু঵তির হাতত ধরি ক'লে , প্রমীলা কি করিছা ?
কি করিছা তুমি ?
জঁপিযাই পরিবলৈ ধরা ছো঵ালীজনীর নাম প্রমীলা ।
প্রমীলাই ন঵ক তাইর দুখর কাহিনী কো঵ার পাছত
ন঵ই শুনাখিনিরে বুজি পালে য়ে -
প্রমীলার নিজর মাক নাই , আছে সতিযৈ মাক ।
দেউতাকে তাইক এটা বুঢ়ার লগত বিযা দিব ।
তাই এই বিযা নকরায । সকলো কথা বি঵রি
কো঵ার পাছত প্রমীলাই ক'লে , সেই সোলামুখীযা ,
তপামূরীযা বুঢ়াক বিযা করো঵াতকৈ মোর মরণে
ভাল আছিল । আপুনি কিয বাধা দিলে ? কিয
বচালে , কওঁকচোন মোক ?</p>

<p>জী঵নত সুখ থকার দরে দুখো নথকা নহয ,
আছে । পিছে দুখর দিনবিলাকত ধৈর্য়্য় ধরিব
লাগে । মরিলেই দেখোন সকলো একেবারে শেষ
হৈ য়াব । কিয মরিবা ? ন঵ই ক'লে ।</p>

<p>প্রমীলাই ন঵র মুখলৈ অন্তর্ভেদি দৃষ্টিরে চাই
ক'লে , মই আপোনার নীতি-বচন নুশুনো ।
য়দি মোর এই বিপদরপরা উদ্ধার করিব পারে ।
প্রমীলা অলপ র'ল আরু ক'লে আপুনি মোক
ইযারপরা উদ্ধার করিব নো঵ারেনেকি ?</p>

<p>বিভ্রান্ত ন঵ই সুধিলে : কেনেকৈ ? মোক বিযা
করাই । প্রমীলাই স্পষ্টকৈ ক'লে ।</p>

<p>হঠাত্ আপুনিপরা তুমিলৈ বগরাত ন঵ই বেযা
নাপালে । ভালেই পালে । সি তাইর এই
প্রস্তা঵ত মান্তি হ'ল আরু তাইক ঘরলৈ উভতি
য়াবলৈ ক'লে । ন঵ই কো঵াত তেতিযাই প্রমীলাই
ঘরলৈ উভতি গ'ল ।</p>

<p>পিছদিনা ন঵ই প্রমীলার সতিযৈ মাক আরু
দেউতাকক কথাটো ক'লে । প্রমীলার মাকে
ক'লে , য়ি শুনিলোঁ - তোমার বিযা করাবর
মন অথচ গাঠিত নাইকীযা ধন । আরু তোমার
ঘরত নাই দু঵ার , নাই চারকিও । তুমিনো বিযা
করাই কি করিবা ? আগতে চাকরি , পাছত বিযা ,
নহ'লে বাছা নিমিলে হিযা ।</p>

<p>ন঵ই তলমূর হৈ তারপরা গুচি আহিল ।
কিন্তু সি ঘরলৈ নগ'ল , গ'ল হাবিলৈ ।
হাবিত সোমাই এজোপা গছর তলত শুলেগৈ
সি ।</p>

<p>মাজনিশা এটা শব্দ উঠাত সি সার পালে ।
সি তার নিচেই ওচরত থকা এটা বুঢ়া ভূতক
দেখা পালে । ভূতটো঵ে ন঵ক ক'লে , তোমার
সাহসতো কম নহয । এই ভূতর বনত তুমি কি
করিছা । আরু মই য়ি ঠাইত শো তাতেই তুমি
এটা মূল্য়হীন মানুহ হৈযে শুবলৈ সাহস করিছা ?</p>

<p>জী঵নর ওপরত ঘিণা লাগি য়ো঵া ন঵ই ভূতর
কথাত ভয নকরি ভূতক ক'লে , তোমাতকৈযো
ভযংকর হ'ল মানুহ । সেই মানুহ জাতির মাজত
তিষ্ঠি থাকিব নো঵ারি ইযালৈ আহিছোঁ । ঠিক
আছে - তুমি এইজোপা গছর তলত থাকা , মই
আন জোপার তলতে থাকোগৈ ।</p>

<p>বুঢ়া ভূতটো঵ে ন঵ক ক'লে , তুমি মানুহ
সম্পর্কে ইমান বীতশ্রদ্ধ হৈ পরিছা কিয ?
তোমার ইমান তিঁতা-কেহা লগার কারণ কি ?</p>

<p>ন঵ই বুঢ়া ভূতক তার দুখর কথা আদ্য়োপান্ত
ক'লে । তেতিযা বুঢ়া ভূতে হোঁ-হোঁ঵াই ক'লে ,
এই কথাত তুমিনো ইমান হতাশ হৈছা কিয ?
মই তোমার সকলো দুখ-কষ্ট দুর করি দিম
র'বা । এইবুলি বুঢ়া ভূতে তার দীঘল হাতখনেরে
গছর খোরঙরপরা এটা তামর আঙঠি আনিলে
আরু ন঵ক দি ক'লে , এই আঙুঠিটো আঙুলিত
পিন্ধা । তুমি য়ার পরা য়ি খুজিবা তাকে পাবা ।
পিছে এটা কথা - এই আঙুঠিটোরে তুমি তোমার
তিনিটা ইচ্ছা পূরণ করিব পারিবা । তার পাছত
এই মন্ত্রপুত তামর আঙঠিটোর একো মহিমা
নাথাকিব ।</p>

<p>আঙঠিটো পিন্ধি তেতিযাই ন঵ই নগরর
আটাইতকৈ ডাঙর ব্য়঵সীযার ওচরলৈ গৈ
ক'লে , মোক এটা চাকরি দিযা ।
মাত্র কেইদিনমানর আগতে এইজন
ব্য়঵সাযীযে ন঵ক বিমুখ করিছিল । আজি
তেওঁ লগে লগে ন঵ক এটা চাকরি দিলে ।
তোমাক মই এতিযারে পরা চাকরিত মকরল
করিম ।</p>

<p>সেইদিনা গধুলিতে ন঵ই প্রমীলার সতিযৈ
মাকর ওচরলৈ গৈ ক'লে , মোর চাকরি
হ'ল ; প্রমীলাক মোর লগত বিযা দিবা
নে নাই । ন঵ই ক'লে ।
কথা শুনি প্রমীলার মাকে ক'লে , বোপা -
কিয নিদিম । মই সাতদিনর ভিতরত
তোমার ঘর পাতি দিম ।</p>

<p>বিযার পাছত প্রমীলাই ন঵ক ক'লে ,
তুমিনো কি য়াহদু করিলা ? চাকরি
করিলা , মাক রাজী করালা । কথাটোনো
কি ?</p>

<p>তেতিযা ন঵ই প্রমীলাক কথাটো ক'লে ।
ন঵ই ক	'লে , ভূতে দিযা সেই আঙঠিটোর
কথা ।</p>

<p>ভূতর কথা শুনি প্রমীলাই কৈ উঠিল , হযনেকি !
ভূতো ইমান ভাল হযনে ! কিন্তু আজি রাতিপু঵াতেই
মই সেই তামর আঙঠিটো দলিযাই পেলালোঁ এটা
অকামিলা আঙঠি বুলি ভাবি । এতিযা কি হ'ব
কো঵াচোন ?
একো নহ'ব । য়ি করিলা ভালেই করিলা ।
ন঵ই ক'লে ।</p>

<p>ন঵র কথাত প্রমীলার খং উঠিল । তাইর খং
উঠিল ক'লে - কেনেকৈনো ভাল হ'ল । এই
আঙঠিটোর তিনিটা ইচ্ছা পূরণ হ'লহেতেন ।
দুটাহে মাত্র হ	'ল । আরু এটা কোনে পূরণ
করিব ।</p>

<p>তাইক বাধা নিদি ন঵ই ক'লে , ভাগ্য়ত য়ি
আছে পালো । তুমিও পালা । আরুনো কি
লাগে । ভূতর আঙঠিটো গ'ল য়দি গুচিল ।</p>

<p>কিন্তু প্রমীলাই আঙিঠিটো য়'ত দলিযাই
পেলাইছিল তার পরা বুটলি আনিলে ।
এই আঙঠিটো পিন্ধি , এতিযা জমিদারক
কমগৈ তেওঁ আধাখিনি মাটি আমাক দিবলৈ ।
তুমি নোয়ো঵া য়দি , মযেই য়াম । য়াওঁনে ?</p>

<p>য়ো঵া , এই বুলি কৈ ন঵ই প্রমীলাক পুনর
ক'লে , এই আঙঠিরে কিন্তু আরু একো঵ে
নহ'ব । এই আঙঠি পিন্ধি তুমি মোর অনুমতি
খুজিছিলা আরু অনুমতি পালা । বছ্ - আঙঠির
মহিমা ইমানতেই শেষ । তৃতীয ইচ্ছা পূরণ হৈ
গ'ল আরু আঙঠির কার্য়্য়কারীতাও শেষ হৈ গ'ল ।</p>

<p>হঠাত্ প্রমীলাই উচুপিবলৈ ধরিলে আঙঠিটোর
শোকত । তাইক শান্তনা দি ন঵ই ক'লে ,
অতৃপ্তি মানেই দুখ । কেইদিনমানর আগতে
তুমি মোর লগত বিযা হ'লেই তোমার দুখ-কষ্টর
নাইকীযা হ	'ব বুলি ভাবিছিলা । আরু এতিযা এটা
ইচ্ছা পূরণ নোহো঵া বাবে চকুপানী টুকিছা ।</p>

<p>গিরিযেকর বক্তব্য়ক অনুধা঵ন করি প্রমীলাই
ক'লে , মোর অজ্ঞতার কথা ভাবি এতিযা মোর
নিজরেই লাজ লাগি গ'ল । মোক ক্ষমা করা । //
ধূর্তামির পরিমাণ :
ছিম্মানগরর বেপারী দাযুদ আছিল অতি
সত্য়বাদী । সত্য়বাদীছো঵াত তেওঁক বহুতেই
ভাল পাইছিল ।</p>

<p>এই নগরত দুটা ঠগবাজ আছিল । সিহঁতে
মুখর মেহেরারে মানুহ বেওকুফ বনাই ঠগিছিল ।
সিহঁতে এদিন সত্য়বাদী দাযুদকো ঠগিবলৈ ফন্দী
পাতিলে ।
এদিন দাযুদে ভালেখিনি ধন-সো঩ লৈ আন নগর
এখনলৈ বুলি ওলাল । তাত তেওঁ বস্তু-বাহানী
কিনিবগৈ । আরু ঠগবাজ দুটাই ভাবিলে : এযে
সোণালী সুয়োগ । টোপোলা এটাকৈ কঢ়িযাই লৈ
সিহঁতে দাযুদর পাছে পাছে গৈ থাকিল ।</p>

<p>দুপরীযা য়েতিযা দাযুদ জিরণি ল'বর কারণে
গছর তলত বহিল , তেতিযা টঘবাজী দুটাই
দাযুদক ক'লে , আপোনাক কিন্তু আমি চিনি
পাইছোঁ । আপোনার দরে এগরাকী সত্য়বাদী
মানুহ পাই আমি নিজকে ধন্য় মানিছো ।
আপুনিযেই আমার গুরু । আরু আপুনি শুনি
ভাল পাব য়ে আমিও একোজন বেপারী ।
তার পাছত তিনিও একেলগে গৈ থাকিল ।
গৈ গৈ সিহঁত দুটা আরু দাযুদো এখন চরাইখানাত
আশ্রয ল'লে ।</p>

<p>এই ছিরিযাখানাত কে঵ল থকারহে বন্দবস্ত
আছে , খো঵া-বো঵ার বন্দবস্ত নাছিল তাত ।
দাযুদে নিজর উটটোক এটা খুটিত বান্ধি থলে ।
ঠগবাজ দুটাই সিহঁতর টোপোলা দুটা কোথালি
এটাত সুমু঵াই থৈ তলা লগাই দিলে আরু
দাযুদক ক'লে , ব'লক খানা-পিনা করি আহোগৈ ।</p>

<p>সিহঁতে দাযুদক এটা চেপা গলিযেদি সোমাই লৈ
গ'ল আরু তার ডিঙিত চেপামারি ধরি মারি
পেলাব বুলি ভাবিছিল । তার পাছত দাযুদর
ধন-সোণ লৈ পলাব - এযে আছিল সিহঁতর
মতলব ।</p>

<p>কিন্তু দাযুদে ক'লে , মোর এতিযা ভোক
লগা নাই । আরু মোর ওচরত রুটি ভাজি
আছে পিছত মই খাম । আপোনালোকে খাই
আহকগৈ য়াওঁক ।</p>

<p>দাযুদর খতা শুনি ঠগবাজ দুটা হতাশ হৈ
পরিল । কিন্তু মুখেরে সেই ভাব প্রকাশ
নকরি তেওঁলোক খানা-পিনা করিবলৈ গ'ল ।
য়াওঁতে প্রথম ঠগবাজটো঵ে দ্঵িতীয ঠগবাজটোক
ক'লে , তুমি এটা কাম করা - তুমি পূর্ব্ব দিশর
দোকানলৈ য়ো঵া আরু মই পশ্চিম দিশর দোকানলৈ
য়াওঁ । কিবা অলপ লৈ আহি আমি আটাযেই
চরাইখানাত বহি খাম ।
একদম মোর মনর কথাটো ক'লা তুমি ।
ঠিক আছে । দ্঵িতীয ঠগবাজটো঵ে ক'লে ।
এই বুলি কৈ দুযো দুইফালে খোজ ল'লে ।
অলপ পাছত সিহঁতে খো঵া বস্ত লৈ আহিল ।
প্রথম ঠগবাজে দ্঵িতীয ঠগবাজক সুধিলে ,
তুমি কি আনিলা ?
দ্঵িতীযই ক'লে , গাখীর আরু রুটি ।
প্রথম ঠগবাজে অবাক হৈ ক'লে , মযো
দেখোন গাখীর আরু রুটিকে আনিলোঁ ।</p>

<p>তেনেহ'লে এটা কাম করা য়াওঁক । মই অনাখিনি
তুমি খো঵া আরু তুমি অনাখিনি মই খাওঁ । অতি
আচরিত কাণ্ড ! একদম মোর মনর কথাষার কৈ
দিলা তুমি । প্রথমজনে ক'লে ।</p>

<p>তার পাছত দুযোরে একেবারে হাঁহি উঠিল
আরু মনর তৃপ্তিরে খালে । কিন্তু খো঵ার
লগে লগে দুযো বতিযাঁব ধরিলে । সিহঁতর
কাতর আর্তনাদ আরু রাউচি শুনি তাত ঢের
মানুহ গোট খাই পরিল ।</p>

<p>দুযো দুযোকো অপরাধী হিচাবে চিনাকী দিবলৈ
বারে বারে হাত ভরি ভাঙি চেষ্টা করিলে । কিন্তু
চাওঁতে চাওঁতে সিহঁত দুযোটাই মরিল ।
দুটা ঠগবাজর মতলব একেটাই আছিল ।
দাযুদক মারি পেলো঵ার পিছত তেওঁর ধন-~
সোণখিনি অকলে আত্মস্য়াত্ করার মতলব
আছিল । এই মতল঵ হাচিল করি দুযোকো
বিহ মিহোলো঵া গাখীর খু঵াইছিল । তার
ফলত দুযো মরিল । সিহঁতর মৃত্য়ুত দাযুদ
বর কাতর হ'ল । সিহঁত য়ে ঠগবাজ দাযুদে
কেনেকৈ জানিব ? সেইদেখি সিহঁতর কারণে
দাযুদে কেনেকৈ জানিব ।
 +&gt;*"",0",0
</p></body></text></cesDoc>