<cesDoc id="asm-w-media-amr64" lang="asm">
<cesHeader type="text">
<fileDesc>
<titleStmt>
<h.title>asm-w-media-amr64.txt</h.title>
<respStmt>
<respType>Electronic file created by</respType>
<respName>Central Institute for Indian Languages, Mysore</respName>
<respType>transferred into Unicode and CES format by</respType>
<respName>"Unicodify" software by Andrew Hardie</respName>
</respStmt></titleStmt>
<publicationStmt>
<distributor>UCREL (on behalf of CIIL)</distributor>
<pubAddress>Department of Linguistics, Lancaster University, Lancaster, LA1 4YT, UK</pubAddress>
<availability region="WORLD"></availability>
<pubDate>03-07-21</pubDate>
</publicationStmt>
<sourceDesc>
<biblStruct>
<monogr>
<h.title>প্রান্তি</h.title>
<h.author>ভবেন্দ্র</h.author>
<imprint>
<pubPlace>India</pubPlace>
<publisher>Unknown - Magaz</publisher>
<pubDate>1987</pubDate>
</imprint>
<idno type="CIIL code">amr64</idno>
</monogr></biblStruct></sourceDesc></fileDesc>
<encodingDesc>
<projectDesc>Text collected for the CIIL Corpus, subsequently integrated into the EMILLE/CIIL Monolingual Written Corpora.</projectDesc>
<samplingDesc>Simple written text only has been transcribed. Diagrams, pictures and tables have been omitted. Sampling begins at page 0406.</samplingDesc>
<editorialDecl><conformance level="1"></conformance></editorialDecl>
</encodingDesc>
<profileDesc>
<creation><date>03-07-21</date></creation>
<langUsage>Assamese</langUsage>
<wsdUsage>
<writingSystem id="ISO/IEC 10646">Universal Multiple-Octet Coded Character Set (UCS).</writingSystem>
</wsdUsage>
<textClass>
<channel mode="w">print</channel>
<constitution type="composite"></constitution>
<domain type="public"></domain>
<factuality type="fact"></factuality>
</textClass>
<translations></translations>
</profileDesc>
<revisionDesc></revisionDesc>
</cesHeader>

<text><body>

<p>অসমলৈ বিদেশীর অনুপ্রবেশ অব্য়াহত ।
বাংলাদেশরপরা অসমলৈ অনু~
প্রবেশকারীর সোঁত বাধাহীনভা঵ে চলি
আছে । সীমান্ত নিরাপত্তা রক্ষী বাহি~
নীর সূত্রর ধারণামতে কাঁইটীযা তাঁরর
বেরেও অনুপ্রবেশ সম্পূর্ণকৈ রোধ
করিব নো঵ারে ।</p>

<p>সীমান্তর বিভিন্ন ঠাইলৈ লৈ য়ো঵া
এদল সাংবাদিকর আগত এই বাহিনীর
বিষযাসকলে কয য়ে সীমান্ত অতি~
ক্রম করাটো একেবারে সাধারণ কথা
হৈ পরিছে । ধুবুরীখণ্ডর 146 কিল'-
মিটার জোরা সীমান্তত পহরা দিবলৈ
সীমান্ত নিরাপত্তা বাহিনীর মাত্র এটা
বেটেলিযানহে আছে । এই অংশর 76
কিল'মিটার অঞ্চল পানীযে আগুরি
আছে । পহরা চকীসমূহ 3.5 কিল'-
মিটার বা ততোধিক দূরত্঵হহে অ঵স্থিত ।
ইযার ফলত এই বাহিনীর পক্ষে উপ~
য়ুক্তভা঵ে পহরার কাম চলো঵াটো
সম্ভ঵পর হৈ উঠা নাই ।</p>

<p>শতরসর গাওঁবাসীসকলর মতে
বাংলাদেশর বেপারীযে সদাযেই ধপাত
কণী আরু পুরণি সাজ-পোছাক আদি
বেছিবলৈ আহে ।</p>

<p>নদী অঞ্চ঵লেদি অনুপ্রবেশ বন্ধ
করার অর্থে সীমান্ত রক্ষী বাহিনীক
তীব্রবেগী নাও দিযা হৈছে । কিন্তু
এজন বিষযার মতে চোরাংকারবারীযেহে
এই পথ ব্য়঵হার করে । পশ্চিমর
সীমান্তর দরে অসমত থকা সীমান্ত
রক্ষী বাহিনীক নিশা বহুদূরলৈকে চার
পরা সঁজুলিরো য়োগান ধরা হো঵া
নাই । বাহিনীটোর বিষযাসকলর মতে
বেছিভাগ অনুপ্রবেশেই নিশার ভাগত
ঘটে । বহুলোকে দোকমোকালি পরত
সীমান্ত পার হয ; দিনটো এইফালে
কাম-বন করার পাছত অন্ধকারর
সুয়োগ লৈ আকৌ নিজ ঠাইলৈ
উভতি য়ায ।</p>

<p>এই বাতরি দিছে কলিকাতার দি
টেলিগ্রাফ কাকতর সংবাদদাতা জগমিত
উপ্পলে । তেওঁ গু঵াহাটীর চরকারী
সূত্রর উদ্ধৃতি দি জনাইছে য়ে সীমা~
ন্তর 28 কিল'মিটার জোরা এছো঵া
পথ নির্মাণ করোঁতে 2 কোটি 25
লাখ টকা ব্য়য হ'ব আরু দুবছর সময
ল'ব । অসম চরকারে ইতিমধ্য়ে পথ
নির্মাণর বাবে মাটি অধিগ্রহণর কাম
আরম্ভ করিছে । অ঵শ্য়ে মানকাছারত
কিছু অসুবিধার সম্মুখীন হো঵ার সন্তা~
঵না আছে ।</p>

<p>গু঵াহাটীর জালুকবারীর ওচরর
আদাবারীত অলপতে অসম অভি~
য়ান্ত্রিক মহাবিদ্য়ালযর এদল ছাত্র আরু
স্থানীয লোকর মাজত হো঵া বিবাদর
ফলত অঞ্চলটোত উত্তপ্ত পরিবেশরে
সৃষ্টি হয । পাছত অসম	 জাতীযতা~
বাদী য়ুবছাত্র পরিষদ প্রমুখ্য়ে
অনুষ্ঠান ধ঳আরু ব্য়ক্তির উদ্য়োগত দুযোূ~	
পক্ষর মাজত আপোচ করি দিযা হয ।
দুযোপক্ষর প্রতিনিধিসকলে অঞ্চলটোত
শান্তি-সম্প্রীতি বজাই রখার ওপরত
গুরুত্঵ আরোপ করে আরু হৈ য়ো঵া
অপ্রীতিকর ঘটনাটোক নিন্দা করি দুখ
প্রকাশ করে । য়ুব ছাত্র পরিষদর তর~
ফরপরা অঞ্চলটোত এনে ধরণর ঘটনার
য়াতে পুনরাবৃত্তি নহয তার প্রতি সতর্ক
দৃষ্টি রাখিবলৈ সকলোরে প্রতি আহ্঵ান
জনো঵া হয আরু অভিয়ান্ত্রিক মহা~
বিদ্য়ালযর ছাত্রসকলক উক্ত অঞ্চলত
শ্রমদানেরে স্থানীয	 রাইজর সৈতে ভাতৃ~
ত্঵র বান্ধোন কটকটীযা করিবলৈ আহ্঵ান
জনো঵া হয ।</p>

<p>মণিপুরত বাংলার সলনি
মণিপুরী লিপি
উত্তর-পূর্বাঞ্চলর বিভিন্ন জাতির
ভিতরত কে঵ল অসমীযা আরু মণি~
পুরীসকলরহে ভারতীয মূলর লিপি
আছে । অঞ্চলটোর আন রাজ্য়সমূহে
রোমান লিপি ব্য়঵হার করে । অ঵শ্য়ে
মণিপুরীসকলে এতিযালৈকে বাংলা
লিপিহে ব্য়঵হার করি আহিছে ।
বর্তমান সেই রাজ্য়র জনসাধারণর
লগতে রাজ্য় চরকারেও বাংলা লিপির
ঠাইত ওঠর শতিকাত বাদ দিযা
মণিপুরী লিপি ব্য়঵হারর পক্ষে মত
পোষণ করিছে । রাজ্য় চরকারে এক
জাননীয়োগে বিদ্য়ালযসমূহত ষষ্ঠ শ্রেণী~
লৈকে মণিপুরী লিপি শিকো঵া আরম্ভ
করিছে তার সর্বসাধারণ রাইজেও এই
ক্ষেত্রত বিশেষ উত্্সাহ প্রদর্শন করিছে ।
বহুল প্রচারিত এখন মণিপুরী দৈনিক
কাকতে ইতিমধ্য়ে ইযার সম্পাদকীযা
নিবন্ধ মণিপুরী লিপিত ছপা	 করিবলৈ
আরম্ভ করিছে । অ঵শ্য়ে এই লিপি
ব্য়াপক হারত প্রযোগ করিবলৈ রাজ্য়
চরকারে প্রযোজনীয রাজনৈতিক
উত্্সাহ প্রদর্শন করা নাই বুলিও
এটা চামে অভিয়োগ করিছে । তেওঁ~
লোকর অভিয়োগ মতে মুখ্য়মন্ত্রী আরু
অন্য়ান্য় জ্য়েষ্ঠ বিষযাসকল অমণিপুরী
ভাশী হো঵া বাবেই এনে হ'বলৈ
পাইছে ।</p>

<p>মণিপুরীসকল মণিপুরী লিপি
প্রবর্তনর বাবে দৃঢ়প্রতিজ্ঞ হো঵ার
লগে লগে আন এক সমস্য়ারো
সন্মুখীন হৈছে । কারণ বিভিন্ন মণিপুরী
রজাসকলে বিভিন্ন সমযত নিজর
সুবিধা অনুসরি এই লিপির কিছু
সংশোধন করি লৈছিল । ফলত পাছর
রজাসকলর দিনত কেইবাধরণরো
মণিপুরূ লিপির আবির্ভাব ঘটে ।</p>

<p>মণিপুর চরকারে সহজে শিকির
পরা লিপিসমূহর চিনাক্তকরণর বাবে
এখন সমিতি গঠন করি দিছে । চক~
কারর ফালরপরা কোনো ধরণর
গাফিলতি নকরিলে মণিপুরত অহা
দশকমানর ভিতরতে বাংলা লিপির
ঠাইত সম্পূর্ণরূপে মণিপুরী লিপি প্রব~
র্তন করিব পরা হ'ব বুলি আশা
করা হৈছে ।</p>

<p>মণিপুরর নতুন চাম লেখকে তেওঁঢ~
লোকর লেখাসমূহত মণিপুরী লিপি
ব্য়঵হার করিবলৈ আরম্ভ করিছে ।
তেওঁলোকে মত পোষণ করে য়ে
মণিপুরী এটা চহকী ভাষা ; গতিকে
বাংলা ভাষারপরা আখর বা শব্দ ধার
করার কোনো য়ুক্তি নাই ।	 আটাইবোর
বাংলা লিপি মণিপুরী ভাষাত ব্য়঵হারো
করিব নো঵ারি । তদুপরি অন্ততঃ দুটা
বাংলা আখর মণিপুরীত একেবারে
উচ্চারণ করিব নো঵ারি বুলি তেওঁ~
লোকে কয ।</p>

<p>কোকরাঝার কলেজর এগরাকী
ছাত্রীযে কলেজলৈ দখনা পিন্ধি নহা
বাবে কেতবোর ছাত্রই সৃষ্টি করা	
ঘটনার পরিপ্রেক্ষিতত আরক্ষী বাহি~
নীযে য়ধেমধে বড়ো ছাত্রক গ্রেপ্তার
করি হারাশাস্তি করা বুলি বড়ো ছাত্র
সন্থাই অভিয়োগ করিছে ।</p>

<p>সদৌ ঝারখণ়্ড ছাত্র সন্থাই
1988 চনর ভিতরতে এখন পৃথক
ঝারখণ্ড রাজ্য় গঠন করিবলৈ দাবী
জনাইছে । সন্থাই এই দাবীর সমর্থনত
এখন সর্বদলীয কার্য়্য়করী সমিতি গঠন
করিবলৈ সিদ্ধান্ত লৈছে ।</p>

<p>রাজহু঵া খণ্ডর হিন্দুস্তান সার
নিগম নামর সংস্থাটো বন্ধ করি দি
সেই নিগমর উত্্পাদন গোটকেইটা
ব্য়ক্তিগত উদ্য়োগপতিলৈ হস্তান্তর করি~
বলৈ কেন্দ্রীয চরকারে য়ো-জা করা বুলি
ওলা঵া রাতরিটোর তীব্র প্রতিক্রিযা
হৈছে । নিগমর নামরূপত থকা গোট~
সমূহো এই প্রক্রিযাত বন্ধ হৈ গ'লে
বা ব্য়ক্তিগত মালিকানালৈ হস্তান্তরিত
হ'লে প্রায চারিহাজার কর্মচারী পোন~
পটীযাকৈশ ক্ষতিগ্রস্ত হ'ব । প্রায 350
কোটি টকার নামরূপ উদোগসমষ্টিত
তিনিটা বৃহত্্ সার গোট আছে ।</p>

<p>অলপতে নামরূপত এই সংক্রান্তত
গঠিত নামরূপ উদ্য়োগ সংরক্ষণ সমিতিযে
কেন্দ্রর এনে জল্পনা-কল্পনার তীব্র
বিরোধিতা করিছে । 1986 চনর মার্চ
পর্য়্য়ন্ত নামরূপ সারকারখানাই 130
কোটি টকা লোকচান ভরা বুলি ওলো঵া
বাতরি সংক্রান্তত সমিতিযে সন্দেহর
থল আছে বুলি মন্তব্য় করিছে ।</p>

<p>ইফালে সমিতির উপদেষ্টা তথা
সংসদী সদস্য় ডঃ নগেন শইকীযাক
কেন্দ্রীয সার মন্ত্রী শ্রীআর প্রভু঵ে
জানিবলৈ দিছে য়ে কারখানাসমূহ বন্ধ
করিবলৈ চরকারে কোনো সিদ্ধান্ত
লো঵া নাই ।</p>

<p>সমিতিযে কেন্দ্রীয চরকারলৈ প্রেরণ
করা স্মারকপত্রত অসমর তৈলক্ষেত্রর
অতিরিক্ত প্রাকৃতিক গেছ ব্য়঵হার করি
রাজ্য়ত আরু দুটা সারকারখানার সৈতে
এটা পৃথক লাভজনক সাক নিগম গঠন
করিবলৈ দাবী জনাইছে ।</p>

<p>জনতা দলর সভাপতি চন্দ্রশেখরে
বাবরি মছজিদ একশ্য়ন কমিটির দ্঵ারা
মুছলমানসকলক গণতন্ত্র দিবসর অনু~
ষ্ঠানসমূহ বর্জন করিবলৈ জনো঵া
আহ্঵ানর নিন্দা করিছে । ইযার আগেযে
ভালেমান জনতা চৈযদ চাহাবুদ্দিনে লো঵া
সাম্প্রদাযিক দৃষ্টিভংগীত তীব্র অসন্তুষ্টি
প্রকাশ করিছে । তেওঁলোকর মতে
চাহাবুদ্দিনে দলর ধর্মনিরপেক্ষ ভাবভংগী
ম্লান করিছে । কর্ণাটকর মুখ্য়মন্ত্রী
রামকৃষ্ণ হেগড়েযো চন্দ্রশেষরক তেওঁর
অসন্তুষ্টির কথা জনাইছে । ইযার আগ~
লৈকে চন্দ্রশেখরে চাহাবুদ্দিন মতামত~
সমূহক তেওঁর ব্য়ক্তিগত মত হিচাপে
গণ্য় করি আহিছিল ; কিন্তু বর্তমান
দলর বিভিন্ন মহলর হেঁচাত পরি চন্দ্র~
শেখরেও চাহাবুদ্দিনর দৃষ্টিভংগীর
সমালোচনা করিবলৈ বাধ্য় হৈছে ।
বাবরি মছজিদ একশ্য়ন কমিটির
আহ্঵ানক দুর্ভাগ্য়জনক বুলি উল্লেখ করি
তেওঁ কয য়ে য়িকোনো উচটনিযেই
নাহক কিয , কোনো সম্প্রদাযেই গণ~
তন্ত্র দিবসর দরে এটা দিনর গুরুত্঵ক
লঘু করা অনুচিত ।</p>

<p>অসমর সংয়ুক্ত সংখ্য়ালঘু মর্চার
আব্দুল ফজল গোলাম ওচমানিযেও
গণতন্ত্র দিবস বর্জনর বাবে চৈযদ চাহা~
বুদ্দিনে জনো঵া আহ্঵ানক তীব্র
গরিহণা দিছে । তেওঁ এই আহ্঵ানক
রাষ্ট্রবিরোধী বুলি অভিহিত করিছে ।</p>

<p>উত্তর প্রদেশর গোমতি নদীত
সীতাপুর জিলার নৌগড়র এটা চেনি
কল আরু লক্ষ্ণৌর এটা মদর কারখানার
বিষাক্ত অপদ্রব্য়সমূহ পেলো঵ার ফলত
লক্ষ্ণৌর পানী খো঵ার বাবে অনুপয়ুক্ত
বুলি ঘোষণা করা হৈছে । উত্তরপ্রদেশ
জল প্রদূষণ ব'র্ডর	 সদস্য়-সচিব সুরেন্দ্র
সিঙর মতে আ঵ধ চেনি কল আরু
মোহন মেকিনজ নামর এই কারখানা~
দুটাক ইযার অপদ্রব্য়সমূহ গোমতিত
পেলো঵াটো বন্ধ করার অর্থে ব'র্ডে
উচ্চতম ন্য়াযলযর লক্ষ্ণৌ বেঞ্চর কাষ
চপার কথা ভাবিছে । তেওঁ কয য়ে
দূষিত জলভাগ৉ক পরিশোধন করার
বাবে ইতিমধ্য়ে বিশেষ ব্য়঵স্থা গ্রহণ
করা হৈছে ।</p>

<p>পাকিস্তান টেলিভিশানর এখন
উর্দু নাটকত প্রদর্শন করা বিবাহ-
বিচ্ছেদর এটা দৃশ্য়ই সেই দেশর
উলেমাসকলর মাজত এক উত্তপ্ত
বিতর্কর সৃষ্টি করিছে । এই দৃশ্য়টোতে
প্রখ্য়াত অভিনেতা ওচমান পিরজাদাই
"""" তালাক """" শব্দটো তিনিবার উচ্চারণ
করি তেওঁর পত্নীক বিচ্ছেদ করা
দেখুউ঵া হৈছে । কিন্তু উল্লেখয়োগ্য়
কথা হ'ল , - পত্নীর ভূমিকাত নিজ
পত্নী ছামিনাযেই অভিনয করিছে ।
সুয়োগ সন্ধানী উলেমাসকলে লগে লগে
তিনিবার ` তালাক ' শব্দ উচ্চারণ করা
বাবে পিরজাদা আরু ছামিনাই বাস্ত঵
জী঵নতো স্঵ামী-স্ত্রী রূপে থকার অধি~
কার হেরু঵ালে বুলি ঘোষণা করে ।
তেওঁলোকর মতে বিশ্঵ নরী হজরত
মহম্মদে ( দ ) বিবাহ বিচ্ছেদ , দাসর
মুক্তি আরু বিবাহ , - এই তিনিটা
বিষযত ইচ্ছাকৃত , অনিচ্ছাকৃত অথবা
ধেমালির চলেরে উচ্চারণ করা য়িকোনো
শব্দকে সত্য় বুলি মনা হ'ব বুলি
নির্দিষ্ট করি থৈ গৈছে । আনহাতে
পাকিস্তানর এজন বিশিষ্ট ধর্মীয নেতা ,
মানকি শ্঵রিফরহ পীর চাহেবে ওছমান
পিরজাদার পক্ষে য়ুক্তি দি কয য়ে
টেলিভিশ্য়নর নাটকত দেখুউ঵া এজন
সম্রাট বাস্ত঵ জী঵নত নিশ্চয সম্রাট
নহয ; টেলিভিশ্য়নর অনুষ্ঠানর এজন
হত্য়াকারীযে বাস্ত঵ত কোনোদিনে
হত্য়া করি নাপারও পারে । গতিকে
এনেবোর দৃশ্য়ক সত্য় বুলি মানি
লো঵ার কোনো য়ুক্তি নাই বুলি উল্লেখ
করি তেওঁ পিরজাদা দম্পতির বিচ্ছেদ
ঘটিব নো঵ারে বুলি কয । //
কুলদীপ নাযারর বিশেষ প্রবন্ধ ।
ভারত চরকারর সচিবসকলর এখন
কমিটিযে সৌ সিদিনা এটা সিদ্ধান্তত
উপনীত হ'ল : """" বর্তমানে সেনা
বাহিনীর হাতত য়ি কাম আছে ,
তালৈ চাই তেওঁলোকে ত্রিপুরার নতুন
অঞ্চলত অভিয়ানর দাযিত্঵ লো঵ার
বাবে এই সমযটো সুবিধাজনক নহয । """"
ইফালে 1986 চনর 9 অক্টোবরর
দিনা লিখা চিঠিত কেন্দ্রীয গৃহমন্ত্রী
বুটা সিঙে ত্রিপুরার মুখ্য়মন্ত্রী নৃপেন
চক্রবর্তীক সেনা বাহিনী নিযোগ করি~
বলি অনুরোধ জনায ।</p>

<p>চরকারী কর্তৃপক্ষর বিভিন্ন পর্য়্য়াযত
মতর অমিল ঘটার এইটো঵েই এক~
মাত্র উদাহরণ নহয ; বেছিভাগ লোকেই
বিভিন্ন উদ্দেশ্য় লৈ কাম করি আছে ।
ত্রিপুরার ক্ষেত্রত এই বিষযত	 জড়িত
বিভিন্ন দলর দৃষ্টিভংগীর পার্থক্য়ই
হৈছে অনর্থর মূল । রাজ্য় চরকার
কেন্দ্রীয চরকারর বিরোধী , শাসনাধিষ্ঠ
ছি. পি. আই ( এম ) ই-কংগ্রেছর
বিরোধী , জনজাতীযসকল অজনজাতীযর
বিরোধী , আরু মানসিক ছি পি আই
( এম ) দলটোও বিভক্ত ; মুখ্য়মন্ত্রীযে
উগ্রপন্থীর এটা উপদলক আরু তেওঁর
দ্঵িতীয সহয়োগী দশরথ দেবে অন্য়
এটা উপদলকহে সমর্থন করে ।</p>

<p>এই পার্থক্য় আদর্শগত নহয ;
ব্য়ক্তিগত অথবা দলর জেষ্ঠ্য়তা প্রতি~
পন্ন করার সৈতেহে ইযারহ সম্পর্ক ।
ছি. পি. আই. ( এম ) আরু ই-কংগ্রেছর
বিবাদে নতুন দিল্লী আরু আগরতলার
দৃষ্টিভংগীক প্রভা঵ান্঵িত করিছে ।</p>

<p>ভারত চরকারে রাজ্য় চরকারর
দ্঵ারা ত্রিপুরা বেআইনী কার্য়্য়কলাপ
আইন , 1967 র ম্য়াদ বৃদ্ধি করাটো
বিচারে । ইযার জরিযতে কেন্দ্রীয
চরকারর বাবে য়িকোনো সংগঠনকে
বে আইনী ঘোষণা করার বাট মুকলি
হ'ব । নতুন দিল্লীযে রাজ্য় চরকারর
দ্঵ারাশ এনে ব্য়঵স্থা গ্রহণ করাটো
বিচরার কারণ হ'ল - কেন্দ্রীয চরকারে
এটা সংগঠনক নিষিদ্ধ করার ছমাহর
ভিতরতে রাজ্য় চরকারর দ্঵ারা নিয়ুক্ত
এখন ট্রাইবুনেলে ইযাক অনুমোদন
করাটো প্রযোজনীয । তাকে নকরিলে
এনে নিষেধাজ্ঞা কার্য়করী নহয ।</p>

<p>এইবোরর বাহিরেও , গৃহ মন্ত্রী
আরু রাজ্য়িক মুখ্য়মন্ত্রীর মাজর চিঠি~
পত্রর আদান-প্রদানেও দুটা পরস্পর
বিপরীতমুখী দৃষ্টিভংগীরশ আভাস দাঙি
ধরিছে । গৃহ মন্ত্রীযে """" প্রত্য়ক্ষ ফল """"
লাভ করিব পরাকৈ উগ্রপন্থীর বিরুদ্ধে
বিদ্রোহ-বিরোধী অভিয়ান ক্ষিপ্রতর
হো঵াটো বিচারে ; আনহাতে মুখ্য়-
মন্ত্রীযে য়ুক্তি দিযে য়ে """" তেওঁলোকর
য়ুক্তিয়ুক্ত দাবীসমূহ মানি লৈ রাজ~
নৈতিক সমাধান 'র য়োগেদিযেই উগ্র~
পন্থীসকলক মূল সূঁতিলৈ আনির
পারি । য়িহেতু মুখ্য় মন্ত্রীযে উদ্রপন্থীর
এটা উপদল , বিনন্দ জামাতিযার নেতৃত্঵া~
ধীন ত্রিপুরা জনগণর মুক্তি সংস্থা
বাহিনীক ( ATPLO ) 1983 চনর
জুলাই আরু 1984 চনর জানু঵ারীর
ভিতরত আত্মসমর্পন করিবলৈ সন্মত
করাইছিল , সেযেহে নৃপেন চক্রবর্তী
নিশ্চিত য়ে আলোচনার জরিযতে তেওঁ
পুনর এনে কাম করিব পারিব ।</p>

<p>মুখ্য়মন্ত্রীর কথাত য়ুক্তি আছে ।
পঞ্জাবর উগ্রপন্থীসকলে দেখু঵ায দিছে
য়ে উগ্রপন্থীক অকল শক্তির প্রযোগেরে
দমন করিব নো঵ারি ; সেনা বাহিনীর
প্রযোগে পরিস্থিতি জটিলহে করি
তোলে । দুর্দশার কারণে নিজা মত
সাব্য়স্ত করিব নো঵রা গরিষ্ঠ সংখ্য়কর
অন্তর জয করিবলৈ রাজনৈতিক বুজা~
বুজি হো঵া প্রযোজন । ত্রিপুরার অভা঵
অভিয়োগসমূহশ বুজিবলৈ হ'লে উগ্র~
পন্থী কার্য়্য়কলাপর জন্মর বিষযে জানিব
লাগিব ।</p>

<p>1930 চনত ত্রিপুরার তেতিযার
শাসনকর্তা মহারজা বীর বিক্রমে ভূমি
সংস্কার কার্য়করী করি কৃষকসকলক
মাটি দিযার সমযতে এই সমস্য়াটোর
সৃষ্টি হয । কৃষকসকলর শ্রমর বিনি~
মযত জী঵ন নির্বাহ করা জনজাতীয
মুখীযালসকল মহারজার বিরুদ্ধে জকি
উঠে ; কিন্তু হার মানে । দহ বছরর
পাছত তেওঁ ঝুম খেতির ঠাইত নিয~
মীযা খেতির ব্য়঵স্থা প্রবর্তন করে
আরু এই কামর বাবে বাঙালী রাযত
আমদানি করে । জনজাতীয মুখীযাল
সকল এইবার আরু বেছিকৈ জকি
উঠিল , কিন্তু এই বিবাদে কিবা এটা
রূপ লো঵ার আগতেই দ্঵িতীয বিশ্঵~
য়ুদ্ধ আরম্ভ হৈ গ'ল ।</p>

<p>মহারজাই বৃটিছক সহায করার
অর্থে কহিমালৈ এটা বেটেলিযান
পঠায । ত্রিপুরার জনসাধারণে এই
কথা ভাল নাপালে । কিন্তু য়েতিযা
এই বাহিনীটো঵ে	 নেতাজী সুভাষ
চন্দ্র বসুর ভারতীয রাষ্ট্রীয সেনা-
বাহিনীর বিরুদ্ধে য়ুঁজার কথা প্রচার
হ'ল , তেতিযা মহারজার বিরুদ্ধে জন-
সাধারণর অসন্তুষ্টি অধিক বৃদ্ধি পায ।
",0
</p></body></text></cesDoc>