<cesDoc id="asm-w-media-amt38" lang="asm">
<cesHeader type="text">
<fileDesc>
<titleStmt>
<h.title>asm-w-media-amt38.txt</h.title>
<respStmt>
<respType>Electronic file created by</respType>
<respName>Central Institute for Indian Languages, Mysore</respName>
<respType>transferred into Unicode and CES format by</respType>
<respName>"Unicodify" software by Andrew Hardie</respName>
</respStmt></titleStmt>
<publicationStmt>
<distributor>UCREL (on behalf of CIIL)</distributor>
<pubAddress>Department of Linguistics, Lancaster University, Lancaster, LA1 4YT, UK</pubAddress>
<availability region="WORLD"></availability>
<pubDate>03-07-21</pubDate>
</publicationStmt>
<sourceDesc>
<biblStruct>
<monogr>
<h.title>জিলি'নি.</h.title>
<h.author>দি""ন্ত.শ</h.author>
<imprint>
<pubPlace>India</pubPlace>
<publisher>Unknown - Magaz</publisher>
<pubDate>1983</pubDate>
</imprint>
<idno type="CIIL code">amt38</idno>
</monogr></biblStruct></sourceDesc></fileDesc>
<encodingDesc>
<projectDesc>Text collected for the CIIL Corpus, subsequently integrated into the EMILLE/CIIL Monolingual Written Corpora.</projectDesc>
<samplingDesc>Simple written text only has been transcribed. Diagrams, pictures and tables have been omitted. Sampling begins at page 0622.</samplingDesc>
<editorialDecl><conformance level="1"></conformance></editorialDecl>
</encodingDesc>
<profileDesc>
<creation><date>03-07-21</date></creation>
<langUsage>Assamese</langUsage>
<wsdUsage>
<writingSystem id="ISO/IEC 10646">Universal Multiple-Octet Coded Character Set (UCS).</writingSystem>
</wsdUsage>
<textClass>
<channel mode="w">print</channel>
<constitution type="composite"></constitution>
<domain type="public"></domain>
<factuality type="fact"></factuality>
</textClass>
<translations></translations>
</profileDesc>
<revisionDesc></revisionDesc>
</cesHeader>

<text><body>

<p>ব্য়ক্তি পরিচয । মঃ জযনুর আলী ।
1926 চনর 1 জানু঵ারীত কামরূপ জিলার
নলবারী মহকুমার অন্তর্গত ধর্মপুর মৌজার
মুলারকুছি গাওঁর এটা সম্ভ্রান্ত পরিযালত
জযনুর আলীদে঵ে জন্ম গ্রহণ করিছিল ।</p>

<p>1930 চনত শিক্ষা জী঵নর পাতনি মেলি
1942 চনত কলিকতা বিশ্঵বিদ্য়ালযর অধীনত	
চামতা হাইস্কুলর পরা সুখ্য়াতিরে প্রবেশিকা
পরীক্ষাত উত্তীর্ণ হয । শিক্ষা জী঵নর আরম্ভণির
পরাই দেখা দিযা নানা অভাব আরু অসুবিধাইও
তেখেতক শিক্ষা বিমুখ করিব পরা নাছিল য়দিও
কিছু ব্য়াঘাত জন্মাইছিল । প্রবেশিকা পরীক্ষাত
উত্তীর্ণ হো঵ার পিছত তেখেত দুবছর অধ্য়যন
করার পরা বিরত থাকিব লগা হৈছিল ।
1946 চনত কটন মহাবিদ্য়ালযর পরা আই-এ
আরু 1948 চনত	 স্নাতক পরীক্ষাত উত্তীর্ণ
হয । ইযার এবছরর পিছত তেখেতে বি-টি
উপাধিও লাভ করে । আলীদেবে আইন পঢ়ি~
ছিল য়দিও চূড়ান্ত পরীক্ষাত বহিব নো঵ারিলে ।
আন চরকারী চাকরি পাইও আলীদেবে শিক্ষ~
কতাকেই জী঵নর ব্রত রূপে গ্রহণ করি পোনতে
উত্তর গু঵াহাটীর এখন স্কুল আরু গু঵াহাটীর
সোণারাম হাইস্কুলর জরিযতে শিক্ষক জী঵নর
পাতনি মেলে । ইযার পিছত 1949 চনর মে '
মাহর 19 তারিখে আমার স্কুলর সহকারী
শিক্ষকরূপে নিয়ুক্ত পায আরু নিজ য়োগ্য়তার
বলত ক্রমে উপাধ্য়ক্ষ আরু ভারপ্রাপ্ত অধ্য়ক্ষ পদলৈ
উন্নীত হৈ 1982 চনর 31 ডিচেম্বর তারিখে
চরকারী	 পদর পরা সমন্মানে অবসর গ্রহণ
করে ।</p>

<p>শিক্ষকতাই জীবনর ব্রত আছিল য়দিও
আলীচারক এজন নিষ্ঠাবান সমাজকর্মী বুলি	
কলেও বঢ়াই কো঵া নহব । এসমযত চার
গু঵াহাটী পৌরনিগমর 11 নং ঵ার্ডর কংগ্রেছ
কমিটির সম্পাদক রূপে 3 বছর কার্য়্য়নির্বাহ
করিছিল । মধুপুর গাওঁর ইছলামিক স্কুলর
সম্পাদক , গু঵াহাটীর মিলনপুর উন্নযন সমিতির
উপসভাপতি , পূবগু঵াহাটী ছো঵ালী হাইস্কুলর
অন্য়তম প্রতিষ্ঠাকারী আরু পরিচালনা সমিতির
সভ্য় , মিলনপুর মচজিদ কমিটির সভাপতি ,	
কামরূপ একাডেমীর ছাত্র একতা সভার সভাপতি
আরু পরিচালনা সমিতির ক্রমে সভ্য় আরু
য়ুটীযা সম্পাদক রূপেও বহু বছর কার্য়্য়~
নির্ব্বাহ করে । কামরূপ একাডেমী সোণালী
জযন্তী সমিতির প্রধান সম্পাদকর দাযিত্঵ও সুখ্য়া~
তিরে তেখেতে সমাধা করে । বর্ত্তমান তেখেতে
শান্তপ্রীযা প্রাথমিক বিদ্য়ালয পরিচালনা সমিতির
সভাপতি হিচাপে কার্য়্য়নির্ব্বাহ করি আছে ।	</p>

<p>সমাজর প্রতি থকা কর্ত্তব্য়সমূহ নিষ্ঠা
আরু সততারে সমাধা করি সকলোরে প্রশংসার
পাত্র হো঵া আলীচার সঁচাকৈযে এজন প্রকৃত
সমাজকর্মী আরু ছাত্র সকলর বাবে আদর্শবান
শিক্ষা গুরু । সুদীর্ঘ 33 বছর কাল কামরূপ একা~
ডেমী আরু ইযার ছাত্রসকলর প্রতি আগবঢ়ো঵া
সে঵া আরু তেখেতর সরল জী঵ন য়াপনর
আদর্শ য়ুমমীযা হৈ রব । তেখেতর আদর্শই য়েন
আমার হৃদয স্পর্শ করে আরু সেই আদর্শ
বাস্তবত রূপাযণ করিবলৈ আমি য়েন অনুপ্রাণিত
হও ।</p>

<p>শেষত সত্য়-শিব সুন্দরর অনির্ব্বচনীয
জ্য়োতিরে তেখেতর জী঵ন য়েন শান্তিময হয -
এযে আমার আশা । //
রস-রচনা । শ্রীধ্রু঵জ্য়োতি রাজবংশী ।
বিযা করাবলৈ আজি এবছর হ'ল । কিন্তু হলেও গা঵ওলীযা ধেকেরী ।
মানে এইবার শহুরহতর ঘরলৈশ এদিনো য়ো঵া নাই । মানে উপাযং নাস্তি ।
এইবার য়াবই লাগিব । শহুর-শহুরহতর লগত ষ্টেণ্ডার নিমিলে । শহুর
হতর ঘর মোর ঘরর পরা মাত্র 10 কিঃ মিঃ ।</p>

<p>মানে মোর ঘর শিঙিমারি আরু শহুরহতর ঘর
গু঵াহাটীত । শহুরর জীযেক ছযজনী । তারে
ডাঙরজনী মযে বিযা করাইছো । বহাগ বিহুর
15 দিন আগতে খুলশালী কেইজনী আহি
মোক এইবার বিহুর নিমন্ত্রণ করি গৈছে । নগলে
বোলে মোক বেযা পাব । খুলশালী কেইজনীযে
সিহঁতর বাযেকক বিহুর আগতে লৈ গ'ল ।</p>

<p>বহাগ বিহু আহিল । সেইদিনা	 সোনকালে
ভাতখাই উঠি ঠিক দহমান বজাত গু঵াহাটীর
শহুরর ঘরলৈ বুলি ওলালো । গুনাহাটীলৈ
গলে মোক নিজকে নিজে বেলবুং বেলবুং লাগে ।
তথাপি গু঵াহাটীলৈ বুলি গাড়ীত উঠি আহি
আছো । মাছখো঵া পালো । গাড়ীর পরা
নামিলো । মটর ষ্টেণ্ডর পরা লাহে লাহে
খোজ ললো । অলপ আহি রিক্সা঵ালা এজনক
সুধিলো । ঐ রিক্সা চান্দমারি য়াবি হে ? জাযগে
বাবু । বল তেতিযা । এইবুলি কৈ রিক্সাত
লফংকৈ উঠিলো । মাছখো঵ার পরা অলপ়
দূর গৈ L. I. C. র বিল্ডিংটো দেখিলো । কিছু
সময ভেবা লাগি চাই রিক্সা঵ালাক সুধিলো ।
ঐ রিক্সা঵ালা এই ঘরটো কার ঐ ? নাহিজাণ্টেহো
বাবু । বাপরে বাপ ! নেহিজাণ্টেহো কম মানুহ
নহয দে । ইমান ডাঙর ঘর সাজিছে ।</p>

<p>তার পিছত আকৌ অলপ দূর গৈ সুধিলো -
ঐ রিক্সা঵ালা এই চিনেমা হ'লটো কার ঐ ?
রিক্সা঵ালাই কলে - নাহিজাণ্টেহো বাবু ।
বাপরে বাপ ! নাহিজাণ্টেহোর চিনেমা হ'লও
আছে । ই কম মানুহ নহয দে ! এই বুলি
কৈ অলপ দূর গৈ আকৌ সুধিলে - ঐ রিক্সা~
঵ালা এই দোকান বিলাক কার ঐ ? নাহি~
জাণ্টেহো বাবু । ঐ মোর বাপ ! নাহিজাণ্টোহোর
দোকানও আছে ।</p>

<p>অলপ দূর গৈ আছো । গৈ গৈ শিলপুখুরী
পালো । আগপিনর পরা কেইজনমান	 মানুহে
এটা মরা মানুহ আনি আছে । ঐ রিক্সা঵ালা ,
কোন মানুহ মরিল । নাহিজাণ্টেহো বাবু ।
এ নাহিজাণ্টেহো মরিল । ইমান ডাঙর ডাঙর
ঘর , চিনেমাহ'ল , ইমান দোকান আছিল ।
চিঃ চিঃ বর ডাঙর মানুহটো মরিল দে ।</p>

<p>রিক্সা গৈ আছে । গৈযে আছে । গৈ গৈ
চান্দমারি পালো আরু ঠিক শহুরহতর গেটত
রিক্সা঵ালাক রিক্সা রাখিবলৈ কলো । রিক্সা র'ল ;
মইও নামিলো । রিক্সা঵ালা কিমান ভাড়া হ'ল
হে ? ছয রুপিযা দিজিযে বাবু । রুপিযা কি
বস্তু হে । মোর কোনো রুপিযা চুপিযা নাই হে ।
ছয টকা লাগে য়দি লৈ য়া । ঠিক হে বাবু । ছয
টকা দিজিযে ।	 টকা দিযার পিছত রিক্সা঵ালা
গুচি গ'ল ।</p>

<p>য়তে রাতি ততে বাঘর ভয । মযো শহুরর
ঘরলৈ চোচা দি গেটত উপস্থিত হলো ।
এতিযা সোমাও কোন পিনে । চারিওপিনে ওখ
ওখ পকা বের । রাষ্টার এফালেদি লোহার
গেট । মোর সোমাবলৈ উপায নাই । উপায~
হীন হৈ মই আপির মাকক মাতিবলৈ ধরিলো -
ও আপির মাক ? আপির মাক । নাই
নুশুনেহে নুশুনে । কত শুনিব । ইফালে গাড়ী
সিফালে রিক্সা ,	 রেলর ঘেছাক ঘেছাক । নাই ,
মরিলে ও নুশুনে । উপাযহীন হৈ মই ইফালে
সিফালে চাই কাকো নেদেখি গেটর ওপরেরে
পার হবলৈ বুলি উঠিব ধরিলো । এনেতে সরু
খুলশালী জনীযে আহি মোক দেখা পালে
আরু মুখ টিপি হাঁহিটো মারি কলে -	 ভিনদেউ
আপুনি কিয গেটর ওপরেদি পার হব ধরিছে ।
গেটখন খুলি নাহে কিয । মই লগে লগে কলো
নাই মোর গা঵ত গছত উঠা অভ্য়াস আছে ।
সেইকারণে গেটখন খুলাতকৈ	 ওপরেরে পার
হৈ আহিছো ; কিন্তু মই আছলতে য়ে গেটখন
খুলি পার হব লাগে নাজানো । কিয জানিম
গা঵ত চারিওফালে বাট । গেটর কারবারেই নাই ।</p>

<p>গেটখন পার হৈ ঘরর বারান্দা পালোহে
মাথোন , ইফালে খুলশালীকেইজনী আহি মোক
ইফালে টানি সিফালে টানি নি জুরুলা জুপুলা
করি মারিলে । মোক নি ভরি হাত ধুব দিলে ।
পাছত দ্রযিং রুমনে কি এটা রুমত বহিব
দিলে । তাত গৈ একেবারে গাদীত বহিলো ।
খুলশালীজনীযে ফেনখন চলাই দিলে ।	 মই মনতে	
ভাবিলোঁ - য়ার বাপজনম পিরাত বহি আরু
বিচনীরে বিচি জনম গ'ল তার আজি কি ভাগ্য় ?
মযো ভাবিলো মোর ভাগ্য় বোলা বস্তু এটা
আছে ।</p>

<p>অলপ সময বহার পিছত খুলশালী এজ~
নীযে চাহ একাপ , পানী এগিলাছ আরু প্লেটখনত
চামুতরে সৈতে দুটা মিঠাই মোর সন্মুখত দি
গ'ল । য়িহে মোর মর ভোক লাগিছে নহয
সেই মিঠাই দুটাইনো মোর কি হব ।	 মিঠাই
দুটা দিযাত করি য়দি ঠাণ্ডা ভাত কেইটামান
দিলেহেতেন তথাপি মোর পেটটো অলপ কণ্ট্র~
ল'ত থাকিলে হয । উপায নাই লাজো লাগে ।
ইফালে সেই মিঠাই কেইটাও মোর পিনে চাই
মোক্্খা মোক্্খা করি আছে । চামুচ তামুচ থৈ	
প্রথমে মই মোর চিনাকী বন্ধু রচগোল্লাক ভক্ষণ
করি তার পিছত মোর ওচরতে থকা খুলশালীক
অচিনাকি বন্ধুর চিনাকি বিচারিলো ।	 এই রচগোল্লা~
টোক কিবা রং দিচানে জুইত পুরি দিচা ।	 এনেকৈ
কব পালোহে , মাত্র খুলশালী জনীযে বত্রিশটা
দাত উলিযাই খিল খিল কৈ হাঁহি দিলে আরু
গেলাতে টেঙা দিযায়েন হ'ল । তার পিছত
খুলশালীজনীযে কলে নহয ভিনদেউ সেইটো
লালমোহনহে । নাই কোনো দিনে নেদেখা
বস্তু এটা কেনেকৈ চিনি পাম । খুলশালীজনীযে
কলে গা঵লীযা ধেকেরী কত চিনি পাব । মই
ধেমালি সুরতে কৈ পেলালোঁ তুমিযে টাউনীযা
ধেকেরী হৈ চিনি পো঵াচোন । চাহ খো঵া
হল । খুলশালীজনীযে কলে - ভিনদেউ আপুনি
এতিযা অলপ ফুরি আহক । নাই এতিযা গধূলি হল
নায়াও । গধূলি নুফুরি দিনত ফুরিব নেকি । গা঵লীযা
ধেকেরীটো টাউনর কথা একো বুজি নাপায ।
রবা কি বারে বারে গা঵লীযা ধেকেরী ধেকেরী
কৈ আছা , কি মই টাউনর ধেকেরী হব লাগে
নেকি ?</p>

<p>খুলশালীজনীর	 কথাত মোর খং উঠিল ।
অলপ ঘূরি অহাই ভাল হব । এই বুলি ঘরর
পরা ওলাই আহি আছো । খোজ কাঢ়িনো
কিমান ফুরিম , গতিকে চিঠিবাচত উঠাই ভাল ।
এই বুলি চান্দামারির চিঠিবাছ রখা ঠাইলৈ
গলোঁ । চিটিবাছ আহি চান্দমারি বাছষ্টেণ্ড পালে
আরু হেন্দিমেনে কব ধরিলে - ঐ জান্দমারি
জান্দ মারি । মই কলো ঐ কাক জান্দা মারি~
বিঐ , চিনি পো঵া নাই বাপেরেক । নাই নাই
মই আপোনাক কো঵া নাই । আপুনি উঠক ।
মই চিঠিবাছত উঠিলোঁ , গৈ আছোঁ গৈ আছোঁ ।শ
গৈ গৈ শিলপুখুরী পালোঁ । এনেতে আগপিনর
পরা কব ধরিছে অলপ	 আগপিনে য়াব মাজত
খালি আছে । মই এতিযা য়াওঁ কোন পিনে ।
উপায নাই য়িহে মানুহ নহয , একেবারে বাদুলী
ওলোমা দিছে । তার পিছত গৈ গৈ উজান বজার
পালো । তাত অলপ মানুহ কমিল আরু গরমত
বর নো঵ারি গেটর ওচরলৈ আহিলো । গৈ গৈ
কাছারী পালো । হেন্দিমেনটো঵ে কব ধরিছে - এ
কছারী কছারী । মই তেতিযা কলো এই কাক
কছারী পাইছ ।	 বাপেরক চিনানাই । এক চরত দাত
সরাই দিম । নাই নাই মই আপোনাক কো঵া
নাই , এই চিঠিখিনির নাম কছারী । মই তেতিযা
নিজর ভুল হো঵া দেখি অলপ মনে মনে থাকিলো ।
তার পিছত গৈ গৈ পালো ভরলুমুখ । তার
পিছত হেন্দিমেনে কব ধরিছে - এ ভরলু ভরলু ।	
মই তেতিযা কলো ঐ হৈছেদে , ইমান গরমত
আরু কিমান ভরাবি । তার পিছত	 গাড়ী গৈ
পালে পাণ্ডু । মোর নামিবর সময হ'ল ।
মই গেটর ওচরলৈ আহি গেটর ওচরত রখি
আছো । পাণ্ডু পো঵ার লগে হেন্দিমেনে কব
ধরিছে - এ পাদু পাদু । মই কলো ঐ এইফালে
মানুহ আছে সেইফালে পাদ । মই তাত নামিলোঁ ।
অলপ	 সময ঘূরি পকি আকৌ শহুরহতর ঘরলৈ
বুলি চিটিবাছত উঠি আহি আছো - ঠিক নিশা
9টা বজাত আহি শহুরহতর ঘর পালো ।</p>

<p>খুলশালীযে সুধিলে - ভিনদেউ আহিলে ,
বহক । ভাল হৈছে ভরিহাত ধুই লওঁক । ভরি~
হাত ধুলোঁ । তার পিছত খুলশালীজনীযে ভাত
আঞ্জা আনি টেবুলর ওপরত থলে । খুলশালী~
জনীযে কলে - ভিনদেউ ভাত খাওঁক । মই
কলো ক'ত ভাল দিছা । সেযা টেবুলর ওপরত ।
চিযারত বহি ললোঁ । পাচখন মান আঞ্জা দিছে ।
কিন্তু দিলে কি হব । বাপজনম গ'ল পিরাত
বহি ভাত খো঵াত ; কিন্তু এতিযা টেবুলর ওপরত
ভাত দিছে খাওঁ কেনেকৈ তথাপিও খালোঁ ।
কিন্তু খালে কি হব পেট নভরিল । ভাত দিছে
দুটামান ; কিন্তু আঞ্জা দিছে এক সোপা । বারে
বারে ভাত খুজি থাকিব বেযা লাগে কারণে
মোর লাজো লাগে আরু য়ি দিছে সেই কেইটাই
খালো । ভাত খাই উঠি শুলো ।</p>

<p>পিচদিনাখন খুলশালী কেইজনীযে মোক চিনেমা
চাবলৈ লগ ধরিলে । মই নায়াও বুলি কব পালোহে
না খুলশালী কেইজনীযে একেবারে বরলর বাহঁত ,
জুইদিযার দরে হ'ল । উপায
নাপাই আহিলো চিনেমা চাবলৈ । খুলশালী পাছ~
জনী আগে আগে মই পাছে পাছে গৈ আছো ।
চান্দমারিত কথা নাই বার্তা নাই চি আর পিযে
মোক ছো঵ালী জোকো঵া বুলি এক চর নহয দুই
চর নহয চারি চর মারিলে ।	 মই আরু তাত
এক মুহূর্ত্ত নাথাকিলো । মই লগে লগে wife অক
আরু অনা আশা এরি রিক্সা এখনত উঠি মাছখো঵া
পালো । //
1982-83 চনর ছাত্রএকতা সভার সাধারণ
সম্পাদকর বার্ষিক প্রতিবেদন ।
প্রতিবেদনর আরম্ভণিতে মই সেইসকল বীর অমর শ্঵হীদলৈ
মোর ভক্তিপূর্ণ শ্রদ্ধাঞ্জলি আগবঢ়াইছো য়িসকলর আত্মবলিদানে
আমাক সত্য়র মুখামুখি হবলৈ নিজ প্রাপ্য় আদাযর বাবে দেশ
আরু জাতির হকে ক্ষুদ্রস্঵ার্থশ বিসর্জনহ দি য়ি কোনো প্রত্য়াহ্঵ানর
সাহসেরে সন্মুখীন হবলৈ , আনকি প্রযোজন হলে কলিজার তেজেরে
জননীর বুকু সিক্ত করিবলৈ অদম্য় স্পৃহা আরু সাহস য়োগাই গ'ল ।</p>

<p>1982-83 চনর ছাত্র একতা সভার সাধারণ সম্পাদকর গুরুদাযিত্঵
বহন করিবলৈ মোক নির্বাচিত করার বাবে সমূহ ছাত্রলৈ মই
অভিনন্দন আরু কৃতজ্ঞতা জনাইছো ।</p>

<p>অসমীযা জাতির অস্তিত্঵ রক্ষার অবিরত সংগ্রামর য়ো঵া বছরকেইটাত
আমার স্঵াভাবিক জী঵নর গতি হেরাই গৈছে । জাতীয অস্তিত্঵ রক্ষার
আন্দোলনত আমি ছাত্র সমাজ লিপ্ত হৈ পরিছো । এনে পরিস্থিতিত মই
বিদ্য়ালযর বাবে বিশেষ কিবা অরিহনা য়োগব পারিছো বুলি মোর ভাব
নহয ; ইযার বিচারর ভার মই ছাত্রবন্ধুসকলর হাততে এরিছো ।</p>

<p>কার্য়্য়ভার লো঵ার কিছুদিন পিচতেই হঠাত্্ 7 জানু঵ারীত '83 তারিখে অসমীযা
জাতির জনমতর বিরুদ্ধে অবৈধ নির্ব্বাচনর ঘোষণা হো঵ার লগে লগে অসমর
সমূহ শিক্ষানুষ্ঠান অনির্দিষ্ট কালর বাবে অচল হৈ য়ায । আরম্ভ হল অসমীযা
জাতির কণ্ঠরোধ করার অভিয়ান । দমন দলন আরু নীপিড়ণর চরকারী অভিয়ান ,
পুলিচ-চি, আর, পির আসুরিক অত্য়াচারত বহুবুকু শুদা হ'ল । নিজ দেশতেই
বিদেশীর অত্য়াচারত হাজার হাজার গৃহহীন হ'ল । এনে শোকাবহ পরিস্থিতিত
আমার বিদ্য়ালযর ফালর পরা নির্য়্য়াতিত পরিযাললৈ খাদ্য়-সামগ্রী আরু কিছুসংখ্য়ক
কিতাপ কাগজো য়োগান ধরা হয ।</p>

<p>সদৌ অসম ছাত্র সন্থার আপ্রাণ চেষ্টাত	 বিগত 5 মে 83 ' র পরা ছাত্র ছাত্রী সমূহ
পুনর শিক্ষানুষ্ঠানলৈ ঘূরি আহে ।</p>

<p>বিভিন্ন অনুষ্ঠান : - দুর্য়্য়োগর সেই দিন কেইটাত আমার বিদ্য়ালযর
প্রাপ্তন ( ছাত্র ) মঃ মতিউর রহমান দুবৃত্তর বোমাবিস্ফোরণত প্রাণ
হেরু঵ায । 16 মেত আমি তেওঁর আত্মার সদগতি কামনার্থে
আদ্য়শ্রাদ্ধ অনুষ্ঠিত করো আনুষ্ঠানিক ভাবে 10 জুনত সদৌ অসম
ছাত্র সন্থার আহ্঵ানত সদৌ গু঵াহাটী ছাত্র সন্থার উদ্য়োগত আমার
বিদ্য়ালযতে আনুষ্ঠানিকভাবে ছাত্র সংহতি দিবস দিন জোরা কার্য়্য়সূচীরে
পালন করা হয । আকৌ 20 জুন তারিখে সঃ অঃ ছাঃ সন্থার আহ্঵ান
ক্রমে সঃ গুঃ ছাঃ সন্থার উদ্য়োগত এই বিদ্য়ালযত	 ` বিষ্ণুরাভা দিবস '
কেন্দ্রীয ভাবে পালন করা হয । ইযার পাচত ` শঙ্করদেব 'র তিথিও
গাম্ভীর্য়্য়পূর্ণ পরিবেশত পালন করা হয ।</p>

<p>অভা঵ অভিয়োগ : আমার বিদ্য়ালযখন নানা অভাব অভিয়োগেরে জর্জরিত ।
সদৌ গু঵াহাটী ছাত্র সন্থার সদস্য় আরু সঃ অঃ ছাঃ সন্থার দ্঵ারা অনুমোদিত
মাহেকীযা আলোচনী ` বর্ত্তমান গণ আন্দোতন আরু ছাত্র সন্থা 'র সহকারী
সম্পাদকর দাযিত্঵ পালনর ক্ষেত্রত অতি ব্য়স্ত থাকিব লগীযা হো঵াত মই এই
অভাব অভিয়োগ সমূহ দুরীকরণর ক্ষেত্রত সক্রিয ভাবে লাগিব নো঵ারিলো ।
বিভাগীয সম্পাদক সকলেই এই ক্ষেত্রত কার্য়্য়করী ভূমিকা গ্রহণ করিছে । অবশ্য়ে
আমার বিদ্য়ালযর নবনিয়ুক্ত অধ্য়ক্ষ শ্রীয়ুত মনোরঞ্জন দাসদেবে ছাত্র একতা সভার
লগত হো঵া এখন সভাত অভাব অভিয়োগ সমূহর আশু দুরীকরণর আশ্঵াস দিযে ।
সোনকালেই এই আশ্঵াস বাস্তবত রূপাযিত হব বুলি আমি আশা রাখিছো ।</p>

<p>অবৈধ চরকারর ষড়য়ন্ত্রর মই প্রায দুমাহ কাল জেলত নানা অত্য়াচার সহি
বন্দী হৈ থাকিব লগীযা হয । এই সমযছো঵াত মোর দাযিত্঵ সহকারী সম্পাদকে
পালন করে । সেই সমযছো঵ার কার্য়্য় বি঵রণী সহকারী সম্পাদকর প্রতিবেদনত
প্রকাশ পাইছে ।</p>

<p>আন্দোলনর কার্য়্য়সূচী রূপাযণ - আমার বিদ্য়ালযর নির্ব্বাচনর আগে আগে
অনুষ্ঠিত হো঵া বার্ষিক অধিবেশনক কার্য়্য়ালয সম্পাদক আরু শেহতীযাকৈ
23।11।83 তারিখর বার্ষিক অধিবেশণত সদৌ গু঵াহাটী ছাত্র সন্থার সহকারী
সাধারণ সম্পাদক নির্ব্বাচিত হও । ফল স্঵রূপে অস্তিত্঵র আন্দোলনত সক্রিয
অংশ গ্রহণ করো আরু লগে লগে আমার বিদ্য়ালযর প্রতিজন ছাত্রই আন্দোলনত
সক্রিয ভূমিকা গ্রহণ করে । বিদ্য়ালযর কেবাজনো ছাত্রই কারাগারলৈ য়াব
লগা হয । আমার বিদ্য়ালযতে সদৌ গু঵াহাটী ছাত্র সন্থার উদ্য়োগত কেন্দ্রীযভাবে
সংহতি দি঵স , বিষ্ণু রাভা দি঵স উদয়াপন করা হয ।
 ",0
</p></body></text></cesDoc>