<cesDoc id="asm-w-media-amr49" lang="asm">
<cesHeader type="text">
<fileDesc>
<titleStmt>
<h.title>asm-w-media-amr49.txt</h.title>
<respStmt>
<respType>Electronic file created by</respType>
<respName>Central Institute for Indian Languages, Mysore</respName>
<respType>transferred into Unicode and CES format by</respType>
<respName>"Unicodify" software by Andrew Hardie</respName>
</respStmt></titleStmt>
<publicationStmt>
<distributor>UCREL (on behalf of CIIL)</distributor>
<pubAddress>Department of Linguistics, Lancaster University, Lancaster, LA1 4YT, UK</pubAddress>
<availability region="WORLD"></availability>
<pubDate>03-07-21</pubDate>
</publicationStmt>
<sourceDesc>
<biblStruct>
<monogr>
<h.title>আজিরসময-</h.title>
<h.author>পদ্মবর--</h.author>
<imprint>
<pubPlace>India</pubPlace>
<publisher>Unknown - Magaz</publisher>
<pubDate>1987</pubDate>
</imprint>
<idno type="CIIL code">amr49</idno>
</monogr></biblStruct></sourceDesc></fileDesc>
<encodingDesc>
<projectDesc>Text collected for the CIIL Corpus, subsequently integrated into the EMILLE/CIIL Monolingual Written Corpora.</projectDesc>
<samplingDesc>Simple written text only has been transcribed. Diagrams, pictures and tables have been omitted. Sampling begins at page 0608.</samplingDesc>
<editorialDecl><conformance level="1"></conformance></editorialDecl>
</encodingDesc>
<profileDesc>
<creation><date>03-07-21</date></creation>
<langUsage>Assamese</langUsage>
<wsdUsage>
<writingSystem id="ISO/IEC 10646">Universal Multiple-Octet Coded Character Set (UCS).</writingSystem>
</wsdUsage>
<textClass>
<channel mode="w">print</channel>
<constitution type="composite"></constitution>
<domain type="public"></domain>
<factuality type="fact"></factuality>
</textClass>
<translations></translations>
</profileDesc>
<revisionDesc></revisionDesc>
</cesHeader>

<text><body>

<p>&lt;আজির সময ( পদ্ম বর কটকী )
সম্পাদকীয :
অসম গণ পরিষদ চরকারর দুবছর :
এই ডিচেম্বর মাহতে অসম গণ পরিষদ চরকারর
দুবছর হো঵ার পরিপেক্ষিতত আমি অসমর সমুহ
রাইজলৈ আন্ত্রিক অভিনন্দন জনাও । রাইজ এগোট
হ'লে নিগাজী চরকারী উফরিব পারে । সেই সত্য়র
সো঵াদ পো঵া অসমীযা রাইজর মনত দুকুরি বছরীযা
স্঵াধীন ভারতত বহুত আক্ষেপ . বহুত বিক্ষোভ গোট
মারি আছে । সেই সকলোবোর আশা একেদিনাই বা
দুবছরতে পূর্ণ হ'ব পারে বুলি কোনো মুর্খও নাভাবে ।
কিন্তু রাইজর আশা পুরণর বাটতে চরকারটো আগবাঢ়িছে
বুলি পতিযন য়াবলৈ রাইজ এতিযাও আশারে রৈ আছে ।</p>

<p>রাইজর অভিয়োগ বহুতেই । তারে কিছুমান আভাষ
পে঵াকৈ আমার এই কাকতর মাজেরে প্রকাশ করা
হ'ল । সেই অভিয়োগবোরে আমার এই চরকার
অপ্রিয হৈছে বুলি কোনেও নকয ; মাথো কয
রাইজর চরকারে করিবলগীযা কাম এতিযাও বহুত
বাকী আছে ।</p>

<p>পুলিচি অত্য়াচার , রাইজর ধনেরে অপচয ঘটো঵া
পূর্ণ এক দূর্নীতির পরা মুক্তি পো঵া রাইজে আজি
শান্তিরে উশাহ লো঵াটোকে য়থেষ্ট বুলি গ্রহণ করিব
নো঵ারে । পাবলৈ বহুত বাকী । রাইজর প্রকৃত প্রতি~
নিধি বুলি নিজকে পরিচয দিবলৈ এই কথা গণ
পরিষদর প্রতিজনে আজিও মর্মে মর্মে পাবলৈ রাইজ
আজিও আগ্রহেরে রৈ আছে ।</p>

<p>বাতরি কাকতত খবর আরু ধরু঵া আলোচনাত
বারুকৈযে উপলব্ধি করা য়ায য়ে রাইজর ভয
খাযেই গণ পরিষদ চরকারে কংগ্রেছী শাসকর
লিকতে পরা বুলি । লিকর পরা ওলো঵া কষ্টকর
বুলি গাঁ঵র কেঁচা রাষ্টাত চাইকেল চলো঵াসকলে
বালকৈ জানে । কেতিযাবা লিকর পরা ওলাব
খোজোতেই কর্ফাল খাই পরার উদাহরণ বিরল নহয ।
কিন্তু সেই লিকর পরা নোলালে রাইজর পরা বিশ্঵াস
পো঵াটো একেবারে সম্ভ঵ নহয । আরু রাইজর বিশ্঵াস
তার গতি কি হ'ব পারে তাকো দোহোরা অবান্তর ।</p>

<p>কংগ্রেছী লিকত চলা শাসনর কিছুমান দেখ দেখ
চিনাকী আছে । আমি দুকুরি বছরীযা অভিজ্ঞতারে
জানো য়ে কংগ্রেছী শাসনত কিছুমান শব্দর অভিধানত
থকা অর্থর লগত একে নহয । য়েনে কংগ্রেছী শাসনত
সীমা মানে বিবাদ , চুক্তি মানে মতান্তর , শাসন করা
মানে ভাষণ দিযা , নিকা মানে আবর্জ্জনা ঢাকি রখা ,
বিদ্য়ুত সরবরাহ মানে অন্ধকার , জলবিদ্য়ুত মানে এজন
মন্ত্রী আরু তার বহু চাকরীযাল সহকারে গাড়ী-ঘোরা থকা
এটা দপ্তর , দূর্নীতি মানে কে঵ল রাইজে করা অনীতি ,
দুরদর্শন মানে আত্ম প্রদর্শন ইত্য়াদি । বর্তমান শাসকসকলে
ভাবি চো঵া দর্কার , সেইবোর শব্দর অর্থ এতিযাও একে
আছে নেকি ? য়দি তেনে আছে , অ.গ.প চরকারে লিকত
পরিছে আরু তেনে লিকরপরা ওলাব লাগে ।</p>

<p>লগতে কিন্তু এই কথাও সত্য় য়ে অ.গ.প চরাকারে
মেজিচিযানর দরে বহুত কথাই ফু মারি উরি঵াই দিব
নো঵ারে । 40 বছরে গোট খো঵া দুবছরত চাফা নহয ।
এই রগর কাহিনীত পঢ়িলোঁ । সৈন্য় বাহিনীত থাকোঁতে
পুতেকে দুবছর গা নোধো঵াকৈ আছিল । মাকে চাবোন
লগাই ভোলর জালিরে পুতেকর পিঠির মলি এরু঵াই
থাকোঁতেই দুবছর আগতে পিন্ধা বনিযনটোহে ওলাইগৈ ।
তার তলর মলিখিনি তেতিযাও বাকী । অ.গ.প এতিযা
একুরি বছর আগর বনিযনহে পাওঁ পাওঁ । তার তলতো
বাকী একুরি বছরর আবর্জ্জনা আছে ।</p>

<p>কিন্তু কিছুমান সাধারণ কথাও এতিযাও অনাহকত
পরি আছে । চরকারী ফাইলত অসমীযা ভাষা ব্য়঵হারর
সিদ্ধান্ত আজিও কিয চরাকীর ভাষা বিভাগতে থমকি আছে ?
ইমানখিনি বিদেশী খেদা হ'ল বুলি প্রাক্তন চরকারর দরে
আভু঵া ভরা উত্তর কিয দিব লগা হৈছে ? আমি কিয ক'ব
পরা নাই য়ে এজন বিদেশী খেদো঵াও অসুবিধা হৈছে ?
আই.এ.এছ বিষযার চতুরালীযে কিয এতিযাও জ্ঞানগর্ভ
সিদ্ধান্ত বুলি পরিগণিত হৈ আছে ?</p>

<p>প্রকৃত জনহিতকর কামর পদক্ষেপর প্রত্য়াশারে আজি
দুবছরীযা গণ পরিষদ চরকারক আমি সোঁ঵রাও দিওঁ
য়ে আজির পৃথিবীত রাইজে রজা । রাজশক্তি রাইজর
সন্তুষ্টির ওপরত নির্ভরশীল । এজন প্রক্তন মুখ্য়মন্ত্রীযে
অসতর্ক মুহূর্ত্তত কৈছিল , মুখ্য়মন্ত্রী হৈ থাকোতেই তেওঁ
বোলে পাহরিযেই গৈছিল য়ে তেওঁর মুখ্য়মন্ত্রীত্঵ হঠাত্
য়াব পারে । ক্ষমতাই মানুহক কিমানলৈকে অন্ধ করার
বিপদ কিমানলৈকে আছে ।</p>

<p>পুরণি পদ্ধতিরে চরকারর , শাসক দলর এবছর ,
তিনিমাহ , দুবছর আদি ধুমধামকৈ পতার অভ্য়াস
থকাটো ভাল । সেইবোর পদ্ধতি আজি পুরণি হ'ল ।
আগর দিনত ঘরতে দুর্গাপূজার নিচিনা ব্য়যসাধ্য়
একোটা খান্দানি বংশই ধুমধামেরে বংশ মর্য়্য়দা
প্রচার করি পূজাক চমক খুও঵ার দরে , আজির
রাইজক চমক খু঵াই বশ করি রাখিব নো঵ারি ।
রাজহু঵া প্রত্য়াশার সরল উচ্ছাসতে ভবিষ্য়ত
বিক্ষোভর বিজাণু সদাযেই থাকে । //
ভবিষ্য়তলৈ চাওঁ আহক :
অসম চুক্তির কেতবোর কথা বর বাস্ত঵
সন্মত নহয । ধরা হওঁক আপোনালোকে
15 লাখ মানুহক বিদেশী বুলি চিনাক্ত
করিলে । এই মানুহখিনিক জোর জুলিম
করি ক'ত পেলাই দিব ? মান঵তার কথাটো
কেতিযাও এরাই য়াব নো঵ারি । অ঵শ্য়ে
এজনো বিদেশী নাগরীক ( অবৈধ ) ভারতত
থকাটো নিবিচারো । কিন্তু মোর বোধেরে
মানুহক বহিষ্কার করাটো বর কঠিন কাম
হ'ব । আমি অসম চুক্তিখন আখরে আখরে
মানিবলৈ বাধ্য় নহয । আমি চুক্তিকারীসকলক
কৈছিলো য়ে আমি আপোনালকর কথাটো
বারু বিবেচনা করি চাম । এতিযা আমি
বিবেচনা করি আছোঁ । য়িখিনি পারোঁ দি
আহিছোঁ , অসম চুক্তিখন ভালদরে চালে
আপোনালোকে গম পাব । য়ো঵া নবেম্বরত
নাগালেণ্ডত ভোট গ্রহণর 6 দিন আগত
প্রধান মন্ত্রী রাজী঵ গান্ধীযে অসম চুক্তি
সম্বন্ধে এইদরে বেকত করিছিল এখন
সাপ্তাহিক সাংবাদিকক দিযা সাক্ষাত্কারত ।</p>

<p>অসম চরকারর প্রায দুবছর পূর্ণ হো঵ার
সমযত অসম চুক্তি রূপাযণক পণ করি
লো঵া অসম চরকারলৈ প্রধান মন্ত্রীর এযা
সকিযনি নে প্রত্য়াহ্঵ান । য়িযেই নহওঁক
অসম চুক্তির আক্ষরিক অর্থ কেন্দ্র আরু
অসম চরকারে বেলেগ বেলেগ বুজিছে
এই কথা চুক্তির পাছর পরাই গম পো঵া
হৈছে । আরু অসম চরকারেও একে
অনুপাতে চুক্তির সফল রূপাযণত গুরুত্঵
দি আহিছে । এক কথাত চুক্তিত চহী
করা দিনর পরাই দ্঵ন্দ আরু সংঘাটর
আরম্ভ । 15 আগষ্ঠ প্রধানমন্ত্রীর ঘোষণাক
সময সীমা হিচাবে লৈ , কেনেকৈ পু঵তিনিশা
চুক্তি স্঵াক্ষরিত হৈছিল , তেতিযার ছাত্রসন্থা
আরু সংগ্রাম পরিষদর নেতৃবর্গর ওপরত
কেনেকু঵া ধরণর রাজনৈতিক আরু পরিস্থিতির
হেঁচা পরিছিল , সেই কথা আমার অবিদিত
নহয । অ.গ.প-ই হওঁক বা অসমর রাইজেই
হওঁক কোনো঵েই কিন্তু অসম সমস্য়ার
সমাধান হিচাবে তেতিযাও গ্রহণ করা নাই ।
বরঞ্চ স্থানীয কংগ্রেছর অত্য়াচারী শাসনর
ওর পেলো঵ার আহিলা হিচাবেহে চুক্তিখন
গ্রহণ করিছিল । উদাহরণ হিচাবে য়ি
ভোটার তালিকা অবৈধ নাগরিকর নামেরে
ভরপুর বুলি অসমত নির্ব্বাচন পতার
বিরুদ্ধে আন্দোলন করা হৈছিল , সেই
ভোটার তালিকারেই অ.গ.প-ই নির্ব্বাচন
খেলিলে । আন্দোলনর লক্ষ্য়সাধানক কবর
দিবলৈ পেলো঵া মাটিরে য়েনে কুকুর তেনে
টাঙোন বুদ্ধিরে অ.গ.প-ই ভেটি বান্ধি চরকার
পাতিলে আরু সেই চুক্তিরে সফল রূপাযণ
বিচারি আজিও অ.গ.প-ই কেন্দ্রক হাযরান
করার প্রমাণ করিলে য়ে কেন্দ্রীয চতুর বিষযার
চতুর ভাষারে চতুর চুক্তিরে কেন্দ্রীয প্রশাসনে
অসম আন্দোলনর নেতাক য়িমান শলঠেকত
পেলাবলৈ বুলি ভাবিছিল , সিমানে শলঠেকত
তেওঁলোক আজি নিজেই পরিছে । বুমেরাং শি঵ই
অসুরক বর দিছিল অসুরে য়ার মূরতেই হাত
দিব তারেই মূর খহি পরিব । হযতো আশা
করিছিল অসুরে নিজর মুরতে হাত দি চাব ।
কিন্তু বরর প্রমাণ চাবলৈ অসুরে শি঵র মূরতে
হাত দি চাবলৈ খেদি গ'ল । কেন্দ্রি হযতো আমাক
মুর্খ অসুর বুলিযেই ভাবিছিল । য়ি হওঁক কেন্দ্রর
চাতুরির প্রত্য়ুত্তর দিযাত আন্দোলন পক্ষই এই বিজয
অসম গণ পরিষদর কৃতিত্঵ আজিও সেই চুক্তিযেই
কেন্দ্র বিরুদ্ধে আজিও অস্ত্র । কারণ তাত স্঵যং প্রধান
মন্ত্রীরো দখল আছে । মুঠতে চুক্তিখনক কেন্দ্র চরাকারে
আন্দোলনটোর বিরুদ্ধে অস্ত্র হিচাবে ব্য়঵হার করিবলৈ
শাসন দিছিল ; সেই চুক্তিক আজিলৈকে অসম গণ
পরিষদে আরু ছাত্র সন্থাই কেন্দ্রর ওপরত হেঁচা প্রযোগ
করিবলৈ সুন্দরকৈ ব্য়঵হার করি আছে ।</p>

<p>এই দুবছর অসম গণ পরিষদে কি কি কাম করিছে
তার হিচাব অসম চরকারে দিবই আরু দিছে । গণ
পরিষদে দিবই আরু দিছে । সেই দিশত আলোচনা
করিবলৈ বিশেষ বাকী একো নাই । শেহতীযাকৈ
অবৈধ প্রবজন আইন সংশোধন প্রক্রিযার বাবে
লোকসভাত উথ্থাপন করা হৈছে অসম গণ পরিষদে
চুক্তির নামতে হেঁচা প্রযোগ করার পরিণামতে ।
তার বাহিরে ভারতর দ্঵িতীয দীর্ঘতম দলং হিচাবে
কলীযাভোমোরা দলং অ.গ.প-র দিনত সম্পুর্ণ হো঵ার
লেখিযা কামবোর চরকারী হিচাবত ওলাবই । কিমান
দিনত কিমান কাম হ	'ল , তার হিচাব দি নিজর
য়োগ্য়তা প্রমাণ করার নীতি কংগ্রেছে ইমান দিনে
গ্রহণ করি আহিছে । গতিকে সেইবোর তিতা কেঁহা
লগো঵া রাইজে আজি সেইসোপা শুনিবলৈ নিবিচারে ।
বরঞ্চ আজি রাইজে জানিব খোজে , চরকারর প্রতিশ্রুত
কাম কিমানখিনি বাকী আছে তার হিচাব আরু সেইবোর
কেতিযা সম্পুর্ণ করা হ'ব , তার খবর ।</p>

<p>কিছুমান কাম খরটকীযাকৈ শেষ হো঵াটো রাইজে
বিচারে আরু এইবোরর প্রতি রাইজর এরাব নো঵ারা
দাযবদ্ধতা আছে । য়েনে , আন্দোলনত চাকরি য়ো঵া ,
ক্ষতি হো঵া , আহত-নিহতসকলক সকলো প্রকারর
সা-সুবিধা দি প্রমাণ করিব লাগে য়ে আমি অকৃতজ্ঞ
নহয । আমি জনাত আন্দোলনর বাবে চাকরির পরা
বর্খাস্ত হো঵া কেইবাজনো মানুহ বর্তমান ভাত-কাপোরর
সমস্য়াত পরিছে । চুক্তিমতে তেওঁলোকর চাকরি হো঵া
নাই । কেন্দ্রীয চরকারে বহুত নিযমর উদ্ধৃতিরে তেওঁলোকক
দিযার উপায নাই বুলি আসৈ মাতিছে । ইপিনে বর্তমানে
চলি থাকিব পরাকৈ তেওঁলোকক কিবা এটা করি দিব
লাগে বুলি ভবা মানুহো অ.গ.পত নোহো঵া হৈছে ।
এযা এটা উদাহরণ , এনেকু঵া অভিয়োগ তাকর নহয ।</p>

<p>সমালোচনা সহ্য় করিব নো঵ারাটো দুর্ব্বলতার পরিচাযক ।
বরঞ্চ প্রায সমালোচকে গণতন্ত্রক প্রকৃত পথত থাকিবলৈ
বন্ধুর দরে সঁকিযাই দিছে । অলপতে এক বিশিষ্ট কাকতর
সম্পাদকে মোক দুখ করি ক'লে , এওঁলোকে সামান্য়তম
সমালোচনাও সহ্য় করিব নো঵ারো হৈছে , মোক আজিকালি
পর বুলি ভবা হৈছে ইত্য়াদি । আমার বিশ্঵াস সমালোচক ,
সমর্থক আদিক আমার ফালে টানি অনাত সহনশীলতা
অমুরিও সহ্য় করার বাবে বযস নালাগে , ইচ্ছাহে লাগে ।
এই দিশত অ.গ.প-ই এতিযার পরা য়িমান আত্ন নিযোগ
করে , সিমানে নির্বাচনত নিজর বিজয আগতীযাকৈ
নিশ্চিত করিব পারিব ।</p>

<p>অমুক রাজনৈতিক দলত য়োগ দিলোঁ , সদস্য় হ'লো
বুলি গর্ব্ব করিব পরা অলস্থা এটালৈ কিয গণ পরিষদক
কিয আজিলৈ আনিব পরা নাই । ভারতত এতিযাও
কংগ্রেছত য়োগ দিলো বুলি গর্ব্ব করিব পরা থল আছে ।
নতুন দলে নিকা চরিত্ররে অ.গ.প-ত য়োগ দিছোঁ বুলি
গর্ব্ব করিবলৈ মানুহ নাই । য়ো঵া দুবছরে বহুত হাজার
মানুহ লগ পালো । কিন্তু কোনেও গর্বেরে কো঵া নুশুনিলোঁ
য়ে তেওঁ অ.গ.পত য়োগ দিছে । ইযার প্রধান কারণ হৈছে
সাংগাঠনিক দিশর পরা অ.গ.পর সভ্য় ভর্তি আরু প্রচারর
কাম হো঵া নাই । সভ্য় ভর্তি নিশ্চয করা হৈছে , কিন্তু
অ.গ.প-র এজন হো঵ার গর্ব্ব করিব পরাকৈ হযতো
দলটোর সংগঠন স঵ল হো঵া নাই । সংগঠনর অভাবে
জনতা পার্টি ডের বছরতে থানবান হো঵াটো সৌ সিদিনার
কথা । গতিকে অ.গ.প-র আজি দুবছর পূর হওঁতেই
দলীযা সংগঠন মজবুত করার কারণে খরতকীযা ব্য়঵স্থা
লো঵ার বাবে সিদ্ধান্ত লো঵া হ'ল অর্থাত্ এতিযাও পলম
হো঵া নাই । //
য়িমানেই চিঞর বাঁখর নকরক কিয , দূর্নীতিযে
এতিযাও সাগরর বুকুত ঢৌ খেলি ফুরি আছে ।
( সেই য়ে ভেটী খো঵া বিষযাজনক রজাই নি সাগরর
ঢৌ খেলিবলৈ দিলেগৈ ভেটি খো঵া বাট বন্ধ করার
আশারে বিষযাজনে য়ে সাগরেদি য়ো঵া নাওঁবোরক
ক'লে , খবরদার ! এইফালেদি নায়াবি , মই রজার
আদেশত ঢৌ খেলিছোঁ ; তেতিযাহে নাওবোরে বিষযা~
জনক ভেটী দি নাওঁ পার করিবলৈ ধরিলে ) মুঠ
কথা প্রশাসন সেই বৃটিছর দিনটো঵েই আছে আরু
দুর্নীতি এতিযা ইমান পুরণি হ'ল য়ে একেবারে নিগাজী
হ'ল । প্রশাসন ব্য়঵স্থার আমূল পরিবর্তন নহ'লে
দূর্নীতি দূরীকরণ শ্লোগান হৈযে রব । কেন্দ্রত কৌটি
কৌটি টকার ঵ফর্চ আদির কেলেংকারী শুনার পাছত
বাকীবোরর গা উঠিবই । আমার বোধেরে দূর্নীতি
দূরীকরণ শঙ্খ নবোজো঵াকৈ দূর্নীতির বাটবোর বন্ধ
করি দিযাটো অনার পথ ল'লেই অ.গ.প-ই ভারতর
কারণে এটা নতুন পথ দিব পারিব ।</p>

<p>মদ নাখাবা , চিগারেট নাখাবা বুলি উপদেশ দি
মদ আরু চগারেটর কারখানা খুলা বুলি এচামক
দিহা পরামর্শ দিযার চতুরালীরে দূর্নীতি দূর নহয ।
এইবিধ শ্লোগান দি থাকিলে রাইজে এওঁলোককো
একে পথরে পথিক বুলি ভাবিবর সন্দেহ থাকিব ।</p>

<p>সঁচাটোক বগল দিব নাপায । এটা সরু উদাহরণ
দিওঁ । চিকিত্সা মহাবিদ্য়ালযত ছাত্র ভর্তি করোতে
মুক্তি য়ুজারুর সন্তানর কারণে সংরক্ষিত আসন আছে ।
সেই কথা বিজ্ঞাপনত , আবেদন পত্রত স্পষ্টকৈ
সিখা আছে । কিন্তু ভর্তি করোতে নির্ব্বাচন করিলে
মুক্তি য়ুজারুর নাতিপুতি আদিক । য়দি নাতিপুতিকে
দিযে তেন্তে সেই কথাটো বিজ্ঞাপণত দিযা হ'লে সেই
শিতানত বহুত আবেদন করিলেহেঁতেন । এই
ব্য়তিক্রম বিভাগীয মন্ত্রীক আঙুলিযাই দিযার পাছতো
তেওঁ বিভিন্ন কথারে মূল সমস্য়াটো নুবুজার ভাও
ধরিলে । ফলস্঵রূপে প্রকৃত মুক্তি য়ুজাঁরুর সন্তান
তেওঁ পাবলগীযা আসনর পরা বঞ্চিত হ'ল । চরকারে
নিজর বাবে 13 খন আসন রিজার্ভ করি রাখি
( আগর চরকারর দরে ) ছাত্রসকলক আন্দোলন
করিবলৈ বাধ্য় করালে । এই মুক্তিয়োদ্ধার সন্তানে
সেই আন্দোলনত ইন্ধন নজগাও বুলিযেই আন্দোলন
কারীক নিজর অভিয়োগ নজনালে । এজন ছাত্র প্রাপ্য়র
পরা বঞ্চিত হ'ল বিভাগীয কর্মকর্তার আরু প্রশাসনিক
খামখিযালির কারণে । অর্থাত্ এচামর বিশ্঵াস হেরু঵ালে ।
এইটো সরু কথা । এনেকু঵া ডাঙরবোর উল্লেখ করি
অভিয়োগ বঢ়ো঵ার প্রযোজন নাই । কথা হ'ল এইবোর
ফাকিফুকাই কিন্তু অ.গ.প-র জী঵ন দীঘলীযা নকরে ।</p>

<p>চুবুরীযা রাজ্য়র লগত অসমর সীমা বিবাদ
এটা পোহনীযা বেমার । আচলতে ভারতবর্ষর
উত্তরপূর্ব্বাঞ্চলর রাইজক বেলেগ বেলেগ রাজ্য়ত
ভাগ করি রখাটো কেন্দ্রীয চরকারর য়ি নীতি
সেি একে নীতি কিন্তু উত্তর প্রদেশ , বিহার
আদিত নলয । কারণ সেইবোর ডাঙর ডাঙর
রাজ্য়র লোকসভার সংখ্য়াধিক সদস্য়ই কেন্দ্রীয
শাসকর লাইখুটা । উত্তরপূর্ব্বাঞ্চলটো তেনেকু঵াকৈ
থাকি তেনেকু঵া এটা শক্তি হ'লে বিশ্঵াসয়োগ্য় হৈ
নাথাকিব বুলি হযতো সন্দেহ আরু তার ফলস্঵রূপে
অসম টুকুরা-টকুরি হ'ল । নিযমমতে এখন
রাজ্য়র পরা এটুকুরা কাটি নি আন এখন রাজ্য়
সৃষ্টি করোঁতে প্রথমে ঠিক হ'ব লাগে সীমাটো ।
সেই প্রথম প্রযোজনটো বাদ দি এখন রাজ্য়তে
তিনি চারিখন রাজ্য় পাতি তিনিটা চারিটা চরকার
পাতি দিলেই খো঵া কামোরা লাগিবই আরু সেই
খো঵া কামোরাই প্রতিখন রাজ্য়ক নিজ স্঵ার্থ পুরাণার্থে
কেন্দ্র ওচরত হাত পাতিবলৈ ( বশ্য়তা স্঵ীকার
করিবলৈ ) বাধ্য় করিবই । হযতো সেই নীতিযে
উত্তরপুর্বাঞ্চলত কাম করি আছে । নাগালেণ্ড
কংগ্রেছে অসম নাগালেণ্ড সীমান্তর ডিম্পুটেড
অঞ্চল উদ্ধার করিব বুলি নির্ব্বাচনী প্রতিশ্রুতি
দি , সেই সীমা সমস্য় ঠিক সমযত উলিযাই
দি নাগালেণ্ডত কংগ্রেছক ভোট দিযাতো
অপরিহার্য়্য় করার সুয়োগ ল'লে ।
 +&gt;*
",0
</p></body></text></cesDoc>