<cesDoc id="asm-w-literature-juvenile-acl47" lang="asm">
<cesHeader type="text">
<fileDesc>
<titleStmt>
<h.title>asm-w-literature-juvenile-acl47.txt</h.title>
<respStmt>
<respType>Electronic file created by</respType>
<respName>Central Institute for Indian Languages, Mysore</respName>
<respType>transferred into Unicode and CES format by</respType>
<respName>"Unicodify" software by Andrew Hardie</respName>
</respStmt></titleStmt>
<publicationStmt>
<distributor>UCREL (on behalf of CIIL)</distributor>
<pubAddress>Department of Linguistics, Lancaster University, Lancaster, LA1 4YT, UK</pubAddress>
<availability region="WORLD"></availability>
<pubDate>03-07-21</pubDate>
</publicationStmt>
<sourceDesc>
<biblStruct>
<monogr>
<h.title>সতী কাহি</h.title>
<h.author>বিষ্ণু..</h.author>
<imprint>
<pubPlace>India</pubPlace>
<publisher>Unknown - Book.</publisher>
<pubDate>1987</pubDate>
</imprint>
<idno type="CIIL code">acl47</idno>
</monogr></biblStruct></sourceDesc></fileDesc>
<encodingDesc>
<projectDesc>Text collected for the CIIL Corpus, subsequently integrated into the EMILLE/CIIL Monolingual Written Corpora.</projectDesc>
<samplingDesc>Simple written text only has been transcribed. Diagrams, pictures and tables have been omitted. Sampling begins at page 0417.</samplingDesc>
<editorialDecl><conformance level="1"></conformance></editorialDecl>
</encodingDesc>
<profileDesc>
<creation><date>03-07-21</date></creation>
<langUsage>Assamese</langUsage>
<wsdUsage>
<writingSystem id="ISO/IEC 10646">Universal Multiple-Octet Coded Character Set (UCS).</writingSystem>
</wsdUsage>
<textClass>
<channel mode="w">print</channel>
<constitution type="composite"></constitution>
<domain type="public"></domain>
<factuality type="fiction"></factuality>
</textClass>
<translations></translations>
</profileDesc>
<revisionDesc></revisionDesc>
</cesHeader>

<text><body>
<p>&lt;সতী-কাহিনী ( শ্রীবিষ্ণুপ্রিযা দত্ত বরু঵া )
দ্রুপদ রজার পুতেক ধৃষ্টদ্য়ুম্নই পাণ্ডবসকলর মাজত
হো঵া সকলো কথা শুনি আছিল । তেওঁ ঘরলৈ
গৈ মাক-বাপেকক তেওঁলোক য়ে ব্রাহ্মণ নহয - পঞ্চ
পাণ্ড঵হে , সেই কথা কলেগৈ । রজা রাণীর আনন্দর
সীমা নাইকিযা হ'ল । তেওঁলোকে জী-জোঁ঵াইক
নিবর কারণে রথ আদি পঠাই দিলে । তেতিযা
পঞ্চ পাণ্ড঵ , কুন্তী আরু দ্রৌপদী রজার ঘরলৈ
আহিল । বিযার ধুম-ধাম পরি গ'ল । দ্রুপদে পঞ্চ
পাণ্ড঵ে বিযা করাব বুলি শুনি আচরিত হ'ল ।
তেওঁক বিমোরত পরা দেখি ব্য়াসদে঵ে কলে-
`` মহারাজ , আপুনি এই বিষযে কিয চিন্তা করিছে ?
দ্রৌপদীর পাঁচজন গিরিযেক হব লাগে , কারণ দ্রৌপদী
ত্রেতায়ুগত ব্রাহ্মণ-কন্য়া আছিল ; তেওঁ সদায শি঵ক
আরাধনা করিছিল । দ্রৌপদীর আরাধনাত শি঵
সন্তুস্ত হৈ দেখা দি কি বর লাগে বুলি সোধাত
দ্রৌপদীযে ` পতিদে঵ বুলি পাঁচবার উচ্চারণ করিছিল ।
শি঵ই সন্তুষ্ট হৈ তেওঁর পাঁচোটা স্঵ামী হব বুলি বর
দিলে । তেতিযা তেওঁ কলে । ` কি করিলা ভোলানাথ !
পঞ্চস্঵ামী কি কারণে দিলা ? '</p>

<p>`` তেতিযা শি঵ই কলে , ` মোর দোষ কি ? তুমি
পাঁচবার স্঵ামী ভিক্ষা করিছা ; সেই কারণে মই দিছোঁ । ""
এই বুলি কৈ শি঵ অন্তর্ধান হল ; তেতিযা সেই
কন্য়াইও গঙ্গাত পরি প্রাণত্য়াগ করিলে । পুনর
কাশীরজার ঘরত তুষ্ট হৈ পাচজন দে঵তা আহি দেখা
দি তেওক কি বর লাগে বুলি সুধিলে । কিন্তু তেওঁ
একো উত্তরকে দিব নো঵ারিলে । তেতিযা দে঵তা
কেইজনে তেওঁক কলে - ` পরজন্মত আমি পাঁচজনে
তোমার স্঵ামী হম গৈ । ' সেই কেইজন হৈছে ধর্ম ,
বাযু , ইন্দ্র আরু অশ্঵িনীকুমারদ্঵য । সেইবারও তপস্য়া
করিযেই তেওঁ প্রাণ ত্য়াগ করিলে । এতিযা তোমার
ঘরত এওঁ দ্রৌপদী হৈ জন্ম লৈছে । "" ব্য়াসদে঵র কথা
শুমি দ্রুপদে আনন্দমনে বিধিমতে পঞ্চপাণ্ড঵র লগত
দ্রৌপদীক বিযা দিলে । তেওঁলোকে হরিষমনেরে
দ্রৌপদীক বিযা করাই হস্তিনাপুরলৈ গ'ল ।</p>

<p>শকুন্তলা :
দ্঵াপর য়ুগত বিশ্঵মিত্র নামে এজন মহা পরাক্রমী
ঋষি আছিল । তেওঁ বর খঙাল আছিল । কিন্তু
তেওঁর গাত এনে কিছুমান গুণ আছিল য়ে - তার
বলত অসাধ্য় সাধন করিব পারিছিল ! সেই কারণেই
মর্ত্য়র মান঵র পরা স্঵র্গর দে঵তাসকলেও তেওঁর ভযত
থরহরি কম্পমান আছিল ।</p>

<p>এবার এই বিশ্঵মিত্র ঋষিযে হেমকূট পর্ব্বতলৈ গৈ
কঠোর তপস্য়া আরম্ভ করিলে । তেওঁর এই গভীর
তপস্য়া দেখি দে঵তাসকলে বর ভয খালে । বিশেষকৈ
দে঵রাজ ইন্দ্রই তেওঁর ইন্দ্রত্঵ কাঢ়ি লব পারে বুলি
চমকি উঠিল , আরু এই বিষযে চিন্তা করিবলৈ
ধরিলে । শেষত তেওঁর খেলালে - কেনেকৈনো
ঋষিক এই তপস্য়ার পরা বিরত করিব পরা য়ায ।
এই অভিপ্রাযে তেওঁ দে঵সভার নর্ত্তকী , রূপে গুণে
বিভুষিতা প্রধান অপেশ্঵রী মেনকা দে঵ীক মাতি আনি
কলে , `` বিশ্঵মিত্র ঋষি কঠোর তপস্য়াত নিমগ্ন - তুমি
তেওঁর তপ ভঙ্গ করিব লাগে , কো঵া - পারিবানে ? ""</p>

<p>তেতিযা মেনকাই করয়োর করি কলে-
`` দে঵রাজ , বিশ্঵ামিত্র ঋষি সংসারর ভিতরত শ্রেষ্ঠ ।
য়ার কোপত বশিষ্ঠ মুনির শত পুত্রর নিপাত হ'ল ।
য়ি নিজে ক্ষত্রিয গুছি ব্রাহ্মণ হ'ল , - য়ার আদেশতেই
সকলোরে অজ্ঞাততে কৌশিকী নামে নদীর সৃষ্টি হ'ল ;
য়ার চকুদুটা অগ্নি আরু সুর্য়্য়র নিচিনা জ্঵লে ; তেনেহেন
ঋষিরাজ এজনর তপস্য়া মই এগরাকী সাধারণ
নর্ত্তকীযে কেনেকৈ ভঙ্গ করিম ? "" তথাপি ইন্দ্রর
কথা পেলাব নো঵ারি মেনকা মান্তি হ'ল । কামদে঵
আরু বাযুকো লগতে সহায খুজিলে ।</p>

<p>কামদে঵ আরু বাযুক লৈ মেনকাই বিশ্঵ামিত্র তপস্য়া
করি থকা ঠাইলৈ গ'ল । প্রথমে মুনিক দেখিযেই
মেনকার অন্তরখন কোন এক অজান আশঙ্কাত কঁপি
উঠিল । লাহে লাহে ক'রবার পরা এছাটি মৃদু বতাহ
বলিবলৈ ধরিলে । মেনকাই সুশোভিত বস্ত্র-অলঙ্কার
আদি পিন্ধি , ভরিত নেপূর লগাই রুনুক-জুনুককৈ
নানান অপরূপ ভঙ্গিমাত মুনির আগত নাচিবলৈ
ধরিলে । নেপূরর জুনজুনি শুনি মুনির তপস্য়া ভঙ্গ
হ'ল । চকু মেলি চাই দেখে য়ে সন্মুখত অপূর্ব্ব ভঙ্গিমারে
এজনী অপরূপা সুন্দরী কন্য়াই নাচি আছে । কন্য়ার
রূপত মুনি মোহিত হ'ল - আরু তেওঁক আশ্রমলৈ লৈ
গৈ গন্ধর্ব্ব প্রথামতে বিবাহ করিলে ।</p>

<p>এইদরে নানা আমোদ-প্রমোদর মাজত তেওঁলোকর
দিন য়াবলৈ ধরিলে । মুনিযে মেনকাক পাই - তপ-য়প ,
সন্ধ্য়া-গাযত্রী সকলো পাহরিলে ; কে঵ল আনন্দতেই
মতলীযা । এদিন হঠাতে মুনির সন্ধ্য়া করিবলৈ মনত
পরিল - আরু মেনকাক অলপ পানী আনিবলৈ কলে ।
মেনকাই মুনির কথা শুনি মুখ ভেঙুচালি করি
কলে , `` ইমান দিনে আপোনার সন্ধ্য়া-গাযত্রী নকরাতে
গ'ল - আজিনো কি মনত পরিল ! ""</p>

<p>মেনকার কথা শুনি মুনির বর খং উঠিল । কিন্তু
ইপিনে মেনকাক পায কোনে , -মুনির খং দেখি মেনকা
পলাই পত্রং দিলে । তেওঁ সেই সমযত গর্ভ঵তী আছিল ।
ওলাই গৈ তেওঁ এখন বনত এজনী কন্য়া সন্তান প্রস঵
করিলে ; আরু তাতে সেই কেঁচু঵াটি এরি থৈ স্঵রগলৈ
গুছি গ'ল । তেওঁ মর্ত্য়লৈ আহিছিল - মুনির তপস্য়া
ভঙ্গ করার অভিপ্রাযেহে , সংসার করিবলৈ নহয ।
গতিকে তেওঁর কার্য়্য়সিদ্ধি হো঵াত তেওঁ গুছি গ'ল ।
ইপিনে মুনিযেও তপ ভঙ্গ হো঵াত - ভুল বুজি পাই
নিজর ঠাইলৈ গুছি গ'ল ।</p>

<p>বেচেরী কেঁচু঵াটি নিরাশ্রয অ঵স্থাত নির্জ্জন
বননিতে পরি র'ল । আনকি কোনো হিংস্র বন্য়
জন্তু঵েও কেঁচু঵াটির একো অপকার নকরিলে । বরঞ্চ
কিছুমান শগুণে মরমতে সেই দে঵-শিশুটির চারিওফালে
আগুরি থাকিল ।</p>

<p>এনে সমযতে কণ্঵মুনি সেই ফালেদি তপস্য়া
করিবলৈ য়ায । হঠাতে তেওঁ কেঁচু঵ার কান্দোন
শুনি থমকি রয ! চারিওফালে চাই দেখে য়ে কিছুমান
শগুণে এটা কেঁচু঵াক চারিওফালর পরা আগুরি
আছে ; আরু কেঁচু঵াটি তারে মাজত কান্দি আছে ।
সেই অকণমানি কন্য়াজনী দেখি মুনির বর পুতৌ
হ'ল আরু তাক আশ্রমলৈ লৈ আহিল । ছো঵ালী~
জনীর শগুণবিলাকে রক্ষা করি থকা দেখি - মুনিযে
নাম রাখিলে শকুন্তলা । মুনির আশ্রমতে ছো঵ালীজনী
লাহে লাহে চন্দ্রকলার দরে বাঢ়ি আহিবলৈ ধরিলে
আরু ভরয়ৌ঵নত ভরি দিলে ।</p>

<p>সেই সমযত পুরু বংশর রজা দুষ্য়ন্তই হস্তিনাপুরত
রাজত্঵ করিছিল । আগর দিনত রজা-মহারজাসকলে
কে঵ল রাজকার্য়্য়তে ব্য়স্ত নাথাকি-মাজে সমযে মৃগযা
করিবলৈও ওলাইছিল ! রজা দুষ্য়ন্তও বর মৃগযা-প্রিয
আছিল । এদিন ভাল দিন চাই লগত কিছুমান
সৈন্য় লৈ রজা মৃগযালৈ ওলাল । কিছুদূর গৈ তেওঁলোকে
এটা পহু দেখা পালে । আরু সেই পহুটোর পিছে পিছে
রজাই সারথিক রথ ঘুরাব কলে । সীতাক মাযামৃগই
ছলনা করার দরে এই পহুটো঵েও রজাক বর আকৃষ্ট
করিছিল । এই হরিণা পহুটো খেদি খেদি রজাই গৈ
এখন তপোবনত সোমাল । সেইটো য়ে সেই তপোবনরে
হরিণা এই বিষয রজার অজ্ঞাত আছিল । আরু সেই
কারণেই রজাই হরিণাটো মারিবলৈ উদ্য়ত হৈছিল ।
তেওঁ হরিণা মারিব-ধেনুত কাঁড় জুরিছে , - এনেতে
বৈখানস নামে এজন মুনি আহি ওলাল আরু রজাক
কলে , -`` মহারাজ , এইটো আশ্রমর মৃগ । ইযাক
নেমারিব ; তার সুকোমল শরীরত আপোনার এই
তীক্ষ্ণ শেলে বিন্ধিলে , সি কেনেকৈ সহ্য় করিব ?
আপোনার এই শর আতুরক রাখিবর নিমিত্তেহে ;
নির্দ্দোষীক মারিবলৈ নহয । ""</p>

<p>`` সৌ মালিনী নৈর পারত কাশ্য়প বংশীয কুলপতির
আশ্রম । আপোনার য়দি একো অসুবিধা নহয - সেই
তপোবনতে ক্ষন্তেক জিরণি লওকগৈ । কুলপতি নাই //
য়দিও মুনিকন্য়াসকলেই আপোনার আতিথ্য়র ভার
গ্রহণ করিব । আমি য়জ্ঞর কারণে শমীধ কাঠ
আনিবলৈ য়াওঁ । "" এই বুলি কৈ বৈখানস মুনি রজার
পরা বিদায ললে ।</p>

<p>রজাই রথ আরু সারথিক তাতে এরি থৈ - সেই
পুণ্য়াশ্রমলৈ গ'ল । আশ্রমর দু঵ার-দলিত ভরি দিওঁতেই
রজার সোঁহাতর মঙ্গহ লরিবলৈ ধরিলে ! রজার
বুজিবলৈ বাকী নাথাকিল য়ে নিশ্চয তেওঁর আজি
স্ত্রী লাভর দিন । বিধাতার লিখন - নায়ায খণ্ডন ।
য়'ত য়ি হব লগা আছে সি হবই । আশ্রম কিয
য়িযেই নহওক !</p>

<p>রজাই এখোজ দুখোজকৈ গৈ তপোবনর ভিতরত
থকা নিকুঞ্জ বন পালে । তাত দেখিলে য়ে প্রিযম্বদা ,
অনুসূযা আদি সখীসকলেরে সৈতে শকুন্তলাই গছর
গুরিত পানী দি আছে । রজার বুজিবলৈ আরু
বাকী নাথাকিল য়ে আগতে বৈখানসর পরা শুনিবলৈ
পো঵া এ঵েঁই সেই কণ্঵ মুনির কন্য়া । রজা দুষ্য়ন্ত
শকুন্তলার রূপত বর মুগ্ধ হ'ল । মুনি-কন্য়া হলেও
রজাই মনতে তেওঁক বিযা করাবলৈ বর অভিলাষ
করিলে । এই অভিপ্রাযে রজাই সকলো লাজ-মান
কাতি করি থৈ আগবাঢ়ি আহি শকুন্তলা আরু তেওঁর
সখীযেকসকলর পরিচয বিচারিলে ; লগতে নিজরো
পরিচয দিলে । এইদরে নানা আলাপ আলোচনার
মাজত কিছু সময য়ো঵ার পিছত রজাই তেওঁলোকর
ওচরর পরা অনিছা সত্ত্঵েও বিদায মাগিলে ।</p>

<p>ইপিনে রজার কিন্তু সোনকালে রাজ্য়লৈ উভটি
য়াবর মন নহল । শুকুন্তলাক দেখারে পরা রজার
দেহ-মন শকুন্তলাই হরণ করিলে । কেনেকৈনো
শকুন্তলাক পো঵া য়ায - এই উদ্দেশ্য়ে রজাই আশ্রমর
ওচরতে শিবির পাতিলে । কেনেকৈনো শকুন্তলাক
নিজর করি লব পারে রজার সেই একেটা
মাত্র চিন্তা ।</p>

<p>এনেকৈ কিছুদিন অতিবাহিত হৈছে । এদিন দুজন
ঋষিপুত্র আহি রজাক দেখা সাক্ষাত্ করিলে - আরু
কলে , `` মহারাজ ! আশ্রমবাসীযে আমাক আপোনার
ওচরলৈ পঠাইছে । ইযার একমাত্র কারণ হ'ল কন্঵
মুনি নথকা হেতু রাক্ষসবোরে আমার য়জ্ঞর বিঘিনি
ঘটাইছে । আপুনি ঋষিরাজ নহালৈকে সিহঁতক
দমন করি আমাক সহায করিব লাগে । "" রজাই
তেওঁলোকর কথাত মান্তি হ'ল । ইমানদিনে বিচারি
থকা সুবিধা হাততে মিলা দেখি রজা বর আনন্দিত
হ'ল ।</p>

<p>ইপিনে শকুন্তলাইও রজাক দেখার দিনরে পরা
বর চিন্তিত হৈ পরিছে । সখীসকলর বুজিবলৈ আরু
বাকী নাথাকিল য়ে রজাই হে ইযার প্রকৃত কারণ
সেই কারণে সখীহঁতে মালিনী নৈর পারত থকা
নিকুঞ্জবনত দুষ্য়ন্ত আরু শকুন্তলার মিলন করি দিলে ।
গান্ধর্ব্ব প্রথামতে তেওঁলোক দুযো বিবাহ পাশত আ঵দ্ধ
হ'ল ।</p>

<p>কালর কুটিলা গতি ! দিন জানো সদায সমানে
য়াব ? ইপিনে ঋষিসকলর য়জ্ঞ সমাপণ হো঵া দেখি
তেওঁলোকে রজাক বিদায সম্ভাষণ জনালে । রজাইও
হতাশ মনেরে ঋষিসকলর ওচরর পরা মেলানি মাগি
রাজ্য়লৈ উভতিল ।</p>

<p>য়ো঵ার সমযত রজাই শকুন্তলাক সোঁ঵রণির
কারণে নিজর হাত৉র হীরার আঙ্গঠিটো পিন্ধাই
দি গ'ল ।</p>

<p>ইপিনে রজাক বিদায দিব লগা হো঵াত শকুন্তলার
মুরত স্঵রগ ভাগি পরিল । তেওঁ সখীসকলর পরা
আঁতরত গৈ আমন-জিমনকৈ বহি রজার কথাকে
ভাবি আছে ।</p>

<p>এনেতে ক'রবার পরা দুর্ব্বাসা মুনি আহি ওলাল ।
তেওঁ শকুন্তলাক দুবার-তিনিবার মাতিও সঁহারি
নাপাই জ্঵লি উঠিল - আরু শাপ দিলে , `` অ' তই
অতিথিক অ঵জ্ঞা কর ! তই য়ার কথা ইমান তন্ময
হৈ ভাবি আছ , সি মতলীযা মানুহর দরে আগেযে
কো঵া কথা সোঁ঵রাই দিলেও তোক নুসুঁ঵রিব । ""</p>

<p>দুর্ব্বাসাই শাপ দি গুছি গ'ল - অথচ বেচেরী
শকুন্তলার কাণষারেই নাই । ! সখীযেক প্রিযম্বদাইহে
কিবা অলপ গম পাই ততাতৈযাকৈ লরি আহিল ।
তেওঁর আরু বুজিবর বাকী নাথাকিল য়ে এইজনেই
সেই টিঙ্গিরি তুলা য়েন খঙ্গাল দুর্ব্বাসা মুনি । বেচেরী
শকুন্তলাই চাগৈ কিবা দোষ লগাইছে ; সেইকারণে
কিজানি শপি গ'ল । প্রিযম্বদা মুনির পিছে পিছে
গৈ সখীযেকর দোষ ক্ষমা করিবলৈ কাকূতি করিব
ধরিলে ।</p>

<p>তেতিযা মুনিযেও অলপ সাম্য় হৈ কব ধরিলে ,
`` মোর শাপ অলঙ্ঘনীয । ই অথলে নায়ায । কিন্তু
য়িজন পুরুষে এওঁক সোঁ঵রণির কারণে আঙ্গঠি দি
গৈছে - সেই আঙ্গঠির পরাই তেওঁর শাপ মুকলি হব
পারে । "" ইযাকে কৈ মুনি গুছি গ'ল ।</p>

<p>কিছুদিন পিছত কণ্঵মুনি প্রবাসর পরা আহিল ।
তেওঁ নোহো঵া সমযত তপোবনত শকুন্তলার লগত
দুষ্য়ন্তর য়িবিলাক ঘটনা ঘটিছিল সকলো গম পালে ।</p>

<p>কিন্তু কি আচরিত কথা ! মুনির হলে খঙ নুঠিল ,
বরঞ্চ উপয়ুক্ত পাত্রর লগত সম্বন্ধর কারণে আনন্দ
প্রকাশহে করিলে ।</p>

<p>এইদরে দিনর পিছত দিন য়াবলৈ ধরিলে । কিন্তু
দুষ্য়ন্তই হলে দুনাই আরু শকুন্তলার খবর নকরিলে ।
ইপিনে শকুন্তলা অন্ত:সত্঵া । ইযাকে দেখি কণ্঵ মুনিযে
জীযেকর কথা ভাবি বুজিলে য়ে দুর্ব্বাসার শাপেই
শকুন্তলাক এনে অ঵স্থা করিছে ।</p>

<p>আজি তপোবনত মহা হুলস্থুল । কিযনো মুনির
অতি চেনেহর পালিতা কন্য়া শকুন্তলা আজি স্঵ামীর
ঘরলৈ য়াব । আশ্রমর সকলো মুনিযে আহি তেওঁক
কাপোর-কানি অলঙ্কার-পাতি আদি পিন্ধাই দিলে ।
শেষত শকুন্তলাইও তপোবনর সকলোরে ওচরত
বেলেগকৈ বিদায মাগি স্঵ামীর ঘরলৈ য়াবলৈ ওলাল ।</p>

<p>ইমান দিনে লালন-পালন করি শকুন্তলাক
পঠাবলগীযা হো঵াত মুনির অন্তরত শোকে খুন্দা মারি
ধরিলে । আজির পরা তেওঁ শকুন্তলার অনুপস্থিতিত
তপোবনেই আন্ধার হৈ পরিব । এইবোর নানা কথা
ভাবি মুনি ব্য়াকুল হৈ পরিল । পিছত মুনিযে নিজক
সংয়ত করি জীযেকক আশীর্ব্বাদ দিবলৈ ধরিলে ,
`` আই ! শর্ম্মিষ্ঠা য়েনেকৈ য়য়াতির প্রিযপাত্রী হৈছিল ,
তুমিও সেইদরে গিরিযেকর প্রিযপাত্রী হো঵া ; আরু
তেওঁ পুরুক পো঵ার দরে তুমিও রাজ-চক্র঵র্তী পুত্র
লাভ করা । ""</p>

<p>বাপেকর আশীষ বচন শিরোধার্য়্য় করি শকুন্তলা
য়াবলৈ ওলাল । এনেতে শকুন্তলার মঙ্গল কামনা
করি আকাশর পরা দৈ঵বাণী হ'ল ।</p>

<p>কুলপতিযে গৌতমী আরু কেইজনমান জ্ঞানী
মুনির লগত শকুন্তলাক হস্তিনাপুরলৈ পঠাই দিলে ।
য়থাসমযত গৈ তেওঁলোকে দুষ্য়ন্ত রজার রাজ্য়র ওচর
পালে ।</p>

<p>দু঵রীযে গৈ রজাক মুনিসকলর আগমনর বাতরি
দিলে । রজাইও তেওঁলোকক আদরি নি য়থাবিহিত
আদর অভ্য়র্থনা , সে঵া-সত্কার আদি করিলে ।</p>

<p>লাহে ধীরে মুনিসকলে রজার ওচরলৈনো কিয
আহিছে - সকলো বিবরি কৈ - রজাক পূর্ব্বর কথা
সোঁ঵রাই দিলে আরু অতি সোনকালে শকুন্তলাক
গ্রহণ করিবলৈ কলে ।</p>

<p>কিন্তু রজাই পূর্ব্বর কথা পাহরি শকুন্তলাক পরর
স্ত্রী বুলি গ্রহণ করিবলৈ অমান্তি হ'ল । রজার
কাপুরুষালি আরু বিশ্঵াসঘাতকতা দেখি মুনিসকল
বর দুখিত হ'ল আরু রজাক নানা কদর্থনা করিবলৈ
ধরিলে ।</p>

<p>বৃদ্ধা গৌতমীযেও অনেক বুজো঵া বঢ়ো঵া সত্঵েও
রজা সৈমান নহল । বরঞ্চ তেওঁক দুই-এষার কটু
কথাহে শুনালে । মুনিসকলে তেওঁলোকর কথাই
ফল নধরা দেখি য়াবলৈ ওলাল , আরু শকুন্তলাক
রজাক য়ি কবলগীযা আছে কবলৈ কলে ।</p>

<p>শকুন্তলাই রজাক বহুত কথা কৈ শেষত আঙ্গঠিটো
দেখু঵াই তেওঁক পূর্ব্বর কথা সোঁ঵ারাই দিবর মন
করিলে । কিন্তু দেখে য়ে আঙ্গুলিত আঙ্গঠি নাই ।
তেতিযা শকুন্তলা বর বিমোরত পরিল আরু গৌতমীক
কথাটো কলে । গৌতমীযে কলে , `` নিশ্চয তোমার
আঙ্গঠি শক্রা঵তার গা঵ঁর শচাতীর্থর পানীত সে঵া
করোতেই পরিল । "" কিন্তু রজাই হলে এই কথা
বিশ্঵াস	 নকরিলে । শেষত মুনিসকলে উপায নাপাই
শকুন্তলাক জোরকৈ রজার ওচরত থৈ য়াবলৈ ওলাল ।
রজাইও দোধোর মোধোরত পরি ভাবিবলৈ ধরিলে-
এতিযা কি করা-য়ায ! শেষত তেওঁ উপায নাপাই
কুল-পুরোহিতক কথাটোর মীমাংসা করিবলৈ কলে ।</p>

<p>পুরোহিতে প্রস঵ নোহো঵ালৈকে শকুন্তলাক তেওঁর
ঘরত রাখিব খুজিলে আরু কলে - `` আপোনাক সাধু~
সকলে কৈছিল য়ে আপুনি চক্র঵র্ত্তী পুত্রর জন্মদাতা
হব ; মুনিকন্য়ার পুত্র য়দি চক্রবর্ত্তী লক্ষণয়ুক্ত হয ,
তেনেহলে তেওঁক আদরেরে অন্ত:পুরলৈ লব ; নহলে
আন এটা ব্য়঵স্থা করা হব । ""
রজাইও তাতে মত দিলে ।</p>

<p>শকুন্তলাক লগত লৈ পুরোহিত ঘরলৈ য়াবলৈ
ওলাল । কিন্তু তেওঁ এনে অ঵স্থাতে নিজ স্঵ামীর ঘর
এরিবলগীযা হো঵ার কারণে মনত বর কষ্ট পালে ।
শেষত উপায-বিহীনা হৈ নিজর অদৃষ্টকে ধিযাই
বেচেরী শকুন্তলাই কান্দি কান্দি পুরোহিতর পিছে
পিছে য়াবলৈ ধরিলে । শকুন্তলার বিলাই বিপত্তি
দেখি মেনকা দে঵ীযে অপ্সরা এজনী পঠাই
তেওঁক নি দে঵তাসকলর গুরু কশ্য়াপ মুনির আশ্রমত
থ'লে ।</p>

<p>ইযাকে দেখি পুরোহিত বর আচরিত হ'ল ।
তেওঁ ততালিকে গৈ রজার আগত সকলো ঘটনা
বিবরি কলে ।</p>

<p>রজাই সকলোবোর কথা শুনি পুরোহিতক কলে ,
`` পূর্ব্বেই আমি তেওঁক অস্঵ীকার করিছোঁ , তেওঁর কথা
এতিযা আরু ভাবি লাভ নাই । "" ইমানকৈ কৈ রজাই
সিদিনার কারণে পুরোহিতক বিদায দিলে ।</p>

<p>পুরোহিতক বিদায দি রজাই শকুন্তলার কথাকেই
ভাবি গুণি আছে - এনেতে দুতে আহি খবর দিলে য়ে ,
`` শক্রা঵তার গা঵ঁত থকা শচীতীর্থ নদীত এদিন
জালো঵া এজনে জাল বাই থাকোতে এটা বর ডাঙর
রৌ মাছ পায । সি ঘরলৈ আনি কাটি দেখে য়ে
মাছর পেটত কিনো এটা জিল্মিলাই আছে । ভালকৈ
চাই দেখে য়ে - সেইটো আরু আন একো নহয ,
বাখরর ওপরত মহারাজর নাম কটা আঙ্গঠিহে !
আঙ্গঠিটো পাই সি আপোনার ওচরলৈ আহিছে । ""
 +&gt;*",0
</p></body></text></cesDoc>