<cesDoc id="asm-w-socsci-anthrop-aan04" lang="asm">
<cesHeader type="text">
<fileDesc>
<titleStmt>
<h.title>asm-w-socsci-anthrop-aan04.txt</h.title>
<respStmt>
<respType>Electronic file created by</respType>
<respName>Central Institute for Indian Languages, Mysore</respName>
<respType>transferred into Unicode and CES format by</respType>
<respName>"Unicodify" software by Andrew Hardie</respName>
</respStmt></titleStmt>
<publicationStmt>
<distributor>UCREL (on behalf of CIIL)</distributor>
<pubAddress>Department of Linguistics, Lancaster University, Lancaster, LA1 4YT, UK</pubAddress>
<availability region="WORLD"></availability>
<pubDate>03-07-21</pubDate>
</publicationStmt>
<sourceDesc>
<biblStruct>
<monogr>
<h.title>মাধ঵----</h.title>
<h.author>নৃতত্ত্঵</h.author>
<imprint>
<pubPlace>India</pubPlace>
<publisher>Unknown - book-</publisher>
<pubDate>1989</pubDate>
</imprint>
<idno type="CIIL code">aan04</idno>
</monogr></biblStruct></sourceDesc></fileDesc>
<encodingDesc>
<projectDesc>Text collected for the CIIL Corpus, subsequently integrated into the EMILLE/CIIL Monolingual Written Corpora.</projectDesc>
<samplingDesc>Simple written text only has been transcribed. Diagrams, pictures and tables have been omitted. Sampling begins at page 8174.</samplingDesc>
<editorialDecl><conformance level="1"></conformance></editorialDecl>
</encodingDesc>
<profileDesc>
<creation><date>03-07-21</date></creation>
<langUsage>Assamese</langUsage>
<wsdUsage>
<writingSystem id="ISO/IEC 10646">Universal Multiple-Octet Coded Character Set (UCS).</writingSystem>
</wsdUsage>
<textClass>
<channel mode="w">print</channel>
<constitution type="composite"></constitution>
<domain type="public"></domain>
<factuality type="fact"></factuality>
</textClass>
<translations></translations>
</profileDesc>
<revisionDesc></revisionDesc>
</cesHeader>

<text><body>
<p>&lt;নৃতত্ত্঵ পরিচয ( মাধ঵ চন্দ্র গোস্঵ামী )
বরফর নৈ কোনো ঠাইর ওপরেরে প্রবাহিত হ'লে সেই
অঞ্চলটোর ভুমিভাগর ওপরত নানা তরহর চিহ্ন পরিলক্ষিত হয ;
য়েনে - মরেইন বা গ্রাবরেখা , অ'ত ত'ত সিঁচরিত হৈ থকা
শিলাখণ্ড ইত্য়াদি । ইযার উপরিও বরফর নৈ উপত্য়কাবোর
বিশেষ বৈশিষ্ট্য় সম্পন্ন হো঵ার লগতে সেই অঞ্চলর ডাঙর
ডাঙর হ্রদর সৃষ্টি হয । বরফর নদীযে কঢ়িযাই অনা আবর্জনা ;
শিলাখণ্ড , বালি বোকা আদির দ্঵ারা গ্রাবরেখাবোর গঠিত হয ।
গ্রাবরেখাবোরত জী঵াশ্ম আরু প্রাগৈতিহাসিক য়ুগক কৃষ্টিসমুহ
পো঵া য়ায । আনহাতে গ্রীষ্মমণ্ডল জলাহ আরু উপজলাহ য়ুগর
ভূতাত্ত্঵িক য়ুগর চিহ্ন হিচাবে সেই অঞ্চলর নদীর উপত্য়কাত
শিলাখণ্ডরে গঠিত কংকর , বালি , পলস আদির স্তরীভুত
গঠন পো঵া য়ায । ইযার কংকারবোরে জলাহ য়ুগর আরু
পলসর স্তরবিলাকত জী঵াশ্ম আরু প্রাগৈতিহাসিক য়ুগর কৃষ্টি-~
সামগ্রী পো঵া য়ায ।</p>

<p>প্লাইট'ছিন য়ুগর জলবাযুর প্রভা঵ নদীর উপত্য়কা ভাগতো
পরিলক্ষিত হয । জলাহ আরু উপজলাহ বাযুর প্রভা঵ত
নদী উপকূলর উত্তর পঞ্জা঵র চোহান নদীর উপকূলবোর
প্লাইট'ছিন য়ুগর জলবাযুর প্রভা঵ত গঠিত হৈছিল ।
এই নদীর উপকূলবোরত প্রত্ন-প্রস্তর য়ুগর কৃষ্টি-সামগ্রী
পো঵া য়ায । ইযার উপরিও তুষার য়ুগ আরম্ভ হো঵ার আগে
আগে আরু শেষ হো঵ার ঠিক পাছে পাছে তুষার বৃষ্টি অঞ্চলর
পাদদেশত প্রকট শুকান শীত জলবাযু আরম্ভ হয । তার ফলত
সেই অঞ্চলত বাযুর সোঁত তীব্র হৈ পরে । এই তীবের গতিত বো঵া
বাযুযে কঢ়িযাই অনা বালুকণাবোরে বাযুর গতি রোধ হো঵ার ঠাইত ,
নাইবা বাযুর গতি হ্রাস হো঵া ঠাইত জমা হৈ এটা সুকীযা ভূতাত্ত্঵িক
অঞ্চল সৃষ্টি হয । ইযাক ল঵েছ বুলি কো঵া হয । ফ্রান্সর উত্তর-পূ঵
অঞ্চলত আরু চীন দেশর উত্তর-পশ্চিম অঞ্চলত বিস্তৃত ল঵েছ ভুমি
গঠিত হৈছে ।</p>

<p>তুষার য়ুগর আন এটা বৈশিষ্ট্য় হ'ল সেই সমযত এক
বুজন অংশ জলীয বাস্প বরফ আকারে জমা হৈ থকার ফলত
সমুদ্রপৃষ্ঠর জলর পরিমাণ বহু পরিমাণে কমি গৈছিল আরু ইযার
ফলত মহাদেশবোরর নিকটবর্তী অঞ্চল উদং হৈ পরিছিল আরু
ইউরোপ , আফ্রিকা , এছীযা , আমেরিকা মহাদেশবোর সংয়ুক্ত হৈ
পরিছিল ।  ইযার ফলত ইখন মহাদেশরপরা সিখন মহাদেশলৈ
঩উদ্ভিদ আরু প্রাণীর বিস্তার হো঵াত সুচল হৈ পরিছিল ।</p>

<p>তুষার য়ুগর কারণ :
এতিযা প্রশ্ন হ'ল , প্লাইছট'নিছ য়ুগর জলবাযু এনেকু঵া পরিবর্তনর
কারণ কি ? বৈজ্ঞানিকসকলে ইযার সমাধানকল্পে কেবাটাও তথ্য়
আগবঢ়াইছে । এই তথ্য়বোরক দুটা ভাগত ভাগ করিব পারি -
1. ভৌগলিক আরু 2. নৈসর্গিক ।
ভুগোলবিদসকলে কয য়ে পৃথিবীর জল আরু স্থালভাগর স্থল
পরিবর্তন , স্কাণ্ডিনেভিযা অঞ্চলত পর্ব্বতসমুহর উচ্চতা বৃদ্ধি আরু
ইযার লগতে উপমহাসাগরীযা সোঁতর গতি পর্বর্তনর ফলত
ইউরোপর উত্তর আরু পশ্চিম অঞ্চলত তাপর মাত্রা বহু কমি
গৈছিল । তার ফলত সেই অঞ্চল বরফে ঢাকি ধরে বুলি অনুমান
করা হৈছে । আন এদল পণ্ডিতর মতে ভৌগলিক য়ুক্তিটো গ্রহণয়োগ্য়
নহয । কারণ ইযারদ্঵ারা ইউরোপর তুষার য়ুগর জলবাযুর পরিবর্তনর
কারণ বিশ্লেষণ করিব পারিলেও , সেই সমযত আন আন অঞ্চলত
সংঘটিত হো঵া তুষার য়ুগর কারণসমুহ এই তথ্য়রদ্঵ারা বিশ্লেষণ করা
সম্ভ঵ নহয ।</p>

<p>নৈসর্গিক তথ্য় :
নৈসর্গিক কারণসমুহর ভিতরত দুটা উল্লেখয়য়োগ্য় তথ্য়
প্রচলিত আছে । তারে এটার ক্রুল তথ্য় আরু আনটো
ছিমছন তথ্য় নামে জনাজাত । ক্রুল তথ্য়মতে তুষার য়ুগত
পৃথিবীযে সূর্য়ক প্রদক্ষিণ রা কক্ষপথ আজিকালির নিচিনার
প্রায বৃত্তকার নাছিল , ডিম্বাকৃতির আছিল । পৃথিবীর কক্ষপথর
এনেকু঵া পরিবর্তন সমযে সমেয প্রাগৈতিহাসিক য়ুগরপরা চলি
আছে বুলি কো঵া হৈছে । ডিম্বাকৃতির কক্ষপথর ফলত পৃথিবীযে
সূর্য়ক প্রদক্ষিণ করার ফলত উত্তর গোলার্দ্ধ সূর্য়রপরা বহু আঁতরত
থাকে আরু শীতকালর নিচিনাকৈ সূর্য়ই সদায দিগন্তর নিম্নস্তরত
উদয হয । তেতিযা উত্তর গোলার্দ্ধত সূর্য়র কিরণ বেছি হেলনীযাভাবে
পরার ফলত সেইবোর ঠাইত তাপমাত্রা কমি য়ায । ইযার ফলত
উত্তর গোলার্দ্ধর অনেক ঠাই বরফে ঢাকি ধরে । এনেকৈ হাজার
হাজার বছর অতিবাহিত হো঵ার ফলত পৃথিবীর কক্ষপথ আকৌ
বৃত্তাকার আকৃতিলৈ পরিবর্তিত হয ছ তার ফলত উত্তর গোলার্দ্ধত
তাপর প্রখরতা ক্রমে বেছি হৈ পরে । ইযার ফলত তুষার য়ুগর
বরফেরে আবত হৈ থকা অনেক ঠাইর বরফ গলিবলৈ ধরে
আরু ক্রমে উপতুষার য়ুগর সুচনা হয ।</p>

<p>ছিমছন তথ্য়মতে পৃথিবীর মেরুবিন্দু দুটার অ঵স্থান পরিবর্নশীল
আরু সূর্য়ও এটা পরিবর্তশীল নক্ষত্র । সেই কারণে সূর্য়ই বিকিরণ
করা তাপর পরিমাণ সদায সমান হৈ নাথাকে । ইযারপরা এইটো
ঠিরাং করা হৈছে য়ে চতুর্থ ভূতাত্ত্঵তিক য়ুগত এই ধরণর পরিবর্তন
সামযিক আরু ধারাবিহকভাবে সংঘটিত হৈছিল । য়ি সমযত পৃথিবীর
সূর্য়র তাপমাত্রা কমি য়ায , তেতিযা তুষার য়ুগর আরম্ভ হয আরু
য়েতিযা তাপমাত্রা বৃদ্ধি হয উপতুষার য়ুগর প্রবর্তন হয । উদাহরণস্঵রূপ
এইটো কো঵া হৈছে য়ে উত্তর মেরুবিন্দুর অ঵স্থানর সমান পরিবর্তন
জার্মানির ফ্রেংফ'র্ট চহরর অক্ষরেখালৈ বার্ষিক উত্তাপর গঢ় পাঁচ ডিগ্রা
কমি য়াব আরু তার ফলত সেই অঞ্চলটো গোটেই বছর বরফে তুষার
য়ুগর সুত্রপাত করিব ।</p>

<p>বৈজ্ঞানিক কাল নির্ণয পদ্ধতিরদ্঵ারা ঠিরাং করা হৈছে য়ে চতুর্থ আরু
উরম্ তুষার য়ুগটো শেষ হ'ব প্রায 10,000 হাজার বছর হৈছে ।
পণ্ডিতসকলে ইযাকো কয য়ে আমি বাস করা আধুনিক য়ুগতো
এটা উপতুষার য়ুগহে । এইদরে কেইবাহাজারমান বছর চলার পাছত
পৃথিবীত তাপমাত্রা আকৌ কমি আহিব পারে । তেতিযা আন এটা
তুষার য়ুগ আরম্ভ হো঵ারা সম্ভ঵না আছে । //
শিল চলিযন পদ্ধতি :
এতিযা প্রাগৈতিহাসিত য়ুগর কি ক'লা-কৌশল অ঵লম্বন করি
এটুকুরা শিলরপরা অস্ত্র বা সঁজুলি তৈযার করা হৈছিল তাকে
চো঵া য়াওঁক । এই ক'লা-কৌশল অধ্য়যণ করা প্রাগৈতিহাসিক
নৃতত্ত্঵র এটা বিশেষ অংগ । ইযারপরা আমি আদিন ক'ল-কৃষ্টির
লগতে মান঵ সমাজর শিল্পক'লার আরম্ভন আরু ক্রমোন্নোতির
আভাষ পাওঁ । সেই য়ুগর কারিকরী পদ্ধতির কোনো লিখিত প্রমাণ
নোহো঵া কারণে ইযার অধ্য়াযণ প্রণালীও সুকীযা । সেই সমযর
কারীকরি কৌশল আদি জানিবর কারণে দুটা ঩পায আছে - 1. শিলর
অস্ত্র নির্মাণ তথা পরীক্ষাগমূলকভাবে প্রযোগ করি সেই য়ুগর কারীকরি
প্রথা জানিবলৈ চেষ্টা করা আরু 2. বর্তমান আমেরিকা আরু অষ্ট্রেলিযার
আদিম অধিবাসীসকলর মাজত প্রচলিত শিলর অস্ত্র তৈযার করা কৌশলর
প্রত্য়ক্ষ বি঵রণর লগত পরিচিত হো঵া ।</p>

<p>কটা-ছিঙা কামর বাবে ব্য়঵হার করিবলৈ শিল এটুকুরা প্রস্তুত
করোঁতে ইযাক কে঵ল হাতুরীরে টুকুরীযাই বা মরিযাই ভাঙিব
লাগে । ভঙা অংশত উত্পন্ন হো঵া শিলটুকুরার ধার ফালটো
কাটিবর কারণে ব্য়঵হারর উপয়োগী হৈ উঠে । অতি আদিম
অ঵স্থাত প্রাগৈতিহাসিক মানুহবিলাকে শিল ভাঙি তাক চিকারত
মরা জন্তুর ছাল এরু঵াই মাংস কটা কামত ব্য়঵হার করিছিল ।
অষ্ট্রেলিযার আদিম অধিবাসীসকলে অষ্টাদশ শতিকালৈ এনে ধরণর
শিলবোররপরা দুই এটা চকলা উঠাই অস্ত্র হিচাহে হ্য়঵হার করিছিল ।
কালক্রমত জী঵ প্রবর্তনর ফলত মানুহর বুদ্ধিবৃত্তি বাঢ়ি অহার লগে লগে
নানা কাকীকরি কৌশল প্রযোগ করি শিলর টুকুরাবোররপরা উন্নত ধরণর
অস্ত্র-শস্ত্র তৈযার করিবলৈ ধরিলে । শিলগুটি , শিলাখণ্ড , বা শিলর
টেমুনা এটা চলিযণ পদ্ধতিরে তৈযার করা অস্ত্রবিলাকক স্থুল সঁজুলি বোলে ।
ইযার উপরিও এই স্থুল সঁজুলিবোর তৈযার করোঁতে য়িবোর শিলর চলি
নির্গত হয সেইবোরকো কারীকরি পদ্ধতিরে আ঵েশ্য়কীয গঢ় দি অস্ত্র হিচাবে
ব্য়঵হার করিব পারে । এইবোরক চলি সঁজুলি বোলে । য়ি শিলাখণ্ডরপরা
চলি উঠো঵া হয তাক মূল ( core ) বোলে । ইযার ভিত্তিত প্রাগৈতিহাসিক
য়ুগর প্রস্তর শিল্পক দুটা মূল ভাগত ভাগ করিব পারি । য়েনে - স্থুল সঁজুলি
শিল্প আরু চলি সঁজুলি শিল্প । উন্নত ধরণর চকলা অস্ত্র তৈযার করিবলৈ
প্রথমতে স্থুলটোক আ঵েশ্য়কীয আকারত গঢ় দি লো঵ার প্রযোজন । ইযাকে
কয স্থুল সজো঵া পদ্ধতি । উচ্চ প্রত্নপ্রস্তর য়ুগত চকলা অস্ত্র শিল্প অধিক
উন্নত স্তরলৈ আগবাঢ়ে আরু ফলক সঁজুলি শিল্প এটার জন্ম হয । সমান্তরাল
দাঁতিসম্পন্ন দীঘলীযা শিলর চকলাবিলাকক ফলক চলি বোলে । //
প্রাগৈতিহাসিক য়ুগর শিল আরু হাড়র আহিলাসমুহ :
প্রাগৈতিহাসিক য়ুগর আদিছো঵াত য়েতিযা মানুহে খেতি-বাতির প্রথা
নাজানিছিল , তেতিযা সাঁ-সজুলি আরু অস্ত্র-শস্ত্রর সংখ্য়া আরু প্রকার
, লগতে সেইবিলাকর ব্য়঵হারো সীমাবদ্ধ আছিল । সেই সমযত এক
প্রকার শিলর অস্ত্রকে নানা কামত ব্য়঵হার রা হৈছিল । চিকারীজী঵ী
আদিম মানুহর কারণে খেদি কোবাই মরা , ফান্দপাতি মরা আরু স্঵াভাবিক
মৃত্য়ু হো঵া জন্তুটোর শরীরটো বিদির্ণ করিবর কারণেহে শিলর অস্ত্রবোরর
বিশেষ প্রযোজন হৈ পরিছিল ।
সেইদরে হানিখুচি জন্ত বধ করিবর কারণে য়াঠি , খাপর , শূল আদি
প্রযোগ করা হৈছিল । মান঵ জাতির সাংস্কৃতিক প্রগিত অধ্য়াযণ করিলে
দেখা য়ে উচ্চ প্রত্নপ্রস্তর য়ুগরপরাহে অর্থাত মানুহর জৈবিক প্রগতি হো঵ার
পিছত কারীকরি প্রগতি দ্রুত হ'লা ধরিলে । এই শিলর অস্ত্র-শস্ত্রবিলাকে
অলিখিত প্রাগৈতিহাসিক য়ুগর অনেক কাহিনী প্রকাশ করি আহিছে । সেইবাবে
সেই য়ুগর সা-সঁজুলি আরু অস্ত্র-শস্ত্রবোর পুংখানুপুংখভা঵ে বিশ্লেষণ আরু
অধ্য়াযণ প্রাগৈতিহাসিক নৃতত্ত্঵র ছাত্রর কারণে অপরিহার্য়্য় । তলত প্রাগৈতিহাসিক
য়ুগর বিভিন্ন সা-সঁজুলির উদাহরণ দিযা হ'ল ।</p>

<p>শিলগুটির অস্ত্র : অতি আদি অ঵স্থাত আদি প্রত্নপ্রস্তর য়ুগত য়েতিযা
মানুহ অর্ধমান঵ স্তরত আছিল তেতিযা সিহঁতে নদীর বুকুত বা সাগরর
তারত সিঁচরিত হৈ মথকা শিলগুটি এটা আন এটা শিলগুটিরে খুন্দিযাই
ভাঙি সেই ভগা অংশর ধার থকা অংশরে জন্তুর শরীর বিদির্ণ করিবর
কারণে ব্য়঵হার করিছিল । এই শিলর অস্ত্র শিলগুটিরপরা তৈযার করা
বাবে ইযাক শিলগুটি অস্ত্র কো঵া হয । কোনো কোনো঵ে ইযাক চাপর বা
চপিং টুল বুলি কয বা ঘপিও঵া অস্ত্র বোলে । পূ঵ আফ্রিকা , চীন ,
ভারতবর্ষ আরু ব্রহ্মদেশ আদি দেশত য়'ত অতি আদিম মান঵ কৃষ্টি
আবিষ্কার করা হৈছে , তাতে এই সঁজুলির প্রচলন পরিলক্ষিত হয ।
ইযার ভিতরত পূ঵ আফ্রিকার অ'লড'঵ান , ব্রহ্মদেশর আনিযাথিযান ,
ভারতবর্ষর চৌহান সংস্কৃতিত এই শ্রেণীর অস্ত্রর প্রাধান্য় বেছি ।
কোনো কোনো প্রত্নতাত্ত্঵িকর মতে এই জাতীয শিলর অস্ত্ররপরাই ইযার
পরিবর্তী য়ুগর শিলর কুঠারজাতীয অস্ত্রর উদ্ভর হয ।</p>

<p>হস্তকুঠার : প্রত্নপ্রস্তর য়ুগর শিলর কুঠার জাতীয অস্ত্রবোরক ইংরাজী
ভাষাত ` হেণ্ড এক্স ' বুলি কো঵া হয । ফরাচী ভাষাত ` কুদাপ ' বোলে ।
দক্ষিণ-পূ঵ এছীযা আরু চীন দেশর বাহিরেও পৃথিবীর প্রায আটাইবোর
দেশতে এইবিধ শিলর অস্ত্র আবিষ্কার হৈছে । এইবিধ শিলর অস্ত্রক
আদি প্রত্নপ্রস্তর য়ুগর প্রাধান সাংস্কৃতিক সমল হিচাবে ধরা হয । এইটো
কৃষ্টির স্তরত ` ছেলিযান ' সংস্কৃতির সমযরপরাই এই প্রকারর প্রস্তর
শিল্পর আরম্ভ হয । ইযার পরবর্র্তী ` এছুলিযান ' সংস্কৃতির সমযত
এইটো সঁজুলি-শিল্প শীর্ষস্থানত উপনীত হয ।</p>

<p>এই প্রকারর শিলর অস্ত্রক স্থুল শিল্প কো঵া হয বা দুমুখীযা সঁজুলি
বুলি কো঵া হয । ইযার প্রধান বিশেষত্঵ হ'ল এইবিধ শিলর সঁজুলির
মূল শিলাখণ্ডর দুযোপিঠিযে হাতুরীরে খুন্দিযাই চকলা তৈযার করা হয ।
দুযোপিঠিতে নির্মাণ কৌশল সমানভাবে প্রযোগ করা বাবে ইযাক
` দুমুখীযা ' অস্ত্র বোলে ।</p>

<p>আকৃতি আরু গঠন অনুসরি হস্ত কুঠারবিলাকক কেইবা ভাগতো ভগাব
পারি ; য়েনে -
1. নাচপতি আকৃতির : এইবিধ কুঠার পশ্চাত্ ভাগ বর শকত
আরু ডাঠ আরু আগফালে জোঙা ।
ডিম্বাকৃতির : ইযার আকৃতি হাঁহকণীটোর নিচিনা । কিন্তু চেপেটা আরু
পাতল ।
3. বহল মুখর কুঠার : এইবিধ শুিলর কুঠার আধুনিক শিলর কুঠারর
নিচিনা ধারয়ুক্ত , মুখখন বহল । এইবিধ অস্ত্র ইউরোপ আরু পশ্চিম
এছীযাত বিরল । কিন্তু দক্ষিণ আফ্রিকা , চাহারা অঞ্চল বা ভারতবর্ষত
প্রচুর । //
প্রাগৈতিহাসিক য়ুগর সংস্কৃতি :
জৌ঵বিজ্ঞানরদ্঵ারা এইটো প্রমাণিত হৈছে য়ে তৃতীয ভূতাত্ত্঵িক য়ুগর
শেষর কালছো঵াত জী঵ বিবর্তনর ফলস্঵রূপে মানুহর ডালটো আন
প্রাণীবোররপরা বিশেষকৈ প্রাইমেট শ্রেণীর প্রণীবিলাকরপরা আঁতরি
আহিল । কিন্তু মান঵ধর্মী এই প্রাণীবিলাকর শারিরীক গঠন আরু
সমাজ-সংস্কৃতি কেনে ধরণর আছিল সেই বিষযে আমি এতিযাও
জানিব পরা নাই । য়িহেতু সেই য়ুগর মানুহর প্রমাণসিদ্ধ জৈ঵িক বা
কৃষ্টিমূলক উপদান প্রযোজন অনুসারে আবিষ্কৃত হো঵া নাই । য়ো঵া
শতিকার শেষর পিনে আরু এই শতিকার আরণম্ভণিতে ইংলণ্ড আরু
ফরাথছী দেশর কেইজনমান নৃতাত্ত্঵িক আরু প্রত্নতাত্ত্঵িকে তৃতীয ভুতাত্ত্঵িত
য়ুগর মানুহর সাংস্কৃতিক উপাদান কিছুমান আবিষ্কার করা বুলি ঘোষণা
করিছে ।</p>

<p>প্রাগপ্রস্তর য়ুগ : গ্রিক ভাষারপরা আহরণ করা Eolith শব্দটো অসমীযা
ভাঙনি হ'ব প্রস্তর য়ুগর দোকমোকালি বা প্রারম্ভিক প্রস্তর য়ুগ । 1867
চনত ফরাছী দেশর বুর্জো঵া নামর এজন ধর্ময়াজকে দক্ষিণ আর্লিযেন্সর
থেনাই অঞ্চলর উচ্চ অ'লিগছিন ভূতাত্ত্঵িক স্তররপরা কিছুমান ফিণ্টু শিলর
টুকুরা পেরছর বৈজ্ঞানিক সন্মিলনত প্রদর্শন করি সেইবোর তৃতীয ভূতাত্ত্঵িক
য়ুগর মানুহে তৈযার করা শিলর অস্ত্র বুলি প্রমাণ করিব বিছারিছিল ।
ইযার পাছরপরা ভূতাত্ত্঵িক আরু নৃতাত্ত্঵িকসকলে পৃথিবীর ঠাযে ঠাযে সেই
য়ুগর মানুহর কৃষ্টির অ঵শেষ অনুসন্ধানত রত হৈছিল । 1899 চনত
বেঞ্জামিন হেরিছন নামে তৃতীয ভূতাত্ত্঵িক ইংলণ্ডর কেণ্ট জিলার ইগথান
নামেরে ঠাইত তৃতীয ভূতাত্ত্঵িক য়ুগর ভূতাত্ত্঵িক স্তররপরামানুহে তৈযার করা
শিলর হাতিযার আবিষ্কার করা বুলি ঘোষণা করিছিল । এই সকলোবোর
আবিষ্কার সত্য়তার প্রতিবাদ করি 1905 চনত ফরাছী দেশর বিখ্য়াত৉
নৃতত্ত্঵বিদ মার্ছেলিন বুলে এটা টোকা প্রকাশ করিছিল ।তেখেতে কয য়ে
য়িবিলাক খিলাখণ্ড তৃতীয ভূতাত্ত্঵িক য়ুগর হাতিযার বুলি ঘোষণা করা হৈছে
সেইবোর আচলতে প্রাকৃতিক কারণর খণ্ড-বিখণ্ড হো঵া শিলর টুকুরাহে ।
আন এজন ফরাছী প্রত্নতাত্ত্঵িক এবিবযে ঘোষণা করে য়ে এইবোর শিলাখণ্ডক
মানুহর সাংস্কৃতিক সামগ্রি বুলি মানি ল'ব নো঵ারি ।</p>

<p>ইযার পাছত 1010 চনত ইংলণ্ডর ঵েদম'র নামে এজন খ্য়াতিসম্পন্ন প্রত্নতাত্ত্঵িকে
এই বিষযটো পুনর উথ্থাপন করে । এইজনা বিজ্ঞানিযে ইংলণ্ডর দক্ষিণ-পূ঵
অঞ্চলত অ঵স্থিত ইষ্ট এংলিযার ইপছ্উইচ চহরর ওচরত অ঵স্থিত রেড-ক্রেগ
নামে ভূতাত্ত্঵িক স্তর এটার তলরপরা কিছুমান ইয'লিথ শ্রেণীর শিলর অস্ত্র
আবিষ্কার করে বুলি ঘোষণা করে । ইযার ভিতরত র'ষ্ট্রকেরিনেট নামর এক
শ্রেণীর স্থুল উল্লেখয়োগ্য় । প্রত্নতাত্ত্঵িক রেডম'রর মতে তৃতীয ভূতাত্ত্঵িক য়ুগর
এই প্রকারর শিলর অস্ত্ররপরা কালক্রমত প্রস্তর কুঠার জৈতায অস্ত্রর উদ্ভ঵
হৈছিল । ইযার উপরিও ইয'লিথবিলাকর রোঁকনি আরু ভোহর জাতীয শিলর
অস্ত্র থকা বুলি কো঵া হৈছে । এইটো মন করিবলগীযা য়ে রেড-ক্রেগত ইয'লিথ~
বিলাকর এনে কিছুমান বিশেষত্঵ আছে য়ার কারণে মানুহে ইযাক তৈযার করা
হাতিযার নহয বুলি কো঵া টান । ইযারদ্঵ারা বিশেষকৈ এইটো প্রমাণ করিবলৈ
বিচরা হৈছে য়ে ইংলণ্ড এখন আদিম মান঵ আবাসভুমি বাসস্থান আছি । কিন্তু
বিজ্ঞানীমহলত এইটোর এটা সিদ্ধান্ত এতিযাও হো঵া নাই । এক বুজন সংখ্য়ক
বিজ্ঞানীযে ইয'লিথবোরর সাংস্কৃতিক বৈশিষ্ট্য়বোরর সম্বন্ধে সন্দেহ করে ।
ইয'লিথবোরর লগত এই সঁজুলিবোর তৈযার করা মানুহর জা঵াশ্মা নাপালে
এই সমস্য়াতো অমীমাংসিত হৈ র'ব ।</p>

<p>আদি প্রত্নপ্রস্তর য়ুগ : তৃতীয ভূতাত্ত্঵িক য়ুগর পাছত এক নিয়ুত বছর পূর্ব্বে
চতুর্থ ভূতাত্ত্঵িক য়ুগ আরম্ভ হয । এই য়ুগর প্রথম উপয়ুগ ` প্লাইছটনিছ '
পৃথিবীর সর্বপ্রথম মান঵ধর্মী প্রাণীর জী঵াশ্ম আরু সাংস্কৃতির সমল পো঵া য়ায ।
এই ভূতাত্ত্঵িক য়ুগটোত প্রচলিত মান঵ সংস্কৃতিবোরক কারীকরি আরু অর্থনৈতিক
দিশরপরা এটা মুখ্য় প্রাগৈতিহাসিক য়ুগত অন্তর্ভুক্ত করা হয । এই সাংস্কৃতিক
য়ুগটোক প্রত্নপ্রস্তর য়ুগ কো঵া হয ।</p>

<p>মান঵ ইতিহাসত এই য়ুগটো঵ে সর্ব্ববৃহত্ । এই য়ুগটো সম্পূর্ণ প্লাইছটচিন
ভূতাত্ত্঵িক উপয়ুগটো বিযপি আছিল । ইযার ভোগকাল এক নিয়ুত বছররো
অধিক বুলি অনুমান করা হৈছিল । এই সুদীর্ঘ ব্য়াপ্তি থকা মান঵ কৃষ্টিবোরর
বৈশিষ্ট্য় ইমান নিম্ন মানর আছিল য়ে মান঵ ইতিহাসর এই স্তরটোক বর্ব্বর বা
বনরীযা মান঵ সংস্কৃতি বুলি আখ্য়া দিযা হৈছিল । কারণ এই য়ুগর মানুহে খাদ্য়
উত্পাদন করিব নাজানিছিল । বনরীযা জন্তু চিকার করি আরু বন ফল-মূল
সংগ্রহ করি জী঵ন নির্ব্বাহ করিছিল । সেই য়ুগর মানুহর বসবাস প্রণালীও
বনরীযা জন্তুর আছিল । তেওঁলোকে সংগঠিত সমাজপাতি বা ঘরবারী করি জী঵ন
নির্ব্বাহ করিব নেজানিছিল ।</p>

<p>প্রত্নপ্রস্তর য়ুগর মানুহর সাংস্কৃতিক অ঵শেষ প্রথমে ইউরোপত আবিষ্কার
করা হৈছিল 1847 চনত । এই আবিষ্কারর ফলস্঵রূপে ইউরোপর বিজ্ঞানীসকলে
এই বিষযে অধ্য়াযণ করিবলৈ আরু গবেষণাত আগভাগ ল'বলৈ , গ্রাগৈতিহাসিক়
নৃতত্঵ অধ্য়াযণত ভাগ ল'বলৈ সুয়োগ পায । সেই হেতুকে প্রাগৈতিহাসিক বিশেষকৈ
প্রত্নপ্রস্ত্র য়ুগর মান঵ আরু সংস্কৃতিবোরর উথ্থাপণর বিষযে জানিবলৈ প্রথমে সেই
মহাদেশর প্রত্নতাত্ত্঵িক অধ্য়াযণ আরু গবেষণার অগ্রগতির লগত পরিচয হো঵ার
আ঵েশ্য়ক ।</p>

<p>মধ্য় প্লাইটছিন য়ুগর বা মিণ্ডেল তুষার য়ুগর সময৉রপরা ইউরোপর ঠাযে ঠাযে
আদি প্রত্নপ্রস্তর য়ুগর মানুহে বাস করিছিল বুলি জনা য়ায । ফরাছী দেশর
উত্তর অঞ্চলর ছোম নদীর উপত্য়াকত আরিভিল নামে ঠাইরপরা ইউরোপর
প্রথম মানুহর সুনিশ্চিত কৃষ্টীয সমল উদ্ধার করা হৈছে । কিন্তু এই শতিকার
আটাইতকৈ উল্লেখয়োগ্য় প্রাগৈতিহাসিক য়ুগর আবিষ্কারটো হয পূ঵ আফ্রিকার
টানজীনিযা দেশত । এই আবিষ্কারর ফলত পৃথিবীর মানুহর জন্মস্থান এছীযা
আরু ইউরোপত৉রপরা পূ঵ আফ্রিকালৈ স্থানান্তরিত হ'ল য়েন অনুমান হয ।</p>

<p>পূ঵ আফ্রিকার অলড'঵ান সংস্কৃতি : ইউরোপর আদিম য়ুগর সাংস্কৃতিক
অ঵শেষ আবিষ্কৃত হো঵ার প্রায একশতাব্দি পাছত পূ঵ আফ্রিকার টানজানিযা
দেশত প্রাগৈতিহাসিক য়ুগর অতি আদিম য়ুগর সংস্কৃতি আবিষ্কৃত হয ।
টানজানিযা ইযেছি হ্রদর ছেরেংগেটি সমভুমি অঞ্চলত প্লাইছটছিন ভূতাত্ত্঵িক
য়ুগর স্তরবোরর মাজত সৃষ্টি হো঵া এটা দ গহ্঵র আছে । এইটো঵ে পৃথিবীর
বিখ্য়াত অ'লড্ভাই । এতিযালৈকে আবিষ্কার পৃথিবীর পুরণি মান঵ সংস্কৃতির
অ঵শেষ আরু এই কৃষ্টির সৃষ্টিকারক আদি মান঵র কাযিক অ঵শেষ এই
গহ্঵রটোর ভূতাত্ত্঵িক স্তরত পো঵া য়ায । এই গহ্঵রটো প্রায 40 কিল'মিটার
দীঘল আরু 100-রপরা 130 কিল'মিটার গভীর । 1911 চনত কডউইনকেল
নামে এজন জার্মান অনুসন্ধানীযে ইযাক আবিষ্কার করে । তার পাছত দ্঵িতীয
মহায়ুদ্ধর পাছলৈ অ'লডুভাই গহ্঵র অজ্ঞাত অ঵স্থাত থাকে । 1947/48 চনর
পরা বিখ্য়াত প্রত্নতত্ত্঵বিদ লিউ লিকিযে এই অঞ্চলত অনুসন্ধান আরম্ভ করে ।
অল'ডভাই গহ্঵রর অ঵দান মান঵ ইতিহাসলৈ ড: লিকির এই অনুসন্ধান
আরু তেওঁর সুদক্ষা পত্নীযে এই গহ্঵ররপরা অনেক শিলর সঁজুলি আরু
জী঵াশ্ম উদ্ধার করে । ইযার পায়ত 1959 ড: লিকিযে তেওঁর আশাসুধীযা
প্রচেষ্টার পুরস্কার পায । এই গহ্঵ররপরা স্঵ামী-স্ত্রীযে অতি আদিম মান঵র
জী঵াশ্ম উদ্ধার করে । সেই মানুহবিলাকে তৈযার করা শিলর অস্ত্র-শস্ত্র
আরু সিহঁতে খাদ্য় হিচাবে ব্য়঵হার করা জন্তুবোরর প্রস্তুরীভূত হাড়-মূর
আবিষ্কার করে । এইবোর অল'ডুভাই গহ্঵রর নিম্নস্তরত ( BED I ) পো঵া
হয । ড: লিকিযে এই আদিম মানুহগোষ্ঠীর নাম জিঞ্জানথ্রপাছ রাখে । জিঞ্জ
শব্দই আর঵ীযা ভাষাত পূ঵-আফ্রিকা বুজায । ভূতাত্ত্঵িক দিশরপরা জিঞ্জানথ্র~
পাছর অ঵শেষ থকা স্তরটো আরু প্লাইছটছিন য়ুগর বুলি নির্ণয করা হৈছে ।
টানজানিযার এই আদিম মান঵গোষ্ঠীক দক্ষিণ আফ্রিকার অষ্ট্রেল'পিথেকাছ
গোষ্ঠীর সমগোষ্ঠী আরু সমকালিন বুলি ঠা঵র করিছে । অল'ডভাই গহ্঵রত
ড: লিকির এই আবিষ্কার অষ্ট্রেল'পিথেকাছ গোষ্ঠীর আদিম মানুহবিলাকক
এক প্রস্তর শিল্পরলগত স্থাপন করাত সহায করিলে আরু সেই প্রাণীবিলাকর
মান঵ীয বৈশিষ্ট্য় প্রতিপন্ন করিলে ।
প্রাগৈতিহাসিক প্রস্তর শিল্পর জন্ম আরু ক্রমবিকাশ অধ্য়াযণর কারণে
অল'ডভাই গহ্঵রর স্থান পৃথিবীর ভিতরত প্রথম শারীত । ইযার নিম্ন
স্তরত পো঵া শিলর হাতিযারবোর মানুহর অতি আদিম সংস্কৃতির পরিচাযক।
এইবোর হাতিযার শিগুটিরপরা তৈযার করা হৈছিল । এইবিলাক চপার
শ্রেণীর হাতিযার । কালক্রমত এই অল'ডুভাই গ্হ঵রতে চপার জাতীয দঅস্ত্র~
বিলাকরপরা হস্ত কুঠার জাতীয অস্ত্রবোরর জন্ম হ'ল । এই শ্রেণীর শিলর
অস্ত্রর আবির্ভাব হো঵ার পরা অল'ডুভাইত চেলএচুলিযান সংস্কৃতি য়ুগর আরম্ভ
হ'ল । ইযার পাছত নিম্ন প্রত্নপ্রস্তর য়ুগর প্রস্তর কুঠার প্রধান এচুলিযান সংস্কৃতির
সম্পূর্ণ বিকাশ এই ঠাইতে পরিলক্ষিত হয ।
 +&gt;*"""",0"",0",0
</p></body></text></cesDoc>