<cesDoc id="asm-w-socsci-ling-ali04" lang="asm">
<cesHeader type="text">
<fileDesc>
<titleStmt>
<h.title>asm-w-socsci-ling-ali04.txt</h.title>
<respStmt>
<respType>Electronic file created by</respType>
<respName>Central Institute for Indian Languages, Mysore</respName>
<respType>transferred into Unicode and CES format by</respType>
<respName>"Unicodify" software by Andrew Hardie</respName>
</respStmt></titleStmt>
<publicationStmt>
<distributor>UCREL (on behalf of CIIL)</distributor>
<pubAddress>Department of Linguistics, Lancaster University, Lancaster, LA1 4YT, UK</pubAddress>
<availability region="WORLD"></availability>
<pubDate>03-07-21</pubDate>
</publicationStmt>
<sourceDesc>
<biblStruct>
<monogr>
<h.title>অ.প্র.পর</h.title>
<h.author>অরুনোদই-</h.author>
<imprint>
<pubPlace>India</pubPlace>
<publisher>Unknown - Magaz</publisher>
<pubDate>1983</pubDate>
</imprint>
<idno type="CIIL code">ali04</idno>
</monogr></biblStruct></sourceDesc></fileDesc>
<encodingDesc>
<projectDesc>Text collected for the CIIL Corpus, subsequently integrated into the EMILLE/CIIL Monolingual Written Corpora.</projectDesc>
<samplingDesc>Simple written text only has been transcribed. Diagrams, pictures and tables have been omitted. Sampling begins at page 0070.</samplingDesc>
<editorialDecl><conformance level="1"></conformance></editorialDecl>
</encodingDesc>
<profileDesc>
<creation><date>03-07-21</date></creation>
<langUsage>Assamese</langUsage>
<wsdUsage>
<writingSystem id="ISO/IEC 10646">Universal Multiple-Octet Coded Character Set (UCS).</writingSystem>
</wsdUsage>
<textClass>
<channel mode="w">print</channel>
<constitution type="composite"></constitution>
<domain type="public"></domain>
<factuality type="fact"></factuality>
</textClass>
<translations></translations>
</profileDesc>
<revisionDesc></revisionDesc>
</cesHeader>

<text><body>
<p>অরুনোদই ( অসম প্রকাশন পরিষদ )
অরুনোদই য়ুগর অসমীযা ভাষা :
ড: উপেন্দ্র নাথ গোস্঵ামী ।
অসমীযা ভাষা আরু ইতিহাসর ইতিহাসত অরুনোদই
য়ুগটো এটা চিরস্মরণীয য়ুগ । 1846 জানু঵ারী মাহর
পরা আমেরিকান ব্য়াপিষ্ট মিশ্য়নেরীসকলর য়ত্নত শি঵সাগরর
পরা ধর্ম , বিজ্ঞান , সাধারণ বা-বাতরি আরু জ্ঞান বিষযক
মাহেকীযা আলোচনী ` অরুনোদই সংবাদ পত্র ' -খন ওলাবলৈ
আরম্ভ করি 1882-83 চনলৈ চলি থাকে । 1861 চনর
জানু঵ারীর পরা অরুনোদই ` অরুনোদয ' হযগৈ । 1846 চনর
পরা 1883 এই সমযছো঵াক অরুনোদইর য়ুগ বুলিব লাগিব ।
এইখিনি সমযতে উজনি অসমর শি঵সাগর অঞ্চলর উপভাষাটোর
বিচার-বিশ্লেষণ আরম্ভ হয । সেই উপভাষাটোত বিবিধ নতুন
বিষযর কিতাপ-পত্র রচনা করা হয আরু এই ভাষাটো পঢ়াশালী
আরু আদালতত পুনর স্থাপন করা হয । আরু এইদরে সি অসমীযা
মান্য়-ভাষা হৈ পরে । পঢ়াশালী আরু আদালতর পরা অপসারিত
হো঵া অসমীযা ভাষার পুনর প্রতিষ্ঠার বাবে য়ুঁজিছিল আমেরিকান
ব্য়াপিষ্ট মিশ্য়নেরীসকলে । তেওঁলোকর প্রধান সহায হৈছিল আনন্দ
রাম ঢেকীযাল ফুকন । দরাচলতে অরুনোদই য়ুগটো ভাষার ক্ষেত্রত
বাট বিচরা বা বাট কটার য়ুগ ।</p>

<p>ডক্টর মহেশ্঵র নেওঁগর ভাষাত ক'বলৈ হ'লে বেপিষ্টসকলে
অসমীযা ব্য়াকরণর অভিধান , পঢ়াশালীযা পুথি , জ্ঞান-~
বিজ্ঞানর পুথি লিখি আরু প্রকাশ করি খবর কাগজর উত্কৃষ্ট
অরুনোদই সাতত্রিচ বছর কাল চলাই , পঢ়াশালি , আদালতত
তাক প্রতিষ্ঠা করি অসমীযা ভাষার হেরো঵া ঠাই পুনরুদ্ধারর প্রথম
আরু শক্তিশালী য়ুঁজারু হৈ , অসমীযা লেখকক নতুন অসমীযা
ভাষা লিখাত কলম ধরাই অসমীযা শব্ধা঵লীত ইংরাজীর সম্ভার
আরু অসমীযা বাক্য়রীতিত ইংরাজীর প্রভা঵ সুমু঵াই অসমীযা ভাষাক
মৃতসজ্ঞী঵নীরে নতুন জী঵ন দিলে । আধুনিত সাহিত্য় সৃষ্টির বাবে
প্রথন নাঙল চোঁচরালে আরু , আটাইতকৈ ডাঙর অসমীযা মানুহক
আত্ম-প্রত্য়য শিকালে ।</p>

<p>অরুনোদই কাকতর গদ্য় আরু পদ্য়ত রচনা করি বিবিধ রচনারাজি
আরু মিশ্য়নেরীসকলে উলিও঵া পুথিবোরত অরুনোদই য়ুগর অসমীযা
ভাষাটোর নিদর্শন সংরক্ষিত হৈছে । অরুনোদই কাকতর লগত কেইজনমান
অসমীযা প্রভা঵শালী লোকো আছিল । তেওঁলোক হ'ল নিধি লিবাই
ফারো঵েল , আনন্দরাম ঢেকীযাল ফুকন আরু হেমচন্দ্র বরু঵া । অসমীযা
ভাষাটো শিকি লেখার সমযত তাক প্রযোগ করিবলগীযা হো঵াত
মিশ্য়নেরীসকলে প্রথমতে ভাষাটো য়ি ধরণে কো঵া হৈছিল , তেনে ধরণে
তাক ঳েখিবলৈ য়ত্ন করিছিল । 1854 চনর এপ্রিল মাহত অরুনোদইত
ষ্টাইল এণ্ড মোড অ঵ স্পেলিং নামর এনে এটা সিদ্ধান্তক সমর্থন করি
এইদরে লেখা হৈছিল : 	`` ভাষাত রণ নো বোলে , রন হে বোলে ; পানী
হ'লে পানি বোলে ; পাপীর ঠাইত পাপি ; কূলর ঠাইত কুল ; সূর্য়র ঠাইত
সুর্জ বা সুরুজ । আরু রেফর পাছত এটা আখর দুটাকৈ নুফুটে ; পর্ব্বত
নো বোলে পর্বতহে বোলে ; সর্ব্ব , ধর্ম্ম , কর্ম্ম , মর্ম্ম মুখত নোলাই ;
সর্ব , ধর্ম , কর্ম , মর্ম নাইবা সরব , ধরম , করম , মরম এই রুপে
ওলাই । শ্লোক লিখিলে সংস্কৃতর ভা঵েরে অ঵শ্য়ে লিখিব লাগে , ভাষাত
হ'লে আমার দাই ন ধরিবা । ডক্টর মহেশ্঵র নেওগর উল্লেখ মতে
`` রবিনছনে ` ঵ ' আখরটো ব্য়঵হার করিছে আরু পুরণি পুথির বর্ণ-~
বিন্য়াস-নাতির অ঵শ্য়ে সমালোচনাও হৈছিল আরু হেমচন্দ্র বর঵াই তার
বিরোধিতা করিছিল । 1861 চনর পরা অরুনোদইত হেমচন্দ্র বরু঵ার
দ্঵ারা নির্দেশ দিযা বর্ণ-বিন্য়াস গ্রহণ করা হ'ল । হেমচন্দ্র বরু঵াই তেওঁর
` আত্মজী঵ন চরিত ' -ত লেখিছে এইদরে : `` য়েতিযা মিস্য়নেরিবিলাকর
গুরিলৈ নিতৌ য়াবলৈ ধরিলো , তেতিযার পরা অরুনোদইর সৈতে মোর
সম্বন্ধ আরু দৃঢ় হল । তাতে মই তার বর্ণবিন্য়াস সংশোধনর নিমিত্তে
য়ত্ন করিবলৈ ধরিলোঁ । মোর এই চেষ্টাত নিধিরাম ফেযারো঵েল নামর
এটা দেশী খৃষ্টীযান লোকর পরা বর বাধা পাইছিলোঁ । সি তার গুরু ব্রাউন
চাহাবর বর্ণবিন্য়াস প্রণালীর পরা এক আঙ্গুলো লরচর হো঵াক মহাপাপ
য়েন ভাবিছিল । পরিশেষত মোর য়ত্ন সফল হল হয , তথাপি ` ঵ '
ব্য়঵হার চলো঵াত অসম্ভ঵ য়েন বোধ হল । পিছত পাদ্রী ডক্টর কম্পর্ট
চাহাবর সহাযতার দ্঵ারা এই বিষযর সকলো আপত্তি খণ্ডন হ'ল । আরু
` ঵ '-র ব্য়঵হার চলিল ।</p>

<p>মিশ্য়নেরীসকলে অসমীযা ভাষাটোক উচ্চারণ অনুয়াযী লেখিবলৈ য়ত্ন
করার ফল স্঵রূপে মান্য়-অসমীযা ভাষার ধ্঵নিগত বৈশিষ্ট্য়র ছবি
এখন অরুনোদইর বুকুত অঙ্কিত হৈ থাকিল । মিশ্য়েরীসকলর কিন্তু
নিজর উদ্দেশ্য় সফল হ'ব নো঵ারিলে । 1861 চনর আগলৈকে ওলো঵া
সংখ্য়াবোর চালেই ইযার সত্য়তার প্রমাণ পো঵া য়ায । 1846 পরা 1861
চনলৈ ওলো঵া অরুনোদইর সংখ্য়াবোরত ব্য়঵হার হো঵া অসমীযা
আখরূবোরলৈ লক্ষ্য় করিলে অসমীযা বর্ণমালাত থকা অথচ উচ্চারণত
নথকা বহুতো আখর এই সমযত ব্য়঵হার হো঵া দেখা য়ায । স্঵রবর্ণর
ভিতরত ঈ , ঊ , ঋ এইকেইটার ব্য়঵হার পো঵া নায়ায । ব্য়ঞ্জনবর্ণর
পাছত লগ লগা ঈ হ'লে পো঵া য়ায ; য়েনে - শ্রীজুত । ব্য়ঞ্জনবর্ণর
` ঙ '-র ঠাইত ` ঙ্গ ' পো঵া য়ায । ছ , ঝ , য় এই তিনিটা আখরর
ব্য়঵হার পো঵া নায়ায । বাকী আখরবোরর ব্য়঵হার আছে ; য়েনে , অ ,
আ , ই , উ , এ , ও ; ক , খ , গ , ঘ , চ , জ , ঞ , ট , ঠ ,
ড, ঢ , ণ , ত , দ , ধ , ন ; প , ফ , ব , ভ , ম , র , ল ,
঵ , য ; শ , ষ , স , হ , ং । উদাহরণ : অনেক , আরু , ইচা ,
উতম , এই , ওখ ; কথা , লিখি , গচ , ঘনে , বচর , জদি ,
চিরাগঞ্জ ; টকা , উঠা , ডের , ঢাকি , প্রাণনাথ , তারিখ , পথার ,
দিন , ধন , নাই পর , ফরিঙ্গ , বেলি , ভাটি , মেঘ , রজা , কাল ,
সি঵সাগর , এতিযা ; শব্দ , স্রেষ্ট , আকাস , মানুহ , খং ইত্য়াদি ।
1861 চনর পরা ওলো঵া ` অরুণোয '-ত ৃ , ছ , য় , ঝ , ক্ষ ,
আদির ব্য়঵হার হৈছে ; য়েনে , পৃয , ছাতর , মাঝত , য়েযো সংক্ষেপ ।
আখরবোরর ব্য়঵হার থাকিলেও য়ি ঠাইত য়িটো আখর ব্য়঵হার রিব
লাগিছিল সেইমতে লেখা নোহো঵াটো঵েঅ ` অরুনোদই '-র বর্ণ-বিন্য়াসর
বৈশিষ্ট্য় । সেযেহে অরুনোদইত আমি শব্দ কিছুমান এনেদরে পাওঁ :
জানোআরি , নোআরোঁ , পোআকৈ , বরুআ , অতিসই , সি঵সাগর ,
দ্রিঢ় , অ঵স্য়েই , আচিলে , করিচোঁ , জতন , সুভলৈ , হই , সেসে ,
দেস , চাত্র , যিচুখ্রিষ্ট , ময , স্঵ভাও , ছাহ ( চাহ ) ইত্য়াদি ।</p>

<p>রূপরচনার ক্ষেত্রত অসমীযা ভাষার বিশেষত্঵ কিছুমান চকুত নপরাকৈ
নাথাকে । তলত সেইবোরর কিছুমান উল্লেখ করা হ'ল :</p>

<p>ক. পূর্ণ ভূতকালর ক্রিযা বিভক্তি ইচিলে : কাকতি ফরিঙ্গবোর
উজাই গৈচিলে ।</p>

<p>খ. ভূত কালর ক্রিযা-বিভক্তি - ( ই ) লে : আগর কালত কিমান
সুখ আচিলে , এতিযা আরু এতিযা --- কিমান সুখ হৈচে ।</p>

<p>গ. ` নিজ ' 	সর্বনামর ঠাইত ` আপুনি ' ব্য়঵হার : মানুহে আপুনি
আপুনি জানিব পারে । তাক ময আপুনিএ স্঵ীকার করিছোঁ ।</p>

<p>ঘ. (1 ) নির্দিষ্টতা঵াচক প্রত্য়য -টে/-ট : মানুহটে কলে । গরুটেরে
ওরে দিনটো করাব পারি । গরুটর দুখ দেখি । ইটে সিটর মুখলৈ
চাই বুলিলে ।</p>

<p>( 2 ) নির্দিষ্টতা঵াচক প্রত্য়য : -খনর ঠাইত -টা : এটা কিতাপত
লিখিচে ।</p>

<p>( 3 ) নির্দিষ্ট঵াচক প্রত্য়য জনীর ঠাইত টো : মাইকিটো আনিবলৈ
আগ্য়া করোক ।</p>

<p>ঙ. দ্঵িতীয বিভক্তির ঠাইত সপ্তমীর ব্য়঵হার : রজাত কলে ।
আইত সোধক । মোত কো঵াছোঁন ।</p>

<p>চ. সর্বনাম কিছুমানর সুকীযা রূপ : আমার সকলর ।</p>

<p>ছ. অর্মক ক্রিযার সংয়োগতো প্রথমা বিভক্তির প্রযোগ : চাহাবে
ভটিযাই গৈচে । কমলায অকলেই স্কুললৈ য়ায ।</p>

<p>জ. তৃতীয পুরুষর ক্রিযা-বিভক্তির ঠাইত দ্঵িতীয পুরুষর
ক্রিযা-বিভক্তির ব্য়঵হার : আপুনিও একবার য়াবা ।</p>

<p>ঝ. সুকীযা নাম-ধাতুর সৃষ্টি : প্রকাশিব নোআরি ।</p>

<p>ঞ. সুকীযা ক্রিযা-রূপর ব্য়঵হার : মানুহ সেই দেশত
নাইকিছিল ( নাছিল ) ।</p>

<p>ট. বহুবচনর প্রত্য়যর বিশেষ্ট প্রযোগ : লরাসকল , পত্রসকল ,
পুথিসকল , গুণসকল ইত্য়াদি ।</p>

<p>ঠ. বর্তমান , ভূত , পূর্ণবর্তমান , পূর্ণভূত কালর ক্রিযা রূপত
অনুনাসিকতা : নোআরোঁ , পালোঁ , করিছোঁ , থৈচিলোঁ ।</p>

<p>ড. আ঵েশ্য়কতা নোহো঵াতো ক্রিযা রূপর ব্য়঵হার : তার দর
জাইফলতকৈ অধিক হই ।</p>

<p>ঢ. অনির্দিষ্টতাবাচক প্রত্য়য চারেক : ভকতজনচারেক ,
ইটাডোখরচারেক ।</p>

<p>ণ. তুমুনন্ত রূপ : য়াবর কারণে ( য়াবলৈ ) , ধরিবর নিমিতে
( ধরিবলৈ ) ।</p>

<p>ত. ` ঈযা ' প্রত্য়যর ঠাইত ` আ ' প্রত্য়য : সাগরর পানী লোনা ।</p>

<p>থ. ` অন ' প্রত্য়যর ঠাইত ` অনি ' প্রত্য়যর ব্য়঵হার : কান্দনি
( কান্দোন ) ।</p>

<p>দ. ` ত '-র ঠাইত ` এ ' শব্দ-বিভক্তির প্রযোগ : ময এটী বিশেষ
প্রযোজনে আহিছোঁ ।</p>

<p>ধ. আকারন্ত শব্দর সম্বোধনত একারান্তর রূপ : সরলাক সম্বোধন করি
ক'লে , সরলে ।</p>

<p>ন. স্ত্রী঵াচক - ঈ , নী , অনী , প্রত্য়যর দ্঵ারা শব্দ কিছুমানর সৃষ্টি :
অধিনী , চুবুরিযানী , প্রচারকনী , গাযননী ।</p>

<p>প. ঈযা প্রত্য়যর সহাযত নতুন শব্দর সৃষ্টি : হরিণীযা নযন ।</p>

<p>ফ. ` অন ' প্রত্য়যর দ্঵ারা নতুন শব্দর সৃষ্টি : পোহন , পালন ।</p>

<p>শব্দমালার ক্ষেত্রত মন করিলে দেখা য়ায য়ে তত্সম , অর্ধতত্সম ,
তদ্ভ঵ , হিন্দী , আরবী , পার্ছী , পর্টুগীজ , ইংরাজী বিবিধ
ধরণর শব্দই অরুনোদইর য়ুগর ভাষাত ঠাই পাইছে । কোনো
কোনো সমযত আন ভাষার পরা শব্দ ধার নকরি নতুন
অসমীযা শব্দ কিছুমানর সৃষ্টি করা হৈছে ; য়েনে - শিলপানী
( বরফ ) , লতা-পনিযল ( আঙুর ) , পেরঙ্গনি ( ক্রছ ) ,
প্রদিপ দল ( লাইট হাউচ ) , মহাগর ( চীনর প্রাচীর ) ,
ভাপর নাও ( ষ্টিম বোট ) , ভাপর রথ ( রেল গাড়ী )
ইত্য়াদি । নামনি অসমত বিশেষকৈ কামরূপী উপভাষার
শব্দও কিছুমান আছে । সেইবোরর উপস্থিতিযে প্রাচীন
কামরূপী উপভাষাটোর কথাকে সোঁ঵রাই দিযে । এনে শব্দ
কিছুমান এনে ধরণর : বাত্রা . চলি , কাউর , ডিমা
( রাস্তা ) , হাঁঠ , বরা ( গাহরি ) , কির্পিন , পহর
( পোহর ) , বেইতা , রাগ ( খং ) খেজেলিযা , ভিজ ,
সিন্দুর , আতা ইত্য়াদি । ইংরাজী অছিচ , আফিল ,
কলেজ , কাপ্তান , গভর্ণমেণ্ট , প্রাইজ আদি শব্দ
ব্য়঵হার করা হয । পর্টুগীজ পাদুরি শব্দর ব্য়঵হারো
আছে । বেজ-ঘর , ( ডাক্তরখানা ) , দিন-পতি
( বেলি ) , গতাযাত ( য়াতাযত ) আদি শব্দর প্রযোগ
মন করিবলগীযা । অর্দ্ধতত্সম শব্দ কিছুমান এনেকু঵া :
গিযান , সবদ , মুকুত , করম , য়তন , তিযাগ ,
উতপতি , অনিযাই । তদ্ভ঵ শব্দ কিছুমান এনেধরণর :
অখই ( অক্ষয ) , উতম ( উত্তম ) , ইচা ( ইচ্ছা ) ,
পচিম , নিচই ( নিশ্চয ) , রিদয ( হৃদয ) । তত্সম
শব্দর য়থেষ্ট ব্য়঵হার আছে ; য়েনে ইশ্঵র , জগত , অনুগ্রহ ,
সুখ , শব্দ , মগ্ন , কর্তা , পরম , আত্মা , সভা , সুন্দর ,
গন্ধ , মধুর , মনোহর , সন্তুষ্ট , ব্রহ্মা , বিষ্ণু , গোবিন্দ ,
ইত্য়াদি । হিন্দী , আরবী , পারছী ভাষার শব্দর সংখ্য়াও
কম নহয । তলত সেইবোরর কেইটামান উদাহরণ দিযা
হ'ল : আন্দাজ ( ফা. অন্দাজ ) , করম ( ফা. করম ) ,
কাচারি ( হি. কচহরি ) , কিনার ( ফা. কিনারা ) ,
কেরাযা ( আ. কিরাযা ) , খোরাকি ( ফা. খুরাকী ) ,
চহর ( ফা. শহর ) , চন্দুক ( আ. সন্দুক ) , চাক
( ফা. চাকর ) , চিপাহী ( ফা. সিপাহী ) , জাহাজ
( আ. জহাজ ) , চোঙা ( আ. শুব্হা ) , তারিখ
( ত঵ারীখ ) , তামচা ( আ. তমাশা ) , দেলান
( ফা. দালান ) , নরম ( ফা. নর্ম ) , নক্চা ( নক্শা ) ,
নবাব ( আ. নব্বাব , হিন্দী ন঵াব ) , বন্দুক ( আ. বন্দূক ) ,
বাগিচা ( হি. বগীচা ) , মনজুর ( আ. মনজূর ) ,
মোকাম ( আ. মুকাম ) , রাস্তা ( ফা. রাস্তা ) ,
সাহাব ( আ. সাহিব , হি. সাহব ) , সস্তা ( হিন্দী ) ,
হাজার ( ফা. হজার ) . হিচাপ ( আ. হিসাব ) , হে঵া
( আ. হে঵া ) ।</p>

<p>কিছুমান শব্দ বর্তমানর অর্থকৈ এক বিশেষ অর্থতহে
ব্য়঵হার করা দেখা য়ায ; সোধপোচ ( অনুসন্ধান ) ,
অলপ বেলি ( সময ) , দেখিব ( চাব ) , প্রকাস
রুপে ( ভালদরে ) , চিকন ( ভাল ) , প্রস্তা঵ ( প্রবন্ধ ) ,
য়ুগুত ( সাজু ) , দেখোঁ ( চাওঁ ) , পাঠ কর ( পঢ়্ ) ,
আগত ( অহা ) , অনেক বেলি ( বহুবার ) , বেগাই
বেগাই ( সোনকালে ) , অ঵শ্য়ে অ঵শ্য়ে ( য়েনেতেনে ) ,
আলোচনা ( চর্চা ) , অসুখ ( অসু঵িধা ) । এই ঠাই
বুজাবলৈ একে শব্দ ব্য়঵হার পো঵া গৈছে ; য়েনে ,
মোর এখের ( ইযার ) দে঵াই নি খুআবাগৈ ; এই হেতু
এখেলৈ ( ইযালৈ ) আহিচোঁ । একেলগে দুট অব্য়য
ব্য়঵হার করা</p>

<p>নতুন কথা । কিন্তু জদি সভ্য় আরু সুখী হব খোজা ;
কিম্বা জদি উপজিব পরা ন হই ।</p>

<p>মিশ্য়নেরীসকল ইংরাজী-ভাষী আছিল । অরুনোদইর
প্রধান লিখকসকলে ইংরাজীত শিক্ষা লাভ করিছিল ।
ইপিনে বঙ্গলা ভাষার ব্য়঵হারো চলিছিল । হেমচন্দ্র
বরু঵াই লিখিছে ; অসমক বঙ্গলা ভাষার বর আদর
আছিল । মাতৃভাষাক সকলো঵ে ঘিণাইছিল - ইস্কুলত
বঙ্গালী , কাছারিত বঙ্গালী , ডেকাবিলাকর আলাপত
বঙ্গালী আনকি তেওঁলোকর চিঠিটো বঙ্গালী ভাষাহে
চলিছিল । অ঵শ্য়ে মইযো এই নিযমর বাহির নাছিলোঁ ।
এনে এটা পরি঵েশত অরুনোদইর লেখকসকলক রচনাত
স্঵াভা঵িক অসমীযা বাক্য়-রীতির সলনি এটা ইংরাজী
কৃত্রিম বাক্য়-রীতি প্রচলন হ'ল । তলত এনে ধরণর
বাক্য়কেইটামানর উল্লেখ করা হ'ল ।</p>

<p>ক. জদি দেখিব খোজা তেন্তে মোর পুথি পঢ়ি চোআ ।</p>

<p>খ. মই জাব নোআরোঁ , কিযনো মোর লাঙ্গলত মোর
হাত দিযা হল ।</p>

<p>গ. মই জদি তোমাক কিচু বুধি দিওঁ , তাক তুমি লবা নে ?
জদি ভাল হই লম ।</p>

<p>ঘ. জদি সকলে এক বাক্য় হৈ দেসর উপকারলৈ প্রতিগ্য়া করে ,
তেন্তে কি হব নোআরে ?</p>

<p>ঙ. জি জন পরাক্রমি জযয়ুক্ত মানুহে প্রথমে ভারতবর্সত আপোনার
রাজ্য় থাপন করিলে , তে঵েঁই গজনির বাদস্য়া মহমদ ।</p>

<p>চ. জি লোক তোমাতকৈ কোনো কথাত শ্রেষ্ঠ , তে঵েঁই তোমার মান্য় ।</p>

<p>ছ. জেতিযা তুমি কোনো পার্গত মানুহক দেখা , তেতিযা তুমি তেওঁনো
কেনেকৈ কাল ব্য়য করিছে , তাকে সুধিবা , পাচে তুমি অ঵স্য়ে জানিবা
জে তেওঁর জী঵ন প্রায স্রমতে গৈচে ।</p>

<p>জ. তাতে তাই বেগাই বেগাই বেছকৈ লেখা-পঢ়া শিকিচিলে ।</p>

<p>ঝ. এইরূপে কিচুমান দিন আরু মাহো নিউ঵া হ'ল ।</p>

<p>ঞ. তুমি জে মোলৈ পত্র লিখিবা , আরু মই সেই পত্র পাঠ করিম ,
এই আশার অতীত বোধ হৈচিল ।</p>

<p>কৃত্রিমতার মাজতো মাজে মাজে চুটি চুটি স্পষ্টভা঵ে ভাব
প্রকাশ করা অসমীযা বাক্য়রীতির ব্য়঵হার অরুনোদই য়ুগর
কিছুমান লেখকর রচনাত ব্য়ক্ত হ'ল আরু সিযে অসমীযা ভাষার
নতুন ভবিষ্য়তর বাতরি জনালে । তলত তেনেধরণর বাক্য়য়ুক্ত
উদ্ধৃতি কেতবোর দিযা হ'ল :</p>

<p>ক. ঈশ্঵রে কি আজ্ঞা দিছিল তাক কেনেকৈ জানিম ? কাক দিছিল ,
কেতিযানো দিছিল তাক দেখোঁ কেতিযাও শুনা নাই । তেওঁ দেখো
নিরাকার । তেওঁর শরীর নীই । কোনেও কেতিযাও তেওঁক দেখা
নাই । আমি ফুল দি বা সিঁন্দুর দি বা নৈবদ্য় দি তেওঁক পূজা
নকরোঁ । আমি প্রেম , ভক্তিরে আরু বিশ্঵াসর দ্঵ারাই তেওঁক
পূজা করোঁ । ( এ.কে গার্নি : কামিনীকান্তর চরিত্র ) ।</p>

<p>খ. দিলি জিলা দিঘলে 165 আরু বহলে 140 ক্রোচ ।
তার মাজত গঙ্গা আরু জমুনা এই দুই প্রধান নদি ।
দুই হাজার এস বছরর আগেযে দিলু নামেরে এক রজাই
সেই নগপ পাতিচিলে বুলি লোকবিলাকে কোআকুই করে ।
( নিধি লিবাই ফারো঵েল : সিন্দুস্থানর বুরঞ্জি ) ।</p>

<p>গ. এই দেসর মানুহবোর বর বগা । এক দেসর বা অতি কলা ,
এক দেসর বা তাম বরনিযা । কোন দেসক রজাই কোনো দেসক
প্রজাই সাসন করে । কোনো দেসত বর জার কোনো কোনো দেস
বর গরমি আরু এঠাইত বা ইস্঵রক একেদরে পূজা করে । এঠাইত
বা আনদরে পূজা করে । ( আনন্দরাম ঢেকীযাল ফুকন : নান সম্বাদ ) ।</p>

<p>ঘ. লোকর দুখ দেখি মন কোমল হো঵ার নাম দযা । এই দযা
মানুহর এটি কোমল আরু মধুর ভাব । সি মানুহক দে঵তার তুল্য়
করে আরু তার অভা঵ত মানুহ পিশাচর দরে হয । য়ার দযা নাই
তার মন শিল আরু কাঠর দরে টান , আরু য়ার হৃদয কাঠ ,
সি মানুহ নামর অয়োগ্য় ( হেমচন্দ্র বরু঵া : পাঠমালা ) ।</p>

<p>দেশী আরু বেদেশী বিভিন্ন লোকর প্রচেষ্টাত অরুনোদই য়ুগত
অসমীযা ভাষাটো঵ে পঢ়াশালি আরু আদালতর ভাষারুপে প্রতিষ্ঠা
লাভ করাত পৃথিবীর বিভিন্ন জ্ঞান-বিজ্ঞানর কথা প্রকাশ করিব
পরা শক্তিও অর্জন করে । অরুনোদগয য়ুগতেই বহুতো দেশী
আরু বিদেশী ভাষার শব্দ-গ্রহণ আরু আ঵েশ্য়ক অনুয়াযী
শব্দ-নির্মাণ-রীতির য়ি ব্য়঵স্থা লো঵া হ'ল , সিযে ভবিষ্য়তে
অসমীযা ভাষার সুপ্রতিষ্ঠার বাট মুলি করি তুলিলে ।
সংক্ষেপতে ক'বলৈ গ'লে অরুনোদই-য়ুগর অসমীযা ভাষাই
আধুনিক অসমীযা ভাষার সুদৃঢ় ভেটি স্থাপন করিলে ।
 +&gt;*                                                                                                                                           
</p></body></text></cesDoc>