<cesDoc id="asm-w-literature-novel-anl50" lang="asm">
<cesHeader type="text">
<fileDesc>
<titleStmt>
<h.title>asm-w-literature-novel-anl50.txt</h.title>
<respStmt>
<respType>Electronic file created by</respType>
<respName>Central Institute for Indian Languages, Mysore</respName>
<respType>transferred into Unicode and CES format by</respType>
<respName>"Unicodify" software by Andrew Hardie</respName>
</respStmt></titleStmt>
<publicationStmt>
<distributor>UCREL (on behalf of CIIL)</distributor>
<pubAddress>Department of Linguistics, Lancaster University, Lancaster, LA1 4YT, UK</pubAddress>
<availability region="WORLD"></availability>
<pubDate>03-07-21</pubDate>
</publicationStmt>
<sourceDesc>
<biblStruct>
<monogr>
<h.title>ঘরু঵া...</h.title>
<h.author>ভূপেন্দ্</h.author>
<imprint>
<pubPlace>India</pubPlace>
<publisher>Unknown - Book.</publisher>
<pubDate>1987</pubDate>
</imprint>
<idno type="CIIL code">anl50</idno>
</monogr></biblStruct></sourceDesc></fileDesc>
<encodingDesc>
<projectDesc>Text collected for the CIIL Corpus, subsequently integrated into the EMILLE/CIIL Monolingual Written Corpora.</projectDesc>
<samplingDesc>Simple written text only has been transcribed. Diagrams, pictures and tables have been omitted. Sampling begins at page 0665.</samplingDesc>
<editorialDecl><conformance level="1"></conformance></editorialDecl>
</encodingDesc>
<profileDesc>
<creation><date>03-07-21</date></creation>
<langUsage>Assamese</langUsage>
<wsdUsage>
<writingSystem id="ISO/IEC 10646">Universal Multiple-Octet Coded Character Set (UCS).</writingSystem>
</wsdUsage>
<textClass>
<channel mode="w">print</channel>
<constitution type="composite"></constitution>
<domain type="public"></domain>
<factuality type="fiction"></factuality>
</textClass>
<translations></translations>
</profileDesc>
<revisionDesc></revisionDesc>
</cesHeader>

<text><body>

<p>&lt;ঘরু঵া পরিবেশত নাচিরুদ্দিন শ্঵াহ ( ভূপেন্দ্র নারাযণ বট্টাচার্য়্য় )
পিছর দেওবারে কবিতা আলোচনীখন উন্নোচন হ'ল । সক~
লো঵ে সেইখনর দীর্ঘাযু কামনা করি ইকবাল আরু নিরূপমার
কামক শলাগি চাহপানী খাই নিজর ঘরলৈ গুচি গ'ল ।
ইকবালে কিন্তু মনে মনে তেনে চল্তি শলাগনির প্রতি সাম্য়ন্য়-
ভা঵েও কাণসার নিদিলে , বরঞ্চ অনুষ্ঠান শেষ হো঵ার পিছত মনটো
একেবারে সেমেকি গ'ল । ...কিমান মানুহ আহিছিল ! প্রতিজনে
য়দি অন্ত:ত একপিও কিনিলেহেঁতেন ! মাত্র দুকপিহে বিক্রী হ'ল ।
কথাষার ভাবি আব্বাজানর হতাশজনক মুখখনলৈ মনত পরিল ।
মানুহজনে সম্পূর্ণ এমাহ ঘররপরা প্রেছলৈ খোজ কাঢ়ি কাঢ়ি
অহা য়ো঵া করিলে। দিনটো প্রেছত বহি বহি প্রুফ চালে ।
তার বিপরীতে এতিযা এই মানুহজনে বারু কি পাব ? সমাজত
কবিতার মুল্য়বোধ ঘুরাই আনিবলৈ গৈ য়ুঁজি য়ুঁজি কবিতার রণ~
ক্ষেত্রত পরিল । নিরূপমাই কথাটোত বর গুরুত্঵ নিদিলে । দুই
এজন মানুহর লগত চিনাকি হো঵ার পিছত সেই মূহূর্তত ইকবালর
চেতনার লগত এক হ'ব পরা নাছিল । লাহে লাহে তাইর স্঵প্ন-
ভংগ হ'ল । দেউতাকে অয়থা পইচাবোর খরচ করা বাবে তাইক
ভত্র্সনা করি ক'লে - `` দুনাই আরু মোক আলোচনী ছপাই দিযার
কথা নকবি । আজিলৈকে ছপা খরচটোকে মোক আনি দিব
নো঵ারিলি । চাগৈ , কপিবোর দোকানত দম হৈ পরি আছে । -
দেশত এতিযা কালজযী সৃষ্টির প্রতিয়োগিতা নচলে , চলিছে কোনে
কেনেকৈ য়ি কোনো উপাযে নহওক , লুটিব পারে । রাইজক
কবিতামুখী করে ! ইফালে রাইজর শতকরা নিরান্নব্বৈ ভাগ আছে
অন্য় ধান্দাত - ""</p>

<p>দেউতাকর এনে ভর্ত্সনা তাই সহ্য় করিব নো঵ারি কথাটো
এদিন ইকবালক কলে । সিও নিরূপমাকে দোষী সাব্য়স্ত করি
মুষ্টি জোকারি ক'লে - ` এতিযা পিছে কাক দোষ দিবা ?
মইতো আগেযেই কৈছিলো - মাত্র ষোল্ল পৃষ্ঠা ছপো঵া । মোর
কথা নুশুনি ছপালা চৌষষ্টি পৃষ্ঠা । ভাবি চো঵া -'</p>

<p>- ভাবিযেই বা লাভ কি ? অনভিজ্ঞ-নিরূপমাই ইকরালর
বাহুত ধরি সুধিলে ।
- তথাপি মোর নিজকে তোমার ওচরত অপরাধী য়েন লাগে-
নিরূপমার চুলিবোরত হাতফুরাই ক'লে । মোর কারণেহে তোমা-
লোকর এনে দুর্গতি হ'ল । ভাবিছিলোঁ , দেউতাক কেনেবাকৈ ব্য়স্ত
রাখো । পিছে ন'হল -</p>

<p>দুযো নৈর পারর পকীঘাটত বহি দলঙর ওপরেদি সুর্য়াস্ত
চাই আছিল ।</p>

<p>বহুদেরির পিছত তাই তাক ক'লে - আপুনি আপোনার
মনেরে ভবা কথাটো মোক ক'লে । মইও মোর মতেরে ভুলে-
শুদ্ধই কিবা-কিবি করিলোঁ । গতিকে আজিরপরা আমার ভিতরর
কোনো঵ে য়াতে এই বিষযর অ঵তারণা নকরে -
-বারু সেযে হ'ব - সি ক'লে ।</p>

<p>এদিন রাতিপু঵া শ্঵াহে দহ কপি আলোচনী কাষলতির তলত
সুমাই বজার অঞ্চলর কেইজনমান প্রিয মানুহর তালৈ ওলাই
গ'ল । এটা গলিরে গৈ গৈ প্রথমে সোমাল ল'রালিকালর প্রিয
বন্ধু গোলাম মোর্তাদা আহমদর ঘরত । চ'রাঘরত বহি বহি য়েতিযা
হাঁহি হাঁহি আলোচনী ছপো঵ার আঁরর কথাবোর তেওঁর আগত
কবলৈ ধরিলে , তেওঁ অনুভ঵ করিলে য়েন বন্ধু঵ে কথাবোর মুঠেও
হৃদযংগম করিব খোজা নাই । সোনকালে য়েন চ'রাঘররপরা উঠি
গলেই ভাল পায । কাষলতির তলরপরা পরম উত্সাহেরে একপি
কিনি লবলৈ আগবঢ়াই দিলে । কপিটো নললেই , বরঞ্চ এনেকৈ
চিত্কার করি উঠিল য়েন জোর করি এবটল বিষহে তেওঁ তেওঁর
মুখত ঢালি দিবলৈ ওলাইছে ।</p>

<p>... নাই , নাই - এইবোর আমার ঘরত কোনো঵ে নপঢ়ে ।
নাতি-নাতিনীহঁতে এইবোর পঢ়া দুরৈত থাকক , মাতৃভাষার আখর
কেইটাকে চিনি নাপায । সিহঁতর কারণে এইবোর কিবা ভুচং
পহুহে হব । সিহঁতক মই মতৃভাষা লবই নিদিলো । ক'রবাত
ফেল-চেল করি মরিব , দিযে কেনেকৈ ?
নিরাশ হৈ নীর঵ে তারপরা ওলাই আহিল । আহোতে
দেখিলে পদুলিত বরু঵াই নাইট গাউনটো পিন্ধি নাতিনীযেকহঁতর
লগত খেলি আছিল । বরু঵াই শ্঵াহর হাতত আলোচনী দেখিযেই
বুজিলে য়ে সেযাই একপি বিক্রী করিবলৈহে তেওঁর তাত সোমাইছে ।
- ভালনে ?
- আছো একপ্রকার -
- এইযা চাগৈ আপোনার নাতি -
হয ! ইহঁতে কিছুদিন পিছতেই ইংরাজীত সলসলীযাকৈ
কথা কব পারিব । আমি নাথাকিলে , সেই পোহনীযা কুকুরটোর
লগতেই ধাম-ধুম ইংরাজী কৈ থাকে । আমি সরুতে পঢ়া সেই
মাতৃভাষার পযালগা শব্দবোর -চিনিযে নাপায ।</p>

<p>শ্঵াহে বরু঵ার কথারপরা তেওঁর আলোচনীখন আগবঢ়াই
দিলে , কি উত্তর আহিব অতি সহজেই বুজি পালে । তথাপি
নিজর মনক বুজনি দিবলৈ একপি আগু঵াই দি কলে - ` একপি
কবিতা আলোচনী লৈ আমাক সহায করিবনে ?</p>

<p>` এই ভাল কথা কৈছে দিযক , বুকুত কুঠার মারিলেও মোর
কবিতা নোলায । '
- আপোনার নোলায বেলেগ কথা , য়িসকলর ওলায সিহঁতর
খিনিকে এবার পঢ়কচোন - রগর করি শ্঵াহে ক'লে ।
- বুজিছে , এইবোর সময নষ্ট -</p>

<p>বরু঵ার মনোভাব পরিষ্কারকৈ বুজি উঠিল । সহজভা঵েই
তারপরা ওলাই আহি ব্য়স্ত জনপথত ভরি দি এতিযা কলৈ য়াব
ভাবিলে । কলৈকো য়াবলৈ তেওঁর ঠাই নাই । ক'রবাত গৈ য়ে
অকণমান বহি কারোবার লগত আন্তরিকতারে কথা পাতিব , তেনে~
কু঵া বন্ধু-বান্ধ঵ো তেওঁর নাই । রাস্তারে কিমান চিনাকি মানুহ
য়াবলৈ ধরিছে তথাপি কোনো঵ে একপি কিনিবলৈ রাজী নহয ।
শ শ মানুহ ব্য়স্তভা঵ে মটরবাইক , স্কুটার , ফিযেট , মারুতি , কণ্টেছারে
য়াব ধরিছে , অথচ তেওঁলোকর কারো঵েই একপি আলোচনী
কিনিবর পইচা নাই । তেওঁলোকরেই য়দি পইচা নাই , তেনেহলে
আছে কার ? ... আরু ইমান ব্য়স্তভা঵ে নো মানুহবোর ক'লৈ য়ায ?
ক'ত কি কাম আছে মানুহবোরর ? কে঵ল গৈছে , গৈছে আরু
গৈছে । তেওঁরহে কোনো কাম নাথাকে । ক'লৈকো য়াবলৈকো
নাই আরু কোনোফালরপরা আহিবলৈকো নাই ।</p>

<p>পাচলি বজারর মাজর রাস্তাটোরে আহিলে তেওঁর ঘরলৈ
য়ো঵া বাট চমু হয । সোনকালে ঘর পাবলৈ ইচ্ছা করি সেইফালে
আহোঁতে ফলর বজারর সুমথিরা টেঙার গোন্ধ পাই এবার
সেইফালেও চালে । শীতল অস্তগামী সূর্য়র রঙর দরে তার রং ।
র'দত থিয হৈ বাকলি গুচাই গুচাই এটা খাব পরা হলে । ওচরত
রৈ রৈ মানুহবোরে পোন হিচাবত সুমথিরা কিনিছে । তেওঁনো
এটাও কিনি খাব নো঵ারেনে ? //
ভদ্র মহিলাই শ্঵াহক তচলিম করি কলে - তেওঁ হেকিমর
নাবালিকা পত্নী লুত্ফা বেগম । শ্঵াহে মহিলাক দো঵া করিলে ।
তার পিছত তেওঁক বৈঠকখানাত বহিবলৈ দি অনুমতি লৈ
ভিতরলৈ গৈ ন঵াগত অতিথির কথা সকলোকে অ঵গত করিলে ।</p>

<p>- শুনক , মই ইযালৈ নাহিলেও সকলো কথারেই খবর পাওঁ ।
সেই হাতী সোমাব পরা প্রথম নলাটো নক্সাত সেইফালে
নাছিল । আমার তেওঁ ইকবালর ওপরত প্রতিশোধ লবলৈকে
সেইবোর করিছে । তথাপি সেইবোর সমস্য়ার সমাধান হওঁতে
বেছি সময নালাগে । মই বারু আজিযেই আউটলেটবোর আরু
নলাটো মিস্ত্রীক ভাঙিবলৈ কৈ য়াম । সেইবোর এনেকৈ দিযাম
য়াতে কোনো মানুহরেই অসুবিধা নহয ।</p>

<p>- এনেকৈতো এদিন পুলিচ-থানাত আরু এটা ঘটনা ঘটি
গৈছে । করি দিম বুলিও নকরিলে । সেই বেরখনকেই চাওকচোন ।
ফাঁটটো ক্রামাত্ বহলি গৈছে । এই ফাঁটটোকেই এদিন মেরা~
মতি করাই দিম বুলি কো঵াত আমি এজাহার উঠাই লৈছিলো ।
কিন্তু প্রায কেইবামাহো হৈ গ'ল । তথাপি একো নকরিলে
এতিযা আপোনার কথানো আমি কেনেকৈ বিশ্঵াস করো ?
শ্঵াহে বিনম্রে কলে ।</p>

<p>- সেইখিনি দুজন মিস্ত্রির দুদিনর কাম । লগত দুজন য়োগালি
হলেই হৈ য়াব । আচল কথা মন , মনটো ফরকাল হৈ থাকিলে
কামটো করিবলৈ বেছি সময নালাগিব । আমার তেওঁর হযতো
আপোনালোকর ওপরত কিবা এটা আক্রোশ আছে । - বেগম
লুত্ফাই কলে ।</p>

<p>- কিন্তু সেই বুলিযেইতো তেওঁর ইচ্ছামতে আমার ঘরটো
ভাঙি গৈ থাকিবলৈ দিব নো঵ারোঁ বা তেওঁর ইচ্ছামতে আমার
ঘরটো নর্দমা হৈ দিব নো঵ারো । শ্রীমতী শ্঵াহেও কথাষার
কও নকওকৈ কৈযেই দিলে ।</p>

<p>- চাওঁক , আমি আপোনালোকর দুর সম্পর্কীয হযনে নহয ?
- নহয বুলি আমি জানো কৈছো-
- তেনেহলে এইবোর কিয ? সদায মোর মূরব্বী঵ালাক
য়দি আপোনার ল'রাই মানহানিকর কথা লিখি অপদস্ত করি
থাকে তেনেহলে বারু কোনে মিতিরালি পাতিবলৈ আহিব ?
সকলো কথারে এটা সহ্য়র সীমা আছে । আপুনি নিশ্চয জানে য়ে
ফিরিঙতিযেই খাণ্ড঵ দাহ করে । এনেকৈ দুযোজনে য়ুঁজি কাজিযা -
পেচাল করাতকৈ আমি সকলো঵ে বন্ধুভা঵ে থাকিব নো঵ারোনে ?
- আক্ষেপর সুরেরে লুত্ফা বেগমে কলে ।</p>

<p>কিছুসময সকলো নির঵ে থাকিল । ইজনে সিজনর মুখলৈ
চো঵া-চুই করিলে ।</p>

<p>- এইজনী কিন্তু বেছ সাদরী ছো঵ালী য়েন লাগিছে । বর
ধুনীযাও । মই ভাবিছো এওঁক আমার আমিনুললৈকে নিব
লাগিব । ক'রবাত কিবা চলিছে নেকি ?</p>

<p>- নাই , আমি লাহে লাহে বর গরী঵ হবলৈ আরম্ভ
করিছো । নিচলার বারু কোন মরিবলৈ আহিব - শ্রীমতী
শ্঵াহে কলে ।</p>

<p>শ্঵াহে নীর঵ে তেওঁলৈ চালে । কথাষারে তেওঁর হতাসাক
আরু বেছি গভীর করি তুলিলে ।</p>

<p>- মই বুজি পাওঁ , অ঵সরর পিছত বেছিভাগ মানুহর ঘরতেই
নানান সমস্য়াই গা করি উঠে । কিন্তু দেখা যায , অলপ দিনর
পিছতেই আগর দরেই পরিযালটো ঠন্ ধরি উঠে । - ধরি লওক ,
মই য়দি আপোনার সরু ল'রাদজনর বাবে এই মোটলর এচিষ্টেণ্ট
মেনেজারর চাকরি এটা দিওঁ ? বহু দরমহা । আপোনার ডাঙর
ল'রাই য়িমান দরমহা পায তাতকৈ তিনিগুণ বেছি পাব ।
তদুপরি বোনাছ । ফ্রি কো঵ার্টার । দহ নম্বর মহলাত থাকিব
পারিব । তেতিযা আপোনালোকর এই ঘরটো এরি দি অনাযাসে
ভাড়া দিব পারিব । কোনোবা কোম্পানীর অফিচক ভাড়া দিব পারে ।
চেণ্ট্রেল প্লেছ - বহুতো ভাড়া পাব । ভাড়ার পইচাখিনি ফিক্সড্
ডিপোজিত করি থব । সেই টকা উলিযাই এই পুরণি ঘরটো
ভাঙি নতুনকৈ তাক এটা বিল্ডিং সাজিব পারিব । প্রযোজন
হলে আমিও সহায করিম । - এইবোর কথালৈ আহক । মিছাকৈ
কাজিযা করি মনক কষ্ট দি লাভেই বা কি ?</p>

<p>রুকেযা উঠি গ'ল ।
- অ' সকলোরে লগত চিনাকি হ'লো , আপোনার ডাঙর
ল'রা নাই নেকি ?
- নাই , সি কোনোবা ফালে ওলাই গৈছে - শ্঵াহে মিছা
মাতি কলে । মই বারু বুজাম তাক । বুজালে নিশ্চয বুজিব ।</p>

<p>হঠাত্ লুট্ফা বেগমে তেওঁলোকর ঘরত ভরি দিযা ঘটনাত
ভিতরর কেউটি প্রাণীযেই স্তব্ধ হৈ পরিল । দেওবারর বাবে
ইকবালো নিজর কোঠাত বহি কিবা-কিবি লিখি আছিল । শ্রীমতী
শ্঵াহে লেতেরা সাজ এরি বাকছরপরা পুরণি পাটর চাদর-মেখেলা
উলিযাই পিন্ধি আহিল ।</p>

<p>বেগম লুত্ফাই অর্ডালিজনক মিঠাইর টোপোলা আরু সুম~
থিরার পাচিটো ঘরর ভিতরত থৈ আহিবলৈ ক'লে । সি তার
গরাকিনীর কথামতে তাকেই করি পুনর বৈঠক খানালৈ উভতি
আহোঁতে হাতেরে এনে এটা ইংগিত দিলে য়ার ফলত সি গৈ
বাট চ'রাত বহি থাকিল ।</p>

<p>`` লুত্ফা বেগমর কথা-বতরা কো঵ার ইষ্টাইল একদম দোচরা ।
একেবারে ওলাদী । চেহেরাতো একদম বাদাচাহর বিবী । এওক
দেখি এনেকু঵া লাগে হেকিম চাহাবর কথার আদর-কযদা কিজানি
একরকম বাদচাহেই '' - পাক ঘরত চাহ বনাই থাকি শ্রীমতী
স্঵াহে জীযেকক ক'লে ।</p>

<p>- নহযনো কি ? য়িটো কুকুর ঘরত পুহিছে সেইটোক
আমি খু঵াব লাগিলে আমি ঘর মাটি বিক্রী করিব
লাগিব - ইমরানে ক'লে ।</p>

<p>- সিহঁতর গোটেই পরিযালটো঵েই তেনেকু঵া , আমার
মিরজাফরক দেখা নাই ? শ্঵াহে ক'লে ।</p>

<p>মিঠাইর টোপোলাটো খুলি রুকেযাই একপ্রকার চক খাই
গ'ল । বজারত পো঵া সকলো প্রকারর মিঠাইযে কিজানি সেই
টোপোলাত আছে । তদুপরি আছে , হালো঵া , কাজূবাজদাম ,
কিচমিচ কোপ্তা , কিমান আদি ।</p>

<p>ইমরানেও পাঁচিটোর সাঁফরখন খুলি ইমানবোর সুমথিরা
একেলগে দেখি স্তম্ভিত হৈ মাকক মাতিলে । মাকে ক'লে
তেওঁর এতিযা সেইবোর চাবলৈ সময নাই । ওচরত শ্঵াহো
নাছিল । তেওঁ গৈ ইকবালক এই বুলি বুজনি দিছিল য়ে নতুন
আলহী ঘরলৈ আহিলে এবার অন্তত: ওলাই দেখা দিব লাগে ।
ওলাই দেখা নিদিযাটো একপ্রকার অভদ্রামিহে । সি একো
উত্তর নিদি খঙতে চকীরপরা উঠিল আরু কোঠাটোর দু঵ারখন
বন্ধ করি পুনর মেজর ওচরত কলম লৈ বহিল । বরপুতেকর
এনে ব্য়঵হারত তেওঁ বর ক্ষুন্ন হ'ল য়দিও পরিস্থিতি অশোভনীয
হয বুলি নীর঵ে তারপরা গুচি আহিল ।</p>

<p>রুকেযাই চাহ লৈ কোঠালৈ সোমাই আহিল । তেওঁ তাইর
শীতল নিজম দৃষ্টিলৈ আপোনা আপুনি নীর঵ থর হৈ
র'ল । লুত্ফা বেগমে তাইর ফালে কেইদৃষ্টিমান রাখিযেই বুজিলে
ছো঵ালীজনীর মনমরা অথচ চকু রৈ য়ো঵া নিরীহ মুখখনিত
এক বিশাল আবেগ অনুভুতি ভরি আছে । //
- ভাইজান তই ইমান অবুজ কিয ? তইতো দেখিছই মই
কেনেকৈ দিনটো কফন পিন্ধা মোর দাবোরর দরে দিনটো কোঠার
ভিতরত সোমাই থাকো । মনর ইচ্ছামতে বস্তু এটা কিনি খাব
নো঵ারোঁ । ভাল কাপোর এসাজ নাই । জোতা-চেণ্ডেল সকলো
ফাটি চিরা-চির হৈছে ! হাও঵াই চেণ্ডেলেরেই দুনিযাখন ঘুরি
ফুরো । ইফালে আব্বাজানেও গাঁওর মাটিখিনির একো এটা ব্য়঵স্থা
করিব নো঵ারিলে । আম্মাই ঘর চলাব নো঵রা হৈছে । তেনেস্থলত
হাতত পো঵া সুয়োগ এটা বারু মই কেনেকৈ এরি দিওঁ ? লুত্ফা
বেগমে আমার ঘরখনক এখন স্঵চ্ছল ঘর করি তোলার সুয়োগ
দিছে । সেই সুয়োগক অ঵জ্ঞা করি থকাটো মুর্খামি নহব ?</p>

<p>- সেইযা তোর কথা । মোরো কিন্তু এটা নিজস্঵ জী঵ন
দর্শন আছে । এজন দাযবদ্ধ সাংবাদিক হৈ মই তোর লগত হাত
মিলাই নিজক বিক্রী করিব নো঵ারোঁ । সঁচা কথা কৈছো - মই
হলে এই সমাজব্য়঵স্থাত বিক্ষুদ্ধ - ককাযেকে ভাযেকক কলে ।</p>

<p>ইমরাণে ককাযেকর কথাত হতাশ হৈ কাষর চকীখনতে বহিল ।
ইকবালেও ভাযেকর ফালে চাই চিন্তাক্লিষ্টভা঵ে বহি খিড়িকীরে
ব্য়স্ত জনপথটোলৈ চালে ।</p>

<p>- কিন্তু আম্মা আরু আব্বাজানর কি হব ? জী঵নজোরা
আমার কারণে দুযো ইমানখিনি দুখ-য়াতনা ভোগ করি শেষতনো
পালে কিটো ? এসাজ ভালদরে খাবলৈও নাপালে । সামান্য়
সুখো আমি দিব নো঵ারিলোঁ । ভাল খাদ্য়র অভা঵ত চাচোন
চা , - আমার ঘরর আটাইবোর কেনেকৈ শুকাই-খীণাই য়াব ধরিছো ।
জী঵নত আমিবোরে কি কে঵ল দুখেই পাব লাগিব ?</p>

<p>- সেইযা মই নুবুজা নহয ইমরাণ । বুজো । ভাবো । -
কিন্তু একো এটা করিব নো঵ারোঁ । নো঵ারিলে করিম কি ? আরু ,
আনন্দেরে জীযাই থাকিবলৈ বারু কার ইচ্ছা নাথাকে ?</p>

<p>- তেনেহ'লে , এই চাকরিটোত জইন করাটোত তোর
অসুবিধা ক'ত ?</p>

<p>- অসুবিধা একো নাই , মাত্র মই তহঁতর লগত থাকিব ঵োলা~
রিম । কারণ , এই চাকরিটো এটা ষড়য়ন্ত্রর বাহিরে একো নহয ।
- তই , সকলো কথাতেই ষড়য়ন্ত্র বিচারি পা঵ । শ্রীমতী
শ্঵াহে বরপুতেকক দপ্দপাই উঠিল । কোনো কথাকেই তই সহজ~
ভা঵ে লব নো঵ার । মহাব্বাতেরেহে মানুহে মানুহক জয করিব
পারে । কাজিযা-পেচাল করি থাকিলে কাজিযা বাঢ়িহে য়ায ।
- এইবোর সাধারণ মানুহর চিন্তা আম্মা । ইকবালে লাহেকৈ
কলে -</p>

<p>- ইস ! তেওঁ য়েন বর সাংঘাতিক কিবা এটাহে - । তই
কাগজত হো঵াই নোহো঵াই কিবা এসোপা লিখি ফুরিবি আরু
তার বাবে আমিও তোর লগ-লাগি উলুর লগত বগরি পোরা
য়াব লাগে । বচ্ সেইযাতো কথা । আগেযে য়ি ভুল হৈ গ'ল
সেইযা গ'ল ; এতিযা আরু সহজে তোর কথা মই নামানো ।
ইমরাণে , পো঵া চাকরি করিবই । য়দি বেযা পা঵ , তই ওলাই
য়া । তই নহলে঵ো আমি খাবলৈ পাম । -রঙা চকু দেখু঵াই
শ্রীমতী শ্঵াহে ইকবালক কলে ।</p>

<p>- মইতো কৈছো঵েই । য়াম । কিন্তু য়ো঵ার আগেযে এটা
কথা কওঁ শুনা । এইজনী লুত্ফাই য়ে হেকিমর ঘরর লুত্ফা মই
জনা নাছিলো । খিড়িকীরে য়েতিযা দেখিলো তেতিযাহে বর আচ~
রিত হলো । - তাই কলেজত মোর লগত একেলগে পঢ়া । কলেজত
থাকোঁতে , তাইর বুদ্ধিক কিন্তু কোনো঵ে নো঵ারিছিল -। বুদ্ধি
মানে ভাল বুদ্ধি নহয আকৌ , - য়তবোর কুটবুদ্ধির ওচরত সকলো
ল'রা-ছো঵ালীযে হার মানিছিল ।</p>

<p>- আকৌ খবর । মোক আরু সেই রহস্য়রে ভরা খবরবোর
নালাগে । তোর আম্মা বা আব্বাজান হৈছে অতি সাধারণ হোজা
মানুহ । তোর সেই রহস্য় সনা খবরবোর বুজিবলৈ আমার সিমান
মগজু নাই । য়দি আমার মতে তই চলিব নো঵ার , তেনেহলে
য়া , বাহিরত থাকগৈ - কিন্তু ইমরাণে হলে চাকরিত সোমাবই
লাগিব । আরু য়দি সি মোর কথা নুশুনে তেনেহলে সিও এক
মুহূর্ত থাকিব নো঵ারে । ওলাই । ওলাই য়াওক । আমি বুঢ়া-বুঢ়ী হালে
খুজি-মাগি খাম । কোনো঵ে আমাক খু঵াব নালাগে ।</p>

<p>কাষর কোঠাটোত চিন্তাক্লিষ্টভা঵ে বহি থকা শ্঵াহে শ্রীমতীর
কথাবোর বর পচন্দ করা নাছিল । ইমান দিনে য়িজন
ল'রাই পরিযালটোক জীযাই রাখিছে , হঠাত্ আ঵েগর বশ঵র্তী
হৈ তাক তেনে কথা কো঵াটো য়ে য়ুক্তিসংগত হো঵া নাই , তাকে
বুজাই কবলৈ শ্঵াহে কোঠাটোলৈ নীর঵ে সোমাই আহিল ।</p>

<p>- হৈছে হৈছে , - এখেতে আকৌ বরপুতেকর ফলীযা হৈহে
ওকালতি করিবলৈ আহিল । - শ্রীমতী শ্঵াহে গিরিযেকক কলে ।</p>

<p>- মোর ফলীযা হবলৈ কাকো অনুরোধ করা নাই । চিন্তা
নাই , এইমাত্রকে মই এই ঘররপরা ওলাই য়ামগৈ । তথাপি
ইকবালে সকলোকে সন্তুষ্ট করার ঠিকা লৈ নিজর জী঵ন-দর্শন
পুরি খাব নো঵ারে । মই আগর দরেই স্঵ত:ফূর্ত ভা঵েই হেকিমর
কথা লিখি থাকিম । নব্বৈ লাখ টকার এটা কেলেংকারী । রাইজর
টকা এরি দিব নো঵ারি --</p>

<p>- শুনিছ ? শুনিছ ককাযেরর কথা । তোর ভাল হো঵াটো
সি নিবিচারে । সি য়'তে মরে মরক । মাত্র তই সোনকালে লুত্ফা
বৌ঵েরক লগ পাই আহ গৈ । বোধহয তেওঁ এতিযা ইযাতেই
আছে ।</p>

<p>- আব্বাজান , তেনেহলে এইটো঵েই শেষ সিদ্ধান্ত নেকি ?
শ্঵াহে বিমূঢ় হৈ নীর঵ে বহি থাকিল ।</p>

<p>-অ' এইযে শেষ সিদ্ধান্ত । ইমান দিনে তেওঁর কথাই
এই ঘরর শেষ সিদ্ধান্ত আছিল ; আজিরপরা কিন্তু মোর কথাই
শেষ সিদ্ধান্ত হব । ইযার তেরি-বেরি হলেই কিন্তু আম্মারক
নাপাবি - শ্রীমতীযে চিঞরি চিঞরি কলে ।</p>

<p>লুত্ফা বেগমর উপস্থিতির পিছর খুব কম সমযর ভিতরতে
হঠাত্ ঘরখনত অশান্তি বাঢ়ি গ'ল । পরিযালর মাজত ভাঙোন
আরম্ভ হ'ল । আবেগিকভা঵ে ইকবালে পালেঙর তলরপরা
পুরণি চামরার বেগটো উলিযাই আমি তার ভিতরত কাপোর~
কানি কিতাপ-পত্র হেঁচি-হেঁচি ভরাবলৈ ধরিলে । শোকাতুর
নাচিরুদ্দিন শ্঵াহে বরপুতেকর ওচরলৈ আহি তার মুরত হাত ফুরাই
আবদার করি কলে - ` ঘরর ডাঙর ল'রা , তেনেকৈ ওলাই য়াবলৈ
নাপায । '</p>

<p>খঙত একো নাই হৈ সি হাতত চুইটকেছ্টো লৈ কলে-
` মই কো঵া কথাষার এবার ভাবি চা । লুত্ফা কিমান বুধিযক !
তাই আমার ঘরত ভরি দিযেই পরিযালটো পারিবারিক সম্পর্ক
কেনেকৈ থান-বান করি পেলালে মাত্র দুই-তিনিঘণ্টার ভিতরত-</p>

<p>- মোক আরু একো নকবি বোপাই । হতবুদ্ধি হৈছে ।
এনেকু঵া পরিস্থিতিও য়ে এইখন ঘরলৈ আহিব , সেইযা কোনোদিনেই
ভবা নাছিলোঁ । তথাপি হ'ল -</p>

<p>মুহূর্তবোর অশান্তিরে পার হবলৈ ধরিলে । শ্঵াহর মনটো
ক্রমাত্ হতাশাত ডুবি য়াবলৈ ধরিলে ।</p>

<p>মাকর কথামতে কাপোর সাজ পিন্ধি ইমরাণে লুত্ফাক লগ
পাবলৈ গ'ল । কথাটো লক্ষ করি ইকবালে য়েতিযা চুইটকেছটো
হাতত তুলি লৈ য়াবলৈ ওলাল , ভনীযেকে হুকহুকাই কান্দি তাক
সা঵টি ধরিলে ।</p>

<p>শ্঵াহে শেষ বারর বাবে তেনেকৈ ওলাই নায়াবলৈ অনুরোধ
করিলে ।</p>

<p>সকলোকে উপেক্ষা করি ইকবালে চুইটকেছটো হাতত লৈ
বাহির ওলাই গ'ল ।
ঘরখন শোকাচ্চান্ন হৈ পরিল । শ্঵াহে মনর বেজারত নাদর
পাছফালে থকা আমগছ জোপার পকাটোত বহি থাকিল । ভনী-
যেকে কোঠাত সোমাই দু঵ারর হুক লগাই বিছনাত মুখ গুজি
কান্দিলে ।</p>

<p>লাহে লাহে পৃথি঵ীত সন্ধিযা নামিল । শ্঵াহে য়'তেই
বহি আছিল তারপরা উঠি নাহিল । ঘররপরা লাহে লাহে তেওঁ
অদৃশ্য় হৈ আহিল । জোনাকী পরু঵া আরু অন্ধকারে তেওঁক
মেরিযাই ধরিলে ।</p>

<p>`` ... এডোঙা পানীর সহজলভ্য় বিরাট বপুর মাছটোর
দরে লুভীযা চাকরির নিযোগ পত্রখন লৈ আহি ইমরাণে ভাবিলে -
মাছটো ধরি খালৈত ভরো঵া উচিত হব নে নহয ? য়দি মাছ-
টো঵ে উঠি থকা নাওখনর টিং বুরাই পেলায ? "" ... লুত্ফার ওপরত
তার প্রথমবারর বাবে সন্দেহ জন্মিল ।
 +&gt;*
",0
</p></body></text></cesDoc>