<cesDoc id="asm-w-media-nmm67" lang="asm">
<cesHeader type="text">
<fileDesc>
<titleStmt>
<h.title>asm-w-media-nmm67.txt</h.title>
<respStmt>
<respType>Electronic file created by</respType>
<respName>Central Institute for Indian Languages, Mysore</respName>
<respType>transferred into Unicode and CES format by</respType>
<respName>"Unicodify" software by Andrew Hardie</respName>
</respStmt></titleStmt>
<publicationStmt>
<distributor>UCREL (on behalf of CIIL)</distributor>
<pubAddress>Department of Linguistics, Lancaster University, Lancaster, LA1 4YT, UK</pubAddress>
<availability region="WORLD"></availability>
<pubDate>03-07-21</pubDate>
</publicationStmt>
<sourceDesc>
<biblStruct>
<monogr>
<h.title>প্রান্তি</h.title>
<h.author>ভবেন্দ্র</h.author>
<imprint>
<pubPlace>India</pubPlace>
<publisher>Unknown - Magaz</publisher>
<pubDate>1990</pubDate>
</imprint>
<idno type="CIIL code">nmm67</idno>
</monogr></biblStruct></sourceDesc></fileDesc>
<encodingDesc>
<projectDesc>Text collected for the CIIL Corpus, subsequently integrated into the EMILLE/CIIL Monolingual Written Corpora.</projectDesc>
<samplingDesc>Simple written text only has been transcribed. Diagrams, pictures and tables have been omitted. Sampling begins at page 0031.</samplingDesc>
<editorialDecl><conformance level="1"></conformance></editorialDecl>
</encodingDesc>
<profileDesc>
<creation><date>03-07-21</date></creation>
<langUsage>Assamese</langUsage>
<wsdUsage>
<writingSystem id="ISO/IEC 10646">Universal Multiple-Octet Coded Character Set (UCS).</writingSystem>
</wsdUsage>
<textClass>
<channel mode="w">print</channel>
<constitution type="composite"></constitution>
<domain type="public"></domain>
<factuality type="fact"></factuality>
</textClass>
<translations></translations>
</profileDesc>
<revisionDesc></revisionDesc>
</cesHeader>

<text><body>
<p>&lt;প্রান্তিক ( ভবেন্দ্রনাথ শইকীযা )</p>

<p>পশ্চিমর পম খেদি :
ড: লক্ষ্মীনন্দন বরা ।
পশ্চিম জার্মেনিত থকার এমাহর
ভিতরত মাইন্ছকে ধরি কেইবাখনো
চহরত রাজপথত খোজ কাঢ়ি কথা
লক্ষ্য় করিছোঁ য়ে য়'তে-ত'তে ডেকা-
গাভরুতকৈ : ইযার মানুহর গড় আযুস 76
বছর আরু কেইবাটাও দশকর পরা ইযাত
কঠোর জন্ম নিযন্ত্রণ চলিছে । ফলত
লোকসংখ্য়া বাঢ়ক চারি কমিছেহে । সেযেহে
সত্তর বছরর ওপরর বযসর মানুহ য়থেষ্ট
বেছি । বাটত বুঢ়া-বুঢ়ী বেছি দেখার দ্঵িতীয
কারথণ হ'ব পারে এযো য়ে চাকরি বা
ব্য়঵সায-বাণিজ্য় করা লোকসকল মটর
গাড়ীতেই ফুরা-চকা করে । বাছ বা
ট্রামতকৈ মটর গাড়ীত অহা-য়ো঵া করিলে
খরচ কম হয আরু সুবিধাও বেছি । ইযাত 1
লিটার পেট্রলর দাম মাথোন 1 মার্ক 8
ফেনিং । এক মার্ক 8 টকা পঞ্চাছ পইচা বুলি
ধরিলেও পেট্রলর দাম বেছি নহয । বহুত
বুঢ়া-বুঢ়ীর মটর গাড়ীত ঘুরি ফুরিবলৈ ধন
আছে । কিন্তু তেওঁলোকে গাড়ী চলাব
নো঵ারিবও পারে । ধন থাকিলেও ড্রাইভার
পো঵া টান আরু পালেও মাহেকত দুহাজার
মার্কমান খরচ পরে ।</p>

<p>বাটত আন মানুহ দেখা পো঵া নায়ায
বুলি ক'ব নো঵ারি । কিন্তু বুঢ়া-বুঢ়ীর
সংখ্য়াহে য়থেষ্ট বেছি । এওঁলোকক দেখি
বর ভাল লাগে । তার কারণ আছে । বেছি
ভাগ বুঢ়া-বুঢ়ীযেই স্঵াস্থ্য়বান আরু রঙিযাল
স্঵ভা঵র । পোছাক-পাতি সুন্দর আরু
নিখুঁত । পোছাকর রুচিও বর আকর্ষণীয ।
আমি চাহাবর পোছাক বুলিলে য়িটো ধারণা
পোষণ করি থাকোঁ তেনে পোছাক
বোধকরোঁ বুঢ়া-বুঞীসকলেহে পিন্ধে । আন
হাতেদি বেছি ভাগ ডেকা-গাভরুরে
পোছাকবোর হলৌজলৌ । তেওঁলোকর
পোচাকবোর জোখতকৈ বেছি ডাঙর য়েন
লাগে । তদুপরি ডেকা আরু গাভরুর
পোচাক প্রায একে য়েনহে লাগে ।
সাধারণতে ঢিলা ট্রাউজার আরু কোট
নাইবা জিনর পেণ্ট আরু জিনরে জেকেটর
দরে কোট ডেকাবোরেও পিন্ধে ,
গাভরুবোরেও পিন্ধে । জোতাও একে । এনে
` ইউনিছেক্স ' পোছাকেরে গাভরুবোরক
গাভরু য়েন নালাগে । তদুপরি য়থেষ্ট শব্দ
করি জোরেরে মেদিনী কঁপাই খোজ কঢ়া
গাভরুবোরক অন্য় গ্রহর জী঵ য়েনহে
লাগে । এজনী য়থেষ্ট ধুনীযা ছো঵ালীর
লাস্য়ময রুপক এনে পোছাকে আরু
দৌরবীরর দরে চলনে তাইর মোহনীযা
নারীত্঵র ভালেখিনি হরণ করে । আমি
ভারতীযর দৃষ্টিরে তাইক ভাল নেদেখোঁ ।
তাইর খুব দাম্ভিক য়েনো লাগে । তদুপরি
বেছি ভাগ গাভরুরে মুখত ছিগারেট ।
ধুমপানর বিপক্ষে ইযাতো প্রচুর প্রচার হৈছে
য়দিও ইযাত ধুমপান করা লোকর সংখ্য়া
কমা নাই । অথচ আমেরিকার পরা অহা
প্রতি পেকেট ছিগারেটেই য়থেষ্ট দামী ।
বিছটা দীঘল চিগারেট থকা এটা পেকেটর
দাম 4 মার্ক আর্থাত্ আমার হিচাপত প্রায 40
টকা । তদুপরি ইযাত ল'রাতকৈ ছো঵ালীযে
বেছি চিগারেট খায ।</p>

<p>অ঵শ্য়ে কিছুমান ছো঵ালীযে
ছো঵ালীর পোচাকো পিন্ধে । এই ক্ষেত্রত
য়ৌন আবেদন হৈ পরে উত্কটরূপে
প্রলোভনীয । অ঵শ্য়ে বিশ্঵বিদ্য়ালযর
চৌহদত এনে য়ৌনাবেদনমূলক পোছাক
পিন্ধা ছো঵ালী কাচিত্হে য়ায ।</p>

<p>এই আটাইকেইটা দিশ বিচার করি
চালে সহজে এই সিদ্ধান্তলৈ আহিব পারি য়ে
ডেকা-গাভরুতকৈ বুঢ়ীসকলর পোছাকহে
সুরুচিপূর্ণ আরু চকুত লগা বিধর । মই
বাটত বুঢ়ী এগরাকী দেখিলে তন্ন-তন্নকৈ
চাই আমোদ পাওঁ । তেওঁলোকর মুখবোর
দেখিলেও বেচ মরমিযাল য়েন লাগে ।
তেওঁলোকর বেছি ভাগেই অকলে থাকে ।
এতিযালৈকে মই কোনো বুঢ়ীক গাভরু
জীযেক , ডেকা পুতেক বা নাতি-পুতিরে
সৈতে এফাল ওলাই য়ো঵া দেখা পো঵া
নাই । অতিপাত জারতো এজনী বুঢ়ীযে
অকলে বজার করি ডাঙর টোপোলা এটা
হেকোঁ-জেকোঁকৈ কঢ়িযাই অনা দেখিলে
মোর মনত বেথা লাগে ।</p>

<p>বাটত বুঢ়াতকৈ বুঢ়ীহঁতকহে বেছি
দেখা য়ায । সহজে অনুমান করিব পারি য়ে
জার্মেনিত বুঢ়াতকৈ বুঢ়ীর সংখ্য়া বেছি ।
তথ্য়যো এই অনুমান সঁচা বুলি প্রমাণ
করিছে বুলি এজন জার্মানে মোক ক'লে ।
ইযারো এটা কারণ আছে । মই বাটত দেখা
বুঢ়া-বুঢ়ীসকল দ্঵িতীয মহাসমরর সমযত
ডেকা-গাভরু আছিল । মহাসমরত অসংখ্য়
ডেকা মরিছিল আরু পুরুষর সংখ্য়া
আশাতীতভা঵ে কমি গৈছিল বাবেই আজির
জার্মেনিত অকলশরীযা বুঢ়ীর সংখ্য়া ইমান
বেছি হৈছে ।</p>

<p>য়ুদ্ধত বাচি বৈবাহিক জী঵ন
সম্পূর্ণভা঵ে অতিবাহিত করা এহাল বুঢ়া~
বুঢ়ীও অকলে থাকিব লাগে । কারণ নিজর
পুত্র-দুহিতা পরিযালর বান্ধোনত নাথাকে ;
তেওঁলোকে সুকীযাকৈ থাকিহে নিজস্঵
জী঵ন য়াপন করে । তেওঁলোকে পিতৃ-~
মাতৃর প্রতি দাযিত্঵ আছে বুলি নভবাটো বহু
দিনরে পরা ইযার জী঵নর ধারা হৈ পরিছে ।
চরকারে বৃদ্ধলোকক ভালকৈ চলিব পরা
পরিমাণর মাহেকীযা বানচ দিযে বাবে আরু
নিচেই অক্ষম হৈ পরিলে বৃদ্ধলোকসকল
প্রতিপালন-গৃহলৈ স্থানান্তরিত হয বাবেও
সন্তানসকলে নিজর পিতৃ-মাতৃর প্রতি
দাযিত্঵ নথকাটোক হযতো য়ুক্তিরে খণ্ডন
করি বিবেকর দংশনর পরা অব্য়াহতি
পায য়েন লাগে ।</p>

<p>এই পালর পরা চালে আমার চকুত
পশ্চিমীযা উন্নত দেশসমূহক সভ্য় দেশ য়েন
নালাগে । আরু এটা কথা দেখিলেও আমার
চকুত ইযার মানুহক মার্জিত য়েন নালাগে ।
সেযে হ'ল , বাটে-পথে বা রাজহু঵া ঠাইত
অবাধ প্রারম্ভিক প্রণযলীলা - য়াক সকলো
সুসভ্য় লোকে নিতান্ত গোপনীয নান্দনিক
অ঵সর-সামগ্রী বুলি বিবেচনা করি উচিত ।
এই ক্ষেত্রত বিজ্ঞান আরু প্রয়ুক্তিবিদ্য়ারে
গর্বিত শিপ্ল-উদ্য়োগেরে চহকী পশ্চিমীযা
লোকসকলে কালিদাসর আরু তেওঁর য়ুগর
কামরসিক বাত্সাযন ঋষির পরা শিক্ষালাভ
করা উচিত ।</p>

<p>আকৌ জার্মানর বুঢ়া-বুঢ়ীসকলর
কথালৈ আহোঁ । তেওঁলোক সকলোকে
পরিত্য়ক্তা হৈযো জী঵নর প্রতি মুহূর্তক
উপভোগ করিবলৈ আরু সমযর ওচরত
সেও নামানিবলৈ দৃঢ় প্রতিজ়্ঞ য়েন লাগে ।
তার প্রমাণ পো঵ য়ায । তেওঁলোকর
চলনফুরণত আরু ব্য়ক্তিত্঵ত । পিছে দুটা
এটা ব্য়তিক্রম দৃশ্য়ই মোর মনক আমনি
দিছে । কেতিযাবা দেখিছোঁ য়ে এগরাকী
বুঢ়ীযে বুঢ়াক গাত ধরিহে ফুরাবলৈ আনিছে
নাইবা বুঢ়া-বুঢ়ীর কোনোবা এজনে বেছি
অক্ষমজনক চকা লগো঵া গাড়ীত বহু঵াই
গাড়ী ঠেলি-ঠে঳ি ফুরাবলৈ আনিছে । তেনে
অ঵স্থাতো আলর বুঢ়াগরাকীর মুখত
হতাশা নাই । তেওঁলোকে থেনে অ঵স্থাতো
মানবীয হযতো সমগ্র জার্মান জাতিটোর
ব্য়ক্তিত্঵ প্রতিভাত হৈছে ।</p>

<p>জার্মানর বুঢ়া-বুঢ়ীর ব্য়ক্তিত্঵র আভাস
পালো য়ো঵া পহিলা অক্টোবরত ( 1989 ) ।
মই আরু মাধুরী এখন পর্য়টন সংস্থার বাছত
উঠিলো । বাছখনত য়াত্রীর সংখ্য়া 45 । তার
ভিতরত আমার দুযোরে বাহিরে সকলোরে
বযস সত্তরর বেছি । বুঢ়ার সংখ্য়া মাথোন
চারি । এই বাছখনে আমাক 150
কিল'মিটার বাট পাহারর অরণ্য়র মাজে-
মাজে এখন ঠাইলৈ লৈ গ'ল । অরণ্য়র
মাজতো এঠাইত কো঵া-বো঵ার ভাল
ব্য়঵স্থা আছিল । তাতে বাছখন দুঘণ্টা
রখালে । য়াত্রীসকলে অরণ্য়ত ফুরাচকা
করিলে । উভতি আহিলো অরণ্য়র পথেদি
আন এটা বাটেরেহে । জার্মানির অরণ্য় দেখি
আচরিত হ'লো । পৃথি঵ীর উন্নত সাতখন
শিল্পপ্রধান দেশর ভিতরত পশ্চিম জার্মেনিযে
উচ্চতম আসন পাইছে । কিন্তু ইযাত য়'তে-~
ত'তে গছ-গছনি । চহরর মাজতো গছ-গছনি ,
চহর পার হ'লে অধিক গছ-গছনি । সকলো
পথর দাঁতিত ডাঠ হাবি-বন । পশ্চিম জার্মেনির
উত্তরে অ঵স্থিত নেদারলেণ্ডর সীমালৈকে প্রায
600 কিল'মিটার রাজপথ দাঁতিত ক'তো গছ-
গঠনি নথকা টাই মোর চকুত পরা নাছিল ।
দক্ষিণে জেনেভালৈকে সুদীর্ঘ পথর দাঁতিবোরো
গছ-গছনিরে ভরা । 1 অক্টোবরত পর্য়টন
সংস্থার বাছত গৈ অটব্য় অরণ্য়ত দেখিলো ,
সরু-সরু পাহারত আরু পাহারর দাঁতির
ঘাঁহনিত অসংখ্য় ভেড়া , গরু-গাই আরু
পহু চরি থকাও দেখিলো । ইযার সুপরিকল্পিত ,
বৈজ্ঞানিকভা঵ে রোপিত আরু সুসংরক্ষিত হাবি-
বনত মানুহে নানা বিধ পহু পোহে । বজারত
পহুর মঙহ বিক্তিও হয । চরণীযা পতারো
য়থেষ্ট আছে কারণে পশ্চিম জার্মেনিত মঙহ ,
গাখীর আরু গাখীরর পরা তৈযার করা বস্তু
আরু মৌজোল পর্য়ানপ্ত । পশ্চিম জার্মেনিযে
আন দেশলৈ এইবোর বস্তু রপ্তানিও করে ।</p>

<p>এইবোর দেখি-শুনি মোর দরে এজন
ভারতীয বর আচরিত হ'বরে কথা । মই
কল্পনাই করিব পরা নাছিলো - শিল্পপ্রধান
এই এলবার্ট আইনষ্টাইনর দেশখন হাবি-
বন , গোধন , পশুধন আদির ফালর পরাও
এন হ'ব পারে । আরার ভাব হয , ইউরোপ
মানেই য়েন কল-কারখানা । কিন্তু বরঞ্চ তার
ওলোটাটোহে । পশ্চিম জার্মেনি আরু ছুইজারলেণ্ড
ঘুরি দেখিছোঁ য়ে ইযাত কল-কারখানাতকৈ হাবি-~
বনহে বেচিকৈ চকুত পরে । অথচ কৃষিপ্রধান
দেশ বুলি জনাজাত ভারতত উমান হাবি-বন
দেখা নায়ায । নির্বনীকরণে ভারতত উত্কট
জলবাযুর জন্ম দিছে । আনকি ` জংঘল ' ভরা
অসমতো গছ-গছনি ইমান দেখা নায়ায । বাছেরে
গ'লে কে঵ল কাজিরঙা আরু নামবর হাবি থকা
য়েন লাগে । এইবোর কথা মনত পরিলে ভারত
তথা অসমর বন সংরক্ষণ বিভাগবোরক
` বন ভক্ষণ ' বিভাগ য়েনহে লাগে । নির্বনীকরণর
ফলত ভারতর বহু রাজ্য়ত প্রাকৃতিক ভারসাম্য়
নাইকিযা হৈছে । আনকি ` জংঘলর দেশ ' অসমতো ।
আমার জাতীয জী঵নত উযাতকৈ ডাঙর ট্রেজেডি আন
একো হ'ব নো঵ারে । পশ্চিম জার্মেনিত মাটিকালির
শতরকা 33 ভাগতকৈ বেছি ঠাই হাবি-বন আছে ।
তদুপরি মুঠ মাটিকালি আধা ভাগত খেতি হয ।</p>

<p>বুঢ়া-বুঢ়ীসকলর লগত পর্য়টক সংস্থার
বাছত মাইন্ছ রাজ্য়র অরণ্য়র মাজেদি আহি
এইবোর কথাকে ভাবিছোঁ । রাইন নদীর এটা
অংশর দুযো পালে ওখ পাহার । পাহার আরু
রাইনর মাজেরে আমার বাছ চলিছে । আমি
আরু এটা অপরূপ বস্তু দেখিছোঁ । দুযোকাষর
পাহারর টিলাবোরত একোটাকৈ চৈধ্য় পোন্ধর
শতিকাতে সজা মজপুত দুর্গ । এনেকু঵া
দহটামান দুর্গ আমার চকুত পরিছে । ইযার
পরাই অনুমান করিব পারি য়ে এই শতিকার
দুখন মহাসমরর বাদেও জার্মেনিত চতুর্দশ~
পঞ্চদশ শতিকার পরাই য়থেষ্ট য়ুদ্ধ-বিগ্রহ
হৈ আছিল । এতিযা আকৌ এই দুর্গবোরত
জিলিকি থকা পশ্চিম জার্মেনির পতাকাই
সঁচাকৈযে জার্মানসকলর অপরাজেয শক্তিকেই
সগর্বে ঘোষণা করিছিল ।</p>

<p>অফেনবাক নামর এখন চহরলৈ গৈছিলো ।
তাতে জার্মান বতরবিজ়্ঞান কেন্দ্র এটা আরু কৃষি
মৌচম বিজ্ঞানর ভাল গ঵েষণা কেন্দ্র এটাও আছে ।
তাতে বিশিষ্ট কৃষি মৌচম বিজ্ঞানী ড: এইচ হেগারক
সুধিছুলোঁ , `` জাক্মেনির কিমান অংশত বননি আছে ? ""
তেওঁ কৈছিল `` প্রাকৃতিক ভারসাম্য় রক্ষা করিবর বাবে
য়িখিনি লাগে তাতকৈ বেছি আছে । পাহারর কোনো
ঠাইর পরা গছ-গছনি নাইকিযা করা হো঵া নাই ।
কটা গছর ঠাইত তুরন্তে আন গছ লগো঵া হৈছে ।
বননি পাতল হো঵া নাই । তদুপরি সমতল অঞ্চলতো
শতকরা 30 ভাগতকৈ বেছি গছ-গছনি আছে । ""</p>

<p>গতিকে শিল্প-প্রধান জার্মেনিযেও য়দি
অরণ্য় রক্ষা করিব পারে আমি নো঵রার
কারণ কি ? উত্তরটো এনে হ'ব পারে :
আমার অমনোয়োগিতা , অকর্মণ্য়তা , আরু
ব্য়঵সাযী আরু বিষযার পর্য়াযত দুর্নীতি ।
সেই কারণেই পরিবেশ বিজ্ঞানীসকলে কয
য়ে নির্বনীকরণর ফলত পাহারীযা দেশ
নেপালো দহ বছরর পাছত মরুভূমিলৈ
রূপান্তরিত হ'ব পারে । গতিকে
বনসংরক্ষণর ক্ষেত্রত ভারতে পশ্চিম
জার্মেনির পরা শিক্ষা লাভ করিব পারে ।
ইযার বন সংরক্ষণর আইন ইমান
কটকটীযা য়ে কোনেও নিজর ঘরর চৌহদত
থকা গছ এজোপা কাটিব নো঵ারে আরু
কাটিবলৈ অনুমতিও দিযা নহয ।</p>

<p>বাছ-য়াত্রাত মই প্রকৃতির সৌন্দর্য়্য়
উপভোগ করিছোঁ আরু এইবোর ভাবি বর
বিষন্ন হৈছোঁ । কিন্তু বাছর বুঢ়া-বুঢ়ীসকল
ইমান রংমনে হাঁহি-খিকিন্দালি করি আহিছে
য়ো তাকে দেখি মোর ভাব হৈছে এজাক
ল'রা-ছো঵ালীহে য়েন বনভোজ খাবলৈ
আহিছে ।</p>

<p>অরণ্য়র মাজর রেস্তোরাত ভাগ্য়বশত
এগরাকী ইংরাজী জনা য়ুবতীক লগ পাইছিলো ।
তেওঁ মোক কৈছিল , `` বুঢ়ীহঁত এই বযসতো
ইমান ভাল হৈ থকার কারণটো কি জানেনে ?
ভাল আহার খালেই দেহটো ভালে রাখিব নো঵ারি ।
আচল কারম দুটা : উদ্঵েগহীনতা আরু জী঵নর
প্রতি ইতিবাচক দৃষ্টিভংগী - Lack of worry
and positive outlook towards life .
তদুপরি তেওঁলোকে জী঵নটোক এতিযা অভিলাষী
মানুহবোরর দরে ছিরিযাছলি লো঵া নাই । ""</p>

<p>সন্ধিযা বাছর পরা নামোতে প্রতি গরাকী
বুঢ়ীযে নিজর ভাষারে আমাক মরমেরে মাত
লগাই গৈছিল । ভাষার বিনিময নোহো঵াকৈযে
তেওঁলোকর লগত মোর হৃদতা গঢ়ি উঠিছিল ।
কিন্তু আকৌ য়ে এই মরমিযাল আরু রঙিযাল
বুঢ়ী কেইজনী দেখা নাপাম ! জী঵ন এনেকু঵াই ।
তাকে ভাবি বর দুখ লাগিছিল ।</p>

<p>বুঢ়ী মানুহর কথা কওঁতে আরু দুগরাকী
বুঢ়ীর কথা লিখিবলৈ মন গ'ল । এগরাকী
হ'ল মাইন্ছর ওচরর গোষ্টাভছবার্গর শ্রীমতী
ফিছার । বযস আঠসত্তর বছর । মোর পরিচিতা
ছিবিলির আইতাক । বুঢ়ী বেছ লাহ-বিলাহত থাকে ।
বিউটি পার্লারতহে চুলি কোটা নিজর মনোমত
করি লয । প্রেমিকর পরা ছিবিলিলৈ ফোন আহিলে
বুঢ়ীযে কিবা এটা অজুহাত উলিযাই ফোনর ওচর
পাই কথা পতা শুনেহি । ছিবিলি বিরক্ত হৈ পরে
আরু বুঢ়ীক আঁতরি য়াবলৈ ক'লে বুঢ়ীযে হাঁহি কয ,
`` তহঁতর দিনর কাণ্ড-কারখানাবোর জানিবলৈ বর
ইচ্ছা য়ায অ' আই । আখ্য়ানবোরর গতি একে নে
বেলেগ , তাকে জানিবলৈ কারনো ইচ্ছা নহ'ব ? ""</p>

<p>এইগরাকী বুঢ়ীযে জী঵নর প্রতিটো
মুহূর্ত উপভোগ করিবলৈ বিচারে । অলপতে
তেওঁ 1910-11 চনর ভিতরত ওপজা সেই
ঠাইর বহুত বুঢ়ীক গোটাই চান্দা তুলি এখন
বাছ ভারা করিলে আরু তেওঁর দরে চল্লিছ
গরাকীমান বুঢ়ীযে বাছত তিনি দিন ধরি
গোটেই পশ্চিম জার্মেনি ভ্রমণ করিলে ।</p>

<p>আন এজনী বুঢ়ীর নামটো কি
ছিবিলিযে নাজানে । কিন্তু তেওঁক মাইন্ছ
চহরর সকলো঵েই চিনি পায । তেওঁ ` ফুল
বেচা আইতা ' নামে সকলোরে পরিচিত ।
তেওঁক মই প্রাযে দেখোঁ । তে঵োঁ বেছ ধুন-~
পেচ ভাল পো঵া ধুনীযা বুঢ়ী । রেজিলেন্সর
চচমা পিন্ধে । বযস আশীতকৈ বেছি । কিন্তু
শারীরিকভা঵ে সক্ষম । তেওঁ রেলর ষ্টেছনত
আরু ছেইণ্ট মার্টিন কেথেড্রেলর আগত ফুল
বেচে । লাভর কারণে নহয , মানুহর সে঵া
করার উদ্দেশ্য়ে আরু নিজকে ব্য়স্ত রখার
উদ্দেশ্য়েও ।</p>

<p>বুঢ়ীক পোনতে কর্তৃপক্ষই বাধা
দিছিল । কিন্তু বুঢ়ীযে সত্য়াগ্রহ করিলে ।
তেওঁ ক'লে , `` কতই বেযা কাম করি আছে
অথচ তোমালোকে বাধা দিব পরা নাই ? মই
বিনা অনুমতিত কি বেযা কাম করিছোঁ ? মই
কার অপকার করিছোঁ ? ""</p>

<p>শেষত বুঢ়ীর কতাই রজিল । সত্য়াগ্রহ
কামত আহিল । বুঢ়ীযে সদায ফুল বেছি
ফুরাটো মাইন্ছর রেল ষ্টেছনর ওচরর
অঞ্চলত এটা সাধারণ অথচ আপুরুগীযা
দৃশ্য় । মই এদিন বুঢ়ীর পরা ওথোপা ফুল
কিনিলো । বুঢ়ীযে মোক কপালত চুমা এটা
খাই এটা সরু ফুল মোর কোটত পিন মারি
আঁরি দিলে ।
অ'ল্ডডেণ্টেল , পশ্চিম জার্মেনি ,
20/10/89
",0
</p></body></text></cesDoc>