<cesDoc id="asm-w-media-amm72b" lang="asm">
<cesHeader type="text">
<fileDesc>
<titleStmt>
<h.title>asm-w-media-amm72b.txt</h.title>
<respStmt>
<respType>Electronic file created by</respType>
<respName>Central Institute for Indian Languages, Mysore</respName>
<respType>transferred into Unicode and CES format by</respType>
<respName>"Unicodify" software by Andrew Hardie</respName>
</respStmt></titleStmt>
<publicationStmt>
<distributor>UCREL (on behalf of CIIL)</distributor>
<pubAddress>Department of Linguistics, Lancaster University, Lancaster, LA1 4YT, UK</pubAddress>
<availability region="WORLD"></availability>
<pubDate>03-07-21</pubDate>
</publicationStmt>
<sourceDesc>
<biblStruct>
<monogr>
<h.title>আজিরসময-</h.title>
<h.author>ধ্রু঵জ-</h.author>
<imprint>
<pubPlace>India</pubPlace>
<publisher>Unknown - Magaz</publisher>
<pubDate>1985</pubDate>
</imprint>
<idno type="CIIL code">amm72b</idno>
</monogr></biblStruct></sourceDesc></fileDesc>
<encodingDesc>
<projectDesc>Text collected for the CIIL Corpus, subsequently integrated into the EMILLE/CIIL Monolingual Written Corpora.</projectDesc>
<samplingDesc>Simple written text only has been transcribed. Diagrams, pictures and tables have been omitted. Sampling begins at page 0035.</samplingDesc>
<editorialDecl><conformance level="1"></conformance></editorialDecl>
</encodingDesc>
<profileDesc>
<creation><date>03-07-21</date></creation>
<langUsage>Assamese</langUsage>
<wsdUsage>
<writingSystem id="ISO/IEC 10646">Universal Multiple-Octet Coded Character Set (UCS).</writingSystem>
</wsdUsage>
<textClass>
<channel mode="w">print</channel>
<constitution type="composite"></constitution>
<domain type="public"></domain>
<factuality type="fact"></factuality>
</textClass>
<translations></translations>
</profileDesc>
<revisionDesc></revisionDesc>
</cesHeader>

<text><body>

<p>&lt;আজির সময ( ধ্রু঵জ্য়োতি বরা )
বুঢ়াটো঵ে কণা চকু দুটারে
কেউপিনে চাই , কেঁকাই কেঁকাই ক'লে ,
ককালত বর দুখ পালো । বর
বেযাকৈ শিলত উজুটি মারি পিচল
খাই পরিলো । কাকলটো কেরেচ্
করি গ'ল । '</p>

<p>`` পরিবিতো । রাস্তা বান্ধি
আছে দেখা নাই । সেইফালে কেলেই
গৈছিলি ? উঠি আহ । তই এনেকৈ
রাস্তার সোঁমাজত পরি থাকিলে বাছ
মটরবোর কেনেকৈ য়াব ? দেখা নাই -
নেকি কিমান বাছ মটর আহি লাইন
পাতি রৈ গৈছেহি । ""</p>

<p>গছর ছাঁত বহি জিরণি লৈ
থকা বনু঵াজাকে বাটর মাজত এটা
ককালভগা বুঢ়া তেনেকৈ পরি থকা
দেখি কিজানি ভালেই পাইছে । সি
তেনেকৈ পরি থাকিলে , সিহতেও আরু
কিছুসময কাম নকরাকৈ বহি থাকিব
পারিব হযতো ।</p>

<p>র'ড র'লারর ড্রাইভারটো঵ে
খঙেরেই চিঞরিলে , ` এই মরিবলৈ
আরু ঠাই নেপালি রাস্তা ব্লক করি
বহি থাকিলে আমার কাম কেনেকৈ
হ'ব ? নুঠ য়দি এতিযা তোর গার
ওপরেদি র'লার চলাই দিম । '</p>

<p>চিঞরিছে: ` কণা , চকুরে নেদেখে !
এই থিয দুপরীযাখন রাজাআলি
পার হৈ ক'ত মরিবলৈ গৈছিলি ? তার
পরা সোনকালে ভালে ভালে উঠি
আহ । নহলে - '</p>

<p>` মানুহটোনো কোন ।
কোনোবাই চিনি পাযনেকি ? ' আমার
লগর য়াত্রী এজনে সুধিলে ।</p>

<p>কোনোবা ল'রা এটাই
ক'লে , ` তার নাম লোচন । গান গাই
মাগি খাই ফুরে । ক'র মানুহ
কোনেও ক'ব নো঵ারে । তার পিছত
অলপ চিঞরি সি ক'লে , ` হের লোচন ,
বহুত রাইজ গোট খাইছে । গান এটা
গাচোন - সেই য়ে তই সদায গা঵ -
` ইন্চানুক নীলাম করে য়ে কেইটা
দুখীযা হেই । রাইজে পইচা দিব ,
গা -</p>

<p>র'দে খাও খাও করিছে ।
শিল বোকার ওপরত পরি
থকা কণা বুঢ়াটো঵ে খেপিযাই খেপি~
যাই তার বাহঁর লাখুটিডাল বিচারি
ল'লে , আরু তাতে ভেজা দি থিয
হ'বর চেষ্টা করিলে । কিন্তু নো঵ারি
আকৌ শিল-বোকার ওপরতে ধপচ্
করে বহি পরিল । তার গাযে মুরে
তেনেই বোকাপানী ।</p>

<p>মানুহজুমর মাজরপরা কো~
নোবা এটাই ক'লে , ` সি খোরাও
নহয , নিজে তারপরা উঠি আহিব পারিব
জানো ? '</p>

<p>আত্রাকপর সভালৈ য়াবলৈ
অহা কোনোবা এজনে খঙেরেই ক'লে
আমার দেশর এই কণা , খোরা , লেঙেরা
বোরেই সকলোরে য়াত্রা নষ্ট করিছে ।
এই র'দত কোন এনেকৈ শুকাই মরি
বহে । এই উঠ তার পরা । উঠি
আহ বেগতে । আমার বাট এরি দে ।
নহ'লে তোর গার ওপরেদি বাছ চলাই
দিব এতিযা । কিয়ে নুইচেন্স । '</p>

<p>কণা মানুহটো঵ে আকৌ
এবার লাখুটিডালত ভর দি থিয
হবর চেষ্টা করিলে । বিছু চুচরিলে ।
কিন্তু হযতো ককালত বেযাকৈ দুখ
পো঵ার কারণে , সি থিয হব নো঵া~
রিলে । আঠুকাঢ়ি সি উঠিবর য়ত্ন
করিলে , নো঵ারিলে । সি আকৌ বো~
কাত বহি পরিল ।</p>

<p>জুমটোর মাজর পরা কোনোবা
এটাই চিঞরিলে , ` দেখিছা তার বদ্~
মাছি । রাজআলির মাজত বোকাত
বহি লৈ কেনেকৈ আরাম করিছে ।
এনেকু঵া মানুহর গার ওপরেদি বাছ
চলাই দিব লাগেই ।</p>

<p>এনেতে দেখিলোঁ হটঙা
ওখ . কিছু শকত গোঁফাল মানুহ এটা
কোনোবা ফালরপরা আহি , কারো
ফালে নোচো঵াকৈ গজংগজং করে
পরিথকা কণা মগনীযাটোর ওচরলৈ
আগবাঢ়ি গ'ল । মানুহটোক মই
চিনি পালো । সি আমার বাছখন
চলাই অহা দ্রাইভারটো ।</p>

<p>সি বুঢ়াটোর বাউসীত ধরি
তাক দাঙিবর চেষ্টা করি ক'লে , ` উঠিব
পারিবানে , মই তুলি দিও । '</p>

<p>কেকাই কেকাই বুঢ়াই ক'লে
` পরা হলেনোঁ নুঠি েনেকৈ রাজআলির
বোকাত পরি থাকোঁনে বোপাই ? হাম~
খুরি খাই পরিলা , ককালর জোরা
সুলকিল য়েন লাগিছে ।</p>

<p>ড্রাইবারর গাত ধো঵া , ইস্ত্রি
করা পরিস্কার কামিজ পেণ্ট । সি
কুজা হৈ দুযোহাতে সা঵টি ধরি বুঢ়াক
একে টিপে ওপরলৈ দাঙিলে , আরু
কারোফালে নোচো঵াকৈ ঘুরি তার
পরা খোজ দিলে ।</p>

<p>এই হটহা , গোঁফাল মানুহ~
টোর কাণ্ড দেখি মানুহবোর ্লপ
ভয খো঵াদি খালে । জানোচা বুঢ়াক
নি আলির কাষর খালে বা পথারলৈ
দলি মারি পেলাই দিযে এতিযা । '</p>

<p>কোনোবা এটাই চিঞরি
ক'লে , ` কি করা , বুঢ়াটোক কি করিব
খুজিছা ? তাক ক'লৈ নিযা ? '</p>

<p>কিন্তু কারো কথার উত্তর
নিদি বুঢ়াক দাংকোলাকৈ বুকুর ওচ~
রত দাঙি ধরি ড্রাইভারটো঵ে বুঢ়াক
আমার বাছখনর ওচর পো঵ালৈহে
আরু বাছর বিতরর য়াত্রীর ফালে
এবার চাই ক'লে , ` অকনমান টাই
উলিযাই দিযকচোন - '</p>

<p>` কি করিব খুজিছা ? ইযাক
কি করা ? '</p>

<p>` আমার বাছতে ইযাক লৈ
য়াওঁ । তার ককালেই ভাগিছেনেকি ।
মেডিকেল কলেজত দেখু঵ালেগৈ ডাক্তরে
ভাল করিব পারিব । নহ'লে ইযাতে
পরি মরি থাকিব । অকণমান ধরি
দিযকচোন , তাক ভিতরত বহু঵াই দিও ।</p>

<p>কোনো঵ে প্রতিবাদ করিবর
সাহস নকরিলে । দুজন য়াত্রী আগ~
বাঢ়ি আহি ধরি সহায করি দিলে ,
আরু তাক বাছর ভিতরলৈ উঠালে ।
কণা বুঢ়ার গোটেই গাত বোকাপানী
লাগি একাকার হৈছে । তাক বেঞ্চ
এখনর তলতে বহু঵াই দি , ড্রাইভারে
ক'লে , ` আপোনালোকে ইযাক অলপ
চাব দেই । পরি য়াব পারে । '</p>

<p>দেখিলোঁ ড্রাইভারর কামিজ
পেণ্ট জোতা সকলোতে বোকাপানীর
লেতেরা দাগ ।</p>

<p>হেচাঠেলা করি বাছর সকলো
য়াত্রী আকৌ বাছত উঠিল । মযো
উঠিলোঁ ।</p>

<p>কণ্ডাক্টরে এনেযে এবার চিঞ~
রিলে , ` সকলো উঠিলনে ? ' তার পিছত
ক'লে , ` য়াবলৈ দিযক । '</p>

<p>হাতর বোকাপানীবোর নিজর
পিন্ধি থকা পেণ্টটোর টিকাত মোহারি
ড্রাইভার বাছত উটি নিজর চিটত
বহিল , আরু গাড়ী ষ্টার্ট দিলে । এনেযে
থিয হব'লৈ অকণো ঠাই নোহো঵া বাছ
খনর ভিতরত এতিযা বোকাপানীত
লেটিপেটি অন্ধ আরু খোরা এটা একষ্ট্রা
পেচেঞ্জার , ওপরঞ্চি য়াত্রী । '</p>

<p>কি য়ে বিড়ম্বনা পইচা দিও
জেনুইন পেচেঞ্জার অকনো শাস্তিরে
য়া঵লৈ নাপায । নুইচেন্স - ' বাছর ভিত~
রর কোনো঵া এজনে ভোর ভোরালে ।</p>

<p>আমার আত্রাকপর সদস্য়
এজনেও বিরক্তিরে মন্তব্য় করিলে , ` এই
কণা খোরা আবর্জনাবোরেই আমার
সকলো কামত সদায বাধা জন্মায ।
এই মানুহ মরা র'দত ইযে আমার
আধা ঘণ্টাতকৈ বেছি সময নষ্ট করিলে ।
ছি : । //
অসমীযা সংস্কৃতির উল্লেখিত
বিকাশয়োগ্য় ধারাটোকে দ্঵িধাহীনভা঵ে
আজি রাজঘর-প্রজাঘর উভযেই স্঵ীকৃতি
দিযা পরিলক্ষিত হৈছে । কিন্তু এই
স্঵ীকৃতির মাজতো গ্রহণ বর্জনর এটা
দিশ প্রকট হৈ আছে । এই ক্ষেত্রত
আমি সমাজত দুটা শিবির দেখিবলৈ
পাইছোঁ । এটাই শ্রামন্ত শংকরদে঵ ,
জ্য়োতি বিষ্ণুর সংস্কৃতি চর্চাক তেওঁলো~
কর জন্মগত সৃজনীশীল প্রতিভাসম্ভুত
বুলি এক বিমূর্ত রূপ দিবলৈ য়ত্নপর
হয । সেযা য়ে এক সাংস্কৃতিক ধারাহে
আরু এই ধারাটোক সাংস্কৃতিক ওজা
কেইজনে সচেতনভা঵ে জাঁজী আঁত
রাই বো঵াই দিবলৈ পুরুষার্থ করিছিল
সেই কথা এই শিবিরে মানি ল'ব
নোখোজে । মানি ল'ব নোখোজে
য়ে শ্রীমন্ত শংকর , জ্য়োতিপ্রসাদ ,
বিষ্ণুরাভা সমসামযিক সামাজিক পরি
স্থিতি তথা সমসামযিক সমাজর জন
সাধারণেই সৃষ্টি । তেওঁলোকে রাজ~
নৈতিক ভা঵েই সমসামযিক সমাজর
ক্ষমতাশালী শাসকশ্রেণীর রোষত পরি~
ছিল বা রজাঘরর বিপক্ষে সংগ্রামত
অ঵তীর্ণ হৈছিল । তেওঁলোকর এই জন
রাজনৈতিক চিন্তা-চর্চা আরু কার্য়-কলাপে
তেওংলোকর সৃজনী প্রতিভার বিকাশক
বাধাহে দিছিল বুলি এই শিবিরে ক'বলৈ
বিচারে । আনটো শিবিরে এই শিবি~
রর বিপরীতে এই কথাহে কয য়ে
শ্রীমন্ত শংকরদে঵ জ্য়োতি-বিষ্ণুর সাংস্কৃ~
তিক চিন্তা আরু কার্য়্য়কলাপত প্রত্য়ক্ষ
ভা঵ে জড়িত হৈ আছিল সমসামযিক
সামাজিক পরিস্থিতির প্রযোজন-সাপেক্ষ
জনরাজনৈতিক চিন্তা-চর্চা আরু কাম
কাজ আারু প্রজাসাধারণর পক্ষর রাজ~
নীতি-জড়িত সংস্কৃতির পোষকতা করি~
ছিল বাবেই তেওঁলোকে বিকাস করি
য়ো঵া সাংস্কৃতিক ধারাটো঵েই য়থার্থ
জনসাংস্কৃতিক ধারা । দুই শিবিরর
দৃষ্টিভংগীর মৌলিক প্রশ্নটো হ'ল ` রাজ~
নীতির ' প্রশ্ন । অর্থাত্ সংস্কৃতির মান
নির্ণযত ` রাজনীতিযেই হ'ল মৌলিক
প্রশ্ন ।</p>

<p>সংস্কৃতির মাজেদিযেই মানুহর
সামুহিক আকাংশার প্রতিফলন ঘটে ।
মানুহর সামূহিক আকাংশাই রূপ লয
সমাজর অর্থনৈতিক , রাজনৈতিক ভেঁটি~
তেই । সমাজর সমগ্র চিন্তা আরু
আকাংশার মাজত সমসামরিক সামাজিক
সমস্য়াক নেওচি য়ো঵ার , রূপান্তরর
আকাংশাও থাকে । এই আকাংসাক
চরিতার্থ করিবলৈ য়ো঵ার পথত দেখা
দিযা বাধা বিপত্তিক মষিমূর করিবলৈ
সমাজর এটা অংশর সদাযেই প্রচেষ্টা
থাকে । এই অংশটো঵েই সমাজর
অগ্রণী অংশ আরু সমাজর এই অগ্রণী
অংশক চিহ্নিত করি রূপান্তরর আকাং~
খাক আগবঢ়াই লৈ য়ো঵াত সংস্কৃতিযে
সহায করে । সংস্কৃতির সাজেদিযেই
সমাজর অগ্রণী অংশর এই রূপান্তরর
আকাংশাক তুলি ধরা হয । গতিকেই
সমসামযিক সমাজর সমস্য়াক চিহ্নিত
করি নির্দিষ্টভা঵ে রূপান্তরর আকাংশাক
বাস্তবাযিত করার পথ দেখু঵াই দিযাই
অগ্রণী সাংস্কৃতিক কর্মীর সমযর কর্তব্য় ।
সমাজর নির্দিষ্ট সমযর অগ্রণী চিন্তা
আরু আকাংশার প্রতিফলন সেইসমযর
সাংস্কৃতিক জগতর য়িটো নির্দিষ্ট ধারার
মাজেদি ঘটিব - সেই ধারণাটো঵ে হব
সেই সমযর সংস্কৃতির উচ্চতম মান ।</p>

<p>সমাজর শাসন আরু ক্ষমতার
বাঘজরী য়ার হাতত , সেই শক্তিটো
আরু খাটিখো঵া সম্পদ-স্ত্রষ্টা রাইজ-
এই মৌলিক দুটা ভাগত য়দি সমাজ
খনক বিভক্ত করা হয , তেনেহ'লে
সংস্কৃতিরো দুটা ভাগ ফটফটীযা হৈ
পরিব । এটা রাজঘরীযা আরু আনটো
প্রজাসাধারণর সংস্কৃতি । প্রজাসাধার~
ণর সংস্কৃতিযে স্঵াভা঵িকভা঵েই পরি
বর্তিত সমাজর লগত খোজ মিলাই
সদায মূকলিমূরীযা হ'বলৈ , জী঵ন আরু
জী঵িকাক অধিক নিরাপদ আরু সহজ
করিবলৈ সংগ্রাম করি আহিছে আরু
রাজঘরীযা সংস্কৃতিযে প্রজাসাধারণর
সংস্কৃতির এই সংগ্রামী প্র঵নতাক
হেঁচি রাখিবলৈ বিভিন্ন কৌশলেরে
প্রচেষ্টা চলাই আহিছে । এই রজা
ঘরীযা সংস্কৃতিকেই জ্য়োতিপ্রসাদে
বুলিছিল ` দুস্কৃতি ' ।</p>

<p>কোনো এক জনগোষ্ঠির সং~
স্কৃতিত তেওঁলোকর সমাজর বি঵র্তনর
বিভিন্ন স্তরর চিন থাকি য়ায । প্রজা
সাধারণর মুরলিমূরীযা সংগ্রামী চেত~
নার প্রকাশ আরু শাসকশ্রেণীযে প্রজা
সাধারণর সংগ্রামী চেতনাক স্তিমিত
করিবলৈ তেওঁলোকর সংস্কৃতিত অনু
প্র঵েশ ঘটো঵া হতাশাগ্রস্ত সাংস্কৃতিক
রূপর প্রকাশ - এই দুযোটাই জনসাধা
রণর সংস্কৃতিত পরস্পরাগতভা঵ে
আছে । রাজঘরীযা বা শাসকশ্রেণীর
প্রভা঵ত গঢ় লৈ উঠা জী঵ন-বিমুখ সং~
স্কৃতির ধারাটোক বাদ দিলে প্রজা
সাধারণর সংস্কৃতিত স্঵ত:স্ফুর্ততার প্র঵~
ণতাই অধিক । কিন্তু এই স্঵ত:স্পুর্ত
তার মাজতো সংগ্রামী বা প্রতিবাদী
গণতান্ত্রিক ধারটো সদায প্রবাহমান ।
এই ধারাটোক সচেতনভা঵ে খামুচি
ধরি কালসাপেক্ষ রূপত সমসামযিক
সমাজর তাগিদা আরু প্রযোজন অনু~
সরি গঢ় দিব পরাটোহে ঘাই কথা ।
সেযে হ'লে জনসংস্কৃতিক গতিশীল
করি তুলি সামাজিক পরিবর্তণক
খরতকীযা করাত ইযাক চোকা অস্ত্র
হিচাপে ব্য়঵হার করিব পরা হব ।
কিন্তু এই কামর বাবে সচেতন সাংস্কৃতিক
কর্মীসকলে সংস্কৃতি রূপ আরু গুণ
দুযোটাকে এই য়ুগর সবাতকৈ উন্নত
স্তরলৈ উন্নীত করিব লাগিব ।</p>

<p>মান঵ সমাজর বিভিন্ন জাতি
সত্঵ার বিকাশর বিভিন্ন স্তর-রূপ আরু
গুণগত দুযোটা দিশত ভিন্ ভিন্ ।
নির্দিষ্ট রূপর বিকাশ নোহো঵াটো঵ে
য়েনেকৈ সাংস্কৃতিক পশ্চাদ পদতাক
সুচায , সেইদরে গুণগত দিশর বিকাশ
নোহো঵াটো঵েও সাংস্কৃতিক পশ্চাদপদ
তাকেই সুচায । গতিকেই সচেতন
প্রচেষ্টারে রূপ আরু গুণ উভযরে
বিকাশ ঘটো঵াটো প্রযোজনীয কথা ।
আজির য়ুগাসংগামী প্রতিজন সাংস্কৃতিক
কর্মীযেই এই সচেতন ভূমিকা গ্রহণ
করিব লাগিব এই ক্ষেত্রত তেওঁ
লোকর দৃষ্টি থাকিব জাতীয সংস্কৃতিক
এই য়ুগর সবাটোকৈ উন্নত রুপ আরু
গুণগত মানেরে স্঵াধীনতাকামী প্রজা
সাধারণর আকাংক্ষাক প্রকাশ করিব
পরা আরু বাট দেখু঵াই লৈ য়াব পরা
শক্তি দানকরা । ফরাচী জাতীর সামা~
জিক জী঵ন আলোড়িত করা ফরাচী
বিপ্ল঵ আছিল দেশর খাটিখো঵া প্রজা
সাধারণর দাসত্঵র বান্ধোন চিঙি মুক্ত
হো঵ার সংগ্রামী চেতনারেই প্রকাশ ।
সেযা আছিল তেতিযার ফরাচী দেশর
অর্থনীতি রাজনীতির স্঵াভা঵িক পরি~
ণতি । ফরাচী প্রজাসাধারণর সংস্কৃ~
তিলৈ বিপ্ল঵ে কঢ়িযাই অনা পরিবর্তনো
লক্ষণীয । ফরাচী বিপ্ল঵ক আগু঵াই
নিযাত সংগ্রামী সংস্কৃতিযে য়েনেদরে
গুরুত্঵পূর্ণ ভূমিকা লৈছিল , একেদরে
বিপ্ল঵েও সংস্কৃতিক প্রভা঵িত করি~
ছিল । বিপ্ল঵র জন্মর আগতেই ফরাচী
গীতত রুপ আরু গুণগত দিশর উল্লেখ
য়োগ্য় বিকাশ ঘটিছিল । গুণগত দিশত
সংগ্রামী মর্মবস্তু঵ে গীতক শক্তিশালী
করার লগতে নতুন মর্মবস্তুর লগত
খাপ খো঵া নতুন রূপর জন্ম পাইছিল ।
ফরাচী বিপ্ল঵ক সম্ভ঵ করি তোলাত
রাজনৈতিক দর্শন আরু সংগ্রামী সং~
স্কৃতি - উভযে সমানে ক্রিযা করিছিল ।
সাম্য় , মৈত্রী , স্঵াধীনতা - রাজনৈতিক</p>

<p>
আরু সাংস্কৃতিক জী঵ন উভযেরেই সার
বস্তু আছিল । ভারতর সাম্রাজ্য়বাদ
বিরোধী সংগ্রামে ভারতর অর্থনৈতিক
ারু রাজনৈতিক ক্ষেত্রর আমুল পরি
বর্তন ঘটাব নো঵ারিলেও , ভারতীয
সংস্কৃতির সংগ্রামী ধারাটোক সচেতন
ভা঵ে আগু঵াই নি সংগ্রামকেই সহায
করাত অগ্রণী সাংস্কৃতিক সর্মীসকল
সফল হৈছিল । সাংস্কৃতিক কর্মীসকল
সফল হৈছিল । সমসামযিক সামাজিক
প্রযোজনর দাবী সাধারণ প্রজার মুক্তি
আকাংক্ষা য়েতিযা সংস্কৃতির মর্মবস্তু হৈ
প্রকাশ পালে রূপ বা আংগিকর
ক্ষেত্রতো ভারতীয সংস্কৃতিযে সাম্রাজ্য়র
বিরোধী সংগ্রামর সমযত বিকাশ লাভ
করিলে । পশ্চিমর উন্নততর আধুনিক
সংস্কৃতি আরু থলু঵া লোক আরু
ধ্রুপদী সংস্কৃতির সমম্বযত নতুন দিনর
সংস্কৃতির রুপ গঢ়লৈ উঠিল । রবীন্দ্র
নাথ , নজরুল , দ্঵িজেন্দ্র লাল , ইকবাল ,
বংকিমচন্দ্র আদির আধুনিক সংগ্রামী
গীতবোরে ভারতীয জনমানক আলো~
ড়িত করি সংগ্রামক তীব্রতর করাত
সহায করিছিল । বহুক্ষেত্রত উন্নত মর্ম~
বস্তু঵ে পুরণি রূপর আধারতেই নতুন
সংস্কৃতি গঢ়ি তোলাত অরিহণা য়োগা~
ইছিল । জ্য়োতি-বিষ্ণু঵ে নতুন য়ুগর
সংগ্রামী মর্মবস্তুক পুরণি বা ইতিমধ্য়ে
থকা আইনাম , বিযানাম , ধাইনাম
আদির থলু঵া রূপর লগত সমম্বয করি
কে঵ল মর্মবস্তুর নতুনত্঵রেই নহয রূপকো
নতুন সাঁচ দি সাংস্কৃতিক বৈপ্ল঵িক
পরিবর্ত঵ সাধন করিছিল ।
 +&gt;*
",0
</p></body></text></cesDoc>