<cesDoc id="asm-w-science-maths-ama01" lang="asm">
<cesHeader type="text">
<fileDesc>
<titleStmt>
<h.title>asm-w-science-maths-ama01.txt</h.title>
<respStmt>
<respType>Electronic file created by</respType>
<respName>Central Institute for Indian Languages, Mysore</respName>
<respType>transferred into Unicode and CES format by</respType>
<respName>"Unicodify" software by Andrew Hardie</respName>
</respStmt></titleStmt>
<publicationStmt>
<distributor>UCREL (on behalf of CIIL)</distributor>
<pubAddress>Department of Linguistics, Lancaster University, Lancaster, LA1 4YT, UK</pubAddress>
<availability region="WORLD"></availability>
<pubDate>03-07-21</pubDate>
</publicationStmt>
<sourceDesc>
<biblStruct>
<monogr>
<h.title>জিলি'নি.</h.title>
<h.author>দিন্ত.শ</h.author>
<imprint>
<pubPlace>India</pubPlace>
<publisher>Unknown - Magaz</publisher>
<pubDate>1983</pubDate>
</imprint>
<idno type="CIIL code">ama01</idno>
</monogr></biblStruct></sourceDesc></fileDesc>
<encodingDesc>
<projectDesc>Text collected for the CIIL Corpus, subsequently integrated into the EMILLE/CIIL Monolingual Written Corpora.</projectDesc>
<samplingDesc>Simple written text only has been transcribed. Diagrams, pictures and tables have been omitted. Sampling begins at page 0423.</samplingDesc>
<editorialDecl><conformance level="1"></conformance></editorialDecl>
</encodingDesc>
<profileDesc>
<creation><date>03-07-21</date></creation>
<langUsage>Assamese</langUsage>
<wsdUsage>
<writingSystem id="ISO/IEC 10646">Universal Multiple-Octet Coded Character Set (UCS).</writingSystem>
</wsdUsage>
<textClass>
<channel mode="w">print</channel>
<constitution type="composite"></constitution>
<domain type="public"></domain>
<factuality type="fact"></factuality>
</textClass>
<translations></translations>
</profileDesc>
<revisionDesc></revisionDesc>
</cesHeader>

<text><body>

<p>গণিত সংঘর প্রথম বার্ষিক অধি঵েশণ ।
ল, সা, গু - পরম শ্রদ্ধাভাজন রাইজ ,
আজি আমি কার্য়্য়সূচী অনুসরি সভার কাম
আরম্ভ করিবলৈ লৈছোঁ । আজি আমার পরম
সৌভাগ্য়র দিন এই কারণেই য়ে এই মুকলি
সভার পৌরোহিত্য় করিবলৈ পরম শ্রদ্ধাভাজন ,
স্঵নামধন্য় শ্রীয়ুত বহুভুজ ডাঙরীযা আমার মাজত
উপস্থিত হৈছেহি । আমি তেখতক আমার মাজত
পাই পরম ধন্য় মানিছোঁ । এতিযা মই আনু~
ষ্ঠানিকভা঵ে প্রস্তা঵ আগ বঢ়াইছো তেখেতে য়েন
আজির সভার সভাপতির আসন গ্রহণ করি
সভার কাম সুকলমে চলাই নিযে ।</p>

<p>গ, সা, গু - গণিত সংঘর সম্পাদক শ্রীয়ুত
ল, সা, গু ডাঙরীযাই করা প্রস্তা঵টি মই অতি
সাদরেরে সমর্থন জনাইছো , ধআরু মাননীয বহুভুজ
ডাঙরীযাক আসন গ্রহণ করিবলৈ অনুরোধ
জনালোঁ ।</p>

<p>বহুভুজ - মোর জন্ম জন্মান্তরর সে঵ার স্থলী
রাইজ , আপোনাসকলর এই বার্ষিক অধি঵েশণত
মোক সভাপতিত্঵র ভার দিযা বাবে আপোনা~
সকলর ওচরত পরম কৃতজ্ঞ , আপোনাস঵র চরণ
ধূলি শিরত তুলি লৈ মই সভার কাম আরম্ভ করি~
বলৈ ওলাইছো , আশাকরো আপোনালোকে মোক
সহয়োগ আগ বঢ়াব ।</p>

<p>চিরাচরিত নিযম অনুসরি সভার আরম্ভণিতে
এটি শোক প্রস্তা঵ লো঵া হৈছে । শোক প্রস্তা~
঵টি পাঠ করার আগেযে মৃতকর এটি চমু পরিচয
দিব বিচারিছোঁ । আগেযে গণিতত ( পাটীগণিতত )
সাংকেতিক নামর এটি নিযম আছিল , সেই নিযমেরেশ
ভাগ ভাগ করি কোনো বস্তুর মূল্য় সহজতে
উলিযাব পরি গৈছিল । সেইটি এটি অতি সহজ
পদ্ধতি আছিল ; কিন্তু আজির পাঠ্য়ক্রমত সেই
নিযম নাই । সেইদরে ত্রৈরাশিক	 , ঐকিক আদি
সহজ নিযম আছিল । সেইসকল বহু আগতে
মৃত্য়ুর মুখত পরিছে । সেইসকলর আত্মার
সদগতির অর্থে শোক প্রস্তা঵টি লো঵া হৈছে ।
এতিযা মই প্রস্তা঵টি পাঠ করি শুনাইছোঁ ।</p>

<p>শোক প্রস্তা঵ - আজির সভাই গণিত জগতর
বিশিষ্ট ব্য়ক্তি ` সাংকেতিক ' , ` ত্রৈরাশিক ' , আরু
` বস্তুর সাল-সলনি ' আদির মৃত্য়ুত গভীর শোক
প্রকাশ করে আরু মৃতকর আত্মার সদগতির
অর্থে ভগ঵ানর ওচরত প্রার্থনা জনায আরু শোক
সন্তপ্ত পরিযাললৈ সমবেদনা জ্ঞাপন করে ।	</p>

<p>এতিযা এক মিনিট সময মৌন প্রার্থনা জনা~
বলৈ রাইজক অনুরোধ জনো঵া হ'ল ।</p>

<p>সভাপতি - ইযার পাছর বিষয হৈছে সম্পা~
দকীয প্রতিবেদন । প্রতিবেদন পাঠ করিব সম্পাদক
ডাঙরীযাই ।</p>

<p>ল, সা, গু - শ্রদ্ধেয সভাপতি মহোদয আরু
উপস্থিত সুধীবৃন্দ , মই এতিযা এই সম্পাদকর
কালছো঵ার কার্য়্য় বি঵রণী থুলমূল হিচাপে দাঙি
ধরিছোঁ । এই সম্পাদকে কার্য়্য়ভার গ্রহণ করার
পিছতে আমার গণিতর বর্ত্তমান অ঵স্থা , উন্নতি-
অ঵নতি আদি বিশদভা঵ে অধ্য়যন করিবলৈ এখনি
উপ সমিতি	 গঠন করি দিযা হৈছিল । সেই উপ
সমিতিযে অতি দক্ষতারে আরু অতি কম সমযর
ভিতরতে প্রতিবেদন দাখিল করার বাবে সমিতির
সভ্য়সকলর ধন্য়বাদর পাত্র । সেই উপ সমিতিক
বিশেষকৈ	 তিনিটা দিশর ওপরত অধ্য়যন করিবলৈ
দিযা হৈছিল । সেই দিশ কেইটা হৈছে - য়ো঵া
দশকটোর ভিতরত অর্থাত্্ 1973 চনর পরা
অঙ্ক শাস্ত্রর নতুন পাঠ্য়ক্রম প্রবর্ত্তন করা সমযরে
পরা গণিতর ( পাটীগণিত ) র (1) কি কি অংশ
বিলুপ্তি সাধন করা হৈছে (2) কি কি অংশ সংশোধিত
আকারত গ্রহণ করা হৈছে আরু (3) কি কি
অংশ আধুনিকীকরণ করা হৈছে । উপ সমিতিযে
এই সকলোবোর কথা পুংখানুপুংখরূপে আলোচনা
করি প্রতিবেদন দাখিল করিছে ।</p>

<p>বিলুপ্তি সাধন করা অংশ কেইটার বাবে সভার
আরম্ভণিতে শোক প্রস্তা঵ গ্রহণ করা হৈছে ।
আধুনিকীকরণ করা অংশ	 কেইটার ভিতরত
সুতকচা , ( সরল আরু চক্রবৃদ্ধি ) মাটির কালি ,
কাম আরু সমযর প্রশ্ন ইত্য়াদিবিলাকত আগর
ঐকিক নিযমর সলনি সূত্র প্রযোগ করা হৈছে ।</p>

<p>সভাপতি - রাইজসকল , ইমানপরে আপো~
লোকে সম্পাদকর দীঘলীযা প্রতিবেদন শুনিলে ।
কার্য়্য়ক্রমর এইবারর বিষয হৈছে নির্দ্দিষ্ট বক্তার
বক্তব্য় । আপোনালোকে নিশ্চয দেখা পাইছে আমার
মাজলৈ স্঵নামধন্য় মনীষীস্঵রূপ মাননীয শ্রীয়ুত
সমীকরণ ডাঙরীযা আহি আছে । তেখেতক আমার
মাজত পাই পরম ধন্য় মানিছোঁ , আরু এইবার
তেখেতর বহুমূলীযা বক্তব্য় রাইজর আগত দাঙি
ধরিবলৈ অনুরোধ জনালোঁ ।</p>

<p>সমীকরণ - পরম শ্রদ্ধাভাজন	 রাইজ , আপো~
নাস঵র মরম আদর উপেক্ষা করিব নো঵ারি
মই এই সভাত উপস্থিত হৈছোহি । আশা
করো আপোনালোকে কিছু ধৈর্য়্য়রে শুনি মোক
সহয়োগ করিব । রাইজসকল , আপোনালোকে
জানে ভারতবর্ষ এখন গণিতর দেশ । স্মরণাতীত
কালর পরাই ভারতত গণিত চর্চ্চা হৈ আহিছে ।
আরু ভারতীয গণিতেই পৃথি঵ীর সভ্য়তার
ক্ষেত্রত অতি উল্লেখয়োগ্য় বরঙণি আগবঢ়াই
আহিছে । আমার এই ভারততে আর্য়্য়ভট্ট ,
বরাহমিত্র , ব্রহ্মগুপ্ত আদি মনীষীসকলে জন্ম গ্রহণ
করি ভারত ভূমি পুণ্য় করি থৈ গৈছে । কে঵ল
পুরুষেই নহয লীলা঵তী , গার্গী , মৈত্রেযী আদি
মহিলা গণিতজ্ঞানই ভারতর গণিত জগতত উল্লে~
খণীয বরঙণি দি গৈছে । সেই মনীষীসকলে গঢ়ি
দি য়ো঵া বুনিযাদর ওপরত ভিত্তি করিযেই
আজিও ভারতীযসকলর দেশে বিদেশে গণিতর
জনপ্রিযতা বর্ত্তি আছে । বর্ত্তমান য়ুগতো ভার~
তীযসকল পৃথি঵ীর অন্য়ান্য় দেশর তুলনাত
গণিত চর্চ্চাত আগবঢ়া আরু সেই পরম্পরা
চির প্রবাহিত হৈ থাকিব । ভারতীযসকল
মুখে মুখে অঙ্ক করিব পরা গুণর কারণে বিদেশত
খ্য়াতি আছে । সৌ সিদিনার এটা ঘটনা উল্লেভখ
করিলে অপ্রাসঙ্গিক নহব । আমেরিকার
প্রখ্য়াত প্রতিষ্ঠান এটাত গণিতর এটা সমস্য়া
উদ্ভ঵ হো঵াত মূর঵ী গরাকী সমস্য়াটো সমাধানর
বাবে কম্পিউটার মেচিনর ওচরলৈ য়াবলৈ প্রস্তুত
হৈছিল মাত্র , তেনেতে তেওঁর ভারতীয তলতীযা
কর্ম্মচারী গরাকীযে মুখে মুখে উলিযাই দিলে ,
পাছত কম্পিউতারেও একে উত্তরেই দিলে । সেই
কার্য়্য়র বাবে মূরব্বী গরাকীযে আশ্চর্য়্য় প্রকাশ
করাতে ক্ষান্ত নেথাকি চাকরীর পদোন্নতিযো
দিযালে । ভারতবর্ষর মাদ্রাজর শকুন্তলা
বর্ত্তমান জগতর এটি গাণিতিক বিস্ময , য়াক অত্য়া~
ধুনিক কম্পিউটার মেচিনে কেতিযাও পরাজিত
করিব পরা নাই । অ঵শ্য়ে এই রহস্য়র অন্য়তম
কারণ হৈছে ভারতীযসকলর গণিত চর্চ্চার নিজস্঵
পদ্ধতি । এই পদ্ধতিসমূহ কিমানদূর বিজ্ঞানসন্মত
আরু সহজ সেই কথা এটা উদাহরণতেই প্রতীয~
মান হব পারি । প্রচলিত	 পদ্ধতিমতে	 পূরণর
দুই , তিনি	 বা ততোধিক অঙ্কয়ুক্ত সংখ্য়া পূরণ
করিবলৈ কেইবা শারীও করিব লগা হয । কিন্তু
বৈদিক অঙ্কশাস্ত্রত সেইবোর য়িমান ডাঙর অঙ্কয়ুক্ত
সংখ্য়া হওক কিয দুশারীত পুরণ করিব পারি । য়েনে	
এনেদরে ৃয়িকোনো ডাঙর ডাঙর পুরণর কাম
` উর্দ্ধ঵ তীর্য়্য়ভ্য়াস ' অর্থাত্্ উলম্ব আরু কোণীযা~
কোণী পদ্ধতিরে সমাধান করা বেদর অঙ্কশাস্ত্রর
এটা সূত্র । পুরণ করা পদ্ধতিটো কঠিন নহয ;
কিন্তু বর্ণানাটো	 দীঘলীযা হো঵ার বাবে দিযা নহল ।
অ঵শ্য়ে কোনোবা উত্্সাহী বা আগ্রহী লোকে
জানিবলৈ ইচ্ছা প্রকাশ করিলে ` জিলিকনি ' যে
নিশ্চয সহায করিব ।</p>

<p>সভাপতি - রাইজসকল , নির্দ্দিষ্ট বক্তা সমী~
করণদে঵র সারগর্ভ আরু পাণ্ডিত্য়পূর্ণ বক্তৃতা
শুনিলে , এইবার রাইজর মাজর পরা দুআষার
অতি চমুকৈ কবলৈ অনুরোধ জনো঵া হ'ল ।</p>

<p>ভগ্নাংশ - শ্রদ্ধেয সভাপতি মহোদয , উপস্থিত
রাইজ , শ্রদ্ধাষ্পদ সমীকরণ ডাঙরীযার প্রাঞ্জল
বক্তৃতার পাছত আমার কবলগীযা বিশেষ একো
নাই ; কিন্তু ভারতীয গণিতর ইমান সোণালী
অধ্য়ায থকার পাছতো	 আমি কিয দিনে দিনে
বিজতরীযা হৈ য়াব ধরিছো , এইটোহে চিন্তার
বিষয হৈছে । আজি আমি নিজর ভরিত ঠিয
দিব নো঵ারি পরমুখাপেক্ষী হৈ পরিছো , কিযনোশ
আমার পাটীগণিতীয বহুতো পদ্ধতির ঠাইত বীজগ~
ণিতে অধিকার করিছে ।	 অতি প্রভা঵শালী , প্রতি~
ভাশালী বীজগণিতর ক঵লত পরা আমার নিজস্঵
সকলো পরিহার করিব লগা অ঵স্থা হৈছে আরু
এইদরে হলে আমি	 একে঵ারে নিচিহ্ন হৈ য়ো঵ার
সম্ভা঵না আছে । সরল সুত , চক্রবৃদ্ধি
সুত উলিও঵া আদি বহুতো পদ্ধতি পাটীগণিতর
ঠাইত বীজগণিতর পদ্ধতি ব্য়঵হার হব ধরিছে ,
আনকি আমার স্঵যং সম্পাদক ডাঙরীযাও এই
ক঵লর পরা মুক্তি পো঵া নাই , কিযনো আজি
কালি সংহতি প্রযোগ করিযো ল, সা, গু উলি~
যাব ধরিছে । এই ক্ষেত্রত আমাতকৈ লোকচান
হৈছে শিক্ষার্থীর বেছি ; কিযনো পাটীগণিতীয
পদ্ধতিত য়ি খরচী মারি জানিব লাগে বীজগণি~
তীয পদ্ধতিত কে঵ল য়ান্ত্রিক পদ্ধতিরে বহুক্ষেত্রত
নুবুজাকৈযে উত্তর করিব পারি । এই পরিপ্রে~
ক্ষিতত মই আজি দাবী জনাব খোজো য়ে
আমার নিজর নিযম সম্পূর্ণ বাহাল রাখিব লাগে ।</p>

<p>সভাপতি - ইযার পাছর বিষয হৈছে সভা~
পতির মন্তব্য় । জয জযতে আজি মোক এই
সভার সভাপতিত্঵র দাযিত্঵ পালন করার য়ি
সুবিধা দিলে তার বাবে উদ্য়োক্তসকলক ধন্য়বাদ
জ্ঞাপন করিলোঁ । আপোনালোকর অভা঵ অভি~
য়োগসমূহ জানিব পারি সুখী হলো । আজি
আমি এটা কারণে সুখী হৈছো । য়ে সমগ্র গণিত
শাস্ত্রর বহুতো উন্নতি হৈছে । বহুতরে ধারণা
য়ে গণিত এটি স্থবির বিষয হৈ পরিছে আরু
য়িমান উন্নতি হ'ল তার পরা আরু উন্নতির
থল নাই ; কিন্তু সেইটো এটা ভুল ধারণা ।
অন্য়ান্য় বিষয বিলাকর দরে গণিতরো প্রচুর
উন্নতি হব ধরিছে । য়ো঵া দশকটোর ভিতরতে
বহুতো নতুন নতুন থিওরি আবিষ্কার হৈছে । সেই
সকলোবোর কথার প্রতি লক্ষ্য় রাখি পাটীগণিত ,
বীজগণিত , জ্য়ামিতি আদির ব্য়ক্তিগত স্঵ার্থ পরি~
হার করি সকলো঵ে সকলো ক্ষেত্রত সহয়োগিতা
আগবঢ়াই আমার জাতিটোক আরু উন্নতির পথলৈ
লৈ য়াবলৈ চেষ্টা করিব লাগে । আমার স্কুলীযা
গণিততো য়ে উন্নতি নাই হো঵া এনে কথা
নহয । আগেযে স্কুলীযা গণিতত পরিসখ্য়া ,
ত্রিকোণমিতি আদি নাছিল । স্থানাঙ্কা জ্য়ামিতি
দিযা হৈছেহে । সংহতি আছিল এম, এছ, চি
ক্লাছতহে ; কিন্তু আজি কালি অষ্টম মানতে বা
তারো আগরে পরা শিকো঵া হয । আমার গণিত
শাস্ত্রর উন্নতির লগত ফের মারিব নো঵ারি বেছি~
ভাগ অভিভা঵ক বিমোরত পরিছে । তেখেতসকলর
বহুতরে বক্তব্য় য়ে আজি কালি অঙ্কবোর একে~
বারে বেলেগ হ'ল , আমি একো বুজিযেই নেপাওঁ ।
সেযে কৈছো আমি য়থেষ্ট	 আগবাঢ়ি	 গৈছোঁ ।
অন্য়ান্য় উন্নত দেশসমূহর দরে স্কুলীয পাঠ্য়ক্রমর
ভিতরতে কেলকুলাচ , মেকানিকচ্্ , আদিযো এটা
সমযত ধআমার স্কুলীযা পাঠ্য়ক্রমর ভিতরু঵া হবলৈ
বর বেছি বছর অপেক্ষা করিব নেলাগিব ।</p>

<p>সভাপতির মন্তব্য়র পাছতে সভা ভঙ্গ হয ।
উক্ত সভাত প্রতিনিধি হিচাপে আমার স্কুলর
গণিত শিক্ষক শ্রদ্ধেয শ্রীয়ুত ভরত শইকীযা দে঵
উপস্থিত আছিল । সভার হুবহু বর্ণনা য়ুগুতাই
আনি আমাক দিযা বাবে তেখেতক ধন্য়বাদ
জ্ঞাপন করিলোঁ ।
</p></body></text></cesDoc>