<cesDoc id="asm-w-media-nmm165" lang="asm">
<cesHeader type="text">
<fileDesc>
<titleStmt>
<h.title>asm-w-media-nmm165.txt</h.title>
<respStmt>
<respType>Electronic file created by</respType>
<respName>Central Institute for Indian Languages, Mysore</respName>
<respType>transferred into Unicode and CES format by</respType>
<respName>"Unicodify" software by Andrew Hardie</respName>
</respStmt></titleStmt>
<publicationStmt>
<distributor>UCREL (on behalf of CIIL)</distributor>
<pubAddress>Department of Linguistics, Lancaster University, Lancaster, LA1 4YT, UK</pubAddress>
<availability region="WORLD"></availability>
<pubDate>03-07-21</pubDate>
</publicationStmt>
<sourceDesc>
<biblStruct>
<monogr>
<h.title>প্রপ্রকাশ</h.title>
<h.author>বীরেন্দ্</h.author>
<imprint>
<pubPlace>India</pubPlace>
<publisher>Unknown - Magaz</publisher>
<pubDate>1988</pubDate>
</imprint>
<idno type="CIIL code">nmm165</idno>
</monogr></biblStruct></sourceDesc></fileDesc>
<encodingDesc>
<projectDesc>Text collected for the CIIL Corpus, subsequently integrated into the EMILLE/CIIL Monolingual Written Corpora.</projectDesc>
<samplingDesc>Simple written text only has been transcribed. Diagrams, pictures and tables have been omitted. Sampling begins at page 0050.</samplingDesc>
<editorialDecl><conformance level="1"></conformance></editorialDecl>
</encodingDesc>
<profileDesc>
<creation><date>03-07-21</date></creation>
<langUsage>Assamese</langUsage>
<wsdUsage>
<writingSystem id="ISO/IEC 10646">Universal Multiple-Octet Coded Character Set (UCS).</writingSystem>
</wsdUsage>
<textClass>
<channel mode="w">print</channel>
<constitution type="composite"></constitution>
<domain type="public"></domain>
<factuality type="fact"></factuality>
</textClass>
<translations></translations>
</profileDesc>
<revisionDesc></revisionDesc>
</cesHeader>

<text><body>

<p>প্ররাশ ( বীরেন্দ্র কুমার ভট্টাচার্য়্য় )
ওজাপালি পরি঵েশন করার পাছত পরি঵েশন
করা হ	'ল ঢুলীযা । কালি বজো঵া মানুহজনর
পাছত থাকিল তবলাবাদক । তার পাছত থাকিল
পাচজনীযা বরঢুলীযা । ঢোলর শব্দই গ্রীণরুম কঁপাই
তুলিলে । তরুণে ঔরংগজে঵র গালত দাড়ি লগাবলৈ
রিপকিট গাম ঘঁহিলে । ঘঁহি থাকোতে দেখিলে
পাতল চোতালর ওপরত সোণর বুটাম লগো঵া
আরু ভরিত পাম্পচো পিন্ধা এজন লোক । দূরৈত রৈ
থকা চাহজাহানে বুজিলে আজি নিশ্চয কিবা এটা
ঘটিবই । ঔরংগজে঵ে মানুহজনক দেখিযেই চিনি
পালে - তেওঁ বৃন্দাবনর পিতৃ ।</p>

<p>`` নেদেখার ভাও জুরিব নালাগে । তোকেই মই বিচারি
আহিছোঁ । """" বৃন্দাবনর বাপেকে এক হুটা মাতেরে
তরুণক ক'লে । সি কিন্তু নির্বিকার । নিজর কাম
করি গৈ আছে ।</p>

<p>চাহজাহানে মানুহজনর কাষলৈ আহি সুধিলে - `` কি
হ'ল ? """"
`` কি হ'ল মানে ? কি হো঵া নাই তাকে নোসোধা
কিয ? এই ইযার ঘরখনেই মোর ঘরখন খালে ।
ভিহু এটার ছো঵ালীক মই কেনেকৈ নিজর বো঵ারী করি
নিওহে । সি বৃন্দাবনে মোর কথা নুশুনি এতিযা কি
করিছে জান ? মোর সেই পামখনত গৈ তার বন্ধুবোরর
সৈতে বাহর পাতি এতিযা নতুনকৈ ঘর সাজিব লাগিছে ।
সেই রর পরাই , মোর বিনানুমতিত বোলে ইযার ছো঵ালীজনীক
ঘর সুমাবই সুমাব । মই কিন্তু এইবোর সহ্য় নকরোঁ । """"
`` কিন্তু , তরুণকাইর দোষ কোনখিনিত । """"
চাহজাহানে সুধিলে ।
`` দোষ মানে ? ই পাষণ্ডই তাক বাধা দিব নো঵ারে ? """"
`` বাধা দিওঁতে য়দি ঘটনার সুঁতি অবাটে বয ? তেতিযা ? """"
`` ওঁ , তারমানে তোমালোকর সকলো঵ে তারফালে ভোট দিবলৈ
ওলাইছা ? """"
উচার মারি ওলাই গ'ল বৃন্দাবনর পিতৃ । তরুণে তেওঁর
ফালে নাচালে । সি তার কামবোর ব্য়ক্তিত্঵রেই সমাধান
করিবলৈ য়ত্নপর হৈ থাকিল । গ্রীণরুমর পিছফালর আমজোপার
পরা এটা কুলিচরাইযে কুঁ-কু঵াই জঠরতা ভংগ করিলে ।
খিরিকির আইনারে সি দেখিলে পাতসিযা চরাই এজনীযে
দুটা পাত জোরা লগাবলৈ চেষ্টা করি আছে । মণ্ডপত কিছুসময
জিরণির পাছত ঢুলীযাবোরে আকৌ ঢোলত কোবাবলৈ আরম্ভ
করিলে । লাউতস্পিকারেরে কোনোবাই মণ়্ডপর কাষত চিঞরিলে -
`` আজি নিশা নবজারর লগে লগে আরম্ভ হ'ব - চাহজাহান । """"</p>

<p>দে঵য়ানীযে দোকমোলাকীতে উঠি বাহি-বন করি আছিল ।
চোতালর রঙীযাল ফুলজোপার ওপরত এজনী টিপচি পখিলা
এটা উরি আছিল । তলত চোপ দি আছিল এজনী মেকুরী ।
পার চরাইর জাকটো উরি য়ো঵ার পাছত তাই ভাবিলে চোপ
দি থকা মেকুরীটোর কথা । মেকুরীটো আগর ঠাইতে বহি
আছে । মুখ ঘুরাইযেই তাই আগ চোতালত য়িজন মানুহ
দেখা পালে , সেই দৃশ্য় চাযেই তাই স্তম্ভিত হ'ল । বুকুখন
ভযত ধপধপাবলৈ ধরিলে । মানুহজন বৃন্দাবনর পিতৃ ।
গা঵ঁর মৌজাদার । য়ার উপস্থিতি কল্পনাতীত । তথাপি
তাই খুব সজহভা঵ে নিজর ভদ্রতা দেখু঵াবলৈ পিরালিত
থকা চকীখন জোকারি জোকারি আনি চোতালর ছাঁত
থওঁ নথওঁকৈ ক'লে , `` বহক । """"</p>

<p>বৃন্দাবনর পিতৃযে চকীখন এহাতেরে টানি আনি এটা
দীঘল হুমুনীযাহ কাঢ়ি বহিল আরু এবার বারীর পিছফালর
তামোরকেইজোপার ফাললৈ চাই সুধিলে , 		`` তরুণ নাই
নেকি ? 	""""
`` য়ো঵াকালি নাটক আছিল নহয ; রাতি সেইটো বাটোরে
মযে আহিবলৈ মানা করিছিলোঁ । সাপ-বেং নানা রকমর
বস্তু পরি থাকে নহয । """"
`` কুন্তলা নাইনেকি ? """"
`` আছে , গা-পা আহি চাগৈ জুহালত পানী তপতাইছে । """"
`` এবার তাইক এইফালে আহিবলৈ কো঵াছোন । """"
য়ো঵াকালির গোপিনী সবাহর পরা অনা খনিও঵া তামোল
আছে । পাণখিনি ধুই-পখালী বটার ওপরত দি কুন্তলাক
হাতত ধরি মৌজাদারর ওচরত থিয করালে । দুযোকো
আচরিক করি তেওঁ তেওঁর পকেটর পরা খেপিযাই খেপিযাই
আনি কিবা এটা কুন্তলার হাতত পিন্ধাই দিলে । মাকর চকুর
ইংগিততে কুন্তলাই আঠু ল'লে । মৌজাদারে সে঵া গ্রহণ
করিযেই হুকহুকাই কান্দিবলৈ ধরিলে । তেনেকৈ কন্দা দেখি
প্রতি঵েশীসলক দৌরি আহিল ।
`` আপুনি এজন সন্মানিত মানুহ হৈ মোর চোতালত কান্দিলে
সভা নাপাই নহয । """" দে঵য়ানীযে বিনম্র সুরে ক'লে । `` মোর
ছো঵ালীজনীযে আপোনার ঘরলৈ গৈ বংশর সুনাম নকরে ।
এতিযাও কৈছোঁ , আপোনার ল'রাই অইন শিক্ষিত অ঵স্থাপন্ন
ঘরর লগত সম্পর্ক করক । মই কথা দিছোঁ , আমার তাত
কোনো খেদ নাথাকিব । মোর ছো঵ালীযে বাওনাটো হৈ চন্দ্রলৈ
হাত মেলা নাই । বৃন্দাবনেহে আগবাঢ়িছে । আপুনিটো জানেই -
মইতো এই খবর বাইদেউক কেতিযাবাই দিছোঁ । কিন্তু সি নামানে । """"
`` নামানে , নামানে সি কুলাঙ্গারে কারো কথাই নামানে । য়ো঵াকালি
সি নদীত জঁপিযাইছিল । ভাগ্য়ো মোর জালো঵াকেইটা তাত আছিল
বুলিহে । কথাখিনি কৈযেই মৌজাদারে চকু পানী মচি মচি গুচি
য়ো঵াত প্রতি঵েশীসকলে তেওঁর দুখত ভাগি পরিল । নানা
ককর্থন-ভর্ত্সনা করি ক'লে , `` এই নষ্ট য়ো঵া ঘরখনর বাবেহে
বৃন্দাবনহঁতর সুনাম নষ্ট হ'ল । তেওঁলোকে কুন্তলাকো নৈত
জাহ দি মরিবলৈ ক'লে । """"</p>

<p>ধিক্কার আরু অপমানত ভাগি পরিল দে঵য়ানী । তথাপি তাই
নিজকে সংয়ত করি নিজর ঘরর ভিতরলৈ সোমাই গ'ল । একে
কামকে করিলে কুন্তলাযো ।</p>

<p>য়ো঵া দুদিন ধরি চুবুরিযাবোরে তাইক মাতিবলৈ এরিছে ।
রাজহু঵া দমকললৈ পানী আনিবলৈ গ'লেই তেওঁলোকে তাইক
ফিচিঙি-ফিচিঙি করিবলৈ আরম্ভ করি দিযে । বিদ্রুপর দীঘলীযা
কাঁহ-হাঁহি চাদরর আচল মুখত দিযে । মস্করার খুক-খুক হাঁহি
মারে । সেই কাঁহবোর তেতিযা তাইর বুকুর চারিওফালে শেল হৈ
সোমাই য়ো঵া য়েন লাগে । প্রতি঵েশীসকলক এই তাইর চিঞরি
চিঞরি ক'বলৈ মন য়ায `` এই কামর বাবে কুন্তলা দাযী নহয ।
সিহঁত য়'র মানুহ , কিন্তু কোনোবাই য়েতিযা জোর-জুলুম করি
সিহঁতর ঘর সোমাব খোজে । ক'ব খোজে কিন্তু কো঵ার সুয়োগ
বিচারি নাপায । কোনেও একো শুনিবও নোখোজে । """"</p>

<p>কুন্তলাই নজনাকৈ দে঵য়ানীযে দলঙর সিপারে দর্জী নন্দর ঘরলৈ
গৈ বারীত জেতুকা পাত বিচারে । ওচরর এঘরলৈ গৈ বারীত কেঁচা
হালধী বিচারে । ঘরর গৃহিনীযে চোতালত থিয হৈ `` বৃন্দাবনকে
কেঁচা হালধী খুজিবলৈ অশ্লীল অকথ্য় কথারে গালি-গালাজ করি
সোনকালে বারীর পরা বাহির হৈ য়াবলৈ আদেশ দিযে । ইমানখিনি
কো঵ার পাছতো তাই `` হ'ব নালাগে '' বুলি হাঁহি হাঁহি বাহির ওলাই
আলিবাটত খোজ দিযে । য়াওতে বাটত ভকত বেপারীর ঘরত
সোমাই তরুণর প্রাপ্য় পইচাখিনির কথা কয `` পইচা লাগিলে
তরুণে নিজেই নিব । তোক কিয ? অ' বুজিছো , এতিযা ধনীর
লগত সম্পর্ক হৈছেতো , সন্মান য়াবলৈ বুলিযেই পইচা খুজিবলৈ
নাহে । কিন্তু এটা কথা , য়ি ভিক্ষারী ভিক্ষারীযেই । মৌজাদারর
লগত সম্পর্ক হ'ল বুলিযেই সি কেতিযাও মৌজাদার নহয ।
আরু এটা কথা মইনো বারু পইচা পাওঁ ক'ত ? নিজরেও লাও-লো঵া
অ঵স্থা । দোকান আজিকালি ভালদরেই নচলেই । মই ভাবিছিলোঁ ,
সি ঘরত এনেযেই বহি থাকে । গতিকে মোর কামত সহায করিছে ।
তাতনো কি ক্ষতি হ'ল ? বিদ্য়াটো঵ো প্রেক্টিচ হৈ থাকিল ।</p>

<p>বহু বছরর পিছত বজারর কাষেরে তরুণে এক ভারাক্রান্ত মন
লৈ হাটখোলার কাষেরে বৈ য়ো঵া নৈখনর ওপরর সুদীর্ঘ কাঠর
দলংখনর ওপরেরে গৈ তলত নিরিবিলি ঘাঁহনির শুকান
মুঢ়াবোরর কাষত থকা শিলচটাত বহিল । রিবরিবকৈ বলা
পাতল বতাহজাকে বাঁহর পাতবোর কঁপাইছে । শুকান মরমরীযা
পাতবোর দূরে দূরে উরি গৈ নৈর জংগম সোঁতত মিলিছে । নৈর
ওপরেরে বলি থকা পাতল বতাহজাকে লৈ কেতেকীর সুঘ্রাণ ।
কাষর বেতর জারণির তলে তলে হালিছে-জালিছে মাখিযতী
দীঘলতী বন সমদল । সেইফালে চাই থাকোতে মনলৈ আহিল
শৈশ঵র লুকা-ভাকু খেলা , বরশী বো঵া নতুবা দলঙা টানি
মাছ বিচরা দিনবোরলৈ ।</p>

<p>তন্দ্রাযিত মানুহর দরে কিমান দেরী সি তেনেকৈ আছিল
জনা নায়ায । কিন্তু এই জন-প্রাণহীন ঠাইডোখরত লংপেণ্ট
আরু হা঵াইন-চার্ট পিন্ধা মানুহ এজনর ছাঁ এটা স্থির হৈ র'ল ,
তন্দ্রাভংগ মানুহর দরে সি পিছফালে দেখিলে নন্দ দর্জী ।
হাতত এটা কাগজেরে মেরিও঵া টোপোলা ।</p>

<p>`` এইখিনি সমযত তই থাকিব লাগে ঘরত । কিন্তু আত্মগোপন
করি থকা মানুহর দরে কাউরী-কুকুর নোহা঵াত ঠাইত অকলে
বহি আছ য়ে ? """"
`` তার বাহিরে জানো মোর অন্য় কিবা কাম আছে ? """"
`` উপায জানো বিচারিছ ? """"
`` নিবিচরা নহয , বিচারিছিলোঁ । কিন্তু পথ সকলোতে বন্ধ ।
পাবলগীযা ধনখিনিও কোনেও দিবলৈ ইচ্ছা নকরে , নিদিযে ।
য়ো঵া চারি-চাপাঁচদিন ধরি মানুহর ঘরে ঘরে ঘুরি ফুরিছোঁ ;
তথাপি কোনেও এক পইচাও নিদিলে । সেই কারণে ধিক্কারতে
এইখিনিতে বহি গুণা-গঁথা করি আছো । আশা এরি দিছোঁ ।
য়ি হয হৈ থাকক । হযতো জী঵নত ঠগ খাবলৈ আরু মানুহর
প্র঵ঞ্চনার বলি হ'বলৈ জন্ম গ্রহণ করিছিলোঁ । ইফালে এইবোর
কাম করার নিচাও মই এরিব নো঵ারোঁ । এইবোর কাম য়দি এরি
পেলাও তেনেহ'লে মই পাগল হৈ য়াব লাগিব । মানুহবোরর
মাজত কে঵ল টকার প্রতিয়োগিতা । প্রতিপত্তির কারণে ইজনে-~
সিজনক বেচি-কিনি খাবলৈ কোনো দ্঵িধাবোধ করা নাই ।
সিহঁতর মুখর পরা লেউ-লেউকৈ ওলাই অহা জিভাবোরে
মোক খেদি আহিছে । মইতো সিহঁতক তেনেকৈ বেছি-কিনি
খাব নো঵ারোঁ । এই সরলতাকে হযতো সিহঁতে মোক দুর্বলতা
বুলি ধরিছে । হবও পারে , একো আচরিত কথা নহয ।
এনেকৈ অঘরী হৈ থকাটো঵ে য়েন সিহঁতে বিচারে । আমার
দুর঵স্থা দেখি থাকিব পারিলেহে য়েন সিহঁতে অকণমান শান্তি
পায । সেযাই য়েন কিজানি সিহঁতর জীযাই থকার প্রেরণা । """"</p>

<p>`` সেই দু:চিন্তার সময এতিযা নহয । তেনেকৈ নচলে । এই ল ।
কুন্তলার বাবে য়িখিনি কাপোর লাগে মই দিছোঁ । এই সহাযর
বিনিমযত মই কোনো প্রতিদান বিচরা নাই । নন্দই ক'লে ।</p>

<p>তরুণে এক দীর্ঘ নিশ্঵াস এরি নন্দলৈ চালে । `` আরু অন্য়ান্য়
খরচর কারণে মই এটা কথা ভাবিছোঁ । """"
`` কি ? """"
`` তই সনাতন য়াত্রার পার্টির মেনেজারক নিশ্চয জান ।
নজনার কারণ নাই । কারণ এসমযত তই সেই পার্টির
বাদনা-বাদক আছিলি । মনত আছে ? চোকরা-নাচত
হারমণিযাম বজো঵া নাছিলি । হযনে নহয ? """"
মনত পরাত তত্ক্ষণাত সি শিলটোর পরা উঠিল আরু
হাঁহি হাঁহি ক'লে - `` অ 		! """"</p>

<p>পার্টির মেনেজার এতিযা নাই । বহু বছর আগতেই তেওঁ
হেনো ঢুকাইছে । তেওঁ ল'রাজনে এতিযা এটা নতুন পার্টি
খুলিছে । তাকেই মই তোর কথা কৈছোঁ । নাটকর বেক চিন
আরু চেটিংচ সজার দাযিত্঵ য়দি তই ল঵ , তেনেহ'লে বিযার
য়াবতীযা খরচ-পাতি দিম বুলি সি কৈছে । পলম করি লাভ
নাই , এতিযাই ক তউ সেই চুক্তিত রাজিনে ?</p>

<p>দাঢ়ি-গোঁফ খুজু঵াই নৈর সোঁতত উটি য়ো঵া বাঁহপাতটোলৈ
চাই সি চমুকৈ ক'লে - `` হ'ব । """"
তেনেহ'লে ব'ল এতিযাই , সি মোর দোকানত বহি আছে ।
কি ভাবি আছ ? ব'ল ব'ল এতিযাই । চিন্তা নকরিবি ।
নন্দ দর্জী এতিযাও মরি য়ো঵া নাই । মাত্র ধৈর্য়্য় আরু সাহস
লাগে । """" //
রাতি :
রাজী঵ বরু঵া ।
ট্রেন্সপোর্ট ষ্টেণ্ডর পরা খরধরকৈ পাবলিক বাছখনত উঠিলোঁ ।
চুটিৃচাপর দ্রাইভারজনে প্রায জপিযাই উঠি কণ্ডাক্টরলৈ সংকেতলৈ
অপেক্ষা করিলে । সংকেত পাই তার চারি ইন্দ্রিয সজাগ হৈ
পরিল । জরাজীর্ণ এছফাল্টর রাস্তাটোরে বাছখনে গতি ল'লে ।
য়েন কান্দোন সামরি গৃহাভিমুখী ন-কইনাজনীহে । আরম্ভণিবোর
ঠিক এইদরেই ক'রবাত রৈ য়ায । বাহিরলৈ চালো খিরিকির
ফ্রেমত এখন দগ্ধ঵তী শস্য়র পথার ।</p>

<p>দহ বছরর মূরত গাওঁর ঘরলৈ আহিছোঁ । এই সুদীর্ঘকাল কি
কারণে মোর গাওঁর লগত সম্পর্ক ছিন্ন হৈ পরিছিল ক'ব
নো঵ারোঁ । মোর প্রাইভেট কোম্পানীর বাস্ত঵তা , অনিহানে নে
নামহীন অহমিকা ঠিক ক'ব নো঵ারোঁ । বহুত কারণর মাজত
এইবোর নিশ্চয । কিন্তু এটা কথা য়ে এই গাওঁবিমুখী মনোভাব
একেদিনাই গঢ় লৈ উঠা নাছিল । এই মানুহজনীর ছবিখনে আজিও
মোক পীড়া করিবলৈ এরা নাই । মোর নিস্পৃহতাক কম তুচ্ছ-~
তাচ্ছিল্য় করা নাই । হয , মহদা পেহীর কথাকে কৈছোঁ ।
পেহী মোর শৈশ঵র চুম্বকীয আকর্ষণ । ভদিযাই জালত পো঵া
দৈত্য়টো সপোনত দেখি চক খাই পো঵া মোর ল'রালির নির্বিঘ্ন
আশ্রয । কেতিযাবা শৈশ঵লৈ জুমি চালে বহুতো ধোঁ঵া-ধোঁ঵া
স্মৃতির মাজত দীর্ঘদেহী পেহীজনী উজলি উঠে ।</p>

<p>চাকরির তাগিদাত দেউতাই এদিন পুরণি ঘরখন এরিবলগীযা
হৈ পরিছিল । পেহীর লগত সেই সমযতে মোর আছিল শেষ
দেখা । দেউতা বদলি হো঵া খবর পাই পেহী গিরিযেকর সৈতে
ঢপলিযাই আহিল । সোঁফালে সেওঁতা ফালি মোর চুলি ফণিযাই
ফণিযাই সেইদিনা পেহীযে উচুপিছিল । উচুপনির নির্মর শব্দবোর
ওলমি রৈছিল মোর বহুতো আবেলির বুকুত ।</p>

<p>বিশাল নদীখন পার হো঵া য়াতাযতর বাবে বা আন কিবা
কারণতেই হওক পুরণি ঘরখনর লগত আমার আহ-য়াহ
নহ'ল । দেউতার মাক-দেউতাক কেতিযাবাই ঢুকাল ।
মাজতে শুনিছিলোঁ , পেহীর গিরিযেকক অ'.এন.জি.চি-র
গাড়ীযে খুন্দিযালে । সন্মুখত মোর বি.এছ.চি ফাইনাল পরীক্ষা ।
খবর করিবলৈ য়াব নো঵ারিলোঁ । লাহে লাহে পেহী হেরাই
গ'ল । স্মৃতি হ'ল । শুনিছো আমার পুরণি গাওঁখন এতিযা
তৈল-নগরী হ'ল ।</p>

<p>মযো এদিন কল্ড ড্রিংচ কোম্পানী এটাত কেমিষ্টর চাকরি
এটা পাই গু঵াহাটী পালোহি । বহু কষ্টর মুরত ভারাঘর
এটা য়োগার করি ল'লো । মেটেকার দরে গজি উঠা গগণচুম্বী
অট্টালিকাবোরর মাজত এটা সরু অসম আর্হির ঘর । চৌদিশে
কংক্রিটর বতাহ । লেবরেটরীত সোমাই প্রথম দিনাই পুতিগন্ধ
হাইড্রজেন ছালফাইড গেছ সহ্য় করার দরে মহানগরীক
আকোঁ঵ালী ল'বলৈ বিশেষ কঠিন নহ'ল । লাহে লাহে মোর
বাবে সহজ হৈ পরিল একাকিকত্঵ ভরা নাগরিকর জী঵ন ।
কিছুমান কথাই এতিযাও মোক কষ্ট দিযে । বুকুখনর ক'রবাত
বিষ অনুভ঵ করোঁ । হযতো মহদা পেহীর মরমর উমাল
সান্নিধ্য়ই এনেবোর কথা পীড়াদাযক করি তোলে । য়থা :</p>

<p>মোর ভারাঘরটোর সন্মুখতে সুদৃশ্য় অটাটালিকা । পাতবাহর
ফুলেরে ঘেরি থকা ফুলনিখনত ফুরি আছে ক্রিচেনথিযাম
সময য়েতিযা তিনি বাজি পোন্ধর মিনিট হয , ঠিক তেতিযাই
প্রকাণ্ড লোহার গেটখন খুলি হাতত স্কুলীযা বেগটো লৈ গোগী
সোমাই আহে । চকু-মুখত তেতিযা তার ক্লান্তি । সি দু঵ারত
দাঁত নিকটাই থকা টাইগার লকটোলৈ চায । মোজাইক করা
ধুনীযা বারান্দাখনত তার বেগটো থেকেচা মারি থৈ বেজার মনেরে
বহি থাকে । সন্মুখর রাস্তাটোরে অহা-য়ো঵া করি থকা চিটি
বাছবোরলৈ সি চাই থাকে । তারে এখনত কলেজর শিক্ষযিত্রী
মাক আহিব । রঙা মারুতি দেখিলে সি থিয হৈ চাই থাকিব -
তার ইঞ্জিনীযার দেউতাক আহিব । ইখনর পাছত সিখনকৈ
গাড়ীবোর পার হৈ য়ায । রাস্তালৈ চাই তার সরু চকুহাল বোধহয
বিষায । হাই-পা঵ার চচমায়োর খুলি সি চকুহাল মোহারে ।
চরম হতাশাত সি বারান্দাতে বাগর দিযে । হঠাত্ সি ফেঁকুরি
ফেঁকুরি কান্দিবলৈ ধরে ।</p>

<p>স্কুলর পরা আহি গোগীযে আজিকালি প্রাযে বারান্দাতে এইদরে
রৈ থাকে । নির঵কাশ মাক-দেউতাকর এই উদাসীনতাত ঘরর
কাম করা ল'রাটো উধাও হো঵া দিনরে পরাই সি দেখি আহিছে ।
এইদরে হযতো মাক-দেউতাকর স্঵ত্঵:স্নেহর পরা বঞ্চিত হৈ গোগী
পঙ্গু হৈ পরিব ।</p>

<p>কণ্ডাক্টরর মাতত চিন্তার য়তি পরিল । লরালরিকৈ টিকটো
উলিযাই দিলোঁ । মোর সহয়াত্রীলৈ চালোঁ । এগরাকী বৃদ্ধা ।
শুকান পুখুরীর দরে চকুহাল । বৃদ্ধাক গন্তব্য় স্থানর বিষযে
সুধিম বুলিও রৈ গ'লোঁ । নীর঵তার সংগ-সুখ হেরো঵ার
ভযত । সরুতে অলপ সময কথা নোকো঵াকৈ থাকিলে পেহীযে
` কি হৈছে তোর ' বুলি ব্য়তিব্য়স্ত করি তুলে । তথাপি আজি
নীর঵তাক মই ভালো পালো । বিশেষকৈ দীঘলীযা য়াত্রাবোরত
নীর঵তাকে সংগ করি লওঁ । এই নি:ছিদ্র নীর঵তার কোলাত
কোঁচমোচ খাই কেঁচু঵াটোর দরে সোমাই পরো । মনন জগতত
ভিতরর মানুহটোর সৈতে প্রগাঢ় হয মোর অন্তরংগতা । বাকশক্তি
দূর্বল হৈ পরে । বাছর খিরিকিত ফ্রেমত মরা হাতীর দরে
পরি আছে পাহারটো ।</p>

<p>আমার পুরণি ঘরখনত ভরি দিযেই মই অনুভ঵ করোঁ
নি:সার বুঢ়া মানুহর দরে বহি আছে বিষণ্ণতা । বিরাট
পরিযালট ভাগি থানবান হ'ল । সকলোতে অ঵ক্ষযর ছাপ ।
ড্রযিং রুমর পরা মুক্তির বান্ধোনর সো঵াদ লো঵া বেতর
চকীবোরর বাও , ক্লেদভরা কুছন , চাহগছর ডালেরে সজা
পুরণি টেবিলখন , উ঵লি গৈ ধোঁ঵া বরণীযা হো঵া পর্দাকেইখন ,
বের প্রজ্঵লিত লালবাহাদুরর পজ এটাত থকা লালবাহাদুরর
ছবিখন , বিড়ি কোম্পানী এটার এখন কেলেণ্ডার , ক্ষযীষ্ণু ,
শ্রীহীন এখন নির্জন ঘর ।</p>

<p>ঘরত সোমাযেই পেহীর খবর ল'লো । বরমাই বোধহয
কথাটো নুশুনুলে । `` মই চাহ করোগৈ , বহা """" বুলি
তেওঁ পাকঘরর ভিতর সোমাল । বরণহীন চাহ কাপ
তিতা ঔষধর দরে গিলি আকৌ পেহীর কথা উলিযালোঁ ।
এনেতে সরু বরমা সোমাই অহাত আকৌ প্রসংগ সলনি হ'ল ।
মনতে ভাবিলোঁ , পেহীর ছাগৈ এইখন ঘরর লগত সম্পর্ক
বিছিন্ন হৈ পরিল ।</p>

<p>আবেলি মই য়ো঵া গম পাই অনিল , দেবুহঁত আহিল ।
পুরণি বন্ধু । আন্তরিকতার উম বেছি । বেছ কথা পাতিলোঁ ।
তৈল-নগীরর নি:সংগ স্঵াদহীন জী঵নর কথাবোর সিহঁতর
কারণে হেনো দুর্বিসহ হৈ পরিছে । মুক্তির বতাহ লাগে ।
কথা-প্রসংগত মহদা পেহীর কথা ওলাল । কথাবোর শুনি
মোর সর্বশরীর নিশ্চল হৈ পরিল । মই য়েন জড় পদার্থ ।
মোর চকুর আগত য়েন আকাশ দুখন দুফাল হৈ পরিল ।
তথাপি সিহঁতর আগত সহজ হ'বলৈ চেষ্টা করিলোঁ । সন্ধিযা
ওলাই গ'লো চহরখনর মজিযালৈ ।</p>

<p>নতুন চহরখনর দেহত নতুন সাজ । ক'লা গোম সাপর দরে
পরি থকা রাস্তাবোরত অ.এন.জি.ছি. গাড়ীবোরর সশব্দ বিচরণ ।
স্কুলর সন্মুখত ল'রালিতে দেখা মেটেকানিডরাত শারীযে শারীযে
কাপোরর দোকান । আমি সাঁতুরিবলৈ শিকা পুখুরীটোত স্থাপন
করা হৈছে এটা ইস্পাতর উদ্দোগ ।
",0
</p></body></text></cesDoc>