<cesDoc id="asm-w-media-amm67" lang="asm">
<cesHeader type="text">
<fileDesc>
<titleStmt>
<h.title>asm-w-media-amm67.txt</h.title>
<respStmt>
<respType>Electronic file created by</respType>
<respName>Central Institute for Indian Languages, Mysore</respName>
<respType>transferred into Unicode and CES format by</respType>
<respName>"Unicodify" software by Andrew Hardie</respName>
</respStmt></titleStmt>
<publicationStmt>
<distributor>UCREL (on behalf of CIIL)</distributor>
<pubAddress>Department of Linguistics, Lancaster University, Lancaster, LA1 4YT, UK</pubAddress>
<availability region="WORLD"></availability>
<pubDate>03-07-21</pubDate>
</publicationStmt>
<sourceDesc>
<biblStruct>
<monogr>
<h.title>প্রান্তি</h.title>
<h.author>ভবেন্দ্র</h.author>
<imprint>
<pubPlace>India</pubPlace>
<publisher>Unknown - Magaz</publisher>
<pubDate>1985</pubDate>
</imprint>
<idno type="CIIL code">amm67</idno>
</monogr></biblStruct></sourceDesc></fileDesc>
<encodingDesc>
<projectDesc>Text collected for the CIIL Corpus, subsequently integrated into the EMILLE/CIIL Monolingual Written Corpora.</projectDesc>
<samplingDesc>Simple written text only has been transcribed. Diagrams, pictures and tables have been omitted. Sampling begins at page 0606.</samplingDesc>
<editorialDecl><conformance level="1"></conformance></editorialDecl>
</encodingDesc>
<profileDesc>
<creation><date>03-07-21</date></creation>
<langUsage>Assamese</langUsage>
<wsdUsage>
<writingSystem id="ISO/IEC 10646">Universal Multiple-Octet Coded Character Set (UCS).</writingSystem>
</wsdUsage>
<textClass>
<channel mode="w">print</channel>
<constitution type="composite"></constitution>
<domain type="public"></domain>
<factuality type="fact"></factuality>
</textClass>
<translations></translations>
</profileDesc>
<revisionDesc></revisionDesc>
</cesHeader>

<text><body>
<p>&lt;প্রান্তিক ( ভবেন্দ্র নাথ শইকীযা )</p>

<p>জরুরী অ঵স্থার
পুনরাবৃত্তির সম্ভ঵না ?
জরুরী অ঵স্থা ঘোষণার ঠিক দহ বছরর
মূরত সেই দু:স্পপ্নর দিনবোর আরু ঘুরি
নাহে বুলি দেশবাসীযে ( আরু কেইবাখনো
বিশিষ্ট আলোচনীযে বিশেষ সংখ্য়া প্রকাশ
করি ) স্঵স্তির নিশ্঵াস পেলো঵ার মূহূর্ততে
বর্তমান প্রধানমন্ত্রী রাজী঵ গান্ধীর মুখরপরা
সরি পরা এষার কথাই দেশত তুমুল হুলস্থুল
লগাই দিছে । প্রধানমন্ত্রী হিচাপে তেওঁর প্রথম~
খন রাষ্ট্রীযভা঵ে অনুষ্ঠিত করা সংবাদমেলত
রাজী঵ দহ বছরর আগর জরুরী অ঵স্থার
লেখীযা পরিস্থিতির পুনরাবৃত্তির সম্ভা঵না তেওঁ
দেখা পাইছেনেকি বুলি সোধা এটা প্রশ্নর উত্তরত
কৈ দিযে য়ে তেতিযার অ঵স্থালৈ চাই জরুরী
অ঵স্তা ঘোষণা করাটো ঠিকেই হৈছিল আরু সেই
অলস্থার পুনরাবৃত্তি ঘটিলে আকৌ জরুরী অ঵স্থা
ঘোষণা করার প্রযোজন হ'ব পারে । অ঵শ্য়ে
সেইদরে কৈ উঠিযেই তেওঁ মন্তব্য় করে য়ে
তেওঁ নহয আরু ` তদ্রুপ পরিস্থিতি '-র
এতিযা আরু উদ্ভ঵ হ'ব নো঵ারে ।</p>

<p>সিদিনা বিদেশ ভ্রমণ করোতে আমেরিকার
নেচনেল প্রেছ ক্লাবকে ধরি বিভিন্ন মঞ্চত অতি
প্রতাপী আরু একাচেকা সাংবাদিকর মুখর পরাও
নিরাপদে সারি অহিবলৈ সক্ষম হো঵া রাজী঵
গান্ধীর নিজর ঘরত বহি পচলাত দাঁত ভগার
দরে অ঵স্থা হ'ল : প্রায সমগ্র বিরোধী পক্ষ আরু
সরহ ভাগ সংবাদপত্র ( অ঵শ্য়ে এটা এজেন্সি
আরু বহু সংখ্য়ক বাতরি কাকতে সংবাদ মেলর
বাতরিত সেই প্রসংগ উল্লেখ করা নাছিল )
রাজী঵র কথাত জাঙুল খাই উঠে । বাজপেযীর
মতে জরুরী অ঵স্থার নেতৃত্঵ আমার মাজত এতিযা
নাই য়দিও জরুরী অ঵স্থার মানসিকতা এতিযাও
বেছ জীযাই আছে । দণ্ড঵টোর মতে রাজী঵র এই
মন্তব্য় জনসাধারণ আরু বিরোধী দলবোরক সেও
মনাবলৈ এটা প্রচ্ছন্ন ভীতি প্রদর্শন । চন্দ্রশেখরর
মতে দেখাত হঠাত্ মুখরপরা ওলাই য়ো঵া য়েন
লগা এই মন্তব্য়ষার সিমান নির্দেষ নহয - রাজী঵র
মন্তব্য় মুক্তি , মানবীয মর্য়দা আরু সমতাপূর্ণ ন্য়ায
ভাল পো঵া সককলোরে প্রতি এক দীর্ঘ আরু দৃঢ়
সংগ্রামর বাবে প্রস্তুত হ'বলৈ এটা সকিযনি ।
কমিউনিষ্ট নেতাসকলেও কথাটোলৈ গুরুত্঵পূর্ণ
দৃষ্টি দিছে ।</p>

<p>অ঵শ্য়ে শাসক পরিযালটোর প্রতি অতি
অনুকুল ভাবাপন্ন ` দি টাইমছ অ঵ ইণ্ডিযা '-র
লেখীযা কাকতে রাজী঵ক উদ্ধার করিবলৈ চেষ্টা
করিছে এই বুলি য়ে সমকালীন প্রাসংগিকতা
নথকা এটা বিষযর ওপরত প্রশ্নটো শুনি তেওঁ
হযতো বিস্মিত হৈ পরি সেইবোর ক'লে । প্রশ্নটো
করা হ'ল কিয সেইটোহে কাকতখনর বাবে হত~
বুদ্ধি হ'ব লগা কথা হৈছে । তার পাছত কাকতখনে
মন্তব্য় করিছে য়ে অপ্রত্য়াশিত প্রশ্নটো পাই হঠাত্
মুখর পরা ওলাই য়ো঵া রাজী঵র এই কথাখিনিত
হযতো দেশখনর ঐক্য় আরু এখণ্ডতা য়িকোনো
প্রকারে রক্ষা করার প্রতি তেওঁর উদ্঵েগেই প্রকাশ
পাইছে ।</p>

<p>অ঵শ্য়ে দুদিনর পাছত গৃহ মন্ত্রণালযর
বাবে থকা সংসদী পরামর্শমুলক কমিটির
বৈঠকত গৃহমন্ত্রী চ঵নে বিরোধী দলসমুহক
আশ্঵াস দিযে য়ে সংবিধানর 44 তম সংশোধন
উলংঘা করি জরুরী অ঵স্থা পুনর ঘোষণা করা
নহয । তে঵োঁ আঙুলিযাই দিযে য়ে সেই আষার
প্রধানমন্ত্রীর হঠাত্ মুখরপরা ওলাই য়ো঵া কথাহে --
তাকে লৈ দ - লৈ সোমাই মূর ঘমাব নালাগে ।</p>

<p>এই প্রসংগত দুটা কথা বিশেষভা঵ে
উল্লেখয়োগ্য় : জরুরী অ঵স্থা য়ি ঘোষণা
করিছিল সেই প্রযাত প্রধানমন্ত্রী ইন্দিরা
গান্ধীযে নিজেই পাছত সেই কার্য়র বাবে
দুখ প্রকাশ করিছিল আরু তেনে কাম
কেতিযাও নকরে বুলি সৈ কাঢ়িছিল ।
আনটো হ'ল : বর্তমান শাসকসকলর
মাজত য়ার স্থান রাজী঵র ঠিক পাছতে -
য়াক সাংবাদিকর মহলত ভিতরু঵াকৈ
` উপপ্রধানমন্ত্রী ' বুলি অভিহিত করা হয
সেই অরুণ সিং জরুরী অ঵স্থা বিরোধী শক্তি
বুলি পরিচিত ; অলপতে ` দি ইলাষ্টেটেড
উইকলী অ঵ ইণ্ডিযা '-ত প্রকাশ পো঵া এটা
প্র঵ন্ধত তেওঁ রাজনীতিলৈ অহার বহু বছরর
আগেযে কেনেকৈ 1976 চনত জরুরী অ঵স্থার
বিরোধিতা করি ইন্দিরা গান্ধীলৈ চিঠি লিখিছিল
তার বিশদ বর্ণনা দিযা হৈছে । //
কুলদীপ নাযারর
বিশেষ প্রবন্ধ
জরুরী অ঵স্থার কালছো঵াত ক্ষমতার অপপ্রযোগ
হৈছিল , সেই দেখি শ্঵াহ আযোগে চরকারক
সেইদরে ক্ষমতার অপপ্রযোগ হো঵াত বাধা দিবলৈ
পরামর্শ দিছিল । কিন্তু সেই পরামর্শবোর কাকতে-~
পত্রই থাকি গ'ল , আরু আজি , জরুরী অ঵স্থা
নাই য়দিও য়িসকলর ক্ষমতা আছে সেইসকলে
বিভিন্ন ক্ষেত্রত , বিশেষকৈ রাজ্য়বোরত ক্ষমতার
অপপ্রযোগ করি আছে । সেইটোতকৈও বেযা
কথাটো হ'ল , ক্ষমতার এই অপপ্রযোগক
ক্ষমতার অপপ্রযোগ বুলি গণ্য় করকা হো঵া
নাই ।</p>

<p>শ্঵াহ আযোগর প্রধান পরামর্শ হ'ল এই
য়ে পুলিছক রাজনীতি সোমাব নো঵রা করিব
লাগে আরু `` আইনে য়'ত লগো঵াটো বিচারিছে
ঠিক সেইবোর কর্তব্য়তহে য়থায়থ সতর্কতারে ""
পুলিছক লগাব লাগে । কিন্তু য়ো঵া দশকটোত
রাজনীতি করাসকলর হস্তক্ষেপ অকল বঢ়াই
নহয , তেওঁলোকর হস্তক্ষেপ নিযমর কথা ,
আনুষ্ঠানিক কথা হৈ পরিল ।</p>

<p>1980 চনত ইন্দিরা গান্ধী ক্ষমতালৈ
উভতি অহার ঠিক পাছতে শ্঵াহ আযোগর
লগত কিবা নহয কিবা প্রকারে জড়িত
থকা বিষযাসকলক তেওঁ বিচারি-খোচারি
উলিযাই লৈ বাহির করি দিযে । শ্঵াহ আযোগর
সচিব পি. রাজগোপালক এনে পদ-মর্য়াদালৈ
অবনমিত করা হ'ল য়'ত অ঵সর গ্রহণ করাত
বাদে আন করার উপায আরু তেওঁর নাথাকিল ।
আযোগর দুজন তদন্তকারী বিষযা এন. কে. সিং
আরু আর. চি. শর্মাক বাছি লৈ অন্তহীন জুলুমর
বলি করা হ'ল । ছি. বি. আইর কিছুমান বিষযা
কর্মচারীর তেওঁলোকর উল্লেখয়োগ্য় কামর কারণে
সম্বর্দ্ধনা জনাবলৈ এটা অনুষ্ঠান হৈছিল ; ইন্দিরা
গান্ধীর ব্য়ক্তিগত সহাযকারী আর. কে. ধ঵নে
য়েতিযা দেখিলে য়ে তারে তিনি-চারিজনমান
শ্঵াহ আযোগর লগত জড়িত আছিল তেতিযা
ইন্দিরা গান্ধীযে সেই অনুষ্ঠানরপরা অকল সভা-~
ত্য়াগ করিযেই ক্ষান্ত নাথাকি সেই সম্বর্দ্ধনা জনো঵া
সংগঠনটোর বিরুদ্ধে ব্য়঵স্থাও গ্রহণ করিছিল ।</p>

<p>বিচারপতি জে চি শ্঵াহে তেওর পরামর্শসমুহে
পুলিছর উপরিও অধিক বিষয সামরাটো
বিচারিছিল । তেওঁ কৈছিল : `` পুলিছর ক্ষেত্রত
য়িটো প্রয়োজ্য় সামগ্রিকভা঵ে সে঵াসমুহর ক্ষেত্রতো
সেইটো সমানেই প্রযোজ্য় । "" তেওঁ য়ুক্তি দিছিল
য়ে `` য়িজন঵ রাজনীতিকে এজন চরকারী চাকরি~
যালক সম্পূর্ণ রাজনৈতিক উদ্দেশ্য়ত ব্য়঵হার
করে তেওঁ আরু য়িজন চরকারী চাকরিযালে
সেইদরে ব্য়঵হার করিবলৈ নিজকে অধ:পতিত
করে আরু দেশর অহিত সাধন করে । ""</p>

<p>রাজনৈতিক বিচার-বিবেচনাই কেনেকৈ
বিশেষ কেতবোর কার্য়সুচী আরু নীতি প্রভাবিত
করে সেইটো বুজিবলৈ হ'লে কেন্দ্রীয তথ্য় আরু
বেতাঁর , গৃহ পরিক্রমা , উদ্য়োগ আরু বাণিজ্য়
মন্ত্রণালযবোরর কামকাজবোর ভালকৈ নিরীক্ষণ
করিলেই হ'ল । রাজ্য় চরকারবোর আরু জঘন্য়
বেযা , কারণ নতুন দিল্লীত দেখা পো঵া সুক্ষ্মতা
রাজ্য়বোরত নাই ।</p>

<p>দিনদিযেকর আগেযে মই বোম্বাইত লগ ধরোতে
বিচারপতি শ্঵াহে পুলিছ আরু চরকারী চাকরিযালক
রাজনীতির পরা বিয়ুক্ত , পৃথক করি রখার প্রযো~
জনীযতার ওপরত বিশেষ গুরুত্঵ দিযে । তেওঁ
কয য়ে বৃটিছে ভারতক এটা বুজন ধরণে `` সুদক্ষ ""
চরকার দি গৈছে । `` আমি য়দি তেওঁলোকর পরা
এটা শিক্ষা ল'ব লাগে তেতিযা হ'লে সেইটো শিক্ষা
হ'ল এযে য়ে তেওঁলোক য়েযে নহওক , য়ি পদমর্য়া~
দারে নহওক চরকারী চাকরিযালসকলক দেশর
রাজনীতির পরা পৃথক করি , বিয়ুক্ত করি রখিব
লাগে ।</p>

<p>শ্঵াহ আযোগে দিযা আন এটা প্রস্তা঵ আছিল ,
চোরাংচো঵া এজেন্সিবোরক সততা থকা লোকেরে
গঠিত করা , স্঵তন্ত্রভাবে কার্য়নির্বাহ করা দাযিত্঵শীল
মঞ্চ কেতবোরে `` তদারক আরু মূল্য়াযন "" করি
থাকিব লাগে । কিন্তু সেইটো করাটো দুরর কথা ,
এই এজেন্সিবোর পার্টির স্঵ার্থতহে ব্য়঵হার করি থকা
হৈছে । এইবোর এজেন্সির য়োগেদিযেই ইন্দিরা গান্ধীযে
তেওঁর পার্টির বিসম্বাদীসকলর কার্য়কলাপ , আচনির
বিষযে তথ্য় পাতি পাই আছিল । জনতা পার্টিত
অসন্তুষ্ট হো঵া বিহারর নেতা সত্য় নারাযণ সিঙক
ই-কংগ্রেছত য়োগ দিবর বাবে রাজি করাবলৈ এজন
চোরাংচো঵া বিষযাহে তেওঁর কাষ চাপিছিল ।</p>

<p>শ্঵াহ আযোগর আন এটা পরামপরা আছিল এই
য়ে কেন্দ্র আরু রাজ্য় আইনবোর য়ি উদ্দেশ্য়ত
সেইবোর প্রণয঩ন করা হৈছিল সেই উদ্দেশ্য়
পুরণ করিবলৈ সেইবোর এরিলে নেকি তাক
বিচার করি চাবলৈ মাজে-সমযে পরীক্ষা করি
থাকিব লাগে । কিন্তু শ্঵াহে মোক ক'বর দরে ,
য়ি ক্ষেত্রত চরকারর আনকি নতুন আইন উপ~
য়ুক্তভা঵ে য়ুগুতাবলৈকে সময নাই সেই ক্ষেত্রত
পুরণাবোরর ভিতরর কোনবোর অপরিমিত ,
অতিরিক্ত হৈ পরিছে তার বিচার ল'বলৈ সময
ক'ত ? আইনর খচরা য়ুগুত করোতে থাকি য়ো঵া
ভুলর বিষযে বহুবার আদালতে আঙুলিযাই দি
গৈছে আরু খোদ আইন আযোগ কথাটো স্঵ীকার
করি মন্তব্য় করিছে ।</p>

<p>য়িবোর কারণ নাযেই বা য়িবোর কারণ ইচ্ছা
করি ভাবিচিন্তি মিছাকৈ বনো঵া হৈছে সেইবোর
কারণত গ্রেপ্তার আরু আটক করি নাগরিক
সকলক তেওঁলোকর মৌলুক স্঵াধীনতাসমূহর
পরা বঞ্চিত করাত পুলিছ আরু আইনর শাসকে
লগ লাগি করা অভিসন্ধির সাক্ষ্য়-প্রামাণ আযোগে
নিদারুণ মানসিক য়ন্ত্রণারে লক্ষ্য় করে । কিন্তু
এইবোর ঘটনা আনকি এতিযাও রাজ্য়বোরত
ঘটি আছে । হয রাজনৈতিক লাভর কারণে ,
নহয আর্থিক লাভর কারণে অথবা ব্য়ক্তিগত
শত্রুতা থকার কারণে চরকার বা রাজনীতিক~
সকলর সমালোচক আরু বিরোধীসকলক আটক
করা হৈছে । জরুরী অ঵স্থার কালত অভ্য়ন্তরীণ
নিরাপত্তা রক্ষা আইনর ( M I S A ) অপপ্রযোগ
গৈছিল ; এতিযা রাষ্ট্রীয নিরাপত্তা আইনর ( N S A )
প্রযোগ তাতকৈ কোনো গুণেই ভাল হো঵া নাই ।</p>

<p>জরুরী অ঵স্থাত আরু এটা বৈশিষ্ট্য় লক্ষণীয
হৈ পরিছিল আরু সেইটো আছিল প্রিযজনর প্রতি
পক্ষপাতিত্঵ । প্রিযভাজনসকলক সহায করা হৈছিল
উন্নতি করি য়াবলৈ আরু বিরাগভাজন হো঵াসকলক
জুলুম দি হারাশাস্তি করা হৈছিল । এইটি কাণ্ড
এতিযাও চলি আছে ।</p>

<p>গুজরাট , পঞ্জাব আরু কাশ্মীরত ক্ষমতার য়ি
স্থুল আরু কঢ়া প্রযোগ চলিছে আরু পুলিছক য়িদরে
পশু করি তোলা হৈছে সেইটোও হৈছে জরুরী অ঵স্থার
কালছো঵াত উদ্ধা঵ন করা কৈফিযত-দিবলৈ-বাধ্য়
নথকা ( Non-accountability ) অনুশাসনটিরে
এটা অশুভ পরিণতি । বিহার আরু উত্তর প্রদেশর
গাঁও অঞ্চলবোরত পুলিছ , রাজনীতিক আরু আমোলা
বিষযার মাজত য়ড়য়ন্ত্রমুলক সহয়োগিতা চলিহে ।
বলপ্রযোগ করি ধন আদায করা হয আরু করি ,
এই চক্রটোর মাজত ভাগ বাটোনারা করি লো঵া হয
আরু তার বিরোধিতা করাসকলক কোনোবা এটা
সমযত গোপনে নি:শেষ করি দিযা হয । জাতপাতর
সংঘর্য়বোর দরাচলতে শ্রেণীসংঘর্ষহে আরু জুখীযাসকলে
য়দি তেওঁলোকর অধিকারসমুহ বিচারে আরু বিধিমতে
পো঵া বেচনখিনি বিচারে বা বেগার খাটিবলৈ অস্঵ীকার
করে তেতিযাহলে তেওঁলোকক খতম করি দিযা হয ।</p>

<p>পঞ্জাব আরু অন্য়ান্য় ঠাইত য়িবোর `` সংঘর্ষ ""-ত
সন্ত্রাসবাদী বা ডকাইত বুলি সন্দেহয়ুক্ত লোক নিহত
হৈছে সেইবোরে আকৌ সেই জরুরী অ঵স্থার কথাকে
সো঵ঁরাই দিযে । কিন্তু তেতিযাতকৈ অধিক জঘন্য়
কথাটো হ'ল এযে য়ে এতিযা প্রতিবাদ করিবলৈ
দিযা হৈছে - য়িটো জরুরী অ঵স্থাত দিযা নহৈছিল -
কিন্তু প্রতিবাদ করোতে কোনো নাই । য়িটো ধারা
প্রবর্তিত হৈছিল সেইটো চলি আছে আরু জনমত
পুনর বোবা , নীর঵ হৈ পরিছে ।</p>

<p>নির্বাচনত হিংসাত্মক ঘটনা বাঢ়িছে - বিশেষকৈ
বিহার আরু উত্তর প্রদেশত । মুখ্য় নির্বাচনী
আয়ুক্তই তেওঁর প্রতিবেদনত কৈছে । য়ে দেশর
কেতবোর অংশত বলপ্রযোগে নির্বাচনবোরত এটা
গুরুত্঵পূর্ণ ভুমিকা পালন করিবলৈ আরম্ভ করিছে ।
য়দি এনে ধরণর প্রবণতাবোরত বাধা দিযা নহয
তেতিযাহ'লে জরুরী অ঵স্থা এটা বলবত্ হৈ থকাটো
বা নথকাটো একে কথাই হ'ব ; শক্তিযেই হ'ব
অধিকার ।</p>

<p>জরুরী অ঵স্থাই সংবাদ পত্রর কণ্ঠরোধ করিছিল ।
তেতিযার তথ্য় আরু বেতাঁর মন্ত্রী বিদ্য়াচরণ
শুক্লাই আনকি সংবাদপত্রর বাবে এখন বিধি
প্রণয঩র বিষযেও কো঵ার ধৃষ্টতা দেখু঵াইছিল
আরু কেতবোর `` প্রগতিশীল "" আরু ইন্দিরা পন্থী
সাংবাদিকে বিধি য়ুগুতো঵ার কামতো হাত দিছিল ।
এতিযা আকৌ এবার সংবাদপত্রর বাবে এখন বিধির
কথা লৈ কো঵া-বখনা চলিছে । য়িজনে নেরানেপেরাকৈ
ধরাত কেন্দ্রীয তথ্য় মন্ত্রী গেডগিলে বিধিখনর কথা
উলিযাইছে সেই গুজরাটর ছোলাংকিযে আহমদাবাদর
পরা ওলো঵া দুখন দৈনিক কাকত `` গুজরাট সমাচার ""
আরু ` জনসত্তার '-র প্রতি করা ব্য়঵হারেরে আঠু
কাঢ়ি সেও নমনা বাতরি কাকতর ক্ষেত্রত কি করিব
লাগে ইতিপূর্বে দেখু঵াই গৈছে ।</p>

<p>কোনটো শুদ্ধ আরু কোনটো ভুল সেই সম্পর্কে
সচেতনতা জরুরী অ঵স্থাই নোহো঵া করি থৈ গ'ল
আরু সেইটো঵েই হৈছে জরুরী অ঵স্থাই সমাজখনক
সর্বাধিকভা঵ে করা অনিষ্ট । রাজনীতিক আরু
চরকারী চাকরিযাল সকলর বাবে শুদ্ধ আরু ভুলর
মাজর ব্য়঵ধানকারী রেখাডাল নোহো঵া হৈ গ'ল ।
এসমযত বুদ্ধিজী঵ীসকলর লগত চরকারর য়ি
আলোচনা চলিছিল সি স্থগিত হৈ র'ল । এইবোর
শুধরাই ল'বলৈ জরুরী অ঵স্থার পাছত কোনো প্রতিকার~
মুলক ব্য়঵স্থা গ্রহণ নকরাটো পরিতাপর কথা । আনকি
এতিযাও গ্রহণ করা হো঵া নাই ।</p>

<p>য়ি কোনো একনাযকত্঵বাদী ব্য়঵স্থার বিরুদ্ধে রাইজে
নিজকে সাব্য়স্ত করাটো঵েই এইক্ষেত্রত একমাত্র পথ ।
বর্তমান রাইজ বাধ্য় আরু য়ি হয হৈ ছাকক বুলি
অ঵স্থার সোঁতত নিজকে সমপি দি বহি আছে ।
অতি শোচনীয অ঵স্থাকো গ্রহণ করার এটা প্রবণতা
বিদ্য়ামান । কোনেও প্রতিবাদকে নকরে , বিদ্রোহ
করার কথাই নুঠে । চৌদিশে ভিরুতা । হয চরকারে ,
য়দি চরকারে নকরে তেতিযাহ'লে জনসাধারণে ,
জরুরী অ঵স্থার ছাঁ দুর করার সময হ'ল ।। //
মেরাপানী:
স্঵ার্থ , বিদ্঵েষ আরু মানবতা :
পূর্ণ বরা ।
মেরাপানী য়োরহাট জিলার গোলাঘাট মহকুমার
দক্ষিণ-পূবত নগারাজ্য়র সীমান্তবর্তী অঞ্চলত
অ঵স্থিত । মেরাপানী এটা সরু অঞ্চল , কিন্তু
সেই গোটেই অঞ্চলটো মেরাপানী নামেই প্রখ্য়াত
হ'ল । প্রকৃততে গোটেই অঞ্চলটো হ'ল দৈযাং
বনাঞ্চল । এই অঞ্চলর উত্তরে ঘিলাধারী মৈজা ,
দক্ষিণে নগারাজ্য় , পূবে কাকডোঙা নদী আরু
পশ্চিমে দৈযাং নদীকে সীমা বুলি ধরিব পারি ।
এই অঞ্চল কছারী , চুতীযা আরু আহোমসকলর
রাজ্য় আছিল । তেলীশাল , কাছমারী , দুবরণী
আরু দেওপানী আদি ঠাইত উদ্ধার করা প্রত্নতাত্তিক
মগ্রীবোরে এই কথা প্রমাণ করিছে ।</p>

<p>1925 চনত ইংরাজে শি঵সাগর জিলা আরু
নগা পাহার জিলা দুখনর সীমা চিহ্নিত করে ।
তার পাছতো নগাসকলে অসমর অন্তর্গত অঞ্চল
কিছুমান ` আমার ঠাই ' বুলি তাত বেদখল
অত্য়াচার আদি করি আহিছে । ( তালিকা 1 চাওক ) ।
1963 চনত নগা পাহার জিলাক রাজ্য়লৈ উন্নতি
করাত শি঵সাগর জিলার ডিমাপুর চহরখন নগা
রাজ্য়র অন্তর্ভুক্ত করা হয । বাকী সীমা ইংরাজে
চিহ্নিত করা মতেই থাকে ।</p>

<p>দৈযাং বনাঞ্চললৈ মানুহর
বসতি স্থাপন :
অষ্টাদশ শতিকাত এই অঞ্চলটো জনবসতিহীন
কেনেকৈ হ'ল সঠিককৈ কো঵া টান য়দিও সম্ভ঵
মানর আক্রমণ , প্রাকৃতিক দুর্য়োগ বা মহামারীর
কবলত পরিযেই নগা পাহারর দাঁতি-কাষরর প্রায
90 বর্গ কিল'মিটারর অঞ্চলটো জনশূন্য় হৈ পরে ।
ইংরাজর দিনত এই অঞ্চল হাতী চিকাররহে ভুমি
আছিল । এই বনাঞ্চলত 1878 চনত ইংরাজে বেংগল
বন আইন মতে উন্নত জাতর গছ রুবলৈ আরম্ভ
করে । তেওঁলোকে ওচরর গাঁওবোররপরা লোক
আনি বন গাঁও বা ফরেষ্ট ভিলেজ বহু঵ায ।
লোকসকলে বন বিভাগক বছরত 12 দিন গছপুলি
রুই প্রতিপালন করি দিব লাগিছিল । তার বিনিমযত
বন বিভাগে প্রতিটো পরিযালক 30 বিঘাকৈ মাটি
অস্থাযীভা঵ে ঘর সাজিবলৈ আরু খেতি করিবলৈ দিছিল ।
1905 চনত সমগ্র দৈযাং বনাঞ্চলত প্রায 70 টা পরি-
যালক বন বিভাগে সংস্থাপনর ব্য়঵স্থা করি দিছিল ।
এই পরিযালকেইটা঵ লোক ক্রমাত্ বাঢ়ি গৈ বর্তমান
সমগ্র দৈযাং বনাঞ্চলত 13,000 অরো অধিক পরিযাল
হৈছিল । ( তালিকা 4 ) । এই অঞ্চলত জনবসতি
ঘন হো঵ার কারণ হ'ল ইযার মাটি অতি সারু঵া ।
বান পীড়িত অঞ্চলর লোকলকলর এই অঞ্চললৈ
প্রব্রজন হয ।
",0
</p></body></text></cesDoc>