<cesDoc id="sin-w-features-740" lang="sin">
<cesHeader type="text">
<fileDesc>
<titleStmt>
<h.title>sin-w-features-740.txt</h.title>
<respStmt>
<respType>Electronic file created by</respType>
<respName>Department of Linguistics, Lancaster University</respName>
<respType>text collected by</respType>
<respName>Vincent Halahakone</respName>
<respType>transferred into Unicode by</respType>
<respName>"Unicodify" software by Andrew Hardie</respName>
</respStmt>
</titleStmt>
<publicationStmt>
<distributor>UCREL</distributor>
<pubAddress>Department of Linguistics, Lancaster University, Lancaster, LA1 4YT, UK</pubAddress>
<availability region="WORLD"></availability>
<pubDate>03-08-26</pubDate>
</publicationStmt>
<sourceDesc>
<biblStruct>
<monogr>
<h.title>File from written Sinhala corpus collected by Vincent Halahakone, dated xx-xx-xx</h.title>
<h.author>unknown</h.author>
<imprint>
<pubPlace>Sri Lanka</pubPlace>
<publisher>unknown</publisher>
<pubDate>xx-xx-xx</pubDate>
</imprint>
</monogr>
</biblStruct>
</sourceDesc>
</fileDesc>
<encodingDesc>
<projectDesc>Text collected for use in the EMILLE project.</projectDesc>
<samplingDesc>Simple written text only has been transcribed. Diagrams, pictures and tables have been omitted and their place marked with a gap element.
</samplingDesc>
<editorialDecl>
<conformance level="1"></conformance>
</editorialDecl>
</encodingDesc>
<profileDesc>
<creation>
<date>03-08-26</date>
</creation>
<langUsage>Sinhala</langUsage>
<wsdUsage>
<writingSystem id="ISO/IEC 10646">Universal Multiple-Octet Coded Character Set (UCS).</writingSystem>
</wsdUsage>
<textClass>
<channel mode="w">print</channel>
<constitution type="composite"></constitution>
<domain type="public"></domain>
<factuality type="fact"></factuality>
</textClass>
<translations></translations>
</profileDesc>
<revisionDesc></revisionDesc>
</cesHeader>

<text>
<body>




<p>දොෂණයට
වඩා වගකිවයුත්තේ කව්ද?</p>

<p>දේශපාලකයා
ද? රාජ්ය නිලධාරියා ද?</p>

<p>යුද්ධය
ශ්රී ලංකාව මුහුණ දී තිබෙන ප්රධානම අභියෝගය වුව ද යුද්ධය ජයගැනීමෙන් පමණක් රටට
ගැලවීම උදා කරගත හැකිවේ යැයි සිතිය නොහැකිය. දොෂණය හා නාස්තිය ද, දේශපාලන
ක්රමය පුරා ඔඩු දුවා තිබෙන දරුණු පිළිකාවකි. ඒ නිසා පමණක් වුවත්, රට විනාශයට
පත්විය හැකිය. ප්රභාකරන් යුද්ධ කර ඇත්තේ ශක්තිමත් හා නිරෝගී රටක් සමඟ නොව
අභ්යන්තරික වශයෙන් කුණුවෙමින් තිබූ රටක් සමඟය. යුද්ධය නිසා රටේ විනාශය වේගවත් වූවා විය
හැකිය. එහෙත් යුද්ධයක් නැතිව වුවත් රට විනාශ වීමට තරම් රට අභ්යන්තරික වශයෙන් කුණුවී
තිබුණු බව අප අමතක නොකළ යුතුය.</p>

<p>දොෂණය
හා නාස්තිය ශ්රී ලංකාවට පමණක් ආවේණික දෙයක් ලෙස සැලකිය නොහැකිය. එය අඩු වැඩි
වශයෙන් හැම රටකට ම ආවේණිකය. එහෙත් වෙනත් රටවල ද දොෂණය හා නාස්තිය තිබුණත්,
දොෂණයට හා නාස්තියට එරෙහිව ඉතා බලවත් ලෙස නීතිය ක්රියාත්මක වන තත්ත්වයක් ඒ බොහෝ
රටවල පවතී. එහෙත් රටේ අවාසනාවකට මෙන් ශ්රී ලංකාවේ දොෂණයට හා නාස්තියට අතිරේකව ඒ බිහිසුණු
පිළිකාවට එරෙහිව බලවත් ලෙස නීතිය ක්රියාත්මක වන තත්ත්වයක් රටේ නොපවතී. ඒ නිසා
බාධාවකින් තොරව ඉදිරියට ගලායෑමේ හැකියාවක් එම ප්රවාහයට ලැබී තිබේ.</p>

<p>ශ්රී
ලංකාවේ රාජ්ය මට්ටමින් සිදුවන දොෂණයේ හා නාස්තියේ අනුපාතිකය 50%කටත් වැඩිවිය හැකිය. එහි
ඊළඟ ලක්ෂණය වනුයේ රාජ්ය මට්ටමෙන් මහා පරිමාණයෙන් සිදුවන දොෂණවලදී ඉහළම පෙළේ
දේශපාලකයන් හා රාජ්ය නිලධාරින් අන්යොන්ය අවබෝධයකින් යුතුව එකට කල්ලි ගැසී
ක්රියාකිරීමය.</p>

<p>රාජ්ය
මට්ටමෙන් සිදුවන මහා පරිමාණයේ දොෂණ පිළිබඳව දැක්විය හැකි කොතෙකුත් නිදර්ශන ඇතත්
ජනාධිපතිනිය සඳහා අධි ආරක්ෂිත වාහන මිලදී ගැනීමේ සිද්ධිය රාජ්ය මට්ටමෙන් සිදුවන මහා
පරිමාණයේ දොෂණවලට ආවේණික හැඩතල විග්රහ කිරීම සඳහා යොදාගත හැකි හොඳම නිදර්ශනය ලෙස
සැලකිය හැකිය.</p>

<p>2000
වසර සඳහා ජනාධිපති ලේකම් කාර්යාලය වෙනුවෙන් වාහන මිලදී ගැනීම වෙනුවෙන් අය වැයෙන්
වෙන්කර තිබුණු මුදල රුපියල් මිලියන 63කි. එම වසරේ පාර්ලිමේන්තු අනුමැතියකින් තොරව
ජනාධිපති හා ජනාධිපති ලේකම් කාර්යාලය වෙනුවෙන් වාහන මිලදී ගැනීම වෙනුවෙන් වැය කර තිබෙන
මුදල රුපියල් මිලියන 2400කි. පාර්ලිමේන්තුව අනුමත කර තිබූ මුදල හා පාර්ලිමේන්තු
අනුමැතියකින් තොරව වැය කර තිබෙන මුදල අතර තිබෙන වෙනස 37 ගුණයකි.</p>

<p>ඕනෑම
ප්රජාතන්ත්රවාදී දේශපාලන ක්රමයක් තුළ පොදු මුදල් වෙන් කිරීම් හා අනුමැතිය දීමේ බලය
ඇත්තේ ව්යවස්ථාදායකයටය. අය වැයෙන් යම් කාර්යයක් සඳහා වෙන් කරන ලද මුදල් ප්රමාණයන්
ප්රමාණවත් නොවන අවස්ථාවකදී පරිපූරක ඇස්තමේන්තුවක් මගින් අවශ්ය අතිරේක මුදල් අනුමත
කරගැනීමේ හැකියාවක් පවතී. එහෙත් හැම වෙන්කිරීමක් සඳහාම පාර්ලිමේන්තු අනුමැතිය
අත්යවශ්යය. එහෙත් මෙම වාහන මිලදී ගැනීම වෙනුවෙන් පාර්ලිමේන්තු අනුමැතිය තිබූ රුපියල්
මිලියන 63 වෙනුවට රුපියල් මිලියන 2400ක් වැය කර ඇත්තේ පාර්ලිමේන්තු අනුමැතියකින්
තොරවය. එය මහජනතාවට කර තිබෙන වංචාවක් වනවා පමණක් නොව, ආණ්ඩු ක්රම ව්යවස්ථාවේ
මූලික කොන්දේසියක් උල්ලංඝණය කිරීමක් ද වේ.</p>

<p>මහා
භාණ්ඩාගාරයේ කටයුතු භාරව සිටින ප්රධාන විධායකයා වන්නේ භාණ්ඩාගාර ලේකම්වරයාය. සියලූම
රාජ්ය නිලධාරින් අතර ප්රමුඛ නිලධාරියා ලෙස සැලකෙන්නේ ද භාණ්ඩාගාර ලේකම්වරයාය. ආණ්ඩු
ක්රම ව්යවස්ථාවට පටහැනිව ක්රියාත්මක වන මෙම ගනුදෙනුවට අනුමැතිය නොදීම භාණ්ඩාගාර
ලේකම්වරයාගේ මූලික වගකීමක් වී තිබුණත්, ඔහු මේ ගනුදෙනුවේදී එය නොසලකා රාජ්ය
නායිකාව සමඟ නීතියට පටහැනිව කල්ලි ගැසී ක්රියාකර තිබෙන බව පැහැදිලිය.</p>

<p>මේ
ගනුදෙනුව තුළ මහ වංචාවක් වෙනුවට වංචා වැලක් සිදුවී ඇති බව ද පැහැදිලිය. මුදල්
ගෙවා ඇත්තේ වෙඩි නොවදින අලූත්ම අලූත් බීඑම්ඩබ් වාහන මිලදී ගැනීම සඳහාය. එහෙත් මිලදී ගෙන
ඇත්තේ අලූත්ම අලූත් වාහන වෙනුවට ඕස්ටේ්රලියාවේ මියුනිච් නුවර පැවති ඔලිම්පික් උලෙළ
සඳහා පාවිච්චි කළ 1998 නිෂ්පාදනය කළ පරණ වාහනය. වාහන ශ්රී ලංකාවට පැමිණ ඇත්තේ ද
බී.එම්.ඩබ්. නිපදවන ජර්මනියෙන් නොව, ජකාර්තාවලින් හා හොංකොංවලිනි. වාහන ඇණවුම්
කොට ඇත්තේ ද සෘජු ලෙස බීඑම්ඩබ්. සමාගමෙන් නොව අතමරුදි සාමගමක් මගිනි.</p>

<p>රටේ
දේශපාලකයන් අතර සිටින ප්රමුඛතමයා ලෙස සැලකිය හැකි ජනාධිපතිනිය, රාජ්ය නිලධාරින්
අතර සිටින ප්රමුඛයා ලෙස සැලකිය හැකි මහා භාණ්ඩාගාර ලේකම්වරයා ද එකට පැටලී සිටින මේ
ගනුදෙනුව රාජ්ය මට්ටමෙන් සිදුවන දොෂණ පිළිබඳව කේන්ද්රීය වැදගත්කමක් ඇති මූලික
ප්රශ්නයක් මතු කරනු ලබයි. එනම් රාජ්ය මට්ටමෙන් සිදුවන දොෂණවලදී වඩා වගකිවයුත්තේ
දේශපාලකයා ද නැතිනම් රාජ්ය නිලධාරියාද? රටේ පවතින ජනප්රිය මතය අනුව නම් වඩා
වගකිවයුත්තේ දේශපාලකයාය. නිලධාරියාට කළ හැකි දෙයක් නැත. ඔහු සිය පැවැත්ම සඳහා
දේශපාලකයාට අවනත විය යුතුය. එහෙත් ඒ ජනප්රිය මතය වැරදිය. එහිදී දේශපාලකයාට වඩා
වගකිවයුත්තේ රාජ්ය නිලධාරියාය.</p>

<p>ප්රජාතන්ත්රවාදී
දේශපාලන ක්රමයක් තුළ දේශපාලකයා යනු මහජනයා විසින් ව්යවස්ථාදායකයට තෝරාපත් කර
ගනු ලැබූ මන්ත්රීවරියකු හෝ මන්ත්රීවරයෙකු වීමෙන් පසු නිල තනතුරක් ලැබූවකු අදහස් වේ.
එහෙත් ඔහුගේ පැවැත්ම තාවකාලිකය. මහජනයා ඔහු තෝරාපත් කර ඇත්තේ සීමිත කාලයකට
පමණය. නැවත පත්කිරීමක් සඳහා නැවත මහජන වරමක් දිනාගැනීම අවශ්ය වේ. එහෙත් රාජ්ය
නිලධාරියාගේ තත්ත්වය ඊට වෙනස්ය. ඔහුගේ පත්වීම ස්ථිරය. ඔහු මහජන වරමකින් තේරී
පත්වන්නකු නොව, රාජ්ය සේවය සඳහා තෝරාපත් කරගනු ලැබූ පුද්ගලයෙකි. ඔහු ස්ථිර
වැටුප් ක්රමයක් මත රාජ්ය සේවයට බඳවා ගෙන ඇත්තේ නීතියට අනුකූලව රාජ්ය යන්ත්රය
පවත්වාගෙන යෑමට අවශ්ය රාජ්ය සේවකයකු ලෙස සලකාය.</p>

<p>ඕනෑම
දේශපාලන ක්රමයක කොඳු නාරටිය ලෙස ක්රියා කරනුයේ පරිපාලන සේවයේ නියුතු රාජ්ය
නිලධාරින්ය. මහජනයා තෝරාපත් කරන දේශපාලකයන් සමඟ ඔවුන් සහයෝගයෙන් ක්රියා
කළයුතු බවට සැකයක් තිබිය නොහැකිය. එහෙත් සහයෝගය යන්නෙන් අදහස් වන්නේ
දේශපාලකයන්ට පිස්සු නැටීමට ඉඩ හැරීම නොවේ. ඔවුන් දේශපාලකයන්ට නීති විරෝධී ලෙස
ක්රියාකිරීමට ඉඩ නොදිය යුතුය.</p>

<p>අධි
ආරක්ෂිත වාහන ගනුදෙනුවේදී එම ගනුදෙනුවට ආවේණික නීති විරෝධී ස්වභාවය සලකා මහා
භාණ්ඩාගාරයේ ලේකම්වරයා එම මිලදී ගැනීමට අවශ්ය මුදල් අනුමත නොකරන තත්ත්වයකින් ක්රියා
කළේ නම්, දේශපාලකයාට දැවැන්ත දොෂණයක යෙදීමේ අභිලාෂයක් තිබුණත්, එම
ක්රියා ප්රායෝගික නොවන්නට ඉඩ තිබුණි. භාණ්ඩාගාර ලේකම්වරයා මෙම නීති විරෝධී
ගනුදෙනුවේදී ඊට ඉඩ නොදෙන දැඩි පිළිවෙතක පිහිටා ක්රියා කළේ නම්, සමහරවිට ඨගෑගක්ග
්කිඑයදප ගනුදෙනුවේදී හිටපු භාණ්ඩාගාර ලේකම් බී.සී. පෙරේරා
ජනාධිපතිනියගේ උදහසට ලක්වූවා සේ ම, භාණ්ඩාගාර ලේකම්වරයා ද ඇගේ උදහසට
ලක්වන්නට ඉඩ තිබුණා විය හැකිය. එය වෙනම කාරණයකි. රටට විශාල අලාභයක් ඇති කරන නීති
විරෝධී ගනුදෙනුවකට ඉඩ නොතබා නීතියට අනුකූලව ක්රියා කරන තත්ත්වයක් ඉදිරියේ රාජ්ය
නිලධාරියා දේශපාලකයාගේ උදහසට ලක්වන අවස්ථාවකදී රාජ්ය නිලධාරියට සිය ආරක්ෂාව සඳහා
ගතහැකි විකල්ප ක්රියා ගණනාවක් පවතී. ඔහුට අවශ්ය නම්, සිය ආරක්ෂාව සඳහා අධිකරණය
ඉදිරියට යා හැකිය. තිබෙන එම විකල්පය දොෂ්කර විය හැකි වුවත්, එවැනි පිළිවෙතක්
අනුගමනය කරනවා හැර රටට බලවත් පාඩුවක් ඇති කරන ගනුදෙනුවකට ඉඩ දෙන පිළිවෙතක්
අනුගමනය කිරීමේ අයිතියක් රාජ්ය නිලධාරියාට නැත. දේශපාලකයින් බාධාවකින් තොරව වැරදි
කරන්නේ රාජ්ය නිලධාරින් ඊට එරෙහිව තමන්ගේ මට්ටමෙන් ක්රියා නොකරන නිසාය. කෙනෙකු එසේ
කරන්නේ ජීවිත බිය නිසා විය හැකිය. එහෙත් බොහෝ අය එසේ කරන්නේ ජීවිත බිය නිසා නොව ඒ
මගින් ලැබිය හැකි වාසි සලකාය.</p>

<p>මෙය
හිටපු භාණ්ඩාගාර ලේකම්වරයාට පමණක් ආවේණික දුර්වලතාවක් නොව, ආණ්ඩුවේ ප්රමුඛ තනතුරු
දරන ප්රධාන පෙළේ සියලූ රාජ්ය නිලධාරින්ට ද ආවේණික පොදු දුර්වලතාවකි.</p>

<p>ප්රජාතන්ත්රවාදී
දේශපාලන ක්රමයක් තුළ රාජ්ය අංශවල සිදුවන ගනුදෙනු හා ක්රියාකාරකම් සොයා බැලීමේ
ප්රධාන වගකීම පැවරී ඇත්තේ විගණකාධිපතිවරයාටය. ඔහු රාජ්ය නිලධාරින් අතර සිටින ප්රමුඛම
නිලධාරියෙකි.</p>

<p>රාජ්ය
ආයතනවල එදිනෙදා ක්රියාකාරීත්වය පමණක් නොව, රාජ්ය ආයතන පෞද්ගලික අංශයට විකුණන
ක්රියාවලියේදී ඊට අදාළව සිදුවන කටයුතු මහජනයාට පාඩුවක් සිදු නොවන ආකාරයට හා
නීතියට අනුකූලව සිදුවේ දැයි සොයා බැලීමේ ප්රධාන වගකීම ඇත්තේ විගණකාධිපතිවරයාටය.
එහෙත් ඔහු එහිදී පොදු දේපළ ආරක්ෂා කරන ප්රධාන මුරබල්ලා ලෙස ක්රියා කරනු වෙනුවට
දේශපාලකයන්ගේ සතුටට හේතුවනු මට සින්ථටු ප්රතිපත්තියක් අනුගමනය කරමින් සිටින බව දැකිය
හැකිය.</p>

<p>ජනාධිපති
අරමුදල විශාල මහජන මුදල් ප්රමාණයකින් ඒකරාශි වී තිබෙන අරමුදලකි. ප්රධාන කොට එම
අරමුදල ජනාධිපතිනියගේ පාලනය යටතේ පවත්නා අරමුදලක් වීම හේතු කොටගෙන විගණකාධිපතිවරයා
එය විගණනය නොකොට ජනාධිපතිනියට කැමති පෞද්ගලික විගණක ආයතනයකට විගණනය කරගැනීමට ඉඩදී
බලා සිටින පිළිවෙතක් අනුගමනය කළේය. විගණකාධිපතිවරයාට ඔහුගේ කටයුතු මනා ලෙස
කරගෙන යෑමට අවශ්ය තරම් අරමුදල් හෝ මිනිස් සම්පත් නොතිබෙනවා විය හැකිය. ඒ ඉලක්කය
සපුරා ගැනීම සඳහා ක්රියා කරන අතර, එය ඉටුවන තෙක් තිබෙන සීමිත සම්පත් උපරිම ලෙස
යොදාගනිමින් තමන් යටතට වැටෙන ආයතන අතරින් කේන්ද්රීය  වැදගත්කමක් ඇති ආයතනවල කටයුතු හොඳින් සොයා බලන ප්රතිපත්තියක්
පවත්වාගෙන යා යුතුව තිබුණි. පරිමාව අනුව විශාල දොෂණ වැඩියෙන්ම සිදුවන්නේ රාජ්ය ආයතන
පෞද්ගලික අංශයට විකුණන ක්රියාවලියේදීය. එහෙත් ඒ ක්රියාවලියට විගණකාධිපතිවරයා
මැදිහත්වනවා දකින්නට දේශපාලකයන් තුළ ඇති අකමැත්තට ඉඩ දී ඔහු එම ක්රියාවලියෙන්
පිටස්තරව පැත්තකට වී බලා සිටින ප්රතිපත්තියක් අනුගමනය කළේය. ඊටත් අතිරේකව රාජ්ය
ආයතනයක කිසියම් කොටස් ප්රමාණයක් පෞද්ගලික අංශයට විකුණා තවත් කොටස් ප්රමාණයක් රාජ්ය
සතුවන අවස්ථාවලදී මහජනයා වෙනුවෙන් එවැනි ආයතනවල කටයුතු සොයා බැලීමේ වගකීමක්
විගණකාධිපතිවරයාට තිබුණ ද, එවැනි ආයතනවල කටයුතු සිදුවන්නේ ද විගණකාධිපතිවරයාගේ
අධීක්ෂණයකින් තොරවය. එවැනි ආයතනවලින් විගණකාධිපතිවරයා පිටස්තර කොට තැබීම පිණිස
නීතිපතිවරයෙක් (සරත් නන්ද සිල්වා) ඒ සඳහා විශේෂ අර්ථ නිරූපණයක් කර තිබුණි.
රාජ්ය ආයතනයක කිසියම් කොටස් ප්රමාණයක් පෞද්ගලික අංශයට විකුණා රාජ්ය සතු කොටස්
අයිතිය සමග නව සමාගමක් ඇති කෙරෙන අවස්ථාවක එම සමාගම රාජ්ය ආයතනයක් ලෙස සැලකිය
නොහැකි බැවින් එවැනි ආයතනවල කටයුතුවලට මැදිහත්වීමේ අයිතියක් විගණකාධිපති සතු නොවන බව
එම අර්ථ නිරූපණයෙන් ප්රකාශ කොට තිබුණි. නීතිපතිගේ මෙම අර්ථ නිරූපණය වංචාවක් බව
විගණකාධිපති )ඃ8804තන සිටියත්, ඔහු ඊට අභියෝග කිරීමෙන් වැළකී සිටීමෙන්
නොනැවතී එවැනි ආයතන ගැන කරුණු සොයා බැලීමෙන් වැළකී සිටින ප්රතිපත්තියක් ද
අනුගමනය කළේය.</p>

<p>හිටපු
ඇමති මංගල සමරවීර මහතාගේ ක්රෙඩිට් කාඩ් ගනුදෙනුව පිළිබඳව අල්ලස් හෝ දොෂණ කොමිසම
කරන ලැබූ අර්ථ නිරූපණය විගණකාධිපතිවරයා උරගා බැලීමකට ලක් කළ වැදගත් අවස්ථාවක් ලෙස
සැලකිය හැකිය. ඇමතිවරයෙකුට විදේශීය සංචාරයකදී මුදල් ලබාගත හැකි විධිමත් ක්රමයක් පවතී.
ඇමතිවරුන්ගේ විදේශීය සංචාර සඳහා අමාත්යාංශ වැය ශීර්ෂ යටතේ මුදල් වෙන් කිරීමක් සිදු
කරනු ලබයි. එසේ වෙන් කරන මුදල් ප්රමාණවත් නොවන අවස්ථා ඇතොත්, පරිපූරක
ඇස්තමේන්තුවක් මගින් තවදුරටත් අතිරේක මුදල් අනුමත කරවාගත හැකිය. ඒ හැරුණු විට එම
අමාත්යාංශය යටතේ ඇති ආයතනවලින් මුදල් ලබාගැනීම නීති විරෝධීය.</p>

<p>මේ
සිද්ධියේදී ඇමතිවරයා අමාත්යාංශය සඳහා වෙන් කළ ප්රතිපාදනවලින් මුදල් ලබාගන්නවාට
අමතරව රජයට වැඩි කොටස් අයිතියක් තිබූ ටෙලිකොම් සමාගමෙන් ද මුදල් ලබාගත්තේය.
ලබාගත් ක්රෙඩිට් කාඩ් පතෙන් ඔහු ඔඩෙල් සමාගමෙන් ඇඳුම් පමණක් නොව තවත් ආයතනයකින් විස්කි
ද මිලදී ගත්තේය. එහෙත් අල්ලස් හෝ දොෂණ කොමිසම කියන්නේ ඒ ගනුදෙනු කිසිවක් නීති
විරෝධී නොවන බවත්, දොෂණ ගණයට නොවැටෙන බවත්ය. මෙය පිළිගත් රාජ්ය ප්රතිපත්ති
කණපිට හරවන අර්ථ නිරූපණයකි. මේ විෂය භාර ප්රධාන පුද්ගලයා වශයෙන් මෙම අර්ථ නිරූපණයට
අභියෝගය කළයුතු ප්රධාන පුද්ගලයා වන්නේ විගණකාධිපතිවරයාය. එම අර්ථ නිරූපණය ඔහුගේ
කටයුතු සඳහා ද බලපාන නිසාය. එහෙත් විගණකාධිපතිවරයා මෙම අර්ථ නිරූපණයට අභියෝග කරන
තැනකට ගියේ නැත.</p>

<p>මේ
මූලික වැරැද්ද දැකිය හැක්කේ මහා භාණ්ඩාගාර ලේකම්, විගණකාධිපති වැනි තනතුරුවල
පමණක් නොවේ. නීතිපති, මැතිවරණ කොමසාරිස්, මහ බැංකු අධිපති, විශ්ව
විද්යාල උපකුලපති, පොලිස්පති, හමුදාපති, අමාත්යාංශ ලේකම්වරුන් වැනි
බලවත් තනතුරු තුළ ද දැකිය හැකිය. මේ තනතුරු දරන්නන් දේශපාලකයන්ට කැමති ලෙස
මිස, ස්වාධීනව නීතිය අකුරටම ක්රියාත්මක කරන තත්ත්වයකින් ක්රියා නොකරයි. රට
අභ්යන්තරයේ ඇතිවී තිබෙන කුණුවීම කෙරෙහි බලපා තිබෙන ප්රධාන සාධකය වී ඇත්තේ ද එයයි.</p>

<p>එම
ධර්මතාව වෙනස් කළ හැකිවනු ඇත්තේ නීතියට පටහැනිව දේශපාලනඥයන් සමඟ කල්ලි ගැසී
ක්රියාකරන ප්රධාන පෙළේ නිලධාරින් කිහිපදෙනෙකු, ප්රධාන පෙළේ දේශපාලකයන්
කිහිපදෙනෙකු සමඟ නඩු අසා දඬුවම් කොට හිරේ යවන තත්ත්වයක් ඇති කිරීමෙන් පමණය. දොෂණයට
එරෙහිව නීතිය ක්රියාත්මක වන තත්ත්වයක් මේ රටේ ද ඇතිවීම ආරම්භ වනු ඇත්තේ එදාටය.
දේශපාලකයින්ට යටහත් පහත් ලෙස ක්රියා නොකරන, පිටකොන්ද ඇති නිලධර තන්ත්රයක්
ඇතිවීමේ ක්රියාවලිය ආරම්භ වනු ඇත්තේ ද එතැනිනි.</p>

<p>වික්ටර්
අයිවන් </p>

<p> </p>

<p> </p>






</body></text></cesDoc>