<cesDoc id="sin-w-features-silumina-245" lang="sin">
<cesHeader type="text">
<fileDesc>
<titleStmt>
<h.title>sin-w-features-silumina-245.txt</h.title>
<respStmt>
<respType>Electronic file created by</respType>
<respName>Department of Linguistics, Lancaster University</respName>
<respType>text collected by</respType>
<respName>Vincent Halahakone</respName>
<respType>transferred into Unicode by</respType>
<respName>"Unicodify" software by Andrew Hardie</respName>
</respStmt>
</titleStmt>
<publicationStmt>
<distributor>UCREL</distributor>
<pubAddress>Department of Linguistics, Lancaster University, Lancaster, LA1 4YT, UK</pubAddress>
<availability region="WORLD"></availability>
<pubDate>03-08-26</pubDate>
</publicationStmt>
<sourceDesc>
<biblStruct>
<monogr>
<h.title>File from written Sinhala corpus collected by Vincent Halahakone, dated xx-xx-xx</h.title>
<h.author>unknown</h.author>
<imprint>
<pubPlace>Sri Lanka</pubPlace>
<publisher>unknown</publisher>
<pubDate>xx-xx-xx</pubDate>
</imprint>
</monogr>
</biblStruct>
</sourceDesc>
</fileDesc>
<encodingDesc>
<projectDesc>Text collected for use in the EMILLE project.</projectDesc>
<samplingDesc>Simple written text only has been transcribed. Diagrams, pictures and tables have been omitted and their place marked with a gap element.
</samplingDesc>
<editorialDecl>
<conformance level="1"></conformance>
</editorialDecl>
</encodingDesc>
<profileDesc>
<creation>
<date>03-08-26</date>
</creation>
<langUsage>Sinhala</langUsage>
<wsdUsage>
<writingSystem id="ISO/IEC 10646">Universal Multiple-Octet Coded Character Set (UCS).</writingSystem>
</wsdUsage>
<textClass>
<channel mode="w">print</channel>
<constitution type="composite"></constitution>
<domain type="public"></domain>
<factuality type="fact"></factuality>
</textClass>
<translations></translations>
</profileDesc>
<revisionDesc></revisionDesc>
</cesHeader>

<text>
<body>




<p>සමරු පොතක
මතක සුවඳ</p>

<p>වල්පොල
රාහුල හිමිට පහර දෙති</p>

<p> </p>

<p>1947 r¥{¥l {« r±mv r£Mz»Kplª v¥Ü{yj»x
n WY~l c£ÜY rY}xf r±tz Ru»x¤[x {«»x {£v£¹|Y Yq{§y x. Wc£r»x ¥v r±tz
R»rY}YxYªf v W»y { {£v£¹|Y rY}xY ë»x¤Ël»xY ly[ »Y» x. W ë~£ ly[x
r¥{¥Ü»x {vl Wc£rxl Rly x. R¥~. hJzN. R£M. Ö. tjh£yp£xY Wc£rxf WYlª »p£þ
»vv v¥Ü{yj»x n ~¹z v ~u£{ ¥Ñxf R£~p {¥Õ ~¹Z³£{Y ly[ »Y» pK, rv¨ {p
l¥p ~¹z v£ ~u£{fl, »n {p l¥p {£v£¹|xfl z¥ð Wc£rxf Rl {p»p lªp {¥ë l¥p
x. Wc£r»xp »nlªp »np£ WY v R£~pxf ly[ Y Rly Wc£rx lë rY}xY »z~ W Yz {Mopx
þ »p£ Üïj.</p>

<p>දොස්තර
රත්නපාල (වැල්ලවත්ත - ගල්කිස්ස) ඩී. ඩී. ඇතුලත්මුදලි (අගලවත්ත) බර්නාඩ් ජයසූූරිය
(අවිස්සාවේල්ල) උපාලි බටුවන්තුඩාව (කන්ථතර) රාජා හේවා විතාරණ (කෝට්ටේ)) තෝමස්
අමරසූූරිය (මොරටුව) සුසන්ත ද පොන්සේකා (පාණදුර) සී. ඒ. ධර්මපාල (හක්මන) තෝමස්
අමරසූූරිය (ගාල්ල) ඩේවිඩ් වනිගසේකර (අකුරැස්ස) ජයවීර කුරුප්පු (නිවිතිගල) පී. සී. ඉඹුලාන
(රුවන්වැල්ල) ඩී. එස්. සේනානායක (මීරිගම) බුලන්කුලම දිසාව (අනුරාධපුර) පොහොලියද්ද
දිසාව (හොරව්පතාන) පී. එල්. බෞද්ධසාර (පොළොන්නරුව) ඩී. ඊ. ආටිගල (රත්නපුර) ඩඩ්ලි
සේනානායක (දැදිගම) ටී. කේ. ඩබ්ලිව්. චන්ද්රසේකර (කිරිඇල්ල) ජේ. ආර්. ජයවර්ධන (කැලණිය) යන
එජාපයේ සියලුම ප්රබලයන් සමග මෙම මැතිවරණයේ දී වාමාංශිකයෝ තරග කළහ.</p>

<p>බිංගිරිය
අසුනට ලංකා සමසමාජ පක්ෂයෙන් තරග කළ ටී. බී. සුබසිංහ එජාප අපේක්ෂකයා ඇතුන්ථ සියලු ම
ස්වාධීන අපේක්ෂකයන් ගේ ඇප රාජ සන්තක කොට ජය ගැනීම විශේෂ සිද්ධියකි.</p>

<p>මෙම
මැතිවරණයේ දී හොරණ ආසනය ඒ. පී. ජයසූූරිය (එජාප) ජය ගත්තේ ඡන්ද 15,828 කිනි. දෙ වන
තැනට පැමිණි සමසමාජ අපේක්ෂක ඇම්. ජේ. පීරිස් ඡන්ද 15,163 ක් ලබා ගත්තේය. තෙ වැනි
තැනට පැමිණි කොමියුනිස්ට් අපේක්ෂක අනගාරික ධර්මපි්රය ඡන්ද 3,187 ක් ලැබුවේ ය. සමසමාජ
කොමියුනිස්ට් ගැටුම නොවූයේ නම්, සමසමාජ නියෝජිතයා ජය ගන්නේ ය. මැද කොළඹට ජේමිස්
පෙරේරා නමැති සමසමාජ නියෝජිතයා ඉදිරිපත් නො වූයේ නම් පීටර් කේනමන් (කොමියුනිස්ට්) මැද
කොළඹ තුන් වන නොව දෙ වන මන්තී්රවරයා වන්නට ඉඩ තිබිණ.</p>

<p>එක ම
ආසනයට එජාපයෙන් දෙ දෙනා බැගින් ඉදිරිපත් වීමෙන් ඇතැම් තැනක එජාපයට අවාසි සිදු වූ අතර
පොලොන්නරුවට එජාපයෙන් පස් දෙනකු තරක වැදී සිටියදීත් පී. එල්. බෞද්ධසාර එජාප
මන්තී්ර ලෙස තේරී පත්වීම ද විශේෂ සිද්ධියක් විය.</p>

<p>වෙහෙරක්
ගිනි ගන්නා ගිනි දැල් සහිත චිත්රයක් උඩින් ලියැවුණ "සමසමාජ ගින්නෙන් බුද්ධාගම බේරා
ගනිව්" යන දැවැන්ත පෝස්ටරයක් ඩී. ඇස්. සේනානායක ගේ මෙහෙයැවීමෙන් රට පුරා
ප්රදර්ශනය වෙද්දි 1947 මහ මැතිවරණයේ දී හැංගි හොරා නැති ව වාමාංශිකයනට සහයෝගය
දක්වන්නට ඉදිරිපත් වූයේ කැලණියේ විද්යාලංකාර පිරිවෙනේ භික්ෂූන් වහන්සේලා ය. නිදහස්
අධ්යාපන පනත සම්මත කැර ගැනීම උදෙසා මහත් පරිශ්රමයක් දැරූ විද්යාලංකාර පිරිවෙන මගින් 1946
මාර්තු 14 වන දා "කාලය" නමින් පුවත් පතක් ආරම්භ කෙරිණි. එය පළ වූයේ
කොටහේනේ පඤ්ඤාකිත්ති ස්වාමීන් වහන්සේ  ගේ
කර්තෘත්වයෙනි. මේ කාලයේ දී 'කාලය' පත්රයට කවි ලිවීමෙන් සහ අලෙවි කැර ගන්නට ආධාර කිරීමෙන්
ද සහයෝගය දැක් වූ මම නිතර නිතර පෑලියගොඩ පිරිවෙනට යෑම නිසා කොටහේනේ පඤ්ඤාකිත්ති,
බඹරැන්දේ සිරි සීවලී, නාත්තණ්ඩියේ පඤ්ඤාකර ආදී හිමිවරුන් සමග සමීප ඇසුරට පත් වීමි.</p>

<p>ලංකාවට
පූර්ණ නිදහස ලබා ගැනීම සඳහා උද්ඝෝෂණයෙහි යෙදී සිටි විද්යාලංකාර භික්ෂූන් වහන්සේලා
පුරෝගාමීව ඇරැඹි ලංකා එක්සත් භික්ෂු මණ්ඩලයේ ඓතිහාසික රැස්වීමක් 1946 සැප්: 31 වන දා
මහනුවර නගර ශාලාවේ දී පැවැත්විණ. 1947 මහ මැතිවරණයේ දී වාමාංශිකයනට සහයෝගය දැක්වීමේ
අරමුණ දැක්වෙන යෝජනාවක් එම රැස්වීමේ දී සම්මත කැර ගනු ලැබිණ.</p>

<p>"ලංකාව
තව දුරටත් වහල් බැම්මෙන් බැඳ තබන සෝල්බරි ආණ්ඩු ක්රමය ප්රතික්ෂේප කොට බි්රතාන්ය
අධිරාජ්යයෙන් වෙන් වී ලංකාවේ සම්පූර්ණ නිදහස ලබා ගැනීමට කි්රයා කරන, දුප්පත් රට වැසියා ගේ
ආරක්ෂාව කර දෙන පිරිසක් අලුත් පාර්ලිමේන්තුවට තෝරා යැවීමට මහජනයාට භික්ෂූන්
වහන්සේලා අනුශාසනා කළ යුතුය" යනු එම යෝජනාවයි. මේ අනුව විද්යාලංකාර පිරිවෙනේ
භික්ෂූන් වහන්සේලා 47 මහ  මැතිවරණයේ දි
වාමාංශික අපේක්ෂකයන් ගේ ජයග්රහණය පිණිස ප්රසිද්ධියේ ම සහයෝගය දැක්වූහ.</p>

<p>කැලණිය
අසුනට ජේ. ආර්. ජයවර්ධන සමග තරග කෙළේ සමසමාජ පක්ෂයේ බෝධිපාල වෛද්යසේකර ය.
විද්යාලංකාර පිරිවෙනේ භික්ෂූන් වහන්සේලා බෝධිපාලට කෙලින් ම සහයෝගය දැක්වීම එජාපයට
රිස්සුම් නුදුන්නේ ය. එක් පැත්තකින් කැලණිය අසුනේ සමසමාජ රැස්වීම් කඩාකප්පල් කැර දමන්නට
එජාපය සංවිධානාත්මකව උත්සාහ කළ අතර විද්යාලංකාර පිරිවෙනේ භික්ෂූන් වහන්සේලාට නොයෙක්
අපහාස උපහාස හා අඩන්තේට්ටම් කරන්නට ද ඉදිරිපත් විය.</p>

<p>බෝධිපාල
වෛද්යසේකරට පක්ෂපාතීව කැලණියේ විහාරයට යාබද ව ගම ඇතුළට වන්නට පැවැත්වූ රැස්වීමක් මට
තවමත් මතක ය. මෙම රැස්වීම ආරම්භයේ සිට ම ඈතින් රැස් ව සිටි පිරිසක් කෑ කෝ ගසමින් හූූ
කියමින් වරින් වර බාධා කළ අතර බෝධිපාල කතා කරන විට, කණ්ඩායමක් හේවිසි දවුල් ගසන්නටත්,
හොරණෑ නලා පිඹින්නටත් වූහ. මේ අතර පිටකොටුවේ සිට වරායේ කම්කරුවන් ඇතුන්ථ පිරිසක්
රැස්වීම පැවැති ස්ථානයට ළඟා වූහ. දවුල් හොරණෑ හඬ ඇසූූ එම පිරිස අතට හසු වන ගල් හා
මුගුරු රැගෙන රැස්වීමට බාධා කරන පිරිස වෙත හඹා ගොස් පහර දෙන්නට වූහ. රැස්වීමේ පිරිසක් ද
ඊට එක් වූ අතර හේවිසි හොරණෑකාරයෝ ඇතුන්ථ කණ්ඩායම පණ බේරා ගෙන පලා ගියෝ ය. එ තැන්
සිට රැස්වීමේ කටයුතු සන්සුන්ව ගෙන යා හැකි විය.</p>

<p>එ කල
වාමාංශික ඡන්ද ප්රචාරක රැස්වීම්වලදී ඉතා ම ජනපි්රය පැවිදි කථිකයන් දෙ පළ වූයේ වල්පොල
රාහුල හිමි හා කොටහේනේ පඤ්ඤාකිත්ති හිමි ය. එක් දිනෙක වල්පොල රාහුල ස්වාමීන් වහන්සේ
කන්ථපහණ රේවත ස්වාමීන් වහන්සේ සමග බෝධිපාල වෛද්යසේකර ගේ ප්රචාරක රැස්වීමකට යනු පිණිස
විද්යාලංකාර පිරිවෙන අසලදී මෝටර් රියකට ගොඩ වූහ. කට ගොන්නක් බී ගත් මැරවර පිරිසක්
අතරමගදී රථය බලහත්කාරයෙන් නතර කොට රාහුල හිමියන් එළියට ඇද අතින් පයින්් පහර දුන්හ.
රාහුල හිමි සිහිසන් නැතිව ඇද වැටෙන තුරු පහර දුන් මැරවරයෝ පලා ගියහ. මේ සිද්ධිය ගැන
'කාලය' පත්රයේ පළ වූ කතුවැකියක මෙසේ සඳහන් විය.</p>

<p>"....
මේ අපරාධය වූ කලී හදිසියේ සිදු වූවක්ය සිතිය නො හැක. මෙ රට බෞද්ධයන් යැයි කියා
ගන්නා පුද්ගලයන් ගේ පාලනයෙන් පවත්නා පුවත් පත් මගින් ද එ. ජා. පක්ෂයේ පච ප්රචාර
මගින් ද ජේ. ආර්. ජයවර්ධන මහතා ගේ අසත්ය පති්රකා මගින් ද කලක් තිස්සේ කළ උත්සාහය නිසා
මෙ බඳු කනගාටුදායක දේ සිදු වූ බව පෙනේ. කෙසේ වෙතත් මහ පාරේ යන භික්ෂූන්
වහන්සේලාට හිරිහැර කිරීමට තරම් මැරවරකම් කිරීමට එ. ජා. පක්ෂයේ නායකයන් උත්සාහ කරතොත්
එය නුවණැති වැඩක් යැයි අපි නො සිතමු."</p>

<p>මීළඟට :
කොල්වින් පොලිස් රියේ පියස්සට නගීී.</p>

<p> </p>

<p>වල්පොල
රාහුල හිමිපාණෝ.</p>

<p>කොටහේනේ
පඤ්ඤාකිත්ති හිමිපාණෝ.</p>

<p> </p>

<p> </p>

<p>සමරු පොතක
මතක සුවඳ</p>

<p> </p>

<p>හර්තාලයෙන් පසු
පොලිස් මර්දනය</p>

<p> </p>

<p>මා 1947 සිට
1950 වන විට 'සරසවි සඳරැස' පත්රයේ ඩී. ඩබ්ලිව්. වික්රමාරච්චි මහතා ගේ මග පෙන්වීමෙන් පත්ර කලා
කාරියේ සාර්ථක පුහුණුවක් ලැබ, ඔහු ගේ අනුග්රහය යටතේ 'පෙරමුණ' නම් එ කල ජනප්රිය ව
පැවැති සති පතා පුවත් පතේ උප කර්තෘවරයකු ලෙස සේවය කොට, අර්බුදයක් හේතු කොට ගෙන
ඉන් ඉවත් වන්නට සිදු විය. මේ වන විට උග්ර සමසමාජ මත ධාරියකුව සිටි මට පත්රවල ඇතැම් කටයුතු
කෙරෙහි ඇති වූයේ මහත් කල කිරීමෙකි.</p>

<p>"හොඳට
ඉගෙන ගෙන වෙන රැකියාවක් කරන්න. පත්ර කලාව විනෝදාංශයක් කර ගන්නැ" යි මුලදීම මගේ
පත්ර කලා ගුරු ඩී. ඩබ්ලිව්. වික්රමාරච්චි මහතා දුන් අවවාදය නිරන්තරයෙන් සිහියට නැඟිණි. මේ
අතර ගුරු වෘත්තියට පිවිස සිටි මගේ සමකාලීන මිතුරෝ ද ගුරු වෘත්තියට පිවිසෙන ලෙස නිතර කියා
සිටියහ. ඒ සඳහා මට සුදුසුකම් තිබිණ.</p>

<p>"ඔය
පත්තර කෙරුවාව හරි යන රස්සාවක් නොවෙයි. උඹට දියුණු වෙන්ට නම් ගුරු වෘත්තියට
බැහැපන්" යැයි මිතුරෝ අවවාද කළහ. මේ අනුව පත්රයෙන් ඉවත් වූ ඉක්මනින්්ම වාගේ්
ඉංගිරියේ බෞද්ධ මිශ්ර පාඨශාලාවේ ගුරු පත්වීමක් ලැබ ගියෙමි. එහෙත් ගුරු වෘත්තිය කෙරෙහි
එ තරම් ලැදියාවක් මා තුළ ඇති නො වී ය.</p>

<p>මේ කාලය වන විට
බෝල්ෂෙවික් ලෙනිනිස්ට් පක්ෂයත්, ලංකා සමසමාජ පක්ෂයත් එක් ව තනි පක්ෂයක් බවට පත් විය. පක්ෂ
දෙක එක් වීමේ දී පිලිප් ගුණවර්ධන කණ්ඩායමක් සමග සමසමාජ පක්ෂයෙන් කැඩී ගියේ ය. ඔහු
විප්ලවකාරී සමසමාජ පක්ෂය පිහිටුවා ගත්තේ ඉන් පසුව ය. බෝල්ෂෙවික් හා සමසමාජ පක්ෂ එක්
ව පිහිටුවා ගත් ලංකා සමසමාජ පක්ෂයේ මේ වන විට මට ද සාමාජිකත්වය ලැබී තිබිණ.</p>

<p>1953 හර්තාලය
නමින් අති දැවැන්ත විරෝධතා ව්යාපාරය පැවැත්වුණේ එ කල මා ඉංගිරියේ ගුරු වෘත්තියේ යෙදී
සිටිය දී ය. අගෝස්තු මාසය නිවාඩු කාලයක් වූ බැවින් දෙහිවල පදිංචි ව සිටි මට හර්තාල්
සංවිධාන කටයුතුවලට කැප වී වැඩ කටයුතු කරන්නට ඉඩ කඩ ලැබිණි.</p>

<p>හර්තාලය නමින්
සියලු වැඩ නවත්වා එ කල පැවැති ඩඩ්ලි සේනානායක එජාප ආණ්ඩුවට විරෝධය පළ කරන්නට වූයේ
කිසිදු සාධාරණ හේතුවක් නැති ව 1952 එජාප ආණ්ඩුවේ මුදල් ඇමැති ජේ. ආර්. ජයවර්ධන බඩු
මිල ඉහළ දැමීමෙන් නතර නොවී, සහනාධාර ආදිය ද කපා දැමීම නිසා ය.</p>

<p>එදා අද මෙන් රට
අභ්යන්තරයේ යුද්ධයක් හෝ කිසිදු අරගලයක් හෝ නො වී ය. වර්තමානයේ මෙන් ලෝක වෙළෙඳ
පොළේ දරුණු බලපෑමක් ද නො තිබිණි. 1951 කාලයේ දී කොරියන්් යුද්ධය හේතු කොට ගෙන
ලෝක වෙළෙඳ පොළේ අපේ රබර් වෙළෙඳ පොළට ඉතා වාසි සහගත තත්ත්වයක් ඇති විය. තේ
වෙළෙඳාමෙන් ද ගජ වාසි අත්වෙමින්් තිබිණ. විදේශ විනිමයෙන් ආණ්ඩුවට කිසිදු හිඟයක් නො වී ය.
ජේ. ආර්' ජයවර්ධන මුල් කාලයේ සිට ම සහල් සලාකය අඩුවට දීමටත්, සහනාධාර දීමටත් තරයේ
විරුද්ධ වූවෙකි. 1952 ඩඩ්ලි සේනානායක ආණ්ඩුවේ මුදල් ඇමැති ලෙස සිටියත්, සහල් සලාකය
මුන්ථමනින් ඉවත් කැර දමන්නට ඔහුට එදා ඒකාධිපති බලයක් නො වී ය. එහෙයින් ශත 25 ට තුබුණු
හාල් සේරුවේ මිල එක් වර ම ශත 70 දක්වා වැඩි කළ ජේ. ආර්. දුප්පතා ගේ් බත් පොත නමින්
හැඳින්වුණු හාල් සලාකය මුන්ථමනින් ම නතර කැර දැමුවේ 77 දී හයෙන් පහේ බලයෙන් ඒක - නායක
වූ පසු ය. 1952 දි හාල් සේරුවේ මිල වැඩි කිරීමෙන් නො නැවතුණු හෙතෙම, පාසල් දරුවන්
ගේ දිවා ආහාර වේල අහෝසි කෙළේ ය. තැපැල් ගාස්තු, දුම්රිය ගාස්තු වැඩි කෙළේ ය. එ
පමණකුදු නො ව සහනාධාර කප්පාදු කැර දැමී ය. සෞඛ්ය සඳහා වෙන් වූ මුදලින් දශ ලක්ෂ තුනක්
ද, ග්රාමීය සංවර්ධන අරමුදලින් දහ නව ලක්ෂයක් ද, නිවාස අරමුදලින් තුන්් ලක්ෂයක් ද,
ශිෂ්යත්ව අරමුදලින් ලක්ෂ සීයක් ද, රැකියා විරහිත වූවන් ගේ සහනාධාර අරමුදලින් දොළොස්
ලක්ෂ පනස් දාහක් ද දිළිඳු සහන අරමුදලින් දාහත් ලක්ෂ පනස් දාහක් ද කප්පාදු කැර දැමී ය. ඒ
කාලයේ මුදලේ වටිනාකම අනුව මේ කප්පාදුව සෑහෙන සුවිශාල මුදලකි.</p>

<p>එහෙත් ජේ.
ආර්. ධනපතියන් පිට බර පැටවූයේ ඉතා සොච්චම් මුදලකිනි. රු. 10,000 ක් වාර්ෂික ආදායම
ලබන්නකු ගෙවිය යුතු වැඩිපුර බද්ද රු. 2 කි. රු. 25,000 ට රු. 75 කි. දශ ලක්ෂයකට රුපියල්
20 දාහකි. වැඩි ම බර පැටවුණේ දුක් විඳින දුප්පතුන්් පිට ය. මෙ සේ කි්රයා කරන්නට කිසිදු
සාධාරණ හේතුවක් පෙන්වන්නට මුදල් ඇමැතිවරයා අපොහොසත් විය. මේ සා මහත් වූ යුද්ධයක්
රට අභ්යන්තරයේ කෙරෙද්දීත්, ලෝක වෙළෙඳ පොළේ නො නැවැතී තෙල් මිල ඇතුන්ථ බඩුු මිල ඉහළ
නගිද්දීත් බඩු මිල ගැන බෙරිහන් දෙන එජාප නායක අනුනායකයන් එදා කිරි සප්පයන් ව සිටි නිසා
දෝ එජාපයේ අතීතය ගැන දන්නේ නැත. දැන ගන්නට තරම් වුවමනාවක් ද නැත.</p>

<p>එ දා කිසිදු හේතුවක්
නැති ව ජනතාව පිට මේ සා බර පැටැවීම නිසා අගෝ: 12 වන දා මහා හර්තාලය ඇති විය. සියලු ම
කර්මාන්ත ශාලා සහ රජයේ කාර්යාල හිස් විය. බස් හා දුම්රිය සේවා නතර ව තිබිණ. කඩ වැසී
තුබුණු අතර නො වැසී තුබුණු කඩ වසා දමන්නට වමේ කි්රයාකාරීහු සමත් වූහ. එක් දින හර්තාලය
අතිශයින් ම සාර්ථක වූයේ ය. හර්තාල් රැස්වීම්වල ප්රසිද්ධ කථිකයකු වූ මම හර්තාලයට කි්රයාකාරීව
සහභාගිි වූයෙමි. හර්තාලයෙන් පසු ව ඇති විය හැකි තත්ත්වය ගැන පක්ෂයේ නායකයන් අපට උපදෙස්
දී තිබිණ. හදිසි නීතිය කි්රයාත්මක කෙරිණි. පොලිස් වෙඩි තැබීම් නිසා සමසමාජ කි්රයාකාරීහු 9 දෙනෙක්
මිය ගිය හ.</p>

<p>මම පසු ව දා
හිමිදිරියේ ම හෝමාගම දක්වා පයින් ම ආවෙමි. තව දුරටත් දෙහිවල රැඳී සිටීම අනතුරක් බව
වැටැහීී තිබිණ. පොලිස් මර්දනය ඇරැඹිණ. හෝමාගම තෙක් ම පාර දෙ පස වූ මාර ගස් පාර හරහා
වැටී තිබීම නිසා ගමනාගමනයට බාධා පැමිණ තිබිණ. හෝමාගම දී ඉංගිරිය බලා යන යහන්ථවකු ගේ මෝටර්
සයිකලයක නැගී, පාසලේ උගන්වන කාලයේ මා නතර වී සිටි නිවසට ගියෙමි. නිවාඩුු කාලයේ මගේ්
පැමිණීම ගැන නිවැසියෝ පුදුම වූහ. පාසලේ කටයුතු කිහිපයක් නිවාඩුවට පෙර නිම කළ යුතු බැවින්
හදිසියේ පැමිණි බවට බොරුවක් ම කීමි. දින කිහිපයකට වඩා එහි නතර ව සිටීමෙන් සැක කළ හැකි
බැවින් එ තැනින් නික්ම රබර් වත්තක් පාලනය කළ මගේ කවි මිතුරකු ගේ වත්තේ කුඩා බංගලාවට
ගියෙමි. ටික දිනක් නතර ව යන්නට එන ලෙස ඔහු කිහිප වරක් ම ආරාධනා කැර තුබුණු බැවින්්
පාසල් නිවාඩුව ඇරැඹෙන්නට දින කිට්ටු වන තුරු ම එහි පහසුවෙන් නතර ව සිටියෙමි.</p>

<p>මේ අතර
බලාපොරොත්තු වූ පරිදි ම මගේ නිවසට පොලීසිය කඩා වැදී ඇත. මුන්ථ ගේ ම සෝදිසි
කොට, පත - පොත අවුස්සා ඉතිහාස පොත් කිහිපයක් අත් අඩංගුවට ගෙන තිබිණ. මා ගැන අසා මවට
තර්ජනය කළ නමුත් මා බදුල්ලේ මිතුරකු ගේ මඟුල් ගෙදරක ගොස් ඇතැයි ද, ඒ කොහේ දැ යි
දන්නේ නැතැයි ද මව කියා ඇත. ආ හැටියේ ම පොලීසියට එන ලෙස දන්වා පොලීසිය ගියේ
ඉතිහාස පොත් රැගෙන ය. දේශපාලන ලියකියවිලි හා පත - පොත කල් තබා ම මා නිවසින්් පිට කැර
තිබිණ.</p>

<p>හර්තාලයේ
ප්රතිඵලය ලෙස ඩඩ්ලි සේනානායක අගමැති ධූරයෙන් හා තාවකාලිකව දේශපාලනයෙන් ද ඉවත් විය.</p>

<p>පොලීසිය අපේ
කණ්ඩායමේ රණවීර නමැති මිත්රයකු හර්තාල් දා ම අත් අඩංගුවට ගෙන හොඳට ම පහර දී තිබිණ. හර්තාල්
සිද්ධි සම්බන්ධයෙන් තිහ හතළිහකට විරුද්ධව පසු ව ගල්කිස්සේ උසාවියේ නඩු පවරා තුබුණු අතර
කොල්වින් ආර්. ද සිල්වා පෙනී සිට ඒ සියලු දෙනා සියලු චෝදනාවලින් නිදහස් කැර ගන්නට
සමත් විය.</p>

<p>ලබන සතියේ
නැවැත පත්ර කලාවට ම</p>

<p> </p>

<p>නිමල් හොරණ </p>

<p> </p>






</body></text></cesDoc>