<cesDoc id="sin-w-features-458" lang="sin">
<cesHeader type="text">
<fileDesc>
<titleStmt>
<h.title>sin-w-features-458.txt</h.title>
<respStmt>
<respType>Electronic file created by</respType>
<respName>Department of Linguistics, Lancaster University</respName>
<respType>text collected by</respType>
<respName>Vincent Halahakone</respName>
<respType>transferred into Unicode by</respType>
<respName>"Unicodify" software by Andrew Hardie</respName>
</respStmt>
</titleStmt>
<publicationStmt>
<distributor>UCREL</distributor>
<pubAddress>Department of Linguistics, Lancaster University, Lancaster, LA1 4YT, UK</pubAddress>
<availability region="WORLD"></availability>
<pubDate>03-08-26</pubDate>
</publicationStmt>
<sourceDesc>
<biblStruct>
<monogr>
<h.title>File from written Sinhala corpus collected by Vincent Halahakone, dated xx-xx-xx</h.title>
<h.author>unknown</h.author>
<imprint>
<pubPlace>Sri Lanka</pubPlace>
<publisher>unknown</publisher>
<pubDate>xx-xx-xx</pubDate>
</imprint>
</monogr>
</biblStruct>
</sourceDesc>
</fileDesc>
<encodingDesc>
<projectDesc>Text collected for use in the EMILLE project.</projectDesc>
<samplingDesc>Simple written text only has been transcribed. Diagrams, pictures and tables have been omitted and their place marked with a gap element.
</samplingDesc>
<editorialDecl>
<conformance level="1"></conformance>
</editorialDecl>
</encodingDesc>
<profileDesc>
<creation>
<date>03-08-26</date>
</creation>
<langUsage>Sinhala</langUsage>
<wsdUsage>
<writingSystem id="ISO/IEC 10646">Universal Multiple-Octet Coded Character Set (UCS).</writingSystem>
</wsdUsage>
<textClass>
<channel mode="w">print</channel>
<constitution type="composite"></constitution>
<domain type="public"></domain>
<factuality type="fact"></factuality>
</textClass>
<translations></translations>
</profileDesc>
<revisionDesc></revisionDesc>
</cesHeader>

<text>
<body>




<p>පැරිසියට පැමිණි
''පාදඩ අසපුව"</p>

<p> </p>

<p>පැරිසියේ ''සෙන්
මැතෑන්" රඟහලේදී ශ්රියන්ත මෙන්ඩිස්ගේ ''පාදඩ අසපුව" නම් ස්වතන්ත්ර නිර්මාණය පසුගියදා
වේදිකාගත විය. මෙම සටහන නාට්ය ගැන විචාරයක් නොවේ. ඒ තුළින් දෙන කාලීන පණිවිඩය ගැන
හැඟුම්බර වූ සිතින් ලියන සටහනක් පමණි.</p>

<p> </p>

<p>අද අපේ මව්බිමේ පවතින
අසංවර දේශපාලනය තුරන් වී මහත්මා දේශපාලනයකට ප්රවිශ්ඨ වීම අතර ඇති ප්රශ්න දෙස සියුම්
ලෙස රසික සිත් යොමු කරමින් ඔවුන්ගේ සිත් තුළ ''රතු මල්" පුබුදු කිරීමට පාදඩ
අසපුවේ නිර්මාපක ශ්රියන්ත මෙන්ඩිස්ටත් ඔහු හා අත්වැල් බැඳගත් රංග ශිල්පීන්ටත් හැකි
විය. මා මෙහි රතු මල් යනුවෙන් සඳහන් කළේ වර්තමාන දේශපාලන ක්ෂේත්රයේ පාලකයන්ගේ
හස්තයට මුවාවූ පාදඩයන්ගේ තුවක්කු සංස්කෘතිය හරහා රුධිරය සමග මරණය දකින්නවුන්ට ලැබී
ඇති ලන්සුව ''පාදඩ අසපුව" තුළින් මනාව විග්රහ වන බැවිනි. මෙවැනි අති ශෝචනීය
තත්ත්වයකට පත්ව ඇති ලාංකීය දේශපාලනය ගැන නිරවද්ය සාකච්ඡාවකට රසිකයන් සහභාගී කර
ගනිමින් අද නාට්යකරුවකු සතු කාලීන යුතුකමක් ශ්රියන්ත ඉටු කර ඇතැයි සිතමි.
දේශපාලකයන්ගේ හස්තයට මුවාවී පාදඩයන් අතින් මරණය දකින මනුෂ්ය ජීවිතය ගැන යම් තරමකින්
හෝ දැනුමක් මෙන්ම පහල මධ්යම පන්තිය තුළ ඔවුන් කෙරෙහි පවත්නා වෛරයත් මෙම
නාට්යයෙන් මනාව පිළිබිඹු වෙයි.</p>

<p> </p>

<p>අද අපේ මව්බිමේ
වැසියන් දේශපාලනමය අතින් මෙන්ම වර්ගවාදය මගින් එළිදැක්වූ යුද්ධයෙන්ද
පීඩනයට, දුකට, කඳුළට, උරුමකම් කියන්නෝ වෙති. මෙවැනි දුක් කඳුන්ථ දීක
දීක නිර්මාණකරුවකුට නිහඬ වී සිටිය නොහැක. සියන්ථ ප්රශ්න අමතක කරමින් රසිකයන් සිනහවෙන් පැය
කීපයක් කුල්මත් කරන නාට්ය නිපදවා, නාට්ය කලාව රැල්ලකට හසු කරගෙන ඇති
නිර්මාණකරුවන් අතර මෙවැනි කාලීන සත්ය සිදුවීම් මුල් කර ගත්, ජීවන හා බැඳී ඇති
ප්රශ්ණයක් සාකච්ඡා කිරීමට ශ්රියන්ත දරා ඇති උත්සාහය අගය කළ යුතුය. සම්භාව්ය කලාකරුවා
අද කාලීන අවශ්යතා ගැන තමා නියැලෙන මාධ්යය තුලින් සාකච්ඡා කරමින් සමාජය දැනුවත් කිරීමේ
නිරත වෙති. ඉතාම අමිහිරි අත්දීකීමක් වුවත් කාලානුරූපව, නාට්යය රසය නොමරා
ප්රේක්ෂකයන් අභිමුවෙහි රඟ දැක්විය හැකි බව ''පාදඩ අසපුව" තුළින් සනාථ වේ.</p>

<p> </p>

<p>මෙම නාට්යය නැරඹීමෙන්
පසු අප මව්බිමේ දේශපාලනය, අපේ මව්බිමේ අනාගතය ගැන නොයෙකුත් ප්රශ්න මසිත පුරා
අරක්ගෙන තිබුණි. මහත්මා දේශපාලනයේ අරුණලූ අපට නැවතත් දැක ගැනීමට වාසනාව ලැබේද?
උතුම් වූ පාලන ක්රමයක් හා එම පාලන ක්රමය තුල මහත්මා දේශපාලනයක් රටට ඇවැසි බව
ශ්රියන්ත තම ''පාදඩ අසපුව" තුළින් කියා සිටී. එම පණිවිඩය අපගේ වත්මන් දේශපාලන
පරපුරට ඇසේවා යනු මගේ ප්රාර්ථනයයි.</p>

<p> </p>

<p>මෙයට ප්රථම රෝලන්ඩ්
ප්රනාන්දුගේ ''දිවැස හෙලනු මැන", ජයලත් මනෝරත්නගේ ''පුත්ර සමාගම" වැනි නාට්ය
පැරීසියේ වෙසෙන නාට්යලෝලීන්ට දැක ගැනීමට හැකිවිය. මේ සෑම අවස්ථාවකම නාට්ය ශාලා පිරී
ඉතිරී ගියේය. රසිකයෝ හදවතින්ම එම නිර්මාණ හා එක්වී රස වින්දෝ වූහ. අප යුරෝපයේ
ඉතාම රමණීය නගරයක ජීවත් වුවත් අපට පුරුදු සුවඳ ඇත්තේ කොතනද යනු මෙවැනි නාට්යයකට
රැස්වන පිරිස දෙස බැලීමේදී මොනවට පැහැදිලි වේ.</p>

<p> </p>

<p>ජාතියක් හා එහි
සංස්කෘතිය එකට බැඳී පවතින බව නොරහසකි. ඉබ්බා හා ඉබිකට්ට මෙන් එය එකට යාවී ඇත. ඉබ්බාගේ
ආවරණ කටුව ඉවත් කළහොත් ඌ මිය යයි. අපටද අපේ ජාතික සංස්කෘතියෙන් බැහැර
වුවහොත් මරණය සිදු නොවුවත් මැරි මැරී ජීවත් වීමට සිදුවේ. එමනිසා අපේ ජාතික අනන්යතාවය
පෙන්නුම් කරන සෑම අවස්ථාවකටම උද්දාමයෙන් පිරී ගිය සිතින් විකසිත සිනා පිරි මුවෙන්
සිංහලයෝ එක්වෙති. එය නාට්යයක් වේවා චිත්රපටයක් වේවා සංදර්ශනයක් වේවා ආගමික උත්සවයක්
වේවා ඒ වටා මහ පිරිස් එක් රොක් වෙති. මා මේ වචන කීපය සඳහන් කළේ දීපාදඩ අසපුවේ"
ප්රධාන චරිත හය හැරුණු විට එහි අවශේෂ චරිත රඟ දැක්වූ ප්රංශයේ වෙසෙන සිංහල දරු
දීරියන්ගේ දස්කම් නිසාය. ඔවුන් අධ්යාපනය හදාරන්නේ ප්රංශ බසිනි. දෙමව්පියන්ටත් වඩා
ඔවුන් ප්රංශ සමාජයට කිට්ටු වන්තයෝ වෙති. නමුත් ඒ සියන්ථ දෑ අභිබවමින් ඔවුන් තමාට හිමි
සංස්කෘතියට කෙතරම් ඉක්මනින් සමීප වන්නේදීයි යන්නට මෙය හොඳම සාක්ෂියකි. නාට්යයේ
පුහුණුවීම් සඳහා ඔවුනට තිබුණේ එක් දිනක් පමණකි. දැරියන් දෙදෙනෙක් මනහර ලාංකික නර්තනයක්
එක් දින පුහුණුවීමකින් පසු ඉදිරිපත් කළ අතර දකුණේ සොල්දාදුවන් වැනි පිරිමි චරිත
නිරූපණය කළහ. නාට්ය අවසානයේ ඔවුන් ගැන විශේෂ හැඳින්වීමක් හා ස්තුතියක් නාට්යයේ
අධ්යක්ෂවරයා විසින් කරන ලදී.</p>

<p> </p>

<p>ප්රතිභාපූර්ණ නාට්ය
ශිල්පීන්ගේ ආගමනයන් ගැන බලාපොරොත්තු තබා ඇති ප්රංශයේ නාට්ය රසිකයිනට ජයලත්
මනෝරත්න, බන්දුල විතානගේ වැනි කලාකරුවන්ගේ නිර්මාණ දැක ගැනීමට ඉදිරි කාලයේදී
අවස්ථාව සැලසෙන බවට සුභ ආරංචි පැතිරෙමින් පවතී. යළිත් පැරිසියේදී සම්භාව්ය නාට්ය
කෘතියක රස විඳීමට ප්රංශයේ ශී්ර ලාංකික නාට්ය ලෝලීන්ට හැකි වේවායි පතමි.</p>

<p>පද්මා කුරුප්පු</p>

<p>පැරිසිය.</p>

<p> </p>






</body></text></cesDoc>