<cesDoc id="sin-w-features-vivarana-37" lang="sin">
<cesHeader type="text">
<fileDesc>
<titleStmt>
<h.title>sin-w-features-vivarana-37.txt</h.title>
<respStmt>
<respType>Electronic file created by</respType>
<respName>Department of Linguistics, Lancaster University</respName>
<respType>text collected by</respType>
<respName>Vincent Halahakone</respName>
<respType>transferred into Unicode by</respType>
<respName>"Unicodify" software by Andrew Hardie</respName>
</respStmt>
</titleStmt>
<publicationStmt>
<distributor>UCREL</distributor>
<pubAddress>Department of Linguistics, Lancaster University, Lancaster, LA1 4YT, UK</pubAddress>
<availability region="WORLD"></availability>
<pubDate>03-08-26</pubDate>
</publicationStmt>
<sourceDesc>
<biblStruct>
<monogr>
<h.title>File from written Sinhala corpus collected by Vincent Halahakone, dated xx-xx-xx</h.title>
<h.author>unknown</h.author>
<imprint>
<pubPlace>Sri Lanka</pubPlace>
<publisher>unknown</publisher>
<pubDate>xx-xx-xx</pubDate>
</imprint>
</monogr>
</biblStruct>
</sourceDesc>
</fileDesc>
<encodingDesc>
<projectDesc>Text collected for use in the EMILLE project.</projectDesc>
<samplingDesc>Simple written text only has been transcribed. Diagrams, pictures and tables have been omitted and their place marked with a gap element.
</samplingDesc>
<editorialDecl>
<conformance level="1"></conformance>
</editorialDecl>
</encodingDesc>
<profileDesc>
<creation>
<date>03-08-26</date>
</creation>
<langUsage>Sinhala</langUsage>
<wsdUsage>
<writingSystem id="ISO/IEC 10646">Universal Multiple-Octet Coded Character Set (UCS).</writingSystem>
</wsdUsage>
<textClass>
<channel mode="w">print</channel>
<constitution type="composite"></constitution>
<domain type="public"></domain>
<factuality type="fact"></factuality>
</textClass>
<translations></translations>
</profileDesc>
<revisionDesc></revisionDesc>
</cesHeader>

<text>
<body>




<p>අධ්යාපනය සහ වාර්ගික
සාධකය</p>

<p> </p>

<p>බහු වාර්ගික
සමාජයන්හි අධ්යාපනය කෙරෙහි වාර්ගික සාධකය කෙබඳූ ආකාරයකින් බලපා තිබේද? අධ්යාපන සම්පත්
වලින් කෙතරම් ප්රමාණයක් වාර්ගික සාධක විසින් අසමතුලිතව බෙදා හරිනු ලැබේද? මේ ගැටන්ථ
පිළිබඳව මඳ අවධානයක් යොමු කිරීම, ශ්රී ලාංකික අපට කිසියම් පෙර දීනුමක් ලබා
දෙනු ඇත. ලාංකික අධ්යාපනය විෂයයෙහි කොතෙක් දුරට වාර්ගික සාධකය වලංගු වන්නේ ද යන්න
සිතා බලන්නටත් මේ තොරතුරු ඉඟි සපයනු ඇත.</p>

<p> </p>

<p>පළමුවෙන්ම අපි
ඇමෙරිකා එක්සත් ජනපදය දෙසට හැරෙමු. 17 වන සිය වසේදී වහලුන් වශයෙන් ඇමෙරිකාවට යන යන
ලද නිග්රෝවරුන් 20 දෙනකුගෙන් ඇරඹුනු ඇමරිකාවේ කන්ථ ජනගහණය, මුන්ථ ඇමෙරිකානු
ජනගහණයෙන් 10% ක් පමණ විය. මුලදී ඔවුනගේ මූලික මානව හිමිකම් පවා නොතිබිණි. 1740 දී
පූජකවරුන් මගින් අධ්යාපනය ලැබීමට ඔවුන් උත්සාහ කළද එයට තහංචි පැනවිණි.</p>

<p> </p>

<p>1868 ඇමෙරිකානු
පෙඩරල් ව්යවස්ථාවට 14 වන වගන්තිය ඇතුළත් කොට, එමගින් නීග්රෝවරුන්ගේ
වහල්බව නැති කොට අධ්යාපන අයිතිවාසිකම් ලබා ගැනීමේ මූලික පියවර තබනු ඇබිණි. එහෙත් 'නීග්රෝ
වාර්ගිකයින් පහත්' ය යන සමාජ ආකල්පය නොනැසී පැවතිණි. අධ්යාපනය ලැබීමෙහි ලා ඔවුනට
විවිධ ප්රතිවිරෝධයන්ට මුහුණ දීමට සිදු වූයේ එහෙයිනි.</p>

<p> </p>

<p>1896 වසරේ දී
ශ්රේෂ්ඨාධිකරණ නඩු තීන්දුවක් අණුව, නීග්රෝවරුන්ට සමාන අධ්යාපන පහසුකම් දිය යුතු
බව අනුමත කරන ලදී. ඒ අනුව කන්ථ ජාතිකයින් සඳහා වෙනම පාසල් ඇති කෙරිණි. එයද සාර්ථක වැඩ
පිළිවෙලක් නොවීය.</p>

<p> </p>

<p>1954 වර්ෂයේදී,
ශ්රෙෂ්ඨාධිකරණ නඩු තීන්දුවක් දෙමින් විනිසුරන් තිදෙනෙකු ඒකමතිකව පළ කොට
සිටියේ, කන්ථ ජාතිකයින් සඳහා වෙනු වු වාර්ගික පාසල් පිහිටුවීම අසාධාරණ බවයි. ඉන්
සැබෑ අධ්යාපන අවස්ථා ඇති නොවන වග ඔවුහු කීහ. එහෙත් එම තීන්දුවට එරෙහිව, ණණණ
සහ උයසඑැ ක්සඑසzැබ ක්දමබජසක යන සංවිධාන වලින් තර්ජන එල්ල විය. කන්ථ ළමයින් ''සුදු
පාසල්'' වලට ඇතුන්ථ කිරීම පිළිබඳව තර්ජන එල්ල විය. ඉන් ගැළවෙනු සඳහා පාසලට ප්රවේශ
විමේ පරීක්ෂණයක් තබා, ඉන් කන්ථ ළමයින් අසමත් කොට පාසලට ඇතුන්ථවීම වළක්වන ලදී.
ඇතැම් විට රජයේ පාසල් වසා, සුදු ළමයින්ට මුදල් පිරිනමා ඔවුන් පෞද්ගලික
පාසල් වලට ඇතුන්ථ කරන ලදී. ඒ අනුව කන්ථ ජාතික ළමයින්ට පමණක් පාසල් නැති විය.</p>

<p> </p>

<p>සියලු පාසල් සංවිධාන
කළ යුතුය යන ශ්රේෂ්ඨාධිකරණ තීන්දුව පරිදි එය සැබවින්ම සිදු වූයේ පාසල් වලින් 07% ක
පමණි.</p>

<p> </p>

<p>සම අධ්යාපන අයිතීන්
ලබා ගනු සඳහා ඇමෙරිකාවේ උතුරේ චිකාගෝ වැනි නගරවල නිතර උද්ඝෝෂණ පැවතිණි.
නීග්රෝවරුන් වැඩි කොටස වාසය කරන්නේ මේ කාර්මික නගර වලය. එම උද්ඝෝෂණ නිසාම
ව්යවස්ථාදායකය සිවිල් අයිතිවාසිකම් පණතක් සම්මත කොට, පාසල් ඒකාබද්ධ කිරීම
ව්යවස්ථාදායකයේ කාර්යයක් බවට පත් කළේය. එසේ කටයුතු නොකරන අයට එරෙහිව නඩු
පැවරීම සඳහා දෙපාර්තමේන්තුවට බලය දෙන ලදී. පාසල් සඳහා මුදල් ආධාර විශාල වශයෙන් රජයෙන්
සපයා, වාර්ගික, වර්ණ හෝ දේශ භේද අනුව අධ්යාපන අවස්ථාවන්හි වෙනසක්
නොකළ යුතු බව පළ කරන ලදී.</p>

<p> </p>

<p>එහෙත් සැබෑ තත්ත්වය
ඊට වෙනස් විය. ඇමෙරිකානු ජනාධිපතිවරයකු වූ හියුබට් හම්ප්රි වරක් පැවසුයේ, සුදු
ළමයකුගේ අධ්යාපන අවස්ථාවෙන් 1/2 ක් කන්ථ ළමයෙකුට ලැබෙන බවයි. උසස් අධ්යාපනයේ
නම් එම අනුපාතය 2/3 ක් බවයි. පොදු පාසල් වලට කන්ථ ළමයින් ඇතුළත් වන විට සුදු
ළමයින් ඉන් ඉවත්ව යෑමේ ප්රවණතාව දිගටම පැවතිණි. 1958 දී 70% ක් සුදු ළමයින් සිටි
ඇට්ලන්ටා ප්රදේශයේ පාසල් වල 1976 වන විට කන්ථ ළමයි 90% ක් සිටියහ.</p>

<p> </p>

<p>1971 දී ඍදන නම්
විනිසුරු තුමකු නියම කළේ, කන්ථතීරු නම් ජන කොටස් වල සිට සුදු ළමයින්ගේ
පාසල් වෙත ළමයින් බසයෙන් ගෙන එන ලෙසයි. රජය එය පිළිගත්තා පමණක් නොව අඩු අධයාපන
පහසුකම් ඇති ප්රදේශ වෙනුවෙන් වැඩිපුර මුදල් යොදවන්නට ද විය. දිළිඳු කන්ථ ළමයින්ට
පොත්, ඇඳුම් සහ ආහාර ද ලබා දෙන ලදී.</p>

<p> </p>

<p>තත්ත්වය එසේ වන
නමුදු තවමත් කන්ථ ජාතික අධ්යාපන අවස්ථා සමාන නොවේ. අධිකරණ හා ව්යවස්ථාදායක උත්සාහයන්ට
වඩා සුදු අධිපති මතවාදය ප්රබල වන බවකි. තවමත් කන්ථ ළමයින්ගේ පාසල් හැරයෑම් වැඩිය. එකම
බසක් කතාකළද එකම ආගම ඇදහුවද, නෛතික හා විධායක සහයෝගය ලද ද සංග්රහණ
පිළිවෙත මුන්ථමනින්ම සාර්ථක වී නැත. එහෙයින් 1970 සිට සංස්කෘතික බහුවිධතාව පිළිබඳ
අදහස ප්රචලිත විය. වාර්ගික අනන්යතාව රකිමින් සංවර්ධන යට ඉඩ සැලසීම ඒ පිළිවෙතයි. ඒ
අනුව වාර්ගික සබඳතා වැඩෙන ද්විභාෂික - ද්විසංස්කෘතික වැඩමුන්ථද, කන්ථ ජාතක පාසල් ද
ඇති කෙරේ.</p>

<p> </p>

<p>ඇමෙරිකාවට වඩා අඩු
ප්රජාතාන්ත්රික මූලයන් ඇති දකුණු අප්රිකාවේ වාර්ගික ගැටන්ථ සහ අධ්යාපනය අතර සබඳතා කෙබඳුද?</p>

<p> </p>

<p>දකුණු අප්රිකාවේ ජන
සංචිතය, ස්වදේශික බැන්ටුවරුන්, ඉන්දියානුවන්, බූවර්වරුන් සහ සුදු ජාතිකයින්ගෙන්
සමන්විත වේ.</p>

<p> </p>

<p>ලන්දේසින් දකුණු
අප්රිකාව යටත් කරගත් පසුව, ඔවුහු ස්වදේශික බැන්ටු වරුන් කොන්කර තම වතුවල
වැඩට මැලේ ජාතිකයින් යොදා ගත්හ. එහෙයින් අන්තර් - වාර්ගික විවාහ ඇති වී විවිධ වාර්ගික
කොටස් ඇති විය. ලන්දේසින් පරදා ඉංග්රීසින් ද.අප්රිකාව යටත් කරගත් විට කුලී කරුවන්
ලෙස ගෙන්වන ලද්දේ ඉන්දියානුවන් ය.</p>

<p> </p>

<p>ද: අප්රිකාවේ වර්තමාන
ජන සංයුතිය මෙබඳූය.</p>

<p> </p>

<p>බැන්ටුවරු                                 68%</p>

<p>ලන්දේසි+මැලේ මිශ්ර                          09%</p>

<p>ඉන්දියානු                                  03%</p>

<p>යුරෝපීය</p>

<p>                            ඉංග්රීසි         08%</p>

<p>                            ලන්දේසි(බූවර්)  12%</p>

<p> </p>

<p>ව්යවස්ථාව මගින් ම
1910 දී කන්ථ ජාතිකයින්ට දේශපාලන අයිතිවාසිකම් අහිමි කැරිණි. 1948 දී ජාතික පක්ෂය බලයට
පත් වී, ජාතීන් අනුව ජනතාව වෙන් කිරීමේ ප්රතිපත්තිය ඇතිකර, ඒ අනුව,
භූමි ප්රමාණයෙන් 1/8 ක් වන භූගෝලීය වශයෙන් නොදියුණු බැන්ටුස් ටාන් ප්රදේශය කන්ථ
ජාතිකයින්ට සීමා කොට දෙන ලදී.</p>

<p> </p>

<p>1950 දී ගෙනෙන ලද
ජනගහණය ලියා පදිංචි කිරීමේ පනත අනුව, සුදු මිශ්ර හා අප්රිකානු යනුවෙන් වර්ග තුනකින්
ජනගහණය සමන්විත බැව් තීරණය විය. ජන කණ්ඩායම්වලට අයත් ප්රදේශ සීමා කිරීමේ පණතකින්
බැන්ටුස්ටානයෙන් පිටත බැන්ටුවරුන් පදිංචි විම තහනම් කරනු ලැබිණි. රැකියා සඳහා ලියා පදිංචි
කිරීමේ පනතක් ද ගෙනෙනු ලදුව බැන්ටු වරුන්ට හිමි රැකියා වශෙයෙන් නුපුහුණු ශ්රම රැකියා
නියම කරන ලදී.</p>

<p> </p>

<p>පළමුවරට
බැන්ටුවරුන් සඳහා අධ්යාපන ක්රමයක් යෝජනා කරන ලද්දේ 1949 වසරේදී එයිසලේන් කොමිසම
මගිනි. 1953 දී ගෙනෙන ලද බැන්ටු අධ්යාපන පනත අනුව, බැන්ටුවරුන්ගේ අධ්යාපනය මධ්යම
රජයේ දෙපාර්තමේනතුවකට පැවරිණි. බැන්ටු අධ්යාපනය සඳහා වැය කරන මුදල වසරකට රැන්ඩි දසලක්ෂ
13 ට සීමා විය. ඒ සමගම ආධාර නොවුයෙන් මිෂනාරි පාසල් වසා දමන ලදී. බැන්ටුවරුන් පාසල්
යාම අරඹන්නා හාම එක් ශීර්ෂ පිරිවැය ක්රමයෙන් පහත වැටිණි.</p>

<p> </p>

<p>අධ්යාපන වය
වශයන්, 1972 දි වසරකට බැන්ටු දරුවකු වෙනුවෙන් රැන්ඩි 25.31 ක්ද, මිශ්රජාතක
දරුවකුට රැන්ඩි 94.41 ද ඉන්දීය දරුවකුට රැන්ඩි 124.40 ක්ද වැය කරන විට සුදු ජාතික දරුවකු
සඳහා රැන්ඩි 461.00 ක් වැය කරන ලදී.</p>

<p> </p>

<p>බැන්ටු පාසල්වල ගුරු
සිසු අනුපාතය 1953 දි 1:40 ක් හා 1974 දී 1:60 ක් වන විට සුදු ළමයින්ගේ පාසල් වල
එය, 1:23 හා 1:20 බැගින් විය.</p>

<p> </p>

<p>බැන්ටු දරුවන්ගේ
අධ්යාපනික විෂයමාලා, මධ්යම රජයෙන් සැකසේ. ගුරු අත්පොත් ද එසේය. විෂයමාලාවේ ද
සෑම විටෙකම සුදු සංස්කෘතියේ - ජාතිකත්වයේ උසස් - වැදගත් බව අවධාරණය කැරෙන
අතර, කන්ථ ජාතීන් පහත් බව සඳහන් කැරේ.</p>

<p> </p>

<p>මේ අනුව දකුණු
අප්රිකාවේ අධ්යාපනය ද වාර්ගික පදනම නොයික්ම වු වර්ගවාදී ප්රාථමික තත්ත්වයක පවත්නා එකකි.</p>

<p> </p>

<p>දීන් අප දෙස බලන්නට
වෙලාවයි. යුද්දය විසින් උදුරා ගන්නට පෙර උතුරේ වූ, මිෂනාරින් විසින් ඇරඹුණු පාසල්
සහ අගනුවර වරප්රසාදිත පාසල් වල සම්පත් අතර එතරම් අසමතුලිත භාවයක් තිබුණේද? එහෙත් වතු
පාසල් හි ප්රදේශ භේදයකින් තොරව ම දක්නට ලැබුණේ දිවයිනේ සෙසු සියලු නොදියුණු ගම්
බිම් හි පාසල් වල මුහුණුවරමය. ඇතැම් විටෙක නගරවල වුවද වරප්රසාද නොලත් පාසල්
විසින්, 'අධා්යාපනයේ සම අවස්ථා' යන මිථ්යාව පුපුරවා හැර තිබිණ. ශ්රී ලාංකික අපි
තවමත් අධ්යාපනයේ වාර්ගික සාධකය අවම කොට සලකන්නට තරම් වාසනාවන්ත වී සිටිමු.
එහෙත්, දවසින් දවස අධ්යාපනයේ පාන්තික සාධකය වැඩෙන අයුරු දකින්නට තරම්
අවාසනාවත්ත වී සිටිමු.</p>

<p> </p>

<p>රත්න ශ්රී විජේසිංහ</p>

<p> </p>

<p>විවරණ</p>

<p>1992 අප්රේල් - අංක
60</p>




<p> </p>






</body></text></cesDoc>