<cesDoc id="sin-w-features-lankadipa-339" lang="sin">
<cesHeader type="text">
<fileDesc>
<titleStmt>
<h.title>sin-w-features-lankadipa-339.txt</h.title>
<respStmt>
<respType>Electronic file created by</respType>
<respName>Department of Linguistics, Lancaster University</respName>
<respType>text collected by</respType>
<respName>Vincent Halahakone</respName>
<respType>transferred into Unicode by</respType>
<respName>"Unicodify" software by Andrew Hardie</respName>
</respStmt>
</titleStmt>
<publicationStmt>
<distributor>UCREL</distributor>
<pubAddress>Department of Linguistics, Lancaster University, Lancaster, LA1 4YT, UK</pubAddress>
<availability region="WORLD"></availability>
<pubDate>03-08-26</pubDate>
</publicationStmt>
<sourceDesc>
<biblStruct>
<monogr>
<h.title>File from written Sinhala corpus collected by Vincent Halahakone, dated xx-xx-xx</h.title>
<h.author>unknown</h.author>
<imprint>
<pubPlace>Sri Lanka</pubPlace>
<publisher>unknown</publisher>
<pubDate>xx-xx-xx</pubDate>
</imprint>
</monogr>
</biblStruct>
</sourceDesc>
</fileDesc>
<encodingDesc>
<projectDesc>Text collected for use in the EMILLE project.</projectDesc>
<samplingDesc>Simple written text only has been transcribed. Diagrams, pictures and tables have been omitted and their place marked with a gap element.
</samplingDesc>
<editorialDecl>
<conformance level="1"></conformance>
</editorialDecl>
</encodingDesc>
<profileDesc>
<creation>
<date>03-08-26</date>
</creation>
<langUsage>Sinhala</langUsage>
<wsdUsage>
<writingSystem id="ISO/IEC 10646">Universal Multiple-Octet Coded Character Set (UCS).</writingSystem>
</wsdUsage>
<textClass>
<channel mode="w">print</channel>
<constitution type="composite"></constitution>
<domain type="public"></domain>
<factuality type="fact"></factuality>
</textClass>
<translations></translations>
</profileDesc>
<revisionDesc></revisionDesc>
</cesHeader>

<text>
<body>




<p>බස් මගීන් ගේ
පහසුව ගැනත් කල්පනා නොකරන්නේ ඇයි?</p>

<p>ලබන මස පළමු
වැනිදා සිට ක්රියාත්මක වන පරිදි පෞද්ගලික බස් ගාස්තු සියයට විස්සකින් වැඩි කරන්නට
සමස්ත ලංකා බස් රථ හිමියන් ගේ සමිති සම්මේලනය ගෙන 
we;s ;SrKh ,CI ixLHd; nia u.Ska f.a buy;a fkdi;=gg fya;= jkq fkdwkqudkh'
ta j. uq,ska u fmkakd §u wm f.a hq;=luls'</p>

<p>ඩීසල් මිල
වැඩිවීම, අමතර කොටස් මිල වැඩිවීම ආදී හේතු නිසා පෞද්ගලික බස් සේවාවන් පවත්වා
ගෙන යෑම ඉතා අමාරු කාරියක් වී ඇති බව යථොක්ත තීරණය ගැන අදහස් දක්වමින් සම්මේලනයේ
භාණ්ඩාගාරික ගැමුණු විජේරත්න මහතා ප්රකාශ කොට තිබිණි. පසුගිය කාලයේ ඩීසල් මිල වැඩි
කිරීමෙන් පසුව ප්රවාහන ඇමැතිවරයා සමග සාකච්ඡා කළ බවත් එහි දී බස් රථ හිමියන් විසින්
ඉදිරිපත් කරන ලද ඉල්ලීම් නොලැබුණු නිසා කනගාටුවෙන් වුව ද බස් ගාස්තු වැඩි කරන්නට සිදු වී
ඇති බවත් විජේරත්න මහතා තව දුරටත් කියා තිබිණැයි ද ඊයේ වාර්තා විය.</p>

<p>ඩීසල් මිල වැඩිවී
තිබීමත් අමතර කොටස් මිල වැඩි වී තිබීමත් ඇත්තය. ඩීසල් මිල වැඩි කරන්නට සිදු වූයේ
නොකැමැත්තෙන් බව අදාළ අංශ පසු ගිය දා කී බව අපට මතකය. බස් හිමියන්
බලාපොරොත්තු වනුයේ් එක්තරා සහනයකි. ඔවුන් බලාපොරොත්තු වන සහන කොපමණ දුරට රජයට
ලබා දිය හැකි දැ යි අපි නොදනිමු.</p>

<p>ඩීසල් මිල වැඩිවීම
ලොරි ප්රවාහන ගාස්තුවලට බලපෑවේ ය. ඇතැම් පාරිභෝගික භාණ්ඩ මිල ගණන්වලට ද බලපෑ බව
නොරහසකි. එය කෙළින් ම ජනතාව ගේ ජීවන මිලට බලපෑවේය. ඩීසල් මිල වැඩි කිරීමේ දී මතු විය
හැකි අහිතකර තත්ත්වයන් ගැන ද වගකිව යුතු අංශ උචිත සැලකිල්ලක් දීක් විය යුතු ව තිබිණි.
එහෙම සලකා බලූවා දැ යි අපි නොදනිමු.</p>

<p>කෙසේ වෙතත් දීන්
අන්තිමේ අමාරුවේ වැටී සිටින්නේ දුප්පත් ජනතාවය. ජීවන වියදම අධිකය. දුප්පත් ජනතාවට
කිසිසේත් දරා සිටින්නට බැරි ය. පෞද්ගලික බස් ගාස්තු ද කීයකින් හෝ වැඩි වුණොත්
දුප්පත් ජනතාව තවත් අමාරුවේ වැටෙන බව අමතුවෙන් කිව යුතු ද?</p>

<p>මෙහි දී එක්තරා
ආකාරයකින් ගලපා ගැනීමක් කළ නොහැකි ද? ඒ ගැන උචිත ලෙස සලකා බැලීම ප්රවාහන
අමාත්යාංශයේ යුතුකම යි.</p>

<p>මෙහි දී දීඩි ලෙස
පෙන්නා දිය යුතු තවත් වැදගත් කරුණක් ඇත. ඒ පෞද්ගලික බස් සේවාවන්හි තත්ත්වය යි.
එය නොසතුටුදායකය. බස් මඟීන් ගේ පහසුව බොහෝ දුරට අමතක කර දමා  ඇති සැටියක් බොහෝ මාර්ගවල බස් දුවවන
ආකාරයෙන් පෙනේ. සමහර මාර්ගවල ධාවනය කැරෙන පෞද්ගලික බස් අබලන්ය. ආසන කැඩී බිඳී
ගොස් ය. ජනේල අබල දුබලය. වහල ද ඒ වගේය. වැසි දිනවල නොතෙමී ගමන් කිරීම අසීරුය. සමහර
මාර්ගවල පෞද්ගලික බස් ධාවනය වනුයේ කාල සටහනක් අනුව  යැයි කිව නොහැකි ය. කාල සටහන් තිබෙනවා යැයි සමස්ත ලංකා බස් රථ
හිමියන් ගේ සමිති සම්මේලනය කියනු නිසැකය. එහෙම නම් බොහෝ මාර්ගවල බස් ධාවනයේ
විධිමත්භාවයක් නැත්තේ ඇයි? කාල සටහන් ඇතත් විධිමත්භාවයක් නැත්නම් එයින් ධ්වනිත වන්නේ
කිමෙක්ද? නිසි පාලනයක් නොමැති බව යි. නිසි පාලනයක් නැත්තේ ඇයි? එක්කෝ
අදක්ෂකමින් විය හැකි ය. එසේ නැත්නම් මගීන් ගැන උචිත සැලැකිල්ලක් නොදක්වනවා විය හැකි ය.</p>

<p>සෑම බස් මගියකුට
ම  ටිකට් පතක් නිකුත් කළ යුතු යැයි
නියමක් ඇත. එහෙත් අය කරන ගාස්තුවට හැම පෞද්ගලික බසයක් ම ටිකට් පතක් ලබා දෙන බව
සමස්ත ලංකා බස් රථ හිමියන් ගේ සමිති සම්මේලනයට අවංක ව කිව හැකිද? ලබා ගන්නා ගාස්තුවට
ටිකට් පතක් නොදීම වරදකි. මගියාට කරන බලවත් අසාධාරණයෙකි. පාඩුව ගැන කතා කළාට මදිය.
පාඩු සිදුවන සියලූ හේතු ද සොයා බලා ඊට උචිත පිළියම් ද යෙදිය යුතුය. දීමාටියා
ගැහිල්ලට" ඉඩ තිබීම පාඩුවට එක් හේතුවකි. බස් හිමියන් කල්පනා කර බලනු වටී.</p>

<p>හැම මාර්ගයෙකට ම
මගීන් පැටැවීම පොල් පටවන්නාක් බර්ය. මගියා ගේ පහසුව ගැන තුට්ටුවක සැලැකිල්ලක් නැත.
බසයේ ඉඩ නැතත් නිතර ඇසෙනුයේ දීපස්සට යනු"යි දීතව තවත් පස්සට යනු"යි
කොන්දොස්තරගේ කන්දොස්කිරියාව පමණි. යෑමේත් සීමාවක් ඇති බව ඔවුන් නොදන්නා
සැටියෙකි. ප්රධාන සැලැකිල්ල දීකලැක්ෂන් එක" ගැනය.</p>

<p>බසයක් පාරට
දමනුයේ කීයක් හෝ හරි හම්බ කර ගන්නට ය. ඒ ගැන සැකයක් නැත. එහෙත් හරිහම්බ කැර
ගන්නේ  කාගෙන් ද? මගියා ගෙනි. ප්රධාන
සාධකය ඇත්තේ එතැනය. ඒහෙම නම් ඔහු ගේ පහසුව ගැන හරිහැටි නොබලන්නේ ඇයි?</p>

<p>අන්තර නගර
පෞද්ගලික  බස් සේවාවන් පිරිහීමක් ද
බොහෝ මාර්ගවලින් දීකිය හැකිය. වායු සැකැසුම් ඇතැයි ද, සුව පහසු අසුන් ඇතැයි
ද කියති. එහෙත් බොහෝ මාර්ගවල වාසැකසුම ක්රියාත්මක වනුයේ මඳ දුරකට පමණි. එතැනින්
එහාට ඇති දිගු ගමන මගියා දහඩිය පිසදමමින් යා යුතු ය. මේ සමහර බසයක ආසන ද අබල දුබලය.
දිගු ගමනක් යා හැක්කේ කෙසේ ද? බස් හිමියන් මේ තත්ත්වයන් ගැන නොබලන්නේ ඇයි?
බලන්නේ ගාස්තුව ගැන පමණ ද?</p>

<p>බස් ගාස්තු වැඩි
කරන හැම අවස්ථාවෙක දී ම පාහේ බස් හිමියන් දෙන ප්රතිඥාවක් ඇත. බස් මගීන් ගේ පහසුව
සලසන බව ඔවුහු කියති. කතාව පමණි. එහෙත් අර්ථාන්විත පියවරක් නොගනිති.       රැවටිලිවලින් වැඩක් නැත. අවශ්ය වන්නේ අය
කරන ගාස්තුවට සරිලන හොඳ සේවයෙකි. එය නීතියෙන්වත් බල කළ යුතු ය.</p>

<p>මේ අතර මධ්යම
ගමනාගමන මණ්ඩලයේ සේවයත් ජනතා සන්තක බස් සේවයත් දීනට වඩා දියුණු කළ නොහැකි දැ
යි බැලීම ද අත්යවශ්ය ය. ඒ කෙරෙහි දීක්වෙන සැලැකිල්ල ප්රමාණවත් වෙති යි කිව නොහැකි ය.</p>

<p>ගමනාගමනය  ජනතාව ගේ මූලික ප්රශ්නවලින් එකකි. සමාජ ආර්ථික
ප්රගතියට ද දියුණු ගමනාගමන සේවාවක් නැති ව බැරිය. ඒ නිසා දීනට වඩා පුන්ථල් ආකාරයෙන්
සමස්ත ප්රශ්නය දෙස බලනු ඇතැයි අපි 
n,dfmdfrd;a;= fjuq' </p>

<p> </p>






</body></text></cesDoc>