<cesDoc id="pun-w-media-lot3am" lang="pun">
<cesHeader type="text">
<fileDesc>
<titleStmt>
<h.title>pun-w-media-lot3am.txt</h.title>
<respStmt>
<respType>Electronic file created by</respType>
<respName>Central Institute for Indian Languages, Mysore</respName>
<respType>transferred into Unicode and CES format by</respType>
<respName>"Unicodify" software by Andrew Hardie</respName>
</respStmt></titleStmt>
<publicationStmt>
<distributor>UCREL (on behalf of CIIL)</distributor>
<pubAddress>Department of Linguistics, Lancaster University, Lancaster, LA1 4YT, UK</pubAddress>
<availability region="WORLD"></availability>
<pubDate>03-08-23</pubDate>
</publicationStmt>
<sourceDesc>
<biblStruct>
<monogr>
<h.title>GURU GRANTH SAHIB DA SAMPADAN</h.title>
<h.author>SINGH TEJA</h.author>
<imprint>
<pubPlace>India</pubPlace>
<publisher>Unknown - AARSI - OCTOBER 1989 - DELHI</publisher>
<pubDate>1989</pubDate>
</imprint>
<idno type="CIIL code">lot3am</idno>
</monogr></biblStruct></sourceDesc></fileDesc>
<encodingDesc>
<projectDesc>Text collected for the CIIL Corpus, subsequently integrated into the EMILLE/CIIL Monolingual Written Corpora.</projectDesc>
<samplingDesc>Simple written text only has been transcribed. Diagrams, pictures and tables have been omitted. Sampling begins at page 26-28.</samplingDesc>
<editorialDecl><conformance level="1"></conformance></editorialDecl>
</encodingDesc>
<profileDesc>
<creation><date>03-08-23</date></creation>
<langUsage>Punjabi</langUsage>
<wsdUsage>
<writingSystem id="ISO/IEC 10646">Universal Multiple-Octet Coded Character Set (UCS).</writingSystem>
</wsdUsage>
<textClass>
<channel mode="w">print</channel>
<constitution type="composite"></constitution>
<domain type="public"></domain>
<factuality type="fact"></factuality>
</textClass>
<translations></translations>
</profileDesc>
<revisionDesc></revisionDesc>
</cesHeader>

<text><body>
<p>&lt;2198&gt;&lt;SINGH TEJA - GRANTH SAHIB&gt;&lt;PRIYA KUMAR&gt;</p>

<p>&lt;     ਸਿਖ੍ਖ ਧਰਮ ਵਿਚ ਬਾਣੀ ਦੀ ਮਹਾਨਤਾ ਸ਼ੁਰੂ ਤੋਂ ਮਁਨੀ ਗਈ ਹੈ । `ਇਸੁ ਜਗ ਮਹਿ 
ਸਬਦੁ ਕਰਣੀ ਹੈ ਸਾਰੁ । ਬਿਨੁ ਸਬਦੈ ਹੋਰੁ ਮੋਹੁ ਗੁਬਾਰ । ਸਬਦੈ ਨਾਮ ਰਖ੍ਖੈ-ਉਰਧਾਰੁ । 
ਸਬਦੇ ਗਤਿ ਮਤਿ ਮੋਖ ਦੁਆਰੁ ।' (ਪ੍ਰਭਾਤੀ ਮ: 1) </p>

<p>     ਜਦ ਜੋਗੀਆਂ ਨੇ ਗੁਰੂ ਨਾਨਕ ਸਾਹਿਬ ਪਾਸੋਂ ਕਰਾਮਾਤ ਕਰਨ ਦੀ ਮਁਗ ਕੀਤੀ, ਤਾਂ 
ਉਨ੍ਹਾਂ ਇਹੋ ਕਿਹਾ ਸੀ ਕਿ `ਗੁਰਬਾਣੀ ਸਁਗਤਿ ਬਿਨਾ ਦੂਜੀ ਓਟ ਨਹੀਂ ਹੈ ਰਾਈ' (ਭਾਈ 
ਗੁਰਦਾਸ, ਵਾਰ 1, ਪਉਡ਼ੀ 41) ਸਾਡੇ ਪਾਸ ਤਾਂ ਸਁਗਤ ਤੇ ਬਾਣੀ ਬਿਨਾ ਹੋਰ ਕੋਈ ਚੀਜ਼ 
ਨਹੀਂ । ਜਿਥੇ ਜਾਂਦੇ ਹਾਂ, ਸਁਗਤ ਜੋਡ਼ ਲੈਂਦੇ ਹਾਂ, ਅਤ ਸਁਗਤ ਸਾਹਮਣੇ ਬਾਣੀ ਉਚਾਰਦੇ 
ਹਾਂ । ਬਾਣੀ ਦੀ ਮਹਾਨਤਾ ਵੇਖ ਕੇ ਦੂਜੇ ਤੀਜੇ ਪਾਤਸ਼ਾਹ ਦੇ ਵੇਲੇ ਤੋਂ ਹੀ ਬਣਾਉਟੀ ਬਾਣੀਆਂ 
ਰਚ ਕੇ ਰੌਲਾ ਪਾਉਣ ਦਾ ਖ਼ਿਆਲ ਪੈਦਾ ਹੋ ਗਿਆ ਸੀ । ਇਸ ਖ਼ਤਰੇ ਤੋਂ ਬਚਣ ਲਈ ਗੁਰੂ 
ਅਮਰਦਾਸ ਜੀ ਨੂਁ ਆਪਣੇ ਸਿਖ੍ਖਾਂ ਨੂਁ ਸੂਚਨਾ ਦੇਣੀ ਪਈ ਸੀ ਕਿ `ਆਵਹੁ ਸਿਖ ਸਤਿਗੁਰ ਕੇ 
ਪਿਆਰਿਹੋ ਗਾਵਹੁ ਸਚੀ ਬਾਣੀ ।। ਬਾਣੀ ਤੇ ਗਾਵੁਹੁ `ਗੁਰੂ ਕੇਰੀ ਬਾਣੀਆ ਸਿਰਿ ਬਾਣੀ' ।। 
ਅਤੇ `ਸਤਿਗੁਹੂ ਬਿਨਾਂ ਹੋਰ ਕਚੀ ਹੈ ਬਾਣੀ' (ਅਨਁਦ) ਉਨ੍ਹਾਂ ਨੇ, ਜਿਵੇਂ ਅਗ੍ਗੇ ਦਸ੍ਸਿਆ 
ਜਾਏਗਾ, ਸਚ੍ਚੀ ਬਾਣੀ ਦੇ ਇਕਤ੍ਤਰ ਕਰਨ ਦਾ ਪ੍ਰਬਁਧ ਕੀਤਾ, ਪਰ ਪਁਚਮ ਪਾਤਸ਼ਾਹ ਦੇ ਵੇਲੇ 
ਉਨ੍ਹਾਂ ਦੇ ਬਾਬਾ ਪ੍ਰਿਥੀ ਚਁਦ ਵਲੋਂ ਕਚ੍ਚੀ ਬਾਣੀ ਲਿਖਵਾ ਕੇ ਰਲਾ ਪਾਉਣ ਦੇ ਆਹਰ ਹੋਣ 
ਲਗ੍ਗੇ, ਤਾਂ ਗੁਰੂ ਜੀ ਨੂਁ ਇਕ ਪ੍ਰਮਾਣਿਕ ਗ੍ਰਁਥ ਤਿਆਰ ਕਰਨ ਦੀ ਲੋਡ਼ ਪਈ, ਤਾਂ ਜੋ 
ਸਿਖ੍ਖਾਂ ਦੀ ਅਗਵਾਈ ਅਤੇ ਮਾਣਤਾ ਲਈ ਇਕ ਕੇਂਦਰੀ ਚੀਜ਼ ਸਥਾਪਤ ਹੋ ਜਾਵੇ । </p>

<p>     ਬਾਣੀ ਦੇ ਇਕਤ੍ਤਰ ਕਰਨ ਦਾ ਖ਼ਿਆਲ ਨਵਾਂ ਨਹੀਂ ਸੀ । ਇਹ ਤਾਂ ਸਿਖ੍ਖ ਧਰਮ ਦੇ ਆਦਿ 
ਗੁਰੂ ਤੋਂ ਹੀ ਸ਼ੁਰੂ ਹੋ ਪਿਆ ਸੀ । ਗੁਰੂ ਨਾਨਕ ਨੇ ਹੀ ਸਾਰੇ ਹਿਁਦ ਦਾ ਦੌਰਾ ਕੀਤਾ ਸੀ । ਇਸ 
ਦੈਰੇ ਵਿਚ ਉਨ੍ਹਾਂ ਨੂਁ ਕਈ ਮਹਾਂ ਪੁਰਖਾਂ ਦੀਆਂ ਬਾਣੀਆਂ ਮਿਲੀਆਂ ਸਨ, ਜਿਨ੍ਹਾਂ ਵਿਚ 
ਹਰੀ-ਪ੍ਰੇਮ ਤੇ ਅਛੂਤ ਜਾਤੀਆਂ ਦੇ ਉਧਾਰ ਦੀਆਂ ਗਲ੍ਲਾਂ ਡਾਢੇ ਸਿਟ੍ਟੇ ਕਢ ਕੇ ਤਰੀਕੇ ਨਾਲ 
ਦਰਜ ਸਨ । ਉਨ੍ਹਾਂ ਨੇ ਹੀ ਇਹ ਬਾਣੀਆਂ ਇਕਤ੍ਤਰ ਕੀਤੀਆਂ । ਗੁਰੂ ਨਾਨਕ ਦੇ ਪਾਸ ਭਗਤ 
ਬਾਣੀ ਮੌਜੂਦ ਹੋਣ ਦੇ ਸਬੂਤ ਇਹ ਹਨ : </p>

<p>     ਗੁਰੂ ਨਾਨਕ ਦੀ ਬਾਣੀ ਅਤੇ ਕਬੀਰ ਦੀ ਬਾਣੀ ਵਿਚ ਕਈ ਤੁਕਾਂ ਸਾਂਝੀਆਂ ਹਨ । ਜਪੁ ਜੀ 
ਦੀ ਮਸ਼ਹੂਰ ਤੁਕ, `ਮਨੁ ਜੀਤੈ ਜਗੁ ਜੀਤ' ਕਬੀਰ ਦੇ ਰਾਗ ਮਾਰੂ ਵਿਚ `ਮਨੁ ਜੀਤੈ ਜਗ ਜੀਤਿਆ' 
ਕਰ ਕੇ ਆਉਂਦੀ ਹੈ । ਜੇ `ਸੂਤਕੁ ਪਵੈ ਰਸੋਇ' ਵਾਲੀ ਤੁਕ ਆਸਾ ਦੀ ਵਾਰ ਵਿਚ ਆਉਂਦੀ ਹੈ, ਤਾਂ 
ਇਹੋ ਤੁਕ ਕਬੀਰ ਦੀ ਗਉਡ਼ੀ ਵਿਚ ਵੀ ਆਉਂਦੀ ਹੈ । `ਅਁਜਨ ਮਾਹਿ ਨਿਰਁਜਨੁ ਰਹੀਐ', ਕਬੀਰ 
ਦੀ ਗਉਡ਼ੀ ਵਿਚ ਅਤੇ ਗੁਰੂ ਨਾਨਕ ਦੀ ਸੂਹੀ ਦੋਹਾਂ ਵਿਚ ਸਾਂਝੀ ਹੈ । ਜੇ ਗੁਰੂ ਨਾਨ੍ਕ ਨੇ 
ਰਾਗ ਆਸਾ ਵਿਚ `ਇਹ ਮਨ ਪਁਚ ਤਤੁ ਤੇ ਜਨਮਾ' ਕਿਹਾ ਹੈ, ਤਾਂ ਕਬੀਰ ਨੇ ਗਉਡ਼ੀ ਵਿਚ 
`ਇਹ ਮਨੁ ਪਁਚ ਤਤੁ ਕੋ ਜੀਉ' ਕਿਹਾ ਹੈ । `ਵਿਣ ਸਤਗੁਰ ਵਾਟ ਨਾ ਪਾਵੈ' ਵਾਲੀ ਤੁਕ ਜੋ ਗੁਰੂ 
ਨਾਨਕ ਦੀ ਆਸਾ ਦੀ ਵਾਰ ਅਤੇ ਸਹਸਕ੍ਰਿਤੀ ਸਲੋਕਾਂ ਵਿਚ ਆਉਂਦੀ ਹੈ, ਭਗਤ ਕਬੀਰ ਦੇ ਰਾਗ 
ਬਸਁਤ ਅਤੇ ਭਗਤ ਬੇਣੀ ਦੇ ਪ੍ਰਭਾਤੀ ਰਾਗ ਵਿਚ ਵੀ ਆਉਂਦੀ ਹੈ । ਰਾਮਕਲੀ ਦੀ ਪਹਿਲੀ ਵਾਰ 
ਦੀ 12ਵੀਂ ਪਉਡ਼ੀ ਦੇ ਪਁਜਵੇਂ ਸਲੋਕ ਵਿਚ ਆਈਆਂ ਗੁਰੂ ਨਾਨਕ ਸਾਹਿਬ ਦੀਆਂ ਕਈ ਤੁਕਾਂ ਓਹੀ 
ਹਨ ਜੋ ਕਬੀਰ ਜੀ ਨੇ ਭੈਰਉ ਰਾਗ ਵਿਚ ਕਾਜ਼ੀ ਬਾਬਤ ਕਹੀਆਂ ਹਨ । ਧਨਾਸਰੀ ਰਾਗ ਵਿਚ 
ਭਗਤ ਪੀਪਾ ਦਾ ਕਥਨ `ਜੋ ਬ੍ਰਹਮਁਡੇ ਸੋਈ ਪਿਁਡੇ' ਗੁਰੂ ਨਾਨਕ ਸਾਹਿਬ ਦੇ ਮਾਰੂ ਰਾਗ ਵਿਚ ਵੀ 
ਆਉਂਦਾ ਹੈ । ਬਾਬਾ ਫਰੀਦ ਦੇ ਕਈ ਸ਼ਲੋਕ (ਯਥਾ ਸ਼ਲੋਕ ਨਁ: 113-114) ਗੁਰੂ ਨਾਨਕ ਸਾਹਿਬ 
ਦੀ ਬਾਣੀ ਵਿਚ ਮਿਲਦੇ ਹਨ । ਕਈ ਥਾਵਾਂ ਤੇ ਗੁਰੂ ਨਾਨਕ ਸਾਹਿਬ ਦੀ ਬਾਣੀ ਵਿਚ ਮਿਲਦੇ ਹਨ । 
ਕਈ ਥਾਵਾਂ ਤੇ ਗੁਰੂ ਨਾਨਕ ਸਾਹਿਬ ਬਾਬਾ ਫਰੀਦ ਦੇ ਖ਼ਿਆਲਾਂ ਸਬਁਧੀ ਆਪਣੇ ਖ਼ਿਆਲ ਪਰਗਟ 
ਕਰਦੇ ਹਨ ਅਤੇ ਉਨ੍ਹਾਂ ਦੇ ਸ਼ਲੋਕਾਂ ਉਪਰਁਤ ਆਪਣੇ ਸ਼ਲੋਕ ਦਰਜ ਕਰਦੇ ਹਨ । (ਜਿਵੇਂ ਸ਼ਲੋਕ 
ਨਁ: 119-120) ਸੂਹੀ ਵਿਚ ਗੁਰੂ ਨਾਨਕ ਸਾਹਿਬ ਦਾ ਸ਼ਬਦ `ਜਪ ਤਪ ਕਾ ਬਁਧੁ ਬੋਡ਼ੁਲਾ ਜਿਤੁ 
ਲਁਘਹਿ ਵਹੇਲਾ' ਬਾਬਾ ਫਰੀਦ ਦੇ ਉਸੇ ਰਾਗ ਵਿਚ ਦਿਤੇ ਸ਼ਬਦ `ਬੇਡ਼ਾ ਬਁਧਿ ਨ ਸਕਿਉ ਬਁਧਨ 
ਕੀ ਵੇਲਾ' ਦਾ ਨਿਖਡ਼ਵਾਂ ਉਤਰ ਹੈ । (ਵੇਖੋ `ਸ਼ਬਦਾਰਥ' ਦੇ ਪਁਨਾ 729 ਦਾ ਤੀਜਾ ਫੁਟ-ਨੋਟ) 
ਤੁਕਾਂਤ ਦੀ ਵੀ ਸਾਂਝ ਹੈ । </p>

<p>     ਇਹੋ ਜੇਹੀ ਸਾਂਝ ਦੂਜੀ ਤੀਜੀ ਅਤੇ ਚੌਥੀ ਪਾਤਸ਼ਾਹੀ ਦੇ ਕਈ ਸ਼ਬਦਾਂ ਦੀ ਬਾਬਾ ਫਰੀਦ 
ਅਤੇ ਕਬੀਰ ਜੀ ਦੀ ਬਾਣੀ ਵਿਚ ਮਿਲਦੀ ਹੈ । ਇਹ ਸਾਂਝ ਤੇ ਸ਼ਬਦਮੇਲ ਐਵੇਂ ਕੈਵੇਂ ਨਹੀਂ ਹੋ 
ਸਕਦਾ । ਇਹ ਇਸੇ ਕਰ ਕੇ ਹੋ ਸਕਦਾ ਹੈ ਕਿ ਇਨ੍ਹਾਂ ਗੁਰੂ ਸਾਹਿਬਾਨ ਦੇ ਪਾਸ ਇਨ੍ਹਾਂ ਭਗਤਾਂ 
ਦੀ ਬਾਣੀ ਮੌਜੂਦ ਸੀ । </p>

<p>     ਗੁਰੂ ਨਾਨਕ ਸਾਹਿਬ ਦੀਆਂ ਉਦਾਸੀਆਂ ਸਬਁਧੀ ਇਹ ਲਿਖਿਆ ਹੁਁਦਾ ਹੈ ਕਿ ਗੁਰੂ ਜੀ 
`ਆਸਾ ਹਥਿ ਕਿਤਾਬ ਕਛ੍ਛਿ' ਲਈ ਫਿਰਦੇ ਸਨ । ਉਹ ਕਛ੍ਛ ਵਾਲੀ ਕਿਤਾਬ ਕਿਹਡ਼ੀ ਸੀ ? ਉਹ 
ਇਹੋ ਇਕਤ੍ਤਰ ਕੀਤੀ ਹੋਈ ਬਾਣੀ, ਕੁਝ ਆਪਣੀ ਤੇ ਕੁਝ ਭਗਤਾਂ ਦੀ ਹੁਁਦੀ ਸੀ ਜਿਸ ਨੂਁ ਉਹ ਸਾਂਭ 
ਕੇ ਹਰ ਵੇਲੇ ਆਪਣੇ ਪਾਸ ਰਖਦੇ ਸਨ । ਇਹੋ ਬਾਣੀ ਆਪਣਾ ਸਰੀਰਕ ਚੋਲਾ ਛਡ੍ਡਣ ਵੇਲੇ ਗੁਰੂ 
ਅਁਗਦ ਨੂਁ ਦੇ ਕੇ ਗੁਰਿਆਈ ਸੌਂਪੀ ਸੀ । </p>

<p>     ਗੁਰੂ ਅਁਗਦ ਦੇ ਪਾਸ ਗੁਰੂ ਨਾਨਕ ਦੀ ਬਾਣੀ ਮੌਜੂਦ ਹੋਣ ਦੇ ਕਈ ਸਬੂਤ ਹਨ । ਉਨ੍ਹਾਂ 
ਦੀ ਬਾਣੀ ਵਿਚ ਪਹਿਲੇ ਗੁਰੂ ਜੀ ਦੇ ਖ਼ਿਆਲਾਂ ਦੀ ਝਲਕ ਸਾਫ਼ ਸਾਫ਼ ਪਈ ਦਿਸਦੀ ਹੈ । ਵਾਰ 
ਮਾਝ ਦੀ 17ਵੀਂ ਪਉਡ਼ੀ ਦੇ ਦੋਹਾਂ ਸ਼ਲੋਕਾਂ ਦੀ ਬੋਲੀ ਤੇ ਖ਼ਿਆਲਾਂ ਦਾ ਟਾਕਰਾ ਕਰ ਕੇ ਵੇਖੋ । 
ਗੁਰੂ ਅਁਗਦ ਸਾਹਿਬ ਓਹੀ ਸਿਰਖਁਡੀ ਛਁਦ ਵਰਤਦੇ ਹਨ ਜੋ ਗੁਰੂ ਨਾਨਕ ਸਾਹਿਬ ਨੇ ਵਰਤਿਆ 
ਸੀ । ਦੋਹਾਂ ਦਾ ਵਿਚਲਾ ਤੁਕਾਂਤ ਵੀ ਓਹੀ ਹੈ । `ਸੇਈ ਪੂਰੇ ਸਾਹ' ਆਦਿ ਦੀ ਲਫ਼ਜ਼ੀ ਸਾਂਝ ਵੀ 
ਹੈ । ਜੇ ਗੁਰੂ ਨਾਨਕ `ਨਾਨਕ ਹੁਕਮੁ ਨ ਚਲਈ ਨਾਲਿ ਖਸਮ ਚਲੈ ਅਰਦਾਸਿ' ਉਤੇ ਜ਼ੋਰ ਦਿਁਦੇ 
ਹਨ, ਤਾਂ ਗੁਰੂ ਅਁਗਦ ਜੀ ਵੀ ਇਹੋ ਕਹਿਁਦੇ ਹਨ ਕਿ `ਸਾਹਿਬ ਸੇਤੀ ਹੁਕਮੁ ਨ ਚਲੈ ਕਹੀ ਬਣੈ 
ਅਰਦਾਸਿ ।' </p>

<p>     ਗੁਰੂ ਅਮਰਦਾਸ ਜੀ ਪਾਸ ਵੀ ਗੁਰੂ ਨਾਨਕ ਸਾਹਿਬ ਦੀ ਬਾਣੀ ਮੌਜੂਦ ਸੀ । ਇਸ ਗਲ੍ਲ 
ਦੇ ਸਬੂਤ ਇਹ ਹਨ : (1) ਗੁਰੂ ਅਮਰਦਾਸ ਦੀ ਨੇ ਲਗ ਭਗ ਓਹੀ ਰਾਗ ਵਰਤੇ ਹਨ ਜੋ 
ਗੁਰੂ ਨਾਨਕ ਨੇ (19 ਵਿਚੋਂ 17) । ਦੋਹਾਂ ਨੇ ਇਕੋ ਰਾਗ (ਆਸਾ) ਵਿਚ ਇਕੋ ਨਾਂ ਹੇਠ `ਪਟ੍ਟੀ' 
ਲਿਖੀ । ਦੋਹਾਂ ਨੇ ਇਕੋ ਰਾਗ (ਵਡਹਁਸ) ਵਿਚ ਇਕੋ ਨਾਂ (ਅਲਾਹਣੀਆਂ) ਦੀ ਬਾਣੀ ਲਿਖੀ । 
ਦੋਹਾਂ ਨੇ ਮਾਰੂ ਰਾਗ ਵਿਚ ਇਕੋ ਭਾਵ ਦੇ `ਸੋਲਹੇ' ਲਿਖੇ । ਗੁਰੂ ਨਾਨਕ ਨੇ ਬਾਬਰਵਾਣੀ ਵੇਲੇ 
ਲਾਹੌਰ ਸਬਁਧੀ ਇਹ ਵਾਕ ਉਚਾਰਿਆ ਸੀ ਕਿ `ਲਾਹੌਰ ਸਹਰੁ ਜਹਰੁ ਕਹਰੁ ਸਵਾ ਪਰਹੁ' । 
ਜਦ ਉਹੋ ਸ਼ਹਿਰ ਹਾਲਾਤ ਦੇ ਬਿਹਤਰ ਹੋ ਜਾਣ ਨਾਲ ਅਁਮ੍ਰਿਤ ਦਾ ਸਰੋਵਰ ਬਣ ਗਿਆ ਤਾਂ 
ਗੁਰੂ ਅਮਰਦਾਸ ਜੀ ਉਸ ਤੁਕ ਦੇ ਜਵਾਬ ਵਿਚ ਇਉਂ ਫਰਮਾਉਂਦੇ ਹਨ : `ਲਾਹੌਰ ਸਹਰੁ 
ਅਁਮ੍ਰਿਤਸਰ ਸਿਫਤੀ ਦਾ ਘਰੁ' । ਦੋਵੇਂ ਤੁਕਾਂ ਸ਼ਲੋਕ, ਵਾਰਾਂ ਤੇ ਵਧੀਕ ਵਿਚ ਦਰਜ ਹਨ । 
ਗੁਰੂ ਅਮਰਦਾਸ ਜੀ ਦੀ ਬਾਣੀ ਵਿਚ ਕਈ ਹੋਰ ਝਲਕਾਰੇ ਬਾਬਾ ਨਾਨਕ ਦੀ ਬਾਣੀ ਦੇ ਮਿਲਦੇ 
ਹਨ, ਜਿਨ੍ਹਾਂ ਤੋਂ ਪਤਾ ਲਗਦਾ ਹੈ ਕਿ ਤੀਜੇ ਪਾਤਸ਼ਾਹ ਨੂਁ ਪਹਿਲੇ ਪਾਤਸ਼ਾਹ ਦੀ ਰਚਨਾ ਦੀ ਚੋਖੀ 
ਵਾਕਫ਼ੀ ਸੀ । </p>

<p>     ਗੁਰੂ ਅਮਰਦਾਸ ਜੀ ਨੇ ਜਿਥੇ ਮਰਯਾਦਾ ਨੂਁ ਪਕ੍ਕਾ ਕਰਨ ਦੇ ਕਈ ਹੋਰ ਪ੍ਰਬਁਧ ਕੀਤੇ. ਉਥੇ 
ਇਹ ਵੀ ਉਦਮ ਕੀਤਾ ਕਿ ਆਪਣੇ ਤਕ ਪਹੁਁਚੀ ਬਾਣੀ ਨੂਁ ਇਕ ਥਾਂ ਕਰਨ ਲਈ ਪੋਤਰੇ (ਬਾਬਾ 
ਮਹੋਨ ਜੀ ਦੇ ਸਪੁਤ੍ਤਰ) ਬਾਬਾ ਸਹਁਸਰ ਰਾਮ ਜੀ ਨੂਁ ਆਗਿਆ ਕੀਤੀ । ਸਹਁਸਰ ਰਾਮ ਜੀ ਨੇ ਦੋ 
ਸਾਲ (1570-1572) ਲਾ ਕੇ ਸਁਚੀਆਂ ਵਿਚ ਸਾਰੀ ਬਾਣੀ ਇਕਤ੍ਤਰ ਕੀਤੀ । ਇਨ੍ਹਾਂ ਨੂਁ ਗੋਇਁਦ-~
ਵਾਲ ਵਾਲੀਆਂ ਸਁਚੀਆਂ* ਆਖਦੇ ਹਨ । ਚੂਁਕਿ ਇਹ ਹੁਣੇ ਹੁਣੇ ਪਬਲਿਕ ਦੇ ਸਾਹਮਣੇ ਆਈਆਂ 
ਹਨ, ਇਸ ਲਈ ਇਨ੍ਹਾਂ ਸਬਁਧੀ ਕੁਝ ਵਾਕਫ਼ੀ ਦੇਣੀ ਜ਼ਰੂਰੀ ਹੈ । </p>

<p>     ਇਨ੍ਹਾਂ ਵਿਚੋਂ ਪਹਿਲੀ ਪੋਥੀ ਦੇ 300 ਪਤਰੇ ਹਨ ਅਤੇ ਦੂਜੀ ਦੇ 224 ਪਤਰੇ । ਹਰ ਪਁਨੇ 
ਵਿਚ 13 ਪਾਲਾਂ ਹਨ ਅਤੇ ਹਰ ਪਾਲ ਵਿਚ ਮੋਟੇ ਮੋਟੇ 13 ਅਖ੍ਖਰ । ਇਹ ਅਖ੍ਖਰ ਗੁਰਮੁਖੀ ਦੇ 
ਹਨ ਜਿਨ੍ਹਾਂ ਦੀ ਸ਼ਕਲ ਟਾਕਰੇ ਤੇ ਸ਼ਾਰਦਾ ਅਖਰਾਂ ਨਾਲ ਮਿਲਦੀ ਜੁਲਦੀ ਹੈ । ਲਗਾਂ ਮਾਤਰਾਂ 
ਘਟ ਹੀ ਵਰਤੀਆਂ ਹਨ । ਦੂਜੀ ਪੋਥੀ ਦੇ ਪਁ: 216 ਉਤੇ ਹਾਸ਼ੀਏ ਵਿਚ ਇਕ ਨੋਟ ਦਿਤਾ 
ਹੋਇਆ ਹੈ ਕਿ ਗੁਰਮੁਖੀ ਅਖ੍ਖਰ ਗੁਰੂ ਅਁਗਦ ਜੀ ਨੇ ਬਣਾਏ । ਇਹ ਲੋਟ ਸਹਁਸਰ ਰਾਮ ਜੀ 
ਦੀ ਲਿਖਤ ਨਹੀਂ । </p>

<p>     ਪਹਿਲੀ ਪੋਥੀ ਵਿਚ 10 ਰਾਗਾਂ ਦੀ ਬਾਣੀ ਹੈ । ਉਹ ਰਾਗ ਇਹ ਹਨ : ਸੂਹੀ, ਪ੍ਰਭਾਤੀ, 
ਧਨਾਸਰੀ, ਬਸਁਤ, ਤਿਲਁਗ, ਗੁਜਰੀ, ਭੈਰਉ, ਆਸਾ (ਕੇਵਲ ਵਾਰ ਆਸਾ ਦੇ ਪਹਿਲੇ ਦੋ ਸ਼ਲੋਕ, 
ਇਕ ਗੁਰੂ ਨਾਨਕ ਜੀ ਦਾ ਅਤੇ ਦੂਸਰਾ ਗੁਰੂ ਅਂਗਦ ਜੀ ਦਾ), ਮਾਰੂ ਅਤੇ ਕੇਦਾਰਾ । ਦੂਜੀ 
ਪੋਥੀ ਵਿਚ ਕੇਵਲ ਚਾਰ ਰਾਗ ਹਨ : ਰਾਮਕਲੀ, ਸੋਰਠਿ, ਮਲਾਰ ਅਤੇ ਸਾਰਁਗ । ਇਉਂ ਕਰ ਕੇ 
ਕੁਲ 14 ਰਾਗ ਬਣਦੇ ਹਨ (ਗੁਰੂ ਅਰਜਨ ਵਾਲੀ ਬੀਡ਼ ਦੇ ਮੁਕਾਬਲੇ ਵਿਚ)। </p>

<p>     ਜਿਨ੍ਹਾਂ ਦੀ ਬਾਣੀ ਦਰਜ ਹੈ, ਉਹ ਇਹ ਹਨ : ਗੁਰੂ ਨਾਨਕ, ਗੁਰੂ ਅਁਗਦ, ਗੁਰੂ 
ਅਮਰਦਾਸ, ਕਬੀਰ, ਨਾਮਦੇਵ, ਤ੍ਰਿਲੋਚਨ, ਸੈਣ, ਰਵਿਦਾਸ ਅਤੇ ਜੈ ਦੇਵ । </p>

<p>     ਲਿਖਾਰੀ ਦਾ ਨਾਂ ਕੇਵਲ ਇਕ ਵਾਰ ਸ਼ੁਰੂ ਵਿਚ ਦਿਤਾ ਹੁਁਦਾ ਹੈ । </p>

<p>     ਦੂਜੀ ਪੋਥੀ ਵਿਚ ਥਾਂ ਥਾਂ ਸੁਧਾਈ ਦੇ ਨਿਸ਼ਾਨ ਮਿਲਦੇ ਹਨ । ਇਹ ਸੁਧਾਈ ਗੁਰੂ 
ਅਮਰਦਾਸ ਜੀ ਵਲੋਂ ਕੀਤੀ ਮਲੂਮ ਹੁਁਦੀ ਹੈ । </p>

<p>     ਗੁਰੂ ਅਰਜਨ ਜੀ ਇਨ੍ਹਾਂ ਪੋਥੀਆਂ ਨੂਁ ਲੈਣ ਲਈ ਆਪ ਗੋਇਁਦਵਾਲ ਗਏ ਅਤੇ ਜਿਸ 
ਮੁਸ਼ਕਲ ਨਾਲ ਬਾਬਾ ਮੋਹਨ ਜੀ ਪਾਸ ਪਰਾਪਤ ਕੀਤੀਆਂ, ਉਹ ਆਮ ਇਤਿਹਾਸਾਂ ਵਿਚ ਲਿਖਿਆ 
ਮਿਲਦਾ ਹੈ । ਗੁਰੂ ਜੀ ਇਸ ਪਵਿਤ੍ਤਰ ਸਁਗ੍ਰਹਿ ਨੂਁ ਪਾਲਕੀ ਵਿਚ ਰਖ ਕੇ ਨਁਗੇ ਪੈਰੀਂ 
ਗੋਇਁਦਵਾਲ ਤੋਂ ਅਮ੍ਰਿਤਸਰ ਜੀ ਲੈ ਆਏ । ਰਸਤੇ ਵਿਚ ਉਹ ਖਡੂਰ ਸਾਹਿਬ ਠਹਿਰੇ । ਉਥੇ 
ਗੁਰੂ ਅਁਗਦ ਜੀ ਦੇ ਵਡ੍ਡੇ ਪੁਤ੍ਤਰ ਬਾਬਾ ਦਾਤੂ ਜੀ ਨੂਁ ਮਿਲ ਕੇ ਬੇਨਤੀ ਕੀਤੀ ਕਿ ਆਪ ਜੀ 
ਦੇ ਪਾਸ ਕੋਈ ਬਾਣੀ ਦੇ ਪਤ੍ਤਰੇ ਹੋਣ ਤਾਂ ਬਖ਼ਸ਼ੋ । ਦਾਤੂ ਜੀ ਨੇ ਕਿਹਾ, ਕੋਠੇ ਦੇ ਅਁਦਰ ਕੁਝ 
ਖੁਲ੍ਹੇ ਕਾਗ਼ਜ਼ ਪਏ ਹਨ । ਉਨ੍ਹਾਂ ਵਿਚ ਵੇਖ ਲਓ, ਮਤਾਂ ਆਪ ਦੇ ਮਤਲਬ ਦੀ ਕੋਈ ਚੀਜ਼ 
ਨਿਕਲ ਆਵੇ । ਗੁਰੂ ਜੀ ਨੇ ਉਥੋਂ ਕੁਝ ਪਤ੍ਤਰੇ ਲਏ ਤੇ ਆਪਣੇ ਨਾਲ ਲੈ ਆਏ । ਉਨ੍ਹਾਂ 
ਪਤ੍ਤਰਿਆਂ ਵਿਚ ਕੀ ਸੀ ? ਕੁਝ ਤਾਂ ਬਾਣੀ ਗੁਰੂ ਅਁਗਦ ਜੀ ਦੀ ਹੋਣੀ ਹੈ, ਕਿਉਂਕਿ ਸਹਁਸਰ 
ਰਾਮ ਵਾਲੀਆਂ ਸਁਚੀਆਂ ਵਿਚ ਗੁਰੂ ਅਁਗਦ ਜੀ ਦੀ ਬਾਣੀ ਨਾਂ-ਮਾਤਰ ਹੀ ਹੈ । ਬਾਕੀ ਦੀ 
ਖਡੂਰ ਸਾਹਿਬ ਤੋਂ ਮਿਲੀ ਹੋਣੀ ਹੈ । ਕੁਝ ਗੁਰੂ ਨਾਨਕ ਸਾਹਿਬ ਦੀ ਵੀ ਹੋਣੀ ਹੈ (ਸਿਰੀ ਰਾਗ 
ਆਦ, ਜੋ ਗੋਇਁਦਵਾਲ ਵਾਲੀਆਂ ਸਁਚੀਆਂ ਵਿਚ ਨਹੀਂ ਸੀ ਮਿਲੀ) । </p>

<p>     ਇਹ ਸਾਰਾ ਸਁਚਾ ਗੁਰੂ ਗ੍ਰਁਥ ਸਾਹਿਬ ਦੀ ਬੀਡ਼ ਲਈ ਕਾਫ਼ੀ ਨਹੀਂ ਸੀ । ਬਾਕੀ ਦੀ ਬਾਣੀ 
ਗੁਰੂ ਅਰਜਨ ਜੀ ਨੇ ਕਿਥੋਂ ਲਈ ? ਇਹ ਗਲ੍ਲ ਖੋਜ ਕਰਨ ਜੋਗੀ ਹੈ । ਕੁਝ ਮਸਾਲਾ ਗੁਰੂ ਜੀ 
ਨੇ ਉਸ ਬੀਡ਼ ਤੋਂ ਲਿਆ ਹੋਣਾ ਹੈ ਜੋ ਸਁਨ 1947 ਤਕ ਭਾਈ ਬੂਟਾ ਸਿਁਘ ਪਸਾਰੀ ਰਾਵਲਪਿਁਡੀ 
ਵਾਲੇ ਦੀ ਧਰਮਸਾਲਾ ਵਿਚ ਰਖਿਆ ਮਿਲਦਾ ਸੀ । ਇਹ ਬੀਡ਼ ਹੁਣ ਦਿਲ੍ਲੀ ਸੁਰਖਿਅਤ ਹੈ । 
ਇਸ ਬੀਡ਼ ਵਿਚ ਸਤ੍ਤੇ ਬਲਵਁਡ ਦੀ ਵਾਰ ਦੀਆਂ ਅਠ੍ਠ ਪਉਡ਼ੀਆਂ ਤੋਂ ਉਪਰਁਤ ਦੋ ਪੁਉਡ਼ੀਆਂ 
ਛੇਵੇਂ ਸਤਿਗੁਰੂ ਸਁਬਁਧੀ ਵੀ ਪਈਆਂ ਹੋਈਆਂ ਹਨ । ਪਰ ਬੋਲੀ ਅਤੇ ਕਾਵਿ-ਰਚਨਾ ਨੂਁ ਵਿਚਾਰਨ 
ਤੋਂ ਪਤਾ ਲਗਦਾ ਹੈ ਕਿ ਇਹ ਵਾਧੂ ਪਉਡ਼ੀਆਂ ਅਪ੍ਰਮਾਣੀਕ ਹਨ । ਗੁਰੂ ਅਰਜਨ ਜੀ ਦੇ ਵੇਲੇ 
ਇਹ ਬੀਡ਼ ਇਤਨੀ ਵਡ੍ਡੀ ਨਹੀਂ ਹੋਣੀ । ਹੁਣ ਤਾਂ ਇਸ ਵਿਚ ਗੁਰੂ ਅਰਜਨ ਜੀ ਦੀ ਬਾਣੀ ਤੋਂ 
ਇਲਾਵਾ ਗੁਰੂ ਤੇਗ ਬਹਾਦਰ ਦੇ ਕਈ ਸ਼ਬਦ ਅਤੇ ਗੁਰੂ ਗੋਬਿਁਦ ਸਿਁਘ ਸਾਹਿਬ ਦੀ ਵੀ ਕੁਝ 
ਰਚਨਾ (ਉਨ੍ਹਾਂ ਦੀ ਖ਼ਾਸ ਤੀਰ-ਲਿਪ੍ਪੀ ਵਿਚ) ਲਿਖੀ ਹੋਈ ਮਿਲਦੀ ਹੈ । ਇਸ ਦੀ ਲਿਖਤ ਵੀ 
ਇਕ ਹਥ੍ਥ ਦੀ ਨਹੀਂ, ਸਗੋਂ ਕਈ ਲਿਖਾਰੀਆਂ ਦੀ ਹੈ । ਜੇ ਕਿਸੇ ਨੇ ਗੁਰਮੁਖੀ ਲਿਖਤ ਦੇ ਸਮੇਂ 
ਸਮੇਂ ਬਦਲਦੇ ਨਮੂਨੇ ਵੇਖਣੇ ਹੋਣ, ਤਾਂ ਉਹ ਇਸ ਬੀਡ਼ ਦੇ ਦਰਸ਼ਨ ਕਰੇ । ਇਕ ਹਿਸ੍ਸਾ 
ਸਁਸਕ੍ਰਿਤ ਵਿਚ ਲਿਖਿਆ ਵੀ ਮਿਲਦਾ ਹੈ । ਉਸ ਉਤੇ ਤਰੀਕ ਸਁਮਤ 1693 ਦੀ ਦਿਤੀ ਹੋਈ ਹੈ । 
ਅਠ੍ਠ ਕੁ ਸਫ਼ੇ ਵਾਰਤਕ ਦੇ ਵੀ ਹਨ, ਜਿਸ ਵਿਚ ਗੁਰੂ ਅਮਰਦਾਸ ਜੀ ਦੀ ਸਿਖ੍ਖਾਂ ਪ੍ਰਤੀ ਸਿਖਿਆ 
ਦਿਤੀ ਹੈ । </p>

<p>     ਇਹ ਸਾਰਾ ਮਸਾਲਾ ਲੈ ਕੇ ਗੁਰੂ ਅਰਜਨ ਜੀ ਸ੍ਰੀ ਰਾਮਸਰ ਦੀ ਥਾਂ ਬੈਠ ਗਏ ਅਤੇ ਗੁਰੂ 
ਗ੍ਰਁਥ ਸਾਹਿਬ ਦੀ ਬੀਡ਼ ਬਁਨ੍ਹਣੀ ਸ਼ੁਹੂ ਕੀਤੀ । ਜੋ ਜੋ ਬਾਣੀ ਚੁਣਦੇ ਸਨ ਉਹ ਆਪਣੇ ਅਨਿਨ੍ਨ 
ਸਿਖ੍ਖ, ਮਹਾਂ ਗਿਆਨੀ ਤੇ ਸੋਹਣੀ ਲਿਖਤ ਵਾਲੇ ਭਾਈ ਗੁਰਦਾਸ ਦੀ ਦੇ ਹਥ੍ਥੀਂ ਲਿਖਵਾਈ ਜਾਂਦੇ 
ਸਨ । ਇਹ ਲਿਖਤ ਲਿਖਵਾਉਣ ਦਾ ਕਁਮ ਆਮ ਰਵਾਇਤਾਂ ਅਨੁਸਾਰ ਸਁਨ 1604 ਵਿਚ ਸਁਪੂਰਣ 
ਹੋਇਆ । (ਕੇਸਰ ਸਿਁਘ ਛਿਬ੍ਬਰ ਸਁਨ 1601 ਦਿਁਦਾ ਹੈ) । </p>

<p>
2. ਬਾਣੀ ਦੀ ਤਰਤੀਬ </p>

<p>     ਬਾਣੀ ਰਾਗਾਂ ਦੇ ਅਨੁਸਾਰ ਬੀਡ਼ੀ ਗਈ । ਇਹ ਰਾਗ ਵਿਚਲੇ ਮਜ਼ਮੂਨਾਂ ਦੇ ਅਨੁਸਾਰ ਚੁਣੇ 
ਗਏ । ਯਥਾ, ਸੂਹੀ ਰਾਗ, ਵਿਆਹ ਆਦਿ ਖੁਸ਼ੀ ਦੇ ਮੌਕਿਆਂ ਦਾ ਰਾਗ ਹੈ । ਇਸ ਵਿਚ ਹਰੀ-ਮੇਲ 
ਦੀ ਖੁਸ਼ੀ ਦੇ ਹੀ ਮਜ਼ਮੂਨ ਆਉਂਦੇ ਹਨ । ਬਿਲਾਵਲ ਵੀ ਇਸੇ ਤਰ੍ਹਾਂ ਦਾ ਰਾਗ ਹੈ । ਮਾਰੂ ਜਁਗੀ 
ਰਾਗ ਹੈ । ਇਸ ਵਿਚ ਮਨ ਨਾਲ ਜੂਝਣ ਅਤੇ `ਮੁਲ੍ਲ-ਖਰੀਦੀ ਲਾਲਾ ਗੋਲਾ' ਬਣ ਕੇ ਕਰਡ਼ੀ 
ਘਾਲ ਦ੍ਰਿਡ਼੍ਹਾਉਣ ਵਾਲੇ ਪ੍ਰਸਁਗ ਹਨ । ਤਬੀਅਤ ਵਿਚ ਵਾਹਿਗੁਰੂ ਦੀਆਂ ਸ਼ਕਤੀਆਂ ਵੇਖ ਕੇ ਡਰ 
ਪੈਦਾ ਹੁਁਦਾ ਹੈ (ਡਰਪੈ ਧਰਤਿ ਅਕਾਸੁ ਨਕਤ੍ਰਾ, ਸਿਰ ਊਪਰਿ ਅਮਰ ਕਰਾਰਾ') । ਕਦੀ ਕਦੀ 
ਮਨੁਖ੍ਖ ਦੀਆਂ ਕਮਜ਼ੋਰੀਆਂ ਵੇਖ ਕੇ ਦਿਲ ਵਿਚ ਸ਼ੋਕ ਪੈਦਾ ਹੁਂਦਾ ਹੈ (`ਨਾਨਕ ਭਇਆ ਉਦਾਸੀ') । 
ਪਰ `ਸਮਰਥੁ ਸਰਬ ਗੁਣ ਨਾਇਕੁ' ਪ੍ਰਭੂ, `ਸਁਗਿ ਬਸਤੋ ਨੀਤ' ਵੇਖ ਕੇ ਮੁਡ਼ ਆਸ ਬਝ੍ਝ ਜਾਂਦੀ 
ਹੈ ਅਤੇ ਉਪਰਾਮਤਾ ਦੂਰ ਹੋ ਜਾਂਦੀ ਹੈ । ਮਾਰੂ ਸੋਲ੍ਹਿਆਂ ਵਿਚ ਦੇਸ ਕਾਲ ਦੀਆਂ ਲਁਮੀਆਂ 
ਵਾਟਾਂ ਉਤੇ ਸਮੁਚ੍ਚੀ ਨਜ਼ਰ ਦੁਡ਼ਾਈ ਜਾਂਦੀ ਹੈ ਅਤੇ ਉਪਰਾਮਤਾ ਦੂਰ ਹੋ ਜਾਂਦੀ ਹੈ । ਮਾਰੂ 
ਸੋਲ੍ਹਿਆਂ ਵਿਚ ਦੇਸ ਕਾਲ ਦੀਆਂ ਲਁਮੀਆਂ ਵਾਟਾਂ ਉਤੇ ਸਮੁਚ੍ਚੀ ਨਜ਼ਰ ਦੁਡ਼ਾਈ ਜਾਂਦੀ ਹੈ, 
ਇਨ੍ਹਾਂ ਵਿਚ ਜੁਗਾਂ ਜੁਗਾਂ ਦੇ ਧੁਁਧੂਕਾਰ ਅਤੇ ਮਨੁਖ੍ਖਤਾ ਦੀਆਂ ਅਜਬ ਧਾਉਣੀਆਂ, `ਦੁਁਦਰ 
ਦੂਤ ਭੂਤ ਭੀਹਾਲੇ' ਅਤੇ ਉਨ੍ਹਾਂ ਦੀਆਂ ਬੇਤਾਲੀ ਖਿਚੋਤਾਣਾਂ ਦਾ ਜ਼ਿਕਰ ਆਉਂਦਾ ਹੈ । ਦਿਲ 
ਉਦਾਸ ਪਿਆ ਹੋਵੇ, ਨਿਰਾਸ ਨਹੀਂ ਹੁਁਦਾ । ਦੁਖਾਂ ਕਲੇਸ਼ਾਂ ਦੇ ਨਕਸ਼ੇ ਮਨ ਨੂਂ ਹੋਰ ਉਦਮੀ 
ਬਣਾਉਂਦੇ ਹਨ, ਸਁਗਰਾਮ ਕਰਨ ਲਈ ਉਕਸਾਉਂਦੇ ਹਨ, ਢੇਰੀ ਢਾਹ ਕੇ ਬੈਠਣ ਨਹੀਂ ਦਿਁਦੇ । 
ਸਿਖ੍ਖੀ ਮਾਰਗ ਸਹਿਜ ਦਾ ਹੈ । ਇਸ ਵਿਚ ਸੁਖ ਤੇ ਦੁਖ ਦੋਹਾਂ ਦੇ ਸਿਰੇ ਛੋਹਣ ਦੀ ਆਗਿਆ 
ਨਹੀਂ । ਇਸੇ ਲਈ ਬਾਣੀ ਦੇ ਸਁਪਾਦਕ ਗੁਰੂ ਨੇ ਜਿਥੇ ਦੁਖ ਦੇ ਕੀਰਨੇ ਪਾਉਣ ਵਾਲੇ `ਦੀਪਕ' 
ਰਾਗ ਨੂਁ ਨਹੀਂ ਲਿਆ । (ਮਾਰੂ ਤੇ ਬਿਹਾਗਡ਼ੇ ਤਕ ਹੀ ਬਸ ਕਰ ਦਿਤੀ ਹੈ), ਉਥੇ ਖ਼ੁਸ਼ੀ ਦੇ ਰਾਗ 
ਲੈਣ ਲਗਿਆਂ `ਬਸਁਤ' ਅਤੇ `ਸੂਹੀ' ਤਕ ਹੀ ਗਾਏ ਹਨ, `ਮੇਘਾ ਤੇ ਹਿਁਡੋਲ' ਆਦਿ `ਖਰੂਦ 
ਮਚਾਉਣ ਵਾਲੇ' ਰਾਗ ਨਹੀਂ ਲਏ । ਹਾਂ `ਬਸਂਤ' ਦੀ ਸੁਸਤ ਚਾਲ ਨੂਁ ਤੇਜ਼ ਕਰਨ ਲਈ ਕਿਤੇ 
ਕਿਤੇ `ਬਸਁਤ ਹਿਁਡੋਲ' ਬਣਾ ਲਿਆ ਅਤੇ `ਗਉਡ਼ੀ' ਨੂਁ ਹੋਰ ਤੀਖਣ ਤੇ ਡੂਁਘਾ ਬਣਾਉਣ ਲਈ 
`ਗਉਡ਼ੀ ਦੀਪਕੀ' ਕਰ ਦਿਤਾ । </p>

<p>     ਰਾਗਾਂ ਦੇ ਅਁਦਰ ਆਏ ਸ਼ਬਦਾਂ ਨੂਁ ਮਜ਼ਮੂਨਾਂ ਦੀ ਲਡ਼ੀ ਬਁਨ੍ਹ ਕੇ ਬੀਡ਼ਿਆ ਹੈ । ਇਕ 
ਓਅਁਕਾਰ ਤੋਂ ਲੈ ਕੇ ਦੂਜੇ ਓਅਁਕਾਰ ਤਕ ਮਜ਼ਮੂਨ ਇਕ ਹੁਁਦਾ ਹੈ । ਮਾਨੋ ਇਹ ਮਜ਼ਮੂਨ-ਵਾਰ 
ਪੈਰੇ ਹਨ । ਵੇਖੋ ਰਾਮਕਲੀ ਵਿਚ ਅਁਨਦ ਅਤੇ ਸਦ੍ਦ ਇਕਠ੍ਠੇ ਆਏ ਹਨ ਕਿਉਂਕਿ ਇਨ੍ਹਾਂ ਵਿਚ 
ਮਜ਼ਮੂਨ ਦੀ ਸਾਂਝ ਹੈ । ਉਹ ਮਜ਼ਮੂਨ ਹੈ ਗੁਰਬਾਣੀ ਦੀ ਮਹਤ੍ਤਤਾ, ਸਿਖ੍ਖਾਂ ਨੂਁ ਖੁਸ਼ੀ ਅਤੇ 
ਗ਼ਮੀ ਦੇ ਮੌਕਿਆਂ ਉਤੇ ਗੁਰਬਾਣੀ ਵਰਤਣਾ ਹੀ </p>

<p>+&gt;
               0 
</p></body></text></cesDoc>