<cesDoc id="pun-w-arts-music-lot15p" lang="pun">
<cesHeader type="text">
<fileDesc>
<titleStmt>
<h.title>pun-w-arts-music-lot15p.txt</h.title>
<respStmt>
<respType>Electronic file created by</respType>
<respName>Central Institute for Indian Languages, Mysore</respName>
<respType>transferred into Unicode and CES format by</respType>
<respName>"Unicodify" software by Andrew Hardie</respName>
</respStmt></titleStmt>
<publicationStmt>
<distributor>UCREL (on behalf of CIIL)</distributor>
<pubAddress>Department of Linguistics, Lancaster University, Lancaster, LA1 4YT, UK</pubAddress>
<availability region="WORLD"></availability>
<pubDate>03-08-23</pubDate>
</publicationStmt>
<sourceDesc>
<biblStruct>
<monogr>
<h.title>Malwe De Tappe</h.title>
<h.author>Singh Nahar</h.author>
<imprint>
<pubPlace>India</pubPlace>
<publisher>Unknown - Aakal Sahit Parkashans - Chd</publisher>
<pubDate>1985</pubDate>
</imprint>
<idno type="CIIL code">lot15p</idno>
</monogr></biblStruct></sourceDesc></fileDesc>
<encodingDesc>
<projectDesc>Text collected for the CIIL Corpus, subsequently integrated into the EMILLE/CIIL Monolingual Written Corpora.</projectDesc>
<samplingDesc>Simple written text only has been transcribed. Diagrams, pictures and tables have been omitted. Sampling begins at page 22-27.</samplingDesc>
<editorialDecl><conformance level="1"></conformance></editorialDecl>
</encodingDesc>
<profileDesc>
<creation><date>03-08-23</date></creation>
<langUsage>Punjabi</langUsage>
<wsdUsage>
<writingSystem id="ISO/IEC 10646">Universal Multiple-Octet Coded Character Set (UCS).</writingSystem>
</wsdUsage>
<textClass>
<channel mode="w">print</channel>
<constitution type="composite"></constitution>
<domain type="public"></domain>
<factuality type="fact"></factuality>
</textClass>
<translations></translations>
</profileDesc>
<revisionDesc></revisionDesc>
</cesHeader>

<text><body>
<p>&lt;2050&gt;&lt;Singh L-Malwe De Tappe&gt;&lt;Amit&gt;</p>

<p>&lt;ਕਹਿ ਸਕਦੇ ਹਾਂ ਕਿ ਅਸਲ ਲੋਕ ਗੀਤਾਂ ਦੇ ਸਮਾਨਅਂਤਰ ਭ੍ਰਿਸ਼ਟ ਭਾਵਨਾ ਵਾਲੇ ਤਵੇ,
ਕੈਸਟਾਂ, ਲੋਕ-ਨੁਮਾ ਫਿਲਮੀ ਧੁਨਾਂ ਤੇ 'ਤੂਂਬੀ ਮਾਰਕਾ ਗੌਣ' ਵਾਲੀਆਂ ਦਾ ਪੂਰਾ ਬਜ਼ਾਰ ਸਜ
ਜਾਂਦਾ ਹੈ। ਬਜ਼ਾਰ ਜਿਸ ਦੇ 'ਆਰਟਿਸਟ' ਲੋਕਗੀਤ ਦੇ ਨਾਂ ਤੇ ਹਰ ਖੋਟਾ ਖਰਾ ਸਿਕ੍ਕਾ
ਚਲਾ ਲੈਂਦੇ ਹਨ। ਇਸ ਮਂਡੀ ਵਿਚ ਲੋਕਗੀਤ ਤੇ ਲੋਕਸਂਗੀਤ ਉਤੇ ਅਧਾਰਤ ਨਰੋਈਆਂ
ਸਭਿਆਚਾਰਕ ਕਦਰਾਂ ਕੀਮਤਾਂ ਤੇ ਉਚੇਰੇ ਸੁਹਜ ਮੁਲ੍ਲ ਵਾਲੀ ਗਾਇਕੀ ਵੀ ਚਲਦੀ ਹੈ
ਪਰ ਬਹੁਤੇ ਹਿਸ੍ਸੇ ਵਿਚ ਹਰ ਮਿਆਰ ਤੋਂ ਗਿਰਿਆ ਹੋਇਆ 'ਫਰਮਾਇਸ਼ੀ' ਮਾਲ ਵਿਕਦਾ
ਹੈ। ਵਪਾਰਕ ਗੀਤਾਂ ਦੀ ਇਸ ਮਂਡੀ ਦੇ ਹੋਂਦ ਵਿਚ ਆਉਣ ਨਾਲ ਗੀਤ ਜਾਂ ਲੋਕਗੀਤ
ਜਨਤਕ ਸਂਚਾਰ ਦੇ ਵਿਸ਼ਾਲ ਪੈਮਾਨੇ ਉਤੇ ਆਉਣ ਦੇ ਸਮਰਥ੍ਥ ਹੋ ਜਾਂਦਾ ਹੈ ਪਰ ਉਥੇ
ਵਡ੍ਡਾ ਨੁਕਸਾਨ ਇਹ ਹੁਂਦਾ ਹੈ ਕਿ ਵਪਾਰਕ ਗੀਤ ਤੇ ਲੋਕਗੀਤ ਇਕ ਦੂਜੇ ਵਿਚ
ਖਲਤ ਮਲਤ ਹੋ ਜਾਂਦੇ ਹਨ। ਇਕ ਹਦ੍ਦ ਤੋਂ ਬਾਅਦ ਵਪਾਰਕ ਗੀਤ ਲੋਕਗੀਤ ਵਿਚਲੀ
ਕਲਾਤਮਕਤਾ ਦੀ ਰਤ੍ਤ ਨਿਚੋਡ਼ ਕੇ ਉਸ ਉਤੇ ਹਾਵੀ ਹੋ ਜਾਂਦਾ ਹੈ। ਪਰ ਸਿਤਮ ਦੀ ਗਲ੍ਲ
ਇਹ ਹੈ ਕਿ ਵਪਾਰਕ ਗੀਤ ਫੇਰ ਵੀ ਲੋਕਗੀਤ ਵਾਲਾ ਮੁਖੌਟਾ ਪਾਈਂ ਰਖਦਾ ਹੈ ਤੇ
ਲੋਕਾਂ ਵਿਚ 'ਲੋਕਗੀਤ' ਵਾਂਗ ਹੀ ਵਿਚਰਦਾ ਰਹਿਂਦਾ ਹੈ।
          ਪੇਸ਼ਾਵਰ ਗਾਇਕਾਂ ਵਲ੍ਲੋਂ ਨਾਜ਼ ਨਖ਼ਰਿਆਂ ਨਾਲ ਗਾਏ ਗੀਤਾਂ ਦੇ ਚੁਲਬੁਲੇ ਬੋਲ ਤੇ
ਚਟਪਟੀਆਂ ਧੁਨਾਂ ਸਰੋਤਿਆਂ ਨੂਂ ਲੋਕਗੀਤਾਂ ਨਾਲੋਂ ਵੀ ਵਧੇਰੇ ਚਕਾਚੌਂਧ ਕਰਕੇ ਕਾਮ-
ਉਤੇਜਨਾ ਪੈਦਾ ਕਰਦੀਆਂ ਹਨ।
          ਲੋਕਗੀਤ ਦਾ ਸੁਭਾਅ ਤੇ ਨਿਭਾਉ ਸਮੂਹਕ ਤੇ ਸਮਾਜਕ ਹੋਣ ਕਰਕੇ ਸਰੋਤਿਆਂ ਨੂਂ
ਉਹ ਵਡ੍ਡੇ ਪੈਮਾਨੇ ਉਤੇ ਖਿਚ੍ਚ ਨਹੀਂ ਸਕਦਾ ਕਿਉਂਕਿ ਬੁਰਜੁਆ ਜਨਤਕ ਸਂਚਾਰ ਦੇ
ਸਾਧਨ ਸਮੂਹਕ ਨਿਭਾਉ ਦੀਆਂ ਕਲਾਵਾਂ ਨੂਂ ਵੀ ਸਮੂਹਕ ਭਾਵਨਾਵਾਂ ਦੀ ਥਾਂ ਨਿਜ੍ਜ-ਕੇਂਦਰਤ
ਬਣਾ ਦਿਂਦੇ ਹਨ। ਲੋਕ-ਕਲਾਵਾਂ ਦਾ ਇਸ ਵਪਾਰਕ ਯੁਗ ਵਿਚ ਸ਼ੁਧ੍ਧ ਲੋਕ-ਕਲਾਵਾਂ ਦੇ
ਤੌਰ ਤੇ ਵਿਸ਼ਾਲ ਪੈਮਾਨੇ ਉਤੇ ਪ੍ਰਸਾਰਨ ਬੁਰਜੁਆ ਮਂਡੀ ਦੇ ਮੁਕਾਬਲੇ ਸਂਭਵ ਨਹੀਂ ਹੈ।
ਬਿਲਕੁਲ ਏਵੇਂ ਜਿਵੇਂ ਕੋਈ ਗਭ੍ਭਰੂ ਆਪਣੇ ਪਿਂਡ ਦੇ ਝਂਡੂ ਮੋਚੀ ਦੇ ਬਣਾਏ
ਨੋਕਦਾਰ ਮੌਜੇ, ਜਿਸ ਨੂਂ ਝਂਡੂ ਨੇ ਆਪਣੀ ਕਾਰੀਗਰੀ ਦੇ ਕਮਾਲ ਨਾਲ ਜਿਂਨੇ ਮਰਜੀ
ਫੂਂਦੇ ਲਾ ਕੇ ਸ਼ਿਂਗਾਰਿਆ ਹੋਵੇ, ਨੂਂ ਛਡ੍ਡ ਕੇ ਬਾਟਾ ਦੀ ਬਣਾਈ ਚਮਕਦਾਰ ਗੁਰਗਾਬੀ
ਨੂਂ ਪਸਂਦ ਕਰਨ ਲਗ ਪੈਂਦਾ ਹੈ। ਇਕ ਮਲਵੈਣ ਦੇ ਬੋਲਾਂ ਵਿਚ:
                    ਲੋਕੀ ਪਹਿਨਦੇ ਵਲੈਤੀ ਟੋਟੇ
                    ਮੈਂ ਫੁਕਾਂ ਫੁਲਕਾਰੀ ਨੂਂ
                          ...
                    ਏਥੇ ਆ ਗਿਆ ਮਾਲ ਵਲੈਤੀ
                    ਖਦ੍ਦਰਾ ਤੂਂ ਰਾਹ ਛਡ੍ਡ ਦੇ
                          ...
                    ਕੋਰਾ ਖਦ੍ਦਰ ਹਡ੍ਡਾਂ ਨੂਂ ਖਾਵੇ
                    ਮਲ ਮਲ ਲਿਆ ਦੇ ਮਿਤ੍ਤਰਾ
          ਫੁਲਕਾਰੀ ਦਾ ਕਲਾਤਮਕ ਤੇ ਸੁਹਜ ਮੁਲ੍ਲ ਭਾਵੇਂ ਲਖ੍ਖ ਹੋਵੇ ਪਰ ਉਹ ਮਸ਼ੀਨ ਦੀ
ਉਪਜ 'ਵਲੈਤੀ ਟੋਟੇ' ਨਾਲ ਖ਼ਪਤ ਦੀ ਮਂਡੀ ਵਿਚ ਆਪਣਾ ਬਰ ਨਹੀਂ ਮੇਚ ਸਕਦੀ।
ਚਮਕ ਦਮਕ ਵਾਲੇ 'ਵਲੈਤੀ ਟੋਟੇ' ਨੂਂ ਪਹਿਨਣ ਦੀ ਰਾਝ ਏਨੀ ਪ੍ਰਬਲ ਹੈ ਕਿ ਫੁਲਕਾਰੀ
'ਫੂਕਣ' ਨੂਂ ਦਿਲ ਕਰਦਾ ਹੈ। ਫੁਲਕਾਰੀ ਪਹਿਨਣ ਦਾ ਚਾਅ ਨਹੀਂ, ਬਸ ਗਰਾਬੀ ਵਸ
ਪਹਿਨਣ ਯਾਨੀ 'ਫੂਕਣ' ਦੀ ਮਜਬੂਰੀ ਹੈ। ਇਹ ਉਹੋ ਫੁਲਕਾਰੀ ਹੈ ਜਿਸ ਵਿਚੋਂ ਕਦੇ
ਇਸੇ ਪਂਜਾਬਣ ਨੇ ਆਪਣੀ ਸੁਹਜ-ਕਲਾ, ਰੀਝਾਂ-ਸਧਰਾਂ, ਰਾਂਗਲੇ ਸੁਪਨਿਆਂ ਤੇ ਦਿਲ ਦੇ
ਪਿਆਰ ਨੂਂ ਪਟ੍ਟ ਤੇ ਰੇਸ਼ਮੀ ਫੁਲ੍ਲਾਂ ਉਤੇ ਉਕਰ ਕੇ ਪ੍ਰਗਟ ਕੀਤਾ ਸੀ। ਇਸ ਤਥ੍ਥ ਪਿਛ੍ਛੇ
ਕੌਡ਼ਾ ਸਚ੍ਚ ਇਹ ਹੈ ਕਿ ਅਜ੍ਜ ਉਹੋ ਪਂਜਾਬਣ ਇਸ ਨੂਂ ਦੁਰਕਾਰ ਰਹੀ ਹੈ। ਇਹ ਇਸ
ਕਰਕੇ ਨਹੀਂ ਕਿ ਫੁਲਕਾਰੀ ਨਾਲੋਂ 'ਵਲੈਤੀ ਟੋਟਾ' ਬਿਹਤਰ ਹੈ। ਪਂਜਾਬਣ ਦੀ ਇਸ
ਪਸਂਦ ਪਿਛ੍ਛੇ ਸਮੇਂ ਦੀ ਤੋਰ ਦਾ ਤਕਾਜ਼ਾ ਹੈ। ਇਸ ਭਾਣੇ ਨੇ ਤਾਂ ਏਵੇਂ ਵਰਤਣਾ ਹੈ।
          ਇਹੋ ਕੁਝ ਲੋਕਗੀਤ ਦੇ ਖੇਤਰ ਵਿਚ ਲੋਕਗੀਤ ਦੇ ਸਿਰਜਨਹਾਰਿਆਂ ਵਲ੍ਲੋਂ ਵਾਪਰ
ਰਿਹਾ ਹੈ। ਲੋਕਗੀਤ ਦੇ ਸਿਰਜਨਹਾਰੇ ਵਰਗਾਂ ਦਾ ਲੋਕਗੀਤ ਦੇ ਵਿਰੋਧ ਵਿਚ ਭੁਗਤਣ
ਦਾ ਕਾਰਨ ਮਹਿਜ ਬੁਰਜੁਆ ਮਂਡੀ ਦੀ ਚਟਕ ਮਟਕ ਹੀ ਨਹੀਂ ਸਗੋਂ ਇਸ ਦਾ
ਇਤਿਹਾਸਕ ਕਾਰਨ ਇਹ ਹੈ ਰਿ ਜਿਹਡ਼ਾ ਵਰਗ ਅਜ੍ਜ ਸਮੂਹਕ ਭਾਵਨਾ ਨਾਲ ਲੋਕਗੀਤ
ਸਿਰਜਦਾ ਹੈ ਅਗਲੇਰੇ ਇਤਿਹਾਸਕ ਪਡ਼ਾਅ ਉਤੇ ਉਸੇ ਸਮਾਜ ਦਾ ਬੁਰਜੁਆ ਵਿਯੋਗ ਉਨ੍ਹਾਂ
ਦੀਆਂ ਪਰਂਪਰਕ ਰੂਹਾਨੀ ਕਿਰਤਾਂ ਤੋਂ ਉਨ੍ਹਾਂ ਨੂਂ ਨਿਖੇਡ਼ ਦਿਂਦਾ ਹੈ। ਅਗ੍ਗੋਂ ਲਈ ਉਨ੍ਹਾਂ
ਵਰਗਾਂ ਦੀ ਸਿਰਜਨਾਤਮਕ ਸਮਰਥ੍ਥਾ ਨੂਂ ਬੁਰਜੁਆ ਉਪਭੋਗਵਾਦ ਦੀ ਗੁਲਾਮ ਬਣਾ ਦਿਂਦਾ
ਹੈ। ਇਹ ਇਤਿਹਾਸਕ ਅਟਲ੍ਲਤਾ ਹੈ।
          ਲੋਕ-ਕਲਾਵਾਂ ਸਮੂਹਕ ਉਤਪਾਦਨ ਦੀਆਂ ਸਿਰਜਨਾਤਮਕ ਪ੍ਰਕਿਰਿਆਵਾਂ ਨਾਲ
ਸਬਂਧਤ ਹੁਂਦੀਆਂ ਹਨ। ਸਿਰਜਨਾਤਮਕ ਕਿਰਤ ਤੇ ਲੋਕ-ਕਲਾਵਾਂ ਦਾ ਹਡ੍ਡ ਮਾਸ ਦਾ
ਰਿਸ਼ਤਾ ਹੈ-'ਚਰਖਾ ਮੈਂ ਆਪਣਾ ਕਤ੍ਤਾਂ ਤਂਦ ਤੇਰਿਆਂ ਦੁਖ੍ਖਾਂ ਦੀ ਪਾਮਾਂ' ਜਾਂ 'ਜੋਗੀ ਉਤਰ
ਪਹਾਡ਼ੋਂ ਆਏ, ਚਰਖੇ ਦੀ ਘੂਕ ਸੁਣਕੇ'। ਇਥੇ ਕਿਰਤ, ਕਲਾ, ਪ੍ਰਤਿਭਾ ਤੇ ਸ਼ੌਕ ਇਕ
ਸਂਯੁਕਤ ਸਮੁਚ੍ਚ ਵਿਚ ਬਝੇ ਹੋਏ ਹਨ ਜਿਨ੍ਹਾਂ ਦਾ ਪ੍ਰਗਟਾਵਾ ਕਿਸੇ ਸਵੈ-ਭਰਪੂਰ ਸ਼ਖਸੀਅਤ
ਤੇ ਸਮਗ੍ਗਰ ਆਪੇ ਵਿਚੋਂ ਹੀ ਹੋ ਸਕਦਾ। ਇਨ੍ਹਾਂ ਅਰਥਾਂ ਵਿਚ ਲੋਕ-ਕਲਾਵਾਂ ਪੂਰਨ
ਭਾਂਤ ਸੁਤਂਤਰ ਪ੍ਰਗਟਾਵੇ ਦੀਆਂ ਮੌਲਕ ਕਲਾਵਾਂ ਹਨ। ਪਰ ਇਹ ਸਿਰਜਨਾਤਮਕ ਤੇ
ਸੁਤਂਤਰ ਕਾਰਜਸ਼ੀਲਤਾ ਉਦੋਂ ਤਕ ਹੀ ਕਾਇਮ ਰਹਿ ਸਕਦੀ ਹੈ ਜਦੋਂ ਤਕ ਇਸ ਦੇ
ਸਿਰਜਕ ਕਾਮੇ ਆਪਣੀ ਕਿਰਤ ਤੇ ਅਂਦਰਲੇ ਆਪੇ ਨਾਲ ਇਕਸੁਰ ਰਹਿਂਦੇ ਹਨ। ਜਿਉਂ
ਜਿਉਂ ਕਿਰਤੀ ਵਰਗ ਆਪਣੇ ਸਿਰਜਨਾਤਮਕ ਕਂਮ ਤੋਂ ਵਿਯੋਗਿਆ ਜਾਂਦਾ ਹੈ ਤਿਉਂ
ਤਿਉਂ ਉਹ ਆਪਣੀ ਸੁਤਂਤਰ ਕਲਾ ਸਿਰਜਨਾ ਦੀ ਆਜ਼ਾਦੀ ਤੇ ਸਮਰਥ੍ਥਾ ਵੀ ਗੁਆਉਂਦਾ
ਜਾਂਦਾ ਹੈ।
          ਇਸ ਤਰ੍ਹਾਂ ਕੁਲ ਮਿਲਾ ਕੇ ਸਾਡਾ ਸਮੁਚਾ ਇਤਿਹਾਸਕ ਮੁਹਾਣ ਤੇ ਵਰਤਮਾਨ
ਸਮਾਜਕ ਮਾਹੌਲ ਲੋਕਗੀਤ ਦੀ ਸਿਰਜਨਾ ਦੇ ਐਨ ਪ੍ਰਤਿਕੂਲ ਹੈ। ਲੋਕਗੀਤ ਦਾ ਦੁਖਾਂਤ
ਇਹ ਹੈ ਕਿ ਅਜ੍ਜ ਇਸ ਦੀ ਦੁਰਗਤੀ ਉਨ੍ਹਾਂ ਹਥ੍ਥਾਂ ਵਿਚ ਹੀ ਹੋ ਰਹੀ ਹੈ ਜਿਨ੍ਹਾਂ ਨੇ ਕਦੇ
ਇਸ ਨੂਂ ਆਪਣੇ ਰੂਹਾਨੀ ਅਨਂਦ ਦੀ ਪ੍ਰਾਪਤੀ ਲਈ ਸਿਰਜਿਆ ਸੀ। ਲੋਕਗੀਤ ਦੇ
ਜਿਹਡ਼ੇ ਪੁਰਾਣੀ ਪੀਡ਼੍ਹੀ ਵਾਲੇ ਸਰਪ੍ਰਸਤ ਬਚੇ ਹੋਏ ਵੀ ਹਨ ਉਹ ਸਮੁਚ੍ਚੇ ਸਮਾਜਕ ਵੇਗ
ਅਗ੍ਗੇ ਬੇਬਸ ਹਨ।
          ਹੁਣ ਸੁਆਲ ਉਠਦਾ ਹੈ ਕਿ ਸਥਿਤੀ ਏਨੀ ਹੀ ਨਿਰਾਸ਼ਾਜਨਕ ਹੈ ਤਾਂ ਕੀ
ਲੋਕਗੀਤ ਦੀ ਸਂਭਾਲ ਦਾ ਕਂਮ ਸਿਰਫ ਪੁਰਾਤਤਵ ਮਹਤ੍ਤਤਾ ਹੀ ਰਖਦੀ ਹੈ? ਨਹੀਂ।
ਸਗੋਂ ਬੁਨਿਆਦੀ ਮਸਲਾ ਹੈ ਕਿ ਲੋਕਗੀਤ ਤੇ ਲੋਕ-ਸਂਗੀਤ ਜਿਹਡ਼ਾ ਪੀਡ਼੍ਹੀਆਂ ਤੋਂ ਸਾਡੇ
ਹਡ੍ਡਾਂ ਵਿਚ ਰਚ ਕੇ ਸਾਡੇ ਖਮੀਰ ਵਿਚ ਘੁਲ ਚੁਕ੍ਕਾ ਹੈ ਇਸ ਦਾ ਨਵੀਆਂ ਇਤਿਹਾਸਕ
ਤੇ ਸੁਹਜਾਤਮਕ ਲੋਡ਼ਾਂ ਅਨੁਸਾਰ ਨਵ-ਸਿਰਜਨ ਕਿਵੇ ਕੀਤਾ ਜਾਵੇ? ਜੇ ਬੁਰਜੁਆ ਮਾਸ-
ਮੀਡੀਆ ਲੋਕਾਂ ਦੀਆਂ ਇਨ੍ਹਾਂ ਰੂਹਾਨੀ ਸਿਰਜਨਾਵਾਂ ਨੂਂ ਵਪਾਰਕ ਦ੍ਰਿਸ਼ਟੀ ਤੋਂ ਵਰਤ ਕੇ
ਭਾਡ਼ੇ ਦੀ ਕਲਾ ਵਜੋਂ ਮਂਡੀ ਦਾ ਮਾਲ ਬਣਾ ਰਿਹਾ ਹੈ ਤਾਂ ਇਸ ਨੂਂ ਸਹੀ ਮੋਡ਼ ਦੇ ਕੇ ਲੋਕ
ਪਖ੍ਖੀ ਸਫ਼ਾਂ ਵਿਚ ਵੀ ਖਡ਼ਾ ਕੀਤਾ ਜਾ ਸਕਦਾ ਹੈ। ਇਹ ਠੀਕ ਹੈ ਕਿ ਇਨ੍ਹਾਂ ਕਲਾਵਾਂ ਦਾ
ਨਵੇਂ ਪ੍ਰਗਟਾਉ-ਮਾਧਿਅਮਾਂ ਵਿਚ ਢਲਣਾ ਲਾਜ਼ਮੀ ਹੈ। ਸਮਾਜਵਾਦੀ ਦੇਸ਼ਾਂ ਨੇ ਆਪਣੀਆਂ
ਲੋਕ-ਕਲਾਵਾਂ ਨੂਂ ਨਵੇਂ ਰਂਗ ਰੂਪ ਵਿਚ ਮੁਡ਼-ਸੁਰਜੀਤ ਕਰਕੇ ਜਨਤਕ ਸਂਚਾਰ ਦੇ ਜ਼ੋਰਦਾਰ
ਮਾਧਿਅਮ ਲਈ ਵਰਤਿਆ ਹੈ। ਪਂਜਾਬ ਦੇ ਲੋਕ ਜਿਉਂ ਜਿਉਂ ਆਪਣੇ ਸਭਿਆਚਾਰਕ
ਵਿਰਸੇ ਤੋਂ ਚੇਤਂਨ ਹੋਣਗੇ, ਲੋਕਾਂ ਦੀਆਂ ਲਹਿਰਾਂ ਜ਼ੋਰ ਫਡ਼ਨਗੀਆਂ, ਉਹ ਆਪਣੇ
ਮੁਹਾਜ ਉਤੇ ਲੋਕਗੀਤ ਤੇ ਲੋਕ-ਸਂਗੀਤ ਦਾ ਨਵ-ਨਿਰਮਾਣ ਜਰੂਰ ਕਰਨਗੇ। ਲੋਕ-
ਕਲਾਵਾਂ ਵਿਚਲੀ ਕਲਾਤਮਕ ਸ਼ਕਤੀ ਜਿਸ ਦਾ ਸਿਕ੍ਕਾ ਹਰ ਕੋਈ ਮਂਨਦਾ ਹੈ ਲੋਕ-ਪਖ੍ਖੀ
ਸਭਿਆਚਾਰ ਦੇ ਨਿਰਮਾਣ ਵਿਚ ਠੋਸ ਅਧਾਰ ਬਣਨ ਦੇ ਸਮਰਥ੍ਥ ਹੈ।
          ਪਿਛ੍ਛੇ ਜਹੇ ਭਾਰਤੀ ਕਿਸਾਨ ਯੂਨੀਅਨ ਦੀਆਂ ਰੈਲੀਆਂ ਅਤੇ ਅਕਾਲੀ ਮੋਰਚੇ ਸਬਂਧੀ
ਇਕ੍ਕਠਾਂ ਵਿਚ ਨੌਜੁਆਨ ਕਵੀਸ਼ਰਾਂ ਤੇ ਢਾਡੀ ਜਥ੍ਥਿਆਂ ਵਲ੍ਲੋਂ ਘਡ਼ੀਆਂ ਗਈਆਂ ਵਾਰਾਂ,
ਸਾਕੇ ਤੇ ਹੋਰ ਬਿਰਤਾਂਤ ਸਾਡੀ ਲੋਕ-ਗਾਇਕੀ ਅਂਦਰਲੀ ਜ਼ੋਰਦਾਰ ਸਿਰਜਨ ਸਮਰਥ੍ਥਾ ਦਾ
ਨਰੋਆ ਪ੍ਰਮਾਣ ਪੇਸ਼ ਕਰਦੇ ਹਨ।
          ਨਾਟਕਕਾਰ ਗੁਰਸ਼ਰਨ ਸਿਂਘ ਦੀ ਅਗਵਾਈ ਵਿਚ ਜਥੇਬਂਦ ਹੋਇਆ ਪਂਜਾਬ ਲੋਕ
ਸਭਿਆਚਾਰਕ ਮਂਚ (ਪਲਸ) ਇਸ ਖੇਤਰ ਵਿਚ ਨਵੀਂ ਸੇਧ ਤੇ ਸਂਭਾਵਨਾ ਨੂਂ ਉਜਾਗਰ
ਕਰਦਾ ਹੈ।
                    ਸਂਪਾਦਨ-ਵਿਧੀ ਬਾਰੇ
ਲੋਕਧਾਰਾ-ਵਿਗਿਆਨ
          ਸਾਡੀਆਂ ਪਰਂਪਰਾਗਤ ਸਂਸਕ੍ਰਿਤੀਆਂ ਦੇ ਅਧਿਐਨ ਲਈ ਹੋਰ ਸਮਾਜ ਵਿਗਿਆਨਾਂ
ਦੇ ਨਾਲ ਨਾਲ ਲੋਕਧਾਰਾ-ਵਿਗਿਆਨ (Folkloristics) ਇਕ ਸੁਤਂਤਰ ਵਿਗਿਆਨ ਦੇ ਤੌਰ
ਤੇ ਸਥਾਪਤ ਹੋ ਰਿਹਾ ਹੈਜਿਸ ਕੋਲ ਆਪਣੀ ਨਿਵੇਕਲੀ ਵਿਸ਼ਲੇਸ਼ਣ-ਵਿਧੀ ਹੈ। ਇਹ
ਸਾਡੀ ਪਰਂਪਰਾ ਦਾ ਵਿਗਿਆਨ ਹੈ। ਇਸ ਨੇ ਸਾਡੀ ਸਮੁਚ੍ਚੀ ਲੋਕ-ਪਰਂਪਰਾ ਖਾਸ ਕਰਕੇ
ਮਿਥ੍ਥਾਂ, ਲੋਕ-ਕਹਾਣੀਆਂ, ਰਹੁ-ਰੀਤਾਂ, ਵਹਿਮਾਂ, ਭਰਮਾਂ ਤੇ ਜਾਦੂ ਟੂਣਿਆਂ ਦੇ ਅਧਿਐਨ
ਵਿਚੋਂ ਸਬਂਧਤ ਲੋਕ-ਸਂਸਕ੍ਰਿਤੀ ਦੇ ਚੇਤਨ ਤੇ ਅਵਚੇਤਨ ਵਹਿਣਾਂ ਤੇ ਲੋਕ-ਮਨ ਦੀ ਥਾਹ
ਪਾਉਣ ਲਈ ਨਵੀਂ ਦ੍ਰਿਸ਼ਟੀ ਦਿਤੀ ਹੈ। ਇਹ ਤਥ੍ਥ ਸਪਸ਼ਟ ਸਿਧ੍ਧ ਹੋ ਰਿਹਾ ਹੈ ਕਿ
ਵਿਸ਼ੇਸ਼ ਇਤਿਹਾਸਕ ਤੇ ਸਾਂਸਕ੍ਰਿਤਕ ਖਿਤ੍ਤੇ ਵਿਚ ਵਿਚਰਦੇ ਲੋਕਾਂ ਦੇ ਲੋਕਾਚਾਰਕ ਵਤੀਰੇ,
ਅਵਚੇਤਨ ਮਨ ਤੇ ਸੁਹਜ-ਬੋਧ ਦੀਆਂ ਪ੍ਰਣਾਲੀਆਂ ਨੂਂ ਸਮਝਣ ਲਈ ਉਸ ਖਿਤ੍ਤੇ ਦੀ
ਲੋਕਧਾਰਾ ਦਾ ਅਧਿਐਨ ਬਹੁਤ ਜਰੂਰੀ ਹੈ। ਪਂਜਾਬ ਵਿਚ ਲੋਕਧਾਰਾ ਅਧਿਐਨ ਦੀ
ਗਲ੍ਲ ਹਾਲੇ ਯੂਨੀਵਰਸਿਟੀਆਂ ਦੇ ਸੀਮਤ ਜਹੇ ਦਾਇਰਿਆਂ ਵਿਚ ਸਾਹਿਤ, ਸਭਿਆਚਾਰ
ਤੇ ਭਾਸ਼ਾ-ਵਿਗਿਆਨ ਦੇ ਸਂਜਮਾਂ ਅਧੀਨ ਆਰਂਭ ਹੋਈ ਹੈ। ਇਸ ਤੋਂ ਪਹਿਲਾਂ ਵਣਜਾਰਾ
ਬੇਦੀ ਵਲੋਂ ਕੀਤਾ ਕਂਮ ਅਤੇ ਚਾਲੂ ਕੀਤਾਤ੍ਰੈਮਾਸਕ 'ਪਰਂਪਰਾ' ਇਸੇ ਲਡ਼ੀ ਦੇ ਮੋਢੀ
ਯਤਨਾਂ ਵਿਚੋਂ ਹਨ। ਇਹ ਆਰਂਭਕਾ ਷ੁਭ ਸ਼ਗਨ ਹੈ। ਇਸ ਅਧਿਐਨ ਲਈ ਇਸ ਸਮੇਂ
ਸਾਡੀ ਵਡ੍ਡੀ ਲੋਡ਼ ਲੋਕਧਾਰਾ ਦੇ ਵਖ੍ਖੋ ਵਖ੍ਖਰੇ ਅਂਗਾਂ ਸਬਂਧੀ ਵਧ੍ਧ ਤੋਂ ਵਧ੍ਧ ਸਮ੍ਮਗਰੀ ਨੂਂ
ਵਿਗਿਆਨਕ ਢਂਗ ਨਾਲ ਇਕ੍ਕਤਰ ਕਰਨਾ ਤੇ ਪ੍ਰਮਾਣਿਕ ਸਮ੍ਮਗਰੀ ਨੂਂ ਲਿਖਤਾਂ, ਫੋਟੋਆਂ ਤੇ
ਕੈਸਟਾਂ ਵਿਚ ਸਂਭਾਲਣ ਦੀ ਹੈ। ਹਥਲੀ ਪੁਸਤਕ ਇਸੇ ਉਦੇਸ਼ ਨਾਲ ਕੀਤਾ ਗਿਆ
ਨਿਗੁਣਾ ਯਤਨ ਹੈ।
          ਲੋਕਧਾਰਾ ਦੀ ਮੁਢਲੀ ਸਮਝ ਤੋਂ ਬਿਨਾਂ ਇਕ੍ਕਤਰ ਕੀਤੀ ਬਹੁਤੀ ਸਮ੍ਮਗਰੀ ਪੂਰੀ
ਤਰ੍ਹਾਂ ਸਾਰਥਕ ਨਹੀਂ ਰਹਿਂਦੀ ਕਿਉਂਕਿ ਇਸ ਵਿਚ ਕਈ ਗੈਰ-ਪ੍ਰਮਾਣਿਕ ਤੇ ਬਨਾਵਟੀ
ਅਂਸ਼ ਆ ਜਾਂਦੇ ਹਨ। ਇਸ ਦਾ ਕਾਰਨ ਇਹ ਵੀ ਹੈ ਕਿ ਜਿਸ ਦੌਰ ਵਿਚੋਂ ਦੀ
ਅਸੀਂ ਗਿਜ਼ਰ ਰਹੇ ਹਾਂ ਇਸ ਵਿਚ ਲੋਕਧਾਰਾ ਦੇ ਅਲੋਪ ਹੁਂਦੇ ਜਾਣ ਦੀ ਸਮ੍ਮਸਿਆ ਤਾਂ ਹੈ
ਹੀ ਪਰ ਜੋ ਪ੍ਰਾਪਤ ਲੋਕਧਾਰਾ ਵੀ ਹੈ ਉਸ ਦਾ ਮੂਹਾਂਦਰਾ ਵਿਗਡ਼ ਰਿਹਾ ਹੈ। ਲੋਕਧਾਰਾ
ਦੇ ਵਿਕ੍ਰਤ ਪਾਠ ਦਾ ਅਧਿਐਨ ਠੀਕ ਸਿਟ੍ਟੇ ਨਹੀਂ ਕਢਦਾ।
ਪਂਜਾਬੀ ਲੋਕਧਾਰਾ ਸਂਕਲਨ
          ਪਂਜਾਬੀ ਲੋਕਧਾਰਾ ਦੇ ਸਂਕਲਨ ਸਬਂਧੀ ਬਹੁਤ ਨਿਰਾਸ਼ਾਜਨਕ ਹੈ। ਸਾਡੇ ਕੋਲ
ਪੌਰਾਣ, ਮਿਥ੍ਥ, ਰਹੁ-ਰੀਤ, ਲੋਕ-ਭਰਮ, ਲੋਕ-ਵਿਸ਼ਵਾਸ, ਬਾਰੇ ਇਕ ਸਂਗ੍ਰਿਹ ਵੀ ਉਪਲਬਧ
ਨਹੀਂ ਹੈ। ਭਾਵੇਂ ਇਹ ਸਮ੍ਮਗਰੀ ਵਿਵਹਾਰਕ ਰੂਪ ਵਿਚ ਖਿਂਡਰੀ ਹੋਈ 'ਲੋਕਧਾਰਾ ਕੋਸ਼'
ਤੋਂ ਇਲਾਵਾ ਬਾਕੀ ਪੁਸਤਕਾਂ ਵਿਚ ਵੀ ਮਿਲਦੀ ਹੈ। ਇਹ ਕਂਮ ਵਡ੍ਡੀ ਸਂਸਥਾ ਦੇ ਕਰਨ
ਵਾਲਾ ਹੈ। ਸਾਡੇ ਸਮਿਆਂ ਵਿਚ ਇਸ ਦੀ ਵਧੀਆ ਮਿਸਾਲ ਪਾਕਿਸਤਾਨ ਵਿਚਲੀ
'ਨੈ਷ਨਲ ਇਂਸਟੀਚਿਊਟ ਆਫ਼ ਫੋਕ ਹੈਰੀਟੇਜ ਐਂਡ ਟਰੇਡੀਸ਼ਨਜ਼', ਇਸਲਾਮਾਬਾਦ ਹੈ।
ਇਸ ਸਂਸਥਾ ਨੇ ਪਿਂਡ ਪਿਂਡ ਜਾ ਕੇ ਲੋਕਧਾਰਾ ਦੇ ਵਿਭਿਂਨ ਅਂਗਾਂ ਨੂਂ ਰਿਕਾਰਡ ਕਰਕੇ
ਸਾਂਭਿਆ ਹੈ। ਇਸ ਪ੍ਰਸਂਗ ਵਿਚ ਤੁਫੈਲ ਨਿਆਜੀ ਦਾ ਕਂਮ ਸਲਾਹੁਣਯੋਗ ਹੈ। ਏਧਰ
ਵਣਜਾਰਾ ਬੇਦੀ ਦੀ ਉਮਰ ਭਰ   ਦੀ ਘਾਲਣਾ ਬਾਰ੍ਹਾਂ ਜਿਲਦਾਂ ਵਿਚ ਲਿਖਿਆ 'ਪਂਜਾਬੀ
ਲੋਕਧਾਰਾ ਦਾ ਵਿਸ਼ਵਕੋਸ਼' ਹੈ ਜਿਸ ਦੀਆਂ ਹੈਲੇ ਚਾਰ ਜਿਲਦਾਂ ਹੀ ਛਪੀਆਂ ਹਨ।
ਇਹ ਗ੍ਰਂਥ ਪਂਜਾਬੀ ਲੋਕਧਾਰਾ ਦੀ ਇਸ ਸਦੀ ਦੀ ਸਭ ਤੋਂ ਮਾਣਯੋਗ ਪ੍ਰਾਪਤੀ ਹੈ। ਪਰ
ਇਕ੍ਕਲਾ ਕਾਰਾ ਬਂਦਾ ਆਪਣੀ ਸੂਰਮਗਤੀ ਤੇ ਸਿਰਡ਼ ਕਦੋਂ ਤਕ ਨਿਭਾ ਸਕਦਾ ਹੈ?
ਪਂਜਾਬੀ ਲੋਕਗੀਤ ਸਂਗ੍ਰਹਿ
          ਇਨ੍ਹਾਂ ਲੋਕਗੀਤਾਂ ਨੂਂ ਇਕ੍ਕਤਰ ਕਰਦਿਆਂ ਮੈਨੂਂ ਇਸ ਗਲ ਦਾ ਅਨੁਭਵ ਛਿਦ੍ਦਤ
ਨਾਲ ਹੋ ਰਿਹਾ ਹੈ ਕਿ ਲੋਕਗੀਤਾਂ ਨੂਂ ਸਂਭਾਲਣ ਦਾ ਵੇਲਾ ਵਿਹਾ ਰਿਹਾ/ਚੁਕ੍ਕਾ ਹੈ। ਅਜ੍ਜ
ਜਿਹਡ਼ਾ ਬਜ਼ੁਰਗ਼ ਤੁਹਾਨੂਂ 'ਦੋਹੇ' ਸੁਣਾ ਰਿਹਾ ਹੈ ਉਹ ਤੁਹਾਡੇ ਅਗਲੇ ਗੇਡ਼ੇ ਤਕ ਅਗਲੇ
ਜਹਾਨ ਪਹੁਂਚਿਆ ਹੋਏਗਾ ਤੇ ਤੁਸੀ ਹਥ੍ਥ ਮਲਦੇ ਰਹਿ ਜਾਉਗੇ। ਲੋਕਗੀਤਾਂ ਦੇ ਸਂਕਲਨ
ਦਾ ਮੁਕਂਮਲ ਕਂਮ ਅਜ੍ਜ ਤੋਂ ਅਧ੍ਧੀ ਪੌਣੀ ਸਦੀ ਪਹਿਲੋਂ ਹੋ ਜਾਣਾ ਚਾਹੀਦਾ ਸੀ। ਇਸ
ਪਾਸੇ ਕਈ ਸ਼ਲਾਘਾਯੋਗ ਯਤਨ ਹੋਏ ਵੀ ਹਨ ਪਰ ਯੋਜਨਾਬਧ ਢਂਗ ਨਾਲ ਕਂਮ ਨੇਪਰੇ
ਨਹੀਂ ਚਡ਼੍ਹਿਆ। ਲੋਕਗੀਤਾਂ ਦੇ ਕਿਸੇ ਇਕ ਗੀਤ-ਰੂਪ ਸਬਂਧੀ ਪ੍ਰਮਾਣਿਕ ਪੁਸਤਕਾਂ ਦਾ
ਲਗਪਗ ਅਭਾਵ ਹੈ, ਸਿਰਫ ਵਿਰਲੀਆਂ ਟਾਵੀਆਂ ਉਦਾਹਰਨਾਂ ਹਨ ਜਿਹਡ਼ੀਆਂ ਇਸ
ਖੇਤਰ ਦੇ ਉਦਮੀ ਵਿਦਵਾਨਾਂ ਦੀਆਂ ਨਿਜ੍ਜੀ ਘਾਲਨਾਵਾਂ ਦਾ ਫਲ ਹਨ।
          ਪਂਜਾਬੀ ਲੋਕਧਾਰਾ ਨੂਂ ਇਕ੍ਕਤਰ ਕਰਨ ਦਾ ਕਂਮ ਯੂਰਪੀਨ ਵਿਦਵਾਨਾਂ ਨੇ ਅਰਂਭਿਆ
ਸੀ। 1927 ਵਿਚ ਪਂਡਤ ਸਂਤ ਰਾਮ ਨੇ ਦੇਵ ਨਾਗਰੀ ਲਿਪ੍ਪੀ ਵਿਚ 'ਪਂਜਾਬ ਦੇ ਗੀਤ'
ਪ੍ਰਕਾਸ਼ਤ ਕਰਵਾਈ। 1931 ਵਿਚ ਪਂਡਤ ਰਾਮ ਸਰਨ ਦਾਸ ਨੇ ਫਾਰਸੀ ਲਿਪ੍ਪੀ ਵਿਚ
'ਪਂਜਾਬ ਦੇ ਗੀਤ' ਲਿਖੀ। ਗੁਰਮੁਖੀ ਲਿਪੀ ਵਿਚ ਪਂਜਾਬੀ ਲੋਕਗੀਤਾਂ ਦਾ ਪਹਿਲਾ
ਸਂਗ੍ਰਹਿ ਦੇਵਿਂਦਰ ਸਤਿਆਰਥੀ ਦਾ 'ਗਿਧ੍ਧਾ' (1936) ਹੈ। ਇਹ ਪੁਸਤਕ ਮੁਢਲੀ ਹੋਣ
ਕਰਕੇ ਹੀ ਨਹੀਂ ਸਗੋਂ ਬਾਕੀ ਸਂਗ੍ਰਿਹਾਂ ਦੇ ਮੁਕਾਬਲਤਨ ਪ੍ਰਮਾਣਿਕ ਹੋਣ ਕਰਕੇ ਪਂਜਾਬੀ
ਲੋਕਗੀਤਾਂ ਦੇ ਇਤਿਹਾਸ ਵਿਚ ਮਹਤ੍ਤਵਪੂਰਨ ਪ੍ਰਾਪਤੀ ਹੈ। ਸਤਿਆਰਥੀ ਦਾ ਦੂਜਾ
ਸਂਗ੍ਰਹਿ 'ਦੀਵਾ ਬਲੇ ਸਾਰੀ ਰਾਤ' 1941 ਵਿਚ ਛਪਿਆ। ਲਗਭਗ ਇਸੇ ਸਮੇਂ
ਮਲਵਈ ਬੋਲੀਆਂ ਤੇ ਲਂਮੇ ਲੋਕਗੀਤਾਂ ਦਾ ਇਕ ਵਡਮੁਲ੍ਲਾ ਸਂਗ੍ਰਹਿ ਕਰਤਾਰ ਸਿਂਘ
ਸਮਸ਼ੇਰ ਵਲ੍ਲੋਂ 'ਜਿਉਂਦੀ ਦੁਨੀਆਂ' (1941) ਦੇ ਸਿਰਲੇਖ ਹੇਠਾਂ ਛਪਿਆ।
          ਪਂਜਾਬੀ ਲੋਕਗੀਤ ਸਂਗ੍ਰਿਹਾਂ ਵਿਚੋਂ ਗਿਆਨੀ ਭਜਨ ਸਿਂਘ ਦਾ 'ਪਂਜਾਬਣ ਦੇ
ਗੀਤ,(1941-42) ਡਾਂ ਸੁਰਿਂਦਰ ਸਿਂਘ ਕੋਹਲੀ ਵਲ੍ਲੋਂ 'ਪਂਜਾਬ ਦੇ ਗੀਤ' (1944)
ਉਤ੍ਤਮ ਸਿਂਘ ਤੇਜ ਦਾ 'ਰਂਗ ਰਂਗੀਲੇ ਗੀਤ' (1950) ਅਵਤਾਰ ਸਿਂਘ ਦਲੇਰ ਵਲ੍ਲੋਂ
'ਅਡ੍ਡੀ ਟਪ੍ਪਾ' (1952) ਅਤੇ 'ਪਂਜਾਬੀ ਲੋਕਗੀਤ ਬਣਤਰ ਤੇ ਵਿਕਾਸ' (1954) ਆਦਿ
ਪੁਸਤਕਾਂ ਲੋਕਗੀਤਾਂ ਨੂਂ ਸਂਕਲਨ ਕਰਨ ਦੇ ਮੁਢਲੇ ਜਹੇ ਯਤਨ ਕਹੇ ਜਾ ਸਕਦੇ ਹਨ।
ਲੋਕਗੀਤਾਂ ਦੇ ਵਖ੍ਖੋਂ ਵਖ੍ਖਰੇ ਪਖ੍ਖਾਂ ਬਾਰੇ ਸਂਤੋਖ ਸਿਂਘ ਧੀਰ ਵਲ੍ਲੋਂ ਸਂਪਾਦਤ ਪੁਸਤਕ
'ਲੋਕਗੀਤਾਂ ਬਾਰੇ'(1954) ਹੈ। ਅਂਮ੍ਰਿਤਾ ਪ੍ਰੀਤਮ ਦੀਆਂ ਦੋ ਪੁਸਤਕਾਂ 'ਪਂਜਾਬ ਦੀ
ਆਵਾਜ਼'(1952) ਅਤੇ 'ਮੌਲੀ ਤੇ ਮਹਿਂਦੀ'(1957) ਵਿਚ ਲੋਕਗੀਤਾਂ ਨੂਂ ਵਿਸ਼ੇਵਾਰ
ਸਂਪਾਦਤ ਕਰਕੇ ਮੁਢਲੀ ਵਾਕਫ਼ੀ ਕਰਵਾਈ ਗਈ ਹੈ। ਇਹਨਾਂ ਦੋਹਾਂ ਸਂਗ੍ਰਿਹਾਂ ਵਿਚ ਕਈ
ਟੋਟੇ ਅਪ੍ਰਮਾਣਿਕ ਹਨ। ਪਿਛ੍ਛੇ ਜਹੇ ਦੋ ਹੋਰ ਸਂਗ੍ਰਹਿ ਸਾਹਮਣੇ ਆਏ ਹਨ; ਇਕ ਅਮਰਜੀਤ
ਕੌਰ ਘੁਂਮਣ ਤੇ ਸੁਭਾਗ ਸੋਹੀ ਵਲ੍ਲੋਂ 'ਸਾਂਝੇ ਦਿਲਾਂ ਦੀ ਧਡ਼ਕਣ' (1957) ਦੂਜਾ ਡਾਂ
ਕਰਮਜੀਤ ਸਿਂਘ ਵਲ੍ਲੋਂ 'ਦੇਸ਼ ਦੁਆਬਾ'(1982) ਜਿਥ੍ਥੇ ਪਹਿਲੀ ਪੁਸਤਕ ਵਿਚ ਮਾਝੇ
ਅਤੇ ਮਾਲਵੇ ਦੀਆਂ ਲਂਮੀਆਂ ਬੋਲੀਆਂ ਹਨ ਉਥੇ ਦੂਜੀ ਵਿਚ ਦੁਆਬੇ ਦੇ ਲਂਮੇ ਗੀਤ
ਔਖੇ ਸ਼ਬਦਾਂ ਦੇ ਫੁਟ੍ਟਨੋਟਾਂ ਸਮੇਤ ਦਿਤੇ ਹੋਏ ਹਨ।
          ਲੋਕਗੀਤਾਂ ਨੂਂ ਵਡ੍ਡੇ ਪਧ੍ਧਰ ਉਤੇ ਸਂਗ੍ਰਹਿਤ ਕਰਨ ਵਿਚ ਸਭ ਤੋਂ ਵਧ੍ਧ ਯੋਗਦਾਨ ਡਾ.
ਮਹਿਂਦਰ ਸਿਂਘ ਰਂਧਾਵਾ ਦਾ ਹੈ। ਉਸ ਨੇ ਕੁਲ੍ਲੂ, ਕਾਂਗਡ਼ਾ ਅਤੇ ਹਰਿਆਣਾ ਦੇ ਲੋਕਗੀਤ
ਇਕ੍ਕਤਰ ਕਰਕੇ ਇਹਨਾਂ ਖਿਤ੍ਤਿਆਂ ਦੀ ਵਖ੍ਖੋਂ ਵਖ੍ਖਰੀ ਸਭਿਆਚਾਰਕ ਪਛਾਣ ਕਰਵਾਈ
ਹੈ। ਪਂਜਾਬੀ ਲੋਕਗੀਤਾਂ ਸਬਂਧੀ ਉਸ ਦੇ ਦੋ ਮਹਤ੍ਤਪੂਰਨ ਸਂਗ੍ਰਹਿ ਹਨ: 'ਪਂਜਾਬ ਦੇ
ਲੋਕਗੀਤ'(1955) ਅਤੇ 'ਪਂਜਾਬੀ ਲੋਕਗੀਤ' (1960)। ਇਹਨਾਂ ਸਂਗ੍ਰਿਹਾਂ ਵਿਚ
ਪਂਜਾਬੀ ਲੋਕ-ਕਾਵਿ ਦੀਆਂ ਬਹੁਤ ਸਾਰੀਆਂ ਵਂਨਗੀਆਂ ਸ਼ਾਮਲ ਹਨ। ਉਸ ਨੇ ਪਂਜਾਬੀ
ਲੋਕਗੀਤ ਨੂਂ 'ਪਂਜਾਬ ਦੀ ਨਚ੍ਚਦੀ, ਗਾਉਂਦੀ, ਜੂਝਦੀ ਸਂਸਕ੍ਰਿਤੀ' ਦੇ ਸਾਹਿਤਕ ਪ੍ਰਗਟਾਵੇ
ਵਜੋਂ ਲਿਆ ਹੈ। ਡਾ. ਰਂਧਾਵਾ ਨੇ ਲੋਕਗੀਤ ਨੂਂ ਪਡ਼੍ਹੇ-ਲਿਖੇ ਸ਼ਹਿਰੀ ਦਾਇਰਿਆਂ ਵਿਚ
ਮਾਨਤਾ ਦਿਵਾਈ ਤੇ ਸਮੁਚ੍ਚੇ ਪਂਜਾਬੀਆਂ ਦਾ ਧਿਆਨ ਇਸ ਅਮੀਰ ਸਾਂਸਕ੍ਰਿਤਕ ਵਿਰਾਸਤ
ਵਲ ਖਿਚ੍ਚਿਆ ਹੈ।
+&gt;
               0 
</p></body></text></cesDoc>