<cesDoc id="pun-w-literature-humour-lot7t" lang="pun">
<cesHeader type="text">
<fileDesc>
<titleStmt>
<h.title>pun-w-literature-humour-lot7t.txt</h.title>
<respStmt>
<respType>Electronic file created by</respType>
<respName>Central Institute for Indian Languages, Mysore</respName>
<respType>transferred into Unicode and CES format by</respType>
<respName>"Unicodify" software by Andrew Hardie</respName>
</respStmt></titleStmt>
<publicationStmt>
<distributor>UCREL (on behalf of CIIL)</distributor>
<pubAddress>Department of Linguistics, Lancaster University, Lancaster, LA1 4YT, UK</pubAddress>
<availability region="WORLD"></availability>
<pubDate>03-08-23</pubDate>
</publicationStmt>
<sourceDesc>
<biblStruct>
<monogr>
<h.title>Vasiyat Nama</h.title>
<h.author>Singh Piara Datta</h.author>
<imprint>
<pubPlace>India</pubPlace>
<publisher>Unknown - National Book Shop - Delhi</publisher>
<pubDate>1982</pubDate>
</imprint>
<idno type="CIIL code">lot7t</idno>
</monogr></biblStruct></sourceDesc></fileDesc>
<encodingDesc>
<projectDesc>Text collected for the CIIL Corpus, subsequently integrated into the EMILLE/CIIL Monolingual Written Corpora.</projectDesc>
<samplingDesc>Simple written text only has been transcribed. Diagrams, pictures and tables have been omitted. Sampling begins at page 66 - 71.</samplingDesc>
<editorialDecl><conformance level="1"></conformance></editorialDecl>
</encodingDesc>
<profileDesc>
<creation><date>03-08-23</date></creation>
<langUsage>Punjabi</langUsage>
<wsdUsage>
<writingSystem id="ISO/IEC 10646">Universal Multiple-Octet Coded Character Set (UCS).</writingSystem>
</wsdUsage>
<textClass>
<channel mode="w">print</channel>
<constitution type="composite"></constitution>
<domain type="public"></domain>
<factuality type="fact"></factuality>
</textClass>
<translations></translations>
</profileDesc>
<revisionDesc></revisionDesc>
</cesHeader>

<text><body>
<p>&lt;2010&gt;&lt;Singh Piara Datta - Vasiyat Nama&gt;&lt;Amit Bhandari&gt;</p>

<p>&lt;                             ੊੉ìਁਆ।਎। * ਆ੉ì੍ਁਆ।਎।                       
     `ਃ।ਁ। ì' ਆ੧ ੊੉ìਁ ਆ।਎। ।ਈ  ਃ। ੇ।ਆ 鈊最 䤀霊渀霊ⴀ฀需渀霊 ∀ࠀ脊鐀搀∉ ࠀ搊 ̀Ā搊﬉ ഀ਀䤀權霊萀ⴀ฀؊搊Ⰹ Ā脀 鈀䴀̊ ؀脀䴀ⴊԀ ؀搊䜉權脊 销鰀渀鰊 謀脀Ⰰ 䤀權 ฀؊ ؀朊 餀̀權脊 ࠀ鈊搀 ऀ栊䤊䜊搊 鈀਀ ੇë 
ë ì੊ ì ਃì ਂ। ੊੉ìਁ ਊ।朊 䜀錀ꀀ搀 䴀栊 Ā搊脉 䜀錀ꀀ ̀ 蜀Ā䤊鈊Ā搊 Ā朊 ਀朊霊栀؊ 餀搀鐉 ࠀ蘊ﬀ 蔀鈀 ഀ਀̀؀ 餀̀權脊 ̀ऊĊਊ ਊ੨ë ੇë  ਃ। ਋îਁ ì ਁ渊䴊搊脉 䤀਀ ੉੊। 䴀權 䴀 鐀萀 Ā搊 怀䤀搊䴉ਊ✊ ഀ਀鈀欀䜊權脊 頀鰀渀鰊 䜀蘊 Ā朊 销਀ ਈí੮ ëû ੉੫ë, ੊੮। ਊì ਁ। ੉îੇ ë ੍੫੊੧। ਁ੧ 
ਆë੮î ੉íਁ੮ਁ। ਈë ੍੫੊੧। ਁ੧ ਊì ਃì ਎਎ì  ̀朊 鈀脀฀搊脉 ✀需 ਀í੮ì ੍੫੊੧ìû 
੉੮-਎í ਊ੯। ੋ।ਁ ਁ੧ ਆíîੇ ੊।ਁ।੊؊ 䴀權䨊朊鐊搀﬉ ࠀਊ ਎੨  ࠀ餀搀 䴀 䤀 鈀 蔀鈀 ഀ਀鈀氀鸊漀朊ⴊ鈀䤀栊䜊朊 䤀萀䜀 ̀搊 䤀搊䴉ชꀊ搀 鈀਀ਆ। ਈë, "ਊì ਃ੧ ੨ì, ਁ।ਈ-~ਁîਈ ਁ। ਆì 
੯੮੍ë ੍੫û   ਃ੧ ਊíੇ। ੊। ਊíੇ੮੍ ੇ। ੍੫ ?" ਎੨ ë੍। `ਆ੍ìû' 
"ਁ। ਉë 餀搀蔉ⴀ錀搀ꀉ搀 鈀欀蘊 ฀ਊ ë ੍੫, ë੍੯ì ਃਉ੯ਁ ✀需 ࠀ䴊䜀搊脉 䴀 頀鰀 䴀權 鐀蘀 谀ﬀ∀ ഀ਀ऀ朊ਊ ਎੨ ë੍। "ਆ੍ì"û "ਁ। ਉ੧ 鈀搀鐉Ā 鈀搀䜉朊 鈀਀ਆ੧ ੍੫ ੧ û ੫ ੯ì-੍। ì ੇë ì 
੍੫û" ਎੨ ë੍।-- "੍੨ ਁ। í ੧੍ì ੇ੮ੇ, ਈ 茀餀 蔀鈀 䨀䤊茀Ā 䜀錀ꀀ 䴀栊Ⰺ Ā脀 餀漀ਊ। 
ช 鐀਀਎ ।੍ ਃì ਈëੇì ਊ । ਃ੧û"   
     "੍ ਁ। ਎੨ਆî ਈਁ। ੉੊੧ ̀搊∉ 蜀䤀 需搀䴉 䤀鰊欀䨊 Ā朊 Ԁਊਃë ë੍।û
     "ë੊੧?"
     "ੇ੨, ਆ। ੊ì ਆì ਈਁ।û ਆ੧ ੉।ੇ ੍੫ ੧ ੉  ✀需 萀蘀 ؀脀ﬀ 餀̀權脊 Ā䤀脀 销਀ ' 
 ੧੯੧ ੮ਃ੧ ੍੫੊੫, ë੊੧ í੯ì ਆ੧ । ਃ੧ । ੍੫੊੧, ਁ। ਎੨ ੉਎ ।ਃì 
, ੯਀ ੫ ੯ì-੍। ì 鰀ꀀ 䴀權蠊ﬀ∀ 蜀䤀 ਀鸊漀朊 茀脀̀搊餉漀 ؀搊䜉 鈀䴀搊﬉ ഀ਀     ∀ࠀਊ ੍ ੊੉ìਁ ì ੍੫ ਊì ਃ੧ ੨ì?" ੉ ।੍ ਃ। ਈ੮ਈ ਎੧੯ ਁ੧ 錊̀萀脀 鈀䴀搊﬉ ഀ਀∀䴀脀̀ 䴀栊 蔀䴀 䨀ﬀ∀ ฀栊脊 䤀霊渀霊ⴀ฀需 䜀錀ꀀ ̀朊 ∀฀鸀∀ 䨀需 鐀䜀渊䜊 ؀脀 䨀Ԋ搊蜉ꀀ搀 ؀䴊脀 䤀 ഀ਀需搀䴉脀̀搊﬉ ∀餀最 ̀䤊 ̀蜀鐀最 Ā搊脉 鈀頀 销鰀 Ā搊脉 ؀䴊脀 餀搀蠉Ⰰ 餀最 謀Ȁ朊 䴀權ਊ  ੧ ੫ 
ੇì-ਊí੮ì ਁ। íਈ ؊ ̀搊 ؀搊脉 ؀䴊脀 䜀栊ꀊ搀﬉∀ ਀脊鰀 ̀ ฀ช ؀朊 鐀䤀渊䤊朊 䨀需 ഀ਀ऀ脀鈀搀ਉਃë ë੍।û
     "੊੉ìਁ ਁ੫ ਋।੊ ੍੨ ਎؊ 䜀鐊渀鐊萀脀 ਀脊̀朊 ̀搊 萀ࠀꀊ最 ࠀਊ੊। 餀搀脉 Ԁ萀脀ⴀ縀ࠀĀ渊Ċਊ। 
ਆî í ੮-। । ।, ਃ੉੮੉ । ।", ਎੨ ੉੧ਈ ੊ë ੫ ਎î੍ '   ਃëਁ।û
     "ਆ। ì, ਎؊ Ȁ權鸊最 ̀䬀ชꀊⰀ 謀؀渊䴊搊脉 鈀Ā搊ਉ搊脉 萀䜀萀脀 ؀脀 鈀 萀錀਀  û ਋ੇ। ੍ 
ੇ੮ੇ। ੇë  ਃì ੍íਃì ਆ੧û ਆë੮੧ ਆë੮੧ í। ਆ।ੇ ਎੧搊 鈀 ਀ꀊ㼀 ฀栊؊脀 ഀ਀Ā搊脉 鈀䤀朊 ؀朊 鰀鈀渀鈊 ؀䴊脀 ̀朊ꀊ搀 需搀ਉ ਃëਆû ਂ੫੧  ̀朊 Ā搊脉 䤀Ԁ渊Ԋ朊 ฀脀䴀 鐀䜀渊䜊 䴀 ؀脀 ഀ਀鈀਀ਃ੧," ਁ੧ ੍ ੮ì ੮ì 權ꀊ 䜀鐊渀鐊 ࠀ蘊ﬀഀ਀     ∀蜀蔀Ⰰ ଀䜊朊 ฀搊ꀉ䤀ℊ ฀栊脊 鈀欀蘊 ฀ਊਆ ੇ੮।, ੍ ਁ। î-਎î ਃ। ਎؊搊 Ā朊 騀鴀ⴀ฀鴀 ഀ਀̀搊 䨀䤊茀Ā ؀搊ฉ搊∉ ฀栊脊 蜀䤀 ؀脀 需ࠀ 鈀਀।ਃë ë੍।û
     "ਆ। ì, ਃ੧ ਃ੧ ਎î੍ '੫ ਆëੇì ੇ੮ੇ ੉੮ ੍੫ ।ਃì û ੍੫ ੧੍ì ਃ ഀ਀鐀䜀渊䜊 ऀ朊ਊ ਎î੍੫ ੮ì, ਁ। ਎੨ í ।੧ ਎ 餀脀ﬀ 䤀搊鸉最 ࠀ脀鸀 鈀฀䜊朊 ̀搊 鰀਀渊ਊਊ 
੍íਃ। ੉ìû ੍ëਃ੧   ਃëਆ ੧੍ 需搀霉最 ؀朊 萀ࠀꀊ最 ࠀĀ渊Ċ ؀脀 鈀䴀Ā搊 㨀 餀最 鈀騀 ؀䴊脀 ഀ਀鈀਀ਆ। ਁ। ë੉੧ î੍-।ਁ੧ ' । ë੮û ੍ ਃ੧ ੇ, ਃ੫ ੍ ਂ ੧ ੧ਁ '੫ 
਎í੯ë, ਆ੮੍੧ ؀朊 萀 销最ਊë ਁ੧ ਊ।ਊ੧ ।ੇ੧ ਃ੧ î੍ ' ë੮ ੧ ਎ 鐀萀ﬀ 䜀權鈊 䜀錊渀錊 ഀ਀萀錀ꀀⰀ ਀蘊 蜀䴀 鈀฀䜊搊 䤀 鸀鐀渀鐊 鈀最 ฀ਊ ëû ਎੨ ਁ। ì ੉਎ਃì  ë ë੉੧ ੊੧ੇ੧ ਃ੧ ਊ੫ੇ 
੉੮੧ ੍੫ ।ਃ੧ û ਊ੉੮੉ ਂ੫ਆî ਊì ੍੫搊脉 ̀ 䤀䴊脀 䜀鐊渀鐊最Ⰺ 餀最 謀䴀權 餀最䴊 鈀䜀䴊ꀀ ഀ਀鐀䜀渊䜊 ऀ朊ਊ ì ਁ।û" ੍ íਈ ੍੫  ੊ë ਆ੍ì ੉ì  䴊ﬀ ഀ਀     ∀䴀頊渀頊搀 ਀搊ਉ搊 䴀頊渀頊搀∉ ฀栊脊 蜀䤀 ؀脀 Ԁਊ੊।੉ ਃëਃë ë੍।û
     "ਆ।ੇ੧ ਊì ਃ੧ ੨ì,  ੇ੮ੇ ੍੫ 谀ﬀ Ȁ權鸊最 鈀欀䜊 䴀栊 鈀 餀䴀鸊漀搊 鈀䤀朊 ؀脀 ̀朊 ഀ਀̀蜀鐀最﬊ ฀栊脊 Ā搊脉 餀̀權脊 ̀ 萀蘀 萀脀 蔀䤀 销਀ ੊ë, ਋  ਋íਃì ਃ੧ì û ਂ੧ ì ਆ। 
ਆ੍। ਁ੧ ì ਆ੫੯îû ਂ੫੧ ਆ।ੇ ਃë ਆ੧ ਅ權脊ⴀ蜀Ԁਊ੫ 鈊最 ̀䜀渊䜊 ✀需 销਀ ਈ। ੇ , 
ਈ Ȁ權؊脀 Ā搊脉 鈀搀䜉朊 茀錀渀錊਀। ਆ੧ ë੉੧ ੫। ਆ੍ì ੮ë, ਈਁ। ਆ੍ì ੍ਆ। í। 
ਃ੧ ਋।। ੊ë ì ੇëë?" ੍ ੍ë ੍ ਉ੧ ਀੫  ੇ੮ ਈ, ੉ ਈë੫ ੉í੍ ੇëë 
। । ੉ìû ੉੫ë, ੇ੮ੇ ਆî ਃਉਁ 餀搀鈉最 䴀 鈀騀 䜀錀搀脉鐀最Ⰺ 怀䤀搊䴉ਊ✊ Ā權脊 鈀騀 萀錀ⴀ䨀朊錊鈀最 ഀ਀頀鰀 䜀栊 䜀䨊搊脉鐀最Ⰺ 销਀ ' ਁ। ੉ ਋।੊।ਆ ਆ੧ ੫ ਋੉î੯ì ਈ। 錊ꀀ 謀脀ﬀഀ਀     ਀।ਁ ਆî 權鰊ⴀ鰀鈀渀鈊 錀搀ԉ搊 Ā朊 ฀脊餀最 Ā朊 餀搀 ਀ਊ।੧û ਈë ਈë ਈ੮䤊Ԁ 茀̀搊鈉搀ਉ 
਎ëਁ।ਊ ਊਆ ਃì  ì. ੊ì. 䨊蠀 䨀需 鈀䴀 蔀鈀 鐀䜀渊䜊 ༀ搊̉ 萀 鐀蘀ﬀ 茀錀最 㨀 谀鈀鰀਀ ਆî     
ëਃ। ਁ੧ ਏਂ।Ȋ鈊 ਀੫ੇ ؊ 䜀蘊 䤀ȊĀ 茀؀䤀搊ਉ ੍੫ ੧੍। ੍ì ؊搊 ࠀ栊脊̀搊 䴀栊Ⰺ 蜀䴀權 ഀ਀餀最䴊 餀漀脀̀鐊 餀蜀ꀀ ࠀ栊脊̀ 䴀栊﬊ 餀䴀權 餀最䴊朊 鈀਀ਃ। ̀搊 ਀੫ੇ ੉ ਆî ਎ëੇë ੍੫੊੧û 
੉। ੊ì ੉੫ëû ੊੉ìਁ ੇë  ੇ੮੧ ੍।û ੇਈਆ। ੊ë ë ਃì ਁë ਎ 鈀最 䨀朊錊ꀀ搀 ഀ਀需搀䴉̀搊 䴀栊Ⰺ 䤀ਊì ✀需欀脊 餀搀؉ ؀鈀䜀 ਀੍ì ੍੫੊੧, ੫ ੫ ੉।੍  䴀搊 䴀權䨊朊Ⰺ 茀錀渀錊搀脉 ഀ਀✀需欀脊 ̀䤀ꀊ搀 ਀脊̀ 䴀脀̀搊 餀搀䨉朊Ⰺ 萀䤀ⴊ縀ࠀ搊䤉 錀鸀漀朊 䜀權鈊 ਀੫ 䴊朊 䴀權ꀊﬀ 餀蜀脀 䴀 蔀䴀 䤀ȊĀ ഀ਀̀䜀ⴊ̀฀搊鐉 䨀需 萀蘀 Ā搊脉 ࠀ䤊؀搊 萀 鐀萀ﬀ 茀䤀搊脉 萀ࠀꀊ最 䤀ਊì ✀Ā權脊 ̀ 䴀Ȋ渊Ȋ ऀ朊ਊë, ਁ। 
।੧ ਁ੉ੇ੮ੇì ੍੫ ë ੍ ੉਋੮਋ ੉੫-। ̀ 鈀਀।਎।ਁ ੉ìû ਁ੧ ਉ੧ 䨀䤊茀Ā Ā搊脉 蔀鈀 ࠀ搊䤉朊 ഀ਀਀੍ë û ਋੊ë੮ ੊ë   ੊।ੇì ਎੬ਁ ਁ੫  萀蜀ꀀ 䜀鐊渀鐊 ࠀ萀ﬀ ∀਀ਊ੮ਊ।! ੍ ਁ। ਊ੯। 
਋੨੯। ਎ , ੬  ।੊੧ ੉ ੊੉ਃì 䤊̊ ̀؀萀脀 ؀脀 頀鸀渀鸊鈀最﬊ 茀鐀最 鈀氀ꀊ 䜀蘊 ਀栊鴊搀 䴀栊 ഀ਀฀鈊渀鈊 ̀ ਀੫ì ਁ੧ ੉渊䴊權脊 ̀搊 䤀搊鐉ﬀ 茀鐀最 䜀錊渀錊 䬀䴊̀ ̀萀脀 ؀䴊਀। ਈ ੊ , ਆ।੍ 
ਂ੮ਂ੧ ੋช搊 䤀䨊鰀 䴀搊蠉䤀 ̀朊 ਀ꀊ最 錀欀謊 ̀朊 䜀鸊渀鸊 ฀䜀ꀊ最 䴀؊Ⰺ Ā朊 ؀搊脉䴀 䴀 ̀ਊìਊ੧ ੊।ੇì 
ੇ੧ਊì, ੍ ਁ। ੇ੮। ੉ì ੉ëਈ। ਈ੨ û" ਎ਆ '੫ ਎؊ ̀搊 ̀䴊䜀 ؀鈀䜀 ؀䴊脀 ਀ë੍। ੉ì, 
ë੊੧ ë੊੧ ਈ ੧ ਈ ਆî ੉਎।, ` ਎੍।-~਎î錊Ⰰ 蔀䴀 䤀ଊ 鈀䜀ࠊ؊搊 䤀ﬀ∀ 退錀最 ฀氊錊最  ഀ਀਀।ਁì ੉íਁ੮ਁ੧ ਁ੧ ੉੊੧朊 錀搀ⴉࠀ ̀ऊĊਊ । ਈਅ।朊Ⰺ ਀।ਁ ੊।ੇ।  鐀搀蔉਀ 䤀Ⰰ Ā朊 䜀錀ꀀ ̀搊 ഀ਀଀Ā ฀鸀漀 ฀朊鼊萀脀 Ā朊 䤀䨊搊ਉ ੉ìû
     ë੊੧ ë੊੧ ਃਉਁ權脊 頀鰀渀鰊 䜀蘊 Ā朊 ̀ऊĊਊ ਃ੧ ਆ।ੇ ੇਃ੧ ਈ।鈊 ̀朊 錀脀餀最 䨀需 餀搀 ഀ਀਀栊鴊最Ⰺ 䜀錀ꀀ搀 䬀਀î ìਁ। ਁ। ਊì ਃì ਎਎੮਎ì ਃì ੇ ਏ।ਃ   "ਁ੧朊 ࠀ䜊渊䜊朊 䴀栊 鈀㼀∀ ഀ਀฀؊ ؀朊 鈀䴀搊 㨀 ̀朊ꀊⴀ̀萀蜀ꀀ ̀ 鐀䜀渊䜊 頀鸀渀鸊Ⰰ 鈀欀蘊 ؀鸊漀ⴀ؀䤊䴀茊Ā 䴀 鈀਀ ।û Ⰺ 謀؀搊  ഀ਀需਀ ੇ਎ ੉। , í ਁ। ਁ੧朊 ࠀ䜊渊䜊朊 䴀權蠊 䴀ﬀ 䤀權 䨀䤊茀Ā ؀䤊䴀茊Ā 䜀錀ꀀ ̀搊 ฀؊ ਀ꀊ搀  ഀ਀䴀 䜀萀Ⰰ 餀脀฀ꀊ Ā權脊 ฀ਊ  ਁ੮û  ਃ਎ ੉੫ ਉí 㨀 ؀䤊䴊茀Ā؊搊ฉ搊 蜀਀ਉ ੊੉ìਁਆ।਎।    
੧੍। ੍੫ । ।੍ìਃ। ੍੨, ë੉ ਆ।ੇ ੊ਅ੮ਅ ਁ੫ ੊ਅ੮ਅ ੇ੫। ਃ। ਋ੇ। ੍੫ ੉੧û í ੊ëੋ੧ੋ 
ੇ੮ੇ। ë੍੯ì ੉íì, ੍।੯ 䴀؊ 㨀ഀ਀     䤀ଊ Ā權脊 ࠀ䴊䜀搊脉 䤀搊鸉搀 Ԁ萀؀ 蜀؀渊䴊搊脉 䨀䜊渊䜊 鐀萀Ⰰ 餀脀؀渊䴊搊脉 ؀朊 䴀搊䜉朊 蔀䤀 ̀朊䬊 䨀需 ഀ਀餀؀ช Ԁ搊ਉ । ੍੨û ੍ਂ੮ਂ ੫੯ ੧ 養漀 鈀Ā 㨀 ∀฀䴀ਊਊ।ਆ੫, ਈî 蘀฀搊؉̊搊ਉì ਆ।ੇ ੫ੋëੋ 
蜀Ⰰ 鈀 Ā䴀搊؉脀 䤀脊䤀搊ਉ ਃ੧ ੉ ੍ë੉੮੉੧ ੊ë  । ੍ì ਆ।੍ ਈ੊੧û ੧ ਋ੇ। ਁí੍।ì ਈ੧ੋ 
ਆ।੍ ੍ì ।੊੧ ਁ। ੧੍੧  ؀搊脉䴀 餀脀฀ꀊ搀Ⰹ 餀Ȁ朊 需䴀朊 䨀 ଀錀渀錊最 ਀੍ëਃ੧ ੍੫ û ੧ 
਋ੇ। ੉ ਁ੮ਁ੧ ੊ì ਁí੍।। ਊ੉੮੉ ਆ।੍ ੇ੮ੇ੧, ਁ। ਋íੇ੮ੇ ੧ ੊ì   ੊।ੇ੧ 
਋੨ ।-~਋搊䨉搊脉 Ā權脊 ࠀ䴊䜀搊脉 ؀搊脉䴀 ࠀਊ ੍੫ ।û ਆ੍ì ਁ। ੉। 蜀฀ਊ íਁ੮ਁì । ì 
ਈ੨ ìû ë੍੯। ੊ì  䨀需 需脀鐀搀 鈀脀฀ 䴀權蠊鐀搀Ⰹ 蜀䴀 ࠀ渊ਊ਋î ਃì ëࠊ搊 ؀搊䜉 䴀權䨊朊鐊搀Ⰹ ഀ਀餀䴀鸊漀搊 ଀栊鸊漀搊 䴀權䨊朊Ⰺ 蜀䤀 ̀朊 餀漀脀฀朊䨊搊ਉ ਁí੉ì ੍੫੊੫੧û" ੇëਃë ਅëਆ ੊ëਃëȊ萀脀 ഀ਀䨀䜊渊䜊 需䜀萀 鐀萀ﬀ 䤀權霊萀Ⰰ 蔀؀渊䴊搊脉 ؀脀 䨀 鈀騀 萀錀 餀搀蘉謀ﬀ 怀䤀權 ฀Ā渊Ċਊ੫! ੧ ਁí੉ì 
਎ì搊脉 ̀朊 销਀ ਎੧ ੍੫, ਁ। ਈ੯੮੍ਆ ਃì ੮। ੍ì ੇ੫੯ ਆ੍ì, ëë ਁí੍।੧ 
਎।ਈë ੫ੇ ਃ੫ ਆਊ ̀搊 ࠀ栊䤊搊 谀؀搊 謀 鈀 茀鐀渀鐊 䜀搊蔉萀 ؀䴊脀 ฀鈀渀鈊 䤀鈊̀搊﬉ 怀鈀蜀脀 ഀ਀鈀Ā搊ਉ搊脉 ؀搊䜉 ฀Ȋ渊Ȋ搊 ฀搊ਉਃ੧ ੍੫? ੧ ਁí੉ì ਀ ฀搊ࠉ萀脀 ̀ 蜀䜀搊̉ 䴀權Ⰺ Ā搊脉 䨀 ࠀ鸊漀渊䴊؊ ഀ਀̀ 䜀權鸊漀 ؀䴊脀ﬀ ࠀ鸊漀渊䴊 鈀最 Ā朊 ฀搊䤉鰊਀। ਃì í੮ ।੧  Ā䴀搊؉脀 ଀錀渀錊萀脀 䴀 ഀ਀฀ਊਆ। ਈ੨ । û ਆ।੍ ਁí੍।ਆî ਁ੯ì ੉ëਉ।䬊 䜀ଊ渊ଊ朊鐊Ⰰ ؀搊脉䴀 ؀氊鈊਀ìû ੉੫ ਈë蜀Ⰰ ഀ਀ࠀ鈊氀鸊漀朊 ਀朊霊欀Ⰺ ̀䴊脀ⴀ଀䜊渊䜊萀脀 ̀ ਀੧੯੮੍ì ੇ।, ੇ੫। ਃì ੧ਊ। ੮੫, ਈ ଀䜀渊䜊 ഀ਀鈀最 䨀 ࠀ鸊漀渊䴊搊蘉 䨀搊䜉朊 ࠀ搊䤉朊 ؀搊脉䴀 餀搀ꀉ搀﬉ 謀䤀 鈀Ā朊 鈀脀฀ ✀需 鈀 ࠀ萀 䴀栊﬊㼀∀ ࠀ搊ਉ ' ਊ੨। 
ੇë 䴀搊 䤀搊脉Ⰰ 鈀 鈀欀䜊權脊 ̀ ਀栊脊鸀ⴀ਀搊餉最 ؀搊䜉 餀搀 ਀੍ì ਊ搊ĉ 䨀䜊渊䜊 Ԁ萀؀ 錀需萀 鐀萀ﬀ ഀ਀需䜀權Ⰺ 䨀萀䴀 鈀਀੊।  ੊।ੇë ੊।੉ਁ੧ í ੍ë ਃû "ਈíਁ੮ਁ搊脉 䨀搊䜉蜀Ⰰ 䨀萀䴀 蔀鈀 茀餀最䴊搊 ഀ਀฀氊鈊搀 䴀栊Ⰺ 餀䤀 蜀Ā渊Ċ朊 Ā䴀搊鸉 䜀搊鰉਀ì ਆëੇ ੉ਃì ੍੨, ੉੫ ਈ權脊 蜀ࠀਊ੫ ਅì ੊।ੇë 
੫ੇ੫ í ੊ì ਆ।੍ ੇ੨  ਃì ਁ।ìਃ। 權Ⰺ ࠀਊ ਆ।ੇ ੍ì ੍ëਃ੧ ।, "ਃ੧੫ ì, 
੉।੧  䨀需 ࠀ渊ਊ਋î ਃ। ਃëਁ। ੉਋ í ੍੨û ੉ì í ਆ੍ì ਎ਃ੧û ੫ ਁí੉ì ਈ ì 
਎養漀 ؀搊䜉 萀ࠀꀊ Ԁ ؀脀 ̀朊ꀊ搀 䴀權䨊朊 ̀蜀ﬀ Ā䤀脀 䤀萀ꀀ最 䴀權Ⰺ Ԁ ̀搊 䤀錀渀錊 鈀氀ꀊ ؀䴊脀 ഀ਀需搀䴉脀̀搊㼉 䤀錀渀錊 ؀搊䜉 鰀⸀ 䨀⸀ ऀਊë ੉਋ ੉।੧  䴀؊Ⰺ ̀朊錊欀 餀Ⰰ 餀最 Ā䤀脀 ̀朊ꀊ搀 䴀 ഀ਀䴀栊 Ā搊脉 蔀䴀؊搊脉 需餀漀搊脉 Ā朊 ࠀ栊䤊朊 ؀搊脉䴀 䜀搊蔉蜀ﬀ 鈀欀䜊 ࠀ栊䤊搊 䴀權蠊 Ā搊脉 Ā䴀搊鸉 䴀 Ԁ ฀氊養搀脉 ഀ਀鈀਀îû" ੊ë੍ ਃ੧ ੉ਊਅ ੊ë  ੍੫ 鐀䜀渊䜊 ࠀĀ渊Ċਊ। ੊।ੇë ਆî   ਆî ì  萀蔀萀ﬀ ഀ਀∀䤀養渀養ꀀ欀脊Ⰰ 谀䨀朊脊 鸀鐀搀脉 ؀搊脉䴀 ฀搊ਉë, ੍੫ ੉ਃ੨ ੊ë੍ ੊੧ੇ੧ ਁí੍।੧ ੫ੇ੫ ੍ ੉਋ í 
ਈî搊 ؀搊脉䴀 䴀權䨊朊 Ā朊 Ā䴀搊؉脀 䤀搊鸉最 䨀搊脉鐀 䬀ਊ਎੉। 䴀權ꀊ搀 ࠀ䨊朊Ⰺ Ā朊 䨀萀䴀朊 餀搀ꀉ 䨀搊䜉朊 ഀ਀䤀養渀養ꀀ欀Ⰺ 䨀萀䴀 Ā權脊 ࠀ頀欀脊 ଀䜀 鈀最 ࠀ脊餀搀脉 䤀Ċ渊Ċ搊脉 ̀؀搊脉 Ā權脊 䨀Ԋ 萀ࠀꀊ最 䤀䴊਀੧- ؀䴊脀 ഀ਀਀੍ë ।û ਆ੍ì ਁ। ੧੍ì `੉੧੊।' ੊ì ੍੫ ੉ਃì ੍੨ ë੍੯ì ਁí੍।ਆî ੉। 蜀฀ਊ ਏ।ਃ 
䴊朊鐊ﬀ 茀䤀脀 ؀䤊䴊茀Ā 鈀਀ਆ ੇ੮੧ ੍।, ੯਀ ੍ì ਈ ੧ ਆë੮ì ਆí਋੊ ਃ੧ ਅ। Ā朊 萀錀 ഀ਀਀੍੧ ੍।û ੊ë੍ ਁ। ੉਎੫ ੍੫ ëû ੍í  ਁí੉ì ੯ëਃì ë ì ੍੨, ੇਃë ੇਃë ੉ 
ਊ।朊 䨀 鈀騀 ̀䤊渊䤊 餀搀蘉謀ﬀ 餀欀 䤀脊଀䨊 䴀權䨊朊 Ā搊脉 騀鴀 ฀搊ਉ  ਁ੧ ਎।-ì 鈀਀ਆ ੊ë ਈì. 
. ì.  䜀蜀ﬀ ਀鸊漀朊 䤀氊錊最 ਀੍੫੧, ਃ䜊 萀䨀搊餉漀 Ā朊 萀Āช搊 ؀脀 䤀̊搊 䜀蘊 ̀ऊ؊搊 ̀蜀ﬀ  ഀ਀鈀̀朊 䨀 退錀萀蘀 Ā朊 䬀ਊ਎੉। ̀搊 䤀搊䴉ชꀊ搀 ؀䴊脀 鈀਀ਆ। ਈ੊੧।û ਊ੉੮੉!ëਁ੮ਁ।, ਈ੮搊ࠉĊ萀脀 ഀ਀Ā朊 錀䬀萀脀 䴀ช朊䬊搊 Ā䴀搊鸉最 茀脀鐀ⴀ䤀脊鐀 ਀੍ë ìû" ਊ੨ë ਊ੨ë ëੇ  ੇ੧। ਁ੧ 
ੇ।।搊脉 ̀ Ā搊脉 鐀䜀渊䜊 蘀 ؀䴊脀 鈀ĀⰀ 䨀䤊茀Ā ؀搊ฉ朊 䨀需 鈀騀 蔀؀渊䴊搊脉 䜀蘊 䨀 䜀錀ꀀ搀 ഀ਀餀漀ਊî 䴀栊﬊ഀ਀     ∀฀朊ਊ੧ ਎ëਁ權Ⰺ ฀朊ਊ੧ ੊ë權ℊ ਀੮ 養渀養 鈀最 䜀錀欀Ⰺ ਀੮ 養渀養 鈀最 䜀錀欀Ⰺ ਀੮ 
養渀養 鈀最 Ā䤊䨊਀। ਊ ।, ਁ੧ ਆ।ੇ ੍ì ਈ ì ਁ੧ ਈ ì ੇëਁ ਃì ੊।੍-੊।੍ 䨊搊蜉ꀀ 䜀蘊  ഀ਀鈀欀蘊 䤀ଊ搊ⴉ䤀權䤊搊蔉鰀 ਀ꀊ搀蜉 Ā朊 餀䴀鸊漀搊 萀䜀權霊鈀 Ā䴀搊؉脀 需脀鐀搀 ؀䴊脀 萀錀̀搊Ⰹ 蜀䤀̊朊 ഀ਀鐀鰀渀鰊最ⴊ鐀欀鸊最 ଀脊؀ ̀蜀ﬀ ࠀ萀਀ë! ੇ੫। ਁ੫ ؊ ̀ 䜀權鸊漀 ؀䴊脀Ⰰ ࠀ䴊䜀搊脉 Ā搊脉 蔀䴀 ഀ਀ࠀ鸊漀渊䴊̊朊 䜀錀̀朊 䴀 ؀䴊脀Ⰰ Ā朊 餀最 ࠀ鸊漀渊䴊鈊最 Ā䴀搊鸉最 錀䜀搊उ 䜀錀ꀀ搀 需搀䴉ꀀ Ā搊脉 Ā਀ਁ 
`ਃ।✀ ̀朊 ̀ਊ੉ਆ 䨊搊蜉ﬀ 蔀䤀 Āਊ੮੍। ؊ ؀搊䜉 Ā䤀脀 䤀脊䤀搊ਉ ਈ੮䤊Ԁ渊Ԋ ࠀ渊ਊ।ਈਁ  ഀ਀䤀鈊̀朊 䴀權﬊ 鈀䜀搊鈉搀ਉ ੊ì權Ⰺ Ā䤀脀 茀餀最䴊萀脀 Ā䤊䨊਀। ਁ੧ ëਁ ਀ꀊ搀蜉 餀䴀鸊漀朊 鈀䤀朊 ഀ਀怀鈀脀਀錊Ā✊ ؀脀 䤀ช騊 ؀搊脉䴀 萀蜀ꀀﬀ ਀䤊渊䤊Ⰺ 蔀䤀朊 䨀需 Ā䴀搊鸉 䤀ऊ䜊Ċ搊 ̀搊 ਀।੯ ੍੨û ਎ਆ।! 
੉ë੉ì ੇì搊脉 ਀搊ਉ੧ ਁ। ਁî íਈ , ਃ權脊 萀䨀搊餉漀 萀蘀Ⰰ ̀權 䬀ਊ̊ 蔀䴀؊搊脉 䜀蘊 䨀 䜀錀̀搊 ഀ਀餀搀䴉﬊ഀ਀     ∀ࠀ萀਀੧ ੉ë੉ਁਃ।ਆ੫, ਁ੧ ਆ੧ਁ।  ੫, ੉੧ ਃëਆ ਁí੍।ì `਎੬ਁ' ੍੫ ।ì ë੉ ਃëਆ 
ਁí੉ì ੉੮ì-਎íì ਋ੇ। ਃ੧ ਎ ؊朊 䬀਀î  ̀Ā朊﬊ 謀䤀 䜀蘊 Ā䴀搊鸉搀 Ԁਊ਎ ਁ੧ ਉ養漀 蔀䴀 ഀ਀ࠀ鈀搀ਉ ਈ। 鈀最 萀錀 ਀ë੍। ੍੨ ë ਆਁ।-~ਆ।Ԋ؊ ؀脀 餀脀؀搊 需਀ ੇ੮ੇî ਊ । ੧ ਈ । 
ੇ੮ੇî ੉ëਅ੮ਅ।  䤀鈊̀朊 䴀權Ⰺ 鈀਀੫û ੉੧ ੊ë ਃ੧ੋ ਁ੧ ੬਎ ਃ। ੇë  ੍੨û" ੇëਃë 
ੇëਃë ੊ë। 萀蔀萀Ⰰ 茀餀 ̀朊 䤀ช朊脊 䨀需 䤀搊蔉脀䤀̊搊؉搊脉 ̀ 䨀䬀朊䬊 ฀䴊Ċ渊ĊĊ搊 䴀栊Ⰺ 蔀䴀؊搊脉 ؀脀 ഀ਀䨀 鈀騀 ؀䤊䴀茊Ā ̀朊ꀊ ਀ꀊ̀ 䴀栊﬊ ഀ਀     ∀䴀朊 䤀脊䤀搊ਉ ਃë ੉।੉ਃ।ਆ੫, ੧੍੧ ੍ਂë ਀ꀊ蜀Ⰰ 餀䴀鸊漀朊 餀̀權脊 需䜀渊䜊 餀搀ꀉ Ā搊脉 ഀ਀䤀脊䤀搊ਉ ਃ। ੫ ì੊ ìਃ। ਆ।੍ 䴊朊Ⰺ 蔀䤀 ࠀ頀欀脊 䨀䤊茀Āⴊ؀搊ฉ搊 䜀錀ꀀ ̀ 䨀 䜀權鸊漀 ؀䴊脀 ഀ਀਀੍੧ìû ਆ।੍ 䴊朊鐊搀 ਀搊脉䤀Ⰺ ؀搊脉䴀 ਀養最鐊 ਀脊䤀ਊìû</p>

<p>                               ੉। ੊੉ìਁ ìਁì                              
     ਎ । ਎ਊî 䴀栊﬊ ࠀ搊䜉ꀊ搀 鈀䤀朊 ̀ ฀養਀਀ì ਁ੧ ੯ëਃì ' ਃ੫-੍ëਃ ؊搊 䨀 ഀ਀฀養਀਀ì ੍ì ੍੨û ਃì ë੉੧ ਆ੧ ਈ੮搊ȉ؊搊 鈀Ā 䴀權䨊朊鐊Ⰰ 鈀 䴀朊 ࠀਊ੊।̊鐊搀ਉ, "਎੨ਆî ਈ੨ਃ। 
﬊∀ 䜀蜊 餀℀ ࠀ䴊䜀 ฀養਀਀ì ਆ।ੇ ੉।ਆî  ਁ੫ ì 39 ੉।ੇ ਈ੍ëੇ। ਏ।ਆìë 
1-12-1943 ਆî ਎ਃë ੍ì ਃ੫ । 䴀權ꀊ搀 ࠀ萀ﬀ Ā朊 ฀養਀਀ ੍੫੧ ੍ì ੉। ਈ ì ੍੫ਃ 
ਁ।  ੇ  ì ਎।ﬀ 蔀䴀 需鈀 茀䤀䜊 ✀需 茀䤀䜊朊 ؀搊䜉權脊 鰀鰀ꀀ ̀朊 ̀錀 ̀ ࠀ渊ਊਁì ੉ìû   
39 ੉।ੇ। ' ਊ੍íਁ í ੫੍ë ਈ 䴀搊䤉䜀 鈀騀 䨀 ؀䴊脀 䴀權蔊萀ﬀ 蜀฀ਊ ਃì ।ਃ ̀搊 ഀ਀Ā搊ꀉ搀ⴉࠀ朊鰊搀 䨀 ̀搊鐉 䴀權 鐀萀 Ā朊 蜀䤀̊搊 蜀餀䜀搊ࠉꀊ 餀搀脉̀搊 ਀ë੍।û ì 䴊朊 䴀搊脉 鈀蜀脀鈀 謀䴀 ഀ਀䨀 ฀養਀਀ì ੍੨û 
     ੉ì ਆ। ਁ। ੫ ਊë䜊朊 鰀搀鰉最 䴀搊脉Ⰰ 餀欀 萀ࠀꀊ 餀搀蔉̀搊̉ ̀ 䨀䤊茀Ā 鈀਀ìû ਆ। ੍ì 
਎੍।ਁ਎। ।ਅì ੍।, ë ੍ë੉। ਈช權ⴊԀਊ਎। ਁ੧ ਃ 鈀Āꀊ Ā朊 ࠀ搊ꀉ ̀ 䨀䤊茀Ā 鈀਀ìû 
੉ì ਈਁ ਆ੍ë 䨀 ؀䴊脀 鈀 ฀ਊਆ ਈë੫ ੉।ì 搊錉 錀最Ċ搊脉 䨀需 ਀錊最ਊì ।û ੉ì ਆ। 
੫ ੍ëੇ 䴀搊脉 Ā朊 ؀搊 䴀 ؀栊ࠊ權䜊茀؀﬊ ਀䤊 茀䤀脀 餀欀 鈀騀 䨀 䴀搊脉Ⰰ ̀ช ̀朊 ̀ช ؀搊 Ԁ權錊搀 ؀搊 ഀ਀鐀฀﬊ 䤀搊鸉 䨀䤊茀Ā ̀ 鈀 䨀鈊茀Ā 䴀栊㼊 ഀ਀     茀䤀搊脉 ㌀㤀 䤀搊䜉搊脉 ̀ 茀䜀ࠊⴊ萀ༀ 䨀需 Ԁਊ਎ ਃ੧ ਆ। ਁ੧ ਆ੉।ਆìਁ ਃ। îਆ ੍íਃ। ੊੧ë 
੍੨û ਅĊ ̀ 䴀鈀 Ā朊 ؀搊䤉਀ ੊鐊 䜀鈊਀ ਈ੨ਃì ੊੧ì ੍੨û ੋíਅਁ। ਆî ੋíਅਁ। ੊ë 
ਊਃੇਃë ੊੧ë ੍੨û ਃíਅ ਁ੧ ਈíਁ ੊ëਃ। ੊੧ë ੍੨û ë ੊ë ੇî ਁ੧ 䤀 ̀ ฀䜀搊䨉鰊 ഀ਀䨀朊錊 䴀栊﬊ ฀䤊搊䜉萀脀 䨀需 销欀鸊漀萀脀 ̀ 䜀̀ 䨀朊錊 䴀栊﬊ 䜀權鈊搀脉 ؀脀 䤀萀਀ਂਈí ੧ ੇ ੇ੧ਊੇ 
ਊਃੇਃë ੊੧ë ੍੨û ਎ਃ搊脉Ⰰ ฀䤊Ā搊脉 Ā朊 鐀਀-~ਃí萀脀 ✀需 ؀ऊਊਁ ਃ। ਈ। ਈ੯੮੍। 
।ਃ। ੊੧ë ੍੨û ਊ।ਈ ਆî ਅì ਃì ੯ਁ ੇíਃë ੊੧ë ੍੨û ੇਏí ਁ੧ ༊鐀 ̀搊 䴀ਊ 
।؊搊ฉ搊 䨀朊錊萀 䴀栊﬊ 萀̀ช ؀脀 餀搀؉䨊ਊ ਁ੫ ਊਃਁ Ā朊 ਀̊鈊搀ਉ ੊੧ë ੍੨û 
੫ ੉ੇìਁ ੍੨ ੍ ਎ਊî 䴀栊﬊ 餀欀 䨀ਊਁ਎।ਆ ੍੨ ੍ ੉਋ ਎ëੇ।੊ì ੍੨û ੉ ੇ ੉।   
ਈ ì ੊੉ìਁ ੊ì   ੇ ਎ ੉਎ì ।  ੊।ੇì ਋।ੋ। ' ੍ì ìਁì ੍੨û ੍ ਋।੊੧ ë੉੧ ਆî 
搊䤉 萀䨀朊 ༀ搊 ؀搊 萀䨀朊Ⰺ ࠀਊ ੍ ੊੉ìਁ ੋíਅ ੉।ì ਈ ì ੍੨û   
+&gt;
               0 
</p></body></text></cesDoc>