<cesDoc id="pun-w-sanjh-news-01-06-06" lang="pun">
<cesHeader type="text">
<fileDesc>
<titleStmt>
<h.title>pun-w-sanjh-news-01-06-06.txt</h.title>
<respStmt>
<respType>Electronic file created by</respType>
<respName>Department of Linguistics, Lancaster University</respName>
<respType>text collected by</respType>
<respName>Paul Baker and Celia Worth</respName>
<respType>transferred into Unicode by</respType>
<respName>"Unicodify" software by Andrew Hardie</respName>
</respStmt>
</titleStmt>
<publicationStmt>
<distributor>UCREL</distributor>
<pubAddress>Department of Linguistics, Lancaster University, Lancaster, LA1 4YT, UK</pubAddress>
<availability region="WORLD"></availability>
<pubDate>03-08-23</pubDate>
</publicationStmt>
<sourceDesc>
<biblStruct>
<monogr>
<h.title>"Sanjh Savera" internet news (www.sanjhsavera.com), news stories collected on 01-06-06</h.title>
<h.author>Sanjh Savera</h.author>
<imprint>
<pubPlace>Ontario, Canada</pubPlace>
<publisher>Sanjh Savera</publisher>
<pubDate>01-06-06</pubDate>
</imprint>
</monogr>
</biblStruct>
</sourceDesc>
</fileDesc>
<encodingDesc>
<projectDesc>Text collected for use in the EMILLE project.</projectDesc>
<samplingDesc>Simple written text only has been transcribed. Diagrams, pictures and tables have been omitted and their place marked with a gap element.
</samplingDesc>
<editorialDecl>
<conformance level="1"></conformance>
</editorialDecl>
</encodingDesc>
<profileDesc>
<creation>
<date>03-08-23</date>
</creation>
<langUsage>Punjabi</langUsage>
<wsdUsage>
<writingSystem id="ISO/IEC 10646">Universal Multiple-Octet Coded Character Set (UCS).</writingSystem>
</wsdUsage>
<textClass>
<channel mode="w">print</channel>
<constitution type="composite"></constitution>
<domain type="public"></domain>
<factuality type="fact"></factuality>
</textClass>
<translations></translations>
</profileDesc>
<revisionDesc></revisionDesc>
</cesHeader>

<text>
<body>




<p>ਵਿਰੋਧੀ ਆਗੂ ਵੱਲੋਂ ਜਾਂਚ ਕਮਿਸ਼ਨ 'ਚ
ਸ਼ਾਮਲ ਹੋਣ ਤੋਂ ਨਾਂਹ, ਕਾਠਮੰਡੂ ਤੇ ਲਲਿਤਪੁਰ ਵਿਚ ਹਿੰਸਾ ਜਾਰੀ, ਕਰਫਿਊ ਮੁੜ ਲਾਗੂ</p>

<p>ਕਾਠਮੰਡੂ
: ਨੇਪਾਲ ਦੇ ਨਵੇਂ ਸਮਰਾਟ ਗਿਆਨੇਂਦਰ ਨੂੰ ਅੱਜ ਉਸ ਸਮੇਂ ਭਾਰੀ ਧੱਕਾ ਲੱਗਾ ਜਦੋਂ ਨੇਪਾਲੀ
ਪਾਰਲੀੰਮੈਂਟ ਵਿਚ ਮੁੱਖ ਵਿਰੋਧੀ ਪਾਰਟੀ ਦੇ ਆਗੂ ਮਾਧਵ ਨੇਪਾਲ ਨੇ ਮਹੱਲ ਹੱਤਿਆ ਕਾਂਡ ਦੀ ਜਾਂਚ
ਲਈ ਬਣਾਏ ਗਏ ਅਦਾਲਤੀ ਕਮਿਸ਼ਨ ਵਿਚ ਸ਼ਾਮਲ ਹੋਣ ਤੋਨ ਇਨਕਾਰ ਕਰ ਦਿੱਤਾ। ਦੂਸਰੇ ਪਾਸੇ ਕਾਠਮੰਡੂ
ਅਤੇ ਲਲਿਤਪੁਰ ਵਿਚ ਤਾਜ਼ਾ ਹਿੰਸਕ ਘਟਨਾਵਾਂ ਪਿੱਛੋਂ ਮੁੜ ਕਰਿਫਿਊ ਲਾਗੂ ਕਰ ਦਿੱਤਾ ਗਿਆ। ਇਸੇ
ਦੌਰਾਨ ਪੁਲਿਸ ਵੱਲੋਂ ਕਾਠਮੰਡੂ ਵਿਚ ਮੁਜਾਹਾਰਾਕਾਰੀਆਂ ਉਤੇ ਦੋਂ ਥਾਈਂ ਚਲਾਈ ਗੋਲੀ ਨਾਲ 5
ਵਿਅਕਤੀ ਮਾਰੇ ਗਏ। ਪੁਲਿਸ ਵੱਲੋਂ ਬੁੱਧਾਂ ਖੇਤਰ ਵਿਚ ਕਰਫਿਊ ਦੀ ਉਲੰਘਣਾ ਕਰ ਰਹੇ
ਵਿਖਾਵਾਕਾਰੀਆਂ ਨੂੰ ਖਿੰਡਾਉਣ ਲਈ ਚਲਾਈ ਗੋਲੀ ਨਾਲ ਤਿੰਨ ਵਿਅਕਤੀ ਫੱਟੜ ਹੋ ਗਏ। ਫੌਜ਼ ਨੇ
ਫਲੈਗ ਮਾਰਚ ਕਰਕੇ ਲੋਕਾਂ ਨੂੰ ਚਿਤਾਵਨੀ ਦਿੱਤੀ ਕਿ ਉਹ ਮਨਾਹੀ ਦੇ ਹੁਕਮਾਂ ਦੀ ਉਲੰਘਣਾ ਨਾ
ਕਰਨ। </p>

<p>ਹੁਣ ਕਮੇਟੀ ਦੱਸੂ ਬਈ ਸੰਤ ਭਿੰਡਰਾਂਵਾਲੇ ਸ਼ਹੀਦ ਹੋਏ ਸਨ !</p>

<p>ਅਮ੍ਰਿੰਤਸਰ
: ਅਕਾਲ ਤਖਤ ਦੇ ਜਥੇਦਾਰ ਗਿਆਨੀ ਜੋਗਿੰਦਰ ਸਿੰਘ ਵੇਦਾਂਤੀ ਨੇ ਸ਼੍ਰੋਮਣੀ ਗੁਰਦੁਆਰਾ ਪ੍ਰਬੰਧਕ
ਕਮੇਟੀ ਦੇ ਪ੍ਰਧਾਨ ਜਥੇਦਾਰ ਜਗਦੇਵ ਸਿੰਘ ਤਲਵੰਡੀ ਨੂੰ ਹਦਾਇਤ ਕੀਤੀ ਹੈ ਕਿ ਸੰਤ ਜਰਨੈਲ ਸਿੰਘ
ਭਿੰਡਰਾਂਵਾਲਿਆਂ ਦੇ ਸ਼ਹੀਦ ਹੋਣ ਜਾਂ ਜਿਉਂਦੇ ਹੋਣ ਸਬੰਧੀ ਚੱਲ ਰਹੇ ਵਿਵਾਦ ਦੇ ਹੱਲ ਲਈ ਇਕ
ਪੰਦਰਾਂ ਮੈਂਬਰੀ ਕਮੇਟੀ ਦਾ ਗਠਨ ਕੀਤਾ ਜਾਵੇ। ਅੱਜ ਇਥੇ ਅਕਾਲ ਤਖਤ ਦੇ ਸਕੱਤਰੇਤ ਵਿਚ ਪੰਜ ਸਿੰਘ
ਸਾਹਿਬਾਨ ਦੀ ਮੀਟਿੰਗ ਮਗਰੋਂ ਜਾਰੀ ਕੀਤੇ ਗਏ ਪ੍ਰੈਸ ਬਿਆਨ ਵਿਚ ਜਥੇਦਾਰ ਵੇਦਾਂਤੀ ਨੇ ਕਿਹਾ ਕਿ
ਇਸ ਵਿਵਾਦ ਨੇ ਕੌਮ ਸਾਹਮਣੇ ਗੰਭੀਰ ਸਥਿਤੀ ਪੈਦਾ ਕਰ ਦਿੱਤੀ ਹੈ। </p>

<p>ਇਥੇ
ਵਰਨਣਯੋਗ ਹੈ ਕਿ ਦਮਦਮੀ ਟਕਸਾਲ ਨੇ ਅਜੇ ਤਕ ਸੰਤ ਭਿੰਡਰਾਂਵਾਲੇ ਦੇ ਭੋਗ ਦੀ ਰਸਮ ਨਹੀਂ ਕੀਤੀ
ਕਿਉਂਕਿ ਉਹ ਲਗਾਤਾਰ ਦਾਅਵਾ ਕਰਦੇ ਆ ਰਹੇ ਹਨ ਕਿ ਉਹ ਦਰਬਾਰ ਸਾਹਿਬ ਵਿਚ ਫੌਜ਼ੀ ਕਾਰਵਾਈ
ਦੌਰਾਨ ਬੱਚ ਨਿਕਲੇ ਅਤੇ ਕਿਸੇ ਬਾਹਰਲੇ ਮੁਲਕ ਵਿਚ ਸੁਰੱਖਿਅਤ ਰਹਿ ਰਹੇ ਹਨ।</p>

<p>ਹਾਈਕੋਰਟ ਦੇ ਹੁਕਮਾਂ ਤੇ ਲੁਧਿਆਣਾ 'ਚ
ਕਰੋੜਾਂ ਦੀ ਲਾਗਤ ਦੇ ਤਿੰਨ ਮੈਰਿਜ ਢਾਹੇ</p>

<p>ਲੁਧਿਆਣਾ:-
ਜ਼ਿਲਾ ਪ੍ਰਸ਼ਾਸ਼ਨ ਨੇ ਅੱਜ ਤੜਕਸਾਰ ਜੰਗੀ ਪੱਧਰ 'ਤੇ ਕਾਰਵਾਈ ਕਰਦਿਆਂ ਫਿਰੋਜ਼ਪੁਰ ਰੋਡ (ਨੇੜੇ ਚੁੰਗੀ) ਪੈਂਦੇ ਕਰੋੜਾਂ ਰੁਪਏ ਨਾਲ ਤਿਆਰ
ਹੋਏ ਤਿੰਨ ਮੈਰਿਜ ਪੈਲੇਸ ਗਿਰਾ ਦਿੱਤੇ। ਇਨਾਂ੍ਹ ਵਿਚ ਮੇਘਾ ਰਿਜੋਰਟ, ਸਪਰਿੰਗ ਫੀਲਡ ਅਤੇ ਵਾਈਟ
ਰਾਕ ਸ਼ਾਮਲ ਸਨ। ਪ੍ਰਸ਼ਾਸਨ ਨੇ ਇਹ ਕਾਰਵਾਈ ਹਾਈਕੋਰਟ ਦੇ ਉਸ ਫੈਸਲੇ ਤਹਿਤ ਕੀਤੀ ਜਿਸ ਵਿਚ ਫੌਜ਼ੀ
ਅਸਲਾ ਡਿੱਪੂ ਤੋਂ ਹਜ਼ਾਰ ਮੀਟਰ ਤਕ ਉਸਾਰੀਆਂ ਨੂੰ ਢਾਹੁਣ ਲਈ ਕਿਹਾ ਗਿਆ ਹੈ। ਜ਼ਿਲਾ ਪ੍ਰਸ਼ਾਸਨ ਨੇ
ਬੀਤੀ ਰਾਤ ਮਿਥੀ ਯੋਜਨਾ ਮੁਤਾਬਕ ਸਵੇਰੇ 3 ਵਜੇ ਗੁਰੂ ਨਾਨਕ ਸਟੇਡੀਅਮ ਵਿਚ ਨਗਰ ਨਿਮ ਸਮੇਤ ਸਾਰੇ
ਵਿਭਾਗਾਂ ਦੇ ਮੁਲਾਜ਼ਮ ਇੱਕਠੇ ਕੀਤੇ, ਭਾਰੀ ਗਿਣਤੀ ਵਿਚ ਪੁਲਿਸ ਦੇ ਸੁਰੱਖਿਆ ਦਸਤੇ ਨਾਲ ਲਏ ਅਤੇ
ਨਗਰ ਨਿਗਮ ਦੇ ਬੁਲਡੋਜ਼ਰਾਂ ਨਾਲ ਸਵੇਰੇ 5:40 ਵਜੇ 'ਤੇ ਮੈਗਾ ਰਿਜ਼ੋਰਟ ਤੋਂ ਆਪ੍ਰੇਸ਼ਨ ਸ਼ੁਰੂ ਕੀਤਾ। ਇਸ ਦੇ ਨਾਲ ਹੀ
ਵਾਈਟ ਰਾਕ ਤੇ ਸਪਰਿੰਗ ਫੀਲਡ ਦੀਆਂ ਇਮਾਰਤਾਂ ਵੀ ਢਾਹ ਦਿੱਤੀਆਂ ਗਈਆਂ। ਇਨ੍ਹਾਂ ਇਮਾਰਤਾਂ ਉਤੇ
35 ਕਰੋੜ ਰੁਪਏ ਤੋਂ ਵਧੇਰੇ ਲਾਗਤ ਆਈ ਸੀ।</p>

<p>ਗ੍ਰੰਥੀਆਂ ਨੇ ਅਕਾਲ ਤਖਤ ਨੂੰ ਬਾਦਲ ਦੇ ਪੈਰਾਂ 'ਚ
ਰੋਲ ਦਿੱਤਾ : ਭਾਈ ਰਣਜ਼ੀਤ ਸਿੰਘ</p>

<p>ਅਮ੍ਰਿੰਤਸਰ
:- ਅਕਾਲ ਤਖਤ ਦੇ ਸਾਬਕਾ ਜਥੇਦਾਰ ਭਾਈ ਰਣਜੀਤ ਸਿੰਘ ਨੇ ਕਿਹਾ ਕਿ ਬਾਦਲ ਤੋਂ ਨਗੂਣੀਆਂ ਸਹੂਲਤਾਂ
ਲੈਣ ਲਈ ਇਨ੍ਹਾਂ ਗ੍ਰੰਥੀਆਂ ਨੇ ਮੀਰੀ-ਪੀਰੀ ਦੇ ਮਾਲਕ ਗੁਰੂ ਹਰਗੋਬਿੰਦ ਸਾਹਿਬ ਵਲੋਂ ਦਿਲੀ ਦੇ ਤਖਤ
ਨਾਲ ਟੱਕਰ ਲੈਣ ਲਈ ਬਣਾਏ ਰੂਹਾਨੀ ਤਖਤ ਨੂੰ ਪੈਰਾਂ ਥੱਲੇ ਰੋਲ ਦਿੱਤਾ ਹੈ, ਜੋ ਸਿੱਖ ਕੌਮ ਲਈ
ਮੰਦਭਾਗੀ ਗੱਲ ਹੈ। ਪੱਤਰਕਾਰਾਂ ਨਾਲ
ਗੱਲਬਾਤ ਕਰਦਿਆਂ ਭਾਈ ਰਣਜੀਤ ਸਿੰਘ ਨੇ ਕਿਹਾ ਕਿ ਕੋਈ ਗੰ੍ਰਥੀ ਮੁੱਖ ਮੰਤਰੀ ਪ੍ਰਜਾਸ਼ ਸਿੰਘ ਬਾਦਲ
ਦੇ ਚਰਨ ਇਸ ਲਈ ਫੜੀ ਬੈਠਾ ਹੈ ਕਿ ਉਸਨੂੰ ਰਿਟਾਇਰਮੈਂਟ ਤੋਂ ਬਾਅਦ ਸ਼੍ਰੋਮਣੀ ਕਮੇਟੀ
ਦਿਹਾੜੀੌਦਾਰ ਮੁਲਾਜ਼ਮ ਦੇ 'ਤੌਰ ਤੇ ਰੱਖ ਲਵੇ,
ਕੋਈ ਇਸ ਲਈ ਪੈਰਾਂ ਵਿਚ ਸਿਰ ਦੇਈ ਜਾ ਰਿਹਾ ਹੈ ਕਿ ਉਸ ਨੂੰ ਆਪਣੀ ਨੂੰਹ ਦੇ ਕਤਲ ਕੇਸ 'ਚੋਂ ਬਚਾਇਆ ਜਾਵੇ ਅਤੇ ਕੋਈ ਇਸ ਲਈ
ਪੈਰਾਂ 'ਤੇ ਸਿਰ ਰੱਖੀ
ਬੈਠਾ ਹੈ ਕਿ ਉਸ ਵੱਲੋਂ ਕੀਤੇ ਕਰੋੜਾਂ ਰੁਪਏ ਦੇ ਘਪਲਿਆਂ ਨੂੰ ਹਜ਼ਮ ਕੀਤਾ ਜਾ ਸਕੇ।</p>

<p>ਬਾਦਲ ਦਲੀਆਂ ਨੇ ਆਪਸ ਵਿੱਚ ਪੱਗਾਂ ਲਾਈਆਂ 'ਤੇ ਦਾੜ੍ਹੀਆਂ ਪੁੱਟੀਆਂ </p>

<p>ਫਤਿਹਗੜ੍ਹ
ਸਾਹਿਬ : ਅਕਾਲੀ ਦਲ ਬਾਦਲ ਵੱਲੋਂ 26 ਜੂਨ ਨੂੰ ਹੋਣ ਵਾਲੀ ਜ਼ਿਲ੍ਹੇ ਦੀ ਕਾਨਫਰੰਸ ਲਈ ਸਰਕਲ ਵਾਰ
ਰੱਖੀ ਅੱਜ ਪਹਿਲੀ ਸਰਕਲ ਮੁਲੇਪਰ ਦੀ ਮੀਟਿੰਗ ਵਿੱਚ ਅਕਾਲੀਆਂ ਦੇ ਦੋ ਗਰੁੱਪਾਂ ਵਿਚਕਾਰ ਜ਼ਬਰਦਸਤ
ਲੜਾਈ ਹੋਈ, ਜਿਸ ਵਿਚ ਸੀਨੀਅਰ ਅਕਾਲੀ ਆਗੂਆਂ ਦੀ ਪੱਗਾਂ ਲੱਥੀਆਂ ਅਤੇ ਦਾੜ੍ਹੀਆਂ ਵੀ ਪੁਟੀਆਂ
ਗਈਆਂ, ਜਦਕਿ ਕੈਪਟਨ ਕੰਵਲਜੀਤ ਸਿੰਘ ਵਿੱਤ ਮੰਤਰੀ ਇਸ ਮੀਟਿੰਗ ਵਿੱਚ ਨਹੀਂ ਪਹੁੰਚ ਸਕੇ। ਸਰਕਲ ਮੁਲੇਪੁਰ ਦੀ ਮੀਟਿੰਗ ਗੁਰਦੁਆਰਾ ਪਾਤਸ਼ਾਹੀ ਨੌਵੀਂ ਪਿੰਡ
ਨੌਲੱਖਾ ਵਿੱਚ ਰੱਖੀ ਗਈ ਸੀ, ਜਿਸ ਦੇ ਸ਼ੁਰੂ ਹੁੰਦਿਆਂ ਹੀ ਵਿਧਾਇਕ ਬਲਵੰਤ ਸਿੰਘ ਦੇ ਗਰੁੱਪ ਦੇ
ਬੰਦਿਆਂ ਨੇ ਮੀਟਿੰਗ ਦੀ ਇਤਲਾਹ ਹਲਕਾ ਵਿਧਾਇਕ ਨੂੰ ਨਾ ਦੇਣ 'ਤੇ ਇਤਰਾਜ ਕੀਤਾ ਸੀ ਜਿਸ ਦੇ ਅਕਾਲੀ ਗੁੱਥਮਗੁੱਥੀ ਹੋ ਗਏ।</p>

<p>ਰਾਜੇ ਦਾ ਜਵਾਈ ਸਾਰੇ ਭੇਦ ਦੀ ਘੁੰਡੀ ਖੋਲ੍ਹ ਸਕਦਾ : ਸੂਤਰ</p>

<p>ਕਾਠਮੰਡੂ
: ਕਾਠਮੰਡੂ ਦੇ ਨਰਾਇਣਅਹਿਤੀ ਸ਼ਾਹੀ ਮਹੱਲ ਵਿੱਚ ਸ਼ੁੱਕਰਵਾਰ ਦੀ ਰਾਤ ਨੂੰ ਹੋਏ ਕਤਲੇਆਮ ਵਿਚੋਂ
ਘੱਟੋ ਘੱਟ ਇਕ ਵਿਅਕਤੀ ਅਜਿਹਾ ਬੱਚ ਗਿਆ ਹੈ, ਜਿਹੜਾ ਕਿ ਸਾਰੀ ਦੁਨੀਆਂ ਨੂੰ ਇਹ ਦੱਸ ਸਕਦਾ ਹੈ
ਕਿ ਅਸਲ ਰੂਪ ਵਿਚ ਉਸ ਰਾਤ ਸ਼ਾਹੀ ਮਹਿੱਲ ਵਿਚ ਕੀ ਹੋਇਆ ? ਨੇਪਾਲ ਸਰਕਾਰ ਵਿਚਲੇ ਸੂਤਰਾਂ ਦਾ
ਕਹਿਣਾ ਹੈ ਕਿ ਮਹਾਰਾਜ਼ਾ ਬਿਰੇਂਦਰ ਦੀ ਲੜਕੀ ਰਾਜ ਕੁਮਾਰੀ ਸ਼ਰੁੂਤੀ ਇਸ ਕਤਲੇਆਮ ਵਿਚ ਗੋਲੀ ਲੱਗਣ
ਕਾਰਨ ਮਾਰੀ ਗਈ ਸੀ, ਉਸਦਾ ਪਤੀ ਗੋਰਖ ਸ਼ਮਸ਼ੇਰ ਜੰਗ ਬਹਾਦਰ ਰਾਣਾ ਇਸ ਕਤਲੇਆਮ ਵਿੱਚੋਂ ਬਚ
ਗਿਆ ਹੈ, ਜਦੋਂ ਕਿ ਉਹ ਗੋਲੀ ਲੱਗਣ ਕਾਰਨ ਜ਼ਖਮੀ ਹੋ ਗਿਆ ਸੀ। ਇਕ ਸਰਕਾਰੀ ਅਧਿਕਾਰੀ ਦਾ ਕਹਿਣਾ
ਹੈ, " ਜੇਕਰ ਉਹ ਬਚ ਨਿਕਲਿਆ ਤਾਂ ਉਹ ਸਾਨੂੰ ਉਸ ਬਾਰੇ ਸਭ ਕੁਝ ਦੱਸ ਦੇਵੇਗਾ, ਜੋ ਕੁਝ
ਕਿ ਅਸਲ 'ਚ ਦੁਖਾਂਤ ਵਾਲੀ
ਰਾਤ ਨੂੰ ਸ਼ਾਹੀ ਮਹੱਲ ਵਿੱਚ ਵਾਪਰਿਆਂ ਸੀ।</p>

<p> </p>

<p> </p>






</body></text></cesDoc>