<cesDoc id="pun-w-sanjh-news-01-05-16" lang="pun">
<cesHeader type="text">
<fileDesc>
<titleStmt>
<h.title>pun-w-sanjh-news-01-05-16.txt</h.title>
<respStmt>
<respType>Electronic file created by</respType>
<respName>Department of Linguistics, Lancaster University</respName>
<respType>text collected by</respType>
<respName>Paul Baker and Celia Worth</respName>
<respType>transferred into Unicode by</respType>
<respName>"Unicodify" software by Andrew Hardie</respName>
</respStmt>
</titleStmt>
<publicationStmt>
<distributor>UCREL</distributor>
<pubAddress>Department of Linguistics, Lancaster University, Lancaster, LA1 4YT, UK</pubAddress>
<availability region="WORLD"></availability>
<pubDate>03-08-23</pubDate>
</publicationStmt>
<sourceDesc>
<biblStruct>
<monogr>
<h.title>"Sanjh Savera" internet news (www.sanjhsavera.com), news stories collected on 01-05-16</h.title>
<h.author>Sanjh Savera</h.author>
<imprint>
<pubPlace>Ontario, Canada</pubPlace>
<publisher>Sanjh Savera</publisher>
<pubDate>01-05-16</pubDate>
</imprint>
</monogr>
</biblStruct>
</sourceDesc>
</fileDesc>
<encodingDesc>
<projectDesc>Text collected for use in the EMILLE project.</projectDesc>
<samplingDesc>Simple written text only has been transcribed. Diagrams, pictures and tables have been omitted and their place marked with a gap element.
</samplingDesc>
<editorialDecl>
<conformance level="1"></conformance>
</editorialDecl>
</encodingDesc>
<profileDesc>
<creation>
<date>03-08-23</date>
</creation>
<langUsage>Punjabi</langUsage>
<wsdUsage>
<writingSystem id="ISO/IEC 10646">Universal Multiple-Octet Coded Character Set (UCS).</writingSystem>
</wsdUsage>
<textClass>
<channel mode="w">print</channel>
<constitution type="composite"></constitution>
<domain type="public"></domain>
<factuality type="fact"></factuality>
</textClass>
<translations></translations>
</profileDesc>
<revisionDesc></revisionDesc>
</cesHeader>

<text>
<body>




<p>ਐਂਥਨੀ, ਕੇਰਲਾ ਕਾਂਗਰਸ ਵਿਧਾਇਕ ਦਲ ਦੇ ਸਰਬ ਸੰਮਤੀ ਨਾਲ ਨੇਤਾ ਬਣੇ</p>

<p>ਤਿਰੂਵਨੰਥਾਪੁਰਮ
: ਕੇਰਲਾ 'ਚ ਕਾਂਗਰਸ ਦੇ ਨਵੇਂ
ਚੁਣੇ ਗਏ ਵਿਧਾਇਕ ਦਲ ਦੀ ਅੱਜ ਇੱਥੇ ਹੋਈ ਮੀਟਿੰਗ 'ਚ ਸ਼੍ਰੀ ਏ.ਕੇ ਐਂਟਨੀ ਨੂੰ ਸਰਬ ਸੰਮਤੀ ਨਾਲ ਵਿਧਾਇਕ ਦਲ ਦਾ
ਨੇਤਾ ਚੁਣ ਲਿਆ ਗਿਆ।</p>

<p>ਮੀਟਿੰਗ
'ਚ ਕੇਂਦਰੀ ਦਰਸ਼ਕ
ਸ੍ਰੀ ਗੁਲਾਮ ਨਬੀ ਆਜ਼ਾਦ ਅਤੇ ਸ਼੍ਰੀ ਮੋਤੀ ਲਾਲ ਵੋਰਾ ਵੀ ਮੌਜੂਦ ਸਨ। ਸ੍ਰੀ ਐਂਥਨੀ ਦੇ ਨਾਂਅ ਦੀ
ਤਜਵੀਜ਼ ਸਾਬਕਾ ਮੁੱਖ ਮੰਤਰੀ ਸ੍ਰੀ ਕੇ. ਕਰੁਣਾਕਰਨ ਧੜੇ ਦੇ ਨੇਤਾ ਨੇ ਕੀਤੀ, ਜਿਸ ਦੀ ਤਾਈਦ ਵੱਖ
ਵੱਖ ਲੀਡਰਾਂ ਨੇ ਕੀਤੀ। ਸ਼੍ਰੀ ਐਂਥਨੀ ਦੇ ਨੇਤਾ ਚੁਣੇ ਜਾਣ ਬਾਰੇ ਕਾਂਗਰਸ ਪ੍ਰਧਾਨ ਸ੍ਰੀਮਤੀ ਸੋਨੀਆ
ਗਾਂਧੀ ਨੂੰ ਜਾਣਕਾਰੀ ਦਿੱਤੀ ਗਈ, ਜਿਨ੍ਹਾਂ ਸ੍ਰੀ ਐਂਥਨੀ ਦੇ ਨਾਂਅ ਨੂੰ ਪ੍ਰਵਾਨਗੀ ਦੇ ਦਿੱਤੀ। ਸ਼੍ਰੀ
ਐਂਟਨੀ ਦਾ ਮੁੱਖ ਮੰਤਰੀ ਬਣਨਾ ਉਸ ਵੇਲੇ ਤੈਅ ਹੋ ਗਿਆ ਸੀ, ਜਦੋਂ ਸ਼੍ਰੀ ਕੇ.ਕਰੁਣਾਕਰਨ ਨੇ
ਮੀਟਿੰਗ ਤੋਂ ਪਹਿਲਾਂ ਹੀ ਕਹਿ ਦਿੱਤਾ ਸੀ ਕਿ ਉਹ ਮੁੱਖ ਮੰਤਰੀ ਦੇ ਅਹੁਦੇ ਦੇ ਦਾਅਵੇਦਾਰ ਨਹੀਂ
ਹਨ। ਇਸ ਤੋਂ ਪਹਿਲਾਂ ਵਿਧਾਇਕ ਦਲ ਦੀ ਅੱਜ ਇੱਥੇ ਹੋਈ ਮੀਟਿੰਗ 'ਚ ਸਰਬ ਸੰਮਤੀ ਨਾਲ ਸੋਨੀਆ ਗਾਂਧੀ ਨੂੰ ਦਲ ਦਾ ਨੇਤਾ ਚੁਣਨ ਦਾ
ਅਧਿਕਾਰ ਸੋਂਪ ਦਿੱਤਾ ਸੀ। ਆਲ ਇੰਡੀਆ ਕਾਂਗਰਸ ਕਮੇਟੀ ਦੇ ਦਰਸ਼ਕ ਗੁਲਾਮ ਨਬੀ ਆਜ਼ਾਦ ਅਤੇ ਮੋਤੀ
ਲਾਲ ਵੋਰਾ ਸੀਨੀਅਰ ਕਾਂਗਰਸੀ ਲੀਡਰ ਸ਼੍ਰੀ ਕੇ. ਕਰੁਣਾਕਰਨ ਤੇ ਮੁੱਖ ਮੰਤਰੀ ਦੇ ਅਹੁਦੇ ਲਈ
ਦਾਅਵੇਦਾਰ ਕੇ. ਐਂਥਨੀ ਨਾਲ ਸਰਕਾਰੀ ਗੈਸਟ ਹਾਊਸ'ਚ ਚਲੇ ਗਏ, ਤਾਂ ਕਿ ਸ਼੍ਰੀਮਤੀ ਸੋਨੀਆ ਗਾਂਧੀ ਨਾਲ ਸੰਪਰਕ ਕੀਤਾ
ਜਾ ਸਕੇ।</p>

<p>ਸ਼੍ਰੀ
ਐਂਥਨੀ ਦੀ ਚੋਣ ਨੇ ਇਨਾਂ੍ਹ ਅਟਕਲਬਾਜ਼ੀਆਂ ਨੂੰ ਰੱਦ ਕਰ ਦਿੱਤਾ ਕਿ ਕੇਰਲ 'ਚ ਵਿਧਾਇਕ ਦਲ ਦੇ ਨੇਤਾ ਦੀ ਚੋਣ ਨੂੰ ਲੈ
ਕੇ ਕਾਂਗਰਸ ਵਰਕਿੰਗ ਕਮੇਟੀ ਦੇ 61 ਸਾਲਾ ਮੈਂਬਰ ਸ਼੍ਰੀ ਐਂਥਨੀਂ ਸੂਬੇ ਦੀ ਵਾਂਗਡੋਰ ਸੰਭਾਲਣਗੇ।
ਯੂ.ਡੀ.ਐਫ. ਦੀ ਅਗਵਾਈ ਵਾਲੇ ਫਰੰਟ ਨੂੰ ਬੁਰੀ ਤਰ੍ਹਾਂ ਮਧੋਲ ਦਿੱਤਾ। ਸ੍ਰੀ ਐਂਥਨੀ ਦੇ ਭਲਕੇ ਜਾਂ
ਪਰਸੋਂ ਮੁੱਖ ਮੰਤਰੀ ਦੇ ਅਹੁਦੇ ਦੀ ਸਹੁੰ ਚੁੱਕੇ ਜਾਣ ਦੀ ਸੰਭਾਵਨਾ ਹੈ।</p>

<p>ਜਥੇਦਾਰ ਵੇਦਾਂਤੀ ਵੱਲੋਂ ਭਾਈ ਚਤਰ ਸਿੰਘ ਜੀਵਨ ਸਿੰਘ ਦੇ ਮਾਲਕਾਂ ਨੂੰ 10-10 ਦਿਨ ਦੀ
ਤਨਖਾਹ ਲਾਈ</p>

<p>ਅਮਿੰ੍ਰਤਸਰ
: ਅਕਾਲ ਤਖਤ ਤੋਂ ਹੁਕਮਨਾਮੇ ਦੀ ਉਲੰਘਣਾ ਕਰਨ ਦੇ ਦੋਸ਼ ਵਿੱਚ ਤਨਖਾਹੀਆ ਕਰਾਰ ਦਿੱਤੇ ਗਏ ਭਾਈ
ਚਤਰ ਸਿੰਘ ਜੀਵਨ ਸਿੰਘ ਐਂਡ ਸੰਨਜ਼ ਫਰਮ ਦੇ ਮਾਲਕ ਹਰਭਜਨ ਸਿੰਘ, ਹਰਿੰਦਰਪਾਲ ਸਿੰਘ ਅਤੇ
ਮਹਿੰਦਰਪਾਲ ਸਿੰਘ ਨੂੰ ਅੱਜ ਅਕਾਲ ਤਖਤ ਦੇ ਜਥੇਦਾਰ ਗਿਆਨੀ ਜੋਗਿੰਦਰ ਸਿੰਘ ਵੇਦਾਂਤੀ ਨੇ 10 ਦਿਨ
ਦੀ ਤਨਖਾਹ (ਧਾਰਮਿਕ ਸਜ਼ਾ) ਲਗਾਈ ਅਤੇ ਹਰ ਰੋਜ਼ ਇੱਕ ਘੰਟਾ ਹਰਮਿੰਦਰ ਸਾਹਿਬ ਵਿਖੇ ਕੀਰਤਨ ਸਰਵਣ
ਕਰਨ, ਇੱਕ ਲੰਗਰ ਵਿੱਚ ਝੂਠੇ ਬਰਤਨ ਮਾਂਜਣਾ ਵੀ ਸ਼ਾਮਲ ਹੈ।</p>

<p>ਅੱਜ
ਸਵੇਰੇ ਪੰਜ ਸਿੰਘ ਸਾਹਿਬਾਨਾਂ ਦੀ ਹੋਈ ਮੀਟਿੰਗ ਵਿੱਚ ਅਕਾਲ ਤਖਤ ਤੋਂ 9 ਮਈ 1998 ਨੂੰ ਜਾਰੀ
ਹੋਏ ਹੁਕਮਨਾਮੇ, ਜਿਸ ਵਿੱਚ ਗੁਰੂ ਗ੍ਰੰਥ ਸਾਹਿਬ ਦੀ ਛਪਾਈ 'ਤੇ ਕਿਸੇ ਵੀ ਪ੍ਰਾਈਵੇਟ ਸੰਸਥਾ ਜਾਂ ਫਰਮ ਵਲੋਂ ਲਗਾਈ ਗਈ ਰੋਕ
ਦੇ ਬਾਵਜੂਦ ਭਾਈ ਜੀਵਨ ਸਿੰਘ ਚਤਰ ਸਿੰਘ ਐਂਡ ਸੰਨਜ਼ ਫਰਮ ਵਲੋਂ ਗੁਰੂ ਗ੍ਰੰਥ ਸਾਹਿਬ ਦੀ ਛਪਾਈ
ਜਾਰੀ ਰੱਖਣ ਦੇ ਦੋਸ਼ਾਂ ਤਹਿਤ ਉਪਰੋਕਤ ਸਜ਼ਾ ਸੁਣਾਈ ਗਈ।</p>

<p>ਤਨਖਾਹ 'ਚ ਭ੍ਰਿਸ਼ਟਾਚਾਰ ਦੀ ਬਦਬੂ ਆ ਰਹੀ ਹੈ : ਭਾਈ ਰਣਜ਼ੀਤ ਸਿੰਘ</p>

<p>ਅਮ੍ਰਿੰਤਸਰ
: ਅਕਾਲ ਤਖਤ ਦੇ ਸਾਬਕਾ ਜਥੇਦਾਰ ਭਾਈ ਰਣਜੀਤ ਸਿੰਘ ਨੇ ਅੱਜ ਅਕਾਲ ਤਖਤ ਤੋਂ ਭਾਈ ਚਤਰ ਸਿੰਘ
ਜੀਵਨ ਸਿੰਘ ਐਂਡ ਸੰਨਜ਼ ਦੇ ਮਾਲਕਾਂ ਨੂੰ ਲਗਾਈ ਗਈ ਤਨਖਾਹ 'ਤੇ ਤਿੱਖਾ ਪ੍ਰਤੀਕਰਮ ਪ੍ਰਗਟ ਕਰਦਿਆਂ ਕਿਹਾ ਹੈ ਕਿ ਇਸ ਲਏ ਗਏ
ਫੈਸਲੇ 'ਚੋ ਭ੍ਰਿਸ਼ਟਾਚਾਰ ਦੀ
ਬਦਬੂ ਆ ਰਹੀ ਹੈ।</p>

<p>ਅੱਜ
ਇੱਥੇ ਆਪਣੇ ਨਿਵਾਸ ਸਥਾਨ 'ਤੇ ਪੱਤਰਕਾਰਾਂ ਨਾਲ ਗੱਲਬਾਤ ਕਰਦਿਆਂ ਉਨ੍ਹਾਂ ਕਿਹਾ ਕਿ ਭਾਈ ਚਤਰ ਸਿੰਘ ਜੀਵਨ ਸਿੰਘ ਫਰਮ
ਨੂੰ ਉਨ੍ਹਾਂ ਦੇ ਸਮੇਂ ਤੋਂ ਹੀ ਤਨਖਾਹੀਆ ਕਰਾਰ ਦਿੱਤਾ ਗਿਆ ਸੀ। ਉਨ੍ਹਾਂ ਕਿਹਾ ਕਿ ਫਰਮ ਦੇ
ਮਾਲਕਾਂ ਨੂੰ ਗੁਰੂ ਗ੍ਰੰਥ ਸਾਹਿਬ ਦੇ ਅੰਗਾਂ ਦੀ ਬੇਅਦਬੀ ਕਰਨ ਦੇ ਦੋਸ਼ 'ਚ ਅਕਾਲ ਤਖਤ 'ਤੇ ਕਰੀਬ 6 ਵਾਰ ਬੁੁਲਾਇਆ ਗਿਆ, ਪਰ ਫਰਮ ਨੇ ਇਸ ਦੀ ਕੋਈ
ਪ੍ਰਵਾਹ ਨਾ ਕਰਦਿਆਂ ਬੇਅਦਬੀ ਕਰਨ ਦਾ ਕੰਮ ਜਾਰੀ ਰੱਖਿਆ। ਉਨ੍ਹਾਂ ਕਿਹਾ ਕਿ ਅਖੀਰ 25 ਜਨਵਰੀ 1999
ਨੂੰ ਫਰਮ ਦੇ ਮਾਲਕਾਂ ਨੂੰ ਤਨਖਾਹੀਆ ਕਰਾਰ ਦਿੱਤਾ ਗਿਆ ਅਤੇ ਆਪਣਾ ਪੱਖ ਪੇਸ਼ ਕਰਨ ਲਈ 11
ਫਰਵਰੀ 1999 ਦਾ ਸਮਾਂ ਦਿੱਤਾ ਗਿਆ, ਪਰ ਸੰਬੰਧਤ ਪਾਰਟੀ ਨੇ ਫਿਰ ਵੀ ਅਕਾਲ ਤਖਤ 'ਤੇ ਕੋਈ ਰਾਬਤਾ ਕਾਇਮ ਨਾ ਕੀਤਾ।</p>

<p>ਬਾਦਲ ਦੇ ਖਜ਼ਾਨੇ 'ਚ ਹੁਣ ਪੈਸਾ ਕਿਥੋ ਆ
ਗਿਆ : ਉਮਰਾਓ ਸਿੰਘ</p>

<p>ਸਿੱਧਵਾਂ
ਦੋਨਾ : " ਪੰਜਾਬ ਦੇ ਮੁੱਖਮੰਤਰੀ ਸ਼੍ਰੀ ਪ੍ਰਕਾਸ਼ ਸਿੰਘ ਬਾਦਲ ਪਿਛਲੇ 4 ਸਾਲਾਂ ' ਚ ਇਹੀ ਕਹਿੰਦੇ ਰਹੇ ਕਿ ਕਾਂਗਰਸ ਨੁੇ
ਖਜ਼ਾਨੇ ਨੂੰ ਖਾਲੀ ਕਰ ਦਿੱਤਾ ਹੈ, ਸਾਡੇ ਖਜ਼ਾਨੇ 'ਚ ਪੈਸੇ ਨਹੀਂ ਹਨ, ਪਰ ਹੁਣ ਜਦੋਂ ਉਨ੍ਹਾਂ ਦੇ ਰਾਜ ਕਾਲ ਦਾ
ਸਿਰਫ ਇੱਕ ਸਾਲ ਹੀ ਬਾਕੀ ਰਹਿ ਗਿਆ ਤੇ ਇਸ ਸਾਲ ਨੂੰ ਵਿਕਾਸ ਦਾ ਸਾਲ ਘੋਸ਼ਿਤ ਕੀਤਾ ਗਿਆ ਹੈ
ਤਾਂ ਹੁਣ ਪੈਸਾ ਕਿਥੋਂ ਆਇਆ ਹੈ"</p>

<p>ਉਪਰੋਕਤ
ਵਿਚਾਰ ਸ੍ਰੀ ਓਮਰਾਓ ਸਿੰਘ ਸਾਬਕਾ ਐਮ.ਪੀ. ਨੇ ਇਥੋਂ 7 ਕਿਲੋਮੀਟਰ ਦੂਰ ਧਿੰਜਣ ਇੰਜੀਨੀਅਰਿੰਗ
ਪ੍ਰਾਈਵੇਟ ਲਿਮਟੇਡ ਦੇ ਵਿਹੜੇ ਵਿਖੇ ਇੱਕ ਸਨਮਾਨ ਸਮਾਰੋਹ ਦੌਰਾਨ ਇੱਕ ਭਾਰੀ ਇੱਕਠ ਨੂੰ
ਸੰਬੋਧਨ ਕਰਦਿਆਂ ਪ੍ਰਗਟ ਕੀਤੇ। ਸ੍ਰੀ ਓਮਰਾਓ ਸਿੰਘ ਨੇ ਕਿਹਾ ਕਿ ਸਰਕਾਰ ਨੇ ਥਾਣੇ ਸਾਡੀ ਰਾਖੀ ਲਈ
ਬਣਾਏ ਹਨ, ਪਰ ਹੁਣ ਥਾਣਿਆਂ 'ਚ ਵੀ ਕਤਲ ਹੋ ਰਹੇ ਹਨ। ਇਨ੍ਹਾਂ ਕਤਲਾਂ 'ਚ ਕਥਿਤ ਆਗੂਆਂ ਦਾ ਹੱਥ ਹੈ। ਉਨ੍ਹਾਂ ਕਿਹਾ ਕਿ ਮੈਂ ਪੰਜਾਬ 'ਚ ਕਈ ਵਾਰੀ ਐਮ.ਐਲ.ਏ. ਕਈ ਵਾਰੀ
ਮੰਤਰੀ ਤੇ ਮੈੰਂਬਰ ਪਾਰਲੀਮੈਂਟ ਰਹਿ ਚੁੱਕਾ ਹਾਂ, ਪਰ ਬਾਦਲ ਸਾਹਿਬ ਮੇਰੇ 'ਤੇ ਕੁਰੱਪਸ਼ਨ ਦਾ ਕੋਈ ਇੱਕ ਵੀ ਦੋਸ਼
ਸਾਬਤ ਕਰਕੇ ਦਿਖਾਉਣ। ਉਨ੍ਹਾਂ ਕਿਹਾ ਕਾਂਗਰਸ ਨੇ ਪੰਜਾਬ ਅੰਦਰ ਬੜੀ ਮੁਸ਼ਕਲ ਨਾਲ ਅਮਨ ਸ਼ਾਂਤੀ ਲਿਆਂਦੀ
ਹੈ, ਪਰ ਅਕਾਲੀ ਭਾਜਪਾ ਦੀ ਸਾਂਝੀ ਸਰਕਾਰ ਪੰਜਾਬ ਦਾ ਮਾਹੌਲ ਫਿਰ ਖਰਾਬ ਕਰ ਰਹੀ ਹੈ। ਉਨ੍ਹਾਂ ਕਿਹਾ
ਕਿ ਜੇ ਬਾਦਲ ਸਾਹਿਬ ਇਸ ਸਾਲ ਨੂੰ ਵਿਕਾਸ ਦਾ ਸਾਲ ਮਨਾ ਰਹੇ ਹਨ ਤਾਂ ਕੀ ਪਿਛਲੇ ਸਾਲ ਉਨ੍ਹਾਂ
ਸਰਬਨਾਮੇ ਦੇ ਸਾਲ ਵਜੋਂ ਮਨਾਏ ਹਨ, ਕਿਉਂਕਿ ਪਿਛਲੇ ਚਾਰ ਸਾਲਾਂ 'ਚ ਕੋਈ ਵੀ ਵਿਕਾਸ ਦਾ ਕੰਮ ਨਹੀਂ ਕੀਤਾ।</p>

<p>ਇਸ
ਮੌਕੇ ਸ਼੍ਰੀ ਮਲਵਿੰਦਰ ਸਿੰਘ ਚਾਹਲ, ਸ੍ਰੀ ਰਾਜਨਵੀਰ ਸਿੰਘ ਬਜ਼ੁਰਗ ਕਾਂਗਰਸੀ ਆਗੂ ਸ੍ਰੀ ਮਿਲਖੀ ਰਾਮ
ਰਤਨ, ਸ਼੍ਰੀ ਤਰਲੋਚਨ ਸਿੰਘ ਧਿੰਜਣ ਆਦਿ ਹਾਣਤ ਸਨ।</p>

<p>ਬਾਦਲ ਦਾ ਹਸ਼ਰ ਵੀ ਕਰੁਣਾਨਿਧੀ, ਮਹੰਤਾ ਤੇ ਮਮਤਾ ਵਰਗਾ ਹੋਵੇਗਾ : ਟੌਹੜਾ</p>

<p>ਬਠਿੰਡਾ
: ਆਰ.ਐਸ.ਐਸ. ਦੇ ਮੋਹਰੇ ਵਜੋਂ ਸ਼੍ਰੀ ਪ੍ਰਕਾਸ਼ ਸਿੰਘ ਬਾਦਲ ਨਾ ਸਿਰਫ ਸੰਘ ਪਰਿਵਾਰ ਦੇ ਗੁਪਤ
ਏਜੰਡੇ ਨੂੰ ਸਰਗਰਮੀ ਨਾਲ ਲਾਗੂ ਕਰ ਰਹੇ ਹਨ, ਸਗੋਂ ਪੰਜਾਬ ਸਰਕਾਰ, ਸ਼੍ਰੋਮਣੀ ਗੁਰਦੁਆਰਾ ਪ੍ਰਬੰਧਕ
ਕਮੇਟੀ ਅਤੇ ਸ਼੍ਰੀ ਅਕਾਲ ਤਖਤ 'ਤੇ ਏਕਾ ਅਧਿਕਾਰ ਸਥਾਪਿਤ ਕਰਨ ਦੇ ਬਾਵਜੂਦ ਤਾਂਤਰਿਕਾਂ ਦੀ ਸਲਾਹ ਮੁਤਾਬਕ ਆਪਣੇ ਘਰ ਵਿੱਚ
ਹਵਨ ਕਰਵਾ ਕੇ ਬਾਦਲ ਪਰਿਵਾਰ ਨੇ ਹੁਣ ਸਿੱਖੀ ਸਿਧਾਂਤਾਂ ਤੇ ਅਕਾਲੀ ਪਰੰਪਰਾਵਾਂ ਨੂੰ ਮੁਕੰਮਲ ਤੌਰ'ਤੇ ਠੇਸ ਤੋੰ ਨਾਬੂਦ ਕਰਨ ਦਾ ਰਾਹ ਅਪਣਾ
ਲਿਆ ਹੈ। ਇਹ ਦੋਸ਼ ਸਰਬ ਹਿੰਦ ਸ਼੍ਰੋਮਣੀ ਅਕਾਲੀ ਦਲ ਦੇ ਪ੍ਰਧਾਨ ਜ: ਗੁਰਚਰਨ ਸਿੰਘ ਟੌਹੜਾ ਨੇ ਅੱਜ
ਇੱਥੇ ਪ੍ਰੈਸ ਕਾਨਫਰੰਸ ਦੌਰਾਨ ਲਾਏ।</p>

<p>ਜ:
ਟੌਹੜਾ ਨੇ ਦੱਸਿਆ ਕਿ ਅਕਾਲੀ ਦਲ ਦੀ ਮੈਂਬਰੀ ਹਾਸਲ ਕਰਨ ਵਾਸਤੇ ਹਰ ਵਿਅਕਤੀ ਨੂੰ ਇਹ ਪ੍ਰਣ ਪੱਤਰ
ਭਰਨਾ ਪੈਂਦਾ ਹੈ ਕਿ ਉਹ ਸ੍ਰੀ ਗੁਰੂ ਗੰ੍ਰਥ ਸਾਹਿਵਬ ਤੋਂ ਬਿਨਾਂ ਹੋਰ ਕਿਸੇ ਮੂਹਰੇ ਸਿਰ ਨਹੀਂ
ਝੁਕਾਵੇਗਾ। ਬੇਸ਼ੱਕ ਸਿੱਖ ਧਰਮ ਦੂਜੇ ਸਾਰੇ ਧਰਮਾਂ ਦਾ ਸਤਿਕਾਰ ਕਰਨ ਦੀ ਇਜ਼ਾਜਤ ਦਿੰਦਾ ਹੈ, ਪ੍ਰੰਤੂ
ਮੁੱਖ ਮੰਤਰੀ ਸ਼੍ਰੀ ਬਾਦਲ ਨੇ ਪਹਿਲਾਂ ਲੁਧਿਆਣਾ ਵਿਖੇ ਚੰਦਰਾਸੁਆਮੀ ਤੋਂ ਆਪਣੇ ਇੱਕ ਵਿਸ਼ਵਾਸ
ਪਾਤਰ ਦੇ ਘਰ ਹਵਨ ਕਰਵਾ ਕੇ ਸਿੱਖੀ ਦੀਆਂ ਸ਼ਾਨਦਾਰ ਪਰੰਪਰਾਵਾਂ ਨੂੰ ਮਿੱਟੀ ਵਿੱਚ ਰੋਲਿਆ ਅਤੇ ਹੁਣ
ਉਨ੍ਹਾਂ ਦੀ ਧਰਮ ਪਤਨੀ ਨੇ ਆਪਣੇ ਘਰ ਵਿੱਚ ਹਵਨ ਕਰਵਾ ਕੇ ਸਿੱਖ ਗੁਰੂ ਸਾਹਿਬਾਨ ਦੇ ਗੋਰਵਸ਼ਾਲੀ
ਉਪਦੇਸ਼ਾਂ ਨੂੰ ਚਕਨਾਚੂਰ ਕਰ ਦਿੱਤਾ ਹੈ। ਅਜਿਹੇ ਵਰਤਾਰੇ 'ਤੇ ਤਿੱਖੀ ਟਿੱਪਣੀ ਕਰਦਿਆਂ ਜ. ਟੌਹੜਾ ਨੇ ਕਿਹਾ ਕਿ ਅਥਾਹ
ਸ਼ਕਤੀਆਂ ਦਾ ਮਾਲਕ ਬਾਦਲ ਪਰਿਵਾਰ ਸ਼ਾਇਦ ਹੁਣ ਇੰਦਰ ਦਾ ਸਿੰਘਾਸਣ ਪ੍ਰਾਪਤ ਕਰਨ ਲਈ ਰਹਿੰਦੇ
ਖੂੰਹਦੇ ਸਿਧਾਂਤਾਂ ਤੇ ਸਿੱਖ ਪਰੰਪਰਾਵਾਂ ਨੂੰ ਤਬਾਹ ਕਰ ਤੇ ਤੁਲਿਆ ਹੋਇਆ ਹੈ। ਜ. ਟੌਹੜਾ ਅਨੁਸਾਰ
ਇਹੀ ਕਾਰਨ ਹੈ ਕਿ ਉਨ੍ਹਾਂ ਦੇ ਦਲ ਨੇ ਬਾਦਲ ਦੀ ਪਾਰਟੀ ਨੂੰ ਅਕਾਲੀ ਦਲ ਦੀ ਬਜਾਏ ਹੁਣ ਬਾਦਲ ਦਲ
ਕਹਿਣ ਦਾ ਫੈਸਲਾ ਕੀਤਾ ਹੈ।</p>

<p>ਕਤਲ ਦੇ ਦੋਸ਼ੀ ਨੰੂ ਪੁਲਸ ਨੇ ਤੁਰਨ ਫਿਰਨ ਜੋਗਾ ਵੀ ਨਹੀ ਛੱਡਿਆ</p>

<p>ਅੰਮ੍ਰਿਤਸਰ
: ਪੁਲਸ ਵਹਿਸ਼ੀਪੁਣੇ ਦੇ ਇਕ ਹੋਰ ਕੇਸ ਵਿਚ ਮਜੀਠਾ ਪੁਲਸ 'ਤੇ ਹਜੂਰ ਸਿੰਘ ਨੰੂ ਤਸੀਹੇ ਦੇਣ ਦਾ ਦੋਸ਼ ਲਾਇਆ ਗਿਆ ਹੈ ,
ਜਿਸ ਨੰੂ ਕਿ ਕਤਲ ਦੇ ਕੇਸ ਵਿਚ ਗ੍ਰਿਫਤਾਰ ਕੀਤਾ ਗਿਆ ਹੈ।ਇਹਨਾਂ ਤਸੀਹਿਆਂ ਕਾਰਨ ਉਹ ਗੰਭੀਰ
ਰੂਪ ਵਿਚ ਜਖਮੀ ਹੋ ਗਿਆ ਹੈ । ਹਜੂਰ ਸਿੰਘ ਨੰੂ ਜੰਡਿਆਲਾ ਦੇ ਐਸ.ਐਚ.ਓ.ਬਲਬੀਰ ਸਿੰਘ ਨੇ
ਉਸੇ ਪਿੰਡ ਦੇ ਦੇਸਾ ਸਿੰਘ ਦੇ ਕਤਲ ਦੇ ਸੰਬੰਧ ਵਿਚ 30 ਅਪ੍ਰੈਲ ਨੰੂ ਧੂਲਕੇ ਪਿੰਡ ਵਿਚ ਚੁੱਕ
ਲਿਆ ਸੀ । ਉਸ ਨੰੁ ਫਿਰ ਕਥਿਤ ਤੌਰ ਤੇ ਸੱਤ ਦਿਨਾ ਲਈ ਗੈਰ-ਕਾਨੰੂਨੀ ਤੌਰ ਤੇ ਪੁਲਸ ਹਿਰਾਸਤ
ਵਿਚ ਰਖਿਆ ਗਿਆ ਅਤੇ ਪੁਲਸ ਵਲੋ ਉਸ ਦਾ ਰਿਮਾਂਡ ਲੈਣ ਤੋ ਪਹਿਲਾਂ ਉਸ ਨੰੁ ਸੱਤ ਦਿਨਾ ਤੱਕ
ਤਸੀਹੇ ਦਿੱਤੇ ਗਏ । ਮੁੱਢਲੀ ਪੁੱਛਗਿੱਛ ਦੌਰਾਨ ਪੁਲਿਸ ਨੇ ਕਥਿਤ ਤੌਰ ਤੇ ਹਜੂਰ ਸਿੰਘ ਨੰੂ ਫਿਰ
ਤਸੀਹੇ ਦਿੱਤੇ ,ਜਿਸ ਕਾਰਨ ਉਹ ਤੁਰਨ ਫਿਰਨ ਦੇ ਵੀ ਕਾਬਲ ਨਾ ਰਿਹਾ । ਪੁਲਸ ਰਿਮਾਂਡ ਖਤਮ ਹੋਣ
ਪਿੱਛੋ ਹਜੂਰ ਸਿੰਘ ਨੰੂ 12 ਮਈ ਵਾਲੇ ਦਿਨ ਬਹੁਤ ਹੀ ਗੰਭੀਰ ਹਾਲਤ ਵਿਚ ਅੰਮ੍ਰਿਤਸਰ ਦੀ ਕੇਦਂਰੀ
ਜੇਲ ਵਿਚ ਢੱਕ ਦਿੱਤਾ ਗਿਆ ।ਅਗਲੇ ਦਿਨ ਰੋਟੀਨ ਤੌਰ ਤੇ ਆਏ ਜੇਲ ਦੇ ਡਾਕਟਰ ਨੇ ਸਿਫਾਰਸ਼ ਕੀਤੀ
ਕਿ ਉਸ ਨੰੂ ਫੋਰੀ ਗੁਰੀ ਨਾਨਕ ਹਸਪਤਾਲ ਭੇਜਿਆ ਜਾਵੇ ਜਦੋ ਪੱਤਰਕਾਰਾਂ ਦੀ ਇਕ ਟੋਲੀ ਨੇ ਗੁਰੂ
ਨਾਨਕ ਹਸਪਤਾਲ ਦੇ ਐਮਰਜੈਂਸੀ ਵਾਰਡ ਦਾ ਦੌਰਾ ਕੀਤਾ ਤਾਂ ਪਤਰਕਾਰਾ ਨੇ ਦੇਖਿਆਂ ਕਿ ਹਜੂਰ ਸਿੰਘ
ਅਰਧ ਬੇਹੋਸ਼ੀ ਦੀ ਹਾਲਤ ਵਿਚ ਪਿਆ ਹੋਇਆ ਹੈ । ਡਿਊਟੀ ਤੇ ਹਾਜਰ ਡਾਕਟਰਾਂ ਦਾ ਕਹਿਣਾ ਹੈ ਕਿ
ਉਸ ਦੀ ਇਹ ਹਾਲਤ ਭਾਰੀ ਤਸੀਹੇ ਦੇਣ ਕਾਰਨ ਹੋਈ ਹੈ । ਡਾਕਟਰ ਦਾ ਕਹਿਣਾ ਹੈ ਕਿ ਇੰਝ ਜਾਪਦਾ
ਹੈ ਕਿ ਜਿਵੇ ਕੋਈ ਉਬਲਦਾ-ਉਬਲਦਾ ਪਦਾਰਥ ਉਸ ਦੇ ਪੈਰਾ ਤੇ ਪਾ ਦਿੱਤਾ ਗਿਆਂ ਹੋਵੇ ਕਿਉਂਕਿ
ਇਹ ਬਹੁਤ ਜ਼ਿਆਦਾ ਸੁੱਜੇੇ ਹੋਏ ਹਨ, ਤੇ ਇਨ੍ਹਾਂ ਉਤੇ ਛਾਲਿਆ ਦੇ ਨਿਸ਼ਾਨ ਹਨ । ਇਸ ਡਾਕਟਰ ਦਾ
ਅੱਗੇ ਕਹਿਣਾ ਹੈ ਕਿ ਹਜੂਰ ਸਿੰਘ ਨੰੂ ਠੀਕ ਹੋਣ ਨੰੂ ਘੱਟੋ ਘੱਟ 25 ਦਿਨ ਲਗੱਣਗੇ । ਆਪਣੀ ਕਮਜੋਰ
ਅਵਾਜ ਵਿਚ ਪੁਲਸ ਦੀ ਵਹਿਸ਼ੀਪੁਣੇ ਦੀ ਕਹਾਣੀ ਸੁਣਾਉਂਦਿਆਂ ਹਜੂਰ ਸਿੰਘ ਨੇ ਕਿਹਾ,"ਤੀਹ
ਅਪ੍ਰੈਲ ਨੰੂ ਮੇਰੇ ਪਿੰਡ ਪੁਲਸ ਦੁਆਰਾ ਮੈਨੰੂ ਚੁੱਕ ਲੈਣ ਪਿੱਛੋ ਮੈਨੰੂ ਜੰਡਿਆਲਾ ਪੁਲਸ ਸਟੇਸ਼ਨ
ਲਿਜਾਇਆ ਗਿਆ, ਜਿਥੇ ਮੈਨੰੂ ਭਾਰੀ ਤਸੀਹੇ ਦਿੱਤੇ ਗਏ । ਇਸ ਪਿੱਛੋ ਬੁੰਡਾਲਾ ਪੁਲਸ ਚੌਕੀ
ਲਿਜਾਇਆਂ ਗਿਆਂ ਜਿਥੇ ਮੈਨੰੂ ਸਬ ਇੰਸਪੈਕਟਰ ਬਲਕਾਰ ਸਿੰਘ ਦੀ ਨਿਗਰਾਨੀ ਹੇਠ ਰਖਿੱਆ ਗਿਆ
ਇਥੇ ਮੈਨੰੂ ਉਦੋ ਤੱਕ ਲੋਹੇ ਦੀਆ ਸੀਖਾ ਨਾਲ ਕੁਟਿਆਂ-ਮਾਰਿਆਂ ਗਿਆ ਜਿਦੋ ਤੱਕ ਮੈ ਬੇਹਸ਼ ਨਹੀ
ਹੋ ਗਿਆ। ਇਸ ਪਿੱਛੋ ਮੈਨੰੂ ਇਕ ਹੋਰ ਪੁਲਸ ਪਾਰਟੀ ਮਜੀਠਾ ਸੀ.ਆਈ.ਏ.ਸਟਾਫ ਕੋਲ ਲੈ ਗਈ ।
ਮੈਨੰੂ ਨੰਗੇ ਪੈਰੀ ਜਲਦੇ ਹੋਏ ਕੋਲਿਆ ਉੱਤੇ ਤੁਰਨ ਲਈ ਮਜਬੂਰ ਕੀਤਾ ਗਿਆ ।" ਜਦੋ ਸਬ
ਇੰਸਪੈਕਟਰ ਬਲਕਾਰ ਸਿੰਘ ਨਾਲ ਸੰਪਰਕ ਕਾਇਮ ਕੀਤਾ ਗਿਆ ਤਾਂ ਉਸ ਨੇ ਇਸ ਗੱਲ ਦੀ ਪੁਸਟੀ ਕੀਤੀ
ਕਿਹਜੂਰ ਸਿੰਘ ਨੰੂ ਗ੍ਰਿਫਤਾਰ ਕੀਤਾ ਗਿਆ ਸੀ , ਪਰ ਉਸ ਦੇ ਤਸੀਹੇ ਦੇਣ ਬਾਰੇ ਅਗਿਆਨਤਾ ਪ੍ਰਗਟ
ਕੀਤੀ । ਐਸ.ਐਚ.ਓ. ਨੇ ਕਿਹਾ," ਅਸੀ ਹਜੂਰ ਸਿੰਘ ਨੰੂ ਤਸੀਹੇ ਨਹੀ ਦਿਤੇ ।ਉਸ ਨੰੂ
ਐਸ.ਪੀ.ਸੀ.ਆਈ.ਏ.ਸਟਾਫ ਲੈ ਗਿਆ ਸੀ ਜਿਥੱੇ ਉਸ ਤੋ ਪੁਛੱਗਿੱਛ ਕੀਤੀ ਗਈ । ਪਰ
ਐਸ.ਪੀ.ਸ੍ਰੀ.ਬੀ.ਐਸ.ਖੇੜਾ ਨਾਲ ਪਤੱਰਕਾਰ ਸੰਪਰਕ ਨਾ ਕਰ ਸਕੇ, ਭਾਵੇ ਕਿ ਉਨ੍ਹਾ ਇਸ ਉਦੇਸ਼ ਲਈ
ਪੂਰੀ ਵਾਹ ਲਾ ਦਿੱਤੀ ।</p>

<p>ਸਿੱਖਿਆ ਮੰਤਰੀ ਦੇ ਸਮਾਗਮ 'ਚ ਟੌਹੜਾ ਧੜੇ ਦੀ ਹਾਜ਼ਰੀ
ਚਰਚਾ ਦਾ ਵਿਸ਼ਾ ਬਣੀ</p>

<p>ਫਤਿਹਗੜ੍ਹ
ਸਾਹਿਬ : ਪੰਜਾਬ ਦੇ ਸਿੱਖਿਆ ਮੰਤਰੀ ਜਥੇਦਾਰ ਤੋਤਾ ਸਿੰਘ ਦੀ ਇਸ ਜਿਲ੍ਹੇ ਵਿਚ ਦੋ ਪਿੰਡਾ ਚਲੈਲਾ
ਅਤੇ ਚਨਾਰਥਲ ਦੀ ਫੇਰੀ ਸਮੇਂ ਸਰਬ ਹਿੰਦ ਅਕਾਲੀ ਦਲ ਦੇ ਨੇਤਾਵਾ ਵਲੋ ਖੁੱਲ ਕੇ ਸਟੇਜ ਉੱਪਰ ਬੈਠ
ਕੇ ਉਸ ਦੇ ਪ੍ਰੋਗਰਾਮਾ ਵਿਚ ਸ਼ਾਮਲ ਹੋਣ ਦੇ ਮਾਮਲੇ ਨੰੂ ਲੈ ਕੇ ਅਕਾਲੀ ਹਲਕਿਆ ਵਿਚ ਭਾਰੀ ਚਰਚਾ
ਹੈ । ਪਿੰਡ ਚਨਰਾਥਲ ਦੇ ਸਮਾਗਮ ਦੌਰਾਨ ਸਰਬ ਹਿੰਦ ਅਕਾਲੀ ਦਲ ਦੇ ਪ੍ਰਧਾਨ ਜਥੇਦਾਰ ਗੁਰਚਰਨ ਸਿੰਘ
ਟੌਹੜਾ ਦੇ ਨਿਕਟਵਰਤੀ ਪਿੰਡ ਦੇ ਸਰਪੰਚ ਅਤੇ ਮਾਰਕੀਟ ਕਮੇਟੀ ਚਨਾਰਥਲ ਦੇ ਚੇਅਰਮੈਨ ਹਰਭਜਨ ਸਿੰਘ
ਨੇ ਸਮਾਗਮ ਦੌਰਾਨ ਜਥੇਦਾਰ ਤੋਤਾ ਸਿੰਘ ਦਾ ਵਿਸ਼ੇਸ਼ ਤੋਰ ਤੇ ਸਨਮਾਨ ਕੀਤਾ ਜਦੋ ਕਿ ਸਮਾਗਮ ਖਤਮ ਹੋਣ
ਤੋ ਬਾਅਦ ਅਕਾਲੀ ਦਲ ਦੇ ਸਮਰਥਕਾਂ ਨੇ ਮੁੜ ਸਿਖਿੱਆ ਮੰਤਰੀ ਨੰੂ ਸਨਮਾਨ ਦਿੱਤਾ । ਸਟੇਜ ਉਪਰ ਉਸ
ਸਮੇਂ ਜਬਰਦਸਤ ਟਕਰਾ ਵਾਲੀ ਸਥਿਤੀ ਪੈਦਾ ਹੋ ਗਈ ਜਦੋ ਇਕ ਨੇਤਾ ਨੇ ਸਟੇਜ ਤੋ ਬੋਲ ਦਿਤਾ ਚਨਾਰਥਲ
ਹਾਈ ਸਕੂਲ ਨੰੂ ਅਪਗਰੇਡ ਕਰਨ ਲਈ ਜਥੇਦਾਰ ਟੌਹੜਾ ਨੇ ਸਿਫਾਰਿਸ਼ ਕੀਤੀ ਸੀ ਤਾਂ ਵਿਚਾਲੇ ਹੀ ਉਠ ਕੇ
ਹਲਕਾ ਵਿਧਾਇਕ ਬਲਵੰਤ ਸਿੰਘ ਸ਼ਕਾਹਪੂਰ ਨੇ ਕਿਹਾ ਕਿ ਉਨਾਂ ਨੇ ਸਿਫਾਰਸ਼ ਕਰਕੇ ਇਹ ਸਕੂਲ ਅਗਰੇਡ
ਕਰਵਾਇਆ ਹੈ ਜਦੋ ਕਿ ਸਿੱਖਿਆਂ ਮੰਤਰੀ ਨੇ ਆਪਣੇ ਭਾਸ਼ਨ ਵਿਚ ਮੁੜ ਇਹ ਗੱਲ ਕਹਿ ਦਿੱਤੀ ਕਿ 3
ਸਾਲ ਪਹਿਲਾਂ ਜਥੇਦਾਰ ਟੌਹੜਾ ਨੇ ਇਹ ਸਕੂਲ ਅਪਗਰੇਡ ਕਰਨ ਦੀ ਸਿਫਾਰਸ਼ ਕੀਤੀ ਸੀ । ਸਮਾਗਮ ਦੌਰਾਨ
ਜਥੇਦਾਰ ਟੌਹੜਾ ਨੇ ਨਿਕਟ ਸਮਝੇ ਜਾਂਦੇ ਸਾਬਕਾ ਵਿਧਾਇਕ ਕ੍ਰਿਪਾਲ ਸਿੰਘ ਲੀਬੜਾ ਅਤੇ ਲੈਂਡ
ਮਾਰਗੇਜਬੈਂਕ ਸਰਹਿੰਦ ਦੇ ਚੈਅਰਮੈਨ ਹਰਮਿੰਦਰ ਸਿੰਘ ਹਰਜੀ ਦੀ ਸਟੇਜ ਉਪਰ ਬੈਠੇ ਸਨ ਜਦੋ ਕਿ
ਅਕਾਲੀ ਦਲ ਦੇ ਸੀਨੀਅਰ ਅਕਾਲੀ ਆਗੂ ਜਥੇਦਾਰ ਅਮਰ ਸਿੰਘ ਨਲੀਨੀ ਲਾਲ ਸਿੰਘ ਰਜਵਾੜਾ ਅਵਤਾਰ ਸਿੰਘ
ਭੱਲਮਾਜਰਾ ਹਰਨੇਕ ਸਿੰਘ ਬਡਾਲੀ ਪੰਜਾਬ ਸਟੇਟ ਕਰਮਚਾਰੀ ਸੂਬਾ ਪ੍ਰਧਾਨ ਹਰੀ ਸਿੰਘ ਟੌਹੜਾ ਅਤੇ
ਦਿਲਬਾਗ ਸਿੰਘ ਬਾਘਾ ਵੀ ਮੌਜੂਦ ਸਨ । ਇਸ ਮੌਕੇ 'ਤੇ ਜਥੇਦਾਰ ਤੋਤਾ ਸਿੰਘ ਨੇ ਦੱਸਿਆ ਕਿ ਪੰਜਾਬ ਦੇ ਕੁੱਲ
ਮੁਲਾਜ਼ਮਾ ਦੇ ਬਜਟ ਦਾ ਚੌਥਾ ਹਿੱਸਾ ਭਾਵ 2100 ਕਰੌੜ ਰੁਪਏ ਸਰਕਾਰੀ ਅਧਿਕਾਰੀਆਂ ਦੀਆਂ ਤਨਖਾਂਹਾ
ਤੇ ਖਰਚ ਹੁੰਦਾ ਹੈ । ਉਨ੍ਹਾਂ ਦੁੱਖ ਪ੍ਰਗਟ ਕੀਤਾ ਕਿ ਇਸ ਦੇ ਬਾਵਜੂਦ ਨਤੀਜੇ ਉਨੇ ਸਾਰਥਕ ਨਹੀ ਹਨ
ਜਿੰਨੇ ਮਿਲਣੇ ਚਾਹੀਦੇ ਹਨ । ਜਿਸ ਕਰਕੇ ਲੋਕ ਸਰਕਾਰੀ ਸਕੂਲਾਂ ਦੀ ਥਾਂ ਪ੍ਰਾਇਵੇਟ ਸਕੂਲਾਂ ਨੰੂ
ਤਰਜੀਹ ਦੇ ਰਹੇ ਹਨ । ਉਨਾਂ ਦਸਿਆਂ ਕਿ ਸਿੱਖਿਆਂ ਦਾ ਮਿਆਰ ਉਚੱਾ ਕਰਨ ਲਈ ਹੀ ਪੰਜਾਬ ਵਿਚ
1404 ਸਕੂਲ ਅਪਗਰੇਡ ਕਰਨ ਦੇ ਨਾਲ ਨਾਲ ਅਧਿਆਪਕਾਂ ਦੀਆ ਅਸਾਮੀਆ ਦੀ ਮਨਜੂਰੀ ਵੀ ਨਾਲ ਦਿੱਤੀ
ਗਈ ਹੈ । ਉਨ੍ਹਾ ਦਸਿੱਆ ਕਿ ਸਰਕਾਰ ਸਕੂਲਾਂ ਦੀਆਂ ਇਮਾਰਤਾਂ ਦੇ ਸੁਧਾਰ ਲਈ ਇਸ ਸਾਲ 50 ਕਰੌੜ
ਰੁਪਰੇ ਖਰਚ ਕਰੇਗੀ ਜਦ ਕਿ ਪਿਛੱਲੇ ਸਾਲ 30 ਕਰੌੜ ਰੁਪਏ ਖਰਚ ਕੀਤੇ ਗਏ ਸਨ। ਉਨ੍ਹਾਂ ਪਿੰਡ
ਚਨਾਰਥਲ ਦੇ ਸਕੂਲ ਨੂੰ ਦੋ ਲੱਖ ਰੁਪਏ ਗ੍ਰਾਂਟ ਦੇਣ ਦਾ ਐਲਾਨ ਕੀਤਾ। ਅਮਲੋਹ ਵਿਧਾਨਸਭਾ ਹਲਕੇ ਦੇ
ਹੀ ਪਿੰਡ ਚਲੈਲਾ ਵਿਚ ਵੀ ਉਨਾਂ੍ਹ ਮੈਟ੍ਰਿਕ ਤੋਂ ਜਮਾਂ 2 ਸਕੂਲ ਕਰਨ ਦਾ ਉਦਘਾਟਨ ਕੀਤਾ। ਇਸ ਮੌਕੇ 'ਤੇ ਹਲਕਾ ਵਿਧਾਇਕ ਬਲਵੰਤ ਸਿੰਘ ਸ਼ਾਹਪੁਰ
ਨੇ ਕਿਹਾ ਕਿ ਸਿੱਖਿਆ ਪ੍ਰਣਾਲੀ ਨੂੰ ਸਹੀ ਸੇਧ ਮਿਲਣ ਦੇ ਨਾਲ ਨਾਲ ਇਸ ਖੇਤਰ ਵਿਚ ਚੰਗਾ ਸੁਧਾਰ
ਆਇਆ ਹੇ।</p>

<p>ਸਕੂਲਾਂ
ਵਿਚ ਸਮੇਂ ਦੀ ਪਾਬੰਦੀ ਦੇ ਨਾਲ ਨਾਲ ਅਨੁਸ਼ਾਸ਼ਨ ਵਿਚ ਵਾਧਾ ਹੋਇਆ ਹੈ ਤਾਂ ਹੀ ਅੱਜ ਇਸ ਵਿਦਿਅਕ
ਮਿਆਰ ਨੂੰ ਉਚਾ ਕਰਨ ਲਈ ਵਾਧੂ ਫੰਡ ਦੀ ਵਿਵਸਥਾ ਬਜਟ ਵਿਚ ਰੱਖੀ ਗਈ ਹੈ।</p>

<p> </p>






</body></text></cesDoc>