<cesDoc id="pun-w-sanjh-news-01-05-17" lang="pun">
<cesHeader type="text">
<fileDesc>
<titleStmt>
<h.title>pun-w-sanjh-news-01-05-17.txt</h.title>
<respStmt>
<respType>Electronic file created by</respType>
<respName>Department of Linguistics, Lancaster University</respName>
<respType>text collected by</respType>
<respName>Paul Baker and Celia Worth</respName>
<respType>transferred into Unicode by</respType>
<respName>"Unicodify" software by Andrew Hardie</respName>
</respStmt>
</titleStmt>
<publicationStmt>
<distributor>UCREL</distributor>
<pubAddress>Department of Linguistics, Lancaster University, Lancaster, LA1 4YT, UK</pubAddress>
<availability region="WORLD"></availability>
<pubDate>03-08-23</pubDate>
</publicationStmt>
<sourceDesc>
<biblStruct>
<monogr>
<h.title>"Sanjh Savera" internet news (www.sanjhsavera.com), news stories collected on 01-05-17</h.title>
<h.author>Sanjh Savera</h.author>
<imprint>
<pubPlace>Ontario, Canada</pubPlace>
<publisher>Sanjh Savera</publisher>
<pubDate>01-05-17</pubDate>
</imprint>
</monogr>
</biblStruct>
</sourceDesc>
</fileDesc>
<encodingDesc>
<projectDesc>Text collected for use in the EMILLE project.</projectDesc>
<samplingDesc>Simple written text only has been transcribed. Diagrams, pictures and tables have been omitted and their place marked with a gap element.
</samplingDesc>
<editorialDecl>
<conformance level="1"></conformance>
</editorialDecl>
</encodingDesc>
<profileDesc>
<creation>
<date>03-08-23</date>
</creation>
<langUsage>Punjabi</langUsage>
<wsdUsage>
<writingSystem id="ISO/IEC 10646">Universal Multiple-Octet Coded Character Set (UCS).</writingSystem>
</wsdUsage>
<textClass>
<channel mode="w">print</channel>
<constitution type="composite"></constitution>
<domain type="public"></domain>
<factuality type="fact"></factuality>
</textClass>
<translations></translations>
</profileDesc>
<revisionDesc></revisionDesc>
</cesHeader>

<text>
<body>




<p>ਬ੍ਰਿਟਿਸ਼ ਕੁਲੰਬੀਆ 'ਚ
ਐਨ.ਡੀ.ਪੀ. ਦਾ ਬਿਸਤਰਾ ਗੋਲ</p>

<p>ਉਜਲ ਦੁਸਾਂਝ
ਖੁਦ ਵੀ ਸੀਟ ਹਾਰੇ,  ਕਈ ਪੰਜਾਬੀ ਉਮੀਦਵਾਰ ਜਿੱਤੇ, ਦੁਸਾਂਝ ਨੇ ਪਾਰਟੀ ਲੀਡਰਸ਼ਿਪ ਤੋਂ ਅਸਤੀਫਾ ਦਿੱਤਾ !</p>

<p>
 
 
  
  
  
  
  
  
  
  
  
  
  
  
 
 
 

 
 
<gap desc="illustration"></gap>ਵੈਨਕੂਵਰ: ਬ੍ਰਿਟਿਸ਼ ਕੋਲੰਬੀਆ ਸੂਬੇ ਵਿੱਚ
ਹੋਈਆਂ ਚੋਣਾਂ ਵਿੱਚ ਉਜਲ ਦੁਸਾਂਝ ਦੀ ਅਗਵਾਈ ਵਾਲੀ ਹਾਕਮ ਪਾਰਟੀ ਮੂਧੇ ਮੂੰਹ ਡਿੱਗ ਪਈ ਹੈ 'ਤੇ
ਲਿਬਰਲ ਪਾਰਟੀ ਨੇ ਹੂੰਝਾ ਫੇਰ ਜਿੱਤ ਪ੍ਰਾਪਤ ਕੀਤੀ ਹੈ। ਲਿਬਰਲ ਆਗੂ ਗੋਰਡਨ ਕੈਂਬਲ ਬ੍ਰਿਟਿਸ਼
ਕੋਲੰਬੀਆ ਦੇ ਪ੍ਰੀਮੀਅਰ ਬਣ ਗਏ ਹਨ।</p>

<p>ਪਿਛਲੇ
14 ਮਹੀਨਿਆਂ ਤੋਂ ਪੰਜਾਬੀ ਮੂਲ ਦੇ ਸ੍ਰੀ ਉਜਲ ਦੁਸਾਂਝ ਬੀ.ਸੀ. ਦੇ 33ਵੇਂ ਪ੍ਰੀਮੀਅਰ ਸਨ। ਜਿਸ ਨੇ
ਗਲਿਨ ਕਲਾਰਕ ਦੇ ਅਸਤੀਫਾ ਦੇਣ ਤੋਂ ਬਾਅਦ ਆਰਜ਼ੀ ਪ੍ਰੀਮੀਅਰ ਡੈਨ ਮਿਲਰ ਦੀ ਜਗ੍ਹਾ ਤੇ ਐਨ. ਡੀ.
ਪੀ. ਦੀ ਰਾਤੋ ਰਾਤ 
 
 
<gap desc="illustration"></gap>ਮੈਂਬਰਸ਼ਿਪ ਸਾਈਨ ਕਰਕੇ ਲੀਡਰਸ਼ਿਪ ਹਥਿਆ
ਲਈ ਸੀ।</p>

<p>ਸ੍ਰੀ
ਉਜਲ ਦੁਸਾਂਝ ਬਤੌਰ ਪ੍ਰੀਮੀਅਰ ਪਹਿਲੀ ਵਾਰ ਆਮ ਚੋਣਾਂ ਵਿੱਚ ਹਿੱਸਾ ਲੈ ਰਹੇ ਸਨ, ਜਿਨ੍ਹਾਂ ਨੰੂ ਲੱਕ
ਤੋੜਵੀਂ ਹਾਰ ਹੋਈ ਹੈ। ਜਿਥੇ ਉਹ ਆਪਣੀ ਪਾਰਟੀ ਦਾ ਕੁੱਝ ਵੀ ਸੰਵਾਰ ਨਹੀਂ ਸਕੇ ਉਥੇ ਉਹ ਖੁਦ
ਆਪਣੀ ਸੀਟ ਵੀ ਲਿਬਰਲ ਉਮੀਦਵਾਰ ਵਿਕਟਰ ਵੌਂਗ ਨੰੂ 720 ਕੁ ਵੋਟਾਂ ਤੇ ਹਾਰ ਗਏ ਹਨ। ਇਥੇ ਇਹ
ਵਰਨਣਯੋਗ ਹੈ ਕਿ ਪੰਜਾਬੀ ਮੂਲ ਦੇ ਸਟਾਰ ਰਾਜਨੀਤਕ ਮੋਹ ਸਹੋਤਾ 'ਤੇ ਹੈਰੀ ਲਾਲੀ ਨੇ ਪਹਿਲਾਂ ਹੀ
ਦੁਸਾਂਝ ਦੀਆਂ ਨੀਤੀਆਂ ਤੋਂ ਨਾਖੁਸ਼ ਹੋ ਕੇ ਪਾਰਟੀ ਪੁਜੀਸ਼ਨਾਂ ਤੋਂ ਅਸਤੀਫੇ ਦੇ ਦਿੱਤੇ ਸਨ।</p>

<p>
 
 
<gap desc="illustration"></gap>ਇਲੈਕਸ਼ਨ ਬੀ.ਸੀ. ਅਨੁਸਾਰ ਇਨਹਾਂ ਚੋਣਾਂ
ਵਿੱਚ 2.9 ਮਿਲੀਅਨ ਵੋਟਰ ਹਿੱਸਾ ਲੈ ਸਕਦੇ ਸਨ, ਜਿਨ੍ਹਾਂ ਵਿਚੋਂ 60% ਦੇ ਕਰੀਬ ਵੋਟਰਾਂ ਨੇ ਲਿਬਰਲ
ਪਾਰਟੀ ਨੰੂ ਵੋਟ ਦੇ ਕੇ ਹਾਕਮ ਪਾਰਟੀ ਨੰੂ ਪਾਰਟੀ ਸਟੈਟਸ ਤੋਂ ਵੀ ਵਾਂਝਿਆਂ ਕਰ ਦਿੱਤਾ ਹੈ।</p>

<p>ਬੀ.ਸੀ.
ਦੀਆਂ 79 ਸੀਟਾਂ ਵਿਚੋਂ ਲਿਬਰਲ ਪਾਰਟੀ ਨੇ 76 ਸੀਟਾਂ ਤੇ ਜਿੱਤ ਪ੍ਰਾਪਤ ਕਰ ਲਈ ਹੈ ਜਦੋਂ ਕਿ
ਐਨ.ਡੀ.ਪੀ. ਸਿਰਫ 3 ਸੀਟਾਂ 
 
 
<gap desc="illustration"></gap>ਹੀ ਹਾਸਲ ਕਰ ਸਕੀ ਹੈ। ਅਸਲ ਵਿੱਚ ਇਸ
ਵਾਰ ਬ੍ਰਿਟਿਸ਼ ਕੋਲੰਬੀਆ ਦੀ ਅਸੈਂਬਲੀ ਵਿੱਚ ਵਿਰੋਧੀ ਧਿਰ ਵਜੋਂ ਹੁਣ ਮੀਡੀਆ ਹੀ ਰੋਲ ਅਦਾ
ਕਰੇਗਾ, ਕਿਉਂਕਿ ਅਸੈਂਬਲੀ ਵਿੱਚ 3 ਮੈਂਬਰਾਂ ਦੀ ਕੀ ਬੁੱਕਤ ਹੋ ਸਕਦੀ ਹੈ।।</p>

<p>ਬ੍ਰਿਟਿਸ਼
ਕੋਲੰਬੀਆ ਦੀਆਂ ਚੋਣਾਂ ਵਿੱਚ ਇੱਕ ਗੱਲ ਉਭਰ ਕੇ ਸਾਹਮਣੇ ੲਾਈ ਹੈ ਕਿ ਭਾਵੇਂ ਗਰੀਨ ਪਾਰਟੀ
ਕੋਈ ਵੀ ਸੀਟ ਜਿੱਤ ਨਹੀਂ ਸਕੀ ਪਰ ਫਿਰ ਵੀ ਗਰੀਨ ਪਾਰਟੀ ਨੇ ਐਨ. ਡੀ. ਪੀ. ਦਾ ਸਫਾਇਆ ਕਰਨ
ਵਿੱਚ ਚੋਖਾ ਯੋਗਦਾਨ ਪਾਇਆ ਹੈ। ਗਰੀਨ ਪਾਰਟੀ ਨੇ ਇਨ੍ਹਾ ਚੋਣਾਂ 'ਚ 12% ਵੋਟਾਂ ਹਾਸਲ ਕੀਤੀਆਂ ਹਨ
ਜਦੋਂ ਕਿ ਐਨ ਡੀ. ਪੀ. ਨੇ 21.27% 'ਤੇ ਲਿਬਰਲ ਪਾਰਟੀ ਨੇ 58% ਵੋਟਾਂ ਹਾਸਲ ਕੀਤੀਆਂ ਹਨ।</p>

<p>ਵਰਨਣਯੋੋਗ
ਹੈ ਕਿ ਇਨ੍ਹਾਂ ਚੋਣਾਂ ਵਿੱਚ ਕਈ ਪੰਜਾਬੀ ਉਮੀਦਵਾਰ ਮੈਦਾਨ ਵਿੱਚ ਉਤਰੇ ਸਨ ਜਿਨ੍ਹਾਂ ਵਿਚੋਂ ਲਿਬਰਲ
ਟਿਕਟ ਉਪਰ ਚੋਣਾਂ ਲੜ ਰਹੇ ਸਾਰੇ ਪੰਜਾਬੀ ਮੂਲ ਦੇ ਉਮੀਦਵਾਰ ਜਿੱਤ ਗਏ ਹਨ। ਜਿਨ੍ਹਾ ਵਿੱਚ ਪੈਟੀ
ਸਹੋਤਾ, ਟੋਨੀ ਭੁੱਲਰ, ਡੇਵ ਹੇਅਰ, ਗੁਲਜ਼ਾਰ ਚੀਮਾ 'ਤੇ ਕਰਨ ਮਨਹਾਸ ਦੇ ਨਾਮ ਵਰਨਣਯੋਗ ਹਨ। ਅਦਾਰਾ
ਸਾਂਝ ਸਵੇਰਾ ਵਲੋਂ ਅਸੀਂ ਇਨ੍ਹਾਂ ਉਮੀਦਵਾਰਾਂ ਨੰੂ ਵਧਾਈ ਦਿੰਦੇ ਹਾਂ ਜਿਨ੍ਹਾਂ ਨੇ ਆਪਣੀ ਜਾਤੀ
ਜ਼ਿੰਦਗੀ ਵਿਚੋਂ ਟਾਈਮ ਕੱਢ ਕੇ ਸਮਾਜ ਦੀ ਸੇਵਾ ਕਰਨ ਲਈ ਇਹ ਅਹਿਮ ਫੈਸਲਾ ਕੀਤਾ ਹੈ।</p>

<p>ਨਕਲੀ ਸ਼ਸਤਰ ਲਿਆ ਕੇ ਸੰਗਤ ਨਾਲ ਧੋਖਾ ਕੀਤਾ, ਲਿਆਉਣ ਵਾਲੇ ਕਬੂਤਰਾਂ ਨੇ ਉਡਾਰੀਆਂ ਲਾਈਆਂ</p>

<p>ਵੈਨਕੂਵਰ:
ਵੈਸਾਖੀ ਦੇ ਨਗਰ ਕੀਰਤਨ ਤੇ ਕੁਰਸੀਆਂ ਵਾਲੀ ਧਿਰ ਨੇ ਸੰਗਤ ਨੰੂ ਉਤਸ਼ਾਹਤ ਕਰਨ ਲਈ ਪਿਛਲੇ ਸਾਲ
ਦੀ ਤਰ੍ਹਾਂ ਬਾਦਲ ਅਕਾਲੀ ਦਲ ਦੇ ਸਹਿਯੋਗ ਨਾਲ ਗੁਰੂ ਸਾਹਿਬਾਨਾਂ ਦੇ ਸ਼ਸ਼ਤਰ ਲਿਆਉਣ ਦਾ ਢੌਂਗ ਰਚਿਆ
ਸੀ। ਸ਼ਸ਼ਤਰ ਲਿਆਉਣ ਵਾਲੇ ਤਿੰਨ ਆਦਮੀ ਕਬੂਤਰ ਬਣ ਕੇ ਉਡਾਰੀ ਮਾਰ ਗਏ ਹਨ, ਜਿਨ੍ਹਾਂ ਨੰੂ ਰੌਸ
ਸਟਰੀਟ ਗੁਰੁਦੁਆਰੇ ਵਲੋਂ ਸਪਾਂਸਰ ਕੀਤਾ ਗਿਆ ਸੀ 'ਤੇ ਕੇਂਦਰੀ ਮੱਛੀ ਮੰਤਰੀ ਹਰਬ ਧਾਲੀਵਾਲ ਦੇ
ਸਹਿਯੋਗ ਨਾਲ ਮਨਿਸਟਰ ਪਰਮਿਟ ਲੈ ਕੇ ਦਿੱਤੇ ਸਨ।</p>

<p>ਹੈਰਾਨੀ
ਦੀ ਗੱਲ ਇਹ ਹੈ ਕਿ ਜਿਹੜੇ ਪੁਰਾਤਨ ਸ਼ਸਤਰ ਕਹਿ ਕੇ ਸੰਗਤ ਨੰੂ ਸ਼ਸ਼ਤਰ ਵਿਖਾਏ ਗਏ ਸਨ ਉਹ ਅਸਲ
ਵਿੱਚ ਨਕਲੀ ਸ਼ਸ਼ਤਰ ਸਨ। ਜਿਸ ਦੀ ਪੁਸ਼ਟੀ ਕਰਦਿਆਂ ਸ਼੍ਰੋਮਣੀ ਗੁਰੂਦੁਆਰਾ ਪ੍ਰਬੰਧਕ ਕਮੇਟੀ ਦੇ ਸਕੱਤਰ
ਸ੍ਰ: ਗੁਰਬਚਨ ਸਿੰਘ ਬਚਨ ਨੇ ਵੈਨਕੋਵਰ ਦੇ ਅੰਗਰੇਜ਼ੀ ਅਖਬਾਰ "ਦਾ ਪ੍ਰੋਵਿੰਸ" ਨੰੂ
ਦੱਸਿਆ ਕਿ ਕੋਈ ਵੀ ਇਤਿਸਾਹਕ ਸ਼ਸ਼ਤਰ ਬਾਹਰ ਲਿਜਾਣ ਦੀ ਇਜਾਜ਼ਤ ਨਹੀਂ ਹੈ। ਅੰਮ੍ਰਿਤਸਰ ਤੋਂ
ਸ੍ਰ" ਬਚਨ ਨੇ ਕਿਹਾ ਕਿ ਉਹ ਐਵੇਂ ਹੀ ਕਿਸੇ ਗੁਰੂਦੁਆਰੇ ਚੋਂ ਕੋਈ ਸ਼ਸ਼ਤਰ ਲੈ ਗਏ ਹੋਣਗੇ
ਜਿਨ੍ਹਾਂ ਦੀ ਇਤਿਹਾਸ ਪੱਖੋਂ ਕੋਈ ਵੀ ਅਹਿਮੀਅਤ ਨਹੀਂ ਹੈ।</p>

<p>ਇਨ੍ਹਾਂ
ਨਕਲੀ ਸ਼ਸ਼ਤਰਾਂ ਨੰੂ ਕੈਨੇਡਾ ਲੈ ਕੇ ਆਉਣ ਵਾਲੇ ਤਿੰਨ ਆਦਮੀਆਂ ਨੰੂ ਹਰਬ ਧਾਲੀਵਾਲ ਦੇ ਕਹਿਣ ਤੇ
ਮਨਿਸਟਰੀ ਪਰਮਿਟ ਦਿੱਤੇ ਗਏ ਸਨ ਜਿਹੜੇ 9 ਮਈ ਨੰੂ ਖਤਮ ਹੋ ਗਏ ਸਨ, ਪਰ ਉਹ ਤਿੰਨੇ ਆਦਮੀ
ਅਜੇ ਤੱਕ ਕੈਨੇਡਾ ਵਿੱਚ ਕਿਤੇ ਲੁਕੇ ਹੋਏ ਹਨ। "ਦਾ ਪ੍ਰੋਵਿੰਸ" ਅਖਬਾਰ ਅਨੁਸਾਰ
ਤਿੰਨਾਂ ਵਿਚੋਂ ਇੱਕ ਨੇ ਰਫਿਊਜੀ ਅਪਲਾਈ ਕਰ ਦਿੱਤਾ ਹੈ।</p>

<p>ਸ੍ਰ:
ਬਚਨ ਨੇ ਕਿਹਾ ਕਿ ਇਕ ਧਾਰਮਿਕ ਆਗੂ ਲਈ ਉਨ੍ਹਾਂ ਵਲੋਂ ਲਿਖਿਆ ਲੈਟਰ ਤਬਦੀਲ ਕਰਕੇ ਉਸ ਉਪਰ
ਤਿੰਨ ਨਾਮ ਲਿਖ ਲਏ ਗੲ ਸਨ। ਉਨ੍ਹਾਂ ਨੇ ਰੌਸ ਸਟਰੀਟ ਨਗਰ ਕੀਰਤਨ ਵਿੱਚ ਸ਼ਸ਼ਤਰ ਲਿਆਉਣ ਵਾਲਿਆਂ
ਨੰੂ ਧੋਖੇਬਾਜ਼ ਤੇ ਬੇਈਮਾਨ ਕਰਾਰ ਦਿੱਤਾ।</p>

<p>ਔਟਵਾ
ਵਿੱਚ ਇਮੀਗਰੇਸ਼ਨ ਵਿਭਾਗ ਦੇ ਬੁਲਾਰੇ ਨੇ ਦੱਸਿਆ ਕਿ ਮਨਿਸਟਰੀ ਪਰਮਿਟ ਈਸ਼ੂ ਕਰਨੇ ਆਮ ਪ੍ਰਕ੍ਰਿਆ
ਹੈ। ਇਮੰਗਿਰੇਸ਼ਨ ਵਿਭਾਗ ਅਨੁਸਾਰ ਜਦੋਂ ਕਿਸੇ ਐਮ ਪੀ ਦੀ ਚਿੱਠੀ ਆ ਜਾਵੇ ਤਾਂ ਸੁਆਲ ਕਰਨ ਦੀ
ਗੁੰਜਾਇਸ਼ ਹੀ ਨਹੀਂ ਰਹਿੰਦੀ।</p>

<p>ਹੁਕਮਨਾਮੇ
ਦੀ ਵਿਰੋਧੀ ਧਿਰ ਵਾਲੇ ਰੌਸ ਸਟਰੀਟ ਦੇ ਪ੍ਰਧਾਨ ਸ੍ਰੀ ਗੁਰਦੇਵ ਸਿੰਘ ਜੌਹਲ ਨੇ ਕਿਹਾ ਕਿ ਮੱਛੀ
ਮੰਤਰੀ ਸ੍ਰੀ ਹਰਬ ਧਾਲੀਵਾਲ ਦਾ ਇਸ ਵਿੱਚ ਕੋਈ ਦੋਸ਼ ਨਹੀਂ ਹੈ। ਉਨ੍ਹਾਂ ਕਿਹਾ ਕਿ ਸਾਡਾ
ਗੁਰੂਦੁਆਰਾ ਇਨ੍ਹਾਂ ਦੇ ਹਲਕੇ ਵਿੱਚ ਆਉਂਦਾ ਹੈ ਵੀਜ਼ੇ ਦੀ ਮੁਸ਼ਕਲ ਆਉਂਦੀ ਵੇਖ ਕੇ ਮੈਂ ਮੰਤਰੀ
ਜੀ ਤੇ ਦਬਾਅ ਪਾਇਆ ਸੀ। ਜੌਹਲ ਨੇ ਕਿਹਾ ਕਿ ਉਹ ਇਸ ਗੱਲ ਤੋਂ ਬੜੇ ਪ੍ਰੇਸ਼ਾਨ ਹਨ ਕਿ ਐਸਾ
ਕਿਉਂ ਹੋਇਆ ਹੈ।</p>

<p>ਅਣਖੀਲਾ ਪੰਜਾਬ ਦੀ ਇੱਕ ਹੋਰ ਪੁਲਾਂਘ</p>

<p>3 ਜੂਨ ਤੋਂ
USA ਦੀ ਵਾਸ਼ਿੰਗਟਨ ਸਟੇਟ 'ਤੇ ਇੰਟਰਨੈਟ 'ਤੇ ਸ਼ੁਰੂਆਤ</p>

<p>ਨੋਟ: ਫੋਟੋ
ਵੇਖਣ ਲਈ ਫੋਟੋ ਤੇ ਕਲਿਕ ਕਰੋ ਜੀ</p>

<p>
 
 
ਸਰੀ: ਅਣਖੀਲਾ ਪੰਜਾਬ ਟੀ ਵੀ ਪ੍ਰੋਗ੍ਰਾਮ ਦੀ 8ਵੀਂ ਵਰੇ੍ਹ ਗੰਢ
ਪਿਛਲੇ ਐਤਵਾਰ ਨੰੂ ਸਰੀ ਦੇ ਮਸ਼ਹੂਰ 'ਤੇ ਅਤਿ ਸੁੰਦਰ ਗਰੈਂਡ ਤਾਜ ਬੈਂਕੁਐਟ ਹਾਲ ਵਿੱਚ ਹੋਈ
ਬੜੀ ਧੂਮ ਧਾਮ ਨਾਲ ਮਨਾਈ ਗਈ। ਖਚਾ ਖਚ ਭਰੇ ਹਾਲ ਵਿੱਚ ਬ੍ਰਿਟਿਸ਼ ਕੋਲੰਬੀਆ ਸੂਬੇ ਦੇ ਵੱਖ ਵੱਖ
ਸ਼ਹਿਰਾਂ ਤੋਂ ਸੁਹਿਰਦ ਸਿੱਖ ਸੰਗਤ ਨੇ ਇਸ ਸਮਾਗਮ ਵਿੱਚ ਹਿੱਸਾ ਲਿਆ।</p>

<p>ਸ਼ੁਰੂ
ਵਿੱਚ ਲਾਵਾਰਿਸ ਲਾਸ਼ਾਂ ਦੇ ਵਾਰਿਸ ਸ਼ਹੀਦ ਭਾਈ ਜਸਵੰਤ ਸਿੰਘ ਖਾਲੜਾ ਦਾ 15 ਮਿੰਟ ਦਾ ਭਾਸ਼ਨ ਸਕਰੀਨ ਉਪਰ ਦਿਖਾਇਆ ਗਿਆ ਜਿਸ ਵਿੱਚ
ਉਨ੍ਹਾਂ ਲੂੰ ਕੰਡੇ ਖੜੇ ਕਰਨ ਵਾਲੇ ਵਿਚਾਰ ਪੇਸ਼ ਕੀਤੇ ਸਨ। ਖਾਲਸਾ ਸਕੂਲ ਐਬਸਫੋਰਡ ਦੇ ਬੱਚਿਆਂ ਨੇ ਗਤਕੇ ਦੇ ਜੌਹਰ ਦਿਖਾਏ ਜਿਸ ਨੰੂ ਵੇਖ ਕੇ ਸੰਗਤ
ਜੋਸ਼ ਵਿੱਚ ਆ ਗਈ 'ਤੇ ਭੁਲਾਰਾਈ ਵਾਲੇ ਭੁਜੰਗੀਆਂ ਦੇ ਢਾਡੀ ਜਥੇ ਨੇ ਜੋਸ਼ਮਈ ਵਾਰਾਂ ਗਾ ਕੇ
ਮਹੌਲ ਨੰੂ ਹੋਰ ਵੀ ਜੋਸ਼ੀਲਾ ਬਣਾ ਦਿੱਤਾ।</p>

<p>ਟੀ.ਵੀ.
ਪ੍ਰੋ੍ਰਗ੍ਰਾਮ ਦੇ ਮੁੱਖ ਸੇਵਾਦਾਰ ਵਜੋਂ ਸ੍ਰ: ਗੁਰਪ੍ਰੀਤ ਸਿੰਘ ਬੱਲ ਨੇ ਆਈਆਂ ਸੰਗਤਾਂ ਨੰੂ ਜੀ
ਆਇਆਂ ਕਿਹਾ ਤੇ ਸੁਖਮਿੰਦਰ ਸਿੰਘ ਹੰਸਰਾ ਨੇ ਆਪਣੇ ਜੋਸ਼ ਮਈ ਭਾਸ਼ਨ ਵਿੱਚ ਪਹਿਲਾਂ ਇਹ ਐਲਾਨ
ਕੀਤਾ ਕਿ ਅਣਖੀਲਾ ਪੰਜਾਬ ਦਾ ਪਸਾਰਾ ਹੋ ਰਿਹਾ ਹੈ ਜਿਸ ਵਿੱਚ ਵਾਸ਼ਿੰਗਟਨ ਸਟੇਟ ਵਿੱਚ 'ਤੇ
ਇੰਟਰਨੈਟ ਤੇ ਪੂਰੀ ਦੁਨੀਆਂ ਵਿੱਚ ਅਣਖੀਲਾ ਪੰਜਾਬ ਹੁਣ ਜੂਨ ਦੇ ਪਹਿਲੇ ਹਫਤੇ ਤੋਂ ਪ੍ਰਸਾਰਤ ਹੋਣਾ
ਸ਼ੁਰੂ ਹੋ ਜਾਵੇਗਾ। ਜਿਸ ਦਾ ਸੰਗਤ ਨੇ ਬੋਲੇ ਸੋ ਨਿਹਾਲ ਦੇ ਜੈਕਾਰੇ ਗਜ਼ਾ ਕੇ ਸੁਆਗਤ ਕੀਤਾ। ੳਨ੍ਹਾਂ
ਨੇ ਮੀਡੀਏ ਦੀ ਅਹਿਮੀਅਤ ਨੰੂ ਬਿਆਨਦਿਆਂ ਕਿਹਾ ਕਿ ਅੱਜ ਸਿੱਖਾਂ ਨੰੂ ਮੁੱਦੇ ਨਾਲ ਬੱਝਣਾ ਚਾਹੀਦਾ
ਹੈ। ਉਨ੍ਹਾਂ ਬੜਾ ਜ਼ੋਰ ਦੇ ਕੇ ਕਿਹਾ ਕਿ ਜਦੋਂ ਅਮਰੀਕਾ ਨੇ ਈਰਾਕ ਉਪਰ ਹਮਲਾ ਕਰਨਾ ਸੀ ਤਾਂ ਪਹਿਲਾਂ
ਸੀ ਐਨ ਐਨ ਵਰਗੇ ਮਾਧਿਆਮਾਂ ਰਾਹੀਂ ਲੋਕ ਰਾਇ ਪੈਦਾ ਕਤਿੀ ਤਾਂ ਕਿ ਪਹਿਲਾਂ ਬੰਬ ਸੁੱਟਣ ਨਾਲ ਲੋਕ
ਭਟਕ ਨਾਂ ਪੈਣ। ਇਸ ਕਰਕੇ ਸਾਨੰੂ ਸਮਝ ਲੈਣਾ ਚਾਹੀਦਾ ਹੈ ਕਿ ਅੱਜ ਦੇ ਤਕਨੌਲਜੀ ਯੁੱਗ ਵਿੱਚ
ਮੀਡੀਆ ਸਭ ਤੋਂ ਤੇਜ਼ ਅਤੇ ਘਾਤਕ ਹਥਿਆਰ ਹੈ। ਇਸਨੰੂ ਢੁਕਵੇਂ ਤਰੀਕੇ ਨਾਲ ਵਰਤਣ ਦੀ ਲੋੜ ਹੈ।
ਸ੍ਰ: ਹੰਸਰਾ ਨੇ ਕਿਹਾ ਕਿ ਅਣਖੀਲਾ ਪੰਜਾਬ ਇੱਕ ਨੁਕਾਤੀ ਪ੍ਰੋਗ੍ਰਾਮ ਲੈ ਕੇ ਪਿਛਲੇ 8 ਸਾਲਾਂ ਤੋਂ
ਪ੍ਰਸਾਰਤ ਹੁੰਦਾ ਆ ਰਿਹਾ ਹੈ 'ਤੇ ਉਹ ਨੁਕਾਤੀ ਪ੍ਰੋਗ੍ਰਾਮ ਸਿੱਖਾਂ ਖਿਲਾਫ ਹੋ ਰਹੇ ਸਰਕਾਰੀ
ਪ੍ਰਾਪੇਗੰਡੇ ਨੰੂ ਠੱਲ ਪਾਉਣੀ ਤੇ ਸਿੱਖਾਂ ਉਪਰ ਹੋ ਰਹੇ ਜ਼ੁਲਮਾਂ ਦਾ ਪਰਦਾ ਫਾਸ਼ ਕਰਕੇ ਸ਼ਹੀਦ ਸੰਤ
ਜਰਨੈਲ ਸਿੰਘ ਭਿੰਡਰਾਂਵਾਲਿਆਂ ਦੇ ਕਹੇ ਹੋਏ ਬੋਲਾਂ ਤੇ ਪਹਿਰਾ ਦੇਣਾ ਹੈ ਕਿ ਜਦੋਂ ਦਰਬਾਰ ਸਾਹਿਬ
ਦੇ ਹਦੂਦ ਅੰਦਰ ਪੁਲੀਸ ਜਾਂ ਆਰਮੀ ਕਦਮ ਰੱਖੇਗੀ ਤਾਂ ਖਾਲਿਸਤਾਨ ਦੀ ਨੀਂਹ ਰੱਖੀ ਜਾਵੇਗੀ। ਅਸੀਂ
ਸੰਗਤ ਨੰੂ ਖਾਲਿਸਤਾਨ ਦੇ ਮਹਿਲ ਦੀ ਚੱਲ ਰਹੀ ਉਸਾਰੀ ਪ੍ਰਤੀ ਲੋਕਾਂ ਨੰੂ ਉਤਸ਼ਾਹਤ ਕਰਦੇ ਹਾਂ।</p>

<p>ਵਰਲਡ
ਸਿੱਖ ਸੰਸਥਾ ਦੇ ਮੁਖੀ ਸ੍ਰ: ਗਿਆਨ ਸਿੰਘ ਸੰਧੂ ਨੇ ਆਪਣੇ ਬੋਲਦਿਆਂ ਕਿਹਾ ਕਿ ਮੈਂ ਇਨ੍ਹਾਂ
ਨੌਜੁਆਨਾਂ ਨੰੂ ਵੱਡੇ ਹੁੰਦੇ ਵੇਖਿਆ ਹੈ। ਉਨ੍ਹਾਂ ਕਿਹਾ ਕਿ ਅਗਰ 1984 ਵਿੱਚ ਵਰਲਡ ਸਿੱਖ
ਆਰਗੇਨਾਈਜੇਸ਼ਨ ਹੋਂਦ ਵਿੱਚ ਨਾਂ ਅਉਂਦੀ ਨਾਂ ਸ਼ਾਇਦ ਇਨ੍ਹਾਂ ਨੌਜੁਆਨਾਂ ਦਾ ਜੋਸ਼ ਇਨ੍ਹਾਂ ਨੰੂ ਕਿਸੇ
ਹੋਰ ਰਸਤੇ ਤੇ ਤੋਰ ਦਿੰਦਾ। ਉਨ੍ਹਾਂ ਕਿਹਾ ਕਿ ਆਗੂ ਉਹੀ ਸਫਲ ਹੈ ਜਿਸਦੇ ਪੈਰ ਧਰਤੀ ਉਪਰ 'ਤੇ
ਸਿਰ ਅਸਮਾਨ ਵਿੱਚ ਹੋਵੇ, ਭਾਵ ਸਿੱਖ ਆਗੂ ਆਉਣ ਵਾਲੇ ਭਵਿੱਖ ਬਾਰੇ ਸੋਚਣ ਦੇ ਕਾਬਿਲ ਹੋਣਾ
ਚਾਹੀਦਾ ਹੈ।</p>

<p>ਪ੍ਰੋ:
ਗੁਰਵਿੰਦਰ ਸਿੰਘ ਨੇ ਆਪਣੇ ਜੋਸ਼ਮਈ ਭਾਸ਼ਨ ਵਿੱਚ ਅਣਖੀਲਾ ਪੰਜਾਬ ਦੇ ਸੰਚਾਲਕਾਂ ਨੰੂ ਵਧਾਈ ਪੇਸ਼
ਕਰਦਿਆਂ ਕਿਹਾ ਕਿ ਜਿਸ ਕੌਮ ਦੇ ਆਗੂ ਹੀ ਨਿਕੰਮੇ ਹੋਣ ਤਾਂ ਉਸ ਕੌਮ ਦਾ ਕੀ ਬਣ ਸਕਦਾ ਹੈ। ਉਨ੍ਹਾਂ
ਅਰਦਾਸ ਭਰੇ ਲਹਿਜ਼ੇ ਵਿੱਚ ਕਿਹਾ ਕਿ ਐ ਪ੍ਰਮਾਤਮਾ ਸਾਡੇ ਸਾਰੇ ਲੀਡਰਾਂ ਨੰੂ ਲੈ ਜਾ ਤੇ ਸਾਨੰੂ ਇੱਕ
ਜਰਨੈਲ ਸਿੰਘ ਵਰਗਾ ਆਗੂ ਭੇਜ ਦੇ ਤਾਂ ਹੀ ਸਿੱਖ ਕੌਮ ਚੜਦੀ ਕਲਾ ਵਿੱਚ ਜਾ ਸਕਦੀ ਹੈ।</p>

<p>ਅੱਜ ਦੀ
ਆਵਾਜ਼ ਦੇ ਸੰਚਾਲਕ 'ਤੇ ਸਿੱਖ ਮੀਡੀਆ ਐਸੋਈਏਸ਼ਨ ਦੇ ਸਕੱਤਰ ਸ੍ਰ: ਸੁਖਦੇਵ ਸਿੰਘ ਨੇ ਸੰਬੋਧਨ
ਕਰਦਿਆਂ ਕਿ ਜਸਵੰਤ ਸਿੰਘ ਖਾਲੜਾ ਦੀ ਸੋਚ ਤੇ ਪਹਿਰਾ ਦੇਣ ਦੀ ਲੋੜ ਹੈ। ਉਨ੍ਹਾਂ ਟੀ.ਵੀ ਪ੍ਰੋਗ੍ਰਾਮ
ਦੀ ਅਹਿਮੀਅਤ ਬਿਆਨਦਿਆਂ ਕਿਹਾ ਕਿ ਇਹ ਇੱਕ ਕ੍ਰਾਂਤੀਕਾਰੀ ਮੀਡੀਆ ਹੈ,ਜਿਸ ਨੇ ਸੋਵੀਅਤ ਯੁਨੀਅਨ
ਵਰਗੀਆਂ ਤਾਕਤਾਂ ਨੰੂ ਖੇਰੂੰ ਖੇਰੂੰ ਕਰ ਦਿੱਤਾ, ਬਰਲਿਨ ਵਾਲ ਟੁੱਟੀ 'ਤੇ ਇਹੀ ਇੱਕ ਤਾਕਤ ਹੈ
ਜਿਹੜੀ ਖਾਲਿਸਤਾਨ ਦੇ ਸੰਘਰਸ਼ ਵਿੱਚ ਅਹਿਮ ਭੂਮਿਕਾ ਨਿਭਾ ਸਕਦੀ ਹੈ। ੳੇੁਨ੍ਹਾਂ ਕਿਹਾ ਕਿ ਖਾਲਿਸਤਾਨ
ਦੇ ਸੰਘਰਸ਼ ਦੇ ਨਾਲ ਨਾਲ ਸਾਨੰੂ ਧੜੇਬੰਦੀਆਂ ਤੋਂ ਆਜ਼ਾਦ ਹੋਣ ਲਈ ਵੀ ਸੰਘਰਸ਼ ਸ਼ੁਰੂ ਕਰਨਾ ਚਾਹੀਦਾ
ਹੈ । ਸ੍ਰ: ਸੁਖਦੇਵ ਸਿੰਘ ਨੇ ਤਹਿਲਕਾ ਡਾਟ ਕਾਮ ਦਾ ਜ਼ਿਕਰ ਕਰਦਿਆਂ ਕਿਹਾ ਸਾਨੰੂ ਅਜਿਹੇ ਸਾਧਨਾਂ ਦੇ
ਹਾਣੀ ਹੋਣਾ ਚਾਹੀਦਾ ਹੈ।</p>

<p>ਇਸ ਤੋਂ
ਇਲਾਵਾ ਐਬਸਫੋਰਡ ਗੁਰੁਦੁਆਰਾ ਸਾਹਿਬ ਦੇ ਪ੍ਰਧਾਨ ਸ੍ਰ: ਗੁਰਮੇਲ ਸਿੰਘ ਬਰਾੜ, ਯੂਕਾਨ ਤੋਂ ਬੀਬੀ
ਜਸਬੀਰ ਕੌਰ ਰੰਧਾਵਾ, ਪ੍ਰੋ: ਸੁਖਜਿੰਦਰ ਸਿੰਘ ਤੇ ਹੋਰ ਕਈ ਹੁਲਾਰਿਆਂ ਨੇ ਅਣਖੀਲਾ ਪੰਜਾਬ ਨੰੂ
ਵਧਾਈਆਂ ਦਿੱਤੀਆਂ। ਸਟੇਜ ਦੀ ਕਾਰਵਾਈ ਸ੍ਰ: ਜੋਗਿੰਦਰ ਸਿੰਘ ਸਿੱਧੂ ਨੇ ਬੜੀ ਬਾਖੂਬੀ ਨਾਲ
ਨਿਭਾਈ। ਪ੍ਰੋਗ੍ਰਾਮ ਦੌਰਾਨ ਸੰਗਤ ਨੇ ਖੁਸ਼ ਹੋ ਕੇ ਅਨੇਕਾਂ ਡਾਲਰ ਦਿੱਤੇ 'ਤੇ ਪ੍ਰਬੰਧਕਾਂ ਨੰੂ
ਧੰਨਵਾਦੀ ਬਣਾਇਆ।</p>

<p>ਉਚੇਚੇ
ਤੌਰ ਤੇ ਏ-ਵਨ ਵੀਡੀਓ ਵਾਲਿਆਂ ਨੇ ਟਰਾਂਟੋ ਤੋਂ ਜਾ ਕੇ ਇਸ ਸਮਾਗਮ ਨੰੂ ਵੀਡੀਓਬੰਦ ਕੀਤਾ।
ਮੀਡੀਏ ਚੋਂ ਸੁਖਦੇਵ ਸਿੰਘ ਢਿਲੋਂ, "ਰੇਡੀਓ ਪੰਜਾਬ" ਤੋਂ ਤੇ ਸੰਤੋਖ ਸਿੰਘ ਗਿੱਲ
"ਹੱਸਦਾ ਪੰਜਾਬ" ਵਾਲੇ ਖਾਸ ਤੌਰ ਤੇ ਪੁੱਜੇ ਹੋਏ ਸਨ। ਖਾਣਾ ਬਹੁਤ ਹੀ ਸੁਆਦਲਾ ਸੀ,
ਪਕੌੜਿਆਂ ਦੀ ਚਾਰੋਂ ਪਾਸੇ ਚਰਚਾ ਸੀ। ਪ੍ਰਬੰਧਕਾਂ ਨੇ ਗਰੈਂਡ ਤਾਜ ਬੈਂਕੁਐਟ ਹਾਲ ਦੇ ਪ੍ਰਬੰਧਕਾਂ ਦਾ
ਵੀ ਧੰਨਵਾਦ ਕੀਤਾ।</p>

<p>ਮਾਨ ਨੰੂ ਬਦਨਾਮ ਕਰਨ ਲਈ ਕੋਸ਼ਿਸ਼ਾਂ ਜੋਰਾਂ ਤੇ</p>

<p>ਬਰੈਮਪਟਨ
(ਸਾਂਝ ਸਵੇਰਾ ਡਾਟ ਕਾਮ):- ਪਿਛਲੇ ਦਿਨੀਂ ਦੁਨੀਆਂ ਭਰ ਦੀਆਂ ਅਖਬਾਰਾਂ ਵਿੱਚ ਸ੍ਰ: ਸਿਮਰਨਜੀਤ ਸਿੰਘ
ਮਾਨ ਪ੍ਰਤੀ ਹਵਾਲਾ ਰਾਹੀਂ ਗੁਰੂਦੁਆਰਾ ਸਾਹਿਬ ਦੀ ਗੋਲਕ ਚੋਂ 40 ਹਜ਼ਾਰ ਡਾਲਰ ਲੈਣ ਦੀ ਖਬਰ
ਪ੍ਰਕਾਸ਼ਤ ਹੋਈ ਹੈ ਜਿਸ ਵਿੱਚ ਰਤੀ ਭਰ ਵੀ ਸੱਚ ਨਹੀਂ ਹੈ। ਸ਼੍ਰੋਮਣੀ ਅਕਾਲੀ ਦਲ ਅੰਮ੍ਰਿਤਸਰ ਦੇ
ਕੈਨੇਡਾ ਸਥਿਤ ਕਨਵੀਨਰ ਸ੍ਰ: ਗੁਰਮੀਤ ਸਿੰਘ ਗਰੇਵਾਲ ਨੇ ਕਿਹਾ ਕਿ ਇਹ ਗਲਤ ਪ੍ਰਾਪੇਗੰਡਾ ਬਰੈਮਪਟਨ
ਗੁਰੂਦੁਆਰਾ ਸਾਹਿਬ ਅੰਦਰ ਚੱਲ ਰਹੇ ਵਾਦ ਵਿਵਾਦ ਦੀ ਉਪਜ ਹੈ। ਉਨ੍ਹਾਂ ਅਦਾਰਾ ਸਾਂਝ ਸਵੇਰਾ ਨੰੂ
ਦੱਸਿਆ ਕਿ ਜਿਹੜਾ ਚੈਕ ਕੁੱਝ ਅਖੌਤੀ ਪ੍ਰਬੰਧਕਾਂ ਵਲੋਂ ਵੰਡਿਆ ਜਾ ਰਿਹਾ ਹੈ ਉਹ ਪੈਸਾ ਸ਼੍ਰੋਮਣੀ
ਅਕਾਲੀ ਦਲ ਅੰੰਮ੍ਰਿਤਸਰ ਦੇ ਪ੍ਰਧਾਨ ਸ੍ਰ: ਸਿਮਰਨਜੀਤ ਸਿੰਘ ਮਾਨ ਦੇ ਟਰਾਂਟੋ ਫੇਰੀ ਦੌਰਾਨ ਸੰਗਤ ਵਲੋਂ
ਇਕੱਤਰ ਹੋਇਆ ਸੀ ਜੋ ਕਿ ਕੈਨੇਡਾ ਦੇ ਮੰਨਜ਼ੂਰਸ਼ੁਦਾ ਫਾਰਨਐਕਸਚੇਂਜ਼ ਕੰਪਨੀ ਰਾਹੀਂ ਭੇਜਿਆ
ਗਿਆ ਹੈ। ਉਨ੍ਹਾਂ ਕਿਹਾ ਕਿ ਹੁਣ ਸੱਚ ਉਜਾਗਰ ਕਰਨਾ ਜਰੂਰੀ ਬਣ ਗਿਆ ਹੈ। ਅਸਲ ਵਿੱਚ ਬਰੈਮਪਟਨ
ਗੁਰੂਦੁਆਰੇ ਵਿੱਚ ਅਕਾਲੀ ਦਲ ਬਾਦਲ 'ਤੇ ਸਰਬ ਹਿੰਦ ਅਕਾਲੀ ਦਲ ਦੇ ਕੁੱਝ ਮੈਂਬਰ ਅਕਾਲੀ ਦਲ
ਅੰਮ੍ਰਿਤਸਰ ਦੇ ਪ੍ਰਧਾਨ ਦੀ ਫੇਰੀ ਦੀ ਸਫਲਤਾ ਤੋਂ ਖਫਾ ਸਨ ਕਿਉਂਕਿ ਹੋਰਨਾਂ ਅਕਾਲੀ ਦਲਾਂ ਦੇ ਮੈਂਬਰਾਂ
ਉਪਰ ਤਾਂ ਟਰਾਂਟੋ ਦੇ ਗੁਰੂਦੁਆਰਿਆਂ ਵਿੱਚ ਬੋਲਣ ਤੇ ਪਾਬੰਦੀ ਲੱਗੀ ਰਹੀ ਹੇ 'ਤੇ ਮਾਨ ਨੰੂ ਸਭ
ਗੁਰੁਦੁਆਰਿਆਂ ਵਾਲਿਆਂ ਨੇ ਸਿਰੋਪੇ ਦਿੱਤੇ ਗਏ ਸਨ। ਉਨ੍ਹਾਂ ਦੱਸਿਆ ਕਿ ਬਰੈਮਪਟਨ ਗੁਰੂਦੁਆਰੇ
ਵਿੱਚ ਚੱਲਿਆ ਘਟਨਾਚੱਕਰ ਵੀ ਇਸ ਗੁਰੂਦੁਆਰੇ ਦੇ ਪ੍ਰਬੰਧਕਾਂ ਵਲੋਂ ਪੰਥਕ ਕਾਰਜਾਂ ਵਿੱਚ ਵੱਧ ਚੜ੍ਹ
ਕੇ ਕੀਤੀ ਸ਼ਮੂਲੀਅਤ ਦਾ ਹੀ ਨਤੀਜਾ ਹੈ। ਉਨ੍ਹਾਂ ਨਾਮ ਲਏ ਬਿਨ੍ਹਾਂ ਬੜੀ ਦ੍ਰਿੜਤਾ ਨਾਲ ਕਿਹਾ ਕਿ ਇਥੇ
ਭਾਰਤ ਦੀਆਂ ਕੁੱਝ ਅਜਿਹੀਆਂ ਏਜੰਸੀਆਂ ਸਰਗਰਮ ਹਨ ਜਿਨ੍ਹਾਂ ਦੀ ਮਿਲੀਭੁਗਤ ਨਾਲ ਟਰਾਂਟੋ ਦਾ ਤਾਣਾ
ਪੇਟਾ ਉਲ੍ਹਝ ਚੁੱਕਾ ਹੈ ਪਰ ਟਰਾਂਟੋ ਦਾ ਭੋਲਾ ਭਾਲਾ੍ਹ ਸਿੱਖ ਲੀਡਰ ਉਨ੍ਹਾਂ ਦੀਆਂ ਲੂੰਬੜ ਚਾਲਾਂ ਨੰੂ
ਸਮਝ ਨਹੀਂ ਰਿਹਾ। ਸ੍ਰ: ਗਰੇਵਾਲ ਨੇ ਅਫਸੋਸ ਪ੍ਰਗਟ ਕੀਤਾ ਹੈ ਕਿ ਪੰਜਾਬ ਵਿੱਚ ਇਕੋ ਇੱਕ ਸਿੱਖ
ਲੀਡਰ ਹੈ ਜਿਸ ਨੇ ਆਪਣੇ ਸਰੀਰ ਤੇ ਤਸ਼ੱਦਦ ਸਹਿਣ ਕੀਤਾ ਹੈ ਪਰ ਫਿਰ ਵੀ ਸਾਡੇ ਲੋਕ ਗੈਰਾਂ ਦੇ ਹੱਥ
ਚੜ ਕੇ ਉਸਨੰੂ ਬਦਨਾਮ ਕਰਨ ਤੋਂ ਬਾਜ਼ ਨਹੀਂ ਆਉਂਦੇ। ਉਨਹਾਂ ਦੱਸਿਆ ਕਿ ਬਰੈਮਟਪਨ ਗੁਰੂਦੁਆਰੇ
ਦਾ ਕੇਸ ਅਦਾਲਤ ਵਿੱਚ ਚੱਲ ਰਿਹਾ ਹੈ ਜਿਸ ਦੀ ਸੁਣਵਾਈ ਹੋ ਚੁੱਕੀ ਹੈ 'ਤੇ ਜੱਜ ਵਲੋਂ ਫੈਸਲਾ
ਕਿਸੇ ਸਮੇ੍ਹਂ ਵੀ ਸੁਣਾਇਆ ਜਾ ਸਕਦਾ ਹੈ। ਇਸ ਫੈਸਲੇ ਤੋਂ ਬਾਅਦ ਇਸ ਵਾਦ ਵਿਵਾਦ ਦੀ ਸਾਰੀ
ਗੁੱਥੀ ਸੁਲਝ ਜਾਏਗੀ ਤੇ ਦੁੱਧ ਦਾ ਦੁੱਧ ਤੇ ਪਾਣੀ ਦਾ ਪਾਣੀ ਹੋ ਜਾਵੇਗਾ।</p>

<p>ਅਦਾਲਤ ਵੱਲੋਂ ਪੰਜਾਬ ਦੇ ਕੈਬਿਨਟ ਮੰਤਰੀ ਨੂੰ ਨੋਟਿਸ ਜਾਰੀ</p>

<p>ਬਠਿੰਡਾ
: ਅਜੇ ਤੱਕ ਨਿਰੰਕਾਰੀਆਂ ਦੇ ਸਮਾਗਮ ਵਿੱਚ ਸ਼ਾਮਲ ਹੋ ਕੇ ਦਿੱਤੀ 25 ਹਜ਼ਾਰ ਰੁਪਏ ਦੀ ਗ੍ਰਾਂਟ ਦਾ
ਵਾਦ-ਵਿਵਾਦ ਸ਼ਾਂਤ ਨਹੀਂ ਸੀ ਹੋਇਆ ਕਿ ਸਰਕਾਰ ਵੱਲੋਂ ਇਕੁਆਇਰ ਕੀਤੀ ਸ਼ਾਮਲਾਟ ਜ਼ਮੀਨ 'ਤੇ ਕੀਤੇ ਕਥਿਤ ਕਬਜ਼ੇ ਦੀ ਵਜ੍ਹਾ ਕਾਰਨ
ਇੱਥੋਂ ਦੀ ਇਕ ਅਦਾਲਤ ਨੇ ਪੰਜਾਬ ਦੇ ਕੈਬਿਨਟ ਮੰਤਰੀ ਸ਼੍ਰੀ ਚਿਰੰਜੀ ਲਾਲ ਗਰਗ ਦੇ ਨਾਂਅ 21 ਮਈ
ਲਈ ਨੋਟਿਸ ਜਾਰੀ ਕਰ ਦਿੱਤਾ।</p>

<p>ਸਮਾਜ
ਸੇਵਕ ਸ਼੍ਰੀ ਨਰਿੰਦਰ ਕੁਮਾਰ ਗਰਗ ਨੇ ਸਿਵਲ ਜੱਜ ਸੀਨੀਅਰ ਡਵੀਜ਼ਨ ਬਠਿੰਡਾ ਦੀ ਅਦਾਲਤ ਵਿੱਚ ਦਾਇਰ
ਕੀਤੇ ਦਾਅਵੇ ਰਾਹੀਂ ਇਹ ਇੰਕਸ਼ਾਫ ਕੀਤਾ ਕਿ ਮੈਹਣਾ ਪੱਤੀ ਨਾਲ ਸੰਬੰਧਤ ਖਸਰਾ ਨੰ: 2848 ਦੀ
ਜ਼ਮੀਨ ਪੰਜਾਬ ਸਰਕਾਰ ਨੇ ਮਾਡਲ ਟਾਊਨ(ਅਰਬਨ ਅਸਟੇਟ) ਦੇ ਤੀਜੇ ਫੇਸ ਲਈ 1976 ਵਿੱਚ ਇਕੁਆਇਰ
ਕਰ ਲਈ ਸੀ। ਸੰਬੰਧਤ ਮਾਲਕ ਇਸ ਜ਼ਮੀਨ ਦਾ ਮੁਆਵਜ਼ਾ ਵੀ ਹਾਸਲ ਕਰ ਚੁੱਕੇ ਹਨ। ਸਿੱਟੇ ਵਜੋਂ ਇਸ
ਜ਼ਮੀਨ ਦਾ ਇੰਤਕਾਲ ਪੰਜਾਬ ਸਰਕਾਰ ਦੇ ਨਾਂਅ ਤਬਦੀਲ ਹੋ ਗਿਆ ਸੀ। ਸ਼੍ਰੀ ਗਰਗ ਅਨੁਸਾਰ ਉਨ੍ਹਾਂ ਨੇ
ਕਿਸੇ ਬਾਬੂ ਸਿੰਘ ਨਾਂਅ ਦੇ ਵਿਅਕਤੀ ਤੋਂ 10 ਮਾਰਚ 1970 ਨੂੰ ਉਕਤ ਖਸਰਾ ਨੰ: ਵਿਚਲੀ ਜ਼ਮੀਨ ਦਾ
ਇੱਕ ਟੱੁਕੜਾ 2500 ਰੁਪਏ ਵਿੱਚ ਖਰੀਦ ਲਿਆ ਸੀ, ਜਿਸ ਦਾ ਇੰਤਕਾਲ ਉਨ੍ਹਾਂ ਦੇ ਨਾਂਅ ਦਸੰਬਰ
1983 ਨੂੰ ਤਬਦੀਲ ਹੋ ਗਿਆ। </p>

<p>ਬਾਦਲ ਸੰਗਤ ਦਰਸ਼ਨਾਂ ਰਾਹੀਂ ਆਪਣੇ ਰਾਜਕਾਲ ਦੀਆਂ ਭੁੱਲਾਂ ਬਖਸ਼ਾ ਰਹੇ ਹਨ: ਅਵਤਾਰ ਸਿੰਘ
ਬਰਾੜ</p>

<p>ਫਰੀਦਕੋਟ
: ਮੱੁਖ ਮੰਤਰੀ ਸ਼ੀ੍ਰ ਪ੍ਰਕਾਸ਼ ਸਿੰਘ ਬਾਦਲ ਵਲੋਂ ਪਿੰਡਾ ਵਿਚ ਲਗਾਏ ਜਾਂ ਰਹੇ ਸੰਗਤ ਦਰਸ਼ਨ ਦਰਬਾਰ ਜਾ
ਇਸ ਪਾਰਟੀ ਦੇ ਵਿਧਾਇਕਾਂ ਅਤੇ ਮੰਤਰੀਆਂ ਵਲੋਂ ਵੰਡੇ ਜਾ ਰਹੇ ਖੁੱਲੇ ਚੈਕ ਦੇ ਕੇ ਆਪਣੇ ਸਵਾ
ਚਾਰ ਸਾਲ ਦੀਆਂ ਕੀਤੀਆਂ ਬੇਈਮਾਨੀਆਂ ਦੀ ਭੁੱਲ ਬਖਸ਼ਾ ਰਹੇ ਹਨ ਅਤੇ ਲੋਕਾਂ ਵਿਚ ਫਿਰ ਵੋਟਾਂ ਲੈਣ
ਲਈ ਵਿਚਰਨਾ ਚਾਹੁੰਦੇ ਹਨ । ਇਨ੍ਹਾਂ ਵਿਚਾਰਾ ਦਾ ਪ੍ਰਗਟਾਵਾ ਸਾਬਕਾ ਮੰਤਰੀ ਅਤੇ ਵਿਧਾਇਕ ਹਲਕਾ
ਫਰੀਦਕੋਟ ਸ: ਅਵਤਾਰ ਸਿੰਘ ਬਰਾੜ ਨੇ ਅੱਜ ਸੁਖਵਿੰਦਰ ਸਿੰਘ ਧਾਲੀਵਾਲ ਸੂਬਾ ਪ੍ਰਧਾਨ ਯੂ.ਸੀ.ਪੀ.ਆਈ.ਦੇ
ਗ੍ਰਹਿ ਵਿਖੇ ਪੱਤਰਕਾਰਾ ਨਾਲ ਗੱਲਬਾਤ ਕਰਦਿਆਂ ਕੀਤਾ । ਸ: ਬਰਾੜ ਨੇ ਅੱਗੇ ਕਿਹਾ ਕਿ ਕੇਂਦਰ ਸਰਕਾਰ
ਵਲੋਂ ਪੰਜਾਬ ਲਈ 250 ਕਰੋੜ ਰੁਪਏ ਦਾ ਹਿੱਸਾ ਆਇਆ, ਜਿਸ ਵਿਚ ਫਰੀਦਕੋਟ ਵਿਖੇ ਪਿਛਲੇ ਚਾਰ
ਸਾਲਾਂ ਤੋਂ ਬਾਬਾ ਫਰੀਦ ਹੈਲਥ ਸਾਇੰਸ਼ਿਜ ਯੂਨੀਵਰਸਿਟੀ ਵਿਖੇ ਰੱਖੇ ਨੀਂਹ ਪੱਥਰ ਦੀ ਉਸਾਰੀ ਲਈ
ਵੀ ਆਇਆ ਸੀ, ਜਿਸ 'ਤੇ ਇਕ ਵੀ ਇੱਟ
ਨਹੀ ਲੱਗ ਸਕੀ ਅਤੇ ਨੀਂਹ ਪੱਥਰ ਹੀ ਖੜਾ ਹੈ । </p>

<p>ਕੇਂਦਰ ਪਾਕਿ ਨੰੂ ਗੱਲਬਾਤ 'ਚ ਸ਼ਾਮਲ ਕਰਨ ਲਈ
ਤਿਆਰ:ਪੰਤ</p>

<p>ਸ੍ਰੀਨਗਰ
: ਕਸ਼ਮੀਰ ਬਾਰੇ ਕੇਂਦਰ ਸਰਕਾਰ ਦੇ ਮੱੁਖ ਵਾਰਤਾਕਾਰ ਕੇ.ਸੀ. ਪੰਤ ਨੇ ਕਿਹਾ ਕਿ ਭਾਰਤ ਜੰਮੂ-ਕਸ਼ਮੀਰ
ਬਾਰੇ ਭਾਵਪੂਰਨ ਗੱਲਬਾਤ ਵਿਚ ਪਾਕਿਸਤਾਨ ਨੰੂ ਸ਼ਾਮਲ ਕੀਤੇ ਜਾਣ ਦੇ ਵਿਰੁੱਧ ਨਹੀ ਹੈ ਅਤੇ ਅਜਿਹੇ
ਕਦਮ ਚੁੱਕਣ ਲਈ ਤਿਆਰ ਹੈ ਜਿਨ੍ਹਾਂ ਨਾਲ ਇਸ ਮਸਲੇ ਦਾ ਸ਼ਾਂਤਮਈ ਹੱਲ ਨਿਕਲ ਸਕਦਾ ਹੋਵੇ ।
ਡੈਮੋਕਰੈਟਿਕ ਫ੍ਰੀਡਮ ਪਾਰਟੀ ਦੇ ਮੱੁਖੀ ਸ਼ਬੀਰ ਅਹਿਮਦ ਸ਼ਾਹ ਦੇ ਪੱਤਰ ਦੇ ਜਵਾਬ ਵਿਚ ਲਿਖੇ ਦੋ
ਪੰਨਿਆਂ ਦੇ ਪੱਤਰ ਵਿਚ ਸ਼੍ਰੀ ਪੰਤ ਨੇ ਜਵਾਬ ਦਿੱਤਾ ਹੈ ਕਿ ਸ਼੍ਰੀ ਸ਼ਾਹ ਉਨ੍ਹਾਂ ਨੰੂ ਆ ਕੇ ਮਿਲਣ ਅਤੇ
ਆਪਣੀ ਚਿੱਠੀ ਵਿਚ ਉਠਾਏ ਮੁੱਦੇ ਵਿਚਾਰਨ । ਸ਼੍ਰੀ ਪੰਤ ਨੇ ਜਵਾਬ ਵਿਚ ਲਿਖੀ ਚਿੱਠੀ, ਜਿਸ ਦੀ
ਕਾਪੀ ਮਹੰੁਮਦ ਅਬਦੁੱਲਾ ਤਾਰੀ ਨੇ ਪ੍ਰੈਸ ਨੰੂ ਰਿਲੀਜ਼ ਕੀਤੀ, ਵਿਚ ਆਸ ਪ੍ਰਗਟ ਕੀਤੀ ਹੈ ਕਿ
ਪਾਕਿਸਤਾਨ ਭਾਰਤ ਨਾਲ ਸਹਿਯੋਗ ਕਰੇਗਾ ਅਤੇ ਅਜਿਹੇ ਕਦਮ ਚੁੱਕੇਗਾ ਜਿਨਾਂ ਨਾਲ ਅਮਨ ਅਮਲ ਨੰੂ ਅੱਗੇ
ਵਧਾਉਣ ਵਿਚ ਮਦਦ ਮਿਲੇਗੀ । ਸ਼੍ਰੀ ਪੰਤ ਨੇ ਆਪਣੇ ਪੱਤਰ ਵਿਚ ਕਿਹਾ ਹੈ ,ਭਾਰਤ ਸਰਕਾਰ ਨੇ ਅਜਿਹੇ
ਕਦਮ ਚੱੁਕੇ ਹਨ ਅਤੇ ਹੋਰ ਚੁੱਕਣ ਲਈ ਤਿਆਰ ਹੈ ਜਿਨਾਂ ਨਾਲ ਭਾਵਪੂਰਤ ਗੱਲਬਾਤ ਵਿਚ ਮਦਦ ਮਿਲੇਗੀ
।</p>

<p>ਦਿੱਲੀ ਵਿਚ ਰਹੱਸਮਈ ਬਾਂਦਰਨੁਮਾ ਵਿਅਕਤੀ ਵੱਲੋਂ ਕੀਤੇ ਗਏ ਹਮਲੇ 'ਚ
6 ਜ਼ਖਮੀ</p>

<p>ਨਵੀਂ
ਦਿੱਲੀ : ਰਾਜਧਾਨੀ ਦੇ ਵੱਖ ਵੱਖ ਹਿੱਸਿਆਂ ਵਿਚ ਕੱਲ੍ਹ ਸ਼ਾਮ ਤੋਂ ਰਹੱਸਮਈ ਬਾਂਦਰਨੁਮਾ ਵਿਅਕਤੀ
ਵੱਲੋਂ ਕੀਤੇ ਗਏ ਹਮਲੇ ਵਿਚ ਘੱਟੋ ਘੱਟ 6 ਵਿਅਕਤੀ ਜ਼ਖਮੀ ਹੋ ਗਏ। ਪਿਛਲੇ ਤਿੰਨ ਦਿਨਾਂ ਤੋਂ ਇਸ
ਬਾਂਦਰਨੁਮਾ ਵਿਅਕਤੀ ਨੇ ਰਾਜਧਾਨੀ ਵਿਚ ਦਹਿਸ਼ਤ ਫੈਲਾਈ ਹੋਈ ਹੈ। ਹੁਣ ਤਕ ਇਸ ਬਾਂਦਰਨੁਮਾਂ ਵਿਅਕਤੀ ਕਾਰਨ ਦਿੱਲੀ ਵਿਚ ਇਕ
ਵਿਅਕਤੀ ਦੀ ਜਾਨ ਜਾਂਦਰੀ ਰਹੀ ਅਤੇ 30 ਹੋਰ ਜ਼ਖਮੀ ਹੋ ਗਏ। ਐਤਵਾਰ ਨੂੰ ਪੂਰਬ ਦਿੱਲੀ ਤੋਂ ਇਸ
ਬਾਂਦਰਨੁਮਾ ਵਿਅਕਤੀ ਦੇ ਹਮਲਿਆਂ ਦੀ ਸ਼ੁਰੂਆਤ ਹੋਈ ਮਗਰੋਂ ਦੱਖਣੀ ਅਤੇ ਪੱਛਮੀ ਦਿੱਲੀ ਤੋਂ ਵੀ
ਇਸ ਵੱਲੋਂ ਹਮਲੇ ਕਰਨ ਦੀ ਸੂਚਨਾ ਮਿਲੀ। ਸੀਨੀਅਰ ਪੁਲਿਸ
ਅਧਿਕਾਰੀ ਸੁਰੇਸ਼ ਰਾਏ ਨੇ ਅੱਜ ਸਵੇਰੇ ਦੱਸਿਆ ਕਿ ਪੁਲਿਸ ਨੂੂੂੰ ਹੁਣ ਤਕ ਬਾਂਦਰਨੁਮਾ ਵਿਅਕਤੀ
ਵੱਲੋਂ ਹਮਲਾ ਕਰਨ ਬਾਰੇ 46 ਟੈਲੀਫੋਨ ਮਿਲੇ ਹਨ ਜਿਨ੍ਹਾਂ ਵਿਚਸ ਬਹੁਤੇ ਗਲਤ ਨਿਕਲੇ। ਸ਼੍ਰੀ ਰਾਏ ਨੇ
ਦੱਸਿਆ ਕਿ ਦੱਖਣੀ, ਪੱਛਮੀ ਅਤੇ ਦੱਖਣ-ਪੱਛਮੀ ਦਿੱਲੀ ਵਿਚ ਹੁਣ ਤੱਕ 6 ਵਿਅਕਤੀਆਂ ਨੂੰ ਇਸ
ਬਾਂਦਰਨੁਮਾ ੜਿਅਕਤੀ ਵਲੋਂ ਮਾਮਲੂੀ ਜ਼ਖਮੀ ਕਰਨ ਦੀ ਰਿਪੋਰਟ ਮਿਲੀ ਹੈ।</p>

<p>ਕੱਲ੍ਹ
ਦਿੱਲੀ ਦੇ ਅਸ਼ੋਕ ਨਗਰ ਇਲਾਕੇ ਵਿਚ ਇਕ ਪੰਜ ਮਹੀਨੇ ਦੀ ਗਰਭਵਤੀ ਔਰਤ ਸੁਮਨ ਇਸ ਬਾਂਦਰਨੁਮਾ
ਵਿਅਕਤੀ ਵਲੋਂ ਫੈਲਾਈ ਦਹਿਸ਼ਤ ਕਾਰਨ ਬਚਣ ਲਈ ਭੱਜਣ ਵੇਲੇ ਪੌੜੀਆਂ ਤੋਂ ਡਿਗ ਕੇ ਮਰ ਗਈ ਅਤੇ 12
ਹੋਰ ਵਿਅਕਤੀ ਇਸ ਵਲੋਂ ਕੀਤੇ ਗਏ ਕਥਿਤ ਹਮਲਿਆਂ ਵਿਚ ਜ਼ਖਮੀ ਹੋ ਗਏ।</p>

<p>ਮਸਜਿਦ ਢਾਹੁਣ 'ਤੇ ਅਡਬਾਨੀ ਦੀ ਖੁਸ਼ੀ ਦਾ
ਕੋਈ ਠਿਕਾਣਾ ਨਹੀਂ ਸੀ: ਚਸ਼ਮਦੀਦ ਗਵਾਹ</p>

<p>ਨਵੀਂ
ਦਿੱਲੀ : ਅਯੁੱਧਿਆ ਵਿਚ 6 ਦਸੰਬਰ 1992 ਵਿਚ ਬਾਬਰੀ ਮਸਜਿਦ ਢਾਹੁਣ ਦੇ ਮਾਮਲੇ ਦੀ ਜਾਂਚ ਕਰ ਰਹੇ
ਲਿਬਰਾਹਨ ਕਮਿਸ਼ਨ ਮੂਹਰੇ ਪੱਤਰਕਾਰ ਰੁਚਿਰਾ ਗੁਪਤਾ ਨੇ ਅੱਜ ਚਸ਼ਮਦੀਦ ਗਵਾਹ ਵਜੋਂ ਪੇਸ਼ ਹੋ ਕੇ 6
ਦਸੰਬਰ 1992 ਨੂੰ ਆਯੁੱਧਿਆ ਵਿਚ ਵਾਪਰੀਆਂ ਘਟਨਾਵਾਂ ਦਾ ਅੱਖੀ ਡਿੱਢਾ ਵੇਰਵਾ ਦੱਸਿਆ। ਰੁਚਿਰਾ
ਗੁਪਤਾ ਨੇ ਆਪਣੀ ਗਵਾਹੀ ਵਿਚ ਦੱਸਿਆ ਕਿ ਬਾਬਰੀ ਮਸਜਿਦ ਨੂੰ ਢਾਹੁਣ ਦਾ ਪ੍ਰੋਗਰਾਮ ਯੋਜਨਾਬੱਧ ਸੀ
ਅਤੇ ਬਾਜਪਾ ਆਗੂ ਮਸਜਿਦ ਢਹਿਣ 'ਤੇ ਬਹੁਤ ਖੁਸ਼ ਸਨ। ਇਥੋਂ ਤਕ ਕਿ ਸ਼੍ਰੀ ਐਲ.ਕੇ ਅਡਵਾਨੀ ਨੇ ਤਾਂ ਇਸ ਘਟਨਾ ਨੂੰ
"ਇਤਿਹਾਸਕ'' ਦੱਸਿਆ। ਇਸ
ਮੌਕੇ ਉਨ੍ਹਾਂ ਦੀ ਖੁਸ਼ੀ ਦਾ ਕੋਈ ਠਿਕਾਣਾ ਨਹੀਂ ਸੀ।
ਰੁਚਿਰਾ
ਗੁਪਤਾ, ਜੋ ਉਸ ਦਿਨ ਉਥੇ 'ਬਿਜ਼ਨਸ ਇੰਡੀਆ' ਮੈਗਜ਼ੀਨ ਲਈ
ਕਵਰੇਜ਼ ਕਰਨ ਗਈ ਸੀ, ਨੇ ਦੱਸਿਆ ਕਿ ਉਸ ਨੇ ਦੇਖਿਆ ਕਿ ਕੁਝ ਕਾਰ ਸੇਵਕ ਮਸਜਿਦ ਦੇ ਗੁੰਬਦ 'ਤੇ ਚੜ੍ਹ ਗਏ ਸਨ। ਜਿਸ ਵੇਲੇ ਅਡਵਾਨੀ ਨੇ
ਉਨ੍ਹਾਂ ਨੂੰ ਗੁੰਬਦ ਉਪਰ ਚੜ੍ਹਿਆ ਦੇਖਿਆ ਤਾਂ ਉਨ੍ਹਾਂ ਕਿਹਾ 'ਉਨਕੇ ਉਪਰ ਨਹੀਂ ਚੜ੍ਹਨਾ ਚਾਹੀਏ। ਢਾਂਚਾ ਤਾਂ ਗਿਰਨੇ ਹੀ ਵਾਲਾ
ਹੈ। ਉਨਕੋ ਚੋਟ ਲਗ ਸਕਤੀ ਹੈ।" ਉਨ੍ਹਾਂ ਕਾਰ ਸੇਵਕਾਂ ਨੂੰ ਥੱਲੇ ਆਉਣ ਲਈ ਆਖਿਆ ਪਰ
ਕਿਸੇ ਨੇ ਉਨ੍ਹਾਂ ਦੀ ਗੱਲ ਨਹੀਂ ਸੁਣੀ ਅਤੇ ਹੋਰ ਲੋਕ ਗੁੰਬਦ ਉਪਰ ਚੜ੍ਹ ਗਏ। ਰੁਚਿਰਾ ਨੇ ਦੱਸਿਆ ਕਿ ਜਿਸ ਵੇਲੇ ਪਹਿਲਾ ਗੁੰਬਦ ਡਿੱਗਿਆ ਤਾਂ
ਉਮਾ ਭਾਰਤੀ ਨੇ ਬਜ਼ੁਰਗ ਭਾਜਪਾ ਆਗੂ ਵਿਜੇ ਰਾਜੇ ਸਿੰਧੀਆਂ ਨੂੰ ਜੱਫੀ ਪਾ ਲਈ ਜੋ ਖੁਸ਼ੀ ਵਿਚ ਰੋ
ਰਹੀ ਸੀ, "ਸਰਕਾਰ ਤੋ ਗਿਰਨੇ ਹੀ ਵਾਲੀ ਹੈ ਤੋ ਸਸੁਰੀ ਮਸਜਿਦ ਕੋ ਕਿਉ ਬਚਾਏ"</p>

<p>ਵਿਜੇ
ਰਾਜੇ ਸਿੰਧੀਆ ਜੋ ਉਸ ਮੌਕੇ ਉਨ੍ਹਾਂ ਦੇ ਨੇੜੇ ਖੜ੍ਹੀ ਸੀ ਨੇ ਸਾਧਵੀ ਰਿਤੰਬਰਾ ਦੀ ਗੱਲ ਨਾਲ
ਸਹਿਮਤੀ ਪ੍ਰਗਟ ਕਰਦਿਆਂ ਕਿਹਾ 'ਤੁਮ ਸਹੀ ਕਹਿਤੀ ਹੋ' ਰੁਚਿਰਾ ਨੇ ਕਮਿਸ਼ਨ ਨੂੰ ਦੱਸਿਆ ਕਿ ਸ਼੍ਰੀ ਅਡਵਾਨੀ ਨੇ ਉਸ ਮੌਕੇ ਪੱਤਰਕਾਰਾਂ 'ਤੇ ਕੀਤੇ ਜਾ ਰਹੇ ਹਮਲਿਆਂ ਨੂੰ ਰੋਕਣ ਦਾ
ਕੋਈ ਯਤਨ ਨਹੀਂ ਕੀਤਾ ਅਤੇ ਉਸਨੂੰ (ਰੁਚਿਰਾ) ਆਖਿਆ 'ਇਤਨਾ ਬੜਾ ਦਿਨ ਹੈ, ਚੀਨੀ ਖਾਓ'' ਉਸਨੇ ਦੱਸਿਆ ਕਿ ਸ਼੍ਰੀ ਅਡਵਾਨੀ ਨੇ ਕਾਰ ਸੇਵਕਾਂ ਨੂੰ ਆਖਿਆ
ਕਿ ਉਹ ਉਥੇ ਬੈਂਚ ਲਾ ਕੇ ਖੁਦ ਸੜਕ ਉਤੇ ਪੈ ਜਾਣ ਤਾਂ ਜੋ ਸੀ.ਆਰ.ਪੀ.ਸੀ. ਨੂੰ ਉਥੇ ਦਾਖਲ
ਹੋਣ ਤੋਂ ਰੋਕਿਆ ਜਾ ਸਕੇ। ਉਸਨੇ ਅਡਵਾਨੀ ਦੇ ਹਵਾਲੇ ਨਾਲ ਆਖਿਆ 'ਫੌਜ਼ ਨੂੰ ਕਾਰ ਸੇਵਕਾਂ ਨੂੰ ਹੱਥ ਲਾਉਣ ਦਾ
ਹੱਕ ਨਹੀਂ''</p>

<p>ਰੁਚਿਰਾ
ਗੁਪਤਾ ਨੇ ਮਸਜਿਦ ਢਾਹੇ ਜਾਣ ਦੀ ਯੋਜਨਾ ਬਾਰੇ ਦੱਸਦਿਆ ਕਿਹਾ ਕਿ ਵਿਸ਼ਵ ਹਿੰਦੂ ਪ੍ਰੀਸ਼ਦ ਦੇ ਇਕ
ਕਾਰਕੁੰਨ, ਜਿਸ ਨੇ 5 ਦਸੰਬਰ ਨੰੂ ਪੱਤਰਕਾਰਾਂ ਨੂੰ ਕਾਰ ਸੇਵਾ ਵਾਲੀ ਥਾਂ ਦਿਖਾਈ, ਨੇ ਉਸਨੂੰ
ਦੱਸਿਆ ਕਿ ਉੜੀਸਾ ਤੋਂ ਇਕ ਇੰਜੀਨੀਅਰ ਆਇਆ ਹੈ ਜਿਸ ਨੇ ਕਾਰ ਸੇਵਕਾਂ ਨੂੰ ਦੱਸਿਆ ਹੈ ਕਿ
ਕਿਸ ਜਗ੍ਹਾਂ ਤੋਂ ਮਸਜਿਦ ਦੇ ਗੁਬੰਦ ਨੂੰ ਢਾਹੁਣਾ ਸ਼ੁਰੂ ਕੀਤਾ ਜਾਵੇ। ਉਸਨੇ ਜਦੋਂ ਕਾਰ ਸੇਵਕਾਂ ਨੂੰ
ਪੱੁਛਿਆ ਕਿ ਕੀ ਮਸਜਿਦ ਢਾਹੀ ਜਾਵੇਗੀ ਤਾਂ ਉਸਨੇ ਕਿਹਾ, 'ਅਸੀਂ ਸਾਰੀ ਯੋਜਨਾ ਬਣਾ ਲਈ ਹੈ ਅਤੇ ਹੁਣ ਅਸੀਂ ਆਪਣੇ
ਆਗੂਆਂ 'ਤੇ ਛੱਡਿਆ ਹੈ ਕਿ
ਉਹ ਕੀ ਫੈਸਲਾ ਲੈਂਦੇ ਹਨ'।</p>

<p>ਰੁਚਿਰਾ
ਨੇ ਦੱਸਿਆ ਕਿ ਅਚਾਰਿਆ ਧਰਮੇਂਦਰ ਨੇ ਸ਼੍ਰੀ ਅਡਵਾਨੀ ਨਾਲ ਸਲਾਹ ਕਰਨ ਮਗਰੋਂ ਐਲਾਨ ਕੀਤਾ ਕਿ ਕਿ
ਫੋਟੋਗ੍ਰਾਫਰਾਂ ਨੂੰ ਮਸਜਿਦ ਢਾਹੇ ਜਾਣ ਦੇ ਅਮਲ ਦੀਆਂ ਤਸਵੀਰਾਂ ਨਾ ਲੈਣ ਦਿੱਤੀਆਂ ਜਾਣ। ਉਸਨੇ ਕਈ
ਫੋਟੋਗ੍ਰਾਫਰਾਂ ਦੇ ਨਾਂ ਦੱਸੇ ਜਿਨ੍ਹਾਂ ਨੂੰ ਉਥੇ ਜੁੜੀ ਭੀੜ ਨੇ ਕੁੱਟਿਆ ਸੀ। ਉਸ ਨੇ ਦੱਸਿਆ ਕਿ
ਜਦੋਂ ਉਹ ਮਸਜਿਦ ਦੇ ਅੰਦਰ ਗਈ ਕਿ ਉਥੇ ਕੀ ਹੋ ਰਿਹਾ ਹੈ ਤਾਂ ਕੁਝ ਕਾਰ ਸੇਵਕਾਂ ਨੇ ਉਸ ਨੂੰ
ਮੁਸਲਮਾਨ ਕਹਿ ਕੇ ਉਸਤੇ ਹਮਲਾ ਕਰ ਦਿੱਤਾ। ਉਥੇ ਮੌਜੂਦ ਇਕ ਕਾਰ ਸੇਵਕ, ਜੋ ਉਸਨੂੰ ਜਾਣਦਾ
ਸੀ, ਨੇ ਉਸ ਮੌਕੇ ਉਸਦੀ ਜਾਨ ਬਚਾਈ। ਜਦੋਂ ਉਸਨੇ ਪੁਲਿਸ ਤੋਂ ਮਦਦ ਮੰਗੀ ਤਾਂ ਪੁਲਿਸ ਨੇ
ਉਸਨੁੰੂ ਉਥੋਂ ਕੈਮਰੇ ਛੱਡ ਕੇ ਚਲੇ ਜਾਣ ਲਈ ਕਿਹਾ।</p>

<p>ਉਸਨੇ
ਦੱਸਿਆ ਕਿ ਜਦੋਂ ਉਸਨੇ ਉਥੋਂ ਮੌਜੂਦ ਸ਼੍ਰੀ ਅਡਵਾਨੀ ਨੂੰ ਦੱਸਿਆ ਕਿ ਪੱਤਰਕਾਰਾਂ ਉਤੇ ਹਮਲੇ
ਕੀਤੇ ਜਾ ਰਹੇ ਹਨ ਅਤੇ ਉਨ੍ਹਾਂ ਨੂੰ ਕਾਰ ਸੇਵਕਾਂ ਨੂੰ ਰੋਕਣਾ ਚਾਹੀਦਾ ਹੈ ਤਾਂ ਉਨ੍ਹਾਂ ਉਸ ਦਾ ਕੋਈ
ਜਵਾਬ ਨਹੀਂ ਦੇਣ ਦੀ ਥਾਂ ਉਸਨੂੰ ਉਥੇ ਵੰਡੀ ਜਾ ਰਹੀ ਖੰਡ ਖਾਣ ਲਈ ਕਿਹਾ। ਉਸਨੂੰ ਕਮਿਸ਼ਨ ਨੇ
28 ਜੂਨ ਨੂੰ ਇਕ ਵਾਰ ਫੇਰ ਪੇਸ਼ ਹੋਣ ਲਈ ਆਖਿਆ ਹੈ।</p>

<p>ਇਸੇ
ਦੌਰਾਨ ਕਮਿਸ਼ਨ ਨੇ ਅੱਜ ਵਿਸ਼ਵ ਹਿੰਦੂ ਪ੍ਰੀਸ਼ਦ ਦੇ ਆਗੂਆਂ ਨਾਲ ਅਚਾਰਿਆ ਗਿਰੀਰਾਜ ਕਿਸ਼ੋਰ ਅਤੇ
ਵੀ.ਐਚ. ਡਾਲਮੀਆ, ਬਜਰੰਗ ਦਲ ਦੇ ਵਿਨੇ ਕਟਾਰੀਆ ਅਤੇ ਸ਼ਿਵ ਸੈਨਾ ਦੇ ਮੋਰੇਸ਼ਵਰ ਸਾਵੇ ਨੂੰ
ਮਸਜਿਦ ਢਾਹੇ ਜਾਣ ਸਬੰਧੀ ਆਪਣੀਆਂ ਭੂਮਿਕਾਵਾਂ ਸਪਸ਼ਟ ਕਰਨ ਲਈ ਅਗਲੇ ਮਹੀਨੇ ਕਮਿਸ਼ਨ ਮੂਹਰੇ ਪੇਸ਼
ਹੋਣ ਲਈ ਆਖਿਆ ਹੈ। ਕਮਿਸ਼ਨ ਦੇ ਚੇਅਰਮੈਨ ਐਮ.ਐਸ. ਲਿਬਰਾਹਨ ਨੇ ਇਥੇ ਦੱਸਿਆ ਕਿ ਸ਼੍ਰੀ
ਕਿਸ਼ੋਰ ਨੂੰ 19 ਅਤੇ 20 ਜੂਨ ਨੂੰ ਕਮਿਸ਼ਨ ਮੂਹਰੇ ਪੇਸ਼ ਹੋਣ ਲਈ ਆਖਿਆ ਹੈ ਜਦੋਂ ਕਿ ਸ਼੍ਰੀ
ਕਟਿਆਰ 25 ਅਤੇ 26 ਜੂਨ ਨੂੰ ਕਮਿਸ਼ਨ ਮੂਹਰੇ ਪੇਸ਼ ਹੋਣਗੇ। ਸ਼੍ਰੀ ਡਾਲਮੀਆ ਨੂੰ 28 ਜੂਨ ਨੂੰ ਅਤੇ
ਸ਼੍ਰੀ ਸਾਵੇ ਨੂੰ 29 ਜੂਨ ਨੂੰ ਪੇਸ਼ ਹੋਣ ਲਈ ਆਖਿਆ ਗਿਆ।</p>

<p>ਬਾਦਲ ਸਭ ਤੋਂ ਵੱਡਾ ਤਾਨਾਸ਼ਾਹ ਮੁੱਖ ਮੰਤਰੀ : ਟੌਹੜਾ</p>

<p>ਲੁਧਿਆਣਾ:-
ਆਲ ਇੰਡੀਆ ਸ਼੍ਰੋਮਣੀ ਅਕਾਲੀ ਦਲ ਦੇ ਪ੍ਰਧਾਨ ਜਥੇਦਾਰ ਗੁਰਚਰਨ ਸਿੰਘ ਟੌਹੜਾ ਨੇ ਪੰਜਾਬ ਦੇ ਮੁੱਖ
ਮੰਤਰੀ ਪ੍ਰਕਾਸ਼ ਸਿੰਘ ਬਾਦਲ ਉਤੇ ਦੋਸ਼ ਲਾਇਆ ਕਿ ਉਹ ਦੇਸ਼ ਦਾ ਸਭ ਤੋ ਵੱਡਾ ਤਾਨਾਸ਼ਾਹ ਸ਼ਾਸਕ ਹੈ
ਜਿਸ ਨੇ ਸਾਰੇ ਪ੍ਰਸ਼ਾਸਨਿਕ ਅਧਿਕਾਰ ਆਪਣੇ ਕੋਲ ਰੱਖ ਲਏ ਹਨ। ਇਸ ਤਰ੍ਹਾਂ ਉਨ੍ਹਾਂ ਨੇ ਕਈ
ਪ੍ਰਸ਼ਾਸਨਿਕ ਸੰਸਥਾਵਾਂ ਦੀ ਪੱਵਿਤਰਤਾ ਵੀ ਭੰਗ ਕਰ ਦਿੱਤੀ ਹੈ। ਉਨ੍ਹਾਂ ਕਿਹਾ ਕਿ ਸ਼੍ਰੀ ਬਾਦਲ ਅਕਾਲੀ
ਦਲ ਦੇ ਉਸ ਮੋਰਚੇ ਨੂੰ ਭੁੱਲ ਭੁਲਾ ਗਏ ਜਿਹੜਾ ਉਦੋਂ ਦੀ ਤਾਨਾਸ਼ਾਹ ਪ੍ਰਧਾਨ ਮੰਤਰੀ ਸ਼੍ਰੀਮਤੀ
ਇੰਦਰਾ ਗਾਂਧੀ ਦੇ ਵਿਰੁੱਧ ਲਾਇਆ ਅਤੇ ਰਾਜਾਂ ਨੂੰ ਖੁਦਮੁਖਤਿਆਰੀ ਦੇ ਅਧਿਕਾਰ ਲਈ ਅੰਦੋਲਨ
ਕੀਤਾ ਸੀ। ਜਥੇਦਾਰ ਟੌਹੜਾ ਨੇ ਇਹ ਦੋਸ਼ ਇਥੇ 'ਸਾਂਝ ਸਵੇਰਾ' ਨੂੰ ਦਿੱਤੀ ਇੱਕ
ਇੰਟਰਵਿਊ ਵਿਚ ਲਾਏ ਜਾ ਰਹੇ ਸੰਗਤ ਦਰਸ਼ਨ ਪ੍ਰੋਗਰਾਮਾਂ ਨੂੰ ਇਕ ਚੋਣ ਸਟੰਟ ਦੱਸਿਆ ਅਤੇ ਕਿਹਾ
ਕਿ ਉਹ ਇਸ ਤਰ੍ਹਾਂ ਕਰਕੇ ਭੋਲੇ ਭਾਲੇ ਲੋਕਾਂ ਨੂੰ ਗੁੰਮਰਾਹ ਕਰ ਰਹੇ ਹਨ। ਉਨ੍ਹਾਂ ਕਿਹਾ ਕਿ ਪੰਜਾਬ
ਸਰਕਾਰ ਨੇ ਪੰਜਾਬ ਵਿਚ ਚੌਹਰੀਆਂ ਸੜਕਾਂ ਬਣਾਉਣ ਲਈ ਓਰੀਐਂਟਲ ਬੈਂਕ ਆਫ ਕਾਮਰਸ ਤੋਂ 400 ਕਰੋੜ
ਰੁਪਏ ਦਾ ਕਰਜ਼ਾ ਲਿਆ ਜਿਸ ਕਰਜ਼ੇ ਨੂੰ ਹੁਣ ਸ੍ਰੀ ਬਾਦਲ ਸੰਗਤ ਦਰਸ਼ਨ ਦੇ ਨਾਂ ਉਤੇ ਪਾਣੀ ਵਾਂਗ ਰੋੜ੍ਹ
ਰਹੇ ਹਨ। </p>

<p>ਝੂਠੇ ਪੁਲਿਸ ਮੁਕਾਬਲੇ 'ਚ ਨੌਜਵਾਨ ਨੂੰ ਮਾਰਨ ਵਾਲੇ
ਐਸ.ਪੀ. ਤੇ ਸਾਬਕਾ ਡੀ.ਐਸ.ਪੀ. ਦੇ ਗੈਰ ਜ਼ਮਾਨਤੀ ਵਰੰਟ ਜਾਰੀ</p>

<p>ਅਮ੍ਰਿੰਤਸਰ
: ਮਾਨਯੋਗ ਹਾਈਕੋਰਟ ਦੇ ਨਿਰਦੇਸ਼ਾਂ 'ਤੇ ਸਥਾਨਕ ਚੀਫ ਜੁਡੀਸ਼ੀਅਲ ਮੈਜਿਸਟ੍ਰੇਟ ਸ਼੍ਰੀ ਬੀ.ਐਸ.ਸੰਧੂ ਨੇ 1991 'ਚ ਘਰੋਂ ਚੁੱਕ ਝੂਟਾ ਪੁਲਿਸ ਮੁਕਾਬਲਾ ਬਣਾ
ਕੇ ਮਾਰੇ ਗਏ ਮੁਖਤਿਆਰ ਸਿੰਘ ਦੇ ਕਤਲ ਕੇਸ ਦੀ ਜਾਂਚ ਕਰਕੇ ਧਾਰਾ 302 ਤਹਿਤ ਐਸ.ਪੀ. ਮਹਿੰਦਰ
ਸਿੰਘ ਫੌਜੀ ਅਤੇ ਸਾਬਕਾ ਡੀ.ਐਸ.ਪੀ. ਗੁਰਮੀਤ ਚੰਦ ਦੇ ਗੈਰ ਜ਼ਮਾਨਤੀ ਵਰੰਟ ਜਾਰੀ ਕੀਤੇ ਗਏ ਹਨ। ਇਸ ਸਬੰਧੀ ਜਾਣਕਾਰੀ ਦਿੰਦਿਆਂ ਸੀਨੀਅਰ ਐਡਵੋਕੇਟ ਸ਼੍ਰੀ
ਲਖਵਿੰਦਰ ਸਿੰਘ ਰੰਧਾਵਾ ਨੇ ਦੱਸਿਆ ਕਿ 1991 'ਚ ਮੁਖਤਿਆਰ ਸਿੰਘ ਨੰੂ ਉਸਦੇ ਘਰੋਂ ਵੇਰਕੇ ਤੋਂ ਉਸ ਵੇਲੇ ਦੇ ਐਸ.ਐਚੱ.ਓ (ਮੌਜੂਦਾ
ਐਸੱ.ਪੀ.) ਸ਼੍ਰੀ ਮਹਿੰਦਰ ਸਿੰਘ ਫੌਜੀ ਨੇ ਚੁੱਕ ਲਿਆ ਅਤੇ ਉਸ ਵੇਲੇ ਦੇ ਅਮਿੰ੍ਰਤਸਰ ਪੁਲਿਸ ਵਲੋਂ
ਬਣਾਏ ਗਏ ਤਸ਼ਦੱਦ ਕੇਂਦਰ (ਬੱੁਚੜਖਾਨੇ) ਬੀ.ਆਰ. ਮਾਡਰਨ ਹਾਈ ਸਕੂਲ ਵਿਖੇ ਮੁਖਤਿਆਰ ਸਿੰਘ 'ਤੇ ਭਾਰੀ ਤਸ਼ਦੱਦ ਕੀਤਾ ਕਿ ਉਹ
ਅੱਤਵਾਦੀਆਂ ਨੂੰ ਪਨਾਹ ਦਿੰਦਾ ਹੈ, ਪਰ ਉਸ ਵੱਲੋਂ ਕੁੱਟਮਾਰ ਖਾਣ ਦੇ ਬਾਵਜੂਦ ਜਦੋਂ ਪੁਲਿਸ ਦੇ
ਪੱਲੇ ਕੁਝ ਨਾ ਪਿਆ ਤਾਂ ਐਸ.ਐਚ.ਓ ਮਹਿੰਦਰ ਸਿੰਘ ਅਤੇ ਇੰਸਪੈਕਟਰ ਗੁਰਮੀਤ ਸਿੰਘ ਦੀ ਘਰਵਾਲੀ
ਸੁਰਿੰਦਰ ਕੌਰ ਕੋਲੋਂ ਦੋ ਲੱਖ ਰੁਪਏ ਦੀ ਮੰਗ ਕੀਤੀ, ਪਰ ਬੇਬਸ ਮਹਿਲਾ ਜਦੋਂ ਪੈਸੇ ਦੇਣ ਤੋਂ
ਅਸਮਰੱਥ ਰਹੀ ਤਾਂ ਉਪਰੋਕਤ ਪੁਲਸ ਅਧਿਕਾਰੀਆਂ ਨੇ ਕਰੀਬ ਦੋ ਹਫਤੇ ਬਾਅਦ ਮੁਖਤਿਆਰ ਸਿੰਘ ਨੂੰ
ਝੂਠਾ ਪੁਲਸ ਮੁਕਾਬਲਾ ਬਣਾ ਕੇ ਮਾਰਿਆ ਦਿਖਾ ਦਿੱਤਾ। </p>

<p>ਘੱਲੂਘਾਰਾ ਦਿਵਸ ਬਾਰੇ ਵਿਵਾਦ 'ਚ
ਨਹੀ ਪਵਾਂਗੇ: ਬਾਦਲ</p>

<p>ਗੁਰੂ
ਕਾ ਬਾਗ: ਪੰਜਾਬ ਦੇ ਮੱੁਖ ਮੰਤਰੀ ਪ੍ਰਕਾਸ ਸਿੰਘ ਬਾਦਲ ਨੇ 6 ਜੂਨ ਨੰੂ ਅਕਾਲ ਤਖਤ ਸਾਹਿਬ ਦੇ
ਮਨਾਏ ਜਾ ਰਹੇ ਘੱਲੂਘਾਰਾ ਦਿਵਸ ਵਿਚ ਸ਼ਾਮਿਲ ਹੋਣ ਸਬੰਧੀ ਕਿਹਾ ਕਿ ਸਰਕਾਰ ਕਿਸੇ ਵਾਦ-ਵਿਵਾਦ ਵਿਚ
ਪੈਣਾ ਨਹੀ ਚਾਹੁੰਦੀ । ਉਂਜ ਵ ਅਜਿੇ ਸੰਤ ਜਰਨੈਲ ਸਿੰਘ ਭਿੰਡਰਾਵਾਲੇ ਦੀ ਬਰਸੀ ਮਨਾਉਣ ਬਾਰੇ ਵੀ
ਸਿੱਖ ਜਥੇਬੰਦੀਆਂ ਦੀ ਇਕ ਰਾਏ ਨਹੀ ਹੋਈ । ਅੱਜ ਇਥੇ ਸੰਗਤ ਦਰਸ਼ਨ ਪ੍ਰੋਗਰਾਮ ਦੌਰਾਨ ਪੱਤਰਕਾਰਾਂ
ਨਾਲ ਗੱਲਬਾਤ ਕਰਦਿਆ ਸ਼੍ਰੀ ਬਾਦਲ ਨੇ ਕਿਹਾ ਕਿ ਘੱਲੂਘਾਰਾ ਦਿਵਸ ਮਨਾਉਣ ਦੀ ਸਾਰੀ ਜਿੰਮੇਵਾਰੀ
ਸ਼੍ਰੋਮਣੀ ਗੁਰਦੁਆਰਾਂ ਪ੍ਰਬੰਧ ਕਮੇਟੀ ਦੀ ਹੈ । ਜਥੇਦਾਰ ਟੌਹੜਾ ਵਲੋਂ ਸ੍ਰੋਮਣੀ ਕਮੇਟੀ ਦੀਆਂ ਚੋਣਾਂ
ਮਿਥੇ ਸਮੇਂ 'ਤੇ ਨਾ ਕਰਵਾਏ ਜਾਣ
ਦੇ ਦੋਸ਼ਾ ਸਬੰਧੀ ਉਨ੍ਹਾਂ ਕਿਹਾ ਕਿ ਸ੍ਰੋਮਣੀ ਕਮੇਟੀ ਦੀਆਂ ਚੋਣਾਂ ਕੇਂਦਰ ਸਰਕਾਰ ਨੇ ਕਰਵਾਉਣੀਆਂ ਹਨ
। ਉਨ੍ਹਾਂ ਕਿਹਾ ਕਿ ਦੂਸਰੇ ਰਾਜਾਂ ਨੰੂ ਵੀ ਸੰਗਤ ਦਰਸ਼ਨ ਪ੍ਰੋਗਰਾਮ ਸੁਰੂ ਕਰਕੇ ਲੋਕਾਂ ਦੀਆਂ ਮੁਸ਼ਕਲਾਂ
ਨੰੂ ਨੇੜਿਓ ਜਾਣ ਕੇ ਉਨ੍ਹਾਂ ਦਾ ਹੱਲ ਕਰਨਾ ਚਾਹੀਦਾ ਹੈ । ਉਨ੍ਹਾਂ ਕਿਹਾ ਕਿ ਪਹਿਲਾਂ ਪੰਜਾਬ ਸਰਕਾਰ
ਦੀ ਆਰਥਿਕ ਹਾਲਤ ਮਾੜੀ ਹੋਣ ਕਰਕੇ 'ਸੰਗਤ ਪ੍ਰੋਗਰਾਮ ਸੁਰੂ ਕਰ ਦਿੱਤਾ ਗਏ ਹਨ । ਉਨ੍ਹਾਂ ਕਿਹਾ ਕਿ ਪੰਜਾਬ ਸਰਕਾਰ ਦਲਿਤਾਂ ਲਈ
ਕਈ ਨਵੀਆਂ ਯੋਜਨਾਵਾਂ ਉਲੀਕ ਰਹੀ ਹੈ । ਉਨ੍ਹਾਂ ਕਿਹਾ ਕਿ ਸਰਕਾਰ ਨੇ ਪਿਛਲੇ ਚਾਰ ਸਾਲਾ ਵਿਚ
ਸਮਾਜਿਕ,ਰਾਜਨੀਤਕ ਵਾਤਾਵਰਣ ਵਿਚ ਮਹੱਤਵਪੂਰਨ ਤਬਦੀਲੀਆਂ ਲਿਆ ਕੇ ਆਰਥਿਕ ਖੇਤਰ ਦੀ ਬਹਾਲੀ ਵੱਲ
ਵਿਸ਼ੇਸ਼ ਪੁਲਾਂਘਾਂ ਪੁਟੀਆਂ ਹਨ । </p>

<p> </p>






</body></text></cesDoc>