<cesDoc id="guj-w-samachar-news-01-03-01" lang="guj">
<cesHeader type="text">
<fileDesc>
<titleStmt>
<h.title>guj-w-samachar-news-01-03-01.txt</h.title>
<respStmt>
<respType>Electronic file created by</respType>
<respName>Department of Linguistics, Lancaster University</respName>
<respType>text collected by</respType>
<respName>Andrew Hardie</respName>
<respType>transferred into Unicode by</respType>
<respName>"Unicodify" software by Andrew Hardie</respName>
</respStmt>
</titleStmt>
<publicationStmt>
<distributor>UCREL</distributor>
<pubAddress>Department of Linguistics, Lancaster University, Lancaster, LA1 4YT, UK</pubAddress>
<availability region="WORLD"></availability>
<pubDate>03-08-24</pubDate>
</publicationStmt>
<sourceDesc>
<biblStruct>
<monogr>
<h.title>"Gujarat Samachar" internet news (www.gujaratsamachar.com), news stories collected on 01-03-01</h.title>
<h.author>Gujarat Samachar</h.author>
<imprint>
<pubPlace>Gujarat, India</pubPlace>
<publisher>Gujarat Samachar</publisher>
<pubDate>01-03-01</pubDate>
</imprint>
</monogr>
</biblStruct>
</sourceDesc>
</fileDesc>
<encodingDesc>
<projectDesc>Text collected for use in the EMILLE project.</projectDesc>
<samplingDesc>Simple written text only has been transcribed. Diagrams, pictures and tables have been omitted and their place marked with a gap element.
</samplingDesc>
<editorialDecl>
<conformance level="1"></conformance>
</editorialDecl>
</encodingDesc>
<profileDesc>
<creation>
<date>03-08-24</date>
</creation>
<langUsage>Gujarati</langUsage>
<wsdUsage>
<writingSystem id="ISO/IEC 10646">Universal Multiple-Octet Coded Character Set (UCS).</writingSystem>
</wsdUsage>
<textClass>
<channel mode="w">print</channel>
<constitution type="composite"></constitution>
<domain type="public"></domain>
<factuality type="fact"></factuality>
</textClass>
<translations></translations>
</profileDesc>
<revisionDesc></revisionDesc>
</cesHeader>

<text>
<body>




<p><head>અર્થતંત્રને ગતિશીલ બનાવતું વિકાસલક્શી બજેટ</head></p>

<p><head>મૂડી બજાર, ઉદ્યોગો, રોકાણને વેગ આપવાનો
યશવંત સિંહાનો પ્રયાસ : ૧,૧૬,૩૧૪ કરોડની રાજકોષીય ખાધ : સરકારી ખર્ચ
નિયંત્રીત કરવા ભરતી ઉપર અંકુશ : ડિસઇન્વેસ્ટમેન્ટનો લક્શ્યાંક રૂા. ૧૨,૦૦૦ કરોડ</head></p>

<p>નવી દિલ્હી, તા. ૨૮</p>

<p>નાણાં પ્રધાન શ્રી યશવંતસિંહાએ આજે
લોકસભામાં રજૂ કરેલા તેમના ચોથા બજેટમાં, ટુ વ્હીલરો, કારો, સોફ્ટ ડ્રીન્ક તથા
આયાતી સોનાની કિંમતો ઘટે એવી કેટલીક આકર્ષક જોગવાઈઓ રજૂ કરવાની સાથે સાથે
ટપાલના દરો વધારવા તથા સિગારેટ અને બીડી ઉપર ૧૫ ટકાનો તોતીંગ આબકારી
સરચાર્જ ઝીંકીને થોડો ચચરાટ પણ પેદા કર્યો છે. આકવવેરા ઉપરના તમામ સરચાર્જો દૂર
કરી દેવામાં આવ્યા છે. જેમાં ગુજરાત ભૂકંપના બે ટકાના સરચાર્જનો સમાવેશ થતો નથી.
આ બધી જોગવાઈઓને પરિણામે સરકારને રૂા. ૨૯૫૨ કરોડની ચોખ્ખી મહેસુલી
ખાધ જશે. નાણાંકીય ક્શેત્રના સુધારા ચાલુ રાખીને નાણાંપ્રધાને ડિવિડંડ
ટેક્સમાં કાપ જાહેર કર્યો છે તથા લાંબા ગાળાની આંતરમાળખા યોજનાઓમાં રોકાણ
માટેની રાહતો તેમજ સીધા વિદેશી રોકાણ અંગે ઉદાર બનાવાયેલા નિયમોને પણ
બહાલી કરી છે.</p>

<p>જામ, જેલી, અથાણા તથા સોસ જેવા પ્રોસેસ કરેલા
ખોરાકોને આબકારી જકાતમાંથી મુક્તિ અપાઈ છે. સ્વદેશી ક્શેત્રની ચુસ્તતા માટે ચા,
કોફી, કોપરૂં, નારિયેળ, ખાદ્ય તેલો તથા સેકન્ડહેન્ડ મોટરકારો ઉપરની આયાત જકાત
વધારી દેવામાં આવી છે.</p>

<p>આયાત કરેલા સોનાની કિંમત જો કે ઘટશે કારણ
કે ૧૦ ગ્રામ ઉપરની ૪૦૦ રૂપિયાની જકાત ઘટાડીને રૂા. ૨૫૦ની કરવામાં આવી છે.</p>

<p>બજેટ-૨૦૦૧ વિકાસલક્શી તથા બીજી પેઢીના
સુધારાઓને આગળ ધપાવતું હોવાનો દાવો કરીને નાણાંપ્રધાન શ્રી
યશવંતસિંહાએ આજે લોકસભામાં રજૂ કરેલા ૨૦૦૧-૦૨ના સામાન્ય બજેટમાં એક સિંગલ ૧૬
ટકાનો દર દાખલ કરીને આબકારી જકાતના માળખાને સુધારીને રૂા. ૪૬૭૭ કરોડ એકઠા કરી
લેવાનો પ્રયાસ કર્યો છે. ડિવિડંડ ટેક્સ ઘટાડીને ૧૦ ટકા કરી દેવાયો છે તથા ગુજરાત
ભૂકંપ સરચાર્જ સિવાય તમામ વ્યક્તિગત તથા કોર્પોરેટ આવકવેરા ઉપરના તમામ સરચાર્જો રદ
કરી દેવાયા છે. સર્વિસ રકમ નેટને વિસ્તૃત કરવામાં આવી છે તથા ૨૫૦૦૦ ઉપરની મુદતી
થાપણો ઉપર કર ઝીંક્યો છે. આંતરમાળખા માહિતી માટેની યોજનાઓ માટે નાણાંપ્રધાન
૧૦ વર્ષનો ટેક્સ હોલી-ડે જાહેર કર્યો છે તો નવી ટેલિકોમ યોજનાઓ માટે ટેક્સ
બ્રેક જાહેર કર્યો છે. કેટલીક કૃષિઓ ચીજોને પણ રક્શણ પૂરું પાડવામાં આવ્યું છે. શ્રમ
ક્શેત્રમાં પણ મહત્ત્વના સુધારાઓનો પ્રયાસ થયો છે તથા ૧૪ લઘુ ઉદ્યોગ ક્શેત્રોને
અનામત મુક્ત જાહેર કરાયું છે.</p>

<p>આવકવેરાના પ્રલોભનો થોકબંધ ચીજો ઉપર
આબકારી જકાતમાં કરાયેલા વધારા સાથે મિશ્રીત કરી દેવાઈ છે અને ૧૬ ટકાનો સેસબેટ
આબકારી જકાતનો સિંગલ દર જાહેર કરાયો છે. ગુજરાતના ભૂકંપના સંદર્ભમાં રાષ્ટ્રીય
આપત્તિ ભંડોળ છલકાવી દેવા માટે નાણાંપ્રધાને સિગારેટો, બીડી, પાન-મસાલા ઉપર
૧૫ ટકાનો વિશેષ સરચાર્જ ઝીંકી દીધો છે.</p>

<p>વ્યક્તિગત તથા કોર્પોરેટ આવકવેરાનાદરોમાં
કોઈ ફેરફાર નથી કરાયો પણ ઓછો પગાર મેળવતા લોકોને થોડું પ્રલોભન આપતા ૮૮મી
કલમ હેઠળ રાહતો આપવામાં આવી છે. તથા પોતાના કબજાવાળી મિલ્કતો માટે આવી લોનો
ઉપરના વ્યાજની કપાતમાં રૂા ૧ લાખથી વધારી રૂા. ૧.૫ લાખ કરવામાં આવી છે.</p>

<p>લોકસભામાં પોતાનું ચોથું બજેટ રજૂ કરતા
નાણાંપ્રધાન શ્રી સિંહાએ રાંધણગેસ, કેરોસીન, ૧૦ હોર્સપાવરના ડીઝલ એન્જિન
તથા કોટન યાર્ન સિવાયના યાર્ન ઉપરની ૮ ટકા આબકારી જકાતને ૧૬ ટકાના એક સિંગલ સેસના
દરો હેઠળ લાવી દીધી છે. ડીઝલ તથા પેટ્રોલ ઉપર ૧૬ ટકાની ઉચ્ચતર આબકારી જકાત
લાદી છે પણ ગ્રાહકોને ખાતરી આપવામાં આવી છે કે આ બોજો તેમની ઉપર નહિ પડે.</p>

<p>નાણાંકીય જવાબદારી વિધેયક સાથે સુસંગત
રહેતા શ્રી સિંહાએ આગામી વર્ષની નાણાંકીય ખાધ જી.ડી.પી.ના ૪.૭ ટકાની સપાટીએ
રાખી છે. શ્રી સિંહાએ યુરિયાને અંકુશમુક્ત કરીને સબસીડીઓ-તર્કસંગત બનાવી છે તથા
રાજ્યોના વિદ્યુત બોર્ડોની પુનર્રચનની યોજનાઓ પણ જાહેર કરી છે.</p>

<p>નાણાંપ્રધાને સંરક્શણ ખર્ચમાં રૂા. ૭૫૩૯
કરોડનો વધારો જાહેર કર્યો છે તથા રૂા. ૧૧,૬૩૩ કરોડની વ્યાજ ચૂકવણીની પણ
જોગવાઈ કરી છે. રાજ્યોને રૂા. ૨૨૧૧ કરોડની ગ્રાન્ટ જાહેર કરી છે જે બધી મળીને
બિન યોજનાકીય ખર્ચ રૂા. ૨,૭૫,૧૨૩ કરોડનો અત્યારથી થઈ જશે. આ માટે ચાલુ વર્ષ માટ
સુધારેલા અંદાજોમાં રૂા. ૨,૪૯,૨૮૪ કરોડનો છે. તાજેતરના વર્ષોમાં ચાલુ
રહેલું નાણાંકીય ખાધનું ૫.૧ ટકાનું લક્શ્યાંક પહેલી જ વાર સિદ્ધ થયું હોવાનું
જણાવીને નાણાંપ્રધાને કહ્યું છે કે ડિસઇન્વેસ્ટમેન્ટમાં ધીમીગતિ, કુદરતી
આપત્તિઓ તથા પેટ્રોલિયમ પેદાશોના ગ્રાહકોને અપાયેલી રાહતોને કારણે સરકારી
નાણાં ઉપર આવેલા દબાણો છતાં આ સિદ્ધિ હાંસલ કરી શકાઈ છે.</p>

<p>બજેટની ખાધ કરવેરા દરખાસ્તોને રૂા. ૫૫૦૦
કરોડનું મહેસુલી નુકસાન થશે તથા કસ્ટમ જકાતમાં થયેલા ફેરફારોથી રૂા. ૨૧૨૮ કરોડનું
નુકસાન થશે. આબકારી જકાતમાં કરાયેલા ફેરફારોથી રૂા. ૪૬૭૭ કરોડની આવક થવાની
અપેક્શા છે સીધા તથા આડકતરા વેરામાં કરાયેલા તમામ ફેરફારોને ધ્યાનમાં લેતાં
રૂા. ૨૯૫૧ કરોડનું ચોખ્ખું નુકસાન થાય છે.</p>

<p>સીધા કરવેરામાંથી રૂા. ૮૪,૮૦૦ કરોડ તથા
આડકતરા વેરામાંથી રૂા. ૧,૪૦,૯૯૨ કરોડની આવક થશે આ બધી આવકો રૂા. ૧,૬૩,૦૩૧
કરોડની થવાનો અંદાજ છે અને ૧,૧૬,૩૧૪ કરોડની નાણાંકીય ખાધ રહે છે જે
જીડીપીના ૪.૭ ટકા જેટલી હશે.</p>

<p>બજેટમાં કુલ ૩,૭૫,૨૨૩ કરોડનો ખર્ચ અંદાજાયો
છેજે પૈકી ૧૦૦,૧૦૦ કરોડ યોજનાકીય તથા રૂા. ૭૫,૧૨૩ કરોડ બિનયોજનાકીય છે. કેન્દ્રીય
તથા રાજ્યોની યોજનાઓ માટે રૂા. ૧૦૦,૧૦૦ કરોડનો અંદાજપત્રીય ટેકો જાહેર થયો છે.
જે ૨૦૦૦-૨૦૦૧ના સુધારેલા અંદાજોમાં રૂા. ૧૩,૮૬૨ કરોડનો કે ૧૬ ટકાનો
વધારો સૂચવે છે. કેન્દ્રીય યોજના માટેનો કુલ અંદાજપત્રીય ટેકો ચાલુ વર્ષના
સુધારેલા રૂા. ૪૮,૬૨૯ કરોડના અંદાજોથી વધારીને આગામી વર્ષે રૂા. ૫૯,૪૫૬
કરોડ કરવામાં આવ્યો છે.</p>

<p>બજેટની એકંદર ફિલસૂફીની રૂપરેખા આપતા શ્રી
સિંહાએ કહ્યું હતું કે બજેટમાં કૃષિ ક્શેત્રના ઝડપી વિકાસનો, ગ્રામ વિકાસનો તથા
આંતરમાળખાકીય રોકાણને સઘન બનાવવાનો લક્શ્યાંક રખાયો છે તથા ટેક્સ નેટ વિસ્તૃત કરીને
તથા ખર્ચ ઉપર કાપ મૂકીને બેકીંગ તથા નાણાંકીય ક્શેત્રોના સુધારા ચાલુ રાખવાનો
પણ હેતુ છે. આ સંદર્ભમાં નાણાંપ્રધાન નાણાંકીય ક્શેત્રના સુધારા માટે એફ.આઇ.આઇ.
દ્વારા પોર્ટફોલિયો રૂટ હેઠળ કમાતા વિદેશી રોકાણની મર્યાદા ૪૦ ટકાથી વધારી ૪૯
ટકા કરી છે કેપિટલ એકાઉન્ટના ઉદારીકરણના પણ અનેક પગલા લેવાયા છે. ભારતીય કંપનીઓ
ઓટોમેટીક રૂટ દ્વારા દર વર્ષે વિદેશમાં ૫૦૦ લાખ ડોલરનું રોકાણ કરી શકશે.</p>

<p>બેંકોમાં સર્વિસ બોર્ડોને આ વર્ષની ૩૧મી
જુલાઈથી રદ કરી દેવામાં આવશે. જેથી બેંકોએ પોતે હવે ભરતી કરવાની રહેશે. સ્ટાફની
છટણી કરવાની પરવાનગી માંગતી કંપનીઓની પ્રેશોલ્ડ મર્યાદા ૧૦૦થી વધારીને ૧૦૦ની
કરવામાં આવી છે. આ વર્ષે ૧લી એપ્રિલથી સંખ્યાજનક નિયંત્રણ રદ થવાને કારણે ડમપિંગનો
ભય દૂર કરતા શ્રી સિંહાએ ઘણી કૃષિ પેદાશો ઉપરના આયાત જકાતને વધારી છે અને
સેકંડ હેન્ડ કારોની આયાત ઉપરની જકાત પણ ૧૮૦ ટકા વધારી દીધી છે.</p>

<p>આબકારી જકાતના માળખાને તર્કસંગત બનાવવાને
કારણે એડવેલોટમ જકાતોમાંથી થતી ૮૦ ટકા જેટલી આવક ૧૬ ટકાના સિંગલ રેટમાંથી
આવશે. સર્વિસ ટેક્સની બુનિયાદ બૃહદ બનાવતા હવે બેકીંગ તથા ફાઇનાન્સીયલ સેવાઓ,
બ્રોડકાસ્ટીંગ સેવાઓ, ઓથોરાઇઝ્ડ વ્હીકલ સર્વિસ સ્ટેશનો તથા આનુષાંગિક વીમા
સેવાઓ જેવા ક્શેત્રોને પણ આવરી લેવામાં આવ્યા છે.</p>

<p>માલિકો લેઓફ, છટણી કે તાળાબંધીનો
આશ્રય ન લે તે માટે નોકરીની પૂરી શર્તોના પ્રત્યેક કલમનું સેપરેશનનો સમય ૧૫ દિવસથી
વધારીને ૪૫ દિવસનો કરવામાં આવ્યો છે. આગામી વર્ષે ડિસઇન્વેસ્ટમેન્ટનો લક્શ્યાંક
રૂા. ૧૨,૦૦૦ કરોડનો નક્કી કરાયો છે.</p>

<p>સરકારી ખર્ચ ઘટાડવા હવે કુલ સનદી સ્ટાફના ૧ ટકા
સુધી જ સરકારી ભરતી પર્યાપ્ત કરી દેવાની દરખાસ્ત છે.</p>




<p><head>કરમુક્ત ભૂકંપ રાહત બોન્ડ રજૂ કરવાની
ગુજરાતને મંજૂરી</head></p>

<p><head>વિશ્વ બેંક, એ.ડી.બી.ની ૩૨૦૦ કરોડની લોન,
સરચાર્જ મારફતે 
રૂા. ૧૩૦૦ કરોડ મેળવાશે: સિમેન્ટ, સ્ટીલને એક્સાઇઝ ડયુટીમાંથી મુકિત </head></p>

<p>નવી દિલ્હી, તા. ૨૮</p>

<p>લોકસભામાં આજે ૨૦૦૧-૨૦૦૨નું સામાન્ય બજેટ
રજૂ કરતાં નાણાંપ્રધાન શ્રી યશવંતસિંહાએ જાહેરાત કરી હતી કે કરમુક્ત ભૂકંપ રાહત
બોન્ડો તરતા મૂકીને ભંડોળ ઉભું કરવાની ગુજરાત સરકારને પરવાનગી અપાશે. આ ઉપરાંત
ગુજરાતમાં બાંધકામ માટે વપરાનારા સિમેન્ટ, સ્ટીલને એક્સાઇઝ ડયુટીમાંથી મુકિત
મળશે</p>

<p>આ બોન્ડ ભારતીય રિઝર્વ બેંક મારફતે વ્યક્તિઓ
તથા બિનનિવાસી ભારતીયો સહિત અન્યો માટે રૂપિયાના ભરણામાં જ મૂકાશે ભૂકંપગ્રસ્ત
ગુજરાતમાં પુનર્વસન પગલા માટે ૮૦૦૦ લાખ અમેરિકી ડોલરની શાખ મેળવવા માટે કેન્દ્ર
સરકારે વિશ્વ બેંક તથા એ.ડી.બી. સાથે પણ વ્યવસ્થા ગોઠવી છે.</p>

<p>મકાનોના પુન:નિર્માણ માટે નેશનલ હાઉસિંગ
બેંક તથા હુડકોને પૂરતા ભંડોળો ફાળવાયા છે તેમ છતાં નાણાં પ્રધાને આ બંને
સંસ્થાઓને રૂા. ૨૦૦૦ કરોડના કરમુક્ત બોન્ડની વિશેષ ફાળવણી કરવાની દરખાસ્ત પણ રજૂ
કરી છે.</p>

<p>શ્રી સિંહાએ કહ્યું હતું કે રૂા. ૫૦૦ કરોડની
પ્રારંભિક મૂડીથી રચાયેલા રાષ્ટ્રીય આપત્તિ કન્ટીજન્સી ફંડને પણ વર્તમાન નવા કોર્પોરેટ
આવકવેરા ઉપર બે ટકા સરચાર્જ સામે વધારવામાં આવી રહ્યું છે. ૨૬મી જાન્યુઆરીના
ભૂકંપ બાદ રૂા. ૫૦૦ કરોડ ગુજરાતને તાત્કાલીક આપવામાં આવ્યા હતા જ્યારે માર્ગો,
પુલો, વીજળી પુરવઠો, શાળાના મકાનો, જાહેર સેવાઓ તથા અન્ય જાહેર આંતરમાળખું
બાંધવા માટે કેન્દ્ર સરકાર સ્પોન્સર થયેલી વિવિધ યોજનાઓ હેઠળ ગુજરાતને
વધુ સહાય પૂરી પાડવામાં આવશે. સિંહાએ આજે તેમના બજેટની શરૂઆત જ ગુજરાતનાં
ભૂકંપના ઉલ્લેખથી કરી હતી. ગુજરાત માટે અંદાજે રૂપિયા ૫ાંચ હજાર કરોડ ઉભા કરવાનું
જણાવાયું હતું. બે ટકાના સરચાર્જની તમામ આવક પણ ગુજરાતને જ ફાળવાશે. </p>




<p><head>કરદાતાને મળવાપાત્ર તેમજ તેણે ચૂકવવાપાત્ર
વ્યાજમાં ૩%નો ઘટાડો</head></p>

<p><head>રીફંડ, રી-એસેસમેન્ટ તેમજ રેક્ટિફિકેશનની સમય
મર્યાદાઓમાં આવકારપાત્ર ઘટાડો !</head></p>

<p><head>આવકવેરા ખાતા દ્વારા તટસ્થ, પારદર્શક અને
કાર્યક્શમ વહીવટની ખાત્રી આપતા નાણાંમંત્રી !</head></p>

<p>આવકવેરા ખાતા દ્વારા તટસ્થ, પારદર્શક અને
કાર્યક્શમ વહીવટની ખાત્રી ઉચ્ચારતાં નાણાં મંત્રી શ્રી યશવંત સિંહાએ, આ સંદર્ભમાં
નાણાકીય બીલ, ૨૦૦૧માં શ્રેણીબદ્ધ સુધારાઓ દાખલ કર્યા છે.</p>

<p>આવકવેરા રીફંડ હવે એક વર્ષમાં ચૂકવાશે !</p>

<p>પ્રવર્તમાન જોગવાઈઓ અનુસાર કરદાતાને તેને
મળવાપાત્ર રીફંડ ચૂકવવા માટેની તેમજ આકારણી પૂર્ણ કરવાની બે વર્ષની સમય-મર્યાદામાં
આવકારપાત્ર ઘટાડો કરીને તેને આકારણી વર્ષ ૨૦૦૦-૨૦૦૧થી એક વર્ષ નિયત કરવામાં
આવી છે. આમ કરદાતાઓને હવે આવકવેરા રીફંડ ઝડપથી જરૂર ચૂકવાશે, પરંતુ આવા રીફંડ
ઉપર મળનાર વ્યાજના દરમાં પણ પ્રવર્તમાન ૧૨% થી ઘટાડો કરીને ૯%નો દર નિયત કરવામાં
આવ્યો છે. અલબત્ત, આ સાથે કરદાતાએ આવકવેરા ખાતાને વેરો ઓછો કે મોડો
ચુકવ્યો હોય, તો તેવા કેસોમાં તેણે ચૂકવવાપાત્ર વ્યાજના પ્રવર્તમાન ૧૮%ના દરમાં પણ
૩%નો ઘટાડો કરીને તેને ૧લી જૂન, ૨૦૦૧ થી ૧૫% નિયત કરવામાં આવ્યો છે.</p>

<p>રી-ઓપનિંગ, રી-એસેસમેન્ટ તેમજ બ્લોક
પીરિયડની સમય-મર્યાદાઓમાં ઘટાડો</p>

<p>આવકવેરાના કાયદા હેઠળ પ્રવર્તમાન જોગવાઈઓ
અનુસાર રી-ઓપનિંગ ઓફ એસેસમેન્ટની કાર્યવાહી હાથ ધરવા માટે સંબંધિત
આકારણી વર્ષના અંતથી ચાર વર્ષ, સાત વર્ષ તેમજ દસ વર્ષની સમય મર્યાદાઓમાં
સુધારો કરીને અનુક્રમે ચાર વર્ષ તેમજ છ વર્ષની સમય મર્યાદાઓ તારીખ ૧લી જૂન,
૨૦૦૧થી નિયત કરવામાં આવી છે. આ સાથે રી-એસેસમેન્ટની કાર્યવાહી પૂર્ણ કરવા માટેની
સમય-મર્યાદામાં પણ બે વર્ષથી ઘટાડો કરીને એક વર્ષ કરવામાં આવશે. આવકવેરા
દરોડાને લગતા 'બ્લોક એસેસમેન્ટ'ના સંદર્ભમાં પણ 'બ્લોક પીરિયડ'ના અર્થઘટન હેતુસર
પ્રવર્તમાન દસ વર્ષના સમય-ગાળાને ઘટાડીને છ વર્ષ જાહેર કરવામાં આવ્યો છે, જે ૧લી જૂન,
૨૦૦૧થી અમલી બનશે.</p>

<p>રેક્ટિફિકેશનની અરજીનો નિકાલ છ મહિનામાં
કરવામાં આવશે !</p>

<p>કરદાતા દ્વારા રેક્ટિફિકેશન કે ભૂલ-સુધારણા
માટે કરવામાં આવતી અરજીઓના ઝડપી અને સમયસર નિકાલના હેતુસર તારીખ ૧લી જૂન, ૨૦૦૧થી
એવી નવી જોગવાઈ કરવામાં આવી છે કે સંબંધિત આવકવેરા સત્તાવાળાએ આવી અરજી
મંજૂર કે નામંજૂર કરતો ઠરાવ છ મહિનાના સમયગાળામાં જ કરવાનો રહેશે !</p>

<p>હવે કરદાતાનું રીફંડ અટકાવી શકાશે નહીં !</p>

<p>આવકવેરા કાયદાની પ્રવર્તમાન જોગવાઈઓ અનુસાર
કમિશનર કે ચીફ કમિશનરની અનુમતિથી આકારણી અધિકારીને કરદાતાને ચૂકવવાપાત્ર
રીફંડ અટકાવવાની જે સત્તા આપવામાં આવી છે, તેને ૧લી જૂન, ૨૦૦૧થી નાબૂદ કરવાની નવી
જોગવાઈ કરવામાં આવી છે.</p>

<p>કમિશનર (અપીલ્સ)ની 'એસેસમેન્ટ સેટ-એસાઈડ'
કરવાની સત્તા હવે નાબૂદ</p>

<p>આકારણી કાર્યવાહીનું બિનજરૂરી પુનરાવર્તન ન થાય
તે હેતુસર તારીખ ૧લી જૂન, ૨૦૦૧થી કમિશનર (અપીલ્સ)ની એસેસમેન્ટ સેટએસાઈડ કરવાની
પ્રવર્તમાન સત્તા નાબૂદ કરવાની જોગવાઈ કરવામાં આવી છે.</p>

<p>એપેલેટ ટ્રિબ્યુનલનો સ્ટે ઓર્ડર માત્ર છ મહિના
માટે જ અમલી ગણાશે !</p>

<p>કરદાતાએ આવકવેરા એપેલેટ ટ્રિબ્યુનલ સમક્શ
અપીલ દાખલ કરી હોય અને તેને તેના કેસમાં ડીમાન્ડ સંબંધી ટ્રિબ્યુનલ દ્વારા સ્ટે
આપવામાં આવ્યો હોય, તો આવા કેસમાં, જો છ મહિનાની અંદર અપીલનો નિકાલ કરવામાં
ન આવે, તો સ્ટે ઓર્ડર 'વેકેટ' થયેલો ગણવામાં આવશે.</p>




<p><head>ઈન્ફોટેક શેરો, હિંદ લિવરની આગેવાની હેઠળ
શેરોમાં તેજીમય વાતાવરણ</head></p>

<p><head>માર્કેટ ફ્રેન્ડલી બજેટને વધાવતું શેરબજાર
ભાવાંક ૧૭૭ પોઈન્ટ ઉછળી ૪૨૪૭ થયો</head></p>

<p>અમદાવાદ, બુધવાર</p>

<p>ગુજરાતમાં આવેલ તાજેતરના ભયાનક ભૂકંપ બાદ
દેશના અર્થતંત્રને માથે આવી પડેલ મોટા ભારે બોજામાંથી બચાવવા સામાન્ય બજેટમાં આકરા
કરવેરા ઝીંકાય અને અનેક રાહતો પાછી ખેંચાય તેવી ધારણા હાડોહાડ તેજીવાળા રાખતા
હતા અને તેથી જ છેલ્લા બે-ત્રણ સપ્તાહથી ઉભા કમિટમેન્ટ ઘટાડી રહ્યા હતા અને નવા
કમિટમેન્ટમાં એકદમ સાવચેત બની ગયા હતા. પરંતુ આવા ખૂબ જ વિપરીત સમયમાં અર્થતંત્રની
સાથોસાથ મંદીમય બની ગયેલ શેરબજારને બચાવવા ત્થા મૃત:પ્રાય બની ગયેલ મૂડીબજારને
પુન:ચેતનવંતુ બનાવવા માટે જે અનેક પગલાંઓ લેવાયા છે તેના કારણે બજારના
મોવડીઓએ ખૂબ જ આશ્ચર્ય અનુભવ્યું છે અને બજેટની દરખાસ્તોને એકી અવાજે આવકાર
આપેલ છે.</p>

<p><head>બીએસઈના ઈતિહાસમાં બજેટ બાદ ૭મો મોટો
ઉછાળો : તેજી વેગ પકડે તેવો પ્રબળ આશાવાદ : રૂપિયો વધ્યો : સોનું
તૂટ્યું</head></p>

<p>મોવડીઓના આવકારની સાથોસાથ બીએસઈ ખાતે
પણ આજે સેશનની શરૂઆતમાં આકરા બજેટની અપેક્શાએ ભાવો ગગડતાં રહ્યા હતા અને પેમેન્ટ
કટોકટીની અફવા પાછળ અનેક સ્ક્રીપોમાં ૮ ટકા મંદીની સર્કિટ લાગુ થઈ હતી. પરંતુ
બપોરના બજેટની દરખાસ્તો રજાૂ થતાં અને તે ખૂબ જ 'માર્કેટ ફ્રેન્ડલી' ગણાતા ઈન્ફોટેક
શેરોની આગેવાની હેઠળ ભાવાંક ઉછળવા માંડ્યો હતો.</p>

<p>આજે બીએસઈ- ૩૦ ભાવાંક ૪૦૭૦ના મથાળે ખુલી
વધુ ઘટી ૪૦૫૬ થઈ ગયો હતો. પરંતુ એફઆઈઆઈની સિમિટમાં વધારો, ડિવિડન્ડ
ટેક્શમાં ઘટાડો અને કોર્પોરેટ તથા નોન-કોર્પોરેટ ટેક્શમાં જાૂના બધાં જ
સરચાર્જ નાબૂદ કરાતાં શેરોમાં ધૂમ લેવાલી ચાલુ થઈ ગઈ હતી અને ભાવાંક ઉછળીને ૪૨૬૪ની
સપાટીએ પહોંચી છેલ્લે ૪૨૪૭ બંધ હતો જે આગલા બંધ ૪૦૭૦ની સરખામણીમાં
૧૭૭ પોઈન્ટનો (૪.૩૬ ટકા) ઉછાળો દર્શાવે છે. એનએસઈ ખાતે ભાવાંક આગલા બંધ
૧૨૯૬ પોઈન્ટથી ૬૧ પોઈન્ટ એટલે કે ૪.૬૯ ટકા ઉછળીને છેલ્લે ૧૩૫૬ પોઈન્ટે બંધ
રહ્યો હતો. બીએસઈ- ૧૦૦ ભાવાંક ૯૩ પોઈન્ટ ઉછળીને ૨૧૪૦ હતો.</p>

<p>ઈન્ફોટેક શેરોની તેજી ઉપરાંત હિંદ લિવરમાં
મોટો ઉછાળો નોંધાયો હતો. ભાવાંકમાં ૧૬ ટકાનું વેઈટેજ ધરાવતો હિંદ
લિવર ૧૫.૯ ટકા એટલે કે રૂા. ૨૩ ઉછળી ૨૨૯.૪૦ રહ્યો હતો.</p>

<p>બજારના સૂત્રોના જણાવ્યા પ્રમાણે બીએસઈના ઇતિહાસમાં
આ સાતમી વખતનો બનાવ છે કે જ્યારે ભાવાંકે બજેટની દરખાસ્તો બાદ ૪ ટકાથી પણ વધુ
ઉછાળો દર્શાવ્યો હોય. અગાઉ ૧૯૯૧, ૧૯૯૨, ૧૯૯૪, ૧૯૯૬, ૧૯૯૭ અને ૧૯૯૯ની સાલમાં
બજેટની દરખાસ્તોને બીએસઈએ અનેરો આવકાર આપ્યો હતો. છેલ્લા ૧૦ વર્ષના ગાળામાં
૧૯૯૨ની સાલમાં બજેટ બાદ ૬.૧૯ ટકાનો સૌથી વધુ ઉછાળો નોંધાયેલ છે.</p>

<p>શેરબજાર માટે બજેટની દરખાસ્તો ખૂબ જ 'માર્કેટ
ફ્રેન્ડલી' આવતાં ઓપરેટરો અને કામકાજ કરતાં વર્ગમાં ફરીને વિશ્વાસ પ્રસ્થાપિત થતો
જણાયો હતો અને નવેસરથી જંગી ઓલ-રાઉન્ડ લેવાલી શરૂ થઈ હતી. ખાસ કરીને સોફટવેર
ઉદ્યોગને સારા પ્રોત્સાહનો પૂરા પાડનાર આ બજેટ વિકાસલક્શી દરખાસ્તોવાળું ગણાતાં
ભાવો ઉછળવા માંડતાં મંદીવાળાઓને વેચાણો કાપવા દોડવું પડ્યું હતું.</p>

<p>ઇન્ફોટેક ક્શેત્રે થોડા ઘણાં કરવેરા આવશે
તેવી ગણત્રીઓ પાછળ લાંબા સમયથી સતત તૂટતા રહેલ ટેકનોલોજી શેરોમાં આજે તેજી જોવા
મળી હતી જેનું મુખ્ય કારણ કરવેરા નહિ નંખાતા અને વધુમાં આઈ.ટી., ટેલીકોમ તથા
આઈ.ટી. ક્શેત્રે કોમ્પોનન્ટ-ઇન્પુટની કસ્ટમ ડ્યુટીમાં ૧૫ ટકાનો ઘટાડો કરતાં આ
શેરોમાં ધૂમ લેવાલી નીકળી હતી. ઉપરાંત યુનીટ ટ્રસ્ટે મુશ્કેલીમાં આવેલ ઓપરેટરના
ગ્લોબલ ટેલી, હિમાચલનાં શેરો ખરીદી લીધાના અહેવાલો ફેલાતાં પેમેન્ટ
કટોકટીની દહેશત દૂર થતાં લેવાલી મોટા પાયે વધી હતી. આથી શરૂમાં ૮ ટકાની
લાગુ થયેલ મંદીની સર્કિટો દૂર થઈ હતી અને અનેક સ્ક્રીપોમાં તેજીની સર્કિટો લાગુ થઈ
હતી.</p>

<p>એફઆઈઆઈની લિમિટ વધારીને ૪૯ ટકા,
ડિવિડન્ડ ટેક્શ ઘટાડીને ૧૦ ટકા, ઇન્ફ્રાસ્ટ્રકચર પ્રોજેક્ટો માટે ૧૦ વર્ષનો ટેક્શ-હોલિડે,
ભૂકંપ સરચાર્જ સિવાયના બધાં જ સરચાર્જ નાબૂદ કરાતાં, કસ્ટમ ડ્યુટી ૨૫ ટકાથી ઘટાડી
૧૫ ટકા કરાતાં, શેર વેચાણના નાણાં પ્રાયમરી માર્કેટમાં રોકાય તો કેપીટલ ગેઇન્સમાંથી
મુક્તિ, ખાનગીકરણની દિશામાં આગેકદમ, વગેરેમાં દરખાસ્તોએ શેરબજારમાં એક જ દિવસમાં
૧૭૭ પોઇન્ટનો ઉછાળો લાવવામાં મહત્વનો ભાગ ભજવ્યો છે.</p>

<p>ઇન્ફોસીસ રૂા. ૫૬૩ ઉછળી ૬૨૫૯, સત્યમ્ રૂા. ૩૯
વધી ૩૪૭, હિમાચલ રૂા. ૯૨ વધી ૬૭૦, રિલાયન્સ રૂા. ૧૧.૩૫ વધી ૪૧૪, વિપ્રો
રૂા. ૧૭૬ ઉછળી ૨૫૪૫, તાતા ટી રૂા. ૨૫ વધી ૨૬૮.૩૦, કોર્પોરેશન બેંક રૂા. ૧૭.૭૦
ઉછળી રૂા. ૧૨૮.૬૦, સ્ટેટ બેંક રૂા. ૨૧ ઉછળી ૨૪૫.૭૫ રહ્યો હતો. ઉપરાંત હિરો હોન્ડા,
નીટ, ડિજીટલ, ડિએસક્યૂ નેસ્લે, આઈસીઆઈસીઆઈમાં ભારે ઉછાળો નોંધાયો છે.</p>

<p>ટૂંકમાં બજારનું માહોલ હવે બદલાઈ ગયું છે અને
તેજી તરફ બની ગયું છે.</p>

<p>વિદેશી હૂંડિયામણ બજારમાં પણ આજે વિદેશી
ફંડોની ડોલરમાં ભારે વેચવાલી ઉપડી હતી. ખાસ કરીને એફઆઈઆઈની લિમિટમાં
વધારાને કારણે ડોલર સામે રૂપિયો ૪૬.૬૪/૬૫ ખુલી વધીને ૪૬.૫૧/૫૩ થઈ છેલ્લે
૪૬.૫૫/૫૬ બંધ હતો જે આગલા બંધ ૪૬.૬૪/૬૬ની સરખામણીમાં ૧૦ પૈસાનો
સુધારો દર્શાવે છે.</p>

<p>જ્યારે સોનાની આયાત જકાત હાલની રૂા. ૪૦૦ (૧૦
ગ્રામ દીઠ)થી ઘટાડીને રૂા. ૨૫૦ની કરાતાં દેશમાં હવે સોનાની આયાત એનઆરઆઈ દ્વારા
વધવાની ગણત્રીએ આજે સોનાના ભાવમાં ૧૦ ગ્રામદીઠ રૂા. ૧૨૦ અને ૧૦ તોલા
બિસ્કિટમાં રૂા. ૧૭૦૦નું ગાબડું પડ્યું હતું.</p>




<p><head>પોસ્ટકાર્ડ અને પાર્સલની કિંમતોમાં કરાયેલો
વધારો</head></p>

<p>નવી દિલ્હી, તા. ૨૮</p>

<p>અંદાજપત્રમાં વિવિધ પોસ્ટલ સેવાના
દરોમાં તીવ્ર વધારો કરવામાં આવ્યો છે. પોસ્ટ કાર્ડની કિમત ૨૫ પૈસાથી
વધારીને ૫૦ પૈસા, પ્રિન્ટેડ પોસ્ટકાર્ડના રૂ બેથી વધારીને રૂ. ૩ અને
કોમ્પીટીશન પોસ્ટ કાર્ડના રૂ. ૪થી વધારીને રૂ. ૫ કરવામાં આવ્યા છે.</p>

<p><head>સાદા પોસ્ટકાર્ડમાં ૨૫ પૈસા, પ્રિન્ટેડ અને
કોમ્પીટીશનમાં એક રૂપિયો વધ્યો: રજીસ્ટર્ડ પોસ્ટ પણ મોંઘી</head></p>

<p>૨૦ ગ્રામ સુધીના વજનના પત્રનો દર રૂ ૩થી
વધારીને ચાર કરવામાં આવ્યો છે. વધારાના ૨૦ ગ્રામ માટે એક રૂપિયો
વધારવામાં આવ્યો છે. </p>

<p>૫૦ ગ્રામ સુધીના પુસ્તક, પેટર્ન અને
પેક્ટ્સનો દર બેથી વધારીને ત્રણ કરવામાં આવ્યો છે. રજીસ્ટર્ડ અખબારના પોસ્ટ
દરમાં પણ તીવ્ર વધારોૌ કરવામાં આવ્યો છે. ૫૦૦ ગ્રામથી વધુ વજનના પાર્સલના
અત્યારે રૂ. ૧૨ થાય છે જે હવેથી રૂ. ૧૬ થશે.</p>

<p>રજીસ્ટ્રેશન ખર્ચ હવે રૂ. ૧૪નાં બદલે રૂ. ૧૭ થશે.
રજીસ્ટ્રેશન માટેની કન્સેશનલ ફી રૂ. ૧.૨૫થી વધારીને રૂ. ૨.૫૦, ડિલિવરી
એકનોલેજમેન્ટ ફી રૂ. બેથી વધારીને ત્રણ કરાઇ છે.</p>

<p>પ્રિન્ટેડ બુક્સ અને સામયિકો ભરેલા બુક પેકેટની
ફીમાં ૫૦ પૈસાથી એક રૂપિયા સુધીનો વધારો કરાયો છે.</p>




<p><head>જીપીએફ, પીપીએફના વ્યાજ દરોમાં તોળાતો
ઘટાડો</head></p>

<p><head>દર ઘટાડાથી સરકાર ૨૫૦૦ કરોડ મેળવી લેશે</head></p>

<p>નવીદિલ્હી,તા.૨૮</p>

<p>નાની બચત યોજનાઓ માટેના દરોમાં જાહેર
કરાયેલા ઘટાડાના પગલે પગલે સરકારે આજે એવો સંકેત પણ આપ્યો હતો કે જીપીએફ,
સ્પેશ્યિલ ડિપોઝીટ સ્કીમો તથા ઇપીએફ ઉપરના વ્યાજ દરોમાં પણ ઘટાડો આવી રહ્યો છે.
બજેટ પછીની પ્રણાલિકાગત પત્રકાર પરિષદને સંબોધતાં નાણાંસચિવ શ્રી અજીતકુમારે
કહ્યું હતું કે પીએફની વિવિધ યોજનાઓનાં વ્યાજદરોના ઘટાડાથી સરકારને રૂ.૨૫૦૦
કરોડની આવક થશે. જે નાણાંકીય ખાધમાં થયેલા ઘટાડામાં પ્રતિબિંબિત થયેલી છે.
સરકારી કર્મચારીઓ જીપીએફ હેઠળ તથા ખાનગી ક્શેત્રના કર્મચારીને ઇપીએફ તેમજ અન્ય
યોજનાઓ હેઠળ આવરી લેવામાં આવ્યા છે. ઇપીએફ તથા ઇએસઆઇના બનેલા એસડીએસ હેઠળ
સરકાર પાસે રૂ.૯૬૦૦૦ કરોડ છે. નાની બચત યોજનાઓ ઉપરના વ્યાજના દર નીચે મુજબ
ઘટાડવામાં આવ્યા છે.</p>

<p>ઓફિસ ટાઇમ ડીપોઝીટો - ૧ વર્ષ ૮ ટકાથી
૭.૫૦ ટકા, બે વર્ષ ૯ ટકાથી ૮ ટકા, ત્રણ વર્ષ ૧૦ ટકાથી ૯ ટકા, ૫ વર્ષે ૧૦.૫ ટકાથી ૯
ટકા. પોસ્ટ ઓફિસની માસિક આવક યોજનામાં ૧૧ ટકાથી ઘટાડીને ૯.૫ ટકા, પીપીએફ ઉપર
૧૧ ટકાથી ૯.૫ ટકા, ૮મી શ્રેણીનાં એનએસસી ઉપર ૧૧ ટકાથી ૯.૫ ટકા.</p>




<p><head>'વન બાય સિક્સ' તમામ શહેરી વિસ્તારોને લાગુ
પડાશે !</head></p>

<p><head>રૂા. ૨,૫૦૦થી વધુ વ્યાજ-કમિશન-દલાલી હવે ૧૦%
ટી.ડી.એસ.ને પાત્ર બનશે</head></p>

<p><head>ડિવિડન્ડ સ્ટ્રિપિંગ, ૨૩૪-એ/બીના વ્યાજ તેમજ
ટ્રેડ-માર્ક તથા યુનિટ્સ ઉપર મૂડીનફાની કરપાત્રતા સંબંધી પ્રવર્તમાન છટકબારીઓ
નાબૂદ કરાઈ !</head></p>

<p>'વન બાય સિક્સ' યોજનાના અમલથી છેલ્લા ત્રણ
વર્ષોમાં આવકવેરા રીટર્ન ભરતા કરદાતાઓની સંખ્યા એક કરોડથી વધીને બે કરોડ
ત્રીસ લાખ સુધી વધી છે, તેની નોંધ લઈને કેન્દ્રીય નાણાંમંત્રી શ્રી.
યશવંતસિંહાએ આગામી નાણાંકીય વર્ષથી આ યોજના ૧૯૯૧ના સેન્સસ અનુસાર ભારતના તમામ
શહેરી વિસ્તારો માટે લાગુ પાડીને, આવકવેરાનો 'ટેક્શ બેઝ' વધુ વિશાળ બનાવવાની
જાહેરાત કરી છે.આ સાથે તમામ કંપનીઓ માટે (તેમની આવક કરપાત્ર ન હોય) પણ આગામી
વર્ષથી આવકવેરા રીટર્ન ભરવાનું ફરજીયાત બનાવવામાં આવશે.</p>

<p>ટી.ડી.એસ.નો વિસ્તારાતો વ્યાપ</p>

<p>'ટેક્શ ડીડક્શન એટ સોર્સ' (ટી.ડી.એસ.)ના
વ્યાપનો વધુ વિસ્તાર કરતા નાણાં મંત્રીએ આગામી નાણાંકીય વર્ષથી રૂા. ૨,૫૦૦થી વધુ
રકમની કમિશન કે દલાલીની ચુકવણી કરાતી તમામ રકમોમાંથી ૧૦%ના ધોરણે
ટી.ડી.એસ.ની કપાત કરવાની રહેશે તેવી જાહેરાત કરી છે. આ ઉપરાંત બેન્કોની ડિપોઝીટ
ઉપર ચૂકવાતા રૂા. ૧૦,૦૦૦થી વધુ વ્યાજની રકમમાંથી ૧૦%ના ધોરણે ટી.ડી.એસ.ની
કપાત કરવાની પ્રવર્તમાન જોગવાઈમાં પણ સુધારો કરીને તેને રૂા. ૨,૫૦૦ રાખવાની
જાહેરાત કરવામાં આવી છે. કમિશન તેમજ દલાલીમાથી ટી.ડી.એસ.ની કપાતની નવી
જોગવાઈઓમાંથી શેર-બ્રોકરોને ચુકવાતી દલાલીને મુક્તિ આપવામાં આવી છે.</p>

<p>'ડિવિડન્ટ સ્ટ્રિપિંગ' દ્વારા ઉભા કરાતા
'શોર્ટ-ટર્મ લોસ' ઉપર પ્રતિબંધ</p>

<p>છેલ્લા કેટલાક સમયથી પ્રચલિત બનેલ 'ડિવિડન્ટ
સ્ટ્રિપિંગ' દ્વારા 'શોર્ટ ટર્મ લોસ' બુક કરીને આવકવેરાની જવાબદારી ઘટાડવાના આયોજન
ઉપર આગામી વર્ષથી પ્રતિબંધ જાહેર કરાયો છે. આ માટે દાખલ કરાયેલી નવી જોગવાઈ
અનુસાર, જો ડિવિડન્ડની 'રેકોર્ડ ડેટ'ના ત્રણ મહિના અગાઉ કોઈ સિક્યુરીટી ખરીદવામાં
આવી હોય અને આ સંબંધી કરમુક્ત ડિવિડન્ડ જાહેર કરવામાં આવે અને 'રેકોર્ડ ડેટ'ના
ત્રણ મહિનાની અંદર આનું વેચાણ કરવામાં આવે, તો તે સંજોગોમાં કરમુક્ત ડિવિડન્ટની
રકમની મર્યાદામાં ઉદ્ભવેલ 'શોર્ટ ટર્મ લોસ'નો કરપાત્ર આવકની ગણતરીના હેતુસર લક્શમાં
લેવામાં આવશે નહિ. અલબત્ત, આ નવી જોગવાઈ ૩૧મી માર્ચ, ૨૦૦૧ સુધીના વ્યવહારોના
સંદર્ભમાં લાગુ પડશે નહિ તે નોંધપાત્ર છે.</p>

<p>કલમ ૨૩૪-એ તેમજ ૨૩૪-બીના વ્યાજની પાત્રતા
સંબંધી ૧-૪-૧૯૮૯થી સુધારો</p>

<p>તાજેતરમાં સુપ્રિમ કોર્ટે 'રાંચી ક્લબ'ના કેસમાં
આવકવેરાના કાયદાની કલમ ૨૩૪-એ તેમજ ૨૩૪-બી હેઠળ વ્યાજની પાત્રતા સંબંધી આપેલા
ક્રાંતિકારી ચુકાદાએ આવકવેરા ખાતામાં ભારે ખળભળાટ મચાવી મૂક્યો હતો. આ ચુકાદાની
અસર નાબુદ કરવાના હેતુસર તારીખ ૧લી એપ્રિલ, ૧૯૮૯ની પાછલી તારીખથી અમલી બને તેમ
એવો સુધારો કરવામાં આવ્યો છે કે આ કલમો હેઠળનું વ્યાજ રીટર્નમાં દર્શાવેલી
નહિ પરંતુ કરદાતાના કેસમાં આકારાયેલી આવકના સંદર્ભે લાગુ પડશે.</p>

<p>ટ્રેડ-માર્ક કે બ્રાન્ડનેમના હસ્તાંતરમાંથી
મળતી રકમ મૂડી-નફાને પાત્ર ગણાશે !</p>

<p>ગુડવીલ, ટેનન્સી રાઇટ વગેરેના કેસમાં આવી
મિલકતનું ધારણમૂલ્ય શૂન્ય હોય, તો પણ તેને આવકવેરાને પાત્ર ગણવાની વર્તમાન
જોગવાઈઓના સંદર્ભમાં 'ટ્રેડમાર્ક' કે 'બ્રાન્ડનેમ'નો સમાવેશ કરાયો ન હોઈ, આગામી
નાણાંકીય વર્ષથી આવી 'ઇન્ટેજીબલ એસેટ્સ'ના સંદર્ભમાં પણ મૂડી-નફાને કરપાત્ર ગણવામાં
આવશે. તેવી સ્પષ્ટ જોગવાઈ કરીને આ સંબંધી પ્રવર્તમાન છટકબારીને પૂરવામાં આવી છે.</p>

<p>યુ.ટી.આઇ. કે મ્યુચ્યુઅલ ફંડના યુનિટોના
વેચાણ દ્વારા ઉદ્ભવતો મૂડી-નફો કરપાત્ર ગણાશે !</p>

<p>કલમ ૧૦ (૩૩)ની પ્રવર્તમાન જોગવાઈઓ અનુસાર
યુનિટ ટ્રસ્ટ ઓફ ઇન્ડિયા તેમજ માન્ય મ્યુચ્યુઅલ ફંડના યુનિટો સંબંધી મળતી આવકને
કરમુકત ગણવામાં આવે છે. આવા યુનિટોનું સેકન્ડરી માર્કેટમાં વેચાણ કરવામાં આવે
તો તેવા કેસમાં ઉદ્ભવતા મૂડી નફાને કલમ ૧૦(૩૩) હેઠળ કરમુક્ત ગણી શકાય નહિ, તે
સંબંધી સ્પષ્ટતા કરતો મહત્ત્વનો સુધારો આકારણી વર્ષ ૨૦૦૦-૨૦૦૧ની પાછલી
અસરથી અમલી જાહેર કરાયો છે.</p>




<p><head>સંરક્શણ ખર્ચમાં રૂા. ૬૨૦૦૦ કરોડની ફાળવણી
સાથે ૧૩.૮ ટકાનો વધારો</head></p>

<p>નવી દિલ્હી, તા. ૨૮</p>

<p>૨૦૦૧-૦૨ના વર્ષ માટે ભારતનો સંરક્શણ ખર્ચ
૬૨,૦૦૦ કરોડ રૂયિા નક્કી થયો છે જે ગત વર્ષના સુધારેલા રૂા. ૫૪,૪૬૧ કરોડના
અંદાજો સામે ૧૩.૮ ટકાનો માફકસરનો વધારો સૂચવે છે.</p>

<p><head>ગૃહમંત્રાલય, રેલવેના અર્ધલશ્કરી દળોને
રૂા. ૬૫૧ કરોડનો વધારો અપાયો</head></p>

<p>સંરક્શણ બજેટની દરખાસ્તોમાં ગત વર્ષના
સુધારેલા અંદાજો કરતા રૂા. ૭૫૩૯ કરોડનો વધારો દેખાય છે. ગયા વર્ષે
કારગિલ યુદ્ધના સંદર્ભમાં સંરક્શણ ખર્ચ ૨૮.૨ ટકા વધારીને રૂા. ૫૮,૫૮૭ કરોડનો
કરવામાં આવ્યો હતો. જો કે સુંધારેલા અંદાજમાં તે વંધીને રૂા. ૪૧૨૬
કરોડને આંબી ગયો હતો.</p>

<p>ખર્ચમાં કરાયેલો મુખ્ય વધારો સંરક્શણની
ત્રણ સેવાઓ માટે સામગ્રી ખરીદવા ઉપરાંત વિમાનો તથા એરો-એન્જિનો ખરીદવા માટે
કરાયો છે. સુખોવ મલ્ટી-એલ ફ્રન્ટલાઇન વિમાનો ખરીદવા માટે ભારત તથા રશિયા વચ્ચે
થયેલા કરારના સંદર્ભમાં વાયુદળને આ ખર્ચમાં સિંહફાળો મળ્યો છે.</p>

<p>શસ્ત્રો બનાવતા કારખાના માટે આ અગાઉ
ફાળવાયેલા રૂા. ૨૬૨ કરોડનો ખર્ચ રૂા. ૧૦૩૨ કરોડ ફાળવાતા આ ભંડોળમાં ચાર ગણો
વધારો કરાયો છે. રાબેતા મુજબ રૂા. ૩૧,૧૦૨.૬૩ કરોડના સંરક્શણ બજેટમાં મોટો
હિસ્સો સેનાને ફાળવાયો છે જ્યારે ભારતીય વાયુદળને રૂા. ૭,૭૧૩.૫૫ કરોડ તથા
નૌકાદળને રૂા. ૪૨૬૭.૯૨ કરોડ ફાળવાયા છે.</p>

<p>સેનાના બજેટમાં કરાયેલો રૂા. ૧૪૭૯.૩૪
કરોડનો વધારો મુખ્યત્વે તો કર્મચારીઓના વધતા જતા પગાર તથા ભથ્થાની
ચૂકવણી માટે છે. પેન્શન તથા અન્ય નિવૃત્તિ લાભો પાછળ રૂા. ૧૦,૭૬૯.૬૦ કરોડનો ખર્ચ
થશે. સંરક્શણ કર્મચારીઓ માટે કોઈ મહત્ત્વની આવાસ યોજના જાહેર કરવામાં આવી નથી.
મુખ્ય્ત્વે ઓફિસરોના મકાનોના નિભાવ માટે રૂા. ૨૪.૩ કરોડની નીચી રકમ ખર્ચાઈ છે
કારગિલ યુદ્ધના કારણે સંરક્શણ ખર્ચમાં મહત્તમ વધારો ગયા વર્ષે કરવામાં આવેલો જે
૧૩૦૦૦ કરોડ સુધી પહોંચી ગયેલો.</p>

<p>સરહદ પેલે પારથી આવતા શસ્ત્રો તથા
દારૂગોળાનો પ્રવાહ રોકવા ભારત-પાક સરહદે વાડ બનાવવા રૂા. ૪૦ કરોડનો
નોંધપાત્ર વધારો કરાયો છે જેમાં અર્ધલશ્કરી દળો માટે રૂા. ૬૫૧
કરોડનો વધારો કરાયો છે. પશ્ચિમ મોરચે વાડ સહિતના કામકાજો માટે ગયા વર્ષે
રૂા. ૫૯ કરોડનો ખર્ચ સામે આ વર્ષે રૂા. ૯૯ કરોડ ખર્ચવામાં આવશે.</p>




<p><head>કર દરખાસ્તો પાછી ખેંચવા નાણાંમંત્રીનો સ્પષ્ટ
ઇન્કાર</head></p>

<p>નવીદિલ્હી, તા.૨૮</p>

<p>નાણાંમંત્રી યશવંત સિંહાએ આજે બજેટમાં જાહેર
કરાયેલી કરવેરાની દરખાસ્તો પાછી ખેંચવાની શક્યતાનો સ્પષ્ટ ઇન્કાર કર્યો હતો પરંતુ એમ
જરૂર કહ્યું હતું કે જો કોઈ વિસંગતતાઓ રહી ગઈ હશે તો તેને સરખી કરવા કેટલાંક
એડજસ્ટમેન્ટ જરૂર કરી શકાય છે. તે સાથે તેમણે એમ પણ કહ્યું હતું કે સરકાર બીજી શ્રેણીના
આર્થિક સુધારા અને ડિસઇન્વેસ્ટમેન્ટની દિશામાં આગેકૂચ જારી રાખશે એટલું જ નહીં
પરંતુ વિપક્શોની ટીકાની પરવા કર્યા વિના ખાનગીકરણની પ્રક્રિયા પણ ચાલુ જ રહેશે.</p>

<p><head>બીજી શ્રેણીના આર્થિક સુધારા,
ડિસઇન્વેસ્ટમેન્ટ અને ખાનગીકરણની દિશામાં આગેકૂચ જારી રહેશે</head></p>

<p>પોતાના ચોથા બજેટની રજૂઆત બાદ હળવાફૂલ બની
ગયેલાં નાણાંમંત્રીએ સંસદ ખાતે પત્રકારોને કહ્યું હતું કે નાણાં બિલમાં સહેજ પણ
ફેરફાર નહીં થાય એમ તો હું નથી કહેતો કારણકે કદાચ કેટલાંક એડજસ્ટમેન્ટ કરવા પણ
પડે પરંતુ તેને કરવેરાની દરખાસ્ત પાછી ખેંચાઈ છે એમ કહી શકાય નહીં. કેમ કે કર
દરખાસ્તો પાછી ખેંચવાનું સહેજ પણ વિચારતો નથી. શું તમારું બજેટ આસાનીથી પસાર થઈ
જશે એવા પ્રશ્નના ઉત્તરમાં તેમણે કહ્યું હતું કે તે બાબત સંસદસભ્યોની વિવેકબુદ્ધિ અને
ડહાપણ ઉપર આધાર રાખે છે. તેમણે વધુમાં કહ્યું હતું કે સરકાર બીજી શ્રેણીના આકરા
આર્થિક સુધારા અને ડિસઇન્વેસ્ટમેન્ટની દિશામાં આગેકૂચ જારી રાખશે. તેમણે ખાનગીકરણનો
વિરોધ કરવા બદલ કોંગ્રેસની આકરી ટીકા કરી હતી.</p>

<p>તેમણે કહ્યું હતું કે પ્રથમ શ્રેણી કરતાં બીજી
શ્રેણીના આર્થિક સુધારા વધુ આકરા હશે કેમ કે તેમાં કાયદા ઘડવાની વાત સંકળાયેલી
છે જ્યારે પ્રથમ શ્રેણીના આર્થિક સુધારા મુજબ માત્ર વહીવટી આદેશ કરાયા હતા. બીજી
શ્રેણીના આર્થિક સુધારાઓમાં સરકાર દ્વારા નિર્ધારિત ભાવ પદ્ધતિ, શ્રમ બજારના
સુધારા વ્યાજ દરનું ક્શેત્ર અને લઘુ ઉદ્યોગોને અંકુશમુક્ત બનાવવાની બાબતોનો
સમાવેશ થાય છે. નાણાંમંત્રીએ ૨૦૦૧-૦૨ના બજેટમાં રૂા. ૧૨૦૦૦ કરોડનો અંદાજ મૂકતા
એવી પણ પ્રતિજ્ઞા ઉચ્ચારી હતી કે જાહેર સાહસોનું ડિસઇન્વેસ્ટમેન્ટ અને ખાનગીકરણ કરવામાં
આવશે જ.</p>




<p><head>ગયા વર્ષે બજેટ બાદ સરચાર્જના પ્રશ્ને પતિ સાથે
દલીલો કરી હતી</head></p>

<p><head>આ વખતના બજેટથી નાણામંત્રીના ગૃહમંત્રી
નિલીમાસિંહા ખુશ છે</head></p>

<p><head>ગરીબ ખેડૂતો ને ગ્રામીણ ઇન્ફ્રાસ્ટ્રક્ચર માટે
પત્નીની ટીપ્સ નજરમાં રાખી : નિલીમાએ ગામડાઓમાં ઘણું કામ કર્યું છે</head></p>

<p>નવીદિલ્હી,તા.૨૮</p>

<p>કેન્દ્રના નાણાંમંત્રી યશવંતસિંહાએ આજે રજુ
કરેલ બજેટથી દેશભરના જુદા જુદા ક્શેત્રોના લોકો, કોર્પોરેટ વર્લ્ડ તો ખુશ છે જ પણ
આપણા નાણા મંત્રી માટે તેમના ગૃહમંત્રી એટલે કે પત્ની નિલીમાસિંહા બજેટથી સંતોષ
વ્યક્ત કરે તે એટલું જ મહત્વનું હતું ને તેમાં તે આ વખતે સફળ થયા છે.</p>

<p>યશવંતસિંહાના પત્ની નીલિમાસિંહે વિશેષ કરીને
ગ્રામીણ અર્થતંત્ર અને ગરીબ ખેડૂતો પ્રત્યે લાગણી વ્યક્ત કરતું બજેટ રજુ કરવાની પતિ
યશવંતસિંહાને ગંભીર રીતે રજુઆત કરી હતી.</p>

<p>નીલિમાસિંહાએ કહ્યું કે ગયા વર્ષના બજેટ
સંદર્ભે તેના પતિથી તે સંતુષ્ટ નહોતી એટલું જ નહીં. મધ્યમ વર્ગને પ્રોત્સાહન આપ્યા વગર
જે સરચાર્જ આધારિત કરમાળખું બજેટમાં રજુ કરવામાં આવ્યું હતું તેનાથી તે એટલે
હદે નારાજ થયા હતા કે આ પ્રશ્ને પતિ જોડે રીતસરની દલીલબાજી સાથે ચર્ચા જામી ગઇ હતી.</p>

<p>૬૦ વર્ષના નિલીમાસિંહા માને છે કે ભારત ભલે
ગમે તેવી ઔદ્યોગિક કે આઇટી ક્રાંતિ કરે પણ તેનું હાર્દ તો કૃષિપ્રધાન જ છે.
પોતે ભારતના અંતરિયાળ ગામડાઓમાં સમાજસેવા અંગેના પ્રોજેક્ટમાં વર્ષો વીતાવ્યા
હોઇ રહ્યા છે ને ખેતી ગરીબો માટે નથી રહી તેથી ભારે ચિંતા વ્યક્ત કરે છે. ભારતમાં
સાચા ખેડૂતો વર્ષોત્તર ગરીબ બની ગયા છે. તેમને બેઠા કરવા, ગ્રામીણલક્શી યોજનાઓ
પર ભાર મુકવો જરૂરી છે. નિલીમાસિંહાએ આથી જ પતિને આ અંગે વિસ્તૃત પરિસ્થિતિથી
વાકેફ કર્યા હતા. શ્રી સિંહાને પત્નીની વાતમાં વજુદ પણ લાગ્યું હતું. આજના બજેટમાં
કૃષિ તેમજ ગરીબ ખેડૂતોને લગતી જે પણ જોગવાઇઓ છે તેમજ નિલીમાસિંહાનું યોગદાન
છે.</p>

<p>તેણે સ્પષ્ટ નિવેદન આપતા બજેટ આગલા દિવસે અને
બજેટ બાદ જે પણ પત્રકારો મળ્યા તેઓને જણાવ્યું કે આપણા ગરીબ ખેડૂતોને શક્ય હોય
ત્યાં સુધી કરવેરાથી મુક્ત રાખવા જોઇએ. કેમ કે તેઓ આર્થિક બોજ હેઠળ તેમનો
પાક સસ્તામાં શાહુકારોને વેચી દે છે ને પછી ભારે ભીંસમાં ફસાતા જાય છે. તેમણે પતિને
એવી હિમાયત પણ કરી છે કે ખેડૂતો પાક.નાં સંગ્રહ કરી શકે તે માટે કોલ્ડ સ્ટોરેજ
તેમજ તે ક્શેત્રને પ્રોત્સાહન મળે તેવી આર્થિક નીતિ રાખવી જરૂરી છે. તેવી જ રીતે
શ્રીલંકાએ આજે ફૂડ પ્રોસેસીંગ ક્શેત્રે વિશેષ ભાર બજેટમાં મુક્યો છે તે પત્નીની આ
ક્શેત્રની ચિંતાની પ્રતિક્રિયા સમાન જ છે.</p>

<p>અંતરિયાળ ગામડાઓમાં કામ કરવાનો અનુભવ
ટાંકીને તેણે શ્રી સિંહાને જણાવ્યું છે કે હજુ પણ ઇલેક્ટ્રીક, પાણી, રસ્તા જેવી પાયાની
સવલતોનો અભાવ હોઇ રૂરલ ઇન્ફ્રાસ્ટ્રક્ચર ક્શેત્રને પણ એટલું જ મહત્વ આપવું જોઇએ.</p>

<p>કુકિંગ ગેસના વર્ષોત્તર વધતા જતા ભાવ
અંગે પણ તેને નારાજગી છે. પણ આમાં તે લાચાર છે ને અન્ય ગૃહિણીની જેમ રોષ જ વ્યક્ત
કરી શકે તેમ છે તેવું શ્રીમતિ સિંહાએ કહ્યું હતું.</p>

<p>બજેટ પછી હવે તે શું કરશે? એ અંગે
નિલીમાસિંહા કહે છે કે હવે અમે થોડા દિવસો હળવાશમાં વીતાવવા માંગીએ છીએ. પતિ
જોડે વધુ સમય વીતાવવા માગું છું. કેમ કે બજેટની તૈયારીના સંદર્ભમાં છેલ્લા એક
મહિનાથી યશવંતસિંહા ઘેર મધરાતે પરત ફરે છે. આમ પણ તે ઘેર મોટાભાગે મોડા જ
આવે છે. પણ તેનાથી હવે તે ટેવાઇ ગયા છે.</p>

<p>પોતે એક ગૃહિણી તરીકે ઘર ચલાવવામાં
વાંધો અનુભવતા નથી કેમ કે તેમના પિતા પણ એક સરકારી અધિકારી હતા ને
નિશ્ચિત આવકવાળા ઘરમાં જ તેઓનો ઉછેર થયો છે. ઉડાઉવૃત્તિ નહીં હોવાથી ઘરમાં
ક્યારેય ખાધવાળી સ્થિતિ ઉભી થઇ નથી.</p>

<p>નિલીમાસિંહા વાંચવાના ખૂબ શોખીન છે અને
તેમણે બાળકો માટેના કેટલાક પુસ્તકો પણ લખ્યા છે.</p>

<p>આજે પતિ બજેટ ૨૦૦૧ સંસદમાં રજુ કરી રહ્યા હતા
ત્યારે તે સ્પીકરની ગેલેરીમાં તેના પુત્ર સુમંત સાથે બેસી તેને સાંભળી રહ્યા હતા.</p>

<p>અત્રે એ ઉલ્લેખનીય છે કે યશવંતસિંહા પોતે
બિહારમાંથી આઇએએસ ઉત્તીર્ણ છે. તેને રાજકીય ક્શેત્રે લાવવામાં ચંદ્રશેખરનું યોગદાન
ને પરખ કહી શકાય.</p>




<p><head>કસ્ટમ્સ ડ્યુટી ઘટીને ૧૫ ટકા થતા કમ્પ્યુટર્સ,
ટેલિકોમ સાધનો સસ્તા થશે</head></p>

<p>નવી દિલ્હી, તા. ૨૮</p>

<p>નાણાંમંત્રીએ કસ્ટમ્સ ડ્યુટી ઘટાડીને ૧૫ ટકા
કરતા આવતી કાલથી જ કમ્પ્યુટર્સ અને ટેલિકોમ ઇક્વિપમેન્ટ્સ સસ્તા બનશે. બજેટ ભાષણમાં
આ જાહેરાત કરતા સિન્હાએ જણાવ્યું હતું કે ૨૦૦૩ સુધીમાં કોમ્પોનન્ટ્સ સહિતની આ
પ્રોડક્ટ્સ પરની કસ્ટમ્સ ડ્યુટી નાબુદ કરવાની સરકારની પ્રતિબધ્ધતાના ભાગરૂપે આ પગલું
લેવાયું છે.</p>

<p><head>આજથી જ અમલ: સોફ્ટવેર ટેકનોલોજી
પાર્કના એકમોની નિકાસ કમાણી પણ કપાતને પાત્ર</head></p>

<p>તેમણે કહ્યું હતું કે સોફ્ટવેર ટેકનોલોજી
પાર્કમાં આવેલા આઇટી એકમો દ્વારા ઓન સાઇટ સર્વિસિસની નિકાસમાંથી થનારો નફો અન્ય
નિકાસ આવકની જેમ કપાતને પાત્ર રહેશે. આવી નિકાસની કમાણીનો લાભ ઝોનની બહારના
એકમોને પણ મળશે.</p>

<p>ટેલિકોમ સેક્ટરને ૩૧ માર્ચ, ૨૦૦૦ સુધી
પાંચ વર્ષ સુધી ટેક્સ હોલિડે અને પાંચ વર્ષ સુધી ૩૦ ટકા કપાતનો લાભ
આપવામા ંઆવ્યો હતો. હવે ૩૧ માર્ચ ૨૦૦૩ પહેલાં કામગીરી ચાલુ કરનાર એકમોને વધુ
પાંચ વર્ષ સુધી આ લાભ મળશે. આમાં ઇન્ટરનેટ સર્વિસ પ્રોવાઇડર્સ અને બ્રોડબેન્ડ
નેટવર્ક્સનો પણ સમાવેશ થાય છે.</p>

<p>તેમણે કહ્યું હતું કે, જેમાં જાહેર જનતાનો
આંશિક હિસ્સો છે એવી કંપનીઓના સંદર્ભમાં આવકવેરા ધારાની કલમ ૧૦એ અને
૧૦બીમાં જણાવેલી કંપનીઓની માલિકીની તબદિલીને લગતી શરતો લાગુ નહિ પડે.</p>




<p><head>ફિલ્મઉદ્યોગ કોઇ પણ પગલું 'ચૂપકે ચૂપકે ચોરી
ચોરી'થી ન ભરે: સિન્હા</head></p>

<p>નવી દિલ્હી, તા. ૨૮</p>

<p>મનોરંજન ઉદ્યોગ પર સતત ત્રીજા વર્ષે મહેરબાન
થયેલા નાણાંમંત્રી યશવન્ત સિન્હાએ સિનેમેટોગ્રાફી ઇક્વિપમેન્ટ્સ પરની કસ્ટમ્સ ડ્યુટી ૨૫
ટકાથી ઘટાડીને ૧૫ ટકા કરી છે. અન્ડરવર્લ્ડ સાથના સંબંધોનો સ્પષ્ટ ઉલ્લેખ કરતા
તેમણે ફિલ્મ ઉદ્યોગને કોઇ પણ પગલું 'ચૂપકે ચૂપકે ચોરી ચોરી'ન ભરવા આહવાન કર્યું
હતું.</p>

<p><head>બોલીવુડના અન્ડરવર્લ્ડ કનેક્શનનો ઉલ્લેખ:
અનેક રાહતો આપીને ફિલ્મ ઇન્ડસ્ટ્રી પર સતત ત્રીજા વર્ષે મહેરબાન બનેલા નાણાંપ્રધાન</head></p>

<p>તેમણે ફિલ્મોદ્યોગને સરકારી પગલાઓનો લાભ
લેવા અને તેની કામગીરીમાં વ્યાવસાયિકપણું અને પારદર્શિતા બતાવવા હાકલ કરી હતી. તેમણે
કહ્યું હતું કે મનોરંજન ઉદ્યોગ મુશ્કેલ અને ક્રુર વાસ્તિવિક દુનિયામાં જીવતા કરોડો
લોકોને પરિકલ્પનાની દુનિયામાં લઇ જાય છે અને તે અર્થતંત્રના મહત્વના ક્શેત્ર તરીકે ઉપસી
આવ્યો છે.</p>

<p>સિન્હાએ ટેલિવિઝન ગેમ શો પર ૩૦ ટકા મૂળ
સ્થાનેથી કપાત (ટીડીએસ)ની જાહેરાત કરી હતી અને જણાવ્યું હતું કે ભારતમાંથી પ્રસારણ
કરતી વિદેશી ચેનલોએ આવકવેરો ભરવો પડશે. વિવિધ પગલાઓ ગણાવતા તેમણે
કહ્યું હતું કે ફિલ્મ ઉદ્યોગને બે વર્ષ પહેલાં મર્ચેન્ડાઇઝ એક્સપોર્ટ્સ માટે પ્રાપ્ય
કરમુક્તિ આપવામાં આવી હતી અને ફિલ્મઉદ્યોગને ઔદ્યોગિક સંસ્થાનનો દરજ્જો આપવા
નવેમ્બર મહિનામાં આઇડીબીઆઇ એક્ટમાં સુધારો કરવામાં આવ્યો હતો.</p>

<p>માહિતી અને પ્રસારણ મંત્રાલયની ગ્રાન્ટ હેઠળ રૂ. ૧
કરોડના જર્નાલિસ્ટ વેલ્ફેર ફન્ડની સ્થાપનાની તેમણે જાહેરાત કરી હતી. તેમણે કહ્યું હતું
કે ત્રાસવાદ અને અન્ય હિંસાત્મક ઘટનાઓનું કવરેજ કરવામાં પત્રકારો પરનું જોખમ
વધી ગયું છે. એક્રેડિટેડ પત્રકારો અને તસવીરકારો તેમના વ્યાવસાયિક વપરાશ માટે
પાંચ વર્ષ સુધી ઇક્વિપમેન્ટ્સની જકાત મુક્ત આયાત કરી શકશે.</p>

<p>તમામ સેગમેન્ટ્સમાં સ્પર્ધા દાખલ કરવા માટે
કન્વર્જન્સ બિલમાં ટેલિકમ્યુનિકેશન્સ, ઇન્ફર્મેશન ટેકનોલોજી અને ઇન્ફર્મેશન બ્રોડકાસ્ટીંગ
સેક્ટરને આવરી લેવાશે.</p>




<p><head>એફઆઈઆઈની રોકાણ મર્યાદા ૪૯ ટકા કરાઈ
: ડિવિડંડ ટેક્શમાં ૧૦ ટકાનો ઘટાડો</head></p>

<p>નવી દિલ્હી, તા. ૨૮</p>

<p>નાણાંમંત્રી યશવંત સિંહાએ આજે ફાયનાન્સિયલ
(નાણાં) અને કેપિટલ માર્કેટના ક્શેત્રે દૂરોગામી સુધારા જાહેર કર્યા હતા જે મુજબ
વિદેશી સંસ્થાકીય રોકાણકારોની હાલની ૪૦ ટકા રોકાણ મર્યાદા વધારી ૪૯ ટકા
સુધી કરવાની અને ભારતીય કંપનીઓને તેઓના એડીઆર- જીડીઆર ઈસ્યુ દ્વારા પ્રાપ્ત
નાણાં ૧૦૦ ટકા વિદેશોમાં રોકવાની છુટ આપવાની તથા ડિવિડંડ ટેક્શમાં ૧૦ ટકાના
ઘટાડાની જાહેરાતનો સમાવેશ થાય છે.</p>

<p><head>દેશના ફાયનાન્સિયલ અને કેપિટલ માર્કેટ તથા
પ્રાયમરી માર્કેટને વેગવંતુ બનાવવા સિંહાની પ્રોત્સાહજનક જાહેરાતો</head></p>

<p>મૂડી ખાતાના ઉદારીકરણના પગલાં તરીકે ભારતીય
કંપનીઓ એડીઆર- જીડીઆર ઈસ્યુ પ્રયોજી વિદેશી શેરબજારોમાં લીસ્ટીંગ કરાવી શકશે. અત્યાર
સુધી આ કંપનીઓ બ્લોક શેર હોલ્ડીંગ દ્વારા વિદેશોમાં લિસ્ટીંગ કરાવતી હતી. આ
સુવિધા તમામ કેટેગરીના શેરહોલ્ડરોને ઓફર કરવામાં આવશે.</p>

<p>ઉપરાંત જે ભારતીય કંપનીઓએ એડીઆર- જીડીઆર
ઈસ્યુ પ્રયોજ્યા હશે તેઓ ઈસ્યુ દ્વારા પ્રાપ્ત ૧૦૦ ટકા નાણાંનું વિદેશમાં રોકાણ કરી શકશે.
અત્યાર સુધી આ કંપનીઓ માત્ર ૫૦ ટકા નાણાં વિદેશોમાં રોકી શકતી હતી. દેશી
કંપનીઓ પણ ઓટોમેટિક રૂટના માધ્યમથી વાર્ષિક રૂા. ૫ કરોડ સુધીનું
વિદેશોમાં રોકાણ કરી શકશે. આ કંપનીઓને અત્યાર સુધી ત્રણ વર્ષ સુધીની
નફાશક્તિની શરતે વિદેશોમાં રોકાણની મંજૂરી અપાતી હતી. હવે આ શરત કાઢી નાંખવામાં
આવી છે.</p>

<p>ઉપરાંત નાણાંમંત્રીએ દેશના કેપિટલ માર્કેટને
વેગવંતુ બનાવવા ડિવિડંડ ટેક્શમાં ૧૦ ટકાનો ઘટાડો, પ્રાયમરી માર્કેટના રોકાણકારને
લાંબી મુદતના કેપિટલ ગેઈન ટેક્શમાંથી મુક્તિ તથા શેરોના છુટક વેચાણને મંજૂરી આપવા
જેવી વિવિધ પ્રોત્સાહજનક જાહેરાતો કરી હતી.</p>

<p>દેશના અર્થતંત્રને પુન: ધબકતું,
વેગવંતુ અને તેજીવાળુ બનાવવા દેશનું કેપિટલ માર્કેટ ચાવીરૂપ ભૂમિકા ભજવે છે. એવી
બાબત ઉપર વિશેષ ભાર મૂકીને સિંહાએ તેમના બજેટમાં મ્યુચ્યુઅલ ફંડોના યુનીટો તથા
યુનિટ ટ્રસ્ટના યુનિટોમાંથી અને સ્વદેશી કંપનીઓના રોકાણોમાંથી થતી આવકો ઉપરનો
પ્રવર્તમાન ૨૦ ટકા ડિવિડંડ ટેક્શ ઘટાડી ૧૦ ટકા કરી નાંખવાની જાહેરાત કરી હતી. તદઉપરાંત
તેમણે જામીનગીરીઓ અને યુનિટોના વેચાણમાંથી થતી આવકને લાંબી મુદતની કેપિટલ ગેઈન
ટેક્શમાંથી એ શરતે મુક્તિ આપી હતી કે તે આવક પુન: પ્રાયમરી માર્કેટમાં થયેલું
હોવું જોઈએ. તેમની આ જાહેરાત પાછળ દેશના પ્રાયમરી માર્કેટને વેગવંતુ બનાવવાનો આશય
રહેલો હતો.</p>

<p>નોન બેન્કિંગ ફાયનાન્સિયલ કંપનીઓમાં વિદેશી
કંપનીઓના સીધા વિદેશી રોકાણોને ઘરઆંગણાના બજારમાંના તેઓના ૨૫ ટકા
રોકાણને હવે સાંકળી લેવાની કોઈ જરૂર રહેતી નથી પરંતુ એ શરતે કે વિદેશી
રોકાણકારોએ લઘુત્તમ ૫ કરોડ ડોલરનું રોકાણ કરવું પડશે. રેપો, સરકારી
જામીનગીરીઓ અને વિદેશી હૂંડીયામણના સોદાઓના સેટલમેન્ટ સહિતના નાણાં બજારના ક્રમબદ્ધ
વિકાસ માટે એક ક્લિયરીંગ કોર્પોરેશન ઉભું કરવામાં આવશે.</p>

<p>સિંહાએ જાહેર કર્યું હતું કે રીઝર્વ બેંક આગામી
વર્ષે ઈલેક્ટ્રોનિક્સ ફંડ ટ્રાન્સફર એન્ડ રિયલ ટાઈમ ગ્રોસ સેટલમેન્ટ સિસ્ટમ ઉભી કરશે.</p>




<p><head>મૂડી-બજાર માટે અંદાજપત્ર 'છપ્પર ફાડકે' બની
રહેશે ?</head></p>

<p><head>સરચાર્જ નાબૂદી તથા ડિવિડન્ડ ટેક્શમાં ઘટાડા
સાથે સીધા કરવેરાની આવકારપાત્ર દરખાસ્તો !</head></p>

<p>વ્યાપાર-ઉદ્યોગ-વ્યવસાય જગતની બે મુખ્ય માંગણીઓ
સંતોષતા આવકવેરા ઉપર ૧૦% તેમજ ૧૫%ના વર્તમાન સરચાર્જ આગામી વર્ષથી નાબૂદ કરીને
તેમજ ડિવિડન્ડ ટેક્શમાં ૨૦% થી ૧૦%નો ઘટાડો કરીને, કેન્દ્રીય નાણાંમંત્રી શ્રી યશવંત
સિંહાએ આવકવેરો ભરતા કરદાતાઓને મહદ્અંશે રાજી કર્યા છે ! અલબત્ત, આગામી વર્ષ
માટે આવકવેરા ઉપરનો પ્રવર્તમાન ૨%નો 'ગુજરાત સરચાર્જ' ચાલુ રહેશે. ઉપરોક્ત દરખાસ્તો
મૂડી-બજાર માટે પણ અત્યંત પ્રોત્સાહજનક બની રહે તેમ છે !</p>

<p>નવા ઈશ્યુમાં રોકાણ કરાતો મૂડી-નફો
કરમુક્ત</p>

<p>* 'પ્રાઈમરી માર્કેટ'માં દાખલ થતી નવી જાહેર
કંપનીઓમાં ભરણાંને પ્રોત્સાહન મળે તે હેતુસર, આગામી નાણાકીય વર્ષથી શૅરો તેમજ
યુનિટના વેચાણ દ્વારા ઉદ્ભવતા લાંબા ગાળાના મૂડી નફાનું રોકાણ જો નવા ઈશ્યુના
શૅરોમાં કરવામાં આવે, તો રોકાણની આવી રકમ મૂડી-નફા સંબંધી આવકવેરામાંથી
કરમુક્ત ગણવામાં આવશે.</p>

<p>એક લાખ સુધીના પગારદારોને ૩૦%
આવકવેરા રીબેટ</p>

<p>* ગ્રોસ રૂા. એક લાખથી ઓછી (સ્ટાન્ડર્ડ
ડીડક્શનની ગણતરી પહેલાં) કરપાત્ર આવક ધરાવતા પગારદાર કરદાતાઓના કેસમાં, જો
તેમની પગારની આવક, તેમની અન્ય આવક સાથે થતી કુલ ગ્રોસ આવકના ૯૦%થી ઓછી ન હોય,
તો તેવા કેસમાં તેમને આવકવેરાના કાયદાની કલમ ૮૮ હેઠળ કરાતા રોકાણો સંબંધી
પ્રવર્તમાન ૨૦%ના બદલે ૩૦%ના વિશેષ દર આવકવેરા રીબેટનો લાભ આપવામાં આવશે.</p>

<p>૧લી જૂન, ૨૦૦૧થી 'આઈ.ટી. ક્લીયરન્સ'ની
જોગવાઈ નાબૂદ</p>

<p>* પ્રવર્તમાન જોગવાઈઓ અનુસાર, આવકવેરાના
કાયદાની કલમ ૨૩૦-એ હેઠળ રૂા. પાંચ લાખથી વધુ કિંમતની સ્થાવર મિલકતના વેચાણ કે
હસ્તાંતર સંબંધી કરદાતાએ મેળવવાના રહેતા 'ઈન્કમટેક્શ ક્લીયરન્સ સર્ટિફિકેટ'ની
કાર્યવાહી અને જોગવાઈ ૧લી જૂન, ૨૦૦૧થી નાબૂદ કરાશે.</p>

<p>લૉટરી, ગેમ-શો વગેરેની આવક ઉપર વેરામાં
ઘટાડો</p>

<p>* વર્તમાન જોગવાઈઓ અનુસાર, લૉટરી, પત્તાની
રમતો, 'કેબીસી' વગેરે જેવા ગેમ શોમાંથી ઉદ્ભવતી આવક ઉપર ૪૦%ના ફ્લેટ દરે આવકવેરો
ભરવાની જવાબદારી રહે છે. આગામી વર્ષથી આમાં ઘટાડો કરીને આ હેતુસર ૩૦%નો વેરો
નિયત કરવામાં આવ્યો છે. આ ટેક્શની કપાત આવી ચુકવણી કરનાર શખ્સે 'એટ સોર્સ'
કાપવાનો રહેશે.</p>

<p>હાઉસિંગ લોન ઉપરના વ્યાજની કપાત હવે રૂા.
દોઢ લાખ</p>

<p>* ૧લી એપ્રિલ, ૧૯૯૯થી ૩૧મી માર્ચ, ૨૦૦૩ દરમિયાન
બાંધકામ કરાતા કે ખરીદવામાં આવતા રહેઠાણના મકાનો સંબંધી લેવામાં
આવેલી હાઉસિંગ લોન ઉપર ચૂકવાતા વ્યાજ સંબંધી, વર્તમાન રૂા. એક લાખની કપાતને
વધારીને આગામી વર્ષથી રૂા. દોઢ લાખ કરવામાં આવી છે.</p>

<p>મકાનના વાર્ષિક મૂલ્યમાંથી ૨૫%ને બદલે હવે
૩૦%ની કપાત</p>

<p>* પ્રવર્તમાન જોગવાઈઓ અનુસાર 'મકાન-મિલકતમાંથી
આવક'ની ગણતરીના હેતુસર કરદાતાને મકાનના વાર્ષિક મૂલ્યમાંથી ૨૫%ના ધોરણે
'રીપેર્સ' તેમજ કલેક્શન ચાર્જીસ'ના સ્વરૂપે કપાતનો લાભ આપવામાં આવે છે. આગામી
વર્ષથી આ કપાતને વધારીને ૩૦% કરવામાં આવશે, પરંતુ આ શીર્ષક હેઠળ આ સાથે વ્યાજ
સિવાયની, અન્ય કપાતો મળવાપાત્ર ગણાશે નહીં. આ ઉપરાંત 'વાર્ષિક મૂલ્ય'ની ગણતરી માટેના
ધોરણોમાં પણ સરળીકરણની જાહેરાત કરવામાં આવી છે.</p>

<p>ઘસારા સંબંધી કેટલીક આવકારદાયક
જોગવાઈઓ</p>

<p>* કલમ ૩૨ હેઠળ અસમાવિષ્ટ ઘસારો આગળ ખેંચવા
સંબંધી પ્રવર્તમાન આઠ વર્ષની મર્યાદાને નાબૂદ કરવામાં આવી છે. આ ઉપરાંત
'કૉમર્શિયલ' હેતુસર ઉપયોગમાં લેવાતા વાહનો તેમજ 'ગાર્મેન્ટ ઈન્ડસ્ટ્રી' માટેની
મશીનરીના સંદર્ભમાં ઘસારાના પ્રવર્તમાન દરોને વધારીને આગામી વર્ષથી ૫૦% નિયત
કરવામાં આવશે.</p>

<p>કલમ ૮૦-એલ હેઠળની કરમુક્તિ મર્યાદામાં
આશ્ચર્યજનક ઘટાડો !</p>

<p>* કલમ ૮૦-એલની પ્રવર્તમાન જોગવાઈઓ અનુસાર
બૅન્ક વ્યાજ, એન.એસ.સી. વ્યાજ વગેરે સંબંધી રૂા. ૧૨,૦૦૦ તેમજ ગવર્મેન્ટ
સીક્યુરિટીઝના વ્યાજ સંબંધી રૂા. ૩,૦૦૦ની મર્યાદામાં, આવી આવકને કરમુક્ત ગણવામાં
આવે છે. આ કરમુક્તિ મર્યાદામાં આશ્ચર્યજનક ઘટાડો કરીને તેને આગામી વર્ષથી રૂા. ૯,૦૦૦
સુધી સીમિત રાખવાની જાહેરાત કરવામાં આવી છે. એક તરફ સામાન્ય રોકાણકારોની
નાની બચતના રોકાણો ઉપર વ્યાજના દરમાં લગભગ દોઢ ટકાનો ઘટાડો કરવામાં આવ્યો છે,
તો બીજી તરફ આ સંબંધી કરમુક્તિ મર્યાદામાં ઘટાડાની સાથે આવા રોકાણકારોને
બેવડો માર સહન કરવો પડશે!</p>




<p><head>બટાકાનું શું કરવું ? : મુલાયમ 
આલુ કા ચોખા બનાયેંગે : સિંહા</head></p>

<p><head>બજેટની રજુઆત દરમ્યાન હળવી રમૂજ કરતાં
નાણાંમંત્રી</head></p>

<p>નવીદિલ્હી, તા. ૨૮</p>

<p>નાણાંમંત્રી યશવંતસિંહો આજે લોકસભામાં
તેમની વર્ષ ૨૦૦૧-૦૨ના સામાન્ય બજેટની બે કલાક લાંબી જાહેરાત દરમ્યાન
વિરોધપક્શોની વારંવારનની ટીકાની ધરાર ઉપેક્શા કરી વાતાવરણ હળવુ બનાવવા
કેટલીક રમૂજ અને હળવી ક્શણો રજુ કરવા પણ પ્રયત્ન કર્યો હતો.</p>

<p>પ્રચાર માધ્યમો સમક્શ બજેટ ફૂટી ગયું છે એવી
વિરોધપક્શોની ટીકા વચ્ચે નાણાંમંત્રી સિંહાનાં શરૂ થયેલાં બજેટ પ્રવચનનો
કોંગ્રેસના ડાબેરી પક્શો તથા અન્ય પક્શોના એવા વિરોધ સાથે અંત આવ્યો હતો
કે આ બજેટ ગરીબ વિરોધી છે અને બહુ રાષ્ટ્રીય કંપનીઓની તરફેણ કરનારું છે.</p>

<p>સિંહાએ જેવી બજેટની દરખાસ્તો જાહેર કરી કે
તરત જ તેમને વિરોધપક્શો તરફથી એવી ટીકાની ઝડીઓનો સામનો કરવો પડ્યો
હતો કે આ બજેટથી કિંમતો વધશે, ગરબો મરી જશે, ધનિકો તરફી સરકાર અને
કેબિનેટનું કદ ઘટાડો. જો કે તે વિપક્શોની ટીકાથી સહેજપણ મુંઝાયા વિના મુલાયમ
સિંહના પ્રશ્નનો ઉત્તર રમૂજ ભર્યો ઉત્તર આપ્યો હતો. મુલાયમ સિંહે એમ પૂછ્યું હતું કે
બટાકાનું શું કરવું ? નાણાંમંત્રીએ એવો જવાબ આપ્યો હતો કે આલુ કા ચોખા બનાયા
જાયેગા. જ્યારે મુલાયમ બટાકા વિશે વાત કરી ત્યારે સિંહાએ અનાજ અને શાકભાજીના
વિવિધ ઉત્પાદનોને એકસાઈઝ જકાતમાંથી મુક્તિ આપ્યાનો નિર્દેશ કરી રહ્યા હતા.</p>

<p>સરકાર માન્ય પત્રકારો અને કેમેરામેનો તેઓ
દ્વારા ઉપયોગમાં લેવાતા કેમેરા તથા અન્ય સાધનો વિદેશમાંથી બે વર્ષમાં એકવાર
કસ્ટમ જકાત ભર્યા વિના મંગાવી શકશે. ઉલ્લેખનીય છે કે આ મુદત અગાઉ પાંચ વર્ષમાં માત્ર
એકવાર હતી. બજેટની રજુઆત કરતાં પહેલાં સિંહાએ કહ્યું હતું કે દરખાસ્તો રજુ કરતા
પહેલાં હું એક ગ્લાસ પાણી પી જઇશ કેમ કે દરખાસ્તો સાંભળ્યા બાદ દરેક જણ પાણી માટે
દોડાદોડ કરશે.</p>




<p><head>બજેટ - ૨૦૦૧-'૦૨ : ઉડતી નજરે</head></p>

<p>* કેન્દ્રએ ૨૦૦૧-૦૨ દરમ્યાન
જાહેર ક્શેત્રના ડિસઇન્વેસ્ટમેન્ટ દ્વારા રૂ. ૧૨૦૦૦ કરોડ ઉભા કરવાનું મૂકેલું લક્શ્યાંક
ખાનગીકરણ તરફ કૂચ</p>

<p>* કેન્દ્ર, રાજય અને કેન્દ્ર
શાસિત પ્રદેશોને અંદાજપત્ર દ્વારા આપવામાં આવતી ટેકારૂપ રકમ ૧૬ ટકા વધી રૂ. ૧૩૮૬૨
કરોડ થઈ</p>

<p>* ચાલુ નાણાંકીય વર્ષમાં કુલ
બજેટરી સપોર્ટ રૂ. ૪૮૨૬૯ કરોડથી વધારી રૂ. ૫૯૯૫૬ કરોડ કરવાનું કેન્દ્રનું
આયોજન</p>

<p>* ખાધ પૂરવા માટે
પોસ્ટના દરો સુધારાશે.</p>

<p>* કેન્દ્ર સરકારના
કર્મચારીઓને અપાતી એલટીસીની સગવડ આગામી બે વર્ષ માટે સસ્પેન્ડ</p>

<p>* વહીવટી વ્યાજ દર
આવતીકાલથી ૧.૫ ટકાથી ઘટી ૧ ટકા થશે.</p>

<p>* રાજ્યોના આયોજનો માટે
ધિરાણ રૂપે કરાતી કેન્દ્રીય સહાયના વ્યાજના દરોમાં ૫૦ બેઝીસ પોઇન્ટનો ઘટાડો</p>

<p>* નાબાર્ડ લેન્ડિંગ રેટસ ૧૧.૫
ટકાથી ઘટાડી ૧૦.૫ ટકા કરશે.</p>

<p>* એફઆઈઆઈ માટે
પોર્ટફોલિયો ઇન્વેસ્ટમેન્ટમાં કંપનીમાં રોકાણોની મર્યાદા ૪૦ ટકાથી વધારી ૪૯
ટકા કરવામાં આવી.</p>

<p>* એડીઆર અને જીડીઆર ઇસ્યુ
કરતી કંપનીઓને આ પ્રક્રિયા માટે ૧૦૦ ટકા વિદેશી રોકાણની મંજૂરી આપવામાં આવી જે
અત્યાર સુધી ૫૦ ટકા હતી.</p>

<p>* ભારતીય કંપનીઓ હવે
આપમેળે જ કદાચ વિદેશમાં ૫ કરોડ ડોલરનું રોકાણ કરી શકશે.</p>

<p>* એડીઆર અને જીડીઆર ઇસ્યુ
કરતી ભારતીય કંપનીઓ હવેથી વિદેશી કંપનીઓમાં કદાચ ૧૦ કરોડ ડોલર સુધીના
શેરોનું સંપાદન કરી શકશે અથવા તે જ વર્ષમાં તેણે કરેલી નિકાસોના મૂલ્યની ૧૦ ગણી
રકમના મૂલ્યના શેરોનું સંપાદન કરી શકશે.</p>

<p>* નોન બેન્કિંગ ફાયનાન્સિયલ
કંપનીઓમાં ઓછામાં ઓછું ૫ કરોડ ડોલર સુધીનું પ્રત્યક્શ વિદેશી રોકાણ
લાવતા રોકાણકારોને સ્થાનિક બજારમાં તેમના હોલ્ડીગના ઓછામાં ઓછા ૨૫ ટકા હિસ્સાનુ
ડાયવેસ્ટમેન્ટ કરવાની જરૂર નહિ પડે.</p>

<p>* બેન્કિંગ સર્વિસ રીક્રુટમેન્ટ
બોર્ડ (બીએસઆરબી)ના અસ્તિત્વનો ૩૧ જુલાઈ ૨૦૦૧ના રોજ અંત આવી જશે. બેંકો હવે
જાતે જ તેમની ભાવિ જરૂરિયાતોને લઈને ભરતી કરશે.</p>

<p>* ભારતીય રીઝર્વ બેંક સરકારી
જામીનગીરીઓનું રીયલ ટાઇમ બેઝિસે હરાજી અને ડીલીંગ જુન ૨૦૦૧ સુધીમાં
ઇલેકટ્રોનિક નેગોશિયેટેડ ડીલીંગ સિસ્ટમની સ્થાપના કરશે, જેથી તેમાં પારદર્શકતા જળવાઈ
રહે.</p>

<p>* સરકારી જામીનગીરીના
કાયદાના બદલે જાહેર દેવાનો કાયદો આવશે.</p>

<p>* સરકાર ૨૦૦૧-૨૦૦૨ દરમ્યાન
દેવાની વસૂલાત માટે સાત વધુ ટ્રિબ્યુનલો સ્થાપશે.</p>

<p>* રાજયના નાણાંકીય
સુધારાઓના ભાગ રૂપે રૂ. ૪૨૪૩ કરોડનું ઇન્સેન્ટિવ ફંડ ઉભુ કરવામાં આવશે. જેથી
રાજયોને નાણાંકીય સુધારાના અમલ પર દેખરેખ રાખવામાં પ્રોત્સાહન મળે.</p>

<p>* કેન્દ્રીય વેરાઓમાંથી
રાજયોને મળતી રકમ ચાલુ વર્ષની સરખામણીએ ૨૦૦૧-૦૨માં વધીને રૂ. ૯૦૦૦ કરોડ
થવાની શકયતા છે.</p>

<p>* કેન્દ્રનો નોન પ્લાન ખર્ચ
ગયા વર્ષે સુધારેલા લક્શ્યાંક રૂ. ૨,૪૯,૨૮૫ કરોડ કરતાં વધીને રૂ. ૨,૭૫,૧૨૩
કરોડ થવાનો અંદાજ છે.</p>

<p>* ખર્ચ સુધારણા પંચની
ભલામણોનો અમલ ૩૧ જુલાઈ, ૨૦૦૧ સુધીમાં શરૂ થશે. ઓળખી કાઢવામાં આવેલો
અનામત (વધારાનો) સ્ટાફ અનામતની કેટેગરીમાં મૂકાશે.</p>

<p>* કેન્દ્રએ પેન્શન સિસ્ટમના
મૂલ્યાંકન માટે ઉચ્ચ કક્શાના નિષ્ણાતોના જૂથની રચના કરી છે. તે મુજબ ૧લી ઓકટોબર
૨૦૦૧થી કેન્દ્ર સરકારની સેવામાં પ્રવેશતા કર્મચારીઓને પેન્શન ફાળાની (સરકાર અને
કર્મચારી)ના નવી થયેલી વ્યાખ્યાઓ પરથી બનેલા નવા કાર્યક્રમના આધારે મળશે.</p>

<p>* સરકારી સવલતોનું ભાડુ
(સ્ટાન્ડર્ડ લાયસન્સ ફી) આ વર્ષે ૧લી એપ્રિલથી શરૂ થશે.</p>

<p>* કૃષિ ક્શેત્રમાં અનાજની
આંતર રાજ્ય હેરફેર નાબૂદ કરવાનો પ્રસ્તાવ છે. જયારે આવશ્યક ચીજવસ્તુ ધારાનું
મૂલ્યાંકન કરી તેમાં ઘણી બધી ચીજવસ્તુઓને આવશ્યક ચીજવસ્તુ જાહેર કરી તેનો
તેમાં સમાવેશ કરાયો છે.</p>

<p>* જાહેર વિતરણ વ્યવસ્થા દ્વારા
ઘટાડેલા દરે નબળા કુટુંબોને અનાજ પુરુ પાડવા તેના સંપાદન અને વહેંચણી માટે રાજય
સરકારોને નાણાંકીય સહાય.</p>

<p>* બધા યોગ્ય (પાત્રતા
ધરાવતા) ખેડૂતોને કિસાન ક્રેડિટ કાર્ડસ (કેસીસી) પૂરા પાડવામાં આવશે. તે
ધરાવનાર અકસ્માત મૃત્યુ કે કાયમી અપંગતા સામે નીચા પ્રીમીયમે પર્સનલ ઇન્સ્યોરન્સ
પેકેજ મેળવી શકશે.</p>

<p>* નાબાર્ડ પાકને સ્ટોરેજ
કરવા માટે અપાતા ભંડોળ પરનો દર ૧૦ ટકાથી ઘટાડી ૮.૫ ટકા કરશે.</p>

<p>* ઉત્તર પૂર્વ રાજ્યોમાં
હોર્ટિકલ્ચરના સમન્વિત વિકાસ કરવા ટેકનોલોજી મિશન માટે રૂ. ૩૮ કરોડનું ભંડોળ</p>

<p>* ગ્રામ્ય વિસ્તારોમાં આગામી
છ વર્ષમાં વીજળી પહોંચતી કરવા રૂ. ૭૫૦ કરોડની ફાળવણીનો કેન્દ્રનો પ્રસ્તાવ</p>

<p>* ૩૧મી ડીસેમ્બર ૨૦૦૧
સુધીમાં ૧૦૦ ટકા મીટરીંગની ક્શમતાની સ્થાપના માટે ઘડી કાઢવામાં આવેલો કાર્યક્રમ</p>

<p>* બધા સ્તરે એનર્જી
ઓડિટ</p>

<p>* સ્ટેટ ઇલેકટ્રિસિટી રેટ
કંટ્રોલ સિસ્ટમ દ્વારા વીજ દરો નક્કી તશે.</p>

<p>* એક્સલ રેટેડ પાવર
ડેવલપમેન્ટ પ્રોગ્રામ (એડીપીપી)ને ફાળવણી રૂ. ૧૦૦૦ કરોડથી વધારી રૂ. ૧૫૦૦ કરોડ
કરાઈ.</p>

<p>* રાજ્ય વિદ્યુત બોર્ડોની
પુર્નરચના કરી વીજ વિતરણનું વ્યાપારીકરણ કરવું.</p>

<p>* ૧૦૦૦ કરતાં પણ ઓછા
કામદારો ધરાવતા ઔદ્યોગિક એકમોમાં લે-ઓફ, છટણી અને તેને બંધ કરવા
માટે સરકારની મંજૂરીની જરૂર નહિ પડે. કામદારોને છૂટા કરવા માટે ચૂકવાતુ વળતર તેની
સર્વિસના વર્ષના ૧૫ દિવસથી વધારી ૪૫ દિવસ કરવામાં આવ્યું છે.</p>

<p>* સરકાર જે કામદારોએ તેની
નોકરી ગુમાવી છે, તેમને વળતર ચૂકવવા માટે નીતિ (આશ્રય વીમા યોજના)ની જાહેરાત
કરવાની છે.</p>

<p>* રૂ. ૨૫૦૦ કરોડના ભંડોળ
સાથેની પ્રધાનમંત્રી ગ્રામ સડક યોજના હેઠળ ૨૦૦૩ સુધીમાં ૧૦૦૦ની વસ્તી
ધરાવતા દરેક ગામ અને ૫૦૦ સુધીની વસ્તી ધરાવતા દરેક ગામને ૨૦૦૭
સુધીમાં માર્ગો વડે સાંકળી લેવાશે.</p>

<p>* એસએસઆઈ સેકટરમાં
લેધર ગુડઝ, બૂટ અને રમકડા સાથે સંબંધિત ૧૪ ઉત્પાદનોને અનામતોની
યાદીમાંથી બહાર મૂકવામાં આવી છે.</p>

<p>* ૧લી સપ્ટેમ્બર ૨૦૦૦ની રૂ. ૧
કરોડની મુકિત મર્યાદા ડબલ કરી દેવાશે.</p>

<p>* આરોગ્ય અને કુટુંબ કલ્યાણ
મંત્રાલયને ફાળવણી રૂ. ૪૯૨૦ કરોડથી વધારી રૂ. ૫૭૮૦ કરોડ કરવામાં આવી રૂ. ૧૮૦
કરોડ એચઆઈવી / એઇડઝ કંટ્રોલ કાર્યક્રમ માટે ફાળવાશે.</p>

<p>* ભારતમાં અને વિદેશમાં
શાળા અને કોલેજોમાં ચાલતા શિક્શણના બધા પ્રકારના કોર્સ માટે શૈક્શણિક ધિરાણ
મેળવવા નવી આકર્ષક કોમર્શિયલ બેંક સ્કીમ તે મુજબ ભારતમાં ભણતા વિદ્યાર્થીને રૂ. ૭.૫
લાખ સુધી અને વિદેશમાં ભણતા વિદ્યાર્થીને રૂ. ૧૫ લાખ સુધીની લોન મળશે.</p>

<p>* મૂળભૂત શિક્શણ માટેની
બધી વર્તમાન અને ચાલી રહેલી શિક્શણ પદ્ધતિઓને સાંકળી એક સૂત્રી રાષ્ટ્રીય શિક્શણ
વ્યવસ્થાની રચના કરાશે.</p>

<p>* ઇરડા અનઓર્ગેનાઇઝડ
સેકટરમાં સામાજીક સુરક્શાની બાબતોની સંભાળ લેશે અને ૧લી ઓકટોબર ૨૦૦૧થી લાગુ થતાં
પેન્શન સુધારાનો પથદર્શક અહેવાલ તૈયાર કરશે.</p>

<p>* ખાંડને સંપૂર્ણપણે અંકુશ
મુક્ત કરવાના પ્રથમ પગલા તરીકે ફયુચર્સ / ફોરવર્ડ ટ્રેડિંગ શરૂ કરાશે, જાહેર વિતરણ વ્યવસ્થા
હેઠળ તેનો ભાવ સુધારીને આવતીકાલથી રૂ. ૧૩.૨૪ કરાશે.</p>

<p>* ટેક્શ્ટાઈલ ક્શેત્રે ફાળવણી રૂ.
૪૫૭ કરોડથી વધારી રૂ. ૬૫૭ કરોડ કરવામાં આવી છે.</p>

<p>* રૂ. એક કરોડના ભંડોળ
સાથે પત્રકાર કલ્યાણ ભંડોળની સ્થાપના કરવામાં આવશે.</p>

<p>* પેટ્રોલિયમ સેકટરમાં
એપીએમના ડિસમેન્ટલીંગ માટે માર્ચ ૨૦૦૨ની ડેડલાઈન નક્કી કરવામાં આવી છે.</p>

<p>* કુદરતી આફતો ભંડોળના
બે ટકા સરચાર્જ સિવાયના બાકીના આવકવેરા ઉપરના અને કોર્પોરેટ વેરા ઉપરના સરચાર્જ
નાબૂદ</p>

<p>* આવકવેરા અને કોર્પોરેટ
કરવેરાનાં દરો યથાવત.</p>

<p>* વાર્ષિક રૂા. ૬૦,૦૦૦ની
આવક સુધીના આકારણીદારને કોઈ સરચાર્જ નહીં.</p>

<p>* સહકારી મંડળીઓનો
હાલનો ૩૫ ટકા કર ઘટાડી ૩૦ ટકા કરાયો.</p>

<p>* સીધા કરવેરાની
દરખાસ્તોને કારણે કરવેરા વસુલાતમાં ભળનારી રૂપિયા પંચાવન સો કરોડની ઘર કરવેરો
ભરવામાં જાગેલા ઉત્સાહથી સરભર કરવામાં આવશે.</p>

<p>* ખોટ કરતી કંપનીઓએ પણ
આવકવેરાનો રીટર્ન ભરવો પડશે.</p>

<p>* રૂપિયા એક લાખ
સુધીની ઓછી આવક ધરાવનાર પગારદાર વ્યક્તિને તેના યોગ્ય રોકાણો સામે
આવકવેરામાં પ્રવર્તમાન ૨૦ ટકાને બદલે ૩૦ ટકા વળતર મળશે.</p>

<p>* સરકારે સ્પેશ્યલ એકસાઇઝ
ડ્યુટીના ત્રણ દરોને ઘટાડીને ૧૬ ટકાનો માત્ર એક જ દર રાખ્યો.</p>

<p>* સિગારેટ ઉપર ૧૫ ટકા
સરચાર્જની દરખાસ્ત તથા બીડી ઉપર પ્રતિ એક હજારે રૂા. ૬ થી ૭ના વધારાની દરખાસ્ત.</p>

<p>* હાઈસ્પીડ ડીઝલ અને મોટર
સ્પિરિટ પરની એકસાઇઝ ડ્યુટી વધારીને ૧૬ ટકા કરી.</p>

<p>* ઠંડા પીણાં, વેન્ડીંગ
મશીનો માટેના ઠંડા પીણાં પરની સ્પેશ્યલ એકસાઇઝ ડ્યુટી ૨૪ ટકાથી ઘટાડીને ૧૬ ટકાની
કરાઈ.</p>

<p>* રજીસ્ટર્ડ નામો વાળા વસ્ત્રો
પર ૧૬ ટકાની એક્સાઇઝ ડ્યુટી લગાવવા સરકારની દરખાસ્ત.</p>

<p>* સરકારે કપાસ, બોલ અને
બેરીંગ અને ખાનગી ઉપયોગ માટેના હથિયારો અને દારૂગોળા પર એકસાઇઝ ડ્યુટી ફરીથી
લાદી.</p>

<p>* કસ્ટમ ડ્યુટી પર સરકારે ૧૦
ટકાનો સરચાર્જ હટાવવાનો પ્રસ્તાવ કર્યો.</p>

<p>* ચા, કોફી, કોપરા અને
નાળીયેર પરની કસ્ટમ ડ્યુટી ૩૫ ટકાથી વધારીને ૭૦ ટકાની કરાઈ.</p>

<p>* ક્રુડ ખાદ્યતેલ પરની કસ્ટમ
ડ્યુટી હાલની ૩૫થી ૫૫ ટકાથી વધારીને સામાન્ય ૭૫ ટકાની વધારાશે. રીફાઇન્ડ
તેલ માટે કસ્ટમ ડ્યુટી ૮૫ ટકાની કરાશે.</p>

<p>* આઈ.ટી. અને ટેલીકોમ
ઉત્પાદનો પરનો કર ઘટાડીને ૧૫ ટકાનો કરાયો.</p>

<p>* સેકન્ડ હેન્ડ કાર પરની
પાયાની કસ્ટમ ડ્યુટી ૧૦૫ ટકા સુધી વધારાશે.</p>

<p>* નિયત ટેક્સટાઇલ્સ મશીનો
પરની પાયાની કસ્ટમ ડ્યુટી ૧૫ ટકાથી ઘટાડીને ૫ ટકાની કરાઈ. તથા સીલ્ક અને કોટનના કચરા
પરની કસ્ટમ ડ્યુટી ૨૫થી ૩૫ ટકાથી ઘટાડીને ૧૫ ટકાની કરાઈ.</p>

<p>* સોડા એશ પરની કસ્ટમ
ડ્યુટી ઘટાડીને ૨૦ ટકાની કરાશે.</p>

<p>* દોરાઓના ઉત્પાદન માટેની
પોલીયેસ્ટર ચીપો અને નાયલોન ચીપો પરની કસ્ટમ ડ્યુટી ઘટાડીને ૨૫ ટકાની કરાઈ.</p>

<p>* પોલીશ કરેલા અને કટ
કરાયેલા રંગીન પથ્થરો અને કચકડાં ઉપરની કસ્ટમ ડ્યુટી ૩૫ ટકાથી ઘટાડીને ૧૫ ટકાની
કરાઈ.</p>

<p>* કાચા હીરા પરના કરમાં
ઘટાડો કરીને પાંચ ટકાનો કરાયો.</p>

<p>* સીમેન્ટ અને કલીંકરો પરની
કસ્ટમ ડ્યુટી ૩૫ ટકાથી ઘટાડીને ૨૫ ટકાની કરાઈ.</p>

<p>* સોના પરની ડ્યુટી પ્રતિ ૧૦
ગ્રામ પર રૂા. ૪૦૦થી ઘટાડીને રૂા. ૨૫૦ની કરાઈ.</p>

<p>* સીધા કરવેરાની
દરખાસ્તોમાં લોટરીઓ અને ક્રોસવર્ડ પઝલ પર જીતાતી રકમો પર હાલમાં ૪૦ ટકા રકમો પર
લગાડાતા કર હવે ૩૦ ટકા પર લગાડાશે. ટી.વી. ગેમ શોમાં અપાતી ઇનામની રકમો પર
વિજેતાઓને રકમ પહેલાં સ્થળ પર જ ૩૦ ટકા દર કાપીને અપાશે.</p>

<p>* કરવેરાના માળખાને વિસ્તૃત
કરવા માટે કમિશન કે દલાલીથી થતી રૂા. ૨,૫૦૦થી વધુની આવક પર સ્થળ પર જ ૧૦ ટકાના દરે
આવકવેરો કપાશે. આમાંથી શેર અને સીક્યોરીટીઓના સોદાઓને બાકાત રખાયા છે.</p>

<p>* સ્વદેશી કંપનીઓમાં કરાયેલા રોકાણથી થતી
આવક અને મ્યુચ્યુઅલ ફંડના યુનિટોમાં કરાયેલા રોકાણમાંથી થતી આવક ઉપરનો ડીવીડન્ડ
ટેક્સ ૨૦ ટકા પરથી ઘટાડી ૧૦ ટકાનો કરાયો.</p>

<p> </p>






</body></text></cesDoc>