<cesDoc id="guj-w-samachar-news-00-11-11" lang="guj">
<cesHeader type="text">
<fileDesc>
<titleStmt>
<h.title>guj-w-samachar-news-00-11-11.txt</h.title>
<respStmt>
<respType>Electronic file created by</respType>
<respName>Department of Linguistics, Lancaster University</respName>
<respType>text collected by</respType>
<respName>Andrew Hardie</respName>
<respType>transferred into Unicode by</respType>
<respName>"Unicodify" software by Andrew Hardie</respName>
</respStmt>
</titleStmt>
<publicationStmt>
<distributor>UCREL</distributor>
<pubAddress>Department of Linguistics, Lancaster University, Lancaster, LA1 4YT, UK</pubAddress>
<availability region="WORLD"></availability>
<pubDate>03-08-24</pubDate>
</publicationStmt>
<sourceDesc>
<biblStruct>
<monogr>
<h.title>"Gujarat Samachar" internet news (www.gujaratsamachar.com), news stories collected on 00-11-11</h.title>
<h.author>Gujarat Samachar</h.author>
<imprint>
<pubPlace>Gujarat, India</pubPlace>
<publisher>Gujarat Samachar</publisher>
<pubDate>00-11-11</pubDate>
</imprint>
</monogr>
</biblStruct>
</sourceDesc>
</fileDesc>
<encodingDesc>
<projectDesc>Text collected for use in the EMILLE project.</projectDesc>
<samplingDesc>Simple written text only has been transcribed. Diagrams, pictures and tables have been omitted and their place marked with a gap element.
</samplingDesc>
<editorialDecl>
<conformance level="1"></conformance>
</editorialDecl>
</encodingDesc>
<profileDesc>
<creation>
<date>03-08-24</date>
</creation>
<langUsage>Gujarati</langUsage>
<wsdUsage>
<writingSystem id="ISO/IEC 10646">Universal Multiple-Octet Coded Character Set (UCS).</writingSystem>
</wsdUsage>
<textClass>
<channel mode="w">print</channel>
<constitution type="composite"></constitution>
<domain type="public"></domain>
<factuality type="fact"></factuality>
</textClass>
<translations></translations>
</profileDesc>
<revisionDesc></revisionDesc>
</cesHeader>

<text>
<body>




<p><head>ઉત્તરાંચલ, ઝારખંડ પક્શીય જુથવાદમાં સપડાયા</head></p>

<p><head>ઉત્તરાંચલમાં ત્રણ પ્રધાનો દ્વારા
શપથગ્રહણનો બહિષ્કાર : ઝારખંડમાં ભાજપે મુખ્યમંત્રીનું નામ જાહેર કર્યું નથી :
સોરેનની પણ અનિશ્ચિતતા</head></p>

<p>નવીદિલ્હી,તા.૧૦</p>

<p>છેલ્લા અઠવાડિયા દરમ્યાન અસ્તિત્વમાં આવેલા
દેશના બે રાજ્યોમાં તેની રચના સાથે જ રાજકીય કાવાદાવા, વિરોધ, જૂથવાદ તરી
આવે છે. ઉત્તરાંચલમાં આજે પ્રધાનમંડળના વિસ્તરણ સમયે ૯ પ્રધાનોનો સમાવેશ
કરાયો હતો, તેમાંથી ૩ પ્રધાનોએ શપથ ગ્રહણ વિધિનો બહિષ્કાર કર્યો હતો
તો બીજી બાજુ ઝારખંડ રાજ્યના મુખ્યમંત્રી કોણ બને તેની અનિશ્ચિતતા હજી પણ ચાલુ રહી છે.
શીબુ સોરેનને ટેકો આપવાની વિધિવત જાહેરાત કોંગ્રેસ તરફથી કરાઈ નથી તો
એનડીએના પક્શે પણ મુખ્યપ્રધાનના નામની જાહેરાત કરાઈ નથી.</p>

<p>ઝારખંડનું મુખ્યપ્રધાન પદ હાંસલ કરવામાં
શિબૂ સોરેનને ટેકો આપવાના મુદ્દે કોંગ્રેસી ધારાસભ્યો વચ્ચે પ્રવર્તતા ઉગ્ર
મતભેદોને કારણે કોંગ્રેસ પક્શને આ તેનું વલણ જાહેર કરવામાં વિલંબ થયો છે જ્યારે
રાષ્ટ્રીય લોકશાહી જોડાણ નેતાગીરીના પ્રશ્ને અવઢવમાં હોવા છતાં નવા રાજ્યમાં તેની સરકાર
રચવા તૈયાર હોય તેમ જણાય છે.</p>

<p>પોતાને ટેકાની જાહેરાતમાં થઈ રહેલા વિલંબને
કારણે ઝારખંડ મુક્તિ મોરચા (એસ)ના પ્રમુખ નારાજ થઈ ગયા છે અને તેમણે જણાવ્યું હતું
કે, આવા અણધાર્યા વિલંબને કારણે ગૂંચવાડો ઊભો થશે.</p>

<p>સોરેને આજથી ચાર દિવસ પછી અસ્તિત્વમાં
આવનારા નવા રાજ્યની પ્રથમ સરકારના મુખ્ય પ્રધાન બનવાના પોતાના પ્રયાસમાં કોંગ્રેસ
જરૂરથી ટેકો આપશે એવો આત્મવિશ્વાસ વ્યક્ત કરીને પીટીઆઈને જણાવ્યું હતું કે,
કોંગ્રેસ મને જરૂરથી ટેકો </p>




<p><head>ફાયર સેફ્ટીના પ્રશ્ને હાઇકોર્ટના આદેશથી ૪૨
ઇમારતોનાં વીજળી-જોડાણો કાપી નંખાતાં</head></p>

<p><head>ઔડા વિસ્તારમાં તોફાનો : જજોના
બંગલાઓને ઘેરાવ</head></p>

<p><head>અનેક બસોને આગ ચંપાઈ : ઠેર ઠેર
પથ્થરબાજી થતાં ટીયરગેસ છોડાયો: મુશ્કેલીમાં મૂકાઇ ગયેલા હજારો લોકો માર્ગ પર
આવી ગયા: 'ઔડા' તેમજ બિલ્ડર વિરોધી સુત્રો પોકાર્યાં : પૂતળા
સળગાવ્યા : સર્જાયેલી તંગદિલી</head></p>

<p>અમદાવાદ,શુક્રવાર</p>

<p>ગુજરાત હાઇકોર્ટના આદેશ અનુસાર નદીપારના
વિસ્તારોમાં આવેલ બહુમાળી ઇમારતોના વીજ જોડાણો એકાએક કાપી નાંખવાના આજની
અભૂતપૂર્વ ઘટનાના પગલે પગલે પારાવાર મુશ્કેલીમાં મુકાઇ ગયેલા આવી ઇમારતોના હજારો
રહીશોએ સત્તાવાળાઓ પ્રત્યે તીવ્ર રોષ વ્યક્ત કરવાનું શરૂ કર્યું હતું. લોકોના
ટોળેટોળા જાહેરમાર્ગો ઉપર આવી ગયા હતા અને સુત્રોચ્ચારો શરૂ કરી દીધા હતા
એટલું જ નહીં કેટલાક સ્થળોએ તો પૂતળા બાળવાની સાથે પથ્થરમારો પણ ચલાવ્યો હતો.
થલતેજ ટેકરા સુરધારા સર્કલ વિસ્તારમાં રોષે ભરાયેલા ટોળાએ ત્રણ મ્યુનિ.
બસોને આગ લગાડી હતી. આ બધાં વિસ્તારોમાં મોટી રાત સુધી અજંપાભરી
પરિસ્થિતિ ચાલુ રહી હતી. બોડકદેવ-જજીસ બંગલા વિસ્તારમાં હાઇકોર્ટના નિવાસસ્થાનો ઉપર
રોષે ભરાયેલા રહીશો મોરચા લઇ એવી દહેશતના કારણે આ વિસ્તારમાં પોલીસનો
બંદોબસ્ત ગોઠવી દેવામાં આવ્યો હતો. બોડકદેવ-જજીસ બંગલા વિસ્તારમાં મોડી રાત
સુધી એકત્રિત થઇ ગયેલા હજારો લોકોના ટોળાને વીખેરવા માટે પોલીસે
બળપ્રયોગની સાથે લાઠીચાર્જ શરૂ કરી દીધો હતો. આમ છતાં ટોળાએ કોઇ જ મચક નહીં
આપતાં પોલીસે ટીયરગેસના સેલો છોડવાનું શરૂ કરી દીધું ત્યારે ચારેબાજુ જબરજસ્ત
નાસભાગ મચી ગઇ હતી. લોકોનો મિજાજ પારખી ગયેલ પોલીસ અધિકારીઓએ 'જજીસ
બંગલા' વિસ્તારમાં ન્યાયમુર્તિઓના નિવાસસ્થાનોની ફરતે કોર્ડન રચી દીધું હતું. આમ
છતાં પોલીસના કોર્ડનને તોડીને ટોળાએ આગળ ધસી જવા માટે સામે મોરચો
માંડી દીધો હતો. હાઇકોર્ટના ન્યાયમુર્તી શ્રી બી.સી. પટેલના નિવાસસ્થાન નજીક
તકેદારીનાં પગલાં તરીકે પોલીસ બંદોબસ્ત ગોઠવવામાં આવ્યો જ છે. પરંતુ રાત્રે જજીસ
બંગલા વિસ્તારમાં ઉદ્ભવેલ અત્યંત તંગ સ્થિતિને નજર સમક્શ રાખીને ન્યાયમુર્તિ શ્રી પટેલના
નિવાસસ્થાને બંદોબસ્ત વધુ સખ્ત બનાવી દેવામાં આવ્યો હતો.</p>

<p>શહેરના નદીપારના વિસ્તારમાં આવેલ બહુમાળી
મકાનોમાં નિર્ધારીત સમય મર્યાદામાં ફાયર સેફ્ટીની વ્યવસ્થા પૂરીપૂર્ણ કરવામાં નહીં
આવતા હાઈકોર્ટના આદેશ અનુસાર ઔડાએ પુરી પાડેલી યાદી મુજબ એ.ઈ.સી.એ આજે
તાબડતોબ આવા ટાવરોના વીજ જોડાણો કાપી-નાંખતા અજંપાભરી પરીસ્થિતિનું નિર્માણ થયું
છે. એટલું જ નહીં જે તે વિસ્તારના અસરગ્રસ્ત રહિશોએ જાહેર રસ્તા પર આવી જઇને આ
પ્રકારની કાર્યવાહી સાથે તિવ્ર રોષ વ્યક્ત કરવાનું શરૂ કરી દીધું હતું.</p>

<p>થલતેજથી શરૂ કરીને વેજલપુર સુધીના લાંબા
પહોળા પટ્ટામાં ઉભા કરી દેવાયેલા ૪૨ જેટલાં બહુમાળી ટાવરોના રહેવાસીઓ વીજ જોડાણ
કપાઈ જતાં ન કલ્પી શકાય તેવી પરેશાનીમાં મુકાઈ ગયા છે. કેટલાક વિસ્તારોમાં તો રસ્તા
પર આવી ગયેલા રહિશોએ સત્તાવાળાઓના વિરૂધ્ધમાં સુત્રોચ્ચારો શરૂ કરી
દીધા હતા. આ ઉપરાંત ઔડાના ચેરમેનની હાય...હાય...પોકારીને છાજીયા લેવાનું
તેમજ તેમના પુતળા બાળવાનું પણ શરૂ કરી દીધું હતું. અસરગ્રસ્ત ટાવરોમાં અંધકાર
પથરાઈ ગયો છે. એટલું જ નહીં કેટલાક સ્થળોએ તો એકાએક લીફ્ટ બંધ થઇ જતાં
તેના લોકો ફસાઈ પણ ગયા હતા. આથી મ્યુની. ફાયરબ્રીગેડ સ્ટાફે આવા ટાવર ખાતે પહોંચી
જઇને ફસાયેલી વ્યક્તિઓને સલામત રીતે લીફ્ટમાંથી બહાર કાઢી હતી. વીજ જોડાણ કપાઈ
જતાં ભારે કઠિનાઈનો સામનો કરી રહેલાં રહિશો આવતીકાલનો શનીવાર તેમજ રવિવાર એમ
બે દિવસ રજાના દિવસ હોવાથી આ પરિસ્થિતિમાંથી રાહત મેળવવા માટે ક્યાં રજુઆત કરવી તે
પ્રશ્ને પણ મુંઝાઈ ગયા હતા. આજે એકાએક ઉદ્ભવેલ આ પરિસ્થિતિના કારણે કાયદો અને
વ્યવસ્થા કદાચ જોખમાય એવી સંભાવનાને ધ્યાનમાં લઇને શહેર પોલીસતંત્રે પણ જે તે પોલીસ
મથકોને સાવધ રહેવા સુચનાઓ આપી દીધી હતી.</p>

<p>ગુજરાત હાઈકોર્ટે ઔડા વિસ્તારમાં આવેલી
બહુમતી ઈમારતોમાં હજી પણ ફાયર સેફટીની સુવિધા ઊભી કરી ના હોય તેવી
ઈમારતોનાં વીજ જોડાણો કાપી નાખવા માટે આવા બિલ્ડીંગોની યાદી એ.ઈ.સી.ને આપવાની
સૂચના આપી હતી. જેના સંદર્ભમાં આજે ૪૨ ઈમારતોની યાદી ઔડાએ એ.ઈ.સી.ને આપતાં
સવારથી જ વીજજોડાણો કાપવાની પ્રક્રિયા શરૂ થઈ જતાં લોકોમાં પણ ભારે ઊહાપોહ જાગ્યો
હતો. બપોર સુધીમાં સેટેલાઈટ વિસ્તારમાં ઓમ ટાવર સહિત દસ વિસ્તારોનાં
વીજજોડાણો કપાઈ જતાં સોથી સવાસો નાગરિકોનું એક ટોળું ઔડા ખાતે પહોંચી
ગયું હતું અને આ અંગે ઉગ્ર રજુઆતો કરી હતી.</p>

<p>ઔડાના સત્તાવાળાઓએ હાઈકોર્ટના આદેશનાં
સંદર્ભમાં પગલું લીધું હોવાનું જણાવતાં આ પૈકીનાં કેટલાક નાગરિકોએ ગુજરાત
હાઈકોર્ટના મુખ્ય ન્યામૂર્તિ શ્રી ડી. એમ. ધર્માધિકારી સમક્શ રજૂઆત કરી હતી.
જેનાં સંદર્ભમાં મુખ્ય ન્યાયમૂર્તિએ એવો નિર્દેશ કર્યો હતો કે, આ સંદર્ભમાં ડિવિઝન
બેન્ચનો સંપર્ક સાધવો જોઈએ. આથી દસથી બાર વ્યક્તિઓએ ન્યાયમૂર્તિ શ્રી બી. સી.
પટેલે અને ન્યાયમૂર્તિ શ્રી આર. આર. ત્રિપાઠીની ડિવિઝન બેન્ચ સમક્શ રજૂઆત કરી હતી.
દરમ્યાનમાં ડિવિઝન બેન્ચે ઓમ ટાવરનાં રહીશોને આવતીકાલે રૂા. ૧ લાખ જમા કરાવવા
ઉપરાંત બાકીના રૂા. ૭ લાખની ડિપોઝીટો બે સપ્તાહમાં જમા કરાવવાની શરતે વીજ જોડાણ પુન:
આપવાનો હુકમ કર્યો હતો. ઔડા તરફથી એવી રજૂઆત કરી હતી કે, અદાલતનાં તા.
૨૫-૭-૨૦૦૦ અને તા. ૨૭-૯-૨૦૦૦નાં આદેશો મુજબ ઔડાએ ૪૨ સ્કીમોનાં વિજજોડાણો
કાપી નાંખવા માટે એ.ઈ.સી.એ આજે અદાલતી હુકમનો અમલ સવારથી શરૂ કર્યો હતો અને
મોટે ભાગે તમામ ૪૨ સ્કીમોનાં વીજજોડાણો કાપી નાંખ્યાનાં અહેવાલો મળ્યા હતા.</p>

<p>અત્રે એ ઉલ્લેખનીય છે કે, વિજજોડાણો કાપી
નંખાયેલી ૪૨ સ્કીમોનાં હાઈરાઈઝ બિલ્ડીંગોમાં અબાલ-વૃધ્ધ સહિત લગભગ ૨૦ થી ૨૫ હજાર
રહીશો વસે છે. જેઓ વીજળીનાં અભાવે લાઈટ-લીફ્ટ અને પાણી વગર કેવી રીતે પોતાનાં
માળામાં પડ્યા રહી શકશે એવો પ્રાણપ્રશ્ન સર્જાયો છે. અધુરામાં પૂરું આવતીકાલે બીજો
શનિવાર અને પરમદિવસે રવિવારની એમ સળંગ બે રજાઓ આવતી હોવાથી ઔડા અને એ.ઈ.સી.
દ્વારા હાઈકોર્ટનાં આદેશ મુજબ ભરાયેલું પગલાં ઘણાં ગંભીર પરિણામો સર્જશે તેવી ભીતિ
સેવાઈ રહી છે.</p>

<p>નદી પારની અસરગ્રસ્ત ઇમારતોના રહીશોમાં વીજ
જોડાણો કપાઇ જતાં પ્રવર્તતી અજંપાભરી પરિસ્થિતિએ રાત્રે તોફાની વળાંક લેવાનું શરૂ કરી
દીધું હતું. જેમાં થલતેજ-ટેકરા સુરધારા કોમ્પ્લેક્શ ચાર રસ્તા નજીક એકત્રિત થયેલા
ટોળાએ જોરદાર પથ્થરમારો શરૂ કરી દીધો હતો અને ત્યાંથી પસાર થઇ રહેલી ત્રણ
મ્યુનિ. બસોને આગ લગાડી હતી.</p>

<p>હાઇકોર્ટના આદેશ અનુસાર વીજ જોડાણો કપાઇ
ગયા હોવાની માન્યતાથી પ્રેરાયેલા નાગરિકો કદાચ બોડકદેવ-જજીસ બંગલા વિસ્તારમાં રહેતા
ન્યાયમુર્તિઓના નિવાસસ્થાનો ઉપર પહોંચી જઇને ઉગ્ર દેખાવો કરશે તેવી દહેશતના કારણે
જજીસ બંગલા વિસ્તારમાં પોલીસ બંદોબસ્ત સઘન બનાવી દેવામાં આવ્યો હતો.</p>

<p>વીજ જોડાણો કપાઈ ગયા હોય તેવી ઇમારતોના
ઉશ્કેરાયેલા રહીશો તેમજ આજુબાજુના લોકોના ટોળેટોળા એકત્રિત થઇને જે તે
બીલ્ડરોના રહેઠાણો ઉપર પહોંચી ગયા હતા અને ત્યાં પોતાનો તીવ્ર આક્રોશ વ્યક્ત કર્યો
હતો.</p>

<p>હાલની પરિસ્થિતમાં ભારે કફોડી હાલતમાં મુકાઈ
ગયેલા હજારો રહીશો રાત્રી કેવી રીતે અને ક્યાં વીતાવીશું તે પ્રશ્ને પણ મુંઝાઈ ગયાહતા.
ઘણાં ખરાં તો પોતાના મકાનોમાં તસ્કરો કદાચહાથ સાફ કરી જશે તેવી દહેશત વ્યક્ત કરી
રહ્યા હતા. આ બધાં અસરગ્રસ્ત રહીશોએ કેટલાક સ્થળોએ તો પથ્થરમારો ચલાવ્યો
હતો.</p>

<p>શહેર પોલીસતંત્ર પણ સ્તબ્ધ બની ગયું છે
અને નદીપારના તમામ પોલીસ મથકો ઉપરાંત અન્ય પોલીસ મથકોના અધિકારીઓને
પરિસ્થિતિ વણસે નહીં તે માટે તાબડતોબ આવી બહુમાળી ઇમારતો ખાતે રવાના કરી દેવામાં
આવ્યા હતા.</p>

<p>શહેરની સેટેલાઇટ વિસ્તાર બહુમાળી ઇમારતોમાં
વીજ જોડાણો કપાઇ જતા મોટાભાગના રહેવાસીઓ સગાવ્હાલાને ત્યાં હિજરત કરી ગયા છે
જ્યારે બાકીના નીચે ટોળે વળીને ઉકળાટ ઠાલવી રહ્યા હતા. આ વિસ્તારના મારૂતી ટાવર અને
અર્જુન ટાવરના ૫૦-૫૦ ફ્લેટો પૈકી ૭થી ૮ દવાખાના છે જ્યારે ૪ હ્ય્દયરોગના દવાખાના છે.
વીજ જોડાણો કપાઇ જતા દર્દીઓને પણ અન્યત્ર ખસેડવા પડ્યા હોવાની લોકોમાં ચર્ચા
ચાલતી હતી એ જ રીતે રીટ્રીટ ટાવરના ૧૫૦ ફ્લેટોના અને ધનંજય ટાવરના ૫૦
ફ્લેટોમાંથી મોટાભાગના બંધ થઇ ગયા ને લોકો હિજરત કરી ગયા છે. વસ્ત્રાપુર
વિસ્તારની સેટેલાઇટ સેન્ટર, શબરી, સુર્યવંશી, તક્શશીલા, નિર્મલ શાંતી ટાવર વગેરે
અસરગ્રસ્ત ઇમારતોના રહીશોએ પરિવારના સભ્યો સાથે રસ્તા ઉપર આવી જઇને રાત્રે રાસ્તા
રોકો આંદોલન શરૂ કરી દીધું હતું. એકત્રિત થયેલ બહેનોના ટોળાએ વેલણથી થાળીઓ
વગાડીને હાય.. હાય...ના પોકારો શરૂ કરી દેતાં આ વિસ્તારમાં તંગદિલી વ્યાપી ગઇ હતી.</p>

<p>ઘણાં ખરાં મકાનોમાં તો બીમાર વ્યક્તિઓ તથા
વૃધ્ધાને નવમા કે દશમા માળેથી નીચે કેવી રીતે લાવવા તે કઠીન સમસ્યા બની ગઇ હતી.
અનેક સ્થળોએ એકાએક લીફ્ટ બંધ થઇ જતાં તેમાં રહીશો ફસાઇ ગયા હતા.</p>

<p>ક્યારેય વિચાર સરખોય રાખ્યો ના હોય કે
ક્યારેય આવું પણ બનશે તેવી કલ્પના સરખીયે પણ એવી ના હોય તેવી પરિસ્થિતિનો ભોગ
બનેલા હજારો રહીશોએ આવા અમાનવીય વ્યવહાર પ્રત્યે પણ સખ્ત નારાજગી વ્યક્ત કરી હતી.</p>




<p><head>દર્દીઓને તેડીને ઉતારવા પડ્યા</head></p>

<p><head>વીજળી બંધ થઈ જતાં અનેક લોકો
લીફ્ટમાં ફસાઇ ગયા</head></p>

<p><head>ડ્રાઇવઇન રોડ પર ઉશ્કેરાયેલી મહિલાઓએ
'વુમન ચેઇન' કરી રસ્તો બંધ કરી દીધો</head></p>

<p>અમદાવાદ,શુક્રવાર</p>

<p>શહેરના ઔડા વિસ્તારમાં બહુમાળી ઇમારતોમાં
વીજળીના જોડાણો કપાઇ જતાં નાગરિકો પારાવાર મુશ્કેલીમાં મુકાઇ ગયા હતા. આ અમાનવીય
વ્યવહારથી ત્રસ્ત લોકો રસ્તા પર આવી જઇને તીવ્ર રોષ ઠાલવતા હતા. આ ગાળામાં બનેલી
ઘટનાઓ નીચે મુજબ છે.</p>

<p>* ગોયલ ઇન્ટરસીટીના જુદા જુદા બ્લોકની બે
લીફ્ટમાં ૧૭ જેટલા લોકો અધવચ્ચે ફસાઇ ગયા હતા. લોકોએ જનરેટર પર પંખા ચાલુ
કરી તેમને હવા મળે તે માટે પ્રયાસો હાથ ધર્યા હતા. બાદમાં જાળી કાપીને તેમને
બહાર કઢાયા હતા.</p>

<p>* હ્ય્દયરોગના ૪ જેટલા દર્દીઓ લીફ્ટ બંધ
થઇ જતા લોકોએ તેડીને નીચે ઉતારી કારમાં બેસાડી દવાખાને લઇ ગયા હતા.</p>

<p>* અચાનક વીજળી બંધ થઇ નાગરિકોમાં
ગભરાટની લાગણી ફેલાઇ ગઇ હતી. દાદરથી નીચે ઉતરતા ૧૦ વર્ષથી નીચેના ૧૮ જેટલા
બાળકોને નાની મોટી ઇજાઓ થઇ હતી.</p>

<p>* કેટલીક ગૃહિણીઓએ રસોડામાં રસોઇ શરૂ કરી
હતી તેઓ ગેસ બંધ કરી દઇને નીચે ઉતરી ગયા હતા.</p>

<p>* દુરદર્શન સર્કલથી ઉદ્ગમ સુધીનો રસ્તો
નાગરિકોએ બંધ કરી દીધો હતો. એક ઠેકાણે તો મહિલાઓએ હાથમાં હાથ
પકડીને 'વુમન-ચેઇન' બનાવી રસ્તો બંધ કરી દીધો હતો.</p>

<p>* ડ્રાઇવઇન રોડ પર નાગરિકોએ બે
એ.એમ.ટી.એસ. બસો, ૧ પોલીસજીપ અને અન્ય ખાનગી સહિત ૭ વાહનોને આગ ચાંપવાના ને
પથ્થરમારો કરવાના બનાવો નોંધાયા હતા.</p>

<p>* ડ્રાઇવઇન રોડ પર 'સર્જન ટાવર'માં જુદી જુદી
લીફ્ટમાં ૨૨ વ્યક્તિઓ ફસાઇ ગઇ હતી. જેમને જનરેટર દ્વારા લીફ્ટ ચાલુ કરી નીચે ઉતારાયા
હતા.</p>

<p>* કેસેલા ટાવર, ધનંજય ટાવર અને રેવતી
ટાવરની નીચે રાત્રે બહેનો ટોળે વળી હતી જ્યારે પુરૂષ વર્ગ બિલ્ડરને ત્યાં રજૂઆત માટે
દોડી ગયો હતો.</p>

<p>* સેટેલાઇટ વિસ્તારના વિશ્વકેતુ ટાવર તથા
આજુબાજુની બહુમાળી ઇમારતોના રહીશોએ જાહેર માર્ગ ઉપર અવરોધો ઉભા કરી દઇને
વાહન વ્યવહાર ખોરવી નાંખ્યો હતો. બે મ્યુનિ. બસોના ટાયરોમાંથી હવા કાઢી નાખી
હતી.</p>

<p>* રોષે ભરાયેલા નાગરિકોને સમજાવવાના કેટલાક
સ્થળોએ પોલીસે 'એ.ઇ.સી.ના અધિકારીઓ વીજ જોડાણ ફરી ચાલી કરી દેવા માટે
નીકળી ચુક્યા છે' તેવી વાતો કરીને લોકોને શાંતિ જાળવવાની નાકામ કોશીશો કરી હતી.</p>

<p>* બોડકદેવ-જજીસ બંગલા વિસ્તાર કે જ્યાં
હાઇકોર્ટના ન્યાયમુર્તિઓના નિવાસસ્થાનો આવેલા છે ત્યાં મોડીરાત્રે હજારોની
સંખ્યામાં લોકો મોરચો લઇને પહોંચી ગયા ત્યારે તો પરિસ્થિતિ ગમે ત્યારે સ્ફોટક
સ્વરૂપ ધારણ કરશે એવી દહેશત જણાતાં લોકોના ટોળાને વીખેરવા માટે પોલીસે
બળપ્રયોગ શરૂ કરી દેતાં ચારેબાજુ ભાગદોડ મચી ગઇ હતી.</p>

<p>* લોકોના ઘરમાં પાણીની તંગી સર્જાતા
હાલાકીમાં મુકાઇ ગયા હતા. કેટલેક ઠેકાણે તો બાથરૂમ-ટોયલેટમાં પણ પાણી આવતું ના
હતું.</p>

<p>* ગુરૂકુળ રોડ ઉપર ટોળાએ પાંચ બસોને
સળગાવી મુકી હતી. તેની આગ બુઝાવવા માટે દોડી આવેલા ફાયરબ્રિગેડના વાહનોને પણ
અવરોધીને તેના ઉપર પથ્થરમારો ચલાવ્યો હતો. એટલું જ નહીં આ દરમ્યાન ત્યાં
આવી પહોંચેલ પોલીસ વાનને પણ ટોળાએ ઘેરી વળીને તેના ઉપર પથ્થરમારો ચલાવ્યો
હતો.</p>




<p><head>અમેરિકી પ્રમુખપદના મુદ્દે હજુ પણ ચાલુ રહેલી
અનિશ્ચિતતા: બુશની સરસાઇ જારી</head></p>

<p>વોશિંગ્ટન, તા. ૧૦</p>

<p>આગામી અમેરિકી પ્રમુખપદ નક્કી કરવામાં ચાવીરૂપ
ભૂમિકા ભજવનાર ફ્લોરિડામાંં અંતિમ મતગણતરીમાં રીપબ્લીકન પાર્ટીના ઉમેદવાર જ્યોર્જ
જુનિયર બુશ હજુ પણ ૩૨૭ મતોની સરસાઇ ધરાવે છે. એસોસિએટેડ પ્રેસ દ્વારા
બિનસત્તાવાર ગણતરીમાં આ જાણવા મળ્યું હતું. જો કે હજુ હજારો એબસન્ટી વોટ પડવાની
શક્યતા હોવાથી ચૂંટણીના અંતિમ પરિણામ અંગેનું સસ્પેન્સ આવતા અઠવાડિયા સુધી
ચાલશે એમ લાગે છે.</p>

<p><head>અંતિમ રીકાઉન્ટીંગમાં બુશની ૩૨૭ મતોથી
સરસાઇ: ગોર પુન: મતગણતરી માગશે:ટપાલ મતોને કારણે પરિણામ ૧૭મી
સુધી લંબાશે</head></p>

<p>અગાઉની ગણતરીમાં ૨૨૫ મતોનો તફાવત આવ્યા બાદ
કાઉન્ટી વાર અંતિમ ગણતરીમાં બુશની સરસાઇ સહેજ વધી હતી. ફ્લોરિડાના વિદેશમંત્રી
કેથરીન હેરીસે જાહેરાત કરી હતી કે ૬૭માંથી ૫૩ કાઉન્ટીમાં અંતિમ ગણતરીને અંતે બંને
હરીફો વચ્ચેનું અંતર ૧૭૮૪ હતું, જેમાં ગોરના ૨૯,૦૭,૮૭૭ પોપ્યુલર વોટ્સની સામે
બુશને ૨૯,૦૯,૬૬૧ મતો મળ્યા હતા. ફ્લોરિડામાં આશરે ૬૦ લાખ મતો પડ્યા હતા.
મંગળવારે પ્રથમ ગણતરીમાં બુશ ગોર કરતા ૧૭૮૪ મતો આગળ હતા.</p>

<p>જો કે, તમામ ૬૭ કાઉન્ટીમાંથી એપીના આંકડા
લઇએ તો અલ ગોરના ૨૯,૦૯,૮૭૧ મતોની સામે બુશને ૨૯,૧૦,૧૯૮ મતો મળ્યા છે. હેરીસે
જણાવ્યું હતું કે, તમામ કાઉન્ટીમાંના મતો ગણાઇ ગયા છે એવું રાજ્ય દ્વારા પ્રમાણિત
કરવાનું હોવાથી મંગળવાર થઇ જશે અને ટપાલના મતો મેળવવાના હોવાથી ૧૭મી નવેમ્બર
સુધી આ ગણતરી ચાલશે.</p>

<p>અમેરિકાના ઇતિહાસમાં ચોંકાવનારા આ મતદાનમાં
ગોરે ૨૬૦ અને બુશે ૨૪૬ ઇલેક્ટોરલ મતો મેળવ્યા છે. આગામી પ્રમુખ કોણ બનશે એ
ફ્લોરિડાના મતો નક્કી કરશે.</p>

<p>બુશ ગોર કરતા એક ટકાથી પણ ઓછા મતે આગળ
હોવાથી આપમેળે જ પુન: મતગણતરી કરાવવામા ંઆવી હતી. પ્રત્યેક કાઉન્ટી તેનું
પરિણામ તાલાહસ્સીને જણાવે છે જ્યાં તેનું કમ્પાઇલેશન અને પ્રમાણિકરણ થાય છે.</p>

<p>ગોર કેમ્પે મેન્યુઅલ રીકાઉન્ટની વિનંતી કરતા
પામ બીચ કાઉન્ટી આવતીકાલથી ત્રણ પ્રાંતોમાં હેન્ડ કાઉન્ટ માટે સંમત થઇ હતી. આ ઉપરાંત
બ્રોવર્ડ કાઉન્ટીમાં પણ મેન્યુઅલ કાઉન્ટીની માગણી પર વિચારણા કરવા બોર્ડ મળવાનું હતું.
દરમિયાન, ફેડરલ કોર્ટમાં પરિણામોને પડકારતા આઠ કાનૂની દાવાઓ દાખલ કરવામાં
આવ્યા હતા, જેમાં પામબીચમાં બે અને તાલાહસ્સીમાં બેનો સમાવેશ થાય છે.</p>

<p>મંગળવારે અને બુધવારે મતદાનમાં અનિયમિતતાઓના
આક્શેપો થયા હતા, જેમાં મતપત્રકો ગુમ થવાનો, દ્વિધાજનક મતપત્રકો હોવાનો,
ટેબ્યુલેશનમાં સમસ્યા હોવાનો સમાવેશ થાય છે.</p>

<p>રીફોર્મ પાર્ટીના બુચાનને જણાવ્યું હતું કે,
મારી ધારણા એવી છે કે મેં કદાચ પામબીચમાં એવા મતો મેળવ્યા છે જે મારા નથી.
અને આ મને સારું નથી લાગતું. ગોરના રોષે ભરાયેલા ટેકેદારોએ આજે ચૂંટણી
કચેરીની સામે વિરોધ કર્યો હતો.</p>




<p><head>બાંગ્લાદેશના છ વિકેટે ૨૩૯ રન</head></p>

<p><head>ભારત સામેની એકમાત્ર ટેસ્ટમાં બાંગ્લાદેશની
સારી શરૂઆત</head></p>

<p>ઢાકા, તા. ૧૦</p>

<p>મિડલ ઓર્ડર બેટસમેન હબીબુલ બાશરના ૭૧ અને
અનુભવી અમીનુલ ઈસ્લામના અણનમ ૭૦ રનની મદદથી બાંગ્લાદેશ પોતાની પ્રથમ ટેસ્ટમાં ભારતના
નબળા બોલીંગ આક્રમણ સામે રમવાનો ફાયદો ઉઠાવી પ્રથમ દિવસની રમતના અંતે ૬ વિકેટે ૨૩૯
રનનો સંતોષજનક જુમલો મૂક્યો હતો.</p>

<p>બંનેની અડધી સદીઓના લીધે જ
શરૂઆતના સત્રમાં જ બે વિકેટ ઝડપવામાં સફળ રહેલા ભારતીય બોલરોને પછી આખા દિવસમાં
માત્ર ચાર જ વિકેટ મળતા તે નિરાશ થયા હતા. ટેસ્ટ ક્રિકેટ રમતા દસમા દેશ બન્યાના દરજ્જાની
ઉજવણી કરતાં બાંગ્લાદેશે હબીબુલ અને અમીનુલના સુંદર દેખાવથી સારા ભાવિના સંકેતો
આપ્યા હતા.</p>

<p>આ પ્રસંગે વડાપ્રધાન શેખ હસીનાએ હાજરી
આપી હતી. ખેલાડીઓના દરેક રને સ્ટેડિયમ ચિચિયારીઓથી ગુંજી ઊઠતું હતું. ઝાહીરખાને
મેહરાબ હુસૈન (૪)ને વિકેટકીપર સબા કરીમના હાથમાં ઝીલાવતા બાશર દાવમાં આવ્યો હતો.
છેલ્લી ઘડીએ ટીમમાં સમાયેલા બાશરે પોતાની પસંદગીને સાર્થક કરી બતાવી હતી. મહિનાઓ
બાદ ટીમમાં પાછા ફરેલા શ્રીનાથની બોલીંગમાં ખાસ ડંખ જણાતો ન હતો. તે પીચ પાસેથી
ભાગ્યે જ કોઈ મદદ મેળવી શકતા દિવસના અંતે વિકેટવિહોણો રહ્યો હતો.</p>

<p>બાંગ્લાદેશનો ઓપનર શહરીયાર હુસૈન (૧૨)
સુનીલ જોશીની ઓવરમાં સ્લિમાં ગાંગુલીના હાથમાં ઝીલાઈ ગયો હતો. ઈસ્લામ સાથે ત્રીજી
વિકેટની ૬૬ રનની ભાગીદારી નોંધાવ્યા બાદ બાશર ઝાહીરખાનને શોટ મારવાના
પ્રયાસમાં સ્લિપમાં ગાંગુલીના હાથમાં ઝીલાઈ ગયો હતો. તેના ગયા બાદ ઈસ્લામે ઈનિંગને
આગળ ધપાવવાની જવાબદારી ઉપાડી લીધી હતી. ભૂતપૂર્વ કેપ્ટન અમીનુલે શ્રીાથને
હૂક મારતા બાંગ્લાદેશે ૨૦૦ રન પૂરા કર્યા હતા. ભારત તરફથી ડાબોડી સ્પિનર સુનીલ જોશી
૬૯ રનમાં ૩ વિકેટ ઝડપી સૌથી સફળ રહ્યો હતો. જ્યારે ઝાહીરે ૩૬ રનમાં ૨ વિકેટ અને
અગરકરે એક વિકેટ ઝડપી હતી.</p>

<p>સ્કોરબોર્ડ</p>

<p>બાંગ્લાદેશ પ્રથમદાવ</p>

<p>એસ. હુસૈન કો. ગાંગુલી બો. જોશી ૧૨</p>

<p>એમ. હુસૈન કો. કરીમ બો. ખાન ૦૪</p>

<p>એચ. બાશર કો. ગાંગુલી બો. ખાન ૭૧</p>

<p>એ. ઈસ્લામ અણનમ ૭૦</p>

<p>અક્રમખાન કો. દ્રવિડ બો. જોશી ૩૫</p>

<p>શહરીયાર લેગબિફોર બો. અગરકર ૧૨</p>

<p>એન. રહેમાન કો. દાસ બો. જોશી ૧૫</p>

<p>કે. મસુદ અણનમ ૦૩</p>

<p>વધારાના (બાય ૧૨, લેગબાય-૩,નોબોલ-૨)
૧૭</p>

<p>કુલ ૯૦ ઓવરમાં ૬ વિકેટે ૨૩૯</p>

<p>વિકેટ પડવાનો ક્રમ : ૧/૧૦, ૨/૪૪, ૩/૧૧૦,
૪/૧૭૫, ૫/૧૯૬, ૬/૨૩૧</p>

<p>બોલીંગ : શ્રીનાથ ૧૮-૬-૩૩-૦, ઝહીરખાન ૧૪-૪-૩૬-૨,
અગરકર ૧૭-૬-૪૬-૧, જોશી ૨૬-૪-૬૯-૩, કાર્તિક ૧૩-૫-૨૩-૦, સચિન તેંડુલકર ૫-૨-૧૭-૦</p>




<p><head>હવે વધુ ટેક્સ ઘટાડો શક્ય નથી: યશવન્ત
સિન્હા</head></p>

<p>નવી દિલ્હી, તા. ૧૦</p>

<p>નાણાંપ્રધાન યશવન્ત સિન્હાએ આજે પોતાનું
રક્શણ કરવા એન્ટિ ડમ્પિંગ નિયમનોનો લાભ ન લેવા બદલ ઉદ્યોગજગતની આકરી ટીકા કરી હતી
અને ટેક્સ-જીડીપી રેશિયોમાં ઘટાડાથી સરકારી તિજોરી પર રૂ. ૭૫,૦૦૦ કરોડનો બોજો
પડ્યો હોવાથી વેરામાં વધુ કપાતની શક્યતા નકારી કાઢી હતી.</p>

<p><head>એન્ટિ ડમ્પિંગ નિયમનોનો લાભ ન લેવા બદલ
ઉદ્યોગજગતની કરેલી આકરી ટીકા</head></p>

<p>હવે વેરામાં વધુ ઘટાડો કરવો શક્ય નહિ બને
કારણ કે તેનાથી સ્રોતોમાં ઘટાડો થશે એમ સિન્હાએ કહ્યું હતું. ૧૯૮૯માં ટેક્સ-જીડીપી
રેશિયો ૧૧ ટકા હતો જે હવે ઘટીને ૮ ટકા થવાથી આવકમાં કુલ રૂ. ૭૫,૦૦૦ કરોડનો
ઘટાડો થયો છે.</p>

<p>'ફડકી'ની ૯૫મી વાર્ષિક સામાન્ય સભાને
સંબોધતા નાણાં પ્રધાને કહ્યું હતું કે, ભારતમાં અગાઉથી જ ઊંચા ટેરિફ દરો
છે, જેમાં કેટલીક પ્રોડક્ટ્સ પર તો ૬૭ ટકા જટલી ટેરિફ છે. આમાં ૧૬ ટકા યુનિફાઇડ
સેનવેટ, આયાત પર ૪ ટકા વધારાની જકાત, ૩૫ ટકા પીક રેટ ડ્યુટી અને ૧૦ ટકાનો
સમાવેશ થાય છે.</p>

<p>સિન્હાએ ઉપસ્થિત ઉદ્યોગપતિઓને આગામી વર્ષમાં
ટેક્સ બાબતમાં મોટી રાહતની આશા રાખવા કે માગણી ન કરવા જણાવ્યુું હતું. આ શક્ય નથી
એમ તેમણે કહ્યું હતું. તેમણે ઉમેર્યું હતું કે છેલ્લાં ત્રણ અંદાજપત્રોમાં સરકારે
ટેક્સમાં રાહતો આપેલી છે.</p>

<p>જો કે ચીન દ્વારા મોટા પાયે પ્રોડક્ટ્સમાં થઇ
રહેલા ડમ્પિંગ સામે એન્ટિ ડમ્પિંગ કરવાની હાકલ કરતા તેમણે કહ્યું હતું કે, તમારે
એન્ટિ ડમ્પિંગ નિયમોનો લાભ લેવો જોઇએ.</p>




<p><head>ભારતીય આઇટી વ્યાવસાયિકો અને રોકાણને
આકર્ષવા બ્રિટનની આતુરતા</head></p>

<p>લંડન, તા. ૧૦</p>

<p>બ્રિટને વિશ્વકક્શના ઇન્ફર્મેશન ટેકનોલોજી
વ્યાવસાયિકો અન આઇટી સેક્ટરમાં રોકાણ માટે સર્વગ્રાહી યોજના ઘડી કાઢી છે એમ
બ્રિટનના ઇ-પ્રધાન પેટ્રીશીયા હેવીટે જણાવ્યું હતું.</p>

<p><head>આ માટે બ્રિટન સરકારે ઘડેલી સર્વગ્રાહી
યોજના: આઇટી વ્યાવસાયિકો માટેની વર્ક પરમીટ વિક્રમજનક ૮ દિવસમાં મંજૂર</head></p>

<p>અહિં ગઇકાલે તેમણે સંવાદદાતાઓને જણાવ્યું
હતું કે, 'ઇન્વેસ્ટ યુ.કે. દ્વારા ઘડી કાઢવામાં આવેલા પેકેજ હેઠળ આઇટી વ્યાવસાયિકો
માટેની વર્ક પરમીટ વિક્રમજનક આઠ દિવસમાં ક્લીયર કરવામાં આવી છે અને આઇટી કંપનીઓને
રોકાણ માટે થર્ડ પાર્ટી કેપિટલ માટે મંજૂરી આપવામાં આવી છે.' કલકત્તા, દિલ્હી,
બેંગલોર અને અમદાવાદની એક સપ્તાહની મુલાકાત લઇને પાછા ફરેલા હેવીટે જણાવ્યું હતું
કે, એ મારી અત્યંત સફળ મુલાકાત હતી. મારી સાથે આવેલ બ્રિટનનું વ્યાપારી
પ્રતિનિધીમંડળ વિશ્વકક્શાના આઇટી વ્યાવસાયિકો સાથેની ભારતીય આઇટી ઉદ્યોગની શક્તિથી
પ્રભાવિત થઇ ગયું હતું એમ તેમણે ઉમેર્યું હતું. હેવીટે જણાવ્યું હતું કે, આપણે
ભારત-બ્રિટન સંબંધોમાં ઉત્તેજનાત્મક નવા તબક્કાના પ્રારંભમાં છીએ અને આપણે બંને
પક્શોને લાભ થાય એવા સંબંધોમાં રસ ધરાવીએ છીએ.</p>

<p>''ભારત ઝડપથી ખૂબ જ ઝડપથી વિશ્વમાં જ્ઞાન
આધારિત પ્રગતિ કરતા દેશોમાંનો એક છે અને બ્રિટન બહુ સંસ્કૃતિ અર્થતંત્ર
ધરાવતો દેશ છે.ધ તેમણે ઉમેર્યું હતું કે, 'ભારત માને છે કે બ્રિટન કુદરતી
ભાગીદાર છે અને તે યુરોપિય સંઘમાં આંતરિક રોકાણ માટેના સ્થાન તરીકે માહિતી
ટેકનોલોજીનો ઉપયોગ કરી શકે છે.' અત્યાર સુધી ૭૦ ભારતીય આઇટી કંપનીઓએ
બ્રિટનમાં રોકાણ કરેલું છે અને વધુ કંપનીઓએ રોકાણ કરવા રસ દર્શાવ્યો છે. આવી જ
રીતે ભારતમાં બ્રિટીશ રોકાણ પણ વધી રહ્યું છે એમ તેમણે કહ્યું હતું.</p>




<p><head>ભારત- સિંગાપોર વચ્ચે આર્થિક સહયોગ રચાશે</head></p>

<p>સિંગાપોર, તા. ૧૦</p>

<p>ભારત અને સિંગાપોરે આજે આર્થિક સહકાર ઉપર
એક કાર્યદળ રચવા માટેની સમજુતીનાં એક દસ્તાવેજ પર હસ્તાક્શરો કર્યાં હતાં. આ કાર્યદળ
બન્ને રાષ્ટ્રો વચ્ચે એક ફ્રી ટ્રેડ એરિયા (એફ.ટી.એ.)ની સ્થાપના અંગે શક્યતાઓ તપાસશે
અને ભારતની સુધારણા પ્રક્રિયામાં સિંગાપોર કઈ રીતે એક સહયોગી બની શકે તેનાં
વિકલ્પો ચકાસશે.</p>

<p><head>રાષ્ટ્રપતિ કે.આર. નારાયણનની સિંગાપોર
મુલાકાત દરમ્યાન કરાયેલી જાહેરાત</head></p>

<p>આ કાર્યદળ બન્ને રાષ્ટ્રો વચ્ચેનાં આર્થિક
સંબંધોને બહોળાં બનાવવા અને વધુ રોકાણો બંન્ને દેશો દ્વારા કરાય તે ઉપર
કાર્ય કરશે. આ ઉપરાંત કાર્યદળ ભારત સિંગાપોર વ્યાપારનાં વિસ્તરણ, આર્થિક અને
નાણાંકીય ક્શેત્રમાં આપસી સહકાર બાબતે આવતા દસ વર્ષો સુધી પ્રસ્તાવો આપશે.</p>

<p>સંસ્કૃતિ અને પર્યટનમંત્રી અનંતકુમાર અને
સિંગાપોરનાં વ્યાપાર અને ઉદ્યોગમંત્રી જ્યોર્જ થીઓ દ્વારા હસ્તાક્શર કરાયેલ આ
સમજુતીનો કાર્યકાળ ત્રણ વર્ષ સુધીનો રહેશે. આ સમજુતી પર રાષ્ટ્રપતિ શ્રી કે.આર.
નારાયણન અને સિંગાપોરનાં રાષ્ટ્રપ્રમુખ એસ.આર. નાથનની હાજરીમાં હસ્તાક્શરો કરાયાં
હતાં. બન્ને રાષ્ટ્રો વચ્ચેનાં આપસી અને આર્થિક સંબંધોમાં વિકાસ લાવવા બાબતે
આ કાર્યદળ મહત્વનું પરિબળ પુરવાર થશે એમ સિંગાપોરના વ્યાપાર અને ઉદ્યોગ મંત્રાલયનાં
નાયબ સચિવ હેન્ગસ્વી કીટે કહ્યું હતું. આ ઉપરાંત એવા કેટલાંક ક્શેત્રો છે જેમાં બન્ને
રાષ્ટ્રો આર્થિક સ્પર્ધામાં વધારો લાવીને જનતાનાં જીવન સ્તરમાં સુધારો
લાવી શકશે એમ તેમણે ઉમેર્યું હતું.</p>




<p><head>સરકારી ઓફિસોમાં ભ્રષ્ટાચારની બાબતમાં
હૈદરાબાદ મોખરે</head></p>

<p><head>પાંચ શહેરોમાં એક્ઝિટ પૉલ : ૨૫૭૬માંથી
૨૦ ટકાએ ભ્રષ્ટાચારની ફરિયાદ કરી</head></p>

<p>નવીદિલ્હી, તા. ૧૦</p>

<p>સરકારી ખાતાંઓની ઓફિસોમાં જનારાઓમાંથી
અર્ધા ઉપરાંત લોકોને લાંચ આપવી પડતી હોવાનો અનુભવ થતો હોય છે. બે
તૃતીયાંશ લોકોને ખરેખર ભ્રષ્ટાચાર છે એમ લાગે છે. જ્યારે એક તૃતીયાંશ મુલાકાતીઓ
ભ્રષ્ટાચારની અતિશયોક્તિ થતી હોય એમ માને છે.</p>

<p>પુના, દિલ્હી, લખનૌ, હૈદરાબાદ અને ચેન્નઈ એમ
પાંચ શહેરોમાં તકેદારી જાગૃતિ સપ્તાહના ભાગરૂપે મિડિયા અભ્યાસ કેન્દ્ર દ્વારા એક્ઝિટ પૉલ
હાથ ધરાયો તેનું આ પરિણામ છે. આ પ્રકારનું આ પ્રથમ જ સર્વેક્શણ હતું અને પ્રત્યેક
શહેરના છ જાહેર સેવા ખાતાઓમાં આ અભ્યાસ હાથ ધરાયો હતો. આ ખાતાંઓની
મુલાકાતે આવેલા કુલ ૨૫૭૬ મુલાકાતીઓ બહાર નીકળ્યા ત્યારે તેમના ઇન્ટરવ્યૂ લેવાયા
હતા. નવાઈ લાગે તેવી વાત છે કે તેમાંથી માત્ર ૨૦ ટકા લોકોએ જ ભ્રષ્ટાચાર હોવાની
ફરિયાદ કરી જ્યારે બાકીના ૮૦ ટકા લોકોએ મૌન રહેવાનું પસંદ કર્યું.</p>

<p>પાંચ શહેરોમાંથી હૈદરાબાદ અન્ય શહેરોની
સરખામણીમાં વધુ ભ્રષ્ટ શહેર તરીકે ઉભરી આવ્યું છે. લખનૌ અને હૈદરાબાદમાં ૬૦ ટકા
મુલાકાતીઓએ જણાવ્યું હતું કે તેઓએ લાંચ આપી હતી. પુનામાં ૫૦ ટકા અને ચેન્નાઇમાં
૩૮ ટકા મુલાકાતીઓએ લાંચ આપવી પડી હોવાનું જણાવ્યું હતું. ચેન્નાઈના ૬૦ ટકા
નાગરીકોએ જણાવ્યું હતું કે, રાજકારણીઓ ખૂબ ભ્રષ્ટાચારી છે. મુલાકાત લેવામાં આવી
તેમાંના ૪૨ ટકા લોકોએ જણાવ્યું હતું કે, જાહેર સેવાની ઓફિસોમાં વચેટિયાઓ
હોય છે. લખનૌ અને હૈદરાબાદમાં લોકોને આ વચેટિયાઓથી ખૂબ પરેશાની ભોગવવી
પડતી હોય છે એમ આ અભ્યાસમાં જણાવાયું છે.</p>

<p>બીજું એક તારણ એ પણ છે કે આ પાંચેય
શહેરોમાં વેપારીઓ અને સ્વરોજગાર સંભાળતા લોકો બીજાઓ કરતાં વધુ લાંચ આપે છે.
આ શહેરોમાંના ૪૦ ટકાથી વધુ સરકારી કર્મચારીઓ એક યા બીજા તબક્કે લાંચ આપી ચૂક્યા
છે તે ખરેખર આશ્ચર્યજનક છે.</p>




<p><head>નિયમો વિરૂધ્ધ થયેલી નિમણૂક માટે દાવો
કરી શકાય નહિ</head></p>

<p>નવી દિલ્હી, તા. ૧૦</p>

<p>સુપ્રિમ કોર્ટે સંખ્યાબંધ શિક્શકોની
નિમણૂંકને રદ કરતા ગુવાહાટી હાઈકોર્ટના હુકમને માન્ય રાખી ચૂકાદો આપ્યો હતો કે,
કાયદેસરના નિયમોની વિરુધ્ધ જઈ કોઈપણ નિમણૂંક કરાઈ હોય તો તેવી રીતે નિયુક્ત
થયેલી વ્યકિતને તે હોદ્દા માટે દાવો કરવાનો કોઈ અધિકાર મળી જતો નથી.</p>

<p><head>સુપ્રીમ કોર્ટનો મહત્વનો ચુકાદો</head></p>

<p>હાઈકોર્ટના હુકમને પડકારતી સંખ્યાબંધ
અપીલોને રદ કરીને ન્યાયમૂર્તિ જી.બી. પટનાયક, ન્યાયમૂર્તિ એસ. રાજેન્દ્ર બાબુ અને
ન્યાયમૂર્તિ બી.એન. અગ્રવાલની ત્રણ ન્યાયાધીશોની બેન્ચે ઉપર મુજબ રૂલીંગ આવ્યું
હતું.</p>

<p>ન્યાયમૂર્તિ પટનાયકે અગાઉના ચુકાદાને ટાંકીને
જણાવ્યું હતું કે આ કોર્ટે એમ ઠરાવ્યું છે કે, શરૂઆતની નિમણૂંકો કાયદેસર નિયમોની
વિરુદ્ધ જઈને કરવામાં આવેલી હોવાથી ત્યાર પછી કરાયેલી નિમણૂંકોને પણ સંપૂર્ણ
અનધિકૃત ગણાય અને તેને કારણે નિમણૂંક મેળવનારને કોઈ અધિકાર મળતો નથી.
૧૯૯૦માં સરકારે તે વખતના મુખ્યપ્રધાનના હુકમને આધારે પ્રાથમિક શાળાઓમાં
મોટી સંખ્યામાં મદદનીશ શિક્શકોની નિમણૂંકો કરી હતી. જગાઓ ખાલી નહીં હોવા છતાં
અને નિયત કાર્યપધ્ધતિ અનુસર્યા વિના આ નિમણૂંકો કરાઈ હોવાને કારણે રાજ્ય
સરકારે પાછળથી શો કૉઝ નોટિસો આપીને આ નિમણૂંકો રદ કરી હતી.</p>

<p>ત્યારબાદ શિક્શકોએ તેમની નોકરી છૂટી ગઈ તે
સામે હાઈકોર્ટમાં પડકાર ફેંકયો હતો અને એક માત્ર ન્યાયાધીશે સંબંધિત
સિધ્ધાન્ત પર ધ્યાન કેન્દ્રિત કર્યા વગર અસ્પષ્ટ અને ગૂઢ હુક ફરમાવી રાજ્ય સરકારને
તેઓની પુન: નિમણૂંક કરવાનો આદશ આપ્યો હતો.</p>

<p>તેને રાજ્ય સરકારે ડિવિઝન બેન્ચ સમક્શ પડકારતાં
હાઈકોર્ટે જુદા જુદા જિલ્લાઓમાં શિક્શકોની નિમણૂંક માટે હાથ ધરયેલી જુદી
જુદી ગેરરીતિઓને લક્શમાં લઈ સમગ્ર બાબતની તપાસ હાથ ધરવા હુકમ કર્યો હતો.
તપાસ સમિતિએ તેના અહેવાલમાં જણાવ્યું હતું કે, શિક્શકોની નિમણૂંકો કાયદેસરના
નિયમો અનુસાર કરાઈ નથી, અરજીઓ કરવા જણાવતી કોઈ જાહેરખબર પ્રસિદ્ધ કરાઈ નથી કોઈ
પસંદગી સમિતિની રચના કરાઈ નથી તેમજ કોઈ ઈન્ટરવ્યૂ પણ લેવાયા નથી.</p>




<p><head>ભ્રષ્ટાચારીઓની સજા નહિ ઘટાડવા સુપ્રીમનો આદેશ</head></p>

<p>નવી દિલ્હી, તા.૧૦</p>

<p>આજે સુપ્રીમ કોર્ટે એક મહત્વપૂર્ણ ચૂકાદામાં
હાઇકોર્ટોને ભ્રષ્ટાચારના કેસોમાં ફરમાવાયેલ સજાઓ નહીં ઘટાડવા ચેતવણી આપી હતી અને
કહ્યું હતું કે આનાથી ખોટી અસરો પડશે તથા આપણા સ્વાભાવિક જીવનમાં ભ્રષ્ટાચારને
પ્રોત્સાહન આપવા જેવું થશે.</p>

<p>આ ચેતવણી જસ્ટીસ કે. થોમસ અને જસ્ટીસ આર.પી.
સેઠીની બનેલ એક ડીવીઝન બેન્ચે સંભળાવી હતી અને બોમ્બે હાઇકોર્ટ દ્વારા એક એન્જીનીયર
વિરુદ્ધ અપાયેલ ચૂકાદા સામેની એન્જીનીયરની અપીલને ઠુકરાવી દીધી હતી.</p>

<p>હાઈકોર્ટે અપીલ કરનાર એન્જીનીયરને દોષિત
ઠેરવતો ચૂકાદો જેમનો તેમ રાખ્યો હતો પણ એક વર્ષની સખ્ત કેદની સજાને ઘટાડીને એક
દિવસની કેદની સજા કરી હતી અને દંડની રકમ રૂા. ૪૫,૦૦૦માંથી ૧૦૦૦ની કરી હતી. આ સજા
ટ્રાયલ કોર્ટે આપી હતી. સુપ્રીમ કોર્ટે નીચલી ટ્રાયલ અદાલતનો ચૂકાદો અને સજા ફરીથી
અમલી બનાવતા ચેતવણી સંભળાવી હતી. અપીલ કરનાર એન્જીનીયર જેસી ભાસ્કરરાવ પર ભ્રષ્ટાચાર
નિવારણ ધારા હેઠળનાં એકશન ૫(૨) હેઠળ કેસ ચાલવાયો હતો. આ કેસ સરકારી નોકર
હોવા છતાં સાંચ લેવાનાં ગુનાસર નોંધાયો હતો. સુપ્રીમ કોર્ટે તેના ચૂકાદામાં
કહ્યું હતું કે ભ્રષ્ટાચારનાં દાનવનો સમાજમાંથી નાશ કરવા માટે ગુનેગારોને સખતમાં સખત
સજાઓ અપાવી જોઈએ અને આ સજાઓમાં કોઈપણ સંજોગોમાં ઘટાડો કરાવો જોઈએ નહીં.</p>




<p><head>ઠાસરા નજીક સેવાલીયામાં કોમી રમખાણ: છને
ઇજા </head></p>

<p>આણંદ,તા.૧૦</p>

<p>ઠાસરા નજીકના સેવાલીયામાં આજે સાંજે
હિંદુ-મુસ્લીમ વચ્ચેના ઝગડામાં વ્યક્તિઓને ઇજાઓ થઇ છે. પ્રાપ્ત વિગતો અનુસાર ભુપતભાઇ
પરમાર નામની એક વ્યક્તિ છકડો લઇને આવતી હતી ત્યારે હમીદ ફારૂકમીયાંની રીક્શા સાથે
અથડાયા હતા. આથી ભુપતભાઇએ તેમને ઠપકો આપતા ઝઘડો થયો હતો અંતે સમાધાન
થયું હતું.</p>

<p><head>ભારેલા અગ્નિ જેવી સ્થિતિ</head></p>

<p>આ બનાવને કારણે ગામમાં ઉત્તેજના ફેલાઇ હતી.
બાદમાં સાંજના સમયે ફારૂકમીયાં તથા હમીદે અને બીજાઓએ ફરી ઝગડો કરી સોડાબોટલના
હુમલો કર્યો હતો. આ હુમલામાં છ વ્યક્તિઓને ઇજાઓ થતા હોસ્પીટલમાં દાખલ કરાયા
હતા. આ હુમલામાં ભુપતભાઇ શંકરભાઇ, બળવંતભાઇ શનાભાઇ, રણજીતભાઇ ડાહ્યાભાઇ, ઉદેસીંગ
શનાભાઇ, યોગેશ શનાભાઇ રમેશભાઇને ઇજાઓ થઇ હતી. </p>




<p><head>હડતાળનો માર્ગ સાધનારા યુનિયનોની વડી
અદાલત દ્વારા સખ્ત ઝાટકણી</head></p>

<p><head>''કામ નહિ તો પગાર નહીં''ના સુપ્રીમ કોર્ટના
સિદ્ધાંતને વળગી રહ્યા: બીપીસીએલના કર્મચારીઓને હડતાળના સમય વખતનો અડધો
પગાર આપવાનો નિર્ણય રદ કર્યો</head></p>

<p>મુંબઇ,તા.૧૦</p>

<p>પગાર વધારા અથવા તો બોનસ વધારા
માટે લાંબી તેમ જ બેમુદ્તની હડતાળ પાડવાનો માર્ગ અપનાવનારા ટ્રેડ યુનિયનોના વલણની,
મુંબઇની વડી અદાલતે તેના ધારદાર ચુદાકામાં ઝાટકણી કાઢતા જણાવ્યું છે કે
રાષ્ટ્રના અર્થતંત્ર પર એની પ્રતિકુળ અસર પડે છે. હડતાળનો માર્ગ અપનાવનારા ટ્રેડ
યુનિયનોની જોરદાર ટીકા કરતાં ન્યાયમૂર્તિ આર.જે.કોચ્ચરે કેન્દ્રિય ટ્રિબ્યુનલનો ૧૯૮૨ની
૧૪મી જાન્યુઆરીથી ૧૭મી જુનનાં સમયગાળામાં હડતાળ પર ઉતરેલાં ભારત પેટ્રોલિયમ
કોર્પોરેશન લિ. (બીપીસીએલ)ના કર્મચારીઓને અડધો પગાર આપવાના આદેશને રદ
કર્યો હતો.</p>

<p>સુપ્રીમ કોર્ટે રજૂ કરેલા ''કામ નહીં તો પગાર
નહીં''ના સિદ્ધાંતને વળગી રહેતાં હાઇકોર્ટે એવું મંતવ્ય રજૂ કર્યું હતું કે સ્વ. દત્તા
સામંત દ્વારા પડાયેલી આ હડતાળને યોગ્ય ઠેરવી શકાય નહીં.</p>

<p>તેમણે કહ્યું હતું કે ''મારા મતે
પગારવધારો અને બોનસ જેવી આર્થિક માગણીઓ માટે પડાયેલી લાંબી અને બેમુદત
હડતાળોને કોઇ રીતે યોગ્ય ઠેરવી શકાય નહીં. કામનો હક્ક માનનારાઓને હડતાળ પાડવાનો
કોઇ અધિકાર નથી. આ હડતાળથી અને કોઇ પણ હડતાળથી દેશને લાખો રૂપિયાનું
નુકસાન થાય છે.''</p>

<p>''લાંબી હડતાળ કામગારો માટે આત્મઘાતી છે. જે
યુનિયનો આવી હડતાળોમાં કશું જ ગુમાવવાનું હોતું નથી. બીપીસીએલની રિફાઇનરીની
હડતાળ છ મહિના ચાલી હતી અને તેનાથી રાધણગેસ સહિત પેટ્રોલિયમ ઉત્પાદનોની
પહેલેથી જ ચાલતી તંગીમાં ગંભીર વધારો થયો હતો.'' તેમણે જાણવા માગ્યું હતું
કે વપરાશકર્તાઓ અને સમાજને પોતાના કોઇ ગુના વગર ભોગવવી પડેલી તકલીફો માટે
કોને જવાબદાર ઠેરવવા?</p>

<p>તેમણે એવો મત વ્યકત કર્યો હતો કે
જાહેરક્શેત્રની બધી કંપનીઓમાં, આવશ્યક સ્થાનિક સત્તામાં, જાહેર સેવા ક્શેત્રમાં અને
હોસ્પિટલોમાં પડાતી બધી જ હડતાળોને કાયદા દ્વારા પ્રતિબંધીત કરવાનો સમય
આવી પહોંચ્યો છે.</p>

<p>તેમણે નિરીક્શણ નોંધ્યું હતું કે સંગઠીત
કર્મચારીઓએ બિનસંગઠીત વિશાળ વર્ગ માટે કોઇ દિવસ બલિદાન આપ્યું નથી પરંતુ પોતાના
પગાર, બોનસ અને ભથ્થાઓ માટે સમાજ અને વપરાશકર્તાઓને બેહાલ કર્યા છે. સમાજના
સુરક્શિત વર્ગ પાસેથી કોઇપણ દેશ દ્વારા લાંબી હડતાળો સહી ન લેવાય, આવી હડતાળો
સમાજને પંગુ બનાવે છે. આવી હડતાળોને લોખંડી હાથે દાબી દેવી જોઇએ. તેમણે એમ પણ
કહ્યું હતું કે આખો વર્ષ તગડો પગાર મેળવતો વર્ગ વાર્ષિક ધોરણે બોનસ માગવા
હડતાળ પાડે તેને કેવી રીતે યોગ્ય ઠરાવી શકાય?</p>

<p>બંધારણના ચોથા ચપ્ટરમાં આપેલા માર્ગદર્શક
સિદ્ધાંતોને વરેલી સમાજવાદી સરકારે સમાજના સંગઠીત વર્ગ (યુનિયનો)ની દાદાગીરી ચલાવી
ન જ લેવી જોઇએ એમ તેમણે કહ્યું હતું.</p>

<p>પોતાના ૪૭ પાનાના આદેશમાં તેમણે એવું પણ
મંતવ્ય વ્યકત કર્યું હતું કે સમાજવાદી સરકારે કાર્યક્શમ અને ઝડપી નિર્ણયિકા તંત્ર પુરું
પાડવાની જરૂર છે. જે કામદારોના ઝઘડા અને ફરિયાદોનું ઝડપથી નિરાકરણ લાવી શકે.</p>

<p>તેઓ બીપીસીએલ વકીલ જે.પી.કામા અને બિરેન્દ્ર
સરાફ સાથે એ વાતે સહમત થયા હતા કે છ મહિના લાંબી રિફાઇનરીની હડતાળને યોગ્ય ઠેરવી
ન શકાય. અને તેમણે ઠરાવ્યું હતું કે કામદારોને આ ગેરકાયદે હડતાળનો પગાર ન મળવો
જોઇએ.</p>

<p>તેમણે નોંધ્યું હતું કે મેનેજમેન્ટ
સમાધાન કરવા તૈયાર હતું પરંતુ યુનિયને અગમ્ય કારણોસર પ્રસ્તાવ સ્વીકાર્યો
નહોતો.</p>

<p>ટ્રિબ્યુનલના આદેશને બીપીસીએલના મેનેજમેન્ટ
અને કર્મચારીઓના યુનિયને અલગ અલગ યાચિકાઓ દ્વારા હાઇકોર્ટમાં પડકાર્યો હતો. જોકે
હાઇકોર્ટે બીપીસીએલની યાચિકા દાખલ કરી હતી અને યુનિયનની યાચિકા ફગાવી દીધી
હતી.</p>

<p>યુનિયનના વકીલ ગડકરી અને એસ.એસ.પાકલેએ
એવી દલીલ કરી હતી કે મેનેજમેન્ટને નોટિસ ન પાઠવી એટલે હડતાળ ગેરકાયદે ઠરતી નથી
કારણ કે યુનિયનની બેઠકમાં બાણું ટકા કર્મચારીઓએ ગુપ્ત મતદાન દ્વારા પગાર
વધારો અને ૯૦૦માંના ૩૦૦ કર્મચારીઓને કાયમી કરવાના મુદ્દે બે મુદત હડતાળ પર
જવાને મંજૂરી આપી હતી.</p>




<p></p>




<p><head>જેમ્સ બોન્ડની ફિલ્મની આબેહુબ નકલવાળી
બ્રિટનના મિલેનીયમ ડોમની રૂા. ૨૫૦૦ કરોડના હીરાની ફલોપ લૂંટ</head></p>

<p><head>૨૦૦૦ના આ ફલોપવાળા વર્ષમાં પ્રમુખપદની
ચૂંટણી પછી સૌથી જબ્બર લૂંટની કડીબધ્ધ વાત</head></p>

<p>આ મિલેનીયમનું ૨૦૦૦ વર્ષ જાણે ફલોપ - વર્ષા
છે. મિલેનીયમના ઉત્સવ માટે બ્રિટનનાં ગ્રીનવીચ ગામે રૂા. ૧૦૦૦નું ડોમ (ગુંબજ)
બંધાયું છે તે આખું મનોરજનનું માળખું ફલોપ ગયું છે તે તોડી પાડવાનું છે.
તે મિલેનિયમ ડોમમાં રૂા. ૨૫૦૦ કરોડના અતિ દુર્લભ હીરા પ્રદર્શન માટે રાખેલા તેની
દિલધડક લૂંટ કરવાનો જગતનૌ સૌથી મોટા થનારી લૂંટની યોજના ફલોપ ગઇ છે.
આજકાલ આ ડોમમાં વિશ્વ સુંદરીની સ્પર્ધા ચાલી રહી છે. વિશ્વ સુંદરી ઉર્ફે વર્લ્ડ
બ્યુટીનો વેપલો સ્થાપનારા એરીક મોરલી ૮૦ વર્ષની વયે ફલોપ થઇને ઇશ્વરને મળવા ચાલ્યા
ગયા છે. આ વર્ષે મુંબઇમાં હીરાનું પ્રદર્શન ફલોપ ગયું છે. શારજાહમાં આપણા ક્રિકેટરો
શ્રીલંકા સામે ફલોપ ગયા છે. રૂા. ૧૦ કરોડને ખર્ચે વડા પ્રધાન અટલ બિહારી
વાજપેયીનું 'ઓપરેશન ઘૂંટણી' તેની પબ્લિસીટીમાં સફળ થયું છે. પણ તેમની ઘૂંટણ
અત્યારે ફલોપ છે. જોકે જગતનો સૌથી મોટો ફલોપ - ડ્રામાં અમેરિકન પ્રમુખની
ચૂંટણીમાં ફલોરીડામાં ભજવાઇ રહ્યો છે. આપણને ગરીબ દેશોને ચૂંટણીમાં ભ્રષ્ટાચાર
માટે ભાંડનારા દેશનો ભાંડો ફૂટી ગયો છે. ત્યાં ચૂંટણીમાં નાણાનો અને બેસ્ટ
પેયરનો જબ્બર ભ્રષ્ટાચાર થયો છે.</p>

<p>આજે વોલ સ્ટ્રીટ અને દલાલ સ્ટ્રીટ સરખામણીએ ફલોપ
છે. કિસમસની હીરાની ઘરાકીમાં આખુ જાપાન ફલોપ ગયું છે. જાપાનમાં 'અકાઇ' નામની
ઇલેકટ્રોનીકસ કંપની ૨ અબજ ડોલરનુ દેવાળું ફેંકીને ફલોપ ગઇ છે. ભારતીય ક્રિકેટર
મોહમ્મદ અઝહરૂદ્દીન અને સલમાનખાનનો ભારતીય ફિલ્મ નટીઓ સાથેનો પ્રણય ફલોપ જવામાં છે.
મિલેનીયમ ડોમમાં જો રૂા. ૨૫૦૦ કરોડના કિંમતી હીરાની લૂંટ સફળ થઇ હોત તો ત્યાંના
મેટ્રોપોલીટન પોલીસ ઓફિસરનાં કહેવા પ્રમાણે રેકોર્ડ લૂંટ બની જાત. ઘણાને શંકા જાય
છે કે ડિબિયર્સ રૂા. ૨૦૦ કરોડને ખર્ચે હીરાની પબ્લીસીટી કહે છે તેમાં બાર જણની ગેંગ
પાસે હીરાની નિષ્ફળ લૂંટ કરાવીને પબ્લીસીટી મેળવવાનો આ સ્ટંટ છે કે શું છે ?</p>

<p>બ્રિટનનાં લૂંટારૂઓએ ટ્રેનમાંથી જંગી રોકડ
ચોરવાની યોજના ૨૮ વર્ષ પહેલાં સફળ બનાવીને 'ધ ગ્રેટેસ્ટ ટ્રેન રોબરી'ની વાર્તા
અમર કરી છે. તે પછી હીથરો એરપોર્ટ ઉપર હીરાની લૂંટ એક વખત ૧૦ વર્ષ પહેલાં ફલોપ
ગયેલી. આ વખતે બાર જેટલા બ્રિટીશ ગેંગસ્ટરોની નજર ૨૦૩ કેરેટના 'મિલેનીયમ સ્ટાર'
તરીકે ઓળખાતા પિયરના ફળ - આકારનાં અતિ કિંમતી હીરા ઉપર હતી. ડેમોક્રેટીક
રિપબ્લિકન ઓફ કાંગાજેને (ZAIRE) 'ઝેઇર' તરીકે ઓળખવામાં આવે છે ત્યાંની ખાણમાંથી આ
હીરો મળી આવ્યો હતો.</p>

<p>જેમ્સ બોન્ડની ફિલ્મ 'ધ વર્લ્ડ ઇઝનોટ ઇનફ'
નામની સસ્પેન્સ ફિલ્મમાં સોફટ મારકયુ નામની હોલીવુડની નટી કામ કરે છે. તેણે
મિલેનીયમ ડોમમાં આ ૨૦૩ કેરેટના હીરાની આજુબાજુ બીજી ૧૧ બ્લુ ડાયમન્ડ ગોઠવેલા તે
લાખેણા પ્રદર્શનનું તેણે ઉદ્ઘાટન કર્યું હતું. જેમ્સ બોન્ડની આ ફિલ્મનું શૂંટીગ પણ આ
ડોમ ગુંબજના થયું હતું. હોલીવુડની ફિલ્મ નટીએ કહ્યું કે મારા પ્રેમીને મેં મારા
હાથથી આલીંગન આપ્યું તે કિંમતી આલીંગન પછી આ મિલેનીયમના હીરાનો સ્પર્શ માટે માટે
સૌથી મૂલ્યવાન સ્પર્શ છે.</p>

<p>ડિબિયર્સની માલિકીનો આ હીરો છે. થોડા વર્ષ
પહેલાં જ્યારે ડિ બિયર્સનાં મેનેજીંગ ડિરેકટર થાકી પાકીને તેની ઓફિસ બંધ કરતા
હતા ત્યારે તેની પાસે એક માણસ પોલીસ કર્યા વગરનો ૭૭૭ કેરેટનો હીરો લાવ્યો. તે
હીરો જોઇને મેનેજીંગ ડિરેકટર ગેરિ રાલ્ફ તો ચક્તિ થઇ ગયા. તેનો થાક ઉતરી ગયો.
તેમણે એ રફ હીરો સસ્તામાં ખરીદી લીધો. ૩ વર્ષ પછી ૭૭૭ કેરેટના હીરાના કટીંગ
પોલીશીંગ પછી ૨૦૩ કેરેટનો 'મિલેનીમય હીરો' બન્યો છે. આ પિયર આકારના હીરાને અતિ
મૂલ્યવાન ગણવામાં આવે છે. અને તેનું કોઇ મૂલ્ય આંકી શકાતું નથી. આ હીરાને
ચોરવાની આખી મોડસ ઓપરેન્ડ ફેઇલ ગઇ છે.</p>

<p>મિલેનિયમ ડોમમાં ઘણા, મનોરંજનના ઝોન ઊભા
કર્યા છે તેમાં 'મનીઝોન' પણ છે. આ મનીઝોનનું સૌથી મોટું આકર્ષણ 'મિલેનીયમનો
હીરો' અને (મિલેનીયમ - સ્ટાર) બીજા ૧૧ હીરાનું હતું. બાર જણાની ગેંગએ આ હીરા
લૂંટવાનું કાવતરૂં ગોઠવ્યું હતું.</p>

<p>બાર જણની ગેંગમાંથી ચાર જણે ખબર મેળવી
લીધેલા કે મનીઝોનમાં ડાયમન્ડ વોલ્ટ કયાં રાખ્યો છે. તે લોકોમાંથી ચાર જણ
બુરખા પહેરીને ડાયમન્ડ ઝોનમાં પ્રવેશ્યા. તેમની ગણતરી હતી કે એ વોલ્ટમાં રૂા. ૨૦૦૦
કરોડનો મિલેનીયમ સ્ટાર છે. તેમણે ઘણા ઓજારો લીધા હતા. 'વોલ્ટના' તાળાના
કોડવર્ડ જાણી લીધા હતા. કમનસીબી એ કે હીરાની લૂંટના ખબર સ્કોટલેન્ડ યાર્ડને મળી
ગયેલા. તેથી આ લૂંટનો ડ્રામા ચાલવા દેવામાં આવ્યો અને સેફટી ખાતર સાચા મિલેનિયમ
સ્ટારને બદલે તમામ બાર જેટલા હીરાની આબેહુબ નકલો બનાવીને પછી તે બાર નકલી હીરાઓ
જ વોલ્ટમાં રાખવામાં આવેલી, કારણ કે સ્કોટલેન્ડ યાર્ડનાં ૧૦૦ જેટલા ઓફિસરને આ
બાર લૂંટારાને રંગેહાથ પકડવા હતા.</p>

<p>જાણી જોઇને વોલ્ટની આજુબાજુની ચોકી ઢીલી
કરાઇ અને લૂંટારા ચાર ફૂટની કોંક્રીટ કોટડીમાં જાતે જ પ્રવેશીને ઘેરાઇ ગયા. આજુબાજુ
કંઇ ચોકીયાત નહોતા એટલે તે લોકો જે કાચનાં પીંજરામાં હીરા રાખ્યા હતા તે કાચના
પીંજરાને હથોડાથી અને ઇલેકટ્રીક નેઇલ ગનથી તોડવા માંડયા હતાં. એ દરમિયાન થોડે
દૂર સ્કોટલેન્ડ યાર્ડે આર્મ્ડ પોલીસી તૈયાર રાખેલી. નવાઇની વાત એ છે કે ધોળે
દિવસે જ્યારે આ મિલેનીયમ ગુંબજ પ્રદર્શન માટે ખુલ્લો રખાયેલો ત્યારે જ આ 'લૂંટ'
ચાલતી હતી. પ્રેક્શકો પણ મોટી સંખ્યામાં આવતા હતા. પોલીસે એ વાતનો ખ્યાલ રાખ્યો
કે લૂંટારા સાથે ગોળીબાર કે ઝંપાઝંપી થાય તો પ્રેક્શકોને હાની ન થાય. 'મની ઝોનના'
તમામ પ્રેક્શકોને બહાનું કાઢીને દૂર કરાયા હતા.</p>

<p>લંડનની અન્ડર ગ્રાઉન્ડ ટ્રેન મિલેનીયમ ડોમ
સુધી આવે છે તે બંધ કરી દેવાઇ. કદાચ કોઇ પોલીસ કે પ્રેક્શક લૂંટારા
સાથેની ઝપાઝંપીમાં ઘાયલ થાય તો તે માટે એમ્બયુલન્સ તૈયાર રખાયેલી લૂંટારા થવાય તો
તેને માટે ખાસ એમ્બ્યુલન્સ હતી.જેથી જીવતા રહેલા લૂંટારા પાસેથી ખાસ પગેરૂં મળે.</p>

<p>પોલીસને શંકા છે કે કોઇ હીરાનો શોખીન
પ્રાયવેટ કલેકટર આ ૧૨ હીરાથી મોહીત થયો છે. તેણે આ લૂંટારા ભાડે રાખ્યા હશે અગર
આરબ દેશની કોઇ સિન્ડિકેટએ આ કિંમતી હીરાની લૂંટ ગોઠવી હશે. કારણ કે આ હીરાને
લૂંટીને વેચવા એ મોટું કામ બની જાય. અગાઉ લંડનમાં બે વખતની હીરાની લૂંટ ફેઇલ
ગયેલી. ફલાઇંગ સ્કવોડના કમાન્ડર જહોન કુન્નુર આ લૂંટની યોજનાનાં ડ્રામાની આખી
સ્ક્રીપ્ટ જાણે છે પણ પત્રકારોને તેની વિગત આપી નથી. માત્ર એટલુ કહ્યું કે જો લૂંટ સફળ
થઇ હોત તો એ જગતમાં એ લૂંટ સૌથી જબ્બર લૂંટ તરીકેનો રેકોર્ડ સ્થાપિત અને ગિનેસ
બુકમાં સ્થાન મળત.</p>

<p>પોલીસ ઓફિસરોએ સપ્ટેમ્બર ૨૦૦૦માં જ ડિ
બિયર્સ કંપની જેણે આ કિંમતી હીરા પ્રદર્શનમાં રાખ્યા છે તેને ચેતવ્યા હતા કે આ હીરા
અહીંથી ચોરાઇ જવાની શકયતા છે. આ પ્રદર્શનમાં હીરાને સિકયુરીટીથી રાખવાના પ્લાન ગુપ્ત
રખાયેલા. ડિ બિયર્સે પછી ચેતી જઇને આ પ્લાન એક જણે જાણવા માગ્યા તે કોઇને આપ્યા
નહીં. મિલેનીયમ સ્ટારનો હીરો જ ચોરી ગયા હોત તોય રેકોર્ડ સ્થપાત. ૧૯૯૦ના
દાયકામાં મળેલા આ હીરાને પોલીશ કરીને ૨ ઇંચ લાંબો અને ઘાટીલો બનાવ્યો હતો તે
માટે યુરોપ, અમેરિકા અને દ. આફ્રિકાના પાંચ કુશળ કારીગરોને રોકવામાં આવેલા.
જ્યારે મિલેનીયમ ગુંબજ ખુલ્લો મુકાયો ત્યારે આ હીરાને પ્રદર્શનમાં મૂકીને તેના ઉપર
લેસરના કીરણો ફેંકવામાં આવેલા.</p>

<p>બીજા ૧૧ હીરામાં ૨૭ કેરેટનો 'હાર્ટ ઓફ એટરનીટી'નો
હીરો પણ હતો. તેનાં આસમાની રંગ અદ્ભુત છે. આ બધા હીરાનો વિમો રૂા. ૧૦૫૦
કરોડનો ઉતરાવ્યો હતો પણ તેનું મૂલ્ય રૂા. ૨૫૦૦ કરોડ ગણાય છે. ડિ બિયર્સએ આ ડોમ
ઉભો કરવા માટે કંપની તરફથી રૂા. ૧૫ કરોડ દાનમાં આપેલા છે. અને તેમાંથી તેને રૂા.
૧૦૦ કરોડની પબ્લિસીટી મળી છે. અને આ ફલોપ લૂંટ દ્વારા વારંવાર ડિબિયર્સનું નામ
બોલાય છે. આવી લૂંટ ગોઠવવાથી હવે ધનિક આરબોમાં 'મિલેનીયમ હીરા'ની કિંમત
ઘણી બધી વધી ગઇ છે. ડિબિયર્સને ફાયદો થાય છે. હીરાની લૂંટના પ્લાન લીક
થઇને લૂંટારા પાસેથી સ્કોટલેન્ડ પાસે એ પ્લાન આવ્યો ત્યારે તે લૂંટને રોકવા માટેના
ઓપરેશનને 'ઓપરેશન મેજિશ્યન' નામ અપાયું. સ્કોટલેન્ડ યાર્ડ ઉપર ઘણા વર્ષે કલંક
આવેલું કે તેમના ફલાઇંગ સ્કવોડમાં કરપ્ટેડ (ભ્રષ્ટ) ઓફીસરો પણ છે. અને કદાચ લાંચ
આપીને લૂંટારા હીરા લૂંટી જશે. ૧૯૭૦ના દાયકામાં ટેલિવિઝન ઉપર ફલાઇંગ સ્કવોડનાં દિલધડક
સાહસની એક ફિલ્મ બતાવેલી. પરંતુ હીરાની આ ફલોપ લૂંટ હોલીવુડની ફિલ્મની સ્ટોરીને
થોડીક મળતી આવે છે.</p>

<p>'ધ વર્લ્ડ ઇઝ નોટ ઇન ફ' નામની ફિલ્મમાં
જગતની સૌથી મોટી જવેલરીની લૂંટનું દ્રશ્ય છે. આ ફિલ્મમાં લૂંટના દ્રશ્ય પહેલાં ફિલ્મની
અંદર જે સિક્રેટ સર્વિસનું હેડકવાર્ટર છે ત્યાં મોટો બોમ્બ ધડાકો થયો છે. એ
પછી લૂંટારાઓ પોતાની હીરાની લૂંટ ચાલુ કરે છે. તાજેતરની ખરેખરી લૂંટના પ્રયાસ
પહેલા પણ બ્રિટીશ જાસૂસી તંત્ર એમ.આઇ.સિકસનાં બિલ્ડિંગમાં ધડાકો થયેલો.
ફિલ્મમાં પણ હીરાની લૂંટને પકડાઇ હતી. આ મિલેનીયમના હીરાના ચાર લૂંટારા પકડાઇ ગયા
છે. પણ હવે ડોમના પ્રેક્શકોને કદી જ આ મિલેનીયમ - સ્ટાર અને બીજા કિંમતી બ્લુ હીરા
જોવા નહીં મળે.</p>

<p>કાન્તિ ભટ્ટ</p>

<p> </p>






</body></text></cesDoc>