<cesDoc id="guj-w-samachar-supp-01-07-28" lang="guj">
<cesHeader type="text">
<fileDesc>
<titleStmt>
<h.title>guj-w-samachar-supp-01-07-28.txt</h.title>
<respStmt>
<respType>Electronic file created by</respType>
<respName>Department of Linguistics, Lancaster University</respName>
<respType>text collected by</respType>
<respName>Andrew Hardie</respName>
<respType>transferred into Unicode by</respType>
<respName>"Unicodify" software by Andrew Hardie</respName>
</respStmt>
</titleStmt>
<publicationStmt>
<distributor>UCREL</distributor>
<pubAddress>Department of Linguistics, Lancaster University, Lancaster, LA1 4YT, UK</pubAddress>
<availability region="WORLD"></availability>
<pubDate>03-08-24</pubDate>
</publicationStmt>
<sourceDesc>
<biblStruct>
<monogr>
<h.title>"Gujarat Samachar" internet news (www.gujaratsamachar.com), news stories collected on 01-07-28</h.title>
<h.author>Gujarat Samachar</h.author>
<imprint>
<pubPlace>Gujarat, India</pubPlace>
<publisher>Gujarat Samachar</publisher>
<pubDate>01-07-28</pubDate>
</imprint>
</monogr>
</biblStruct>
</sourceDesc>
</fileDesc>
<encodingDesc>
<projectDesc>Text collected for use in the EMILLE project.</projectDesc>
<samplingDesc>Simple written text only has been transcribed. Diagrams, pictures and tables have been omitted and their place marked with a gap element.
</samplingDesc>
<editorialDecl>
<conformance level="1"></conformance>
</editorialDecl>
</encodingDesc>
<profileDesc>
<creation>
<date>03-08-24</date>
</creation>
<langUsage>Gujarati</langUsage>
<wsdUsage>
<writingSystem id="ISO/IEC 10646">Universal Multiple-Octet Coded Character Set (UCS).</writingSystem>
</wsdUsage>
<textClass>
<channel mode="w">print</channel>
<constitution type="composite"></constitution>
<domain type="public"></domain>
<factuality type="fact"></factuality>
</textClass>
<translations></translations>
</profileDesc>
<revisionDesc></revisionDesc>
</cesHeader>

<text>
<body>




<p><head>ગુગલી</head></p>

<p><head>કોઇ એક ખેલાડીને વધુ ''મેન
ઓફ ધી મેચ'' એવોર્ડ અનબેલેન્સ્ડ ટીમની નિશાની છે</head></p>

<p>થોડાક જ મહિનાઓ પહેલા
વિશ્વ વિજેતા ઓસ્ટ્રેલિયા સામે ટેસ્ટ અને વન-ડે શ્રેણીમાં જબરજસ્ત દેખાવ કરનાર ભારતીય
ટીમ ઝિમ્બાબ્વે અને વેસ્ટ ઇન્ડિઝ સામેની ત્રિકોણીય શ્રેણીમાં કંઇ ઉકાળી શક્યું નહીં.
ટુર્નામેન્ટમાં કાંઠે આવીને એનું વહાણ ડૂબી ગયું હતું.</p>

<p>ત્યારબાદ હાલમાં શ્રીલંકામાં
ન્યુઝીલેન્ડ અને યજમાન ટીમ સામે પ્રથમ બંને મેચોમાં થોડાક માટે હારવાની એની 
 
 
  
  
  
  
  
  
  
  
  
  
  
  
 
 
 

 
 
<gap desc="illustration"></gap>જૂની પરંપરા ફરી શરૂ થઈ ગઈ છે. અત્યારે
સચિન પગના અંગુઠાની ઇજાને કારણે ટીમની બહાર છે ત્યારે ગાંગુલી, દ્રવિડ અને લક્શ્મણ જેવા
ખેલાડીઓ, વધુ જવાબદારી આવી જવાથી વધુ સારું રમવાના ટેન્શનમાં સાતત્ય ગુમાવી રહ્યા
હોય એવું વર્તાઈ રહ્યું છે.</p>

<p>છેલ્લા કેટલાક સમયથી ફોર્મ
ગુમાવી ચૂકેલો સૌરવ ગાંગુલી ક્યારેક અર્ધી સદી ફટકારે છે, પણ એની બેટીંગમાં
અગાઉ જેવો ટચ દેખાતો નથી. ન્યુઝીલેન્ડ અને પછી શ્રીલંકા સામે હાલમાં જે દેખાવ ભારતીય
ટીમે કર્યા તે ખરેખર ચિંતાજનક છે.</p>

<p>ખાસ કરીને શ્રીલંકા સામેની
મેચમાં ૨૨૧ના જુમલે પહોંચવામાં પણ એ નિષ્ફળ ગયું ને ૨૧૫ રને પહોંચીને અટકી ગયું
એ નિરાશાજનક ઘટના છે. આ મેચ જીત્યું હોય તો ભારતની સ્થિતિ ટુર્નામેન્ટમાં ખાસ્સી
મજબૂત બની ગઈ હોત.</p>

<p>આ મેચમાં ગાંગુલીએ બેટીંગ
ક્રમમાં જોખમી ફેરફાર કર્યા જેનું કોઈ પરિણામ મળ્યું નહીં. ખુરશીયા અને યુવરાજની
ઓપનીંગ પેર નિષ્ફળ ગઈ. લક્શ્મણ ઝાઝું ન ટક્યો ને એક-બે વાર થોડાક રન બનાવનાર બોલર
હરભજનને ચોથા ક્રમે મોકલીને પણ ગાંગુલીએ મુર્ખામી કરી.</p>

<p>સરવાળે મિડલ ઓર્ડરમાં એને
ને દ્રવિડે ટેન્શનમાં રમવું પડ્યું. બંને રમ્યા પણ ૨૨૧ સુધી જુમલો ન પહોંચાડી
શક્યા. શેહવાગ પાછળ હતો એટલે ગાંગુલીને હતું કે ૨૨૧ રને પહોંચી જવાશે પણ એ આઉટ
થયા પછી અર્ધી સદીના આરે પહોંચેલો દ્રવિડ ન તો સ્કોર ૨૨૧ સુધી
પહોંચાડી શક્યો ન તો અર્ધી સદી પૂરી કરી શક્યો.</p>

<p>ભારતીય ખેલાડીઓમાં છેલ્લી
ઓવરોનું આ ટેન્શન જ દર વખતે હરાવે છે. બીજી ટીમોમાં આવું ભાગ્યે જ બને છે. એ
ટીમોમાં છેલ્લા દડાઓમાં બોલર ન હોય ને બોલરો રમતા હોય છતાં આક્રમક રમત રમીને
લેવાય એટલું રિસ્ક લઈને તેઓ ટીમને જીતાડવાના પ્રયાસો કરે છે પણ ભારતીય ટીમમાં આવા
કીલર ઇન્સ્ટીક્ટનો અભાવ છે. દ્રવિડ જેવો અનુભવી ખેલાડી છેલ્લી ઓવરોમાં એક ચોગ્ગો
ન ફટકારી શક્યો એ ખરેખર દુ:ખદ છે. છેવટની ઘડીઓમાં ટેન્શન ઊભું કરનાર શ્રીલંકન
બોલરો સામે એક-બે ચોગ્ગા ફટકાર્યા હોત તો મેચનું પરિણામ નિશ્ચિતપણે પલટાઈ ગયું
હોત.</p>

<p>ટુર્નામેન્ટની પ્રથમ બે મેચો
આ લખાય છે ત્યારે રમાઈ ચૂકી છે તે તેનાં પરિણામો જોયા પછી ઘણા લોકો એવું માનવા
લાગ્યા છે કે ભારતીય ટીમ હજી સચિન પર જ અવલંબે છે. કારણકે એની હાજરીમાં સારો દેખાવ
કરતી ટીમ એની અનુપસ્થિતિમાં મોટેભાગે હારતી રહી છે.</p>

<p>સચિનની રમત હંમેશા જોખમી
હોય છે, પણ એકવાર સેટ થઈ ગયા પછી એમાંથી ભરપૂર સાતત્ય છલકતું દેખાય છે. એની આઈ
સેટ થઈ ગયા પછી એ પ્રતિસ્પર્ધી ટીમના કોઈપણ બોલરની બોલિંગની ધાર બુઠી
કરી નાખે છે.</p>

<p>એની રમતનું સૌથી મજબૂત
પાસું એ છે કે, તે સતત બોલર પર આક્રમણ કરે છે. એ વિકેટ પર હોય ત્યાં સુધી
રનની ગતિ સતત ચાલતી રહે છે. પહેલી ૧૫ ઓવરોનો ફાયદો ભારત શ્રીલંકા સામેની મેચમાં
ન ઉઠાવી શક્યું પણ એવું સચિનની હાજરીમાં ભાગ્યે જ બને છે. સચિન પહેલી ૧૫ ઓવરોમાં
જે આક્રમકતાથી રમે છે એથીય વધુ આક્રમકતાથી છેલ્લા ૧૫ બોલમાં પણ રમી શકે છે.</p>

<p>છેલ્લા દડાઓમાં જ્યારે જીત
સામે દેખાતી હોય ત્યારે સચિન જેવાં ખેલાડી દબાવમાં આવ્યા વિના સામેના બોલરો અને
ફિલ્ડરો પર આક્રમણ કરે છે કારણકે એવું કર્યા વિના જીતવાનું શક્ય નથી. શ્રીલંકા સામે
રાહુલ દ્રવિડ છેલ્લા દડાઓમાં આવું આક્રમણ ન દાખવી શક્યો નહીં તો એ મેચ નિશ્ચિતપણે
ભારતના ખિસ્સામાં જ હતી.</p>

<p>ભારતીય ટીમની કમનસીબી એ છે
કે, વર્ષોથી કોઈ એક કે બે ખેલાડીઓ પર જ તે આધાર રાખે છે. એક જમાનામાં
સુનિલ ગાવસ્કર પર આખી ટીમ મદાર રાખતી હતી તો એક જમાનામાં ભારતીય સ્પીન ત્રિપુટી
ભારતને જીતાડતી હતી. ત્યારબાદ કપિલ દેવના સમયમાં પણ એવું જ બન્યું ને છેલ્લે સચિન
આવ્યા પછી પણ એ જ પુનરાવર્તન થઈ રહ્યું છે.</p>

<p>આ બાબતમાં ઓસ્ટ્રેલિયા,
દક્શિણ આફ્રિકા અને પાકિસ્તાનની ટીમો અલગ પડે છે કારણકે ત્યાં કોઇ એક ખેલાડી પર
મદાર નથી રખાતો. ટીમનો એકેએક સભ્ય જીત માટે વધુ ને વધુ મહેનત કરે છે જેનાથી દરેક
મેચમાં કોઈ ને કોઈ ખેલાડી સચિન, ગાવસ્કર કે કપિલ બનીને ઝળકે છે. આ ટીમો કોઈ
એક ખેલાડી પર ક્યારેય મદાર નથી રાખતી. વિશ્વ ચેમ્પિયન ઓસ્ટ્રેલિયામાં શેન વોર્ન અને
મેકગ્રાથ મેચ વિનર બોલરો છે. તો માર્ક બંધુઓ પણ મેચ વિનર બેટ્સમેન છે, છતાં
એમની ટીમના અન્ય સભ્યોનો મહત્વનો ફાળો હોય છે જ. ક્યારેક પોન્ટીંગ, ક્યારેક
ગિલક્રિસ્ટ, ક્યારેક હેંડન ક્યારેક બ્રેટલી તો ક્યારેક ગીલેસ્પી ઝળકે છે.</p>

<p>ટીમોના દેખાવની વાતમાં એક
બાબત નોંધવા જેવી છે અને તે એ છે કે, સચિન રમ્યો હોય તેવી મેચોમાં ભારતે
લગભગ ૬૦ ટકા જેટલી સફળતા મેળવી છે, મતલબ કે દર ૧૦ મેચે ૬ મેચ ભારત સચિનની સફળતાના
કારણે જીત્યું છે. સચિન માટે આ ટકાવારી ગૌરવ લેવા જેવી કહેવાય, પણ ભારત માટે આ
આંકડા ખુશ થવા જેવા નથી કારણકે આનો સીધો અર્થ એ થાય કે, સચિનને કારણે
ભારત ૬૦ ટકા મેચો જીતી શક્યું છે જે બતાવે છે કે, ભારત તેના એકલા પર કેટલો
બધો આધાર રાખે છે.</p>

<p>સચિનની આ સફળતા જોતાં એને
સૌથી વધુ મેન ઓફ ધી મેચ એવોર્ડ પણ મળ્યા જ હશે એટલે એક રીતે જોઈએ તો
સૌથી વધુ મેન ઓફ ધ મેચના એના એવોર્ડ ભારત માટે બહુ ગૌરવ લેવા જેવા નથી.
જે ટીમના દરેક ખેલાડી વારાફરતી મેન ઓફ ધ મેચ બનતા રહે તો એક વાત ફલિત થાય
કે સમગ્ર ટીમના ખેલાડીઓ સાતત્યપૂર્ણ રમત બતાવી રહ્યા છે.</p>

<p>સચિનના કારણે ભારત વધુ ને
વધુ મેચો જીત્યું હોય, એને સૌથી વધુ મેન ઓફ ધી મેચ એવોર્ડ મળ્યા હોય એ
બાબત ખુશ થવા જેવી છે ખરી, પણ બીજી રીતે જોઇએ તો, એની વધુ ને વધુ સફળતા સામે અન્ય
ખેલાડીઓની એવરેજ સફળતા અટકે છે. ટૂંકમાં સચિનને ૫૦ વાર મેન ઓફ ધી મેચ
હોય તો બીજા ચાર પાંચ ખેલાડીઓ ૩૦ થી ૪૦ વાર મેન ઓફ ધી મેચ બન્યા હોવા
જોઇએ. જો આવું હોય તો જ ભારતીય ટીમનો દેખાવ સાચા અર્થમાં સાતત્યપૂર્ણ છે એવું
કહી શકાય.</p>




<p><head>સ્પોર્ટ્સ વર્લ્ડ</head></p>

<p><head>કપિલદેવ તમે પાછા આવો ને !</head></p>

<p>જેને તમે ભરપૂર મહોબ્બત
કરતા હો, એવી રમત તરફ, તમે સખત નફરત દાખવી શકો ખરા? તમારી પ્રત્યેક ચેષ્ટામાં અને
તમારા લોહીમાં જે રમત વહેતી હોય, એની તમે ઉપેક્શા કરી શકો ખરા? માત્ર ક્રિકેટના જ
નહીં, બલ્કે વિશ્વ ક્રિકેટના છેલ્લાં ચાલીસ વર્ષના મારા અનુભવમાં કપિલદેવ જેવો કોઈ
ખેલાડી જોયો નથી કે જે પોતાની પ્રિય રમત ક્રિકેટ તરફ આટલી બધી ધિક્કારની
લાગણી ધરાવતો હોય.</p>

<p>ક્રિકેટ ન છોડ્યું</p>

<p>ભારતના લાલા અમરનાથને
ઇંગ્લેન્ડના પ્રવાસની અધવચ્ચે ખોટી રીતે ગુનેગાર ઠેરવીને ભારત પાછા મોકલી 
 
 
<gap desc="illustration"></gap>દેવામાં આવ્યા. પરંતુ લાલા અમરનાથે
ક્રિકેટ છોડ્યું નહીં બલ્કે સમય જતાં ભારતીય ટીમના કપ્તાન થયા. વેસ્ટ ઇન્ડિઝના રે
ગીલક્રીસ્ટને ભારતના પ્રવાસની અધવચ્ચેથી ગેરશિસ્ત માટે ઘરભેગો કરી દેવામાં આવ્યો,
છતાં એની ક્રિકેટની ચાહના ઝાંખી પડી નહીં. ઇયાન બોથમ સામે 'ડ્રગ' લેવાનો આક્શેપ
થયો. ઇંગ્લેન્ડના સુકાની માઇક ગેટિંગ સામે મહિલાઓ સાથે અશિષ્ટ વ્યવહાર કરાયાનો આક્શેપ
થયો. જેફ બોયકોટની ગર્લફ્રેન્ડે એની બદનામી કરી એમ છતાં બોથમ, ગેટિંગ કે
બોયકોટની ક્રિકેટની રમત તરફની ચાહના ઓછી થઈ નહીં. દક્શિણ આફ્રિકાના હાન્સી ક્રોનિયરને
તો આ રમતનો ખલનાયક અને દેશદ્રોહી જાહેર કરવામાં આવ્યો તેમ છતાં આજે ક્રોનિયર
રસપૂર્વક ક્રિકેટની રમત નિહાળે છે અને પોતાના પ્રતિભાવો આપે છે. આ બધી
ઘટનાઓથી તદ્દન વિપરિત એવું કપિલદેવમાં થયું છે.</p>

<p>ભારોભાર નફરત</p>

<p>કપિલદેવ એની ક્રિકેટની
તાકાતને કારણે ''ક્રિકેટદેવ'' ગણાતો હતો. એના જમાનાનો ભારતનો જ નહીં, બલ્કે
વિશ્વનો શ્રેષ્ઠ ઓલરાઉન્ડર હતો. એની આગેવાની હેઠળ ભારતીય ટીમે વર્લ્ડકપ મેળવ્યો.
બેટીંગ અને બોલીંગમાં ભવ્ય સિદ્ધિ મેળવ્યા બાદ નિવૃત્ત થયેલો કપિલદેવ ભારતીય ટીમના કોચ
તરીકે કામ કરતો હતો. નિવૃત્ત કપિલદેવ પાસે કેટલીય આશાઓ રાખી હતી, પરંતુ
માટીપગા મનોજ પ્રભાકરે ઊભા કરેલા મેચ ફિક્સીંગના ઝંઝાવાતમાં કપિલદેવ ફસાયો. અંગત
દ્વેષને કારણે બિન્દ્રાએ આગમાં ઘી હોમવાનું કામ કર્યું. અખબારો અને ટેલિવીઝન આ
મસાલા પર તૂટી પડ્યા. બી.બી.સી. પર કપિલદેવ ધ્રુસકેને ધ્રુસકે રડ્યો. એની વેદના રમત
પ્રત્યેના ધિક્કારમાં પલટાઇ ગઈ. ભારે નફરત જાગી, ક્રિકેટ અધિકારીઓ અને સાથી
ખેલાડીઓ પર. મેચ ફિક્સીંગના પ્રકરણમાં કપિલદેવ નિર્દોષ સાબિત થયો પણ દુર્ભાગ્ય
એટલું કે એ ક્રિકેટની રમતથી દૂર ચાલ્યો ગયો. રમત તરફ પાછા આવવાને બદલે એ
ક્રિકેટની રમતને અને ખેલાડી-અધિકારી આલમને નફરતથી જોવા લાગ્યો.</p>

<p>આશાઓનો આધાર</p>

<p>ભારતના છેલ્લા ચાલીસ વર્ષના
ક્રિકેટરોમાં કપિલદેવ જેવો ઉત્સાહી ક્રિકેટર જોવા મળ્યો નથી એની સોળ વર્ષની
કારકિર્દીમાં કપિલદેવે માત્ર એક જ ટેસ્ટ ગુમાવી અને તે પણ ક્રિકેટના કે ફિટનેસના કારણે
નહીં, બલ્કે ક્રિકેટના મેદાનની બહારનાં કારણોને લીધે. કપિલદેવનો ઉત્સાહ અને રમત
તરફનું એમનું સમર્પણ યુવાનો માટે આદર્શરૂપ બની ગયું. રણજી ટ્રોફીમાં કેટલાય યુવાન ક્રિકેટરોને
હરિયાણામાં તૈયાર કરનાર કપિલદેવ પાસે આવતી કાલની ક્રિકેટરોની પેઢીને તૈયાર કરવાની
ઘણી મોટી આશા રાખી હતી.</p>

<p>ગોલ્ફર કપિલદેવ</p>

<p>આજે એ આશાઓ એવી તો
આથમી ગઈ છે કે કપિલદેવને જોઈને હૈયું ચિરાઈ જાય છે. છેક હમણાં સુધી તો એ
ટેલિવીઝન પર પણ ક્રિકેટની મેચ જોતો નહોતો. હવે ક્રિકેટ છોડીને એણે ગોલ્ફની રમતમાં
દિલચશ્પી લગાવી છે. કપિલદેવ ક્રિકેટ ખેલતો હતો ત્યારે પણ અવકાશ મળે ત્યારે ગોલ્ફ
ખેલતો હતો. હવે એ ગોલ્ફના મેદાન પર રમવાની સાથોસાથ અમેરિકાની કંપની 'દેવ-મસ્કો
લાઈટીંગ પ્રાઇવેટ લિમિટેડ'ના ભાગીદાર તરીકે કામ કરે છે. રાત્રે રમત ખેલી શકાય તે માટે
લાઇટની ગોઠવણ કરતી કંપનીની વ્યવસ્થા કપિલદેવ સંભાળે છે. આ ઉપરાંત ઓસ્ટ્રેલિયાની
કોલસાની કંપનીઓમાં પણ એ સલાહકાર તરીકે કામ કરે છે. કપિલદેવ આ સિવાય હોટલ તથા
અન્ય ઉદ્યોગોમાં રસ લે છે, પરંતુ ક્રિકેટની ધોરી નસ કાપી નાંખી છે. આશ્ચર્ય તો
એ વાતનું છે કે પત્રકારોને હવે કપિલદેવ મળતો નથી. કોઈ ઇન્ટરવ્યુ લેવા આવે તો
ક્રિકેટ સિવાયની બાબતો વિશે વાત કરે છે. ભારતની આ મહાન પ્રતિભાનો લાભ દેશ ગુમાવી
રહ્યો છે. ચંદીગઢનું સ્ટેડીયમ, એની ડી.એ.વી સ્કૂલ કે પછી લાખ્ખો ચાહકોના હ્ય્દયમાં
રહેલી ક્રિકેટર કપિલદેવની પ્રતિમા અત્યારે તો સાવ ખંડિત થઈને ચૂરેચૂરા થઈ ગઈ છે. આશા
તો એટલી જ રાખવાની કે જેની નસેનસમાં ક્રિકેટનું લોહી વહે છે એવો કપિલદેવ
ભૂતકાળની કડવી સ્મૃતિઓ અને પ્રપંચી સબંધો છોડીને ક્રિકેટમાં પાછો આવે.</p>




<p><head>સાઇડ લાઇટ</head></p>

<p><head>વિશ્વ એથ્લેટિકસ ચેમ્પિયનશિપનો
ચેમ્પિયન ખેલાડી કોણ?</head></p>

<p>આઠ કરોડ અને ત્રીસ લાખ
અમેરિકી ડોલરના ખર્ચે ''આઠમી વિશ્વ ચેમ્પિયનશિપ'' કેનેડામાં એડમંટન શહેર ખાતે યોજાય
રહી છે. જેમાં વિશ્વના નામાંકિત અને વિશ્વ વિક્રમ ધરાવતા અનેક ખેલાડીઓ ભાગ લેવા
થનગની રહ્યા છે.</p>

<p>આગામી સપ્તાહે શરૂ થનારી
એકવીસમી સદીની આ પ્રથમ વિશ્વ એથ્લેટિક ચેમ્પિયનશીપમાં વિશ્વના ૨૦૫ 
 
 
<gap desc="illustration"></gap>દેશોના કુલ ૨૦૦૦થી વધુ એથ્લેટસ ભાગ
લેવાના છે. પુરા ૧૦ દિવસ સુધી ચાલનારી આ વિશ્વ એથ્લેટિકસ ચેમ્પિયનશિપનું
આકર્ષણ ૧૦૦ મીટર દોડના વિશ્વ વિક્રમી મોરિસ ગ્રીન, ૧૦,૦૦૦ મીટર દોડના વિશ્વ ચેમ્પિયન
હેલ ગેબ્રસેલૈસી, ૧૫૦૦ મીટર દોડમાં બે વખત ચેમ્પિયન રહેનાર હિશામ અલ ગુરોજ,
ઓલિમ્પિકમાં ત્રણ સુવર્ણ ચન્દ્રકો મેળવનારી મેરિયન જોન્સ વિગેરે ખેલાડીઓ છે. આ વિશ્વ
એથ્લેટિકસ ચેમ્પિયનશિપ બોર્ડના અધ્યક્શ શ્રી જૈક એગ્રિઓસએ જણાવ્યું હતું કે આ
ચેમ્પિયનશિપનો લોકલ હિરો ડોનોવાન બેલી.. ખાસ આકર્ષણરૂપ ખેલાડી રહેશે તેમ લાગે
છે. જયમાન કેનેડાનો ઝડપી દોડવીર ડોનોવાન બેેેલીએ, ૧૯૯૬ની એટલાન્ટા
ઓલિમ્પિકમાં બે સુવર્ણચન્દ્રકો મેળવ્યા હતા.</p>

<p>રમત-જગતના ઇતિહાસમાં સૌથી
પ્રાચીન અને રોમાંચક રમત તરીકે સ્થાન પામેલ એથ્લેટિકસની ''વિશ્વ ચેમ્પિયનશિપ'' દર બે
વર્ષે યોજાય છે. આ પહેલાં તાસમી વિશ્વ એથ્લેટિકસ ચેમ્પિયનશિપ ૧૯૯૯માં સ્પેનમાં સેવિલ
ખાતે યોજાય હતી. જેમાં ૨૦૪ દેશોના ૧૯૦૦ જેટલા ખેલાડીઓએ કુલ ૪૬ જેટલી
સ્પર્ધાઓમાં ભાગ લીધો હતો. આ વીસમી સદીની અંતિમ અને સાતમી વિશ્વ
એથ્લેટિકસ ચેમ્પિયનશિપનું ઉદ્ધાટન સ્પેનના રાજકુમાર ફિલીપે કર્યું હતું. આ સાતમી વિશ્વ
ચેમ્પિયનશિપનો હિરો અમેરિકાનો માઇકલ જોન્સન હતો. માઇકલ જોન્સે ૨૫મી ઓગસ્ટ,
૧૯૯૯ના રોજ ૪૦૦ મીટર દોડમાં ૪૩.૧૪ સેકન્ડનો સમય નોંધાવી વિશ્વ વિક્રમ
નોંધાવ્યો હતો. ૫૨,૦૦૦ દર્શકોની હાજરી વચ્ચે માઇકલ જોન્સે ૧૧ વર્ષ જુનો
રેકોર્ડ તોડયો હતો. ૧૧ વર્ષ પહેલાં ૧૭મી ઓગસ્ટ ૧૯૮૮ના રોજ ઝુરીચ ટ્રેક ખાતે
બુચ રેનોલ્ડસે ૪૩.૨૯ સેકન્ડથી વિક્રમ નોંધાવ્યો હતો. આ સાથે માઇકલ જોન્સે વિશ્વ
એથ્લેટિકસમાં ૨૦૦ મીટરની દોડમાં પણ વિશ્વ વિક્રમ નોંધાવેલ હોય તે આ વિશ્વ
એથ્લેટિકસ ચેમ્પિયનશિપના ઇતિહાસનો પ્રથમ એવો ખેલાડી બન્યો કે જેણે આવી બેવડી
સિધ્ધિ મેળવી હોય.</p>

<p>સોયલ ચેમ્પિયનશિપનો બીજો
હિરો હતો.. અમેરિકાનો મૌરિસ ગ્રીન. મૌરિસ ગ્રીન એ ૧૦૦ મીટર અને ૨૦૦ મીટરની
દોડમાં શ્રેષ્ઠ દેખાવ કરીને બે ગોલ્ડ મેડલ મેળવવા સાથે એક જ ચેમ્પિયનશિપમાં આવી
બેવડી સિધ્ધિ મેળવનાર એ પ્રથમ પુરૂષ ખેલાડી બન્યો હતો! જ્યારે ૧૦,૦૦૦ મીટરની
દોડમાં ઇતોપિયાના હેઇલે ગેબ્રેસેલાસીએ સતત ચાર વખત વિજેતા રહેવાનો અદ્ભૂત વિક્રમ
નવા મીટ રેકોર્ડથી નોંધાવ્યો હતો.</p>

<p>સોયલ ખાતેની વિશ્વ એથ્લેટિકસ
ચેમ્પિયનશિપમાં ભારતે નવ ખેલાડીઓની ટીમ મોકલી હતી જેમાં એક માત્ર શક્તિસિંહ જ
પુરૂષ ખેલાડી હતો!! બાકી બધી મહિલા ખેલાડીઓ હતી!! શક્તિસિંહે ગોળા ફેંકમાં
કુલ ૨૮ સ્પર્ધકો વચ્ચે ૧૮.૫૮ મીટરથી ૨૫નું સ્થઆન મેળવ્યું હતું! ડિસ્ક થ્રોમાં
નિલમ સિંઘે કુલ ૩૦માંથી ૨૭મું સ્થાન ૫૭.૦૫ મીટરથી મેળવ્યું હતું. જ્વેલિયન થ્રોમાં
ગુરમીત કૌરે ભાગ લીધો હતો.</p>

<p>આ સાતમી વિશ્વ એથલ્ટેકિસ
ચેમ્પિયનશિપમાં અમેરિકાએ ૧૧ સુવર્ણ, ૩ રજત અને ૩ કાંસ્ય ચન્દ્રક સાથે પ્રથમ સ્થાન મેળવ્યું
હતું. જ્યારે ૬ સુવર્ણચન્દ્રક સાથે રશિયાએ દ્વિતીય અને ૪ સુવર્ણચન્દ્રક સાથે જર્મનીએ તૃતીય
સ્થાન મેળવ્યું હતું. કુલ ૪૨ દેશોએ મેડલ ટેલીમાં સ્થાન મેળવ્યું હતું.</p>

<p>વિશ્વ એથ્લેટિકસ
ચેમ્પિયનશિપમાં ૧૦૦ મીટર દોડના પુરૂષ વિભાગમાં અમેરિકાને મૌરિસ ગ્રીન ૯.૭૯ સેકન્ડથી
અને મહિલા વિભાગમાં ફોર્મોરન્સ ગ્રિફીથ જોયનાર ૧૦.૪૯ સેકન્ડથી વિક્રમ ધરાવે છે.
આ વિશ્વવિક્રમોમાં ફેરફાર કરવા આ વખતે મૌરિસ ગ્રીન અને મેરિયન જોન્સ પ્રયાસ કરનાર છે.</p>

<p>મેરિયન જોન્સ, વિશ્વની પ્રથમ
એવી મહિલા ખેલાડી છે કે જેમણે એક જ ઓલિમ્પિકમાં પાંચ ચન્દ્રકો મેળવ્યા હોય!!
સિડની ઓલિમ્પિકમાં મેરિયન જોન્સે ૩ સુવર્ણચન્દ્રકો અને ૨ કાંસ્યચન્દ્રકો સાથે કુલ પાંચ
ઓલિમ્પિકના ચન્દ્રકો મેળવવાની અદ્ભૂત સિધ્ધિ નોંધાવી હતી. આ વિશ્વ
એથ્લેટિકસ ચેમ્પિયનશિપમાં મેરિયન જોન્સ ૧૦૦ મીટર અને ૨૦૦ મીટરની દોડ સાથે લગભગ ત્રણ
સ્પર્ધામાં ભાગ લેનાર છે. ૨૦૦ મીટરની દોડમાં હમણાં જ તેણે ૨૨.૫૨ સેકન્ડનો શ્રેષ્ઠ
દેખાવ કરી વિશ્વ ચેમ્પિયન જેવો દેખાવ કર્યો હતો. આ ચેમ્પિયનશિપમાં તે પાંચ
સ્પર્ધાઓમાં ભાગ લેવાનો ઇરાદો ધરાવતી નથી. ભૂતપૂર્વ બાસ્કેટબોલની
ખેલાડી મેરિયન જોન્સે ગત વિશ્વ એથલ્ટેકિસની ૧૦૦ મી.ની દોડ ૧૦.૭૦ સેકન્ડમાં દોડી જઇ
સુવર્ણચન્દ્રક મેળવ્યો હતો. જ્યારે અમેરિકામાં યુનિયન ડેલ ખાતે યોજાયેલ ''ગુડવિલ
ગેમ્સ''ની તે.. ''સર્વશ્રેષ્ઠ- સુવર્ણ ખેલાડી'' જાહેર થઇ હતી.</p>

<p>તૂફાન, બવંડર, કામેટ, વર્લ્ડ
એકસપ્રેસ જેવા વિવિધ ઉપનામો ધરાવતો ૨૭ વર્ષનો મોરિસ ગ્રીન ટુંકા
અંતરની દોડનો વિશ્વ વિક્રમી દોડવીર છે. ૫ ફૂટ અને ૯ ઇંચની ઊંચાઇ અને ૭૫ કિલો ગ્રામ
જેટલું વજન ધરાવતો મૌરિસ ગ્રીન અમેરિકાનો સ્પ્રીન્ટ કીંગ છે. સિડની ઓલિમ્પિકમાં
તેણે ૧૦૦ મીટર ને ૪ ટ ૧૦૦ મીટર દોડમાં સુવર્ણચન્દ્રકો મેળવવાની ડબલ સિધ્ધિ
નોંધાવી હતી. આ સાથે તે વિશ્વના સૌથી મોટા ત્રણ ખિતાબો ધરાવનાર
એથ્લેટિક જગતનો ત્રીજો મહાન ખેલાડી ગણાય છે. કાર્લ લૂઇસ અને ડોનોવાન બેઇલી પછી
મૌસિગીને આવી સિધ્ધિ મેળવી છે.</p>

<p>આમ આ વિશ્વચેમ્પિયનશિપમાં
''મ'' અક્શરથી શરૂ થતાં ખેલાડીઓની દાદાગીરી જોવા મળે તો નવાઇ નહીં!!</p>




<p><head>સ્કવેર કટ</head></p>

<p><head>બાઉન્સરો પર નિયંત્રણ આવ્યા
બાદ ફાસ્ટ બોલરોની લાઇન-લેન્થ સુધરી છે</head></p>

<p>૧૯૮૦ના દસકાની શરૂઆતમાં
ટેસ્ટ મેચોમાં બાઉન્સરો પર આઇ.સી.સી.એ નિયંત્રણો લાદયા બાદ ૨૦ વર્ષથી જુદી જુદી
ટીમોના ફાસ્ટ બોલરોની લાઇન અને લેન્થ ઉત્તરોત્તર સુધરી રહી છે. અથવા તો,
ફાસ્ટ બોલરોનું બ્રહ્માસ્ત્ર છીનવાઇ જતાં પોતાની લઇન અને લેન્થ સુધારવાની તેને
ફરજ પડી છે.</p>

<p>ડગ્લાસ જાર્ડીનની ઇંગ્લીશ ટીમ
દ્વારા ૬૦ વર્ષ અગાઉ હેરોલ્ડ લારવૂડના સથવારે સર ડોન બ્રેડમેનની ઓસ્ટ્રિલિયન 
 
 
<gap desc="illustration"></gap>ટીમ પર ઘાતક બાઉન્સરોનો મારો
ચલાવીને સર્જાયેલી બોડી લાઇન સીરીઝથી શરૂ કરીને છેક ૧૯૭૦ના દસકાના અંત સુધી
છુટોછવાયો આવો સીલસીલો ચાલુ રહ્યો હતો. જેમાં ઓવરદીઠ કેટલા બાઉન્સર નાખવા
તેની કોઇ મર્યાદા ન હોવાથી આ ૩૦ વર્ષોમાં જુદા જુદા સમયે વેસ્લી હોલ, ચાર્લી
ગ્રીફીથ, રે લીન્ડવોલ, કીથ મીલર, એન્ડી રોબર્ટસ, માઇકલ હોલ્ડીંગ, જોએલ ગાર્નર,
કોલીન ક્રોફટ, જેફ થોમસન, લેન પાસ્કો, ડેનિસ લીલી, બોબ વીલીસ, ઈમરાનખાન, સરફરાઝ
નવાઝ વગેરેએ બાઉન્સરોનો વ્યાપક ઉપયોગ કર્યો હતો. જેમાં બાઉન્સરની સાથે લાઇન અને
લેન્થની પણ સાતત્ય ડેનિસ લીલી, માઇકલ હોલ્ડીંગ અને ઇમરાનખાન જેવા જૂજ બોલરો જ જાળવી
શક્યા હતા.</p>

<p>બાકી જેફ થોમસન અને કોલીન
ક્રોફટ જેવા બોલરો બેટસમેનના માથાને નિશાન બનાવીને જ બોલ નાખતા હતા. જેના
લીધે તેમનો દડો શોર્ટ પીચ આવતો હતો. લાંબો સમય આવી બોલીંગ કરવાને
લીધે વિકેટની દિશામાં બોલ નાખવાની તેમની લાઇન અને લેન્થ પર અવળી અસર થઇ હતી.
આમ છતાં બેટસમેનોને ગભરાવીને વિકેટો જરૂર લેતા હતા.</p>

<p>૧૯૭૬માં માઇકલ હોલ્ડીંગે
કિંગ્સ્ટન જમૈકામાં ભારત સામે લોહીયાળ બોલીંગ કરીને ચાર બેટસમેનોને ઇજાગ્રસ્ત કરતાં
બાઉન્સરો પર નિયંત્રણ લાવવાની દરખાસ્ત સૌ પ્રથમ વાર આઇ.સી.સી.માં રજૂ થઇ. તેના
પરિણામે ઓવરદીઠ બે બાઉન્સરનો નવો નિયમ આવ્યો. એ પછી તેમાં પણ સુધારો
કરીને ઓવર દીઠ એક જ બાઉન્સરની માગણી થઇ. જેની સામે બોલરોએ વિરોધ
નોંધાવ્યો કે અમારું મુખ્ય શસ્ત્ર જ છીનવી લેવાની આ વાત છે.</p>

<p>આ વિવાદ વચ્ચે નવા ફાસ્ટ
બોલરોએ બાઉન્સરને બદલે સારી લાઇન અને લેન્થવાળી બોલીંગ નાખવાનો વિકલ્પ અપનાવી
લીધો. આ પધ્ધતિને લીધે તેમને વધુ વિકેટો મળવા લાગી, જેનું સૌથી
મોટું ઉદાહરણ ગ્લેન મેકગ્રાથ છે. ગૂડલેન્થ સ્પોટ પરથી આવતો એનો દડો રમવો ખરેખર
અઘરો છે. તેમાંય સૌથી મહત્ત્વની બાબત તો એ છે કે તે સળંગ ૧૦ ઓવર નાખે, તોય
૬૦માંથી ૫૫ દડા એક જ સ્પોટ પર ફેંકી શકે છે. ગૂડલેન્થ સ્પોટ પરથી ઉછળીને ચેસ્ટ હાઇટ
પર આવતા તેના દડાને પારખવામાં છેલ્લા ૧૦ વર્ષમાં કેટલાય ટોપકલાસ બેટસમેનો નિષ્ફળ
ગયા છે અને સ્લીપમાં કેચ ધરી દીધા છે. એલન ડોનાલ્ડ અને શોન પોલોક પણ
કક્શામાં આવે છે. કર્ટલી એમ્બ્રોસ અને કોર્ટની વોલ્શ પણ બાઉન્સરના બદલે લાઇન અને
લેન્થના બાદશાહો હતા. વાસીમ અકરમ પણ આ જ કક્શામાં આવે. પરંતુ ગ્લેન મેકગ્રાથે બહુ
ઓછા સમયમાં અને લેન્થ પર અભૂતપૂર્વ કાબૂ મેળવ્યો હતો.</p>

<p>બાઉન્સરો પર જો નિયંત્રણો ન
આવ્યા હોત તો કદાચ મેકગ્રાથ આટલો એક્યુરેટ ન હોત અને બાઉન્સરોનો જ મારો
ચલાવતો હોત. આમ, બાઉન્સરોનું બ્રહ્માસ્ત્ર એકંદરે છીનવાઇ જવા છતાં લાઇન અને લેન્થનું
નવું શસ્ત્ર છેલ્લા બે દાયકાના બોલરોને મળ્યું છે.</p>

<p>લેટ કટ</p>

<p>ઈજાગ્રસ્ત સચિન અને ફ્રેકચર
ભારતીય ટીમને!</p>




<p><head>કોમેન્ટરી</head></p>

<p><head>સચિન તેંડુલકરની એક વધુ વન
ડે સિદ્ધિ</head></p>

<p>ચોથી જુલાઇ ૨૦૦૧ના રોજ
હરારે સ્પોર્ટસ કલબ ખાતે રમાયેલ કોકાકોલા કપની અંતિમ લીગ મેચમાં ભારતના લીટલ
માસ્ટર સચિન તેડૂંલકરે ૧૩૧ દડામાં ૧૨ ચોગ્ગા અને એક છગ્ગાની મદદથી પોતાની ૨૯મી
વનડે સદીના સ્વરુપે ૧૨૨ રન નોંધાવ્યા આ રમત દરમ્યાન તેણે ૭૬ રન નોંધાવ્યા
ત્યારે વેસ્ટ ઇન્ડીઝ સામે પોતાની ૨૮મી વનડે રમતાં હજાર રન પુરા કર્યા. વેસ્ટ ઇન્ડીઝ સામે
હજાર રન કરનાર તે વિશ્વનો નવમો અને ભારતનો પ્રથમ ખેલાડી બન્યો અગાઉ ભારત તરફથી
ભૂતપૂર્વ સુકાની મહંમતદ અઝરૂદ્દીને ૪૬ મેચમાં ૯૯૮ રન નોંધાવ્યા હતાં.</p>

<p>પાકિસ્તાન-ઓસ્ટ્રેલિયા
આગળ</p>

<p>છેલ્લા ત્રીસ વર્ષથી રમાતી વન
ડે ક્રિકેટમાં અત્યાર સુધી રમાયેલ ૧૭૩૪ મેચમાં પંદર દેશ ભાગ લઇ ચુક્યા છે. આ
પંદર દેશના બારસોથી વધુ ખેલાડી વનડે મેચો રમી ચુક્યા છે. આ પૈકી માત્ર ૩૫ ખેલાડી
એવા છે જેમણે કોઇ એક દેશ સામે રમતાં હજાર રન નોંધાવ્યા હોય. આમાં સૌથી
વધું પાકિસ્તાન અને ઓસ્ટ્રેલિયાના સાત સાત ખેલાડી કોઇ એક દેશ સામે હજારથી વધુ રન
બનાવી ચૂક્યા છે. ત્યારબાદ વેસ્ટ ઇન્ડીઝ અને શ્રીલંકાના છ છ ભારત અને દ.આફ્રિકાના ત્રણ ત્રણ
તથા ન્યુઝીલેન્ડના બે અને ઇંગ્લેંડના એક ખેલાડી આવી સિદ્ધિ નોંધાવી ચૂક્યા છે
વનડે ક્રિકેટના જન્મદાતા ઇંગ્લેંડનો આ દેખાવ થોડુંક આશ્ચર્ય અવશ્ય કરાવે છે.</p>

<p>સચિનની સાત દેશ સામે
સિદ્ધિ</p>

<p>જો પાંત્રીસ ખેલાડીએ કોઇ
એકજ દેશ સામે હજારથી વધુ રન નોંધાવ્યા છે તે પૈકી ભારતના સચિન તેંડુલકરે એક
એવો વિશ્વ વિક્રમ કર્યો છે જે કદાચ કોઇ ખેલાડી તોડી નહીં શકે તેણે ઇંગ્લેંડ તથા
બંગલાદેશ કે જેહો હજુ હમણાં જ ટેસ્ટ ક્રિકેટ રમવાની શરૂઆત કરી છે તે બાદ કરતાં સચિને
બાકીના સાતેસાત દેશ સામે હજારથી વધુ રન નોંધાવ્યા છે. સચિવના આ વિક્રમની સૌથી
નજીક ઓસ્ટ્રેલિયાનો સુકાની સ્ટીવ વોઘ છે તેણે પાંચ દેશ સામે આ સિદ્ધિ મેળવી છે.
ત્યારબાદ ચાર ખેલાડી એવા છે જેમણે ચાર દેશ સામે, સાત ખેલાડીએ ત્રણ દેશ સામે તથા
અગીયાર ખેલાડીએ બે અને એક દેશ સામે હજારથી વધુ રન નોંધાવ્યા છે.</p>

<p>હેઇન્સનો અનોખો વિક્રમ</p>

<p>જયારે એક જ દેશ સામે હજારથી
વધુ રન કરનાર ખેલાડીએની ચર્ચા થાય ત્યારે એક જ દેશ સામે સૌથી વધુ રન કરનાર ખેલાડી
વિષે પણ જાણવાની ઇચ્છા અવશ્ય થાય. અત્યાર સુધીમાં ચાર ખેલાડીઓ એક જ દેશ સામે
બે હજાર કે તેથી વધુ રન પાંચ વખત નોંધાવ્યા છે જે પૈકી વેસ્ટ ઇન્ડીઝના ઓપનર
ડેસમંડ હેઇન્સે પાકિસ્તાન સામે નોંધાયેલ ૨૩૯૦ રન એ એકજ દેશ સામે સૌથી વધુ
રનો વિક્રમ છે. એટલું જ નહીં હેઇન્સે ઓસ્ટ્રેલિયા સામે પણ ૨૨૬૨ રન નોંધાવ્યા
છે. જે ઓસ્ટ્રેલિયા સામે પણ કોઇપણ ખેલાડીઓ શ્રેષ્ઠ સ્કોર છે. હેઇન્સ વિશ્વનો એકમાત્ર
ખેલાડી છે. જેણે બે અલગ દેશ સામે બેહજારથી વધુ રન નોંધાવ્યા છે. હેઇન્સ સિવાલ
બીજો એક ખેલાડી સઇદ અનવર છે. જેણે પણ બે દેશ સામે સૌથી વધુ રન નોંધાવ્યા છે
સઇદે શ્રીલંકા સામે ૨૦૭૦ અને ભારત સામે ૧૯૦૧ રન નોંધાવ્યા છે. આ સિવાય ટેસ્ટ
ક્રિકેટ રમતા દેશો સામે સૌથી વધુ રન ખેલાડીઓ અને તેમના નામ આ પ્રમાણે છે. જાવેદ
મીયાંદાદ વેસ્ટઇન્ડીઝ સામે ૧૯૩૦ વિવિયન રીચર્ડઝ ઇંગ્લેંડ સામે ૧૬૧૯, સ્ટીવ વોઘ
દ.આફ્રિકા સામે ૧૪૫૫, માર્ક વોઘ ન્યુઝીલેન્ડ સામે ૧૩૪૦ અને સચિન તેંડુલકર ઝીમ્બાબ્વે
સામે ૧૨૪૨.</p>

<p>ભારત વધુ અનુકૂળ</p>

<p>ક્રિકેટ રમતા દેશોમાં ભારત
એક એવો દેશ છે જેની સામે ખેલાડીઓ સરળતાથી રન બનાવી જાય છે. વનડેમાં પણ સૌથી
વધુ સોળ ખેલાડીઓ ભારત સામે હજારથી વધુ રન નોધાવ્યા છે. </p>

<p>ત્યારબાદ અનુક્રમે ઓસ્ટ્રેલિયા
સામે ૧૫, પાકિસ્તાન સામે ૧૪, વેસ્ટ ઇન્ડીઝ શ્રીલંકા અને ન્યૂઝીલેન્ડ સામે નવ, દ.આ.સામે
પાંચ ઇંગ્લેંડ સામે ત્રણ અને ઝીમ્બાબ્વે સામે બે (બંને) ભારતીયો ખેલાડીએ હજારથી વધુ
રન નોંધાવ્યા છે.</p>

<p>અઝહરની કમનસીબી !</p>

<p>મારા આ લેખના અંતમાં
ભૂતપૂર્વ સુકાની અઝહરને પણ યાદ કરવો પડે તેમ છે. ચાર દેસ સામે હજારથી વધુ રન કરનાર
અઝહરે વે.ઇ.સામે ૯૯૮, ઓસ્ટ્રેલિયા સામે ૯૯૨ અને ઇંગ્લેંડ સામે ૯૯૧ રન
નોંધાવ્યા છે. મેચ ફીકસીંગના વિવાદના કારણે જો તેની કારકિર્દીનો અકાળે અંત ન
આવ્યો હોત તો અઝહર પણ સાત દેશ સામે હજાર રન કરનાર પ્રથમ ખેલાડી બન્યો હોત. સાથે
આપેલ કોઠામાં ત્રણ કે તેથી વધુ દેશ સામે હજારથી વધુ રન કરનાર ખેલાડીઓની યાદી
આપી છે.</p>




<p><head>અઠવાડિક ભવિષ્ય</head></p>

<p><head>તા.૨૯-૭-૨૦૦૧ રવિ.થી
તા.૪-૮-૨૦૦૧ શનિ સુધી</head></p>

<p>મેષ (અ. લ. ઇ.)</p>

<p>સપ્તાહના પ્રારંભે શારીરિક-માનસિક
અસ્વસ્થતા અનુભવો, ઘરના પરિવારના કામના લીધે ચિંતા-ઉચાટ રહે, ખર્ચમાં
વધારો થાય. નોકરી-ધંધાના કામકાજમાં સાનુકૂળતા રહે. નોકરીમાં
રાહત જણાય. ધંધામાં આવક થાય સગા-સંબંધી મિત્રવર્ગથી ફાયદો લાભ
મેળવી શકો. યાત્રા-પ્રવાસ મુલાકાતનું આયોજન ગોઠવાય પરંતુ બહારનું ખાવા-પીવામાં,
હરવા-ફરવામાં આરોગ્યની કાળજી રખાય. વાહન શાંતિથી, ધીમેથી ચલાવવું, સ્ત્રીવર્ગને
ચિંતા પછીથી રાહત બહાર કે બહારગામ જવાના પ્રશ્નમાં ચિંતા ઉચાટ રહે. તા. ૨૯
વ્યગ્રતા-બેચેની, ૩૦ શાંતિથી કામકાજ કરવું, ૩૧ ઉતાવળિયો નિર્ણય કરવો નહીં, ૧ મહત્ત્વનું
કામ મુલત્વી રાખવું, ૨ કામમાં સફળતા, ૩ સારી, ૪ આનંદ-ઉત્સાહ રહે, વિદ્યાર્થીબંધુને
મિત્રવર્ગથી આનંદ રહે.</p>

<p>વૃષભ (બ. વ. ઉ.)</p>

<p>આ સપ્તાહમાં સારા-નબળા
અનુભવમાંથી પસાર થવું પડે એક દિવસ આનંદ ઉત્સાહમાં પસાર થાય અને એક દિવસ શારીરિક,
માનસિક, આર્થિક-ચિંતા તકલીફમાંથી પસાર કરવો પડે. વાહન શાંતિથી ધીમેથી
ચલાવવું, સીઝનલ ધંધામાં હરિફવર્ગનો સામનો કરવો પડે. ભાવકાપની
હરિફાઈમાં નફો ઓછો થાય અથવા નુકસાની જાય. કાપડના ધંધામાં આકસ્મિક
ઘરાકી આવી જાય. ખાણીપીણીના ધંધામાં આવક થાય. ટ્રાવેલ્સના
ધંધામાં આવક થાય પરંતુ તકલીફ અનુભવવી પડે. સ્ત્રી વર્ગને આનંદ-ઉત્સાહ રહે.
પિયરપક્શથી લાભ થાય, મિત્રવર્ગને મળવાનું થાય. તા. ૨૯ કામકાજમાં પ્રગતિ, ૩૦ સારી, ૩૧
શાંતિ રાખવી, ૧ મહત્ત્વનું કામ મુલત્વી રાખવું, ૨ તન-મન-ધનથી વાહનથી સંભાળવું, ૩
કામકાજમાં સફળતા, ૪ આનંદ-ઉત્સાહ રહે. વિદ્યાર્થીબંધુને મિત્રવર્ગને મળવાનું થાય.</p>

<p>મિથુન (ક. છ. ઘ.)</p>

<p>કાર્યસફળતા, યાત્રાપ્રવાસ, મિલન
મુલાકાતથી હ્ય્દય-મન પ્રફુલ્લિત રહે ભાઈભાંડુ, સગા-સંબંધી મિત્રવર્ગના કામકાજમાં
સાનુકૂળતા રહે. જેમને યાદ કરતા હોવ તેમને મળવાનું થાય. ધંધામાં આવક
થાય, ઉઘરાણીના નાણાં આવવાથી રાહત રહે, ખર્ચ કરી શકો. વિલંબમાં પડેલ કામ ઉકેલાય
કમિશન-દલાલી, એજન્સીના ધંધામાં, ટ્રાવેલ્સના ધંધામાં, મકાન
બાંધકામના ધંધામાં આવક થાય, શેરોના કામકાજમાં સાનુકૂળતા રહે.
રાજકીય, સહકારી કામમાં, નોકરીમાં અન્યના સહકારથી, ઉપરી વર્ગથી, ચિંતા હળવી થાય.
સ્ત્રી વર્ગને ન ધારેલી સફળતા, લાભ, તા. ૨૯ સાનુકૂળતા, ૩૦ સારી, ૩૧ માનસિક
પરિતાપ, ૧ ઉતાવળિયો નિર્ણય કરવો નહીં, ૨ હર્ષ-લાભ, ૩ વ્યગ્રતા-ઉચાટ, ૪ શાંતિથી
ધીરજથી કામકાજ કરવું, વિદ્યાર્થીબંધુને આનંદ-ઉત્સાહ રહે.</p>

<p>કર્ક (ડ. હ.)</p>

<p>માનસિક પરિતાપ-ચિંતા છતાં
તમે તમારા કાર્યમાં વ્યસ્ત રહી શકો. સગા-સંબંધી મિત્રવર્ગની ચિંતા રહે તેમ છતાં
આકસ્મિક આગમન, યાત્રા-પ્રવાસ, મિલન-મુલાકાતમાં આનંદ અનુભવો નોકરી
ધંધાના કામમાં રાહત રહે, નવું કોઈ આયોજન ગોઠવવું હોય તો તે અંગેની
ચર્ચા-વિચારણા થાય નોકરી માટેની ચર્ચા-વિચારણા થાય. પત્ની, પુત્ર-પૌત્રાદિકથી પરિવારથી
આનંદ રહે, ખર્ચ-ખરીદી થાય, સ્ત્રીવર્ગને પતિ, સંતાનની ચિંતા રહે પરંતુ મહત્ત્વના નિર્ણયમાં
સહમતીથી રાહત રહે. તા. ૨૯ અનુકૂળ, ૩૦ સારી, ૩૧ વાણીની સંયમતા, ૧ નોકરી
ધંધામાં સંભાળવું, ૨ કામકાજમાં પ્રગતિ, ૩ હર્ષ લાભ, ૪ આનંદ-ઉત્સાહ રહે,
વિદ્યાર્થીબંધુને મિત્રવર્ગની ચિંતા પછી રાહત.</p>

<p>સિંહ (મ. ટ.)</p>

<p>આપને આપના પરિવારના,
કુટુંબના પ્રશ્નમાં ચિંતા-ખર્ચ, બેચેની-ઉચાટ રહ્યા કરે. પરંતુ ધીરજથી, શાંતિથી
નિર્ણય કરવામાં કામનો ઉકેલ લાવવાનો પ્રયત્ન કરો તો ચિંતા હળવી થઈ જાય તેમજ સફળતા પણ
પ્રાપ્ત કરી શકો. ધંધાકીય કોઈ જોખમ વધારવું નહિ સીઝનલ
ધંધામાં માલનો ભરાવો કરવો નહીં. મિત્ર વર્ગની વાતોથી એકદમ પ્રભાવિત થઈ
જવું નહીં. નોકરીમાં નાણાંકીય જવાબદારીવાળા કામમાં, લેવડદેવડમાં રાજકીય, સરકારી,
ખાતાકીય કે બેંક કાર્યવાહીમાં સંભાળવું પડે. સ્ત્રી વર્ગને પતિ-સંતાનના પ્રશ્નમાં, પિતૃ
પક્શની ચિંતા રહે. તા. ૨૯ બેચેની વ્યગ્રતા,, ૩૦ હ્ય્દય-મનને શાંતિ જણાય નહીં, ૩૧ શાંતિથી
દિવસ પસાર કરવો, ૧ વાણીનં સંયમતા રાખવી, ૨ કામકાજમાં પ્રગતિ, ૩ યાત્રાપ્રવાસ મુલાકાત,
૪ આનંદ-ઉત્સાહ રહે. વિદ્યાર્થીબંધુને મિત્રવર્ગની ચિંતા રહ્યા કરે.</p>

<p>કન્યા (પ. ઠ. ણ.)</p>

<p>આપને એક દિવસ સારો પસાર
થાય અને એક દિવસ ચિંતા બેચેનીમાં પસાર કરવો પડે ઓચિંતા બહારગામ જવાનું થાય ખર્ચ
થાય નોકરી ધંધાના કામમાં રાહત રહે ધંધામાં આવક થાય પરંતુ
આવેલો ગ્રાહક પાછો જવાથી આવકમાં ઘટાડો થાય અથવા હરીફ વર્ગનો સામનો કરવો પડે.
ભાઈભાંડુ, સગા-સંબંધી વર્ગના લીધે ચિંતા રહે. વિવાદજન્ય પ્રશ્નમાં તમે બેચેની
અનુભવ્યા કરો. અન્યની ડખલગીરીના લીધે તમારે સાવધાની રાખવી પડે. ઘરના,
પરિવારના કામકાજમાં સાનુકૂળતા રહે. સ્ત્રી વર્ગને પતિ સંતાનથી આનંદ રહે.
ધર્મકાર્ય થઈ શકે, તા. ૨૯ સારી, ૩૦ સાનુકૂળતા, ૩૧ સાધારણ, ૧ ચિંતા ઉચાટ
રહે, ૨ મધ્યમ, ૩ ધીરજ-શાંતિથી કામકાજ કરવું, ૪ ચિંતા વ્યગ્રતા, વિદ્યાર્થીબંધુને
મિત્રવર્ગથી ચિંતા રહે.</p>

<p>તુલા (ર. ત.)</p>

<p>આ સપ્તાહમાં આપને
ધાર્યું કામકાજ થઈ શકે. નોકરીમાં યશ-પ્રતિષ્ઠા, સફળતા મળે. ખાતાકીય કાર્યવાહી
ચાલતી હોય તો તેમાં આપની તરફેણમાં ચુકાદો આવે. પ્લાસ્ટિક, રબરની ચીજવસ્તુના
વેચાણમાં ઘરાકી આવી જાય. સીઝનલ ધંધામાં માલનો ભરાવો કરવો નહિ.
ધર્મકાર્ય, શુભકાર્યનું આયોજન થઈ શકે. શરદી, દમ, ખાંસીની તકલીફમાં આપે
સંભાળવું પડે. સ્ત્રી વર્ગને પિયર પક્શના સ્વજનોને મળવાથી આનંદ-ઉત્સાહ રહે.
યાત્રા-પ્રવાસનું આયોજન થઈ શકે. પેઢુ-ગર્ભાશયના રોગોમાં પીડામાં રાહત જણાય.
વિદ્યાર્થીબંધુને પડવા વાગવા, વાહન અકસ્માતથી સંભાળવું, તા. ૨૯ સારી, તા. ૩૦
કાર્યસફળતા, ૩૧ યશ-પ્રતિષ્ઠા વધે, ૧ વિવાદથી સંભાળવું, ૨ ઠીક, ૩ વાહન-અકસ્માતથી
સંભાળવું, ૪ મધ્યમ.</p>

<p>વૃશ્ચિક (ન. ય.)</p>

<p>આ સપ્તાહમાં આપને
સારા-નબળા અનુભવોમાંથી પસાર થવું પડે. નોકરી-ધંધામાં માનસિક તણાવ રહ્યા
કરે. હરિફ વર્ગ-ઈર્ષાળુ વર્ગની ખટપટને લીધે આપને શાંતિ જેવું જણાય નહિ.
ધંધામાં સીઝનલ ઘરાકીને લીધે આવક રહે પરંતુ માલને નુકસાનીથી
સંભાળવું પડે. જેમને મસા, ભગંદરની તકલીફ હોય તેમને પીડા વધુ જણાય. માથાના
દુ:ખાવા, ચક્કરની તકલીફ હોય તેમણે હરવા-ફરવામાં સંભાળવું પડે. સ્ત્રી વર્ગને
આપ્તજનોને મળવાથી હર્લ્લાસ રહે પરંતુ ઘરના કામકાજમાં પડવા-વાગવાથી, દાઝી જવાથી
સંભાળવું, વિદ્યાર્થીબંધુને વાંચનમાં એકાગ્રતા જળવાય નહી ઇર્ષાળુ મિત્રોથી સંભાળવું,
તા. ૨૯ માનસિક પરિતાપ, ૩૦ શાંતિથી દિવસ પસાર કરવો, ૩૧ હર્ષ-લાભ, ૧ સફળતા, ૨
આકસ્મિક ધનલાભ, ૩ સારી, ૪ યાત્રા-પ્રવાસ થાય.</p>

<p>ધન (ભ. ધ. ફ.
ઢ.)</p>

<p>આ સપ્તાહમાં આપે શાંતિથી
દિવસો પસાર કરી લેવા, શારીરિક-માનસિક આધિ-વ્યાધિના ચક્કરમાં આપ એવા
ફસાયા કરો કે શું કરવું શું ન કરવું તેની સૂઝ પડે નહીં નોકરિયાક વર્ગને
સહકર્મચારીની ગેરહાજરીને લીધે વધુ કાર્યબોજ રહે. ધંધામાં માલની
ગુણવત્તાના પ્રશ્ને સરકારી ખાતાકીય તપાસ આવી જાય. શેરોમાં કે અન્યત્ર નાણાંકીય રોકાણ
કરતાં પહેલાં પૂરતો વિચાર કરી રોકાણ કરવું. લોન લેવાની હોય તો તેમાં સફળતા
મળે. સ્ત્રીવર્ગને આ સપ્તાહમાં ધીરજથી કામકાજ કરવું, વાદ-વિવાદ, ઉશ્કેરાટમાં
સાસુ-નણંદ સાથે મનદુ:ખ ન થાય તેનું ધ્યાન રાખવું. વિદ્યાર્થીબંધુને તબિયતની કાળજી
રાખવી, તા. ૨૯ ખર્ચ વધુ રહે, તા. ૩૦ કોર્ટ કચેરીના પ્રશ્ને ઉતાવળ ન કરવી, ૩૧ માનસિક
પરિતાપ, ૧ સાધારણ, ૨ ધનલાભ, ૩ કાર્યસફળતા મળે, ૪ મધ્યમ.</p>

<p>મકર (ખ. જ.)</p>

<p>આપને કાર્યસફળતા મળે
વિલંબમાં પડેલ એકાદ-બે કામ સફળ થવાથી આપના આનંદ-ઉત્સાહમાં વધારો થાય.
નોકરીમાં બઢતી કે બદલીના પ્રશ્નમાં આપને સફળતા મળે. ડેપ્યુટેશન ઉપર બહારગામ ગયા હોવ
તો મૂળ સ્થાને પાછા આવી શાય, ધંધામાં આવક થાય. સીઝનલ ચીજવસ્તુઓ,
સીમેન્ટ, રેતી, બિલ્ડીંગ મટીરીયલ્સના ધંધામાં સારો ઓર્ડર મળવાથી આપને
આવક થાય. સાંધાના દુ:ખાવાની તકલીફમાં પીડા જણાય. સ્ત્રી વર્ગને મોસાળ
પક્શથી લાભ થાય વડીલ સ્વજનોને મળવાથી આનંદ રહે. પતિ-સંતાનનો સહકાર મળવાથી અશક્ય
કામ શક્ય બને વિદ્યાર્થીબંધુને સફળતા, તા. ૨૯ લાભ, ૩૦ કાર્યસફળતા, ૩૧ માનસિક પરિતાપ, ૧
આકસ્મિક ખર્ચ, ૨ સાધારણ, ૩ યાત્રા-પ્રવાસ, ૪ સાનુકૂળતા રહે.</p>

<p>કુંભ (ગ. સ. શ. ષ.)</p>

<p>આ સપ્તાહમાં આપને
સાનુકૂળતા રહે નોકરી-ધંધામાં રૂકાવટ-મુશ્કેલીમાં પડેલા કામનો ઉકેલ
આવવાથી રાહત રહે. અન્યનો સાથ-સહકાર મેળવી શકે. આપના કામની કદર થાય. સંયુક્ત
ધંધામાં ભાઈભાંડુનો સાથ સહકાર મળી રહે સીઝનલ ધંધામાં આવક
થાય મિલન-મુલાકાત થઈ શકે સપ્તાહના અંતમાં ખર્ચ-ખરીદી જણાય સ્ત્રી વર્ગને પતિ-સંતાનની
ચિંતા અનુભવાય તા. ૨૯ સારી, ૩૦ કામકાજમાં સફળતા, ૩૧ મધ્યમ, ૧ હર્ષ-લાભ, ૨
સાનુકુળતા, ૩ ધર્મકાર્ય-શુભકાર્ય, ૪ મિલન મુલાકાતથી વિદ્યાર્થીબંધુને સારૂં.</p>

<p>મીન (દ. ચ. ઝ. થ.)</p>

<p>આ સપ્તાહમાં આપની
ગણત્રી-ધારણા પ્રમાણેનું કામકાજ થવાથી આપને આનંદ થાય. કામ કરવાનો ઉત્સાહ રહે.
દેશ-પરદેશના કામકાજમાં પ્રગતિ સાનુકૂળતા જણાય. ધંધાની આવકમા વધારો
થાય સંતાનના પ્રશ્નમાં આપની ચિંતા-મુશ્કેલી હળવી થતી જાય. ધર્મકાર્ય-શુભકાર્યથી
હ્ય્દય-મન પ્રસન્નતા અનુભવે મિલન મુલાકાત થાય. જૂના સંબંધો તાજા થાય તા. ૨૯
યાત્રા-પ્રવાસ, ૩૦ કાર્યસફળતા, ૩૧ કામકાજની વ્યસ્તતા રહે ૧ સારી, ૨ હર્ષ-લાભ, ૩ મધ્યમ, ૪
સાનુકૂળ સ્ત્રીવર્ગને કામકાજમાં સળતા, વિદ્યાર્થીબંધુએ અભ્યાસમાં ધ્યાન આપવું.</p>

<p>જન્મ તારીખ
વર્ષ સંકેત</p>

<p>(તા. ૨૯
જુલાઈ તા. ૪ ઓગસ્ટ)</p>

<p>તા. ૨૯ જુલાઈ</p>

<p>આજથી શરૂ થઈ રહેલું આપનું
જન્મવર્ષ સારા-નબળા અનુભવોમાંથી પસાર કરવું પડે. નોકરી-ધંધામાં
આરોહ-અવરોહની પરિસ્થિતિ રહે. જોખમી નિર્ણયો કરવા નહિ.</p>

<p>તા. ૩૦ જુલાઈ</p>

<p>આજની તારીખે શરૂ થઈ રહેલું
આપનું જન્મવર્ષ સંઘર્ષમાં પસાર થાય બિનજરૂરી આકસ્મિક વધારાના ખર્ચના લીધે
આપને નાણાંકીય ચિંતા-મુંઝવણ અનુભવાય. પુત્ર-પૌત્રાદિકની ચિંતા રહે,
નોકરી-ધંધામાં સંભાળવું પડે.</p>

<p>તા. ૩૧ જુલાઈ</p>

<p>આજથી શરૂ થતું આપનું
જન્મવર્ષ એકંદરે સાનુકૂળ રહે અવિવાહિતને વિવાહ લગ્નનું નક્કી થાય જેમને સંતાન થવામાં
વિલંબ થયો હોય તેમને સંતાન સુખની પ્રાપ્તિ થાય નોકરી ધંધામાં લાભ મેળવી
શકો.</p>

<p>તા. ૧ ઓગસ્ટ</p>

<p>આજથી શરૂ થતું આપનું
જન્મવર્ષ લાભદાયી રહેશે નોકરી ધંધામાં આવક થાય, નવું કોઈ આયોજન
ગોઠવાય પરિવાર, ઘરની કુટુંબની ચિતા હળવી થાય. પત્ની-સંતાનને લાભ થાય આરોગ્યની
સુખાકારી એકંદરે સારી રહે.</p>

<p>તા. ૨ ઓગસ્ટ</p>

<p>આજની તારીખે શરૂ થઈ રહેલું
આપનું જન્મવર્ષ ભાગ્યોદય-પ્રગતિ માટે સાનુકૂળ જણાય. નોકરી-ધંધાની ચિંતા
હળવી થતી જાય, તમારી આવકમાં વધારો થાય. શુભકાર્ય-ધર્મકાર્ય, યાત્રા-પ્રવાસ
દેશ પરદેશનું કામ થઈ શકે.</p>

<p>તા. ૩ ઓગસ્ટ</p>

<p>તમારા આજથી શરૂ થઈ રહેલા
જન્મવર્ષનો પ્રારંભ રૂકાવટ-ચિંતાવાળો જણાય પરંતુ છેવટે તમારી કાર્યસફળતાથી આનંદ પ્રાપ્ત
કરી શકો. વ્યવહારિક - સામાજિક પ્રશ્નનો ઉકેલ આવે. નોકરી-ધંધામાં પ્રગતિ
જણાય, ક્શણિક લાભ મળી જાય.</p>

<p>તા. ૪ ઓગસ્ટ</p>

<p>આજથી શરૂ થતું આપનું
જન્મવર્ષ લાભદાયી રહે. નોકરીમાં બદલી-બઢતીનો પ્રશ્ન ઉકેલાય, ફેરફારો થાય
ધંધામાં રૂકાવટ આવેલી દૂર થાય. નવા ગ્રાહકવર્ગના લીધે નાણાંકીય
ચિંતા-મુંઝવણ ઓછી થાય. ધર્મકાર્ય થઈ શકે.</p>

<p>યુવાન-તરુણો
માટે ગ્રહફળ</p>

<p>તા.
૨૯-૭-૨૦૦૧થી તા. ૪-૮-૨૦૦૧ સુધી</p>

<p>મેષ (અ. લ. ઇ.)</p>

<p>યાત્રા - પ્રવાસ, મિલન -
મુલાકાતથી આનંદ ઉત્સાહ રહે.</p>

<p>વૃષભ (બ. વ. ઉ.)</p>

<p>એક-બે દિવસ સાનુકૂળતા
સફળતા જણાય તો એક-બે દિવસ રૂકાવટ મુશ્કેલી રહે.</p>

<p>મિથુન (ક. છ. ઘ.)</p>

<p>કામકાજની વ્યસ્તતા,
દોડધામને લીધે આપના સ્વાસ્થ્ય ઉપર અસર ન થાય તેની કાળજી રાખવી.</p>

<p>કર્ક (ડ. હ.)</p>

<p>આનંદ-ઉત્સાહમાં દિવસ પસાર
કરી શકો સંતાનના પ્રશ્નમાં ચિંતા ઓછી થાય.</p>

<p>સિંહ (મ. ટ.)</p>

<p>સપ્તાહના પ્રારંભે આપને વડીલ
વર્ગની ચિંતા જણાય, મકાન-વાહનની લે-વેચમાં સાવધાની રાખવી.</p>

<p>કન્યા (પ. ઠ. ણ)</p>

<p>આપનું આ સપ્તાહ મધ્યમ પસાર
થાય.</p>

<p>તુલા (ર. ત.)</p>

<p>કૌટુંબિક પારિવારિક
કામકાજમાં દોડધામ રહે વ્યસ્તતા જણાય.</p>

<p>વૃશ્ચિક (ન. ય.)</p>

<p>આપની બુદ્ધિ-મહેનત, અનુભવથી
આવેલી મુશ્કેલીને દૂર કરી પ્રગતિ કરી શકો.</p>

<p>ધન (ભ. ધ. ફ.
ઢ.)</p>

<p>આકસ્મિક ચિંતા
દોડધામ, ખર્ચ અનુભવાય, નાણાંકીય લેવડદેવડમાં સાવધાની રાખવી.</p>

<p>મકર (ખ. જ.)</p>

<p>માનસિક પરિતાપ જણાય વાણીની
સંયમતા રાખવી.</p>

<p>કુંભ (ગ. શ. સ. ષ.)</p>

<p>નોકરી-ધંધામાં
સાનુકૂળતા પ્રગતિ જણાય, પરંતુ કોર્ટ કચેરીના પ્રશ્નોમાં સાવધાની રાખવી.</p>

<p>મીન (દ. ચ. ઝ. થ.)</p>

<p>ધર્મકાર્ય-શુભકાર્યથી
આપનું હ્ય્દય-મન પ્રસન્નતા અનુભવે યાત્રા-પ્રવાસ થાય.</p>

<p>વૃૃશ્ચિક
(ન.ય.)ને મિથુનનો ગુરૂ કષ્ટ પીડા રખાવે ?</p>

<p>તા. ૧૬ જૂન, ૨૦૦૧થી ગુરૂ
ગ્રહનું પરિભ્રમણ મિથુન રાશિમાં શરૂ થયું છે. તા. ૫-૭-૨૦૦૨ સુધી ગુરૂ મિથુન
રાશિમાં રહેતા આપ આઠમા ગુરૂના બંધનમાં જકડાયેલા રહેશો તેમાં પણ તા.
૧૬-૨-૨૦૦૨ સુધી ચાંડાલ યોગના બંધનમાં રહેતા આપને દિવસ ઉગે ને એમ થાય
કે આજનો દિવસ કેવો જશે ?</p>

<p>જેમની જન્મ કુંડળીમાં વૃશ્ચિક
લગ્ન હોય તેમને પણ જુલાઈ ૨૦૦૨ સુધીનો સમય નાની-મોટી તકલીફ, ચિંતામાંથી પસાર
કરવો પડે.</p>

<p>જેમની પેઢી, દુકાન-સંસ્થા,
ઓફિસ ધંધો ન. ય. અક્શરથી શરૂ થતો હોય તેમને ધંધામાં ન
ધારેલી મુશ્કેલી, ચિંતા, ઉપાધિમાંથી બહાર નીકળવા માટે
સલામતી-સાવધાનીપૂર્વક ધંધો કરવો પડે.</p>

<p>- જેમનું જન્મવર્ષ ૨૪, ૩૦,
૩૨, ૩૪, ૩૬, ૪૦, ૪૨, ૪૪, ૫૦, ૫૨, ૫૪, ૫૬, ૫૭, ૫૮, ૬૦, ૬૨, ૬૪, ૬૬, ૬૮ ફેબ્રુઆરી
૨૦૦૨ સુધીમાં પસાર થતું હોય કે શરૂ થવાનું હોય તેમણે વિશેષ તકલીફ-ચિંતાનો
સામનો કરવો પડે.</p>

<p>- જેમનું ધંધાનું
વર્ષ ૨, ૪, ૬, ૮, ૧૨, ૧૪, ૧૬, ૧૮, ૨૦, ૨૪મું વર્ષ મિથુનના ગુરૂ દરમ્યાન પસાર થતું
હશે તેમને ધંધાકીય પ્રશ્નોમાં નાણાંકીય વ્યવહારોમાં, ભાગીદારોમાં દેવાની
પરિસ્થિતિમાં, કોર્ટ-કચેરી, રાજકીય, સરકારી કે અન્ય ખાતાકીય તપાસ વિવાદના ચક્કરમાં
મુશ્કેલી વધતી જાય. ધંધો બંધ કરવો પડે કે દેવામાં વધારો
થાય.</p>

<p>- મિથુનના ગુરૂ દરમ્યાન આપે
આરોગ્યની કાળજી રાખવી પડે. સામાન્ય બિમારી વધી જાય, શસ્ત્રક્રિયા કરાવવી પડે.
વાહનથી, લપસી પડવાથી સંભાળવું પડે. જેમને બી. પી. ડાયાબીટીસ, કેન્સર કે અસાધ્ય
રોગની બિમારી હોય તેમને દર્દ પીડા વધે, ખર્ચ વધે.</p>

<p>- મિથુનના ગુરૂ દરમ્યાન
આકસ્મિક ખર્ચ- નાણાંભીડ વધવાને લીધે આર્થિક મુંઝવણ અનુભવાય. જેમની
જન્મકુંડળીમાં ૠણયોગ, દેવાદાર યોગ થયેલા હોય તેમને દિનપ્રતિદિન આર્થિક પ્રશ્નો વધુ
જટીલ બનતા જાય.</p>

<p>- મિથુનના ગુરૂ દરમ્યાન
પુત્ર-પૌત્રાદિકના પ્રશ્નમાં ચિંતા રહે. પરિવારના કુટુંબના પ્રશ્નોમાં ચિંતા અનુભવાય જેમને
પરદેશ જવાની કાર્યવાહી ચાલતી હોય તેમને ફેબ્રુઆરી પછીનો સમય વધુ સાનુકૂળ બનતો
જાય. ધર્મકાર્ય શુભકાર્ય થઈ શકે.</p>

<p>- સ્ત્રી વર્ગને પતિ-સંતાન,
નોકરી ધંધાના પ્રશ્નમાં ચિંતા રહે, પતિને કે તમારે નોકરી ધંધાના
કારણે દૂર રહેવાનું બને. સંતાનને પરદેશ જવાનું થાય પરંતુ સંતાનના આરોગ્યની ચિંતા
રહે.</p>

<p>- વિદ્યાર્થીબંધુને વધુ પડતા
આત્મવિશ્વાસમાં રહેવું નહીં આરોગ્યની કાળજી રાખવી. વાહનથી સંભાળવું પરીક્શા સમયે બીજાના
કારણે તકલીફમાં ન મૂકાવ તેની સાવધાની રાખવી. મિત્રવર્ગની વાતોથી પ્રભાવિત થઈ
જવું નહીં અજાણી વ્યક્તિની વાતોમાં આવી જવું નહીં.</p>




<p><head>લીડર</head></p>

<p><head>કેવી નઘરોળ સુરક્શા વ્યવસ્થા?</head></p>

<p>પાટનગર દિલ્હીમાં સમાજવાદી
પક્શક્શનાં સંસદસભ્ય ફૂલનદેવીની ધોળે દહાડે હત્યા પાછળ ખરેખર કોઈ રાજકીય
કાવતરું હોય કે ન હોય, પરંતુ ઉત્તર પ્રદેશમાં ગાજતી વિધાનસભાની સૂચિત ચૂંટણીના
સંદર્ભમાં તે મહત્ત્વપૂર્ણ રાજકીય મુદ્દો બની ગયા વગર રહે તેમ નથી. હત્યા થવાની સાથે જ
સમાજવાદી પક્શના અમુક નેતાઓએ તેમાં ભાજપનું રાજકીય કાવતરું હોવાનો આક્શેપ
કરીને હત્યાની તપાસ બાજુ પર રહી જાય એવાં વર્તન દેખાડવા માંડ્યા છે. તે સ્પષ્ટ સૂચવે છે
કે ફૂલનદેવીના ખૂનને આગામી ચૂંટણીમાં રાજકીય મુદ્દો બનાવવાની ગરમી તેમણે પેદા કરવા
માંડી છે. તેમાં પાટનગર દિલ્હી જેવામાં હાઈ સિક્યુરિટી ઝોન ગણાતા વિસ્તારમાં
ધોળે દહાડે આ રીતે ગમે તે વ્યક્તિની હત્યા થઈ શકે અવી જોખમી પરિસ્થિતિ પ્રવર્તતી
હોવાનો મૂળ મુદ્દો બાજુ પર ખસી જાય છે. જે વિસ્તારમાં ફૂલનદેવીની હત્યા થઈ તે
ભૌગોલિક દ્રષ્ટિએ કેવો સર્વોત્તમ સલામતી વ્યવસ્થાવાળો વિસ્તાર ગણાય તેના ગ્રાફ અખબારી
અહેવાલોએ બરાબર ઊપસાવ્યા છે. અશોક માર્ગ પર ફૂલનદેવીની હત્યા તેમના નિવાસસ્થાનની
બહાર થઈ. આ સ્થળની નજીકમાં પચાસેક મીટર છેટે ચૂંટણીપંચ બેસતું હોવાથી ત્યાં પોલીસ
કન્ટ્રોલ રૂમ ધરાવતી સ્પેશ્યલ વાન ચોવીસે કલાક ચોકી પહેરો ભરતી ખડી હોય છે.
સાતસો મીટર દૂર પોલીસ સ્ટેશન તથા ૨૦૦ મીટર દૂર ડેપ્યુટી પોલીસ કમિશનરની કચેરી
આવેલી છે. એકાદ કિલોમીટર દૂર સંસદ ભવન આવેલું છે. આજુબાજુમાં મહાનુભાવોના
નિવાસસ્થાનો તથા સરકારી ઇમારતો હોવાથી દર અર્ધો કલાકે એ વિસ્તારમાં મોબાઈલ
પોલીસનું પેટ્રોલિંગ સતત ચાલ્યા કરતું હોય છે. આવા વિસ્તારમાં ફૂલનદેવીની હત્યા
માટે તેમના આવવાની રાહ જોઈને ઊભી રહેલી મારુતિ કાર ત્યાં ક્યારની પડી હશે. છતાં
સલામતી વ્યવસ્થાપકોમાંથી કોઈને કશું અસાધારણ ન જણાયું અને કારમાંથી ઊતરીને
હત્યારાઓ ફૂલનદેવીને ધોળે દહાડે ગોળીઓ ધરબી દઈને કોઈ રિક્શામાં
ભાગી પણ છૂટ્યા! હાઇ સિક્યુરિટી ઝોનમાંયે સલામતી પ્રત્યે આવી લાપરવાહીનો સંદેશ કદાચ
આ ઘટના કરતાંયે વધારે ખતરનાક દિવસોનો ભય પેદા કરે એવો છે. પાટનગર
દિલ્હીના આ રાજકીય ચહલપહલવાળા સલામત ગણાતા વિસ્તારમાં આ હાલત હોય તો દેશના અન્ય
વિસ્તારોમાં સલામતીનો પ્રશ્ન કેવો તકલાદી બની ગયો હશે એ કહેવાની જરૂર નથી. </p>

<p>ફૂલનદેવીની હત્યાને ઉત્તર
પ્રદેશની આગામી ચૂંટણીને પાટે ચડાવી દેવાના રાજકીય પ્રયાસો થવા લાગ્યા છે. હત્યા પાછળ
કશોક રાજકીય એંગલ હોઈ શકે પણ તે તપાસનો વિષય છે. ફૂલનદેવી પૂર્વજીવનમાં ખુંખાર
ડાકુરાણી હતાં. તેમના હાથે અનેક લોકોની હત્યા થયેલી છે. તેમાંથી જન્મેલા
વેરભાવમાંથી તેમના જીવનનું આ દુ:ખદ પ્રકરણ આલેખાયું હોય તેવી શક્યતા રહેલી છે.
તેમના વકીલના કથનને ટાંકીને પોલીસ વર્તુળો દ્વારા જણાવાય છે કે ફૂલનદેવીને છેલ્લા
કેટલાય વખતથી ખૂનની ધમકીઓ મળતી હતી. જેના સંદર્ભમાં ફૂલનદેવીએ વકીલ સમક્શ ભય
વ્યક્ત કર્યો હતો કે ''મારા ભૂતકાળ સાથે સંકળાયેલ લોકો પૈકી કોઈ આવી ધમકી
ઉચ્ચારી રહ્યું હોવાનું મને લાગે છે.'' તમામ અટકળો કરતાં માણસનો અંતર આત્મા જે
વાત સંભળાવે તે વધારે વજનદાર હોય છે. એ જોતાં આ હત્યા પાછળ ફૂલનદેવીનો
ભૂતકાળ ભાગ ભજવી ગયો હોય તે દેખીતું છે. તેમના ભૂતકાળ સાથે રાજકીય, સામાજિક,
આર્થિક ઘણાં પાસાં જોડાયેલાં હોવાથી ખરેખર કયું પાસું તેમના અંત માટે જવાબદાર છે
એ તપાસનો વિષય ગણી કશા ચોક્કસ તારણ પર આવવાનું કવેળાનું લેખાય. ત્વરિત ઊપસી
આવતું સત્ય એ છે કે, દેશમાં સલામતી વ્યવસ્થા કેવી તકલાદી બની ગઈ તે અહીં બરોબર ઊપસી
આવ્યું છે.</p>

<p>અજીત
ભાજપને ઉપયોગી થશે?</p>

<p>હરિયાણાના મુખ્ય પ્રધાન
ઓમપ્રકાશ ચૌટાલાનો કટ્ટર વિરોધ છતાં રાષ્ટ્રીય લોકદળના નેતા અજીત સિંહને
વડાપ્રધાન વાજપેયીએ પોતાના પ્રધાનમંડળમાં મહત્ત્વનું પ્રધાનપદ આપીને
પોતાના પડખામાં લેવાનું મુનાસિબ સમજ્યું તેમાં ચોખ્ખું ચૂંટણી રાજકારણ છે. ઉત્તર
પ્રદેશની આગામી વિધાનસભાની ચૂંટણીમાં જાટ જ્ઞાતિના તથા લઘુમતી મતદારોના સારા
એવા મત અજીતસિંહ ખેંચી લાવે તેમ હોવાની લાલચ તેમણે આપી છે. નહિતર શ્રી ચૌટાલાને
નારાજ કરવાનું રાષ્ટ્રીય લોકશાહી જોડાણવાળી વાજપેયી સરકારને પોસાય નહિ. અજીતસિંહ
પાસે લોકસભામાં ચૌટાલા કરતાં ઘણા ઓછા સભ્યો છે. ચૌટાલાને અજિતસિંહ સામે બીજો
કોઈ વાંધો નથી. તેમાં જાટ રાજકારણ છે. જાટ નેતાગીરીમાં પોતાનાથી બીજો કોઈ
મોટો હોય તેવો દેખાવ ચૌટાલા સાંખી શકે તેમ નથી. તેથી તો તેમણે વાજપેયીને
કહ્યું હતું કે, તમારે અજીતસિંહને એનડીએ સરકારમાં લેવા હોય તો લો, પરંતુ તેમને
કૃષિ ખાતા જેવા મહત્ત્વના ખાતાના પ્રધાન બનાવતા નહિ. ચૌટાલાની આ ચીમકી છતાં
વડાપ્રધાને અજીતસિંહને ખેતીવાડી ખાતાના કેબિનેટ પ્રધાનનો દરજ્જો આપવા ખાસ
વિસ્તરણ સમારંભ પણ યોજ્યો. ચૌટાલા નારાજ થયા વગર રહે નહિ. તેઓ એનડીએનો સાથ
છોડી શકે તેમ નથી તે વડાપ્રધાન બરાબર જાણે છે. તેમ છતાં અજીતસિંહ ઉત્તરપ્રદેશની
ચૂંટણીમાં ભાજપને કેવાક ઉપયોગી થઈ શકશે તે પ્રશ્ન ગૂંચવાયેલો જ રહેશે. જાટ સમુદાયના
મતદારો પર ચૌટાલા પ્રભાવ પાડીને તેમના કેટલાક મતમાં ભાંગફોડ કરી શકે તેમ છે.
બીજું એ કે અજીતસિંહની ભાજપ સાથેની સાંઠગાંઠને લીધે તેમના લઘુમતી મતદારો
નારાજ થયા હોવાથી તેઓ પણ ઉત્તર પ્રદેશની ચૂંટણીમાં અજીતસિંહને જાકારો આપે તો
ભાજપની આ ચૂંટણીલક્શી કસરત થકવી નાખનારી બની ગયા વગર રહે નહિ.</p>




<p><head>નેટવર્ક</head></p>

<p><head>પાકિસ્તાની આતંકવાદીઓ દ્વારા
કરાતા હત્યાકાંડો પહેલા બંધ કરાવો અને પછી મંત્રણા કે પ્રવાસની વાતો કરો
: તમને હ્ય્દય કે દેશપ્રેમ જેવું છે કે નહીં ?</head></p>

<p><head>જનતાને તો છેતરો જ છો...
પણ તમારી જાતને શા માટે છેતરો છો ?
જનતા બોલતી નથી એટલે કશું સમજતી નથી એવા ભ્રમમાં ન રહો !</head></p>

<p>એક વાર્તા છે.</p>

<p>સાબરકાંઠાનો એક યુવાન
પોતાના ગ્રામ્ય વાતાવરણમાંથી નીકળીને પોતાના કાકાને મળવા મુંબઈ પહોંચ્યો. આવડું
મોટું શહેર એણે પહેલાં જોયું જ નહોતું એટલે એ મુંબઈને જોઈને મૂંઝાયો.</p>

<p>એના કાકા મુંબઈના મોટા
ઉદ્યોગપતિ હતા ખૂબ પૈસો હતો, મોટરો, આલિશાન ફ્લેટ, વિશાળ ઑફિસ વગેરે હતું.
ભત્રીજાને એમણે પ્રેમથી આવકાર્યો.. ઘણું વહાલ વરસાવ્યું. ઉદ્યોગપતિ કાકાને કામનું બહુ
દબાણ રહેવાથી છેલ્લા પાંચ-સાત વર્ષથી એ પોતાના સાબરકાંઠાના ગામડે જઈ શકેલા નહીં
એટલે એમના મનમાં પોતાના વતન વિષે જાણવાની ઉત્સુકતા હતી. એમણે પૂછયું, ''બેટા,
ઘરમાં બધું બરાબર તો છે ને ?'' જવાબમાં પેલા યુવાને કહ્યું, 'હા, કાકા બધું બરોબર
છે... કશી તકલીફ નથી...' આમ સાંભળીને તેઓ ખુશ થયા એવામાં એકાએક એમણે
પૂછયું, ''બેટા, તારા ફાધર કેમ છે ?'' જવાબમાં ભત્રીજો બોલ્યો, ''કાકા, એ
તો ગયા વર્ષે જ ગુજરી ગયા... પણ અહીં આપ બહુ કામમાં હો જાણીને આપને જાણ કરેલી
નહીં.''</p>

<p>સાંભળીને કાકા પોક મૂકીને
રડી પડ્યા. થોડીવારે સંયમ મેળવીને એમણે પૂછયું, ''હું છેલ્લીવાર ત્યાં આવેલો
ત્યારે ત્રણ ત્રણ એકર જમીન તમને લઈ આપેલી.. એનું શું છે ? ખેતી તો થાય છે ને ?''</p>

<p>''કાકા, એ જમીન ઉપર તો
દુશ્મનોએ કબ્જો કરી લીધો છે.''</p>

<p>સાંભળીને કાકા હેરાન-પરેશાન
થઈ ગયા એમણ બીજો સવાલ કર્યો, ''આપણી પાસે ૫૦ ગાય-ભેંસ હતી એ બધી''</p>

<p>સાબરકાંઠાથી આવેલા યુવકે
કહ્યું, ''કાકા, એ બધી તો ચોરાઈ ગઈ.''</p>

<p>''હે ! શું કહે છે તું ?''
ઉદ્યોગપતિ કાકાને પણ આ જાણીને આઘાત લાગ્યો એમણે પાછુ પૂછયું, ''અને ટ્રેક્ટર ?''</p>

<p>''ટ્રેક્ટર તો કાકા, બેન્કે
બે વર્ષ પહેલાં જ જપ્ત કરી લીધું.''</p>

<p>સાંભળી કાકાએ માથુ કૂટયું
અને અંતે ખીજાઈને બોલ્યા, ''ભાઈ મરી ગયો, જમીન દુશ્મનોએ લઈ લીધી, ભેંસ-ગાય
ચોરાઈ ગઈ, ટ્રેક્ટર જપ્ત થઈ ગયું... તો પછી તું એમ કેમ કહે છે કે, બધું બરોબર છે
! કશી તકલીફ નથી ? ચાલ ભાગ... નહીંતર હવે માર ખાઈશ...''</p>

<p>મુશર્રફ અને બાજપેયીની
મંત્રણાના સંદર્ભમાં આ વાર્તા જુઓ.</p>

<p>ંમુશર્રફે આવીને હુર્રિયતને
મળી લીધું... (શું આપણે એટલું પણ એને ન કહી શકીએ કે અમારી ઇચ્છા વિરૂદ્ધ હુર્રિયતના
નેતાઓને તમારે મળવાનું નથી... તમને અમે અમારી સાથે મંત્રણા કરવા માટે આમંત્રણ
આપ્યું છે... તમે અમારા મહેમાન છો... તો પછી તમે અમારા ઘરમાં જ અમારા દુશ્મનો
સાથે મંત્રણા અને એ પણ ખાનગીમાં કઈ રીતે કરી શકો ? આપણા બાજપેયી માનો કે ત્યાં
જાય અને ત્યાં બેનઝીર ભુટ્ટો અને નવાઝ શરીફને તેઓ ખાનગીમાં મળે તો મુશર્રફ એમ થવા
દેશે ? આપણી સરકાર આટલી બધી બાયલી કેમ છે ? શું આમ શાંતિ થવાની હતી ?)
તંત્રીઓ સાથે ચા-પાણી પીધાં અને એમનો પ્રચાર કરી નાંખ્યો (એવી ચા-પાણીનો
બ્રેકફાસ્ટ શાનો હોય ? આ શું ક્લીન્ટન કે બુશ હતા ? અથવા અમસ્તા ફરવા આવ્યા હતા ?
શાંતિ મંત્રણાઓ માટે આપણે બોલાવેલા અને એ આવેલા... આ બધું પહેલાથી નક્કી હતું
ત્યારે ના પાડતા આપણા પગ શું ધ્રુજતા હતા ?) દાઉદને છોડવા માટે નામકર ગયા (આડવાણી
મળ્યા એટલે તરત જ શિખર મંત્રણા શરૂ થઈ જવી જોઈએ... એમને શું અહીં તાજમહેલ જોવા અને
એમની હવેલી જોવા બોલાવેલા ? દુશ્મન સાથે ઉદાર થવાની કોઈ હદ ખરી કે નહિ ? એ બુશ
કે સીરીમાઓ જેવા મિત્ર તો નહોતા જ ને ? તો પછી એમની આવી આગતાસ્વાગતા શેની ?
આપણા દેશનું, આપણી જનતાનું, કંઈ ગૌરવ ખરુ કે નહીં ?કે એ ય તમે વેચી બેઠા છો ?)
મૌલાના અઝહર જેવા ભારત સામે ઝેર ઓકઓક કરનારને આપણે ધાર્મિક નેતા બનાવી
દીધો... ૩૨ વર્ષથી એમની જેલમાં સબડતા આપણા યુદ્ધકેદીઓ વિષે નર્યું જુઠ્ઠાણું
જ ચલાવ્યું, કાશ્મીરમાં પાકિસ્તાની આતંકવાદીઓને આઝાદીના લડવૈયાનું સર્ટિફિકેટ આપી
દીધું...</p>

<p>આમાં આપણે મેળવ્યું શું ?
એમણે જે કરવું હતું એ કર્યું અને મેળવી લીધું... જ્યારે આપણે ? એમની પાછળ રૂા.
૩,૦૦,૦૦,૦૦૦ ત્રણ દિવસમાં જનતાના વાપરીને રાજી થયા ? એમને ૧૦૦ પ્રકારના ભોજન જમાડીને
રાજી થયા ? એમને સૂતાસૂતા તાજમહાલ જોવાની સગવડ કરીને રાજી થયા ? આપણે મેળવ્યું શું
?</p>

<p>ઘરનો કોઈ દીકરો કે ઘરનો
કોઈ બાપ આ જાતની વાટાઘાટો કરી આવે તો કુટુંબીઓ એને ઘરમાં રહેવા દે કે પછી
લાત મારીને કાઢી મૂકે ?</p>

<p>અને છતાં મંત્રણા સફળ થઈ !
નાક બચાવ્યું આડવાણી અને જશવંતસિંહે અને હારતોરા કરીને ખુશામત કરવા ભાજપી નેતાઓ
કોની પાસે ગયા ? પીઠ કોની થાબડવાની હોય ? બધું જ શરણે ધરી દેવા બેઠા હોય
તેની કે થોડું ઘણું બતાવ્યું હોય એની ? મુશર્રફે પોતાની પત્રકાર પરિષદ
ઈસ્લામાબાદમાં કરી એમાં આપણે વાજપેયીના વખાણ કર્યા... એ શું ઇંગિત કરે છે ? એમની
માંગણીઓ બાજપેયીએ સ્વીકારી લીધેલી પણ કોઈ અદ્રશ્ય હાથ આડે આવ્યો... એવું
એમનું કહેવાનું છે... એનો અર્થ શું થયો ? બધાં જ બોલે છે, ''બહુ ખોટું
થયું'' પણ સામે કહેવાની કેમ કોઈ હિંમત કરતું નથી ? ઇંદિરા ગાંધી વિજેતા
બનીને અને પછી સીમલા કરાર કરીને સંસદમાં આવેલા ત્યારે ભાજપના જ નેતાઓએ એમની
ધૂળ કાઢી નાંખેલી... અત્યારે ભાજપના નેતાઓ તો નિર્માલ્ય અને ખુશામતીઆ પુરવાર થયા
છે પરંતુ સંસદમાં બેઠેલા બીજા નેતાઓ કેમ કંઈ કડક બોલતા નથી ?</p>

<p>છતાં મંત્રણા સફળ થઈ હોવાના
ઢોલ-નગારા પીટવામાં આવી રહ્યા છે. હકીકતમાં મંત્રણા સંપૂર્ણ નિષ્ફળ ગઈ છે. બીજું તો
ઠીક... મુશર્રફને આટલા બધા માનપાન આપ્યા અને મોગલાઈ આગતા-સ્વાગતા કરી એના
બદલામાં આપણે પાકિસ્તાની આતંકવાદીઓના હત્યાકાંડને મુશર્રફ પાસે અટકાવી શક્યા હોત
તો ય ઘણું હતું !</p>

<p>મંત્રણા નિષ્ફળ ગઈ એટલે
આતંકવાદી પાકિસ્તાની સંગઠ્ઠનો 'હવે હત્યાઓ વધુ થશે' જેવી ધમકીઓ ઉચ્ચારવા
લાગ્યા એટલે આપણે પેલા નામર્દ પહેલવાનની જેમ 'તું ઘા તો કર !' કહ્યું કે, 'અમે પણ
એનો એવો જ જવાબ આપી શકીએ તેમ છીએ...' અને તાળીઓ પાડીને ઊભા રહ્યા.</p>

<p>એ પાકિસ્તાની
આતંકવાદીઓએ પોતાની ધમકીઓ પ્રમાણે આપણી ઉપરના હુમલાઓ તરત જ વધારી
દીધા ('નેટવર્ક'માં જણાવ્યું જ હતું કે, મંત્રણા પતવાની રાહ જોઈને પાકિસ્તાનીઓ
હુમલાઓ કરવા અને ઘુસણખોરી કરવા તૈયાર જ બેઠા છે. આપણું લશ્કર પણ એ સમજતું
હતું. એટલે...) આપણા લશ્કરે એ પાકિસ્તાનીઓનો ઘાણ બોલાવવા માંડ્યો. દા.ત.
આપણા ૪ સૈનિકો પાકિસ્તાની હુમલાના કારણે શહિદ થયા હોય તો સામે ૧૪ પાકિસ્તાનીઓ
મર્યા હોય.</p>

<p>એમાં ૨૦ જુલાઈએ
પાકિસ્તાનીઓએ ૧૯૯૯ પછી જ્યાંં કદી હુમલો નહી કરેલો એ કારગીલ સેક્ટરમાં પહેલીવાર
હુમલો કર્યો એ હુમલામાં પાકિસ્તાનના ૨૪ સૈનિકો માર્યા ગયા (આપણી સરકારના આ
આંકડા છે... એ સાચા માનવા કે નહી એ આપણે નક્કી કરવાનું છે.) એમાં બે ભારતની
લશ્કરી છાવણી પણ નાશ પામી પાકિસ્તાની લશ્કરે પહેલી જ વાર કારગીલ સરહદને અડીને આવેલા
ભારતીય ગામો ઉપર બૉમ્બ ફેંક્યા હતાં.</p>

<p>હરકત ઇસ્લામી નામના એક
પાકિસ્તાની આતંકવાદી સંગઠનના જાતે થઈ બેઠેલા કમાન્ડર મોહમ્મદ નિજામને આપણા લશ્કરના જવાનોએ
મારી નાંખેલો રાજોરી જિલ્લાના તત્તાપાની નામના વિસ્તારમાં આપણા જવાનોએ એક
પાકિસ્તાની આતંકવાદીને મારી નાંખેલો.</p>

<p>આ એક જ દિવસમાં પાકિસ્તાની
આતંકવાદીઓએ (૧) કારગિલ, (૨) પૂંછ જિલ્લો, (૩) મેંડર તાલુકાનો બાલાકોર સેક્ટર,
(૪) રાજૌરી જિલ્લો, (૫) પીર પંજાબ, (૬) ઉત્તર કાશ્મીરમાં તંગધર સેક્ટર, (૭)
કૂપવાડાનો ટૂટનાર વિસ્તાર, (૮) કાલારૂખ, (૯) નૌગ્રામ, (૧૦) નારિયા વિસ્તાર, (૧૧)
અનંતનાગ જિલ્લો, (૧૨) સૂરનકોટ વગેરે ૧૨ કરતાં વધુ સ્થળો પર હુમલા કર્યા.</p>

<p>મુશર્રફ અહી આવીને આ
આતંકવાદીઓને 'આઝાદીના લડવૈયા'નું સર્ટિફિકેટ આપી શકે એવી તક આપણે પૂરી પાડ્યા
પછી. (પાકિસ્તાનના અત્યાર સુધીના શાસકોમાં મુશર્રફે જ આ સર્ટિફિકેટ આપ્યું
છે...એટલે મુશર્રફનું મગજ સૈનિકનું છે અને એને મુત્સદ્દી કરતા ઓછી અક્કલ છે વગેરે
વાતો આપણી સરકારના ખુશામતીયાઓએ, કરીને આપણને ગેરમાર્ગે દોરે છે.. એ આના
પરથી પુરવાર થયું ને ? ઉલટાનો મુશર્રફ વધુ કાબેલ પુરવાર થયો અને આપણે સાવ ડફોળ
પુરવાર થયા. આપણે શાંતિ માટે ખરા દિલથી પ્રયત્નશીલ છીએ એવું જગતે જાણ્યું...એ સાચું
પણ એથી શું ? પાકિસ્તાનીઓ આપણી ગરદન ઉડાડશે તો શું જગતનો કોઈ એક દેશ પણ
આપણી મદદે આવવાનો ? અત્યારે પણ પાકિસ્તાની આતંકવાદીઓ આપણી ઉપર હુમલા કરે છે
ત્યારે કોઈ એક પણ દેશે પાકિસ્તાનને કહ્યું ખરું કે... ભારત ઉપરના હુમલા બંધ
કરો નહીંતર અમે ભારતની પડખે જઈને ઊભા રહીશું ? એટલે કહેવાનો મતલબ એ છે કે...
'દુનિયા શું કહેશે ?' એવા ભ્રમમાં રહેવાથી આપણો વિનાશ જ થાય... ''દુનિયાના નામે
નામર્દો જ જીવે...'' જેનામાં મર્દાનગી છે એ તો કરી દેખાડે... ઇઝરાઇલ ઇજીપ્ત અને
આરબો ઉપર હુમલા કરીને ઇઝરાઇલ દેશની રચના કરી તો દુનિયાએ એનું શું કરી નાંખ્યું
? અથવા આરબ મુસ્લિમ દેશો કેમ ચૂપ થઈ ગયા નહી ? એટલે દુનિયા આમ કહેશે અને દુનિયા
તેમ કહેશે એવા વિતંડાવાદમાં પડ્યા સિવાય આપણા દેશ અને આપણી જનતાને બચાવવાનું જ
મહત્ત્વ છે.) હવે એને કોઈ ''ટેરરીસ્ટ કન્ટ્રી'' કહી શકે એવું ન રહ્યું એટલે પાકિસ્તાન
'બગલ મેં છૂરી મુખ મેં રામ'ની જેમ મોમાં શાંતિનો પાઠ બોલે છે અને બીજી બાજુ એના
લશ્કરને છૂટાછવાયા હુમલાઓ ચાલુ રખાવે છે.</p>

<p>પાકિસ્તાન શાંતિની વાતો
કરવા સાથે એના લશ્કરે તોયબા, જોશે મોહમ્મદ, હરકત ઉલ અન્સાર, હરકતુલ મુજાહિદ્દીન,
હિબ્બા, મૌલાના અઝહર વગેરે આતંકવાદી તત્ત્વોને મજબૂત કરી રહ્યું છે.</p>

<p>અને આપણે એમના માટે ચાદર
પાથરવામાં આગળ વધી રહ્યા છીએ જેમ કે, ''ઇન્ટરનેશનલ બોર્ડર'' (એટલે કે ભારત
અને પાકિસ્તાનને અલગ કરતી આંતરરાષ્ટ્રીય સરહદ રેખા) અને લાઇન ઓફ કંટ્રોલ (એટલે કે
પેલી આંતરરાષ્ટ્રીય સરહદ રેખાની અંદર આવીને પાકિસ્તાને ૧૯૪૮માં જે આપણો પ્રદેશ કબ્જે
કરેલો અને પછી યુનોએ યુદ્ધવિરામ જાહેર કરાયેલો ત્યાર પછી પણ પાકિસ્તાને આપણા
પ્રદેશમાં આવીને જે ભૂમિ કબજે કરેલી એ 'અંકુશ રેખા' આપણી નિર્માલ્યતા એ છે કે
આપણે આપણા લશ્કરને એ કહેવાતી 'અંકુશ રેખા'ની પાર પણ જવા નથી દેતા કે ત્યાંથી
પાકિસ્તાની આતંકવાદીઓ આપણી ઉપર હુમલાઓ કરે છે એની ઉપર પણ આપણું લશ્કર
દિલ્હીની સરકારની મનાઈ હોવાથી હુમલા કરી શકતું નથી... એટલું જ નહી પણ એ કહેવાતી
'અંકુશ રેખા'ની પેલી બાજુએ આતંકવાદીઓ આપણા પ્રદેશમાં ઘૂસવા તૈયાર હોય છે એમને
પણ આપણા લશ્કરે હઠાવવાની સરકારની મનાઈ છે... એ આતંકવાદી ઘુસણખોર ભારતના પ્રદેશમાં
ઘૂસે પછી જ આપણા લશ્કરને પગલા લેવાનો હુકમ છે... એ પણ પેલો ઘૂસણખોર કોઈ
હિંસાત્મક પ્રવૃત્તિ કરે તો ! બાકી એ આતંકવાદી અંદર ઘુસીને ત્યાં આપણી સરહદ પર
રહેતા કાશ્મીરી મુસ્લિમોના ઘરમાં મહેમાન થાય તોપણ આપણું લશ્કર કંઈ કરે નહીં...
એવો દિલ્હીનો આદેશ છે... હવે કહેશો કે આ પ્રકારની નીતિ રાખનાર સરકાર કાશ્મીરમાં
કઈ રીતે શાંતિ સ્થાપી શકે ? બસ, આપણે એક શીખ્યા છીએ ને ?... વિરોધ
યાદી...કડક વિરોધ યાદી... વધુ કડક વિરોધ યાદી... અને મુંબઈ-દિલ્હી જેવા
શહેરોમાં પાકિસ્તાની નેતાઓના પૂતળા બાળવા અથવા મોટામોટા બેનરો રાખી પચીસ-પચાસ
ભાડૂતી માણસો લઈને સરઘસ કાઢવા... આવો વાંઝિયો વિરોધ શા કામનો ? આવી
નામર્દાઈ બતાવીને આપણને શું મળવાનું છે ? હવે તો, ૧ અબજની જનતા પણ આપણી નામર્દાઈ
સમજી ગઈ છે અને શરમ અનુભવી રહી છે... આવા સરઘસો કાઢવાના નાટકો બંધ કરો...
પૂતળા બાળવાના નાટકો બંધ કરો... હા, એવા નાટકો કરીને જનતાને મોટા ખર્ચા
બતાવીને રૂપિયા ઉઘરાવવાનો ભ્રષ્ટાચાર તેઓ આચરતા હોય છે. ખોટા ખર્ચા પાડીને
ખિસ્સામાં રૂપિયા મૂકવાની આ નાટકિયાઓને ફાવટ આવી ગઈ છે.) પાકિસ્તાનમાંથી જેમને
ભારતમાં પ્રવેશવું હોય એમને સગવડ કરી આપવાની જાહેરાત કરી છે. (જેને આપણી સરકારે
'કોન્ફીડન્સ બિલ્ડીગ મેઝર' એટલે કે વિશ્વાસ પ્રસ્થાપિત કરવાના માર્ગો જેવું નામ આપ્યું
છે.) આ પગલાનાકારણે આપણી સરહદો ઉપર સલામતી જોખમાશે કે નહી... એનો વિચાર આપણા
વડાપ્રધાને કર્યો હશે કે નહીં પરંતુ ગુજરાત સરકારે એ પગલાને અનુસરવાનો ઈન્કાર
કર્યો છે જ્યારે રાજસ્થાન અને જમ્મુ કાશ્મીરની સરકારો પણ એનો અમલ કરે એમ નથી
લાગતું.</p>

<p>આવી નીતિ સંરક્શણની દ્રષ્ટિએ
ઘાતક કેવી છે એ સમજાવવા રાજસ્થાનના ભાજપના નેતા ભૈરવસિંહ શેખાવત અત્યારે સરકારમાં
નથી છતાં કેન્દ્ર સરકારને સમજાવવા નવી દિલ્હી બાજપેયીની મુલાકાત તો ના થઈ શકી પણ એમણે
આડવાણી અને ભાજપના પ્રમુખ જન.કૃષ્ણમૂર્તિને મળીને જણાવ્યું કે... અત્યારે પણ રાજસ્થાનમાં
૨૦,૦૦૦ પાકિસ્તાનીઓ વસી ગયા છે અને એ બધાં જ પાકિસ્તાની જાસૂસી સંસ્થા
આઇ.એસ.આઇ.નું કામ કરી રહ્યા છે હવે જો 'ચેક પોસ્ટો' ખોલવામાં આવશે તો શું
થશે એ તમે જ નક્કી કરો.</p>

<p>જ્યારે બાજપેયીએ તો
મુર્ખાઈભરી ઉદારતાની અને શાંતિની નીતિનો અમલ કરવા જાહેરાત કરી દીધી છે કે...
આગ્રાની શિખર મંત્રણા નિષ્ફળ ગઈ છે તો પણ આ ચેકપોસ્ટો તો ખોલવામાં આવશે જ. આ
રીતે સરહદો ખુલ્લી મૂકવા સાથે બાજપેયી સરકારે રાજસ્થાન અને સિંધ વચ્ચે રેલ્વે
વ્યવહાર શરૂ કરવા આગળ વધવા માંડયું છે. (એટલે પછી મુશર્રફ સાહેબ ભારતમાં
આતંકવાદીઓના ધાડાના ધાડા મોકલી શકે. અત્યારે લાહોર અમૃતસર વચ્ચે ટ્રેન
દોડે છે જ ! એ ઉપરાંત બાજપેયી સરકાર, આ ઓછું હોય એમ શ્રીનગર મુઝફરાબાદ (એટલે
પાકિસ્તાનના ગેરકાયદે કબજાવાળા કાશ્મીરમાંનું પાટનગર)નો હાઇ-વેપણ ખુલ્લો કરે છે.</p>

<p>જમ્મુ કાશ્મીરના ભાજપના
નેતાઓએ પણ આ બધા પગલાઓનો વિરોધ કર્યો છે.</p>

<p>જો કે, બાજપેયી સરકાર આ
બાબતમાં આડવાણી સિવાય કોઈને પણ માને એવું નથી.</p>




<p><head>પ્રસંગપટ</head></p>

<p><head>ફૂલનદેવી આઘાતજનક મૃત્યુ પછી
દંતકથારૂપે જીવંત રહેશે</head></p>

<p><head>હત્યા પાછળ રાજકીય ષડયંત્ર
: સમાજવાદી પાર્ટીનો આક્શેપ</head></p>

<p>બેન્ડીટ ક્વીન તરીકે દુનિયાના
અનેક દેશોમાં પ્રસિદ્ધ ફૂલનદેવીનો નશ્વર દેહ તો અન્ય માનવીઓની જેમ પંચ મહાભૂતમાં મળી
ગયો પણ એના જીવન અને કાર્ય સાથે સંકળાયેલી દંતકથા હજુ ઘણા લાંબા સમય સુધી
જીવતી રહેશે. ફૂલનદેવી ચંબલની દુર્ગમ ઘાટી અને ભુલભુલામણી જેવા કોતરોમાં પોલીસ
તથા પોતાના ખૂનના પ્યાસા કેટલાક ડાકૂઓથી બચી શકી, પરંતુ પાટનગર નવીદિલ્હીના સૌથી
વધુ સુરક્શિત ગણાતા સંસદભવનથી માંડ એક કિલોમીટરના અંતરે આવેલા વિસ્તારમાં પોતાના
નિવાસસ્થાનના દ્વારે જ ઠાર થઈ એને એક વિડંબના જ ગણવી રહી. ફૂલનદેવી જીવનમાં અને
મૃત્યુમાં પણ પ્રસાર માધ્યમોમાં ચર્ચાસ્પદ બની અત્યાર સુધી એના વિશે થોકબંધ
લખાયું છે અને તેની હત્યા પછી થોકબંધ લખાશે. શેખર કપૂરે એના જીવન પરથી સર્જેલી
ફિલ્મ 'બેન્ડીટ ક્વીન'નો બીજો ભાગ પણ તૈયાર થઈ શકે તેવા એના જીવનનો રહસ્યમય અંત
આવ્યો છે.</p>

<p>ફૂલનદેવી ઉત્તરપ્રદેશના
મિરઝાપુર સંસદીય મતવિભાગનું લોકસભામાં પ્રતિનિધિત્વ કરતા હતા તેથી તેમની હત્યાને
એક રાજકીય આયામ (ડાયમેન્શન) મળે તે દેખીતું છે. ઉત્તરપ્રદેશ વિધાનસભાની આગામી
ચૂંટણીઓ ભારતીય જનતા પક્શ તથા એન.ડી.એ. માટે પ્રતિષ્ઠાનો પ્રશ્ન છે જ્યારે વિરોધ
પક્શો અને તેમાંય ખાસ કરી મુલાયમસિંહની સમાજવાદી પાર્ટી તથા માયાવતીની બહુજન સમાજ
પાર્ટી માટે આ ચૂંટણીઓ એમના શબ્દોમાં કહીએ તો સાંપ્રદાયિક અને મનુવાદી
પરિબળોને સત્તાસ્થાનેથી દૂર કરવાનો જંગ છે. સમાજવાદી પાર્ટીના નેતા અમરસિંહે
પોતાના પક્શના સંસદ સભ્યને પૂરતી સુરક્શા વ્યવસ્થા નહિ અપાઈ હોવાનો દાવો કર્યો છે
અને કેન્દ્રીય ગૃહમંત્રી શ્રી એલ.કે. અડવાણીના તથા ઉત્તરપ્રદેશના મુખ્યમંત્રી શ્રી રાજનાથ
સિંહના રાજીનામાંની પણ માંગણી કરી છે. બીજી બાજુ એ ભારતીય જનતા પક્શે એમના ઉપર
ફૂલનદેવીની હત્યાને રાજકીય રંગ આપવાનો આક્શેપ કર્યો છે. ફૂલનદેવીની હત્યાને
ઉત્તરપ્રદેશ વિધાનસભાની ચૂંટણીઓમાં સમાજવાદી પાર્ટી એક સંવેદનશીલ મુદ્દો બનાવશે
એમ પણ હવે લાગે છે. ભાજપ તથા એન.ડી.એ. માટે આનો જવાબ આપવાનું કઠિન બનશે.</p>

<p>વિધાનસભાની
ચૂંટણીઓને લક્શમાં રાખી ખૂબ જ પછાત વર્ગો માટે અનામતનો ખાસ ક્વૉટા રાખવાની તરફેણ
કરવાની રાજકીય પક્શો વચ્ચે દોડ શરૂ થઈ છે. માયાવતી અને રાજનાથ સિંહના નેતૃત્વ હેઠળ
બહુજન સમાજ પાર્ટી તથા ભાજપ અને એન.ડી.એ. બંને આ માટે જોરશોરથી પ્રચાર કરે છે.
ફૂલનદેવી ખૂબ જ પછાત વર્ગની મહિલા હોવાથી સમાજવાદી પાર્ટીએ પણ આ મુદ્દો આગળ કર્યો
છે. ટૂંકમાં ફૂલનદેવીની ચિતાના અગ્નિ પર રાજકીય ખીચડી પકવવાની કોશીશ થાય તેમ સ્પષ્ટ
જણાય છે. એક રીતે કહીએ તો આની શરૂઆત પણ થઈ ગઈ છે. સમાજવાદી પાર્ટીએ એવો
ગર્ભિત આક્શેપ કર્યો છે કે ફૂલનદેવીનો અંતિમ સંસ્કાર ઉત્તરપ્રદેશમાં મિર્ઝાપુરમાં નહિ
પણ દિલ્હીમાં કરવાની માંગણી ફૂલનદેવીના ભાઇ શિવનારાયણ તથા અન્ય કુટુંબીજનોએ કરી
તેની પાછળ કોઈનો રાજકીય દોરીસંચાર છે. એક ખાનગી ટીવી ચેનલ પર વાતચીતમાં તેમણે
આ દોરીસંચાર કોણે કર્યો હતો તેનો ફોડ પાડ્યો નહતો પણ તેમનો ઇશારો કોના
તરફ હશે એ સમજી શકાય તેવું છે. બીજી બાજુએ એ પણ જાણવું રસપ્રદ છે કે ફૂલનદેવીના પતિ
ઉમેદસિંહ ઉત્તરપ્રદેશ વિધાનસભાની ચૂંટણી મિર્ઝાપૂરમાંથી લડવાના છે. સમાજવાદી પાર્ટીના
નેતા મુલાયમસિંહ યાદવે પોતાના પક્શના સાંસદ સ્વર્ગસ્થ ફૂલનદેવીના અંતિમ સંસ્કાર
મિર્ઝાપૂરમાં જ કરવાનો આગ્રહ રાખ્યો. આમ આ અંગે પણ એક વિવાદ ઊભો કરાયો.
ફૂલનદેવીને સમાજવાદી પાર્ટીએ પહેલીવાર લોકસભાની ચૂંટણી માટે ઉમેદવાર તરીકે પસંદ
કર્યા ત્યારે પણ એક મોટો વિવાદ ઊભો થયો હતો. ફૂલનદેવીએ આત્મસમર્પણ કર્યું હતું
ત્યારે તેમના પર પચાસથી પણ વધુ ગંભીર ફોજદારી ગુન્હાઓના આરોપો હતા. તેમ જો એ
માટે લગભગ તેર વર્ષ સુધી જેલમાં રહેવું પડ્યું એ હકીકતને ફૂલનદેવી તથા
સમાજવાદી પાર્ટીએ લોકસભાની ચૂંટણી લડવાના નિર્ણયને વાજબી ઠરાવવા આગળ કરી હતી.</p>

<p>ફૂલનદેવીને એક ગંભીર
ખૂંખાર અપરાધી ગણાય કે પુરૂષપ્રધાન અને મધ્યયુગી સમાજના પાશવી અત્યાચારોનો
શિકાર બનેલી મહિલા ગણાય તેનો વિવાદ પણ જાગ્યો હતો. ફૂલનદેવીને તેમના એક પણ
અપરાધ બદલ જો લાંબી કેદની સજા થઈ હોત તો તે ચૂંટણી લડી શક્યા ન હોત પણ વિલંબ
માટે ચર્ચિત એવા દેશના ન્યાયતંત્ર દ્વારા ફૂલનદેવીને ચૂંટણી લડતા અટકાવી શકાય તેવી
કોઈ સજા થઈ નહતી. કદાચ એમની સામે કેસ ચલાવવામાં ફરિયાદ પક્શ એટલે કે પોલીસને પણ
કોઈ ખાસ રસ ન હોય તેમ બને. જે હોય તે પણ ફૂલનદેવીના આત્મસમર્પણ પછી તેમનો નવો
રાજકીય અવતાર સંસદસભ્ય તરીકે થયો અને આ વાતને નારીમુક્તિવાદના પુરસ્કર્તાઓ તથા અન્ય
કેટલાકે વધાવી લીધી. ફૂલનદેવીએ પોતે એક ખૂબ જ પછાત વર્ગની મહિલા તરીકે
પોતાના પ્રથમ પતિ તથા ઠાકુર જાતિ દ્વારા શારીરિક અને માનસિક યાતના વેઠી હતી અને સંસદ
સભ્ય બન્યા પછી સામાજિક ન્યાય તથા સમાનતા માટે કામ કર્યું હતું. કમ સે કમ તેવો દાવો
તેમના ટેકેદારો કરે છે.</p>

<p>ફૂલનદેવીનું જીવન ખૂબ
યાતનાભર્યું અને સંઘર્ષમય હતું એ વિશે બેમત નથી. પરંતુ બહેમાઈમાં તેમના પરના
સામૂહિક બળાત્કારની ઘટના તથા એનો બદલો લેવા માટે એ જ ગામના વીસેક ઠાકુરોની
હત્યાની ઘટના અંગે મતભેદ છે. ફૂલનદેવીના જીવન પરથી લખાયેલા પુસ્તકમાં આ બંને
ઘટનાઓનો ઉલ્લેખ લેખિકા માલાસિંહે કર્યો છે અને તેના આધારે તૈયાર થયેલ શેખર
કપૂરની ફિલ્મમાં પણ આનો ઉલ્લેખ હતો, પરંતુ ફૂલનદેવીએ એની સામે વિરોધ
દર્શાવ્યો હતો અને પરિણામે ફિલ્મ થોડોક સમય અટવાઇ ગઇ હતી, લેખિકા માલાસિંહના કહેવા
પ્રમાણે સામૂહિક બળાત્કાર તથા ૨૦ ઠાકુરોની હત્યાની વાત ફૂલનદેવીએ જ કરી હતી. કોઈપણ
જીવતી વ્યક્તિના જીવન પરથી ફિલ્મનું નિર્માણ કરવામાં પહેલા જોખમનો આ એક સંકેત ગણાય.</p>

<p>પાટનગર દિલ્હીને કોઈએ
દેશમાં અપરાધોની રાજધાની (ક્રાઇમ કેપિટલ) કહી છે. અહીં રોજ ગંભીર
અપરાધો થતા જ રહે છે. સંસદ સભ્ય ફૂલનદેવીની ગયા બુધવારે થયેલી હત્યાએ
પાટનગરમાં વી.આઈ.પી.ઓ.ની સુરક્શા પર પ્રશ્નચિહ્ન લગાવ્યું છે. આ હત્યા રાજકીય ષડયંત્ર ન
હોય તો પણ તે અત્યંત આઘાતજનક છે. હત્યાની જાણ પણ સરકારને એક કલાક પછી થઈ. વળી
હત્યાના ૨૪ થી વધુ કલાકો પછી પણ હત્યાઓ વિશે પોલીસ અંધારામાં રહી હોવાનું
પણ જાણવા મળ્યું છે. ફૂલનદેવીએ પોતાની સુરક્શા માટે વધુ મજબૂત વ્યવસ્થાની માંગણી કરી
ન હતી એવો બચાવ ઉત્તરપ્રદેશની સરકારે કર્યો છે જ્યારે સમાજવાદી પાર્ટીનો એવો
આક્શેપ છે કે ઉત્તરપ્રદેશની સરકાર સમાજવાદી પાર્ટીના નેતાઓની સુરક્શા વ્યવસ્થા ઘટાડી
રહી છે.</p>

<p>ફૂલનદેવી સંસદસભ્ય હોવાથી
એમને એક અંગરક્શક અપાયો હતો તે પણ ઘવાયો છતાં તેણે એક હુમલાખોરને ઘાયલ કર્યો
પણ તમામ હુમલાખોર જાણે કે હવામાં ગાયબ થઈ ગયા.</p>

<p>અગાઉ કોંગ્રેસી સંસદસભ્ય
લલિત માકેનની પણ હત્યા થઈ હતી. હત્યારાનો શિકાર બનનાર ફૂલનદેવી બીજા સંસદસભ્ય છે.
પાટનગરમાં સાંસદો પણ સંપૂર્ણ સુરક્શિતતા અનુભવી શકતા ન હોય તે હકીકત ખૂબ જ
ચિંતાજનક બનતી જાય છે. રાજકારણીઓ માટે હત્યા એક વ્યવસાયિક ખતરો બનતો જાય છે.
રાજકીય હત્યાઓનો ઇતિહાસ ઘણો લાંબો છે. ફૂલનદેવીના હત્યાકાંડથી તેમાં એક નવા
પ્રકરણનો ઉમેરો થાય છે.</p>

<p>રાજકારણના વધતા જતા
અપરાધીકરણના પરિણામે હજુ કોણ જાણે કેટલા વધુ પ્રકરણો તેમાં ઉમેરાતા જશે.</p>




<p><head>લાઇમલાઇટ</head></p>

<p><head>મુશર્રફે રાજઘાટ પર જાણી જોઈને
અજ્ઞાનતા બતાવતા પૂછયું કે ગાંધીજીનું મૃત્યુ કઈ રીતે થયું ? છરાથી કે ગોળીથી ?</head></p>

<p>પાકિસ્તાનના પ્રેસિડેન્ટ મુશર્રફ
આગ્રા મંત્રણા વખતે ભારત આવ્યા હતા. ત્યારે પ્રથમ દિવસે નવી દિલ્હીમાં મહાત્મા
ગાંધીની સમાધિ રાજઘાટ પર પુષ્પાંજલિ આપવા ગયા હતાં. હજુ તો તેના ભારતના
પ્રવાસનો આરંભ જ થયો હતો ત્યાં જ તેમણે તેમની જોહુકમી અને ભારતને ભારે પડતી
હરકતો શરૂ કરી દીધી હતી. મુશર્રફે ગાંધીજીની સમાધિએ પહોંચતા જ તેની
સાથે ફરવાની જેમને જવાબદારી સોંપાઈ હતી તેવા કેન્દ્રીય મંત્રી દિગ્વિજયસિંગને પૂછયું
હતું કે, ''ગાંધીજીનું મૃત્યુ કઈ રીતે થયું હતું ?'' મિલેનિયમ મેન જેવા
ગાંધીજીના જીવન, કથન અને મૃત્યુ વિશે કોઈ મહેમાન દેશનો પ્રમુખ જાણતો ના હોય
તેવું શક્ય છે ? તેમાં પણ પાકિસ્તાનના પ્રમુખને આની ખબર હોય નહીં તે માની શકાય ?</p>

<p>ગાંધીજીની એક હિંદુએ
હત્યા કરી હતી તેવી તેઓને સમજણા થયા ત્યારથી જ ખબર હોય છતા તે આ પ્રશ્ન પૂછી પહેલા
તો મહાત્મા ગાંધી જેવી હસ્તીની તેઓ નોંધ લેતા નથી તેમ અજાણ્યા બની
ભારતની પ્રજાને ચીઢવવા માંગતા હતા તો બીજું કારણ એ હતું કે તે એક કેન્દ્રીય મંત્રી
પાસે એવું બોલાવવા માંગતા હતા કે એક હિંદુએ ગાંધીજીની હત્યા કરી હતી.</p>

<p>પણ દિગ્વિજયસિંગે બહુ જ
જડબાતોડ અને મુશર્રફનુ મોઢું તોડી લેતો જવાબ આપ્યો હતો એ બંને વચ્ચેનો
ડાયલોગ કાંઈક આવો હતો.</p>

<p>મુશર્રફ :
ગાંધીજીનું મૃત્યુ કઈ રીતે થયું ? છરાથી કે ગોળીથી ?</p>

<p>દિગ્વિજય : એ બંનેમાંથી
કોઈથી નહીં.</p>

<p>મુશર્રફ : તેનો શું અર્થ
?</p>

<p>દિગ્વિજય : ગાંધીજી
છરા કે ગોળીથી નથી મર્યા પણ પાકિસ્તાને તેમને માર્યા છે. તેઓએ પાકિસ્તાનને ભાગલા
વખતે ૫૫ કરોડ રૂપિયા મળવા જોઈએ તેવી જીદ સાથે માંગણી ભારતના શાસકો પાસે કરી હતી.
બીજા પણ કેટલાક ફાયદાઓ માટે તેઓએ પાકિસ્તાનની ભરપૂર વકીલાત કરી હતી. ભારતના
કટ્ટરપંથીઓને લાગ્યું કે ગાંધીજી તો ભારત વિરોધી બનવાની હદે જતા જાય છે
તેથી ભારત તરફી તીવ્ર વિચારસરણીના સમર્થકે હત્યા કરી હતી આમ પાકિસ્તાન જ હત્યાનું
નિમિત્ત બન્યું કહેવાય ને ?</p>

<p>દિગ્વિજયે જ પત્રકારોને
ઉપરોક્ત વાતની જાહેરાત કરી હતી. તેમણે ઉમેર્યું હતું કે મુશર્રફ આ પછી ગાંધીજીની
પ્રશંસા કરવા માંડ્યા હતા. મુશર્રફે ગાંધીજીને ચરખામાં કેમ આકર્ષણ હતું તેવો પ્રશ્ન
પૂછયો હતો જે માટે દિગ્વિજયે તેમને સ્વદેશીની ગાંધીજીની થિયરી સમજાવી હતી.</p>

<p>નેલ્સન
મન્ડેલાને પ્રોસ્ટેટનું કેન્સર : તાત્કાલિક રેડિયોથેરપી શરૂ કરવામાં આવી</p>

<p>સાઉથ આફ્રિકાના ભૂતપૂર્વ
પ્રેસિડેન્ટ અને અશ્વેતો માટેના આધુનિક ગાંધીજી તરીકે લીજેન્ડરી બની ચૂકેલ નેલ્સન
મંડેલાને પ્રોસ્ટેટ કેન્સર હોવાના સમાચારને સમર્થન મળતા વિશ્વભરમાં તેમને આદર
આપનારાઓમાં આઘાતની લાગણી ફેલાઈ ગઈ હતી. ડોક્ટરોએ તેમને કેન્સર છે તેવું નિદાન
કરી સાત અઠવાડિયા માટે તાત્કાલિક રેડિયોથેરપી શરૂ કરી દીધી છે.</p>

<p>૮૩ વર્ષના મન્ડેલા જો કે આ
સમાચાર સાંભળી સ્વસ્થ રહ્યા હતા અને તેમના સેક્રેટરીએ કહ્યું હતું કે તેમની આયુષ્યરેખા
કેન્સરને કારણે રાતોરાત ભૂંસાઈ જશે તેવું લાગતું નથી. </p>

<p>ડૉક્ટરોએ અત્યારે તો તેમને
તેમની દિનચર્યા યથાવત રાખવાનું કહ્યું છે અને વિદેશ પ્રવાસે પણ તે જઈ શકશે. અત્યારે
તાત્કાલિક કંઇ ભયજનક નથી.</p>

<p>આ પ્રકારના કેન્સરની
હોર્મોન્સ દાખલ કરી પ્રોસ્ટેટ કોથળીની સાઇઝ નાની કરવામાં આવે છે.</p>

<p>મન્ડેલા હવે તેની સારવાર
અર્થે રોજ ૧૫-૨૦ મીનીટ માટે રેડિયોથેરપી લેવા હોસ્પિટલમાં જાય છે. હાલના તબક્કે તો
તેમને ઓપરેશન વગર આધુનિક લેસર ટેકનોલોજીથી જ સારવાર આપવાનું નક્કી થયું છે. ૭૫
વર્ષની ઉંમર પછી પ્રોસ્ટેટ કેન્સર વિશ્વમાં સામાન્ય બનતું જાય છે. તેમાં પણ તે અશ્વેત કરતાં
શ્વેતને આ કેન્સર થવાની શક્યતા બેવડી છે. વિશ્વમાં ફેફસાનાં કેન્સર પછી જો સૌથી વધુ
કોમન હોય તો પ્રોસ્ટેટ કેન્સર છે.</p>

<p>૧૮ જુલાઈએ મંડેલાએ તેનો
જન્મ દિવસ તેમજ બીજી વારની પત્ની મોઝામ્બીકના ભૂતપૂર્વ વડાપ્રધાનની પત્ની ગ્રાકા માચેલ
જોડેના લગ્નની ત્રીજી લગ્ન વર્ષગાંઠ ઉજવી હતી.</p>

<p>અગાઉ તેમને યુરીનની તકલીફ
હતી ત્યારે તેમના ટેસ્ટ કરાતા ખાસ એન્ટીજેનનું લેવલ વધારવામાં આવ્યું હતું જેથી
કેન્સર છે કે નહીં તેનું પરીક્શણ કરતા પણ ખબર પડે પીએસએ બ્લડ લેવલ વધતા
બાયોપ્સી કરવામાં આવી હતી જેમાં કેન્સરનું નિદાન થયું હતું. અગાઉ ૧૯૮૫માં તકલીફ
થતા મન્ડેલાની પ્રોસ્ટેટ ગ્લન્ડને થોડી કાપી નાંખવી પડી હતી. તબીબો અત્યારે તો એવા
પ્રયત્ન કરે છે કે મન્ડેલાને કેમોથેરેપી પણ આપવી ન પડે.</p>

<p>માઇકલ
જેકસન ફિલ્મી સ્ટાઇલથી તેના પાંચ ભાઇઓને ૧૭ વર્ષ પછી મળશે. પણ ભાઇઓમાં આ મિટિંગ
અગાઉ પણ મતભેદ</p>

<p>'યાદો કી બારાત' ફિલ્મ જોઇ
હશે તેઓને યાદ હશે કે બાળપણમાં વિખુટા પડી ગયેલા ત્રણ ભાઇઓ મોટા થતાં
(ધર્મેન્દ્ર, વિજય અરોરા અને તારીક) એક સ્ટેજ શોમાં યોગાનુયોગ ભેગા થઇ જાય છે.
તારીક સ્ટેજમાં ગીત-નૃત્ય કરીને જ કમાતો હોય છે. ફિલ્મનું ટાઇટલ સોંગ તેઓને ભેગા
કરે છે. કંઇક આવું જ વિશ્વના ટોચના અને લીજેન્ડરી લોકપ્રિય પોપસ્ટાર માઇકલ જેકસનના
જીવનમાં પણ આ રીતે થઇ રહ્યું છે: તેના પાંચ ભાઇઓ બાળપણથી વિખુટા પડી નહોતા
ગયા પણ સમય અને સંજોગોને લીધે એકબીજાથી અળગા પડી ગયા હતા. જેકસને કમાણી અને
તેના શોખ માટે ૧૪ વર્ષની ઉંમરે જ ઘર છોડયું હતું ને તેની અસાધારણ સંઘર્ષ
ગાથા વચ્ચે વર્ષોત્તર લોકપ્રિયાતના રેકોર્ડ તેણે તોડયા છે. તેના અન્ય પાંચ ભાઇઓ પણ
સંગીતમાં રૂચિ અને આવડત ધરાવતા હતા તો બહેન જેનેટ જેકસને તો પોપ
ગાયિકાઓમાં આગવું નામ કાઢયું જ છે. બે -ચાર વર્ષનું અંતર ધરાવતા આ
ભાઇ-બહેનોની ઇચ્છા એક મ્યુઝિકલ ગ્રુપ ખોલવાની હતી. પણ અંદરોઅંદર મતભેદો કારણે
તેઓ પોતપોતાની રીતે છૂટા પડી ગયા. માઇકલ જેકસને પછી સ્વતંત્ર રીતે કેવી સફળતા
મેળવી તે તો પોપ સંગીતના ઇતિહાસનું એક પ્રકરણ બની શકે તેમ છે. પણ હવે વીતતા
દાયકાઓ સાથે વિશેષ કરીને માઇકલ જેકસનને એમ છે કે તેઓના કુટુંબે હવે ભેગા થઇ
જવું જોઇએ.</p>

<p>જેકસનનાં જ પાંચેય ભાઇઓ
એક જ સ્ટેજ પર એક મેગા અને પ્રેક્શકો ઐતિહાસિક સાક્શી બની રહે તેવા શોમાં ફરી ભેગા
થાય અને પરફોમન્સ આપે તેનું પણ આયોજન થઇ ગયું. આગામી સપ્ટેમ્બરમાં માઇકલ જેકસનના
સ્ટેજ શોની કારકિર્દીના ૩૦ વર્ષ પુરા થતા હોઇ આવો શો કરવો તે નક્કી થયું. ને
તેની જોરશોરથી પબ્લીસીટી તેમજ ટીકીટ વેચાણને પણ ખુલ્લુ મુકવામાં આવ્યું. પણ હજુ આ
ભાઇઓ અનોખી રીતે ભેગા થાય તે પહેલા જ તેઓ વચ્ચેના મતભેદો બહાર આવવા માંડયા
છે. ૭ અને ૧૦ સપ્ટેમ્બર ન્યુયોર્કની મેડીસન સ્કવેર પર આ બે શો રાખવામાં આવ્યા છે. પણ
માઇકલના બે ભાઇઓ જેર્મીન અને રેન્ડીએ એવી જાહેરાત કરી છે કે અમે આ ભાઇઓના
મિલનને આટલી હદે ધંધો કરવાની ઇચ્છા ધરાવતા નથી. જ્યારે માઇકલે તેની
એક ટિકિટ ૨૫૦૦ ડોલર્સ રાખીને હદ કરી નાંખી છે. ચાહકોને આ લાગણીભર્યા પ્રસંગમાં પણ
શોષણ લાગે છે. ધંધો કરવાનું આ એક જાહેર સ્ટંટ લાગે છે.</p>

<p>તેઓની ઇચ્છા એવી પણ છે કે
આ જીવનના મહત્વના પ્રસંગે ટિકિટોના વેચાણમાંથી મહત્તમ રકમ ચેરીટીમાં આપવામાં આવે.
તે અંગે પણ કંઇ નિરાકરણ થયું નથી.</p>

<p>જેર્મીને તો આ પુન:
મિલનને તેનો ટેકો છે પણ આ નાઇટ શોમાં તે નહીં જોડાય તેવું કહી કોન્ટ્રાક્ટ પર સહી
નથી કરી. માઇકલના પ્રવક્તાએ કહ્યું છે કે જેર્મીન વગર પણ હવેનું આયોજન યથાવત રહેશે.
અન્ય ત્રણ ભાઇઓ જેકી, ટીટો અને માર્લોને વિખવાદને દબાવીને શોમાં હાજરી આપવાનું
આજદીન સુધી તો નક્કી રાખ્યું છે.</p>

<p>આયોજન સાથે એક નવો
વિવાદ એ ઉભો થયો છે કે આ શોમાં અમેરિકા, યુરોપના જુદા જુદા ક્શેત્રોની
ઢગલાબંધ સેલીબ્રીટીઓને આમંત્રણ આપવામાં આવ્યું છે. તેમના આવવા-જવાનો તેમજ
હોટલોમાં રાખવાનો ખર્ચ પણ માઇકલ જેકસને કોન્સર્ટના નફામાંથી આપવાનું નક્કી કર્યું
છે. આ અંગે ભાઇઓનું કહેવું છે કે અમારા નફામાંથી આ ખર્ચો આપવાનું કે
સેલીબ્રીટીઓ બોલાવાનું અમને પરવડે તેમ નથી.</p>

<p>આ ભાઇઓનું કહેવું છે કે
અમે સાથે મળીને પુન:મિલનના ભાગ રૂપે સ્ટેજમાં સાથે પર્ફોમ કરીએ તેવી જ અમારી ને
અમારા માતા-પિતાની ઇચ્છા છે. તેનું વ્યાપારીકરણ કે પબ્લીસીટી મહત્વની નથી. પણ લાગણી
અને ભાવુક્તા પર ભાર મુકવો જોઇએ.</p>

<p>છેલ્લે તમામ ભાઇઓએ
૧૯૮૪માં વિક્ટરી ટુર કાર્યક્રમ હેઠળ સ્ટેજમાં સાથે પર્ફોમ કર્યું હતું. ત્યારપછી આ પ્રથમ
ઘટના હશે.પણ જે રીતે આ અહમના ટકરાવ અને ડોલર્સની ખેંચતાણ છે તે જોતા લાગે છે કે
આ ભાઇઓ ભેગા થઇ નહીં શકે. જેકસનને એમ છે કે જે લોકો આવશે તે મારા કારણે જ
આવશે ને? તો ભાઇઓ કહે છે કે જેકસન પુન: મિલનને વટાવી જંગી કમાણી કરવા માંગે
છે. આમ આત્મીયતાનો તો ભાવ આ રીયુનિયન કાર્યક્રમમાં જણાતો જ નથી.</p>

<p>કદાચ આ કાર્યક્રમ જ પડતો
મુકવો પડે તો નવાઇ નહીં.</p>

<p>ૠત્વિક
રોશન પણ હવે પ્લેબેક સીંગર બન્યો</p>

<p>આમીરખાને 'આતી ક્યા
ખંડાલા' જેવું સુપરહીટ ગીત ગાયું પછી ફિલ્મ હિરો પણ આમીરની જેમ પ્લેબેક આપવા માટે
નિર્માતાને રીકવેસ્ટ કરવા માંડ્યા. સંજયદત્તે એ શિવાનીની પંક્તિ ગાઈને 'ખૂબસૂરત'
ફિલ્મમાં તેનો કંઠ આપ્યો. ગોવિંદા પણ ગાયક બની ગયો. હવે ૠત્વિક રોશનને પણ આ
અભરખો પૂરો કરવાની ઇચ્છા થઈ છે. તેણે તેની 'આપ મુઝે અચ્છે લગને લગે' ફિલ્મ માટે
એક ગીતનું રેકોર્ડિંગ કર્યું છે. મોહનકુમાર નિર્દેશિત આ ફિલ્મમાં અમિષા પટેલ તેની
હિરોઇન છે. તેના અંકલ રાજેશ રોશનના સંગીત નિર્દેશન હેઠળ તેણે ઉદીત નારાયણ સાથે આ
ગીત ગાયું હતું. ગીતના શબ્દો ''એ મેરા કહેના હૈ'' તેવા છે.</p>

<p>ફિલ્મનો મુખ્ય અભિનેતા કંઠ
આપે તેવું આમ તો સાયગલના જમાનાનો ટ્રેન્ડ છે પણ લોકપ્રિય ને આધુનિક ફિલ્મ
દુનિયામાં અમિતાભ બચ્ચને 'મિ.નટવરલાલ'થી શરૂ કરી, પુકાર, કભી કભી, લાવારીસ જેવી ઘણી
ફિલ્મોમાં ગીતો ગાયા હતા.</p>

<p>ધીસ ઇઝ ધ ફેક્ટ</p>

<p>તમે હસો છો ત્યારે તમારી
સાથે બીજા પણ હોય છે. પણ, જ્યારે તમે રડો ત્યારે તમે એકલા જ હો છો.</p>




<p><head>ન્યાયતંત્ર અલિપ્ત રહે, પણ
પડદામાં નહીં</head></p>

<p><head>.... ન્યાયતંત્ર સમારંભ લક્શી બનતું જાય છે તે દુ:ખદ છે.
ન્યાયતંત્રનું મૂળ કાર્ય, ન્યાય ઝડપી અને શુદ્ધ મળે તે છે. તે હેતુ, લોક-અદાલત કે અન્ય
સમારંભોથી ઠેલાય છે. ન્યાયકોર્ટ કાર્યસિદ્ધિનો પોકળ ભ્રમ લે તો તે ખોટું છે જ.
કોઇ ઇન્સ્પેકશનો અસરકારક નથી. જિલ્લામાં હાઇકોર્ટ જજો આવે છે. વકીલ મંડળનો કાર્યક્રમ
હોય, જજોનાં પ્રવચનો હોય પણ જિલ્લામાં તટસ્થ પ્રબુદ્ધ નાગરિકો કે, કેસો માટે આવતા
અસીલ વર્ગની શી પીડા છે તે જાણવા લગીરે ધ્યાન કોઇ જજ આપતા નથી. ન્યાયતંત્ર 'આઇવરી
ટાવર'માં રહી ન શકે, અલિપ્ત રહે પણ પડદામાં નહીં. આથી ન્યાયતંત્ર સામેની ઢીલ, પ્રમાદ
વગેરેની ફરિયાદો ચાલુ પીડા આપતી રહે છે. હાઇકોર્ટમાં ઉપર જણાવેલ ૬૪૭ જજોની જગ્યા
છે તેને બદલે ડબલ - ૧૨૯૪ જજો નીમાશે તો પણ ઢીલ નહીં ઘટે.</head></p>

<p>કોઇ ઉચ્ચ કક્શાના જજના
સમારંભોમાં શીખામણ આપતા કે સરકારને વગોવતા છાપામાં અહેવાલો વાંચુ છું ત્યારે
મને કહેવાનું મન થાય કે, ડૉકટર તમારૂં પ્રથમ દર્દ મટાડે.</p>

<p>ન્યાયતંત્રમાં માંદગી છે તે
માંદગીને તે સુધારે નહીં તે કમનસીબી આટલું લખ્યા પછી એ સ્વીકારૂં છું કે આપણા
સંવિધાનની ત્રણ પાંખ કારોબારી, સંસદ અને ન્યાયખાતું. તેમાં પ્રજાને કેવળ ન્યાયમાં
હજુ પણ વિશ્વાસ છે. </p>

<p>ન્યાયતંત્રમાં દોષો છે
છતાં શા માટે તેમાં વિશ્વાસ છે તેનું કારણ એજ છે કે ભ્રષ્ટ પ્રધાનો કે અમલદારોને
સરકાર છાવરે છે ત્યારે માત્ર ન્યાયતંત્ર જ નિર્ભયતાથી એ ભ્રષ્ટ માંધાતાઓની શાન
ઠેકાણે લાવે છે. કયારેક જેલના સળિયા પાછળ ધકેલે છે. ન્યાયતંત્રનો આ સદ્ગુણ છે
તેથી જ તેમાં વિશ્વાસ છે. પણ સાથે ન્યાયતંત્ર પોતાનામાં જે અનેક બદીઓ છે તેનાથી
પ્રજાને અણગમો તો કયાંક ત્રાસ છે. તેની પીડા માફ ન થાય. ન્યાયતંત્ર તેટલા પૂરતું
દોષિત છે.</p>

<p>ન્યાયતંત્ર સામેની ઢીલ, પ્રમાદ,
ભ્રષ્ટાચાર, બિનઅધિકૃત હસ્તક્શેપ વગેરેની વ્યાપક ફરિયાદો ભારતમાં સર્વત્ર વિદીત છે
તાજેતરમાં કાયદાપ્રધાનની મુલાકાત કેન્દ્રમાં હતી તેમાં હતું કે ભારતમાં તમામ
હાઇકોર્ટો મળી કુલ્લ ૩૪ લાખ કેસો છે તેમાંથી અર્ધા ૧૭ લાખ તો ૩ વર્ષ જુના
છે. દાયકા જુના પણ ઘણા છે. </p>

<p>કોર્ટના વડાઓ કહે છે કે
ખાલી જગ્યા સરકાર પુરતી નથી. એમાં ઉતરીયે તો તમને હાઇકોર્ટે મળી કુલ ૬૪૭ જગ્યાઓ
છે. તેમાંથી વાસ્તવમાં પચાશેક જ પુરાયેલ નથી. આ વધુ આંકડો નથી પણ પ્રશ્ન એ છે કે
જેટલા જજો છે તે સર્વ કામના કલાકોમાં કામ કરે છે? નહિંજ. સુધારણા માટે લો
કમિશનની અનેક ભલામણો છે. પણ લગભગ અભેરાઇએ પડી છે. રીટ અરજીઓ ઘણી રદ કરવાપાત્ર
દાખલ થાય છે. કારણ કે વકીલવર્ગની નારાજી નથી વહોરવી. લાંબી દલીલો ઉલટ, છાશવારે
મુદતની અરજીઓ નથી અટકાવાતી કારણ ન્યાયધીશોની નીચલી કોર્ટોમાં વકીલોને
શેહશરમ રાખવી પડે છે. </p>

<p>વળી લોકઅદાલત, લીગલએઇડ,
કાનુની શિબિરોના સમારંભો જિલ્લામાં ગોઠવાય તેથી ન્યાયતંત્રને વકીલો અને સંસ્થાઓ
પર પરતંત્ર કયાંક રહેવું પડે છે. અગાઉ ન્યાય તંત્રનું મુળ કાર્ય ન્યાય, ઝડપી અને શુદ્ધ
મળે છે તે હેતુ લોકઅદાલત કે અન્ય સમારંભોથી ઠેલાય છે. ન્યાયકોર્ટ કાર્યસિદ્ધિનાં
પોકળ ભ્રમ સર્વત્ર લેતાં તે ખોટું છે જ. કોઇ ઇન્સેપેકશનો અસરકારક નથી. જિલ્લામાં
હાઇકોર્ટ જજો આવે છે. વકીલ મંડળનો કાર્યક્રમ હોય જજોના પ્રવચનો હોય પણ જિલ્લામાં
તટસ્થ પ્રબુદ્ધ નાગરિકો કે કેસો માટે આવતા અસીલ વર્ગની શી પીડા, શું દર્દ છે તે જાણવા
લગીરે ધ્યાન કોઇ જજ આપતા નથી. ન્યાયતંત્ર 'આઇવરી ટાવર'માં રહી ન શકે. અલિપ્ત રહે પણ
પડદામાં નહીં, આથી ન્યાયતંત્ર સામેની ઢીલ પ્રમાદ વગેરેની ફરિયાદો ચાલુ પીડા આપતી રહે
છે. હાઇકોર્ટમાં ઉપર જણાવેલ ૬૪૭ જજોની જગ્યા છે તેને બદલે ડબલ ૧૨૯૪ જજો નીમાશે તો
ઢીલ નહીં ઘટે.</p>

<p>ન્યાયતંત્ર સામે એક બીજી
જ્ઞાતિ પણ વાદગ્રસ્ત છે. બંધારણમાં હાઇકોર્ટ, સુપ્રિમ કોર્ટને સરકારને, કોઇ
સત્તાને આદેશો, ડિરેકશન આપવાની સત્તા છે. તેના મૂળમાં ઉતરીએ. ન્યાયતંત્ર કારોબાર,
વહીવટની સત્તા ભોગવતું નથી, તેને અધિકાર નથી., ન્યાયતંત્રનું કાર્ય કાયદાના
અર્થઘટનનું છે. કાયદો બનાવવો તે કાર્ય કેવળ ધારાસભ્ય કે સંસદનું છે. </p>

<p>વહીવટ ચલાવવો એ કાર્ય કેવળ
કારોબારી એકઝીક્યુટીવનું છે. આથી તાત્વીક રીતે તેઓ માત્ર અર્થઘટનના અમલ માટે આદેશો
આપી શકે, વ્યાપક નહીં, તેને બદલે કોઇક આદેશ કરે છે. સત્તા સહુને વહાલી વળી, ન્યાયના
ચુકાદામાં કેટલાક અર્થઘટન સમાજમાં દાંડાઇ, શીરજોરાઇ, અસલામતી, વહીવટી ગૂંચ વધ્યો
છે. એનૈતિકતા વધી છે.</p>

<p>ઉપાયો શું છે/ કેટલાક
ઉપાયો સુચવું.</p>

<p>૧ ડૉકટર વગેરેને કન્ઝ્યુમર્સ
પ્રોટેકશન એક્ટ ગ્રાહક સુરક્શા ધારો લાગુ પડ્યાં છે. તેમ ન્યાયતંત્રને પણ તે
કાયદો લાગુ પડે.</p>

<p>૨ સમારંભો ઘટાડાય, દૈનિક
કામ જજો જેટલું કરે તે જોવાય. પ્રમાદીજજોને તાકીદ થાય.</p>

<p>૩ કોર્ટનો તિરસ્કાર એક્ટથી
પ્રચાર માધ્યમો કે કોર્ટને આશરે જતી પ્રજા ફરિયાદ બહાર લાવવા અચકાય છે. આથી તે એક્ટ
અમુક વખત સસ્પેન્ડ થાય યા તેમાં હળવ થાય.</p>

<p>૪ સંસદ ધારાસભામાં
ન્યાયતંત્ર અંગે ચર્ચા પ્રતિબંધિત છે તે નિયમને વિરલ પ્રસંગે કોરે મુકી
સંસદ/ધારાસભાઓમાં ન્યાયતંત્ર ચર્ચાય. ન્યાયમાં આજે આશા છે કે પણ ઘણા પ્રમાણમાં
નિરાશા છે.</p>

<p>સત્તા અને વળગણ</p>

<p>રાજકારણ કે સત્તામાં કયારેક
વળગણ હોય છે. અગાઉ ભૂત ડાકણના વળગણ હતાં તેનાજ હોય. કોઇ માન્યતાના, કોઇ વાદના,
રોફના, વળગણો કાર્ટુનિસ્ટો માટે ચિત્રો દોરવા માટે સરસ સામગ્રી છે. થોડાક
દ્રષ્ટાન્તોનું અવલોકન કરીએ.</p>

<p>શ્રી બાજપાઇ છેલ્લા ત્રણ વર્ષથી
આ દેશમાં સત્તા શ્રેષ્ઠ પદે છે. તે લાલબહાદુરશાસ્ત્રીની જેમ ઘણી નામના કાર્ય કરી મેળવી
શક્યા હોત પરંતુ તેને એક વળગણ છે કાશ્મીર સીસફાયર, પાકિસ્તાન ટીવી, છાપાં રેડિયો
જુએ એટલે દરરોજ આ સમાચારો કંટાળો આપે. આમતો અડવાણીને મસ્જિદ સ્થાને
મંદિરનું વળગણ છે પરંતુ તે અંતરમાં ઉંડે રાખી શકે છે. માજી વડાપ્રધાન વી.પી.સિંહ
કે માજી મુખ્યમંત્રી માધવસિંહ સોલંકી જુઓ, બન્ને શક્તિશાળી, પ્રતિભાશાળી પણ
અનામત-અનામતનું વળગણ અને બન્ને ફેંકાઇ ગયા. ફર્નાન્ડીઝને ધાંધલનું વળગણ છે.
તે દેશના હોદામાં હોય તો ડિફેન્સમાં ખતરો કરે. બાળઠાકરેને હિન્દુ તો ઠીક
'મરાઠા'નું વળગણ છે. ગુજરાતના મુખ્યમંત્રી કેશુભાઇ પટેલને શરૂમાં ગોકુળિયા ગામનું
વળગણ હતું. અશોક ભટ્ટના પ્રવચનોમાં કલ્પનામાં કે ભાષામાં ઉડી જાય છે. </p>

<p>ગોકુળિયું ગામ તો ઘટ્યું
આવા બધા વળગણોથી જેનામાં અપેક્શા હતી તેઓ ફોતરા જેવા થયા. પરિણામે
તેઓનું પદ પુરુ થશે પણ વિસ્મૃતિમાં તરત સરી જશે. નિવૃત્તિ પછી પ્રધાનો કે
અધિકારીઓ વાતવાતમાં પોતે પ્રધાન અધિકારી હતા તેમ બોલે લોકો
તેને યાદ નકરે અધિકારીવર્ગમાં પણ વળગણ છે. </p>

<p>એક માજી આઇ.સી.એસ.સચિવ
ઘણા જ કાર્યદક્શ તેમની સિદ્ધિ ખરી જ પ ણ મારા જેવા બુદ્ધિશાળી કોઇ નથી કે થોડા છે
તેવો મિથ્યા ખ્યાલ પરિણામે તેઓના ંભારણાનો ગ્રંથ 'હું'નો ઢગ લાગે. આપણા દેશને
હેરત પમાડે એવા માજી ચંટણી કમિશ્નર શેષન દેડકાં જેમ પોતાની શક્તિનાં ગુમાનમાં
કૂદયાં તો રાષ્ટ્રપતિ ચૂંટણીમાં ભૂંડી હાર પામ્યા. અધિકારીઓ પોતાપોતામાં
વાદો કરે ''મેં આને ફાયર કર્યો તેમ હાંકે રાખે. સામાન્ય પ્રજામાં કોઇને પ્રસિદ્ધી
ફોટાનું વળગણ હોય તો કોઇ છાપાંનો ફેરીયો મોડો થાય તો અજંપામાં આંટાફેરા
કરતા દેખાય.</p>

<p>વળગણ માત્ર વ્યક્તિગત હોત તો
ઠીક પણ પદાધિકારીઓના કિસ્સામાં દેશના કે સમાજના ઘણા અહિતમાં છે. કેન્દ્રમાં જે
રાજ્યોમાં સહુ ભાજપથી એટલા ત્રાસ્યા છે કે આવતી ચૂંટણીમાં દિવાલ પર લખાણ વંચાય છે.
કોંગ્રેસમાં સત્તા પર ફરી આવશે પણ કોંગ્રેસમાં યે આજે થોડા વળગણો છેજ. તે નહિં
સુદરે તો હાલમાં કંટાળેલી પ્રજાને કોંગ્રેસ સતામાં આવશે ત્યારે લાગશે 'ઉલમાંથી
ચુલમાં પડ્યા.' માનવ અવતાર અને તેમાંયે પદ મળે ત્યારે એ રત્નવળગણથી દરિયામાં શા માટે
ફેકવું.?</p>

<p>કોંગ્રેસ આગામી ચૂંટણીમાં
સત્તા પ્રાપ્ત કરે તે અંગે પૂર્વ તૈયારી શી જરુરી છે તે વિચારીએ. કેટલાક પક્શીય
કાર્યકરોને પસંદ કરી ભાવિમાં શુદ્ધ, કાર્યદક્શ વહીવટદાર પ્રધાન, ચેરમેન તરીકે થાય
તેની તાલીમ આપવી જોઇએ. તેં અંગે પુસ્તકોના અભ્યાસ પ્રેરિત થાય તેવા બીજ રોપવાં
જોઇએ. પક્શમાં હોદ્દાનું તેજ વધે તે માટે કાર્યવાહી વિચારવાળી જોઇએ. દરમ્યાન
તરીકે ગુ.પ્રદેશ કોંગ્રેસમાં ૬ હોદ્દા પૂરતા છતાં હાલે નાનામોટા ૫૬ છે. પછી પ્રમુખ તો
નિસ્તેજ થાયજ. સંસદ કે ધારાસભ્યોમાં કેટલાકસભ્યોનાં વર્તન સાંઢ જેમ કયારેક થાય
છે તેને સંયમમાં લાવવાંજ જોઇએ ચૂંટણીમાં પક્શના જોડાણો સિદ્ધાંતમય હોવા જોઇએ.
ક્શણિક લાભે કરોડો મતદારો જે નિર્લેપ છે તે વિરુદ્ધ કરી ન શકાય આ બધા
સુધારા નહિ થાય, વળગણાં ચાલુ રહેશે. તો સત્તામાં કોંગ્રેસ પણ શાપરુપ થશે.</p>

<p> </p>






</body></text></cesDoc>