<cesDoc id="guj-w-samachar-supp-01-11-01" lang="guj">
<cesHeader type="text">
<fileDesc>
<titleStmt>
<h.title>guj-w-samachar-supp-01-11-01.txt</h.title>
<respStmt>
<respType>Electronic file created by</respType>
<respName>Department of Linguistics, Lancaster University</respName>
<respType>text collected by</respType>
<respName>Andrew Hardie</respName>
<respType>transferred into Unicode by</respType>
<respName>"Unicodify" software by Andrew Hardie</respName>
</respStmt>
</titleStmt>
<publicationStmt>
<distributor>UCREL</distributor>
<pubAddress>Department of Linguistics, Lancaster University, Lancaster, LA1 4YT, UK</pubAddress>
<availability region="WORLD"></availability>
<pubDate>03-08-24</pubDate>
</publicationStmt>
<sourceDesc>
<biblStruct>
<monogr>
<h.title>"Gujarat Samachar" internet news (www.gujaratsamachar.com), news stories collected on 01-11-01</h.title>
<h.author>Gujarat Samachar</h.author>
<imprint>
<pubPlace>Gujarat, India</pubPlace>
<publisher>Gujarat Samachar</publisher>
<pubDate>01-11-01</pubDate>
</imprint>
</monogr>
</biblStruct>
</sourceDesc>
</fileDesc>
<encodingDesc>
<projectDesc>Text collected for use in the EMILLE project.</projectDesc>
<samplingDesc>Simple written text only has been transcribed. Diagrams, pictures and tables have been omitted and their place marked with a gap element.
</samplingDesc>
<editorialDecl>
<conformance level="1"></conformance>
</editorialDecl>
</encodingDesc>
<profileDesc>
<creation>
<date>03-08-24</date>
</creation>
<langUsage>Gujarati</langUsage>
<wsdUsage>
<writingSystem id="ISO/IEC 10646">Universal Multiple-Octet Coded Character Set (UCS).</writingSystem>
</wsdUsage>
<textClass>
<channel mode="w">print</channel>
<constitution type="composite"></constitution>
<domain type="public"></domain>
<factuality type="fact"></factuality>
</textClass>
<translations></translations>
</profileDesc>
<revisionDesc></revisionDesc>
</cesHeader>

<text>
<body>




<p><head>અંતર વરસે અનરાધાર</head></p>

<p><head>નિર્ભયતા વિના સત્યના જગતમાં પગ પણ મૂકવો અસંભવ છે</head></p>

<p>ઔરંગજેબ નામે એક મુસલમાન બાદશાહ થઇ ગયો. સ્વભાવે એક્રૂર અને
કટ્ટર હતો. સરમદ નામે એક સૂફી ફકીર પણ એજ અરસામાં થયો. ઔરંગજેબે આ ફકીરને
જાહેરમાં શૂળી આપી. કેમકે એ કુરાનની અધૂરી આયાત બોલતો હતો. બાદશાહે એને
બોલાવીને પૂછ્યું કે તું આવું કેમ કરે છે ? કેમકે, તું જે અધુરી આયાત બોલે છે
તેનાથી એનો અર્થ જ બદલાઇ જાય છે. આની આયતનો જે અર્થ છે, તેને એ ખંડિત કરે છે.</p>

<p>કુરાનમાં એક એવી આયાત આવે છે, જેનો અર્થ થાય છે કે 'કોઇ
અલ્લાહ નથી, બસ એક અલ્લાહ સિવાય' અર્થાત્ આ જગતમાં અલ્લાહ સિવાય બીજું કશું જ નથી.
સર્વત્ર એ એક જ વ્યાપ્ત છે. મુસલમાન લોકો એનો થોડોક સીમિત અર્થ પણ કરે છે. કે
જગતમાં અલ્લાહ સિવાય બીજું કશું જ નથી. સર્વત્ર એ એક જ વ્યાપ્ત છે. મુસલમાન લોકો
એનો થોડોક સીમિત અર્થ પણ કરે છે. કે જગતમાં અલ્લાહ તો એક જ છે. એ સિવાયના બીજા
બધા દેવી -દેવતા, ભગવાન વગેરે વ્યર્થ છે. એનું કોઇ મહત્વ નથી.</p>

<p>સરમદે કહ્યું કે અત્યારે તો હું અડધી જ આયતને સમજી શક્યો
છું. અને એટલે હજુ અડધી જ બોલું છું. જે વખતે પૂરેપૂરી આયાત સમજાશે અને
જીવનમાં એને ઉતારી શકાશે ત્યારે હું પૂરી આપત બોલીશ, 'કુરાન એ પવિત્ર ગ્રંથ છે.
એની એકેએક આયાત બહુમૂલ્ય અને ઊંડા અર્થથી ભરેલી છે.' એને હું માત્ર બોલીને
બગાડીશ નહીં. આવી ઉત્તમ આયાત બોલવા માટે પણ વ્યક્તિ પાસે પાત્રતા જોઇએ. પોપટની જેમ
એને બોલી જઇએ તો એનો અર્થ શો? આવી આયતો માત્ર બોલવા માટે નહીં પણ જીવવા
માટે હોય છે.</p>

<p>ઔરંગઝેબ તો આ ફુટડા યુવાન ફકીરની વાત સાંભળીને લાલચોળ થઇ
ગયો. એક બાદશાહની સામેેે જાણે કોઇ 'બાદશાહ' બોલી રહ્યો હોય એવી એ અવાજમાં
ખુમારી હતી. બીક તો ત્યાં હતી જ નહીં. બાદશાહથી આ ખુમારી સહન ન થઇ.
મુલ્લા-મૌલવીઓની વાત એને સાચી લાગી. વારંવાર આ લોકો આવીને કાન ભંભેરણી કરી
જતાં કે સરમદ નામનો એક છકી ગયેલો ફકીર કુરાનનું જાહેરમાં અપમાન કરે છે. આજે
સ્વયં બાદશાહને પણ લાગ્યું કે આ માણસ માથા ફરેલો છે. એટલે એજ વખતે રાજાએ હુકમ
કર્યો કે આ માણસને જાહેરમાં શૂળ આપીને એનો શિરચ્છેદ કરો, કેમકે એ નાસ્તિક છે.</p>

<p>આ માત્ર કથા જ નહીં પણ ઐતિહાસિક તથ્ય છે. દિલ્હીની મસ્જિદ સામે
જાહેરમાં સરમદની ગરદન કાપવામાં આવી અને 'ધડામ કરતું એનું મસ્તક મસ્જિદના
પગથિયા પર પડ્યું અને ત્યાં ઊભેલા મતામ લોકોએ આશ્ચર્ય સાથે એ કપાયેલા મસ્તકના
મોંમાંથી પૂરી આયાત સાંભળી...'' આ જગતમા કોઇ અલ્લાહ નથી, કેવળ એક અલ્લાહ
સિવાય'' સર્વત્ર બસ એજ છે. જેનું મસ્તક કપાઇ રહ્યું છે તેમાં અને જે મસ્તક કાપી રહ્યા
છે તેમાં પણ એજ છે. એકનો જ આ બધો ખેલ છે.'</p>

<p>સરમદને જે સમજે છે તે તમામ સંતો કાયમથી એકજ વાત કરે છે.
''જયાં સુધી ગરદન ન કપાય ત્યાં સુધી સાચી વાત સમચાજી નથી. સ્થૂળ અર્થોમાં
ગરદન કપાવવાનો અર્થ થાય છે કે પોતે પ્રમાણિકતાથી જે જાણે કે સમજે છે તેના માટે માથું
આપવાની પણ તૈયારી હોવી જોઇએ પોતાના મસ્તક કરતાં પણ અંદરની પ્રમાણિકતા વધુ મહત્વની
અને કીંમતી છે. નિર્ભયતા વિના સત્યના જગતમાં પગ પણ મૂકવો અસંભવ છે.એમ લાગે કે આવું
કહીશ તો મારૂં માથું ઉડાવી દેવામાં આવશે તો પણ જે સત્ય છે તે કહેવું જોઇએ. કેમકે
પોતાના પ્રાણ કરતાંય સત્ય વધુ કીંમતી છે.</p>

<p>માથું કપાવવાનો સૂક્શ્મ અર્થ એ થાય છે કે અહંકારને નિશેષ કર્યા
સિવાય જે સર્વત્ર પ્રાપ્ત છે અને બધાંમાં જે ચૈતન્ય સ્વરુપે વ્યક્ત છે તેની પ્રતીતિ થતી
નથી.</p>

<p>કથા કહે છે : ઔરંગજેબ મર્યો ત્યારે એના મનમાં સોથી
વધારે પીડા સરમદ જેવા 'સાચા' ફકીરને મારવાની હતી. અને અલ્લાહને એણે જે છેલ્લી
પ્રાર્થના કરી તેમાં પણ એટલી જ અરજ હતી કે મેં અનેક લોકોને માર્યા છે મારી આ અરજથી
એ બધાને મારવા બદલ કદાચ મને માફ કરી દેવામાં આવે તો પણ એક સરમદની ગરદન
કાપવા માટે મેં જે પાપ કર્યું છે તેને જો માફ કરવામાં ન આવે તો મારૂં મન હળવું નહીં
થાય. કેમકે જીવનભર આ માણસને મારવાની પીડા મારા મનમાં રહી છે.</p>

<p>ઓશો કહે છે : સત્યની બાબતમાં બેધડક બોલ્યે જતાં
પોપટિયા સંતોની અહીં બોલબાલા છે. જયારે સત્યને જીવવાની પ્રામાણિક રીતે કોશિશ કરતા
સરમદ જેવા સંતોની બેરહમીથી હત્યા થાય છે કદાચ સત્યના રસ્તે ચાલવાની એજ એક માત્ર શરત
અને મૂલ્ય ચૂકવણી પણ હોઇ શકે.</p>

<p>ક્રાન્તિબીજ</p>

<p>આપણે ત્યાં મોટા ભાગના લોકો પરિસ્થિતિ કે સંજોગોને
આધીન થઇને જીવે છે. એમની પાસે પોતાનો નિર્ણય, પોતાની કોઇ દ્રષ્ટિ, દિશા કે
પોતિકો કોઇ માર્ગ નથી હોતો. જેવા સંજોગો ઊભા થાય, પરિસ્થિતિ જેવો વળાંક લે એ
પ્રમાણે એને જીવવું પડે છે. આવા લોકો સંજોગો, સમાજ અને પરંપરાના ગુલામ હોય એ
રીતે જ જીવે છે. સંસારી એને કહેવાય જે સંસાર પ્રમાણે ચાલે, સંસારથી સતત ડરતા રહે.</p>

<p>બીજા કેટલાક એવા પણ લોકો હોય છે કે જેને સંજોગો ડરાવી કે
ડગાવી શકતા નથી. હરકોઇ હાલતમાં જે અડગ રહીને અંતરના અવાજ પ્રમાણે જીવે છે એને
ભારતીય પરંપરામાં સ્વામી, સાધુ કે સંન્યાસી કહેવામાં આવે છે. એમની પાસે એક કોઇ
નિશ્ચિત દિશા, ચોક્કસ ધ્યેય અને દ્રઢ સંકલ્પ હોય છે.</p>

<p>ત્રીજો પ્રકાર છે સંતનો. તે 'તથાતા'માં જીવે છે એમની પાસે પણ
પોતાનો કોઇ નિર્ણય કે આગ્રહ નથી હોતો. પરમાત્મા જેમ રાખે, જે કંઇ કરાવે, જેમ
જીવાડે એમ એ જીવે છે. પરિસ્થિતિને નહીં પણ પરમાત્માને નીત સોંપીને જે જીવે છે તેને જ
સંત, સિદ્ધ કે પરમહંસ કહી શકાય. આવા લોકો સૌ કોઇ માટે સદાકાળ વંદનીય છે.</p>

<p> </p>




<p><head>વિચાર વીથિકા</head></p>

<p><head>જે આશામાં મધુર સુખ તે તૃપ્તિમાં કેમ છે ના ?</head></p>

<p>મનુષ્ય શક્તિનો ભંડાર છે. તેનું જીવન આશાઓનું ઘર છે. આ
આશાઓ તેને જીવંત રાખે છે. આશા પ્રેરણાનું પીયૂષ છે. તેનાથી માનવી પ્રગતિના પથ પર
પ્રવૃત્ત રહે છે. તેનાથી તે સ્વપ્નો સેવે છે અને સિદ્ધિ મેળવે છે. માનવીને સતત
દોડાવનારી આ શક્તિમંદ પડી જાય તો જીવનને લકવો લાગી જાય છે. માનવીનું મુખ કમળ કરમાઇ
જાય છે. તેના જીવનમાં ઝેર ઘોળાઇ જાય છે. નિરાશા એટલે સુખદ સ્વપ્નોનો દ્વંસ. જેની
રાતની નિંદર છિનવાઇ જાય તેની દિવસની પ્રવૃત્તિ કેવી થઇ જાય? જેના જીવનમાંથી આશા જતી રહે
તેની તેવી જ દશા થાય છે. આશા, ઉત્સાહ, ઉમંગ અને ઉલ્લાસ વિનાનું જીવન એટલે પ્રસન્નતાનું
કબ્રસ્તાન. બહાદુરશાહ 'જફર'ને પણ એવું જ લાગ્યું</p>

<p>''મેરી ઘુટ-ઘુટકે હસરતેં મર ગઇ</p>

<p>મૈં ઉન હસરતોં કા મજાર હૂં.''</p>

<p>આશા રાખવી એટલે સ્વપ્નો સેવવા. માનવી સ્વપ્નો જોવાનું
બંધ કરે ત્યારે તેના સુખનો મૃત્યુઘંટ વાગવા લાગે છે. હિન્દી કવિ નિરાલાજી કહે
છે.</p>

<p>''સ્નેહ નિર્ઝર બહ ગયા હૈ । રેત જો તન ઢહ ગયા હૈ ।</p>

<p>બહ રહી હે હ્ય્દય પર કેવલ સમા.''</p>

<p>કહ્યું હતું :  Let Us learn to dream, gentlement, and then we may
perhaps find the truth : સજ્જનો,
ચાલો આપણે સ્વપ્નો સેવીએ અને પછી જ કદાચ આપણે સત્ય શોધી શકીશું.''</p>

<p>ગાંધીજી અવારનવાર કહેતા - ''આશા અમર છે, એની
આરાધના કયારેય નિષ્ફળ નથી જતી.'' આશા આત્મવિશ્વાસનું વર્ધન કરે છે. તે
શક્તિને જાગૃત કરે છે અને તેનો સંચય કરે છે. સ્વેટ મોર્ડન લખે છે : ''આશા ન
કેવળ આપણી શક્તિઓને જાગૃત કરે છે પણ તેમને બમણી તમણી માત્રામાં વધારી દે
છે.''</p>

<p>ઇગરસોલ કહે છે - ''આશા એ ફૂલ વિના મધ બનાવનારી
મધમાખી છે.''</p>

<p>વિકટ પરિસ્થિતિમાં પણ આશા ટકી રહે તો જીવનનું કાયાકલ્પ થઇ જાય
છે. માનવીએ કદી ભૂલવું નહિં- ''કંઇક લાખો નિરાશામાં એક અમર આશા છૂપાયેલી છે.''
જયારે નેપોલિયનની સેનાએ આલ્પ્સ પર્વત જોઇને આગળ વધવાની ના પાડી દીધી
ત્યારે તે નિરાશ ન થયો. તેણે તેના સૈનિકોને પાછળ આવવા લલકારી સ્વયં આગળ
વધવા માંડ્યું, પરિણામ એ આવ્યું કે આટલો ઉંચો આલપ્સ પણ સફળતાના રાહમાં
આડો રહી ન શક્યો. આવું જ મહારાજા રણજીતસિંહ માટે બન્યું. તે સેનાને લઇને જઇ રહ્યો
હતો ત્યારે માર્ગમાં તોફાને ચડેલી અટક નદી આડે આવી. તેનું રૌદ્ર રૂપ જોઇ સેના
ત્યાંજ ઊભી રહી ગઇ. પણ મહારાજા રણજીતસિંહ ગભરાયા નહિ. અટક તેમને અટકાવી શકી નહિ.
તેમણે નદીના અદ્ધર ઉછળતાં મોજાઓની પરવા કર્યા વિના ઘોડા સાથે પાણીમાં ઝંપલાવી
દીધું. તેમની પાછળ પાછળ સેના પણ આવવા લાગી. ઘોડાપૂરના પ્રબળ જોસથી સામે ધસતી
અટક નદી રણજીતસિંહના આશાપૂરના ઘોડાને 'અટક' એવું કહી શકી નહિ ! છેવટે તે તેમની
સેના સાથે અટક નદીના સામે પાર ઊતરી ગયા.</p>




<p><head>ચેતનાનાં સૂરજમુખી </head></p>

<p><head>જગતને સંયમનો સંદેશો આપતું નવપદ આરાધનાનું પર્વ :
ઓળી</head></p>

<p>તપનો આશ્રય માણસને દુર્ગતિ અને રોગથી બચાવે છે, માણસ માંદો
પડે ત્યારે ડોક્ટર પાસે જાય. ડોક્ટર દવા લખે ત્યારે પૂછે : 'સાહેબ, ખાવું શું ?'
ડોક્ટર હસીને કહે : 'ભાઈ ખાવાથી તો તું માંદો પડ્યો છે.'</p>

<p>વાત સમજવા જેવી છે, ખાવાથી જેટલા મર્યા છે, એટલા ભૂખે રહેવાથી
નથી મર્યા. વ્યાખ્યાન પૂરું કરી હું પાછો ફરતો હતો ત્યાં રસ્તામાં એક પશુ
દવાખાનામાં જવાનું થયું. ડોક્ટર સાથે વાતચીત કરતા જે જાણવા મળ્યું તે માણસને વિચાર
કરતો કરી મૂકે તેમ છે. મેં ડોક્ટરને પૂછ્યું : 'પશુ માંદુ પડે તો તમને કેવી
રીતે ખબર પડે ?' ડોક્ટરે માર્મિક રીતે કહ્યું : 'મને અને એના માલિકને પછી ખબર
પડે પહેલા એને ખબર પડી જાય છે ને એ ખાવાનું છોડી દે છે.' 'જોયું ? પશુ માંદુ પડે
તો ખાવાનું બંધ કરે, ને માણસ માંદો પડે તો ખાવાની વાત કરે !'</p>

<p>ડૉક્ટરે જણાવ્યા પ્રમાણે સમસ્ત તાલુકામાં પચાસ ગામોમાં માત્ર બે જ
પશુ દવાખાના હતા ! જ્યારે બસોથી વધુ માણસોના દવાખાના હતા, જે દર્દીઓથી ભરેલા
રહેતા હતા ! જ્યારે પશુ દવાખાના ખાલીખમ ! ખાઈને પેટ અને બોલીને જીવન બગાડનાર જીભને જ
કંટ્રોલમાં રાખો તો આવું બને ખરું ? પણ જગતની દોડ અસંયમની દિશા ભણી છે, ને
સરેરાશ ઇન્સાન રોગીષ્ટ, અજંપ ને અશાંત છે ! </p>

<p>આવા સમયે આવતું ઓળીનું નવપદ આરાધનાનું તપ : પર્વ
સાચે જ વિહ્વળ માનવજાતને સમ્યક્ માર્ગનું રાહબર બની શકે તેમ છે :</p>

<p>ધનથી ધર્મની મૂર્છા છૂટે છે,</p>

<p>તપથી દેહની મૂર્છા તૂટે છે.</p>

<p>જીવ માટે આહાર એ સંસારનું કારણ છે, જ્યારે તપ એ ધર્મનું
કારણ છે. આહારનો અસંયમ એટલે રોગને આમંત્રણ, સ્વાસ્થ્યનું અસંતુલન. આહારનો સંયમ
તો ધર્મનું મૂળ બીજ છે. જૈન ધર્મ આ બાબતમાં સ્વયંસ્પષ્ટ છે. જીવની આસપાસ
કર્મો અજગરને ભરડો લે છે ને તપ દ્વારા સાધ્ય બને છે કર્મમુક્તિ ! આસો સુદ આઠમથી
ઓળીનું આરાધના પર્વ આરંભાઈ ચૂક્યું છે આસોની પૂર્ણિમા સુધી ચાલનાર આ
નવ દિવસીય પર્વ સંયમ અને લયના સામર્થ્યને જગત સમક્શ પ્રગટ કરે છે. નવ દિવસના અરિહંત પદ,
સિદ્ધિ પદ, આચાર્ય પદ, ઉપાધ્યાય પદ, સાધુ પદ, દર્શન પદ, જ્ઞાન પદ, ચારિત્ર્ય પદ અને તપ પદ
- એમ નવ પદની તપ દ્વારા આરાધના કરનાર આરાધકો પરમાત્મ તત્ત્વનું સાયુજ્ય
સાધી દિવ્ય શાંતિ અને સંતુષ્ટિની અનુભૂતિ કરે છે. જીવનના લક્શ્યને સુસાધ્ય કરવા માટે
નવપદની આરાધનાનું આલંબન મુખ્ય છે, જેના દ્વારા જીવ આત્મસ્વરૂપને ઓળખી શકે છે.</p>

<p>ંમયણાસુંદરી અને શ્રીપાલની કથા ઓળીની નવપદ આરાધનાની
બેમિસાલ કથા છે. જિનશાસનમાં શ્રદ્ધાવંત એવી મયણાસુંદરી પતિની પસંદગીના પ્રશ્નના જવાબમાં
પિતાને કહે છે : 'જે કર્મમાં હશે તે મળશે' અને એના લગ્ન કરવામાં આવે છે
રક્તપિત્તથી ખદબદતા શ્રીપાલ સાથે... પણ અંતે કર્મો ભોગવાઈ જતાં ઓળીના નવપદની
આરાધના પૂર્ણ થતાં પતિનો રોગ દૂર થાય છે ને રાજ્યનો તે રાજા બને છે.
મયણાસુંદરીનું દ્રષ્ટાંત ઓળીવ્રતના પ્રભાવક તપની ગવાહી પૂરે છે.</p>

<p>ગુરુ સાધકને કહે છે :</p>

<p>'સંસાર સાગર પાર કરવાનો ઉપાય છે સ્વલક્શી સિદ્ધિ ને સ્વલક્શ્યની
સિદ્ધિનું સાધન છે આરાધનાના નવપદ... એ સાધન છે તો સ્વયં સાધ્ય પણ
છે... સાધન, સિદ્ધિ અને સાધન - એ ત્રણેની એકરૂપતા એ જ છે ઓળીનું
લક્શ્યબિંદુ ટાર્ગેટ પોઇન્ટ... નવપદના અસંખ્ય ગુણોને આત્મસાત્ કરનાર શ્રાવક માટે
સંસારનો કોઈ પ્રશ્ન અનુત્તર નથી રહેતો !'</p>

<p>આજે તો વિક્શુબ્ધ છે સમસ્ત જગત ! ભોગમાર્ગી માણસની
ભીતરમાં ભડકે બળે છે અજંપો. ભોગનું રણ વિસ્તરતું જાય છે. અસંયમી ખાઉધરાપણાની
કેપ્સુલ ગળી ગળીને માણસ રોગના ખોળે આંખો મીંચીને પડ્યો છે. ભોગના ઝેર તો એણે
પીધાં છે જાણી જાણી ! શાંતિના શ્વેત પારેવાં ઉડતાં દ્રષ્ટિગોચર થતા નથી તોપના
નાળચામાં હિંસક ઘોઘર બિલાડો લપાઈને બેઠો છે. ફુલાવેલા પેટ સાથે રાતીચોળ જીભ
કાઢીને માણસ કંદોઈની દુકાનનું પાટિયું વાંચે છે. અસંયમે આંધી સર્જી છે. દાંત
ભીંસીને મુઠ્ઠીઓ વાળીને માણસ માણસને માટી બનાવી દેવા, હોંકારા-પડકારા કરી રહ્યો
છે. શાંતિનો જનાજો નીકળવાની તૈયારી છે. ત્યારે જરૂર છે ઓળીના આરાધના પર્વના
નવપદને સુસાધ્ય કરવાની. જગતની સમસ્યાઓની ચાવી એની પાસે છે. </p>




<p><head>આકાશની ઓળખ</head></p>

<p><head>શ્રીમદ્ ભગવદ્ગીતા યુદ્ધની કથા નથી!</head></p>

<p>શું શ્રીમદ્ ભગવદ્ગીતા એ યુદ્ધકથા છે?</p>

<p>ભારતીય સંસ્કૃતિના સમગ્ર ઈતિહાસમાં ભારતે પરાયી ધરતી પર
આક્રમણ કરીને મેળવેલા વિજયની એક ઘટના પણ મળતી નથી.</p>

<p>તો શું આવી શાંતિપ્રિય, અહિંસક અને અનાક્રમક સંસ્કૃતિનો મહાન
ગ્રંથ યુદ્ધનો ઉપદેશ આપે ખરો? મહાભારતના ગ્રંથની વચ્ચોવચ આવેલી શ્રીમદ્ ભગવદ્ગીતા
યુદ્ધ પારના માનવિય કર્તવ્યનો સંદેશ આપે છે.</p>

<p>કેટલાક અર્થઘટન કરનારાઓએ શ્રીમદ્ ભગવદ્ગીતાને યુદ્ધ કથા કરીકે
ઓળખાવી છે.''યુદ્ધ એ જ કલ્યાણ''નો વીરરસભર્યો સંદેશ આમાંથી નીકળતો નિરખ્યો છે.
અર્જુનના હ્ય્દયમાંથી અહિંસા અને સમભાવની વૃત્તિ દૂર કરીને એને યુદ્ધ માટે ઉત્સાહિત કરવાનો
શ્રીકૃષ્ણનો આમાં કેટલાકે આશય જોયો છે, પરંતુ વાસ્તવમાં શ્રીમદ્ ભગવદ્ગીતા એ આવી
યુદ્ધ કથા નથી.</p>

<p>જગતના ઈતિહાસ પર દ્રષ્ટિપાત કરીએ તો ખ્યાલ આવશે કે વિશ્વમાં
ખેલાયેલાં મોટાભાગનાં યુદ્ધોને યુદ્ધખોરોએ યોગ્ય ઠેરવવા અથાગ પ્રયાસ કર્યો છે.એ
વિદિત છે કે આવાં ઘણાં યુદ્ધોમાં નિ:સહાય અને નિર્બળ લોકોનો નિર્દય રીતે
સંહાર કરવામાં આવ્યો છે. આવાં યુદ્ધોની પાછળ સત્તા, સૌંદર્ય, ધર્મઝનૂન અને
અહંકાર પણ કારણભૂત બની રહ્યા છે.વળી કેટલાકે યુદ્ધને સાચું ઠેરવવા માટે જીતેલા પ્રદેશમાં
પ્રવર્તતા અન્યાય અને અનાચારને દૂર કરવાનું કારણ આપ્યું છે.કેટલાકે શાંતિ ખાતર યુદ્ધ
ખેલ્યું હોવાનો દંભ કર્યો છે.</p>

<p>આ યુદ્ધોના ઈતિહાસમાં મહાભારતનું યુદ્ધ જૂદું તરી આવે છે.એની
પાછળ સત્તાની આંધળી ભૂખ કે સામ્રાજ્ય વિસ્તારનો અહંકાર નથી. ઈતિહાસમાં અને
સાહિત્યમાં નોંધાયું છે કે મહાભારતનું યુદ્ધ તે સત્ય અને ન્યાય માટે ખેલાયું
હતું.એની પાછળનો હેતુ મર્યાદિત સિદ્ધિનો નહોતો, એની પાછળનો હેતુ મર્યાદિત
સિદ્ધિનો નહતો, એની ભીતરમાં કોઇ ભૌતિક પ્રયોજન નહોતું,પરેતુ એનો ઉદ્દેશ તો
વૈશ્વિક દર્શન આપવાનો હતો.</p>

<p>શ્રીમદ્ ભગવદ્ગીતાનો ઉપરછલ્લો અભ્યાસ કરનારને એમાં યુદ્ધની પ્રેરણા
દેખાય, પરંતુ કોઇપણ દાર્શનિક ગ્રંથને સમજવા માટે એની પરંપરા જોવી અનિવાર્ય બને
છે.શ્રીમદ્ ભગવદ્ગીતાને પામવા માટે ભારતીય દર્શનશાસ્ત્રની વેદો અને ઉપનીષદની પરંેપરા
જોવી પડે.આ પરંપરાની ધારામાં જ શ્રીમદ્ ભગવત્ગીતા પ્રાપ્ત થઇ છે અને તેથી જ
ગીતાને સમજવા માટે વેદ અને ઉપનીષદના હાર્દને સમજવું અનિવાર્ય બને છે.જો વૈશ્વિકદર્શન
વેદ અને ઉપનીષદમાં છે એવું જ વિશ્વકલ્યાણનું દર્શન શ્રીમદ્ ભગવદ્ગીતામાં છે.આપણું
દુર્ભાગ્ય એ કે આ પરંપરાથી અનભિજ્ઞ એવા કેટલાકે આ કલ્યાણમય ગ્રંથને 'યુદ્ધની રમ્ય કથા'
તરીકે ઓળખ્યો.</p>

<p>શ્રીમદ્ ભગવદ્ગીતાનું પ્રથમ પ્રવેશદ્વાર પગથિયું વેદ અને ઉપનીષદનું
જ્ઞાન છે, એ જ રીતે એનું બીજું પ્રવેશદ્વાર વેદાંતની વિચારધારા છે. શ્રીમદ્
ભગવદ્ગીતાના ઉપદેશમાં વેદાંતદર્શન પ્રસ્ફુટીત થાય છે.કૃષ્ણનો ઉપદેશ એ યુદ્ધનો ઉપદેશ
નથી, કિંતુ કર્તવ્યનો ઉપદેશ છે.એ કર્તવ્યના ભાગ રૂપે યુદ્ધ મળે છે. શ્રીકૃષ્ણ અર્જુનને
યુદ્ધની પ્રતિતી કરાવતા નથી, પરંતુ સ્વકર્તવ્યની ઓળખ આપે છે.સચ્ચાઇ માટે અને ન્યાય માટે
યુદ્ધ ન કરવું તે કર્તવ્યભંગ છે. શ્રીકૃષ્ણ અર્જુનને આ જ પ્રતિતી કરાવવા માંગે છે.</p>

<p>એ સમયની અર્જુનની સ્થિતિ જોઇએ. અર્જુન સારથી શ્રીકૃષ્ણને કહે છે
કે મારી સાથે લડનારા કોણ - કોણ છે, તે જરા જોઇ લઉં.માટે રણમેદાનની વચ્ચોવચ મારો
રથ લઇ જાવ.અહીં અર્જુન સ્વજન, સગાવહાલાં, ગુરુજનો સહુને જુએ છે. સામે પક્શે ઊભેલાં
કૌરવોને જુએ છે.પોતાના જ પરિવાર સામે યુદ્ધ ખલવા અંગ્ અર્જુન મુંઝાઇ જાય છે.એના
ગાત્રો ગળવા લાગે છે, મુખમાં શોષ પડવા લાગે છે.દેહમાંથી કંપારી છૂટે છે. રુંવાડા
ખડા થઇ જાય છે.શત્રુઓના નાશ માટે પ્રસિદ્ધ એવું ગાંડીવ ધનુષ હાથમાંથી સરે
છે.શરીરની ત્વચા બળી રહી હોય તેવો અનુભવ થાય છે. અહીં ઊભા રહી શકાય તેવું લાગતું
નથી.એનું મન સતત ભમે છે. શ્રીકૃષ્ણને બાણાવળી અર્જુન કહે છે કે રણમેદાનમાં સ્વજનોને
હણવામાં એને કોઇ શ્રેય જણાતું નથી,બલ્કે ઘોર વિષાદ અનુભવે છે.સ્વજનોને મારીને
વિજય, રાજ્ય કે સુખ કશું ઇચ્છતો નથી. સ્વજનોને હણ્યા પછી રાજ્ય, ભોગ કે સુખનો શો
અર્થ? અહીં અર્જુનનો માત્ર મોહજનિત વિષાદ છે.</p>

<p>વીર અર્જુનની સામે અત્યંત કપરી પરિસ્થિતિ છે. એક બાજુ સત્ય,
સ્વધર્મ, કર્તવ્ય અને ન્યાય એને રણક્શેત્રમાં ગાંડીવ-ટંકાર કરવા પ્રેરે છે તો સામે
પક્શે સ્વજનોના સંહારની હ્ય્દયવિદારક પરિસ્થિતિમાંથી જન્મેલો મોહ એને ડગાવે
છે.મહાભારતના રચયિતાએ શ્રીકૃષ્ણના ઉપદેશ માટે પાંચ પાંડવોમાંથી અર્જુનને જ શા માટે
પસંદ કર્યો તે વિશે હવે પછી.</p>

<p>ગ્રંથવાણી</p>

<p>સાચી શ્રધ્ધા વિના ચારિત્ર સંભવી શકતું નથી; અને
શ્રધ્ધા ઉત્પન્ન થઇ એટલે ચારિત્ર આવે જ.જેને શ્રધ્ધા નથી તેને જ્ઞાન નથી, અને
જ્ઞાન વિના ચારિત્રગુણ ક્યાંથી! ગુણરહિતને મોક્શ નથી,અને અમુક્તને નિર્વાણ કે શાંતિ
નથી.</p>

<p>જ્ઞાનથી મનુષ્યો તત્ત્વોને જાણે છે.દર્શનથી તેમાં શ્રધ્ધા કે રુચિ
કરે છે; ચારિત્રથી જાતનો નિગ્રહ કરે છે અને તપથી વિશુધ્ધ થાય છે.સર્વ
દુ:ખોનો નાશ કરવા ઈચ્છતા મહર્ષિઓ સંયમ અને તપથી કર્મોનો ક્શય કરી
મોક્શગતિને પામે છે.</p>

<p>(શ્રી ઉત્તરાધ્યયન સૂત્ર)</p>

<p>મધુબિંદુ</p>

<p>બીજાઓના અંતરના કાજી થતા પહેલાં તમારા પોતાના અંતરનો અભ્યાસ
કરો. માણસો સામાન્ય રીતે બધા સરખા જ હોય છે.- કોઇમાં એક બાબત મુખ્ય હોય
છે, તો બીજામાં બીજી.પરંતુ તેમની પ્રક્રિયા બધે સરખી જ હોય છે. એટલે બીજાની જે
વાત બદલ તમને ચીડ આવે, ઘૃણા થાય, કે ખોટું લાગે, તમારી તે જ જાતની વાત બદલ બીજાને
પણ એમ જ ચીડ આવવાની,ઘૃણા થવાની કે ખોટું લાગવાનું.</p>

<p>-ચેસ્ટરફિલ્ડ</p>




<p><head>અમૃતની અંજલિ</head></p>

<p><head>ધૂપસળી થઇ જીવીએ... મહેંક ફેલાવી જઇએ...</head></p>

<p>કાષ્ઠ !! એ સ્વયં બળી જાય છે, રાખ થઇ જઇને ઊડી જવાપૂર્વક નામશેષ
પણ થઇ જાય છે.વિશેષતા એ છે કે એ ઠંડીથી થરથરતાં કૈંક જનોને ઉષ્મા પ્રદાન કરી જાય
છે...</p>

<p>શેરડી !! એ સ્વયં કોલુમાં પિલાઇ જાય છે,કૂચે કૂચા થઇ જઇને
ફેંકાઇ જાય છે.છતાં મહત્તા એ છે કે એ કૈંક તૃષાતુર જનોના હાથના ખાલી પ્યાલાને
મીઠા-મધુર રસથી છલકાવી જાય છે...</p>

<p>બીજ!! એ સ્વયં ધરતીમાં દટાઇ જાય છે, આખે આખું એ હળ
નીચે ચગદાઇ જાય છે.છતાં વિરલતા એની એ છે કે એ ખેતરની પૂરી ધરતીને મબલખ
ધાન્યથી લહેરાવતું જાય છે...</p>

<p>કાષ્ઠ,શેરડી અને બીજ: આ ત્રણે ય માનવીના મુકાબલે તો ખૂબ
ન્યુન-હીન ગણાય.છતા એ ય જો પરાર્થ કાજે- આવો પ્રચંડ ભોગ આપી શકતા હોય, તો પછી
એ ત્રણેેયથી કૈંક ગણો મહાન-ઉત્તમ ગણાતો માનવી પરાર્થ કાજે પરોપકાર કાજે પોતાની
જાત સુધ્ધાનો ભોગ કેમ ન આપી શકે? જરૂર આપી શકે.પણ શરત એટલી કે એની
જીવનસિતાર પર સ્વાર્થની સરગમ નહિ, સેવાની સરગમ ઘુંટાતી હોવી જોઇએ.</p>

<p>એક વાત ખબર છે? આ પૃથ્વી પર લાખો અન્નકણ પિસાઇ જઇને કે સડી
જઇને ખતમ થઇ જતાં હોય છે.પણ એમાં એમની કોઇ મહત્તા રહેતી નથી.મહત્તા એ જ અન્નકણ
ની રહે છે કે જે બીજા લાખો અન્નકણોનું સર્જન કરવા હસતાં હસતાં ભૂમિમાં દટાઇ જવાની
શહિદી વહોરી લે છે!! બરાબર એ જ રીતે આ પૃથ્વી પર લાખો-ક્રોડો માનવીઓ શરીરથી
ઘસાઇ જઇને કે રોગોથી ઘેરાઇ જઇને ખતમ થઇ જતાં હોય છે.કિંતુ એમાં એમની કોઇ
મહત્તા રહેતી નથી. મહત્તા એ માનવીની રહે છે કે જે બીજા લાખો જીવોના સુખચેન માટે
દુ:ખ-દર્દના દાવાનળ તરફ દોટ મૂકીને શહીદી વહોરી લે છે!!</p>

<p>આવો આપણે નિહાળીએ સામે પગલે શહીદી વહોરીને મહત્તાના
ઉત્તુંગ ઍવરેસ્ટ શિખર સર કરનાર માનવીની સત્ય ઘટના:</p>

<p>નામ હતું એમનું ડૉ. હેનરી ગાયન. એમની એ પ્રેરક
પરોપકારકથાનું-શહીદીગાથાનું સ્થળ હતું ફ્રાન્સનું માર્સેલ્સ શહેર. બન્યુ હતું એવું કે
એ અરસામાં સમગ્ર ફ્રાન્સ દેશમાં પ્લેગ-મરકીનો ઉપદ્રવ જંગલના દાવાનળની જેમ ફેલાયો હતો.
જ્યાં જુઓ ત્યાં મરકી. માણસો માખી અને મચ્છરની જેમ ટપોટપ મરતાં જાય.અરે! એમના
મૃતદેહોનો પણ નિકાલ કરવામાં મુશ્કેલી થાય એટલી ઝડપથી માણસો મોતને ભેટતા હતા.
કુદરતના આ ક્રૂર કોપ સામે માનવી વામણો પુરવાર થયો. આ રોગ સામે સહુ લાચાર થઇ
ગયા. કેમ કે એની સામે ઝીંક ઝિલાય એવા કોઇ નિદાનો- સેશોધનો થયા ન હતા.</p>

<p>આખરે... આ રોગના પ્રતિકારની વિચારણા માટે ફ્રાન્સના અગ્રણી
તબીબો માર્સેલ્સ શહેરમાં એકત્ર થયા. ઘણી ઘણી ચર્ચા-વિચારણા દરમ્યાન એક સક્શમ સૂચન એ
આવ્યું કે 'પ્લેગનો ભોગ બનેલ વ્યક્તિના દેહના વિવિધ અંગોનું ઓપરેશન કરીને
એમાં બારીકાઇથી સંશોધન ચલાવવું. જેથી નિદાન સચોટ થઇ જાય. એકવાર નિદાન
સચોટ થઇ જાય પછી એનો ઉપાય કરવામાં કાંઇ તકલીફ ન થાય'.પણ લાખ રૂપિયાનો સવાલ એ
ઉપસ્થિત થયો કે આ સંશોધન કરે કોણ? પ્લેગ એવો ચેપી રોગ હતો કે એના
દર્દીની નજીક પણ ફરકવા કોઇ તૈયાર ન થાય.એમાં ય ચેપ લાગી જાય. જ્યારે અહીં તો એના
એકેક અંગ-પ્રત્યંગની ચીર-ફાડ કરીને સંશોધન કરવાનું હતું. વાત સ્પષ્ટ હતી કે આ
જવાબદારી સ્વીકારવી એટલે મોતને સ્વહસ્તાક્શરે આમંત્રણપત્રિકા લખવી!! એથી જ એક પણ
તબીબ આ સૂચનનો અમલ કરવા તૈયાર ન થયો. સહુ પરસ્પરના મુખ તાકી રહ્યા.</p>

<p>એવામાં ડૉ. હેનરી ગાયન ખડા થઇ ગયા. એમણે ખામોશી તોડતાં
કહ્યુ :'આ જવાબદારી હું સ્વીકારૂ છું.મારા એકનું બલિદાન અનેકોના જીવનવરદાન બની
જતું હોય તો એના જેવું રૂડું શું? આમ પણ હજુ મારે પૂર્વાપર ઝાઝી જવાબદારી નથી.
હજુ લગ્નની વયે માંડ માંડ પહોંચ્યો છુ. એથી અન્યો કરતાં ખૂપી ખૂટવાની અનુકૂળતા
મને સારી છે. મારી મિલકત આ રોગના સંશોધન કાર્યમાં વાપરજો'...અને એ વળતી જ
પળે ઓપરેશનના સાધનો લઇને પહોંચી ગયો ઓપરેશન થિયેટરમાં...</p>

<p>સહુ માનવના રૂપમાં રહેલ એ દેવને નતમસ્તકે વંદી રહ્યા. ઓપરેશન
થિયેટરમાં એમણે એક પણ ક્શણ ગુમાવ્યા વિના સંશોધન કર્યે રાખ્યું. એમનું મિશન
સફળ થયું.પણ એ મિશન પૂર્ણ થતાં સુધીમાં મોત એમને, ધારણા મુજબ જ આંબી
ગયું!! ડૉ.હેનરીના મુખ પર ત્યારે અનેકોના જીવનદીપમાં તેલ પૂર્યાનો અજબ સંતોષ
હતો... એ પ્લેગના જંતુશોધકના રૂપમાં આલમમાં અમર બની ગયા..</p>

<p>આવો, આપણે ય આ યુવાન ડૉકટર હેનરી ગાયનની અજબ-ગજબની
ખુમારીથી-ખમીરથી ભાવિત થઇને હાથવગા પરોપકાર કરવા સજ્જ થઇએ.પેલી પંક્તિ પણ એ જ
પ્રેરણા આપે છે કે:-</p>

<p>દીપક થઇને જીવીએ,જ્યોત જલાવી જઇએ;</p>

<p>ધૂપસળી થઇ રહીએ,મહેંક ફેલાવી જઇએ..</p>




<p><head>નમસ્કાર</head></p>

<p><head>શ્રીજી મહારાજનો સાક્શાત્કાર કરનાર સૌરાષ્ટ્રના જાગાભગત</head></p>

<p>જોગીદાસ ખુમાણની જન્મભૂમિ ભાવનાગર તાબાના આંબરડી ગામના
સ્વામિશ્રી જાગાભગત અત્યંત ધાર્મિક અને શુધ્ધ આચારવિચારવાળા મોચી કુટુંબમાં
સં. ૧૮૮૩ને આસો વદ બીજ ને સોમવારના રોજ જન્મ્યા હતા.</p>

<p>માતાપિતા રતનબાઈ અને રાઘવભગત રામચંદ્રજીના પરમ ઉપાસક હતા એટલે
ગામમાં રામાયણ વાંચનાર કોઈ આવે તો બધું કામ પડતું મૂકીને કથા સાંભળવા બેસી જતા.
રાઘવ ભગતે પાછળથી બાઢડામાં અધવારું કર્યું હતું જ્યાં હાલમાં પણ એમના વંશજો રહે
છે.</p>

<p>૧૮૮૨માં બ્રહ્મચારી શ્રી આનંદાનંદ સ્વામિના સંપર્કમાં આવ્યા બાદ
તેઓ ગઢડા શ્રીજી મહારાજના દર્શને જવા લાગ્યા પણ આ નવા ધર્મનો સ્વીકાર કરવા બદલ
તેમને નાતજાત તરફથી ખૂબ મ્હેણાંટોણાં સહન કરવા પડ્યા.</p>

<p>રાઘવભગતના પુત્ર જાગાભક્ત નાનપણથી જ અત્યંત સમજદાર હતા. શાંત અને
તેજસ્વી મુખાકૃતિવાળા જાગાભક્તને શરૂઆતથી જ સાંસારિક પદાર્થો અને વિષયો પરત્વે માયા
નહોતી અને આ કારણથી જ તેઓ કદાચ ત્યાગી થઈ જશે એવા ડરથી નાનપણમાં જ એમનાં લગ્ન
કરાવી દેવાયા હતા.</p>

<p>૧૮૯૫માં ૧૧ વર્ષની વયે નદીએ નહાવા ગયા ત્યાં મોટા પરમાનંદ
સ્વામિના મંડળ સહિત દર્શન થયા. સ્વામિજીએ એક કંઠી અને શ્રીજી મહારાજની મૂર્તિ આપી.</p>

<p>૧૮૯૬માં પ્રબોધિની એકાદશીના રોજ વહેલા નદીએ નહાવા ગયા
ત્યાં સત્તામંડળ સહિત શ્રીજી મહારાજે દર્શન દઈ જાગાભક્તને ધન્ય કરી દીધા. આ જ
ક્શણે ''આ દર્શન તો પૂર્વની સ્મૃતિ સારું આપ્યા છે.'' એમ કહી સૌ અદ્રશ્ય થઈ ગયા.</p>

<p>એક સમયે બાઢડાના પાદરમાં વડ નીચે સં. ગુ. રાઘવાનંદ સ્વામી
આરામ કરતા હતા ત્યારે રાઘવ ભગત ૧૨ વર્ષના પુત્ર જાગાભક્તને લઈને દર્શને ગયા. ત્યાં
રાઘવાનંદ સ્વામીએ જાગાભક્તને જોઈને આગાહી કરી હતી કે, તે સમર્થ થશે ને તેની ખ્યાતિ
સમસ્ત જગતમાં ફેલાશે.</p>

<p>જાગાભક્ત ખરેખર સમર્થ જ હતા. ૧૫મે વર્ષે બિમાર હતા ત્યારે પણ શ્રીજી
મહારાજે દર્શન દીધા ને ૧૯૮૦માં પુન: અનુપમ દર્શન થયા. શ્રીજી મહારાજે સંપ્રદાયના
સમગ્ર ઇતિહાસમાં પોતાના ચરણારવિંદમાં ૬૪ ચિહ્નોમાં દર્શન માત્ર જાગાભક્તને જ કરાવ્યા
હતા. માત્ર ૧૪ વર્ષની વયે એમનાં લગ્ન બગસરા પાસેના હામાપરમાં અમરબાઈ સાથે થયાં
હતાં.</p>

<p>સ.ગુ. શ્રી ગુણાતીતાનંદ સ્વામીના પ્રથમ દર્શન ઉના દેશના ભૂંડણી ગામે
તેમને થયા હતા.</p>

<p>સંવત ૧૯૦૮માં સ.ગુ. ગોપાલીનંદ સ્વામી અંત:ધ્યાન થઈ ગયા પછી
ખિન્ન બનેલા જાગા ભક્તને ગૃહત્યાગનો વિચાર આવ્યો. ૧૯૦૯માં કોઈને ખબર ન પડે તેમ
જુનાગઢ ગયા. પિતાએ શોધખોળ આદરી ત્યારે સ.ગુ. ગુણાતીતાનંદ સ્વામીની રજા લઈ
પાછા ઘેર આવ્યા.</p>

<p>૧૯૦૬ અને ૧૯૦૮માં એમને બે પુત્રો બોધાભાઈ અને નારણભાઈ
થયા હતા. એક દિવસ શ્રીજી મહારાજને દર્શન દીધા પછી પત્ની અમરબાઈએ જાગાભક્તને
ગૃહત્યાગ કરવાની સંમતિ આપી ને જાગાભક્ત જુનાગઢ જઈ વસ્યા.</p>

<p>૧૯૨૩માં સ.ગુ. ગુણાતીતાનંદ સ્વામીએ દેહોત્સર્ગ કર્યા પછી ભક્તે
મન, કર્મ, વચને સમાગમ કર્યો ને સં. ૧૯૫૭ સુધી જુનાગઢ મંદિરમાં ૪૮ વર્ષ લગી
આદર્શ ત્યાગી તરીકે જીવન વ્યતીત કર્યું. અક્શર પુરૂષોત્તમ જ્ઞાનના મહાપ્રચારક તરીકે અખિલ
સંપ્રદાયમાં શ્રી જાગા ભક્ત સદા મોખરે છે.</p>




<p><head>વિમર્શ</head></p>

<p><head>ચિતોડના એ પ્રકાંડ પંડિતે છેવટે પોતાની ગાથા સુધારી
લીધી</head></p>

<p>વિક્રમની છઠ્ઠી શતાબ્દીમાં ભારતમાં વિધ વિધ ધર્મના
પ્રવાહો વહેતા હતા અને પરસ્પરના ખંડનની પ્રવૃત્તિ જોરશોરમાં ચાલતી હતી તેવે સમયે
ચિતોડના રાજદરબારમાં એક પ્રકાંડ પંડિત બિરાજતા હતા. તેમનો વેદાભ્યાસ પરિપૂર્ણ હતો
અને તેમની પાસે શાસ્ત્રોનું અગાધ જ્ઞાન હતું. પંડિત ઘણા જ્ઞાની તો હતા પણ તેમને
જ્ઞાનનો ઘણો ગર્વ હતો. ગર્વ તો ઘણા પ્રકારના હોય છે. પણ જ્ઞાનના ગર્વ જેવો કોઇ ગર્વ
હોતો નથી. કહે છે કે તેમને જ્ઞાનનો ઘમંડ એટલો બધો હતો કે તેમણે જાહેર
કરેલું કે જો કોઇ મને શાસ્ત્રાર્થ કરવામાં હરાવશે તો હું તેનો શિષ્ય થઇ જઇશ.</p>

<p>કિંવદંતી તો એવી છે કે તેઓ શાસ્ત્રાર્થ કરવા જાય ત્યારે
પોતાની સાથે એક નાની નીસરણી લઇ જતા સાથે ફાનસ રાખતા અને પાસે એક કોદાળી રાકતા.
વળી પેટ ઉપર મોટો કમરબંધ બાંધતા અને કહેતા કે જ્ઞાનથી મારૂં પેટ ફાટી ન
જાય માટે મારે બંધ બાંધવો પડ્યો છે. પોતાની સાથે રાખેલાં ઉપકરણો વિશે
સમજાવતાં કે શાસ્ત્રાર્થ કરતાં કોઇ પ્રતિસ્પર્ધી મેદાન છોડી જાય તો તેને પકડવા માટે
મેં આ સાધનો રાખ્યાં છે. રાત્રિના અંધકારમાં તે વિલીન થઇ જાય તો તેને
શોધવા ફાનસ રાખ્યું છે જો પ્રતિસ્પર્ધી આકાશમાં ઉડી જાય તો તેને પકડવા માટે
આ નીસરણી રાખી છે અને જો તે પાતાળમાં ઊતરી જાય તો ત્યાં પહોંચવા માટે આ કોદાળી
રાખી છે.</p>

<p>આવા પ્રકાંડ પંડિત એક દિવસ બજારમાંથી જતા હતા ત્યા સામેથી એક
મહોન્મત હાથી આવ્યો એટલે તેનાથી બચવા માટે તેઓ નજીકમાં આવેલા એક જૈનમંદિરમાં
પેસી ગયા ત્યાં તીર્થંકર ભગવાનોની પ્રતિમાઓ જોતાં તે બોલી ઊઠ્યા :   તારી
લઠપઠ મૂર્તિ જ કહી રહી છે કે તું મીઠાં ભોજનો ખાનારો છે. કારણ કે વૃક્શની
બખોલમાં જો અગ્નિ હોય તો તે લીલું છમ ન રહી શકે.</p>

<p>ભાવિભાવ એવો કે આ પ્રકાંડ પંડિત આગળ જતાં જૈન ધર્મના
ગાઢ સંપર્કમાં આવ્યા અને તે તેમને તર્કગમ્ય લાગતાં તેનો તેમણે સ્વીકાર કર્યો અને ત્યાર
પછી તેમણે જૈન ધર્મના જ્ઞાનગર્ભીત અનેક ગ્રંથો લખ્યા, તેઓ જૈન દર્શનના અદ્ભુત
શાસ્ત્ર સૂત્રધાર ગણાવા અને જૈન ધર્માચાર્ય બન્યા. દરમ્યાન એક સમયે દેરાસરમાં
તીર્થંકર પરમાત્માની મૂર્તિનાં દર્શન કરતાં તેમને અગાઉ પોતે તેમના વિશે જે ઉદ્ગારો
કાઢેલા તે યાદ આવ્યા જેથી તેમણે તેમાં સુધારો કરી નવા શ્લોકની રચના કરી
: તમારી મૂર્તિ જ સ્પષ્ટપણે તમારી વીતરાગતા કહી રહી છે, વૃક્શની બખોલમાં અગ્નિ હોય
તો ઝાડ લીલું ન રહી શકે. એટલે કે જો તમારી અંદર કયાંય રાગનો એક નાનો શો પણ
કાણિયો પડેલો હોત તો તમારી આવી પ્રશાંત અને પુષ્ટ મુદ્રા જ ન હોત.</p>

<p>તીર્ષંકર પરમાત્માની પ્રતિમાનું વર્ણન કરતી બંને પંક્તિઓ એક
ધર્મધૂરંધરની છે. એક પંક્તિ જૈન ધર્મને જાણતા પહેલાંની છે. અને બીજી
પંક્તિ જૈનદર્શનને જાણ્યા અને સમજ્યા પછીની છે. આમ જોઇએ તો તેમાં તેમણે કેવળ એક
શબ્દની અદલાબદલી કરી છે. અને ન તેમજ હિને જે બે અક્શરો છૂટા હતા તેને ભેગા કરી
લીધા છે. પણ આટલો અલ્પ ફેરફાર કરીને તેમણે જૈનધર્મનો સાર કહી
દીધો.</p>

<p>આપણે જીવનમાં આટ-આટલાં કષ્ટો વેઠીએ છીએ તે કેવળ રાગને
કારણે રાગને કારણે દ્વેષ અને રાગ-દ્વેષ ને કારણે આપણો આખો સંસાર આપણા બધા
પ્રશ્નોના મૂળમાં રાગ રહેલો છે. રાગ વસ્તુ માટે હોય, વ્યક્તિ માટે હોય કે પછી કીર્તિ
માટે હોય. રાગ જ આપણને રખડાવે છે અને રડાવે છે. જીવનમાં રાગની પ્રચૂરતા જેટલી વધારે
તેટલો સંતાપ વધારે અને અશાન્તિ વધારે. જેના જીવનમાં રાગ ઓછો તે ઓછુ
ભટકવાનો અને ઓછું રડવાનો.</p>

<p>ભગવાનની પ્રસન્ન અને પ્રશાન્ત મુખમુદ્રાનો સૂચિતાર્થ વીતરાગતા છે.
ધ્યાન રાખીએ કે અહીં વૈરાગ્યની વાત નથી કરી પણ વીતરાગતાની વાત કરી છે. વીતરાગતા હોય
તો વૈરાગ્યની જરુર જ નથી રહેતી. વીતરાગ શબ્દમાં સમગ્ર જૈન ધર્મના તત્વનો સાર સમાઇ
ગયો છે. ભગવાનનાં દર્શન કરતાં જો તેમની વાતરાગતામાં દર્શન થાય અને તે સ્પર્શી જાય તો
સમજી લેવાનું કે આપણને માર્ગ મળી ગયો. હવે મોડા વહેલા મુકામે પહોંચી જવાના. જરા
આપણા અંતરને તપાસી જોઇએ કે દેરાસરમાં જઇને દર્શન કરતાં આપણું હ્ય્દય વીતરાગતાના
ભાવથી ભીંજાય છે ? જો તેમ ન થતું હોય તો સમજી લેવાનું કે આપણે હજુ પરમાત્માનાં દર્શન
કર્યાં જ નથી અને દર્શન તો ધર્મના માર્ગનું પ્રથમ ચરણ છે. જો આપણે પ્રથમ પગલે પણ ન
પહોંચ્યા હોઇએ તો પચી આગળની તો વાત જ શી કરવી ?</p>




<p><head>માણસાઈના દીવા </head></p>

<p><head>ના, પુણ્ય પરવાર્યું નથી</head></p>

<p>જેને ધરમ, કરમ અને તત્ત્વની ચર્ચામાં રસ નથી,
પણ બને એટલું સન્માર્ગે ચાલવાની ખેવના છે, એવા સામાન્ય માણસોના ખમીર અને ખુમારીની,
નેક, ટેક અને દિલાવરીની સત્ય ઘટનાઓ અત્રે રજૂ કરી છે. વાચકો પણ આવી સત્ય ઘટનાઓ
મોકલી શકે છે.</p>

<p>પશ્ચાત્તાપની પાવન ગંગા</p>

<p>કદાચ ચૌદેક વર્ષ પહેલાંની વાત છે. તે વખતે મહારાષ્ટ્રના
જલગામથી અંતરિક્શજી તરફના વિહારમાં હું હતો. ભુસાવળમાં અમે આઠેક દિવસની સ્થિરતા
કરેલી એ દરમ્યાન ત્યાંની એક સ્કૂલના વાઈસ પ્રિન્સિપાલ મને બાળકો સમક્શ પ્રવચન કરવા
પધારવાનું આમંત્રણ આપવા આવ્યા. એ આમંત્રણ મેં સ્વીકાર્યું. નિયત થયેલા સમયે
વાઇસ પ્રિન્સિપાલ સાથે હું સ્કૂલમાં ગયો. લગભગ દશથી પંદર વર્ષની વયનાં બાળકો સમક્શ
કરેલા એ પ્રવચનમાં 'માતા-પિતાના ઉપકારો' એ વિષય પર સારો એવો પ્રકાશ પાડતાં હાજર
રહેલા તમામ બાળકોએ રોજ મા-બાપને પગે લાગવાનો નિયમ લીધો. પ્રવચન પૂર્ણ કરી હું
ઉપાશ્રય તરફ આવવા નીકળ્યો. વાઈસ પ્રિન્સિપાલ મારી સાથે જ હતા. તેમણે મને વિનંતિ કરી,
'મહારાજશ્રી, મારું ઘર રસ્તામાં જ આવે છે. બે મિનિટ માટે પણ આપ પધારશો તો
મને આનંદ થશે.' મેં એમની વિનંતીનો સ્વીકાર કર્યો. માત્ર આઠેક મિનિટમાં જ એમનું
ઘર આવ્યું. એમણે મને અંદર પધારવાની વિનંતી કરી. હું ઘરમાં દાખલ થયો. મારી
પાછળ વાઈસ પ્રિન્સિપાલ દાખલ થયા. પણ હું કાંઈ સમજું એ પહેલાં તો દીવાનખાનાના એક
ખૂણે બેઠેલાં એક વૃદ્ધ ડોશીના પગમાં પડીને એ ધ્રુસકે ધ્રુસકે રડવા જ લાગ્યા. એમના
આ રુદને પેલાં વૃદ્ધ ડોશી જ્યાં બેઠાં હતાં ત્યાંથી ઊભાં થઈ ગયાં અને આ વાઈસ
પ્રિન્સિપાલને બાથમાં લઈને રડવા લાગ્યાં. પળ બે પળ તો હું સ્તબ્ધ થઈ ગયો. પણ પછી
એ વૃદ્ધ ડોશીમા જે શબ્દો બોલ્યાં એ શબ્દોએ મને હલાવી નાખ્યો.</p>

<p>'મહારાજશ્રી, આ મારો દીકરો છે અને હું એની મા છું. મારી
ઉંમર ૮૭ વરસની છે, દીકરાની ઉંમર ૬૫ વરસની છે. આ મારો એકનો એક દીકરો છે, પણ
છેલ્લાં ૩૫ વરસથી મારી સાથે બોલવાનું એણે બંધ કર્યું છે. મેં એની સામે કેટલીય
વાર ખોળો પણ પાથર્યો હતો અને કહ્યું હતું કે, બેટા, એક વાર તારી મા સાથે
બોલવાનું ચાલુ કરી દે, મારે બીજું કાંઈ જ જોઈતું નથી. પણ એ પોતાની જીદમાં મક્કમ
રહ્યો. હું હિજરાતી જ રહી અને રિબાતીય રહી. પણ આજે ખબર નથી પડતી કે એને શું થઈ
ગયું છે ? મારા પગમાં પડી ગયો એ હકીકતે મને પાગલ કરી નાખી છે. મહારાજશ્રી, માથી
વિખૂટા પડી ગયેલા દીકરાની વેદના તો કદાચ સાંભળી હશે, પણ પાંત્રીસ પાંત્રીસ વરસથી
એક જ ઘરમાં રહેવા છતાં જે મા પોતાના દીકરાથી વિખૂટી પડી ગઈ હોય એની વેદનાની
તો મને જ ખબર છે. ભગવાન આવી વેદના કોઈ માને માથે ન ઝીંકે ! આપે મને આ ઉંમરે
મારો દીકરો પાછો અપાવીને મારું મરણ સુધારી દીધું છે.'</p>

<p>જીવનસાગરના કિનારે બેઠેલી એક મા, એ સમયે પોતાના દીકરાને
પામીને કેવી પ્રસન્નતા અનુભવી શકે છે એ મેં નજરોનજર જોયું છે. પાંત્રીસ પાંત્રીસ
વરસથી પોતાના અહંને સલાતમ રાખીને જીવન જીવતો દીકરો એક જ ઝાટકે પોતાના અહંનું
વિસર્જન કરીને પશ્ચાત્તાપની પાવન ગંગામાં ડૂબકી મારતાં મારતાં કેવો હળવો ફૂલ બની શકે
છે એ પણ મેં નજરોનજર જોયું છે.</p>

<p>- આચાર્ય વિજયરત્નસુંદરસૂરિજી</p>

<p>''બોલો, એ જાદુની શું કિંમત છે ?''</p>

<p>આઠ વર્ષની ટેસે માતા-પિતાને તેના નાના ભાઈની બિમારી વિશે વાત
કરતા સાંભળ્યા ત્યારે આ નાનકડી બાળકી માત્ર એટલું સમજી શકી કે તેના ભાઈ એન્ડ્રયુની
તબિયત સારી નથી અને તાવ આવે છે. આ પરિવારની આર્થિક સ્થિતિ સારી ન હતી. હવે તો
લોકો એન્ડ્રયુને ઘરે લઈ જવાના છે. કારણ કે તેના પિતા પાસે ડોક્ટરને ચૂકવવાના પૈસા
નથી. વળી ક્યાંયથી લોન કે ઉધાર કે ઉછીના-પાછીના પૈસાની પણ સગવડ થઈ શકે તેમ
નથી.</p>

<p>નાનકડી ટેસે પિતાને તેની માતાને કહેતા સાંભળ્યા કે ''હવે તો
કોઈ જાદુ જ એન્ડ્રયુને બચાવી શકશે.'' ટેસ નાના પગ લઈને ઝડપથી દોડતી તેના રૂમમાં ગઈ
અને તેના ખાનાના ખૂફીયા ખૂણામાંથી એક બોક્સ કાઢ્યું. એ બોક્સમાંના તમામ ચિલ્લરને
તેણે ભોંય ઉપર પાથરી અને ચિવટાઈથી ત્રણ વખત ગણ્યું. પછી આ ચિલ્લર ફરી બોક્સમાં નાખી
ટેસ ચૂપકેથી પાછલા બારણેથી ઘરની બહાર સરકી ગઈ. ''રેક્શલ્સ ડ્રગ સ્ટોર''ના ઉંબરે ઉભા
રહી ટેસ વિચારતી હતી કે ફાર્માસિસ્ટની નજર એની ઉપર પડે. તેણે બૂટથી થોડો અવાજ
કર્યો પણ ફાર્માસિસ્ટનું ધ્યાન ન ખેંચાયું. એ કદાચ વ્યસ્ત હતો. ટેસે હળવો ખોંખારો
ખાધો. પરંતુ કોઈ ધ્યાન ન ખેંચાયું. થોડી વાર બાદ ફાર્માસિસ્ટનું ધ્યાન નાનકડી
ટેસ ઉપર ગયું. તેણે પૂછ્યું ''તારે શું જોઈએ છે બેબી ?''</p>

<p>''હું મારા શિકાગોમાં રહેતા ભાઈ વિશે તમારી સાથે વાત કરવા
આવી છું.'' ટેસે કહ્યું. ફાર્માસિસ્ટની જવાબની રાહ જોયા સિવાય તેણે કહ્યું ''તે ખરેખર
ખૂબ ખૂબ બિમાર છે અને હું તેની માટે જાદુ ખરીદવા આવી છું.''</p>

<p>''શું જાદુ ખરીદવા...?'' ફાર્માસિસ્ટે આશ્ચર્યચકિત બનીને પૂછ્યું.</p>

<p>''હા... એના માથામાં કંઈક વધી રહ્યું છે અને મારા પપ્પા
કહે છે કે માત્ર જાદુ જ એને હવે બચાવી શકશે'' ટેસે દ્રઢતાપૂર્વક કહ્યું, ''તો જાદુના
કેટલા પૈસા થશે બોલો.'' ટેસે ફાર્માસિસ્ટને પૂછ્યું.</p>

<p>''અરે બેટા, અહીં જાદુ નથી વેચાતું. માફ કરજે. હું તને કોઈ મદદ
કરી નહીં કરી શકું'' ફાર્માસિસ્ટે કહ્યું.</p>

<p>''સાંભળો, મારી પાસે પૈસા છે અને તે પૂરતા ન થાય તો વધુ પણ
લાવીશ, પરંતુ મને એની કિંમત કહો પ્લીઝ !'' ટેસે કહ્યું. બાજુમાં શુટેડ-બુટેડ એક
જવાન ભાઈ ઉભો હતો. તેણે નીચા વળીને ટેસને પૂછ્યું, ''તારા ભાઈને કેવા કેવા
પ્રકારના જાદુ જોઈએ છે ?''</p>

<p>''મને ખબર નથી પરંતુ મારી મમ્મી કહે છે તેને ઓપરેશન કરાવવું
પડશે અને મારા પપ્પા પાસે ઓપરેશનના પૈસા નથી. એટલે મારે મારા પૈસા વાપરવા છે.''
ટેસ એક શ્વાસે બોલી ગઈ.</p>

<p>''તારી પાસે કેટલા પૈસા છે?'' તેણે પૂછ્યું.</p>

<p>''એક ડોલર અને અગીયાર સેન્ટ'' ટેસે જવાબ આપ્યો.</p>

<p>''આ મારા તમામ પૈસા છે અને વધારે જોઈએ તો થોડા વધુ
પણ હું લાવી શકીશ'' ટેસે ભોળાભાવે કહ્યું.</p>

<p>''વાહ કેટલું જોગાનુજોગ બન્યું ! તું જે જાદુ ખરીદવા આવી છે
તેની કિંમત પણ એક ડોલર અગીયાર સેન્ટ જ છે.'' તેમ કહી પેલા જવાને એ પૈસા લઈ
લીધા. એક હાથે પૈસા લઈ બીજા હાથે ટેસનો હાથ પકડી તેણે કહ્યું, ''ચાલ, મને
તારા મમ્મી પપ્પા પાસે લઈ જા. મારે જોવું છે તારા ભાઈને જે જાદુ જોઈએ છે તે મારી પાસે
છે કે નહીં.''</p>

<p>શુટેડ-બુટેડ સર્જન ડો. આર્મસ્ટ્રોંગ હતા. ન્યુરો સર્જરીમાં
તેમનું ખાસ્સુ નામ.</p>

<p>એન્ડ્રયુનું ઓપરેશન થયું. એક ડોલર અગીયાર સેન્ટમાં ! ટૂંક
સમયમાં એન્ડ્રયુ ઘરે પાછો આવ્યો. મમ્મી-પપ્પા ખુશખુશાલ હતા. તેઓ અંદરોઅંદર ચર્ચા
કરતા હતા. ''આ તો ખરેખર જાદુ જ થયો. કોણ જાણે કેટલો ખરેખર ખર્ચ થયો હશે.''</p>

<p>ટેસ મરકતી મરકતી સાંભળતી હતી અને મનોમન બોલી, ''એક ડોલર
અગીયાર સેન્ટ...''</p>




<p><head>નેટવર્ક</head></p>

<p><head>મંદી, માંદગી, મુંઝવણ, મથામણ, મુસીબતો વગેરેની ઊંડી ખાઈમાં પડેલા
સમગ્ર માનવજીવનમાં પ્રાણ સંચાર કરનાર મંત્રજાપની મશાલ
યંત્રયુગમાં
હવે મંત્રયુગ માનવી માટે અનિવાર્ય થઈ ગયો છે
મંત્રનું
ચિંતન, મનન, ધ્યાન અને જપન એટલે જગતના ખૂણેખાંચે પથરાયેલી બદી-બદબૂની સફાઈ !</head></p>

<p>ભારતવર્ષનો-આર્યસંસ્કૃતિનો વંશ-વારસો અને વૈભવ હરહંમેશ
અનંતનો અને આનંદનો બની રહ્યો છે. એના પાવન ખૂણે પણ અંતકારી આતંક કે આઘાતદાયી
આક્રંદ ન પેસે એનો ચોકીપહેરો ભરાતો. ભારતના કણ-કણમાં અમાપ સમૃદ્ધિનો ભંડાર
ઉભરાતો તો જન-જનના મનમાં અખૂટ-અમોઘ સમાધિનો ભંડાર ભરેલો રહેતો.
ભારતવર્ષ સંઘર્ષમાંય હર્ષ અને હામથી હેમખેમ પસાર થતું.</p>

<p>ધર્મ અને ધન, સંતો અને સત્તા, સંપત્તિ અને શાંતિ,
સાધનો અને સાધના આપસમાં ભરપૂર સુમેળ સાધી નિર્ભેળ અને નિર્મળ એવા
નિજ અસ્તિત્વને ધારતાં હતાં. મોક્શ પુરુષાર્થને કેન્દ્રમાં રાખી અર્થ, કામ અને
ધર્મ ચલાવતા હતા.</p>

<p>જનસત્તા-રાજસત્તા કોઈને'ય જરાય દુ:ખ દીધા વિના
જાહોજલાલીની હિમાયત કરતી હતી. સંતસત્તા પાખંડ અને ઘમંડ વિના સમાધિથી સમૃદ્ધ
સાધનાની પહેલ કરતી આજે'ય કરે છે.</p>

<p>આવી જનસત્તામાં મહાજન તરીકે જૈન-સમુદાય મોખરે છે. સંતોની
શ્રેણીમાં જૈન શ્રમણ પરંપરાનો ફાળો અમૂલ્ય અને અનન્ય રહ્યો છે.</p>

<p>જ્યારે જ્યારે માનવચેતના, માનવમન પ્રસાદને પનારે પડે પ્રકૃતિ
આપત્તિની જડી વરસાવતી હોય ત્યારે જૈનાચાર્ય-જૈનસંઘ અને જૈન સમાજ પંથપ્રેમને વળગ્યા
વિના પ્રેમપંથને જ અનુસરવાનું રાખે છે. સહુની સાથે રહી પગભર થયા કરે.</p>

<p>વર્તમાન કાલનો વળાંક ઘણો આકરો-કપરો છે. માનવ ચોતરફથી
આક્રમણોથી ફસાઈ ચૂક્યો છે. આપત્તિ અને આઘાતો છાશવારે છાશવારે એકાએક આવી ટપકે
છે. મંદી, માંદગી, મુંઝવણ, મથામણ, માફીયાગીરી, મુસીબતોની ઊંડી ખાઈ વચ્ચે નાનકડા
જીવન, ભાગ પર દેશ ખડો છે. આ ટાણે પ્રજાને હૂંફ, હ્ય્દય ને હામ અને હાથમાં હુન્નર ભરવા
ઘણાં ઘણા શ્રમણો પ્રજાના રાહબર બનવાની ટેક લે છે. જેથી તાજી, તેજસ્વી આધ્યાત્મિકતાનો
પ્રજામાં પ્રાણસંચાર થાય. સફળ પણ બને છે. અરિહંત શ્રી મહાવીરની પ્રાણવાન્ શ્રમણ-પરંપરામાં પણ
મુનિ-મશાલચીઓ પ્રજાના જીવન પંથને પ્રકાશ અર્પી રહ્યા છે. સર્વજન-સુલભ સચોટ માર્ગ આપી
રહ્યા છે.</p>

<p>પૂ. પંન્યાસશ્રી અભયસાગરજી જેવી ગુપ્ત પણ જાગૃત પ્રતિભા જેવી અનેકાનેક
પ્રતિભા હતી અને છે. સત્ય-સંયમ અને સમર્પણ આ જીવનના ત્રણેય ક્શેત્ર પર અજોડ સિદ્ધિ હાંસલ
કરી આ પ્રતિભાઓએ જૈન-શાસનને જ નહિ પણ ભારત દેશને તથા સમગ્ર માનવજાતને આગવું પ્રદાન
આપ્યું છે.</p>

<p>સત્ય-પક્શે વિનાશી-જડવાદી વિજ્ઞાન સામે પડકાર ફેંકી અવિનાશી
આત્મવાદી આગમોથી તથ્યોને નિર્ભિક બની જગતને આપ્યા. જિન-શાસન અને સંસ્કૃતિની અસ્મિતા
અખંડ રાખી જાન-દઈ ફાળો આપ્યો.</p>

<p>સંયમ પક્શે ભોગવાદી જીવનશૈલી સામે ત્યાગવાદી સંયમ-ચર્યાનો ચુસ્ત
આદર્શ ધર્યો.</p>

<p>સમર્પણ-શ્રધ્ધા સાધનાની ક્શિતિજ પર સકલ-રાજલોક બ્રહ્માંડનો
મહામંત્ર શ્રી નવકારના જપયોગમાં ઝંપલાવ્યું અનેક આત્મસિદ્ધિ હૈયાવગી કરી અનેકોને
સાધનાની કેડી ચીંધતા ગયા.</p>

<p>આ અદ્ભુત વારસાને શિષ્ય-પરિવાર પૂરી સજાગતાથી શક્તિ સાથે સાચવવા
અને પસારવા મથી રહ્યો છે. તેમાંય બંધુ બેલડી જિનચંદ્રસાગરસૂરીશ્વરજી અને
હેમચંદ્રસાગરસૂરીશ્વરજી આધ્યાત્મિક સિદ્ધિને પોતાના અને જન જનના હૈયે હૈયે પહોંચતી કરી
છે.</p>

<p>બંધુ-બેલડીનું આ પગલું ખરેખર દાદ માંગી લે તેવું છે. સમયનો
આજ તકાજો છે.</p>

<p>માનવ વિકાસની વ્યાખ્યાનો વેશપલટો કરી સ્વ અને વિશ્વના અસિત્ત્વને
વિનાશના વડવાનલમાં હોમવા બેઠો છે.</p>

<p>પ્રગતિ એટલે સતત તાણ અને માનસિક તનાવ, ટેન્શન અને ડીપ્રેશન...
પ્રગતિ એટલે માત્ર સુખ સગવડો અને સાધનો... દુ:ખની અને દર્દની ભારે
એલર્જી... દેમાર મોંઘવારી... પ્રગતિ એટલે નર્યું શહેરીકરણ શોખ અને શોક વચ્ચેનો
સેતુ... મોટા ઉદ્યોગો અને રાક્શસી કદની અસફળ અર્ધસફળ યોજનાઓ...</p>

<p>પ્રગતિ એટલે પૈસો... પૈસો એટલે સુખ... માણસ જાણે હરતું-ફરતું
ચિંતાનું વૃક્શ ઘણીવાર બધાની છત હોવા છતાં સંતોષની અછત નીચે માનવીને
જીવવાનું માણસે બધું પોતાનું બનાવ્યું પણ પોતાનું જે હતું તે ગુમાવ્યું એનું શું ?</p>

<p>બીજી બાજુ કાળ કહો... કુદરત કહો... કર્મ કહો... કે પ્રકૃતિ
કહો પરંતુ એ પોતાના અંશજ-વંશજથી રૂઠી હોય એવું લાગે છે. પુર, દુષ્કાળ, ભૂકંપ,
અતિવૃષ્ટિ-અનાવૃષ્ટિ, બહેસૂમાર ઠંડી, ભૂખમરો, ભોગમરો પોતાના કીર્તિમાન- રેકોર્ડ
તોડી રહ્યા છે. પૃથ્વી, આકાશ અને સમંદરથી જાનહાનિ, માલહાનિ, અકલ્પ્ય, અસહ્ય થઈ પડી છે.
માણસની કહેવાતી પ્રગતિ પણ હવે સાથ છોડી રહી છે.</p>

<p>માણસના મન હેબતાઈ ગયા છે. હતાશા છવાઈ ગઈ છે. તબાહીની આગાહી
હજીય થયા કરે છે. અસમાધિ અને અસુરક્શાનો સ્કેલ ઉંચે ચઢી રહ્યો છે. તે વખતે
માણસને યંત્રયુગની નહિ મંત્રયુગની જ જરૂરત... માત્ર આવશ્યક નહિ અનિવાર્ય થઈ પડી છે.</p>

<p>માનવ મનની પડી ભાંગેલી ઈમારતને ફેર ઉભી કરવા રાહત સામગ્રી તરીકે
કામચલાઉ કે બિકાઉ નહિ પણ ટકાઉ સત્વ એ મંત્રયુગ પુરું પાડે છે.</p>

<p>હથિયારના લેબાસમાં હિંસા હાથમાં પછી આવે છે. પહેલાં હૈયામાં
આવે છે.... વાણી, વર્તન ને વ્યવહારમાં આવે છે. આથીસ્તો જૈનધર્મનું પ્રથમ આગમ
સૂત્ર આચારાંગ પોતાના બીજા અધ્યયનને શસ્ત્રપરિજ્ઞા નામનો પરિચય આપે છે. બીજાને
તમારાથી થતું નુકશાન બંધ કરો... એ જ અહિંસા છે. કોઈપણ યુદ્ધને વિરામ આપવા
બંને પક્શે શસ્ત્રસંન્યાસ લેવો જ પડે. શસ્ત્ર-સંન્યાસ એ જ યુદ્ધવિરામનો નિકાલ છે.
હિંસાનું આદિ બિંદુ કે અંતબિંદુ હંમેશા અસુરક્શા કે અસમાધિની આગથી
લપેટાએલું હોય છે.</p>

<p>આ જ સંદર્ભમાં યુનેસ્કોની શરૂઆતનું વાક્ય 'યુદ્ધ માનવીના મનમાં
શરુ થાય છે અને શાંતિના બચાવ માટેના શસ્ત્રો પણ માનવીના મનમાં જ રચાવા જોઈએ તો જ
આપણે સ્વશાંતિના આંગણેથી વિશ્વશાંતિના આકાશને આંબી શકીશું.</p>

<p>આ અશાંતિ અજંપાના વિષચક્રથી મનને મુક્તિ અપાવનાર કોઈ પણ સબળ
તત્ત્વ હોય તો તે મન્ત્ર છે. મન્ત્રની વ્યાખ્યા જ માણસના મનને સુરક્શા કવચ પૂરું પાડે છે.
'મનનાત્ ત્રાયતે ઈતિ મન્ત્ર:' મંત્રનું ચિન્તન, મનન, ધ્યાન, જપન એટલે જ મનના ખૂણે
ખાંચરે પથરાયેલી બદી-બદબૂની સફાઈ, ધુલાઈ કરે છે. કપટતા, કટૂતા, કટ્ટરતા અને ક્રુરતાને
સૂક્શ્મતાથી નાશ કરી શાંતિને પ્રગટાવે છે, મનમાં, તનમાં, વચનમાં પડેલા હિંસાના હથિયાર
મન્ત્રજાપના અગ્નિમાં હોમાઈ જાય છે.</p>

<p>માણસના મનનું સંતુલન, વિકાસ, સંરક્શણ મંત્રમાં પડેલી ગુપ્ત શક્તિ
સ્ફોટ કરી આપે છે. એમાંય મહામંત્ર નવકારમાં જેમ સમસ્ત ગુણનિષ્ઠ વ્યક્તિઓને સ્થાન
આપવામાં આવ્યું છે તેમ માનવીને મહામાનવ પરમમાનવ તરીકે સ્થાન આપવામાં આવ્યું છે.
આ મહામંત્ર સ્થૂળથી શરૂ કરી સૂક્શ્મ સુધી અસરકારક તરીકે અનાદિકાળથી પુરવાર થતો
આવ્યો છે.</p>

<p>મહામંત્ર ઈચ્છાપૂર્તિનો તો ખરો જ પણ અન્તત: ઈચ્છા-સમાપ્તિનો
સાધનામંત્ર છે.</p>

<p>આ મહામંત્રનો જાપ શા માટે ? એનો જવાબ એ છે કે એ જપથી
જપાત્ સિદ્ધિર્જપાત્ સિદ્ધિર્જપાત્ સિદ્ધિને સંશય:'ના ન્યાયે મનની મજબૂતાઈમાં ધરખમ
વધારો થાય છે. શુદ્ધિ માટે સાધનામાં મન મસ્ત બને છે.</p>

<p>તો પછી સમૂહ જાપ શા માટે ? એનો પણ જવાબ એ છે કે 'સંઘે શક્તિ
કલૌ યુગે' 'જમાતે કરામત આજે માણસને માણસ મળે છે પણ માનસની મનથી ગેરહાજર રહે છે.
આજે વિશ્વ નજીક જરૂર બન્યું છે પણ નિજી નથી રહ્યું. હત્યાકાંડ, કૌભાંડ, રક્તરંજિત સીમાડા
સ્વાર્થની પ્રબલતા કેટલા પુરાવા જોઈએ ? વ્યાપેલી આ બદબૂને નાથવા અને ટોળાના
કોળીયામાં સામાજિકતાની જ્યોત પ્રગટાવવા સમૂહ જાપ અનન્ય ઉપાય છે. માનવમાત્ર મમત્વના
મકાનમાંથી નીકળી મૈત્રીના મંડળ તળે એકત્રિત થાય એ આજના સમયની માંગ છે.</p>

<p>બંધુબેલડીએ આધ્યાત્મિક ક્રાંતિને ઔદ્યોગિક ક્રાંતિ સામે મૂકીને
પૂજાપાત્ર, પ્રશંસાપાત્ર, સત્કાર્ય હાથ ધર્યું છે.</p>

<p>ઠેરઠેર મંત્રક્રાંતિના બીજ વાવ્યા જે આજે ઘેઘૂર વડલો બની વિસ્તરી
રહ્યાં છે. આ મંત્રક્રાંતિ તરફ થોડી નજર ફેરવી પ્રભુને પ્રાર્થના કરીએ કે આવા સંતો
જ્યાં પણ હોય ત્યાં વધુને વધુ શક્તિ-સહકાર દે જેથી માનવમન પ્રગતિનો સાચો રાહ અને
સાચા અર્થમાં પ્રગતિ પામે.</p>

<p>દરેક ચાતુર્માસમાં પંન્યાસ શ્રી અભયસાગરજી દ્વારા નિર્દિષ્ટ નવ દિવસની
આરાધના કરાવવામાં માહિર છે. આ આરાધનાથી ઘણાના જીવનમાં શાંતિનો મંત્ર
ફુંકાયો છે. નવકાર મહામંત્રનું શાસ્ત્રોક્ત ઉપધાન નામનું અનુષ્ઠાન કરાવામાં પણ
તેમની ખાસ ખાસીયત છે.</p>

<p>શ્રી નવકાર મહામંત્રે જાણે ધીરે ધીરે પોતાનો માર્ગ
મોકળો કર્યો તેમ દિન બ દિન શ્રી નવકારની જપસંખ્યા અને શુદ્ધિની સમૃદ્ધિ વધતી રહી
છે.</p>

<p>કલકત્તા ખાતે એક દિવસમાં નવ લાખ નવકારના જાપથી શરુ થએલો આ
મંત્રયુગ આજે મહાન્ મહત્તમ મન્ત્ર સંખ્યાને આંબી રહ્યો છે. પાલિતાણામાં એક સાથે ૬૮
લાખ નવકારનો સમૂહ જાપ થયો. સુરતના ચોમાસામાં ૧૦૦ દિવસમાં ૯૦૦ આરાધકોએ નવ
કરોડનો નવકારનો સમૂહ જાપ કર્યો. સંખ્યા હજારથી લાખ, લાખથી કરોડમાં પહોંચી ગઈ જે
આજે એક અબજને વટાવી ગઈ છે.</p>

<p>અમદાવાદમાં સમેત શિખરની રક્શા કાજે સમસ્ત સંઘોના સાધુના
સહકારથી ૧૦૦ દિ'માં ૨૭,૦૦,૦૦,૦૦૦ ની સંખ્યામાં જાપ થયો હતો. એક જાપની પુર્ણાહૂતિ
પ્રસંગે ૧૦,૦૦૦ જાપ સાધકોએ એક કરોડનો એક સાથે એક લક્શથી સમૂહ જાપ કર્યો.
પૂજ્યશ્રીનો શિષ્ય પરિવાર જ્યાં પણ હોય ત્યાં ૧-૩-૫-૯ કરોડ સંખ્યામાં જાપ કરાવે છે.
સમસ્ત સંઘ આમાં હોંશે હોંશે ભાગ લે છે.</p>

<p>આ યાત્રામાં મોટો વળાંક પૂજ્યશ્રી જ્યારે મુંબઈ મહાનગરમાં
પ્રથમવાર પધાર્યા ત્યારે આવ્યો. ત્યાં મહાનગરની જૈન જનતા મહામન્ત્રના મહાનાદમાં
મુગ્ધ બની ગઈ ને ઓગસ્ટ ક્રાન્તિ મેદાનમાં ૭૦૦૦ આરાધકોને ક્વીટ-ઈવીલનો
નારો આપી ૬૮,૦૦,૦૦,૦૦૦ કરોડ નવકાર જાપની આહલેક જગાવી. જાપ સમાપન સમયે આજ ૭૦૦૦
આરાધકોએ નો સાત કરોડની સંખ્યામાં જાપ કરી વાત્સલ્ય અવતરણ માટે
વિશ્વ-વાત્સલ્ય-દિન ઉજવ્યો હતો.</p>

<p>આ સફળતાના પગલે ભાયખલામાં ઈતિહાસ વિકાસ મુખી બન્યો. ૧૦૦
દિવસમાં ૯,૯૯૯ મન્ત્ર પ્રેમીઓએ ૯૯,૯૯,૯૯,૯૯૯ નો જાપ સંપૂર્ણ વિધિપૂર્વક પાર
પાડ્યો. જ્યોતિષીઓની-વૈજ્ઞાનિકોની આગાહી અંદાજ મુજબ મહાનગર માટે મુસીબતભરી
હતી. પરંતુ ૧૯૯૯ની કરુણા કારણ બની એવો મન્ત્ર-સાધકોનો રણકાર છે. ત્યારે
નવકારની ૫૦૪ મન્ત્ર પીઠિકાઓ બનાવી. સવા ક્રોડ શ્વેત પુષ્પથી સવા ક્રોડ મન્ત્રથી શાંતિ વિધાન
કરાવ્યું હતું.</p>

<p>મુંબઈ-અમદાવાદ-સુરત-મહેસાણા-ઊંઝા-ચાણસ્મા વગેરે વિવિધ
સ્થળો પર જ્યાં પણ ત્રણ દિવસથી વધુ રોકાણ હોય ત્યાં ૯ લાખ, ૩ લાખનો સમૂહ જાપ થાય જ
સમજો. ચાતુર્માસમાં અખંડ- નવકારનો જાપ- જપાતો જ હોય છે. નવકારના સ્થાપત્ય, નવકાર
સાહિત્યને અવનવી ઢબે લોકો નયન-માનસ સમક્શ સારી એવી અસરકારકતા રીતે રજૂ કરતા રહે
છે.</p>

<p>સુરતમાં ભૂકંપ-પીડિતોને રાહત દમ મળે તે માટે માનવ-ચેતના વધુ
સંવેદનશીલ બનાવવા માટે ૧૦,૦૦૦ માનવમેદની વચ્ચે એક ક્રોડ નવકારના જાપનું સંવેદન
આંદોલન ઐતિહાસિક- હાર્દિક રહ્યું હતું. આજ પ્રસંગનું પુનરાવર્તન મુંબઈમાં મલાડ
શિવાજી ઝેકરીયા રોડ પર ૧૦,૦૦૦ની માનવ મેદનીને નવકારના સવા ક્રોડ જાપ ફરી કરાવ્યું.</p>

<p>શાંતિના પરિબળ રૂપે શાંતિ જ હોય છે તેમ એક એક આંદોલનોએ
એથી મોટા મોટા વાત્સલ્ય, વમળો વિશ્નના સરોવરમાં રમતા કર્યા છે. વિશ્વ શાંતિનું
અભિયાન છોડી જિનશાસનને અને જિનશાસનની મહાન્ શ્રમણ-સંસ્થાનો આદર્શ પ્રસ્થાપિત કર્યો છે.</p>

<p>હજીય વિશ્વની અશાંતી તીવ્ર બનશે. તેટલી જ તીવ્રતાથી અશાંતિને નાથવા
માનવ માત્રે કમર કસવી જ પડશે. મહાનગરથી મહારાષ્ટ્રના પૂના નગરમાં તેઓશ્રીની
પ્રેરણા-પથદર્શનથી પૂના સમસ્ત જૈન સંઘે મહાવીર-પ્રભુનો મુખ્ય નાદ સમાન વિશ્વશાંતિને વધુ
વેગ આપવા ૧૦૮ ક્રોડ નવકારનો જાપ-અભિયાન ચાલી રહ્યું છે.</p>

<p>આ ઉમદા અને ઉદાર અભિગમને અનુસરી વિશ્વશાંતિ-સ્વ-સમાધિના
અભિયાનનો આદર અને જીવનમાં અમલ આપણા વિશ્વ-આત્માને જરૂરથી શાતા-શક્તિ બક્શશે જ એ જ
દિવ્ય-શક્તિ સમા મહામન્ત્ર પાસે આશા અને આરઝુ... પ્રાર્થના...</p>

<p>।। શીવમસ્તુ સર્વ જગત: ।।</p>

<p>।। વસુધૈવ કુટુમ્બકમ્ ।।</p>

<p>...।। નમસ્કાર સમો મન્ત્ર ન ભૂતો ન ભવિષ્યતિ ।।...</p>

<p>।। તુભ્યં લોકાત્મને નમ: ।।</p>

<p>।।શ્રી બ્રહ્મલોકસ્ય શાંતિર્ભવતુ ।</p>




<p><head>લીડર</head></p>

<p><head>કાશ્મીરના ત્રાસવાદમાં પાકિ. હાથ હોવાના અમેરિકી એકરારનો મર્મ</head></p>

<p>પાકિસ્તાનની ગુપ્તચર સંસ્થા આઈ.એસ.આઈ. કાશ્મીરના ઉગ્રવાદીઓને
'અલ કાયદા' (ઓસામા બિન લાદેનની સંસ્થા)નાં તાલીમકેન્દ્રોમાં તૈયાર કરે છે. અમેરિકન
અધિકારીઓના આવા એકરારથી ભારતે હરખાઈ જવા જેવું નથી. ખાનગી ખૂણે આ સત્ય
તેઓ સ્વીકારતા આવ્યા છે. અમેરિકા અખબાર ''ધ ન્યૂયોર્ક ટાઈમ્સ''એ અનામી
અમેરિકી અધિકારીઓને ટાંકીને આ વાત દોહરાવી તેમાં જો કાંઈ મહત્ત્વ હોય તો
તે એટલું જ કે અમેરિકાના એક પ્રતિષ્ઠિત અખબારમાં અનામી અધિકારીઓના ઉલ્લેખ
સાથે તે છપાયું છે. અમુક ભારતીય વિચક્શણોના મતે આનો સીધો અર્થ એ કે
કાશ્મીરમાં ચાલતા ગેરિલા યુદ્ધમાં આઈએસઆઈ સીધી રીતે સંકળાયેલું છે. કૂટનૈતિક
બનાવોમાં સીધા અર્થ કરતાં આડા અર્થને સમજવાનું વધારે જરૂરી છે.</p>

<p>પહેલી વાત એ કે અમેરિકા જ્યારે જાણતું હોય કે કાશ્મીરમાં ચાલતા
ત્રાસવાદમાં પાકિસ્તાનની ગુપ્તચર સંસ્થા આઈએસઆઈનો હાથ છે. તો પછી પાકિસ્તાનને
ત્રાસવાદી દેશ જાહેર કેમ કરતું નથી ? ભારત અને પાકિસ્તાને મંત્રણા હાથ ધરીને
કાશ્મીરનો પ્રશ્ન ઉકેલી નાખવાની સલાહ-સરવાણી શા માટે સતત વહેતી રાખે છે ? તેનો સ્પષ્ટ
જવાબ શોધવા જવો પડે તેમ નથી. પશ્ચિમી દેશો ખાસ કરીને અમેરિકા, બ્રિટન અને
જર્મની કાશ્મીરને ભારત-પાકિ. વચ્ચેનો દ્વિપક્શી પ્રશ્ન ગણે છે. હકીકતમાં ભારતનું અવિભાજ્ય
અંગ હોવાનું સ્વીકારવા તેઓ તૈયાર નથી. બ્રિટનના વડાપ્રધાન ટૉની બ્લૅર,
અમેરિકાના વિદેશ મંત્રી કોલીન પૉવેલ અને હવે અફઘાનિસ્તાનના તાલિબાન મુદ્દે ભારતીય
પેટાખંડની મુલાકાતે આવેલા જર્મનીના ચાન્સેલર ગ્રેહાર્ડ શ્રોડર ભારતને સલાહ આપવાનું
ચૂકતા નથી કે ભારત અને પાકિસ્તાન વચ્ચે કાશ્મીરનો પ્રશ્ન દ્વિપક્શી છે અને વાટાઘાટોથી
તેનો ઉકેલ લાવવાના પ્રયાસો થવા જોઈએ. નવી દિલ્હીમાં જર્મન દૂતાવાસ ખાતેના એક
સમારંભમાં શ્રી શ્રોડરની હાજરીમાં જ વડાપ્રધાન વાજપેયીએ આવા વિશ્વનેતાઓને
વાતવાતમાં સંભળાવી દીધું તે જરાયે ખોટું નથી. ''પાકિસ્તાન સરહદ પારથી આતંકવાદ
ચલાવે અને અમને ભારત-પાકિ. વચ્ચે મંત્રણા ચાલુ કરવાનું કહેવામાં આવે તે બરાબર
નથી.''</p>

<p>અત્રે નોંધવું યોગ્ય લેખાશે કે આ પશ્ચિમી સત્તાઓ સંયુક્ત
રાષ્ટ્રની સામાન્ય સભામાં વાજપેયીજી હાજરી આપવા જાય ત્યારે પાકિ. પ્રમુખ મુશર્રફ અને તેમની
વચ્ચે ન્યૂયોર્કમાં મંત્રણા યોજાય તેવો તખ્તો વિચારી રહ્યા હોવાનું જાણીતું છે. એટલે
જ કદાચ શ્રી વાજપેયીએ ફોડ પાડીને કહેવું પડ્યું હશે કે હું કાંઈ પ્રમુખ મુશર્રફને મળવા
ન્યૂયોર્ક નથી જતો. મારે મળવું હોય તો દિલ્હી કે ઈસ્લામાબાદમાં મળી શકાય. મંત્રણા
પુન:ચાલુ કરવા માટે વાતાવરણ બંધાયું નથી એવો સંકેત પણ તેમણે પોતાના
વક્તવ્ય દ્વારા આપી દીધો. ત્રાસવાદી સંગઠનો સામેનાં પગલાંમાં જે કોઈ વ્યક્તિ કે
રાજ્ય ત્રાસવાદને આર્થિક કે ભૌતિક રીતે મદદ કરતું હોય તેની સામે પગલાં લેવાની જરૂર
શ્રી વાજપેયીએ જણાવી. તે દેખીતી રીતે જ પાકિસ્તાન તરફનો અંગુલિનિર્દેશ ગણાય. આ કથન
પણ અનામી અમેરિકી અધિકારીઓના કાશ્મીરમાં ત્રાસવાદી પ્રવૃત્તિમાં પાકિ.ની ભૂમિકાના
અહેવાલના સંદર્ભમાં જોવા જેવું ગણાય. તે એ કે કાશ્મીરના ત્રાસવાદમાં પાકિ.ની સક્રિયતા
અમેરિકા સમજતું હોવા છતાં તેને બંધ કરીને ભારત સાથે મંત્રણાનું વાતાવરણ તૈયાર
કરવાની સલાહ તેને કેમ નથી અપાતી ? અને ન્યૂયોર્કમાં સંયુક્ત રાષ્ટ્રની સામાન્ય સભાના
પ્રસંગે મુશર્રફ-વાજપેયી વચ્ચે મંત્રણા યોજાય તેવો આગ્રહ કેમ રાખી રહ્યા છે ? કાશ્મીર
પ્રશ્ને ક્યાંક કૂલડીમાં ગોળ ભાંગવાની વેતરણ તો નથી ચાલી રહીને ? કાશ્મીર ભારતનો
આંતરિક મામલો છે. તેને વારંવાર આવી સલાહો આપીને 'દ્વિપક્શી સવાલ' બનાવી દેવાની
જરૂર નથી.</p>

<p>ન્યૂયોર્કમાં આગામી સપ્તાહે શ્રી વાજપેયી અને મુશર્રફ હોય ત્યારે
બંને વચ્ચે રૂબરૂ મુલાકાત યોજાય કે ન યોજાય પણ પરદા પાછળ કાશ્મીર પ્રશ્ન ચર્ચાતો રહેશે એ
હવે સ્પષ્ટ થઈ ગયું છે. પ્રમુખ બુશ સહિત અન્ય નેતાઓ સાથેની વાજપેયીજી અને મુશર્રફ
સાહેબની વ્યક્તિગત મુલાકાતો દ્વારા પણ કાશ્મીર પ્રશ્ને વિચારો- સલાહો- સૂચનો-
ચીમકીઓના દોર ચાલુ રહેશે. જેથી કાશ્મીરનો પ્રશ્ન ભારતનો આંતરિક મામલો ન રહેતાં
ભારત-પાકિ. વચ્ચેનો દ્વિપક્શી પ્રશ્ન જ નહિ તેને આંતરરાષ્ટ્રીય પ્રશ્ન બનાવી દેવાની પેરવીઓ
પણ થશે એવું લાગ્યા વિના રહેતું નથી. કેમ કે પાકિસ્તાનને પગથી માથા સુધી
ઓળખી ચૂક્યું હોવા છતાં તેને અફઘાન મોરચો સંભાળવા માટે પંપાળતા રહેવાની
લાચારીમાં અમેરિકા મુકાઈ ગયેલું છે. પાકિ.ને ત્રાસવાદમાં તેની ભૂમિકાની યાદ એટલા
માટે અપાતી રહે છે કે પાકિ. નેતાઓ પોતાના કબજામાં રહે.</p>

<p> </p>




<p><head>પ્રસંગપટ</head></p>

<p><head>ન્યુયોર્કમાં કાશ્મીર અંગે મંત્રણા નહિ થાય :
વાજપાયી
પાકિસ્તાનની નાપાક હરકતો</head></p>

<p>તાજેતરમાં કેટલીક ઘટનાઓ પાકિસ્તાનની પ્રપંચ લીલાનો પર્દાફાશ
કરે તેવી છે. (૧) એક ચર્ચમાં ખ્રીસ્તીઓ રવિવારની પ્રાર્થના માટે એકત્ર થયા ત્યારે છ
બુરખાધારીઓએ અંધાધૂંધ ગોળીબાર કરી ૧૬ને ઠાર માર્યા અને અનેકને
ઘાયલ કર્યા. (૨) હજારો પાકિસ્તાની કબાઇલીઓ શસ્ત્ર સજ્જ થઇ અફઘાનીસ્તાનની સરહદે પહોંચી
ગયા તે અમેરિકા સામે તાલીબાનના યુદ્ધમાં જોડાવા માગે છે.</p>

<p>(૩) કબાઇલીઓએ પાકિસ્તાનની એક વિમાન પટ્ટી પર કબજો કર્યો જેથી
ત્યાંથી અમેરિકન સૈનિકો અફઘાનિસ્તાન પર ત્રાટકી શકે નહિ.</p>

<p>(૪) તાલીબાનના વડા પાકિસ્તાન પાસેથી પરમાણુ શસ્ત્ર બનાવવાના
કૌશલ તથા સાધન સામગ્રી હસ્તગત કરવા માગે છે.</p>

<p>(૫) કાશ્મીરમાં આતંકવાદ ફેલાવવા અલકાયદાની શિબિરોમાં
પાક-અફઘાન આતંકવાદીઓને તાલીમ અપાઇ હોવાના પુરાવા અમેરિકા પાસે છે.</p>

<p>આંતરરાષ્ટ્રીય આતંકવાદ સામે અમેરિકાએ શરૂ કરેલા યુદ્ધના ત્રણ
સપ્તાહની ફલશ્રુતિ નિરાશા જન્માવવા ઉપરાંત કેટલાક નવા પ્રશ્નો પણ ખડા કરે છે. અગીયારમી
સપ્ટેમ્બરના વર્લ્ડ ટ્રેડ સેન્ટર તથા પેન્ટાગોન પરના આતંકવાદી હુમલાઓએ અમેરિકા આવા
ખતરાથી સુરક્શિત છે અને બાહ્ય આક્રમણ સામે અભેદ્ય છે એવી માન્યતા તો ખોટી પાડી છે.
અમેરિકાએ ઓસામા બિન લાદેન તથા તેને આશ્રય આપનાર તાલીબાનોને કચડી નાખવા માટે શરૂ
કરેલા જવાબી હુમલાઓનો ઉદ્દેશ્ય પાર પડી શક્યો નથી. અને કયારે પાર પડશે એ ખુદ
અમેરિકા પણ જાણતું નથી. ગત ત્રણ સપ્તાહમાં સંખ્યાબંધ નિર્દોષ નાગરિકો
અમેરિકાનાં વિનાશક હુમલાઓના કારણે માર્યા ગયા છે. ગયા સપ્તાહમાં અમેરિકાએ કાબુલ
પર અત્યાર સુધીનો સૌથી વધુ ભીષણ બોમ્બમારો કર્યો પણ તાલીબાનને તે જરાય
વિચલિત કરી શક્યું નથી. આ બોમ્બમારામાં નવ બાળકો સહિત પંદર નિર્દોષ નાગરિકોનાં
મોત થતાં અમેરિકા વધુ ટીકાપાત્ર બન્યું.</p>

<p>આંતરરાષ્ટ્રીય આતંકવાદ સામેનું યુદ્ધ હવે ઘણું લાંબુ ચાલશે. ચાર
વર્ષ સુધી પણ ચાલી શકે તેમ કેટલાક માને છે. અગાઉ પ્રમુખ બુશે તે બે વર્ષ લાંબુ
ચાલે તેમ કહ્યું હતું. અફઘાનીસ્તાનમાં તાલીબાન સામે લડતા નોર્ધન એલાયન્સને પણ
અમેરિકાની રણનીતિ પ્રત્યે અસંતોષ અને તારાજી છે. નોર્ધન એલાયન્સના ભૂતપૂર્વ
કમાન્ડર હકની તાલીબાનો દ્વારા કરાયેલી હત્યાથી નોર્ધન એલાયન્સને ગંભીર ફટકો પડ્યો
છે. નોર્ધન એલાયન્સને તાલીબાન સૈનિકો સામેના યુદ્ધમાં અમેરિકા તથા તેના સાથી
દેશોના વધુ સક્રિય સાથ સહકારની અનિવાર્ય આવશ્યકતા છે. આથી બ્રિટને તેને ટેન્કો તથા
બખ્તરબંધ ગાડીઓ મોકલી આપવાનું નક્કી કર્યું છે. આ ઉપરાંત બ્રિટન પોતાના
સૈનિકોને ભૂમિયુદ્ધ માટે ઉતારવાનું છે. આમ અમેરિકા અને બ્રિટન અફઘાનીસ્તાન સામેના
યુદ્ધમાં વધુ સક્રિય ભુમિકા ભજવવાની તૈયારી કરે છે.</p>

<p>મુસ્લીમોના આ પવિત્ર માસ દરમ્યાન યુદ્ધ ચાલુ રાખવાના અમેરિકાના
નિર્ણયનો પાકિસ્તાનના પ્રમુખ જનરલ પરવેઝે ફરી એકવાર વિરોધ કર્યો છે. પરંતુ તે
પોતાનો વિરોધ વ્યક્ત કરવાથી વિશેષ કશુંય કરી શકે તેમ નથી. એમની સ્થિતિ
આગામી દિવસોમાં વધારે મુશ્કેલીભરી બનશે એમ પાકિસ્તાનમાં તેમની વિરુદ્ધ થતાં
તોફાનો જોતાં લાગે છે. અગાઉ વિરોધ દેખાવો થયા ત્યારે એને પોલીસે બળપૂર્વક
દબાવી દીધા હતાં.</p>

<p>આથી મુસ્લીમ કટ્ટરતાવાદીઓએ નવો માર્ગ અપનાવ્યો છે.
ભાવલપુરમાં ગયા રવિવારે એક ચર્ચમાં પ્રાર્થના કરવા માટે આવેલા ખ્રીસ્તીઓ પર છ જેટલા
બુરખાધારી આતંકવાદીઓએ અંધાધૂંધ ગોળીઓ ચલાવી ૧૬ની હત્યા કરી
અને બીજા અનેકને ગંભીર રીતે જખ્ની કર્યા. એક ચર્ચમાં આવા નરસંહારથી સમગ્ર ખ્રીસ્તી
જગતમાં ભારે આઘાતની લાગણી જન્મે એ સ્વાભાવિક છે. પ્રમુખ જનરલ પરવેઝ મુશર્રફને તેમની
આગામી અમેરિકાની યાત્રા વખતે આ નરસંહાર માટે જવાબ આપવો પડશે. અત્યારે તો એમણે
આ નરસંહાર આતંકવાદીઓનું કૃત્ય છે એમ કહી તેને વખોડી કાઢ્યું છે. પરંતુ આ
ઘટના પાકિસ્તાનમાં ખ્રીસ્તી સમુદાય તરફ પ્રવર્તતા ધિક્કારનો ખ્યાલ આપે છે.
પાકિસ્તાનમાં ખ્રીસ્તીઓ ઉપરાત અન્ય બિન મુસ્લીમોમાં પણ આથી ભય અને અસલામતીની લાગણી
જન્મે એ દેખીતું છે. આ નરસંહારની ઘટનાની ગંભીરતાને લક્શમાં લઇ પ્રમુખ જનરલ પરવેઝ
મુશર્રફે પોતાના દેશમાં ફુલેલાફાલેલા કટ્ટરતાવાદને ડામવા માટે અસરકારક પગલાં ભરવા
પડશે. એમ કરવા જતાં એમની સામેનો વિરોધ વધારે ઉગ્ર બનશે. જો તે એમ
નહિ કરે તો અમેરિકાનો વિશ્વાસ એ ગુમાવશે. અમેરિકાને પ્રમુખ મુશર્રફની પર ઝાઝો વિશ્વાસ
પહેલેથી જ નહોતો. એકબાજુ તેમણે આતંકવાદ સામે અમેરિકાના યુદ્ધનું સમર્થન કર્યું છે
તો બીજી બાજુએ તે તાલીબાન તથા મુલ્લા મહમ્મદઓમરને છાવરે છે.</p>

<p>આંતરરાષ્ટ્રીય આતંકવાદને વકરાવવામાં અફઘાનીસ્તાન કરતાં
પાકિસ્તાને વધુ મોટો ભાગ ભજવ્યો છે. પાકિસ્તાનને ઇસ્લામિક જગતમાં મોટા ભા થવાની
મહત્વાકાંક્શા છે જયારે અફઘાનીસ્તાન તો એક પ્યાદુ બની રહ્યું છે. ખ્રીસ્તીઓ અને
હિન્દુઓ પાસે આણ્વિક બોમ્બ હોય તો મુસ્લીમો પાસે પણ તે હોવો જોઇએ તેવી વાત
પાકિસ્તાનના ભૂતપૂર્વ શાસકોએ અન્ય ઇસ્લામિક દેશો સમક્શ રજૂ કરી હતી. પાકિસ્તાને ચોરી
છુપીથી પરમાણુ બોમ્બ બનાવવાની ક્શમતા પ્રાપ્ત કરી છે અમેરિકાને પણ તેણે આ બાબતમાં
મૂર્ખ બનાવ્યા કર્યું હતું. હવે પાકિસ્તાન પાસે પરમાણું શસ્ત્રો બનાવવા માટેની જે સામગ્રી
અને કુશળતા છે તે તાલીબાન હસ્તગત કરવા માગે છે તેવો પણ સંકેત પ્રાપ્ત થયો છે.
પાકિસ્તાનમાં પ્રમુખ મુશર્રફ સામે કટ્ટરતાવાદીઓ બળવો કરી તેમને અપહસ્થ કરે તો
પાકિસ્તાનમાં પરમાણુ શસ્ત્રો બનાવવા માટેની જે વ્યવસ્થા છે તેને નિષ્ક્રીય બનાવવાનું
અમેરિકા વિચારતું હોવાના અહેવાલો પ્રગટ થયા છે.</p>

<p>વડાપ્રધાન શ્રી અટલબિહારી વાજપાયી આગામી થોડાક દિવસોમાં
પ્રમુખ બુશના નિમંત્રણથી અમેરિકા જવાના છે. પ્રમુખ બુશ સાથેની પોતાની મંત્રણાઓમાં તે
અનેક પ્રશ્નોની સાથે પાકિસ્તાનના કટ્ટરતાવાદીઓને ડામવામાં પ્રમુખ મુશર્રફની દાનતનો પણ
ઉલ્લેખ કરે તેમ ઇચ્છીએ.</p>

<p>પ્રમુખ મુશર્રફ શ્રી વાજપાયી સાથે શિખર મંત્રણાનો દોર આગળ ચલાવવા
ખૂબજ ઉત્સુક હોવાનું બહાર આવ્યું છે. પરંતુ પાકિસ્તાન સીમાપારના આતંકવાદને જમ્મુ
અને કાશ્મીરમાં અટકાવવા નિષ્ઠા અને પ્રતિબધ્ધતાનો પુરાવો ન આપે ત્યાં સુધી
એમની સાથેની મંત્રણા અર્થહીન જ બની રહેવાની છે એમ શ્રી વાજપેયીનું માનવું છે. એમણે
ન્યુયોર્કમાં કાશ્મીર અંગે મંત્રણા નહિ થાય એમ સ્પષ્ટ જાહેર કર્યું છે.</p>

<p>અફઘાનીસ્તાનમાં પોતાની મનપસંદ વૈકલ્પિક સરકાર રચાય તે માટે
પ્રમુખ મુશર્રફ સફળ ન જ થવા જોઇએ એ અમેરિકા પણ સમજી ગયું છે.</p>

<p>તાલીબાનના વડા મુલ્લા મહમ્મદ ઓમરે એવો હુંકાર કર્યો છે કે
અમેરિકા તથા ેેતેના સાથી દેશો સામેનું ખરૂ યુદ્ધ તો હજુ હવે શરૂ થવાનું છે. એની આ
ધમકીને જોતાં અમેરિકાએ અફઘાનીસ્તાનમાં પોતાની રણનીતિ બદલવી પડે તો બદલવી
જોઇએ.</p>




<p><head>પ્રસંગકથા</head></p>

<p><head>આતંકવાદનું પગેરૂં પાકિસ્તાનમાં</head></p>

<p>નોકરે બે હાથ જોડીને નોકરીમાંથી મુક્ત કરવા શેઠને વિનંતી
કરતાં કહ્યું, ''સાહેબ, હવે હું વધુ સાંખી શકું તેમ નથી. તમારે ત્યાં કામે રહી શકું
તેમ નથી. મને રજા આપો.''</p>

<p>શેઠે પૂછ્યું, ''અરે ભાઇ! તને એવું તે શું થયું કે તું
નોકરી છોડવાનો વિચાર કરે છે?''</p>

<p>નોકરે કહ્યું, ''સાહેબ! કારણમાં પડવાનો કશો અર્થ શો? કોઠી
ધોઇને કાદવ કાઢવો છે? તમે બીજો નોકર રાખી લો. બસ.''</p>

<p>નોકર કહે, ''હા જી, મારી ફરિયાદ શેઠાણીના વર્તન સામે છે. એ
મને વારંવાર ધમકાવે છે.''</p>

<p>શેઠે વાત પર ઠંડુ પાણી રેડતાં કહ્યું, ''ઓહ! એમાં શું? એ
મને પણ વારંવાર ધમકાવે છે.''</p>

<p>નોકરે કહ્યું, ''એ જ વાત છે ને! એ તમને જે રીતે ધમકાવે
એ જ રીતે મને ધમકાવે તે બરાબર કહેવાય? તમે માલિક છો અને હું નોકર છું
એવો કંઇ ભેદ તો રાખવો જોઇએ ને? આવો ભેદ નથી, એની જ બધી મોંકાણ છે.
એથી જ મારે નોકરી છોડવી છે. શેઠ નોકરને ધમકાવવામાં ભેદ તો હોવો જોઇએ
ને.''</p>

<p>- આ વાત અમને એટલા માટે યાદ આવી કે પાકિસ્તાને આતંકવાદીઓ
સાથેના વ્યવહારમાં કોઇ ભેદ રાખ્યો નથી. એણે પોતાના ટૂંકા સ્વાર્થને ખાતર
તાલીબાનોને છુટ્ટો દોર આપ્યો. આજે પરિણામ એ આવ્યું કે આ તાલીબાનો પાસે કે
બિન લાદેન પાસે હવાઇ હુમલા જેવા પરંપરાગત આતંકવાદના ઉપાયો તો છે જ. પણ એથી ય
વધારે જૈવિક, રાસાયણિક અને પરમાણુ શસ્ત્રોની તાકાત હોવાનું મનાય છે.</p>

<p>આતંકવાદ વિશે સેવેલી શંકાઓ હવે સત્ય હકીકતમાં બદલાતી જાય છે.
પાકિસ્તાન પાસેથી અણુબોમ્બ બનાવવાની આવડત લાદેને મેળવી હોવાનું બહાર આવ્યું છે.
આ બધાનું પગેરૂં પાકિસ્તાનમાં છે. પાકિસ્તાને કોઇ વિવેક વિના આતંકવાદને
ઉત્તેજન આપ્યું અને હવે છૂટા થવા માગતા નોકરની માફક આતંકવાદથી અળગા થવા કોશિશ
કરે છે.</p>




<p><head>ઇંટ અને ઇમારત</head></p>

<p><head>આશિક-માશુક, પ્યાર-મહોબ્બત અને શમા-પરવાનાની
શાયરી એને ખપતી નહોતી
હમ-સુખન કોઇ ન હો ઔર હમ-જબાં કોઇ ન હો!</head></p>

<p>એનું નામ હતું મિર્ઝા અસદુલ્લાહ ખાં. એનો જન્મ ઇ.સ. ૧૭૯૬માં
આગ્રામાં થયો હતો. પરંતુ દિલ્હીમાં શાદી થવાને કારણે દિલ્હીવાસીઓ એમને મિર્ઝા
નૌશા તરીકે પહેચાનતા હતા. કિંતુ શાયરોની દુનિયામાં એ મિર્ઝા ગાલિબ તરીકે ઓળખ
પામ્યા.</p>

<p>આ ગાલિબને જેમ પોતાની શાયરી માટે આગવો અંદાજ હતો, એ જ
રીતે કુલીન ખાનદાની માટે ગરૂર હતો.</p>

<p>મિર્ઝા ગાલિબના પૂર્વજો ઐબક જાતિના તુર્ક હતા. એમના દાદા
તરસમખાં શાહઆલમના સમયમાં સમરકંદથી ભારત આવ્યા હતા. મિર્ઝા ગાલિબના પિતા મિર્ઝા
અબ્દુલ્લા બેગ ખાં લશ્કરોમાં ઉંચો હોદ્દો ધરાવતા હતા અને અલ્વર રાજ્ય તરફથી લડતા
યુધ્ધમાં કુરબાની વહોરી હતી. પાંચ વર્ષની વયે મિર્ઝા ગાલિબે પિતાની છત્રછાયા
ગુમાવી. એમના કાકાની નિગાહબાનીમાં ઉછરવા લાગ્યા. પરંતુ નવ વર્ષના મિર્ઝા ગાલિબે
કાકાને પણ ગુમાવ્યા. બાળપણમાં જ જીવનની વાસ્તવિક્તા અને વેદનાનો સાક્શાત્કાર થયો. રાજા
તરફથી મિર્ઝા ગાલિબને વર્ષે ૭૦૦ રૂપિયાનું પેન્શન મળતું હતું. પરંતુ ૧૮૫૭ના સ્વાતંત્ર્ય
સંગ્રામમાં મિર્ઝાનું પેન્શન બંધ થયું. ત્રણેક વર્ષ બાદ અંગ્રેજ સરકારને ખાતરી થઇ
કે ૧૮૫૭ના સ્વાતંત્ર્ય સંગ્રામ સાથે મિર્ઝા ગાલિબને કોઇ તાલ્લુક નથી, તેથી ફરી પેન્શન શરૂ
થયું.</p>

<p>આગ્રામાં બચપન પસાર કરનારા વસતા મિર્ઝા ગાલિબે અરબી-ફારસીની
તાલીમ લીધી. ચૌદમા વર્ષે એમને ફારસી પંડિત મુલ્લા અબ્દુલ સમદનો યોગ થયો
અને બે વર્ષ સુધી ફારસી ભાષાનો ઉંડો અભ્યાસ કર્યો. પોતાના ફારસી ભાષાના
ગુરૂ માટે મિર્ઝા ગાલિબને ઘણું ગૌરવ હતું. એમને કારણે તો તેઓ પોતે ઇરાનીઓની
જેમ ફારસી વાંચી-લખી શકતા તેનો આનંદ હતો.</p>

<p>મિર્ઝાના વિવાહ દિલ્હીમાં થયા. શરૂઆતમાં આગ્રાથી દિલ્હીની અવરજવર
રહેતી, પણ પછી આગ્રા છોડીને સ્થાયી રૂપે દિલ્હીમાં વસી ગયા.</p>

<p>દિલ્હીના વાયુમંડળમાં એ સમયે શેર-શાયરીનો એક જુદો જ માહોલ
હતો. મુશાયરાઓની ધૂમ મચી હતી. ગાલિબના સસરા 'મારૂક'ના ઉપનામે પ્રસિધ્ધ શાયર
હતા. ગાલિબના દિલમાં પણ શાયરી રચવાનો મનસૂબો જાગ્યો. ગાલિબની પ્રારંભિક શાયરીમાં
ફારસી શબ્દોથી ભરેલી હતી. એ સમયે મુશાયરાના શાયરો આશિક-માશૂકની વાતો જ શબ્દબદ્ધ
કરતા હતા. દર્દ અને ગમમાં શાયરી ડૂબેલી રહેતી. એમાં માત્ર આંસુ અને તડપન હતી, શરાબ
અને શબાબ હતા.</p>

<p>આવે સમયે મિર્ઝા ગાલિબે પ્રસિધ્ધ ફારસી કવિ ''બેદિલ''નો
રંગ અપનાવ્યો અને શાયરીને ઇશ્કીયા મિજાજમાંથી બહાર કાઢીને વ્યક્તિગત જિંદગીની વેદનાનો
રંગ આપ્યો. ઇશ્કની કૃતક અભિવ્યક્તિથી ચલણી બનેલા શબ્દોને બદલે ગાલિબે ભાવને પ્રગટ કરવા
કઠિન શબ્દો પ્રયોજવા માંડ્યા અને વાતને સીધેસીધી પ્રગટ કરવાને બદલે વળાંક અને
વ્યંજનાથી આલેખવા લાગ્યા.</p>

<p>આ સમયે ઉર્દૂના મહાકવિ મીરે યુવાન ગાલિબની શાયરી સાંભળીને
કહ્યું કે આ શાયરને કોઇ ઉત્સાદ મળી જાય, તો તે લાજવાબ શાયર બની શકશે, નહીં તો એની
શાયરી બકવાસ બનશે, ગાલિબે 'ઉસ્તાદ' શોધ્યો. પણ તે કોઇ અન્ય શાયર નહીં, બલ્કે સ્વયં.
એ પોતે જ પોતાનો ઉત્સાદ બની ગયો. એણે સ્વયં સ્વરચનાની તાદ્રસ્થ્યથી વિવેચના કરી અને
એમાંથી નવીન વિચારો આલેખતો ગયો. મિર્ઝા ગાલિબના સમકાલીન કવિઓ અને વિદ્વાનોમાં
જૌક, મોમિન, નસિર જેવા ગુરૂઓ બેઠા હતા. મિર્જા ગાલિબ નમ્ર સ્વભાવ અને ઉદાર મન
ધરાવતા હોવા છતાં કેટલોક સમય ચડભડમાં ઉતરવું પડતું. મિર્ઝા ગાલિબની પ્રારંભિક
શાયરીમાં તુર્કી શબ્દો, ફારસી શબ્દો અને કિલષ્ટતા ઘણી હતી, પરંતુ સ્વતંત્ર મિજાજના આ
સર્જકે ગઝલની સર્વ સ્વીકૃત બની ગયેલી પરંપરાના બદલે એને નવો અંદાજ આપ્યો.</p>

<p>મિર્ઝા ગાલિબનો વિદ્રોહી મિજાજ પ્રગટ થતો ગયો. ગઝલની વર્ષો
જૂની સ્વીકૃત પરંપરાનો કવિએ ત્યાગ કર્યો. ગઝલને મતલા અને મકતાના બંધનોમાંથી
રિહા (મુક્ત) કરી. ગઝલમાં કેટલા શેર છે એ બાબતમાં પણ મિર્ઝા ગાલિબ બેપરવાહ રહ્યા.
બસ, જે ભાવ કે વિચાર જે રીતે પ્રગટ થયો, એ જ રૂપે એને રાખ્યો.</p>

<p>એ સમયે ગઝલને 'દીવાન'માં સંગ્રહીત કરવામાં આવતી. દરેક
શાયરનો પોતાનો દીવાન હોય. કાવ્યસંગ્રહ હોય. એમાં એમણે રચેલાં તમામ કાવ્યો મળી
રહે.</p>

<p>એ સમયના શાયરો પોતાના શેરને 'લખ્તે-જિગર' તરીકે ઓળખાવતા.
એમનાં કાવ્યને ''કલેજાનો ટૂકડો'' માનતા. ભલા, આ કલેજાના ટૂકડાને કપાય શી રીતે?
આથી શાયરની ઉત્કૃષ્ટ અને નિકૃષ્ટ - તમામ રચનાઓ એના દીવાનમાં મળતી.</p>

<p>મિર્ઝા ગાલિબનો મિજાજ આવી માની લીધેલી બાબતોના માર્ગે
ચાલનારો નહોતો. એણે વિચાર્યું કે કાવ્યનો ગુલદસ્તા એવો હોવો જોઇએ કે જેમાં
શુષ્ક, સડેલાં કે મુરઝાઇ ગયેલાં ગુણોને સ્થાન ન હોય. આથી મિર્ઝા ગાલિબે પોતાના
ઘણાં કાવ્યો 'દિવાન'માં સંગ્રહિત કર્યા નહીં. જાગ્રત અને વિકાસશીલ કવિની આ પહેચાન બની.
એને કારણે જ મિર્ઝા ગાલિબના દીવાનમાં નબળી રચનાઓ ક્વચિત જ મળે છે. ગઝલના
વિષયવસ્તુ અને શબ્દાવલિમાં પણ મિર્ઝા ગાલિબે પરિવર્તન કર્યું. પરિવર્તન કરનારના જીવનમાં
પરેશાની આવતી હોય છે.</p>

<p>મિર્ઝાના શાયર તરીકેના પ્રારંભનાં વર્ષોની એક ઘટનાની યાદ આવે
છે. એ દિવસે પાટનગર દિલ્હીમાં જાહેર તહેવાર હતો. શહેરના બજારો બંધ હતા.
શેરીમાં સૂનકાર સૂતો હતો અને કચેરીઓ બંધ હતી.</p>

<p>કોઇ અનોખા ઉત્સવના માહોલમાં નગરજનો ડૂબી ગયા હતા. મોગલ
સલ્તનતના શહેનશાહ બહાદુરશાહ ઝફર ખુદ બહેતરીન શાયર હતા. શહેનશાહે આજે શાનદાર
મુશાયરો યોજ્યો હતો. શાયરીના મિજાજને પારખતા દિલ્હીના નગરજનોને માટે જાહેર તહેવાર
બની ગયો. રાજકવિ 'ઝૌક' મુશાયરાની મોહકતામાં રંગ ભરવા તશરીફ લાવવાના હતા. સૌ
'ઝોક'ને સાંભળવા આતુર હતા. શાયરીના એ શહેનશાહને દાદ દેવાં બધાનાં હૈયાં
થનગનતાં હતાં. ચોરે ને ચૌટે એક જ વાત થઇ રહી હતી કે, આજે તો મુશાયરામાં
રાજકવિ 'ઝૌક' પધારવાના છે.</p>

<p>એ દિવસે શામ પણ ઘણી મોડી પડી હોય એમ લાગ્યું. એક શાનદાર
શાહી ખંડમાં શાયરો આવવા લાગ્યા. શબ્દોના સહારે ભાવનાના દીપક પ્રગટાવતા હતા. માનવ
મેદની તો ટોળાબંધ ઉમટી રહી હતી.</p>

<p>શમા ફરવા લાગી. એક પછી એક શાયરની શાયરી ગૂંજવા લાગી. હવામાં
અનેરી સુરખી પ્રગટી, પ્યાર અને મહોબ્બતનો સુરમો બધે અંજાઇ ગયો. પણ લોકો તો
તેમના પ્રિય કવિ 'ઝૌક'ને સાંભળવા આતુર હતા.</p>

<p>શમા ફરતી ફરતી એક જુવાન શાયર પાસે આવી પહોંચી. એની
આંખોમાં દર્દ હતું. પ્રણયનું નહીં પણ જીવનનું! નજરમાં એક નશો હતો, જમાનાને જાણી
લીધાનો!</p>

<p>આછા પ્રભાવશાળી દાઢી એના ચહેરાને વધુ પ્રભાવશાળી બનાવી રહી હતી!
આ કવિ હતો ગાલિબ! ગાલિબ પાસે શમા આવી પહોંચી અને ગાલિબે કવિતા બોલવી શરૂ કરી.
ગઝલનો મતલો રજૂ કર્યો. આ વેળાએ શહેનશાહ 'ઝફર' કવિ 'ઝૌક' સાથે કંઇક વાતમાં
મશગૂલ હતા. લોકોની નજર એ રાજકવિ પર મંડાયેલી હતી.</p>

<p>ગાલિબના મતલાને કોઇએ દાદ ન આપી. ગાલિબે ગઝલનો શેર કહ્યો.
બે-ચાર માણસોએ કહ્યું : 'કશું સમજાયું નહીં.'</p>

<p>બીજાને અઘરી કવિતા સમજવાની નવરાશ ન હતી.</p>

<p>સામે પડેલી શમા કરતાં વધુ તેજસ્વી ગાલિબની આંખોમાં ઘેરા દર્દની
સાથે ઉપેક્શા છલકી રહી :</p>

<p>''વો યે કહતે હૈ કિ 'ગાલિબ' કૌન હૈ</p>

<p>કોઇ બતલાઓ કિ હમ બતલાયેં ક્યા.''</p>

<p>કોને પરવા હતી કે આ યુવાન કવિએ તેની ગઝલ પૂૂરી બોલવા કહે!
આશિક માશુકના આપસી મીઠા ઝઘડા, રિસામણાં- મનામણાં અને વિરહ-વિયોગનાં
ધોધમાર રૂદનના ચાહકોને કઠિન શબ્દો, ભાવો ભરેલી ગઝલમાંથી જીવનની ગહરાઇ
પામવાનો અવકાશ ક્યાં હતો? સહુને 'ઝૌક'નો ઇંતેજાર હતો. કવિતાની ઉંડાઇ નહીં,
ઉપરછલ્લા ભાવો અને શબ્દોની રમત સાથે નિસ્બત હતી. માનવ હ્ય્દયના ઉંડા દર્દને વાચા આપતી
કવિતા મહેફિલને નહોતી ખપતી. એમને તો પ્યાર-મહોબ્બત, શમા-પરવાના, કે
સાકી-મયખાનાની શાયરીી ખપતી હતી!</p>

<p>અને ગાલિબ મહેફિલમાંથી બહાર નીકળી ગયા!</p>

<p>''કોઇ ઉમ્મીદ બર નહીં આતી,</p>

<p>કોઇ સૂરત નજર નહીં આતી.''</p>

<p>દિલ્હીના રાજમાર્ગો આજે સૂમસામ હતા. વિશાળ મહાલયો આજે
દીપકની રોશનીથી ઝળકતા ન હતા. સહુ કોઇ 'ઝૌક'ને સાંભળવા મુશાયરામાં ગયા હતા. નિર્જન
રાજમાર્ગો પર ગાલિબ કેટલાય સમય સુધી અહીં-તહીં ભટકતા રહ્યા. એમની આંખોમાં
ઉંડી તલાશ હતી. પોતાના હસમુખન અને હમજબાં (સહભાષી)ની અવગણનાએ કવિના હ્ય્દયને ભારે
ઠોકર પહોંચાડી હતી.</p>

<p>''રહિયે અબ ઐસી જગહ,</p>

<p>ચલકર જહાં કોઇ ન હો,</p>

<p>હમ-સુખન કોઇ ન હો,</p>

<p>ઔર હમ-જબાં કોઇ ન હો.''</p>

<p>કવિને કોઇ તલાશી હતી</p>

<p>(આવતા અંકે પૂર્ણ)</p>

<p>આજની વાત</p>

<p>બાદશાહ : બીરબલ, ભારતના ઘણા લોકો ગાઇ વગાડીને પોતાને
''સેક્યુલર'' કહે છે, એનો અર્થ શો?</p>

<p>બીરબલ : જહાંપનાહ, એમ કહેવાય છે કે ભારતમાં બે પ્રકારના
લોકો વસે છે. એક ''સેક્યુલર'' અને બાકીના બધા ''નોર્મલ''</p>

<p>બાદશાહ : વાહ! બીરબલ! તો આ સેક્યુલરનો સંબંધ કોની
સાથે?</p>

<p>બીરબલ : જહાંપનાહ, સેક્યુલરનો સંબંધ છે કેલક્યુલેટર
સાથે. આજકાલ કોઇપણ વ્યક્તિ સેક્યુલર વક્તવ્ય દેતા પહેલાં કેલક્યુલેટર ખોલીને ગણત્રી
કરે છે કે જો એ સેક્યુલર વક્તવ્ય આપશે તો એને અલ્પસંખ્યકોના કુલ કેટલા વોટ મળશે?
જહાંપનાહ! આ લોકો સેક્યુલર ઓછા છે અને કેલક્યુલેટર વધારે છે.</p>




<p><head>કક્કો અને બારાખડી</head></p>

<p><head>અમેરિકાએ અફઘાનિસ્તાનનું પલાળ્યું છે એટલે હવે મૂંડ્યા વિના છૂટકો
નથી! </head></p>

<p>પટાક્ પટ્ટ પટાક્ પટ્ટ</p>

<p>અમેરિકા અફઘાનિસ્તાનની દાઢી મૂડવા ખાતર અસ્ત્રોની પટ્ટા પર પટાક્
પટ્ટ પટાક્ પટ્ટ ધાર કાઢી રહ્યું છે પણ પણ ખરેખર દાઢી કેમ મૂડવી એ સમજાતું નથી
એને! અમારા બેચરદાસ શું માને છે આ અંગે!</p>

<p>'''અમેરિકા માટે હવે છૂટકો નથી!'' મારા એક મિત્ર કહે છે.</p>

<p>''કેમ?''</p>

<p>''આમ તો અમેરિકાવાળા અફઘાનિસ્તાન પર હુમલો કરતાં કરી બેઠા
પણ હવે ''આવી ફસા'' જેવું થયું છે. અંદરેય જવાય નહીં ને બહારેય નિકળાય નહીં..''</p>

<p>''પણ કંઇક રસ્તો કાઢશે.'' મેં કહ્યું.</p>

<p>''છૂટકો જ નથી!'' પેલા ભાઇએ જાહેર કર્યું. ''પલાળ્યું એટલે હવે
મૂડવું જ પડવાનું.''</p>

<p>આપણે ત્યાંની આ કહેવત ''પલાળ્યું એટલે મૂંડવુ જ પડે'' એ,
આપણી ભાષાની વિચિત્ર કહેવતોમાંની એક છે. આમ ધંધાકીય કહેવત છે.
નિષ્ણાતો માટેની છે. જે મૂડવાના નિષ્ણાતો છે. હેરકટિંગ સલૂનવાળા ભાઇઓ તેમને આ
કહેવત સમજવી હોય તો કન્સલ્ટ કરવા પડે!</p>

<p>મેં અમારા હેરઆર્ટવાળા હેરકટિંગ સલૂનવાળા બેચરદાસને પૂછ્યું.</p>

<p>''બેચરદાસ, આપણે ત્યાં એક કહેવત છે કે પલાળ્યું એટલે મૂડવું
જ પડે! આ કહેવત અંગે મને કૂતૂહલ છે. આ કહેવતનો અર્થ શો? અને એમાં જે
ફરજીયાતપણાની વાત છે એ કેટલે અંશે ફરજીયાત છે?''</p>

<p>બેચરદાસ કહે, 'સાહેબ, અમારા ધંધાનો આ રિવાજ છે કે
ઘરાકની દાઢી પર પાણી કે સાબુ કે બ્રશ લગાવીએ એ અમારા કામનો પહેલો તબક્કો ગણાય.
આ પહેલો તબક્કો શરૂ કર્યા પછી બીજા તબક્કામાં એટલે કે મૂડવામાં જવું જ પડે. પલાળ્યા
પછી પેલાને એમ ના કહેવાય કે હવે ઘેર જા, આજે મારો મૂડ નથી!'</p>

<p>''બેચરદાસ, મારા ટેબલ પર તો અડધા શરૂ કરેલા અડધા
પાનાનો, એક પાનાનો, માત્ર મથાળું બાંધેલા ઘણા લેખો પડ્યાં છે.''</p>

<p>''તમારા ધંધામાં સાહેબ પલાળ્યા પછી મૂડવાનું કાયદેસર
નહીં! પોલિટિક્સમાં ય એવું ચૂંટણી ઉમેદવારી પત્રક ભર્યા પછી પાછું ખેંચી લેવાની છૂટ!
અને ચૂંટાયા પછીય પ્રજાનું કામ કરવામાંથી છટકી જવાની છૂટ!''</p>

<p>''એટલે કે દાખલા તરીકે આપણા નરેન્દ્ર મોદી સાહેબે પલાળ્યું છે
હવે નહીં મૂડવાની છૂટ!''</p>

<p>''કશો વાંધો ન આવે! આમ તો એમની છાપ એવી છે કે
પલાળ્યા પછી મૂડીને જ રહે. પણ ના મૂડે તો ચાલે ખરૂં! સાહેબ, અમારા ધંધા
જેવો ખાનદાન ધંધો તમારો કે ચીફ મિનિસ્ટરનો ધંધો નહીં.
અમારે તો પલાળ્યા પછી મૂડવું જ પડે!''</p>

<p>જો કે મેં જોયું છે કે ઘણીવાર અમારા ગામના બેચરદાસ શું કરતા?
કે ઘરાકને પલાળે ને પછી બીડી પીવા બેસી જાય! આમાં ફાયદો શો કે ઘરાક બિચારો
રિસાઇને જતો ન રહે! એણે પલાળાવ્યું એટલે એણે મૂડાવવું જ પડે! એટલે કેશકર્તન
કલાકાર માટે તો એક ખાતુ રિઝર્વેશન થઇ ગયું. ઘરાક ગુમાવવાનો ભય નહીં, હવે નિરાંતે
બીડી પીધા કરે, પેલો બિચારો ક્યાં જવાનો!</p>

<p>મેં કહ્યું, ''બેચરદાસ, પોલિટિક્સમાં મતદાર એ તમારા ઘરાક
જેવો છે. એણે એકવાર ઉમેદવાર પાસે પલાળાવ્યું - ઉમેદવારને ચૂંટ્યો - પછી એની
પાસે જ મૂડાયા વિના છૂટકો જ નહીં! પેલો પાંચ વરસ બીડી ફૂંક્યા કરે તો મતદારે પાંચ
વરસ રાહ જોવાની! આવતી ચૂંટણી તો પાંચ વર્ષે થવાની - એટલે અધવચ્ચ હવે બીજે
મૂડાવા ક્યાં જાય?''</p>

<p>''ખરી વાત છે સાહેબ! પણ અમારો ધંધો ઓનેસ્ટ બહુ!
એક પણ હેરકટિંગ સલૂન બતાવો કે જેમાં કલાકારભાઇએ પલાળ્યા પછી મૂડ્યું ન હોય!''</p>

<p>''અશક્ય!'' મેં કહ્યું.</p>

<p>''એનો અર્થ ધંધાની ખાનદાની!''</p>

<p>''પણ આ અમેરિકાવાળા એવી ખાનદાની દર્શાવી શકશે ખરા,
બેચરદાસ?''</p>

<p>તમે જાણો છો, બેચરદાસ ઇન્ટરનેશનલ એફેર્સના નિષ્ણાત છે. આમ તો
બેચરદાસ બધા જ એફેર્સના નિષ્ણાત છે. અમારી પોળના ''એફેર્સ'' વિષે પણ એ બધું
જાણે છે. કોનો અફેર કોની જોડે છે. ને ક્યાં ને કેટલે પહોંચ્યો પછી એમને ખબર- પણ
બોલે નહીં આપણા ઉપર ખાસ ફેવર કરવી હોય ત્યારે જ કહે - આ તો સાહેબ, તમે ઘરના
માણસ છો. એટલે કહું છું કે ફલાણાનું ફલાણી જગ્યાએ આમનું આમ છે!''</p>

<p>''એ..એ..એ..મ?'' એવું આપણે જોરદાર આશ્ચર્ય વ્યક્ત કરીએ તો
બેચરદાસને આપણે વધારે પ્રમાણમાં ઘરના માણસ લાગીએ અને એ વધારે કહેવા
માંડે કે..</p>

<p>પણ અત્યારે તો અમારે અમેરિકાની વાત ચાલતી'તી. ''બેચરદાસ, તમને
શું લાગે છે? અમેરિકાવાળાએ અફઘાનિસ્તાનમાં પલાળ્યું છે ને હવે પુરૂં મૂડવાના ખરા?''</p>

<p>''સાચું કહું સાહેબ, આ અફઘાનિસ્તાનવાળાની દાઢી સોફ્ટ નથી!
અમેરિકાએ સાબુ વધારે લગાડવો પડશે!''</p>

<p>''પણ છેવટે દાઢી સાફ થવાની ખરી! કેમ?''</p>

<p>''કંઇ કહેવાય નહીં, સાહેબ!'' બેચરદાસે માથુ ધૂણાવ્યું.
''અમેરિકાના અસ્ત્રા છે તો અપટુડેટ, પણ દાઢીઓ માટે ફીટ નથી! એટલે શું થાય છે કે
અમેરિકા મૂડવા જાય છે પણ પેલાઓને ઘા વધારે પડતા લાગી જાય છે.''</p>

<p>''એકાદ બે વાર તો અસ્ત્રો વાગી જાય બેચરદાસ, એમ તો તમેય
કોકવાર જરા જોશમાં આવી જાઓ છો, તો અમારાથી ચીસ પડાઇ જાય છે, અને દાઢી પર
લોહીના ટશિયા ફૂટી આવે છે!''</p>

<p>''તમારી વાત જુદી છે. આપણો સંબંધ એવો છે કે તમે
ચલાવી લો છો સાહેબ, પણ આ દાઢીવાળા એ તીખા ટેમ્પરવાળા છે. એમને મૂડવામાં જાનનું
જોખમ છે. આપણી કાતરની અણી સહેજ વાગે તો સામા છરો લઇને ઉભા થઇ જાય!''</p>

<p>વાત ખરી છે. અમને પણ લાગે છે કે અમેરિકાએ પલાળતા પલાળી દીધું
છે. પણ હવે એ ય ચિંતામાં છે કે હવે દાઢીવાળા શૂરવીરોનું કરવું શું?</p>

<p>અને જોડેની ખુરશી પર મુશર્રફ મિયાં બેઠાં છે, એ ય વાતમાં આવી
ગયા છે!</p>

<p>જો કે અમેરિકાવાળાય હોંશિયાર છે. એ ય સમજે છે કે કઇ
બધાંને એક અસ્ત્રે મૂડાય નહીં! કોઇને સીધા અસ્ત્રે મૂડવાના હોય, કોઇને
ઉંધા અસ્ત્રે મૂડવાના હોય! કોઇની બોચી પરના વાળ કરવાને બહાને ડોકી પાડી
નાખવાની હોય, કોકને શેમ્પૂ કરવાને બહાને ગૂંગળાવી દેવાનો હોય, કોઇને સ્ત્રે
કરવાને બહાને આંખોમાં ''છાંટી'' દેવાનું હોય ને કોઇને દાઢી મૂડતા મૂડતા અસ્ત્રો
નાક પર ફેરવી દેવાનો હોય - ટચાક્ !</p>

<p>અફઘાનિસ્તાને નાદાનિયતમાં અમેરિકાનું પલાળ્યું છે અને અમેરિકાએ
જોશમાં આવી જઇને અફઘાનિસ્તાનનું હવે છેવટે કોણ કોને કેવી રીતે મૂડી નાખે છે એ
તમાશો જોવા સિવાય આપણે શું કરી શકીએ?!</p>

<p>જોઇએ છીએ!</p>

<p>(આવતીકાલે કક્કામાં? એન્થ્રેક્સ ઓફ કોર્સ!)</p>




<p><head>રાજકીય ક્શિતિજે ઘૂમતા ગ્રહો</head></p>

<p><head>વિશ્વના અનેક દેશોમાં હિંસાનો મોટો વિસ્ફોટ થશે</head></p>

<p>ભયાનક- સૂચના</p>

<p>ગ્રહોની ગતિ ઉપરથી એવું લાગે છે કે, તા. ૧૬મી ઓકટોબર ૨૦૦૧
થી તા. ૧૩મી જાન્યુઆરી ૨૦૦૨ સુધીમાં વિશ્વભરમાં વાતાવરણ ઘણું જ વિનાશક બની
રહેશે. રાસાયણિક તેમજ ગુપ્ત હથિયારો અને ભયાનક હિંસા દ્વારા માનવ-જાતિનો મોટાપાયે
વિનાશ થતો જોવા મળશે. લગભગ દરેક દેશમાં હિંસા ફાટી નીકળશે અને તેમાં ઊચ્ચ
અધિકારીઓ તેમજ શાસનકર્તા વરીષ્ઠ વ્યક્તિઓ અને નેતાઓની હત્યા થવાની સંભાવના
છે. આ માટે ષડ્યંત્રો તૈયાર થઈ જ ગયાં છે. ૧૪મી ડીસેમ્બર ૨૦૦૧ પછી અનેક દેશોમાં
યુદ્ધની તૈયારીઓ થતી જોવા મળશે. પરંતુ, યુદ્ધ થશે નહીં, અથવા તો, તેને રોકી દેવામાં
આવશે. અહીં તહીં થોડાં છમકલાં થશે. વિશ્વનું વાતાવરણ એકદમ દૂષિત થઈ જવાને
લીધે, બુદ્ધિજીવી, ધનવાન, સાધન-સંપન્ન પરંતુ, આધ્યાત્મિક તેવી કોઈ
વ્યકિત ભગવાનનું સ્વરૂપ ધારણ કરીને આવી સૈનિક કાર્યવાહીઓને પણ બંધ કરાવી
દેશે અથવા તો, ભગવાનનો ભય સેનાકીય કાર્યવાહી અટકાવી દેશે. આ નિશ્ચિત છે. </p>

<p>પ્રાર્થના</p>

<p>આથી શાસન અધિકારીઓને પ્રાર્થના પૂર્વક કહેવું પડે છે કે,
તેઓ સમયને ઓળખી લે; શાંતિ માટે પ્રયાસ કરે જનતાને હિંસા અને રાસાયણિક તેમજ
ગુપ્ત હથિયારોથી બચાવે, વિશ્વને ભયંકર વિનાશમાંથી બચાવે. ધનવાન, સાધન
સંપન્ન, બુધ્ધિજીવી તેમજ આધ્યાત્મિક વ્યકિતઓને પ્રાર્થના છે કે, તેઓ એક ક્શણનો
પણ વિલંબ ન કરે, એકદમ એકઠા થઈ જાય અને આવી ઘટના રોકવા પ્રયત્નો શરૂ કરી દે. તેમને
તા. ૧૩મી જાન્યુઆરી ૨૦૦૨ સુધીમાં અવશ્ય સફળતા મળશે, પરંતુ, તે પહેલાં માનવજાતિને
વિનાશમાંથી તેઓ ઉગારી શકશે તો ઘણું મોટું પુણ્ય મળશે, માનવજાતિને કરેલો તે
સાચો ન્યાય બની રહેશે.</p>

<p>ભારત</p>

<p>ગ્રહોની ગતિ દર્શાવે છે કે, તા.૧૪મી નવેમ્બર ૨૦૦૧ સુધી
ભારતની વિદેશ-નીતિ ઉપર ભારે દબાણ રહેશે. આમ છતાં સરકાર પરિસ્થિતિ ઉપર નિયંત્રણ
રાખવામાં સફળ રહેશે. આ સમય દરમિયાન હિંસા ફાટી નીકળશે. પરંતુ શાસનકર્તાઓ તેને
કાબૂમાં લઈ શકશે. </p>

<p>ગ્રહો એવો પણ સંકેત આપે છે કે, ૧૫મી નવેમ્બર ૨૦૦૧ પછી
ભારતમાં વ્યાપક હિંસા ફાટી નીકળશે. સરકાર દ્વારા કઠોર પગલાં લેવામાં આવશે. તે રીતે
તે પરિસ્થિતિને કાબૂ નીચે લાવી શકશે. આ પછી, તા. ૧૫મી ડીસેમ્બર ૨૦૦૧થી લગભગ એક
મહિનામાં, ગુપ્ત, વિનાશક અને રાસાયણિક હથિયારો દ્વારા જાનહાની થવાનો ભય છે. આનો
અણસાર તા. ૧૫મી નવેમ્બર ૨૦૦૧ પછી આવવા લાગશે. આથી સરકારે બહુ જ સાવધાન
રહેવાની જરૂર છે. સંસદનું સત્ર પણ અનેક મુશ્કેલીઓ વચ્ચે પુરૂં થઈ શકશે. પરિસ્થિતિ કદાચ
એવો પણ વળાંક લે કે, દેશમાં કટોકટીની સ્થિતિ જાહેર કરવી પડે.</p>

<p>અમેરિકા</p>

<p>અમેરિકા અંગે ગ્રહો એવો સંકેત આપે છે કે, તા. ૧૭મી નવેમ્બર
૨૦૦૧સુધીના સમય દરમિયાન તે દેશમાં પ્રચંડ જન-આંદોલન શરૂ થશે, આ આંદોલન
હિંસક પણ બની શકે અને તે દ્વારા જનતા કોઈપણ હિસાબે સૈનિક કાર્યવાહી બંધ કરવા
માટે દબાણ કરશે. પરિણામે સરકાર અત્યંત મુશ્કેલીમાં મુકાઈ જશે તેમ છતાં પરિસ્થિતિ ઉપર
કાબૂ મેળવી શકશે. તેની સંસદ અને તેના સંસદ સભ્યો પણ મુશ્કેલીમાં મુકાશે. ૧૫મી
નવેમ્બર ૨૦૦૧થી લગભગ એક મહિનામાં અમેરિકાનાં કેટલાંયે જહાજોની પણ હાની થવાનો સંભવ
છે. વાતાવરણ, મોસમ અને પ્રકૃતિ પણ પ્રતિકૂળ બની રહેશે. શાસન ઘણી જ નિર્બળ સ્થિતિમાં
મુકાઈ જશે. તેમ છતાં તેનો આત્મ-વિશ્વાસ ડગશે નહીં. </p>

<p>તા. ૧૬મી ઓકટોબર અને ૩૦મી નવેમ્બર ૨૦૦૧ વચ્ચે તેના કેટલાયે
સૈનિકો માર્યા જવાનો ભય છે. ૩૦મી નવેમ્બર ૨૦૦૧થી ૧૩મી જાન્યુઆરી ૨૦૦૨ સુધીમાં
અમેરિકાની સરકાર ઉપર- ઊચ્ચ અધિકારીઓ ઉપર- પણ જોખમ રહેલું છે. ગુપ્ત અને
રાસાયણિક હથિયારોનો પણ પ્રયોગ થવાનો ભય રહેલો છે. </p>

<p>એવી ગમખ્વાર દુર્ઘટનાઓ બનશે કે, તેને લીધે સૈનિક
કાર્યવાહી થોડો સમય બંધ પણ રાખવી પડે અથવા તો તે આપોઆપ બંધ થઈ જશે.</p>

<p>રાષ્ટ્રપતિ તેમજ ઉપરાષ્ટ્રપતિની સુરક્શા માટે અમેરિકાએ યોગ્ય તેમજ
જરૂરી તેવાં તમામ પગલાંઓ લેવાં જ જોઈએ. આ અનિવાર્યતા છે. તેઓને બચાવવા તે માત્ર
અમેરિકા માટે જ નહીં, સમગ્ર વિશ્વ માટે પણ અત્યંત આવશ્યક છે. કારણકે, ઉગ્રવાદીઓ
રાસાયણિક તેમજ ગુપ્ત શસ્ત્રો દ્વારા વિશ્વ-વિનાશની યોજના ઘડી રહ્યા છે. જો કે, પ્રયત્નો
છતાં પણ તેમને બચાવવા બહુ જ મુશ્કેલ છે ગ્રહોનો આવો સંકેત છે.</p>

<p>પાકિસ્તાન</p>

<p>તા. ૧૩મી જાન્યુઆરી ૨૦૦૨ પહેલાં ત્યાં કટ્ટરપંથીઓ અત્યંત હાવી થઈ
જશે. વ્યાપક હિંસા થશે. ૧૫મી ડીસેમ્બર ૨૦૦૧થી એક મહિનાની અંદર કેટલાયે ઊચ્ચ
અધિકારીઓની હત્યા થશે અથવા તો તેમનાં મૃત્યુ થશે. ગુપ્ત તેમજ રાસાયણિક શસ્ત્રો
દ્વારા પણ ભારે મોટી જાનહાની થવા સંભવ છે.</p>

<p>અફઘાનિસ્તાન, ઉઝબેકીસ્તાન </p>

<p>ગ્રહોની ચાલ ઉપરથી સ્પષ્ટ બની રહ્યું છે કે, તા. ૧૬મી નવેમ્બર ૨૦૦૧
સુધીનો સમય દરમિયાન ત્યાં ભયાનક સૈનિક કાર્યવાહી થશે. ૧૫મી નવેમ્બર અને ૧૫મી
ડીસેમ્બર ૨૦૦૧ દરમિયાન બંને દેશોની જનતા ગંભીર સંકટમાં મુકાઈ જશે. બંને દેશોની
સરકારોને જન-કલ્યાણના કાર્યક્રમમાં વ્યસ્ત રહેતી જોઈ શકીશું. ૧૫મી ડીસેમ્બર ૨૦૦૧થી એક
મહિનાના ગાળામાં બંને દેશોમાં વ્યાપક હિંસાખોરી થતી જોવા મળશે. કેટલાયે ઊચ્ચ
અધિકારીઓ અને વરીષ્ઠ નેતાઓની હત્યા થવાનો કે મૃત્યુ થવાનો પણ ભય છે.
શાસનમાં પરિવર્તન પણ આવી શકે. શાસક દળ વિરોધ પક્શમાં આવી જાય અને
વિરોધીઓ શાસન ઉપર આવી જાય તેવી સંભાવના રહેલી છે. આનું એક પરિણામ તે પણ
આવી શકે કે, આથી વિશ્વમાં સૈનિક કાર્યવાહી બંધ પણ થઈ જાય.</p>

<p>ભારતની સંભવિત વિશિષ્ટ ઘટનાઓ</p>

<p>(૧) તા. ૧૬મી ઓકટોબરથી ૩૦મી નવેમ્બર ૨૦૦૧ સુધીમાં
રાષ્ટ્રીય જન-તાંત્રિક ગઠબંધનમાં કેટલાક મતભેદ ઉપસ્થિત થઈ શકે અને તેના કોઈ સાથી
પક્શ ગઠબંધન છોડી દે (૨) તા. ૧૬મી ઓકટોબરથી ૩૦મી નવેમ્બર ૨૦૦૧ વચ્ચેનો સમય
સૈનિકો અને સેનાના અધિકારીઓ માટે ઘણો જ પ્રતિકૂળ છે. તેમણે સંભાળીને રહેવું
પડે તેમ છે. (૩) તા. ૧૬મી નવેમ્બર સુધીના સમય દરમિયાન શેરબજારમાં તેજીનું
વાતાવરણ રહેશે.(૪) તા. ૧૬મી નવેમ્બર સુધીના સમય દરમિયાન કેટલાક યુવાનો જાતિવાદ
અને ધાર્મિક કારણોસર હિંસા ફેલાવશે. (૫) તા. ૧૬નવેમ્બર ૨૦૦૧ સુધીના સમય
સુધીનો સમય રાજ્ય- શાસન અને તેના અધિકારીઓ માટે અશુભ છે. તેઓને કોઈ
દુર્ઘટના પણ નડવાની ભીતિ છે. કેટલાંયે રાજ્યોમાં ઊચ્ચ સ્તરે શાસનમાં ફેરફાર પણ થઈ
શકે. </p>




<p><head>લાઇમલાઇટ</head></p>

<p><head>અમેરિકાની મોટાભાગની રેસ્ટોરન્ટો સૂમસામ
રેસ્ટોરાના
એક લાખ કર્મચારીઓને છૂટા કરાયા</head></p>

<p>અમેરિકાની પ્રજા વર્લ્ડ ટ્રેડ સેન્ટર પરના આતંકવાદી હૂમલા અને હવે
એન્થ્રેક્સના ડરને કારણે ફફડતા હૈયે જીવે છે. તેમાં પણ એફબીઆઈએ હજુ પણ
આતંકવાદીઓ વળતો હુમલો કરી શકે તેવી પુરી શક્યતા છે તેવી પ્રજાજોગ ચેતવણી આપી
હોઈ અમેરિકાની પ્રજાની ઊંઘ હરામ થઇ ગઇ છે. અમેરિકાની પ્રજાએ ક્યારેય બાહ્ય જગત તરફથી
મનનો તનાવ, સંઘર્ષ કે ભય અનુભવ્યો નથી. ખાણી-પીણી, પાર્ટી, શનિ-રવિની રજામાં લોંગ
ડ્રાઈવ કરીને ફરવા નીકળી જવું તે જ તેઓની દિનચર્યા હોય છે. ડોલર્સથી બધુ જ ખરીદી
શકાય છે તેવો પ્રજામાં કેફ પણ ખરો. તેઓ તેમની જાતને વિશ્વની સૌથી સુખ-સગવડભરી અને
સ્વતંત્ર પ્રજા માનતા આવ્યા છે. પણ આતંકવાદની આ આફતે તેઓને હચમચાવી મુક્યા છે.
તેઓ જીવ પડીકે બાંધી ને નોકરી ધંધો કરે છે અને બીનજરૂરી રીતે
રેસ્ટોરામાં કે ટુરીસ્ટો જગાઓ પર જવાનું ટાળે છે. આવી પરિસ્થિતિમાં તમામ
ઉદ્યોગો, બિઝનેસ, સેવાઓમાં તો જોરદાર ફટકો પડ્યો જ છે. પણ રેસ્ટોરાઓ જે
બંધ પડવા માંડ્યા છે અને જે છે તેમાં એકલદોકલ ટેબલોમાં જ ગ્રાહકો બેઠેલા
હોય છે તે જોઇ અમેરિકાની જાણીતી રોનકદાર દુનિયાને યાદ કરી દયા આવે તેમ છે.</p>

<p>માત્ર ન્યુયોર્ક અને વોશિંગ્ટન જ નહીં સાન ફ્રાન્સીસ્કો તેમજ
અન્યોની પણ આવી જ સ્થિતી છે. આખા અમેરિકાના રેસ્ટોરન્ટોમાં સરેરાશ ૨૫ ટકાનો તેમજ
બીઝનેસ ટ્રાવેલમાં ૮૦ ટકાનો ઘટાડો જોવા મળે છે. ઘણા રેસ્ટોરાઓમાં ૪૦ ટકા જેટલી
ઘરાકી ઘટી છે. જ્યારે ૧૦ થી ૧૨ જાણીતી રેસ્ટોરાઓને તો સાન ફ્રાન્સીસ્કોમાં તાળા લાગી
ગયા છે.</p>

<p>મોન્ટાગે, ગેલીયાનો, સ્પ્લેન્ડીડો, નીકી લીઓન્ડાકીસ બંધ
થઇ ગઇ છે. આમ તો વૈશ્વીક મંદીને કારણે આતંકવાદી હુમલા પહેલા જ ઘરાકીમાં ખાસ્સો
ઘટાડો તેઓએ અનુભવ્યો હતો. પણ હવે તેઓના ભાડા કે અન્ય ખર્ચા પણ નીકળે નહીં તેવી
સ્થિતી છે.</p>

<p>નેશનલ રેસ્ટોરન્ટ એસોસિએશનની માહિતી પ્રમાણે અમેરિકામાં
૮,૪૪,૦૦૦ રજીસ્ટર્ડ રેસ્ટોરા છે. ૧૧ સપ્ટેમ્બર પછીના ૧૦ દિવસ તો આ તમામ રેસ્ટોરાઓના
બીઝનેસ પર ગંભીર અસર થઇ હતી. રેસ્ટોરા સાથે સંકળાયેલા એક લાખ કર્મચારીઓએ તેમની
નોકરી ગુમાવી છે. ન્યુયોર્કમાં આવા ૧૫,૦૦૦ કર્મચારીઓની છટણી થઇ છે.</p>

<p>તેાં પણ જે રેસ્ટોરન્ટો ટુરિસ્ટ આધારિત છે તેઓને તો
મરણતોલ ફટકો લાગ્યો છે.</p>

<p>તમામ શહેરોમાં શિકાગોના રેસ્ટોરાઓને સૌથી ઓછી અસર પડી
છે. ત્યાંની પ્રખ્યાત ટોપોલોએમ્પા અને કોન્ટેરાગ્રીલ એટલી જ ધમધમે છે.
તેનું કારણ એ છે કે શિકાગોની પ્રજા મોટેભાગે બહાર ફરવા ઉપડી જતી નથી.</p>

<p>જો કે ૧૧૦ માળના સીઅર્સ ટાવરની લેવી ઓર્ગેનાઈઝેશનની ચાર
રેસ્ટોરા સલામતિના કારણોસર બંધ છે.</p>

<p>લોસ એંજલસમાં ઓછા ભાવની ડિશ પીરસતી નાની અને બિન અમેરિકી
પ્રજાની માલિકીની રેસ્ટોરન્ટોની ઘરાકી ઉત્સાહજનક છે. પણ મોંઘી અને પાર્ટીઓ યોજવા
માટે જાણીતી હોટલો લગભગ મરવા પડેલી લાગે છે. ઘણી બંધ પણ થઇ ગઇ
છે.માસાચુસેટ્સ રેસ્ટોરન્ટ એસોસિએશને આપેલી તેમની માહિતી પ્રમાણે કોર્પોરેટ વર્લ્ડ
તેમની હાઈફ્લાય પાર્ટીઓ રાખતી હતી તેવી બોસ્ટનની એમ્બ્રોસિયા, રેડિયસ, સીસન્ઝ
વગેરેને ઘણુ જ નુકશાન સહન કરવું પડ્યું છે.</p>

<p>બોસ્ટન, વોશિંગ્ટન, લાસ વેગાસ અને ન્યુયોર્કમાં એમ ચાર
રેસ્ટોરા ધરાવતા રોડ ઇંગ્લીશના મતે વ્હાઈટ હાઉસથી બે જ બ્લોક દૂર આવેલ તેમની
રેસ્ટોરન્ટ સૌથી વધુ મૃત:પ્રાય સ્થિતી જેવી પડી છે. તેવી સ્થિતી ન્યુ ઓર્લેન્સની
છે.</p>

<p>એટલાન્ટાની રેસ્ટોરન્ટોમાં વાંધો આવ્યો નથી. ગયા
વર્ષની તુલનામાં ચાર ટકાનો જ ઘટાડો તેઓએ અનુભવ્યો છે.</p>

<p>નેશનલ રેસ્ટોરન્ટ એસોસિએશન માને છે કે આવી દયનીય સ્થિતી જારી
જ રહેશે. એન્થ્રેક્સનો ભય મોટેપાયે છે. લોકો બિનજરૂરી 'આઉટિંગ' પસંદ કરતા નથી.</p>

<p>આમીરખાનના હત્યાના ષડયંત્રથી મુંબઈ પોલિસને
અમેરિકાથી માહિતી મળી હતી ?</p>

<p>અબુ સાલેમ શારજાહમાં ક્રિકેટ ટુર્નામેન્ટ જોવા કે
સટ્ટાનું નેટવર્ક ગોઠવવા આવ્યો હતો ?</p>

<p>અબુ સાલેમની ખરેખર એક તબક્કે શારજાહમાં ધરપકડ થઈ હતી. પણ,
કોઈ કટ્ટરપંથી પરિબળોના જોરદાર દબાણને કારણે તેને છોડી મુકવામાં આવ્યો હતો તેવી
વાત મુંબઈ પોલિસ વર્તુળમાં ચર્ચાય છે એટલું જ નહીં એવું પણ મનાય છે કે અબુ સાલેમને
ગુનેગાર ઠેરવતા પુરાવા સાથે જો તાત્કાલિક મુંબઈ પોલિસ શારજાહ પહોંચી ગઈ હોત તો
કદાચ સાલેમ હાથ લાગી ગયો હોત.</p>

<p>એક રીપોર્ટ એવા છે કે અબુ સાલેમનો આમીરખાન સાથેની વાતચીત
અમેરિકાની ગુપ્તચર એજન્સીએ ટેપ કરી લીધી હતી. આમીરખાન એ વખતે 'લગાન'ના શો
માટે અમેરિકામાં હતો. અબુ સાલેમને લગાનના વિદેશી હક્કો જોઈતા હતા પણ આમીરખાને
તેનો ઈન્કાર કરતા તે ફોનમાં આમીરને મારી નાંખવાની ધમકી આપી હતી.</p>

<p>અમેરિકા પણ હવે દાઉદ, અબુ સાલેમ, છોટા રાજેન જેવા ભારતના
ગૃહમંત્રાલયે આપેલ યાદી ધરાવતા ડોન અને સંગઠનોની હિલચાલ પર નજર રાખે છે.
તેથી અબુ સાલેમની માહિતી અમેરિકાએ પણ ભારતને આપી હોય.</p>

<p>થોડા દિવસો પહેલા આમીરખાનની હત્યા કરવાના આશય સાથે ઉતરેલા
અબુ સાલેમના ચાર સાગરિતો પોલિસ એન્કાઉન્ટરમાં માર્યા ગયા હતા. પોલિસ છાતી ઠોકીને
એમ કહી શકે કે તેઓ આમીરખાનને ખતમ કરવા જ આવ્યા હતા. તે જ બતાવે છે કે મુંબઈ
પોલિસને સાલેમના કાવતરાની આગળથી જાણ હતી.</p>

<p>ખરેખર તો સાલેમના આ ચાર હીટમેનો બોલીવુડની ત્રણ હસ્તીઓને
ખતમ કરવા આવ્યા હતા પણ અન્ય બેના નામ અંગે મુંબઈ પોલીસ ચુપકીદી સેવે છે.</p>

<p>અબુ સાલેમની ધરપકડની અફવાથી બોલીવુડ સૌથી વધુ ખુશ થયું
હતું. પણ હવે ઉલટો તેઓનો ફફડાટ વધ્યો છે. અબુ સાલેમ આમ તો દાઉદનો ખાસ માણસ
મનાય છે પણ કેટલાક એવું પણ કહે છે કે હવે તે દાઉદથી છૂટો થઈ સ્વતંત્ર રીતે તેનું
કામ કરે છે. મુંબઈ પોલિસને તો અબુ સાલેમ આટલા વર્ષો પછી કેવો દેખાય છે તે પણ
ખબર નથી.</p>

<p>અબુ સાલેમની થોડા કલાકો માટે પણ ધરપકડ થઈ હશે તેવી
સંભાવના સેવાય છે તેનું કારણ એ છે કે અબુ સાલેમ હાલ શારજાહમાં રમાતી શ્રીલંકા,
પાકિસ્તાન, ઝિમ્બાબ્વેની ચેમ્પિયન ટ્રોફી ટુર્નામેન્ટ જોવા માટે આવ્યો હતો. </p>

<p>અગાઉ જેમ દાઉદ તેમજ અન્ય અંધારી આલમને શારજાહમાં આમંત્રણ
મળતું હતું તેમ અબુ સાલેમને આ વખતે આમંત્રણ મળ્યું હોય તેવું બને. તે સટ્ટાના
નેટવર્ક સંદર્ભે પણ શારજાહ આવ્યો હોય તેવી અટકળ કરાય છે. આમ અબુ સાલેમની શારજાહ
મુલાકાત ધરપકડનો તાળવો મળે છે.</p>

<p>પણ રહસ્ય એ વાતનું છે કે તેની અટકાયત કર્યા પછી તેને કોના
દબાણથી છોડી દેવામાં આવ્યો હશે ? પાકિસ્તાન પર મુંબઈ પોલિસને શંકા છે. જો કે
શારજાહ પોલિસ એમ જ કહે છે કે આ એક અફવા જ છે અબુ સાલેમની કોઇ અટકાયત થઈ જ નથી.
મુંબઈ પોલિસ, ગૃહ મંત્રાલય સીબીઆઈની આ પ્રકરણમાં ફજેતી થઈ છે. હવે ગૃહમંત્રાલયે
ગંભીરતાથી વિચારવાની જરૂર છે કે શું દાઉદ, અબુ સાલેમ કે અન્ય ડોનની વિશ્વના કોઈ
ભાગમાં અટકાયત થાય તો તેઓ પાસે કોઈ ગુનાહીત પુરાવા કે ઓળખ પુરાવા છે ખરા ?</p>

<p>કોમન્ટ</p>

<p>ભારત એશિયામાં તેનું પ્રભુત્વ જમાવી સમગ્ર ખંડમાં આતંકવાદ
ફેલાવવાનું ષડયંત્ર ગોઠવી રહ્યું છે.</p>

<p>- મુશર્રફ</p>

<p> </p>






</body></text></cesDoc>