<cesDoc id="guj-w-samachar-supp-00-10-16" lang="guj">
<cesHeader type="text">
<fileDesc>
<titleStmt>
<h.title>guj-w-samachar-supp-00-10-16.txt</h.title>
<respStmt>
<respType>Electronic file created by</respType>
<respName>Department of Linguistics, Lancaster University</respName>
<respType>text collected by</respType>
<respName>Andrew Hardie</respName>
<respType>transferred into Unicode by</respType>
<respName>"Unicodify" software by Andrew Hardie</respName>
</respStmt>
</titleStmt>
<publicationStmt>
<distributor>UCREL</distributor>
<pubAddress>Department of Linguistics, Lancaster University, Lancaster, LA1 4YT, UK</pubAddress>
<availability region="WORLD"></availability>
<pubDate>03-08-24</pubDate>
</publicationStmt>
<sourceDesc>
<biblStruct>
<monogr>
<h.title>"Gujarat Samachar" internet news (www.gujaratsamachar.com), news stories collected on 00-10-16</h.title>
<h.author>Gujarat Samachar</h.author>
<imprint>
<pubPlace>Gujarat, India</pubPlace>
<publisher>Gujarat Samachar</publisher>
<pubDate>00-10-16</pubDate>
</imprint>
</monogr>
</biblStruct>
</sourceDesc>
</fileDesc>
<encodingDesc>
<projectDesc>Text collected for use in the EMILLE project.</projectDesc>
<samplingDesc>Simple written text only has been transcribed. Diagrams, pictures and tables have been omitted and their place marked with a gap element.
</samplingDesc>
<editorialDecl>
<conformance level="1"></conformance>
</editorialDecl>
</encodingDesc>
<profileDesc>
<creation>
<date>03-08-24</date>
</creation>
<langUsage>Gujarati</langUsage>
<wsdUsage>
<writingSystem id="ISO/IEC 10646">Universal Multiple-Octet Coded Character Set (UCS).</writingSystem>
</wsdUsage>
<textClass>
<channel mode="w">print</channel>
<constitution type="composite"></constitution>
<domain type="public"></domain>
<factuality type="fact"></factuality>
</textClass>
<translations></translations>
</profileDesc>
<revisionDesc></revisionDesc>
</cesHeader>

<text>
<body>




<p><head>શેરબજારની સમીક્શા</head></p>

<p><head>'મહામંદી'ના માહોલને પગલે કટોકટી તરફ
ધસતા રહેલ વિશ્વના શેરબજારો </head></p>

<p>અને હવે એક વાત એ તો સ્પષ્ટ ચિત્ર રુપે સપાટી
પર ઉપસતી જોવા મળે છે કે, શેર બજારે 'મહામંદી' તરફ પ્રયાણ કર્યું હોય તેવા પ્રબળ પરિબળો
તેને ઘેરી વળ્યા છે. વાસ્તવમાં જોવામાં આવતો વિશ્વભરના શેરબજારો હવે 'મહામંદી'ના
ધસમસતા ઘૂઘવતા ઘોડાપૂરના પ્રવાહમાં જાણે કે સપડાઇ ગયા હોય તેમ રોજ-બ-રોજ
અમેરિકા, યુરોપ, એશિયા અને ભારત સહિતના તમામ શેરબજારોના ભાવોમાં ભારે કડાકો
બોલી જવાને પગલે ન્યુયોર્ક, નાસ્ડેક, લંડન, ટોકિયો, હોંગકોંગ, સિંગાપોર અને મુંબઇ
વગેરે કેન્દ્રોના ઇન્ડેક્શો ડાઉજોન્સ, નાસ્ડેક, ફુટસી, નિક્કી, હેંગસેંગ, સ્ટ્રેટ, સેન્સેકસ,
નેશનલ ઇન્ડેક્શ, અને નિફટી વગેર નવા તળિયાની ખોજ કરી રહેલ છે, અને તેને અનુલક્શીને
નીચી ને નીચી સપાટી તરફ ઘસતા રહ્યાં છે. અને ભાવો તેમજ ઇન્ડેક્શના આ પ્રકારના કડાકાની
પ્રક્રિયામાં જઇને અટકશે તેની કલ્પના કે આગાહી અત્યારે તો કસમયની બલ્કે વધુ પડતી વ્હેલી
કરી શકાય તેમ છે. કારણ કે પ્રવર્તમાન પરિબળો એટલા બધા પ્રબળ અને શક્તિમાન છે કે,
ભાવિ અંગે કળી શકવું મુશ્કેલ જણાય છે. વિશ્વભરના શેરબજારોના ઇન્ડેક્શ રોજ-રોજ બની
નીચી સપાટી દર્શાવતા રહ્યા છે. અને આને અનુલક્શીને શુક્રવાર ૧૩ ઓકટો. ૨૦૦૦ના રોજ
વૈશ્વિક શેરબજારોનાં કેટલાક ઇન્ડેક્શ નવી નીચી સપાટીના જોવાયા છે, જે અનુસાર ફુટસી
૬૧૩૧, ડાઉજોન્સ ૩૭૯ તૂટી ૧૦,૦૩૪, નાસ્ડેક ૯૩ ઘટી ૩૦૭૪, નિક્કી ૨૫૪ ઘટી ૧૫૨૯૫, હેંગસેંગ
૪૨૪ ગબડી ૧૪,૬૫૦ અને સિંગાપોર સ્ટ્રેટ ૬૧ પોઇન્ટ ઘટીને ૧૮૦૩ જોવાયો હતો. જયારે
સેન્સેકસ ૧૧૦ ઘટી ૩૭૪૦, નિફટી ૩૨ ઘટી ૧૧૭૩ જેવો બપોરના રહ્યો હતો. એ યાદ રહે કે
ડાઉજોન્સ ઉંચામાં ૧૨૦૦૦ ઉપરાંત જોવાયો હતો. જયારે નાસ્ડેક ૧૦ માર્ચના રોજ ૫૦૪૮.૬૨
ની ઐતિહાસિક ઉંચી સપાટીને સ્પર્શી ગયો હતો. જે ૧૯૭૪નો કડાકો દર્શાવતો હતો.
જયારે તા. ૧ સપ્ટે.ના રોજ ૪૨૩૪.૩૩ રહેલ તેની તુલનામાં ૧૨ ઓકટો. નારોજ ૩૧૬૮.૪૦
રહ્યો હતો. જે એક મહિનામાં ૧૦૦૦ પોઇન્ટનો કડાકો દર્શાવતો હતો. જયારે ભારતનો
સેન્સેકસ ફેબ્રુ.માં ૬૧૫૧ની ઐતિહાસિક સપાટીને સ્પર્શી જવા બાદ તૂટતો રહીને ૩૮૩૦ ને
સ્પર્શી ગયો હતો. અહિંથી સુધરી ૪૭૯૦ થઇ ફરી તૂટતો રહી ૧૩ ઓકટો. ૨૦૦૦ના
રોજ ઘટી ૩૭૩૮.૯૩ રહ્યો હતો. આમ ૧૫ સપ્ટે.ના ૪૭૯૦ ની તુલનામાં એક મહિનામાં
સેન્સેકસમાં ૧૦૦૦ પોઇન્ટનો કડાકો બોલ્યો હતો. જયારે આગલા શુક્રવારના ૪૦૯૨.૪૨ની
તુલનામાં ૩૭૩૮.૯૩ લગભગ ૩૫૪.૪૯ પોઇન્ટનો કડાકો એક સપ્તાહમાં બોલી ગયો છે.
શુક્રવારે સેન્સેકસે ૩૭૧૪ની નવી નીચી તાજેતરની સપાટી દર્શાવી હતી. મધ્યપૂર્વમાં હિંસા
ફાટી નિકળતા બજારોએ આંચકો અનુભવ્યો હતો. વળી, ક્રુડનો મધ્યપૂર્વમાં હિંસા ફાટી
નીકળતા બજારોએ આંચકો અનુભવ્યો હતો. વળી ક્રુડનો ભાવ બેરલનો ૩૭.૮૦ ડોલરનો
જોવાયો હતો. સેન્સેકસમાં સપ્તાહ દરમ્યાન ૩૫૩ પોઇન્ટનો કડાકો એ ઐતિહાસિક અને
સૌથી મોટો મનાય છે. મંદીના કડાકાએ ઇન્વેસ્ટરોની રૂ. ૮૦,૦૦૦ કરોડની મૂડીનું
ધોવાણ થઇ રહ્યું રૂા. ૬,૨૦,૦૦ કરોડ રહેલ છે. દેશના જુદા જુદા શેર બજારો તેમજ
રોકાણકાર વર્ગના ભારે દબાણને વશ થઇ આખરે તા. ૧૩ ઓકટોબરની સેબીની બેઠક દરમ્યાન
રોલિંગ સેટલમેન્ટમાં હાલ તુરત નવા શેર નહિ ઉમેરવાનો નિર્ણય લેવાયો છે.
શેરબજારોનાં નિયમન કરતાં આ નિર્ણયને શેરદલાલો તેમજ રોકાણકારોએ આવકાર્યો હતો.
ખાનગીમાં શેરોના ભાવો થોડા સુધર્યાના નિર્દેશો હતા. સેન્સેકસ ૩૭૧૦નું બોટમ
બનાવી ૩૯૦૦ને સ્પર્શે તેવી હવા ભારતીય શેરબજારો પર ફરી પાછા મંદીના કાળા ડિબાંગ
વાદળો છવાઇ ગયા છે. આના પાછળ જે પરિબળો ભાગ ભજવી રહ્યા છે તેમાં મુખ્યત્વે ટ્રેડિંગ
વેાલ્યુમમાં ઘટાડો, 'એ' ગ્રુપના શેરોને રોલિંગ સેટલેન્ટમાં નવેમ્બર ૨૦૦૦માં દાખલ
કરવામાં આવશે એવા સમાચાર, જયાં સુધી વોલ્યુમ વધશે નહિ ત્યાં સુધી
શેર બજારમાં તેજીનો ઓછો અવકાશ એવો નિર્દેશો, અમેરિકા, યુરોપ અને એશિયાના
શેરબજારોમાં બોલી રહેલ મંદીનો કડાકો- નવા તળિયા તરફ ઘસતા રહેલ ઇન્ડેક્શ, વિદેશી
ફંડો અને એફઆઇઆઇની ઘટી ગયેલી પ્રવૃત્તિ, ઇન્ફોસીસ અને સત્યમના અફલાતુન પરિણામો
જાહેર થયા હતાં. કેટલાકં વિદેશી પંડઝ અને નબળા તેજીવાળાની વેચવાલી એટલું જ નહિ
પરંતુ અગાઉ પ્રથમ કવાર્ટરના આકર્ષક પરિણામો જાહેર થતાં જ નફો ચોક્ખો કરી લેવાનો
લાભ એફઆઇઆઇ એજ લીધો હતો જેને પરિણામે ભાવો વધવાને બદલે ઘટી જતાં
ઘણા ખેલાડીઓનાં હાથમાં જ લેણ રહી ગયું હતું, અને બજાર તેજીની અસરથી મૂકી રહ્યું
હતું. આ વખતે પણ જોવા મળતું ગઇ વખતના જેવું પુનરાવર્તન, રિઝર્વ બેન્કે જાહેર કરેલ
ધિરાણની નીતિનો પણ બજારના સેન્ટીમેન્ટ પર સાનુકૂળ તેજીના પ્રભાવના અભાવ, રિઝર્વ
બેન્કે તેની ધિરાણ નીતિમાં જીડીપી વિકાસ વૃદ્ધિદર ઘટાડીને ૬.૫થી ૭ ટકા પરથી ૬.૦થી
૬.૫ કરતા તેની પ્રતિકૂળ અસર છેલ્લા બે સપ્તાહથી નાસ્ડેક ખાતે ટેકનોલોજી શેરોના
ભાવોમાં જે ગાબડાં પડ્યાં તેની હોંગકોંગ, જાપાન અને અન્ય વૈશ્વિક શેરબજારો પર પડેલી
વિઘાતક અસર, ભારતીય શેરબજારોમાં પણ અકળાયેલા ઇન્વેસ્ટરોની વેચવાલીનું ભારે દબાણ ,
ટેકનોલોજી મીડિયા અને ટેલિકોમ સ્ક્રીપ્સમાં હળવા થવા લાગેલા તેજીવાળા દેશમાં
ઔદ્યોગિક મંદી વધુ વ્યાપક બનશે એ ભીતિએ કેટલાંક ઉદ્યોગોની પ્રોડકટસના વેચાણો પર
વિપરીત અસર પડશે એ ભીતિએ ઓલ્ડ ઇકોનોમી અને એફએમસીજી ક્શેત્રનાં શેરોમાં
વધેલ દબાણ, રિઝર્વ બેંકે તેની ધિરાણ નીતિમાં બેંકોને તેમના ધિરાણના
૫ ટકા શેરોમાં રોકવા આપેલ છુટની પણ શેર બજારે કરેલી અવગણના, ડોલર સામે ૪૬.૪૫ ની
ઐતિહાસિક સપાટીએ લથડેલો રૂપિયો, ઇન્ફોસીસનો અર્ધવાર્ષિક ૧૦૭.૩૩ ટકા જેટલો
ઉછળવા છતાં નફાના સમાચારને ડિસ્કાઉન્ટ કરતું બજાર, રિડમ્પશનને પ્હોંચીવાળવા માટે દેશી
મ્યુચ્યુઅલ ફંડોની પણ સતત વેચવાલી ખાસ કરીને ઉંચા ભાવના ટેકનોલોજી અને અન્ય ક્શેત્રના
શેરોમાં રહ્યાના અહેવાલો, કોઇપણ ક્શેત્રેથી પ્રોત્સાહક સમાચારનો અભાવ, સિમેન્ટ-
સ્ટીલની નફાકારકતા વધે તેવી ઓછી શક્યતા, આંતરરાષ્ટ્રીય રેટિંગ એજન્સી દ્રષ્ટિએ
ઇન્ડિયન ફોરેન કરન્સી ઇસ્યુઅર રેટિંગ પોઝીટીવથી સ્ટેબલ કર્યાના સમાચારની પણ પ્રતિકૂળ
અસર, નાણાંકીય ખાદ્યની સ્થિતિ વધુ વણસી રહેલ હોવાના સમાચારની વીપરિત અસર, ધ
સેન્ટર ફોર મોનિટરિંગ, ઇન્ડિયન ઇકોનોમી (સીએમઆઇઆઇ) દ્વારા પણ જીડીપી વિકાસદર જે
અગાઉ ૭ ટકા કરાયેલ તેમાં ફેરફાર કરી હવે ૫૦૮ ટકા કર્યાના સમાચાર, ઓગસ્ટ માસમાં
દેશમાં ઔદ્યોગિક ઉત્પાદન ઘટીને ૪.૮ ટકા થયેલ છે. જે આ અગાઉના વર્ષે ઓગસ્ટમાં ૭.૩
ટકા હતું. વિદેશી ફંડોની બજારમાં સતત વેચવાલી, આ તેમજ અન્ય મંદીના પરિબળોની શેર
બજારના સેન્ટીમેન્ટ પર વિઘાતક અસર જોવા મળતી હતી. કદાચ ખૂબ ઘટી ગયેલા ભાવો અને સેન્સેકસ
નીચામાં વેચાણો કપાતાં તેમજ તકવાદીઓની લેવાલીઓ અવારનવાર થોડા સુધરે
પરંતુ તે સુધારો લાંબો સમય જળવાઇ રહેશે કે કેમ તે અંગે શંકા સેવાય છે.</p>

<p>નાસ્ડાક ઇન્ડેક્શ જે તા. ૧સપ્ટે.ના રોજ ૪૨૩૪.૩૩
હતો તે ગુરૂવારે ૧૨ ઓકટો. એ ૩૧૬૮.૪૦ રહ્યો હતો. શુક્રવારે ઘટીને ૩૦૭૪ જોવાયો
હતો. આમ લગભગ એક મહિનાના સમયમાં નાસ્ડેકે ૧૧૦ પોઇન્ટ ગૂમાવેલ છે. જયારે
ભૂતકાળમાં નાસ્ડેક ઇન્ડેક્શ તા. ૧૦ માર્ચના રોજ ૫૦૪૮.૬૨ ની ઉંચી સપાટીને સ્પર્શી ગયેલ
હતો જે ઐતિહાસિક મનાતી હતી આની ગણત્રીએ નાસ્ડેકે ૭ મહિનામા ૧૯૭૪ પોઇન્ટ ગૂમાવેલ
છે.ય આની અસર વૈશ્વિસ શેરબજારો પર થતી હોવાથી આની પાછળનું કારણ શું ? એ પ્રશ્ન સહસા
ઉદ્ભવતી રહેલ છે. આના સંદર્ભમાં એમ જાણવા મળે છે કે નાસ્ડેકમાં ટેકનોલોજી શેરોનું
પ્રમાણ વધુ છે. આમાંના ૫૦થી ૬૦ ટકા સેમી કન્ડકટર કંપનીઓનાં છે. થોડા મહિના અગાઉ
આ શેરોમાં વિશ્વવ્યાપી તેજીનો ભારે ઉન્માદ અને જુાવાળ જોવાયો હતો. આની પાછળનું
એક પ્રબળ પરિબળ અને કારણે એ હતું કે આગામી વર્ષોમાં આ કંપનીઓનો વિકાસ જળવાઇ
રહેશે એવી મહત્વકાંક્શા પ્રવર્તતી હતી. અને આથી ઇન્વેસ્ટરોનો ટેક શેરોની ખરીદી માટે
ઘસારો વધી પડ્યો હતો જેને પરિણામે ઉંચા ભાવના શેરો તેમનાં ઘરમાં પેસી ગયા
હતા. અને કેટલીક કંપનીઓના પરિણામો અપેક્શા કરતા ઉણા ઉતરતા વેચવાલીનું દબાણ
વધતા અને લેવાલના અભાવે ધાર્યા કરતાં ભાવો વધુ ગબડતા ઇન્ડેક્શે પણ ૧
મહિનામાં ૧૦૦ પોઇન્ટ ગૂમાવ્યા હતા.</p>

<p>થોડાક સમય પૂર્વે રોઇટર્સ દ્વારા કરાયેલ
સર્વેક્શણનું તારણ અને આગાહી એવા પ્રકારના હતા કે, ઇન્ફોટેક દેશની ટોચની સોફ્ટવેર
કંપનીઓ ૩૦ સપ્ટે. ના રોજ પૂરા થયેલા ૬ માસમાં અગાઉના વર્ષની તુલનામાં ૧૦૦ ટકા
ઉપરાંત કમાણી નોંધાવશે. એવી આગાહી કરવામાં આવેલ છે. આમ છતાં એમ પણ જાણવા
મળ્યું છે કે રોકાણકારોએ આ ક્શેત્રે ઇન્વેસ્ટમેન્ટ કરતા સાવચેત પણ રહેવું ઠીક લાગે
છે. શેરોના ભાવોમાં કમાણીના મજબુત અપેક્શાઓનું પ્રતિબિમ્બ જોવા મળશે. આમ છતાં
રોકાણકારોએ સાવચેતી પણ રાખવી જરુરી છે. સોફ્ટવેર કંપનીઓ તેમની મોટાભાગની
કમાણી નિકાસ દ્વારા પ્રાપ્ત કરે છે. અને છ માસ દરમ્યાન ડોલર સામે રૂપિયો ૫ ટકા ઉપરાંત નબળો
પડતા તેમની આવક વધેલ છે. પરંતુ ઓપરેટિંગ માર્જીન દબાણમાં આવતા તેની
ચિંતાઓ પણ છે. ટેકનોલોજી પર વિશ્વમાં થતો ખર્ચ વૃદ્ધિના દરોને અસર કરશે એમ લાગે
છે. ફાર્માસ્યુટિકલ શેરોએ રોકાણકારોને સારી તક આપી હતી પરંતુ શેરોઅસ્થિર બજારમાં
વધેલી કમાણીનો પ્રતિભાવ આપે તેવી શક્યતા છે. ફાર્માસ્યુટીકલ ક્શેત્રનું ભાવિ
આશાસ્પદ લાગે છે. અનિશ્ચિતતાના સમયમાં આ ક્શેત્ર સલામત સ્વર્ગ છે. સર્વેક્શણ હિંદુસ્તાન
લીવર અને નેસ્લે માટે મિશ્ર આગાહી કરે છે. સિમેન્ટ કંપનીઓના વૃદ્ધિ દરો નકારાત્મક
હશે. બળતણના ભાવો વધતા સિમેન્ટ કંપનીઓ પર તેની પ્રતિકૂળ અસર પડશે. ઓટો
ક્શેત્ર પણ બજાર અંગે કઠિન પ્રતિભાવ આપશે.</p>

<p>હાલમાં આઇસ ક્શેત્રના શેરો હાલમાં ડામાડોળ
સ્થિતિમાં છે. તેથી થોડો સમય અળગા રહેવું ઠીક લાગે છે. આમ છતાં ઇન્ફોસીસ, સત્યમ,
વિપ્રો, ઝી ટેલિ. લાંબે ગાળે સારો લાભ આપે તેમ મનાય છે. બીજી તરફ ઓલ્ડ
ઇકોનોમીના શેરો વિવિધ પ્રકારના રેકોર્ડ સ્થાપિત કરવા લાગ્યા છે. ટેલ્કોનો ભાવ
૧૦ વર્ષની નીચી સપાટીએ ૭૭.૬૫ જોવાયો છે. એસીસી શેરનો ભાવ ૧૮ માસનાં નીચી
સપાટીને સ્પર્શી જવા સાથે ૯૧.૦૦, બીએસઇએસ રૂ. ૩૦૦થી ઘટી રૂ. ૨૫૫ થયો છે.
એફએમસીજી.માં હિંદ લિવર ઘટી ૧૯૮.૧૫નો જોવાયો છે. બજારની સ્થિતિ ડામાડોળ છે એટલે
થોભો અને રાહ જૂાઓની નીતિ અપમાવી ઠીક છે. આમ છતાં હવેના ઘટાડે તક મળતા
ઇન્ફરમેશન, કોમ્યુનિકેશન અને એન્ટરટેઇનમેન્ટ ક્શેત્રના શેરો રોકાણ માટે સારા મનાય
છે. લાંબા ગાળે વળતરદાયી નિવડશે એમ લાગે છે.</p>

<p>તાજેતરમાં એસએન્ડ પી (સ્ટાન્ડર્ડ એન્ડ યુઅર્સ)
નામની આંતરરાષ્ટ્રીય રેટિંગ એજન્સીએ ભારતના લાંબા ગાળાના રેટિંગને ડાઉનગ્રેડ કરેલ
છે. મંગળવારે જાહેર કરવામાં આવેલ રેટિંગમુજબ ભારતના ભવિષ્ય માટે આ એજન્સિએ
પોઝીટીવમાંથી સ્ટેબલનું રેટિંગ ફાળવેલ છે. ભારતના અર્થતંત્રને અનઅપેક્શિત સ્થિરતા અને
ધીમી પ્રગતિ પ્રાપ્ત થઇ છે. એશિયન કટોકીટમાંથી અને મંદીના વમળમાંથી બહાર આવેલા
એશિયાના કેટલાક રાષ્ટ્રો ભારતની સામે મેદાનમાં ઉતર્યા છે.જયારે બીજી તરફ વિદેશી
હુંડી વિદેશી સંસ્થાકીય રોકાણકારો અને વૈશ્વિક ઇન્વેસ્ટર્સને ભારત કરતાય સારા રોકાણના
વિકલ્પો અમેરિકા, યુરોપ અને એશિયાનાં કેટલાક ચોક્કસ રાષ્ટ્રોમાં મળી રહ્યા છે.
હાલમાં ડામાડોળ બજારમાં રોકાણકારે સાહસ ન કરવું જોઇએ એમ કેટલાક વિશ્લેષક અને
નિરિક્શક કહે છે. તો બીજી તરફ કેટલાક નિષ્ણાતો હાલનો સમય રોકાણ માટે ઉત્તમ માને
છે. અને ફન્ડામેન્ટલી મજબુત, લાંબાગાળે મૂલ્યવર્ધિત અને ઉજ્જવળ ભાવિ ધરાવતી
કંપનીના શેરો ખરીદવા યોગ્ય માને છે. પરંતુ રોકાણકારે સાવચેતીપૂર્વક ખરીદી કરવી
ઠીક લાગે છે. લાંબાગાળે સારો લાભ મળશે એમ મનાય છે. એટલે જે રોકાણ કરાય તે
લાંબા ગાળાનું માનીને કરવું રહેશે.</p>

<p>ભારતની સામે કેટલાક વિકાસશીલ રાષ્ટ્રોએ પણ
હવે કમર કશી છે અને ભારતીય કંપનીઓની કેટલાક ક્શેત્રોની મોનોપોલી તોડવા તરફ
વળેલ છે. હાલમાં ઉત્પાદનક્શેત્રે ભારતને ચીન, તાઇવાન, કોરિયા, મલેશિયા વગેરે હંફાવી
રહેલ છે. જયારે હવે સર્વિસીસ ક્શેત્રે પણ ભારત સામે સ્પર્ધાનો ભય ચિંતા પ્રેરક
રહ્યો છે. ભારતનું અર્થતંત્ર નબળું પડ્યું છે. એવા સંકેતો પણ સાંપડેલ છે. હાલમાં
ભારતમાં સોફ્ટવેર ક્શેત્રે ખૂબ જ આગળ તો છે. પરંતુ હવે જો આ ક્શેત્રમાં પણ
સ્પર્ધા જોર પકડસે તો તેનું લાંબે ગાળે પીછેહઠમાં પરિણામ જોવા મળે તેવી પણ
ભીતિ સેવાય છે. બાકી શેરબજાર એટલે સમગ્ર અર્થતંત્રની પરિસ્થિતિનું પ્રતિબિમ્બ અર્થતંત્રને
ઘણી મુશ્કેલીઓ નડી રહી છે. તે અવરોધો દૂર નહિ થાય તેનો અંત નહિ આવે ત્યાં
સુધી શેરબજારમાં આશાને બદલે નિરાશા વધુ વ્યાપક સ્વરુપે જોવા મળશે એમ લાગે છે.
આમ છતાં એક બાબત એ ઉલ્લેખનીય છે કે જે ક્શેત્રનીકંપનીઓ સારી કામગીરી દર્શાવશે
તેના શેરો તેજી-મંદીની પરવા કર્યા વિના આગળ વધશે.</p>

<p>શેરબજાર પર જો કોઇપણ કારણ યા પરિબળન વિઘાતક
અસર પડી હોય તો તે ચે 'ફરજીયાત રોલિંગ સેટલમેન્ટ'. નવેમ્બર ૨૦૦૦થી 'એ' ગ્રુપના
શેરોને 'રોલિંગ સેટલમેન્ટ' માં દાખલ કરવમાં આવશે એ પ્રકારની 'સેબી'ની જાહેરાત પછી
મુંબઇ શેર બજારનો સેન્સેકસ ગબડતો જ રહ્યો છે. અને તેજીવાળા હળવા થવા સાથે શેરોના
ભાવો નવી નીચી સપાટીને સ્પર્શી ગયા છે. સેન્સેકસ તા. ૧૩ ઓકટોબરને શુક્રવારે ઘટીને
૩૭૩૮ની સપાટીએ પ્હોંચી ગયો હતો. જે લગભગ દોઢ વર્ષની નીચી સપાટીને સ્પર્શી ગયો
જણાતો હતો. શેરબજારના મતે રોલિંગ સેટલમેન્ટને લીધે શેરબજારના મતે રોલિંહ
સેટલમેન્ટને લીધે ટ્રેડિંગ વોલ્યુમમાં અને પ્રવાહિતામાં ઘટાડો થશે: હાલમાં
શેરબજાર ડામાડોળ સ્થિતિમાં છે. સેન્ટીમેન્ટ પર વધુ ઘાતક અસર પડેલી જોવા મળે છે,
એટલું જ નહિ પરંતુ શેરબજારમાં કામ કરવાનો 'ંમૂડ' કે 'રસ' જેવું રહ્યું જ નથી.
કેટલાક ખેલાડીઓ અને તેજીવાળા બજારથી અળગા થવાનું પસંદ કરતા જણાય છે. અને આમેય
સેન્સેકસમાં રોજે રોજ થઇ રહેલા ઘટાડાની વિપરીત અસર શેરોમાં થતા સોદાની સંખ્યા
અને શેરોના મૂલ્યમાં થતી રહી છે. કેટલીક કંપનીઓએ અફલાતુન પરિણામો જાહેર કર્યા
પરંતુ તેની પણ શેરબજારે અવગણના કરી અને ડિસ્કાઉન્ટ કર્યા. શેરબજાર વાસ્તવમાં તો કટોકટી
તરફ પ્રયાણ કરી રહ્યું છે. ત્યારે 'સેબી' જો તેનો મમત નહિ મૂકે જીદ છોડશે નહિં તો
પછી ભારતીય શેર બજારની આ મંદી કયાં જઇને અટકશે? સેન્સેકસ અને શેરોના ભાવો કયાં
સુધી ગબડતા રહેશે એનો જવાબ આપવો અત્યારે તો મુશ્કેલ બની રહેલ છે. ક્રુડ
તેલના ભાવો હજુા સ્થિર થયા નથી ઘટ્યા પછી વધતા જોવાય છે. ડોલર સામે રૂપિયો
લથડતો જાય છે અને ફુગાવાએ પણ હવે તેને વકરવા તરફની ગતિનો આરંભ કરી દીધો
છે. વર્ષ પહેલાં ૩ ટકા આસપાસ રહેતો ફુગાવો સપ્ટે.ના અંત ભાગમાં ૬ ટકાની સપાટીને
કૂદાવી ગયો છે.</p>

<p>'સેબી'એ છેલ્લે એવી જાહેરાત કરેલ છે કે,
નવેમ્બર ૨૦૦૦માં 'એ' ગ્રુપના શેરોમાં રોલિંગ શેટલમેન્ટ દાખલ કરવા માટે યોગ્ય પગલાં
યોજાઇ રહ્યાં ,છે. 'સેબી' દ્વારા આ સિસ્ટમનો પ્રારંભ 'એ ગ્રુપની વધુ સક્રિય એવી ૧૦
સ્ક્રીપથી કરશે. રોલિંગ સેટલમેન્ટમાં 'એ' ગ્રુપના શેરોને તબક્કાવાર દાખલ કરાશે.</p>

<p>આ પછી શેરબજારમાં નબળાઇ અને નરમાઇ બન્ને પ્રવેશ્યા
છે. વળી અત્યાર સુધીમાં ફરજીયાત રોલિંગ સેટલમેન્ટમાં દાખલ કરાયેલ શેરોનું
ટ્રેડિંગ વોલ્યુમ ૯૦ ટકા જેટલું ઘટી જવા પામેલ છે. એટલું જ નહિ પરંતુ પ્રવાહિતાના
અભાવે આમાંની સંખ્યાબંધ સ્ક્રીપ્સના ભાવો પણ ઘટી ગયેલ છે. એટલું જ નહિ પરંતુ
ભાવો ઘટતા અને પ્રવાહિતાના અભાવે વિદેશી રોકાણકારોના ફંડઝનો પ્રવાહ પણ ઘટશે. વળી
પ્રવાહિતાનો સાચો આધાર તો સટ્ટોજ હોય છે. એટલે સટ્ટાકીય પ્રવૃત્તિ અને પ્રવાહિતા
જો બજારથી દૂર થશે તો તેની વાસ્તવિક અસર શેરોના ભાવોની વધઘટ પર પડશે એ તેને
અનુલક્શીને બજારમાં ભાગ લેનાર વર્ગ પણ ખસી જાય તો બજારની આંતરિક શક્તિને પણ અસર થઇ
શકે.</p>




<p><head>ઝીબ્રા ક્રોસીંગ</head></p>

<p><head>ગેસના લીકેજ બાટલાનો પ્રોબ્લેમ!</head></p>

<p>તાજેતરના એક સમાચાર પ્રમાણે તોલમાપ ખાતાએ
જાહેર ક્શેત્રના ગેસ બોટલિંગ પ્લાન્ટમાં ઓચિંતી તપાસ કરતાં રાંધણ ગેસના કેટલાક
બાટલાઓમાં નિર્ધારિત વજન (૧૪.૨ કિલોગ્રામ) કરતાં ઓછો ગેસ ભરાયેલ હોવાનું
બહાર આવ્યું હતું. એક બાટલે ૧૦૯ ગ્રામથી ૩૦૦ ગ્રામ જેટલો ઓછો ગેસ ભરાયેલો
હતો. તેવો ઉલ્લેખ એ સમાચારમાં હતો. દેખીતી રીતે આ પ્રમાણ નોંધપાત્ર નથી.
તેમ શાથી બને છે તેની ચકાસણી જરૂરી ગણાય. હજારો બાટલા ભરાતા હોય તેમાં આ રીતે
ઓછો ગેસ નીકળે તો તે ટીપે ટીપે સરોવર ભરાય તેટલું મોટું પ્રમાણ ગણાય.
ગ્રાહકોમાં એક કચવાટ પ્રવર્તે છે કે કેટલાક બાટલા દોઢ બે મહિના ચાલે તો અમુક વખતે
ત્રણેક અઠવાડિયામાં બાટલો ખાલી થઇ જતો હોય છે. તેમાંથી ડિસ્ટ્રીબ્યુશન દરમિયાન અમુક
તત્ત્વો દ્વારા ગેસ કાઢી લેવાતો હોવાની પણ સાચી કે ખોટી માન્યતા લોકોમાં છે. તેની
ચકાસણી તોલ-માપ ખાતાએ વિતરણ-ચેનલમાં વિવિધ તબક્કે ઓચિંતી હાથ ધરવી
જોઇએ. જેથી ગ્રાહકોને ધરપત થાય કે તેને જે બાટલા મળી રહ્યા છે તે
ધોરણસરના છે.</p>

<p>સરકારે એક નિયમ ઘડેલો છે. ઘેર બાટલો આવે
ત્યારે તે જોખીને લેવાનો ગ્રાહકને અધિકાર છે. એ માટે ડિલેવરીમેન પાસે સ્પ્રીંગ
કાંટો હોવો જોઇએ. પરંતુ એવી માગણી સંતોષાતી નહિ હોવાની ગ્રાહકોની ફરિયાદ
છે. તોલમાપ ખાતા પાસે તેવી કેટલીક કમ્પલેઇન પહોંચતી હશે. તેમાં શુ પગલાં લેવાય
છે? સ્પ્રીંગ કાંટામાં વધારે પડતું ઓછું વજન હોય તો ખ્યાલ આવે. સો-બસો ગ્રામનો
તફાવત એ કાંટો બતાવી શકે કે કેમ તેય પ્રશ્ન છે.</p>

<p>બોટલિંગ પ્લાન્ટમાં બાટલાના વજનમાં ઘટાડો
જણાયો હોવાના સમાચાર અન્ય રીતે પણ તપાસવા જેવા છે અને તે વધારે જરૂરી છે. જે
બાટલામાં ૧૦૦થી ૩૦૦ ગ્રામ ગેસ ઓછો માલૂમ પડ્યો તે બાટલા લીકેજ તો નહોતાને?
તેનો કોઇ ઉલ્લેખ નથી. કોઇપણ બાટલો લીકેજ હોય તો તે ઓછા વજનના ગેસ કરતાં
વધારે ગંભીર બાબત ગણાવી જોઇએ. આટલા ઓછા વજનથી ગ્રાહકને પાંચ-દસ રૂપિયાનો
માર પડે પણ તેના ઘરમાં લીકેજ બાટલો પેસી જાય તો ઘણું મોટું વિનાશક જોખમ ખડું કરે
છે. હમણાં હમણાં લીકેજ બાટલા નીકળતા હોવાના અનુભવો સારા પ્રમાણમાં થવા લાગ્યા છે.
તેથી ઓછા વજનની ચકાસણી કરવા સાથે બાટલા લીકેજ તો નથી ને તે પણ તપાસપાત્ર બનવું
જોઇએ.</p>

<p>લીકેજ બાટલાને લાગેવળગે છે ત્યાં સુધી
તેની ગંભીરતા બરાબર સમજાતી ના હોય તેવું બેદરકારીભર્યું વલણ જોવા મળે છે. ગેસનો
બાટલો ચેક કરીને લેવાનો આગ્રહ રાખનારને પહેલાં તો ડિલીવરીમેનના અક્કડ વલણનો
સામનો કરવો પડે. મોટેભાગે તો નોંધાવ્યા પછી આઠ-દસ દિવસે આવ્યો હોવાથી
એવી લમણાઝીંક કરવાનું લોકો ટાળે છે. કેટલેક ઠેકાણે પતિ-પત્ની બંને નોકરી કરતાં
હોવાથી આડોશ-પાડોશમાં સહકાર સાધીને બાટલો મેળવી લેવાની સગવડ ઉતારવી પડે
છે. જેમાં વજન કરીને તથા લીકેજ ચેક કરવાનું પોસાતું નથી. આવાં જટિલ કારણોને
લીધે ઓછા વજનના તથા લીકેજ બાટલા લોકોનાં રસોડાં સુધી પહોંચી જાય
છે!</p>

<p>ખરી મુશ્કેલી ત્યારે થાય છે કે જ્યારે બાટલો
સગડી સાથે જોડવામાં આવે અને લીકેજ હોવાનું માલૂમ પડે. પહેલાં તો ગેસ વિતરકને
ત્યાં જઇને કમ્પલેઇન નોંધાવવાની. અનુકૂળતાએ મિકેનિક તપાસવા આવે. એ વખતે
કામધંધો છોડીને ઘેર હાજર રહેવાનું. મિકેનિક બાટલો તપાસી નક્કી કરે કે
લીકેજ છે. તેના બદલે નવો બાટલો આવે ત્યાં સુધી રોજ રાહ જોયા કરવાની. ઘણી
વાર બે ત્રણ ધક્કા ખાધા પછી બાટલો બદલાવવાનો વિતરકને મેળ પડે. ત્યાં
સુધી એ જોખમને ઘરમાં સાચવી રાખવાનું. લીકેજ બાટલાની બદલીમાં આ બેદરકારી
અસહ્ય અને એટલી જ જોખમી હોવા છતાં તેની ગંભીરતા કોઇને સમજાતી નથી. ખૂબી તો એ છે
કે લીકેજ બાટલો મૂકી જાય વિતરક અને મિકેનિક દ્વારા તેની ચકાસણી માટે દસ રૂપિયા પાછા
ગ્રાહકે ચૂકવવાના! છતાં આ કારોબાર ચાલતો રહે છે. લીકેજ બાટલા વિતરણ-ચેનલમાં કેવી
રીતે પેસી જતા હશે તે બાબત સૌથી વધારે ચકાસણીપાત્ર બનવી જોઇએ.</p>

<p><head>ગ્રાહક સુરક્શા ધારાની મર્યાદા!</head></p>

<p>ગ્રાહક સુરક્શા મંડળો દ્વારા 'સર્વગ્રાહી ગ્રાહક
સુરક્શા ધારા'નાં મોં-ફાટ વખાણ થતાં રહે છે. આ ધારા હેઠળ સાદી અરજી કરવા
માત્રથી માત્ર ૯૦ દિવસમાં ગ્રાહક સુરક્શા ફોરમો દ્વારા કેસનો નિકાલ આવી જતો હોવાની
જોગવાઇ થયેલી છે. જો કે બહુ ઓછા કિસ્સામાં આ સમયમર્યાદા પ્રમાણે ચુકાદા મળી જાય તેવી
વ્યવસ્થા થઇ શકી છે. છતાં થોડાક કિસ્સાઓમાં આ સમયમર્યાદા પ્રમાણે ચુકાદા મળી જાય તેવી
વ્યવસ્થા થઇ શકી છે. છતાં થોડાક કિસ્સાઓમાં મળેલી સફળતાઓ ગ્રાહક સુરક્શા મંડળો
દ્વારા ટીવી કાર્યક્રમોમાં તથા અખબારોની ગ્રાહક જાગૃતિ કોલમોમાં વારંવાર વાગોળાતી
હોવાનું જોવા મળે છે. મોટાભાગનાં આવાં મંડળો સરકારી ગ્રાન્ટ 'ખાતાં' હોવાથી આવું
'વાગોળણ' જરૂરી હશે. અમુક અંશે ગ્રાહકોને તેમના અધિકારો વિશે જાગૃત કરવાના
અભિગમ તરીકે પણ તેને ખપાવી શકાય. પણ આ સર્વગ્રાહી સુરક્શા ધારામાં એક મોટું
જોખમ ઊંભું થાય એવી ઊણપ બહાર આવી છે. દિલ્હીના એક અખબારે બીજી ઓક્ટોબરે છાપેલ
એક અહેવાલ ગ્રાહક સુરક્શા ધારામાં રહેલ એક છૂપા જોખમ તરફ અંગુલી નિર્દેશ કરી
જાય છે.</p>

<p>કર્ણાટકના ફિલ્મ અભિનેતા રાજકુમારના અપહરણ
કાંડમાં ચંદનચોર વીરપ્પન અને રાજ્ય સરકાર વચ્ચે સંદેશ વાહકની ભૂમિકા અદા કરતા
'નક્કીરન' મેગેઝિનના તંત્રી આર.આર.ગોપાલે તામિલનાડુ વીજળી બોર્ડ સામે ગ્રાહક સુરક્શા
અદાલતમાં માગેલી દાદને લગતો એ અહેવાલ છે.</p>

<p>શ્રી આર.આર.ગોપાલે રાષ્ટ્રીય ગ્રાહક સુરક્શા
અદાલતમાં ફરિયાદ કરી હતી કે અમારા મેગેઝિન (નક્કીરન)ને ગળે ટૂંપો દેવાના બદઇરાદાથી
તામિલનાડુ વીજળી બોર્ડે અમારા પ્રિન્ટિંગ પ્રેસનું વીજળી જોડાણ કાપી નાખ્યું હતું. તેના
વળતર માટે તેમણે ૧,૬૪,૮૧૦ રૂપિયા અપાવવાની દાદ માગી હતી. તે અરજી ગ્રાહક ફોરમોએ
કાઢી નાખી હતી. તેના કારણમાં જણાવાયું કે ગ્રાહક સુરક્શા ધારાની કલમ ૧૪ (૧) (ડ)
અનુસાર સામા પક્શની બેદરકારીથી નુકસાન થયું હોય તો જ વળતર અપાવી શકાય. રાષ્ટ્રીય
ઉપભોક્તા અદાલતે ઠરાવ્યું કે ફરિયાદીએ સામેવાળા પર દુર્ભાવનાવશ જાણી બુઝીને વીજળી
કાપી નાખ્યાનો આક્શેપ મુક્યો છે. તેથી આ અદાલતને તેનું વળતર અપાવવાનો
અધિકાર નથી. દોષપૂર્ણ સેવાને લીધે બેદરકારી વર્તવામાં આવી હોય તો
વળતરની માગણી થઇ શકે. એટલે ઇરાદાપૂર્વક દુર્ભાવનાપૂર્ણ કાર્ય માટે ગ્રાહક સુરક્શા
ધારા હેઠળ વળતર અપાવવાનો અધિકાર અમારી પાસે નથી. આવા કિસ્સાઓમાં
ગ્રાહક અદાલતો વિચાર કરી શકે નહિ. ગ્રાહક સુરક્શા ધારા હેઠળ એ સાબિત થઇ શકે કે
સેવામાં ઊણપ વર્તવામાં આવી હતી તો વળતર મળી શકે. પરંતુ જાણીબૂઝીને બદઇરાદાથી કોઇ
ખોટું કામ કરવામાં આવ્યું હોય તો તે માટે ગ્રાહક સુરક્શા અદાલતો વળતર અપાવી શકે
નહિ!</p>

<p>ગ્રાહક સુરક્શા ધારા વિશેની સમજમાં આ
ચુકાદો દૂરગામી અસરો ઊભી કરી જાય એવો છે. એવા ઘણા કિસ્સા હોય છે કે જેમાં
ઇરાદાપૂર્વક સેવામાં ડખલ પેદા કરવામાં આવતી હોય. જેમ કે દિવાળી જેવા તહેવારોમાં
બોણી નહિ મળતાં વીજળી-પાણી-ટેલિફોન-પોસ્ટ, સાફસફાઇ વગેરેમાં ઇરાદાપૂર્વક ખલેલ ઊભી
કરવામાં આવી હોય તો ગ્રાહક સુરક્શા ધારા હેઠળ તેને સેવામાં બેદરકારી કે ઊણપ
હોવાનું સાબિત કરવાનું મુશ્કેલ બની જાય.</p>

<p>કેટલીકવાર લાંચરૂશ્વત નહિ મળવાને લીધે કામ
અટકી પડતું હોય તો તેવા બદઇરાદાને પણ સેવામાં ઊણપ ગણવાનું સુરક્શા ધારા
અન્વયે અશક્ય બની જાય? આ રીતે જોવામાં આવે તો ગ્રાહક સુરક્શા ધારામાંથી આવી
ઊણપ દૂર કરવાનું જરૂરી બની જાય.</p>

<p><head>હાઇ-વે પરનો હાઇ-બળાપો!</head></p>

<p>'ભાઇ, તમારી પાસે દસના છૂટા હોય તો આપો
ને? અમારી બેબીને બસમાં ઉબકાં આવે છે. તેની મોળ ભાંગે એટલા માટે મારે ખટમીઠી
ગોળી લેવી છે. પણ ધાબાવાળો ત્રણ રૂપિયા છૂટા માગે છે ને મારી પાસે નથી.'</p>

<p>હાઇવેના એક ધાબા (હોટલ) પર બે ત્રણ
એસ.ટી.ની અને ચારેક લકઝરી સહિત કેટલાંક ખાનગી વાહનોના અલ્પ વિરામને લીધે
હોટલમાં માણસ ક્યાંય સમાતું નહોતું. જબરી ભીડ જામી હતી. વસ્તુની ગુણવત્તા અને ભાવથી
માંડીને 'છૂટા આપો' સુધીની 'ધાબાગીરી' જોવા જેવી હતી. એ દર્શન
સમાધિમાં ઉપર્યુક્ત લાચાર આજીજીએ વિક્શેપ પાડ્યો. ખિસ્સામાં દસના છૂટા તો
નહોતા. પણ ગોળી લેવા જેટલા ત્રણેક રૂપિયા તો નીકળે તેમ હતા. છૂટાની મારામારીને
લીધે કોઇને દસ રૂપિયા આપવા હોય તો આપી શકાય પણ ત્રણેક રૂપિયાના 'છૂટાની
મૂડી' કાઢતાં જીવ ચાલે તેમ નહોતો. એટલે સાથે એક બિસ્કીટનું પેકેટ લઇને એ બહેનની
લાચારીનો અંત લાવવાનો ઉપાય વિચાર્યો. બંનેના થઇને નવ રૂપિયા થતાં ધાબાવાળાએ
એક રૂપિયો પાછો આપીને મેળ પાડી દીધો. બંનેની છાપેલી કિંમત તપાસતાં માંડ છ
રૂપિયાના માલના તેણે નવ રૂપિયા પડાવ્યા હતા!</p>

<p>સહપ્રવાસીઓ સાથેની વાતચીતોમાં કચવાટ
સંભળાતો હતો કે તમામ વસ્તુમાં આવા દાદાગીરીભર્યો લૂંટનો વહેવાર જ ચાલે છે. કોઇ
ખિસ્સુ કાપી જાય તો તેની ફરિયાદ થઇ શકે. દંડો પછાડી કે ચપ્પુ બતાવી કોઇને અંતરિયાળ
ધોલધપાટ કરી કોઇને ખંખેરી લેવામાં આવે તો તે ગુનો ગણાય. પણ વગર
ચપ્પુ કે ધોલધપાટ કે ડાંગ પછાડ્યા વગર ધાબા પર અથવા ઊભી બજારે
સામૂહિક રીતે લોકોનાં ખિસ્સા ખંખેરી લેવાય તેને 'સેવા' ગણવામાં આવે છે!</p>

<p>જે તે વસ્તુના પેકિંગ પર વધુમાં વધુ છૂટક ભાવ
છાપેલા હોવા છતાં આમ ઉઘાડે છોગ વધારે ભાવ પડાવાતો હોવા છતાં તેની સામે
કશાં પગલાં વિચારાતાં નથી. એવો 'હાય-બળાપો' હાઇવે પર કોઇ સાંભળનાર નથી. કરજણના
વાચક બંધુ મહેશકુમાર શાહના જણાવ્યા પ્રમાણે આવે અંતરિયાળ સ્થળે વધારે કિંમત પ્રત્યે
કોઇ ધ્યાન ખેંચે તો તેને નફ્ફટતાપૂર્વક પથ્થરિયા જવાબ સંભળાવી દેતા હોય છે કે 'થાય
તે કરી લેજો. જ્યાં ફરિયાદ કરવી હોય ત્યાં કરજો.'</p>

<p>કાયદા-કાનૂનોના શાસનતંત્ર સામે ખુલ્લા પડકારરૂપ
આવા જવાબો એક જાતની લૂંટ જ ગણાય. કમ-સે-કમ એસ.ટી. તો એવો નિયમ જરૂર કરી શકે
કે નિર્ધારિત ભાવની શિસ્ત પાળતાં સ્થળો સિવાય બસ નહિ ઊભી રાખવાની કડક સૂચનાઓ
ડ્રાઇવર-કંડક્ટરોને આપીને તેના યોગ્ય અમલની તકેદારી રાખવી જોઇએ.</p>

<p><head>બમ્પ એહેડ</head></p>

<p>''દારૂબંધી હોવાથી
વિદેશી સાહસિકો ગુજરાતમાં મૂડીરોકાણ કરતાં અચકાય છે- એવો અફસોસ એક
પ્રધાને દૂરદર્શનના ઇન્ટરવ્યૂમાં વ્યક્ત કર્યો હતો.''</p>

<p>- ''તે તેઓ
ધંધાકીય રોકાણ માટે ગુજરાતમાં આવવા ઇચ્છે છે કે દારૂ પીવા માટે?''</p>

<p> </p>




<p><head>ઇ.પી.એસ.</head></p>

<p><head>ઘરનું ઘર અને વિમાનું રક્શણ હોય તો જ
શેરબજારમાં મૂડી રોકવાનું વિચારજો</head></p>

<p>શેરબજારમાં મૂડીરોકાણ જે રીતે સૌથી વધુ
વળતરદાયી છે તે જ રીતે સૌથી વધુ જોખમકારક પણ છે માટે જ મધ્યમવર્ગના રોકાણકારો
માટે શેરબજાર એ મૂડી રોકાણ પસંદગીમાં સૌથી છેલ્લો ક્રમ ધરાવે છે તેમના માટે
મૂડીરોકાણ માટેના સ્રોતોનો અગ્રિમતાક્રમ નીચે મુજબ હોઈ શકે. (૧) ઘરનું ઘર, (૨)
પૂરતું વીમા રક્શણ, (૩) કરવેરા બચત, (૪) નિર્ધારિત- નિયમિત આવકના સાધનો,
(૫) સોના-ચાંદીમાં થોડું ઘણું રોકાણ અને છેક છેલ્લે (૬) ઇક્વિટી ઇન્વેસ્ટમેન્ટ.</p>

<p>ગત લેખમાં આપણે રહેણાંકના મકાન અંગે ચર્ચા
કરી હતી. આજે પૂરતા વીમાના રક્શણની જરૂરિયાત અંગે ચર્ચા કરીશું પ્રત્યેક રોકાણકારે
જરૂરિયાત મુજબ યોગ્ય પ્રમાણમાં વીમાનું રક્શણ લેવું જ જોઈએ જો કે કેવા પ્રકારની વીમા
પોલીસી હોવી જોઈએ અને કેટલી રકમનો વીમો લેવો જોઈએ તે બાબત પ્રત્યેક રોકાણકાર
માટે અલગ-અલગ રીતે લાગુ પડતી હોય છે. વીમો હોવાનો મૂળભૂત આશય માત્ર રક્શણ
મેળવવા પૂરતો જ હોય છે સંપત્તિ એકત્રીકરણ માટેનો નહિ માટે એવી પોલીસી પસંદ
કરો કે જે માત્ર વીમો પૂરો પાડતી હોય બચત યોજના સહિતની વીમા પોલીસી શેરબજારના
રોકાણકારો માટે બહુ ઓછી ખપમાં આવતી હોય છે. જો વીમા પોલીસી લીવીંગ બેનીફીટ્સ
ઓફર કરતી હોય તો તેનો અર્થ એ થયો કે તેમાં વીમો અને સાથે બચત આવરી લેવાયા
છે આવી યોજનામાં વળતર શેરબજારના પ્રમાણમાં ઓછું છૂટતું હોવાથી દૂર રહેવું જોઈએ.
જો કે, એ બાબત તમારી વિચારસરણી ઉપર આધારિત હોય છે કે, વીમા રક્શણ સાથે સાથે
નોંધપાત્ર બચત વધુ થઈ શકે ઘણાં રોકાણકારોને શેરબજાર કરતાં વીમો વધુ
વળતરદાયી અને સલામત પણ જણાતો હોય છે એ વાત ચોક્કસ છે કે વીમાના રક્શણ વળતરની
ગેરંટી ખરી શેરબજારમાં નહિ !</p>

<p>વીમાની રકમ નીચેની બાબતોને ધ્યાનમાં રાખીને જ
નક્કી કરવી જોઈએ (૧) તમારી આર્થિક સદ્ધરતા, (૨) તમારી કુલ કૌટુંબિક આવક ક્શમતા, (૩)
કુટુંબની ભંડોળ માટેની વર્તમાન ખપત અને ભાવિ જરૂરિયાતો વચ્ચેનો ગાળો ધ્યાનમાં
રાખીને તે મુજબ પ્રિમીયમ ભરવાની રકમ નક્કી કરો.</p>

<p>* તમે જેટલા આર્થિક સદ્ધર હોવ તેટલી તમારી
વીમા જરૂરિયાત ઓછી ગણાય. જો તમે તમારા કુટુંબની વર્તમાન તેમજ ભાવિ જરૂરિયાત
સંતોષવા ઉપરાંતનું ભંડોળ ધરાવતા હોવ તો પછી તમારે જીવન વીમાની ભાગ્યે જ
જરૂર પડી શકે છે સિવાય કે તમારી આવક-જાવક વચ્ચેના રેશિયોમાં મોટી વ્યાપક સતત
વધઘટ થયા કરતી હોય.</p>

<p>* તમારી કૌટુંબિક આવક (ઘરમાં રહેતા
સભ્યોની) આવક જો વધુ પડતી હોય તો પછી વીમાની જરૂર ઘણી જ ઓછી રહે છે. કારણ કે
વર્તમાન ઘરખર્ચ, બાળકોની શૈક્શણિક જવાબદારીઓ, ઈતર ખર્ચાઓ વગેરે બાદ પણ જો પૂરતા
પ્રમાણમાં બચત થઈ શકતી હોય તો પછી મોટી રકમના વીમા માટેનો આગ્રહ ઓછો રાખવો
જોઈએ પરંતુ જે રોકાણકારો સ્થિર માસિક આવક ધરાવતા હોય અને ભવિષ્યની મોટી
આર્થિક જરૂરિયાતને સંતોષવા માટે પૂરતું ભંડોળ હાથ પર ધરાવતા ન હોય તેઓએ
પોતાના મકાન પછી વીમા રક્શણને જ પ્રાધાન્ય આપવું જોઈએ.</p>

<p>* વર્તમાન સંજોગોમાં પણ મોટા ખર્ચા
ધરાવતા રોકાણકારોએ વિમા રક્શણ ખાસ મેળવવું જોઈએ જેથી ભવિષ્યમાં આવનારી વધુ
મોટા ખર્ચાઓને સહેલાઈથી નિશ્ચિંતપણે પહોંચી વળી શકાય. વીમા રક્શણ એ તમારી ભાવિ
આકસ્મિક જરૂરિયાતને પહોંચી વળવા માટેનું અસરકારક શસ્ત્ર પુરવાર થાય છે માટે મધ્યમ
વર્ગના રોકાણકારોએ તે અંગે પૂરતી જોગવાઈ કરવી જોઈએ.</p>

<p>આર્થિક ઉદારીકરણના પગલે વીમા ક્શેત્રે પણ ઘણાં
ફેરફારો આવી રહ્યા છે. જેનો સીધો લાભ સામાન્ય રોકાણકાર વર્ગ ઉઠાવી શકે છે.
તમે લીધેલી વીમા પોલીસી ઉપર હવે તો હાઉસીંગ લોન, પર્સનલ લોન તેમજ બેન્કોમાં
ધિરાણ પણ ઉપલબ્ધ બને છે. આ બધાં લાભો જોતાં ભાવિ આયોજન માટે
ખરીદેલી વીમા પોલીસીનો ઉપયોગ તમે વર્તમાન આર્થિક અડચણ હટાવવામાં પણ કરી શકો
છો. શરત માત્ર એટલી છે કે નિયમિત પણે પ્રિમિયમ ભરવા સાથે જરૂરિયાત જેટલી જ રકમનો
વીમો ઉતરાવો અને બાકીની રકમનું મૂડી રોકાણ અન્ય સ્તોત્ર તરફ વાળવાનો પ્રયાસ કરો.</p>




<p><head>બિઝનેસ ગઠરિયાં</head></p>

<p><head>માત્ર અમેરિકામાં જ નહીં ભારતમાં હાઈટેક કંપનીને
સોફટવેરનાં નિષ્ણાતો મળતા નથી</head></p>

<p>સિડનીથી અને પર્થથી ઓલિમ્પિક્સનાં ઉતારૂને લઈને
વિમાનો પાછા ફરતા હતા ત્યારે સિંગાપોર એરલાઈન્સની અતિ સુંદર સગવડવાળી ફલાઈટમાં
હું હતો ત્યારે અમેરિકાથી વાયા સિંગાપોર મુંબઈ આવનારા બિઝનેસ કલાસનાં ઉતારૂઓ
સાથે વાત કરવા મળી. બે જુદી જુદી જાતનાં હાઈટેકનાં જાણકારો સિંગાપોર એરપોર્ટ ઉપર
મળ્યા. આજે અમેરિકામાં ૪,૨૦,૦૦૦ હાઈટેક- વિદેશી- વર્કરો છે. એકલી સિલીકોન
વેલીમાં જ ૧ લાખ જગ્યાઓ સ્કીલ્ડ વર્કરો માટે ખાલી પડી છે. અમેરિકન સરકારે ૪થી
ઓક્ટોબરે વધુ ૬ લાખ વિઝા એટલે કે દર વર્ષે ૨ લાખ વીઝા સ્કીલ્ડ વર્કર માટે જાહેર
કર્યા છે. તેમાથી અરધો અરધ તો સિલીકોન વેલી એટલે કે સાનફ્રાન્સીસ્કો
નજીકનાં ત્રણ ચાર પરાઓ જ આ નવા વીઝાવાળા સોફટવેર વર્કરોને લઈ લેશે. અમેરિકામાં
ટેકનીકલ- વર્કરો એટલા બધા લાડમાં રહે છે કે વધુ પગાર અને વધુ સગવડ માટે બોઈંગ
વિમાન કંપનીનાં પ્લાંટમાં ૯૦૦૦૦ કામદારો હડતાળ ઉપર ઉતર્યા હતા. અમેરિકામાં હવે
એમ્પ્લોયર્સ એટલે કે પગારે રાખનારી કંપનીઓ સોફટવેર વર્કરોને આકર્ષવા અવનવા
આકર્ષણો મુકે છે.</p>

<p>ટેડ સી ફીશમેન નામનાં હાઈટેક વર્કર કહે કે ૨૦
વર્ષ પહેલાં હું કોલેજમાંથી ગ્રેજ્યુએટ થયો ત્યારે કંપનીના મેનેજરોને કેમ ખુશ
રાખવા અને ઈન્ટરવ્યુમાં કેમ પાસ થવું તે માટેની કન્સલ્ટીંગ કંપની પાસે તાલીમ લેવી પડતી
હતી. આજે સોફટવેરના કામદારોને કન્સલ્ટીંગ કંપનીઓ સલાહ આપે છે કે તમારા માલીકો
પાસેથી સેલફોન, ઉંચામાં ઉંચી મોટરકાર, વેકેશન અને તગડા સ્ટોક ઓપશન (પગાર ઉપરાંત
કંપનીના શેરોની ફાળવણી) કેમ લેવા તે શીખવે છે. સિંગાપોર એરપોર્ટ ઉપરના બે
ઉતારૂઓ કહેતા હતા કે હવે માત્ર અમેરિકામાં જ નહીં પણ ભારતમાં ય સોફટવેર કંપનીઓને
જોઈતો સ્ટાફ મળતો નથી. એક કંપનીનાં એક્ઝીક્યુટીવ બેંગલોરથી નવા રિક્રુટ
શોધવા આવતા હતા અને બીજા એક્ઝીક્યુટીવ ભારતની સોફટવેર કંપની માટે મુંબઈ-
હૈદરાબાદ કે દિલ્હીથી સોફટવેરનાં જાણકાર શોધી આપવા માટે આવેલા.</p>

<p>અમેરિકાના વ્યાપારી સાપ્તાહીક 'બિઝનેસ- વીક' એ
પણ ભારતમાં સોફટવેરનાં જાણકારોની ટંચાઈ ઉભી થઈ છે તેની વાત ઉખળી છે. 'બિઝનેસ
વીક'માં એક સ્ટોરી છાપી છે. ન્યુ જર્સીમાં રૂટગર્સ યુનિવર્સિટીમાં શંકરન પી. રઘુનાથન
પ્રોફેસર હતા. ભારતીય પ્રોફેસરો હવે પંતજી રહ્યા નથી. શંકરને પ્રોફેસરીની સાથે સાથે
બિઝનેસમાં રસ બતાવ્યો. આટલાન્ટામાં બ્લુ શિફટ ઈનકોર્પોરેટેડ નામની સોફટવેર-
સર્વીસ- પ્રોવાઈડર નામની કંપની છે તેને માટે પ્રો. શંકરન કામ કરવા લાગ્યા. પ્રો.
શંકરનને કહેવામાં આવ્યું કે તેઓ મદ્રાસમાં જઈને ત્યાં બ્લુ શિફટની એક પેટાશાખા
ખોલે. તે શાખા ખોલીને પાછું શંકરને અમેરિકા પાછા આવવાનું હતું.</p>

<p>શંકરન તો મસ્તીમાં હતા કે 'બ્લુ શિફટ' માટે
હાઈટેકનો જાણકાર- સ્ટાફ મદ્રાસ- બેંગલોર કે મુંબઈથી જોતજોતામાં મળી જશે. પરંતુ એક
વર્ષનાં અનુભવ પછી માલુમ પડ્યું કે બ્લુ શિફટ- ઈન્ડિયા- લિમિટેડને સિનીયર અને
મિડલેવલનો સ્ટાફ મળતો નહોતો. રઘુનાથને અમેરિકન કંપની માટે ભારતમાં જ કામ કરવા
૧૨૭ જેટલા એન્જીનીયરીંગ અને મેનેજમેન્ટના ગ્રેજ્યુએટોને નોકરીમાં રાખ્યા હતા.</p>

<p>બ્લુ શિફટ- ઈન્ડિયાનાં પગારો બહુ સારા છે છતાં
આ કંપનીને ચીફ ઓપરેટીંગ ઓફીસર, ટેકનોલોજીનાં સિનીયર ઓફિસર અને ચીફ
ટેકનોલોજી ઓફીસર મળતા નથી. હવે પ્રો. રઘુનાથને પોતે આ બધાનું કામ કરવામાં
સપ્તાહનાં ૮૦ કલાક ગાળવા પડે છે. જે નવા ભારતીય રિક્રુટો છે તેને થોડું શીખવવું પડે
છે. પ્રો. રઘુનાથન તે કામ કરી શકે છે, પણ તેમનાં ૮૦ કલાક તો ન રિક્રુટ થયેલા
ઓફિસરોનું કામ કરવામાં જાય છે.</p>

<p>આ એક દાખલો બતાવે છે કે ખુદ ભારતમાં જ
સારા હાઈટેક વર્કરોની ટંચાઈ છે. મુંબઈ કે ન્યુયોર્કની શેરબજારોમાં સોફટવેરની
કંપનીઓનાં શેરોના ભાવ ગગડતા હોય ત્યારે એવું ન માનશો કે સોફટવેરનાં જાણકાર
કર્મચારીનું મૂલ્ય પણ ગગડ્યું છે. તે મૂલ્ય તો દિવસે દિવસે વધે છે. ધ
ઓસ્ટ્રેલીયન નેશનલ યુનિવર્સિટોને લેકચરરોની જરૂર છે. ઈ. લેવલનાં સીનીયર પ્રોફેસર
માટે (સ્ટેટીસ્ટીક્સ સાયન્સ અને બાયો ઈન્ફોર્મેટીક્સના જાણકાર) વર્ષે ૯૨૮૦૦ ડોલરનો પગાર
ઓફર કરે છે. ઓસ્ટ્રેલીયન યુનિ.ની જગ્યા માટે ત્યાંના પ્રોફેસર ફ્રાન્સેસ્કા મરલાન (Francesca-
Merlan)નો સંપર્ક કરી શકાય. ટેલીફોન
(૦૨) ૬૨૭૯૮૨૨૮. અગર ઈ. મેઈલ Francesca.merlan@anu.edu.au. 'ધ ઓસ્ટ્રેલીયન યુનિ.' તો કમાલ છે. યુનિ.ના જે
પ્રોફેસરો પ્રોફેશનલ પ્રવૃત્તિ ઉપરાંત સોફટવેર કંપનીના કન્સલ્ટંટ બને (યુનિ તરફથી) અને
યુનિવર્સિટીનું બુધ્ધિબળ વાપરીને કમાણી કરે તો તેને એ કમાણીમાંથી ભાગ પણ મળે
છે! વર્ષે ૧,૧૫,૨૧૮ ડોલર ઉપરાંત આ 'કમીશન' મળે છે. આવી જ હાલત અમેરિકામાં છે.</p>

<p>ઈન્ફોર્મેશન ટેકનોલોજી સર્વીસીઝ અને પ્રોડક્ટની
ગ્લોબલ ડીમાન્ડ જાગી છે તે ભારતનાં લાભમાં છે. તેથી બેંગલોર અને મદ્રાસમાં અનુભવી
એન્જીનીયરીંગ અને ટેકનોલોજીની ટેલન્ટની ટંચાઈ ઉભી થઈ છે તેમ 'બિઝનેસ વીક' કહે છે.
હજારો ટેલન્ટેડ જુવાનોને અમેરિકા અને યુરોપની કંપનીઓ ઊંચા પગાર આપી ખેંચી જાય
છે.</p>

<p>ભારતની ઈન્ફોટેક કંપનીઓ સારા નફા કરે છે.
ભારતની આ સોફટવેર કંપનીને સેવા આપતી કંપનીઓ વર્ષે ૬ અબજ ડોલરનો વકરો કરે
છે. તેમાં ૩ અબજ ડોલરનો (૫૦ ટકા) નફો છે. ભારતની ટેલન્ટ બહાર ખેંચાઈ જતી હોઈને
જેને ઉતરતી કક્શાનું કામ કહેવાય છે તે (Low- tech Software coding services)લો- ટેક સોફટવેર- કોડીંગ સર્વીસીઝનું સસ્તું કામ હવે
વિદેશની કંપનીઓ તરફથી ભારતને મળે છે. આ કામમાં ભારતની સ્પર્ધા ફીલીપાઈન્સ કરે
છે. એટલે તમને કોઈ કહે કે અમુક સોફટવેરના જાણકારોને ગુજરાત સમાચારમાં હું લખું
છે તે પ્રકારે તનમનીયા નથી કે ઉંચા પગારે નોકરી મળતી નથી. તો તેનો અર્થ એમ થયો
કે હવે તમારે સોફટવેર ટેકનોલોજીમાં વધુ કુશળ અને વધુ અનુભવી થવાનું છે.</p>

<p>ભારતમાં અત્યારે ૩૫૦૦૦૦ જેટલા સોફટવેર
ડેવલપર્સ તરીકે ઓળખાતા જાણકારો છે. બીજા ૨૫૦૦૦૦ અમેરિકામાં કમાય છે. આજે જ બ્લુ
શિફટ કંપનીને ૧૪૫૦૦ જેટલા સોફટવેર સ્પેશ્યાલીસ્ટની જરૂર છે અને આ સંખ્યામાં દર વર્ષે
૫૦ ટકાનો વધારો થાય છે. પણ ભારતની યુનિવર્સિટીઓ દર વર્ષે માત્ર ૧૨૨૦૦૦
ઈજનેરો જ પુરા પાડે છે. આમાંથી માત્ર ૩૦ ટકા પાસે જ કમ્પ્યુટર સાયન્સની ડિગ્રી છે અને
મોટાભાગનાં આ કમ્પ્યુટર સાયન્સની ડીગ્રીવાળા અમેરિકા કે યુરોપ ચાલ્યા જાય છે. હવે
અમેરિકન સરકારે ૨ લાખ વિઝા દર બે વર્ષે આપવાનું નક્કી કર્યું છે એટલે વધુ જાણકારો
જશે. ભલે પછી એવા વિઝા લઈને ત્યાં બીજું કામ કરે પણ ત્યાં સેટલ થવાનું આકર્ષણ છે.</p>

<p>એવો અંદાજ છે કે દર વર્ષે ભારતની સોફટવેર
કંપનીમાં અનુભવ લઈને તેમાંથી ૧૫ ટકા જેટલા અનુભવી ઈજનેરો અને મેનેજરો ભારતની
ટેકનોલોજી કંપનીઓને છોડીને વિદેશનું વિમાન પકડે છે. હાઈટેકનોલોજીની બાબતમાં
ભારત- સરકારનાં સલાહકાર પાવાગઢ ઈન્દીરેસન કહે છે કે અહીંથી જે જાય છે તે વધુ મોટો
જાણકારોની જરૂરીયાતમાં ખાડો સર્જે છે. ઈન્દીરેસન પોતે જ પ્રોફેસર હતા અને મદ્રાસની
આઈ.આઈ.ટી.ના ડિરેકટર હતા. ભારતની ઘણી આઈ.આઈ.ટી.ના નિવૃત્ત પ્રોફેસરો નોકરી
કરતા હતા ત્યારે જે પગાર મેળવતા હતા તેના કરતાં હવે નિવૃત્તિ પછીની ઓફરોમાં ચાર
ગણા કમાવાની લાલચ મળે છે. મેકેન્સી ઈન્ડિયા (Mekinsey India) નામની કંપનીના ભારતીય ભાગીદાર પરેશ વૈશ્ય કહે છે કે
અમે ધંધામાં રચ્યા પચ્યા રહીએ છીએ એટલે સ્ટાફને બાંધી રાખવાની
તરકીબો કરી શકતા નથી. દા.ત. ઈન્ફોસીસે ચેતી જઈને ગયા વર્ષે તેનાં સોફટવેરનાં
ભેજાઓનાં પગારમાં ૩૦ ટકા વધારો કર્યો. આ વર્ષે ૧૬ ટકા વધારો કર્યો
છે. હજી પણ ઈન્ફોસીસ પાસે જગા ખાલી પડી છે તે માટે સિંગાપોરનાં અખબારમાં જા X ખ આપી છે.</p>

<p>આઝીમ પ્રેમજીની વિપ્રો કંપનીની સોફટવેર સર્વીસીઝ
બ્રાન્ચને વર્ષે ૫૦ કરોડ ડોલરની આવક છે. તેની પાસે ૭૫૦૦નો સ્ટાફ છે. તેમાંથી
અનુભવ લીધેલા ૨૦૦ જેટલા સિનીયર જાણકારો કંપનીને છોડીને વિદેશ કે બીજે જાય છે.
આઝીમ પ્રેમજી કહે છે કે દરેક સારી કંપનીમાં ટેલન્ટની ખેંચ છે. મુંબઈની રૅવ
ટેકનોલોજીસ જેવી નાની કંપનીએ પગારમાં ૫૦ ટકા વધારો કરવો પડ્યો. તેના
સ્થાપક આનંદ ઝવેરી કહે છે કે દરેક મહિને તેની કંપનીનો કોઈને કોઈ માણસ અમેરિકા
ભાગી જાય છે. આનંદ ઝવેરી પોતે અમેરિકામાં ૧૨ વર્ષ પહેલાં કોર્નેલ યુનિ.માં ભણીને
ભારતમાં સ્વતંત્ર કંપની સ્થાપી ચુક્યા છે. જોકે આનંદ ઝવેરી કહે છે કે કેટલાંક અનુભવી
ભારતીઓ અમેરિકા છોડીને પાછા ભારત આવે જ છે.</p>

<p>અમેરિકા જવાનું મોટું આકર્ષણ પૈસો છે.
ભારતમાં તેને ૨૫૦૦૦ ડોલરનો વાર્ષિક પગાર મળે છે. (વર્ષે રૂ.૧૧.૨૫ લાખ) એવી જ
નોકરી માટે સોફટવેર ટેકનોલોજીના જાણકારને અમેરિકામાં ૧૭૫૦૦૦ ડોલર મળે છે. એટલે
કે આઠ ગણા નાણા મળે છે. મહિને અમેરિકામાં રૂ.૭ લાખનો પગાર મળતો હોય તે લાલચ કેમ
છોડી શકાય? ભારતમાં મોટેભાગે કંટાળાવાળું સોફટવેર- સર્વીસનું જાણે સફાઈ જેવું કામ
મળે છે. નવા ઈન્ટરનેટ આધારીત સોફટવેર માટે નવા કોડ લખવાનાં હોય છે. પણ આ
કંટાળાવાળું 'મજુરી'નું કામ ગણાય છે. સુરેશ રાજપાલ નામનાં મુંબઈના જાણકાર કહે છે કે
જાણકાર લોકોને ચેલેન્જીંગ કામ જોઈએ છે, તે અમેરિકામાં મળે છે. સુરેશ રાજપાલની
કંપની મુંબઈમાં રહીને આવું ચેલેન્જીંગ કામ કરે છે. તેનું વાયરલેસ સોફટવેરની
નિકાસનું કામ છે. ભલે 'મજુરી'નું કામ હોય પણ જુના કોડ (ર્ભંઘઈ)ને નવેસર ફરીથી
લખવાનાં ધંધામાં ભારતની કંપનીઓને અબજો ડોલર મળે છે. જોકે ૩ વર્ષ પછી
આમાં નફો ઓછો થશે જ.</p>

<p>ભારતમાં હવે વધુને વધુ કેળવણી સંસ્થાઓની જરૂર
છે. ફરીથી લખવું પડે છે કે હૈદ્રાબાદમાં નવી ઈન્ડિયન ઈન્સ્ટિટયુટ ઓફ ઈનફોરમેશન
ટેકનોલોજીની સંસ્થા શરૂ થઈ તેવી વડોદરા કે અમદાવાદમાં શરૂ થવી જોઈએ. ભારતની એપટેક
(APTECH) નામની
કંપની જે સોફીસ્ટીકેટેડ કોર્સ શીખવે છે તે દર છ મહિને પોતાના કોર્સને અપડેટ કરે
છે. બીલ ગેટ્સ તેનાં 'ગ્રેજ્યુએટો'ને ભજીયાની જેમ ખાઈ જાય છે.</p>




<p><head>ચાર્ટિસ્ટની નજરેે</head></p>

<p><head>શેરોમાં ઝડપી ઉછાળાની ચાલ જોવાશે</head></p>

<p>વીતેલા સપ્તાહ દરમિયાન સુધારાની ગણતરી
ખોટી પડી છે. સોમવારનું બોટમ તૂટતાં બજારમાં ખરાબીનો સંકેત મળ્યો અને અગાઉનું
૩૮૪૦નું બોટમ તૂટવાનો સંકેત હતો. ગુરુવારના રોજ ઈઝરાયલ અને પેલેસ્ટાઈન વચ્ચે
યુધ્ધ જેવું વાતાવરણ સર્જાતા ડો. જોન્સ આંક ૩૮૦ અને નાસ્ડાક ૯૫ પોઈન્ટ ઘટીને
આવતાં તેમજ અત્રે પણ રોલીંગ સેટલમેન્ટનો 'હાઉ' યથાવત રહેતાં શુક્રવારના રોજ
ગભરાટભરી વેચવાલી ચાલુ રહેતાં અને લેણનાં પોટલાં સરખાં થથા ભાવો તૂટ્યાં અને
શેરઆંક નીચામાં ૩૭૧૪ થઈ ૩૭૩૬ બંધ રહ્યો હતો. આમ નિરાશ અને હતાશ હવામાને
બંધ રહેલ બજારમાં સાંજના સેબી દ્વારા જાહેરાત કે સંભવીત રોલીંગ સેટલમેન્ટની જાહેરાત
જેને કારણે બજારમાં ૫૦૦ પોઈન્ટનું ગાબડું પડયું હતું તે હમણાં મુલત્વી રાખવામાં
આવશે અને હમણાં પ્રાયોજીક ધોરણે રોકડાના જે ૧૫ શેરો જેમાં રોલીંગ ચાલુ છે
તેમાં ૧ દિવસનો વાયદો કરવાની છુટ અને તેમાં વોલ્યુમ અને ભાવોની વધઘટ જોઈ
પછી 'છ' ર્ય્ેૅનિા શેરોમાં તે લાગુ કરવા અંગે વિચારણા થશે. આ સાનુકુળ કારણ સાથે
અમેરીકા શેરબજારમાં પણ નાસ્ડાક ૨૭૦ પોઈન્ટ વધીને આવ્યો છે. તે જોતાં
સોમવારનાં રોજ બજાર તેજી ગેપમાં જ ખુલશે. આમ રોલીંગ સેટલમેન્ટનો હાઉ ફેલાવી રસ
ધરાવતું ગ્રુપ રમત રમી ગયું અને નાના ટ્રેડરોને ભારે નુકસાની વેઠવી પડી જે વર્ગ
શેરબજારને ચોરબજાર તે યોગ્ય જ છે. જેના પરિણામોની અને વ્યવહારૂપણાની પાકી ખાત્રી ન
હોય તેવા કાર્યક્રમની જાહેરાત જ કેમ થાય? આ બધું જોતાં લાગે છે કે ગર્વનીંગ બોર્ડમાં
દલાલ સભ્યોને બદલે નાણાસંસ્થાઓ મ્યુચ્યુઅલ ફંડો તેમજ અર્થશાસ્ત્રીઓનો સમાવેશ થવો
જોઈએ જેથી રોકાણકારોના હિતના બહાના હેટળ 'સ્વહીન' ન જોવાય! આ સમગ્ર છબરડાની
નૈતીક જવાબદારી કોણી?</p>

<p>મુંબઈ શેરબજાર આંક: (૩૭૩૯) રોલીંગ સેટલમેન્ટ તેમજ ડો. જોન્સ અને નાસ્ડાકના
કડાકાને બદલે અત્રે પણ કડાકો જોવાયો અને સાપ્તાહિક બંધના ધોરણે ૩૫૩
પોઈન્ટનો ઘટાડો નોંધાયો છે. શુક્રવારના બંધ પછી જે કારણો આવ્યા છે તે
જોતાં સોમવારના રોજ બજાર તેજી ગેપમાં જ ખુલશે અને શુક્રવારનું વર્કિંગ આઈલેન્ડ બની જશે
એમ લાગે છે અને નવા સપ્તાહ દરમ્યાન ૩૫૩ના ઘટાડાની સામે ૪૦૦થી વધુ પોઈન્ટનો ઉછાળો
જોવાશે. નવા સપ્તાહ માટે ૩૮૬૩, ૪૦૧૧ અને એની ઉપર ૪૧૩૦થી ૪૧૭૦ સુધીનો આંક
જોવાશે. યોગાનુયોગ ૧૩ સપ્ટેમ્બરે વચગાળાનું ટોપ ૪૭૯૧ અને ૧૩ ઓક્ટોબરના રોજ
ટેમ્પરરી બોટમ ૩૭૧૪ આમ ૧ માસના ટુંકા ગાળામાં શેરઆંકમાં ૧૦૫૬ પોઈન્ટનો તીવ્ર
ઘટાડો નોંધાયો છે જેમાં કરેકશનમાં ૫૦% ગણતાં ૩૭૧૪ + ૫૨૮= ૪૨૪૨ અને ૬૧૮
ગણતાં ૩૭૧૪ + ૬૪૫= ૪૩૫૯. આમ નાસ્ડાક અને રોલીંગના કારણે તુટેલું બજાર આ કારણો દૂર
થતાં તેમજ લેણ પણ નબળા હાથોમાંથી ઓપરેટરોના હાથમાં ટ્રાન્સફર થતાં ૪૩૬૦
સુધીનાં ઉછાળાની શક્યતા ઉભી થઈ છે અને હવે તેજી ધ્યાને ૩૮૨૬ને નિર્ણાયક સપાટી
ગણવી.</p>

<p>રિલાયન્સ: (૩૧૮) આમાં નજીકનો ૩૧૯નો સ્ટોપલોસ રાખી તેજીનો
વેપાર જાળવવો. ઉપરમાં પ્રથમ ૩૨૮ અને એ કુદાવતાં ૩૪૦ સુધીનાં ભાવની શક્યતા છે.</p>

<p>ઈન્ફોસીસ: (૬૪૮૦) નાસ્ડાકમાં ૨૭૦ પોઈન્ટનો ઉછાળો જોતાં આમાં
સોમવારના રોજ ૮%ની સરકીટ લાગવાની શક્યતા વધુ છે એ ધ્યાનમાં લેતાં ૬૮૪૫ નજીકની
પ્રતિકારક સપાટી અને એ કુદાવતાં ૭૨૧૫ સુધીનાં ભાવની શક્યતા છે.</p>

<p>પેન્ટાફોર: (૩૮૭) આમાં પણ બજાર તેજી ગેપમાં ખુલતાં ૩૯૭નાં
સ્ટોપલોસે તેજીનો વેપાર જાળવવો. ઉપરમાં ૪૧૦થી ૪૧૭ વચ્ચે લેણમાં નફો કરવો.</p>

<p>સત્યમ: (૩૬૮) ઉત્કૃષ્ટ પરિણામો જાહેર થવા છતાં રોલીંગ સેટલમેન્ટ
તેમજ વધુ પડતાં લેણને કારણે ભાવો તૂટ્યાં છે. હવે આમાં પ્રથમ ૪૧૦ અને એની ઉપર
બંધ આવતાં વધઘટે ૪૧૫નાં ભાવની શક્યતા છે.</p>

<p>લાર્સન: (૧૫૯) ગુજરાત અંબુજાનો નફો ૫૦% ઘટતાં તમામ સિમેન્ટ
ઉત્પાદન કરતી કંપનીઓના ભાવો ઘટતાં આમાં પણ સુધારાની ચાલ અટકી હતી. આમાં
૧૬૮ છેલ્લી પ્રતિકારક સપાટી છે જે કુદાવતાં રૂ.૨૦થી ૨૫નો ઝડપી ઉછાળો જોવાશે.</p>

<p>એમ.ટી.એન.એલ.: (૧૨૯) ૧૨૬નાં સ્ટોપલોસે તેજીનો વેપાર જાળવવો. ઉપરમાં
૧૩૫ નજીકની પ્રતિકારક સપાટી છે જે કુદાવતાં પ્રથમ ૧૪૫ અને વધઘટે ૧૬૧નાં ભાવની
શક્યતા છે.</p>

<p>હિમાચલ: (૧૦૦૬) ઉંચા મથાળેથી સારું એવું કરેકશન આવી ગયું છે.
આમાં હવે ઉપરમાં પ્રથમ ૧૦૯૬ અને એની ઉપર બંધ આવતાં વધઘટે બીજાં રૂ.૧૦૦નો
ઉછાળો આવ્યો છે.</p>

<p>ગ્લોબલ: (૧૦૩૯) તેજી ધ્યાને નજીકનો ૧૦૬૫નો સ્ટોપલોસ રાખવો.
ઉપરમાં ૧૧૨૭ પ્રતિકાર સપાટી છે જે કુદાવતાં બીજાં રૂ.૧૦૫નો ઉછાળો આવશે.</p>

<p>ટાટા સ્ટીલ: (૮૯) આમાં ૯૧નાં સ્ટોપલોસે તેજીનો વેપાર જાળવવો.
ઉપરમાં હવે ૯૬ ઉપર બંધ આવતાં પ્રથમ ૧૦૩ અને એની ઉપર વધઘટે ૧૨૧નાં ભાવની
શક્યતા છે.</p>

<p>ઝી ટીવી: (૩૫૬) ૩૮૩ નજનકી અને એની ઉપર ૪૧૪ સુધીનાં ભાવની
શક્યતાં.</p>

<p>સ્ટરલાઈટ: (૧૨૪) આમાં ૧૩૦નાં સ્ટોપલોસે તેજીનો વેપાર જાળવવો.
૧૪૮ ઉપર આમાં સરકીટો લાગવાનું શરૂ થશે.</p>




<p><head>સોમવારની સવારે</head></p>

<p><head>આપણાં સુખ અને આપણાં દુ:ખ :
સુખદુ:ખની પેલી પાર</head></p>

<p>શરદપૂનમના ચંદ્રની વાતો આમ તો ઘણું ખરૂં
રોમેન્ટિક હોય છે.</p>

<p>સાબરતટે ઉગતા ચંદ્ર માટે કવિ હેમંત દેસાઇ
વિચારે છે. ચાંદની એ આકાશનું સ્મિત છે! એને ઉપમા આપવી કોની? ગૌરીને જોઇને
શિવના મોં પર પ્રસરેલા સ્મિતની...</p>

<p>આભના સ્મિતની</p>

<p>આજે</p>

<p>કોઇ ઉપમા</p>

<p>ના જડે</p>

<p>એક છે સ્મિત</p>

<p>કે વેર્યું</p>

<p>ગૌરીની પ્રતિ જે</p>

<p>શિવે!</p>

<p>પણ જીંદગી એ માત્ર રોમાંસ છે? જીંદગીમાં કપરી
કઠોર વાસ્તવિક્તાઓ પણ હોય છે જ. (આપણે ય કક્કો બારાખડીમાં ચંદ્ર અને ચાંદની વાત
છોડીને કાલની મમતા બેનરજીના બળવાની અને વાજપેયીજીની ચિંતાની વાસ્તવિક વાતો ઉપાડવી જ
પડશે ને કાલથી!</p>

<p>પણ આજે ચાંદનીની જ વાત એક અલગ વાસ્તવિકતાથી.
કવિ બાલમુકુંદ દવેએ શરદ પૂનમની રાતે મર્સિડિઝ બેન્ઝ લકઝરી કારમાં હાઇવે પર દૂર
દૂરની ગાર્ડન હોટલમાં શરદ પૂનમના જલેબી દૂધ પૌંઆની ઉજાણી કરવા જતા ધનિક
કપલની વાત નથી કરવી. મિલના ફેક્ટરીના ઉદ્યોગના શેઠિયા લોકની વાત નથી કરવી એમણે તો
કરવી છે શરદ પૂનમેય ચાલુ રહેતાં કારખાનાની, મીલોની! આજે ય ત્યાં બીજી પાળી ત્રીજી
પાળી ચાલતી હોય છે.. અને શેઠિયો રજા રાખી શકે છે. (પોતાની કે બીજાની) પ્રિયતમા જોડે
ચાંદનીમાં ઘૂમવા જવા માટે! પણ મિલમજદુરે તો પ્રિયતમાને ઘરે છોડીને સાયકલના પેડલ
મારતાં મારતાં..</p>

<p>મઝદૂરની પત્ની એને કહે છે...</p>

<p>ઉજવી શરદપૂનમની</p>

<p>રાતડી રે</p>

<p>કે ઉજળા યૌવનના</p>

<p>ઉલ્લાસ</p>

<p>મીઠડા આજ મત</p>

<p>જાજે મિલમાં રે</p>

<p>આભને ફરતી</p>

<p>રેલી ચાંદની રે</p>

<p>કે જીવન ફરતી</p>

<p>જોબન ઝૂલ</p>

<p>મીઠડા! આજ મત</p>

<p>જાજે મિલમાં રે!</p>

<p>ચોકમાં ઢાળુ</p>

<p>સિસમ ઢોલિયો રે</p>

<p>કે આપણે રમીએ</p>

<p>વિમળ વિલાસ</p>

<p>મીઠડા આજ મત</p>

<p>જાજે મિલમાં રે!</p>

<p>આગે ડગ દઇ</p>

<p>ઉભો નાવલો રે</p>

<p>કે નારી ઉભી</p>

<p>રો કે બાર</p>

<p>મીઠડાં આજ મત</p>

<p>જાજે મિલમાં રે</p>

<p>નરની એક આંખે</p>

<p>નારી રમે રે</p>

<p>કે બીજી આંખે</p>

<p>ભવનાં ભાર!</p>

<p>હો ગૌરી ઘેર રહ્યે</p>

<p>કેમ ચાલશે રે?</p>

<p>નભમાં જુએ</p>

<p>પૂનમ ચાંદલો રે</p>

<p>કે ઘરમાં</p>

<p>રૂએ ઘેલી નાર</p>

<p>હો કરમે</p>

<p>લખિયલ</p>

<p>કાળી નોકરી રે!</p>

<p>માનવ જીંદગી એટલે જ સુખદુ:ખની લીલા! અહીં
રોમાંચ પણ છે રૂદન પણ છે.</p>

<p>અંતે મનને પ્રકૃતિમાં - કે વિરૂધ્ધ માનવ
પ્રેમમાં કે પ્રભુમાં સ્થિર કરવાનું જ જીવન કર્તવ્ય રહે છે આપણું!</p>

<p>ગુજરાતી સાહિત્યમાં તમે અફવાઓ 'સાહિત્ય'
શબ્દથી જ..! કેટલા બધા આઘા પડી ગયા છે સામાન્ય માનવી અને શબ્દ આરાધકો!
પણ આજ પૂરતું.. ચાલો મારી સાથે કવિ કાન્તના, ગુજરાતી સાહિત્યમાં ઉત્તમોત્તમ ગણાતા
એક ચંદ્રોદયના કાવ્યની દુનિયામાં!</p>

<p>મોટેથી વાંચવા જેવું કાવ્ય છે- શબ્દ અને અર્થ
કરતાંય વધારે લય ને મેલોડીને પામવાના છે આપણે!</p>

<p>કવિ સાગર કિનારે ઉભીને સાગરના જલમાંથી ચંદ્રનો
ઉદય જોતાં કરે છે.</p>

<p>આજ મહારાજ</p>

<p>જલ પર</p>

<p>ઉદય જોઇને</p>

<p>ચંદ્રનો</p>

<p>હ્ય્દયમાં હર્ષ જામે</p>

<p>સ્નેહધન કુસુમવન</p>

<p>વિમલ</p>

<p>પરિમલ ગહન</p>

<p>નિજ ગગનમાંહી</p>

<p>ઉત્કર્ષ પામે</p>

<p>પિતા! કાળના</p>

<p>સર્વ સંતાપ શામે</p>

<p>નવલ રસ</p>

<p>ધવલ તવ</p>

<p>નેત્ર સામે</p>

<p>પિતા!</p>

<p>કાલના સર્વ</p>

<p>સંતાપ શામે!</p>

<p>સંસારના સુખ દુ:ખની પેલે પાર પરમાત્માના
ચરણે રાખવાની શાંતિની વાત છે અહીં કદાચ...</p>

<p>પણ ઉભા રહો..</p>

<p>આપણે કે કક્કો બારાખડીવાળા આટલા બધા
સિરિયસ થઇ જઇએ. કોક વાર પણ.. એ કઇ ચલાવી લેવાય ઝાઝું?</p>

<p>છેલ્લે ચંદ્રની અંદરના ડાઘ વિષેની એક હળવી
રચના.. એક ટીખળી કવિની!</p>

<p>મને ખબર છે</p>

<p>મારી પ્રિયાના</p>

<p>મુખની</p>

<p>ચંદ્રને</p>

<p>ઇર્ષ્યા આવે છે!</p>

<p>ચંદ્રના</p>

<p>દિલમાં</p>

<p>જે ડાઘ દેખાય છે</p>

<p>તે આ</p>

<p>અદેખાઇનો જ!</p>




<p><head>ઘરે બાહિરે</head></p>

<p><head>પુત્રનાં લક્શણ પારણામાં, વહુનાં બારણામાં અને
પુસ્તકનાં પ્રસ્તાવનામાં....</head></p>

<p>'ધી સાયકોલોજી ઓપ મેન્સ પોસીબલ ઈવોલ્યુશન'
હકીકતમાં માંડ સો-સવાસો પાનાંનું હોવાથી તેને પુસ્તક કરતાં પુસ્તિકા કહેવું
વધારે યોગ્ય લાગે છે તેમ છતાં આ સો પાનાં પણ એટલાં વિરલ છે કે
ગ્રંથાયલયોના સેંકડો ગ્રંથોનું પલ્લુ પણ તેમની સામે આસાનીથી ઊંચું થઈ જાય.
મિ.ગુર્જિફની સિસ્ટીમ અથવા તો ચોથા માર્ગ વિશેનું આ ટચૂકડું પુસ્તક જગતના અનેક
અભ્યાસીઓ, વિચારકો અને વિશેષ તો ચોથા માર્ગના સાધકો માટે એક અત્યંત
અધિકૃત 'મેન્યુઅલ' ગણાય છે. એક ઘણા ઊંચા ગજાના ગદ્યકાર તરીકે પી.ડી. યુસ્પેન્સ્કીએ
જે કરકસરથી શબ્દોનો તોલી તોલીને ઉપયોગ કર્યો છે તે તો જાણે બેમિસાલ છે જ પણ
મોટા ભાગના લેખકોમાં ક્યારેક ઉડીને આંખે વળગે એવી અને ક્યારેક ખટકે એવી બૌદ્ધિક
અપ્રામાણિકતાનો પણ આ પુસ્તકમાં સંપૂર્ણ અભાવ છે. બૌદ્ધિક અપ્રામાણિકતા શબ્દ દ્વારા અહીં
કોઈ લેખક-મહાશયનો અનાદર કરવાનો હરગીઝ આશય નથી. ચોથા માર્ગનો એ ટેકનિકલ શબ્દ
છે અને તેનો અર્થ થાય છે લેખનમાં સતત ડોકાતી સ્વલક્શિતા( સબ્જેક્ટીવીટી).ચેતનાની
ઉચ્ચતર કક્શાઓ જ્યાં સુધી હાંસલ ન થઈ હોય ત્યાં સુધી કોઈ પણ લેખકના
સર્જનમાં આ સ્વલક્શી તત્ત્વ તો રહેવાનું જ. યથાર્થલક્શી સર્જનો જગતમાં ઘણાં જૂજ છે.</p>

<p>જો કે એ ઘટના પણ અકસ્માત નથી કે આ પુસ્તક
યુસ્પેન્સ્કીએ મિ. જી.પાસે સાધના કર્યા પછી અને ખુદ આત્મસ્થ બન્યા પછી લખેલું છે.
જી.ને મળ્યા પહેલાં પણ પુસ્તકો તો તેમણે લખેલાં પણ હજુ તે પુસ્તકોમાં પેલા સ્વલક્શી
રંગો દેખાતા હતા. એથી પણ વધુ આશ્ચર્ય તો એ બાબતનું છે કે આત્મસ્થ બન્યા પૂર્વે
યુસ્પેન્સ્કીએ લખેલાં એ પુસ્તકોને જ આજના બૌદ્ધિકો હજુ વાગોળ્યા કરે છે અને
આત્મજ્ઞાન થયા પછી પોતાને લાધેલા આ જ્ઞાન તરફ દોરી જતી સીડીનાં પગથિયાં
બતાવતા આ નાનકડા પુસ્તકનું મનન કરવાનું વિશ્વમાં ઘણું ઓછું બન્યું છે. જગતના
વિચારકો અને બૌદ્ધિકો આજે કદાચ ટર્શીયમ ઓર્ગેનમ અને એ ન્યૂ મોડેલ ઓફ ધી
યુનિવર્સ વસાવતા કે વાંચતા હશે પણ ધી સાયકોલોજી ઓફ મેન્સ પોસીબલ
ઈવોલ્યુશનમાં ડોકિયું કરવાનું પણ કદાચ ટાળતા હશે.</p>

<p>સમગ્ર પુસ્તકની વાત આજે નથી કરવી. પણ
શીર્ષકમાં જ સૂચવ્યું છે તેમ પુસ્તકની પ્રસ્તાવનાના પ્રથમ વાક્યથી જ લેખકના બૌદ્ધિક
ખાનદાનનો પરિચય મળી જાય છે. સહેજ પણ ઉશ્કેરાટ, તનાવ, આત્મ-પ્રશસ્તિ કે મતાગ્રહની
નબળાઈઓથી સાવ જ મુક્ત આ પ્રસ્તાવના અને સમગ્ર પુસ્તક જો બૌદ્ધિક અને ભાવ કેન્દ્રોની ઉચિત
ઊંચાઈઓથી ગ્રહણ કરવામાં આવે તો કંઈક જુદાં જ પરિણામો આપે છે. અને હકીકતમાં
પ્રસ્તાવનાની શરૂઆત જ કંઈક આવા ભાવથી થાય છે. આધ્યાત્મિક સાહિત્યમાં આટલું તટસ્થ 'રીપોર્ટીંગ'
આજકાલ એક વસમી જણસ બની ગયું છે.</p>

<p>ઘણા જીવનમુક્તોની મૌખિક વાતોમાં ઘણી વાર
આવું નિષ્પક્શપાતીપણું અનુભવાય છે. આવા મનુષ્યો કદી પુસ્તકોમાંથી વાંચીને કે કોઈ
બીજાએ કહેલાં વાક્યોનું અર્થઘટન કરીને ગાડું નથી ગબડાવતા. તેમનાં ખુલી ગયેલાં
જ્ઞાનચક્શુઓને જે દેખાતું હોય છે તે જ તેઓ બોલતા હોય છે અને ઘણા મનુષ્યોના
જીવનમાં આમૂલ પરિવર્તન પણ લાવી દેતા હોય છે, કારણ કે જીવતા પાણીની જેમ તેમનું જ્ઞાન
પણ જીવતું હોય છે. ઓવરહેડ ટેન્કોમાંથી દદડતું જ્ઞાન હંમેશાં ડાયેરિયા કરે છે.
જીવનમુક્તો કદી તાર્કિક અસંગતિઓથી ડરતા નથી. માંડ બાવીસ-પચ્ચીસ વાક્યોની આ
પ્રસ્તાવનાનો પ્રારંભ કરતાં યુસ્પેન્સ્કી કહે છે કે મારાં પુસ્તકોના વાચકો તરફથી થોડાંક
વર્ષ પૂર્વે મને પત્રો મળવા માંડયા અને એ તમામ પત્રોમાં જે એક પ્રશ્ન સતત પૂછાયો
હતો તે એ હતો કે આ પુસ્તકો લખ્યા પછી હું શું કરી રહ્યો હતો? એટલે કે પુસ્તકો
લખ્યા બાદની મારી પ્રવૃત્તિ શી હતી?</p>

<p>લેખક જે પુસ્તકોની વાત કરે છે તે બે પુસ્તકો
૧૯૧૦ તથા ૧૯૧૨માં લખાયેલાં અને છેક ૧૯૨૦ તથા ૧૯૩૧માં અંગ્રેજીમાં પ્રસિદ્ધ થયેલાં.</p>

<p>વાચકોના આ પત્રોમાં પૂછાયેલા પ્રશ્નથી જ ખ્યાલ
આવી જાય છે કે લેખક કોઈ સાધારણ કોટિનો આદમી નથી, પુસ્તકો લખીને, ઈનામો
મેળવીને ઊંઘી જનારો મનુષ્ય નથી. તેનાં પુસ્તકોમાં જ કંઈક એવું ઈંગિત પડેલું છે જે
વાચકને એવું માનવા પ્રેરે કે પુસ્તકો લખ્યા બાદ લેખકે અલૌકિકની તેની ખોજ જારી રાખી
હોવી જોઈએ અને તે કદાચ તેની અંગત સાધનામાં અદ્રશ્ય પણ થઈ ગયો હોવો
જોઈએ.વાચકોની ઈચ્છા કદાચ આવા લેખકની ભાળ મેળવવાની પણ હોઈ શકે.</p>

<p>યુસ્પેન્સ્કી કહે છે કે હું આ પત્રોનો જવાબ
કદી નહોતો આપી શક્યો. મેં કદાચ એવો પ્રયાસ કર્યો હોત તો પણ જવાબ આપવામાં
મારે ગ્રંથો લખવા પડત. એટલે કે ઔપચારિક પ્રત્યુત્તરોની જેમ હું આ પત્રોનો એકાદ
બે વાક્યોમાં જવાબ આપી શકું તેવી સ્થિતિમાં નહોતો. પણ પત્રો લખનારા જે
મુમુક્શુઓ લંડનમાં વસતા હતા તે લોકોને મેં નિમંત્રણ પાઠવેલું અને તેમને માટે મેં
મારાં થોડાં વ્યાખ્યાનોનું આયોજન કરેલું. બે પુસ્તકો લખ્યા પછી મને જે જાણવા
મળેલું તથા એ પછીની મારી સાધના તથા પ્રવૃત્તિની દિશા વિશે મુમુક્શુઓના
સવાલોના ઉત્તરો આપવાનો તથા ખુલાસાઓ રજૂ કરવાનો મેં આ વ્યાખ્યાનોમાં પ્રયાસ
કરેલો.</p>

<p>ઘણી કિંમતી વાતો કરી છે યુસ્પેન્સ્કીએ આ
થોડાં વાક્યોમાં. પહેલી વાત તો એ કે બે પુસ્તકો લખાઈ ગયાં છે પણ પોતે જે
શોધતો હતો તે તેને મળ્યું નથી. એક મૂર્ધન્ય મુમુક્શુએ તેનાથી બનતી તમામ
બૌદ્ધિક જહેમત ઊઠાવીને, ચિંતન,મનન કરીને બે પુસ્તકોમાં પોતાની સમજ તો વ્યક્ત કરી છે
પણ હજુ કંઈક ખૂટતું લાગે છે. અને આ ખૂટતી કડીઓ તેને મિ.જી.સાથેની
સાધનામાંથી પ્રાપ્ત થઈ ગઈ છે. એટલે તો લેખક કહે છે કે મારાં પુસ્તકો લખાયા બાદ
મને જે જ્ઞાન કે નવું જ્ઞાન પ્રાપ્ત થયું તે વિશે મુમુક્શુઓ સાથે સહભાગી થવા જ લંડનના
ચાહકો માટે મેં એક વ્યાખ્યાનશ્રેણીનું આયોજન કર્યું.</p>

<p>૧૯૩૪માં આ ઘટના બની છે. પોતે જે સિસ્ટીમનો
અભ્યાસ અને સાધના કરી રહ્યા હતા તે સિસ્ટીમનો એક સાધારણ ખ્યાલ રજૂ કરવા
માટે યુસ્પેન્સ્કીએ પાંચ પ્રાસ્તાવિક વ્યાખ્યાનો તૈયાર કર્યાં. પોતે જે કેટલાક
સાધકો સાથે આ સિસ્ટીમને આત્મસાત કરવાના પ્રયાસો કરી રહ્યા હતા એ સાધનાની
કેટલીક અજમાયશી વાતો પણ તેમણે એ વ્યાખ્યાનોમાં વણી લીધી. યુસ્પેન્સ્કી કહે છે
કે મારા આ અધ્યયન તથા સાધનાની બધી વાતો એક,બે કે ત્રણ વ્યાખ્યાનોમાં સમાવી
લેવી અશક્ય હતી. એટલે હું હંમેશાં લોકોને સાવધ કરતો રહેતો કે એકાદ બે
વ્યાખ્યાનમાં હાજરી આપવાનો કોઈ અર્થ કે મતલબ નથી. કમસે ક્મ પાંચ અને વધુ સારી રીતે
તો કદાચ દસ વ્યાખ્યાનોમાં જ મારી સાધનાની દિશાનો વધુ ચોક્કસ ખ્યાલ આપવો શક્ય
છે.</p>

<p>પ્રસ્તાવનાને અંતે સ્થળનું નામ ન્યૂયોર્ક છે અને
સાલ છે ૧૯૪૫. એટલે કે ૧૯૩૪થી શરૂ કરીને ૧૯૪૫ સુધી લેખકે વ્યાખ્યાનોનો આ
સિલસિલો ચલાવ્યો છે. અને તેઓ કહે છે તેમ તેમણે ઘણી વાર એ વ્યાખ્યાનોમાં
સુધારો પણ કર્યો છે. વ્યાખ્યાનોની એક સર્વસામાન્ય વ્યવસ્થા લેખકને સંતોષકારક
લાગેલી. લેખકની ઉપસ્થિતિમાં કે અનુપસ્થિતિમાં એ પાંચ વ્યાખ્યાનો વંચાતાં અને
શ્રોતાઓ પ્રશ્નો પૂછી શકતા. આપવામાં આવેલી સૂચનાઓનું તથા સંકેતોનું પાલન
કરવાનો શ્રોતાઓ જો પ્રયાસ કરતા તો ઘણી ઝડપથી તેઓ મારી પ્રવૃત્તિની દિશા વિશે
કામચલાઉ સમજ કેળવી લેવામાં સફળ થતા હતા. અને આ સૂચનાઓને મોટે ભાગે સ્વનિરીક્શણ
તથા અમુક ચોક્કસ પ્રકરના સ્વ-અનુશાસન સાથે નિસ્બત રહેતી. યુસ્પેન્સ્કીને જો કે સતત એ
વાતનો ખ્યાલ રહેતો કે સિસ્ટીમના વિચારો સમાવી લેવા માટે પાંચ વ્યાખ્યાનો ગનિમત તો
નહોતાં જ. એટલે વ્યાખ્યાનો પછી જે કંઈ વિમર્શ અને ચર્ચાઓ થતી તેમાં તેઓ જે તે
મુદ્દાને વિગતે સમજાવતા,કેટલાક પ્રાસ્તવિક ખ્યાલોનો વિસ્તાર કરતા અને આ 'નવા જ્ઞાન' ના
સંદર્ભમાં શ્રોતાઓની સ્થિતિને શક્ય તેટલી સ્પષ્ટ કરવાનો પ્રયાસ કરતા.</p>

<p>યુસ્પેન્સ્કીની પ્રસ્તાવનાનો પ્રાણ હવે શરૂ થાય
છે.લેખક કહે છે કે વ્યાખ્યાનો દરમિયાન મેં જોયું કે મોટા ભાગના શ્રોતાઓની મુખ્ય
મુશ્કેલી એ હતી કે તેઓ 'નવી ચીજો' વિશે સાંભળી રહ્યા છે એવો એહસાસ જ તેમને
નહોતો થતો.શ્રોતાઓને એવું નહોતું લાગતું કે આ વિચારો અમે અગાઉ ક્યારેય
સાંભળ્યા નથી. અલબત્ત, પોતાના આ પ્રકારના માનસિક વલણની કોઈ સ્પષ્ટ વ્યાખ્યા આપવા કે
તેનું વર્ણન કરવા તેઓ સક્શમ નહોતા પણ હકીકત એ હતી કે તેઓ જે કંઈ સાંભળી રહ્યા
હતા તેને રદિયો આપવાનો એક આંતરિક પ્રયાસ તેમના દિમાગમાં સતત ચાલતો રહેતો અને
તેઓ જે કોઈ ભાષામાં વિચારવા ટેવાયેલા હતા તે જ ભાષામાં આ નવા ખ્યાલોને પણ
ઢાળી દેવાનું તેમનું વલણ રહેતું.</p>

<p>યુસ્પેન્સ્કી કહે છે કે મારા શ્રોતાઓની આ
નબળાઈને ગણતરીમાં લેવી મારા માટે બેલાશક અશક્ય હતું.પોતે કોઈ નવી ચીજ, નવો વિચાર
સાંભળી રહ્યો છે એવો અહેસાસ થવો એ કંઈ સરળ બાબત નથી. આપણે એ જ જૂની તરજો, એ
જ જૂની ઘરેડો અને એ જ ઘસાઈ ગયેલી થાળીઓથી એટલા ચુસ્ત રીતે બંધાઈ ગયા
હોઈએ છીએ, એ જ ઊંડા ચીલાઓ અને ચાસમાં ચાલવા એટલા બધા ટેવાઈ ગયા હોઈએ
છીએ કે કોઈક તદ્દન નવી ચીજનું અસ્તિત્વ પણ હોઈ શકે એવી આશા પણ આપણે ગુમાવી
દીધી છે. અને પછી તો આવી કોઈ નવી ચીજના અસ્તિત્વમાંથી આપણો વિશ્વાસ જ સદંતર
ઊઠી જાય છે.</p>

<p>સમગ્ર સિસ્ટીમની વાત યુસ્પેન્સ્કીએ જાણે કે અહીં
સંક્શિપ્તમાં કરી દીધી છે. તે કહે છે કે મનુષ્ય જ્યારે કોઈ નવી ચીજ વિશે સાંભળે
છે ત્યારે તે એને જૂનીની પંગતમાં જ બેસાડી દે છે અથવા તો તે એવું વિચારે છે કે
આ નવી ચીજ પણ જૂનીના સંદર્ભમાં જ સમજાવી શકાય તેમ છે યા જૂનીની ભાષામાં જ તેનું પણ
અર્થઘટન શક્ય છે. તદ્દન નવા વિચારોની સંભાવના તથા તેમની આવશ્યકતાનો સાક્શાત્કાર એ ઘણી
દુષ્કર પ્રક્રિયા છે અને સમયાંતરે ચીલાચાલુ તમામ મૂલ્યોની પુન:આકારણી પણ એટલી જ
અનિવાર્ય બને છે.</p>

<p>અંતિમ ફકરામાં લેખક કહે છે કે તમે નવા
વિચારો સાંભળશો એની કોઈ બાંહેધરી હું છેક પ્રારંભથી તો નથી જ આપી
શકતો.નવા વિચારો એટલે એવા વિચારો જે અગાઉ કદી તમે નથી સાંભળ્યા. પણ જો તમે
થોડી ધીરજ ધરી શકશો તો તમને ઘણા ટૂંકા સમયમાં એવું લાગવા માંડશે કે
આ વ્યાખ્યાનોમાં તદ્દન નવા વિચારો રજૂ થઈ રહ્યા છે. કંઈક નવું દેખાવાનો પ્રારંભ જો
થાય તો હું એવી પ્રાર્થના કરીશ કે તમે એ ક્શણિક સાક્શાત્કારને ચૂકી ન જશો અને તમારા
મનમાં જે કંઈ જૂનો માલસામાન પડયો છે તેની સાથે આ નવી ચીજની ભેળસેળ ન કરી દેશો.</p>

<p>એક પ્રગલ્ભ, આત્મસ્થ માસ્ટરની પ્રસ્તાવના અહીં પૂરી
થાય છે. એ પછી મિ.જી.ની સિસ્ટીમમાં જે એસોટેરિક, યથાર્થલક્શી જ્ઞાનનો પોતે અભ્યાસ
કરી રહ્યા છે તેની તમામ મૂળભૂત માહિતી યુસ્પેન્સ્કીએ ફક્ત સોએક પાનાંમાં જ સમાવી
લીધી છે.</p>

<p>બુનિયાદી રહસ્ય છે નવા વિચારોનું. કોઈ પણ
મૂર્ધન્ય વિચારકનું પુસ્તક વાંચતાં જ ખ્યાલ આવી જશે કે પોતાની વાતનો પાયો તે
અગાઉના જ કોઈ ખંડિયેર ઉપર ચણતો જોવા મળે છે. જી.ની સિસ્ટીમમાં કોઈ વ્યક્તિનું મહત્ત્વ
જ નથી. ચોથા માર્ગના પ્રારંભમાં જ યુસ્પેન્સ્કીએ પોતાની સ્થિતિની સ્પષ્ટતા કરતાં કહ્યું છે
કે હું જે સિસ્ટીમની વાત કરવા જઈ રહ્યો છું તે સિસ્ટીમ મને કોઈ મારા કે મનુષ્યજાતિના
પૂર્વજ તરફથી મળેલી નથી. એવું જ જો હોત તો આ સિસ્ટીમ ઉપર પણ બીજી અનેક સિસ્ટીમોની
જેમ ઈતિહાસની ધૂળના રાફડા જામી ગયા હોત. આ સિસ્ટીમ ખરેખર તો કોઈ સંસારી મનુષ્યના
દિમાગમાંથી આવી જ નથી. કોઈ 'હાયર માઈન્ડ'નું એ પ્રોડક્શન છે. મનુષ્યો તરીકે આપણે
તો ફક્ત આ સિસ્ટીમના ખ્યાલોને સમજવાનો, તેમને આત્મસાત કરવાનો તથા તેમની સત્યતાની
ચકાસણી કરવાનો જ પ્રયાસ કરી શકીએ. આ વિચારોને આપણા સંકુચિત તર્કથી પડકારવાનો
કોઈ અર્થ નથી. બૌદ્ધિક અને ભાવકેન્દ્રમાં જમાનાઓથી ભરી રાખેલા કાટમાળ સાથે આ નવા
ખ્યાલોને ભેળવી દેવાનો કે તેમની તુલના કરવાનો અભરખો જાગે છે ત્યારે મનુષ્ય એક ઘણી
મોટી સંભાવના ચૂકી જાય છે. આવું થવા માટેનું કુલ કારણ એ છે કે મનુષ્યનું બૌદ્ધિક
મન અપરિચિત ચીજનો સામનો કરતાં ડરે છે. મનુષ્યના ભાવકેન્દ્રની પણ આ જ સ્થિતિ છે.
અંધારી રાત્રે ઘરના દરવાજે ટકોરા મારતા અજાણ્યા આગંતુકથી મનુષ્ય જમાનાઓથી
ગભરાતો રહ્યો છે. મનુષ્ય-યંત્રનાં તમામ કેન્દ્રો અજાણી અને અજ્ઞાત ચીજો તરફ આવો જ વ્યવહાર
કરતાં રહ્યાં છે, તેમનું આ જ પ્રસ્થાપિત વલણ રહ્યું છે.અખતરો અને પ્રયોગ એ જિજ્ઞાસુ
મનનું લક્શણ છે. ખતરાને આમંત્રણ આપનારૂં મન જ અખતરો કરી શકે.</p>

<p>બૌદ્ધિક મનનો યુગોજૂનો પ્રમાદ પણ પ્રયોગમાં
આડે આવે છે. એટલે તો આપણે જોઈએ છીએ કે કહેવાતા આધ્યાત્મિક કે દાર્શનિક સાહિત્યમાં
પ્રચૂર માત્રામાં દાખલા અને દ્રષ્ટાંતો દ્વારા અમુક જટીલ દલીલોનું ખંડન યા મંડન કરવાના
મરણિયા પ્રયાસો થાય છે અને મનુષ્યોને એક પ્રકારના આત્મસંતોષનો ઓડકાર આવે છે.
અધ્યાત્મ એ ખંડ સમયની, અથવા તો વધુ સાચી રીતે કહેવું હોય તો, સમયની અંદર ઘટતી
પ્રવૃત્તિ જ નથી. આત્મ-સ્મરણનું સમયપત્રક ન હોય. સમયની અંદર જે ઘટે છે કે ઘસાય છે તે
તો શરીર છે. પણ શરીરની અંદર જ શરીરની પેલે પારની પ્રવૃત્તિઓ ચાલી શકે યા ચલાવી
શકાય અને આ દેખીતા વિરોધાભાસનું સમાધાન વ્યક્તિ જ્યાં સુધી ખુદ ન
કરી શકે ત્યાં સુધી તો તાર્કિકતાના વિષચક્રમાંથી મુક્ત થવાનો કોઈ ચાન્સ નથી. એ
વિરોધાભાસનું એક માત્ર તર્કશુદ્ધ સમાધાન એટલે જ આત્મ-સ્મરણ. એ સિવાય તો
જન્મ અને મૃત્યુ એક જ ચીજ છે એવું પોપટિયું રટણ પાઠશાળાના છાત્રો ભલે કરતા રહે પણ
એ બન્ને અજ્ઞાત બિંદુઓની અકળામણથી છૂટકારો મેળવવો નામુમકીન છે.</p>

<p>યુસ્પેન્સ્કીએ એક ટચૂકડી પ્રસ્તાવનામાં કહી શકાય
એટલું કહી દીધું છે અને તે પણ એક જવાબદાર શિક્શકની ભાવના તથા કરૂણાથી. મુશ્કેલી એ
છે કે મનુષ્ય દુ:ખોથી ભાગવા મથે છે, દૂર જવા મથે છે, મેદાન છોડી દેવા માગે
છે. કોઈક વાર પૈસાની પ્રાપ્તિ થતાં, દીકરા કે દીકરીને સારૂં ઘર મળતાં કે આરોગ્યમાં
સુધારો થતાં મનુષ્યને ક્શણિક સુખનો એહસાસ થાય છે પણ પુન: એ જ ભવરોગ
તેને સતાવવા માંડે છે. મનુષ્ય ભૂલી જાય છે કે ખુદ રોગ જ તેના રોગનો એક માત્ર
ઈલાજ, એક માત્ર ઓસડ છે. દુ:ખનું ઓસડ દહાડાનું વૈદુ તો વ્યવહારપુરૂષોએ
સૂચવેલી વચગાળાની રાહત છે, કાયમી ઈલાજ નથી. વેદનાને હસ્તામલકવત્ જોઈ લઈને તેનું
રૂપાંતર કરતાં ન આવડે તો પુસ્તકોમાં લખેલાં સૂત્રોની બાળાગોળીથી તો દરદ ઉલટાનું
વકરવાની સંભાવના છે. બુદ્ધ, રમણ, જિસસ જેવા ખેલાડીઓએ વેદના સાથે દોસ્તી
બાંધીને જ, ચીજોના મૂળ સુધી પહોંચીને જ ભવરોગનો ઈલાજ કર્યો છે.
મિ.જી.એ અને પછી યુસ્પેન્સ્કીએ પણ આ જ ભવરોગનું બિલકુલ પ્રામાણિક નિદાન કર્યું છે અને
સારવાર સૂચવી છે. પણ છેવટે તો મિ. જી. તેમની લાક્શણિક શૈલીમાં કહે છે તેમ જો રોગ
સાથે જ દોસ્તી ચાલુ રાખવાનો નિર્ણય કર્યો હોય તો, આપણે જે કરી રહ્યા છીએ તેમાં
જ જિંદગીની ઈતિશ્રી દેખાતી હોય તો અધ્યાત્મ, અધ્યાત્મનો ઘોંઘાટ કરીને
અડોશીઓપડોશીઓની ઊંઘ હરામ કરવાની ગુસ્તાખી કરવા જેવી નથી.</p>




<p><head>લીડર</head></p>

<p><head>તંત્રવાહકોને અચ્છો સબક</head></p>

<p>કાયદો કોઇને છોડતો નથી. કાયદાના હાથ
લાંબા છે. એવી લોક-આસ્થા હમણાં ડગમગવા લાગી હતી. તે ઝારખંડ મુક્તિ મોરચાના
સભ્યોને લાંચના બહુચર્ચિત મામલે આવેલા ખાસ અદાલતના ચુકાદાથી પુન:સ્થાપિત થઇ છે.
ભૂતપૂર્વ વડાપ્રધાન નરસિંહ રાવ અને તેમના પ્રધાનમંડળના સાથી બુટા સિંહને ત્રણ
ત્રણ વર્ષની કેદ તથા બબ્બે લાખ રૂપિયાના દંડની સજા જાહેર થઇ છે. ચુકાદા સામે ૮મી નવેમ્બર
સુધીમાં આપીલની છૂટ અપાઇ હોવાથી આખરી અંજામ જે આવે તે ખરો. પ્રવર્તમાન
ચુકાદાને લાગેવળગે છે ત્યાં સુધી એટલું સિદ્ધ થયું છે કે કોઇ કેસને સરકારી
તપાસતંત્રો દ્વારા યોગ્ય રીતે રજૂ કરવામાં આવે તો અન્ય ખોટાં કામ કરનારાઓને
બોધપાઠ મળે એ રીતે અદાલતોમાં અંજામ આપી શકાય તેમ છે. નાના-મોટાના ભેદભાવ
વગર આ જાતના ચુકાદા સમાજજીવનની શુદ્ધતા માટે ઉપકારક બની રહે છે. એ સિદ્ધ થતું હોઇ એમ
જરૂર કહી શકાય કે ન્યાય પરત્વેની લોકોની આસ્થાને ઝામુમો લાંચ કેસના આ ચુકાદાએ દ્રઢ
બનાવી છે. ભારતમાં વડાપ્રધાનપદ ભોગવી ચૂકેલ ટોચની વ્યક્તિને આ રીતે સજા થાય એ
પોતે જ નિર્વિવાદ રીતે એક ઐતિહાસિક ઘટના ગણાશે. નરસિંહ રાવને ત્રણ વર્ષની સજા થઇ.
તે સાત વર્ષની થવી જોઇતી હતી કે પ્રતીકાત્મક સજા રૂપે છ માસની પૂરતી ગણાત. એવા મુદ્દા
ઘણા વિવેચકો વાગોળે છે. સાથે એવી વાતોના ઢોળ પણ ચડાવતા હોય છે કે તેમને
જેલમાં રખાશે કે કોઇ ગેસ્ટ હાઉસમાં સુખરૂપ બંધનાવસ્થાની સગવડ કરાશે. આવી આડ
વાતો અર્થહીન છે. સીધી ને સટ એટલી વાત મહત્ત્વની બને છે કે શ્રી રાવની રાજશૈલીને
લોકોએ ચૂંટણી દરમિયાન જાકારો આપી દીધો હતો. હવે એક પ્રકારનો સબક પૂરો
પડે એવો સંદેશ આ ચુકાદામાં ધ્વનિત થઇ રહ્યો છે. સબક એ છે કે શાસન માટે લોકોએ
નક્કી કરેલા પ્રતિનિધિઓ કાયદાથી પર નથી. તેણે નિષ્ઠાપૂર્વક ભ્રષ્ટાચારમુક્ત વહીવટ
પૂરો પાડવામાં પથદર્શક ભૂમિકા ભજવવાની છે. ગમે તે ભોગે સત્તા સચવાઇ રહે એવા
ઉપાયો વિચારવાના નથી.</p>

<p>એક અચ્છા સબકરૂપ આ સજામાં શ્રી રાવના કૃત્યથી
તેમના પક્શ, સાથીઓ કે અન્ય સભ્યોને ફાયદો થયો હોય તો પણ જે તે કૃત્ય માટે
દોષિત તો વ્યક્તિ પોતે જ ગણાય. આ સંદર્ભમાં ઝામુમો લાંચ કાંડ સર્જાયો ત્યારના
રાજકીય હવામાનને યાદ કરવા જેવું છે. 'સહારા' ટીવીના 'પ્રતિદિન' કાર્યક્રમની સમીક્શામાં
'હિન્દુસ્તાન ટાઇમ્સ' અખબારના વરિષ્ઠ સંપાદક શ્રી આનંદ સહાયે એ વેળાની રાજકીય સ્થિતિને
સરસ રીતે યાદ કરાવી હતી. તેમના કહેવા પ્રમાણે ૧૯૯૩માં એ વેળાની રાવ સરકાર સામે
વિરોધ પક્શોએ અવિશ્વાસની દરખાસ્ત રજૂ કરી હતી. રાવ સરકાર લઘુમતિમાં હતી. એટલે
સરકારનું પતન નિશ્ચિત હતું. અવિશ્વાસની દરખાસ્ત વિરોધ પક્શોએ દાખલ તો કરાવી
દીધી. પણ પછી તેમાંના કેટલાક સભ્યોને ચિંતા થવા લાગી હતી કે સરકારના પતન પછી
વૈકલ્પિક સરકાર રચવાની અશક્તિને લીધે વચગાળાની ચૂંટણી આવી પડે તો તે લડી
લેવાનું જોખમ હતું. વિરોધ પક્શના કેટલાક સભ્યો જ્યારે આવું માનતા હોય ત્યારે
શાસક પક્શ કૉંગ્રેસ તો કોઇ પણ ભોગે સરકાર બચી જાય એવું ઇચ્છતો જ હોય. આથી અવિધિસર
રીતે સંસદના મધ્યસ્થ હોલમાં એવી વાતો ચાલતી હતી કે ગમે તેમ કરીને રાવ સરકાર બચી
જાય તો સારું. કેટલાક અહેવાલો વિરોધ પક્શોને ટાંકીને સૂચવતા હતા કે
અવિશ્વાસની દરખાસ્ત રજૂ કરવાની અમે અમારી ફરજ બજાવી છે. હવે સરકારે પોતાના શાસનને
બચાવી લેવાની ફરજ બજાવવાની છે. આમાં સંસદસભ્યોની સોદાબાજીનો ખુલ્લો સંકેત હતો.
એ જોતાં શ્રી રાવની જગ્યાએ અન્ય કોઇ વડાપ્રધાન હોત અથવા બીજા કોઇ પક્શની સરકાર
હોત તો પણ રૂપિયા-પૈસાના વ્યવહારથી નહિ તોયે સરકારી સ્થાન અને મોભા જેવી આપ-લે
જેવા અયોગ્ય તરિકા અજમાવીને શાસન સંભાળી રાખવાના પ્રયાસો થયા હોત. આવા પ્રયાસોને
એકાદ અણધાર્યા આંચકારૂપ શોર્ટ બ્રેક મારવાની જરૂર હતી અને તે હેતુ ઝામુમો લાંચ
કેસના ચુકાદામાં સારી રીતે સિદ્ધ થયો હોવાનો અહેસાસ થાય છે.</p>

<p>ઝારખંડ મુક્તિ મોરચા સાંસદ લાંચ કાંડમાં
સાંપડેલ આ ઐતિહાસિક ચુકાદાથી રાજકારણમાં શુદ્ધિ અને નૈતિકતાનું પુન: સ્થાપન થઇ
શકશે કે કેમ એ પ્રશ્ન બાજુ પર રાખીને કહીએ તો તેણે લોકોમાં ન્યાય અંગેની આસ્થાને
મજબૂતી જરૂર બક્શી છે. લોકોને એક જાતનું આશ્વાસન સાંપડયું છે. રાજકીય તંત્રવાહકો પર
તેની કેવી અસર પડે છે તે ભવિષ્ય બતાવશે. અદાલતે પોતાની ભૂમિકા બરાબર ભજવી છે.
રાજકીય નેતાઓ અથવા શાસનવાહકો પોતાની ભૂમિકા એવી જ શુદ્ધ બુદ્ધિથી ભજવી જાય તો
પ્રજાતંત્ર બરાબર દીપી ઊઠે. એ આ ચુકાદાનો એક મોટામાં મોટા સબક બની રહે છે.</p>

<p>અદાલતની સજા દોષિતને બોધબાઠ માટે
હોવા ઉપરાંત એવા દોષ આચરતા લોકોને પણ સુધરી જવાના બોધપાઠરૂપ બની
રહે. તે ઓછું મહત્ત્વનું નથી.</p>




<p><head>નેટવર્ક</head></p>

<p><head>આપણે માનીએ કે ન માનીએ પણ ''કરેલા
કર્મોના ફળ અહીં જ ભોગવવા પડે છે'' એ સનાતન સત્યને લાલુથી માંડી જયલલિતા
સુધીનાએ ફરી સત્ય કરી બતાવ્યું છે</head></p>

<p><head>નરસિંહરાવ- જયલલિતાના કિસ્સા પરથી.. આજના
આપણા બધા જ સત્તાધારીઓની આંખો ખુલશે ખરી ?</head></p>

<p><head>પક્શ પલટાઓની અને જમીનોની સોદાબાજી
કરનારાઓ આજના સત્તાધારીઓ અને રાજકારણીઓ ચેતે !</head></p>

<p>જે ત્રણ મજબૂત સ્તંભો ઉપર આપણી લોકશાહી
ઊભેલી અને ટકેલી છે એમાંનો રાજકીય પક્શો રાજકીય નેતાઓ, સત્તાધારીઓ,
સરકાર ચલાવનારાઓ વગેરેના બનેલા સ્તંભનો નાશ કરે જ છૂટકો છે... આપણી
લોકશાહીને, આપણા દેશને, આપણી જનતાને બચાવવી જ હશે તો આ સ્તંભનો સંપૂર્ણ નાશ
કરીને એની રાખ કર્યા વિના છૂટકો નથી.</p>

<p>બાકીના જે બે સ્તંભો ઉપર આપણી લોકશાહી છે
એમાં પત્રકારત્વ અને ન્યાયત્વ બંનેને સડો નથી લાગ્યો અને એટલું આપણા દેશનું...
આપણી લોકશાહીનું સદ્નસીબ !</p>

<p>આ બન્ને ક્શેત્રો જાગૃત છે અને એટલે પેલા
રાજકારણીઓ અને સત્તાધારીઓ થોડા ઘણા પણ અંકુશમાં રહે છે.. બાકી તો એ
બેફામ બનેલા છે.</p>

<p>આજના આપણા રાજકારણીઓ અને
સત્તાધારીઓ જે રીતે બેફામ બન્યા છે... એ ઉપરથી લાગે છે કે.. સવણ કે બીજા કોઈ
રાક્શસ એવા નહીં હોય ! અખબારોનો એમને થોડોઘણો પણ ડર રહ્યો છે અને અખબારો
શું કરી શકે છે એનો પરચો પણ એ સત્તાંધોને અવારનવાર થતો રહે છે.</p>

<p>જ્યારે ન્યાયતંત્રની કેટલીક મર્યાદા અને વિલંબ
હોય છે. એમ છતાં ન્યાયતત્રમાં હોદ્દા ઉપર આવેલા કેટલાક વ્યકિતઓએ દેશ, જનતા અને
સમાજને લક્શમાં રાખીને હમણાં હમણાં એવા નિર્ણયો લેવા માંડયા છે કે... જે ખરેખર
તો... સરકારોએ લેવા જોઈતા હોય પરંતુ સરકાર (એટલે પ્રધાનો, મુખ્ય
પ્રધાનો, સેક્રેટરીઓ, અમલદારો, કારકુનો વગેરે) સડેલી હોવાથી જનહિત અને
દેશહિત પ્રત્યે દુર્લક્શ સેવે છે એટલે ન્યાયતંત્રે આંખ ખોલીને ન્યાયની તલવાર વીંઝવી પડે
છે. (દિલ્હીમાં પ્રદુષણ ફેલાવતા વાહનો અંગે અદાલતોએ કરેલા હુકમો, અમદાવાદમાં બે
ત્રણ વર્ષ પહેલાં ખાડા ટેકરાવાળા રસ્તાઓ હતા ત્યાંથી માંડી હમણાં મકાનોના
બાંધકામમાં ગેરરીતીભરી આપેલી છૂટછાટો, વીરપન્નને અને એના ૧૦૦ જેટલા
સાગરીતોને છોડવાનો ત્યાંની સરકારોએ કરેલો નિર્ણય જેવા સેંકડો દાખલાઓ છે)</p>

<p>આવા જે બે નિર્ણયો ન્યાયતંત્રે આપ્યા એ
ઐતિહાસિક અને ક્રાંતિકારી હોવા સાથે આપણા દેશની લોકશાહીનો ઝંડો ઊંચો રાખનારા
છે.</p>

<p>આ નિર્ણયોમાં એકમાં આપણા દેશના એક માજી
વડાપ્રધાનને અને બીજામાં આપણા દેશના એક માજી મુખ્યપ્રધાનને... એવા કારણોસર
(ગુનાસર) સજા ફરમાવવામાં આવી છે કે જે ગુનાઓ આપણે ત્યાં સત્તા પર બેઠેલાઓ
દરરોજ આચરે છે.. જાણે એમને કોઈ પૂછનાર નથી અને તેઓ સત્તામાં બેઠા છે એટલે ગમે
તેટલું ગુનાઈતભર્યું કામ કરવા મુખત્યાર છે !</p>

<p>કોર્ટોએ જુદા જુદા કિસ્સામાં માજી
વડાપ્રધાનને અને માજી મુખ્યપ્રધાનને જે સજા આપી છે એ ઉપરથી આજના આપણા
પ્રધાનોએ અને મુખ્યપ્રધાનોએ ચેતી જવાનો વખત આવી ગયો છે.</p>

<p>એટલું તો નક્કી છે કે.. જેઓ કોઈપણ આજે
સત્તામાં બેઠા છે તેઓ ત્યાં ખુરશી પર યાવદ્ચન્દ્રદિવાકરૌ બેસી શકવાના નથી... જે
જનતાએ એમને ખુરશી પર બેસાડયા છે એ જ જનતા એમને ખુરશી પરથી હાથ પકડીને નીચે
ઉતારી શકે છે. (ગુજરાત અને ઉત્તર પ્રદેશની તાજેતરની થએલી ચૂંટણીઓમાં આ અનુભવવા
મળ્યું) એટલે જેમ હમણાં કોર્ટ દ્વારા સજા પામેલા માજી વડાપ્રધાન નરસિંહરાવ અને માજી
મુખ્ય પ્રધાન જયલલિતા સત્તામાં નહોતા ત્યારે એમણે સત્તામાં હતા એ વખતે કરેલા
કૃત્યો.. કરેલા ગુનાઓ બદલ સજા થઈ શકી એમ આજના પ્રધાનો, મુખ્ય પ્રધાનો
વગેરે સત્તામાં બેઠેલાઓ કાલે સત્તામાં નહીં હોય ત્યારે એમણે ભૂતકાળમાં કરેલા
ગુનાઓ સબબ સજા પામી શકે છે.</p>

<p>એટલે, જેઓ સત્તામાં આજે છે એ દરેકે
કોર્ટોના આ ચુકાદાઓથી ચેતી જવાની જરૂર છે.. એટલું જ નહીં પણ સત્તામાં રહીને
કરેલા પાપોનું પ્રાયશ્ચિત કરવાની પણ જરૂર છે.</p>

<p>માજી વડાપ્રધાન નરસિંહરાવ સામેનો કેસ
થોડોક વિચિત્ર અને વિવાદાસ્પદ છે. એક તો, આ આખો કેસ નરસિંહરાવ સરકારને
૧૯૯૫-૯૬માં લોકસભામાં મતદાન વખતે બચાવવા માટે ઝારખંડ મુક્તિ મોરચાના ચાર સંસદ
સભ્યોને લાંચ આપીને ત્યારના વડાપ્રધાન નરસિંહરાવે ખરીદેલા.. એને લગતો છે.
લાંચના કેસમાં નિયમ એવો છે કે લાંચ આપનાર અને લાંચ લેનાર બન્ને ગુનેગાર ગણાય..
છતાં આ કેસમાં ઝારખંડ મુક્તિ મોરચાના જે સંસદ સભ્યોએ લાંચ લીધેલી એમને
છોડી મૂકવામાં આવેલા કારણકે... ''લાંચ લેનારાઓ ઉપર કોઈ જ જાતનું કામ ચલાવી
શકાય નહીં...'' એવું કહેવામાં આવ્યું ! બીજુંા, તેઓ ''સંસદસભ્યો હોવાથી એમને
ખાસ રક્શણ કાયદાનું મળે છે'' એટલે પણ એમને છોડી મૂકવાનો નિર્ણય લેવાયો !</p>

<p>આમ, લાંચ લેનારાઓને છોડી મૂકવામાં આવ્યા
પછી લાંચ આપનારા સતીશ શર્મા, વીરપ્પા મોઈલી, ભજનલાલ વગેરેને પણ છોડી મૂકવામાં
આવ્યા !</p>

<p>આમ, જેઓ દસ્તાવેજી ગુનેગારો હતા એમને
છોડી મૂકવામાં આવ્યા અને પછી એ ચાર સભ્યોને ફોડવાનો જેની ઉપર આરોપ મૂકવામાં
આવેલો અથવા એ સમગ્ર કૌભાંડ માટે જેમને જવાબદાર ગણવામાં આવેલા એવા માજી વડાપ્રધાન
નરસિંહરાવને ગળામાંથી પકડવામાં આવ્યા.</p>

<p>એ વખતે જ્યારે નરસિંહરાવ વડાપ્રધાન હતા
અને આ લાંચ પ્રકરણમાં એમનો સીધો હાથ નહોતો પરંતુ ઝારખંડ મુક્તિ મોરચાના
(જે.એમ.એમ.) ચાર સભ્યોના કારણે (પક્શ પલટાના કારણે) એમની સરકાર બચી ગઈ ત્યારે
અત્યારના વડાપ્રધાન અટલબિહારી બાજપેયી વિરોધ પક્શના નેતા હતા.</p>

<p>વિરોધ પક્શના નેતા તરીકે અટલ બિહારી
બાજપેયીએ ત્યારે સંસદમાં આ લાંચ કેસ સામે ઉહાપોહ કરવામાં આગેવાની લીધેલી.</p>

<p>બાજપેયીએ ૧૯૯૬માં લખનૌમાં આ પ્રકરણના
અનુસંધાનમાં એક પ્રેસ કોન્ફરન્સ રાખેલી. ત્યાં એમણે જાહેર કરેલું કે ઝારખંડ
મુક્તિ મોરચાના સભ્ય શૈલેન્દ્ર મહાતોએ પોલિસ કસ્ટડીમાં સવાલજવાબ દરમ્યાન નરસિંહરાવનું
નામ આપ્યું છે. (નામ તો... ગમે તે માણસ ગમે તેનું આપે એટલે શું કોઈ ગુનેગાર થઈ
જાય ?) ત્યાંથી તેઓ બીજા દિવસે ભોપાલ ગયા.. ત્યાં પણ એમણે આ જ વાત પત્રકારો સમક્શ
ઉચ્ચારેલી અને ત્યાંથી બીજા જ દિવસે તેઓ દિલ્હી ગયેલા અને ત્યાં એમણે પત્રકાર પરિષદ
બોલાવી.</p>

<p>૧૯૯૬ના ફેબ્રુઆરીની ૨૬મી તારીખે બાજપેયીએ
રામજેઠમલાણી સાથે એક સંયુક્ત પત્રકાર પરિષદ યોજી જેમાં ઝા.મુ.મો.ના સંસદસભ્ય
શૈલેન્દ્ર મહાતોને હાજર રાખવામાં આવ્યા અને ત્યાં એમણે કબુલ કર્યું કે... ૧૯૯૩ના ૨૮મી
જુલાઈએ લોકસભામાં અવિશ્વાસનો ઠરાવ ઉડી ગયા પછી રૂપિયાની અદલાબદલી થએલી.
(અવિશ્વાસનો એ ઠરાવ ૧૪ મતોની બહુમતિથી ઉડી ગયેલો)</p>

<p>એ પછી આ બાબતમાં સી.બી.આઈ.ને તપાસ
સોંપવામાં આવેલી પરંતુ એ વિષેનું કામકાજ ચાલતું જ નહોતું આથી બાજપેયી જ્યારે
પહેલીવાર વડાપ્રધાન ૧૩ દિવસ માટે થયા ત્યારે એમણે સી.બી.આઈ.ને હુકમ કરેલો
કે.. ઝા.મુ.મો. લાંચ કેસમાં ચાર્જશીટ દાખલ કરવામાં આવે એટલે ૧૯૯૬ના ૧૧ જૂને
નરસિંહરાવ અને બીજાઓ વિરૂદ્ધ સી.બી.આઈ.એ ચાર્જશીટ દાખલ કર્યું.</p>

<p>નરસિંહરાવની સરકાર ૧૯૯૧ થી ૧૯૯૬ સુધી
સત્તામાં રહેલી... એ દરમ્યાન જે કંઈ કૌભાંડો થયેલા એની સામે ભાજપે ઝુંબેશ
ચલાવેલી.. દા.ત. જાહેર ક્શેત્રના ખાનગીકરણ (ડીસ ઈન્વેસ્ટમેન્ટ)માં થયેલા રૂા. ૩૦૦૦
કરોડનું કૌભાંડ, શેર બેન્કનું રૂા. ૫૦૦૦ કરોડનું કૌભાંડ, રૂા. ૧૩૩ કરોડનું
યુરીયા કૌભાંડ, શેરબજારનું રૂા. ૬૦૦૦ કરોડનું કૌભાંડ, રેલવેનું રૂા. ૫૦૦૦ કરોડનું
કૌભાંડ, સી.આર.બી.નું રૂા. ૧૦૦૦ કરોડનું કૌભાંડ અને રૂા. ૮૦૦૦ કરોડનું
ગોલ્ડસ્ટાર કૌભાંડ વગેરે વિષે ભાજપે ખૂબ ઉહાપોહ કરેલો.</p>

<p>આ એક પણ કૌભાંડ પુરવાર થયા નહોતા પરંતુ
ભાજપે એ વિષે ચલાવેલી ઝુંબેશનો એને ચૂંટણીમાં લાભ મળ્યો. એ પછી નરસિંહરાવ
સામે જે કેસ ચાલ્યા એમાં લાખુભાઈ પાઠકવાળો કેસ હજી ઊભો છે પરંતુ ઝા.મુ.મો.ના
કેસમાં ચુકાદો આવ્યો પરંતુ ઝા.મુ.મો.ના જે સભ્યોએ લાંચ લીધેલી અને જેઓ
અત્યારે કેન્દ્રની મોરચા સરકારના સભ્ય છે તેઓ છૂટા થઈને લહેરથી ફરે છે.. તેમ જ જેમણે
લાંચ આપેલી અથવા રૂપિયા વહેંચેલા તેઓ પણ છૂટા હરેફરે છે. </p>

<p>દુનિયાના ઈતિહાસમાં આવું પહેલી જ વાર બન્યું
છે કે લાંચ લેનાર અને લાંચ દેનાર બન્ને લીલા લહેર કરે.</p>

<p>આ ચુકાદાએ, બાકી આપણા દેશના રાજકીય
ક્શેત્રમાં ખળભળાટ મચાવી દીધો છે. જો કે કોંગ્રેસ પક્શે સત્તાવાર રીતે મૌન
રહેવાનું મુનાસીબ માન્યુ છે. જો કે હજી આગળની કોર્ટોમાં કેસ લઈ જવામાં આવે તો
શું પરિણામ આવે એ બાકી છે પરંતુ આ કેસમાં વધારેવધારે ૬ કે ૭ મહિનાની
(વધુમાં વધુ) જોગવાઈ છે. છતાં નરસિંહરાવને સાંત્વના આપવા (ખરખરો કરવા)
નરસિંહરાવના વખતના કોંગ્રેસી પ્રધાનો અને નેતાઓ એમને મળવા ગયેલા જેમાં
સીતારામ કેસરી, પ્રણવ મુખરજી, જીતેન્દ્ર પ્રસાદ, આર.કે. ધવન, મનમોહનસિંહ, બલરામ જાખડ,
વસંત સાઠે, સલમાન ખુરશીદ, જયપાલ રેડ્ડી, અહમદ પટેલ, જે.બી. પટનાયક, માજી રાષ્ટ્રપતિ
વેંકટરામન, માજી વડાપ્રધાન ચન્દ્રશેખર, માજી વડાપ્રધાન ઈન્દ્રકુમાર ગુજરાલ, માજી
વડાપ્રધાન દેવગૌડા, માજી લોકસભા અધ્યક્શ સંગમા માજી વડાપ્રધાનના પત્ની સોનીયા
ગાંધી, વગેરે હતા.</p>

<p>આ જે.એમ.એમ. કેસ જો કે પ્રમાણમાં ઝડપથી
ચાલ્યો બાકી હજી આવા કૌભાંડોના કેસ (દા.ત. બોફોર્સ, સેન્ટ કીટ્સ, લાખુભાઈ વગેરે)
વર્ષોથી પડયા છે. </p>

<p>કોર્ટમાં પડેલા કેસો ઝડપથી ચલાવવાની
પધ્ધતિ... ઝડપી ન્યાયની પધ્ધતિ માટે અત્યાર સુધીમાં ૧૫ કમીશનો
(સમિતિઓ) આપણા ખર્ચે રચવામાં આવી અને એ બધા કમીશનોએ પોતાની રિપોર્ટો
પણ આપી દીધા પરંતુ એ બધા અત્યારે ધૂળ ખાતા પડયા છે.</p>

<p>આ જે.એમ.એમ.નું કૌભાંડ ૧૯૯૩માં થએલું
અને ૧૯૯૬માં એ માટેની ખાસ અદાલત રચીને કેસ ચલાવાતો હતો... તો પણ ૨૦૦૦ના
સપ્ટેમ્બરની ૨૯મી તારીખે એનો ચુકાદો આવ્યો અને સજા ઓકટોબરની ૧૨મી સુધી
બાકી રાખવામાં આવી. આ કેસ દરરોજે દરરોજ ચલાવવાનો સુપ્રિમ કોર્ટે ખાસ હુકમ
કરેલો તો પણ એને પૂરો થતા આટલી વાર લાગી. (એ પણ આપણી લોકશાહીની એક
વિડંબના છે કે.. જે વ્યકિત ઉપર લાંચરૂશ્વતનો કેસ ચલાવવામાં આવતો હોય... એ વ્યકિતને
પાછી આપણી સરકાર આપણા જનતાના ખર્ચે સ્પેશ્યલ પ્રોટેકશન ગ્રુપ (એસ.પી.જી.)ની સલામતી
વ્યવસ્થા પણ આપે ! )</p>

<p>કોર્ટે અંતે આ માજી વડાપ્રધાનને અને માજી
ગૃહપ્રધાનને ત્રણ ત્રણ વર્ષની સજા કરે છે અને લાંચ લેનારાઓ અત્યાર સુધી મુક્ત
હતા એમના માથે પણ કાયદાનું ચક્ર ફરતું કર્યું છે કે... એ લાંચ લેનારાઓના બેંકના
ખાતામાં અમુક દિવસે જે રકમ જમા કરાયેલી એની તપાસ કરવામાં આવે.</p>

<p>આ ચુકાદાની સામે ઉપલી કોર્ટમાં અપીલ કરવાની
સગવડ કોર્ટે આપી છે એટલે આ કેસ અહીં જ પૂરો થઈ જાય છે.. એવું નથી. એ કોર્ટમાં
કામ ચાલતા અને એનો ચુકાદો ક્યારે આવશે એ કોઈ કહી શકે તેમ નથી પરંતુ એનો
ચુકાદો આવ્યા પછી પણ સર્વોચ્ચ અદાલતના દરવાજા તો ખુલ્લા જ છે...</p>

<p>પરંતુ આ ચુકાદાએ.. શરૂમાં કહ્યું તેમ આપણી
લોકશાહીના એક સ્તંભની મજબૂતાઈની સાક્શી પૂરી છે અને એટલે જ ભલે આપણા રાજકારણીઓએ
અને સત્તાધારીઓએ આપણી લોકશાહીને હાસ્યજનક બનાવી હોય પરંતુ જ્યાં સુધી
ન્યાયતંત્ર અને પત્રકારત્વ લોકશાહીની રખેવાળીમાં સજાગ પ્રહરી બનેલા છે ત્યાં સુધી
જનતાનો લોકશાહીમાંનો વિશ્વાસ ટકી રહે તેમ છે.</p>

<p>આ સાથે, અત્યારે જેઓ નરસિંહરાવ અથવા
જયલલિતાના માર્ગે જઈ રહ્યા છે એમણે ચેતી જવું જોઈએ !</p>

<p> </p>






</body></text></cesDoc>