<cesDoc id="tam-w-dinakaran-cinema-03-05-26" lang="tam">
<cesHeader type="text">
<fileDesc>
<titleStmt>
<h.title>tam-w-dinakaran-cinema-03-05-26.txt</h.title>
<respStmt>
<respType>Electronic file created by</respType>
<respName>Department of Linguistics, Lancaster University</respName>
<respType>text collected by</respType>
<respName>Paul Baker and Celia Worth</respName>
<respType>transferred into Unicode by</respType>
<respName>"Unicodify" software by Andrew Hardie</respName>
</respStmt>
</titleStmt>
<publicationStmt>
<distributor>UCREL</distributor>
<pubAddress>Department of Linguistics, Lancaster University, Lancaster, LA1 4YT, UK</pubAddress>
<availability region="WORLD"></availability>
<pubDate>03-08-24</pubDate>
</publicationStmt>
<sourceDesc>
<biblStruct>
<monogr>
<h.title>"Dinakaran" internet news (www.dinakaran.com), news stories collected on 03-05-26</h.title>
<h.author>Dinakaran</h.author>
<imprint>
<pubPlace>Tamil Nadu, India</pubPlace>
<publisher>Dinakaran</publisher>
<pubDate>03-05-26</pubDate>
</imprint>
</monogr>
</biblStruct>
</sourceDesc>
</fileDesc>
<encodingDesc>
<projectDesc>Text collected for use in the EMILLE project.</projectDesc>
<samplingDesc>Simple written text only has been transcribed. Diagrams, pictures and tables have been omitted and their place marked with a gap element.
</samplingDesc>
<editorialDecl>
<conformance level="1"></conformance>
</editorialDecl>
</encodingDesc>
<profileDesc>
<creation>
<date>03-08-24</date>
</creation>
<langUsage>Tamil</langUsage>
<wsdUsage>
<writingSystem id="ISO/IEC 10646">Universal Multiple-Octet Coded Character Set (UCS).</writingSystem>
</wsdUsage>
<textClass>
<channel mode="w">print</channel>
<constitution type="composite"></constitution>
<domain type="public"></domain>
<factuality type="fact"></factuality>
</textClass>
<translations></translations>
</profileDesc>
<revisionDesc></revisionDesc>
</cesHeader>

<text>
<body>




<p>தனியார் தொலைகாட்சிக்கு
எதிரியா? தமிழ்திரை சினிமா ஒளிபரப்பால் தியேட்டருக்கு பாதிப்பா?
ஆர்.கே.செல்வமணி பதில் </p>

<p> </p>

<p>சென்னை, மே. 26- தமிழ் திரை சினிமா ஒளிபரப்பால் தியேட்டருக்கு
பாதிப்பு உண்டாகுமா? தனியார் தொலைக்காட்சிக்கு தமிழ் திரை எதிரியா என்பதற்கு டி
டி.வி. நிர்வாக இயக்குனர் ஆர்.கே.செல்வமணி பதில் அளித்தார். </p><p>
</p><p>
கோவைதம்பி-செல்வமணி </p><p>
</p><p>
தயாரிப்பாளர்கள்-கேபிள் டி.வி. உரிமையாளர்கள் மூலம் மக்களுக்காக வருகிற செப்டம்பர்
மாதம் 15ந்தேதியிலிருந்து தமிழ்திரை (டி டி.வி) ஒளிபரப்பு தொடங்கு கிறது. அதற்கான அறிமுக
விழா வரும் ஜூன் மாதம் 14ந்தேதி காமராஜர் அரங்கில் நடக்கிறது. தமிழ் திரையில் ரஜினி,
கமல், விஜயகாந்த், சரத், விஜய், அஜீத், விக்ரம் படம் உள்பட அனைத்து நடிகர், நடிகைகள்
நடித்த படங்களும் ஒளிபரப்பாகும் என்று நேற்று முன்தினம் விளக்கம் அளித்த தமிழ்திரை
நிர்வாக இயக்குனர் ஆர்.கே. செல்வ மணி நேற்று மீண்டும் பல்வேறு கேள்விகளுக்கு பதில் அளித்தார்.
அதுவருமாறு:- </p><p>
</p><p>
நடத்துவது யார்? </p><p>
</p><p>
கேள்வி:- தமிழ்திரை செயற்கைகோள் தொலைக்காட்சியை நடத்துவது யார்? </p><p>
</p><p>
பதில்:- தமிழ்திரைப்பட தயாரிப்பாளர்கள் சங்கத்தில் உறுப்பினர்களாக உள்ள
தயாரிப்பாளர்கள் ஒன்றி ணைந்து தமிழ் எண்டர் டெயின்மெண்ட் ஆர்ட் மீடியா லிமிடெட் என்ற
பொதுத்துறை நிறுவனத்தை உருவாக்கி உள்ளனர். இந்த நிறுவனம் தமிழ்திரை தொலைக்காட்சியை
நடத்துகிறது. இந்த நிறுவனத்தில் முன்னணி திரைப்பட தயாரிப்பாளர்கள் அனை வரும் பங்கு
பெறுகின்றனர். இந்நிறுவனத்தை வழிநடத்த நிதிக்குழு, பரிசீலனை குழு, கிரியேட்டிவ் குழு,
விற்பனை மற்றும் வியாபார குழு, சட்ட குழு, கேபிள் டி.வி. தொடர்பு குழு என பல குழுக்கள்
நியமிக்கப்பட்டிருக்கின்றன. இந்த நிறுவனத்தின் தலைவராக கோவைதம்பி, நிர்வாக இயக்குனராக
ஆர்.கே.செல்வ மணி நியமிக்கப்பட்டிருக்கின்றனர். நிதிக்குழுவில் கே.முரளிதரன்,
எஸ்.சந்திரபிரகாஷ்ஜெயின், ஆர்.மாதேஷ், பரிசீலனை குழுவில் எஸ்.ஏ.சந்திர சேகரன்,
ஆர்.பி.சவுத்ரி, வி.சேகர், கே.ராஜன், ஏ.எம். ரத்னம், ஆஸ்கார் ரவி, புஷ்பாகந்தசாமி,
இராமநாராயணன், எஸ்.எஸ்.துரை ராஜூ, கிரியேட்டிவ் குழுவில் பாரதிராஜா, மணிரத்னம்,
ஷங்கர், கே.எஸ்.ரவிகுமார், விற்பனை மற்றும் வியாபார தொடர்பு குழுவில் கோவை தம்பி,
குட்டிபத்மினி, ஹேம்நாக்பாபுஜி, சட்டக் குழுவில் கே.விஜயகுமார், எச்.முரளி, கேபிள் டி.வி.
தொடர்பு குழுவில் சி.ஜே. ஞானவேல், பாபுகணேஷ், சுவாமிநாதன் (எல்.எம்.எம்),
ஆகியோரும் இடம் பெற்றுள் ளனர். இத்தொலைக்காட் சிக்கு ஆலோசனைகள் வழங்க அறிவியல்
அறிஞர் கள், இசை அறிஞர்கள், கல்வியாளர்கள், இலக்கிய வாதிகள், தொழில்துறை
நிபுணர்கள், மருத்துவ வல்லுனர்கள், முன்னாள் நீதிபதிகள், முன்னாள் காவல்துறை அதிகாரிகள்
ஆகியோர்களை கொண்ட ஒரு ஆலோசனை குழு அமைக்கப்பட உள்ளது. திரைப்பட துறையின் சார்பில்
கே.ஆர்.ஜி., ஏவி.எம். சரவணன், கே.பாலசந்தர், இப்ராகிம்ராவுத்தர் ஆகியோர்களின்
ஆலோசனைகளையும் பெற இருக்கின்றோம். </p><p>
</p><p>
கட்டண சேனலா? </p><p>
</p><p>
கேள்வி:-தமிழ்திரை தொலைக்காட்சி கட்டண சேனலா? டீலர்கள் எப்படி
நியமிக்கப்படுவார்கள்? </p><p>
</p><p>
பதில்:-தமிழகத்தில் சட்டமன்ற தொகுதிகளாக அங்கீகரிக்கப்பட்டிருக்கும் 234 தொகுதிகள்,
தமிழ் திரையின் நிர்வாக பகுதிகளாக பிரிக்கப்பட்டிருக் கிறது. ஒவ்வொரு தொகுதிக்கும்
பொறுப்பாளராக ஒரு கேபிள் டி.வி. உரிமை யாளர் டீலர் பதவியில் நியமிக்கப்பட உள்ளார்.
தொகுதியில் அதிகமான எண்ணிக்கையில் தொடர் புகள் உள்ள கேபிள் டி.வி. உரிமையாளர்கள்
பரிசீலிக்கப்பட்டு தேர்ந்தெடுக்கப் பட்டபின், அவர் குறிப்பிட்ட அளவு திரும்பப் பெறக்கூடிய
முன்பணம் செலுத்தி, தமிழ் திரை தொலைக்காட்சியின் குறிப்பிட்ட தொகுதியின் டீலராக
நியமிக்கப்படுவார். தமிழ் தொலைக்காட்சி கட்டணச் சேனல் ஆகும். வாடிக் கையாளர்களான
பொது மக்களிடம் கேபிள் டி.வி. நடத்தும் உரிமையாளர்கள் மாதாந்திர பணம் வசூல் செய்து,
தொகுதியில் உள்ள டீலருக்கு செலுத்து வார். அந்த டீலர் தமிழ்திரை தொலைக்காட்சிக்கு செலுத்
துவார்கள். இதற்காக அவருக்கு குறிப்பிட்ட அளவு சதவீதம் கமிஷனாக தரப்படும். </p><p>
</p><p>
எதிரியா? </p><p>
</p><p>
கேள்வி:- தமிழ்திரை தொலைக்காட்சி மற்ற தனியார் தொலைக்காட்சிகளை தங்களுக்கு
எதிரானதாக கருதுமா? </p><p>
</p><p>
பதில்:- எந்த தொலைக் காட்சிக்கும் தமிழ்திரை தொலைக்காட்சி எதிரானது அல்ல.
எல்லோருக்கும் நாங்கள் நண்பர்களே. கேபிள் டி.வி தொழிலில் வருடத்திற்கு இரண்டாயிரம்
முதல் மூவாயிரம் கோடி வரை பணம் புழங்குகிறது. இந்த தொகையில் வெறும் இருநூற்று ஐம்பது கோடி
ரூபாய் அளவில் மட்டுமே நாங்கள் வியாபாரம் செய்ய நினைக்கிறோம். அதாவது கேபிள் டி.வி.
தொழில் துறையில் மொத்த வரவில் இது பத்து சதவிகிதம் மட்டுமே எங்கள் வரவு-செலவு. இதில்
எங்கள் பங்கு ஒரு சிறிய தொகைதான். தூர்தர்ஷன் வழக்கத்தில் இருக்கும்போது தான் தனியார்
தொலைக் காட்சிகள் ஆரம்பிக்கப்பட்டன. அதனால் தனியார் தொலைக்காட்சிகள் எல்லாம் தூர்தர்ஷனுக்கு
எதிரானது என கூறிவிட முடியுமா? விஞ்ஞானம், தொழிலில் பல வளர்ச்சி களை
ஏற்படுத்துகிறது. இதுவொரு திரையுலகின் அடுத்த பரிணாம வளர்ச்சியாகும். தமிழ்திரையுலகை
இந்தியாவிலேயே முதல்முறையாக அந்த விஞ்ஞான புரட்சிக்கு முன்னோடியாக அழைத்து
செல்வது எங்களது முயற்சியும் லட்சியமும் ஆகும். </p><p>
</p><p>
கேள்வி:-தமிழ்திரை தொலைக்காட்சி நிகழ்ச்சிகளை மக்கள் பார்க்க விடாமல் செய்யும்
முயற்சிகள் நடைபெற வாய்ப்பிருப்பதாக நீங்கள் கருதுகிறீர்களா? </p><p>
</p><p>
பதில்:- ஒரு தொலைக்காட்சியின் நிகழ்ச்சிகள் மக்களின் வரவேற்பை பெறுவது என்பது அதன்
தரத்தை பொறுத்த விஷயம். யாரும் செய்திடாத புதுமை யாகவும், வித்தியாசமாகவும்
நிகழ்ச்சிகள் அமையும்போது மக்களின் பெருவாரியான வரவேற்பை பெறுவது நிச்சயம். புத்தம்
புதிய திரைப் படங்களும் அரைத்த மாவையே அரைப்பதுபோல் இல்லாமல் புதுமையான
நிகழ்ச்சிகளும் தொகுத்து அளிக்கப்பட இருக்கும் எங் களது தமிழ்திரை மக்களின்
விருப்பத்திற்குரிய தொலைக் காட்சியாக நிச்சயம் அமையும். மக்கள் அதைப்பார்த்து பழகிய
பின்பு யாரும் தடுக்க முடியாது. தடுத்தாலும் மக்களையே சென்றடையும் வழிமுறைகளை நாங்கள்
உருவாக்குவோம். எங்களால் மற்றவர்களுக்கோ மற்றவர்களால் எங்களுக்கோ எந்த வித
பாதிப்பும் ஏற்படாது. இதுவொரு விஞ்ஞான புரட்சியின் பரிணாம வளர்ச்சி
என்பதால் திரை யுலகினரான நாங்கள் கையில் எடுத்துக்கொண்டு உள்ளோம். </p><p>
</p><p>
விநியோகஸ்தர்-அரங்கு </p><p>
</p><p>
கேள்வி:- தமிழ்திரையால் விநியோகஸ்தர்களுக்கும், திரை அரங்க உரிமையாளர் களுக்கும்
பாதிப்பு ஏற்படாதா? </p><p>
</p><p>
பதில்:- நிச்சயமாக ஏற்படாது நல்லதே நடக்கும். கடந்த பத்து ஆண்டுகளுக்கு முன்புவரையிலும்
நேரடி தமிழ் படங்கள் வருடத்திற்கு 150 தயாரானது. ஆனால் தற்போது 60 படங்கள் மட்டுமே
தயாராகின்றன. எனவே திரை அரங்குகள் தொடர்ச்சியாக திரையிடப்படம் கிடைக்காமல் தடுமாறு
கின்றன. மொழி மாற்றுப் படங்கள் அந்த இடத்தை பூர்த்தி செய்கின்றன. எங்களது தமிழ் திரையின்
மூலமாக நாங்கள் நூறு படங்கள் தயாரிக்க இருப்பதால் திரை அரங்குகளுக்கு படங்கள் தங்கு தடை
யின்றி கிடைக்கும். மேலும் எங்களது தொலைக்காட்சி திரைப்படத்தின் மொத்த விலையில் 60
சதவீதம் அறுபது சதவீத தொகை கொடுத்து ஒளிபரப்பு உரிமை வாங்கிக்கொள்வதால் மீதம் உள்ள
நாற்பது சதவீத தொகை மட்டுமே விநியோ கஸ்தர்களுக்கு விலையாக ஆகிறது. எனவே மிகக் குறைந்த
விலையில் விநியோகஸ்தர்களுக்கு மிகப் பெரிய படங்கள் கிடைக்கும். இதனால் திரை
அரங்குகளில் மிகக் குறைந்த கட்டணங்களில் படங்கள் திரையிட முடியும். டிக்கெட் விலை
குறைவதால் மக்கள் கூட்டமும் படம் பார்க்க வரும். இதனால் விநியோகஸ் தர்களுக்கும் திரை
அரங்க உரிமையாளர்களுக்கும் எந்தவித பயமுமின்றி போட்ட முதல் லாபத்துடன் திரும்ப
கிடைக்கும். அரசுக்கும் தற்போது கிடைப்பதைவிட அதிக கேளிக்கை வரி கிடைக்கும். சிறிய
படங்களை குறைந்த கட்டணத்தில் பார்க்க தானாகவே வழி கிடைப்பதால் திரைப்படத்துறை தன்னைத்தானே
சுழற்சி முறையில் ஒழுங்கு படுத்திக்கொள்ளும். திரையுலகிலும் மற்றும் அதனை சார்ந்த அனைத்து
துறையிலும்வேலை வாய்ப்புகள் பெருகும். </p><p>
</p><p>
கேள்வி:- இதில் முதலீடு முதலில் யார் மூலமாக வருகிறது? </p><p>
</p><p>
பதில்:- தமிழ்திரை தொலைக்காட்சிக்கு தேவையான பணத்தை திரைப்பட தயாரிப்பாளர்கள் பங்கு
மூலதன முறையில் கூட்டாக முதலீடு செய்துள்ளனர். </p><p>
</p><p>
செப்டம்பரில் ஒளிபரப்பு </p><p>
</p><p>
கேள்வி:-தமிழ்திரை தொலைக்காட்சி அறிமுக விழா எப்போது? </p><p>
</p><p>
பதில்:-தமிழ் திரை தொலைக்காட்சியின் அறிமுக விழா வருகிற ஜூன் மாதம் 14ந் தேதி
சென்னை தேனாம்பேட்டை காமராஜர் அரங்கில் நடைபெற உள்ளது. மத்திய-மாநில அமைச்சர்களை
அழைத்து உள்ளோம். மத்திய அமைச்சர் எஸ்.திருநாவுக்கரசர் கலந்துகொள்ள இசைவை
தெரிவித்துள்ளார். மத்திய ஒளிபரப்பு துறை அமைச்சர் கேன்ஸ் விழாவிற்கு சென்றுள்ளதால்.
அவர் டெல்லி திரும்பியபின் உறுதி செய்வதாக தெரிவித்து உள்ளார். இவ்விழாவில் திரைப்பட
துறையின் அனைத்து தயாரிப்பாளர் களும், நட்சத்திரங்களும், இயக்குனர்களும், தொழில் நுட்ப
கலைஞர்களும், தொழிலாளர்களும் கலந்து கொள்கிறார்கள். தமிழக மெங்கும் உள்ள கேபிள்
டிவி. உரிமையாளர்களின் பிரதிநிதிகளாக இரண்டாயிரம் கேபிள் டி.வி உரிமையாளர்கள்
இவ்விழாவில் கலந்து கொள்கிறார்கள். அன்றைய தினம் திரையுலக பிரமுகர்கள் மேடையில்
தமிழ்திரை கேபிள் டி.வி. உரிமையாளர்கள் சங்கத்தின் உறுப்பினர்கள் மற்றும் செயல்
உறுப்பினர்களுக்கு சான்றிதழ்களையும் வழங்க உள்ளார்கள். தமிழ்திரை சோதனை ஒளிபரப்பு
ஆகஸ்ட் 15, முறைப்படி ஒளிபரப்பு தொடக்கம் செப்டம்பர் மாதம் 15. </p><p>
</p><p>
இவ்வாறு பதில் அளித்தார். </p><p>
</p><p>
சாய்மீரா என்ன ஆனது? </p><p>
</p><p>
கேள்வி:- ஏற்கனவே தயாரிப்பாளர் சங்கத்தில் ஒப்பந்தம் செய்துள்ள சாய்மீரா நிறுவனம்
பற்றி? </p><p>
</p><p>
பதில்:- சாய்மீரா நிறுவனம் என்பது 500, 600 சேனல்களுடன் உலக மெங்கும் நடத்த இருக்கின்ற
ஒரு நிறுவனம். அவர்கள் இந்தியாவில் உள்ள அனைத்து மொழியினருடன் பேச்சுவார்த்தை நடத்தி
ஒப்பந்தம் செய்து கொண்டு வருகிறார்கள். ஆனால் தமிழ்திரை தொலைக்காட்சி தமிழ்
திரைப்பட தயாரிப்பாளர்களால், தமிழர்களுக்காக மட்டும் நடத்தப்படும் தொலைக்காட்சி.
நாங்கள் இதுபற்றி சாய்மீரா நிறுவனத் தின் நிர்வாக இயக்குனருடன் பேசியபோது இதுபோன்று
தயாரிப்பாளர்களால் நடத்தப்படும் ஒரு தொலைக் காட்சி வருவது மிகவும் நல்லது நான் மிகவும்
சந்தோஷப்படுகிறேன். நீங்கள் ஆரம்பிக்கும் பட்சத்தில் உங் களோடுகூட ஒரு ஒப்பந்தம்
செய்து கொள்வேன் என்று கூறினார். எங்களை பொறுத்தவரை மற்ற தொலைக்காட்சி நிறுவனத்தை
போல சாய்மீராவும் ஒரு தனியார் நிறுவனம். அவர்களுடனும் சுமுக உறவு வைத்துக்கொள்வோம். </p><p>
</p><p>
ரசிகர்கள் தியேட்டருக்கு செல்வது பாதிக்காதா? </p><p>
</p><p>
கேள்வி:- ரசிகர்கள் திரை அரங்கிற்கு சென்று படம் பார்ப்பது பாதிக்கப்படாதா? </p><p>
</p><p>
பதில்:- இப்போது இருவித மான ரசிகர்கள் உருவாகி விட்டனர். தியேட்டருக்கு சென்று ரசிக்கும்
ரசிகர்கள், வீட்டிலேயே அமர்ந்து கண்டுகளிக்கும் ரசிகர்கள். அதை புரிந்து கொண்டு நாங்கள்
செயல்படுவதால் வீட்டிலேயே அமர்ந்து கண்டுகளிக்கும் ரசிகர்கள், திருட்டு வி.சி.டி.யில்
பார்ப்பதை தடுத்து உரிமை பெற்ற வி.சி.டியை பார்க்கும் வசதியை உருவாக்கி உள்ளோம்.
இதனால் திருட்டு வி.சி.டி பெரும்பான் மையாக ஒழிக்கப்படும் தியேட்டருக்கு சென்று படம்
பார்க்கும் ரசிகர்கள் வழக்கம் போல் செய்யும் வழிமுறை இது. நிச்சயமாக இதுபெரும்
வரவேற்பை பெரும். </p>

<p> </p>

<p> </p>

<p>2 நாள் நட்சத்திர கலை
விழா: விக்ரம்-கிரண்-மும்தாஜ்-விந்தியா துபாய் பயணம்</p>

<p>  </p>

<p>சென்னை, மே. 26- நட்சத்திர இரவு நிகழ்ச்சியில் பங்கேற்க
விக்ரம், சத்யராஜ், கிரண், மும்தாஜ் ஆகியோர் இன்று துபாய் புறப்பட்டு செல்கின்றனர்.
</p>

<p>நட்சத்திர இரவு </p>

<p>மும்தாஜ் </p>

<p>
 
 
  
  
  
  
  
  
  
  
  
  
  
  
 
 
 

 
 
<gap desc="illustration"></gap>தமிழ் திரைப்பட தயாரிப்பாளர்கள் சங்க வளர்ச்சி நிதிக்காக துபாய், லண்டனில்
வரும் 29, 31 ஆகிய 2 நாட்கள் பிரபல நடிகர், நடிகைகள் பங்கேற்கும் நட்சத்திர இரவு
நிகழ்ச்சி நடக்கிறது. இதில் பங்கேற்பதற்காக நடிகைகள் சிம்ரன், ஜோதிகா, ரம்பா மற்றும்
பல்வேறு நடிகர்கள் சினிமா நடன இயக்குனர் கலா முன்னிலையில் கடந்த சில நாட்களாக நடன
ஒத்திகையை செய்தனர். ஒத்திகை முடிந்து அனைவரும் வௌி நாடு செல்ல தயாராகி விட்டனர். கலா
மாஸ்டர் 50 நடன கலைஞர்களுடன் நேற்று துபாய் புறப்பட்டு சென்றார். </p>

<p>விக்ரம்-கிரண் </p>

<p>இன்று காலை 8.30 மணி அளவில் சென்னை விமான நிலையத்திலிருந்து நடிகர்கள்
விக்ரம், நெப்போலியன், சத்யராஜ், அப்பாஸ், வடிவேலு, கருணாஸ், நடிகைகள் கிரண்,
மும்தாஜ், ரீமாசென், ரதி, விந்தியா உள்பட 15 கலைஞர்கள் துபாய் புறப் பட்டு
செல்கின்றனர். </p>

<p>விஜயகாந்த் </p>

<p>வரும் 27-ந்தேதி, 28ந் தேதி மேலும் 2 குழுவாக நடிகர், நடிகைகள் செல்கின்றனர்.
29ந்தேதி அதிகாலை 4 மணி அளவில் விஜயகாந்த் மற்றும் சில நடிகர்கள் புறப்பட்டு
செல்கின்றனர். விழாவில் தமிழ் திரைப்பட தயாரிப் பாளர்கள் சங்க தலைவர் கே.முரளிதரன்,
செயலாளர் சித்ரா லட்சுமணன் மற்றும் பல தயாரிப்பாளர்கள் நேரில் பங்கேற்கின்றனர்.
இதற்கான ஏற்பாடுகளை தயாரிப்பாளர் காஜாமைதீன் செய்துள்ளார். </p>

<p> </p>

<p>அமிதாப்பச்சனுக்கு
சாதனையாளர் விருது</p>

<p>  </p>

<p>லண்டன், மே 26- நடிகர் அமிதாப்பச்சனுக்கு பாலிவுட் வாழ்நாள்
சாதனையாளர் விருதை லண்டன் ஆசியன் கில்டு அமைப்பு வழங்கி உள்ளது. </p>

<p>அமிதாப்பச்சன் </p>

<p>
 
 
<gap desc="illustration"></gap>இந்தி திரையுலகின் சூப்பர் ஸ்டார் அமிதாப்பச்சன் சமீபத்தில் இங்கிலாந்து
சானல்-4 டெலிவிஷன் சார்பில் தேர்வு செய்யப்பட்ட உலகின் 100 தலைசிறந்த நடிகர்களின்
பட்டியலில் இடம்பிடித்தார். இப்போது அவரது புகழ் மகுடத்தில் மேலும் ஒரு வைரம்
சேர்ந்திருக்கிறது. இந்த முறை அமிதாப் பச்சனுக்கு பாலிவுட் வாழ்நாள் சாதனையாளர் விருது
வழங்கி பெருமை சேர்த்திருப்பது லண்டன் ஆசியன் கில்டு அமைப்பு ஆகும். கடந்த 10
ஆண்டுகளுக்கான மும்பை திரையுலகின் நட்சத்திர நாயகனாக ஷாருக்கானும் தேர்வு
செய்யப்பட்டார். </p>

<p>லண்டன் காஸ்வெனர் ஹவுஸ் ஓட்டலில் நடந்த விழாவில் அசோக்குமார் எம்.பி.,
இந்துஜா சகோதரர்கள், ராம்ஜெத் மலானி உள்ளிட்ட 700க்கும் மேற்பட்ட பிரமுகர்கள்
பங்கேற்றனர். பலத்த கரவொலிக்கு மத்தியில் விருதைப் பெற்று, அமிதாப்பச்சன்
பேசியதாவது:- </p>

<p>எனக்கு பாலிவுட்டின் வாழ்நாள் சாதனையாளர் விருது வழங்கியதற்காக ஆசியன் கில்டு
அமைப்பிற்கு எனது நன் றியை தெரிவித்துக் கொள்கிறேன். இந்திய திரைப்பட உலகம் எனக்கு
நடிக்க வாய்ப்பு வழங்கியதால்தான் இந்தச் சிறப்பை நான் அடைய முடிந்தது. இந்த தருணத்தில்
எனக்கு வாய்ப்பு தந்த டைரக்டர்கள், தயாரிப்பாளர்கள், திரையுலகினர் அனைவருக்கும் எனது
நன்றியை தெரிவித்துக் கொள்கிறேன். </p>

<p>இவ்வாறு அவர் பேசினார். </p>

<p> </p>

<p>கமல் திறந்த இசை வளாகம் </p>

<p> </p>

<p>சென்னை, மே. 26- லட்சுமன் ஸ்ருதியின் இசை வளாகத்தை சென்னையில்
நடிகர் கமல் திறந்து வைத்தார். </p><p>
</p><p>
லட்சுமன் ஸ்ருதி இசை வளாகம் சென்னை அசோக்நகர் நூறு அடி சாலையில் புதிதாக அமைக்கப்பட்டு
உள்ளது. அதனை நடிகர் கமல்ஹாசன் திறந்து வைத்து வாழ்த்தினார். இசை வளாகம் பற்றி
உரிமையாளர்கள் ராமன்- லட்சுமண் கூறும் போது, இசை கலைஞர்களின் தேவையை பூர்த்தி
செய்யும் வளாகமாக இதனை உருவாக்கி இருக்கிறோம். கீபோர்டு, கிதார் போன்ற பல்வேறு இசை
கருவிகளை சிங்கப்பூரில் சென்று வாங்க வேண்டியதை இனிமேல் இங்கே வாங்கிக்கொள்ள லாம்.
இந்த வளாகத்தின் கீழ்தளத்தில் ஒலி-ஒளி வசதி யுடன் கூடிய குளிர்சாதன பயிற்சி அரங்கு
உள்ளது. இசை ஒத்திகை, பயிற்சி போன்றவற்றை இங்கு எந்த தடையும் இன்றி செய்யலாம்
என்றனர். </p><p>
</p><p>
முன்னதாக விழாவில் எஸ்.பி.பாலசுப்பிரமணியம், மனோ, யுகேந்திரன், சுஜாதா, சொர்ணலதா,
பாண்டிய ராஜன் உள்பட பலர் கலந்து கொண்டு வாழ்த்தினார்கள். </p>

<p> </p>






</body></text></cesDoc>