<cesDoc id="tam-w-dinakaran-cinema-02-12-25" lang="tam">
<cesHeader type="text">
<fileDesc>
<titleStmt>
<h.title>tam-w-dinakaran-cinema-02-12-25.txt</h.title>
<respStmt>
<respType>Electronic file created by</respType>
<respName>Department of Linguistics, Lancaster University</respName>
<respType>text collected by</respType>
<respName>Paul Baker and Celia Worth</respName>
<respType>transferred into Unicode by</respType>
<respName>"Unicodify" software by Andrew Hardie</respName>
</respStmt>
</titleStmt>
<publicationStmt>
<distributor>UCREL</distributor>
<pubAddress>Department of Linguistics, Lancaster University, Lancaster, LA1 4YT, UK</pubAddress>
<availability region="WORLD"></availability>
<pubDate>03-08-24</pubDate>
</publicationStmt>
<sourceDesc>
<biblStruct>
<monogr>
<h.title>"Dinakaran" internet news (www.dinakaran.com), news stories collected on 02-12-25</h.title>
<h.author>Dinakaran</h.author>
<imprint>
<pubPlace>Tamil Nadu, India</pubPlace>
<publisher>Dinakaran</publisher>
<pubDate>02-12-25</pubDate>
</imprint>
</monogr>
</biblStruct>
</sourceDesc>
</fileDesc>
<encodingDesc>
<projectDesc>Text collected for use in the EMILLE project.</projectDesc>
<samplingDesc>Simple written text only has been transcribed. Diagrams, pictures and tables have been omitted and their place marked with a gap element.
</samplingDesc>
<editorialDecl>
<conformance level="1"></conformance>
</editorialDecl>
</encodingDesc>
<profileDesc>
<creation>
<date>03-08-24</date>
</creation>
<langUsage>Tamil</langUsage>
<wsdUsage>
<writingSystem id="ISO/IEC 10646">Universal Multiple-Octet Coded Character Set (UCS).</writingSystem>
</wsdUsage>
<textClass>
<channel mode="w">print</channel>
<constitution type="composite"></constitution>
<domain type="public"></domain>
<factuality type="fact"></factuality>
</textClass>
<translations></translations>
</profileDesc>
<revisionDesc></revisionDesc>
</cesHeader>

<text>
<body>




<p>அரை நாள் சினிமா
படப்பிடிப்பு ரத்து: வி.கே.ராமசாமி காலமானார்: விஜயகாந்த்-பிரபு அஞ்சலி இன்று
காலை உடல் தகனம் நடக்கிறது</p>

<p> </p>

<p>
 
 
  
  
  
  
  
  
  
  
  
  
  
  
 
 
 

 
<gap desc="illustration"></gap></p>

<p>நடிகர் வி.கே.ராமசாமி
உடலுக்கு விஜயகாந்த், பிரபு, நெப்போலியன், சத்யராஜ், ராதாரவி ஆகியோர் இறுதி
அஞ்சலி செலுத்தி குடும்பத்தினருக்கு ஆறுதல் கூறிய காட்சி. </p>

<p> </p>

<p>சென்னை, டிச. 25- நடிகர் வி.கே.ராமசாமி உடலுக்கு விஜயகாந்த்,
பிரபு, சத்யராஜ் இறுதி அஞ்சலி செலுத்தினார்கள். </p><p>
</p><p>
வி.கே.ராமசாமி </p><p>
</p><p>
நடிகர் வி.கே.ராமசாமி கடந்த 2 மாதத்துக்கு முன்பு மருத்துவ பரிசோதனைக்காக அண்ணாநகரில்
உள்ள தனியார் மருத்துவமனைக்கு சென்றார். அப்போது அங்குள்ள நாற்காலியில் உட்கார முயன்ற
போது தவறி விழுந்தார். இதில் அவரது இடுப்பு எலும்பு முறிந்தது. உடனடியாக அப்பகுதியில் உள்ள
எலும்பு முறிவு சிகிச்சைக்கான மருத்துவ மனையில் அனுமதிக்கப்பட்டார். அங்கு அவருக்கு
ஆபரேஷன் செய்யப்பட்டது. ஆபரேஷனுக்கு பிறகு அவரது உடல் நலன் பாதிக்கப்பட்டது. மிகவும்
பலவீனம் அடைந்தார். பின்னர் அரசு மருத்துவமனையில் சிகிச்சைக்காக சேர்த்தனர்.
மருத்துவமனையில் அவரை அனுமதித்து டாக்டர்கள் சிகிச்சை அளித்து வந்தனர். </p><p>
</p><p>
திரவ உணவு </p><p>
</p><p>
அவருக்கு குழாய் மூலம் திரவ உணவு கொடுக்கப்பட்டது. நாளாக நாளாக அவரது சிறுநீரகம்,
நுரையீரல் என ஒவ்வொன்றாக பாதிக்கப்பட்டது. அவரது மூளையும் பாதிக்கப்பட்டு வந்தது. நேற்று
பகல் அவருக்கு கஞ்சி கொடுக்கப்பட்டது. சிறிது நேரத்தில் அவர் வாந்தி எடுத்தார்.
கருப்பாக வாந்தி இருந்ததால் அதற்கான சிகிச்சை அளிக்க டாக்டர்கள் ஆயத்தமானார்கள்.
இதற்கிடையில் வி.கே.ராமசாமி தனது குடும்பத்தினரை அழைத்து குழந்தைகளை நன்கு படிக்க
வைக்கும்படி கூறினார். பகல் 12 மணி அளவில் வி.கே. ராமசாமி உயிர் பிரிந்தது. அவரது உடல்
மருத்துவமனை யிலிருந்து வேன் மூலம் தி.நகர் பசுல்லா சாலையில் உள்ள அவரது வீட்டுக்கு எடுத்துச்
செல்லப்பட்டு பொதுமக்கள் அஞ்சலிக்காக வைக்கப்பட்டது. அவரது உடலை பார்த்து மனைவி
மற்றும் மகன்கள் கதறி அழுதனர். </p><p>
</p><p>
விஜயகாந்த் </p><p>
</p><p>
நடிகர் சங்க தலைவர் விஜயகாந்த், உப தலைவர் நெப்போலியன், நடிகர்கள் பிரபு, சத்ய
ராஜ், ராதாரவி, கே.என். காளை, கே.எஸ்.செல்வராஜ், வாசுவிக்ரம், வீரமணி, முன்னாள்
மந்திரி ஆர்.எம்.வீரப்பன் மற்றும் ஏராளமான திரையுலக பிரமுகர்கள் நேரில் வந்து
அஞ்சலி செலுத்தினார்கள். </p><p>
</p><p>
படப்பிடிப்பு ரத்து </p><p>
</p><p>
வி.கே.ராமசாமி உடல் அவரது வீட்டிலிருந்து இன்று காலை 8.30 மணிக்கு ஊர்வல மாக எடுத்துச்
செல்லப்பட்டு தி.நகரில் உள்ள கண்ணம்மா பேட்டை சுடுகாட்டில் தகனம் செய்யப்படுகிறது. </p><p>
</p><p>
இறுதி ஊர்வலத்தில் கலையுலகினர் கலந்துகொள்கின்றனர். அதற்கேற்ப நடிகர் சங்கம்,
தயாரிப்பாளர்கள் சங்கம், இயக்குனர்கள் சங்கம் பெப்சி ஆகிய அனைத்து சங்கங்களின்
சம்மதத்தோடு இன்று அரைநாள் படப்பிடிப்பு ரத்து செய்யப்படுவதாக விஜயகாந்த் கூறினார்.
மேலும் அவர் கூறும்போது,மூத்த கலைஞர் வி.கே.ராமசாமி மறைவு திரையுலகுக்கு பெரிய
இழப்பு. திரையுலகில் 5 தலைமுறை கலைஞர்களுடன் அவர் நடித்தவர். படத்தில் காட்சிக்கு
ஏற்ப டைமிங் காமெடி செய்வதில் வல்லவர். அப்பா சிவாஜி நடிகர் சங்க கட்டிடத்தை
கட்டியபோது அவருடன் இணைந்து உழைத்தவர் வி.கே.ராமசாமி. நடிகர் சங்க செயற்குழு கூட்டத்தில்
கூட விவாதம் நடக்கும்போது டைமிங்காக ஏதாவது ஒரு வார்த்தை சொல்லி அனைவரையும்
சிரிப்பில் ஆழ்த்திவிடுவார். நாங்கள் எல்லாம் வசனத்தை உதட்டுக்குள் பேசிக்
கொள்வோம். ஆனால் நாடகத்தில் அனுபவம் பெற்று சினிமாவில் வந்த வி.கே. ராமசாமி
வசனத்தை உரக்க சொல்லி நடிக்கும் சிறப்பு படைத்தவர் என்றார். </p><p>
</p><p>
வாழ்க்கை குறிப்பு </p><p>
</p><p>
நடிகர் வி.கே.ராமசாமி விருதுநகரை சேர்ந்தவர். இவரது தந்தை பெயர் கந்தன் செட்டி. ஊரின்
முதல் எழுத்தையும், தந்தை பெயரின் முதல் எழுத்தையும் தனது இன்ஷி யலாக சேர்த்து தனது
பெயருக்கு முன்னால் வி.கே. என்று வைத்துக்கொண்டார். யதார்த்தம் பொன்னுச்சாமி பிள்ளை
நாடக கம்பெனி மற்றும் என்.எஸ்.கே. நாடக சபாவில் இவர் நடிகராக இருந்துவந்தார். தனது
19-வயதில் ஏவி.எம்.தயாரித்த நாம் இருவர் என்ற படம் மூலம் நடிகராக அறிமுகமான
வி.கே.ராமசாமி தனது முதல்படத்திலேயே இளைஞரான இவர் மூத்தவயதுடையவர்போல் வேடம்
அணிந்து நடித்தார். </p><p>
</p><p>
தொடர்ந்து பராசக்தி, ராமு, பெண், உயர்ந்த மனிதன், குடியிருந்த கோவில், பாயும்புலி,
சகலகலா வல்லவன், மின்சார கனவு என ஐந்து தலைமுறை நடிகர் களுடன் 600-க்கும் மேற்பட்ட
படங்களில் நடித்திருக்கிறார். இவருக்கு ரமணி என்ற மனைவி உள்ளார். இருவரும் சேர்ந்து பலபடங்களில்
நடித்திருக்கின்றனர். ரகு, ரகுநாதன், ரவி, ராஜேந்திரன் என நான்கு மகன்கள் உள்ளனர். </p><p>
</p><p>
ருத்தர தாண்டவம், பம்பாய் மைல் போன்ற படங்களை வி.கே.ராமசாமி சொந்தமாக
தயாரித்திருக்கிறார். படையப்பா படத்தின் மூலம் ரஜினிகாந்த் இவரை 5 தயாரிப்
பாளர்களில் ஒரு தயாரிப்பாளராக சேர்த்து லாபத்தில் பங்கு அளித்தார். மறைந்த வி.கே.
ராமசாமிக்கு 76 வயது ஆகிறது. </p><p>
</p><p>
வி.கே.ராமசாமி மறைவு செய்தி டெக் பாலசந்தர்-விஜயகாந்த்- முரளிதரன் கூட்டறிக்கை </p><p>
</p><p>
டைரக்டர் கே.பாலசந்தர், விஜயகாந்த், கே.முரளிதரன் வௌியிட்டுள்ள கூட்டறிக்கையில்,
வி.கே.ராமசாமி மறைவுக்கு இன்று அரை நாள் படப்பிடிப்பு ரத்து செய்யப்படுவதாக கூறி
உள்ளனர். </p><p>
</p><p>
கூட்டறிக்கை </p><p>
</p><p>
தென்னிந்திய திரைப்பட தொழிலாளர் சம்மேளன தலைவர் கே.பாலசந்தர், தமிழ் திரைப்பட
தயாரிப்பாளர்கள் சங்க தலைவர் கே.முரளிதரன், தென்னிந்திய நடிகர் சங்க தலைவர்
விஜயகாந்த் ஆகியோர் நேற்று வௌியிட்டுள்ள கூட்டறிக்கையில் கூறி இருப்பதாவது:- </p><p>
</p><p>
தமிழ் திரை உலகின் தன்னி கரற்ற நடிகராக விளங்கிய வி.கே.ராமசாமி நேற்று மறைந்
ததையொட்டி இன்று மதியம் வரை எல்லா தமிழ் படத்தின் படப்பிடிப்புகளும் ரத்து செய்வது என்று
தமிழ் திரைப்பட தயாரிப்பாளர்கள் சங்கம், தென்னிந்திய நடிகர் சங்கம், தென்னிந்திய
திரைப்பட தொழிலாளர்கள் சம்மேளனம் ஆகிய எல்லா சங்கங்களும் முடிவு செய்துள்ளன. அதன்படி
இன்று (25-ந்தேதி) எல்லா தமிழ் பட படப்பிடிப்புகளும் மதியம் வரை ரத்து செய்யப்பட்டு
உள்ளன. ஆகவே தயாரிப் பாளர்கள் தங்கள் படப்பிடிப்புகளை மதியம் 2 மணிக்கு மேல்
திட்டமிட்டபடி செயல்படலாம் என்ற வேண்டிக்கொள்ளப்படுகிறார்கள். </p><p>
</p><p>
இவ்வாறு அதில் கூறி உள்ளனர். </p>

<p> </p>

<p> </p>

<p>வி.கே.ராமசாமி மறைவு:
கருணாநிதி-ஜெ. இரங்கல்</p>

<p> </p>

<p>சென்னை, டிச. 25- வி.கே.ராமசாமி மறைவுக்கு கருணாநிதி, ஜெயலலிதா
இரங்கல் தெரிவித்துள்ளனர். </p><p>
</p><p>
கருணாநிதி </p><p>
</p><p>
பழம்பெரும் நடிகர் வி.கே. ராமசாமி நேற்று காலமானார் அல்லவா? அவரது மறைவு செய்தி
கேட்டு தி.மு.க.தலைவர் கருணாநிதி வி.கே.ராமசாமி துணைவியாருக்கு இரங்கல் தந்தி அனுப்பி
உள்ளார். அதில் தமிழகத்தின் பழம்பெரும் நடிகர்களில் ஒருவரான வி.கே. ராமசாமி மறைவுக்கு
இரங்கல் தெரிவித்துக் கொள்வதாக அதில் கூறி உள்ளார். </p><p>
</p><p>
ஜெயலலிதா </p><p>
</p><p>
முதல்வர் ஜெயலலிதா வௌியிட்டுள்ள இரங்கல் செய்தியில் கூறி இருப்பதாவது:- </p><p>
</p><p>
பழம்பெரும் நடிகர் கலை மாமணி வி.கே.ராமசாமி நேற்று மரணம் அடைந்த செய்தி கேட்டு நான்
மிக்க துயருற்றேன். வி.கே.ராமசாமி ஏராளமான நாடகங்களிலும் திரைப்படங்களிலும் நடித்து
நீண்ட கலைத்துறை அனுபவத்தை கொண்டவர். அவரது மறைவு ஈடுசெய்ய முடியாத இழப்பாகும். </p><p>
</p><p>
வி.கே.ராமசாமி மறைவினால் துயருற்று வாடும் அவரது குடும்பத்தாருக்கும், திரைத்துறை
நண்பர்களுக்கும் என்னுடைய இரங்கலை தெரி வித்துக்கொள்கிறேன். வி.கே. ராமசாமி ஆன்மா
அமைதி அடைய எல்லாம் வல்ல இறைவனை வேண்டுகிறேன். </p><p>
</p><p>
இவ்வாறு உள்ளார். </p><p>
</p><p>
சரத்குமார் எம்.பி. </p><p>
</p><p>
நடிகர் வி.கே.ராமசாமி மறைந்த செய்தி நேற்று மும்பையில் அரசு படத்தின் படப் பிடிப்பில்
இருந்த தென்னிந்திய நடிகர் சங்க பொதுச் செயலாளர் சரத்குமார் எம்.பி.க்கு
தெரிவிக்கப்பட்டது. மும்பையிலிருந்து சரத்குமார் விடுத்த இரங்கல் செய்தியில் </p><p>
</p><p>
வி.கே. ராமசாமி சிறந்த மூத்த நடிகர். அனைவரிடமும் இனிமையாக பழகக்கூடியவர். அவரது மறைவு
திரையுலகிற்கு ஈடு செய்ய முடியாத இழப்பு. அவரை இழந்து வாடும் குடும்பத்தினருக்கு ஆழ்ந்த
அனுதாபத்தை தெரிவித்துக்கொள்கிறேன் என்று கூறி உள்ளார். </p><p>
</p><p>
முரளிதரன் </p><p>
</p><p>
தமிழ் திரைப்பட தயாரிப்பாளர்கள் சங்க தலைவர் கே.முரளிதரன் நேற்று வௌி யிட்டுள்ள
இரங்கல் செய்தியில் கூறி இருப்பதாவது:- </p><p>
</p><p>
நகைச்சுவை நடிப்பில் தனி முத்திரை பதித்திருந்தது தவிர குணசித்ரபாத்திரங்கள்
எல்லாவற்றிலும் கொடி கட்டிப்பறந்த வி.கே.ராமசாமி நடிப்பாற்றல் அளவிட முடியாதது. எந்த
பாத்திரம் ஏற்றாலும் அந்த பாத்திரத்திற்கு உயிரூட்டுகின்ற நடிப்பாற்றல் மிக்க
திரைக்கலைஞர்கள் தமிழ்நாட்டில் மிகச்சிலர்தான். அந்த மிகச் சிலரில் முக்கியமான
இடத்தை பெற்றிருந்தவர் வி.கே.ராமசாமி என்றால் அதுமிகையாகாது. நடிகர் என்ற தகுதியில்
மட்டுமின்றி தயாரிப்பாளர் என்ற முறையிலும் மிகச்சிறப்பான படங்களை தயாரித்து முத்திரை
படைத்தவர் வி.கே.ராமசாமி அது மட்டுமின்றி திரை உலகில் எந்தப்பிரச்சினை என்றாலும்
முன்னின்று செயல்பட்டவர் அவர். இப்படி பன்முக திறமை பெற்றிருந்த வி.கே.ராம சாமியின்
மறைவு யாராலும் ஈடு செய்ய முடியாதது. </p><p>
</p><p>
இவ்வாறு அவர் கூறி உள்ளார். </p>

<p> </p>

<p> </p>

<p>ராமசாமி உடலுக்கு பட
அதிபர்கள்- நடிகர்-நடிகை இறுதி அஞ்சலி</p>

<p> </p>

<p>சென்னை, டிச. 25- வி.கே.ராமசாமி உடலுக்கு பட அதிபர்கள்,
நடிகர்கள் சிவகுமார், அர்ஜூன், ராதிகாசரத் இறுதி அஞ்சலி செலுத்தினார்கள். </p><p>
</p><p>
பட அதிபர்கள் </p><p>
</p><p>
நடிகர் வி.கே.ராமசாமி நேற்று காலமானார் அல்லவா? அவரது உடலுக்கு பட அதிபர்
ஏவி.எம்.சரவணன், தயாரிப்பாளர்கள் சங்க தலைவர் கே.முரளிதரன், அ.செ.இப்
ராகிம்ராவுத்தர், சித்ரா லட்சுமணன், கே.ராஜன், ராதிகா சரத், நடிகர்கள் சிவகுமார்,
அர்ஜூன், விஜயகுமார், அருண்குமார், விவேக், </p><p>
</p><p>
முன்னாள் மந்திரி ஆர்.எம். வீரப்பன், திராவிட கழக பொதுச்செயலாளர் கி.வீரமணி, அகில
இந்திய காங்கிரஸ் செயலாளர் ஜி.கே.வாசன் உள்பட ஏராளமானவர்கள் இறுதி அஞ்சலி
செலுத்தினார்கள். </p>

<p> </p>

<p> </p>

<p>நடிகை நந்திதாதாஸ் காதல்
திருமணம் 3 வருட காதலருடன் நிச்சயதார்த்தம்</p>

<p> </p>

<p>
 
<gap desc="illustration"></gap></p>

<p>நந்திதாதாஸ் </p>

<p> </p>

<p>சென்னை, டிச. 25- நடிகை நந்திதாதாஸ் 3 வருட காதலரை மணக்கிறார்.
நேற்று அவர்களது நிச்சயதார்த்தம் நடந்தது. </p><p>
</p><p>
நந்திதாதாஸ் </p><p>
</p><p>
பரபரப்பாக பேசப்பட்ட பயர் படத்தில் நடிகையாக அறிமுகமானவர் நந்திதாதாஸ். பெங்களூரை
சேர்ந்த இவர் தமிழில் அழகி என்ற படத்தில் கதாநாயகியாக அறிமுகமானவர். தொடர்ந்து
கன்னத்தில் முத்தமிட்டால் படத்தில் நடித்தார். </p><p>
</p><p>
நந்திதாதாசும் மும்பையில் உள்ள விளம்பர நிறுவனம் ஒன்றில் பணிபுரியும் சவுமியா கான்
என்பவரும் கடந்த 3 வருடங்களாக காதலித்து வந்தனர். இதற்கிடையில் நந்திதாதாசுக்கும் வேறு
நடிகருக்கும் காதல் உள்ளதாக கிசுகிசு பரவி வந்தது. அப் போதும் அவர் தனது நிஜ காதலர் யார்
என்பதை சொல்லாமல் மறைத்து வந்தார். </p><p>
</p><p>
நிச்சயதார்த்தம் </p><p>
</p><p>
இந்தநிலையில் நந்திதாதாசுக்கும் சவுமியாகானுக்கும் நேற்று டெல்லியில் திருமண
நிச்சயதார்த்தம் நடந்தது. நெருங்கிய உறவினர்கள், நண்பர்கள் மட்டும் இதில் கலந்து
கொண்டனர். விரைவில் இவர்கள் திருமணம் நடக்க உள்ளது. </p>

<p> </p>






</body></text></cesDoc>