<cesDoc id="tam-w-dinakaran-cinema-02-02-01" lang="tam">
<cesHeader type="text">
<fileDesc>
<titleStmt>
<h.title>tam-w-dinakaran-cinema-02-02-01.txt</h.title>
<respStmt>
<respType>Electronic file created by</respType>
<respName>Department of Linguistics, Lancaster University</respName>
<respType>text collected by</respType>
<respName>Paul Baker and Celia Worth</respName>
<respType>transferred into Unicode by</respType>
<respName>"Unicodify" software by Andrew Hardie</respName>
</respStmt>
</titleStmt>
<publicationStmt>
<distributor>UCREL</distributor>
<pubAddress>Department of Linguistics, Lancaster University, Lancaster, LA1 4YT, UK</pubAddress>
<availability region="WORLD"></availability>
<pubDate>03-08-24</pubDate>
</publicationStmt>
<sourceDesc>
<biblStruct>
<monogr>
<h.title>"Dinakaran" internet news (www.dinakaran.com), news stories collected on 02-02-01</h.title>
<h.author>Dinakaran</h.author>
<imprint>
<pubPlace>Tamil Nadu, India</pubPlace>
<publisher>Dinakaran</publisher>
<pubDate>02-02-01</pubDate>
</imprint>
</monogr>
</biblStruct>
</sourceDesc>
</fileDesc>
<encodingDesc>
<projectDesc>Text collected for use in the EMILLE project.</projectDesc>
<samplingDesc>Simple written text only has been transcribed. Diagrams, pictures and tables have been omitted and their place marked with a gap element.
</samplingDesc>
<editorialDecl>
<conformance level="1"></conformance>
</editorialDecl>
</encodingDesc>
<profileDesc>
<creation>
<date>03-08-24</date>
</creation>
<langUsage>Tamil</langUsage>
<wsdUsage>
<writingSystem id="ISO/IEC 10646">Universal Multiple-Octet Coded Character Set (UCS).</writingSystem>
</wsdUsage>
<textClass>
<channel mode="w">print</channel>
<constitution type="composite"></constitution>
<domain type="public"></domain>
<factuality type="fact"></factuality>
</textClass>
<translations></translations>
</profileDesc>
<revisionDesc></revisionDesc>
</cesHeader>

<text>
<body>




<p>ரூ. 1 லட்சம் உதவி
வழங்கினார்: சினிமாவே போதும் அரசியலுக்கு வரமாட்டேன், கமல்ஹாசன் உறுதி</p>

<p> </p>

<p>சென்னை, பிப். 1- சினிமாவே போதும், அரசிய லுக்கு வரமாட்டேன்
என்று கமல்ஹாசன் கூறினார். </p><p>
</p><p>
நற்பணிகள் </p><p>
</p><p>
53-வது குடியரசு தினத்தை யொட்டியும், பம்மல் கே.சம் பந்தம் படத்தின் வெற்றியை
தொடர்ந்தும் தமிழக கமல் ஹாசன் நற்பணி இயக்கம் சார்பில் ஏழை, எளியவர்கள், உடல்
ஊனமுற்றவர்களுக்கு ரூ. 1 லட்சம் மதிப்புள்ள மக்கள் நல உதவிகளை கமல்ஹாசன் நேற்று
சென்னையில் உள்ள ராஜ்கமல் அலுவலகத்தில் வழங்கினார். </p><p>
</p><p>
கமல் பேட்டி </p><p>
</p><p>
அப்போது அவர் நிருபர்களுக்கு பேட்டி அளித்தார். அதன் விவரம் வருமாறு:- </p><p>
</p><p>
சினிமாவில் உள்ளவர்களுக்கு வள்ளல் என்று பெயர் எடுக்க வேண்டும் என்ற ஆசை உண்டு. அந்த
வகையில் அரசுக்கு வருமான வரி கொடுப்பதே பெரிய வள்ளல் தனம் ஆகும். அதுவே மக்கள் பணத்தை
கொடுப்பதுதான். ஜீரோ டேக்ஸ் (வரி பாக்கி இல் லாதவர்) என்ற பட்டியலில் எனது பெயரும்
இருப்பதாக அரசு அறிவித்திருக்கிறது. வரி பாக்கி இல்லாதவன் என்பதை நான் பெருமையாகவும்
அதை தேச சேவையாக வும் கருதுகிறேன். </p><p>
</p><p>
அருகதை இல்லை </p><p>
</p><p>
சாலை குழியாக உள்ளது, அரசியல்வாதிகள் ஊழல் செய்கிறார்கள் என்று சொல்பவர் கள் முதலில்
வரி பாக்கி இல்லாதவர்களாக இருக்க வேண்டும். அப்போதுதான் அவர்களுக்கு மற்றவர்கள் மீது
குற்றம் சொல்லும் அருகதை இருக்கிறது என்று அர்த்தம். </p><p>
</p><p>
வியர்வை பணம் </p><p>
</p><p>
பல அரசுகள் நிதி இல்லாததால் பல்வேறு உதவிகளை செய்ய முடியாமல் போகிறது. அரசு மட்டும்தான்
உதவிகளை செய்ய வேண்டும் என்று காத்திருக்கக்கூடாது. நம்மால் முடிந்த உதவியையும்
மற்றவர்களுக்கு செய்ய வேண்டும். இன்று இங்கு அளிக்கப்ப ட்ட நற்பணிகள் ரசிகர்கள்
கொஞ்சம் கொஞ்சமாக சேர்த்து தந்த பணத்தில் செய்வது. எனது பணத்தில் நான்
தனியாக நற்பணிகள் செய்துகொள்கிறேன். அதுவேறு. இரண்டு கண்களையும் இழந்த பேராசிரியர்
ஒருவர் தனது சம்பளத்தில் பார்வையற்றவர் பள்ளிக்கு புத்தக அலமாரி வாங்கி
கொடுத்திருக்கிறார். வயலில் வியர்வை சிந்தி வேலை செய்யும் விவசாய இளைஞன் தன்
வியர்வை நனைந்த பணத்தை தனக்காக கொஞ்சம் எடுத்து வைத்துக் கொண்டு மிச்சப்பணத்தை
நற்பணிக்காக தருகிறானே அதுதான் வள்ளல்தனம். </p><p>
</p><p>
ரசிகர்களுக்கு கைதட்டல் </p><p>
</p><p>
இன்றைக்கு நான் இங்கு வந்திருப்பது எனக்கு ரசிகர்களிடம் இருந்து கைதட்டல் கிடைக்க வேண்டும்
என்பதற்காக அல்ல. நற்பணிகளை ஆற்றும் அவர்களுக்கு நான் கைதட்டல் சொல்லி பாராட்டவே
வந்திருக்கிறேன். விசில் அடிச்சான் குஞ்சிகள் என்று கூறப்பட்ட ரசிகர்கள் கூட்டம்
இன்றைக்கு விசிட்டிங் கார்டு அடித்து வைத்துக் கொண்டு ரத்த தானம், கண்தானம் செய்கிறார்கள்
என்றால் அந்த முன்னேற்றத்தை தான் அவர்களிடம் நான் எதிர்பார்த்தேன். எதிர்காலத்தில்
இவர்களது வாரிசுகளும் இவர்களை பாராட்டும். </p><p>
</p><p>
அரசியல் </p><p>
</p><p>
என்னைப்பொறுத்தவரை சினிமாவே எனக்கு போதும். அரசியலுக்கு வரவேண்டும் என்று நான்
நினைக்கவில்லை. சினிமா கூட்டத்திலிருந்துதான் ஒருவர் அரசியலுக்கு வரவேண்டும் என்று நீங்கள்
நினைக்கக் கூடாது. நல்லவர்களில் ஒருவரை நீங்கள் தேர்வு செய்யுங்கள் அது போதும்.
என்னைப்பொறுத்த வரை அரசியலுக்கு நான் வரமாட்டேன் என்பதை முதலில் நான் உறுதி செய்து
கொள்கிறேன். </p><p>
</p><p>
இவ்வாறு அவர் கூறினார். </p><p>
</p><p>
யாருக்கு பயம் </p><p>
</p><p>
பின்னர் அவரிடம் கேட்ட கேள்விகளுக்கு அவர் அளித்த பதில் வருமாறு:- </p><p>
</p><p>
கேள்வி:- தமிழ்திரையுலக கட்டுப்பாடு குறித்து உங்கள் கருத்து என்ன? </p><p>
</p><p>
பதில்:- எந்தவொரு கட்டத்திலும் தமிழ் திரையுலகுக்கு இடையூறு இல்லாத வகையில் இருந்தால்
நான் ஆதரிப்பேன். அதே நேரத்தில் தமிழ் சினிமாவுக்கு இடையூறாக இருந்ததை எதிரத்து குரல்
கொடுத்தேன். அதன் அடிப்படையில்தான் எனது கருத்தை தெரிவித்தேன். </p><p>
</p><p>
கேள்வி- நீங்கள் அரசியலுக்கு வர தயங்குவது ஏன்? </p><p>
</p><p>
பதில்:- எனக்கு அரசியல் வேண்டாம். சினிமாவே போதும். என்னை அரசியலுக்கு வரச் சொல்லி
யாரும் அழைக்கவும் இல்லை. </p><p>
</p><p>
கேள்வி:- ரசிகர்கள் உங்களை அரசியலுக்கு வரச்சொல்லி வற்புறுத்தினால் வரு வீர்களா? </p><p>
</p><p>
பதில்:- எனது ரசிகர்கள் அப்படி சொல்லவில்லை. </p><p>
</p><p>
கேள்வி:- நீங்கள் அரசி யலுக்கு வருவதால் யாருக்காவது பயமா? </p><p>
</p><p>
பதில்:- யாரும் பயப்படவில்லை. </p><p>
</p><p>
இவ்வாறு அவர் பதில் அளித்தார். </p><p>
</p><p>
பார்வையற்றவர் </p><p>
</p><p>
முன்னதாக கமல்ஹாசன் சென்னை வண்ணைப்பகுதியில் உள்ள நியூ லேபர் லைவன் உடற்பயிற்சி
மையத்திற்கும், கொடுங்கை இளைஞர் உடற்பயிற்சி மையத்திற்கு உடற் பயிற்சி கருவிகள்,
ஆதரவற்ற பெண்கள் ரேணுகா, தரணி, விஜயா ஆகியோருக்கு மூன்று சக்கர சைக்கிள், சுய தொழில்
தொடங்க ராமாயி, மணி, யாஸ்மின் ஆகிய 3 பெண்களுக்கு கிரைண்டர், </p><p>
</p><p>
புதுவை மற்றும் சென்னையை சேர்ந்த தேவி, ராமு ஆகிய ஊனமுற்ற 2 பேர்களுக்கு மூன்று சக்கர
சைக்கிள், சென்னை பார்வையற்றோர் பள்ளிக்கு புத்தக அலமாரி மற்றும் 100 ஆடியோ கேசட்
உள்பட ரூ. 1 லட்சம் மதிப்புள்ள பல்வேறு உதவிக ளை அவர் வழங்கினார். </p><p>
</p><p>
குணசீலன் </p><p>
</p><p>
விழாவிற்கான ஏற்பாடுகளை இயக்க நிர்வாகி ர.குணசீலன் செய்திருந்தார். விழாவில்
வழங்கப்பட்ட உதவி பொருட்களை கோவை மாவட்டம் தங்கவேலு, நெல்லை அருள் இளங்கோ,
பெங்களூர் வேலு, புதுவை அரிகிருஷ்ணன், பழனி இமாம் ஹாசன், தர்மபுரி ரவிச்சந்திரன்,
வடசென்னை மாறன், தென் சென்னை வாசன், ஜான், பூங்கா நகர் கருணாகரன், கொடுங்கையூர்
தரம்குமார், சேத்துபட்டுரவி, மத்திய சென்னை தரணி, ரமேஷ் ஆகியோர் செய்திருந்தனர்.
அனைவரையும் பி.ஆர்.ஓ. கிளாமர் கிருஷ்ண மூர்த்தி வரவேற்றார். </p>

<p> </p>

<p> </p>

<p>ஷோபனா கதாநாயகியாக நடிக்க
ரேவதி இயக்கிய ஆங்கில படம்: அமெரிக்கா - இந்தியாவில் வௌியீடு</p>

<p> </p>

<p>சென்னை, பிப். 1- நடிகை ரேவதி இயக்கிய ''மித்ர மை பிரண்ட்''
என்ற ஆங்கில படம் அமெரிக்கா, இந்தியாவில் இம்மாதம் திரைக்கு வருகிறது. </p><p>
</p><p>
ஆங்கில படம் </p><p>
</p><p>
''மண்வாசனை'' படம் மூலம் பாரதிராஜாவினால் தமிழ் திரையுலகுக்கு அறிமுகம் ஆனவர் நடிகை
ரேவதி. தொடர்ந்து கமல், ரஜினிகாந்த், விஜயகாந்த் என அனைத்து முன்னணி நடிகர்களுடனும்
ஜோடியாக நடித்திருக்கிறார். தமிழ், தெலுங்கு, இந்தி, மலையாளம், கன்னடம் என 125
படங்களுக்கு மேல் அவர் நடித்துள்ளார். கடந்த 16- ஆண்டுகளாக அவர் திரையுலகில் நடித்து
வருகிறார். </p><p>
</p><p>
தற்போது அவர் ''மித்ர மை பிரண்ட்'' என்ற ஆங்கில படத்தை முதன் முறையாக டைரக்டு
செய்திருக்கிறார். இப்படம் முழுக்க முழுக்க அமெரிக்காவில் உள்ள சான் பிரான்சிஸ்கோ
பகுதியில் படமாக்கப்பட்டு உள்ளது. 27 நாட்கள் அமெரிக்காவிலும் 16 நாட்கள் இந்தியாவிலும்
இதன் படப்பிடிப்பு நடை பெற்றுள்ளது. </p><p>
</p><p>
ஷோபனா </p><p>
</p><p>
தேசிய விருது பெற்ற நடிகை ஷோபனா இதில் கதாநாயகியாக நடித்திருக்கிறார். அமெரிக்காவில்
பிறந்து வளர்ந்த நசிர் அப்துல்லா கதாநாயகனாக நடித்திருக்கிறார். இப்படத்தின்
படப்பிடிப்பு உள்பட அனைத்து பணிகளும் நிறைவடைந்து திரையிட தயாராக உள்ளது. சுரேஷ்மேனன்
தயாரித்திருக்கிறார். </p><p>
</p><p>
பேட்டி </p><p>
</p><p>
இதுகுறித்து நடிகை ரேவதி நேற்று சென்னையில் நிருபர்களுக்கு பேட்டி அளித்தார். அதன் விவரம்
வருமாறு:- </p><p>
</p><p>
கேள்வி:- நீங்கள் ஆங்கில படம் டைரக்டு செய்ய காரணம் என்ன? </p><p>
</p><p>
பதில்:- தனிப்பட்ட காரணம் எதுவும் இல்லை. எனது தோழி பிரியா சொன்ன கதை மிகவும்
அருமையாக இருந்தது. அமெரிக்க மாப்பிளையை மணந்து கொள்ளும் இந்திய பெண் ஒருவரை பற்றிய
கதையாக அது இருந்ததால் ஆங்கிலத்தில் இப்படம் டைரக்டு செய்ய முடிவு செய்தேன். </p><p>
</p><p>
கேள்வி:- இப்படம் திரையில் எவ்வளவு நேரம் ஓடும், எப்போது திரைக்கு வருகிறது? </p><p>
</p><p>
பதில்:- ஒன்றே முக்கால் மணி நேரம் இப்படம் திரையில் ஒடும். தமிழ், ஆங்கிலம், இந்தி,
மலையாளம், தெலுங்கு என 5 மொழிகளில் இப்படம் தயாராகி உள்ளது. வருகிற 15-ந் தேதி
அமெரிக்காவில் திரைக்கு வருகிறது. அதற்கு ஒரு நாள் முன்ன தாக அதாவது 14-ந் தேதி
இந்தியாவில் திரைக்கு வருகிறது. </p><p>
</p><p>
கேள்வி:- ஆங்கில படமாயிற்றே பாடல்கள் இருக்குமா? </p><p>
</p><p>
பதில்:- படத்தில் மொத்தம் 8 பாடல்கள் இருக்கின்றன. எல்லா பாடல்களும் காட்சி களுக்கு
இடையே வரும் பாடல்களாகத்தான் இருக்கும். அதற்காக தனிப்பட்ட டூயட் காட்சிகள்
எடுக்கப்படவில்லை. </p><p>
</p><p>
அடுத்த படம் </p><p>
</p><p>
கேள்வி:- உங்களது அடுத்த படம் என்ன? </p><p>
</p><p>
பதில்:- இப்படம் திரைக்கு வருவதால் நிறைய டென்ஷனில் இருக்கிறேன். அது குறைந்த பிறகு
அடுத்த படம் பற்றி பேசலாம். </p><p>
</p><p>
கேள்வி:- இதுபட்ஜெட் படமா? </p><p>
</p><p>
பதில்:- அமெரிக்காவில் படப்பிடிப்பு நடத்துவது என்பது சிக்கனமாக நடத்த முடியாது. இது
பட்ஜெட்டை தாண்டிய படம். </p><p>
</p><p>
கேள்வி:- இப்படத்தில் முழுக்க பெண்கள் குழுதான் உங்களுடன் பணியாற்றிய தல்லவா? </p><p>
</p><p>
பதில்:- ஆம். பிரியா-சுதா இருவரும் திரைக்கதை அமைத்தார்கள். இவர்கள் எனது உதவி
இயக்குனர்களாகவும் பொறுப்பு ஏற்றிருந்தார்கள். பவுசியா ஒளிப்பதிவு செய்தார்.
இளையராஜா மகள் பவதாரணி இசை அமைத்திருக்கிறார். பிரபா உடை அலங்காரம் பொறுப்பு
ஏற்றார். இவருடன் உஷாவும் அப்பொறுப்பினை ஏற்றிருந்தார். மேலும் பினா எடிட்டிங்
செய்தார். தாமரை பாடல்கள் எழுதி உள்ளார். இந்த இரண்டு பேர்களை தவிர மேற்குறிப்பிட்ட
அனைவருமே இப்போது தான் முதன்முறையாக தனிப்பட்ட முறையில் இயங்கி இருக்கிறார்கள். மேலும்
அமெரிக்க பெண்மணிகள் ஜோலின், கிறிஸ், ரோஸ்டா ஆகியோரும் எங்கள் குழுவில்
பணியாற்றினார்கள். </p><p>
</p><p>
கேள்வி:- இதே குழு மீண்டும் ஒரு தமிழ் படத்தில் இணைவீர்களா? </p><p>
</p><p>
பதில்:- நல்ல கதையாக இருந்தால் இணைந்து செய்வோம். </p><p>
</p><p>
வௌிப்படம் இயக்குவேன் </p><p>
</p><p>
கேள்வி:- வௌிப்படங்களை டைரக்டு செய்யும் எண்ணம் உள்ளதா? </p><p>
</p><p>
பதில்:- வாய்ப்பு வந்தால் செய்வேன். </p><p>
</p><p>
பாரதிராஜா-குஷ்பு </p><p>
</p><p>
கேள்வி:- ''மித்ர மை பிரண்ட'' படத்தை தமிழ் திரையுலகில் யார், யார்
பார்த்தார்கள்? </p><p>
</p><p>
பதில்:- பாரதிராஜா, மணிரத்னம், கே.பாக்யராஜ், சுகாசினி, கவுதமி, குஷ்பு, ஹீரா,
பிரியா, பி.சி.ராம் ஆகியோர்பார்த்து பாராட்டினார்கள். </p><p>
</p><p>
கேள்வி:- இயக்குனர் ஆகிவிட்ட நீங்கள் தொடர்ந்து சினிமாவில் நடிப்பீர்களா? </p><p>
</p><p>
பதில்:- நல்ல வேடங்களாக வந்தால் நடிப்பேன். </p><p>
</p><p>
அரசியல் ஒதுங்கிவிட்டேன் </p><p>
</p><p>
கேள்வி:- அரசியலில் இருந்து ஒதுங்கி விட்டீர்களா? </p><p>
</p><p>
பதில்:- ஆமாம், இப்போதைக்கு அரசியலிலிருந்து ஒதுங்கி விட்டேன். </p><p>
</p><p>
மன்னிப்பு </p><p>
</p><p>
கேள்வி:- தமிழ் திரையுலக கூட்டமைப்பு அமைப்பு பற்றி நீங்கள் பேட்டி அளித்தற் காக
விளக்கம் கேட்டிருக்கிறதே என்ன செய்யப் போகிறீர்கள்? </p><p>
</p><p>
பதில்:- தமிழ் திரையுலகம் எனது தாய் போன்றது. அம்மாவிடம் மகள் மன்னிப்பு கேட்பதில்
தப்பு இல்லையே.. </p><p>
</p><p>
இவ்வாறு அவர் கூறினார். </p><p>
</p><p>
பேட்டியின் போது நடிகை ஷோபனா, பவதாரிணி உள்பட பட பெண்கள் குழுவினர் உடனிருந்தனர்.
அனைவரையும் பி.ஆர்.ஓ. சுரா வரவேற்றார். </p>

<p> </p>

<p> </p>

<p>மருத்துவமனையிலிருந்து
திரும்பினார்: பிரசாந்த் வீட்டுக்கு சென்று கமல் நலம் விசாரித்தார், ரஜினி பூச்செண்டு
கொடுத்து வாழ்த்து</p>

<p> </p>

<p>சென்னை, பிப். 1- மருத்துவமனையிலிருந்து வீடு திரும்பிய நடிகர்
பிரசாந்தை அவரது வீட்டுக்கு சென்று கமல்ஹாசன் நலம் விசாரித்தார். ரஜினிகாந்த்
பூச்செண்டு பூரண குணம் அடைய கொடுத்து வாழ்த்து தெரிவித்தார். </p><p>
</p><p>
பிரசாந்த் </p><p>
</p><p>
''வின்னர்'' படத்தில் நடித்த போது வலதுகால் தொடையில் படுகாயம் அடைந்த நடிகர் பிர
சாந்துக்கு சென்னை தனியார் மருத்துவமனையில் அறுவை சிகிச்சை நடந்தது அல்லவா? கடந்த 25
நாட்களாக அவர் மருத்துவமனையில் தங்கி சிகிச்சை பெற்று வந்தார். நேற்று முன் தினம் அவர்
வீடு திரும்பினார். </p><p>
</p><p>
கமல் </p><p>
</p><p>
நந்தனம் பகுதியில் உள்ள பிரசாந்த் வீட்டுக்கு கமல்ஹாசன் நேரில் சென்று பிரசாந்தை
பார்த்து நலம் விசாரித்தார். சுமார் ஒன்றரை மணி நேரம் அவர் பிரசாந்து டன்
பேசிக்கொண்டிருந்தார். </p><p>
</p><p>
''தினமும் அலுவலகத்துக்கு செல்வதுபோல் படப்பிடிப்புக்கு சென்றுவிட்டு திடீரென்று இப்படி 20
நாட்கள் வீட்டில் இருக்க வேண்டும் என்றால் ரொம்பவும் சித்ரவதையாகத் தான் இருக்கும்.
அதனால் படப்பிடிப்பில் நடிக்கும் போது மிகவும் கவனமாக இருக்க வேண்டும். ரிஸ்க்கான
காட்சிகளில் நடிப்பதை தவிர்க்க வேண்டும். நான் ரிஸ்க் எடுத்து பல படங்களில் நடித்து
அதற்கான சித்ரவதை அனுபவித்திருக்கிறேன்'' என்று அவர் பிரசாந்த்துக்கு அறிவுரை கூறினார்.
அதற்கு பிரசாந்த் ''நீங்கள் ஆளவந்தான் படத்தில் கூட மிகவும் ரிஸ்க் எடுத்துதான்
நடித்திருக்கிறீர்கள். பம்மல் கே சம்பந்தம் படத்தில் கூட ஏர் ரேம்ப் என்ற ஸ்டண்ட்
கருவியில் நின்று நடித்திருக்கிறீர்கள். அதைவிட ரிஸ்க் நான் எடுத்து விடவில்லையே'' என்று
கூறினார். </p><p>
</p><p>
கமலுக்கு பிரசாந்த் பிஸ்கட், பழங்கள், மோர் கொடுத்தார். </p><p>
</p><p>
ரஜினி </p><p>
</p><p>
பிரசாந்து விரைவில் பூரண குணம் அடையவேண்டும் என்று ரஜினிகாந்த் அவரது குடும்பத்தினர்
பூச்செண்டு அனுப்பியதுடன் வாழ்த்து கடிதம் ஒன்றையும் அனுப்பி இருந்தார்கள். </p><p>
</p><p>
படப்பிடிப்பு </p><p>
</p><p>
பிரசாந்த் இன்றைக்கு ''தமிழ்'' படத்தின் படப்பிடிப்பில் கலந்துகொள்வதாக இருந்தது.
தற்போது அதன் படப்பிடிப்பு 7-ந் தேதிக்கு தள்ளிவைக்கப்பட்டிருப்பதால் அன்று முதல் அவர்
படப்பிடிப்பில் கலந்து கொள்கிறார். </p>

<p> </p>






</body></text></cesDoc>