<cesDoc id="tam-w-dinakaran-cinema-02-10-13" lang="tam">
<cesHeader type="text">
<fileDesc>
<titleStmt>
<h.title>tam-w-dinakaran-cinema-02-10-13.txt</h.title>
<respStmt>
<respType>Electronic file created by</respType>
<respName>Department of Linguistics, Lancaster University</respName>
<respType>text collected by</respType>
<respName>Paul Baker and Celia Worth</respName>
<respType>transferred into Unicode by</respType>
<respName>"Unicodify" software by Andrew Hardie</respName>
</respStmt>
</titleStmt>
<publicationStmt>
<distributor>UCREL</distributor>
<pubAddress>Department of Linguistics, Lancaster University, Lancaster, LA1 4YT, UK</pubAddress>
<availability region="WORLD"></availability>
<pubDate>03-08-24</pubDate>
</publicationStmt>
<sourceDesc>
<biblStruct>
<monogr>
<h.title>"Dinakaran" internet news (www.dinakaran.com), news stories collected on 02-10-13</h.title>
<h.author>Dinakaran</h.author>
<imprint>
<pubPlace>Tamil Nadu, India</pubPlace>
<publisher>Dinakaran</publisher>
<pubDate>02-10-13</pubDate>
</imprint>
</monogr>
</biblStruct>
</sourceDesc>
</fileDesc>
<encodingDesc>
<projectDesc>Text collected for use in the EMILLE project.</projectDesc>
<samplingDesc>Simple written text only has been transcribed. Diagrams, pictures and tables have been omitted and their place marked with a gap element.
</samplingDesc>
<editorialDecl>
<conformance level="1"></conformance>
</editorialDecl>
</encodingDesc>
<profileDesc>
<creation>
<date>03-08-24</date>
</creation>
<langUsage>Tamil</langUsage>
<wsdUsage>
<writingSystem id="ISO/IEC 10646">Universal Multiple-Octet Coded Character Set (UCS).</writingSystem>
</wsdUsage>
<textClass>
<channel mode="w">print</channel>
<constitution type="composite"></constitution>
<domain type="public"></domain>
<factuality type="fact"></factuality>
</textClass>
<translations></translations>
</profileDesc>
<revisionDesc></revisionDesc>
</cesHeader>

<text>
<body>




<p>எங்கு பார்த்தாலும்
கறுப்புச்சட்டை மயம்: நெய்வேலியை குலுக்கிய பேரணி லட்சக்கணக்கில் திரண்டு ஆர்ப்பாட்டம்
கர்நாடக அரசை கண்டித்து தமிழ்த்திரை உலகம் பொங்கி எழுந்தது</p>

<p> </p>

<p>
 
 
  
  
  
  
  
  
  
  
  
  
  
  
 
 
 

 
<gap desc="illustration"></gap></p>

<p>சென்னையில் புறப்பட்ட
பேருந்தை கையசைத்து வாழ்த்தி வழியனுப்பி வைக்கிறார் விஜயகாந்த். </p>

<p> </p>

<p>கடலூர், அக்.13- காவிரி நீர் தரமறுத்த கர்நாடக அரசை கண்டித்து
தமிழ் திரையுலகினர் நேற்று நெய்வேலியில் பிரமாண்ட பேரணி நடத்தினர். பேரணியின்
முடிவில் பொதுக்கூட்டம் நடைபெற்றது. ரசிகர்கள்-பொதுமக்கள் என லட்சக்கணக்கில்
திரண்டதால் நெய்வேலி நகரமே குலுங்கியது. </p><p>
</p><p>
கர்நாடக காங்கிரஸ் அரசு தமிழகத்திற்கு காவிரியில் தண்ணீர்திறந்துவிட மறுத்தது. இதையடுத்து
நடைபெற்ற காவிரி ஆணைய கூட்டத்தில் காவிரி நீரை திறந்துவிடக்கூறியும் கர்நாடகம்
தண்ணீர் தரமறுத்தது. சுப்ரீம் கோர்ட்டும் தமிழகத்திற்கு காவிரி நீரை தரவேண்டும் என்று
கர்நாடகத்திற்கு உத்தர விட்டது. சுப்ரீம் கோர்ட்டு தீர்ப்பு, காவிரி ஆணையத்தின்
உத்தரவுகளுக்கு கர்நாடகம் மதிப்பளிக்காமல் காவிரிநீரை திறந்து விட மறுத்தது. </p><p>
</p><p>
இதற்கிடையே தமிழகத்திற்கு தண்ணீர் தரக்கூடாது என்று கர்நாடக விவசாயிகளும், திரைப்பட
நடிகர்கள் ராஜ்குமார் தலைமையிலும் போராட்டம் நடத்தினார். </p><p>
</p><p>
போராட்டம் </p><p>
</p><p>
இதனால் ஆத்திரம் அடைந்த தமிழ் திரையுலகினர் தமிழகத்திற்கு காவிரி நீர் தரமறுத்த
கர்நாடக அரசை கண்டித்தும், தமிழ்நாட்டிலிருந்து கர்நாடகத்திற்கு செல்லும் மின்சாரத்தை
நிறுத்தக்கோரியும் போராட்டம் நடத்த முடிவு செய்தனர். அதன்படி நெய்வேலியில்
திரையுலகினர் பங்கேற்கும் பிரமாண்ட பேரணி, பொதுக்கூட்டத்திற்கு ஏற்பாடு செய்தனர். </p><p>
</p><p>
அதன்படி திரையுலகினரின் பேரணி மற்றும் பொதுக்கூட்டம் நேற்று நடைபெற்றது. முன்னதாக
சென்னையிலிருந்து நேற்று காலை நடிகர், நடிகைகள் மற்றும் திரையுலகை சார்ந்தவர் சுமார் 150
பஸ் மற்றும் கார், வேன் போன்றவைகளில் பங்கேற்க கிளம்பினர். நெய்வேலிக்கான பயணத்தை
நடிகர் சங்க தலைவர் விஜயகாந்த், இயக்குனர் பாரதிராஜா ஆகியோர் தொடங்கி வைத்தனர். </p><p>
</p><p>
நடிகர்கள் திரண்டனர் </p><p>
</p><p>
இவர்கள் வந்த முதல் பஸ் கடலூரை காலை 10.45 மணிக்கு வந்தடைந்தது. இதைத்தொடர்ந்து
மற்றவர்களும் வந்தனர். அவர்களை வழிநெடுகிலும், சாலையின் இருபுறத்திலும் நின்று
பொதுமக்கள், ரசிகர்கள், சிறுவர் சிறுமிகள், மாணவ-மாணவிகள் வாழ்த்தி வரவேற்றனர்.
ரசிகர்களின் உற்சாக வரவேற்பை பெற்றுக்கொண்ட திரையுலகினர் நேற்று மாலை கடலூர்
வந்தடைந்தனர். மதிய உணவிற்கு பின்னர் பேரணி புறப்படும் என்.ஆர்.ராஜன் நகரில் நடிகர்
நடிகைகள் குவிந்தனர். </p><p>
</p><p>
மாலை 5.00மணி அளவில் திரையுலகினர் பவுனாம்பாள் நகரிலிருந்து நெய்வேலி நோக்கி தங்கள்
பேரணியை தொடங்கினர். பாரதிராஜா தலைமையில் தொடங்கிய இந்த பேரணியில் 5000
ஆயிரததிற்கு மேற்பட்ட வர்கள் கலந்து கொண்டனர். சுமார் 2 கிலோ மீட்டர் தூரம் வரை
பொது மக்கள் மற்றும் ரசிகர்கள் பார் வைக்காக திறந்த வௌி லாரியில் விஜயகாந்த்,
சரத்குமார், கமல்ஹாசன் மற்றும் நடிகர்- நடிகைகள் பயணித்தனர். மாலை 6 மணிக்கு
என்.எல்.சி. ஆர்ச்கேட்டை அடைந்த அவர்கள் இரண்டாவது அனல் மின் நிலையம் நோக்கி 3
கி.மீட்டர் தூரம் நடைபயணமாக பேரணியில்சென்றனர். இயக்குனர் பாலச்சந்தர் ஜீப்பில்
அமர்ந்து வந்தார். </p><p>
</p><p>
பேரணியில் கலந்து கொண்ட நடிகர்கள் காலி பனைகளை தலையில் சுமந்து கர்நாடக அரசுக்கு
கண்டனம் தெரிவித்தபடி வந்தனர். </p><p>
</p><p>
மனு </p><p>
</p><p>
பின்னர் பாரதிராஜா, விஜயகாந்த், சரத்குமார், ராதாரவி உள்பட 10 பேர் சென்று
என்.எல்.சி தலைவர் ஜெயராமனை சந்தித்து மனு கொடுத்தனர். இதன்பின்னர் என்.எல்.சி.
ஹெலிகாப்டர் மைதானத்தில் திரையுலகினர் பங்கேற்ற பொதுக்கூட்டம் நடை பெற்றது.
திரையுலகினரின் இந்த பிரமாண்ட பேரணியால் நெய்வேலி நகரமே குலுங்கியது. ரசிகர்கள்-
பொதுமக்கள் என பலலட்சம் பேர் இந்த பேரணியில் பங்கேற்றனர். </p><p>
</p><p>
பலத்த பாதுகாப்பு </p><p>
</p><p>
திரையுலகினர் பிரமாண்ட பேரணியையொட்டி சுமார் 10 ஆயிரத்திற்கு மேற்பட்ட போலீசார்
பாதுகாப்பு பணியில் ஈடுபட்டிருந்தனர்.இதில் என்.எல்.சி. நிறுவனத்தின் மத்திய
பாதுகாப்பு படையினரும் அடங்குவர். இவர்கள் ஊர்வலப்பாதையில 2அடிக்கு ஒருவர் வீதம்
நிறுத்தப்பட்டிருந்தனர். ஆங்காங்கே சுழலும் காமிராக்கள் வைக்கப்பட்டு பேரணியில்
வந்தவர்கள் கண்காணிக்கப்பட்டனர். மேலும் என்.எல்.சி.ஆர்ச் கேட்டிலிருந்து நடிகர்
நடிகைகளுடன் போலீசார் பாதுகாப்புக்கு சென்றனர். </p><p>
</p><p>
திரை உலக பேரணி மாபெரும் வெற்றி விஜயகாந்த் பேட்டி </p><p>
</p><p>
நெய்வேலி திரையுலகத்தினரின் கண்டன பேரணி- ஆர்ப்பாட்டம் குறித்து நடிகர்கள் கூறியதாவது: </p><p>
</p><p>
நடிகர் சங்க தலைவர் விஜயகாந்த் கூறியதாவது: </p><p>
</p><p>
காவிரிநீர் பிரச்சினை தமிழர்களின் உயிர் பிரச்சினை ஆகும். சுப்ரீம் கோர்ட்டும்,
காவிரி நடுவர் மன்றமும் காவிரி நீரை தமிழகத்திற்கு திறந்து விட சொல்லி உத்தரவிட்ட
பிறகும் கர்நாடக அரசு காவிரி நீரை வழங்க மறுக்கிறது இது வன்மையாக கண்டிக்கத்தக்கது. தமிழக
விவசாயிகளின் வாழ்க்கை பிரச்சினையை மனிதாபிமானத்துடன் கர்நாடக அரசு கவனித்து தண்ணீரை
திறந்து விட வேண்டும். </p><p>
</p><p>
ஆனால் அங்கிருந்து வரும் தகவல்கள் எல்லாம் நெஞ்சில் வேல் பாய்ச்சும் தகவல்களாக
உள்ளன. காவிரிநீரை தராவிட்டால் தமிழகத்தில் திரையுலகினரின் அடுத்தகட்ட பேராட்டம்
நிச்சயம் பெரிய அளவில் இருக்கும். இன்றைய பேரணியில் திரைஉலகினர் எழுச்சியுடன் கலந்து
கொண்டது மகிழ்ச்சி அளிக்கிறது. இது ஒரு மாபெரும் வெற்றி பேரணியாக அமைந்து விட்டது </p><p>
</p><p>
இவ்வாறு அவர் கூறினார். </p><p>
</p><p>
சரத்குமார் எம்.பி. </p><p>
</p><p>
நடிகர் சரத்குமார் எம்.பி. கூறியதாவது: </p><p>
</p><p>
உச்சநீதி மன்றம் இந்தியாவின் அதிக அதிகாரம் வாய்ந்த நீதித்துறை, அவர்கள் தமிழகத்
திற்கு தண்ணீர் விடஉத்தரவிட்ட போதும் இது வரை தண்ணீர் திறந்து விடவில்லை. தானைத்
தலைவர் கலைஞர் முதலமைச்ச ராகபொறுப் பேற்றிருந்த அத்தனை நேரத்திலும் தமிழக
விவசாயிகளின் வாட்டத்தை போக்கும் வகையில், வறட்சியை போக்கும் வகையில் சுமுகமாக பேச்சு
நடத்தி காவிரி நீர்பெற்று தந்திருக்கிறார். இன்றைய தினம் திரையுலகினரின் ஒற்றுமையை
காக்கும் வகையில் எங்களை எல்லாம் நெய்வேலி காவிரி பேரணியில் பங்கேற்க வாழ்த்தி வழி
அனுப்பி உள்ளார். இந்த அறப்போராட்டம் நிச்சயம் வெற்றி பெரும். </p><p>
</p><p>
நெப்போலியன் எம்.எல்.ஏ. </p><p>
</p><p>
நடிகர் நெப்போலியன் கூறியதாவது: </p><p>
</p><p>
தமிழ் திரையுலகினர் தமிழக விவசாயிகளின் வாழ்க்கை பிரச்சினையை என்னி பார்த்து காவிரி
நீர்பெறும் போராட்டத்தில் குதித்துள்ளனர். இந்த காவிரி நீர் தமிழகத்திற்கு நிச்சயம்
வந்து ஆக வேண்டும் என்று எங்கள் தலைவர் கலைஞர் வாழ்த்தி அனுப்பியிருக்கிறார்.
தற்போது நெய்வேலியில் நடக்கும்இந்த அறப்போராட்டம் கன்னடர்களின் மனத்தில் மனிதாபி
மானத்தையும், மனித நேயத்தையும் ஏற்படுத்த வேண்டும் என்பது தான் எங்கள் ஆசை. இத்தகைய
மனநிலை அவர்களிடம் தோன்றிவிட்டால் காவிரி நீரை தமிழக்திற்கு தருவதில் எந்த
எதிர்ப்பையும் காட்ட மாட்டார்கள். </p><p>
</p><p>
இவ்வாறு அவர் கூறினார். </p><p>
</p><p>
முரளி நடிகர் முரளி கூறியதாவது: </p><p>
</p><p>
தண்ணீர் என்பது பொது சொத்து இது எனக்கு மட்டும் தான் சொந்தம், உனக்கு மட்டும் தான்
சொந்தம் என்று பிரித்து பார்க்க கூடாது. சகோதர உணர்வுடன் இந்த பிரச்சினையை அனுகினால்
நிச்சயம் தீர்வு கிடைக்கும். இந்த நிலையை உணர்ந்து விட்டால் இந்தியாவின் ஒற்றுமைக்கு
எந்த வகையிலும் பங்கம் ஏற்படாது. நடிகர் சங்கம் இந்த நீரை பெறுவதில் மிகப் பெரிய
முயற்சியை எடுத்திருக்கிறது. அது வெற்றிகரமாக அமையும் என்பதில் சந்தேகம் இல்லை. </p><p>
</p><p>
மணிவண்ணன் </p><p>
</p><p>
நடிகர் மணிவண்ணன் கூறியதாவது: </p><p>
</p><p>
திரையுலகம் இன்றைக்கு நடத்தும் காவிர பேரணி தமிழக மக்களின் உள்ளத்தில்
திரையுலகினரின் மதிப்பை உயர்த்தும். இவர்கள் சப்பிடுவதற்கும் சொத்து சேர்ப்பதற்கும்
தான் இருக்கிறார்கள் என்று மக்கள் நினைக்க மாட்டார்கள். சினிமா துறையினர் சமூகத்தில்
ஓர் அங்கம் என்று ஏற்றுக் கொள்வர். மேலும் இந்த பிரச்சினையில் அரசியல் வாதிகள்
நிரந்திரமாக தீர்த்து வைக்க பாடுபட வேண்டும். காவிரியில் மழை வரும் போது மறந்துவிடுவதும்
தண்ணீர் பற்றாக்குறை ஏற்படும் போது காவிரி நீரை பற்றி நினைப்பதையும் மாற்றிக் கொண்டு
மழை பெய்யும் காலத்திலேயே, மழை பெய்து அணைகள் நீர் நிரம்பியிருக்கும் காலத்திலேயே
காவிரிநீர் பற்றி பேசி பற்றாக்குறையே போக்குவதற்கான நடவடிக்கைகளை எடுக்க வேண்டும் என்று
சோ கூறினார். அதுவேதான் என்னுடை கருத்து ஆகும். </p><p>
</p><p>
சந்திரசேகர் </p><p>
</p><p>
நடிகர் சந்திரசேகர் கூறியதாவது: </p><p>
</p><p>
தமிழக விவசாயிகள் யானை கட்டி போரடித்தனர் என்று சரித்திரத்தில் இடம்பெற்றிருக்கிறது.
கர்நாடகத்தில் அப்படி எந்த சரித்திரமும் இல்லை. தமிழகம் தான் விவசாயத்தை நம்ப
இருக்கிறது. இந்த விவசாய பூமிக்கு காவிரி நீரை தருவது நிச்சயம் தகும். காவிரி நதி
நீருக்காக நடக்கும் இந்த பேரணியில் பங்கேற்க வேண்டும் என்று எங்களை அனுப்பிய
முத்தமிழறிஞர் கலைஞர் மிகுந்த மகிழ்ச்சியுடன் சென்றுவா, வென்று வா என்று
வாழ்த்து கூறி அனுப்பி வைத்தார். </p><p>
</p><p>
இவ்வாறு அவர் கூறினார். </p><p>
</p><p>
வடிவேலு </p><p>
</p><p>
நடிகர் வடிவேலு கூறியதாவது: </p><p>
</p><p>
கர்நாடக மக்கள் தமிழர்களை பாகிஸ்தான் எதிரிகளை போல் பார்க்கின்றனர் அது தவறு.
காவிரிநீர் என்பது கன்னடர்களின் வீடுகளில் இருந்து ஊற்றாகி வருவது அல்ல. அது இயற்கையின்
அன்பளிப்பு, ஆனால் கன்னட வெறியர்கள் அந்த நீரை தமிழகத்திற்கு வழங்க மறுக்கின்றனர்.
டைரக்டர் பாரதிராஜா, நடிகர் சங்க தலைவர் விஜயகாந்த ஆகியோரின் தலைமையில் நடக்கும்
இந்த பேரணி ஒரு புனித போர் என்று கூறலாம். மீண்டும் கர்நாடகாவில் காவிரி பிரச்சினையை
எழுப்பினால் தமிழகத்திலும் மற்றொரு போராட்டம் வெடிக்கும். </p><p>
</p><p>
இவ்வாறு அவர் கூறினார். </p><p>
</p><p>
பேரணியில் பங்கேற்ற பட அதிபர்கள்- விநியோகஸ்தர்கள் </p><p>
</p><p>
நெய்வேலியில் நடைபெற்ற தமிழ் திரையுலகினர் பிரமாண்ட பேரணியில் பங்கேற்ற பட
அதிபர்கள்- விநியோகஸ்தர்கள் விவரம் வருமாறு:- </p><p>
</p><p>
பட அதிபர் கே.ஆர்.ஜி., தயாரிப்பாளர் சங்கதலைவர் இப்ராகிம் ராவுத்தர், துணைத்தலைவர்கள்
ஏ.எல்.அழகப்பன், கோவைத்தம்பி, செயலாளர்கள் சித்ராலட்சுமணன், அன்பாலயா பிரபாகரன்,
பொருளாளர் கே.முரளிதரன், படஅதிபர்கள் எஸ்.தாணு, ஆர்.பி.சவுத்ரி, பிரமிட் நடராஜன்,
வி.சுவாமிநாதன், ஜி.வேணுகோபால், எச்.முரளி, ஹென்றி, நந்தகோபால் செட்டியார், பழனியப்ப
செட்டியார், கே.சீனுவாசன், கே.எஸ்.சிவராமன், வி.ஞானவேல், ஜெயப்பிரகாஷ்,
காஜாமைதீன், பிரான்சிஸ் ஜோசப், ஆஸ்கார் சுரேஷ், ஆஸ்கார் பாபு, கே.ராஜன், கவிதாலயா
கந்தசாமி, டி.சிவா, வெங்கட், மேக்னட் ராஜாராம், கே.விஜயகுமார், சுப்பு பஞ்சு,
ஏ.என்.சுந்தரேசன், மாதேஷ், எஸ்.மணி, பாபுஜி, சத்யஜோதி தியாகராஜன், ஆனந்தி பிலிம்ஸ்
நடராஜன், சிவசக்தி பாண்டியன், விநியோகஸ்தர் சங்க தலைவர் சிந்தாமணி முருகேசன், ஆனந்தா
எல்.சுரேஷ், திரையரங்கு உரிமையாளர்கள் சங்க தலைவர் அண்ணாமலை, அபிராமி ராமநாதன் உள்பட
பலர் கலந்து கொண்டனர். </p><p>
</p><p>
பேரணியில் பங்கேற்ற நடிகர்- நடிகையர் </p><p>
</p><p>
திரையுலகினர் பேரணியில் கலந்து கொண்ட நடிகர்- நடிகைகள் விவரம் வருமாறு:- </p><p>
</p><p>
நடிகர்சங்க தலைவர் விஜயகாந்த், கமல்ஹாசன், பொதுச் செயலாளர் சரத்குமார், துணை தலைவர்
நெப்போலியன், பொருளாளர் கே.என். காளை, எஸ்.எஸ்.சந்திரன், சத்யராஜ், டி.ராஜேந்தர்,
சிவக்குமார், விஜய், சந்திரசேகர், அஜித், கார்த்திக், பிரபு, தியாகராஜன்,
பிரசாந்த், விக்ரம், முரளி, சூர்யா, நாசர், பிரபுதேவா, விவேக், வடிவேலு, செந்தில்,
தாமு, பாண்டியன், ரவிச்சந்திரன், ராமராஜன், கரண், டெல்லிகணேஷ், ராஜேஷ், அருண்குமார்
உள்பட நடிகர் பலர் திரண்டனர். </p><p>
</p><p>
நடிகைகள் மனோரமா, ராதிகா, ரோஜா, சிம்ரன், கிரண், மும்தாஜ், காயத்ரி ரகுராம், ரவளி,
அனுராதா, அபிநய, காந்திமதி, ரவளி, ஜோதிகா, ஷாலினி உள்பட ஆயிரக்கணக்கானோர் கலந்து
கொண்டனர். </p><p>
</p><p>
கடலூர் சாலையில் 4மணிநேரம் போக்குவரத்து நிறுத்தம் </p><p>
</p><p>
தமிழ்த்திரையுலகினர் இன்று காலை சென்னையிலிருந்து நெய்வேலிக்கு 150க்கும் மேற்பட்ட
வாகனங்களில் வந்தனர். அவர்களின் வாகனங்கள் கடலூர், பண்ருட்டி, நெல்லிக்குப்பம்,
வடலூர் வழியாக நெய்வேலியை வந்தடைந்தது. இவர்களின் வருகைக்கு எந்தவித இடைஞ்சலும்
இருக்கக் கூடாது என்பதற்காக கடலூர்-பண்ருட்டி சாலையில் சுமார் 4 மணிநேரம் போக்குவரத்து
நிறுத்தப்பட்டது. திரையுலகினர் வாகனங்கள் சென்ற பின்னரே மற்ற வாகனங்கள்
போக்குவரத்துக்கு அனுமதிக்கப்பட்டது. </p><p>
</p><p>
பண்ருட்டியில் போக்குவரத்து பாதிப்பு போலீசார் தடியடி </p><p>
</p><p>
பண்ருட்டியில் நடிகர் நடிகைகளை காண மக்கள் வௌ்ளம் போல் திரண்டனர். கடைவீதி மெயின்
ரோடு ஆகிய பகுதிகளில் கூட்டம் அதிகமானது. மேலும் பஸ், வேன்களை மறித்து நடிகர்கள் யாரும்
உள்ளனரா என்று ரசிகர்கள் பார்த்தனர். இதனால் போக்குவரத்து பாதிக்கப்பட்டது. இதையடுத்து
போலீசார் லேசான தடியடி நடத்தி கூட்டத்தை கட்டுக்குள் கொண்டு வந்தனர். </p><p>
</p><p>
பண்ருட்டியில் ரசிகர்களின் ஒருபகுதியினர் கறுப்பு பேட்ஜ் அணிந்து கர்நாடக முதல்வர்
எஸ்.எம்.கிருஷ்ணா ஒழிக, கிருஷ்ணாவே தண்ணீர் கொடு என்று கோஷங்களை எழுப்பினர். </p><p>
</p><p>
40 இடங்களில் ரகசிய கேமிரா: நடிகர்-நடிகை ஊர்வல பாதையில் மெட்டல் டிடெக்டர் மூலம்
சோதனை </p><p>
</p><p>
நெய்வேலியில் இன்று நடக்க உள்ள நடிகர்-நடிகைகளின் பொதுக்கூட்டம் நடக்கும் இடங்களில்
மதுரையில் இருந்து கொண்டு வரப்பட்ட வருண் என்ற பெயரில் தண்ணீர் பீய்ச்சி அடிக்கும்
எந்திரம் வைக்கப்பட்டுள்ளது. மேலும் நடிகர்-நடிகைகள் ஊர்வலம் செல்லும் பாதையை மெட்டல்
டிடெக்டர் மூலம் சோதனை செய்யப்பட்டு வருகிறது. பொதுக் கூட்டம் நடக்கும் இடத்தின்
40-க்கும் மேற்பட்ட ரகசிய கேமிராக்கள் பொருத்தப்பட்டுள்ளது. நெய்வேலியில் எங்கு பார்த்தாலும்
போலீசார் தலையே தென்படுகிறது. நெய்வேலி ஆர்ச் கேட் அருகே டாக்டர்கள் குழு தயார்
நிலையில் நிறுத்தி வைக்கப் பட்டுள்ளனர். </p><p>
</p><p>
பேரணி பாதையில் ருசிகர வாசகங்கள் </p><p>
</p><p>
தமிழ்நாட்டுக்கு தண்ணீர் கோரி நெய்வேலியில் நடக்கும் பேரணிக்கு ஆதரவாக கடலூர்-பண்ருட்டி
ரோட்டில் ஆங்காங்கே தமிழ்நாடு ஓவியர்கள் சங்கம் சார்பாக 15-க்கும் மேற்பட்ட
கரும்பலகைகள் வைக்கப்பட்டு இருந்தன. அதில் ஓவியர்கள் கண்கவர் வாசகங்களை எழுதி
வைத்திருந்தினர். கவிதை நடையில் இருந்த அந்த வாசகங்கள் காண்பர்கள் அனைவரையும்
கவர்ந்தது. </p><p>
</p><p>
அந்த வாசகங்கள் வருமாறு:- </p><p>
</p><p>
கேட்டதும் கொடுப்பவனே... கிருஷ்ணா... கிருஷ்ணா கெஞ்சி கேட்டாலும் கொடுக்கலையே
எம்.எம்.கிருஷ்ணா.... </p><p>
</p><p>
காவிரித்தாயே... காவிரித்தாயே... கன்னடர் கைகளில் சிறைப்பட்டாயே... </p><p>
</p><p>
தமிழர் படை உனை மீட்க திரண்டெழுகிறது தலை உடைக்கம் உரிமைப்போர் மூண்டெழுகிறது </p><p>
</p><p>
நதிகளை இணைத்திடு நாளைக்கு.... காவிரி நீரால் நனைத்திடு இன்றைக்கு... </p><p>
</p><p>
கணக்கில்லாமல் அணைகளை நீ கட்டி எழுப்பினாய்... எனவே காவிரித்தா தமிழர்களை தட்டி
எழுப்பினாள்... </p><p>
</p><p>
இதுபோன்ற தமிழ் உணர்வூட்டும் வாசகங்கள் அங்கிருந்த அனைவரையும் உற்சாக குரலில்
ராகத்துடன் பாட வைத்தது. </p><p>
</p><p>
திருவிழா களைகட்டிய கடலூர் மாவட்ட கிராமங்கள் </p><p>
</p><p>
கடலூர் அருகே உள்ள மரு தாடு கிருஷ்ணசாமி என்ஜினீயரிங் கல்லூரியில் நடிகர் நடிகைகளுக்கு
34க்கும் மேற்பட்ட சைவ-அசைவ உணவுவகைள் தயாரிக்கப் பட்டுள்ளது. மதியம் 11 மணிமுதல்
சென்னையிலிருந்து வந்த நடிகர் நடிகைகள் மற்றும் திரைப்பட கலைஞர்கள் 250க்கும்
மேற்பட்ட பஸ், வேன்களில் கலையுலகினரின் காவிரிப் போராட்டம் என கருப்பு பேனர் கொடி
கட்டி அணிவகுத்து வந்தனர். </p><p>
</p><p>
பண்ருட்டி- மேல்பட்டமங்கலம்-நெல்லிக்குப்பம் என கடலூர் முதல் பண்ருட்டி வரையுள்ள
நகரங்களிலும் கிராமங்களிலும் திருவிழா கூட்டம் போல் மக்கள் கூடினர். அங்கு வாழை, தென்னை
தோரணங்களும், பேனர்களும் கட்டப்பட்டிருந்தது. ஒவ்வொரு பஸ், வேன்களில் திரைப்பட
கலைஞர்கள் மற்றும் நடிகர்களை கூடியிருந்த கிராம மக்கள் குழந்தைகள் பெண்கள் என
அனைவரும் உற்சாகமாக கையசைத்து வரவேற்றனர். </p><p>
</p><p>
திரையுலகினர் கைகளில் போராட்ட வாசகங்கள் </p><p>
</p><p>
திரையுலகினர் பங்கேற்கும் பேரணியில் அவர்கள் சுமந்து வந்த அட்டைகளில் எழுதப் பட்டிருந்த
வாசங்கள் வருமாறு:- </p><p>
</p><p>
காஷ்மீர் பிரச்சினையில் இந்தியனாய் இரு காவிரி பிரச்சினையில் தமிழனாக இரு </p><p>
</p><p>
கர்நாடக அரசே காவிரியை அனுப்பு மத்திய அரசே அதை தீவிரப்படுத்து </p><p>
</p><p>
கலையுலகே அணிவகுப்போம் காவிரிக்கு குரல் கொடுப்போம் </p><p>
</p><p>
திரையுலகினர் கரங்களில் தவழ்ந்த இந்த வாசங்களை பொதுமக்களும் உரத்த குரலில் சொல்லி
அவர்களை மேலும் உற்சாகப்படுத்தினர். </p><p>
</p><p>
நெய்வேலி பேரணியில் மதுரை ஆதீனம் </p><p>
</p><p>
நெய்வேலியில் இன்று நடை பெற்ற தமிழ் திரையுலகினரின் பேரணியில் மதுரை ஆதீனம்
அருணகிரிநாதர் ஞானசம்பந்த தேசிக பரமாச்சாரியார் பங்கேற்றார். அவர்
நிருபர்களிடம் கூறுகையில், திரையுலக பேரணியில் கலந்து கொள்ள வந்துள்ளேன். தமிழகத்தில்
நடைபெறும் காவிரி நீர் பிரச்சினை போராட்டத்தில் தமிழர்கள் அனைவரும் ஒற்றுமையாக கலந்து
கொள்வது நமது கடமையாகும். கர்நாடக அரசு பிடிவாதத்தை விட்டு விட்டு தமிழ்நாட்டிற்கு தண்ணீர்
விட வேண்டும் என அன்புடன் கேட்டுக்கொள்கிறேன் என்றார் </p><p>
</p><p>
...பேரணி துளிகள்... </p><p>
</p><p>
கிண்டி-தாம்பரம் வரை திரையுலகத்தினரை ஏற்றி செல்லும் பஸ்கள் ரோடு ஓரத்தில்
நிறுத்தப்பட்டிருந்தன. அங்கு அனைவரும் வரிசையாக நின்று பஸ்களில் ஏறினார்கள். லேட் ஆக
நடிகர்-நடிகைகள் வந்ததால் சென்னையில் இருந்து புறப்பட்டு செல்வதில் ஏறத்தாழ 2 மணி நேரம்
காலதாமதம் ஏற்பட்டது. </p><p>
</p><p>
பஸ்களிலேயே அனைவருக்கும் காலை டிபன் வழங்கப்பட்டது. சட்னி, சாம்பாருடன் இட்லி,
பொங்கல், வடை பரிமாறப்பட்டது. </p><p>
</p><p>
திரையுலகத்தினர் செல்லும் பஸ்கள் செல்வதற்கு வசதியாக போக்குவரத்து
சீரமைக்கப்பட்டிருந்தது. கிளை ரோடுகள் அனைத்தும் அடைக்கப்பட்டன. எதிரே வரும் வாகனங்கள்
ரோட்டு ஓரமாக நிறுத்தப்பட்டன. </p><p>
</p><p>
அனைவரையும் பஸ்சில் ஏற்றி விட்டு விஜயகாந்த் தனி காரில் சென்றார். சரத்குமார்,
நெப்போலியன் இதர நடிகர்-நடிகைகளுடன் பஸ்சில் சென்றனர். </p><p>
</p><p>
ஒவ்வொரு பஸ்சிலும் கலைக்குழுவின் காவிரி போராட்டம் என்று எழுதப்பட்டிருந்தது. பஸ்களில்
வரிசைக்கிரமமாக எண்கள் எழுதப்பட்டிருந்தன. பஸ்கள் அனைத்தும் அணிவகுத்து சென்றன. </p><p>
</p><p>
சென்னையில் இருந்து திரையுலகினர் புறப்பட்ட முதல் பஸ் கடலூருக்கு 11.30-க்கு வந்தது. </p><p>
</p><p>
திரையுலகினர் தங்க ஏற்பாடு செய்யப்பட்ட கிருஷ்ணசாமி என்ஜினீயரிங் கல்லூரிக்கு முதலில்
நடிகர் குள்ளமணி வந்தார். 2-வதாக நடிகர் ராதாரவி எம்.எல்.ஏ. வந்தார். </p><p>
</p><p>
பேரணியில் பங்கேற்க சென்னையில் இருந்து கமல்-சிம்ரன் ஒரே காரில் கடலூர் வந்தனர். </p><p>
</p><p>
கடைசி பஸ் சரியாக 9.50 மணிக்கு புறப்பட்டது. </p><p>
</p><p>
மதில் சுவர்களில் மக்கள் </p><p>
</p><p>
நெய்வேலிக்கு நடிகர்கள் சென்னையில் இருந்து பஸ்கள் மூலம் வந்தனர். நடிகர்-நடிகைகளை
பார்ப்பதற்க்காக சென்னையில் இருந்து நெய்வேலி வரை நோடுகளின் இரு புறங்களிலும் மக்கள்
கூடி நின்றனர். அவர்கள் நடிகர்களை உற்சாகமாக கையசைத்து வரவேற்றனர். </p><p>
</p><p>
இதற்காக வீட்டு மாடிகளிலும், மதில் சுவர்களிலும் ஏராளமானோர் திரண்டு நின்றனர். நடிகர்கள்
மதிய உணவு சாப்பிட்ட கல்லூரி முன்பு கட்டுக்கடங்காத கூட்டம் கூடி நின்றது. அவர்களை
கட்டுப்படுத்த போலீசார் மிகவும் சிரமப்பட்டனர். </p><p>
</p><p>
மேடைக்கு செல்லும் பொதுமக்களிடம் போலீசார் தீவிர சோதனை </p><p>
</p><p>
நடிகர்-நடிகைகள் கலந்து கொள்ளும் போராட்ட மேடையை நோக்கி பொது மக்கள் திரளாக சென்ற
வண்ணம் உள்ளனர். </p><p>
</p><p>
அவர்களிடம் போலீசார் தீவிர சோதனை நடத்திய பிறகே மேடைக்கு அனுப்பினார்கள். இதில்
பெண்களை பெண் போலீசாரும், ஆண்களை ஆண் போலீசாரும் சோதனை செய்து அனுப்பி வைத்தனர். </p><p>
</p><p>
நடிகர்களை பார்க்க முடியாமல் ரசிகர்கள் ஏமாற்றம் </p><p>
</p><p>
கடலூர் சாலையில் பண்ருட்டி வழியாக மருதாட்டில் உள்ள கிருஷ்ணசாமி என்ஜினீயரிங்
கல்லூரியில் மதிய உணவு சாப்பிட நடிகர் நடிகைகள் மற்றும் திரைப்பட கலைஞர்கள் பஸ்,
வேன், கார்களில சென்றனர். முன்னணி நடிகர்கள் தங்கள் வாகனங்களில் கருப்பு கண்ணாடியை
ஏற்றிவிட்டு சென்றனர். இதையடுத்து அவர்களை காணவந்திருந்த பொதுமக்கள் அவர்களை பார்க்க
முடியாமல் ஏமாற்றம் அடைந்தனர். திரைப்பட கலைஞர்கள் வந்த வேன், பஸ்களையும், மற்ற
வாகனங்களையும் நிறுத்தி நடிகர்கள் யாரும் உள்ளனரா என்று வாய்விட்டு கேட்டது பரிதாபமாக
இருந்தது. </p><p>
</p><p>
நாங்களும் தயார் </p><p>
</p><p>
திரையரங்குளில் தங்கள் மனதுக்கு பிடித்த நடிகர் வந்தவுடன் சிறுவர்களின் கூச்சல்
களைகட்டும். திரையரங்கமே இடிமுழங்கும். இது எல்லோருக்கும் தெரிந்ததே. ஆனால் இன்று
திரையுலகினர் வரும் வழியெல்லாம் இந்த வாண்டுகள் தங்கள் கைகளில் கருப்பு கொடிகளை
பிடித்துக் கொண்டு திரையுலகினரை வரவேற்றது கர்நாடகத்திற்கு எதிராக போராட நாங்களும்
சளைத்தவர்கள் இல்லை என்பதை நிரூபித்தது. </p><p>
</p><p>
கறுப்பு உடையில் நடிகர்-நடிகைகள் </p><p>
</p><p>
நெய்வேலியில் இன்று நடைபெற்ற திரையுலகினர் பேரணியில் பங்கேற்ற நடிகர்-நடிகைகள் கருப்பு
பனியன்- கருப்்பு சட்டை அணிந்து வந்தார்கள். அந்த பனியனில் தமிழ் வாழ்க வேண்டும்
காவிரி என்ற வாசகங்கள் அச்சிடப்பட்டு இருந்தன. </p>

<p> </p>

<p> </p>

<p>ரஜினி மீது பாரதிராஜா கடும்
பாய்ச்சல் தமிழ்மண் சத்தை உறிஞ்சி வளர்ந்த மரம் விஷவித்தை தருவதா?</p>

<p> </p>

<p>நெய்வேலி, அக். 12- தமிழ்மண் சத்தை உறிஞ்சி வளர்ந்த
மரம் விஷவித்தை தருவதா என்று ரஜினி மீது பாரதிராஜா கடுமையாக சாடினார். </p><p>
</p><p>
அண்டை நாடா </p><p>
</p><p>
நெய்வேலி போராட்டத்தில் இயக்குநர் பாரதிராஜா பேசியதாவது:- </p><p>
</p><p>
தண்ணீர் கேட்டு கண்ணீருடன் வந்து இங்கே நாம் எல்லாம் கூடியிருக்கிறோம். நான்
உணர்ச்சிவசப்பட்டு தான் பேசுவேன். பயந்து பயந்து பேசுவதில் ஒரு பயனும் இல்லை. </p><p>
</p><p>
காவிரி பிரச்சினையில் இப்போது இனப்பிரச்சினை தான் அதிகமாக உள்ளது. தமிழர்களை
இளிச்சவாயர்களாக நினைக்கிறார்கள். உச்ச நீதிமன்ற தீர்ப்பையே மதிக்க முடியாது என்றால்
அவர்கள் அண்டை மாநிலமா? அல்லது அண்டை நாடா என்கிற சந்தேகம் வருகிறது. </p><p>
</p><p>
அங்கே நம்முடைய உருவ பொம்மைகளை எரிக்கிறார்கள். ஊர்வலம் போகிறார்கள். போராட்டம்
நடத்துகிறார்கள். பாரதிராஜா சத்தியராஜ் ஆகியோரின் உருவ பொம்மைகளை எரித்தார்கள்.
அப்படியும் இங்கே அமைதியாக தான் தமிழன் இருந்தான். </p><p>
</p><p>
வன்முறை </p><p>
</p><p>
நாங்களும் இங்கே உசுப்பிவிட்டால் பற்றி எரியாதா?. சிதறி கிடக்கிற தமிழனை
ஒற்றுமைப்படுத்த எங்களால் முடியாதா?. அறவழியில் போராட்டம் என்கிறார்கள், அமைதிப்போராட்டம்
என்கிறார்கள். அந்த வார்த்தைகளை கொஞ்சம் மாற்றினால் அறுவாள், தீ என்று
சொல்லலாம். உடனே பாரதிராஜா வன்முறை பேசுகிறான், அறுவாள், தீயை பற்றி பேசுகிறான் என்று
வர்ணம் பூசி விடாதீர்கள். </p><p>
</p><p>
தமிழனை பிரிக்க ... </p><p>
</p><p>
ஊர்வலம் நடத்தினால் தண்ணீர் வந்துவிடுமா?. மின்சாரம் கொடுக்க கூடாது என்று தடுத்தால்
தண்ணீர் வந்துவிடுமா? என்று கேட்கிறார்கள். இது உணர்வை காட்டுவதற்கு நாம் நடத்துகிற ஒரு
வழிமுறை. மின்சாரம் தரக்கூடாது என்று சொல்வதில் என்ன தவறு?. அவர்கள் தண்ணீர்
தரக்கூடாது என்கிறபோது நாம் பதிலுக்கு அப்படி சொல்ல உரிமை உண்டு. </p><p>
</p><p>
ஊர்வலம் நடத்தினால் தண்ணீர் வந்துவிடுமா? என்று கேட்கிறாயே. உண்ணா விரதம் இருந்தால்
மட்டும் தண்ணீர் வந்துவிடுமா?. தமிழனை பிரிக்கவே இந்த உண்ணா விரதம் நடக்கிறது.
உண்ணா விரதத்துக்கு வாழ்த்து கர்நாடகத்தில் இருந்து வருகிறது. </p><p>
</p><p>
அங்குள்ள முதல்வர் கிருஷ்ணா இங்கே இருக்கிற வருக்கு வாழ்த்து சொல்கிறார் என்றால் அண்டர்கிரவுண்டில்
என்னென்னவோ நடக்கிறது என்று தானே அர்த்தம். இன்னும் தமிழன் விழித்துக்கொள்ளவில்லை
என்றால் தமிழனை போல மடையன் வேறு யாரும் இருக்க முடியாது. </p><p>
</p><p>
காட்டி கொடுப்பதா? </p><p>
</p><p>
அங்கே 40 லட்சம் தமிழர்கள் இருக்கிறார்கள். அவர்கள் கதி என்னவாகும் என்று
கேட்கிறாயே?. அப்படியானால் அங்கே உள்ள தமிழர்களை காட்டிக் கொடுக்கிறாயா?.
இங்கேயும் கன்னடர்கள் இருக்கிறார்கள். அதை மறந்து விடக்கூடாது. அதைத்தான் விஜயகாந்தும்
சொன்னார். </p><p>
</p><p>
அங்கே உள்ள தமிழர்கள் கதி என்னவாகும் என்று நீ சொன்னது போல நாங்கள்
சொல்லமாட்டோம். அப்படி எதுவும் செய்யவும் மாட்டோம். இங்கே அர்ஜூன், முரளி போன்ற
நல்ல நண்பர்கள் வந்திருக்கிறார்கள். நாங்கள் பிரித்து பார்ப்பது இல்லை. இது வந்தாரை
வாழவைக்கும் தமிழகம். </p><p>
</p><p>
விருந்தாளி </p><p>
</p><p>
விருந்தாளியாக வாருங்கள். நன்றாக சாப்பிடுங்கள். உண்டு உறங்குங்கள். திண் ணையில் படுத்து
தூங்குங்கள். ஆனால் வீட்டுக்கு தலைவனாக கனவு காணாதீர்கள். இங்கே மண்ணின் மைந்தனை தவிர
இனிமேல் யாரையும் ஏற்றுக்கொள்ளாது இந்த மண். ஏற்றுக்கொள்ளவும் விடமாட்டோம். இந்த
மண்ணுக்கு தலைவனாகி விட லாம் என்று யாரும் தப்புக்கணக்கு போட வேண்டாம். </p><p>
</p><p>
எதிரிகளை மன்னிக்கலாம். துரோகிகளை மன்னிக்கவே கூடாது. இந்த பூமியில் உள்ள சத்தை உறிஞ்சி
மரமாக வளர்ந்து இருக்கிறார்கள். அந்த மரம் நல்ல கனியை தர வேண்டும். நல்ல பூவை
தரவேண்டும். நிழலை தர வேண்டும். ஆனால் விஷவித்தை இந்த தமிழ் மண்ணில் விதைக்காதே. </p><p>
</p><p>
தப்பி பிழைத்து </p><p>
</p><p>
இங்கு கலைஞர்கள் எல்லாம் ஒன்றுபட்டு கூடி இருக்கிறோம். அரசியல் மாச்சரியங்கள்
குறுக்கிட்டன. நல்லவேளை தப்பி பிழைத்து பேரணி நல்லமுறையில் நடந்து இருக்கிறது. அரசியலை
கலைத்துறையில் கலக்காதீர்கள். உங்கள் நடிப்பை தான் மக்கள் ரசிக்கிறார்கள்.
அரசியலுக்காக உங்களை ரசிப்பது இல்லை. </p><p>
</p><p>
முதல்வர் ஜெயலலிதாவை பார்த்ததை குற்றம் சொல்கிறார்கள். நான் பயப்பட மாட்டேன்.
இவ்வளவு கலைஞர்களை பாதுகாப்பாக கூட்டி வந்து திரும்ப அழைத்து செல்ல வேண்டாமா?.
அந்த பாதுகாப்புக்காக தான் முதல்வர் ஜெயலலிதாவை சந்தித்தோம். அவரை சந்திக்க
போகாமல் செக்யூரிட்டி நிறுவனம் வைத் திருப்பவர்களையா போய் பார்க்க முடியும். </p><p>
</p><p>
நான் அஜிடேசன் நடத்துகிறோம் என்று சொன்னதை ஒரு தவறாக பேசுகிறார்கள். எனக்கு குதர்க்கம்
பேசதெரியாது. எனக்கு அப்பன் மாதிரி இருக்கிறீர்கள். கூப்பிட்டு தவறை திருத்த வேண்டுமே
தவிர அதை வைத்து குதர்க்கம் செய்யலாமா?. </p><p>
</p><p>
இப்போது தமிழ் மண்ணில் ஒரு எழுச்சி ஏற்பட்டு இருக்கிறது. ஒற்றுமை தலை தூக்கி இருக்கிறது.
தமிழன் இந்த உணர்வை தூங்க விடக்கூடாது. </p><p>
</p><p>
இவ்வாறு அவர் பேசினார். </p>

<p> </p>

<p> </p>

<p>தமிழகம்-வீரம் விளைந்த
மண்: தமிழர்களை சீண்டி பார்க்காதீர் கர்நாடகத்துக்கு நடிகர் விஜயகாந்த் எச்சரிக்கை</p>

<p> </p>

<p>
 
<gap desc="illustration"></gap></p>

<p>விஜயகாந்த் </p>

<p> </p>

<p>நெய்வேலி, அக்.13- தமிழகம் வீரம் விளைந்த மண். தமிழர்களை
கர்நாடகம் சீண்டி பார்க்கக்கூடாது என்று நெய்வேலி பொதுக்கூட்டத்தில் நடிகர் விஜயகாந்த்
பேசினார். </p><p>
</p><p>
விஜயகாந்த் </p><p>
</p><p>
நடிகர் சங்கத்தலைவர் விஜயகாந்த் பேசியதாவது:- </p><p>
</p><p>
காவிரியில் தண்ணீர் கொடுக்கக்கூடாது என்று கர்நாடகத்தில் விவசாயிகள் போராடினார்கள்.
பல அமைப்புகள் போராடின. அமைதியாக இருந்தோம். ஆனால் தண்ணீர் கொடுக்காதே என்று அங்கே
நடிகர்-நடிகைகள் போராடியபோது நாம் சும்மா இருக்க முடியாது. </p><p>
</p><p>
வந்தாரை வாழ வைக்கும் தமிழகம் என்று வாங்க, வாங்க என்று வெகுளித்தனமாக
வரவேற்றுவிட்டோம். கர்நாடகத்தில் சினிமாத்துறையில் எத்தனை தமிழர்களை வாழ வைத்துக்
கொண்டிருக்கிறீர்கள்? ஒருவரும் கிடையாது. ஆனால் இங்கு எத்தனை கதா நாயகர்களை வாழ
வைத்துக்கொண்டிருக்கிறோம் என்று தெரியுமா? நான் பிரிவினை வாதம் பேசவில்லை.
ஏனென்றால் நாங்கள் பெருந்தன்மையானவர்கள். எங்களை சீண்டிப் பார்க்கிறார்கள். வீரம்,
விவேகம் எங்களுக்குத்தான் உண்டு என்று நினைக்கிறார்கள். தமிழகம் வீரம் விளைந்த
மண்தான். </p><p>
</p><p>
சென்னை தாங்காது </p><p>
</p><p>
இப்படிப் பேசும்போது கர்நாடகத்தில் உள்ள தமிழர், தமிழர் என்கிறார்கள். ஏன் இங்கு
கன்னடர்கள் இல்லையா? தேவையில்லாமல் திசை திருப்பக்கூடாது. அங்குள்ள
தமிழர்கள்-கன்னடர்கள் அண்ணன் தம்பிதான். இங்குள்ளவர்களும் அண்ணன் தம்பி தான்.
அப்படித் தொட்டுப்பார்த்தால் மெட்ராஸ் தாங்காது. இங்கு கன்னடர்கள் நிறைய பேர்
உள்ளனர். நான் தூண்டிவிடவில்லை. </p><p>
</p><p>
கண்காணிப்புக்குழு 9000 கன அடி தண்ணீர் தர வேண்டும் என்கிறது. அப்படி என்றால் அங்குள்ள
பாசனத்திற்கு போக தண்ணீர் உள்ளது என்பது தான் உண்மை. ஆனால் கர்நாடக முதல்வர் கிருஷ்ணா
தண்ணீர் கொடுத்தாலும் அங்கு அவரது ஆட்சியை கவிழ்த்துவிட தயாராக இருக்கிறார்கள். அப்படி
அவருக்கும் ஒரு அரசியல் சிக்கல். </p><p>
</p><p>
நடிகர் சங்க போராட்டம் தொடர்பாக இங்கு ஏற்பாடுகள் நடந்து கொண்டிருந்த போது நான்
வௌிநாட்டில் இருந்தேன். அப்போது ஏற்பட்ட குழப்பத்தால் எனக்கு பாதி முடியே
கொட்டிப்போனது. ஆனால் அத்தனை குழப்பங்களும் தீர்ந்து இன்று பேரணி நடந்திருக்கிறது. </p><p>
</p><p>
அரசியல் கூடாது </p><p>
</p><p>
நடிகர் சங்கத்தில் அரசியல் இருக்கக்கூடாது. ஏனென்றால் அவங்களை பேசினால் இவங்களுக்கு
கோபம் வருகிறது. இவங்களை பேசினால் அவங்களுக்கு கோபம் வருகிறது. இனி அடுத்த நடிகர் சங்க
பொதுக்குழு கூட்டத்தில் தலைவர், செயலாளர் போன்ற பதவிகளுக்கு போட்டியிடுவர்கள் அரசியலில்
இருந்தால் போட்டி போடாதீர் கள் என்று கேட்போம். </p><p>
</p><p>
இங்கு திரண்டுள்ள இந்த பேரணியில் என் மன்றத்தினரும் குவிந்துள்ளனர். 2 மாவட்டத்தில்
இருந்து வருவார்கள் என்று நினைத்தேன். ஆனால் அதையும் மீறி குவிந்து விட்டார்கள்.
இதைப்பார்த்த பின்னர் உங்களை நம்பி எதையும் செய்யலாம் என்று முடிவெடுத்துவிட்டேன். </p><p>
</p><p>
இந்த போராட்டம் தொடருமா? என்று கேட்கிறீர்கள். காவிரி விவகாரம் தொடர்பாக
முதல்வர்களும், பிரதமரும் பேசி தீர்க்க வேண்டும். எங்கு தொட்டாலும் அரசியல்
விளையாடுகிறது. அரசியல் விடுபட்டால் தான் தண்ணீர் வரும் என்று நினைக்கிறேன். அதற்கு
மக்கள் தான் முடிவு எடுக்கவேண்டும். </p><p>
</p><p>
வீழ்வது நாமாக இருப்பினும், வாழ்வது தமிழாக இருக்கட்டும். </p><p>
</p><p>
இவ்வாறு பேசினார். </p>

<p> </p>

<p> </p>

<p>காவிரி பிரச்சினைக்காக
ரஜினி இன்று உண்ணாவிரதம் கவர்னரிடம் மனு கொடுக்கிறார்</p>

<p> </p>

<p>
 
<gap desc="illustration"></gap></p>

<p>ரஜினிகாந்த் </p>

<p> </p>

<p>சென்னை, அக்.13- தமிழகத்துக்கு காவிரி நீர் வழங்க கோரி இன்று
ரஜினி காந்த் உண்ணாவிரதம் இருக்கிறார். </p><p>
</p><p>
காவிரி நீர் பிரச்சினை </p><p>
</p><p>
காவிரி நீர் பிரச்சினை தமிழகத்தில் பெரிதாக உருவெடுத்து இருக்கிறது. தமிழகத்துக்கு
தண்ணீர் தர மறுக்கும் கர்நாடகத்தை கண்டித்து பல் வேறு போராட்டங்கள் நடை பெற்று
வருகின்றன. </p><p>
</p><p>
இந்த நிலையில் நேற்று நடிகர்-நடிகைகள் உள்பட திரையுலகினர் திரண்டு நெய்வேலியில் பேரணி
நடத்தினார்கள். நடிகர் சங்கத் தலைவர் விஜயகாந்த் தலைமையில் அந்த போராட்டம நடந்தது. </p><p>
</p><p>
ரஜினி உண்ணாவிரதம் </p><p>
</p><p>
இதையடுத்து இன்று ரஜினிகாந்த் சென்னையில் உண்ணா விரதம் இருக்கிறார். தமிழகத்துக்கு
காவிரிநீர் வழங்ககோரி அவர் இப்போராட்டத்தில் ஈடுபடுகிறார். </p><p>
</p><p>
சேப்பாக்கம் அரசு விருந்தினர் மாளிகை எதிரே இதற்காக மேடை அமைக்கப்பட்டு உள்ளது. அதில்
ரஜினிகாந்த் உண்ணாவிரதம் மேற் கொள்கிறார். காலை 8மணி முதல் மாலை 6 மணி வரை
உண்ணாவிரதம் நடக்கிறது. உண்ணாவிரதம் நிறைவு பெற்றதும் ரஜினி கிண்டி கவர்னர் மாளிகைக்கு
செல்கிறார். அங்கு கவர்னர் ராமமோகன்ராவை சந்தித்து மனு கொடுக்கிறார். </p><p>
</p><p>
நேரடி ஒளிபரப்பு </p><p>
</p><p>
ரஜினி உண்ணாவிரதம் நிகழ்ச்சி முழுவதையும் இன்று சன்டி.வி. நேரடி ஒளிபரப்பு செய்கிறது.
காலை 7.30 மணிக்கு இந்த நேரடி ஒளிபரப்பு தொடங்குகிறது. </p><p>
</p><p>
இன்று நடைபெறும் ரஜினி உண்ணாவிரதத்துக்கு தி.மு.க, காங்கிரஸ், பா.ஜ.க. உள்பட பல்வேறு
அரசியல் கட்சிகள் ஆதரவு தெரிவித்துள்ளன. இந்த கட்சிகளை சேர்ந்த தலைவர்கள் உண்ணாவிரத
பந்தலுக்கு வந்து ரஜினிக்கு மாலை, சால்வை அணிவிப்பார்கள். வாழ்த்தி பேசவும்
செய்வார்கள். </p><p>
</p><p>
ரசிகர்கள் குவிந்தனர் </p><p>
</p><p>
திரை உலகத்தை சேர்ந்தவர்களும் இந்த உண்ணாவிர தத்தில் பங்கேற்கிறார்கள்.
வௌியூர்களில் இருந்து ரசிகர்கள் வரவேண்டாம் என்றும் உத்தரவிட்டிருந்த போதிலும் பல
பகுதிகளிலும் இருந்து ரஜினி ரசிகர்கள் தனி பஸ் அமர்த்தி சென்னை வந்துள்ளனர். </p><p>
</p><p>
எனவே சென்னை நகரம் இன்று பரபரப்பாக காட்சி அளிக்கும், ரஜினி உண்ணா விரதம் இருக்கும்
பகுதியில் கூட்டம் நிரம்பி வழியும் என எதிர்பார்க்கப்படுகிறது. பாதுகாப்பு
ஏற்பாடுகளுக்காக ஆயிரக்கணக்கில் போலீசாரும் குவிக்கப்பட்டுள்ளனர். </p><p>
</p><p>
சத்திய நாராயணன் அறிக்கை </p><p>
</p><p>
ரஜினி ரசிகர் மன்ற தலைவர் க.சத்தியநாராயணன் வௌியிட்டுள்ள அறிக்கை வருமாறு:- </p><p>
</p><p>
13-10-2002 இன்று ரஜினி காந்த், இருக்கும் உண்ணாவிரதத்திற்கு காமராஜர் சாலை வழியாக
வாகனங்களில் வருபவர்கள் கண்ணகி சிலை பின்புறம் உள்ள சர்வீஸ் சாலையில் வாகனங்களை
நிறுத்தி விட்டு கண்ணகிசிலை எதிரில், பாரதிதாசன் சாலை வழியாக, பெல்ஸ் சாலை வந்து அரசு
விருந்தினர் மாளிகை அருகில் வர வேண்டும். </p><p>
</p><p>
அண்ணா சாலையின் வழியாக வருபவர்கள்அண்ணா சாலையிலிருந்து திரும்பி வாலாஜா சாலை வழியாக
அரசு விருந்தினர் மாளிகை அருகில் வரவேண்டும். </p><p>
</p><p>
திரைப்பட துறையினர் </p><p>
</p><p>
திரைப்படத் துறையினர், அரசியல் கட்சித்தலைவர்கள், ஆகியோர் அண்ணா சிலை அருகில் உள்ள
வாயில் வழியாகவோ, அல்லது பெரியார் சிலை அருகில் உள்ள வாயில் வழியா கவோ அரசு எஸ்டேட்
(எம்.எல். ஏ. ஹாஸ்டல்) உள்ளே வந்து மேடை அருகில் உள்ள வாயிலுக்கு வரவேண்டும். வாகனங்களை
அரசு எஸ்டேட்டினுள் காவல் துறையினர் சொல்லும் இடத்தில் நிறுத்திக் கொள்ளலாம். திரும்பி
செல்லும் பொழுது அரசு எஸ்டேட் உள்ளே சென்று தூர்தர்ஷன்டி.வி.நிலையம் செல்லும் வாயில்
வழியாக செல்ல வேண்டும். </p><p>
</p><p>
உழைப்பாளர் சிலை </p><p>
</p><p>
பாரதிதாசன் சாலை, பெல்ஸ்சாலை, வாலாஜா சாலை வழியாக வருபவர்கள் திரும்பி செல்லும் பொழுது
பல்கலைக்கழகம் வழியாக காமராஜர் சாலையில் உள்ள சுரங்கப்பாதை வழியாக உழைப்பாளர் சிலை
வழியாக செல்லும்படி அன்புடன் கேட்டுக் கொள்கிறோம். </p><p>
</p><p>
எக்காரணத்தைக் கொண்டும் எவரும் உழைப்பாளர் சிலை வழியாக அரசு கெஸ்ட் ஹவுஸ்-க்கு வர
வேண்டாம் என்றும் கேட்டுக் கொள்கிறோம். </p><p>
</p><p>
இவ்வாறு அவர் கூறி உள்ளார். </p>

<p> </p>

<p> </p>

<p>சுப்ரீம் கோர்ட்டு உத்தரவை
மீறியதால் தேசிய நீரோட்டத்தை கர்நாடகம் தகர்த்துவிட்டது -கமல்ஹாசன்</p>

<p> </p>

<p>
 
<gap desc="illustration"></gap></p>

<p>கமல்ஹாசன் </p>

<p> </p>

<p>நெய்வேலி, அக். 13- சுப்ரீம் கோர்ட்டு உத்தரவை மீறியதன் மூலம்
தேசிய நீரோட்டத்தை கர்நாடகம் தகர்த்துவிட்டது என்று நடிகர் கமல்ஹாசன் கூறினார். </p><p>
</p><p>
கமல் </p><p>
</p><p>
நெய்வேலி நேற்று இரவு நடந்த பொதுக்கூட்டத்தில் நடிகர் கமல்ஹாசன் பேசிய தாவது:- </p><p>
</p><p>
தமிழகத்திற்கு காவிரி நீரை கர்நாடக அரசு தர வேண்டும் என்று இங்கு போராட்டம் நடத்தி
வருகிறோம். நமது நாடு ஜனநாயக நாடு. ஜனநாயகம் என்ற குழந்தையை நம்பி நாம் வாழ்ந்து
வருகிறோம். சுப்ரீம் கோர்ட்டு தமிழகத்திற்கு காவிரி நீரை திறந்து விடவேண்டும் என்று
உத்தரவிட்டு உள்ளது. அதை கர்நாடக அரசு அமுல்படுத்தாமல் உள்ளது. சுப்ரீம் கோர்ட்டு உத்தரவை
ஒருவர் மீறி நடந்து உள்ளார். இவர் தண்ணீர் திறந்துவிடமாட்டோம் என்று பகிரங்கமாக
அறிவித்து இருப்பதன் மூலம் கோர்ட்டு உத்தரவை மீறுவது தௌிவாக தெரிகிறது. </p><p>
</p><p>
தேசிய உணர்வு </p><p>
</p><p>
சுப்ரீம் கோர்்ட்டு பலத்தை நாம் நம்பி உள்ளோம். ஜனநாயக நாட்டில் சுப்ரீம் கோர்ட்டு
உத்தரவை அனைவரும் மதிக்க வேண்டும். இதில் உள்ள நம்பிக்கையில் அவர் மண்ணை தூவி
உள்ளார். கர்நாடகத்தின் செயல் தேசிய நீரோட்டத்தை தகர்க்கும் செயல் ஆகும். இதை நாடு
முழுவதும் உள்ளவர்கள் கண்டிக்க வேண்டும் என்று கேட்டு கொள்கிறேன்.திரையுலகத்தினரின்
போராட்டம் தார்மீக போராட் டமாகும். தமிழ் உணர்வுடன் நடத்தப்படும் இந்த
போராட்டத்தில் தேசிய உணர்வும் கலக்க வேண்டும். </p><p>
</p><p>
இவ்வாறு அவர் பேசினார். </p>

<p> </p>

<p> </p>

<p>ரஜினி உண்ணாவிரதத்தில்
கலந்து கொள்ள மாட்டேன் பாரதிராஜா அறிவிப்பு</p>

<p> </p>

<p>
 
<gap desc="illustration"></gap></p>

<p>பாரதிுராஜா </p>

<p> </p>

<p>சென்னை, அக்.13- ரஜினி நடத்தும் உண்ணா விரத போராட்டத்தில்
கலந்து கொள்ளமாட்டேன் என்று பாரதிராஜா கூறியுள்ளார். </p><p>
</p><p>
இயக்குனர் பாரதிராஜா ஒரு ஆங்கிலப் பத்திரிகைக்கு அளித்த பேட்டி வருமாறு:- </p><p>
</p><p>
கேள்வி:- ரஜினிகாந்த் உண்ணாவிரத போராட்டத்தால் தமிழ் சினிமா உலகம் பிளவுபட்டு
இருக்கிறதா? </p><p>
</p><p>
பதில்:- தமிழ்நாட்டுக்கு காவிரி தண்ணீர் கிடைக்க வேண்டும் என்பது தான் நமது ஒரே
லட்சியம் என்றால் நெய்வேலி போராட்டத்துக்கு போட்டியாக எந்த போராட்ட மும்
தேவையில்லை. யாரையோ சமாதானப்படுத்துவதற்காக தமிழ் சினிமா உலகை எளிதில்
பிளவுபடுத்திவிடலாம் என்று காட்டுவதற்காக ரஜினிகாந்த் இந்த முடிவை எடுத்திருக்கிறார்.
அவர் ஒரு கறுப்பு ஆடு. இல்லாவிட்டால் உண்ணாவிரத போராட்டத்துக்கு எஸ்.எம். கிருஷ்ணா
வாழ்த்து தெரிவித்து இருப்பது ஏன்? அவரது போராட்டம் கர்நாடக அரசின் முடிவுக்கு எதிரான
போராட்டமா? அல்லது கர்நாடக அரசை கண்டித்து நடக்கும் எங்கள் போராட்டத்துக்கு எதிரான
போராட்டமா? </p><p>
</p><p>
கேள்வி:- நெய்வேலி போராட்டத்துக்கு இதுவரை நீங்கள் தான் தலைமை வகிப்பது போல்
சித்தரிக்கப்பட்டவர். இப்போது விஜயகாந்த் முன் நிறுத்தப்பட்டு இருக்கிறார். இதன் மூலம்
நீங்கள் ஓரம் கட்டப்பட்டு இருக்கிறீர்களா? </p><p>
</p><p>
பதில்:- இல்லவே இல்லை. அது நடக்காத காரியம். தமிழ் சினிமா உலகத்தினரை பொறுத்தவரை
நெய்வேலி போராட்டத்தில் என்னைத்தான் தலைவராக கருதுகிறார் கள். நடிகர் சங்கம் என்பது
சினிமா உலகின் ஒரு பகுதிதான். டைரக்டர்கள், தயாரிப்பாளர்கள் போன்றவர்களும்
இருக்கிறார்கள். அவர்கள் என்னையே தலைவராக கருதுகிறார்கள். </p><p>
</p><p>
ரஜினி உண்ணாவிரதத்தில் பங்கேற்க மாட்டேன் </p><p>
</p><p>
கேள்வி:- 13-ந்தேதி (இன்று) நடக்கும் உண்ணாவிரத போராட்டத்தில் கலந்து கொள்
வீர்களா? </p><p>
</p><p>
பதில்:- யார் கலந்து கொண்டாலும் நான் கலந்துகொள்ள போவதில்லை. </p><p>
</p><p>
கேள்வி:- முதலமைச்சர் ஜெயலலிதாவின் தூண்டுதல் பேரில்தான் நீங்கள் செயல் படுவதாகவும்,
அ.தி.மு.க. நடிகர்கள் எஸ்.எஸ்.சந்திரன், ராதாரவி ஆகியோருடன் சேர்ந்து செயல்படுவதாகவும்
கூறப்படுகிறதே? </p><p>
</p><p>
பதில்:- சினிமாவில் அரசியல் இல்லை. நெப்போலியனை நான் அறிமுகப்படுத்தி னேன். அவர்
அரசியல் கட்சியை சேர்ந்தவர் என்பதற்காக அல்ல, அவர் ஒரு தமிழன் என்பதால்தான். தமிழ்
சினிமா உலக கலைஞர்கள் குழுவினர் முதலமைச்சர் ஜெயலலிதாவை சந்தித்தது பாதுகாப்பு
நடவடிக்கைகள் பற்றி முடிவு செய்யத்தான். நாங்கள் தி.மு.க. தலைவரை சந்திக்கவில்லை என்று
அவர் கூறியிருப்பது நாகரீகமற்ற செயல். </p><p>
</p><p>
நாங்கள் அவரை ஏன் சந்திக்கவேண்டும். அவர் யார்? எங்கள் போராட்டத்துக்கும்
அவருக்கும் என்ன தொடர்பு இருக்கிறது? எங்களுக்கு அவரால் என்ன செய்துவிட முடியும்?
எங்களுக்கு பாதுகாப்பு கொடுக்க அவரால் முடியுமா? </p><p>
</p><p>
அவர் அரசியல் விளையாட்டு விளையாடுகிறார். நெய்வேலி போராட்டம் வெற்றிகர மாக
அமைந்தால் அது முதலமைச்சருக்கு ஆதரவாக போய்விடுமோ என்று கவலைப் பட்டார். ஆனால் இப்போது
சரத்குமார், நெப்போலியன் போன்ற நடிகர்களும் கலந்து கொள்கிறார்கள். மக்களின் உணர்வை
அவர்கள் புரிந்து கொண்டனர். </p><p>
</p><p>
இவ்வாறு கூறியுள்ளார். </p>

<p> </p>

<p> </p>

<p>நடிகர்-நடிகைகள்
வாஜ்பாய்-சோனியாவை சந்தித்து தண்ணீர் விட வலியுறுத்த வேண்டும் சரத்குமார் எம்.பி.
யோசனை</p>

<p> </p>

<p>
 
<gap desc="illustration"></gap></p>

<p>சரத்குமார் </p>

<p> </p>

<p>நெய்வேலி, அக். 12- வாஜ்பாய், சோனியாவை சந்தித்து தண்ணீர்
விட வலியுறுத்த வேண்டும் என்று சரத்குமார் எம்.பி. கூறினார். </p><p>
</p><p>
எதற்காக இங்கு வந்தோம்? </p><p>
</p><p>
நெய்வேலி போராட்ட மேடையில் நடிகர் சரத்குமார் எம்.பி. பேசியதாவது:- </p><p>
</p><p>
உங்களுக்கு ஒரு சில செய்திகளை செல்ல வேண்டியது என்னுடைய கடமை. </p><p>
</p><p>
இங்கே எதற்காக வந் தோம். மின்சாரத்தை பிடுங்கி விட வரவில்லை. நம்முடைய உணர்ச்சிகளை
வௌிப் படுத்த வந்தோம். அதுதான் உண்மை. </p><p>
</p><p>
தமிழ் உணர்வை மீண்டும் தட்டி எழுப்பிட வேண்டும். தமிழர்கள் உணர்ச்சிமிக்கவர்கள்.
பெருந்தன்மைமிக்கவர்கள். இதை இந்த மாபெரும் பேரணி உணர்த்தி இருக்கிறது. </p><p>
</p><p>
சகோதரத்துவம்? </p><p>
</p><p>
இந்த போராட்டத்திற்கு பிறகு என்ன நடவடிக்கை எடுக்க போகிறோம் என்பதை சிந்தித்து
பார்க்க வேண்டும். </p><p>
</p><p>
பள்ளியில் படிக்கும் போது, நாம் அனைவரும் இந்தியர்கள், சகோதர சகோதரிகள் என்று
பயின்றோம். ஆனால் அந்த சகோதரத்துவம் இப்போது என்ன ஆயிற்று?. </p><p>
</p><p>
தமிழின தலைவர் கலைஞர் </p><p>
</p><p>
உச்சநீதிமன்றம் உத்தரவை மீறி தண்ணீர் கொடுக்க மறுக்கிறார்கள். இது ஜனநாயகமா? இது
இந்தியா தானா? ஏன் இந்த நிலை. </p><p>
</p><p>
ஆட்சியில் இருந்தாலும் சரி, இல்லாவிட்டாலும் சரி வறட்சியில் வாடும் தமிழர்களுக்காக
பாடுபடும் ஒரே தலைவர், தமிழின தலைவர் டாக்டர் கலைஞர் தான். </p><p>
</p><p>
பிரதமரை சந்திக்க வேண்டும் </p><p>
</p><p>
விஜயகாந்த் உள்ளிட்ட நடிகர்களாகிய நாம் அனைவரும் ஒன்று கூடி கர்நாடக மாநிலத்திற்கு சென்று
எஸ்.எம்.கிருஷ்ணாவை சந்தித்து நம்முடைய உணர்ச்சிகளை எடுத்துரைக்க வேண்டும். </p><p>
</p><p>
டெல்லிக்கு சென்று பிரதமர் வாஜ்பாயை சந்தித்து தமிழகத்திற்கு தண்ணீர் விட வலியுறுத்த
வேண்டும். சோனியாவை சந்தித்து தண்ணீர் விட வற்புறுத்த வேண்டும். </p><p>
</p><p>
தண்ணீர் திறக்க வேண்டும் </p><p>
</p><p>
நாம் வந்தோரை வாழவைக்கும் தமிழர்கள்தான். ஆனால் அப்படி எத்தனை காலம் வாழ வைக்க
முடியும். </p><p>
</p><p>
கர்நாடகம் உடனடியாக தண்ணீரை திறந்து விட வேண்டும். அது வரை எங்கள் போராட்டம் தொடரும்.
</p><p>
</p><p>
சாதி மத பேதமற்ற சமு தாயம் உருவாகட்டும். </p><p>
</p><p>
தஞ்சையில் விவசாயம் இல்லை என்றால் இந்தியாவில் யாரும் அரிசி சாதம் சாப்பிட
முடியாது நடிகர்கள் வீராவேசம் </p><p>
</p><p>
மன்சூர் அலிகான் பாட்டு </p><p>
</p><p>
நடிகர் மன்சூர் அலிகான் தனது பேச்சை தொடங்கும் முன், ஏய் புள்ள கருப்பாயி திரைப்பட
பாடல் மெட்டில் காவேரிக்கு புதிய பாட்டுபாடினார். </p><p>
</p><p>
ஏய் புள்ள காவேரி, இந்த பக்கம் வா தாயி, ........ தமிழ் நாடு காய்ஞ்சிருக்கு,
கர்நாட கம்விளைஞ்சிருக்கு. தட்டிக் கேட்க வேண்டிய வாஜ்பாயும் வௌிநாடு போய்
விட்டார் என்று பாடினார். </p><p>
</p><p>
மனோரமா </p><p>
</p><p>
நடிகை மனோரமா பேசுகையில், விவசாயிகளுக்கு இந்த சிறு உதவி கூட செய்யவில்லை என்றால்
நாங்கள் நன்றி கெட்டவர்களாகி விடுவோம். எந்த கட்சி அங்கு ஆட்சியில் இருக்கிறதோ,
அந்த கட்சியின் மேலிடம் காவிரி யில் தண்ணீர் திறந்து விட முயற்சி எடுக்க வேண்டும் என்று
கூறினார். </p><p>
</p><p>
பாக்யராஜ் </p><p>
</p><p>
நடிகர் பாக்யராஜ் பேசியதாவது:- </p><p>
</p><p>
கேட்காமலே தண்ணீர் கொடுப்பது தமிழர் பண்பாடு. ஆனால் தண்ணீர் கேட்டும் கர்நாடகம்
கொடுக்காமல் இருப்பது மிகவும் வேதனையானது. அங்குள்ள அரசியல் வாதிகள், கர்நாடக மக்களை
மூளைச் சலவை செய்து வைத்திருக்கிறார்கள். அது தான் தமிழகத்திற்கு தண்ணீர் கிடைக்காததற்கு
காரணம். </p><p>
</p><p>
சிவகுமார் </p><p>
</p><p>
நடிகர் சிவகுமார் பேசியதாவது:- </p><p>
</p><p>
தமிழகத்திற்கு தண்ணீர் விட கர்நாடகம் மறுக்கிறது. தஞ்சை தமிழ்நாட்டின்
நெற்களஞ்சியம் மட்டும் அல்ல. இந்தியாவின் நெற்களஞ்சியம். இங்கே நெல்விளைய
வில்லை என்றால் இந்தியாவில் யாரும் அரிசி சாதம் சாப்பிட முடியாது. </p><p>
</p><p>
சந்திர சேகர் </p><p>
</p><p>
அடுத்து நடிகர் சந்திர சேகர் பேசியதாவது:- </p><p>
</p><p>
காவிரியில் தண்ணீர் விட முடியாது என்று கர்நாடக முதலமைச்சர், மந்திரிகள் பொய்வேலிகளை
அமைத்து உள்ளனர். அந்த பொய்வேலிகளை அகற்றிட தான் நாம் நெய்வேலியில் போராட
வந்துள்ளோம். </p><p>
</p><p>
இவ்வாறு கூறினர். </p>

<p> </p>

<p> </p>

<p>நெய்வேலி நடிக-நடிகையர்
பேரணியில் சன் டி.வி. குழுவை படம்பிடிக்க விடாமல் போலீஸ் அராஜகம் மத்திய மந்திரி
சுஷ்மாவிடம் புகார்</p>

<p> </p>

<p>சென்னை, அக்.13- நெய்வேலியில் நடிகர் நடிகையர்கள் நடத்திய
பேரணியின்போது சன் டி.வி.குழுவின ரிடம் போலீசார் அராஜகமாக நடந்து கொண்டார்கள். இது
தொடர்பாக மத்திய ஒளி பரப்புத்துறை மந்திரி சுஷ்மா சுவராஜிடம் சன் டி.வி.யினர் புகார்
செய்துள்ளனர். </p><p>
</p><p>
போலீசார் அராஜகம் </p><p>
</p><p>
காவிரி பிரச்சினைக்காக தமிழக நடிகர் நடிகையர்கள் நெய்வேலியில் நேற்று திரண் டெழுந்து
பேரணி நடத்தினார்கள் அல்லவா? இந்த பேரணியை படம்பிடிக்க சென்ற சன் டி.வி குழுவினரை
தமிழகப் போலீசார் அலைக்கழித்தனர். பேரணியின் முடிவில் பொதுக்கூட்டம் நடந்த இடத்தில்
இருந்து சன் டி.வி படப்பிடிப்பு வேனை வலுக்கட்டாயமாக அப்புறப்படுத்த உத்தரவிட்டனர். </p><p>
</p><p>
சுஷ்மாவுக்கு கடிதம் </p><p>
</p><p>
இதுகுறித்து சன் டி.வி.யின் நிர்வாக ஆசிரியர் ஏ.எஸ்.பன்னீர் செல்வன், மத்திய தகவல்
ஒளிபரப்புத்துறை மந்திரி சுஷ்மா சுவராஜிக்கு கடிதம் எழுதியுள்ளார். அந்த கடிதத்தில் அவர்
கூறியிருப்பதாவது:- </p><p>
</p><p>
காவிரி டெல்டா பகுதி விவசாயிகளுக்காக தமிழக சினிமா நட்சத்திரங்கள் நெய்வேலியில்
போராட்டம் நடத்தினார்கள். இது ஒரு பொது நிகழ்ச்சி ஆகும். </p><p>
</p><p>
முறையான அனுமதி </p><p>
</p><p>
இந்த நிகழ்ச்சியை படம் பிடித்து ஒளிபரப்ப அதன் அமைப்பாளர்களிடம் இருந்து சன்
டி.வி.யினர் முறையாக அனுமதி வாங்கியுள்ளனர். அதன் நகலை இங்கே இணைத்துள்ளோம். </p><p>
</p><p>
இருப்பினும் ஒரு குறிப்பிட்ட டி.வி.சானல்காரர்களை திருப்திப்படுத்துவதற்காக சன் டி.வி.
குழுவினரிடம் தமிழகப் போலீசார் பாரபட்சமாக நடந்து கொண்டார்கள். </p><p>
</p><p>
போலீஸ் கெடுபிடி </p><p>
</p><p>
பேரணி முடிவில் கூட்டம் நடக்க இருந்த மேடை அருகே நிறுத்தப்பட்டிருந்த சன் டி.வி.
படப்பிடிப்பு வேனை அப்புறப்படுத்தும்படி சன் டி.வி.குழுவினரிடம் போலீசார் கெடுபிடி
செய்தார்கள். </p><p>
</p><p>
அதேசமயம், ஆளும் கட்சிக்கு ஆதரவான ஒரு டி.வி. சேனலுக்கு அனைத்து ஆதர வையும் போலீசார்
அளித்தார்கள். </p><p>
</p><p>
முதன்முறை </p><p>
</p><p>
பொது நிகழ்ச்சி ஒன்றில் குறிப்பிட்ட ஒரு டி.வி.சேனல் காரர்களை படம்பிடிக்க விடா மல் தடுப்பது
தமிழகத்தில் இதுவே முதன்முறை ஆகும். தமிழக போலீசார் இந்த விஷயத்தில் மிகவும்
பாரபட்சமாக நடந்து கொண்டுள்ளனர். அது மட்டுமின்றி இது கருத்து சுதந்திரத்துக்கு ஆபத்து
ஏற்படுத்தும் வண்ணம் உள்ளது. </p><p>
</p><p>
நடவடிக்கை எடுங்கள் </p><p>
</p><p>
எனவே தாங்கள் இந்த விஷயத்தில் தலையிட்டு நீதி கிடைக்கச் செய்ய வேண்டும். இந்த முக்கிய
பொது நிகழ்ச்சியை நாங்கள் தடையின்றி ஒளிபரப்ப உதவ வேண்டும். </p><p>
</p><p>
இவ்வாறு அவர் கடிதத்தில் கூறியுள்ளார். </p><p>
</p><p>
நகல் இணைப்பு </p><p>
</p><p>
நெய்வேலி பேரணியை படம்பிடிக்க பாரதிராஜாவின் தலைமையிலான கலையுலகின் காவிரிப்
போராட்டக்குழு தந்த அனுமதியின் நகலை இந்த கடிதத்துடன் அவர் இணைத்துள்ளார். </p>

<p> </p>

<p> </p>

<p>திரை உலக பேரணி மாபெரும்
வெற்றி விஜயகாந்த் பேட்டி</p>

<p> </p>

<p>
 
<gap desc="illustration"></gap></p>

<p>விஜயகாந்த் ரசிகர்களை
பார்த்து கையசைத்த காட்சி </p>

<p> </p>

<p>நெய்வேலி, அக்.13- நடிகர் சங்கத்தலைவர் விஜயகாந்த்
பேசியதாவது:- </p><p>
</p><p>
காவிரியில் தண்ணீர் கொடுக்கக்கூடாது என்று கர்நாடகத்தில் விவசாயிகள் போராடினார்கள்.
பல அமைப்புகள் போராடின. அமைதியாக இருந்தோம். ஆனால் தண்ணீர் கொடுக்காதே என்று அங்கே
நடிகர்-நடிகைகள் போராடியபோது நாம் சும்மா இருக்க முடியாது. </p><p>
</p><p>
வந்தாரை வாழ வைக்கும் தமிழகம் என்று வாங்க, வாங்க என்று வெகுளித்தனமாக
வரவேற்றுவிட்டோம். கர்நாடகத்தில் சினிமாத்துறையில் எத்தனை தமிழர்களை வாழ வைத்துக்
கொண்டிருக்கிறீர்கள்? ஒருவரும் கிடையாது. ஆனால் இங்கு எத்தனை கதா நாயகர்களை வாழ
வைத்துக் கொண்டிருக்கிறோம் என்று தெரியுமா? நான் பிரிவினை வாதம் பேசவில்லை. ஏனென்
றால் நாங்கள் பெருந்தன்மையானவர்கள். எங்களை சீண்டிப் பார்க்கிறார்கள். வீரம்,
விவேகம் எங்களுக்குத்தான் உண்டு என்று நினைக்கிறார்கள். தமிழகம் வீரம் விளைந்த
மண்தான். </p><p>
</p><p>
சென்னை தாங்காது </p><p>
</p><p>
இப்படிப் பேசும்போது கர்நாடகத்தில் உள்ள தமிழர், தமிழர் என்கிறார்கள். ஏன் இங்கு
கன்னடர்கள் இல்லையா? தேவையில்லாமல் திசை திருப்பக்கூடாது. அங்குள்ள
தமிழர்கள்-கன்னடர்கள் அண்ணன் தம்பி தான். இங்குள்ளவர்களும் அண்ணன் தம்பி தான்.
அப்படித் தொட்டுப்பார்த்தால் மெட்ராஸ் தாங்காது. இங்கு கன்னடர்கள் நிறைய பேர் உள்ளனர்.
நான் தூண்டிவிடவில்லை. </p><p>
</p><p>
கண்காணிப்புக்குழு 9000 கன அடி தண்ணீர் தர வேண்டும் என்கிறது. அப்படி என்றால் அங்குள்ள
பாசனத் திற்கு போக தண்ணீர் உள்ளது என்பது தான் உண்மை. ஆனால் கர்நாடக முதல்வர் கிருஷ்ணா
தண்ணீர் கொடுத்தாலும் அங்கு அவரது ஆட்சியை கவிழ்த்துவிட தயாராக இருக்கிறார்கள். அப்படி
அவருக்கும் ஒரு அரசியல் சிக்கல். </p><p>
</p><p>
நடிகர் சங்க போராட்டம் தொடர்பாக இங்கு ஏற்பாடுகள் நடந்து கொண்டிருந்த போது நான்
வௌிநாட்டில் இருந்தேன். அப்போது ஏற்பட்ட குழப்பத்தால் எனக்கு பாதி முடியே
கொட்டிப்போனது. ஆனால் அத்தனை குழப்பங்களும் தீர்ந்து இன்று பேரணி நடந்திருக்கிறது. </p><p>
</p><p>
அரசியல் கூடாது </p><p>
</p><p>
நடிகர் சங்கத்தில் அரசியல் இருக்கக்கூடாது. ஏனென்றால் அவங்களை பேசினால் இவங் களுக்கு
கோபம் வருகிறது. இவங்களை பேசினால் அவங்களுக்கு கோபம் வருகிறது. இனி அடுத்த நடிகர் சங்க
பொதுக்குழு கூட்டத்தில் தலைவர், செயலாளர் போன்ற பதவிகளுக்கு போட்டியிடுவர்கள் அரசியலில்
இருந்தால் போட்டி போடாதீர் கள் என்று கேட்போம். </p><p>
</p><p>
இங்கு திரண்டுள்ள இந்த பேரணியில் என் மன்றத் தினரும் குவிந்துள்ளனர். 2 மாவட்டத்தில்
இருந்து வருவார்கள் என்று நினைத்தேன். ஆனால் அதையும் மீறி குவிந்துவிட்டார்கள். இதைப்
பார்த்த பின்னர் உங்களை நம்பி எதையும் செய்யலாம் என்று முடிவெடுத்துவிட்டேன். </p><p>
</p><p>
இந்த போராட்டம் தொடருமா? என்று கேட்கிறீர்கள். காவிரி விவகாரம் தொடர் பாக
முதல்வர்களும், பிரதமரும் பேசி தீர்க்க வேண்டும். எங்கு தொட்டாலும் அரசியல்
விளையாடுகிறது. அரசியல் விடுபட்டால் தான் தண்ணீர் வரும் என்று நினைக்கிறேன். அதற்கு
மக்கள் தான் முடிவு எடுக்கவேண்டும். </p><p>
</p><p>
வீழ்வது நாமாக இருப்பினும், வாழ்வது தமிழாக இருக்கட்டும். </p><p>
</p><p>
இவ்வாறு பேசினார். </p>

<p> </p>

<p> </p>

<p>கடைசி சொட்டு ரத்தம்
உள்ளவரை காவிரியை இழக்க மாட்டோம் -வைரமுத்து</p>

<p> </p>

<p>நெய்வேலி, அக்.13- நெய்வேலி பேரணி முடிவில் நடந்த பொதுக்
கூட்டத்தில் கவிஞர் வைரமுத்து பேசிய தாவது:- </p><p>
</p><p>
இந்த போராட்டத்துக்கு கடலென வந்து குவிந்துள்ளனர். தமிழர்களின் மானம்
பட்டுப்போகவில்லை. வீட்டுப் பிரச்சினை, நாட்டுப் பிரச்சினை என்று வரும்போது தமிழர்கள்
ஒன்றாகி விடுவார்கள். இந்த போராட்டம் உணர்ச்சியின் வௌிப்பாடு. </p><p>
</p><p>
2 ஆயிரம் ஆண்டுகளுக்கு முன்னரே காவிரியை பற்றி சிலப்பதிகாரத்தில் இளங் கோவடிகள்
பாடியுள்ளார். </p><p>
</p><p>
மருண்டு வண்டு சிறந் தார்ப்ப </p><p>
</p><p>
மணிப்பூ வாடை அது போர்த்து </p><p>
</p><p>
கருங்கயற்கண் விழி தெல்கி </p><p>
</p><p>
நடந்தாய் வாழி காவேரி என்று இளங்கோவடிகள் பாடிய சிறப்புடைய காவேரி. </p><p>
</p><p>
காவிரித் தாயே </p><p>
</p><p>
காதலர் விளையாட </p><p>
</p><p>
பூவிரித்தாயே </p><p>
</p><p>
என்று கவிஞர் கண்ணதாசன் பாடிய சிறப்புக்குரியது. </p><p>
</p><p>
தமிழர்களின் வரலாற்று நதி இன்று நின்றுபோனதா? நிறுத்தப்பட்டதா? என்று கேட்டால்
நின்றுபோகவில்லை; கர்நாடகத்தால் நிறுத்தப்பட்டு இருக்கிறது. </p><p>
</p><p>
அணை கட்டினார்கள், யாரை கேட்டு கட்டினார்கள்? தமிழ்தேசத்தின் அனுமதியை
பெற்றார்களா? இதற்கு பதில் உண்டா? தமிழன் காலங்காலமாக இழந்து வந்திருக் கிறான்.
இழக்கவே பிறந்தவனா தமிழன்? மொழியை, நிலத்தை, பண்பாட்டை இழந்தோம். ஆனால் கடைசி
தமிழனின் கடைசி சொட்டு ரத்தம் இருக்கும்வரை காவிரியின் கடைசி சொட்டு தண்ணீரையும்
இழக்கமாட்டோம். </p><p>
</p><p>
16-ம் நூற்றாண்டில் கர்நாடகத்தில் கட்டப்பட்ட அணையை சோழன் படை எடுத்துச் சென்று
தகர்த்தான் என்பது வரலாறு. ஆனால் எங்களுக்கு இறையாண்மையின் மீது நம்பிக்கை இருக்கிறது.
நாங்கள் அப்படியெல்லாம் செய்ய மாட்டோம். </p><p>
</p><p>
தண்ணீர் தேவைக்கு 2 தீர்வு உள்ளது. ஒன்று உடனடி தீர்வு, மற்றொன்று நிரந்தர தீர்வு.
உச்சநீதிமன்றத்தின் தீர்ப்பை கர்நாடகம் அமுல்படுத்தாவிட்டால் மத்திய அரசு தலையிட்டு
அமுல்படுத்தச் செய்ய வேண்டும் இது உடனடி தேவை. </p><p>
</p><p>
நிரந்தர தீர்வு நதிகளை இணைக்கிற திட்டம். குறைந்தது தென்னிந்திய நதிகளையாவது
இணைக்கவேண்டும். இந்த விசயத்தில் மத்திய, மாநில அரசுகள் இணைந்து செயல்பட வேண்டும். </p><p>
</p><p>
இவ்வாறு பேசினார். </p><p>
</p><p>
காவிரி கரைபுரண்டு வர வேண்டும் -நெப்போலியன் </p><p>
</p><p>
நெப்போலியன் எம்.எல்.ஏ. பேசியதாவது:- </p><p>
</p><p>
உறவுக்கு கைகொடுப்போம், உரிமைக்கு குரல் கொடுப்போம். காவிரி தண்ணீர் கேட்டு மாபெரும்
பேரணி நடத்தினோம். இப்போது மாபெரும் பொதுக்கூட்டம் நடத்திக் கொண்டிருக்கிறோம்.
உலகத்தில் உள்ள எல்லா தமிழர்களின் நெஞ்சத்திலும் வீற்றிருக்கின்ற எங்கள் தானைத்
தலைவர் கலைஞர் அறிவுரையின் பேரில் இந்த பேரணியில் கலந்து கொள்வதில் கழக
கலைஞர்கள் பெருமகிழ்ச்சி அடைகிறோம். </p><p>
</p><p>
தமிழகத்தின் நெற்களஞ்சியம் தஞ்சை, திருச்சி ... இந்த 2 மாவட்டங்களுமே
காவிரியை நம்பித்தான் இருக்கிறது. நான் திருச்சியில் பிறந்தவன். காவிரி தண்ணீர்
கேட்கும் உரிமை எனக்கு அதிகமாகவே உண்டு. காவிரியில் திறந்து விட வேண்டும்; தண்ணீர்
வரவேண்டும்; கரைபுரண்டு செல்ல வேண்டும். அதைப் பார்த்து நாம் சந்தோஷம் அடைய வேண்டும்.
அதனை நம்மால் நிறைவேற்ற முடியும். நாம் ஒற்றுமையாக இருந்து அதனை நிறைவேற்ற வேண்டும். </p>

<p> </p>

<p> </p>

<p>கலைஞரை யார் என்று
கேட்பதா? பாரதிராஜாவுக்கு டி.ராஜேந்தர் கண்டனம் நெய்வேலி ஊர்வலத்தை
புறக்கணித்தார்</p>

<p> </p>

<p>
 
<gap desc="illustration"></gap></p>

<p>டி.ராஜேந்தர் </p>

<p> </p>

<p>சென்னை, அக். 13- கலைஞர் முதல்வராக இருந்தபோது தேடி வந்த
பாரதிராஜாவுக்கு இப்போது கலைஞர் யார் என்று தெரியவில்லையா என்று பாரதிராஜாவுக்கு
டி.ராஜேந்தர் கடும் கண்டனம் தெரிவித்துள்ளார். நெய்வேலி ஊர்வலத்தையும் அவர்
புறக்கணித்தார். </p><p>
</p><p>
திரைப்பட இயக்குனரும் தி.மு.க. கொள்கை பரப்பு செயலாளருமான டி.ராஜேந்தர் நேற்று
வௌியிட்ட அறிக்கையில் கூறியிருப்பதாவது:- </p><p>
</p><p>
விஜயகாந்த் உத்தரவாதம் </p><p>
</p><p>
தமிழின தலைவர் டாக்டர் கலைஞர் நடிகர்சங்க தலைவர் விஜயகாந்தை சந்தித்து காவிரி
நதி நீருக்காக கர்நாடக அரசை கண்டித்து நெய்வேலியில் நடத்தப்படும் போராட்டம் அமைதியான
வழியில் அறவழியில் நடத்தப்படும் அதற்குதான் பொறுப்பேற்கிறேன் என்று விஜயகாந்த்
உத்தரவாதம் அளித்திருந்தார். </p><p>
</p><p>
அதன் அடிப்படையில் திராவிட முன்னேற்ற கழகத்தை சேர்ந்த கலைஞர்கள் நான் உள்பட
சரத்குமார், நெப்போலியன், சந்திரசேகர் ஆகியோர் போராட்டத்தில் கலந்து கொள்வார்கள்
என எங்கள் தலைவர் அறிவித்திருந்தார். அதன் அடிப்படையில் கலைஞர் வார்த்தைக்கு
கட்டுப்பட்டு நெய்வேலியில் நடக்கும் போராட்டத்தில் கலந்து கொள்ள சரியாக காலை 6 மணி
அளவில் நடிகர் சங்கத்திற்கு சென்றிருந்தேன் போராட்டத்தில் கலந்துகொள்ள சென்றவன் என்ற
முறையில் தொலைக்காட்சிகள் பேட்டி எடுத்தபோது தமிழகத்திற்கு தண்ணீர் கிடைக்கவேண்டும்.
அந்த அடிப்படை யில் போராட்டம் வெற்றிபெற வேண்டும் என்று என்னுடைய வாழ்த்தையும்
தெரிவித்துக் கொண்டேன். </p><p>
</p><p>
வேண்டாத விருந்தாளி </p><p>
</p><p>
அங்கே நடிகர் சங்கத்தில் என்னைப்போலவே போராட்டத்தில் கலந்து கொள்ள சரத்குமார்,
நெப்போலியன், சந்திரசேகர், தியாகு ஆகியோர் வந்திருந்தனர். </p><p>
</p><p>
சொன்னபடி பேருந்துகள் புறப்படாமல் தாமதமாகி கொண்டிருந்த நிலையில் அங்கே நின்று
கொண்டிருந்த எங்கள் கழக நடிகர்களை வேண்டாத விருந்தாளிகளை போலவே சிலர் பார்த்தனர்.
அழையாதார் வீட்டிற்குள் நுழைந்து விட்டோமோ என்பது போன்ற ஒரு நிலையை உணர்ந்தேன்.
இருந்தும் போராட்டத்திற்கு செல்வதென்று புறப்பட்டு வந்துவிட்டோம் என்று பொறுமையுடன்
காத்திருந்தேன். கலைஞர் கழகத்தின் கலைஞர்கள் போராட்டத்தில் கலந்து
கொள்வார்கள் என்று சொல்லி ஒரு சுமுகமான சூழ்நிலை உருவாக்கிய நிலையில் இயக்குனர்
பாரதிராஜா கலைஞரை பார்த்து யார் இவர் இந்த போராட்டம் சம்பந்தமாக நான் ஏன்
இவரை சந்திக்க வேண்டும் என்றும், அது மட்டும் அல்லாமல், சூப்பர் ஸ்டார் ரஜினியை
பார்த்து ஒரு கருப்பு ஆடு என்றெல்லாம் இந்தியன் எக்ஸ்பிரஸ் பத்திரிகையில் கொடுத்திருந்த
பேட்டியை படித்தபின் பலரும் வேதனையுற்றார்கள். குறிப்பாக நான், சரத்குமார்,
நெப்போலியன், சந்திரசேகர் மிக்க வேதனைப்பட்டோம். </p><p>
</p><p>
நாகரீகமான முறையில்... </p><p>
</p><p>
எங்கள் திராவிட முன்னேற்ற கழகத்தின் தலைவர் கலைஞரை பற்றி அவர் இவ்வளவு
ஒத்துழைப்பு அளித்ததற்கு பின்னும் பாரதிராஜா தாறுமாறாக பேட்டி கொடுத் திருக்கும்போது
அதற்கு உங்கள் பதில் என்ன என்று இந்தியன் எக்ஸ்பிரஸ் பத்திரிகையின் பெண் நிருபர்
என்னை பார்த்து கேள்வி கேட்டார். நான் போராட்டத்திற்கு கலந்துகொள்ள வேண்டுமென்று
புறப்பட்டு சென்ற அந்த இடத்தில் பதில் சொல்லி அங்கே ஒரு சலசலப்பை ஏற்படுத்த
விரும்பவில்லை. திராவிட முன்னேற்ற கழக கொள்கை பரப்பு செயலாளர் என்ற முறையில் எங்கள்
தலைவர் இட்ட கட்டளைக்காக அங்கே சென்றிருந்தேன். அங்கே ஏற்பட்ட இக்கட்டான நிலையை
சரத்குமாரிடம் விளக்கிவிட்டு மற்றும் நெப்போலியன், சந்திரசேகர், தியாகு உள்பட என்னோடு
உணர்வுகளை பகிர்ந்து கொண்ட சக கலைஞர்களுக்கு வாழ்த்து சொல்லி விட்டு நாகரீகமான
முறையில் வந்து விட்டேன். </p><p>
</p><p>
ஆனால் கலைஞரை பார்த்து இவர் யார் என்று கேட்கும் பாரதிராஜாவை பார்த்து ஒன்று
சொல்லிக்கொள்ள விரும்புகிறேன். கலைஞர் முதல்வராக இருந்த போதெல்லாம் அவரை பல
முறை பாரதிராஜா சந்தித் தாரே அப்போதெல்லாம் அவர் யார் என்று இவருக்கு தெரியாதா?
இவ்வளவு ஏன் முரசொலி அறக்கட்டளையின் சார்பில் எங்கள் தலைவர் கலைஞர் இவருக்கு
இயக்குனர் என்ற முறையில் அழைத்து பரிசளிப்பாக விருது கொடுத்து நிதியளித்தாரே அப்பொழுது
யார் என்று தெரியவில்லையா? என்று வேதனையோடு கேட்கிறேன். </p><p>
</p><p>
கருடா சவுக்கியமா? </p><p>
</p><p>
இந்த தருணத்தில் எனக்கொரு பழமொழி ஞாபகத்திற்கு வருகிறது. பரமசிவன் கழுத்தில்
இருந்த பாம்பு கேட்டதாம் கருடா சவுக்கியமா என்று. அதைப்போல்தான் பாரதிராஜாவும்
கேட்டிருக்கின்றார் கலைஞரை பார்த்து யார் என்று. காவிரி பிரச் சினைக்காக
இவர்களோடு சென்றுதான் போராட வேண்டும் என்றில்லை... எங்கள் தலைவர் கட்டளை இட்டால்
நாங்களும் போராடுவோம். </p><p>
</p><p>
இவ்வாறு அவர் கூறி உள்ளார். </p>

<p> </p>






</body></text></cesDoc>