<cesDoc id="tam-w-dinakaran-cinema-01-09-15" lang="tam">
<cesHeader type="text">
<fileDesc>
<titleStmt>
<h.title>tam-w-dinakaran-cinema-01-09-15.txt</h.title>
<respStmt>
<respType>Electronic file created by</respType>
<respName>Department of Linguistics, Lancaster University</respName>
<respType>text collected by</respType>
<respName>Paul Baker and Celia Worth</respName>
<respType>transferred into Unicode by</respType>
<respName>"Unicodify" software by Andrew Hardie</respName>
</respStmt>
</titleStmt>
<publicationStmt>
<distributor>UCREL</distributor>
<pubAddress>Department of Linguistics, Lancaster University, Lancaster, LA1 4YT, UK</pubAddress>
<availability region="WORLD"></availability>
<pubDate>03-08-24</pubDate>
</publicationStmt>
<sourceDesc>
<biblStruct>
<monogr>
<h.title>"Dinakaran" internet news (www.dinakaran.com), news stories collected on 01-09-15</h.title>
<h.author>Dinakaran</h.author>
<imprint>
<pubPlace>Tamil Nadu, India</pubPlace>
<publisher>Dinakaran</publisher>
<pubDate>01-09-15</pubDate>
</imprint>
</monogr>
</biblStruct>
</sourceDesc>
</fileDesc>
<encodingDesc>
<projectDesc>Text collected for use in the EMILLE project.</projectDesc>
<samplingDesc>Simple written text only has been transcribed. Diagrams, pictures and tables have been omitted and their place marked with a gap element.
</samplingDesc>
<editorialDecl>
<conformance level="1"></conformance>
</editorialDecl>
</encodingDesc>
<profileDesc>
<creation>
<date>03-08-24</date>
</creation>
<langUsage>Tamil</langUsage>
<wsdUsage>
<writingSystem id="ISO/IEC 10646">Universal Multiple-Octet Coded Character Set (UCS).</writingSystem>
</wsdUsage>
<textClass>
<channel mode="w">print</channel>
<constitution type="composite"></constitution>
<domain type="public"></domain>
<factuality type="fact"></factuality>
</textClass>
<translations></translations>
</profileDesc>
<revisionDesc></revisionDesc>
</cesHeader>

<text>
<body>




<p>23-ந்தேதி தொடங்குகிறது:
குஷ்பு வழங்கும் கோடீசுவரி போட்டி விதிமுறைகள் என்ன?</p>

<p> </p>

<p>சென்னை,செப்.15-
அதோ, இதோ என்று எதிர் பார்க்கப்பட்ட குஷ்பு வழங்கும் கோடீஸ்வரி நிகழ்ச்சி ,வரும்
23-ந்தேதி தொடங்குகிறது. அதன் விதிமுறைகள் என்னென்ன? என்பது பற்றிய விளக்கம்
வருமாறு:- </p><p>
</p><p>
முழுக்க முழுக்க 15-வயது முதல் 50 வயது வரையுள்ள பெண்கள் பங்கு பெறும் டி.வி. நிகழ்ச்சி
கோடீஸ்வரி. ஜெயா டி.வி.யில் ஒளிபரப்புவதற்காக டெலிஜூம் நிறுவனம் தயாரிக்கும் இந்த
நிகழ்ச்சியை, பிரபல நடிகை குஷ்பு நடத்துகிறார். வரும் 23-ந் தேதியிலிருந்து ஞாயிறு
தோறும் இரவு 8 மணி முதல் 9 மணி வரை ஜெயா டி.வி.யில் இந்நிகழ்ச்சி ஒளிபரப்பாக
இருக்கிறது. </p><p>
</p><p>
போட்டி விதிமுறைகள் </p><p>
</p><p>
இந்த போட்டியில் நான்கு சுற்றுக்கள் கொண்ட ஒரு வார பகுதியில் மூன்றுபேர் பங்கு
பெறுவார்கள். அவர்களுக்கான தனித் தனி மேஜையில் 15 கட்டங்கள் பொறிக்கப்பட் டிருக்கும்.
முதல் சுற்றில் 12 கேள்விகள் கேட்கப்படும். இதற்கான பதில் தெரிந்தவர்கள் உடனடியாக,
சத்தமிடும் பட்டனை அழுத்த வேண்டும். சரியான பதில் சொல்லி தங்கள் கட்டத்திலுள்ள 4 மூலை
எண்களை பூர்த்தி செய்து கொள்ளலாம். இப்படி சரியான பதிலளிப்பவர்களுக்கு 5 ஆயிரம் ரூபாய்
பரிசு வழங்கப்படும். </p><p>
</p><p>
இரண்டாவது சுற்று </p><p>
</p><p>
இரண்டாவது சுற்றில் 15 கேள்விகள் கேட்கப்படும். அவற் றில் 5 கேள்விக்கு பதிலளித்து,
நடுவில் இருக்கும் 5 கட்டங் களை பூர்த்தி செய்தால் 10 ஆயிரம் ரூபாய் பரிசாக வழங்
கப்படும். மீதமுள்ள கேள்வி களுக்கு சரியாக பதில் சொன் னால் தலா 1000 ரூபாய்
வழங்கப்படும். </p><p>
</p><p>
மூன்றாவது சுற்றில் 18 கேள்விகள். அவற்றில் மீத முள்ள 6 கட்டங்களை பூர்த்தி
செய்பவர்கள் 15 ஆயிரம் ரூபாய் பரிசாக பெறுவர். மொத்த கட்டங்களையும் பூர்த்தி செய்
பவர்களுக்கு 1லட்சம் ரூபாய் பெற்று, கோடீஸ்வரி சுற்றுக்கு தகுதி பெறுவார்கள். மற்ற இருவரும்
அவர்கள் பதிலளிக்கும் கேள்விகளுக்கு தலா 1000 ரூபாய் பரிசு பெற்று போட்டியிலிருந்து
விலக்கப்படுவார்கள். </p><p>
</p><p>
கோடீஸ்வரி </p><p>
</p><p>
நான்காவது சுற்று 2 பகுதிகளாக பிரிக்கப்படுகிறது. இதில் மொத்தம் 10 கேள்விகள்
கேட்கப்படும். சரியான பதிலளிக்கும் முதல் 5 கேள்விகளுக்கு 10 லட்சம் ரூபாய்
பரிசளிக்கப்படும். இந்த சுற்றில் போட்டியாளர்களுக்கு ஒரு கேள்விக்கு உதவியாளர்
பதிலளிக்கலாம். கடைசியாக இரண்டாவது பகுதியில் இடம்பெறும் 5 கேள்விகளுக்கு சரியாக பதில்
சொன்னால் 1 கோடி ரூபாய் வழங்கப்படும். </p><p>
</p><p>
இப்போட்டியில் பார்வையாளர்களாக அமர்ந்திருப்பவர்களுக்கும் பரிசு வழங்கப்படும்.</p>

<p> </p>

<p>திருவரங்கம் கோவிலில்
சிறப்பு பூஜை: சரத்குமார் எம்.பி.- ராதிகா திருச்சி வந்தனர்</p>

<p> </p>

<p> </p>

<p>திருச்சி,செப்.15- சரத்குமார் எம்.பி. தனது மனைவி நடிகை
ராதிகாவுடன் நேற்று காலை திருச்சி வந்தார். திருச்சி வந்த அவர்கள் திருவரங்கம்
கோவிலில் சிறப்பு பூஜைகள் நடத்தி சாமி தரிசனம் செய்தனர். </p><p>
</p><p>
நடிகர் சரத்குமார் எம்.பி., தனது மனைவி நடிகை ராதிகாவுடன் நேற்று காலை மலைக்கோட்டை
எக்ஸ்பிரஸ் மூலம் திருச்சி வந்தார். திருச்சி வந்த அவர்களுக்கு திருச்சி, திண்டுக்கல்,
புதுக்கோட்டை மாவட்ட ரசிகர் மன்ற தலைவர்களும், ஏராளமான ரசிகர்களும் பெரும்திரளாக வந்து
வரவேற்பு அளித்தனர். இதனால் ஜங்சன் முழுவதும் ரசிகர்கள் கூட்டம் திரண்டு காணப்பட்டது. </p><p>
</p><p>
பின்னர் சரத்குமாரும், ராதிகாவும் திருச்சி பெமீனா ஓட்டலில் தங்கினர். சிறிது
நேரத்தில் அவர்கள் இருவரும் திருவரங்கம் ரெங்கநாதர் கோவிலுக்கு சென்றனர். அங்கு தாயார்
சன்னதி, ரெங்கநாதர் சன்னதியில் சிறப்பு வழிபாடுகள், அபிசேகம், பூஜைகள் நடத்தி
வழிபட்டனர். </p><p>
</p><p>
பின்னர் அவர்கள் புதுக் கோட்டை மாவட்ட ரசிகர் மன்ற தலைவர் ப.சீனிவாசன் -
வீ.அன்புசெல்வி திருமணத்தில் கலந்து கொள்ள புதுக்கோட்டை சென்றனர். </p><p>
</p><p>
சரத்குமாருடன் அகில இந்திய சரத்குமார் மன்ற துணைத்தலைவர் கே.விஜயக் குமார் , கொள்கை
பரப்பு செயலாளர்கள் தமிழ் விநாயகம், என்.எஸ். நாதன், சென்னை ராம கிருஷ்ணன்,
டைரக்டர் ரத்தினக்குமார், மதுரை மாவட்ட சரத்குமார் மன்ற தலைவர் ராஜா, திருச்சி மாவட்ட
செயலாளர் சாமு வேல், பொருளாளர் ஜெகதீசன், புதுக்கோட்டை மாவட்ட செயலாளர் ஆசீர்வாதம்,
ஆனந்தன், திண்டுக்கல் கார்த்திக், ஜெயக்குமார், கணே சன், கிறிஸ்டோபர், பாக்யராஜ்
உள்பட பலர் சென்றனர். </p>

<p> </p>

<p> </p>

<p> </p>






</body></text></cesDoc>