<cesDoc id="tam-w-dinakaran-cinema-02-04-21" lang="tam">
<cesHeader type="text">
<fileDesc>
<titleStmt>
<h.title>tam-w-dinakaran-cinema-02-04-21.txt</h.title>
<respStmt>
<respType>Electronic file created by</respType>
<respName>Department of Linguistics, Lancaster University</respName>
<respType>text collected by</respType>
<respName>Paul Baker and Celia Worth</respName>
<respType>transferred into Unicode by</respType>
<respName>"Unicodify" software by Andrew Hardie</respName>
</respStmt>
</titleStmt>
<publicationStmt>
<distributor>UCREL</distributor>
<pubAddress>Department of Linguistics, Lancaster University, Lancaster, LA1 4YT, UK</pubAddress>
<availability region="WORLD"></availability>
<pubDate>03-08-24</pubDate>
</publicationStmt>
<sourceDesc>
<biblStruct>
<monogr>
<h.title>"Dinakaran" internet news (www.dinakaran.com), news stories collected on 02-04-21</h.title>
<h.author>Dinakaran</h.author>
<imprint>
<pubPlace>Tamil Nadu, India</pubPlace>
<publisher>Dinakaran</publisher>
<pubDate>02-04-21</pubDate>
</imprint>
</monogr>
</biblStruct>
</sourceDesc>
</fileDesc>
<encodingDesc>
<projectDesc>Text collected for use in the EMILLE project.</projectDesc>
<samplingDesc>Simple written text only has been transcribed. Diagrams, pictures and tables have been omitted and their place marked with a gap element.
</samplingDesc>
<editorialDecl>
<conformance level="1"></conformance>
</editorialDecl>
</encodingDesc>
<profileDesc>
<creation>
<date>03-08-24</date>
</creation>
<langUsage>Tamil</langUsage>
<wsdUsage>
<writingSystem id="ISO/IEC 10646">Universal Multiple-Octet Coded Character Set (UCS).</writingSystem>
</wsdUsage>
<textClass>
<channel mode="w">print</channel>
<constitution type="composite"></constitution>
<domain type="public"></domain>
<factuality type="fact"></factuality>
</textClass>
<translations></translations>
</profileDesc>
<revisionDesc></revisionDesc>
</cesHeader>

<text>
<body>




<p>நடிகை சுகன்யா ரகசிய
திருமணம், அமெரிக்க என்ஜினியரை மணந்தார்</p>

<p> </p>

<p> </p>

<p>சென்னை, ஏப். 21- நடிகை சுகன்யா அமெரிக்கா கம்ப்யூட்டர்
என்ஜினீயர் தரை ரகசிய திருமணம் செய்து கொண்டார். </p><p>
</p><p>
புது நெல்லு புதுநாத்து படம் மூலம் தமிழ் திரையுலகுக்கு அறிமுகமானவர் நடிகை சுகன்யா.
தொடர்ந்து சின்ன கவுண்டர், இந்தியன் உள்பட பல்வேறு படங்களில் நடித்திருக்கிறார். </p><p>
</p><p>
கடந்த சில வருடங்களாக நல்ல வேடங்கள் வராததால் அவர் எந்த படத்திலும் நடிக் காமல் இருந்து
வந்தார். சமீபத்தில்  பண்ணாரி அம்மன் படத்தில் ஒரு பாடல் காட்சியில் அவர்
நடித்தார். அப்படம் திரைக்கு வந்து ஓடிக்கொண்டிருக்கிறது. </p><p>
</p><p>
இந்தநிலையில் நடிகை சுகன்யாவுக்கு அவரது வீட்டில் மாப்பிள்ளை பார்த்து வந்தார்கள்.
சுகன்யாவின் அக்காள் அமெரிக்காவில் வசித்து வருகிறார். அவரும் சுகன்யாவுக்கு ஏற்ற
மாப்பிள்ளையை தேடி வந்தார். தர் என்ற மாப் பிள்ளை அவர்களுக்கு பிடித் திருந்தது. இவர்
அமெரிக்காவில் கம்ப்யூட்டர் என்ஜினியராக இருக்கிறார். </p><p>
</p><p>
ரகசிய திருமணம் </p><p>
</p><p>
கடந்த மாதம் 18-ந் தேதி நியூஜெர்சியில் சுகன்யா-தர் திருமணம் ரகசியமாக நடந்து
முடிந்தது. </p><p>
</p><p>
திருமணம் முடிந்துவிட்டதால் சுகன்யா சினிமாவுக்கு முழுக்கு போட முடிவு செய்து உள்ளார்.
அமெரிக்காவில் கணவருடன் சேர்ந்து வாழ திட்டமிட்டிருக்கிறார். சுகன்யா முறைப்படி பரத நாட்டி
யம் கற்றவர். எனவே அமெரிக்காவில் பரத நாட்டிய பள்ளி ஒன்றை அவர் தொடங்க எண்ணி
உள்ளதாக கூறப்படுகிறது. </p><p>
</p><p>
காஞ்சியில் ஜோதிடம் கேட்ட </p><p>
</p><p>
நடிகை சுகன்யா- </p><p>
</p><p>
பக்தி படத்தில் நடித்த பிறகு நல்லது நடக்கும் </p><p>
</p><p>
நடிகை சுகன்யா அடிக்கடி காஞ்சிபுரம் சென்று சங்கராச் சாரியாரை சந்தித்து தனது
கஷ்டங்களை எடுத்துக்கூறுவார். ஒருமுறை அவர் தனது ஜாதகத்தை அவரிடம் காட்டினார்.
அதைப்பார்த்த சுவாமிகள் விரைவில் உனக்கு ஒரு பக்தி படத்தில் நடிக்க வாய்ப்பு கிடைக்கும்
அதன், பிறகு நல்லது நடக்கும் என்று கூறினார். </p><p>
</p><p>
சங்கராச்சாரியார் கூறிய அருள் வாக்கு நிச்சயம் பலிக்கும் என்ற நம்பிக்கையுடன் இருந்தார்
சுகன்யா. அதற்கேற்ப கடந்த 2 மாதத்துக்கு முன்பு  பண்ணாரி அம்மன் படத்தில் ஒரேயொரு
பாடல் காட்சியில் நடிக்க வேண்டும் என்று படத்தின் இயக்குனர் பாரதிகண்ணன் தொலைபேசியில்
தொடர்புகொண்டு சுகன்யாவிடம் கேட்டார். ஒரு பாடல் காட்சி ஆயிற்றே ஒப்புக்கொள்வாரோ
மாட்டாரோ என்ற தயக்கத் துடனேயே டைரக்டர் இருந்தார். ஆனால் சுகன்யா பாடல் காட்சியில்
நடிக்க உடனடியாக சம்மதம் தெரிவித்தார். டைரக்டரை வீட்டுக்கு அழைத்து அட்வான்சும் பெற்றுக்
கொண்டார். சுகன்யா நடித்த பாடல் காட்சி எட்டயபுரத்தை அடுத்துள்ள சிந்தலக்கரை என்ற
இடத்தில் உள்ள 48 அடி உயர வெக்காளி அம்மன் சிலை முன்னிலையில் நடந்தது. எங்க குல மாரியே
முத்துமாரி எங்க குறை தீர்க்க வேணும் என்ற அந்த பாடல் படத்தில் இடம் பெற்றிருக்கிறது. </p><p>
</p><p>
காஞ்சி சங்கராச்சாரியார் சொன்னதுபோல் தனக்கு பக்தி படத்தில் நடிக்க மூன்றே
நாளில் அழைப்பு வந்ததை கண்டதும் சுகன்யா மெய்சிலிர்த்தார். இந்த சம்பவத்தை டைரக்டர்
பாரதிகண்ணனிடம் படப்பிடிப்பின்போது சுகன்யா தெரிவித்திருக்கிறார். </p>

<p> </p>

<p> </p>

<p>கமல்-ரஜினிதான் எனக்கு முன்
உதாரணம், பிலிம்பேர் விருது விழாவில் நடிகர் விக்ரம் பேச்சு</p>

<p> </p>

<p> </p>

<p>சென்னை, ஏப். 21- கமலும் ரஜினியும் எனது வழி காட்டிகள் என்று
பிலிம்பேர் விருது பெற்ற நடிகர் விக்ரம் கூறினார். </p><p>
</p><p>
தமிழ், தெலுங்கு, மலை யாளம், கன்னடம் ஆகிய நான்கு மொழிப் படங்களில் சிறந்த நடிகர்,
நடிகைகளுக்கு விருது வழங்கும் விழா சென்னையில் உள்ள நேரு உள் விளையாட்டு அரங்கில் நேற்று நடந்தது.
</p><p>
</p><p>
சவுத்ரி-விக்ரம்-சேரன் </p><p>
</p><p>
தமிழில் ஆனந்தம் சிறந்த படத்திற்கான விருதை பட தயாரிப்பாளர் ஆர்.பி.சவுத்ரி
பெற்றார். சிறந்த நடிகருக் கான விருதை நடிகர் விக்ரம் காசி படத்திற்காக நடிகை
சவுந்தர்யாவிடமிருந்து பெற் றார். சிறந்த நடிகை விருதை நடிகை லைலா நந்தா படத் திற்காக
நடிகர் மாதவனிடம் பெற்றுக்கொண்டார். சிறந்த இயக்குனர் விருதை டைரக் டர் சேரன்
பாண்டவர் பூமி படத்திற்காக நடிகை நக்மாவிடம் பெற்றார். சிறந்த இசை அமைப்பாளர்
ஹாரிஸ் ஜெயராஜ் மின்னலே படத்திற்காக நடிகை சினேகாவிடம் பெற்றுக்கொண்டார். </p><p>
</p><p>
பேச்சு </p><p>
</p><p>
பின்னர் நடிகர் விக்ரம் பேசியதாவது:- </p><p>
</p><p>
காசி படத்தில் நான் கண் இல்லாதவனாக, 5நிமிடம் ஏன் அரை மணி நேரம் கூட
நடித்திருக்கிறேன். அப்போது இந்த உலகை பார்க்க முடியாமல் கஷ்டப்பட்டிருக்கிறேன். அரை மணி
நேரத் திற்கே நான் எவ்வளவு கஷ்டப்பட்டேன் என்பது எனக்குதான் தெரியும் ஆனால் வாழ்க்கை
முழுவ துமே பார்வை இல்லாமல் தவிப்பவர்களை நினைத் தால் ரொம்பவும் வருத்தமாக இருக்கிறது.
பார்வையற்ற வர்கள் என்ற குறையையும் மீறி அவர்கள் தன்னம்பிக் கையுடன் வாழ்கிறார்கள்.
அவர்களுக்கு நாம் எல்லோரும் சேர்ந்து ஒரு ஓ போட வேண்டும். </p><p>
</p><p>
சினிமாவில் நான் கடினமான வேடங்களை ஏற்று நடிக்க எனக்கு முன்னுதாரணமாக இருப்பவர் கமல்
ஹாசன்சார்தான். எவ்வளவு பெரிய கடினமான வேடமாக இருந்தாலும் அவர் அதை செய்வார்.
அதேபோல் சூப்பர் ஸ்டார் ரஜினிகாந்த். அவர் இன்றைக்கு எட்டியிருக்கும் இடத்தை வேறு
யாரும் எட்டிப்பிடிக்க முடியாது. </p><p>
</p><p>
இவ்வாறு அவர் கூறினார். </p><p>
</p><p>
குஷ்பு </p><p>
</p><p>
மலையாளத்தில் சிறந்த படம் மெகாமல்ஹர், சிறந்த நடிகர் ஜெயராம் (தீர்த்த தானம்)
சார்பில் நடிகை குஷ்பு, சிறந்த இயக்குனர் வினையன்(கருமாடிகுட்டன்), சிறந்த நடிகை சம்யுக்த
வர்மா (மெகாமல்ஹர்), சிறந்த இசை அமைப்பாளர் சுரேஷ்பீட்டர் (ராவணப்பிரபு), </p><p>
</p><p>
தெலுங்கில் சிறந்த படம் நுவு நேனு, சிறந்த நடிகர் உதய்கிரண்(நுவு நேனு) சார் பில் நடிகர்
அருண்குமார், சிறந்த நடிகை பூமி (குஷி), சிறந்த இயக்குனர் தேஜா (நுவுநேனு), சிறந்த இசை
அமைப்பாளர் ஆர்.பி.பட் நாயக் (நுவுநேனு), </p><p>
</p><p>
கன்னடத்தில் சிறந்த படம் கோதிகாலு  கோதிகாலு சிறந்த நடிகர் சுதீப் (அச்சச் சா),
சிறந்த நடிகை பிரேமா (கனசுகாரா), சிறந்த இசை அமைப்பாளர் குருகிரண் (சித்ரா), சிறந்த
இயக்குனர் நாகதி ஹாலி சந்திரசேகர் (நானா பிரீதிய ஹடுகி) ஆகி யோர் பெற்றனர். </p><p>
</p><p>
சாதனையாளருக்கான விருதினை இசை அமைப் பாளர் எம்.எஸ்.விஸ்வ நாதன், டைரக்டர் தாசரி
நாராயணராவ் ஆகியோர் பட அதிபர் ஏவி.எம்.சர வணன், டைரக்டர் கே.பால சந்தர்
ஆகியோரிடமிருந்து பெற்றுக்கொண்டனர். </p><p>
</p><p>
சிம்பு </p><p>
</p><p>
விழாவில் நடிகர் லாரன்ஸ், நடிகை ஜோதிகா மற்றும் இந்தி நடிகை தியா அமிர்ஜா நடன
நிகழ்ச்சி நடந்தது. டைரக்டர் நடிகர்கள் சிலம் பரசன் பிரபுதேவா, நடிகைகள் ரம்பா,
கவுதமி உள்பட பலர் கலந்துகொண்டனர். </p>

<p> </p>

<p> </p>

<p> </p>

<p> </p>

<p>ஊத்தங்கரை: மோனல்
ரசிகர்கள் 3 பேர் தற்கொலை, போலீசுக்கு தெரிவிக்காமல் பிணத்தை எரித்ததாக 6 பேர் கைது</p>

<p> </p>

<p>ஊத்தங்கரை,ஏப்.21- ஊத்தங்கரை அருகே நடிகை மோனல் இறந்த
துக்கத்தில் ரசிகர்கள் 3 பேர் விஷத்தில் தற்கொலை செய்து கொண்டனர். போலீசுக்கு
தெரியாமல் பிணத்தை எரித்ததாக 6 பேரை போலீசார் கைது செய்தனர். </p><p>
</p><p>
தர்மபுரி மாவட்டம் ஊத்தங்கரை அருகே வசிப்பவர் மகாலிங்கம். விவசாயியான இவரது மகன்
மாதேஸ் (வயது 20). இவருடைய நண்பர் கல்லாவி ரமேஷ்(வயது 20), அதேபோல கல்லாவி அடுத்து
உள்ள வேடப்பட்டியைச் சேர்ந்தவர் வேலுமணி(வயது 20) டெய்லர். இவர்கள் 3 பேரும் நெருங்கிய
நண்பர்கள். </p><p>
</p><p>
மோனல் ரசிகர்கள் </p><p>
</p><p>
நடிகை மோனலின் தீவிர ரசிகர்கள் ஆவார்கள். அவர் இறந்த துக்கத்தில் மனம் உடைந்து
காணப்பட்டனர். சம்பவத்தன்று 3 பேரும் விஷம் குடித்து தற்கொலை செய்து கொண்டனர். இவர்களது
உடலை பெற்றோர் மற்றும் உறவினர்கள் யாருக்கும் தெரியாமல் உடனடியாக எரித்து விட்டனர்.
இந்த சம்பவம் அந்த பகுதியில் பெரும் பரபரப்பை ஏற்படுத்தியது. </p><p>
</p><p>
6 பேர் கைது </p><p>
</p><p>
இதுகுறித்து தகவல் அறிந் ததும் கல்லாவி போலீஸ் நிலைய இன்ஸ்பெக்டர் வழக்கு பதிவு செய்து
தற்கொலை செய்துகொண்ட ரமேஷின் தகப்பனார் தேவராஜ்(வயது 47), உறவினர்கள் செல்வம் (வயது
34), கிருஷ்ணன்(வயது 35) மாதேஸின் தகப்பனார் மகாலிங்கம்(வயது 45), உற வினர்கள்
நடராஜ்(வயது 35), ஆறுமுகம்(வயது 50) ஆகி யோரை கைது செய்தார். </p><p>
</p><p>
பின்னர் அனைவரும் ஊத்தங்கரை நீதிமன்றத்தில் ஆஜர்படுத்தப்பட்டனர். </p>

<p> </p>

<p> </p>

<p> </p>

<p>ஓ போடு... என்றால்
என்ன? பட்டிமன்றத்தில் புது விளக்கம்</p>

<p> </p>

<p>திருவாடானை, ஏப்.21- ராமநாதபுரம் மாவட்டம் திருவாடானையில் உள்ள
பாகம்பிரியாள் வன்மீக நாத சுவாமி கோவில் சித்திரை திருவிழா கொடியேற்றத்தை முன்னிட்டு
குபீர் சிரிப்பு பட்டிமன்றம் என்ற பொருளில் வாழ்க்கையில் மகிழ்ச்சி கிடைப்பது
திருமணத்திற்கு முன்பா-பின்பா? என்ற தலைப்பில் பட்டிமன்றம் நடந்தது. நடுவர்
பொறுப்பேற்ற திருப்புவனம் கரு.கருப்்பையா பேசும்போது கூறியதாவது:- </p><p>
</p><p>
சமீபத்தில் திரைக்கு வந்த ஜெமினி படத்தில் ஒரு பாடல் வந்து பரபரப்பாக்கி உள்ளது என்று
சொன்னதும், கூட்டத்தின் முன் பகுதிச் சிறுவர்கள், ஒ..போடு.. என்று குரல் கொடுத்தனர். </p><p>
</p><p>
ஓ.போடு என்றால் என்ன அர்த்தம் என்று கேட்டதும், கூட்டத்தில் சிரிப்பு மட்டுமே பதிலாய்
வந்தது. ஒரு ஊரில் ஒரு பெரியவரைப்பார்த்து, ஓ..போடு என்றால் அர்த்தம் என்ன என்று
கேட்டதற்கு, முருகப் பெருமானின் மந்திரமான ஓம் என்பதனை உச்சரியுங்கள் என்ற பொருளில்
ஓம் போடு என்பது தான் மருவி, ஓ போடு என்று ஆகியிருக்கலாம் என்றார். </p><p>
</p><p>
ஆனால ஒரு சிறுவனிடம் கேட்டபோது ஜெயலலிதா சத்துணவில் முட்டையை நிறுத்தி விட்டு,
உருளைக்கிழங்கு போடுகிறார்கள். எனவே மீண்டும் முட்டை போடு என்பதைத்தான் ஓ போடு
சொல்லாமல் சொல்கிறார்கள். ஓ என்று ஆங்கில எழுத்தில் ூ முட்டை வடிவம் வரும் மீண்டும்
சத்துணவில் முட்டை போடு என்று ஜெயலலிதாவிற்கு கேட்கும்படி பாட்டு எழுதி இருக்கிறார்கள்
என்றான். எனவே நாமும் சேர்ந்து ஓ போடுவோம் எதற்கு என்று மட்டும் கேட்க வேண்டாம். </p><p>
</p><p>
இவ்வாறு அவர் பேசினார். </p>

<p> </p>






</body></text></cesDoc>