<cesDoc id="tam-w-dinakaran-cinema-00-12-12" lang="tam">
<cesHeader type="text">
<fileDesc>
<titleStmt>
<h.title>tam-w-dinakaran-cinema-00-12-12.txt</h.title>
<respStmt>
<respType>Electronic file created by</respType>
<respName>Department of Linguistics, Lancaster University</respName>
<respType>text collected by</respType>
<respName>Paul Baker and Celia Worth</respName>
<respType>transferred into Unicode by</respType>
<respName>"Unicodify" software by Andrew Hardie</respName>
</respStmt>
</titleStmt>
<publicationStmt>
<distributor>UCREL</distributor>
<pubAddress>Department of Linguistics, Lancaster University, Lancaster, LA1 4YT, UK</pubAddress>
<availability region="WORLD"></availability>
<pubDate>03-08-24</pubDate>
</publicationStmt>
<sourceDesc>
<biblStruct>
<monogr>
<h.title>"Dinakaran" internet news (www.dinakaran.com), news stories collected on 00-12-12</h.title>
<h.author>Dinakaran</h.author>
<imprint>
<pubPlace>Tamil Nadu, India</pubPlace>
<publisher>Dinakaran</publisher>
<pubDate>00-12-12</pubDate>
</imprint>
</monogr>
</biblStruct>
</sourceDesc>
</fileDesc>
<encodingDesc>
<projectDesc>Text collected for use in the EMILLE project.</projectDesc>
<samplingDesc>Simple written text only has been transcribed. Diagrams, pictures and tables have been omitted and their place marked with a gap element.
</samplingDesc>
<editorialDecl>
<conformance level="1"></conformance>
</editorialDecl>
</encodingDesc>
<profileDesc>
<creation>
<date>03-08-24</date>
</creation>
<langUsage>Tamil</langUsage>
<wsdUsage>
<writingSystem id="ISO/IEC 10646">Universal Multiple-Octet Coded Character Set (UCS).</writingSystem>
</wsdUsage>
<textClass>
<channel mode="w">print</channel>
<constitution type="composite"></constitution>
<domain type="public"></domain>
<factuality type="fact"></factuality>
</textClass>
<translations></translations>
</profileDesc>
<revisionDesc></revisionDesc>
</cesHeader>

<text>
<body>




<p>தமிழில் புதிய கோடீசுவரன்
நிகழ்ச்சி: ரஜினியுடன் ஸ்டார் டி.வி. ஒப்பந்தம் கையெழுத்து</p>

<p> </p>

<p></p><p>
</p><p>
</p><p>
</p><p>
மும்பை, டிச. 12- டெலிவிஷன் சேனல்களில் பொது அறிவு போட்டி மூலம் பரிசு தரும்
நிகழ்ச்சிகள் நாடு முழுவதும் எல்லா தரப்பு மக்களிடமும் பெரிய விழிப் புணர்ச்சியை
ஏற்படுத்தி உள்ளது. படித்தவர்கள் மட்டுமின்றி பாமரர்களுக்கும் உலக விஷயங்களை தெரிந்து
கொள்வதில் டி.வி. போட்டிகள் பெரும் ஆர் வத்தை உண்டாக்கி உள்ளன. </p><p>
</p><p>
ஸ்டார் பிளஸ் டெலிவிஷன், கே.பி.சி. (கோன் பனேகா குரோர்பதி) என்ற ரூ.1 கோடி பரிசு
தரும் நீங்களும் கோடீசு வரர் ஆகலாம் நிகழ்ச்சியை முதலில் தொடங்கியது. இந்தி மொழி
பேசும் பகுதியில் வாழும் டி.வி. ரசிகர்களை இந்த நிகழ்ச்சி மூலம் ஸ்டார் பிளஸ் டி.வி. தன்
வசம் இழுத்து விட் டது. இந்த கே.பி.சி. பொது அறிவுப் போட்டியை இந்தி சூப் பர் ஸ்டார்
நடிகர் அமிதாப்பச் சன் தொகுத்து வழங்கி வரு கிறார். </p><p>
</p><p>
சரத்குமார் </p><p>
</p><p>
இந்தி டி.வி. சேனலில் இந்த பரபரப்பு நடந்து வரும் நிலை யில், தமிழ் டி.வி. சேனலில்
சன்டி.வி. தொடங்கிய ரூ.1 கோடி பரிசு தரும் கோடீசு வரன் நிகழ்ச்சியும் தமிழ் டி.வி.
ரசிகர்களையும் தமிழகம் முழு வதும் பொதுமக்களையும் மிக வும் கவர்ந்து உள்ளது. சுப்ரீம்
ஸ்டார் சரத்குமார் நடத்தும் இந்த கோடீசுவரன் நிகழ்ச்சி தமிழ் டி.வி. சேனலில் ஏற் கனவே
முதலிடத்தில் இருக்கும் சன் டி.வி.க்கு மேலும் ரசிகர் களை பெற்றுத் தந்துள்ளது. </p><p>
</p><p>
இந்தியாவில் இந்தி பேசும் மக்கள் அதிகம். இதனால் இந்தி டி.வி. சேனல் அதிக வருவாய்
ஈட்டுவதில் முதலிடத்தில் உள் ளது. பிராந்திய மொழியில் தமிழ் டி.வி. சேனல்களுக்கே
அதிக வருவாய் வருகிறது. </p><p>
</p><p>
இதனால் ஸ்டார் டி.வி. தமி ழிலும் கே.பி.சி. (கோடீசுவரன் ஆகலாம்) நிகழ்ச்சியை தயா
ரிக்க திட்டமிட்ட தகவல் ஏற் கனவே வௌியானது. </p><p>
</p><p>
ரஜினிகாந்த் </p><p>
</p><p>
தமிழ் சினிமா உலகின் சூப்பர் ஸ்டார் ரஜினிகாந்தை வைத்து ஸ்டார் டி.வி. இந்த
நிகழ்ச்சியை தயாரிக்கப்போவ தாக அந்த தகவல் கூறியது. இப்போது ஸ்டார் டி.வி. -
ரஜினிகாந்த் இடையே ஒப்பந்தம் கையெழுத்தாகி விட்டது என்று தகவல் உறுதிப்படுத்தப்பட்டு
உள்ளது. இதுபற்றி பிசினஸ் ஸ்டாண்டர்டு ஆங்கில வணிக நாளிதழில் வௌியாகி உள்ள தகவல்
வருமாறு:- </p><p>
</p><p>
வெற்றிகரமான கே.பி.சி. பரிசு போட்டி நிகழ்ச்சியை பிராந்திய மொழிகளிலும் தயா ரிக்க
ஸ்டார் பிளஸ் ஏற்பாடு களில் இறங்கி உள்ளது. தமிழில் இந்த போட்டியை நடத்த தென்
னிந்திய சூப்பர் ஸ்டார் ரஜினி காந்தை ஒப்பந்தம் செய்து உள்ளனர். கடந்த வாரம் இதற்
கான ஒப்பந்தம் கையெழுத் தானதாக இந்த ஒப்பந்தத்தில் பங்கு பெற்ற நெருங்கிய வடடாரங்கள்
தெரிவிக்கின்றன. </p><p>
</p><p>
நியூஸ் டெலிவிஷன் இந்தியா வின் செய்தி தொடர்பாளரிடம் இந்த உடன்பாடு கையெழுத் தானது
பற்றி கேட்டபோது தமிழ் கே.பி.சி. நிகழ்ச்சியை நாங்கள் இப்போது தொடங்க விரும்ப
வில்லை. ரஜினியுடன் பேசவில்லை. அதனால் ஒப்பந் தம் பற்றி சொல்ல விரும்ப வில்லை
என்றார். </p><p>
</p><p>
ஆனால் ஒப்பந்தத்தில் பங்கு பெற்ற நெருக்கமானவர்கள் தமிழ் சூப்பர் ஸ்டார் கையெழுத்
திட்டு விட்டதை உறுதிப்படுத்து கின்றனர். </p><p>
</p><p>
இவ்வாறு பிசினஸ் ஸ்டாண் டர்டு இதழில் வௌியாகி உள் ளது. </p><p>
</p><p>
தமிழில் ரஜினிகாந்த் ஸ்டார் டி.வி. போட்டியை நடத்தப் போகிறார் என்ற தகவல் பெரும்
எதிர்பார்ப்பை ஏற்படுத்தி உள்ளது. </p>

<p> </p>

<p>ரஜினி பிறந்த நாள் விழா:
கோவில்களில் சிறப்பு வழிபாடு</p>

<p> </p>

<p></p><p>
</p><p>
</p><p>
</p><p>
சென்னை, டிச. 12- சூப்பர் ஸ்டார் ரஜினிகாந் தின் 51-வது பிறந்த நாள் விழா இன்று
கொண்டாடப்படுகிறது. இதையொட்டி ரஜினிகாந்தின் குடும்பத்தினர் சார்பில் இன்று
நங்கநல்லூர் 32 அடி உயர ஆஞ்சநேயர் கோவிலில் விசேஷ பூஜை செய்யப்படு கிறது.
நிகழ்ச்சியில் சிற்றம்பல பாண்டியன், பாபு உள்பட பலர் கலந்து கொள்கிறார்கள். ஏழை
களுக்கு அன்னதானமும் வழங் கப்படுகிறது. </p><p>
</p><p>
வாணுவம்பேட்டை லட்சத் தில் ஒருவன் ரஜினிகாந்த் ரசி கர்கள் நற்பணி மன்றம் சார் பில்
நேற்று நங்கநல்லூர் ஆஞ்ச நேயர் கோவிலில் சிறப்பு பூஜை செய்யப்பட்டது.
நிகழ்ச்சியில் அகில இந்திய ரஜினி மன்ற தலைவர் க.சத்திய நாராய ணன், ஆலந்தூர்
ஆர்.டி.சிற்றம் பலபாண்டியன், உள்ளகரம் பி.சி.பாபு, ஜி.தர்மலிங்கம், எம்.ஜெயபால்,
டி.பழனி, ஆர்.ரமேஷ், சுப்பிரமணி மற்றும் பலர் பங்கேற்றனர். </p><p>
</p><p>
திருவல்லிக்கேணி </p><p>
</p><p>
திருவல்லிக்கேணி கலை உலக மாவீரன் ரஜினிகாந்த் ரசிகர்கள் நற்பணி மன்றம் சார் பில்
இன்று காலை 8 மணிக்கு ராகவேந்திரா சுவாமி கோவிலில் சிறப்பு அர்ச்சனை கள், அபிசேக,
ஆராதனைகள் நடக்கிறது. 9 மணி அளவில் அண்ணாசாலை தர்காவில் சிறப்பு தொழுகையும், 10
மணிக்கு கிறிஸ்தவ தேவாலயத் தில் சிறப்பு வழிபாடும் நடை பெறுகிறது. </p><p>
</p><p>
நிகழ்ச்சிக்கு மன்றத்தலைவ ரும், மத்திய சென்னை மாவட்ட த.மா.கா. இளைஞரணி பொதுச்
செயலாளருமான என்.உன்னி கிருஷ்ணன் தலைமை தாங்கு கிறார். த.மா.கா. சிறுபான்மை பிரிவு
தலைவர் ஆரூண் எம்.எல்.ஏ., மாவட்ட த.மா.கா. தலைவர் கே.விஜயன், கே.கோபி,
பி.தனஞ்செயன், சசி, ராதாகிருஷ்ணன், ரவி, ரகு மற்றும் பலர் கலந்து கொள்
கிறார்கள். </p><p>
</p><p>
கண்தானம் </p><p>
</p><p>
இதைத்தொடர்ந்து காலை 11 மணிக்கு சென்னை ரெட்கிராஸ் சொசைட்டியில் ரஜினி ரசிகர்
மன்றம் சார்பில் 51 பேர் ரத்த தானம் செய்கிறார்கள். மற்றும் வாழும் கண்கள் கண்
வங்கிக்கு ரஜினி ரசிகர்கள் 51 பேர் கண்தானம் செய்ய முன்வந்துள்ளனர். </p>

<p> </p>






</body></text></cesDoc>