<cesDoc id="tam-w-dinakaran-cinema-02-03-13" lang="tam">
<cesHeader type="text">
<fileDesc>
<titleStmt>
<h.title>tam-w-dinakaran-cinema-02-03-13.txt</h.title>
<respStmt>
<respType>Electronic file created by</respType>
<respName>Department of Linguistics, Lancaster University</respName>
<respType>text collected by</respType>
<respName>Paul Baker and Celia Worth</respName>
<respType>transferred into Unicode by</respType>
<respName>"Unicodify" software by Andrew Hardie</respName>
</respStmt>
</titleStmt>
<publicationStmt>
<distributor>UCREL</distributor>
<pubAddress>Department of Linguistics, Lancaster University, Lancaster, LA1 4YT, UK</pubAddress>
<availability region="WORLD"></availability>
<pubDate>03-08-24</pubDate>
</publicationStmt>
<sourceDesc>
<biblStruct>
<monogr>
<h.title>"Dinakaran" internet news (www.dinakaran.com), news stories collected on 02-03-13</h.title>
<h.author>Dinakaran</h.author>
<imprint>
<pubPlace>Tamil Nadu, India</pubPlace>
<publisher>Dinakaran</publisher>
<pubDate>02-03-13</pubDate>
</imprint>
</monogr>
</biblStruct>
</sourceDesc>
</fileDesc>
<encodingDesc>
<projectDesc>Text collected for use in the EMILLE project.</projectDesc>
<samplingDesc>Simple written text only has been transcribed. Diagrams, pictures and tables have been omitted and their place marked with a gap element.
</samplingDesc>
<editorialDecl>
<conformance level="1"></conformance>
</editorialDecl>
</encodingDesc>
<profileDesc>
<creation>
<date>03-08-24</date>
</creation>
<langUsage>Tamil</langUsage>
<wsdUsage>
<writingSystem id="ISO/IEC 10646">Universal Multiple-Octet Coded Character Set (UCS).</writingSystem>
</wsdUsage>
<textClass>
<channel mode="w">print</channel>
<constitution type="composite"></constitution>
<domain type="public"></domain>
<factuality type="fact"></factuality>
</textClass>
<translations></translations>
</profileDesc>
<revisionDesc></revisionDesc>
</cesHeader>

<text>
<body>




<p>''ராஜ்ஜியம்''
படத்திற்காக உச்சகட்ட பாடல் ஒரு லட்சம் ரசிகர்களுக்கு நடுவில் விஜயகாந்த் படப்பிடிப்பு,
குமரி-நெல்லை-மதுரை உள்பட 6 மாவட்டங்களில் நடக்கிறது</p>

<p> </p>

<p>சென்னை, மார்ச். 13- ஒரு லட்சம் ரசிகர்கள் மத்தியில்
விஜயகாந்த் நடிக்கும் பாடல் காட்சி கன்னியா குமரியிலிருந்து சென்னை வரை 6 நாட்கள்
படமாக்கப்படுகிறது. </p><p>
</p><p>
விஜயகாந்த் கதாநாயகனாக நடிக்கும் புதிய படம் ''புரட்சி கலைஞரின் ராஜ்ஜியம்''.
இப்படத்தை மனோஜ்குமார் டைரக்டு செய்கிறார். பிரியங்கா திரிவேதி, சமீதா ஷெட்டி
கதாநாயகிகளாக நடிக்கின்றனர். </p><p>
</p><p>
இப்படத்திற்காக விஜயகாந்த் நடிக்கும் பாடல் காட்சி ஒன்றை கன்னியாகுமரியிலி ருந்து
சென்னை வரை 6 நாட்கள் படமாக்க திட்டமிட்டிருக்கின்றனர். ஒவ்வொரு மாவட்டத்திலிருந்து
வரும் ரசிகர்களுக்கு மத்தியில் விஜயகாந்த் நடிக்கும் இப்பாடல் காட்சியில் சுமார் ஒரு
லட்சம் ரசிகர்கள் கலந்துகொள்கிறார்கள். </p><p>
</p><p>
15-ந்தேதி காலையில் கன்னியாகுமரியில் சூரியோதயத்தில் பாடலின் முதல் காட்சி
படமாக்கப்படுகிறது. தொடர்ந்து அங்கிருந்து நெல்லையில் படப்பிடிப்பு நடக்கிறது. 16-ந்தேதி
மதுரை மீனாட்சி அம்மன் கோயில், 17-ந்தேதி திருச்சி மலைக்கோட்டை கோவில், 18-ந்தேதி
சேலம் புதுபஸ் ஸ்டாண்ட் அருகில், 19-ந்தேதி கோவையில் வடகோவை பாலம் அருகில்
படப்பிடிப்பு நடக்கிறது. 20-ந்தேதி சென்னை சீரணி அரங்கில் பாடல் காட்சி நிறைவு
பெறுகிறது. </p><p>
</p><p>
விஜயகாந்த் அரசியல் பிரவேசத்துக்கு ஏற்ப இப்பாடல் வரிகளை அழுத்தம் திருத்த மாக சினேகன்
எழுதி இருக்கிறார். எஸ்.பி.பாலசுப்பிரமணியம், மனோ பாடி உள்ளனர். பரத்வாஜ் இசை
அமைத்திருக்கிறார். </p><p>
</p><p>
மனோஜ்குமார் </p><p>
</p><p>
இதற்காக படப்பிடிப்பு குழு வினருடன் டைரக்டர் மனோஜ் குமார் இன்்று மாலை கன்னியாகுமரி
புறப்பட்டு செல்கின்றனர். 14-ந் தேதி பிற்பகல் சென்னையிலிருந்து விஜயகாந்த்
கன்னியாகுமரி புறப்பட்டு செல்கிறார். 15-ந் தேதி முதல் பாடல் காட்சி படமாகிறது. இந்த
பாடல் காட்சியில் விஜயகாந்த் ரசிகர்கள் பங்கேற்பதற்காக அவரது மன்றத்தினர் பொறுப்பு
ஏற்று பணிகளை கவனித்து வருகின்றனர். படப்பிடிப்பில் பங்கேற்க தங்கள் மாவட்டத்துக்கு வரும்
விஜயகாந்த்துக்கு ரசிகர்கள் பிரமாண்ட வரவேற்பு அளிக்கின்றனர். </p>

<p> </p>

<p> </p>

<p>ரஜினியின் ''பாபா''
படத்துக்கு காளிகாம்பாள் கோவில் அரங்கு, சென்னையில் அமைக்கப்படுகிறது</p>

<p> </p>

<p>சென்னை, மார்ச். 13- ரஜினியின் ''பாபா'' படத்துக்காக
சென்னையில் காளிகாம்பாள் கோவில் அரங்கு அமைக்கப்படுகிறது. </p><p>
</p><p>
''படையப்பா'' படத்தை அடுத்து 3 வருட இடைவௌிக்கு பிறகு ரஜினிகாந்த் நடிக்கும் புதிய படம்
''பாபா''. இப்படத்தை சுரேஷ்கிருஷ்ணா டைரக்டு செய்கிறார். </p><p>
</p><p>
ஒவ்வொரு மனிதனுக்குள்ளும் ஒரு சக்தி ஒளிந்திருக்கிறது. அதை பயன்படுத்தினால் இந்த
உலகத்தையே வில்லாக வளைக்கலாம் என்ற கருத்தை மையமாக வைத்து இப்படத்தின் கதை அமைக்கப்
பட்டிருக்கிறது. இப்படத்தின் தொடக்க விழா வருகிற 24-ந் தேதி சென்னை ஏவி.எம்.ஸ்டுடி
யோவில் நடத்த திட்டமிடப்பட்டு உள்ளது. அதற்கான பணிகள் நடந்து வருகின்றன. </p><p>
</p><p>
இப்படத்தின் பெரும்பாலான படப்பிடிப்புக்காக சுமார் ஒரு கோடி ரூபாய் செலவில் சென்னையில்
உள்ள கேம்பா கோலா அரங்கில் அரங்கம் அமைக்கப்பட்டு வரு கிறது. சமீபத்தில் ரஜினிகாந்த்
சென்னை பாரிமுனையில் உள்ள காளிகாம்பாள் கோவி லுக்கு சென்று சாமி கும்பிட்டார். அந்த
கோவிலுக்கு சென்று வந்தபிறகு மிகவும் சக்தி வாய்ந்த கோவில் என்று ரஜினி தனது நெருங்கிய
நண்பர்களிடம் கூறி உள்ளார். </p><p>
</p><p>
''பாபா'' படத்தில் காளிகாம்பாள் கோவில் போன்ற அரங்கு அமைக்கவும் கேட்டிருக் கிறார்.
அவரது விருப்பப்படியே தத்ரூபமாக அந்த கோவிலை ஆர்ட் டைரக்டர் ஜி.கே. நிறுவி வருகிறார். </p><p>
</p><p>
தீபாவளிக்கு முன்பே.. </p><p>
</p><p>
முதலில் தீபாவளி தினத்தில் ரஜினிகாந்த் படம் திரைக்கு வரும் என்று கூறப்பட்டது. தற்போது
அதற்கு முன்னதாக அக்டோபர் மாதத்திலேயே படம் திரைக்கு வரும் என்று கூறப்படுகிறது. </p>

<p> </p>

<p> </p>

<p>''பிரதியூஷா இறந்து
விட்டாரா'' காதலன் சித்தார்த்த ரெட்டி கேட்கிறார்</p>

<p> </p>

<p>ஐதராபாத், மார்ச். 13- பிரதியூஷா இறந்து விட்டாரா என்று காதலன்
சித்தார்த்த ரெட்டி கேட்கிறார். </p><p>
</p><p>
நடிகை பிரதியூஷா சாவில் மர்மம் இருப்பதை தொடர்ந்து அவரது காதலன் சித்தார்த்த ரெட்டியை
சி.ஐ.டி போலீசார் கைது செய்தனர் அல்லவா? அவரை 10 நாட்கள் நீதிமன்ற காவலில்
சிறையில் அடைக்க மெட்ரோபாலிடன் மாஜிஸ்திரேட் என்.அனந்த ராவ் உத்தரவிட்டார். </p><p>
</p><p>
இதையடுத்து சித்தார்த்த ரெட்டி சன்சல்குடா சிறையில் அடைக்கப்பட்டார். ஆனாலும் அவருக்கு
வீட்டில் இருந்துதான் சாப்பாடு செல்கிறது. இந்த விவரம் மாஜிஸ்திரேட்டு க்கு தெரிய வந்தது.
உடனே அவர் ''சிறை அதிகாரிகள் அவருக்கு சாப்பாடு தரும் நிலையில் இல்லையா'' என்று கேள்வி
எழுப்பினார். பத்திரிகையாளர்கள் சித்தார்த்த ரெட்டியிடம் பேச அனுமதிக்கப்படுவதில்லை
என்று மாஜிஸ்திரேட்டிடம் கூறியபோது ''ஏன் பத்திரிகையாளர்களை பேச அனுமதிப்பதில்லை''
என்று கேட்டார். </p><p>
</p><p>
அதன்பிறகும் சித்தார்த்தா ரெட்டியிடம் பத்திரிகையாளர்களை பேச போலீசார்
அனுமதிக்கவில்லை. ஆனால் அவரது உறவினர்கள் மட்டும் பேச அனுமதிக்கப்படு கின்றனர்.
இந்தநிலையில் சித்தார்த்த ரெட்டியிடம் ஒரு நிருபர் பிரதியூஷா இறந்தது குறித்து
கருத்துகேட்டபோது ''அவர் (பிரதியூஷா) இறந்து விட்டாரா'' என்று மட்டுமே பதிலாக கூறினார். </p><p>
</p><p>
மேலும் அவர் கூறும்போது, ''இம்மயாத் நகரில் ஒரு திருமண விழாவில் கலந்து கொண்டு விட்டு
நானும் பிரதியூஷாவும் காரில் திரும்பிக்கொண்டிருந்தோம். ஐதர்குடா பகுதியில் காரை
நிறுத்தி விஷம் வாங்கிக் கொண்டு பின்னர் சி.பி.ஐ. அலுவலகம் எதிரே காரை நிறுத்தி விட்டு
ப்ளு பாக்ஸ் ஓட்டலுக்கு வந்தோம். அங்கு முதலில் பிரதியூஷா விஷம் குடித்தார். அவருக்கு பிறகு
சில நிமிடம் கழித்து நான் விஷம் குடிக்க முயன்றபோது அதை அவர் என் கையிலிருந்து தட்டி
விட்டார். ஆனாலும் நான் அந்த விஷத்தை மீண்டும் எடுத்து குடித்தேன். சிறிது குடித்தவுடனே
வாய் கசந்ததால் குடிக்காமல் நிறுத்தி விட்டேன். சில நிமிடங்களில் எங்கள் வயிற்றில்
தாங்கமுடியாத எரிச்சல் ஏற்பட்டதால் உடனடியாக நாங்கள் இருவரும் காரில் மருத்துவமனைக்கு
சென்றோம். </p><p>
</p><p>
இவ்வாறு அவர் கூறினார். </p>

<p> </p>

<p> </p>

<p>நில மோசடி வழக்கை ரத்து
செய்க: நடிகை ராதா தாக்கல் செய்த மனு, ஐகோர்ட்டில் தள்ளுபடி</p>

<p> </p>

<p>சென்னை,மார்ச்.13- நில மோசடி வழக்கை ரத்து செய்யக்கோரி நடிகை
ராதா தாக்கல் செய்த வழக்கை சென்னை ஐகோர்ட்டு தள்ளுபடி செய்து தீர்ப்பு கூறியது. </p><p>
</p><p>
நெல்லை மாவட்டம் ஏர்வாடியில் அந்தமானை சேர்ந்த ஜபருல்லா என்பவருக்கு சொந்தமான நிலம்
உள்ளது. இதை நிலத்தை இவர் யாருக்கும் விற்கவில்லை. இந்த நிலத்தை நடிகை ராதா வாங்கியதாக
பத்திரம் கிரயம் செய்து உள்ளார். இதனால் நடிகை ராதா மீதும் அவரது கணவர் மீதும் ஜபருல்லா
என்பவர் நெல்லை போலீசில் புகார் கொடுத்தார். </p><p>
</p><p>
மோசடி வழக்கு </p><p>
</p><p>
இந்த புகாரை போலீசார் விசாரணை நடத்தி நடிகை ராதா மீதும் அவரது கணவர் மீதும் போலீசார்
நில மோசடி வழக்கை தாக்கல் செய்தனர். இந்திய தண்டனை சட்டம் பிரிவு 120 பி, 468,471,
474 ஆகியவற்றின் கீழ் போலீசார் நடிகை ராதா மீது வழக்கு பதிவு செய்தனர். இந்த வழக்கு
தொடர்பாக தன்னை கைது செய்து விடுவார் களோ என்று பயந்து நடிகை ராதா சென்னை ஐகோர்ட்டில்
முன் ஜாமீன் மனு தாக்கல் செய்தார்.இதில் நடிகை ராதாவுக்கு ஐகோர்ட்டு முன் ஜாமீன்
வழங்கியது. இதை தொடர்ந்து நடிகை ராதா கோர்ட்டில் ஆஜராகாததால் அவருக்கு கோர்ட்டு
பிடிவாரண்டு பிறப்பிக்கப்பட்டது. </p><p>
</p><p>
பிடிவாரண்டு </p><p>
</p><p>
இதற்கு தடை விதிக்க கோரி நடிகை ராதா வழக்கு தாக்கல் செய்தார். இதனால் பிடி வாரண்டு
ரத்து செய்யப்பட்டது. இதை தொடர்ந்து நடிகை ராதா நெல்லை கோர்ட்டில் ஆஜரானார். இந்த
நிலையில் நடிகை ராதா தன் மீதான நில மோசடி வழக்கை ரத்து செய்யக்கோரி சென்னை
ஐகோர்ட்டில் வழக்கு தாக்கல் செய்தார். இந்த வழக்கை ஐகோர்ட்டு விசாரித்து புகார்
தாரருக்கு நோட்டீசு அனுப்பியது. இதற்கு புகார்தாரர்் ஜபருல்லா சார்பாக வக்கீல் எஸ்.அமீது
இஸ்மாயில் பதில் மனு தாக்கல் செய்து நடிகை ராதா நிலம் மோசடி செய்தது தௌிவாக தெரிந்து
உள்ளது, எனவே நெல்லை மாஜிஸ்திரேட் கோர்ட்டில் உள்ள இந்த வழக்கை ரத்து செய்யக்கூடாது
என்று கூறினார். </p><p>
</p><p>
போலீஸ் மனு </p><p>
</p><p>
இதை தொடர்ந்து போலீஸ் தரப்பில் அரசு வக்கீல் ஜெயபிரகாஷ் நாராயணன் ஆஜராகி போலீசார்
நடிகை ராதா மீது தாக்கல் செய்த வழக்கு விசாரணையை தொடர்ந்து நடத்த அனுமதி தர வேண்டும்
என்று கூறினார். </p><p>
</p><p>
தள்ளுபடி </p><p>
</p><p>
இரு தரப்பு வாதங்களையும் கேட்ட நீதிபதிகள் வழக்கு விசாரணையை தள்ளி வைத் திருந்தனர்.
அதன்படி இந்த வழக்கு நேற்று நீதிபதி நாகப்பன் முன்பு விசாரணைக்கு வந்தது. அப்போது புகார்
தாரர் தரப்பிலும், போலீஸ் தரப்பிலும் வாதாட வக்கீல்கள் தயாராக இருந்தனர். அப்போது
நடிகை ராதா சார்பாக வக்கீல் ஆஜராகி இந்த வழக்கை வாபஸ் பெற்றுக்கொள்வதாக கூறினார்.
உடனே நீதிபதி நாகப்பன் புகார் தாரர் ஜபருல்லாவின் வக்கீல் எஸ்.அமீது இஸ்மாயிலிடம் கருத்து
கேட்டார். இதை கேட்ட அமீது இஸ்மாயில் நடிகை ராதா வழக்கை நடத்தவில்லை என்று தெரிவித்த
பிறகு நாங்களும் இங்கு வழக்கை நடத்த விரும்ப வில்லை, நடிகை ராதா வழக்கை வாபஸ் பெற்று
கொள்ள அனுமதி தரலாம் என்று கூறினார். இதை நீதிபதி ஏற்றுக்கொண்டு நடிகை ராதாவின் வழக்கை
தள்ளுபடி செய்து தீர்ப்பு கூறினார். </p>

<p> </p>






</body></text></cesDoc>