<cesDoc id="tam-w-dinakaran-cinema-01-07-10" lang="tam">
<cesHeader type="text">
<fileDesc>
<titleStmt>
<h.title>tam-w-dinakaran-cinema-01-07-10.txt</h.title>
<respStmt>
<respType>Electronic file created by</respType>
<respName>Department of Linguistics, Lancaster University</respName>
<respType>text collected by</respType>
<respName>Paul Baker and Celia Worth</respName>
<respType>transferred into Unicode by</respType>
<respName>"Unicodify" software by Andrew Hardie</respName>
</respStmt>
</titleStmt>
<publicationStmt>
<distributor>UCREL</distributor>
<pubAddress>Department of Linguistics, Lancaster University, Lancaster, LA1 4YT, UK</pubAddress>
<availability region="WORLD"></availability>
<pubDate>03-08-24</pubDate>
</publicationStmt>
<sourceDesc>
<biblStruct>
<monogr>
<h.title>"Dinakaran" internet news (www.dinakaran.com), news stories collected on 01-07-10</h.title>
<h.author>Dinakaran</h.author>
<imprint>
<pubPlace>Tamil Nadu, India</pubPlace>
<publisher>Dinakaran</publisher>
<pubDate>01-07-10</pubDate>
</imprint>
</monogr>
</biblStruct>
</sourceDesc>
</fileDesc>
<encodingDesc>
<projectDesc>Text collected for use in the EMILLE project.</projectDesc>
<samplingDesc>Simple written text only has been transcribed. Diagrams, pictures and tables have been omitted and their place marked with a gap element.
</samplingDesc>
<editorialDecl>
<conformance level="1"></conformance>
</editorialDecl>
</encodingDesc>
<profileDesc>
<creation>
<date>03-08-24</date>
</creation>
<langUsage>Tamil</langUsage>
<wsdUsage>
<writingSystem id="ISO/IEC 10646">Universal Multiple-Octet Coded Character Set (UCS).</writingSystem>
</wsdUsage>
<textClass>
<channel mode="w">print</channel>
<constitution type="composite"></constitution>
<domain type="public"></domain>
<factuality type="fact"></factuality>
</textClass>
<translations></translations>
</profileDesc>
<revisionDesc></revisionDesc>
</cesHeader>

<text>
<body>




<p>எந்த படத்திலும் இல்லாத
அளவுக்கு, 'ஆளவந்தான்' திரைப்படத்தில் மிகவும் கஷ்டப்பட்டு நடித்தேன், கமல் பேட்டி</p>

<p>
 
 
  
  
  
  
  
  
  
  
  
  
  
  
 
 
 

 
<gap desc="illustration"></gap></p>

<p>கமலஹாசன்</p>

<p>புதுடெல்லி, ஜூலை 10- எந்த படத்திலும் இல்லாத அளவுக்கு
ஆளவந்தான் படத்தில் கஷ்டப்பட்டு நடித்ததாக கமல் கூறியுள்ளார். </p>

<p>பிரபல நடிகர் கமல்ஹாசன் இந்துஸ்தான் டைம்ஸ் நாளிதழுக்கு அளித்த பேட்டியில்
கூறியிருப்பதாவது:- </p>

<p>ஆளவந்தான் படமும், அதன் இந்தி பதிப்பான அபய் திரைப்படமும் எனக்கு மிகவும்
திருப்தி அளித்துள்ளன. ஆள வந்தான் படத்தை என்னுடைய வெற்றிப்படங்களுடன் ஒப்பிட்டு கருத்து
கூற இன்னும் சில மாதம் நீங்கள் பொறுத்திருக்க வேண்டும். </p>

<p>சிரமப்பட்டு </p>

<p>இதுவரை எந்த படத்திலும் இல்லாத அளவுக்கு உடல்ரீதியாக சிரமப்பட்டு ஆளவந்தான்
படத்தில் நடித்திருக்கிறேன். </p>

<p>அபய் எனது 201-வது படம். ஏற்கனவே 200 படங்கள் நடித்து விட்டதால் சலிப்பு
உணர்வு ஏற்பட்டிருக்கிறதா? வயதான உணர்வு உள்ளதா? என்று சிலர் கேட்கிறார்கள்.
படித்தது போதும் என்ற நினைப்பு ஒரு வருக்கு வந்து விட்டால் அத்து டன் அவர் மந்தமாகி
விடுவார். நான் கடைசி வரை கற்றுக் கொள்ள வேண்டும் என்று நினைப்பவன் </p>

<p>இந்திப்படம் </p>

<p>அபய் திரைப்படத்துக்கு பிறகு இந்தித்திரைப்படங்களில் நான் நடிக்க இருக்கிறேன்.
இந்தி படத்தில் வேலை செய்வதை கமல் ஏன் விரும்புகிறார்? என்று தென்னிந்திய
பத்திரிகைகள் கடந்த 20 வருடமாக கேட்டு வருகின்றன. அவர்களுக்கு நான் தயார் பதில் ஒன்றை
வைத்திருக்கிறேன். எனக்கு கைதட்டல் பிடிக்கும். இந்தி சினிமா உலகம் எனக்கு இன்னும்
வெகுதொலைவுக்கு பார்க்கும் சிறப்பு பார்வையை தருகிறது. </p>

<p>சரிகா விபத்து </p>

<p>என் மனைவி சரிகா மாடியில் இருந்து கீழே விழுந்ததில் இருந்து சில பாடங்களை நான்
கற்றுக்கொண்டிருக்கிறேன். டார்வின் தத்துவம் (புவியீர்ப்பு தத்துவம்) சரியானது என்பது
அந்த பாடங்களில் ஒன்று. வாழத்தகுந்த உயிர் வாழ்க்கைப் போராட்டத்தில் ஜெயிக்கும்
என்பது மற்றொரு பாடம். </p>

<p>இவ்வாறு அவர் கூறியுள்ளார். </p>

<p>பிரசாந்த் சாக்லெட் பட
பாடல் வௌியீட்டில் புதுமை: ஒவ்வொரு கேசட்டிலும் 5 ஸ்டார் சாக்லெட்-ரூ.1000 மதிப்புள்ள
கூப்பன் இலவசம், தயாரிப்பாளர் மாதேஷ் பேட்டி</p>

<p> </p>

<p>சென்னை, ஜூலை 10- பிரசாந்த் நடிக்கும் சாக்லெட் பட பாடல்
கேசட்டின் ஒவ்வொரு பாக்கெட்டிலும் 5 ஸ்டார் சாக்லெட்டும், 1000 ரூபாய் மதிப்புள்ள
கூப்பனும் இலவசமாக தரப்படுகிறது என்று பட தயாரிப்பாளர் ஆர்.மாதேஷ் கூறினார். </p><p>
</p><p>
மூவி மேஜிக் பட நிறுவனம் சார்பில் ஆர்.மாதேஷ் தயாரிக்கும் புதிய படம் சாக்லெட். இதில்
பிரசாந்த் கதாநாயகனாக நடிக்க அவருக்கு ஜோடியாக ஜெயாரே நடிக்கிறார். கவிஞர் வாலி
பாடல்கள் எழுத தேவா இசை அமைக்கிறார். </p><p>
</p><p>
இப்படத்தின் பாடல் கேசட் வௌியிடப்பட்டுள்ளது. இதில் பைவ் ஸ்டார் சாக்லெட் ஒன்றும்,
1000 ரூபாய் மதிப்புள்ள இலவச கூப்பனும் தரப்படுகிறது. இது பற்றி தயாரிப்பாளர் ஆர்.மாதேஷ்
கூறியதாவது:- </p><p>
</p><p>
45 ரூபாய் மதிப்புள்ள சாக்லெட் பட பாடல் கேசட்டில் பைவ் ஸ்டார் சாக்லெட்டும், ஆயிரம்
ரூபாய் மதிப்புள்ள இலவச கூப்பனும் எப்படி உங்களால் தர முடிகிறது என்று கேசட்டை
வாங்கியவர்கள் வியந்து கேட்ட வண்ணம் உள்ளனர். லாபநோக்கில்லாமல் இதெல்லாமே படத்தின்
விளம்பரத்திற்காக கையாளப்படும் யுக்திதான். அந்த விளம்பரம் இனிப்பாக இருக்க வேண்டும்
என்பதற்காக ஒவ்வொரு பாடல் கேசட் பாக்கெட் வாங்கும்போதும் அதில் 6 ரூபாய் மதிப்புள்ள
பைவ் ஸ்டார் சாக்லெட் வைக்கப்பட்டு உள்ளது. </p><p>
</p><p>
இலவச கூப்பன் </p><p>
</p><p>
அதேபோல் கிஷ்கிந்தாவில் சென்று ஜாலியாக பொழுதை கழிக்க தலா 290 ரூபாய் மதிப்புள்ள
இரண்டு கூப்பன்களும், சவுபாக்யா வெட் கிரைண்டர் வாங்கினால் அதன் விற்பனை விலையில் 8
சதவீதம் தள்ளுபடியும், வெட் கிரைண்டர் சர்வீஸ் செய்தால் அதற்கு சர்வீஸ் கட்டணத்தில்
20 சதவீதம் தள்ளுபடியும் வழங்கப்படுகிறது. இதுதவிர பெண் களுக்காக எஸ்.எம்.சில்க்ஸ்
ஜவுளியில் என்ன வாங்கினாலும் அதற்கு விற்பனை விலையில் 3 சதவீதம் தள்ளுபடியும்
பெறுவதற்கான கூப்பன் என மொத்தம் ஆயிரம் மதிப்புள்ள இலவச கூப்பன்கள் சாக்லெட்
கேசட்டில் இணைக் கப்பட்டிருக்கிறது. </p><p>
</p><p>
விற்பனையில் சாதனை </p><p>
</p><p>
இந்த கேசட் வௌியான 3 நாள்களில் ஒன்றரை லட்சம் கேசட் விற்று சாதனை படைத்து உள்ளது.
மொத்தம் 10 லட்சம் கேசட் விற்கும் என்று எதிர் பார்க்கப்படுகிறது. இத்தனை சலுகைகளும் 45
ரூபாய் மதிப்புள்ள சாக்லெட் கேசட் வாங்கு பவர் ஒவ்வொருவரும் பெற முடியும். </p><p>
</p><p>
102 வருட உலக சினிமா சரித்திரத்தில், 80 வருட இந்திய சினிமா வரலாற்றில், 70 வருட
தமிழ் சினிமா காலங்களில் இதுவொரு புதுமை புரட்சி எனலாம். </p><p>
</p><p>
பாடகர்-பாடகி </p><p>
</p><p>
இப்படத்தில் இடம் பெற்றுள்ள 6 பாடல்களை ஹரிஹரன், சங்கர் மகாதேவன், தேவன், சபேஷ்
முரளி, அனு ராதா ராம், ஏ.ஆர்.ரகுமான் சகோதரி ரைஹனா, மகா லட்சுமி அய்யர், அனுபமா,
மாதங்கி ஆகியோர் பாடி உள்ளனர். </p><p>
</p><p>
இரண்்டு பாடல் காட்சிகள் வியட்நாம், டோக்கி யோ ஆகிய நாடுகளில் படமாகிறது. </p><p>
</p><p>
இவ்வாறு அவர் கூறினார். </p><p>
</p><p>
எடைக்கு எடை </p><p>
</p><p>
சமீபத்தில் நடந்த பிரசாந்த் பிறந்த நாள் விழாவில் அவருக்கு தயாரிப்பாளர் ஆர்.மாதேஷ்
எடைக்கு எடை சாக்லெட் கொடுத்தார் என்பது குறிப்பிடத்தக்கது. </p>

<p> </p>

<p>'கோடீஸ்வரன்'
நிகழ்ச்சிக்கு தடையா? அரசு விளக்கம்</p>

<p> </p>

<p>சென்னை, ஜூலை 10- கோடீஸ்வரன் நிகழ்ச்சி அரசு முடிவால் முடிகின்றதா
என்பதற்கு அரசு தரப்பில் விளக்கம் அளிக்கப்பட்டுள்ளது. </p><p>
</p><p>
செய்தி மக்கள் தொடர்புத் துறை இயக்குனர் நேற்று வௌியிட்டுள்ள அறிக்கையில் கூறி
இருப்பதாவது:- </p><p>
</p><p>
8.7.2001 அன்று தமிழ் நாளிதழில் வௌிவந்த சன் டி.வியில் கோடீஸ்வரன் நிகழ்ச்சி அரசு
முடிவால் அற்ப ஆயுளில் முடிந்துள்ளது என்ற செய்தி உண்மைக்கு புறம்பானதாகும். </p><p>
</p><p>
ஆறு மாதம் அனுமதி </p><p>
</p><p>
ராடன் பிக்சர் பிரைவேட் லிமிடெட் நிறுவனத்தின் கோடீஸ்வரன் நிகழ்ச்சி ஒளிப் பதிவு
சென்னை எம்.ஜி.ஆர். திரைப்பட நகரில் உள்ள குளிர் சாதன வசதி கொண்ட படப் பிடிப்பு
தளத்தில் கடந்த 25.9.2000 முதல் நடத்தப்பட்டது. இந்நிகழ்ச்சி ஒளிப்பதிவு செய்ய அனுமதி
ஆறு மாத காலத்திற்கு வழங்கப்பட்டு 25.3.2001 அன்று முடிவுக்கு வந்தது. ஆயினும் கூட
கோடீஸ்வரன் படப்பிடிப்பு நிகழ்ச்சிகள் தொடர்ந்து நடை பெற்று வந்தன. காலவரை நீட்டிப்பு
கேட்கும் கடிதம்கூட ராடன் டி.வி.நிறுவனத்திடமிருந்தும் வரவில்லை. </p><p>
</p><p>
கடிதம் </p><p>
</p><p>
ராடன் பிக்சர் நிறு வனத்தின் நிர்வாக இயக்குனர் எம்.ஆர்.மோகன் ராதா தனது 23.5.2001
தேதியிட்ட கடிதத்தில் தற்போதுள்ள எஞ்சிய பணிகளை சுட்டிக்காட்டி படப் பிடிப்பு
10.6.2001 தேதி வரை தொடர்ந்து நடக்கும் என்றும், அதன்பிறகு தாங்கள் படப் பிடிப்பு
நிகழ்ச்சியை முடித்துக் கொள்வதாகவும் கடிதம் ஒன்றை தமிழ்நாடு திரைப்பட வளர்ச்சிக் கழக
நிர்வாக இயக் குனருக்கு கொடுத்தார்கள். </p><p>
</p><p>
ராடன் பிக்சர் நிர்வாக இயக்குனர் கடிதத்தில் குறிப்பிட்ட வாறு 10.6.2001 தேதியில் படப்
பிடிப்பை முடித்துக்கொள்ளுமாறு தமிழ்நாடு திரைப்பட வளர்ச்சிக் கழகத்தினர் அறிவுறுத்தினர்.
அதற்கு பிறகும் கூட ராடன் பிக்சர் நிறுவனத்தினர் அவர்களாகவே அரங் கினை
பிரித்தெடுத்துக்கொள்ள 19.6.2001 தேதிவரை அனுமதிக் கப்பட்டனர். </p><p>
</p><p>
உத்தரவு </p><p>
</p><p>
கோடீஸ்வரன் அரங்கை பிரிக்கும்படி தமிழக அரசு எந்த உத்தரவையும் செய்தியில்
குறிப்பிட்டுள்ளபடி பிறப்பிக்க வில்லை என்று தெரிவிக்கப்படு கின்றது. </p><p>
</p><p>
இவ்வாறு அதில் கூறப்பட்டு உள்ளது. </p>

<p> </p>

<p>சரத்குமார் வீட்டில்
அ.தி.மு.க. தாக்குதல்: ஆர்ப்பாட்டம் நடத்த சரத் மன்றம் முடிவு</p>

<p> </p>

<p>சென்னை, ஜூலை 10- சரத்குமார் வீட்டில் நடந்த தாக்குதல்
சம்பவத்தை கண்டித்து ஆர்ப்பாட்டம்- கண்டனக் கூட்டம் நடத்துவது என்று சரத்குமார் ரசிகர்
மன்ற கூட்டத்தில் முடிவு செய்யப்பட்டுள்ளது. </p><p>
</p><p>
தி.மு.க. தலைவர் கருணா நிதி கடந்த மாதம் 29-ந்தேதி நள்ளிரவில் போலீசாரால் அராஜகமாக
கைது செய்யப்பட்ட சம்பவத்துக்கு சுப்ரீம் ஸ்டார் சரத்குமார், அவரது மனைவி ராதிகா
ஆகியோர் சன் டி.வி.யில் தோன்றி தமிழக அரசுக்கு கடும் கண்டனம் தெரிவித்தனர். இதைத்
தொடர்ந்து சென்னை திரு வான்மியூர் அடுத்த கொட்டி வாக்கத்தில் உள்ள சரத்குமாரின்
வீட்டில் அ.தி.மு.க.வை சேர்ந்தவர்கள் கற்களை வீசி தாக்கியுள்ளனர். </p><p>
</p><p>
கூட்டம் </p><p>
</p><p>
இந்த சம்பவத்தை கண் டித்து வேளச்சேரி சரத்குமார் ரசிகர்கள் பகுதி மன்றத்தின் கூட்டம்
மன்ற அலுவலகத்தில் நடந்தது. கூட்டத்துக்கு சரத் பி.எல்.செல்வம் தலைமை தாங்கினார்.
எஸ்.எம்.செல்வம், எஸ்.தேவா, எஸ்.எஸ்.பாலாஜி ஆகியோர் முன்னிலை வகித்தனர்.
என்.தாமோதரன், எஸ்.சர வணன், கே.சுப்பிரமணி, அன்பு, ஆர்.குணசேகரன்,
எம்.கார்த்திகேயன், ஆர்.உதய குமார், எம்.பிரபா மற்றும் நிர் வாகிகள் கலந்துகொண்டனர்.
</p><p>
</p><p>
கூட்டத்தில் நிறைவேற்றப் பட்ட தீர்மானங்கள் வருமாறு:- </p><p>
</p><p>
பாதுகாப்பு </p><p>
</p><p>
*சரத்குமார், அவரது மனைவி-குழந்தைகள் உயிருக்கு பாதுகாப்பு தரப்பட வேண்டும். </p><p>
</p><p>
*சரத்குமார் வீட்டுக்கு 24 மணிநேரமும் போலீஸ் பாதுகாப்பு வழங்கவேண்டும். </p><p>
</p><p>
*இம்மாதிரியான கொலை வெறித்தாக்குதல் தொடருமேயானால் மன்றத்தின் சார்பில் கண்டன
ஆர்ப்பாட்டம் மற்றும் கண்டன பொதுக்கூட்டம் நடத்துவதென முடிவு செய்யப் பட்டது. </p><p>
</p><p>
முடிவில் எஸ்.இனியன் நன்றி கூறினார். </p><p>
</p><p>
அகில இந்திய சரத் நற்பணி மன்ற செயலாளர் தமிழ்விநாய கத்துக்கு தீர்மான நகல் அனுப்பி
வைக்கப்பட்டது. </p>

<p> </p>

<p>நடிகர் சிவகுமாருக்கு பாராட்டு
விழா</p>

<p> </p>

<p>சென்னை, ஜூலை 7- கிராமப்புறங்களில் இருந்து சென்னைக்கு வரும்
பெண்கள் தங்கி வேலை செய்ய வசதியாக கொங்கு நண்பர்கள் சங்கம் சார்பில்
ராயப்பேட்டையில் பணி மகளிர் விடுதி ஒன்றை ரூ.35 லட்சம் செலவில் கட்ட முடிவு
செய்யப்பட்டது. விடுதிக்கு நிதி திரட்டுவதற்காக நடிகர் சிவகுமாருக்கு பாராட்டு விழா கொங்கு
நண்பர்கள் சங்கம் சார்பில் தேனாம் பேட்டை காமராஜர் அரங்கத்தில் நடந்தது. விழாவில்
நடிகை ரம்யா கிருஷ்ணன், நடிகர்கள் செந்தில், விஜய கிருஷ்ணராஜ், டிங்கு, நடிகைகள்
சத்யப்பிரியா, சோனியா உள்பட பலர் கலந்து கொண்டனர். விழாவில் நடிகர் சிவகுமாருக்கு
காஸ்மோ பாலிடன் கிளப் தலைவரும், வக்கீலுமான ஆர்.காந்தி பொன்னாடை போர்த்தி நினை
வுப்பரிசு வழங்கினார். </p><p>
</p><p>
விழாவுக்கு வந்தவர்களை கொங்கு நண்பர்கள் சங்கத் தலைவர் காளியண்ணன், செய லாளர்
ஈஸ்வரன், மோகன், நெல்லை சுந்தர்ராஜன் ஆகியோர் வரவேற்றனர். </p>

<p> </p>






</body></text></cesDoc>