<cesDoc id="tam-w-dinakaran-cinema-01-01-14" lang="tam">
<cesHeader type="text">
<fileDesc>
<titleStmt>
<h.title>tam-w-dinakaran-cinema-01-01-14.txt</h.title>
<respStmt>
<respType>Electronic file created by</respType>
<respName>Department of Linguistics, Lancaster University</respName>
<respType>text collected by</respType>
<respName>Paul Baker and Celia Worth</respName>
<respType>transferred into Unicode by</respType>
<respName>"Unicodify" software by Andrew Hardie</respName>
</respStmt>
</titleStmt>
<publicationStmt>
<distributor>UCREL</distributor>
<pubAddress>Department of Linguistics, Lancaster University, Lancaster, LA1 4YT, UK</pubAddress>
<availability region="WORLD"></availability>
<pubDate>03-08-24</pubDate>
</publicationStmt>
<sourceDesc>
<biblStruct>
<monogr>
<h.title>"Dinakaran" internet news (www.dinakaran.com), news stories collected on 01-01-14</h.title>
<h.author>Dinakaran</h.author>
<imprint>
<pubPlace>Tamil Nadu, India</pubPlace>
<publisher>Dinakaran</publisher>
<pubDate>01-01-14</pubDate>
</imprint>
</monogr>
</biblStruct>
</sourceDesc>
</fileDesc>
<encodingDesc>
<projectDesc>Text collected for use in the EMILLE project.</projectDesc>
<samplingDesc>Simple written text only has been transcribed. Diagrams, pictures and tables have been omitted and their place marked with a gap element.
</samplingDesc>
<editorialDecl>
<conformance level="1"></conformance>
</editorialDecl>
</encodingDesc>
<profileDesc>
<creation>
<date>03-08-24</date>
</creation>
<langUsage>Tamil</langUsage>
<wsdUsage>
<writingSystem id="ISO/IEC 10646">Universal Multiple-Octet Coded Character Set (UCS).</writingSystem>
</wsdUsage>
<textClass>
<channel mode="w">print</channel>
<constitution type="composite"></constitution>
<domain type="public"></domain>
<factuality type="fact"></factuality>
</textClass>
<translations></translations>
</profileDesc>
<revisionDesc></revisionDesc>
</cesHeader>

<text>
<body>




<p>ரசிகர்களுக்கு 6 சினிமா
படங்கள் பொங்கல் விருந்து: விஜயகாந்த் -சத்யராஜ் -விஜய் -அஜீத் -ரோஜா நடித்தவை</p>

<p> </p>

<p>சென்னை, ஜன. 14- இனிப்பான பொங்கல் தினத்தில் ரசிகர்களுக்கு
விருந்தாக முன்னணி நடிகர்- நடிகை கள் நடித்த 6 படங்கள் திரைக்கு வருகின்றன. </p><p>
</p><p>
விஜயகாந்த் </p><p>
</p><p>
போலீஸ் உயர் அதிகாரியாக கம்பீரமான கதாபாத்திரத்தில் விஜயகாந்த் நடிக்கும் படம்
வாஞ்சிநாதன். </p><p>
</p><p>
சாக்ஷி, ரம்யாகிருஷ்ணன் கதாநாயகிகளாக நடித்திருக்கின்றனர். </p><p>
</p><p>
மலையாளத்தில் அதிரடி ஆக்ஷன் படங்களை வழங்கிய பிரபல இயக்குனர் ஷாஜி கைலாஷ் முதன்முறையாக
இயக்கும் இப்படத்தை எஸ்.சரவணன் ஒளிப்பதிவு செய்திருக்கிறார். நறுக்கு தெறிக்கும்
வசனங்களை லியாகத்அலிகான் எழுதி உள்ளார். கார்த்திக்ராஜா இசை அமைத்திருக்கிறார்.
ரோஜா கம்பைன்ஸ் சார்பில் எம்.காஜா மைதீன் தயாரித்துள்ளார். </p><p>
</p><p>
விஜய் </p><p>
</p><p>
விஜய்-சூர்யா உயிர் தோழர்களாக இணைந்து நடித்திருக் கும் படம் ப்ரண்ட். அவர் களுக்கு
ஜோடியாக தேவயானி, புதுமுகம் விஜயலட்சுமி நடித்தி ருக்கின்றனர். </p><p>
</p><p>
மலையாள வெற்றி பட இயக்குனர் சித்திக் டைரக்டு செய்ய ஆனந்தகுட்டன் ஒளிப்பதிவு
செய்திருக்கிறார். இளையராஜா இசை அமைத்திருக்கிறார். ஸ்வர்க்க சித்ரா சார்பில்
அப்பச்சன் தயாரித்துள்ளார். </p><p>
</p><p>
அஜீத் </p><p>
</p><p>
அதிரடி நாயகனாக வித்தியாசமான கதாபாத்திரத்தில் அஜீத்குமார் நடித்திருக்கும் படம் தீனா. </p><p>
</p><p>
முதன்முறையாக மலையாள நடிகர் சுரேஷ்கோபி முக்கிய வேடத்தில் நடிக்கிறார். கதா நாயகியாக
லைலா, கவர்ச்சி பாடல் காட்சியில் நக்மா நடிக்கின்றனர். </p><p>
</p><p>
விஜயம் சினி கம்பைன்ஸ் சார்பில் கார்த்திகேயன்.பி. தயாரித்துள்ளார். ஏ.ஆர். முருகதாஸ்
டைரக்டு செய்கிறார். யுவன் சங்கர்ராஜா இசை அமைக்கிறார். </p><p>
</p><p>
சத்யராஜ் </p><p>
</p><p>
வித்தியாசமான மூன்று கதாபாத்திரத்தில் சத்யராஜ் நடித்திருக்கும் படம் லூட்டி. </p><p>
</p><p>
கதாநாயகியாக ரோஜா நடித்திருக்கிறார். கவர்ச்சி கதா பாத்திரத்தில் மும்தாஜ்
தோன்றுகிறார். எம்.ஜி.ஆருடன் சத்யராஜ் தோன்றும் அட்ட காசமான கிராபிக்ஸ் காட்சியும்
படத்தில் உண்டு. </p><p>
</p><p>
எவர்கிரீன் மூவி இண்டர் நேஷனல் சார்பில் வி.ஏ.துரை தயாரித்திருக்கும் இப்படத்தை
பரமேஷ்வர் டைரக்டு செய்துள்ளார். பி.கண்ணன் ஒளிப் பதிவு செய்திருக்கிறார். தேவா இசை
அமைக்கிறார். </p><p>
</p><p>
வெங்கடேஷ் </p><p>
</p><p>
ஒருபுதுமையான கிராபிக்ஸ் பின்னணியுடன் உருவாக்கப் பட்டுள்ள படம் பாப்பா. தமிழில் முதன்
முறையாக வெங்கடேஷ் கதாநாயகனாக இரட்டை வேடத்தில் நடிக்கிறார். கதாநாயகியாக
சவுந்தர்யா, அஞ்சலா, சவேரி நடித்திருக் கின்றனர். </p><p>
</p><p>
சூப்பர் குட் பிலிம்ஸ் சார்பில் ஆர்.பி.சவுத்ரி தயாரித்திருக்கின் றார். கோடி
ராமகிருஷ்ணா டைரக்டு செய்ய எஸ்.கோபால் ரெட்டி ஒளிப்பதிவு செய்திருக்கிறார். </p><p>
</p><p>
ரம்யாகிருஷ்ணன் </p><p>
</p><p>
சதம் அடித்த இயக்குனர் ராம நாராயணன்இயக்கத்தில் முழுக்க முழுக்க கிராபிக்ஸ் காட்சிகளுடன்
உருவாகியுள்ள படம் நாகேஸ்வரி. நூற்றுக் கணக்கான பாம்புகள் ஒரே நேரத்தில் பாய்ந்து
வரும்காட்சி, வாமுனி சாமி நடந்துவரும் காட்சி என பிரமாண்டமான கிராபிக்ஸ் காட்சிகள்
இடம்பெற்றுள்ளன. </p><p>
</p><p>
என்.கே.விஸ்வநாதன் ஒளிப் பதிவு செய்திருக்கிறார் எஸ்.ஏ. ராஜ்குமார் இசை
அமைத்திருக்கிறார். </p><p>
</p><p>
நாகேஸ்வரியாக புதுமையான வேடத்தில் ரம்யா கிருஷ்ணன் நடித்திருக்கிறார். </p>

<p> </p>

<p>முதியோர்-குழந்தைகள்
காப்பகத்திற்கு ரூ.2 லட்சம் பொருட்கள் உதவி -நடிகர் பார்த்திபன் வழங்கினார்</p>

<p> </p>

<p>சென்னை, ஜன. 14- வித்தியாசமானவர் என்று பாராட்டப்படும் நடிகர்
பார்த்திபன் தனக்கென உருவாகிய ரசிகர் மன்றங்களை மனித நேய மன்றங்களாக மாற்றி அமைத்து
அதன் மூலம் சமூக சேவைகள் செய்து வருகிறார். </p><p>
</p><p>
பொங்கல் திருநாளை முன்னிட்டு நேற்று சென்னை கே.கே.நகர் பகுதியில் உள்ள தனது அலுவலகத்தில்
பார்த்திபன் எளிமையான விழா ஒன்றை நடத்தினார். ஆந்திர மகிள சபா, வசந்தம்,
சமர்ப்பணா, ஆஷா நிகேதன், பால விஹார், சைல்ட் ஹெவன் இண்டர்நேஷனல், யுனிவர்சல்
வெல்பேர் பவுண்டேஷன், சீடு ஆகிய இல்லங்களை சேர்ந்த நிர்வாகிகள் இதில் கலந்து
கொண்டனர். அவர்களுக்கு முறையே பெடஸ்டல் மின்விசிறிகள், குளிர்சாதனப்பெட்டிகள், காஸ்
சிலிண்டர்கள், அடுப்புகள், மேசை, நாற்காலிகள், சமையல் பாத்திரங்கள் ஆகிய
உதவிப்பொருட்களை பார்த்திபன் வழங்கினார். </p><p>
</p><p>
மேலும் தீ விபத்துக்குள்ளான சேவா சக்ரா இல்லத்தின் சீரமைப்பு பணிக்கு ரூ.10 ஆயிரம்,
உணவுக்குழல் பாதிப்பால் உண்ண முடியாமல், பேச முடியாமல் தவித்த அம்பாசமுத்திரத்தை சேர்ந்த
சிறுவன் மகாலிங்கத்தின் மருத்துவச் செலவுக்கு ரூ.15 ஆயிரமும் வழங்கப்பட்டன. மனித நேய
மன்ற அலுவலகத்தை தனிப்பட்ட முறையில் அணுகியவர்களுக்கு அவசர, அவசிய அடிப்படையில் மருத்துவ
வசதிக் காகவும், தொழில்் தொடங்கவும், வேலை வாய்ப்பு உதவியாகவும் இரண்டு லட்சம்
ரூபாய் மதிப்புள்ள உதவிகள் வழங்கப்பட்டிருக்கின்றன. </p><p>
</p><p>
பேட்டி </p><p>
</p><p>
பின்னர் பார்த்திபன் தினகரன் நிருபருக்கு பேட்டி அளித்தார். அதுவருமாறு:- </p><p>
</p><p>
கேள்வி:- ஆம்புலன்ஸ் வேன் ஒன்றை மனிதநேய மன்றம் மூலம் வழங்கி இருக் கிறீர்களே?
மொத்தம் எத்தனை ஆம்புலன்ஸ் இதுபோல் வழங்க இருக்கிறீர்கள்? </p><p>
</p><p>
பதில்:- தற்போது சென்னையில் ஒரு ஆம்புலன்ஸ் மனித நேய மன்றம் மூலம் வழங்கி உள்ளேன்.
அவசர உதவிக்கு தொலைபேசியில் அழைத்தால் இலவசமாக அவர்களுக்கு ஆம்புலன்ஸ் உதவி
கிடைக்கும். என்னிடம் இரண்டு கார்கள் உள்ளன. இரண்டு கார்களையும் என்னால் பயன்படுத்த
முடியாத அளவுக்கு எனக்கு கார் தந்தவர் ஒரு பிரச்சினை செய்து விட்டார். இதனால் நான்
அதற்கான தவணைப் பணம் கட்டு வதை நிறுத்தி வைத்திருக்கிறேன். ஆனால் ஆம்புலன்சுக்கு முறையாக
தவணை பணம் கட்டிவிடுகிறேன். </p><p>
</p><p>
பெரிய பணக்காரன் </p><p>
</p><p>
தமிழ்நாட்டில் உள்ள எல்லா மாவட்டத்திற்கும் இது போல் ஒரு ஆம்புலன்ஸ் வாங்கி தரவேண்டும்
என்பது எனது எண்ணம். இப்போதெல்லாம் நான் ரொம்ப பெரிய பணக் காரன் ஆகிவிட்டதுபோல் ஒரு
உணர்வு. இதுபோல் உதவிகள் செய்யச் செய்ய அந்த எண்ணம் அதிகமாகிக்கொண்டே போகிறது. </p><p>
</p><p>
இன்னொரு விஷயம் நான் இப்படி உதவி செய்வதை பத்திரிகையில் பார்த்தவுடன் நேரடியாக பலர்
வந்து உதவி கேட்கிறார்கள். என்னிடம் பணம் வரும்போது நான் அவர்களுக்கு அந்த உதவிகளை
செய்கிறேன். மற்ற நேரத்தில் தான் அதுபோல் உதவி செய்ய முடியாமல் போகிறது. </p><p>
</p><p>
வாஜ்பாய் பற்றி </p><p>
</p><p>
கேள்வி:- சமுதாய சேவை செய்யும் சின்னப்பிள்ளை காலில் பிரதமர் வாஜ்பாய் விழுந்தது
பற்றி என்ன நினைக்கிறீர்கள்? </p><p>
</p><p>
பதில்:- சின்னப்பிள்ளை காலில் பிரதமர் வாஜ்பாய் விழுந்தது பற்றி இரண்டு கருத் துக்கள்
கூறுபவர்கள் உண்டு. என்னைப் பொறுத்தவரை வாஜ்பாய் ஒரு கவிஞர். கவிஞர்கள்
எப்போதுமே உணர்ச்சிவசப்படுபவர்கள். எதையும் அவர்கள் மனதில் மறைத்து வைக்க
மாட்டார்கள். ஒருவேளை சின்னபுள்ள எதிரில் நான் நின்றிருந்தால் கூட வாஜ்பாய்
செய்ததைத்தான் செய்திருப்பேன். அதற்கு காரணம் நானும் ஒரு கவிஞன். </p><p>
</p><p>
16-ந் தேதி சந்திப்பு </p><p>
</p><p>
வருகிற 16-ந் தேதி சின்னப்புள்ளை சென்னையில் என்னை சந்திக்கிறார். </p><p>
</p><p>
இவ்வாறு அவர் கூறினார். </p><p>
</p><p>
முன்னதாக நடந்த விழாவில் சங்கர் மகாதேவன், சந்தானம், மனிதநேய மன்ற ஆலோசகர் கண்ணன்,
பொறுப்பாளர் செந்தமிழ்ச் செல்வன், பத்திரிகை தொடர்பாளர் ஜான்சன் மற்றும் மன்ற
உறுப்பினர்கள் கலந்து கொண்டனர். </p>

<p> </p>






</body></text></cesDoc>