<cesDoc id="tam-w-dinakaran-cinema-01-01-30" lang="tam">
<cesHeader type="text">
<fileDesc>
<titleStmt>
<h.title>tam-w-dinakaran-cinema-01-01-30.txt</h.title>
<respStmt>
<respType>Electronic file created by</respType>
<respName>Department of Linguistics, Lancaster University</respName>
<respType>text collected by</respType>
<respName>Paul Baker and Celia Worth</respName>
<respType>transferred into Unicode by</respType>
<respName>"Unicodify" software by Andrew Hardie</respName>
</respStmt>
</titleStmt>
<publicationStmt>
<distributor>UCREL</distributor>
<pubAddress>Department of Linguistics, Lancaster University, Lancaster, LA1 4YT, UK</pubAddress>
<availability region="WORLD"></availability>
<pubDate>03-08-24</pubDate>
</publicationStmt>
<sourceDesc>
<biblStruct>
<monogr>
<h.title>"Dinakaran" internet news (www.dinakaran.com), news stories collected on 01-01-30</h.title>
<h.author>Dinakaran</h.author>
<imprint>
<pubPlace>Tamil Nadu, India</pubPlace>
<publisher>Dinakaran</publisher>
<pubDate>01-01-30</pubDate>
</imprint>
</monogr>
</biblStruct>
</sourceDesc>
</fileDesc>
<encodingDesc>
<projectDesc>Text collected for use in the EMILLE project.</projectDesc>
<samplingDesc>Simple written text only has been transcribed. Diagrams, pictures and tables have been omitted and their place marked with a gap element.
</samplingDesc>
<editorialDecl>
<conformance level="1"></conformance>
</editorialDecl>
</encodingDesc>
<profileDesc>
<creation>
<date>03-08-24</date>
</creation>
<langUsage>Tamil</langUsage>
<wsdUsage>
<writingSystem id="ISO/IEC 10646">Universal Multiple-Octet Coded Character Set (UCS).</writingSystem>
</wsdUsage>
<textClass>
<channel mode="w">print</channel>
<constitution type="composite"></constitution>
<domain type="public"></domain>
<factuality type="fact"></factuality>
</textClass>
<translations></translations>
</profileDesc>
<revisionDesc></revisionDesc>
</cesHeader>

<text>
<body>




<p>குஜராத் மக்களுக்கு வழங்க
துணிமணிகள் திரட்டுங்கள், ரசிகர்களுக்கு சரத்குமார் வேண்டுகோள்</p>

<p> </p>

<p>சென்னை, ஜன. 30- நடிகர் சரத்குமார் நேற்று ஒரு அறிக்கை
வௌியிட்டார். அதில் அவர் கூறி இருப்பதாவது:- </p><p>
</p><p>
பூமி அதிர்ச்சியால் லட்சக் கணக்கான குஜராத் மக்கள் மண்ணில் புதையுண்ட கோர
நிகழ்ச்சி உலக மக்களையே அதிர்ச்சிக்குள்ளாக்கியது. </p><p>
</p><p>
அமைதி வழிப்பாதை தந்த அண்ணல் காந்தி பிறந்த மாநிலத்தில் எங்கும் மரண ஓலம். நினைக்க
நினைக்க மனம் அமைதியின்றி துடிக்கிறது. </p><p>
</p><p>
இந்திய வரலாற்றில் அதிக பாதிப்பை ஏற்படுத்தியுள்ள மிகப்பெரிய நில நடுக்கத்தில்
குஜராத் மாநிலம் சிக்கியுள்ளது. </p><p>
</p><p>
பரந்த மனம் </p><p>
</p><p>
இயற்கையின் சீற்றத்தை எதிர்கொள்ளும் வலிமை மனி தனுக்கு இல்லையென்றாலும் அதனால்
பாதிக்கப்பட்ட மக் களுக்கு உதவும் சக்தியும் பரந்த மனப்பான்மையும் நமது தமிழக
மக்களுக்கு உண்டு என்பதை பலமுறை நிரூபித் திருக்கிறோம். </p><p>
</p><p>
இடிபாடுகளை அகற்றும் பணிக்குப் பொறியாளர்களும், இயன்ற மருத்துவ உதவி செய் திட மருத்துவ
மேதைகளும், பணியாளர்களும், துடிப்பு மிக்க கல்லூரி மாணவர்களும், பல்வேறு துறைகளில் பணி
யாற்றும் இளைஞர்களும் சம்பவ இடத்திற்குச் சென்று உதவி செய்ய ஆர்வம் கொள்ள
வேண்டுகிறேன். </p><p>
</p><p>
ஒரு முழம் கொடுத்தாலும் </p><p>
</p><p>
நல்லதொரு நற்பணி மன்ற மாய் செயல்படும் எனது நற்பணி மன்றத் தோழர்கள் தோள்
தட்டிப்புறப்படுங்கள். பாதிக்கப்பட்ட குஜராத் மக்களுக்கு உபயோகப்படும் கம்பளி, போர்வை,
ஜமுக் காளம் மற்றும் துணி மணி களையும் கேட்டுப்பெறுங்கள். ஒரு முழம் துணி கொடுத்தாலும்
இன்முகத்தோடு பெற் றுக்கொள்ளுங்கள். </p><p>
</p><p>
நகரங்கள் தொட்டு கிராமங்கள்வரை நாடெங்கிலும் உள்ள நமது மன்றத்தோழர்கள் குழுக்கள்
குழுக்களாகச் சென்று துணிமணிகளைச் சேக ரித்து பாதிக்கப்பட்ட குஜராத் மக்களுக்கு
அனுப்புங்கள், பாதிக்கப்பட்ட மக்களைப் பாதுகாக்கும் இந்த மகத்தான பணிக்குக்கரம்
கொடுப்போம். </p><p>
</p><p>
இடிபாடுகளுக்குள் சிக்கித் தவிக்கும் மக்களை மீட்கும் முயற்சிக்கு உதவிக்கரம் நீட்டிய
பல்வேறு நாட்டு மக்களுக்கு நன்றி சொல்வோம். </p><p>
</p><p>
இதுபோன்ற பேரழிவுகளை நாடு சந்திக்கும்போது அதற் கான தேர்ச்சி பெற்ற நிவா ரணக் குழு
மீட்புக்குழு போன் றவைகளை இனிமேலாவது நமது நாட்டிலேயும் நிரந்தரமாக அமைத்துக்கொள்ள
வேண்டும். </p><p>
</p><p>
மீண்டும் நமது நாட்டில் பல பகுதிகள் நில அதிர்ச்சிக்குள்ளாகும் என்ற அதிர்ச்சியான
அறிவிப்புகள் வந்து கொண்டிருக்கும் இந்த நேரத்தில் அதற் கான உடனடி நடவடிக்கையை நமது
தலைவர்கள் மேற் கொள்ள வேண்டும். </p><p>
</p><p>
பணம்-மனம் </p><p>
</p><p>
பணம் படைத்தோர் அள்ளித்தருவோம் மனம் படைத்தோர் உதவி புரிவோம் உணவளித்து
உடையளித்து உயிர் காத்திடுவோம். </p><p>
</p><p>
இவ்வாறு அவர் அதில் கூறி உள்ளார். </p>

<p> </p>

<p>திருட்டு சி.டி. கேசட்
விற்பனையால், நலிந்து வரும் சினிமா தொழிலை காவல் துறை காப்பாற்ற வேண்டும், செல்வின்
ராஜ் கோரிக்கை</p>

<p> </p>

<p>மதுரை, ஜன.30- எம்.ஆர்.மூவி டிஸ்ட்ரிபியூட்டர்ஸ் அசோசியேசன்
சார்பில் அதன் தலைவர் செல்வின்ராஜ் வௌியிட்டுள்ள அறிக்கையில் கூறி இருப்பதாவது:- </p><p>
</p><p>
மதுரையில் ஆரப்பாளையம் பகுதியில் திருட்டு வீடியோ குற்ற புலனாய்வு சி.பி.சி.ஐ.டி. காவல்
துறை அதிகாரிகள் வாஞ்சிநாதன், பிரண்ட்ஸ், தீனா, நாகேஸ்வரி, பாப்பா ஆகிய
படங்களை திருட்டுத்தனமாக, சினிமா வீடியோ கேசட்டுகளை கம்ப்யூட்டரில் தயாரித்த குற்ற
வாளியை கைது செய்தனர். </p><p>
</p><p>
மேற்கண்ட படங்களின் திருட்டு வீடியோ சி.டி. கேசட்டுகள், கம்ப்யூட்டர் கருவி மற்றும்
சி.டி. கேசட் தயாரிக்க பயன்படுத்திய கருவியையும் கைப்பற்றி சுமார் ரூ.2 லட்சம்
மதிப்புள்ள 250 புதிய படங்களின் சி.டி. கேசட்டுகளை பறிமுதல் செய்து உள்ளார்கள். </p><p>
</p><p>
நன்றி </p><p>
</p><p>
மேற்கண்ட படங்கள் அனைத்தும் பொங்கல் அன்று வௌியாகி திரையரங்குகளில் ஓடிக் கொண்டு
இருக்கிறது. இந்த நடவடிக்கைகள் எடுத்த வீடியோ குற்றப்புலனாய்வு காவல் துறை
கண்காணிப்பாளர் சண்முக ராஜேஸ்வரன், ஆய்வாளர் அரசு மற்றும் காவல் துறையை சேர்ந்த பெரிய
கருப்பன், ராமநாதன், சுந்தரமூர்த்தி பெருமாள் ஆகியோருக்கும் எங்களது சங்கத்தின் சார்பாக நன்றியை
தெரிவித்துக் கொள்கிறோம். </p><p>
</p><p>
கடந்த வாரம் </p><p>
</p><p>
சென்ற வாரம் மதுரையில் காவல் துறை துணை கமிஷனர் அமல்ராஜ் உத்தரவின் பேரில் உதவி
கமிஷனர் ராஜேந்திரன் ஆலோசனையின் பேரில் தெற்கு வாசல் காவல் துறை ஆய்வாளர் பெருமாள்்
ராமானுஜம், துணை ஆய்வாளர்கள் சந்தோஷ்குமார், சங்கர் மற்றும் காவல் துறையை
சேர்ந்தவர்கள் பொங்கலுக்கு வௌியான அனைத்து புதிய படங் களின் திருட்டு சி.டி. கேசட்டுகளை
பறிமுதல் செய்து கடை உரிமை யாளர் மீது நடவடிக்கை எடுத்து உள்ளார்கள். அவர்களுக்கும் எங்களது
சங்கத்தின் சார்பாக நன்றியை தெரிவித்துக் கொள் கிறோம். </p><p>
</p><p>
வேண்டுகோள் </p><p>
</p><p>
மதுரையில் பெரும்பாலான வீடியோ கடைகள் மற்றும் வௌிநாட்டு பொருட்கள் விற்பனை செய்யும்
கடைகளிலும் திருட்டுத் தனமாக புதிய திரைப்படங்களின் சி.டி. கேசட்டுகள் விற்பனைக்கும்,
வாடகைக்கும் விடுவதாக தெரிய வருகிறது. காவல் துறை உயர் அதிகாரிகள் நடவடிக்கை எடுத்து
நலிந்து வரும் சினிமா தொழிலை காப்பாற்ற ஆவன செய்யும்படி கேட்டுக் கொள்கிறோம். </p><p>
</p><p>
இவ்வாறு அதில் அவர் கூறி உள்ளார். </p>

<p> </p>

<p>சென்னையில் நடந்த
விழாவில் பேச்சு: இலங்கையில் படப்பிடிப்பு நடத்த வாருங்கள், தென்னிந்திய
திரையுலகினருக்கு இலங்கை தூதர் அழைப்பு</p>

<p> </p>

<p>சென்னை, ஜன. 30- இலங்கை தூதர் ஜெய சிங்கே, இலங்கை தேசிய
திரைப் பட கழக தலைவர் திசா அபய சேகரா ஆகியோர் சென்னை வந்தனர். அவர்களுக்கு தென்
இந்திய திரைப்பட மற்றும் டி.வி. தயாரிப்பாளர்கள் கில்டு சார்பில் நேற்று சென்னையில்
பாராட்டு விழா நடந்தது. அவர்கள் இருவரும் மாலை பொன்னாடை அணிவித்து கவுரவிக்கப்பட்டனர்.
</p><p>
</p><p>
திசா அபயசேகரா </p><p>
</p><p>
பாராட்டை ஏற்றுக் கொண்டு விழாவில் பேசிய திசா அபய சேகரா தென்னிந் திய
திரையுலகினருக்கு அழைப்பு விடுத்து பேசினார். அவர் கூறியதாவது:- </p><p>
</p><p>
1947-ம் ஆண்டு முதல் சிங்கள படம் மதுரையில் எஸ்.எம்.நாயகத்தின் சித்ர கலா மூவி டோன்
ஸ்டுடியோவில் நடந்தது. அந்த காலத்தில் படங்கள் எடுத்த மாடர்ன் தியேட்டர் டி.ஆர்.சுந்தரம்,
இசை அமைப்பாளர் டி.ஆர்.பாப்பா, தட்சணா மூர்த்தி, டைரக்டர் நீலகண்டன், கே.எஸ்.சேது
மாதவன் குறிப்பாக இயக்குனர் ஏ.பி.ராஜ் (நடிகை சரண்யாவின் தந்தை) போன்றவர்கள்
என்றென்றும் பாராட்டத்தக்க வர்கள். </p><p>
</p><p>
இப்போதுள்ள சூழ்நிலையில் இலங்கையில் வந்து படப்பிடிப்பு நடத்த முடியுமா என்று என்னிடம்
கேட்டார்கள். இலங்கையில் தைரியமாக படப் பிடிப்பு நடத்தலாம். அதற்கான பாதுகாப்பை
எங்கள் அரசு வழங்கும். மேலும் இலங்கையில் உள்ள சினிமா தியேட்டர்களில் ஒலி அமைப்புகள்
20 வருடத் துக்கு முந்தையதாக உள்ளன. அதனை இங்கிருந்து வந்து புதிய வடிவில் அமைத்து
தாருங்கள். </p><p>
</p><p>
இவ்வாறு அவர் கூறினார். </p><p>
</p><p>
அவரது பேச்சை இலங்கை தூதர் ஜெயசிங்கே வலியுறுத்தினார். </p><p>
</p><p>
பின்னர் கில்டு சார்பில் செயலாளர் எஸ்.சிவபிரசாத் பேசினார். அவர் பேசும்போது பண்டா
கம்ஸ் டு டவுன் என்ற படம் உள்பட சுமார் 10 இலங்கை வெற்றி படங்களை இயக்கிய ஏ.பி.ராஜ்
இங்கு எனது தந்தை ஆர்.எஸ். சீனிவாசனின்  சாய் புரொடக்ஷன் தயாரித்த 20 மலையாள படங்
களை இயக்கியவர் ஆவார். அந்த படங்களும் வெற்றி படங்கள்தான். இதை வைத்து பார்க்கும்போது
இங்குள்ளவர்களின் ரசனையும், இலங்கை யில் உள்ளவர்களின் ரசனை யும் ஒத்துப்போகிறது
என்பதை உணர முடிகிறது. சுமார் 54 வருடங்களாக இலங்கை சினிமா துறையினருக்கும், இங்குள்ளவர்
களுக்கும் தொடர்பு விட்டுப் போய் இருக்கிறது. அந்த உறவு இனி தொடர எங்களின்
ஒத்துழைப்பை தருவோம். இலங் கையில் நாங்கள் படப்பிடிப்பு நடத்தும்போது எங்களுக்கு இலங்கை
அரசு மானியம் வழங்க வேண்டும் என்று கில்டு சார்பில் கேட்டுக்கொள்கிறேன் என்று குறிப்பிட்டார்.
</p><p>
</p><p>
திருப்பதி </p><p>
</p><p>
விழாவில் கில்டு தலைவர் எஸ்.எஸ்.திருப்பதி, துணை தலைவர்கள் என்.எஸ்.மூர்த்தி, தேவராஜ்
குணசேகரன், செயலாளர் எம்.பாஸ்கர், திலிப்ஷா, கிருஷ்ணபிரசாத், ராமகிருஷ் ணன் உள்பட
பலர் கலந்து கொண்டனர். </p>

<p> </p>

<p> </p>

<p>குஜராத் பூகம்ப நிதி
திரட்ட, நடிகர் கரண் தெருத்தெருவாக இன்று உண்டியல் ஏந்துகிறார்</p>

<p> </p>

<p>சென்னை, ஜன. 30- நம்மவர், திருநெல்வேலி, கலர் கனவுகள்,
கண்ணாத் தாள், நாகேஸ்வரி உள்பட பல்வேறு படங்களில் நடித் திருப்பவர் நடிகர் கரண். குஜ
ராத்தில் ஏற்பட்ட பூகம்பத்தை அறிந்து மனம் கலங்கிய அவர் தனது சார்பாக நிதி
அளிப்பதுடன் தன்னால் இயன்ற அளவு பொதுமக்களிடமும் நிதி வசூலித்து தர முடிவு செய்தார். </p><p>
</p><p>
அதன்படி செஞ்சிலுவை சங்கம், எக்ஸ்னோரா அமைப் பினருடன் இணைந்து இன்று காலை 10.30
மணி அளவில் சென்னை பனகல் பூங்கா அருகில் இருந்து தி.நகர், அண்ணாசாலை உள்பட பல் வேறு
இடங்களுக்கு நடந்து சென்று உண்டியல் ஏந்தி நிதி வசூல் செய்கிறார். </p><p>
</p><p>
பேட்டி </p><p>
</p><p>
இதுபற்றி கரண் கூறியதவாது:- </p><p>
</p><p>
குஜராத் பூகம்ப பாதிப் பினையும், உயிர் இழப்புகளையும் காணும்போது கண்கள்
கலங்குகின்றன. அவர்களுக்கு நம்மால் ஆன உதவியை செய்ய வேண்டும் என்று தமிழக மக்கள்
நினைக்கிறார்கள். அதற்காக நிதி அளித்து வரு கிறார்கள். அவர்களோடு இணைந்து எனது பங்காக
என்னால் இயன்ற நிதியுதவி செய்கிறேன். ஆனால் அது மட்டும் போதாது என்று என் மனம்
சொல்கிறது. எனவே தான் நாளை (இன்று) முதல் சுமார் 3 நாட்களுக்கு படப் பிடிப்பை ரத்து
செய்துவிட்டு உண்டியல் ஏந்தி நிதி திரட்டு கிறேன். </p><p>
</p><p>
அரிசி-ஆடை </p><p>
</p><p>
நிதி கொடுக்க நினைப்பவர்கள் நிதி தாருங்கள், அரிசி, ஆடைகள் போன்ற அத்தியா வசிய
பொருள் தருபவர்களும் தரலாம். அவை அனைத்தும் செஞ்சிலுவை சங்கம் மூலமாக உடனடியாக
குஜராத்தில் பாதிக்கப்பட்ட மக்களுக்கு அனுப்பிவைக்கப்படும். </p><p>
</p><p>
ரசிகர்கள் </p><p>
</p><p>
தமிழகத்தில் உள்ள எனது ரசிகர்கள் எல்லோரும் இந்த நற்பணியில் ஈடுபட்டு அவற்றை
செஞ்சிலுவை சங்கம் மூலமாக குஜராத் அனுப்பிவைக்க வேண்டும் என்று அன்புடன்
கேட்டுக்கொள்கிறேன். </p><p>
</p><p>
இவ்வாறு அவர் கூறினார். </p>

<p> </p>

<p> </p>






</body></text></cesDoc>