<cesDoc id="tam-w-dinakaran-news-02-01-31" lang="tam">
<cesHeader type="text">
<fileDesc>
<titleStmt>
<h.title>tam-w-dinakaran-news-02-01-31.txt</h.title>
<respStmt>
<respType>Electronic file created by</respType>
<respName>Department of Linguistics, Lancaster University</respName>
<respType>text collected by</respType>
<respName>Paul Baker and Celia Worth</respName>
<respType>transferred into Unicode by</respType>
<respName>"Unicodify" software by Andrew Hardie</respName>
</respStmt>
</titleStmt>
<publicationStmt>
<distributor>UCREL</distributor>
<pubAddress>Department of Linguistics, Lancaster University, Lancaster, LA1 4YT, UK</pubAddress>
<availability region="WORLD"></availability>
<pubDate>03-08-24</pubDate>
</publicationStmt>
<sourceDesc>
<biblStruct>
<monogr>
<h.title>"Dinakaran" internet news (www.dinakaran.com), news stories collected on 02-01-31</h.title>
<h.author>Dinakaran</h.author>
<imprint>
<pubPlace>Tamil Nadu, India</pubPlace>
<publisher>Dinakaran</publisher>
<pubDate>02-01-31</pubDate>
</imprint>
</monogr>
</biblStruct>
</sourceDesc>
</fileDesc>
<encodingDesc>
<projectDesc>Text collected for use in the EMILLE project.</projectDesc>
<samplingDesc>Simple written text only has been transcribed. Diagrams, pictures and tables have been omitted and their place marked with a gap element.
</samplingDesc>
<editorialDecl>
<conformance level="1"></conformance>
</editorialDecl>
</encodingDesc>
<profileDesc>
<creation>
<date>03-08-24</date>
</creation>
<langUsage>Tamil</langUsage>
<wsdUsage>
<writingSystem id="ISO/IEC 10646">Universal Multiple-Octet Coded Character Set (UCS).</writingSystem>
</wsdUsage>
<textClass>
<channel mode="w">print</channel>
<constitution type="composite"></constitution>
<domain type="public"></domain>
<factuality type="fact"></factuality>
</textClass>
<translations></translations>
</profileDesc>
<revisionDesc></revisionDesc>
</cesHeader>

<text>
<body>




<p>தீவிரவாதிகளை பாக்.
ஒழிக்கும் வரை இந்திய படைகள் வாபஸ் இல்லை, வாஜ்பாய் திட்டவட்ட அறிவிப்பு</p>

<p> </p>

<p>புதுடெல்லி, ஜன. 31- எல்லை தாண்டும் தீவிரவாதிகளை பாகிஸ்தான்
தடுக்க வேண்டும். அதுவரை இந்திய படைகள் வாபஸ் பெறப்பட மாட்டாது என்று பிரதமர் வாஜ்பாய்
கூறினார். </p><p>
</p><p>
மகாத்மா காந்தி நினைவு தினத்தையொட்டி டெல்லியில் நேற்று காதி கண்காட்சியை பிரதமர்
வாஜ்பாய் திறந்து வைத்தார். பின்னர் அவர் நிருபர்களிடம் கூறியதாவது:- </p><p>
</p><p>
எல்லை தாண்டும் தீவிரவாதம் ஒழிக்கப்படும் என்று பாகிஸ்தான் வாக்குறுதி அளித் துள்ளது. இதை
செயல்படுத்தும் வரை எல்லையில் இருந்து இந்திய படைகள் வாபஸ் பெறப்பட மாட்டாது. </p><p>
</p><p>
அடுத்த நடவடிக்கை என்ன </p><p>
</p><p>
இவ்வாறு பிரதமர் வாஜ்பாய் கூறிய போது, பாகிஸ்தான் தனது வாக்குறுதிளை செயல் படுத்துவதற்காக
இந்தியா எவ்வளவு காலம் காத்திருக்கும் என்று கேட்டனர். </p><p>
</p><p>
அதற்கு பதிலளித்த பிரதமர் வாஜ்பாய், பாகிஸ்தானின் சொல்லும், செயலும் விரைவில் ஒரே
மாதிரியாக இருக்கும் என்று நாங்கள் நம்புகிறோம் என்றார். </p><p>
</p><p>
இந்தியாவின் அடுத்த திட்டம் என்ன? என்று கேட்டதற்கு, அரசாங்கத்தின் எண் ணங்கள்
அனைத்தும் நன்கு திட்டமிடப்பட்டு செயல்படுத்தப்படுகிறது. அது போல் அடுத்த செயல்
திட்டங்கள் அமையும் என்றார். </p><p>
</p><p>
ஜார்க்கண்ட் மாநில கவர்னர் பிரபாத் குமாரின் சர்ச்சைக்குரிய ராஜினாமா பற்றி கேட்
டதற்கு வாஜ்பாய் பதிலளிக்க மறுத்து விட்டார். எது நடந்தாலும் உங்கள் முன்னிலை யில் தான்
நடக்கும் என்று கூறினார். </p><p>
</p><p>
பதட்டம் தணிக்க பாக். 5 அம்ச திட்டம் </p><p>
</p><p>
இந்தியாவுடனான பதட்டத்தை தணிக்க பாகிஸ்தான் 5 அம்ச திட்டத்தை அறிவித்துள்ளது. அதன்
விவரம்:- </p><p>
</p><p>
எல்லையில் இருந்து படைகளை படிப்படியாக வாபஸ் பெறுவது. </p><p>
</p><p>
படைகள் வாபஸ் பெறுவதை தொடர்ந்து காஷ்மீர் உள்பட பல்வேறு பிரச்சினைகள் பற்றி பேச்சு
நடத்த வேண்டும். </p><p>
</p><p>
ஜனவரி 1 முதல் துண்டிக்கப்பட்ட ரெயில், விமானம் மற்றும் பஸ் போக்குவரத்தை பாகிஸ்தான்
மீண்டும் தொடங்கும். </p><p>
</p><p>
எல்லைக் கட்டுப்பாடு கோடு நிலவரத்தை கண்காணிக்க ஐ.நா.சபையின் ராணுவ பார்வையாளர்கள்
குழுவை நியமிப்பது. </p><p>
</p><p>
காஷ்மீரில் மனித உரிமைகள் பற்றி கண்காணிக்க மனித உரிமை குழு மற்றும்
பத்திரிகையாளர்கள் குழுவை இந்தியா அனுமதிக்க வேண்டும். </p><p>
</p><p>
பாக். திட்டத்துக்கு இந்தியா பதில் </p><p>
</p><p>
புதுடெல்லி, ஜன. 31- பேச்சுவார்த்தை நடத்துவதற்கு பாகிஸ்தானுக்கு இந்தியா விதித்துள்ள
நிபந்தனைகளை வௌியுறவு துறை அதிகாரி நிருபமா ராவ் நேற்று டெல்லியில் வௌியிட்டார்.
அதன் விவரம்:- </p><p>
</p><p>
எல்லை தாண்டும் தீவிரவாதத்தை உடனடியாக நிறுத்த வேண்டும். </p><p>
</p><p>
இந்தியா கேட்டுக் கொண்டபடி 20 தீவிரவாதிகளை பிடித்து ஒப்படைக்க வேண்டும். </p><p>
</p><p>
பேச்சுவார்த்தை நடத்துவதற்கு உரிய சூழ்நிலையை உருவாக்க வேண்டும். </p><p>
</p><p>
மேற்கண்ட நிபந்தனைகளை பாகிஸ்தான் நிறைவேற்றினால் பேச்சுவார்த்தை நடத்துவது பற்றி
பரிசீலிக்கப்படும். பாகிஸ்தான் தெரிவித்துள்ள 5 அம்ச திட்டத்துக்கு மேற்கண்ட வாறு
இந்தியா பதில் அளித்துள்ளது. </p>

<p> </p>

<p> </p>

<p>பயங்கரவாதத்துக்கு
எதிரானபோர் இப்போது முடியாது: பாகிஸ்தானுக்கு அதிபர் புஷ் மறைமுக எச்சரிக்கை,
தீவிரவாதிகளை ஒடுக்காவிட்டால் நாங்களே தலையிட்டு ஒடுக்குவோம்</p>

<p> </p>

<p>வாஷிங்டன், ஜன.31- அமெரிக்க அதிபர் புஷ் பாகிஸ்தானுக்கு மறைமுக
எச்சரிக்கை விடுத்துள்ளார். தீவிரவாதிகளை நீங்கள் ஒடுக்கா விட்டால் நாங்களே தலையிட்டு
ஒடுக்குவோம் என்று அவர் கூறியுள்ளார். பயங்கரவாதத்துக்கு எதிரான போர் இப்போது ஒயாது
என்றும் அவர் கூறியுள்ளார். </p><p>
</p><p>
அமெரிக்க அதிபர்கள் வருடந்தோறும் அமெரிக்க இரு சபை கூட்டத்தில் உரையாற்று வது வழக்கம்.
இந்த ஆண்டுக்கான உரையை அதிபர் புஷ் கடந்த செவ்வாய்க்கிழமை இரவு ஆற்றினார். அவர்
கூறியதாவது:- </p><p>
</p><p>
ஹமாஸ், ஹிஸ்புல்லா, இஸ் லாமிய ஜிகாத், ஜெய்ஸ்-இ- முக மது என்ற பெயர்களில் பல
தீவிரவாத அமைப்புகள் தலை மறைவு வாழ்க்கை நடத்தி வருகின்றன. இந்த இயக்கங்கள் எந்த
நாட்டில் இயங்குகிறதோ அந்தநாட்டு அரசுகள் இந்த இயக்கங்க ளை கண்டுகொள்வதில்லை. இந்த
நாடுகளில் பல அமெரிக்கா தலைமையிலான பயங் கரவாத எதிர்ப்பு கூட்டணியில் உள்ளன. இருந்தும்
கூட தீவிரவாதிகள் விசயத்தில் மென்மை போக்கை கடைபிடிக்கின்றன. </p><p>
</p><p>
ஒடுக்குவோம் </p><p>
</p><p>
இப்படி தீவிரவாதிகளை அந்தந்த நாடுகள் ஒடுக்கத் தவறினால் அமெரிக்கா நேரடி யாக தலையிட்டு
தீவிரவாதிகளை ஒடுக்கும். </p><p>
</p><p>
பயங்கரவாதத்துக்கு எதிரான போர் ஆப்கானில் இன்னும் ஓயவில்லை. ஆப்கானில் பயிற்சிபெற்ற
பல ஆயிரம் தீவிரவாதிகள் இன்னும் நம்கையில் சிக்காமல் உள்ளனர். </p><p>
</p><p>
அணுஉலைகள் </p><p>
</p><p>
பிடிபட்ட ஆப்கான் தீவிரவாதிகளிடம் இருந்து அமெரிக்காவின் அணுமின்நிலை யங்கள் பற்றிய
வரைபடங்கள் கிடைத்துள்ளன. இதன்மூலம் அமெரிக்க அணு நிலை யங்களை தீவிரவாதிகள்
குறிவைத்திருப்பது தெரிகிறது. அமெரிக்காவின் குடிநீர் விநியோகத் திட்டங்கள், பல்வேறு
அமெரிக்க நகரங்களை விமானத்தில் இருந்து எடுத்த படங்கள், அமெரிக்காவின் முக்கிய
கட்டிடங்கள், நினைவுச் சின்னங்கள் போன்றவற்றின் வரைபடம் மற்றும் தகவலும்
தீவிரவாதிகளிடம் இருந்து கிடைத்துள்ளன </p><p>
</p><p>
முடிவல்ல, ஆரம்பம். </p><p>
</p><p>
இதன்மூலம் பயங்கரவாதத்துக்கு எதிரான போர் இப்போதைக்கு முடியாது என்பது தெரிகிறது. போர்
இப்போது தான் ஆரம்பித்து இருக்கிறது. </p><p>
</p><p>
இவ்வாறு அவர் பேசினார். </p><p>
</p><p>
புஷ் அவரது பேச்சின் போது சில தீவிரவாத இயக்கங்களின் பெயர்களை குறிப்பிட் டார்
அல்லலா? அதில் ஹமாஸ், இஸ்லாமிய ஜிகாத் போன்ற அமைப்புகள் இஸ்ரேல் நாட்டுக்கு
எதிரான பாலஸ்தீன இயக்கங்கள் ஆகும். ஹிஸ் புல்லா அமைப்பு இஸ்ரே லுக்கு எதிராக
லெபனானில் செயல்பட்டு வருகிறது. புஷ் குறிப்பிட்ட ஜெய்ஸ்-இ- முகமது அமைப்பு பாகிஸ்தானில்
இருந் தபடி செயல்படும் காஷ்மீர் இயக்கம் என்பது குறிப்பிடத்தக்கது. </p>

<p> </p>

<p> </p>

<p>அரசுடன் நடந்த
பேச்சுவார்த்தை தோல்வி: 7-ந்தேதி முதல் ஆசிரியர்-அரசு ஊழியர் காலவரையற்ற
''ஸ்டிரைக்'', அனைத்து சங்கங்களும் கூட்டாக அறிவிப்பு</p>

<p> </p>

<p>சென்னை, ஜன. 31- அரசு ஊழியர், ஆசிரியர் சங்கங்களுடன் தமிழக அரசு
நடத்திய பேச்சு வார்த்தை தோல்வி அடைந்தது. இதனையடுத்து 7-ந் தேதி முதல் காலவரையற்ற
ஸ்டிரைக் நடைபெறும் என்று அரசு ஊழியர், ஆசிரியர் சங்க கூட்டமைப்பு அறிவித்து உள்ளது. </p><p>
</p><p>
தமிழக அரசு ஊழியர், ஆசிரியர்களின் பல்வேறு சலுகைகளை அ.தி.மு.க. அரசு நிதி நெருக்கடியை
காரணம் காட்டி பறித்தது. இதை தொடர்ந்து 12 லட்சம் அரசு ஊழியர் கள், ஆசிரியர்கள்
போராட்டத்தில் குதித்தனர். பிப்ரவரி 7-ந்தேதி முதல் கால வரை யற்ற வேலை நிறுத்தத்தில்
ஈடுபடப்போவதாக அறிவித்தார்கள். இந்த நிலையில் அரசு சார்பில் பேச்சுவார்த்தைக்கு
அழைப்பு விடப்பட்டது. நிதித்துறை செயலாளர் சந்தானம் தலைமையில் நடந்த பேச்சு வார்த்தையில்
37 சங்கங்கள் கலந்து கொண் டன. சுமார் 21/2 மணி நேரம் நடந்த இந்த பேச்சில் உடன்பாடு
எதுவும் எற்படவில்லை. </p><p>
</p><p>
ஆலோசனை </p><p>
</p><p>
அரசுடன் நடத்திய பேச்சு வார்த்தை குறித்து அரசு ஊழியர்கள், ஆசிரியர்கள் சங்க தலைவர்கள்
நேற்று ஆலோசனை நடத்தினார்கள். அதைத் தொடர்ந்து தமிழ்நாடு அரசு அலுவலர் - ஆசிரியர்
சங்கங்களின் கூட்டமைப்பு-ஜேக்டோ ஜியோ வௌியிட்டுள்ள செய்திக்குறிப்பில் கூறி
இருப்பதாவது:- </p><p>
</p><p>
உடன்பாடு இல்லை </p><p>
</p><p>
ஜேக்டோ - ஜியோ கூட்டமைப்பு அரசுக்கு முன் வைத்துள்ள 12 அம்ச கோரிக்கை கள் குறித்து,
தமிழ்நாடு அரசு நேற்று கூட்டமைப்பின் தலைவர்களை அழைத்து பேச்சுவார்த்தை நடத்தியதை
கூட்டமைப்பு மகிழ்ச்சியுடன் வரவேற்கிறது. அரசு தரப் பில் நிதித்துறை செயலாளரும்,
பணியாளர் மற்றும் நிர்வாக சீர்திருத்தத்துறை செயலா ளரும், கலந்து கொண்டு நடத்திய
இப்பேச்சுவார்த்தை விரிவாக நடை பெற்றது. இந்த பேச்சுவார்த்தையில் உடன்பாடு ஏதும்
எட்டப்படவில்லை. </p><p>
</p><p>
மீண்டும் பேச்சு? </p><p>
</p><p>
அரசு பணியாளர்கள் - ஆசிரியர்களின் கோரிக்கைகள் நியாயமானவை என ஏற்றுக் கொண்ட
நிதித்துறை செயலாளர், கூட்டமைப்பின் உணர்வுகளை முதல்வர், நிதியமை ச்சர் மற்றும் தலைமை
செயலாளர் ஆகியோரிடம் எடுத்துக்கூறி, கலந்தாலோசனை செய்து விட்டு, விரைவில் மீண்டும்
கூட்டமைப்பை அழைத்துப் பேசுவதாக தெரிவித் துள்ளார். </p><p>
</p><p>
ஆயத்த கூட்டம் </p><p>
</p><p>
பேச்சுவார்த்தையில் கூட்டமைப்பின் 12 அம்ச கோரிக்கைகளுக்கு தீர்வு ஏதும் எட்டப்படாத
நிலையில், ஏற்கனவே திட்டமிட்டபடி 7-ந்தேதி முதல் வேலை நிறுத்தம் மற்றும் 11-ந் தேதி
மாவட்ட தலைநகரங்களில் மறியல் ஆகிய போராட்டங்களை வலுவாகவும், சிறப்பாகவும்
நடத்துவதென கூட்டமைப்பு முடிவு செய்துள்ளது. இதற் கென அனைத்து மாவட்ட தலைநகரங்களிலும்
4-ந்தேதி மாலை போராட்ட ஆயத்த விளக்கக் கூட்டங்களையும், 4-ந்தேதி முதல் 7-ந்தேதி முடிய
ஊழியர் - ஆசிரியர் சந்திப்பு இயக்கத்தையும், அனைத்து மாவட்ட, வட்ட, ஒன்றியங்களில்
விரிவாக நடத்துவது என்றும் தீர்மானிக்கப்பட்டுள்ளது. </p><p>
</p><p>
இவ்வாறு அதில் கூறப்பட்டுள்ளது. </p><p>
</p><p>
சூரிய மூர்த்தி </p><p>
</p><p>
கூட்டறிக்கையில் அரசு அலுவலர் ஒன்றிய தலைவர் சூரியமூர்த்தி, அரசு உழியர்கள் சங்க தலைவர்
சீதரன், அரசு பணியாளர் சங்க தலைவர் பாலசுப்பிரமணியன், அலு வலக உதவியாளர் சங்க தலைவர்
இரா.தங்கராசு, அரசு அலுவலர் முன்னேற்ற கழக தலைவர் இரா.பெருமாள், ஜேக்டோ ஜியோ
தலைமைக்குழு உறுப்பினர்கள் டி.சுப்பிர மணியன், பி.பெருமாள், எஸ்.ராஜா, பெ.அருணாசலம்,
க.நஞ்சப்பன் ஆகியோர் கையெழுத்திட்டுள்ளனர். </p>

<p> </p>

<p> </p>

<p>காட்டுக்குள் முழு வீச்சில்
அதிரடிப்படை தேடுதல் வேட்டை: வீரப்பன் எந்த நேரமும் பிடிபடலாம், உள்துறை செயலாளர்
நரேஷ்குப்தா தகவல் ''தலிபான் தலைவரை பிடிப்பது போல் ரகசிய ராணுவ நடவடிக்கை''</p>

<p> </p>

<p>சென்னை, ஜன. 31- வீரப்பனை தேடும் நடவடிக்கையில் முன்னேற்றம்
ஏற்பட்டு இருப்பதாகவும் விரை வில் அவன் பிடிபடுவான் என்றும் உள்துறை செயலாளர் நரேஷ்குப்தா
கூறினார். தலிபான் தலைவரை பிடிப்பதுபோல் ரகசிய நடவடிக்கையில் அதிரடிப்படை ஈடுபட்டு
இருப்பதாகவும் அதுபற்றி எதுவும் சொல்ல முடியாது என்றும் சொன்னார். </p><p>
</p><p>
தமிழக-கர்நாடக போலீசுக்கு சிம்ம சொப்பனமாக விளங்கி வருபவன் சந்தன வீரப் பன். சந்தன
வீரப்பனை பிடிப்பதற்கென்றே இரு மாநில அரசுகளும் அதிரடிப்படை உருவாக்கி, கடந்த 20
ஆண்டுகளுக்கும் மேலாக தேடுதல் வேட்டை நடத்தி வருகி ன்றன. ஆனால், இதுவரை வீரப்பன்
இருப்பிடத்தை கண்டுபிடிக்க முடியவில்லை. தற்போது வீரப்பன் தனது கூட்டாளிகளுடன் மேட்டூர்
மாதேஸ்வரன் மலைப்பகுதியில் முகாமிட்டு இருப்பதாக தெரிகிறது. இதையடுத்து அதிரடிப்படையினர்
அங்கு பெரும ளவில் குவிக்கப்பட்டு உள்ளனர். கேரளா, கர்நாடக மாநிலங்களில் பல்வேறு முகாம்
களில் தங்கி இருந்த அதிரடிப்படையினரும் மேட்டூர் பகுதிக்கு வரவழைக்கப்பட்டு உள்ளனர்.
இவர்கள் நவீன ஆயுதங்களுடன் வீரப்பன் இருப்பிடத்தை நோக்கி விரைந்து செல்கின்றனர். </p><p>
</p><p>
அதிரடிப்படை முற்றுகை </p><p>
</p><p>
சத்தியமங்கலம் காட்டில் வீரப்பனை அதிரடிப்படை சுற்றி வளைத்து விட்டதாகவும் முன்னாள்
அதிரடிப்படை தலைவரும் சென்னை போலீஸ் கமிஷனருமான விஜயகுமார் உடனே காட்டுக்கு
விரைந்ததாகவும் தகவல்கள் வௌியானது. இதனால் வீரப்பன் அதிரடிப்படை முற்றுகையில் சிக்கி
இருப்பதாகவும் கருதப்படுகிறது. </p><p>
</p><p>
உள்துறை செயலாளர் </p><p>
</p><p>
இதற்கிடையில் தமிழக உள்துறை செயலாளர் நரேஷ் குப்தா நேற்று சென்னையில் நிருபர்களிடம்
கூறியதாவது:- </p><p>
</p><p>
கேள்வி:- வீரப்பன் பிடிபட்டு விட்டானா? </p><p>
</p><p>
பதில்:- வீரப்பன் பதுங்கி இருக்கும் இடம் பற்றிய நம்பகமான சில தகவல்கள் கிடைத்துள்ளன.
அதன் அடிப்படையில் கர்நாடக - தமிழக அதிரடிப்படையினர் அங்கு குவிக்கப்பட்டு தீவிரமாக
தேடுதல் வேட்டையில் ஈடுபட்டு வருகிறார்கள். </p><p>
</p><p>
சுற்றி வளைப்பு? </p><p>
</p><p>
கேள்வி:- வீரப்பன் சுற்றி வளைக்கப்பட்டு விட்டானா? </p><p>
</p><p>
பதில்:- தலிபான் தலைவரை பிடிக்க எடுக்கப்பட்ட ராணுவ நடவடிக்கை போன்றது தான் இது. எனவே
இதுபற்றி வௌிப்படையாக கூற முடியாது. </p><p>
</p><p>
கேள்வி:- போலீஸ் கமிஷனர் விஜயகுமார் அங்கு சென்று இருக்கிறாரே? </p><p>
</p><p>
பதில்:- அவர் ஏற்கனவே அதிரடிப்படையில் இடம் பெற்று இருந்தவர். அந்த முறை யில் அவர்
சென்று இருக்கலாம். </p><p>
</p><p>
எந்த நேரமும்.... </p><p>
</p><p>
வீரப்பனை பிடிக்கவே முடியாது என்று கூறுவதை ஏற்க இயலாது. வீரப்பனை பிடித்து விட முடியும் என்ற
நம்பிக்கை எங்களுக்கு ஏற்பட்டுள்ளது. காட்டுக்குள் முழுவீச்சில் அதிரடிப்படையினர் பணியில்
இறங்கி உள்ளனர். எந்த நேரமும் வீரப்பன் பிடிபடலாம். </p><p>
</p><p>
இவ்வாறு அவர் கூறினார். </p><p>
</p><p>
குழப்பம் </p><p>
</p><p>
அதிரடிப்படை முகாமில் நடந்த குடியரசு தின விழாவின் போது பேசிய இன்ஸ் பெக்டர்
குபேந்திரன், ''இதுதான் காட்டில் நாம் கொண்டாடும் கடைசி குடியரசு தினம். நாம் என்ன
நோக்கத்துக்காக வந்தோமோ அது நிறைவேறிக்கொண்டு இருக்கிறது, அடுத்த கொடி
ஏற்றத்தின்போது எல்லோரும் அவரவர் யூனிட்டில் இருப்பீர்கள்'' என்று கூறி உள்ளார்.
இவற்றை பார்க்கும் போது வீரப்பன் விவகாரத்தில் ஒரு குழப் பமான சூழ்நிலை உருவாகி உள்ளது.
உண்மை நிலையை தெரிவிக்க அரசு அதிகாரி களும், அதிரடிப்படையினரும் மறுத்து வருகின்றனர். </p><p>
</p><p>
ஜனாதிபதி முன் சரண் அடைவானா? </p><p>
</p><p>
வீரப்பனின் நெருங்கிய கூட்டாளியும், வீரப்பனுக்கு வலதுகரமாக செயல்பட்டு வருப வனுமான
சேத்துக்குளி கோவிந்தன் டெலிபோன் மூலம் சில பத்திரிகை அலுவலகங் களுக்கு பேசினான்.
அப்போது அவன், ''வீரப்பன் உள்பட நாங்கள் அனைவரும் ஜனாதிபதி முன் சரண் அடைய தயாராக
இருக்கிறோம், எனவே, தமிழர் தேசிய இயக்க தலைவர் பழ.நெடு மாறன் தலைமையிலான தூதுக்குழுவை
பேச்சுவார்த்தை நடத்த காட்டுக்குள் அனுப்பி வையுங்கள் என்று கேட்டுக்கொண்டான்.
நெடுமாறனுடன் பேராசிரியர் கல்யாணி, பெங்களூர் தமிழ் சங்க தலைவர் சண்முகசுந்தரம்,
கவுன்சிலர் பாரி, கொளத்தூர் மணி ஆகியோரையும் அனுப்பி வைக்கும்படி கேட்டுக்கொண்டான்.
சேத்துக்குளி கோவிந்தன் எங்கிருந்து பேசினான் என்பது தெரியவில்லை. </p><p>
</p><p>
வீரப்பன் கண் பார்வை பாதிப்பா? </p><p>
</p><p>
சந்தன வீரப்பன் முன்பு போலீசை நேருக்கு நேர் சந்தித்து சண்டை யிட்டு வந்தான். ஆனால்,
தற்போது அவனால் போலீசை நேருக்கு நேர் சந்திக்க முடியவில்லை. அதிரடிப்படையினரை
பார்த்ததும் ஓடி ஒளிந்துக்கொள்கிறான். முன்பு வீரப்பன் இரவு நேரங்களில் காட்டில்
நெடுந்தூரம் நடந்து செல்வான். ஆனால் தற்போது அவனால் இரவு நேரங்களில் நடக்க
முடியவில்லை. இதற்கு காரணம் அவனது கண் பார்வை படிப்படியாக குறைந்து வருவதாக தெரிகிறது.
சூரியன் மறைய தொடங்கியதும் வீரப் பனுக்கு கண் பார்வை மங்கி விடுகிறது. அதனால் அவன்
இரவு நேரங்களில் ஒரு குறிப்பிட்ட இடத்தில் தங்கி விடுகிறான். மறுநாள் காலைதான் மீண்டும்
நடக்க தொ டங்குகிறான். பகலில்கூட தூரப்பார்வை துல்லியமாக தெரிவதில்லை என்று கூறப்படு
கிறது. ஏற்கனவே வீரப்பன் ஆஸ்துமா நோயால் அவதிப்பட்டு வருவது குறிப்பிடத்தக்கது. </p><p>
</p><p>
வீரப்பன் கதி என்ன? முதல்வர் பதில் </p><p>
</p><p>
சென்னை, ஜன. 31- சென்னை கோட்டையில் முதல்வர் பன்னீர் செல்வம் நேற்று நிருபர்களிடம்
பேசினார். அதன் விவரம் வருமாறு:- </p><p>
</p><p>
கேள்வி:- சந்தன கடத்தல் வீரப்பனை பிடிக்கும் நடவடிக்கை எந்த அளவில் உள்ளது?
வீரப்பன் கதி என்ன? </p><p>
</p><p>
பதில்:- எந்த தகவல் வந்தாலும் உங்களுக்கு தெரிவிக்கப்படும். இப்போது எதையும் வௌியில்
கூற இயலாது. </p><p>
</p><p>
கேள்வி:- வீரப்பனை பிடித்து விட்டதாக தகவல்கள் வந்துள்ளனவே? </p><p>
</p><p>
பதில்:- இப்போது நான் ஏதாவது கூறினால் அது வீரப்பனை பிடிக்கும் நடவடிக்கை க்கு குந்தகம்
விளைவிக்கும். </p>

<p> </p>

<p> </p>

<p>பேச்சுவார்த்தை நடத்த குழு
அனுப்பவும் வேண்டுகோள்: ஜனாதிபதி முன் சரண் அடைய தயார், சந்தன வீரப்பன் அறிவிப்பு</p>

<p> </p>

<p>கோவை, ஜன. 31- ஜனாதிபதி முன் சரண் அடைய தயாராக உள்ளேன என
சந்தன வீரப்பன் அறிவித்துள்ளான். பேச்சுவார்த்தை நடத்த குழு அனுப்பும்படியும் கேட்டுக்
கொண்டுள்ளான். </p><p>
</p><p>
சந்தன வீரப்பன் </p><p>
</p><p>
தமிழக-கர்நாடக போலீசுக்கு சிம்ம சொப்பனமாக விளங்கி வருபவன் சந்தன வீரப்பன். சந்தன
வீரப்பனை பிடிப்பதற்கென்றே இரு மாநில அரசுகளும் அதிரடிப்படை உருவாக்கி, கடந்த 20
ஆண்டுகளுக்கும் மேலாக தேடுதல் வேட்டை நடத்தி வருகின்றனர். ஆனால், இதுவரை வீரப்பன்
இருப்பிடத்தை கண்டுபிடிக்க முடியவில்லை. தற்போது வீரப்பன் தனது கூட்டாளிகளுடன் மேட்டூர்
மாதேஸ்வரன் மலைப்பகுதியில் முகாமிட்டு இருப்பதாக தெரிகிறது. இதையடுத்து அதிரடிப்படையினர்
அங்கு பெருமளவில் குவிக்கப்பட்டு உள்ளனர். கேரளா, கர்நாடகாக மாநிலங்களில் பல்வேறு
முகாம்களில் தங்கி இருந்த அதிரடிப்படையினரும் மேட்டூர் பகுதிக்கு வர வழைக்கப்பட்டு
உள்ளனர். இவர்கள் நவீன ஆயுதங்களுடன் வீரப்பன் இருப்பிடத்தை நோக்கி விரைந்து
செல்கின்றனர். </p><p>
</p><p>
சரண் அடைய தயார் </p><p>
</p><p>
இதற்கிடையில் வீரப்பன் விவகாரத்தில் புதிய திருப்பம் ஏற்பட்டுள்ளது. வீரப்பனின்
நெருங்கிய கூட்டாளியும், வீரப்பனுக்கு வலதுகரமாக செயல் பட்டு வருபவனுமான சேத்துக் குளி
கோவிந்தன் டெலிபோன் மூலம் சில பத்திரிகை அலுவலகங்களுக்கு பேசினான். அப்போது அவன்,
வீரப்பன் உள்பட நாங்கள் அனைவரும் ஜனாதிபதி முன் சரண் அடைய தயாராக இருக்கிறோம், எனவே,
தமிழர் தேசிய இயக்க தலைவர் பழ.நெடுமாறன் தலைமையிலான தூதுக் குழுவை பேச்சுவார்த்தை நடத்த
காட்டுக்குள் அனுப்பி வையுங்கள் என்று கேட்டுக்கொண்டான். நெடுமாறனுடன் பேராசிரியர்
கல்யாணி, பெங்களூர் தமிழ் சங்க தலைவர் சண்முகசுந்தரம், கவுன்சிலர் பாரி, கொளத்தூர்
மணி ஆகியோரையும் அனுப்பி வைக்கும்படி கேட்டுக்கொண்டான். சேத்துக்குளி கோவிந்தன்
எங்கிருந்து பேசினான் என்பது தெரியவில்லை. </p><p>
</p><p>
நெடுமாறன் பதில் </p><p>
</p><p>
தமிழர் தேசிய இயக்கத்தின் மாநாடு வருகிற பிப்ரவரி மாதம் 10-ந்தேதி திருச்சியில்
நடைபெறுகிறது. இந்த மாநாட்டு வேலைக்காக பழ.நெடுமாறன் கடந்த 2 நாட்களாக நெல்லை,
தூத்துக்குடி மாவட்டங்களுக்கு சென்று விட்டு நேற்று (புதன்) காலை சென்னை திரும்பினார்.
அவரிடம் வீரப்பன் விவகாரம் பற்றி கேட்டபோது எதையும் தெரிவிக்க மறுத்து விட்டார். </p><p>
</p><p>
சிக்கினான்? </p><p>
</p><p>
இதற்கிடையில் சந்தன வீரப்பன் பிடிபட்டு விட்டான், அவனுடன் சேர்ந்து சேத்துக்குளி
கோவிந்தனும் சிக்கினான் என்ற செய்தி பரபரப்பாக வௌியானது. இதுபற்றி முதல்வர்
பன்னீர்செல்வத்திடம் கேட்டபோது, வீரப்பன் பற்றி இப்போது எந்த தகவலும் வரவில்லை,
அப்படி வந்தால் முதலில் உங்களுக்கு தெரியப்படுத்துவோம் என்று கூறினார். தமிழக உள்துறை
செயலாளர் நரேஷ்குப்தா கூறும் போது, சந்தன வீரப்பன் பதுங்கி உள்ள இடம் குறித்து சில
தகவல்கள் கிடைத்துள்ளன. அதன் அடிப்படையில் அதிரடிப்படை வீரர்கள் மற்றும் போலீசார் ஒரு
குறிப்பிட்ட பகுதியில் தேடுதல் வேட்டை நடத்தி வருகின்றனர். ராணுவ நடவடிக்கைபோல் இந்த
செயல்பாடு நடந்து வருகிறது என்று கூறினார். தமிழக போலீஸ் டி.ஜி.பி. நெயில்வால் கூறும்போது,
வீரப்பனை பிடிக்க சத்தியமங்கலம் காட்டு பகுதியில் அதிரடிப்படையினர் தீவிர தேடுதல்
வேட்டை நடத்தி வருகின்றனர். வீரப்பனை பிடித்து விடுவோம் என்ற நம்பிக்கை எங்களுக்கு
உள்ளது. அவன் மறைந்து இருக்கும் இடம் தெரிந்துள்ளதால் அவனை சுற்றி வளைக்க
அதிரடிப்படையினர் காட்டுக்குள் விரைந்துள்ளனர் என்றார். </p><p>
</p><p>
கடுமையான குழப்பம் </p><p>
</p><p>
வீரப்பனை பிடிக்கும் பணியில் ஈடுபட்டு, தற்போது சென்னை மாநகர போலீஸ் கமிஷனராக உள்ள
விஜயகுமார் திடீரென வீரப்பன் காட்டு பகுதிக்கு விரைந்துள்ளார். இதற்கான காரணம்
தெரியவில்லை. இதற்கிடையில் அதிரடிப்படை முகாமில் நடந்த குடியரசு தின விழாவின்போது பேசிய
இன்ஸ் பெக்டர் குபேந்திரன், இதுதான் காட்டில் நாம் கொண்டாடும் கடைசி குடியரசு தினம்.
நாம் என்ன நோக்கத்துக்காக வந்தோமோ அது நிறைவேறிக் கொண்டு இருக்கிறது, அடுத்த கொடி
ஏற்றத்தின்போது எல்லோரும் அவரவர் யூனிட்டில் இருப்பீர்கள் என்று கூறி உள்ளார். இவற்றை
பார்க்கும்போது வீரப்பன் விவகாரத்தில் ஒரு குழப்ப மான சூழ்நிலை உருவாகி உள்ளது. உண்மை
நிலையை தெரிவிக்க அரசு அதிகாரிகளும், அதிரடிப்படையினரும் மறுத்து வருகின்றனர். </p>

<p> </p>

<p> </p>

<p>தீவிரவாதிகள் மீது
நடவடிக்கை அறிவிப்புக்கு முன், ராஜினாமா செய்வேன் என்று முஷாரப் மிரட்டினார்: பாக்.
ராணுவத்தில் ஏற்பட்ட எதிர்ப்பு பற்றி திடுக்கிடும் தகவல்</p>

<p> </p>

<p>புதுடெல்லி, ஜன. 31 தீவிரவாத இயக்கங்கள் மீது தடை விதிக்கும்
நடவடிக்கைக்கு பாகிஸ்தான் ராணுவத் தில் கடும் எதிர்ப்பு கிளம்பியுள்ளது. இதை தொடர்ந்து
ராஜினாமா செய்யப்போவ தாக அதிபர் முஷாரப் மிரட்டியுள்ளார். </p><p>
</p><p>
பாகிஸ்தான் ராணுவ ஆட்சி அதிபர் முஷாரப் ஜனவரி 12-ந் தேதி உரையாற்றிய போது லஸ்கர்,
ஜெய்ஷ் போன்ற தீவிரவாத இயக்கங்கள் மீது தடை விதிக்கப்படுவ தாக அறிவித்தார். மேலும்
காஷ்மீர் பிரச்சினையிலும், இந்திய விவகாரங்கள் தொடர் பாகவும் மிதவாத அறிவிப்புகளை
வௌியிட்டார். </p><p>
</p><p>
கடும் எதிர்ப்பு </p><p>
</p><p>
இந்த அறிவிப்புகளை வௌியிடுவதற்கு முன் அவர் ராவல்பிண்டியில் உள்ள தனது ராணுவ
தலைமையகத்தில் முக்கிய தளபதிகளுடன் ஆலோசனை நடத்தியுள்ளார். அப்போது தளபதிகள்
அனைவரும் முஷாரப்புக்கு கடும் எதிர்ப்பு தெரிவித்துள்ளனர். </p><p>
</p><p>
இதையடுத்து முஷாரப் தனது பதவியை ராஜினாமா செய்யப் போவதாக மிரட்டி யுள்ளார். பின்னர்
சில மாற்றங்களுடன் முஷாரப்பின் உரைக்கு அவர்கள் அனுமதி அளித்துள்ளனர். </p><p>
</p><p>
இந்த தகவலை பாகிஸ்தானின் வாரப் பத்திரிகையான ''ஜஸரத்'' தெரிவித்துள்ளது. </p>

<p> </p>

<p> </p>

<p>9 நாளுக்கு பிறகு மவுனம்
கலைகிறது: வண்டலூர் பூங்காவில் உலவுவது, சிறுத்தை புலியாம் உயர் அதிகாரி தகவல்</p>

<p> </p>

<p>சென்னை, ஜன. 31- வண்டலூர் பூங்காவில் தப்பியது சிறுத்தை புலி
என்ற புதிய தகவலை 9 நாளுக்கு பிறகு பூங்கா இயக்குநர் தெரிவித்தார். </p><p>
</p><p>
வண்டலூர் பூங்காவில் இருந்து ஒரு சிங்கம் தப்பி வௌி வந்து விட்டதாகவும் அது
பூங்காவுக்கு வௌியே நடமாடி யதை பார்த்ததாகவும் சிலர் கூறினர். கடந்த 22ந் தேதி இரவு
வௌியான இந்த செய்்தியை பூங்கா அதிகாரிகள் மறுத்தனர். எங்கள் பூங்காவில் எல்லா
மிருகங்களும் அப்படியே உள்ளன. எதுவும் தப்பிச் செல்ல வில்லை என்று உயர் அதிகாரிகள்
கூறினர். வனத்துறை மந்திரி திருநாவுக்கரசும் இதே பல்லவியை பாடினார். இருப்பினும் அப்படி ஒரு
மிருகம் வௌியே சுற்றினால் அதை எப்படியும் பிடித்து விடுவோம் என்றும் அவர்
குறிப்பிட்டார். இதையடுத்து வண்டலூர் பூங்கா காலவரையின்றி மூடப்பட்டது. </p><p>
</p><p>
அதே சமயத்தில் இன்னொரு தகவலும் வௌியானது. அதாவது ஆண்டிப்பட்டியில் போட்டியிடும்
ஜெயலலிதா எந்த தடையுமின்றி வெற்றி பெறுவதற்காக பூங்காவில் மிருகங்கள் மத்தியில்
கடந்த ஒரு வாரமாக ரகசிய யாகம் நடப்பதால் தான் பூங்கா மூடப்பட்டு கிடப்பதாகவும் ஒரு
தகவல் கூறியது. அதனால் தான் சிங்கம் தப்பியதாக செய்தி வௌியான போதும் அதற்கு போலீஸ்
துணையை நாடாமல் வனத் துறையி னர் மட்டும் சிங்கத்தை தேடுவது போல வேட்டையில்
ஈடுபட்டனர். ஆனால் தைப் பூசத்துக்கு மறு நாள் உச்சகட்ட யாகம் முடிந்த பின்னர் தான்
இந்த மர்மமிருகம் பற்றிய வதந்திக்கு முற்றுப்புள்ளி வைக்கப்படும் என்றும் கூறப்பட்டது. </p><p>
</p><p>
சிறுத்தைப்புலி </p><p>
</p><p>
அதை மெய்ப்பிப்பது போல இப்போது வண்டலூர் பூங்காவில் உலவுவது சிறுத்தை புலி என்று அதன்
இயக்குநர் தியாகி நேற்று கூறி இருக்கிறார். இதற்கு முன்பு எங்கள் பூங்காவில் எந்த ஒரு
மிருகமும் தப்பவில்லை என்று கூறிய அதிகாரி நேற்று தான் முதன் முறையாக சிறுத்தைப் புலி
நடமாடுவதாக கூறி உள்ளார். இது குறித்து மேலும் அவர் கூறியதாவது:- </p><p>
</p><p>
பூங்கா அருகில் நடமாடுவது சிறுத்தை என்று தெரிய வந்து உள்ளது. அதை பிடிப்ப தற்காக தீவிர
வேட்டையில் ஈடுபட்டு உள்ளோம். இதற்காக 4 கூண்டுகளை வைத்து ஆட்டை கட்டி வைத்து இருக்கிறோம்.
ஆனால் ஒரு கூண்டின் அருகே அந்த மிருகம் வந்த போதிலும் இரையை எடுக்கவில்லை. கூண்டு அருகே
அந்த மிருகத் தின் கால் தடம் காணப்பட்டது. அது சிறுத்தை தான். பெண் சிங்கம் அல்ல. </p><p>
</p><p>
சிறுத்தைக்கு விரைவில் தளர்ச்சி ஏற்படும். எனவே இரை தேடி கூண்டுக்குள் நுழை யும்.அப்போது
அதை பிடித்துவிடுவோம். இது வரை அந்த மிருகம் யாரையும் தாக்கியதாக தகவல் எதுவும் இல்லை. </p><p>
</p><p>
இவ்வாறு அவர் கூறினார். </p><p>
</p><p>
பெண் சிங்கமா? </p><p>
</p><p>
இதற்கிடையில் பூங்கா ஊழியர் ஒருவர் கூறுகையில் எங்கள் பூங்காவில் ஒரு பெண் சிங்கம்
நோய் வாய்ப்பட்டதால் அதற்கு சிகிச்சை அளிப்பதற்காக தனியாக ஒரு கூண்டில் வைத்து இருந்தோம்.
அது தான் தப்பிவிட்டது. காணும் பொங்கலுக்கு முதல் நாளே இந்த சிங்கத்தை காணவில்லை. ஆனால்
அதிகாரிகள் தான் அது பற்றி வௌியே சொல்லக் கூடாது என்று கூறி விட்டனர். பார்வையாளர்களை
அந்த சிங்கம் தாக்கிவிடக் கூடாது என்று தான் பூங்காவையும் மூடி விட்டனர் என்றார். </p><p>
</p><p>
உள்ளூர் போலீசுக்கு தடை </p><p>
</p><p>
அதே சமயத்தில் இது பற்றி உள்ளூர் போலீசார் விசாரித்த போதும் அவர்களுக்கு எந்த தகவலும்
யாரும் சொல்லவில்லை. உள்ளேயும் விடவில்லை. இது பற்றி விரி வாக தகவல் வேண்டும்
என்றால் சென்னையில் உள்ள முக்கிய இடத்தின் பெயரைக் கூறி அங்கு போய் விசாரித்துக்
கொள்ளுங்கள் என்று மட்டும் பூங்கா அதிகாரிகள் கூறி உள்ளனர். அந்தப் பெயரை கேட்டதுமே
அலறிய போலீசார் நமக்கு ஏன் வம்பு என்று அமைதி காத்து வருகிறார்கள். </p>

<p> </p>

<p> </p>

<p>கொல்கத்தா தாக்குதல்:
தீவிரவாதிகளுக்கு ''பைக்'' கொடுத்தவன் கைது, மேலும் பலர் நகரில் பதுங்கல்- திடுக்கிடும்
தகவல்</p>

<p> </p>

<p>கொல்கத்தா, ஜன.31- கொல்கத்தா தாக்குதல் தொடர்பாக மேலும்
ஒருவனை போலீசார் நேற்று கைது செய்தனர். தீவிரவாதிகளுக்கு பைக் கொடுத்து உதவியவன் இவன். </p><p>
</p><p>
கொல்கத்தாவில் உள்ள அமெரிக்க தகவல் மையத்தில் தீவிரவாதிகள் தாக்குதல் நடத்தி
னார்கள் அல்லவா? இந்த நிலையில் ஜார்க்கண்ட் மாநிலத்தில் பதுங்கியிருந்த லஸ்கர்-இ-
தொய்பா இயக்கத்தை சேர்ந்த சாகித் மற்றும் சதக்கத் ஆகிய 2 பேர்
சுட்டுக்கொல்லப்பட்டனர். இவர்கள் மரண தறுவாயில் அளித்த வாக்குமூலத்தின்படி கொல்கத்தா
தாக்குதலில் ஈடுபட்டது இவர்கள் தான் என்று தெரியவந்தது. இதன் பின்னணியில்
செயல்பட்டவர்களை தனிப்படை போலீசார் வலைவீசி தேடி 2 பேரை கைது செய்தனர். மேலும் 2
பேர் தலைமறைவாக இருந்தார்கள். தீவிர விசாரணையில் அவர்கள் பற்றிய துப்பு துலங்கியது. </p><p>
</p><p>
மேலும் ஒருவன் கைது </p><p>
</p><p>
அதன்படி கொல்கத்தா நகரின் கிழக்குப்பகுதியில் உள்ள ஹஷாரிபாக் தில்ஜாலா என்ற இடத்தில்
ஒரு வீட்டில் பதுங்கியிருந்த ஜமாலுதீன் நாசர் என்பவனை போலீசார் நேற்று கைது செய்தனர்.
அந்த வீட்டில் இருந்து கொல்கத்தா சாலைகளின் வரைபடம், போலி அரசு முத்திரைகள், போலி
சி.பி.ஐ. அலுவலக தாள்கள், ரப்பர் ஸ்டாம்புகள் போன்றவை கைப்பற்றப்பட்டன. </p><p>
</p><p>
பைக் கொடுத்தான் </p><p>
</p><p>
நாசர் கொல்கத்தா தாக்குதலுக்கு உடந்தையாக இருந்தவன் என்பது தெரியவந்தது. கொல்கத்தா
மையத்தில் தாக்குதல் நடத்திய 2 தீவிரவாதிகளும் ஜோத்பூர் எக்ஸ்பிரஸ் ரெயிலில் கடந்த
16-ந்தேதி ஹவுரா வந்து உள்ளனர். அவர்களை நாசர் ரெயில் நிலையத்துக்கு சென்று வரவேற்று
இருக்கிறான். அவன் இதை போலீசாரிடம் ஒப்புக் கொண்டான். மேலும் பல தீவிரவாதிகள்
கொல்கத்தாவில் பதுங்கி இருப்பதாகவும் அவன் கூறினான். பின்னர் 2 பேரையும் தன்
வீட்டிலேயே தங்க நாசர் ஏற்பாடு செய்து, அவர்கள் தாக்குதல் நடத்தச் சென்ற போது
மோட்டார் பைக் ஒன்றையும் கொடுத்து உதவி இருக்கிறான். </p><p>
</p><p>
இதைத் தொடர்ந்து நாசர் கொல்கத்தா நகர மாஜிஸ்திரேட் கோர்ட்டில் ஆஜர்படுத்தப் பட்டு
காவலில் வைக்கப்பட்டான். அவன் மீது 6 பிரிவுகளின் கீழ் வழக்குப்பதிவு செய்யப்பட்டு
உள்ளது. நாசரும் லஸ்கர்-இ- தொய்பா இயக்கத்தை சேர்ந்தவன் என்பது குறிப்பிடத்தக்கது. </p>

<p> </p>

<p> </p>

<p> </p>

<p>55-வது நினைவு நாள்
அனுசரிப்பு: காந்தி சமாதியில் ஜனாதிபதி- பிரதமர் - தலைவர்கள் அஞ்சலி</p>

<p> </p>

<p>புதுடெல்லி,ஜன.31- தேசதந்தை மகாத்மா காந்தியின் 55-வது நினைவு
தினம் நேற்று அனுசரிக்கப் பட்டது.அதையொட்டி டெல்லியில் உள்ள காந்தி சமாதியில்
ஜனாதிபதி கே.ஆர். நாராயணன் பிரதமர் வாஜ்பாய், காங்கிரஸ் தலைவர் சோனியா காந்தி
மற்றும் தலைவர்கள் மலர் அஞ்சலி செலுத்தினர். </p><p>
</p><p>
ஆண்டு தோறும் ஜனவரி மாதம் 30-ந்தேதி மகாத்மா காந்தி நினைவு தினம் அனு சரிக்கப்படுகிறது
அதன்படி நேற்று அவர் நினைவு தினம் அனுசரிக்கப்பட்டது. </p><p>
</p><p>
டெல்லியில் உள்ள காந்தி சமாதியில் நேற்றுஜனாதிபதி கே.ஆர். நாராயணன், பிரதமர்
வாஜ்பாய், காங்கிரஸ் தலைவர் சோனியாகாந்தி, மத்திய மந்திரிகள் அத்வானி, ஜார்ஜ் பெர்னாண்டஸ்,
முன்னாள் பிரதமர் குஜ்ரால், டெல்லி முதலமைச்சர், ஷீலா தீட்சத் உள்பட ஏராளமானவர்கள்
மலர் தூவி அஞ்சலி செலுத்தினர். </p><p>
</p><p>
அனைத்து மதபிரார்த்தனை </p><p>
</p><p>
முன்னதாக சமாதி அருகே அனைத்துமத பிரார்த்தனை கூட்டம் நடந்தது. அதில் சோனியா காந்தி
கலந்து கொண்டார். முதல் முதலாக வந்த அவர் அங்கு அரை மணி நேரம் இருந்தார். </p><p>
</p><p>
காலை 11 மணிக்கு 2 நிமி டம் மவுன அஞ்சலி செலுத்தப்பட்டது. அப்போது முப்படை
வீரர்கள் அணிவகுப்பு மரியாதை செலுத்தினர். </p><p>
</p><p>
தொழுநோய் ஒழிப்பு தினம் </p><p>
</p><p>
டெல்லி இளைஞர்கள் சார்பில் காந்திக்கு இசை அஞ்்சலி செலுத்தப்பட்டது </p><p>
</p><p>
காந்தி நினைவு தினம் தொழுநோய் ஒழிப்பு தினமாகவும் அனுசரிக்கப்படுகிறது. </p><p>
</p><p>
காந்தி பொருட்காட்சி சார்பில் அவருடைய கடைசி காலம் பற்றிய கண்காட்சி நடந்தது. அதில்
100 படங்கள் இடம் பெற்று இருந்தன. நவகாளி,கொல்கத்்தா, டெல்லி ஆகிய இடங்களில் நடந்த
மதகலவரங்களை அடக்க காந்தி தனியாக மேற்கொண்ட பாதயாத்திரை பற்றிய படங்கள்
பாராட்டும்படி அமைந்து இருந்தது. </p>

<p> </p>

<p> </p>

<p>எம்.ஜி.ஆர். பல்கலை.
துணைவேந்தர் பதவிக்கான பரிந்துரை பட்டியலை கவர்னர் ஏற்க கூடாது, டாக்டர் ராமதாஸ்
கோரிக்கை</p>

<p> </p>

<p>சென்னை, ஜன.31- எம்.ஜி.ஆர். மருத்துவ பல்கலைக்கழக புதிய துணை
வேந்தர் பதவிக்கான பரிந்துரை பட்டியலை ஏற்க கூடாது என்று கவர்னருக்கு பா.ம.க நிறுவனர்
ராமதாஸ் கோரிக்கை விடுத்துள்ளார். </p><p>
</p><p>
இது குறித்து பா.ம.க நிறுவனர் டாக்டர் ராமதாஸ் வௌியிட்டுள்ள அறிக்கை வருமாறு:- </p><p>
</p><p>
எம்.ஜி.ஆர் மருத்துவ பல்கலைக்கழகத்திற்கு புதிய துணை வேந்தரை நியமிப்பதற் காக
பரிந்துரைக்கப்பட்டுள்ள பெயர் பட்டியலை தயாரித்ததில் இதுவரை கடைபிடிக் கப்பட்டு வந்த
மரபு மீறப்பட்டு இருக்கிறது. எனவே அந்த பட்டியலை மாநில கவர்னர் நிராகரித்து திருப்பி
அனுப்ப வேண்டும். அத்துடன் புதிய பெயர் பட்டிய லை பரிந்துரைப்பதற்காக புதிய குழுவையும்
நியமிக்க கவர்னர் நடவடிக்கை எடுக்க வேண்டும். </p><p>
</p><p>
ஆனந்த கண்ணன் பெயரில்லை </p><p>
</p><p>
எம்.ஜி.ஆர். மருத்துவ பல்கலைக்கழக துணைவேந்தரின் பதவி காலம் ஜனவரி 27-ந் தேதியுடன்
முடிவடைந்து விட்டது. புதிய துணைவேந்தரை நியமிப்பதற்கு பெயர் பட்டியலை தேர்வு செய்வதற்கு
அமைக்கப்பட்ட குழுவினர் மூவரின் பெயரை சிபாரிசு செய்து இருக்கிறார்கள். ஆனால் அந்த
பட்டியலில் தற்போதைய துணை வேந்தர் டாக்டர். ஆனந்தகண்ணனின் பெயர் இடம் பெறவில்லை.
ஆனால் பட்டிய லை தயாரிக்கும் போது பதவியில் இருக்கும் துணை வேந்தரின் பெயரையும் பட்டிய
லில் சேர்த்து அனுப்புவது தான் இதுவரை மரபாக கடை பிடிக்கப்பட்டு வந்திருக்கிறது. </p><p>
</p><p>
அரசியல் குறுக்கீடு </p><p>
</p><p>
தேர்வு குழுவினரால் பரிந்துரைக்கப்பட்டுள்ள மூவரின் பின்னணி தான் இதற்கு கார ணம் என்ற
சந்தேகம் எழுந்து உள்ளது. குற்றச்சாட்டுகளுக்கும் புகார்களுக்கும் இலக் கானவர்கள் என்று
கருதப்படுவோரின் பெயர்களை பட்டியலில் சேர்த்து சிபாரிசு செய்திருப்பது இன்றைய அரசியலில்
செல்வாக்கு படைத்திருப்போரின் குறுக்கீடுதான் காரணம் என்று கூறப்படுகிறது. </p><p>
</p><p>
இந்த நிலையில் மரபை மீறி தயாரிக்கப்பட்டுள்ள பெயர் பட்டியலை கவர்னர் ஏற்றுக் கொள்ள
கூடாது. மரபின் படி தற்போதைய துணைவேந்தரின் பெயரையும் சேர்த்து புதிய பட்டியலை
அனுப்புவதற்கான நடவடிக்கையை கவர்னர் எடுக்க வேண்டும் என்று கேட் டுக்கொள்கிறேன். </p><p>
</p><p>
இவ்வாறு கூறியுள்ளார். </p>

<p> </p>

<p> </p>

<p>கட்டண உயர்வை வாபஸ் பெறாவிட்டால்,
மாநிலம் முழுவதும் ஒளிபரப்பை நிறுத்துவோம், கேபிள் டி.வி.ஆபரேட்டர்கள் உண்ணாவிரத
போரில் தீர்மானம்</p>

<p> </p>

<p>சென்னை, ஜன. 31- கடுமையான கட்டண உயர்வை வாபஸ் பெறாவிட்டால்
மாநிலம் முழுவதும் கேபிள் டி.வி. ஒளிபரப்பை நிறுத்துவோம் என்று கேபிள் டி.வி.
ஆபரேட்டர்கள் நேற்று நடத்திய உண்ணாவிரத போராட்டத்தில் தீர்மானம்
நிறைவேற்றினார்கள். </p><p>
</p><p>
தமிழக கேபிள் டி.வி. ஆபரேட்டர்கள் பொது நல சங்கம் சார்பில் நேற்று சென்னையில் உள்ள
அரசு விருந்தினர் மாளிகை முன் உண்ணாவிரத போராட்டம் நடைபெற்றது. </p><p>
</p><p>
மாநில தலைவர் சகிலன் தலைமை தாங்கினார். ஆலோசகர் பா.கருணாநிதி , பொரு ளாளர்
ஆர்.நீலகண்டன் முன்னிலை வகித்தனர். மற்றும் நிர்வாகிகள் ஜே.சீனிவாசன்,
எஸ்.கே.பாஸ்கர், சிவப்பிரகாசம், தைரியநாதன், ஜி.கிருஷ்ணன், ஆர்.சுந்தரி, தணிகைவேல்,
கே.ஏ.கார்த்திக், கோபிநாத் உள்பட நூற்றுக்கும் மேற்பட்ட கேபிள் ஆபரேட்டர்கள் கலந்து
கொண்டனர். </p><p>
</p><p>
5 தீர்மானங்கள் </p><p>
</p><p>
இதில் 5 தீர்மானங்கள் நிறைவேற்றப்பட்டன. அதன் விவரம் வருமாறு:- </p><p>
</p><p>
கட்டண சானல்களுடன் இணைந்து எம்.எஸ்.ஓ. நிறுவனங்களும் உயர்த்தியுள்ள கட்டண உயர்வை
திரும்ப பெற வேண்டும். </p><p>
</p><p>
கடுமையான கட்டண உயர்வை கட்டண சானல்கள் வாபஸ் பெறாவிட்டால் மாநிலம் முழுவதும் கட்டண
சானல்களின் ஒளிபரப்பை நிறுத்தி வைக்க வேண்டிய நிலை ஏற்படும். </p><p>
</p><p>
கட்டண சானல்களின் கண்மூடித்தனமான விலை உயர்வை கட்டுப்படுத்த மத்திய அரசு முயற்சி எடுத்து
ஒழுங்குபடுத்த வேண்டும். </p><p>
</p><p>
தொலைபேசி கட்டணத்தை உயர்த்த ஒழுங்கு முறை ஆணையம் (டி.ஆர்.ஐ) போல முறையற்ற இந்த கட்டண
சானல்களை கட்டுப்படுத்த மத்திய அரசு உடனடியாக ஒரு ஒழுங்குமுறை ஆணையம் அமைக்க வேண்டும் என்று
கேட்டுக்கொள்கிறோம். </p><p>
</p><p>
ஒழுங்கு முறை ஆணையம் </p><p>
</p><p>
விளம்பரத்தின் மூலமாக வரும் வருமானத்தையும் கட்டண சானல்கள் மூலமாக வரும் வருமானத்தையும்
வௌிநாட்டு செயற்கைகோள் நிறுவனங்கள் எடுத்து செல்வதால் இந்திய திருநாட்டில் பணவீக்கம்
ஏற்படும். இதை மத்திய அரசு கட்டுப்படுத்த வேண்டும். </p><p>
</p><p>
இவ்வாறு தீர்மானங்கள் நிறைவேற்றப்பட்டன. </p>

<p> </p>

<p> </p>

<p>2 காஷ்மீர் இயக்கங்கள்
மீது நடவடிக்கை நிச்சயம் அமெரிக்க அதிகாரிகள் உறுதி</p>

<p> </p>

<p>வாஷிங்டன், ஜன.31- 2 காஷ்மீர் இயக்கங்கள் மீது நிச்சயமாக
நடவடிக்கை எடுப்போம் என்று அமெரிக்க அதிகாரிகள் உறுதி அளித்துள்ளனர். </p><p>
</p><p>
அமெரிக்க மூத்த அதிகாரிகள் கூறியதாவது:- </p><p>
</p><p>
உலகம் முழுவதும் 60 நாடுகளில் மொத்தம் ஒரு லட்சம் தீவிரவாதிகள் உள்ளனர். இந்த ஒரு
லட்சம் பேரும் பல்வேறு இயக்கங்களை சேர்ந்தவர்கள். இவர்கள் அனை வர் மீதும் அமெரிக்கா
நடவடிக்கை எடுக்கும். பிலிப்பைன்ஸ் நாட்டில் உள்ள தீவிர வாதிகள், காஷ்மீரில் செயல்படும்
லஷ்கர்-இ- தொய்பா-,ஜெய்ஸ்-இ-முகமது இயக்கங்களும் அதில் அடங்கும். </p><p>
</p><p>
இவ்வாறு அவர்கள் கூறினர். </p>

<p> </p>

<p> </p>

<p>ஏப்ரல் 1-ந்தேதி முதல்
பெட்ரோல்- டீசல் விலை குறைகிறது, மதுபானம்-சிகரெட் விலை உயர்த்த மத்திய அரசு திட்டம்</p>

<p> </p>

<p>புதுடெல்லி, ஜன.31- பெட்ரோல், டீசல் விலையை ஏப்ரல் 1-ந்தேதி
முதல் குறைக்க மத்திய அரசு திட்டமிட்டு உள்ளது. அதே நேரம் சிகரெட், மதுபானங்களின் விலை
உயரக்கூடும். </p><p>
</p><p>
பெட்ரோலிய பொருள்களுக்கு தற்போது விலை நிர்ணய முறை மத்திய அரசால் பின்பற்றப்படுகிறது.
இது வருகிற ஏப்ரல் 1-ந் தேதி முதல் கைவிடப்படுகிறது. அதற்குப் பிறகு பெட்ரோலிய
பொருள்களின் விலையை ஆயில் கம்பெனிகளே முடிவு செய்யும். </p><p>
</p><p>
விலை குறையும் </p><p>
</p><p>
இப்போது பெட்ரோல் 30 ரூபாய், டீசல் 18 ரூபாய் என்ற நிலையில் உள்ளது. ஆனால் சர்வதேச
கச்சா எண்ணெய் விலை பீப்பாய்க்கு ரூ.1440-ல் இருந்து ரூ.936 ஆக வீழ்ந்து உள்ளது. இந்த
குரூட் ஆயில் விலை சரிவால், பெட்ரோல், டீசல் விலையை ஆயில் கம்பெனிகள் குறைக்கும் என்று
எதிர்பார்க்கப்படுகிறது. </p><p>
</p><p>
மத்திய அரசின் விலை நிர்ணய திட்டம் ஏப்ரல் 1-ந்தேதி முதல் ரத்து ஆவதால், உடனடியாக
ஆயில் கம்பெனிகள் விலையைகுறைக்கும் என்று எதிர்பார்க்கப்படுகிறது. </p><p>
</p><p>
அதன்படி பெட்ரோல் லிட்டருக்கு 2 ரூபாய் முதல் 3 ரூபாய் வரை குறையும். டீசல் லிட்டருக்கு 30
காசு முதல் 50 காசு வரை குறையும் என்று கருதப்படுகிறது. </p><p>
</p><p>
சமையல் வாயு விலை மாற்றம் இல்லை </p><p>
</p><p>
மண்எண்ணெய், சமையல் வாயு சிலிண்டர் விலை குறைப்பது பற்றி பெட்ரோலிய கம்பெனிகள்
இன்னும் முடிவு செய்யவில்லை. அரசின் மானியம் குறைக்கப்படுவதால் காஸ் சிலிண்டர் விலை
லேசாக உயரும் என்று தெரிகிறது. ரேசன் மண்எண்ணெய் க்கு 33 சதவீத மானியம் தொடருவதால்,
அதன் விலையில் மாற்றம் இருக்காது என்று கருதப்படுகிறது. </p><p>
</p><p>
சிகரெட்-மதுபானம் விலை உயரும் </p><p>
</p><p>
மத்திய பட்ஜெட்டில் ''அனைத்து குழந்தைகளுக்கும் கல்வி'' என்ற திட்டத்துக்கு தனியாக நிதி
திரட்ட திட்டம் வகுக்கப்பட்டு உள்ளது. மத்திய மனிதவள மேம்பாட்டு அமைச்சர் முரளி மனோகர்
ஜோஷி இதற்கு பிரத்யேகமாக ''செஸ்'' வரி விதிக்க, நிதி அமைச்சகத்தை கேட்டு உள்ளார். </p><p>
</p><p>
அதன்படி சிகரெட் மற்றும் மதுபானம் ஆகிய 2 வகை பொருள்களுக்கும் தனி வரி விதித்து கல்வி
நிதி திரட்ட முடிவு செய்யப்பட்டு உள்ளது. 2 சதவீதம் முதல் 5 சதவீதம் வரை இந்த தனி வரி
விதிக்கப்படும் என்று மத்திய அரசு உயர் அதிகாரி ஒருவர் தெரிவித்தார். </p><p>
</p><p>
இதனால் சிகரெட், மது பானங்கள் விலை உயருகிறது. </p>

<p> </p>

<p> </p>

<p> </p>

<p>பாக். கிரிமினல்
பட்டியலில் அத்வானி பெயர்: பைத்தியக்காரத்தனத்துக்கு, இந்தியா கடும் கண்டனம்</p>

<p> </p>

<p>இஸ்லாமாபாத், ஜன. 31- பாகிஸ்தான் இந்தியாவிடம் ஒப்படைக்க
கோரும் கிரிமினல்கள் பட்டியலில் உள்துறை மந்திரி அத்வானியின் பெயரும் இடம் பெறும் என்ற
பைத்தியக்காரத்தனமான தகவல் வௌியானது. இது பாகிஸ்தானின் சிறுபிள்ளைத்தனம் என்று
இந்தியா உடனடியாக கண்டனம் தெரிவித்துள்ளது. </p><p>
</p><p>
இந்தியாவில் வன்முறை, கடத்தல், கொலைகளில் ஈடுபட்டு விட்டு பாகிஸ்தானில் ஒளிந்துள்ள
20 கிரிமினல் தீவிரவாதிகளை எங்களிடம் ஒப்படைக்க வேண்டும் என்று பாகிஸ்தானுக்கு இந்தியா
கோரிக்கை விடுத்துள்ளது தெரிந்ததே. </p><p>
</p><p>
ஏட்டிக்குபோட்டி </p><p>
</p><p>
இதற்கு ஏட்டிக்குப் போட்டியாக இந்தியாவும் நாங்கள் கேட்கும் தீவிரவாதிகளை எங்களிடம்
ஒப்படைக்க வேண்டும் என்று பாகிஸ்தான் கூறியது. அதற்கான பெயர் பட்டியலையும் பாக்.
தயாரித்து வருகிறது. </p><p>
</p><p>
அத்வானி பெயர் </p><p>
</p><p>
இதற்கிடையில் பாகிஸ்தான் அளிக்க உள்ள கிரிமினல்கள் பட்டியலில் இந்தியாவின் உள் துறை
மந்திரியான அத்வானியையே சேர்க்க இருப்பதாக பாகிஸ்தானின் ''தி நியூஸ்'' பத்திரிகை செய்தி
வௌியிட்டுள்ளது. </p><p>
</p><p>
1947-ல் முகமது அலி ஜின்னாவை கொல்ல முயன்ற வழக்கில் அத்வானியை தேடி வந்ததாகவும், அதை
தொடர்ந்தே இப்போது அவரை இந்த பட்டியலில் சேர்க்க இருப்பதாகவும் அந்த செய்தி கூறுகிறது.
ஆனாலும் இந்த தகவல் உண்மையானது தானா என்று பாகிஸ்தான் வௌியுறவு துறை விசாரித்து வருகிறதாம்.
</p><p>
</p><p>
பெயர் குறிப்பிடாமல் வட்டார தகவல் என்று அந்த பத்திரிகை வௌியிட்டுள்ள செய்தியில்
மேலும் கூறியிருப்பது வருமாறு:- </p><p>
</p><p>
18 பேர் சேர்ப்பு </p><p>
</p><p>
கவர்னர் ஜெனரலாக இருந்த ஜின்னா, அப்போதைய பிரதமர் லியாகத் அலி மற்றும் பாக்.
தலைவர்களை கொல்ல சதி திட்டம் தீட்டியதாக 1947 செப்டம்பர் 10-ந்தேதி எப்.ஐ.ஆர்.
அறிக்கை தயாரிக்கப்பட்டது. அதில் இடம் பெற்றிருந்த 18 பேரில் 6 பேரை மட்டுமே கைது
செய்ய முடிந்தது. அத் வானி உள்பட மற்ற 12 பேர் தலை மறைவானதாக அறிவிக்கப்பட்டது. அதில்
இருந்து இந்த வழக்கு கிடப்பில் கிடக்கிறது. </p><p>
</p><p>
அத்வானி உள்பட மேலும் சில விசுவ இந்து பரிஷத் தலைவர்களையும் ஒப்படைக்கு மாறு பாகிஸ்தான்
கேட்க கூடும். </p><p>
</p><p>
மேற்கண்டவாறு அந்த செய்தியில் கூறப்பட்டுள்ளது. </p><p>
</p><p>
இந்தியா சூடான பதில் </p><p>
</p><p>
பாகிஸ்தானின் இந்த செயலுக்கு இந்தியா நேற்று உடனடியாக பதில் அளித்தது. </p><p>
</p><p>
இதுகுறித்து இந்திய வௌியுறவு அதிகாரி நேற்று டெல்லியில் கூறுகையில், பாக். பத்திரிகையில்
வௌியான இந்த செய்தி உண்மையானதாக இருக்காது. அப்படியே உண்மையாக இருக்குமானால் அது
பாகிஸ்தானின் சிறுபிள்ளைத்தனத்தை காட்டுவதா கவே அமையும். 1970-ம் ஆண்டுகளில்
இந்தியாவின் தகவல் ஒளிபரப்பு மந்திரியாக இருந்த அத்வானி பாகிஸ்தான் அரசின்
விருந்தினராக அந்த நாட்டுக்குச் சென்று வந்தது நினைவுகூறத்தக்கது என்றார். </p><p>
</p><p>
இந்தியா 10 லட்சம் துருப்புகளை குவித்து அச்சுறுத்துகிறது பாக். மந்திரி அலறல் </p><p>
</p><p>
இஸ்லாமாபாத், ஜன. 31- எல்லையில் இந்தியா 10 லட்சம் துருப்புகளை குவித்து வைத்து எங்களை
அச்சுறுத்துகிறது என்று பாகிஸ்தான் வௌியுறவு மந்திரி அப்துல் சத்தார் நேற்று
இஸ்லாமாபாத்தில் நிகழ்ச்சி ஒன்றில் பேசும் போது கூறினார். பேச்சுவார்த்தை நடத்தும்படி
ஐ.நா.சபை கூறுவதையும் இந்தியா ஏற்க மறுப்பது துரதிர்ஷ்டவசமானது என்று அவர் மேலும் கூறினார்.
</p>

<p> </p>

<p> </p>

<p>அமெரிக்க பத்திரிகையாளரை
விடுதலை செய்க, தீவிரவாதிகளுக்கு ஈ-மெயில்</p>

<p> </p>

<p>நியூயார்க், ஜன.31- அமெரிக்க பத்திரிக்கை நிருபர் டேனியல்
பியர்ல் சிறைப்பிடிக்கப்பட்டிருக்கிறார். அவரை விடுதலை செய்ய சொல்லி பியர்ல்
பத்திரிக்கை அதிகாரிகள் தீவிரவாத அமைப்பிற்கு இ-மெயில் ஆனுப்பியுள்ளனர். </p><p>
</p><p>
அமெரிக்காவை சேர்ந்த பத்திரிகை நிருபர் டேனியல் பியர்ல். பாகிஸ்தானுக்கு செய்தி
சேகரிக்கச் சென்ற இவரை பாக். ஆதிக்க எதிர்ப்பு இயக்கம் என்ற தீவிரவாதிகள் இயக்கம்
சிறை பிடித்து சித்ரவதை செய்து வருகிறது. பியர்லை துப்பாக்கி முனையில் மிரட்டி
வைத்திருக்கும் படங்களையும் அந்த இயக்கம் வௌியிட்டு, பியர்லை விடுவிக்க வேண்டுமானால்
ஆப்கானில் அமெரிக்கா சிறை பிடித்த பாக். தீவிரவாதி களை நல்லமுறையில் நடத்த வேண்டும்
என்பது உள்பட சில நிபந்தனைகளை விதித்தனர். </p><p>
</p><p>
இந்த நிலையில் அமெரிக்கா கேட்டுக்கொண்டபடி பியர்லை விடுவிக்க பாக். நடவடிக்கை
எடுப்பதாக ஒப்புக் கொண்டது. இதற்கிடையில் பியர்ல் வேலை பார்த்த பத்திரிகையின்
ஆசிரியர் பியர்லை விடுவிக்கும்படி பாக். தீவிரவாத அமைப்புக்கு ஈ-மெயில் அனுப்பி
உள்ளார். </p>

<p> </p>

<p> </p>

<p>பெண்ணை மானபங்கப்படுத்திய
வழக்கு: 8 பேரை விடுவித்த மாஜிஸ்திரேட் மீது நடவடிக்கை, ஐகோர்ட்டு உத்தரவு</p>

<p> </p>

<p>சென்னை,ஜன.31- பெண்ணை மானபங்கபடுத்திய வழக்கில் 8 பேரை விடுதலை
செய்த மாஜிஸ்திரேட் மற்றும் போலீசார் மீது உரிய நடவடிக்கை எடுக்க சென்னை ஐகோர்ட்டு
உத்தரவிட்டு உள்ளது. </p><p>
</p><p>
கோவை அருகே ஆனை மலை பகுதியில் வசித்து வந்த பெண் நவசக்தி. இவரது வீட்டிற்கு கடந்த
20-4-99 அன்று போலீஸ் சப்இன்ஸ் பெக்டர் உள்பட பலர் பயங்கர ஆயுதங்களுடன் சென்று
தாக்கினர். அப்போது நவசக்தியை மானபங்கப்படுத்த முயற்சி செய்தனர். பின்னர் அவர்கள்
தப்பி ஓடி விட்டனர். இதனால் போலீஸ் சப் இன்ஸ்பெக்டர் உள்பட பலர் மீது போலீசார்
வழக்கு பதிவு செய்தனர். இந்த வழக் கில் போலீசார் விசாரணை நடத்தி பொள்ளாச்சி
ஜுடிசியல் மாஜிஸ்திரேட் கோர்ட்டில் குற்றப்பத்திரிகை தாக்கல் செய்தனர். </p><p>
</p><p>
விடுதலை </p><p>
</p><p>
இந்த வழக்கை மாஜிஸ்திரேட் விசாரித்து சாட்சிகள் கோர்ட்டுக்கு வராததால் அனைவ ரையும்
விடுதலை செய்து தீர்ப்பு கூறினார். இந்த தீர்ப்பை எதிர்த்து பெண் நவசக்தி சென்னை
ஐகோர்ட்டில் அப்பீல் செய்தார். இந்த அப்பீல் வழக்கை நீதிபதி கற்பக விநாயகம்
விசாரித்து தீர்ப்பு கூறினார். </p><p>
</p><p>
நீதிபதி தீர்ப்பில் கூறி இருப்பதாவது:- </p><p>
</p><p>
பெண்ணை மானபங்கப்படுத்திய வழக்கில் சாட்சிகள் விசாரணைக்கு வரவில்லை என்று காரணம் கூறி
8 பேரை விடுதலை செய்து மாஜிஸ்திரேட் தீர்ப்பு கூறியது தவறானது. அதை ரத்து செய்கிறேன்.
இந்த வழக்கை விசாரித்த ஜுடிசியல் மாஜிஸ் திரேட், இதில் ஆஜரான உதவி அரசு வக்கீல், ஆனை
மலை சப்இன்ஸ்பெக்டர் உள்பட 8 பேர் மீது மாவட்ட கலெக்டர் இலாகா பூர்வ நடவடிக்கை எடுக்க
வேண்டும். </p><p>
</p><p>
இவ்வாறு நீதிபதி தீர்ப்பில் கூறி உள்ளார். </p>

<p> </p>

<p> </p>

<p>விடுதலைப்புலிகளை
ராணுவத்தில் சேர்க்க திட்டம், துணை தளபதி சொல்கிறார்</p>

<p> </p>

<p>கொழும்பு, ஜன.31- புலிகளை ராணுவத்தில் சேர்க்க இலங்கை அரசு
திட்டமிட்டு இருப்பதாக துணை தளபதி தெரிவித்தார். </p><p>
</p><p>
அமைதி பேச்சு </p><p>
</p><p>
இலங்கையில் சுமார் 20 ஆண்டாக நீடித்துவரும் தமிழர் பிரச்சினைக்கு அமைதி தீர்வு ஏற்படும்
சூழ்நிலை உருவாகி வருகிறது. நார்வே தூதுக்குழு இலங்கை அரசு - விடுதலைப் புலிகள் இடையே
அமைதி பேச்சில் நல்ல முன்னேற்றத்தை ஏற்படுத்தி உள்ளது. அடுத்த மாதம் நிரந்தர சண்டை
நிறுத்த ஒப்பந்தமும் ஏற்பட உள்ளது. </p><p>
</p><p>
ராணுவத்தில்... </p><p>
</p><p>
இதில் புதிய முன்னேற்றமாக விடுதலைப்புலிகளை ராணுவத்தில் சேர்த்துக் கொள்ள இலங்கை அரசு
திட்டமிட்டு இருப்பதாக தகவல் வௌியாகி உள்ளது. இது தொடர் பாக ராணுவ துணை தளபதி லயோனல்
பாலகலி கூறியதாவது:- </p><p>
</p><p>
விடுதலைப்புலிகளை ராணுவத்தில் எந்த அடிப்படையில் சேர்ப்பது என்பது பற்றி ராணுவம்
ஆலோசித்து வருகிறது. அரசுடன் உடன்பாடு ஏற்பட்ட பிறகு இதுபற்றி முடிவு எடுக்கப்படும். </p><p>
</p><p>
இவ்வாறு கூறினார். </p>

<p> </p>

<p> </p>

<p>கருணாநிதி கைது விவகாரம்:
ராமன் கமிஷனுக்கு தடை கோரிய வழக்கில், அரசுக்கு ஐகோர்ட்டு நோட்டீசு</p>

<p> </p>

<p>சென்னை,ஜன.31- கருணாநிதியை கைது செய்த விவகாரம் தொடர்பாக
நீதிபதி ராமன் கமிஷன் நடத்தும் விசாரணைக்கு தடை விதித்து தாக்கல் செய்த வழக்கில்
பதில் மனு தாக்கல் செய்ய அரசுக்கு ஐகோர்ட்டு நோட்டீசு அனுப்பி உள்ளது. </p><p>
</p><p>
தேசிய மனித உரிமை பேரவையை சேர்ந்த சந்திரசேகரன் என்பவர் சென்னை ஐகோர்ட்டில் தாக்கல்
செய்த வழக்கில் கூறி இருப்பதாவது:- </p><p>
</p><p>
மேம்பால ஊழல் வழக்கு தொடர்பாக முன்னாள் முதல்வர் கருணாநிதியை கடந்த ஆண்டு ஜுன் மாதம்
29-ந் தேதி நள்ளிரவில் போலீசார் கைது செய்தனர். அப்போது அங்கு வந்த மத்திய
மந்திரிகள் முரசொலிமாறன், டி.ஆர்.பாலு ஆகியோரை போலீ சார் தரக்குறைவாக பேசி
தாக்கினார்கள். சுப்ரீம்கோர்ட்டு விதித்த 11 விதிமுறைகளை பின்பற்றாமல் போலீசார்
செயல்பட்டு உள்ளனர். போலீசார் மனித உரிமை மீறல் செய்து உள்ளனர். </p><p>
</p><p>
கமிஷன் </p><p>
</p><p>
கருணாநிதி கைது செய்யப்பட்ட விதம் மனித உரிமை மீறலாக இருந்ததால் தேசிய மனித உரிமை
கமிஷன் விசாரணை நடத்தியது. இது தொடர்பாக தமிழக தலைமை செயலாளர், போலீஸ் டி.ஜி.பி
ஆகியோர் பதில் மனு தாக்கல் செய்ய விளக்கம் கேட்டு நோட்டீசு அனுப்பப்பட்டது. கடந்த
2-7-2001 அன்று இந்த நோட்டீசு அனுப்பப்பட்டது. </p><p>
</p><p>
நியமனம் </p><p>
</p><p>
மனித உரிமை கமிஷன் விசாரணை நடத்தி வரும் போது தமிழக அரசு அவசர அவசரமாக போலீசாரை
காப்பாற்ற வேண்டும் என்ற நோக்கத்தில் ஓய்வு பெற்ற நீதிபதி ராமன் தலைமையில் ஒரு நபர்
விசாரணை கமிஷனை அமைத்தது. இது சட்டவிரோத மானது. ஒரே சம்பவத்திற்கு இப்படி இரண்டு
விசாரணை நடப்பது நியாயமற்றது. </p><p>
</p><p>
அதிகாரம் </p><p>
</p><p>
மனித உரிமை கமிஷன் விசாரணை நடக்கும் போது ராமன் கமிஷனை அமைக்க அரசுக்கு அதிகாரம்
இல்லை. ஆகவே கமிஷன் அமைக்க கடந்த 7-7-2001 அன்று பிறப்பித்த உத்தரவை ரத்து செய்ய
வேண்டும். இந்த உத்தரவுக்கு கோர்ட்டு இடைக்கால தடை விதிக்க வேண்டும். </p><p>
</p><p>
இவ்வாறு அவர் வழக்கில் கூறி உள்ளார். </p><p>
</p><p>
பதில் மனு </p><p>
</p><p>
இந்த வழக்கை தலைமை நீதிபதி சுபாஷன்ரெட்டி, நீதிபதி சுப்புலட்சுமி ஆகியோர் விசாரித்து
தமிழக அரசு அடுத்த வாரம் வியாழக்கிழமை விரிவான பதில் மனு தாக்கல் செய்ய நோட்டீசு அனுப்ப
உத்தரவிட்டனர். </p>

<p> </p>

<p> </p>

<p>ஆப்கானை தொடர்ந்து
பிலிப்பைன்ஸ் தீவிரவாதிகளுடன் அமெரிக்கா இன்று போர், தாக்குதலுக்காக படை குவிக்கிறது</p>

<p> </p>

<p>சாம்போங்கா, ஜன.31- ஆப்கானை தொடர்ந்து பிலிப்பைன்ஸ் நாட்டில்
உள்ள முஸ்லிம் தீவிரவாதிகள் மீது அமெரிக்கா இன்று போர் தொடுக்கிறது. </p><p>
</p><p>
ஆப்கான் நாட்டை ஆட்டிப்படைத்து வந்த தலிபான் அரசு மற்றும் பின்லேடனின் அல்- கொய்தா
இயக்க தீவிரவாதிகளை அமெரிக்கா குண்டுவீசி அழித்தது அல்லவா? இந்த பயங்கரவாத
எதிர்ப்பு போரை உலகம் முழுவதும் நடத்த அமெரிக்கா திட்ட மிட்டு உள்ளது. </p><p>
</p><p>
பிலிப்பைன்ஸ் </p><p>
</p><p>
இந்த நிலையில் அமெரிக்காவின் கவனம் தற்போது தென் கிழக்கு ஆசிய நாடான பிலிப்பைன்ஸ்
மீது திரும்பியுள்ளது. பிலிப்பைன்ஸ் நாடு கிறிஸ்தவ நாடாக இருந்தா லும் அங்கு கணிசமான அளவு
முஸ்லிம்களும் இருக்கிறார்கள். அதில் பசிலான் என்ற தீவில் அபு சயாப் என்ற முஸ்லிம்
தீவிரவாத இயக்கம் உள்ளது. இந்த இயக்க த்துக்கும் பின்லேடனுக்கும் தொடர்பு இருக்கலாம்
என்று நம்பப்படுகிறது. </p><p>
</p><p>
ஆள் கடத்தல் </p><p>
</p><p>
அபுசயாப் இயக்க தீவிர வாதிகள் அடிக்கடி ஆள்கடத்தலில் ஈடுபட்டு பணம் பறித்து
வருகிறார்கள். தற்போது அவர்களிடம் கிறிஸ்தவ மதபோதகர்கள் 2 பேர் பணயக் கைதிகளாக
உள்ளனர். இவர்கள் இருவரும் கணவன், மனைவி என்பது குறிப்பிடத் தக்கது. </p><p>
</p><p>
6 மாத திட்டம் </p><p>
</p><p>
இந்தநிலையில் அபு தயாப் இயக்கத்தை தாக்கி அழிக்க அமெரிக்கா திட்டமிட்டு உள்ளது.
இதற்காக கடந்த 6 மாத காலமாகவே தாக்குதல் திட்டத்தை அமெரிக்கா வகுத்து வந்தது. இதன் முக்கிய
கட்டமாக தற்போது 140 அமெரிக்க ராணுவ வீரர்கள் சாம் போன்கா நகரத்தில்
குவிக்கப்பட்டுள்ளனர். சி-17 சரக்கு விமானம் மூலம் ஆயுத ங்கள், இரவு நேர போரில்
பயன்படும் கருவிகளை அமெரிக்கா இங்கு குவித்து வருகிறது. கடந்த ஒரு வார காலமாகவே இந்த
முயற்சி மும்முரமாக நடந்து வருகிறது. </p><p>
</p><p>
இன்று தாக்குதல்? </p><p>
</p><p>
இந்த நிலையில் அபு தயாப் இயக்கத்தின் மீது அமெரிக்கா இன்று தாக்குதலை தொடு க்கும் என்று
எதிர்பார்க்கப்படுகிறது. பிலிப்பைன்சில் உள்ள அமெரிக்க ராணுவத்தின் செய்தித்
தொடர்பாளர் சிந்தியா செர் தெராமி இந்த தகவலை வௌியிட்டுள்ளார். </p><p>
</p><p>
நேரடி பங்கேற்பா? </p><p>
</p><p>
தீவிரவாதிகள் பதுங்கியுள்ள பசிலான் தீவு பகுதியில் அடர்ந்த காடுகள் உள்ளன. எனவே
தீவிரவாதிகள் மீதான தாக்குதலில் அமெரிக்கா நேரடியாக பங்கேற்காமல் பிலிப்பைன்ஸ்
ராணுவத்துக்கு உதவி மட்டுமே செய்யும் என்றும் கருதப்படுகிறது. பிலிப் பைன்ஸ் ராணுவத்துடன்
சேர்ந்து அமெரிக்கா கூட்டுத் தாக்குதல் நடத்தவும் வாய்ப்புள்ளது. </p>

<p> </p>

<p> </p>

<p>இந்தியா முழுவதும் 2 கோடி
வழக்குகள் தேக்கம்</p>

<p> </p>

<p>புதுடெல்லி, ஜன. 31- இந்தியா முழுவதும் 2 கோடி வழக்குகள்
கோர்ட்டுகளில் தேக்கம் அடைந்து இருக்கின்றன. </p><p>
</p><p>
நீதித்துறை காலி இடங்களை நிரப்பி, வழக்குகளை விரைவாக முடிக்க பாராளுமன்ற கமிட்டி ஆய்வு
செய்தது. இந்த பாராளு மன்ற குழு பரிந்துரைகளை கொடுத்து உள்ளது. </p><p>
</p><p>
அதன்படி நாடு முழுவதும் மாவட்ட நீதிமன்றம், முன்சீப் கோர்ட்டு அளவில் 2 கோடிக்கும்
அதிகமாக வழக்குகள் தேக்கம் அடைந்து உள்ளன. ஐகோர்ட்டுகளில் 35 லட்சம் வழக்குகள்
விசாரிக்கப்பட வேண்டியது உள்ளது. </p><p>
</p><p>
இதற்கு தீர்வு காண மாவட்ட அளவில் நீதிமன்றங்களில் காலியாக உள்ள 13 ஆயிரம் பணி
இடங்களுக்கு உடனே பணி நியமனம் செய்ய வேண்டும், 10 லட்சம் பேருக்கு 13 நீதிபதிகள் என்ற
நிலைக்கு இது அவசியமாகிறது என்று எம்.பி.க்கள் குழு கூறி உள்ளது. </p>

<p> </p>

<p> </p>

<p>தேசிய கீத அவமதிப்பு:
லல்லு-ரப்ரி மீது கோர்ட்டில் வழக்கு</p>

<p> </p>

<p>பாட்னா, ஜன.31- பீகார் தலைநகர் பாட்னாவில் நடந்த குடியரசு தின
விழாவில், தேசிய கீதம் இசைக்கப்பட்ட போது எழுந்து நிற்காமல் அமர்ந்திருந்த லல்லு-ரப்ரி
மீது கோர்டில் வழக்கு தொடரபட்டுள்ளது. </p><p>
</p><p>
பீகார் தலைநகர் பாட்னாவில் நடந்த குடியரசு தின விழாவில், தேசிய கீதம் இசைக்கப்பட்ட
போது ராஷ்டிரிய ஜனதா தள தலைவர் லல்லு, மற்றும் அவரது மனைவியும், மாநில முதல் வருமான
ரப்ரி தேவி ஆகியோர் எழுந்து நிற்கவில்லை என்ற சர்ச்சை எழுந்தது. இது குறித்து யுவா
சமக்தா என்ற அமைப்பை சேர்ந்த நிரஜ்குமார் என்பவர் பாட்னா கோர்ட்டில் வழக்கு
தொடர்ந்துள்ளார். தனது குற்றச் சாட்டுக்கு ஆதாரமாக அவர் டி.வி. ஒளிபரப்பு காட்சியை முன்
வைத்துள்ளார். இந்த வழக்கு இன்று விசாரணைக்கு எடுத்து கொள்ளப்படுகிறது. ஆனால் லல்லுவும்,
ரப்ரியும் இந்த குற்றச்சாட்டை மறுத்துள்ளனர். </p>

<p> </p>

<p> </p>

<p>ஏற்கனவே 8 வழக்குகள்
இருப்பதால், ஜான்பாண்டியனை ஜாமீனில் விடுவிக்க ஐகோர்ட்டு மறுப்பு</p>

<p> </p>

<p>சென்னை,ஜன.31- ஏற்கனவே 8 வழக்குகள் இருப்பதால் ஜான்பாண்டியனை
ஜாமீனில் விடுதலை செய்ய முடியாது என்று சென்னை ஐகோர்ட்டு தீர்ப்பு கூறி உள்ளது. </p><p>
</p><p>
தமிழக மக்கள் முன்னேற்ற கழகத்தின் தலைவர் ஜான்பாண்டியன் சென்னை அண்ணா நகரில் உள்ள ஒரு
தொழிலதிபரை மிரட்டியதாக போலீசார் வழக்கு பதிவு செய்தனர். இந்த வழக்கு தொடர்பாக
ஜான்பாண்டியனை போலீசார் கைது செய்து சிறையில் அடைத்தனர். சென்னை மத்திய சிறையில்
உள்ள ஜான்பாண்டியன் ஜாமீன் கேட்டு சென்னை ஐகோர்ட்டில் மனு தாக்கல் செய்தார். இந்த மனு
நீதிபதி மலை. சுப்பிரமணி யம் முன்பு நேற்று விசாரணைக்கு வந்தது. அப்போது மனுதாரர்
சார்பாக வக்கீல் வெங்கட்ராமன் ஆஜராகி ஜான்பாண்டியன் நிரபராதி, அவரை ஜாமீனில் விடுதலை
செய்ய வேண்டும், அவர் சம்பவம் நடக்கும் போது சென்னையில் இல்லை என்று கூறினார். </p><p>
</p><p>
போலீஸ் தரப்பு வாதம் </p><p>
</p><p>
இதற்கு போலீஸ் தரப்பில் ஆஜரான அரசு வக்கீல் அபுடுகுமார் எதிர்ப்பு தெரிவித்து
கூறியதாவது:- </p><p>
</p><p>
ஜான்பாண்டியன் மீது ஏற்கனவே 8 வழக்குகள் நிலுவையில் உள்ளது. இதுதவிர இவர்
கட்டபஞ்சாயத்து செய்து வருகிறார். தொழிலதிபரை மிரட்டி கட்ட பஞ்சாயத்து செய்த
தாக இவர் மீது தற்போது வழக்கு பதிவு செய்யப்பட்டு அதில் கைது செய்யப்பட்டு உள்ளார்.இந்த
வழக்கில் விசாரணை ஆரம்ப கட்டத்தில் தான் உள்ளது. இவர் மீது கொலை வழக்கும், கொலை
முயற்சி வழக்கும் நிலுவையில் உள்ளது. ஆகவே இவ ரை ஜாமீனில் விட்டால் விசாரணைக்கு
பாதிப்பு ஏற்படும். இவரது மனுவை தள்ளுபடி செய்ய வேண்டும். </p><p>
</p><p>
இவ்வாறு அவர் கூறினார். </p><p>
</p><p>
தள்ளுபடி </p><p>
</p><p>
இரு தரப்பு வாதங்களையும் கேட்ட நீதிபதி மலை.சுப்பிரமணியம் ஏற்கனவே மனுதாரர் மீது 8
வழக்குகள் உள்ளது, இதுதவிர இந்த வழக்கில் புலன்விசாரணை ஆரம்ப கட்டத்தில்தான் இருக்கிறது
ஆகவே மனுதாரருக்கு ஜாமீன் தர முடியாது , மனுவை தள்ளுபடி செய்கிறேன் என்று தீர்ப்பு கூறினார். </p>

<p> </p>

<p> </p>

<p>போதை பொருள் வழக்கில்
புஷ் தம்பி மகள் கைது</p>

<p> </p>

<p>மியாமி,ஜன.31- போதைப் பொருள் வழக்கில் அமெரிக்க அதிபர்
புஷ்சின் தம்பி மகள் சிக்கியுள்ளார். </p><p>
</p><p>
அமெரிக்க அதிபர் புஷ்சின் தம்பி ஜெப் புஷ். இவர் அமெரிக்காவின் புளோரிடா மாநில
கவர்னராக உள்ளார். ஜெப் புஷ்- கொலம்பா தம்பதியருக்கு ஜார்ஜ், ஜெப் ஜூனியர் என்ற 2
மகன்களும் நோயல் என்ற 22 வயது மகளும் இருக்கிறார். </p><p>
</p><p>
நோயல் திகில், பயம், இன்சோமினியா போன்ற பிரச்சினைகளுக்கு மருந்தாகப் பயன்படுகிற
போதை தன்மையுள்ள ''சானக்ஸ்'' என்ற மருந்தை வாங்கி உபயோகிக்க விரும்பி, ஒரு டாக்டர்
எழுதி தருவது போல போலி மருந்து சீட்டு எழுதி மருந்துக் கடையில் தந்த போது பிடிபட்டார்.
மருந்து கடைக்காரர் உடனே போலீசுக்கு தகவல் தரவே போலீசார் அவரை கைது செய்து லியான்
கவுண்டி சிறையில் அடைத்தனர். பின்னர் அவர் ஜாமீனில் விடுதலை செய்யப்பட்டார். இந்த
குற்றச்சாட்டு நிரூபிக்கப் பட்டால் நோயலுக்கு 5 ஆண்டு சிறைத் தண்டனையும், 5 ஆயிரம்
டாலர் அபாராத மும் விதிக்கப்பட வாய்ப்பு உள்ளது. </p>

<p> </p>

<p> </p>

<p>இந்திய ராணுவம் தாக்கினால்
அணுகுண்டு வீசுவோம்: பாக். திடீர் மிரட்டல்</p>

<p> </p>

<p>குவைத், ஜன. 31- பாகிஸ்தான் தாக்கப்பட்டால் பதிலடியாக அணுகுண்டு
வீசுவோம் என்று அந்த நாட்டு மந்திரி மிரட்டல் விடுத்துள்ளார். </p><p>
</p><p>
இந்தியா-பாகிஸ்தான் இடையே போர் பதட்டம் ஏற்பட்டுள்ள நிலையில் பாகிஸ்தான் வௌியுறவு
மந்திரி அஷ்ரப் குவைத்தில் சுற்றுப்பயணம் செய்து வருகிறார். அங்கு அவர்நேற்று அளித்த
பேட்டியில், பாகிஸ்தான் தாக்கப்பட்டால் அதற்கு பதிலடியாக அணு ஆயுதத்தை பயன்படுத்துவதை
நிராகரிக்க முடியாது. முதலில் அணு ஆயுதம் பயன்படுத்துவதில்லை என்ற கோட்பாட்டை எல்லாம்
நாங்கள் கடைப்பிடிப்போம் என்று உத்தரவாதம் அளிக்க முடியாது என்றார். </p><p>
</p><p>
எல்லையில் முஷாரப் </p><p>
</p><p>
இதற்கிடையில் பாகிஸ்தான் அதிபர் முஷாரப் நேற்று இந்தியாவை ஒட்டி உள்ள பாக்.
எல்லைக்குச் சென்று ராணுவ சிப்பாய்கள் மத்தியில் பேசினார். </p><p>
</p><p>
லாகூர் அருகே உள்ள எல்லைப் பகுதியில் நூற்றுக்கணக்கான சிப்பாய்கள் கூடியிரு ந்த இடத்தில்
அவர் பேசும்போது, பாகிஸ்தான் ராணுவம் போருக்கு தயாராக உள்ளது. பாகிஸ்தானின் போர்
திறமை, தயார் நிலை பற்றியாரும் குறைத்து மதிப்பிட முடியாது. அதே நேரத்தில் சர்வதேச
அளவில் அமைதிக்காக எடுத்து வரும் முயற்சியையும் ஆதரிக்கிறோம் என்றார். </p>

<p> </p>

<p> </p>

<p>பாகிஸ்தானில் இருந்து ஊடுருவி
வந்த 5 தீவிரவாதி சுட்டுக் கொலை</p>

<p> </p>

<p>நகர், ஜன. 31- பாகிஸ்தானில் இருந்து ஊடுருவி வந்த 5தீவிரவாதிகள்
சுட்டுக் கொல்லப்பட்டனர். தீவிரவாதிகள் பதுங்கிடத்தில் இருந்து ஏராளமான எறிகுண்டுகள்
மற்றும் ஆயுதங்க ளும் கைப்பற்றப்பட்டன. </p><p>
</p><p>
காஷ்மீரில் குப்வாரா மாவட்டத்தில் இந்திய ராணுவம் தீவிர தேடுதல் வேட்டையில் ஈடுபட்டது.
அப்போது பாகிஸ்தானில் இருந்து ஆயுதங்களுடன் ஊடுருவி வந்த 5 தீவிரவாதிகள்
சுட்டுக்கொல்லப்பட்டனர். அவர்களில் ஒருவர் தன்னைத்தானே கமாண்டர் என்று கூறிக்
கொண்டவர். மற்றவர்கள் லஸ்கர் இயக்கத் தீவிரவாதிகள். </p><p>
</p><p>
வெடிகுண்டுகள் </p><p>
</p><p>
இதற்கிடையில் ஜம்பர்- பத்தன் என்ற கிராமத்தில் தீவிரவாதிகளின் ஒளிவிடத்தை ராணுவம்
சோதனை நடத்திய போது ஆர்.டி.எக்ஸ். வெடி குண்டு 20 கை எறி குண்டுகள், 30 துப்பாக்கி வெடி
குண்டுகள் மற்றும் கைத் துப்பாக்கிகள் கண்டு பிடிக்கப்பட்டன. </p><p>
</p><p>
இந்தியா கவலை </p><p>
</p><p>
தீவிரவாதிகள் ஊடுருவு வதை தடுப்பதாக பாகிஸ்தான் வாக்குறுதி அளித்த போதிலும் அதை செயல்படுத்தவில்லை
என்பதை 5தீவிரவாதிகள் சுட்டுக் கொல்லப்பட்ட சம் பவம் காட்டுகிறது. பாகிஸ்தா னின் இந்த
போக்கு இந்தி யாவுக்கு கவலை அளிப்பதாக உள்ளது என்று டெல்லியில் நேற்று வௌியுறவுத் துறை
அதிகாரி கூறினார். </p>

<p> </p>

<p> </p>

<p>காந்தி சிலைக்கு கவர்னர் -
முதல்வர் - தலைவர்கள் மாலை</p>

<p> </p>

<p>சென்னை, ஜன.31- காந்தி சிலைக்கு சென்னையில் கவர்னர், முதல்வர்,
தலைவர்கள் மலர்மாலை அணிவித்து அஞ்சலி செலுத்தினர். </p><p>
</p><p>
55-வது நினைவுநாள் </p><p>
</p><p>
தேசப்பிதா மகாத்மா காந்தியின் 55-வது நினைவுநாள் நேற்று நாடு முழுவதும் அனுசரிக்கப்பட்டது.
</p><p>
</p><p>
இதையொட்டி சென்னை கடற்கரை காந்தி சிலை மலர்களால் அலங்கரிக்கப்பட்டு இருந்தது. சிலைக்கு
கீழே காந்தி புகழ்பாடும் பஜனை கீர்த்தனைகள் இசைக்கப்பட்டது. தமிழக கவர்னர்
ராமமோகன்ராவ் காலை 9 மணிக்கு காந்தி சிலைக்கு மாலை அணிவித்து மரியாதை செலுத்தினார். </p><p>
</p><p>
பின்னர் முதல்வர் பன்னீர் செல்வம், மந்திரிகள் பொன்னையன், தம்பித்துரை, ஜெயக்
குமார், வளர்மதி, திருநாவுக்கரசு, வேலுச்சாமி உள்பட பலரும் மாலை அணிவித்து மரியாதை
செலுத்தினர். </p><p>
</p><p>
இளங்கோவன் - தங்கபாலு </p><p>
</p><p>
காங்கிரஸ் சார்பில் இளங்கோவன், தங்கபாலு, வசந்த குமார், ஆரூண், தி.சு.கிள்ளி வளவன்,
முன்னாள் எம்.பி.க்கள் டாக்டர் ராஜேஸ்வரன், ராமதாஸ், வி.தண்டாயுத பாணி, தமிழ்நாடு சட்டமன்ற
காங்கிரஸ் தலைவர் யசோதா, மாவட்ட தலைவர்கள் பெருமாள், இல.பாஸ்கரன், குணாநிதி மற்றும்
கத்திப்பாரா ஜனார்த்தனம், நாஞ்சில் பிரசாத், ஐ.கணேசன் உள்பட பலர் மாலை
அணிவித்து மரியாதை செலுத்தினர். </p><p>
</p><p>
மதச்சார்பற்ற ஜனதாதளம் சார்பில் அகில இந்திய துணைத்தலைவர் ஜி.ஏ.வடி வேலு, மாநில
நிர்வாகிகள் காந்தி சிலைக்கு மாலை அணிவித்தனர். சமூகநீதிக் கட்சி தலைவர்
ஜெகவீரபாண்டியனும் மாலை அணிவித்தார். </p><p>
</p><p>
பஜனை </p><p>
</p><p>
திருச்செங்கோடு காந்தி ஆசிரமம், தி.நகர் தக்கர்பாபா வித்யாலயம், சென்னை சர்வோ தய
சங்கம், கோபாலபுரம் காதி கிராமோதயாக்பவன், அடையாறு சேவாலயா, குரோம் பேட்டை காந்தி
தரிசன கேந்திரம் சார்பில் சர்வமத பிரார்த்தனை, நூற்பு வேள்வி, பஜனை நடந்தது. </p>

<p> </p>

<p> </p>

<p>கணவனை கொடுமை செய்தால்
விவாகரத்து</p>

<p> </p>

<p>புதுடெல்லி, ஜன.31- மனைவி கொடுத் பொய் புகாரினால் மன
உளைச்சலுக்கு ஆளான கணவன் அப் பெண்ணிடமிருந்து விவாகரத்து பெற்றுள்ளார். </p><p>
</p><p>
தலைநகர் டெல்லியைச் சேர்ந்த ஒரு இளம்பெண் (பெயர் குறிப்பிடப்பட வில்லை), திருமணமாகி
ஒரு மாதத்துக்குள்ளாகவே தனது கணவர் மீது போலீசில் ஒரு புகார் செய்தார். அதில் தனது கணவர்
தன்னை வரதட்சிணை கேட்டு கொடுமை படுத்துவ தாக அவர் குறிப்பிட்டு இருந்தார். அதன் பேரில்
போலீசார், அவரது கணவரை கைது செய்து கோர்ட்டில் வழக்கு தொடர்ந்தனர். வழக்கு
விசாரணையில் அந்த புகார் பொய்யானது என்ற தகவல் வௌியானது. இதனிடையில் அந்த பெண்ணின்
கண வர், பெரும் மனஉளைச்சலுக்கு ஆளாக நேரிட்டதால் விவாகரத்து கோரி மனு செய்தார். அவரது
வேண்டுகோளை ஏற்று, கோர்ட்டு அவருக்கு விவாகரத்து வழங்கியது. மனைவியால் கணவன்
கொடுமைபடுத்தப்படுவதும் விவாகரத்து பெற தகுந்த காரணமே என்று நீதிபதிகள் தங்களது
தீர்ப்பில் குறிப்பிட்டு உள்ளனர். </p>

<p> </p>

<p> </p>

<p>6 ஆண்டுகளாக கண்
சிமிட்டாமல் வாழ்ந்த சிறுவன்</p>

<p> </p>

<p>அகமதாபாத், ஜன.31- ஒருவித தோல் நோயால் பாதிக்கபட்டதால்
குஜராத் மாநிலத்தில் 6 வயது சிறுவன் கண்களை மூட முடியாமல் சுமார் 6 ஆண்டுகள் தூங்காமலேயே
வாழ்ந்து வருகிறான். </p><p>
</p><p>
குஜராத் மாநிலம், பவநகர் மாவட்டத்தில் உள்ள ரான் புரா என்ற கிராமத்தைச் சேர்ந்தவர்
ரஞ்சித் தாம்ஜி பாய் (வயது 6) என்ற சிறுவன். இவன், கடந்த 6 ஆண்டுகளாக இரவில்
தூங்கியதே இல்லையாம். ஏனெனில் இவனது கண்கள் இமைப்பதே இல்லை. அதற்குக் காரணம், கண்
இமைகள் புருவத்துடன் ஒட்டிக் கொண்டு உள்ளது தான். ஒரு வகை தோல் வியாதியால் இவன்
பாதிக்கப்பட்டு உள்ளதால் இவனது தோல் உலர்ந்து போய்விட்டதாம். அதனால் பாதிக்கப்பட்ட
இவனது கண்களிலிருந்து எப்போதும் கண்ணீர் வடிந்து கொண்டே இருக்கிறது. தற்போது இந்த
சிறுவனுக்கு அக மதாபாத் மருத்துவமனையில் சிகிச்சை அளிக்கப் பட்டு வருகிறது. அதன் பயனாக
அவனால் தற்போது கண்களை மூடவும் தூங்கவும் முடிகிறதாம். </p>

<p> </p>

<p> </p>

<p>நேதாஜி சுபாஷ்
சந்திரபோஸின் வாழ்க்கை வரலாறு படமாகிறது</p>

<p> </p>

<p>மும்பை, ஜன.31- இந்திய சுதந்திரப் போராட்டத்தில் முக்கிய
பங்காற்றியவர் நேதாஜி சுபாஷ் சந்திர போஸ். இந்திய ராணுவத்தை முதன் முதலில் அமைத்தவரும்
இவரே ஆவார். தற்போது இவரைப்பற்றிய படத்தை இந்தி பட டைரக்டர் ஷியாம் பெனகல்
முயற்சித்து வருகிறார். </p><p>
</p><p>
இந்திய சுதந்திரப் போராட்டத்தில் முக்கிய பங்காற்றியவர் நேதாஜி சுபாஷ் சந்திர போஸ்.
இந்திய ராணுவத்தை முதன் முதலில் அமைத்தவரும் இவரே ஆவார். இந்தியாவின் விடுதலையை
போராடிதான் பெற வேண்டும் என்ற கொள்கையைக் கொண்டிருந்தவர் இவர். இவரது வாழ்க்கை வரலாறு
திரைப்படமாகத் தயாரிக்கப்பட உள்ளது. இந்த திரைப்படத்தை பிரபல இந்திபட டைரக்டர்
ஷியாம் பெனகல் தயாரிக் கிறார். இந்த படத்தில் நேதாஜியைப் பற்றி இது வரை வௌிவராத பல
தகவல்கள் இடம்பெறும் என்று கூறப்படுகிறது. சகாரா இந்தியா பரிவார் என்ற முன்னணி தனியார்
வர்த்தக நிறுவனத்தினர் தயாரிக்கும் இதன் படப்பிடிப்பு இந்த ஆண்டு கடைசியில் தொடங்கும்
என்று ஷியாம் பெனகல் கூறினார். </p>

<p> </p>






</body></text></cesDoc>