<cesDoc id="tam-w-dinakaran-news-00-12-01" lang="tam">
<cesHeader type="text">
<fileDesc>
<titleStmt>
<h.title>tam-w-dinakaran-news-00-12-01.txt</h.title>
<respStmt>
<respType>Electronic file created by</respType>
<respName>Department of Linguistics, Lancaster University</respName>
<respType>text collected by</respType>
<respName>Paul Baker and Celia Worth</respName>
<respType>transferred into Unicode by</respType>
<respName>"Unicodify" software by Andrew Hardie</respName>
</respStmt>
</titleStmt>
<publicationStmt>
<distributor>UCREL</distributor>
<pubAddress>Department of Linguistics, Lancaster University, Lancaster, LA1 4YT, UK</pubAddress>
<availability region="WORLD"></availability>
<pubDate>03-08-24</pubDate>
</publicationStmt>
<sourceDesc>
<biblStruct>
<monogr>
<h.title>"Dinakaran" internet news (www.dinakaran.com), news stories collected on 00-12-01</h.title>
<h.author>Dinakaran</h.author>
<imprint>
<pubPlace>Tamil Nadu, India</pubPlace>
<publisher>Dinakaran</publisher>
<pubDate>00-12-01</pubDate>
</imprint>
</monogr>
</biblStruct>
</sourceDesc>
</fileDesc>
<encodingDesc>
<projectDesc>Text collected for use in the EMILLE project.</projectDesc>
<samplingDesc>Simple written text only has been transcribed. Diagrams, pictures and tables have been omitted and their place marked with a gap element.
</samplingDesc>
<editorialDecl>
<conformance level="1"></conformance>
</editorialDecl>
</encodingDesc>
<profileDesc>
<creation>
<date>03-08-24</date>
</creation>
<langUsage>Tamil</langUsage>
<wsdUsage>
<writingSystem id="ISO/IEC 10646">Universal Multiple-Octet Coded Character Set (UCS).</writingSystem>
</wsdUsage>
<textClass>
<channel mode="w">print</channel>
<constitution type="composite"></constitution>
<domain type="public"></domain>
<factuality type="fact"></factuality>
</textClass>
<translations></translations>
</profileDesc>
<revisionDesc></revisionDesc>
</cesHeader>

<text>
<body>




<p>கவன </p>

<p> </p>

<p>புதுடெல்லி, டிச.1- மாநிலங்களவையில் நேற்று ராஜ்குமார் கடத்தல்
விவகாரம் தொடர்பாக கொண்டு வரப்பட்ட கவன ஈர்ப்பு தீர்மானத்துக்கு மத்திய உள்துறை
மந்திரி அத்வானி பதிலளித்து பேசியதாவது:- </p><p>
</p><p>
1992-ம் ஆண்டில் இருந்தே விடுதலைப்புலிகள் இயக்கத்துக்கு இந்தியாவில் தடைவிதிக் கப்பட்டுள்ளது.
ஆனாலும் இந்தியாவின் இறையாண்மை- ஒருமைப்பாட்டுக்கு ஊறு விளைவிக்கும் நடவடிக்கைகளில் அந்த
இயக்கம் தொடர்ந்து ஈடுபட்டு வருகிறது. எனவே கடந்த மே மாதம் 14-ந்தேதியில் இருந்து
மேலும் 2 ஆண்டுக்கு விடுதலைப் புலிகள் மீதான தடையை நீடிக்க தமிழக அரசு வலியுறுத்தி
இருந்தது. இதை ஏற்று சட்ட விரோத நடவடிக்கைகள் தடுப்பு சட்டத்தின் கீழ் விடுதலைப்
புலிகள் இயக்கத்தை மேலும் 2 ஆண்டுக்கு சட்டவிரோத அமைப்பாக மத்திய அரசு அறிவித்தது. இது
குறித்து மத்திய உள்துறை அமைச்சகம் வௌியிட்டிருந்த சட்டபூர்வ அறிவிப்பை சட்ட விரோத
நடவடிக்கைகள் தடுப்பு தீர்ப்பாயம் கடந்த நவம்பர் 13-ந்தேதி உறுதிப் படுத்தியது. </p><p>
</p><p>
புலிகளின் நடவடிக்கைகள் </p><p>
</p><p>
இந்தியாவில் விடுதலைப் புலிகள் மற்றும் அவர்களது ஆதரவாளர்கள் அவ்வப்போது
சட்டவிரோதமான செயல்களில் ஈடுபட்டுவருவது கண் டறியப்பட்டுள்ளது. இந்த இயக் கத்துக்கு
ஆதரவான குழுக்கள் தமிழக கடற்கரை பகுதிகளில் கடத்தல் நடவடிக்கைகளில் ஈடுபட்டு வருவதும்
அரசின் கவனத்துக்கு கொண்டு வரப் பட்டுள்ளது. இந்த இயக்கத்தை சேர்ந்த சிலர் தமிழக
அரசால் கைது செய்யப்பட்டுள்ளனர். </p><p>
</p><p>
கண்காணிப்பு </p><p>
</p><p>
விடுதலைப்புலிகள் இயக்கம் மற்றும் அதன் ஆதரவாளர்களின் நடவடிக்கைகளை மத்திய- மாநில
அரசுகள் தீவிரமாக கண்காணித்து வருகின்றன. இவ்வகையில் பெறப்படும் ஒற்றாய்வு தகவல்களை
உடனுக் குடன் மாநில அரசின் சம் பந்தப்பட்ட துறைகளுக்கு மத் திய அரசு தெரிவித்து வருகிறது.
விடுதலைப் புலிகளின் ஊடுருவல் மற்றும் கடத்தல் நடவடிக்கைகளை முறியடிக்கும் வகையில்
சந்தேகத்திற்கிடமான பகுதிகளில் கடற்படை பிரிவுகளும் கடலோர காவல் படை பிரிவுகளும் அமைக்கப்
பட்டுள் ளன. ஆயுதம் தாங்கிய காவலர்கள் கொண்ட சோதனை சாவடிகளும், நடமாடும் ரோந்து
பிரிவுகளும் செயல்பட்டு வருகின்றன. மத்திய மாநில அமைப்புகளுக்கு இடையே ஒருங்கிணைப்பு
கூட்டங்களை தமிழக அரசு நடத்தி வருகிறது. </p><p>
</p><p>
ராணுவ உதவி </p><p>
</p><p>
வீரப்பனை பிடிக்க தமிழ்நாடு- கர்நாடக அரசுகள் தீவிர முயற்சி மேற்கொண்டுள்ளன. இரு
மாநிலங்களின் கூட்டு நடவடிக்கைக்கு மத்திய அரசு அனைத்து வகைகளிலும் உதவும். தேசிய
பாதுகாப்பு படை கமாண்டோக்கள், ராணுவத்தை கூட அனுப்புவோம். </p><p>
</p><p>
தடை விதிப்பா? </p><p>
</p><p>
ராஜ்குமார் தமிழ் தேசிய மீட்பு படை, தமிழ்நாடு விடுதலை படையினரால் கடத்தப் பட்டார்
என்று கூறப்படுவது உண்மைதானா என்பதை மத்திய அரசு ஆராய்ந்து வரு கிறது. இந்த 2 அமைப்பையும்
தடை செய்யப்பட்ட அமைப்புகளாக அறிவிப்பது பற்றி மத்திய அரசு பரிசீலித்து வருகிறது. இந்த
அமைப்புகளின் செயல்பாடுகள் பற்றிய ஆதாரங்களை திரட்டி வருகிறோம். ஆதாரம் இன்றி தடை
விதித்தால் கோர்ட்டில் அந்த தடை நீக்கப்பட வாய்ப்புள்ளது. </p><p>
</p><p>
பிரபாகரன் பிறந்த நாள் தொடர்பாக ஒட்டப்பட்ட போஸ்டர்களை போலீசார் உடனடி யாக
அகற்றியதாக தமிழக அரசு தெரிவித்துள்ளது. இது தொடர்பாக கடலூர், தஞ்சை, விருதுநகரில்
சிலர் கைது செய்யப்பட்டுள்ளனர். சென்னையில் 3 வழக்குகள் பதிவு செய்யப்பட்டுள்ளன. </p><p>
</p><p>
பிரபாகரன் பிறந்த நாள் விழா அரசு கட்டிடத்தில் கொண்டாடப்படுவதாக கூறப் படுவது தவறு. அந்த
கட்டிடத் தில் ராஜ்குமாரை மீட்டு வந்த தற்காக நெடுமாறனுக்கு பாராட்டு விழா நடப்பதாக தமிழக
அரசு தெரிவித்துள்ளது. </p><p>
</p><p>
பிரபாகரன் நாடு கடத்தல் </p><p>
</p><p>
ராஜீவ் கொலை வழக்கில் தொடர்ந்து விசாரணை மேற் கொள்வது குறித்து பல்நோக்கு
கண்காணிப்பு அமைப்பு ஏற் படுத்தப்பட்டுள்ளது. இந்த அமைப்பை சேர்ந்த அதி காரிகள் கடந்த
நவம்பர் 13-ந ்தேதி முதல் 23-ந்தேதி வரை இலங்கையில் முகாமிட்டனர். பிரபாகரனை நாடு
கடத்துவது தொடர்பாக அந்த நாட்டு அதிகாரிகளுடன் பேச்சு வார்த்தை நடத்தினார்கள். </p><p>
</p><p>
அடக்குவோம் </p><p>
</p><p>
எல்லை தாண்டி தூண்டப்படும் தீவிரவாதத்தை எதிர்த்து சர்வதேச அளவில் இந்தியா பிரசாரம்
செய்து வருகிறது. காஷ்மீர்-வடகிழக்கு மாநிலங் கள்- தமிழ்நாட்டில் எல்லைக்கு அப்பால்
இருந்து தீவிரவாதம் தூண்டப்பட்டால் அதை இரும்பு கரம் கொண்டு அடக்குவோம். </p><p>
</p><p>
விடுதலைப்புலிகள் அமைப்புக்கு விதிக்கப்பட்ட தடை நீடிக்கப்பட்டதை தி.மு.க. உள்ளிட்ட
தேசிய ஜனநாயக கட்சிகள் எதுவும் எதிர்க்க வில்லை. தடையை நீடிக்க வேண்டும் என்று
பரிந்துரைத் ததே தி.மு.க. தான் என்பது குறிப்பிடத்தக்கது. </p><p>
</p><p>
கடந்த 3 ஆண்டுகளாக ஜார்ஜ் பெர்னாண்டஸ் மத்திய மந்திரியாக உள்ளார். இந்த
காலகட்டத்தில் விடுதலைப் புலிகள் இயக்கத்துக்கு அவர் எந்த உதவியும் செய்யவில்லை. </p><p>
</p><p>
இவ்வாறு அவர் கூறினார். </p>

<p> </p>

<p>சத்தியமங்கலம் பகுதியில்
பேய் மழை எதிரொலி: வீரப்பனை பிடிக்க சென்ற அதிரடிப்படை வீரர்கள் முகாமுக்கு திரும்பினர்</p>

<p> </p>

<p>ஈரோடு, டிச. 1- கன்னட நடிகர் ராஜ்குமார் கடத்தப்பட்டு விடுதலை
செய்த பின்னர் சந்தன வீரப்பன் அவனது கூட்டாளிகளை தேடும் பணியில் தமிழக கர்நாட
அதிரடிப்படை வீரர்கள் நவீன ஆயுதங்களுடன் காட்டிற்குள் கடந்த 20-ந்தேதி நுழைந்தனர்.
அன்றுமுதல் தொடர்ந்து அதி ரடிப்படை வீரர்கள் பல்வேறு குழுக்களாக வரட்டுப்பள்ளம், பர்கூர்,
தட்டக்கரை, தாமரைக் கரை, கர்கேகண்டி, செங்குளம் மாக்கம்பாளையம், குண்டேறிப் பள்ளம்,
பெரியதுருவம், சின் னத்துருவம், வழுக்குப்பாறை, தலைமலை, ஆசனூர், தெங்கு மராட்டா,
கெத்தேசல், புளிஞ் சூர் உள்பட காட்டில் பல பகுதி களில் தேடுதல் வேட்டை நடத்தி
வருகின்றனர். </p><p>
</p><p>
காட்டில் கனமழை </p><p>
</p><p>
மேலும் பண்ணாரி அருகே தெங்கு மராட்டா பகுதியிலும், அந்தியூர் மலைப்பகுதியில் தட்டக்கரை
முகாம் அருகிலும் அதிரடிப்படை போலீசாருக்கு துப்பாக்கி சுடும் பயிற்சி தினந்் தோறும்
அளிக்கப்படுகிறது. இந்த நிலையில் வங்கக் கடலில் புயல் சின்னம் ஏற்பட்டுள்ளது. இதனால்
தமிழகம் முழுவதும் நேற்று முன்தினம் (புதன்) இரவு முதல் கனமழை பெய்து வரு கிறது. இதில்
ஈரோடு மாவட்டத் திலும் பரவலாக மழை பெய் துள்ளது. சத்தி பகுதியில் 42 மில்லி மீட்டர்
மழை பெய்துள் ளது. தொடர்ந்து மழை பெய்து வருகிறது. காட்டாறுகளில் வௌ்ளம் பெருக்கெடுத்து
ஓடுகிறது. அதிரடிப்படையினர் அந்த ஆறுகளை தாண்டி காட்டிற்குள் முன்னேற முடிய வில்லை. இதனால்
வீரப்பனை தேடி காட்டிற்குள் சென்ற அதிரடிப்படையினரின் பணி தடைபட்டு உள்ளது. </p><p>
</p><p>
முகாம்களை நோக்கி </p><p>
</p><p>
எனவே காட்டிற்குள் சென்ற அதிரடிப்படை வீரர்கள் தாங்கள் கொண்டு சென்ற மூட்டை
முடிச்சுக்களுடன் முகாம்களை நோக்கி திரும்பி வருகிறார்கள். மேலும் துப்பாக்கி சுடும்
பயிற்சியும் தற்காலிகமாக நிறுத்தப்பட்டு உள்ளது. வீரப்பனை அதிரடிப் படைகள்
தேடிச்செல்லும் போது ஒவ்வொரு முறையும் இயற்கை வீரப்பனுக்கு சாதக மாக அமைந்து விடுகிறது. </p><p>
</p><p>
டிமிக்கி </p><p>
</p><p>
இயற்கையின் சாதகத்தை பயன் படுத்திக்கொண்டு காட்டிலே வாழ்ந்து பழக்கப் பட்ட வீரப்பனும்
அவனது கூட்டாளிகளும் சுலபமாக அதிரடிப்படைக்கு டிமிக்கி கொடுத்து விட்டு தப்பி ஓடி
விடுகிறார்கள். இந்த முறை வீரப்பனை தப்பவிடக்கூடாது என்ற கோணத்தில் தேடுதல் பணியில்
ஈடுபட்ட அதிரடிப் படைக்கு அடைமழை பெரும் அதிர்ச்சியை ஏற்படுத்தி உள் ளது. இது எப்போது
நிற்கும்? மீண்டும் காட்டிற்கு எப்போது செல்வோம் என்று இயற்கை யின் மாற்றத்தை
எதிர்நோக்கி அதிரடிப்படையினர் காத்து இருக்கிறார்கள். காட்டிற்குள் வீரப்பனை நோக்கி
சென்ற வர்கள் தற்போது வானத்தை நோக்கி பார்த்த வண்ணம் உள்ளனர். </p>

<p> </p>

<p>நரசிம்மராவ் வழக்கில்
இருந்து தப்பியவர்கள்: சோரன் உள்பட 3 பேர் மீது சி.பி.ஐ. ஊழல் வழக்கு: வருமானத்துக்கு
மிஞ்சி சொத்து குவித்ததற்கு ஆதாரம் சிக்கியது</p>

<p> </p>

<p>புதுடெல்லி, டிச. 1- நரசிம்மராவ் பிரதமராக இருந்தபோது அரசு மீதான
நம்பிக்கையில்லா தீர்மானத் தில் அரசுக்கு ஆதரவாக வாக் களிப்பதற்காக எம்.பி.க்களுக்கு
லஞ்சம் கொடுக்கப்பட்ட வழக்கை தனிக்கோர்ட்டு விசா ரித்து அக்டோபர் 12-ந்தேதி
தீர்ப்பு அளித்தது. அதில் முன் னாள் பிரதமர் நரசிம்மராவ், முன்னாள் மத்திய மந்திரி
பூடாசிங் ஆகிய இருவருக்கு மட்டும் 3 ஆண்டு கடுங்காவல் ஜெயில் தண்டனை விதிக்கப் பட்டது.
லஞ்சம் வாங்கிய எம்.பி.க்கள் சிபுசோரன், சிமோன் மராண்டி, சுராஜ் மண்டல்
போன்றவர்களுக்கு தண்டனை அளிக்கப்பட வில்லை. </p><p>
</p><p>
இந்த 3 பேரும் எம்.பி.க்கள் என்ற முறையில் பாராளு மன்றத்தில் வாக்களிக்க தனி உரிமை
இருப்பதால் அதில் கோர்ட்டு தலையிட சட்டத்தில் இடம் இல்லை என்றும், ஆனால் அவர்கள்
நிதி சட்டத்தை (லஞ்சம்) மீறியதற்காக தனியா சி.பி.ஐ. விசாரணை நடத்தலாம் என்றும்
தனிக்கோர்ட்டு நீதிபதி அஜீத் பகாரிகோ தனது தீர்ப் பில் குறிப்பிட்டு இருந்தார். </p><p>
</p><p>
ஆதாரம் சிக்கியது </p><p>
</p><p>
இதை தொடர்ந்து சொரன் உள்பட 3 முன்னாள் எம்.பி.க்க ளும் வருமானத்துக்கு மிஞ்சி
சொத்து சேர்த்ததற்கான ஆதா ரத்தை சி.பி.ஐ. திரட்டியது. சோரன், மண்டல் இருவரும் தலா
ரூ.37.50 லட்சமும், மராண்டி ரூ.40 லட்சமும் லஞ்சமாக பெற்றதற்கு ஆதாரம் இருப்பதாக
சி.பி.ஐ. நம்புகிறது. </p><p>
</p><p>
இந்த 3 பேர் மீதும் ஊழல் தடுப்புச் சட்டத்தின் கீழ் தனித் தனியாக எப்.ஐ.ஆர். பதிவு
செய்யப்பட்டு உள்ளது. சி.பி.ஐ. துணை சூப்பிரண்டு பி.ஆர். சகாய் தலைமையில் விசா ரணை
தொடர்ந்து நடந்து வரு கிறது. </p><p>
</p><p>
முதல்வர் ஆக முயன்றார் </p><p>
</p><p>
குற்றச்சாட்டுக்கு ஆளான சோரன் சமீபத்தில் பா.ஜ. ஆதரவுடன் ஜார்க்கண்ட் மாநில முதல்வராக
முயற்சி செய்ததும் அந்த முயற்சி பலிக்காததால் தே.ஜ. கூட்ட ணியில் இருந்து விலகி
எதிர்க்கட்சிகளுடன் சேர்ந்து இருப்பதும் குறிப்பிடத் தக்கது. </p>

<p> </p>

<p>800 அடி உயரத்தில்
'விஞ்ச' விழுந்து 5 தொழிலாளர் சாவு</p>

<p> </p>

<p>கூடலூர், டிச. 1- நீலகிரி மாவட்டம், மசின குடி அருகே உள்ள
சிங்காராவில் பைக்காரா நீர் மின் நிலையம் உள்ளது. இந்த திட்டப் பணிகள் கடந்த
1924-ம் ஆண்டு தொடங்கப்பட்டு 1938-ம் ஆண்டு முடிக்கப்பட்டது. இங்க 7 எந்திரங்கள் மூலம் 70
மெகா வாட் மின்சாரம் தயாரிக்கப்பட்டு வருகிறது. </p><p>
</p><p>
மேலும் இங்கு கூடுதல் மின்சாரம் தயாரிக்க பைக்காரா இறுதி மின் திட்ட பணிகள் ரூ.44 கோடியே
58 லட்சம் செலவில் நடந்து வருகிறது. கடந்த 1995-ம் ஆண்டு தொடங்கப்பட்ட இந்த பணி 5
ஆண்டுகளாக நடந்து வருகிறது. </p><p>
</p><p>
சுரங்கம் </p><p>
</p><p>
பைக்காரா மின் நிலையத்துக்கு தண்ணீர் கொண்டு வர அருகில் உள்ள கிளன் மார்க் கன்
அணையில் இருந்து நிலத் தடி சுரங்கம் அமைக்கும் பணி நடந்து வருகிறது. இந்த சுரங்கம் பைக்காரா
மின் நிலையத்தில் இருந்து மேலே 59-வது கொண்டை ஊசி வளைவில் உள்ள கிளன் மார்க்கன் வரை
1500 மீட்டர் நீளத்துக்கு அமைக் கப்பட்டு வருகிறது. </p><p>
</p><p>
5 தொழிலாளி சாவு </p><p>
</p><p>
இந்த சுரங்கத்தில் அமைக்கப்பட்டு உள்ள கான்கிரீட் தகரங்களை அகற்றுவதற்காக நேற்று
முன்தினம் (புதன் கிழமை) இரவு தொழிலாளர் கள் இரும்பு தொட்டிகளில் (விஞ்ச்)
சென்றனர். அந்த இரும்பு தொட்டியில் டி.தர்த்த கிரி (வயது 19, கர்நாடக மாநிலம்),
லால்ராம் (வயது 30, அவுரங்காபாத்), உபேந்திரயாத வன் (வயது 25, அவுரங்கா பாத்),
ராம்பிரீத்தி குக்வா (வயது 20, உத்தரபிரதேசம்), தரம்வின் (வயது 22, பீகார்) ஆகிய 5
தொழிலாளர்கள் இருந்தனர். </p><p>
</p><p>
சுமார் 800 மீட்டர் உயரத்தில் அந்த விஞ்ச் சென்று கொண் டிருந்தபோது
எதிர்பாராதவிதமாக இரும்பு கம்பி அறுந்தது. இதனால் அந்த விஞ்ச் கண்ணி மைக்கும்
நேரத்தில் சுரங்கத்தில் விழுந்து சிதறியது. இதில் அந்த விஞ்ச்-ல் இருந்த 5 தொழி
லாளர்களும் உடல் சிதறி பரிதாபமாக செத்தனர். </p>

<p> </p>

<p>தமிழ்நாட்்டில் கூடுதலாக 155
காஸ் விற்பனை நிலையம்: மத்திய அரசு அனுமதி</p>

<p> </p>

<p>புதுடெல்லி, டிச.1- மக்களவையில் நேற்று கேள்வி நேரத்தின்போது
பா.ம.க. உறுப்பினர் பு.தா. இளங்கோவன் கேட்ட கேள்விக்கு பெட்ரோலியத்துறை இணை மந்திரி
சந்தோஷ்குமார் காங்வார் அளித்த பதில் வருமாறு:- </p><p>
</p><p>
கூடுதல் நிலையம் </p><p>
</p><p>
1996-98-ம் ஆண்டுகளுக்கான விற்பனைத் திட்டத்தின் கீழ் தமிழ்நாட்டில் கூடுதலாக 59
பெட்ரோலியப் பொருட்கள் விற்பனை நிலையங்களும் 155 சமையல் காஸ் விற்பனை நிலையங்களும்
அமைக்க உரிமம் வழங்க திட்டமிடப்பட்டு உள்ளது. </p><p>
</p><p>
தமிழ்நாட்டில் அக்டோபர் முதல் தேதி நிலவரப்படி மொத்தம் 1612 பெட்ரோலியப் பொருட்கள்
விற்பனை நிலை யங்களும் 467 சமையல் வாயு விற்பனை நிலையங்களும் செயல்பட்டு வருகின்றன. </p><p>
</p><p>
ரூ.28 கோடி பங்கு </p><p>
</p><p>
எம்.ஜி.ஆர். அ.தி.மு.க. உறுப்பினர் திருநாவுக்கரசு கேள்விக்கு மந்திரி கூறியதாவது:- </p><p>
</p><p>
தமிழ்நாட்டில் செயல்படும் பெட்ரோலியம் மற்றும் இயற்கை வாயு கிணறுகளுக்கான உரிமைப்
பங்குத்தொகையாக கடந்த நிதி ஆண்டில் ரூ.28.53 கோடி வழங்கப்பட்டு உள்ளது. கடந்த நிதி ஆண்டில்
தமிழ் நாட்டில் உள்ள எண்ணெய்க் கிணறுகளில் இருந்த சுமார் 3 லட்சத்து 76 ஆயிரத்து 630 டன்
எண்ணெயும் சுமார் 138 மில் லியன் கியூபிக் மீட்டர் அளவு இயற்கை வாயுவும்
பெறப்பட்டது. </p><p>
</p><p>
கோவைக்கு காஸ் </p><p>
</p><p>
அ.தி.மு.க. உறுப்பினர் தினகரன் கேள்விக்கு மந்திரி அளித்த பதில் வருமாறு:- </p><p>
</p><p>
கர்நாடகத்தில் உள்ள மங்களூரில் இருந்து மைசூர் வழியாக கோவைக்கு சுமார் 670 கிலோ
மீட்டர் நீள குழாய் மூலம் சமையல் வாயுவை எடுத்துச் செல்லும் திட்டத்தை இந்திய எரிவாயு
ஆணையம் உருவாக்கி உள்ளது. இதன் மூலம் ஆண் டுக்கு சுமார் 11 லட்சம் டன் சமையல்வாயுவை
எடுத்துச் செல்லலாம். சமையல் வாயு நிரப்பும் மையங்களுக்கு குழாய் மூலம் எரிவாயு
வழங்கப்படும். இந்த மையங்களில் சிலிண் டர்களில் எரிவாயு நிரப்பப் பட்டு
வாடிக்கையாளர்களுக்கு அனுப்பப்படும். தமிழ்நாட்டில் சுமார் 106 கி.மீ. நீளத்துக்கு அமைக்க
திட்டமிடப்பட்டு உள் ளது. </p><p>
</p><p>
இவ்வாறு மந்திரி கூறினார். </p>

<p> </p>

<p>கடலூர் மாவட்டத்தில்
ரூ.1000 கோடி சேதம்: புயல் நிவாரண பணிகளுக்கு உடனடியாக உதவ வேண்டும்: பாராளுமன்றத்தில்
ஆதிசங்கர் எம்.பி. வலியுறுத்தல்</p>

<p> </p>

<p>புதுடெல்லி, டிச. 1- பாராளுமன்றத்தில் நேற்று கேள்விநேரம்
முடிந்ததும் தி.மு.க. எம்.பி. ஆதிசங்கர் பேசியதாவது:- </p><p>
</p><p>
கடலூர் மற்றும் அதனைச் சுற்றியுள்ள பகுதிகளை நேற்று மாலை கடும்புயல் தாக்கியது. மணிக்கு
சுமார் 200 கி.மீ. வேகத்தில் பலத்த காற்று வீசியது. மேலும் பலத்த மழை கொட்டியதால்
கடலூர் மாவட்டம் முழுவதும் பெரும் பாதிப் புக்குள்ளானது. இதனால் மாவட்டம் முழுவதும் சுமார்
25 ஆயிரத்துக்கும் மேற்பட்ட குடும்பங்கள் வீடுகளை இழந்து தங்குவதற்கு இடமின்றி நிர்க்
கதியாக உள்ளனர். 50 ஆயி ரத்துக்கு மேற்பட்ட மரங்கள் வேரோடு சாய்ந்துள்ளன. </p><p>
</p><p>
மின்சாரம் பாதிப்பு </p><p>
</p><p>
புயல்-மழையால் மின் கம்பங்கள், தந்தி கம்பங்கள் சாய்ந்துள்ளன. இதனால் கட லூர்
மாவட்டத்தில் கடந்த 2 நாட்களாக மின்சாரம் அடி யோடு துண்டிக்கப்பட்டு உள் ளது.
பெரும்பாலான இடங்களில் ரெயில்பாதைகளிலும், நெடுஞ்சாலை பாதைகளிலும் மரங்கள்
விழுந்துள்ளதால், ரெயில் போக்குவரத்து-பஸ் போக்குவரத்து பெரிதும் பாதிக்கப்பட்டுள்ளது.
இதனால் மாவட்டம் முழுவதும் கல்வி நிறுவனங்களுக்கு விடுமுறை விடப்பட்டுள்ளது. </p><p>
</p><p>
3 பேர் சாவு </p><p>
</p><p>
இந்த பயங்கர புயலுக்கு 3 பேர் உயிர் இழந்துள்ளனர். மேலும் கட்டு மரங்களில் மீன்
பிடிக்கச் சென்ற 20 மீனவர்கள்காண வில்லை என்றும் தெரிய வந்தது. கடலூர் மாவட்டத்தில்
மட்டும் சுமார் 1000 கோடி ரூபாய் அளவுக்கு புயல் சேதம் ஏற்படுத்தியிருப்பதாக தெரிகிறது. </p><p>
</p><p>
நிவாரண உதவி </p><p>
</p><p>
தமிழக அரசு அனைத்து நடவடிக்கைகளையும் போர்க் கால அடிப்படையில் எடுத்து உள்ளது.
முன்னெச்சரிக்கை நடவடிக்கைகளிலும் இறங்கி உள்ளது. எனவே மத்திய அரசு உடனடியாக தமிழக
அரசுக்கு நிவாரண உதவி வழங்கும்படி கேட்டுக்கொள்கிறேன். </p><p>
</p><p>
இவ்வாறு அவர் பேசினார். </p>

<p> </p>

<p>சிறைகளில் உள்ள சிங்கள
மீனவரை மீட்க இலங்கை மந்திரிகள் இந்தியா வருகை</p>

<p> </p>

<p>கொழும்பு, டிச. 1- இலங்கை சிறைகளில் தமிழக மீனவர்கள் பலர்
வாடுகிறார்கள். இந்த நிலையில் இந்திய சிறைகளில் சிங்கள மீனவர்கள் இருப்பதாக இலங்கை
அரசு கூறி வருகிறது. இந்திய சிறைகளில் உள்ள சிங்கள மீனவர்களை மீட்பது தொடர்பாக இலங்கை
அரசு உயர் அதிகாரிகளுடன் மந்திரி லட்சுமண் கதிர்காமர் கொழும்பில் ஆலோசனை நடத்
தினார். </p><p>
</p><p>
பிறகு அவர் கூறுகையில் இந்திய சிறைகளில் இலங்கை மீனவர்கள் பலர் உள்ளனர். அவர்கள்
கொச்சி, தூத்துக்குடி, போர்ட் பிளேர், மதுரை, திருச்சி, ராமேஸ்வரம், பாரா தீப்பில்
சிறை வைக்கப்பட்டுள்ளனர். அவர்களை மீட்க வேண் டும். இந்த பிரச்சினையை கவனமாக கையாள
வேண்டும். இந்தியாவுடனான இரு தரப்பு உறவு பாதிக்கப்படக் கூடாது. அதே நேரத்தில் மீனவர்
களை பத்திரமாக மீட்க வேண்டும். </p><p>
</p><p>
இந்தியா வருகை </p><p>
</p><p>
இது பற்றி இந்திய அரசுடன் பேச்சு நடத்த இலங்கை மந்திரிகள்-அதிகாரிகள் அடங்கிய
தூதுக்குழுவினர் விரைவில் இந்தியா செல்வார்கள். </p><p>
</p><p>
இவ்வாறு அவர் கூறினார். </p>

<p> </p>

<p>காதல் ஜோடி விளையாட்டால்
கவிதா முட்டாள் ஆனார்: வாக்காளர் அட்டை குளறுபடி பற்றிய புது தகவல்</p>

<p> </p>

<p>கும்பகோணம், டிச.1- கும்பகோணத்தை சேர்ந்த பட்டதாரி பெண்்
கவிதாவுக்கு வாக்காளர் அடையாள அட்டை வழங்கப்பட்டது. இந்த அடையாள அட்டையை வாங்கி
பார்த்த கவிதா அதிர்ச்சி அடைந்தார். அவரது அதிர்ச்சிக்கு காரணம் அந்த அடையாள
அட்டையில் அவரது பெயரோடு முட்டாள் என்று அச்சிடப்பட்டு இருந்தது. </p><p>
</p><p>
முட்டாள் </p><p>
</p><p>
வாக்காளர் பெயரோடு முட்டாள் என்ற வார்த்தையையும் அச்சிட்டு வழங்கிய சம்பவம் தமிழகம்
முழுவதும் பெரும் பரபரப்பை ஏற்படுத்தியது. தனக்கு இதனால் மன உளைச்சல் ஏற்பட்டு உள்ளதாகவும்
தேர்தல்்் கமிஷன் நஷ்ட ஈடு தர வேண்டும் எனவும் கவிதா பேட்டி அளித்திருந்தார். </p><p>
</p><p>
கவிதா ஒரு முட்டாள் என்று அச்சிடப்பட்ட வாக்காளர் அட்டை குறித்து விசாரித்து அந்த ஊழியர்
மீது நடவடிக்கை எடுக்கப்படும் என மாநில தலைமை தேர்தல் அதிகாரி மிருத்யுஞ்சய்்
சாரங்கி கூறி இருந்தார். அதன்படி வருவாய் துறை அதிகாரிகள் கவிதா ஒரு முட்டாள் அடையாள
அட்டை விவகாரம் குறித்து விசாரணை நடத்தினர். விசாரணை முடிவில் ருசிகர தகவல் கிடைத்
துள்ளது. அதன் விவரம் வருமாறு:- </p><p>
</p><p>
காதல் ஜோடி </p><p>
</p><p>
1995-ம் ஆண்டு வாக்காளர் அடையாள அட்டை தயாரித்து வழங்கும் பணியை அரசு ஒரு நிறுவனத்திடம்
ஒப்படைத் திருந்தது. சென்னையில் இயங்கி வரும் அந்த நிறுவனத்தின் கம்ப்யூட்டர் பிரிவில்
ஆந்திராவை சேர்ந்த கவிதா, ஜேம்ஸ் என்ற 2 பேர் பணியாற்றி வந்தனர். இவர்கள்
இருவருக்கும் இடையே காதல் உருவா னது. காதலின் ஒரு பகுதியான ஊடலும் இவர்களுக்கு இடையே
ஏற்பட்டது. </p><p>
</p><p>
கம்ப்யூட்டரிலே இவர்கள் காதல் விளையாட்டும் விளையாடினர். ஜேம்ஸ் தனது காதலியை சீண்டி
விடும் நோக்கத்தில் கவிதா ஒரு முட்டாள் என்று அடிப்பாராம். இதற்கு பதில் கொடுக்கும்
வகையில் கவிதா, ஜேம்ஸ் ஒரு முட்டாள் (யிடுநீகி 1கி ்ூூளி) என்றும் அடித்திருக்கிறார். </p><p>
</p><p>
இந்த வாசகங்கள் கம்ப்யூட்டரில் அப்படியே பதிவாகி இருந்திருக்கிறது. எனவே கவிதா, என்ற
பெயரை அடித்த தும், கவிதா ஒரு முட்டாள் என்ற வாசகம் பதிவாகி விடுமாம். அது போல ஜேம்ஸ்
என்ற பெயரை அடிக்கும் போது ஜேம்ஸ் ஒரு முட்டாள் என்றும் பதிவாகி விடுமாம். </p><p>
</p><p>
இப்படித்தான் கவிதா ஒரு முட்டாள் என்று பதிவாகி வாக்காளர் அட்டை வழங்கப் பட்டு
இருக்கிறது. இது போல இன்னொரு கவிதாவுக்கும் முட்டாள் பட்டத்துடன் அடை யாள அட்டை
வழங்கப்பட்டு இருக்கிறது. அதை உடனடியாக கண்டுபிடித்து அதிகாரிகள் அதனை கைப்பற்றி
விட்டனர். ஜேம்ஸ் என்ற பெயரிலும் இது போல முட்டாள் பட்டத்துடன் வாக்காளர் அட்டை
வழங்கப் பட்டிருப்பதாக தெரிகிறது. </p><p>
</p><p>
அதிகாரிகள் செய்த தவறை மறைக்க கம்ப்யூட்டர் மீது பழி போடுகிறார்களா? அல்லது
கம்ப்யூட்டரில் தவறு ஏற்பட்டதா? என்பது தெரிய வில்லை. காதல் ஜோடிகள் இருவரும்
தற்போது அந்த நிறுவனத்தில் பணிபுரிய வில்லை. அவர்கள் எங்கு உள்ளனர் என்பதும்
தெரியவில்லை. </p>

<p> </p>

<p>செய்தி துளிகள்</p>

<p>  </p>

<p>இரை தேடும் சுறா மீன் </p>

<p>சமீப கால செய்திகளில் கடலில் சறுக்கு விளையாட்டில் ஈடுபடும் வீரர்களை சுறா
மீன்கள் தாக்கிய நிகழ்ச்சிகள் அதிகம் இடம்பிடித்து வருகின்றன. சில நாட்களுக்கு முன்பு
நியூ சிலாந்தில் உள்ள கிஸ்போர்னில் இருந்து 7 மைல் தொலைவில் கடலில் மீன்பிடி படகில்
சென்று கொண்டிருந்தார். பாய்டு மெக்கிரிகர். அவர் கண்ணில்பட்டதுதான் இங்கே படத்தில்
உள்ள சுறா. இதன் நீளம் சுமார் 20 அடி. </p>

<p>வருமானத்தில் வரலாறு படைத்தவர் </p>

<p>
 
 
  
  
  
  
  
  
  
  
  
  
  
  
 
 
 

 
 
<gap desc="illustration"></gap>பிரிட்டனை சேர்ந்த பாடகர் மற்றும் ராக் இசைக் கலைஞர் பால்
மெக்கார்ட்னி உலக வரலாற்றிலேயே மிக அதிக வருமானம் ஈட்டி சாதனை படைத்துள்ள ராக் இசைப்பாடகர்
இவர்தானாம். இவரது சொத்து மதிப்பு ஏறத் தாழ 4 ஆயிரம் கோடி ரூபாய் என்கிறது ஒரு
பத்திரிகை தகவல். </p>

<p>சாதனை நாய்க்கு விழா </p><p>

 
 
<gap desc="illustration"></gap>ஆஸ்திரேலிய தலைநகர் சிட்னியில் மஸ்காட் சர்வதேச விமானநிலையம் உள்ளது. இங்கு
பயணிகள் உருவில் கடத்தல் தொழிலில் ஈடுபடும் நபர்களையும், அவர்களின் உடமைகளையும்
மோப்பம்பிடித்து கண்டறிய நாய்கள் பயன்படுத்தப்படுகின்றன. கடந்த 8 ஆண்டுகளுக்கு மேலாக
இந்த பணியில் ஈடுபட்டு வந்த மோப்ப நாயை படத்தில் காணலாம். இதன் வயது 13. பெயர்
மெலடி. </p>

<p>மாதத்துக்கு 100 குற்றங்களையாவது கண்டறிந்து சாதனை படைத்துள்ளது இது. இதற்கு
சமீபத்தில் பணியில் இருந்து ஓய்வு தரப்பட்டது. அதற்காக விமான நிலைய வளாகத்தில்
கோலாகலமான வழியனுப்பு விழாவும் நடந்தது. நான் புகழ்ச்சிக்கு மயங்காதவன் என்று
சொல்லாமல் சொல் வதைப்போல விழா மேடையில் உறக்கத்தில் ஆழ்ந்திருக்கிறது நாய்.
பணியின்போது இது கண்டுபிடித்தவைகளில் மிக முக்கியமானது கடத்தல் பயணி ஒருவர் தமது
பைகளுக்குள் அடைத்து உயிருள்ள ஆமைகளை கடத்தியதைத்தான் அதை கண்டுபிடித்து ஆமைகளுக்கு மீண்டும்
உயிர் கொடுத்து இருக்கிறது நாய். </p>

<p>இளம் இசைப்புயல் </p><p>
அமெரிக்காவில், டெக்சாஸ்
மாநிலம் இர்விங் நகரில் சமுதாய துயர்துடைப்பு அமைப்புசார்பில் நிதி திரட்டும் பணி
தொடக்கவிழா கலைநிகழ்ச்சியுடன் நடந்தது. இதில் 12 வயதே நிரம்பிய இளம்இசைப்புயல்
பில்லிகில்மேன் பாடுவதை சித்தரிக்கிறது இந்த படம். கில்மேனுடன் இணைந்து அழகிகள் பலர்
கவர்ச்சி உடை அணிந்து நடனமாடி களிப்பதை படத்தில் காணலாம். ஆடுவோர் ஆடினால்
பாடத்தோன்றும் என்பதுபோல கையை உயர்த்தியபடி இந்த இசை சிறுவனும் பாடி மகிழ்வது போல்
தெரிகிறது. </p>

<p> </p>

<p>பாராளுமன்ற செய்திகள்</p>

<p> </p>

<p>ரெயில்வேக்கு
பாக்கி ரூ.2700 கோடி </p><p>
</p><p>
இந்திய ரெயில்வேக்கு பிற துறைகளிடம் இருந்து வர வேண்டிய சரக்கு கட்டண பாக்கி ரூ.2700 கோடி
ஆகும். எண்ணெய், நிலக்கரி கம்பெனிகள் மற்றும் எரிசக்தி நிலையங்கள் மற்றும் மாநில
மின்சார வாரியங்கள் ஆகியவை பாக்கி தர வேண்டி உள்்ளது. இந்த பாக்கியை வசூலிக்க பேச்சு
வார்த்தை நடந்து வருகிறது என்று ரெயில்வே துறை இணை மந்திரி திக்விஜய்சிங் தெரிவித்தார்.
</p><p>
</p><p>
பீடி தொழிலாளர் வீடு கட்ட ரூ.20ஆயிரம் மானியம் </p><p>
</p><p>
பீடி தொழிலாளர்கள் நலனுக்காக மத்திய அரசு நிதி உருவாக்கி உள்ளது. இதன் மூலம் பீடித்
தொழிலாளர்களுக்கு வீட்டு வசதி, சுகாதார வசதி, குழந்தைகளின் கல்விச் செலவு ஆகியவற்றுக்கு
நிதி அளிக்கப்படும். வீடு கட்ட ரூ.20 ஆயிரம் மானியம் தரப்படும். இதே போல விவசாய
தொழிலாளர்கள், கட்டிட தொழி லாளர்கள் உள்ளிட்ட இதர அமைப்பு சாரா தொழிலாளர்களுக்கும்
உதவ மாநில அரசுகள் நல நிதி உருவாக்க வேண்டும். இதற்கு தற்போதைய தொழிலாளர் நல
சட்டங்களை பயன்படுத்திக் கொள்ளலாம் என்று மத்திய அரசு வலியுறுத்தி உள்ளது என்று
தொழிலாளர் நல மந்திரி சத்யநாராயண ஜாட்டியா நேற்று மாநிலங்களவையில் தெரிவித்தார். </p><p>
</p><p>
இந்த மாதம் பெண்கள் மசோதா </p><p>
</p><p>
பெண்கள் இட ஒதுக்கீடு மசோதா நடப்பு கூட்டத் தொடரிலேயே பாராளுமன்றத்தில் தாக்கல்
செய்யப்படும் என்று மாநிலங்களவையில் நேற்று அவை முன்னவர் ஜஸ்வந்த்சிங் தெரிவித்தார்.
இது தொடர்பாக அரசியல் கட்சிகளுடன் அரசு உரிய ஆலோசனைகள் நடத்தும். அதன்பிறகு நடப்பு
கூட்டத்தொடரில் தாக்கல் செய்யப்படும் என்றும் அவர் கூறினார். </p><p>
</p><p>
5000 விவசாய மருந்தகங்கள் </p><p>
</p><p>
இந்திய வேளாண்மை ஆராய்ச்சி கவுன்சில் நடத்திய ஆய்வின் அடிப்படையில் விவசாய
மருந்தகங்கள் மற்றும் விவசாய பொருட்கள் விற்பனை மையங்கள் அமைக்க அரசு முடிவு செய்து
உள்ளது. முதல்கட்டமாக 5000 விவசாய மருந்தகங்கள் அமைக்கப்படுகிறது. வேளாண் பட்டதாரிகளுக்கு
சுய தொழில் வாய்ப்பு வழங்கும் வகையில் இந்த திட்டம் செயல்படுத்தப்படும். தேர்வு
செய்யப்பட்ட பட்டதாரிகள் இதன் உரிமையாளர்களாகவும் ஆக்கப்படுவார்கள் என்று விவசாய
மந்திரி நிதிஷ்குமார் நேற்று மாநிலங்களவையில் தெரிவித்தார். </p><p>
</p><p>
விவசாயிகள் பிரச்சினை </p><p>
</p><p>
தீர்க்க புதிய திட்டம் </p><p>
</p><p>
விவசாயிகள் பிரச்சினை தொடர்பாக மக்களவையில் நேற்று கேள்வி நேரம் முடிந்ததும் பல்வேறு
கட்சி உறுப்பினர்கள் கேள்வி எழுப்பினர். விவசாயிகள் மீது இந்த அரசுக்கு அக்கறை இல்லை
என்றும் குற்றம் சாட்டினர். விவசாயிகள் தங்கள் விளை பொருட்களை விற்க சந்தை இல்லை.
பன்னாட்டு நிறுவனங்கள் அதில் நுழைந்து விட்டன. எனவே தங்கள் குறைகளை அரசிடம்
முறையிடுவதற்காக 5 லட்சம் விவசாயிகள் தலைநகரம் திரண்டு வந்து இருக்கிறார்கள் என்று
கூறினர். அப்போது விவசாய மந்திரி நிதிஷ்குமார் அவையில் இல்லை. அவருக்கு பதில்
பாராளுமன்ற விவகார மந்திரி பிரமோத் மகாஜன் கூறுகையில் விவசாயிகள் பிரச்சினைகளை
கவனிக்க பாராளுமன்ற நிலைக்குழு அமைப்பதை அரசும் ஆதரிக்கிறது. விவசாய தொழிலாளர் களுக்காக
விரிவான சட்டம் கொண்டு வரப்படும். இது குறித்து சட்ட மற்றும் விவசாய மந்திரிகளுடன்
ஆலோசனை நடத்தப் படும் என்று குறிப்பிட்டார். ஆனால் மந்திரியின் பதில் திருப்தி
அளிக்கவில்லை என்று சமாஜ்வாடி கட்சி மற்றும் ராஷ்டிரிய ஜனதாதள உறுப்பினர்கள் வௌிநடப்பு
செய்தனர். </p>

<p> </p>






</body></text></cesDoc>