<cesDoc id="tam-w-dinakaran-news-01-03-12" lang="tam">
<cesHeader type="text">
<fileDesc>
<titleStmt>
<h.title>tam-w-dinakaran-news-01-03-12.txt</h.title>
<respStmt>
<respType>Electronic file created by</respType>
<respName>Department of Linguistics, Lancaster University</respName>
<respType>text collected by</respType>
<respName>Paul Baker and Celia Worth</respName>
<respType>transferred into Unicode by</respType>
<respName>"Unicodify" software by Andrew Hardie</respName>
</respStmt>
</titleStmt>
<publicationStmt>
<distributor>UCREL</distributor>
<pubAddress>Department of Linguistics, Lancaster University, Lancaster, LA1 4YT, UK</pubAddress>
<availability region="WORLD"></availability>
<pubDate>03-08-24</pubDate>
</publicationStmt>
<sourceDesc>
<biblStruct>
<monogr>
<h.title>"Dinakaran" internet news (www.dinakaran.com), news stories collected on 01-03-12</h.title>
<h.author>Dinakaran</h.author>
<imprint>
<pubPlace>Tamil Nadu, India</pubPlace>
<publisher>Dinakaran</publisher>
<pubDate>01-03-12</pubDate>
</imprint>
</monogr>
</biblStruct>
</sourceDesc>
</fileDesc>
<encodingDesc>
<projectDesc>Text collected for use in the EMILLE project.</projectDesc>
<samplingDesc>Simple written text only has been transcribed. Diagrams, pictures and tables have been omitted and their place marked with a gap element.
</samplingDesc>
<editorialDecl>
<conformance level="1"></conformance>
</editorialDecl>
</encodingDesc>
<profileDesc>
<creation>
<date>03-08-24</date>
</creation>
<langUsage>Tamil</langUsage>
<wsdUsage>
<writingSystem id="ISO/IEC 10646">Universal Multiple-Octet Coded Character Set (UCS).</writingSystem>
</wsdUsage>
<textClass>
<channel mode="w">print</channel>
<constitution type="composite"></constitution>
<domain type="public"></domain>
<factuality type="fact"></factuality>
</textClass>
<translations></translations>
</profileDesc>
<revisionDesc></revisionDesc>
</cesHeader>

<text>
<body>




<p>உயர் அதிகாரிகளுடன்
ஆலோசனை: தமிழக சட்டசபை தேர்தல் தேதி இன்று முடிவு</p>

<p> </p>

<p>புதுடெல்லி, மார்ச் 12- தமிழகம், புதுவை உள்பட 5 மாநில சட்டசபை
தேர்தல் தேதி இன்று முடிவு செய்யப்படுகிறது. இது தொடர்பாக உயர் அதிகாரிகளுடன் தேர்தல்
ஆணையம் ஆலோசனை நடத்துகிறது. </p><p>
</p><p>
தமிழகம், புதுவை, கேரளா, மேற்கு வங்கம், அசாம் ஆகிய 5 மாநில சட்டசபை ஆயுள்காலம் மே
மற்றும் ஜூன் மாதத்துடன் முடிவடைகிறது அல்லவா? எனவே இந்த 5 மாநிலங்களிலும் சட்டசபை
தேர்தல் நடத்த தேர்தல் ஆணையம் தீவிர ஏற்பாடுகளை செய்து வருகிறது. </p><p>
</p><p>
அடுத்த மாதம் 3-வது வாரத்தில் தேர்தல் நடக்கலாம் என்று தேர்தல் ஆணைய வட்டாரங்கள் கூறி
வருகின்றன. தேர்தல் தேதி இன்னமும் நிச்சயமாக தெரியாத நிலையில் அரசியல் கட்சிகள்
பிரசாரத்தில் சுறுசுறுப்பாக இறங்கி விட்டன. </p><p>
</p><p>
இன்று ஆலோசனை </p><p>
</p><p>
இந்த நிலையில் தேர்தல் ஏற்பாடுகள் பற்றி இறுதி ஆய்வு செய்வதற்காக 5 மாநில
உயர்அதிகாரிகள் கூட்டத்தை தலைமை தேர்தல் ஆணையம் இன்று கூட்டி இருக்கிறது. டெல்லியில்
நடக்கும் இந்த கூட்டத்தில் மாநில தலைமை செயலாளர்கள், உள்துறை செயலாளர்கள்,
டி.ஜி.பி.க்கள், மாநில தலைமை தேர்தல் அதிகாரிகள் கலந்து கொள் கிறார்கள். தலைமை
தேர்தல் ஆணையர் கில் தலைமை தாங்குகிறார். தேர்தல் ஆணையர்கள் லிங்டோ, கிருஷ்ணமூர்த்தி
மற்றும் தேர்தல் ஆணைய உயர்அதிகாரிகளும் பங்கேற் கிறார்கள். காலையில் மாநில
உயர்அதிகாரிகளுடனும் மதியத்துக்குப் பிறகு மாநில தலைமை தேர்தல் அதிகாரிகளுடனும்
தனித்தனியாக இந்த ஆலோசனை நடக்கிறது. </p><p>
</p><p>
அடையாள அட்டை </p><p>
</p><p>
சட்டம்- ஒழுங்கு, பாதுகாப்பு ஏற்பாடுகள், அடையாள அட்டை வழங்கியது பற்றி முக்கியமாக இந்த
கூட்டத்தில் ஆலோசிக்கப்படுகிறது. ஒரே நாளில் 5 மாநிலத்திலும் தேர்தல் நடத்துவது பற்றி
இந்த கூட்டத்்தில் விவாதித்து முடிவு எடுக்கப்படும் என்று தெரிகிறது. </p><p>
</p><p>
பள்ளி, கல்லூரி தேர்வுகள், உள்ளூர் விழாக்கள் ஆகிய வற்றை கருத்தில் கொண்டு தேர்தல்
தேதி முடிவு செய்யப்படும். தேர்தல் தேதியை அறிவிப்பதற்கு முன்னதாக உள்துறை செயலாளருடன்
தேர்தல் ஆணையர்கள் ஆலோசனை நடத்துகிறார்கள். அதன் பிறகே தேர்தல் தேதி
அறிவிக்கப்படுகிறது. </p><p>
</p><p>
தமிழக சட்டசபை </p><p>
</p><p>
தமிழக சட்டசபையின் ஆயுள்காலம் மே மாதம் 21-ந் தேதியுடன் முடிவடைகிறது. புதுவை,
மேற்குவங்க சட்டசபை ஆயுள் காலம் ஜூன் 9-ந்தேதியும், கேரள சட்டசபை ஆயுள்காலம் மே
28-ந்தேதியும், அசாம் சட்டசபை ஆயுள்காலம் ஜூன் 11-ந்தேதியும் முடிவடைகிறது. </p>

<p> </p>

<p>இறுதி ஊர்வலத்தில் மோதல்:
மலேசியாவில் கலவரம்: 3 தமிழர்கள் கொலை, இந்தியர்களுக்கு பாதுகாப்பு அளிக்க பிரதமர்
உறுதி</p>

<p> </p>

<p>கோலாலம்பூர், மார்ச் 12- மலேசியாவில் கடந்தவாரம் நடந்த
இனக்கலவரத்தில் 5 பேர் கொல்லப்பட்டனர். இதில் 3 பேர் தமிழர்கள் என்பது இப்போது
தெரியவந்துள்ளது. மலேசியா வில் உள்ள இந்தியர்களுக்கு முழு பாதுகாப்பு அளிக்கப்படும் என்று
அந்த நாட்டு பிரதமர் உறுதி அளித்து உள்ளார். </p><p>
</p><p>
மலேசியாவில் இந்தியர்கள் கணிசமாக வசித்த போதிலும் சிறுபான்மையினராகவே உள்ளனர். அங்கு
சிறு பான்மை இந்தியர்களுக்கும் மலாய் முஸ்லிம்களுக்கும் இடையே கடந்த ஞாயிற்றுக் கிழமை
இனக்கலவரம் மூண்டது. </p><p>
</p><p>
சவ ஊர்வல மோதல் </p><p>
</p><p>
இந்தியர் ஒருவர் இறந்து விட்டதால் அவரது பிணம் தகனம் செய்ய ஊர்வலமாக எடுத்துச்
செல்லப்பட்டது. அப்போது மலாய் முஸ்லிம் திருமண விழா நடந்த தெரு வழியாக அந்த ஊர்வலம்
சென்றது. அப்போது இரு தரப்பினருக்கும் இடையே வாக்குவாதம் ஏற்பட்டு மோத லாக முற்றியது. </p><p>
</p><p>
5 பேர் கொலை </p><p>
</p><p>
இதையடுத்து கடந்த வியாழக்கிழமை இந்தியர்கள் குடியிருக்கும் பகுதியில் மலாய் இனத்தவர்கள்
பயங்கர ஆயுதங்களுடன் தாக்குதல் நடத்தினர். நூற்றுக்கும் மேற்பட்டவர்கள் இதில்
ஈடுபட்டனர். இந்த தாக்குதலில் 3 பேர் இறந்ததாக முதலில் வந்த தகவல் கூறியது. ஆனால்
நேற்று காலையில் மேலும் 2 பேர் இறந்தனர். இதனால் சாவு எண்ணிக்கை 5 ஆக உயர்ந்தது. </p><p>
</p><p>
தமிழர்கள் </p><p>
</p><p>
இதில் 3 பேர் இந்தியர்கள் என்று மலேசியாவில் தெரிவித்தனர். தற்போது அந்த 3 பேரும்
தமிழ்நாட்டைச் சேர்ந்தவர்கள் என்று தெரியவந்தது. ஏ.கணேசன் (வயது29), கே.முனி
ரத்தினம்(வயது 43), வி.சேகர் (வயது 34). இன்னொருவர் இந்தோனேசியா நாட்டைச்
சேர்ந்தவர். மற்றொருவர் யார் என்ற விவரம் தெரியவில்லை. </p><p>
</p><p>
வதந்தியே காரணம் </p><p>
</p><p>
தலைநகர் கோலாலம்பூரின் புறநகர் பகுதியில் நடந்தது. மலாய் முஸ்லிம்களை இந்தியர்கள்
தாக்கி விட்டதாக வதந்தி பரவியது. அதன் பின்னரே முஸ்லிம்கள் திரண்டு வந்து இந்தியர்கள்
மீது தாக்குதல் நடத்தினர். எனவே இது இனக் கலவரம் அல்ல. இந்தியர்களுக்கு போதுமான
பாதுகாப்பு அளிக்கப்பட்டு உள்ளது. எனவே வதந்தியை நம்ப வேண்டாம் என்று பிரதமர் மகாதிர்
முகம்மது கேட்டுக் கொண்டு உள்ளார். </p><p>
</p><p>
153 பேர் கைது </p><p>
</p><p>
அங்கு தற்போது நிலைமை கட்டுக்குள் அடங்கி இருப்பதாக போலீஸ் வட்டாரங்கள் கூறின. இது
தொடர்பாக 153 பேர் கைது செய்யப்பட்டனர். </p><p>
</p><p>
மலேசிய மக்கள் தொகையில் 55 சதவீதத்தினர் மலாய் முஸ்லிம்கள். 30 சதவீதம் சீனர்கள்.
10 சதவீதம் இந்தியர்கள் என்பது குறிப்பிடத்தக்கது. </p>

<p> </p>

<p>மேலும் ஒரு மாத காலத்துக்கு
போர்நிறுத்தம் நீட்டிக்க புலிகள் முடிவு</p>

<p> </p>

<p>கொழும்பு, மார்ச் 12- போர்நிறுத்தத்தை புலிகள் மேலும்
ஒருமாதத்துக்கு நீட்டிக்க உள்ளனர். அமைதி முயற்சிக்கு ஒத்துழைப்பு தரவும் அவர்கள்
திட்டமிட்டு உள்ளனர். </p><p>
</p><p>
இலங்கையில் தனி நாடு கேட்டு போராடி வரும் விடுதலைப்புலிகள் கடந்த வருடம் டிசம்பர் மாதம்
25-ந்தேதி ஒரு தலைப்பட்சமாக போர்நிறுத்தம் அறிவித்தது தெரிந்ததே. பின்னர் 2 முறை இந்த
போர் நிறுத்தத்தை புலிகள் நீட்டித்தனர். ஆனால் புலிகளின் போர் நிறுத்தத்தை
மதிக்காமல் இலங்கை ராணுவம் தாக்குதல் நடத்தி வருகிறது. </p><p>
</p><p>
எரிக் சோல்கைம் </p><p>
</p><p>
இந்தநிலையில் இலங்கை இனப்பிரச்சினையில் அமைதித் தீர்வு ஏற்படுத்த முயலும் நார்வே
நாட்டு அமைதித் தூதர் எரிக் சோல்கைம் கடந்த வாரம் கொழும்பு வந்திருந்தார். அதிபர்
சந்திரிகா உள்பட இலங்கை தலைவர்கள் பலரை அவர் சந்தித்து பேசினார். </p><p>
</p><p>
பின்னர் இங்கிலாந்து தலை நகரம் லண்டன் சென்ற அவர் அங்கு புலிகளின் அரசியல் குழு தலைவர்
அண்டன் பாலசிங்கத்தை சந்தித்து உரையாடினார். சந்திரிகா மற்றும் சிங்கள தலைவர்களின்
கருத்துக்களை அவர் பாலசிங்கத்திடம் கூறி விளக்கினார். </p><p>
</p><p>
நீட்டிப்பு </p><p>
</p><p>
இந்த சந்திப்பை அடுத்து போர்நிறுத்தத்தை மேலும் ஒரு மாத காலம் நீட்டிக்க புலிகள்
திட்டமிட்டு உள்ளனர். அது போல அமைதி முயற்சிக்கு தொடர்ந்து ஒத்துழைப்பு தரவும் அவர்கள்
திட்டமிட்டு இருக்கிறார்கள். இலங்கையில் இருந்து வௌிவரும் சண்டே அப்சர்வர் பத்திரிகை
இந்த தகவலை தெரிவித்து உள்ளது. </p><p>
</p><p>
இங்கிலாந்து தடை </p><p>
</p><p>
இதனிடையே இலங்கை வௌிவிவகாரத்துறை மந்திரி லட்சுமண் கதிர்காமரை தீர்த்துக் கட்ட
புலிகள் தனிப் படை அமைத்திருப்பதாக ஐலண்ட் என்ற இலங்கை பத்திரிகை செய்தி
வௌியிட்டுள்ளது. அதுகூறியிருப்பதாவது:- </p><p>
</p><p>
அண்மையில் இங்கிலாந்து அரசு புலிகளுக்கு தடை விதித்தது அல்லவா? இதற்கு இலங்கை
வௌிவிவகார மந்திரி லட்சுமண் கதிர்காமரின் இடை விடாத முயற்சியே காரணம் ஆகும். தமிழராக
இருந்தும் லட்சுமண் கதிர்காமர் இப்படி செய்துவிட்டதால் அவர் மீது புலிகள் கடும்
ஆத்திரத்தில் உள்ளனர். வன்னிக் காட்டுப் பகுதியில் அண்மையில் புலிகள் தலைவர்
பிரபாகரன் அவரது முக்கிய தளபதிகளுடன் பேச்சு நடத்தினார். அப்போது லட்சுமண் கதிர்காமரை
ஒரு இனத் துரோகி என்று பிரபாகரன் வர்ணித்துள்ளார். </p><p>
</p><p>
தனிப்படை </p><p>
</p><p>
இந்தநிலையில் கதிர் காமரை தீர்த்துக்கட்ட புலிகள் தனியாக தற்கொலைப்படை ஒன்றை
அமைத்துள்ளனர். இந்த கரும்புலிகள் படை கதிர் காமரை இப்போது குறிவைத்து உள்ளது. </p><p>
</p><p>
இவ்வாறு அந்த பத்திரிகை செய்தி வௌியிட்டுள்ளது. </p><p>
</p><p>
பலத்த பாதுகாப்பு </p><p>
</p><p>
கதிர்காமர் கடந்த 94-ம் ஆண்டு இலங்கை மந்திரியாக பதவியேற்றார். அதிலிருந்து அவரை
தீர்த்துக்கட்ட முயற்சிகள் நடந்து வருகின்றன. தற்போது இலங்கையில் உள்ள காபினட்
மந்திரிகளில் அதிக கட்டுக்காவலுடன் இருக்கும் மந்திரி கதிர்காமர்தான். </p><p>
</p><p>
4-வது இடம் </p><p>
</p><p>
புலிகள் தீர்த்துக்கட்ட விரும்பும் நபர்களின் பட்டியலில் கதிர்காமர் தற்போது 4-வது
இடத்தில் இருப்பதாக கூறப்படுகிறது. இந்த பட்டியலில் அதிபர் சந்திரிகா, பிரதமர் ரத்ன
விக்கிரம நாயகே, அரசியல் சட்டத்துறை மந்திரி ஜி.எல்.பெரிஸ் ஆகியோர் முதல் 3
இடங்களில் உள்ளனர். </p>

<p> </p>

<p>மேலும் 2500 பேருக்கு
ஓய்வூதியம் வழங்கப்படும்: கிராம கோவில் பூசாரிகளுக்கு தனிவாரியம், கருணாநிதி
அறிவிப்பு</p>

<p> </p>

<p>
 
 
  
  
  
  
  
  
  
  
  
  
  
  
 
 
 

 
<gap desc="illustration"></gap></p>




 
  
  <p>மதுரையில் கிராம
  கோவில் பூசாரிகள் மாநாட்டை முதலமைச்சர் கருணாநிதி குத்துவிளக்கு ஏற்றி தொடங்கி
  வைத்தார். அருகில் சபாநாயகர் பி.டி.ஆர்.பழனிவேல்ராஜன், அமைச்சர் ஆற்காடு வீராசாமி,
  திருவாடுதுறை ஆதீனம். பூசாரிகள் பேரவை தலைவர் வேதாந்தம், மணியம், கருமுத்து கண்ணன்
  உள்ளனர். </p>
  
 




<p>மதுரை, மார்ச். 12- கிராம கோவில் பூசாரிகளுக்கு தனி வாரியம்
அமைக்கப்படும் என்றும், மேலும் 2 ஆயிரத்து 500 பேருக்கு ஓய்வூதியம் வழங்கப்படும் என்றும்
மதுரையில் நடந்து வரும் கிராம கோவில் பூசாரிகள் மாநாட்டில் முதலமைச்சர் கருணாநிதி இன்று
அறிவித்தார். </p><p>
</p><p>
தமிழ்நாடு கிராம கோவில் பூசாரிகள் மாநாடு மதுரை தமுக்கம் மைதானத்தில் நேற்று முன்தினம்
(சனி) தொடங்கியது. மாநாட்டின் 2வது நாள் நிகழ்ச்சி இன்று (ஞாயிறு) காலை
தொடங்கியது. ஆர்.சிவநாதன் இறைவணக்கம் பாடினார். அனைவரையும் மாநாட்டின் வரவேற்பு குழு
தலைவர் கருமுத்து. தி.கண்ணன் வரவேற்று பேசினார். 2ம் நாள் நிகழ்ச்சிக்கு திருவாடுதுறை
ஆதீனம் தலைமை தாங்கினார். </p><p>
</p><p>
கருணாநிதி </p><p>
</p><p>
மாநாட்டில் முதலமைச்சர் கருணாநிதி கலந்துகொண்டு குத்து விளக்கு ஏற்றி வைத்து பேசினார்.
அப்போது அவர் கூறியதாவது:- </p><p>
</p><p>
இன்றைய தினம் நடைபெறுகின்ற இந்த மாநாட்டில் கலந்து கொள்ள வாய்ப்பு பெற்றமைக்கு
பெருமகிழ்ச்சி அடைகிறேன். பூசாரிகள் நடத்தும் மாநாட்டிற்கு கருணாநிதியை எப்படி
அழைத்தார்கள் என்று பல பேருக்கு ஆச்சரியமாக இருக்கலாம். இன்னும் சிலருக்கு கருணாநிதி
பூசாரிகள் மாநாட் டில் எப்படி கலந்து கொண்டார் என்றும் ஆச்சரியமாக இருக்கலாம். </p><p>
</p><p>
அங்கமாக செயல்படும் </p><p>
</p><p>
இந்த பிரச்சினையை பொறுத்தவரை இருசாராரும் ஆச்சரியப்பட தேவை இல்லை. தமிழ்நாட்டில் உள்ள
கிராம கோவில் பூசாரிகள் தமிழ்நாட்டு மக்களில் ஒரு அங்கம் தான். ஒரு அங்கத்தை பாராட்ட
இன்னொரு அங்கம் வருவதில் ஆச்சரியம் இல்லை. உடலில் ஒரு அங்கத்தில் குறை இருந்தால் அதை
இன்னொரு அங்கம் தீர்த்து வைக்கும். இடது கைக்்கு துன்பம் ஏற்பட்டால் வலது கை நீக்கும்.
அதைப் போல சமுதா யத்திலே உங்களுக்கு இருக்கின்ற தொல்லைகளை, துன்பங்களை உங்களால்
உருவாக்கப்பட்ட அங்கமான இந்த அரசு துடைப்பதற்காக இருக்கிறது. </p><p>
</p><p>
கிராம கோவில் பூசாரிகள் வாழ்்க்கையோடு ஒட்டி உணர்ந்தவன் நான். தஞ்சாவூர்
மாவட்டத்தில் திருவாரூருக்கு பக்கத்தில் உள்ள திருக்குவளை என்னும் கிராமத்தில் பிறந்த
தால் கிராம சூழ்நிலை பற்றி எனக்கு நன்றாக தெரியும். ஒரு கிராமத்தில் முன்னதாக முனியன்
கோவில் அல்லது வீரன் கோவில் அல்லது அம்மன் கோவில் இருக்கும். இவற்றிற்கு இடையே விஷ்ணு
அல்லது சிவன் கோவில் இருக்கும். </p><p>
</p><p>
கோவில் இல்லாத ஊரிலே குடியிருக்க வேண்டாம் என்று கூட ஒரு பழமொழி உண்டு. கோவில்களில்
உள்ள ஆண்டவனை வழிபடுபவர்கள் பக்தியாக வழிபடுவார்கள். அதற்கு மட்டும் அந்த கோவில்
பயன்படவில்லை. மாறாக வேலைவாய்ப்புக்கு ஒரு சாலையாகவும் பயன்படுகிறது. </p><p>
</p><p>
தவறான பிரசாரம் </p><p>
</p><p>
கோவில் கூடாது என்று சொல்பவர்கள் நாங்கள் என்று இன்னமும் சிலர் தவறான பிரசாரம்
செய்கிறார்கள். அப்படி சொல்வது தவறு என்று நான் 50 ஆண்டுகளுக்கு முன்பே பராசக்தி படத்தின்
மூலம் தெரியப்படுத்தி இருக்கிறேன். கோவில் கூடாது என்பது அல்ல. கோவில் கொடியவர்களின்
கூடாரமாக ஆகி விடக் கூடாது என்று கூறி இருக்கி றேன். அந்த அடிப்படையின் நோக்கத்தோடு
எங்களை நீங்கள் நோக்க வேண்டும். </p><p>
</p><p>
கோரிக்கைகள் </p><p>
</p><p>
கிராம கோவில் பூசாரிகள் பேரவையின் தலைவர் வேதாந்தம் இங்குபேசும்போது சில
கோரிக்கைகளை சொல்லி நிறைவேற்ற வேண்டும் என்று கேட்டுக் கொண்டார். எல்லா
கோரிக்கைகளையும் நிறைவேற்றி விட்டால் 5-வது மாநாடு தேவையில்லாமல் போய் விடும். அதற்காக
சில கோரிக்கைகளை இங்கே நிறைவேற்றுகிறேன். </p><p>
</p><p>
பயிற்சி மையங்கள் </p><p>
</p><p>
வழிபாட்டு பயிற்சி முறை பற்றி சொல்லப்பட்டது. இதற்காக வழி பாட்டு நூல் ஒன்றை இந்த அரசு
அமைத்து வருகிறது. அரசு என்றால் நாங்கள் அல்ல. அந்த பணியை சாந்தலிங்க அடிகளார் செய்து
வருகிறார். விரைவில் அவர் அந்த பணியை முடித்து தந்ததும் அது நூலாக அச்சிடப்படும். அந்த
நூல் கிராமக் கோவில் பூசாரி களுக்கு இலவசமாக வழங்கப்படும். அதிக வருமானம் உள்ள
கோவில்களில் 3 பயிற்சி மையங்கள் அமைக்கப்படும். ஒவ்வொரு பயிற்சி மையத்திலும் கிராம
கோவில் பூசாரிகள் 50 பேர் சேர்த்து கொள்ளப்பட்டு பயிற்சி அளிக்கப்படும் என்பதை
உறுதியாக தெரிவித்துக் கொள்கிறேன். </p><p>
</p><p>
4 ஆயிரம் பேர் </p><p>
</p><p>
ஓய்வூதியம் வழங்கும் எண்ணிக்கையை உயர்த்த வேண்டும் என்று கேட்டுக் கொண்டார்கள்.
ஏற்கனவே 1500 பேருக்கு மாதம் 500 ரூபாய் வீதம் ஓய்வூதியம் வழங்க 22.11.97ந்தேதி இந்த
அரசு ஆணையிட்டது. அந்த ஆணையின்படி 1306 பேர் மாதம் 500 ரூபாய் பெற்று வருகிறார்கள்.
இதுதவிர கிராம கோவில் பூசாரிகளுக்கு ஓய் வூதியம் வழங்கும் எண் ணிக்கை 4 ஆயிரம்
பேர்களாக உயர்த்தப்படும். </p><p>
</p><p>
இந்து அறநிலையத்துறையின் கீழ் ஆயிரம் ரூபாய்க்கு குறைவாக வருமானம் உள்ள ஆயிரம்
கோவில்களுக்கு மின்சாரம் வழங்க அனுமதிக்கப் பட்டு இந்த அரசு மின்வாரியத்திற்கு 12
லட்சம் ரூபாய் கொடுத்து வருகிறது. இத் திட்டம் மேலும் விரிவுபடுத்த நிச்சயம் நடவடிக்கை
எடுக்கப்படும். </p><p>
</p><p>
இலவச வீட்டுமனை பட்டா </p><p>
</p><p>
வருவாய்துறை மூலம் இலவச வீட்டுமனை பட்டா வழங்கப்பட்டு வருகிறது. இத் திட்டத்தில் கிராம
கோவில் பூசாரிகளுக்கு முன்னுரிமை அடிப்படையில் வீட்டு மனைப் பட்டா வழங்கப்படும். கோவில்
களுக்குதானமாகவழங்கப் படும் பசுக்களை ஏலம் போடக் கூடாது. அந்த பசுக்களை மாவட்டத்தில்
உள்ள பசு பாதுகாப்பு மையத்தில் ஒப்படைக்க வேண் டும் என்று இந்த அரசு 2 நாட்களுக்கு முன்பு
உத்தரவு போட்டுள்ளது. அதைப் போல ஒரு கால பூஜை திட்டம் மேலும் விரிவுபடுத்த இந்த அரசு
நட வடிக்கை எடுக்கும். </p><p>
</p><p>
பூசாரிகளுக்கு தனிவாரியம் அமைக்க வேண்டும் என்று கோரிக்கை வைக்கப்பட்டுள்ளது. ஏற்கனவே
அமைப்பு சாரா தொழிலில் வரையறுக்கப்பட்ட 66 பிரிவுகளில் இந்து சமய அறநிலையத் துறைக்கு
சம்பந்தப்படாத கோவில்களும் அந்த பட்டியலில் சேர்க்கப் பட்டுள்ளது. இருந்தாலும் கிராம
கோவில் பூசாரிகளுக்கு தனி வாரியம் அமைக்க பரிசீலித்து நட வடிக்கை எடுக்கப்படும். </p><p>
</p><p>
இந்த ஆட்சியில் கோவில்களில் தேரோட்டம், குடமுழுக்கு என்ற கும்பாபிசேகம் எப்படி
நடைபெறுகின்றன என்பதை எண்ணிப் பாருங்கள். கடந்த ஆட்சியை பற்றி சொல்ல வேண்டும்
என்பதற்காக சொல்ல வில்லை. கடந்த ஆட்சிக்கும் இந்த ஆட்சிக்கும் உள்ளதை ஒப்பிட்டுச்
சொல்கிறேன். </p><p>
</p><p>
கடந்த ஆட்சியில் 164கோவில்களில் திருப்பணிகள் நடந்தது. இந்த ஆட்சியில் 595
கோவில்களில் திருப்பணி செய்யப்பட்டு உள்ளது. கடந்த 5 ஆண்டு கால ஆட்சியில் 828
கோவில்களில் கும்பாபிசேகம் நடந்தது. 96-க்கு பிறகு இந்த ஆட்சியில் 2669 கோவில்களில்
கும்பாபிசேகம் நடந்து உள்ளது. </p><p>
</p><p>
முந்தைய ஆட்சியில் அதாவது 91-96-ம்ஆண்டில் கோவில்களின் சொத்து பதிவேடு எண்ணிக்கை 1680
ஆகும். இந்த 5 ஆண்டு ஆட்சியில் பதிவேடு எண்ணிக்கை 8325 ஆகும். முந்தைய ஆட்சியில்
கோவில்களின் சொத்து வருமானம் 365 கோடியாகும். இந்த ஆட்சியில் 648 கோடியாகும். </p><p>
</p><p>
இவைகளை எல்லாம் நான் ஒப்பிட்டுச் சொல்வதற்கு காரணம் எங்களைப் பற்றி எங்கள்
நிலைப்பாடுகள் பற்றி, எங்களின் கொள்கை பற்றி, லட்சியம் பற்றி, வழிகாட்டிகள் பற்றி,
முன்னோர்கள் பற்றி விமர்சனம் செய்பவர்கள் உங்கள் முன் நின்றாலும் உங்களுடைய உணர்வுகளை
என்றைக்கும் மதிப்பவர்கள் நாங்கள். உங்களுடைய உணர்வுகளை பெருமையாக கருது பவர்கள் உங்கள்
எண்ணம் நிறைவேற்றப்பட வேண்டும் என்று கருதுபவர்கள் நாங்கள். சொன்னதை செய்வோம்.
செய்வதை சொல்வோம் என்ற உறுதியை உள்ளத்தில் பதிய வைத்துக் கொண்டு செயல் படுபவர்கள்
நாங்கள். </p><p>
</p><p>
இங்கே வைக்கப்பட்ட கோரிக்கைகளில் எது நிறைவேற்றப்படும், எவை பின்னர்
நிறைவேற்றப்படும் என்பதை கூறி இருக்கிறேன். அதை மனதில் கொண்டு கோரிக்கைகள் நிறைவேற
இந்த ஆட்சியின் பொற்காலம் தொடர்வதற்கு உங்களுடைய ஒத்துழைப்பை தர வேண்டும் என்று
உங்களை கேட்டுக் கொள்கிறேன். </p><p>
</p><p>
இவ்வாறு அவர் கூறினார். </p><p>
</p><p>
பின்னர் கிராம கோவில் பூசாரிகள் சிலருக்கு முதலமைச்சர் கருணாநிதி சால்வை அணிவித்தார்.
</p><p>
</p><p>
காஞ்சி மடாதிபதி </p><p>
</p><p>
காஞ்சி மடாதிபதி சார்பாக முதலமைச்சர் கருணாநிதிக்கு சால்வை அணிவிக்கப்பட்டது.
திருவாடுதுறை ஆதீனமும் முதலமைச்சர் கருணாநிதிக்கு சால்வை அணிவித்தார். </p><p>
</p><p>
மத்திய அமைச்சர் </p><p>
</p><p>
மற்றும் மாநாட்டில் மத்திய அமைச்சர் பொன்.ராதாகிருஷ்ணன் சாந்தலிங்க அடிகளார், ஊரன்
அடிகள், திருப்பனந்தாள் ஆதீனம், பா.ஜ. பொதுச் செயலாளர் இல.கணேசன் உள்பட பலர்
பேசினர். </p><p>
</p><p>
மாநாட்டில் சபாநாயகர் பி.டி.ஆர். பழனிவேல்ராஜன், அமைச்சர்கள் ஆற்காடு வீராசாமி,
தமிழ்க்குடிமகன், தா.கிருஷ்ணன், ரகுமான்கான், பொன்முடி, ஐ.பெரியசாமி, சமயநல்லூர்
செல்வராஜ், இந்து முன்னணி தலைவர் ராம.கோபாலன், மாவட்ட கலெக்டர் வீ.தங்கவேலு உள்பட
பலர் கலந்து கொண்டனர். முடிவில் மணியன் நன்றி கூறினார். </p>

<p> </p>

<p>இந்தியப்பங்கு வாணிபத்தில்
தடுமாற்றம்: பங்கு விலைகள் கடும் வீழ்ச்சி</p>

<p> </p>

<p>கடந்த 10 ஆண்டுகளில் இல்லாத சிறந்த பட்ஜெட். தொழில்
வளர்ச்சிக்கு புத்துயிர் அளிக்கும் பட்ஜெட் என்றெல் லாம் பாராட்டப்பட்ட பட்ஜெட்
பற்றிய விமர்சனம் காரணமாக இந்திய பங்கு சந்தைகளில் ஏற்பட்ட உற்சாக வௌ்ளம்
அற்பஆயுசில் முடிந்துவிட்டது. பட்ஜெட் நாளன்று படுசுறு சுறுப்பாக காணப்பட்ட பங்கு வாணிபம்
அந்த வார இறுதி நாளன்றே பெரும் சரிவை சந்தித்தது. பட்ஜெட் நாளன்று (பிப்ரவரி 28) மும்பை
பங்கு சந்தை குறியீடு 176 புள்ளிகள் அதிகரித்தது என்றால் அதே அளவு புள்ளிகள் மார்ச்
2-ந் தேதி வௌ்ளிக்கிழமை அன்று வீழ்ச்சி கண்டது. இதனை கருப்பு வௌ்ளி ஒன்று என்று
அழைத்தால் மார்ச் 9-ந்தேதியை கருப்பு வௌ்ளி இரண்டு என்று அழைக்கலாம். அன்றைய தின மும்
மும்பை பங்கு விலை குறியீடு 175 புள்ளிகள் சரிந்தது. </p><p>
</p><p>
முதல் வௌ்ளி சரிவிற்கு மும்பை பங்கு சந்தை தலைவர் ஆனந்த் ரத்தி பலிகடா ஆக்கப் பட்டு
பதவி விலகினார். ஒரு வௌிநாட்டு நிதி நிறுவனமும், சில மும்பை தரகர்களும் கூட்டாக சேர்ந்து
வேண்டுமென்றே பங்கு விலைகளை இறங்க செய்ததாக குற்றம்சாட்டப்பட் டுள்ளது. இது எவ்வளவு
தூரம் உண்மை என்ற ஆராய்ச்சியில் பங்கு வாணிப கண்காணிப்பு அமைப்பான செபி
ஈடுபட்டுள்ளது. பங்குச்சந்தை விலை ஏற்ற இறக்கம் வாடிக்கையான ஒன்றுதான். ஆனால் மத்திய
நிதி அமைச்சகம் இதனை சிறப்பான பட்ஜெட்டின் மேன்மையை குறைப்பதற்கான சதி என்று ஏன் கருத
வேண்டும் என்பது புதிராக இருப்பதாக ஒரு கருத்தும் உள்ளது. அன் றைய விலை குறைவிற்கு நாஸ் டக்
மற்றும் சர்வதேச பங்குச் சந்தை நிலவரங்களே காரணம் என்று அவர்கள் வாதிடு கிறார்கள். </p><p>
</p><p>
இது ஒருபுறம் இருக்க, மார்ச் 9 வௌ்ளிக்கிழமை ஏற்பட்ட விலை வீழ்ச்சிக்கு காரணம்
கொல்கத்தா பங்குச்சந்தையை சேர்ந்த நான்கு தரகர்கள் ரூ.94 கோடி பணப்பட்டுவாடாவை
குறிப்பிட்ட நேரத்தில் செலுத்த முடியாததே காரணம். இதனை ஒரு வாய்ப்பாக கருதி கரடிகள்
தங்கள் கைவரிசையை காண் பிக்க முற்பட்டதால் அன்றைய தினமும் பங்கு விலைகள் கடுமையாக
வீழ்ச்சி கண்டதும் இதில் பணம் செலுத்த கால தாமதம் மட்டுமே ஏற்பட்டது. யாரும் பணம் கட்ட
தவற வில்லை. மேலும் இந்த தொகை முழுவதும் சனிக்கிழமைக்குள் செலுத்தப்பட்டுவிட்டதாகவும்
கொல்கத்தா பங்குச்சந்தை நிர்வாகம் அறிவித்துள்ளது. </p><p>
</p><p>
இதுஒருபுறம் இருக்க இந்த விலை சரிவுகள் குறித்தும் பங்குச்சந்தை கண்காணிப்பு முறை
குறித்தும் நாளை நாடாளுமன்றத்தில் ஒரு விவாத மும் நடக்க உள்ளது. இதனை சமாளிக்க மத்திய
நிதி அமைச்ச கம் தன்னை தயார்படுத்திக் கொண்டு வருகிறது. மேலும் இப் போதைய விலை
இறக்கத்தில் பெரிதும் பாதிக்கப்பட்டவை தகவல் தொழில்நுட்ப பங்கு களே என்பது
குறிப்பிடத்தக்கது. இதற்கு காரணம் சாப்ட்வேர் நிறுவனங்களின் லாபம் குறை யக்கூடும் என்று
இந்திய நிறு வனமான நிட்டும் அமெரிக்க இன்டெல் நிறுவனமும் அறிவித் திருப்பதுமேயாகும். </p><p>
</p><p>
இனி கடந்த வார வாணிப நிகழ்வுகளை பார்க்கலாம். விமர்சன வாரத்தில் செவ் வாய்க்கிழமை
பக்ரீத் விடுமுறை காரணமாக நான்கு நாட்கள் வாணிபமே நடைபெற்றது. திங்கட்கிழமை அன்று
நாஸ்டக் விலை குறைவை அடுத்து இங்கும் ஐஸ் (லீ்நீ) பங்கு விலை கள் பெரிதும் குறைந்தன.
புதன், வியாழனில் பங்கு வாணிபத்தில் நிதானமான போக்கு காணப்பட்டது. எனினும் வௌ்
ளிக்கிழமை அன்று பங்கு வாணிபம் மீண்டும் களை இழந்தது. தகவல் தொழில் நுட்பம், தொழில்
தொடர்பு மற்றும் பொழுதுபோக்கு துறை பங்குகள் கடுமையாக விலை குறைந்தன. </p><p>
</p><p>
மொத்தத்தில் பங்குச்சந்தைகளில் ஒரு குழப்பமான நிலை ஏற்பட்டுள்ளது. நிலைமை தௌிவாகும்
வரை ஒதுங்கி இருப்பதே உத்தமம். </p>

<p> </p>

<p>தெருக்கள் தோறும் கோவில்
அமைப்பதை தவிர்க்க வேண்டும், திருவாடுதுறை ஆதீனம் வேண்டுகோள்</p>

<p> </p>

<p>கிராம கோவில் பூசாரிகள் மாநாட்டின் 2-ம் நாள் நிகழ்ச்சிக்கு
திருவாடுதுறை ஆதீனம் தலைமை வகித்தார். அப்போது அவர் பேசியதாவது:- </p><p>
</p><p>
கிராம கோவில் பூசாரி களுக்கு பயிற்சி அளிக்க வேண்டும் என்ற யோசனையை கடந்த 10
நாட்களுக்கு முன்பு எங்களை எல்லாம் அழைத்து பேசிய முதலமைச்சர் கூறினார். நாங்கள் கூட அந்த
கோரிக்கையை வைக்கவில்லை. அவராகத் தான் அந்த யோசனையை சொன்னார். இதில் இருந்து அவர்
கிராம கோவில் பூசாரிகள் மீது தனி கவனம் செலுத்துவதை தெரிந்து கொண்டேன். இந்த வாய்ப்பை
நீங்கள் அனை வரும் பயன்படுத்திக் கொள்ள வேண்டும். </p><p>
</p><p>
தெருக் கோவில்கள் </p><p>
</p><p>
மேலும் தெருவுக்கு தெரு புதிது புதிதாக கோவில்கள் வைப்பதால் சண்டை ஏற்படுகிறது. புதிய
கோவில்களை உருவாக்குவதை விட பழைய கோவில்களை செம்மைப் படுத்துவது சாலச் சிறந்தது ஆகும்.
தெருவுக்கு தெரு கோவில்கள் வைப்பதால் போக்குவரத்துக்கு இடையூறு ஏற்படுகிறது. பசுவதை தடுக்க
வேண்டும் என்றார்கள். பசு மட்டுமல்ல, ஆடு, கோழியும் கூட அந்த வகையில் வருவது தான். அதை
பலியாக்குவதையும் தடுக்க வேண்டும். ஆடு, கோழி கொண்டு வா என்று கடவுளா கேட்கிறார்?
நாமாக கடவுள் கேட்கிறார் என்று சொல்லிக் கொண்டு போய் பலியாக்குகிறோம். எனவே தான்
அதையும் நிறுத்த வேண்டும் என்று எனது எண்ணத்தை சொல்கிறேன். </p><p>
</p><p>
சுத்தம் </p><p>
</p><p>
கிறிஸ்தவர்களும் முஸ்லிம்களும் அவர்களது கோவில்களை எப்படி சுத்தமாக வைத்து
இருக்கிறார்கள். ஏன் அவர்களைப் போல நாமும் நமது கோவில்களை சுத்தமாக வைத்து இருக்க கூடாது
என்று கேட்க விரும்புகிறேன். பூசாரிகள் அனைவரும் முறையாக பூஜை செய்ய வேண்டும் என்று
கேட்டுக் கொள்கிறேன். </p><p>
</p><p>
இவ்வாறு அவர் கூறினார். </p>

<p> </p>

<p>வேட்பாளர் மீது பழி போட்டு
தப்ப முடியாது: தேர்தல் தில்லுமுல்லு செய்யும்ஏஜெண்டுக்கு தண்டனை உறுதி, சுப்ரீம் கோர்ட்டு
தீர்ப்பு</p>

<p> </p>

<p>புதுடெல்லி, மார்ச் 12- தேர்தல் தில்லுமுல்லு செய்யும் ஏஜெண்டுகள்
தண்டனை அனுபவித்தே தீர வேண்டும். வேட்பாளர் மீது பழி போட்டு அவர்கள் தப்ப முடியாது என்று
சுப்ரீம் கோர்ட்டு தீர்ப்பளித்து உள்ளது. </p><p>
</p><p>
தேர்தல் தில்லு தொடர்பான வழக்கை விசாரித்த சுப்ரீம் கோர்ட்டு தலைமை நீதிபதி
ஏ.எஸ்.ஆனந்த், நீதிபதிகள் ஆர்.சி.லகோட்டி, சிவராஜ் பட்டீல் ஆகியோர் அளித்த
தீர்ப்பில் கூறியிருப்பதாவது:- </p><p>
</p><p>
தேர்தலின் போது தில்லு முல்லு செயல்களில் ஈடுபடும் ஏஜெண்டுகள் தாங்கள் வேட்
பாளர்களின் பிரதிநிதிகள் என்று கூறி தப்பிக்க பார்க்கிறார்கள். நடந்த தில்லுமுல்லுவுக்கு
சம்பந்தப்பட்ட வேட்பாளர் தான் பொறுப்பு என்று ஏஜெண்டுகள் கூறுகிறார்கள். வேட்பாளர் மீது
பழி போட்டு ஏஜெண்டுகள் தப்பி விடுகிறார்கள். </p><p>
</p><p>
தண்டனை உறுதி </p><p>
</p><p>
ஏஜெண்டுகளின் இந்த வாதம் ஏற்க முடியாதது. தேர்தலில் தில்லுமுல்லு செய் பவர்களை சும்மா
விட்டுவிட முடியாது. அவர்கள் தண்டனை அடைந்தே தீரவேண்டும். மக்கள் பிரதிநிதித்துவ
சட்டத்தின் 123 -வது பிரிவின் கீழ் குறிப்பிடப்பட்டுள்ளவர்கள் அனைவரும் தில்லுமுல்லு
செய்தால் தண்டனை உண்டு. </p><p>
</p><p>
இவ்வாறு தீர்ப்பில் கூறி உள்ளார்கள். </p>

<p> </p>

<p>டீசல் டேங்க் வெடித்து பஸ்
தீப்பிடித்ததில் 40 பயணி கருகி சாவு</p>

<p> </p>

<p>மலப்புரம், மார்ச் 12- காருடன் மோதியதால் பஸ் டீசல் டேங்க்
வெடித்து எரிந்தது. இதில் 40 பயணிகள் கருகி செத்தனர். </p><p>
</p><p>
கேரள மாநிலம் குருவாயூரில் இருந்து தலச்சேரிக்கு நேற்று ஒரு தனியார் பஸ் சென்றது.
திருரங்காடி என்ற இடத்துக்கு அருகில் சென்ற போது எதிரில் வந்த கார் மீது பஸ் மோதியது.
இதனால் பஸ் கவிழ்ந்தது. </p><p>
</p><p>
அதே சமயத்தில் பஸ்சின் டீசல் டேங்க் வெடித்து தீப்பிடித்தது. இதனால் பஸ்சில் இருந்த
பயணிகள் தீயில் கருகி அலறினர். பயணிகள் வௌியே வர முடியாதபடி பஸ் எரிந்தது அதில் பயணம்
செய்தவர்களில் 40 பயணிகள் கருகி இறந்தனர். 4 பேர் மட்டுமே உயிர் தப்பியதாக முதலில்
கிடைத்த தகவல் கூறுகிறது. </p><p>
</p><p>
சாவு அதிகரிக்கும் </p><p>
</p><p>
ஆனால் அந்த பஸ்சில் அனுமதிக்கப்பட்ட அளவை விட அதிக பயணிகள் பயணம் செய்ததால் சாவு
எண்ணிக்கை அதிகம் இருக்கும் என்று போலீஸ் வட்டாரங்கள் கூறின. </p>

<p> </p>

<p>நிபுணர்கள் ஆய்வில் தகவல்:
பூகம்பத்தில் ஆக்ரா அழிந்தாலும் தாஜ்மகால் சேதம் அடையாது</p>

<p> </p>

<p>புதுடெல்லி, மார்ச் 12- குஜராத் பூகம்பம் பூமி அதிர்ச்சி பற்றி
பெரும் பீதியை கிளப்பி உள்ளது அல்லவா? இந்தியா வின் பல்வேறு பகுதி பூமி
அதிர்ச்சிக்கு ஆளாகும் பகுதியாக இருக்கிறது. ஆக்ராவும் அதில் அடங்கும். இங்கு தான் உலக
அதிசயங்களில் ஒன்றான தாஜ் மகால் பளிங்கு மாளிகை உள்ளது. தாஜ்மகாலுக்கு, பூகம் பத்தால்
பாதிப்பு ஏற்படுமா? என்பது பற்றி நிபுணர்கள் ஆராய்்ந்தனர். தாஜ்மகால் வடிவ மைப்பு,
பூகம்பத்தால் சேதம் அடையாது என்று இந்திய புவியியல் துறை டைரக்டர் ஜெனரல் கோமளா
ஆனந்த் கூறினார். ஆனால் பூகம்ப எதிர்ப்பு சக்தி தொழில் நுட்ப கட்டிடம் என்று
தாஜ்மகாலை சொல்ல முடியாது. எந்த புரா தின கட்டிடமும் பூமி அதிர்ச்சி யில் சில
பாதிப்புக்கு ஆளாகவே செய்யும் என்கிறார் அவர். </p>

<p> </p>

<p>தற்போது 10 சதவிகிதம்
உள்ளது: ரத்த குழாய் அடைப்பு பிரச்சினை 10 வருடத்தில் இரட்டிப்பாகும், இதய நோய்
நிபுணர் தணிகாசலம் எச்சரிக்கை</p>

<p> </p>

<p>சென்னை, மார்ச் 12- இந்தியாவில் தற்போது 10 சதவிகிதம் உள்ள
ரத்தநாள அடைப்பு பிரச்சினை இன்னும் 10 வருடங்களில் இரட்டிப்பாகும் அபாயம் உள்ளது என இதய
நோய் நிபுணர் தணிகாசலம் கூறினார். இதுபற்றி அவர் மேலும் கூறியதாவது:- </p><p>
</p><p>
ரத்தநாள அடைப்பு நோய் உலகின் பல நாடுகளிலும் பரவலாகக் காணப்பட்டாலும் குறிப்பாக
இந்தியா, பங்களாதேஷ் மற்றும் பாகிஸ்தான் போன்ற நாடுகளில் உள்ள மக்களிடையே அதிகமாக
காணப்படுகிறது. கடந்த 15வருட மருத்துவ ஆராய்ச்சியின் மூலம் ரத்த நாள அடைப்பு தற்போது
உள்ளதைவிட 10 சதவிகிதம் அதிகமாகும் என்பது தௌிவாகிறது. இதைக்கருத்தில் கொண்டு எங்களது
ராமச்சந் திரா மருத்துவ பல்கலைக்கழகம், இவ்வாறு அதிக அளவு பரவலாக தோன்றக் காரணம்
என்ன என்ற ஆய்வு மிக முக் கியமானது என்பதை உணர்ந்து அதற்கான பொருளுதவி பெற அறிவியல்
மற்றும் தொழில்நுட்பத்துறையின் உதவியை நாடியது. இதன் முக்கியத்துவத்தை ஆய்ந்த அக்குழு 2
வருடங்களுக்குள் இந்த ஆய்வை செய்து முடிக்க அதிகபட்ச அளவுத்தொகையை பரிந் துரைத்துள்ளது. </p><p>
</p><p>
கொலஸ்ட்ரால் மட்டுமல்ல </p><p>
</p><p>
ரத்த நாள அடைப்புக்கு கொலஸ்ட்ரால் மட்டுமே காரணம் அல்ல. பல்வேறு வகை யான காரணங்களும்
தற் போது கண்டுபிடிக்கப்பட்டுள்ளன. ரத்த நாள அடைப்பு என்பது இதயத்தில் மட்டும் வருவது.
அதனால் உண்டாவது தான் மாரடைப்பு என்று பலரும் நினைக்கிறார்கள். இதயத்தில் மட்டுமின்றி
மூளையிலிருந்து பாதம் வரை எங்கு வேண்டுமானாலும் ரத்த நாள அடைப்பு வரலாம். உதாரணமாக
மூளைப்பகுதியில் இது ஏற்பட்டால் ஸ்ட்ரோக் எனப்படுகிறது. சிறுநீரகப் பகுதியில் வந்தால்
அதற்கு வேறு பெயர் உண்டு. நமது நாட்டில் இந்தப் பாதிப்பு 20 வயது முதலே ஆரம்பமாகி
விடுகிறது. </p><p>
</p><p>
ரத்த நாள செயல் </p><p>
</p><p>
நமது உடலில் உள்ள ரத்த நாளங்களின் செயல்பாடுகள் ஆச்சரியமூட்டுவதாக அமைந் துள்ளது. அதாவது
தேவைக் கேற்ப விரிந்து அதிக ரத்தத்தை உறுப்புகளுக்கு பாய்ச்சவும், தேவையற்ற நேரத்தில்
தன்னாலேயே சுருங்கிக் கொள்கின்றன. நாம் ஓடுகிறபோது அதிக சக்தி தேவைப்படுகிறது. அப்போது
ஏற்படும் உடல் ரீதியான மாற் றங்களுக்கு ஈடுகொடுக்கும் வகையில் ரத்த நாளங்கள் விரிந்து
கொள்கின்றன. உடல் உழைப்பின்போது மட்டுமல்ல, தீவிர சிந்தனை செய்யும் நேரத் திலும்
ரத்த நாளங்கள் விரி வடைகின்றன. </p><p>
</p><p>
அதாவது போட்டித்தேர்வு எழுதுகின்ற வேளையில், ஒருவரின் மூளையில் ரத்த ஓட்டம்
அதிகரிக்கிறது. சாதாரணமாக 40 சி.சி. ஆக இருக்கும் ரத்த அழுத்தம் கடினமான அல் ஜீப்ரா
கணக்கு செய்யும்போது 60 சி.சி. ஆகிவிடும். மனிதனில் மட்டுமின்றி இந்த வகை ரத்த நாள
அடைப்பு விலங்கினத்திலும் காணப்படுகிறது. </p><p>
</p><p>
மன அழுத்தமும் காரணம் </p><p>
</p><p>
காலை முதல் இரவு வரை எப்போதும் டென்ஷனான சூழ் நிலையில் பணிபுரிந்து வரு பவர்களுக்கு
இந்த வகை ரத்த நாள அடைப்பு நிச்சயம் பாதிக்கும் என்று ஆய்வில் தெரியவந் துள்ளது.
பொதுவாக நமது நாட்டில் 40 சதவிகித மக்கள் மாரடைப்பு நோயால் பாதிக்கப் படுகிறார்கள்.
8 சதவிகித மக்கள் சர்க்கரை வியாதி, உயர் ரத்த அழுத்த நோய் போன்ற வற்றால்
பாதிக்கப்படுகின்றனர். சுற்றுச்சூழலில் மாசு ஏற்படுவதன் தாக்கமாகக்கூட இந்த பாதிப்பு
உண்டாகலாம். தவிர ரத்தத்தில் அதிக சர்க்கரை உள்ள நிலையை சில மாதங்கள் கவனிக்காமல்
விட்டு விட்டாலும் 10 வருடங்கள் கழித்து நிச்சயம் ரத்தநாள அடைப்பு பிரச்சினை உண்டாகும்.
</p><p>
</p><p>
இந்த பாதிப்பு ஓரிரு வாரங்களில் உண்டாவதல்ல. பல வருடங்களாக, இதய நாள உள் பரப்பின்
தன்மையை மாற்றி அதன் சுவர்களுக்கிடையே கொழுப்புச்சத்து அதிகமான அளவு படியும்படிச் செய்து
ரத்தநாளத்தின் உள்பரப்பை சிறிது சிறிதாக குறைத்து பிறகு முழுவதுமாக அடைக்கப்பட்டு உறுப்பு
செயல் இழக்கிறது. இவ் வாறு தங்களுக்கு இதய நாளத்திலோ அல்லது மற்ற நாளத்திலோ நோய்
உள்ளது என்று தெரிந்தும்கூட பலர் பரிசோத னைகளோ, சிகிச்சையோ செய்து கொள்ள முடியாதபடி
பொருளாதார பற்றாக்குறையினால் நோய் முற்றி மரண மடைகின்றனர். </p><p>
</p><p>
வரும் முன் காக்க </p><p>
</p><p>
எனவே இதனை முன்கூட்டியே அறிந்துகொண்டு வரும் முன் காக்க விதிமுறைகளை மேற்கொள்ள வேண்டும்.
இதன் அடிப்படையில் நாங்கள் செய்யும் இந்த ஆய்வில் 600 பேரை தேர்வு செய்துள்ளோம்.
இவர் கள் அனைவருமே 40 வயதுக்கு மேற்பட்டவர்கள். இதில் 300 பேர் நோயாளிகள். 300 பேர்
நல்ல உடல்நிலை கொண்டவர்கள். இவர்களுக்கு சர்க்கரை வியாதி, (பேமிலி ஹிஸ்டரி) உயர்
ரத்த அழுத்தம், மதுப் பழக்கம், புகைப்பழக்கம் போன்றவற்றை பரிசோதித்து ரத்த நாள
அடைப்பிற்கான காரணங்கள் ஆராயப்படும். இதற்காக இந்தியா முழுவதும் 6 குழுக்களாக பிரிந்து
செய லாற்றுகிறோம். இந்த ஆய்வுக்கு மன நல மருத்துவர்கள் மற்றும் பல்வேறு துறை மருத்துவர்
களும் உதவியாக இருக்கிறார்கள். இதுவரை 86 பேரிடம் ஆய்வு செய்யப்பட்டுள்ளன. இந்த
ஆய்வின் முடிவில் தெரியவரும் கருத்துக்களுக்கேற்ப மக்கள் தங்கள் வாழ்க்கை முறையை மாற்றி
அமைத்துக்கொண்டால் ரத்த நாள அடைப்பு பிரச்சினை வராமல் தடுத்துவிட முடியும். </p><p>
</p><p>
இவ்வாறு அவர் கூறினார். </p><p>
</p><p>
பேட்டியின்போது ராமச்சந்திரா மருத்துவ பல்கலைக்கழ கத்தின் முதல்வரும், உயிர் வேதியியல்
துறையின் தலைவருமான டாக்டர் ஹரிபிரசாத் தும் உடனிருந்தார். </p>

<p> </p>

<p>நீலகிரியின் வரலாறு கூறும்,
178 வயதான ஓக் மரத்தை பாதுகாக்க கலெக்டர் நடவடிக்கை</p>

<p> </p>

<p>ஊட்டி, மார்ச். 12- ஊட்டி அரசு கலைக்கல்லூரியில் நீலகிரியின்
வரலாற்றின் முக்கியத்துவம் கொண்ட 178 வயதான ஓக் மரம் பாதுகாப்பதற்கான ஏற்பாடுகள்
செய்யப்பட்டுள்ளது. </p><p>
</p><p>
இன்று தினந்தோறும் ஆயிரக்கணக்கான சுற்றுலா பயணிகளை கவர்ந்து வரும் இயற்கை எழில் நிறைந்த
நீலகிரி மலை பகுதியை வௌி உலகத்திற்கு அறிமுகப்படுத்திய பெருமை ஆங்கிலேயர் காலத்தில்
கோவை மாவட்ட கலெக்டராக இருந்த ஜான் சலிவன் என்பவரையே சாரும். </p><p>
</p><p>
கோவை மாவட்ட கலெக்டராக இருந்த ஜான் சலிவன் நீலகிரி மாவட்டத்தின் கிழக்கு மலை சரிவு
வழியாக கோத்தகிரி அருகே கன்னேரிமூக்கு என்ற இடத்திற்கு வந்து அங்கு ஒரு வீடு கட்டினார்.
அதன் பிறகு அவர் ஊட்டிக்கு வந்தார். </p><p>
</p><p>
ஓக் மரம் </p><p>
</p><p>
ஊட்டி அரசு கலைக்கல்்லூரி செயல்படும் இடத்தில் 1921-ம் ஆண்டு முதன் முதலாக ஸ்டோன் ஹவுஸ்
(கல்வீடு) என்ற வீட்டை கட்டி குடியேறினார். (இது தற்போது அரசு கலைக்கல்லூரியாக
செயல்படுகிறது.) 1923 -ம் ஆண்டு ஸ்டோன் ஹவுஸ் முன்பு ஜான் சலிவன் பூங்காவை அமைத்து
தன்னுடைய நாடான இங்கிலாந்திலிருந்து கொண்டு வரப்பட்ட ஓக் மரகன்றை நட்டு வளர்த்தார். </p><p>
</p><p>
இன்று இந்த ஓக் மரத்திற்கு வயது 178 ஆண்டுகளாகும். இது ஓக் மரத்தில் குர்கஸ் செரீஸ்
இனத்தை சார்ந்ததாகும். ஊட்டி அரசு கலைக்கல்்லூரியின் சிறப்புகளுக்கு இந்த ஓக் மரம்
பெருமைகளை சேர்த்து வந்தது. </p><p>
</p><p>
நோய் </p><p>
</p><p>
இந்தியாவில் நாம் மரங்கள் நடுவதில் முக்கியத்துவம் கொண்டதாக மா மரத்தை நடுவோம்.
ஆங்கிலேயர்கள் ஓக் மரத்தை முக்கியத்துவம் வாய்ந்்ததாக கருதி நட்டு வருகிறார்கள். அதே
போன்று தான் ஆங்கிலேய கலெக்டர் ஜான் சலிவனால் நட்டு வளர்க்கப்பட்ட இந்த ஓக் மரம்்
தன்னுடைய 178-வது வயதில் தளர்ந்து பெருமூச்சு விட தொடங்கியது. ஆமாம் இந்்த மரத்தினை
நோய்கள் தாக்க தொடங்கியது. முதன் முதலாக கிளைகளை தாக்கியது. இதனால் ஒரு கிளை முறிந்து
விழுந்தது. இந்த வரலாற்று முக்கியத்துவம் கொண்ட 178 வயதான ஓக் மரத்தை பாதுகாக்க அரசு
கலைக்கல்லூரி முதல்வர் டாக்டர் அம்பாள் கடிதம் மூலம் மாவட்ட ககெல்டருக்கு வேண்டுகோள்
விடுத்தார். </p><p>
</p><p>
பாதுகாப்பு நடவடிக்கை </p><p>
</p><p>
நீலகிரி மாவட்ட கலெக்டர் சுப்ரியா சாகு வரலாற்று முக்கியத்துவம் கொண்ட ஓக் மரத்தை
பாதுகாக்க நடவடிக்கை எடுத்து தோட்டக்கலைத்துறை அலுவலர்களுக்கு உத்தரவிட்டார். </p><p>
</p><p>
தோட்டக்கலைத்துறை இணை இயக்குனர் கே.சண்முகம்் ஆலோசனையின் பேரில், ஊட்டி அரசின்
தாவரஇயல் பூங்கா உதவி இயக்குனர் டி.பௌ்ளி, பூங்கா மேலாளர் களான தோட்டக்கலைத்துறை
அலுவலர்கள் ராம்்்சுந்தர், ராம்பிரசாத் மற்றும் தோட்டக் கலைத்துறை அலுவலர் எம்.முருகன்,
அரசு கலைக்கல்லூரி தாவரஇயல் துறை பேராசிரியர் போஜன், தாவரஇயல் துறை பேராசிரியர்
போஜன், தாவரஇயல் நிபுணர் ராஜன் ஆகியோர் 178 வயதுடைய ஓக் மரத்தை நேரில் ஆய்வு
நடத்தினார்கள். </p><p>
</p><p>
இந்த ஓக் மரத்தில் முறிந்த நிலையில் இருந்த கிளையை அகற்றினார்கள். இதில் 2 அடி நீள
மரக்கிளை துண்டு ஊட்டி அரசு அருங்காட்சியத்துக்கு கொண்டு சென்று வைக்கப்பட்டது. </p><p>
</p><p>
இந்த ஓக் மரத்தில் ஆங்காங்கு பூஞ்சான் கொல்லி மருந்துகள் போடப்பட்டது. தேவையான
அளவு உரமிடப்பட்டது. சுற்றிலும் இருக்கும் பாதுகாப்பு வேலியை பலப்படுத்த ஆலோசனைகள்
வழங்கப்பட்டது. இந்த உடனடியான பாதுகாப்பு பணிகளை செய்திருக்காவிட்டால் மரத்தை தாக்கிய
நோய் வேர் வரை பரவி மரத்தை அடியோடு அழித்திருக்கும். உரிய காலத்தில் இந்த ஓக் மரத்தை
தோட்டக்கலை துறை அலுவலர்கள் நடவடிக்கையை மேற்கொண்டு பாதுகாத்துள்ளளார்கள். </p><p>
</p><p>
நூற்றாண்டு </p><p>
</p><p>
மேலும், நீலகிரி மாவட்டத்தை கண்டுபிடித்த வௌி உலகுக்கு அறிமுகம் செய்்த நூற்றாண்டு விழா
நினைவாக அரசு கலைக்கல்லூரியின் வளாகத்தில் ஜான் சலிவன் ஓக் மமரத்தின் சிறிது
தூரத்தில் 1923-ம்் ஆண்டு அன்றைய சென்னை கவர்்்னராக லார்டு வெலிங்டன் மற்றும் அவரது
துணைவியார் ஆகியோர் நட்டு வைத்த இரண்டு ஓக் மரங்கள் செழுமையாக வளர்ந்துள்ளது. இந்த
மரங்களுக்கு 78 வயதாகிறது. இந்த இரண்டு ஓக் மரங்்களை சுற்றி பாதுகாப்பு வேலி அமைக்கவும்
மாவட்ட கலெக்டர் சுப்ரியாசாகு நடவடிக்கைகளை மேற்கொண்டுள்ளார். </p><p>
</p><p>
கமிட்டி </p><p>
</p><p>
இயற்கையை நேசிப்பவர்களும்் இயற்கை சுற்றுப்புறச்சூழல் பாதுகாக்க வேண்டும் என குரல்
எழுப்புவர்களும், சமூக சேவை சங்கத்தினர்களும் முன்வந்து இந்த 3 ஓக் மரங்களை தத்து எடுத்து
பாதுகாக்க முன் வரவேண்டும். </p><p>
</p><p>
நீலகிரி மவாட்டத்தை கண்டு பிடித்தவர்களின் நினைவாக வரலாற்று முக்கியத்துவம் கொண்ட இந்த
ஓக் மரங்்களை பாதுகாக்க மாவட்ட கலெக்டர் தலைமையயில் தோட்டக்கலை துறை, தாவரஇயல் துறை
நிபுணர்கள், அரசு கலைக்கல்லூரி நிர்வாகம், இயற்கையை நேசிக்கும்் ஆர்வாளர்்்களை
கொண்டு ஒரு நிரந்தர கமிட்டி அமைக்க வேண்டும். </p><p>
</p><p>
அமெரிக்கா, ஐரோப்பிய நாடுகளில் ஏராளமான ஓக் மரங்கள் உள்ளது. ஊட்டி அரசு கலைக்கல்லூரி
வளாகத்தில் ஜான் சலின் ஓக் மரம் குர்கஸ் செரீஸ் இனத்தை சேர்ந்தது. மற்ற 2 ஓக்
மரங்களும் குர்கஸ் இன்கானா இனத்தை சேர்ந்தாகும். இந்த ஓக் மரங்கள் தாய்்்நாடான
ஐரோப்பா, அமெரிக்கா நாடுகளில் பேூத்து குலுங்கும்். ஆனால் ஊட்டியில் இந்த ஓக் மரங்கள்
பூக்கள் தோன்றுவதில்லை. </p><p>
</p><p>
ஊட்டி அரசு தாவரஇயல் பூங்காவில் 9 ஓக் மரங்கள் 150 வயதான நிலையில் செழித்து
வளர்ந்துள்ளது. இவைகள் பூங்காவின் ஆங்கிலேயர் அதிகாரிகளால் நடப்பட்ட வைகளாகும். </p><p>
</p><p>
பொறுப்பு </p><p>
</p><p>
ஐரோப்பிய நாடுகளில் 200 வயதுக்கு மேற்பட்ட ஓக் மரங்கள் உள்ளன. ஊட்டியில்் இருக்கும்
இந்த ஓக் மரங்களை பாதுகாத்து வளர்த்தால் நீண்டகாலத்்துக்கு இருக்கும். ஊட்டி சிறப்புகளில்
ஒன்றாக விளங்கும் இந்த வரலாற்று முக்கியத்துவம் நிறைந்த ஓக் மரங்களை பாதுகாத்து வளர்க்கும்
பொறுப்பு எல்லோருக்கும் உண்டு. </p>

<p> </p>

<p>ராமேசுவரம் கோவிலில்
22-ந்தேதி மண்டலாபிசேகம், தங்கதேரோட்டம் நடத்த ஏற்பாடு- நேபாள மன்னர்
பங்கேற்கிறார்</p>

<p> </p>

<p>ராமேசுவரம், மார்ச்.12- ராமேசுவரம் ராமநாத சுவாமி திருக்கோவிலில்
22-ந்தேதி மண்டலாபிசேகத்தை யொட்டி தங்கத் தேரோட்டத்துக்கு ஏற்பாடு செய்யப்பட்டுள்ளது.
இதில் நேபாள மன்னர் பங்கேற்கிறார். </p><p>
</p><p>
ராமேசுவரம் அருள்மிகு ராமநாதசுவாமி திருக்கோவில் கும்பாபிசேகம் 26 ஆண்டுகளுக்கு பிறகு கடந்த
பிப்ரவரி மாதம் 5-ந் தேதி நடைபெற்றது. இதில் நாட்டின் பல்வேறு பகுதி களிலிருந்தும்
லட்சக்கணக்கான பக்தர்கள் கலந்து கொண்டனர். </p><p>
</p><p>
கும்பாபிசேகம் நிறைவு பெற்று தற்போது 48 நாட்கள் மண்டல பூஜை நடைபெறுகிறது. 48-ம்
நாளுக்கு பின் மண்டலாபிசேகம் நடக்க உள்ளது. இம் மாதம் 20-ந் தேதி மண்டலாபி
சேகத்திற்கான யாகசாலை பூஜைகள் தொடங்கி 22-ந்தேதி மண்டலாபிசேகம் நடக்கிறது. இதில்
காஞ்சி சங்கராச்சாரியார் மற்றும் நேபாள மன்னர் கலந்து கொள்கின்றனர். </p><p>
</p><p>
தங்க தேரோட்டம் </p><p>
</p><p>
மண்டலாபிசேகத்தன்று இரவு தங்க தேரோட்டம் நடைபெறுகிறது. இதற்கான பணிகள் ரூ.1 கோடி
செலவில் செய்யப் பட்டுவருகிறது.168கிலோ வௌ்ளி, 16 கிலோ தங்கம் ஆகியவற்றுடன்
செய்யப்படும் இத்தங்கத்தேருக்கான பணிகளை திருக்கோவில் இணை ஆணையர் கோ.பக்கிரிச்சாமி
முன்னிலையில் சிவகங்கை உதவி ஆயையர் (எடைசரி பார்த்தல்) மேற்பார்வையில் 30-க்கும்
மேற்பட்ட ஐதராபாத் கலைஞர்கள் ஈடுபட்டு வருகின்றனர். </p><p>
</p><p>
171/2 அடி உயரம் </p><p>
</p><p>
சுமார் 171/2 அடி உயரத்தில் உருவாக்கப்பட்டு வரும் இந்த தங்கத்தேர் திருப்பதி கோவிலுக்கு
அடுத்தபடி உயரமான தேராக இருக்கும். </p><p>
</p><p>
தற்போது உருக்கி வரப்பட்ட தங்கத்தினை ஒட்டக சவ்வு மற்றும் தோலில் வைத்து ரேக்குகளாக
செய்யும் பணி நடந்து வருகிறது. இதன்பின் மரத்தேரில் மெர்குரி பசை தடவப்பட்டு இந்த
மெல்லிய தங்க ரேக்குக்குள் ஒட்டப்பட்டு பாலிஸ் செய்யப்படும். </p><p>
</p><p>
வடக்கு தெற்கு கோபுரம் </p><p>
</p><p>
சுமார் 300 ஆண்டுகளாக அரைகுறை நிலையில் மொட்டையாயக இருந்து வந்த கோவிலின் வடக்கு தெற்கு
கோபுரங்களை காஞ்சி சங்கராச்சாரியார் சுவாமிகள் கட்டித்தர சம்மதித்துள்ளோம்.
இதனையடுத்து வடக்குதெற்குபகுதியில் மொட்டை கோபுரங்களாக இருந்த பகுதிகள் தற்போது இடிக்கும்
பணி நடந்து வருகிறது. </p><p>
</p><p>
வடக்கு, தெற்கு இருபுறமும் உள்ள மொட்டை கோபுரங்கள் தரைமட்டமாகக இடிக்கப்பட்டு முறறிலும்
புதிய கோபுரங்கள் கட்டப்பட உள்ளது. </p><p>
</p><p>
இத்தகவல்களை திருக்கோவில் இணை ஆணையர் கோ. பக்கிரிச்சாமி தெரிவித்தார். பேட்டியின்
போது கண்காணிப்பாளர் நம்பிராஜன், ராமகிருஷ்ணன், பேஷ்கார்கள் சந்திரன்,
ரா.வி.கஹாரின், சித்தரஞ்சன்தாஸ், கண்ணன், சாத்தையாய ஆகியோர் உடனிருந்தனர். </p>

<p> </p>

<p>50 அடியாட்களுடன் சென்று
அ.தி.மு.க. எம்.பி. உறவினர் அராஜகம், முதியவர் - குழந்தைகளை தூக்கி வீசினர், வீடு -
பொருட்கள் சூறை, பணம் கொள்ளை</p>

<p> </p>

<p>ஒட்டன்சத்திரம், மார்ச்.12- பழநி அருகே பணத்தகராறில்
அ.தி.மு.க. எம்.பி.யின் உறவினர் 50 அடியாட்களுடன் சென்று வீட்டில் இருந்த முதியவர் -
குழந்தைகளை வௌியில் தூக்கி வீசி அராஜகம் செய்தனர். வீடு - பொருட்கள்
சூறையாடினார்கள். </p><p>
</p><p>
பழநி பாராளுமன்ற அ.தி.மு.க. உறுப்பினர் ப.குமாரசாமியின் தம்பி சுரேந்திர நாத். கீரனூர்
அருகே உள்ளது ராஜம்பட்டி கிராமம். இங்கு உள்ள அத்திமரத்து வலசு பகுதியை சேர்ந்தவர்கள்
பெரிய வௌ்ளையக் கவுண்டர் மகன் கள் கருப்புச்சாமி, வேலுச்சாமி, மேலும் இதே பகுதியை
சேர்ந்த ஆறுமுகக் கவுண்டர் மகன்கள் கனகசபாபதி, அங்கமுத்து. இவர்கள் 4 பேர்களுக்கு
சொந்தமான செம்புளிக்குளித் தோட்டத்தை அ.தி.மு.க. எம்.பி.யின் தம்பி சுரேந்திரநாத்
ரூ.91/2 லட்சம் கொடுத்து 3 ஆண்டுகளுக்கு அக்ரிமெண்ட் போட்டதாக கூறப்படுகிறது. </p><p>
</p><p>
தற்போது அக்ரிமெண்ட்படி 3ஆண்டுகள் கெடு முடிந்துவிட்ட நிலையில் சுரேந்திரநாத்தான் கொடுத்த
பணத்தை பலமுறை கேட்டு சென்றும் அவர்கள் பணத்தை திரும்பி தர வில்லையாம். </p><p>
</p><p>
வீடு சூறை </p><p>
</p><p>
சம்பவத்தன்று சுரேந்திர நாத் மகன் கோபிநாத் (என்ஜினீயருக்கு படித்தவர்) சுமார் 50
அடியாட்களுடன் அங்கு சென்றார். அடியாட்கள் குடி போதையில் இருந்தார் களாம். அவர்கள் 3
வேன்கள், ஒரு ஜீப், எம்.பி.யின் தந்தைக்கு சொந்தமான ஒரு மாருதி கார் ஆகியவற்றில்
சென்றனர். அவர்கள் கத்தி, அரிவாள் போன்ற பயங்கர ஆயுதங்கள் வைத்திருந்தனர். </p><p>
</p><p>
அந்த அடியாட்கள் தாழ்த்தப்பட்டவர்கள் குடியிருப்புப் பகுதியில் கற்களை வீசியும்
வௌியில் வந்தால் வெட்டி விடுவோம் என்று சினிமா பாணியில் மிரட்டி அராஜகம் செய்தார்களாம்.
இவர்கள் பணம் கொடுத்து உள்ள தோட்டத்துக்காரர்கள் 4 பேர்கள் வீட்டின் கதவுகளை அடித்து
நொறுக்கி அத்து மீறி உள்ளே புகுந்தனர். </p><p>
</p><p>
வீட்டினுள் தூங்கிக் கொண்டிருந்த மூதாட்டிகள் மற்றும் சிறு குழந்தைகள் அனைவரையும் வௌியே
தூக்கி எறிந்தனர். வீட்டினுள் இருந்த பண்ட பாத்திரங்களை எல்லாம் வௌியே எடுத்து
வீசினார்கள். பீரோக்களை திறந்து அதனுள் வைக்கப்பட்டு இருந்த பொருட்களை சூறையாடி
அட்டகாசம் செய்தார்களாம். </p><p>
</p><p>
சிறை பிடிப்பு </p><p>
</p><p>
இதைக் கண்ட கிராம மக்கள் ஆவேசம் அடைந்தனர். அவர்கள் ஒன்று திரண்டு அடியாட்கள் 30 பேரை
வளைத்து பிடித்து ஒரு வீட்டினுள் சிறை வைத்தனர். அவர்கள் கொண்டு வந்திருந்த 5 வாகனங்களின்
சக்கரங்களில் இருந்த காற்றை பிடுங்கி விட்டு தப்பிச் செல்ல முடியாதபடி வாகனங்களையும்
சிறைப்பிடித்தனர். </p><p>
</p><p>
போலீசில் புகார் </p><p>
</p><p>
இந்த நிலையில் பாதிக்கப்பட்ட அங்கமுத்து இப்பிரச்சினையில் இன்று பைசல் பேசி
முடிக்கப்பட்டு பணம் கட்டுவதற்காக ரூ.5 லட்சம் வரை வைத்திருந்தேன். அதையும் காணவில்லை
என்றும் இன்னொருவரான கனகசபாபதி என்பவரின் வீட்டில் வைக்கப் பட்டு இருந்த 6 பவுன்
தங்கச் செயினையும் ரூ.5 லட்சத்தையும் காணவில்லை என்றும், கருப்புச்சாமி மகள் சுமதி தனது
வீட்டினுள் வைத்திருந்த ரூ.31 லட்சத்தையும், 15 பவுன் தங்க நகைகளையும் காணவில்லை
என்றும் புகார் கூறினார்கள். </p><p>
</p><p>
போலீஸ் விசாரணை </p><p>
</p><p>
இது சம்பந்தமாக ஊர் மக்கள் கீரனூர் காவல் நிலையத்தில் புகார் செய்தனர். பழநி டவுன்
இன்ஸ்பெக்டர் எம்.தங்கவேல் (பொறுப்பு), உதவி ஆய்வாளர்கள் பழனிமுத்து, மதியழகன்்
(குற்றப்பிரிவு), முரு கேசன் ஆகியோர் விரைந்து வந்து சம்பவ இடத்தை பார்த் தனர்.
உடனடியாக சம்பந்தப் பட்டவர்கள் மீது வழக்குப்பதிவு செய்து அவர்கள் பயன்படுத்திய
வாகனங்களை கைப்பற்றினார்கள். தொடர்ந்து போலீசார் விசாரணை செய்து வருகின்றனர். </p><p>
</p><p>
இந்த நிகழ்ச்சி உண்மையிலேயே அப்பகுதி மக்கள் மத்தியில் பரபரப்பையும் பீதியையும்
உருவாக்கி உள்ளது என்பது குறிப்பிடத்தக்கது. </p>

<p> </p>

<p>பூகம்ப நிதிக்கு
அழகிபோட்டி நடத்துகிறார் அசாருதீன்</p>

<p> </p>

<p>கிரிக்கெட் சூதாட்டத்தில் ஈடுபட்டதற்காக இந்திய அணி
முன்னாள் காப்டன் அசாரு தீனுக்கு ஆயுட்கால தடை விதிக் கப்பட்டது. இதையடுத்து கிரிக்கெட்
விளையாட்டில் இருந்து ஓரம் கட்டப்பட்ட அசார் தனது மனைவியும் நடிகையுமான சங்கீதா
பிஜ்லானியுடன் சேர்ந்து புதிய தொழில் நிறுவனம் ஒன்றை ஆரம்பித்துள்ளார். அசார்-
சங்கீதா மேனேஜ்மென்ட் சர்வீஸ் என்ற பெயர் கொண்ட இந்நிறு வனத்தின் தொடக்க விழா
ஐதராபாத்தில் நேற்று நடந்தது. அப்போது அசாருதீன்- சங்கீதா நிருபர்களிடம் கூறியதாவது:- </p><p>
</p><p>
பொது நல நோக்கோடும் சமூக அக்கறையுடனும் செயல்படுவதுதான் எங்கள் நிறுவனத்தின்
குறிக்கோள். அசார்-சங்கீதா சர்வீஸ் நிறுவனத்தின் ஒரு பிரிவாக அசார்-சங்கீதா எய்ட்ஸ்
அறக்கட்டளை அமைப்பு இருக்கும். மக்களிடையே எய்ட்ஸ் விழிப்புணர்வு ஏற்படுத்தும் வகையில்
இது பணியாற்றும். எங்கள் நிறுவனம் சார்பில் 11-ந்தேதி (இன்று) குஜராத் நிவாரண நிதி
திரட்டுவதற்காக நட்சத்திர ஓட்டலில் அழகி போட்டி நடத்தப்படுகிறது. மதுசாப்ரே உள்ளிட்ட
பிரபல மாடல்கள் இதில் கலந்து கொள்கிறார்கள். தாலத் அஜீத்சின் கஜல் இசை நிகழ்ச்சிக்கும்
ஏற்பாடு செய்யப்பட்டுள்ளது. </p><p>
</p><p>
அடுத்த மாதம் பெங்களூரில் ஆட்டம்பாட்டம் கொண்டாட்டத்துடன் வித்தியாசமான அழகு போட்டியை
நடத்த உள்ளோம். இந்திய திரைப்படத்துறையில் சிறந்த நடிகர்- நடிகைகளை தேர்வு செய்து
அவர்களுக்கு எங்கள் நிறுவனம் சார்பில் கிரிஸ்டல் விருது வழங்கப்படும். திரைப்படத்துறையை
ஊக்கப்படுத்துவதும் தென்னக சினிமா கலைஞர்களை தேசிய அளவில் உயர்த்தி காட்டுவதுமே
எங்கள் லட்சியம். இவ்வாறு கூறினர். </p><p>
</p><p>
</p><p>
</p><p>
பிரதமர் வீட்டுக்கு சென்ற அழையா விருந்தாளி </p><p>
</p><p>
குஜராத் பூகம்பத்தில் ஆயிரக்கணக்கானவர்கள் பலியானதால் இந்த ஆண்டு ஹோலி பண்டிகையை
கொண்டாடப்போவது இல்லை என பிரதமர் வாஜ்பாய் அறிவித்திருந்தார். இதைத்தொடர்ந்து
டெல்லியில் ரேஸ் கோர்ஸ் சாலையில் உள்ள பிரதமர் இல்லத்துக்குள் நேற்று யாரும்
அனுமதிக்கப்படவில்லை. இதற்கிடையே ஜெயின் டி.வி. உரிமையாளர் ஜே.கே.ஜெயின் திடீரென்று
பிரதமர் இல்லத்திற்கு சென்றார்.இவர் சமீபத்தில் பாரதிய ஜனதா கட்சியில் இருந்து
நீக்கப்பட்டவர் என்பது குறிப்பிடத்தக்கது. முதலில் ஜெயினை உள்ளே அனுமதிக்க காவலர்கள்
மறுத்து விட்டனர். வாஜ்பாய் சொன்னதின் பேரில் அவர் உடனே அனுமதிக்கப்பட்டார்.
வாஜ்பாயை தனிப்பட்ட காரணங்களுக்காகத்தான் சந்தித்தேன். கடந்த 30 ஆண்டுகளாக ஹோலி
பண்டிகையின்போது அவரது ஆசியை பெற்று வந்தேன். அவரது ஆசியை பெறுவதற்காகத்தான் இன்றும்
அவரது வீட்டுக்கு சென்றேன் என்று ஜெயின் கூறினார். </p>

<p> </p>

<p>காதலுக்கு எதிர்ப்பு
கிளம்பியதால் விபரீத முடிவு, உடலில் தீ வைத்துக் கொண்டு காதலியை கட்டிப்பிடித்த
வாலிபர், 2 பேரும் உடல் கருகி சாவு</p>

<p> </p>

<p>திருச்செங்கோடு, மார்ச் 12- காதலுக்கு எதிர்ப்பு கிளம்பியதால்
வாலிபர் உடலில் தீ வைத்துக் கொண்டு காதலியை கட்டிப்பிடித்தார். இதில் இரண்டு பேரும்
இறந்தனர். </p><p>
</p><p>
திருச்செங்கோடு சாணார் பாளையம் அருந்ததியர் தெருவை சேர்ந்தவர் ஓங்காளி (வயது 50). இவரது
மகன் பிரபு (வயது 25). பிரபு சாணார் பாளையத்தில் உள்ள ஒரு தறிப்பட்டறையில் வேலை
செய்து வந்தார். இவர் வேலைக்கு சேர்ந்து ஆறு மாதங்கள்தான் ஆகிறது என்று கூறப்படுகிறது. </p><p>
</p><p>
இவர் வேலை செய்து வந்த தறிப்பட்டறையில் கவிதா (வயது 17) என்ற பெண்ணும் அவரது தாய்
பூங்கொடியும் வேலை செய்து வந்தார்கள். கவிதாவின் தந்தை பெருமாள் முதலியார். இவரது மகன்
தனபால் கூட்டப்பள்ளியில் உள்ள விசைத்தறி கூடத்தில் வேலை செய்து வந்தார். </p><p>
</p><p>
காதல் </p><p>
</p><p>
கவிதாவும், பிரபுவும் ஒரே தறிப்பட்டறையில் வேலை பார்த்து வந்ததால் இருவரும் அடிக்கடி
சந்தித்து கொள்ளும் வாய்ப்பு கிடைத்தது. இதனை தொடர்ந்து இரண்டு பேருக்கும் காதல்
ஏற்பட்டது. இரண்டு பேரும் மனம் விட்டு பேசி தங்கள் காதலை வளர்த்து வந்தனர். </p><p>
</p><p>
இந்த காதல் விவகாரம் கவிதாவின் தாயார் பூங்கொடிக்கு தெரிய வந்தது. அவர் மகளை
கண்டித்தார். இரண்டு பேரும் வெவ்வேறு சமூகத்தை சேர்ந்தவர்கள். ஆதலால் இவர்களது காதலுக்கு
எதிர்ப்பு கிளம்பியது. </p><p>
</p><p>
இந்த நிலையில் நேற்று முன்தினம் (சனிக்கிழமை) இரவு பிரபு, கவிதா மற்றும் அவரது தாய்
பூங்கொடி மட்டும் தறிப்பட்டறையில் இரவு ஷிப்டில் வேலை செய்து வந்தார்கள். </p><p>
</p><p>
நள்ளிரவில் சுமார் 1 மணி அளவில் பிரபு வௌியே சென்றார். வரும்போது அவர் தன் உடல்
முழுவதும் மண் எண்ணெய் ஊற்றிக் கொண்டு வந்தார். உள்ளே வந்ததும் விசைத்தறி கூடத்தின்
கதவை இழுத்து உள்பக்கமாக தாழ் போட்டார். பின்னர் உடலில் தீ வைத்துக் கொண்டார். </p><p>
</p><p>
காதலியை கட்டிப்பிடித்தார் </p><p>
</p><p>
தீ தனது உடலில் பரவியதும் கவிதாவை, ஓடிச்சென்று கட்டிப் பிடித்துக் கொண்டார். பிரபு
பிடியில் கவிதாவால் திமிறிக் கொண்டு ஓட முடியவில்லை. இதனால் அவளது உடலிலும் தீப்பிடித்து
கொண்டது. கவிதா அலறினாள். மகளின் நிலமையை கண்டு பூங்கொடி சத்தம் போட்டார். அவரது
சத்தம் கேட்டு அக்கம் பக்கம் உள்ளவர்கள் ஓடி வந்து தீயை அணைத்தனர். </p><p>
</p><p>
இரண்டு பேரும் சாவு </p><p>
</p><p>
ஆனால் இரண்டு பேரும் அதே இடத்தில் கரிக்கட்டைகளாக இறந்து விழுந்தனர். இந்த தீ
விபத்தில் விசைத்தறிக் கூடத்தில் இருந்த பாவு, நூல்களும் எரிந்து சேதம் அடைந்தன. </p><p>
</p><p>
இது குறித்து திருச்செங்கோடு நகர போலீஸ் இன்ஸ்பெக்டர் (பொறுப்பு) நாச்சிமுத்து, சப் -
இன்ஸ்பெக்டர் வெங்கடாசலம் ஆகியோர் வழக்கு பதிவு செய்து விசாரணை நடத்தினர்.
திருச்செங்கோடு டி.எஸ்.பி. முகமது நசிமுத்தின் சம்பவ இடத்தை பார்வையிட்டார். </p><p>
</p><p>
தீ குளித்தது ஏன்? </p><p>
</p><p>
காதலுக்கு எதிர்ப்பு கிளம்பியதால் கவிதா தனக்கு கிடைக்காமல் போய் விடுவாள் என்று பிரபு
நினைத்து தனக்கு கிடைக்காத கவிதா வேறு யாருக்கும் கிடைக்க கூடாது என்று முடிவு செய்து, உடலில்
தீவைத்துக் கொண்டு கவிதாவை கட்டிப்பிடித்துக் கொண்டாரா? </p><p>
</p><p>
திடீரென கவிதா காதல் உறவை துண்டித்துக் கொண்டதால் ஆத்திரத்தில் பிரபு இவ்வாறு செய்தாரா
என்பது அவிழ்க்கப்படாத முடிச்சாகி விட்டது. </p><p>
</p><p>
இந்த சம்பவம் பற்றி அறிந்ததும் அந்த பகுதி மக்கள் விசைத்தறி கூடத்திற்கு திரண்டனர்.
அங்கு கரிக்கட்டையாக கிடந்த இரண்டு பேர் உடலை கண்டு கண்கலங்கினர். திருச்செங்கோட்டில்
இந்த சம்பவம் பரபரப்பை ஏற் படுத்தியது. </p>

<p> </p>

<p>நாமக்கல் மாவட்டத்தில்
வெயிலுக்கு பெண் பலி</p>

<p> </p>

<p>நாமக்கல், மார்ச் 12- கடுமையாக வீசி வரும் வெப்பக் காற்றுக்கு
பெண் ஒருவர் பலியாகி உள்ளார். </p><p>
</p><p>
கோடை காலம் தொடங்கும் முன்பே அனல் பறக்கும் வெப்பக் காற்று நாமக்கல் மாவட்டத்தில்
வீசுகிறது. தினமும் சராசரியாக 102 டிகிரி வெப்பம் நாமக்கல் மாவட்டத்தில் பதிவாகிறது.
மாலை 5 மணி வரை சுட்டெ ரிக்கும் வெயில் அடிப்பதால் ரோட்டில் நடந்து செல்லும் பாதசாரிகள்
சிரமப்படுகின்றனர். </p><p>
</p><p>
இந்த நிலையில் வெப்பத்தின் தாக்குதலில் ஒரு பெண் பலியாகி உள்ளார். அது பற்றிய விவரம்
வருமாறு:- </p><p>
</p><p>
ஈரோடு மாவட்டம் அந்தியூரை சேர்ந்தவர் பொம்மாயி (வயது45) ஆதரவற்றி இவர் மொளசி
பகுதியில் நிரந்தர இருப்பிடம் இன்றி வசித்து வந்தார். மனநிலையும் பாதிக்கப்பட்ட
நிலையில் இருந்த பொம்மாயி கிடைப்பதை சாப்பிட்டு பிழைப்பு நடத்தி வந்தார். நேற்று
மதியம் பொம்மாயி தனது கால்போன போக்கில் நெடுந்தூரம் நடந்து சென்றார். அப்போது நல்ல
வெயில் அடித்தது. பொம்மாயிக்கு தீராத தண்ணீர் தாகம் ஏற்பட்டது. தொட்டிகார பாளையம்
என்ற இடத்தில் இருந்த தண்ணீர் தொட்டிக்கு தண்ணீர் குடிக்க சென்றாள். அப்போது
நெடுந்தூரம் நடந்து வந்த களைப்பாலும் வெப்பத்தின் தாக்குதலாலும் மயக்கம் அடைந்தாள்
பொம்மாயி. சிறிது நேரத்தில் அங்கேயே இறந்தாள். </p><p>
</p><p>
இது குறித்து மொளசி போலீசார் வழக்கு பதிவு செய்து விசாரணை நடத்தி வருகின்றனர். </p>

<p> </p>

<p>முட்டாள் தினம் முடிந்து
விட்டதா?</p>

<p> </p>

<p>புதுடெல்லி, மார்ச் 12- ஏப்ரல் 1-ந்தேதி முட்டாள் தினம் என்பது
அனை வரும் அறிந்த ஒன்று. ஆனால் இது மேற்கத்திய நடைமுறை. இந்திய நாள் காட்டி அட்டவணைப்படி
மார்ச் 10-ந்தேதி தான் உண்மையான முட்டாள் தினம் ஆகும் என அந்தாஸ்தி ரியா முர்க் மகா
சம்மேளனம் என்ற அமைப்பு கூறுகிறது. இந்தியமுறைப்படி இந்த அமைப்பு வருடந்தோறும் மார்ச்
10-ந் தேதியை முட்டாள் தினமாக டெல்லி பாகிராத் அரண்மனையில் கொண்டாடி வருகிறது. ஆனால்
இந்த வருடம் பூகம்பத்தில் பாதிக்கப்பட்ட குஜராத் மக்களுக்கு அனுதாபத்தை தெரிவிக்கும்
பொருட்டு முட்டாள் தின கொண்டாட்டத்தை இவ்வமைப்பு ரத்து செய்துள்ளது. </p><p>
</p><p>
7 வருடங்களாக குற்றங்கள் இன்றி வாழும் கிராமம் </p><p>
</p><p>
விஜயவாடா, மார்ச் 12- ஆந்திர மாநிலம் விஜயவாடா அருகில்கான சானி பாலி என்ற கிராமம்
உள்ளது. இந்த கிராமத்தில் கடந்த 7 வருடங்களாக குற்றங்கள் ஏதும் பதிவு செய்யப்படவில்லை.
இங்கு 1994-ம் ஆண்டு காந்தியின் 125-வது பிறந்தநாளை யொட்டி காந்தி சேவை மையம் ஒன்று
தொடங்கப்பட்டது. அதன் பின்னர் இந்த கிராமம் காந்திய வழியில் நடை பயில தொடங்கியது.
இன்று வரை எந்த வொரு அசம்பாவிதமும் இன்றி அமைதிப் பூங்காக இந்த கிராமம் பூத்து
குலுங்குகிறது. தற்போதைய வன்முறை உலகில் காந்திய வழியில் சத்தியசோதனை நடத்தும் இந்த
கிராமம் இந்தியாவிற்கு முன்னோடியாக விளங்குகிறது என்று கூறினால் மிகை இராது. </p><p>
</p><p>
இமயமலையின் கங்கோத்ரி சிகரம் உயரம் குறைகிறது </p><p>
</p><p>
புதுடெல்லி, மார்ச் 12- இமயமலையில் உள்ள மிக உயரமான சிகரங்களில் ஒன்று கங்கோத்ரி
பனிச் சிகரம். இது ஜீவ நதியான கங்கை நதி உள்ளிட்ட வட இந்தியாவின் பல நதிகளின்
பிறப்பிடமாகும். இந்த சிகரத்தின் உயரம் வருடத்திற்கு 19 மீட்டர் வீதம் 1147 மீட்டர்
அளவிற்கு குறைந்துள்ளது. இதனால் இமயமலையின் இயற்கை சூழ்நிலையில் பாதிப்பு ஏற்படும்
அபாயம் உள்ளது என டெல்லியிலிருந்து வௌியாகும் அறிவியல் ஆய்விதழ் ஒன்று தகவல் தெரிவித்து
உள்ளது. </p><p>
</p><p>
கணவனை உயிரோடு எரித்து கொன்ற மனைவி </p><p>
</p><p>
எல்லரு, மார்ச் 12- ஆந்திர மாநிலம் மேற்கு கோதாவரி மாவட்டம், பட்டுவாரிகுடம் என்ற
கிரா மத்தை சேர்ந்தவர் நாகமணி. இவரது கணவர் வெங்கடராஜீ. இவர் தினமும் குடித்துவிட்டு
வந்து மனைவியை அடித்து துன் புறுத்துவாராம். இதனால் வெறுப்படைந்த நாகமணி, சம்பவத்தன்று
கணவர் உறங்கி கொண்டிருக்கும் போது மண்எண்ணெயை ஊற்றி உயிரோடு எரித்து கொலை செய்து
விட்டார். இந்த சம்பவம் அங்கு பெரும் பரபரப்பை ஏற்படுத்தியுள்ளது. </p>

<p> </p>

<p>நாளை கொடை விழா:
மண்டைக்காட்டில் லட்சக்கணக்கான பக்தர்கள் குவிகிறார்கள்</p>

<p> </p>

<p>நாகர்கோவில், மார்ச்.12- மண்டைக்காட்டில் நாளை கொடைவிழா
நடக்கிறது. இதை யொட்டி லட்சக்கணக்கான பக்தர்கள் குவிகின்றனர். </p><p>
</p><p>
குமரி மாவட்டத்தில் உள்ள பிரசித்தி பெற்ற மண்டைக்காடு அருள்மிகு பகவதி அம்மன்
கோவிலில் 10 நாள் மாசி பெருந் திருவிழா கடந்த 4-ம் தேதி திருக் கொடியேற்றத்துடன்
தொடங்கி நடந்து வருகிறது அல்லவா? விழாவின் 6-ம் நாள் பக்தி பர வசமூட்டும்
வலியபடுக்கை என்ற மகாபூஜை நடந்தது. </p><p>
</p><p>
நேற்று (ஞாயிறு) வரை நடந்த 8 நாள் விழாவில் சுமார் 5 லட் சத்துக்கும் அதிகமான
பக்தர்கள் கலந்து கொண்டனர். நேற்று வரலாறு காணாத வகையில் பக்தர்கள் வௌ்ளமாக இருந்தது.
எங்கு பார்த்தாலும் பக்தர்களின் தலைகளாகவே காட்சியளித்தது. </p><p>
</p><p>
கேரள பக்தர்கள் கடும் விரத மிருந்து கையில் நேர்ச்சை கொடி யேந்தி இருமுடி கட்டுடன் சரண
முழக்கத்துடன் அலை அலை யாய் வந்தவண்ணம் உள்ளனர். இவர்கள் கடலில் புனித நீராடி
ஈரத்துணியுடன் கோவில் வந்து தேவி பராசக்தியை வணங்கி விட்டு பொங்கல் படைத்து
நேர்ச்சை கடன்களை முடித்து விட்டு செல்கின்றனர். </p><p>
</p><p>
சக்கர தீவட்டி </p><p>
</p><p>
விழாவின் 9-ம் நாளான இன்று (திங்கள்) இரவு 9.30 மணிக்கு அம்பாள் வௌ்ளிப் பல்லக்கில்
செண்டை மேளம், நாதஸ்வர இசையுடன் வீதியுலா வர பெரிய சக்கர தீவட்டி ஊர்வ லமும்
நடக்கிறது. இந் நிகழ்ச்சி அனைவரையும் பக்தி பரவச மடைய செய்யும். விழாவில் இந்
நிகழ்ச்சி முக்கிய இடத்தை வகிக் கும். </p><p>
</p><p>
கொடை விழா </p><p>
</p><p>
இறுதிநாளான நாளை (செவ்வாய்) கொடை விழா நடக்கிறது. 10 நாள் திருவிழாவில் நாளைய விழா
மிகவும் முக்கியத்துவம் வாய்ந்த சிறப்பு மிக்க பக்தி பூர்வ விழாவாகும். அதிகாலை 3.30
மணிக்கு தேவி பவனியும், 4.30 மணிக்கு அடியேந்திர பூஜையும் நடத்தி கோவில் திருநடை
சாத்தப்படும். பின்பு குத்தி யோட்டம், பூமாலை சடங்குகள் நடைபெறும். </p><p>
</p><p>
மாலையில் கோவில் சுத்தம் செய்யப்பட்டு 5 மணிக்கு திரு நடை திறக்கப்படும். 6.30 மணிக்கு
அலங்கார தீபாராதனையும், 9 மணிக்கு பூஜையும் நடக்கிறது. சமய மாநாட்டு பந்தலில் காலை
முதல் பல்வேறு நிகழ்ச்சிகளும் நடைபெறும். </p><p>
</p><p>
ஒடுக்கு பவனி </p><p>
</p><p>
இரவு 9.30 மணிக்கு தேவி வீதி உலா வரும் காட்சியும், நள்ளிரவு 12 மணிக்கு ஒடுக்கு
பவனியும் நடைபெறும். மண்டைக்காடு பால்குளம் கண்டன் சாஸ்தா கோவில் அருகே இருந்து புதிய
மண்பானைகளிலும், ஓலை பெட் டிகளிலும் உணவு பதார்த்தங் கள் வைக்கப்பட்டு வௌ்ளைத்
துணியால் ஒரே சீராக மூடப் பட்டு பக்தர்கள் தலைச்சுமடாக ஊர்வலமாக கோவிலுக்கு கொண்டு
வருவார்கள். இதை கொண்டு வரும் பக்தர்களின் வாய் சிகப்புத் துணியால் கட்டப்
பட்டிருக்கும். </p><p>
</p><p>
இந்த பவனி வரும்போது நிலவும் நிசப்தம் பக்தர்கள் அனைவரையும் மெய்சிலிர்க்க வைக்கும்.
ஒடுக்கு பவனி கோவிலை வலம் வந்து உணவு பதார்த்தங்கள் அம்மன் முன்பு படைக்கப்படும்.
பின்பு நடை சாத்தி அனைத்து உணவு வகைகளையும் ஒரு சேர சேர்த்து அம்மனுக்கு படைக்கப் படும்.
இந்நேரத்தில் கோவில் முன்பு குருதி கொடுக்கும் நிகழ்ச்சி நடைபெறும். </p><p>
</p><p>
தொடர்ந்து கோவில் நடை திறந்து 1 மணிக்குள் ஒடுக்கு பூஜையும், தீபாராதனையும் நடக்
கும். இப்பூஜை நடந்து கொண்டி ருக்கும் போதே கோவில் திருக் கொடியை இறக்க 10 நாள் திரு
விழா நிறைவு பெறும். </p><p>
</p><p>
விடுமுறை </p><p>
</p><p>
கொடை விழாவையொட்டி லட்சக்கணக்கான பக்தர்கள் பஸ், கார், வேன், டூரிஸ்டு பஸ், ஆட்டோ,
மோட்டார் சைக்கிள் களில் வந்து குவிந்த வண்ணம் உள்ளனர். வளம் கொழிக்கும்
மண்டைக்காட்டில் கொலு வீற்றிருந்து அருட்பேரளிக்கும் அன்னை தேவி ராஜராஜேஸ் வரியை
தரிசிக்க பக்தர்கள் நீண்ட கியூவில் நின்றனர். பக்தர்கள் அம்மனுக்கு மண்டையப்பம்,
கொழுக்கட்டை, பொங்கல் படைத்து வழிபடுகின்றனர். கேரள பக்தர்கள் வில்லுப் பாட்டை
காணிக்கை வழிபாடாக நடத்தி செல்கின்றனர். </p><p>
</p><p>
நாளைய கொடை விழாவை யொட்டி குமரி மாவட்டத்துக்கு உள்ளூர் விடுமுறை வழங்கப்பட் டுள்ளது.
பக்தர்களுக்கு தேவை யான அனைத்து வசதிகளையும் மாவட்ட நிர்வாகமும் திருக் கோவில்
நிர்வாகமும் சிறப்பாக செய்துள்ளது. </p>

<p> </p>

<p>பன்றிகளுக்கான
ஓட்டப்பந்தயம்</p>

<p>
 
<gap desc="illustration"></gap></p>

<p>நியூசிலாந்து நாட்டில் வருடந்தோறும் பன்றிகளுக்கான ஓட்டப்பந்தய
போட்டி நடை பெற்று வருகிறது. சமீபத்தில் அங்கு 11-வது பன்றிகள் ஓட்டப் பந்தயம் கிறிஸ்ட்சர்ச்
என்ற பகுதிக்கு அருகில் மேபீல்டு என்ற இடத்தில் நடை பெற்றது. இதில் கலந்து கொண்ட
பன்றிகளில் முதலாவதாக ஓடி வந்த 2 பன்றிகள் வண்டி டயர் ஒன்றிற்குள் புகுந்து ஓட்டத்தை
தொடர உள்ள காட்சியை காணலாம். </p>

<p>கொலை திட்டம் தீட்டிய மாணவர்கள் கைது </p>

<p>அமெரிக்காவைச் சேர்ந்த லாஸ்ஏஞ்சல்ஸ் அருகில் உள்ளது டுவென்டினைன் பாம்ஸ்
என்ற இடம். இங்கு உள்ள ஒரு பள்ளிக் கூடத்தில் படிக்கும் 2 மாணவர்கள் சம்பவத்தன்று
தங்களுடன் படிக்கும் மற்றொரு மாணவனை கொலை செய்ய சதித்திட்டம் தீட்டிக் கொண்டு
இருந்தனராம். அவர்கள் பேசியதை இன்னொரு மாணவன் ஒட்டுக் கேட்டுவிட்டான். உடனே அவன்
அதுகுறித்து பள்ளி நிர்வாகிகளிடம் தெரி வித்தான். அவர்கள் போலீசில் புகார் செய்தனர்.
போலீசார் வழக்கு பதிவு செய்து விசாரணை நடத்தினார்கள். பிறகு அந்த மாணவர்களின் வீட்டை
சோதனை போட்ட போது அங்கு ஒரு துப்பாக்கி சிக்கியது. போலீசார் அதை பறிமுதல் செய்து,
அந்த மாணவர்களை கைது செய்தனர். </p>

<p>உடல் ஓவிய போட்டியில் வென்ற அழகி </p>

<p>
 
<gap desc="illustration"></gap></p>

<p>பெல்ஜியம் நாட்டின் தலைநகர் புரூசல்ஸ்சில் உடல் மீது
வண்ணகலவைகளால் ஓவியம் தீட்டி கொள்ளும் சர்வதேச போட்டி ஒன்று நடைபெற்றது. இதில் கலந்து
கொள்வதற்காக ஐரோப்பா கண்டம் முழுவதிலு மிருந்து 11 அழகிகள் வந்திருந்தனர். இவர்களில்
ஒவ்வொருவரும் தங்கள் உடலை ஓவியங் களால் அலங்கரித்துக் கொள்ள 4 மணி நேரம்
எடுத்துக்கொண்டனர். இதில் முதல் பரிசை வென்ற ஸ்பெயின் நாட்டு அழகி இர்மா டி லா
கோர்டியா என்ற பெண்ணை படத்தில் காணலாம். </p>

<p>அரசியல் கட்சியாக செயல்படும் ராணுவம் </p>

<p>பாகிஸ்தானில் 17 மாதங்களுக்கு முன்பு ராணுவ தலைமை தளபதி முஷாரப் ஆட்சியை
பிடித்தார். அங்கு தற்போது ஓய்வு பெற்ற 175 ராணுவ அதிகாரிகள் அரசாங்கத்தின் முக்கிய
பொறுப்புகளில் உள்ளனர். இது தவிர உள்துறை, பொதுத் துறை, ரெயில்வே என அனைத்து முக்கிய
துறைகளிலும் ராணுவ அதிகாரிகளே பதவியில் உள்ளனர். ஒரு அரசியல் கட்சி எப்படி செயல்படுமோ
அதே போன்று பாகிஸ்தான் ராணுவம் செயல்பட்டு வருகிறது என தி பிரை டே டைம்ஸ் என்ற
பத்திரிகை செய்தி வௌியிட்டுள்ளது. </p>

<p>ராணுவ பயிற்சி பெறும் முஸ்லிம் பெண்கள் </p>

<p>
 
<gap desc="illustration"></gap></p>

<p>இஸ்ரேல்-பாலஸ்தீனியர்களுக்கு இடையே நீண்ட காலமாக உள் நாட்டு
யுத்தம் நடைபெற்று வருகிறது. இதில் பாலஸ்தீனியர்களுக்கு ஆதரவாக ஈராக் நாட்டு பெண்கள்
களம் இறங்க உள்ளனர். இந்த பெண்கள் படைக்கு ஜெருசலேம் லிபரேசன் ஆர்மி என பெயர். இதில்
இஸ்ரேலுக்கு எதிராக 66 லட்சம் பேரை அணி திரட்ட உள்ளனர். ஈராக் அரசு இதற்காக 930
மில்லியன் டாலர் நிதிஉதவி செய்துள்ளது. தலைநகர் பாக்தாத்தில் அவர்கள் துப்பாக்கி
ஏந்தி பயிற்சியில் ஈடுபட்டிருக்கும் காட்சியை படத்தில் காணலாம். </p>

<p> </p>

<p>தனி அறையில் அடைத்து
கை-கால்களை கட்டி மயக்க மருந்து கொடுத்தனர், கடத்தல் கும்பலிடம் மீட்கப்பட்ட மாணவன்
கண்ணீர் பேட்டி</p>

<p> </p>

<p>வேலூர்,மார்ச்.12- தனி அறையில் அடைத்து கை- கால்களை கட்டி
மயக்க மருந்து கொடுத்து சித்ரவதை செய்தனர் என்று கடத்தல் கும்பலிடம் இருந்து மீட்கப்பட்ட
மாணவன் உருக்கத்துடன் கூறினான். </p><p>
</p><p>
வேலூர் மக்கானை சேர்ந்த நிதி நிறுவன அதிபர் மகன் அன்னுபாஷா கடத்தப்பட்டு போலீசாரால்
மீட்கப்பட்டான் அல்லவா? மாணவன் அன்னுபாஷா கடத்தல் சம்பவம் குறித்து தினகரன்
நிருபரிடம் கூறியதாவது:- </p><p>
</p><p>
கடந்த (8-ந்தேதி) இரவு சித்தப்பா மகன் முஸ்தபா என்னிடம் வந்து பட்டம் விட நூல்
தருகிறேன், பானிபூரி வாங்கி வா என்று கூறி ரூ.10 எடுத்து கொடுத்தார். நான் அதை வாங்கிக்
கொண்டு ஆனந்தா தியேட்டர் அருகே பானிபூரி வாங்கி வர சென்றேன். வழியில் லுங்கி கட்டிக்
கொண்டு ஒருவன் நின்று கொண்டு இருந்தான். அவன் எனது கையை பிடித்துக் கொண்டு ஒரு குறிப்பிட்ட
கடையை காட்டி அங்கு பானிபூரி வாங்கும் படி கூறினான். </p><p>
</p><p>
காரில்.... </p><p>
</p><p>
பானிபூரி வாங்கி விட்டு நான் திரும்பி வந்தபோது வழியில் ஆடு அடிக்கும் தொட்டி அருகே ஒரு
கார் நின்று கொண்டு இருந்தது. அதில் 2 பேர் இருந்தனர். அவர்கள் என்னை பார்த்து உனது
சித்தப்பா சலீமை பார்க்கதான் செல்கிறோம். அவரது வீட்டை காட்டு என்று கூறியபடி காரில்
அழைத்தனர். நானும் காரில் ஏறினேன். </p><p>
</p><p>
கடத்தல் </p><p>
</p><p>
கார் மக்கானை சுற்றி திரும்பியது. உடனே நான் காரை நிறுத்த சொன்னேன். அதற்கு அவர்கள்
காரில் பெட்ரோல் தீர்ந்து விட்டது. முள்ளிப்பாளையம் பெட்ரோல் பங்கில் பெட்ரோல்
போட்டு வரலாம் என்று கூறினர். நானும் அருகில் தானே என்று இருந்து விட்டேன். ஆனால் அந்த
பெட்ரோல் நிலையத்தில் சென்றதும் அங்கு நிற்காமல் கார் சென்றது. உடனே நான் ஏன்
நிற்காமல் செல்கிறீர்கள் என்று கேட்டேன். </p><p>
</p><p>
மிரட்டினர் </p><p>
</p><p>
அதற்கு காரில் இருந்த 2 பேர் பேசாமல் இரு. எங்களிடம் துப்பாக்கி இருக்கிறது சுட்டு விடுவோம்
என்று மிரட்டினர். கையில் கத்தி வைத்து இருந்தனர். பயந்து போன நான் என்ன செய்வது என்று
தெரியாமல் விழித்தேன். </p><p>
</p><p>
சித்ரவதை </p><p>
</p><p>
பின்னர் என்னை விரிஞ்சிபுரம் அருகே ஒரு வீட்டில் உள்ள அறையில் அடைத்து எனது இரு
கைகளையும் பின்பக்கமாக கட்டினர். கால்கள் இரண்டையும் ஒரு இரும்பு கம்பியுடன் சேர்த்து
கட்டினர். குல்லாவை தலையில் வைத்து முகத்தை மூடினர். </p><p>
</p><p>
நள்ளிரவு அங்கிருந்த ஒரு செல்போன் மூலம் எனது தந்தையிடம் ரூ.2 கோடி பணம் கேட்டு
மிரட்டினர். பணம் தரவில்லை என்றால் கொன்று விடுவோம் என்றனர். அதன் பிறகு எனக்கு டிபன்
கூட கொடுக்காமல் தூக்க மாத்திரையை சாப்பிட கொடுத்தனர். அதை சாப்பிட்டதும் தூங்கி
விட்டேன். போலீசார் மீட்டபோது தான் மயக்கம் தௌிந்தது. </p><p>
</p><p>
இவ்வாறு அவன் கூறினான். </p><p>
</p><p>
தந்தை பேட்டி </p><p>
</p><p>
மாணவன் தந்தை மஜீத் கூறியதாவது:- </p><p>
</p><p>
இரவு 11.50 மணி அளவில் கடத்தல்காரர்கள் போனில் என்னிடம் பேசினர். அப்போது ரூ.2
கோடி பணம் கொடுக்க வேண்டும். இல்லையென் றால் மகனின் கை, கால்களை துண்டு துண்டாக வெட்டி
கொலை செய்து விடுவோம் என்று மிரட்டினர். ரூ.2 கோடி கேட்கிறீர்களே, நான் என்ன
கோடீஸ்வரனா, என்னிடம் அவ்வளவு பணம் ஏது? என்று கேட்டேன். </p><p>
</p><p>
மீண்டும் போன் </p><p>
</p><p>
அப்போது போனை வைத்து விட்ட அவர்கள் பின்னர் நள்ளிரவு மீண்டும் போனில் தொடர்பு
கொண்டனர். அப்போது எனது தம்பி மஜீத் எடுத்து பேசினான். ரூ.2 கோடியில் இருந்து பேரம்
பேசி இறங்கி வந்தனர். ரூ.80 லட்சம் பணத்தை கொடுத்தால் தான் சிறுவனை ஒப்படைப்போம்.
இன்று மாலைக்குள் பணம் கொடுக்க வேண்டும். வேறு வழியில் நீங்கள் சென்றால் அவனை கொன்று
விடுவோம். </p><p>
</p><p>
இது எங்களுக்கு புதிதல்ல. ஏற்கனவே இதுபோல் பல இடங்களில் செய்துள்ளோம். நாங்கள் இந்த
கடத்தல் திட்டத்தை உடனடியாக செய்யவில்லை. ஜனவரிமாதம் உங்கள் வீட்டில் நடந்த
திருமணத்தின் போதே வந்து கலந்து கொண்டு கடத்தல் திட்டம் தீட்டினோம் என்றனர். </p><p>
</p><p>
இவ்வாறு அவர் கூறினார். </p><p>
</p><p>
பிடிபட்டது எப்படி? </p><p>
</p><p>
பானிபூரி வாங்கி வரும்படி கூறிய மாணவனின் அண்ணன் முஸ்தபா இரவு 11 மணி வரை உறவினர்களுடன்
இருந்துள்ளார். பின்னர் திடீரென அவரை காணவில்லை. இதனால் மஜீத்துக்கு சந்தேகம் ஏற்பட்டது.
திரும்ப முஸ்தபா வீடு வந்ததும் அவனை பிடித்து போலீசில் ஒப்படைத்தனர். போலீஸ்
விசாரணையில் தான் மாணவனை அடைத்து வைத்து இருந்த இடம் தெரிய வந்தது. அதிரடி நடவடிக்கை
மேற்கொண்டு மாணவனை மீட்டனர். </p>

<p> </p>

<p>கோழி விற்பது போல வீடு
புகுந்து கொள்ளை, அதிர்ச்சியில் வியாபாரி சாவு</p>

<p> </p>

<p>விருதுநகர், மார்ச். 12- விருதுநகரில் கோழி விற்பதை போல் வீடு
புகுந்து கொள்ளையடித்தனர். இதில் வியாபாரி அதிர்ச்சியில் இறந்தார். </p><p>
</p><p>
விருதுநகர் வ.உ.சி. தெருவை சேர்ந்தவர் நடராஜன் (வயது 62) பருப்பு வியாபாரி. இவர் கடந்த
வௌ்ளிக்கிழமை இரவு வீட்டில் தனியாக இருந்த போது 5 பேர் வீட்டுக்குள் புகுந்தனர்.
அவர்கள் கையில் ஒரு கோழி இருந்தது. நாங்கள் கோழி விற்பவர்கள், உங்களுக்கு கோழி
வேண்டுமா? என்று அவர்கள் கேட்டனர். அதற்கு நடராஜன் கோழி வேண்டாம் என்று கூறினர். </p><p>
</p><p>
இந்த நிலையில் அந்த 5 பேரும் பாய்ந்து நடராசனை இறுக்கி பிடித்து கட்டி போட்டனர். சத்தம்
போட்டால் கத்தியால் குத்தி விடுவோம் என்று மிரட்டினர். அவர்கள் வீட்டில் இருந்த 2
மோதிரம் ரூ. 10 ஆயிரம் ரொக்கம் ஆகியவற்றை கொள்ளையடித்து சென்றனர். திருட்டு போன
பொருட்களின் மதிப்பு ரூ. 19 ஆயிரம் என்று கூறப்படுகிறது. </p><p>
</p><p>
அதிர்ச்சியில் சாவு </p><p>
</p><p>
பொருட்கள் கொள்ளையடித்து செல்கிறார்களே என்று அதிர்ச்சி அடைந்த நடராஜன் இறந்தார்.
நடராஜன் இருதய நோய் உள்ளவர் என்று கூறப்படுகிறது. </p><p>
</p><p>
இறந்து போன நடராஜன் மகன் மற்றும் அவரது மனைவி தேனிக்கு சென்று இருந்தனர். வீட்டில்
வயதானவர் மட்டும் இருப்பதை தெரிந்து கொண்டு கொள்ளையர்கள் வீடு புகுந்து கொள்ளையடித்து
உள்ளனர். </p><p>
</p><p>
விசாரணை </p><p>
</p><p>
இது குறித்து கிழக்கு போலீஸ் நிலையத்தில் புகார் செய்யப்பட்டது. வழக்கை பதிவு செய்த
இன்ஸ்பெக்டர் பரமேசுவரன் மற்றும் டி.எஸ்.பி. சிவராமன் சம்பவ இடத்துக்கு விரைந்து சென்று
விசாரணை நடத்தினர். நேற்றுமுன்தினம் காலை இறந்த நடராஜன் உடல் பிரேத பரிசோதனை அரசு
மருத்துவ மனையில் நடந்தது. </p><p>
</p><p>
போலீசார் கொள்ளையர்களை வலைவீசி தேடி வருகின்றனர். </p>

<p> </p>

<p>திருவண்ணாமலை: காவல்துறை
பணியாளர் சங்கத்தில் ரூ.61ஆயிரம் மோசடி செயலாளர் மீது வழக்கு</p>

<p> </p>

<p>திருவண்ணாமலை,மார்ச்.12- திருவண்ணாமலை காவல்துறை பணியாளர் சங்கத்தில்
ரூ.61 ஆயிரம் மோசடி நடந்து உள்ளது. இதன் தொடர்பாக செயலாளர் தலைமறைவாக உள்ளார். </p><p>
</p><p>
திருவண்ணாமலையில் காவல்துறை பணியாளர் கூட்டுறவு சங்கம்உள்ளது. இங்கு போலீசாருக்கு கடன்
வழங்கப்பட்டு வருகிறது. இது பற்றி சங்க தலைவர் ரவிச்சந்திரன் திருவண்ணா மலை நகர
போலீசில் புகார் செய்தார்.அதில் கடந்த மாதம்சங்க பணம் ரூ.61 ஆயிரத்து600 ஐ சங்க
செயலாளர் ஏ.கே. ரவி மோசடி செய்து விட்டதாக கூறிஉள்ளார். </p><p>
</p><p>
இன்ஸ்பெக்டர் கண்ணன் வழக்கு பதிவு செய்து விசாரணை நடத்தினார். செயலாளர் ரவியை
தேடிவருகிறார். </p>

<p> </p>






</body></text></cesDoc>