<cesDoc id="tam-w-dinakaran-news-01-05-05" lang="tam">
<cesHeader type="text">
<fileDesc>
<titleStmt>
<h.title>tam-w-dinakaran-news-01-05-05.txt</h.title>
<respStmt>
<respType>Electronic file created by</respType>
<respName>Department of Linguistics, Lancaster University</respName>
<respType>text collected by</respType>
<respName>Paul Baker and Celia Worth</respName>
<respType>transferred into Unicode by</respType>
<respName>"Unicodify" software by Andrew Hardie</respName>
</respStmt>
</titleStmt>
<publicationStmt>
<distributor>UCREL</distributor>
<pubAddress>Department of Linguistics, Lancaster University, Lancaster, LA1 4YT, UK</pubAddress>
<availability region="WORLD"></availability>
<pubDate>03-08-24</pubDate>
</publicationStmt>
<sourceDesc>
<biblStruct>
<monogr>
<h.title>"Dinakaran" internet news (www.dinakaran.com), news stories collected on 01-05-05</h.title>
<h.author>Dinakaran</h.author>
<imprint>
<pubPlace>Tamil Nadu, India</pubPlace>
<publisher>Dinakaran</publisher>
<pubDate>01-05-05</pubDate>
</imprint>
</monogr>
</biblStruct>
</sourceDesc>
</fileDesc>
<encodingDesc>
<projectDesc>Text collected for use in the EMILLE project.</projectDesc>
<samplingDesc>Simple written text only has been transcribed. Diagrams, pictures and tables have been omitted and their place marked with a gap element.
</samplingDesc>
<editorialDecl>
<conformance level="1"></conformance>
</editorialDecl>
</encodingDesc>
<profileDesc>
<creation>
<date>03-08-24</date>
</creation>
<langUsage>Tamil</langUsage>
<wsdUsage>
<writingSystem id="ISO/IEC 10646">Universal Multiple-Octet Coded Character Set (UCS).</writingSystem>
</wsdUsage>
<textClass>
<channel mode="w">print</channel>
<constitution type="composite"></constitution>
<domain type="public"></domain>
<factuality type="fact"></factuality>
</textClass>
<translations></translations>
</profileDesc>
<revisionDesc></revisionDesc>
</cesHeader>

<text>
<body>




<p>மத்திய-மாநில அரசுகளுக்கு
சுப்ரீம் கோர்ட்டு உத்தரவு: கருவில் இருப்பது ஆணா? பெண்ணா? கண்டறிவதை தடுக்க
தீவிர நடவடிக்கை</p>

<p> </p>

<p>புதுடெல்லி, மே 5- புதிய தொழில் நுட்பத்தை பயன்படுத்தி கருவில்
இருப்பது ஆணா? பெண்ணா? என்பதை கண்டறிந்து பெண் சிசுக்களை கொல்வதை தடுக்க தீவிர
நடவடிக்கை எடுக்க வேண்டும் என்று மத்திய, மாநில அரசுகளுக்கு சுப்ரீம்கோர்ட்டு
உத்தரவிட்டுள்ளது. </p><p>
</p><p>
தாயின் கருப்பையில் இருப்பது ஆண் குழந்தையா? பெண் குழந்தையா? என்பதை நவீன தொழில்
நுட்பம் மூலம் கண்டறிய சட்டப்படி தடை விதிக்கப்பட்டுள்ளது. ஆனால் இந்த சட்டம் நாடு
முழுவதும் மீறப்படுகிறது. கருவில் இருக்கும் சிசுவின் பாலினம் என்ன என்பதை கண்டறிவது தொடர்ந்து
நடந்து வருகிறது. இதை தடுக்க கோரி சுப்ரீம் கோர்ட்டில் பொது நல வழக்கு ஒன்று
தொடரப்பட்டது. </p><p>
</p><p>
நடவடிக்கை </p><p>
</p><p>
இந்த வழக்கை விசாரித்த நீதிபதிகள் எம்.பி.ஷா, எஸ்.என். வைரவா ஆகியோர் அடங்கிய
டிவிசன் பெஞ்சு நேற்று தீர்ப்பு அளித்தது. தீர்ப்பில் அவர்கள் கூறியிருப்பதாவது:- </p><p>
</p><p>
கருவில் இருக்கும் குழந்தை ஆணா? பெண்ணா? என்பதை நவீன தொழில்நுட்பம் பயன் படுத்தி
கண்டுபிடிப்பது சட்டப் படி தவறான நடவடிக்கை. ஆனால் தடையை மீறி இத்தகைய செயல்கள்
நடைபெற்று வருகின்றன. மேலும் கருவில் இருப்பது பெண் குழந்தை என்பது தெரிந்தால் சிசுவை உடனே
கொன்று விடுவது தொடர்கிறது. இதுபோன்ற செயல்களை தடுக்க மத்திய- மாநில அரசுகள் தீவிர
நடவடிக்கை எடுக்க வேண்டும். </p><p>
</p><p>
கருவில் இருக்கும் குழந்தையின் பாலினம் என்ன என்று கண்டறிவது தடை செய்யப் பட்டுள்ளது
என்பதை மக்கள் மத்தியில் பிரசாரம் செய்ய வேண்டும். சட்டம் சரியாக அமுல்
செய்யப்படுகிறதா? என்பதை சரிபார்க்க மத்திய கண்காணிப்பு வாரியம் 6 மாதத் துக்கு
ஒருமுறை கூடி ஆய்வு நடத்த வேண்டும். மேலும் சட்டத்தில் திருத்தம் எதுவும் செய்ய
வேண்டுமா? என் பதையும் இந்த வாரியம் பரிசீலிக்க வேண்டும். </p><p>
</p><p>
தவறு நடப்பதை மத்திய கண்காணிப்பு வாரியம் கண்டறிந்து அறிக்கை தரும். இந்த அறிக்கையின்
அடிப்படையில் பதிவு பெறாமல் நடத்தப்படும் ஸ்கேன் மையங்களில் சோதனை நடத்தி ஆவணங்களை
பறி முதல் செய்ய நடவடிக்கை எடுக்கப்படும். </p><p>
</p><p>
இவ்வாறு அவர் கூறினார். </p>

<p> </p>

<p>அக்னி வெயிலை தடுக்க
ஓட்டுச்சாவடியில் பந்தல் வசதி, தேர்தல் கமிஷன் உத்தரவு</p>

<p> </p>

<p>சென்னை, மே. 5- கத்தரி வெயிலில் இருந்து மக்களை காக்க
வாக்குசாவடிகளில் பந்தல் அமைக்க தேர்தல் கமிஷன் உத்தரவிட்டுள்ளது. </p><p>
</p><p>
தமிழகத்தில் சட்டசபை தேர்தல் வரும் 10-ந்தேதி நடக்கிறது அல்லவா? இதையொட்டி தேர்தல்
ஏற்பாடுகள் தீவிரப்படுத்தப் பட்டு வருகிறது. சென்னையில் மட்டும் 14 தொகுதிகள் உள்ளன.
இந்த 14 தொகுதிகளில் தி.மு.க. மற்றும் அ.தி.மு.க. கூட்டணி வேட்பாளர்கள் உள்பட 142 பேர்
போட்டியிடுகிறார்கள். </p><p>
</p><p>
14 சட்டமன்ற தொகுதிகளுக் கும் சேர்த்து பவிஷ்கர், டாங்கே, ஜோஷி, சிங் என 4 தேர்தல்
பார்வையாளர்கள் நியமிக்கப் பட்டு உள்ளனர். இவர்கள் அனை வரும் சேப்பாக்கம் அரசு
விருந்தினர் மாளிகையில் தங்கி உள்ளனர். </p><p>
</p><p>
ஆய்வு </p><p>
</p><p>
நேற்று காலை சென்னை கலெக்டரும், சென்னை மாவட்ட தேர்தல் அதிகாரியுமான சுப்பிர மணியம்
மற்றும் 4 தேர்தல் பார்வையாளர்கள் ஆகியோர் சென்னை மாநகராட்சி ரிப்பன் மாளிகை
வளாகத்துக்கு சென்றனர். அவர்களை மாநகராட்சி ஆணையர் ஜெ.ராதாகிருஷ்ணன் வரவேற்றார். </p><p>
</p><p>
பின்னர் அவர்கள் அனைவரும் மாநகராட்சி வளாகத்தில் உள்ள உள்விளையாட்டு அரங்கத்தில்
அடுக்கி வைக்கப்பட்டிருக்கும் மின்னணு வாக்குப்பதிவு எந்திரங்களை பார்வையிட்டனர். அங்கு தொகுதிவாரியாக
எந்திரங்கள் பிரிக்கப்படுவது பற்றி கலெக்டர் சுப்பிரமணியம் மற்றும் 4 தேர்தல் பார்வை
யாளர்கள் ஆய்வு நடத்தினர். </p><p>
</p><p>
பந்தல் </p><p>
</p><p>
மின்னணு எந்திரத்தின் செயல்திறன் குறித்தும் வருவாய் துறை அதிகாரிகளிடம் கலெக்டர்
சுப்பிரமணியம் கேட்டறிந் தார். இதனை தொடர்ந்து பதி வான வாக்குகள் எண்ணக் கூடிய
அண்ணாபல்கலைக்கழ கம், ராணிமேரி கல்லூரி, மாநிலக்கல்லூரி, லயோலா கல்லூரி ஆகிய
இடங்களையும் கலெக்டர் சுப்பிரமணியம், தேர் தல் பார்வையாளர்கள் பவிஷ்கர், டாங்கே,
ஜோஷி, சிங் ஆகி யோர் பார்வையிட்டனர். </p><p>
</p><p>
சென்னையில் உள்ள பதட்டமான வாக்குசாவடிகளையும் அவர்கள் பார்வையிட்டனர்.
கத்தரிவெயிலில் பொதுமக்கள் வாக்களிக்க வேண்டியிருப்ப தால் வாக்குசாவடிகளில் வரிசையாக
நிற்பவர்களுக்கு பந்தல் அமைக்கலாம் என இந்த ஆய்வின்போது கருத்து தெரிவிக்கப்பட்டது.
தேர்தல் கமிஷனும் இதற்கு உத்தரவிட்டுள்ளது. </p><p>
</p><p>
வாக்குசாவடிகள் </p><p>
</p><p>
தேர்தல் நேரத்தில் மின் னணு எந்திரத்தில் ஏதேனும் கோளாறு ஏற்பட்டால் அவற்றை சரி
செய்ய பெங்களூரில் இருந்து 30 பொறியாளர்கள் சென்னை வந்து உள்ளனர். சென்னையில் 2, 858
வாக்கு சாவடிகள் அமைக்கப்படவிருக்கிறது. சென்னைக்கு 5 ஆயிரம் மின்னணு எந்திரங்கள்
ஒதுக்கப்பட்டு உள்ளது. ஆனால் 3,156 மின்னணு வாக்குபதிவு எந்திரங்கள்
பயன்படுத்தப்படவிருக்கிறது என்பது குறிப்பிடத்தக்கது. </p>

<p> </p>

<p>ஓட்டு எந்திரம் பழுது
பார்க்க, 30 என்ஜினீயர்கள் பெங்களூரில் இருந்து வந்தனர்</p>

<p> </p>

<p>சென்னை, மே 5- ஓட்டு எந்திரம் பழுது பார்க்க 30 என்ஜினீயர்கள்
நேற்று பெங்களூரில் இருந்து வந்தனர். </p><p>
</p><p>
தமிழக சட்டமன்ற தேர்தலை முன்னிட்டு தேர்தல் ஏற் பாடுகளை பார்வையிட பவிஷ் கர், டாங்கே,
ஜோஷி, சிங் ஆகி யோர் நேற்று காலையில் சென்னை மாநகராட்சி அலுவ லகத்துக்கு சென்றனர்.
அங்கு வைக்கப்பட்டு இருக்கும் மின்னணு ஓட்டு பதிவு எந்திரங்களை பார்வையிட்டு சோதித்து
பார்த்தனர். இங்கு மொத்தம் 75 ஆயிரம் எந்திரங்கள் உள்ளன. இதில் சென்னை நகருக்கு 2
ஆயிரத்து 874 எந்திரங்களும், மற்றும் தயார் நிலையில் ஆயிரத்து 200 எந்திரங்களம் போக
மற்றவை வௌி மாவட்டங்களுக்கு அனுப்பி வைக்கப்படுகின்றன. </p><p>
</p><p>
30 என்ஜினீயர்கள் </p><p>
</p><p>
ஒரு எந்திரம் பழுதானால் உடனே வேறு எந்திரம் மாற்றி வைக்கப்படும். எந்திரங்களை
பழுதுபார்க்க 30 பொறியாளர்கள் பெங்களூரில் இருந்து சென்னை வந்து உள்ளனர். அவர்கள் எல்லா
மாவட்டங்களுக்கும் அனுப்பி வைக்கப் படுவார்கள். </p><p>
</p><p>
இந்த பார்வையாளர்கள் சென்னையில் ஓட்டு எண்ணும் இடங்களான அண்ணா பல் கலைக்கழகம்,
லயோலா கல்லூரி, மாநிலக் கல்லூரி, ராணி மேரி கல்லூரி ஆகியவற்றுக்கு சென்று ஏற்பாடுகளை பார்வையிட்டனர்.
</p><p>
</p><p>
வாக்குச்சாவடிகளில் வாக் காளர்கள் கியூவில் நிற்க வசதியாக கீற்று கொட்டகை மற்றும்
குடிநீர் வசதி செய்ய உத்தர விட்டனர். பதட்டம் நிலவக் கூடிய வாக்குச்சாவடிகளுக்கும் சென்று
பாதுகாப்பு ஏற்பாடுகளை பார்வையிட்டனர். </p>

<p> </p>

<p>அசாம் கண பரிஷத்
அலுவலகத்தை முற்றுகை: மந்திரி தொகுதியில் 6 தொண்டர்களை உல்பாக்கள் சுட்டுக் கொன்றனர்</p>

<p> </p>

<p>கவுகாத்தி, மே 5- அசாம் கண பரிஷத் அலுவலகத்தை உல்பா
தீவிரவாதிகள் சூழ்ந்து கொண்டு சரமாரி சுட்டனர். இதில் 6 தொண்டர்கள் பலியானார்கள்.
மேலும் 22 பேர் காயம் அடைந்தனர். </p><p>
</p><p>
அசாமில் ஆளும் அசாம் கண பரிஷத் மற்றும் பாரதிய ஜனதா கூட்டணியினர் மீது உல்பா
தீவிரவாதிகள் தொடர் தாக்குதல் நடத்தி வருவது தெரிந்ததே. ஏற்கனவே பாரதிய ஜனதா
எம்.எல்.ஏ. ஒருவர் சுட்டுக் கொல்லப்பட்டார். </p><p>
</p><p>
இந்த நிலையில் விவசாய மந்திரி சந்திரமோகன் தொகுதியில் உள்ள பாகிரதி என்ற இடத்தில்
அசாம் கண பரிஷத் அலுவலகத்தை நேற்று உல்பா தீவிரவாதிகள் சூழ்ந்து கொண்டு துப்பாக்கியால்
சரமாரி சுட்டனர். இதில் 6 தொண்டர்கள் பலியானார்கள். மேலும் 6 பேர் காயம் அடைந்த
னர். உல்பா தீவிரவாதிகளின் கொலை பட்டியலில் இந்த மந்திரியின் பெயரும் இடம் பெற்று
உள்ளது குறிப்பிடத்தக்கது. </p><p>
</p><p>
குண்டுவீச்சு </p><p>
</p><p>
கோலபுரா நகரிலும் அசாம் கணபரிஷத் அலுவலகம் மீது தீவிரவாதிகள் குண்டுகளை வீசினர். அவை
வெடித்துச் சிதறியது. இதில் 14 பெண் தொண்டர்கள் உள்பட 16 பேர் காயம் அடைந்தனர்.
மேலும் 2 தேர்தல் அலுவலகங்களும் தீ வைத்து கொளுத்தப்பட்டன. </p><p>
</p><p>
உல்பாக்களின் தேர்தல் வன்முறையால் இதுவரை 27 பேர் கொல்லப்பட்டு உள்ளனர் </p><p>
</p><p>
மத்திய மந்திரி புகார் </p><p>
</p><p>
இதற்கிடையில் மத்திய மந்திரி முரளி மனோகர் ஜோஷி நேற்று கவுகாத்தியில் பேட்டி
அளிக்கையில் உல்பாக்களுக்கும் காங்கிரசுக்கும் உள்ள தொடர்பு பற்றி குறிப்பிட்டார்.
காங்கிரசை கவசமாக பயன்படுத்தி உல்பாக்கள் தாக்குதல் நடத்துகிறார்கள். எனவே இது பற்றி
தேர்தல் ஆணையம் முழு அளவில் விசாரணை நடத்தவேண்டும் என்று அவர் கோரி உள்ளார். </p>

<p> </p>

<p>வேகமாக இழுத்த போது தவறி
விழுந்தவர்கள் மீது தேர் ஏறியது: சங்கரன்கோவில் தேர் சக்கரத்தில் சிக்கி 9 பக்தர்கள்
படுகாயம்</p>

<p> </p>

<p>
 
 
  
  
  
  
  
  
  
  
  
  
  
  
 
 
 

 
<gap desc="illustration"></gap></p>




 
  
  <p>சங்கரன்கோவிலில்
  நேற்று தேரோட்டம் நடந்த போது எடுத்த படம். </p>
  
 




<p>சங்கரன்கோவில், மே.5- சங்கரன்கோவிலில் நேற்று தேரோட்டம்
நடந்தது. தேர் நிலைக்கு வரும் போது வேகமாக பக்தர்கள் இழுத்தனர். அப்போது வடம் பிடித்த
பக்தர்கள் தவறி கீழே விழுந்தனர். அவர்கள் மீது தேர் ஏறி நசுக்கியது. இதில் 9 பக்தர்கள்
படுகாயம் அடைந்தனர். </p><p>
</p><p>
நெல்லை மாவட்டத்தில் மிகவும் பிரசித்தி பெற்ற கோவில்களில் ஒன்றான சங்கரன் கோவில்
சங்கரநாராயண சுவாமி திருக்கோவில் ஆகும். இங்கு ஆடி மாதம் ஆடித்தபசு விழாவும் ஐப்பசி
மாதம் கந்த சஷ்டி விழாவும் மார்கழி மாதம் திருவெம்பாவை விழாவும் சித்திரை மாதங்களில்
சித்திரை பெருந்திருவிழா 10 நாட்களும் சிறப்பாக நடைபெறுவது வழக்கம். </p><p>
</p><p>
அதே போல் இந்த வருடம் சித்திரை திருவிழா கடந்த மாதம் 26-ந்தேதி (வியாழக் கிழமை)
காலை 8 மணிக்கு கொடியேற்றத்துடன் தொடங்கி யது. தினமும் காலை, மாலை நேரங்களில்
மண்டகப்படி தாரர்கள் சார்பில் விசேஷ, அபிஷேகம் அலங்கார தீபாராதனைகள் பூஜைகள்
நடத்தப்பட்டு சப்பரத்தில் சுவாமி அம்பாள் வீதி உலா வந்தது. </p><p>
</p><p>
தேரோட்டம் </p><p>
</p><p>
திருவிழாவின் 7-ம் திருநாள் அன்று சுவாமி அம்பாள்தங்க சப்பரத்தில் சிவப்பு சாத்தியும்
அன்று இரவு 12 மணி அளவில் சுவாமி அம்பாள் வௌ்ளை சாத்தியும் வௌ்ளி சப்பரத்தி லும்
8-ம் திருநாள் (வியாழக் கிழமை) காலை 7 மணி அள வில் வௌ்ளி சப்பரத்தில் பச்சை
சாத்தியும் நடராஜர் வீதி உலாவும் நடைபெற்றது. தின மும் கோவில் கலையரங்கத்தில்
மண்டகப்படிதாரர்கள் மூலம் அன்னதானமும் வழங்கப்பட் டது. </p><p>
</p><p>
திருவிழாவின் முக்கிய நாளான நேற்று (வௌ்ளி) காலையில் தேரோட்டம் நடந்தது. </p><p>
</p><p>
முன்னதாக காலை கோவி லில் சுவாமி அம்பாளுக்கு விசேஷ, அபிஷேக அலங்கார மும்,
தீபாராதனையும் செய்யப் பட்டு சுவாமி அம்பாளும் கீழரத வீதியில் உள்ள அம்பாள் தேருக்கு
அம்பாளும் சுவாமி தேருக்கும் சுவாமியும் எழுந்தருளினார்கள். </p><p>
</p><p>
பின்னர் சரியாக 9.30 மணி அளவில் தேர்வடத்தை சங்கரன் கோவில் சட்டமன்ற தொகுதி
வேட்பாளர்கள் புதிய தமிழகம் பூ.துரைச்சாமி, ம.தி.மு.க. வேட் பாளர் டாக்டர் சதன்
திருமலைக் குமார், அ.தி.மு.க. வேட்பாளர் சொ.கருப்பசாமி, சங்கரன் கோவில் நகர் மன்ற
தலைவர் ச.தங்கவேலு, சங்கரன்கோவில் வட்டாட்சிரியர் சூரிய நாராயணன், திருக்கோவில்
உதவி ஆணையர் தக்கார் ரே.ராஜாராம்,உதவி ஆணை யர்- செயல் அலுவலக சி.முத்து தியாகராஜன்
ஆகியோர்கள் தொடங்கி வைத்தார்கள். </p><p>
</p><p>
சுவாமி தேர் முற்பகல் 11.15 மணிக்கு வடக்குரதவீதியில் வந்ததும் நிறுத்தி விட்டு பின்னர்
அம்மன் தேரை இழுக்க தொடங்கினார்கள். தேர் மள மள வென வந்து மேலரத வீதியில் வந்தவுடன்
வெயில் அதிகமாக கொளுத்தியதால் அம்மன் தேரையும் அங்கேயே நிறுத்தி விட்டனர். </p><p>
</p><p>
தேர் சக்கரம் ஏறியது </p><p>
</p><p>
மாலையில் மீண்டும் அம்பாள் தேர்கள் இழுக்கப்பட்டன. ஏராளமான பக்ர்கள் வடம் பிடித்து
உற்சாக பக்தி முழக்கத்துடன் தேரை வேகமாக இழுத்து வந்தனர். </p><p>
</p><p>
வடக்கு ரதவீதியில் தேர் நிலைக்கு நிற்கும் இடத்திற்கு சுமார் 100 அடிக்கு அப்பால் மதிக
வேகமாக தேர் வந்த போது வடம் பிடித்து இழுத்துக் கொண்டிருந்த பலர் கால் தவறி கீழே
விழுந்தனர். அப்போது வேகமாக வந்த தேரின் சக்கரம் அவர்கள் மீது ஏறி நசுக்கியது. இதனால்
9 பக்தர்கள் காயம் அடைந்தனர். </p><p>
</p><p>
அவர்கள் பெயர் விபரம் வருமாறு:- </p><p>
</p><p>
1. அய்யப்பன் (வயது19) த/பெ.ரமணி அய்யர், ஆதி சங்கர விநாயகர் கோவில் தெரு. </p><p>
</p><p>
2)பாலசுப்பிரமணியம் (வயது12 த/பெ.பழனிவேல் (இடது கால் முறிவு) மாதா கோவில் தெரு. </p><p>
</p><p>
3) ஜெகநாதன் (வயது42) (இடது கால் முறிவு) த/பெ.துரை முத்துசாமி,அம்மன் சன்னதி தெரு. </p><p>
</p><p>
4) பாலுதங்கப்பெருமாள் (வயது20) த/பெ.கோமதி நாயகம், அம்மன் சன்னதித் தெரு. </p><p>
</p><p>
5) ராமச்சந்திரன் (வயது39) த/பெ.சுப்பிரமணியமுதலியார், பாரதியார் 3-வது தெரு. </p><p>
</p><p>
6) சுப்பிரமணியன் (வயது52) (இடது கால் முறிவு) த/பெ.சங்கரகுத்தாலம்,திருப்பூர் குமரன்
நகர். </p><p>
</p><p>
7) குருசாமிஆசாரி (வயது56), த/பெ.மகாலிங்கம், திரு. வி.க.நகர். </p><p>
</p><p>
8) கருப்பசாமி (வயது17) த/பெ.மகாலிங்கம், திரு.விக. நகர். </p><p>
</p><p>
9) முத்துக்குமாரி (வயது18) த./பெ.சக்திவேல் செட்டியார், மேலச்செக்கடித்தெரு. </p><p>
</p><p>
மேற்கண்ட 9 பேரும் சங்கரன்கோவில் அரசு மருத்துவமனையில் முதல் சிகிச்சைக்குப்பிறகு பாளை
மேட்டுத் திடல் அரசு மருத்துவ மனையில் சேர்க்கப்பட்டு சிகிச்சை பெறுகிறார்கள். </p>

<p> </p>

<p>ராணுவ பயிற்சி விமானம்
விபத்து: கிராம மக்களை காப்பாற்ற தனது உயிரை கொடுத்தார், பலியான விமானி பற்றி புதிய
தகவல்கள்</p>

<p> </p>

<p>தாம்பரம், மே 5- பயிற்சி விமான விபத்தில் பலியான ராணுவ
அதிகாரி பொது மக்களுக்கு ஏற்பட இருந்த பெரும் பாதிப்பை தடுக்க தனது உயிரை கொடுத்தார்
என்ற புதிய தகவல் கிடைத்துள்ளது. </p><p>
</p><p>
வண்டலூர் உயிரியல் பூங்காவில் ராணுவ பயிற்சி விமா னம் எரிந்து விழுந்து விமானி கவுர்
பலியானார் அல்லவா? பலியான கவுரின் முழுப்பெயர் சஞ்சய் கவுர் (வயது36).
அரியானா மாநிலத்தில் உள்ள சோனிக் என்ற நகரை சேர்ந்தவர். தந்தை பெயர்
ஆர்.பி.கவுர். தாயார் ஷியாமா கவுர். 6 ஆண்டுக்கு முன்பு இவருக்கு திரு மணம் ஆகி உள்ளது.
மனைவி பெயர் அஞ்சலி (வயது30), ஆஷ்ணா (வயது5), தனிஷா (6மாதம்) என்ற 2 பெண்
குழந்தைகள் உள்ளனர். கவுர் இந்திய விமானப்படையில் அதிகாரி ஆவார். மாநில அரசு
நிர்வாகத்தில் ஐ.பி.எஸ். அதிகாரி அந்தஸ்தில் உள்ளவர் என்று கூறப்படுகிறது. </p><p>
</p><p>
வௌிநாடு செல்ல திட்டம் </p><p>
</p><p>
இந்திய விமானப்படையில் 15 ஆண்டுகளாக பணியாற்றி வந்த இவர் 3500 மணி நேரம்
விமானத்தில் பறந்து சாதனை புரிந்தவராம். திறமையான அதிகாரி என்று கூறப்படுகிறது.
விரைவில் இந்திய விமானப் படையில் இருந்து ஓய்வு பெற்று வௌிநாட்டில் பயணிகள் விமான
பைலட்டாக செல்ல இருந்தாராம். அதற்குள் பரி தாபமாக விபத்தில் பலியாகி விட்டார். </p><p>
</p><p>
விமான விபத்தில் அதிகாரி கவுர் இறந்துபோன செய்தி அரியானாவில் உள்ள அவரது
பெற்றோருக்கு தெரிவிக்கப் பட்டு அவர்கள் விமானப்படை தனி விமானம் மூலம் நேற்று முன்தினம்
இரவு சென்னைக்கு அழைத்து வரப்பட்டனர். கவு ரின் தம்பி நரேந்திரா என்ப வரும் மற்றும்
அவரது மாமனார் மாமியாரும் உடன் வந்தனர். </p><p>
</p><p>
கவுரின் குடும்பத்தார் கேட்டுக் கொண்டதற்கிணங்க தாம்பரத்தை அடுத்த மாடம் பாக்கம்
சுடுகாட்டில் நேற்று மாலை 3.45 மணிக்கு கவுரின் உடல் எரியூட்டப்பட்டது. சிதைக்கு தம்பி
நரேந்திரா தீ மூட்டினார். தாம்பரம் விமானப்படை ஏர்கமாண்டர் கே.எஸ். சகோத்தா வீர்
சக்ரா, குரூப் கேப்டன் சதுர்வேதி, ஏர் கமாண்டர் என்.ஐ.ரசாக்கி ஆகியோர் அங்கு
திரண்டிருந்தனர். முன்னதாக விங்கமாண்ட் சந்தூர் தலைமையில் 11 விமானப் படை வீரர்கள்
தலா 3 வீதம் 33 குண்டுகளை முழக்கினர். </p><p>
</p><p>
புதிய தகவல்கள் </p><p>
</p><p>
அதிகாரி கவுர் பொதுமக்களுக்கு பாதிப்பு ஏற்படாமல் தடுக்கவே தன் உயிரை கொடுத்தார் என்ற
புதிய தகவல் கிடைத்து உள்ளது.இதுபற்றிய விவரம் வருமாறு:- </p><p>
</p><p>
விமானப்படை பயிற்சி விமானம் ஒவ்வொரு முறையும் ஓடு பாதைக்கு வந்துதான் மீண்டும்
கிளப்பப்படுமாம். நேற்று முன்தினம் காலை 9.30 மணி அளவில் அதிகாரி கவுர் விமானத்தை
இயக்கி 2 முறை வானில் வட்டமடித்துள்ளார். மூன்றாவது முறை ஓடுபாதை யிலிருந்து விமானத்தை
கிளப்பியபோது என்ஜின் கோளாறு அவருக்கு தெரிந்துள்ளது. உடனடியாக வயர்லஸ் மூலம்
கட்டுப்பாட்டு அறைக்கு தொடர்பு கொண்டு தெரிவித் திருக்கிறார். </p><p>
</p><p>
பாராசூட்டில் குதித்து விடுமாறு அவருக்கு அங்கிருந்து தகவல் சொல்லப்பட்டிருக்கிறது. அந்த
நேரம் விமானம் சதானந்தபுரம் கிராமத்தின் மீது 1000 அடிக்கு மேல் பறந்துள்ளது. அத்துடன்
அவர் பாராசூட்டில் குதித்திருந்தால் பாராசூட் விரிந்து உயிர் தப்பியிருக்கலாம். ஆனால்
விமானம் சதானந்தபுரம் கிராமத்தின் மீது விழுந்து பொதுமக்களுக்கு உயிர்சேதம் ஏற்படும்
என்று கருதி விமானத்தை தாழ்வாக காட்டுப் பகுதிக்குள் கொண்டு சென்றுள்ளார். அங்கும்
மிருககாட்சி சாலைக்குள் விமானம் விழுந்து விடக் கூடாது என்று கருதி அதற்கு சற்று தூரத்தில்
அவர் பாராசூட்டில் குதித்திருக்கிறார். விமானம் மிருககாட்சி சாலைக்குள் விழுந்து
தீப்பற்றி கொண்டது. போதிய உயரம் இன்றி பாராசூட் விரியாததால் கவுர் தரையில்
விழுந்துள்ளார். </p>

<p> </p>

<p>ராமேசுவரம் கோவிலுக்கு ரூ.4
லட்சம் தங்க கிரீடம், வடநாட்டு பக்தர் வழங்கினார்</p>

<p> </p>

<p>ராமேசுவரம், மே.5- ராமேசுவரம் கோவிலுக்கு வடநாட்டை சேர்ந்த
பக்தர் ஒரு வர் ரூ.4 லட்சம் மதிப்புள்ள தங்க கிரீடத்தை காணிக்கையாக வழங்கினார். </p><p>
</p><p>
மத்திய பிரதேசம் மாநிலம் இந்தூரை சேர்ந்த தொழிலதிபர் ரமேஷ் மங்கள். இவர் தனது
குடும்பத்துடன் நேற்று ராமேசுவரம் கோவிலுக்கு சாமி கும்பிட வந்து இருந்தார். இவர் அருள் மிகு
ராமநாதசுவாமி சன்னதி யில் தங்கத்திலான கிரீடம் ஒன்றை காணிக்கையாக வழங் கினார். </p><p>
</p><p>
ரூ.4 லட்சம் </p><p>
</p><p>
நாகாபரணம் என்று அழைக்கப்படும் இந்த கிரீடத்தின் மதிப்பு ரூ.4 லட்சம் ஆகும். இது போன்ற
தங்க கிரீடம் கோவிலுக்கு காணிக்கையாக வழங்கிய முதல் பக்தர் ரமேஷ் மங்கள் தான் என்பது
குறிப்பிடத்தக்கது. </p>

<p> </p>

<p>குதிரை பந்தயத்தில் பணத்தை
இழந்தவர் ஊட்டி ஏரியில் குதித்து தற்கொலை</p>

<p> </p>

<p>ஊட்டி, மே. 5- குதிரை பந்தயத்தில் பணத்தை இழந்தவர் மனம் உடைந்து
ஊட்டி ஏரியில் குதித்து தற் கொலை செய்து கொண்டார். </p><p>
</p><p>
ஊட்டி காந்தல் பகுதியில் உள்ள புதுநகரை சேர்ந்தவர் கோவிந்தராவ் (வயது 62). டெயிலர்.
இவருக்கு குடிப் பழக்கம் மற்றும் குதிரை பந்தயத்தில் பணம் கட்டி விளையாடும் பழக்கம் இருந்து
வந்துள்ளது. கடந்த 1-ந்தேதி வீட்டை விட்டு வௌியே சென்ற கோவிந்தராவ் மீண்டும் வீடு
திரும்பவில்லை. பல இடங்களில் தேடியும் அவரை கண்டுபிடிக்க முடியவில்லை. </p><p>
</p><p>
ஏரியில் பிணம் </p><p>
</p><p>
இந்த நிலையில் நேற்றுமுன் தினம் (புதன்) ஊட்டி ஏரியில் ஆண் பிணம் ஒன்று மிதந்தது.
இதுபற்றி படகு இல்ல மேலாளர் கண்ணன் ஊட்டி நகர மேற்கு பகுதி போலீசுக்கு தகவல் கொடுத்தார்.
சப்-இன்ஸ்பெக்டர் போஸ், ஏட்டுகள் குணசேகரன், கெம்பன் ஆகியோர் விரைந்து சென்று
ஏரியில் மிதந்த பிணத்தை மீட்டு பிரேத பரி சோதனைக்கு அனுப்பி வைத்த னர். </p><p>
</p><p>
கோவிந்தராவ் </p><p>
</p><p>
இது தொடர்பாக ஒரு வழக்கு பதிவு செய்து விசாரணை நடத்தினார்கள். இதில் ஏரியில் பிணமாக
கிடந்தது டெயிலர் கோவிந்தராவ்தான் என்பது தெரியவந்தது. ஊட்டியில் நடந்துவரும் குதிரை
பந்தயத் தில் பணம் கட்டி விளையாடி பணத்தை இழந்ததால் மனம் உடைந்த கோவிந்தராவ்
ஏரியில் குதித்து தற்கொலை செய்து இருக்கலாம் என்று தெரிகிறது. போலீசார் மேலும் விசாரணை
நடத்தி வருகிறார் கள். </p>

<p> </p>

<p>காலராவை கட்டுப்படுத்தும்
தக்காளி விரைவில் அறிமுகம்</p>

<p> </p>

<p>புதுடெல்லி, மே 5- காலரா நோய் தடுப்பு மருந்தை உள்ளடக்கிய
தக்காளியை விரைவில் அறிமுகப்படுத்த ஆராய்ச்சிகள் மேற்கொள்ளப்பட்டு வருகின்றன.
புதுடெல்லியில் உள்ள ரசாயன தொழில்நுட்ப மையம் இந்த முயற்சியில் ஈடுபட்டுள்ளது.
காலராவை தோற்றுவிக்கும் கிருமிகளை எதிர்க்கக்கூடிய மரபணுக்களைக் கொண்டு இப்புதிய வகை
தக்காளி உருவாக்கப்படும். நோய் தடுப்பு மரபணு ஆராய்ச்சிகள் வெற்றி கண்டுள்ளன. எனினும்
மேலும் பல பரிசோதனை முயற்சிகளுக்குப் பின்னர் இந்த வகை தக்காளி விற்பனைக்கு வரும்.
எலிகள் மீது மேற்கொள்ளப்பட்ட பரிசோதனை முயற்சிகள் மூலம் காலரா நோய் எதிர்ப்பு
சக்தியை இம்மரபணுக்கள் உருவாக்குவதாக கண்டறியப்பட்டுள்ளது. இந்த தகவலை மத்திய அரசின்
செய்திக்குறிப்பு தெரிவிக்கிறது. </p>

<p> </p>

<p>இந்தியாவில் 18 போலி
பல்கலைக்கழகம்</p>

<p> </p>

<p>புதுடெல்லி,
மே 5- இந்தியாவில் 18 போலி பல்கலைக்கழகங்களும், ஏராளமான போலி தொழிற் கல்வி
நிறுவனங்களும் செயல்படுகின்றனவாம். வியாபார நோக்கில் செயல் படும் இந்த போலி கல்வி
நிறுவனங்கள் ஆயிரக்கணக்கான மாணவர்களின் வாழ்வை சூறையாடு கிறது. மத்திய பல்கலைக் கழக
அமைப்பான யூ.ஜி.சி இது தொடர்பாக ஆய்வு மேற் கொண்டு இண்டர்நெட்டில் இது போன்ற போலி
கல்வி நிறுவனங்களின் பெயர்களை வௌியிட்டு வருகிறது. இந்த அமைப்பின் முயற்சியால்
சமீபத்தில் இது போன்று வியாபார நோக்கில் செயல்பட்ட 2 போலி கல்வி நிறுவனங்கள் கண்டு
பிடிக்கப்பட்டு, அவைகளின் உரிமம் நீதிமன்றம் மூலம் தடை செய்யப்பட்டுள்ளது. </p><p>
</p><p>
இந்திய வயாகரா மருந்துகளின் விற்பனை வீழ்ச்சி </p><p>
</p><p>
புதுடெல்லி, மே 5- இந்திய ஆண்களில் 16 வயது முதல் 69 வயதுக்குட்பட்ட 10 சதவீதம் பேர்
ஆண்மைக்குறைவினால் பாதிக்கப்பட்டுள்ளதாக கணக்கிடப்பட்டுள்ளது. ஆனால் ஆண்மை எழுச்சி
மருந்து வயாகரா இன்னமும் இந்தியாவிற்கு வந்து சேர வில்லை. இதற்கு பதிலாக அல்சிகரா,
கவர்ட்டா என ஏராளமான இந்திய மாற்று வயாகரா மருந்துகள் நாட்டில் விற்பனை செய்யப்பட்டு
வருகிறது. ஆனால் இந்த வயாகரா மருந்துகளுக்கு இந்திய ஆண்களிடம் போதுமான வரவேற்பு
கிடைக்கவில்லை. இதனால் இவ்வகை மருந்துகளின் விற்பனை வீழ்ச்சியடைந்து, பல மருந்து
நிறுவனங்கள் தங்கள் நிறுவன உற்பத்தியை நிறுத்திகொண்டுள்ளன. </p><p>
</p><p>
ஒழுக்கத்திற்கு முதலிடமளிக்கும் இளைஞர்கள் </p><p>
</p><p>
சிக்மகளூர், மே 5- </p><p>
</p><p>
கர்நாடக மாநிலம் சிக்மகளூர் மாவட்டத்தில் உள்ளது ரஞ்சினிகாலி கிராமம். இந்த
கிராமத்தில் 18 வயது முதல் 25 வயதுக்குட்பட்ட இளம் தொழிலாளர்கள் இணைந்து சுய உதவிக் குழு
ஒன்றை அமைத்துள்ளனர். இக்குழுவில் ஒழுக் கத்திற்கு மட்டுமே முதலி டம் கொடுக்கப்படுகிறது.
சமீபத்தில் இக்குழுவை சேர்ந்த இளைஞர் ஒருவர், ஒரு பெண்ணுடன் பெற் றோருக்கு
தெரியாமல் ஊரை விட்டு ஓடி விட்டார். இந்த செயலுக்காக அவர் அமைப்பிலிருந்து வௌியே
தள்ளப்பட்டுள்ளார். இது போன்று சாராயம் குடிக்கும் பழக்கம் மற்றும் கெட்ட நடத்தைக்கு
உடையவர்கள் இந்த குழுவில் உறுப்பினராக முடியாது. சமுதாயத்தில் ஒழுக்கமாக நடந்து, பிறருக்கு
உதவுவது என்ற கொள்கையில் இக்குழுவினர் உறுதியாக உள்ளனர். </p><p>
</p><p>
</p><p>
</p><p>
யானை மீதேறி இந்தியா சுற்றவுள்ள பார்வையற்ற பெண் </p><p>
</p><p>
திருச்சூர், மே 5- அயர்லாந்து நாட்டை சேர்ந்த பார்வையற்ற பெண் கரோலின். இவர் இந்திய
சுற்றுப்பயணமாக கேரளாவிற்கு வருகை வந் துள்ளார். இங்கு அவர், கடந்த 3 மாத காலமாக யானை
சவாரி செய்ய பயிற்சி மேற்கொண்டு நன்கு தேர்ச்சி பெற்றுள் ளார். பார்வையற்றோர்
மற்றும் ஆசிய யானைகளின் நலனுக்காக கரோலின் இந்தியாவில், ரூ. 1.7 கோடி அளவிற்கு நிதி
திரட்ட முடிவு செய்துள்ளார். இதற்காக அவர் இந் தியா முழுவதும் ஆயிரம் கி.மீ தொலைவிற்கு
யானை மீதேறி சுற்றுப்பயணம் செய்ய இருக்கிறார். கேரளாவின் புகழ்பெற்ற பூரம்
பண்டிகையில், அலங்கரிக்கப்பட்ட யானை அணி வகுப்பில் அவர் ஆர்வமுடன் கலந்து கொண்ட
காட்சியை படத்தில் காணலாம். </p>

<p> </p>

<p>சிகரெட்டால் விளைந்த
இனக்கலவரம்</p>

<p>  </p>

<p>இலங்கை தலைநகர் கொழும்பிலிருந்து 80 கி.மீ தொலைவில் உள்ளது மாவநேலா
கிராமம். இங்கு முஸ்லிம் வியாபாரி ஒருவருக்கும், சில சிங்கள இனத்தவருக்கும் இடையே,
சிகரெட் விலை தொடர்பாக வாக்குவாதம் ஏற்பட்டு மோதலில் முடிந்தது. இதில் முஸ்லிம்
வியாபாரியை சிங்களர்கள் நைய புடைத்து விட்டனர். இந்த சம்பவத்தின் விளைவாக, இரு
இனத்தாருக்குமிடையே கலவரம் மூண்டது. இதில் 2 பேர் கொல்லப்பட்டு, 20 பேர் படுகாய
மடைந்துள்ளனர். இந்த சம்பவத்தில் போலீசார் சிங்களருக்கு ஆதரவாக செயல்பட்டனர் என்ற
பாதிப்பு இலங்கை வாழ் முஸ்லிம் மத மக்கள் அனைவரிடமும் பெரும் தாக்கத்தை
ஏற்படுத்தியுள்ளது. </p>

<p>கண்ணாடி மேலாடையில் மெல்லிடையாள் </p>

<p>
 
<gap desc="illustration"></gap></p>

<p>சீனாவின் ஷாங்காய் நகரில் சர்வதேச பேஷன் திரு விழா நடைபெற்றது.
இதில் பெண்களுக்கான ஆடை அணி வகுப்பு ஒன்று இடம் பெற்றது. இந்த நவநாகரிக அணிவகுப் பில்
சீன அழகி ஒருவர், பூ டிசைன் போடப்பட்ட மேலாடையில் மேடையில் பூத்தார். அவர்
அணிந்திருந்த கண்ணாடி இழை போன்ற மெல்லிய மேலாடையில், கேட்வாக் நடையில் மெல்லிடையை
மேலும் கீழும் அசைத்து, தன் பெண்மையின் மென்மையை அழகி இலைமறை காயாக வௌிக்காட்டினார்.
அவரின் அழகை படத்தில் ரசிக்கலாம். </p>

<p>எவரெஸ்ட்டில் தபால், செல்போன் நிலையம் </p>

<p>உலகின் மிக உயரமான எவரெஸ்ட் சிகரம் மீது ஏறும் மலையேற்ற வீரர்கள் மற்றும்
சுற்றுலா பயணிகளின் வசதிக்காக சீனா, தபால்நிலையம், செல்போன் நிலையம், கல்ரோடு ஆகிய
வற்றை கடல் மட்டத்திலிருந்து 5200 அடி உயரத்தில் அமைக்கிறது. இதற்காக மொத்தம் 28 கோடி
ரூபாய் செலவிடப்பட உள்ளது. இதன் மூலம் வீரர்களின் மலையேற்ற பயணத்தின் போதே, தங்கள்
உற வினர்களோடு அவர்கள் கடிதம் மற்றும் மொபைல் போன் மூலம் எளிதாக தொடர்பு கொள்ள
முடியும். </p>

<p>தொழிலாளருக்காக போராடும் மாணவர்கள் </p>

<p>
 
<gap desc="illustration"></gap></p>

<p>இங்கிலாந்து நாட்டின் ஹார்வேர்டு பல்கலைக்கழக மாணவ- மாணவியர்,
பல்கலை. தொழிலாளர்களின் ஊதிய உயர்வுக்காக ஒரு பெரும் போராட்டத்தை நடத்துகின்றனர்.
தொழிலாளர்களின் ஊதியத்தை உயர்த்தும் வரை வீட்டிற்கு செல்ல மாட்டோம் என அவர்கள்,
கடந்த 2 வாரமாக பல்கலையின் கலையரங்கம் ஒன்றில் தங்கி உள்ளிருப்பு போராட்டம்
செய்கின்றனர். படத்தில் திறந்த வௌி ஜன்னல் ஒன்றில் தலைகாட்டி ஒரு மாணவ ஜோடி
எதிர்ப்பு குரல் கொடுப்பதை காணலாம். </p>

<p>நான் பொய் பேசுவேன் : முஷாரப் பேட்டி </p>

<p>பாகிஸ்தான் சர்வாதிகாரி முஷாரப் துபாய் நிருபர்களிடம் மனம் திறந்து
பேட்டியளித்தார். அதில் அவர் நான் நாட்டின் நலன் கருதி பலமுறை பொய்
சொல்லியிருக்கிறேன். மேற்கத்திய இசையில் எனக்கு விருப்பம் கிடையாது. அதே போன்று புதிய
இந்தி பாடல்களும் பிடிக்கவில்லை. கஜல் பாடல்களையும், பழைய இந்தி பாடல்களையும் அதிகம்
விரும்புவேன். பொதுவாக எனக்கு எது விருப்பமோ அதன்படி தான் நான் நடப்பேன் என்றார்.
மேலும் அவர் கூறுகையில், ஆபத்தான நேரங்களில் சுயபாதுகாப்பு என்பது கோழைத்தனம். இந்த
இயற்கை உணர்வை தவிர்த்து வீரத்தோடு செயல்பட வேண்டும் என தெரிவித்தார். </p><p>
  </p><p>
  </p>

<p>மிஸ் யூனிவர்ஸ் நீச்சல் உடை போட்டி </p>

<p>போர்டோ ரிகோ நாட்டில் 2001-ம் ஆண்டிற்கான மிஸ் யூனிவர்ஸ் உலக அழகி
தேர்வு நடந்து வருவது அறிந்ததே. இம் மாதம் 11-ந்தேதி நடைபெறும் இறுதி போட்டியில் மிஸ்
யூனிவர்ஸ் அழகி அதிகாரபூர்வ மாக அறிவிக்கப்பட உள்ளார். இதன் ஒரு அம்சமாக நீச்சல்
உடை போட்டி ரியோ மார் கடற்கரையில் நடத்தப்பட்டது. போட்டியில் கலந்து கொண்டுள்ள 77
நாட்டு அழகிகளும் உள்ளாடையில் தங்கள் உடல் அழகை வௌிகாட்டினர். இதில் இந்திய அழகி
செலினா ஜெட்லி, மெல்லிய துணிதிரை மறைவில் தனது பளிங்கு மேனியை நடுவர்களுக்கு காட்டி
கவர்ச்சி விருந்தளித்தார். இளமை ததும்பும் அவரின் மேனியழகை படத்தில் காணலாம்.</p>

<p> </p>






</body></text></cesDoc>