<cesDoc id="tam-w-dinakaran-news-02-12-10" lang="tam">
<cesHeader type="text">
<fileDesc>
<titleStmt>
<h.title>tam-w-dinakaran-news-02-12-10.txt</h.title>
<respStmt>
<respType>Electronic file created by</respType>
<respName>Department of Linguistics, Lancaster University</respName>
<respType>text collected by</respType>
<respName>Paul Baker and Celia Worth</respName>
<respType>transferred into Unicode by</respType>
<respName>"Unicodify" software by Andrew Hardie</respName>
</respStmt>
</titleStmt>
<publicationStmt>
<distributor>UCREL</distributor>
<pubAddress>Department of Linguistics, Lancaster University, Lancaster, LA1 4YT, UK</pubAddress>
<availability region="WORLD"></availability>
<pubDate>03-08-24</pubDate>
</publicationStmt>
<sourceDesc>
<biblStruct>
<monogr>
<h.title>"Dinakaran" internet news (www.dinakaran.com), news stories collected on 02-12-10</h.title>
<h.author>Dinakaran</h.author>
<imprint>
<pubPlace>Tamil Nadu, India</pubPlace>
<publisher>Dinakaran</publisher>
<pubDate>02-12-10</pubDate>
</imprint>
</monogr>
</biblStruct>
</sourceDesc>
</fileDesc>
<encodingDesc>
<projectDesc>Text collected for use in the EMILLE project.</projectDesc>
<samplingDesc>Simple written text only has been transcribed. Diagrams, pictures and tables have been omitted and their place marked with a gap element.
</samplingDesc>
<editorialDecl>
<conformance level="1"></conformance>
</editorialDecl>
</encodingDesc>
<profileDesc>
<creation>
<date>03-08-24</date>
</creation>
<langUsage>Tamil</langUsage>
<wsdUsage>
<writingSystem id="ISO/IEC 10646">Universal Multiple-Octet Coded Character Set (UCS).</writingSystem>
</wsdUsage>
<textClass>
<channel mode="w">print</channel>
<constitution type="composite"></constitution>
<domain type="public"></domain>
<factuality type="fact"></factuality>
</textClass>
<translations></translations>
</profileDesc>
<revisionDesc></revisionDesc>
</cesHeader>

<text>
<body>




<p>இறுதி சடங்கில் முதல்வர்
கிருஷ்ணா பங்கேற்க வில்லை: அரசு மரியாதை இன்றி நாகப்பா உடல் அடக்கம் ஆதரவாளர்கள்
பெரும் கலவரம் அஞ்சலி செலுத்த வந்த மந்திரிகளை அறையில் பூட்டி சிறை வைத்தனர்
பஸ்-வேன் தீவைப்பு- துப்பாக்கி சூடு</p>

<p> </p>

<p>
 
 
  
  
  
  
  
  
  
  
  
  
  
  
 
 
 

 
<gap desc="illustration"></gap></p>

<p>நாகப்பாவின் உடல் பிரேத
பரிசோதனைக்காக எடுத்துச்செல்லப்பட்டபோது எடுத்தபடம். </p>

<p> </p>

<p>பெங்களூர், டிச. 10- நாகப்பா இறுதி சடங்கில் அரசு சார்பில் யாரும்
கலந்து கொள்ளக்கூடாது என்று அவருடைய ஆதரவாளர்கள் எதிர்ப்பு தெரிவித்தனர். இதனால்
முதல்வர் உள்பட யாரும் வரவில்லை. அஞ்சலி செலுத்த வந்த மந்திரிகள் ஒரு அறையில்
வைத்து பூட்டப்பட்டனர். அரசு மரியாதை இன்றி நாகப்பா உடல் அடக்கம் நடந்தது. பல
இடங்களில் பஸ், வேன் எரிப்பு, துப்பாக்கி சூடு சம்பவங்கள் நடந்தன. </p><p>
</p><p>
சந்தன வீரப்பனால் கடத்தி செல்லப்பட்ட கர்நாடக முன்னாள் அமைச்சர் நாகப்பா சுட்டுக்
கொலை செய்யப்பட்டார் அல்லவா? உடல் நடுகாட்டில் கிடந்தது.கடந்த
ஞாயிற்றுக்கிழமை அவர் உடலை அதிரடிப்படையினர் கைப்பற்றினர். </p><p>
</p><p>
நேற்று மதியம் சாம்ராஜ்்நகர் மாவட்டத்தில் உள்ள ராமாபுரா மருத்துவமனையில் பிரதே
பரிசோதனை நடந்தது. அதையடுத்து நாகப்பா உடல் உறவினர்களிடம் ஒப்படைக்கபபட்டது. </p><p>
</p><p>
பஸ்-வேன் எரிப்பு </p><p>
</p><p>
.முன்னதாக நேற்று முன்தினம்,நாகப்பா இறந்த செய்தி பரவியதும் நாகப்பா ஆதரவாளர்கள்
சொந்த கிராமமான காமகரேயில் திரண்டனர். ஆத்திரம் அடைந்த அவர்கள் வன்முறையில்
ஈடுபட்டனர். 3 பஸ்களுக்கு தீ வைத்தனர். 2 வேன்களும் எரிக்கப்பட்டன.தமிழகத்தில்
இருந்து சென்ற லாரிகள் மீது கற்களை வீசினர். </p><p>
</p><p>
அங்குள்ள போலீஸ் நிலையம்்,துணை பதிவாளர் அலுவலகம், கடைகள் மீதும் கற்களை வீசினர்.
போலீஸ் நிலையம் முன் நிறுத்தி வைக்கப்பட்டு இருந்த ஜீப் எரிக்கப்பட்டது. </p><p>
</p><p>
துப்பாக்கி சூடு </p><p>
</p><p>
கலவரம் கட்டுக்கடங்காமல் போகவே போலீசார் தடியடி நடத்தினர். </p><p>
</p><p>
நிலைமை மேலும் மோசமானதால் வன்முறை கும்பலை கலைக்க போலீசார் பல ரவுண்டு துப்பாக்கி்
சூடு நடத்தினர். கூட்டத்தினர் கலைந்து ஓடினர். </p><p>
</p><p>
துப்பாக்கி சூட்டில் ஒருவர் மட்டும் காயம் அடைந்ததாக போலீசார் கூறினர் </p><p>
</p><p>
எம்.எல்.ஏக்கள் ஓட்டம் </p><p>
</p><p>
நாகப்பா வீடு முன் காவலுக்கு நிறுத்தப்பட்டு இருந்த 2 போலீசாரை உயிரோடு கொளுத்த
முயன்றனர். அவர்கள் நாகப்பா வீட்டுக்குள் ஓடிஒளிந்து தப்பினர். போலீஸ் தடியடியிலும் கலவரத்திலும்
சிக்கிக் ்கொண்ட எம்.எல்.ஏக்கள் மகாதேவ் பிரசாத், ஏ.ஆர். கிருஷ்ண மூர்த்்தி
ஆகியோர் ஓட்டம் பிடித்து அங்குள்ள ஒரு மருத்துவமனைக்குள் புகுந்து கொண்டனர். </p><p>
</p><p>
பொதுமக்கள் அஞ்சலி </p><p>
</p><p>
நேற்று (திங்கட்கிழமை) நாகப்பா உடல் அவரது பண்ணை வீட்டில் பொது மக்கள் அஞ்சலிக்கு
வைக்கப்பட்டது. ஏராளமான பொது மக்கள் திரண்டு அஞ்சலி செலுத்தினர். </p><p>
</p><p>
அனைத்துக் கட்சியினரும் சோகத்துடன் சென்று அஞ்கலி செலுத்தினர். </p><p>
</p><p>
மந்திரிகளை பூட்டினர் </p><p>
</p><p>
ஆனால் அரசியல் பிரமுகர்கள், போலீசார், மீடியாகாரர்கள் ஆகியோரை அஞ்சலி செலுத்த
நாகப்பா ஆதரவாளர்கள் அனுமதிக்கவில்லை. மத்திய மந்திரிகள் ஆனந்த குமார்,னிவாச
பிரசாத் மற்றும் மாநில மந்திரிகள் பாச்சே கவுடா, நாகே கவுடா, சிந்தியா,எம்.பி
பிரகாஷ் ஆகியோரை ஆர்ப்பாட்டக் காரர்கள் ஒரு வீட்டுக்குள் தள்ளி பூட்டினர். </p><p>
</p><p>
இதனால் அங்கு பெரும் பதட்டமும் குழப்பமும் நிலவியது. </p><p>
</p><p>
2-வது நாள் துப்பாக்கி சூடு </p><p>
</p><p>
நாகப்பா ஆதரவாளர்கள் தொடர்ந்து வன்முறை ஆர்ப்பாட்டத்தில் ஈடுபட்டனர். நிலைமை
கட்டுக்குள் அடங்காது போனது. உடல் அருகே போலீசார் வரக்கூடாது என்று ஆர்ப்பாட்டக்
காரர்கள் கூறினர் </p><p>
</p><p>
நிலைமையை சமாளிக்க போலீசார் பல ரவுண்டு சுட்டனர். </p><p>
</p><p>
அதன் பிறகு கூட்டத்தினர் கலைந்து சென்றனர். அனைத்துக் கட்சி தலைவர்்களும் அஞ்சலி
செலுத்தினர். </p><p>
</p><p>
உடல் அடக்கம் </p><p>
</p><p>
பிறகு நாகப்பா உடல் வீடு அருகே அடக்கம் செய்யப்பட்டது. அப்போது 20 ஆயிரம் பொதுமக்களும்
அனைத்துக் கட்சியினரும்் கூடி இருந்தனர். </p><p>
</p><p>
அரசு மரியாதை இல்லை </p><p>
</p><p>
நாகப்பாவை காப்பாற்ற முடியாத போலீசாரின் மரியாதை வேண்டாம் என்று குடும்பத்தினர்
நிராகரித்து விட்டனர். </p><p>
</p><p>
முன்னதாக முழு அரசு மரியாதை அளிக்கப்படும் என்று கர்நாடக அரசு அறிவித்து இருந்தது. </p><p>
</p><p>
கிருஷ்ணா வரவில்லை </p><p>
</p><p>
நாகப்பா உடல் அடக்கத்தில் கலந்துகொள்வேன் என்று முதலமைச்சர் கிருஷ்ணா அறிவித்து
இருந்தார். ஆனால் உளவு பிரிவு கொடுத்த தகவலை தொடர்ந்து பாது காப்பு கருதி அவர் இறுதி
சடங்கில் கலந்து கொள்ளவில்லை. </p><p>
</p><p>
பஸ்-லாரிகள் எரிப்பு </p><p>
</p><p>
நேற்று ( திங்கட்கிழமை) நாகப்பாவின் சொந்த மாவட்டமான சாமராஜ் நகர் மாவட்டம் முழுவதும்
பதட்டமாக இருந்தது. அதனால் போலீஸ்படை கவிக்கப்பட்டது. பல பஸ்-லாரி மற்றும் 3 போலீஸ்
ஜீப் உள்பட வாகனங்கள் கொளுத்தப்பட்டதாக போலீசார் கூறினர். </p><p>
</p><p>
தடைஉத்தரவு </p><p>
</p><p>
நாகப்பா ஆதரவாளர்கள் திரண்டு ரோடுகளில் அடைப்புகளை ஏற்படுத்தினர். அதனால் மாவட்டம்
முழுவதும் தடை உத்தரவு பிறப்பிக்கப்பட்டது. </p><p>
</p><p>
பதட்டமான பகுதிகளை கண்காணிக்கும்படி போலீசாருக்கு உத்தரவு பிறப்பிக்கப் பட்டு உள்ளது. </p><p>
</p><p>
ரெயில்கள் ரத்து </p><p>
</p><p>
நேற்று கர்நாடகத்தில் கல்லூரிகள்-பள்ளிகூடங்கள் மூடப்பட்டன. </p><p>
</p><p>
முன்எச்சரிக்கை நடவடிக்கையாக பெங்களூர்- மைசூர் இடையே ரெயில்கள் ரத்து செய்ய்ப்பட்டன
என்று தெற்கு ரெயில்வே அறிவித்தது. </p><p>
</p><p>
அமைதி: கர்நாடக கவர்னர்வேண்டுகோள் </p><p>
</p><p>
கர்நாடக கவர்னர் டி.என்.. சதூர்வேதி விடுத்துள்ள வேண்டுகோளில் கூறியிருப் பதாவது:- </p><p>
</p><p>
ஐக்கிய ஜனதாதளம் தலைவர் நாகப்பா மரணம் அடைந்த செய்தி அதிர்ச்சி அளிக்கிறது. குற்றம்
செய்தவர்களுக்கு தண்டனை கிடைக்க அரசு ஆவன செய்யும். நாகப்பாவை உயிருடன் மீட்க முயற்சி
நடந்தபோது இந்த துயர சம்பவம் நடந்து உள்ளது. </p><p>
</p><p>
இந்த நெருக்கடியான நேரத்தில் விஷமிகள் வன்முறை ்தூண்டக்கூடும். அமைதி காக்கும்படி கர்நாடக
மக்களை கேட்டுக் கொள்கிறேன் </p><p>
</p><p>
இவ்வாறு அவர் வேண்டு கோள் விடுத்து உள்ளார். </p><p>
</p><p>
பண்ணை வீடு அருகே பயங்கர கலவரம்- துப்பாக்கி சூடு: நாகப்பா உடலை நடுரோட்டில் விட்டுவிட்டு
போலீஸ் ஓட்டம் </p><p>
</p><p>
நாகப்பாவின் பண்ணை வீடு அருகே பயங்கர கலவரம் ஏற்பட்டது. கல்வீச்சில் எம்.எல்.ஏ. உள்பட
100 பேரின் மண்டை உடைந்தது. நாகப்பாவின் உடலுடன் போலீசார் வருவதற்கு பொதுமக்கள் கடும்
எதிர்ப்பு தெரிவித்தனர். இதனால் உடலை நடுரோட்டில் போட்டு விட்டு போலீசார் ஓட்டம்
பிடித்தனர். </p><p>
</p><p>
பிரேத பரிசோதனை </p><p>
</p><p>
படுகொலை செய்யப்பட்ட கர்நாடக முன்னாள் அமைச்சர் நாகப்பாவின் உடல் ராமபுரா அரசு
பப்ளிக் ஹெல்த் சென்டரில் பிரேத பரிசோதனை செய்யப்பட்டது. பின்னர் அங்கி ருந்து நேற்று
மதியம் ஒரு வாகனத்தில் நாகப்பா உடல் ஏற்றப் பட்டு, காமகரேவில் உள்ள அவரது பண்ணை
வீட்டுக்கு ஊர்வலமாக எடுத்து செல்லப்பட்டது. </p><p>
</p><p>
நாகப்பா உடல் இருந்த வாக னத்தில் அவரது மனைவி பரிமளா மற்றும் உறவினர்கள் இருந்தனர்.
1000 அதிரடிப் படையினர் மற்றும் கர்நாடக போலீசார் புடைசூழ வாகனம் சென்றது. </p><p>
</p><p>
கலவரம் </p><p>
</p><p>
பண்ணை வீடு அருகே ஊர்வலம் சென்றபோது பதட்டம் ஏற்பட்டது. அங்கு கூடி இருந்த ஆயிரக்கணக்கான
பொதுமக்கள் போலீஸ் மற்றும் அதிரடிப்படையை கண்டித்து கோஷம் போட்டனர். நாகப்பா உடலுடன்
போலீசார் வருவதற்கு அவர்கள் கடும் எதிர்ப்பு தெரிவித்தனர். போலீசும், அதிரடிப்படையும்
திரும்பி சென்றால்தான் வாகனத்தை அனுமதிப்போம் என முற்றுகையிட்டனர். </p><p>
</p><p>
அப்போது போலீசை நோக்கி சரமாரியாக கற்கள் வீசப்பட்டன. இதில் கிருஷ்ண மூர்த்தி
எம்.எல்.ஏ., பத்திரிகை நிருபர்கள் உள்பட 100 பேருக்கு மண்டை உடைந்து ரத்தம் வழிந்தது.
கல்வீச்சில் போலீஸ் வேனின் கண்ணாடி உடைந்தது. ஒரு ஜீப்புக்கு தீவைக்கப்பட்டது. </p><p>
</p><p>
துப்பாக்கி சூடு </p><p>
</p><p>
உடனே போலீசார் துப்பாக்கி சூடு நடத்தினார்கள். மேலும் பொதுமக்கள் மீது சரமாரி தடியடி
நடத்தினார்கள். இதில் மக்கள் கலைந்து சிதறி ஓடினர். பண்ணை வீடு அருகே போர்க்களம் போல
காட்சி அளித்தது. பொதுமக்களை போலீசார் விரட்டி விரட்டி அடித்தார்கள். </p><p>
</p><p>
நிலைமை மோசமாவதை கண்ட நாகப்பா உறவினர்கள் வாகனத்தில் இருந்து இறங்கி போலீசை
பார்த்து கையெடுத்து கும்பிட்டனர். தயவு செய்து இங்கிருந்து போய் விடுங்கள். நீங்கள்
போனால் தான் அமைதி ஏற்படும் என்று கூறினார்கள். </p><p>
</p><p>
திரும்பினர் </p><p>
</p><p>
இதை ஏற்று நாகப்பா உடலை நடுரோட்டில் அப்படியே விட்டுவிட்டு போலீசார் மற்றும்
அதிரடிப்படையினர் வாபஸ் பெற்றனர். அந்த இடத்தில் இருந்து முன்னேறாமல் அப்படியே
கொள்ளேகாலுக்கு திரும்பி சென்று விட்டனர். அதன்பிறகே ஓரளவு அமைதி ஏற்பட்டது. </p><p>
</p><p>
பின்னர் நாகப்பாவின் உடல் பண்ணை வீட்டில் பொது மக்கள் பார்வைக்கு வைக்கப் பட்டது. </p><p>
</p><p>
நாகப்பாவை மீட்க தமிழகம் அறவே ஒத்துழைக்கவில்லை மகாதேவசாமி கண்டனம் </p><p>
</p><p>
நாகப்பாவை மீட்க கொளத்தூர் மணி மற்றும் மகாதேவ சாமி ஆகியோரை தூது அனுப்பும்படி வீரப்பன்
கோரி இருந்தான். மகாதேவசாமி கொள்ளேகால் மாவட்ட ஐக்கிய ஜனதாதள பிரமுகர் ஆவார்.
நாகப்பா உடலுக்கு அஞ்சலி செலுத்த சென்ற மகாதேவசாமி நிருபர்களிடம் கூறியதாவது:- </p><p>
</p><p>
நாகப்பாவை மீட்கும் விஷயத்தில் இரு மாநில அரசுகளுமே தவறு செய்து விட்டன. ராஜ் குமாரை
மீட்கும்போது செயல்பட்டதை போல் இப்போது செயல்படவில்லை. தமிழகம் அறவே
ஒத்துழைக்கவில்லை. இதை வன்மையாக கண்டிக்கிறேன். இந்த அசம்பாவித சம்பவத்துக்கு தமிழக-
கர்நாடக அரசுகளே பொறுப்பாகும். </p><p>
</p><p>
இவ்வாறு கூறினார். </p><p>
</p><p>
ரோட்டின் இருபுறமும் திரண்டு பொதுமக்கள் கண்ணீர் அஞ்சலி </p><p>
</p><p>
பிரேதபரிசோதனைக்கு பின் நாகப்பா உடல் வாகனத்தில் பண்ணை வீட்டுக்கு கொண்டு
செல்லப்பட்டது. அப்போது ரோட்டில் இரு புறமும் சுமார் 1 கிலோமீட்டர் நீளத்துக்கு மக்கள்
திரண்டு நின்று கண்ணீர் அஞ்சலி செலுத்தினர். ஒவ்வொரு இடத் திலும் வாகனத்தை
நிறுத்தி நிறுத்தி கொண்டு சென்றனர். வழியெங்கும் கடைகள் அடைக்கப்பட்டிருந்தன. வீடுகளில்
கறுப்பு கொடி ஏற்றப்பட்டு இருந்தது. ஆங்காங்கே நாகப்பாவின் உருவ படத்தை வைத்து
பொதுமக்கள் மலர் தூவி அஞ்சலி செலுத்தி வரு கின்றனர். பண்ணை வீடு நோக்கி
சாரைசாரையாக மக்கள் செல்கிறார்கள். </p><p>
</p><p>
தமிழக லாரிகளுக்கு தீவைப்பு </p><p>
</p><p>
தமிழக எல்லைப்பகுதியான உடையார்பாளையத்தில் இருந்து சத்தியமங்கலம் நோக்கி வந்த ஒரு
லாரி நேற்று பகல் தீவைத்து கொளுத்தப்பட்டது. இதேபோல் உடையார்பாளையத்தில் 3 தமிழக
லாரிகள் தீவைத்து எரிக்கப்பட்டன. சாம்ராஜ்நகர், கொள்ளேகால், ராமபுரா, காமகரே,
உடையார்பாளையம், கொக்கனகரஹள்ளி ஆகிய இடங்களில் நேற்று கடைகள் அடைக்கப்பட்டு இருந்தன.
கொள்ளேகால் மாவட்டத்தில் 144 தடை உத்தரவு பிறப்பிக்கப்பட்டு உள்ளது. பொதுவாக
தமிழர்களுக்கு எதிராக பெரிய அளவில் கலவரம் இல்லை. போலீஸ் மீதுதான் பொதுமக்கள் கடும்
ஆத்திரத்துடன் காணப்பட்டனர். </p><p>
</p><p>
கொளத்தூர் மணி விடுதலை இல்லை </p><p>
</p><p>
நாகப்பாவை விடுவிப்பது தொடர்பாக பேச்சுவார்த்தை நடத்த கொளத்தூர் மணியை தூது அனுப்ப
வீரப்பன் நிபந்தனை விதித்தான். இதையடுத்து கொளத்தூர் மணியை விடுதலை செய்ய அவர் மீது
இருந்த 6 வழக்குகளில் நான்கு வழக்குகளில் அவருக்கு ஜாமீன் வழங்கப்பட்டது. இதற்கிடையில்
நேற்றுமுன்தினம் நாகப்பா பிணமாக கண்டெடுக்கப்பட்டார். இந்தசூழ்நிலையில் எஞ்சிய 2
வழக்குகள் மீதான ஜாமீன் மனு விசாரணை நேற்று மைசூர் கோர்ட்டில் நடைபெற்றது. இந்த மனுவை
விசாரித்த நீதிபதி முரளி, கொளத்தூர் மணிக்கு ஜாமீன் வழங்க மறுத்து அவரது மனுவை தள்ளுபடி
செய்தார். இதையடுத்து கொளத்தூர் மணி விடுதலையாவது பெரும் சிக்கலாகி உள்ளது. </p>

<p> </p>

<p> </p>

<p>கண்கள் - கைகள்
கட்டப்பட்டு இருந்தன: நாகப்பா மார்பில் துப்பாக்கி குண்டு பிரேத பரிசோதனையில் தெரிந்தது</p>

<p> </p>

<p>
 
<gap desc="illustration"></gap></p>

<p>நாகப்பா மார்பில் குண்டு
துளைத்த காயத்தை படத்தில் காணலாம். </p>

<p> </p>

<p>மைசூர், டிச.10- நாகப்பாவின் மார்பில் குண்டு துளைத்து இருந்தது
பிரேத பரிசோதனையில் தெரிய வந்தது. அவரது கைகளும், கண்களும் கட்டப்பட்டு இருந்தன. </p><p>
</p><p>
அழுகிய நிலையில் உடல் </p><p>
</p><p>
கர்நாடக முன்னாள் அமைச்சர் நாகப்பாவின் பிணம் கொள்ளேகால் அருகே செங்காடி
காட்டுப்பகுதியில் நேற்று முன்தினம் கண்டு எடுக்கப்பட்டது அல்லவா? மிகவும் அழுகிய
நிலையில் உடல் காணப்பட்டது. கைகள் இரண்டும் பின்பக்கமாக கட்டப் பட்டிருந்தன. கண்களும்
கட்டப்பட்டு இருந்தன. நாகப்பா உடல் கிடந்த இடத்தின் அருகே ஒரு ரேடியோவும் கிடந்தது என்று
கர்நாடக வட்டாரங்கள் தெரிவித்து உள்ளன. </p><p>
</p><p>
சுட்டுக் கொல்லப்பட்ட நாகப்பா உடலை அதிரடிப்படையினர் மீட்டு நேற்று முன்தினம் இரவே
சாம்ராஜ் நகர் மாவட்டத்திற்கு எடுத்துச் சென்றனர். </p><p>
</p><p>
இதற்கிடையே தமிழக அதிரடிப்படை தாக்கியதால்தானும், நாகப்பாவும் காயம் அடைந்ததாக
வீரப்பன் கேசட்டில் கூறியிருந்தான். இதை தமிழக அதிரடிப்படை மறுத்து உள்ளது. வீரப்பன் தான்
நாகப்பாவை கொன்று இருக்கிறான் என்று தமிழக முதல்வர் ஜெயலலிதா நேற்று முன்தினம்
வௌியிட்ட அறிக்கையில் கூறி இருந்தார். </p><p>
</p><p>
வீரப்பன் கேசட்டில் கூறி இருந்தபடி தமிழக அதிரடிப்படைக்கும், வீரப்பன் கும்பலுக்கும் இடையே
நடந்த துப்பாக்கி சண்டையில் குண்டு காயம் பட்டு பலியானாரா? உடல் நலக்குறைவால் இறந்தாரா?
என்பது பிரேத பரிசோதனைக்குப் பிறகே தெரியவரும் என்று கர்நாடக அரசு அறிவித்தது. </p><p>
</p><p>
மார்பில் குண்டு காயம் </p><p>
</p><p>
இந்த நிலையில் சாம்ராஜ் நகர் மாவட்டம் ராமபுரா ஆரம்ப சுகாதார நிலையத்தில் நாகப்பா
உடல் நேற்று காலை பிரேத பரிசோதனை செய்யப்பட்டது. இதற்காக மைசூரில் இருந்து 6 டாக்டர்கள்
வந்திருந் தனர். சுமார் ஒன்றரை மணி நேரம் பரிசோதனை நடந்தது. இதில் நாகப்பாவின்
மார்பில் குண்டு காயம் இருப்பதும், இருதயத்திற்கு அருகே ஒரு குண்டு துளைத்து இருப்பதும்
தெரியவந்ததாக தகவல்கள் கூறுகின்றன. பின்னர் அந்த குண்டு அகற்றப்பட்டது. பிணம் அழுகிய
நிலையில் இருப்பதை வைத்து 4-ந்தேதியே நாகப்பா கொல்லப்பட்டு இருக்கலாம் என்றும்
கூறப்படுகிறது. </p><p>
</p><p>
அந்த குண்டு எந்த வகையைச் சார்ந்தது என்பது ஆய்வுக்குப் பிறகு தெரியவரும். அப்போது அந்த
குண்டு அதிரடிப்படையினர் பயன் படுத்தியதா? வீரப்பன் கும்பல் பயன்படுத்தியதா? என்பது
கண்டுபிடிக்கப்பட்டு விடும் என்று தெரிகிறது. </p><p>
</p><p>
பிரேத பரிசோதனை முடிந்த பிறகு நாகப்பாவின் உடல் பலத்த பாதுகாப்புடன் அவரது சொந்த ஊரான
காமகரேவுக்கு எடுத்துச் செல்லப்பட்டது. </p><p>
</p><p>
சுட்டது யார்? </p><p>
</p><p>
இதற்கிடையே கர்நாடக உள்துறை அமைச்சர் மல்லி கார்ஜுன கார்கே பெங்களூரில் நிருபர்களிடம்
கூறியதாவது:- </p><p>
</p><p>
நாகப்பா உடலில் ஒரே ஒரு குண்டு மட்டும் இருப்பது பிரேத பரிசோதனை முதல் அறிக்கையில்
தெரியவந்துள்ளது. அவரது உடலில் பாய்ந்தது எந்த வகை குண்டு, அவரை சுட்டது யார் என்பது பற்றி
இப்போது சொல்லும் நிலையில் இல்லை. பிரேத பரிசோதனை முழு அறிக்கை வந்த பிறகே மற்ற
விசயங்கள் தெரியவரும். </p><p>
</p><p>
இவ்வாறு கூறினார். </p>

<p> </p>

<p> </p>

<p>வீரப்பனை பிடிக்க மத்திய அதிரடிப்படை</p>

<p> </p>

<p>
 
<gap desc="illustration"></gap></p>

<p>வீரப்பன் </p>

<p> </p>

<p>புதுடெல்லி, டிச.10- வீரப்பனை பிடிக்க மத்திய அதிரடிப்படை
போலீசார் வருகிறார்கள். </p><p>
</p><p>
கர்நாடக முதல்வர் கிருஷ்ணா குஜராத் தேர்தல் பிரசாரத்தை முடித்துக் கொண்டு நேற்று முன்தினம்
டெல்லி சென்ற போது தான் நாகப்பா கொல்லப்பட்ட தகவல் அவரிடம் தெரிவிக்கப்பட்டது. </p><p>
</p><p>
இதைத் தொடர்ந்து நேற்று காலை கிருஷ்ணா துணை பிரதமர் அத்வானியை சந்தித்து நாகப்பா
கொல்லப்பட்ட சம்பவம் குறித்தும், வீரப்பனை பிடிப்பது பற்றியும் ஆலோசனை செய்தார்.
அப்போது தமிழக, கர்நாடக அதிரடிப்படையுடன் மத்திய படையும் வீரப்பன் வேட்டையை
மேற்கொள்வது என்று முடிவு செய்யப்பட்டதாக தெரிகிறது. </p><p>
</p><p>
இதன் அடிப்படையில் மத்திய சிறப்பு அதிரடிப்படையினர் வீரப்பனை பிடிக்கும் நடவடிக்கையில்
பங்கேற்பார்கள் என்று தெரிகிறது. </p>

<p> </p>

<p> </p>

<p>கர்நாடகாவில் கலவரம்
எதிரொலி: குடும்பம் குடும்பமாக தமிழர்கள் சொந்த ஊர் திரும்புகிறார்கள்
மூட்டை-முடிச்சுகளுடன் பஸ்- ரெயில்களில் தர்மபுரி வந்திறங்கினர்</p>

<p> </p>

<p>தர்மபுரி,டிச.10- நாகப்பா படுகொலை செய்யப்பட்டதை தொடர்ந்து
கர்நாடகாவில் பதட்டம் நிலவு கிறது. இதனால் அங்குள்ள தமிழர்கள் மூட்டை-முடிச்சுகளுடன்
வௌியேறி தர்ம புரியில் குவிந்த வண்ணம் உள்ளனர். </p><p>
</p><p>
கர்நாடக தமிழர்கள் </p><p>
</p><p>
கர்நாடக மாநிலம் குண்டல் பேட்டை, பிரசாத்நகர், சாம்ராஜ்நகர், மைசூர், கோலார் தங்கவயல்
போன்ற பகுதிகளில் தர்மபுரி, பென்னாகரம், நல்லம்பள்ளி, மொரப்பூர், ஊத்தங்கரை
ஒன்றியங்களைச் சேர்ந்தவர்கள் உள்பட தமிழகத்தைச்சேர்ந்த ஏராளமானோர் தங்கியிருந்து
கூலிவேலை செய்து பிழைப்பு நடத்தி வருகிறார்கள். இவர்கள் அங்கு தங்களது
மனைவி-குழந்தையுடன் தங்கி இருக்கிறார்கள். </p><p>
</p><p>
பதட்டம் </p><p>
</p><p>
இந்நிலையில் சந்தன கடத்தல் வீரப்பனால் கடத்தி செல்லப்பட்ட நாகப்பா படு கொலை
செய்யப்பட்டதை தொடர்ந்து கர்நாடகாவில் பதட்டமான சூழ்நிலை நிலவு கிறது. ஆங்காங்கே
கலவரம் வெடித்தது. நாகப்பாவின் ஆதரவாளர்கள் பஸ்களையும், கடைகளையும் அடித்து உடைத்ததுடன்
தீ வைத்தும் கொளுத்தினார்கள். </p><p>
</p><p>
தர்மபுரிக்கு வருகை </p><p>
</p><p>
இதனால் அங்கு வசித்து வரும் தமிழர்கள் பெரும் பீதி அடைந்துள்ளனர். தாங்கள்
தாக்கப்படுவோமோ என்ற பயத்தில் இரவோடு, இரவாக மூட்டை-முடிச்சு, குழந்தை களுடன் அங்கிருந்து
வௌி யேறினர். அவர்கள் இரவில் வந்த ரெயில் மற்றும் கர்நாடக அரசின் பஸ்கள் மூலம்
ஓசூர், டெங்கனிக்கோட்டை ஆகிய பகுதிக்கு வந்து தர்மபுரியில் குவிந்த வண்ணம் உள்ளனர்.
எல்லைப்பகுதியில் வசித்து வருபவர் நடந்தே வந்து சேருகிறார்கள். </p><p>
</p><p>
ஓசூரில் நிறுத்தம் </p><p>
</p><p>
தமிழகத்தில் இருந்து இயக்கப்பட்ட பஸ்கள் அனைத்தும் நேற்று முன்தினம் நள்ளிரவில் ஓசூரில்
நிறுத்தப்பட்டது. டெங்கனிக்கோட்டையில் இருந்து மைசூர், ராம்நகர், கொள்ளேகால்
செல்லக்கூடிய பஸ்களும் தர்மபுரியில் இருந்து கோலார் தங்கவயல், மாலூர் செல்லக்கூடிய
அனைத்து பஸ்களும் வேப்பனப்பள்ளி அருகே உள்ள தீர்த்தம் பகுதியில் நிறுத்தப்பட்டது. </p><p>
</p><p>
இதனால் பெங்களூருக்கு காய்கறி கொண்டு செல்லும் வியாபாரிகளும், அங்கிருந்து பழம் எடுத்து
வருபவர்களும் அவதிக்குள்ளாகியுள்ளனர். ஏராளமானோர் வேலை யிழந்து உள்ளனர் என்பது
குறிப்பிடத்தக்கது. </p><p>
</p><p>
போலீஸ் குவிப்பு </p><p>
</p><p>
அஞ்செட்டி, தக்கட்டி, உரிகம், டெங்கனிக்கோட்டை, ஓசூர், அத்திப்பள்ளி போன்ற
இடங்களிலும் ஒகனேக்கல் பகுதிகளிலும் கலவரம் ஏற்படாமலிருக்க ஏராளமான போலீசார்
பாதுகாப்பு பணியில் ஈடுபடுதப்பட்டுள்ளனர். </p>

<p> </p>

<p> </p>

<p>தமிழக-கர்நாடக
வாகனங்களுக்கு அனுமதி இல்லை: கக்கனல்லா சோதனை சாவடியில் அதிரடி போலீஸ் குவிப்பு</p>

<p> </p>

<p>
 
<gap desc="illustration"></gap></p>

<p>போலீஸ் ஜீப்புக்கு
தீவைத்து விட்டு ஓடும் கும்பல். </p>

<p> </p>

<p>ஊட்டி, டிச. 10- கர்நாடக முன்னாள் அமைச்சர் நாகப்பா கொலை
எதிரொலியாக கக்கனல்லா செக்போஸ் டில் போலீஸ் படை குவிக்கப்பட்டுள்ளது. தமிழ்நாடு மற்றும்
கர்நாடக வாகனங்கள் அனுமதிப்பது இல்லை. </p><p>
</p><p>
தயார் நிலை </p><p>
</p><p>
கர்நாடக முன்னாள் அமைச்சர் நாகப்பா கொலை செய்யப்பட்ட தகவல் வௌியானதும் நீலகிரி
மாவட்டத்தில் போலீஸ் பாதுகாப்பு தீவிரம்படுத்தப்பட்டது. </p><p>
</p><p>
ஊட்டி, குன்னூர், நடுவட்டம், சோலூர், மசினகுடி, கூடலூர், சேரம்பாடி உள்பட பல்வேறு
பகுதிகளில் மொத்தம் 71 இடங்களில் போலீஸ் ரோந்து போடப்பட்டுள்ளது. ஊட்டி, மசினகுடி,
கூடலூர் ஆகிய இடங்களில் 4 அதிரடி போலீஸ் பிரிவு தயார் நிலையில் வைக்கப்பட்டுள்ளது.
இரவும் பகலுமாக போலீசார் ரோந்து சுற்றி வருகிறார்கள். </p><p>
</p><p>
ஊட்டியிலிருந்து மைசூர், பெங்களூர், குண்டல்பேட்டை, ஹாசன் ஆகிய இடங்களுக்கு தமிழ்நாடு அரசு
போக்குவரத்துக்கழகத்தின் மொத்தம் 17 பேருந்துகள் இயக்கப்பட்டு வந்தது. இந்த அனைத்து
பேருந்துகளும் நேற்று முன்தினம் இரவே நிறுத்தப்பட்டு விட்டது. கர்நாடக மாநிலத்தில் இருந்த
அந்த அரசு பேருந்துகள் ஊட்டிக்கு வரவில்லை. ஊட்டி மத்திய பஸ் நிலைய டிப்போவில் கர்நாடக
அரசின் 2 பஸ்களும், மைசூல் டிப்போவின் தமிழ்நாடு அரசின் 3 பஸ்களும் பாதுகாப்பாக
நிறுத்தி வைக்கப்பட்டுள்ளது. </p><p>
</p><p>
துப்பாக்கியுடன் </p><p>
</p><p>
தமிழ்நாடு, கர்நாடக மாநிலங்களின் எல்லையான கக்கனல்லா (முதுமலை அருகே) செக்போஸ்ட்டில் 2
துணை சூப்பிரண்டுகள், 3 இன்ஸ்பெக்டர்கள் தலைமை யில் ஆயுதபடை, தமிழ்நாடு சிறப்பு காவல்
படையைச் சேர்ந்த 40 போலீசார் துப்பாக் கியுடன் இரவும் பகலுமாக பாதுகாப்பு ஏற்பாடுகளை
கவனித்து வருகிறார்கள். தமிழ்நாட்டிலிருந்து கர்நாடக எல்லைக் குள்ளும், கர்நாடகத்திலிருந்து
தமிழ்நாட்டு எல்லைக்குள் எந்த வாகனமும் நுழைய அனுமதிக்கப்படுவதில்லை. </p><p>
</p><p>
நீலகிரியில் இருந்து கர்நாடக மாநில பதிவுபெற்ற வாகனங்கள் அந்த மாநிலத்திற்கு செல்ல
அனுமதிக்கப்படுகிறது. ஆனால் அந்த வாகனங்களோ, கர்நாடக மாநிலத்தின் இதர வாகனங்களோ
தமிழ்நாட்டிற்குள் நுழைய அனுமதிப்பது இல்லை. கக்கனல்லாவில் உள்ள கர்நாடக மாநில அரசுக்கு
சொந்தமான செக்போஸ்ட் மற்றும் குண்டல்பேட்டை செக் போஸ்ட்களில் கர்நாடக மாநில
பதிவுபெற்ற வாகனங்களையும் அனுமதிப்பது இல்லை. </p><p>
</p><p>
நீலகிரி மாவட்ட போலீஸ் சூப்பிரண்டு கே.சங்கர் சென்னையில் கலெக்டர்கள் மாநாட்டில்
கலந்து கொண்டிருப்பதால் கோவை 4-வது போலீஸ் பட்டாலியன் போலீஸ் சூப்பிரண்டு சிவாண்டி
நீலகிரி மாவட்ட போலீஸ் சூப்பிரண்டு பொறுப்பில் நியமிக்கப்பட்டுள்ளார். இவர் நேற்று
கக்கனல்லா செக் போஸ்ட், கூடலூர் உள்பட பல்வேறு பகுதிகளில் போலீஸ் பாதுகாப்பு பணிகளை
பார்வையிட்டார். </p>

<p> </p>

<p> </p>

<p> </p>

<p>சமரச உடன்பாட்டுக்காக
இலங்கை அரசு-புலிகளுக்கு ஐ.நா.செயலர் பாராட்டு</p>

<p> </p>

<p>
 
<gap desc="illustration"></gap></p>

<p>கோபி அன்னான் </p>

<p> </p>

<p>நியூயார்க், டிச.10- இலங்கை அரசு-புலிகள் இடையே ஏற்பட்டுள்ள
உடன் பாட்டுக்கு ஐ.நா. பொதுச்செயலாளர் கோபி அன்னான் பாராட்டு தெரிவித்துள்ளார். </p><p>
</p><p>
கூட்டாட்சி முடிவு </p><p>
</p><p>
இலங்கை இனப்பிரச்சினை தீர்ப்பதற்காக இலங்கை அரசுக்கும், புலிகளுக்கும் இடையே சமரசப்
பேச்சு நடந்தது அல்லவா? நார்வே நாட்டில் நடந்த 3-வது சுற்றுப்பேச்சுவார்த்தையில்
முக்கிய உடன்பாடு ஏற்பட்டது. இனப்போரை முடிவுக்கு கொண்டுவர கூட்டாட்சி அமைப்பது என
அவர்கள் முடிவு செய்தனர். </p><p>
</p><p>
அன்னான் பாராட்டு </p><p>
</p><p>
இந்த உடன்பாட்டை ஐக்கிய நாடுகள் சபை பொதுச்செயலாளர் கோபி அன்னான் பாராட்டியுள்ளார்.
இந்த சமரச முடிவுக்காக இலங்கை அரசு, விடுதலைப்புலிகள் அமைப்பு, நார்வே நாடு ஆகிய
அனைத்துத் தரப்பினரையும் பாராட்டுகிறேன். இதன்மூலம் 30 ஆண்டுகாலமாக நடக்கும் உள்நாட்டுப்போர்
முடிவுக்கு வரும். </p><p>
</p><p>
இவ்வாறு அவர் கூறியுள்ளார். ஐ.நா. செய்தித் தொடர்பாளர் பிரட் எக்கார்ட் இந்த தகவலை
தெரிவித்துள்ளார். </p><p>
</p><p>
மீண்டும் பேச்சு </p><p>
</p><p>
இந்தநிலையில் இலங்கை அரசுக்கும், புலிகளுக்கும் இடையில் மீண்டும் அடுத்த சுற்றுப் பேச்சு
நடக்க இருப்பதாக இலங்கை சட்டத்துறை மந்திரி ஜி.எல்.பெரிஸ் கூறியுள்ளார். கூட்டாட்சியை
எப்படி ஏற்படுத்துவது? எந்த அளவுக்கு அதிகாரத்தை பகிர்ந்து கொள்வது? மனித உரிமை
விவகாரம் போன்றவை குறித்து அடுத்த கட்ட பேச்சுவார்த்தையில் ஆராயப்படும் என்று அவர்
கூறியிருக்கிறார். </p>

<p> </p>

<p> </p>

<p>எண்ணெய் நிறுவனங்களை
தனியார் மயமாக்குவதா? மக்களவையில் எதிர்க்கட்சிகள் கண்டனம்-வௌிநடப்பு</p>

<p> </p>

<p>புதுடெல்லி, டிச.10- பொதுத்துறை எண்ணெய் நிறுவனங்களை தனியார்மய
மாக்கும் அரசின் முடிவை கண்டித்து மக்களவையில் எதிர்க்கட்சிகள் நேற்று வௌிநடப்பு
செய்தன. </p><p>
</p><p>
தனியார் மயம் </p><p>
</p><p>
மக்களவையில் நேற்று மத்திய பங்குவிலக்கீட்டு மந்திரி அருண்ஷோரி பேசினார். அவர்
கூறியதாவது:- </p><p>
</p><p>
இந்துஸ்தான் பெட்ரோலியக்கழகம் (எச்.பி.சி.எல்.), பாரத் பெட்ரோலியம்
(பி.பி.சில்.எல்.) நிறுவன பங்குகள் விரைவில் தனியாருக்கு விற்கப்பட உள்ளன. மத்திய அரசு
இதற்கான முடிவை எடுத்துவிட்டது. 2 எண்ணெய் சுத்திகரிப்பு நிறு வன விற்பனைக்கு கால வரையறை
எதுவும் நிர்ணயிக்கப்பட வில்லை. </p><p>
</p><p>
வேலைவாய்ப்பு </p><p>
</p><p>
இந்த பொதுத்துறை நிறுவன பங்குகள் அந்த நிறுவன </p><p>
</p><p>
ஊழியர்களுக்கு சலுகை விலையில் விற்கப்படும். நிறுவன விற்பனை மூலம் திரட்டப் படும் பணம்
வேலைவாய்ப்புகளை ஏற்படுத்தப் பயன்படும். </p><p>
</p><p>
இவ்வாறு அவர் பேசினார். </p><p>
</p><p>
கண்டனம் </p><p>
</p><p>
பொதுத்துறை எண்ணெய் நிறுவனங்களை தனியாருக்கு விற்கும் முடிவுக்கு எதிர்க்கட்சியினர்
கண்டனம் தெரிவித்தனர். இதுபோன்ற முக்கிய விஷயங்களை பாராளுமன்றத்தில் விவாதிக்காமல்
அரசு முடிவு எடுக்கக்கூடாது என்று அவர்கள் கூறினர். ஆளும் கூட்டணியில் உள்ள சிவசேனை, சமதா
கட்சிகள் இதுகுறித்து விரிவான விவாதம் நடத்த வேண்டும் என்று வலியுறுத்தினார்கள். </p><p>
</p><p>
சபாநாயகர் இருக்கையில் அப்போது துணை சபாநாயகர் பி.எம்.சையத் இருந்தார். மந்திரி
அருண்ஷோரி இந்த அறிவிப்பை வௌியிட அவர் விசேஷ அனுமதி அளித்ததை எதிர்க்கட்சியினர்
கண்டித்தனர். இதுபோன்ற முக்கிய பிரச் சினைகளை இப்படி அவசர கோலமாக அறிவிப்பது சரியல்ல
என்று மார்க்சிய கம்யூ. உறுப்பினர் ரூப்சந்த்பால் எதிர்ப்பு தெரிவித்தார். பலர் எழுந்து
நின்று கூச்சல் போட்டார்கள். அவர்களை உட்காருமாறு சையத் விடுத்த கோரிக்கையை அவர்கள்
காதில்வாங்க வில்லை. </p><p>
</p><p>
வௌிநடப்பு </p><p>
</p><p>
அமளி நீடித்ததை அடுத்து எதிர்க்கட்சி உறுப்பினர்கள் பலர் அவையை விட்டு வௌி நடப்பு
செய்தனர். </p><p>
</p><p>
எண்ணெய் நிறுவனங்களை தனியார் மயமாக்கும் பிரச்சினை பற்றி மாநிலங் களவையில் மந்திரி
அருண் ஷோரி எழுத்துப்பூர்வமாக அறிவித்தார். டிசம்பர் 6-ந் தேதி பிரதமர் வாஜ்பாய்
தலைமை யில் மந்திரிகள் கூடி இதற்கான முடிவு எடுத்ததாக அவர் தெரிவித்தார். </p>

<p> </p>

<p> </p>

<p> </p>

<p> </p>

<p>வனவிலங்குகள் பாதுகாப்பு
மசோதாவில் வீரப்பன் விவகாரம்</p>

<p> </p>

<p>புதுடெல்லி,
டிச. 10- வனவிலங்குகளை பாதுகாக்கும் மசோதா நேற்று மாநி லங்களவையில் நிறைவேறிய போது,
வீரப்பன் பிரச்சினை எழுந்தது. </p><p>
</p><p>
வனவாழ்க்கை (பாதுகாப்பு) திருத்த மசோதா நேற்று மாநிலங்களவையில் ஜனதா தளத்தின்
ஆட்பேசணையுடன் நிறைவேறியது. இதில் கலந்து கொண்டு பேசிய ஜனதாதளம் உறுப்பினர் எச்.கே.
ஜாவரே கவுடா, வீரப்பனை பிடிக்காதவரை இந்த சட்டம் பயனற்றது என்றார். </p><p>
</p><p>
டி.ஆர்.பாலு பதில் </p><p>
</p><p>
இதற்கு பதிலளித்த வனத்துறை அமைச்சர் டி.ஆர்.பாலு, வீரப்பனை கைது செய்வது சட்டம் ஒழுங்கு
பிரச்சினை. எனவே இது மாநில விவகாரம். இந்த மசோதாவுக்கு பொருத்த மற்றது என்றார். </p><p>
</p><p>
பா.ஜ. உறுப்பினர் சங்க்பிரியா கவுதமும் டி.ஆர்.பாலுவின் பேச்சுக்கு ஆதரவு தெரி வித்தார்.
வனவிலங்குகளை வேட்டையாடுபவர்களுக்கு கடும் தண்டனையும், வனவிலங்குகளை பாதுகாக்கவும் வகை
செய்யும் இந்த சட்டத்தை பொதுவாக உறுப்பினர்கள் வரவேற்றார்கள். </p>

<p> </p>

<p>மும்பை தொடர் குண்டுவெடிப்பு
சம்பவம்: தாவூத் இப்ராகிம் தம்பி பிடிபட்டான் துபாயிலிருந்து இந்தியாவுக்கு கொண்டு
வருகிறார்கள்</p>

<p> </p>

<p>மும்பை, டிச.10- மும்பை தொடர் குண்டு வெடிப்பு குற்றவாளியான தாவூத்
இப்ராகிமின் தம்பி கைது செய்யப்பட்டுள்ளான். </p><p>
</p><p>
குற்றவாளி </p><p>
</p><p>
1993-ம் ஆண்டு மும்பையில் தொடர் குண்டு வெடிப்புகள் சம்பவம் நடந்தது. அதில் 300-க்கும்
மேற்பட்ட அப்பாவி மக்கள் பலியானார்கள். </p><p>
</p><p>
இந்த படுபாதக செயலுக்கு காரணமாக இருந்த முக்கிய குற்றவாளி தாவூத் இப்ராகிம் ஆவான். இவன்
மும்பையில் தாதா கும்பலுக்கு தலைவனாக விளங்கினான். அவனுடைய தம்பி அனிஸ் இப்ராகிம்
என்பவனும் மும்பை தொடர் குண்டுவெடிப்பில் சம்பந்தப்பட்டவனே. </p><p>
</p><p>
தம்பி கைது </p><p>
</p><p>
போலீஸ் தங்களை தேட தொடங்கியதும் இருவரும் வௌிநாட்டுக்கு தப்பி ஓடிவிட்டனர். தாவூத்
இப்ராகிம் இப்போது பாகிஸ்தானில் தலைமறைவாக இருக்கிறான். </p><p>
</p><p>
தம்பி அனிஸ் இப்ராகிம் துபாயில் தங்கி சதி வேலைகளை நடத்தி வந்தான். இந்நிலையில்
கடந்த வாரம் அனிஸ் இப்ராகிம் கைது செய்யப்பட்டான். </p><p>
</p><p>
துபாய்க்கு விரைவு </p><p>
</p><p>
அவனை சர்வதேச போலீஸ் கைது செய்தது. இதுபற்றி மும்பை போலீசுக்கு அவர்கள் தகவல்
தெரிவித்தனர். இதை தொடர்ந்து சி.பி.ஐ. உயர் அதிகாரிகளை கொண்ட குழு துபாய்க்கு
விரைந்துள்ளது. </p><p>
</p><p>
அத்வானி பேட்டி </p><p>
</p><p>
இதுகுறித்து துணை பிரதமர் அத்வானி நேற்று நிருபர்களிடம் கூறியதாவது:- </p><p>
</p><p>
துபாயில் பிடிபட்டுள்ள குற்றவாளி அனிஸ் இப்ராகிமை இந்தியா கொண்டு வர தேவையான நடவடிக்கை
எடுக்கப்பட்டிருக்கிறது. துபாய்- இந்தியா இடையே குற்ற வாளிகளை பரஸ்பரம் பரிமாற்றம் செய்து
கொள்ளும் ஒப்பந்தத்தின்படி அனிஸ் இப்ராகிம் இந்தியாவுக்கு கொண்டு வரப்படுவான். </p><p>
</p><p>
இவ்வாறு அவர் கூறினார். </p>

<p> </p>

<p> </p>

<p>ரூ.272 கோடியில் போலீசுக்கு
நவீன கருவிகள் கலெக்டர்கள் மாநாட்டில் ஜெயலலிதா பேச்சு</p>

<p> </p>

<p>
 
<gap desc="illustration"></gap></p>

<p>ஜெயலலிதா </p>

<p> </p>

<p>சென்னை,டிச.10- ரூ.272 கோடியில் போலீசுக்கு நவீன கருவிகள்
வாங்கப்படும் என்று கலெக்டர்கள் மாநாட்டில் ஜெயலலிதா கூறினார். </p><p>
</p><p>
3 நாள் மாநாடு </p><p>
</p><p>
சென்னை கோட்டை நாமக்கல் கவிஞர் மாளிகையில் 3 நாள் கலெக்டர்- போலீஸ்
அதிகாரிகள் மாநாடு நேற்று காலை தொடங்கியது. </p><p>
</p><p>
இந்த மாநாட்டுக்கு முதல்வர் ஜெயலலிதா வந்தபோது தமிழக அரசு தலைமை செய லாளர் லட்சுமி
பிரானேஷ், உள்துறை செயலாளர் முனீர் கோடா, போலீஸ் டி.ஜி.பி. நெயில்வால் ஆகியோர்
மலர் கொத்து அளித்து வரவேற்றனர். </p><p>
</p><p>
ஜெ. பேச்சு </p><p>
</p><p>
மாநாட்டை தொடங்கி வைத்து முதல்வர் ஜெயலலிதா பேசியதாவது:- </p><p>
</p><p>
தீவிரவாதத்தை ஒழித்துக் கட்டுவதில் இந்த அரசு முழு முனைப்புடன் செயல்பட்டு வருவதை நீங்கள்
அறிவீர்கள். </p><p>
</p><p>
பொடா சட்டத்தின் கீழ் தீவிரவாதத்தை ஒழிக்க உறுதியான நடவடிக்கை எடுத்து வருகிறோம்.
இதற்காக நான் கலெக்டர்கள், போலீஸ் அதிகாரிகளை பாராட்டுகிறேன். அதேபோல
தீவிரவாதிகள் ஊடுருவலை தடுக்கவும் கடுமையான நடவடிக்கை எடுத்து கண்காணித்து வருகிறோம்.
தர்மபுரியில் நடந்த சம்பவத்தை தொடர்ந்து தீவிரவாதிகளை ஒடுக்க உறுதியான நடவடிக்கைகளை
இந்த அரசு தொடர்ந்து எடுத்து வருகிறது. </p><p>
</p><p>
ரூ.272 கோடி </p><p>
</p><p>
காவல் துறையை நவீனப்படுத்த நாங்கள் நடவடிக்கை எடுத்து வருகிறோம். தீவிர வாதத்தை,
அடிப்படை வாதத்தை, பயங்கரவாதத்தை ஒழித்துக்கட்ட அவர்களுக்கு நவீன ஆயுதங்களும், நவீன
தகவல்தொடர்பு சாதனங்களும் வழங்கி வருகிறோம். இதற்காக 2 ஆண்டுகளில் ரூ.272 கோடி
ஒதுக்கீடு செய்யப்பட்டு உள்ளது. போலீஸ் துறையினரின் குறைகளை நான் 5 நாட்கள் நேரில்
கேட்டறிந்தேன். அவர்களின் குறைகளை போக்க நடவடிக்கைகள் எடுக்கப்பட்டு வருகின்றன. இது
போலீஸ் நிர் வாகத்தில் ஒரு மைல் கல்லாகும். </p><p>
</p><p>
கசப்பு மருந்து </p><p>
</p><p>
போலீசாரின் குறைகளை அவ்வப்போது போக்குமாறு உயர் அதிகாரிகளுக்கு உத்தர விடப்பட்டு
இருக்கிறது. நமது மாநிலத்தில் நிதிநிலையை சீர்செய்ய வேண்டியவர்களாக இருக்கிறோம்.
அதற்காக சில முக்கிய சீர்திருத்தங்களை மேற்கொண்டு வருகிறோம். இந்த சீர்திருத்தங்கள்
கசப்பு மருந்து என்றாலும் மாநிலத் தின் நலன் கருதி ஏற்க வேண்டியவர்களாக இருக்கிறோம்.
இதன் பயன் அனைத்து மக்களையும் சென்றடைய வேண்டும் என்பதே எங்கள் நோக்கமாகும். </p><p>
</p><p>
எய்ட்ஸ் </p><p>
</p><p>
குழந்தை நலம் காப்பதிலும், எய்ட்ஸ் விழிப்புணர்வு ஏற்படுத்துவதிலும் தீவிர கவனத்தை
செலுத்தி வருகிறோம். எய்ட்ஸ் நோயாளிகளை கணக்கெடுத்து, சிகிச்சை அளித்து வருகிறோம். </p><p>
</p><p>
நிர்வாக சீர்திருத்தத்தில் இந்த அரசு முழு அக்கறை காட்டுகிறது. எல்லா மட்டத் திலும்
லஞ்சத்தை அடியோடு ஒழிப்போம். அரசு நிர்வாகத்தில் தகவல் தொழில் நுட்பம் முழுமையாக
பயன்படுத்தப்படும். </p><p>
</p><p>
இவ்வாறு அவர் கூறினார். </p>

<p> </p>

<p> </p>

<p>பள்ளி கல்வி விதிகளை
புதுப்பிக்க குழு நியமனம் தமிழக அரசு அறிவிப்பு</p>

<p> </p>

<p>சென்னை, டிச. 10- தமிழ்நாடு பள்ளி கல்வி விதிகளை புதுப்பிக்க ஒரு
குழுவை தமிழக அரசு அமைத்துள்ளது. </p><p>
</p><p>
புதுப்பிக்கும் குழு </p><p>
</p><p>
இதுகுறித்து தமிழ்நாடு பள்ளி கல்வி இயக்குனர் சு.பரம சிவன் விடுத்துள்ள செய்திக் குறிப்பில்
கூறி இருப்பதாவது:- </p><p>
</p><p>
தமிழ்நாடு பள்ளி கல்வி விதிகள் தொகுப்பினை புதுப்பிப்பதற்காக ஓய்வு பெற்ற பள்ளி
கல்வி இயக்குனர் அ.முத்துகிருஷ்ணனை தலை வராக கொண்ட உயர் மட்டக் குழு ஒன்று தமிழக அரசால்
அமைக்கப்பட்டு உள்ளது. இந்த உயர்மட்ட குழுவில் கே.எஸ். சுப்பையா (ஓய்வு பெற்ற பள்ளி
கல்வி இணை இயக்குனர்), பி.சந்தான கிருஷ்ணன் (ஓய்வு பெற்ற பள்ளி கல்வி துணை இயக்குனர்),
ஏ.பாண்டியன் (ஓய்வு பெற்ற மாவட்ட கல்வி அலுவலர்), ஏ.இருதயநாதன் (ஓய்வு பெற்ற
மெட்ரிகுலேசன் பள்ளிகள் ஆய்வர்), பி.ராதா கிருஷ்ணன் (ஓய்வு பெற்ற பள்ளி கல்வி
இயக்குனரின் நேர்முக உதவி அலுவலர்) ஆகியோர் உறுப்பினர்களாக நியமிக்கப்பட்டு உள்ளனர். </p><p>
</p><p>
மேலும் பள்ளி கல்வி இணை இயக்குனர் (இடை நிலை கல்வி) உறுப்பினர்- செயலராகவும், பள்ளி
கல்வி இயக்குனர், தொடக்க கல்வி இயக்குனர், மெட்ரிகுலேசன் பள்ளி இயக்குனர், ஆசிரியர்
கல்வி ஆராய்ச்சி மற்றும் பயிற்சி இயக்குனர் ஆகியோர் பதவி வழி உறுப்பினர்களாகவும்
பணியாற்றுகிறார்கள். </p><p>
</p><p>
கருத்துக்களுக்கு வரவேற்பு </p><p>
</p><p>
உயர் மட்டக்குழு தற்போது உள்ள கல்வி விதிகளில் புதுப் பிப்பதற்குரிய தேவையான
திருத்தங்களை அரசுக்கு பரிந்துரை செய்யும். </p><p>
</p><p>
இது தொடர்பாக ஆலோசனை, கருத்துக்கள் தெரிவிக்க விரும்புவோர் </p><p>
</p><p>
தலைவர், </p><p>
</p><p>
தமிழ்நாடு கல்வி விதிகள் புதுப்பித்தல் குழு, </p><p>
</p><p>
பெற்றோர் ஆசிரியர் கழக கட்டிடம், </p><p>
</p><p>
கல்லூரி சாலை, </p><p>
</p><p>
சென்னை-60006 என்ற முகவரியில் தெரிவிக்கலாம். கருத்துக்கள் வரவேற்கப்படுகின்றன. </p><p>
</p><p>
இவ்வாறு அவர் கூறி உள்ளார். </p>

<p> </p>

<p> </p>

<p>நாகப்பா சுட்டுக்கொலை
எப்படி நடந்தது? சி.பி.ஐ. விசாரணை நடத்த வேண்டும் வக்கீல் துரைசாமி அறிக்கை</p>

<p> </p>

<p>சென்னை, டிச. 10- நாகப்பா சுட்டு கொல்லப் பட்டது எப்படி என்பதை
கண்டு பிடிக்க சி.பி.ஐ. விசா ரணை நடத்தப்பட வேண்டும் என்று வக்கீல் துரைசாமி வலியுறுத்தி
உள்ளார். </p><p>
</p><p>
கண்டனம் </p><p>
</p><p>
இதுகுறித்து வக்கீல் எஸ். துரைசாமி வௌியிட்டுள்ள அறிக்கை வருமாறு:- </p><p>
</p><p>
தமிழ்நாடு மற்றும் கர்நாடக அரசுகளின் வீம்பு போக்கினால் நாகப்பா
சாகடிக்கப்பட்டுள்ளார். 106 நாட்களாக உயிருடன் திரும்பி வர போராடி வந்த முன்னாள்
அமைச்சர் நாகப்பாவை தமிழக அதிரடி படை போலீசார் சுட்டு கொன்றது கண்டனத்திற்குரிய
தாகும். </p><p>
</p><p>
ஏற்கனவே மூன்று வழக்குகளில் ஜாமீன் பெற்றுள்ள கொளத்தூர் மணி திங்கள் கிழமையன்று மற்ற
இரண்டு வழக்குகளிலும் ஜாமீனில் விடுதலை பெற்று அடுத்த இருதினங்களில் காட்டுக்குள் சென்று
நாகப்பாவை மீட்டு வந்து விடுவார் என்று அவரது குடும்பத்தாரும், நண்பர்களும்
எதிர்பார்த்திருந்த வேளையில் கடந்த புதன் இரவு தமிழக அதிரடிப்படை போலீசார் அத்துமீறி
கர்நாடக எல்லைக்குள் சென்று வீரப்பன் மற்றும் கூட்டாளிகளை சுட்டுக் காயமடைய செய்தும்
நாகப்பாவை சுட்டுக்கொன்றும் உள்ளதாக வீரப்பன் அனுப்பிய ஆடியோ கேசட் தெரிவிக்கிறது. </p><p>
</p><p>
இழிவை தேடினார் </p><p>
</p><p>
எப்படியும் கொளத்தூர் மணி புதன் அன்று வந்துவிடுவார். அவரிடத்தில் நாகப்பாவை
ஒப்படைத்து விடலாம் என வீரப்பன் எதிர்பார்த்திருந்த வேளையில் தமிழகஅதிரடி போலீசார்
தமிழக எல்லையை மீறி காட்டுக்குள் போய் நாகப்பாவை சாகடித்து தமிழகத்திற்கு பெரும் இழிவை
தேடித்தந்துள்ளார்கள். </p><p>
</p><p>
ஆரம்பத்திலிருந்தே ஜெயலலிதாவின் அராஜகப் போக்கினால்தான் நாகப்பாவை மீட்கின்ற பணி
தாமதமானது கர்நாடக அரசு கேட்டுக்கொண்டும், நாகப்பாவின் மனைவி மற்றும் குடும்பத்தார்
கேட்டுக்கொண்டும், கர்நாடக அமைச்சரவை குழுவே ஜெயலலிதாவை நேரில் பார்த்து வேண்டுகோள்
விடுத்தும், அதிரடிப்படையை திரும்ப பெறமாட்டேன், தேடுதல் வேலை தொடரும் தூதுவராக யார்
செல்வதையும் தமிழக அரசு ஏற்காது. தமிழக எல்லைக்குள் கொளத்தூர்மணி நுழைந்தால் கைது
செய்வோம் என சொல்லியும் அதன்படியே நடவடிக்கையில் ஈடுபட்டதாலும் தமிழக போலீசார்
இன்று அநியாயமாக நாகப்பாவை சட்ட விரோதமாக சுட்டு விட்டனர். </p><p>
</p><p>
கையாலாகாத்தனம் </p><p>
</p><p>
கொளத்தூர் மணி தன்மீது கர்நாடக அரசு பொய் வழக்குகள் சுமத்தி சிறையில் அடைத்து
வைத்திருந்தாலும் அதை பொருட்படுத்தாமல் மனிதாபிமான உணர்வோடு நாகப்பா கடத்தப்பட்டவுடன்
நாகப்பாவை விட்டுவிடும்படி இரண்டுமுறை வானொலி மூலம் வேண்டுகோள் விடுத்தும், தான் ஜாமீனில்
விடுதலையானதும், நாகப்பாவை மீட்டு வர தான் உறுதியாக இருப்பதாகவும், அவர் கூறி இருந்தும்
கர்நாடக அரசின் கையாலாகாத் தனத்தாலும் வேண்டுமென்றே கொளத்தூர் மணியை ஜாமீனில்
விடுதலை செய்வதை தாமதப்படுத்தியதும் நாகப்பாவின் சாவுக்குஒரு காரணம் ஆகும். </p><p>
</p><p>
கொளத்தூர் மணியின் மீதுள்ள வழக்கில் எந்த ஆதாரமும் இல்லாத நிலையில், அவர் மீதான
வழக்குகள் எல்லாம் பொய் வழக்குகள் என்று தெரிந்திருந்தும் அவரது ஜாமீன் மனுக்கள் கர்நாடக
உயர்நீதிமன்றத்தில் செப்டம்பர் 25-ந்தேதியன்றே விசாரணைக்கு வந்த நேரத்தில் தங்கள்
அதிகாரிகளின் தவறுகளை மூடி மறைப்பதற்கு கடந்த மூன்று மாதங்களாக வழக்கை ஒத்திப்போட்டு
கொளத்தூர் மணியை ஜாமீனில் வௌியே வரவிடாமல் செய்தமையால் கொளத்தூர் மணி உரிய
காலத்திற்குள் காட்டுக்குள் சென்று நாகப்பாவை மீட்க இயலவில்லை. </p><p>
</p><p>
சி.பி.ஐ. விசாரணை </p><p>
</p><p>
கர்நாடக அரசின் மெத்தன போக்கும், தமிழகஅரசின் அராஜக போக்கும், நாகப்பா வின்
மரணத்திற்கு காரணமானது. நாகப்பாவின் சாவுக்கு உண்மையான காரணத்தை யும், அவரை
சுட்டுக்கொன்றவர்கள் மீது சட்டப்படி நடவடிக்கை எடுக்க மத்தியஅரசு சி.பி.ஐ. விசாரணைக்கு
உத்தரவிட வேண்டும். </p><p>
</p><p>
இவ்வாறு அவர் கூறி உள்ளார். </p>

<p> </p>

<p> </p>

<p>ரூ.10 லட்சம் செலவில்
ராஜீவ் காந்தி பற்றி டாக்குமெண்ட்ரி படம் பிரியங்கா தொடங்கி வைக்கிறார்</p>

<p> </p>

<p>
 
<gap desc="illustration"></gap></p>

<p>பிரியங்கா </p>

<p> </p>

<p>சென்னை,டிச.10-
ரூ.10 லட்சம் செலவில் ராஜீவ் காந்தி பற்றி டாக்குமெண்டரி சினிமா படப்பிடிப்பை
பிரியங்கா தொடங்கி இருக்கிறார். </p><p>
</p><p>
இளைஞர் காங்கிரஸ் அகில இந்திய முன்னாள் செயலாளர் ராஜசேகர் நேற்று சென்னையில்
நிருபர்களுக்கு பேட்டி அளித்தார். அப்போது அவர் கூறியதாவது:- </p><p>
</p><p>
முன்னேற்றம் </p><p>
</p><p>
ராஜீவ் காந்தி பிரதமராக இருந்த போது பல முக்கிய சாதனைகள் நிகழ்த்தி இருக்கிறார்.
கம்ப்யூட்டர்துறை, தகவல் தொழில் நுட்பதுறை, தொலை பேசிதுறை ஆகியதுறையில் தற் போது
ஏற்பட்டு உள்ள முன் னேற்றத்துக்கு ராஜீவ்தான் கார ணமாகஇருந்தார்.எனக்குள்பல கனவுகள்
இருக்கிறது.அதை நிறைவேற்ற முயற்சிசெய்வேன் என்று ஒருமுறை ராஜீவ் சொன்னார். ஆனால் அவரை
நாம் பாதியில் இழந்துவிட்டோம். </p><p>
</p><p>
இளைஞர் ஆட்சி </p><p>
</p><p>
இப்போது கூட ஒரு இளைய தலைவர் வந்தால்தான் நாடு முன்னேறும் என்றபொதுவான கருத்து நிலவுகிறது.
எனவே இளம் தலைமுறையினர் ராஜீவ் பற்றியும், அவரது கனவுபற்றி யும் தெரிந்து
கொள்ளவேண்டும். எனவே அவரது சாதனை, ஆட்சி முறை ஆகியவற்றை விளக்கி ராஜீவ் இளமையும்
அவரத கனவுகளும் என்ற பெயரில் டாக்குமெண்டரிபடம் எடுக்க முடிவு செய்து இருக்கி றோம்.
ஜனவரி மாதம் படபிடிப்பு தொடங்குகிறது. இந்த நிகழ்ச்சிக்கு வந்து படபிடிப்பை தொடங்கி
வைக்க வேண்டும் என ராகுல்காந்தி, பிரியங்கா ஆகியோரை அழைத்து இருக்கி றோம். </p><p>
</p><p>
இருமொழியில் தயாராகிறது </p><p>
</p><p>
தமிழ் மற்றும் ஆங்கிலம் ஆகிய இருமொழியில் தயாராகும் இந்த படத்தின் பட பிடிப்பு ஏப்ரல்
மாதத்துக்குள் முடிந்து விடும். இந்த டாக்குமெண்டரி படத்தை ராஜீவ் நினைவு நாளான
மே.25-ந்தேதி சோனியாகாந்தி டெல்லியில் வௌியிடுகிறார். படபிடிப்பு டெல்லி மற்றம்
தமிழகம்உள்பட பல்வேறு மாநிலங்களில் நடக் கும். படப்பிடிப்பு குழு இருபிரிவாக பிரிந்து
படப்பிடிப்பு பணியில் ஈடுபடும். இதில் சோனியா, பிரியங்கா மற்றும்
ராஜீவ்காந்தியுடன் தொடர்புள்ள சிலரின் பேட்டி இடம் பெறும். </p><p>
</p><p>
இவ்வாறு அவர் கூறினார். </p><p>
</p><p>
திரைக்கதை வௌியிடு </p><p>
</p><p>
ராஜீவ் பற்றிய டாக்குமெண்டரி படத்தின் திரைக்கதையை ஜே.எம். ஆரூண் வௌியிட்டார். அதை
படத்தின் இயக்குனர் </p>

<p> </p>

<p>மதமாற்ற தடைச்சட்டம்
வாபஸ் ஆகும் வரை போராட்டம் டாக்டர் கிருஷ்ணசாமி- திருமாவளவன் அறிவிப்பு</p>

<p> </p>

<p>
 
<gap desc="illustration"></gap></p>

<p>மதமாற்ற தடைச்சட்டத்தை
கண்டித்து தலித், சிறுபாண்மை இயக்கங்கள் சார்பில் கவர்னர் மாளிகை நோக்கி பேரணி
நடந்தது. அதில் டாக்டர் கிருஷ்ணசாமி, திருமாவளவன், பேராயர்கள் எஸ்றா சற்குணம்,
தேவசகாயம், த.மு.மு.க. தலைவர் ஹைதர்அலி உள்பட பலர் கலந்துகொண்டனர். </p>

<p> </p>

<p>சென்னை,டிச.10- தலித்துகளை கேவலமாகப் பேசிய சங்கராச்சாரியார்
மன்னிப்பு கேட்காவிடில் ஜனவரி 26-ந்தேதி சங்கர மடம் நோக்கி கண்டன பேரணி நடத்துவோம்
என்று டாக்டர் கிருஷ்ணசாமி அறிவித்தார். </p><p>
</p><p>
கண்டன பேரணி </p><p>
</p><p>
மதமாற்ற தடைச்சட்டத்தை எதிர்த்து புதிய தமிழகம், விடுதலை சிறுத்தைகள், கிறிஸ் தவ-
இஸ்லாமிய அமைப்புகள் சார்பில் கவர்னர் மாளிகையை நோக்கி நேற்று (திங்கள்) பிற்பகல்
1 மணிக்கு கண்டனப் பேரணி நடத்தப்பட்டது. இதற்கு டாக்டர் கிருஷ்ணசாமி தலைமை தாங்கினார்.
திருமாவளவன் முன்னிலை வகித்தார். பேராயர்கள் எஸ்றா சற்குணம், பேராயர் தேவசகாயம்,
பீட்டா ்பயஸ், கிருஷ்ண பறையனார், தாவூத்மியான்கான் உள்பட ஏராளமானோர் கலந்து
கொண்டனர். </p><p>
</p><p>
ஜெ.வுக்கு நன்றி </p><p>
</p><p>
பேரணி முடிவில் திருமாவளவன் பேசியதாவது:- </p><p>
</p><p>
இந்து மதம் பற்றிய சர்ச்சை தொடங்கிய இடத்திலேயே முடிந்திருக்கிறது. 50 ஆண்டு களுக்கு
முன்பு இருந்த எதிர்ப்பு என்பது பிராமணர் எதிர்ப்பு என்ற வடிவத்தில் தான் தந்தை
பெரியார் போராடினார். அம் பேத்கரும் இந்து மதத்துக்கு எதிராக போராடினார். அவர்களுக்கு
பிறகு இந்து மத எதிர்ப்பு நீர்த்து போய்விட்டது. </p><p>
</p><p>
ஜெயலலிதாவின் கட்டாய மதமாற்ற தடைச்சட்டத்தால் மீண்டும் இந்து மத எதிர்ப்பு சூடு
பிடித்திருக்கிறது. நமது போராட்டம் மதமாற்றதடை சட்டத்தை எதிர்த்தது மட்டு மல்ல. இன்று
தலித்துகள், கிறிஸ்தவர்கள், முஸ்லிம்கள் என அனைத்து தரப்பினரும் ஒன்று சேர்ந்து உள்ளனர்.
அதற்காக ஜெயலலிதாவுக்கு நன்றி சொல்ல வேண்டும். </p><p>
</p><p>
2 சத பிராமணர்கள் </p><p>
</p><p>
2 சதவீதமே உள்ள பிராமணர்கள் ஆட்சி,அதிகாரத்தை தக்க வைத்துக்கொள்ளவேஇந்த சட்டத்தை
கொண்டு வந்திருக்கிறார்கள். இதை கட்டாய மத மாற்ற தடைச்சட்டம் என்பதைவிட இந்து
மதபாதுகாப்புச்சட்டம் என்றுதான் சொல்லவேண்டும். </p><p>
</p><p>
இந்தியா மதசார்பற்ற நாடு. எனவே இந்து மதத்தை பாதுகாக்க கொண்டு வந்திருக்கும் இந்த
சட்டம் அரசியல் சாசனத்துக்கு எதிரானது. எனவே சிறுபான்மை மக்களும், தலித் மக்களும்
ஒருங்கிணைந்து இந்து எதிர்ப்பு போராட்டத்தை நடத்த வேண்டும். அதன் மூலம்தான் நமது
உரிமையை காப்பாற்றிக்கொள்ள முடியும். </p><p>
</p><p>
போராட்டம் தொடரும் </p><p>
</p><p>
இதில் டாக்டர் கிருஷ்ண சாமி பேசியதாவது:- </p><p>
</p><p>
இந்த போராட்டம் இன்றுடன் முடிந்துவிடவில்லை. இப்போது தான் தொடங்கி இருக் கிறது. இந்த
சட்டம் வந்த பிறகு நான் இந்து அல்ல என்றகுரல் எழுந்து உள்ளது.அதில்எனக்கு உடன்பாடு இல்லை.
நாம் மட்டும் இந்து அல்ல என்று ஏன் தனிமைபடுத்தி கொள்ள வேண்டும். தமிழகத்தில் உள்ள 2
சதம் பிராமணர்களை தவிர மற்ற சாதியை சேர்ந்த யாருமே இந்துகள் அல்ல என்பது தான் உண்மை.
எனவே நம்மை இந்துவாக மாற்ற முயற்சி நடக்கிறது. எனவே மதமாற்ற சட்டம் மூலம் நம்மை
கட்டிப்போட திட்டமிட்டு உள்ளனர். ஆகவே நமக்கு எதிராக உருவாகி இருக்கும் இந்த சட்டத்தை
வாபஸ் பெறும் வரை தொடர்ந்து போராட வேண்டும், போராடு வோம். </p><p>
</p><p>
இவ்வாறு அவர்கள் பேசினர். </p>

<p> </p>

<p> </p>

<p>ரிசர்வ் வங்கியில் ரூ.83
கோடி செலுத்தப்படும்: மெர்க்கன்டைல் வங்கி மீண்டும் நாடார் வசமாகிறது 8 ஆண்டு
போராட்டம் வெற்றி</p>

<p> </p>

<p>மும்பை, டிச. 10- தமிழ்நாடு மெர்க்கன்டைல் வங்கி மீண்டும்
விரைவில் நாடார் வசமாகிறது. 8 ஆண்டு போராட்டத்துக்கு வெற்றி கிடைத்து உள்ளது. </p><p>
</p><p>
வங்கி மீட்பு </p><p>
</p><p>
தூத்துக்குடியை தலைமையிடமாக கொண்ட தமிழ்நாடு மெர்க்கன்டைல் வங்கி, 1921-ம் ஆண்டு
நாடார் சமூகத்தினரால் நாடார் வங்கியாக நிறுவப்பட்டதாகும். இதன் பங்கு (ஷேர்)களை சிலர்
எஸ்ஸார் குரூப் ரூயா பிரதர்களுக்கு விற்றனர். எஸ்ஸார் அதை ஸ்டெர்லிங் குரூப் அதிபர்
சிவசங்கரனிடம் விற்றது. 63 சதவீத பங்குகளை கைப்பற்றிய சிவசங்கரனிடம் இருந்து மீண்டும்
நாடார் சமூகத்துக்கு வங்கியை மீட்க போராட்டம் பங்கு பரிவர்த்தனை பேச்சுகள் நடந்தன.
ஆனால் இறுதி செய்து தவணைகளாக தொகை தரப்பட்ட பிறகும் நாடார் மீட்பு குழுவுக்கு ஷர்
மாற்றிக் கொடுப்பதில் முட்டுக்கட்டை நீடித்தது. </p><p>
</p><p>
ரூ.83 கோடி </p><p>
</p><p>
இப்போது பங்கு மீட்பு கடைசி கட்டத்துக்கு வந்துவிட்ட தகவல் வௌியாகி உள்ளது. நாடார்
மீட்பு குழு ரூ.83 கோடியை செலுத்தி, பங்குகளை மீட்பு குழுவுக்கு மாற்ற ரிசர்வ் வங்கி
ஒப்புதல் கேட்டு ஓரிரு நாளில் விண்ணப்பிக்க இருப்பதாக அந்த தகவல் கூறுகிறது. மும்பை
ரிசர்வ் வங்கி தலைமையகத்தில் ரிசர்வ் வங்கி துணை கவர்னர் ஜி.பி.முனியப்பனை சந்தித்து,
வங்கி நிர்வாகம் இதுபற்றி கடந்த வாரம் ஆலோசித்து இருக்கிறது. </p><p>
</p><p>
8 ஆண்டு போராட்டம் </p><p>
</p><p>
பங்குகளை நாடார்கள் திரும்ப பெறுவது இறுதியாகி விட்டதால், 8 ஆண்டு சிக்கலுக்கு தீர்வு
ஏற்படுவதாக எக்கனாமிக் டைம்ஸ் வர்த்தக ஆங்கில நாளிதழ் தெரிவித்து உள்ளது. பங்கு
சிக்கலால் 6 ஆண்டாக மெர்க்கன்டைல் வங்கி நிர்வாகக்குழு கூட்டம் நடக்கவில்லை என்றும்
வருகிற 31-ந்தேதி நிர்வாகக்குழு கூட்டத்தை கண்டிப்பாக நடத்த ஐகோர்ட்டு உத்தரவிட்டு
இருக்கிறது என்றும் அந்த ஏடு தெரிவித்து இருக்கிறது. </p>

<p> </p>

<p> </p>

<p>அரசியல் செய்திகளை சரியான
முறையில் கொடுக்கின்றனர்: அனைத்து தரப்பினரும் விரும்பும் நடுநிலை நாளிதழ், தினகரன்
தொழில்மலர் பரிசளிப்பு விழாவில் முதல்வர் ரங்கசாமி புகழாரம்</p>

<p> </p>

<p>
 
<gap desc="illustration"></gap></p>

<p>புதுவை தினகரன்
அலுவலகத்தில் நடந்த தொழில் மலர் பரிசு போட்டி பரிசளிப்பு விழாவில் கட்டுரை
போட்டியில் முதல் பரிசு பெற்ற காரைக்காலை சேர்ந்த ஞானசேகரனுக்கு புதுவை முதல்வர்
என்.ரங்கசாமி பரிசு வழங்கியபோது எடுத்தபடம். அருகில் முன்னாள் எம்.எல்.ஏ. வை.ராமசாமி,
தொழிலதிபர்கள் முகமது நிஜாம், ஜி.கண்ணன், எம்.கந்தசாமி ஆகியோர் உள்ளனர். </p>

<p> </p>

<p> </p>

<p>புதுச்சேரி,டிச.10- அரசியல் செய்திகளை சரியான முறையில் கொடுத்து
அனைவரும் விரும்பும் நடுநிலை நாளிதழாக தினகரன் உள்ளது என்று புதுவை முதல்வர் ரங்கசாமி
கூறினார். </p><p>
</p><p>
பரிசளிப்பு விழா </p><p>
</p><p>
தினகரன் தொழில்மலர் பரிசுப்போட்டி பரிசளிப்பு விழா புதுவை தட்டாஞ்சாவடியில்
உள்ள தினகரன் அலுவல கத்தில் நேற்று மாலை நடந்தது. முதல்வர் ரங்கசாமி தொழில் மலர்
போட்டிகளில் வெற்றி பெற்றவர்களுக்கு பரிசு வழங்கி சிறப்புரையாற்றினார். அப்போது அவர்
கூறியதாவது:- </p><p>
</p><p>
முக்கிய பங்கு </p><p>
</p><p>
தினகரன் செய்தித்தாள் புதுவை மக்களுக்கு உடனடியாக செய்திகளை தருவதில் முக்கிய பங்கு
வகிக்கிறது. தினகரன், தமிழ்முரசு நிருபர்கள் காலை-மாலை செய்திகளை உடனடியாக சேகரித்து
மற்ற செய்திதாள் களுக்கு முன்பே செய்திகளை கொடுத்து சுறுசுறுப்பாக செயல்படுகின்றனர். நான்
டெல்லி சென்ற போதும்சரி, மாநிலத்தின் எந்த பகுதிக்கு சென்றாலும் பலவழிகளில்
தொடர்புகொண்டு செய்தி களை பெற்று பத்திரிகைக்கு கொடுக்கின்றனர். </p><p>
</p><p>
சரியான செய்தி </p><p>
</p><p>
சரியான செய்திகளை கொடுக்கும் தினகரன், தமிழ்முரசை பாராட்டுகிறேன். அரசியல்
செய்திமட்டுமல் லாமல் புதுவை முன்னேற்றத் துக்கு தேவையான கருத்துக்கள், புதுவை மாநில சமுதாய
மக்களின் முன்னேற்ற பாதைக் கான வழிமுறைகள், சமுதாய உணர்ச்சிகள் ஆகியவை சரியான முறையில்
பங்கு பெறுகிறது. </p><p>
</p><p>
நடுநிலை நாளேடு </p><p>
</p><p>
அனைவரும் விரும்பும் வகையில் தினகரன் நடுநிலை நாளேடாக உள்ளது. அரசியல் செய்திகளை
தாறுமாறாக தராமல் சரியான முறையில் கொடுப்பது மகிழ்ச்சி அளிக் கிறது. குறைகள் சுட்டிக்
காட்டப்படும்போது அதனை களைந்து மக்களுக்கு நன்மை செய்து மனநிம்மதியை தேடிக்கொள்கிறோம்.
</p><p>
</p><p>
கருத்துக்கள் </p><p>
</p><p>
தினகரன் வௌியிட்டுள்ள தொழில்மலர் தொழில் முன்னேற்றங்களை அறிந்து கொள்ளும் வகையில்
கட்டுரைகள் இடம்பெற்று உள்ளன. மாநில முன்னேற் றத்தை எடுத்துக்கூறி மேலும் முன்னேற தேவையான
கருத்துக்களை கோடிட்டு காட்டியுள்ளனர். புதுவையை முன்னேற்றத்துக்கு கொண்டு வர தொழில் மலர்
கட்டுரைகள் வாய்ப்பாக உள்ளது. கட்டுரை களுக்கு பரிசு வழங்கும் வணிக பெருமக்களை
பாராட்டுகிறேன். </p><p>
</p><p>
வருவாய் இழப்பு </p><p>
</p><p>
புதுவையின் பொருளாதா ரத்தை முன்னேற்றம் அடைய செய்வதில் அனைவருக்கும் பங்கு உண்டு. புதுவை
சிறிய மாநிலமாக இருந்தாலும் வருவாய், தனி மனித வருமானம், கல்வி, மருத்துவ வசதி
ஆகியவற்றில் முதலிடத்தில் இருக்கிறோம். சமச்சீர் வரியால் புதுவையில் வருவாய் இழப்பு
அதிகம். சிறிய மாநிலத்துக்கு இந்த வருவாய் இழப்பு அதிகமே. வணிக விழா நடத்தி பரிசுகள்
வழங்கி வியாபாரிகள் தங்களது வியாபாரத்தை முன் போலவே பெருக்கி கொள்கின்றனர். </p><p>
</p><p>
ஏற்றுமதிதொழிற்சாலைகள் </p><p>
</p><p>
புதுவைக்கு வருமானம் குறைந்துள்ள இந்நிலையில் மத்திய அரசிடம் நிதி ஒதுக்கித் தர
கேட்டுக்கொண்டுள்ளேன். துணைப்பிரதமர் அத்வானியிடம் 2முறை வலியுறுத்தி யுள்ளேன்.
சுங்கவரிஇல்லா துறைமுகமும், சிறப்பு பொருளாதார மண்டலமும் கொண்டுவர அத்வானி
ஒத்துக்கொண்டுள்ளார். இது நமது மாநிலத்துக்கு பெரிய வாய்ப்பு. இதனால் புதுவையில் ஏற்றுமதி
தொழிற்சாலைகள் வர வாய்ப்பு உள்ளது. இதன் மூலம் மீண்டும் வருவாயை உயர்த்தலாம். உள்துறை
அமைச்சருக்கு நன்றியை தெரிவித்துக் கொள்கிறேன். </p><p>
</p><p>
தொழில் தொடங்க </p><p>
</p><p>
தொழிலதிபர்கள் புதுவையில் தொழில்தொடங்க தேவையான வசதிகளை அரசு செய்து கொடுக்கும்.
இதன் மூலம் வருவாய் இழப்பு குறைய வாய்ப்பு இருக்கிறது. குடிநீர், தேவையான மின்சாரம்,
போக்குவரத்து வசதி செய்து கொடுத்துள்ளோம். எனவே தொழில்அதிபர்கள் புதுவையில் தொழில்
தொடங்க முன்வரவேண்டும். தினகரன் மேலும் வளர வாழ்த்துக்களை தெரிவித்துக்கொள்கிறேன். </p><p>
</p><p>
இவ்வாறு அவர் பேசினார். </p><p>
</p><p>
கலந்துகொண்டோர் </p><p>
</p><p>
விழாவில் புதுவை ஜூவல் பேலஸ் உரிமையாளர் ஜி.கண்ணன், சாரதாஸ் உரிமையாளர் சரவணன்,
பிலால் ஓட்டல் உரிமையாளர் முகமது நிஜாம், வி.எஸ்.டெக்ஸ் உரிமையாளர்
வேல்.சொ.இசைக்கலைவன், லலிதா எம்போரியம் எம்.கந்தசாமி, கடலூர் ஆனந்தா ஜூவல்லரி
ஆனந்த முதலியார், பண்ருட்டி முன்னாள் எம்.எல்.ஏ. டாக்டர் வை.ராமசாமி, புதுவை பேராசிரியர்
டாக்டர் மு.ராம தாஸ், புதுவை பல்கலைக்கழக மூத்த பொருளியல் பேராசிரி யர் கே.பாலமுருகன்,
பாரதி தாசன் மகளிர் கல்லூரி விரிவுரையாளர் கே.பால முருகன், தாகூர் கலைக்கல்லூரி
விரிவுரையாளர் டி.சிவக்குமார் உள்பட பலர் கலந்துகொண்டனர். </p>

<p> </p>

<p> </p>

<p>லட்சக்கணக்கான பக்தர்கள்
சரண கோஷம் முழங்க பம்பை திரிவேணி சங்கமத்தில் அய்யப்பனுக்கு ஆறாட்டு</p>

<p> </p>

<p>திருவனந்தபுரம், டிச. 10- லட்சக்கணக்கான பக்தர்களின்
சரணகோஷத்துடன் சபரிமலை அய்யப்பனின் ஆறாட்டு விழா பம்பை திரிவேணி சங்கமத்தில் நேற்று
நடந்தது. </p><p>
</p><p>
ஆறாட்டு விழா </p><p>
</p><p>
சபரிமலை மண்டலகால திருவிழா கொடியேறிய 10-வது நாளான நேற்று ஐயனின் ஆறாட்டு புண்ணிய
நதியாம் பம்பையில் பக்திபூர்வமாக நடந்தது. </p><p>
</p><p>
நேற்று முன்தினம் நடந்த பள்ளி வேட்டைக்கு பின்னர் அய்யனை கோவிலின் அருகில்
அமைக்கப்பட்ட தனி மண்டபத்தில் பள்ளி உறங்கினார். ஆறாட்டை முன்னிட்டு பள்ளி உறங்கிய
பகவானை நேற்று(திங்கள்) அதிகாலை 4 மணிக்கு பள்ளி உனர்த்தினர். தொடர்ந்து கனி காணுதல்
நிகழ்ச்சிகளும், அபிஷேகமும் நடத்திவிட்டு கோவில் நடை திறக்கப்பட்டது. </p><p>
</p><p>
நெய் அபிசேகம் </p><p>
</p><p>
அதிகாலை 4.30 மணி முதல் மூலவிக்ரகத்தில் நெய்யாபிஷேகம் நடந்தது. காலை 7.30 மணிக்கு
நெய்யாபிஷேகம் நிறைவடைந்தது. காலை 7.30 மணிக்கு பிறகு தரிசனம் நடத்த
அனுமதிக்கப்படாததால் அய்யனை தரிசிக்க நேற்று முன் தினம் நள்ளிரவு முதல் ஆயிரக் கணக்கான
பக்தர்கள் கியூவில் நின்றனர். </p><p>
</p><p>
நெய்யாபிஷேகம் முடிந்து நடை அடைத்த பின்னர்  கோவிலில் ஆறாட்டு பலியும், ஆறாட்டிற்கு
செல்வதற்கான பூஜைகளும் நடந்தன. </p><p>
</p><p>
குட்டி யானை ஸ்கந்தன் </p><p>
</p><p>
தொடர்ந்து ஹரிப்பாடு சுப்பிரமணிய சுவாமி கோவிலின் குட்டியானை ஸ்கந்தன் கொடிமரத்தை
சுற்றி பகவானைகும் பிட்டு வணங்கிவிட்டு, திடம் போற்றி வடக்கு நடை வழியாக பம்பைக்கு
புறப்பட்டது. ஸ்கந்தனுடன் அறநிலையத்துறையின் யானைகளான சஜயன், சஞ்சயன் ஆகியவையும்
ஆறாட்டுக்கடலை நோக்கி சென்றது. </p><p>
</p><p>
ஊர்வலம் </p><p>
</p><p>
அறநிலையத்துறை அதிகாரி கள், அய்யப்ப சேவா சங்க தொண்டர்கள், அய்யப்ப பக்தர்கள்
யானைகளின் பின்னே செல்ல முத்துக்குடைகள் அணி வகுக்க வாத்திய மேளங்கள் உச்சஸ்தாயில்
முழங்க, எங்கும் சரணகோஷத்துடன் பம்பை நதியை நோக்கி ஆறாட்டு ஊர்வலம் நடந்தது. </p><p>
</p><p>
காலை 11.30 மணிக்கு பம்பைக்கு சென்ற ஆறாட்டு விழா பயணம் ஆறாட்டு கடலில் நிறைவடைந்தது.
பின்னர் தந்திரி கண்டரூ, மோகனரூ, மேல்சாந்தி பெரிங்கமனை சங்கர நாராயணன் நம்பூதிரி
ஆகியோர் ஆறாட்டு பூஜைகள் நடத்தினர். தொடர்ந்து பம்பை நதிதீரத்தில் கூடியிருந்த
பல்லாயிரக்கணக்கான பக்தர்கள் எழுப்பிய சரண கோஷத்துடன் பகவான் பம்பை நதியில்
நீராடினார். </p><p>
</p><p>
அய்யனின் ஆறாட்டு முடிந்த பின்னர், பம்பை கணபதி கோவிலின் முன்னால் அடைக்கப்பட்டிருந்த
மண்டபத்தில் இறக்கி பிரதிஷ்டை செய்தனர். </p><p>
</p><p>
வரவேற்பு </p><p>
</p><p>
மாலை 3 மணிக்கு பம்பை கணபதி கோவிலின் முன்பிருந்து பகவான் சன்னிதானம் செல்ல
புறப்பட்டார். பம்பை முதல் சன்னிதானம் வரை வியாபாரிகள், பக்தர்கள் ஆகியோர் அளித்த
காணிக்கைகள், வரவேற்பு போன்றவற்றை பெற்றுக்கொண்டு இரவு 10.30 மணிக்கு சன்னிதானம்
சென் றடைந்தது. </p><p>
</p><p>
ஆறாட்டு விழா பவனி சன்னிதானத்தை அடைந்த பின்னர் 10 நாள் திருவிழாவிற்காக ஏற்றப்பட்ட
கொடி இறக்கப்பட்டது. </p><p>
</p><p>
பக்தர்கள் நெரிசல் </p><p>
</p><p>
இந்த வருட சபரிமலை சீசனில் கடந்த 2 நாள்களில் தான் பக்தர்களின் எண்ணிக்கை அதிகமாக
காணப்பட்டது. அதிக அளவில் கூடிய பக்தர்களின் நெரிசலை கட்டுப்படுத்த போலீசாரால் முடியாத
நிலை ஏற்பட்டது. இதனால் டுட்டி முடிந்து ஓய்வெடுத்துக்கொண்டிருந்த போலீசாரையும் கூட்டத்தை
கட்டுப்படுத்த அமர்த்தப்பட்ட னர். </p><p>
</p><p>
நேற்று நடந்த ஆறாட்டு விழாவை காணவும் 2, 3 நாள்களுக்கு முன்பே சபரிமலை வந்து
பல்லாயிரக்கணக்கான பக்தர்கள் காத்திருந்தனர். </p><p>
</p><p>
தமிழக பக்தர்கள் வேதனை </p><p>
</p><p>
சபரிமலை அருள்மிகு அய்யப்பன் கோவிலில் நேற்று ஆறாட்டு விழாவையொட்டி இந்தியாவின்
பல்வேறு மாநிலங்களை சேர்ந்த லட்சக்கணக்கான பக்தர்கள் கார், வேன், டிரக்கர்கள், ஆம்னி
பஸ்களில் வந்து குவிந்தனர். பக்தர்கள் வரும் தனியார் வாகனங்கள் நிலக்கல்லில் தான்
நிறுத்தவேண்டும் என்று திருவிதாங்கூர் தேவஸ்வம்போர்டு உத்தரவிட்டு அதன்படி நிலக்கல்லில் நிறுத்தப்
பட்டு அங்கிருந்து பக்தர்கள் பம்பை செல்ல கேரள அரசு போக்கு வரத்து கழகம் செயின் சர்வீஸ்
நடத்தி வருகிறது. </p><p>
</p><p>
ஆனால் நிலக்கல்லில் பணியில் இருக்கும் போலீசார் கேரளா ரெஜிஸ்டேஷன் உள்ள வாகனங்களை
பம்பை வரை அனுமதிக் கின்றனர். தமிழ்நாடு, கர்நாடகம், ஆந்திரா மாநில ரெஜிஸ்டேஷன்
வாகனங்களை நிலக்கல்லுடன் நிறுத்திவிடுகின்றனர். ஏன் இந்த பாரபட்சம் என்று தமிழக மற்றும்
கர்நாடக பக்தர்கள் வேதனை யடைந்தனர். </p><p>
</p><p>
சபரிமலையில் இன்று </p><p>
</p><p>
காலை </p><p>
</p><p>
4.00 மணி: நடை திறப்பு </p><p>
</p><p>
4.05 மணி: நிர்மால்ய தரிசனம் </p><p>
</p><p>
4.15 மணி: கணபதி ஹோமம் </p><p>
</p><p>
4.30 மணி: நெய் அபிஷேகம் </p><p>
</p><p>
7.30 மணி: உஷ பூஜை </p><p>
</p><p>
நண்பகல் </p><p>
</p><p>
12.30 மணி: உச்ச பூஜை </p><p>
</p><p>
மாலை </p><p>
</p><p>
6.30 மணி: தீபாராதனை </p><p>
</p><p>
இரவு </p><p>
</p><p>
7.00 மணி: புஷ்பாபிஷேகம் </p><p>
</p><p>
9.30 மணி: அத்தாழ பூஜை </p><p>
</p><p>
10 மணி : அரிவராசனம் பாடி </p><p>
</p><p>
நடை அடைப்பு. </p>

<p> </p>

<p> </p>

<p>தர்மபுரி மாவட்டத்தில்
கைது செய்யப்பட்ட நக்சலைட்டுகள் ஊத்தங்கரை கோர்ட்டில் ஆஜர் 23-ந்தேதி வரை காவல்
நீடிப்பு</p>

<p> </p>

<p>ஊத்தங்கரை,டிச.10- தர்மபுரி மாவட்டத்தில் கைது செய்யப்பட்ட
நக்சலைட்டு தீவிரவாதிகள் ஊத்தங்கரை கோர்ட்டில் ஆஜர்படுத்தப்்பட்டனர். நீதிபதி
23-ந்தேதி வரை காவல்நீடிப்பு வழங்கி உத்தரவிட்டார். </p><p>
</p><p>
துப்பாக்கி சண்டை </p><p>
</p><p>
கடந்தமாதம் 24-ந்தேதி தர்மபுரி மாவட்டம் ஊத்தங்கரை அருகே போலீசாருக்கும்
நக்சலைட்டுகளுக்குமிடையே நடந்த துப்பாக்கி சண்டையில் நக்சலைட்டு சிவா என்கிற
பார்த்தீபன் சுட்டுக்கொல்லப் பட்டான். தொடர்ந்து நடந்த தேடுதல்வேட்டையில் 5 பெண்கள்
உள்பட 25 நக்சலைட்டுகள் கைது செய்யப்பட்டனர். இவர்கள் அனைவரும் வேலூர்- சேலம்
சிறைகளில் அடைக்கப்பட்டனர். </p><p>
</p><p>
கியூ பிராஞ்சு </p><p>
</p><p>
இந்தநிலையில் நக்சலைட் டுக்கள் மீதான வழக்கு கியூ பிராஞ்ச் போலீசுக்கு மாற்றப்
பட்டது. அவர்களில் சேலம் சிறையில் இருந்த மார்ட்டின் என்கிற தமிழ்ச்செல்வன், முருகேசன்,
பிரபாகரன், பாலன், துரைசிங்கவேல் ஆகியோரை கியூபிரிவு போலீசார் தங்களது காவலில்
எடுத்து கல்லாவியில் வைத்து விசாரணை நடத்தி வந்தனர். </p><p>
</p><p>
கோர்ட்டில் ஆஜர் </p><p>
</p><p>
இதனையடுத்து கைது செய்யப்பட்ட நக்சலைட்டுகள் ஊத்தங்கரை குற்றவியல் நீதிமன்றத்தில் நேற்று
ஆஜர்படுத்தப்பட்டனர். அவர்களுக்கு நீதிபதி அம்பேத்கர் 23-ந்தேதி வரை காவல் நீடிப்பு
வழங்கி உத்தரவிட்டார். </p><p>
</p><p>
இவர்களில் சேகர்,சுரேஷ், விநாயகம், மணிவாசகம், குமார் என்கிற வெங்கடேசன் ஆகியோரிடம்
விசாரணை நடத்த அனுமதிக்குமாறு கியூ பிரிவு போலீசார் மனுதாக்கல் செய்தனர். அதன்மீது
விசாரணை நடத்திய நீதிபதி அம்பேத்கர் வருகிற 11-ந்தேதி வரை காவலில் வைத்து விசாரணை
நடத்த உத்தரவிட்டார். </p><p>
</p><p>
சிறையில் அடைப்பு </p><p>
</p><p>
பின்னர் ரீட்டாமேரி, சத்ய மேரி, ஜெயந்திமேரி, அமலோற்பவம், விஜயா ஆகிய
நக்சலைட்டுகள் வேலூருக்கு கொண்டு செல்லப்பட்டனர். மற்றவர்கள் சேலம் மத்திய சிறையில்
அடைக்கப்பட்டனர். </p><p>
</p><p>
கோஷம் </p><p>
</p><p>
நக்சலைட்டுகளை நீதிமன் றத்தில் ஆஜர்படுத்துவதற்காக கொண்டு வரப்பட்டபோது கோஷங்களையும்
எழுப்பினர்.நக்சல்பாரிகள் தேச பக்தர்கள், மலரட்டும், மலரட் டும் தொழிலாளர் ஆட்சி
மலரட்டும், புரட்சிகர பெண்கள் இயக்கம் வாழ்க, அஞ்ச மாட்டோம்,
அஞ்சமாட்டோம் அடக்குமுறைக்கு அஞ்சமாட்டோம். போராளிகளை கொல்லாதே என்பன
போன்ற கோஷங்களை அவர்கள் முழங்கினர். </p><p>
</p><p>
இதற்கு நீதிபதி கண்டனம் தெரிவித்தார். </p><p>
</p><p>
நக்சலைட்டு துரைசிங்க வேல் உள்பட 5 பேரை போலீசார் தனியாக கொண்டு வந்து கோர்ட்டில்
ஆஜர்படுத்தினர். அப்போது மற்ற 15 பேர் கொண்ட குழுவை பார்த்து பேச அனுமதிக்குமாறு துரை
சிங்கம் கோரினார். அதற்கு வக்கீல் மூலம் மனு தாக்கல் செய்யுமாறு நீதிபதி தெரிவித்தார்.
</p><p>
</p><p>
பாதுகாப்பு </p><p>
</p><p>
நக்சலைட்டுகள் ஆஜர்படுத்தப்பட்டதை தொடர்ந்து கோர்ட்டு வளாகத்தில் பலத்த போலீஸ்
பாதுகாப்பு போடப்பட்டிருந்தது. இதனால் அங்கு பரபரப்பான சூழ்நிலை நிலவியது. </p>

<p> </p>

<p> </p>

<p>பாக். தீவிரவாதிகளை
சந்திக்க வந்த 2 மர்ம மனிதர்கள் பிடிபட்டனர் மத்திய சிறையில் பரபரப்பு</p>

<p> </p>

<p>சென்னை, டிச. 10- மத்திய சிறையில் அடைக்கப்பட்டுள்ள பாகிஸ்தான்
தீவிரவாதிகளை சந்திக்க வந்த 2 மர்ம மனிதர்களை போலீசார் பிடித்து விசாரித்து
வருகிறார்கள். </p><p>
</p><p>
பாக். தீவிரவாதிகள் </p><p>
</p><p>
சென்னை கொடுங்கையூரில் பதுங்கி இருந்த பாகிஸ்தான் தீவிரவாதிகள் தவுபிக், ஜக்க ரியா
உள்பட 11 பேரை போலீசார் கைது செய்து எழும்பூர் கோர்ட்டில் ஆஜர்படுத்தி 15 நாள்
காவலில் வைத்து உள்ளனர். இவர்களிடம் இருந்து 8 கிலோ வெடி மருந்து பொருட்களும்
கைப்பற்றப்பட்டன. கைதானவர்களிடம் போலீசார் விசாரித்தபோது, தமிழ்நாட்டில் உள்ள
முக்கிய கோவில்கள், பா.ஜ.க. மந்திரிகள், அரசியல் கட்சி தலைவர்களை கொல்ல
திட்டமிட்டு இருந்ததாக தெரியவந்தது. </p><p>
</p><p>
ஜெயிலில் கண்காணிப்பு </p><p>
</p><p>
இதனால் கைது செய்யப்பட்ட அனைவரும் மத்திய சிறைச்சாலையில் பலத்த பாது காப்புடன் அடைத்து
வைக்கப்பட்டு உள்ளனர். இவர்களை சந்திக்க யாரையும் போலீசார் அனுமதிக்கவில்லை. ஆனால்
யாராவது வருகிறார்களா? என்பதை கண்காணிக்க மாறுவேடங்களில் போலீசார் மத்திய
சிறைச்சாலை முன்பு நின்று கொண்டு இருந்தனர். </p><p>
</p><p>
2 மர்ம ஆசாமி சிக்கினர் </p><p>
</p><p>
அப்போது சிறையில் அடைக்கப்பட்டுள்ள தீவிரவாதிகளை சந்திக்க 2 பேர் வந்தனர். அவர்கள்
கையில் பழக்கூடைகள் வைத்து இருந்தனர். அவர்களை பார்த்ததும் மாறுவேடத்தில் நின்ற
போலீசாருக்கு சந்தேகம் ஏற்பட்டது. உடனே அவர்களை போலீசார் மடக்கி விசாரித்தனர்.
விசாரணையில் அவர்கள் முன்னுக்கு பின் முர ணான தகவல்களை கூறினார்களாம். முதலில்
தஞ்சையில் இருந்து வருகிறோம் என்று கூறி உள்ளனர். பிறகு காயல்பட்டினத்தில் இருந்து
வந்து உள்ளோம் என்றும் பெயர்களையும் மாற்றி மாற்றி சொன்னார்களாம். இதனால் அவர்கள்
2 பேரையும் போலீசார் தீவிரவாதிகளாக இருக்கலாம் என்று கருதி ரகசிய இடத்தில் வைத்து
விசாரித்து வருகிறார்கள். </p>

<p> </p>

<p> </p>

<p>மேட்டூர் அருகே பரபரப்பு:
வீரப்பன் காட்டுப்பகுதி அணையில் ஆண் பிணம்; யார் அவர்? போலீஸ் தீவிர விசாரணை</p>

<p> </p>

<p>மேட்டூர், டிச.10- மேட்டூர் அருகே வீரப்பன் நடமாடும்
காட்டுப்பகுதியில் உள்ள அணையில் ஒரு ஆண் பிணம் மிதந்தது. அவர் யார்? என போலீசார்
தீவிர விசாரணை நடத்தி வருகின்றனர். </p><p>
</p><p>
சிவிலிகரடு அணை </p><p>
</p><p>
மேட்டூரை அடுத்த தாண்டா காட்டுப்பகுதியில் சிவிலி கரடு அணை உள்ளது. இந்த இடம் வீரப்பன்
நடமாட்டம் உள்ள பகுதியாகும். இப்பகுதியின் அருகே உள்ள சின்னதண்டா என்ற இடத்தில்
வீரப்பனை பிடிக்க அதிரடிப்படை முகாம் அமைக்கப்பட்டு உள்ளது. இந்த நிலையில் சிவிலி கரடு
அணையை பார்வையிட வனக் காவலர் பொன்னுசாமி நேற்று (திங்கள்) சென்றார். </p><p>
</p><p>
ஆண் பிணம் </p><p>
</p><p>
அப்போது அணையில் ஒரு ஆண் பிணம் மிதந்தது. இதை பார்த்த அவர் அதிர்ச்சி அடைந்தார்.
இதுகுறித்து கொளத்தூர் போலீஸ் நிலையத்திற்கு தகவல் கொடுத்தார். உடனே போலீஸ் சப்-
இன்ஸ்பெக்டர் வேதமூர்த்தி மற்றும் போலீசார் சம்பவ இடத்திற்கு விரைந்து சென்றனர்.
பின்னர் பிணத்தை கைப்பற்றி மேட்டூர் அரசு மருத்துவமனைக்கு பிரேத பரிசோதனைக்காக அனுப்பி
வைத்தார்கள். </p><p>
</p><p>
பரபரப்பு </p><p>
</p><p>
பிணமாக கிடந்தவருக்கு சுமார் 45 வயது இருக்கும். மெலிந்த தேகம் உடையவர். மேலும் அணையின்
அருகே 2 அழுக்குசட்டையும், 2 வேட்டியும், ஒரு டம்ளரும் கிடந்தது. இவர் குளிக்க சென்ற போது
அணையில் தவறி விழுந்து இறந்து இருக்கலாம் என போலீசார் சந்தேகிக்கின்றனர். இவர்
யார்? எந்த ஊரை சேர்ந்தவர் என்று தெரியவில்லை. இதுகுறித்து கொளத்தூர் போலீசார்
வழக்கு பதிவு செய்து விசாரணை நடத்தி வருகிறார்கள். வீரப்பன் நடமாடும் காட்டுப்பகுதியில்
உள்ள அணையில் ஒருவர் பிணமாக மிதந்த சம்பவம் அந்த பகுதியில் பெரும் பரபரப்பை ஏற்படுத்தி
உள்ளது. </p>

<p> </p>

<p> </p>

<p>சேலம் அரசுமருத்துவமனையில்
குழந்தை கைதுண்டிப்பு-2பெண் பலி: 16டாக்டர்-பயிற்சி டாக்டர்-நர்சுகளிடம் மனித உரிமை
கமிஷன் விசாரணை 12-ந்தேதி அறிக்கை தாக்கல்</p>

<p> </p>

<p>சேலம்,டிச.10- சேலம் அரசு மருத்துவமனை சம்பவம் பற்றி மனிதஉரிமை
ஆணைய நீதிபதி சம்பந்தம், டி.எஸ்.பி.புருசோத்தமன் ஆகியோர் விசாரணை நடத்தினர். இதில்
டாக்டர்கள், நர்சுகள் உள்பட 16 பேர் ஆஜராயினர். </p><p>
</p><p>
மருத்துவமனை சம்பவம் </p><p>
</p><p>
சேலம் அரசு மருத்துவமனையில் கர்ப்பிணிபெண் சோலையம்மாள், சிறுமி பிரேமா ஆகியோர்
அடுத்தடுத்து இறந்து போனார்கள். </p><p>
</p><p>
மேலும் வயிற்றுப் போக்கால் அனுமதிக்கப்பட்ட 8 மாத குழந்தை உசேனுக்கு கை அழுகி
துண்டிக்கப்பட்டது.இந்த சம்பவத்தால் பெரும் பரபரப்பு ஏற்பட்டது. </p><p>
</p><p>
டாக்டர்களிடம் விசாரணை </p><p>
</p><p>
இந்த சம்பவம் பற்றி விசாரிக்க மனித உரிமை ஆணைய தலைவர் நீதிபதி சம்பந்தம், துணை
போலீஸ் சூப்பிரெண்டு புருசோத்தமன் ஆகியோர் நேற்று சேலம் அரசு மருத்துவ மனை வந்தனர். </p><p>
</p><p>
அவர்கள் 8 மாதகைக்குழந்தை உசேன் குடும்பத்தாரிடம் விசாரணை நடத்தினர். பின்னர் அவர்கள்
5 டாக்டர்கள், 7 நர்சுகள்,4 பயிற்சி டாக்டர்கள் ஆகியோரிடம் விசாரணை நடத்தினர். </p><p>
</p><p>
ஏற்காடு சம்பவம் </p><p>
</p><p>
முன்னதாக நீதிபதி சம்பந்தம்,ஏற்காடு அரசு மருத்துவமனையில் விஷம் குடித்த நோயாளிக்கு
சரியான சிகிச்சை அளிக்காததால் இறந்து போனதாக கூறப்படுவது பற்றி விசாரணை நடத்தினர். </p><p>
</p><p>
இதில் மருத்துவ பணிகள் இணைஇயக்குநர் டாக்டர் எஸ்தர், துணை இயக்குநர் பெருமாள் ஆகியோர்
இந்த சம்பவம் பற்றி விளக்கம் அளித்தனர். </p><p>
</p><p>
பேட்டி </p><p>
</p><p>
இதுகுறித்து மனித உரிமை ஆணைய தலைவர் நீதிபதி சம்பந்தம் கூறியதாவது:- </p><p>
</p><p>
நான் ஏற்காடு அரசு மருத் துவமனையில் நடந்த சம்பவம் பற்றி விசாரணை நடத்தினேன். மேலும்
சேலம் அரசு மருத்துவ மனையில் பொதுமக்கள் பாதிப் புக்குள்ளான புகார்கள் பற்றி விசாரணை
நடத்தி வருகிறேன். </p><p>
</p><p>
இந்த சம்பவங்கள் பற்றிய அறிக்கையினை வரும் 12-ந் தேதி தாக்கல் செய்ய உள்ளேன். </p><p>
</p><p>
இவ்வாறு அவர் கூறினார். </p>

<p> </p>

<p> </p>

<p>பெண் குழந்தை தொழிலாளர்
மனித சங்கிலி போராட்டம் வேலைக்கு விடை கொடுப்போம், பள்ளிக்கு படை எடுப்போம்</p>

<p> </p>

<p>சென்னை, டிச. 10- சென்னையில் பெண் குழந்தை தொழிலாளர் மனித
சங்கிலி போராட்டம் நடந்தது. அவர்கள் வேலைக்கு விடை கொடுப்போம், பள்ளிக்கு படை
எடுப்போம் என்று கோஷமிட்டனர். </p><p>
</p><p>
மாவட்ட மாநாடு </p><p>
</p><p>
பெண் குழந்தை தொழிலாளர் மாவட்ட மாநாடு சென்னையில் கடந்த 2 நாளாக நடந்தது. இதையொட்டி
நேற்று மாலை வள்ளுவர்கோட்டம் அருகில் 200 பெண் குழந்தை தொழி லாளர்கள் பங்கேற்ற மனித
சங்கிலி போராட்டம் நடத்தப்பட்டது. இதில் தமிழ்நாடு பெண்கள் ஆணைய தலைவி டாக்டர்
வி.வசந்தி தேவி, தலித் மனித உரிமைக்கான தேசிய பிரசார அமைப்பாளர் வி.கருப்பன்,
அனைத்திந்திய ஜனநாயக மாதர் சங்க துணைச் செய லாளர் பிருந்தா, சென்னை மாவட்ட
அமைப்பாளர் ஆசி. பெர்னாண்டஸ், வர்ஜில், தாமஸ் ஜெயராஜ் உள்பட பலர் பேசினர். </p><p>
</p><p>
வறுமை காரணம் </p><p>
</p><p>
டாக்டர் வசந்திதேவி பேசுகையில், குழந்தை தொழிலாளர் அடியோடு ஒழிக்கப்பட வேண்டும்,
இதற்காக நாடு முழுவதும் தொழிற்சாலைகளில் ஆய்வு நடத்த வேண்டும். பெற்றோர் வறுமை
காரணமாகவே குழந்தைகளை பள்ளிக்கு அனுப்பாமல் வேலைக்கு அனுப்புகிறார்கள். இதை தடுக்க
அவர்களுக்கு வேலைவாய்ப்பு அளிக்க வேண்டும் என்றார். </p><p>
</p><p>
குழந்தைகள் கோஷம் </p><p>
</p><p>
குழந்தைகள் எழுப்பிய கோஷங்கள் வருமாறு:- </p><p>
</p><p>
கூடி நாமும் செயல்படுவோம், குழந்தை உழைப்பை அகற்றிடுவோம். </p><p>
</p><p>
வெல்லட்டும் வெல்லட்டும் மனித சங்கிலி வெல்லட்டும். </p><p>
</p><p>
வேலைக்கு விடை கொடுப்போம், பள்ளிக்கு படை எடுப்போம். </p><p>
</p><p>
பள்ளிக்கு செல்வது எங்கள் உரிமை, படிக்க வைப்பது உங்கள் கடமை. </p><p>
</p><p>
எங்களுக்கு பள்ளிக்கு போக உரிமை வேண்டும், பாடங்களை படிக்க வேண்டும். </p><p>
</p><p>
பாதுகாப்போம், பாதுகாப்போம் குழந்தை உரிமையை பாதுகாப்போம். </p><p>
</p><p>
அப்பா - அம்மாவுக்கு வேலை கொடு </p><p>
</p><p>
அப்பாவுக்கும், அம்மாவுக்கும் வேலை கொடுங்கள், வேலைக்கு ஏத்த கூலி கொடுத்து வாழ
விடுங்கள், எங்களை வாழ விடுங்கள். </p><p>
</p><p>
தமிழக அரசே, ஜெ. அரசே தண்டனை வழங்கு, தண்டனை வழங்கு, குழந்தை உழைப்பை சுரண்டுவோருக்கு
தண்டனை வழங்கு. </p><p>
</p><p>
குழந்தைத் திருமணத்தை ஏற்கமாட்டோம். </p><p>
</p><p>
தேசிய மாநாடு </p><p>
</p><p>
பெண் குழந்தைத் தொழிலாளர் மீது பணியில் சுரண்டல், பாலியல் சுரண்டல், அனுப்பமாட்டோம்,
அனுப்பமாட்டோம் இனிமேல் எங்கள் குழந்தைகளை வேலைக்கு அனுப்ப மாட்டோம். </p><p>
</p><p>
இவ்வாறு அவர்கள் முழங்கினர். </p><p>
</p><p>
வருகிற பிப்ரவரி மாதம் 12, 13 ஆகிய தேதிகளில் மாநில அளவிலும், மார்ச் மாதம் மைசூரில்
தேசிய அளவிலும் மாநாடு நடத்தப்படும் என்று அறிவிக்கப்பட்டுள்ளது. </p>

<p> </p>






</body></text></cesDoc>