<cesDoc id="tam-w-dinakaran-news-01-10-02" lang="tam">
<cesHeader type="text">
<fileDesc>
<titleStmt>
<h.title>tam-w-dinakaran-news-01-10-02.txt</h.title>
<respStmt>
<respType>Electronic file created by</respType>
<respName>Department of Linguistics, Lancaster University</respName>
<respType>text collected by</respType>
<respName>Paul Baker and Celia Worth</respName>
<respType>transferred into Unicode by</respType>
<respName>"Unicodify" software by Andrew Hardie</respName>
</respStmt>
</titleStmt>
<publicationStmt>
<distributor>UCREL</distributor>
<pubAddress>Department of Linguistics, Lancaster University, Lancaster, LA1 4YT, UK</pubAddress>
<availability region="WORLD"></availability>
<pubDate>03-08-24</pubDate>
</publicationStmt>
<sourceDesc>
<biblStruct>
<monogr>
<h.title>"Dinakaran" internet news (www.dinakaran.com), news stories collected on 01-10-02</h.title>
<h.author>Dinakaran</h.author>
<imprint>
<pubPlace>Tamil Nadu, India</pubPlace>
<publisher>Dinakaran</publisher>
<pubDate>01-10-02</pubDate>
</imprint>
</monogr>
</biblStruct>
</sourceDesc>
</fileDesc>
<encodingDesc>
<projectDesc>Text collected for use in the EMILLE project.</projectDesc>
<samplingDesc>Simple written text only has been transcribed. Diagrams, pictures and tables have been omitted and their place marked with a gap element.
</samplingDesc>
<editorialDecl>
<conformance level="1"></conformance>
</editorialDecl>
</encodingDesc>
<profileDesc>
<creation>
<date>03-08-24</date>
</creation>
<langUsage>Tamil</langUsage>
<wsdUsage>
<writingSystem id="ISO/IEC 10646">Universal Multiple-Octet Coded Character Set (UCS).</writingSystem>
</wsdUsage>
<textClass>
<channel mode="w">print</channel>
<constitution type="composite"></constitution>
<domain type="public"></domain>
<factuality type="fact"></factuality>
</textClass>
<translations></translations>
</profileDesc>
<revisionDesc></revisionDesc>
</cesHeader>

<text>
<body>




<p>காஷ்மீரில் பாக்.
தீவிரவாதிகள் திடீர் தாக்குதல்: 26 பேர் பலி-சட்டசபையில் குண்டு வெடிப்பு, முதல்வர்
பரூக்-மந்திரிகள் தப்பினர், சபாநாயகர் கதி என்ன? கடும் துப்பாக்கி சண்டை</p>

<p> </p>

<p>நகர், அக். 2- காஷ்மீரில் வெடிகுண்டு நிரப்பிய காருடன் சட்டசபை
வாயிலில் மனித குண்டு மோதியது. இதனால் 26 பேர் பலியானார்கள். 60 பேர் படுகாயம்
அடைந்தனர். இந்த தாக்குதலுக்கு முன்னதாகவே சட்டசபை கூட்டம் முடிந்து முதல்வர் பரூக் மற்றும்
மந்திரிகள் வௌியேறியதால் அவர்கள் உயிர் தப்பினர். </p>

<p>அமெரிக்காவில் கடந்த மாதம் 11ந்தேதி உலக வர்த்தக மைய கட்டிடம், ராணுவ
தலைமையகம் ஆகியவற்றின் மீது விமானங்களை மோத விட்டு தாக்குதல் நடத்தியது தெரிந்ததே.
இதில் 6 ஆயிரம் பேர் வரை இறந்து இருக்கலாம் என்று அஞ்சப்படுகிறது. </p>

<p>உலக நாடுகள் திரண்டன </p>

<p>இந்த தாக்குதலையடுத்து உலகளாவிய பயங்கரவாதம் எதிர்க்க அமெரிக்காவுக்கு பல்வேறு
நாடுகள் ஆதரவுக்கரம் நீட்டி உள்ளன. இந்த தாக்குதல் நடத்திய பின்லேடனை பிடிக்கவும்
அவனுக்கு ஆதரவு அளிக்கும் ஆப்கான் மீது தாக்குதல் நடத்தவும் முழு வீச்சில் ஏற்பாடுகள்
நடந்து வருகின்றன. </p>

<p>இந்தியா மீது தாக்குதல் </p>

<p>அமெரிக்காவுக்கு இந்தியாவும் ஆதரவு அளித்து உள்ளது. இதனால் இந்தியா மீதும்
தீவிரவாதிகள் பார்வை திரும்பி இருக்கிறது. இந்தியாவிலும் விமான தாக்குதல் நடத்த ஜேய்ஸ்
இ முகமது இயக்கம் திட்டமிட்டு இருப்பதாக ரகசிய தகவல் கிடைத்து உள்ளது. இதனால் இந்தியா
முழுவதும் உஷார் படுத்தப்பட்டு உள்ளது. </p>

<p>இதற்கிடையில் அதே ஜேய்ஸ் இ முகமது இயக்கம் நேற்று காஷ்மீரில் மனித குண்டு மூலம்
தாக்குதல் நடத்தி 26 பேர் உயிரை பலி வாங்கி இருக்கிறது. இது பற்றிய விவரம் வருமாறு:-
</p>

<p>சட்டசபையில் வெடிச்சத்தம் </p>

<p>காஷ்மீர் சட்டசபை கூட்டம் நேற்று நகரில் நடந்தது. கூட்டம் முடிந்து மந்திரிகள்
மற்றும் எம்.எல்.ஏ.க்கள் வௌியேறி விட்டனர். </p>

<p>அப்போது சுமார் 2 மணி அளவில் சட்டசபை நுழைவு வாயிலில் டமார் என்று வெடிச்
சத்தம் கேட்டது. அதைத் தொடர்ந்து துப்பாக்கியால் சுடும் சத்தமும் நீடித்தது. என்ன நடந்தது
என்று பார்த்தால் ஒரே புகை மண்டலமாக காட்சி அளித்தது. </p>

<p>பின்னர் பார்த்த போது அங்கு ஒரு சிறுமி உள்பட 12 பேரின் பிணங்கள் கிடந்தன.
மனித சதைகள் ரோடு முழுவதும் சிதறிக் கிடந்தது. </p>

<p>மனித குண்டு தாக்குதல் </p>

<p>வெடிகுண்டு நிரப்பிய ஒரு காரை ஒரு மனித குண்டு ஓட்டி வந்து சட்டசபை வாயில் மீது
மோதினான் என்றும் அதையடுத்தே தொடர்ந்து வெடிச் சத்தம் கேட்டது என்றும் தெரிய வந்தது.
இந்த தாக்குதலையடுத்து துப்பாக்கிச் சத்தமும் கேட்டது. அதாவது தாக்குதல் நடந்த அதே
சமயத்தில் மனித குண்டுடன் வந்த தீவிரவாதிகள் சட்ட சபைக்குள் ஊடுருவி விட்டனர். அவர்கள்
தான் பாதுகாப்பு படையினரை நோக்கி சரமாரி துப்பாக்கியால் சுட்டனர். பதிலுக்கு
போலீசாரும் சுடத் தொடங்கினர். இந்த சண்டை நீண்ட நேரம் நீடித்தது. அதே சமயத்தில் வெடி
குண்டுகளும் வீசப்பட்டன. எனவே போலீசாரும் எல்லை பாதுகாப்பு படையினரும் சட்டசபை வளாகத்தை
முற்றுகையிட்டு தீவிரவாதிகளை தேடினர். </p>

<p>60 பேர் படுகாயம் </p>

<p>இந்த தாக்குதல் மற்றும் துப்பாக்கி சண்டையில் 60 க்கும் மேற்பட்டவர்கள்
படுகாயம் அடைந்தனர். அவர்கள் மருத்துவமனையில் அனுமதிக்கப்பட்டு உள்ளனர். இதில் பலரது
உடல் நிலை கவலைக்கிடமாக இருக்கிறது. சிகிச்சை பலன் அளிக்காமல் மேலும் 14 பேர்
இறந்தனர். எனவே சாவு எண்ணிக்கை 26 ஆக உயர்ந்தது. </p>

<p>முதல்வர் தப்பினார் </p>

<p>சட்டசபை கூட்டம் முடிந்து முதல்வர், மந்திரிகள், எம்.எல். ஏ.க்கள் வௌியேறிய
பிறகு தான் இந்த தாக்குதல் நடந்தது. எனவே அவர்கள் அனைவரும் உயிர் தப்பினர். ஆனால்
சம்பவம் நடந்த போது சபாநாயகர் அப்துல் அகமது வகீல் சட்டசபையில் அவரது அலுவலகத்தில்
இருந்தார் என்று தெரிகிறது. </p>

<p>சம்பவம் நடந்த இடத்தை போலீசார் சீல் வைத்து உள்ளனர். சட்டசபை வளாகம்
முழுவதும் தேடி விட்டோம், தற்கொலைப்படையினர் யாரும் இல்லை என்று போலீஸ்
டி.ஜி.பி.அசோக்குமார் சூரி தெரிவித்தார். </p>

<p>இந்த வெடிச்சத்தம் சுமார் 2 கிலோ மீட்டர் தூரத்துக்கு கேட்டதாக பொதுமக்கள்
கூறினர். இந்த சம்பவத்தையடுத்து பொதுமக்கள் யாரும் வீதியில் நடமாடவில்லை. </p>

<p>
 
 
  
  
  
  
  
  
  
  
  
  
  
  
 
 
 

 
<gap desc="illustration"></gap></p>

<p>மனித வெடிகுண்டு வந்த கார் சுக்குநூறாகி
கிடக்கும் காட்சி.</p>

<p> </p>

<p>அதிகாரிகள் பலி </p>

<p>இந்த சம்பவத்தில் செய்தித் துறை அதிகாரிகள் இருவரும் மற்றும் ஒரு ஊழியரும்
பலியானார்கள். காரை ஓட்டி வந்த மனித குண்டும், 12 போலீசாரும் பொதுமக்கள் 10 பேரும்
பலியானார்கள். </p>

<p>மைக்ரோவேவ் கம்பெனிக்குச் சொந்தமான டாடா சுமோ காரை சீருடை அணிந்த 4
தீவிரவாதிகள் கடத்தி அதில்் வெடிகுண்டு ஏற்றி கொண்டு வந்து உள்ளனர். அந்த காரைத் தான்
ஒரு தீவிரவாதி ஓட்டி வந்து சட்டசபை நுழைவு வாயிலில் மோதினான். அப்போது மேலும் 3 தற்
கொலைப்படையினர் சட்ட சபைக்குள் ஊடுருவினர் என்று அதிகாரி ஒருவர் கூறினார். </p>

<p>அரசு வேலை </p>

<p>இதற்கிடையில் நேற்று காலையில் நடந்த சட்டசபை கூட்டத்தில், தீவிரவாதிகள்
தாக்குதலில் உயிர் இழந்த வர்கள் குடும்பத்தினருக்கு 5 லட்சம் ரூபாய் வழங்குவதற்கு பதிலாக
வீட்டுக்கு ஒருவருக்கு அரசு வேலை வழங்கப்படும் என்று முதல்வர் பரூக் அறிவித்தார்.
</p>

<p>இந்த சம்பவம் ஜனநாய கத்தின் மீது நடந்த தாக்குதல் என்று பரூக் அப்துல்லா
கண்டனம் தெரிவித்து உள்ளார். </p>

<p>தாக்கியது யார்? </p>

<p>இந்த தாக்குதல் நடத்தியது யார் என்பது தெரிய வந்து உள்ளது. பாகிஸ்தான் ஆதரவு
தீவிரவாத இயக்கமான ஜேய்ஸ் இ முகம்மது என்ற இயக்கத்தின் தற்கொலைப் படை தான் தாக்குதல்
நடத்தியது என்று அந்த இயக்கத்தின் செய்தி தொடர்பாளர் தெரிவித்ார். மற்ற விவரங்கள்
எதுவும் அவர் வௌியிடவில்லை. எத்தனை பேர் தாக்குதல் நடத்தினர், தாக்குதலில் எத்தனை
தீவிரவாதிகள் இறந்தனர் என்பதும் தெரியவில்லை. </p>

<p>ஆனால் இது லஸ்கர் இ தொய்பா இயக்கத்தின் தாக்குதலாக இருக்கலாம் என்றும்
கூறப்படுகிறது. </p>

<p>2வது பெரிய தாக்குதல் </p>

<p>அமெரிக்காவில் கடந்த மாதம் 11 ந்தேதி தாக்குதலுக்கு பிறகு காஷ்மீரில் நேற்று
நடந்த இந்த மனித குண்டு தாக்குதல் மிகப் பெரியது என்று போலீசார் கூறினர். </p>

<p>வாஜ்பாய் கண்டனம் </p>

<p>இந்த தாக்குதலுக்கு பிரதமர் வாஜ்பாய் கண்டனம் தெரிவித்து உள்ளார்.
ஏமாற்றத்தின் வௌிப்பாடு தான் இந்த தாக்குதல். இது திட்டமிட்ட சதி. பயங்கரவாதத்துக்கு
எதிராக உலகமே திரண்டு விட்டதால் கடைசி முயற்சியாக இதை செய்து உள்ளனர் என்று வாஜ்பாய்
கூறினார். </p>

<p> </p>

<p>துணை சபாநாயகர்- 100 அரசு ஊழியர்களை ராணுவம் மீட்டது: 2 தீவிரவாதிகளை
சுட்டுக் கொன்றனா</p>

<p> </p>

<p>நகர்,
அக். 2- காஷ்மீர் சட்டசபையில் தீவிரவாதிகள் புகுந்து துப்பாக்கி சண்டை நடத்தினர்.
அவர்களுடன் மோதி 2 பேரை சுட்டுக் கொன்று விட்டு துணை சபாநாயகர் மற்றும் 100 அரசு
ஊழியர்களை ராணுவம் மீட்டது. </p><p>
</p><p>
காஷ்மீர் சட்டசபை நுழைவு வாயிலில் காரை மோதி ஒரு மனித குண்டு தாக்குதல் நடத்தியது
அல்லவா? அப்போது 3 தீவிரவாதிகள் சட்டசபைக்குள் புகுந்து விட்டனர். அங்கு அவர்களை
நோக்கி பாதுகாப்பு படையினர் சுட்டனர். அந்த நேரத்தில் 12 ஊழியர்களை பணயக் கைதிகளாக
தீவிரவாதிகள் பிடித்துவைத்துக் கொண்டனர். </p><p>
</p><p>
அவர்களை மீட்க எல்லை பாதுகாப்பு படை வீரர்கள் முயன்ற போது தீவிரவாதிகள் சுட்டனர்.
இதில் 2 வீரர்கள் இறந்தனர். உடனே எல்லை பாதுகாப்புப் படையினர் தந்திரமாக அந்த
கட்டிடத்தின் உள்ளே நுழைந்து தீவிரவாதிகள் மீது தாக்குதல் நடத்தினர். இதில் 2
தீவிரவாதிகளும் கொல்லப்பட்டனர். </p><p>
</p><p>
துணைசபாநாயகர் மீட்பு </p><p>
</p><p>
இதையடுத்து அந்த ஊழியர்கள் மீட்கப்பட்டனர். அதே நேரத்தில் சட்டசபை துணைசபாநாயகர்
குலாம் ஐதர் மற்றும் 100 ஊழியர்கள் உள்ளே தவித்துக் கொண்டு இருந்தனர். அவர்களையும்
எல்லை பாதுகாப்புப் படையினர் பத்திரமாக மீட்டுக் கொண்டு வந்தனர். </p><p>
</p><p>
எம்.எல்.ஏ. காயம் </p><p>
</p><p>
இந்த தாக்குதலின் போது தேசிய மாநாட்டுக் கட்சி எம்.எல்.ஏ. சாதிக் அலி காயம்
அடைந்தார். சபாநாயகர் அப்துல் அகமது வகீல் சட்டசபை வளாகத்திலேயே இருந்ததாகவும் அவரது
கதி என்ன என்று தெரியவில்லை என்றும் முதலில் வந்த தகவல்கள் கூறின. ஆனால் தாக்குதல்
நடப்பதற்கு முன்பே அவர் அங்கிருந்து கிளம்பி விட்டார் என்று அரசு அதிகாரி ஒருவர் கூறினார்.</p>

<p> </p>

<p>விமான விபத்தில் பலியான,
மாதவராவ் சிந்தியா உடலுக்கு ஜனாதிபதி- பிரதமர் இறுதி அஞ்சலி, குவாலியரில்
4-ந்தேதி உடல் தகனம்</p>

<p> </p>

<p> </p>

<p>புதுடெல்லி, அக். 2- மாதவராவ் சிந்தியா உடலுக்கு ஜனாதிபதி
நாராயணன், பிரதமர் வாஜ்பாய் மற்றும் ஏராளமானோர் இறுதி அஞ்சலி செலுத்தினர். நாளை
அவரது உடல் குவாலியரில் தகனம் செய்யப்படுகிறது. </p>

<p>உ.பி. மாநிலத்தில் நேற்று முன்தினம் நடந்த விமான விபத்தில் காங்கிரஸ் மூத்த
தலைவரும் முன்னாள் மத்திய மந்திரியுமான மாதவ ராவ் சிந்தியா பலியானார் அல்லவா?
அவருடன் 4 பத்திரிகையாளர் உள்பட மொத்தம் 8 பேர் அந்த விபத்தில் கொல்லப்பட்டனர்.
</p>

<p>நடுவானில் தீபிடித்து தரையில் விமானம் விழுந்து நொறுங்கியதால் பலியான 8 பேரின்
உடல்களுமே கருகி போய் உருக்குலைந்து போய் இருந்தது. மிகுந்த சிரமத்துக்கு பிறகே மாதவராவ்
சிந்தியாவின் உடல் அடையாளம் காணப்பட்டது. 8 உடல்களும் நேற்று அதிகாலை 5 மணிக்கு வேன்
கள் மூலம் ஆக்ரா கொண்டு வரப்பட்டன. </p>

<p>டெல்லி கொண்டு வந்தனர் </p>

<p>அங்கு உடல்களை மத்திய அமைச்சர் அருண் ஜெட்லி பெற்றுக்கொண்டார். உடனடி யாக
இந்திய விமானப்படை யின் தனி விமானத்தில் உடல்கள் ஏற்றப்பட்டன. நேற்று காலை 6.25
மணிக்கு அந்த விமானம் டெல்லியில் உள்ள பாலம் விமான தளத்தில் தரை இறங்கியது. மத்திய
அமைச்சர்கள் அருண் ஜெட்லி, விஜய் கோயல், காங்கிரஸ் தலைவர் சல்மான் குர்ஷித்
ஆகியோர் அந்த விமானத்தில் வந்தனர். </p>

<p>சோனியா </p>

<p>உடல்களை பெற்றுக் கொள்வதற்காக முதல் நாள் இரவில் இருந்தே விமான நிலையத்தில்
காங்கிரஸ் தலைவர்கள், பலியானோரின் உறவினர்கள், பத்திரிகையாளர்கள் தங்கி இருந்தனர்.
விமானம் வரு வதற்கு அரை மணி நேரத்துக்கு முன் சோனியா காந்தி அங்கு வந்தார். அவருடன்
சிந்தியாவின் மகன் ஜோதிர் ஆதித்யாவும் வந்திருந்தார். </p>

<p>விமானத்தில் இருந்து மாதவ ராவ் சிந்தியா உடல் வைக்கப்பட்டிருந்த சவப்பெட்டி
முதலில் இறக்கப்பட்டது. அதை காங்கிரஸ் தலைவர் சோனியா காந்தி, மத்திய அமைச்சர்கள்
பிரமோத் மகாஜன், சுஷ்மா சுவ ராஜ், ஷனவாஸ் உசேன், டெல்லி முதல்வர் ஷீலா தீட்சத்,
ராஜஸ்தான் முதன்மந்திரி அசோக் கெலாட் மற்றும் காங் கிரஸ் மூத்த தலைவர்கள்
பெற்றுக்கொண்டனர். </p>

<p>பிரேத பரிசோதனை </p>

<p>மற்ற 7 பேரின் உடல்களும் விமானத்தில் இருந்து இறக்கப்பட்டன. பிறகு சிந்தியா
உள்பட 8 பேரின் உடல்களும் தனித்தனி வேன்களில் ஏற்றப்பட்டு டெல்லி அகில இந்திய மருத்துவ
விஞ்ஞான கழக மருத்துவ மனைக்கு கொண்டு செல்லப்பட்டன. அங்கு பிரேத பரிசோதனை
நடந்தது. </p>

<p>மனைவிக்கு ஆறுதல் </p>

<p>அதன் பிறகு சப்தர்ஜங் சாலையில் உள்ள அவரது இல்லத்துக்கு மாதவ ராவ்
சிந்தியாவின் உடல் எடுத்து செல்லப்பட்டது. அங்கு அவரது உடல் பொது மக்கள் அஞ்சலிக்
காக வைக்கப்பட்டது. காங்கிரஸ் தலைவர் சோனியா காந்தி நேற்று காலையிலே மாதவராவ்
சிந்தியாவின் வீட்டிற்கு வந்தார். சிந்தியாவின் உடல் அருகேயே சோனியா சோகமாக
உட்கார்ந் திருந்தார். கணவனை இழந்த அதிர்ச்சியில் இருக்கும் சிந்தியா வின் மனைவிக்கு
சோனியா ஆறுதல் கூறியபடி இருந்தார். </p>

<p>ஜனாதிபதி-பிரதமர் </p>

<p>ஜனாதிபதி நாராயணன் நேற்று மதியம் 1.30 மணிக்கு வந்து மலர் வளையம் வைத்து
அஞ்சலி செலுத்தினார். பிரதமர் வாஜ்பாய் தனது மகளுடன் வந்து சிந்தியாவின் உடலுக்கு
இறுதி அஞ்சலி செலுத்தினார். முன்னாள் பிரதமர்கள் குஜ்ரால், சந்திர சேகர், மத்திய
அமைச்சர்கள் அத்வானி, அருண் ஜெட்லி, யஷ்வந்த் சின்கா, முன்னாள் மத்திய அமைச்சர்
ப.சிதம்பரம் மற்றும் பலர் அஞ்சலி செலுத்தினர். ஆயிரக்கணக்கான காங்கிரசார்
மற்றும் பொதுமக்கள் நீண்ட கியூவில் நின்று மறைந்த தலைவருக்கு கண்ணீர் அஞ்சலி
செலுத்தினர். </p>

<p>
 
<gap desc="illustration"></gap></p><p>
மாதவராவ்
சிந்தியாவின் விமானத்தை ஓட்டிச்சென்ற பைலட் விவேக் குப்தாவும் விபத்தில் </p><p>
பலியானார்
அல்லவா? அவரது உடலை வாங்கி செல்வதற்காக விவேக்குப்தாவின் அத்தை, </p><p>
சகோதரி
ஆகியோர் டெல்லி விமான நிலையத்தில் சோகமாக காத்திருந்த காட்சி. வலது பக்க
</p><p>
படத்தில்
மாதவராவ்சிந்தியாவின் மகன் ஜோதிர் ஆதித்யா சோகமே உருவாக இருக்கிறார்.</p>

<p>தங்கைகள் கதறல் </p>

<p>லண்டன் சென்றிருந்த மாதவ ராவ் சிந்தியாவின் தங்கைகள் மத்திய அமைச்சர்
வசுந்தரா ராஜே சிந்தியா, யசோதரா ராஜே எம்.எல்.ஏ. ஆகியோர் நேற்று மதியம் டெல்லி
திரும்பினர். தங்கள் சகோதரரின் உடலை பார்த்து கதறி அழுதனர். </p>

<p>நாளை தகனம் </p>

<p>இன்று காலை மாதவ ராவ் சிந்தியாவின் உடல் டெல்லியில் உள்ள அகில இந்திய
காங்கிரஸ் கமிட்டி அலுவலகத்துக்கு கொண்டு செல்லப்படும். பிறகு விமானம் மூலம் குவாலியர்
எடுத்து செல்கிறார்கள். அங்கு அரண்மனையில் சிந்தியாவின் உடல் மக்கள் அஞ்சலி
செலுத்துவதற்காக வைக்கப்படும். பிறகு நாளை குவாலியரில் சிந்தியாவின் உடல் தகனம்
செய்யப்படும். </p>

<p>குவாலியரில் நாளை மறு தினம் நடக்கும் இறுதி சடங்கில் பிரதமர் வாஜ்பாய்,
காங்கிரஸ் தலைவர் சோனியா காந்தி மற்றும் பல்வேறு கட்சி தலைவர்கள் கலந்து
கொள்கிறார்கள். </p><p>
  </p><p>
  </p>

<p>பாதுகாப்பு குறைபாட்டால் விமானம் விழுந்து நொறுங்கியதா? </p>

<p>மும்பை, அக். 2- மாதவராவ் சிந்தியா சென்ற விமானம் விபத்துக்குள்ளானது ஏன்
என்பது தொடர்பாக பல்வேறு தகவல்கள் வௌியாகி உள்ளன. </p>

<p>* பலத்த மழை பெய்ததால் விமானம் கட்டுப்பாட்டை இழந்து தரையில் விழுந்தது.
</p>

<p>* நாசவேலை காரணமாக விமானத்தில் தீ பிடித்து நொறுங்கி இருக்கலாம்.
</p>

<p>* விமானத்தின் மீது பறவை ஏதாவது மோதியதால் விபத்து ஏற்பட்டிருக்கும்.
</p>

<p>* பாதுகாப்பு குறைபாடு காரணமாக விபத்து நிகழ்ந்திருக்கலாம். </p>

<p>இதில் பாதுகாப்பு குறைபாடு காரணமாக விமான விபத்து ஏற்பட்டதா? என்பது குறித்து
விசாரணை நடத்த உயர் மட்டகுழு ஒன்றை மத்திய அரசு அமைத்துள்ளது. </p>

<p>விபத்துக்குள்ளான விமானம் 1977-ம் ஆண்டு தயாரிக்கப்பட்டது. இந்த விமானம்
வானில் பறக்க தகுதி உடையது தான் என்று கடந்த 25-ந்தேதி தான் சிவில் விமான போக்குவரத்து
இயக்குனரகம் சான்றிதழ் வழங்கி உள்ளது. </p>

<p> </p>

<p> </p>

<p>துணை பைலட்டாக வேலை
கிடைத்த பிறகு, முதல் விமான பயணமே கடைசி பயணமாக மாறியது: பெண் விமானி் ரிதுவின் சோக
கதை</p>

<p> </p>

<p> </p>

<p>புதுடெல்லி,
அக். 2- காங்கிரஸ் தலைவர் மாதவ ராவ் சிந்தியா பயணம் செய்த விமானத்தை இயக்கிய பெண்
ரிது மாலிக்கின் முதல் விமான பயணமே கடைசி பயணமாகி போனது. </p><p>
</p><p>
உ.பி. மாநிலம் மெயின்பூரி அருகே விமானம் தீபிடித்து விழுந்து நொறுங்கியதில் காங்கிரஸ்
மூத்த தலைவர் மாதவராவ் சிந்தியா உள்பட 8 பேர் பலியானது தெரிந்ததே. இந்த விமானத்தை
விமானி விவேக் குப்தா இயக்கினார். அவருக்கு துணை பைலட் ரிது மாலிக் உதவி செய்தார். இந்த
விபத்தில் அவர்கள் இருவருமே பலியாகி விட்டனர். </p><p>
</p><p>
பெண் விமானி </p><p>
</p><p>
துணை பைலட் ரிது மாலிக் (வயது 20) அரியானா மாநிலத்தை சேர்ந் தவர். இவரது தந்தை ஆர்.எஸ்.மாலிக்
ரோடக்கில் கலால் துறை துணை கமிஷனராக இருந்து வருகிறார். ரிது அவருக்கு ஒரே மகள். கடந்த
நவம்பர் மாதம் தான் ரிதுவின் தாய் இறந்தார். </p><p>
</p><p>
பயிற்சி </p><p>
</p><p>
விமானம் ஓட்டுவதில் ஆர்வம் உடைய ரிது பைலட் லைலென்சு வைத்துள்ளார். அண்மையில் ரே
பரேலியில் உள்ள இந்திரா காந்தி தேசிய விமான அகாடமியில் சேர்ந்து இரண்டுக்கு மேற்பட்ட
என்ஜின்கள் கொண்ட விமானத்தை இயக்க பயிற்சி பெற்றார். ரிதுவிற்கு ஓய்வு பெற்ற
விமானப்படை அதிகாரி பாத்வார் பயிற்சி அளித்தார். கடந்த 14-ந்தேதி தான் பயிற்சி
முடிந்தது. </p><p>
</p><p>
வேலை கிடைத்தது </p><p>
</p><p>
இதையடுத்து கடந்த சில நாட்களுக்கு முன் தான் ஜின்டல் நிறுவனத்தில் ரிதுவிற்கு துணை விமானி
வேலை கிடைத்தது. நேற்று முன்தினம் தான் முதல் முறையான ஜின்டல் நிறுவனத்திற்காக விமானத்தை
இயக்கினார். </p><p>
</p><p>
முதல்- கடைசி பயணம் </p><p>
</p><p>
ஆனால் வேலைக்கு சேர்ந்ததும் முதல் முறையாக அவர் விமானத்தில் மேற்கொண்ட பயணமே அவரது
கடைசி பயணமாக மாறி போனது. </p><p>
</p><p>
தோழி பேட்டி </p><p>
</p><p>
ரிது மாலிக்குடன் சேர்ந்து பயிற்சி பெற்ற பிரதிபா யாதவ் கூறுகையில் 2 நாளுக்கு முன் தான்
ரிதுவை விமான நிலையத்தில் பார்த்தேன். வேலை கிடைத்ததால் மிகவும் மகிழ்ச்சியாக
இருந்தார். முதல் மாத சம்பளத்தை வாங்க கூட அவர் இல்லையே என்று கதறிய படி கூறினார். </p><p>
</p><p>
தந்தை கதறல் </p><p>
</p><p>
ரிதுவின் உடலை பெற்றுக் கொள்ள நேற்று காலை அவரது தந்தை மாலிக் டெல்லி பாலம் விமான
நிலையத்துக்கு வந்திருந்தார். ரிதுவின் உடல் அடங்கிய சவப்பெட்டி விமானத்தில் இருந்து
இறக்கப்பட்டதும் மாலிக் கதறி அழுதார். கடந்த ஆண்டு தான் என் மனைவியை இழந்தேன்.
இப்போது என் ஒரே வாரிசையும் இழந்து விட்டேனே என்று அவர் கதறியது காண்போர்
நெஞ்சை உருக்கியது. அவரை விமான பயிற்சியாளர் பாத்வார் மற்றும் ரிதுவின் தோழி
பிரதிபா ஆகியோர் சமாதானப் படுத்தினர்.</p>

<p> </p>

<p>ஆப்கான் பிரச்சினையில்
புதிய திருப்பம்: பாக். அதிபர் முஷாரப் காந்தகார் செல்கிறார், தலிபானுடன் நேரடி பேச்சு
நடத்த முடிவு</p>

<p>  </p>

<p>
 
<gap desc="illustration"></gap></p>




 
  
  <p>முஷாரப் </p>
  
 




<p>இஸ்லாமாபாத், அக்.2- பின்லேடனை ஒப்படைக்கும்படி தலிபான் அரசை
வற்புறுத்த முஷாரப் நேரில் காந்தகார் செல்ல இருக்கிறார். தலிபானுடன் அவர் நேரடி பேச்சு
நடத்த உள்ளார். இதனால் ஆப்கான் பிரச்சினையில் புதிய திருப்பம் ஏற்பட்டுள்ளது.
</p>

<p>ஆப்கானில் ஒளிந்திருக்கும் சர்வதேச பயங்கரவாதி பின்லேடனை அமெரிக்காவிடம்
ஒப்படைக்கும்படி பாகிஸ்தான் வற் புறுத்தி வருகிறது. </p>

<p>தூதுக்குழு </p>

<p>இதற்காக பாக். உளவுப் படை (ஐ.எஸ்.ஐ.) தலைவரின் தலைமையில் தூதுக்குழுவை
காந்தகாருக்கு அனுப்பி வைத்தது. இந்த குழு பலமுறை காந்தகார் சென்று ஆப்கான் தலைவர் முல்லா
முகமது ஓமருடன் பேச்சு நடத்தியது. ஆனால் காரியம் கைகூடவில்லை. </p>

<p>இந்தநிலையில் பாக். அதிபர் முஷாரப் தானே நேரில் காந்தகார் சென்று பேச்சு
வார்த்தை நடத்த இருக்கிறார். விரைவில் அவர் காந்தகார் செல்வார் என்று புரண்டியர்
போஸ்ட் பத்திரிகை செய்தி வௌியிட்டுள்ளது. பின்லேடன் இப்போது தங்கள் கைவசம்தான்
இருப்பதாக தலிபான் அரசு ஒப்புக் கொண்டுள்ளது. எனவே பின்லேடனை ஒப்படைக்கும் பேச்சுவார்த்தை
இனி வெற்றிகரமாக முடிய வாய்ப்பு இருப்பதாக அந்த பத்திரிகை கூறியுள்ளது. </p><p>
  </p>

<p>ஆப்கானிஸ்தான் மீது, அமெரிக்கா 2 நாளில் தாக்குமா? </p><p>
தகவல் இல்லை என்கிறது
பாகிஸ்தான் </p>

<p>இஸ்லாமாபாத், அக். 2- </p><p>
ஆப்கானிஸ்தான் மீது 2
நாளில் அமெரிக்கா தாக்குதல் தொடுக்குமா? அது பற்றி தங்களுக்கு தகவல் இல்லை என்கிறது
பாகிஸ்தான். </p><p>
  </p>

<p>கடந்த செப்டம்பர் மாதம் 11-ந்தேதி அமெரிக்காவில் பயங்கரவாதிகள் தாக்குதல்
நடத்தி 6 ஆயிரம் பேரை கொன்று குவித்தார்கள். </p>

<p>இதற்கு சர்வதேச பயங்கர வாதி ஓசாமா பின்லேடன் தான் காரணம் என்று அமெரிக்கா
அறிவித்தது. அவன் இப்போதுஆப்கானிஸ்தானில் தலைமறைவாக இருக்கிறான். </p>

<p>படைகள் குவிப்பு </p>

<p>எனவே பின்லேடனையும், அவனுடைய கூட்டாளிகளையும் அழிக்க ஆப்கான் மீது தாக்குதல்
நடத்த போவதாக அமெரிக்க அதிபர் புஷ் அறிவித்தார். </p>

<p>அமெரிக்காவின் முடிவுக்கு உலகநாடுகௌல்லாம் ஆதரவு தெரிவித்து விட்டன. எனவே
அமெரிக்கா தனது முப்படை களையும் ஆப்கானை சுற்றி குவித்து வைத்துள்ளது. </p>

<p>தாக்குதல் எப்போது? </p>

<p>எந்த நேரத்திலும் ஆப்கானைஆளுகிற தலிபான் படையினருக்கு எதிராக அமெரிக்கா
தாக்குதல் நடத்தும் என எதிர்பார்க்கப்படுகிறது. இன்று, நாளை என்று 110 மாடி கட்டிடங்கள்
தகர்க்கப்பட்டு இதோடு 20 நாட்கள் கடந்து விட்டன. </p>

<p>இந்த நிலையில் இன்னும் 2 நாளில் ஆப்கான் மீது அமெரிக்கா தாக்குதல் நடத்தும்
என்கிற செய்தி பரவலாக நேற்று அடிபட்டது. </p>

<p>பாகிஸ்தான் மறுப்பு </p>

<p>இதுபற்றி நேற்று பாகிஸ்தான் வௌியுறவு துறை அதிகாரி ஒருவர் கருத்து
தெரிவிக்கையில் ஆப்கான் மீது 2 நாளில் அமெரிக்கா தாக்குதல் நடத்த போவதாக எங்களுக்கு
இதுவரை எந்்த தகவலும் இல்லை என்று கூறினார். </p>

<p>மேலும் அந்த அதிகாரி கூறியதாவது:- </p>

<p>அதுபோல தாக்குதல் நடத்த போவதாக அமெரிக்கா எங்களிடம் சொல்லவும் இல்லை.
போருக்கு தயாராக இருக்கும்படி எங்களை கேட்டு கொள்ளவும் இல்லை. </p>

<p>ஏற்க மாட்டார்கள் </p>

<p>இந்த நேரத்தில் அமெரிக்க பிரதிநிதிகள் யாரும் பாகிஸ்தானுக்கு வரவில்லை.
பின்லேடன் தங்கள் ஆப்கான் நாட்டில் இல்லை என்று எப்போதுமே தலிபான்கள் மறுக்கவில்லை.
</p>

<p>ஆப்கானில் எந்த ஆட்சியானாலும் அது வௌிநாட்டு சக்திகளால் திணிக்கப்படுமே
யானால் ஆப்கான் மக்கள் ஏற்றுக்கொள்ள மாட்டார்கள். </p>

<p>இவ்வாறு அவர் கூறினார். </p>

<p>எல்லையில் தலிபான் படை
குவிப்பு எதிரொலி: குவெட்டா விமானதளத்தில் இருந்து பாக். போர் விமானங்கள் அகற்றம்</p>

<p> </p>

<p>குவெட்டா, அக்.2- பாக். விமான தளமான குவெட்டாவில் இருந்து பாக்.
போர் விமானங்கள் அகற்றப்பட்டுள்ளன. குவெட்டா விமான தளம் ராணுவத்தின் பொறுப்பில்
விடப்பட்டுள்ளது. </p><p>
</p><p>
பாக்.-ஆப்கான் எல்லையில் தலிபான் படை குவித்து வரு கிறது. இதையடுத்து எல்லைப் பகுதியில்
உள்ள பாகிஸ்தான் விமானதளமான குவெட்டா ராணுவத்தின் பொறுப்பில் விடப்பட்டுள்ளது. அந்த
தளத்தில் இருந்த பாக். விமானப் படையினர் வௌியேற்றப்பட்டுள்ளனர். </p><p>
</p><p>
விமானம் இடமாற்றம்் </p><p>
</p><p>
அதுபோல குவெட்டா விமானதளத்தில் நிறுத்தி வைக்கப்பட்டிருந்த விமானங்களும் வேறு தளங்களுக்கு
இடம் மாற்றப்பட்டுள்ளன. அமெரிக்க விமானங்களுக்கு இடம்தரு வதற்காக பாக். போர்
விமானங்கள் அகற்றப்பட்டு இருப்பதாக கருதப்படுகிறது. </p><p>
</p><p>
ஸ்டிங்கர் ஏவுகணை </p><p>
</p><p>
குவெட்டா நகரத்தின் அருகே ஆப்கான் எல்லை உள்ளது. அங்கு தலிபான் படை யினர் நவீன விமான
வீழ்த்தி ஏவுகணையான ஸ்டிங்கர் ஏவுகணையுடன் நிறுத்தப்பட்டுள்ளனர். இதனால் பாக்.
விமானங்களுக்கு ஆபத்து ஏற்படும் என்று கருதி பாக். விமானங்்கள் அகற்றப்பட்டதாகவும்
கூறப்படுகிறது. </p><p>
</p><p>
வேறு அபாயம் </p><p>
</p><p>
போர் தொடங்கி விட்டால் பாக். விமானிகளை தலிபான் படையினர் விலைக்கு வாங்கி விடும்
ஆபத்தும் உள்ளது. போர் விமானங்களுடன் பாக். விமானிகள் ஆப்கானுக்கு தப்பிவிடுவார்கள்
என்பதாலும் பாக். விமானங்கள் குவெட்டாவில் இருந்து அகற்றப்பட்டிருப்பதாக தெரிகிறது. </p><p>
</p><p>
முக்கிய தளம் </p><p>
</p><p>
பலூஸ்சிதான் மாநிலத்தின் தலைநகரமான குவெட்டா பாகிஸ்தானின் மிக முக்கிய மான நகரம் ஆகும்.
ஆப்கான் எல்லையையொட்டி இது அமைந்துள்ளது. </p>

<p> </p>

<p>விமானம் மூலம் ஆப்கானை
தாக்குவது வீண் வேலை, அமெரிக்க அதிகாரிகள் கருத்து</p>

<p> </p>

<p>வாஷிங்டன், அக்.2- ஆப்கானிஸ்தான் மீது விமான குண்டுவீச்சு
நடத்துவது வீண் வேலை என்று அமெரிக்க அதி காரிகள் கருத்து தெரிவித்துள்ளனர். </p><p>
</p><p>
ஆப்கானிஸ்தான் மீது போர் மேகம் சூழ்ந்து வருவது தெரிந் ததே. எந்தநிமிடத்திலும் அமெ
ரிக்க போர் விமானங்கள் கழுகுகள் போல புறப்பட்டு ஆப்கான் மீது குண்டுவீசலாம் என எதிர்
பார்க்கப்படுகிறது. </p><p>
</p><p>
இந்த நிலையில் அமெரிக்க விமானப்படை உயர்அதிகாரிகள் வேறுவிதமான கருத்துக் களை
கூறிவருகிறார்கள். ஆப்கான் மீது விமான தாக்குதல் நடத்துவது வீண்வேலை என்று அவர்கள் கருதுகிறார்கள்.
</p><p>
</p><p>
இலக்கு இல்லை </p><p>
</p><p>
யூகோசுலாவியா நாட்டின் கொசாவா பிரச்சினையில் அமெரிக்கா ஏற்கனவே தலை யிட்டு அங்கு
விமான குண்டு வீச்சு நடத்தியிருக்கிறது. அங்கு தாக்குவதற்கேற்ற பல இலக்குகள் இருந்தன. ஆனால்
ஆப்கானை பொறுத்தவரை தாக்குவதற்கேற்ற வகையில் அங்கே குறிப்பிட்டு சொல்லும்படி எந்த ஒரு
இலக்கும் இல்லை. </p><p>
</p><p>
விமானதளம் </p><p>
</p><p>
ஆப்கானில் ஒருசில விமான நிலையங்கள், பாலங்கள், எரிபொருள் கிடங்குகள், தீவிரவாத
முகாம்கள் மட்டுமே தாக்குதலுக்கு சரியான இலக்குகள். தீவிரவாத முகாம்கள் அனைத்தும் தற்போது
காலி செய்யப்பட்டுவிட்டதாக உளவு படை தகவல் வந்துள்ளது. இந்த நிலையில் விமானநிலையம்,
சாலை மற்றும் பாலங்களை தகர்ப்பதால் தலிபான் படையினருக்கு பெரிய அளவில் எந்த
பாதிப்பும் வந்துவிடாது. </p><p>
</p><p>
தலிபான் படையினர் இடம் விட்டு இடம் செல்ல சிறிய ரக டிரக்குகளை (லாரிகளை) பயன்
படுத்துகின்றனர். எந்திர துப்பாக்கி பொருத்தப்பட்டு உள்ள இந்த வகை சிறிய ரக லாரிகளை
வானத்தில் இருந்தபடி தாக்குவது மிகவும் சிரமமான காரியம் ஆகும். இந்த லாரிகள் எப்போதும்
ஓடிக் கொண்டிருப்பதால் மிகவும் கடினமான இலக்குகளாக இவை உள்ளன. </p><p>
</p><p>
வீண் செலவு </p><p>
</p><p>
இதுதவிர அமெரிக்க விமானப்படை பயன்படுத்தும் குண்டுகள், ஏவுகணைகள் போன்றவை விலை
மதிப்புள்ளவை. அற்ப சொற்ப மதிப்புள்ள முகாம்களை அழிக்க விலை உயர்ந்த குண்டுகளை ஏன்
வீணாக்க வேண்டும்? என்று அமெரிக்க அதிகாரிகள் கருதுகிறார்கள். விமான தாக்குதல் நடத்த
அவர்கள் தயங்குவதற்கு இதுவும் ஒரு காரணம் ஆகும். </p><p>
</p><p>
பாராசூட் படை </p><p>
</p><p>
விமானங்களில் இருந்து குண்டுவீசுவதற்கு பதில் பாராசூட் மூலம் அங்கங்கே அதி ரடிப்படையினரை
இறக்கி தாக்குதல் நடத்தலாம் என்று உயர் அதிகாரிகள் கருதுகிறார்கள். </p><p>
</p><p>
நியூஸ்வீக் பத்திரிகை இந்த தகவலை தெரிவித்துள்ளது. </p>

<p> </p>

<p>பயங்கரவாதிகளுக்கு இடம்
தரும், தலிபான் அரசு ஆட்சியில் நீடிக்கக்கூடாது, அமெரிக்கா ஆவேசம்</p>

<p> </p>

<p>வாஷிங்டன், அக்.2- பயங்கரவாதிகளுக்கு இடம் தரும் தலிபான் அரசு
ஆட்சியில் நீடிக்கக்கூடாது என்று அமெரிக்கா ஆவேசமாக அறிவித்துள்ளது. </p><p>
</p><p>
சர்வதேச பயங்கரவாதி பின்லேடன் எங்கள் வசம் இல்லை என்று தலிபான் அரசு மறுத்து வந்தது
அல்லவா? அவர் எங்கே போனார் என் பதே தெரியவில்லை என்று தலிபான் அமைப்பினர் கடந்த
ஒரு வாரமாக கூறி வந்தனர். </p><p>
</p><p>
இந்தநிலையில் நேற்றுமுன் தினம் பாகிஸ்தானுக்கான தலிபான் தூதர் அப்துல் சலாம் சாயிப்
புதிய தகவலை வௌி யிட்டார். பின்லேடன் எங்கள் வசம்தான் உள்ளார். யாரும் அறியாத
இடத்தில் பாதுகாப்பாக இருக்கிறார் என்று அறிவித்தார். இது அமெரிக்காவுக்கு கடும்
ஆத்திரத்தை ஏற்படுத்தி உள்ளது. </p><p>
</p><p>
ஆவேசம் </p><p>
</p><p>
இதுபற்றி அமெரிக்க வௌ்ளை மாளிகையின் தலைமை அதிகாரி ஆண்ட்ரு கார்டு ஆவேசமாக
கூறியதாவது:- </p><p>
</p><p>
பயங்கரவாதிகளை தங்கள் பொறுப்பில் வைத்திருப்பதாக தலிபான் அரசு அறிவித்திருப்பது
அடாவடியானது. அதை ஏற்க முடியாது. இதே நிலை தொடர்ந்தால் தலிபான் அரசு ஆட்சியில் நீடிக்க
முடியாது. </p><p>
</p><p>
விலைதர வேண்டும் </p><p>
</p><p>
தலிபான் அரசு பயங்கரவாதிகளுக்கு தளம் அமைத்து கொடுத்து அவர்களை உலகம் முழுவதும் சுதந்திரமாக
சுற்றித் திரிய வைக்கிறது. தலிபான் இதற்கான விலையை தந்தே தீர வேண்டும். </p><p>
</p><p>
இவ்வாறு கூறியுள்ளார். </p>

<p> </p>

<p>ரசாயன தாக்குதல் பீதி:
அமெரிக்கா நிதி தர பாக். கோரிக்கை</p>

<p> </p>

<p>ஐ.நா., அக்.2- பின்லேடன் ரசாயன தாக்குதல் நடத்துவான் என்ற பீதி
பாகிஸ்தானில் ஏற்பட்டுள்ளது. ரசாயன தாக்குதலை சமாளிக்க ரூ.5 கோடி தரும்படி
அமெரிக்காவிடம் பாக். வற்புறுத்தி வருகிறது. </p><p>
</p><p>
ஆப்கானில் பதுங்கியிருக்கும் பின்லேடனிடம் ஆபத்தான பேரழிவு ரசாயன ஆயுதங்கள் உள்ளன.
ஆப்கான் மீது அமெரிக்கா தாக்குதல் நடத்தும் பட்சத்தில் முதல்கட்டமாக பாகிஸ்தான் மீது
பின்லேடன் ரசாயன தாக்குதல் நடத்துவான் என எதிர்பார்க்கப்படுகிறது. </p><p>
</p><p>
ரூ.5 கோடி </p><p>
</p><p>
இதனால் பாகிஸ்தானில் பெரும் பீதி ஏற்பட்டுள்ளது. ரசாயன தாக்குதல் நடந்தால் பாக்.
மக்களுக்கு தடுப்பூசி போட பாகிஸ்தான் திட்டமிட்டுள்ளது. இதற்காக நடமாடும் ஆய்வறைகளை
உருவாக்க பாக். திட்டமிட்டுள்ளது. இதற்கு பெரும் பொருள் செலவாகும் என்பதால்
அமெரிக்காவிடம் பாக். ரூ.5 கோடி நிதி கேட்டுள்ளது. அதுபோல உலக சுகாதார கழகத்திடமும்
பாக். உதவி கேட்டுள்ளது. </p><p>
</p><p>
அமெரிக்காவில் பீதி </p><p>
</p><p>
பின்லேடன் ரசாயன தாக்குதல் நடத்துவான் என்ற பீதி அமெரிக்காவையும் வாட்டு கிறது. இந்த
தாக்குதலை சமாளிக்க அமெரிக்க எரிசக்தித் துறை உஷார் படுத்தப்பட்டுள்ளது. ரசாயன தாக்குதல்
நடந்தவுடன் அதை கண்டுபிடிக்க வாஷிங்டன் நகரின் பல இடங்களில் கருவிகள் பொருத்தப்பட்டுள்ளன.
</p><p>
</p><p>
ஐ.நா. கோரிக்கை </p><p>
</p><p>
இதனிடையே அணு மற்றும் ரசாயன, கிருமி ஆயுதங்களுக்கு எதிராக ஐக்கிய நாடுகள் சபை உறுதியான
நடவடிக்கைகளை எடுக்க வேண்டும் என்று ஐ.நா. பொதுச்செயலர் கோபி அன்னான் கோரிக்கை
விடுத்துள்ளார். </p>

<p> </p>

<p>கூட்டணிப்படை வசம் இருந்த,
ஆப்கானின் முக்கிய பகுதியை தலிபான் படை பிடித்தது</p>

<p> </p>

<p>இஸ்லாமாபாத், அக். 2- கூட்டணிப்படை வசம் இருந்த முக்கிய பகுதியை
தலிபான் படைகள் மீண்டும் பிடித்தன. </p><p>
</p><p>
ஆப்கானிஸ்தானில் ஆட்சியில் இருக்கும் தலிபான் படைகளுக்கும், வடக்கு கூட்டணிப் படைக்கும்
இடையே கடும் மோதல் நடந்து வருகிறது. இந்தியா, ரஷியா, ஈரான் போன்ற நாடுகளின் ஆதரவுடன்
செயல்படும் இந்த வடக்கு கூட்டணிப் படையின் தலைவராக ரபானி செயல்படுகிறார். </p><p>
</p><p>
ஐ.நா. அங்கீகாரம் </p><p>
</p><p>
ஆப்கானின் சுமார் 5 சத வீத பகுதி அவரது கைவசம் உள்ளது. அங்கு அரசாங்கம் ஒன்றையும்
கூட்டணிப்படையினர் செயல்படுத்தி வருகின்றனர். ரபானி தலைமையிலான அந்த அரசையே உண்மையான
ஆப்கான் அரசாக ஐ.நா. அங்கீ கரித்துள்ளது. </p><p>
</p><p>
20 சதவீத பகுதி </p><p>
</p><p>
இந்தநிலையில் பின்லேடன் பிரச்சினை ஏற்பட்டு ஆப்கானை சுற்றி அமெரிக்கா படைகளை
குவித்ததில் இருந்து வடக்கு கூட்டணிப்படை அதன் தாக்குதலை தீவிரப்படுத்தி வந்தது. இதில்
மிகப்பெரிய வெற்றிகள் கிடைத்தன. சுமார் 20 சதவீத நிலப்பகுதி கூட்டணி படை வசமானது.
தலைநகர் காபூலுக்கு வடக்கே உள்ள பக்ராம் விமானநிலையம் கூட்டணிப்படை வசமானது. காபூலை
பிடித்துவிடும் நோக்கத்தில் கூட்டணிப்படை முன் னேறி வந்தது. </p><p>
</p><p>
லஞ்சம் </p><p>
</p><p>
ஆப்கானிஸ்தானில் நடக்கும் ஒவ்வொரு போரிலும் சண்டையிடும் குழுக்கள் எதிர்ப் படையின்
முக்கிய தலைவர்களுக்கு பரஸ்பரம் லஞ்சம் கொடுத்து அவர்களை தங்களுக்கு சாதகமாக்கி
கொள்வது வழக்கம். அதேப்போல தற்போது நடைபெறும் போரிலும் நடந்துள்ளது. </p><p>
</p><p>
முக்கிய பகுதி </p><p>
</p><p>
வடக்கு கூட்டணிப்படை மேலும் மேலும் முன்னேறி வருவதை கண்ட தலிபான் அமைப்பினர்
எதிரிபடையின் முக்கிய பிராந்திய தலைவர்கள் 60 பேருக்கு லஞ்சம் கொடுத்து சரிக்கட்டினர்.
அந்த 60 பேரும் அவர்களுக்கு விசுவாசமான வீரர்களுடன் தலிபான் பக்கம் சேர்ந்தனர். இதனால்
கூட்டணிப்படை வசமிருந்த பட்கிஸ் பகுதி நேற்று தலிபான் வசமானது. </p><p>
</p><p>
600 பேர் தலைமறைவு </p><p>
</p><p>
இதனிடையே தலிபான் படையைச் சேர்ந்தவர்களும் எதிர்க்கூட்டணி பக்கம் சாய்ந்து
வருகிறார்கள். தலிபான் படையில் இதுவரை 600 பேர் தலை மறைவாகி இருப்பதாக தகவல்கள்
கூறுகின்றன. </p><p>
</p><p>
நிலைமை இவ்வாறிருக்க பாக். எல்லையோரமும் தலிபான் படை குவித்து வருகிறது. விமானங்களை
சுட்டு வீழ்த்தும் ஸ்டிங்கர் ஏவுகணையுடன் இவர்கள் நிறுத்தப்பட்டு உள்ளனர். பின்லேடன்
படையில் பல்வேறு அரபுநாடுகளைச் சேர்ந்த தீவிரவாதிகள் உண்டு. அவர்களும் அமெரிக்கத்
தாக்குதலை சமாளிக்க பாக். எல்லையோரம் நிறுத்தப்பட்டு உள்ளனர். </p>

<p> </p>

<p>உள்ளாட்சி தேர்தல்: கடைசி
நாளில் 1 லட்சம் பேர் வேட்பு மனு, 4 லட்சம் பேர் இதுவரை தாக்கல்</p>

<p> </p>

<p>சென்னை, அக். 2- தமிழகத்தில் வரும் உள்ளாட்சி தேர்தலில்
போட்டியிட கடைசி நாளில் மட்டும் 1 லட்சம் பேர் மனு செய்து உள்ளனர். கடந்த 7 நாட்களில்
4 லட்சம்பேர் இதுவரை வேட்பு மனு தாக்கல் செய்திருக்கிறார்கள். </p><p>
</p><p>
தமிழகத்தில் 6 மாநகராட்சிகளும், 102 நகராட்சிகளும், 385 பஞ்சாயத்து யூனியன்களும்,
611 பேரூராட்சிகளும், 12 ஆயிரத்து 619 கிராம பஞ்சாயத்துக்களும் உள்ளன. இந்த
அமைப்பு களுக்கான உள்ளாட்சி தேர்தல் வரும் 16, 18 ஆகிய தேதிகளில் இரண்டு கட்டமாக
நடக்கிறது. </p><p>
</p><p>
இதற்கான வேட்புமனு கடந்த மாதம் 24-ந்தேதி தொடங்கியது. நேற்று பகல் 3 மணியுடன்
வேட்புமனு தாக்கல் முடிவடைந்தது. வரும் 3-ந்தேதி மனுக்கள் அனைத்தும் பரி சீலனை
செய்யப்படுகிறது. வேட்புமனு தாக்கல் செய்து விட்டு தேர்தலில் போட்டியிட விரும்பாதோர்
5-ந்தேதி பகல் 3 மணிக்குள் தங்கள் மனுக்களை வாபஸ் பெற்றுக்கொள்ளலாம். </p><p>
</p><p>
என்னென்ன பதவிகள்? </p><p>
</p><p>
மாநகராட்சி மேயர், மாநகராட்சி வார்டு உறுப்பினர், நகரசபை தலைவர், நகரசபை கவுன்சிலர்,
டவுன் பஞ்சாயத்து தலைவர், டவுன் பஞ்சாயத்து வார்டு உறுப்பினர்,
பஞ்சாயத்து வார்டு உறுப்பினர், மாவட்ட பஞ்சாயத்து வார்டு உறுப்பி னர், கிராம
பஞ்சாயத்து தலை வர், கிராம பஞ்சாயத்து வார்டு உறுப்பினர் என மொத்தம்
1,31,292 பதவிகளுக்கு இந்த தேர்தல் நடக்கிறது. </p><p>
</p><p>
கூட்டம் அலைமோதியது </p><p>
</p><p>
வேட்புமனு தொடக்கநாள் அன்று 19 ஆயிரத்து 881 பேர் மட்டுமே மனு செய்திருந்தனர். ஆனால்
தற்போது 4 லட்சம் பேர் வேட்புமனு தாக்கல் செய்திருக்கிறார்கள். நேற்று மட்டும் ஒரு
லட்சத்துக்கும் மேற் பட்டவர்கள் மனு செய்து உள்ளனர்.வேட்புமனு தாக்கல் செய்ய நேற்று
கடைசி நாள் என்பதால் தமிழகத்தில் உள்ள அனைத்து மாநகராட்சி மற்றும் நகராட்சி,
ஊராட்சி, பேரூராட்சி உள்பட அனைத்து உள்ளாட்சி அமைப்பு அலுவல கங்களிலும் கூட்டம் அலை
மோதியது. </p><p>
</p><p>
சென்னை மாநகர மேயர் பதவிக்கு தி.மு.க.சார்பில் மு.க.ஸ்டாலின், நா.பாலகங்கா
(அ.தி.மு.க.), வசந்தகுமார் (காங் கிரஸ்), மனோகரன் (ம.தி.மு.க.), உள்பட 24 பேர்
போட்டி யிடுகிறார்கள். இந்த தேர்தலில் மின்னணு வாக்குப்பதிவு எந்திரங்கள் பயன்படுத்தப்
படவில்லை. அதே போல் தேர்தல் பிரசார நேரமும் நீட்டிக்கப்பட்டு உள்ளது. அதன் படி இரவு 11
மணிவரை வேட் பாளர்களை ஆதரித்து அந்தந்த கட்சி சார்பில் பொதுக் கூட்டம் நடத்தலாம்.
பிரசாரமும் செய்யலாம். </p><p>
</p><p>
கட்சிஅடிப்படையில்தேர்தல் </p><p>
</p><p>
இந்த உள்ளாட்சி தேர்தலின் போது கடந்த 96-ம் ஆண்டு பின் பற்றப்பட்ட இட ஒதுக்கீட்டு
முறையே கடைபிடிக்கப்பட்டு உள்ளது.சிற்றூராட்சி தலைவர் மற்றும் வார்டு உறுப்பினர்களுக் கான
தேர்தல் கட்சி அடிப்படை யின்றி நடைபெறவிருக்கிறது. மற்றவைகளுக்கு கட்சி அடிப்படையில்
தேர்தல் நடை பெறும். </p><p>
</p><p>
கிராமபகுதிகளில் 4 வகை யான வாக்குச்சீட்டுகளும், நகர்ப்புறங்களில் 2 வகையான
வாக்குச்சீட்டுகளும் பயன்படுத் தப்படும். உள்ளாட்சி அமைப்பு தேர்தல் விதிப்படி
அங்கீகரிக் கப்பட்ட அரசியல் கட்சிகளுக்கு மட்டும் சின்னம் ஒதுக்கப்பட்டு உள்ளது.
அங்கீகரிக்கப்படாத கட்சிகளுக்கும், சுயேச்சை களுக்கும் தேர்தல் ஆணையம் சார்பில் சின்னம்
ஒதுக்கப்பட விருக்கிறது. </p><p>
</p><p>
தகுதிநீக்கம் </p><p>
</p><p>
தேர்தல் செலவு கணக்கு களை தேர்தல் முடிவு வௌி யான 30 நாட்களுக்குள் தேர்தல்
ஆணையத்திடம் ஒப்படைக்க வேண்டும். இந்த நடைமுறை தவறியவர்கள் தகுதி நீக்கம்
செய்யப்படுவார்கள். </p><p>
</p><p>
தற்போதைய நிலவரப்படி தமிழகத்தில் 4 கோடியே 66 லட்ச மொத்த வாக்காளர்கள் உள்ளனர்.
வாக்காளர் அடையாள அட்டை அல்லது தேர்தல் ஆணையம் நிர்ண யித்து உள்ள 18 வகையான
ஆவணங்களில் ஏதேனும் ஒன்றை காண்பித்து பொது மக்கள் வாக்களிக்க ஏற்பாடு செய்யப்பட்டு
உள்ளது. </p><p>
</p><p>
போலீஸ் பாதுகாப்பு </p><p>
</p><p>
இந்த உள்ளாட்சி தேர் தலுக்கு 2 லட்சத்து 76 ஆயிரம் வாக்குப்பெட்டிகள் தயார் நிலையில்
உள்ளன. தமிழகம் முழுவதும் 79 ஆயிரம் வாக்கு சாவடிகள் அமைக்கப்படவிருக்கிறது.
பதட்டத்துக்குரிய வாக்கு சாவடிகளில் பலத்த போலீஸ் பாதுகாப்புக்கும் ஏற்பாடு செய்யப்பட்டு
உள்ளது. </p>

<p> </p>

<p>6 மேயர் பதவிக்கு 89 பேர்
போட்டி, நெல்லை அ.தி.மு.க. வேட்பாளரை எதிர்த்து 5 பெண்கள் திடீர் மனுதாக்கல்</p>

<p> </p>

<p>சென்னை, அக்.2- உள்ளாட்சித் தேர்தலுக்கு வேட்பு மனு தாக்கல்
நேற்று முடிவு அடைந்தது. இதில் சென்னை, நெல்லை, கோவை, திருச்சி, மதுரை, சேலம் ஆகிய 6
மாநகராட்சி மேயர் பதவிக்கு 89 பேர் போட்டியிடுகிறார்கள். </p><p>
</p><p>
சென்னை மாநகராட்சி மேயர் பதவிக்கு 24 பேர் போட்டியிடுகிறார்கள். </p><p>
</p><p>
மு.க.ஸ்டாலின்- தி.மு.க., பாலகங்கா- அ.தி.மு.க., எச்.வசந்த குமார்- காங்கிரஸ்,
வீரமுத்து- விடுதலை சிறுத்தைகள். மேலும் 20 பேர் மனு தாக்கல் செய்து இருக்கிறார்கள். </p><p>
</p><p>
கோவை </p><p>
</p><p>
கோவை மேயர் பதவிக்கு 10 பேர் போட்டியிடுகிறார்கள். வக்கீல் மயில்சாமி- பா.ஜ.க.,
தா.மலரவன்-அ.தி.மு.க., வக்கீல் சோமசுந்தரம்- ம.தி.மு.க., அழகு ஜெயபாலன் -மக்கள் தமிழ்
தேசம், வீர ராஜன் - இந்து மக்கள் கட்சி, சுசி கலையரசன்- விடு தலை சிறுத்தைகள்,
என்.ஆர். அரிக் குமார்-தமிழக மக்கள் காங் கிரஸ், கேசவன்- தேசியவாத காங்கிரஸ்,
ராமானுஜம்- காங் கிரஸ், இளங்குமரன்- சுயேட்சை. </p><p>
</p><p>
இவர்களில் காங்கிரஸ் கூட்டணி வேட்பாளர் அழகு ஜெயபாலனை எதிர்த்து கோவை மாவட்ட
காங்கிரஸ் கட்சி பொருளாளர் ராமானுஜம் போட்டி யிடுகிறார். </p><p>
</p><p>
நெல்லை </p><p>
</p><p>
நெல்லை மேயர் பதவிக்கு 12 பேர் மோதுகின்றனர். </p><p>
</p><p>
உமா மகேசுவரி- தி.மு.க., ஜெயராணி- அ.தி.மு.க., வக்கீல் சுஜிதா- ம.தி.மு.க., ராஜேசுவரி-
புதிய தமிழகம், மேலும் 8 பேர் வேட்பு மனு தாக்கல் செய்து உள்ளனர். இவர்களில்
அ.தி.மு.க. சார்பில் சீட் கேட்டு மனு செய்திருந்த 5 பெண்களும் நேற்று திடீரென மனு தாக்கல்
செய்தனர். இவர்களில் முருகேசன் எம்.பி.யின் மனைவி வசந்தி முருகேசனும் ஒருவர். அ.தி.மு.க
.வின் அதிகாரப்பூர்வ வேட்பா ளராக ஜெயராணி மனு தாக்கல் செய்திருக்கும் போது வசந்தி
முருகேசனும் மனு தாக்கல் செய்தது அ.தி.மு.க.வினரிடையே அதிர்ச்சியை ஏற்படுத்தி உள்ளது. </p><p>
</p><p>
திருச்சி </p><p>
</p><p>
திருச்சி மாநகராட்சி மேயர் தேர்தலில் 10 பேர் களத்தில் உள்ளனர். </p><p>
</p><p>
நிர்மலா லோகநாதன் - தி.மு.க., சாருபாலா தொண்ட மான்- த.மா.கா., எமிலி ரிச்சர்டு-
காங்கிரஸ், மார்க்ரெட் லிண்டா- விடுதலை சிறுத்தைகள், மலர்க் கொடி- புதிய தமிழகம்
மேலும் 5 சுயேட்சை வேட்பாளர்கள் மனு தாக்கல் செய்து உள்ளனர். </p><p>
</p><p>
மதுரை </p><p>
</p><p>
மதுரை மேயர் பதவிக்கு 18 பேர் மனு தாக்கல் செய்து உள்ளனர். </p><p>
</p><p>
செ.ராமச்சந்திரன்- தி.மு.க., செல்லூர் ராஜு- அ.தி.மு.க., நாகலிங்கம்- காங்கிரஸ்,
இரா.ஜோதி ராம்- மார்க்சிய கம்யூ., பாஸ்கர சேதுபதி-ம.தி.மு.க., ஜான் மோசஸ்- ஜனதா
தளம். மேலும் 12 சுயேட்சை வேட்பாளர்களும் களத்தில் உள்ளனர். </p><p>
</p><p>
சேலம் </p><p>
</p><p>
சேலம் மாநகராட்சி மேயர் பதவிக்கு 15 பேர் போட்டியிடுகிறார்கள். </p><p>
</p><p>
அருள்- பா.ம.க., சுரேஷ் குமார்-அ.தி.மு.க., எம்.ஏ.டி. கிருஷ்ணசாமி- காங்கிரஸ், காசி
விசுவநாதன்- புதியநீதிக்கட்சி, கோவிந்தராஜன்- ம.தி.மு.க., அரங்க செல்லத்துரை- விடுதலை
சிறுத்தைகள். </p><p>
</p><p>
மேலும் 9 பேர் வேட்பு மனு தாக்கல் செய்து உள்ளனர். </p>

<p> </p>

<p>உள்ளாட்சி தேர்தல்: கோவை
மாவட்டத்தில் எத்தனை பேர் போட்டி?</p>

<p> </p>

<p>கோவை, அக். 2- கோவை மாவட்டத்தில் உள்ளாட்சி அமைப்புகளில்
போட்டியிட எத்தனை பேர் வேட்புமனு தாக்கல் செய்துள்ளனர்? என்ற விவரம் வருமாறு:- </p><p>
</p><p>
கோவை மாநகராட்சி மேயர் பதவிக்கு 19 பேர் (மாற்று வேட் பாளர்கள் உள்பட)
வேட்புமனுதாக்கல் செய்துள்ளனர். 72 கவுன்சிலர் பதவிக்கு 809 பேர் மனுதாக்கல்
செய்துள்ளனர். இதுதவிர திருப்பூர் நகராட்சி தலைவர் பதவிக்கு 26 பேரும், கவுன்சிலர்
பதவிக்கு 569 பேரும், பொள்ளாச்சி நகராட்சி தலைவர் பதவிக்கு 23 பேரும், கவுன்சிலர்
பதவிக்கு 268 பேரும், உடுமலை நகராட்சி தலைவர் பதவிக்கு 6 பேரும், கவுன்சிலர் பதவிக்கு
185 பேரும், மேட்டுப் பாளையம் நகரகாட்சி தலைவர் பதவிக்கு 20 பேரும், கவுன்சிலர்
பதவிக்கு 273 பேரும் வேட்புமனு தாக்கல் செய்துள்ளனர். 59 பேரூ ராட்சி தலைவர் பதவிக்கு
598 பேரும், 957 பேரூராட்சி கவுன்சிலர் பதவிக்கு 5,628 பேரும், 389 சிற்றூராட்சி
தலைவர் பதவிக்கு 2,291 பேரும், 1,315 சிற்றூராட்சி கவுன்சிலர் பதவிக்கு 12,692 பேரும்
வேட்புமனு தாக்கல் செய்துள்ளனர். 268 ஊராட்சி ஒன்றிய கவுன்சிலர் பதவிக்கு 1,781
பேரும், 27 மாவட்ட பஞ்சாயத்து கவுன்சிலர் பதவிக்கு 183 பேரும் வேட்புமனு தாக்கல்
செய்துள்ளனர். </p><p>
</p><p>
இந்த தகவலை கோவை மாவட்ட கலெக்டரும், தேர்தல் அதிகாரியுமான முருகானந்தம்
தெரிவித்தார். </p>

<p> </p>

<p>ரெயில் கட்டண உயர்வு
அமுலுக்கு வந்தது, நெல்லைக்கு ரூ.20 உயர்ந்தது</p>

<p> </p>

<p>சென்னை, அக். 2- ரெயில் கட்டண உயர்வு நேற்று முதல் அமுலுக்கு
வந்தது. இதன்படி நெல்லைக்கு மட்டும் ரூ.20 உயர்ந்து உள்ளது. </p><p>
</p><p>
இந்தியா முழுவதும் பயணிகள் ரெயில், சிறப்பு ரெயில்கள் மற்றும் புறநகர் மின்ரெயில்
களில் பயணிகளின் பாதுகாப்பு வசதிகளை மேம்படுத்தவும், விபத்து ஏற்பட்டால் பயணிகளுக்கு
உரிய நிவாரண நிதி கிடைக்கவும் வழி வகுக்கும் வகையில் பாதுகாப்பு சேவை கட்டணம்
வசூலிக்கும் திட்டத்தை ரெயில்வே துறை நேற்று முதல் அமுல்படுத்தி உள்ளது. </p><p>
</p><p>
அதன்படி சாதாரண ரெயில்களில் 2-வது வகுப்பு கட்டணம் 500 கிலோ மீட்டர் மற்றும் அதற்கு
மேற்பட்ட தூரத் துக்கு கூடுதலாக ரூ.1-ம், எக்ஸ்பிரஸ் ரெயில் மற்றும் மெயில் ரெயில்களில்
500 கிலோ மீட்டர் மற்றும் அதற்கு மேற்பட்ட தூரத்துக்கு கூடுதலாக ரூ.2-ம் உயர்த் தப்பட்டு
உள்ளது. </p><p>
</p><p>
குளுகுளு வசதி </p><p>
</p><p>
படுக்கை வசதி பெறும் பயணிகளுக்கு 500 கிலோ மீட் டர் தூரத்துக்கு ரூ.10-ம், 500 கிலோ
மீட்டருக்கு மேற்பட்ட தூரத்துக்கு ரூ.20-ம் செலுத்த வேண்டும். குளுகுளு வசதி செய்யப்பட்ட
சேர்-கார் பெட்டிகளிலும், முதல் வகுப்பு பெட்டிகளிலும் பயணம் செய்பவர்களுக்கு 500 கிலோ மீட்டர்
தூரத்துக்கு ரூ.20-ம், அதற்கு மேற்பட்ட தூரத்துக்கு ரூ.40-ம் உயர்ந்து உள்ளது. இதன்படி
நெல்லைக்கு ரூ.20-ம், கன்னியா குமரிக்கு ரூ.40-ம் உயர்ந்து உள்ளது. </p><p>
</p><p>
குளுகுளு வசதி செய்யப் பட்ட 3 அடுக்கு படுக்கை வசதி கொண்ட பெட்டிகளில் பயணம் செய்பவர்கள்
500 கிலோமீட்டர் தூரத்துக்கு ரூ.30-ம், அதற்கு மேற்பட்ட தூரத்துக்கு ரூ.60-ம் செலுத்த
வேண்டும். </p><p>
</p><p>
கூடுதல் கட்டணம் </p><p>
</p><p>
குளுகுளு வசதி செய்யப் பட்ட 2 அடுக்கு படுக்கை வசதி கொண்ட பெட்டிகளிலும் செல்லும் பயணிகள்
500 கிலோ மீட் டர் தூரத்துக்கு ரூ.40-ம், அதற்கு மேற்பட்ட தூரத்துக்கு ரூ.80-ம்
செலுத்தவேண்டும். குளுகுளு வசதியுடன் கூடிய முதல் வகுப்பு பெட்டிகளில் 500 கிலோமீட்டர்
தூரத்துக்கு ரூ.50-ம், அதற்கு மேற்பட்ட தூரத்துக்கு ரூ.100-ம் பயணிகளிடம் வசூலிக்கப்படும்.
</p><p>
</p><p>
இதுதவிர நேற்று முதல் சீசன் டிக்கெட் கட்டணமும் அதிகரிக்கப்பட்டு உள்ளது. முதல் வகுப்பு
பயணிகள் ரூ.20-ம், 2-வது வகுப்பு பயணி கள் ரூ.10-ம் கூடுதலாக செலுத்த வேண்டும். </p><p>
</p><p>
பாதுகாப்புசேவைகட்டணம் </p><p>
</p><p>
3 மாதத்திற்காக சீசன் டிக்கெட் பெறும் முதல் வகுப்பு பயணிகள் ரூ.60-ம், 2-வது வகுப்பு
பயணிகள் ரூ.20-ம் செலுத்தவேண்டும். மாணவர்களுக்கான இலவச பயண டிக்கெட்டுக்கு பாதுகாப்பு
சேவை கட்டணம் கிடையாது. </p>

<p> </p>

<p>எல்லை பாதுகாப்பு படைவீரர்
600 பேர் வாபஸ்: வீரப்பன் வேட்டை பாதிக்காது, நரேஷ்குப்தா பேட்டி</p>

<p> </p>

<p>சென்னை, அக்.2- எல்லை பாதுகாப்பு படை வீரர்கள் 600 பேரை வாபஸ்
பெற்றதால் வீரப்பன் தேடுதல் வேட்டையில் பாதிப்பு ஏற்படாது என்று தமிழக உள்துறை
செயலாளர் நரேஷ் குப்தா கூறினார். </p><p>
</p><p>
தமிழக உள்துறை செயலாளர் நரேஷ்குப்தா நேற்று கோட்டையில் நிருபர்களிடம் கூறியதாவது:- </p><p>
</p><p>
வீரப்பனை தேடும் பணியில் எல்லை பாதுகாப்பு படை வீரர்கள் 600 பேர் ஈடுபட்டு
இருந்தனர். இவர்கள் கூட்டு அதிரடிப் படையுடன் இணைந்து வீரப்பனை தேடி வந்தனர். இந்த
நிலையில் ஜார்க்கண்ட் பிரச்சினைக்காக மத்திய எல்லை பாதுகாப்பு படையினர் தேவைப்படுவதாக
மத்திய அரசு கேட்டது. இங்கே அவர்கள் பணி தேவைப்படுகிறது என்று நாங்கள் கூறி னோம்.
ஆனாலும் எல்லை பாதுகாப்பு படையினரை மத்திய அரசு திரும்ப அழைத்து கொண்டது. </p><p>
</p><p>
தேடும் பணி தொடரும் </p><p>
</p><p>
கேள்வி:- இதனால் வீரப்பனை தேடும் பணியில் பாதிப்பு ஏற்படுமா? </p><p>
</p><p>
பதில்:- வீரப்பனை தேடுவதில் எந்த பாதிப்பும் ஏற்படாது. வீரப்பனை தேடும் பணியில்
ஏற்படும் ஆள் பற்றாக்குறையை போக்க தமிழ்நாடு சிறப்பு காவல் படையினர் அனுப்பி
வைக்கப்படுவார்கள். வீரப் பனை தேடும்பணி தொடரும். வீரப்பனை பிடிப்பதில் மாநில அரசு
மிகவும் உறுதியாக உள்ளது. </p><p>
</p><p>
இவ்வாறு அவர் கூறினார். </p>

<p> </p>

<p>வாகன ஓட்டுனர் உரிமம் பெற
கட்டண உயர்வு அமுலாக்காதீர்: அரசுக்கு சி.எம்.டி.ஏ.ஏ. கோரிக்கை</p>

<p> </p>

<p>சென்னை, அக். 2- வாகன ஓட்டுனர் உரிமம்பெற, சான்றிதழ் பெற,
உரிமம் புதுப்பித்தல் போன்ற பணிகளுக்கு கட்டணம் உயர்த்தப்பட்டிருப் பதை அமுலாக்கக்கூடாது
என்று அரசுக்கு கோரிக்கை விடுக்கப்பட்டுள்ளது. </p><p>
</p><p>
சென்னை பெருநகர் டிரான்ஸ்போர்டிங் ஏஜென்ட்ஸ் அசோசியேசன் சார்பில் அதன் தலைவர்
யேசுதாஸ், செயலாளர் மோகன்ராஜ் மற்றும் நிர்வாகிகள் தமிழக முதன்மந்திரி
பன்னீர்செல்வம், போக்குவரத் துத்துறை மந்திரி நயினார் நாகேந்திரன் ஆகியோருக்கு
அனுப்பியுள்ள கோரிக்கை மனுவில் கூறி இருப்பதாவது:- </p><p>
</p><p>
வாகன ஓட்டுனர்களாக பணியாற்ற வருபவர்களும், அதிக அளவில் ஓட்டுனராக பணியாற்றி வருபவர்களும்
மிகவும் ஏழை எளியவர்களே. வாகனம் சம்பந்தப்பட்ட அனைத்து தொழில்களும் மிக வும் நலிந்த
நிலையில் சிரம மான சூழ்நிலையில் அல்லல் பட்டுக் கொண்டிருக்கும் இவ் வேளையில்
வாகனங்களை ஓட்டுபவர்களாக பணியாற்றிக் கொண்டிருக்கும் லட்சக்கணக்கான ஓட்டுனர்கள் போதிய
வருவாய் இன்றி தங்களது குடும்பத்தை காப்பாற்ற மிகவும் சிரமப்பட்டு கொண்டிருக்கி றார்கள்.
</p><p>
</p><p>
கைவிட வேண்டும் </p><p>
</p><p>
இந்நிலையில் வாகனம் ஓட்ட உரிமம் பெறுவதற்கும், ஓட்டுனர் பயிற்சி சான்றிதழ்
பெறுவதற்கும், ஓட்டுனர் உரிமம் புதுப்பிப்பதற்கும் கட்டணம் மும்மடங்காக
உயர்த்தப்பட்டுள்ளது. இது லட்சக்கணக்கான குடும்பங்களை கவலையில் ஆழ்த்தி உள்ளது. இக்கட்டண
உயர்வை தாங்க இயலாத சிரமமான சூழ்நிலையில் வாகன ஓட்டுனர்கள் உள்ளார்கள். இக்கட்டண
உயர்வு சுமை அவர் களை மிகவும் துன்பத்துக்கு உள்ளாக்கும். </p><p>
</p><p>
லட்சக்கணக்கான குடும்பங்களை கவலையில் ஆழ்த்தியுள்ள இக்கட்டண உயர்வு முடிவை
கைவிடவேண்டும் என்று கேட்டுக்கொள்கிறோம். கட்டண உயர்வு ரத்து செய்யப்பட்டு ஏழை எளிய
ஓட்டுனர்கள் மற்றும் அவர்களது குடும்பத்தினரின் கவலையை போக்க வேண்டும். </p><p>
</p><p>
இவ்வாறு அவர்கள் கூறி உள்ளனர். </p>

<p> </p>

<p>போக்குவரத்து
தொழிலாளர்களிடம் கூடுதல் அகவிலைப்படி பிடிக்க தடை, ஐகோர்ட்டு விதித்தது</p>

<p> </p>

<p>சென்னை,அக் 2- போக்குவரத்து தொழிலாளர்களுக்கு ஏற்கனவே கூடுதலாக
அகவிலைப்படி வழங்கி இருந்தால் அதை பிடித்தம் செய்யக்கூடாது என்று சென்னை ஐகோர்ட்டு
இடைக்கால தடை விதித்து உள்ளது. </p><p>
</p><p>
தமிழ்நாடு போக்குவரத்து கழக தொழிலாளர்கள் நல சங்கத்தின் தலைவர் யோகண்ணன் சார்பாக
வக்கீல் அமல்ராஜ் சென்னை ஐகோர்ட்டில் தாக்கல் செய்த வழக்கில் கூறி இருப்பதாவது:- </p><p>
</p><p>
தமிழகம் முழுவதும் உள்ள போக்குவரத்து தொழிலாளர் களுக்கு விலைவாசியை யொட்டி அகவிலைப்படியை
அரசு வழங்கி வருகிறது. கடந்த ஆண்டு கூடுதலாக அகவிலைப்படி வழங்கப்பட்டு உள்ளது. எனவே அதை
பிடித்தம் செய்ய வேண்டும் என்று அரசு உத்தரவு பிற்பபித்தது. இதன்படி கூடுதல் அகவிலைப்படியை
அதிகாரி கள் பிடிக்க முடிவு எடுத்தனர் . கூடுதலாக அகவிலைப்படி கொடுத்ததாக அரசு கருதினாலும்
அதை பிடித்தம் செய்ய அரசுக்கு அதிகாரம் இல்லை. எனவே அரசு உத்தரவை ரத்து செய்ய வேண்டும். </p><p>
</p><p>
இவ்வாறு அவர் வழக்கில் கூறி இருந்தார். </p><p>
</p><p>
தள்ளுபடி </p><p>
</p><p>
இந்த வழக்கை ஐகோர்ட்டு தனிநீதிபதி விசாரித்து தள்ளுபடி செய்து தீர்ப்பு கூறினார். </p><p>
</p><p>
இந்த தீர்ப்பை எதிர்த்து தமிழ்நாடு தொழிலாளர்கள் நல சங்கத்தின் தலைவர் யோகண்ணன்
சென்னை ஐகேர்ட்டில் அப்பீல் வழக்கு தாக்கல் செய்தார். அதில் அவர் கூறி இருப்பதாவது:- </p><p>
</p><p>
தமிழகம் முழுவதும் 21 போக்குவரத்து கழகங்கள் உள்ளது. இதில் பணிபுரியும் 1 லட்சத்து 35
ஆயிரம் பேருக்கு கூடுதல் அகவிலைப்படியை பிடித்தம் செய்தால் அவர்களுக்கு பாதிப்பு ஏற்படும்.
எனவே இதை பிடித்தம் செய்ய தடை விதிக்க வேண்டும். அரசின் மற்றதுறைகளில் இப்படி செய்வது
இல்லை. எனவே போக்குவரத்து துறையில் மட்டும் கூடுதல் அகவிலைப்படி பிடித்தம் செய்வது
சட்டவிரோதமானது. </p><p>
</p><p>
இவ்வாறு அவர் வழக்கில் கூறி உள்ளார். </p><p>
</p><p>
தடை </p><p>
</p><p>
இந்த வழக்கை தலைமை நீதிபதி சுபாஷன் ரெட்டி நீதிபதி கே.பி.சிவசுப்பிர மணியம் ஆகியோர்
விசாரித்து போக்குவரத்து தொழிலாளர்களுக்கு கூடுதல் அகவிலைப்படியை பிடித்தம் செய்ய
இடைக்கால தடை விதித்து உத்தரவிட்டார். இந்த வழக்கில் மனுதாரர் சார்பாக வக்கீல்
அமல்ராஜ் ஆஜராகி வாதாடினார். </p>

<p> </p>

<p>குடும்பத்துடன் சென்று,
முதல்வர் பன்னீர்செல்வம் திருப்பதியில் சாமி கும்பிட்டார்</p>

<p> </p>

<p>சென்னை, அக். 2- முதல்வர் பன்னீர்செல்வம் குடும்பத்தினருடன்
திருப்பதி சென்று பயபக்தியுடன் சாமி கும்பிட்டார். </p><p>
</p><p>
தமிழக முதல்வர் பன்னீர் செல்வம் நேற்று முன்தினம் அதிகாலையில் திருப்பதி சென்றார். அங்கு
ஏழுமலை யானை பயபக்தியுடன் வணங்கினார். பன்னீர் செல்வத்துடன் அவரது குடும்பத்தினர்
சென்றிருந்தனர். </p><p>
</p><p>
வரவேற்பு </p><p>
</p><p>
திருப்பதி தேவஸ்தானம் சார்பில் அவருக்கு வரவேற்பு அளிக்கப்பட்டது. பிறகு பன்னீர்
செல்வம் முக்கிய பிரமுகர்களுக்கான தரிசனம் செய்ய அனுமதிக்கப்பட்டார். சாமிக்கு விசேஷ பூஜை
செய்த அவருக்கு கோயில் நிர்வாகத்தினர் அங்க வஸ்திரம் அணிவித்து வரவேற்றனர். </p><p>
</p><p>
காணிக்கை </p><p>
</p><p>
சுமார் அரை மணி நேரம் சன்னதியில் இருந்து பன்னீர் செல்வம் பயபக்தியுடன் சாமி
கும்பிட்டார். பிறகு அவரது மனைவி ஏழுமலையானுக்கு காணிக்கை செலுத்தினார். </p><p>
</p><p>
சாமி தரிசனம் முடிந்ததும் சிறிது நேரம் விருந்தினர் விடுதியில் ஓய்வெடுத்த பன்னீர்
செல்வம் குடும்பத்தினருடன் சென்னை திரும்பினார். </p><p>
</p><p>
வேண்டுதல் </p><p>
</p><p>
பன்னீர் செல்வம் முதல்வ ரானதற்காக அவரது குடும்பத்தினர் ஏழுமலையானிடம் வேண்டுதல்
செய்திருந்தார்களாம். அந்த வேண்டுதலை நிறைவேற்றவே திருப்பதி வந்து சாமி கும்பிட்டுச்
சென்றதாக கூறப்படுகிறது. </p>

<p> </p>

<p>மாதவராவ் சிந்தியா மறைவு:
கவர்னர் இரங்கல்</p>

<p> </p>

<p>சென்னை, அக். 2- காங்கிரஸ் கட்சியின் மூத்த தலைவர்களில்
ஒருவரான முன்னாள் மத்திய அமைச்சர் மாதவராவ் சிந்தியா மறைவுக்கு தமிழக கவர்னர்
ரங்கராஜன் இரங்கல் தெரிவித்துள்ளார். </p><p>
</p><p>
காங்கிரஸ் கட்சியின் மூத்த தலைவரும், முன்னாள் மத்திய அமைச்சருமான மாதவராவ் சிந்தியா
நேற்று முன்தினம் நடந்த விமான விபத்தில் கால மானார் அல்லவா? அவரது மறைவுக்கு தமிழக
கவர்னர் ரங்கராஜன் விடுத்துள்ள இரங்கல் செய்தி வருமாறு:- </p><p>
</p><p>
மாதவராவ் சிந்தியாவின் மறைவு ஆழ்ந்த வருத்தத்தை அளிக்கிறது. அவரை இழந்து தவிக்கும்
குடும்பத்தினருக்கு எனது இரங்கலை தெரிவித்துக் கொள்கிறேன். </p><p>
</p><p>
வைகோ </p><p>
</p><p>
ம.தி.மு.க. பொதுச்செயலாளர் வைகோ இரங்கல் செய்தி:- </p><p>
</p><p>
மாதவராவ் சிந்தியா மறைவு செய்தி பேரிடியாக தாக்கியது. நான் அவரிடத்தில் அளவிட முடியாத
மதிப்பும், அன்பும் கொண்டிருந்தேன். அன்னாரின் குடும்பத்திற்கும் அவரை இழந்து தவிக்கும்
காங்கிரஸ் கட்சியினருக்கும் ஆழ்ந்த இரங் கலை தெரிவித்துக்கொள்கிறேன். </p><p>
</p><p>
ஜி.கே.வாசன் </p><p>
</p><p>
ஜி.கே.வாசன் இரங்கல் செய்தி:- </p><p>
</p><p>
விமான விபத்தில் மாதவ ராவ் சிந்தியா அகால மரணமடைந்த செய்தி கேட்டு மிகவும்
அதிர்ச்சி அடைந்தேன். மத்திய அமைச்சரவையில் பல்வேறு பொறுப்புகளை வகித்து எல் லோரும்
போற்றும் வகையில் செயலாற்றிய இவரது மறைவு ஈடு செய்ய முடியாத இழப்பு ஆகும். </p><p>
</p><p>
வாழப்பாடி </p><p>
</p><p>
தமிழக ராஜீவ் காங்கிரஸ் தலைவர் வாழப்பாடி ராமமூர்த்தி:- </p><p>
</p><p>
மாதவராவ் சிந்தியா மறைவு செய்தி கேள்விப்பட்டு அதிர்ச்சி அடைந்தேன். அவரோடு பயணம்
செய்தவர்களும் மரணம் அடைந்தது பெரிதும் வருத்தத் துக்குரியதாகும். சிந்தியாவின் மறைவு
நாட்டுக்கே பேரிழப்பாகும். அவரது மறைவால் துயரத்தில் ஆழ்ந்துள்ள குடும்பத்தினருக்கு இரங்கலை
தெரிவித்துக்கொள்கிறேன். </p><p>
</p><p>
இவ்வாறு அவர்கள் கூறி உள்ளனர். </p>

<p> </p>

<p>அண்ணாசாலையில் பரபரப்பு:
ரூ.11/2 கோடி கொள்ளை போனதாக நகை கடையினர் பொய் புகார்</p>

<p> </p>

<p>சென்னை, அக். 2- சென்னை அண்ணா சாலையில் உள்ள பிரபலமான
நகைக்கடையில் ரூ.11/2 கோடி கொள்ளை போனதாக புகார் செய்யப்பட்டது. ஆனால் போலீசார்
விசாரணையில் இது பொய்யான தகவல்கள் என்று தெரிய வந்தது. </p><p>
</p><p>
சென்னை அண்ணாசாலையில் டி.வி.எஸ். பஸ் நிறுத்துமிடம் அருகில் ஒரு தனியார் வங்கி உள்ளது.
இந்த வங்கிக்கு பிரபலமான நகைக்கடைக்காரர்கள் 2 பேர் காரில் வந்து இறங்கியதும்
பாதுகாவலர்கள் போல் வௌியில் நின்றிருந்த 3 பேர் திடீரென்று துப்பாக்கியை காட்டி மிரட்டி
ரூ.1.50 கோடி பணத்தை கொள்ளை அடித்து கொண்டு ஓடி விட்டதாக போலீசுக்கு தகவல் கொடுத்து
உள்ளனர். அதுமட்டுமல்ல முக்கியமான பத்திரிக்கைகளுக்கும் கொள்ளை போன விஷயத்தை
சொன்னார்கள். இதுபற்றி தகவல் தெரிந்ததும் அனைத்து பத்திரிக்கை நிருபர்களும்
சம்பந்தப்பட்ட வங்கிக்கு புகைப்படக்காரர்களுடன் சென்றனர். அங்கு சென்றதும் அதிகாரிகள்
ஒரு அறையில் உட்கார்ந்து வங்கியில் வசூலான பணத்தை எண்ணிக் கொண்டிருந்தனர். </p><p>
</p><p>
அவர்களிடம் நிருபர்கள் சென்று கொள்ளை பற்றி விசாரித்தபோது திடுக்கிடும் தகவலை கூறினர்.
வங்கியில் பணம் கொள்ளை போய் இருந்தால் நாங்கள் எல்லாம் இப்படி உட்கார்ந்து பணத்தை
எண்ணி கொண்டு இருப்போமா? வங்கிக்கு வௌியில் இருந்த பாதுகாவலர்களுக்கும், பணம் கட்ட
வந்த ஒரு நகைக்கடைக்காரருக்கும் காரை எங்கு நிறுத்த வேண்டும் என்பதில் தகராறு ஏற்பட்டு அடி
தடியில் முடிந்து உள்ளது. இதனால் ஆத்திரப்பட்ட நகைக்கடைக்காரர்கள் போலீசுக்கு போன்
செய்து பாதுகாவலர்கள் பணத்தை கொள்ளை அடித்து கொண்டு ஓடி விட்டனர் என்று போலீசுக்கு தகவல்
கொடுத்து விட்டார்கள். இது தான் நடந்தது. வேறு எதுவும் நடக்கவில்லை என்று கூறினர்.
போலீசுக்கு கொள்ளை போனதாக பொய் தகவல் கொடுத்தவர்களையும், வங்கி முன் நடந்த
தகராறுக்கு காரணமான பாதுகாவலர்களையும் ஆயிரம் விளக்கு போலீசார் அழைத்து சென்று
விசாரித்து வருகிறார்கள். இந்த சம்பவம் அண்ணாசாலையில் பெரிய பரபரப்பை ஏற்படுத்தியது. </p>

<p> </p>

<p>மத்திய அரசு உத்தரவு அடுத்த
ஆண்டு தான் அமுலுக்கு வருகிறது: வாகனங்களின் நம்பர் பிளேட் நிறம் மாற்ற வேண்டாம்</p>

<p> </p>

<p>புதுடெல்லி, அக்.2- மத்திய அரசு உத்தரவு ஒத்திப்
போடப்பட்டுள்ளதால் வாகனங்களின் நம்பர் பிளேட்டில் இப்போது நிறம் மாற்ற வேண்டிய
அவசியம் இல்லை. </p><p>
</p><p>
வாகனங்களில் சென்று திருட்டு, வழிப்பறி போன்ற வற்றில் ஈடுபடுவோரை எளிதில்
பிடிக்கவும், வாகன திருட்டை தடுக்கவும், விபத்து ஏற்படுத்தி தப்பிக்கும் வாகனங்களை
எளிதில் அடையாளம் காணவும் அனைத்து மாநிலங்களிலும் வாகனங்களின் நம்பர் பிளேட்டு களில்
மாற்றம் கொண்டு வர மத்திய அரசு உத்தரவிட்டது. அதன்படி உயர்பாதுகாப்பு நம்பர் பிளேட்
என்ற புதிய திட்டத்தை அறிமுகப்படுத்த அரசு முடிவு செய்தது. இந்த உயர் பாதுகாப்பு நம்பர்
பிளேட்டில் வாகன பதிவு எண், குரோமியம் கலந்து ஹாலோகிராம் செய்யப்பட்ட அசோக சக்கரம்
ஆகியவை இருக்கும். </p><p>
</p><p>
மேலும் இந்த உயர்பாது காப்பு பிளேட் பொருத்தப் படும் நம்பர் பிளேட்டும் நிறம் மாற்றப்
பட்டிருக்கும். அதாவது, வர்த்தக ரீதியான வாகனங்களுக்கு மஞ்சள் நிற பின்னணியில்
கறுப்பு எழுத்துக் களும், சொந்த உபயோகத்துக்கு வைத்திருக்கும் வாகனங்களுக்கு வௌ்ளை
பின்னணியில் கறுப்பு எழுத்துக் களும் இருக்க வேண்டும். </p><p>
</p><p>
இந்த இரண்டு திட்டத்தையும் ஒரே நேரத்தில் (செப்டம்பர் 28) அமுல்படுத்த மத்திய அரசு
உத்தரவிட்டது. இந்த உயர் பாதுகாப்பு நம்பர் பிளேட்டை அரசே வழங்கும் என அறிவிக்கப்
பட்டிருந்தது. </p><p>
</p><p>
தயாராகவில்லை </p><p>
</p><p>
ஆனால் அரசு உத்தரவிட்ட பிறகு உயர்பாதுகாப்பு நம்பர் பிளேட் தயாரிக்கும் வேலையை அரசு
தொடங்கவில்லை. அதை தயாரிக்க யாருக்கும் டெண்டர் விடப்படவில்லை. இதனால் அந்த
திட்டத்தை தள்ளிவைத்து அடுத்த ஆண்டு ஜூன் மாதம் 30-ந்தேதி முதல் அமுலுக்கு வரும் என்று
மத்திய அரசு உத்தர விட்டுள்ளது. அடுத்த ஆண்டு ஜூன் 30-ந்தேதிக்குப் பிறகு பதிவு
செய்யப்படும் அனைத்து வாக னங்களுக்கும் இது பொருந்தும். அதற்கு முன் பதிவு செய்யப்பட்ட
வாகனங்கள் உயர்பாதுகாப்பு நம்பர் பிளேட் பொருத்த 2 ஆண்டு அவகாசம் கொடுக்கப் படும். </p><p>
</p><p>
தற்காலிக ஏற்பாடு </p><p>
</p><p>
அதுவரை தற்காலிக ஏற்பாடாக நம்பர் பிளேட்டு களில் நிற மாற்றம் செய்ய வேண்டும் என அரசு
உத்தர விட்டிருக்கிறது. அதன்படி வர்த்தக வாகனங்கள் மஞ்சள் நிற பின்னணியில் கறுப்பு
எண்கள் அடுத்த ஆண்டு பிப்ரவரி 1-ந்தேதிக்குள் மாற்ற வேண்டும். சொந்த உபயோக வாகனங்கள்
வௌ்ளை நிற பின்னணியில் கறுப்பு எண்கள் அடுத்த ஆண்டு பிப்ரவரி 1 முதல் ஜூன்
30-ந்தேதிக்குள் மாற்றி னால் போதும். </p><p>
</p><p>
பொதுமக்கள் குழப்பம் </p><p>
</p><p>
ஆனால் மத்திய அரசின் இந்த அறிவிப்பு பொதுமக்களில் பலருக்கு இன்னும் தெரிய வில்லை.
செப்டம்பர் 28-ந்தேதிக் குள் நம்பர் பிளேட்டில் நிறம் மாற்றாத வாகனங்கள் மீது
நடவடிக்கை எடுக்கப்படும் என்று போக்குவரத்து காவல் துறை முன்பு அறிவித்து இருந்த தால்
அவசரம் அவசரமாக நம்பர் பிளேட்டை மாற்றி வருகிறார்கள். </p><p>
</p><p>
இதனால் நம்பர் பிளேட் எழுதித் தரும் கடைகளில் எப்போதும் இல்லாத அளவு இப்போது எந்த
நேரமும் கூட்டம் அலைமோதுகிறது. சாதாரண மாக ஒரு நம்பர் பிளேட் மாற்ற 50 ரூபாய்
வாங்கியவர்கள் இப்போது 250 ரூபாய் வரை வாங்குகின்றனர். </p><p>
</p><p>
அதிகாரி விளக்கம் </p><p>
</p><p>
இதுகுறித்து சென்னை போக்குவரத்து காவல்துறை துணை ஆணையாளர் கருணாசாகர் கூறியதாவது:- </p><p>
</p><p>
மத்திய அரசு அறிவித்த திட்டத்தை தள்ளி வைத்துவிட்டது. உயர் பாதுகாப்பு நம்பர் பிளேட்
திட்டம் அடுத்த ஆண்டு ஜூன் மாதம் 30-ந்தேதி முதல் தான் அமுலுக்கு வருகிறது. எனவே இப்போது
அவசரம் அவசரமாக நம்பர் பிளேட் நிறம் மாற்ற வேண்டிய அவசியம் இல்லை. வர்த்தக
வாகனங்கள் அடுத்த ஆண்டு பிப்ரவரி 1-ந்தேதிக்குள்ளும், சொந்த உபயோகத்திற்கு
வைத்திருக்கும் வாகனங்கள் அடுத்த ஆண்டு பிப்ரவரி 1-ந்தேதி முதல் ஜுன் 30-ந்தேதிக்குள்
மாற்றினால் போதும். </p><p>
</p><p>
இவ்வாறு கூறினார். </p>

<p> </p>

<p>குஜராத் பூகம்பத்தில்
பாதிக்கப்பட்ட தமிழர்களுக்கு அரசு நிதி உதவி, 41 பேருக்கு ரூ.101/4 லட்சம் வழங்கப்பட்டது</p>

<p> </p>

<p>சென்னை, அக். 2- குஜராத் பூகம்பத்தில் பாதிக்கப்பட்ட
தமிழர்கள் 41 பேர் குடும்பத்துக்கு தமிழக அரசு ரூ.10 லட்சத்து 25 ஆயிரம் நிவாரண நிதி
வழங்கியுள்ளது. </p><p>
</p><p>
இதுகுறித்து தமிழக அரசு வௌியிட்டுள்ள செய்தி குறிப்பில் கூறி இருப்பதாவது:- </p><p>
</p><p>
குஜராத் நிலநடுக்கத்தில் பாதிக்கப்பட்டு தமிழ்நாட்டிற்கு திரும்பிவந்து பல்வேறு மாவட்
டங்களில் வசித்து வருகின்ற பலர் நிவாரண உதவி கோரி. தமிழக முதலமைச்சருக்கு மனு
கொடுத்திருந்தார்கள். </p><p>
</p><p>
இவர்களுடைய மனுக்களை மாவட்ட ஆட்சித்தலைவர் மூல மாக பரிசீலனை செய்து, அவர்கள் மறுவாழ்வு
தொடங்குவதற்கும் சுயவேலை வாய்ப்பை ஏற்ப டுத்திக் கொள்வதற்கும் ஏது வாக வேலூர்
மாவட்டத்தைச் சேர்ந்த 38 நபர்களுக்கும், கரூர் மாவட்டத்தைச் சேர்ந்த இருவ ருக்கும்,
காஞ்சிபுரம் மாவட்டத்தை சேர்ந்த ஒரு நபருக்கும் ஆக மொத்தம் 41 நபர்்களின்
குடும்பங்களுக்கு குஜராத் நில நடுக்க நிவாரண நிதியிலிருந்து நிவாரண நிதி உதவியை முதல மைச்சர்
பன்னீர்செல்வம் வழங்கினார். </p><p>
</p><p>
ரூ.101/4 லட்சம் </p><p>
</p><p>
நிவாரண நிதியாக தலா ரூ.5 ஆயிரமும், வைப்பு நிதியாக தலா ரூ.20 ஆயிரமும் சேர்த்து ஒவ்வொரு
குடும்பத்திற்கும் தலா ரூ.25 ஆயிரம் வீதம் மொத்தம் ரூ.10 லட்சத்து 25 ஆயிரத்துக் கான
காசோலையை முதலமைச்சர் பன்னீர்செல்வம் நேற்று சென்னை தலைமை செயலகத்தில்
பாதிக்கப்பட்டவர்களுக்கு நேரில் வாங்கினார். </p><p>
</p><p>
இவ்வாறு அதில் கூறப்பட்டு உள்ளது. </p>

<p> </p>

<p>வேலைவாய்ப்பு அலுவலக மவுசு
குறைந்தது</p>

<p> </p>

<p>லட்சுமணபுரி, அக்.2- உத்தரப்பிரதேச மாநிலத்தில் உள்ள
வேலைவாய்ப்பு அலுவலகங்களில், வேலை கோரி தங்களது பெயரை பதிவு செய்துகொள்பவர்களின்
எண்ணிக்கை படிப் படியாக குறைந்து வருகிறது. அத்தகையவர்களின் எண்ணிக்கை 1998-ம் ஆண்டில் 5
லட்சத்து 99 ஆயிரம் பேராக இருந்தது. 2000 ஆண்டில் 4 லட்சத்து 20 ஆயிரமாக குறைந்துவிட்டது.
வேலை வாய்ப்பு அலுவலகங்கள் மீது பொதுமக்களுக்கு நம்பிக்கை குறைந்து வருவதே இதற்குக் காரணம்
என்று கூறப்படுகிறது. </p><p>
</p><p>
</p><p>
</p><p>
ஏழைகளுக்கு உதவ நடனம் ஆடும் பெண் நோயாளி </p><p>
</p><p>
பரோடா, அக். 2- பரோடாவை சேர்ந்தவர் நிகிடா கியா (வயது 30) என்ற பெண். இவருக்கு 15
வயதாக இருந்தபோதே சிறுநீரக கோளாறு ஏற்பட்டது. அதனால் மாற்று சிறுநீரகம்
பொருத்தப்பட்டது. எனினும் அது சரிவர இயங்காததால் தொடர்ந்து இவருக்கு டயாலி சிஸ் செய்யப்பட்டு
வருகிறது. இந்த நிலையிலும் இவர், சிறுநீரக கோளாறு உடைய ஏழைகளுக்காக நடனமாடி நிதி திரட்டி
வருகிறார். அந்த வகையில் நிகிதா இதுவரை சுமார் ரூ.12 லட்சம் நிதி திரட்டி
உதவியிருக்கிறார். </p><p>
</p><p>
</p><p>
</p><p>
ஜெர்மனியில் லுங்கி கட்டிய இந்தியர்கள் </p><p>
</p><p>
ராய்பூர், அக்.2- மத்தியப்பிரதேச மாநிலம், ராய்பூர் அருகில் உள்ள நாராயண்பூர் வனப்
பகுதியை சேர்ந்தவர்கள் ஜெயராம், பொடுருமண்ட வாய் என்ற 2 பழங்குடி இனத்தவர்கள். இவர்கள்
2 பேரும் சமீபத்தில் ஜெர்மனியில் உள்ள டஸ்சல் டார்புக்கு சென்று வந்தனர். அங்கு நடந்த
பழங்குடியினத்தவர் பற்றிய ஒரு கண் காட்சியில் பங்கேற்பதற்காக இவர்கள் அழைக்கப்பட்டு
இருந்தனர். அதில் இவர்கள் தங்களது கலை மற்றும் கலாச்சாரம் குறித்து விளக்கினார்கள்.
பேண்ட் அணிந்து பழக்கப்படாத இவர்கள் அந்த நாட்டிலும் லுங்கிதான் அணிந்தார்களாம்.
லுங்கியுடன் அவர்கள் 2 பேரும் ஒரு கட்டிடத்தின் வாயிலில் அமர்ந்து இருப்பதை படத்தில்
காணலாம். </p><p>
</p><p>
</p><p>
</p><p>
தொலைக்காட்சியில் கிரிக்கெட் பற்றிய புதுமை நிகழ்ச்சி </p><p>
</p><p>
புதுடெல்லி, அக்.2- தொலைக்காட்சி தூர்தர் ஷன் அலைவரிசையில் கிரிக்கெட் பற்றிய ஒரு
புதுமை யான நிகழ்ச்சி விரைவில் ஒளிபரப்பாக உள்ளது. 26 பகுதிகளாக ஒளிபரப்பப்பட உள்ள
இந்த நிகழ்ச்சியை டோனி கிரெய்க் நடத்துகிறார். இந்த நிகழ்ச்சிக்கு நெட் ஒர்க்-1
நிறுவனத்தினர் ஏற்பாடு செய்து உள்ளனர். கிரிக்கெட் தொடர்பாக இந்திய தொலைக்காட்சிக்கு
டோனி கிரெய்க் நடத்தும் முதல் நிகழ்ச்சி இதுவே ஆகும். </p>

<p> </p>

<p>டோக்கன் முறையில்
வேட்புமனு தாக்கல்</p>

<p> </p>

<p>கோவை, அக். 2- கோவை மாநகராட்சி கவுன்சிலர் பதவிக்கு
போட்டியிட நேற்று வேட்பாளர்கள் குவிந்துகொண்டே இருந்தனர். அதிகாரிகளால் அவர்களை
கட்டுப்படுத்த முடிய வில்லை. இதனால் ஒவ்வொரு வேட்பாளருக்கும் டோக்கன் கொடுத்து வௌியே
அனுப்பி விட்டனர். நாங்கள் கூப்பிடும் போது உள்ளே வந்து வேட்பு மனுவை கொடுத்தால் போதும்
என உத்தரவிட்டனர். இதனால் நிறைய வேட்பாளர்கள் கையில் டோக்கன்களை வைத்துக்கொண்டு
மாநகராட்சி வளாகத்தில் நீண்ட நேரம் காத்து கிடந்தனர். சிலர் ஹாயாக... படுத்து ஓய்வு
எடுத்தனர். நேற்று (திங்கள்) 3 மணியுடன் வேட்புமனு தாக்கல் முடிந்தாலும் டோக்கனை கையில்
வைத்துக்கொண்டு இரவு 7 மணி வரை காத்து கிடந்தனர். </p>

<p> </p>

<p>வண்டலூர் மிருகக்காட்சி
சாலையில் பார்வையாளர்களுக்கு இலவச அனுமதி</p>

<p> </p>

<p>சென்னை, அக். 2- வண்டலூரில் உள்ள அறிஞர் அண்ணா மிருகக்
காட்சி சாலையில் இன்று (2-ந்தேதி) முதல் வருகிற 8-ந்தேதி வரை உயிரின வார விழா
கொண்டாடப்படுகிறது. இதையொட்டி வண்டலூர் மிருகக்காட்சி சாலைக்கு வருகை தரும் பார்வையாளர்களுக்கு
உள்ளே செல்ல இலவச அனுமதி வழங்கப்படுகிறது. நுழை வாயில் கட்டணம் எதுவும் வசூலிக்கப்பட
மாட்டாது. ஆனால் மிருகக்காட்சி சாலை யினுள் மிருகங்களை சுற்றிப் பார்ப்பதற்கு
இயக்கப்படும் மின்னூர்தி வாகனங்களுக்கு வழக்கம் போல கட்டணம் வசூலிக்கப்படும்.
செவ்வாய் தோறும் மிருகக்காட்சி சாலைக்கு விடுமுறை தின மாகும். ஆனால் உயிரின வார விழாவை
முன்னிட்டு மிருகக் காட்சி சாலை இன்று வழக்கம் போல இயங்கும். </p><p>
</p><p>
இந்த தகவலை இந்திய வனப்பகுதி இயக்குனர் பி.சி. தியாகி தெரிவித்துள்ளார். </p>

<p> </p>

<p>தாவூத்இப்ராகிம் கூட்டாளி
கைது: ரூ.15 லட்சம் கள்ளநோட்டு பறிமுதல்</p>

<p> </p>

<p>பெங்களூர், அக்.2- பெங்களூரில் தாவூத் இப்ராகிம் கூட்டாளி கைது
செய்யப்பட்டான். அவனிடம் இருந்து ரூ.15லட்சம் கள்ள நோட்டுக்கள் பறிமுதல் செய்யப்பட்டது </p><p>
</p><p>
பெங்களூர் கலாசி பாளையத்தை சேர்ந்தவர் குலாம் நபி ஷேக்(வயது 35). இவருக்கு சமீபத்தில்
துபாயில் இருந்து தபால் பார்சலில் ஒரு டி.வி. வந்தது. அதில் 500 ரூபாய் மற்றும் 100 ரூபாய்
கள்ளநோட்டுகள் மறைத்து வைக்கப்பட்டு இருந்தது. மொத்தம் ரூ.15லட்சம் கள்ளநோட்டுகள்
இருந்தது. </p><p>
</p><p>
கைது </p><p>
</p><p>
இவரை மும்பை போலீசார் கைது செய்தனர். இவர் தாவூத் இப்ராகிம் கூட்டாளி என்பது போலீஸ்
விசாரணையில் தெரிய வந்தது. இவரிடம் இருந்து கள்ள நோட்டுக்களை போலீசார்
கைப்பற்றினார்கள். இவரை விசாரணைக்காக மும்பைக்கு போலீசார் அழைத்து சென்றனர் </p>

<p> </p>

<p> </p>






</body></text></cesDoc>