<cesDoc id="tam-w-dinakaran-news-01-07-15" lang="tam">
<cesHeader type="text">
<fileDesc>
<titleStmt>
<h.title>tam-w-dinakaran-news-01-07-15.txt</h.title>
<respStmt>
<respType>Electronic file created by</respType>
<respName>Department of Linguistics, Lancaster University</respName>
<respType>text collected by</respType>
<respName>Paul Baker and Celia Worth</respName>
<respType>transferred into Unicode by</respType>
<respName>"Unicodify" software by Andrew Hardie</respName>
</respStmt>
</titleStmt>
<publicationStmt>
<distributor>UCREL</distributor>
<pubAddress>Department of Linguistics, Lancaster University, Lancaster, LA1 4YT, UK</pubAddress>
<availability region="WORLD"></availability>
<pubDate>03-08-24</pubDate>
</publicationStmt>
<sourceDesc>
<biblStruct>
<monogr>
<h.title>"Dinakaran" internet news (www.dinakaran.com), news stories collected on 01-07-15</h.title>
<h.author>Dinakaran</h.author>
<imprint>
<pubPlace>Tamil Nadu, India</pubPlace>
<publisher>Dinakaran</publisher>
<pubDate>01-07-15</pubDate>
</imprint>
</monogr>
</biblStruct>
</sourceDesc>
</fileDesc>
<encodingDesc>
<projectDesc>Text collected for use in the EMILLE project.</projectDesc>
<samplingDesc>Simple written text only has been transcribed. Diagrams, pictures and tables have been omitted and their place marked with a gap element.
</samplingDesc>
<editorialDecl>
<conformance level="1"></conformance>
</editorialDecl>
</encodingDesc>
<profileDesc>
<creation>
<date>03-08-24</date>
</creation>
<langUsage>Tamil</langUsage>
<wsdUsage>
<writingSystem id="ISO/IEC 10646">Universal Multiple-Octet Coded Character Set (UCS).</writingSystem>
</wsdUsage>
<textClass>
<channel mode="w">print</channel>
<constitution type="composite"></constitution>
<domain type="public"></domain>
<factuality type="fact"></factuality>
</textClass>
<translations></translations>
</profileDesc>
<revisionDesc></revisionDesc>
</cesHeader>

<text>
<body>




<p>டெல்லியில் ராணுவ
மரியாதையுடன் வரவேற்பு: காந்தி சமாதியில் முஷாரப் மலரஞ்சலி, நினைவு பரிசாக
ராட்டை வழங்கினார்</p>

<p> </p>

<p>
 
 
  
  
  
  
  
  
  
  
  
  
  
  
 
 
 

 
<gap desc="illustration"></gap></p>




 
  
  <p>டெல்லி ராஜகோட்டில்
  உள்ள காந்தி சமாதியில் முஷாரப், அவரது மனைவி சீபா ஆகியோர் மலர் வளையம் வைத்து
  அஞ்சலி செலுத்தும் காட்சி. </p>
  
 




<p>புதுடெல்லி, ஜூலை 15- பாக். அதிபர் முஷாரப் நேற்று டெல்லி வந்து
சேர்ந்தார். ஜனாதிபதி மாளிகையில் அவருக்கு செங்கம்பள வரவேற்பு அளிக்கப்பட்டது. 21 பீரங்கி
முழங்க அவர் வரவேற்கப்பட்டார். முப்படை மரியாதையை அவர் ஏற்றுக்கொண்டார். </p><p>
</p><p>
ஆக்ராவில் பிரதமர் வாஜ்பாயுடன் பேச்சுவார்த்தை நடத்துவதற்காக பாக். அதிபர் முஷாரப்
நேற்று காலை 8.55 மணிக்கு டெல்லி வந்து சேர்ந்தார். அவர் ஏறிவந்த போயிங் விமானம்
பலத்த மழைக்கு நடுவில் டெல்லி பாலம் விமானப்படை தளத் தில் தரையிறங்கியது. முஷாரப்புடன்
அவரது மனைவி பேகம் சீபா, வௌி விவகார மந்திரி அப்துல் சத்தார் மற்றும் தூதுக் குழுவினரும்
வந்தனர். முஷாரப் கிரீம் நிற செர்வானி உடையை அணிந்திருந்தார். இந்த செர்வானி உடை
பாகிஸ் தான் நாட்டின் தேசிய உடை என்பது குறிப்பிடத்தக்கது. </p><p>
</p><p>
வரவேற்பு </p><p>
</p><p>
விமானப்படை தளத்தில் வௌியுறவுத்துறை இணை மந்திரி கிருஷ்ணம் ராஜூ, பிரதமர்
வாஜ்பாயின் ராணுவத்துறை செயலர் மேஜர் ஜெனரல் பூபிந்தர்சிங், முஷாரப்பையும் அவரது
குழுவினரையும் வரவேற்றார். கறுப்பு நிற லைமோசின் காரில் முஷாரப்பை அவர் ஏற்றி
ஜனாதிபதி மாளிகைக்கு அனுப்பி வைத்தார். 40 கார்கள் பின் தொடர தூதுக்குழுவினருடன் முஷாரப்
புறப்பட்டார். </p><p>
</p><p>
ஜனாதிபதி மாளிகையை நோக்கி செல்லும் ராஜபாதை முழுவதும் இந்தியா, பாகிஸ் தான் நாட்டு
தேசிய கொடிகள் ஏற்றப்பட்டிருந்தன. வழி நெடுகிலும் பறந்த இந்த கொடிகளை பார்த்தபடி முஷாரப்
ஜனாதிபதி மாளிகைக்கு வந்து சேர்ந்தார். அவருடன் பாக். தூதுக் குழுவினரும் வந்தார்கள். </p><p>
</p><p>
செங்கம்பள வரவேற்பு </p><p>
</p><p>
ஜனாதிபதி மாளிகை முற்றத்தில் முஷாரப்பை வரவேற்பதற்காக ஜனாதிபதி கே.ஆர். நாராயணன்,
பிரதமர் வாஜ்பாய் மற்றும் முக்கிய பிரமுகர்கள் காத்திருந்தனர். ராணுவ அணிவகுப்பை முஷாரப்
பார்வையிட வசதியாக தனிமேடை அமைக்கப்பட்டிருந்தது. </p><p>
</p><p>
முஷாரப் காரை விட்டு இறங்கியதும் ஜனாதிபதி கே.ஆர். நாராயணன் மற்றும் பிரதமர் வாஜ்பாய்
ஆகியோர் அவரை கைகுலுக்கி வரவேற் றார்கள். 21 பீரங்கி குண்டு முழங்க செங்கம்பள வரவேற்பு
அவருக்கு அளிக்கப்பட்டது. அதன்பின் தனிமேடையில் நின்று முப்படையினரின் ராணுவ அணிவகுப்பு
மரியாதையை முஷாரப் ஏற்றுக் கொண்டார். அணிவகுப்பு மரியாதையை நடந்து சென்று பார் வையிட்ட
போது அதை ஏற்கும் விதத்தில் முஷாரப் 3 முறை கைகளை தூக்கினார். இரு நாட்டு தேசிய
கீதங்களும் அங்கு இசைக்கப்பட்டன. </p><p>
</p><p>
பின்னர் இந்திய தூதுக் குழுவினரை முஷாரப்புக்கு கே.ஆர்.நாராயணன் அறி முகப்படுத்தினார்.
அதுபோல பாக். தூதுக்குழுவினரை முஷாரப் அறிமுகப்படுத்தி வைத்தார். மழைக்கு நடுவில் இந்த
நிகழ்ச்சிகள் நடந்தன. பிரதமர் வாஜ்பாய் அந்த அறிமுக நிகழ்ச்சியில் கலந்து
கொள்ளவில்லை. அமைதியாக விலகி நின்றார். </p><p>
</p><p>
காந்தி சமாதி </p><p>
</p><p>
அதன்பின் ராஜ்காட்டில் உள்ள காந்திசமாதிக்கு மனைவியுடன் சென்று முஷாரப் மலர் வளையம்
வைத்து அஞ்சலி செலுத்தினார். பலத்த மழை விழுந்ததால் குடையின் கீழ் நின்றபடி முஷாரப்
அஞ்சலி செலுத்தினார். ரோஜா இதழ்களை சமாதி மீது தூவினார். பின்னர் சல்யூட்
அடித்து மரியாதை செய்த பின் சில நிமிடம் மவுனமாக நின்றார். சமாதியில் உள்ள அணையா
ஜோதிக்கும் அவர் மலர் அஞ்சலி செலுத்தினார். முஷாரப் அப்போது லேசான பதட்டத்துடன்
காணப்பட்டார். பின்னர் வருகை புத்தகத்தில் அவர் எழுதி கையெழுத்திட்டார். </p><p>
</p><p>
முதன்முறை </p><p>
</p><p>
பாகிஸ்தான் தலைவர் ஒருவர் காந்தி சமாதியில் அஞ்சலி செலுத்தியது இதுவே முதன்முறை
ஆகும். முஷாரப் காந்தி சமாதியில் அஞ்சலி செலுத்துவதை ஏராளமான வௌிநாட்டு
தொலைக்காட்சி நிறுவனத்தினர் படம்பிடித்தனர். அவர்களை நோக்கி புன் முறுவலுடன் முஷாரப்
கைஅசைத்தார். </p><p>
</p><p>
காந்தி சமாதியில் நடந்த இந்த நிகழ்ச்சியில் இந்தியா சார்பாக மத்திய நகர்ப்புற
வளர்ச்சி மந்திரி ஜக்மோகன், காந்தியவாதி நிர்மலா தேஷ்பாண்டே மற்றும் திக்விஜய்சிங்
ஆகியோர் கலந்து கொண்டனர். </p><p>
</p><p>
சந்தன ராட்டை </p><p>
</p><p>
ராஜ்காட் சமாதி சமிதியைச் சேர்ந்தவர்கள் முஷாரப்புக்கு செஞ்சந்தன கட்டையில்
செய்த ராட்டை மற்றும் காந்தி பற்றிய புகைப்படங்கள். சி.டி.க்களை நினைவு பரிசாக
அளித்தனர். </p><p>
</p><p>
கடும் பாதுகாப்பு </p><p>
</p><p>
முஷாரப் வருகை காரணமாக யமுனை நதிக்கரையில் உள்ள ராஜ்காட் பகுதியில் பலத்த பாதுகாப்பு
போடப்பட்டு இருந்தது. பச்சை பசேல் என்று இருந்த ராஜ்காட் பகுதி முழுவதும் மோப்பநாய்களுடன்
போலீசார் மற்றும் அதிரடிப் படையினர் குவிக்கப்பட்டிருந் தனர். அருகில் இருந்த கட்டிடங்கள்
மீது குறிதவறாமல் சுடக் கூடிய துப்பாக்கி வீரர்கள் நிறுத்தப்பட்டிருந்தனர். வெடி குண்டுகளை
செயலிழக்க வைக்கும் நிபுணர்களும் அங்கு தயார் நிலையில் நிறுத்தப்பட்டிருந் தனர்.
ராஜ்காட்டில் முஷாரப்பை தீர்த்துக்கட்ட தீவிர வாத இயக்கங்கள் திட்டமிட்டி ருப்பதாக
மத்திய அரசு கருதியதால் அங்கு பலத்த பாதுகாப்பு செய்யப்பட்டிருந்தது. </p><p>
</p><p>
</p><p>
</p><p>
முஷாரப் துளிகள் </p><p>
</p><p>
புதுடெல்லி, ஜூலை 15- *பிரதமர் வாஜ்பாய் 1999-ம் ஆண்டு லாகூர் பஸ் பயணம் மேற்கொண்ட
போது வாகா சோதனை சாவடியில் அப்போதைய பாக். பிரதமர் நவாஸ் செரீப், வாஜ்பாயை
வரவேற்றார். அப்போது ராணுவ ஜெனரலாக இருந்த முஷாரப் அந்த நிகழ்ச்சியில் கலந்து
கொள்ளவில்லை. அப்போது அவர் கலந்து கொண்டிருந் தால் வாஜ்பாயை பார்த்து சல்யூட் அடித்து
மரியாதை தர வேண்டி இருந்திருக்கும். இந்த நிலையில் தற்போது பாக். அதிபராக டெல்லி
வந்துள்ள முஷாரப் அவரது வரவேற்பு நிகழ்ச்சியின் போது ஏராளமான வி.ஐ.பி.க்களை நோக்கி
சல்யூட் அடித்து மரியாதை செலுத்தினார். வாஜ்பாய்க்கு வாகா சோதனை சாவடியில் அளித்திருக்க
வேண்டிய சல்யூட் மரியாதையை முக்கிய பிரமுகர்கள் பலருக்கும் முஷாரப் அடிக்க வேண்டிய
தாயிற்று. </p><p>
</p><p>
*ஜனாதிபதி மாளிகை வரவேற்பு நிகழ்ச்சியின் போது பாக். தேசிய கீதமான பாக். சர் சமீன்
ஆஸ்மான் இசைக்கப்பட்டது. ராணுவக்குழுவினர் இதை வாசித்தனர். ஜனாதிபதி மாளிகையில் பாக்.
நாட்டு தேசிய கீதம் ஒலிப்பது இதுவே முதன்முறை ஆகும். பாக். தலைவர்கள் யாரும் இதுவரை
ஜனாதிபதி மாளிகைக்கு வந்தது இல்லை. முஷாரப்தான் இந்த விஷயத்தில் முன்னோடி ஆவார். </p><p>
</p><p>
*காந்தி சமாதியில் அஞ்சலி செலுத்திய முஷாரப் வருகையாளர் புத்தகத்தில் தனது கருத்தை
எழுதி அடியில் ஜெனரல் பர்வேஸ் முஷாரப் என்று கையெழுத்திட்டார். தான் இப்போது பாக்.
அதிபர் என்பதை மறந்து பழக்க தோஷத்தில் அவர் கையெழுத் திட்டதைப்போல தோன்றியது.
அல்லது காந்தி சமாதியில் பொய் சொல்ல கூடாது என்பதற்காக அப்படி எழுதினாரா? என்பது
தெரியவில்லை. </p><p>
</p><p>
*முஷாரப் அவரது மனைவி சீபா ஆகியோருடன் 19 பேர் கொண்ட அதிகாரப்பூர்வ தூதுக்குழு
வந்துள்ளது. அதில் பாக். வௌி விவகாரத்துறை மந்திரி அப்துல் சத்தாரை தவிர வேறு
மந்திரிகள் யாரும் கிடையாது. </p><p>
</p><p>
*மும்பையில் நடந்த மூட்டு மாற்று ஆபரேசனுக்னு பிறகு பிரதமர் வாஜ்பாய் பொதுமக்கள்
மத்தியில் நேரில் தோன்ற வில்லை. நேற்று முதன்முறையாக முஷாரப் வரவேற்பு நிகழ்ச்சியில்
வாஜ்பாய் பொதுமக்கள் முன்னிலையில் தோன்றினார். </p><p>
</p><p>
</p><p>
</p><p>
முஷாரப்பை கட்டியணைக்காமல் கை மட்டும் குலுக்கிய வாஜ்பாய் </p><p>
</p><p>
புதுடெல்லி, ஜூலை 15- கடந்த 99-ம் ஆண்டு பிரதமர் வாஜ்பாய் வரலாற்றுச் சிறப்பு மிக்க
லாகூர் பஸ் பயணத்தை மேற்கொண்டார். அப்போது இந்தியா-பாகிஸ்தான் எல்லையில் உள்ள வாகா
சோதனை சாவடியில் பாகிஸ்தானின் அப்போதைய பிரதமர் நவாஸ் செரீப்பை அவர் கட்டித்
தழுவினார். நவாசுடன் நீண்ட நேரம் கைகுலுக்கினார். ஆனால் நேற்று முஷாரப் டெல்லி வந்த போது
ஜனாதிபதி மாளிகையில் நடந்த வரவேற்பில் வாஜ்பாய் அவரை கட்டித்தழுவவில்லை. கை மட்டுமே
குலுக்கினார். அதுவும் நீண்ட நேரம் குலுக்கவில்லை. அளவோடு கைகுலுக்கிய பின் கையை விட்டு
விட்டார். பின்னர் புகைப்படக்காரர்கள் கேட்டு கொண்டதற்கிணங்க மீண்டும் ஒருமுறை
முஷாரப்புடன் கைகுலுக்கினார். நேற்றைய சந்திப்பின் போது முஷாரப் சற்று பரபரப்புடன்
காணப்பட்்டார். ஆனால் அதற்கு நேர்மாறாக வாஜ்பாயிடம் அமைதி கொலுவீற்றிருந்தது. </p><p>
</p><p>
பள்ளி நாள்களை நினைவு கூர்ந்த முஷாரப்- அத்வானி </p><p>
</p><p>
புதுடெல்லி,ஜூலை 15- டெல்லி ஜனாதிபதி மாளிகையில் மத்திய மந்திரிகளை பாக். அதிபர்
முஷாரப்புக்கு அறிமுகம் செய்து வைக்கப்பட்டனர். உள்துறை மந்திரி அத்வானியை அறிமுகம் செய்து
வைத்த போது அவரது கரங்களை பிடித்து முஷாரப் குலுக்கிக் கொண்டே பள்ளி நாள்களை
நினைவுகூர்ந்தார். இந்தியா- பாகிஸ்தான் பிரிவினைக்கு முன்பு கராச்சி பள்ளியில் தான்
அத்வானி படித்தார். பாகிஸ்தான் பிரிந்த பிறகு அதே பள்ளியில் தான் முஷாரப்பும் படித்து
இருக்கிறார். எனவே ஒரே பள்ளி மாணவர்கள் என்ற முறையில் இருவரும் அந்தப் பள்ளியில் படித்த
நாள்களை நினைவு கூர்ந்து கொண்டனர். </p><p>
</p><p>
அத்வானியை கட்டிப்பிடித்த பாக். மந்திரி </p><p>
</p><p>
ஜனாதிபதி மாளிகையில் முஷாரப்புக்கு சம்பிரதாய வரவேற்பு அளிக்கப்பட்ட போது பாக்.
வௌியுறவு மந்திரி அப்துல் சத்தாரும் வந்தார். அங்கு நின்று கொண்டு இருந்த அத்வானியை
பார்த்ததும் அவரை நோக்கி சத்தார் வந்தார். அத்வானி அருகில் வந்ததும்அவரை சத்தார்
கட்டிப் பிடித்துக் கொண்டு நலம் விசாரித்தார். அப்போது அங்கு கூடி நின்ற நூற்றுக்கும்
மேற்பட்ட டி.வி. கேமிராமேன்களும் பத்திரிகை புகைப்படக்காரர்களும் அதை கிளிக்
செய்தனர். அப்துல் சத்தார் முன்பு டெல்லியில் பாக். தூதராக இருந்தது குறிப்பிடத்தக்கது. </p><p>
</p><p>
இந்தியப் பெண்களுக்கு முஷாரப் மனைவி உறுதி </p><p>
</p><p>
இந்தியாவுக்கும் பாகிஸ்தானுக்கும் இடையில் அமைதி, ஒற்றுமை நிலவ வேண்டும். இதற்காக எடுத்து
வரும் முயற்சிகளை என் கணவரிடம் எப்படிச் சொல்ல வேண்டுமோ அப்படி எடுத்துச் சொல்வேன்.
அமைதிக்காக இந்திய, பாகிஸ்தான் பெண்கள் எடுத்துவரும் முயற்சிகள் வீண் போகாது என்று
பாக். அதிபர் முஷாரப்பின் மனைவி பேகம் முஷாரப் உறுதி கூறினார். டெல்லியில் நேற்று
தெற்காசியாவில் அமைதி காக்கும் பெண்கள் இயக்கத்தின் சார்பில் நடந்த கலந்தாய்வு
நிகழ்ச்சியில் பேகம் கலந்து கொண்ட போது இவ்வாறு தெரிவித்தார். அப்போது அவருக்கு
பல்வேறு அமைப்புகள் சார்பில் நினைவுப் பரிசுகள் வழங்கப்பட்டன. </p><p>
</p><p>
வாஜ்பாய் விருந்தில் நட்சத்திரங்கள் </p><p>
</p><p>
பிரதமர் வாஜ்பாய் நேற்று மதியம் முஷாரப்புக்கு டெல்லியில் உள்ள தாஜ்பேலஸ் ஓட்டலில்
விருந்து அளித்தார். இதில் இந்திய அசைவ உணவு வகைகள் பரிமாறப்பட்டன. இதில் கலந்து
கொண்ட தலைவர்கள், சினிமா நட்சத்திரங்கள் வருமாறு:- </p><p>
</p><p>
முன்னாள் பிரதமர்கள் வி.பி.சிங், ஐ.கே.குஜ்ரால், மத்திய மந்திரிகள் அத்வானி,
ஜஸ்வந்த்்சிங், யஷ்வந்த் சின்கா, முரசொலிமாறன், ஷாநவாஸ் உசேன், குஜராத் முதல்வர்
கேசுபாய் பட்டீல், ராஜஸ்தான் முதன்மந்திரி அசோக் கெலாட், எதிர்க்கட்சித் தலைவர்கள்
அஜித்சிங், முலாயம்சிங் யாதவ், மன்மோகன்சிங், கரண்சிங், நட்வர்சிங், இந்தி
நடிகர்கள் திலீப்குமார், ஷாருக்கான், சத்ருகன்சின்கா, சபனாஆஸ்மி, ஜாவீத் அக்தார்
ஆகியோர். </p><p>
</p><p>
இந்திய சமையல்களின் அணிவகுப்பு </p><p>
</p><p>
முஷாரப்புக்கு பிரதமர் வாஜ்பாய் நேற்று மதியம் அளித்த விருந்தில் பல்வேறு மாநில உணவு
வகைகள் இடம் பெற்று இருந்தன. சைவ, அசைவ உணவு வகைகள் தனித்தனியாக வைக்கப்பட்டு இருந்தன.
வெங்காய சட்னி, புதினா சட்னி, தந்தூரி ரொட்டி, சீதாப்பழ குல்பி, லட்சுமணபுரி
இனிப்புகள், சிக்கன், மட்டன் பிரியாணி, வறுத்த அசைவ உணவுகள் மற்றும் ஏராளமான ஸ்பெஷல்
அயிட்டங்கள் அடுக்கி வைக்கப்பட்டு இருந்தன. இத்துடன் இந்தியாவின் அல்போன்சா
மாம்பழங்கள் அழகழாக வெட்டி வைக்கப்பட்டு அதற்கு ஏற்ப குலோப்ஜாமூன்கள், ரசகுல்லாக்களும்
பரிமாறப்பட்டன. வௌ்ளித் தட்டுக்களில் இந்த உணவு வகைகளை பரிமாறினர். </p><p>
</p><p>
</p><p>
</p><p>
மூட்டு ஆபரேசனுக்கு பிறகு வாஜ்பாய்க்கு எந்த பிரச்சினையும் இல்லை - முஷாரப் </p><p>
</p><p>
புதுடெல்லி, ஜூலை 15- டெல்லியில் நேற்று நடந்த மதிய விருந்தில் பங்கேற்கும் முன்
வாஜ்பாயும் முஷாரப்பும் பேசிக் கொண்டனர். அப்போது வாஜ்பாய் உடல்நலம் பற்றி முஷாரப்
கேட்டார். </p><p>
</p><p>
நான் முழு உடல் நலத்துடன் இருக்கிறேன் என்று வாஜ்பாய் பதில் அளித்தார். மூட்டு மாற்று
ஆபரேசனுக்குப் பிறகு வாஜ் பாய்க்கு எந்த பிரச்சினையும் இருக்காது என்று நம்புவதாக
முஷாரப்பும் கூறினார். </p>

<p> </p>

<p>சொந்த வீட்டில்
விருந்தாளியாக முஷாரப், நான் ஓடி ஆடிய இடத்தை பார்த்ததில் மகிழ்ச்சி</p>

<p> </p>

<p> </p>

<p>புதுடெல்லி,
ஜூலை 15- பாகிஸ்தான் அதிபர் முஷாரப் சிறுவனாக இருந்த போது பெற்றோருடன் குடியிருந்த வீடு
டெல்லி நகர்வேலி ஹவேலி பகுதியில் உள்ளது. அந்த வீட்டை நேற்று மாலை முஷாரப் சுற்றிப்
பார்த்தார். பழைய டெல்லியின் படங்கள் அந்த வீட்டில் காட்சிக்கு வைக்கப்பட்டு இருந்தது.
அதை அவர் ஆவலுடன் பார்த்தார். அவருடன் மனைவி பேகமும் வந்திருந்தார். நான் பிறந்து
வளர்ந்த வீட்டை பார்த்ததில் மிகவும் மகிழ்ச்சி அடைகிறேன் என்று அப்போது முஷாரப்
கூறினார். </p><p>
</p><p>
தற்போது அந்த வீட்டின் ஒரு பகுதியில் குடியிருக்கும் ஜெயின் குடும்பத்தினர் முஷாரப்
தம்பதிகளை வரவேற்றனர். சுமார் 30 நிமிடங்கள் அந்த வீட்டில் முஷாரப் இருந்தார். அவருக்கு
ஜெயின் குடும்பத்தினர் ஒரு வௌ்ளித்தட்டு பரிசாக வழங்கினர். அதில் ஹவேலி பகுதி வரைபடம்
வரையப்பட்டு இருந்தது. டெல்லி மாநகராட்சி சார்பில் அந்தப் பகுதி வீடுகள் பற்றிய
குறிப்புகள் அடங்கிய புத்தகம் அளிக்கப்பட்டது. எனது வாழ்த்துக்கள் என்று அதில் முஷாரப்
எழுதினார். </p><p>
</p><p>
சர்பத் குடித்தார் </p><p>
</p><p>
முஷாரப்புக்காக ஜெயின் குடும்பத்தினர் பல்வேறு உணவு வகைகளை தயாரித்து இருந்தனர். ஆனால்
பாதுகாப்பு அதிகாரிகள் அனுமதிக்காததால் முஷாரப் அதில் எதையும் தொடவில்லை. பச்சை
நிறத்தில் இருந்த சர்பத்தை மட்டும் குடித்தார். </p><p>
</p><p>
துப்புரவு தொழிலாளி </p><p>
</p><p>
முஷாரப் சிறுவனாக இருந்த போது அந்த பகுதியில் துப்புரவுத் தொழிலாளியாக வேலை பார்த்த
காஷ்மிரோ தேவி என்ற பெண்மணியை முஷாரப்புக்கு அறிமுகப்படுத்தினர். அந்தப் பெண்ணிடம் இரு
நாடுகளுக்கும் இடையில் அமைதி நிலவ பிரார்த்திக்கும்படி முஷாரப் கேட்டுக் கொண்டார். அந்த
பெண்ணுக்கு 200 டாலர்களை முஷாரப் பரிசளித்தார். அழகிய பூ வேலைப்பாடுகளுடன்
தயாரிக்கப்பட்ட ஒரு சல்வார் கமிசை அந்த பெண்ணுக்கு முஷாரப் மனைவி பரிசாக வழங்கினார். </p><p>
</p><p>
சிறைக் கைதி போல </p><p>
</p><p>
முஷாரப் வருகையை யொட்டி அந்த பகுதியில் போலீசார் கெடுபிடியாக இருந்தனர். பாதுகாப்பு
காரணமாக பக்கத்து வீடு களின் கதவுகளை மூடவேண்டும் என்று உத்தரவிடப்பட்டது. எனவே அந்தப்
பகுதியில் உள்ளவர்கள் யாரும் முஷா ரப்பை பார்க்க முடியவில்லை. வீட்டுக்குள்ளேயே இருந்தனர்.
ஜெயின் குடும்பத்தில் இருந்து சஞ்சீவ் குமார் என்பவரை மட்டுமே முஷாரப்பை சந்திக்க
அனுமதித்தனர். நாங்கள் வீட்டிலேயே கைதி போல அடைக்கப்பட்டு இருக்கிறோம் என்று பாக்.
அதிபரிடம் அவர் கூறினார். ஜன்னல் கதவுகள் வழியாக ஜெயின் பெண்கள் கையை அசைத்து
முஷாரப்புக்கு வாழ்த்து கூறினர். பின்னர் முஷாரப் அங்கிருந்து புறப்பட்டுச் சென்றார். </p><p>
</p><p>
பாட்டிக்கும் அனுமதி மறுப்பு </p><p>
</p><p>
டெல்லி வரும்போது ஹவேலி பகுதிக்கு கண்டிப்பாக வர வேண்டும் என்று அழைப்பு விடுத்த
சஞ்சீவ்குமாரின் பாட்டியைக் கூட சந்திக்க அனுமதிக்கவில்லை. முஷாரப் வருகையை ஒரு விழா
போல கருதி ஜெயின் குடும்பத்தினர் புத்தாடை அணிந்து இருந்தனர். </p><p>
</p><p>
</p><p>
</p><p>
எங்கு பார்த்தாலும் போலீஸ் தலைகள் </p><p>
</p><p>
புதுடெல்லி, ஜூலை 15- முஷாரப் வருகையையொட்டி டெல்லி நகரம் நேற்று அமளி துமளிப்பட்டது.
நேற்று காலை முஷாரப் வருகை காரணமாக டெல்லியின் நுழைவுவழி மற்றும் வௌியேறும் வழிகள் 48
மணிநேரத்துக்கு சீல் வைக்கப்பட்டன. தேசிய பாது காப்புப்படையைச் சேர்ந்த 12 ஆயிரம்
வீரர்களிடம் முஷாரப்புக்கு பாதுகாப்பு வழங்கும் பொறுப்பு ஒப்படைக்கப்பட்டது. இது தவிர
சிறப்பு பாதுகாப்புப்படை வீரர்கள், அதி வேக விரைவுப்படையினர், மத்திய ரிசர்வ்
போலீஸ், துணை ராணுவப்படையினர், 57 ஆயிரம் டெல்லி போலீசார் ஆகியோர் பாதுகாப்பு
பணியில் ஈடுபட்டனர். டெல்லியில் நேற்று திரும்பிய இடமெல்லாம் போலீஸ் தலைகளாகவே
தெரிந்தது.</p>

<p> </p>

<p>இன்று சமாதான பேச்சு
நடக்கும் ஆக்ராவில், சிவசேனை தொண்டர்கள் பாகிஸ்தான் கொடியை தீ வைத்து கொளுத்தினர்</p>

<p> </p>

<p> </p>

<p>புதுடெல்லி,
ஜூலை 15- முஷாரப் வருகைக்கு எதிர்ப்பு தெரிவித்து பாகிஸ்தான் தேசிய கொடியை
சிவசேனையினர் தீ வைத்து எரித்தனர். </p><p>
</p><p>
இந்தியாவுக்கு வந்துள்ள பாகிஸ்தான் அதிபர் முஷாரப், பிரதமர் வாஜ்பாய் இருவரும்
ஆக்ராவில் இன்று சமாதான பேச்சு நடத்த இருக்கிறார்கள் அல்லவா? </p><p>
</p><p>
முஷாரப் இந்தியா வருவது, பேச்சுவார்த்தை நடத்துவது, நிகழ்ச்சிகளில் பங்கேற்பது எதுவுமே
சிவசேனை இயக்கத்துக்கு பிடிக்கவில்லை. அதன் தலைவர் பால் தாக்கரே ஆரம்பத்தில் இருந்தே
எதிர்த்து வருகிறார். இப்போதும் முஷாரப் சம்பந்தப்பட்ட எந்த நிகழ்ச்சிகளிலும் கலந்து
கொள்ளக்கூடாது என்று சிவசேனை சார்பாக உள்ள மத்திய மந்திரிகளுக்கு தடைவிதித்து விட்டார்.
அதன்படியே நேற்று அந்த மத்திய மந்திரிகள் புறக்கணித்து விட்டனர். </p><p>
</p><p>
1999-ல் வாஜ்பாய் பாகிஸ்தான் சென்றார். அப்போது ராணுவத்தின் ஒரு பிரிவுக்கு தளபதியாக
இருந்தவர் முஷாரப். அன்று வாஜ்பாய்க்கு சல்யூட் அடித்து வரவேற்க மாட்டேன் என்று
புறக்கணித்தார் இந்த முஷாரப். இது 100 கோடி இந்திய மக்களுக்கு இழைக்கப்பட்ட அவமதிப்பு.
அப்படிப்பட்ட முஷாரப்பை இந்தியாவில் சிவப்பு கம்பளம் விரித்து வரவேற்பதை ஏற்க முடியாது
என்று பால்தாக்கரே அறிக்கை விட்டார். </p><p>
</p><p>
இந்த நிலையில் முஷாரப் வருகையினால் சிவசேனா தொண்டர்கள் மிகவும் கொதிப்படைந்து
உள்ளனர். இன்று வாஜ்பாய்- முஷாரப் இடையே பேச்சு நடக்க உள்ள ஆக்ரா நகர வீதி ஒன்றில்
சுமார் 25 சிவசேனா தொண்டர்கள் கூடினார்கள். அவர்கள் முஷாரப்புக்கு எதிராக கோஷமிட்டு
பாகிஸ்தான் தேசியக் கொடியை தீவைத்து எரித்தார்கள். ஆக்ராவில் திவானி கச்சேரி சவுக்
என்ற பகுதியில் இச்சம்பவம் நடைபெற்றது. </p><p>
</p><p>
காஷ்மீர் சமிதி என்ற அமைப்பினரும் நேற்று ஆக்ராவில் கண்டன ஆர்ப்பாட்டம்
நடத்தினார்கள். முஷாரப் முதலில் காஷ்மீர் அமைதிக்கு வழிசொல்லிவிட்டு அதன் பிறகு பேச்சு
நடத்துவது தான் முறையாக இருக்கும் என்று அந்த அமைப்பின் தலைவர் சி.எல்.காரு தெரிவித்தார்.
</p><p>
</p><p>
இமாச்சல பிரதேசத்தில் தேஷில் என்ற இடத்தில் அகில இந்திய இந்து மகாசபா இயக்கத்தினர்
திரண்டு முஷாரப் கொடும்பாவியை கொளுத்தினர். மத்திய பிரதேசத்தில் சீஸ்யோக் என்ற இயக்கத்தினர்
ஹோசங்காபாத் நகரில் முஷாரப் கொடும்பாவி எரிக்க முயன்றனர். அதை போலீசார் தடுத்து 10
பேரை பிடித்து சென்று பிறகு விடுவித்து விட்டனர். </p><p>
</p><p>
</p><p>
</p><p>
முஷாரப்பை எதிர்த்து ஜம்முவில் பந்த் </p><p>
</p><p>
ஜம்மு,ஜூலை 15- பாக். அதிபர் முஷாரப் வருகைக்கு எதிர்ப்பு தெரிவித்து ஜம்முவில் நேற்று
பந்த் நடத்தப்பட்டது. இதனால் மாமூல் வாழ்க்கை பாதிக்கப்பட்டது. பஸ்கள் ஓடவில்லை.
சந்தைகள் மூடப்பட்டு கிடந்தன. இந்த பந்த் அமைதியாக நடந்தது என்று போலீசார் கூறினர். </p><p>
</p><p>
</p><p>
</p><p>
காஷ்மீர் எல்லையில் இந்தியா- பாக். துப்பாக்கி சண்டை </p><p>
</p><p>
ஜம்மு, ஜூலை 15- காஷ்மீர் எல்லையில் நேற்று முன்தினம் மாலையில் இருந்து பாகிஸ்தான்
படைகள் சரமாரி துப்பாக்கியால் சுட்டுக் கொண்டே இருந்தனர். பதிலுக்கு இந்திய வீரர்களும்
திருப்பிச் சுட்டனர். இந்த சண்டை விடிய விடிய நடந்தது. இதில் உயிர்ச்சேதம் எதுவும்
ஏற்படவில்லை. வழக்கமாக பாகிஸ்தானில் இருந்து ஊடுருவ முயலும்போது தொடர்ந்து துப்பாக்கியால்
சுடுவார்கள். ஆனால் இந்திய வீரர்கள் எல்லைப்பகுதி முழுவதும் விழிப்புடன் இருந்ததால் யாரும்
ஊடுருவ முடியவில்லை என்று ராணுவ வட்டாரங்கள் கூறின.</p>

<p> </p>

<p>கலந்தாய்வில் இடமாற்றம்
கிடைத்தும், அரசு உத்தரவு அமுல்படுத்தாததால் 10 ஆயிரம் ஆசிரியர்கள் தவிப்பு</p>

<p> </p>

<p>கடலூர், ஜூலை 15- கவுன்சிலிங்கில் பங்கேற்று இடமாற்றல்
கிடைத்தும் அரசு உத்தரவு அமுல்படுத்தாக காரணத்தால் 10 ஆயிரம் ஆசிரியர்கள்
தவிக்கின்றனர் என்று முதல்வர் ஜெயலலிதாவுக்கு ஆசிரியர் கூட்டணி கடிதம் அனுப்பி உள்ளது. </p><p>
</p><p>
தமிழக ஆரம்பப்பள்ளி ஆசிரியர் கூட்டணியின் பொதுச்செயலாளர் அப்துல் மஜித் தமிழக
முதல்வர் ஜெயலலிதாவுக்கு அனுப்பியுள்ள கடிதத்தில் குறிப்பிட்டிருப்ப தாவது:- </p><p>
</p><p>
தமிழகம் முழுவதும் தொடக்க கல்வியில் இந்த ஆண்டு கவுன் சிலிங் முறை யில் 20 ஆயிரத்திற்கும்
மேற்பட்ட தொடக்க கல்வி ஆசிரியர்கள் இடமாறுதலை பெற் றுள்்ளனர். கணவன்-மனைவி
ஒன்றுபடவும், பதவி உயர்வு பெறவும் அலகு விட்டு அலகு மாறவும், இந்த மாறுதலில் வழி வகை
செய்யப்பட்டது. இவ்வாறு மாறுதல் பெற்ற 10 ஆயிரத்திற்கும் மேற்பட்ட தொடக்கப்பள்ளி
ஆசிரியர்கள் மாறுதல் அடைய முடியாமல், பதவி உயர்வு பெற்ற இடத்தில் பணியில் சேர முடியாமல்
அலகு விட்டு அலகு மாறுதல் பெறாமல் உள்ளனர். </p><p>
</p><p>
ஆசிரியர் நிலை </p><p>
</p><p>
மாறுதல் பெற்றவர்களை விடுவிக்க ஆசிரியர்களை தொடக்க கல்வித்துறை நிய மிக்காததே இதற்கு
காரணம். மாறுதல் பெற்ற ஆசிரியர்கள் பலரும் ஈராசிரியர் பள்ளிகளில் பணி புரிபவர்கள்.
இவர்கள் மாறுதல் அடைய பணியில் இருந்து விடுவித்து சென்று விட்டால், பணிபுரிந்து கொண்டு
இருக்கிற பள்ளி ஆசிரியர்கள் இல்லாத பள்ளிகளாக மாறிவிடுகின்ற நிலை ஏற்படும். இதனால்
இவர்கள் மாறுதல் பெற்றும் விடுவித்துக் கொண்டு வேறு இடம் செல்லாமல் தொடக்கக்
கல்வித்துறை தடுத்து நிறுத்திவிடுகிறது. </p><p>
</p><p>
பதிவு மூப்பு அடிப்படை </p><p>
</p><p>
புதிய இடைநிலை ஆசிரியர் களை வேலை வாய்ப்பு அலுவலக பதிவு மூப்பு அடிப்படையில் நியமனம்
செய்தால்தான் மாணவர்களின் தேவைக்கு ஆசிரியர்கள் பள்ளிகளில் இருக்க முடியும். அந்த
அடிப்படையில் புதிய நியமனம் வழியில் ஆசிரியர்களை நியமனம் செய்தால்தான் மாறுதல்கள்
பெற்ற ஆசிரியர்களை விடு வித்து மாறுதல் பலனை அடையவைக்க முடியும். </p><p>
</p><p>
அளவுகோல் </p><p>
</p><p>
இந்த ஆண்டு கோடையில் 1:40 மாணவர் அளவுகோலை வைத்து ஆசிரியர் பணியிடம் எண்ணிக்கையை
வெகுவாக குறைத்துவிட்டார்கள். இந்த நிலையில் மாணவர் தேவைக்கு ஏற்ப ஆசிரியர்கள்
பள்ளிகளில் இல்லாத நிலை தொடக்க கல்வி இயக்குநர் ரெ.நாராயண சாமியின் நடவடிக்கையால்
ஏற்பட்டுள்ளது என்பது குறிப் பிடத்தக்கது. தேவையான ஆசி ரியர்கள் பள்ளிகளில் இல்லாததால்
இந்த ஆண்டு மாணவர் சேர்க்கையும் வெகுவாக குறைந்துவிட்டது. இதனால் சுய நிதி ஆங்கிலவழி
ஆரம்பப் பள்ளிகள் வளர்ச்சியடைந்து உள்ளன. </p><p>
</p><p>
தொடக்க கல்வி நிர்வாகத்தில் ஏற்பட்டுள்ள இந்த ஆசிரியர் பற்றாக் குறையைப் போக்க
அதிக அளவில் பள்ளிகளில் ஆசிரியர்களை நியமனம் செய்ய தொடக்கக் கல்வித்துறையும்,
தமிழக அரசும் உடனடி நடவடிக்கை மேற்கொள்ள வேண்டும் </p><p>
</p><p>
நடவடிக்கை </p><p>
</p><p>
இந்த பள்ளிகளில் மாணவர்கள் தேவைக்கும் அதிக எண்ணிக்கையில் ஆசிரியர்கள் பணியில்
வைக்கப்பட்டுள்ளனர். இது தொடக்க கல்வித்துறையின் நிர்வாக ரீதியிலான குறை பாடு. 1:20
என்ற விகிதத்தில் ஆசிரியர்- மாணவர் அளவு கோலை வைத்து பள்ளிகளில் உள்ள தேவைக்கும்
அதிகமான ஆசிரியர்களை தேவையான பள்ளிகளுக்கு மாறுதல் செய்ய கோடையிலேயே தொடக்கக் கல்வித்துறை
நடவடிக்கை எடுக் காததினால் இந்த நிலை ஏற்பட்டுள்ளது. இதனையும் அரசு முறைப்படுத்த வேண்டும்.
</p><p>
</p><p>
இவ்வாறு அந்த கடிதத்தில் குறிப்பிட்டுள்ளார். </p>

<p> </p>

<p> </p>

<p>17 பொறியியல்
கல்லூரிகளில் மாணவர்களை சேர்க்க வேண்டும், தமிழக அரசுக்கு ஐகோர்ட்டு திடீர் உத்தரவு</p>

<p> </p>

<p>சென்னை,ஜூலை 15- 17 பொறியியல் கல்லூரிகளுக்கு ஒற்றை சாளர
முறையில் மாணவர்களை சேர்க்க தமிழக அரசுக்கு ஐகோர்ட்டு உத்தரவிட்டு உள்ளது. </p><p>
</p><p>
சென்னை சைதாப்பேட்டையில் உள்ள தனலட்சுமி கல்வி அறக்கட்டளை நிர்வாக டிரஸ்டி டாக்டர்
வி.பி.ராமமூர்த்தி உள்பட 17 பொறியியல் கல்லூரிகளின் நிர்வாகிகள் சென்னை
ஐகோர்ட்டில் தமிழக அரசு மீது தாக்கல் செய்த வழக்கில் கூறி இருப்பதாவது:- </p><p>
</p><p>
நாங்கள் நடப்பாண்டு முதல் பொறியியல் கல்லூரிகள் தொடங்க அகில இந்திய தொழில்நுட்ப
கவுன்சில் கடந்த ஆண்டு அனுமதி வழங்கியது. எங்கள் கல்லூரியில் உள்ள வசதிகளை பார்த்து
திருப்தி ஏற்பட்ட பிறகே எங்களுக்கு அனுமதி வழங்கப்பட்டது. இதற்கான உத்தரவில் எங்கள்
கல்லூரிக்கு ஒற்றை சாளர முறையில் மாணவர்களை அண்ணாபல்கலைக்கழகம் சேர்க்க வேண்டும் என்று
கூறப்பட்டு இருந்தது. இந்த உத்தரவை நாங்கள் தமிழக அரசுக்கு அனுப்பி வைத்தோம். </p><p>
</p><p>
அனுமதி மறுப்பு </p><p>
</p><p>
ஆனால் இந்த உத்தரவை அரசு ஏற்க மறுத்து விட்டது. இந்த ஆண்டு மாணவர்கள் சேர்க்கை முடிந்து
விட்டது எனவே மாணவர்களை உங்கள் கல்லூரியில் சேர்க்க மாட்டோம் என்று அண்ணாபல்கலைக்
கழகம் அறிவித்தது. இது எங்களுக்கு அதிர்ச்சி அளித்தது. எங்கள் கல்லூரிக்கு மாணவ,
மாணவிகளை சேர்க்க மறுத்தது அரசியல் உள்நோக்கம் உடையது. எங்களிடம் எந்த கருத்தும்
கேட்டாமல் இப்படி திடீரென்று நிராகரித்தது சட்டவிரோதமானது. </p><p>
</p><p>
முதலீடு </p><p>
</p><p>
நாங்கள் கல்லூரியில் கோடிக்கணக்கில் பணத்தை முதலீடு செய்து உள்ளோம். மாணவர்களை
எங்கள் கல்லூரியில் சேர்க்காததால் எங்களுக்கு அதிகம் பாதிப்பு ஏற்படும். </p><p>
</p><p>
மாணவர்களை சேர்க்கை தற்போது நடந்து வருகிறது. கவுன்சிலிங் இதுவரை முடிய வில்லை. எனவே
எங்கள் கல்லூரிக்கு மாணவ, மாணவிகளை சேர்க்க அரசுக்கு ஐகோர்ட்டு உத்தரவிட வேண்டும். </p><p>
</p><p>
இவ்வாறு அவர்கள் வழக்கில் கூறி இருந்தனர். </p><p>
</p><p>
உத்தரவு </p><p>
</p><p>
இந்த வழக்கு நீதிபதி இப்ராகீம் கலிபுல்லா முன்பு விசாரணைக்கு வந்தது. அப்போது தனலட்சுமி
பொறியியல் கல்லூரி உள்பட 10 பொறியியல் கல்லூரிகள் சார்பாக மூத்த வக்கீல்
கே.துரைசாமி ஆஜராகி, தற்போதைய கவுன்சிலிங்கில் மனுதாரர் கல்லூரிகளுக்கு மாணவர்களை
சேர்க்க அரசுக்கு உத்தரவிட வேண்டும் என்று கூறினார். இதுபோல மற்ற 7 பொறியியல்
கல்லூரிகள் சார்பாக வக்கீல்கள் மோகன் பராசரன், ஆர்.சுரேஷ் ஆகியோர் ஆஜராகி
வாதாடினார்கள். </p><p>
</p><p>
இருதரப்பு வாதங்களை கேட்ட நீதிபதி இப்ராகீம் கலிபுல்லா பிறப்பித்த உத்தரவில் கூறி
இருப்பதாவது:- </p><p>
</p><p>
மனுதாரர்களின் கல்லூரிகளுக்கு ஒற்றை சாரள முறையில் மாணவ, மாணவிகளை அண்ணாபல் கலைக்கழகம்
இந்த ஆண்டு சேர்க்க வேண்டும். ஒற்றை சாரள முறையில் மாணவர்களை சேர்க்க உள்ள கல்லூரி
களின் பட்டியலில் இந்த 17 கல்லூரிகளையும் சேர்க்க வேண்டும். </p><p>
</p><p>
இவ்வாறு நீதிபதி உத்தரவில் கூறி உள்ளார். </p><p>
</p><p>
17 கல்லூரிகள் </p><p>
</p><p>
ஐகோர்ட்டு உத்தரவிட்டு உள்ள 17 கல்லூரிகள் விவரம் வருமாறு:- </p><p>
</p><p>
திருப்பெரும்புதூர் சவீதா பொறியியல் கல்லூரி, காஞ்சிபுரத்தில் உள்ள மீனாட்சி
அம்மாள் கல்லூரி, ஈரோட்டில் உள்ள நாச்சி முத்து பொறியியல் கல்லூரி, நந்தா
ஜெகநாதன் பொறியியல் கல்லூரி, நாமக்கல் பவி பொறியியல் கல்லூரி, ஈரோட்டில் உள்ள
வல்லர் பொறியியல் கல்லூரி, வேலூரில் உள்ள நந்தனம் பொறியியல் கல்லூரி,
ஈரோட்டில் உள்ள நந்தா பொறியியல் கல்லூரி, காஞ்சிபுரத்தில் உள்ள தனலட்சுமி
பொறியியல் கல்லூரி, கற்பகவிநாயக பொறியியல் கல்லூரி, சீனிவாச பொறியியல் கல்லூரி,
நாமக்கல் விவேகானந்த பொறியியல் கல்லூரி, திருவள் ளூர் லட்சுமி சந்த் பொறியியல்
கல்லூரி, எஸ்.கே.ஆர் பொறியியல் கல்லூரி, கடலூர் கிருஷ்ணசாமி பொறியியல் கல்லூரி,
கேளம்பாக்கம் ஏ.ஜே. பொறியியல் கல்லூரி மற்றும் பாலாஜி பொறியியல் கல்லூரி. </p>

<p> </p>

<p>கேரளாவில் தொடர்ந்து
பலத்த மழை: பெரியாறு அணையில் நீர் கசிவா? காங்கிரஸ் அரசும் பொய் பிரசாரம், தமிழக
விவசாயிகள் கவலை</p>

<p> </p>

<p>கூடலூர், ஜூலை.15- கேரளாவில் பெய்து வரும் கனமழை காரணமாக முல்லை
பெரியாறு அணையில் நீர் கசிவு என்று கேரளாவில் உள்ள காங்கிரஸ் அரசு பத்திரிக்கை மூலம்
மீண்டும் பொய்ப் பிரசாரம் செய்து வருகிறது. </p><p>
</p><p>
கேரள மாநிலம் மற்றும் முல்லைப் பெரியாறு அணை, குமுளி, வண்டிப்பெரியாறு, கட்டப்பனை,
ஏலப்பாறை பகுதிகளில் தொடர்ந்து 20 நாட் களாக கன மழை பெய்து வருகிறது. பெரியாறு அணையில்
பலத்த மழை காரணமாக 20 நாளில் அணையின் நீர் மட்டம் 13 அடி வரை உயர்ந்து உள்ளது. மேலும்
அணையின் நீர்பிடிப்பு பகுதிகளான முல்லைக்கொடி, தானிக் கொடி, மற்றைய பகுதிகளில் இருந்து
அணைக்கு தொடர்ந்து நீர் வரத்து இருப்பதால் அணையின் நீர்மட்டம் தொடர்ந்து உயர்ந்து
கொண்டு வருகிறது. </p><p>
</p><p>
60 அடி ஆழ பிளவு </p><p>
</p><p>
மேலும் கேரளாவில் பெய்து வரும் தொடர் மழை காரணமாக கேரளாவில் உள்ள ஆசியாக் கண்டத்தின்
மிகப் பெரிய அணைகளில் ஒன்றான இடுக்கி அணைப் பகுதியின்் அருகில் திடீரென்று 60 அடி
ஆழத்திற்கு பூமியில் பிளவு ஏற்பட்டு உள்ளது. இதனால் இடுக்கி அணைக்கு ஆபத்து ஏற்பட்டு
உள்ளது எனக் கருதிய கேரள அரசு உடனடியாக இடுக்கி அணைப் பகுதி பூமி பிளவு இடத்தில் ஆராய
புவியியல் நிபுணர்களை அனுப்பி ஆராய்ச்சி செய்து உள்ளது. இடுக்கி அணையில் ஏற்பட்டுள்ள
பூமி பிளவு கேரள மக்களிடையே பெரிய அச்சத்தை ஏற்பட்டுள்ளது. </p><p>
</p><p>
பொய் பிரசாரம் </p><p>
</p><p>
சாதாரணமாக பெய்த தொடர் மழை காரணமாக இடுக்கி அணைப் பகுதியில் உள்ள பூமி பிளவு
அச்சத்தை பகுதியில் உள்ள பூமியுள்ள அச்சத்தை திசை திருப்பு வதற்காக கேரள அரசு கேரள
பத்திரிக்கைகள் மூலம் கனமழை காரணமாக பெரியாறு அணையில் நீர் கசிவு என்று அணையின்
பின்புறத்தில் மழை பெய்வதால் வழிந்தோடும் நீரை நீர்க்கசிவு என படம் பிடித்து
பத்திரிக்கைகள் மூலம் பொய் பிரசாரத்தில் மீண்டும் ஈடுபட்டுள்ளது. ஏற்கனவே இருந்த மார்க்சிய
கம்யூனிஸ்டு அரசு நில நடுக்கம் காரணமாக பெரியாறு அணையில் நீர்கசிவு என பொய் பிரசாரம்
செய்து நீர் மட்டத்தை உயர்த்த விடாமல் செய்து வந்தது. தற்போது உள்ள காங்கிரஸ் அரசும்
அது போல் பொய் பிரசாரம் செய்து வருகிறது. </p><p>
</p><p>
தமிழக விவசாயிகள் </p><p>
</p><p>
பெரியாறு அணைப் பிரச்சினையில் மத்திய அரசும், உச்ச நீதிமன்றமும் தலையிட்டும் கேரள,
தமிழ் மாநில அரசு களுக்கு இடையே பெரியாறு அணை சம்பந்தமாக எவ்வித சமரசமும் ஏற்படாமலிருப்
பதால் தமிழக விவசாயிகள் அதிலும் தேனி, மதுரை, ராமநாதபுரம், திண்டுக்கல், விருதுநகர்
மாவட்ட விவசாயி களிடையே கடுமையான அதிருப்தி நிலவுகிறது. கேரள அரசு கேரள பத்திரிக்கைகளை
தூண்டி விட்டு கேரள மக்களை திசை திருப்பும் சூழ்ச்சியை உடனே முறியடிக்க மத்திய அரசு
உடனடியாக தலையிட்டு பெரியாறு அணைப் பிரச்சினையை தீர்க்க வேண்டும் என்று கம்பம்
பள்ளத்தாக்கு விவசாயிகள் எதிர்பார்க்கிறார்கள். </p>

<p> </p>

<p>கருணாநிதி கைது பற்றி மோசடி
கேசட்: போலீஸ் வீடியோவுக்கு பொதுமக்கள் எதிர்ப்பு *படம் காட்டிய அதிகாரிகளை விரட்டி
அடித்தனர் *கேபிள் டி.வி.யில் காட்டினால் இணைப்பை துண்டிப்போம் என எச்சரிக்கை</p>

<p> </p>

<p>சென்னை, ஜூலை 15- கருணாநிதி கைது பற்றிய போலீஸ் மோசடி கேசட்டை
காண்பிக்க பொதுமக்கள் மத்தியில் கடும் எதிர்ப்பு கிளம்பி உள்ளது. </p><p>
</p><p>
கடந்த மாதம் 29-ந்தேதி இரவு தி.மு.க. தலைவர் கருணா நிதி வீட்டில் தூங்கி கொண்டிருந்த
போது போலீசாரால் சித்ரவதை செய்யப்பட்டு கைது செய்யப்பட்டார் அல்லவா? இந்த காட்சி
சன் டி.வி.யில் ஒளிபரப்பப்பட்டது. கருணாநிதியை போலீசார் அத்துமீறி அடித்து இழுத்து சென்ற
காட்சி மக்கள் மத்தியில் பெரும் அதிர்ச்சியை ஏற்படுத்தியது. இதனால் நாடு முழுவதும்
ஜெயலலிதா அரசுக்கு கடும் எதிர்ப்பு கிளம்பியது. </p><p>
</p><p>
மோசடி வீடியோ </p><p>
</p><p>
இந்த சம்பவம் நடந்து சுமார் 48 மணி நேரம் கழித்து போலீசார் கருணாநிதி கைது சம்பவத்
தின் போது தாங்கள் எடுத்ததாக கூறி ஒரு வீடியோ கேசட்டை வௌியிட்டனர். அதில் கருணாநிதி
கைது செய்யப்பட்டு போலீசாருடன் சிரித்தபடி வருவது போலவும், முரசொலிமாறன் வந்து தடுப்பது
போலவும், போலீசாரை அவர் தாக்குவது போலவும் காட்சிகள் இடம் பெற்றிருந்தன.
இந்நிலையில் கருணாநிதி கைது செய்யப்பட்ட சம்பவம் மக்கள் மத்தியில் பெரும் அனுதாபத்தை
ஏற்படுத்தி விடக் கூடாது என்பதற்காக போலீசின் மோசடி கேசட்டை ஒளிபரப்ப ஜெயலலிதா
நினைத்தார். அதன் படி மாவட்ட கலெக்டர்கள் அனைவருக்கும் போலீஸ் கேசட்டின் நகல்கள்
அனுப்பி மக்கள் மத்தியில் ஒளிபரப்ப உத்தரவிட்டார். </p><p>
</p><p>
ஒளிபரப்ப எதிர்ப்பு </p><p>
</p><p>
இதை தொடர்ந்து கடலூர் மாவட்ட செய்தி மக்கள் தொடர்பு அலுவலகம் சார்பில் கலைஞர்
கைது பற்றிய போலீசின் மோசடி வீடியோ படம் புதுச்சத்திரம், பரங்கிப் பேட்டை, பெரிய
குமட்டி ஆகிய இடங்களில் நேற்று முன்தினம் இரவு ஒளிபரப்பப்பட்டன. இந்த வீடியோ காட்சியை
பார்த்த அந்த பகுதி பொதுமக்கள் கடும் அதிர்ச்சியும், ஆத்திரமும் அடைந்தனர். எனவே தொடர்ந்து
கேசட்டை ஒளிபரப்ப வேண்டாம் என்று அதிகாரிகளுக்கு கோரிக்கை விடுத்தனர். </p><p>
</p><p>
அதிகாரிகள் ஓட்டம் </p><p>
</p><p>
அதையும் மீறி மேற்கண்ட 3 இடத்திலும் போலீஸ் வீடியோ காட்சி ஒளிபரப்பப்பட்டது. இதனால்
ஆத்திரம் அடைந்த பொதுமக்கள் செய்தி மக்கள் தொடர்பு அலுவலர்கள் மற்றும் ஜீப்பை
முற்றுகையிட முயற்சி செய்தனர். இதனை தொடர்ந்து அதிகாரிகள் அந்த கேசட்டை எடுத்துக்
கொண்டு அங்கிருந்து ஓட்டம் பிடித்தனர். இந்த சம்பவம் அந்த பகுதிகளில் பெரும் பரபரப்பை
ஏற்படுத்தி உள்ளது. </p><p>
</p><p>
கருணாநிதி கைது வீடியோ கேசட் ஒளிபரப்பினால் இணைப்பை துண்டிப்போம் என கேபிள் டி.வி.
சந்தாதாரர்கள் எதிர்ப்பு தெரிவித்துள்ளனர். </p><p>
</p><p>
கூட்டம் </p><p>
</p><p>
கருங்கல் வட்டார கேபிள் டி.வி. சந்தாதாரர்கள் சங்க கூட்டம் கருங்கலில் நடந்தது.
மரியதாஸ் தலைமை தாங்கினார். பால்ராஜ் முன்னிலை வகித்தார். கூட்டத்தில் தாமஸ்,
காட்வின் கீலர், ஜேம்ஸ், ஜார்ஜ், எரேமியா, செல்வராஜ், செல்வின்துரை, செல்வதாஸ்,
ஜான்சன், வக்கீல் அமலதாஸ், சுந்தர்ராஜ், விஜய ராகவன், அனி, சாலமன், பேன்சி
சுந்தர்சிங், மாலைமணி, தங்கராஜ், சுரேஷ், சோபிதராஜ் உள்பட பலர் கலந்து கொண்டனர். </p><p>
</p><p>
இணைப்பு துண்டிப்பு </p><p>
</p><p>
முன்னாள் முதல்வர் கருணாநிதி கைது செய்த சம்பவத்தில் அரசு மோசடியாக ஒரு கேசட்டை கேபிள்
டி.வி. உரிமையாளர்களிடம் கொடுத்து ஒளிபரப்புவதாக அறிகிறோம். கேபிள் டி.வி.
உரிமையாளர்கள் இந்த தவறான கேசட்டை ஒளி பரப்பு செய்தால் கேபிள் டி.விக்கு
சந்தாதாரர்கள் கட்டணம் செலுத்த மாட்டோம் என முடிவு செய்யப்பட்டது. மேலும் இதை மீறி
ஒளிபரப்பினால் கருங்கலில் அனைத்து கேபிள் டி.வி. சந்தாதாரர்களும் இணைப்பை துண்டிக்க முடிவு
செய்யப்பட்டது. </p><p>
</p><p>
கேபிள் டி.வி. தொழிலை சிறப்பாக நடத்த அரசு ஊக்கு விக்க வேண்டும். அதை விட்டு விட்டு
இதுபோன்ற சம்பவங்களை அதில் திணிக்க கூடாது என அரசை கேட்டுக் கொள்ளப் பட்டது. </p><p>
</p><p>
அதிகாரி மிரட்டல் </p><p>
</p><p>
கோவை மாவட்ட செய்தி மற்றும் மக்கள் தொடர்பு அதிகாரி வே.ராமநாதன் நேற்று
(சனிக்கிழமை) காலை கோவையில் உள்ள 2 முக்கிய கேபிள் டி.வி. ஆபரேட்டர்களுக்கு கேசட்டை
அனுப்பி வைத்து விட்டு டெலிபோனில் பேசினார். அப்போது, கருணாநிதி கைது தொடர்பான எங்கள்
வீடியோ கேசட்டை ஒளிபரப்ப வேண்டும் என கூறினார். இதற்கு கேபிள் டி.வி. ஆபரேட்டர்கள்
மறுத்து விட்டனர். நாங்கள் சன் கேபிள் விஷன் (எஸ்.சி.வி.) நெட்ஒர்க் கீழ் இயங்கி
வருகிறோம். அவர் களிடம் இருந்து முறைப்படி அனுமதி பெற்று தந்தால்தான் ஒளிபரப்புவோம்
என்று கூறி விட்டனர். ஆனாலும் மக்கள் தொடர்பு அதிகாரி விட வில்லை. இது கலெக்டர்
உத்தரவு... கலெக்டர் உத்தரவை மீறினால் என்ன நடக்கும் தெரியுமா...? என்று மிரட்டல்
விடுத்தார். ஆனாலும் அவர்கள் தங்களால் ஒளிபரப்ப முடியாது என்று திட்டவட்டமாக கூறி
விட்டனர். இதையடுத்து மக்கள் தொடர்பு அதிகாரி வே.ராம நாதன், எஸ்.சி.வி. மேலாளரிடம்
பேசினார். இதற்கு பதில் அளித்து பேசிய எஸ்.சி.வி. மேலாளர், கடந்த சட்டமன்ற தேர்தலின்
போது எலக்ட்ரானிக் வாக்குப்பதிவு எந்திரத்தை பயன்படுத்து வது எப்படி? என்பது தொடர்
பான செயல்முறை விளக்க கேசட்டை ஒளிபரப்ப வேண்டும் எனக்கூறி அதற்கான அரசு உத்தரவை
எழுத்துப்பூர்வமாக கொடுத்தீர்கள், அதேபோல் இப்போதும் அரசு உத்தரவை எழுத்துப்பூர்வமாக
கொடுங்கள் என்று கூறினார். இதற்கு மக்கள் தொடர்பு அதிகாரியால் சரியான பதிலை அளிக்க
முடிய வில்லை. இறுதியில் அவரது முயற்சி தோல்வி அடைந்தது. </p>

<p> </p>

<p>நீர் ஆதாரத்தை அதிகரிக்க,
ஏரி-குளம் ஆக்கிரமிப்புகளை ஈவு இரக்கமின்றி அப்புறபடுத்துக, இல.கணேசன் வலியுறுத்தல்</p>

<p> </p>

<p>சென்னை, ஜூலை 15- நீர் ஆதாரங்களை அதிக படுத்த ஏரி-குளம்
ஆக்கிரமிப்புகளை ஈ.வு. இரக்கமின்றி அப்புற படுத்தவேண்டும் என்று இல.கணேசன் கூறி
உள்ளார். </p><p>
</p><p>
இதுகுறித்து தமிழக பா.ஜ.க. பொதுச்செயலாளர் இல.கணேசன் நேற்று வௌியிட்டுள்ள அறிக்கை
வருமாறு:- </p><p>
</p><p>
இதுவரை இல்லாத அளவு கடுமையான தண்ணீர் பஞ்சம் சென்னை நகரையும் ஏனைய பகுதிகளையும்
வாட்டுகிறது. உடனடியாக பிரச்சினையை சமாளிக்க அரசு பெரும் முயற்சி எடுத்து வந்தாலும்
நிலைமையை சமாளிக்க முடிய வில்லை. இத்தகைய தற்காலிக நடவடிக்கைகள் தேவைதான். ஆனால்
நிரந்தர தீர்வுக்கான வழி முறைகள் ஆராயப்பட வேண்டும். </p><p>
</p><p>
ஆக்கிரமிப்பு </p><p>
</p><p>
இயற்கை கருணை உள்ளது. ஆனால் நாம் இயற்கையை மதிக்க தவறும்போது இயற்கை நம்மை
மிதிக்கிறது. நமது முன் னோர்கள் நல்ல மழை பெய்யும் போது தண்ணீரை தேக்கி வைக்க
குளங்கள், ஏரிகள் அமைத்தார்கள். ஆனால் பிற் காலத்தில் அந்த ஏரிகள் ஆக்கி
ரமிக்கப்பட்டன. அரசும் அரசியல் காரணங்களுக்காக ஆக்கிர மிப்புகளை அகற்ற தவறிவிட்டது. </p><p>
</p><p>
இரக்கம் வேண்டாம் </p><p>
</p><p>
இந்தநிலையில் நேற்றைய தினம் தமிழக முதலமைச்சர் ஜெயலலிதாவின் அறிவிப்பு
வரவேற்கத்தக்கது. நீர் ஆதாரங்களை நிர்வகிக்க ஒரு தனித்துறை உருவாக்க தமிழக அரசு
திட்டமிட்டு வருவதாக அவர் தெரிவித்துள்ளார். </p><p>
</p><p>
தமிழக அரசு விரைந்து செயல்பட்டு நீர்நிலைகள், நீர் ஆதாரங்கள், நீர் வருவதற்கான வழிகள்
ஆகியவற்றின் ஆக்கிரமிப்புகளை இரக்கமின்றி அப்புறப்படுத்த நடவடிக்கை எடுக்க
வேண்டுகிறேன். </p><p>
</p><p>
இவ்வாறு அவர் கூறி உள்ளார். </p>

<p> </p>

<p>திருச்சியில் முன்னாள்
தலைமை தேர்தல் அதிகாரி டி.என்.சேஷன் பேட்டி: வாக்காளர் அடையாள அட்டையை, சமூக பாதுகாப்பு
அட்டையாக கொண்டு வர வேண்டும்</p>

<p> </p>

<p>திருச்சி,ஜூலை.15- வாக்காளர் அடையாள அட்டையை சமூக பாதுகாப்பு
அட்டையாக கொண்டுவர வேண்டும் என திருச்சியில் நிருபர்களுக்கு பேட்டி அளித்த முன்னாள் தலைமை
தேர்தல் அதிகாரி டி.என்.சேஷன் கூறினார். </p><p>
</p><p>
முன்னாள் தலைமை தேர்தல் அதிகாரி டி.என். சேஷன் திருச்சியில் நேற்று (சனி) நிருபர்களுக்கு
பேட்டி அளித்தார். அப்போது அவர் நிருபர்கள் கேட்ட கேள்வி களுக்கு அளித்த பதில் வருமாறு:-
</p><p>
</p><p>
கேள்வி:- சமீபத்திய தேர்தல்களில் வாக்களிக்கும் வாக்காளர்களின் சதவீதம் குறைந்து
வருவதற்கு காரணம் குறித்து என்ன கருதுகிறீர்கள்? </p><p>
</p><p>
பதில்:-எல்லா தேர்தலிலும் அந்த மாதிரி இல்லை. சில தேர்தலில் மட்டும்தான் அவ்வாறு
வாக்களிக்கும் வாக்காளர்களின் விழுக்காடு குறைந்து வருகிறது. இதற்கு பல காரணங்களை கூறலாம்.
சாதாரண காரணங்களாக கூறவேண்டும் என்றால் கொளுத்தும் வெயில் காலமான மே மாதம் தேர்தல்
நடத்துவது மேலும் .தற்போது 18வயது பூர்த்தியடைந்தவர் களுக்கு வாக்குரிமை வழங்கப் பட்டுள்
ளது. இந்த வயதில் உள்ளவர் கள் பள்ளித்தேர்வுக்கு மிக சிரத்தை எடுத்து படித்துக்
கொண்டிருக்கும்போது தேர்தல் நடத்துவது. </p><p>
</p><p>
அடிப்படை காரணங் களாக கூற வேண்டும் என்றால் யார் ஆண்டால் என்ன? என்ற எண்ணம் மக்கள்
மத்்தியில் வந்திருக் கிறது. வாக்குச்சாவடிக்கு சென்று விட்டால் மின்னணு எந்திரத்தில்
யாராவது ஒரு வேட்பாளருக்கு கட்டாயம் வாக்களித்தே தீரவேண்டுமே என்ற கட்டாய நிலையும்
மக்கள் மத்தியில் ஏற்பட்டுள் ளது ஒரு காரணம். </p><p>
</p><p>
கேள்வி:- வாக்காளர் பட்டியலின் நிலை படிப்படியாக மோசமாவது குறித்து உங்கள் கருத்து
என்ன? </p><p>
</p><p>
பதில்:- வாக்காளர் பட்டியலை சீராக்குவதற்கான நடவடிக்கைகள் எடுத்தாலும் குறைந்து
கொண்டுதான் போகிறது.தற்போது தேர்தல் கமிஷன் வழங்கியுள்ள வாக்காளர் அடையாள அட்டை
இருந்தாலும் ஓட்டு இல்லை என்கிறார்கள். மக்களுக்கு ஜனநாயகத்தின் மீது நம்பிக்கை இல்லாமல்
இல்லை. ஜனநாயக காவலர்களாக தேர்தலில் போட்டியிடுகின்றவர்கள் மீது நம்பிக்கை இல்லாமல்
போய்விட்டது. அதுதான் வாக்காளர் பட்டியலின் நிலை மோசமாவதற்கு காரணம். </p><p>
</p><p>
356-வது சட்டப்பிரிவு </p><p>
</p><p>
கேள்வி:-மாநிலங்களவை உறுப்பினர்களை தேர்வு செய்வதற்கு தமிழகத்தில் சட்டமன்ற செயலர்
அல்லாத ஒருவரை தேர்தல் அதிகாரியாக நியமித்திருப்பது பற்றி என்ன கூறுகிறீர்கள்? </p><p>
</p><p>
பதில்:-அது சம்பந்தமாக தௌிவான விளக்கத்தை தேர்தல் அதிகாரி சாரங்கியே கூறியுள்ளார். </p><p>
</p><p>
கேள்வி:- அரசியல் சட்டத்தின் 356-வது பிரிவை பயன்படுத்துவது குறித்து அதிகமாக
பேசப்படுகிறதே. அதுபற்றி உங்கள் கருத்து என்ன? </p><p>
</p><p>
பதில்:- அது பிரசவ வைராக்கியம் போன்றது. ஆட்சியில் இருப்பவர்கள் 356-வது சட்டப்பிரிவை
பயன்படுத்தக்கூடாது என்பதும், ஆட்சியில் இல்லாதவர்கள் பயன்படுத்த வேண்டும் என்பதும்
வழக்கமான ஒன்றாகி விட்டது. இதுவரை மத்தியில் ஆட்சிக்கு வராமல் இருப்பவர் மட்டும்தான்
356-வது சட்டப் பிரிவை பயன்படுத்தவில்லை. மற்றவர்கள் அனைவரும் பயன்படுத்தி விட்டார்கள்.
</p><p>
</p><p>
கேள்வி:- வாக்காளர் அடையாள அட்டையை மேம்படுத்த உங்களது யோசனை என்ன? </p><p>
</p><p>
பதில்:-வாக்காளர் பட்டியலை திருத்துவதையும், வாக்காளர் அடையாள அட்டை வழங்குவதையும்
ஆண்டுக்கு ஒருமுறை ஜனவரி மாதம் செய்ய வேண்டும். 5ஆண்டுக்கு ஒரு முறை தீவிர மாகவும்,மற்ற
ஆண்டுகளில் சாதாரணமாகவும் செய்ய வேண்டும் என்றும் எனது பதவிக்காலத்தில் கூறியிருந் தேன்.
ஆனால் இதை சரியாக பின்பற்றாமல் விட்டுவிட்டனர். </p><p>
</p><p>
கேள்வி:-மக்கள் வாக்காளர் அடையாள அட்டையின் முக்கியத்துவத்தை உணர என்ன செய்ய
வேண்டும்? </p><p>
</p><p>
பதில்:- வாக்காளர் அடையாள அட்டையை அடிப்படை சான்றாக கொண்டு வரவேண் டும்.சமூக பாதுகாப்பு
அட்டை யாக மக்களின் அனைத்து அடிப்படை வசதிகளுக்கும் பயன்படுத்தும் வகையில் செய்தால்
அனைவரும் வாக்காளர் அடையாள அட்டையை வாங்கி விடுவார்கள். </p><p>
</p><p>
கேள்வி:-இந்திய பிரதமர் வாஜ்பாய்-பாகிஸ்தான் அதிபர் முஷரப் சந்திப்பு எவ்வாறு
இருக்கும்? </p><p>
</p><p>
பதில்:- காஷ்மீர் பிரச்சினை என்பது நீண்ட நாள் பிரச்சினை ஆகும்.உட னடியாக தீர்ந்து
விடாது. நல்லது நடக்கும் என்று எதிர்பார்ப்போம். </p><p>
</p><p>
இவ்வாறு அவர் கூறினார். </p>

<p> </p>

<p>பல்க் ஏஜெண்டாக
கே.ஏ.எஸ்.ராம்தாஸ் நியமனம்: 20 ரூபாயில் 2 கோடீஸ்வரரை உருவாக்கும் தமிழ்நாடு
சுதந்திரதின பம்பர் லாட்டரி அறிமுகம்</p>

<p> </p>

<p>திருச்சி, ஜூலை.15- 20ரூபாயில், ஒரே குலுக்கலில் 2கோடீஸ்வரர்களை
உரு வாக்கும் வகையில் தமிழ்நாடு அரசு சுதந்திர தின பம்பர் லாட்டரியை வௌியிட்டுள்ளது.
இதன் பல்க் ஏஜெண்டாக திருச்சி கே.ஏ.எஸ்.ராம்தாஸ் நியமிக்கப்பட்டுள்ளார். </p><p>
</p><p>
தமிழ்நாடு அரசு பரிசுச் சீட்டுத்துறை பல்வேறு வீக்லி மற்றும் பம்பர் டிக்கெட்டுகளை
வௌியிட்டு நடத்தி வருகிறது. தற்போது தமிழ்நாடு சுதந்திர தின பம்பர் என்னும் புதிய
லாட்டரி டிக்கெட்டை வௌியிட் டுள்ளது. </p><p>
</p><p>
முதல்முறை </p><p>
</p><p>
இந்தியாவிலேயே முதல் முறையாக ஒரே குலுக்கலில் 2 கோடீஸ்வரர்களை உருவாக்க வாய்ப்பளிக்கும்
வகையில் முதல்பரிசு ரூ.2கோடி, 2-வது பரிசு ரூ.1கோடி வழங்கும் விதமாக பரிசுத்திட்டம்
வடிவமைக்கப்பட்டுள்ளது. தமிழ்நாடு சுதந்திரதின பம்பர் 15-வது குலுக்கல் 23-8-2001 அன்று
காஞ்சிபுரத்தில் மாவட்ட ஆட்சி தலைவர் தலைமை யிலும், பொதுமக்கள் முன்னிலையிலும்
நடக்கிறது. ஒரு டிக்கெட் விலை ரூ.20. ஆகும். ்ணீ, ்நீ, ்், ்ங, ்லி என 5 வரிசைகளில்
வரிசைக்கு 6 லட்சம் டிக்கெட்டுகள் வௌியிடப்பட்டுள்ளது. </p><p>
</p><p>
முதல்பரிசு ரூ.2கோடி 2-வது பரிசு ரூ.1கோடி </p><p>
</p><p>
தமிழ்நாடு சுதந்திர தின பம்பர் குலுக்கலில் முதல்பரிசாக ரூ.2 கோடியும், 2-வது பரிசாக ரூ.1
கோடியும் வழங்கப்படுகிறது. 3-வது பரிசாக ரூ.5,000 வீதம் 50 பரிசுகளும், 4-வது பரிசாக
ரூ.1,000 வீதம் 100 பரிசுகளும், 5-வது பரிசாக ரூ.500 வீதம் 300 பரிசுகளும், 6-வது பரிசாக
ரூ.50 வீதம் 3000 பரிசுகளும், 7-வது பரிசாக ரூ.20 வீதம் 60,000 பரிசுகளும் வழங்கப்படுகிறது.
</p><p>
</p><p>
இலவச கூப்பன் </p><p>
</p><p>
தமிழ்நாடு சுதந்திர தின பம்பர் 5 டிக்கெட் வாங்குபவர்களுக்கு ஒரு இலவச ஊக்கப்பரிசு கூப்பன்
வழங்கப்படுகிறது. இதில் பரிசாக 1 நபருக்கு 1.7 கிராம் தங்கம் (அல்லது) ரூ.600 வீதம் 600
நபர்களுக்கு மொத்தம் 1 கிலோ தங்கம் வழங்கப்படுகிறது. இந்த தங்கப்பரிசு முதல் பரிசு
பெறும் சுதந்திர தின பம்பரின் கடைசி 3எண்களை கொண்ட அனைத்து ஊக்கப்பரிசு கூப்பன்
களுக்கும் வழங்கப்படுகிறது. </p><p>
</p><p>
தமிழ்நாடு சுதந்திர தின பம்பர் 50 டிக்கெட் வாங்கும் ஏஜெண்டுகளுக்கு ஒரு ஏஜெண்ட் கூப்பன்
வழங்கப் படுகிறது. இதில் முதல் பரிசாக டி.வி.எஸ்-50 6 நபர்களுக்கு வழங்கப்படுகிறது. இதில்
முதல்பரிசு பெறும் டிக்கெட் எண்ணின் கடைசி 4 எண்கள் கொண்ட இலவச பரிசுக் கூப்பனுக்கு
வழங்கப்படுகிறது. 2-வது பரிசாக போர்ட்டபிள் டி.வி. 6நபர்களுக்கு வழங்கப்படு கிறது. இந்த
பரிசு 2-வது பரிசு பெறும் டிக்கெட் எண்ணின் கடைசி 4 எண்கள் கொண்ட இலவச கூப்பனுக்கு இந்த
பரிசு வழங்கப்படுகிறது. </p><p>
</p><p>
இந்த அனைத்து பரிசுகளையும் பல்க் ஏஜெண்ட் திருச்சி கே.ஏ.எஸ்.ராம்தாஸ் தன் சொந்த
செலவில் வழங்குகிறார். </p><p>
</p><p>
மணியார்டர் </p><p>
</p><p>
வீட்டில் இருந்தபடியே பரிசுகளை வென்றிட கே.ஏ.எஸ். ராம்தாஸ், சிங்காரத்தோப்பு,
திருச்சி-8. என்ற முகவரிக்கு ரூ.200 மணியார்டர் அனுப்பினால் ரிஜிஸ்டர் தபாலில் தமிழ்நாடு
சுதந்திர தின பம்பர் பரிசு சீட்டுகள் தங்கள் இல்லத்திற்கே அனுப்பி வைக்கப்படும்.
ரிஜிஸ்டர் தபால் செலவு இலவசம் என்று பல்க் ஏஜெண்டு திருச்சி கே.ஏ.எஸ். ராமதாஸ்
தெரிவித்துள்ளார். </p>

<p> </p>

<p>போலீசார் தாக்கியதால்
கால்முறிவு: ரூ.20 லட்சம்் நஷ்டஈடு கேட்டு தாமரைக்கனி வழக்கு, 20-ந்தேதி விசாரணை</p>

<p> </p>

<p>திருவில்லிபுத்தூர், ஜூலை.15- போலீசார் தன்னை தாக்கியதால்
கால் முறிவுக்கு சிகிச்சை பெற்று வரும் தாமரைக்கனி போலீசார் தனக்கு ரூ.20 லட்சம் நஷ்ட
ஈடு தரக் கோரி திருவில்லிபுத்தூர் கோர்ட்டில் வழக்கு தொடர்்ந்தார். </p><p>
</p><p>
தி.மு.க.தலைவர் கருணாநிதி கைது செய்யப்பட்டதும் முன்எச் சரிக்கையாக தாமரைக்கனி கைது
செய்யப்பட்டார் அல்லவா? அவரை போலீசார் தாக்கியதில் கால் மற்றும் கைகளில் முறிவு
ஏற்பட்டு தாமரைக்கனி மதுரையில் உள்ள தனியார் மருத்துவமனையில் சிகிச்சை பெற்று வருகிறார்.
</p><p>
</p><p>
தன்னை தாக்கிய போலீசார் மனித உரிமைகளை மீறி செயல்பட்டு தாக்கியதால்் தனக்கு கால்
மற்றும் கைகளில் முறிவு ஏற்பட்டுள்ளது. எனவே ரூ.20 லட்சம் நஷ்ட ஈடு தர வேண்டும் என
உள்துறை செயலாளர், விருது நகர் மாவட்ட போலீஸ் சூப்பி ரெண்டு இன்ஸ்பெக்டர் முருகேசன்,
சப்இன்ஸ்பெக்டர் கனக சுந்தரம் ஆகியோர் மீது தாமரைக்கனி சார்பில் அவரது மனைவி
தேவகியும், தாமரைக்கனியும் திருவில்லிபுத்தூர் குற்றவியல் நீதிமன்றத்தில் வழக்கு
தொடர்ந்தனர். </p><p>
</p><p>
இந்த வழக்கில் தாமரைக்கனிக்கு ஆதரவாக வழக்கறிஞர் லஜபதிராய், திருமலையப்பன்
ஆகியோர் ஆஜராகி வாதாடினர். வழக்கை விசாரணைக்கு எடுத்துக்கொள்ள வேண்டும் என்று
வழக்கறிஞர்கள் வாதாடியதால் சுமார் 1 மணி நேரத்துக்கு மேல் நீதிபதி
கிருஷ்ணமராஜுக்கும் வழக்கறிஞர்களுக்கும் விவாதம் நடந்தது. </p><p>
</p><p>
பின்னர் நீதிபதி இந்த வழக்கை விசாரணைக்கு எடுத்துக்கொள்வதா? அல்லது வேண்டாமா?
என்பது குறித்து 20-ந்தேதி முடிவை அறிவிப்பதாக கூறினார். </p>

<p> </p>

<p>கருணாநிதி கைது-அதிர்ச்சி,
மயக்க நிலையிலேயே தி.மு.க. பிரமுகர் உயிர் பிரிந்தது</p>

<p> </p>

<p>சென்னை, ஜூலை 15- தி.மு.க. தலைவர் கருணாநிதி போலீசாரால்
அராஜகமான முறையில் கடந்த 30-ந்தேதி கைது செய்யப்பட்டார் அல்லவா? இதனால் அதிர்ச்சி
அடைந்து 40 பேர் உயிர் விட்டனர். </p><p>
</p><p>
இப்போது பெரம்பலூர் மாவட்டம் புதுநடுவலூர் கிளை தி.மு.க. அவைத்தலைவர் கணேசன் என்பவரும்
உயிர் துறந்து உள்ளார். இவர் 30-ந்தேதி டி.வி.யில் கருணாநிதி கைது காட்சியை
பார்த்தவுடன் மயங்கி விழுந்தார். மருத்துவமனையில் இத்தனை நாள் கோமா நிலையில்
இருந்தார். </p><p>
</p><p>
இப்போது கணேசன் உயிர் பிரிந்து விட்டது. மத்திய அமைச்சர் ஆ.ராஜா சென்று கணேசன்
படத்துக்கு மாலை அணிவித்து அஞ்சலி செலுத்தினார். </p>

<p> </p>

<p>சென்னை தொழிற்சாலையில்
சோதனை: ரூ.50 லட்சம் போலி மருந்து பறிமுதல், வௌிநாட்டுக்கு கடந்த முயன்றபோது பிடிபட்டது</p>

<p> </p>

<p>சென்னை, ஜூலை 15- சென்னை தொழிற்சாலையில் சோதனை நடத்தி ரூ.50
லட்சம் போலி மருந்து பறிமுதல் செய்யப்பட்டது. </p><p>
</p><p>
இதுகுறித்து தமிழக அரசு நேற்று வௌியிட்டுள்ள செய்திக் குறிப்பு வருமாறு:- </p><p>
</p><p>
முதலமைச்சர் ஜெயலலிதா மக்கள் நலம் மற்றும் குடும்ப நலத்துறையின் செயல்்பாடு களை ஆய்வு
செய்தபொழுது போலியான மருந்துகளை கண்டுபிடிப்பதற்கும் அவ்வாறு செய்யும் நிறுவனங்களின் மீது
சட்ட நடவடிக்கை மேற்கொள்வதற்கான அமைப்பை வலுப்படுத்துவதால் அவ்வாறான குற்றங்களை குறைக்க
இயலும் என அறிவுரை வழங்கியுள்ளார். </p><p>
</p><p>
ரூ.50 லட்சம் போலி மருந்து </p><p>
</p><p>
மக்கள் நல்வாழ்வுத்துறை அமைச்சரின் ஆணையின் படி மருந்து கட்டுப்பாட்டு துறையின்
அதிகாரிகள் சென்னையை அடுத்துள்ள போரூர் இண்டெர்மெட், ஜி.கே.தொழிற்பேட்டை
நிறுவனத்தினை திடீரென சோதனையிட்டதின் பேரில் பெருமளவிலான மோவேட் கிரீம்
தமிழ்நாட்டில் தயாரிக்கப்பட்டு இ இசாபார்மா என்ற இத்தாலி நாட்டின் கம்பெனியின்
வியாபார பெயரில் விநியோகம் செய்ய உத்தேசிக்கப்பட்டுள்ளது. </p><p>
</p><p>
கைப்பற்றப்பட்ட பொருள்களின் மதிப்பு ரூ.50 லட்சமாகும். மருந்து கட்டுப்பாட்டுத்துறை
அதிகாரிகள் உரியநேரத்தில் நடவடிக்கை எடுத்திருக்காவிட்டால் அப்பொருள்கள் சாம்பியா
நாட்டிற்கு கப்பல் மூலமாக அனுப்பபட்டிருக்கும். மருந்து கட்டுப் பாட்டுத்துறை அதிகாரிகளால் இது வரை
கைப்பற்றப்பட்டுள்ள பொருள்களில் இம்முறை கைப்பற்றப்பட்டுள்ளது மிகப்பெரிய அளவாகும். </p><p>
</p><p>
போலீசில்புகார் </p><p>
</p><p>
இதுதவிர மேற்கூறிய நிறுவனம் சோமிடோன் என்ற பெயரில் பல்வகை வைட்டமின் கொண்ட
மாத்திரைகள் தயாரிக்கும் பணியிலும் ஈடுபட்டுள்ளது. இந்நிறுவனத்திற்கு மேற்படி பொருள்கள்
தயாரிப்பதற்கு உரிமம் வழங்கப்படவில்லை. மேற்படி வைட்டமின் மாத்திரைகள் தயாரிப்பதற்கு
மருந்து கட்டுப்பாட்டுத்துறையால் சென்னையிலுள்ள திருவாளர்கள்வில் காக்ஸ் மருந்தகம் என்ற
நிறுவனத்திற்கு உரிமம் வழங்கப்பட்டுள்ளது. </p><p>
</p><p>
உண்மையான உரிமம் பெற்றவரின் பெயரால் மோசடி செய்யும் வகையில் சோமிடோன் பல்வகை
வைட்டமின் மாத்திரைகள் இண்டர்மெட், ஜி.கே. தொழிற்பேட்டை போரூர் என்ற நிறுவனத்தால்
தயாரிக்கப்பட்டுள்ளது. மக்கள் நல்வாழ்வுத் துறை அமைச்சர் கைப்பற்றப் பட்ட பொருள்களை
பார்வை யிட்டு மருந்து கட்டுப்பாட்டு அலுவலரை தயாரிப்பாளரின் மீது மருந்துகள் மற்றும் அழகு
சாதனங்கள் சட்டம் மற்றும் இந் திய குற்றவியல்சட்டம் ஆகியவற்றின் கீழ் நடவடிக்கை மேற்
கொள்ள உத்தரவிட்டுள்ளார். இது சம்பந்தமாக காவல்துறை அதிகாரிகளிடம் புகார் ஒன்று
கொடுக்கப்பட்டுள்ளது. </p><p>
</p><p>
இவ்வாறு அதில் கூறப்பட்டிருக்கிறது. </p>

<p> </p>

<p>லாரிகளில் வரும் குடிநீர்
ஓட்டல்களுக்கு விற்பனை</p>

<p> </p>

<p>சென்னை, ஜூலை 15- குடிநீர் லாரிகளில் வரும் தண்ணீர் திருடி
ஓட்டல்களுக்கு விற்பனை செய்யப்பட்டு வருகிறது. </p><p>
</p><p>
சென்னை நகரில் நாளுக்கு நாள் குடிநீர் பஞ்சம் அதிகரித்து வருகிறது அல்லவா? கடந்த
20 ஆண்டுகளில் இந்த ஆண்டு தான் வரலாறு காணாத குடிநீர் பஞ்சம் சென்னையில் ஏற்பட்டு
உள்ளது. குடிநீர் பஞ்சத்தை போக்க நெய்வேலியில் இருந்து லாரிகள் மூலமும், ஈரோடு -
மேட்டூரில் இருந்து ரெயில்கள் மூலமும் தண்ணீர் கொண்டு வர தமிழக அரசு ஏற்பாடு செய்தது. </p><p>
</p><p>
நெய்வேலியில் இருந்து 500 லாரிகள் மூலம் தண்ணீர் சென்னைக்கு கொண்டுவரப் படும் என அரசு
தெரிவித்து இருந்தது. ஆனால் இதுவரை 370 லாரிகள்தான் சென்னைக்கு வந்திருக்கிறது. இந்த
தண்ணீரும், ஈரோட்டில் இருந்து கொண்டு வரப்படுகிற தண்ணீரையும் பயன்படுத்தினால் கூட
சென்னை நகரில் ஏற்பட்டு உள்ள குடிநீர் பஞ்சத்தை போக்க முடியாது என குடிநீர் வாரிய
அதிகாரிகள் அரசுக்கு கடிதம் மூலம் கருத்து தெரிவித்து இருந்தார். </p><p>
</p><p>
கிருஷ்ணாநீர் வரவில்லை </p><p>
</p><p>
எனவே கிருஷ்ணாநீரை திறந்து விடுமாறு ஆந்திர மாநில அரசுக்கு தமிழக அரசு கோரிக்கை விடுத்தது.
அதன் அடிப்படையில் ஆந்திராவில் இருந்து கடந்த 2-ந்தேதி முக்கால் டி.எம்.சி.கிருஷ்ணா நீர்
திறந்துவிடப்பட்டது. இதில் 1/2 டி.எம்.சி. தண்ணீராவது கடந்த 12-ந்தேதி தமிழக எல்லையை
வந்தடையும் என எதிர்பார்க்கப்பட்டது. ஆனால் இதுவரை கிருஷ்ணாநீரும் தமிழக எல்லைக்கு வந்து
சேரவில்லை </p><p>
</p><p>
விநியோகம் பாதிப்பு </p><p>
</p><p>
இப்படி ஒரு பக்கம் வந்து சேர வேண்டிய தண்ணீர் சென்னைக்கு வரவில்லை. மற் றொரு பக்கம்
கையிருப்பில் உள்ள குடிநீரும் சரியான முறையில் விநியோகம் செய்யப்படுவது கிடையாது. சென்னை
மக்களின் தேவையை தீர்க்க நாௌான்றுக்கு 250 மில்லியன் லிட்டர் தண்ணீர் தேவைப்படுகிறது.
ஆனால் விநியோகம் செய்ப்படுவது 140 மில்லியன் லிட்டர் மட்டுமே. </p><p>
</p><p>
ஓட்டல்களில் விற்பனை </p><p>
</p><p>
சென்னையில் பல தெருக்களில் கறுப்பு வண்ண சின்டெக்ஸ் டாங்குகள் அமைக் கப்பட்டு உள்ளது.
இந்த டாங்குகளுக்கு எண்கள் கொடுக்கப்பட்டு உள்ளது. எனவே அந்த டாங்குகளுக்கு, லாரிகள் மூலம்
குடிநீர் ஓழுங்காக விநியோகம் செய்யப்படுகிறது. ஆனால் டாங்குகள் நிறுவப்படாத இடங்களில்
லாரிகள் மூலம் மட்டும் தான் குடிநீர் விநியோகம் செய்யப்படுகிறது. </p><p>
</p><p>
இதை அ.தி.மு.க.வினர் நன்றாக பயன்படுத்திக்கொள்கிறார்களாம். நீரேற்று நிலையங்களில்
இருந்து வரும் லாரிகளை அவர்கள் மடக்கி ஓட்டல்கள் மற்றும் தங்கும் விடுதிகளுக்கு அந்த
தண்ணீரை விற்று விடுகிறார்கள் என பொதுமக்கள் கூறு கிறார்கள். ஒரு லாரி தண்ணீர் ஆயிரம்
ரூபாய் வரை இப்படி விற்பனை செய்யப்படுவதாக தெரிகிறது. </p><p>
</p><p>
பறக்கும் படை </p><p>
</p><p>
இதனால் குடிநீர் லாரி வருமா என சென்னை நகர மக்கள் காலை முதல் இரவு வரை தெருக்களில் தவம்
கிடக்கிறார்கள். ஆனால் அவர்களுக்கு தண்ணீர் போய் சேருவதில்லை. இப்படி காத்துக்கிடக்கும்
மக்களுக்கு சந்தேகம் விடக்கூடாது என்பதற்காக ஒரு நாள் விட்டு ஒருநாள் இப்படி லாரிகளில்
வரும் தண்ணீரை அ.தி.மு.க.வினர் திருடி விற்றுவருவதாக கூறப்படுகிறது. </p><p>
</p><p>
குடிநீர் விநியோகம் தொடர்பாக ஏதேனும் குறைகள் இருந்தால் அது பற்றி தெரிவிக்க முந்தைய
தி.மு.க. ஆட்சியில் பறக்கும் படை அபூர்வவர்மா என்ற ஐ.ஏ.எஸ். அதிகாரி தலைமையில்
அமைக்கப்பட்டது. தற்போது அ.தி.மு.க. அரசின் பழிவாங்கும் போக்கின் கீழ் அபூர்வ
வர்மாவும் பணி இட மாற்றம் செய்யப்பட்டு உள்ளார். </p>

<p> </p>

<p>நிஜ வாழ்க்கையில்
தீரச்செயல் புரிந்த நடிகர்</p>

<p> </p>

<p>இண்டியானா ஜோன்ஸ் என்ற ஆங்கிலப் படத்தில் தொல் பொருள்
ஆராய்ச்சியாளராக நடித்துள்ளவர் நடிகர் ஹாரிசன் போர்டு. சினிமாவில் வீர தீரச் செயல்கள்
புரியும் இவர் நிஜ வாழ்க்கையிலும் அதுபோன்ற ஒரு சாதனை புரிந்து உள்ளார். அதன் விவரம்
வருமாறு: </p><p>
</p><p>
எல்லோ ஸ்டோன் தேசியப் பூங்காவில்் ஒரு சாரணர் முகாம் நடந்தது. அப்போது அதில் பங்கு
பெற்ற குளோடி கிளாசன் (வயது 13) என்ற சிறுவன் திடீரென காணாமற்போய்விட்டான். இது குறித்து
மீட்புப் படையினருக்கு தகவல் கொடுக்கப்பட்டது. ஆனால் எங்கு தேடியும் அவன்
கிடைக்கவில்லை. இதற்கிடையில் தகவல் அறிந்த நடிகர் போர்டு, தனது சொந்த ஹெலிகாப்டரை
எடுத்துக்கொண்டு போய் சிறுவனை தேடும் பணியில் ஈடுபட்டார். அப்போது ஒரு இடத்தில்
சிறுவன் காணப்பட்டான். உடனே நடிகர், தனது ஹெலிகாப்டரை அந்த இடத்தில் தாழ்வாகப்
பறக்கவிட்டு, அந்த சிறுவனை மீட்டார். </p><p>
</p><p>
எம்மி விருது பெறும் டி.வி. நடிகை </p><p>
</p><p>
இங்கே படத்தில் காணப்படுபவர், எச்.பி.ஓ.தொலைக் காட்சித் தொடரான செக்ஸ் அண்டு
சிட்டியில் நடித்தவர் நடிகை கிம் கேட்ரால். இவர், எம்மி விருதுக் காகத்
தேர்ந்தெடுக்கப்பட்டுள்ளார். நகைச்சுவைத் தொடரில் நடித்த சிறந்த துணை நடிகை விருது இவருக்கு
வழங்கப்பட உள்ளது. இந்த விருது வழங்கும் விழா, செப்டம்பர் 16-ந்தேதி லாஸ்
ஏஞ்சல்சில் நடைபெற உள்ளது. </p><p>
</p><p>
ஒரே நேரத்தில் 5 குதிரை மீது சவாரி </p><p>
</p><p>
குதிரை சவாரி செய்பவர்கள் பொதுவாக ஒரு குதிரை மீது தான் சவாரி செய்வார்கள். ஆனால்
சூரிய பகவான், 7 குதிரைகள் பூட்டிய தேரை செலுத்துவதாக புராணங்கள் கூறுகின்றன. இதேபோன்று
ஹங்கேரி நாட்டில் சில குதிரை வீரர்கள் ஒரே நேரத்தில் 5 குதிரைகள் மீது சவாரி
செய்கிறார்கள். இங்கு உள்ள புஷ்டா என்ற சமவௌி குதிரை சவாரிக்கு பெயர் பெற்றது ஆகும்.
இங்கு வரும் சுற்றுலாப்பயணிகளைக் கவருவதற்காக குதிரை வீரர்கள் பல சாகசங்களை செய்து
காட்டுகிறார்கள். படத்தில் ஒருவர் 5 குதிரைகளை ஒரே நேரத்தில் ஓட்டுவதை காணலாம். </p><p>
</p><p>
</p><p>
</p><p>
ஒலிம்பிக் வெற்றி தபால்தலை வௌியீடு </p><p>
</p><p>
2008-ம் ஆண்டு சர்வதேச ஒலிம்பிக் போட்டி நடத்துவதற்காக சீனத் தலைநகர் பெய்ஜிங்
தேர்ந்தெடுக்கப்பட்டு உள்ளது அல்லவா? கடும் முயற்சிக்குப் பிறகு கிடைத்த இந்த வெற்றியை
சீன மக்கள் சிறப்பாகக் கொண்டாடி வருகிறார்கள். இந்த அறிவிப்பு வௌியான மறுநாளே
சீனாவில் வெற்றியின் அடையாளமாக ஒரு சிறப்புத் தபால்தலை வௌியிடப்பட்டது. அதில்,
ஒலிம்பிக் முயற்சியின் வெற்றி அனைவராலும் கொண்டாடப்படுகிறது என்ற வாசகங்கள்
பொறிக்கப்பட்டுள்ளன. </p>

<p> </p>

<p>எய்ட்ஸ் சோதனைக்கு
நீதிபதி எதிர்ப்பு</p>

<p> </p>

<p>புதுடெல்லி, ஜூலை 15- நோய்டா நீதிமன்றத்தில் விபசார வழக்கில்
பிடிபட்ட 26 செக்ஸ் அழகிகளின் குற்றத்தை உறுதி செய்ய எய்ட்ஸ் பரிசோதனைக்கு நீதிபதி
உத்தரவிட்டார். இதில் 22 பேரின் மருத்துவ முடிவு உடனே வௌியாகி, அவர்களுக்கு எய்ட்ஸ்
இல்லாத காரணத்தால் பெயிலில் விடுதலை செய்யப்பட்டனர். எஞ்சிய 4 பேரின்
பரிசோதனை முடிவுகள் வௌியாக வில்லை. இந்நிலையில் செக்ஸ் அழகிகளுக்கு எய்ட்ஸ் சோதனை
செய்யப்பட்டதை எதிர்த்து கோர்ட்டில் வழக்கு தொடரப்பட்டது. இந்த வழக்கை விசாரித்த
மற்றொரு நீதிபதி செக்ஸ் அழகிகளுக்கு எய்ட்ஸ் பரிசோதனை செய்தது சட்டத்திற்கு புறம்பானது
என்று தீர்ப்பு கூறியுள்ளார். ஏனெனில் எய்ட்ஸ் உடலுறவு மூலம் மட்டும் பரவுவது இல்லை,
ரத்ததானம் மூலமாகவும் பரவும். எனவே எய்ட்ஸ் பரிசோதனை மூலம் விபசாரத்தை உறுதி செய்ய
முடியாது என அவர் விளக்கம் அளித்துள்ளார். </p><p>
</p><p>
பெண்கள் மூலம் ஆணுறை விற்பனை </p><p>
</p><p>
ஐதராபாத், ஜூலை 15- எய்ட்ஸ் நோயாளிகள் அதிகம் உள்ள மாநிலங்களில் மராட்டியத்தை
அடுத்து ஆந்திரா 2-வது இடம் வகிக்கிறது. இங்கு பெண்கள் மூலம் ஆணுறை விற்பனை செய்யும்
புதிய திட்டம் அறிமுகமாகி உள்ளது. இந்த திட்டம் எதிர்பாராத அள விற்கு நல்ல வெற்றியை
கொடுத்துள்ளது. தேர்ந் தெடுக்கப்பட்ட பெண்களுக்கு மலிவு விலையில் ஆணுறைகள்
விநியோகிக்கப்படுகின்றன. இவர்கள் மார்க்கெட் விலைக்கு வீடு, வீடாக சென்று
பொதுமக்களிடம் ஆணுறைகளை விற்பனை செய்கின்றனர். இதன் மூலம் அப்பெண்களுக்கும் கணிசமான
லாபம் கிடைக்கிறது. பெரும்பாலும் ஆந்திராவின் குடிசைவாழ் பகுதிகளை குறி வைத்தே இந்த
வியாபாரம் நடை பெறுகிறது. இவர்களிடம் திருமணமாகாத இளம்பெண்கள் கூட ஆணுறைகளை கேட்டு
வாங்குகின்றனராம். </p><p>
</p><p>
வௌிநாடுகளில் கோவா சுற்றுலா விளம்பரம் </p><p>
</p><p>
பனாஜி, ஜூலை 15- இந்தியாவின் மிகச்சிறிய மாநிலம் கோவா. இங்கு சுற்றுலாவை மேம்படுத்த
மாநில அரசு தீவிர முயற்சி மேற்கொண்டு வருகிறது. குறிப்பாக வௌிநாட்டு சுற்றுலா பயணிகளை
அதிக எண்ணிக்கையில் ஈர்க்க திட்டமிடப்பட்டுள்ளது. இதற்கான விளம்பரத்திற்காக 2.5
கோடி ரூபாய் ஒதுக்கப்பட்டு உள்ளது. அமெரிக்கா, ஐரோப்பிய நாடுகள், ஆசிய நாடுகள்
ஆகியவற்றில் கோவா மாநிலம் பற்றிய விளம்பர பல கைகள் வைக்கப்பட உள்ளன. மேலும் டி.வி.,
பத்திரிகை மீடியாக்கள் மூல மும் விளம்பரம் செய்யப்பட உள்ளது. </p>

<p> </p>

<p>குற்றால சீசன் நிலவரம்</p>

<p> </p>

<p>தென்காசி, ஜூலை.15- குற்றாலத்தில் நேற்று சாரல் இல்லை. வெயில்
அடித்தது. ஆனால் அனைத்து அருவி களிலும் தண்ணீர் தாராளமாக விழுகிறது. நேற்று சுற்றுலாப்
பயணிகள் கூட்டம் அலை மோதியது. இதனால் ஐந்தருவி, மெயின் அருவியில் பெண்களை நீண்ட
வரிசையில் காத்து நின்று குளித்தனர். </p>

<p> </p>

<p>சென்னையில் பரிதாபம்:
எய்ட்சுக்கு 71/2 வயது சிறுமி பலி</p>

<p> </p>

<p>சென்னை, ஜூலை 15- சென்னை அடையாறில் எய்ட்ஸ் நோய் தடுப்பு
மற்றும் பாதுகாப்பு மருத்துவமனை உள்ளது. இங்கு சிகிச்சைக்காக சேர்க்கப்பட்ட சந்தியா என்ற
71/2 வயது சிறுமி பரி தாபமாக இறந்தாள். அவள் எந்த ஊரை சேர்ந்தவள், பெற்றோர்கள் யார்
என்பது போன்ற விவரங்களை மருத்துவமனை வட்டாரங்கள் தெரிவிக்க மறுத்து விட்டன. சந்தியா 5
மாத கருவாக வயிற்றில் இருந்தபோதே அவள் எய்ட்ஸ் நோயால் தாக்கப்பட்டாள் என்பது
குறிப்பிடத்தக்கது. </p><p>
</p><p>
இந்த மருத்துவமனையில் 3 ஆயிரத்துக்கும் மேற்பட்டோர் எய்ட்ஸ் நோயால் பாதிக்கப்பட்டு
சிகிச்சை பெற்று வருகிறார்கள். இதில் 78 பேர் குழந்தைகள் ஆவர். </p>

<p> </p>

<p>திருவொற்றியூர் மருந்து
கடையில் கொள்ளை: மணப்பெண்ணுடன் முதலிரவு நடத்திய கொள்ளையன் கைது, திருடிய பணத்தில் மது
விருந்து நடத்தினான்</p>

<p> </p>

<p>திருவொற்றியூர், ஜூலை 15- திருவொற்றியூர் மருந்து கடையில்
கொள்ளையடித்தவர் மணப்பெண்ணுடன் முதல் இரவு கொண்டாட்டத்தில் இருந்தபோது கைதானார்.
இந்த ருசிகர சம்பவம் பற்றிய விவரம் வருமாறு:- </p><p>
</p><p>
திருவொற்றியூரில் சாந்தி மெடிக்கல்ஸ் என்ற மருந்து கடை உள்ளது. இந்த கடையின் பூட்டை
சம்பவத்தன்று இரவு மர்ம ஆசாமி உடைத்து ரூ. 3 லட்சம் வசூல் பணத்தை திருடிச் சென்றான். இது
குறித்து திருவொற்றியூர் போலீசார் வழக்கு பதிந்து மர்ம ஆசாமியை தேடி வந்தனர். </p><p>
</p><p>
ரவுடி </p><p>
</p><p>
இந்த நிலையில் பல கொள்ளை - வழிப்பறி வழக்கில் தொடர்புடைய பிரபல ரவுடி
திருவொற்றியூர் சக்தி கணபதி நகரை சேர்ந்த வெங்க டேசன் (வயது 32) என்பவரை சென்னை
அடையாறு குற்றப் பிரிபு போலீசார் தேடி வந்தனர். </p><p>
</p><p>
இந்த சூழ்நிலையில் வெங்க டேசனுக்கும் திருவண்ணா மலை மாவட்டம் செங்கம் கிரா மத்தை
சேர்ந்த ஒரு கவுன்சிலர் மகளுக்கும் திருமணம் நடப்பதாக தகவல் அடையாறு போலீ சாருக்கு
தெரியவந்தது. அதன் பேரில் போலீசார் வெங்க டேசனை கைது செய்ய அங்கு விரைந்து சென்றனர். </p><p>
</p><p>
அப்போது வெங்கடேசனுக்கு அன்று காலை திருமணம் நடந்து முதல் இரவு நிகழ்ச்சி களுக்குரிய
ஏற்பாடுகள் தடபுடலாக நடந்த செய்தி போலீசாருக்கு தெரிந்தது. உடனே போலீசார் அங்கு தங்கி
இருந்து இரவு வீட்டை சுற்றி வளைத்து கண்காணித்தனர். </p><p>
</p><p>
பிறகு அவாகள் இரவு மணப்பெண்ணுடன் முதலிரவு கொண்டாடிக் கொண்டிருந்த மணமகன் வெங்கடேசனை
நைசாக அழைத்து வௌியே கொண்டு வந்தனர். பிறகு அவரை காவல் நிலையத்திற்கு அழைத்து வந்து
விசாரித்தனர். </p><p>
</p><p>
போலீசாரிடம் அவர் கூறியதாவது:- </p><p>
</p><p>
திட்டம் </p><p>
</p><p>
நான் திருவொற்றியூர் மருந்து கடையில் கொள்ளையடிக்க ஒருவாரமாக திட்டமிட்டு அதற் காக
நோட்டமிட்டு வந்தேன். அதன் பின் கடந்த செவ்வாயக் கிழமை இரவு ஒரு மணிக்கு எனது சொந்த
மாருதி காரில் மெடிக்கல் ஷாப்புக்கு சென் றேன். அங்கு தனியாக கடையின் பூட்டை உடைத்து
கல்லாவில் இருந்த ரூ. 88 ஆயிரத்தை கொள்ளையடித்தேன். </p><p>
</p><p>
மது விருந்து </p><p>
</p><p>
பிறகு அந்த பணத்துடன் காலையில் செங்கத்தில் நடக்கும் எனது திருமணத்துக்கு விரைந் தேன்.
திருமண விழாவுக்கு வந்தவர்களை மகிழ்விப்பதற்காக கொள்ளை அடித்த பணத்தில் ரூ. 35
ஆயிரத்துக்கு மதுபானம் வாங்கி நண்பர்கள், உறவினர்களுக்கு கொடுத்தேன். இரவு மனைவியுடன்
முதல் இரவு கொண்டாட்டத்தில் தன்னையே மறந்து இருந்த போது போலீசார் மோப்பம் பிடித்து
என்னை கைது செய்தனர். </p><p>
</p><p>
இவ்வாறு கூறியதாக தெரிகிறது. </p><p>
</p><p>
அழைப்பிதழ் காட்டி கொடுத்தது </p><p>
</p><p>
பல கொள்ளை வழக்கில் கைதான வெங்கடேசன், தனது திருமண அழைப்பிதழில் பைனான்சியர் என்று
குறிப்பிட்டுள்ளார். அந்த அழைப்பிதழை வைத்து தான் அவரை போலீசார் கைது செய்துள்ளனர். </p><p>
</p><p>
முதலிரவு கொண்டாட்டத்தில் இருந்தபோது போலீசார் மணமகனை கைது செய்து அழைத்து சென்றது
அப்பகுதியினரை அதிர்ச்சி அடைய செய்தது. </p>

<p> </p>

<p> </p>






</body></text></cesDoc>