<cesDoc id="tam-w-dinakaran-news-00-10-20" lang="tam">
<cesHeader type="text">
<fileDesc>
<titleStmt>
<h.title>tam-w-dinakaran-news-00-10-20.txt</h.title>
<respStmt>
<respType>Electronic file created by</respType>
<respName>Department of Linguistics, Lancaster University</respName>
<respType>text collected by</respType>
<respName>Paul Baker and Celia Worth</respName>
<respType>transferred into Unicode by</respType>
<respName>"Unicodify" software by Andrew Hardie</respName>
</respStmt>
</titleStmt>
<publicationStmt>
<distributor>UCREL</distributor>
<pubAddress>Department of Linguistics, Lancaster University, Lancaster, LA1 4YT, UK</pubAddress>
<availability region="WORLD"></availability>
<pubDate>03-08-24</pubDate>
</publicationStmt>
<sourceDesc>
<biblStruct>
<monogr>
<h.title>"Dinakaran" internet news (www.dinakaran.com), news stories collected on 00-10-20</h.title>
<h.author>Dinakaran</h.author>
<imprint>
<pubPlace>Tamil Nadu, India</pubPlace>
<publisher>Dinakaran</publisher>
<pubDate>00-10-20</pubDate>
</imprint>
</monogr>
</biblStruct>
</sourceDesc>
</fileDesc>
<encodingDesc>
<projectDesc>Text collected for use in the EMILLE project.</projectDesc>
<samplingDesc>Simple written text only has been transcribed. Diagrams, pictures and tables have been omitted and their place marked with a gap element.
</samplingDesc>
<editorialDecl>
<conformance level="1"></conformance>
</editorialDecl>
</encodingDesc>
<profileDesc>
<creation>
<date>03-08-24</date>
</creation>
<langUsage>Tamil</langUsage>
<wsdUsage>
<writingSystem id="ISO/IEC 10646">Universal Multiple-Octet Coded Character Set (UCS).</writingSystem>
</wsdUsage>
<textClass>
<channel mode="w">print</channel>
<constitution type="composite"></constitution>
<domain type="public"></domain>
<factuality type="fact"></factuality>
</textClass>
<translations></translations>
</profileDesc>
<revisionDesc></revisionDesc>
</cesHeader>

<text>
<body>




<p>சுப்ரீம் கோர்ட்டில் 3
நாள் விசாரணை முடிந்தது: 'தடா' கைதிகள் விடுதலைக்கு காலவரையின்றி தடை, வழக்கு
31-ந்தேதிக்கு தள்ளிவைப்பு</p>

<p> </p>

<p>
 
 
  
  
  
  
  
  
  
  
  
  
  
  
 
 
 

 
<gap desc="illustration"></gap></p>




 
  
  <p>வீரப்பனின்
  கோரிக்கைகளை நிறைவேற்ற சுப்ரீம் கோர்ட்டு காலவரையற்ற தடை விதித்திருப்பதால் கன்னட
  நடிகர் ராஜ்குமாரை மீட்கும் விஷயம் மேலும் சிக்கலாகியுள்ளது. </p>
  
 




<p>புதுடெல்லி, அக். 20- கன்னட நடிகர் ராஜ்குமாரை மீட்பதற்கு
வீரப்பன் விதித்த நிபந்தனைப்படி 51 தடா கைதிகளை விடுதலை செய்வதற்கு கர்நாடக மற்றும்
தமிழ் அரசுகள் எடுத்த முடிவை எதிர்த்து டெல்லி உச்ச நீதிமன்றத்தில் தொடரப்பட்ட அப்பீல்
மனுக்கள் மீதான விசாரணை நேற்று 3-வது நாளாக தொடர்ந்து நடந்தது. </p><p>
</p><p>
நீதிபதிகள் எஸ்.பி. பரூச்சா பி.மகாபாத்ரா, ஒய்.கே. சப்கர்வால் ஆகியோர் அடங்கிய
டிவிஷன் பெஞ்சு முன்னிலையில் கர்நாடக அரசு சார்பில் வக்கீல் சால்வே, தமிழ்நாடு அரசு
சார்பில் வக்கீல் வி.ஆர். ரெட்டி ஆஜராகி வாதாடினர். </p><p>
</p><p>
காவல் போடாதது ஏன்? </p><p>
</p><p>
பின்னர் சுப்ரீம் கோர்ட்டு நீதிபதிகள் கூறியது வருமாறு:- </p><p>
</p><p>
ராஜ்குமாரை வீரப்பன் காட்டுக்குள் கடத்தும் ஆபத்து உள்ளது என்று ஒரு ஆண்டுக்கு முன்பே தகவல்
கிடைத்தும் கூட ராஜ்குமாரின் கஜனூர் பண்ணை இல்லத்தில் போலீஸ் காவல் போடாமல் போன
தமிழ்நாடு அரசின் தவறை மன்னிக்க முடியாது என்றனர். </p><p>
</p><p>
தமிழ்நாடு அரசு பதில் </p><p>
</p><p>
இதற்கு தமிழ் நாடு அரசு சார்பில் ஆஜரான வக்கீல் ரெட்டி பதில் அளித்த போது ராஜ்குமாருக்கு
முந்திய காலங்களில் தமிழ்நாடு போலீஸ் பாதுகாப்பு அளித்து தான் வந்தது. ஜூலை 30-ந்தேதி
அவர் கஜனூர் பண்ணை வீட்டுக்கு வருவது பற்றி கர்நாடகத்திடம் இருந்து எந்த தகவலும்
வரவில்லை. மேலும் அந்த சமயத்தில் அருகில் உள்ள நீலகிரியில் தேயிலை தோட்ட
தொழிலாளர்கள் நடத்திய ஆர்ப்பாட் டத்தை சமாளிப்பதில் போலீசார் சுறுசுறுப்பாக இருந்தனர்
என்று விளக்கம் அளித்தார். </p><p>
</p><p>
மீண்டும் கேள்வி </p><p>
</p><p>
ஆனால் நீதிபதிகள் பரூச்சா, சப்கர்வால் ஆகியோர் திரும்ப திரும்ப, போலீசுக்கு தகவல்
தெரிவிக்காவிட்டாலும் கூட ராஜ்குமாரின் பண்ணை வீட்டுக்கு சில போலீசாரை பாதுகாப்புக்காக
நிறுத்த விடாமல் உங்களை தடுத்தது எது? என்று கேட்டனர். ராஜ்குமாருக்கு வீரப்பனால் ஆபத்து
இருக்கிறது என்று உளவுத் துறை மூலம் தகவல் கிடைத்து இருந்தும் அவரது பண்ணை வீட்டில் சில
போலீசாரை ஏன் நிறுத்தவில்லை என்று மீண்டும் கேட்டார்கள். </p><p>
</p><p>
என்ன உத்தரவாதம்? </p><p>
</p><p>
பின்னர் வீரப்பனின் கூட்டாளிகள் விடுதலை செய்யப்பட்டால், அதற்கு பதிலாக ராஜ்குமாரை
வீரப்பன் விட்டு விடுவான் என்பதற்கு என்ன உத்தரவாதம் என்று நீதிபதிகள் கேட்டனர். </p><p>
</p><p>
இதற்கு வக்கீல் ரெட்டி பதில் அளிக்கையில், இது தொடர்பாக பேச்சுவார்த்தை நடந்து
இருக்கிறது. வீரப்பன் ஆட்களையும், ராஜ்குமாரையும் ஒரே நேரத்தில் விடுதலை செய் வதற்கு
திட்டம் வகுக்கப்பட்டு உள்ளது என்று பதில் அளித்தார். </p><p>
</p><p>
உடனே நீதிபதி பரூச்சா குறுக்கிட்டு, இது எப்படி சாத்தியமாகும் என்றார். </p><p>
</p><p>
விடுதலை இல்லை </p><p>
</p><p>
நீதிபதி பரூச்சா மேலும் கூறியதாவது:- </p><p>
</p><p>
தடா கைதிகளை விடுதலை செய்ய ஆகஸ்டு 19-ந்தேதி மைசூர் தனிக்கோர்ட்டு பிறப்பித்த
உத்்தரவு பயங்கரமானது. அச்சத்தின் காரணமாக பிறப்பிக்கப்பட்டது. இரு மாநில அரசு
வக்கீல்களும் சட்டத்தை திரித்து உள்ளனர். பொதுநலன் மிக்க முக்கிய மான விஷயத்தை
கையாண்டு கொண்டு இருக்கிறோம் என்பதை நீங்கள் நினைத்துப் பார்த்தீர்களா? </p><p>
</p><p>
இரு அரசுகளும் பொறுப்பு </p><p>
</p><p>
உங்கள் பொறுப்பை தட்டிக் கழித்துவிட்டு பேச்சு வார்த்தையில் உடன்பாடு ஏற்படுவதற்காக
செயல்பட்டு இருக்கிறீர்கள். இந்த விஷயத்தில் இரு மாநில அரசுகளும் எடுத்த முடிவு
முன்ஏற்பாடான சலுகைகளின் ஒரு அம்சமாக உள்ளது. ராஜ்குமார் கடத்தப்படுவதற்கான சூழ்நிலை
ஏற்படுவதற்கு இரு மாநில அரசுகளும் தான் பொறுப்பு. ராஜ்குமாருக்கு ஏதாவது நேர்ந்தால் அதற்கான
பொறுப்பு இரு மாநில அரசுகளையும் தான் சாரும். நான் தற்போதைய அரசுகளைப்பற்றி
சொல்லவில்லை. கடந்த 10 ஆண்டுகளாக இருந்த அரசுகளைப் பற்றி சொல்கிறேன். இந்த
நேரத்தில் 51 தடா கைதிகளை விடுதலை செய்வதற்கு சாதகமான உத்தரவை பிறப்பிக்க முடியாது. </p><p>
</p><p>
இவ்வாறு அவர் கூறினார். </p><p>
</p><p>
நீதிபதிகள் தொடர்ந்து கூறுகையில், தற்போது வீரப்பன் பிரிவினை வாதிகளுடன் சேர்ந்து இரு
மாநில அரசுகளும் கடந்த 10 ஆண்டுகளாக கண்டு பிடிக்க முடியாத இடத் தில் இருப்பதாக
கூறப்படுகிறது. மலைப் பள்ளத்தாக்கில் அவன் தனது கூட்டாளிகளுடன் தங்கியிருந்து என்ன திட்டம்
தீட்டுகிறான். எங்கிருந்து ஆயுதங்கள் வாங்குகிறான். என்ன பயிற்சி பெறுகிறான் என்பது
யாருக்குத் தெரியும்? என்று கேட்டனர். </p><p>
</p><p>
மேலும், எந்த அரசாவது ஒரு கும்பல் வன்முறையில் ஈடுபடுவதை தடுக்க முடியாது என்று கூறினால்,
அந்த அரசு மூட்டை முடிச்சைக் கட்டிக் கொண்டு போக வேண்டியதுதான் என்று நீதிபதி பரூச்சா
குறிப்பிட்டார். </p><p>
</p><p>
31-ந்தேதிக்கு தள்ளிவைப்பு </p><p>
</p><p>
இதையடுத்து 51 தடா கைதிகள் விடுதலைக்கு கால வரையற்ற தடை விதிக்கப் பட்டது. அடுத்த
விசாரணை தீபாவளி விடுமுறைக்குப் பின் அக்டோபர் 31ந்தேதிக்கு தள்ளி வைக்கப்பட்டது. </p>

<p> </p>

<p>ராஜ்குமாரை மீட்க
வீரப்பனிடம் தூது: கிருஷ்ணா சம்மதித்தே நெடுமாறன் சென்றார், சோனியா புகாருக்கு
கருணாநிதி பதில்</p>

<p> </p>

<p>சென்னை, அக். 20- நடிகர் ராஜ்குமாரை வீரப்பன் கடத்திச் சென்று
காட்டில் வைத்து இருக்கிறான். ராஜ்குமாரை விடுவிக்க கர்நாடக, தமிழக சிறைகளில் உள்ள தடா
கைதிகள் 126 பேரை விடுதலை செய்ய வேண்டும் என்று நிபந்தனை விதித்து உள்ளான். இந்த
நிபந்தனையை நிறைவேற்ற உச்சநீதிமன்றம் தடை விதித்துள்ளது. இதனால் ராஜ் குமார்
விடுதலையில் சிக்கல் தொடர்கிறது. </p><p>
</p><p>
தூதர் கோபால் </p><p>
</p><p>
வீரப்பனுடன் பேச்சு வார்த்தை நடத்தி ராஜ்குமாரை மீட்பதற்காக கர்நாடக, தமிழக அரசு தூதர்
நக்கீரன் கோபால் 4 முறை காட்டிற்கு சென்று வீரப்பனுடன் பேச்சு நடத்தினார். ஆனால்
வீரப்பன் தடா கைதிகள் விடுதலையில் பிடிவாதமாக இருப்பதால் பேச்சு வார்த்தையில் பலன்
ஏற்படவில்லை. </p><p>
</p><p>
நெடுமாறன் குழு </p><p>
</p><p>
இதற்கிடையே வீரப்பன் கோரிக்கையின்படி நக்கீரன் கோபாலுடன் தமிழர் தேசிய இயக்க
தலைவர் நெடுமாறன் தலைமையில் புதுவை சுகுமாறன், பேராசிரியர் கல்யாணி ஆகியோர் புதிய
தூதுக்குழு வாக காட்டுக்கு அனுப்பப்பட்டனர். அவர்கள் வீரப்பனுடன் நடத்திய
பேச்சுவார்த்தையும் வெற்றிபெறவில்லை. </p><p>
</p><p>
எதிர்ப்பு </p><p>
</p><p>
தூதராக நெடுமாறனை அனுப்பியதற்கு சில கட்சிகள் எதிர்ப்பு தெரிவித்தன. </p><p>
</p><p>
கர்நாடக மாநிலத்திற்கு வந்த காங்கிரஸ் தலைவர் சோனியாகாந்தி விடுதலைப் புலிகளுடன்
தொடர்புள்ள தீவிரவாத இயக்கத்தினரை தூதுக்குழுவில் சேர்த்தது கண்டிக்கத்தக்கது என்றார்.
தீவிரவாத இயக்கத்தினர் தூதுக்குழுவில் அனுப்பப்பட்டதற்கும் கர்நாடக காங்கிரஸ் அரசுக்கும்
எந்தவித தொடர்பும் இல்லை என்றும் கூறினார். </p><p>
</p><p>
கருணாநிதி பேட்டி </p><p>
</p><p>
இதுகுறித்து முதலமைச்சர் கருணாநிதியிடம் நிருபர்கள் கேள்வி கேட்டனர். நிருபர் களின்
கேள்வியும் கருணாநிதியின் பதிலும் வருமாறு:- </p><p>
</p><p>
கேள்வி:- நடிகர் ராஜ்குமாரை மீட்க வீரப்பனுடன் பேச்சு வார்த்தை நடத்த நெடுமாறனை
காட்டுக்குள் அனுப்பியது குறித்து இந்திரா காங்கிரஸ் தலைவர் சோனியா காந்தியும், கர்நாடக
முதலமைச்சர் கிருஷ்ணாவும் கூறிய கருத்துக்கள் பற்றி தாங்கள் என்ன சொல்கிறீர்கள்? </p><p>
</p><p>
முதலமைச்சர்: நான் ஏற்கனவே செய்தியாளர்களிடம் தெரிவித்தவாறு மக்கள் உரிமை கூட்டமைப்பு
தலைவர் நெடுமாறன், பேராசிரியர் கல்யாணி, சுகுமாறன் ஆகி யோரையும் தூதுக்குழுவில் அனுப்பி
வைக்குமாறு வீரப்ப னிடமிருந்து தகவல் வந்தது. உடனே நான் நக்கீரன் இணை ஆசிரியர் காமராஜை
பெங்களூ ருக்கு அனுப்பி கர்நாடக முதல்வர் கிருஷ்ணாவிடம் கலந்து பேசச் சொன்னேன்.
கிருஷ்ணாவும் சம்மதம் தெரிவித்து அவரும் நெடுமாறடன் தொடர்பு கொண்டு பேசிய பிறகுதான் இந்த
தூதுக்குழு சென்று வீரப்பனிடம் பேச்சு வார்த்தை நடத்தி திரும்பியுள்ளது. நமக்கு இப்போது
ராஜ்குமார் விடுவிக்கப்படுவது தான் முக்கியம் என்பதால் இதுபற்றி மேலும் விரிவாக விவாதிக்க
விரும்பவில்லை. </p><p>
</p><p>
இவ்வாறு அவர் கூறினார். </p><p>
</p><p>
</p><p>
</p><p>
கிருஷ்ணா பதில் </p><p>
</p><p>
முதல்வர் கருணாநிதியின் விளக்கம் குறித்து கேட்டதற்கு கர்நாடக முதல்வர் கிருஷ்ணா
கூறியதாவது:- </p><p>
</p><p>
பதிலுக்கு பதில் சொல்லி பிரச்சினையை பெரிதாக்க விரும்ப வில்லை; இரு மாநில அரசுகளின்
முக்கிய நோக்கமே ராஜ்குமாரை பத்திரமாக மீட்பதுதான். கடத்தல் சம்பவம் நடந்ததில் இருந்து
நாங்கள் தமிழக அரசைத்தான் மிகவும் நம்பி இருக் கிறோம். ராஜ்குமாரை மீட்க தமிழக அரசு
எடுத்து வரும் நடவடிக்கைகளில் திருப்தி அடைந்து இருக்கிறோம். கர்நாடகத்தில் இருந்தும் வௌி
இடங்களில் இருந்தும் தமிழக முதல்வரை சந்தித்து ராஜ்குமாரை விடுவிக்க கோரிக்கை
வைத்தார்கள். அந்த முயற்சியில் தமிழக அரசு ஈடுபட்டு இருக்கும்போது அதன் நடவடிக்கைகளில்
குறுக்கிடுவது சரியாக இருக்காது. </p><p>
</p><p>
இவ்வாறு கூறினார். </p>

<p> </p>

<p>ராஜ்குமாரை மீட்க
தாமதமானால் மனநிலை பாதிக்கப்படும், உச்சநீதிமன்றத்தில் தமிழக அரசு வக்கீல் வாதம்</p>

<p> </p>

<p>புதுடெல்லி, அக். 20- 51 தடா கைதிகளை விடுதலை செய்ய எடுத்த முடிவை
எதிர்த்து சுப்ரீம் கோர்்ட்டில் தொடரப்பட்ட அப்பீல் மீது நேற்று 3-வது நாளாக விசாரணை
நடந்தது. அப்போது தமிழக அரசு சார்பில் ஆஜரான வக்கீல் வி.ஆர். ரெட்டி கூறியதாவது:- </p><p>
</p><p>
ராஜ்குமார் வீரப்பனிடம் 80 நாட்களுக்கு மேலாக பணயக் கைதியாக உள்ளார். நீண்ட நாள்
இப்படி இருப்பதால் அவரது மனநிலை பாதிக்கப் பட்டு ஸ்டாக்ஹோலம் சிண்ட்ரோம் (குணநலனில்
மாற்றம் ஏற்படும் நோய்) ஏற்படும் என்று அஞ்சுகிறோம். </p><p>
</p><p>
சிண்ட்ரோம் என்பது ஒருவர் நீண்ட காலமாக பணயக்கைதியாக இருந்தால் அவரது மனநிலை
பாதிக்கப்பட்டு, கடத்தல்காரன் விருப்பம் போல் அவர் நடக்க ஆரம்பித்து விடுவார். </p><p>
</p><p>
நெடுமாறன் பற்றி.. </p><p>
</p><p>
நெடுமாறனுக்கு பிரிவினை வாதிகளுடன் தொடர்பு இருப்பதாக மனுதாரர் கூறி இருக்கிறார்.
நெடுமாறன் அரசு தூதராக சென்றவர் அல்ல. தமிழீழத்துக்கு அவர் ஆதரவு தெரிவிக்கிறார்
என்பதை தவிர நெடுமாறன் தமிழ்நாட்டில் மதிப்புள்ள அரசியல்வாதிதான். அவருக்கு
மாநிலத்தில் ஆதரவு உண்டு. காட்டுக்குள் மனிதாபிமான அடிப்படையில் தான் சென்றேன் என்று
நெடுமாறனே கூறி உள்ளார். </p><p>
</p><p>
இவ்வாறு அவர் கூறினார். </p>

<p> </p>

<p>3 பேர் சாவு -
படுகாயம்-21, அதிபர் சந்திரிகா மாளிகையில் மனித குண்டு வெடித்தது, மந்திரிசபை பதவி
ஏற்பு விழாவில் பயங்கரம்</p>

<p> </p>

<p>
 
<gap desc="illustration"></gap></p>




 
  
  <p>இலங்கையின் தலைநகர் கொழும்பில்
  ஜனாதிபதி சந்திரிகா மாளிகையின் அருகே மனித குண்டு வெடித்தது. அதில் போலீசார் வந்த
  வேன் நொறுங்கியது. இறந்தவரின் துண்டு, துண்டான உடலை போலீசார் சேகரித்தபோது
  எடுத்தபடம். </p>
  
 




<p>கொழும்பு, அக் 20- இலங்கையில் கடந்தவாரம் பாராளுமன்ற தேர்தல்
நடந்தது. அதில் எந்தக் கட்சிக்கும் பெரும்பான்மை கிடைக்கவில்லை. தொங்கு பாராளுமன்றம்
அமைந்தது. </p><p>
</p><p>
அதைத் தொடர்ந்து ஜனாதிபதி சந்திரிகா தலைமையில் உள்ள மக்கள் கூட்டணி சிறு கட்சிகள்
ஆதரவுடன் ஆட்சி அமைத்தது. மீண்டும் பிரதமராக ரத்னசிரி விக்ரம நாயகே கடந்த
வௌ்ளிக்கிழமை பதவி ஏற்றார். நேற்று 42 மந்திரிகள் பதவி ஏற்றனர். அவர்களுக்கு
ஜனாதிபதி சந்திரிகா பதவி பிரமாணம் செய்து வைத்தார். </p><p>
</p><p>
தமிழ் மந்திரி </p><p>
</p><p>
தமிழர் கட்சியான ஈழம் மக்கள் ஜனநாயக முன்னணி தலைவர் டக்ளஸ் தேவானந்தா மந்திரி
ஆனார். தேர்தல் பிரசாரத்தின்போது ஹெலி காப்டர் விபத்தில் இறந்த மந்திரி அஷ்ரப்
மனைவி பரியால் அஷ்ரப் மந்திரிசபையில் இடம் பெற்று உள்ளார். அவர் நேற்று பதவி ஏற்பு
விழாவுக்கு வரவில்லை. மற்றவர்கள் பதவி ஏற்றனர். </p><p>
</p><p>
மனித குண்டு வெடித்தது </p><p>
</p><p>
ஜனாதிபதி மாளிகையில் பதவி ஏற்பு விழா நடந்தபோது அருகே உள்ள டவுன்ஹால் முன் மனித
வெடிகுண்டு வெடித்தது. உடலில் குண்டை கட்டிக்கொண்டு வந்தவர் அதை வெடிக்க செய்தார். </p><p>
</p><p>
மந்திரிகளை மொத்தமாக கொல்வதற்கு திட்டமிட்டு வந்த மனித குண்டை அருகே உள்ள
ராகாரம்மியா கோவில் அருகே போலீசார் மடக்கி சோதனை போட்டனர். போலீஸ்காரரை
கத்தியால் குத்த முயன்ற வெடிகுண்டு மனிதன் அங்கு இருந்து தப்பி ஓடினான். பின்னர் அவனை
டவுன்ஹால் அருகே போலீசார் மடக்கி விசாரணை நடத்தினர். அப்போது அவன் விசையை தட்டி
விட்டு வெடிக்கச் செய்தான். பயங்கர சத்தத்துடன் குண்டு வெடித்தது. </p><p>
</p><p>
உடல் துண்டாகி சாவு </p><p>
</p><p>
அதில் குண்டுடன் வந்தவன் உடல் சிதறி செத்தான். ஒரு போலீஸ்காரரும், வழிப்போக்கன்
ஒருவரும் இறந்தனர். அருகில் இருந்த 21 பேர் படுகாயம் அடைந்தனர். அவர்களில் 2 போலீசார்,
3 அமெரிக்க பெண்கள். </p><p>
</p><p>
போலீஸ் ஜீப் உள்பட பல வாகனங்கள் சேதம் அடைந்தன. ரோடு முழுவதும் கண்ணாடி துண்டுகள்
சிதறிக் கிடந்தன. அந்தப் பகுதியில் பெரும் பரபரப்பு உண்டானது. </p><p>
</p><p>
விடுதலைப் புலிகள் </p><p>
</p><p>
புதிய மந்திரிகளை கூண்டோடு தீர்த்துக்கட்டுவதற்கு விடுதலைப்புலிகள் மனித வெடி குண்டை
அனுப்பி இருக்கலாம் என்று போலீசார் சந்தேகப்படுகிறார்கள். </p><p>
</p><p>
உரிமை பறிக்கப்பட்ட ஈழத் தமிழர்களுக்காக விடுதலை புலிகள் கடந்த 20 ஆண்டுகளாக
துப்பாக்கி ஏந்தி போராடுவது குறிப்பிடத்தக்கது. </p>

<p> </p>

<p>2 ஹெலிகாப்டர்கள் சுட்டு
வீழ்த்தப்பட்டது: முக்கிய ராணுவ முகாம், புலிகள் கைப்பற்றினர்</p>

<p> </p>

<p>கொழும்பு, அக். 20- யாழ்ப்பாணத்தில் உள்ள நாகர்கோவிலில்
இலங்கை ராணுவ முகாம் ஒன்று உள்ளது. இந்த முகாம் மீது விடுதலைப்புலிகள் நேற்று அதிரடி
தாக்குதல் நடத்தினர். இதையடுத்து ராணுவத்தினருக்கும் விடுதலைப்புலிகளுக்கும் இடையே கடுமையான
துப்பாக்கி சண்டை நடந்தது. </p><p>
</p><p>
சுட்டு வீழ்த்தினர் </p><p>
</p><p>
அப்போது விமானப்படை ஹெலிகாப்டர்களை பயன்படுத்தி விடுதலைப்புலிகள் மீது தாக்குதல்
நடத்தப்பட்டது. இதை யடுத்து 2 ஹெலிகாப்டர்களை புலிகள் சுட்டு வீழ்த்தினர். ஒரு
ஹெலிகாப்டரில் இருந்து 5 சிங்கள வீரர்கள் கொல்லப்பட்டதாக புலிகள் அறிவித்தனர்.
ஆனால் 5 பேரும் மீட்கப்பட்டதாக ராணுவ வட்டாரங்கள் தெரிவித்தன. </p><p>
</p><p>
முகாம் கைப்பற்றினர் </p><p>
</p><p>
நீண்ட நேரம் நடந்த போருக்கு பிறகு நாகர்கோவில் ராணுவ முகாமை விடுதலைப் புலிகள்
கைப்பற்றினர் என்று லண்டனில் இருந்து புலிகள் வௌியிட்டுள்ள செய்தி குறிப்பில்
கூறப்பட்டுள்ளது. </p><p>
</p><p>
5 விடுதலைப்புலிகள் கொல்லப்பட்டதாக ராணுவ வட்டாரங்கள் தெரிவித்தன. </p>

<p> </p>

<p>சென்னை 'டைடல் பார்க்'
விழா: 22 லட்சம் கம்ப்யூட்டர் பட்டதாரிகளை உருவாக்குவோம், மத்திய மந்திரி மகாஜன்
பேச்சு</p>

<p> </p>

<p>சென்னை, அக். 20- சென்னை தரமணியில் உள்ள மென்பொருள் தொழில்
நுட்ப பூங்காவில் (டைடல் பார்க்) நேற்று எர்த் ஸ்டேசன் என்கிற தகவல் மையத்தை
தொடங்கி வைக்கும் விழா நடைபெற்றது. மத்திய தகவல் தொழில்நுட்ப மந்திரி பிர மோத்
மகாஜன் இதை தொடங்கி வைத்தார். மத்திய வனத்துறை அமைச்சர் டி.ஆர்.பாலு விழாவுக்கு தலைமை
வகித்தார். இதில் பிரமோத் மகாஜன் பேசியதாவது:- </p><p>
</p><p>
இன்றைக்கு வௌிநாடு செல்லும்போது அங்கே பாஸ் போர்ட்டை வாங்கி பார்க்கிற நேரத்தில்
அதில் இந்தியன் என்று குறிப்பிட்டு இருந்தால் வியப்போடும், பெருமையோடும்
பார்க்கிறார்கள். இந்த அள விற்கு உலக அரங்கில் இந்தியா தலை நிமிர்ந்து நிற்கிறது
என்றால் அதற்கு நாம் பெற்றுள்ள தகவல் தொழில் நுட்ப துறை வளர்ச்சியே காரணம் ஆகும். </p><p>
</p><p>
தகவல் தொழில் நுட்ப முன்னேற்றத்துக்கு மனித வளம், தொலைத்தொடர்பு, மின்சாரம் இந்த
மூன்றும் முக்கியமானது. இந்தியாவில் மனித வளம் நிறைய இருக்கிறது. தொலைதொடர்பு,
மின்சாரம் போதுமானதாக இல்லை. அவற்றையும் அதிகரிக்க நடவடிக்கைகள் எடுக்கப்படவேண்டும். </p><p>
</p><p>
மலைகளில்... </p><p>
</p><p>
வௌிநாடுகளுக்கு மென் பொருள் ஏற்றுமதி செய்வதில் இந்தியா சாதனை புரிந்து வரு கிறது.
2008-ம் ஆண்டுக் குள் வௌிநாட்டுக்கு மென் பொருளை ஏற்றுமதி செய்து ஈட்டுகிற அன்னிய
செலாவணி இலக்கு 50 பில்லியன் டாலர் களை எட்டவேண்டும் என்று
நிர்ணயிக்கப்பட்டிருக்கின்றது. </p><p>
</p><p>
மலைப்பகுதிகளில் தகவல் தொழில் நுட்ப நிலையங்கள் அமைக்கப்பட்டு வருகின்றன. காஷ்மீர்
மலைப்பகுதிகளில் இது செயல்படுத்தப்பட்டுள்ளது. அது போல தமிழ்நாட்டில் ஜவ்வாது மலை, ஏற்காடு
மலை, கல்வராயன் மலை, கொல்லி மலை ஆகியவற்றில் தகவல் தொழில் நுட்ப நிலையங்கள்
அமைக்க வேண்டும் என்று டி.ஆர்.பாலு கோரிக்கை வைத்தார். அதை ஏற்று அதற்குரிய நடவடிக்கை
எடுக்கப்படும். </p><p>
</p><p>
பட்டதாரிகள் </p><p>
</p><p>
வௌிநாடுகளில் நம்முடைய கம்ப்யூட்டர் விஞ்ஞானிகளுக்கு நல்ல வரவேற்பு
இருக்கிறது. எனவே 2008-ம் ஆண்டுக்குள் 20 லட்சம் கம்ப்யூட்டர் பட்டதாரி களை
உருவாக்கவேண்டும் என்று திட்டமிட்டிருக்கிறோம். இதற்கு பொறியியல் கல்லூரி களிலும்,
பாலிடெக்னிக்களிலும் அதிகம்பேரை சேர்க்க வேண்டும். அதற்கான நட வடிக்கை எடுக்கப்பட்டு
வருகிறது. </p><p>
</p><p>
இவ்வாறு அவர் பேசினார். </p><p>
</p><p>
டி.ஆர்.பாலு </p><p>
</p><p>
இந்த விழாவிற்கு தலைமை வகித்து மத்திய அமைச்சர் டி.ஆர்.பாலு பேசுகையில்,
சிங்கப்பூரிலிருந்து கடல் வழியாக இந்தியாவிற்கு சாட்டிலைட் கேபிள் மூலம் தகவல் தொடர்பு
எற்படுத்த நட வடிக்கை எடுக்கவேண்டும். சிறந்த தகவல் தொழில் நுட்ப வல்லுனர்கள்
இந்தியாவிலேயே பணிபுரிவதற்கான வசதிகளை செய்து தரவேண்டும். என்று குறிப்பிட்டார்.
தொடக்கத்தில் மென்பொருள் தொழில் நுட்ப பூங்காவின் தலைவர் பி.வி.ஜெய கிருஷ்ணன்
வரவேற்றார். முடிவில் டைரக்டர் ஜெனரல் எஸ். என்.ஜின்டால் நன்றி கூறினார். </p>

<p> </p>

<p>57 சதவீதம் பேர் தான்
பெற்று உள்ளனர்: வாக்காளர் புகைப்படம் எடுக்க மக்கள் ஒத்துழைப்பு இல்லை, தமிழக தலைமை
தேர்தல் அதிகாரி பேட்டி</p>

<p> </p>

<p>பரமக்குடி, அக்.20- பரமக்குடி வைகை பயணியர் விடுதியில் தமிழக
தலைமை தேர்தல் அதிகாரி மிருத்யுஞ்சய் சாரங்கி நேற்று நிருபர்களுக்கு பேட்டி அளித்
தார். அப்போது அவர் கூறியதாவது:- </p><p>
</p><p>
ராமநாதபுரம் மாவட்டத்தில் 600 இடங்களில் வாக்காளர் அடையாள அட்டைக்கான புகைப்படம்
எடுக்கும் பணி கடந்த (செப்டம்பர்) மாதம் 28-ந் தேதி முதல் நடந்து வருகிறது. இப்பணியில்
மாவட்ட கலெக்டர் மற்றும் அதிகாரிகள் நல்ல முறையில் சிறப்பாக செயல்பட்டு வருகின்றனர்.
வாக்காளர் புகைப்படம் எடுக்கும் பணியில் எந்தவித குறைபாடும் கிடையாது. </p><p>
</p><p>
மக்கள் (வாக்காளர்கள்) இன்னும் புகைப்படம் எடுப்பதில் முழு ஒத்துழைப்பு கொடுக்க வில்லை.
குறைந்த அளவே மக்கள் புகைப்படம் எடுத்து வருகின்றனர். அடையாள அட்டை இல்லாமல் தேர்தலில்
ஓட்டு போடலாம் என மக்கள் நினைக்கிறார்கள். இது தவறு. வாக்காளர் அடையாள அட்டை
இருந்தால் தான் வருகிற தேர்தலில் கண்டிப்பாக ஓட்டுப் போட முடியும். </p><p>
</p><p>
ஏற்கனவே தேர்தல் கமிஷன் கூறியபடி, குடும்ப அட்டையை (ரேஷன் கார்டு) காண்பித்து ஓட்டுப்
போட கண்டிப்பாக அனுமதி அளிக்கப்பட மாட்டாது. </p><p>
</p><p>
அனைத்து நடவடிக்கை </p><p>
</p><p>
குடும்ப அட்டையில் குடும்ப தலைவரின் படம் மட்டுமே இருக்கும். ஆனால் வாக்காளர் அடையாள
அட்டையில் தனித் தனியாக ஒவ்வொருவருடைய படமும், முகவரியும் உள்ளது. வாக்களிக்க அடையாள
அட்டை அவசியமாக்கப்பட்டு உள்ளதால் பொது மக்கள் போதுமான கவனம் செலுத்தி அட்டை பெற்றுக்
கொள்ள வேண்டும். </p><p>
</p><p>
எதிர் காலத்தில் புதிய குடும்ப அட்டை பெறுதல், வங்கி கடன்கள் பெறுதல், டிரைவிங் லைசென்சு
பெறுதல் உள்பட அரசின் அனைத்து நடவடிக்கைகளுக்கும் வாக்கா ளர் அடையாள அட்டைஇருந்தால்
மட்டுமே பெற முடியும். </p><p>
</p><p>
தமிழகத்தில் வாக்காளர் அடையாள அட்டை வழங்கும் பணி இதுவரை 57 சதவீதம் மட்டுமே பூர்த்தி
அடைந்து உள்ளது. மற்ற மாநிலங்களில் 85 சதவீதம் நிறைவு பெற்று உள்ளது. </p><p>
</p><p>
நவம்பர் மாதம் </p><p>
</p><p>
வாக்காளர் பட்டியலில் பெயர் சேர்த்தல், நீக்குதல், மாற்றுதல் போன்ற பணிகள் நவம்பர்
1-ந் தேதி முதல் அந்த மாதம் முழுவதும் நடைபெற உள்ளது. இந்த வாய்ப்பினை பொது மக்கள்
(வாக்காளர்கள்) அனைவரும் நன்கு பயன்படுத்தி கொள்ள வேண்டும். வருகிற டிசம்பர் 31-ந் தேதி
வரை 18 வயது நிரம்பிய அனைவரும் வாக்காளர் அடையாள அட்டைக்கான புகைப்படம் எடுத்துக்
கொள்ளலாம். </p><p>
</p><p>
மீண்டும் புகைப்படம் </p><p>
</p><p>
வாக்காளர் பட்டியலில் பெயர் சேர்த்தல், நீக்குதல், மாறுதல் செய்தல் போன்ற பணிகள்
நவம்பர் மாத இறுதியில் நிறைவு பெற்ற பின்பு, 2001- ஜனவரி மாதம் விடுபட்ட வர்களுக்கான
அடையாள அட்டை வழங்க மீண்டும் புகைப்படம் எடுக்கப்படுகிறது. </p><p>
</p><p>
மின்னணு எந்திரங்கள் </p><p>
</p><p>
தமிழகத்தில் 55 ஆயிரம் இடங்களில் தேர்தலில் வாக்களிக்கும் மையங்கள் அமைக்கப்
படுகிறது. அனைத்து மையங்களிலும் இத் தேர்தலில் மின்னணு எந்திரங்கள் மூலமே வாக்களிக்கும்
ஏற்பாடு செய்யப்பட்டு உள்ளது. இந்த நிலையில் இம் (ராமநாதபுரம்) மாவட்டத்தில் புகைப்
படம் எடுக்கும்பணி சிறப்பாக நடந்து வருகிறது. </p><p>
</p><p>
இவ்வாறு தலைமை தேர்தல் அதிகாரி மிருத் யுஞ்சய் சாரங்கி கூறினார். </p><p>
</p><p>
பேட்டியின் போது மாவட்ட கலெக்டர் மணிபாரதி, ராமநாதபுரம் சப்- கலெக்டர் ஆனந்த்
பட்டீல், மாவட்ட வருவாய் அதிகாரி தம்சுதீன், பரமக்குடி ஆர்.டி.ஓ. கே.கல்யாணி,
தாசில்தார்கள் ச.அசுபதி (பரமக்குடி), முத்து கிருஷ்ணன் (முதுகுளத்தூர்), காசிராாஜன்
(கடலாடி), மாவட்ட கலெக்டர் அலுவலக தேர்தல் பிரிவுத் தனித்தாசில்தார் முனியசாமி,
பரமக்குடி வருவாய் அதிகாரி பரமசிவம் உள்பட அதிகாரிகள் பலர் இருந்தனர். </p><p>
</p><p>
ஆலோசனை </p><p>
</p><p>
முன்னதாக வைகை பயணியர் விடுதியில் தமிழக தலைமை தேர்தல் அதிகாரி மிருத்யுஞ்சய்
சாரங்கி, மாவட்ட கலெக்டர் மணிபாரதி உள்பட அரசு அதி காரிகள் இடையே ஆலோசனை
நடத்தினார். </p>

<p> </p>

<p>மும்பை மருத்துவமனையில்,
வாஜ்பாயுடன் அத்வானி 30 நிமிடம் சந்திப்பு</p>

<p> </p>

<p>மும்பை, அக். 20- மும்பை பிரீச் கேண்டி மருத்துவமனையில் இடது கால்
மூட்டு அறுவை சிகிச்சைக்குப் பிறகு குணமடைந்து வரும் பிரதமர் வாஜ்பாயை நேற்று காலை உள்துறை
மந்திரி அத்வானி சந்தித்தார். இருவரும் 30 நிமிட நேரம் பேசிக்கொண்டு இருந்தார்கள்.
இந்த தகவலை பா.ஜ. துணைத்தலைவரும் மருத்துவமனையில் தற்காலிகமாக அமைக்கப்பட்டு உள்ள பா.ஜ.
அலுவலக பொறுப்பாளருமான மங்கள் பிரபாத் லோட்கா தெரிவித்தார். இருவரும் என்ன
பேசினார்கள் என்ற விவரத்தை அவர் வௌியிடவில்லை. </p><p>
</p><p>
மம்தா சந்திப்பு </p><p>
</p><p>
மாலையில் ரெயில்வே மந்திரி மம்தா பானர்ஜி மருத்துவமனைக்கு வந்து பிரதமர் வாஜ்பாயை
சந்தித்து பேசினார். பெட்ரோலிய பொருட்கள் விலை உயர்வுக்கு எதிர்ப்பு தெரிவித்து
மம்தா ராஜினாமா கடிதம் கொடுத்ததும், பின்னர் பிரதமர் வாஜ்பாய் அளித்த வாக்குறுதியை
ஏற்று ராஜினாமாவை வாபஸ் பெற்றதும் குறிப்பிடத்தக்கது. </p><p>
</p><p>
எனவே இது தொடர்பாக மம்தா பானர்ஜி பேசியிருக்கலாம் என்று கருதப்படுகிறது. வாஜ்பாய்
குணமடைந்து வருகிற ஞாயிற்றுக்கிழமை டெல்லி திரும்புகிறார். அதன் பிறகு விலை குறைப்பு
பற்றிய அறிவிப்பு வௌியாகும் என்று எதிர்பார்க்கப்படுகிறது. </p><p>
</p><p>
மம்தாவை தொடர்ந்து மத்திய மந்திரிகள் முரளி மனோகர் ஜோஷி, ராம்விலாஸ் பஸ்வான்,
மனோகர் ஜோஷி, திட்டக்குழுத் துணைத்தலைவர் கே.சி.பந்த், தெலுங்கு தேசம் எம்.பி. எரண்
நாயுடு ஆகி யோரும் வாஜ்பாயை சந்தித்துப் பேசினார்கள். </p><p>
</p><p>
வேகமாக தேறுகிறார் </p><p>
</p><p>
வாஜ்பாய் உடல்நிலை குறித்து அவருக்கு அறுவை சிகிச்சை செய்த டாக்டர் சித்த ரஞ்சன்
ரணவத்துக்கு உதவியாக இருந்த டாக்டர் நந்து லாவுட் கூறியதாவது:- </p><p>
</p><p>
பிரதமர் வாஜ்பாய் ஓய்வாக இருக்கிறார். வேகமாக குணமடைந்து வருகிறார். வழக்க மான
முடக்கியல் உடற் பயிற்சிகளை செய்கிறார். தனது வழக்கமான பணிகளை கவனிப்ப தோடு தினமும்
15 நிமிடம் முதல் 20 நிமிடம் வரை நடக்கிறார். </p><p>
</p><p>
இவ்வாறு அவர் கூறினார். </p><p>
</p><p>
22-ந்தேதி வழக்கமான பணி </p><p>
</p><p>
பிரதமர் வாஜ்பாய் 22-ந்தேதி டிஸ்சார்ஜ் செய்யப்பட்டு டெல்லி திரும்பியவுடன் அன்று
காலையில் வழக்கமான பணி களை கவனிக்க ஆரம்பித்து விடுவார் என்று பிரதமர் அலுவலக வட்டாரம்
நேற்று தெரிவித்தது. தற்போது பிரதமர் அலுவலகமாக மும்பை மலபார் ஹில்லில் உள்ள மராட்டிய
அரசின் விருந்தினர் மாளிகை செயல்பட்டு வருகிறது. இந்த தற்காலிக அலுவலகம்
ஞாயிற்றுக்கிழமையுடன் மூடப்பட்டு விடும் என்றும் பிரதமர் அலுவலகம் நேற்று அறிவித்தது.
</p><p>
</p><p>
பலத்த பாதுகாப்பு </p><p>
</p><p>
வாஜ்பாய் சிகிச்சை பெற்று வரும் மும்பை பிரீச்கேண்டி மருத்துவமனையில் நேற்று பலத்த
பாதுகாப்பு போடப்பட்டு இருந்தது. </p>

<p> </p>

<p>மாநிலங்கள் நிதி பங்கீடு
அளிக்க முன் வரவேண்டும்: ரெயில்வேயை தனியாரிடம் ஒப்படைக்கும் திட்டம் இல்லை, மத்திய
மந்திரி மம்தா திட்டவட்ட அறிவிப்பு</p>

<p> </p>

<p>புதுடெல்லி, அக். 20- ரெயில்வேயில் பயன்படுத்தப்படும்
பொருட்களின் கண் காட்சி டெல்லியில் நேற்று நடந்தது. இதை தொடங்கி வைத்து ரெயில்வே
மந்திரி மம்தா பேசியதாவது:- </p><p>
</p><p>
ரெயில்வே துறையை மேம்படுத்தவும் விரிவாக்கம் செய்யவும் தொழில் அதிபர்கள் முதலீடு
செய்ய முன் வர வேண்டும். இந்தியா போன்ற வளரும் நாடுகளில் பொது மக்களின்
போக்குவரத்துக்கு மேலும் உதவும் வகையில் ரெயில்வேயை மேலும் திற மையான சேவையாக மாற்ற
வேண்டும். இதற்கு போதுமான முதலீடு அவசியம் ஆகும். ரெயில்வேயும் தன் பங்குக்கு ரெயில்வே
துறையை நவீன மயமாக்கி வருகிறது. தொலை தொடர்பு, சிக்னல், அதிவேக விரைவு ரெயில்
அறிமுகம் என்று மேம்படுத்தி வருகிறது. பயணம் செய்யும் பொது மக்களின் பாதுகாப்புக்கும்
முக்கியத்துவம் அளித்து வருகிறோம். </p><p>
</p><p>
முதியோர், மாணவர்கள், உடல் ஊனமுற்றவர்கள் ஆகியோருக்கு ரெயில் பயணக் கட்டணத்தில் சலுகை
வழங்கப்பட்டு உள்ளது. சில வகை பொருட்கள் ஏற்றிச் செல்லவும் கட்டணச் சலுகை அளிக்கப்
படுகிறது. </p><p>
</p><p>
மாநில அரசுடன் உடன்பாடு </p><p>
</p><p>
ரெயில்வே திட்டங்களுக்கு மாநில அரசுகளும் நிதி பங்கீடு அளிக்க முன்வர வேண்டும். இந்த
திட்டத்தின் கீழ் மராட்டியம், ஆந்திரா, கர்நாடகா ஆகிய மாநிலங்களுடன் ரெயில்வே
ஒப்பந்தம் செய்து உள்ளது. ரெயில்வே துறை கடுமையான நிதி நெருக்கடியில் உள்ளதால் மாநில
அரசுகள் ரெயில்வே திட்டங்களில் பங்கு பெற வேண்டும். </p><p>
</p><p>
தனியார்மயம் ஆகாது </p><p>
</p><p>
ரெயில்வே துறையில் நவீனமயமாக்கும் பணியில் தனியாரை ஈடுபடுத்துகிறோம். இதனால்
தனியாரிடம் ரெயில்வே துறையை ஒப்படைப்பது என்ற பேச்சுக்கே இடமில்லை. </p><p>
</p><p>
இவ்வாறு அவர் பேசினார். </p>

<p> </p>

<p>சர்வதேச சந்தையிலும் குறைய
வேண்டும்: டீசல், காஸ் விலை குறைக்க ராம்நாயக் நிபந்தனை</p>

<p> </p>

<p>கவுகாத்தி, அக். 20- மத்திய பெட்ரோலியத் துறை மந்திரி
ராம்நாயக் நேற்று கவுகாத்தியில் (அசாம்) நிருபர்களிடம் கூறியதாவது:- </p><p>
</p><p>
சர்வதேச சந்தையில் கச்சா எண்ணெய் விலை பேரலுக்கு 20 டாலர்களாக குறைந்தால் தான்
இந்தியாவில் பெட்ரோலிய பொருட்களின் விலையை குறைக்க முடியும். </p><p>
</p><p>
இந்த விலையை குறைக்க வேண்டும் என்று மம்தா பானர்ஜி கோரிக்கை விடுத்து இருக்கிறார். இந்த
விவகாரம் பிரதமரிடம் உள்ளது. அவர் டெல்லிக்கு வரட்டும். தனது அமைச்சரவை சகாக்களையும்
கூட்டணி கட்சிகளையும் கலந்து ஆலோசித்து விட்டு முடிவு எடுக்கட்டும். ஆனால் நான்
பொருத்தமான எல்லா உண்மை தகவல்களையும் தயாராக வைத்து இருக்கிறேன். </p><p>
</p><p>
உயராது </p><p>
</p><p>
ஆனால் பெட்ரோலிய பொருட்களின் (பெட்ரோல், மண்எண்ணெய், காஸ்) விலை இனி
உயர்த்தப்படமாட்டாது. சர்வதேச விலை பேரலுக்கு 21 அல்லது 22 டாலர்களாக குறையட்டும். எனது
அமைச்சகமும் மகிழ்ச்சியுடன் விலையை குறைத்து விடும். நாடு முழுவதும் விற்பனை வரி ஒரே மாதிரியாக
இல்லாமல் இருப்பது கவலை தரத்தக்கது. </p><p>
</p><p>
இவ்வாறு அவர் கூறினார். </p>

<p> </p>

<p>எனக்காக தாடி வளர்க்க
வேண்டாம், மகன்களுக்கு ராஜ்குமார் வேண்டுகோள்்</p>

<p> </p>

<p>பெங்களூர், அக். 20- கன்னட நடிகர் ராஜ்குமார் சந்தன கடத்தல்
வீரப்பனால் கடந்த ஜூலை-மாதம் கடத்தப் பட்டார் அல்லவா? அதிலிருந்து ராஜ்குமாரின்
மகன்கள் சிவ ராஜ்குமார், ராகவேந்திர ராஜ்குமார், புனித் ராஜ்குமார் ஆகி யோர் மிகுந்த
கவலையுடன் உள் ளனர். மேலும் அவர்கள் 3 பேரும் தாடி வளர்த்தபடி சோகமாக
காட்சியளிக்கின்றனர். அவர்கள் 3 பேரும் தாடியுடன் இருப்பதை போட்டோக்களிலும், டி.வி.
மற்றும் பத்திரிகைகளில் பார்த்த ராஜ்குமார் வேதனையடைந் தாராம். இந்தநிலையில் காட்டுக்
குள் இருந்து வந்த கோவிந்த ராஜூவிடம் நடிகர் ராஜ்குமார், எனக்காக அவர்கள் தாடி வளர்க்க
வேண்டாம். அவர்களை உடனே தாடியை எடுக்க சொல்லுங்கள் என்று சொல்லி அனுப்பினாராம். </p><p>
</p><p>
இதை ராஜ்குமாரின் மனைவி பர்வதம்மாவிடம் கோவிந்தராஜூ தெரிவித்தார். இதையடுத்து
பர்வதம்மாள் தனது கணவருக்கு பதிலளிக்கும் வகையில் பேசிய பேச்சு ரேடி யோவில்
ஒலிபரப்பப்பட்டது. நேற்றுமுன்தினம் இரவு 7.45 மணி அளவில் ஒலிபரப்பான செய்தியின்போது
பர்வதம் மாளின் பேச்சு ஒலிபரப்பானது. அது வருமாறு:- </p><p>
</p><p>
தாடியை எடுக்க..... </p><p>
</p><p>
நான் உங்கள் பார்வதி பேசுகிறேன். இந்த தடவை நீங்கள் எப்படியும் வந்துவிடுவீர்கள் என்று
ஆவலுடன் எதிர் பார்த்தோம். ஆனால் நீங்கள் வரவில்லை. இது கடவுளின் விருப்பம். நம்
விதி. நீங்கள் எனக்கு உத்தரவிட்டபடி நமது மகன்கள் 3 பேரிடமும் தாடியை எடுத்து விடும்படி
சொல்லி விட்டேன். புதன்கிழமையே அவர்கள் தாடியை எடுத்து விடுவார்கள். </p><p>
</p><p>
கோவிந்தராஜூக்கு இப்போது சிகிச்சை அளிக்கப்பட்டு வருகிறது. உங்கள் பேரன்கள் குரு,
பிங்கி, வினு, தீரன், திம்பி ஆகியோர் பள்ளிக்கூடத்துக்கு போக மாட்டோம் என்று
அடம்பிடிக்கிறார்கள். உங்களை அழைத்துவர சென்னைக்கு போகப்போவதாக சொல்கிறார்கள்.
கோவிந்தராஜுவை பார்த்ததில் இருந்து தாத்தாவை எங்கே என்று கேட்டபடி இருக்கிறார்கள். </p><p>
</p><p>
கடவுள்-குருநாதர்-கணவர் </p><p>
</p><p>
நீங்கள் காட்டிலிருந்து திரும்பியதும் புண்ணியஸ்தலங்களுக்கு செல்ல நினைத்துள்ளேன்.
சபரிமலை, திருப்பதி, மந்த்ராலயா ஆகிய இடங்களுக்கு செல்ல வேண்டும். ரத்த அழுத்தம் வராமல்
பார்த்துக் கொள்ளுங்கள். தினமும் தவ றாமல் மாத்திரை சாப்பிடுங்கள். மற்றபடி நீங்கள்
காட்டுக்குள் தினமும் யோகாசனம் செய் வதை அறிந்து மிகவும் மகிழ்ச்சி அடைந்தேன். நானும்
இங்கு தவறாமல் யோகா செய்கிறேன். நீங்கள் கம்பு ஊன்றி நடப்பது நல்லது என்று நம் யோகா
மாஸ்டர் கூறியிருக்கிறார். எனவே ஏதாவது குச்சியை வைத்துக்கொள்ளுங்கள். </p><p>
</p><p>
என் குரலை நீங்கள் கேட்க முடியும். ஆனால் உங்கள் குரலை என்னால் கேட்க முடியாது. நான்
கண்களை மூடும் ஒவ்வொரு வினாடியும் நீங்கள் எப்போதும் என் முன்னால் இருப்பதுபோல
உணர்கிறேன். எனக்கு கடவுள், குருநாதர், கணவர் மூன்றும் நீங்கள்தான். என் கடவுள் என்னை
ஒரு போதும் காயப்படுத்தமாட்டார் என்று எனக்கு தெரியும். </p><p>
</p><p>
நாகேஷுக்கு </p><p>
</p><p>
தம்பி நாகேஷ் உன் குடும்பத்தை நாங்கள் பார்த்துக் கொள்கிறோம். அதைப்பற்றி நீ
கவலைப்பட வேண்டாம். தைரியமாக இரு. தயவுசெய்து அவரை (ராஜ்குமாரை) நன்றாக
பார்த்துக்கொள். அவர் உன்னை கவனித்துக்கொள்வார். </p><p>
</p><p>
இவ்வாறு பர்வதம்மாள் பேசியுள்ளார். </p><p>
</p><p>
பர்வதம்மாளின் பேச்சு நேற்றும் ரேடியோவில் ஒலிபரப்பப்பட்டது. </p>

<p> </p>

<p>ரூ.1 லட்சம் கோடியில்
நவீனமயமாகிறது: இந்திய விமானப்படைக்கு 350 புதிய போர் விமானம்</p>

<p> </p>

<p>வாஷிங்டன், அக். 20- இந்திய விமானப்படையை நவீன மயமாக்க திட்ட
மிடப்பட்டு உள்ளது. இதற்காக ரஷியாவிடம் இருந்து சூ-30 எம்.கே.ஐ. மற்றும் பிரான்சு
நாட்டின் மிராஜ் 2000 ரக விமானங்கள், பிரிட்டிஷ் ஹாக் ரக பயிற்சி விமானங்கள்
போன்றவை வாங்கப்பட உள்ளன. </p><p>
</p><p>
போர் விமானங்களில் எதிரிகளின் விமானங்களை வேவு பார்க்கும் விமானங்கள், முன்
எச்சரிக்கை செய்யும் விமானங்கள், ஆள் இல்லாமல் பறக்கும் விமானங்கள், மற்றும்
ஹெலிகாப்டர்கள் ஆகியவை அடங்கும். விமானப்படைக்கு வாங்கப்பட இருக்கும் இந்த
சொத்துக்களின் மொத்த மதிப் பீடு 25 பில்லியன் டாலர்கள் (சுமார் 1 லட்சம் கோடி
ரூபாய்) என கணக்கிடப்பட்டு உள்ளது. </p><p>
</p><p>
ரஷிய விமானங்கள் </p><p>
</p><p>
போர் விமானங்களை கூட்டாக தயாரிக்க இந்தியா- ரஷியா இடையே அக்டோபர் 4-ந்தேதி
ஒப்பந்தம் கையெழுத் தானது. இது முந்திய கால 140 சூ-30 ரக விமானங்களுக்கும் பொருந்தும். இது
தவிர ரஷியாவிடம் இருந்து 1.8 பில்லியன் டாலர் மதிப்பீட்டில் சூ-30 ரக விமானங்கள் 40 ஐ
வாங்க இந்தியா திட்டமிட்டு உள்ளது. </p><p>
</p><p>
இந்திய விமானப்படை தளபதி ஏ.ஒய். டிப்னிஸ் பேட்டியை மேற்கோள் காட்டி டிபன்ஸ் நியூஸ்
பத்திரிகை இந்த தகவலை தெரிவித்துள்ளது. </p><p>
</p><p>
ரஷிய நீர்மூழ்கிகள் </p><p>
</p><p>
இவை தவிர ரஷியாவிடம் இருந்து ஏவுகணைகள் பொருத்தப்பட்ட கப்பல்கள், நீர்மூழ்கிகளை
வாங்கும் பணியை இந்தியா தொடங்கி இருக்கிறது. இந்த கப்பல்கள் ரஷியாவின் கப்பல் கட்டும்
தளமான புனித பீட்டர்ஸ்பர்க்கில் இருந்து ஆகஸ்டு மாதமே புறப்பட்டுவிட்டன. </p><p>
</p><p>
ரஷிய அதிகாரிகளை மேற்கோள் காட்டி, டிபன்ஸ் நியூஸ் பத்திரிகை இந்த தகவலை வௌியிட்டு
இருக்கிறது. </p>

<p> </p>

<p>புதிய தூதர்கள்,
வீரப்பனுடன் பேசியது என்ன? நக்கீரன் கோபால் விளக்கம்</p>

<p> </p>

<p>சென்னை, அக். 20- வீரப்பனிடம் பணய கைதியாக சிக்கியுள்ள நடிகர்
ராஜ்குமாரை மீட்க பழ.நெடுமாறன், நக்கீரன் கோபால், பேராசிரியர் கல்யாணி, புதுவை
சுகுமாரன் ஆகியோர் அடங்கிய குழு காட்டுக்கு சென்றது அல்லவா? </p><p>
</p><p>
இந்த 5-வது கட்ட பயணத்தின் போது என்ன நடந்தது என்பதை கோபால் நக்கீரன் இதழில் எழுதி
உள்ளார். அவர் எழுதி இருப்பதாவது:- </p><p>
</p><p>
</p><p>
</p><p>
ராஜ்குமாரை மீட்கும் முயற்சியில் நக்கீரனுக்கு இது 5-வது கட்ட பயணம் என்றாலும் பழ.
நெடுமாறன், பேராசிரியர் கல்யாணி, சுகுமாரன் ஆகியோருடன் இணைந்து மேற்கொண்ட முக்கியமான
பயணம். நாகப்பா தப்பித்து வந்த பின் மேற்கொள் ளப்படும் பயணம் என்பதால் வீரப்பன்
மற்றும் அவரது தோழர்களின் அணுகுமுறைகள் எப்படி இருக்கும் என்ற எதிர் பார்ப்பும் இருந்தது.
எதிர் பார்த்தபடியே மாற்றங்களை காண முடிந்தது. 12-ந்தேதி இர வில் தூதர் நம்மை தொடர்பு
கொண்டு தயாராக இருங்கள்... 5 பேரைமட்டும்தான் காட்டுக்குள் அழைத்து வரச்சொல்லி
இருக்கிறார்கள். நீங்கள் உள்ளிட்ட தூதுக்குழுவினர் 4 பேர் மற்றும் உங்கள் நிருபர்களில்
யாராவது ஒருவர் என 5 பேர் தயாராக இருங்கள். வீடியோ கேமராவை எடுத்து வர வேண்டாம் என
தெரிவித்தார். இதனையடுத்து தூதுக்குழு வினர் அனைவருமே ஆயத்த நிலையில் இருந்தோம்.
வௌ்ளியன்று (13-ந்தேதி) வந்த அழைப்பை அடுத்து அன்றிரவு காட்டுக்குள் பயணித்தோம்.
அடர்த்தியான காட்டுப்பகுதியில் இரவு நேரத்தில் நடந்து வருவது தூதுக்குழுவினருக்கு புதிய அனு
பவமாக இருந்தது. </p><p>
</p><p>
மறுநாள் காலையில், வீரப்பனும், அவரது தோழர்களும் இருக்கும் இடத்தை அடைந் தோம்.
பேச்சுவார்த்தை தொடங்கியது. வீரப்பனுடன் பழ.நெடு மாறன் பேசினார். நாங்கள் அனைவரும்
அருகில் இருந்தோம். 3 பிணைக்கைதி களின் விடுதலையை அழுத்தமாக வலி யுறுத்தி பேசினார்
நெடுமாறன். </p><p>
</p><p>
ராஜ்குமாருடன் சந்திப்பு </p><p>
</p><p>
பேச்சு வார்த்தையினிடையிலேயே ராஜ்குமார் உள்ளிட்ட மூவரையும் சந்திக்க முடிவு செய்தோம்.
அவர்கள் இருந்த இடத்துக்கு வீரப்பன் தோழர்கள் எங்களை அழைத்து சென்றனர். நாகப்பா
தப்பித்த சம்பவத்துக்கு பின் காட்டுச் சூழலில் ஏற் பட்டுள்ள மாற்றத்தை பிணைக் கைதிகள்
மூவரிடமும் காண முடிந்தது. கடத்தப்பட்ட நாளில் இருந்து, காட் டுச்சூழலுக்கு ஏற்ப தன்னை
தகவமைத்துக் கொண்டு எப்போதும்போல் இருந்து வந்த ராஜ்குமாரின் முகத்தில் இந்த முறை
சோகம் படர்ந்திருந்தது. </p><p>
</p><p>
தாடியுடன் ராஜ்குமார் </p><p>
</p><p>
பிணைக்கைதிகள் மூவரும் ஷேவ் செய்யப்படாத முகத்துடன் காணப்பட்டனர். இதனை பதிவு
செய்யவேண்டாம் என்பதற்காகதான் வீடியோவை தவிர்க்க சொன்னார்களோ என்று எனக்கு
தோன்றியது. தாடியுடன் ராஜ்குமாரை பார்ப் பதற்கு சற்று கஷ்டமாகத்தான் இருந்தது. எனினும்,
எங்களை கண்டதும் ராஜ்குமாரின் முகத்தில் இருந்த கவலை ரேகைகள் மறைந்து புன்னகை அரும்பியது.
தூதுக்குழுவினரையும், பிணைக்கைதிகளையும் பரஸ்பரம் அறிமுகம் செய்து வைத்தோம்.
ராஜ்குமாரின் நலம் பற்றி விசாரித்தோம். </p><p>
</p><p>
15-10-2000 ஞாயிறு காலை யில் மீண்டும் பேச்சுவார்த்தை நடந்தது. முந்தைய நாள் நடந்த
பேச்சுவார்த்தையின் தொடர்ச் சியாகவே இது அமைந்தது. 121 தடா கைதிகள் விடுதலை, தமி ழக
சிறையில் உள்ள 5 பேர் விடுதலை, சதாசிவம் கமிஷன் மீதான தடை நீக்கம் இவை பற் றியே
வீரப்பன் அதிகம் வலி யுறுத்த, இவை தொடர்பாக அரசு மேற்கொண்டுள்ள முயற்சி களை
பழ.நெடுமாறன் தௌி வாக விளக்கினார். </p><p>
</p><p>
அரசியல் விவகாரக்குழு </p><p>
</p><p>
மாலை 4.30 மணி அளவில் பிணைக்கைதிகள் விடுதலை குறித்து தங்களின் அரசியல் விவகாரக்குழு
விவாதித்துக் கொண்டு இருப்பதாகவும், அத னால் பேச்சுவார்த்தையை நாளை தொடரலாமா என
வீரப்பன் கேட்டார். நெடுமாறன், பேராசிரியர் கல்யாணி, சுகு மாரன் மூவருமே இது குறித்து
பேசுவதற்காக தானே நாங்கள் வந்திருக்கிறோம். நாளை பேசலாம் என சம்மதித்தனர். 16-ந்
தேதி காலையில் மீண்டும் பேச்சு வார்த்தை தொடங்கியது. வீரப்பன் தனது கோரிக்கைகள்
பற்றி பேச்சு எடுத்த போது, நாம் அவரிடம் 3-வது கட்ட பேச்சு வார்த்தையின் போதே
கோரிக்கை தொடர்பான பேச்சுக்களை முடிவுக்கு கொண்டு வந்து விட்டோம். மீண்டும் அது குறித்து
விவாதிக்க வேண்டியதில்லை. உச்ச நீதிமன்றத்தடை குறித்து நெடுமாறன் உங்களிடம் விளக்குவார்
என்று சொல்லி மூவரின் விடுதலையை வலியுறுத்தி னோம். </p><p>
</p><p>
பழ.நெடுமாறன் மிகவும் தௌிவாகவும், நிதானமாகவும் விளக்க ஆரம்பித்தார். உச்சநீதி
மன்றத்தில் வழக்கு எப்போது முடியும் என்பதை வரையறுக்க முடியாது. நாளையே முடியலாம். நாட்
கணக்கிலும் ஆகலாம். 2 முதல்வர்களும் தங்கள் வாக்குறுதியில் தெரிவித்தபடியே நிறைவேற்றி
வருகிறார்கள். தேவையான ஆவணங் களையும் கொடுத்திருக்கிறார்கள். இதனை உணர்ந்து ராஜ்குமார்
உள்ளிட்ட மூவரையும் விடுவிக்க வேண்டும் என்றார். பேராசிரியர் கல்யாணி நறுக்குத்
தெறித்தாற் போல கருத்துக்களை எடுத்து வைத்தார். இந்த பிரச்சினையை நாம் மனிதாபிமான
அடிப்படையில்தான் பார்க்க வேண்டும். பிரபலமான ஒருவரை கடத்தி வைத்துக் கொண்டு இவ்வளவு
நாள் நீடிப்பதால் வெகு ஜனங்களிடம் விரோதத்தைத்தான் சம் பாதிக்க முடியும். அதனால்
விடுதலையை விரைவுபடுத்துங்கள் என்று சுகுமாரனும் தனது கோணத்தில் வற்புறுத்தினார். </p><p>
</p><p>
முதற்கட்ட விடுதலை </p><p>
</p><p>
தூதுக்குழுவினர் தெரிவித்த கருத்துக்களை அடுத்து வீரப்பன் ஆட்கள் கூடி பேசினர். சிறிது நேர
ஆலோசனைக்குப்பின் திரும்பி வந்த வீரப்பன், முதல் கட்டமாக பிணைக் கைதிகளில் ஒருவரை
விடுவிக்க தீர்மானித்து இருப்பதாக தெரிவித்தார். அரசுகள் தந்த வாக்குறுதியின்
அடிப்படையில் துரிதமான நடவடிக்கைகளை எதிர் பார்ப்பதாகவும், இதனையடுத்து ராஜ்குமார்
உள்ளிட்ட இருவரின் விடுதலை வேகமாக நிறை வேறும் எனவும் வீரப்பின் தரப்பில் இருந்து
தெரிவிக்கப்பட்டது. </p><p>
</p><p>
தூதுக்குழுவினர் மிகவும் தௌிவான அணுகுமுறையை மேற்கொண்டனர். இரு மாநில மக்களின் நலன்களை
கருத்தில் கொண்டு முழுக்க, முழுக்க மனித நேய அடிப்படையில் ராஜ்குமாரை உள்ளிட்ட மூவரின்
விடுதலையை வலியுறுத்தி பேச்சு நடந்தது. அதன் விளைவாக முதற்கட்டமாக கோவிந்தராஜு
விடுவிக்கப்பட்டிருக்கிறார். </p><p>
</p><p>
இந்த முதல் கட்ட வெற்றியை தொடர்ந்து, அடுத்த கட்ட முயற்சிகளை மேற்கொள்ள தூதுக்குழுவினர்
தயாராக உள்ளனர். அந்த முயற்சிக்கு அனைத்து தரப்பு மக்களின் ஆதரவையும் தூதுக்குழு
கோரியுள்ளது. மீட்பு முயற்சி முழுமையாக நிறைவேறும் வரை நக்கீரன் தனது கடமையை செய்யும். </p><p>
</p><p>
இவ்வாறு எழுதி உள்ளார். </p>

<p> </p>

<p>ராஜ்குமாரை மீட்க நெடுமாறனை
தூது அனுப்பியது தவறு அல்ல, மத்திய மந்திரிவெங்கய்யா நாயுடு பேட்டி</p>

<p> </p>

<p>பெங்களூர், அக். 20- பெங்களூர் சென்ற மத்திய மந்திரி வெங்கய்யா
நாயுடு அங்கு நிருபர்களிடம் கூறியதாவது:- </p><p>
</p><p>
சந்தன வீரப்பன் கடத்தி சென்ற நடிகர் ராஜ்குமாரை மீட்க தமிழ் தேசிய இயக்க தலைவர்
நெடுமாறனை அனுப்பி யது தவறு அல்ல. ஆபத்துக்கு பாவம் இல்லை என்பார்கள். நெருக்கடியான
நேரத்தில் எல் லோர் உதவியையும் பெறலாம். </p><p>
</p><p>
விமான கடத்தல் </p><p>
</p><p>
நடிகர் ராஜ்குமாரை எப்படியாவது மீட்க வேண்டும் என்பதுதான் எங்கள் கவலை. முன்பு
நேபாளத்தில் இருந்து இந்திய விமானம் கடத்தப்பட்ட போது இந்திய அரசு தீவிரவாத இயக்கமான
தலிபான் இயக்கத்தின் உதவியை நாடியது. </p><p>
</p><p>
மேலும், தேசிய ஜனநாயக கூட்டணியில் உள்ள எந்த கட்சியும் விடுதலைப்புலிகளுடன் நேரடியாகவோ
மறைமுகமாக வோ தொடர்பு இல்லை. </p><p>
</p><p>
சான்றிதழ்? </p><p>
</p><p>
ராஜ்குமாரை மீட்க கர்நாடக முதல்வர் கிருஷ்ணா எடுத்த நடவடிக்கை சரியானது தான் என்று
சான்றிதழ் கொடுப்பீர்களா? என்று நீங்கள் (நிருபர்கள்) கேட்கிறீர்கள.் </p><p>
</p><p>
கொடுப்பதற்கு என்னிடம் சான்றிதழ் எதுவும் இல்லை. ராஜ்குமாரை மீட்க எல்லா உதவிகளையும்
அளிக்க மத்திய அரசு தயார். </p><p>
</p><p>
பொதுவாக அரசு மேற் கொள்ளும் நடவடிக்கை யுக்திகள் பற்றி பொதுஇடத்தில் விவாதிப்பது
இல்லை. அது பற்றிய விவரத்தை வௌியிடுவதும் இல்லை. </p><p>
</p><p>
இவ்வாறு அவர் கூறினார். </p><p>
</p><p>
பர்வதம்மாளுடன் சந்திப்பு </p><p>
</p><p>
பெங்களூரில் முதலமைச்சர் கிருஷ்ணா, ராஜ்குமார் மனைவி பரவதம்மாள் ஆகி யோரை வெங்கய்யா
நாயுடு சந்தித்துப் பேசினார். </p>

<p> </p>

<p>5-வது முறையாக சென்னை
விமானம் திடீர் கோளாறு, 58 பயணிகள் தப்பினர்</p>

<p> </p>

<p>மீனம்பாக்கம், அக்.20- சென்னை மீனம்பாக்கம் விமான
நிலையத்தில் இருந்து கடந்த சில வாரங்களாக இந்தியன் ஏர்லைன்ஸ் விமானங்கள் தாமதமாக
புறப்பட்டு செல்வது தெரிந்ததே. எந்திரத்தில் ஏற் படும் கோளாறுகளால் இது போன்ற
காலதாமதங்கள் ஏற் பட்டு வந்தது. இதுவரை இந்தி யன் ஏர்லைன்சின் 4 விமானங் கள் தாமதமாக
மீனம்பாக்கம் விமான நிலையத்தில் இருந்து புறப்பட்டு சென்று உள்ளன. </p><p>
</p><p>
எந்திர கோளாறு </p><p>
</p><p>
இந்த நிலையில் சென்னையில் இருந்து நேற்று மாலை 6 மணிக்கு பெங்களூர் வழியாக கோவை
செல்லும் அலையன்ஸ் விமானம் எந்திர கோளாறு காரணமாக ரத்து செய்யப்பட்டது. 58 பயணிகளுடன்
6 மணிக்கு புறப்பட வேண்டிய அந்த விமானம் 8 மணிக்கு ரத்து செய்யப்பட்டதாக அறி
விக்கப்பட்டது. இதன் காரணமாக பயணிகள் அனைவரும் பல்வேறு இடங்களில் தங்க
வைக்கப்பட்டனர். </p><p>
</p><p>
இதுபற்றி பயணிகள் கூறு கையில், மாலை 4 மணி முதலே விமான நிலையத்தில் காத்து இருக்கிறோம்.
ஆனால் விமானம் எந்திர கோளாறு காரணமாக ரத்து செய்யப்படுவதை 8 மணிக்கு தான்
அறிவிக்கிறார்கள் என்றனர். </p><p>
</p><p>
பயணிகள் தப்பினர் </p><p>
</p><p>
ஏற்கனவே 4 முறை விமானங்கள் பல்வேறு காரணங்களால் தாமதமாக புறப்பட்டு சென்றன. இந்த
நிலையில் நேற்று 5-வது முறையாக சென்னை விமானம் எந்திர கோளாறு காரணமாக ரத்து
செய்யப்பட்டு உள்ளது. அந்த விமானம் புறப்பட்டு சென்ற பின் இது நடந்திருந்தால் பெரும்
விபத்து ஏற்பட்டு இருக்கும். அதில் இருந்த 58 பயணிகளும் விபத்துக்குள்ளாகி இருப்பார்கள். </p><p>
</p><p>
</p><p>
</p><p>
சென்னை விமான நிலையத்தில் அனாதையாக கிடந்த மர்ம பை </p><p>
</p><p>
மீனம்பாக்கம், அக்.20- சென்னை விமான நிலைய கார் பார்க்கிங்கில் ஒரு பை அனாதை யாக
கிடந்தது. உடனடியாக போலீசார் அந்த பையை கைப்பற்றி விமான நிலைய மேலாளரிடம்
ஒப்படைத்தனர். பின்னர் அதில் வெடிகுண்டு எதுவும் இருக்கிறதா என சோதனை செய்ய வெடிகுண்டு
நிபுணர்களிடம் ஒப்படைக்கப்பட்டது. அவர்கள் அந்த பையை 48 மணி நேரம் குளிர் பெட்டியில்
வைத்தனர். இந்த நிலையில் பையை தவற விட்ட பயணி பால்ராஜ் என்பவர் விமான நிலைய
மேலாளரிடம், தான் 12 பைகள் கொண்டு வந்ததாகவும், அதில் ஒன்று தவறி விட்டதாகவும்
தெரிவித்தார். ஆனால் பரிசோதனைக்கு பின்னரே பை ஒப்படைக்கப்படும் என்று அதிகாரி
தெரிவித்து விட்டார். </p>

<p> </p>

<p>வங்கிகள் தனியார்
மயமாக்கப்பட்டால் காலவரையற்ற வேலை நிறுத்தம், ஊழியர்கள் சங்கம் அறிவிப்பு</p>

<p> </p>

<p>சென்னை, அக்.20- தமிழ்நாடு வங்கி ஊழியர்கள் சங்கப் பேரவைத்
தலைவர் என்.சம்பத், பொதுச் செயலாளர் சி.எச்.வெங்கடாசலம் ஆகியோர் கூட்டாக வௌியிட்டு
உள்ள அறிக்கையில் கூறி உள்ளதாவது: </p><p>
</p><p>
நாட்டின் பொருளாதார வளர்ச்சியில் பொதுத்துறை வங் கிகள் கடந்த 30 ஆண்டு கால மாக அரிய
பங்கு கொண்டு உள்ளன. பொதுமக்கள் பணத் துக்குப் பாதுகாப்பு, விவசாயம், தொழில் துறை
ஆகியவற்றின் வளர்ச்சிக்காக கடன் வசதி போன்ற பணிகள் சிறப்பாக நடைபெற்று வருகின்றன. </p><p>
</p><p>
நாடு முழுவதும் தற்போது 65 ஆயிரம் கிளைகள் உள்ளன. அவற்றில் ரூ.8 லட்சத்து 50 ஆயிரம் கோடி
முதலீடு செய்யப்பட்டு உள்ளது. மேலும் அரசின் பல்வேறு திட்டங்களுக்காக ரூ. 3 லட்சத்து50
ஆயிரம் கோடி முதலீடு செய்யப்பட்டு உள்ளது. </p><p>
</p><p>
தனியார் மயம் </p><p>
</p><p>
சாதனைகளுக்கு இடையே ஒரு வேதனை என்னவென்றால் ரூ.58 ஆயிரம் கோடி கடன்கள் திரும்பச்
செலுத்தப்படாதது தான். அதனால் சில வங்கிகள் நஷ்டத்தைச் சந்திக்க வேண்டிய தாயிற்று.
அந்த கடன்களை திரும்பப் பெற அரசு தீவிர நடவடிக்கை மேற்கொள்ள வேண்டும். ஆனால் அதற்கு
பதிலாக 33 சதவீத பங்குகளை விற்பதன் மூலம் வங்கிகளை தனியார் மயமாக்க அரசு தீவிரமாக
முயன்று வருகிறது </p><p>
</p><p>
இது தற்கொலைக்கு ஒப்பானது ஆகும். கடன்களை திரும்பப்பெறுவதற்கு பதிலாக அரசு கடன்
வாங்கியவர்களிடமே வங்கிகளை ஒப்படைக்கிறது. தற்போதைய தேவை என்ன வென்றால் கடனை
திரும்பச் செலுத்தாதவர்களின் பட்டியலை அரசு வௌியிட வேண்டும். அவர்கள்மீது கடுமையான
நடவடிக்கை மேற்கொள்ளப்பட வேண்டும். </p><p>
</p><p>
வேலை நிறுத்தம் </p><p>
</p><p>
பொதுத்துறை வங்கிகள் தனியார்மயமாவது தொடர்பான சட்டம் கொண்டு வரப்பட்டால் உடனடி
வேலைநிறுத்தம் மூலம் எங்கள் எதிர்ப்பை வௌிப்படுத்துவோம். தேவையானால் கால வரையற்ற
வேலை நிறுத்தம் மேற்கொள்ளப்படும். </p><p>
</p><p>
அடுத்த கட்டமாக, தமிழ்நாடு முழுவதும் உள்ள வங்கி ஊழியர்கள் சென்னை நோக்கி செல்லும்
நிகழ்ச்சி நவம்பர் 19ந் தேதி நடை பெற உள்ளது. அதைத் தொடர்ந்து பொதுக்கூட்டம்
நடைபெறும். தமிழக முதல்வர் கருணாநிதியை சந்தித்து, இது தொடர்பாக மறு பரிசீலனை செய்யுமாறு
மத்திய அரசை கேட்டுக்கொள்ளவேண்டும் என்ற கோரிக்கை மனு கொடுக்கவும் திட்டமிடப்பட்டு
உள்ளது. </p><p>
</p><p>
இவ்வாறு அவர்கள் கூறி உள்ளனர். </p>

<p> </p>

<p>25 நர்சுகள்
வாழ்த்துப்பாடல்: வாஜ்பாய் மனம் நெகிழ்ந்தார்</p>

<p> </p>

<p>மும்பை, அக். 20- பிரதமர் வாஜ்பாயை மும்பை மருத்துவமனையில்
அன்போடு கவனித்து வந்த 25 நர்சுள் நேற்று அவரது அறையில் ஒன்று கூடி உருக்கமாக பிரார்த்தனை
பாடல் பாடினார்கள். அதில் வாஜ்பாய் மனம் நெகிழ்ந்தார். 25 நர்சுகளையும் டெல்லிக்கு
வருமாறு அழைப்பு விடுத்தார் </p><p>
</p><p>
மும்பையில் உள்ள பிரீச் கேண்டி மருத்துவமனையில் மூட்டு மாற்று ஆபரேசனுக்குப் பிறகு குணமடைந்து
வரும் பிரதமர் வாஜ்பாயை 25 நர்சுகள் கண்ணும் கருத்துமாக கவனித்து வருகிறார்கள். வாஜ்பாய்
குணமடைந்து 22-ந்தேதி டெல்லி திரும்புவதை தொடர்ந்து நேற்று அவரது அறையில் 25 நர்சுகளும்
ஒன்று கூடினார்கள். அப்போது வாஜ்பாய் நீண்ட ஆயுளுடன் நலத்துடன் வாழ கடவுளை வேண்டி
உருக்கமாக பிரார்த்தனை பாடல் பாடினார்கள். </p><p>
</p><p>
அந்த பாடலின் உருக்கமான சில வரிகள் வருமாறு:- </p><p>
</p><p>
நல்ல கடவுள் உங்களை ஆசீர்வதிப்பாராக, சூரியனின் பிரகாசமான ஒளியில் நீங்கள்
நடப்பீர்களாக, நாட்டு மக்களின் அன்பை பெற்ற தலைவரான உங்களை கடவுள் ஆசீர்வதிக்
கட்டும் உங்கள் வருங்கால கனவுகள் இனிதே நிறைவேறட்டும் என்று பாடினார்கள். </p><p>
</p><p>
அந்த பாடலை கேட்டு வாஜ்பாய் மனம் நெகிழ்ந்தார். தன்னை பாசத்துடன் கவனித்த நர்சுகளுக்கு
நெஞ்சார்ந்த நன்றியை தெரிவித்தார். அந்த நர்சுகள் அனைவரையும் டெல்லிக்கு
வரவேண்டும் என்று அழைப்பு விடுத்தார். </p><p>
</p><p>
பிரீச் கேண்டி மருத்துவமனையில் மொத்தம் 300 நர்சுகள் பணியாற்றுகிறார்கள். இந்த
மருத்துவமனை 50 ஆண்டுகளுக்கு முந்தியது ஆகும். </p>

<p> </p>

<p>செஞ்சி
ராமச்சந்திரனுக்கு நிதி இலாகாவில் முக்கிய பொறுப்பு</p>

<p> </p>

<p>புதுடெல்லி, அக். 20 - பிரதமர் வாஜ்பாய் சமீபத்தில் மத்திய
அமைச்சரவையில் மாற்றம் செய்தார் அல்லவா? அப்போது மத்திய ஜவுளித்துறை இணை
அமைச்சராக இருந்த செஞ்சிராமச்சந்திரன் (ம.தி.மு.க.) மத்திய நிதித்துறை இணை
அமைச்சராக நியமிக்கப் பட்டார். அந்த பொறுப்பை ஏற்று உள்ள செஞ்சி ராமச்சந்திரனுக்கு
இப்போது முக்கிய பொறுப்புகளை நிதித்துறை காபினட் அமைச்சர் யஷ்வந்த் சின்கா ஒதுக்கி
உள்ளார். </p><p>
</p><p>
இதன்படி நிதி இலாகாவின் வருவாய்த்துறை முழுவதும் ராமச்சந்திரனின் கட்டுப்பாட்டில் இருக்கும்.
</p><p>
</p><p>
நிதி அமைச்சகத்தின்கீழ் வங்கியியல், இன்சூரன்சு, பொருளாதார விவகாரங்கள், வருவாய், செலவினங்கள்
ஆகிய துறைகள் உள்ளன. இதில் வருவாய்த்துறை பொறுப்பு ராமச்சந்திரனுக்கு ஒதுக்கப்பட்டது. </p><p>
</p><p>
வருவாய்த்துறையில் மத்திய நேர்முக வரிகள் வாரியம், மத்திய கலால், சுங்கவரி வாரியம்
ஆகியவை அடங்கும். நேர்முக வரி என்பது வருமான வரி, சொத்து வரி மற்றும் நன்கொடை வரி
ஆகியவை. </p><p>
</p><p>
ஜவுளித்துறையில்... </p><p>
</p><p>
செஞ்சி ராமச்சந்திரன் ஜவுளித்துறை இணை அமைச்சராக இருந்தபோது, அதன் காபினட்
அமைச்சரான காசிராம் ராணா செஞ்சி ராமச்சந்திரனுக்கு முக்கிய துறை எதையும்
ஒதுக்கவில்லை. கைத்தறி, பட்டு வாரியம் மட்டுமே ஒதுக்கப்பட்டது. கைத்தறி மாநில அரசின்
கட்டுப்பாட்டில் உள்ளது. மத்திய அரசு நேரடியாக தலையிட முடியாது. அதே போல் பட்டு
வாரியத்திலும் நேரடிப் பணி இல்லை. பெங் களூரில் செயல்பட்டு வரும் பட்டு வாரியத்துக்கு துணை
அமைச்சர் அதிகாரத்தில் ஓர் நியமனத் தலைவர் இருக்கிறார். அன்றாடப் பணிகள் அவரிடமே
இருக்கும். கொள்கை முடிவு களுக்காக மட்டுமே அமைச்சரை நாடி வருவார்கள். </p><p>
</p><p>
அதனால் செஞ்சி ராமச்சந்திரனுக்கு முக்கிய பணிகள் இல்லை. மேலும் தமிழகத்தில்
என்.டி.சி. ஆலைகளை புனரமைக்க சில பணிகளை செய்ய நினைத்தார். ஆனால் அத்துறை அவருக்கு
ஒதுக்கப்படவில்லை. </p><p>
</p><p>
பிரதமர் பாராட்டு </p><p>
</p><p>
அதேநேரத்தில் நாடாளு மன்றத்தில் அவரது செயல்கள் பிரதமர் உள்பட மூத்த தலை வர்களுக்கு
திருப்தியை ஏற்படுத்தியது. குறிப்பாக நெசவாளர் நிலை பற்றிய தனிநபர் மசோதாவுக்கு பதில்
அளித்து, மாநிலங்களவையில் அவர் ஆற்றிய உரை அனைவரையும் கவர்ந்தது. இதற்காக பிரதமர்
அவரை பாராட்டியதாகவும் கூறப்படுகிறது. </p><p>
</p><p>
அரசுக்கு தர்மசங்கடத்தை ஏற்படுத்தாமல் செயல்படும் அமைச்சர், அதேபோல் அவரது கட்சியின்
பொதுச்செயலாளர் வைகோவும் அரசுக்கு எப்போ தும் பக்கபலமாக இருக்கிறார். சிக்கலான
நேரங்களில் அரசின் நடவடிக்கையை ஆதரித்து பேசுகிறார். எனவே முக்கிய பொறுப்பை அளிக்கும்
நோக்கத்துடன் செஞ்சி ராமச்சந்திரனுக்கு நிதித்துறை ஒதுக்கப்பட்டுள்ளதாக தெரிகிறது. </p><p>
</p><p>
சர்ச்சைக்குரிய கருத்துக்களை வௌியிட்டு அரசுக்கு பல்வேறு தர்மசங்கடங்களை
ஏற்படுத்தியதற்காக தனஞ்செயகுமார், நிதித்துறை இணை அமைச்சர் பதவியில் இருந்து
நீக்கப்பட்டுள்ளார். </p>

<p> </p>

<p>முரசொலிமாறனுடன்
ஆஸ்திரேலிய வர்த்தக அமைச்சர் சந்திப்பு, இந்திய உணவுப்பொருள் ஏற்றுமதி அதிகரிக்கும்</p>

<p> </p>

<p>புதுடெல்லி, அக். 20- உலக வர்த்தக அமைப்பில் தற்போது
நடந்துவரும் வேளாண்துறை குறித்த பேச்சு வார்த்தைகளில் ஆஸ்திரேலியாவுக்கு இந்தியா உதவ
வேண்டுமென்று ஆஸ்திரேலிய வர்த்தக அமைச்சர் மார்க் வேய்லி, மத்திய வர்த்தக தொழில்
துறை அமைச்சர் முரசொலி மாறனிடம் கேட்டுக் கொண்டார். உலக வேளாண் வர்த்தகத்தில்
வளர்ந்த நாடுகளுக்கு வழங்கப்பட்டு வரும் ஏற்றுமதி மானியத்தை நிறுத்த வேண்டும் என்பதை
ஆஸ்திரேலியா வலியுறுத்தி வருகிறது. </p><p>
</p><p>
உலக வர்த்தகத்தில் வேளாண்துறையில் தாராள மயமாக்கலை உலக வர்த்தக அமைப்பின்
உடன்பாட்டின் படி கொண்டுவருவதால் இந்திய விவசாயிகளுக்கு போதிய சந்தை வாய்ப்புகள்
ஏற்படும் என்று வேய்லி கூறினார். மேலும் பன்முக மற்றும் இரு தரப்பு வர்த்தகம் குறித்த கருத்
துக்களை வேய்லி மத்திய அமைச்சருடன் பகிர்ந்து கொண்டார். பலதரப்பட்ட வர்த்தக பேச்சு
வார்த்தைகளை புதிதாக ஆரம்பிப்பதற்குமுன் வளரும் நாடுகளின் குறிப்பிட்ட சில தேவைகளை
முன்வைப்பதின் மூலம் போதுமான உறுதிப் பாட்டை வளர்க்க முடியும் என்றார். மேலும் உலக
வர்த்தக அமைப்பின் நடைமுறைப்படுத் தப்பட உள்ள சில செயல்பாடுகள் குறித்து தொடர்ந்து இந்
தியா வலியுறுத்தி வருவதாக மாறன் எடுத்துரைத்தார். </p><p>
</p><p>
ஏற்றுமதி ஊக்குவிக்கப்படும் </p><p>
</p><p>
இந்திய, ஆஸ்திரேலிய நாடுகளுக்கிடையே வர்த்தக வளர்ச்சியில் சமநிலை நிலவும் வகையில்
ஆஸ்திரேலியாவுக்கு அதிகப்படியாக இந்தியா ஏற்று மதி செய்ய வேண்டும் என்பதையும் அவர்
வலியுறுத்தினார். இது குறித்து இருதரப்பு வர்த்தக பேச்சுவார்த்தைகளில் இறுதியான ஒப்புதல்
உடன்பாட்டில் கடல் உணவுப்பொருட்கள், பதப்படுத்தப்பட்ட பொருட்கள் ஆகியவற்றின்
ஏற்றுமதியில் தொற்றுநோயின்மை குறித்து இந்திய அதிகாரிகள் வழங்கும் சான்றிதழ்களை
ஆஸ்திரேலிய தொற்றுநோய் தடுப்பு முகமைகள் அங்கீகரிக்க வேண்டும். இதன்மூலம் ஆஸ்திரேலியாவுக்
கான இந்திய ஏற்றுமதி ஊக்கு விக்கப்படும். இதுகுறித்து இரு நாட்டு தொற்றுநோய் தடுப்பு
முகமைகள் ஒப்புதல் வழங்க வேண்டுமென்று முரசொலி மாறன் கேட்டுக் கொண் டார். </p><p>
</p><p>
பின்பு தகவல் தொழில் நுட்பம் குறித்த ஒப்பந்தத்தில் வேய்லியும், மத்திய தகவல்
தொழில்நுட்பத்துறை அமைச்சர் பிரமோத் மகாஜனும், முர சொலி மாறன் முன்னிலையில்
கையெழுத்திட்டனர். இதன் மூலம் தகவல் தொழில்நுட்பத் துறையில் இருநாட்டு ஒத்துழைப்பில்
பரந்த அளவில் வளர்ச்சிக்கான வாய்ப்பு ஏற் பட்டுள்ளது. கடந்த ஏப்ரல் மாதத்தில்
இந்தியா, ஆஸ்திரே லியா கூட்டு வர்த்தக கழக கூட் டத்தில் இருநாட்டு வர்த்தக அளவு
2000-2001 ஆண்டுகளில் நான்கு பில்லியன் ஆஸ்திரேலிய டாலர்களை எட்டு இலக்கு
நிர்ணயிக்கப்பட்டுள்ளது. </p>

<p> </p>

<p>ரங்கராஜன் சிகிச்சை
சர்ச்சை எதிரொலி: தனியார் மருத்துவமனைகளில் தரம் நிர்ணயிக்க சட்டம் வருகிறது, மத்திய
மந்திரி தாகூர் தகவல்</p>

<p> </p>

<p>புதுடெல்லி, அக்.20 மத்திய சுகாதார மந்திரி சி.பி.தாகூர்
டெல்லியில் அவர் கூறியதாவது:- </p><p>
</p><p>
மத்திய அமைச்சர் ரங்கராஜனுக்கு தனியார் மருத்துவ மனையில் அளிக்கப்பட்ட சிகிச்சை பற்றி
சர்ச்சை கிளம்பி உள்ளதால் தனியார் மருத்துவ மனைகளை ஒழுங்குபடுத்துவது அவசரம் என்று அரசு
கருதுகிறது. </p><p>
</p><p>
எனவே தனியார் மருத்துவ மனைகளின் செயல்பாடுகள் குறித்து ஒரு அவசர சட்டம் கொண்டு வர அரசு
திட்டமிட்டு உள்ளது. தனியார் மருத்துவ மனைகள் மற்றும் கிளினிக்குகள் சில குறைந்த பட்ச
தரத்துடன் செயல்பட வேண்டும். </p><p>
</p><p>
இதுபற்றி விவாதிக்க மாநில சுகாதார மந்திரிகள் மாநாட்டை அடுத்த மாதம் கூட்டி இருக்
கிறேன். நாட்டில் தனியார் மருத் துவமனைகள் பெருகி வருவதை ஒழுங்குபடுத்துவது பற்றி இதில்
விவாதிக்கப்படும். </p><p>
</p><p>
தௌிவாக இல்லை </p><p>
</p><p>
ரங்கராஜனுக்கு அளிக்கப் பட்ட சிகிச்சை பற்றி ஆராய நியமிக்கப்பட்ட நிபுணர்கள் குழு
அறிக்கை தௌிவாக இல்லாதது வருந்தத்தக்கது. குறைபாடுகள் பற்றி தௌ்ளத்தௌிவாக அந்த குழு
படம்பிடித்து காட்டி இருக்கலாம். </p><p>
</p><p>
மருத்துவத் துறையில் ஏற்பட்டு உள்ள புதிய முன்னேற்றங்கள் பற்றி டாக்டர்களுக்கு
புனர்பயிற்சி அளிப்பதை சட்டமாக்க அரசு தீவிரமாக உள்ளது. நாட்டில் உள்ள பெரும்பாலான
மருத்துவக் கல்லூரிகளில் போதுமான வசதிகள் இல்லை. எனவே மருத்துவக்கல்லூரிகள் மற்றும்
மருத்துவமனைகளுக்கு நிதி உதவி அளிப்பதற்காக மருத்துவ மானியக் குழு அமைக்கலாம் என்று யோசனை
கூறி இருக்கிறேன். </p><p>
</p><p>
நாட்டில் சுகாதார திட்டத்தை மேம்படுத்துவதற்காக ஆரம்ப சுகாதார நிலையங்கள் மற்றும் மாவட்ட
மருத்துவமனைகளை பலப்படுத்தி வரு கிறோம். </p><p>
</p><p>
ஆனால் சில மாநிலங்களில் இந்த திட்டம் முற்றிலும் தோல்வி அடைந்துவிட்டது. </p><p>
</p><p>
இவ்வாறு அவர் கூறினார். </p>

<p> </p>

<p>முன்னாள் பிரதமர்,
சந்திரசேகரிடம் ரூ.6 கோடி வசூலிக்க கோரி மத்திய அரசு வழக்கு, ராணுவ விமானத்தை சொந்த
வேலைக்கு பயன்படுத்தினார்</p>

<p> </p>

<p>புதுடெல்லி, அக். 20- முன்னாள் பிரதமர் சந்திரசேகர் பதவியில்
இருந்த போது ராணுவ விமானத்தை பயன் படுத்தினார். இதன்மூலம் அரசுக்கு ரூ.5.91 கோடி இழப்பு
ஏற்பட்டு உள்ளது. இதேபோல முன்னாள் பிரதமர்கள் ராஜீவ் காந்தி, நரசிம்மராவ், தேவ கவுடா
ஆகியோரும் அரசு விமா னத்தை தவறாக பயன் படுத்தி உள்ளனர். இதன்மூலம் அரசுக்கு ஏற்பட்டு
உள்ள மொத்த இழப் பீடான ரூ.11.55 கோடியை வசூலிக்க வேண்டும் என்று டெல்லி
உயர்நீதிமன்றத்தில் பொதுநல வழக்கு தொடரப்பட்டது. இது தொடர்பாக
சம்பந்தப்பட்டவர்களுக்கு நோட்டீசு அனுப்பப்பட்டது. இதற்கு சந்திரசேகரின் சமாஜ்வாடி
ஜனதாகட்சி விளக்கம் அளித்தது. </p><p>
</p><p>
வழக்கு </p><p>
</p><p>
இதை ஏற்றுக்கொள்ள முடியாது என்று கூறி சந்திரசேகர் மீது டெல்லி உயர்நீதிமன்றத்தில்
மத்திய அரசு சிவில் வழக்கு தொடர்ந்தது. அதில் சந்திரசேகர் பிரதமராக இருந்த போது ராணுவ
விமானத்தை சொந்த வேலைக்கு பயன்படுத்தி உள்ளார். இதனால் ஏற்பட்ட இழப்புத் தொகையான
ரூ.5.91 கோடியை அவரிடம் இருந்து வசூலிக்க வேண்டும் என்று கூறி இருந்தது. </p><p>
</p><p>
இந்த தகவலை டெல்லி உயர்நீதிமன்ற பெஞ்சு நீதிபதிகள் முன் கூடுதல் சொலிசிடர்
ஜெனரல் கே.கே.சூட் தெரிவித்தார். </p><p>
</p><p>
ராவ் பாக்கி </p><p>
</p><p>
முன்னாள் பிரதமர் ராஜீவ் காந்தி ராணுவ விமானத்்தை பயன்படுத்தியதற்காக 1.86 கோடி ரூபாயை
காங்கிரஸ் கட்சி கட்டிவிட்டது. ஆனால் நரசிம்மராவ் பிரதமராக இருந்த போது ராணுவ
விமானத்தை பயன்படுத்தியதற்காக ரூ.5.52 கோடி செலுத்த வேண்டி உள்ளது. இதற்காக காங்கிரஸ்
கட்சி 25 லட்சம் தான் கட்டி இருக்கிறது. முன்னாள் பிரதமர் தேவகவுடா, அரசு விமானத்தில்
சொந்த பணிக்காக பயணம் செய்த வகையில் ரூ.54.61 லட்சம் கட்ட வேண்டி இருக்கிறது என்று
சூட் தெரிவித்தார். </p><p>
</p><p>
நீதிபதிகள் உத்தரவு </p><p>
</p><p>
அரசு விமானத்தை சொந்த வேலைக்கு பயன்படுத்திய நரசிம்மராவ், தேவகவுடா ஆகியோர் மீதும்
வழக்கு தொடர வேண்டும். அதை தாக்கல் செய்த பிறகு டிசம்பர் 7-ந்தேதி ஒரு பிரமாணபத்திரம்
தாக்கல் செய்யவேண்டும்் என்று நீதிபதிகள் உத்தரவிட்டனர். </p>

<p> </p>

<p>கிருஷ்ணாநீர் தினமும்
வருகிறது: சென்னைக்கு குடிநீர் பஞ்சம் வராது</p>

<p> </p>

<p>சென்னை, அக். 20- அமைச்சர் துரைமுருகன் அளித்த பேட்டி வருமாறு:- </p><p>
</p><p>
மேட்டூர் அணையில் 121 அடி உயரம் தண்ணீர் உள்ளது. அதன் கொள்ளளவு 94 டி.எம்.சி.
ஆகும்.1-6-2000 முதல் 16-10-2000 வரை காவிரி ஆற்றில் இருந்து வாரம் 195.738 டி.எம்.சி.
தண்ணீர் பெற்று இருக்கிறோம். இந்த காலத்தில் நமக்கு வந்து இருக்க வேண்டியது 153
டி.எம்.சி. கூடு தலாக 42 டி.எம்.சி. தண்ணீர் பெற்று இருக்கிறோம். ஆறு, குளங்களில் தூர்
வாரியது அதிக அளவில் தண்ணீர் சேமிக்க உதவுகிறது. </p><p>
</p><p>
முல்லைப்பெரியாறு அணை பிரச்சினைபற்றி நிபுணர் குழு கூட்டம் டெல்லியில் நடக்கிறது.
அதன்பிறகு இந்த குழு மத்திய அரசுக்கு அறிக்கை தரும். அதைத்தொடர்ந்து மத்திய அரசு சுப்ரீம்
கோர்ட்டுக்கு முடிவு தெரிவிக்கும். </p><p>
</p><p>
சென்னைக்கு கிருஷ்ணா நீர் வினாடிக்கு 416 கனஅடி வந்து கொண்டு இருக்கிறது. கடந்த 1-9-2000
முதல் இன்றுவரை 1.34 டி.எம்.சி. கிருஷ்ணா நீர் வந் துள்ளது. பூண்டி, செங்குன்றம், சோழவரம்
ஏரிகளில் 1.79 டி.எம்.சி. தண்ணீர் இருப்பில் உள்ளது. இதன்மூலம் இப்போது வழங்குவதுபோல
சென்னை நகருக்கு 100 நாளுக்குமேல் குடிநீர் வழங்க முடியும். எனவே சென்னைக்கு குடிநீர்
பஞ்சம் வராது. </p><p>
</p><p>
இவ்வாறு அவர் கூறினார். </p>

<p> </p>

<p>வீரப்பன் விடுதலை செய்ய
கோரும், தீவிரவாதி ரேடியோ வெங்கடேசன் கிருஷ்ணகிரி கோர்ட்டில் ஆஜர்</p>

<p> </p>

<p>கிருஷ்ணகிரி, அக் 20- தர்மபுரி மாவட்டம் அதியமான் கோட்டை
காவல் நிலைய எல்லையில் உள்ள பாலகெங்க மன அள்ளி தாரை பள்ளத்தில் 20.9.95-ம் ஆண்டு
மின்சார கோபுரம் வெடி வைத்து தகர்க்கப்பட்டது. அதியமான் கோட்டை போலீசார் வழக்கு
பதிவு செய்து விசாரணை நடத்தினர். </p><p>
</p><p>
இதன் பின்னர் வழக்கை கியூ பிராஞ்ச் போலீசார் விசாரித்து வந்தனர். இந்த வழக்கு
தொடர்பாக தீவிர வாதிகள் அமைப்பை சேர்ந்த ரேடியோ வெங்கடேசன், சேகர்,
ரவிச்சந்திரன், தங்கவேல், மாணிக்கம், மாறன் ஆகியோரை தேடி வந்தார்கள். </p><p>
</p><p>
இவர்களில் ரேடியோ வெங்க டேசன், ரவிச்சந்திரன், சேகர், தங்கவேல் ஆகியோர் கைது
செய்யப்பட்டு திருச்சி மத்திய சிறையில் அடைக்கப்பட்டு உள்ளனர். தங்கவேல் சேலம் மத்திய
சிறையில் உள்ளார். </p><p>
</p><p>
தேசிய பாதுகாப்பு சட்டத்திலும் வழக்கு பதிவு செய்யப்பட்டு உள்ளது. இந்த வழக்கு பூந்த
மல்லியில் உள்ள சிறப்பு நீதி மன்றத்தில் நடந்து வந்தது. </p><p>
</p><p>
கிருஷ்ணகிரிக்கு மாற்றம் </p><p>
</p><p>
இந்த வழக்கு கிருஷ்ணகிரி நீதிமன்றத்திற்கு மாற்றப்பட்டது. இதன் அடிப்படையில் குற்றம்
சாட்டப்பட்ட ரேடியோ வெங்கடேசன், ரவிச்சந்திரன், சேகர் ஆகியோர் கிருஷ்ணகிரி
கோர்ட்டில் நேற்று ஆஜர்படுத்தப்பட்டனர். </p><p>
</p><p>
திருச்சி மத்திய சிறையில் இருந்து டி.எஸ்.பி. ஜெயபாலன் தலைமையில் பலத்த போலீஸ்
பாதுகாப்புடன் கிருஷ்ணகிரி கோர்ட்டுக்கு கொண்டு வரப் பட்டார்கள். </p><p>
</p><p>
கிருஷ்ணகிரி இரண்டாவது அமர்வு நீதிபதி ராமசுப்பிர மணியம் முன்னிலையில் அவர்கள் ஆஜர்
படுத்தப் பட்டார்கள். ரேடியோ வெங்கடேசன், ரவிச்சந்திரன், சேகர், தங்கவேல்
ஆகியோருக்கு 1-ந்தேதி வரை காவல் நீட்டித்து நீதிபதி உத்தரவிட்டார். </p><p>
</p><p>
ரேடியோ வெங்கடேசன் மாறனின் நெருங்கிய கூட்டாளி ஆவார். </p><p>
</p><p>
நடிகர் ராஜ்குமாரை கடத்தி காட்டில் சிறை வைத்து உள்ள வீரப்பன், ரேடியோ வெங்கடடேசன்
உள்ளிட்ட 5 தமிழ் தீவிரவாதிகளை விடுதலை செய்ய வேண்டும் என்று கோரிக்கை வைத்து உள்ளான்
என்பது குறிப்பிடதக்கது. </p>

<p> </p>

<p>வீரப்பன் இடத்தை அடையாளம்
காட்ட முடியுமா? விடுதலையான கோவிந்தராஜு பேட்டி</p>

<p> </p>

<p>பெங்களூர், அக். 20- கோவிந்து என்ற கோவிந்தராஜு பெங்களூரில்
நிருபர்களுக்கு பேட்டி அளித்தார். அவரிடம் கேட்கப்பட்ட கேள்விகளும் அவற்றுக்கு அவர்
அளித்த பதில்களும் வருமாறு:- </p><p>
</p><p>
கேள்வி:- நாகப்பா தப்பி வந்து முன்னுக்குப்பின் முரணாக பேசினார். அவர் தப்பி
வந்தாரா? அல்லது விடுவிக்கப்பட்டாரா? </p><p>
</p><p>
பதில்:- நாகப்பா சொல்வ தெல்லாம் பொய். அவர் காட்டை விட்டு வௌியே வந்த தனால்
எங்களுக்கு நெருக்கடி ஏற்பட்டது என்பது உண்மை. அவரால் நாங்கள் கொஞ்சம்
கஷ்டப்பட்டோம். மற்றபடி நாகப்பா தப்பினாரா, தப்பிக்க விடப்பட்டாரா என்பதெல்லாம்
எனக்கு தெரியாது. </p><p>
</p><p>
கேள்வி:- மாறனை சந்தித்தீர்களா? அவன் எப்படி உள்ளான்? </p><p>
</p><p>
பதில்:- மாறன் மிகவும் டீசண்டாக உள்ளார். மற்றபடி நானோ, எனது மாமாவோ அவரிடம் அதிகம்
பேசியது இல்லை. </p><p>
</p><p>
கேள்வி:- ராஜ்குமார் எப்படி உள்ளார்? </p><p>
</p><p>
பதில்:- நலமாக உள்ளார். என்னை வற்புறுத்தி வௌியே போகச்சொன்னார். அவரை வீரப்பன்
துன்புறுத்தவில்லை. </p><p>
</p><p>
புதிய கோரிக்கை? </p><p>
</p><p>
கேள்வி:- புதிதாக ஏதேனும் கோரிக்கைகள் உள்ளனவா? </p><p>
</p><p>
பதில்:- வீரப்பன் பழைய கோரிக்கைகளைத்தான் வற்புறுத்துகிறான். </p><p>
</p><p>
கேள்வி:- நீங்கள் தங்கி வைக்கப்பட்ட இடத்தை உங்களால் அடையாளம் காட்ட முடி யுமா? </p><p>
</p><p>
பதில்:- நிச்சயமாக முடியாது. காரணம் அது ஒரு மிக அடர்ந்த வனம். பச்சை மட்டுமே
ஞாபகம் இருக்கிறது. மற்றபடி என்னால் எதையும் அடையாளம் காட்ட முடியாது. </p><p>
</p><p>
இவ்வாறு கூறினார். </p>

<p> </p>

<p>சிறு கிராமம் முதல்
மாநகராட்சி வரை, தெருவிளக்கு-குடிநீர் வசதி அரசு தீவிர நடவடிக்கை, தமிழ்நாடு முழுவதும் 100
சதவீதம் வெற்றி</p>

<p> </p>

<p>சென்னை, அக். 20- இது தொடர்பாக அரசு வௌியிட்டுள்ள பத்திரிகை
குறிப்பில் கூறி இருப்பதாவது:- </p><p>
</p><p>
சிறு கிராமம் முதல் மாநக ராட்சி வரையுள்ள அனைத்து இடங்களிலும் தெருவிளக்கு மற்றும் குடிநீர்
வசதி செய்து தந்து, அவற்றை நன்முறையில் பராமரிக்க தமிழக அரசு பல்வேறு தீவிர நடவடிக்கைகளை
தொடர்ந்து மேற்கொண்டு வரு கிறது. </p><p>
</p><p>
முதல்வர் கலைஞர், ஊரக வளர்ச்சி மற்றும் உள்ளாட்சித் துறைகளின் பல்வேறு பணி களின்
முன்னேற்றம் குறித்து ஆய்வு மேற்கொண்டபோது உள்ளாட்சி அமைப்புகளில் உள்ள தெரு
விளக்குகள் அனைத்தும், அதாவது நூறு சதவீதம் விளக்குகளும் தொடர்ந்து எரிவதை உறுதி செய்யும்
பொருட்டு ஒவ்வொரு காலாண்டிலும் இப்பணி யினை மேற்கொள்ளும் துறைகளின் பிரதிநிதிகள்,
எல்லா தெரு விளக்குகளையும் பார்வையிட்டு அவை அனைத்தும் நன்முறையில் எரிவதற்கான ஏற்பாடுகளை
செய்ய வேண்டும் என அறிவுறுத்தியிருந்தார். இதே முறையில் குடிநீர் வழங்கும் ஆழ்துளை
கிணறுகள், விசைப் பம்புகள் மற்றும் கைப்பம்புகள் பழுதின்றி தொடர்ந்து நன்முறையில்
இயங்குவதற்கான எற்பாடுகளையும் செய்திட வேண்டும் என்றும் வலியுறுத்தியிருந்தார். </p><p>
</p><p>
கண்காணிப்பு அதிகாரி </p><p>
</p><p>
மேலும் இதனை கண்காணிப்பதற்கு ஏதுவாக மூத்த அரசு அலுவலர்களை ஒவ்வொரு மாவட்டத்திற்கும்
அனுப்ப வேண்டும் என முதல்வர் கலைஞர் தெரிவித்தி ருந்தார். அதனடிப்படையில்
தமிழ்நாட்டில் உள்ள மாவட்டங்களுக்கும், ஒரு மாவட்டத் திற்கு ஒரு அதிகாரி என்ற முறை யில்
மூத்த ஐ.ஏ.எஸ். அதிகாரிகள் பற்றாளர்களாக நியமிக்கப் பட்டனர். இந்த பற்றாளர்கள்
ஜனவரி, ஏப்ரல் மற்றும் ஜூலை காலாண்டுகளுக்கான சிறப்பாய்வினை ஊராட்சிகள்,
பேரூராட்சிகள், நகராட்சிகள், மாநகராட்சிகள், தமிழ்நாடு குடிநீர் வடிகால் வாரியம் மற்றும்
தமிழ்நாடு மின்வாரியம் ஆகிய துறை அலுவலர்களுடன் மேற்கொண்டு அரசுக்கு அறிக் கைகளை
அனுப்பியுள்ளனர். </p><p>
</p><p>
முதல்வர் கலைஞரின் அறி வுரைகளின்படி ஜூலை திங்கள் வரையில் அரசு மேற்கொண்டுள்ள
இந்த சிறப்பு நடவடிக்கையின் காரணமாக 98.4 சதவீத தெருவிளக்குகளும், 98.5 சதவீத
கைப்பம்புகளும் 98.4 சதவீத விசைப்பம்புகளும் நல்ல முறையில் இயங்கி வருகின்றன. </p><p>
</p><p>
தெருவிளக்குகள் </p><p>
</p><p>
ஊராட்சிகளில் 10,64,280 தெருவிளக்குகள், பேரூராட்சிகளில் 2,94,769 தெரு விளக்கு கள்,
நகராட்சிகளில் 2,55,999 தெருவிளக்குகள், மாநகராட்சிகளில் 2,11,330 தெரு விளக்குகள்
பொருத்தப்பட்டுள்ளன. இதில் ஊராட்சிகளில் 10,46,359 தெரு விளக்குகள், பேரூராட்சிகளில்
2,92,614 தெரு விளக்குகள், நகராட்சிகளில் 2,51,554 தெரு விளக்குகள், மாநகராட்சிகளில்
2,06,720 தெருவிளக்குகள் நல்ல நிலையில் இயங்குகின்றன. ஆகவே, மொத்தம் அமைக்கப்
பட்டுள்ள 18,26,378 தெரு விளக்குகளில் 98.4 சதவீத தெரு விளக்குகள் சரியாக எரிகின்றன.
எரியாமல் உள்ள 29,131 தெரு விளக்குகளையும் எரியச் செய்திட நடவடிக்கைகள் மேற்
கொள்ளபட்டுள்ளன. </p><p>
</p><p>
குடிநீர் வழங்கல் </p><p>
</p><p>
குடிநீர் வழங்கும் சாதனங்களை பொறுத்தவரை ஊராட்சிகளில் 1,75,246 கைப்பம்புகள்,
பேரூராட்சிகளில் 24,118 கைப்பம்புகள், நகராட்சிகளில் 14,875 கைப்பம்புகள்,
மாநகராட்சிகளில் (சென்னை நீங்கலாக) 5,514 கைப்பம்புகள் உள்ளன. இதில் ஊராட்சிகளில்
1,72,422 கைப்பம்புகள், பேரூ ராட்சிகளில் 23,936 கைப்பம்புகள், நகராட்சிகளில்
14,543 கைப்பம்புகள், சென்னை நீங்க லாக உள்ள மற்றைய மாநக ராட்சிகளில் 5,338
கைப்பம்புகள் நன்முறையில் இயங்குகின்றன. ஆகவே மொத்தம் அமைக்கப் பட்டுள்ள 2,19,753
கைப்பம்பு களில் 2,16,239 கைப்பம்புகள், அதாவது 98.4 சதவீத கைப்பம்புகள் சரியாக
இயங்குகின்றன. மொத்தத்தில் இயங்காமல் உள்ள 3,514 கைப்பம்புகளையும் சரி செய்ய
நடவடிக்கை மேற் கொள்ளப்பட்டுள்ளது. </p><p>
</p><p>
விசைப்பம்புகள் </p><p>
</p><p>
விசைப்பம்புகளை பொறுத்த வரை, ஊராட்சிகளில் 40,583 விசைப் பம்புகள், பேரூராட்சி
களில் 4,989 விசைப்பம்புகள், நகராட்சிகளில் 1,476 விசைப் பம்புகள், சென்னை
நீங்கலாக உள்ள மற்றைய நகராட்சிகளில் 1,042 விசைப் பம்புகள் உள்ளன. ஊராட்சிகளில்
38,944 விசைப் பம்புகள், பேரூராட்சிகளில் 4,963 விசைப்பம்புகள், நகராட்சிகளில்
1,445 விசைப் பம்புகள், சென்னை நீங்கலாக உள்ள மாநகராட்சிகளில் 1,029 விசை பம்புகள்
நன்கு இயங்குகின்றன. ஆகவே மொத்தம் அமைக்கப்பட்டுள்ள 48,090 விசைப்பம்புகளில், 47,381
விசைப்பம்புகள், அதாவது 98.5 சதவீத விசைப்பம்புகள் சரியாக இயங்குகின்றன.
மொத்தத்தில், இயங்காமல் உள்ள 709 விசைப் பம்புகளையும் சரி செய்ய நடவடிக்கைகள்
எடுக்கப்பட்டுள்ளன. </p><p>
</p><p>
குடிநீர் இணைப்புகள் </p><p>
</p><p>
ஊரக குடிநீர் திட்டத்தை பொறுத்தவரையில் சென்னை மாவட்டம் நீங்கலாக ஏனைய 28
மாவட்டங்களிலும் சட்டத்திற்கு புறம்பாக 3,24,443 குடிநீர் குழாய் இணைப்புகள் உள்ளதாக
ஆய்வில் கண்டறியப்பட்டது. இதில் தொழில்நுட்ப ரீதியாக 2,19,639 இணைப்புகள் வரன்முறை
செய்யப்பட வேண்டும். சட்டத்திற்கு புறம்பாக உள்ள 1,04,804 இணைப்புகள் துண்டிக்கப்பட
வேண்டும். இதில் இதுவரை 4,618 இணைப்புகள் துண்டிக்கப்பட்டுவிட்டன. மேலும், 41,729
இணைப்புகள் வரன்முறை செய்யப்பட்டுவிட்டன. புதிதாக 1,28,519 குடிநீர் இணைப்புகள்
அனுமதிக்கப் பட்டுள்ளன. </p><p>
</p><p>
அரசு தொடர்ந்து எடுத்து வரும் இத்தகைய சிறப்பு நடவடிக்கைகளினால், உள்ளாட்சி
அமைப்புகளில் உள்ள தெரு விளக்குகள் நூறு சதவீதம் எரிவதற்கும், கைப்பம்புகள் மற்றும்
விசைப்பம்புகள் அனைத்தையும் செம்மையாக இயங்கிடச் செய்யவும் வகை செய்யப்பட்டுள்ளன. </p><p>
</p><p>
இவ்வாறு அதில் கூறப்பட்டு உள்ளது. </p>

<p> </p>

<p>அமைச்சர் தமிழ்க்குடிமகன்
அறிவிப்பு: தமிழகம் முழுவதும் கோவில் நிலத்்தில் இருக்கும் ஆக்கிரமிப்பு அகற்றப்படும்</p>

<p> </p>

<p>திருச்சி, அக்.20- திருச்சி மாவட்டம் மணப்பாறையில் உள்ள
மாரியம்மன் கோவிலுக்கு சொந்தமாக ரூ.24 லட்சத்தில் கட்டப்பட்ட புதிய திருமண மண்டபம்
திறப்பு விழா நடந்தது. விழாவுக்கு கால்நடை பராமரிப்புத்துறை அமைச்சர் புலவர்
செங்குட்டுவன், இந்து அறநிலையத் துறை ஆணையர் ச.சாவர்க்கர் ஆகியோர் முன்னிலை வகித்தனர்.
இந்து அறநிலையத்துறைமற்றும் தமிழ்ப்பண்பாட்டுத்துறை அமைச்சர் தமிழ்க்குடிமகன்
திருமணமண்டபத்தை திறந்து வைத்தார். விழாவில்அமைச்சர் தமிழ்க்குடிமகன் பேசியதாவது:- </p><p>
</p><p>
அமைச்சர் புலவர் செங்குட்டுவன் இந்து அற நிலையத்துறை அமைச்சராக இருந்துபோது அவரால்
ஆரம்பித்து வைக்கப்பட்ட இந்த திருமண மண்டபத்தை கட்டி நிறைவு செய்து அதை இன்று நான்
திறந்து வைத்துள்ளேன். தமிழ்நாட்டில் உள்ள திருமண மண்டபங்கள், அறக்கட்டளை கள்,
அறநிலையத்துறை ஆகிய வற்றில் உள்ள மொத்தம் 36,324 எண்ணிக்கையிலான கோவில்கள் உள்ளன.
இக் கோவில்களுக்கு சொந்த மான நிலங்களுக்கான குத்தகை தொகையினை ஒழுங் காகச்
செலுத்தினால் அனைத்துக் துறைகளுக்கும் கடன் வழங்க முடியும் இங்கு கட்டப்பட்ட திருமண மண்டபத்
துக்கு ரூ.15.73 லட்சம் கடன் வழங்கப்பட்டு மக்கள் நன் கொடைகள் மற்றும் இந்த கோவிலின்
நிதி மூலமும் சேர்ந்து ரூ 24 லட்சம் மதிப்பில் கட்டி முடிக்கப்பட்டது திருச்சி மலைக்கோட்டை
தாயுமானவர் சுவாமி கோவிலுக்கு சொந்தமான 13.250 சதுர அடியில் ரூ.1 கோடி மதிப்பிலான
இடமும், சென்னை மாமல்லபுரச் சாலையில் ஆக்கிரமிப்பு செய்யப்பட்ட ரூ.300 கோடி
மதிப்புள்ள 285 ஏக்கர்நிலம், திருவான்மியூர் பாலவாக்கம் பகுதியில் ரூ.1 கோடி
மதிப்புள்ள 6.79 ஏக்கர் நிலம், சட்டமன்ற உறுப்பினராகவும், நகராட்சி தலைவராகவும்
உள்ள ஒருவர் ஆக்கிரமிப்பு செய்துள்ள ரூ.15 கோடி மதிப்பிலான நிலம் உள்பட தமிழ்நாடு
முழுவதும் உள்ள கோவில்களுக்குச் சொந்தமான ஆக்கிரமிப்பு நிலங்களை மீட்டு அதன்
ஆக்கிரமிப்பாளர்கள் மீது நடவடிக்கையும் எடுத்து வருகிறோம். அத்துமீறி ஆக்கிர மிப்பு
செய்பவர்களை தடுத்து நிறுத்தி தகர்த்தெறிவோம். மேலும் தமிழ்நாடு முழுவதும் உள்ள பத்திரப்
பதிவுத்துறை அலுவலகத்திற்கு சமய சார்புள்ள சொத்துக்களை இந்து சமய அறநிலையத் துறையின்
நடையின்னை சான்று (என்.ஓ.சி.) பெற்ற பின்னர் தான் பதிவு செய்ய வேண்டும் என ஒரு அரசாணை
பிறப்பிக்கப் பட்டுள்ளது. தமிழகத்தில் உள்ள சிறிய கோவில்கள் ரூ.2500 மட்டும்
செலுத்தினால் இந்து சமய அறநிலையத்துறை ரூ.25 ஆயிரம் வழங்கும். அதனை வங்கியில் வைப்பு
நிதியில் வைத்து அதில் வரும் வட்டியினை கொண்டு ஒரு கால பூஜை செய்வதற்கு
உத்தரவிடப்பட்டுள்ளது. அந்த அடிப்படை யில் திருச்சி மாவட்டத்தில் உள்ள 600 கோவில்கள்
உள்பட தமிழ்நாட்டில் 8278 கோவில் களில் ஒரு கால பூஜை நடை பெற்று வருகிறது. கலைஞர்
ஆட்சியில் இதுவரை 2580 கோவில்களில் குட முழுக்கு விழா நடந்துள்ளது. கோவில் நிர்வாக
மேம்பாட்டிற்கான இணைஆணையர்கள், துணை ஆணையர்கள் உதவி ஆணையர்கள், செயல் அலுவலர்கள்
கூடுதலாக நியமிக்கப்பட்டு இந்து அற நிலையத்துறை தனது பவள விழா ஆண்டில் தமிழக முதல்வர்
கலைஞர் அவர் களின் பொற்காலம் ஆட்சியில் பல்வேறு பணிகளை சிறப்பாக செய்து வருகிறது.
</p><p>
</p><p>
இவ்வாறு அமைச்சர் தமிழ்க்குடிமகன் பேசினார். </p><p>
</p><p>
புலவர் செங்குட்டுவன் </p><p>
</p><p>
விழாவில்அமைச்சர் புலவர் செங்குட்டுவன் பேசிய தாவது:- </p><p>
</p><p>
தலைவர் கலைஞர் 4-வது முறையாக முதல்வர் பதவி ஏற்ற பின்னர் அனைத்துத் துறைகளும்
சிறப்பாக செயல் பட்டு பல்வேறு பணிகளையும் மக்களுக்காக செய்து வருகிறது. அந்த வகையில்
இந்து அற நிலையத்துறை இது போன்ற திருமண மண்டபங்கள் திறப்பு, கோவில் பராமரிப்பு
பணிகள், கோவில் குடமுழுக்கு விழாக்கள், ஆக்கிரமிப்பு அகற்றுதல் என சிறப்பாக
செயல்படுகிறது. கோவில் பூசாரி மற்றும் அவர்களது குடும்பத்தார்களுக்கு பல திட்டங்கள் செயல
்படுத்தப்பட்டு வருகிறது. </p><p>
</p><p>
இவ்வாறு அவர் பேசினார். </p><p>
</p><p>
நிகழ்ச்சியில் குளித்தலை செல்வம் எம்.எல்.ஏ., இந்து சமய அறநிலையத்துறை இணை ஆணையர்கள்
சிவக் குமார், ராஜநாயகம், கோவில் நிர்வாக அதிகாரி நாகையன், மணப்பாறை நகர் மன்ற
தலைவர் ம.கோபால கிருஷ்ணன், ஊராட்சி ஒன்றியக்குழு தலைவர் ராமசாமி, மணப்பாறை நகர சபை
கூட்டுறவு வங்கி தலைவர் கே.எம்.பிச்சை, நகராட்சி கவுன்சிலர்கள் நாகராசன், திருச்சி
அனுசுயா, சோமசுந்தரம், தமிழ்நாடு சுந்தரம், மணப்பாறை தாசில் தார்கள் ராஜு, சீனிவாசன்,
ஆகியோர் கலந்துகொண்டனர். </p><p>
</p><p>
முன்னதாக இந்து சமய அறநிலையத்துறை உதவி ஆணையர் பெருமாள்சாமி வரவேற்றார். முடிவில் மணப் பாறை
மாரியம்மன் கோவில் அறங்காவலர் ரா. வீராசாமி நன்றி கூறினார். </p>

<p> </p>

<p>பெரியாறு அணையில் 152 அடி
தேக்கினால் வனவிலங்கு அழியுமாம், கேரள மணி (காங்.) திடீர் மிரட்டல்</p>

<p> </p>

<p>கூடலூர், அக்.20- முல்லைப் பெரியாறு பிரச்சினையில் அணையின் நீர்
மட்டம் 152 அடியாக உயர்த்து வது சம்பந்தமாக தமிழக - கேரள அரசுகள் இடையே பிரச்சினை
இருந்து வருகிறது. பெரியாறு அணை பல கோடி ரூபாய் செலவில் பலப்படுத்தும் பணி செய்யப்பட்டதால்
உச்ச நீதிமன்றத்தின் உத்தரவின்படி பெரியாறு அணையை மத்திய நீர் வளக் கமிஷன்
உறுப்பினர்கள் கொண்ட நிபுணர் குழுவினர் கடந்த 10, 11 ஆகிய தேதிகளில் அணையை பார்வை
யிட்டனர். </p><p>
</p><p>
அறிக்கை </p><p>
</p><p>
தமிழக- கேரள உயர் அதிகாரிகளின் கருத்துக்களையும் கேட்டு தங்கள் அறிக்கை களை நவம்பர்
3-ந் தேதி உச்ச நீதிமன்றத்தில் அளிப்பதாக தெரிவித்து உள்ளனர். இதனிடையே நிபுணர்குழு
அறிக்கையில் தமிழகத்திற்கு சாதகமான சூழ்நிலை ஏற்படும் என தெரிகிறது. </p><p>
</p><p>
இது குறித்து கேரள இளைஞர் காங்கிரஸ் (மணி பிரிவு) தலைவர்களான சந்தோஸ் டி உமன்,
பிஜூ, பிஜூ தானியல், பிலுப் போஸ் ஆகியோர் விடுத்துள்ள அறிக்கையில் கூறி உள்ளதாவது:- </p><p>
</p><p>
உச்ச நீதிமன்ற உத்தரவின் படி கேரள அரசு அணையின் நீர் மட்டத்தை 152 அடியாக
உயர்த்தினால் நூற்றுக்கணக்கான வனப்பகுதிகள் தண்ணீரால் சூழப்பட்டு அதில் வாழும் வன
விலங்குகள் அழியக் கூடிய அபாயம் ஏற்படும். </p><p>
</p><p>
அணையின் நீர் மட்டம் 152 அடி ஆகும் தருணத்தில் கோட்டயம், இடுக்கி, எர்ணா குளம்
மாவட்டங்கள் கடுமையாக பாதிக்கப்படும். 114 ஆண்டுகளுக்கு முன்பு கட்டப் பட்ட பெரியாறு
அணையின் நீர்மட்டத்தை 152 அடியாக உயர்த்தும் போது ஏற்படும் நீரின் அழுத்தம் காரணமாக
அணை தாங்காது. </p><p>
</p><p>
கோட்டயம், எர்ணாகுளம், இடுக்கி மாவட்டங்கள் பாதிக்கப்படுவதால் அப்பகுதியில் வாழும்
மக்களுக்கு கேரள அரசு உத்தரவாதம் தர வேண்டும். </p><p>
</p><p>
இவ்வாறு கூறி உள்ளனர். </p>

<p> </p>

<p>கடந்த ஏப்ரல் 1-ந்தேதி
முதல் அமுல்: ரேசன் கடை ஊழியர்களுக்கு ரூ.800 ஊதிய உயர்வு, அமைச்சர் நேரு அறிவிப்பு</p>

<p> </p>

<p>சென்னை, அக். 20- தமிழக உணவு துறை அமைச்சர் கே.என்.நேரு நேற்று
சென்னை கோட்டையில் அளித்த பேட்டி வருமாறு:- </p><p>
</p><p>
நியாயவிலை கடைகளில் பணிபுரியும் பணியாளர் சங்கங்கள் ஊதியம் உயர்த்தி வழங்குமாறு
கோரிக்கை விடுத் துள்ளன. அதை அரசு பரிசீலித்து சம்பள உயர்வு வழங்கப் படுகிறது. இது
1-4-2000-ல் இருந்து அமுலுக்கு வரும். </p><p>
</p><p>
5 ஆண்டுகள் பணி முடித்த விற்பனையாளர்களுக்கு தற்போது பெற்றுவரும் ரூ.430-10-450-15-525
என்ற ஊதிய விகிதத்தில் இருந்து 1250-25-1375-45-1640 என்று உயர்த்தப்படும். 5 ஆண்டு பணி
முடிக்காத விற்பனையாளர் களுக்கு தற்போது மாதம் பெற்றுவரும் தொகுப்பு ஊதியம் ரூ.900-ல்
இருந்து ரூ.1300 ஆக உயர்த்தப்படும். </p><p>
</p><p>
கட்டுனர் </p><p>
</p><p>
கட்டுனர் (பேக்கர்) தற்போது மாதம் ஒன்றுக்கு பெறும் தொகுப்பு ஊதியம் ரூ.800-ல் இருந்து
ரூ.1150 ஆக உயர்த்தப்படும். இந்த ஊதிய உயர்வால் 19846 விற்பனையாளர்களும், 3590
கட்டுனர்களும் பயனடைவார்கள். இதன்மூலம் அரசுக்கு ஆண்டுக்கு கூடுதலாக ரூ.15.24 கோடி செலவாகும்.
</p><p>
</p><p>
இந்த ஊதிய உயர்வு தீபாவளிக்கு முன் வழங்கப்படும். </p><p>
</p><p>
வேலைக்கு திரும்புக </p><p>
</p><p>
ரேசன் கடைகளில் ஒரு பிரிவினர் வேலை நிறுத்தத்தில் ஈடுபட்டுள்ளனர். அவர்கள் இந்த
ஊதிய உயர்வை ஏற்று வேலைக்கு திரும்பி பொதுமக் களுக்கு இடையூறு இன்றி பணியாற்ற வேண்டும்
என்று கேட்டுக்கொள்கிறேன். </p><p>
</p><p>
கோதுமை விலையை மத்திய அரசு உயர்த்தியதால் கடந்த 3 மாதமாக ரேசனில் கோதுமை
வழங்கப்படவில்லை. தற்போது கோதுமை விலையை மத்திய அரசு குறைத்துள்ளதால் இந்த மாதம் முதல்
ரேசனில் கோதுமை வழங்கப்படும். </p><p>
</p><p>
அரிசி கடத்தல் </p><p>
</p><p>
ரேசன் அரிசி கடத்தியதற்காக 18 பேர் தடுப்பு காவல் சட்டத்தின்கீழ் கைது செய்யப்
பட்டுள்ளனர். </p><p>
</p><p>
கேள்வி:- பாமாயில் கடத்தப்பட்டுள்ளதாக செய்தி வந்துள்ளதே? </p><p>
</p><p>
பதில்:- அந்த பாமாயில் நமது துறைக்கு வரவேண்டிய பாமாயில் அல்ல. எனவே அதுபற்றி எனக்கு
தெரியாது. </p><p>
</p><p>
இவ்வாறு கூறினார். </p>

<p> </p>

<p>வீடு கட்ட, புதுப்பிக்க,
பழுதுபார்க்க, இந்தியன் வங்கி சிறப்பு கடன் திட்டம் அறிமுகம்</p>

<p> </p>

<p>சென்னை, அக். 20- இந்தியன் வங்கி தனி நபர்களுக்கான கடன்
திட்டங்களின் வரிசையில் மேலும் ஒரு சிறப்புக் கடன் திட்டத்தை கடந்த 18-ந்தேதி முதல்
தொடங்கியுள்ளது. இது மாத ஊதியம் பெறுவோர், சுயதொழில் புரிவோர், டாக்டர்,
வழக்கறிஞர் மற்றும் வர்த்தகர் களுக்கான வீட்டு வசதி கடன் திட்டமாகும். </p><p>
</p><p>
வீடு கட்டுதல், அடுக்கு மனை வீடு, தனி வீடு வாங்குதல் போன்றவற்றுக்கு மட்டுமன்றி வீடு
புதுப்பித்தல் அல்லது பழுது பார்த்தல் ஆகிய நோக்கங்களுக்காகவும் இந்த கடன் உதவியை பெற
முடியும். </p><p>
</p><p>
ரிசர்வ் வங்கி விதிமுறை </p><p>
</p><p>
வீட்டுமனை விலைகளில் ஏற்பட்டுள்ள ஸ்திரத்தன்மை, செலவிடும் தன்மை அதிகரிப்பு, கடனுக்கான
வட்டி விகிதத்தில் வீழ்ச்சி, எல்லாவற்றுக்கும் மேலாக வரிச்சலுகைகள் போன்றவற்றின்
காரணமாக வீட்டு வசதி பிரிவு புத்துயிர் பெற்று வருகிறது. மேலும் வங்கி கள் தமது
அதிகரிக்கும் வைப்புத் தொகையில் 3 சதவீதத்தை நேர் முக அல்லது மறைமுக கடன்கள் மூலம்
வீட்டு வசதி பிரிவிற்காக வழங்க வேண்டும் என்பது ரிசர்வ் வங்கி விதித்துள்ள விதி
முறையாகும். </p><p>
</p><p>
இந்த திட்டத்தின் சிறப்பம்சங் களாக வீடு கட்டுதல், அடுக்கு மனை வீடு, தனி வீடு வாங்குதல்
ஆகியவற்றுக்கு அதிகபட்சமாக ரூ. 25 லட்சம் வழங்கப்படும். பழுதுபார்த்தல் மற்றும் புதுப்
பித்தலுக்கு ரூ. 5 லட்சம் வரை கடன் வழங்கப்படும். (விண்ணப்பதாரரின் மொத்த மாத
வருமானத்தின் 30 மடங்கு தான் உச்ச வரம்பாக அனுமதிக்கப்படும்) </p><p>
</p><p>
தவணை முறையில்.... </p><p>
</p><p>
அதிகபட்ச கடன் அளவை தீர்மானிக்க கணவன், மனைவி யின் வருமானம், வாடகை வருவாய்
முதலீடுகளின் மீது ஈட்டும் வட்டி ஆகியவையும் தக்க ஆதா ரங்களுடன் கருத்தில்
கொள்ளப்படும். </p><p>
</p><p>
கடன்தாரர்களுக்கு வட்டியில் மிக கணிசமான தொகை மிச்சப்படும் வண்ணம் சமமாக
கணக்கிடப்பட்ட மாத தவணை முறையில் கடனை திரும்ப செலுத்தலாம். நிறுவனங்கள் வருடாந்திர
அடிப்படையில் கடன் வசூல் கணக்கீடு என்று செய்வதில் 0.37 சதவீதம் வரை வட்டி விகிதம்
அதிகரிக்கிறது. மற்ற வீட்டு வசதி நிதி நிறுவனங்கள் வாங்குவதைக்காட்டிலும் குறைவான அளவில்
விண்ணப்ப செயல்முறைக்காகவும் அலுவலக செலவிற்காகவும் தலா 0.50 சதவீத தொகையே
வசூலிக்கப்படும். </p><p>
</p><p>
இதுதவிர மேலும் சில அம்சங்கள் உள்ளன. </p><p>
</p><p>
இதை இந்தியன் வங்கி செய்திக்குறிப்பு தெரிவித்துள்ளது. </p>

<p> </p>

<p>அமைச்சர் துரைமுருகன்
அறிவிப்பு: வன தோட்ட கழக தொழிலாளர்களுக்கு 20 சதவீத போனஸ்</p>

<p> </p>

<p>சென்னை, அக். 20- தமிழக பொதுப்பணித் துறை, வனத்துறை அமைச்சர் துரைமுருகன்
நேற்று சென்னை கோட்டையில் அளித்த பேட்டி வருமாறு:- </p><p>
</p><p>
தமிழ்நாட்டில் உள்ள டேன்டி நிறுவனத்தில் மொத்தம் 13241 தொழிலாளர்கள் பணிபுரி
கின்றனர். இவர்களுக்கு 8.33 சதவீத போனசும், 11.67 சதவீத கருணைத்தொகையும் தீபாவளி
போனசாக வழங்கப்படும். மொத்தம் ரூ.4 கோடியே 11 லட்சம் அரசுக்கு கூடுதல் செலவு ஆகும்.
கடந்த ஆண்டு தேயிலை விலை குறைந்ததால் இந்த நிறுவனத்துக்கு ரூ.17 லட்சம் நஷ்டம் ஏற்பட்டது.
</p><p>
</p><p>
அரசு ரப்பர் கழகத்தில் கடந்த ஆண்டு ரூ.5 கோடியே 80 லட்சம் நஷ்டம் ஏற்பட்டது. ஆனாலும்
இங்கு பணிபுரியும் 2448 தொழிலாளர்களுக்கு 20 சதவீத போனசாக ரூ.90 லட்சம் வழங்கப்படும்.
தமிழ்நாடு வன தோட்ட கழகத்தில் கடந்த ஆண்டு ரூ.9 கோடி லாபம் கிடைத்தது. இங்குள்ள தொழில
ாளர்கள் 16206 பேருக்கு 20 சதவீத போனசாக ரூ.5 கோடியே 29 லட்சம் வழங்கப்படும். </p><p>
</p><p>
இவ்வாறு அவர் கூறினார். </p>

<p> </p>

<p>சபரிமலையில் தமிழக
பக்தர்கள் கூட்டம் அலை மோதியது</p>

<p> </p>

<p>பழநி, அக்.20- சபரிமலை அய்யப்பன் கோவிலில் ஐப்பசி மாத நடை
திறப்பு 17-ந் தேதி நடந்தது. நடை திறப்பின் போது பல்லாயிரக்கணக்கான பக்தர்கள் கலந்து
கொண்டு சாமி கும்பிட்டனர். தொடர்ந்து சபரிமலையில் பக்தர்கள் கூட்டம் அலை மோதுகிறது. </p><p>
</p><p>
லட்சார்ச்சனை </p><p>
</p><p>
இன்றும் (வௌ்ளிக்கிழமை) நாளையும் அய்யப்பன் கோவிலில் லட்சார்ச்சனை நடக்கிறது.
21-ந் தேதி மாலை நடை சாத்தப்படும். </p><p>
</p><p>
எந்த ஆண்டும் ஐப்பசி மாத நடை திறப்புக்கு இவ்வளவு பக்தர்கள் கூட்டம் சபரி மலைக்கு
வந்தது கிடையாது. இந்த ஆண்டு தான் இவ்வளவு கூட்டம் வந்து உள்ளது. இவர்களில் 80 சதவீதம்
பக்தர்கள் தமிழ்நாட்டைச் சேர்ந்தவர்கள் என்பது குறிப்பிடத்தக்கது ஆகும். </p>

<p> </p>

<p>ஆவின் ஊழியர்களுக்கு 20
சதவீத போனஸ்</p>

<p> </p>

<p>சென்னை, அக். 20- தமிழக முதல்வர் கருணாநிதியின் ஆணைப்படி
தமிழ்நாட்டில் உள்ள பால் உற்பத்தி யாளர்கள் கூட்டுறவு இணையம் மற்றும் 17 மாவட்ட
ஒன்றியங்களில் பணிபுரியும் போனஸ் பெற தகுதியுடைய அனைத்து பணியாளர்களுக்கும் 1999-2000
ஆண்டுக்கான போனஸ் மற்றும் கருணைத்தொகை 20 சதவீத மாக வழங்கப்பட உள்ளது. இதில் போனஸ்
8.33 சதவீதம், கருணைத்தொகை 11.67 சத வீதம் ஆகும். உயர்ந்தபட்சமாக ரூ. 6 ஆயிரம்
வழங்கப்படும். இந்த அறிவிப்பின்மூலம் சுமார் 8700 ஆவின் தொழி லாளர்கள் பயன்பெறுவர்.
இதனால் இணையம் மற்றும் ஒன்றியங்களுக்கு ஏற்படும் செலவீனம் ரூ. 4.68 கோடி ரூபாயாக
இருக்கும். இது கடந்த ஆண்டை விட 41 லட்சம் ரூபாய் கூடுத லாகும். </p><p>
</p><p>
அமைச்சர் சுந்தரம் </p><p>
</p><p>
போனஸ் வரம்புக்குட்படாத அலுவலர்களுக்கு கருணைத் தொகையாக ரூ. 925 வழங்கப்படும். போனஸ்
மற்றும் கருணைத்தொகை வருகிற 23-ந்தேதிக்குள் வழங்கப்படும். </p><p>
</p><p>
இதை பால்வளத்துறை அமைச்சர் க.சுந்தரம் வௌியிட்டுள்ள அறிக்கையொன்றில் கூறியுள்ளார். </p>

<p> </p>

<p>முதலமைச்சர் நிவாரண
நிதிக்கு ரூ.29 லட்சம்</p>

<p> </p>

<p>சென்னை, அக். 20- தமிழக அரசு வௌியிட்டுள்ள செய்திக் குறிப்பில்
கூறப்பட்டுள்ள தாவது:- </p><p>
</p><p>
முதலமைச்சரின் பொது நிவாரண நிதிக்கு தொழிலதிபர்களும், வணிக பெருமக்களும்,
செல்வந்தர்களும், ஏனைய ஆர்வமுடையோரும் தாராளமாக நிதியினை வாரி வழங்கிட வேண்டுமாய்
அண்மையில் முதல்வர் கலைஞர் வேண்டுகோள் விடுத்ததற்கிணங்க தொழிலதிபர் டாக்டர்
எம்.ஏ.எம்.ராமசாமி புதல்வரும், செட்டிநாடு சிமெண்ட் நிறுவனத்தின் மேலாண்மை இயக் குனருமான
எம்.ஏ.எம்.ஆர். முத்தையா 5 லட்ச ரூபாய்க்கான காசோலையினையும், தொழிலதிபர்
எம்.பி.டிஸ்லரீஸ் நிறுவனத்தின் தலைவர் எம்.பி. புருசோத்தமன் 5 லட்ச ரூபாய்க்கான
காசோலையினையும் முதல்வர் கலைஞரை சந்தித்து முதலமைச்சரின் பொது நிவாரண நிதிக்கு வழங்கினார்கள்.
</p><p>
</p><p>
ரூ.29 லட்சம் </p><p>
</p><p>
முதலமைச்சரின் வேண்டு கோளினை ஏற்று தொழிலதிபர்களால் 16-10-2000 அன்று வழங்கப்பட்ட 19
லட்ச ரூபாயையும் சேர்த்து முதலமைச்சரின் பொது நிவாரண நிதிக்கு இதுவரை 29 லட்சம் ரூபாய்
வழங்கப்பட்டுள்ளது. </p><p>
</p><p>
இவ்வாறு அதில் கூறப்பட்டு உள்ளது. </p>

<p> </p>

<p>திண்டிவனம் அருகே பதட்டம்:
அம்பேத்கர் சிலை உடைப்பு, கண்டித்து விடுதலை சிறுத்தைகள் சாலை மறியல்-போக்குவரத்து
பாதிப்பு</p>

<p> </p>

<p>திண்டிவனம், அக். 20- திண்டிவனம் அருகே உள்ள பெருமுக்கல்
கிராமத்தில் சிமெண்டு மற்றும் மணல் கலவையால் ஆன அம்பேத்கர் சிலை ஒன்று உள்ளது. இந்த
சிலைக்கு மாலை போடுவதற்காக பெருமுக்கல் கிராமத்தை சேர்ந்த ராமு என்பவர் ஏறி உள்ளார்.
அப்போது அவர் குடிபோதையில் இருந்ததாக கூறப்படுகிறது. </p><p>
</p><p>
உடைந்தது </p><p>
</p><p>
இதனால் அவரால் மாலை போடமுடியவில்லை. அப் போது தடுமாறி சிலையில் கைப்பகுதியில் கை
வைத்த போது தவறி விழுந்துவிட்டார். இதில் அம்பேத்கர் சிலையின் கை பகுதியின் நுனி
உடைந்து விட்டது. </p><p>
</p><p>
இதுபற்றி தகவல் அறிந்த தும் பிரம்மதேசம் போலீசார் விரைந்து சென்று விசாரணை
மேற்கொண்டனர். அப்போது குடிபோதையில் அங்கு விழுந்து கிடந்த ராமுவை கைது செய்து விசாரணை
நடத்தி வருகின்றனர். </p><p>
</p><p>
சாலை மறியல் </p><p>
</p><p>
இந்தநிலையில் அம்பேத்கர் சிலை உடைந்த செய்தி காட்டுத்தீ போல் பரவியது.இந்த
சம்பவத்தை கண்டித்து ஓய்வு பெற்ற ஆசிரியர் முருகன் தலைமையில் விடுதலை சிறுத்தைகள் சாலை
மறியலில் ஈடுபட்டனர். புதுவை-மரக் காணம் சாலையில் உள்ள நல்லாளம் என்ற இடத்தில்
நேற்று மாலை 3 மணி முதல் இந்த மறியல் போராட்டம் நடைபெற்றது. பிரம்மதேசம், நல்லாளம்,
பெருமுக்கல் சாலைகளில் பாறைகளை போட்டு தடை ஏற்படுத்தினர். இதனால் போக்கு வரத்து
முற்றிலும் பாதிக்கப்பட்டது. </p><p>
</p><p>
இதுபற்றிய தகவல் அறிந்ததும் திண்டிவனம் கோட்டாட்சியர் மற்றும் உயர் அதிகாரிகள்,
போலீசார் சம்பவ இடத்திற்கு விரைந்து சென்றனர். போராட்டத்தில் ஈடுபட்டவர்களுடன்
பேச்சுவார்த்தை நடத்தினர். </p><p>
</p><p>
இந்த சம்பவம் தொடர்பாக திண்டிவனம் பகுதியில் பதட்டம் நிலவுகிறது. போலீசார்
குவிக்கப்பட்டுள்ளனர். </p>

<p> </p>

<p>7 லட்சம் போலி ரேசன்
கார்டுகள் கண்டுபிடிப்பு</p>

<p> </p>

<p>சென்னை, அக். 20- உணவுப்பொருள் வழங்கல் மற்றும் நுகர்வோர்
பாதுகாப்புத்துறை வௌியிட்டுள்ள அறிக்கையில் கூறியிருப்பதாவது:- </p><p>
</p><p>
தற்போது தமிழ்நாட்டில் நடைமுறையில் உள்ள குடும்ப அட்டைகளின் எண்ணிக்கை ஒரு கோடியே 58
லட்சத்து 17 ஆயிரத்து 621 ஆகும். குடும்ப அட்டை கோரி பெறப்பட்டு தற்போது அனைத்து மாவட்ட
அளவில் நிலுவையிலுள்ள விண்ணப்பங்களின் எண்ணிக்கை ஒரு லட்சத்து 22 ஆயிரத்து 595 ஆகும்.
இதுவரை களையப்பட்ட மொத்த போலி குடும்ப அட்டைகளின் எண்ணிக்கை 7 லட்சத்து 13 ஆயிரத்து
773 ஆகும். இதில் 32 ஆயிரத்து 623 போலி குடும்ப அட்டைகள் செப்டம்பர் மாதத்தில்
கண்டுபிடிக்கப்பட்டன. </p><p>
</p><p>
இவ்வாறு அதில் கூறப்பட்டு உள்ளது. </p>

<p> </p>

<p>மண்டபம் வட்டாரத்தை
சேர்ந்த, 26 விசைபடகுகள்-130 மீனவர்களை தாக்கி 'திடீர்' சிறை பிடிப்பு, ஜெகதாபட்டணம்
மீனவர்கள் ஆத்திரம்</p>

<p> </p>

<p>ராமநாதபுரம், அக். 20- ராமநாதபுரம் மாவட்டம், மண்டபம்,
ராமேசுவரம், ஏர்வாடி, பாம்பன் ஆகிய கடல் பகுதியில் இருந்து சீசன் நேரத்தில்
புதுக்கோட்டை மாவட்டம் ஜெகதாபட்டணம், கோட்டைபட்டணம், தஞ்சாவூர் மாவட்டம்
மல்லிப்பட்டினம் ஆகிய கடல் பகுதியில் மீன் பிடிக்க செல்வது வழக்கம். </p><p>
</p><p>
மத்திய அரசு டீசல் விலையை உயர்த்தியதை தொடர்ந்து மீனவர்கள் மீன் பிடிக்க செல்லாமல்
போராட்டம் நடத்தி வந்தனர். இதற்கிடையே தொழிலாளர்களின் நிலை மற்றும் தீபாவளி
போன்ற பண்டிகை காலத்தில் மீன் பிடிக்காமல் போராட்டம் நடத்துவதால் மீனவ
தொழிலாளர்கள் அல்லல்படும் நிலை யை கருத்தில் கொண்டு மண்டபம் பகுதி மீனவர்கள் தாங்கள்
போராட்டத்தை கை விட்டு நேற்று முன் தினம் முதல் கடலுக்கு மீன் பிடிக்க சென்றனர். </p><p>
</p><p>
சிறைப்பிடிப்பு </p><p>
</p><p>
நேற்று முன் தினம் மண்டப பகுதியை சேர்ந்த 26 விசைப் படகுகள் புதுக்கோட்டை மாவட்டம்
ஜெகதாபட்டணத் தில் மீன் பிடித்துக் கொண்டிருந்தனராம். அப்போது ஜெக தாபட்டணத்தை
சேர்ந்தமீனவர் கள் மண்டபம் பகுதியைச் சேர்ந்த 26 விசைப்படகுகளையும் அதில் இருந்து 130
மீனவர் களையும் சிறை பிடித்து வைத்துக் கொண்டனராம். </p><p>
</p><p>
கடலுக்கு 18-ம் தேதி சென்ற மீனவர்கள் கரை வந்து சேரவில்லை என்று மண்டபம் பகுதியில் உள்ள
மீனவர்கள் சங்கம் விசாரித்த போது ஜெகதாபட்டணத்தில் உள்ள மீனவர்கள் மண்டபம் பகுதி
மீனவர்களை சிறைப் பிடித்து வைத்து இருப்பது தெரிய வந்ததாம். </p><p>
</p><p>
மத்திய அரசை கண்டித்து மீனவர்கள் வேலை நிறுத்தப் போராட்டத்தில் ஈடுபட்டு வரும் போது
மண்டபம் மீனவர்கள் மட்டும் எப்படி இங்கு வந்து மீன் பிடிக்கலாம்? என்று அதனால்
அவர்களை சிறைபிடித்து வைத்து இருப்பதாக தெரிவித்து விட்டனராம். </p><p>
</p><p>
விடுவிப்பு இல்லை </p><p>
</p><p>
இந்த சம்பவம் பற்றி அறிந்த மண்டபம் விசைப்படகு மீனவர் சங்கங்கள் அன்சாரி, உதயன்,
சாகுல்ஹமீது மற்றும் மீன் துறை உதவி இயக்குனர் அலுவலக அதிகாரிகள் பிடிபட் டுள்ள மீனவர்களை
மீட்டு வர ஜெகதாபட்டணம் சென்றனர். பேச்சுவார்த்தை நடந்தும் இது வரை மீனவர்கள்
விடுவிக்கப் படவில்லையாம். மேலும் இதன் தொடர்பாக மீனவர்கள் சங்க பிரதிநிதிகள் பேச்சு
வார்த்தையில் ஈடுபட்டு வருகின்றனர். மீனவர்களும், மீன் பிடிவிசைப் படகும் வந்து
சேராததால் அவர்கள் குடும்பத்தினர் மனம் வருத்தம் அடைந்து பரிதவித்து வருகின்றனர். </p>

<p> </p>

<p>விருத்தாசலம் அருகே,
பதட்டம்-கடைகள் அடைப்பு: ம.தி.மு.க. தேர்தலில் ரகளை: போலீஸ் துப்பாக்கி சூடு</p>

<p> </p>

<p>விருத்தாசலம், அக். 20- ம.தி.மு.க. விருத்தாசலம் ஒன்றிய
நிர்வாகிகள் தேர்தல் மங்கலம்பேட்டையில் நேற்று நடைபெறுவதாக அறிவிக்கப்பட்டு இருந்தது.
தேர்தலையொட்டி பட்டி சு.கருணாநிதி கோஷ்டிக்கும், பாண்டியன் கோஷ்டிக்கும் பலத்த போட்டி
ஏற்பட்டது. இதன் காரணமாக இரு கோஷ்டிகளும் தேர்தலை நடத்தவிடாமல் பயங்கர ரகளையில் ஈடுபட்டனர்.
அந்த பகுதியில் நின்றிருந்த கார்கள் சேதப்படுத்தப்பட்டன. கடைகள் மீது கல்வீசி
தாக்கப்பட்டன. </p><p>
</p><p>
இரு தரப்பினரும் அடிதடியில் இறங்கினர். நேரம் ஆக ஆக அங்கு பெரும் கலவரம் ஏற்படும் நிலை
உருவானது. </p><p>
</p><p>
துப்பாக்கி சூடு </p><p>
</p><p>
இதுபற்றிய தகவல் அறிந்ததும் போலீசார் சம்பவ இடத்திற்கு விரைந்தனர். கூட்டத்தினரை
கலைந்து செல்லும்படி போலீசார் கேட்டுக் கொண்டனர். ஆனாலும் அவர்கள் தொடர்ந்து ரகளையில்
ஈடுபட்டனர். இதையடுத்து கூட்டத்தை கலைக்க போலீசார் வானத்தை நோக்கி 2 ரவுண்டு
துப்பாக்கியால் சுட்டனர். </p><p>
</p><p>
இதனால் கூட்டத்தினர் நாலாபுறமும் சிதறி ஓடினர். இதைதொடர்ந்து அங்கு பெரும் பதட்டம்
நிலவுகிறது. அந்த பகுதியில் கடைகள் அடைக்கப் பட்டன. போலீசார் குவிக்கப்பட்டுள்ளனர். </p><p>
</p><p>
அதிகாரிகள் விரைவு </p><p>
</p><p>
இந்த சம்பவம் பற்றிய செய்தி அறிந்ததும் உயர் போலீஸ் அதிகாரிகளும், வருவாய்த்துறை
அதிகாரிகளும் சம்பவ இடத்திற்கு விரைந்து சென்று விசாரணை மேற்கொண்டு உள்ளனர். </p>

<p> </p>

<p>மும்பை வங்கியில், ரூ.25
கோடி மோசடி செய்த தொழிலதிபர் சென்னையில் கைது, பாங்காக்கில் இருந்து விமானத்தில்
வந்தபோது சி.பி.ஐ. வளைத்தது</p>

<p> </p>

<p>மீனம்பாக்கம், அக். 20- சென்னை விமான நிலையத்திற்கு நேற்று
காலை 9.50 மணிக்கு ஒரு விமானம் வந்து சேர்ந்தது. இந்த விமானம் சென்னை வழியாக மும்பை
செல்லக் கூடியது ஆகும். சென்னை பயணிகள் மட்டும் கீழே இறங்கினர். இந்த சமயத்தில் சென்னை
சி.பி.ஐ. அதிகாரிகள் விமானத்தில் ஏறி திடீர் சோதனை நடத்தினர். அதில் பாங்காக்கில்
இருந்து வந்த ராஜேந்திர முதலியார் என் பவரை வளைத்து பிடித்து கைது செய்தனர். இதனால்
சென்னை விமான நிலையத் தில் பெரும் பரபரப்பு ஏற்பட்டது. </p><p>
</p><p>
துருவித்துருவி... </p><p>
</p><p>
பிறகு சென்னையில் ஒரு ரகசிய இடத்துக்கு அவரை சி.பி.ஐ. அதிகாரிகள் அழைத்து சென்று காலை
முதல் மாலை வரை துருவித்துருவி விசா ரணை நடத்தினர். மும்பை சி.பி.ஐ. அதிகாரிகளுக்கும்
ராஜேந்திர முதலியார் பிடி பட்ட தகவலை உடனடியாக தெரிவித்தனர். </p><p>
</p><p>
தலைமறைவானவர் </p><p>
</p><p>
விசாரணையில் பல திடுக் கிடும் தகவல்கள் வௌியானது. ராஜேந்திர முதலியார் மும்பை யில்
பிரபல தொழிலதிபர். அவர் அங்குள்ள ஒரு வங்கியில் ரூ.25 கோடி அளவுக்கு மோசடி
செய்துவிட்டு, பாங்காக் தப்பி சென்று தலைமறைவாக இருந்தாராம். </p><p>
</p><p>
இந்த மோசடி குறித்து சி.பி.ஐ. அதிகாரிகள் தீவிர விசாரணை நடத்தி வந்தனர். அப்போது
பாங்காக்கில் இருந்து அவர் சென்னை வழியாக மும்பை வரும் விவரம் தெரிய வந்துள்ளது.
இதையடுத்து சென்னை சி.பி.ஐ. அதிகாரிகள் உஷார்படுத்தப்பட்டனர். அவர் களுக்கு ராஜேந்திர
முதலியா ரின் புகைப்படமும் அனுப்பி வைக்கப்பட்டு இருந்தது. </p><p>
</p><p>
விசாரணை </p><p>
</p><p>
அதை வைத்து அவரை சுற்றி வளைத்து பிடித்து விட்டனர். அவரிடம் விசாரணை முடிந்ததும் நேற்று
மாலை 6 மணிக்கு இந்தியன் ஏர்லைன்ஸ் விமானத்தில் ஏற்றி மும்பை அனுப்பி வைத்தனர். அங்கு
மும்பை சி.பி.ஐ. அதிகாரிகள் ராஜேந்திர முதலியாரை கைது செய்து தீவிரமாக விசாரித்து
வருகிறார்கள். </p>

<p> </p>

<p>சந்தன வீரப்பனை சந்திக்க
சென்றவரா? ஆசனூர் காட்டுப் பகுதியில் ஆண் பிணம்</p>

<p> </p>

<p>சத்தி, அக். 20- சத்தியமங்கலம் காட்டு பகுதி ஆசனூர் செல்லும்
வழியில் காரப்பள்ளம் என்ற இடத்தில் சுமார் 35 வயது மதிக்கத்தக்க ஆண் பிணம் நேற்று
(வியாழன்) கிடந்தது கண்டுபிடிக்கப்பட்டது. பிணமாக கிடந்தவர் வௌ்ளை நிற பேண்ட், சட்டை,
அணிந்து பெல்ட் போட்டு இன் செய்துள்ளார். அருகில் கை பை ஒன்றும், ஊசி போடும்
சிரஞ்சி, கண் கண்ணாடி ஒன்றும் உள்ளது. இடது கையில் வௌ்ளி மோதிரமும், வலது கையில்
மண்டை ஓடு அச்சிடப்பட்ட மோதிரமும் போட் டுள்ளார். கன்னட நடிகர் ராஜ்குமார்
கடத்தப்பட்ட இந்நிலையில் காட்டுக்குள் ஆண் பிணம் கிடந்தது பல்வேறு சந்தேகங்களை
எழுப்பியுள்ளது. </p><p>
</p><p>
வக்கீலா? </p><p>
</p><p>
மேலும் அவர் சந்தன வீரப்பனை சந்திக்க சென்ற வக்கீலா? பத்திரிகையாளரா? என
சந்தேகங்களும் எழுந்து உள்ளது. </p><p>
</p><p>
இது குறித்து ஆசனூர் போலீஸ் சப்-இன்ஸ்பெக்டர் காந்தி சம்பவ இடத்திற்கு விரைந்து சென்று
விசாரணை நடத்தினார். இச்சம்பவம் சத்தி, தாளவாடி, ஆசனூர் காட்டுப் பகுதியில் பெரும்
பரபரப்பை ஏற்படுத்தியுள்ளது. </p>

<p> </p>

<p>ஒரே குடும்பத்தில்
பார்வையற்ற 3 பேர்</p>

<p> </p>

<p>பழநி, அக்.20- கேரளா மாநிலம் கடையமங்களத்தை சேர்ந்த
வௌ்ளியம் கிாம பஞ்சாயத்து பகுதியை சேர்ந்தவர் செல்லப்பன் (வயது80) இவரது மனைவி
சரோஜினி (வயது75) இவர்களுக்கு 3 மகன்களும், 3 மகள்களும் உள்ளனர். </p><p>
</p><p>
இதில் சரஸ்வதியம்மாள் (வயது40), ராஜாமணியம்மாள் (வயது28), ராதா கிருஷ்ணன் (வயது25)
இவர்கள் 3 பேருமே பிறவிலேயே பார்வை இழந்தவர்கள் ஆவார்கள். 2 மகள் களுக்கு திருமணம் ஆகி
விட்டது. மற்றொரு மகன் கோபால கிருஷ்ணன். இவர் தினக்கூலியாக வேலை பார்த்து வருகிறார். </p><p>
</p><p>
இவருடைய குறைந்த வருமானத்தைக் கொண்டுதான் கண் தெரியாத 3 சசோதர சகோதரிகளையும் வயதான
தாய்- தந்தையரையும் காப்பாற்றி வருகிறார். </p>

<p> </p>

<p>செய்தி துளிகள்</p>

<p>
 
<gap desc="illustration"></gap></p>

<p>தாய்லாந்து தலைநகர் பாங்காக்கில் ஒரு நூதனமான போராட்டம்
நடந்தது. அமெரிக்காவில் இருந்து கோழிகள் இறக்குமதி செய்யப்படுவதை எதிர்த்து நடைபெற்ற
அந்தப் போராட்டத்தில் கோழிகளும் பங்கு பெற்றன. படத்தில் கோழி வளர்ப்பவர்கள் சிலர்
கண்டனக் குரல் எழுப்புவது போன்று தங்களது கோழிகளை ஒலி பெருக்கியில் கூவச் செய்வதைக்
காணலாம். </p><p>
  </p><p>
  </p>

<p>சீனப் பெருஞ்சுவரில் நடந்து சென்று சாதனை </p>

<p>அமெரிக்காவை சேர்ந்தவர்கள் எட்டீஸ் டேவிஸ், பியூ பேஸ்வியஸ் ஆகியோர்.
அவர்கள்் 2 பேரும் மிச்சிகன் மாநிலம், கிழக்கு லான்சிங்கைச்் சேர்ந்த சோமோபோர்
பல்கலைக் கழகத்தில் பணியாற்றுகிறார்கள். அவர்கள் இதுவரை 11முறை சீனாவுக்குச் சென்று
உள்ளனர். பலமுறை சீனப் பெருஞ்சுவரில் நடந்து உள்ளனர். சமீபத்தில் அவர்கள் சீனப்
பெருஞ்சுவறில் ஒரு கோடியில் இருந்து மறு கோடிக்கு 3 ஆயிரத்து 700 கிலோ மீட்டர் நடந்து
சாதனை படைத்து உள்ளனர். அதற்கு அவர்கள் எடுத்துக் கொண்ட நாட்கள் 109 ஆகும்.
</p><p>
  </p><p>
  </p>

<p>போலீஸ் நாய்க்கு பொது மக்கள் எதிர்ப்பு </p>

<p>இங்கிலாந்து தலைநகர் லண்டன் காவல்துறையில் பாஸ்கோ என்று ஒரு அல்சேஷன் மோப்ப
நாய் உள்ளது. குற்றவாளிகளை கண்டுபிடிப்பதில் சிறந்து விளங்கும் அந்த நாய், சில
நேரங்களில் அவர்களது கால் சதையைக் கடித்துத் தின்றுவிடுகிறதாம். மோப்பம் பிடிக்கச்
செல்லும்போது அது பொது மக்களையும் விட்டு வைப்பது இல்லையாம். மனிதர்களின் கால் சதைப்
பகுதியைக் கடிப்பது என்றால் அதற்குக் கொள்ளைப் பிரியமாம். அதனால் அந்த நாயை போலீசார்
இனி பயன்படுத்தக் கூடாது என்று பொதுமக்கள் கடும் எதிர்ப்பு தெரிவித்து உள்ளனர். எனினும்
அந்த நாய் ஏராளமான குற்றவாளிகளைப் பிடிக்க உதவி உள்ளது. அதற்காகப் பல பரிசுகளையும் பெற்று
உள்ளது. எனவே அதை பணியில் இருந்து விலக்க முடியாது என்று போலீசார் தெரிவித்து உள்ளனர்.
</p><p>
  </p><p>
  </p><p>
  </p><p>
  </p>

<p>தொலைபேசி பயனீட்டாளர்கள் அதிகரிப்பு </p>

<p>சீனாவில் தற்போது தொலைபேசி பயன்படுத்து பவர்களின் எண்ணிக்கை நாளுக்கு நாள்
அதிகரித்து வருகிறது. 1992ம் ஆண்டில் சுமார் ஒரு கோடி பேர் தொலைபேசி பயன்படுத்தினார்கள்.
தற்போது அந்த எண்ணிக்கை 20 கோடியாக உயர்ந்து உள்ளது. அவர்களில் 6 கோடியே 50 லட்சம்
மக்கள் செல்லுலார் போன் பயன் படுத்துகிறார்கள். படத்தில் ஒரு இளம் தம்பதிகள்
செல்லுலார் போன் விற்பனை நிலையம் முன்பு நிற்பதை காணலாம். </p><p>
  </p><p>
  </p>

<p>எய்ட்சை தடுக்க செக்ஸ் அழகிகள் நூதன வழி </p>

<p>மலேசியாவில் உள்ள செக்ஸ் அழகிகள் எய்ட்ஸ் நோய் கிருமிகள் தங்களைத்
தாக்காமல் இருக்க ஒரு புதிய வழியைக் கையாண்டு வருகிறார்கள். அவர்கள் தொழிலைத்
தொடங்குவதற்கு முன்பாக தங்களது உடலை கோக்கோ கோலா என்ற குளிர்பானம் மூலம் நன்றாகக்
கழுவி விடுகிறார்களாம். அதேபோன்று வாடிக்கையாளரையும் செய்யச் சொல்லி
வற்புறுத்துகிறார்களாம். அப்படி செய்வதால் அந்த குளிர்பானத்தில் உள்ள நுரை எய்ட்ஸ்
கிருமிகளைக் கொன்றுவிடும் என்று அவர்கள் நம்புகிறார்கள்.</p>

<p>கழிவறை கட்ட தோண்டிய
குழியில் விழுந்து அக்கா-தம்பி சாவு</p>

<p> </p>

<p>சித்தூர்,அக்.20- வாயல்பாடு மண்டலத்தைச் சேர்ந்தவர் சேகர்.
இவரது தம்பி சிவராஜூ. இருவரும் ஒரே வீட்டில் உள்ள அக்கா- தங்கையை திருமணம் செய்து கொண்டு
உள்ளனர். இவர்களுக்கு ஷோபா, நரேஷ் குமார் என்கிற குழந்தைகள் உள்ளனர். இரு
குடும்பத்தினரும் மதனப்பள்ளியில் குடியிருந்து வருகின்றனர். புக்கவங்க என்ற இடத்தில் தனித்
தனியாக குடி இருந்து வருகின்றனர். ஆனாலும் குழந்தைகள் இருவரும் கலந்து விளையாடுவார்கள்.
வழக்கம் போல வீட்டின் அருகில் உள்ள காலி நிலத்தில் பிற்பகல் 2 மணிக்கு விளையாட
சென்றனர். </p><p>
</p><p>
கழிவறை குழியில் </p><p>
</p><p>
அங்கு ஒருவர் வீடு கட்டும் வேலைகளை ஆரம்பிப்பதற்காக கழிவறை தொட்டி கட்டுவதற்காக குழிகள்
தோண்டி தண்ணீர் நிரப்பி வைத்திருந் தனர். விளையாடிக் கொண்டிருந்த குழந்தைகள் அந்த
குழியில் விழுந்தனர். நீண்ட நேரமாகியும் குழந்தைகள் வராததை கண்ட குடும்பத்தினர்
குழந்தைகளை தேட ஆரம்பித்தனர். </p><p>
</p><p>
சாவு </p><p>
</p><p>
இரவு 7 மணி அளவில் ஷோபாவின் உடல் மிதந்தது. பின்னர் சிறிது நேரத்தில் நரேஷ் குமார் பிணம்
மிதந்தது. </p><p>
</p><p>
இதுகுறித்து டவுன் சப்-இன்ஸ்பெக்டர் ராமகிருஷ்ணா விரைந்து சென்று உடலைக் கைப்பற்றி பிரேத
பரிசோதனைக்காக மருத்துவமனைக்கு அனுப்பி வைத்தார். மேலும் வழக்கு பதிவு செய்து விசாரணை
நடத்தி வருகிறார். </p>

<p> </p>






</body></text></cesDoc>