<cesDoc id="tam-w-dinakaran-news-02-11-25" lang="tam">
<cesHeader type="text">
<fileDesc>
<titleStmt>
<h.title>tam-w-dinakaran-news-02-11-25.txt</h.title>
<respStmt>
<respType>Electronic file created by</respType>
<respName>Department of Linguistics, Lancaster University</respName>
<respType>text collected by</respType>
<respName>Paul Baker and Celia Worth</respName>
<respType>transferred into Unicode by</respType>
<respName>"Unicodify" software by Andrew Hardie</respName>
</respStmt>
</titleStmt>
<publicationStmt>
<distributor>UCREL</distributor>
<pubAddress>Department of Linguistics, Lancaster University, Lancaster, LA1 4YT, UK</pubAddress>
<availability region="WORLD"></availability>
<pubDate>03-08-24</pubDate>
</publicationStmt>
<sourceDesc>
<biblStruct>
<monogr>
<h.title>"Dinakaran" internet news (www.dinakaran.com), news stories collected on 02-11-25</h.title>
<h.author>Dinakaran</h.author>
<imprint>
<pubPlace>Tamil Nadu, India</pubPlace>
<publisher>Dinakaran</publisher>
<pubDate>02-11-25</pubDate>
</imprint>
</monogr>
</biblStruct>
</sourceDesc>
</fileDesc>
<encodingDesc>
<projectDesc>Text collected for use in the EMILLE project.</projectDesc>
<samplingDesc>Simple written text only has been transcribed. Diagrams, pictures and tables have been omitted and their place marked with a gap element.
</samplingDesc>
<editorialDecl>
<conformance level="1"></conformance>
</editorialDecl>
</encodingDesc>
<profileDesc>
<creation>
<date>03-08-24</date>
</creation>
<langUsage>Tamil</langUsage>
<wsdUsage>
<writingSystem id="ISO/IEC 10646">Universal Multiple-Octet Coded Character Set (UCS).</writingSystem>
</wsdUsage>
<textClass>
<channel mode="w">print</channel>
<constitution type="composite"></constitution>
<domain type="public"></domain>
<factuality type="fact"></factuality>
</textClass>
<translations></translations>
</profileDesc>
<revisionDesc></revisionDesc>
</cesHeader>

<text>
<body>




<p>தமிழக எல்லையில்,
நக்சலைட் தீவிரவாதி சுட்டு கொலை; போலீசுடன் பயங்கர துப்பாக்கி சண்டை - 4 பெண் உள்பட
22 பேர் கைது</p>

<p> </p>

<p>தர்மபுரி, நவ. 25- தர்மபுரி அருகே தமிழக எல்லைக்குள் நக்சலைட்
தீவிரவாதிகள் ஊடுருவினார்கள். அவர்களை போலீஸ்படை முற்றுகையிட்டு தாக்குதல் நடத்தியது.
பயங்கர துப்பாக்கி சண்டையில் ஒரு தீவிரவாதி கொல்லப்பட்டான். 4 பெண்கள் உள்பட 22
பேர் பிடிபட்டனர். </p><p>
</p><p>
தர்மபுரி மாவட்டம் அரூர் டி.எஸ்.பி. சசிவண்ணன் தலைமையில் ஊத்தங்கரை போலீஸ்
இன்ஸ்பெக்டர் முத்துப்பாண்டியன், கியூ பிராஞ்ச் போலீஸ் இன்ஸ்பெக்டர் ஏகநாதன்
மற்றும் போலீசார் ஊத்தங்கரை அருகே உள்ள படப்பள்ளி பக்கம் நேற்று (ஞாயிறு) ரோந்து
பணியில் ஈடுபட்டனர். கியூபிராஞ்ச் போலீசாருக்கு நக்சலைட்டுகள் நடமாட்டம்
பற்றி வந்த ரகசிய தகவலின்பேரில் போலீசார் இந்த ரோந்துப்பணியில் ஈடுபட்டார்கள். </p><p>
</p><p>
துப்பாக்கியுடன் கும்பல் </p><p>
</p><p>
அப்போது அங்குள்ள வயல் வழியாக காட்டுப்பகுதியை நோக்கி பெரிய கும்பல் துப் பாக்கி
மற்றும் கையெறிகுண்டு போன்ற பயங்கர ஆயுதங்களுடன் சென்று கொண்டிருந்தனர். அங்கு போலீசார்
வருவதை பார்த்த அந்த கும்பலை சேர்ந்தவர்கள் போலீசாரை நோக்கி சரமாரியாக
சுடத்தொடங்கினார்கள். மேலும் சுட்டவாறே அவர்கள் காட்டுப்பகுதியை நோக்கி ஓடினார்கள். </p><p>
</p><p>
துப்பாக்கி சண்டை </p><p>
</p><p>
இதனால் உஷாரான போலீசார் அந்த கும்பலை நோக்கி துப்பாக்கியால் சுட்டுக் கொண்டே
பின்தொடர்ந்து சென்றனர். அங்குள்ள சின்ன கணக்கம்பட்டியை சேர்ந்த கிருஷ்ணன் என்பவருக்கு
சொந்தமான மாந்தோப்பில் அந்த கும்பல் புகுந்தது. அங்கு போலீசாருக்கும், அந்த கும்பலை
சேர்ந்தவர்களுக்கும் பயங்கர துப்பாகி சண்டை நடந்தது. </p><p>
</p><p>
குண்டு பாய்ந்து சாவு </p><p>
</p><p>
இதில் போலீசார் சுட்டதில் அந்த கும்பலை சேர்ந்த ஒருவன் தலையில்குண்டு பாய்ந்து சம்பவ
இடத்திலேயே ரத்த வௌ்ளத்தில் பிணமானான். இருந்தபோதும் மற்றவர்களுடன் போலீசார்
துப்பாக்கி சண்டையில் ஈடுபட்டனர். இதில் கியூ பிராஞ்ச் போலீஸ் இன்ஸ்பெக்டர்
ஏகநாதன் படுகாயம் அடைந்தார். அவரது காலில் துப்பாக்கி குண்டு பாய்ந்தது. மேலும் சில
போலீசாரும் காயம் அடைந்தனர். </p><p>
</p><p>
22 பேர் பிடிபட்டனர் </p><p>
</p><p>
இதற்கிடையே மற்றவர்கள் காட்டுப்பகுதியை நோக்கி ஓடும்போது கல்லூர் என்ற இடத்தில்
போலீசார் அவர்களை சுற்றி வளைத்தனர். இதில் 4 பேர் பிடிபட்டனர். மற்றவர்கள் அங்குள்ள
ஒன்னகரகாட்டு பகுதிக்குள் புகுந்தனர். </p><p>
</p><p>
இதைத்தொடர்ந்து போலீசார் அந்த காட்டுப்பகுதியை சுற்றி வளைத்து அவர்களை தீவிரமாக
தேடினார்கள். அப்போது மாந்தோப்பு அருகே ஒரு கூரை விவசாய கொட்டகைக்குள் 2 பேர் மறைந்து
இருப்பதாக போலீசாருக்கு தகவல் வந்தது. உடனே போலீசார் அந்த 2 பேரையும் பிடித்தனர். </p><p>
</p><p>
நக்சலைட்டு </p><p>
</p><p>
பிடிபட்ட 6 பேரிடம் போலீசார் தீவிர விசாரணை மேற்கொண்டனர். இதில் போலீசார்
சுட்டத்தில் இறந்தவர் சென்னையை சேர்ந்த சிவா என்ற பார்த்தீபன் (வயது 30) என்பது
தெரியவந்தது. மேலும் இவர் மக்கள் யுத்தக்குழு அமைப்பை சேர்ந்த நக்சலைட்டு என்பதும்
தெரியவந்தது. இந்த அமைப்பின் மாநில செயலாளர் இவர்தான் என்பதும் தெரிய வந்துள்ளது.
மேலும் காட்டுக்குள் ஓடியவர்கள் நக்சலைட்டு அமைப்பை சேர்ந்தவர்கள் என்றும் போலீசார்
சந்தேகிக்கின்றனர். </p><p>
</p><p>
டி.ஜ.ஜி. </p><p>
</p><p>
இந்தசம்பவம் பற்றி அறிந்த சேலம் சரக டி.ஐ.ஜி. தமிழ்செல்வன், தர்மபுரி மாவட்ட
போலீஸ் சூப்பிரெண்டு பெரியய்யா, அரூர் டி.எஸ்.பி. சசிவண்ணன், கிருஷ்ணகிரி டி.எஸ்.பி.
வில்வாரணி முருகன், பர்கூர் டி.எஸ்.பி. பன்னீர்செல்வம் மற்றும் போலீசார் நக்சலைட்டுகள்
தப்பி ஓடி மறைந்த காட்டுப்பகுதிக்குள் முகாமிட்டு அவர்களை வலைவீசி தேடினார்கள். </p><p>
</p><p>
4 பெண்கள் </p><p>
</p><p>
அந்த காட்டுப்பகுதியை சுமார் 250 போலீசார் முற்றுகையிட்டு சுற்றிவளைத்து தீவிர தேடுதல்
வேட்டை நடத்தினர். அப்போது அங்கு பதுங்கி இருந்த 16 பேரை போலீசார் பிடித்தனர்.
இவர்களில் 4 பேர் பெண்கள் ஆவர். மொத்தம் 22 பேரை போலீசார் பிடித்து உள்ளனர்.
அவர்களிடம் தீவிர விசாரணை நடந்து வருகிறது. ் காட்டுப்பகுதியில் மேலும் சிலர் பதுங்கி
உள்ளனரா? எனவும் போலீசார் தேடி வருகிறார்கள். </p><p>
</p><p>
பிடிபட்டவர்கள் விவரம் </p><p>
</p><p>
போலீசில் பிடிபட்டவர்களின் பெயர் விவரம் வருமாறு:- </p><p>
</p><p>
1). மார்ட்டீன் என்ற தமிழ் செல்வன் (வயது 45), தந்தை பெயர் தேவராஜ், மதுரை. </p><p>
</p><p>
2).சுரேஷ் (வயது 27), தந்தை பெயர் ராஜா, மதுரை. </p><p>
</p><p>
3). மாதையன் (வயது 22), தந்தை பெயர் ஆண்டியப்பன், தர்மபுரி. </p><p>
</p><p>
4). பழனிசாமி (வயது 30), தந்தை பெயர் ஆண்டியப்பன், நத்தம்காலனி. </p><p>
</p><p>
5). ராஜா (வயது 30), தந்தை பெயர் மணி, நத்தம். </p><p>
</p><p>
6). பிரபாகரன் (வயது 15), தந்தை பெயர் குருசாமி, ஊத்தங்கரை. இவன் 10-ம் வகுப்பு படித்து
வருகிறான். </p><p>
</p><p>
மற்றும் 4 பெண்கள் உள்பட 22 பேர் பிடிபட்டுள்ளனர். </p><p>
</p><p>
இந்த சம்பவம் அந்த பகுதியில் பெரும் பரபரப்பை ஏற்படுத்தி உள்ளது. நக்சலைட்டு
தீவிரவாதிகள் வந்தது ஏன்? பரபரப்பு தகவல் நக்சலைட்டு தீவிரவாதிகள் வந்தது ஏன்?
என்பது குறித்து ரகசிய தகவல் வௌியாகி உள்ளது. </p><p>
</p><p>
பரபரப்பு தகவல் </p><p>
</p><p>
நக்சலைட் தீவிரவாதி சுட்டுக்கொல்லப்பட்ட சம்பவத்தால் தர்மபுரி மாவட்டமே
பரபரப்புக்குள்ளாகியது. இந்த நக்சலைட்டுகள் இங்கு வந்தது ஏன்? என்பது குறித்து பரபரப்பு
தகவல் வௌியாகி உள்ளது. </p><p>
</p><p>
இவர்கள் தங்கள் அமைப்பின் ரகசிய மாநாடு நடத்துவதற்காக இடம் தேர்வு செய்ய இங்கு
வந்ததாக கூறப்படுகிறது. தமிழ்நாடு முழுவதும் உள்ள நக்சலைட்டுகள் பயங்கர சதி வேலையில்
ஈடுபட திட்டம் தீட்டுவதற்காக இந்த மாநாட்டை நடத்த இங்கு வந்திருக்கலாம் என
கூறப்படுகிறது. இதுபற்றிய ரகசிய தகவல் தர்மபுரி கியூபிராஞ்ச் போலீசாருக்கு
கிடைக்கவே அவர்கள் போலீசாருடன் வந்து இந்த அதிரடி தாக்குதலில் ஈடுபட்டனர். </p>

<p> </p>

<p> </p>

<p>2-வது முறையாக தாக்குதல்:
காஷ்மீர் ரகுநாத் கோவிலில் புகுந்து தீவிரவாதிகள் சுட்டனர்; 8பேர் சாவு: படுகாயம்-30</p>

<p> </p>

<p>ஜம்மு, நவ.25- காஷ்மீர் தலைநகர் ஜம்முவில் உள்ள ரகுநாதர்
கோவிலுக்குள் தீவிரவாதிகள் புகுந்து தாக்குதல் நடத்தினர். இதில் 8 பேர் பலியாகி,
30-க்கும் மேற்பட்டோர் படுகாயம் அடைந்து உள்ளனர். இவர்களில் பலரின் நிலைமை
கவலைக்கிடமாக உள்ளது. </p><p>
</p><p>
தற்கொலை படையினர் </p><p>
</p><p>
காஷ்மீர் மாநிலம் ஜம்மு நகரின் மத்தியில் புகழ்பெற்ற ரகுநாதர் கோவில் உள்ளது. நேற்று
இரவு 7 மணியளவில் தீவிரவாத இயக்கத்தைச் சேர்ந்த தற்கொலைப்படை யினர் சிலர் பயங்கர
ஆயுதங்களுடன் அங்கு வந்தனர். கோவிலுக்கு வௌியே 2 சக்தி வாய்ந்த குண்டுகளை வீசி
வெடிக்கச் செய்தனர். அதே நேரத்தில் பூமிக்குள் மறைத்து வைக்கப்பட்டிருந்த ஒரு
கண்ணிவெடியும் வெடித்து சிதறியது. இதனால் அந்தப்பகுதியில் நின்றவர்கள் ஆளுக்கொரு திசையாக
சிதறி ஓடினர். </p><p>
</p><p>
உடனடியாக பாதுகாப்பு படையினர் உஷாராகி தீவிரவாதிகள் மீது தாக்குதல் தொடுத்தனர்.
அதற்குள் தீவிரவாதிகள் கோவிலுக்குள் நுழைந்து கண்ணுக்கு எதிர்பட்ட பக்தர்களை எல்லாம்
சரமாரியாக சுட்டு தள்ளினர். அப்போது கோவிலுக்குள் நூற்றுக்கணக்கான பக்தர்கள் இருந்தனர்.
</p><p>
</p><p>
8 பேர் பலி-30 பேர் படுகாயம் </p><p>
</p><p>
தகவல் அறிந்து கூடுதல் போலீசார் அங்கு குவிக்கப்பட்டு கோவிலை சுற்றி வளைத்தனர். 2
தீவிரவாதிகள் கோவிலுக்குள் பதுங்கி இருக்கலாம் என்று சந் தேகிக்கப்பட்டது. </p><p>
</p><p>
அதிரடிப் படையினருக்கும் தீவிரவாதிகளுக்கும் இடையே நடந்த துப்பாக்கி சண்டையில் 2 மத்திய
படை போலீசார் உள்பட 8 பேர் பலியாயினர். 30 பக்தர் கள் படுகாய மடைந்த நிலையில்
மீட்கப்பட்டு மருத்துவமனைக்கு கொண்டு செல்லப்பட்டனர். இவர்களில் 10-க்கும்
மேற்பட்டோரின் நிலைமை கவலைக் கிடமாக உள்ளது. </p><p>
</p><p>
தீவிரவாதி சுட்டுக்கொலை </p><p>
</p><p>
3 மணி நேர துப்பாக்கி சண்டைக்கு பின்னர் ஒரு தீவிரவாதியை அதிரடிப் படையினர் சுட்டு
கொன்றனர். கோவில் வளாகம் முழுவதையும் அதிரடிப்படையினர் சல்லடை போட்டு தேடியும் வேறு
எந்த தீவிரவாதியும் சிக்கவில்லை. இன்னொரு தீவிரவாதி தப்பித்து இருக்கலாம் என்று
கூறப்படுகிறது. </p><p>
</p><p>
இரவு 10 மணி அளவில் சம்பவ இடத்தில் நிருபர்களுக்கு பேட்டி அளித்த அதிரடிப் படை அதிகாரி
ஸ்டாலின், கோவிலிருந்து தீவிரவாதிகள் முற்றிலுமாக அகற்றப்பட்டு விட்டதாக கூறினார். </p><p>
</p><p>
ரகுநாதர் கோவிலில் கடந்த மார்ச் மாதம் பாகிஸ்தானின் தற்கொலைப்படை தீவிரவாதி கள்
புகுந்து தாக்குதல் நடத்தியதில் 13 பேரை சுட்டுக்கொன்றனர். மீண்டும் 2-வது தடவையாக இந்த
கோவிலில் தீவிரவாதிகள் தாக்கியுள்ளனர். </p><p>
</p><p>
தீவிரவாதிகள் முதல் தாக்குதல் </p><p>
</p><p>
இந்த தீவிரவாதிகள் முதலில் ஜம்மு நகரின் வைஷ்ணதேவி கோவில் வளாகத்தில் தாக்குதல்
நடத்தி உள்ளனர். அப்போது அங்கு சுமார் 1000-க்கும் மேற்பட்ட பக்தர்கள் இருந்துள்ளனர்.
பின்னர் அங்கிருந்து தப்பி ரகுநாதர் கோவி லுக்குள் புகுந்துள்ளனர். கோவிலுக்குள் இருக்கும்
நூற்றுக்கணக்கான பக்தர்களின் கதி என்னவென்று தெரியவில்லை. </p><p>
</p><p>
முக்கிய நகரங்களில் பாதுகாப்பு </p><p>
</p><p>
சமீபத்தில் குஜராத் மாநிலம் சுவாமி நாராயண் கோவிலில் இதேபோல் தீவிரவாதிகள் நுழைந்து
பக்தர்களை கொன்று குவித்தது நினைவிருக்கலாம். </p><p>
</p><p>
ஜம்மு ரகுநாதர் கோவில் தாக்குதலையடுத்து ஜம்முவில் உள்ள அனைத்து கோவில்களிலும்
அதிரடிப்படையினர் குவிக்கப்பட்டு உள்ளனர். </p><p>
</p><p>
மேலும் டெல்லி உள்ளிட்ட முக்கிய நகரங்களில் உள்ள கோவில்களில் பாதுகாப்பு
பலப்படுத்தப்பட்டு உள்ளது. டெல்லியின் சாந்தினி சவுக் பகுதி, குஜராத் சுவாமி நாராயணன்
கோவில் உஷாராக கண்காணிக்கப்படுகிறது. </p>

<p> </p>

<p> </p>

<p>நாகப்பாவை மீட்பதில் புது
சிக்கல்; கொளத்தூர் மணி விடுதலை எதிர்த்து வழக்கு: போலீஸ் அதிகாரி தந்தை
அப்துல்கரீம் தொடருகிறார்</p>

<p> </p>

<p>சென்னை, நவ. 25- கொளத்தூர் மணி விடுதலை எதிர்த்து போலீஸ்
அதிகாரியின் தந்தை கோர்ட்டில் வழக்கு தொடருகிறார். இதனால் நாகப்பாவை மீட்பதில்
புதிய சிக்கல் உருவாகி உள்ளது. </p><p>
</p><p>
கொளத்தூர் மணி விடுதலை </p><p>
</p><p>
வீரப்பன் அனுப்பிய 5-வது கேசட்டில், கொளத்தூர் மணியை 12 நாட்களுக்குள் தூது அனுப்ப
வேண்டும். இல்லையெனில் நாகப்பா தலையை வெட்டி பார்சலில் அனுப்பி விடுவேன் என்று
எச்சரிக்கை விடுத்துள்ளான். </p><p>
</p><p>
இதையடுத்து கர்நாடக அனைத்து கட்சி கூட்டம் கூடி, கொளத்தூர் மணியை தூது அனுப்புவது என்றும்,
அதற்கு ஏதுவாக அவர் மீதான வழக்குகளை வாபஸ் பெற்று விடுதலை செய்வது என்றும் முடிவு
எடுக்கப்பட்டது. </p><p>
</p><p>
புதிய சிக்கல் </p><p>
</p><p>
கர்நாடக அரசும் இதை ஏற்றுக்கொண்டு கொளத்தூர் மணியை ஜாமீனில் விடுதலை செய்ய இன்று
ஐகோர்ட்டில் மனு தாக்கல் செய்ய இருந்தது. இந்நிலையில் கொளத்தூர் மணியை விடுதலை
செய்வதில் புதிய சிக்கல் எழுந்துள்ளது. </p><p>
</p><p>
முன்னர், வீரப்பனை பிடிக்க சென்ற கர்நாடக போலீஸ் அதிகாரி ஷகீல் அகமது வீரப்பன்
கூட்டாளிகளால் சுட்டுக்கொல்லப்பட்டார். இவரது தந்தை அப்துல்கரீம் தான் தற்போது சிக்கலை
ஏற்படுத்தி உள்ளார். கொளத்தூர் மணியை விடுதலை செய்வதை எதிர்த்து கர்நாடக ஐகோர்ட்டில்
வழக்கு தொடரப்போவதாக அவர் எச்சரித்து உள்ளார். </p><p>
</p><p>
அதிகாரி தந்தை ஆவேசம் </p><p>
</p><p>
இதுகுறித்து நேற்று அவர் நிருபர்களிடம் பேசுகையில், கொளத்தூர் மணி விடுதலை செய்யப்பட
வாய்ப்பே இல்லை. ஒருவேளை அவர் விடுதலை செய்யப்பட்டால் நிச்சயமாக நான் நீதிமன்றத்தை
நாடுவேன். கர்நாடக அரசு எடுத்து உள்ள முடிவு முட்டாள்தனமானது. அவரை விடுதலை செய்ய விடவே
மாட்டேன். வீரப்பனிடம் கொளத்தூர் மணி தூது போக கூடாது என்று ஆவேசமாக கூறினார். </p><p>
</p><p>
முட்டுக்கட்டை </p><p>
</p><p>
ஏற்கனவே ராஜ்குமார் மீட்பின்போது வீரப்பன் தடா கைதிகள் சிலரை விடுதலை செய்ய கோரினான்.
அப்போது இதே அப்துல் கரீம் உச்சநீதி மன்றத்தில் வழக்கு தொடர்ந்து தடை உத்தரவு
பெற்றார். அப்போது ராஜ்குமார் மீட்பிற்கு சிக்கலை ஏற்படுத்தியவர் இன்று நாகப்பா
மீட்பிற்கு முட்டுக்கட்டை போட்டுள்ளார். </p><p>
</p><p>
முதல்வர் கிருஷ்ணா பதில் </p><p>
</p><p>
அப்துல் கரீமின் திடீர் அறிவிப்பு குறித்து கர்நாடக முதல்வர் கிருஷ்ணாவிடம் கேட்டபோது,
இன்று (நேற்று) ஞாயிற்றுக்கிழமை என்பதால் இதுகுறித்து எதுவும்செய்ய இயலாது என்று கூறி
நழுவி விட்டார். </p>

<p> </p>

<p> </p>

<p>இலங்கை நிதிசேகரிப்பு
கூட்டம்: நார்வேயில் இன்று நடக்கிறது; ரனில்-அண்டன் பாலசிங்கம் - 20 நாடுகள் பங்கேற்பு</p>

<p> </p>

<p>கொழும்பு, நவ.25- உள்நாட்டுப்போரில் சிக்கி சீரழிந்த
இலங்கைக்கு நிதி சேகரிக்கும் கூட்டம் இன்று நார்வே நாட்டில் நடக்கிறது. பிரதமர் ரனில்,
அண்டன்பாலசிங்கம் ஆகியோர் அதில் பங்கேற்கிறார்கள். </p><p>
</p><p>
ஆஸ்லோ கூட்டம் </p><p>
</p><p>
இலங்கையில் புலிகளுக்கும், சிங்கள ராணுவத்துக்கும் இடையே கடந்த 20 ஆண்டாக
உள்நாட்டுப்போர் நடந்தது. இருதரப்பிலும் 60 ஆயிரம் பேர் பலியானார்கள். தற்போது அங்கு
அமைதி திரும்பியுள் ளது. போரில் சிக்கி சீரழிந்த இலங்கையில் புனர்நிர்மாணப் பணிகளை
செய்ய பெருந்தொகை தேவைப்படுகிறது. இதற்காக நிதிதிரட்ட நார்வே நாட்டின் தலைநகரம்
ஆஸ்லோவில் சர்வதேச கூட்டம் ஒன்றை கூட்ட இருதரப்பினரும் முடிவுசெய்தார்கள். </p><p>
</p><p>
இன்று கூட்டம் </p><p>
</p><p>
அதன்படி ஆஸ்லோ நகரில் இன்று நிதி சேகரிப்பு கூட்டம் நடக்கிறது. இலங்கை பிரதமர் ரனில்
தலைமையில் 17 பேர் கொண்ட தூதுக்குழு ஆஸ்லோவுக்கு வந்து சேர்ந்துவிட்டது. புலிகள்
சார்பிலும் அதன் அரசியல் ஆலோசகர் அண்டன் பாலசிங்கமும் முக்கிய தலைவர்களும்
பங்கேற்கிறார்கள். </p><p>
</p><p>
20 நாடுகள் </p><p>
</p><p>
இந்த கூட்டத்தில் அமெரிக்கா, இங்கிலாந்து, ஜெர்மனி, ஜப்பான் உள்பட 20 நாடுகள் கலந்து
கொள்கின்றன. அமெரிக்கா சார்பில் அந்தநாட்டு அரசு செயலாளர் ரிச்சர்டு ஆர் மிட்டேஜ்,
இங்கிலாந்து சார்பில் சர்வதேச மேம்பாட்டு மந்திரி கிளேர் சார்ட் ஆகியோர்
பங்கேற்கிறார்கள். இந்தியா சார்பாக நார்வே நாட்டுக்கான இந்தியத் தூதர்
பங்கேற்கிறார். </p><p>
</p><p>
கூட்டு அறிக்கை </p><p>
</p><p>
புலிகள் அமைப்பும், இலங்கை அரசும் இது தொடர்பாக 10 பக்க கூட்டறிக்கை வௌியிட்டுள்ளன.
போரினால் இடம்பெயர்ந்த 10 லட்சம் மக்களை மீண்டும் குடியமர்த்த வேண்டியிருக்கிறது. 20
லட்சம் கண்ணிவெடிகளை அகற்ற வேண்டியிருக்கிறது. இதற்கெல்லாம் பெருந்தொகை செலவாகும். எனவே
சர்வதேச நாடுகள் தாராளமாக நிதியுதவி செய்ய வேண்டும் என்று அந்த கூட்டறிக்கையில்
அவர்கள் கூறி யுள்ளனர். </p><p>
</p><p>
பேச்சுவார்த்தை </p><p>
</p><p>
இந்த நிதி சேகரிப்பு கூட்டத்தை அடுத்து ஆஸ்லோ நகரில் வரும் டிசம்பர் 2-ந்தேதி முதல்
5-ந்தேதி வரை புலிகளுக்கும் இலங்கை அரசுக்கும் நடுவில் 3-வது சுற்றுப்பேச்சுவார்த்தை நடக்க
உள்ளது. அதைத்தொடர்ந்து ஜப்பான் நாட்டு தலைநகரம் டோக்கியோவில் மீண்டும்
நிதிசேகரிப்பு கூட்டத்தை அடுத்த ஆண்டு கூட்ட இருதரப்பினரும் முடிவுசெய்துள்ளனர். </p><p>
</p><p>
பிரபாகரன் பிறந்தநாள் பேச்சு: இலங்கை டி.வி ஒளிபரப்புகிறது </p><p>
</p><p>
புலிகள் தலைவர் வேலுப்பிள்ளை பிரபாகரனுக்கு நவம்பர் 26-ந்தேதி பிறந்தநாள் ஆகும். அவரது
பிறந்தநாள் வரும் வாரத்தை மாவீரர் வாரமாக புலிகள் இயக்கம் அனுஷ்டிப்பது வழக்கம்.
பிறந்த நாளான நவம்.26-ந் தேதியன்று பிரபாகரன் புலிகள் வானொலி மூலம் மக்களிடம்
உரையாற்றுவார். இந்த ஆண்டு புலிகள்- இலங்கை அரசு இடையே அமைதி துளிர்க்க
ஆரம்பித்திருப்பதால் இந்த ஆண்டு பிரபாகரன் பேச்சை இலங்கை டி.வி.யான ரூபவாகினி ஒளிபரப்ப
உள்ளது. டி.வி இயக்குனர் நிமல் லட்சபதியாராய்ச்சி இந்த தகவலை தெரிவித்துள்ளார்.
பிரபாகரன் பேச்சை இலங்கை டி.வி. ஒளிபரப்புவது இதுவே முதன்முறை ஆகும். இதனிடையே இலங்கை
மட்டக் களப்பு மாவட்டத்தில் உள்ள அரசடித்தீவில் புலிகள் புதிதாக நீதிமன்றம்,
போலீஸ் நிலையம் திறந்துள்ளனர். </p>

<p> </p>

<p> </p>

<p>நைஜீரியா கலவரம் சாவு 200
ஆனது; 90 நாட்டு அழகிகள் லண்டன் சென்றனர்</p>

<p> </p>

<p>லண்டன், நவ.25- நைஜீரியாவில் உலக அழகிப்போட்டியை எதிர்த்து
நடந்த கலவரத்தில் சாவு எண்ணிக்கை 200 ஆனது. 90 நாட்டு அழகிகள் லண்டனுக்கு விமானத்தில்
சென்றனர். </p><p>
</p><p>
கலவரம் </p><p>
</p><p>
உலக அழகி போட்டி நைஜீரியா நாட்டு தலைநகர் லாகோஸில் வருகிற 7-ந்தேதி நடப்பதாக
இருந்தது. இதில் கலந்துகொள்ள இந்தியா உள்பட 90 நாட்டு அழகிகள் நைஜீரியா சென்றனர்.
ஆரம்பகட்ட போட்டிகள் தொடங்கின. </p><p>
</p><p>
இதற்கிடையில் முஸ்லிம்கள் அதிகமாக வாழும் நைஜீரியா நாட்டில் அழகி போட்டி நடத்த எதிர்ப்பு
கிளம்பியது. முகமது நபி பற்றி சர்ச்சைக்குரிய கட்டுரையை ஒரு பத்திரிகை வௌியிட்டதால் அது
பெரும் கலவரத்தில் முடிந்தது. கலவரத்தில் பலி யானவர்களின் எண்ணிக்கை 200-ஐ தாண்டி
விட்டது. </p><p>
</p><p>
லண்டன் சென்றனர் </p><p>
</p><p>
கலவரம் வெடித்ததால் இறுதி அழகி போட்டியை லண்டனில் நடத்த அதன் அமைப்பாளர்கள் முடிவு
செய்தனர். இதைத் தொடர்ந்து ஓட்டல்களில் தங்கி இருந்த அழகிகள் அவற்றை காலி
செய்துவிட்டு பெட்டி படுக்கைகளுடன் வௌியேறினார்கள். 90 அழகிகள் தனி விமானம் மூலம் நேற்று
காலை 8 மணிக்கு நைஜீரியாவில் இருந்து புறப்பட்டு லண்டன் வந்து சேர்ந்தனர். லண்டனில்
ஆடம்பர ஓட்டல்களில் அவர்கள் தங்க வைக்கப்பட்டு உள்ளனர். 7-ந்தேதி நடக்கும் இறுதி
போட்டியில் அவர்கள் கலந்து கொள்வார்கள். </p>

<p> </p>

<p> </p>

<p>முஸ்லிம் அமைப்புகளுக்கு
பின்லேடன் கடிதம்: இங்கிலாந்து மக்கள் மீது தாக்குதல் நடத்துங்கள்</p>

<p> </p>

<p>லண்டன், நவ.25- பொதுமக்கள் மீது தாக்குதல் நடத்துமாறு
இங்கிலாந்தில் உள்ள முஸ்லிம்களுக்கு பின் லேடன் கடிதம் வௌியிட்டுள்ளார். </p><p>
</p><p>
பின்லேடன் கடிதம் </p><p>
</p><p>
பின்லேடனுக்கு எதிரான வேட்டையில் அமெரிக்காவுக்கு பக்கபலமாக இங்கிலாந்து நாடு உள்ளது.
இங்கிலாந்தில் கணிசமான அளவு முஸ்லிம்கள் உள்ளனர். இந்தநிலையில் பின்லேடன்
அனுப்பியதாக கூறப்படும் ஒரு கடிதம் இங்கிலாந்தில் உள்ள முஸ்லிம் அடிப்படை வாதிகள் நடுவில்
நடமாடி வருகிறது. முஸ்லிம் வெப் சைடுகளிலும் இந்த கடிதம் வௌியிடப்பட்டு வருகிறது. </p><p>
</p><p>
4000 வார்த்தைகள் </p><p>
</p><p>
இந்த கடிதம் 4 ஆயிரம் வார்த்தைகள் கொண்ட நீண்ட கடிதம் ஆகும். அதில் நமது நகரங்களை
அழிக்க முயல்பவர் களின் நகரங்களை அழியுங்கள். நமது வளர்ச்சியை அழிப்பவர்களின்
பொருளாதாரத்தை நாசமாக்குங்கள். நமது மக்களை கொல்பவர்களை நீங்களும் கொல்லுங்கள் என்பது
போன்ற வாசகங்கள் உள்ளன. </p><p>
</p><p>
குண்டு தயாரிப்பு </p><p>
</p><p>
வெடிகுண்டுகளை எப்படி தயாரிப்பது என்பது பற்றியும், ரசாயன ஆயுதங்கள் தயாரிப்பது பற்றியும்
அந்த கடிதத்தில் குறிப்பிடப்பட்டு உள்ளது. அரபு மொழியில் எழுதப்பட்ட இந்த கடிதம்
ஆங்கிலத்தில் மொழி பெயர்க்கப்பட்டு இங்கிலாந்து முஸ்லிம்கள் நடுவில் புழங்கி வருகிறது. </p><p>
</p><p>
இந்த பரபரப்பு கடிதம் பற்றி இங்கிலாந்து நாட்டு வௌியுறவுத்துறை மந்திரி மைக் ஒபிரையன்
கருத்து கூறியுள்ளார். இங்கிலாந்து நாட்டிலும் வௌிநாடுகளில் உள்ள இங்கிலாந்து மக்கள்
மீதும் பின்லேடன் தாக்குதல் நடத்தலாம். இங்கிலாந்தில் குடியிருக்கும் மக்கள்,
வௌிநாடுகளில் வேலை பார்க்கும் இங்கிலாந்து தொழி லாளர்கள், உல்லாசப்பயணிகள் கவனமாக
இருக்க வேண்டும் என்று அவர் எச்சரித்துள்ளார். </p><p>
</p><p>
பின்லேடன் டேப் </p><p>
</p><p>
அண்மையில் பின்லேடனின் பேச்சு அடங்கிய ஒலி நாடா ஒன்றை அல்-ஜசீரா டி.வி. ஒளிபரப்பியது.
அதைத்தொடர்ந்து இங்கிலாந்து மக்களை எச்சரிக்கும் பின்லேடன் கடிதம் வௌியாகி இருப்பது
குறிப்பிடத்தக்கது. </p>

<p> </p>

<p> </p>

<p>டெஹல்கா ஊழல் விசாரணை கதி
என்ன? ராஜினாமாவை வாபஸ் பெற மாட்டேன்; நீதிபதி வெங்கடசாமி திட்டவட்ட அறிவிப்பு</p>

<p> </p>

<p>புதுடெல்லி, நவ. 25- நான் எடுத்த முடிவில் உறுதியாக இருக்கிறேன்.
ராஜினாமாவை வாபஸ் பெற மாட் டேன் என்று நீதிபதி வெங்கடசாமி அறிவித்துள்ளார். </p><p>
</p><p>
ராஜினாமா கடிதம் </p><p>
</p><p>
ராணுவத்துக்கு ஆயுதங்கள் வாங்கியதில் நடந்த ஊழல் பேரத்தை திட்டமிட்டு டேப் செய்து
டெஹல்கா என்ற இணையதளம் வௌியிட்டு பரபரப்பை ஏற்படுத்தியது அல்லவா? ஒன்றரை ஆண்டுக்கு
முன்பு நடந்த இந்த சம்பவம் குறித்து உச்சநீதிமன்ற ஒய்வு பெற்ற நீதிபதி வெங்கடசாமி
விசாரணை நடத்தி வருகிறார். </p><p>
</p><p>
அரசு மீது குற்றச்சாட்டு </p><p>
</p><p>
இந்த நிலையில் மத்திய அரசின் சுங்கம் மற்றும் கலால் துறையில் தீர்ப்பாயத் தலைவர் என்ற
உயர் பதவிக்கும் நீதிபதி வெங்கடசாமி நியமிக்கப்பட்டார். இந்த பிரச்சினையை கடந்த
வௌ்ளிக்கிழமை பாரா ளுமன்றத்தில் எதிர்க்கட்சிகள் கிளப்பி அமளி செய்தன. அப்போதைய
தலைமை நீதிபதி பரூச்சா பரிந்துரைப்படி தான் வெங்கடசாமி நியமிக்கப்பட்டார் என்பதற்கான
ஆதாரத்தை அரசு வௌியிட்டும் கூட எதிர்க்கட்சிகள் சமாதானம் அடையவில்லை. நீதி
விசாரணையில் அரசு தனது செல்வாக்கை பயன்படுத்த முயலுகிறது என்று காங்கிரஸ் குற்றம்சாட்டியது. </p><p>
</p><p>
நீதிபதி மனவேதனை </p><p>
</p><p>
இதனால் மனவேதனை அடைந்த நீதிபதி வெங்கடசாமி டெஹல்கா ஊழல் விசாரணை மற்றும் சுங்க-கலால்
வரித்துறை பதவி ஆகிய இரு பொறுப்புகளில் இருந்தும் ராஜினாமா செய்து பிரதமர் வாஜ்பாய்க்கு
நேற்றுமுன்தினம் கடிதம் அனுப்பினார். </p><p>
</p><p>
டெஹல்கா ஊழல் விசாரணை முடிவடையும் தருவாயில் இருப்பதால் நீதிபதி வெங்கடசாமியின்
ராஜினாமா அதிர்ச்சியை தந்தது. இது விசாரணைக்கு பின்னடைவை ஏற்படுத்தும் என்பதால் அவர்
தனது ராஜினாமாவை வாபஸ் பெற வேண்டும் என்று வற்புறத்தப்படும் என்று எதிர்
பார்க்கப்பட்டது. </p><p>
</p><p>
பா.ஜ. குற்றச்சாட்டு </p><p>
</p><p>
நீதிபதியின் இந்த நடவடிக்கைக்கு காங்கிரசே காரணம். டெஹல்கா விசாரணையை காங்கிரஸ்
தடம்புரளச் செய்து விட்டது என்று பா.ஜ. செய்தி தொடர்பாளர் மல்கோத்ரா குற்றம்
சாட்டினார். </p><p>
</p><p>
காங். கவலையில்லை </p><p>
</p><p>
ஆனால் வெங்கடசாமியின் ராஜினாமா காங்கிரசுக்கு கவலையை ஏற்படுத்தவில்லை. டெஹல்கா டேப்
விவகாரம் பற்றி பாராளுமன்ற கூட்டுக்குழு விசாரணை நடத்த வேண்டும் என்றே காங்கிரஸ்
விரும்புகிறது என்று அதன் செய்தி தொடர்பாளர் பிரியரஞ்சன் தாஸ் முன்ஷி கூறினார். </p><p>
</p><p>
டெஹல்கா எடிட்டர் தருண் தேஜ்பாய் கூறுகையில், இந்த விசாரணை தடம் புரண்டு விட்டது
என்பதில் அரசு மகிழ்ச்சி அடையும் என்றே நான் நம்புகிறேன். இந்த விசா ரணை அறிக்கை
வௌியாவதை அரசாங்கம் விரும்பவில்லை என்றார். </p><p>
</p><p>
நீதிபதி பேட்டி </p><p>
</p><p>
நீதிபதி வெங்கடசாமியை பத்திரிகையாளர்கள் தொடர்பு கொண்டு கேட்டபோது, டெ ஹல்கா
விசாரணை இறுதிக் கட்டத்தில் உள்ளது என்பது எனக்குத் நன்றாகவே தெரியும். ஆனாலும்
எதிர்க்கட்சிகள் என் மீது ஆதாரமற்ற குற்றச் சாட்டுகளை கூறியதால் ராஜினாமா செய்துள்ளேன் என்றார்.
</p><p>
</p><p>
வாபசா? </p><p>
</p><p>
டெஹல்கா விசாரணை இறுதிக்கட்டத்தில் இருப்பதால் ராஜினாமாவை வாபஸ் பெறும்படி அரசு
வற்புறுத்தினால் பரிசீலிப்பீர்களா?என்று கேட்டதற்கு, இருவகையான வற்புறுத்தல்கள்
உள்ளன. ஒன்று வற்புறுத்த வேண்டும் என்பதற்காகவே செய்வது, இன்னொன்று உண்மையான
காரணத்துக்காக செய்வதாகும். </p><p>
</p><p>
எதிர்க்கட்சிகள் தரப்பில் பாராளுமன்ற கூட்டுக்குழு விசாரணை வேண்டும் என்றும்
வற்புறுத்தப்படுகிறது. எனவே இந்த நிலைமைக்கு காரணமான எதிர்க்கட்சிகள் தெரிவிக்கும்
கருத்து அடிப்படையில் மற்ற நடவடிக்கைகள் அமையும் என்றார். </p><p>
</p><p>
இதை வைத்து நீதிபதி வெங்கடசாமி தனது ராஜினாமாவை மறுபரிசீலனை செய்வார் என்று
எதிர்பார்க்கப்பட்டது. அட்டார்னி ஜெனரல் சொலி சொராப்ஜியும் அவரை சந்தித்துப்
பேசினார். </p><p>
</p><p>
பரிசீலிக்க மறுப்பு </p><p>
</p><p>
ஆனால் தனது ராஜினாமாவை வாபஸ் பெறுவது பற்றி பரிசீலிக்க வெங்கடசாமி திட்ட வட்டமாக
மறுத்து விட்டார். நான் எடுத்த முடிவில் உறுதியாக இருக்கிறேன். அட்டார்னி ஜெனரல் என்னை
சந்தித்தார். ஆனால் அரசு தரப்பில் எந்த நிர்ப்பந்தமும் செய்யப்படவில்லை. நாளை(இன்று)
மதியம் நான் பத்திரிகையாளர் களை சந்திக்கிறேன் என்றார். </p><p>
</p><p>
நீதிபதி வெங்கடசாமி விசாரணைக் கமிஷனின் அறிக்கை இந்த ஆண்டு டிசம்பர் 31-ல் தாக்கல்
செய்யப்படுவதாக இருந்தது. ஆனால் கால அவகாசம் கேட்டதை தொடர்ந்து அடுத்த ஆண்டு ஜனவரி
31-ந் தேதி வரை கமிஷனின்பதவிக் காலம் நீட்டிக்கப்பட்டுள்ளது. இந்த நிலையில் நீதிபதி
வெங்கடசாமியின் ராஜினாமா பெரிதும் பாதிப்பை ஏற்படுத்தும் என்று தெரிகிறது. </p><p>
</p><p>
இதுகுறித்து முன்னாள் சட்ட மந்திரி அருண்ஜெட்லி கூறுகையில், விசாரணைக்கமிஷனின் பணியில்
தாமதம் ஏற்படுவதற்கான பொறுப்பை ஏற்க காங் கிரசும் மற்றும் எதிர்க்கட்சிகளும் தயாராக
வேண்டும் என்றார். </p>

<p> </p>

<p> </p>

<p>சாய்பாபா கோவிலுக்கு
குண்டுவைத்த இன்னொரு தீவிரவாதியும் ஆந்திராவில் சுட்டுக்கொலை</p>

<p> </p>

<p>ஐதராபாத், நவ.25- ஆந்திராவில் சாய்பாபா கோவிலுக்கு குண்டுவைத்த
மற்றொரு தீவிரவாதியையும் போலீசார் நேற்று சுட்டுக்கொன்றார்கள். </p><p>
</p><p>
சுட்டுக்கொலை </p><p>
</p><p>
ஐதராபாத்தில் உள்ள சாய்பாபா கோவிலில் கடந்த வியாழக்கிழமை ஸ்கூட்டர் குண்டு வெடித்து ஒரு
பெண் பலியானார். 21 பேர் காயமடைந்தனர். பாகிஸ்தானில் பயிற்சி பெற்ற
லஸ்கர்-இ-தொய்பாயக்க தீவிரவாதிகள் 2 பேரே இந்த தாக்குதலுக்கு காரணம் என்று
போலீசாருக்கு தெரிய வந்தது. அந்த 2 தீவிரவாதிகளில் ஒருவனான முகமது அசம் 2 நாட்களுக்கு முன்
ரங்காரெட்டி மாவட்டத்தில் உள்ள உப்பல் காட்டுப்பகுதியில் போலீசாரால்
சுட்டுக்கொல்லப்பட்டான். </p><p>
</p><p>
இம்ரான் </p><p>
</p><p>
இந்த குண்டுவெடிப்பில் தொடர்புடைய இம்ரான் (வயது 21) என்ற 2-வது தீவிரவா தியை தனிப்படை
அமைத்து போலீசார் தேடிவந்தார்கள். </p><p>
</p><p>
இந்தநிலையில் கரீம்நகர் மாவட்டம் ரேக்குர்த்தி குறுக்குச்சாலை பகுதியில் நேற்றுமுன் தினம்
இரவு போலீசார் ரோந்து சென்றனர். அப்போது சைக்கிளில் ஒரு மர்ம ஆசாமி வந்தான்.
போலீசாரைக் கண்டதும் அவன் ஓடமுயன்றான். போலீசார், நிற்குமாறு கூறியும் அவன்
கேட்கவில்லை. </p><p>
</p><p>
சுட்டுக்கொன்றனர் </p><p>
</p><p>
இதையடுத்து போலீசார் அவனைச் சுட்டுக்கொன்றார்கள். அவனை ஆராய்ந்ததில் அவன்தான்
இம்ரான் என்று அழைக்கப்படும் அசிஸ் என்பது தெரியவந்தது. அவனிடம் இருந்து 1
கைத்துப்பாக்கி, அதற்கான தோட்டாக்கள், பாஸ் போர்ட்டு போன்றவை கைப்பற்றப்பட்டன. </p><p>
</p><p>
122 நாள் பயிற்சி </p><p>
</p><p>
முதல் தீவிரவாதி முகமது அசமை போலீசார் கைது செய்தபோது இம்ரான் பற்றி அவன் பல்வேறு
தகவல்களை கூறியிருந்தான். பாகிஸ்தானில் இம்ரான் 122 நாள் பயிற்சி பெற்றான் என்பது
அந்த தகவல்களில் ஒன்றாகும். அசம், இம்ரான் ஆகியோர் லஸ்கர் அமைப்பின் தென்னிந்திய
பிராந்திய தளபதிகளாக இருந் துள்ளனர். தற்போது இவர்கள் 2 பேரும் சுட்டுக்கொல்லப்பட்டு
விட்டதால் லஸ்கர் அமைப்புக்கு தற்போது வேறு தலைவர்கள் யாரும் கிடையாது. </p><p>
</p><p>
பலத்த பாதுகாப்பு </p><p>
</p><p>
ஆந்திராவில் லஸ்கர் அமைப்பு தீவிரவாதிகள் இருவர் அடுத்தடுத்து சுட்டுக்கொல் லப்பட்டதால்
அங்கு பரபரப்பு ஏற்பட்டுள்ளது. தீவிரவாதிகள் பழிக்குப்பழி வாங்குவார்கள் என
எதிர்பார்க்கப்படுகிறது. இதையடுத்து ஐதராபாத் நகரின் பாதுகாப்புக்காக 2 கம்பெனி
அதிவிரைவுப்படை யினர், 3 பிளாட்டூன் மாநில போலீசார், 3 பிளாட்டூன் ஆயுதப்படை
போலீசார் ஆகியோர் குவிக்கப்பட்டுள்ளனர். ஆந்திர மாநில போலீஸ் டி.ஜி.பி.யான பி.
ராமுலு இந்த தகவலைத் தெரிவித்துள்ளார். </p><p>
</p><p>
சுட்டுக்கொல்லப்பட்ட அசம் தீவிரவாதிதானா? </p><p>
</p><p>
ஆந்திராவில் சாய்பாபா கோவிலில் குண்டுவைத்ததாக கூறப்படும் முகமது அசமை 2 நாட்களுக்கு முன்
போலீசார் சுட்டுக் கொன்றார்கள் அல்லவா? அசம், லஸ்கர்-இ- தொய்பா இயக்கத்தைச் சேர்ந்தவன்
என்று போலீசார் கூறியிருந்தனர். இந்த நிலையில் அசம் பற்றி போலீசார் கூறிய பல
தகவல்கள் முன்னுக்குப்பின் முரணாக உள்ளன. அசம் சில்லறை வியாபாரி என்று ஒரு போலீஸ்
அதிகாரியும், பள்ளிக்கூட நிர்வாகி என்று மற்றொரு அதிகாரியும் தகவல் வௌியிட்டுள்ளனர்.
அசமின் இருப்பிடம் பற்றியும் இருவேறு தகவல்களை போலீசார் தந்துள்ளனர். காலையில் தொழுகை
செய்ய மசூதிக்கு புறப்பட்ட அசமை போலீசார் அழைத்துச் சென்று சுட்டுக்கொன்று விட்டதாக
அவரது தாயார் கூறியுள்ளார். எது உண்மை என்று புரியாமல் ஐதராபாத் மக்கள்
விழிக்கிறார்கள். </p>

<p> </p>

<p> </p>

<p>வாகனத் தொடரை
வழிமறித்தனர்; தீவிரவாதிகள் திடீர் தாக்குதல்: காஷ்மீர் மந்திரி உயிர்தப்பினார்</p>

<p> </p>

<p>நகர், நவ.25- காஷ்மீரில் மந்திரி மீது தீவிரவாதிகள் தாக்குதல்
நடத்தினார்கள். அவர் அதிசயமாக உயிர் தப்பினார். </p><p>
</p><p>
தாக்குதல் தொடர்கிறது </p><p>
</p><p>
காஷ்மீரில் முப்தி முகமது சையத் முதல்வராக பதவியேற்ற பிறகும் தீவிரவாதிகள் தொடர்ந்து
தங்கள் கைவரிசையை காட்டி வருகிறார்கள். மத்திய ரிசர்வ் படை, எல்லைப் பாதுகாப்புப்படை
முகாம்கள் மீது அவர்கள் தாக்குதல் தொடுக்கிறார்கள். கண்ணிவெடி தாக்குதல்களும் நடந்து
வருகின்றன. </p><p>
</p><p>
காங். மந்திரி </p><p>
</p><p>
இந்தநிலையில் காஷ்மீர் மந்திரி மீதும் நேற்று தீவிரவாதிகள் தாக்குதல் நடந்தது.
காஷ்மீர் கூட்டணி மந்திரிசபையில் ஊரக மேம்பாட்டு மந்திரியாக இருப்பவர் பீர்சாதா முகமது
சையத். நேற்றுமுன்தினம் மாலை நேரம் இவர் தெற்கு காஷ்மீரில் உள்ள அவரது தொகுதியைக் காண
வாகனத்தில் சென்றார். பாதுகாப்புப் படையினரும் உடன்சென்றார்கள். </p><p>
</p><p>
உயிர் தப்பினார் </p><p>
</p><p>
அப்போது சாலையோரம் மறைந்திருந்த தீவிரவாதிகள் அவரது வாகனத்தை நோக்கி சரமாரி
சுட்டார்கள். அதில் மந்திரி அதிசயமாக உயிர் தப்பினார். அவரது பாதுகாப்புக்காக
வந்திருந்த 3 போலீசார் பயந்துபோய் ஜீப்பில் இருந்து குதித்ததால் காயம் அடைந்தார்கள். </p><p>
</p><p>
அல்-நஸ்ரீன் இயக்கம் </p><p>
</p><p>
இந்த தாக்குதலில் யாருக்கும் உயிர்ச் சேதம் ஏற்படவில்லை. அல்-நஸ்ரீம் என்ற அதிகம்
பிரபலமடையாத ஒரு இயக்கம் இந்த தாக்குதலுக்கு உரிமை கோரியுள்ளது. காஷ்மீரில் உள்ள காங்.
மந்திரிகளின் உயிர்களுக்கு பாதுகாப்பு கிடையாது என்று அது எச்சரித்துள்ளது. புதிய அரசு
பதவியேற்ற பின் மந்திரி ஒருவர் மீது தாக்குதல் நடப்பது இதுவே முதன்முறை ஆகும். </p><p>
</p><p>
12 பேர் பலி </p><p>
</p><p>
இதனிடையே காஷ்மீரில் நேற்று நடந்த தனித்தனி சம்பவங்களில் 12 பேர் பலியானார்கள். </p><p>
</p><p>
அதில் 6 பேர் தீவிரவாதிகள் ஆவார்கள். </p><p>
</p><p>
இதுதவிர ராஜூரி, பூன்ஞ் மாவட்டத்தைச் சேர்ந்த சிறப்பு போலீஸ் படைவீரர்கள் 3
பேர் தீவிரவாதிகளின் துப்பாக்கி குண்டுக்கு பலியானார்கள். போலீசுக்கு உளவு சொன்னதாக
கூறி மேலும் 2 பொதுமக்களை தீவிரவாதிகள் சுட்டுக்கொன்றார்கள். </p><p>
</p><p>
வீரர் சாவு </p><p>
</p><p>
எல்லைப் பாதுகாப்புப்படை முகாம்மீது தீவிரவாதிகள் ஏற்கனவே நடத்திய தாக்கு தலில் காயம் அடைந்த
வீரர் ஒருவர் சிகிச்சை பலன் தராமல் நேற்று மரணத்தை தழுவினார். இதன்மூலம் காஷ்மீரில்
நேற்று பலியானோர் எண்ணிக்கை 6 ஆக உயர்ந்தது. </p>

<p> </p>

<p> </p>

<p>தொற்றுநோய் ஒழிக்க தீவிர
நடவடிக்கை: மத்திய அமைச்சர் ராஜா பேச்சு</p>

<p> </p>

<p>புதுடெல்லி, நவ. 25- தொற்று நோயை முற்றிலுமாக ஒழிக்க மத்திய
அரசு தீவிர நடவடிக்கை எடுத்து வருகிறது என்று அமைச்சர் ஆ.ராஜா கூறினார். </p><p>
</p><p>
புதிய திட்டம் </p><p>
</p><p>
டெல்லியில் தேசிய மலேரியா மற்றும் இதர தொற்று நோய்கள் ஆராய்ச்சி சங்க மாநாடு
நடைபெற்றது. அதை மத்திய சுகாதாரத்துறை இணை அமைச்சர் ஆ.ராஜா தொடங்கி வைத்து பேசினார். </p><p>
</p><p>
அப்போது அவர் கூறியதாவது:- </p><p>
</p><p>
அண்மையில் வௌியிடப்பட்ட தேசிய சுகாதாரகொள்கையின் கீழ் நாட்டில் வேகமாகப் பரவி வரும்
யானைக்கால் நோய், மலேரியா, எலும்புருக்கி நோய் உட்பட பல தொற்று நோய்களை 2010-ம்
ஆண்டுக்குள் அறவே ஒழித்துவிட மத்திய அரசு முயற்சிகள் எடுத்து வருகின்றது. இதற்காக நாடு முழுவதும்
தொற்று நோய் குறித்து சர்வே மற்றும் ஆய்வு மேற்கொள்ளவும் நோய்கள் பரவுவதன் மீது கண்
காணிப்பைபலப்படுத்தவும் தேசிய தொற்றுநோய் ஆராய்ச்சிக்கழகம் புதிய திட்டங்களைத்
தீட்டி செயல்படுத்தி வருகிறது. </p><p>
</p><p>
யானைக்கால் நோய் </p><p>
</p><p>
உலகில் ஒவ்வொரு ஆண்டும் எலும்புருக்கி நோய்க்கு ஆளாகும் 87 லட்சம் மக்களில், 22 லட்சம்
மக்கள் இந்தியாவைச் சேர்ந்தவர்கள். இந்தியாவில் தற்போது 40 லட்சம் மக்கள்
எய்ட்ஸ்/எச்.ஐ.வி. நோயால் பாதிக்கப்பட்டிருக்கிறார்கள். உலகளவில் இந்நோயால்
பாதிக்கப்பட்ட மக்களுடன் ஒப்பிடும்போது இது 10 விழுக்காடு ஆகும். இதேபோல உலகளவில் 4
கோடி மக்கள் யானைக்கால் நோயால் பாதிக்கப்பட்டி ருக்கிறார்கள். இந்தியாவில் மட்டும்
20 லட்சம் மக்கள் இக்கொடிய நோயால் பாதிக்கப்பட்டிருக்கிறார்கள். </p><p>
</p><p>
கூடுதல் நிதி </p><p>
</p><p>
உலகளவில் தொற்று நோயால் பாதிக்கப்படும் மக்கள் தொகையுடன் ஒப்பிடும்போது
இந்தியாவில் கணிசமான அளவு மக்கள் அனைத்து விதமான தொற்று நோய் களாலும்
பாதிக்கப்பட்டுள்ளது தெரிய வருகிறது. உலகின் பிற நாடுகளோடு ஒப்பிட்டுப் பார்க்கும்போது
சுகாதாரத் துறைக்கான நிதி ஒதுக்கீடு இந்தியாவை பொறுத்துவரை, தேசிய மொத்த பங்கீட்டு
குறியீட்டில் 0.9 விழுக்காடு மட்டுமே உள்ளது. அண்மையில் தேசிய ஜனநாயக முன்னணியின் அரசால்
அறிவிக்கப்பட்ட தேசிய சுகாதார கொள்கையின் கீழ், சுகாதாரத்துறையின் திட்டங்களுக்காக 6
விழுக்காடு நிதி ஓதுக்கீடு செய்வது எனவும், இதில் பொது சுகாதாரத் திட்்டங்களுக்காக மட்டுமே
2 விழுக்காடு நிதி ஒதுக்கீடு செய்வது எனவும் தீர்மானம் செய்யப்பட்டுள்ளது. </p><p>
</p><p>
முற்றிலும் ஒழிப்பு </p><p>
</p><p>
இத்தகைய கூடுதல் நிதி ஒதுக்கீட்டின் மூலம், தொற்று நோய்கள் குறித்து ஆய்வு செய்யவும்,
அதன் மூலம் இந்நோய்கள் மேலும் பரவாமல் இருக்க எடுக்கப்பட வேண்டிய நடவடிக்கைகளும்
துரிதப்படுத்தப்படும். இதனால் 2005-ம் ஆண்டுக்குள் போலியோ மற்றும் தொற்றுநோய் நாட்டில்
முற்றிலும் ஓழிக்கப்பட்டு விடும். அதே போல, 2007-ஆம் ஆண்டில் புதிதாக எய்ட்ஸ் நோய்
பரவுவது அறவே ஒழிக் கப்பட்டிருக்கும். யானைக்கால் நோய் 2015-ஆம் ஆண்டுக்குள்ளும்,
மலேரியா மற்றும் எலும்புருக்கி நோய்கள் 2010-ஆம்ஆண்டுக்குள்ளும் அறவே ஒழிக்கப்பட்டு
விடும் </p><p>
</p><p>
இவ்வாறு அவர் கூறினார். </p>

<p> </p>

<p> </p>

<p>மேற்கு வங்கம் நோக்கி
புயல் நகர்ந்தது; சென்னை மீண்டும் தப்பியது</p>

<p> </p>

<p>கொல்கத்தா, நவ.25- வங்கக் கடலில் உருவான புயல் சின்னம் மேற்கு
வங்கம் நோக்கி நகரத் தொடங்கியது. இன்று புயல் கரையை கடக்கும் என்று வானிலை ஆராய்ச்சி
மையம் அறிவித்துள்ளது. இதனால் சென்னைக்கு ஆபத்து இல்லை. </p><p>
</p><p>
சென்னை அருகே... </p><p>
</p><p>
தென்கிழக்கு வங்கக் கடலில் சென்னையில் இருந்து 800 கி.மீ. தொலைவில் நேற்று முன்தினம்
குறைந்த காற்றழுத்த மண்டலம் உருவானது அல்லவா? அது புயல் சின்னமாக மாறி வட தெற்கு திசை
நோக்கி நகரக்கூடும். இதனால் தமிழகம் மற்றும் புதுவையில் 2 நாள் பலத்த மழை பெய்யும்
என்று வானிலை ஆராய்ச்சி மையம் எச்சரிக்கை விடுத்து இருந்தது. </p><p>
</p><p>
நேற்று அந்த புயல் சின்னம் வடக்கு மற்றும் வடதெற்கு திசை நோக்கி நகரத் தொடங்கியது. அது
மேலும் வலுவடைந்து ஒரிசா அல்லது மேற்கு வங்க மாநில கடற்கரை பகுதிகளில் இன்று மாலை கரையை
கடக்கலாம் என்று கொல்கத்தாவில் உள்ள வானிலை ஆராய்ச்சி மையம் அறிவித்துள்ளது. புயல்
கரையை கடக்கும் போது சுமார் 60 முதல் 70 கி.மீ. வேகத்தில் காற்று வீசக்கூடும், கடல்
பெரும் கொந்தளிப்பாக இருக்கும் என்பதால் மேற்கு வங்கத்தில் கிழக்கு மிட்னாபூர், மற்றும்
தெற்கு மாவட்டங்களைச் சேர்ந்த மீனவர்கள் மீன்பிடிக்க செல்ல வேண்டாம் என்று கேட்டுக்
கொள்ளப்பட்டு உள்ளனர். </p><p>
</p><p>
உஷார் நிலை </p><p>
</p><p>
கடந்த முறை வங்கக் கடலில் உருவான புயல் மேற்கு வங்க மாநிலம் மிட்னாபூரில் தான் கரையை
கடந்தது. அப்போது அடித்த புயல் காற்றினாலும், கடல் கொந்தளிப்பாலும் சுமார் 100
மீனவர்கள் பலியானார்கள் என்பது குறிப்பிடத்தக்கது. எனவே மேற்கு வங்கம் மற்றும் ஒரிசா
மாநில கடலோர காவல் படையினர் உஷார்படுத்தப்பட்டுள்ளனர். </p>

<p> </p>

<p> </p>

<p>லலிதா காமேஸ்வரன்
காலமானார்: கருணாநிதி- ஜெ. இரங்கல்</p>

<p> </p>

<p>சென்னை, நவ.25- டாக்டர் லலிதா காமேஸ்வரன் நேற்று சென்னையில் காலமானார்.
அவரது மறைவிற்கு தி.மு.க.தலைவர் கருணாநிதி, முதல் மந்திரி ஜெயலலிதா ஆகியோர் இரங்கல்
தெரிவித்து உள்ளனர். </p><p>
</p><p>
காலமானார் </p><p>
</p><p>
தமிழ்நாடு டாக்டர் எம்.ஜி.ஆர். மருத்துவ பல்கலைக்கழகம் மற்றும் ராமச்சந்திரா
மருத்துவக்கல்லூரி மற்றும் ஆய்வு நிறுவன முதல் துணைவேந்தர் டாக்டர் லலிதா காமேஸ்வரன்
நேற்று சென் னையில் உள்ள ஒரு தனியார் மருத்துவமனையில் கால மானார். </p><p>
</p><p>
டாக்டர் லலிதா காமேஸ்வரன், நாவலர் சோமசுந்தர பாரதியின் மகள் ஆவார். ஸ்டேன்லி
மருத்துவக் கல்லூரியில் தனது மருத்துவ படிப்பை முடித்த அவர் பிறகு லண்டன் பல்கலைக்கழகத்தில்
முதுநிலை ஆராய்ச்சி மருத்துவபடிப்பை முடித்தார். </p><p>
</p><p>
முதல் பெண் முதல்வர் </p><p>
</p><p>
பிறகு மதுரை மற்றும் சென்னை மருத்துவக் கல்லூரிகளில் மருந்தியல் பேராசிரியராக
பணியாற்றினார். சென்னை மருத்துவக் கல்லூரியின் முதல் பெண் முதல்வராகவும், மருத்துவக்
கல்வித்துறை முதல் பெண் இயக்குநராகவும் திறம்பட பணியாற்றிய பெருமை இவரைச் சாரும். தமிழக
அரசின் மாநில திட்டக்குழு உறுப்பினராகவும் நியமிக்கப்பட்டார். </p><p>
</p><p>
லலிதா காமேஸ்வரன் கணவர் பேராசிரியர் காமேஸ்வரன் பத்ம பட்டம் பெற்றவர். இவர்களுக்கு
சென்னை காது மூக்கு, தொண்டை ஆராய்ச்சி நிறுவன இயக்குநர் டாக்டர் மோகன் காமேஸ்வரன்
என்ற மகனும் டாக்டர் சித்ரா சங்கரன் என்ற மகளும் உள்ளனர். </p><p>
</p><p>
கருணாநிதி இரங்கல் </p><p>
</p><p>
டாக்டர் லலிதா காமேஸ்வரன் மறைவு குறித்து தி.மு.க. தலைவர் கருணாநிதி வௌி யிட்ட
இரங்கல் செய்தியில் கூறி உள்ளதாவது: </p><p>
</p><p>
நாவலர் சோமசுந்தர பாரதியின் மகளும் என்னிடம் தனிச்செயலாளராகப் பணி புரிந்த லட்சுமி
காந்தன் பாரதி ஐ.ஏ.எஸ்.சின் சிறிய தாயாரும், மருத்துவத் துறையில் அரசுப் பணிகளில் பல
ஆண்டு காலம் திறம்பட பணி புரிந்தவருமான லலிதா காமேஸ்வரன் இன்று (நேற்று) இயற்கை எய்திய
செய்தியினை அறிந்து மிகவும் வருந்து கிறேன். அவரது அன்புக் கண வர் பிரபல டாக்டர்
பேராசிரியர் காமேஸ்வரனுக்கும், அன்பு மகன் டாக்டர் மோகன் காமேஸ்வரன், அன்பு மகள்
சித்ரா சங்கரன் ஆகியோ ருக்கும் எனது ஆழ்ந்த இரங்கலைத் தெரிவித்துக் கொள்கிறேன். </p><p>
</p><p>
பெரும் புகழ் ஈட்டியவர் </p><p>
</p><p>
டாக்டர் லலிதா காமேஸ்வரன் மிகச்சிறந்த டாக்டராகப் பணியாற்றியதோடு நிர்வாக
அடிப்படையிலே துணை வேந்தராகவும், சென்னை மருத்துவக் கல்லூரியின் முதல் பெண் முதல்வராகவும்,
மருத்துவக் கல்வித் துறையின் முதல் பெண் இயக்குநராகவும் பணியாற்றி தனக்கென பெரும் புகழ்
ஈட்டியவர். </p><p>
</p><p>
அவரை இழந்து வருத்தத்தில் ஆழ்ந்துள்ள அவருடைய குடும்பத்தினர் அனைவருக் கும் என்னுடைய ஆழ்ந்த
இரங்கலைத் தெரிவித்துக் கொள்கிறேன். </p><p>
</p><p>
இவ்வாறு அவர் கூறி உள் ளார். </p><p>
</p><p>
ஜெயலலிதா </p><p>
</p><p>
லலிதா காமேஸ்வரனின் கணவர் காமேஸ்வரனுக்கு முதல் மந்திரி ஜெயலலிதா எழுதி உள்ள கடிதத்தில்
கூறி உள்ளதாவது: </p><p>
</p><p>
டாக்டர் லலிதா காமேஸ்வரன் மறைந்த செய்தி கேட்டு மிகுந்த அதிர்ச்சியும் மன வருத்தமும்
அடைந்தேன். மருத்துவத் துறைக்கு அவர் ஆற்றியுள்ள தொண்டு அத் துறைக்குப் பல பெருமைகளைச் சேர்த்து
உள்ளது. அவரது மறைவு தங்களுக்கு மட்டுமின்றி மருத்துவத்துறைக்கும் தமிழகத்திற்கும் ஏற்பட்ட
மிகப்பெரிய இழப்பு ஆகும். </p><p>
</p><p>
இவ்வாறு அவர் கூறி உள்ளார். </p>

<p> </p>

<p> </p>

<p>தாயிடமிருந்து குழந்்தைக்கு
எய்ட்ஸ் பரவாமல் தடுப்பது எப்படி? சென்னை பயிலரங்கில் ஆய்வு</p>

<p> </p>

<p>சென்னை, நவ. 25- தாயிடமிருந்து குழந்தைக்கு எய்ட்ஸ் நோய்
பரவாமல் தடுப்பது எப்படி என்று சென்னை பயிலரங்கில் ஆய்வு செய்யப்பட்டது. </p><p>
</p><p>
மாநில பயிலரங்கம் </p><p>
</p><p>
இந்திய குழந்தைகள் மருத்துவர் சங்கத்தின் தமிழ் நாடு கிளை சார்பில் எய்ட்ஸ் நோய்
பற்றிய மாநில அளவி லான பயிலரங்கம் நேற்று காலை முதல் மாலை வரை சென்னை தாஜ்
கோரமண்டல் ஓட்டலில் நடந்தது. தமிழ்நாடு கிளை தலைவர் டாக்டர் எம்.பி.ஜெயபால்
தொடங்கி வைத்தார். டாக்டர்கள் என்.எட்வின், நிதின் கே.ஷா, ஏ.பார்த்தசாரதி
ஆகியோர் வாழ்த்திப் பேசினார்கள். </p><p>
</p><p>
சங்க செயலாளர் டாக்டர் டி.குணசிங் வரவேற்றார். பின்னர் பல்வேறு தலைப்பு களில்
டாக்டர்கள் விளக்க வுரையாற்றினர்். சிலைடுகள் மூலம் அவர்கள் எய்ட்ஸ் பற்றிய
ஆய்வுக்கட்டுரைகளை விளக்கினர். </p><p>
</p><p>
வளரும்நாடுகளில்.. </p><p>
</p><p>
இதுகுறித்து டாக்டர் குணசிங் நிருபர்களிடம் கூறியதாவது:- </p><p>
</p><p>
கடந்த 2001-ம் ஆண்டு 30 லட்சம் பேர் எய்ட்ஸ் நோயால் இறந்துள்ளனர். இவர்களில் 5
லட்சத்து 80 ஆயிரம் பேர் ஒரு பாவமும் அறியாத குழந்தைகள் ஆகும். 2001-ல் ஒவ்வொரு நாளும்
14 ஆயிரம் பேர் எச்.ஐ.வி. கிருமியால் தாக்கப் பட்டுள்ளனர். இதில் 95 சதவீதம் பேர்
இந்தியா போன்ற வளர்ந்து வரும் நாடுகளைச் சேர்ந்தவர்கள் ஆவர். 90 சதவீதம் குழந்தைகளுக்கு
பாதிக்கப்பட்ட தாயிடமிருந்து எய்ட்ஸ் பரவுகிறது. </p><p>
</p><p>
இந்தியாவில் 40 லட்சம்பேர் </p><p>
</p><p>
போதை ஊசி, பாதுகாப் பற்ற உடலுறவு ஆகியவற்றால் விடலைப்பருவத்தினரிடம் இந்த நோய் அதிக
அளவில் பரவுகிறது. இந்தியாவில் சுமார் 40 லட்சம்பேருக்கு எய்ட்ஸ் இருப்பதாக
கூறப்பட்டாலும் இதுவரை 1 லட்சம் நோயாளிகளே கண்டுபிடிக்கப்பட்டுள்ளனர். மத்திய எய்ட்ஸ்
கட்டுப்பாடு சங்கத்தின் கணக்கெடுப்பின் படி 2002 அக்டோபர் வரை இந்தியாவில் 41 ஆயிரத்து
606 எய்டஸ் நோயாளிகள் உள்ளனர். இதில் 31 ஆயிரத்து 230 பேர் ஆண்கள். 10 ஆயிரத்து 376
பேர் பெண்கள். </p><p>
</p><p>
சென்னை - சேலத்தில் </p><p>
</p><p>
தமிழ்நாட்டில் 18 ஆயிரத்து 276 எய்ட்ஸ் நோயாளிகள் உள்ளனர். தமிழ்நாடு அரசு எய்ட்ஸ்
கட்டுப்பாடு சங்க கணக்கின்படி 2002 செப்டம்பர் வரை இங்கு 22 ஆயிரத்து 826 எய்ட்ஸ்
நோயாளிகள் உள்ளனர். இதில் சென்னை, மதுரை, நாமக்கல், திருச்சி, சேலம், கோவை, நெல்லை
மாவட்டத்தைச் சேர்ந்தவர்களே அதிகம். </p><p>
</p><p>
3 நிமிடத்தில் ஒருவர் பலி </p><p>
</p><p>
சென்னை தாம்பரம் காசநோய் மருத்துவமனையில் 2002 நவம்பர் மாதத்தல் 300 பேர்
உள்நோயாளிகளாக உள்ளனர். தினமும் புற நோயாளிகளாக 400 பேர் சிகிச்சை பெறுகிறார்கள்.
ஒய்.ஆர்.ஜி. கேர் சென்டர் என்ற தனியார் மருத்துவமனையில் 13 ஆயிரத்துக்கும் மேற்பட்ட
எய்ட்ஸ் நோயாளிகள் இதுவரை சிகிச்சை பெற்றுள்ளனர். அடுத்த 10, 15 வருடத்தில்
இந்தியாவில் தினமும் 10 ஆயிரத்துக்கும் மேற்பட்டவர் கள் எய்ட்ஸ் நோயால் இறப்பார்கள்
என்று தெரிகிறது. தற்சமயம் உலகில் 3 நிமிடத் துக்கு ஒருவர் எய்ட்ஸ் நோயால்
இறக்கிறார்கள். </p><p>
</p><p>
தாயிடமிருந்து 3 வழியில் </p><p>
</p><p>
தாயிடமிருந்து 3 வழிகளில் குழந்தைகளுக்கு எய்ட்ஸ் வருகிறது. குழந்தை தாயின் வயிற்றில்
கருவாக இருக்கும் போது, தாயின் பிறப்புறுப்பின்வழியாக குழந்தை பிறக்கும்போது, குழந்தை
பிறந்தபின் தாய்ப்பால் குடிக்கும்போது என 3 வழிகளில் குழந்தைகளுக்கு எய்ட்ஸ் பரவுகிறது. </p><p>
</p><p>
தாய்ப்பால் வழியாக 20 முதல் 30 சதவீதம் குழந்தைகளுக்கு எய்ட்ஸ் பரவுவதாக
கண்டறியப்பட்டுள்ளது. தாய்க்கு சத்துணவு குறைவாக இருந்தாலும் குழந்தைக்கு எய்ட்ஸ் வேகமாக
பரவும் வாய்ப்பு உள்ளது. முழுமையான எய்ட்ஸ் நோய் உள்ள தாய்க்கு பிறக்கும் குழந்தை அதிக
அளவில் எய்ட்சால் பாதிக்கப்படும். </p><p>
</p><p>
தடுப்பது எப்படி? </p><p>
</p><p>
இப்படிப்பாதிக்கப்பட்ட குழந்தைகள் ஒன்றேமுக்கால் வயதுக்குள் எய்ட்ஸ் நோயின் அறிகுறிகள்
தெரிய வந்து 3 வயதுக்குள் இறந்துவிடுகின்றன. தாயிடமிருந்து குழந் தைக்கு எய்ட்்்ஸ் நோய்
வராமல் தடுக்க இப்போது புதிய வழிமுறைகள் கண்டுபிடிக்கப்பட்டுள்ளன. </p><p>
</p><p>
அது வருமாறு:- </p><p>
</p><p>
1) பெண்கள் திருமண மாவதற்கு முன் எச்.ஐ.வி. பரிசோதனை செய்து கொண்டு, எச்.ஐ.வி.
இருந்தால் திருமணம் செய்வதை தவிர்க்கலாம். </p><p>
</p><p>
2) அப்படி திருமணம் செய்து கொண்டு கருவுற்றபின் எச்.ஐ.வி. பாதிப்பு தெரிய வந்தால்
கருக்கலைப்பு செய்து விடலாம். </p><p>
</p><p>
மருந்து- மாத்திரை </p><p>
</p><p>
3) ஜிடோலிடின் என்ற மாத்திரையை கருவுற்ற 3 மாதத்திலிருந்து குழந்தை பிறக்கும்வரை
எச்.ஐ.வி. பாதித்த தாய் சாப்பிட வேண்டும். </p><p>
</p><p>
4) குழந்தை பிறந்த பிறகும் இந்த மாத்திரையை 1 1/2 மாதம் வரை கொடுக்க வேண்டும். </p><p>
</p><p>
5) குழந்தை பிறக்கும் நேரம் வரும்போது, தாய்க்கு எச்.ஐ.வி. பாதித்திருப்பது தெரிய
வந்தால் நெவிரபைன் என்ற மருந்தை அந்த தாய்க்கு கொடுக்க வேண்டும். பிறந்த குழந்தைக்கும்
அந்த மருந்தை கொடுக்க வேண்டும். </p><p>
</p><p>
6) இந்தமருந்துகள் எல்லா அரசுபொது மருத்துவமனையிலும் தற்போது இலவச மாகவே கிடைக்கிறது. </p><p>
</p><p>
இவ்வாறு அவர் கூறினார். </p><p>
</p><p>
இந்த பயிலரங்கில் தமிழ்நாடு முழுவதும் இருந்து 100 டாக்டர்கள் கலந்து கொண்டனர். </p>

<p> </p>

<p> </p>

<p>ராஜ்குமாரை விடுவித்தபோது
வீரப்பனுக்கு பணம் தரவில்லை; நக்கீரன் கோபால் மறுப்பு</p>

<p> </p>

<p>சென்னை, நவ. 25- ராஜ்குமாரை மீட்பதற்கு பணம் எதுவும்
கொடுக்கவில்லை என்று நக்கீரன் கோபால் கூறி உள்ளார். </p><p>
</p><p>
்்சுத்தப்பொய் </p><p>
</p><p>
நக்கீரன் கோபால் வௌியிட்டுள்ள ஒரு அறிக்கையில் கூறி இருப்பதாவது:- </p><p>
</p><p>
கர்நாடக முன்னாள் டி.ஜி.பி. சி.தினகர் தன்னுடைய வீரப்பன் பிடித்த பரிசு - ராஜ்குமார்
என்ற புத்தகம், கொனார்க் பப்ளிகேஷன் மூலம் டெல்லியில் வௌி யிடப்படும் நிலையில்
பெங்களூரில் பேட்டி கொடுத்து இருக்கிறார். அவரது பத்திரிகை செய்தியில் எனக்கு எதிராக
அவதூறாகவும், களங்கப்படுத்தும் வகையிலும் உள்நோக்கத்துடன் பொய்சொல்லி இருக்கிறார். </p><p>
</p><p>
முற்றிலும் மறுக்கிறேன் </p><p>
</p><p>
ராஜ்குமார் மீட்பு விவகாரத்தில் அரசு தூதரான என்னை பண விவகாரங்களில் தொடர்புபடுத்தி
இருக்கிறார். இந்த விஷயத்தை நான் முற்றிலும் மறுக்கிறேன். </p><p>
</p><p>
அவரது பேட்டி தமிழ் நாளிதழ்கள் மற்றும் ஜெயா டி.வி. தமிழ் சேனலில் வந்துள்ளது.
சி.தினகர், ஜெயா டி.வி. மற்றும் நாளிதழ்களுக்கு நான் மறுப்பு தந்தி அனுப்பி இருக்கிறேன்.
எனக்கு ஏற்பட்ட இழப்பை ஈடு செய்ய அவர்கள் மன்னிப்பு கேட்க வேண்டும். </p><p>
</p><p>
சட்ட நடவடிக்கை </p><p>
</p><p>
சம்பந்தப்பட்ட புத்தகத்தை வௌியிடும் பப்ளிகேஷன், அவதூறான கருத்துக்களை நீக்க வேண்டும்
என்றும் தந்தி கொடுத்து இருக்கிறேன். என்னை களங்கப்படுத்தும் தகவலுடன் புத்தகத்தை
வௌியிடக்கூடாது என்று கேட்டு இருக்கிறேன். அதற்கு உட்படாவிட்டால், சட்ட நடவடிக்கை
எடுப்பேன் என்றும் எச்சரித்து இருக்கிறேன். </p><p>
</p><p>
இவ்வாறு கூறி உள்ளார். </p>

<p> </p>

<p> </p>

<p>டாக்டர் ராமதாஸ் பேட்டி:
குளத்தூர் மணியை தூது அனுப்பினால் நாகப்பாவை எளிதில் மீட்டு வரலாம்</p>

<p> </p>

<p>திருச்சி,நவ.25-
குளத்தூர் மணியை தூது அனுப்பினால் நாகப்பாவை எளிதில் மீட்டுவரலாம் என்று திருச்சியில்
பா.ம.க. நிறுவனர் டாக்டர் ராமதாஸ் கூறினார். </p><p>
</p><p>
பா.ம.க. நிறுவனர் டாக்டர் ராமதாஸ் நேற்று(ஞாயிறு) திருச்சியில் நிருபர்களுக்கு பேட்டி
அளித்தார். </p><p>
</p><p>
அப்போது அவர் கூறியதாவது:- </p><p>
</p><p>
தமிழகத்தில் குடிநீர் கட்டணம் உயர்த்தப்பட்டுள்ளது. இது அநியாயம். இந்த ஆட்சியில்
நடப்பது எல்லாம் அநியாயம்.அரசு பஸ் களை தனியார் மயமாக்கக் கூடாது. அரசு பஸ்கள் லாபத்
தில் இயங்குவதாக அந்த துறை மந்திரி அறிவித்தார். லாபத்தில் இயங்கும் வழித்தடங்களையும்
தனியாருக்கு கொடுக்கப்போகிறார்களா?புதிய வழித்தடங்கள் நிறைய தொடங்கப்பட உள்ளது.
அதனை தனியாருக்கு கொடுக்க லாமே.ஆனாலும் தனியார் மயமாக்குவது எங்களது கொள்கை அல்ல. </p><p>
</p><p>
செங்கல்வராயன் அறக்கட்டளை மிகவும் பிற்படுத்தப்பட்ட சமுதாயத்தைச் சேர்ந்த மக்களுக்கு
உதவுவதற்காக செங்கல்வராயன் நாயக்கர் என்பவரால் தொடங்கி பச்சையப்பன் முதலியார்
அறக்கட்டளையோடு இணைந்து செயல் பட்டு வந்தது. </p><p>
</p><p>
இதைப்பிரித்து முழுக்க, முழுக்க வன்னிய சமுதாயத்தில் கல்வியில் பின்தங்கியவர் களுக்காக
நான் உள்பட 4பேர் சுப்ரீம் கோர்ட்டுக்கு சென்று அதன்பிறகு தனியாக பிரிக்கப் பட்டது.அந்த
எண்ணம் நிறை வேறும் வகையில் சட்ட ரீதியாக போராடி வருகிறோம். வழக்கு கோர்ட்டில்
இருப்பதால் அதற்குமேல் ஒன்றும் சொல்ல முடியாது. </p><p>
</p><p>
சாத்தான்குளம் தொகுதி இடைத்தேர்தலில் பா.ம.க. சார்பில் போட்டியிடவில்லை. நிச்சயமாக
அ.தி.மு.க.வை ஆதரிக்க மாட்டோம். ஆதரவு யாருக்கு என்பது வருகிற டிசம்பர் மாதம் 9-ந்தேதி
தைலாபுரத்தில் நடை பெறும் செயற்குழுவில் முடிவு செய்வோம். </p><p>
</p><p>
சந்தன கடத்தல் வீரப்பனுக்கு பணம் கொடுத்தது தொடர்பான புகாரில் தி.மு.க. தலைவர்
கலைஞர் சொல்வதை நம்பத் தான்வேண்டும். அந்த சமயத் தில் கர்நாடகாவில் டி.ஜி.பி.
யாக இருந்த தினகருக்கும், கர்நாடக முதல்வர் கிருஷ்ணா வுக்கும் கருத்து வேறுபாடு இருந்தது.
அப்போதே தினகர் ஓரங்கட்டப்பட்டார். அந்த அடிப்படையில் இந்த கருத்தை அவர்
கூறியிருக்கலாம். குளத்தூர் மணியை தூது அனுப் பினால் நாகப்பாவை எளிதாக மீட்டு வரலாம். </p><p>
</p><p>
கங்கை-காவிரி இணைப்புக்கு இன்னும் 20வருடம் ஆகும். அதனால் நதிகளை நாட்டுடமை ஆக்க
வேண்டும் .அப்படி செய்தால்தான் நதிகளை இணைத்தால்கூட பிரச்சினை வராது. </p><p>
</p><p>
தென்னக நதிகளை இணைக்க 10வருடம் ஆகும். அதனால் அதை செய்யலாம். காங்கை-காவிரி இணைப்பு
பணி ஒருபுறம் நடைபெற்றாலும் அதே நேரத்தில் தென்னக நதிகளை இணைக்கும் பணியும் ஒரு புறம்
நடைபெற வேண்டும். இதன்மூலம் புயல்,வௌ்ளம் போன்றவற்றால் வீணாகும் தண்ணீரை மற்ற
மாநிலங்களும் பயன்படுத்தலாம். </p><p>
</p><p>
இலவச மின்சாரம் ரத்து செய்வதை ஒருமித்த கருத்தோடு எதிர்க்க வேண்டும். அதற்கு பா.ம.க. முழு
ஒத்துழைப்பு கொடுக்கும். சேதுசமுத்திர திட்டம் 100வருடமாக பேசப்பட்டு வருகிறது. அந்த பணி
வாஜ்பாய் அரசில்தான் நடக்கிறது.மத்திய இணை அமைச்சர் திருநாவுக்கரசர் தீவிர முயற்சி
செய்து வருகிறார். அதற்காக மத்திய நிதி அமைச்சரை சந்தித்து பேசினேன். சேதுசமுத்திர
திட்டத்திற்கு நிதி ஒரு பிரச்சினை இல்லை என்று அவர் கூறினார்.இலங்கை அரசுடன் இந்த
திட்டத்திற்காக பேச்சுவார்த்தை நடத்த வேண்டியுள்ளது. அது முடிந்தவுடன் பணிகள் தொடங்கி
விடும். தமிழர் தேசிய இயக்க தலைவர் பழ.நெடுமாறனை சந்தித்து பேச முயற்சி செய்து
வருகிறேன். </p><p>
</p><p>
இவ்வாறு அவர் கூறினார். </p>

<p> </p>

<p>காவிரி பிரச்சினை ஓய்ந்த
பிறகே கர்நாடகாவில் தமிழ் திரைப்படம் - மந்திரி பேட்டி</p>

<p> </p>

<p>பெங்களூர், நவ. 25- காவிரி பிரச்சினை முழுவதுமாக ஓய்ந்த பிறகே
கர்நாடகாவில் தமிழ் திரைப்படங்கள் திரையிடப்பட நடவடிக்கை எடுக்கப்படும் என்று அம்மாநில
மந்திரி கூறியுள்ளார். </p><p>
</p><p>
தியேட்டர்களுக்கு தீ வைப்பு </p><p>
</p><p>
காவிரி பிரச்சினை கர்நாடகாவில் கலவரமாக வெடித்தபோது தமிழ் திரைப்படங்கள் ஓடிய
தியேட்டர்கள் சூறையாடப்பட்டு தீ வைத்து கொளுத்தப்பட்டன. இதையடுத்து அம்மாநிலத்தில்
தமிழ் படங்கள் திரையிடப்படுவது நிறுத்தப்பட்டது. மேலும் தமிழ் டி.வி. சேனல்களின்
ஒளிபரப்பும் நிறுத்தப்பட்டது. </p><p>
</p><p>
இதற்கு தீர்வு காண தமிழ் திரையுலகினர் தீவிர முயற்சி எடுத்து வருகின்றனர். எனினும் இது
விஷயத்தில் எவ்வித முன் னேற்றமும் ஏற்படவில்லை. </p><p>
</p><p>
மந்திரி பேட்டி </p><p>
</p><p>
கர்நாடக செய்திதுறை மந்திரி திம்மப்பா நேற்று பத்திரிகையாளர்களை சந்தித்தார்.
அப்போது இது குறித்து அவரிடம் கேட்டபோது அவர் அளித்த பதில் வருமாறு:- </p><p>
</p><p>
காவிரி பிரச்சினை கர்நாடக மக்களின் உணச்சிபூர்வ மான விஷயம். ஒரு சிறுபொறி கூட
தீப்பிழம்பாக மாறி விடும். எனவே இது விஷயத்தில் நாங்கள் எச்சரிக்கையுடன்
செயல்படுகிறோம். காவிரி பிரச்சினை முழுவதுமாக ஓய்ந்த பிறகு கர்நாடகாவில் தமிழ்
திரைப்படங்கள் திரையிடப்பட அரசு தரப்பில் நடவடிக்கை எடுக்கப்படும் </p><p>
</p><p>
இவ்வாறு கூறினார். </p>

<p> </p>

<p> </p>

<p>கர்நாடக முன்னாள் டி.ஜி.பி.
தினகர், கவர்னருடன் சந்திப்பு: பாதுகாப்பு கோரி மனு</p>

<p> </p>

<p>பெங்களூர்,நவ.25- கர்நாடக முன்னாள் போலீஸ் டி.ஜி.பி. தினகர்,
கவர்னரை சந்தித்து தனக்கு பாதுகாப்பு வழங்கக் கோரி மனு கொடுத்தார். </p><p>
</p><p>
முன்னாள் டி.ஜி.பி. </p><p>
</p><p>
கர்நாடக மாநில முன்னாள் போலீஸ் டி.ஜி.பி. தினகர் எழுதியுள்ள நடிகர் ராஜ்குமார் கடத்தல்
சம்பவம் பற்றிய புத்தகம் கர்நாடகத்தில் பெரும் பரபரப்பை ஏற்படுத்தி உள்ளது. சந்தன
வீரப்பனின் பிடியில் இருந்து நடிகர் ராஜ்குமாரை மீட்க ரூ.20கோடி வழங்கப்பட்டது என்று
அந்தப்புத்தகத்தில் தினகர் எழுதி உள்ளார். </p><p>
</p><p>
பாதுகாப்பு கோரி </p><p>
</p><p>
இந்த நிலையில் தினகர் தனக்கு பாதுகாப்பு வழங்க கோரி கவர்னரிடம் நேரில் சந்தித்து மனு
கொடுத்தார். அதன் பின்னர் வௌியே வந்த தினகர் நிருபர்களிடம் கூறியதாவது- </p><p>
</p><p>
எனது உயிருக்கும் உடைமைக்கும் பாதுகாப்பு வழங்கக்கோரி கவர்்னிடம் மனு கொடுத்து உள்ளேன்.
மேலும் சட்டத்தை தவறாக பயன்படுத்தி எனக்கு எந்தவித சித்ரவதையும் கொடுக்க
முயற்சிக்கக்கூடாது என்றும கவர்னரிடம் கேட்டு உள்ளேன். </p><p>
</p><p>
தயாராக </p><p>
</p><p>
ராஜ்குமார் கடத்தப்பட்ட போது வீரப்பனுக்கு பணம் வழங்கும் நடவடிக்கையில் நான்
கொஞ்சமும் சம்பந்தப்பட வில்லை. இந்தப்பணியை முதல்வர் கிருஷ்ணா முன்னின்று
நடத்தினார் . மேலும் நான் எந்த நடவடிக்கையும் எதிர்கொள்ள தயாராகவே இருக்கிறேன். எந்த
சூழ் நிலையிலும் விதிமுறைகளை மீறவில்லை </p><p>
</p><p>
இவ்வாறுஅவர் கூறினார். </p>

<p> </p>

<p> </p>

<p>உசிலம்பட்டி அருகே பஸ்கள்
நேருக்கு நேர் மோதல்: சிறுவன்-சிறுமி உள்பட 7 பேர் பலி - 40 பயணிகள் காயம்</p>

<p> </p>

<p>உசிலம்பட்டி, நவ. 25- உசிலம்பட்டி அருகே 2 அரசு பஸ்கள் நேருக்கு
நேர் மோதிக்கொண்டதில் ஒரு சிறுமி, ஒரு குழந்தை உள்பட 7 பேர் பலியாயினர். 40 பேர்
காயம் அடைந்தனர். </p><p>
</p><p>
பஸ்கள் மோதல் </p><p>
</p><p>
மதுரையிலிருந்து கம்பத் திற்கு நேற்று மாலை அரசு விரைவு பஸ் ஒன்று போய்க் ்கொண்டிருந்தது.
அதே போல் குமுளியிலிருந்து திண்டுக்கல் அரசு போக்குவரத்துக்கழக பஸ் ஒன்று மதுரை நோக்கி
வந்து கொண்டிருந்தது. 2 பஸ்களும் நேற்று மாலை 4.50 மணி அளவில் உசிலம்பட்டி அருகே உள்ள
வாடிகருப்பு கோவில் அருகே வரும்போது நேருக்கு நேர் மோதிக்கொண்டன. </p><p>
</p><p>
பஸ் பாகங்கள் சிதறியது </p><p>
</p><p>
இதனால் பஸ்களின் பாகங் கள் சிதறியது. அரசு விரைவு பஸ்சின் டிரைவர் சீட்டிலிருந்து கடைசி
வரை உள்ள சீட்டுகள் அனைத்தும் சிதைந்து நொறுங் கியது. </p><p>
</p><p>
திண்டுக்கல் அரசு பஸ் மோதிய வேகத்தில் ரோட்டின் மறு பக்கம் சென்று புளிய மரத்தில்
மோதி மரத்தை சாய்த்துவிட்டு நின்றது. பஸ்கள் வேகமாக வந்ததால் ஏற்பட்ட இந்த விபத்தில்
அரசு விரைவு பஸ்சில் வந்த பயணிகள் ரோட் டில் வீசி எறியப்பட்டனர். </p><p>
</p><p>
7 பேர் பலி </p><p>
</p><p>
இந்த விபத்தில் சம்பவ இடத்திலேயே 4 ஆண்களும், ஒரு சிறுமியும், துடிதுடித்து ரத்த
வௌ்ளத்தில் பிணமானார்கள். படுகாயம் அடைந்தவர்களில் சிலர் உசிலம்பட்டி அரசு
மருத்துவமனைக்கு கொண்டு செல்லப்பட்டனர். அங்கு ஒரு ஆணும், 2 வயது சிறுவனும் இறந்தனர்.
விபத்து நடந்த இடத்தை சுற்றிலும் ஒரே ரத்தமாகவும், உசிலம்பட்டி அரசு மருத்துவமனை விபத்து
பிரிவு முழுதும் ரத்தங்களாக வும் இருந்தது. </p><p>
</p><p>
40 பேர் காயம் </p><p>
</p><p>
இந்த விபத்தில் ஜெயந்தி, காமாட்சிசுந்தரம், முத்துராம லிங்கம், சிதம்பரம் செல்வம்,
கோவிந்தன், ராஜரெத்தினம், கணேசன் மகன் கோபால், குச்சனூர் கணேசனின் மனைவி சுமதி
உள்பட 40 பேர் பலத்த காயம் அடைந்தனர். காயம் அடைந்தவர்களில் 17 பேர் மதுரை அரசு
மருத்துவ மனையிலும் மற்றவர்கள் உசிலம்பட்டி அரசு மருத்துவ மனையிலும் அனுமதிக்கப்பட்டு
சிகிச்சை பெற்று வருகிறார்கள். </p><p>
</p><p>
டிரைவர்-எல்.ஐ.சி. ஊழியர் </p><p>
</p><p>
விபத்தில் இறந்த சிறுமியின் பெயர் ராஜேஸ்வரி (வயது 12) என்றும் இவர் போடியை சேர்ந்த
காளிமுத்து- ராமுத் தாய் ஆகியோரது மகள் என் றும் ராஜேஸ்வரி தனது தாய் ராமுத்தாயுடன்
பஸ்சில் வந்தவர் என்றும் தெரியவந்தது. </p><p>
</p><p>
இந்த விபத்தில் இறந்தவர் களில் ஆண்டிப்பட்டி அருகே உள்ள ராஜாக்காபட்டியை சேர்ந்த பரமேஸ்வரன்
மகன் சூரியபிரகாஷ் (வயது 2), தெப்பம்பட்டியை சேர்ந்த வேலப்பராஜா மற்றும் அருள் முருகன்,
ராயப்பன் பட்டியை சேர்ந்த சூசை, சுருளிராஜ் ஆகியோரின் அடையாளம் தெரியவந்தது. </p><p>
</p><p>
இவர்களில் வேலப்பராஜா மதுரை பொன்மேனி அரசு போக்குவரத்துக்கழக டெப்போ வில் டிரைவராக
வேலை பார்த்து வருகிறார். இவர் வேலையை முடித்துவிட்டு ஊருக்கு திரும்பிய போது விபத்தில்
சிக்கி பலியானார். மற்றொருவரான அருள் முருகன் என்பவர் தேனியை சேர்ந்தவர். இவர்
பெரியகுளம் ஆயுள் காப்பீட்டு கழகத்தில் வேலை பார்த்து வருகிறார். </p><p>
</p><p>
இறந்தவர்களில் இன்னும் ஒருவர் அடையாளம் தெரியவில்லை. </p><p>
</p><p>
அதிகாரிகள் விரைந்தனர் </p><p>
</p><p>
விபத்து பற்றி கேள்விப் பட்டதும் சம்பவ இடத்திற்கு உசிலம்பட்டி கோட்டாட்சி தலைவர்
அன்பழகன்,புறநகர் மாவட்ட போலீஸ் சூப்பிரண்டு அவிபிரகாஷ் சின்கா, உசிலம் பட்டி துணை
போலீஸ் சூப் பிரண்டு கோவிந்தராஜ் மற்றும் அதிகாரிகள் விரைந்து சென்று
பார்வையிட்டனர். காயம் அடைந்து உயிருக்கு போராடிய வர்களை அதிகாரிகள் மருத்துவ மனைக்கு
அனுப்பி வைத்து சிகிச்சை அளிக்க ஏற்பாடுகள் செய்தனர். </p><p>
</p><p>
பயணிகளின் ரத்த வௌ்ளத்தை பார்த்ததும் மயங்கி விட்டேன்; விபத்தில் காயமடைந்த பட்டாசு
ஊழியர் பேட்டி </p><p>
</p><p>
பஸ்கள் நேருக்கு நேர் மோதியதில் பயணிகள் ரத்த வௌ்ளத்தில் மிதந்தனர். இதனை பார்த்த
நான் மயக்கம் அடைந்தேன் என்று பட்டாசு கடை ஊழியர் கூறினார். </p><p>
</p><p>
கோர விபத்து </p><p>
</p><p>
உசிலம்பட்டி அருகே கோர நடந்த விபத்தில் 7 பேர் பலியானார்கள். இதில் 40 பேர் காயம்
அடைந்தனர். பலத்த காயம் அடைந்த ராஜக்கா பட்டியை சேர்ந்த பரமேஸ் வரன் மனைவி போதும்
பொண்ணு, பெரியகுளத்தை சேர்ந்த கோவிந்தன், வைர முத்து உள்பட 17 பேர் மதுரை அரசு
மருத்துவமனையில் சிகிச் சைக்காக அனுமதிக்கப் பட்டனர். </p><p>
</p><p>
விபத்து நடந்தது எப்படி? </p><p>
</p><p>
இந்த கோர விபத்தில் சிவகாசி திருத்தங்கல் ரோட் டில் வசிக்கும் பாஸ்கரன் மகன்
வைரமுத்து (வயது28) என்பவர் தலையில் பலத்த காயம் அடைந்தார். அவர் சிகிச்சைக ்காக மதுரை
அரசு மருத்துவ மனையில் அனுமதிக்கப்பட்டு உள்ளார். </p><p>
</p><p>
மோதல் </p><p>
</p><p>
விபத்து குறித்து வைர முத்து கூறியதாவது:- </p><p>
</p><p>
நான் சிவகாசியில் உள்ள ஒரு பட்டாசு கடையில் வேலை பார்த்து வருகிறேன். நான் மதுரையில்
இருந்து கம்பத்திற்கு சென்ற அரசு பஸ்சில் பயணம் செய்தேன். பஸ் உசிலம்பட்டி அருகே 7 கிலோ
மீட்டர் தூரத்தில் உள்ள வாடி கருப்பு கோவில் என்ற இடத்தின் அருகே வந்து கொண்டு
இருந்தது. அப்போது எதிரில் ஒரு பஸ் வந்தது. எதிர் பாராத விதமாக 2 பஸ்களும் கண் இமைக்கும்
நேரத்தில் நேருக்கு நேர் மோதிக் கொண்டன. </p><p>
</p><p>
மரண ஓலம் </p><p>
</p><p>
இந்த சம்பவத்தால் பஸ்சில் வந்த பயணிகள் அங்கும் இங்கும் தூக்கி எறியப்பட்டனர். பலர்
பஸ்சுக்கு வௌியே தூக்கி வீசப்பட்டனர். பஸ்சில் மரண ஓலம் ஒலித்தது. பயணிகள் னாஅய்யோ
அம்மா எனை அலறி னர். சிலர் பஸ்சிலேயே துடி துடித்து செத்தனர். நான் இருக்கையில் இருந்து
தூக்கி எறியப்பட்டேன். இதில் எனது தலையில் காயம் ஏற்பட்டு ரத்தம் கொட்டியது. </p><p>
</p><p>
மயங்கினேன் </p><p>
</p><p>
பஸ்சில் உள்ள பயணி களின் ரத்த வௌ்ளத்தை பார்த்ததும் மயங்கி விட்டேன். அதன் பிறகு
என்ன நடந்தது என்பது எனக்குத் தெரியாது. கண் விழித்து பார்த்த போது மதுரை அரசு
மருத்துவமனையில் இருந்தேன். </p><p>
</p><p>
இவ்வாறு அவர் கூறினார். </p>

<p> </p>

<p> </p>

<p>திட்டக்குடி அருகே
நள்ளிரவில் பயங்கரம்: மங்களூர் ஊராட்சி ஒன்றிய அ.தி.மு.க. கவுன்சிலர் அடித்துக்கொலை;
பெண் உள்பட 6 பேருக்கு வலை- பதட்டம்</p>

<p> </p>

<p>திட்டக்குடி, நவ.25 திட்டக்குடி அருகே அ.தி.மு.க. கவுன்சிலர்
அடித்துக்கொலை செய்யப்பட்டார். இது தொடர்பாக பெண் உள்பட 6 பேர் கொண்ட கும்பலை
போலீசார் வலைவீசி தேடி வருகின்றனர். </p><p>
</p><p>
திட்டக்குடியை அடுத்த கீழ் செருவாய் பகுதியைச்சேர்ந்தவர் ராமசாமி. இவரது மகன் விஜய
குமார்(வயது45). மங்களூர் ஊராட்சி ஒன்றிய அ.தி.மு.க. கவுன்சிலர். இதே ஊரைச்சேர்ந்த
மாதவன் என்பவரின் மகன்கள் ரவிச்சந்திரன் மற்றும் ராஜேந் திரன் ஆகியோர் ஆவர். ரவிச்
சந்திரனுக்கும், விஜயகுமாருக்கு மிடையே கடந்த 1991-ல் ஏற்பட்ட ஒரு தகராறு காரணமாக முன்
விரோதம் இருந்து வந்தது. இந் நிலையில் நேற்று முன்தினம் இரவு 8.30 மணிக்கு விஜயகுமார்
அவரது வீட்டில் இருந்தார். அப் போது ரவிச்சந்திரன், அவரது தம்பி ராஜேந்திரன் மற்றும்
அவரது நண்பர்களான பால முருகன், குணசேகரன், செந்தில், சுஜாதா உள்பட ஒரு கும்பல் விஜயகுமார்
வீட்டுக்கு வந்தது. </p><p>
</p><p>
பின்னர் ரவிச்சந்திரன் விஜயகுமாரை வௌியே அழைத்து தகராறு செய்தார். இதில்
ஆத்திரமடைந்த ரவிச் சந்திரன் கும்பல் தடி, கம்பு, சவுக்கு கட்டை, இரும்பு பைப் போன்ற
ஆயுதங் களால் சரமாரி யாக தாக்கினர். இதில் விஜய குமார் ரத்த வௌ்ளத்தில் அதே
இடத்தில் மயங்கி கீழே விழுந் தார். இதை தடுக்க முயன்ற விஜய குமாரின் தாயார்
சிவப்பிரகாசம், அண்ணன் மகாலிங்கம், அவ ரது மகன் கார்த்திகேயன், உறவினர்
சிவப்பிரகாசம் ஆகியோரும் காயமடைந்தனர். </p><p>
</p><p>
பின்னர் விஜயகுமாரை அவரது உறவினர்கள் சிகிச் சைக்காக கடலூர் அரசு பொது மருத்துவமனைக்கு
கொண்டு சென்றனர். ஆனால் செல்லும் வழியிலேயே விஜய குமார் பரிதாபமாக செத்தார். மேலும்
படுகாயமடைந்த விஜயகுமாரின் உறவினர்கள் அனைவரும் திட்டக்குடி அரசு பொது மருத்துவமனையில்
கிசிச்சை பெற்று வருகின்றனர். </p><p>
</p><p>
இதுகுறித்து தகவல் அறிந்த விருத்தாசலம் டி.எஸ்.பி. பால சுப்பிரமணியம், திட்டக்குடி
இன்ஸ்பெக்டர் சுந்தரவடிவேல், சப்-இன்ஸ்பெக்டர் தீபா மற்றும் போலீசார் சம்பவ இடத்துக்கு
விரைந்து வந்து விசாரணை நடத்தி வருகின்றனர். இது தொடர்பாக வழக்கு பதிவு செய்து
அ.தி.மு.க. கவுன்சிலரை அடித்துக்கொன்ற பெண் உள்பட 6 பேரை வலைவீசி தேடி வருகின்றனர்.
இறந்து போன விஜயகுமாரின் மனைவி விஜயா கடந்த சில ஆண்டுகளுக்கு முன் இறந்து விட்டார்.
அவருக்கு விஜயலட்சுமி(வயது14) என்ற மகளும், ரஜினிவிஜய் (வயது 12) என்ற மகனும் உள்ளனர். </p><p>
</p><p>
தகவல் அறிந்ததும் மாவட்ட அ.தி.மு.க. செயலாளர் ராமு எம்்.எல்.ஏ., பேரவை செயலாளர்
அருண்மொழிதேவன், நகர அ.தி.மு.க. செயலாளர் அரங்க நீதிமன்னன், நகர செயலாளர் மகேஸ்,
பேரவை துணை செய லாளர் ஆறுமுகம், தொழிற்சங்க துணை செயலாளர் ராஜவேல், பேரவை இணை
செயலாளர் ராஜவெங்கடேசன் உள்பட கட்சி பிரமுகர்கள் விஜயகுமாரின் குடும்பத்துக்கு ஆறுதல்
கூறினர். மேலும் அசம்பாவிதம் ஏதும் ஏற்படாமல் இருக்க போலீசார் ரோந்து சுற்றி
வருகின்றனர். </p>

<p> </p>

<p> </p>

<p>மாளிகை புறத்தம்மன்
கோவிலில் பகவதி சேவை - சிறப்பு பூஜை தொடக்கம்</p>

<p> </p>

<p>திருவனந்தபுரம், நவ.25- மாளிகைப்புறத்தம்மன் கோவிலில் பகவதி
சேவை சிறப்பு பூஜை தொடங்கப்பட்டுள்ளது. </p><p>
</p><p>
விடுமுறை </p><p>
</p><p>
விடுமுறை நாளான நேற்று (ஞாயிறு) பல லட்சம் பக்தர்கள் ஐயப்ப தரிசனம் நடத்த வந்த
தால் சபரிமலை பக்தர்களால் நிறைந்து காணப்பட்டது. </p><p>
</p><p>
சபரிமலை மண்டல காலத் தில் நேற்று அதற்கு முந்தின சனிக்கிழமை ஆகிய இரு நாள் களும் விடுமுறை
நாளானதால் பிறமாநில பக்தர்கள் சபரிமலை யில் லட்சக்கணக்கில் ஐயப்ப தரிசனத்திற்காக
குவிந்தனர். </p><p>
</p><p>
கியூ </p><p>
</p><p>
நேற்று அதிகாலை 4 மணிக்கு நடை திறந்த போது ஐயப்ப பக்தர்கள் வலிய நடைப் பந்தலை கடந்து
சரம் குத்தியையும் கடந்து நீண்ட கியூவில் நின்றனர். </p><p>
</p><p>
பக்தர்களின் கூட்டம் அதிகம் காணப்பட்டதால் பல்வேறு சிரமங்களும் பக்தர்களுக்கு ஏற்பட்டது.
நெய்யபிஷேக டிக்கெட்டுகள் அறநிலையத் துறையின் முக்கிய கோயில்கள் வழியாக வழங்கப்பட்டு
வந்த நிலையிலும், சன்னிதானத்தில் கூட்டத்தை கட்டுப்படுத்த முடிய வில்லை. இதனால் கூட்டத்தை
கட்டுப்படுத்த முடியவில்லை. இதனால் அபிஷேக டிக்கட் வாங்கவும் நீண்ட கியூ காணப் பட்டது. </p><p>
</p><p>
அபிஷேக டிக்கெட்டுகள் </p><p>
</p><p>
பம்பை கணபதி கோயிலில் வைத்து அபிஷேக டிக்கெட்டு கள் வினியோகித்தால் சன்னி தானத்தில்
நெரிசலை தவிர்க்க முடியும். ஆனால் அறநிலையத் துறை இதற்கான முயற்சிகள் இதுவரை
எடுக்கவில்லை. </p><p>
</p><p>
சாலக்கயத்தில் வாகனங்களுக்கு நுழைவுக்கட்டணம் வசூலிப்பதாலும், இதனால் ஏற்படும்
காலதாமதத்தாலும் பல கிலோமீட்டர் தூரம் காத்து கிடக்க வேண்டிய நிலை ஏற்பட்டு வருகிறது. </p><p>
</p><p>
50 பஸ்கள் </p><p>
</p><p>
வாகனங்களில் வரும் பக்தர்களின் எண்ணிக்கை அதிகரித்துள்ள நிலையில் வாகனங்கள் நிறுத்தி
பக்தர் களை இறக்கி விட பம்பையில் இடமில்லாத நிலையும் ஏற்பட்டுள்ளது. சாலக்காயம் -
பம்பை சாலையில் பார்க்கிங் தடை செய்யப்பட்டும், நேற்றைய நெரிசலில் சிறுரக வாகனங் களை
நிறுத்த வேண்டிய கட்டாயம் ஏற்பட்டது. பம்பை - நிலக்கல் சாலையில் செயின் சர்வீஸ் நடத்த
50 பஸ்களை போக்குவரத்துதுறை இயக்கியுள் ளது. போக்குவரத்து சம்பந்த மான பிரச்சினைகளுக்கு
தீர்வு காண போக்குவரத்து துறை அமைச்சர் கணேஷ்குமார் இன்று (திங்கள்) நேரடியாக சென்று
ஆய்வு செய்கிறார். </p><p>
</p><p>
பகவதி சேவை </p><p>
</p><p>
வீடுகளில் செல்வம் சேரவும், விவாகத்தடைகள் நீங்கவும் மாளிகைப் புறத்தம்மனுக்கு பகவதி
சேவை பூஜை தொடங்கப்பட்டுள்ளது. தினமும் மாலை 7 மணிக்கு தீபாரதனைநடந்த பின்னர் 7.15
மணிக்கு மாளி கைப்புறத்தில் தனியாக அமைக் கப்பட்டுள்ள பூஜையறையில் பகவதி சேவை
நடக்கிறது. </p><p>
</p><p>
லலிதாசகஸ்ரநாமம் முழு மையாக ஜெபிக்கப்பட்ட மலர்க ளால் அர்ச்சனை செய்வது முக்கிய
பூஜையாக உள்ளது. அடை, அரிசி இவற்றால் செய்யப்பட்ட பாயாசம் நைவேத் யமாக
விநியோகிக்கப்படும். </p><p>
</p><p>
101 ரூபாய் </p><p>
</p><p>
மாளிகைப்புறத்திலுள்ள அற நிலையத்துறை கவுண்டரில் 101 ரூபாய் செலுத்தினால் பகவதி சேவை
நடத்தலாம். </p><p>
</p><p>
நிலக்கல் வாகன நிறுத்து மிடத்தில் போதிய வௌிச்சம், குடிநீர் வசதி இல்லை. இதனால்
பக்தர்களும் வாகன டிரைவர்களும் அவதிப்படுகின்றனர். </p><p>
</p><p>
பாம்பு நடமாட்டம் </p><p>
</p><p>
மேலும் நிலக்கல்லில் இரவு வேளைகளில் பாம்்புகளின் நடமாட்டமும் அதிகமாக உள் ளது. அதோடு
பாம்புகள் வாகனங்களில் ஏறி கிடந்த நிகழ்ச்சிகளும் தொடர்ந்து நடக்கிறது. </p><p>
</p><p>
மேலும் வாகன நிறுத்து மிடமான நிலக்கல்லில் பொது தொலைபேசி நிலையம் அமைக்க வேண்டுமென்ற
கோரிக்கையும் பக்தர்கள் சார்பில் எழுப்பப்பட்டுள்ளது. </p><p>
</p><p>
பம்பையிலும் - சன்னி தானத்திலும் அறநிலையத்துறை சார்பில் புத்தக் கடை திறக்கப்
பட்டுள்ளது. சன்னிதானம் புத்தக கடையை தந்திரி கண்டரூ மோகனரூ குத்து விளக்கேற்றி திறந்து
வைத்தார். அறநிலையத் துறை உறுப்பினர் சாருபாறை ரவி, நடிகர் சுரேஷ் கோபிக்கு புத்தகத்தை
வழங்கி விற்ப னையை தொடங்கி வைத்தார் </p><p>
</p><p>
சபரிமலையில் இன்று </p><p>
</p><p>
காலை:- 4.00 மணி: நடை திறப்பு 4.05 மணி: நிர்மால்ய தரிசனம் 4.15 மணி: கணபதி ஹோமம்
4.30 மணி: நெய் அபிசேகம் 7.30 மணி: உஷ பூஜை </p><p>
</p><p>
நண்பகல்:- 12.30 மணி: உச்ச பூஜை 1.00 மணி: நடை அடைப்பு </p><p>
</p><p>
மாலை:- 5.00 மணி: நடை திறப்பு 6.30 மணி தீபாராதனை </p><p>
</p><p>
இரவு:- 7.00மணி புஷ்பாபிசேகம் 9.30 மணி: அத்தாழ பூஜை 10.00 மணி: அரிவராசனம் பாடி
நடை அடைப்பு </p>

<p> </p>

<p> </p>

<p> </p>

<p>சேலத்தில் பட்டபகலில்
பயங்கரம்: பிரபல ரவுடி வரதனின் மருமகன் வெட்டி கொலை; நிலத்தகராறில் வெறிச்செயல்:
பெண்- 4 பேருக்கு வலைவீச்சு</p>

<p> </p>

<p>சேலம், நவ.25- சேலத்தில் பிரபலரவுடி வரதனின் மருமகனை 5 பேர்
கொண்ட கும்பல் வெட்டி கொலை செய்தது. தலைமறைவான அவர்களை போலீசார் தேடி வருகிறார்கள். </p><p>
</p><p>
பிரபல ரவுடி </p><p>
</p><p>
சேலம் பொன்னம்மாப் பேட்டையை சேர்ந்தவர் வரதன். பிரபல ரவுடி. அ.தி.மு.க.
செயலாளராகவும் இருந்து வந்தார். கடந்த சில வருடத்திற்கு முன்பு சிலரால் படுகொலை செய்யப்பட்டார்.
</p><p>
</p><p>
4 மனைவிகள் </p><p>
</p><p>
வரதனுக்கு 4 மனைவிகள். இதில் மூத்தமனைவி லட்சுமிக்கு 2 மகள் உள்ளனர். இவர்களில் மூத்த
மகளின் பெயர் இந்திரா. இவருக்கும் ஓமலூரைச்சேர்ந்த சின்னராஜா என்ற ராஜா
(வயது42)வுக்கும் திருமணம் நடந்தது. </p><p>
</p><p>
இவர்களுக்கு குப்புராஜ், (வயது9) தனராஜ் (வயது7) என்ற 2 மகன்கள் இருக்கிறார் கள்.
சின்னராஜா ரியல் எஸ்டேட் தொழில் செய்து வந்தார். அ.தி.மு.க. பிரதிநிதி யாகவும்
இருந்தார். </p><p>
</p><p>
4-வது மனைவி </p><p>
</p><p>
வரதனின் 4-வது மனைவி பெயர் புஷ்பா. மதுரையை சேர்ந்தவர். வரதனுக்கு சேலத்தில் ஏராளமான
சொத் துக்கள் உள்ளது. இதனை பங்கு போடுவதில் மூத்த மனை விக்கும், புஷ்பாவுக்கும் இடையே
தகராறு இருந்து வந்து உள்ளது. இது தொடர்பான வழக்கு சேலம் கோர்ட்டில் நடந்து வருகிறது. </p><p>
</p><p>
மரம் வெட்டினர் </p><p>
</p><p>
புத்துமாரியம்மன் கோவில் அருகில் என்ஜி.ஒ. காலனி பக்கம் நிலம் ஒன்று உள்ளது.
அங்கிருந்த முள் மரங்களை புஷ்பா, மகன் அரிபாபு மற்றும் சிலர் வெட்டிக்கொண்டு இருந்து
உள்ளனர். </p><p>
</p><p>
இதனை சின்னராஜா கண்டித்து உள்ளார். நிலத்தின் மீது வழக்கு உள்ளது. ஏன் மரத்தை
வெட்டுகிறீர்களனா் என்று கேட்டு உள்ளார். நேற்று காலையும் சின்னராஜா அங்கு சென்று
உள்ளார். </p><p>
</p><p>
வெட்டிகொலை </p><p>
</p><p>
அப்போது அங்கு தயாராக இருந்த சிலர் அவரை அரிவா ளால் தலை மற்றும் கழுத்து பகுதியில் வெட்டி
சாய்த்தனர். அதன்பிறகும் ஆத்திரம் தணியாத அவர்கள் பெரிய கல்லை எடுத்து ரத்்தவௌ்
ளத்தில் துடித்துக்கொண்டு இருந்தவர் மீது போட்டு கொன்று விட்டு தப்பி சென்றுவிட்டனர். </p><p>
</p><p>
மனைவி கதறல் </p><p>
</p><p>
இதுகுறித்து கேள்விப் பட்டதும் சின்னராஜாவின் மனைவி இந்திரா மற்றும் உறவினர்கள் சென்று
உடலை பார்த்து கதறி அழுதனர். </p><p>
</p><p>
விசாரணை </p><p>
</p><p>
இதுகுறித்து அம்மாப் பேட்டை போலீசாருக்கு தகவல் கொடுக்கப்பட்டது. இன்ஸ் பெக்டர்
ராமச்சந்திரன், சப்-இன்ஸ்பெக்டர்கள் அண்ணாதுரை, ரோசன், மற்றும் போலீசார் விரைந்து
சென்று விசாரணை நடத்தினர். </p><p>
</p><p>
பிணத்தை கைப்பற்றி சேலம் அரசு மருத்துவமனைக்கு அனுப்பி வைத்தனர். கொலை யாளிகள்
பயன்படுத்திய அரிவா ளும் கைப்பற்றப்பட்டது. </p><p>
</p><p>
5 பேரை தேடுகிறார்கள் </p><p>
</p><p>
இந்த கொலைதொடர்பாக வரதனின் 4-வது மனைவி புஷ்பா, மகன் அரிபாபுஎன்ற பாபு,
அய்யப்பன், மிச்சர் கடை சீனி என்ற சீனிவாசன், ரவிச்சந்திரன்(புஷ்பாவின் மருமகன்)
ஆகியோரை போலீ சார் தேடிவருகிறார்கள். </p><p>
</p><p>
புஷ்பாவுக்கு மதுரை என்பதால் போலீஸ் தனிப் படையினர் அங்கு விரைந்து உள்ளனர். </p><p>
</p><p>
கொலை வழக்கு </p><p>
</p><p>
அரிபாபு என்ற பாபு மீது தண்ணீர் தொட்டி கிருஷ்ணன் கொலை வழக்கு உள்ளது. புஷ்பா மீது 2
கொலை வழக்கும், சீனிவாசன் மீது சொறி ஆறுமுகத்தை கொலை செய்த வழக்கும் உள்ளது. </p><p>
</p><p>
இந்த சம்பவம் சேலத்தில்் பெரும் பரபரப்பை ஏற்படுத்தி உள்ளது. </p><p>
</p><p>
சொத்துக்காக குடும்பத்திலேயே மோதல்-கொலை </p><p>
</p><p>
சேலத்தில் மிகப்பெரிய ரவுடியாக திகழ்ந்தவர்வரதன். இவருக்கு 4 மனைவிகள். தனது
ரவுடிதனத்தால் சேலம் மற்றும் அதனை சுற்றியும் ஏராளமான சொத்துக்களை வாங்கி குவித்து
வந்தார். வரதனை எதிர் கேர்ஷ்டியை சேர்ந்தவர்கள் கொலை செய்து விட்டனர். </p><p>
</p><p>
இதனால் வரதனின் மகன் கள் அனைவரும் ஒன்று சேர்ந்து எதிர்கோஷ்டியை சேர்ந்தவர்க ளை கொலை
செய்தனர். இந்த வழக்கு சேலம் கோர்ட்டில் நடந்து வருகிறது. </p><p>
</p><p>
இந்தநிலையில் எதிர் கோஷ்டியை சேர்ந்தவர்கள் மீது இருந்த மோதல், சொத்து பிரச்சினைக்காக
குடும்பத்தி னருக்குள்ளேயே ஏற்பட்டு கொலை செய்யும் அளவுக்கு போய் இருக்கிறது. </p>

<p> </p>






</body></text></cesDoc>