<cesDoc id="tam-w-dinakaran-news-02-08-03" lang="tam">
<cesHeader type="text">
<fileDesc>
<titleStmt>
<h.title>tam-w-dinakaran-news-02-08-03.txt</h.title>
<respStmt>
<respType>Electronic file created by</respType>
<respName>Department of Linguistics, Lancaster University</respName>
<respType>text collected by</respType>
<respName>Paul Baker and Celia Worth</respName>
<respType>transferred into Unicode by</respType>
<respName>"Unicodify" software by Andrew Hardie</respName>
</respStmt>
</titleStmt>
<publicationStmt>
<distributor>UCREL</distributor>
<pubAddress>Department of Linguistics, Lancaster University, Lancaster, LA1 4YT, UK</pubAddress>
<availability region="WORLD"></availability>
<pubDate>03-08-24</pubDate>
</publicationStmt>
<sourceDesc>
<biblStruct>
<monogr>
<h.title>"Dinakaran" internet news (www.dinakaran.com), news stories collected on 02-08-03</h.title>
<h.author>Dinakaran</h.author>
<imprint>
<pubPlace>Tamil Nadu, India</pubPlace>
<publisher>Dinakaran</publisher>
<pubDate>02-08-03</pubDate>
</imprint>
</monogr>
</biblStruct>
</sourceDesc>
</fileDesc>
<encodingDesc>
<projectDesc>Text collected for use in the EMILLE project.</projectDesc>
<samplingDesc>Simple written text only has been transcribed. Diagrams, pictures and tables have been omitted and their place marked with a gap element.
</samplingDesc>
<editorialDecl>
<conformance level="1"></conformance>
</editorialDecl>
</encodingDesc>
<profileDesc>
<creation>
<date>03-08-24</date>
</creation>
<langUsage>Tamil</langUsage>
<wsdUsage>
<writingSystem id="ISO/IEC 10646">Universal Multiple-Octet Coded Character Set (UCS).</writingSystem>
</wsdUsage>
<textClass>
<channel mode="w">print</channel>
<constitution type="composite"></constitution>
<domain type="public"></domain>
<factuality type="fact"></factuality>
</textClass>
<translations></translations>
</profileDesc>
<revisionDesc></revisionDesc>
</cesHeader>

<text>
<body>




<p>செப்டம்பர் 16-ந்தேதி
தொடக்கம்: காஷ்மீரில் 4 கட்டமாக தேர்தல்; தலைமை தேர்தல் கமிஷனர் லிங்டோ
அறிவிப்பு</p>

<p> </p>

<p>
 
 
  
  
  
  
  
  
  
  
  
  
  
  
 
 
 

 
<gap desc="illustration"></gap></p>

<p>லிங்டோ </p>

<p> </p>

<p>புதுடெல்லி,
ஆக. 3- காஷ்மீர் மாநில சட்டசபைக்கு அடுத்த மாதம் செப்டம்பர் 16-ந்தேதி தொடங்கி 4
கட்டமாக தேர்தல் நடக்கிறது. இதுபற்றிய அதிகாரபூர்வ அறிவிப்பை தேர்தல் கமிஷன் நேற்று
வௌியிட்டது. </p><p>
</p><p>
லிங்டோ பேட்டி </p><p>
</p><p>
காஷ்மீர் சட்டசபையின் பதவி காலம் வருகிற அக்டோபர் மாதம் முடிவடைகிறது. இதையடுத்து அங்கு
தேர்தல் நடத்துவதற்கான ஏற்பாடுகளை தேர்தல் கமிஷன் செய்து வருகிறது. இதுகுறித்து தலைமை
தேர்தல் கமிஷனர் ஜெ.எம்.லிங்டோ நேற்று நிருபர் களிடம் கூறியதாவது:- </p><p>
</p><p>
4 கட்ட தேர்தல் </p><p>
</p><p>
காஷ்மீர் சட்டசபைக்கு வருகிற செப்டம்பர்- அக்டோபர் மாதங்களில் 4 கட்டமாக தேர்தல்
நடத்தப்படும். முதல் கட்டமாக செப்டம்பர் 16-ந்தேதி குப்வாரா, பாராமுல்லா, லே,
கார்கில், ரஜோரி, பூஞ்ச் பகுதிகளில் உள்ள 26 தொகுதிகளில் வாக்குப்பதிவு
நடக்கும். </p><p>
</p><p>
2-வது கட்டமாக நகர், பாத்காம், ஜம்மு பகுதிகளில் இருக்கும் 28 தொகுதிகளில் செப்டம்பர்
24-ந்தேதி தேர்தல் நடக்கிறது. புல்வாமா, அனந்த நாக், கத்துவா, உதம்பூர் பகுதிகளை
சேர்ந்த 27 தொகுதிகளில் மூன்றாவது கட்டமாக அக்டோபர் 1-ந்தேதி தேர்தல் நடத்தப்படும். </p><p>
</p><p>
தோடா பகுதியில் உள்ள 6 சட்டமன்ற தொகுதிகளில் இறுதி கட்டமாக அக்டோபர் 8-ல் தேர்தல்
நடத்த முடிவு செய்யப்பட்டுள்ளது. </p><p>
</p><p>
அக்.10-ல் ஓட்டுஎண்ணிக்கை </p><p>
</p><p>
முதல்கட்ட தேர்தலுக்கு வருகிற 22-ந்தேதி முதல் மனு தாக்கல் தொடங்குகிறது. 4 கட்ட
தேர்தலிலும் பதிவான வாக்கு கள் அக்டோபர் 10-ந்தேதி காலை 8 மணி முதல் எண்ணப்படும்.
அக்டோபர் 12-ந்தேதி முதல் தேர்தல் நடைமுறைகள் முடிவடைந்துவிடும். </p><p>
</p><p>
டெல்லியில் வசிக்கும் காஷ்மீர் அகதிகள் வாக்களிக்க வழிவகை செய்யப்பட்டுள்ளது. இதற்காக
தனி வாக்குசாவடிகள் அமைக்கப்படும். </p><p>
</p><p>
வௌிநாட்டு பார்வையாளர் இல்லை </p><p>
</p><p>
காஷ்மீர் தேர்தலை வௌிநாட்டு தேர்தல் கமிஷன் அதிகாரிகள், தூதர்கள் தனிப்பட்ட
முறையில் பார்க்கலாம். ஆனால் அவர்களுக்கு பார்வையாளர் என்ற அந்தஸ்து தர முடியாது.
வௌிநாட்டு பார்வையாளர்கள் தேர்தலை பார்வையிட தேர்தல் கமிஷன் அனுமதிக்காது. இந்தியா
நீண்ட காலமாக அமைதியாகவும், சுதந்திரமாகவும் தேர்தலை நடத்தி வருகிறது. இந்த நிலையில்
எப்படி தேர்தலை நடத்துவது என்று எந்த ஒரு வௌிநாடும் இந்தியாவுக்கு சொல்லித்தர
தேவையில்லை. வழக்கம் போல மூத்த அதி காரிகள் தான் பார்வையாளர்களாக
நியமிக்கப்படுவார்கள். </p><p>
</p><p>
நவீன அடையாள அட்டை </p><p>
</p><p>
காஷ்மீரில் தில்லுமுல்லு இல்லாமல் அமைதியான முறையில் தேர்தலை நடத்த தேர்தல் கமிஷன்
உறுதிபூண்டுள்ளது. இதற்காக முதல்முறையாக 3 புதிய நடவடிக்கைகளை தேர்தல் கமிஷன் மேற்கொள்ள
உள்ளது. இதன்படி வாக்காளரின் பெயர், வரிசை எண் மற்றும் விவரங்கள் அடங்கிய பூத்
ஸ்லிப்பை அரசியல் கட்சி களுக்கு பதிலாக தேர்தல் கமிஷனே வாக்காளருக்கு வழங்கும்.
நாசிக்கில் உள்ள ரூபாய் நோட்டு அச்சடிக்கும் அச்சகத்தில் அச்சடிக்கப்பட்ட பாதுகாப்பு
அம்சங்கள் நிறைந்த அடையாள அட்டை வாக்காளர்களுக்கு வழங்கப்பட்டுள்ளது. மேலும் தேர்தல்
அறிவிக்கை வௌியாவதற்கு முன்னே பார்வையாளர்கள் பெயர்கள் அறிவிக்கப்பட்டுள்ளது. </p><p>
</p><p>
இவ்வாறு அவர் கூறினார். </p><p>
</p><p>
பரூக் வரவேற்பு </p><p>
</p><p>
தேர்தல் தேதி அறிவிப்பை காஷ்மீர் முதன்மந்திரி பரூக் அப்துல்லா வரவேற்றுள்ளார். ஆனால்
தேர்தலின் போது பாகிஸ்தான் அடாவடி செயல்களில் ஈடுபடுவதை தடுக்க மத்திய அரசு நடவடிக்கை
எடுக்க வேண்டும் என்று அவர் கோரி உள்ளார். </p><p>
</p><p>
தேர்தலையொட்டி காஷ்மீ ரில் வன்முறை தூண்ட பாகிஸ்தான் முயன்றால் கடும் விளைவுகளை
சந்திக்க நேரிடும் என்று அந்த நாட்டை இந்தியா எச்சரிப்பதாக வௌி யுறவுத்துறை செய்தி
தொடர்பாளர் கூறினார். </p>

<p> </p>

<p>கண்ணப்பன் மீதும் பொடா
பாயும்: கைது செய்ய ஜெ. தீவிரம்; மந்திரி பதவியில் இருந்து நீக்க பிரதமர் வாஜ்பாய்க்கு
கடிதம்</p>

<p> </p>

<p>
 
<gap desc="illustration"></gap></p>

<p>ஜெயலலிதா </p>

<p> </p>

<p>சென்னை, ஆக.3- மத்திய அமைச்சர் கண்ணப்பன் விடுதலைப்புலிகளை
ஆதரித்துப் பேசியதாக முதல்வர் ஜெயலலிதா குற்றம்சாட்டி உள்ளார். அவரை பொடா சட்டத்தில்
கைது செய்ய தீவிர நடவடிக்கை எடுத்து வருகிறார். கண்ணப்பனை மந்திரி பதவியில் இருந்து நீக்க
வேண்டும் என்று பிரதமர் வாஜ்பாய்க்கு ஜெ. கடிதம் எழுதி இருக்கிறார். ம.தி.மு.க.
பொதுச்செயலாளர் வைகோ எம்.பி. விடுதலைப்புலிகளை ஆதரித்து பேசிய தால், பொடா
சட்டத்தில் கைது செய்யப்பட்டு வேலூர் சிறையில் அடைக்கப்பட்டு இருக்கிறார். மற்றும் 9
பேரும் பொடாவில் சிறையில் உள்ளனர். நேற்று முன்தினம் தமிழர் தேசிய இயக்கத் தலைவர்
பழ.நெடுமாறனும் பொடாவில் கைது செய்யப் பட்டார். </p><p>
</p><p>
ஜெ. அவசர கடிதம் </p><p>
</p><p>
இந்த பரபரப்பு அடங்கும் முன்பு புலிகளை ஆதரிக்கும் மத்திய மந்திரி கண்ணப்பனை பதவி
நீக்கம் செய்ய வேண்டும் என்று பிரதமர் வாஜ்பாய்க்கு முதல்வர் ஜெயலலிதா நேற்று அவசர
கடிதம் எழுதியுள்ளார். </p><p>
</p><p>
ஜெயலலிதா ஆங்கிலத்தில் எழுதியுள்ள இந்த கடிதம் 3 பக்கங்களில் இருக்கிறது. அதில் உள்ள
விவரம் வருமாறு:- </p><p>
</p><p>
பொது முக்கியத்துவம் கருதி நான் இந்த கடிதத்தை எழுதுகிறேன். உங்களது அமைச்சர்களில் ஒருவரான
மத்திய மரபுசாரா எரிசக்தி துறை மந்திரி மு.கண்ணப் பனின் நடத்தை பற்றி கவனத் துக்கு
கொண்டு வர விரும்புகிறேன். 2002-ம் வருட பயங்கரவாத தடை சட்டம் (பொடா) 18-வது
பிரிவில் தீவிரவாத இயக்கமாக அறிவிக்கப்பட்டுள்ள அமைப்பை அவர் ஆதரித்து பேசி
இருக்கிறார். அந்த இயக்கமான தமிழ் ஈழ விடுதலைப்புலிகள் 1965-ம் வருட சட்டவிரோத
அமைப்பு தடை சட்டத்தின் கீழும், 1908-ம் வருட குற்றவியல் நடைமுறை சட்டத்தின் கீழும் தடை
செய்யப்பட்டு பிரகடனப்படுத்தப்பட்டு இருக்கிறது. </p><p>
</p><p>
பகிரங்க ஆதரவு </p><p>
</p><p>
கண்ணப்பன் சார்ந்துள்ள ம.தி.மு.க. தலைவர் வைகோ, விடுதலைப்புலிகளை ஆதரித்து பேசிய தேச
விரோத பேச்சுக்காக சமீபத்தில் கைது செய்யப்பட்டார். அவர் மீதான வழக்கு விசாரணையில்
இருக்கிறது. இப்போதும் கண்ணப்பனும் விடுதலைப்புலிகளை ஆத ரித்து பகிரங்கமாக பேசி
இருக்கிறார். 1967-ம் வருட சட்ட விரோத செயல்கள் தடை சட்டம் 10-வது பிரிவு மற்றும்
2002-ம் வருட பொடா சட்டம் 21(2), 3-வது பிரிவுகளின் கீழ் அவர் குற்றம் புரிந்து
இருக்கிறார். </p><p>
</p><p>
தடை செய்யப்பட்ட விடுதலைப்புலிகளை உங்கள் அமைச்சரான அவர் பத்திரிகையாளர் சந்திப்பு
மற்றும் பல பொதுக்கூட்டங்களில் ஆதரித்து பேசியுள்ளார். அது தொடர்பான தேதி வாரியான விவரம்:-
</p><p>
</p><p>
2-6-2002 - சத்தியமங்கலம், 5-7-2002 - சென்னை, 7-7-2002 - தாயகம், சென்னை,
11-7-2002 - மும்பை விமான நிலையம், 11-7-2002 - மீனம்பாக்கம், விமான நிலையம்,
12-7-2002 - கோவை, 19-7-2002 - வேலூர், 20-7-2002 - மதுரை, 20-7-2002 - திருச்சி,
21-7-2002 - ஈரோடு, 22-7-2002 - கடலூர், 26-7-2002 - வேலூர், 27-7-2002 -
தாயகம், சென்னை. </p><p>
</p><p>
அமைச்சராக நீடிக்கலாமா? </p><p>
</p><p>
கடைசியாக 28-7-2002 கோவை டாடாபாத்தில் உள்ள மறுமலர்ச்சி தொழிலாளர் முன்னேற்ற
சங்கத்தில் மந்திரி பேசி இருக்கிறார். இதில் மாநில அரசின் எந்த தடை மிரட்டலுக்கும் அடி
பணிய மாட்டோம், விடுதலைப் புலிகளை தொடர்ந்து ஆதரிப் போம் என்று கூறி உள்ளார். </p><p>
</p><p>
இவற்றில் இருந்து, எதிர் பாராமலோ அல்லது வாய் தவறியோ விடுதலைப்புலி களை ஆதரிக்கும்
இந்த கருத்தை அவர் தெரிவிக்க வில்லை. மாறாக எப்போதும் விடுதலைப்புலிகளுக்கு ஆதரவை
உறுதிப்படுத்தி வருகிறார் என்பது தௌிவாகிறது. தடை செய்யப்பட்ட இயக்கம் ஒன்றை
பகிரங்கமாக ஆதரித்து சட்ட விரோதமாக நடக்கும் ஒருவர் இந்திய அரசின் அமைச்சராக பதவி
யில் நீடிக்கலாமா? என்று பிரதமரை நான் கேட்க விரும்புகிறேன். அரசியல் சாசனப்படி
பிரதமரின் வேண்டுகோளை ஏற்று ஜனாதிபதி பதவி பிரமாணம் செய்து வைத்த அமைச்சர், ஜனாதிபதி
விருப்பப்படியே பதவியில் தொடர முடியும் என்பதை தௌிவுபடுத்த வேண்டியது இல்லை. </p><p>
</p><p>
நாட்டு நலனுக்கு எதிரானது </p><p>
</p><p>
பாராளுமன்ற உறுப்பினர்கள் பதவி ஏற்கும்போது அரசியல் சாசனம் 3-வது விதியின்படி,
உறுதிமொழி ஏற்கிறார்கள். அரசியல் சட்டத்துக்கு நம்பிக்கையோடும், இந்திய ஒருமைப்பாடு -
இறையாண்மைக்கு உண்மையோடும் கடமை ஆற்றுவேன் என்று பிரமாணம் எடுத்துக் கொள்கிறார்கள்.
மேலும் விருப்போ அல்லது வெறுப்போ, அச்சமோ அல்லது ஆர்வமோ இன்றி சட்டத்தின்படி
நடப்பேன் என்றும் உறுதி மொழி எடுக்கிறார்கள். </p><p>
</p><p>
அமைச்சராக பொறுப்பு ஏற்பவர் இந்திய அரசியல் சட்டப்படி நடக்க வேண்டும். அப்படி இருக்க,
அமைச்சரே சட்டவிரோத காரியத்தில் ஈடுபடுவதை அரசியல் சாசனப்படி அனுமதிக்க முடியாது. ஒரு
அமைச்சர், தடை செய்யப்பட்ட ஒரு இயக்கத்தை ஆதரித்தார் என்றால் அந்த இயக்கத்துடன்
அவருக்கு மிகுந்த நெருக்கம் இருக்கிறது என்றுதான் அர்த்தம். எனவே ரகசிய காப்பு பிரமாணத்தை
மீறி நடக்கும் வாய்ப்புள்ளது. இது நாட்டு நலனுக்கு எதிரானது. இதை யாரும் மறுக்க முடியாது. </p><p>
</p><p>
நீக்குக </p><p>
</p><p>
எனவே தடை செய்யப்பட்ட இயக்கத்தை ஆதரிக்கும் அமைச்சரை பதவி நீக்கி, பிரதமர் சரியான
நடவடிக்கை எடுக்க வேண்டும்; இல்லா விட்டால் சரி செய்ய முடியாத நிலைமை ஏற்பட்டு, நாட்டுக்கு
பேரபாயம் ஏற்படும். </p><p>
</p><p>
இங்கிலாந்து அரசியல் - ஆட்சி நிர்வாகம் என்ற புத்தகத்தில் பாராளுமன்ற நடைமுறை வல்லுனர்
ஜான். பி.மெக்கின்தோஸ் பிரதமரின் பொறுப்பு பற்றி குறிப்பிட்டு உள்ளதை பாருங்கள்:- </p><p>
</p><p>
... தனது குழுவுக்கு தலைவர் என்றே பிரதமரை பொதுவாக கருதுகிறோம். ஆனால் அவரது அதிகாரம்
அதைவிட பெரியது. தனது அமைச்சரவை சகாக்களை தேர்வு செய்வது, பாராளுமன்றத்தை கலைக்கும்படி
கேட்பது, கட்சி தலைவரை நியமிப்பது என்று ஒட்டுமொத்த அதிகாரம் கொண்டவர் பிரதமர்... </p><p>
</p><p>
எனவே சட்டத்தின் விதியை காக்கவும், நாட்டு நலனை பேணவும் அமைச்சர் கண்ணப்பன்
விஷயத்தில் பிரதமர் உடனே தலையிட்டு அவரை பதவி நீக்கம் செய்ய வேண்டும் என்று கேட்டுக்
கொள்கிறேன். </p><p>
</p><p>
இவ்வாறு ஜெயலலிதா கடிதத்தில் எழுதி உள்ளார். </p><p>
</p><p>
கைது முன்னேற்பாடு? </p><p>
</p><p>
வைகோவை பொடாவில் கைது செய்யும் முன், அவர் எம்.பி. என்பதால் துணைப் பிரதமர்
அத்வானிக்கு ஜெய லலிதா கடிதம் அனுப்பி இருந்தார். அதன்பிறகு அவரை கைது செய்தார்.
அதேபோல் தற்போது கண்ணப்பன் மத்திய அமைச்சர் என்பதால் அவரை மத்திய அமைச்சரவை யில்
இருந்து நீக்க வேண்டும் என்று பிரதமர் வாஜ்பாய்க்கு கடிதம் எழுதியுள்ளார். கண்ணப்பன்
புரிந்த குற்றங்கள் என்று சட்டப்பிரிவு வாரியாக ஜெ. கடிதத்தில் குறிப்பிட்டுள்ளதால்
மத்திய அமைச்சர் கண்ணப்பனை பொடாவில் கைது செய்யும் முன்னேற்பாடு தான் இது என்று
கூறப்படுகிறது. </p><p>
</p><p>
எந்த நடவடிக்கை எடுத்தாலும் சட்ட ரீதியாக சந்திக்க தயார் -மந்திரி கண்ணப்பன் </p><p>
</p><p>
மத்திய மரபுசாரா எரிசக்தி துறை துணை மந்திரியும், ம.தி.மு.க. பொருளாளருமான மு.
கண்ணப்பன் மேட்டுப்பாளையத்தில் நேற்று மாலை நிருபர்களுக்கு பேட்டி அளித்தார். அப்போது
அவர் கூறியதாவது:- </p><p>
</p><p>
பிரதமர் நன்கு அறிவார் </p><p>
</p><p>
என்னைப்பற்றி மத்திய அரசுக்கும், பிரதமர் வாஜ்பாய்க்கும் நன்கு தெரியும். நாங்கள் விடு
தலைப்புலிகள் இயக்கத்துக்கு தொடர்ந்து ஆதரவு அளித்து தான் வருகிறோம். ஏனெனில்
ஈழத்தமிழர் பிரச்சினைக்காக போராடி வரும் ஒரே இயக்கம் விடுதலைப்புலிகள் இயக்கம்.
எனவே, நாங்கள் அவர்களுக்கு தார்மீக ஆதரவு அளித்து வரு கிறோம். இதுபற்றி ஏற்கனவே எங்கள்
பொதுக்குழுவில் தீர்மானம் நிறைவேற்றி உள்ளோம். அதன் அடிப்படையில் எங்கள்
பொதுச்செயலாளர் வைகோ, நான் (மு.கண்ணப்பன்) மற்றும் தலைவர்கள் செயல்பட்டு வருகிறோம். </p><p>
</p><p>
காழ்ப்புணர்ச்சி </p><p>
</p><p>
நாங்கள் தமிழக அரசின் குறைபாடுகளை மக்கள் மத்தியில் வௌிச்சம் போட்டு காட்டி
வருகிறோம். குறிப்பாக வறட்சி நிவாரண நடவடிக்கை எடுக்காமல் தமிழக அரசு மெத்தனமாக
செயல்பட்டு வருவதை ஊர் ஊராக சென்று பிரசாரம் செய்து வருகிறோம். தமிழக அரசு விவசாயிகள்
பிரச்சி னையை கண்டுகொள்ளாமல் அலட்சியமாக இருப்பதை கண்டித்து பொள்ளாச்சியில் கடந்த
சில வாரங்களுக்கு முன்பு பொதுச்செயலாளர் வைகோ தலைமையில் மாபெரும் விவசாயிகள் பேரணி
நடத்தினோம். எனவே, அரசியல் காழ்ப்புணர்ச்சி காரணமாக எங்கள் மீது முதல்வர் ஜெயலலிதா
பொடா சட்டத்தை தவறாக பயன்படுத்தி உள்ளார். இந்த மிரட்டலுக்கு நாங்கள் அஞ்ச
மாட்டோம். எங்கள் செயல்பாடு தொடர்ந்து நடந்து கொண்டே தான் இருக்கும். </p><p>
</p><p>
சட்ட ரீதியாக சந்திப்போம் </p><p>
</p><p>
தமிழக அரசு பொடாவை தவறாக பயன்படுத்தி அன்று வைகோவை கைது செய்தது. இன்று பழ.நெடுமாறனை
கைது செய்துள்ளது. இதை நாங்கள் வன்மையாக கண்டிக்கிறோம். எங்களுக்கும், மத்திய அரசுக்கும்
இடையே நல்ல உறவு உள்ளது. எங்களைப்பற்றி பிரதமர் வாஜ் பாய் நன்கு அறிவார். நான்,
ஒருபோதும் இந்திய அரசின் இறையாண்மைக்கு எதிராக செயல் படவில்லை. எனவே, தமிழக அரசு
எங்கள் மீது எந்த நடவடிக்கை எடுத்தாலும் அதை சட்ட ரீதியாக சந்திக்க தயாராக உள்ளோம். </p><p>
</p><p>
இவ்வாறு அவர் கூறினார். </p>

<p> </p>

<p> </p>

<p>2-ம் கட்டமாக குறை
கேட்டார்: வீரப்பனை தேடும் அதிரடிப்படையும் ஜெ.விடம் மனு: பயணப்படி வழங்கவில்லை என
புகார்</p>

<p> </p>

<p>சென்னை, ஆக.3- கோவை, ஈரோடு, சேலம், தர்மபுரியை சேர்ந்த
1600 போலீசாரிடம் முதல்வர் ஜெயலலிதா குறை கேட்டார். பெண்காவலர்கள் கைக்குழந்தைகளுடன்
வந்து மனு அளித்தனர். </p><p>
</p><p>
தமிழகத்தில் போலீஸ் சங்கம் அமைக்க அனுமதி மறுத்த முதல்வர் ஜெயலலிதா போலீசாரின்
பிரச்சினைகளை தானே நேரில் கேட்டு அறிந்து நிவாரணம் வழங்குவதாக அறிவித்தார். </p><p>
</p><p>
5 மண்டலமாக பிரிப்பு </p><p>
</p><p>
இதற்காக தமிழக போலீசை தெற்கு, மேற்கு, மத்திய, வடக்கு, சென்னை என்று 5 மண்டலமாக
பிரித் தார். அதன்படி முதற்கட்டமாக தெற்கு மண்டலத்தை சேர்ந்த போலீசார் கடந்த 26-ந்
தேதி சென்னை கோட்டையில் முதல்வர் ஜெயலலிதாவை சந்தித்து மனு கொடுத்தனர். </p><p>
</p><p>
மேற்கு மண்டலம் </p><p>
</p><p>
நேற்று 2-வது கட்டமாக மேற்கு மண்டலத்தை சேர்ந்த கோவை, நீலகிரி, சேலம், நாமக்கல்,
தர்மபுரி, ஈரோடு ஆகிய மாவட்டங்களில் இருந்து போலீசார், தீயணைப்பு படையினர்,
சிறைத்துறையினர் மற்றும் சிறப்பு அதிரடிப்படையினர் சுமார் 1600 பேர் தனி பஸ்களில்
சென்னைக்கு நேற்று வந்து சேர்ந்தனர். பல கல்யாண மண்டபங்களில் அவர்கள் தங்க
வைக்கப்பட்டு இருந்தனர். </p><p>
</p><p>
நேற்று காலை சென்னை கோட்டைக்கு அவர்கள் அழைத்து வரப்பட்டனர். முதல்வர் ஜெயலலிதா அறை
அருகே அவர்களுக்காக துணிப்பந்தல் அமைக்கப்பட்டு இருந்தது. </p><p>
</p><p>
போலீசார் 50, 50 பேராக முதல்வர் ஜெயலலிதாவை சந்திக்க அனுமதிக்கப்பட்டனர்.
ஜெயலலிதாவிடம் போலீசார் தங்கள் குறைகளை கூறியபோது அதிகாரிகள் யாரும் உடன்
இருக்கவில்லை. தனிமையிலேயே அவர்களின் குறைகளை ஜெயலலிதா கேட்டார். </p><p>
</p><p>
போலீசார் பணி இடமாறுதல் , பதவி உயர்வு கோரி மனுக்களை அளித்தனர். பல பெண் போலீசார்
கைக்குழந்தைகளுடன் முதல்வரிடம் மனுக்களை அளித்தார்கள். அவர்களின் குறைகளை பரிவுடன்
ஜெயலலிதா கேட்டு அறிந்து ஆவன செய்வதாக கூறினார். </p><p>
</p><p>
கண்பார்வை இழந்த போலீஸ்காரர் </p><p>
</p><p>
கோவை உக்கடத்தை சேர்ந்த சசிதரன் என்ற போலீஸ்காரர் 96-ம் ஆண்டு அல்-உம்மா
தாக்குதலின்போது தனக்கு ஒரு கண்ணில் 90 சதவீதம் பார்வை பறி போய்விட்டதாக மனு
கொடுத்தார். பின்னர் வௌியே சென்ற அவரை ஜெ. அழைத்து கண் அறுவை சிகிச்சை செய்ய ஏற்பாடு
செய்திருப்பதாக கூறினார். </p><p>
</p><p>
தர்மபுரியை சேர்ந்த ரவிச்சந்திரன் என்பவர் தனக்கு காலில் ஏற்பட்ட காயத்துக்கு அறுவை
சிகிச்சை செய்ய அரசு மருத்துவமனையில் மறுத்துவிட்டனர் என புகார் தெரிவித்தார். அவருக்கு
அப்பல்லோ மருத்துவமனையில் சிகிச்சைக்கு ஏற்பாடு செய்யப்பட்டது. </p><p>
</p><p>
வீரப்பனை பிடிக்கும் </p><p>
</p><p>
அதிரடிப்படை </p><p>
</p><p>
சந்தனக்கடத்தல் வீரப்பனை பிடிக்க நியமிக்கப்பட்டுள்ள அதிரடிப்படை போலீசார் 68 பேர்
நேற்று மனு கொடுத்தனர். அதில் தங்களுக்கு பயணப்படி உள்ளிட்ட படிகள் சரியாக வழங்கப்படுவது
இல்லை. பெரும்பாலும் சும்மாவே இருந்து நேரத்தை கழிக்க வேண்டியுள்ளது என்று கூறியிருப்பதாக
தெரிகிறது. </p><p>
</p><p>
இதை அடுத்து வருகிற 5-ந் தேதி மத்திய மண்டல போலீசாரை ஜெயலலிதா சந்திக்கிறார். </p><p>
</p><p>
வரிசையில் நின்று மனு கொடுத்த துணை கமிஷனர் </p><p>
</p><p>
கோவை போலீஸ் துணை கமிஷனர் நாகராஜன் வரிசையில் நின்று ஜெயலலிதா விடம் மனு
கொடுத்தார். மனுவில் ஆயுதப்படையில் இருக்கும் தன்னை சென்னைக்கு மாற்றுமாறு கேட்டுக்
கொண்டு உள்ளார். </p>

<p> </p>

<p> </p>

<p>கண்ணப்பனை கைது செய்ய
மத்திய அரசு அனுமதி தேவையா? டி.ஜி.பி. நெயில்வால் பதில்</p>

<p> </p>

<p>சென்னை,
ஆக.3- மத்திய அமைச்சர் கண்ணப்பனை கைது செய்ய மத்திய அரசு அனுமதி தேவையா? என்ற
கேள்விக்கு டி.ஜி.பி. நெயில்வால் பதில் அளித்தார். </p><p>
</p><p>
தமிழக டி.ஜி.பி. நெயில்வால் நேற்று நிருபர்களுக்கு பேட்டி அளித்தார். அதன் விவரம்
வருமாறு:- </p><p>
</p><p>
கேள்வி:- நெடுமாறன் பொடாவில் கைது செய்யப்பட்டது ஏன்? </p><p>
</p><p>
பதில்:- கடந்த ஏப்ரல் 13-ந்தேதி அவர் பேசிய பேச்சை வைத்து நடவடிக்கை எடுக்கப்
பட்டுள்ளது. </p><p>
</p><p>
கேள்வி:- நெடுமாறனை விட மோசமாக பேசிய பலர் இருக்கிறார்கள். அவர்கள் மீது நடவடிக்கை
உண்டா? </p><p>
</p><p>
பதில்:- இதற்கு இப்போது பதில் கூற முடியாது. தேவை வரும்போது அதற்கேற்ப செயல் படுவோம். </p><p>
</p><p>
சட்டப்பிரச்சினை </p><p>
</p><p>
கேள்வி:-மத்திய அமைச்சர் கண்ணப்பனை கைது செய்வதில் தடையேதும் இருக் கிறதா? </p><p>
</p><p>
பதில்:- இதில் சட்டப் பிரச்சினையை ஆராய வேண்டியிருக்கிறது. </p><p>
</p><p>
கேள்வி:- ஏப்ரல் மாதம் பேசிய பேச்சுக்கு இவ்வளவு தாமதமாக நடவடிக்கை எடுப்பது ஏன்? </p><p>
</p><p>
பதில்:- சட்டப்படி எப்போது வேண்டுமானாலும் நடவடிக்கை எடுக்கலாம். </p><p>
</p><p>
கேள்வி:- கண்ணப்பனை கைது செய்ய மத்திய அரசின் அனுமதி தேவையா? </p><p>
</p><p>
பதில்:- இது சட்டப்பிரச்சினை. </p><p>
</p><p>
கேள்வி:- நெடுமாறனை சென்னை சிறையில் வைக்குமாறு நீதிபதி கூறியிருந்தும் அவரை கடலூருக்கு
கொண்டு சென்றது ஏன்? </p><p>
</p><p>
பதில்:- அது சிறைத்துறை எடுத்த முடிவு. </p><p>
</p><p>
கேள்வி:- வேறு யார் மீது நடவடிக்கை எடுக்கப்பட இருக்கிறது? </p><p>
</p><p>
பதில்:- இப்போதுள்ள சூழ்நிலைப்படி நெடுமாறனை கைது செய்ய போதிய ஆதாரங் கள்
இருக்கின்றன. எனவே நடவடிக்கை எடுத்துள்ளோம். மற்றவர்கள் பற்றி இப்போது கூற முடியாது. </p><p>
</p><p>
குற்றப்பத்திரிகை </p><p>
</p><p>
கேள்வி:- வைகோ மீது குற்றப்பத்திரிகை எப்போது தாக்கல் செய்யப்படும்? </p><p>
</p><p>
பதில்:- உரிய காலத்தில் குற்றப்பத்திரிகை தாக்கல் செய்யப்படும். </p><p>
</p><p>
கேள்வி:- வைகோ வீட்டை சோதனையிட வாரண்ட் பெறப்பட்டுள்ளதா? </p><p>
</p><p>
பதில்:- வழக்கு விசாரணைக்குத் தேவையான நடவடிக்கைகளை எடுப்போம். </p><p>
</p><p>
இவ்வாறு கூறினார். </p>

<p> </p>

<p>சிவகாசி பஸ் நிலையம் அருகே
தீப்பெட்டி ஆலையில் பயங்கர தீ விபத்து : 4 பேர் கருகிச் சாவு; 7 பேர் கவலைக்கிடம்</p>

<p> </p>

<p>சிவகாசி, ஆக.3- </p><p>
</p><p>
சிவகாசி பஸ் நிலையம் அருகே உள்ள ஒரு தீப்பெட்டி தொழிற்சாலையில் நேற்று காலையில்
ஏற்பட்ட பயங்கர தீ விபத்தில் 4 பேர் பலியானார்கள். 7 பேரின் நிலைமை கவலைக்கிடமாக
உள்ளது. மேலும் 7 பேருக்கு பலத்த காயமும் ஏற்பட்டு உள்ளது. </p><p>
</p><p>
இது பற்றிய விவரம் வருமாறு:- </p><p>
</p><p>
தீப்பெட்டி தொழிற்சாலை </p><p>
</p><p>
சிவகாசி பஸ் நிலையம் அருகே ஒரு தனியார் தீப்பெட்டி தொழிற்சாலை உள்ளது. இதில் ஒரு பகுதி
எந்திர தொழிற்சாலை ஆகும். இங்கு நூற்றுக்கணக்கானோர் வேலை செய்கிறார்கள். நேற்று
(வௌ்ளி) காலை இங்கு வேலை நடந்து கொண்டு இருந்தபோது அடைத்தல் என சொல்லப்படும்
பிரிவில் குச்சிகள் இணைத்து தீப்பெட்டியாக உருவாக்கும் இடத்தின் அருகே திடீரென
தீப்பிடித்தது. இதனால் தீயை கண்டு பணியாளர்கள் அலறி அடித்து ஓடினார்கள். தீ வேகமாக
பிடித்து அறையில் பரவியது. இதனையடுத்து தீ மளமளவென எரிந்து தொழிற்சாலை முழுவதும் பரவியது.
இதனால் பெரும் பதட்டம் ஏற்பட்டது. </p><p>
</p><p>
ஒருவர் பலி </p><p>
</p><p>
தீ வேகமாக எரிந்ததால் வேலை ஆட்கள் தொழிற் சாலையை விட்டு வௌியேறி னார்கள். தீ
விபத்தில் சிக்கி சிவகாசி அருகே உள்ள சாட்சியாபுரம் ஆசாரி காலனி பால்ராஜ் என்பவரது
மகன் கார்த்திகேயன் (வயது 24) சம்பவ இடத்திலேயே இறந்தார். தீ விபத்து குறித்து குறித்து
தகவல் அறிந்த சிவகாசி தீயணைப்பு நிலைய அதிகாரி பொன்.செல்வேந்திரன் தலைமையில்
தீயணைப்பு வீரர்கள் விரைந்து வந்து சம்பவ இடத் திற்கு சென்று தீயை அணைக்க
தொடங்கினார்கள். தீய ணைப்பு வண்டிகளில் வந்து தீயை வேகமாக அணைக்க முற்பட்டனர்.
தீயினால் பலத்த காயம் அடைந்த 17 பேர் சிவகாசி அரசு மருத்துவ மனைக்கு கொண்டு செல்லப்
பட்டனர். </p><p>
</p><p>
2 பெண்கள் பலி </p><p>
</p><p>
இதில் சிவகாசி முனீஸ்வரன் காலனியைச் சேர்ந்த முத்து பிள்ளையின் மகள் கோமதி (வயது20)
என்பவரும், சிவகாசி பாரதி நகரைச் சேர்ந்த சந்திர சேகர் என்பவரது மகளான பொன்மணி (வயது
19) என்ற பெண்ணும் உடல் கருகியதில் உயிர் இழந்தனர். </p><p>
</p><p>
மேலும் ஒருவர் சாவு </p><p>
</p><p>
மேலும் பலத்த காயத்துடன் உயிருக்கு போராடிய நிலை யில் சித்ரா (வயது 20), முரு கேசுவரி (வயது
17), வெற்றி வேல் (வயது20), முனீஸ்வர (வயது 27) ராஜா (வயது 22) பாக்கியராஜ் (வயது 26)
அர்ச் சுனன் (வயது23) வசந்தா (வயது 28) ஆகிய 8 பேர் தீக் காய சிகிச்சை பிரிவுக்கு உட்
படுத்தப்பட்டனர். இதில் உடல் கருகிய நிலையில் மிகவும் ஆபத் தான நிலையில் மருத்துவ
மனையில் சிகிச்சைக்கு அனு மதிக்கப்பட்ட திருத்தங்கல் பனையடிப்பட்டி தெருவைச் சேர்ந்த
முத்தையா என்பவரது மகனான ராஜா (வயது22) என்பவர் சிகிச்சை பலனின்றி இறந்தார். </p><p>
</p><p>
மேலும் காயம் அடைந்த பெருமாள் (வயது38) பூங் கொடி, சுதாகர் (வயது 22) செல்லச்சாமி,
அன்புக்கனி, தனபால், மல் லிகா ஆகிய 7 பேருக்கு சிகிச்சை அளிக்கப் பட்டு வருகிறது. </p><p>
</p><p>
தீ விபத்து ஏற்பட்ட இடத் திற்கு சிவகாசி கிழக்கு டவுண் போலீஸ் இன்ஸ்பெக்டர்கள்
கோவிந்தராஜன், வௌ்ளை யன் ஆகியோர் சென்று பார் வையிட்டு தீயால் பாதிக்கப்
பட்டவர்களை அரசு மருத்துவ மனைக்கு கொண்டு சென் றனர். இச் சம்பவம் குறித்து சிவகாசி
போலீசார் வழக்குப் பதிவு செய்து விசாரணை நடத்தி வருகின்றனர். </p><p>
</p><p>
உறவினர்கள் கதறல் </p><p>
</p><p>
சிவகாசியில் தீ விபத்து ஏற்பட்ட தீப்பெட்டி தொழிற் சாலைக்கு சிவகாசியை சுற்றி உள்ள
கிராமங்களில் இருந்து வந்து இங்கு வேலை செய்கி றார்கள். இதனால் பாதிக்கப் பட்டவர்களை
தேடியும், அவர் களை பார்க்கவும் அவர்களது உறவினர்கள் சம்பவ இடத் திற்கும் சிவகாசி அரசு
மருத்துவமனைக்கும் சென்று பார்வையிட்டனர். மேலும் இறந்தவர்களின் உறவினர்கள் அரசு
மருத்துவமனையில் அழுது புலம்பியது நெஞ்சை உருக்குவதாக இருந்தது. </p><p>
</p><p>
குளிர் சாதனம் இயங்கவில்லை </p><p>
</p><p>
சிவகாசி அரசு மருத்துவ மனையில் அவசர சிகிச்சை பிரிவில் ஏற்கனவே உள்ள குளிர் சாதனம்
இயங்கவில்லை. மேலும் அந்த அறையில் போதிய மின் விசிறி கூட இல்லாமல் இருந்தது வேதனைக்
குரிய விஷயம் ஆகும். அரசு மருத்துவமனையில் ஏ.சி.இயங் காததை பல முறை சுட்டிக் காட்டியும்
அதற்கு இன்னும் தீர்வு ஏற்படாமல் உள்ளதால் நேற்றைய சம்பவத்தில் பெரிதும் பாதிப்பு
ஏற்பட்டது. தீயினால் பாதிக்கப்பட்டவர்கள் ஏற்கனவே அவர்களுக்கு எரிச்சல் இருக்கும் வேளையில்
சிவகாசியில் கோடை வெயில் போல வெப்ப காற்று வீசுகிறது. அரசு மருத்துவமனையில் உள்ள மின்
விசிறிகள் மூலம் வெப்ப காற்றே வௌியானது. மேலும் அரசு மருத்துவமனை யில் உள்புற சாலை
மிகவும் மோசமாக உள்ளது. இதனால் ஆம்புலன்சில் கொண்டு செல்லப்பட்ட நோயாளிகள்
பாதிப்பு அடைந்தனர். சிவகாசி யில் ஏற்பட்ட தீ விபத்து அப்பகுதியில் பெரும் பரபரப் பை
ஏற்படுத்தியது. </p><p>
</p><p>
கடவுள் அருளால் தப்பினேன் </p><p>
</p><p>
தீ விபத்தினால் பாதிக்கப் பட்டவர்கள் மற்றும் இறந்தவர் களின் உறவினர்கள் கண்ணீர்
மல்க நின்று கொண்டு இருந் தனர். தீ விபத்து ஏற்பட்ட தொழிற்சாலையில் வேலை செய்யும்
பி.கே.என்.ரோட்டைச் சேர்ந்த மல்லிகா (வயது 22) கூறுகையில், னாதினமும் காலை யில் வேலை
செய்வது போல இன்றும் (நேற்று) நான் வேலை செய்தபோது திடீரென எங்கள் அலுவலகத்தில் இருந்து
அனை வரும் ஓடினார்கள். மேலும் தீ விபத்து குறித்து தகவல் அறிந்த நான் பதட்டத்துடன் வௌியே
சென்றேன் என்றார். </p><p>
</p><p>
நாரணாபுரம் ரோட்டைச் சேர்ந்த பால்ராஜ் (வயது 34) கூறுகையில், தீப்பெட்டி தொழிற்
சாலையில் தீ விபத்து ஏற்பட்டது என கேள்விப்பட்ட நான் திரும்பி பார்ப்பதற்குள் தீ
வேகமாக எரிய தொடங்கி விட்டது. மேலும் நான் உயிரை கையில் பிடித்துக் கொண்டு கடவுளின்
அருளால் தப்பி னேன் என கூறினார். </p><p>
</p><p>
இறந்த கோமதி என்ற பெண்ணுடன் வேலை செய்யும் சுப்பிரமணியபுரம் காலனியைச் சேர்ந்த மேரி
(வயது26) கூறும்போது, நானும் கோமதியும் இணைந்து தான் வேலைக்கு வருவோம். இன்று (நேற்று)
ஏற்பட்ட தீ விபத்தில் என் உயிர் தோழி இறந்தது என் நெஞ்சை பிளப் பதாக உள்ளது என
கூறினார். </p><p>
</p><p>
எந்திரங்கள் சேதம் </p><p>
</p><p>
தீ விபத்து ஏற்பட்ட தொழிற்சாலையில் குச்சிகளில் மருந்து தடவும் எந்திரங்களில் ஏற்பட்ட
உராய்வின் காரண மாக தீ விபத்து ஏற்பட்டதாக தெரிகிறது. இந்த தீ விபத்தில் தீப்பெட்டி
தொழிற்சாலையில் இருந்த 6 பெரிய எந்திரங்களும் 3 சிறிய எந்திரங்களும் பாதிக் கப்பட்டு
உள்ளது. இதனால் பல லட்சம் சேதம் அடைந்து இருக் கும் என கூறப்படுகிறது. தீயை விரைந்து சென்று
அணைத்த தால் பொருட் சேதம் குறைந்தது என தீயணைப்பு நிலைய அதிகாரி பொன்.
செல்வேந்திரன் தெரிவித்தார். மேலும் தீவிபத்து ஏற்பட்ட இடத்திற்கு கோட்ட தீயணைப்பு
அதிகாரி காசி நாததுரை சென்று பார்வையிட்டார். </p><p>
</p><p>
விழிப்புணர்வு தேவை </p><p>
</p><p>
சிவகாசி ஒரு தொழில் நகரமாகும். இங்கு தீப்பெட்டி தொழிற்சாலைகளும் பட்டாசு ஆலைகளும்
நிறைய உள்ளது. இங்கு பல்லாயிரக்கணக்கான மக்கள் வேலை செய்கின்றனர். மேலும் தீப்பெட்டி
தொழிற் சாலைகளிலும் பட்டாசு தொழிற்சாலைகளிலும் அடிக் கடி தீ விபத்து நடைபெறு கிறது.
மேலும் தீ விபத்து குறித்து தீப்பெட்டி தொழிற் சாலைகளில் வேலை செய்யும் , பட்டாசு
தொழிற்சாலைகளில் வேலை செய்யும் தொழிலாளர் களுக்கு விழிப்புணர்வும் எச்ச ரிக்கையும்
தேவை. மேலும் தீ விபத்து ஏற்பட்டால் பாதிக்கப் பட்டவர்களுக்கு உடனடியாக நவீன முறையில்
சிகிச்சை அளிக்க ஏற்பாடுகளை அரசு செய்ய வேண்டும். கோடை காலங்களிலேயே அதிகமாக தீ
விபத்து சிவகாசியில் ஏற்படுகிறது. </p><p>
</p><p>
எனவே தீயணைப்பு துறை யினர் தக்க ஏற்பாடுகளை ஏற்கனவே சிறந்த முறையில் செய்த போதும்
அவர்களுக்கு நவீன முறையில் தீயணைப்பு கருவிகளை அரசு தந்தால் மட்டுமே சிவகாசியில் தீ
விபத்தால் பாதிக்கப்படும் மனித உயிர்களை இனியாவது காப்பாற்ற முடியும் என இங்கு உள்ள
தொழிற்சாலைகளில் பணி புரியும் தொழிலாளர்கள் தரப்பில் கூறப்படுகிறது. </p><p>
</p><p>
கலெக்டர் பார்வையிட்டார் </p><p>
</p><p>
சிவகாசி அரசு மருத்துவ மனைக்கு விருதுநகர் மாவட்ட கலெக்டர் டாக்டர் கே.கோபால்,
எஸ்.பி.மகேஸ்வர்தயாள், டி.எஸ்.பி.ராஜாங்கம், தாசில் தார் ஆகியோர் நேரில் சென்று
பார்வையிட்டனர். தீவிபத்தி னால் பாதிக்கப்பட்டவர்களுக்கு கலெக்டர் ஆறுதல் கூறினார்.
மேலும் அவர் இறந்தவர்களின் உடலை பார்க்கவில்லை. </p><p>
</p><p>
நடவடிக்கை எடுக்கப்படும் </p><p>
</p><p>
பின்னர் அவர் பேட்டியளித் தார். அப்போது அவர் கூறியதாவது:- </p><p>
</p><p>
தீ விபத்தால் 3பேர் இறந்து உள்ளனர். மற்றும் காயம் அடைந்த 15பேரில் 6பேரை சிவகாசி
இ.எஸ்.ஐ. மருத்துவ மனையில் சிகிச்சைக்காக கொண்டு சென்று உள்ளனர். 2பேரின் நிலைமை
மிகவும் மோசமாக உள்ளது. மேலும் 7பேருக்கு லேசான காயங்கள் ஏற்பட்டு உள்ளது. மனித உயிர்
தீயினால் இழப்பதே இனி ஏற்படாதவாறு நடவடிக்கை எடுக்கப்படும். தீக்காய சிகிச்சை
பிரிவுக்கு உடனடியாக குளிர் சாதன எந்திரம் வைக்க வேண்டும் எனவும், டி.ஆர்.ஓ.
கண்ணியப்பன் மூலம் விசாரணை செய்து தீ விபத்து ஏற்பட காரணம் என்ன? தொழிலாளர்கள்
கவன குறைவா? நிர்வாகத்தின் மீது குறைவா? என கண்டு அறிந்து அதற்குரிய நடவடிக் கை
உடனடியாக எடுக்கப்படும். </p><p>
</p><p>
மேலும் மழைநீர் சேமித்தல், வாளியில் மண் மற்றும் தண்ணீர் எப்போதும் தொழிற்
சாலைகளில் வைத்திருக்க வேண்டும். சிவகாசி ஒரு தொழில் நகரமாகும். அரசு மருத்துவமனைக்கு
வேண்டிய உதவிகளை அரசு செய்ய நடவடிக்கை எடுக்கப்படும். தொழிலாளர்களுக்கு தீ விபத்து பற்றி
விழிப்புணர்வு ஏற்படுத்தப்படும். இதற்கு அதற் குரிய அசோசியேசன் ஆகியவற் றுடன் பேசி
நடவடிக்கை எடுக்க படும். </p><p>
</p><p>
இவ்வாறு அவர் கூறினார். </p>

<p> </p>

<p> </p>

<p>கணிதம், அறிவியல்,
ஆங்கிலம் கற்பிக்க அனுப்பப்படுவர்: இந்திய ஆசிரியர்களுக்கு மலேசியாவில் வேலைவாய்ப்பு -
மத்திய அரசு அறிவிப்பு</p>

<p> </p>

<p>புதுடெல்லி, ஆக. 3- மலேசியாவுக்கு இந்தியாவில் இருந்து கணிதம், ஆங்கிலம்
மற்றும் விஞ்ஞான ஆசிரியர்கள் வேலைக்காக அனுப்பப்பட உள்ளனர். இதை
டெல்லியில் நேற்று மத்்திய அரசு அறிவித்தது. </p><p>
</p><p>
பேச்சுவார்த்தை </p><p>
</p><p>
மத்திய மனிதவள மேம்பாட்டுத் துறை அமைச்சர் முரளிமனோகர் ஜோஷியை நேற்றுமுன்தினம் மாலை
டெல்லியில் மலேசிய கல்வி அமைச்சர் பின் முகமது சந்தித்துப் பேசினார். அப்போது, சென்னை
பல்கலைக்கழகத்தில் மலேசிய கல்வி மையமும், மலேசிய பல்கலைக்கழகத்தில் இந்திய கல்வி
மையமும் திறப்பது பற்றி விவாதித்தனர். மேலும் இந்திய அமைச்சர் மலேசியா வரும்போது
இருநாடுகளி டையே கல்வி பரிவர்த்தனை தொடர்பான உடன்பாடுகள் கையெழுத்திடுவது என்றும் முடிவு
செய்யப்பட்டது. </p><p>
</p><p>
கூட்டுப் பயிற்சி </p><p>
</p><p>
இந்த விளைவாககற்பித்தல், ஆராய்ச்சி சாதனங்கள் பகிர்ந்து கொள்தல், கூட்டாக
கருத்தரங்கு, ஆய்வுக் கூட்டங்கள் நடத்துதல் போன்றவை நடைபெறும். மேலும் உயர் கல்விக்கு
உதவித் தொகை வழங்கப்படும். தகவல் தொழில்நுட்பம் கணினி, கணிதம்,
விஞ்ஞானம் போன்றவற்றை கற்பிக்கும் உதவியும் வழங்கப்படும். </p><p>
</p><p>
இவ்வாறு மத்திய அரசின் செய்திக்குறிப்பு கூறுகிறது. </p>

<p> </p>

<p> </p>

<p>ரூ.5 கோடி தராவிட்டால்
குஜராத் மந்திரியை கொல்வதாக சோட்டா ஷகீல் மிரட்டல்</p>

<p> </p>

<p>காந்திநகர்,
ஆக.3- தீவிரவாதி சோட்டாஷகீல் ரூ.5 கோடி கேட்டு குஜராத் மந்திரியை கொல்லப்போவதாக
மிரட்டி உள்ளான். </p><p>
</p><p>
மர்ம டெலிபோன் </p><p>
</p><p>
குஜராத் மாநில மீன்வளத்துறை மந்திரி புருசோத்தம் சோலங்கி இவருடைய வீடு காந்திநகரில்
உள்ளது. நேற்று அந்த வீட்டுக்கு ஒரு மர்ம டெலிபோன் வந்தது. அந்த போனை மந்திரி
சோலங்கியின் பாதுகாவலர் (கம்மாண்டோ) நரோத்தம் தேவ்சங்கர் தண்டாலியா எடுத்து
பேசினார். </p><p>
</p><p>
எதிர் முனையில் பேசியவன், நான் சொல்வதை கவனமாக கேள். நான் பிரபல தீவிரவாதி சோட்டா
ஷகீலுடைய கூட்டாளி. எங்களுக்கு உடனே ரூ.5 கோடி உங்க மந்திரி தரணும். பணம் தராவிட்டால்
உங்க மந்திரி கதையை முடித்து விடுவோம் என்று பட, பட என சொல்லிவிட்டு டெலிபோனை
வைத்துவிட்டான். </p><p>
</p><p>
சாதகமான பதில் </p><p>
</p><p>
அப்படி போனை கீழே வைக்கும்போது, என்னை தொடர்பு கொள்ள டெலிபோன் எண் இது. எனவே
சாதகமான பதிலை அந்த நம்பருக்கு டயல் செய்து கொஞ்ச நேரத்தில் சொல் என்று
கூறினான். </p><p>
</p><p>
இதுபற்றி மந்திரி சோலங்கியின் பாதுகாவலர் நரோத்தம் போலீசில் புகார் செய்தார்.
அதன் மீது 506(2), 507 இ.பி.கோ. செக்ஷன்களின் கீழ் வழக்குபதிவு செய்யப்பட்டு விசாரணை
நடைபெற்று வருகிறது. </p><p>
</p><p>
தம்பிக்கு மிரட்டல் </p><p>
</p><p>
மந்திரி சோலங்கியின் தம்பி பரத் மும்பை அந்தேரி பகுதியில் வசிக்கிறார். அவர்
வீட்டுக்கும் நேற்று ஒரு மர்ம டெலிபோன் வந்தது. அதை பரத் எடுத்தார். இந்த முறை
டெலிபோனில் கர கரத்த குரல், நான் சோட்டா ஷகீல் பேசுகிறேன். உன் அண்ணன் மந்திரி
சோலங்கி நிறைய சம்பாதித்து வைத்திருக்கிறார். எனவே எனக்கு ரூ.5 கோடி அவரை தரச்சொல்
என்று சொல்லி மிரட்டியது. </p><p>
</p><p>
மேலும் அந்த ஆசாமி தொடர்ந்து, நான் சொல்கிற போன் நம்பரை குறித்து கொள். மந்திரி
சோலங்கி வந்ததும் என்னோடு பேச சொல் என்று கூறி ஒரு நம்பரை கொடுத்தான். </p><p>
</p><p>
வில்லங்க மந்திரி </p><p>
</p><p>
இது தொடர்பாக மந்திரி யின் தம்பி பரத் ஒரு புகாரை மும்பை அந்தேரி போலீசில் புகார்
கொடுத்து உள்ளார். </p><p>
</p><p>
குஜராத் மந்திரி சோலங்கி பல பிரச்சினைகளில் ஏற்கனவே சிக்கிக்கொண்டிருப் பவர். அவர்
மீது பல கிரிமினல் புகார்கள் கூறப்பட்டு போலீசில் பதிவாகி உள்ளன. இப்போது சோட்டா
ஷகீல் பிரச்சினை வேறு வந்திருக்கிறது. இந்த நேரத்தில் அவர் வௌியூர் போய் இருக்கிறார்
என்பது குறிப்பிடத்தக்கது. எனவே அவரிடம் நிருபர்கள் தொடர்பு கொள்ள முடியவில்லை. </p><p>


</p>

<p>உளவு செயற்கைக்கோள்:
இந்தியா ஏவுகிறது</p>

<p> </p>

<p>பெங்களூர், ஆக. 3- ராணுவ உளவு செயற்கைக்கோளை இந்தியா விரைவில்
ஏவும் என்று அறிவிக்கப்பட்டுள்ளது. </p><p>
</p><p>
பேட்டி </p><p>
</p><p>
பெங்களூரில் நேற்று ராணுவ மந்திரியின் அறிவியல் ஆலோசகர் வி.கே.ஆத்ரே நிரு பர்களிடம்
கூறியதாவது:- </p><p>
</p><p>
முப்படைகளுக்கும் உதவும் வகையில் ராணுவ உளவு செயற்கைக்கோள் ஒன்றை தயாரிக்க இந்தியா முடிவு
செய்துள்ளது. இந்த செயற்கைக்கோள் விரைவில் ஏவப்படும். ராணுவத்தினர் தேவைகளுக் கேற்ப
இந்த செயற்கைக்கோள் தயாரிக்கப்படும். இந்த திட்டம் பற்றிய பிற விவரங்களை இப்போது
தெரிவிக்க முடி யாது. </p><p>
</p><p>
இவ்வாறு அவர் கூறினார். </p><p>
</p><p>
இந்த புதிய உளவு செயற்கைகோள் பயன்படுத்தி எல்லையில் தீவிரவாதிகள் ஊடுரு வல்,
பாகிஸ்தான் படைகள் குவிப்பு ஆகியவற்றை துல்லியமாக படம் பிடிக்கும். </p>

<p> </p>

<p> </p>

<p>உளவு செயற்கைக்கோள்:
இந்தியா ஏவுகிறது</p>

<p> </p>

<p>பெங்களூர், ஆக. 3- ராணுவ உளவு செயற்கைக்கோளை இந்தியா விரைவில்
ஏவும் என்று அறிவிக்கப்பட்டுள்ளது. </p><p>
</p><p>
பேட்டி </p><p>
</p><p>
பெங்களூரில் நேற்று ராணுவ மந்திரியின் அறிவியல் ஆலோசகர் வி.கே.ஆத்ரே நிரு பர்களிடம்
கூறியதாவது:- </p><p>
</p><p>
முப்படைகளுக்கும் உதவும் வகையில் ராணுவ உளவு செயற்கைக்கோள் ஒன்றை தயாரிக்க இந்தியா
முடிவு செய்துள்ளது. இந்த செயற்கைக்கோள் விரைவில் ஏவப்படும். ராணுவத்தினர் தேவைகளுக்
கேற்ப இந்த செயற்கைக்கோள் தயாரிக்கப்படும். இந்த திட்டம் பற்றிய பிற விவரங்களை
இப்போது தெரிவிக்க முடி யாது. </p><p>
</p><p>
இவ்வாறு அவர் கூறினார். </p><p>
</p><p>
இந்த புதிய உளவு செயற்கைகோள் பயன்படுத்தி எல்லையில் தீவிரவாதிகள் ஊடுரு வல்,
பாகிஸ்தான் படைகள் குவிப்பு ஆகியவற்றை துல்லியமாக படம் பிடிக்கும். </p>

<p> </p>

<p> </p>

<p>ஓய்வெடுக்க எண்ணினேன்,
தமிழக அரசு அளித்து விட்டது: சட்டரீதியில் நடவடிக்கை மேற்கொண்டு சிறையில் இருந்து விடுதலை
ஆவேன்: கடலூர் சிறையில் அடைக்கப்பட்ட பழ.நெடுமாறன் தகவல்</p>

<p> </p>

<p>புதுச்சேரி, ஆக.3- </p><p>
</p><p>
நான் ஓய்வெடுக்க எண்ணினேன். தமிழக அரசு அளித்து விட்டது. சட்ட ரீதியில் நடவடிக்கை
மேற்கொண்டு சிறையில் இருந்து விடுதலை ஆவேன் என்று கடலூர் சிறையில் அடைக்கப்பட்ட
பழ.நெடுமாறன் தெரிவித்துள்ளார். </p><p>
</p><p>
பழ.நெடுமாறன் </p><p>
</p><p>
தமிழர் தேசிய இயக்க தலைவர் பழ.நெடுமாறன் பொடா சட்டத்தில் கைது செய்யப்பட்டு கடலூர்
மத்திய சிறைச்சாலையில் அடைக்கப் பட்டார் அல்லவா? அவரை கடலூர், சிதம்பரம்,
விழுப்புரம் மாவட்டத்தை சேர்ந்த தமிழர் தேசிய இயக்கத்தினர் நேற்று சிறைக்கு சென்று
சந்தித்தனர். மக்கள் உரிமை கூட்டமைப்பின் புதுவை மாநில செயலாளர் கோ.சுகுமாறன், கடலூர்
வக்கீல் தேவநாதன் ஆகியோர் பழ. நெடுமாறனை நேற்று கடலூர் சிறையில் சந்தித்தனர். 45
நிமிடம் இவர்கள் இருவரும் அவரிடம் பேசினர். அப்போது அவர்களிடம் பழ.நெடுமாறன்
கூறியதாவது:- </p><p>
</p><p>
கடந்த 20, 21-ந்தேதிகளில் சென்னையில் உலக தமிழர் பேரமைப்பு மாநாடு நடந்தது. இதன்
பின் சிறிது ஓய்வெடுக்க எண்ணினேன். அந்த ஓய்வை தமிழக அரசு எனக்கு அளித் துள்ளது. இதற்காக
ஜெயலலிதா வுக்கு நன்றி தெரிவித்துக் கொள்கிறேன். மலேசியாவில் நாளை (இன்று) தேவநேய
பாவாணர் நூற்றாண்டு விழா நடக்க இருந்தது. இதில் கலந்து கொள்வதற்காக இன்று (நேற்று)
மலேசியா புறப்பட இருந்தேன். இந்த நிலையில் தமிழக போலீசார் அவசர அவசரமாக கைது
செய்தனர். வைகோவை விமானத்தில் இறந்து இறங்கியதும் போலீசார் கைது செய்தனர். ஆனால்
விமானத்தில் ஏறுவதற்கு முன் என்னை கைது செய்திருக்கிறார்கள். </p><p>
</p><p>
மாற்றம் இல்லை </p><p>
</p><p>
ஆர்.எஸ்.எஸ். இயக்கம் தடை செய்யப்பட்ட போது தற்போது துணை பிரதமர் அத்வானி உள்பட பல
தலைவர்கள் ஆர்.எஸ்.எஸ். மீதான தடையை நீக்க கோரினார்கள். அதேபோல் தடை செய்யப்பட்ட
விடுதலைப் புலிகள் இயக்கத்தின் மீதான தடையை நீக்க கோரி வருகிறோம். இலங்கையில்
ஈழ தமிழர் களுக்காக விடுதலைப்புலிகள் இயக்கத்தினர் போராடி வரு கிறார்கள். ஈழ
தமிழர் பிரச்சினையில் விடுதலைப்புலிகளை பிரித்து பார்க்க முடியாது. ஆகவே விடுதலைப்
புலிகளை நாங்கள் ஆதரித்து வருகிறோம். எங்கள் நிலைப் பாட்டில் எந்தவித மாற்றமும்
இல்லை. </p><p>
</p><p>
சட்டப்படி நடவடிக்கை </p><p>
</p><p>
ம.தி.மு.க. பொது செயலாளர் வைகோ பொடா சட்டத்தை ஆதரித்து வருகிறார். அதனால் தான் கைது
செய்யப்பட்டதை எதிர்த்தும், தன் மீது வழக்கு போட்டதை எதிர்த்தும் சட்ட ரீதியான
நடவடிக்கை எடுக்க வில்லை. நாங்கள் ஆரம்பம் முதலே பொடா சட்டத்தை எதிர்த்து வருகிறோம்.
என்னை கைது செய்ததை எதிர்த்தும், என் மீது வழக்கு போட்டதை எதிர்த்தும் நீதி மன்றத்தில்
வழக்கு தொடர்ந்து சட்ட ரீதியான நடவடிக்கை மேற்கொண்டு சிறையில் இருந்து விடுதலையாவேன்.
இதற்காக எங்கள் இயக்கத்தின் வக்கீல் குழு நடவடிக்கை மேற்கொண்டு வருகிறது. இந்த சட்ட
ரீதியான நடவடிக்கை வைகோவுக்கும் உதவியாக இருக்கும். </p><p>
</p><p>
வருகிற 9-ந்தேதி சென்னை யில் மக்கள் உரிமை கூட்ட மைப்பு சார்பில் வைகோ,
புதுக்கோட்டை பாவாணன் கைது கண்டித்து நடக்க இருக் கும் ஆர்ப்பாட்டம் திட்டமிட்ட படி
நடக்கும். சிறையில் எனக்கு முதல் வகுப்பு அளிக்கப்பட்டுள் ளது. நான் ஏற்கனவே கொண்டு வந்த
புத்தகங்களை படித்து வருகிறேன். சிறையில் நான் நன்றாக இருக்கிறேன். </p><p>
</p><p>
இவ்வாறு அவர் கூறினார். </p><p>
</p><p>
இந்த தகவலை மக்கள் உரிமை கூட்டமைப்பின் புதுவை மாநில செயலாளர் கோ.சுகுமாறன் நேற்று
புதுவையில் நிருபர்களிடம் கூறினார். </p>

<p> </p>

<p> </p>

<p>கூடங்குளம் அணுமின் நிலைய
கட்டுமான பணிகள் தொடக்கம்</p>

<p> </p>

<p>சென்னை,
ஆக. 3- கூடங்குளம் அணுமின் நிலையத்தில் மின்னுலை மற்றும் இதர கட்டுமான பணிகள் தொடங்கப்பட்டுள்ளன.
</p><p>
</p><p>
கட்டுமான பணிகள் </p><p>
</p><p>
கூடங்குளம் அணுமின் நிலைய மின்னுலை (டர்பன்) கட்டிட மற்றும் இதர கட்டுமான பணிகள்
தொடங்கப்பட்டுள்ளன. இந்திய அணு மின் கழகத்தின் தலைவர் டாக்டர் வி.கே.சதுர்வேதி,
தமிழக மின்சார வாரியத்தலைவர், பாண்டிச்சேரி மின்சாரத்துறை தலைவர் ஆகியோர் மின்னுலை
பணிகளை தொடங்கி வைத்தனர். </p><p>
</p><p>
ஆயிரம் மெகாவாட் மின்சாரம் தயாரிக்கும் அளவுக்கு கூடங்குளம் அணுமின் நிலை யம் திறன்
பெற்றுள்ளது. அலகு-1 மற்றும் அலகு-2ம் பிரிவு பணிகள் ஓராண்டு கால அவகாசத்துக்குள்
முடிக்கப்பட வேண்டும் என இலக்கு நிர்ணயிக்கப்பட்ட போதிலும், அதற்கு மூன்று மாதங்கள் முன்னதாக
பணிகள் நடந்து முடிந்துள்ளன. வருகிற 2004-2005ம் ஆண்டில் அலகு-3 மற்றும் அலகு-4
ஆகியவற்றுக்கான பணிகள் தொடங்கப்படும் என்று எதிர்பார்க்கப்படுகிறது. </p><p>
</p><p>
60 ஆண்டுகள் </p><p>
</p><p>
இந்த நிலையத்தில் உற்பத்தியாகும் மின்சாரம் தமிழகத்துக்கு பெருமளவில் உதவி கரமாக
அமையும் என்பதோடு மட்டுமல்லாது, தென் மாநிலங்களுக்கும் உதவு வதாக இருக்கும். இந்த அணு
மின் நிலையத்தின் செயல்பாட்டு காலம் 50 முதல் 60 ஆண்டுகள். </p><p>
</p><p>
தற்போது 8 அலகுகளின் கட்டுமான பணிகள் நடைபெற்று வருகிறது. அடுத்த 5 முதல் 6 ஆண்டுகளுக்கு
ஒவ்வொரு ஆண்டிலும் கூடுதலாக 800 மெகா வாட் மின் உற்பத்தியை எட்டுவதற்கான திறன் கூட்டும் பணிகளில்
இந்திய அணுமின் கழகம் ஈடுபட்டுள்ளது. 2002ம் ஆண்டில் மொத்தமாக 20,000 மெகாவாட்
மின்சாரத்தை தயா ரிக்கக்கூடிய திட்டத்தை இந்நிறுவனம் வகுத்துள்ளது. </p><p>
</p><p>
மாற்று சக்தி </p><p>
</p><p>
மேற்கு மற்றும் தென் பிராந்தியங்களில் ஏற்பட்டுள்ள நெருக்கடிகளின் காரணமாக மாற்று
சக்தியை ஊக்குவிக்கும் பணியில் இந்த நிறுவனம் ஈடுபட்டுள்ளது. இதற்காக மாநில அரசுகள்,
நிதி நிறுவனங்களுடன் கூட்டு முயற்சி நடவடிக்கைகள் மேற் கொள்ளப்பட்டு வருகின்றன. </p><p>
</p><p>
இந்திய அணுமின் கழக நிறுவனத்தின் அனைத்து அலகுகளும் எதிர்பார்த்ததை விட மிக சிறப்பாக
செயல்பட்டு வருகின்றன. கடந்த நிதியாண்டில் 86 சதவிகித உயர் மின்திறன் இலக்கை
அடைந்துள்ள இந்நிறுவனம், இந்த ஆண்டில் ஒரு சதவிகிதத்திற் கும் கூடுதலான உயர் மின் திறனை
கூட்டித்தரும் என்று எதிர்பார்க்கப்படுகிறது. </p><p>
</p><p>
இந்த தகவலை மத்திய அரசு செய்திக்குறிப்பு தெரிவிக்கிறது. </p><p>


</p>

<p> </p>

<p> </p>

<p>புதிய பொறியியல்
கல்லூரியில் சேர்ந்த மாணவர்களை வேறு கல்லூரிக்கு அனுப்ப தடை</p>

<p> </p>

<p>சென்னை,ஆக.3- புதிய பொறியியல் கல்லூரிகளில் சேர்க்கப்பட்ட
மாணவர்களை வேறு கல்லூரியில் சேர்க்க ஐகோர்ட்டு இடைக்கால தடை விதித்து உள்ளது. </p><p>
</p><p>
வழக்கு </p><p>
</p><p>
தமிழகத்தில் 250 புதிய பொறியியல் கல்லூரிகள் தொடங்கப்பட்டது. இதற்கு அகில இந்திய
தொழில்நுட்ப கவுன்சில் அங்கீகாரம் வழங்கியது. இதனால் இந்த கல்லூரிகளுக்கு அண்ணா
பல்கலைக்கழகம் மாணவ, மாணவிகளை ஒற்றை சாளர முறையில் சேர்த்தனர். தற்போது இதில் பல
கல்லூரிகளுக்கு தமிழக அரசு அங்கீகாரம் தர மறுத்து உத்தரவிட்டு உள்ளது. இதை எதிர்த்து
ஈரோட்டை சேர்ந்த வி.எஸ்.பி. பொறியியல் கல்லூரி, தூத்துக்குடியை சேர்ந்த
இன்பேண்ட் ஜுசஸ் கல்லூரி, மற்றும் பத்மாவதி பாலாஜி கல்லூரிகள் சார்பாக வக்கீல்
கந்தவடிவேல் துரை சாமி சென்னை ஐகோர்ட்டில் வழக்கு தாக்கல் செய்தார். </p><p>
</p><p>
அதில் அவர் கூறி இருப்பதாவது:- </p><p>
</p><p>
எங்கள் கல்லூரிக்கு ஒற்றை சாளரமுறையில் மாணவ, மாணவிகளை அண்ணா பல்கலைக்கழகம் தேர்வு
செய்தது. </p><p>
</p><p>
பாதிப்பு </p><p>
</p><p>
கோர்ட்டு உத்தரவின்படி மாணவர்கள் சேர்க்கப்பட்டனர். இந்த நிலையில் அரசு கல்லூரிக்கு
அங்கீகாரம் தர முடியாது என்று உத்தரவிட்டதால் மாணவ,மாணவிகள் பாதிக்கப்பட்டு உள்ளனர்.
அரசு விதித்த உள்ள நிபந்தனைகளை முழுவதுமாக பூர்த்தி செய்து விடுகிறோம் அதுவரை அரசு எங்கள்
கல்லூரியில் சேர்ந்த மாணவர்களை எங்கள் அனுமதி இல்லாமல் வேறு கல்லூரியில் சேர்க்க
கூடாது என்று கோர்ட்டு உத்தரவிட வேண்டும். </p><p>
</p><p>
இவ்வாறு வழக்கில் கூறி இருந்தனர். </p><p>
</p><p>
உத்தரவு </p><p>
</p><p>
இந்த வழக்கை நீதிபதி இப்ராகீம் கலிபுல்லா விசாரித்து இதில் அரசு பதில் மனு தாக்கல்
செய்ய நோட்டீசு அனுப்ப உத்தரவிட்டார். இந்த வழக்கில் விசாரணை முடியும் வரை கல்லூரியில்
சேர்ந்த மாணவர்களை வேறு கல்லூரிக்கு அனுப்ப தடை விதித்தார். இதுதவிர அரசு நிபந்தனைகள்
தொடர்பாக அரசிடம் மனு கொடுக்க வேண்டும். அதில் அரசு உரிய உத்தரவு பிறப்பிக்க வேண்டும்
என்றும் நீதிபதி உத்தரவிட்டார். </p>

<p> </p>

<p> </p>

<p>தி.மு.க. வெற்றி எதிர்த்த
தேர்தல் வழக்கு: மந்திரி தம்பிதுரை 2 மணி நேரம் சாட்சியம், ஐகோர்ட்டில் அளித்தார்</p>

<p> </p>

<p>சென்னை,ஆக.3-
தி.மு.க. எம்.பி. வெற்றி செல்வன் வெற்றி பெற்றதை ரத்து செய்யக்கோரி அமைச்சர்
தம்பிதுரை சென்னை ஐகோர்ட்டில் தாக்கல் செய்த வழக்கில் நேற்று தம்பிதுரை 2 மணி நேரம்
கூண்டில் ஏறி சாட்சியம் அளித்தார். </p><p>
</p><p>
வழக்கு </p><p>
</p><p>
கிருஷ்ணகிரி எம்.பி. தேர்தலில் தி.மு.க. வேட்பாளராக போட்டியிட்டு வெற்றி பெற்றவர்
வெற்றி செல்வன். இவரை எதிர்த்து அ.தி.மு.க. வேட்பாளராக தம்பிதுரை போட்டியிட்டு தோல்வி
அடைந்தார். இதனால் அமைச்சர் தம்பிதுரை தி.மு.க. வேட்பாளர் வெற்றி பெற்றதை ரத்து
செய்யக்கோரி சென்னை ஐகோர்ட்டில் தேர்தல் வழக்கு தாக்கல் செய்தார். இந்த வழக்கு பல
ஆண்டாக நிலுவையில் இருந்தது. தற்போது இந்த வழக்கு விசாரணைக்கு வந்தது. இதில் அமைச்சர்
தம்பிதுரை கூண்டில் ஏறி சாட்சியம் அளிக்க வேண்டும் என்று தி.மு.க. எம்.பி. வெற்றிசெல்வன்
வக்கீல் பி.வில்சன் நீதிபதியிடம் வலியுறுத்தினார். </p><p>
</p><p>
சாட்சியம் </p><p>
</p><p>
இதை நீதிபதி ஏ.கே.ராஜன் ஏற்றுக்கொண்டு அமைச்சர் தம்பிதுரை கூண்டில் ஏறி சாட்சியம்
அளிக்க வேண்டும் என்று உத்தரவிட்டார். இதன்படி அமைச்சர் தம்பி துரை நேற்று நீதிபதி
ஏ.கே.ராஜன் முன்பு ஆஜரானார். அப்போது அவர் கூண்டில் ஏறி 2 மணி நேரம் நேற்று மதியம்
சாட்சி அளித்தார். அப்போது தி.மு.க.எம்.பி. வெற்றிசெல்வன் சார்பாக வக்கீல்கள்
பி.வில்சன் ஆஜராகி அமைச்சர் தம்பிதுரையிடம் 52 கேள்விகளை கேட்டார். பல்வேறு
கேள்விகளுக்கு சரியாக பதில் கூற முடியாமல் அமைச்சர் தம்பிதுரை திணறினார். முதலில்
அமைச்சரிடம் குறுக்கு விசாரணை நடத்தகூடாது என்று அவரது வக்கீல் ராமானுஜம் எதிர்ப்பு
தெரிவித்தார். இதை நீதிபதி ஏற்க மறுத்தார். இதனால் வக்கீல் பி.வில்சன் அமைச்சரிடம்
பல்வேறு கேள்விகளை கேட்டார். </p><p>
</p><p>
ஆதாரம் இல்லை </p><p>
</p><p>
வக்கீல் பி.வில்சன் அமைச்சர் தம்பிதுரையிடம் கேட்ட கேள்வியும் அதற்கு அமைச்சர்
அளித்த பதிலும் வருமாறு:- </p><p>
</p><p>
பி.வில்சன்:- கிருஷ்ணகிரி எம்.பி. தேர்தலில் முறைகேடு நடந்து உள்ளது என்றும்,
தி.மு.க.வினர் கள்ள ஓட்டு போட்டனர் என்றும் கூறுகிறீர்கள் இதற்கு ஆதாரம் உள்ளதா? </p><p>
</p><p>
அமைச்சர்:- இதற்கு என்னிடம் போதிய ஆதாரம் இல்லை. எனது ஏஜெண்டு புகார் கொடுத்ததால்
அதன் அடிப்படையில் நான் வழக்கு தாக்கல் செய்தேன். </p><p>
</p><p>
வக்கீல் பி.வில்சன்:- தி.மு.க.வினர் தங்களது அதிகாரத்தை பயன்படுத்தி தேர்தல்
அதிகாரிகளை தி.மு.க.வுக்கு ஆதரவாக வாக்களிக்க வைத்தனர் என்று கூறி உள்ளீர்கள். அந்த
புகார் சரியானதா? </p><p>
</p><p>
அமைச்சர்:- இதுபற்றி நான் தேர்தல் அதகாரிகளிடம் புகார் கொடுத்தேன். ஆனால் அதற்கு
தற்போது ஆதாரம் இல்லை. </p><p>
</p><p>
பி.வில்சன்:-தற்போது நீங்கள் எம்.எல்.ஏ.வாக தேர்தெடுக்கப்பட்டு மந்திரியாக
உள்ளீர்கள். இந்த வழக்கில் வெற்றி பெற்றால் மந்திரி பதவியை ராஜினாமா
செய்வீர்களா? </p><p>
</p><p>
அமைச்சர்:- அதுபற்றி பின்னர் தான் முடிவு செய்வேன். தற்போது எதுவும் கூறமுடியாது. </p><p>
</p><p>
இதுபோல பல கேள்விகள் கேட்கப்பட்டது. இதற்கு அமைச்சர் பதில் கூறினார். </p><p>
</p><p>
தள்ளிவைப்பு </p><p>
</p><p>
இதை தொடர்ந்து வழக்கு விசாரணை வருகிற 16-ந் தேதிக்கு தள்ளிவைக்கப்பட்டது. </p><p>


</p>

<p>எம்.ஜி.ஆர்.திரைப்பட நகரை
மூடக்கூடாது; முதல்வருக்கு தயாரிப்பாளர்கள் சங்கம் வேண்டுகோள்</p>

<p> </p>

<p>சென்னை, ஆக 3- எம்.ஜி.ஆர். திரைப்பட நகரை மூடக்கூடாது என்று
தமிழக முதல்வர் ஜெயலலிதாவுக்கு தயாரிப்பாளர்கள் சங்கம் வேண்டுகோள் விடுத்து உள்ளது. </p><p>
</p><p>
அறிக்கை </p><p>
</p><p>
தமிழ் திரைப்பட தயாரிப்பாளர்கள் சங்க தலைவர் அ.செ.இப்ராகிம் ராவுத்தர் நேற்று ஒரு
அறிக்கை வௌியிட்டார். </p><p>
</p><p>
அதில் அவர் கூறி இருப்பதாவது:- </p><p>
</p><p>
எம்.ஜி.ஆர் திரைப்பட நகர் இன்றுமுதல் மூடப்படுகிறது என்று நாளிதழ்களில் வந்த செய்தியினை
தொடர்ந்து தமிழ் திரைப்படத் தயாரிப்பாளர்கள் சங்க அங்கத்தினர் களின் கூட்டம் தமிழ்
திரைப்பட தயாரிப்பாளர்கள் சங்கத்தில் நடைபெற்றது. </p><p>
</p><p>
எம்.ஜி.ஆர். திரைப்பட நகரம் மூடப்படுவது தமிழ் திரைப்படத் தயாரிப்பாளர்களுக்கு அதிலும்
குறிப்பாக சிறுமுதலீட்டில் படங்கள் தயாரிக்கும் தமிழ் திரைப்படத் தயாரிப்பாளர்களுக்கு
பெரும் பாதிப்பினை ஏற்படுத்தும் என்பதால் இதுகுறித்து தமிழக முதல்வர் ஜெயலலிதாவை நேரில்
சந்தித்து பேச நேரம் கேட்பது என்று முடிவு செய்யப்பட்டது அதன்படி தமிழக முதல்வருக்கு
கீழ்கண்டவாறு ஒரு கோரிக்கை மனு அனுப்பப்பட்டு உள்ளது. </p><p>
</p><p>
சிறுமுதலீட்டு படத் தயாரிப்பாளர்களுக்கு தங்களால் தொடங்கப்பட்ட எம்.ஜி.ஆர். திரைப்பட
நகர் வரப்பிரசாதமாக அமைந் திருந்தது. சிறு முதலீட்டுப்் படத் தயாரிப்பாளர்களது
படத்தயாரிப்பு செலவினங்கள் பெருமளவு குறைய திரைப்பட நகர் படப்பிடிப்பு பெரிதும்
உதவியது. ஆகவே திரை உலகின் நன்மை கருதி அன்பு கூர்ந்து எம்.ஜி.ஆர். திரைப்பட நகர்
தொடர்ந்து செயல்பட தாங்கள் உதவிட வேண்டும் என்று தமிழ் திரைப்படத் தயாரிப்பாளர்கள்
சார்பில் பணிவன்புடன் கேட்டுக் கொள்கிறோம். </p><p>
</p><p>
இவ்வாறு அதில் அவர் கூறி உள்ளார். </p><p>
</p><p>
யார்?யார்? </p><p>
</p><p>
முன்னதாக இதுதொடர்பாக நடந்த கூட்டத்தில் சங்க தலைவர் அ.செ.இப்ராகிம் ராவுத்தர், துணை
தலைவர் கோவைதம்பி, கவுரவ செயலாளர்கள் சித்ரா லட்சுமணன், அன்பாலயா பிரபா கரன்,
பொருளாளர் கே.முரளீதரன், செயற்குழு உறுப்பினர்கள் ஹென்றி, எச்.முரளி, எஸ்.ஏ.சந்திர
சேகரன், ஆனந்தி வி.நடராஜன், சிறப்பு அழைப்பாளர் களாக முக்தா சீனிவாசன், பிரமிட்
வி.நடராஜன், விஜயகுமார், நந்தகோபால் செட்டியார், கபார், வி.சுவாமிநாதன், வெடி முத்து,
ஜே.வி. ருக்மாங்கதன், ராமநாதன், டைரக்டர் கே.சுபாஷ் ஆகியோர் கலந்து கொண்டனர். </p>

<p> </p>

<p> </p>

<p>சென்னை: அனாதை விடுதியில்
சிறுவர்களுக்கு செக்ஸ் கொடுமை: மக்களவையில் மந்திரி தகவல்</p>

<p> </p>

<p>புதுடெல்லி,ஆக.3- சென்னை அருகே மகாபலிபுரத்தில் உள்ள அனாதை
விடுதியில் செக்ஸ் கொடு மைக்கு ஆளான சிறுவர்கள் மீட்கப்பட்டனர் என்று மக்களவையில் சமூக
நீதி இணை மந்திரி எஸ்.பி. முகர்ஜி கூறினார். </p><p>
</p><p>
எழுத்து மூலம் பதில் </p><p>
</p><p>
மக்களவையில் நேற்று சமூக நீதி மந்திரி முகர்ஜி எழுத்து மூலம் அளித்த பதில் வரு மாறு:- </p><p>
</p><p>
சென்னை அருகே உள்ள மகாபலிபுரத்தில் லிட்டில் ஹோம் என்ற அனாதை விடுதி உள்ளது. அங்குள்ள
சிறுவர்கள் செக்ஸ் கொடுமைக்கு ஆளாவதாக புகார் வந்தது. </p><p>
</p><p>
உறவினரிடம் ஒப்படைப்பு </p><p>
</p><p>
அதைத் தொடர்ந்து அந்த சிறுவர்கள் மீட்கப்பட்டு சிலர் உறவினர்களிடம் ஒப்படைக்கப்பட்டனர்.
மற்றவர்கள் சிறுவர்கள் இல்லத்துக்கு அனுப்பப்பட்டனர். </p><p>
</p><p>
இது போன்ற கொடுமைகள் மற்ற இல்லங்களில் நடக்காது தடுக்க நடவடிக்கை எடுக் கும்படி தமிழக
அரசுக்கு உத்தரவிடப்பட்டு உள்ளது. </p><p>
</p><p>
இவ்வாறு அவர் கூறினார் </p><p>
</p><p>
தாழ்த்தப்பட்டவர்கொடுமை </p><p>
</p><p>
இன்னொரு கேள்விக்கு மந்திரி முகர்ஜி எழுத்து மூலம் அளித்த பதில் வருமாறு:- ஆந்திரா,
கர்நாடகம், மராட்டியம், ஆகிய மாநிலங்களில் தீண்டாமை கொடுமை பழக் கத்தில் உள்ள
பகுதிகள் அடையாளம் காணப்பட்டு இருக்கிறது. </p><p>
</p><p>
தமிழகத்தில் தாழ்த்தப்பட்டவர், மலை சாதியினர் ஆகியோர் கொடுமைப்படுத் ்தும் பகுதி
அடையாளம் காணப்பட்டு இருக்கிறது.உரிய நடவடிக்கை எடுக்கப்படும். </p><p>
</p><p>
இவ்வாறு அவர் கூறினார். </p>

<p> </p>

<p> </p>

<p>மதனகோபால் கொலையில்
புலன் விசாரணை சரியில்லை; போலீசாருக்கு ஐகோர்ட்டு நோட்டீசு</p>

<p> </p>

<p>சென்னை,ஆக.3-
வக்கீல்கள் மதனகோபால் உள்பட 3 பேர் தாக்கப்பட்ட வழக்கில் புலன்விசாரணை சரியாக
நடத்தப்படாததால் இதற்கு விளக்கம் கேட்டு போலீசாருக்கு ஐகோர்ட்டு நோட்டீசு அனுப்பி
உள்ளது. </p><p>
</p><p>
மதனகோபால் </p><p>
</p><p>
வக்கீல் மதனகோபால் உள்பட 3 வக்கீல்கள் தாக்கப்பட்ட வழக்கில் போலீசார் சரியாக
புலன்விசாரணை நடத்தவில்லை, இதுகுறித்து கோர்ட்டு உரிய உத்தரவு பிறப்பிக்க வேண்டும்
என்று கோரி சென்னை ஐகோர்ட்டு வக்கீல் பிரபாகரன் உள்பட பல வக்கீல்கள் தலைமை
நீதிபதியை சந்தித்து ஒரு மனுவை கொடுத்தனர். இந்த மனுவை வழக்காக எடுத்து விசாரிக்கிறோம்
என்று தலைமை நீதிபதி சுபாஷன் ரெட்டி அறிவித்தார். அதன்படி இந்த மனு பொதுநலன் வழக்காக
நேற்று மாற்றப் பட்டது. இந்த வழக்கு நேற்று தலைமை நீதிபதி சுபாஷன்ரெட்டி , நீதிபதி
டி.முருகேசன் ஆகியோர் முன்பு விசாரணைக்கு வந்தது. </p><p>
</p><p>
வாதம் </p><p>
</p><p>
அப்போது வக்கீல் எஸ்.பிரபாகரன் கோர்ட்டில் ஆஜராகி கூறியதாவது:- </p><p>
</p><p>
சென்னை ஐகோர்ட்டு வக்கீல் மதனகோபால் கொடூரமாக சுட்டுக்கொலை செய்யப்பட்டு உள்ளார்.
அதுவும் பாண்டிபஜார் போலீஸ் நிலையத்தின் முன்பு இந்த சம்பவம் நடந்தது. அனை வரையும்
அதிர்ச்சி அடைய வைத்தது. போலீசார் உண்மை குற்றவாளிகளை கைது செய்யாமல் கிரிமினல்
வழக்குகளில் ஆஜராகி வரும் வக்கீல்களை விசாரணை என்ற பெயரில் போலீஸ் நிலையத்திற்கு
அழைத்து சென்று சித்ரவதை செய்கிறார்கள். போதை பொருள் தடுப்பு கோர்ட்டில் தற்போது
ஆஜராகி வாதாடி வரும் வக்கீல்களை இந்த வழக்கில் சேர்க்க போலீசார் திட்டமிட்டு
உள்ளனர். இது கண்டிக்கத்தக்கது. இதில் கோர்ட்டு உரிய உத்தரவு பிறப்பிக்க வேண்டும்.
இந்த வழக்கில் சரியாக போலீசார் புலன்விசாரணை நடத்த வில்லை. இதுவரை இதில் எந்த
துப்பும் கிடைத்ததாக தெரிய வில்லை. </p><p>
</p><p>
போலீசாரே தாக்கினர் </p><p>
</p><p>
இதை தொடர்ந்து தஞ்சை வக்கீல் மோகனசுந்தரம் தன் கடமையை செய்த போது அவரை
போலீஸ் அதிகாரிகள் கடுமையாக தாக்கினார்கள். தற்போது திண்டிவனத்தை சேர்ந்த வக்கீல்
கோதண்டத்தை போலீசார் கடுமையாக தாக்கி உள்ளனர். எனவே கோர்ட்டு இதில் தலையிட்டு உரிய
உத்தரவை பிறப்பிக்க வேண்டும். வக்கீல்களுக்கு பாதுகாப்பை ஏற்படுத்த வேண்டும். </p><p>
</p><p>
இவ்வாறு அவர் மனுவில் கூறி இருந்தார். </p><p>
</p><p>
நோட்டீசு </p><p>
</p><p>
இதை கேட்ட நீதிபதிகள் இந்த வழக்கில் புலன் விசாரணை நடத்திவரும் போலீசார் பதில் மனு
தாக்கல் செய்ய நோட்டீசு அனுப்ப உத்தரவிட்டனர். இந்த வழக்கில் தமிழக உள்துறை செயலாளர்,
போலீஸ் டி.ஜி.பி மற்றும் மாவட்ட எஸ்.பி.க்கள் உள்பட 7 பேர் எதிர்மனுதாரர்களாக
சேர்க்கப்பட்டு உள்ளனர். </p><p>


</p>

<p>நெடுமாறனுக்கு ஜாமீன் மனு
விரைவில் தாக்கல்: வக்கீல் பேட்டி</p>

<p> </p>

<p>சென்னை,
ஆக. 3- பொடா கோர்ட்டில் நெடுமாறனுக்கு ஜாமீன் மனு தாக்கல் செய்வேன் என்று அவரது வக்கீல்
கூறினார். </p><p>
</p><p>
பேட்டி </p><p>
</p><p>
தமிழ் தேசிய இயக்க தலைவர் பழ.நெடுமாறன் நேற்று முன்தினம் இரவு சென்னையில் பொடா
சட்டத்தில் கைது செய்யப்பட்டு, கடலூர் சிறையில் காவலில் வைக்கப்பட்டு உள்ளார்
அல்லவா? இதுபற்றி நெடுமாறனின் வக்கீல் என்.சந்திரசேகரன் கூறிய தாவது:- </p><p>
</p><p>
கோர்ட்டு அவமதிப்பு </p><p>
</p><p>
நெடுமாறனுக்கு உடல்நிலை சரியில்லை. அவரை சென்னை மத்திய சிறையில் காவலில் வைக்க
வேண்டும் என்று நீதிபதி ராஜேந்திரன் உத்தரவிட்டார். ஆனால் கடலூர் சிறையில் நெடு மாறனை
அடைத்து உள்ளனர். இது கோர்ட்டு அவமதிப்பு செயல் ஆகும். நான் நெடுமாறன் மகளுடன் கடலூர்
சென்று நாளை அல்லது நாளை மறுதினம் நெடுமாறனை சந்தித்து பேசுவேன். </p><p>
</p><p>
ஜாமீன் மனு </p><p>
</p><p>
அதன்பிறகு பொடா கோர்ட்டில் நெடுமாறனுக்கு ஜாமீன் மனு போடுவேன். நெடுமாறன் மீது தவறான
பிரிவுகளில் வழக்கு பதிவு செய்யப்பட்டு இருக்கிறது. பொடா சட்டம் பிரிவு 21 (2) மற்றும்
பிரிவு 3 ஆகிய பிரிவுகளின் கீழ் வழக்கு பதிவு செய்யப்பட்டு உள்ளது. பிரிவு 3-ன் படி
வெடி குண்டு வைத்து அதில் யாருக்காவது காயம் ஏற்படுத்தினால் அல்லது அதில் யாராவது
இறந்தால்தான் வழக்கு தாக்கல் செய்ய முடியும் ஆனால் இவர் விடுதலைப்புலிகளுக்கு ஆதரவாக
பேசினார் என்று தான் வழக்கு பதிவு செய்து உள்ளனர். எனவே இந்த பிரிவுகளின் கீழ் வழக்கு
பதிவு செய்ததை ரத்து செய்யக்கோரி ஐகோர்ட்டில் வழக்கு தாக்கல் செய்யலாமா என்று
ஆலோசனை நடத்தி வருகிறோம். </p><p>
</p><p>
தவறு </p><p>
</p><p>
இது தவறானது. அதை ரத்து செய்ய வேண்டும் என்று ஐகோர்ட்டில் மனு செய்வேன். </p><p>
</p><p>
இவ்வாறு கூறினார். புலிகளுக்கு ஆதரவாக தடா கைதி கோஷம் </p><p>
</p><p>
தமிழ்நாடு விடுதலைப்படை அமைப்பை சேர்ந்த ரேடியோ வெங்கடேசன், சென்னை கோர்ட்டில் நேற்று
வெடிகுண்டு வழக்கு தொடர்பாக ஆஜர்படுத்தப்பட்டார். ஐகோர்ட்டு வளாகத்தில் உள்ள தடா
கோர்ட்டில் ஆஜர்படுத்திய போது அவர் திடீரென கோஷமிட்டார். பிரபாகரன் வாழ்க,
விடுதலைப்புலிகள் வாழ்க, தமிழ் உணர்வாளர்களை கைது செய்வதை கண்டிக்கிறேன் என்று
வெங்கடேசன் கோஷமிட்டதால் பரபரப்பு ஏற்பட்டது. நீதிபதி பாஸ்கரன், 9-ந்தேதி வரை
அவருக்கு காவலை நீடித்தார். இந்த வழக்கில ரேடியோ வெங்கடேசன் சார்பாக வக்கீல்
சங்கரசுப்பு ஆஜராகி வாதாடினார். </p><p>


</p>

<p>தி.மு.க. ஊர்வலத்தில்
பத்திரிகையாளர் மீது போலீஸ் தாக்குதலை போலீசே விசாரிப்பது கேலிக்கூத்தானது;
சி.பி.ஐ.விசாரணை கோரி ஐகோர்ட்டில் ப.சிதம்பரம் வாதம்</p>

<p> </p>

<p>சென்னை,
ஆக. 3- தி.மு.க. ஊர்வலத்தில் பத்திரிகையாளர் மீது போலீசார் தாக்கியது குறித்து
போலீசாரே விசாரிப்பது கேலிக்கூத்தானது. எனவே சி.பி.ஐ. விசாரணைக்கு உத்தர விட வேண்டும்
என்று ப.சிதம்பரம் ஐகோர்ட்டில் வாதிட்டார். </p><p>
</p><p>
இதன் மீதான தீர்ப்பு ஒத்தி வைக்கப்பட்டுள்ளது. </p><p>
</p><p>
பத்திரிகையாளர் வழக்கு </p><p>
</p><p>
தி.மு.க. தலைவர் கருணாநிதி கைது கண்டித்து நடந்த ஊர்வலத்தில் செய்தி சேகரித்த
பத்திரிகையாளரும், போட்டோ எடுத்த போட்டோகிராபர்களும் தாக்கப்பட்டனர் அல்லவா?
போலீசார் அவர்கள் மீது தடியடி நடத்தியதாக குற்றம் சாட்டப்பட்டது. இது தொடர்பாக
பத்திரிகையாளர் சார்பில் சி.பி.ஐ. விசாரணை கோரி ஐகோர்ட்டில் வழக்கு தொடரப்பட்டது. </p><p>
</p><p>
கேலிக்கூத்தானது </p><p>
</p><p>
இதன் மீதான விசாரணை நீதிபதி வி.கனகராஜ் முன்னிலையில் நடந்தது. அப்போது பத்திரிகையாளர்
தரப்பில் மூத்த வழக்கறிஞரும், காங்கிரஸ் ஜனநாயக பேரவை தலைவருமான ப.சிதம்பரம்
ஆஜராகி வாதிட்டார். அப்போது அவர் கூறியதாவது:- </p><p>
</p><p>
தி.மு.க. தலைவர் கருணாநிதி 2001 ஜூன் 30-ந்தேதி கைது செய்யப்பட்டதை கண்டித்து ஆகஸ்டு
12-ந்தேதி தி.மு.க.வினர் பேரணி நடத்தினர். அப்போது செய்தி சேகரிக்கச் சென்ற
பத்திரிகையாளர்கள் மீது போலீசார் தடியடி நடத்தி உள்ளதாக குற்றம் சாட்டப்பட்டுள்ளது.
போலீஸ் மீது குற்றச்சாட்டு இருக்கும்போது அவர்களே இதை விசாரிப்பது கேலிக்கூத்தாகும். எனவே
இந்த விசயத்தை சி.பி.ஐ. மூலம் விசாரித்தால்தான் பத்திரிகையாளருக்கு நீதி கிடைக்கும். </p><p>
</p><p>
பத்திரிகையாளர் பலர் போலீஸ் தாக்குதலில் காயம் அடைந்துள்ளனர். இதில் சி.பி.ஐ.
விசாரணையை அரசு எதிர்ப்பது ஏன் என்று தெரியவில்லை. </p><p>
</p><p>
இவ்வாறு அவர் கூறினார். </p><p>
</p><p>
பக்தவச்சலம் கமிஷன் </p><p>
</p><p>
இதையடுத்து இந்த வழக்கில் தீர்ப்பு தேதியை நீதிபதி வி.கனகராஜ் தள்ளிவைத்துள் ளார்.
இதற்கிடையில் பத்திரிகையாளர், தி.மு.க.வினர் தாக்கப்பட்டது தொடர்பாக தமிழக அரசு
ஓய்வு பெற்ற நீதிபதி கே.எஸ்.பக்தவச்சலம் தலைமையில் ஒரு நபர் கமிஷனை அமைத்துள்ளதும்,
அங்கு இது தொடர்பாக விசாரணை நடந்து வருவதும் குறிப்பிடத்தக்கது. </p>

<p> </p>

<p>ஆலோசனை நடத்த வக்கீல்கள்
குழு 5-ந்தேதி வேலூர் வருகை: வைகோ மீதான பொடா வழக்கில் அருண் ஜெட்லி ஆஜராகிறார்</p>

<p> </p>

<p>வேலூர், ஆக. 3- </p><p>
</p><p>
வைகோ மீதான பொடா வழக்கில் பிரபல வழக்கறிஞரும் முன்னாள் மத்திய அமைச்சரு மான
அருண் ஜெட்லி ஆஜராகிறார். இதற்காக ஆலோ சனை நடத்த வைகோவை வக்கீல்கள் குழு வருகிற 5-ந்
தேதி சந்திக்கிறது. </p><p>
</p><p>
பொடா வழக்கு </p><p>
</p><p>
ம.தி.மு.க. பொதுச் செயலாளர் வைகோ எம்.பி. பொடா சட்டத்தின் கீழ் கடந்த மாதம் 11-ந்
தேதி கைதாகி வேலூர் சிறையில் அடைக்கப்பட்டது தெரிந்ததே. வைகோ உள்பட 10 பேர் மீது
பொடா சட்டத்தின் கீழ் தமிழக அரசு நடவடிக்கை எடுத்திருந்தது. </p><p>
</p><p>
இந்த வழக்கை எப்படி சந்திப்பது என்று வைகோ சிறைக்கு வரும் கழக வழக்கறிஞர்களுடன்
அவ்வப் போது ஆலோசனை நடத்தி வருகிறார். ம.தி.மு.க. நிர்வாகி களும் வைகோ குடும்பத்தாரும்
நண்பர்களும் கொடுத்த சட்ட புத்தகங்களை எல்லாம் படித்து வருகிறார். </p><p>
</p><p>
அருண் ஜெட்லி </p><p>
</p><p>
மத்திய அமைச்சராக இருந்த அருண் ஜெட்லி சமீபத்தில் மந்திரி பதவியிலிருந்து எடுக்கப் பட்டு
பா.ஜ. கட்சி பதவியில் நியமிக்கப்பட்டார் அல்லவா? அவர் பிரபல வழக்கறிஞர்
ஆவார். கட்சி பணிக்கு நியமிக்கப்பட்ட பின் அவர் கோர்ட்டுக்கு சென்று வழக்கறிஞர்
தொழிலை கவனிக்க தொடங்கி விட்டார். </p><p>
</p><p>
இந்நிலையில் வைகோ மீது தொடரப்பட்ட பொடா வழக்கில் அருண்ஜெட்லியை ஆஜராக வைக்க
ஏற்பாடுகள் நடக்கின் றன. </p><p>
</p><p>
வக்கீல் குழு </p><p>
</p><p>
இதன் தொடர்பாக அருண் ஜெட்லியின் ஜூனியர் வக்கீல்கள் 4 பேர் வருகிற 5-ந் தேதி
(திங்கட் கிழமை) வேலூர் சிறைக்கு வருகிறார்கள். வைகோவிடம் வழக்கு விஷயமாக ஆலோசனை
நடத்துகிறார்கள். </p><p>
</p><p>
எனவே அன்றைய தினம் கட்சி நிர்வாகிகள் யாரும் தன்னை சந்திக்க வேண்டாம் என்று வைகோ
கேட்டுக் கொண்டதாக இன்று அவரை பார்த்து வௌியே வந்த நிர்வாகிகள் கூறினார்கள். </p>

<p> </p>

<p> </p>

<p>தமிழர் இயக்க தலைவர்களை
பழிவாங்கப்பயன்படுத்தும் பொடோ எதிர்த்து வழக்கு: பழ.நெடுமாறன் தகவல்</p>

<p> </p>

<p>கடலூர், ஆக. 3- </p><p>
</p><p>
தமிழர் இயக்க தலைவர்களை பழிவாங்கப்பயன்படுத்தும் பொடோவை எதிர்த்து வழக்கு
தொடரப்போவதாக கடலூர் சிறையில் அடைக்கப்பட்டுள்ள பழ.நெடுமாறன் தெரிவித்துள்ளார். </p><p>
</p><p>
பழ.நெடுமாறன் கைது </p><p>
</p><p>
தமிழர் தேசிய இயக்க தலைவர் பழ.நெடுமாறன் சென்னையில் உள்ள தன் வீட்டிலிருந்த போது
கடந்த 1-ந்தேதி இரவு கியூ பிராஞ்ச் போலீஸ்சூப்பிரெண்டு ரவிச்சந்திரன்
தலைமையில் போலீசார் அவரது வீட்டிற்குள் திடீர் என்று நுழைந்து அவரை பொடோ சட்டத்தின்
21-வது பிரிவின் கீழ் கைது செய்தனர். பின்னர் அவர் கடலூர் மத்திய சிறையில்
அடைக்கப்பட்டார்். அவரை நேற்று கடலூரில் உள்ள புரட்சி தமிழர் கழக மாநில தலைவர் வழக்கறிஞர்
ஏ.தேவநாதன், மனிதஉரிமை இயக்க புதுவை அமைப்பாளர் கோ.சுகுமாறன் மற்றும் பழ.நெடுமாறனின்
இயக்கத்தை சேர்ந்த நிர்வாகிகள்பலரும் சிறை அதிகாரி அனுமதி பெற்று சந்தித்தனர். </p><p>
</p><p>
சிறையில் பார்வை </p><p>
</p><p>
சிறையில் பழ.நெடுமாறனை சந்தித்து விட்டு வௌியே வந்த புரட்சி தமிழகர் கழக மாநில
தலைவர் வழக்கறிஞர் ஏ.தேவநாதன் கடலூரில் நிருபர்களிடம் கூறியதாவது:- </p><p>
</p><p>
உலகதமிழர்களை ஒருங்கிணைத்து தமிழர்களின் நலனுக்காக பேசிவரும் தமிழர் தேசிய இயக்க
தலைவர் பழ.நெடுமாறன் என்னிடம் பேசினார். அப்போது அவர் கூறுகையில்,னா </p><p>
</p><p>
பொடோ எதிர்த்து வழக்கு </p><p>
</p><p>
தமிழகத்தின் தமிழர்களுக்கும், இலங்கை தமிழர்களுக்கும் காலம் காலமாக நெருங்கிய தொடர்பு
உண்டு. இலங்கை தமிழர்கள் என்று கூறும்போது விடுதலைப் புலிகளை பிரித்து பிரச்சினையை
பேசமுடியாது. ஒரு இயக்கத்தை தடைசெய்து விட்டால் அந்த இயக்கத்தை பேசினாலே பொடோவில் கைது
செய்வது மனித நேய உணர்வுகளுக்கு எதிரான நடவடிக்கையாகும். அரசின் பொடோ கைது நடவடிக்கையை
எதிர்த்து வழக்கு தொடர போகின்றேன். </p><p>
</p><p>
எங்களின்தமிழர் தேசிய இயக்கம் பொடோ சட்டத்தை ஆரம்பத்தில் இருந்தே எதிர்த்து
வருகின்றது. தமிழகத்தில் தமிழர்களை தமிழர் இயக்கங்களை பிரித்து வீழ்த்தி விடலாம் என்ற
அரசியல் பழிவாங்கும் நோக்கில் தமிழக அரசு தவறான பாதையில் பொடோ சட்டத்தை பாயவிட்டு
மிரட்டிப்பார்க்கின்றது. உலகத்ததமிழர்கள் பாதிக்கப்படுவதை கண்டு குரல் கொடுத்தாலே
பொடோ சட்டம் பாயும் என்றுஇவர்கள் சட்டத்தை விருப்பப்படி வளைத்து செயல்படுவதை உலக
தமிழ்சமுதாயம் ஒரு போதும் மன்னிக்காது. </p><p>
</p><p>
பேச உரிமை உண்டு </p><p>
</p><p>
இந்தியாவில் எமர்ஜென்சி பிரகடனப்படுத்திய காலத்தில் ஆர்.எஸ்.எஸ். இயக்கத்தை தடை
செய்திருந்த போது வாஜ்பாய், அத்வானி போன்ற தலைவர்கள் ஆர்.எஸ்.எஸ். இயக்கத்தை
ஆதரித்து அந்த காலக்கட்டத்தில் பேசியபோது மாநில அரசு அப்போது அவர்கள் மீது நடவடிக்கை
எடுக்கவில்லை. ஒரு இயக்கம் தடை செய்யப்பட்டு விட்டது என்பதற்காக அந்த இயக்கத்தை
பேசுவதற்கு கூட இந்திய மக்களுக்கு உரிமை இல்லை என்று கூறிவிட முடியாது. அந்த இயக்க செயல்பாடு
மட்டுமே தடை செய்யப்படுகின்றது. </p><p>
</p><p>
ஆட்சியாளர்களுக்கு எச்சரிக்கை </p><p>
</p><p>
இன்று ஈழத்தமிழர் பிரச்சினை சுமூகமாக தீர்வு கான இந்திய அரசின் ஒத்துழைப்போடும்,
இலங்கையில் உள்ள அரசும், விடுதலைப்புலிகளின் இயக்கமும் மிகவும் நெருங்கி
பேச்சுவார்த்தைக்கு தயாராகி வரும் வேளையில் தமிழக அரசு பொடோ சட்டத்தை பயன்படுத்தி
தமிழர் இயக்க தலைவர்களை கைது செய்யும் நடவடிக்கைக்கு விடுதலை புலிகள் ஆதரவு பேச்சினை
காரணம் காட்டும் செயல் நடவடிக்கை மூலம் தமிழக அரசு தவறான பாதையில் தடுமாறி
செல்வதைத்தான் காட்டுகிறது. இது போன்ற நடவடிக்கைகள் மூலம் தமிழக அரசு இலங்கை
தமிழகர்களின் ஆதரவு குரலை ஒடுக்கி விட முடியாது. மேலும் மேலும் ஈழத்தமிழர்களுக்கு ஆதரவு
குரலின் வலிமை அதிகரிக்கத் தான் செய்யும் என்பதை ஆட்சியாளர்களுக்கு எச்சரிக்கையாக
தெரிவித்து கொள்கிறேன். </p><p>
</p><p>
அரசுக்கு அவப்பெயர் </p><p>
</p><p>
நீதிமன்றம் அனுமதியுடன் சென்னையில் உலக தமிழர் பேரமைப்பு மாநாடு நடத்தி முடித்த 10
நாட்களில் என்னை பொடோ சட்டத்தில் கைது செய்து சிறையில் வைத்ததன் மூலம் தமிழக அரசு,
உலகத்தமிழர்களின் மத்தியில் நீங்காத அவப்பெயரை பெற்று விட்டது. தமிழக அரசு பொடோ
சட்டத்தை எந்த அளவிற்கு தவறான வழியில் தமிழர் இயக்கதலைவர்களை பழிவாங்கிடப்
பயன்படுத்திய குற்றத்தை செய்து வருகின்றது என்பதை நான்கோர்ட்டில் வழக்கு தொடர்ந்த பிறகு
புரியும் என்றைு கூறினார். </p><p>
</p><p>
இவ்வாறு வழக்கறிஞர் ஏ.தேவநாதன் தெரிவித்தார். </p><p>
</p><p>
சிறையில் சமைத்து சாப்பிடலாம் </p><p>
</p><p>
கடலூர் மத்திய சிறையில் பழ.நெடுமாறனுக்கு முதல்வகுப்புஅறை வசதிஅளிக்கப்பட்டுள்ளது.
பழ.நெடுமாறனுக்கு தனி கட்டில், மின்விசிறி, செய்தித்தாள், புத்தகங்கள்
வழங்கப்படுகின்றன. இவர் விருப்பப்பட்டால் வாரம் 2முறை அசைவ உணவு, அரிசி சாதம், கோதுமை
உணவு தனியாக சமைத்து சாப்பிட விரும்பினால் அதற்கும் அனுமதி வழங்கப்பட்டுள்ளது. வௌியில்
இருந்து மசாலா பொடிவகைகளையும் வரவழைத்து கொள்ளலாம். </p><p>
</p><p>
இந்த தகவலை ஜெயில் அதிகாரி ஒருவர் தெரிவித்தார். </p><p>
</p><p>
அரசின் கட்டாய ஓய்வுக்கு நன்றி </p><p>
</p><p>
கடலூர் சிறையில் பழ.நெடுமாறன் கூறியதாவது:- </p><p>
</p><p>
என்னை பொடோ சட்டத்தில் தமிழக அரசு கைதுசெய்ததற்கு ஜெயலலிதாவிற்கு நன்றி கூற வேண்டும்.
சென்னையில் தமிழர் பேரமைப்பு மாநாடு நடத்திய பிறகு சில நாட்கள் ஓய்வு எடுக்க
நினைத்தேன். அதற்குள் 2-ந்தேதி மலேசிய தமிழர்கள் ஏற்பாடு செய்திருந்த தமிழறிஞர்
தேவநேயப் பாவாணரின் 100-வது பிறந்த நாள் விழாவில் அழைப்பை ஏற்று கலந்து கொள்ள நேற்று
காலை விமானம்மூலம் சென்னையிலிருந்து மலேசியா செல்லஇருந்தேன். அதற்குள் தமழக அரசு பொடோ
சட்டத்தை காட்டி என்னை கடலூர் மத்திய சிறையில் அடைத்து கட்டாய ஓய்வு கொடுத்து விட்டது.
</p><p>
</p><p>
இவ்வாறு அவர் கூறினார். </p>

<p> </p>

<p> </p>

<p>கூலிப்படையினருடன் தொடர்பு
அம்பலம்: புதுவை முன்னாள் அமைச்சர் கந்தசாமி கைது ஆவாரா? போலீஸ் விசாரணையில்
திடுக்கிடும் தகவல்கள் அம்பலம்</p>

<p> </p>

<p>புதுச்சேரி,
ஆக.3- </p><p>
</p><p>
புதுவையில் கைதான கூலிப்படையினரிடம் போலீசார் நடத்திய தீவிர விசாரணையில் பல
திடுக்கிடும் தகவல்கள் அம்பலமாகி உள்ளது. கூலிப் படையினருக்கும், புதுவை முன்னாள் அமைச்சர்
கந்தசாமிக்கும் தொடர்பு இருப்பதாக தெரிய வந்துள்ளது. அவர் விரைவில் கைது செய்யப்படுவார்
என்று கூறப்படுகிறது. </p><p>
</p><p>
கூலிப்படையினர் </p><p>
</p><p>
புதுவை வேல்ராம்பட்டில் நேற்று முன்தினம் திருச்சியை சேர்ந்த கூலிப்படையினருக்கும், தமிழக
போலீசாருக்கும் கடும் துப்பாக்கி சண்டை நடந்தது. இதன் பின்னர் புதுவை சீனியர் எஸ்.பி.
ஆனந்த மோகன் தலைமையில் புதுவை போலீஸ்படை விரைந்து சென்று 2 மணி நேர போராட்டத்துக்கு
பின் கூலிப்படையை சேர்ந்த செல்வம், பாரதி ஆகியோரை கைது செய்தது. அவர்களிடம்
போலீசார் விடிய விடிய நடத்திய விசாரணையில் பல திடுக்கிடும் தகவல்கள் வௌியானது. </p><p>
</p><p>
கொலையாளிகள் தங்கியிருந்த வீட்டில் போலீசார் நடத்திய அதிரடி சோதனையில் அங்கு பதுக்கி
வைக்கப்பட்டிருந்த வெடிகுண்டுகள், துப்பாக்கிகள் மற்றும் ஜெலட்டின் குச்சிகள் ஆகியவை
பறிமுதல் செய்யப் பட்டது. அவர்கள் பயன் படுத்திய மாருதி காரும் பறிமுதல் செய்யப்பட்டது.
மேலும் அவர்கள் வைத்திருந்த 2 செல்போன்களை போலீசார் கைப்பற்றி உள்ளனர். அதில் ஒன்று
பி.பி.எல். செல் ஆகும். மற்றொன்று ஏர் செல் ஆகும். ஏர் செல்லின் நம்பர் 98423 08586.
இந்த செல்போனில் இருந்து பேசிய போன் நம்பர்களையும், வௌியில் இருந்து வந்த போன்
நம்பர்களையும் போலீசார் கண்டுபிடித்துள்ளனர். இதில் அதிக முறை 280180 என்ற நம்பருக்கு
போன் செய்யப்பட்டுள்ளது. இந்த நம்பர் முன்னாள் அமைச்சர் கந்த சாமியின் வீட்டு நம்பர்
ஆகும். இதனால் போலீசார் முன்னாள் அமைச்சர் கந்தசாமியை கைது செய்து விசாரிக்க நடவடிக்கை
மேற்கொண்டு வருகிறார்கள். </p><p>
</p><p>
கைது உறுதி </p><p>
</p><p>
இது சம்பந்தமாக முதல்வர் ரங்கசாமியை போலீஸ் ஐ.ஜி. ஜே.பி.சிங்கும், சீனியர் எஸ்.பி.
ஆனந்த மோகனும் சந்தித்து பேசினர். அப்போது இது பற்றி எடுத்து கூறினார்கள். குற்ற வாளிகள்
மீது நடவடிக்கை எடுப்பதில் எந்த தயக்கமும் தேவையில்லை என்று முதல்வர் ரங்கசாமி போலீஸ்
அதிகாரி களிடம் கூறினாராம். இதன் பின்னர் ஜே.பி.சிங்கும், ஆனந்த மோகனும் கவர்னர்
மாளிகைக்கு சென்று புதிய கவர்னர் மல்கானியை சந்தித்து பேசினர். அப்போது புதுவையில்
கைதான கூலிப்படையினர் பற்றி தகவல்களையும், அவர் களை கைது செய்ய எடுத்த சிரமங்களையும்
எடுத்து கூறினர். பின்னர் அவர்களிடம் இருந்து பறிமுதல் செய்யப்பட்ட ஆயுதங்கள்,
அவர்களிடம் நடத்திய விசாரணையில் கிடைத்த தகவல்கள் ஆகிய வற்றையும் எடுத்து கூறினர்.
புதுவையில் முன்னாள் அமைச்சர் கந்தாமி உள்பட பல முக்கிய பிரமுகர்களுக்கும், கைதான
கூலிப்படையின ருக்கும் உள்ள தொடர்பு பற்றியும் எடுத்து கூறினர். இதனால் முன்னாள்
அமைச்சர் கந்தசாமி கைது செய்யப் படுவது உறுதி என்று கூறப்படுகிறது. </p><p>
</p><p>
பாகூர் தொகுதியை சேர்ந்த முன்னாள் அமைச்சர் கந்த சாமிக்கும் அதே தொகுதியை சேர்ந்த
தற்போதைய எம்.எல்.ஏ. ராஜவேலுவுக்கும் இடையே பல ஆண்டுகளாக முன் விரோதம் இருந்து வருகிறது.
இவர்களது ஆதரவாளர்கள் அடிக்கடி மோதிக் கொண்டனர். கடந்த சில வாரங்களுக்கு முன் ராஜ வேலு
ஆதரவாளர்களால் கந்தசாமியின் ஆதரவாளர் அமிர்தலிங்கம் என்பவர் வெட்டிக் கொலை செய்யப்
பட்டார். இதைத்தொடர்ந்து பாகூர் தொகுதி இன்று வரை ஒரு பதட்டமான நிலையில் இருக்கிறது. </p><p>
</p><p>
எம்.எல்.ஏ.வை கொல்ல சதி </p><p>
</p><p>
இந்த நிலையில் எம்.எல்.ஏ. ராஜவேலுவை கூலிப்படை யினரை வைத்து தீர்த்து கட்ட முன்னாள்
அமைச்சர் கந்தசாமி திட்டம் தீட்டியிருக்கலாம் என்று போலீசார் கருதுகின்ற னர். இதனால்
அவரை உடனடி யாக கைது செய்வதா? அல்லது விசாரணை நடத்தி அதன் பின்னர் கைது செய்வதா?
என்பது குறித்து நேற்று தீவிரமாக ஆலோசித்தனர். கவர்னர், முதல்வரும் பச்சைக் கொடி காட்டி
விட்டதால் முன்னாள் அமைச்சர் கந்த சாமி கைது செய்யப்படுவது உறுதியாகி விட்டது. </p><p>
</p><p>
இது மட்டுமல்லாமல் புதுவையில் வட்டிக்கடை நடத்தும் ஒரு சேட்டுக்கும், விபசார விடுதி நடத்தும்
ஒரு வருக்கும் இந்த கூலிப்படை யினர் அடிக்கடி போன் செய்துள்ளனர். மேலும் பல போன் ஹால்கள்
குறித்தும் போலீசார் விசாரித்து வருகிறார்கள். இதனால் இன்னும் பல பரபரப்பு தகவல்கள்
வௌியாகும் என்று தெரிகிறது. </p><p>
</p><p>
எஸ்.எஸ்.பி. </p><p>
</p><p>
இது குறித்து எஸ்.எஸ்.பி. ஆனந்த மோகனிடம் கேட்ட தற்கு அவர் கூறியதாவது:- </p><p>
</p><p>
கூலிப்படையினரின் செல்போன்களை பறிமுதல் செய்து விசாரித்ததில் அவர்கள் புதுவையில்
பலருடன் பேசியது தெரிய வந்தது. எனவே அவர்கள் மீது நடவடிக்கை எடுப்பது பற்றி ஆலோசித்து
வருகிறோம். எங்கள் நடவடிக்கை தொடரும். விசாரணையையும் தீவிரப்படுத்து வோம். </p><p>
</p><p>
இவ்வாறு அவர் கூறினார். </p><p>
</p><p>
கந்தசாமி </p><p>
</p><p>
முன்னாள் அமைச்சர் கந்தசாமியிடம் கேட்டதற்கு அவர் கூறியதாவது:- </p><p>
</p><p>
நான் பொது வாழ்க்கையில் இருக்கிறேன். என் வீட்டுக்கு பலர் வருவார்கள். போவார்கள்.
அவர்களுக்கு யாரும் என் வீட்டு இருந்து போன் பண்ணியிருக்க லாம். எனக்கும் கூலிப்படை
யினருக்கும் எந்த வித தொடர்பும் கிடையாது. அவர்களை யார் என்றே எனக்கு தெரியாது.
அவர்களிடம் நான் போனில் பேசவில்லை. அவர்களும் எனக்கு போன் செய்யவில்லை. </p><p>
</p><p>
இவ்வாறு அவர் கூறினார். </p>

<p> </p>

<p>திருவள்ளூர் மாவட்டம்
அம்மையார்குப்பத்தில் கருணாநிதி 6-ந்தேதி கஞ்சித்தொட்டி திறக்கிறார்; வறுமையில்
வாடும் நெசவாளர்களுக்கு உதவி</p>

<p> </p>

<p>சென்னை, ஆக. 3- வறுமையில் வாழும் நெசவாளர்களுக்கு உதவும் வகையில்
திருவள்ளூர் மாவட்டம் அம்மையார்குப்பத்தில் வருகிற 6-ந்தேதி தி.மு.க. தலைவர் கருணாநிதி
கஞ்சித்தொட்டி திறந்து வைத்து கஞ்சி வழங்குகிறார். </p><p>
</p><p>
கஞ்சித்தொட்டி </p><p>
</p><p>
இதுகுறித்து திருவள்ளூர் மேற்கு மாவட்ட தி.மு.க. செயலாளர் இ.ஏ.பி.சிவாஜி வௌி யிட்டுள்ள
அறிக்கையில் கூறி இருப்பதாவது:- </p><p>
</p><p>
தமிழகமெங்கு நெசவுத் தொழிலில் ஈடுபட்டுள்ளவர்கள் கால்வயிற்று கஞ்சிக்கும்
வழியில்லாமல் அவதிப்படுவது அனைவரும் அறிந்த ஒன்று. அத்தகைய நெசவா ளர்களுக்கு கழகத்தின்
சார்பில் தமிழகமெங்கும் பல்வேறு பகுதிகளில் கஞ்சித் தொட்டிகள் அமைத்து உதவி
வழங்கப்படுகிறது. </p><p>
</p><p>
கருணாநிதி திறக்கிறார் </p><p>
</p><p>
திருவள்ளூர் மாவட்டம் பள்ளிப்பட்டு ஒன்றியம் அம்மையார் குப்பத்தில் வருகிற 6-ந்தேதி
காலை 11 மணியள வில் தி.மு.க. தலைவர் கருணாநிதி நேரில் வந்து கஞ்சி தொட்டி
திறந்து, வறுமையில் வாடும் நெசவாளர்களுக்கு கஞ்சி வழங்குகிறார். </p><p>
</p><p>
மாவட்டத்தில் உள்ள அனைத்து கழக அமைப்புகளின் நிர்வாகிகளும், கழக தோழர்களும்
இந்நிகழ்ச்சியில் பங்கேற்குமாறு கேட்டுக் கொள்கிறேன். </p><p>
</p><p>
இவ்வாறு அவர் கூறி உள்ளார். </p>

<p> </p>

<p> </p>

<p>உசிலையில் இருந்து பேரையூர்
செல்வதற்குள் இலாகாவை ஜெ. பறித்ததால் மந்திரி துரைராஜ் அதிர்ச்சி: இறுகிய முகத்துடன்
அரசு விழாவில் பங்கேற்பு</p>

<p> </p>

<p>உசிலம்பட்டி, ஆக.3- </p><p>
</p><p>
உசிலம்பட்டியில் இருந்து பேரையூர் செல்வதற்குள் இலாகாவை ஜெயலலிதா பறித்ததால் மந்திரி
துரைராஜ் அதிர்ச்சி அடைந்தனர். இறுகிய முகத்துடன் அரசு விழாவில் கலந்து கொண்டனர். </p><p>
</p><p>
மந்திரி துரைராஜ் </p><p>
</p><p>
உசிலம்பட்டிக்கு நேற்று காலை வந்த உள்ளாட்சித்துறை மந்திரி சி.துரைராஜ் சிப்போ என்ற
அரசு விழாவில் கலந்து கொண்டார். ஆனால் அதற்கு முன்னதாக உசிலம்பட்டி மாவட்ட அரசு தலைமை
மருத் துவமனை சென்று சுகாதாரத் துறை மந்திரி செம்மலையுடன் சேர்ந்து அரசு மருத்துவமனை யை
ஆய்வு செய்தனர். அப்போது அங்கு சென்ற மந்திரி களை பார்த்து தங்கதமிழ் செல்வன் மற்றும்
அ.தி.மு.க. பொருளாளர் சீனிவாசனும் குறைகளை கேட்ட 2 மந்திரி களையும் கிண்டல் செய்தபடி
வந்தனர். மந்திரி சமையல் அறை சென்றனர். அறுவை சிகிச்சை அரங்கு செல்கிறார்கள் என்றும்,
பொது மக்கள் சரமாரி புகார் சொல்லும் இடத்திற்கு அமைச்சர்கள் வந்ததை நமது ஆட்சியின்
குறைகளை இப்படி காட்டுகிறார்களே என்ற எரிச்சலுடன் வந்தனர். </p><p>
</p><p>
இலாகா பறிப்பு </p><p>
</p><p>
அமைச்சர் செம்மலை ஆண்டிப்பட்டி விழாவிற்கு சென்றவரை வலுக்கட்டாயமாக உள்ளாட்சித்துறை
அமைச்சர் தான் அழைத்து வந்தார் என்ப தால் மேலிடத்துக்கு தகவல் தெரிவிக்கப்பட்டு அதனால்
தான் அமைச்சர் இலாகா மாற்றப்பட்டு பழிவாங்கப்பட் டார். இதற்கு முக்கிய காரண
கர்த்தாக்களாக எம்.பி.க்கள் இருக்கலாம் என கட்சி வட்டா ரங்கள் தெரிவித்தது. தற்போது
ஆண்டிப்பட்டியில் தங்கதமிழ் செல்வன் எம்.பி. கஞ்சி தொட்டியை எதிர்த்து பிரியாணி
வழங்கியதால் அம்மா அவர் மீது ஆத்திரமாக இருப்பதால் திசை திருப்பவே உள்ளாட்சி துறை
அமைச்சர் பதவி பறிப்பு எம்.பி.யால் நடந்திருக்கலாம் என கட்சி வட்டாரங்கள்
பேசிக்கொண்டனர். </p><p>
</p><p>
உசிலம்பட்டியில் உள்ளாட்சி துறை அமைச்சர் அரசு விழாவில் கலந்து கொண்டு விட்டு
டி.கல்லுப்பட்டியில் 20 லட்சம் செலவில் வணிக வளாகம் கட்ட அடிக்கல் நாட்டு விழாவில்
பேசிக்கொண்டு இருந்த அமைச்சருக்கு தகவல் தெரிவிக்கப்பட்டது. உடனடி யாக அவசர அவசரமாக முடித்
துக்கொண்டு வௌியேறிய அமைச்சர் தொட்டிய பட்டிக்கு வந்து சுகாதார கழிவறை வளாக சாவியை
மட்டும் ஒப் படைத்து விட்டு நேராக பேரையூர் பேரூராட்சி அலுவலகம் வந்தார். </p><p>
</p><p>
மந்திரி அப்செட் </p><p>
</p><p>
தனது இலாகா பறிக்கப்பட் டது தெரிந்ததும் மிகவும் இறுக்க மான முகத்துடன் காணப்பட்ட
அமைச்சர் சி.துரைராஜ் பேரை யூர் பேரூராட்சி அலுவலகத்தில் அமர்ந்து போன் செய்து தனது
இலாகா மாற்றப்பட்டதை உறுதி யாக தெரிந்துகொண்டு ஒரு மணி நேரம் அமைதியாக இருந் தார்.
பின்னர் வீட்டுவசதி வாரிய அமைச்சராக புறப்பட்டு தனது விழாக்கள் பேரையூர் அரசு பள்ளி
கட்டிடம் 5லட்ச ரூபாயில் கடடியதை திறந்து வைத்தார். தொடர்ந்து கீழப் பட்டி, மேலப்பட்டி,
தும்மி நாயக்கன்பட்டி ஆகிய பகுதி களில் தொடர்ந்து மந்திரி கலந்து கொண்டார். </p>

<p> </p>

<p> </p>

<p>குறைகளை தீர்க்க உயர்
அதிகாரிகள் உள்ளனராம்: போலீஸ் சங்கம் தேவை இல்லை; ஏ.டி.ஜி.பி. திலகவதி சொல்கிறார்</p>

<p> </p>

<p>பரமக்குடி, ஆக.3- </p><p>
</p><p>
போலீசார் குறைகளை தீர்க்க உயர் அதிகாரிகள் உள்ளனர் என்றும், எனவே தமிழகத்தில்
காவலர்களுக்கு சங்கம் தேவையில்லை எனவும் பரமக்குடியில் ஏ.டி.ஜி.பி. திலகவதி கூறினார். </p><p>
</p><p>
மகளிர் காவல் நிலையம் </p><p>
</p><p>
பரமக்குடியில் இருந்து முது குளத்தூர் சாலையில் புதிய கட்டிடத்தில் செயல்பட தொடங் கியுள்ள
மகளிர் காவல் நிலை யத்திற்கு நேற்று (வௌ்ளி) மாலை தமிழக காவல்துறை கூடுதல் இயக்குநர்
(ஏ.டி.ஜி.பி.) ஜி.திலகவதி வருகை தந்து ஆய்வு செய்தார். </p><p>
</p><p>
பின்னர் அவர் நிருபர் களுக்கு பேட்டி அளித்தார். அப்போது அவர் கூறியதாவது:- </p><p>
</p><p>
பெண்களுக்கு தனி சிறை </p><p>
</p><p>
ஆபாச திரைப்படங்களை திரையிடும் தியேட்டர்கள், ஆபாச போஸ்டர்கள் அச்சடிக் கும்
நிறுவனங்கள் மீது கண்டிப் பாக நடவடிக்கை எடுக்கப்படும். பெண் கைதிகளுக்கு என தனி
சிறைச்சாலைகள் அமைக்க முடிவு செய்யப்பட்டு விரைவில் செயல்படுத்தப்பட உள்ளது. அவைகளை
நிர்வகிக்கும் பொறுப்பும் பெண் போலீசார்களிடமே கொடுக்கப்படும். பொது மக்கள்
முன்பெல்லாம் காவல்துறையினரை பற்றி தவறான சிந்தனையோடு இருந்தனர். தற்போது அந்த அந்த
நிலை மாறி காவல்துறையினர் மீது பொதுமக்களுக்கு நம்பிக்கை வந்துள்ளது. </p><p>
</p><p>
100 காவல் நிலையம் </p><p>
</p><p>
பெண்கள் போலீஸ் வேலை யில் சேர மிகவும் ஆர்வமாக உள்ளனர். தற்போது 1638 பெண்
காவலர்கள் வேலைக்கு சேர்க்கும் திட்டம் உள்ளது. ஆனால் அந்தப்பணி இடங் களுக்கு 1.1,2
லட்சம் மனுக்கள் வந்துள்ளன. காவல்துறையை நவீனப்படுத்தும் திட்டத்தின் கீழ் 100 காவல்
நிலையங்கள் கட்டப்படவுள்ளன. இன்னும் 2 ஆண்டிற்குள் தமிழகம் முழுவதும் 200 காவல்
நிலையங்கள் அமைக்கப்படுகிறது. </p><p>
</p><p>
தமிழகத்தில் அனைத்து மகளிர் மன்றங்களும் நன்றாக செயல்பட்டு வருகிறது. அந்தந்த பகுதிக்கு
ஏற்றவாறு பெண்கள் அனைவரும் ஈடுபட்டால் அவர் களின் வாழ்க்கைத்தரம் வளம் பெறும்.
மகளிர் மன்றத்தின் மூலம் வருமானம் வருவதோடு மட்டுமல்லாமல் பெண்களின் வாழ்க்கைக்கு என்று
அர்த்தம் நம்பிக்கை ஏற்படுத்துகிறது. பெண்களின் வாழ்க்கை முறை யை நாகரீகமாக்கி விட்டது.
</p><p>
</p><p>
கல்லூரி </p><p>
</p><p>
தற்போது உள்ள அரசு காவலர்களுக்கு நிறைய நல்ல திட்டங்களை அறிவித்துள்ளது. போலீசார்களின்
குழந்தைகளுக் கென கல்லூரி (அகடாமி) போன்ற கல்வி நிறுவனங்்கள் தொடங்கப்படவுள்ளன.
இதில் 65 சதவீதம் காவல் துறை குழந் தைகளும் 35 சதவீதம் பொது மக்களின் குழந்தைகளும்
சேர்ந்து கல்வி பயிலலாம். காவலர்களுக்கான உணவுப் படி அதிகரிக்கப்பட்டுள்ளது. </p><p>
</p><p>
சங்கம் தேவையில்லை </p><p>
</p><p>
போலீசார்களின் குறை களை பணிவுடன் கேட்கும் வகையில் இதுவரை யாரும் செய்யாத வகையில்
கடைநிலை காவலர்களையும் நேரில் சந்தித்து முதல்வர் ஜெயலலிதா மனுக்களை வாங்கியுள்ளார்.
இச்செயல் உண்மையான ஜன நாயகமாகும். கோரிக்கைகளை வலியுறுத்துவதற்குத்தான் சங்கம்
அமைப்பார்கள். காவல் துறையில் அவரவர் குறைகளை களைய அவர்களுக்கான உயர் அதிகாரிகள்
உள்ளனர். ஆகவே தமிழகத்தில் போலீசார்களுக்கு சங்கம் தேவையில்லை. </p><p>
</p><p>
புகார் கூறலாம் </p><p>
</p><p>
பரமக்குடியில் செயல்படும் மகளிர் காவல்நிலையத்திற்கு என ஒரு புதிய ஜீப் இன்று வழங்
கப்பட்டுள்ளது. மேலும் 1091 என்ற எண் கொண்ட தொலை பேசி இணைப்பும் உள்ளது. இதை அனைத்து
பொது மக்களும் இலவச கட்டணத்து டன் தொடர்பு கொண்டு குறை களை கூறி பயன்பெறலாம். மேலும்
பொதுமக்கள் அவர் களது தெருக்களில் அல்லது அருகாமையில் உள்ள வீடு களில் மாமனார்,
மாமியார் கொடுமை, கணவன், மனைவி தகராறு (அடித்து துன்புறுத்து தல்) போன்றவைகளை இலவச
கட்டண தொலைபேசி மூலம் பொது மக்கள் யாராக இருந் தாலும் கூறினால் மகளிர் காவல்துறையினர்
அங்கு விரைந்து வந்து நடவடிக்கை எடுப்பார்கள். </p><p>
</p><p>
இவ்வாறு அவர் கூறினார். </p><p>
</p><p>
அப்போது ராமநாதபுரம் மாவட்ட காவல்துறை கண் காணிப்பாளர் அசோக்குமார் தாஸ்
உடனிருந்தார். முன்ன தாக மகளிர் காவல்நிலையத் திற்கு வருகை தந்த ஏ.டி.ஜி.பி. திலகவதியை
பரமக்குடி டி.எஸ்.பி. ஜெகநாதன், மகளிர் போலீஸ் இன்ஸ்பெக்டர் புளோரா ஜெயந்தி,
சப்-இன்ஸ் பெக்டர்கள் அமுதுசெல்வி, இந்திரா மற்றும் காவலர்கள் வரவேற்றனர். பரமக்குடி
முத்தாலம்மன் பாலிடெக்னிக் சேர்மன் கே.வி.எஸ்.பாண்டியன் வரவேற்று சால்வை அணிவித்
தார். </p>

<p> </p>

<p> </p>

<p>திருச்சி பஸ்சில் வெடி
பொருள்: வைத்தது யார்? போலீஸ் விசாரணை</p>

<p> </p>

<p>திருச்சி, ஆக.3- </p><p>
</p><p>
திருச்சி பஸ்சில் வெடிபொருள் கண்டு பிடிக்கப்பட்டது. அதை வைத்தவர்கள் யார் என்பது குறித்து
போலீசார் விசாரணை நடத்தி வருகின்றனர். </p><p>
</p><p>
திருச்சியில் நடந்தது உள்பட தமிழகம் முழுவதிலும் நடந்த சுமார் 13 கொலை வழக்குகளில்
சம்பந்தப்பட்ட ரவுடிகள் மணி பாரதி, செல்வம் ஆகியோர் ஆவர். இவர்கள் திருச்சி மாநகர
போலீசாரின் கண்ணில் மண்ணை தூவிவிட்டு பாண்டிச்சேரியில் பதுங்கி இருந்தனர். இதுபற்றி
தகவல் அறிந்த திருச்சி மாநகர போலீஸ் சப்-இன்ஸ்பெக்டர் தேவராஜ் தலைமையிலான ஒரு
தனிப்படையினர் பாண்டிச்சேரி விரைந்து சென்றனர். அங்கு அவர்களுக்கும், ரவுடிகளுக்கும் இடையே
துப்பாக்கி சண்டை ஏற்பட்டது. </p><p>
</p><p>
அதைத் தொடர்ந்து திருச்சியில் இருந்து சென்றிருந்த தனிப்படை போலீசார் பாண்டிச்சேரி
போலீசார் துணையுடன் அந்த ரவுடிகள் 2பேரையும் கைது செய்தனர். மேலும் அவர்களி டமிருந்து
பயங்கர ஆயுதங் களையும் பறிமுதல் செய்தனர். இந்த நிலையில் நேற்று முன்தினம் சேலத்தில்
இருந்து திருச்சி வந்த அரசு பஸ்சில் வெடிகுண்டு போன்ற ஒரு பொருள் பிடிபட்டுள்ளது. இந்த
சம்பவம் பற்றிய விவரம் வருமாறு:- </p><p>
</p><p>
சேலத்தில் இருந்து திருச்சிக்கு நேற்று முன்தினம் (வியாழன்) இரவு 10-45 மணி அளவில்
திருச்சி போக்கு வரத்து கழக பஸ் ஒன்று புறப்பட்டது. இந்த பஸ் நாமக்கல், முசிறி வழியாக
அதி காலை 2.15 மணி அளவில் திருச்சி மத்திய பஸ் நிலையம் வந்தடைந்தது. பயணிகள் அனைவரும்
இறங்கியதும் டிரைவர் தம்புராஜ், பஸ்சை டெப்போவுக்கு ஓட்டி சென்றார். அங்கு டிரைவர்
தம்புராஜ், கண்டக்டர் சீதாராமன் ஆகி யோர் பஸ்சில் பயணிகள் யாராவது பொருட்களை மறந்து
வைத்து விட்டு சென்று இருக்கிறார்களா என்று சோதனையிட்டனர். </p><p>
</p><p>
அப்போது பயணிகள் பொருட்களை வைக்கும் இடத்தில் ஒரு டப்பா இருந்தது . அந்த டப்பாவை
திறந்து பார்த்தனர். அதில் வௌி மாநில பீர் டின் வடி விலான ஒரு டப்பா இருந்தது. அதன்
மேல் பகுதியில் ஒயர்்்்கள் இருக்கவே கண்டக்டருக்கு சந்தேகம் ஏற்பட்டது. </p><p>
</p><p>
இது குறித்து அவர் உடனடியாக திருச்சி பஸ் நிலையத்தில் உள்ள காவல் உதவி மைய போலீசாருக்கு
தகவல் தெரிவித்தார். உடனே போலீசார் விரைந்து வந்து பீர் டின்னை கைப்பற்றி
கண்டோன்மெண்ட் போலீஸ் நிலையத்துக்கு கொண்டு சென்றனர். அங்கு டின் வடிவிலான வெடிகுண்டாக
இருக்குமோ என்ற சந்தேகத்தில் மெட்டல் டிடெக்டர் மூலம் சோதனை செய்தனர். அதில் அந்த
பீர் டின் வெடி குண்டுதான் என முடிவு செய்தனர். </p><p>
</p><p>
உடனடியாக கண்டோன் மெண்ட் போலீசார் உயர் போலீஸ் அதிகாரிகளுக்கு தகவல் தெரிவித்தனர்.
தகவலறிந்த உதவி போலீஸ் கமிஷனர் ராஜமாணிக்கம், அரசு போக்குவரத்து கழக நிர் வாக
இயக்குனர் கோதண்ட பாணி மற்றும் அதிகாரிகள் இரவோடு இரவாக கண்டோன் மெண்ட் போலீஸ்
நிலையத்துக்கு விரைந்து வந்தனர். அதைத்தொடர்ந்து வெடிகுண்டு நிபுணர்களுக்கும் தகவல்
தெரிவிக்கப்பட்டது. தகவலின்பேரில் வெடிகுண்டு நிபுணர்களும் கண்டோன்மெண்ட்் போலீஸ்
நிலையத்திற்கு விரைந்து வந்தனர். </p><p>
</p><p>
பின்னர் அவர்கள் துணையுடன் போலீஸ் அதிகாரிகள் அந்த டின்னை பிரித்து ஆராய்ந்தனர்.
அந்்த டின்னுக்குள் பேட்டரி பொருத்துவதற்குரிய 2 ஸ்பிரிங், 2 ஒயர்கள் உள்ளன.
ஸ்பிரிங்குகளும், ஒயர்களும் டின்னுக்குள்் பொருத்தி வைக்கப்பட்டு இருந்தது. மேலும் சுவிட்சும்
இருந்தது. சுவிட்சை போட்டவுடன் வெடிக்கும் வகையில் அந்த குண்டு செய்யப்பட்டுள்ளது. ஆனால்
அந்த டின்னில் வெடிமருந்து நிரப்பப்பட வில்்லை. இதனால் அந்த பீர் டின் வெடிக்கும் அளவிலான
வெடிகுண்டு இல்லை என்பது தெரிய வந்தது. இதனால் வெடிகுண்டு நிபுணர்களும், போலீசாரும் நிம்மதி
பெரு மூச்சு விட்டனர். </p><p>
</p><p>
இது தொடர்பாக போலீசார் பஸ் டிரைவர் மற்றும் கண்டக்டரிடம் விசாரணை நடத்தி
வருகிறார்கள். இந்த டின் இருந்த இடத்தின் அருகே அமர்ந்திருந்த பயணிகள் யார்? அவர்கள்
எங்கே ஏறினார்கள்? எங்கே இறங்கினார்கள்? என விசாரணை நடத்தி வருகின்றனர். </p><p>
</p><p>
மேலும் பீர்டின்னில் பதிவாகி உள்ள குற்றவாளி களின் கைரேகைகளையும் போலீசார் சேகரித்து
உள்ளனர். இந்த ரேகைகளையும், ஏற்கனவே போலீசாரின் கைவசம் உள்ள தீவிரவாதி களின்
கைரேகைகளையும்்்் ஒப்பிட்டு பார்க்கும் பணியும் நடந்து வருகிறது. பீர்டின்னில் வெடி மருந்து
நிரப்பாதது ஏன் என்பது புரியாத புதிராக உள்ளது. அந்த டின்னை கொண்டு வந்தவர்களின்
நோக்கம் என்ன என்பதும் புரியவில்லை. </p><p>
</p><p>
திருச்சியில் அந்த டின்னை வெடிக்க வைக்கும் நோக்கம்்் அவர்களுக்கு இல்லாததால் வெடிமருந்து
நிரப்பப்பட வில்லை என்று கூறப்படுகிறது. இது போன்ற டின்களை வேறு ஊருக்கு கொண்டு சென்று அங்கு
அந்த டின்களுக்குள் வெடிமருந்து களை நிரப்பி பல்வேறு ஊர்களுக்கு அனுப்பி அசம்பா விதம்
ஏற்படுத்த திட்டமிட்டு கொண்டு சென்றவர்கள் தவறுதலாக ஒன்றை மட்டும் கைத்தவறி விட்டு
விட்டார்களா? அல்லது நேற்று முன்தினம் திருச்சி மாநகர போலீசாரால் புதுவையில் கைது
செய்யப் பட்ட திருச்சி ரவுடிகளின் கூட்டாளிகள் இந்த சதி வேலையில் ஈடுபட்டார்களா?
என்பது குறித்தும் போலீசார் சந்தேகிக்கின்றனர். </p><p>
</p><p>
அறிக்கை </p><p>
</p><p>
இதனால் திருச்சி மற்றும் அதை சுற்றி உள்ள ஊர்களிலும் போலீசார் கண்காணிப்பு பணியை
அதிகரித்துள்ளனர். மேலும் அந்த வெடிகுண்டுக்கு பயன் படுத்தப்பட்ட பீர் டின்னை திருச்சி
போலீசார் வெடி குண்டு நுண்ணறிவுப்பிரிவு போலீசாருக்கு அனுப்பி வைத்துள்ளனர். அவர்கள் இது
வெடிகுண்டுக்கு பயன்படுத்தப்பட்ட பொருள்தானா? இந்த வகை குண்டுகள் எந்த தீவிர வாதிகளால்
செய்யப்படுபவை என்பது குறித்து அறிக்கை தருவார்கள். அதனடிப்படை யில் போலீசார் தங்களது
விசாரணையை தீவிரப்படுத்துவார்கள் என்றும் போலீஸ் வட்டாரங்கள் தெரிவிக்கிறது. </p><p>
</p><p>
இன்று (சனி) ஆடி பெருக்கு விழாவை முன்னிட்டு புதுமண தம்பதிகள் நேற்று இரவு முதலே திருசசியில்
குவிய தொடங்கி உள்்ளனர். இதனால் பஸ்கள் நிரம்பி வழிந்தன. இந்நிலையில் பஸ்சில்
வெடிகுண்டு போன்ற பொருள் சிக்கி இருப்பது பெரும் பதட்டத்தை ஏற்படுத்தியது. அதிர்ஷ்ட வசமாக
அந்த டின்னில் வெடிமருந்து நிரப்பப்படாத தால் அது வெடிக்கவில்லை. இதனால் பெருமளவில் ஏற்பட
இருந்து சேதத்தில் இருந்து திருச்சி தப்பியது. </p><p>
</p><p>
போலீஸ் கமிஷனர் ராஜேந்திரன் திடுக்கிடும் தகவல்: பஸ்சில் கிடந்த பொருளில் குறித்த
நேரத்தில் வெடிக்கச் செய்யும் டைமர் </p><p>
</p><p>
இதுகுறித்து திருச்சி மாநகர போலீஸ் கமிஷனர் ராஜேந்திரன் நேற்று (வௌ்ளி) நிருபர் களுக்கு
பேட்டி அளித்தார். அப்போது அவர் கூறியதாவது:- </p><p>
</p><p>
சேலத்தில் இருந்து இரவு 10.45 மணிக்கு புறப்பட்டு அந்த பஸ் திருச்சி வந்தது. பின்னர்
திருச்சி டெப்போவுக்கு பஸ் எடுத்து செல்லப்பட்டது. டெப் போவில் பஸ்சை ஊழியர்கள்
சோதனையிட்டனர். அப்போது டிரைவர் இருக்கைக்கு பின் பக்கம் 3-வது இருக்கைக்கு நேர் மேலே
உள்ள பொருட்கள் வைக்கும் இருக்கையில் ஒரு டப்பா கிடந்தது. இது ஊழியர்களுக்கு சந்தேகத்தை
ஏற்படுத்தியது. இதையடுத்து பஸ்சின் டிரைவர், கண்டக்டர் இருவரும் போலீஸ் நிலையத்திற்கு
எடுத்து வந்து காட் டினர். வெடிகுண்டு நிபுணர்கள் அதை ஆய்வு செய்தனர். </p><p>
</p><p>
இந்த சம்பவம் குறித்து கண் டோன்மெண்ட் போலீசார் வழக்கு பதிவு செய்து விசாரித்து வரு
கிறார்கள். இந்த டப்பாவை வெடிகுண்டுக்கு பயன்படுத்த இருந்தது தெரிய வந்து இருக் கிறது.
குறிப்பிட்ட நேரத்தில் வெடிக்க செய்ய அதில் டைமர் பொருத்தப்பட்டு இருந்தது. ஆனால் அதில்
வெடிக்க கூடிய அளவு பொருட் கள் இல்லை. இதே அளவு டைம்பாம் பயன்படுத்தினால் பெரிய அளவில்
சேதங்களை ஏற்படுத்தும் வாய்ப்பு உள்ளது. இது பஸ்சில் எப்படிவந்தது? யார் எடுத்து
வந்தார்கள்? என்பது குறித்து நாங்கள் தீவிர விசா ரணை நடத்தி வருகிறோம். </p><p>
</p><p>
இவ்வாறு அவர் கூறினார். </p>

<p> </p>

<p> </p>

<p> </p>

<p> </p>

<p> </p>

<p>மணியாச்சி அருகே காவலாளியை
கட்டிப்போட்டு துணிகரம்: போலீஸ் போல் நடித்து கூட்டுறவு வங்கியில் கொள்ளை முயற்சி:
ரூ.70 லட்சம் நகை-பணம் தப்பியது- 5 பேர் கும்பலுக்கு வலைவீச்சு</p>

<p> </p>

<p>தூத்துக்குடி,ஆக.3- </p><p>
</p><p>
மணியாச்சி அருகே காவலாளியை கட்டிப்போட்டு, போலீஸ் போல் நடித்து கூட்டுறவு வங்கியில்
கொள்ளை முயற்சி நடந்துள்ளது. </p><p>
</p><p>
தூத்துக்குடி மாவட்டம் மணியாச்சி அருகே உள்ள ஒட்டநத்தத்தில் ஒரு தொடக்க வேளாண்மை
கூட்டுறவு வங்கி உள்ளது. இந்த வங்கியின் காவலாளியாக ரகுபதி (வயது 53) என்பவர் பணியாற்றி
வருகிறார். </p><p>
</p><p>
நேற்று முன் தினம் (வியாழன்) இரவு இவர் பணியில் இருக்கும் போது கதவை பூட்டி விட்டு உள்ளே
தூங்கி கொண்டிருந்தார். இரவு 10-45 மணிக்கு காக்கி சண்டையும், சிமெண்டு கலர் பேண்டும்
அணிந்த ஒரு வாலிபர் வங்கியின் இரும்பு கதவை தட்டி உள்ளார். சத்தம் கேட்டு விழித்த
ரகுபதியிடம் நான் மணியாச்சி போலீஸ் நிலையத்தில் இருந்து வருகிறேன். உள்ளே உள்ள பீட்
புக்கை (இரவு ரோந்து வரும் போலீசார் கையெழுத்து போடும் புக்) எடுத்து வாருங்கள் என்று
கேட்டுள்ளார். அதற்கு ரகுபதி மணியாச்சி போலீஸ் நிலையத்தில் பணியாற்றும் அனைத்து
போலீசாரும் எனக்கு தெரியும். உங்களை நான் பார்த்தது இல்லையே? நீங்கள் யார்?
என்று கேட்டுள்ளார். </p><p>
</p><p>
அதற்குள் மேலும் 4 பேர் அரைடவுசர் மட்டும் அணிந்த நிலையில் வந்தனர். அவர்கள் பாளை
ஜெயிலில் அண்ணாத் துரை என்பவர் தப்பி ஓடி விட்டார். அவரை தேடி நாங்கள் வந்துள்ளோம்
எங்களை போல் மொத்தம் 40 தனிப்படை போலீசார் ரோந்து வருகின்றனர் என்று கூறினர்.
அதற்குள் காவலாளி ரகுபதி, அந்த கும்பலை சேர்ந்த ஒருவனின் கையில் அரிவாள் இருப்பதை பார்த்து
விட்டார். உடனே அவர் கையில் இருந்த விசிலை ஊத முயன்றார். இதை பார்த்த அந்த கும்பலை
சேர்ந்தவர்கள் நாங்கள் விடுதலைபுலிகள். வங்கியில் கொள்ளையடிக்க தான் வந்துள்ளோம்.
நீ விசிலை ஊதினால் உன்னை சுட்டு கொலை செய்து விடுவோம் என்று மிரட்டி உள்ளனர். </p><p>
</p><p>
இதை பார்த்து பயந்து போன காவலாளி ரகுபதி கதவை திறந்து விட்டு தப்பி ஓட முயன்றார்.
அதற்குள் அந்த கும்பல் அவரை மடக்கி பிடித்து, அடித்தனர். பின்னர் வாயில் துணி வைத்து
விட்டு, கை,கால்களை தனியாக கட்டி அருகில் இருந்து ஒரு வேப்ப மரத்தில் அவரை கட்டி
போட்டனர். அதற்கு மேல் ஒரு சிமெண்டு சாக்கை போட்டு மூடி விட்டனர். </p><p>
</p><p>
பின்னர் வங்கியில் புகுந்த கொள்ளையர்கள் தங்களது கையில் தயாராக வைத்திருந்த கேஸ்
சிலிண்டர் மற்றும் வெல்டிங் மிஷினுடன் அங்கிருந்த லாக்கரின் பூட்டை உடைக்கும்
முயற்சியில் ஈடுபட்டு கொண்டிருந்தனர். அப்போது கேஸ் வெல்டிங் மிஷினில் இருந்து வௌியான
தீக்கதிர்களின் ஒளி பக்கத்தில் உள்ள ஒரு தொழிற் சாலையில் பணியாற்றும் ஊழியர்களுக்கு
தெரியவந்தது. அவர்கள் மூடியிருக்கும் வங்கியில் வெல்டிங் ஏன் நடக்கிறது? என்று எண்ணிய
வாறு வங்கியை நோக்கி விரைந்தனர். </p><p>
</p><p>
அப்போது அவர்கள் காவலாளி ரகுபதியின் பெயரை அழைத்தவாறு வந்தனர். இதை கண்ட அந்த
கொள்ளை கும்பல் ஆட்கள் வருவதை பார்த்ததும் அங்கிருந்து தப்பி ஓடி விட்டனர். பின்னர்
அந்த தொழிலாளர்கள் வங்கியில் சென்று பார்த் போது கொள்ளை முயற்சி நடந்தது
தெரியவந்தது. இதற்கிடையில் வேப்பமரத்தில் கட்டி வைக்கப்பட்ட காவலாளியின் முனங்கல்
சத்தம் கேட்டு அவரை அவிழ்த்து விட்டனர். அவர் நடந்ததை கூறினார். </p><p>
</p><p>
இது பற்றி தகவல் அறிந்த மாவட்ட போலீஸ் சூப்பிரெண்டு சுமித்சரண், கூடுதல் சூப்பிரெண்டு
சாலமோன், கோவில்பட்டி டி.எஸ்.பி. சேக்அப்துல்காதர் ஆகியோர் சம்பவ இடத்தை
பார்வையிட்டு விசாரணை நடத்தினர். மணியாச்சி போலீஸ் இன்ஸ்பெக்டர் ராஜ்குமார், சப்-
இன்ஸ்பெக்டர் நடராஜன் மற்றும் போலீசார் வழக்கு பதிந்து கொள்ளையர்களை வலை வீசி தேடி
வருகின்றனர். </p><p>
</p><p>
வங்கியின் லாக்கரில் பொதுமக்களிடம் இருந்து கடனுக்காக பெறப்பட்ட ரூ.70 லட்சம்
மதிப்புள்ள தங்க நகை களும், ரூ.1000 ரொக்கமும் இருந்தது. கொள்ளை முயற்சி
தடுக்கப்பட்டதால் நகை, பணம் தப்பியது. </p><p>
</p><p>
இரவில் ரோந்து வரும் போலீசார் வங்கியின் உள்ள பீட் புத்தகத்தில் கையெழுத்து போடுவது
அந்த பகுதியில் உள்ளவர்களுக்கு தான் தெரியும். எனவே அந்த சுற்று வட்டார பகுதியில் உள்ள
கிராமத்தை சேர்ந்தவர்கள் தான் இந்த வங்கி கொள்ளை முயற்சியில் ஈடுபட்டிருக்கலாம்
என்று போலீஸ் தரப்பில் கூறப்படுகிறது. </p><p>
</p><p>
இந்த சம்பவம் இந்த பகுதியில் பெரும் பரபரப்பை ஏற்படுத்தியுள்ளது. </p><p>
</p><p>
விடுதலைபுலிகள் எனக்கூறி துப்பாக்கியை காட்டி மிரட்டினர் வங்கி காவலாளி ரகுபதி பேட்டி </p><p>
</p><p>
கொள்ளை முயற்சி நடந்த வங்கியின் காவலாளி ரகுபதி நிருபர்களிடம் கூறியதாவது:- </p><p>
</p><p>
நான் வழக்கம் போல் இரவு பணிக்கு வந்தேன். 10-45 மணிக்கு நான் வங்கி கதவை பூட்டி
விட்டு உள்ளே தூங்கி கொண்டிருந்தேன். அப்போது காக்கி சண்டை அணிந்திருந்த ஒருவர் வந்து
மணியாச்சி போலீசில் இருந்து வருவதாக கூறினார். அவர் என்னிடம் பீட் புக் கேட்டார்.
எனக்கு மணியாச்சி போலீசில் பணியாற்று அனைவரையும் தெரியும். எனவே அவர் போலீஸ் அல்ல
என்று சந்தேகப் பட்டேன். அதற்குள் மேலும் 4 பேர் வந்து தனிப்படை போலீஸ் என்று கூறினர்.
அவர்களை பார்த்ததும் எனக்கு சந்தேகம் அதிகரித்தது. அப்போது நான் என் கையில் இருந்த
விசிலை ஊத முயன்ற போது அவர்கள் நாங்கள் விடுதலைபுலிகள் என்றும், கொள்ளையடிக்க
வந்திருக்கிறோம் என்றும் கூறி என்னை துப்பாக்கியால் சுட்டு விடுவேன் என்று கூறி மிரட்டினர்.
வங்கியின் லாக்கர் சாவியை என்னிடம் கேட்டனர். நான் அதை செயலாளர் கொண்டு போய்
விட்டதாக கூறினேன். </p><p>
</p><p>
பின்னர் நான் அவர்களிடம் இருந்து தப்பிப்பதற்காக கதவை திறந்து விட்டு வௌியே ஓட
முயன்றேன். அதற்குள் என்னை பிடித்து அடித்து விட்டு, மரத்தில் வைத்து கட்டி விட்டனர். அதற்கு
பிறகு என்ன நடந்தது என்பது எனக்கு தெரியாது. </p><p>
</p><p>
இவ்வாறு அவர் கூறினார். </p><p>
</p><p>
2-வது கொள்ளை முயற்சி </p><p>
</p><p>
ஏற்கனவே இந்த வங்கியில் கடந்த 8-6-1996-ம் ஆண்டு இரவு இதே போல் வங்கியின்
காவலாளியை வெட்டி விட்டு கொள்ளையடிக்க முயன்றுள்ளனர். இதே போல் தற்போதும் கொள்ளை
முயற்சி நடந்துள்ளது குறிப்பிடத்தக்கது. </p>

<p> </p>

<p> </p>

<p>ஜெ.நிரந்தர முதல்வராக
பார்த்தசாரதி கோவிலில் யாகம், 108 பசுக்களை வைத்து கோபூஜை நடந்தது</p>

<p> </p>

<p>சென்னை, ஆக. 3- ஜெயலலிதா நீரந்தர முதல்வராக நீடிக்க வேண்டும்
என்ற நோக்கத்தில் பார்த்தசாரதி கோவிலில் யாகம் நடந்தது. இந்த யாகத்தின்போது 108
பசுக்களை வைத்து கோபூஜை நடத்தப்பட்டது. </p><p>
</p><p>
கண்ணகிசிலை அகற்றம் </p><p>
</p><p>
ஜெயலலிதா தமிழகத்தின் முதல்வர் ஆனதும் கேரள ஜோதிடரின் அறிவுரையின் படி மெரினா
கடற்கரையில் கம்பீரமாக நின்று கொண் டிருந்த கற்புக்கரசி கண்ணகி சிலை அகற்றப்பட்டது.
சாஸ்திரம், பரிகாரம் ஆகியவற்றில் மிகுந்த நம்பிக்கை கொண்ட ஜெயலலிதா கோவில்களில்
அன்னதானம் வழங்கும் திட்டத்தை தொடங்கி வைத்தார். இதையடுத்து 1008 ஜோடிகளுக்கு
திருவேற்காடு கோவிலில் இலவச திருமணம் நடத்திவைத்தார். </p><p>
</p><p>
சிறப்புபூஜை </p><p>
</p><p>
சுப மூகூர்த்த நாட்களில் ஜெயலலிதாவும் தன் வீட்டிலேயே யாகங்கள் நடத்தி வருகிறார்.
பசுக்களை பல கோவில்களுக்கு தானமாகவும் அளித்து வருகிறார். இதுதவிர அ.தி.மு.க.
தொண்டர்கள் ஜெயலலிதா நீண்டநாள் உயிரோடு வாழ வேண்டும் என்ற நோக்கத்தில் தமிழகம்
முழுவதும் சிறப்பு பூஜை மற்றும் யாகங்களை நடத்தி வருகி றார்கள். </p><p>
</p><p>
இதேபோல் ஜெயலலிதா நீண்டநாட்கள் வாழ வேண்டும், நிரந்தர முதல்வராக நீடிக்க வேண்டும்,
தமிழ்நாடு இந்தியாவிலேயே முதன்மை மாநிலமாக இடம்பெற வேண் டும் ஆகியவற்றை மையமாக வைத்து
சென்னையில் நேற்று அ.தி.மு.க. தொண்டர்கள் யாகம்- பூஜை நடத்தினர். </p><p>
</p><p>
ஹோமகுண்டங்கள் </p><p>
</p><p>
இந்த நிகழ்ச்சி புகழ்பெற்ற திருவல்லிக்கேணி அருள்மிகு பார்த்தசாரதி திருக்கோவி லின்
நுழைவாயிலில் நடந்தது. இதற்காக துணியிலான மேற்கூரை அமைக்கப்பட்டிருந்தது. 3 ஹோம
குண்டங்கள் வளர்த்து 108 கலசபூஜை நடத்தப்பட்டது. சுதர்சன யாகமும், 1008 சகஸ்ர நாம
பாராயணமும் நடந்தது. மாலையில் 108 பசுக்களை வைத்து கோமாதா என்ற கோபூஜை நடந்தது.
முன்னதாக கணபதி ஹோமயாகமும் நடந்தது. </p><p>
</p><p>
பகல் 1 மணி அளவில் நடந்த சமபந்தி விருந்தை மந்திரி டி.ஜெயக்குமார் தொடங்கி வைத்தார்.
இதில் 1,008 பேருக்கு அறுசுவை உணவு பரிமாறப்பட்டது. இந்த நிகழ்ச்சிகளில் மந்திரிகள்
தளவாய்சுந்தரம், சம்பத், நயினார் நாகேந்திரன், பாலசுப் பிரமணியம், துணைமேயர் கராத்தே
ஆர்.தியாகராஜன் ஆகியோர் கலந்து கொண்ட னர். அனைவருக்கும் நினைவுப் பரிசு
வழங்கப்பட்டது. </p><p>
</p><p>
சால்வைகள் </p><p>
</p><p>
மந்திரிகள் பி.சி.ராமசாமி, செம்மலை ஆகியோர் வௌியூர் நிகழ்ச்சிகளில் கலந்து கொள்ள
விருப்பதால் நேற்று முன்தினம் இரவே பார்த்தசாரதி கோவி லுக்கு வந்து யாகம் நடக்கும்
இடத்தை பார்வையிட்டு சென்றனர். யாகம்-பூஜை நிகழ்ச்சிகளில் பொதுமக்கள் யாரும் கலந்து
கொள்ள வில்லை. அ.தி.மு.க. தொண்டர் கள் கையில் சால்வைகளுடன் மந்திரிகளின் வருகைக்காக
அங்கு காத்திருந்தனர். கோவிலை சுற்றி உள்ள </p><p>
</p><p>
அனைத்து தெருக்களிலும் அ.தி.மு.க.வின் கட்சி கொடி மற்றும் தோரணங்கள் கட்டப் பட்டு
இருந்தது. பலத்த போலீஸ் பாதுகாப்பும் போடப்பட்டு இருந்தது. 89-வது வட்ட செயலாளர்
தேனப்பன் யாகத்துக்கான அனைத்து ஏற்பாடு களையும் செய்திருந்தார். </p><p>
</p><p>
கணிசமான வசூல் </p><p>
</p><p>
பொதுநலஅமைப்பு ஒன்று பார்த்தசாரதி கோவிலில் யாகம் செய்வதற்கு அனுமதி கேட்டது. அதற்கு
அந்த கோவில் நிர்வாகம் அனுமதி மறுத்தது. ஆனால் அ.தி.மு.க. ஆளுங்கட்சி என்பதால் யாகத்தை
நடத்தி கொள்ள பார்த்தசாரதி கோவில் நிர்வாகம் பச்சைக் கொடி காட்டியது. இதை யொட்டி
திருவல்லிக்கேணி பகுதியை சேர்ந்த அ.தி.மு.க. நிர்வாகிகள் அந்த பகுதியில் வாழக்கூடிய
அனைவரிடமும் கணிசமாக ஒரு தொகையை கறந்து விட்டார்களாம். </p><p>
</p><p>
மழைக்காக யாகம் நடந்ததா? பட்டாச்சாரியார் பேட்டி </p><p>
</p><p>
திருவல்லிக்கேணி பார்த்தசாரதி கோவிலில் நேற்று அ.தி.மு.க.வினர் யாகம் நடத்தினர்
அல்லவா? ஜெயலலிதா நீடுழி வாழ்வதற்கும், நிரந்தர முதல்வராக நீடிப்பதற்கு மட்டுமே இந்த
யாகம் நடத்தப்பட்டது என்பதை குறிக்கும் வகையில் ஒரு அ.தி.மு.க. போஸ்டர் திருவல்லிக்கேணியில்
காணப்பட்டது. ஆனால் மற்றொரு அ.தி.மு.க. போஸ்டரில் உலக அமைதிக் காகவும், மழைக்காக
வேண்டியும், உலக மக்களின் நலன் கருதியும் இந்த யாகம் நடத்தப்பட்டதாக குறிப்பிடப்பட்டி
ருந்தது. இதுபற்றி பட்டாச்சாரியார் ஒருவர் கூறியதாவது:- </p><p>
</p><p>
மழைக்காக யாகம் நடத்த வேண்டும் என்றால் முழங்கால் தண்ணீரில் நனைந்தபடி
நின்றுகொண்டுதான் யாகம் நடத்த வேண்டும். அப்போதுதான் மழை பெய்யும். விஷ்ணுவின் வடிவமான
பார்த்தசாரதி கோவிலில் இதுபோன்ற யாகங்களை நடத்தக்கூடாது. முருகன் அல்லது அம்மன்
கோவிலில்தான் யாகங்கள் நடத்தவேண்டும். இன்று (நேற்று) ஆடிக் கிருத்திகையையொட்டி முருகன்
கோவில்களில் பக்தர்கள் கூட்டம் நிரம்பி வழியும். எனவேதான் பார்த்தசாரதி கோவிலில்
அ.தி.மு.க.வினர் யாகத்தை நடத்தியிருக்கிறார்கள்.இந்த யாகம் முழுக்க முழுக்க ஜெயலலிதா
நீண்டநாள் வாழவேண்டும் என்பதற்காகவே நடத்தப்பட்டது. நாளை நடைபெறவிருந்த இந்த யாகத்தை
ஜெயலலிதான் ஆடிவௌ்ளியில் நடத்துமாறு கூறினார். </p><p>
</p><p>
இவ்வாறு அவர் கூறினார். </p>

<p> </p>

<p> </p>

<p>சென்னை வள்ளுவர் கோட்டம்
அருகே இன்று தடையை மீறி உண்ணாவிரதம்: மீண்டும் கண்ணகி சிலை வைக்க தமிழறிஞர்கள்
போராட்டம்</p>

<p> </p>

<p>சென்னை,
ஆக. 3- மீண்டும் கண்ணகி சிலை வைக்க தமிழறிஞர்கள் இன்று தடையை மீறி சென்னை
வள்ளுவர் கோட்டம் அருகே உண்ணாவிரதம் இருக்கிறார்கள். </p><p>
</p><p>
கூட்டறிக்கை </p><p>
</p><p>
இதுகுறித்து பன்னாட்டு தமிழுறவு மன்ற அமைப்பாளர் பெருங்கவிக்கோ வா.மு.சேது ராமன்,
பாரதிதாசன் இலக்கிய பேரவை அமைப்பாளர் பேராசிரியர் மு.பி.பாலசுப்பிரமணியன், திராவிட
ஆன்மீக இயக்க நிறுவனர் பேராசிரியர் மு.தெய்வநாயகம், முன்னாள் மேயர் சா.கணேசன்,
தலைநகர் தமிழ்ச்சங்க தலைவர் புலவர் பா.சாத்தன், தலைநகர் தமிழ்ச் சங்க
பொதுச்செயலாளர் புலவர் த.சுந்தரராசன், தமிழ் தன்னுரிமை இயக்க தலைவர் பாவலர்
மு.ராமச்சந்திரன் ஆகியோர் வௌியிட்டுள்ள ஒரு கூட்டறிக்கை வருமாறு:- </p><p>
</p><p>
கண்ணகி சிலை </p><p>
</p><p>
தமிழர்தம் பண்பாட்டு அடையாள சின்னமான கண்ணகி சிலை பேரறிஞர் அண் ணாவின்
கருத்துப்படி சென்னை மெரினா கடற்கரையில் 1968-ம் ஆண்டு நிறுவப் பட்டது. கடந்த ஏப்ரல்
திங்கள் 2002 ஆம் ஆண்டு பொருந்தாக் காரணங்களை கூறி தமிழக அரசு அக் கண்ணகி சிலை யினை
அப்புறப்படுத்தி மறைத்து வைத்துள்ளது. அப்புறப்படுத்தப்பட்ட கண்ணகி சிலையினை மீண்டும்
அதே இடத்தில் நிறுவவேண்டும் என வலியுறுத்தி காலை 9 மணி முதல் மாலை 6 மணி வரை ஒருநாள்
காந்திய வழியில் அமைதியான முறையில் உண்ணா நோன்பு மேற் கொள்ள தமிழறிஞர்கள் -
சான்றோர்கள் உள்ளிட்ட தமிழ் அமைப்புகள் 18-7-2002-ல் காவல்துறையினரிடம் விண்ணப்பம்
செய்திருந்தோம். </p><p>
</p><p>
கேளாக்காதினர் </p><p>
</p><p>
காவல்துறையினர் 1-8- 2002-ல் தமிழறிஞர்களின் அறவழி உண்ணா நோன்பிற்குப்
பொருந்தாக் காரணங்களை கூறி அனுமதி மறுத்துள்ளனர். ஜனநாயகத்தில் அடிப்படை உரிமையான
உண்ணாநோன்பு போராட்டத்தை அறநெறி பிறழ்ந்து அடக்க நினைப்பது மக்களாட்சி
கொள்கையினையே கேலி செய்வதாக உள்ளது. கற்புக்கரசி கண்ணகி சிலையை மீண்டும் அதே
இடத்தில் வைத்திடவற்புறுத்தி அனைத்து அரசியல் இயக்கங் களும், தமிழ் அமைப்புகளும்,
தமிழ் மக்களும் இதுவரை பல முனை போராட்டங்களை நடத்தியும் தமிழக ஆட்சியாளர்கள் கேளாக்
காதினராக உள்ளனர். </p><p>
</p><p>
தடையை மீறி.... </p><p>
</p><p>
எனவே, ஒட்டுமொத்தமான தமிழ் மக்களின் உணர்வுகளை வௌிப்படுத்தும் வண்ணம் 3-8-2002 காலை
9 மணிக்கு வள்ளுவர் கோட்டம் அருகில் தடையை மீறி உண்ணா நோன்பு போராட்டத்தை
மேற்கொள்ளுகிறோம். </p><p>
</p><p>
இவ்வாறு அதில் கூறி உள்ளனர். 

</p>

<p>தி.மு.க. ஊர்க்கிளை-
உட்கிளை தேர்தல், 9-ந்தேதி முதல் 18-ந்தேதி வரை நடக்கிறது</p>

<p> </p>

<p>சென்னை,
ஆக.3- தி.மு.கழக ஊர்க்கிளை, உட்கிளை தேர்தல்கள் 9-ந்தேதி முதல் 18-ந்தேதி வரை நடக்க
இருக்கின்றன. </p><p>
</p><p>
10 நாள் தேர்தல் </p><p>
</p><p>
இதுகுறித்து தி.மு.க. தலைமைக்கழகம் வௌியிட்டுள்ள அறிக்கை வருமாறு:- </p><p>
</p><p>
திராவிட முன்னேற்றக் கழகத்தின் 12-வது பொதுத்தேர்தலில் ஊர்க்கிளை, வட்டக் கிளைக்கழக
தேர்தல்கள் செம்மையுற நடத்தி முடித்திட, மாவட்ட வாரியாக தலைமைக் கழகத்தால்
அறிவிக்கப்படும் தலைமை தேர்தல் பிரதிநிதிகள் மூலமாக, அவர்களால் அனுப்பி வைக்கப்படும்
ஆணையாளர்களை கொண்டு தேர்தல்கள் முதல் கட்டமாக கீழே குறிப்பிட்ட மாவட்டங்களுக்கு ஆகஸ்டு
9 முதல் 18 வரையில் (10 நாட்கள்) நடைபெறும். </p><p>
</p><p>
1. கன்னியாகுமரி </p><p>
</p><p>
2.திருநெல்வேலி </p><p>
</p><p>
3.தூத்துக்குடி </p><p>
</p><p>
4.விருதுநகர் </p><p>
</p><p>
5.தேனி </p><p>
</p><p>
6.கரூர் </p><p>
</p><p>
7.தஞ்சை </p><p>
</p><p>
ரூ.1 கட்டணம் </p><p>
</p><p>
வேட்புமனு விண்ணப்பப்படிவங்கள் தொடர்புடைய மாவட்டக்கழக அலுவலகத்தில் படிவம் ஒன்றுக்கு
ரூ.1 வீதம் செலுத்தி தேவைபடுவர்கள் பெற்றுக்கொள்ளலாம். அச்சிட்ட படிவம் இல்லாவிடில்
ஜெராக்ஸ் எடுத்துக்கொள்ளலாம். அல்லது தேர்தல் நடைபெற உள்ள கிளைகளில் தேர்தல் நாளன்று
முன்கூட்டி ஆணையாளர்களால் வேட்புமனுக்கள் வழங்கப்படும். </p><p>
</p><p>
ஆணையாளர்களிடம் விண்ணப்பக் கட்டணமாக செலுத்தப்படும் தொகை அனைத்தையும்
விண்ணப்பத்தாளுடன் தேர்தல் முடிவுத் தாள்களையும் தலைமை தேர் தல் பிரதிநிதிகளிடம்
ஒப்படைக்க வேண்டும். </p><p>
</p><p>
முரசொலி சந்தா </p><p>
</p><p>
கிளைக்கழக தேர்தல் பற்றிய அறிக்கைக்கிணங்க உரிய கட்டணத்துடன் கிளைக்கழக
வேட்புமனுக்களை பெறுதல், போட்டியின்றியும், தேர்தல் மூலமாகவும் தேர்ந்தெடுக்கப்பட்ட
கிளைகளின் முடிவுகளையும், கிளைக்கழகத்திற்கு ஆணை யாளரால் வழங்கப்பட்டிருக்கும் முரசொலி
நாளிதழுக்கு சந்தா தாரராக சேரவேண்டும் என கொடுக்கப்பட்ட படிவத்தினையும், பூர்த்தி
செய்த சந்தா படிவத்தின் அதற்குரிய தொகை யினையும் கிளைக்கழக வேட்புமனு கட்டணத்தையும்
உடனடியாக தலைமைக் கழகத்திற்கு அனுப்புதல், போதிய தகுதியுள்ள ஆணையாளர்களை
தேர்ந்தெடுத்தல், சம்பந்தப்பட்ட ஒன்றியத்திற்குட்பட்ட கிளைக்கழக தேர்தலை நடத்துவதற்கு
அந்தந்த ஒன்றி யத்தை சாராத ஆணையாளர்களை அனுப்புதல் ஆகிய பணிகளோடு தேர்தலில் ஏற்படும்
பிரச்சினைகளையும் தலைமை தேர்தல் பிரதிநிதிகளே முன் னின்று தீர்த்து வைக்க வேண்டும்.
அவர்களால் தீர்த்து வைக்க முடியாத கிளைக்கழக தேர்தல் குறித்த முடிவுகளை மட்டுமே
தலைமைக்கழகம் பரிசீலிக்கும். </p><p>
</p><p>
விதிமுறை </p><p>
</p><p>
தேர்தல் நடத்தும் பிரதிநிதிகள் பட்டியல் விவரம் மாவட்ட வாரியாக பின்னர் அறி
விக்கப்படும். </p><p>
</p><p>
தேர்தல் நடைபெற வேண்டிய பணிப் பொறுப்புகளும் அதற்குரிய வேட்புமனுக்கட்டண விவரங்களும். </p><p>
</p><p>
அவைத்தலைவர் </p><p>
</p><p>
கட்டணம்ரூ.10 </p><p>
</p><p>
செயலாளர்ரூ.10 </p><p>
</p><p>
துணைச்செயலாளர்ரூ.10 </p><p>
</p><p>
பொருளாளர்ரூ.10 </p><p>
</p><p>
மேலமைப்பு பிரதிநிதிரூ.10 </p><p>
</p><p>
செயற்குழு </p><p>
</p><p>
உறுப்பினர்கள்ரூ.5 (ஒரு வேட்புமனுக்கு மட்டும்) </p><p>
</p><p>
(மேற்காணும் பணி பொறுப்பிற்கு வரும் ஐவரையும், செயற்குழு உறுப்பினர்களையும் உள்ளிட்டு 21
பேர்களுக்கு மிகாமல் இருக்க வேண்டும். நூறு உறுப்பினர்களுக்கு மேற்படாத கிளை ஒரு
பிரதிநிதியையும், நூற்றுக்கும் மேற்பட்ட உறுப்பினர்களை கொண்ட கிளை இரு
பிரதிநிதிகளையும் தேர்ந்தெடுக்க வேண்டும்) </p><p>
</p><p>
இதர தேர்தல் நடைமுறை களில், கழகத்தின் பொதுத் தேர்தல் விதிமுறைகளை கடைப் பிடிக்க
வேண்டும். </p><p>
</p><p>
இவ்வாறு அதில் கூறப்பட்டு உள்ளது. </p><p>


</p>

<p>தலைகீழாக மரம் ஏறி
வியப்பில் ஆழ்த்துகிறார்; நெருப்பு துண்டுகளை கேக் போல ருசித்து சாப்பிடும் அதிசய
வாலிபர்</p>

<p> </p>

<p>குடியாத்தம்,ஆக.3- </p><p>
</p><p>
நெருப்பு கங்குகளை (துண்டுகள்) கேக் சாப்பிடுவது போல் விழுங்கி காட்டினார் அதிசய மனிதர்
பொன்னரசு. குடியாத்தம் அருகே திரளான கிராம மக்கள் கூடி இந்த காட்சியை வியப்போடு
பார்த்தனர். மற்றொரு சாதனையாக தென்னை மரத்தில் தலைகீழாக மின்னல் வேகத்தில் ஏறி
காட்டினார். </p><p>
</p><p>
அதிசய மனிதர் </p><p>
</p><p>
குடியாத்தம் அடுத்த கார்த்திகேய புரம் கிராமத்தில் தீக்கங்குகளை சாப்பிடும் அதிசய
மனிதர் இருப்பது குறித்து தகவல் கிடைத்ததும் தினகரன் நிருபர் அங்கு விரைந்தார். அந்த
அதிசய மனிதரை சந்தித்தார். அவரது பெயர் பொன்னரசு. தகப்பனார் பெயர் கே.சி.ரத்தினம். </p><p>
</p><p>
அதிசய மனிதர் பொன்னரசிடம், நீங்கள் தீக்கங்குகளை சாப்பிடுவது உண்மைதானா. தலைகீழாக
மரத்தில் ஏற முடியுமா என்று கேட்டபோது, அவர் முடியும் என்று கூறினார். ஆனால் இவர்
செய்யும் இந்த அதிசய செயல்கள் குறித்து அந்த கிராமத்தில் யாருக்கும் எதுவுமே
தெரியவில்லை. ரகசியமாக பயிற்சி பெற்று வந்திருக்கிறார். எனவே இந்த தகவல் கிடைத்ததும்
கிராமங்களில் உள்ள ஆண்களும், பெண்களும் கூடி விட்டார்கள். ஏறத்தாழ 200 பேர்
முன்னிலையில் அவர் சாதனை செய்ய தொடங்கினார். </p><p>
</p><p>
தலைகீழாக மரம் ஏறினார் </p><p>
</p><p>
அங்குள்ள ஒரு தென்னந் தோப்பில் உள்ள ஒரு மரத்தில் தலைகீழாக ஏற தொடங்கினார். மின்னல்
வேகத்தில் அவர் ஏறியதை பார்த்ததும், அங்கு கூடியிருந்தவர்கள் ஆச்சரியமாக பார்த்தனர்.
3.1,2 நிமிடத்தில் அவர் மரத்தின் உச்சிக்கு சென்று விட்டார். அதேபோல் தலைகீழாக 2
நிமிடத்தில் கீழே இறங்கி விட்டார். உடனே அங்கிருந்த இளைஞர்கள் அவரை தோளில்
தூக்கி வாழ்க முழக்கமிட்டு வந்தனர். </p><p>
</p><p>
நெருப்பு கட்டிகள் </p><p>
</p><p>
அடுத்த சாதனையாக அடுப்பு கரியை நெருப்பாக்கி அந்த கங்குகளை ஒவ்வொன்றாக எடுத்து
சாப்பிட்டார். கேக் சாப்பிடுவது போல் நெருப்பு துண்டுகளை அவர் சாப்பிடுவதை பார்த்து
பெண்கள் வியப்படைந்தனர். அந்த வழியாக சென்ற பஸ்கள் நிறுத்தப்பட்டு, பயணிகளும் இறங்கி
வந்து இந்த சாதனையை பார்த்தார்கள். </p><p>
</p><p>
பேட்டி </p><p>
</p><p>
அதிசய மனிதர் பொன்னரசு கூறியதாது:- </p><p>
</p><p>
நான் விவசாய கூலி வேலை செய்து வருகிறேன். எனக்கு கேத்தரீன் என்ற மனைவியும், ஜெனிபர்
என்ற 2 வயது மகளும் உள்ளனர். </p><p>
</p><p>
நான் வாழ்க்கையில் எதையாவது சாதிக்க வேண்டும் என்று என் மனதில் ஆசையை வளர்த்தேன்.
இதனால் பல நாட்கள் இரவில் தூங்காமல் விழித்து இருந்தேன். அப்போதுதான் தலைகீழாக மரம்
ஏறினால் என்ன என்று யோசித்தேன். கடந்த இரண்டு வருடங்களாக யாருக்கும் தெரியாமல் என்
குடும்பத்தாருக்கும் தெரியாமல் தலைகீழாக தென்னை மரம் ஏறினேன். முதலில் கஷ்டமாக இருந்தது.
பின்னர் படிப்படியாக பயிற்சி செய்து இன்று சுலபமாக மரம் ஏற முடிந்தது. தொடர்ந்து பயிற்சி
செய்தால் 1 நிமிட நேரத்தில் தலைகீழாக மரம் ஏற முடியும். </p><p>
</p><p>
இதேபோல 2 வருடங்களாகவே தினமும் காலை, மதியம், இரவு என 3 வேளைகளும் நெருப்பு சாப்பிடு
வேன். முதலில் ரொம்ப கஷ்டப் பட்டேன். இன்று ஒரு வேை ைநெருப்பு கட்டி சாப்பிடவில்லை
என்றாலும் என்னால் இருக்க முடியவில்லை. இந்த சாதனையும் எனது குடும்பத்தாருக்கு தெரியாது.
உங்கள் மூலமாகதான் எங்க கிராம மக்களுக்கே தெரியும். </p><p>
</p><p>
விஷ பாம்புகள் </p><p>
</p><p>
மேலும் கொடிய விஷமுள்ள தேள் பல்லி போன்றவற்றை உயிருடன் சாப்பிடுவேன். விஷ பாம்புகளை
பிடித்து குழம்பு வைத்து சாப்பிடுவேன். இப்போது நெருப்பு கட்டிகள் மீது படுத்து பயிற்சி
செய்கிறேன். அதை விரைவில் எல்லோரும் முன்னால் செய்து காண்பித்து சாதனை படைப்பேன்.
இவ்வாறு அவர் கூறினார். </p>

<p> </p>

<p> </p>

<p>8 ஆண்டுகளாக தொடர்ந்து
தினமும் 10 லிட்டர் பால்சுரக்கும் அதிசய பசு</p>

<p> </p>

<p>தஞ்சை,ஆக.3- </p><p>
</p><p>
தஞ்சை மாவட்டத்தை சேர்ந்த திருக்காட்டுப்பள்ளியில் 8 ஆண்டுகளாக தொடர்ந்து தினமும்
10 லிட்டர் பால்சுரக்கும் அதிசய பசுமாடு உள்ளது. </p><p>
</p><p>
தஞ்சை மாவட்டம் திருக் காட்டுப்பள்ளியை அடுத்த நேமம் கிராமத்தில் ஒரு அதிசய பசு
உள்ளது. இந்த பசு கலப் பின ஜெர்சி ரகத்தை சேர்ந்தது. இந்த பசுவை நேமத்தை சேர்ந்த
விவசாய தொழிலாளி நாகராஜன் கடந்த 8 ஆண்டுகளுக்கு முன்பு திருக்காட்டுப் பள்ளியைஅடுத்த
ஒன்பத்து வேலி கிராமத்தில் இருந்து ஒரு கிடேரி கன்றுடன் விலைக்கு வாங்கி உள்ளார். அன்று
முதல் இன்று வரை தொடர்ந்து 8 ஆண்டுகளாக இடைவௌி இன்றி தினமும் 10 லிட்டர் பால் கறந்து
வருவதாக மாட் டின் உரிமையாளர் நாகராஜன் மனைவி தமிழ்ச்செல்வி கூறுகிறார். அவர்
கூறியதாவது:- </p><p>
</p><p>
இந்த அதிசய பசுமாட்டுக்கு தினமும் காலை, மாலை இரண்டு வேளையும், ஒரு கிலோ தீவனம், 2
கிலோ எள் புண்ணாக்கு, அரிசி கஞ்சி, பச்சை அரிசி தவிடு, புல் ஆகியவற்றை
தருகிறோம். புல் இல்லாத நேரங்களில் வைக் கோல் போடுவோம். இந்த மாட் டின் பாலை
எங்கள் ஊரில் 40, 50 வீடுகளில் கொடுத்து விற் பனை செய்து வருகிறோம். இந்த மாடு வருமானம்
தருவ தால் பெற்ற குழந்தையை போல் பராமரித்து வருகிறோம். எங்களுக்கு நிரந்தர வருமானம்
இந்த மாடுதான். </p><p>
</p><p>
இந்த பசு மாட்டுக்கு எந்த வியாதியும் வந்தது இல்லை. தடுப்பூசி கூட போட்டது இல்லை. இந்த
மாட்டின் முதல் கன்றை சில ஆண்டுகளுக்கு முன் விற்றுவிட்டோம். அதன் பிறகு சினை பிடிக்கவில்லை.
</p><p>
</p><p>
இவ்வாறு அவர் கூறினார். </p>

<p> </p>

<p> </p>

<p>மேட்டூர் அணை நீர்மட்டம்</p>

<p> </p>

<p>மேட்டூர்,ஆக.3- </p><p>
</p><p>
மேட்டூர் அணை நீர்மட்ட விவரம் வருமாறு:- </p><p>
</p><p>
மேட்டூர் அணையில் நேற்று காலை 8 மணி நிலவரப்படி நீர் மட்டம் விவரம் வருமாறு:- </p><p>
</p><p>
நீர் மட்டம்- 42.80அடி </p><p>
</p><p>
நீர் வரத்து- 2,723 கன அடி </p><p>
</p><p>
நீர் திறப்பு- 1,670கன அடி </p><p>
</p><p>
நீர் இருப்பு- 13.577டி.எம்.சி. </p><p>
</p><p>
(கடந்த ஆண்டு இதே நாளில் அணையின் நீர் மட்டம் 66 அடியாக இருந்தது.) </p>

<p> </p>

<p> </p>

<p>குற்றால சீசன் நிலவரம்</p>

<p> </p>

<p>தென்காசி, ஆக. 3- </p><p>
</p><p>
குற்றால சீசன் நிலவரம் வருமாறு:- </p><p>
</p><p>
குற்றாலத்தில் நேற்று நல்ல இதமான சூழல் நிலவியது. அவ்வப்போது லேசான சாரலும் இருந்தது.
பகல் முழுவதும் குளிர்ந்த காற்று வீசியது. அருவி களில் தண்ணீர் நன்றாக கொட்டுகிறது. உல்லாச
பயணிகள் கூட்டம் சுமாராக காணப்பட்டது. </p>

<p> </p>






</body></text></cesDoc>