<cesDoc id="tam-w-dinakaran-news-00-11-28" lang="tam">
<cesHeader type="text">
<fileDesc>
<titleStmt>
<h.title>tam-w-dinakaran-news-00-11-28.txt</h.title>
<respStmt>
<respType>Electronic file created by</respType>
<respName>Department of Linguistics, Lancaster University</respName>
<respType>text collected by</respType>
<respName>Paul Baker and Celia Worth</respName>
<respType>transferred into Unicode by</respType>
<respName>"Unicodify" software by Andrew Hardie</respName>
</respStmt>
</titleStmt>
<publicationStmt>
<distributor>UCREL</distributor>
<pubAddress>Department of Linguistics, Lancaster University, Lancaster, LA1 4YT, UK</pubAddress>
<availability region="WORLD"></availability>
<pubDate>03-08-24</pubDate>
</publicationStmt>
<sourceDesc>
<biblStruct>
<monogr>
<h.title>"Dinakaran" internet news (www.dinakaran.com), news stories collected on 00-11-28</h.title>
<h.author>Dinakaran</h.author>
<imprint>
<pubPlace>Tamil Nadu, India</pubPlace>
<publisher>Dinakaran</publisher>
<pubDate>00-11-28</pubDate>
</imprint>
</monogr>
</biblStruct>
</sourceDesc>
</fileDesc>
<encodingDesc>
<projectDesc>Text collected for use in the EMILLE project.</projectDesc>
<samplingDesc>Simple written text only has been transcribed. Diagrams, pictures and tables have been omitted and their place marked with a gap element.
</samplingDesc>
<editorialDecl>
<conformance level="1"></conformance>
</editorialDecl>
</encodingDesc>
<profileDesc>
<creation>
<date>03-08-24</date>
</creation>
<langUsage>Tamil</langUsage>
<wsdUsage>
<writingSystem id="ISO/IEC 10646">Universal Multiple-Octet Coded Character Set (UCS).</writingSystem>
</wsdUsage>
<textClass>
<channel mode="w">print</channel>
<constitution type="composite"></constitution>
<domain type="public"></domain>
<factuality type="fact"></factuality>
</textClass>
<translations></translations>
</profileDesc>
<revisionDesc></revisionDesc>
</cesHeader>

<text>
<body>




<p> </p>

<p>தமிழகத்தை நோக்கி
சூறாவளிப்புயல் வருகிறது, பலத்த மழை பெய்யும்</p>

<p> </p>

<p>சென்னை, நவ.28- தமிழகத்தில் இந்த ஆண்டு வடகிழக்கு பருவமழை
தாமதமானது. தென் தமிழ்நாடு மற்றும் காவிரி டெல்டா பகுதியை குளிரவைத்த பருவமழை
வடதமிழகத்தை கைவிட்டது. குறிப்பாக சென்னை நகரத்தில் எதிர்பார்த்த அளவுக்கு மழை
பெய்யவில்லை. </p><p>
</p><p>
இந்த நிலையில் தென்கிழக்கு பகுதி வங்கக்கடலில் நேற்று முன்தினம் புயல்சின்னம் உருவானது.
தமிழக கடற்கரைக்கு கிழக்கே 700 கடல்மைல் தூரத்தில் இது மையம் கொண்டது. இதுமேலும்
வலுப்பெற்று மேற்கு நோக்கி நகர ஆரம்பித்தது. </p><p>
</p><p>
புயல் சின்னம் </p><p>
</p><p>
இந்த புயல்சின்னம் நேற்று நண்பகல் 2.30மணியளவில் சூறாவளியாக உருவெடுத்தது. இந்த
சூறாவளிப் புயல் நேற்று மாலை 5.30 மணி நிலவரப்படி சென்னைக்கு கிழக்கு தென்கிழக்கில்
700 கி.மீ. தூரத்தில் மையம் கொண்டிருந்தது. இந்த புயல் தற்போது வடமேற்கு திசை நோக்கி
(சென்னையை நோக்கி) நகரத் தொடங்கி உள்ளது. இன்று இரவு கடலூருக்கும், ஆந்திர மாநிலம்
ஓங்கோலுக்கும் இடையில் இது கரையை கடக்கும் என்று தெரிகிறது. வானிலை ஆய்வு மையம் இந்த
தகவலை தெரிவித்து உள்ளது. </p><p>
</p><p>
மழை பெய்யும் </p><p>
</p><p>
சூறாவளி புயல் இதே போக்கில் நீடித்தால் வட தமிழகம் மற்றும் புதுவையில் இன்று மாலை
முதல் பலத்த மழை பெய்யும் என எதிர்பார்க்கப்படுகிறது. குறிப்பாக திருவள்ளூர்,
காஞ்சிபுரம், சென்னை, விழுப்புரம், கடலூர், நாகப்பட்டினம், திருவாரூர் பகுதிகளிலும்
மழை பெய்யக்கூடும். </p><p>
</p><p>
பலத்த காற்று </p><p>
</p><p>
அதுபோல ஆந்திர மாநிலம் நெல்லூர், குண்டூர், பிரகாசம் மாவட்டங்களிலும் இன்று மழை
பெய்யக்கூடும். இந்த மழையையொட்டி மணிக்கு 80 கி.மீ. முதல் 90 கி.மீ வரை பலத்த காற்று
வீசக்கூடும் என்று தெரிகிறது. மீனவர்கள் யாரும் கடலுக்குள் செல்ல வேண்டும் என்று வானிலை
ஆய்வு மையம் எச்சரித்துள்ளது. </p>

<p> </p>

<p>அசாமில் இருந்து 160 பேர்
வருகிறார்கள்: எல்லை பாதுகாப்பு படை நாளை தமிழகம் வருகை</p>

<p> </p>

<p>சத்தியமங்கலம், நவ. 28- வீரப்பனை பிடிக்க ராணுவ கமாண்டோ படையை
அனுப்ப வேண்டும் என்று மத்திய அரசிடம் கர்நாடக முதல்வர் எஸ்.எம்.கிருஷ்ணா கோரிக்கை
விடுத்தார். ஆனால் மத்திய அரசு கமாண்டோ படை தர மறுத்து விட்டது. வேண்டுமானால் எல்லை
பாதுகாப்பு படையை அனுப்புகிறோம் என்று கூறி விட்டது. </p><p>
</p><p>
அவசர ஆலோசனை </p><p>
</p><p>
மத்திய அரசின் இந்த முடிவு குறித்து பண்ணாரி அதிரடிப் படை முகாமில் நேற்று (திங்கள்) மாலை
6 மணி அளவில் திடீர் ஆலோசனை கூட்டம் நடந்தது. அதிரடிபடை தலைவர் ஐ.ஜி. பாலசந்திரன்
தலைமையில் நடந்த இந்த கூட்டத்தில் டி.ஐ.ஜி. தமிழ்ச்செல்வன், எஸ்.பி.க்கள்
அசோக்குமார்தாஸ், சைலேந்தி ரபாபு, பெரியய்யா ஆகியோரும் கலந்து கொண்ட னர். வீரப்பன்
தேடுதல் வேட்டையில் காட்டுக்குள் இருந்த இவர்கள் இந்த ஆலோசனை கூட்டத்தில் கலந்து
கொள்வதற்காக அவசரமாக பண்ணாரி முகாமுக்கு வர வழைக்கப்பட்டனர். </p><p>
</p><p>
எல்லை பாதுகாப்பு படை </p><p>
</p><p>
ஆலோசனை கூட்டம் இரவு 8 மணி வரை நடந்தது. இதில் மத்திய அரசு ராணுவ கமாண்டோ படையை அனுப்ப
முடியாது என்று அறிவித்துள்ளது குறித்து ஆலோசிக்கப்பட்டது. இதையடுத்து வீரப்பனை பிடிக்க
அசாமில் இருந்து எல்லை பாதுகாப்பு படை வீரர்கள் 160 பேர் கொண்ட குழுவினர் தமிழகம்
வருகிறார்கள். </p><p>
</p><p>
இந்த படையினர் அசாம் மாநிலத்தில் உல்பா தீவிரவாதிகளை ஒடுக்குவதில் சிறப்பாக
பணியாற்றியவர்கள் என்பது குறிப்பிடத்தக்கது. இவர்கள் நாளை அல்லது நாளை மறு தினம் இங்கு
வந்து சேருவார்கள் என்று எதிர்பார்க்கப்படுகிறது. இவர்களை எப்படி பயன்படுத்துவது
என்பதுகுறித்தும் மேற்கண்ட கூட்டத்தில் ஆலோசிக்கப்பட்டது. </p>

<p> </p>

<p> </p>

<p>சண்டை நிறுத்தம் அமுல்:
காஷ்மீரில் துப்பாக்கி சத்தம் ஓய்ந்தது, எல்லையில் ராணுவம் தீவிர கண்காணிப்பு</p>

<p> </p>

<p>புதுடெல்லி, நவ. 28- ஜம்மு காஷ்மீரில் பிரி வினை
தீவிரவாதிகளுடன் சமரச முயற்சியை மேற் கொள்ளும் வகையில் புனித ரம்ஜான் மாதத்தில்
ராணுவம் சண்டை நிறுத்தம் செய்யும் என்று கடந்த 19-ந்தேதி பிரதமர் வாஜ்பாய் அறிவித்து
இருந்தார். அதன்படி நேற்று அதிகாலை ரமலான் மாதம் தொடங்குவதற்கு ஒரு மணி நேரத்திற்கு
முன்பே ராணுவத்தினர் தங்கள் நடவடிக்கைகளை நிறுத்திக்கொண்டார்கள். </p><p>
</p><p>
துப்பாக்கி சத்தம் இல்லை </p><p>
</p><p>
வழக்கமான கேட்கும் துப்பாக்கிச் சத்தம் கேட்கவில்லை. தீவிரவாதிகளை தேடும் வேட்டை,
முகாம்கள் மீது தாக்குதல் நடத்துவது போன்றவை நிறுத்தப்பட்டது. தீவிர வாதிகள் தாக்கினால்
மட்டுமே பதிலுக்கு தாக்கவேண்டும் என்று ராணுவத்தினருக்கு உத்தரவிடப்பட்டு உள்ளது. </p><p>
</p><p>
ஆனால் முக்கிய இடங்களில் ராணுவம் கண்காணிப்பில் ஈடுபட்டு உள்ளது.குறிப்பாக எல்லைக்
கட்டுப்பாடு கோடு நெடுகிலும் முழு அளவில் உஷார் நடவடிக்கை எடுக்கப்பட்டு உள்ளது. இந்த சண்டை
நிறுத்தத்தை சாதகமாக பயன்படுத்தி தீவிரவாதிகள் ஊடுருவி வருவதை தடுக்க மிகுந்த கண்காணிப்பு
பணியில் ராணுவம் ஈடுபட்டுள்ளது. </p><p>
</p><p>
இதற்கிடையில் பதவி காலம் முடிவடையும் எல்லை பாதுகாப்புப் படைத் தலைவர் ஜைஷ்-இ- முகமதி நேற்று
டெல்லியில் அளித்த ஒரு பேட்டியில், காஷ்மீரில் குப்வாரா மாவட்டம் மற்றும் பூஞ்ச்
- ரஜோரி பகுதியில் தீவிரவாதிகள் கான்கிரீட் பதுங்கு குழிகளை அமைத்து உள்ளனர். ராணுவம்
மீது பெரிய தாக்குதலை நடத்தவே இந்த புதிய தந்திரத்தை செய்து வருகிறார்கள் என்றார். </p><p>
</p><p>
மீறி தாக்க முடிவு </p><p>
</p><p>
இந்த நிலையில் சண்டை நிறுத்தத்தை மீறி ரம்ஜான் மாதத்தில் குறிப்பாக 17-வது நாளில் பதுரு
யுத்தம் நடந்த நாள் அன்று ராணுவம் மீது பெரிய தாக்குதல் நடத்துவோம் என்று ஹர்கத்-அல்-
முஜாகி தீன் என்ற தீவிரவாத அமைப்பு மிரட்டியுள்ளது. இந்த இயக்கத்தில் பாகிஸ்தான்,
ஆப்கானிஸ் தானைச் சேர்ந்த கூலிப்படையினர் பெருமளவில் உள்ளனர் என்பது குறிப்பிடத்தக்கது.
</p><p>
</p><p>
பாகிஸ்தானுக்கு அத்வானி எச்சரிக்கை </p><p>
</p><p>
மத்திய உள்துறை மந்திரி அத்வானி நேற்று டெல்லியில் அளித்த பேட்டியில், கடந்த 1999
பிப்ரவரியில் லாகூருக்கு பிரதமர் வாஜ்பாய் பஸ் பயணம் மேற்கொண்டதில் இருந்து
பாகிஸ்தானுக்கு இந்தியா அளித்துள்ள 2-வது வாய்ப்பு தான் இந்த சண்டை நிறுத்தம். இதை
பயன்படுத்தி பாகிஸ்தான் தனது எல்லை தாண்டும் ஊடுருவலை நிறுத்திக் கொள்ளவேண்டும் என்று
எச்சரிக்கை விடுத்தார். </p>

<p> </p>

<p>கர்நாடக காடுகளில் இருந்து
கிரிமினல்களை விரட்டுவேன்: வாஜ்பாயுடன் கிருஷ்ணா சந்திப்பு, வீரப்பனை பிடிக்க ஆலோசனை,
அத்வானியுடன் 40 நிமிடம் பேச்சு </p>

<p> </p>

<p>புதுடெல்லி, நவ. 28- ராஜ்குமார் விடுதலைக்கு பிறகு வீரப்பனை
பிடிக்க தமிழக - கர்நாடக மாநில அதி ரடிப்படை போலீசார் தீவிர மாக முயன்று வருகின்றனர்
அல்லவா? இருமாநில கூட்டு அதிரடிப்படை தமிழக போலீஸ் ஐ.ஜி. பாலச்சந்திரன் தலைமையில்
இயங்கி வருகிறது. </p><p>
</p><p>
இந்த நிலையில் வீரப்பனை பிடிக்க மத்திய அரசின் உத வியை இருமாநில அரசுகளும் கோரின.
முதலில் தமிழக அரசு உயர் அதிகாரிகள் குழு மத்திய உள்துறை அமைச்சர் அத்வானி, ராணுவ
அமைச்சர் ஜார்ஜ் பெர்னாண்டஸ் ஆகி யோரை சந்தித்து தங்கள் கோரிக்கையை
வலியுறுத்தினர். கர்நாடக அரசு உயர் அதிகாரி களும் மத்திய அமைச்சர் அத் வானியை
சந்தித்தனர். இரு மாநில அரசுகளுக்கும் அனைத்து உதவிகளும் செய்ய தயார் என்று மத்திய அரசு
கூறியது. </p><p>
</p><p>
கிருஷ்ணா சந்திப்பு </p><p>
</p><p>
இந்த நிலையில் கர்நாடக முதன்மந்திரி கிருஷ்ணா நேற்று டெல்லியில் மத்திய அமைச்சர்
அத்வானியை சந்தித்தார். அப்போது வீரப்பனை பிடிக்க மத்திய அரசு உதவ வேண்டும் என்று
கிருஷ்ணா வலியுறுத்தினார். அப்போது மத்திய உள்துறை செயலாளர் கமல்பாண்டே, கர்நாடக
உள்துறை அமைச்சர் மல்லி கார்ஜுன கார்கே ஆகியோர் உடன் இருந்தனர். இந்த சந்திப்பு 30
நிமிடங்கள் நீடித்தது. </p><p>
</p><p>
உதவி செய்ய தயார் </p><p>
</p><p>
பேச்சுவார்த்தை விவரங்கள் பற்றி நிருபர்களிடம் தெரிவிக்க முதன்மந்திரி கிருஷ்ணா மறுத்து
விட்டார். அவர் கூறியதாவது:- </p><p>
</p><p>
வீரப்பனை பிடிக்க கர் நாடக - தமிழக அதிரடிப் படைகள் எடுத்துள்ள தீவிர நடவடிக்கைகள்
குறித்து அமைச்சர் அத்வானியிடம் விளக்கி கூறினேன். எங்கள் காடுகளில் இருந்து கிரிமினல்
பேர்வழிகளை அடியோடி விரட்ட வேண்டும் என்பது தான் எங்கள் குறிக்கோள். இரு மாநில அரசுகளும்
எடுக்கும் நடவடிக்கைகளுக்கு முழு ஆதரவும், உதவியும் தருவதாக மத்திய அரசு கூறி உள்ளது. </p><p>
</p><p>
இரு மாநில அதிரடிப்படைகளும் வீரப்பனை வேட்டை ஆடி வருகின்றன. தமிழக - கர்நாடக
அதிரடிப்படைகளும் கூட்டாக செயல்படும் என்று நம்புகிறேன். வீரப்பனை பிடிக்க கர்நாடகத்தை
போல தமிழக மும் தீவிர நடவடிக்கை எடுக்கும். </p><p>
</p><p>
முதன்மந்திரிகள் மாநாடு </p><p>
</p><p>
ராஜ்குமார் கடத்தல் போன்ற சம்பவங்களை சமாளிப்பது எப்படி என்பது குறித்து தேசிய அளவில்
யுக்தி ஒன்றை வகுக்க வேண்டும். இது தொடர்பாக விவாதிக்க முதன் மந்திரிகள் மாநாட்டை
மத்திய அரசு கூட்டினால் கர்நாடகம் ஒத்துழைப்பு அளிக்கும். </p><p>
</p><p>
இவ்வாறு அவர் கூறினார். </p><p>
</p><p>
வாஜ்பாய் </p><p>
</p><p>
அத்வானியுடன் சந்திப்புக்கு பிறகு கிருஷ்ணா பிரதமர் வாஜ்பாயை சந்தித்தார். வீரப் பனை
பிடிப்பது தொடர்பாக ஆலோசனை நடத்தினார். இதில் தமிழ்நாடு - கர்நாடக மாநிலங்களுக்கு
எல்லா வகையான உதவிகளையும் செய்யத் தயாராக இருப்பதாக பிரதமர் உறுதி கூறினார். </p>

<p> </p>

<p>வீரப்பன் கடத்திய
இடத்துக்கு அதிரடிப்படையுடன் வருகை: ராஜ்குமார் மருமகன் தொட்டகாசனூர் வந்தது ஏன்?
பரபரப்பு தகவல்கள்</p>

<p> </p>

<p>கோவை, நவ. 28- கன்னட நடிகர் ராஜ்குமாருடன் கடத்தப்பட்டவர்களில்
கோவிந்தராஜுவும் ஒருவர் ஆவார். இவர் காட்டுக்குள் ராஜ் குமாருக்கு பணி விடைகள் செய்து
வந்தார். இந்த நிலையில் பழ.நெடுமாறன் தலைமையில் சென்ற தூது குழுவினர் கோவிந்தராஜை
வீரப்பனிடம் இருந்து மீட்டு வந்தனர். கோவிந்தராஜு ராஜ்குமாரின் சினிமா சம்பந்தப்பட்ட
வேலை களையும் கவனித்து வருகிறார். ராஜ்குமார் தொடர்பான சில முக் கிய பொறுப்புகளும்
இவருக்கு உண்டு. </p><p>
</p><p>
கோவிந்தராஜு வருகை </p><p>
</p><p>
இந்த நிலையில் ராஜ்குமார் விடுதலை செய்யப்பட்ட பிறகு முதல் முறையாக தாளவாடி அருகே
தொட்டகாசனூரில் உள்ள ராஜ்குமாரின் பங்களா வுக்கு கோவிந்தராஜு நேற்று முன்தினம்
(ஞாயிறு) வந்தார். (இந்த இடத்தில் வைத்துதான் வீரப்பன் ராஜ்குமார் உள்பட 4
பேரையும் கடத்தி சென்றான் என் பது குறிப்பிடத்தக்கது). நேற்று முன்தினம் காலை
பெங்களூரில் இருந்து காரில் புறப்பட்ட கோவிந்தராஜு மதியம் 12.15 மணி அளவில்
ராஜ்குமாரின் பங் களாவுக்கு வந்தார். இவருக்கு பாதுகாப்பாக அதிரடிப்படை யினரும் வந்தனர்.
ராஜ்குமாரின் பங்களா அருகே உள்ள கோவி லில் கோவிந்தராஜு சாமி கும் பிட்டார். ராஜ்குமார்
பங்களாவில் சிறிது நேரம் தங்கி இருந்தார். மதியம் 2.30 மணி அளவில் பெங் களூர்
புறப்பட்டு சென்றார். </p><p>
</p><p>
பணம் கொடுத்தாரா? </p><p>
</p><p>
கோவிந்தராஜுவின் திடீர் வருகை முக்கியத்துவம் வாய்ந்த தாக கருதப்படுகிறது. கோவிந்த ராஜு
ஒரு சூட்கேசுடன் ராஜ்குமார் பங்களாவுக்கு வந்தார். உள்ளூரில் சில முக்கிய பிரமுகர்கள்
கோவிந்தராஜுவை தனி அறையில் சந்தித்து பேசி விட்டு வந்தனர். அவர் சூட்கேசில் கொண்டு
வந்தது என்ன? இவர்கள் தனித்தனியாக அறைக்குள் சென்று வந்தது ஏன்? என்ற சந்தேகம்
எழுந்துள்ளது. ராஜ்குமார் காட்டில் சிறை வைக்கப்பட்டி ருந்தபோது வீரப்பன் கும்பலுக்கு இந்த முக்கிய
பிரமுகர்கள் பணம் கொடுத்து உதவி இருக்கலாம் என்றும், அந்த பணத்தை திருப்பி கொடுக்க
கோவிந்தாஜு சூட் கேசுடன் வந்தார் என்றும் கருதப்படுகிறது. </p><p>
</p><p>
வருகை ஏன்? </p><p>
</p><p>
கோவிந்தராஜுவுடன் ராஜ்குமார் மனைவி பர்வதம்மாளும் வந்தார். ஆனால், அவரை மைசூரில்
விட்டு விட்டு கோவிந்தராஜு மட்டும் தொட்டகாசனூர் வந்தார். தொட்ட காசனூர் பங்களாவை
ராஜ்குமார் அக்காள் மகன் கோபால் என்பவர் பராமரித்து வருகிறார். அவரிடம் கோவிந்தராஜு
வருகை பற்றி கேட்டபோது கூறியதாவது:- </p><p>
</p><p>
அண்ணாருவின் (ராஜ்குமார்), சினிமா கம்பெனி வேலைகளை கோவிந்தராஜு தான் கவித்து
வருகிறார். சினிமா கம்பெனி சாவியை தொட்ட காசனூர் பங்களாவில் கோவிந்த ராஜு
வைத்திருந்தார். </p><p>
</p><p>
மீண்டும் வருவார் </p><p>
</p><p>
இந்த நிலையில் அண்ணாருவையும், மற்றவர்களையும் வீரப்பன் கும்பல் கடத்தி சென்று விட்டது.
இதனால் சினிமா கம்பெனி வேலைகள் அனைத்தும் முடங்கி விட்டன. அந்த சாவியை எடுப்ப
தற்காகத்தான் கோவிந்தராஜு இங்கு வந்தார். வேறு எந்த காரணமும் இல்லை. மீண்டும் ஒரு
வாரம் கழித்து வருவதாக கூறி விட்டு சென்றுள்ளார். இவர்கள் காட்டுக்குள் சிறை
வைக்கப்பட்டிருந்தபோது நல்லபடியாக விடுதலை ஆக வேண்டும் என திருப்பதி ஏழுமலையானை வேண்டி
கொண்டனர். எனவே, தற்போது ஏழுமலையானுக்கு நன்றி கடன் செலுத்த கோவிந்த ராஜு
திருப்பதிக்கு செல்கிறார். </p><p>
</p><p>
இவ்வாறு அவர் கூறினார். </p><p>
</p><p>
சங்கிலியானா வருகை </p><p>
</p><p>
இந்த நிலையில் கர்நாடக அதிரடிப்படை புதிய தலைவராக நியமிக்கப்பட்டுள்ள ஏ.டி. ஜி.பி.
சங்கிலியானா நேற்று முன்தினம் மாலை 6.30 மணி அளவில் தொட்டகாசனூர் வந்தார். அவருடன்
சாம்ராஜ் நகர் டி.ஐ.ஜி. ஹர்சவர்த்தனராஜ் மற்றும் அதிகாரிகள் வந்தனர். இவர்கள்
ராஜ்குமார் கடத்தப்பட்ட இடத்துக்கு சென்று பார்வையிட்டனர். ராஜ்குமார் பங்களாவை
பராமரித்து வரும் கோபாலிடம் விசாரணை நடத்தினர். பிறகு அங்கிருந்து பெங்களூர் புறப்பட்டு
சென்றனர். </p>

<p> </p>

<p>தலைமை நீதிபதி வயது
சர்ச்சை: சி.பி.ஐ. விசாரணை, போலி ஆவணத்தை கண்டறிய உச்சநீதிமன்ற நீதிபதிகள்
உத்தரவு</p>

<p> </p>

<p>புதுடெல்லி, நவ. 28- உச்சநீதிமன்ற தலைமை நீதி பதி ஆனந்த்
பிறந்த நாள் என்ன? என்பது தொடர்பாக சர்ச்சை கிளம்பி உள்ளது தெரிந்ததே. அவரது
பிறந்த நாள் தொடர்பாக பல ஆவணங்கள் பத்திரிகைகளில் வௌியாகி உள்ளது. இதையடுத்து ஆனந்த்
தனது பதவியை விட்டு ராஜினாமா செய்யாவிடில் அவர் மீது வழக்கு தொடருவேன் என்று சென்னை
வக்கீல் எஸ்.கே. சுந்தரம் கூறினார். </p><p>
</p><p>
இதையடுத்து தலைமை நீதிபதி ஆனந்தை மிரட்டியதாக கூறி வக்கீல் சுந்தரம் மீது உச்ச நீதிமன்ற
நீதிபதிகளே கோர்ட்டு அவமதிப்பு வழக்கு தொடர்ந் தனர். இந்த வழக்கு நேற்று நீதி பதிகள்
கே.டி.தாமஸ், ஆர்.பி. சேத்தி ஆகியோர் அடங்கிய உச்சநீதிமன்ற பெஞ்சு முன்
விசாரணைக்கு வந்தது. அப் போது ஆஜரான வக்கீல் சுந்தரம் தலைமை நீதிபதி வயது தொடர்பாக
மேலும் சில ஆவணங்கள் தாக்கல் செய்ய காலஅவகாசம் வழங்க வேண் டும் என்று கேட்டுக்
கொண்டார். </p><p>
</p><p>
சி.பி.ஐ. விசாரணை </p><p>
</p><p>
பிறகு நீதிபதிகள் கூறுகை யில், தலைமை நீதிபதி ஆனந்த் வயது தொடர்பாக சர்ச்சை குறித்து
சி.பி.ஐ. விசாரணை நடத்த உத்தரவிடுகிறோம். இந்த சர்ச்சை தொடர்பாக வௌியாகி உள்ள
ஆவணங்களை மட்டுமே சி.பி.ஐ. பரிசீலிக்க வேண்டும். அந்த ஆவணங்கள் உண்மையானதா?
அவற்றில் போலி ஆவணங்கள் எவை? என்பது பற்றி மட்டும் இந்த விசாரணை நடத்தப்படும். </p><p>
</p><p>
தலைமை நீதிபதியின் பிறந்த நாள் எது? என்பது பற்றி சி.பி.ஐ. விசாரணை நடத்தக் கூடாது
என்று கூறினர். பிறகு வழக்கு விசாரணையை நீதிபதிகள் தள்ளிவைத்தனர். இந்த வழக்கு விசாரணை
இன்று நடக்கிறது. </p>

<p> </p>

<p>வீரப்பன் பதுங்குமிடங்கள்:
சி.ஐ.டி. போலீஸ் விசாரணை மாறுவேடத்தில் கண்காணிப்பு</p>

<p> </p>

<p>ஈரோடு, நவ. 28- சந்தன வீரப்பன் மற்றும் அவனது கூட்டாளிகளை
பிடிக்க சத்தி, அந்தியூர்் மலைப் பகுதியில் 1500 அதிரடிப்படை போலீசார் தேடும் பணியில்
ஈடுபட்டுள்ளனர். இதில் தமிழக மற்றும் கர்நாடக மாநிலத்தில் உள்ள ரகசிய போலீசாரும்,
கியூ பிரிவு போலீசாரும் மலைப் பகுதியில் எங்கெங்கு எல்லாம் வீரப்பன் நடமாட்டம் உள்ள
இடம், மற்றும் வனத்துறை ஊழியர்கள், போலீஸ் டி.எஸ்.பி. சிதம்பரநாதன், நடிகர் ராஜ்குமார்
ஆகியோரை கடத்தி சென்று பணய கைதிகளை வைத்து இருந்த மறை விடம் எங்குள்ளது போன்ற
விசாரணையில் தீவிரமாக ஈடுபட்டுள்ளனர். </p><p>
</p><p>
மாறுவேடம் </p><p>
</p><p>
சி.ஐ.டி. போலீசார் மாறு வேடத்தில் மலை கிராம பகுதிகளுக்குள் சென்று இந்த விசா ரணையை
மேற்கொள்கிறார்கள். இவர்கள் கொடுக்கும் தகவலின் அடிப்படையில் அன் றாடம்
அதிரடிப்படையினர் காட்டிற்குள் வீரப்பனை தேடி செல்லும் பணி நடக்கிறது. </p><p>
</p><p>
தாமரைக்கரை </p><p>
</p><p>
அதன்படி அந்தியூர்், வரட்டுப்பள்ளம், பர்கூர், தட்டக் கரை, தாமரைக்கரை, கர்கே கண்டி,
ஊசிமலை மற்றும் சேலம் மாவட்டம் கொளத்தூர் மலைப்பகுதி, மாதேஸ்வரன் மலைப்பகுதிகளில்
இருமாநில அதிரடிப் படையினரும் வீரப்பனை தேடி வருகின்றனர். மேலும் கடத்தப்பட்டு விடுதலை
செய்யப்பட்ட கோவிந்தராஜ் நேற்று முன் தினம் திடீர் என தாளவாடியில் உள்ள தொட்ட
காஜனூர் வந்து சென்றது அந்த பகுதியில்் பெரும் பரபரப்பை ஏற்படுத்தி உள்ளது. அவர்
வீரப்பன் தங்களை எங்கு மறைந்து வைத்து இருந்தான் என்பதையும், கடத்தபட்ட போது எந்த
திசையில் கூட்டி சென்றான் என்பதையும் விளக்கமாக செயல்வடிவத்தில் காண்பிப்பதற்காக அவர்
வந்தார் என மலைப்பகுதியில் பேசப்பட்டது. ஆனால் அவர் கடத்தப்பட்ட போது தான் விட்டு
சென்ற சாவியை எடுக்க வந்ததாக ராஜ்குமார் உறவினர்கள் கூறுகின்றனர். எனவே கர்நாடக
அரசுக்கும், அதிரடிப் படைக்கும் சிம்ம சொப்பனமாக விளங்கும் வீரப்பனை இந்த முறை
முடித்துக்காட்டாமல் வௌியேறுவது இல்லை என்ற ஒரே முடிவுடன் கர்நாட அதிரடிப்படையினர்
களத்தில் குதித்துள்ளனர். </p><p>
</p><p>
ஜோதிடம் </p><p>
</p><p>
இதற்கு ஏற்றார் போல் கர்நாடக முதல்வர் டெல்லி சென்று மத்திய அரசிடம் கமாண்டோ படையை
கொண்டு வீரப்பனை பிடிக்க வேண்டும். இதற்கு மத்திய அரசு உதவி செய்ய வேண்டும் என
வற்புறுத்தி வருகிறார். மேலும் வீரப்பன் சிக்குவானா? பிடிக்க முடியுமா? அவனது கிரக
நிலை கள் தற்போது எப்படி உள்ளது என்பது பற்றி தெரிந்து கொள்ள சில அதிகாரிகள் பல
ஜோதிடர்களை நாடி உள்ளனர். அதில் ஒரு ஜோதிடர் அவனது ஜாதகத்தை பார்த்து விட்டு வருகிற
2001-ம் ஆண்டு ஆரம் பத்தில் வீரப்பனுக்கு பாதகமான கிரக நிலைகள் காணப்படுகிறது. எனவேதான்
அவன் புத்தி தடுமாறி ராஜ்குமாரை கடத்தி சென்று உள்ளான். இதன் விளைவு சீதையை கடத்தி
சென்று ராவணன் அழிந்தது போல் வீரப்பன் பிரச்சினைகளுக்கு அதிரடிப்படை தீர்வு காணும்
நேரம் வந்து விட்்டது என ஜோதிடர் கூறியதாக தெரிகிறது. எது எப்படியோ கடந்த காலங்களை விட
தற்போது இரு மாநில அதிரடிப்படையின் வேகம் அதி கரித்து உள்ளது. இதில் கர்நாட
அதிரடிப்படையினர் அடிபட்ட பாம்பு போல் வீரப்பனை பிடிப்பதில் சீற்றம் அடைந்து உள்ளனர்.
</p>

<p> </p>

<p>இலங்கை பிரதமர்
சொல்கிறார்: புலிகளை ஒழிக்கும் வரை சண்டை நிறுத்த மாட்டோம்</p>

<p> </p>

<p>கொழும்பு, நவ.28- இலங்கை பிரதமர் ரத்ன விக்ரமசிங்கே
கொழும்பில் ஒரு விழாவில் பேசியதாவது:- </p><p>
</p><p>
விடுதலைப்புலிகளுக்கு எதிராக நடத்தி வரும் சண்டையை நாங்கள் நிறுத்த மாட்டோம். அவர்களை
முற்றிலும் ஒழிக்கும் வரை இந்த சண்டை நீடிக்கும். இதற்கு முன்பு பல முறை போர் நிறுத்தம்
செய்து இருக்கிறோம். புலிகள் கை ஓய்ந்து விட்டால் போர் நிறுத்தம் செய்யவேண்டும் என்று
வற்புறுத்துவார்கள். எனவே இதற்கு முன்பு செய்தது போல் போர் நிறுத்தம் செய்யமாட்டோம். </p><p>
</p><p>
இந்த பகைமை விரைவில் ஓயப்போவது இல்லை. எதிரிகளை முற்றிலும் ஒழித்துக் கட்டும் வரை ராணுவ
தாக்குதல் நீடிக்கும். </p><p>
</p><p>
இவ்வாறு அவர் கூறினார். </p>

<p> </p>

<p>மேட்டூர்-கொளத்தூர்
சந்தையில் போலீஸ் முற்றுகை: வீரப்பனுக்கு உணவு பொருள்சப்ளை துண்டிக்க நடவடிக்கை</p>

<p> </p>

<p>சேலம், நவ. 28- சந்தன கடத்தல் வீரப்பனையும், அவனோடு இருக்கும்
தீவிரவாதிகளையும் கூண்டோடு பிடிக்க நடவடிக்கை எடுக்கப்பட்டு உள்ளது அல்லவா? இதற்காக
தமிழக மற்றும் கர்நாடக அதிரடிப்படையினர் கூட்டு தேடுதல் வேட்டையை மேற்கொண்டு உள்ளனர்.
இவர்களுக்கு உதவ மத்திய படையும் வரவழைக்கப்பட உள்ளது. இவர்கள் ஹெலிகாப்டர், மற்றும்
நவீன ரக ஆயுதங்களுடன் டெல்லியில் இருந்து வந்து இறங்க உள்ளனர். </p><p>
</p><p>
ஒரு வாரத்தில் </p><p>
</p><p>
இன்னும் ஒரு வாரத்திற்குள் வீரப்பன் தேடுதல் வேட்டை தீவிர அடையும் என்று அதிரடிப்படை
வட்டாரத்தில் தெரிவிக்கப்பட்டது. இந்த நடவடிக்கைக்கு முன்பாக வீரப்பன் காட்டுக்குள் எங்கு
பதுங்கி இருக்கிறான் என்பதை கண்டறியும் பணியில் தற்போது அதிரடிப்படையின் துப்பு
அறியும் பிரிவு ஈடுபட்டு உள்ளது. </p><p>
</p><p>
வீரப்பனுடன் இருக்கும் தீவிரவாதிகளில் சிலர் அடிக்கடி ஊருக்குள் வந்து செல்வதாகவும் தகவல்
கிடைத்து உள்ளது. இதையடுத்து பன்னாரி, திம்பம், வரட்டுபள்ளம் உள்ளிட்ட பல்வேறு பகுதிகளில்
புதிதாக சோதனை சாவடிகள் அமைக்கப் பட்டு உள்ளன. இந்த வழியாக செல்லும் வாகனங்களில்
துருவி,துருவி சோதனை போடப்படுகிறது. </p><p>
</p><p>
உணவு சப்ளை நிறுத்தம் </p><p>
</p><p>
இத்தகைய நடவடிக்கை ஒரு பக்கம் தீவிரம் அடைந்து இருக்கும் அதே நேரத்தில் மற்றொரு
நடவடிக்கையாக வீரப்பனுக்கு உணவு பொருட்கள் எடுத்து செல்வதை துண்டித்திடும் நடவடிக்கையை
அதிரடிப் படையினர் மேற்கொண்டு இருக்கிறார்கள். இதற்காக காட்டு எல்லைப் பகுதியில் கூடும்
சந்தைகள் மற்றும் மார்க்கெட் பகுதியை போலீசார் மாறுவேடத்தில் முற்றுகையிட்டு கண்காணித்து
வருகிறார்கள். </p><p>
</p><p>
மேட்டூர்-கொளத்தூர் </p><p>
</p><p>
சத்தியமங்கலம், அந்தியூர், தாளவாடி, மேட்டூர், கொளத்தூர் ஆகிய இடங்களில் இத்தகைய
கண்காணிபபு அதிகப்படுத்தப்பட்டு இருக்கிறது. இங்குள்ள சந்தை மற்றும் மார்க்கெட் பகுதிக்கு
புதிதாக பொருட்கள் வாங்க யாரேனும் வருகிறார்களா? இங்கு கொள்முதல் செய்யும்
பொருட்களை காட்டுக்குள் எடுத்து செல்கிறார்களா? என்பதை இவர்கள் மறைந்து இருந்து
கண்காணித்து வருகிறார்கள். </p>

<p> </p>

<p>30 நாள் முஸ்லிம்கள்
விரதம்: புனித ரமலான் நோன்பு இன்று தொடங்கியது</p>

<p> </p>

<p>சென்னை, நவ. 28- உலகம் முழுவதும் வாழும் முஸ்லிம்கள் ஆண்டு தோறும்
புனித ரமலான் மாதம் 30 நாளும் நோன்பு எனப்படும் விரதத்தை நோற்பது வழக்கம். இந்த
ஆண்டு ஷாபான் மாதம் முடிந்து ரமலான் மாதம் பிறை தெரிகிறதா என்று நேற்று முன் தினம் பல்வேறு
இடங்களில் பார்க்கப்பட்டது. ஆனால் எங்கும் பிறை தென்படவில்லை. </p><p>
</p><p>
தொடங்கியது </p><p>
</p><p>
இதையடுத்து நேற்று முதல் ரமலான் மாதம் தொடங்குவதாக அறிவிக்கப்பட்டது. இதை தமிழ்நாடு
தலைமை காஜி முப்தி முகமது சலாவுதீன் அய்யூப் நேற்று அறிவித்தார். இதைத்தொடர்ந்து நேற்று
இரவு தமிழ்நாடு முழுவதும் உள்ள எல்லா பள்ளிவாசல்களிலும் தராவீஹ் எனப்படும் விசேஷ தொழுகை
தொடங்கியது. 30 நாள் இரவிலும் இந்த விசேஷ தொழுகை நடக்கும். </p><p>
</p><p>
அதிகாலை 4.34க்குள் ஸஹர் உணவை உட்கொண்டுவிட்டு, காலைப்பொழுது முழுவதும் நோன்பு எனும்
விரதத்தை தொடங்கி உள்ளனர். மாலை 5.46 மணிக்கு இப்தார் எனும் நோன்பு திறப்பு
நிகழ்ச்சி அனைத்து பள்ளிவாசல்களிலும் நடக்கும். 30 நாள் முடிந்ததும் மீண்டும் அடுத்த மாத
பிறை வானில் தெரிகிறதா என்று பார்த்து நோன்பு பெருநாளை முஸ்லிம்கள் விமர்சையாக
கொண்டாடுவார்கள். </p><p>
</p><p>
2 பெருநாள் </p><p>
</p><p>
இந்த ஆண்டு கடந்த ஜனவரி மாதம்தான் நோன்பு பெருநாள் கொண்டாடப்பட்டது. அதே ஆண்டு
டிசம்பரில் மறுபடியும் இன்னொரு பெருநாளை கொண்டாட இருக்கிறார்கள். இது பல ஆண்டுகளுக்கு ஒரு
முறை வரக்கூடியதாகும். ஒரே வருடத்தில் 2 நோன்பு பெரு நாளை கொண்டாடுவது முஸ் லிம்களுக்கு
மிகுந்த மகிழ்ச்சியை தருவதாக அமைந்துள்ளது. </p>

<p> </p>

<p>மக்கள் தொகை கட்டுப்பாடு- போலியோ
ஒழிப்பு - எய்ட்ஸ் தடுப்பில் இந்தியாவில் தமிழகம் முதலிடம், கருணாநிதி பெருமிதம்</p>

<p> </p>

<p>சென்னை, நவ. 28- தி.மு.க. தலைவரும், முதலமைச்சருமான கருணாநிதி
எழுதியுள்ள கடிதம் வருமாறு:- </p><p>
</p><p>
ஒரு மனிதனுக்கு வாழ்வில் வளம் சேர்க்க வற்றாத செல்வம் இருக்கலாம். அவன் ஆணை கேட்டு
நடக்க ஆள் அம்புகள் ஆயிரக்கணக்கில் இருக்கலாம்; அதிகாரம் செலுத்தும் வாய்ப் புள்ள
அரியாசனத்தில்கூட அமர்ந்திருக்கலாம்; அறிவுடை யோன் என்று அறிஞர் போற்றும்
கீர்த்தியும் இருக்கலாம்; எல்லாம் இருந்தும் என்ன பயன்? </p><p>
</p><p>
அதனை நல்வாழ்வு என்று நவின்றிட இயலுமோ இயலாது இயலவே இயலாது நோயற்ற வாழ்வே குறைவற்ற
செல்வம் எனும் முதுமொழி; அக்கால மனிதனின் அனுபவத் தினால் விளைந்ததன்றோ </p><p>
</p><p>
வசதி வாய்ப்புடையோரே நோயற்ற நல்வாழ்வுக்கு சிரமம் பல ஏற்க வேண்டியிருக்கிறது
என்கிறபோது, சாதாரண சாமானிய நடுத்தர மக்கள் ஏழை எளியோர் நல்வாழ்வை நாடிச்செல்ல
அவர்கள் தமக் காக அமைத்துக்கொண்ட அரசு தானே கைகொடுக்க வேண்டும், வழி காட்டவும்
வேண்டும். அந்த குறிக்கோளை குறிப்பிடும் நோக்கத்துடன்தான் மக்கள் நல்வாழ்வுத்து எனை
இத்துறைக்கு கழக அரசு பெயரே சூட்டியுள்ளது. </p><p>
</p><p>
இத்துறையின் சாதனைகள் குறித்து இக்கடிதத்தில் காண் போம். </p><p>
</p><p>
தமிழகம் முதல் இடம் </p><p>
</p><p>
குழந்தைகள் நலம் காக்க போலியோ ஒழிப்புத் திட்டத்தை நிறைவேற்றியதில் தமிழகம்
இந்தியாவில் முதல் இடம் வகிக்கிறது. (திதிஜரழுறியம றுஜ பிஒறுறிஜயஒஇ னுஜஇறிஜ
கிசரகறிஇஇஒயதிக னுரஜமரஒ்்க சீ.லி.ூ. ்கசூஜரறு) </p><p>
</p><p>
எய்ட்ஸ் என்னும் கொடிய நோயை கட்டுப்படுத்தியதில் தமிழகம் இந்தியாவில் முதல் இடத்தில்
உள்ளது. (பிஒறுறிஜயஒஇ றிழுநி ்ஜயறுரஜஇ ூரமஒயறிநிஒறுறிஜயநிஞி ்கசூஜரறு) இருக்கும்
வளத்தை பகிர்ந்து கொள்ள பிறக்கும் விகிதத்தை குறைத்து மக்கள் தொகையை
கட்டுப்படுத்தியதில் தமிழகம் இந்தியாவிலேயே முதல் இடத்தை வகிக்கின்றது. குழந்தைகள்
பிறப்பு தேசிய அளவில் சராசரி 27, அதாவது மக்கள் தொகை கணக்குப்படி 1000 பேர் என்றால்
ஆண்டு ஒன்றுக்கு புதிதாக 27 பேர் பிறக் கிறார்கள். ஆனால் தமிழகத் தின் சாதனை 19,
அதாவது ஆயிரம் பேர் கொண்ட மக்கள் தொகைக்கு 19 பேர் மட்டுமே தமிழகத்திலே
பிறக்கிறார்கள். </p><p>
</p><p>
சிசு மரண விகிதத்தை குறைத்துள்ளதிலும் தமிழகம் மகத்தான சாதனை புரிந்துள்ளது. 1000 பேர்
பிறக்கிறார்கள் என்றால் இதில் பிறந்த ஓராண்டிற்குள் அகில இந்திய அளவில் 72 குழந்தைகள்
இறந்து போகிறார்கள். ஆனால் தமிழகத்தில் 1000 பேர் பிறக் கிறார்கள் என்றால் 53
குழந்தைகள் மட்டுமே இறந்து போகிறார்கள். </p><p>
</p><p>
1995-96ம் ஆண்டு கடந்த ஆட்சியிலே மக்கள் நல்வாழ்வுத் துறைக்கென ஒதுக்கப்பட்ட 688.85
கோடி ரூபாய் என்பது இந்த ஆண்டிற்கான நிதிநிலை அறிக்கையிலே 1263 கோடி ரூபாய் என்ற
அளவிற்கு அதாவது சுமார் இரண்டு மடங்காக உயர்த்தப்பட்டுள்ளது. </p><p>
</p><p>
* அரசு மருத்துவமனைகள் மூலம் கழக அரசின் சார்பில் கடந்த நான்காண்டுகளில் மாத்திரம் ஏழை
எளியோர்க்கு வழங்கப்பட்ட மருந்து பொருள்களின் மதிப்பு 354 கோடி ரூபாயாகும். </p><p>
</p><p>
சுகாதார நிலையம் </p><p>
</p><p>
* 1991-ம் ஆண்டு முதல் 1996-ம் ஆண்டு வரை நடைபெற்ற அ.தி.மு.க. ஆட்சியில் ஐந்தாண்டு
காலத்தில் நியமிக் கப்பட்ட மருத்துவர்களின் எண்ணிக்கை 1327 என்பதற்கு மாறாக கடந்த
நான்காண்டு காலத்தில் மட்டும் 2641 மருத்துவர்கள் அதாவது இதிலும் இரண்டு மடங்கு அளவிற்கு
நியமிக்கப்பட்டுள்ளார்கள். </p><p>
</p><p>
* அதுபோலவே கடந்த ஐந் தாண்டு கால அ.தி.மு.க. ஆட்சியிலே நியமிக்கப்பட்ட 786 செவி
லியர்களுக்கு மாறாக கடந்த நான்காண்டு கால கழக ஆட்சியிலே 1570 செவிலியர்கள் (இதிலும்
இரண்டு மடங்கு) நியமிக்கப்பட்டுள்ளார்கள். </p><p>
</p><p>
* 1989-90 மற்றும் 1990-1991 ஆகிய இந்த இரண்டே ஆண்டுகளில் கழக ஆட்சியிலே 136 தொடக்க
சுகாதார நிலையங் களுக்கு கட்டிடங்கள் கட்டப்பட்டன. பிறகு 1991 முதல் 1996 வரையிலான
ஐந்தாண்டுகளில் அ.தி.மு.க. ஆட்சியிலே 15 கோடியே 92 லட்சத்து 75 ஆயிரம் ரூபாய் செலவில்
213 தொடக்க சுகாதார நிலையங் களுக்கு மட்டுமே கட்டிடங்கள் கட்டப்பட்டன. மீண்டும் 1996-ம்
ஆண்டு தி.மு.கழகம் ஆட்சிக்கு வந்தபோது 653 தொடக்க சுகாதார நிலையங்கள் சொந்த கட்டிடம்
இல்லாத நிலையிலே இருந்தன. எனவே சொந்த கட்டிடம் இல்லாத தொடக்க சுகாதார நிலையங்களே
இல்லை என்ற நிலையை உரு வாக்குவோம் என்று அறிவித் தோம். அதன்படி 1996-க்கு பின் கடந்த
நான்கரை ஆண்டு காலத்தில் 653 தொடக்க சுகா தார நிலையங்களுக்கும், 200 துணை சுகாதார
மையங்களுக் கும் சொந்த கட்டிடம் கட்ட 61 கோடியே 16 லட்ச ரூபாய் நிதி ஒதுக்கப்பட்டு
அதில் 613 ஆரம்ப சுகாதார நிலையங்களுக்கும் 196 துணை சுகாதார மையங் களுக்குமென கட்டிடங்கள்
கட்டி முடிக்கப்பட்டுள்ளன. கடந்த கால அ.தி.மு.க. ஆட்சி ஐந்தாண்டுகளில் கட்டியதை போல மூன்று
மடங்காகும். </p><p>
</p><p>
நவீன கருவிகள் </p><p>
</p><p>
* முந்தைய அரசு ஐந்தாண்டுகளில் கட்டிய மருத்துவமனை கட்டிடங்கள் 145 என்ப தற்கு மாறாக கழக
அரசு 1996-க்கு பின் நாலரை ஆண்டுகளில் இதுவரை கட்டி முடித் துள்ள மருத்துவமனை கட்டிடங்களின்
எண்ணிக்கை 261. </p><p>
</p><p>
*கடந்த நான்கரை ஆண்டு காலத்தில் 18 ஆரம்ப சுகாதார நிலையங்கள் புதிதாக
தொடங்கப்பட்டுள்ளன. </p><p>
</p><p>
* கிராமப்புற மக்களின் மேம்பாட்டிற்காக 28 அரசு ஆரம்ப சுகாதார நிலையங்கள் அரசு வட்டார
மருத்துவமனைகளாக மேம்படுத்தப்பட்டுள்ளன. </p><p>
</p><p>
* மருத்துவத்துறை நவீன மயமாகி வருவதையொட்டி கருவுற்ற தாய்மார்களுக்கு தரமான சிகிச்சை
அளித்திட 201 மருத்துவமனைகளுக்கு அல்ட்ரா சவுண்ட் ஸ்கேன் கருவிகள் வழங்கப்பட்டுள்ளன. </p><p>
</p><p>
* ரத்தப் பரிசோதனை களை துல்லியமாக உடனுக்குடன் அறிய உதவும் செமி- ஆட்டோ அனலைசர்
என்னும் நவீன கருவி ஒன்றரை கோடி ரூபாய் செலவில் 140 மருத்துவ மனைகளுக்கு வழங்கப்பட்டுள்ளன.
</p><p>
</p><p>
* மருத்துவ பரிசோதனைக்காக மனித உறுப்புகளை வண்ணத்தில் படம் பிடித்து காட்டும் கலர்
டோப்லர் கருவிகள் இரண்டு வாங்கப்பட்டு, சென்னை அரசு பொது மருத்துவமனைக்கும், மதுரை ராஜாஜி
அரசு மருத்துவமனைக்கும் வழங்கப்பட்டுள்ளன. </p><p>
</p><p>
* நோய்களை கண்டறிந்து, உரிய சிகிச்சை அளிக்க உதவிடும் நவீன கருவிகள் ரூ.20 கோடி
செலவில் அனைத்து மருத்துவமனைகளுக்கும் வழங்கப்பட்டுள்ளன. </p><p>
</p><p>
தனியார் நிறுவனம் </p><p>
</p><p>
* மருத்துவ கல்லூரி மருத் துவமனைகளுக்கு 26 நோயாளி ஊர்திகள் ஒரு கோடியே பன்னி ரெண்டு
லட்சம் ரூபாய் செல வில் வழங்கப்பட்டுள்ளன. </p><p>
</p><p>
* 1989-ல் கழக ஆட்சியில் தொடங்கப்பட்ட சேலம் மருத்துவ கல்லூரிக்கு பிறகு ஐந்தாண்டு கால
அ.தி.மு.க. ஆட்சியில் ஒரு மருத்துவ கல்லூரிகூட தொடங்கப்படவில்லை. ஆனால் மீண்டும் கழக
ஆட்சியில் 26-10-97ல் தொடங்கப்பட்ட திருச்சி கி.ஆ.பெ.விசுவநாதம் மருத்துவ கல்லூரிக்கு
ரூ.12 கோடியே 73 லட்சம் செலவில் கட்டப்பட்ட கட்டிடம் 26-6-2000 அன்று திறக்கப்பட்டது. </p><p>
</p><p>
* தூத்துக்குடி அரசு மருத்துவ கல்லூரி 1-10-2000 அன்று தொடங்கப்பட்டது. </p><p>
</p><p>
* வேலூரில் புதிய அரசு மருத்துவக்கல்லூரி 2000-2001ல் தொடங்கப்பட உள்ளது. தொடர்ந்து
குமரி மாவட்டத்திலும் அரசு மருத்துவகல்லூரி தொடங்கப்படும். </p><p>
</p><p>
* 1996-க்கு பின் கழக ஆட்சியிலே தனியார் பல் மருத்துவக் கல்லூரி ஒன்றும், தனியார்
மருந்தாக்கக் கல்லூரிகள் மூன்றும், தனியார் செவிலியர் பயிற்சி நிறுவனங்கள் பதினாறும்,
தனியார் பிசியோதரபி கல்வி நிறுவனங்கள் இருபத்தி இரண்டும், தனியார் முட நீக்கியல்
கல்வி நிறுவனங்கள் மூன்றும் தொடங்கப்பட்டுள்ளன. </p><p>
</p><p>
* சித்த மருத்துவத்தில் இரண்டு தனியார் கல்லூரிகள், ஆயுர்வேத மருத்துவத்தில் ஒரு தனியார்
கல்லூரி, ஓமியோபதி மருத்துவத்தில் நான்கு தனியார் கல்லூரிகள், இயற்கை மருத்து வத்தில்
இரண்டு தனியார் கல்லூரிகள், அரசு யுனானி மருத்துவ கல்லூரி ஒன்று என தொடங்கி நடைபெற்று
வருகின்றன. </p><p>
</p><p>
செவிலியர் பயிற்சி பள்ளி </p><p>
</p><p>
* சென்னை கீழ்ப்பாக்கம் மருத்துவக்கல்லூரி வளாகத்தில் ஒரு செவிலியர் பயிற்சி பள்ளி
13-10-2000-ல் தொடங்கப்பட்டுள்ளது. </p><p>
</p><p>
* மாவட்ட / வட்ட தலைமை மருத்துவமனைகளில் 10 ஓமி யோபதி மருத்துவ பிரிவுகள்
தொடங்கப்பட்டுள்ளன. </p><p>
</p><p>
மாவட்ட தலைமை மருத்துவ மனைகளில் ஒவ்வொரு மருத் துவமனையிலும் தலா மூன்று ஆயுர்வேத மற்றும்
யுனானி மருத்துவ பிரிவுகள் தொடங்கப் பட்டுள்ளன. </p><p>
</p><p>
* சென்னை அறிஞர் அண்ணா அரசினர் இந்திய மருத்துவமனை வளாகத்தில் யோகா மற்றும்
இயற்கை முறை மருத்துவ கல்லூரி தொடங்கப் பட்டுள்ளது. </p><p>
</p><p>
* சித்தமுறை மருத்து வத்தை மேம்படுத்தவும், சித்த மருத்துவர்களின் பதிவு மற்றும்
புதுப்பித்தல் முறைகளை வரன் முறைப்படுத்தவும், தமிழ்நாடு சித்த மருத்துவ முறை சட்டம் 1997,
மாநில அரசால் இயற்றப் பட்டு அமுலுக்கு கொண்டு வரப்பட்டுள்ளது. </p><p>
</p><p>
* கடும் நோயால் அவதியுறும் ஏழை மக்களின் மருத்துவ சிகிச்சைக்கு உதவிட, தமிழ் நாடு மாநில
நோயாளர்கள் நிதி அமைப்பிற்கு ரூ.10 கோடி 30.3.1998 அன்று அரசினால் வழங்கப்பட்டது.
இந்த ஆண்டு இந்த நிதிக்கு மேலும் ஐந்து கோடி ரூபாய் வழங்கப்பட்டுள் ளது. </p><p>
</p><p>
* அனைத்து மருத்துவ கல்லூரி மருத்துவமனைகளிலும் முழு உடல் பரிசோதனை திட்டத்தை தொடங்கிட
11.6.1999 அன்று ஆணையிடப்பட்டுள்ளது. </p><p>
</p><p>
* மருத்துவமனைகளின் உள்நோயாளிகளின் வசதிக்காக ரூ.8 கோடி செலவில் கட்டில்கள்,
மெத்தைகள், படுக்கை விரிப்புகள் முதலியன புதிதாக வாங்கி வழங்கப்பட்டுள்ளன. </p><p>
</p><p>
*புதிதாய் அமைந்த திருவா ரூர், நாகை, பெரம்பலூர் மாவட்டங்களில் ரூ.5 கோடி செலவில்
காசநோய் மையங்கள் கட்டப்பட்டுள்ளன. </p><p>
</p><p>
24 மணி நேரமும் இயங்கும் ஆரம்ப சுகாதார நிலையங்கள். </p><p>
</p><p>
* திட்டமிடப்பட்டவை 298- இதுவரை செயலாக்கப்பட்டவை - 250 </p><p>
</p><p>
வறுமைக்கோட்டிற்கு கீழ் வாழ்வோர்க்கு ரூ.25000 மருத்துவ சிகிச்சை நிதி. </p><p>
</p><p>
* 1997-98ல் இதயநோய், சிறுநீரக நோய், புற்றுநோய் ஆகிய நோய்களுக்கு அறுவை செய்து
கொள்ளும் வறுமை கோட்டிற்கு கீழ் வாழும் மக்களுக்கு முதலமைச்சர் நிவாரண நிதியிலிருந்து
ரூ.25000 அளிக்கும்திட்டம் அறிமுகப்படுத்தப் பட்டு இதுவரை 4774 பயனாளிகளுக்கு 8 கோடியே 16
லட்சத்து 31000 ரூபாய் வழங்கப்பட்டுள்ளது. </p><p>
</p><p>
* அரசு மருத்துவமனை களில் வௌி நோயாளிகள் பார்வை நேரம் பகல் 12 மணி வரை நீடிக்க
ஆணையிட்டதின் மூலம் லட்சக்கணக்கான ஏழை யௌிய நோயாளிகள் பயன டைகிறார்கள். மருத்துவ
மனை யிலே உள்ள நோயாளிகளைக் காண வரும் பார்வையாளர் களுக்கு முந்தைய அரசு விதித்திருந்த
கட்டணம் இரண்டு ரூபாய் இந்த அரசு பொறுப் பேற்ற அன்றே ரத்து செய்யப்பட்டுள்ளது. </p><p>
</p><p>
* கிராமப்புற மக்களுக்கு மருத்துவ வசதிகள் உடனுக்குடன் கிடைத்திட 10 கோடி ரூபாய் செலவில்
ஆரம்ப சுகா தார நிலையங்களுக்கும், மருத்துவமனைகளுக்கும் 381 ஆம்பு லன்ஸ் வண்டிகள். </p><p>
</p><p>
* 1996-ம் ஆண்டுக்கு பிறகு தமிழகத்தில் உள்ள மருத்துவ கல்லூரி மருத்துவமனைகளிலும் மாவட்ட
தலைமையிட மருத்துவமனைகளிலும் சி.டி. ஸ்கேன் கருவிகளை நிறுவிட கழக அரசு திட்டமிட்டு இது வரை
17 அரசு மருத்துவமனை களிலே அந்த வசதி ஏற்படுத்தப் பட்டுள்ளது. </p><p>
</p><p>
* ஜப்பானிய அரசின் 21 கோடி ரூபாய் மானிய உதவி பெற்று சென்னை எழும்பூர் குழந்தைகள் நல
நிறுவனம் மற்றும் குழந்தைகள் மருத்துவ மனையின் பல்வேறு துறை களுக்கும் மருத்துவ கருவிகளும்,
மருத்துவ சாதனங்களும் வழங் கப்பட்டு குழந்தை மருத்துவம் மிகச் சிறந்த முறையில் பரா
மரிக்கப்படுகிறது. </p><p>
</p><p>
தொழில் நிறுவனங்களின் உதவியோடு மருத்துவமனை மேம்படுத்த திட்டம். </p><p>
</p><p>
* 1.11.1997 அன்று தமிழகத்தை சார்ந்த தொழிலதிபர்கள் கூட்டத்தை நடத்தி ஒரு சில
மருத்துவமனைகளை அவர்களுடைய தொழில் நிறுவனங்களின் சார்பில் தத்து எடுத்துக் கொண்டு
மேம்படுத்த வேண்டு மென்று வேண்டுகோள் விடுத்தேன். </p><p>
</p><p>
* அதன் பயனாக 51 தொழில் நிறுவனங்கள் 24 அரசு மருத்துவமனைகளையும் 69 ஆரம்ப சுகாதார
நிலையங் களையும் 5 துணை சுகாதார நிலையங்களையும் மேம்படுத் திட
பொறுப்பேற்றுக்கொண்டுள்ளன. </p><p>
</p><p>
கண்ணொளி வழங்கும் திட்டம் </p><p>
</p><p>
* 1972-73-ல் நான் முதன் முறையாக முதலமைச்சர் பொறுப்பை ஏற்றிருந்த காலக் கட்டத்தில்
அறிமுகப்படுத்தப்பட்ட கண்ணொளி வழங்கும் திட்டத்திற்கு இடையில் தொய்வு ஏற்பட்டது.
1996-க்கு பின் கழக அரசு இத்திட்டத்திற்கு மீண்டும் புத்துயிர் அளித்து அனைத்து மாவட்ட
மருத்துவமனைகளிலும் கண் சிகிச்சை பிரிவுகள் தற்போது மேம்படுத்தப்பட் டுள்ளன. </p><p>
</p><p>
* மேலும் முக்கிய வட்ட மருத்துவமனைகளில் கண் மருத்துவ சிகிச்சை பிரிவுகள் ஏற்
படுத்தப்பட்டுள்ளன. </p><p>
</p><p>
* 26 மாவட்டங்களில் நடமாடும் கண் சிகிச்சை பிரிவுகள் உருவாக்கப்பட்டுள்ளன. </p><p>
</p><p>
* 4 ஆண்டுகளில் 13,42,000 பேருக்கு கண்புரை அறுவை சிகிச்சை செய்யப்பட்டுள்ளது. </p><p>
</p><p>
* 2,87,776 பேருக்கு கண் உள் ஆடி பொருத்தப்பட்டுள்ளது. ஏழை எளிய மக்களும் இந்த வசதியை
எளிதில் பெறத்தக்க வகையில், கண் உள் ஆடிகளுக்கு விற்பனை வரி அறவே நீக்கப்பட்டது. </p><p>
</p><p>
* நவீன மருத்துவ சிகிச்சை பெறுவதற்கென தொலை தொடர்பு வழி மருத்துவத்தால் சென்னை அரசு
மருத்துவ கல்லூரி மருத்துவமனையுடன் வேலூர் மாவட்ட வாலாஜா மருத்துவமனை இணைக்கப்பட்டுள்ளது. </p><p>
</p><p>
*அமெரிக்க நாட்டின் உதவியுடன் டெலிமெடிசின் டிரான்ஸ்மிஷன் யூனிட் டாக்டர் எம்.ஜி.ஆர்.
மருத்துவ பல்கலைக் கழக வளாகத்திலும், ரெசீவர் யூனிட் கீழ்ப்பாக்கம் மருத்துவ கல்லூரி
மருத்துவமனை வளா கத்திலும் அமைக்கப்பட உள்ளது. </p><p>
</p><p>
* 60 வயதிற்கு மேற்பட்ட பரம்பரை சித்த மருத்துவர்களுக்கான மாத உதவித் தொகை ரூ.150
என்பது ரூ.500 ஆக உயர்வு. </p><p>
</p><p>
* பயிற்சி மருத்துவர்களில் கோரிக்கையினை ஏற்று அவர்களின் மாத ஊதியத்தினை உயர்த்திய
இந்த அரசு தொடர்ந்து 1-3-2001 முதல் ஆண்டுதோறும் இந்த உதவித் தொகை 10 சதவீதம்
உயர்த்தி வழங்கப்படும் எனவும் ஆணையிட்டுள்ளது. </p><p>
</p><p>
* பல்வேறு மருத்துவ முது நிலை பட்ட / பட்டய / சிறப்பு மேற்படிப்புகளை அரசு மருத்துவ
கல்லூரிகளில் 1996-ம் ஆண்டு முதல் தொடங்குவதற் கான அனுமதிகளை வழங்கியது இந்த அரசு. </p><p>
</p><p>
* 1996-ம் ஆண்டு முதல் அரசு மருத்துவ கல்லூரிகளில் பல்வேறு மருத்துவ முதுநிலை பட்ட / பட்டய
படிப்பிற்கான இடங்களின் எண்ணிக்கையை உயர்த்தியுள்ளது இந்த அரசு. </p><p>
</p><p>
* அரசு பல் மருத்துவ கல்லூரியில் இளநிலை பல் மருத்துவ படிப்பின் இடங்களை 60-லிருந்து 100
ஆக 1997-ம் ஆண்டில் உயர்த்தியது இந்த அரசு. </p><p>
</p><p>
வாழ்வொளித் திட்டம் </p><p>
</p><p>
* 1999-2000-ம் ஆண்டு நிதி நிலை அறிக்கையிலே அறிவிக்கப்பட்ட வாழ்வொளித் திட்டத்தின்
மூலம் அனைத்து அரசு பள்ளிகள் மற்றும் அரசு நிதி உதவி பெறும் பள்ளிகளில் 1 முதல் 12-ம்
வகுப்பு வரை பயிலும் மாணவர்களிடையே செயல்படுத்தப்பட்டு முதற்கட்டமாக 59 லட்சம் மாணவ -
மாணவியர்களுக்கு மருத்துவ பரிசோதனை செய்யப்பட்டு, அவர்களுள் 29 லட்சம் பேருக்கு உரிய
சிகிச்சை அளிக்கப்பட்டுள்ளது. மேலும் 66 ஆயிரம் மாணவர்கள் குறிப்பான நோய் களுக்கான
சிறப்பு சிகிச்சை பெற்று பயனடைந்து வருகின்றனர். </p><p>
</p><p>
வருமுன் காப்போம் திட்டம் </p><p>
</p><p>
*கழக அரசினால் மக்கள் நல்வாழ்வுத்துறை மூலமாக தொடங்கப்பட்ட இத்திட்டத்தின் மூலம்
மருத்துவர்கள் கிராமங்களை நாடிச் சென்று முகா மிட்டு ஏழை எளியோர்க்கு மருத்துவ
பரிசோதனைகளும் சிகிச்சைகளும் வழங்கும் திட்டம் பெரும் வெற்றியை பெற்றுள் ளது.
24-11-2000 அன்று வரை வருமுன் காப்போம் திட்டத் தின்கீழ் 7926 முகாம்கள் நடை
பெற்றுள்ளன. அந்த முகாம்களில் மருத்துவ பரிசோதனை செய்து கொண்ட ஏழை எளிய மக்களின்
எண்ணிக்கை 78 லட்சத்து 43 ஆயிரம் பேர். இவர் களில் தொடர் சிகிச்சைக்காக பெரிய
மருத்துவமனைக்கு பரிந்துரை செய்யப்பட்டவர்களின் எண்ணிக்கை 3 லட்சத்து 58 ஆயிரத்து 880
பேர். இங்கே பரிசோதிக்கப்பட்ட ஏழை எளிய நோயாளிகளுக்கு அரசின் சார்பில் இலவசமாக
வழங்கப்பட்ட மருந்துகளின் மதிப்பு 4 கோடியே 8 லட்சத்து 7 ஆயிரம் ரூபாயாகும். </p><p>
</p><p>
இந்த சாதனைகளில் மாநிலத்தில் உள்ள எல்லா மக்களின் நலனும் பின்னிப் பிணைந்து கிடப்பதை
உணர்ந்திடுவாய். உணர்ந்ததை ஊருக்கு உரைத்திடுவாய். </p><p>
</p><p>
இவ்வாறு எழுதி உள்ளார். </p>

<p> </p>

<p>உடல்நிலை மாமூல் ஆகிறது:
முரசொலி மாறன் வழக்கமான உணவு சாப்பிடுகிறார்</p>

<p> </p>

<p>சென்னை, நவ. 28- மத்திய வர்த்தக தொழில் துறை அமைச்சர்
முரசொலி மாறன் சென்னை அப்பல்லோ மருத்துவமனையில் சிகிச்சை பெற்று வருகிறார் அல்லவா?
</p><p>
</p><p>
மருத்துவ அறிக்கை </p><p>
</p><p>
அவரது உடல்நிலை குறித்து நேற்று மதியம் அப்பல்லோ மருத்துவமனை டாக்டர் பி. பிரேம்குமார்
விடுத்த மருத்துவ அறிக்கையில் கூறியிருப்பது வருமாறு:- </p><p>
</p><p>
மத்திய அமைச்சர் முர சொலி மாறனுக்கு உயிர் காக்கும் செயற்கை கருவிகள் அகற்றப்பட்டதில்
இருந்து அவ ரது உடல்நிலை தொடர்ந்து முன்னேற்றம் அடைந்து வருகிறது. அவர் கணிசமான நேரத்தை
பத்திரிகைகள் மற்றும் சஞ்சிகைகள் படிப்பதில் கழிக்கிறார். எல்லா அளவு மானிகளும்
மாமூலாக உள்ளன. </p><p>
</p><p>
வழக்கமான உணவு </p><p>
</p><p>
அவருக்கு நல்ல பசி எடுக்கிறது. வழக்கமான உணவு வகைகளை சாப்பிடுகிறார். காலையில் சிலவகை
ரத்த பரிசோதனை மற்றும் எக்ஸ்ரே எடுக்கப்பட்டு உடல்நிலையின் முன்னேற்றம்
கண்டறியப்பட்டது. டாக்டர்கள் குழு அவரை இடைவிடாமல் நன்றாக கவனித்து வருகிறது. </p><p>
</p><p>
இவ்வாறு அந்த அறிக்கையில் கூறப்பட்டு உள்ளது. </p>

<p> </p>

<p>ரூ.170 கோடி வங்கி மோசடி
வழக்கு: கோபாலகிருஷ்ணன் உள்பட 10 பேர் கோர்ட்டில் ஆஜராக சம்மன்</p>

<p> </p>

<p>சென்னை,நவ.28- இந்தியன் வங்கியின் முன்னாள் தலைவர் எம்.
கோபாலகிருஷ்ணன் உள்பட 10 பேர் மீது வங்கி மோசடி வழக்கை விசாரிக்கும் பிரிவு ரூ. 170
கோடி மோசடி வழக்கை பதிவு செய்தது. இது தொடர்பாக இந்த பிரிவு விசாரணை நடத்தியது. இதன்
பிறகு 10 பேர் மீது குற்றப்பத்தி ரிகை தயார் செய்தது. இந்த குற்றப்பத்திரிகையை நேற்று
சென்னை செசன்சு கோர்ட்டில் உள்ள சி.பி.ஐ. கோர்ட்டில் தாக்கல் செய்தது. </p><p>
</p><p>
சம்மன் </p><p>
</p><p>
இந்த குற்றப்பத்திரிகையில் முதல் எதிரி கோபாலகிருஷ்ணன் இந்தியன் வங்கியின் தலைவராக
இருந்த போது 1994-1996 ம் ஆண்டுகளில் ஒரு தனியார் கம்பெனிக்கு ரூ. 170 கோடி கடன் வாங்க
உதவி செய்து உள்ளார். எந்தவித உத்தரவாதமும் சொத்து ஆதாரமும் இல்லாமல் சென்னை
நுங்கம்பாக்கம் இந்தியன் வங்கி கிளையில் கடன் கொடுத்து உள்ளார். இதற்கு 10 பேரும்
உடந்தையாக உள்ளனர். இப்படி மோசடி செய்து வங்கிக்கு இழப்பு ஏற்படுத்தி உள்ளனர். ஆகவே
ஊழல் தடுப்பு சட்டப் பிரிவின் கீழ் இவர்களுக்கு தண்டனை வழங்க வேண்டும் என்று கூறி
இருந்தார். </p><p>
</p><p>
இந்த குற்றப்பத்திரிகையை நீதிபதி கண்ணன் விசாரித்து குற்றப்பத்திரிகையை பெற்று கொள்ள
எம்.கோபாலகிருஷ்ணன் உள்பட 10 பேரும் அடுத்த மாதம் 11-ந் தேதி நேரில் ஆஜராக சம்மன்
அனுப்ப உத்தரவிட்டார். </p>

<p> </p>

<p>சிலை கடத்தல் தடுப்பு
போலீஸ் சாதனை: ரூ.10 கோடி சிலை மீட்டது எப்படி? துப்பு துலக்கியது பற்றி பரபரப்பான
தகவல்</p>

<p> </p>

<p>சென்னை, நவ. 28- தமிழ்நாட்டில் புகழ்பெற்ற பழங்கால கோவில்கள்
ஏராளமாக உள்ளன. இந்த கோவில்களில் கலை நுட்பங்களுடன் கூடிய சிலைகள் பார்ப்போரை வியக்க
வைக்கும் அளவுக்கு அற்புதமாக வடிவமைத்து வைத்துள்ளனர். கோவிலுக்குள் இருக்கும் சாமி
சிலைகள் பெரும்பாலும் ஐம்பொன் சிலைகளாகவே இருக்கும். இந்த ஐம்பொன் சிலைகளுக்கு விலை
மதிப்பிட முடியாது. ஆகையால் இந்த சிலைகளை கோவிலில் இருந்து கொள்ளையடித்து வௌிநாடுகளுக்கு
கடத்தி விற்பனை செய்யும் கும்பலை கண்டுபிடிக்க தமிழக அரசு சிலை கடத்தல் தடுப்பு போலீஸ்
பிரிவை தனியாக அமைத்துள்ளது. இந்த அமைப்பில் ஒரு கூடுதல் போலீஸ் டி.ஜி.பி., ஒரு ஐ.ஜி.,
ஒரு போலீஸ் சூப்பிரண்டு, ஒரு டி.எஸ்.பி., 5 இன்ஸ்பெக்டர்கள், 2 சப்-இன்ஸ்பெக்டர்கள்
மற்றும் 10 போலீசார் உள்ளனர். இவர்கள் கோவில்கள் எங்கெங்கெல்லாம் உள்ளதோ
அங்கெல்லாம் சென்று கண்காணித்து வருகிறார்கள். அதுமட்டுமல்ல கோவில்களில் நடக்கும் சிலை
திருட்டு வழக்குகளிலும் திறமையாக துப்புதுலக்கி சாதனை படைத்து வருகிறார்கள். </p><p>
</p><p>
ரூ.10 கோடி சிலை </p><p>
</p><p>
கடந்த 10 மாதங்களில் மட்டும் சிலைகளை திருடிய திருநாவுக்கரசு, அழகர், மாதவன்,
வெங்கடசாமி, சண்முகம், குளஞ்சி, நாகராஜன் உள்பட 18 பேரை கைது செய்து காசி
விஸ்வநாதர் சிலை, பெருமாள் சிலை, அம்மன், ஆஞ்சநேயர், துவார பாலகர், விநாயகர்,
முருகன், மீனாட்சி சிலைகள் உள்பட 35 சாமி சிலைகளை கைப்பற்றி உள்ளனர். இதன் மதிப்பு
சுமார் ரூ.10 கோடி ஆகும். இப்படி கைப்பற்றும் சிலைகள் கோர்ட்டில் ஒப்படைக் கப்பட்டு அரசு
மியூசியத்திலோ அல்லது சம்பந்தப்பட்ட கோவில்களுக்கோ திருப்பி கொடுக்க நடவடிக்கை
எடுக்கப் பட்டு வருகிறது. </p><p>
</p><p>
கோவிலில் கொள்ளையடிக்கும் சிலைகளை போலீசார் எப்படியெல்லாம் கண்டுபிடிக்கிறார்கள்
என்பதற்கு எவ்வளவோ சொல்லலாம். ஆனால் ஒரு சில வழக்குகள், கண்டுபிடிக்கப்பட்ட
சம்பவங்கள் சுவையாக உள்ளன. அதன் விவரம் வருமாறு:- </p><p>
</p><p>
திருச்சி துவாக்குடியில் திரு நெடுங்குளம் படுகளநாதர் கோவில் உள்ளது. இந்த கோவி லில் 2
விநாயகர் சிலை, வள்ளி, தெய்வாணை, முருகன் சிலை கள், 3 அம்மன் சிலைகள் மற் றும் 3 சாமி
சிலைகளை யாரோ கொள்ளையடித்து சென்றுவிட்டனர். இதுபற்றிய தகவல் சிலை கடத்தல் தடுப்பு
பிரிவு போலீ சாருக்கு கிடைத்ததும் சம்பவம் நடந்த கோவிலுக்கு சென்று பார்வையிட்டனர்.
ஆனால் போலீசாருக்கு கொள்ளையர்கள் எப்படி வந்து கொள்ளை யடித்து இருப்பார்கள் என்று
தெரியாமல் ஏதாவது தடயம் கிடைக்காதா என்று கோவிலை சுற்றிச்சுற்றி வந்துள்ளனர். </p><p>
</p><p>
மதுபாட்டில் </p><p>
</p><p>
அப்போது கோவில் சுவர் ஓரமாக ஒரு மது பாட்டில் மூடி கிடந்துள்ளது. அந்த மூடியை எடுத்து
பார்த்தனர். மூடியில் ஆயத்தீர்வை செலுத்தியதற்கான சிலிப் இருந்தது. அந்த சிலிப்பை எடுத்து
அதில் உள்ள நம்பரை பார்த்து, அந்த நம்பர் உள்ள மதுபானம் எந்த கடைக்கு டாஸ்மாக் மூலம்
அனுப்பி வைக்கப்பட்டது என் பதை கண்டுபிடித்தனர். பிறகு அந்த மதுக்கடைக்கு போலீசார் சென்று
சம்பவத்தன்று யார்? யார்? வந்து மது வாங்கினார்கள் என்று விசாரித்தனர். அப்போது
மகேந்திரா வேனில் இருந்து இறங்கிய சிலர் மது வாங்கினார்கள். அந்த வேனில் சென்னை மண்ணடி
என்று எழுதப்பட்டு இருந்தது. வேனுக் குள் 2 பச்சைக்கிளி பொம்மை தொங்கியது என்றும் தெரிய
வந்ததால் சென்னையில் தேடி கண்டுபிடித்தனர். பிறகு வேனில் சென்றவர்கள் பற்றிய விவரங்கள்
கிடைத்ததால் அனைவரையும் கூண்டோடு பிடித்து சிலையை மீட்டனர். </p><p>
</p><p>
கொள்ளை திட்டம் </p><p>
</p><p>
கைது செய்யப்பட்டவர்களில் ஒருவரான முனியாண்டி என்பவர்தான் சிலைகளை கொள்ளையடிக்க
திட்டமிட்டு செயல்பட்டார் என்று தெரிய வந்ததால் அவரிடம் விசாரித்த போது கொள்ளை
அடித்தது எப்படி என்று விளக்கமாக கூறினார். முனியாண்டி போலீசாரிடம் கூறியதாவது:- </p><p>
</p><p>
எனது சொந்த ஊர் மீஞ்சூர், இங்கு வேலை எதுவும் இல்லாததால் திருச்சிக்கு வேலை தேடி
சென்றேன். அங்கு சென்றும் சரியான வேலை கிடைக்காததால் கோவிலுக்கு சென்று சாமி
கும்பிட்டேன். சாமி கும்பிடும்போதுதான் சிலைகளை கொள்ளையடித்து கோடீஸ்வரனாக வேண்டும்
என்ற எண்ணம் ஏற்பட்டது. ஆகையால் சென்னைக்கு வந்து என்னுடன் மேலும் சிலரை அழைத்துக்
கொண்டு வேனில் சென்றேன். இரவில் கோவிலில் சிலைகளை கொள்ளையடிக்க வேண்டும் என்பதால்
மது வாங்கி அனைவரும் குடித்தோம். மது போதையில் தான் சிலைகளை கொள்ளை அடித்தோம். பிறகு
கொள்ளை அடித்த சிலைகளை விற்க முடியாமல் அலைந்த போது போலீசார் பிடித்து விட்டனர். </p><p>
</p><p>
இவ்வாறு அவர் கூறியுள்ளார். </p>

<p> </p>

<p>வீரப்பன் பிடியில் இருந்து
தப்பிய, நாகப்பா நீதிமன்றத்தில் ஆஜராக ராஜ்குமார் குடும்பத்தினர் தடையா? இன்னும் 3
நாளில் ஒப்படைக்க போலீசுக்கு ஐகோர்ட்டு உத்தரவு</p>

<p> </p>

<p>பெங்களூர், நவ. 28- கன்னட நடிகர் ராஜ் குமாருடன் சேர்த்து
டைரக்டர் நாகப்பாவையும் சந்தன வீரப்பன் கடத்தினான். ஆனால் வீரப்பன் பிடியில் இருந்து
நாகப்பா நைசாக தப்பி ஓடி வந்து விட்டார். </p><p>
</p><p>
மிரட்டலா? </p><p>
</p><p>
இதற்கிடையில் கர்நாடக உயர்நீதிமன்றத்தில் ஒரு வழக்கு தொடரப்பட்டு உள்ளது. வீரப்பன்
பிடியில் இருந்து தப்பியது பற்றி உண்மையை கூற விடாது நாகப்பாவை ராஜ் குமார் குடும்பத்தினர்
மிரட்டு கிறார்கள். நீதிமன்றத்தில் ஆஜராவதையும் தடுக்கிறார்கள். நாகப்பாவை
தாக்கியதில் அவர் காயம் அடைந்து உள்ளார். அவருக்கு வழங்கப்பட வேண்டிய சம்பளத்தையும்
தரவில்லை. இதனால் நாகப்பா குடும்பம் பணக்கஷ்டத்தில் சிக்கி தவிக்கிறது. எனவே
நாகப்பாவுக்கு ராஜ்குமார் குடும்பத்தினர் ரூ.5 லட்சம் நஷ்டஈடு தர நீதிமன்றம் உத்தரவிட
வேண்டும் என்று அதில் கூறப்பட்டு உள்ளது. இந்த வழக்கை ரங்கசாமி என்பவர் தாக்கல் செய்து
இருக்கிறார். </p><p>
</p><p>
ஆஜராகவில்லை </p><p>
</p><p>
இந்த வழக்கில் நேற்று ஆஜராகும்படி நாகப்பாவுக்கு நீதிமன்றம் உத்தரவிட்டு இருந் தது. ஆனால்
அவர் ஆஜராக வில்லை. இருப்பினும் அவரது வக்கீல் ஆஜராகி, நாகப்பா போலீஸ் காவலில்
பாதுகாப்பாக இருக்கிறார். தற்போது அவரது சகோதரி வீட்டில் இருக்கிறார். உடல்நலமின்றி
இருப்பதால் இன்று நீதிமன்றம் வரவில்லை. ஒருவார காலம் அவகாசம் தந்தால் நீதிமன்றத் தில்
என் கட்சிக்காரரை ஒப்படைக்கிறேன் என்றார். </p><p>
</p><p>
போலீசுக்கு உத்தரவு </p><p>
</p><p>
இதை விசாரித்த நீதிபதிகள் வருகிற 30 ந்தேதி நாகப்பாவை ஆஜர்படுத்தும்படி டி.ஜி.பி.க்கு
உத்தரவிடுகிறோம். அன்றையதினம் இந்த வழக்கு விசா ரணைக்கு எடுத்துக் கொள்ளப் படும் என்று
உத்தரவிட்டனர். </p>

<p> </p>

<p>இருதய ஆபரேசனுக்கு பிறகு
கடினவேலை செய்யலாம்</p>

<p> </p>

<p>புதுடெல்லி, நவ.28- இருதய ஆபரேசன் செய்து கொண்டவர்கள்
பெரும்பாலும் வீட்டில் கொலு பொம்மைகள் போலவே இருப்பர். ஆனால் அவ்வாறு இருக்ககூடாது என்று
உலகின் சிறந்த இதய நிபுணர்கள் கூறுகின்றனர். கடின வேலைகள் செய்யலாம் ஆபரேசன் செய்த
முதல் 4 வாரத்தில் தோட்டத்தில் நடக்கலாம். செடிகளுக்கு தண்ணீர் பாய்ச்சலாம். 4
வாரத்திற்கு பின் துணிகளை அயர்ன் செய்யலாம். பாத்திரம் கழுவலாம். செஸ் விளையாடலாம்.
6-வது வாரத்தில் வீட்டை சுத்தம் செய்யலாம். கார் ஓட்டலாம். துணி துவைக்கலாம். 3
மாதத்திற்குள் முழு பலத்தையும் அடைந்து விடலாம். என்று அவர்கள் கூறி யுள்ளனர். </p><p>
</p><p>
</p><p>
</p><p>
டார்ஜிலிங் உலக சுற்றுலா மையம் ஆனது </p><p>
</p><p>
டார்ஜிலிங், நவ.28- டார்ஜிலிங் பகுதியின் மலை ரெயில் பாதையை உலக பாரம்பரிய சுற்றுலா
தலமாக யுனெஸ்கோ அங்கீகரித்துள்ளது. இந்த மலை பாதையில்ஓடும் ரெயிலை, டாய் (பொம்மை)
ரெயில் என்று அழைக்கின்றனர். ஆஸ்திரியா நாட்டின் ஆல்ப்ஸ்மலை ரெயில் பாதைக்கு
அடுத்தப்படி யாக இந்த பெருமையை டார்ஜிலிங் மலை ரெயில் பாதை பெற்றுள்ளது. வௌிநாட்டு
சுற்றுலா பயணிகளை பெரும் எண்ணிக்கையில் டார்ஜிலிங் மலை ரெயில் பயணம் கவர்ந்து
இழுக்கிறது. </p><p>
</p><p>
ஹஜ் பயணிகளுக்கு புதிய இண்டர்நெட் தகவல் தளம் </p><p>
</p><p>
புதுடெல்லி, நவ.28- இந்திய ஹஜ் பயணிகள், புனித மெக்கா பயணம் மேற் கொள்ள சரியான வழி
காட்டுதலின்றி மிகுந்த சிரமத்திற்கு உள்ளாக நேரிடுகிறது. இதனை போக்கும் விதமாக இண்
டர்நெட்டில் ஹஜ் பயணிகளுக்கு என்று புதிய இண்டர்நெட் தளம் தொடங்கப் பட்டுள்ளது. இந்த
வெப் தளத்தில் விசா, மெக்கா நகரம் பற்றிய தகவல் மற்றும் இந்திய ஹஜ் பயணிகளுக்கு தேவையான
அனைத்து விபரங்களும் இடம் பெற்றுள்ளன. ழறுறுசூ://.்மறி்கழுழுஒழ.்ஜ் , என்ற இண்டர்நெட்
இணையத்தில் தொடர்பு கொண்டு அனைத்து விவ ரங்களையும் தெரிந்து கொள்ளலாம். </p><p>
</p><p>
மாட்டு வண்டி பாகங்களால் உருவான கலைக்கண்காட்சி </p><p>
</p><p>
புதுடெல்லி, நவ.28- நாட்டில் பழைய மாட்டு வண்டி பாகங்களால் செய்த பொருட்கள் மக்கள்
மத்தியில் பெரும் வரவேற்பை பெற்றுள்ளது. பழமையை புதுமையாக்கும் நிகழ்ச்சியாக டெல்லி
குடிசை தொழில் வாரிய அமைப்பு கடைசியாக எப்போது மாட்டு வண்டியில் சென்றீர்கள் என்ற
தலைப்பில் ஒரு கண்காட்சியை நடத்தியது. இதில் கை வினைஞர்கள், பழைய மாட்டு
வண்டியின் பாகங் களை கொண்டு அழகிய வீட்டு சாதன பொருட்கள், கலைப்பொருட்களை செய்து
கண்காட்சியில் வைத்தனர். நாற்காலி, பெஞ்சு மற்றும் ராஜஸ் தானிய பெண் சிலை,
இசையை ரசிக்கும் ராஜா, சிறிய அழகான மாட்டு வண்டி என கண்காட்சி காண்போரை கிராமிய
உலகிற்கு இழுத்து சென்றது. </p>

<p> </p>

<p>திருப்பதி கோவிலில் ஒரே
பக்தர் ரூ.21 லட்சம் காணிக்கை</p>

<p> </p>

<p>திருப்பதி,நவ.28- திருப்பதி ஏழுமலையானை தரிசிக்க நாடுமுழுவதிலும்
இருந்து வரும் ஆயிரக்கணக்கான பக்தர்கள் தங்கள் வேண்டுதலாக கோவில் உண்டியலில் காணிக்கை
செலுத்தி வருகிறார்கள். அவர்களில் ஒரே பக்தர் மட்டும் ரூ.21 லட்சம் காணிக்கை செலுத்தி
உள்ளார். 500 ரூபாய் என 42 கட்டுகளை அவர் உண்டியலில் போட்டு உள்ளார். உண்டியல் பணம்
எண்ணும் மரக்காணி கூடத்தில் அந்த உண்டியல் பிரித்து பணம்் கணக்கிடும் போது இது
தெரியவந்தது. இந்த பணத்தை காணிக்கை செலுத்திய பக்தர் யார் என்று தெரியவில்லை. </p>

<p> </p>

<p>திருமதி. கிறிஸ்துமஸ்
தாத்தா</p>

<p>
 
 
  
  
  
  
  
  
  
  
  
  
  
  
 
 
 

 
<gap desc="illustration"></gap></p>

<p>இது ஆண்ஆதிக்க உலகம் என்பது தெரிந்த சங்கதி. கிறிஸ்துமஸ் தாத்தா
(சாண்டா கிளாஸ்) விஷயத்திலும் இந்த ஆணாதிக்கம் நீடிக்கிறது. கிறிஸ்துமஸ் தாத்தா
என்பவர் ஆண்டி வடிவம் ஆவார். பெண்கள் யாரும் கிறிஸ்துமஸ் தாத்தாவாக (மன்னிக்கவும்)
கிறிஸ்துமஸ் பாட்டியாக இதுவரை வேடம் போட்டதில்லை. இந்தநிலையில் முதன்முதலாக இந்த மரபை
நியூயார்க்கில் மீறியிருக்கிறார்கள். அங்கே. கிறிஸ்துமஸ் தாத்தாவுக்கு போட்டியாக
திருமதி. கிறிஸ்துமஸ் தாத்தா என்ற வேடத்தை ஒரு மாடல் அழகிக்கு போட்டு அவரை
கண்காட்சியில் நிறுத்தி வைத்தார்கள். </p>

<p>புளூமிங்டேல் பகுதியில் உள்ள ஒரு கடையில் இந்த அழகி நிறுத்தப்பட்டார்.
முன்னதாக மாடல் அழகிக்கு மேக்கப் வேலை மும முரமாக நடந்தபோது எடுத்த படம் இது. 2
ஒப்பனைக்கலைஞர்கள் பணியில் ஈடுபட்டுக்கொண்டிருப்பதை படத்தில் காணலாம்.
</p>

<p>வலை ஆடையில் வந்த மாடல் அழகி </p>

<p>
 
<gap desc="illustration"></gap></p>

<p>கண் வலையை வீசி ஆண் களை பிடிப்பதில் பெண்கள் சிலர்
கைதேர்ந்தவர்கள் என் பது தெரிந்த சங்கதி. ஆனால் படத்தில் ஒரு மங்கை அவ ராகவே வலையில்
மாட்டிக் கொண்டது போல தெரி கிறதே. அதுதான் இல்லை. அழகியை சுற்றியிருப்பது வலையல்ல.
ஆடை. சீனாவின் நானிங் நகரத்தில் நடந்த ஆடைஅலங் கார கண்காட்சியில்தான் இப்படி ஒரு
வலைஆடையை மாட்டி வந்து பார்வையாளர் களை சிக்கென்று பிடித்தார் இந்த மாடல் அழகி. இந்த
ஆடை அலங்கார கண்காட்சியில் இதுபோல சுமார் 2 ஆயிரம் நூதன ஆடைகள் இடம்பெற்றன. வலையில்
சிக்கிய பெண் மயில் ஒன்று ஓரி முருங்க பீலி சாய பட்ட அவதியை சங்க கால தமிழ்ப்பாடல்
ஒன்று விளக்குகிறது. அந்த பாடலை நினைவூட்டுகிறது இந்த படம். </p>

<p>ஸ்பெயினை குலுக்கிய குதிரை கண்காட்சி </p>

<p>
 
<gap desc="illustration"></gap></p>

<p>ஸ்பெயின் நாட்டில் உள்ள செவில்லி நகரத்தில் பூகம்பமே வந்தாலும்
சரி ஆண்டுதோறும் ஒரு தடபுடல் குதிரைக்கண் காட்சியை நடத்தி விடுவார்கள். இந்த ஆண்டும்
வழக்கம்போல சர்வதேச குதிரைக்கண்காட்சி நடந்தது. ஆயிரக்கணக்கான மக்கள் திரண்டு வந்து
அதை பார்த்து ரசித்தனர். </p>

<p>அதில் ஸ்பெயின் நாட்டைச்சேர்ந்த ஒருவர் தனது 2 குதிரைகளை நன்றாக பழக்கி
அவற்றின் மூலம் வித்தை காட்டினார். அவர் ஆட்டி வைத்தபடி குதிரைகள் கை கால்களை ஆட்்டி
(குதிரைக்கு ஏது கை?)வித்தை காட்டியதை படத்தில் காணலாம். </p>

<p> </p>

<p>சபரிமலையில் இன்று</p>

<p> </p>

<p>காலை 4 மணி-நடைதிறப்பு </p><p>
</p><p>
4.05மணி-நிர்மால்ய தரிசனம் </p><p>
</p><p>
4.15-மணி-கணபதிஹோமம் </p><p>
</p><p>
4.30மணி-நெய் அபிசேகம் </p><p>
</p><p>
7.30மணி-உஷபூஜை </p><p>
</p><p>
11.30மணி-உச்சபூஜை </p><p>
</p><p>
12.30மணி-உற்சவபலி </p><p>
</p><p>
மாலை6.30-தீபாராதனை </p><p>
</p><p>
இரவு 7மணி-புஷ்பாபிசேகம் </p><p>
</p><p>
9.30மணி-அத்தாழபூஜை </p><p>
</p><p>
10மணி-புதபலி </p><p>
</p><p>
11மணி-நடைஅடைப்பு </p>

<p> </p>

<p>பாராளுமன்ற செய்திகள்</p>

<p> </p>

<p>வேம்பு தேசிய மரம் ஆக்கப்படுமா? </p><p>
</p><p>
வேப்ப மரத்தை தேசிய மரமாக்க அரசு நடவடிக்கை மேற்கொள்ளுமா என்று மக்களவையில் நேற்று
கேட்கப்பட்டது. இதற்கு பதில்் அளித்த சுற்றுப்புறச்சூழல் மந்திரி டி.ஆர்.பாலு அப்படி ஒரு
திட்டம் அரசிடம் இல்லை என்று கூறினார். </p><p>
</p><p>
மற்றொரு கேள்விக்கு பதில் அளித்த அவர், இந்தியாவில் 4181 புலிகள், 7229 சிறுத்தைகள்,
29 ஆயிரத்து 10 யானைகள் உள்ளன. இது 1997 ம் ஆண்டு கணக்கு ஆகும் என்றார். </p><p>
</p><p>
</p><p>
</p><p>
டெலிபோன் வருவாய் குறைந்தது </p><p>
</p><p>
இந்தியாவில் டெலிபோன் பயன்படுத்துவது குறைந்து வருகிறது. அதே போல டெலிபோன் துறைக்கு
கிடைக்கும் வருவாயும் குறைந்து விட்டது. கிராமப்புறங்களுக்கு குறைந்த கட்டணம், டெலிபோன்
எண்ணிக்கை அதிகரித்தது, நெருக்கடி நேரத்தில் கட்டணம் குறைக்கப்பட்டது ஆகியவையே இந்த
வருவாய் குறைவுக்கு காரணம் என்று கண்டறியப்பட்டு உள்ளது. இந்த தகவலை தொலை தொடர்புத்
துறை இணை மந்திரி தபான் சிக்தர் தெரிவித்தார். </p><p>
</p><p>
</p><p>
</p><p>
குற்றத்துக்கு ஏற்ப தண்டனை </p><p>
</p><p>
போதைப்பொருள் விற்பவர்கள், கடத்துபவர்கள், பயன்படுத்துபவர்களுக்கு வழங்கப்படும்
தண்டனையை ஒரே மாதிரியாக இல்லாமல் குற்றத்துக்கு ஏற்ப தண்டனை அளிக்க அரசு முடிவு செய்து
உள்ளது. இதற்காக தாக்கல் செய்யப்பட்ட சட்ட திருத்த மசோதா நேற்று மாநிலங்களவையில்
குரல் வாக்கெடுப்பு மூலம் நிறைவேற்றப்பட்டது. இதன்படி போதைப் பொருள் விற்பவர்களுக்கு
வழங்கப்படும் கடும் தண்டனை அப்படியே நீடிக்கிறது. அதே சமயத்தில் சிறிய அளவில் குற்றங்கள்
செய்தவர்கள், போதைப் பொருள் அடிமைகளுக்கு குறைந்த பட்ச தண்டனை வழங்கலாம் என்றும் இந்த
மசோதாவில் கூறப்பட்டு உள்ளது. முன்னதாக இந்த விவாதத்தில் பேசியவர்கள், பள்ளி மற்றும்
கல்லூரிகளுக்கு வௌியே போதைப் பொருள் விற்பவர்களுக்கு கடும் தண்டனை வழங்க வேண்டும் என்று
வலியுறுத்தினர். </p><p>
</p><p>
</p><p>
</p><p>
5 கோடி பேர் உடல் ஊனமுற்றவர்கள் </p><p>
</p><p>
இந்தியாவில் 5 கோடி பேர் ஏதாவது ஒரு வகையில் ஊனமுற்றவர்களாக உள்ளனர். இது மொத்த
மக்கள் தொகையில் 5 சதவீதம் ஆகும். தற்போதைய சூழ்நிலையில் அனைவருக்கும் மறுவாழ்வு
இல்்லங்கள் அமைப்பது என்பது முடியாது. இருப்பினும் அவர்களின் நலனுக்காக புதிய திட்டங்கள்
அமுல்படுத்தப்பட்டு வருகின்றன என்று சமூக நீதித் துறை இணை மந்திரி மேனகா கூறினார். </p><p>
</p><p>
</p><p>
</p><p>
விவசாயிகள் தற்கொலைக்கு அரசே காரணம் </p><p>
</p><p>
விவசாயிகளுக்கு விரோதமான கொள்கைகளை அரசு கடைப்பிடிப்பதால் தான் அவர்கள் தற்கொலை
செய்கிறார்கள் என்று மாநிலங்களவையில் நேற்று காங்கிரஸ் குற்றம் சாட்டியது. தற்போது 4.5
கோடி டன் உணவுதானியங்கள் கையிருப்பில் உள்ளது. இதை குறைக்கவேண்டும் என்றால் வேலைக்கு
உணவு திட்டத்தை அமுல்படுத்த வேண்டும் என்று எதிர்க்கட்சித் தலைவர் மன்மோகன்சிங்
யோசனை கூறினார். </p>

<p> </p>

<p>தீ - தண்ணீரில் விளையாடும்
வினோத கேரள சிறுமி</p>

<p> </p>

<p>பழநி, நவ.28- கேரள மாநிலம் அங்கமாலியைச் சேர்ந்தவர்
சந்திரன். இவரது மனைவி ரதிசந்திரன். மரம் ஏறும் தொழிலாளி. இவர்களுக்கு அதிரா என்ற 6
வயது பெண் குழந்தை உள்ளது. இந்தக் குழந்தை பிறந்த 15 தினங்களில் அதிராவிற்கு ஜன்னி
கண்டது. இது வரை பேசவில்லை. இந்தக் குழந்தை வினோத மான குரலில் ஒலி எழுப்பும். சாப்பிட
எது கொடுத்தாலும் மென்று தின்று சாப்பிடாமல் அப்படியே விழுங்கி விடும். </p><p>
</p><p>
இதில் மற்றொரு வேதனை என்ற வென்றால் அதிராவிற்கு 3 வயது ஆனவுடனேயே தீயை பார்த்தலும்,
தண்ணீரை பார்த்தாலும் அப்படியே அதன் மீது விழுந்து விடும். அதனால் இந்தக் குழந்தையின்
பெற்றோர்கள் முதலில் துணியால் குழந்தையை கட்டிப் போட்டு வளர்த்து வந்தனர். வயது ஆக ஆக
தன்னுடைய கட்டை அவிழ்த்து விட்டு தீக்குள்ளும், கிணற்றுக்குள்ளும் விழுந்து விடும். </p><p>
</p><p>
3முறை கிணற்றில் விழுந்த சிறுமியை காப்பாற்றி உள்ளனர். அதன் பிறகு கெட்டிச் சங்கிலியால்
கட்டி வளர்த்து வருகிறார்கள். இவர்கள் பார்க்காத வைத்தியம் இல்லை. குழந்தைக்கு ஜன்னி
வந்தபோது மூளை பாதிக்கப்பட்டதால் தான் இந்த நிலை ஏற்பட்டுள்ளது என்று டாக்டர்கள்
கூறுகிறார்கள். தினசரி மருந்து கொடுக்கப்படுகிறது. ஒரு நாள் மருந்து கொடுக்கவில்லை என்றாலும்
வேதனை தாங்காமல் உயிருக்கு துடிக்கின்ற அளவிற்கு ஓலம் இடும். </p><p>
</p><p>
சந்திரன் தனது ஒரே மகள் குணமாக வேண்டும் என்று தன்னுடைய வீட்டை விற்றுக்கூட வைத்தியம்
பார்த்துவிட்டார். ஆனால் குணம் மட்டும் ஆகவில்லை. </p>

<p> </p>






</body></text></cesDoc>