<cesDoc id="mal-w-science-geography-5samu2" lang="mal">
<cesHeader type="text">
<fileDesc>
<titleStmt>
<h.title>mal-w-science-geography-5samu2.txt</h.title>
<respStmt>
<respType>Electronic file created by</respType>
<respName>Central Institute for Indian Languages, Mysore</respName>
<respType>transferred into Unicode and CES format by</respType>
<respName>"Unicodify" software by Andrew Hardie</respName>
</respStmt></titleStmt>
<publicationStmt>
<distributor>UCREL (on behalf of CIIL)</distributor>
<pubAddress>Department of Linguistics, Lancaster University, Lancaster, LA1 4YT, UK</pubAddress>
<availability region="WORLD"></availability>
<pubDate>03-07-21</pubDate>
</publicationStmt>
<sourceDesc>
<biblStruct>
<monogr>
<h.title>രാമകൃഷ്ണന്഼ പാലാട്ട്</h.title>
<h.author>സമുദ്രജന്തുഭൂമിശാസ്ത്രം</h.author>
<imprint>
<pubPlace>India</pubPlace>
<publisher>Unknown - Book</publisher>
<pubDate>1981</pubDate>
</imprint>
<idno type="CIIL code">5samu2</idno>
</monogr></biblStruct></sourceDesc></fileDesc>
<encodingDesc>
<projectDesc>Text collected for the CIIL Corpus, subsequently integrated into the EMILLE/CIIL Monolingual Written Corpora.</projectDesc>
<samplingDesc>Simple written text only has been transcribed. Diagrams, pictures and tables have been omitted. Sampling begins at page 25.</samplingDesc>
<editorialDecl><conformance level="1"></conformance></editorialDecl>
</encodingDesc>
<profileDesc>
<creation><date>03-07-21</date></creation>
<langUsage>Malayalam</langUsage>
<wsdUsage>
<writingSystem id="ISO/IEC 10646">Universal Multiple-Octet Coded Character Set (UCS).</writingSystem>
</wsdUsage>
<textClass>
<channel mode="w">print</channel>
<constitution type="composite"></constitution>
<domain type="public"></domain>
<factuality type="fact"></factuality>
</textClass>
<translations></translations>
</profileDesc>
<revisionDesc></revisionDesc>
</cesHeader>

<text><body>
<p>-123-
6
    ഉത്തര അററ്ലാന്഼റിക്കിലെ
ബോറിയല്഼ ജന്തുജാലം</p>

<p>  കഴിഞ്ഞ അധ്യായത്തില്഼ ഉഷ്ണശീതോഷ്ണ യൂറോപ്യന്഼ ജന്തുജാലത്തെക്കുറിച്ചും
ആഫ്രിക്കന്഼ അററ്ലാന്഼റിക് കരയോര ജന്തുജാലത്തെക്കുറിച്ചും സര്഼വേ~
ക്ഷണം നടത്തിയല്ലോ. ഇനി നമുക്കു് ബോറിയല്഼ ജന്തുജാലം എന്നറിയപ്പെ~
ടുന്ന ശൈത്യശീതോഷ്ണ അറ഼റ്ലാന്഼റിക് ജന്തുജാലത്തിലേക്കു് ശ്രദ്ധ തിരിക്കാം.
യൂറോപ്യന്഼ ബോറിയല്഼ ജന്തുജാല഼ത്തെയും അമേരിക്കന്഼ ജന്തുജാലത്തെയും
ഒന്നിച്ച് ഒരു ഘടകമായി എടുക്കാമെങ്കിലും അവയെ പ്രത്യേകമായി വിവരിക്കു~
വാനാണു് നാം ഉദ്ദേശിക്കുന്നതു്.
  
   എ. യൂറോപ്യന്഼ അററ്ലാന്഼റിക്കിലെ
   ബോറിയല്഼ ജന്തുജാലം</p>

<p>  ചില കാര്യങ്ങളില്഼, ലോകത്തില്഼ വെച്ചു് ഏററവുമധികം പഠിക്കപ്പെട്ടി~
ട്ടുള്ള ഒരു ജന്തുജാലമാണു് ഇതു്. എന്നാല്഼ നമ്മുടെ അറിവുകള്഼ എത്ര 
#സമീപ~
കാലത്തുണ്ടായതാണെന്നു നോക്കൂ 18 വയസ്സ് പ്രായമുള്ളപ്പോള്഼ ജോര്഼ജിസ്
ക്യൂവിയര്഼, 1788-ല്഼ നോര്഼മാണ്ടിതീരങ്ങളില്഼ ജന്തുജാലപഠനത്തിനായി നട~
ത്തിയ യാത്രയില്഼ രണ്ടായിരത്തില്഼ പരം വര്഼ഷം പഴക്കമുളള അരിസ്റേറാട്ട~
ലിന്഼റെ രേഖകളാണു് പ്രമാണമായി ഉപയോഗിച്ചതു്.</p>

<p>1. സാധാരണ ലവണതയുള്ള കടല്഼ജലത്തിലെ
   ജന്തുജാലം</p>

<p>  ഉത്തര അററ്ലാന്഼റിക്കില്഼ ക്രമബദ്ധവും ജന്തുഭൂമിശാസ്ത്രപവരുമായ അഩ്വേ~
ഷണങ്ങള്഼ ആരംഭിച്ച സമയത്തു തന്നെ ബോറിയല്഼ മേഖലയെ ഒരു പ്രത്യേക
മേഖലയായി കുരിതിയിരുന്നു. ഇത്തരം അന്വേഷണങ്ങള്഼ ആദ്യമായി നട഼ത്തിയവര്഼
--124-
മില്഼നി-എഡ്വര്഼ഡ് (1838) ലോവന്഼ (1846) ഷ്മാര്഼ഡ (1853),
വുഡ്വാര്഼ഡ് (1856) മൈക്കല്഼സാര്഼ന്നു് (1851) ഫോര്഼ബ്സ് (1859).ജി
ഒ.സാര്഼സ് (1879) എന്നിവരായിരുന്നു. ലോവനാണു് ആദ്യമായി സ്പീഷീസു~
കളെ ഉത്തരധ്രുവ , ബോറിയല്഼ , ലൂസിടാനിയന്഼, മധ്യധരണ്യാഴി എന്നിങ്ങനെ
തരംതിരിച്ചതു്. എന്നാല്഼ അദ്ദേഹം ഈ പദങ്ങളായിരുന്നില്ല ഉപയോഗിച്ചി~
രുന്നതു്. പിന്നീടു വന്ന അന്വേഷകര്഼ നമ്മുടെ അറിവ് വളരെ വര്഼ധിപ്പിച്ചു.
വടക്കന്഼ സമുദ്രം കേന്ദ്രമായിട്ടുള്ള ബോറിയല്഼ അററല഼കന്഼റിക് മേഖ഼ല പോലെ
മറെറാരു സമുദ്രമേഖലയും പഠിക്കപ്പെട്ടിരിക്കില്ല. എന്നാല്഼ വിരോധാഭാസ~
മായി തോന്നാമെങ്കിലും ബോറിയന്഼ മേഖലയെ അതിരു തിരിക്കുന്നതാണു്
മററ് മേഖലകളെ അതിനു തിരിക്കുന്നതിലും വിഷമം. ഈ വിഷമം അനുഭവ~
പ്പെടുന്നതു് ഈ മേഖലയെ കുറിച്ചു് വേണ്ടത്ര അറിവില്ലാഞ്ഞിട്ടല്ല. പക്ഷേ
പ്രകൃതിയുടെ സ്ഥിതി കാരണമാണു്.</p>

<p>അതിര്഼ത്തികള്഼</p>

<p>  മധ്യധരണ്യാഴി-അററ്ലാന്഼റിക് തീരജലത്തിലെ നിരവധി ജന്തുക്കളുടെ
ഇംഗ്ലീഷ് കനാലിലേക്കുള്ള തെക്കു പടിഞ്ഞാറന്഼ പ്രവേശനമാര്഼ഗം തന്നെ~
യാണു് ഈ മേഖലയുടെ വടക്കന്഼ അതിര്഼ത്തിഎന്നു നാം കണ്ടുവല്ലോ എന്നാല്഼
പല ജന്തുക്കളെയും ഇതിനു് വടക്കുഭാഗത്തും കാണപ്പെടുന്നുണ്ടു്. അതുപോലെ
തന്നെ ഉത്തരധ്രുവീയവിതരണമുള്ള പല ജാതികളും ബോറിയല്഼ മേഖലയി~
ലേക്കു കടന്നതായും കാണാം. ജന്തുഭൂമിശാസ്തപരമായ അന്വേഷണങ്ങളുടെ
ആദ്യകാലങ്ങളില്഼, അടുത്തുള്ള മേഖലകളിലെ ജാതികള്഼ കാണാനില്ലാതാകുന്ന
സ്ഥലത്തെയാണു് ശാസ്ത്രജ്ഞര്഼ അതിര്഼ത്തിയായി കണക്കാക്കിയിരുന്നതു്.
ഇതിലും ഉചിതം ദേശ്യജാതികള്഼ കാണപ്പെടുന്ന സ്ഥലവും അവയുടെ വിത`
രണ അതിരുകളും കണക്കാക്കുന്നതാണു്. ബോറിയല്഼ മേഖലയില്഼ നിരവധി
ദേശ്യജന്തുക്കളുണ്ടെന്നും അവയുടെയെല്ലാം വിതരണകേന്ദ്രം വടക്കന്഼ സമുദ്രമാ~
ണെന്നും കണ്ടുവല്ലോ. യൂറോപ്യന്഼ തീരത്തില്഼ ഈ വിതരണത്തിനു് ഫലപ്രദ~
മായ രോധിക഼കള്഼ ഒന്നുംതന്നെയില്ല.അതിനാല്഼ അവിടെ കൃത്യമായ
അതിര്഼ത്തി പ്രതീക്ഷിക്കുവാന്഼ വയ്യ. ബോറിയല്഼ മേഖലയ്ക്കു ചുററുമായി,
ആ മേഖലയിലെയും അയല്഼ മേഖലകളിലെയും ജന്തുക്കള്഼ ഉള്ള ഒരു മാധ്യമിക
മേഖലയുണ്ടു്.</p>

<p>  ഗ്രേററ് ബ്രിട്ടനു് തെക്കുപടിഞ്ഞാറായും ഫ്രാന്഼സിനു് വടക്കു 
#പടിഞ്ഞാറാൟു~
മാണു് തെക്കന്഼ മാധ്യമിക മേഖല സ്ഥിതിചെയ്യുന്നതു്. പ്രാചീന ജന്തുഭൂമി
ശാസ്ത്രജ്ഞര്഼, വടക്കുഭാഗത്തെ അതിര്഼ത്തി ഉത്തരധ്രുവീയ വൃത്തത്തിലാണെ~
ന്നാണു് കരുതിയിരുന്നതു്. ജ്യോതിശാസ്ത്ര-ഭൂമിശാസ്ത്രപരമായ രേഖയെ, ജന്തു~
ഭൂമിശാസ്ത്രപരമായ അതിര്഼ത്തിയായി കണക്കാക്കുന്നതിനു് ഉദാഹരണമാണു്
ഇതു്. ഈ തെററ് തന്നെ ഇപ്പോഴും ചിലപ്പോള്഼ ആവര്഼ത്തിക്കപ്പെടാറുണ്ടു്.
മൈക്കല്഼ സാര്഼സ് 1851ലും, അദ്ദേഹത്തിന്഼റെ മകന്഼ ജി.ഒ സാര്഼സ്
-125-
1879 ലും കൂടുതല്഼ വ്യക്തമായ വടക്കന്഼ ജന്തുജാലം വടക്കന്഼ മുനന്പ് മേഖല~
യില്഼ നിന്നാണു് തുടങ്ങുന്നതെന്നും, ഇതിനു കിഴക്കുള്ള മേഖല 
#ഉത്തരധ്രുവമേഖല~
യിലേക്കുള്ള മാററം സംഭവിച്ചുകൊണ്ടിരിക്കുന്ന ഒരു മേഖലയാണെന്നും പ്രസ്താ~
വിച്ചു. എക്കിനോഡെര്഼മുകളെ സംബന്ധിച്ചിടത്തോളം ഉത്തരധ്രുവജന്തു
ജാലത്തെ ആദ്യമായി കാണുന്നതു് നോര്഼വെയുടെ വടക്കും കിഴക്കും 
#ഭാഗങ്ങളിലാ~
ണെന്നു് ഗേയ്ഗ്, ഈസ്ററര്഼ജെന്഼ എന്നിവ഼ര്഼ സൂചിപ്പിച്ചു. ബാറന്഼റ്സ്
കടലിന്഼റെ തെക്കുകിഴക്കെ ഭാഗമായ കിഴക്കന്഼ ഫിന്഼മാര്഼ക്കു്, ""വെള്ള കട~
ലി"" ന്഼റെ ആഴം കുറഞ്ഞ ഭാഗം, വടക്കും കിഴക്കും ഐസ്ലാന്഼ഡ്, 
#ഗ്രീന്഼ലാ~
ന്഼ഡിന്഼റെ ഏററവും തെക്കുപടിഞ്ഞാറന്഼ ഭാഗം, ഷെററ്ലാന്഼റിനും ഫോറി~
ദ്വീപിനും ഐസ്ലാന്഼ഡിനും ഇടയിലുള്ള മുങ്ങിക്കിടക്കുന്ന വരന്പ് എന്നിവ
ചേര്഼ന്നു് ഒരു ബോറിയല്഼ ഉത്തരധ്രുവ മേഖല ഉണ്ടാക്കുന്നു എന്നു്
#അപ്പല്ലോഫ്
അഭിപ്രായപ്പെടുന്നു. ഈ മേഖലയെ ഉപഉത്തരധ്രുവ മാററ മേഖലയെന്നു വിളി~
ക്കുന്നതാവും കൂടുതല്഼ ഉചിതം. ഹോഫ്സ്ററന്഼ സൂചിപ്പിക്കുന്നതുപോലെ ഈ
മേഖലയില്഼ ദേശ്യജാതികള്഼ തീരെ ഇല്ല. അതിനാല്഼ ഇതു് ഒരു മാധ്യമിക~
മേഖല മാത്രമാണു്. എങ്ങനെ ആയാലും പ്രസിദ്ധ മസ്സല്഼ ആയ പെക്ടന്഼ ഐ
ലാണ്ടിക്കസിനെ ഒരു പ്രധാന ഉപ ഉത്തരധ്രുവീയ സ്പീഷീസായി കരുതാം.
ഐസ്ലാന്഼ഡ് അതിന്഼റെ തെക്കും പടിഞ്ഞാറും ഭാഗങ്ങ഼ാല്഼ ഭാഗികമായി
ബോറിയല്഼ മേഖലയില്഼ പെടുന്നു; ഭാഗികമായി ഉപഉത്തരധ്രുവ മേഖലയില഼ും.
ഇതിലെ ജന്തുജാലത്തെക്കുറിച്ചു് പല ശാസ്ത്രജ്ഞരും അന്വേഷണം നടത്തിയി~
ട്ടുണ്ടു്. ഇവരെല്ലാം ചേര്഼ന്നു് ""സുവോളജി ഓഫ് ഐസ്഼ലാന്഼ഡ്"" എന്ന 
#ഒരു
പുസ്തകവും തയ്യാറാക്കിയിട്ടുണ്ടു്.</p>

<p>ജലരാശിയും കാലാവസ്ഥയും
 
   ഒരു വര്഼ഷത്തില്഼ ഏററവും തണുപ്പുള്ള മാസങ്ങളിലെയും, ഏററവും ചൂടുള്ള
മാസങ്ങളിലെയും താപനിലയുടെ മാധ്യം പരിശോധിച്ചാല്഼, ആ അതിര്഼ത്തി~
മേഖലയിലെ ഉപരിതല ജലത്തിന്഼റെ താപം വ്യക്തമാക഼ാം.
-126-
ഇവിടെ ജന്തുജാലപരമായ അതിരുകള്഼ വ്യക്തമായി കാണുവാന്഼ കഴിയാ~
ത്തതു് വടക്കതെക്കായി ക്രമേണ താപം മാറുന്നതു കൊണ്ടുമാത്രമല്ല, ബോറി~
യല്഼ മേഖലയില്഼ മററ് അറര്ലാന്഼റിക് കര മേഖലകളില്഼ ഉള്ളതിലും കൂടുത~
ലായി വര്഼ഷത്തില്഼ താപനിലയില്഼ മററംവരുന്നതു കൊണ്ടു കൂടിയാണു്
ഇത്തരത്തിലുള്ള താപവ്യത്യാസസങ്ങളുടെ ജന്തുഭൂമിശാസ്ത്രപരമായ പ്രാധാന്യം
#ആദ്യ~
മായി സൂചിപ്പിച്ചതു് അപ്പല്ലോഫ്. റീബിഷ് എന്നീ ശാസ്ത്രജ്ഞരാണു്.
ലോഫോട്ടന്഼ ദ്വീപുകളുടെ ഇടയില്഼ 63 degree വടക്കില്഼ ഉപരിതലജത്തിന്഼റെ
താപം 10 degree -12 degree യും വടക്കന്഼ കടലിന്഼റെ തെക്കുകിഴക്കു ഭാഗത്തു്
#10 degree യിലെ`
ധികവും കാലിഗട്ടില്഼ 15 degree യും ബാള്഼ട്ടിക്കില്഼ 16 degree വരെയും ആണു്.
#ഇതില്഼
നിന്നും സ്ററിനോതെര്഼മലും ബാക്കി സമയങ്ങളില്഼ യൂറിതെര്഼മലും ആയ ഉത്തര
ധ്രുവ ജന്തുക്കള്഼ക്കു് (ഇടത്തരത്തിലുള്ള ജന്തുക്കളുണ്ടു്- അവയെക്കുറിച്ചു് 
#ചുവടെ
പറയാം) പ്രവര്഼ധന സമയത്തു് ഉഷ്ണ-സ്ററിനോതെര്഼മല്഼ ആയി മാറുന്ന ദക്ഷിണ
യൂറിതെര്഼മല്഼ ജന്തുക്കളെപ്പോലെ, ബോറിയല്഼ മേഖലയുടെ ഒരേ സ്ഥാനത്തുതന്നെ
ജീവിക്കുവാന്഼ കഴിയുന്നു എന്നു മനസ്സിലാക്കാം. എന്നാല്഼ ഈ രണ്ടുതരം
#ജന്തു~.
ക്കള്഼ ശൈത്യകാലത്തു തെക്കന്഼ ജന്തുക്കള്഼ ഉഷ്ണകാലത്തും പ്രവര്഼ധനം 
#നടത്തുന്നു.
ജന്തുജ഼ാലപരമായ അതിരുകള്഼ അവ്യക്തമാവാന്഼ ഇതും തീര്഼ച്ചയായും കാരണ~
മാവാം. ഉഷ്ണസമുദ്രത്തിലും ശീതസമുദ്രത്തിലും സ്ഥിതി തികച്ചും വ്യതസ്ത~
മാണു്. ഉഷ്ണഅററലാന്഼റിക് സമുദ്രത്തില്഼, പല഼ ഭാഗങ്ങളിലും ഉപരിതല ജല~
ത്തിന്഼റെ താപത്തിലുള്ള വ്യത്യാസം വര്഼ഷത്തില്഼ ഏററവും കൂടിയതു് 2 Degree C #മാത്ര~
മാണു്. ഉത്തരധ്രുവത്തിലും ദക്ഷിണധ്രുവത്തിലും ഇതുതന്നെയാണു് സ്ഥിതി.
  
   100 മീററര്഼ ആഴത്തില്഼ ഈ വ്യത്യാസം ഗണനീയമല്ല. 300 മുതല്഼ 350
മീററര്഼ വരെ ആഴത്തില്഼ ഈ വ്യത്യാസം ഇല്ലെന്നുതന്നെ പറയാം. എന്നാല്഼
അതേസമയം കാലാവസ്ഥയില്഼ മാററം വരുന്നുണ്ടു്. 100-200 മീററര്഼ ആഴ~
ത്തില്഼ ഏററവും കൂടിയ താപം അനുഭവപ്പെടുന്നതു് ശൈത്യകാലത്താണു്.</p>

<p>  ബോറിയല്഼ മേഖലൟില്഼ പ്രമുഖമായിട്ടുള്ളതു് യൂറോപ്യന്഼ ഉള്഼ക്കടല്഼ 
#ഒഴു~
ക്കാണ഼ു്. ഇതു് ശരിയായ ഉള്഼ക്കടല്഼ ഒഴുക്കിന്഼റെ ഒരു ഭാഗം 
#മാത്രമായതിനാല്഼
ഇതിനെ വടക്കന്഼ അററ്ലാന്഼റിക് ഒഴുക്കു് എന്നാണു് സമുദ്രശാസ്ത്രജ്ഞര്഼
നാമകരണം ചെയ്തിരിക്കുന്നതു്. നോര്഼വെയുടെ ഏററവും വടക്കുഭാഗത്തു്
എത്തിയശേഷം, വടക്കന്഼ മുനന്പില്഼ വച്ചു്, ഈ ഒഴുക്കില്഼ നിന്നും
#ഒരുശാഖ
ബാരന്഼ട്സ കടലിന്഼റെ തെക്കു ഭാഗത്തേക്കു് ഒഴുകുന്നു. അങ്ങനെ 
#ഉത്തരധ്രുവ
ജന്തുജാലത്തിന്഼റെ വഴി തടയുന്നു. അതേസമയം മറെറാരു ശാഖ നേരെ വട~
ക്കോട്ട് ഒഴുകുകയും ചെയ്യുന്നു. അതിനാല്഼ പുറംകടലില്഼ നിന്നും 
#കരയിലേക്കു്
ഒഴുകുന്ന ജലം മധ്യ-അററ്ലാന്഼റിക്കിലേതായിരിക്കും. ഉത്തരധ്രുവജലം
കലര്഼പ്പില്ലാതെ ഒരിക്കലും തീരത്തില്഼ എത്തുന്നില്ല.</p>

<p>  നോര്഼വെയ്്ക്കു ഗ്രീന്഼ലാന്഼ഡിനും ഇടയിലുള്ള നോര്഼വീജിയന്഼ കടലിലെ 
#ഉത്ത~
മധ്രുവ ആഴജലം-ഇതിനു് ഈ സമുദ്രത്തിന്഼റെ തെക്കുഭാഗത്തു് 550-600 
#മീററര്഼
ആഴത്തില്഼ താപം സ്ഥിരമായി 0degree C ക്കു് താഴെയാണു്-സ്കാജി
റാക്കിന്഼റെയും പടിഞ്ഞാറെ നോര്഼വീജിയന്഼ സമുദ്രവങ്കത്തിന്഼റെയും
ഏററവും കൂടിയ ആഴങ്ങളിലേക്കു് എത്തുന്നു എന്നു് ഊഹിക്കാം. കാരണം
#ഈ
-128-
സമുദ്രവങ്കം പലപ്പോഴും 600 മീറററില്഼ കൂടുതല്഼ ആഴമുള്ളതാണു്. എന്നാല്഼ 
#ഈ
ഊഹം ശരിയല്ല. കാരണം, ഒന്നാമതായി ഈ സമുദ്രവങ്കത്തിന്഼റെ ആഴഭാഗ~
ങ്ങള്഼ നോര്഼വീജിയന്഼ കടലിലെ ആഴമേഖലകളില്഼ നിന്നും ഉയരമുള്ള `സില്഼'~കളാല്഼ വേര്഼തിരിക്കപ്പെട്ടിരിക്കുന്നു. രണ്ടാമതായി തീരത്തിനും 
#നോര്഼വീജിയന്഼
കടലിലെ ആഴപ്രദേശത്തിനും ഇടയിലുള്ള തീരക്കടലിന്നടിത്തട്ട് മുഴുവനും ഉള്഼~ക്കടല്഼ ഒഴുക്കിനാല്഼ മൂടപ്പെട്ടിരിക്കുന്നു . ഇതു് അപ്രകാരം ഒരു 
#ഒഴുകുന്ന മതിലായി
വര്഼ത്തിക്കുന്നു. സമുദ്രവങ്കങ്ങളിലെ 600-700 മീററര്഼ ആഴത്തിലെ ജലത്തിനു്
താരതമ്യേന നോര്഼വീജിയന്഼ കടലിലെ അതേ ആഴത്തിലെ ജലത്തിന്഼റേതിലും
കൂടിയ താപമാണുള്ളതെന്നു് ജല഼രാശിപരമായ അളവുകള്഼ കാണിക്കുന്നു.
#രണമായി 
-129-
തെക്കുപടിഞ്ഞാറന്഼ നോര്഼വീജിയന്഼ സമുദ്രവങ്കത്തില്഼ താപം 6.25degree C
-7 degree C വരെയാണു്. ഈ സമുദ്രവങ്കത്തിലെയും സ്കാജിറാക്കിലെയും ജലമോ,
ജന്തുജാലമോ ഉത്തരധ്രുവീയമല്ല. സോഗ്നി സമുദ്രവങ്കത്തില്഼ 1200 മീറററില്഼
കൂടിയ ആഴത്തിലും 6-7 degree C താപമുള്ള അററ്ലാന്഼റിക് ജലമുണ്ടു്.</p>

<p>   സ്കാജിറാക്കിന്഼റെയും കാററിഗാട്ടിന്഼റെയും ജലരാശി ഒരു പ്രത്യേക വിത~
രണം അര്഼ഹിക്കുന്നു. ഉത്തര സമുദ്രത്തില്഼ നിന്നും ഉത്ഭവിക്കുന്ന
ഉയര്഼ന്ന ലവണതയുള്ള (30-34% ഒരു ഉപരിതലപ്രവാഹം ജൂട്ലാന്഼റിന്഼റെ
തീരത്തീലുടെ ഒഴുകുന്നു.അതു് സ്വീഡിഷ് തിരത്തിലേക്കു് തിരിയുകയും
സ്കാജനില്഼ വച്ചു് അതിന്഼റെ ഒരു ശാഖ കാറരിഗാട്ടിലേക്കു് ഒഴുകുകയും
ചെയ്യുന്നു. സ്വീഡന്഼ തീരത്തു നിന്നുമകലെയായി ഇതു് ബാള്഼ട്ടിക് പ്രവാഹവും 
-130-
മായി കൂട്ടിമുട്ടുന്നു. ബാള്഼ട്ടിക് സമുദ്രത്തില്഼ നിന്നും ഉത്ഭവിക്കുന്ന 
#ഈ പ്രവാഹ~
ത്തിനു് ഗ്രീഷ്മകാലാന്ത്യത്തില്഼ ബെല്഼ട്ടിലും ഒറിസോണിലും ലാവണത
പത്തു ശതമാനത്തിനും പതിനഞ്ചു് ശതമാനത്തിനും മധ്യേയാണു്.
രണ്ടു പ്രവാഹങ്ങളും തീരത്തിലൂടെ കരയ്ക്കടുത്തായി ഒഴുകുന്നു. കൂടുതല്഼ 
#ലവ~
ണതയുള്ള ജലവുമായി കൂടിച്ചേര്഼ന്നു് ക്രമേണ ഇതിന്഼റെ ലവണതയും കൂടുന്നു.
എന്നാലും നോര്഼വെയുടെ തെക്കുകിഴക്കെ തീരത്തു നിന്നുമകലെയായി പുറം
ദ്വീപുസമൂഹത്തില്഼ ഇതു് 25% തൊട്ട് 30% വരെയും, നോര്഼വെയുടെ
തെക്കുപടിഞ്ഞാറെ തീരത്തിനുപ്പുറം 32%വും മാത്രമാണു് ലവണത.
ബൊഹസ്഼ലാനിനു് അപ്പുറം, ഈ ജൂട്ലാന്഼റ്-ബാള്഼ട്ടിക് പ്രവാ~
ഹത്തിന്഼റെ വേഗത ചിലപ്പോള്഼ 24 മണിക്കൂറില്഼ 65 കിലോമീററാണു്. ഉപരി
തല഼ ജലം അങ്ങനെ വലിയ ഒരു നിര്഼ച്ചുഴി ഉണ്ടാക്കുന്നു. ഒഴുക്കിന്഼റെ 
#സാധാ~
രണഗതിയില്഼ നിന്നുമുള്ള വ്യതിചലനങ്ങള്഼ സാധാരണമാണു്. അധഃസ്തരം
ഉപരിതലസ്തരത്തേക്കാള്഼ ലവണത കൂടിയതാണു്. പലപ്പോഴും പ്രത്യേകിച്ചു്
കാററിഗാട്ടില്഼, അധഃസ്തരം ഒരു ദിശയില്഼ ഒഴുകുന്പോള്഼, ഉപരിതല ജലം
#ഇതി~
ന്഼റെ വിപരീത ദിശയില്഼ ഒഴുകുന്നു. സ്കാജിറാക്കില്഼ പുറംകടലിലെ, ഏററവും 
#അടി~
യിലെ സ്തരം, പുറം അററ്ലാന്഼റിക്കില്഼ നിന്നു് ഉത്ഭവിക്കുന്നതും, 35 ശതമാന~
മെങ്കിലും ലവണതയുള്ളതുമായ ഒരു ജലവിഭാഗമാണു്. സ്കാജിറാക്കിന്഼റെ മധ്യ~
ത്തില്഼, ഉപരിതലത്തില്഼ നിന്നും 40 മീററര്഼ താഴെ ആകുന്പോള്഼, ഇതിന്഼റെ
മുകള്഼ അതിര്഼ത്തി തീരങ്ങളില്഼ നിന്നകലെ കൂടുതല്഼ താഴെയാണു് (ഏതാണ്ടു്
100 മുതല്഼ 150 മീററര്഼ വരെ ആഴത്തില്഼). അത്രതന്നെ ലവണ഼തയില്ലാത്ത ജലം,
അററ്ലാന്഼റിക് ജലത്തിനും തീരത്തിനുമിടയ്ക്കു് വരുന്നതുകൊണ്ടാണു് ഇതു്
സംഭവിക്കുന്നതു്. 34% മുതല്഼ 35% വരെ ലവണതയുള്ളതും 35% ലവണത~
യുള്ള ജലത്തെ മൂടുന്നതുമായ ജലം സ്കാജിറാക്കിന്഼റെ മധ്യത്തിലാണു്. ഇതു്
30% മുതല്഼ 32%വരെ ലവണതയുള്ള ഉപരിതല ജലത്തില്഼ നിന്നും വളരെ വ്യക്ത~
മായി വേര്഼തിരിക്കപ്പെട്ടിരിക്കുന്നു. ബാള്഼ട്ടിക്കിലെ ശീത അഗാധജലത്തിന്഼റെ
താപനിലയും ചൂടുള്ള ഉപരിതല ജലത്തിന്഼റെ താപനിലയും തമ്മില്഼ വേനല്഼~
ക്കാലത്തു് വളരെ അധികം വ്യത്യാസമുണ്ടു്.</p>

<p>
  ജുട്ലാന്഼റ് പ്രവാഹവും ബാള്഼ട്ടിക഼് പ്രവാഹവും, സ്കാജിറാക്കിലെ തീരജല 
ജന്തുജാലത്തില്഼ വളരെ സ്വാധീനം ചെലുത്തുന്നുണ്ടു്. ദ്വീപസമൂഹങ്ങളിലെ
യൂറിഹലൈന്഼ സ്പീഷീസുകളും യൂറിതെര്഼മല്഼ സ്പീഷീസുകളും അടങ്ങുന്ന തീരജന്തു
ജാലങ്ങളുടെ ആവാസകേന്ദ്രമാണു് ബാള്഼ട്ടിക് പ്രവാഹം. ഏററവും പുറമേയുള്ള
ദ്വീപസമൂഹങ്ങളിലും പ്രത്യേകിച്ചു് സമുദ്രവങ്കങ്ങളിലെ ആഴത്തിലേക്കുള്ള
ചരിവിലും, മാത്രമെ നമുക്കു് സ്ററീനോഹലൈന്഼ ലവണജലജന്തുജാലങ്ങളെ
കാണുവാന്഼ കഴിയുകയുള്ളു.</p>

<p>  പടിഞ്ഞാറുഭാഗത്തും ഉള്഼ക്കടല്഼ ഒഴുക്കിന്഼റെ സ്വാധീനം ശ്രദ്ധേയമാണു്.
ഇര്഼മിന്഼ജര്഼ പ്രവാഹം എന്ന ഒരു ശാഖ, ഐസ്ലന്഼ഡിന്഼റെ പടിഞ്ഞാറെ 
#തീരത്തി~
ലൂടെ ഒഴുകി, ഭാഗികമായി ഗ്രീന്഼ലന്഼ഡിലേക്കു തിരിഞ്ഞ് ധ്രുവ ഒഴുക്കിനു #താഴെയായി
-131-
തെക്കോട്ട് ഒഴുകി. ഗ്രീന്഼ലന്഼ഡിന്഼റെ തെക്കേ അററത്തുനിന്നും വടക്കോട്ട്
തിരിഞ്ഞു് കുറച്ചു ദൂരം ഒഴുകുന്നു. ഇതിന്഼റെ 4 മുതല്഼ 6 ഡിഗ്രി
#വരെയുള്ള താപ~
നില, ചില ഉത്തരധ്രുവിയമല്ലാത്ത ജീവികള്഼ക്കു് തെക്കെ ഗ്രീന്഼ലന്഼ഡിനു് 
#സ~
മീപമുള്ള ആഴ-തിര ജലത്തിലെ ജീവിതം സാധ്യമാക്കി തീര്഼ക്കുന്നു. ഇതിനുള്ള
ഉദാഹരണങ്ങളാണു് സെബാസ്ററസ് മറൈനസ് ഹിപ്പോഗ്ലോസസ് ഹിപ്പോ~
ഗ്ലോസസ്, ഗാഡസ് മോറുവ എന്നീ മത്സ്യങ്ങളും പോണ്഼ടോഫിലസ് നോര്഼വീ~
ജിക്കസ് പണ്ടാലസ് പ്രോസ്പീന്഼ക്വസ് എന്നീ ഡെക്കാപോഡുകളും.</p>

<p>ദേശ്യജന്തുജാലം</p>

<p>  യൂറോപ്യന്഼ ബോറിയല്഼ ജന്തുജാലങ്ങള്഼ക്കു് അവയ്ക്കടുത്തു കിടക്കുന്ന
#ജന്തുജാല~
ങ്ങളുമായി പല സാദൃശ്യങ്ങളുമുണ്ടു്. മധ്യധരണ്യാഴി ജന്തുജാലങ്ങളില്഼ 
#കാണ~
പ്പെടുന്ന അനേകം ജാതികള്഼ ഇവിടെയുമുണ്ടു്.ചില വര്഼ഗീകരണ സമൂഹങ്ങ~
ളില്഼ ഈ മധ്യധരണ്യാഴി-ബോറിയല്഼ ഘടകങ്ങള്഼ വളരെ ശക്തമാണു്. മിക്ക~
തിലും ഇതു് ഉത്തരധ്രുവ ബോറിയല്഼ ഘടകത്തേക്കാള്഼ ശക്തമാണു്. ഉഷ്ണശീ~
തോഷ്ണ ജന്തജാലങ്ങള്഼, ഉത്തരമധ്രുവജന്തുജാലങ്ങളെക്കാള്഼ സ്പീഷീസുകളുടെ 
#കാര്യ~
ത്തില്഼ സന്പന്നമാകയാല്഼,അവയ്ക്കിടയില്഼ സ്ഥിതിചെയ്യുന്ന ബോറിയല്഼ മേഖ~
ലയ്ക്കു് കൂടുതല്഼ സ്പീഷീസുകളെ നല്഼കാന്഼ കഴിയും. എന്നതുകൊണ്ടു് ഇതില്഼ 
#ആശ്ച~
ര്യപ്പെടാനില്ല. ഉത്തരധ്രുവബോറിയല്഼ ഘടകള്഼, മധ്യധരണ്യാഴി ബോറിയല്഼
ഘടകത്തോട് ചിലപ്പോള്഼ തുല്യമാകുന്നതാണു്. കൂടുതല്഼ ആശ്ചര്യജനകം.
പോളിക്കീററുകളില്഼ ഇതു് കാണാം. ഒസ്ട്രകോഡുകളുടെ ഇടയില്഼ ഇതു്
കൂടുതല്഼ ശക്തിമത്തായിരിക്കാനും ഇടയുണ്ടു്. ഇപ്രകാരം ജന്തുജാലപരമായ ഒരു
മിശ്രം ഉണ്ടായിരുന്നിട്ടും ബോറിയല്഼ ജന്തുജാലത്തിനു് താരതമ്യേന സ്വതന്ത്ര~
മായ ഒരു സ്ഥാനം ഉള്ളതു് ദേശ്യജീവികളുടെ സാന്നിധ്യം കൊണ്ടാണു്. ഇതു്
ചില സമൂഹങ്ങളിലെ ജാതികളില്഼ ധാരാളമുണ്ടു്. എന്നാല്഼ മറ഼റ് ചില സമൂഹ~
ങ്ങളില്഼, ഉദാഹരണമായി പോളിക്കീററുകളില്഼, ഇതു് അത്ര പ്രകടമല്ല.</p>

<p>  ഇവിടെ നമ്മുടെ ചര്഼ച്ചാവിഷയം യൂറോപ്യന്഼ ബോറിയല്഼ ജന്തജാലമായതു~
കൊണ്ട്, പൂര്഼ണമായും അതില്഼പ്പെടുന്ന ജീവികളെ മാത്രമെ ദേശ്യഘടകങ്ങ~
ളായി കണക്കാക്കേണ്ടുതുള്ളു. ഇവയ്ക്കുള്ള ഉദാഹരണങ്ങളില്഼ അമേരിക്കന്഼ 
#ബോറി~
യല്഼ മേഖലയില്഼ കാണപ്പെടുന്നതും അതിനാല്഼ ആംഫി-അററ്ലാന്഼റിക്
ബോറിയലും ആയ സ്പീഷീസുകളെയും ഉള്഼പ്പെടുത്തിയിട്ടുണ്ടു് (ഈ പദവും
അതുപോലെ ആംഫി-പസിഫിക് എന്ന പദവും, തുടര്഼ച്ചയില്ലാത്ത ആംഫി~
അററ്ലാന്഼റിക് എന്നും തുടര്഼ച്ചയില്ലാത്ത ആംഫിപസിഫിക് എന്നും മാത്രം
അര്഼ഥം വരുന്ന തരത്തില്഼, ചിലപ്പോള്഼ തെററായി ഉപയോഗിക്കപ്പെടുന്നുണ്ടു്).
രണ്ടു് സമൂഹങ്ങളെയും വേര്഼തിരിച്ചറിയുവാനായി, പൂര്഼ണമായും യൂറോപ്യന്഼
ജാതികളായവയ്ക്കു് നക്ഷത്രചിഹ്നം കൊടുത്തിരിക്കുന്നു. ബോറിയല്഼ മേഖല~
യുടെ മുകളില്഼ കൊടുത്ത അതിര്഼ത്തികളില്഼ വരുന്ന ഒരു ചെറിയ അതിക്രമണം.</p>

<p>-132-
അതായതു് വടക്കും തെക്കുമുള്ള മാധ്യമികമേഖലകളില്഼ ഇവയെ കാണുന്നതു്.
ഇവിടെ ആ സ്പീഷീസിനെ ദേശ്യമായി കണക്കാക്കുന്നതിനു് തടസ്സമാവുന്നില്ല.
ദേശ്യബോറിയല്഼സ സ്പീഷീസുകളുടെ എണ്ണം താരതമ്യേന കൂടുതലാണു്. നമുക്കു്
അവയില്഼നിന്നും ചുരുക്കം ഉദാഹരണങ്ങള്഼ ഉദ്ധരിക്കുവാനെ നിര്഼വാഹമുള്ളു.</p>

<p>   ഒക്ടോകൊറേലിയകളില്഼ പ്രസിദ്ധമായ അല്഼സ്യോണിൟം ഡിജിററാററം
(മരിച്ച മനുഷ്യന്഼റെ വിരല്഼)*സ്ററീനോജോര്഼ജിയ റോസിയ എന്നിവയെയും ഡെ~
ക്കാപോഡുകളില്഼* ക്രാങ്കോണ്഼ അല്഼മാണി എന്നതിനെയും എടുക്കാം. ചര്഼ച്ചാ~
വിഷയമായ ചില മൊളസ്കുകള്഼ വളരെ പ്രസിദ്ധമാണു്. ഇന്നു് ആക്സ്മിക~
മായല്ലെങ്കിലും അററ്ലാന്഼റിക്കില്഼ നിന്നുള്ള ചിപ്പികളുടെ സ്ഥാനചലനം
കാരണം പസിഫിക്കിലും കൂടി കാണപ്പെടുന്ന മയ അരണേരിയ, അതിനു പുറമേ
സിഫിയ ക്രിസ്പാററ, സിപ്രീന ഐലാന്഼ഡിക്ക എന്നിവയും ഇതില്഼പ്പെടുന്നു
(മയ അരണേരിയയെ ജപ്പാനിലും അലാസ്കയിലും കൂടി കണ്ടുവരുന്നുണ്ടു്.
പ്ലിയോസിന്഼ യുഗത്തില്഼ ഇവ കാല ഫോര്഼ണിയയില്഼ കാണപ്പെട്ടിരുന്നു.
എന്നാല്഼ ഇന്നു് അവ അവിടേക്കു് കൃത്രിമമായി സ്ഥലംമാറ഼റപ്പെട്ടവയാണു്.
എന്നാല്഼ ഈ ജാതി, ഏതാണ്ടു് ഇതുപോലുള്ള മയട്രങ്കേററ ഓവേററ 
#എന്നതുമായി
പലപ്പോഴും തെററിദ്ധരിക്കപ്പെട്ടിട്ടുണ്ടു് എന്നതു് പ്രത്യേകം ശ്രദ്ധേയമായ 
#സംഗ~
തിയാണു്). ജന്തുഭൂമിശാസ്ത്രപരവും ജീവാശ മീയവുമായ രേഖകളില്഼ വളരെ
പ്രധാനപ്പെട്ട ഒരു പങ്കുവഹിച്ച, സിപ്രിനെ ഐലാന്഼ഡിക്ക, പലപ്പോഴും 
#പ്രധധാ~
മായും ഉത്തരധ്രുവീയമായി കണക്കാക്കപ്പെടുന്ന ഒരു സ്പീഷീസാണു്.</p>

<p>  യൂറോപ്പില്഼ തെക്കു പടിഞ്ഞാറേ ഫ്രാന്഼സിനും `വെള്ള'ക്കടലിനും, ഐസ്
ലന്഼ഡിനും ഇടയിലുള്ള ഭാഗങ്ങളിലും അമേരിക്കയില്഼ ഹാട്ടിറാസ് മുനന്പിനും
ന്യൂഫൌണ്ടു്ലന്഼റിനും ഇടയിലുള്ള ഭാഗങ്ങളിലും ഇതു് കാണപ്പെടുന്നതിനാല്഼
വ്യക്തമായും ഇതു് ബോറിയല്഼ പ്രതിനിധി ആണു്. ഈ മേഖലയിലെ മിക്ക
എക്കിനോഡ഼ൊമുകളും യൂരിതെര്഼മല്഼ ആണു്. ഇവ മുകളിലും താഴെയുമുള്ള
ജലസ്തരങ്ങളില്഼ ജീവിക്കുന്നവയാണു്. ഇവയെ യൂറിബാത്തിക് എന്ന വിളി~
ക്കും. താഴെ പറയുന്നവയെ ദേശ്യ ജന്തുക്കളായി കരുതാവുന്നതാണു്. *എ.ഫ്യൂറ
എഫിനിസ,,*ലഡ്്വിജിയ ലാക്ടിയ, ആന്഼റിഡ഼ോണ്഼ പെററാസസ്,
*എക്കൈനസ് എസ്ക്യൂലന്഼റസ്.</p>

<p>    മത്സ്യങ്ങളില്഼ ഈ മേഖലയിലെ ജീവികളുടെ എണ്ണത്തില്഼ ഏതാണ്ടു് 25
ശതമാനം ദേശ്യസ്പീഷീസുകളാണു്. ഇവയ്ക്കുദാഹരണാണു് *സെന്഼ട്രോലാബ്രസ്
എക്സോലിററസ്, *കോട്ടസ് ബുബാലിസ്, * അഗോണസ് കെററാഫ്രാക്
ററസ്,*ഗോബിയസ് നിഗര്഼, ഫോലിസ് ഗുണില്ലസ്, *സോര്഼സസ് വിവിപാ~
രസ്, *സ്യൂഗോപ്ററിറസ് പന്഼ക്ടാററസ്, *സ്ക്കോപ്ത്താല്഼മസ് നോര്഼വി
ജീക്കസ്, *മൈക്രോസ്റേറാമസ് കിററ്, *പ്ല്യൂറോനെക്ററിസ് ലിമാന്഼ഡ്,
സ്പൈനാക്കിയ സ്പൈനാക്കിയ സിന്഼ഗ്നാത്തസ് റോസ്റൈല്ലേററസ്, ഗാഡസ്
മൊറുവ ഗാ എഗിള്഼ഫൈനസ്, ഗാ വൈറന്഼സ് ഗാഡസ് എസ്മാര്഼ക്കി
-133-
മൊള്഼വാ മൊള്഼വ, റാണിസെപ്സ് റാണിനസ്, ക്ലൂപ്പിയ ഹാറെന്഼ഗസ് എന്നിവ.
പ്ലവക അണ്ഡങ്ങളുള്ള-കോഡ഼് ഉള്഼പ്പെടെയുള്ള-ചില സ്പീഷീസു് ഗാഡസ്
മത്സ്യങ്ങള്഼, പെലാജിയ മേഖലയ്ക്കടുത്തുള്ള സാഗരാടിത്തട്ടില്഼ മാത്രം 
#കാണപ്പെ~
ടുന്നവയല്ല. അണ്ഡജനനകാലത്തിനിടയ്ക്ക് ഹെറിങ്ങുകള്഼ വേലാപവര്഼തി ആകുന്നു~
ണ്ടെങ്കില്഼ സമുദ്രത്തിന്഼റെ അടിത്തട്ടിലോ കരയോരത്തിന്഼റെ 
#മുകള്഼പരപ്പിലുള്ള
സമുദ്രകളകളിലോ അതുപോലുള്ള മററു ചെടികളിലോ ആണു് ഇവ തങ്ങളുടെ
പശയുള്ള മുട്ടകളിടുന്നതു്.</p>

<p>  സാന്പത്തികമായി പ്രാധാന്യമുള്ള മത്സ്യങ്ങളുടെ ജീവശാസ്ത്രപരമായ കാര്യ~
ങ്ങളെക്കുറിച്ചു് അടുത്തകാലത്തു് ശ്രാദ്ധേയമായ പല അന്വേഷണപഠനങ്ങളും
ഉണ്ടായിട്ടുണ്ടു്. ഇതിന്഼റെ ഫലമായി പല ബോറിയല്഼ മത്സ്യങ്ങളുടെയും
പ്രത്യേക ചുററുപാടുകളെപ്പററി നമുക്കു് ഒരുവിധം തൃപ്തികരമായ അറിവു ലഭിച്ചി~
ട്ടുണ്ടു്.</p>

<p>  അണ്ഡജനനകാലത്തു് താപനിലയ്ക്കും ലവണതയ്ക്കുമുള്ള സ്വാധീനം മററു സമ~
യങ്ങളിലുള്ളതില്഼ നിന്നു് വ്യത്യസ്തമാണു്. അതിനു് പുറമേ വേലാപറയും
മുട്ടകളും ചെറുമത്സ്യങ്ങളും ഒഴുക്കു കാരണം അണ്ഡജനനസ്ഥലത്തു നിന്നും
#വിദൂര
ഭാഗങ്ങളിലേക്കു് പലപ്പോഴും മാററപ്പെടാറുണ്ടു്. അതിനാല്഼ ഈ സ്പീഷീസു~
കളുടെ ചെറുപ്രായത്തിലുള്ളവ അണ്ഡജനനസ്ഥലത്തിനും പുറമേ കുറേ ദൂരത്തോളം
കാണപ്പെടാനിടയുണ്ടു്. ഇത്തരം അവസരങ്ങളില്഼ ഇവയുടെ അണ്ഡജനനസ്ഥല~
മാണു് ഈ ജാതികളുടെ യഥാര്഼ഥ വാസസ്ഥലമായി കണക്കാക്കേണ്ടതു്.</p>

<p>ചിത്രം 36 കോഡ഼് മത്സ്യത്തിന്഼റെ കിഴക്കേ അററ്ലാന്഼റിക്കിലുള്ള അണ്ഡ~
ജനനസ്ഥലത്തെ കാണിക്കുന്നു. യൂറോപ്പില്഼ അവ വടക്കന്഼ മുനന്പില്഼ നിന്നും
പടിഞ്ഞാറെ ഐസ്ലാന്഼ഡില്഼ നിന്നും ഇംഗ്ലീഷ് കനാല്഼ വരെയും തെക്കന്഼
അയര്഼ലണ്ടു വരെയും വ്യാപിച്ചുകിടക്കുന്നു. അമേരിക്കയിലാവട്ടെ ന്യൂഫൌണ്ടു്
ലാന്഼റു മുതല്഼ കോഡ഼് മുനന്പു വരെ വ്യാപിച്ചു കിടക്കുന്നതാണു്. ഇതിന്഼റെ
അണ്ഡജനന സ്ഥലം, എന്നാല്഼ മററു ബോറിയല്഼ സമുദ്ര ജീവികളെപ്പോലെ(ഉദാ~
ഹരണമായി ഹെറിങ്) കോഡ് മത്സ്യങ്ങള്഼ വളരെ ദശ വര്഼ഷങ്ങ~
ളായി അവയുടെ വിതരണം കൂടുതല്഼ വടക്കോട്ടു് വ്യാപിപ്പിച്ചിരിക്കുന്നതിനാല്഼
ഇന്നു് അവയ്ക്കു് വളരെ വടക്കോട്ടു് മധ്യഗ്രീന്഼ലാന്഼റിന്഼റെ പടിഞ്ഞാറെ 
#തീരം
വരെ വ്യാപിച്ചു കിടക്കുന്ന ഒരു അണ്ഡജനനസ്ഥലമുണ്ടു്. 
#മധ്യഗ്രീന്഼ലാന്഼റിന്഼റെ
പടിഞ്ഞാറെ തീരത്തും, തെക്കുകിഴക്കേ ഗ്രീന്഼ലാന്഼റിനു് അടുത്തും കോഡ഼്
മത്സ്യബന്ധന വ്യവസായം വളരെ വികാസം പ്രാപിച്ചിട്ടുണ്ടു്. ഈ മേഖലയിലും
ഉത്തമധ്രുവമേഖലകളിലും ഒരേ സമയത്തു് സമുദ്രജലത്തിന്഼റെയും കാററിന്഼റെയും
കാര്യത്തില്഼ കാലാവസ്ഥയിലുണ്ടായ മാററമാണു് ഇതിനു് കാരണമെന്നു് വളരെ
വ്യക്തമാണു്. ഇതു കാരണം ബോറിയല്഼ മേഖല തന്നെ കൂടുതല്഼ വടക്കോട്ടു്
വ്യാപിച്ചിരിക്കുന്നു. അണ്ഡജനനസമയത്തു് കോഡുകളും മററു പല മത്സ്യങ്ങളും
അവയുടെ ചുററുപാടുകളെക്കുറിച്ചു് മററു കാലങ്ങളിലുള്ളതിലും കൂടുതല്഼
#ബോധ഼വാന്മാരാണു്.
-134-
അററ്ലാന്഼റിക് കോഡുകള്഼ 4degree -6degree C താപനിലയും
34-35 ശതമാനം ലവണതയും 40-80 മീററര്഼ ആഴവും ഉള്ള സ്ഥലങ്ങളില്഼
മാത്രം സാധാരണയായി അണ്ഡജനനം ഩടത്തുന്നു. അതിനാല്഼ അണ്ഡ഼ജനന 
സമയത്താണു് സ്ററീനോതെര്഼മലും സ്ററീനോഹലൈനും ആയവയുടെ ജന്തുശാസ്ത്ര~
പരമായ സ്ഥാനങ്ങള്഼ മാറുന്നതു്. ബാള്഼ട്ടിക്കില്഼ എങ്ങനെയായാലും കോഡു~
കള്഼ വളരെ കുറഞ്ഞ ലവണതയിലും അണ്ഡജനനം നടത്തുന്നുണ്ടു്.
ഹാഡോക് മത്സ്യങ്ങള്഼ ലവണതയെ സംബന്ധിച്ചിടത്തോളം കോഡ്
മത്സ്യങ്ങളെക്കാള്഼ കൂടുതല്഼ സംവേദക സ്വഭാവമുള്ളവയാണു്. അതിനു് 35-
35.2 ശതമാനം ലവണതയും 6 degree-7 Degree C താപനിലയും ആവശ്യമുണ്ടു്.
ബാള്഼ട്ടിക്കില്഼ ഇതു് അണ്ഡജനനം നടത്തുന്നില്ല. യൂറോപ്പില്഼ അണ്ഡ഼ജനനം
നടക്കുന്നതു് നോര്഼ത്തു് സീയുടെ വടക്കുഭാഗത഼് 80-150 മീററര്഼ ആഴത്തിലുള്ള
-135-
അണ്ഡജനനസ്ഥലങ്ങളിലാണു്. കോള്഼ മത്സ്യങ്ങള്഼ക്കാകട്ടെ ഇതിലും ഉയര്഼ന്ന
ലവണത ആവശ്യമാണു്.35.2% ലവണതയും 7-8 Degree C താപനിലയും ഉള്ള
ജലത്തിലാണു് സാധാരണ ഇവ അണ്ഡജനനം നടത്താറുള്ളതു്. ഈ ഘടനയു~
യുള്ള ജലം കാണപ്പെടുന്നതു്. കരയോരത്തിന്഼റെ പുറംഭാഗത്തു് 200 മീറററില്഼
കൂടുതല്഼ ആഴത്തിലാണു്. ഈ മത്സ്യം അതിന്഼റെ പ്രത്യുല്പാദനസ്വഭാവത്തെ
സംബന്ധിച്ചിടത്തോളം ആര്഼ക്കിബെന്഼തതിക് ആണു്. എന്നാല്഼ അണ്ഡ
ജനനം നടത്താത്ത കാലങ്ങളില്഼ ഈ സ്പീഷീസുകള്഼ വളരെ ദൂരെ തീരമേഖലകള്഼
വരെ സഞ്ചരിക്കുന്നു. ലിംഗിന്഼റെ കാര്യത്തിലും ഇതു് ശരിയാണു്. അവയുടെ
അണ്ഡ഼ ജനനസ്ഥലങ്ങള്഼ ചിത്രം 33 ല്഼ ചേര്഼ത്തിട്ടുണ്ടു്.</p>

<p>  *ക്രിസ്ററലോഗോബിയസ്, *കൈറോലോഫിസ്, *സ്യൂഗോപ്ററിറസ്,
സ്ക്കോഫ഼്഼ത്താല്഼മസ്, *റാണിസെപ്സ് തുടങ്ങി ചില മത്സ്യജീനസുകള്഼
ബോറിയല്഼ ഭാഗത്തെ സംബന്ധിച്ചിടത്തോളം ദേശജങ്ങളാണു്. ഇവയില്഼
റാണിസെപ്സ് എന്ന ജീനസ് പ്രത്യേകം ശ്രദ്ധേയമാണു്. കാരണം അതിന്഼റെ
ഒററതിരിഞ്ഞു കിടക്കുന്ന വര്഼ഗീകരണമായ സ്ഥാനം ചില ശാസ്ത്രജ്ഞന്മാ~
രുടെ അഭിപ്രായത്തില്഼ ഒരു പ്രത്യേക കുടുംബത്തിന്഼റെ ആവിര്഼ഭവത്തെ അനു~
കരിക്കുന്നു. യൂറോപ്യന്഼ ബോറിയല്഼ മേഖലയില്഼ കാണപ്പെടുന്ന ഈ ജീനസുക~
ളോടു കൂടി അമേരിക്കന്഼ മേഖലയിലും കൂടി കണ്ടുവരുന്ന സൈക്ലോപ്ററിറസ്
സ്പൈനാക്കിയ എന്നിവ കൂടി ചേര്഼ക്കാം. ഈ ജീനസുകള്഼ക്കൊന്നിനും തന്നെ
ഒന്നിലേറെ ജാതികളില്ല.
-136-
മധ്യധരണ്യാഴി-ബോറിയലും ലൂസിടാനിയന്഼-ബോറിയലും
ഘടകങ്ങള്഼</p>

<p>  പ്രധാനമായി വടക്കന്഼ രൂപങ്ങലോ ദേശ്യങ്ങളോ അല്ലാത്ത ഡെക്കാപോഡു~
കള്഼, മസ്സലുകള്഼, മത്സ്യങ്ങള്഼ എന്നിവയില്഼ മിക്കവയും (90 
#ശതമാനമെങ്കിലും
മധ്യധരണ്യാഴി വരെയോ പടിഞ്ഞാറെ ആഫ്രിക്ക വരെയോ എത്തുന്നു. അങ്ങനെ
യൂറോപ്പിലെ ബോറിയല്഼ ജന്തുജാലങ്ങളില്഼ ഉഷ്ണശീതോഷ്ണ ഘടകം (മധ്യ~
ധരണ്യാഴി) സുപ്രധാനമാണു്. ക്രസ്റേറഷ്യകളില്഼ രണ്ടു ഞണ്ടുകളൊഴികെ ബാക്കി~
യെല്ലാം അതിലുള്഼പ്പെടുന്നു. റെപ്ററാന്഼ഷ്യയിലും രണ്ടെണ്ണമൊഴികെ മറെറല്ലാം
ഇതില്഼പെടുന്നതാണു്. ദക്ഷിണവും ബോറിയലുമായ മസ്സലുകള്഼ക്കുള്ള ഉദാഹര~
ണങ്ങളാണു് ഐസോകാര്഼ഡിയകോര്഼, പെക്ററന്഼ വാരിയസ്, ആര്഼ക്കി ടെട്രാ~
ഗോണ എന്നിവയും ഓസ്ട്രിയ എടുലിസ് എന്ന ചിപ്പിയും. എക്കിനോ
ഡെര്഼മുകളില്഼ സാമെക്കൈനസ് മിലിയാരിസ്, ആംഫ്യൂറ, ഓഫിയോകോ~
മിന ട്രാക്കിതയോണ്഼ എന്നിവയും പ്രസ്താവയോഗ്യങ്ങളാണു്. ആംഫ്യൂറ~
യുടെ രണ്ടു ജാതികളെയും (ആ.കിയാജി ആ.ഫിലിഫാര്഼മിസ്) അഗാധ~
ജല മേഖലയിലും കണ്ടുവരുന്നുണ്ടു്. മററു നട്ടെല്ലില്ലാത്ത ജീവികളുടെ സംഘ~
ങ്ങളില്഼ പലതിനെയും ഇതില്഼ ചേര്഼ക്കാവുന്നതാണു്.
  ലാബ്രിഡേ കുടുംബത്തിലുള്ള മത്സ്യങ്ങളുടെ വിതരണവും ഏതാണ്ടു് ഇതേ~
തരത്തിലാണു്. (ദേശ്യസ്പീഷീസായ സെന്഼ട്രോലാബ്രസ് എക്സോലിററസ്
ഒഴികെ) ഫാഗില്ലസ് മുള്ളസ്, ട്രിഗ്ള, ട്രാക്കിനസ്, ബോത്തസ്, സൊളിയ
എന്നിവയുടെ ബോറിയല്഼ ജാതികളു ഗഡിഡേ കുടുംബത്തിലെ ഗാഡഡ്
മൈന്യൂട്ടസ്, ഗാഡസ് ലസ്കസ്, ഗാഡസ് പൊള്ളാച്ചിയസ്, മെര്഼ലൂഷ്യസ്
മെര്഼ലൂഷ്യസ് എന്നീ ജാതികളും പ്ളൂറോനെക്ററിസ് പ്ളാററിസ എന്നതും
മററനേകം സ്പീഷുകളും ഉദാഹരണങ്ങളാണു്.</p>

<p>  ഹിമനദീയന കാലത്തിനു ശേഷം ഉത്തരസാഗരത്തില്഼ നിരവധി സ്പീഷീസു~
കള്഼ വികാസം പ്രാപിച്ചു. ഈ സമയത്തു് പടിഞ്ഞാറന്഼ നോര്഼വയില്഼ എത്തി~
ച്ചേരാന്഼ കഴിയാത്തതിനാല്഼ ബോറിയല്഼ മേഖലയില്഼ വ്യക്തമായ പടിഞ്ഞാറന്഼
അഥവാ തെക്കുപടിഞ്ഞാറന്഼ സ്വഭാവമുള്ള മിക്ക സ്പീഷീസുകളും ഇംഗ്ലീഷ് ചാന~
ലിലൂടെയാണു് പ്രവാസം നടത്തിയിട്ടുള്ളതു്. മററുള്ളവ, അവയുടെ ഇന്നത്തെ വി~
തരണം അടിസ്ഥാനമാക്കി നോക്കുകയാണെങ്കില്഼ വടക്കന്഼ സ്കോട്ട്ലാന്഼ഡിനെ
ചുററി അററ്ലാന്഼റിക്കില്഼ നിന്നു വന്നു് ഈ വഴിയിലൂടെ പടിഞ്ഞാറെ വട~
ക്കന്഼ കടലിലെത്തി. മൈസിഡാസിയാ സംഘത്തിലെ സീരില്ലാ ആര്഼മേററ
ഇത്തരത്തിലുള്ള സ്പീഷീസാണു്. സക്കാന്഼റിനേവിയന്഼ പെനിന്഼സസുലയില്഼
എത്തിച്ചേര്഼ന്നിട്ടുള്ള ദക്ഷിണകുടിയേററക്കാര്഼ താഴെ കരയോരമേഖലകളിലെ
ജാതികളെപ്പോലെ ഒരു വലിയ അളവ഼ു് ഈ വടക്കന്഼ കുടിയേററമാര്഼ഗം ഉപ~
യോഗിച്ചിരിക്കാന്഼ സാധ്യതയുണ്ടു്.</p>

<p>-137-
ആര്഼ട്ടിക്-ബോറിയല്഼ ഘടകം</p>

<p>  ഈ സംഘത്തില്഼ പെട്ട എക്കിനോഡെര്഼മുകള്഼, ഡെക്കാപോഡുകള്഼,
മത്സ്യങ്ങള്഼ എന്നിവ എന്഼.പോണ്഼ ഹോഫ്സ്ററണ്഼ വിശകലനം ചെയ്തു് പഠിച്ചി~
ട്ടുണ്ടു്. ഇതിെല അനേകം സ്പീഷീസുകള്഼ യൂറിബാത്തിക് ആണു്. സര്഼വസ ധാ~
രണമായി സ്പീഷീസുകളില്഼ അരിനികോള മറൈന, പൊമാറേറാസിറസ് ടൈക്വ~
ററര്഼ എന്നീ പോളിക്കീററുകളും ഹയാസ് കോര്഼ക്ററാററസ് സ്പൈറോന്഼ടോ~
ക്കാരിസ് ഗൈമാര്഼ഡി, ബലാനസ് ബലനോയിഡ് എന്നീ ക്രസ്റേറഷ്യകളും
മൈററിലസ് എഡ്യൂലിസ്, ലിഡാ പെര്഼ന്യൂല, ബക്സിനം അണ്഼ടേററം
ഡെന്഼ഡ്രോനാട്ടസ് ഫോണ്഼ഡോസസ് എന്നീ മൊളസ്ക്കുകളും സൊളാസ്ററര്഼
പപ്പോസസ്, ഓഫിയോഫോളിസ് അക്യൂലിയേററ, ഒഫ്യൂറ സാര്഼സി
സ്ട്രോന്഼ഗൈലോസെന്഼ട്രോട്ടസ് എന്നീ എക്കിനോഡെര്഼മുകളും കോട്ടസ്
സ്കോര്഼പിയസ്, ലിപ്പാറിസ്, ലിപ്പാറി, സ്ലംബീനസ് ലാംബെട്രിഫോര്഼മിസ്,
സൈക്ളോപ്റെറസ്േ ലന്പസ്, അനാറിക്കസ് ലൂപസ് എന്നീ മതസ്യങ്ങളും
പ്രാധാന്യമര്഼ഹിക്കുന്നു. ഉത്തര സാഗരത്തിന്഼റെ തെക്കു ഭാഗത്തെ വിശാലജല~
ത്തില്഼ പോകാത്ത യൂപെഗുറസ് പ്യൂബിസെന്഼സ് എന്ന സന്യാസിഞണ്ടും
കുക്കമേറിയ ഫ്രോണ്഼ഡോസ എന്ന എക്കിനോഡെര്഼മും ഈ പട്ടികയില്഼
-138-
ചേര്഼ക്കാം. ചില അസിഡിയനുകളുടെയും ആംഫിപോഡുകളുടെയും
സ്ഥിതിയും ഇതുതന്നെ.</p>

<p>   ഇപ്പോള്഼ പ്രസ്താവിക്കപ്പെട്ട പ്രത്യേകതകള്഼ കൂടുതല്഼ പൊതുവായ ഒരു 
#പ്രതി~
ഭാസത്തിലെ ചില സംഗതികളാണു്. വടക്കന്഼ മേഖലയില്഼ ഉപരിതല ജല~
ത്തില്഼ അധിവസിക്കുന്ന ശീതജല ജീവികള്഼ തെക്കന്഼ സമുദ്രങ്ങളില്഼ അധിക
ഭാഗവും അല്ലെങ്കില്഼ പൂര്഼ണമായും അഗാധ ജലങ്ങളില്഼ ജീവിക്കുന്നതു കാണാം.
ഈ പ്രതിഭാസം സബ്മെര്഼ജന്഼സ് അഥ഼വ ആഴല്഼ എന്ന പേരില്഼ അറിയപ്പെ~
ടുന്നു. ഈ പദം ആദ്യമായി ഉപയോഗിച്ചതു് പി.ഹാക്കര്഼ ആണു്. ജീവി~
യുടെ താപനിലയോടുള്ള സംവേദന ശീലതയാണു് ഇതിനു് കാരണമെന്നതു്
വളരെ വ്യക്തമാണു്.</p>

<p> ആര്഼ട്ടിക്-ബോറിയല്഼ സംഘത്തില്഼പ്പെടുന്ന മേഖലയില്഼ അവശിഷ്ടങ്ങ~
ളായി കണ്ടുവരുന്നതും സ്വതേ ഉത്തരധ്രുവീയങ്ങളും ആയ നിരവധി സ്പീഷീസു~
കളുണ്ടു്. ഇവയെപ്പററി നമുക്കു് പിന്നീടു് ചര്഼ച്ച ചെയ്യാം.</p>

<p>  ബോറിയല്഼ ജന്തജാലങ്ങളില്഼ ഇതിനെല്ലാം പുറമേ വിശ്വവ്യാപികളായ
അല്ലെങ്കില്഼ കുറെക്കൂടി വ്യാപിച്ചു കിടക്കുന്ന ചില സ്പീഷീസുകളും പെടും.
എന്നാല്഼ ഇവ ജന്തുഭൂമിശാസ്ത്രപരമായി വലിയ പ്രാധാന്യമൊന്നും ഇല്ലാത്തവ~
യായതുകൊണ്ടു് നാം ഇപ്പോള്഼ അവയെപ്പററി ചര്഼ച്ചചെയ്യേണ്ടതില്ല.</p>

<p>പ്രത്യുല്പാദനസമയത്തെ താപനില വിതരണത്തിലെ
ഒരു ഘടകമ഼ന്ന നിലയില്഼</p>

<p>  ജീവികള്഼ യൂറിതെര്഼മല്഼ ശീതസ്ററീനോതെര്഼മല്഼, ഉഷ്ണസ്ററീനോ
തെര്഼മല്഼ എന്നിങ്ങനെ വിഭജിക്കപ്പെട്ടുകിടക്കുന്ന കാര്യം 
#എല്ലാവര്഼ക്കുമറിയാവുന്ന~
താണല്ലോ. ""സ്ററീനോതെര്഼മല്഼"" എന്ന പ്രതിഭാസം ഏതായാലും കൂടുതല്഼
വിസ്തരിച്ച ഒരു വിശകലനമര്഼ഹിക്കുന്നു. ഒരു ജീവി അതിന്഼റെ ജീവിതകാലം
മുഴുവനും സ്ററിനോതെര്഼മലോ യൂറിതെര്഼മലോ ആയിരിക്കും. എന്നാല്഼
അതിന്഼റെ ജീവിതകാലത്തു് പല കാലഘട്ടങ്ങളിലും പല അളവുകളിലുമായി~
രിക്കും സ്ററീനോതെര്഼മലോ യൂറിതെര്഼മലോ ആകുന്നതു്. പ്രത്യേകിച്ച്, സ്ററീനോ
തെര്഼മി പലപ്പോഴും കൂടുതല്഼ പ്രകടമാകുന്നതു് പ്രത്യുല്പാദനസമയത്താണു്.
സാന്പത്തികപരമായി പ്രാധാന്യമുള്ള മത്സ്യങ്ങളെപ്പററിയും മററു ജീവികളെ~
പ്പററിയുമുള്ള കഴിഞ്ഞ ദശകങ്ങളിലെ പഠനം ഫിസിയോളജീയമായ പ്രത്യേ~
കതയ്ക്കു് ധാരാളം ഉദാഹരണങ്ങള്഼ നല്഼കുന്നതിനാല്഼ ഇത്തരത്തിലുള്ള,ചില
പ്പോള്഼ കൂടിവരുന്ന സ്ററീനോതെര്഼മി ഒരു അപവാദമെന്നതിലേറെ ഒരു നിയമം
അല്ലേ എന്നു നാം ചോദിച്ചുപോകും. ഓരോ ജന്തുസ്പീഷീസും ഒരു പ്രത്യേക
പ്രദേശവും ഒരു പ്രത്യേക അണ്ഡജനനസമയവും തിരഞ്ഞെടുക്കുന്നു എന്നതിനു്
ചുററുപാടുകളുടെ പ്രത്യേകതമാത്രമല്ല.ജീവിയില്഼ത്തന്നെയുള്ള താപ ആവശ്യത്തെ
-139-
സംബന്ധിച്ചുള്ള പ്രത്യേകതയും കാരണമാണെന്നതു് ഒരു വസ്തുതയാണു്.
ലവണതയുടെ കാര്യത്തിലും സ്ഥിതി ഇതുതന്നെ.</p>

<p>  അതിനാല്഼ പ്രത്യുല്പാദനസമയത്തു മാത്രമുണ്ടാകുന്നതിനെ പ്രത്യുല്പാദന യൂറി~
തെര്഼മി അല്ലെങ്കില്഼ സ്ററിനോതെര്഼മി എന്നും ബാക്കി കാലത്തുണ്ടാകുന്നതിനെ
കായികയൂറിതെര്഼മി അല്ലെങ്കില്഼ സ്ററീനോതെര്഼മിയെന്നും രണ്ടായി നമുക്കു്
വേര്഼തിരിക്കാം. അതുപോലെ പ്രത്യുല്പാദനപരമായ യൂറിലവണതയും സ്ററീനോ
ലവണതയും കായിക യൂറിലവണതയും സ്ററീനോലവണതയും ഉണ്ടു്.
പ്രത്യുല്പാദനപരമായ സ്ററിനോതെര്഼മി എല്ലായ്പോഴും കൃത്യമായ അണ്ഡ
ജനന സമയവുമായി സംപതിക്കുന്നില്ല. എന്നാല്഼ ആംഫിപോഡുകളില്഼
ഒരു തലമുറയിലെ അണ്ഡത്തിന്഼റെ പൂര്഼ണവളര്഼ച്ച എത്തുന്ന സമയത്തോ അല്ലെ~
ങ്കില്഼ ലാര്഼വല്഼ ദശയിലോ താപനിലയ്ക്കു് വര്഼ദിച്ച തോതിലുള്ള സ്വാധീനം
ഉണ്ടാകുവാന്഼ സാധ്യതയുണ്ടു്. കായിക സമയത്തു് യൂറിതെര്഼മലും പ്രത്യു~
ല്പാദനസമയത്തു് സ്ററിനോതെര്഼മലുമായ ഒരു ജീവി അതു ശീതമോ, ഉഷ്ണ~
സ്ററീനോ തെര്഼മലോ എന്തായാലും ബോറിയല്഼ ജലത്തില്഼ അതിനനുകൂലമായ
പരിതസ്ഥിതികള്഼ കണ്ടിരിക്കുവാനിടയുണ്ടു്. ഇതിനു കാരണം ഇവിടെ മറേറ~
തൊരു മേഖലയിലേക്കാളും ഉയര്഼ന്ന വ്യത്യാസം താപനിലയിലുള്ളതുകൊ~ 
ണ്ടാണു്. ബോറിയല്഼ ജന്തുജാലങ്ങള്഼ വ്യക്തമായും ഒരു മിശ്രജന്തുജാലമാകു~
വാന്഼ ഒരു പക്ഷേ ഇതു തന്നെയായിരിക്കണം കാരണം. ജീവിതകാലം മുഴു~
വന്഼ സ്ററീനോതെര്഼മല്഼ ആയ ജീവികള്഼ക്കു് താപനിലയില്഼ വലിയ വ്യത്യാസം
ഉള്ളതിനാല്഼ ബോറിയല്഼ മേഖല അനുകൂല പരിതസ്ഥിതികളുള്ള ഒരു മേഖല~
യല്ല . ഇത്തരത്തിലുള്ള ജീവികള്഼ അങ്ങനെ ഈ മേഖലയില്഼ നിന്നു് ഉപരോ~
ധിക്കപ്പെട്ടവയാണു്.</p>

<p>  പെല്഼സിനിയര്഼ അപ്പല്ലോഫ് ഓര്഼ട്ടോണ്഼ എന്നിവരും വിശേഷി~
ച്ച് എസ് റണ്഼സ്ട്രോമും ഈ സ്ഥിതിഗതികളെപ്പററി പരീക്ഷണങ്ങള്഼ വഴി~
അന്വേഷണം നടത്തിൟിട്ടുണ്ടു്. പ്രത്യുല്പാദനസമയത്തു്-1 degree C 
#സെന്഼റിഗ്രേഡിഩും
11 degree C സെന്഼റിഗ്രേഡിനും ഇടയ്ക്കുള്ള താപനില ആവശ്യമുള്ള ആര്഼ട്ടിക് 
#ബോറിയല്഼
സ്പീഷീസുകള്഼ ബോറിയല്഼ മേഖലയില്഼ ശൈത്യകാലത്തും പ്രത്യുല്പാദനസമയ~
ത്തു് 4Degree-16degree താപനില ആവശ്യമായ ബോറിയല്഼ ജാതികള്഼ വര്഼ഷ~
ത്തില്഼ അധികഭാഗവും 8 Degree സെന്഼റിഗ്രേഡിനും 23degree സെന്഼റിഗ്രേഡിനും 
#ഇട഼യ്ക്കു്
പ്രത്ുല്പാദന താപനിലയുള്ള മെഡിറററേനിയന്഼-ബോറിയല്഼ ജാതികള്഼ ഉഷ്ണ
കാലത്തും അണ്ഡജനനം നടത്തുന്നുവെന്നു് അവരുടെ പരീക്ഷണങ്ങള്഼ തെളിയി~
ക്കുന്നു. ബോറിയല്഼ മേഖലയില്഼ ഉപരിതലത്തിന്഼റെ വാര്഼ഷിക താപം 5 degree 
നും 15 degree C- നും ഇടയ്ക്കു് ആണു്. സ്വാഭാവികമായി ഉപ ഉത്തരധ്രുവീ~
യമോ മെഡിറററേനിയഩ അററ്ലാന്഼റിക്കോ ആയ ജീവികള്഼ക്കു് അതി~
നാല്഼ പ്രത്യുല്പാദനത്തിനു് പററിയ താപനില കണ്ടുപിടിക്കുക വളരെ എളുപ്പ~
മാണു്. ഇത്തരത്തില്഼ കുക്കുമേറിയ ഫ്രോണ്഼ഡോസ, സ്പീറോണ്഼ടോകാരിസ്
ഗൈമാര്഼ഡി എന്നീ ആര്഼ട്ടിക്കില്഼ മാത്രം കാണപ്പെടുന്ന ജാതികള്഼ ബോറിയല്഼
-140-
ജലത്തിന്഼റെ ഉപരിതലത്തില്഼ കാണപ്പെട്ടു വരുന്നതിനുള്ള വിശദീകരണം
നല്഼കുവാന്഼ കഴിയും. ഇതിനു് കാരണം ശീതകാലത്തു് ഉപരിതല ജലം ഏററവു~
മധികം തണുക്കുന്നതാണു്.</p>

<p>  പുറംകടലിലെ ചില മത്സ്യജാതികളുടെ അണ്ഡജനനസ്ഥിതിയെ പററിയുള്ള
അന്വേഷണങ്ങള്഼ ഈ പരിക്ഷണഫലങ്ങള്഼ ശരിയാണെന്നു് തെളിയിക്കുന്നു.
-141-
അഗാധജലമല്഼സ്യങ്ങള്഼ കൂടിയുള്഼പ്പെടുന്ന മേല്഼പ്പറഞ്ഞ പട്ടിക ഈ വസ്തുത
വിശദീകരിക്കുന്നു. അണ്ഡ഼ജനനകാലത്തു് താപനിലയ്ക്കും ലവണതയ്ക്കും പുറമേ
ബന്ധപ്പെട്ട മററു് ഘടകങ്ങളുമുണ്ടെന്നു് താഴെ പറയുന്ന വസ്തുത 
#വ്യക്തമാക്കുന്നു.
ഗാഡുസ് പൌട്ടാസു്, ഗേഡിക്കുലസ് ആര്഼ഗന്഼ഡിയസു്, മൊള്഼വ ബിര്഼ക്കിലാന്഼
ഗി, ബ്രോസ്മിയസ് ബ്രോസ്മി എന്നിവ ഒരേ താപനിലയും ലവണതയുമുള്ള
ജലത്തില്഼ അണ്ഡജനനം നടത്തുന്നുണ്ടെങ്കിലും ഗാഡസ് പൌട്ടാസും ഗാഡിക്ക~
ലസ് ആര്഼ഗന്഼ടിയസ്സും മൊള്഼വാ ബിരക്കിലാജില്഼ നിന്നും ബ്രോസ്മിയസ്
ബ്രോസ്മിയില്഼ നിന്നും വ്യത്യസ്തമായ വിതരണമാണ് കാണിക്കുന്നതു്.</p>

<p>2. ബാള്഼ട്ടിക്കിലെയും മററു ലഘുലവണമേഖലകളിലെയും
ജന്തുജാലങ്ങള്഼</p>

<p>  422,000 ചതുരശ്ര കിലോമീററര്഼ ഉപരിതലമുള്ള ബാള്഼ട്ടിക്കു് ആണു് ലോക~
ത്തിലെ ഇന്നത്തെ ഏററവും വലിയ ലഘുലവണജലാശയം. കരിങ്കടലും
-142-
ഏതാണ്ടു് ഇത്രത്തോളം തന്നെ വലുപ്പമുള്ളതും ഇത്രതന്നെ ലവണത ഇല്ലാത്തതും
എന്നാല്഼ ഭാഗികമായി മാത്രം യഥാര്഼ഥ ലഘുലവണസ്വഭാവമുള്ളതുമാണു്.
നോര്഼ത്തു് സീയുടെ ഉപവിഭാഗം എന്ന നിലയ്ക്കു് ബള്഼ട്ടിക് 
#ജന്തുജാലങ്ങളില്഼
അധികഭാഗവും അററ്ലാന്഼റിക് ജാതികളില്഼ നിന്നുണ്ടായവയാണു്.എന്നാല്഼
കൂടുതല്഼ ഉള്഼ഭാഗത്തേക്കു് നാം കടക്കുന്നതനുസരിച്ചു് അവയുടെ എണ്ണവും 
#കുറഞ്ഞു
വരുന്നു. ഇവിടെ യൂറിഹലൈന്഼ ശുദ്ധജലജാതികളെയും കണ്ടുവരുന്നുണ്ടു്.
ശുദ്ധലഘുലവണജലജീവികള്഼, ഹീമനദീയ സമുദ്ര അവശിഷ്ടങ്ങള്഼ എന്നീ രണ്ടു
ഘടകങ്ങളും ഉണ്ടു്.</p>

<p>ജലരാശി
  ജലരാശിപരമായ സവിശേഷതകളും ബാള്഼ട്ടിക് സമുദ്രത്തിന്഼റെ ചരിത്രവു~
മാണു് ബാള്഼ട്ടിക് ജന്തുജാലങ്ങളുടെ പ്രത്യേക സ്വഭാവം നിര്഼ണയിക്കുന്നതു്.
   ഈ കടല്഼ ജലരാശിപരമായി ഒരു ലഘുലവണമേഖലയാണു്. എന്നാല്഼
അതിന്഼റെ ലവണത വ്യത്യസ്ത ഭാഗങ്ങളില്഼ പല വിധത്തിലായാണു് അനുഭവ~
പ്പെടുന്നതു്. കാട്ടിഗാററിനും യഥാര്഼ഥ ബാള്഼ട്ടിക്കിനും ഇടയ്ക്കുള്ള മാറിവ~
രുന്ന മേഖലയില്഼ ബെല്഼ട്ട് സീ എന്ന പേരില്഼ അറിയപ്പെടുന്ന സ്ഥലത്തു്
ലവണത 10 ശതമാനമോ 15 ശമാനമോ ചിലപ്പോള്഼ 20 ശതമാനമോ
ആണു് (ബല്഼ട്ട് സീയ്ക്കും യഥാര്഼ഥ ബാള്഼ട്ടിക്കിനും ഇടയ്ക്കുള്ള 
#അതിര്഼ത്തി
സാര്഼സിന്഼റെ മുനന്പും ഓറിസോണ്ടിന്഼റെ തെക്കേ അററവുമാണു്. ജര്഼മന്഼ രേഖ~
കളില്഼ ശരിയായി പശ്ചിമ ബാള്഼ട്ടിക് എന്ന പേരിലറിയപ്പെടുന്ന ഡാനിഷു്
ദ്വീപ് ഇവിടെ `ജര്഼മന്഼ ബെല്഼ട്ട്-സി' എന്ന പേരിലാണു് അറിയപ്പെടു~
ന്നതു്). ഇതു് ഉള്ളിലേക്കു് പ്രവേശിക്കുന്തോറും ക്രമത്തില്഼ കുറയുന്നു,
#ബോത്ത്,
ഉപരിതലത്തേക്കാള്഼ ഉയര്഼ന്ന താപമാണു് കൂടുതല്഼ അഗാധതയിലുള്ള ജലത്തിനു~
ള്ളതു്. അതിന്഼റെ നവീകരണം താരതമ്യേന സാവധാനത്തിലാകയാല്഼ കൂടുതല്഼
അഗാധതയിലുള്ള ജലത്തില്഼ ഒരു വലിയ അളവു് കാര്഼ബണ്഼ ഡൈഓക്സൈഡും
ചില സ്ഥലങ്ങളില്഼ ഹൈഡ്രജന്഼ സല്഼ഫൈഡും അട഼ങ്ങിയിരിക്കുന്നു. എന്നാല്഼
പലപ്പോഴും ഇതു് ഓക്സിജന്഼റെ കാര്യത്തില്഼ ദരിദ്രമാണു്. ബാള്഼ട്ടിക് മേഖല~
യുടെ ഒരു വലിയ ഭാഗവും ബാള്഼ട്ടിക് മുഴുവനും മീസോഹലൈന്഼ മേഖലയില്഼~
പ്പെടുന്നു.</p>

<p>     ഇതില്഼ നിന്നും വ്യക്തമാകുന്നതു് ബാള്഼ട്ടിക്കിന്഼റെ ഉള്഼മേഖലകളില്഼ 
#സമുദ്ര
ജീവികളുടെ എണ്ണം കുറയുന്പോള്഼ ശുദ്ധജലജന്തുക്കളുടെ എണ്ണം വര്഼ധിക്കുന്നു
എന്നാണു്</p>

<p>   ജലത്തിന്഼റെ താപനില വടക്കോട്ടു പോകുന്തോറും സ്വാഭാവികമായും കുറ~
യുന്നു. ഗള്഼ഫ് ഓപ് ബോത്ത്നിയയുടെ ഏററവും വടക്കുള്ള ഭാഗങ്ങളില്഼
-143-
ഉപരിതലജലത്തിനു് താപം ആഗസ്ററില്഼ 12-14 degree C സെന്഼റീഗ്രേഡ് വരെ
#മാത്ര~
മേയുള്ളു. ഗള്഼ഫ് ഓഫ് ഫിലന്഼ലാന്഼ഡിന്഼റെ ഏററവും ഉള്഼ഭാഗത്തും 
#ഉറയുവാന്഼
വേണ്ട ശരാശരി കാലം സാധാരണയായി അഞ്ചു മുതല്഼ ആറു വരെ മാസങ്ങ~
ളിണു്. ഗള്഼ഫ് ഓഫ് ബോത്ത്നിയയിലാകട്ടെ ഇതു് 6 മാസത്തില്഼ കൂടുത~
ലാണു്. താപനിലയോടനുബന്ധിച്ചുള്ള സ്ഥിതികള്഼ താഴെക്കൊടുക്കുന്ന പട്ടി~
കയില്഼ നിന്നനുമാനിക്കാം.</p>

<p>  അപ്രകാരം 30.40 മീററര്഼ ആഴത്തില്഼ താപനില തുടര്഼ച്ചയായി ഉത്തരധ്രുവീ~
യമാണു്. അതിനാല്഼ ഇവിടെ വസിക്കുന്ന ഉത്തരധ്രുവീയ അവശിഷ്ടങ്ങള്഼ക്കു്
അനുയോജ്യമായ സ്ഥിവിശേഷമാണു് കാണുന്നതു്. മുന്പു പ്രസ്താവിക്കപ്പെട്ട
ഹിമനദീയസ്ഥിതികള്഼ ഫോക്ക ഹിസ്പീഡ എന്ന ഒരു ഉത്തരധ്രുവീയ അവശി~
ഷ്ടമായ സീലിന്഼റെ കാര്യത്തില്഼ പ്രാധാന്യാമേറിയവയാണു്. ഈ ഫോക്ക ഹീ~
സ്പിഡ഼ ഹിമത്തിലാണു് അതിന്഼റെ സന്തതികള്഼ക്കു് ജന്മം കൊടുക്കുന്നതു്.</p>

<p>  ജലത്തിന്഼റെ ലവണത പല മേഖലകളിലും വ്യത്യസ്തമാണെന്നും അതിനാല്഼
വ്യത്യസ്തമായ ലഘുലവണമേഖലകളായി വേര്഼തിരിക്കാന്഼ സാധ്യമായി
എന്നും നാം കണ്ടുകഴിഞ്ഞു. ആദ്യത്തെ സന്പ്രദായം മുന്നോട്ടുവച്ച 
#റെഡിക്കു്
വിഭജനത്തിനാധാരമായി കണക്കിലെടുത്തതു് `ക്ലോറിനിററി' ആയിരുന്നു.
അദ്ദേഹത്തിന്഼റെ സന്പ്രദായം ""സൂയിഡര്഼ സീ"""" എന്നാണറിയപ്പെടുന്നതു്.
ലയിച്ചുകിടക്കുന്ന പദ഼ാര്഼ഥങ്ങളുടെ ആകത്തുകയെ അതായതു് ലവണതയെ
അടിസ്ഥാനമാക്കിക്കൊണ്ടു് ഒരു സന്പ്രദായം ഉണ്ടാക്കുന്നതു് കൂടുതല്഼ 
#പ്രായോഗി~
കമായതിനാല്഼ വാലിക്കന്഼ ഗ്യാസ് കണ്ടുപിടിച്ച സന്പ്രദായം ജീവജാതിക~
ളുടെ ഇതു വരെ അറിയപ്പെടുന്ന വിതരണത്തിനു് അര്഼ഹിക്കുന്ന പരിഗണന നല്഼~
കിയിരുന്നു. ഇതു പൊതുവേ റെഡീക്കിന്഼റേതുമായി താരതമ്യേന അടുത്ത
യോജിപ്പു കാണിക്കുന്നതും എന്നാല്഼ ബാള്഼ട്ടിക്കിന്഼റെ കാര്യത്തില്഼
#പ്രത്യേകം
-144-
പ്രസ്താവ്യമായതും ആയ ഒന്നാണു്. വാലിക്കന്഼ ഗ്യാസിന്഼റെ സന്പ്രദായ~
ത്തിനു് ഒരു ചെറിയ മാററം വരുത്തിക്കൊണ്ടും കടല്഼ ജലത്തോടു ബന്ധപ്പെടുത്തി~ചിലവ കൂടുതല്഼ ഉള്഼പ്പെടുത്തിക്കൊണ്ടുമുള്ള സന്പ്രദായം താഴെ കൊടുത്ത 
#രൂപം
കാണിക്കുന്നു.
 
ശുദ്ധ ലഘുലവണ ജലജന്തുക്കള്഼</p>

<p>  ലഘുലവണജലത്തില്഼ പ്രധാനമായും ഇപ്പോള്഼ പ്രസ്താവിച്ച മിസോഹ~
ക്കലന്഼ മേഖലയില്഼ ഇവിടെ ഒരു വിധം അനുകൂലമായ സ്ഥിതിഗതികളില്഼
കാണുന്ന ജീവികളെ കണ്ടുവരുന്നു. അവയില്഼ പലതും ബാള്഼ട്ടിക്കിലും
നോര്഼ത്തു സീയുടെയും സൂയിഡര്഼ സിയുടെയും അഴിമുഖങ്ങളിലും ആര്഼ട്ടിക്
അഴിമുഖങ്ങളില്഼ കൂടിയും കണ്ടുവരുന്നുണ്ടു്. അവസാനം നാം പ്രസ്താവിച്ചതില്഼
#ചില
ബാള്഼ട്ടിക് ഹിമനദീയസമുദ്ര അവശിഷ്്ടങ്ങള്഼ അധിവസിക്കുന്നുണ്ടു്. ബാള്഼~
ട്ടിക്കിന്഼റെ വിസ്തീര്഼ണം കൂടുമെങ്കിലും അവിടെ 
#ദേശ്യലഘുലവണജലജീവിക~
ളില്഼ പുതിയ ജാതികളെ ഉല്പാദിപ്പിക്കുവാന്഼ വയ്യാത്തവിധം അടുത്ത 
#കാലത്തുണ്ടാ~
യതാണു് അതെന്നു് വ്യക്തമാണു്. ലഘുലവണജല ജാതികളുടെ ചില ഉദാ~
ഹരണങ്ങള്഼ നമുക്കിവിടെ കൊടുക്കാംം. ഈ ചിത്രം പൂര്഼ത്തിയാക്കുന്നതിനു
വേണ്ടി പ്ലവകങ്ങളെയും നമുക്കിതില്഼ ഉള്഼പ്പെടുത്താം. ഒലിഗോഹലൈന്഼
സമുദ്രജലമെന്ന പേരില്഼ മുകളിലറിയപ്പെടുന്ന ജലത്തെയും വാലിക്കന്഼ ഗ്യാസ്
ലഘുലവണജലത്തില്഼ ഉള്഼പ്പെടുത്തിയിട്ടുണ്ടു്. അതിനു് അദ്ദേഹം കൊടുത്ത 
#പേര്഼
പോളിഹലൈന്഼ ലഘുലവണജലം എന്നാണു്. പോളിഹലൈന്഼ എന്ന പേരില്഼
മുകളിലറിയപ്പെടുന്ന ലഘുലവണജലത്തിനു് അദ്ദേഹം കൊടുത്ത പേരാകട്ടെ
പ്ലയോമിസോഹലൈന്഼ എന്നാണു്. പോളിഹലൈന്഼ ലഘുലവണജലത്തെക്കു~
റിച്ചു് അതിന്഼റെ സസ്യജാലങ്ങളെയും ജന്തുജാലങ്ങളെയും സംബന്ധിച്ച് ഡാള്഼~
ന്഼റെ വിമര്഼ശനമുണ്ടെങ്കിലും, നാം റിമാനിന്഼റെ അഭിപ്രായവുമായി യോജി~
ക്കേണ്ടിയിരിക്കുന്നു. അതു് ഒരു മിശ്രിത മേഖലയാണു്. യൂറിഹലൈന്഼ സമുദ്ര~
ജീവികളാണു്. ഇവിടത്തെ പ്രധാന ഘടകം. ബാള്഼ട്ടിക്കിലെ ഏററവും പ്രധാ~
നപ്പെട്ട അതിര്഼ത്തി 8-10% ലവലണതയില്഼ അതായതു് സാര്഼സ്സര്഼ ഓര്഼ട്ടിനും
യഥാര്഼ഥ ബാള്഼ട്ടിക്കിനും തെക്കുപടിഞ്ഞാറന്഼ അതിര്഼ത്തിയെ പ്രതിനിധീകരി~
തക്കുന്ന ജഡ്സരിനുമിടയ്ക്കാണു് കാണപ്പെടുന്നതെന്നു് വാലിക഼ന്഼ഗ്യാസും സ്ഥി~
രീകരിക്കുന്നു. മുകളില്഼ പ്രസ്താവിച്ച മാററം `പോളിഹലൈന്഼ ലഘുലവണജലത്തിനു്
-145-
ഒരു പുതിയ അര്഼ഥം നല്഼കുന്നുണ്ടെന്നു് തീര്഼ച്ചയാണു്. എന്നാല്഼
മീസോഹലൈന്഼ ജന്തുജാലങ്ങളെ മിയോ എന്നും പ്ലിയോമീസോഹലൈന്഼~
എന്നും രണ്ടായി വിഭജിക്കുന്നതു് ഒഴിവാക്കാം. കാരണം വാലിക്കന്഼ഗ്യാസി~
ന്഼റെ സന്പ്രദായം ഇതാണു് സൂചിപ്പിക്കുന്നതു്. ഈ വിഭജനം തൃപ്തികരമല്ല.
ഇതിനു കാരണം ഈ ഉപവിഭാഗങ്ങള്഼ മിസോഹലൈന്഼ എന്നും പോളിഹ~
ലൈന്഼ എന്നുമുള്ള രണ്ടു പ്രധാന വിഭാഗങ്ങളെക്കാള്഼ കൂടുതലായി ഇവ തമ്മി~
ലുള്ള പ്രധാന വ്യത്യാസങ്ങള്഼ കാണിക്കുന്നു എന്നതാണു്. ചിലപ്പോള്഼ സംഭ~
വിക്കുന്ന പോലെ പോളിഹലൈന്഼ ലഘുലവണജലത്തെ പോളിഹലൈന്഼
ജലം എന്നു മാത്രം വിളിക്കുന്നതു് (സാധാരണ കടല്഼ ജലം സ്വഭാവികമായും
പോളിഹലൈന്഼ ലഘുലവണജലത്തേക്കാള്഼ പോളിഹലൈന്഼ ആയതുകൊണ്ടു്)
ശരിയല്ല.
  കിയോല്഼ ഉള്഼ക്കടലില്഼ നിന്നു തുടങ്ങി സ്േററാക്കു് ഹോം മേഖല 
#വരെയുളള
പല സ്ഥലങ്ങളിലും, അതിലുമകലെ ഓക്ററന്഼ഡിലും കംചാററു്ക്കയിലും
കണ്ടുവരുന്ന ആദിമ പ്രോട്ടോ ഹൈഡ്ര ലുക്കാര്഼ട്ടി, കോര്഼ഡിലോഫോറാ കാസ്~
പിയ ടര്഼ബൈല്ലേറിയന്഼ പ്രൊമിസോസ്റേറാമ ബാള്഼ട്ടിക്ക, നിമര്഼ട്ടിയിന്഼
പ്രോസ്റേറാമ ഒബ്സ്കൂറം, പോളികീററ് അല്഼ക്മേറിയ റോമിജ്നി,
മണയുന്഼ക്കിയ, എസ്ച്ചുറിയിന, സിന്഼കീററ ഫെനിക്ക എന്ന റോട്ടിഫര്഼,യൂറിട്ടി
മോറ ജീനസിലെ രണ്ടു ജാതി കോപ്പിപോഡുകള്഼, സിപ്രിഡിസ് ലിറേറാറാ~
ലിസ്, സൈത്തിറോമോര്഼ഫ ഫസ്കേററ, സൈത്തിറൂറ ഗിബ്ബ എന്ന ഓസ്ട്ര~
ക്കോഡുകള്഼,, ഗമ്മാറസ്, ഡുബേനി, കോറോഫിയം ലാകെസ്ട്രര്഼ എന്ന
ആംഫിപോഡുകള്഼, പാലിമോണിററസ് വേരിയന്഼സ് എന്ന കൊഞ്ചു്,
മെംബ്രേനിപ്പോറ ക്രസ്ററുലെന്഼റ എന്ന ബ്രയോസോവ, വിക്റെറാറെല്ലാ
പാവിഡ എന്ന അപൂര്഼വ ജന്തു, ഹൈഡ്രോബിയാ ജെന്഼കിന്഼സ് എന്ന ഒച്ച്
കോണ്഼ഗീറിയ കോക്ളിയേററ എന്ന മസ്സല്഼, ഇവ ഉദാഹരണങ്ങളാണു്.</p>

<p>  വടക്കേ യൂറോപ്യന്഼ തീരങ്ങളിലെ ശുദ്ധജലഘുലവണജലജീവികളുടെ താരത~
മ്യേന ഒരു വലിയ സംഖ്യ തെക്കുകിഴക്കേ യൂറോപ്പിലെ ലഘുലവണജലമേഖല~
യിലും കാണപ്പെടുന്നുണ്ടു്. മുകളില്഼ പ്രസ്താവിച്ച രൂപങ്ങള്഼ക്കു പുറമേ 
#കോര്഼ഡി~
ലൊഫോറ കാസ്പിയ, സിപ്രിഡിസ് ലിറേറാറാലിസ്, പോഡ഼ന്഼പോളിഫിമോ~
ഡിസ്, വിക്ടോറെല്ല പാവിഡ എന്നിവയും ഉള്഼പ്പെടുന്നു. നിരവധി ഉദാഹ~
രണങ്ങള്഼ ഇനിയും ചേര്഼ക്കാവുന്നതാണു്.്഼ഇതുകൊണ്ടര്഼ഥമാക്കുന്നതു് ലഘുലവ~
ണജലജന്തുജാലങ്ങളുടെ ഉത്തര യൂറോപ്യന്഼ ജാതികളുടെയും പശ്ചിമ യൂറോപ്യന്഼
ജാതികളുടെയും ഒരു വലിയ ഭാഗം ചരിത്രാതീസര്഼മാററിക് ലഘുലവണ
ജലജന്തുജാലങ്ങളില്഼ നിന്നു് ഉത്ഭവിച്ചതാണു് എന്നാവാം.</p>

<p>  സൂയിഡര്഼ കടലിനും ബാള്഼ട്ടിക്കിനും പുറമേ മററു ബോറിയല്഼ മേഖലക~
ളിലും ലഘുലവണജലന്തുക്കളെ കണ്ടുവരുന്നുണ്ടു്. അതിനെപ്പററി പശ്ചിമ
ഡെന്഼മാര്഼ക്കിലെ റിങ്കോബിങ് സമുദ്രവങ്കജത്തിലും ഇംഗ്ലണ്ടിലെ
അഴിമുഖങ്ങളിലും ജര്഼മന്഼ ഹാഫ്സിലും അനേകം അന്വേഷണങ്ങള്഼
-146-
നട഼ത്തിയിട്ടുണ്ടു്. ബാള്഼ട്ടിക്കില്഼ ബാക്കിയുള്ള ഭാഗങ്ങളിലെ ലഘുലവണജല~
ത്തില്഼ നിന്നു് ചില കാര്യങ്ങളില്഼ ഇവ വ്യത്യസ്തമാണു്.</p>

<p>   ഈ ജീവികള്഼ ജീവശാസ്ത്രപരമായ കാരണങ്ങളാല്഼ ഏതാണ്ടു് കൃത്യമായി നിര്഼~
വചിക്കപ്പെട്ട ലവണതയെ ആശ്രയിച്ചു കിടക്കുന്നു. ഈ കാരണങ്ങളില്഼ പ്രധാനം
ജലാംശനിയന്ത്രണമാണു്. ശുദ്ധജലജീവികളും മല്഼സ്യങ്ങളും പൊതുവേ
ഹോമിയോ ഓസ്മോട്ടിക് ആണു്. അതായതു്  അവയ്ക്കു് അവയുടെ ശരീരദ്രാ~
വകം ചുററുപാടുമുള്ള മാധ്യമത്തെ ആശ്രയിക്കാതെ താരതമ്യേന സ്ഥിരമായ ലവ~
ണതയില്഼ നിലനിര്഼ത്താന്഼ കഴിയുമെന്നു് പരീക്ഷണം കൊണ്ടു തെളിഞ്ഞിട്ടുണ്ടു്.
ഇതിനു് വിപരീതമായി സമുദ്രത്തിലെ നട്ടെല്ലില്ലാത്ത ജീവികള്഼ അടുത്ത കാലം
വരെ പോയ്ക്കിലോ-ഓസ്മോട്ടിക് ആണെന്നായിരുന്നു കരുതിയിരുന്നതു്.
എന്നാല്഼ അവയുടെ ശരീരദ്രവകത്തിന്഼റെയും കടല്഼ വെള്ളത്തിന്഼റെയും സാന്ദ്ര~
തകള്഼ തമ്മില്഼ യോജിപ്പുള്ളതിനാല്഼ ഈ ജീവികള്഼ക്കു് അവയുടെ ശരീരദ്രവ~
കത്തിന്഼റെ സാന്ദ്രത കുറയ്ക്കുകയോ അല്ലെങ്കില്഼ ജലരാശിനിയന്ത്രണക്രിയാവലി~
യുടെ സഹായത്തോടെ പരിസരത്തിന്഼റെ സാന്ദ്രതയേക്കാള്഼ ഉയര്഼ന്ന അവ~
യുടെ ശരീദ്രാവകത്തിന്഼റെ മോളാര്഼സാന്ദ്രത നിലനിര്഼ത്തുവാന്഼ സാധ്യമാവു~
കയോ ചെയ്താല്഼ മാത്രമെ ലഘുലവണജലത്തില്഼ ജീവിക്കുവാന്഼ കഴിയു
എന്നു് തെളിയിക്കപ്പെട്ടിരിക്കുന്നു. അവസാനം പ്രസ്താവിച്ചതു് ശരിയാണെ~
ങ്കില്഼ അവ ചുരുക്കം ചിലപ്പോള്഼ മാത്രമെ പൂര്഼ണമായും ഹോമിയോ ഓസ്
മോട്ടിക് ആവുകയുള്ളു. ഇതിനു് കാരണം ശരീരദ്രാവകത്തിന്഼റെ സാന്ദ്രത
ചില അളവില്഼ മാറുവാന്഼ സാധ്യതയുണ്ടു് എന്നതാണു്. ഈ മാററത്തിന്഼റെ
അളവു് വിവിധ തരം ജാതികളില്഼ വ്യത്യസ്തപ്പെട്ടുകിടക്കുന്നു. ഇതു് ഹോമി~
യോ ഓസ്മോട്ടിക഼് ജീച഼ികളും പോയ്ക്കിലോ-ഓസ്മോട്ടിക ജീവി~
കളും തമ്മിലുള്ള ഒരു ക്രമാനുസരണരൂപാന്തരം സാധ്യമാക്കിത്തീര്഼ത്തിട്ടുണ്ടു്.</p>

<p>യൂറിഹലൈന്഼ കടല്഼ജന്തുക്കള്഼
  ലുഘുലവണജലത്തിലെ യഥാര്഼ഥ കടല്഼ജന്തുക്കള്഼ സമുദ്രത്തിലെ കൂടുതല്഼
ലവണതയുള്ള മേഖലകളില്഼ നിന്നു് പ്രവാസം ചെയ്തിട്ടുണ്ടു്. ഇവ കടല്഼
ജന്തുജാലങ്ങളിലെ ഏററവും യൂറിഹലൈന്഼ ആയ സമൂഹത്തെ പ്രതിനിധാനം
ചെയ്യുന്നു. കടല്഼ ജന്തുക്കളുടെ ആപേക്ഷികപ്രവാസത്തെ കുറഞ്ഞുവരുന്ന ലവ~
ണത എങ്ങനെ സ്വാധീനിക്കുന്നുവെന്നു് ബാള്഼ട്ടിക്കില്഼ വ്യക്തമായി കാണാം.
മാഡ്റിപോറേറിയ, ഒക്ടോകൊറേലിയ, സ്കാഫോപോഡ, സെഫലോ
പോഡ എന്നീ സംഘങ്ങള്഼ വാള്഼ട്ടിക്കിലേക്കു് വളരെ ദുര്഼ല്ലഭമായിട്ടേ 
#കടക്കു~
ന്നുള്ളു. മററുള്ളവ ക്രമാനുസൃതമായി കുറഞ്ഞുവരുന്ന ലവണതയനുസരിച്ച് കുറഞ്ഞു
വരുന്ന എണ്ണത്തെയാണു് കാണിക്കുന്നതു്. സ്പോന്഼ജുകളില്഼ 27 സ്പീഷീസു~
കള്഼ കാററിഗാട്ടില്഼ നിന്നും 16 എണ്ണം ഡാനിഷ് ദ്വീപുകളുടെ തെക്കുഭാഗ
ത്തുള്ള സമുദ്രത്തില്഼ നിന്നും റിപ്പോര്഼ട്ടു് ചെയ്യപ്പെട്ടിട്ടുണ്ടു്. 
#എന്നാല്഼ ഡാര്഼സ്സര്഼
ഓര്഼ട്ടു് ജിഡിസറിനും ബോണ്഼ഹോമിനും ഇടയ്ക്കുള്ള യഥാര്഼ഥ 
#ബാള്഼ട്ടിക്കിന്഼റെ
-147-
തെക്കുബാഗത്തു നിന്നു് ഒന്നും തന്നെ റിപ്പോര്഼ട്ടു് ചെയ്യപ്പെട്ടിട്ടില്ല.#അതു പോലെ
തന്നെ ഗള്഼ഫ് ഓഫ് ബോത്ത്നിയയിലും ഗള്഼ഫ് ഓഫ് ഫിന്഼ലാന്഼റിലും
ഇവയൊന്നും തന്നെ കാണപ്പെടുന്നില്ല. ഈ മേഖലകളിലെ കടല്഼ അനിമോണുക~
ളുടെ എണ്ണം 18,4,2 0:പോളിക്കീററുകളുടേതു് 150-175,70,15,4 ആംഫി~
പോഡിന്഼റേതു് 132, 36,13, 5 ഡെക്കാപോഡിന്഼റേതു് 64,13, 5,2
ലാമെലിബ്രാങ്കുകളുടേതു് 87,34,24,5എക്കിനോഡെര്഼മിന്഼റേതു് 35,8
2,0 എന്നിങ്ങനെയാകുന്നു.</p>

<p>  പൂര്഼ണതയക്കു വേണ്ടി കംപാനുലേറിയ ഫെക്സുവോസ, ഒറീലിയ ഓറിററ,
നീരിസ് ഡൈവേര്഼സികോളര്഼, ഹര്഼മത്തോയ് സാര്഼സി, അക്കാര്഼ഷ്യ ലോംഗി~
റെമിസ്, ബലാനസ് ഇംപ്രോവിസസ്, ഇഡോത്തിയ ബാള്഼ട്ടിക ജീറ ആല്഼
ബിഫ്രോണ്഼സ്, ഗമ്മാരസ് ലോകസ്ററ, കോറോഫിയം വോളുലേററര്഼, ലിയാണ്ടര്഼
അഡ്സ്പെറസ്, ക്രാങ്കോണ്഼ ക്രാങ്കോണ്഼, മൈററിലസ് എഡുലിസ്, കാര്഼ഡി
യം എഡ്യൂള്഼ മയ എറിനേരിയ,മാക്കോമ ബാള്഼ട്ടിക്ക എന്നിവയും അത്രതന്നെ
അറിയപ്പെടാത്ത മററ് ചിലവയും, ഫിന്഼ലാന്഼റിന്഼റെയും ബോത്ത്നിയയുടെയും
കടലിടുക്കുകളുടെ പുറം ഭാഗങ്ങള്഼ വരെ കാണപ്പെടുന്നു എന്നും ഇവയില്഼
#ചിലതു്
ഉള്഼ഭാഗത്തേക്കു കടന്നിരിക്കുന്നു എന്നും സൂചിപ്പിക്കാം. മററ് 
#സ്പീഷീസുകള്഼
ലഘുലവണമേഖല വരെ വ്യാപിക്കുന്നില്ല.ഉദാഹരണമായി സ്കോളോപ്ലസ്
ആര്഼മിഗര്഼, ടെറിബെല്ലിഡസ് സ്ട്രോമി, ഗോട്ട്ലാണ്ട് മേഖല വടക്കന്഼
അതിര്഼ത്തിയായുള്ള പ്രിയാപുലസ് കോഡേററസ്, നീരിസ് പെലാജിക്ക, അരി~
നിക്കോള മെരിന, ബലാനസ് ബലാനസ്, ഒഫ്യൂറ അല്഼ബിഡ, സാധാരണ
നക്ഷത്രമല്഼സ്യം അസ്േററരിയാസ് റുബന്഼സ് എന്നിവ ബോണ്഼ഹോം മേഖലയ്ക്കും
അവ വ്യാപിച്ചിരുന്ന മേഖലകളുടെ വിദൂരസ്ഥാനങ്ങളില്഼ വെച്ചു് പ്രജനനം
നടത്തുക സാധ്യമല്ല. അതുകൊണ്ടു് അവയ്ക്കു് ആ പ്രദേശങ്ങളില്഼ കുടിയേറി~
പ്പാര്഼ത്തവ എന്ന സ്ഥാനം മുഴുവനായി നല്഼കുന്നതു് ശരിയല്ല. മെട്രിഡിയം
സയാന്഼തസ്, സഗാര്഼ക്ഷ്യ വിഡ്വേററ എന്നീ കടല്഼ അനിമോണുകളും, മററു്
പല ജന്തുക്കളും ഡാനിഷ് ദ്വീപുകള്഼ക്കു് തെക്കുഭാഗത്തും, ഒറിസണിലേക്കുള്ള
തെക്കന്഼ പ്രവേശനസ്ഥലത്തും, അതായതു് ശരിയായ ബാള്഼ട്ടിക് തുടങ്ങുന്നി~
ടത്തുതന്നെ, അവയുടെ വ്യാപനം അവസാനിപ്പിക്കുന്നു. ബാള്഼ട്ടിക്കില്഼ കാണ~
പ്പെടുന്ന നട്ടെല്ലില്ലാത്ത സ്പീഷീസുകളുടെ എണ്ണം 200 നും 300 നും 
#ഇടയ്ക്കാ~
ണെന്നു കണ്ടിരിക്കുന്നു.</p>

<p>  വടക്കന്഼ കടലിലെ പല മത്സ്യങ്ങളും ബോത്ത്നിയ ഫിന്഼ലാന്഼റ് എന്നിവ~
യുടെ ഉള്഼ക്കടലുകള്഼ വരെ വിതരണം ചെയ്യപ്പെട്ടിരിക്കുന്നു. ആദ്യമായി 
#ഹെറി~
ങ്ങിന്഼റെ ലഘുലവണതരത്തെപ്പററി സൂചിപ്പിക്കാം. ഈ മത്സ്യം ക്ളുപിയ
ഹാരന്഼ഗ്സ് മെംബ്രാസ് ബാള്഼ട്ടിക് മേഖല മുഴുവനും സാന്പത്തിക പ്രാധാന്യ~
മുള്ളതാണു്. മറെറാന്നു് ഗാഡ്സ മോറുവ എന്ന കോഡ്മതസ്യം. ഇവയുടെ
ഏററവും വടക്കുഭാഗത്തെ പ്രജനന സ്ഥലം ആന്഼ഗര്഼മാന്഼ലാന്഼റിന്഼റെ സ്വീഡിഷ്
-148-
മേഖലയ്ക്കുമപ്പുറത്താണു്. ലുംപെനസ് ലാംപെട്രിഫോര്഼മിസിന്഼റെ കാര്യവും
ഇതുതന്നെ. ജലരാശിപരമായ കാരണങ്ങളാല്഼ കോഡുകളും മററ് മത്സ്യങ്ങളും
ഉപരിതലജലത്തേക്കാള്഼ ലവണത കൂടിയ ആഴസ്ഥലങ്ങളിലാണു് പ്രധാനമായും
കാണപ്പെടുന്നതു്. അററ്ലാന്഼റിക് കോഡുകളില്഼ നിന്നും വ്യത്യസ്തമായി
ബാള്഼ട്ടിക് കോഡുകള്഼ സഞ്ചാരം കുറഞ്ഞവയാണു്. അവ ഇടയ്ക്കുമാത്രം 20
കി.മീ. വരെ സഞ്ചരിക്കുന്നു. ഇതു് ചില സൂചകപരീക്ഷണങ്ങള്഼ തെളിയി~
ച്ചിട്ടുണ്ടു്. താഴെപറയുന്ന മത്സ്യങ്ങള്഼ പതിവായി ബോത്ത് നിയ 
#ഉള്഼ക്കടലില്഼
കാണുന്നവയാണു്. കോട്ടസ് (അക്കാന്഼തോട്ടകോട്ടസ്) സ്കോര്഼പിയസ്
(ഗ്രീന്഼ലാന്഼റ് ബുള്഼ഹെഡ്) ലിപാരിസ ലിപാരിസ് (സാധാരണ കടല്഼
ഒച്ച്). സൈക്ളോപ്ടിറസ് ലംപസ് (ലംപ്സക്കര്഼) ലംബെനസ് ലാം
പെട്രിഫോര്഼മിസ് (സ്നേക്ക് ബ്ലെന്നി) ഫോളിസ് ഗുണെല്ലസ് (ബര്഼ട്ടഫിഷ്)
സൊവാര്഼സസ് വിവിപാരസ് (ഈല്഼പൌട്ട്) സ്പിനാക്കിയ സ്പീനാക്കിയ (15
മുള്ളുള്ള സ്ററിക്കിള്഼ബാസ്) നിറോഫീസ് ഒഫിഡിയോണ്഼ (നേര്഼മുക്കന്഼ കുഴല്഼
മത്സ്യം) സിന്഼ഗ്നാത്തസ് (സൈഫോസ്റേറാമ) ടിഫിള്഼ (വീതിമുക്കന്഼ കുഴല്഼
മത്സ്യം) അമ്മോഡൈററിസ് ലാന്഼സിയോലാററസ് (മഹാ മണല്഼ ഈല്഼)
അമ്മോഡൈററിസ് ടോബിയാനസ് (ചെറിയ മണല്഼ ഈല്഼) ഗാഡസ് മോറുവ
(കോഡ്) പ്ള്യൂറോനെക്ടിസ് ഫ്ളെസസ് (ഫ്ളൌന്഼ഡര്഼) ബോത്തസ്
മാക്സിമസ് (ടര്഼ബോട്) ക്ളൂപിയ ഹെറന്഼ഗസ് മെബ്രാസ് (ചെറിയ ബാള്഼~
ട്ടിക് ഹെറിങ് `സ്ട്രോമിങ്"" ക്ളൂപിയ സ്പ്രാട്ടസ് (സ്പ്രാട്ട്)
എന്നിവ . ഗോട്ടു്ലാണ്ടിനു ചുററും പ്രത്യക്ഷപ്പെടുന്ന പ്ലൂറോനെക്ടീസ് 
#പ്ലാസ്ററസ്സ്
(പ്ളെയിസ്) പ്ള്യൂറോനെക്ടിസ്(ലിമാണ്ട) ലിമാണ്ട (ഡാബ്) എന്നിവ
ദക്ഷിണ ബാള്഼ട്ടിക്കിലെ ഉദാഹരണത്തിനു് ബോണ്഼ ഹോമിനു് ചുററുമുള്ള
സ്ഥലങ്ങളിലെ,മീന്഼പിടിത്തത്തിനു പ്രാധാന്യമുള്ളവയാണു്.</p>

<p>  ബാള്഼ട്ടിക്കിലെ യൂറിഹലൈന്഼ കടല്഼ജീവികളുടെ വിതരണമേഖല,
ആ ജാതികളുടെ ശുദ്ധ കടല്഼ജലവാസസ്ഥലത്തോക്കാളും ആഴം കൂടിയ സ്ഥലാ~
ത്താണു്. ലഘുലവണ ജലത്തില്഼ ഇത്തരം ഒരു ആഴം കൂടുതല്഼ ഇങ്ങനെ വിശദ~
മാക്കാം. ആപേക്ഷിക്ക സാന്ദ്രത കൂടിയതിനാല്഼ ലവണത കൂടിയ സ്തരം, ലവ~
ണത കുറഞ്ഞ സ്തരത്തിനടിയിലാണു് കിടക്കുന്നതു്.</p>

<p>യൂറിഹലൈന്഼ ശുദ്ധജല ജന്തുക്കള്഼</p>

<p>  സമുദ്രജീവികളില്഼ നിന്നും വ്യത്യസ്തമായി, വാസ്തവത്തില്഼ ശുദ്ധജലജന്തുക്ക~
ളായവയും, താല്഼ക്കാലികമായി ലഘുലവണ ജലത്തിലേക്കു് പ്രവാസിച്ചവയു~
മായ സ്പീഷീസുകള്഼ ബാള്഼ട്ടിക് ബോത്ത്നിയ, ഫിന്഼ലാന്഼റ് എന്നിവിടങ്ങ~
ളിലെ ഉള്഼ക്കടലുകളിലെ ലഘുലവണ ജലത്തില്഼ ഏററവും കൂടുതലാണു്. ഇവ
യില്഼ പലതും ബാള്഼ട്ടിക്കിലെ ദ്വീപസമൂഹങ്ങളിലും അവയുടെ ഏററവും തെക്കു~
ള്ള നദീമുഖങ്ങളിലും ജീവിക്കുന്നു. അതിനാല്഼ പുറംകടലിലെ പ്ലവകജന്തു~
ക്കള്഼ക്കു് ഒഴികെ മററുള്ളവയുടെ കാര്യത്തില്഼ അവയുടെ വിതരണത്തിന്഼റെ
-149- 
തെക്കന്഼ അതിര് നിര്഼ണയിക്കുക സാധ്യമല്ല. ഉദാഹരണമായി കെരാടെല്ല
(അനുറോയിയ)കോക്ളിയാരിസ് നോത്തോല്഼ക ലോംഗിസ്പൈന, അസ്
പ്ളാക്ന പ്രിയോഡോണ്഼ട എന്നീ ബോത്നിയ, ഫിന്഼ലാന്഼റ് എന്നിവ~
യുടെ ഉള്഼ക്കടലുകളില്഼ സമൃദ്ധിയായി കാണപ്പെടുന്നവ തെക്കുപടിഞ്ഞാറന്഼
മേഖലകളില്഼ തീരെ ഇല്ലാതിരിക്കുകയോ, അപൂര്഼വമായി കാണപ്പെടു~
കയോ ചെയ്യുന്നു. ഏററവും യൂറിഹലൈന്഼ ആയ ഒരു പ്ലവക സ്പീഷീസാണു്
ബോസ്മിന ഒബ്ററൂസി ഹോസ്ട്രിസ് എന്ന ക്ലാഡ഼ോസിറ. ഇതിന്഼റെ ഒരു
തരമായ മാരിടിമ഼യെ (ഇതിനെ ഒരു സ്വതന്ത്രജാതിയായി കരുതിയിരുന്നു)
ഒറിസണിന്഼റെ വടക്കന്഼ മുഖം വരെ കാണാം. യൂറിഹലൈന്഼ ബെന്഼തിക~
സ്പീഷീസുകളുടെ ഉദാഹരണമായി സ്പോഞ്ചില്ല ലാക്കസ്ട്രിസ്, എഫിഡേക്ഷ്യ
ഫ്ളൂവിയാടിലിസ് എന്നീ സ്പോഞ്ജുകളും ട്യൂബിഫെക്സ് ട്യൂബിഫെക്സ് എന്ന
ഒളിഗോക്കീററയും, ലിംനേയ ഓവേററ, തിയോ ഡോക്സസ് ഫ്ളുവിയാററിലീസ്
എന്നീ ഒച്ചുകളും അസെല്ലസ് അക്വാററികസ് എന്ന ഐസോപോഡും
എടുക്കാ. സാമാന്യം യൂറിഹലൈന്഼ ആയ മത്സ്യങ്ങളില്഼ കോറിഗോണ഼സ്
ലാവറിട്ടസ് (വെളുത്ത മീന്഼) അബ്രായിസ്ബ്രാമ (ബ്രീം) എസോക്സലൂസി~
യസ് (പൈക്) ലോട്ട ലോട്ട (ടെര്഼ബോട്) പെര്഼ക് ഫ്ളുവിയാടിലിസ്
(പെര്഼ച്ച) എന്നിവ ഉള്഼പ്പെടുന്നു. സാല്഼മൊ സലാര്഼ ആന്഼ഗ്വില്ല 
#ആന്഼ഗ്വില്ല
സ്ററിക്കിള്഼ ബാക്കു് (ഗാസ്ററിറോസ്ററിയസ് അക്കുലിയേററസ്) എന്നിവയാണു്
ഏററവും യൂറിഹലൈന്഼ ആയവ.
             ******</p>

<p>",0
</p></body></text></cesDoc>