<cesDoc id="mal-w-science-engineer-5hydr1" lang="mal">
<cesHeader type="text">
<fileDesc>
<titleStmt>
<h.title>mal-w-science-engineer-5hydr1.txt</h.title>
<respStmt>
<respType>Electronic file created by</respType>
<respName>Central Institute for Indian Languages, Mysore</respName>
<respType>transferred into Unicode and CES format by</respType>
<respName>"Unicodify" software by Andrew Hardie</respName>
</respStmt></titleStmt>
<publicationStmt>
<distributor>UCREL (on behalf of CIIL)</distributor>
<pubAddress>Department of Linguistics, Lancaster University, Lancaster, LA1 4YT, UK</pubAddress>
<availability region="WORLD"></availability>
<pubDate>03-07-21</pubDate>
</publicationStmt>
<sourceDesc>
<biblStruct>
<monogr>
<h.title>കെ. രാമകൃഷ്ണന്഼</h.title>
<h.author>അടിസ്ഥാന ഹൈഡ്രോളികം</h.author>
<imprint>
<pubPlace>India</pubPlace>
<publisher>Unknown - Book</publisher>
<pubDate>1982</pubDate>
</imprint>
<idno type="CIIL code">5hydr1</idno>
</monogr></biblStruct></sourceDesc></fileDesc>
<encodingDesc>
<projectDesc>Text collected for the CIIL Corpus, subsequently integrated into the EMILLE/CIIL Monolingual Written Corpora.</projectDesc>
<samplingDesc>Simple written text only has been transcribed. Diagrams, pictures and tables have been omitted. Sampling begins at page 48.</samplingDesc>
<editorialDecl><conformance level="1"></conformance></editorialDecl>
</encodingDesc>
<profileDesc>
<creation><date>03-07-21</date></creation>
<langUsage>Malayalam</langUsage>
<wsdUsage>
<writingSystem id="ISO/IEC 10646">Universal Multiple-Octet Coded Character Set (UCS).</writingSystem>
</wsdUsage>
<textClass>
<channel mode="w">print</channel>
<constitution type="composite"></constitution>
<domain type="public"></domain>
<factuality type="fact"></factuality>
</textClass>
<translations></translations>
</profileDesc>
<revisionDesc></revisionDesc>
</cesHeader>

<text><body>
<p>-227-
9
		മൌത്പീസുകള്഼
9.1 മൌത്പീസ് എന്നാലെന്തു്?</p>

<p>  വ്യാസത്തിന്഼റെ ഏകദേശം രണ്ടോ മൂന്നോ ഇരട്ടി നീളമുള്ള ചെറിയ
പൈപ്പ് കഷണത്തെയാണു് മൌത്പീസ് എന്നു പറയുന്നതു്. ഒരു ഒറിഫി~
സില്഼ മൌത്പീസ് ഘടിപ്പിക്കുന്പോള്഼ ഒറിഫിസിന്഼റെ നിസ്സരണഗുണാങ്കം
വര്഼ധിക്കുന്നു. മൌത്പീസ് നിറ഼ഞ്ഞൊഴുകുന്പോള്഼ സ഼ങ്കോചഗുണാങ്കം കൂടുന്നതു
കൊണ്ടാണിതു്. ഇങ്ങനെ ഒറിഫിസുകളുടെ നിസ്സരണം വര്഼ധിപ്പിക്കുന്നതിനു
വേണ്ടിയാണു് മൌത്പീസുകള്഼ ഉപയോഗിക്കുന്നതു്.
9.2 വിവിധതരം മൌത്പീസുകള്഼
  മൌത്പീസുകളെ, അവയുടെ ആകൃതി, സ്ഥാനം എന്നിവ അനുസരിച്ചു്
പലവിധത്തില്഼ വര്഼ഗീകരിക്കാം.അവയില്഼ പ്രധാനപ്പെട്ടവ താഴെ പറയുന്ന~
വൟാണു്.</p>

<p>(a) ആകൃതി അനുസരിച്ചു്.
(i) സിലിണ്ടറാകാര മൌത്പീസ്
(ii) അഭിസാരി മൌത്പീസ്
(iii) അഭിസാരി-അപസാരി മൌത്പീസ്
(b) സ്ഥാനം അനുസരിച്ചു്
(i) ബാഹ്യ മൌത്പീസ്
 (ii) ആന്തര മൌത്പീസ്</p>

<p>9.3 സിലിണ്ടറാകാര മൌത്പീസ്
സിലിണ്ടറിന്഼റെ ആകൃതിയിലുള്ള ഒരു പൈപ്പ് കഷത്തെയാണു
സിലിണ്ടറാകാര മൌത്പീസ് എന്നു പറയുന്നതു് ചിത്രം 9.1(a) നോക്കുക.
-228-
സാധാരണയായി സിലിണ്ടറാകാര മൌത്പീസില്഼ വ്യാസത്തിന്഼റെ പകുതി
ദൂരത്തുവച്ചാണു് ജെററ് സങ്കോചം ഉണ്ടാകുന്നതു്. ജെററ് സങ്കോചത്തിനു
ശേഷം ദ്രാവക ജെററ് വീണ്ടും വികസിച്ചു് മൌത്പീസ് പൂര്഼ണമായി നിറ~
ത്തൊഴുകുന്നു.
9.4 അഭിസാരി മൌത്പീസ്
  അഭിസാരി മൌത്പീസിന്഼റെ വ്യാസം, അന്തര്഼ഗ഼മത്തില്഼ നിന്നും നിര്഼ഗമ~
ത്തിലേക്കു് വരുംതോറും കുറഞ്ഞു കുറഞ്ഞു വരുന്നു. ചിത്രം9.1 (b) നോക്കുക.അഭിസാരി മൌത്പീസുകള്഼ ഉപയോഗിക്കുന്പോള്഼, പെട്ടെന്നുള്ള വികാസം
മൂലമുണ്ടാകുന്ന ഊര്഼ജഩഷ്ടം ഒഴിവാക്കാന്഼ സാധിക്കുന്നതാണു്. തന്മൂലം
ഇത്തരം മൌത്പീസുകളുടെ നിസ്സരണം താരതമ്യേന വളരെ ഉയര്഼ന്നതായി~
രിക്കും. അഗ്നിശമനഹോസുകളുടെ നോസ്ലുകള്഼ അഭിസാരി മൌത്പീസുക~
ളുടെ രൂപത്തിലാണു് നിര്഼മിക്കാറുള്ളതു്.
-229-
9.5 അഭിസാരി-അപസാരി മൌത്പീസ്
ചിത്രം 9.1(C) നോക്കുക. ഒരു അഭിസാരി-അപസാരി മൌത്പീസ്,
ജെററ് സങ്കോചം വരെ അഭിസാരിയും അതിനുശേഷം അപസാരിയുമായി
രിക്കും. ജെററ് സങ്കോചത്തിനുശേഷം മൌത്പീസ് അപസാരി ആകയാല്഼,
ജെററ് സങ്കോചത്തിലാണു് ഏററവും കൂടുതല്഼ പ്രവേഗം അനുഭവപ്പെടുന്നതു്.</p>

<p>9.6 ബാഹ്യമൌത്പീസ്</p>

<p>  ടാങ്കില്഼ നിന്നും പുറത്തേക്കു് തള്ളിനില്഼ക്കുന്ന മൌത്പീസുകളെയാണു്
ബാഹ്യമൌത്പീസുകള്഼ എന്നു പറയുന്നതു്. ചിത്രം 9.1 ല്഼ a,b,c എന്നിവ
ബാഹ്യ മൌത്പീസുകളാണു്.</p>

<p>9.7 ആന്തരമൌത് പീസ്</p>

<p>  ചിത്രം 9.1 (d)നോക്കുക. ഇവിടെ മൌത്പീസ് ടാങ്കിന്഼റെ ഉള്ളിലേക്കു്
തള്ളില്഼ക്കുന്നു. ഇത്തരം മൌത്പീസുകളെയാണു് ആന്തര മൌത്പീസുകള്഼
എന്നു പറയുന്നതു്. ആന്തര മൌത്പീസിനെ പുനര്഼പ്രവേശന മൌത്പീസ്
എന്നും ബോര്഼ഡാ മൌത്പീസ് എന്നും പറയാറുണ്ടു്.</p>

<p>  വിവിധ തരത്തിലുള്ള മൌത്പീസുകളെക്കുറിച്ചു് വിശദമായി പഠിക്കുന്ന~
തിനുമുന്പായി നമുക്കു്, പൈപ്പുകളില്഼ക്കൂടി ദ്രാവകങ്ങള്഼ ഒഴുകുന്പോള്഼
#അവക്കു
സംഭവിക്കുന്ന ശീര്഼ഷ നഷ്ടങ്ങളെക്കുറിച്ചു് മനസ്സിലാക്കാം.
9.8 ശീര്഼ഷനഷ്ടങ്ങള്഼</p>

<p>  പൈപ്പുകളില്഼ക്കൂടി ഒഴുകന്പോള്഼ ദ്രാവകങ്ങള്഼ക്കു് പല വിധത്തിലുള്ള
ശീര്഼ഷനഷ്ടങ്ങള്഼ സംഭവിക്കുന്നതിനിടയാകുന്നു. അവയില്഼ സാധാരണയായി
പരിഗണിക്കാറുള്ളവ ത഼ാഴെ പറയുന്നവയാണു്.</p>

<p>	1. ഘര്഼ഷണം മൂലമുള്ള ശീര്഼ഷനഷ്ടം
	2. പെട്ടെന്നുള്ള വികാസം മൂലമുണ്ടാകുന്ന ശീര്഼ഷനഷ്ടം.
	3. പെട്ടെന്നുള്ള ഇടുങ്ങല്഼ മൂലമുണ്ടാകുന്ന ശീര്഼ഷനഷ്ടം.
	4. പ്രവേശന നഷ്ടം.
	5. വളവുകള്഼ മൂലമുള്ള ശീര്഼ഷനഷ്ടം
	6. വാല്഼വുകള്഼, ഫിററിങ്ങുകള്഼ എന്നിവ മൂലമുള്ള ശീര്഼ഷനഷ്ടം
	7. തടസ്സം മൂലമുള്ള ശീര്഼ഷനഷ്ടം.</p>

<p>9.9 ഘര്഼ഷണം മൂലമുള്ള ശീര്഼ഷനഷ്ടം</p>

<p>  ഒരു പൈപ്പില്഼ക്കൂടി വെള്ളം (അല്ലെങ്കില്഼ മറേറതെങ്കിലും ദ്രാവകം) 
#ഒഴുക~
ന്പോള്഼, വൈള്ളവുമായി സന്പര്഼ക്കത്തില്഼ വരുന്ന പൈപ്പ് പ്രതലത്തിന്഼റെ
ഘര്഼ഷണം മൂലം വെള്ളത്തിനു് കുറച്ചു് ശീര്഼ഷനഷ്ടം സംഭവിക്കുന്നു. ഇതി~
നെയാണു് ഘര്഼ഷണം മൂലമുള്ള ശീര്഼ഷനഷ്ടം എന്നു പറയുന്നതു്. ഘര്഼ഷണം
-230-
മൂലമുള്ള ശീര്഼ഷനഷ്ടത്തെ ഘര്഼ഷണ നഷ്ടം എന്നും പറയാറുണ്ടു്. ഘര്഼ഷണ
നഷ്ടത്തെക്കുറിച്ച് നമുക്ക് പന്ത്രണ്ടാം അധ്യായത്തില്഼ വിശദമായി പഠിക്കാം.
9.10 പെട്ടെന്നുള്ള വികാസം മൂലമുള്ള ശീര്഼ഷനഷ്ടം.
  a,പരിഛേദ വിസ്തീര്഼ണമുള്ള ഒരു പൈപ്പില്഼ക്കൂടി വെള്ളം (അല്ലെങ്കില്഼
മറേറതെങ്കിലും ദ്രാവകം) ഒഴുകുന്നു എന്നിരിക്കട്ടെ. ചിത്രം 9.2 നോക്കുക.
ചിത്രത്തില്഼ കാണിച്ചിട്ടുള്ള(1) (1) എന്ന സെക്ഷന്഼ പരിഗണിക്കുക. ഈ
സെക്ഷനില്഼ പൈപ്പിലെ മര്഼ദം P1 ഉം പ്രവേഗം v1 ഉം ആണെന്നു കരുതുക.
പൈപ്പിന്഼റെ പരിഛേദവസ്തീര്഼ണം a1 ല്഼ നിന്നും പെട്ടെന്നു് a2 ആയി
വര്഼ധിക്കുന്നു എന്നിരിക്കട്ടെ. ഇങ്ങനെ വര്഼ധിച്ച പരിഛേദമുള്ള ഭാഗത്തെ 
#ഒരു
സെക്ഷനാണു് (2)(2) ഈ സെക്ഷനില്഼ ദ്രാവകത്തിന്഼റെ മര്഼ദം p2 ഉം
പ്രവേഗം v2 ഉം ആണെന്നു കരുതുക.</p>

<p>  പൈപ്പിന്഼റെ പെട്ടെന്നു് വികസിച്ച ഭാഗത്തുകൂടി ദ്രാവകമൊഴുകുന്പോള്഼
ചിത്രം 9.2 ല്഼ കാണിച്ചിട്ടുള്ളതുപോലെ ചുഴികള്഼ കൊള്ളുന്നതു്. ഈ വലയാകാര~
ഭാഗത്തിന്഼റെ പരിഛേദ വിസ്തീര്഼ണം (a2-a1) ആയിരിക്കും. ചുഴികള്഼ വല~
യാകാരഭാഗത്തു് പ്രയോഗിക്കുന്ന മര്഼ദം Po ആണെന്നിരിക്കട്ടെ. എന്നാല്഼ po
-231-
ഏകദേശം p1 നോടു തുല്യമായിരിക്കുമെന്നു് പരീക്ഷണങ്ങളില്഼ നിന്നും തെളി~
ഞ്ഞിട്ടുണ്ടു്. അതിനാല്഼ നമുക്കു് ഇനിയുള്ള പരികലനങ്ങളില്഼
-235-</p>

<p>9.11 പെട്ടെന്നുളള ഇടുങ്ങല്഼ മൂലമുണ്ടാകുന്ന ശീര്഼ഷനഷ്ടം</p>

<p>	ചിത്രം 9.3 നോക്കുക. വെളളമൊഴുകുന്ന ഒരു പൈപ്പിന്഼റെ വ്യാസം
# പെട്ടെന്നു്
ചുരുങ്ങുന്നു എന്നിരിക്കട്ടെ. അപ്പോള്഼ പൈപ്പില്഼ക്കൂടിയുളള പ്രവാഹം 
# ചിത്ര~
ത്തില്഼ കാണിച്ചിട്ടുളളതുപോലെയായിരിക്കും; അതായതു് പൈപ്പു് സങ്കോച
സെക്ഷനില്഼ വച്ച് ജലജററ് ഒന്നുകൂടി സങ്കോചിക്കുകയും അതിനു ശേഷം 
വീണ്ടും വികസിച്ചു് പൈപ്പ് നിറഞ്ഞൊഴുകുകയും ചെയ്യുന്നു. അതിനാല്഼,
പെട്ടെന്നുളള ഇടുങ്ങല്഼ മൂലമുണ്ടാകുന്ന ശീര്഼ഷനഷ്ടം, ഇടുങ്ങല്഼ മൂലം
# മാത്രമല്ല,
ഇടുങ്ങളിനു ശേഷം പെട്ടെന്നുണ്ടാകുന്ന വികാസം കൊണ്ടു കൂടിയാണു്.</p>

<p>-257-
10.1 കുത എന്നാലെന്തു്?</p>

<p> ചിത്രം 10.1(a) യില്഼ കാണിച്ചിട്ടുള്ളതുപോലെ, ഒരു ടാങ്കിന്഼റെ പാര്഼ശ്വ~
ഭാഗത്തു് ഒരു വലിയ ഒറിഫിസ് ഉണ്ടെന്നിരിക്കട്ടെ. ചിത്രത്തില്഼ ടാങ്കിലെ
ദ്രാവകവിതാനം ഒറിഫിസിന്഼റെ മുകള്഼ ഭാഗത്തിനു് താഴെയാണു്. അതിനാല്഼
ഒറിഫിസ് പൂര്഼ണമായി നിറഞ്ഞൊഴുകുന്നില്ല. ഇങ്ങനെ നിറഞ്ഞൊഴുകാത്ത,
വലിയ ഒറിഫിസുകളെയാണു് കതകള്഼ എന്നു പറയുന്നതു്.</p>

<p>   ക഼ുതകള്഼ സാധാരണ഼യായി ലോഹപ്ലേററുകള്഼ കൊണ്ടാണു് നിര്഼മിക്കുന്നതു്.
കുതകളുടെ അടിഭാഗത്തെ അരികിനെ സില്഼ അല്ലെങ്കില്഼ ശിഖരം എന്നു പറ~
യുന്നു. ഈ ശിഖരത്തിനു മുകളില്഼ക്കൂടിയാണു് കുതയില്഼ ദ്രാവകമൊഴുകുന്നതു്.</p>

<p>10.2 വിവിധ തരം കുതകള്഼</p>

<p> കതകള്഼ പല തരത്തിലുണ്ടു്. പ്രധാനമായും കുതകളുടെ ആകൃതി അനുസരി~
ച്ചാണു് അവയെ വര്഼ഗീകരിക്കുന്നതു്. നമുക്കു് ഈ അധ്യായത്തില്഼ താഴെ
പറയുന്ന കുതകളെക്കുറിച്ചു് പിഠിക്കാം.</p>

<p>	(i) ദീര്഼ഘചതുരകുത</p>

<p>	(ii) ത്രികോണക഼഼ുത
	(iii) ട്രപ്പീസിയകുത
	(iv) സോപാനകുത</p>

<p>10.3  ദീര്഼ഘചതുര കുതയുടെ നിസ്സരണം</p>

<p>  ചിത്രം 10.2 കാണിച്ചിട്ടുള്ളതുപോലെ ഒരു ദീര്഼ഘചതുര കുതയ്ക്കു മുകളി~
ലൂടെ വെള്ളമൊഴുകുന്നു എന്നിരിക്കട്ടെ. കുതയുടെ ശിഖരത്തിനു് മുകളിലുള്ള
വെള്ളത്തിന്഼റെ ഉയരം H ഉം (ഇതിനെ കുതയുടെ ശീര്഼ഷം എന്നു പറയുന്നു.)
കുതയുടെ വീതി (അല്ലെങ്കില്഼ നീളം)b യും ആണെന്നു കരുതുക.
-265-
10.6 ത്രികോണ കുതയുടെ മേന്മകള്഼</p>

<p> ദീര്഼ഘചതുര കുതയെ അപേക്ഷിച്ചു് ത്രികോണ കുതയ്ക്കു് താഴെ പറയുന്ന
മേന്മകളുണ്ടു്.</p>

<p>1. ഒരു ത്രികോണ കുതയില്഼ക്കൂടിയുള്ള നിസ്സരണം നിര്഼ണയിക്കുവാന്഼ ഒരു
   അളവുമാത്രമേ (അതായതു് ശീര്഼ഷം H മാത്രമേ) എടുക്കേണ്ടതുള്ളു.</p>

<p>2. ചെറിയ നിസ്സരണങ്ങള്഼ അളക്കുന്പോള്഼ ത്രികോണ കുത, ദീര്഼ഘചത഼ുര~
   കുതയെ അപേക്ഷിച്ചു് കൂടുതല്഼ കൃത്യമായ ഫലം നല്഼കുന്നു.</p>

<p>3.  ത്രികോണ കുതകള്഼ ഉപയോഗിച്ചു് ചെറിയ നിസ്സരണങ്ങളും വലിയ
    നിസ്സരണങ്ങളും തുല്യ കൃത്യതയോടെ അളക്കാം.</p>

<p>10.7 ട്രപ്പീസിയ കുതയുടെ നിസ്സരണം.</p>

<p> ഒരു ദീര്഼ഘചതുര കുതയും രണ്ടു ത്രികോണ കുതകളും കൂടിച്ചേര്഼ന്നതാണു്
ട്രപ്പീസിയ കുത. 
-270-
10.9 നിസ്സരണത്തിന്മേല്഼ ശീര്഼ഷം അളക്കുന്നതിനുള്ള പിശകിന്഼റെ
പ്രഭാവം</p>

<p>  വിവിധ തരത്തിലുള്ള കുതകളുടെ നിസ്സര഼ണം നിര്ണയിക്കുന്നതിനുള്ള സമീ~
കരണങ്ങള്഼ നാം രൂപീകരിച്ചുകഴിഞ്ഞുവല്ലൊ. ഈ സമീകരണങ്ങളുപയോ~
ഗിച്ചു് നിര്഼ണയിക്കുന്ന നിസ്സരണങ്ങള്഼ കൃത്യമായിരിക്കണമെങ്കില്഼ കുതയുടെ
-271-
ശീര്഼ഷം അളക്കുന്നതും വളരെ കൃത്യതയോടെയായിരിക്കണം. എന്നാല്഼ കുതക~
ളുടെ ശീര്഼ഷം അളക്കുന്പോള്഼ പലപ്പോഴും ചെറിയ പിശകുകള്഼ പററുക സാധാര~
ണമാണു്. അതിനാല്഼ ശീര്഼ഷം അളക്കുന്പോഴുണ്ടാകുന്ന പിശകുകള്഼ കുതയുടെ
നിസ്സരണത്തെ എങ്ങനെ ബാധിക്കുന്നു എന്നു് അറിഞ്ഞിരിക്കേണ്ടതാവശ്യ~
മാണു്.
10.10 ഒരു ദീര്഼ഘചതുര കുത ഉപയോഗിച്ചു് ഒരു ടാങ്കിലെ ദ്രാവകം
  ഒഴുക്കിക്കളയുവാന്഼ വേണ്ട സമയം.</p>

<p>   ഏകസമാന പരിഛേദവിസ്തീര്഼ണമുള്ള ഒരു ടാങ്കിന്഼റെ പാര്഼ശ്വഭാഗത്തു് b
വീതിയുള്ള ഒരു ദീര്഼ഘചതുര കുത ഉണ്ടെന്നിരിക്കട്ടെ. ഈ കുതയില്഼ക്കൂടി 
#തുട഼~
ക്കത്തില്഼ H1 ശീര്഼ഷത്തില്഼ വെള്ളം (അല്ലെങ്കില്഼ മറേറതെങ്കിലും ദ്രാവകം)
ടാങ്കില്഼നിന്നും പുറത്തേക്കൊഴുകിക്കൊണ്ടിരിക്കുന്നു എന്നു കരുതുക. 
#ടാങ്കിലേക്കു്
പുറത്തുനിന്നും വെള്ളം എത്തിക്കുന്നില്ലെങ്കില്഼ കുതയുടെ ശീര്഼ഷം ക്രമേണ 
#കുറ~
ഞ്ഞുവരുന്നു. ഇങ്ങനെ കുതയുടെ ശീര്഼ഷം H1ല്഼ നിന്നും H2 ആയി കുറയുവാ~
നെടുക്കുന്ന സമയം t ആണെന്നിരിക്കട്ടെ.</p>

<p>  ഒരു നിര്഼ദിഷ്ട സെക്കന്഼റില്഼ കുതയുടെ ശീര്഼ഷം h ആണെന്നു് കരുതുക.
അതിനുശേഷം dt സമയംകൊണ്ട് ടാങ്കിലെ ജലവിതരണം dh താഴുന്നു എന്നി~
രിക്കട്ടെ. അപ്പോള്഼ ടാങ്കിന്഼റെ പരിഛേദ വിസ്തീര്഼ണം A ആണെങ്കില്഼ dt
സമയത്തിനുള്ളില്഼ കുതയില്഼ക്കൂടി ഒഴുകുന്ന ദ്രാവകത്തിന്഼റെ വ്യാപ്തം
-282-
11
	വിയറുകള്഼</p>

<p>  കുതകളെക്കുറിച്ചു് നാം കഴിഞ്ഞ അധ്യായത്തില്഼ പഠിച്ചുവല്ലൊ.നദി~
കള്഼ക്കു കുറകെ നിര്഼മിക്കുന്ന വലിയ ദീര്഼ഘചതുര കുതകളെയാണു് വിയറുകള്഼
എന്നു പറയുന്നതു്.</p>

<p>11.1 കുതയും വിയറും തമ്മിലുള്ള വ്യത്യാസം</p>

<p>  കുതയുടെയും വിയറിന്഼റെയും ധര്഼മം ഒന്നുതന്നെയാണെങ്കിലും അവ തമ്മില്഼
താഴെപ്പറയുന്ന വ്യത്യാസങ്ങളുണ്ടു്.</p>

<p>(i) കുതകളെ അപേക്ഷിച്ചു് വിയറുകള്഼ വളരെ വലിയവയായിരിക്കും.
(ii) ഏതെങ്കിലും ലോഹപദാര്഼ഥമുപയോഗിച്ചാണു് സാധാരണയായി
   കുതകള്഼ നിര്഼മിക്കുന്നതു്. എന്നാല്഼ വിയറുകള്഼ കല്഼ക്കെട്ടുകൊണ്ടോ
   അല്ലെങ്കില്഼ കോണ്഼ക്രീററുകൊണ്ടോ നിര്഼മിച്ചവയായി~
   രിക്കും.</p>

<p>11.2 വിയറുകളെ പലവിധത്തില്഼ വര്഼ഗീകരിക്കാം. അവയില്഼ പ്രധാനപ്പെട്ടവ 
   താഴെ പറയുന്നവയാണു്.</p>

<p>(a) ആകൃതി അനുസരിച്ചു്
  (i) ദീര്഼ഘചതുര വിയര്഼
  (2) സിപല്ലൊററി വിയര്഼
 (b) ശിഖരത്തിന്഼റെ ആകൃതി അനുസരിച്ചു്
  (i) ഇടുങ്ങിയ ശിഖരവിയര്഼
  (ii) പരന്ന ശിഖരവിയര്഼
-283-
  (c) നിസ്സരണ രീതി അനുസരിച്ചു്
  (i) സാധാരണ വിയര്഼
  (ii) നിമജ്ജിത വിയര്഼
(d) ശിഖരത്തിന്഼റെ പ്രത്യേകതയനുസരിച്ചു്
(i) നിശിത ശിഖരവിയര്഼
 (ii) ഭാജി വിയര്഼</p>

<p>11.3 ദീര്഼ഘടചതുര വിയര്഼</p>

<p>  ചിത്രം 11.1 ല്഼ ഒരു ദീര്഼ഘചത഼ുര വിയര്഼ കാണിച്ചിരിക്കുന്നു. ഈ വിയ~
റിന്഼റെ നീളം 1 ഉം ശിഖരത്തിനു മുകളിലുള്ള ജലശീര്഼ഷം H ഉം ആണെന്നിരി~
ക്കട്ടെ. ജലോപരിതലത്തില്഼ നിന്നും h താഴെയായി dh കനത്തില്഼ ഒരു വില~
ങ്ങന്഼ ജലഖണ്ഡം എടുത്താല്഼, ഈ ജ഼ലണ്ഡത്തിന്഼റെ
-286-
11.4 ദീര്഼ഘചതുര വിയറുകളുടെ നിസ്കരണത്തിനുള്ള
  ബേസിന്഼സുത്രം</p>

<p>  ഒരു ദീര്഼ഘചതുര വിയറിന്഼റെ നിസ്സരണം</p>

<p> ആണെന്നു് നാം മഩസ്സിലാക്കിയല്ലൊ. ഈ സമികരണത്തില്഼ നിസ്സരണ~
ഗുണാങ്കം cd യുടെ വില, വിയറിന്഼റെ ശീര്഼ഷമനുസരിച്ചു് വ്യത്യാസപ്പെടുന്നു.
അതിനാല്഼ ഒരു നിര്഼ദിഷ്ട വിയറിനെ സംബന്ധിച്ചിടത്തോളം cd യുടെ
വില ഒരു സ്ഥിരസംഖ്യയായി എടുക്കുവാന്഼ നിവൃത്തിയില്ല. ഈ ബുദ്ധിമുട്ട്
ഒഴിവാക്കുന്നതിനായി ഒരു ഫ്രഞ്ച് എഞ്ചിനീയറായിരുന്ന ബേസിന്഼ നിരവധി
പരീക്ഷണനിരീക്ഷണങ്ങള്഼ക്കുശേഷം ദീര്഼ഘചതുര വിയറുകളുടെ നിസ്സര഼ണ~
ത്തിനു് താഴെ പറയുന്ന സൂത്രം നിര്഼ദേശിക്കുകയുണ്ടായി . ഈ സ഼ൂത്രത്തില്഼
cd ഉള്഼പ്പെടുന്നില്ലെന്നുള്ളതു് പ്രത്യേകം ശ്രദ്ധേയമാണു്. ബേസിന്഼ 
#സൂത്രമഩു
സരിച്ചു്
1.5. ദീര്഼ഘചതുര വിയറുകളുടെ നിസ്സരണത്തിനുള്ള ഫ്രാന്഼സിസ്
സൂത്രം</p>

<p>  ചിത്രം 11.2 നോക്കുക. ഒരു ദീര്഼ഘചതുരവിയറില്഼ക്കൂടി വെള്ളമൊഴുകു~
ന്പോള്഼ സില്ലിന്഼റെ അഗ്രങ്ങളില്഼ വച്ച് പ്രവാഹം സങ്കോചിക്കുന്നുണ്ടു്.
ഇതിനെ അഗ്രസങ്കോചങ്ങള്഼ എന്നു പറയുന്നു. ഈ അഗ്രസങ്കോചങ്ങളുടെ 
#പ്രഭാ~
വത്തെക്കുറിച്ച് ജെ.ബി. ഫ്രാന്഼സിസ് എന്ന ശാസ്ത്രജ്ഞന്഼ വിപുലമായ പഠന~
ങ്ങള്഼ നടത്തുകയുണ്ടായി. ഒരു അഗ്രസങ്കോപം മൂലം പ്രവാഹത്തിനു് നഷ്ട~
പ്പെടുന്ന നീളം, വിയറിന്഼റെ ശീര്഼ഷത്തില്഼ ഏകദേശം 
#പത്തിലൊരംശമായിരിക്കുമെന്നാണു്
-288-
ഫ്രാന്഼സിസിന്഼റെ പരീക്ഷണങ്ങളില്഼ നിന്നും തെളിഞ്ഞതു്.
ഒരു ദീര്഼ഘചതുരവിയറിനു് ചിത്രം 11.2 ല്഼ കാണിച്ചിട്ടുള്ളതുപോലെ രണ്ടഗ്ര 
സങ്കോചങ്ങള്഼ ഉണ്ടാകുമല്ലോ.അതിനാല്഼ l നീളമുള്ള ഒരു ദീര്഼ഘചതുരവിയ~
റിന്഼റെ സഫലനീളം.
ചിലപ്പോള്഼ വിയറിന്഼റെ മൊത്തം നീളത്തെ, ചിത്രം 11.3 ല്഼ കാണിച്ചി~
ട്ടുള്ളതുപോലെ പല സ്പാനുകളായി വിഭജിച്ചിരിക്കും. അപ്പോള്഼ അഗ്രസങ്കോച~
ങ്ങളുടെ എണ്ണം സ്പാനുകളുടെ എണ്ണത്തിന്഼റെ ഇരട്ടി ആയിരിക്കും.അതിനാല്഼
ഫ്രാന്഼സിസ് സൂത്രത്തെ നമുക്ക് താഴെ പറയുന്ന വിധത്തില്഼ സാമാന്യവല്ക്ക~
രിക്കാം.
-290-
11.6 സിപലൊററിവിയര്഼</p>

<p>  ചിത്രം 11.4 ല്഼കാണിച്ചിട്ടുള്ളതുപോലെ 1:0 25 എന്ന അനുപാതത്തില്഼
(അതായതു് 1 ക഼ുത്തന്഼ ദൂരത്തിനു് 0.25 വിലങ്ങന്഼ ദൂരം) ചരിവു വശങ്ങളുള്ള
#ഒരു
ട്രപീസിയ വിയറിനെയാണു് സിപലൊററിവിയര്഼ എന്നു പറയുന്നതു്. ഒരു
ഇററാലിയന്഼ എന്഼ജിനീയറായ സിപലൊററിയാണു് ഈ വിയര്഼ ആദ്യമായി
ആവിഷ്ക്കരിച്ചതു്.</p>

<p>  ദീര്഼ഘചതുരവിയറുകളുടെ നിസ്സരണത്തിനുള്ള സമീകരണത്തില്഼ അഗ്രസ~
ങ്കോചങ്ങള്഼ക്കുള്ള തിരുത്തലുകള്഼ ഉള്഼പ്പെടുത്തേണ്ടതാവശ്യമാണെന്ന് നാം
#മന~
സ്സിലാക്കിയല്ലോ. എന്നാല്഼ സിപലൊററി വിയറുകളില്഼ വിയറിന്഼റെ പാര്഼ശ്വ~
ങ്ങളുടെ ചരിവ് അഗ്രസങ്കോചങ്ങളുടെ പ്രഭാവം ഇല്ലാതാക്കിക്കൊള്ളും.
മറെറാരുവിധത്തില്഼ പറഞ്ഞാല്഼ അഗ്രസങ്കോചങ്ങളുടെ പ്രഭാവം നിഷ്ഫലമാ~
ക്കത്തക്കരീതിയിലാണു് സിപലൊററി വിയറിന്഼റെ വശങ്ങളുടെ ചരിവു്
നിര്഼ണയിച്ചിട്ടുള്ളതു്. ഇതു് സൈദ്ധാന്തികമായി തഴെ പറയുന്ന വിധത്തില്഼
തെളിയിക്കാം.</p>

<p>  ചിത്രം 11.4 നോക്കുക. ഒരു സിപലൊററി വിയറിന്഼റെ പരിഛേദത്തില്഼
ഒരു ദീര്഼ഘചതുരവും ഈ ദീര്഼ഘചതുരത്തിന്഼റെ പാര്഼ശ്വങ്ങളില്഼ ഓരോ
ത്രികോണവും ഉള്഼പ്പെടുന്നു, ഇവയില്഼, ദീര്഼ഘചതുരത്തില്഼ക്കൂടിയുള്ള നിസ്സ~
രണം q1 ഉം രണ്ടു ത്രികോണങ്ങളില്഼ക്കൂടിയുള്ള മൊത്തം നിസ്സരണം q2 ഉം
ആണെന്നിരിക്കട്ടെ. അപ്പോള്഼, അഗ്രസങ്കോചങ്ങള്഼ പരിഗണിക്കുന്പോള്഼
-292-
11.7 ഉപഗമനപ്രവേഗം</p>

<p>  ഉപഗമനപ്രവേഗത്തെക്കുറിച്ച് ഏഴാം അധ്യായത്തില്഼ പരാമര്഼ശിച്ചിട്ടു~
ണ്ടല്ലോ. ഒറിഫിസുകളുടെ ഉപഗമനപ്രവേഗത്തെക്കുറിച്ചാണു് അവിടെ നാം
പരിഗണിച്ചതു്. ഒറിഫിസുകളെപ്പോലെ തന്നെ വിയറുകള്഼ക്കും ഉപഗമന
പ്രവേഗമുണ്ടാകും.</p>

<p>  ഒരു നദിയുടെ നിസ്സരണം അളക്കുന്നതിനായി നദിക്കു കുറകെ ഒരു വിയര്഼
നിര്഼മിച്ചിരിക്കുന്നു എന്നു കരുതുക. നദിയുടെ ഒഴുക്കു മൂലം ഒരു നിശ്ചിത
#പ്രവേ~
ഗത്തോടു കൂടിയായിരിക്കും വെള്ളം വിയറിലേക്കെത്തുന്നതു്. ഇങ്ങനെ വിയ~
റിലേക്കൊഴുകുന്ന വെള്ളത്തിന്഼റെ പ്രവേഗത്തെയാണു് ഉപഗമനപ്രവേഗം എന്നു
പറയുന്നതു്.
-293-
  ഈ അധ്യായത്തില്഼ ഇതുവരെ നാം രൂപീകരിച്ച സമീകരണങ്ങളൊന്നും
തന്നെ ഉപഗമനപ്രവേഗം പരിഗണിച്ചിട്ടില്ല. എന്നാല്഼ ഉപഗമനപ്രവേഗം
വളരെ കൂടുതലാണെങ്കില്഼, അതിന്഼റെ പ്രഭാവം പരിഗണിക്കേണ്ടിവരും.
-296-
11.8 ഇടുങ്ങിയ ശിഖരവിയറിന്഼റെ നിസ്സരണം</p>

<p>  ശിഖരത്തിന്഼റെ വീതി അനുസരിച്ചു് വിയറുകളെ ഇടുങ്ങിയ ശിഖരവിയര്഼
എന്നും പരന്ന ശിഖര വിയര്഼ എന്നും വര്഼ഗീകരിക്കാമെന്നു് നാം മനസ്സിലാക്കി~
ൟല്ലോ. ശിഖരത്തിന്഼റെ വീതി, വിയറിന്഼റെ ശീര്഼ഷത്തിന്഼റെ പകുതിയെ~
ക്കാള്഼ കുറവുള്ള വിയറുകളെയാണു് ഇടുങ്ങിയ ശിഖരവിയറുകള്഼ എന്നു പറയു~
ന്നതു്. അതുപോലെതന്നെ ശീര്഼ഷത്തിന്഼റെ പകുതിയെക്കാള്഼ കൂടുതല്഼ വീതി
ശിഖരത്തിനുണ്ടെങ്കില്഼ ആ വിയറിനെ പരന്ന ശിഖരവിയര്഼ എന്നും പറയുന്നു.
-305-
11.13 സൈഫണ്഼ ഉത്പ്ലാവം</p>

<p>  ഒരു നദിക്കു കുറകെ അണകെട്ടി വെള്ളം സംഭരിച്ചുനിര്഼ത്തുന്പോള്഼ അണ~
ക്കെട്ടിന്഼റെ പ്രതിപ്രവാഹഭാഗത്തു് ഒരു റിസര്഼വോയര്഼ രൂപം കൊള്ളുമല്ലോ.
ഇങ്ങനെയുള്ള സംഭരണറിസര്഼വോയറിലെ ജലവിതാനം ഒരു നിര്഼ദിഷ്ടപരിധി
-306-
വിട്ടുയാരാതെ സൂക്ഷിക്കേണ്ടതാവശ്യമാണു്. ഇതിനു് സാധാരണയായി വിയറു
കള്഼ ഉപയോഗിക്കാറുണ്ട്. ഇങ്ങനെ ഉത്പ്ലാവമായി ഉപയോഗിക്കുന്ന വിയറു~
കളുടെ ശിഖരം പരമോന്നത ജലവിതാനത്തിലായിരിക്കും. അതിനാല്഼ റിസര്഼~
വോയറിലെ ജലനിരപ്പു് നിശ്ചിത പരിധി വിട്ടുയര്഼ന്നാല്഼ കൂടുതലുള്ള വെള്ളം
വിയറില്഼ കൂടി അണക്കെട്ടിന്഼റെ അനുപ്രവാഹഭാഗത്തേക്കു് ഒഴുകിക്കൊള്ളും.</p>

<p>  റിസര്഼വോയറുകളുടെ ഉത്പ്ലാവനിസ്സരണത്തിനുള്ള മറെറാരു സംവിധാന~
മാണു് സൈഫണ്഼ ഉത്പ്ലാവം. ഇതിനു് ഉത്പ്ലാവവിയറുകളേക്കാള്഼ കൂടുതല്഼
കാര്യക്ഷമതയുണ്ടു്. ചിത്രം 11.10 ല്഼ ഒരു സൈഫണ്഼ ഉത്പ്ലാവത്തിന്഼റെ
പരിഛേദം കാണിച്ചിരിക്കുന്നു. അണക്കെട്ടിന്഼റെ പ്രതിപ്രവാഹഭാഗത്തെയും
അനുപ്രവാഹഭാഗത്തെയും ജലവിതാനങ്ങളെ തമ്മില്഼ ബന്ധിപ്പിക്കുന്ന ഒരു
സൈഫണാണു് സൈഫണ്഼ ഉത്പ്ലാവത്തിന്഼റെ പ്രവര്഼ത്തനത്തിനാസ്പദം.
ഇതിന്഼റെ പ്രവര്഼ത്തനം താഴെ പറയുന്ന രീതിയില്഼ സ്വചാലിതമാണു്. റിസര്഼~
വോയറിലെ ജലവിതാനം സൈഫണ്഼ ഉത്പ്ലവത്തിന്഼റെ ശിഖരം( ചിത്ര~
ത്തില്഼ A എന്ന ബിന്ദു) വിട്ടുയരുന്പോള്഼ സൈഫണില്഼ കൂടി വെള്ളമൊഴുകു~
കാന്഼ തുടങ്ങും. അപ്പോള്഼ ചിത്രത്തിലെ B എന്ന സ്ഥലത്തു് ഒരു ശൂന്യസ്ഥ~
ലത്തേക്കു് വെള്ളം കയറുകയും ചെയ്യുന്നു.ഇങ്ങനെ സൈഫണ്഼ പൂര്഼ണമായി
നിറയുന്പോള്഼ സൈഫണ്഼ പ്രവര്഼ത്തനം തുടങ്ങിക്കൊള്ളും. തന്മൂലം സൈഫ~
ണില്഼ കൂടി ശക്തിയായി വെള്ളമൊഴുക഼ുന്നു.</p>

<p>  ചിത്രം 11.10 നോക്കുക. ഈ ചിത്രത്തില്഼ കാണിച്ചിട്ടുള്ള അണയുടെ ഉത്~
പ്ലാവനിസ്സരണത്തിനു് ഒരു വിയര്഼ ഉപയോഗപ്പെടുത്തുകയാണെങ്കില്഼ നിസ്സരണ~
ത്തിന്഼റെ ശീര്഼ഷം h മാത്രമായിരിക്കും. എന്നാല്഼ വിയറിനു പകരം ഒരു
സൈഫണ്഼ ഉത്പ്ലാവമുപയോഗിക്കുന്പോള്഼ H ശ഼ീര്഼ഷത്തില്഼ നിസ്സരണം
-307-
നടക്കും. H.h നേക്കാള്഼ വളരെ കൂടുതലാകയാല്഼ (ചിത്രം നോക്കുക)ഒരു
വിയറിനെ അപേക്ഷിച്ചു് ഒരു സൈഫണ്഼ ഉത്പ്ലാവത്തിന്഼റെ നിസ്സരണം കൂടു~
തലായിരിക്കുമെന്നു് വ്യക്തമാണല്ലൊ.</p>

<p>-312-
12
		പൈപ്പ് പ്രവാഹം</p>

<p>12.1 പൈപ്പ്</p>

<p>   മര്഼ദത്തില്഼ ദ്രാവകങ്ങള്഼ വഹിച്ചുകൊണ്ടുപോകുന്നതിനുള്ള സംവൃത വാഹി~
യെയാണു് ഹൈഡ്രോളിക എന്഼ജിനീയിറിങില്഼ പൈപ്പു് എന്നു പറയുന്നതു്.
പൈപ്പിന്഼റെ പരിഛേദം സാധാരണയായി വൃത്താകൃതിയിലായിരിക്കും.</p>

<p>   വ്യാസത്തിന്഼റെ ആയിരം ഇരട്ടിയേക്കാള്഼ കൂടുതല്഼ നീളമുള്ള പൈപ്പുകളെ
സാധാരണയായി ദീര്഼ഘ പൈപ്പുകള്഼ ആയിട്ടാണു് കണക്കാക്കാറുള്ളതു്. അതു~
പോലെ തന്നെ നീളം വ്യാസത്തിന്഼റെ ആയിരം ഇരട്ടിയേക്കാള്഼ കുറവുള്ള
പൈപ്പുകളെ ഹ്രസ്വ പൈപ്പുകളായും പിരഗണിക്കുന്നു.</p>

<p>   പൈപ്പുകള്഼ നിറഞ്ഞൊഴുകുന്പോള്഼ അവയിലെ പ്രവാഹം മര്഼ദത്തിനു വിധേ~
യമായിട്ടായിരിക്കും. ഇത്തരം പ്രവാഹങ്ങളെ മര്഼ദപ്രവാഹങ്ങള്഼ എന്നു 
#പറയുന്നു.
പൈപ്പുകളിലെ മര്഼ദപ്രവാഹത്തെക്കുറിച്ചാണു് ഈ അധ്യായത്തില്഼ നാം പഠി~
ക്കുന്നതു്.</p>

<p>12.2. ഘര്഼ഷണം മൂലമുള്ള ശീര്഼ഷനഷ്ടം.</p>

<p>  പൈപ്പുകളില്഼ക്കൂടി ഒഴുകുന്ന ദ്രാവകങ്ങള്഼ പല വിധത്തിലുള്ള ശീര്഼ഷനഷ്ട~ങ്ങള്഼ക്കു വിധേയമാണെന്നു് ഒന്പതാം അധ്യായത്തില്഼ 
#പ്രസ്താവിച്ചിട്ടുണ്ടല്ലോ.
ഘര്഼ഷണം വഴിയുള്ള ശീര്഼ഷനഷ്ടമാണു് അവയില്഼ പ്രധാനം. ദ്രാവകം
(വെള്ളം) ഒഴുകുന്ന പൈപ്പു് പ്രതലത്തിന്഼റെ (അതായതു് പൈപ്പിന്഼റെ ഉപരി
ഭാഗത്തെ)ഘര്഼ഷണം മൂലമാണു് ഈ നഷ്ടം സംഭവിക്കുന്നതു്. പൈപ്പുക~
ളിലെ ഘര്഼ഷണം  മൂലമുള്ള ശീര്഼ഷനഷ്ടം നിര്഼ണയിക്കുന്നതിനു് താഴെ പറയുന്ന
സൂത്രങ്ങളാണു് സാധാരണയായി ഉപയോഗിക്കാറുള്ളതു്.</p>

<p>	1. ഡാഴ്സിസൂത്രം
	2. ചെസിസൂത്രം
-317-
12.5 ലഘുശീര്഼ഷ നഷ്ടങ്ങള്഼</p>

<p>  പൈപ്പ് പ്രവാഹത്തില്഼ ഘര്഼ഷണം വഴിയുള്ള ശീര്഼ഷനഷ്ടത്തിനു പുറമെ
മററു വിധത്തിലും ദ്രാവകങ്ങള്഼ക്കു് ശീര്഼ഷനഷ്ടം സംഭവിക്കുന്നുണ്ടു്. 
#എന്നാല്഼
ഈ നഷ്ടങ്ങള്഼ ഘര്഼ഷണംവഴിയുള്ള ശീര്഼ഷനഷ്ടവുമായി താരതമ്യപ്പെടുത്തു~
ന്പോള്഼ വളരെ നിസ്സാരങ്ങളാണു്. അതിനാല്഼ ഇവയെ ലഘുശീര്഼ഷനഷ്ടങ്ങള്഼
എന്നു പറയുന്നു. ലഘുശീര്഼ഷനഷ്ടങ്ങളെക്കുറിച്ചു് ഒന്പതാം അധ്യായത്തില്഼
സവിസ്തരം പ്രതിപാദിച്ചുകഴിഞ്ഞിട്ടുള്ളതാണല്ലൊ. ഈ അധ്യായത്തെ
സംബന്ധിച്ചിടത്തോളം അവയില്഼ താഴെ പറയുന്നവയ്ക്കാണു് കൂടുതല്഼ പ്രസ~
ക്തിയുള്ളതു്.
-325-
12.7 പൈപ്പുകളില്഼ക്കൂടിയുള്ള ശക്തിപ്രേഷണം</p>

<p>  ജലവൈദ്യുത പദ്ധതികള്഼ നമുക്കു് സുപരിചിതമാണല്ലൊ. ഒരു സംഭരണ
ജലാശയവും അതിനോടനുബന്ധിച്ചുള്ള പവര്഼ഹൌസുമാണു് ഒരു ജലവൈദ്യുത
പദ്ധതിയുടെ പ്രധാന ഘടകങ്ങള്഼. ചിത്രം 12.3 നോക്കുക. നദികള്഼ക്കു കുറകെ
അണ െകട്ടി വെളളം തടഞ്ഞുനിര്഼ത്തിയാണു് സംഭരണ ജലാശയമുണ്ടാക്കുന്നതു്.
ഇങ്ങനെ ഉന്നതശീര്഼ഷത്തില്഼ സംഭരിച്ചുനിര്഼ത്തുന്ന വെള്ളം വലിയ 
#പൈപ്പുകള്഼
വഴി കൊണ്ടുപോയി പവര്഼ഹൌസിലുള്ള ടര്഼ബൈനുകളില്഼ പതിപ്പിക്കുന്പോള്഼
ടര്഼ബൈനുകള്഼ കറങ്ങുകയും അങ്ങനെ വൈദ്യുതി ഉല്പാദിപ്പിക്കപ്പെടുകയും 
#ചെ~
യ്യുന്നു. ജലാശയങ്ങളില്഼ നിന്നും പവര്഼ഹൌസിലേക്കു വെള്ളമെത്തിക്കുന്ന പൈ~
പ്പുകളെ`പെന്഼സ്റേറാക്ക്' എന്നു പറയുന്നു. പെന്഼സ്റേറാക്ക്, പൈപ്പുകള്഼ #വഴിയുള്ള
ശക്തിപ്രേഷണത്തിനു് ഒരുദാഹര഼ണമാണു്.
-339-
12.10 സൈഫണ്഼ പൈപ്പുകള്഼</p>

<p>  രണ്ടു റിസര്഼വോയറുകളെ തമ്മില്഼ ബന്ധിപ്പിച്ചു് ഒരു പൈപ്പ് ലൈന്഼ ഇട~
ണമെന്നിരിക്കട്ടെ. ഈ റിസര്഼വോയറുകള്഼ക്കിടയില്഼ വലിയ ഒരു മല ഉണ്ടെന്നും
-340-
കരുതുക. അപ്പോള്഼ മല തുളച്ചു് പൈപ്പ് ലൈന്഼ ഇടുന്നതിനു പകരം ചിത്രം
12.5 ല്഼ കാണിച്ചിട്ടുള്ളതുപോലെ മലയുടെ ഉപരിതലത്തില്഼ കൂടി പൈപ്പിടുക~
യായിരിക്കും ചില സാഹചര്യങ്ങളില്഼, കൂടുതല്഼ സൌകര്യപ്രദം. ഇങ്ങഩെ 
പൈപ്പിടുന്പോള്഼ ചില഼പ്പോള്഼ മലയുടെ ഉയരം പ്രദാന റിസര്഼വോയറിലെ
ജലവിതനാത്തെക്കാള്഼ കൂടുതലാണെന്നു വാരം. അത്തരം പൈപ്പിനെയാണു്
സൈഫണ്഼ പൈപ്പ് എന്നു പറയുന്നതു്. ചിത്രത്തില്഼ AB യെ സൈഫണ്഼ പൈപ്പിന്഼റെ
#അന്തര്഼ഗമ
ഭുജമെന്നും പറയുന്നു.</p>

<p>  ചിത്രം 12.5 നോക്കുക. B യാണു് പൈപ്പ് ലൈനിലെ ഏററവും ഉയര്഼ന്ന
ബിന്ദു. തന്മൂലം ഇവിടെ മര്഼ദം ഏററവും കുറവായിരിക്കും. B യിലെ നിര~
പേക്ഷമര്഼ദം 2.5 മീ. ജലശീര്഼ഷത്തില്഼ കുറഞ്ഞുപോയാല്഼ വിഛേദനം സംഭവി~
ക്കുവാനും അങ്ങനെ പൈപ്പിലെ പ്രവാഹം നിന്നുപോകാനുമിടയാകും. അതി~
നാല്഼ വിഛേദനം ഒഴിവാക്കണമെങ്കില്഼, സൈഫണ്഼പൈപ്പിലെ ഒരു ബിന്ദുവും
പ്രദാന റിസര്഼വോയര്഼ A യിലെ ജലവിതാനത്തില്഼ നിന്നും 7.5 മീറററില്഼ കൂടു~
തല്഼ ഉയരത്തിലായിരിക്കരുതെന്നു കാണാം. (ഇവിടെ, അന്തരീക്ഷമര്഼ദം
10 മി. ജലശീര്഼ഷമാണെന്നു് സങ്കല്഼പിച്ചിരിക്കുന്നു.)
-347-
12.12 സംയുക്ത പൈപ്പിന്഼റെ തുല്യമാനവ്യാസം</p>

<p>  ഒരു നിര്഼ദിഷ്ട സംയുക്ത പൈപ്പിന്഼റെ അതേ നീളവും അതേ ശീര്഼ഷനഷ്ടവു~
മുള്ള എന്നാല്഼ ഏകസമാനമായ വ്യാസത്തോടു കൂടിയ മറെറാരു പൈപ്പിനെ~
യാണു് തുല്യമാനപൈപ്പ് എന്നു പറയുന്നതു്. തുല്യമാനപ്പൈപ്പിന്഼റെ വ്യാ~
സത്തെ തുല്യമാന വ്യാസം എന്നു പറയുന്നു.
-360-
12.15 ജലാഘാതം
  വെള്ളം (അല്ലെങ്കില്഼ മറേറതെങ്കിലും ദ്രാവകം) ഒഴുകിക്കൊണ്ടിരിക്കുന്ന
#ഒരു
പൈപ്പ് ലൈനിലെ വാള്഼വ് പെട്ടെന്നു് അടക്കുന്നു എന്നിരിക്കട്ടെ. ഉടനെ,
വാള്഼വിന്഼റെ പ്രതിപ്രവാഹഭാഗത്തു് വെള്ളത്തിന്഼റെ ഒഴുക്കു് വിപരീത ദിശയി~
ലാകും. മാത്രമല്ല, വെള്ളത്തിന്഼റെ ഗതിക ഊര്഼ജം മര്഼ਦ」䴍㰍ᰍ⸍㸍⼍㼍‍　䈍⨍㸍⠍䴍␍」縍ഀ਀⨀䴍⨍䘍Ἅ䄍ᔍ⼍䄍ȍ‍ᨀ䘍⼍䴍⼍䄍⠍䴍⠍䄍⸍ ܀␍䄍䴍‍⨀䠍⨍䴍⨍㼍⠍䄍㌍䴍㌍㼍㈍䴍㰍‍⸀」䴍㰍☍⨍䴍」ᔍ⠍䴍⨍⠍ᤍ䴍ᤍ㌍䴍㰍‍ഀ਀⌀ऀ⌍䴍Ἅ㸍ᔍ䄍⠍䴍⠍␍㼍縍ഀ਀⠀㼍Ἅ⼍㸍ᔍ䴍ᔍ䄍⠍䴍⠍䄍⸍ ࠀ‍⸀」䴍㰍☍⨍䴍」ᔍ⠍䴍⨍⠍ᤍ䴍ᤍ㌍䴍㰍‍⨀䠍⨍䴍⨍㼍⠍䴍㰍ㄍ䘍‍ⴀ㼍␍䴍␍㼍ᔍ㌍㼍㈍䴍㰍‍؀᠍㸍␍縍ഀ਀⸀䜍㈍䴍㰍⨍㼍ᔍ䴍ᔍ䄍ȍ⸍ Ԁ␍㼍⠍㸍㈍䴍㰍‍ࠀ‍⨀䴍」␍㼍ⴍ㸍㠍␍䴍␍䘍‍ᰀ㈍㸍᠍㸍␍⸍䘍⠍䴍⠍䄍䴍‍⨀ㄍ⼍䄍⠍䴍⠍䄍⸍ഀ਀ᰀ㈍㸍᠍㸍␍ȍ‍ᔀ䴍」⸍㸍␍䀍␍⸍㸍⼍㸍㈍䴍㰍‍⨀䠍⨍䴍⨍䴍‍⨀䨍Ἅ䴍Ἅ㼍⨍䴍⨍䬍ᔍ㸍⠍㼍Ἅ⼍㸍ᔍ䄍ȍ⸍㰀⼀瀀㸀ഀ਀ഀ਀㰀瀀㸀㄀㈀⸀㄀㘀 㠀㸍㔍✍㸍⠍␍䴍␍㼍㈍䴍㰍‍㔀㸍㌍䴍㰍㔍䴍‍ԀἍᔍ䴍ᔍ䄍⠍䴍⨍䬍㐍䄍⌍䴍Ἅ㸍ᔍ䄍⠍䴍⠍‍ᰀ㈍㸍᠍㸍␍ȍ㰍⼀瀀㸀ഀ਀ഀ਀㰀瀀㸀  ༀᔍ㠍⸍㸍⠍⨍」㼍ᬍ䜍☍⸍䄍㌍䴍㌍‍ሀ」䄍‍⨀䠍⨍䴍⨍㼍㈍䴍㰍‍ᔀ䈍Ἅ㼍‍㔀䘍㌍䴍㌍ȍ‍⠀Ԁ㈍䴍㈍䘍ᤍ䴍ᔍ㼍㈍䴍㰍‍⸀ㄍ䜍ㄍ縍ഀ਀␀䘍ᤍ䴍ᔍ㼍㈍䄍ȍ‍☀䴍」㸍㔍ᔍȍ⤍ ሀ㐍䄍ᔍ䄍⠍䴍⠍䄍‍฀⠍䴍⠍㼍」㼍ᔍ䴍ᔍἍ䴍Ἅ䘍⸍ ࠀ‍⨀䠍⨍䴍⨍㼍㈍䄍㌍䴍㌍‍ሀ」䄍‍ഀ਀⌀㔀㸍㌍䴍㰍㔍䴍഍਀㠀㸍㔍✍㸍⠍␍䴍␍㼍㈍䴍㰍‍ԀἍᔍ䴍ᔍ䄍⠍䴍⨍䬍㐍⌍䴍Ἅ㸍ᔍ䄍⠍䴍⠍‍ᰀ㈍㸍᠍㸍␍␍䴍␍䘍ᔍ䴍ᔍ䄍ㄍ㼍ᨍ䴍ᨍ䄍䴍‍⠀⸍䄍ᔍ䴍ᔍ䄍䴍഍਀⌀⨀」㼍縍ഀ਀ᜀ⌍㼍ᔍ䴍ᔍ㸍ȍ⸍ ഀ਀ⴀ㌀㘀㄀ⴀഀ਀㄀㈀⸀㄀㜀 ⨀䘍Ἅ䴍Ἅ䘍⠍䴍⠍䄍䴍‍㔀㸍㌍䴍㰍㔍䴍‍ԀἍᔍ䴍ᔍ䄍⠍䴍⨍䬍㐍䄍⌍䴍Ἅ㸍ᔍ䄍⠍䴍⠍‍ᰀ㈍㸍᠍㸍␍ȍ഍਀฀⠍䴍⠍㸍㈍䴍㰍‍㔀㸍㌍䴍㰍㔍䴍‍ԀἍ⼍䴍ᔍ䴍ᔍ䄍⠍䴍⠍␍䄍䴍‍฀␍䴍」‍⨀䘍Ἅ䴍Ἅ䘍⠍䴍⠍㸍⌍䘍ᤍ䴍ᔍ㼍㈍䄍ȍⰍ ⨀䴍」㸍⼍䬍ᜍ㼍ᔍ縍ഀ਀⸀㸍⼍㼍‍Ԁ␍㼍⠍䄍䴍‍Ԁ㈍䴍㰍⨍ȍ‍㠀⸍⼍⸍䘍ᤍ䴍ᔍ㼍㈍䄍ȍ‍㔀䜍⌍䴍Ἅ㼍㔍」䄍⸍㈍䴍㈍䨍⸍ ␀⠍䴍㰍⸍䈍㈍ȍ഍਀܀㔍㼍Ἅ䘍‍琀 ᔀ䜍㔍㈍ȍⰍ ⨀䈍ᰍ䴍⼍⸍㸍⼍㼍」㼍ᔍ䴍ᔍ䄍ᔍ⼍㼍㈍䴍㈍⸍ Ԁ␍㼍⠍㸍㈍䴍㰍‍Ԁ⠍⠍䴍␍⸍」䴍㰍☍ȍ‍㔀䘍ㄍ䄍ȍ഍਀㠀㸍ᤍ䴍ᔍ㈍䴍㰍⨍㼍ᔍ⸍㸍⌍䄍䴍⸍ ⸀㸍␍䴍」⸍㈍䴍㈍Ⰽ ⨀䠍⨍䴍⨍㼍㈍䴍㰍‍ᔀ䈍Ἅ㼍‍ሀ㐍䄍ᔍ䄍⠍䴍⠍‍☀䴍」㸍㔍ᔍȍ‍Ԁ⸍」㸍␍䴍␍縍ഀ਀␀㸍⌍䘍⠍䴍⠍‍㠀ᤍ䴍ᔍ㈍䴍㰍⨍␍䴍␍㼍㈍㸍⌍䄍䴍‍⠀㸍ȍ‍㠀⸍䀍ᔍ」⌍ȍ‍㄀㈀⸀㄀㔀 ㈀䘍␍䴍␍㼍ᨍ䴍ᨍ䜍」䴍㰍⠍䴍⠍␍䄍䴍⸍ഀ਀฀⠍䴍⠍㸍㈍䴍㰍‍ࠀ‍㠀ᤍ䴍ᔍ㈍䴍㰍⨍ȍ‍⨀䈍」䴍㰍⌍⸍㸍⼍䄍ȍ‍㘀」㼍⼍㈍䴍㈍⸍ ऀ⠍䴍⠍␍‍⸀」䴍㰍☍ᤍ䴍ᤍ㌍㼍㈍䴍㰍‍ഀ਀⌀⸀㼍ᔍ䴍ᔍ഍਀☀䴍」㸍㔍ᔍᤍ䴍ᤍ㌍䄍ȍ‍ሀ」䄍‍⨀」㼍✍㼍㔍」䘍‍Ԁ⸍」䄍⠍䴍⠍㔍⼍㸍⌍䄍䴍‍Ԁ␍䄍ᔍ䨍⌍䴍Ἅ䄍䴍Ⰽ 㔀㸍㌍䴍㰍㔍䴍഍਀⨀䘍Ἅ䴍Ἅ䘍⠍䴍⠍䄍䴍‍ԀἍᔍ䴍ᔍ䄍⠍䴍⨍䬍㐍䄍⌍䴍Ἅ㸍ᔍ䄍⠍䴍⠍‍ᰀ㈍㸍᠍㸍␍⸍」䴍㰍☍ȍ‍⠀㼍」䴍㰍⌍⼍㼍ᔍ䴍ᔍ䄍㔍㸍⠍䴍㰍‍⠀⸍䄍ᔍ䴍ᔍ䄍䴍഍਀⸀ㄍ䘍ㄍ㸍」䄍‍㠀⸍䀍ᔍ」⌍ȍ‍　䈍⨍䀍ᔍ」㼍ᔍ䴍ᔍ䜍⌍䴍Ἅ㼍⼍㼍」㼍ᔍ䴍ᔍ䄍⠍䴍⠍䄍⸍ഀ਀ⴀ㌀㘀㌀ⴀഀ਀㄀㈀⸀㄀㠀 㠀」䴍㰍ᰍ䴍Ἅ㸍ᤍ䴍ᔍ䄍䴍഍਀  ᰀ㈍㸍᠍㸍␍ȍ‍␀Ἅ⼍䄍⠍䴍⠍␍㼍⠍㸍⼍㼍‍⨀䠍⨍䴍⨍䴍‍㈀䠍⠍䄍ᔍ㌍㼍㈍䴍㰍‍㠀䴍┍㸍⨍㼍ᔍ䴍ᔍ䄍⠍䴍⠍‍ഀ਀㄀㼍㠍」䴍㰍㔍䬍⼍」䴍㰍‍ἀ㸍ᤍ䴍ᔍ䄍ᔍ㌍䘍⼍㸍⌍䄍䴍‍㠀」䴍㰍ᰍ䴍‍ἀ㸍ᤍ䴍ᔍ䴍‍฀⠍䴍⠍䄍‍⨀ㄍ⼍䄍⠍䴍⠍␍䄍䴍⸍ഀ਀ⴀ㌀㘀㐀ⴀഀ਀  ᰀ㈍㔍䠍☍䴍⼍䄍␍‍⨀䴍㈍㸍⠍䴍㰍ㄍ䄍ᔍ㌍㼍㈍䴍㰍‍⨀䴍」☍㸍⠍‍㄀㼍㠍」䴍㰍㔍䬍⼍ㄍ㼍⠍䄍ȍ‍ἀ」䴍㰍Ⰽ䠍⠍㼍⠍䄍⸍㼍Ἅ縍ഀ਀ᔀ䴍ᔍ㸍⼍㼍Ἅ䴍Ἅ㸍⌍䄍䴍‍㠀」䴍㰍ᰍ䴍‍ἀ㸍ᤍ䴍ᔍ䄍ᔍ㌍䴍㰍‍㠀䴍┍㸍⨍㼍ᔍ䴍ᔍ䄍⠍䴍⠍␍䄍䴍⸍ Ԁ␍㼍⠍㸍㈍䴍㰍Ⰽ ἀ」䴍㰍Ⰽ䠍⠍㼍㈍䜍縍ഀ਀ᔀ䴍ᔍ䄍㌍䴍㌍‍ᰀ㈍㔍㼍␍」⌍ȍ‍⠀㼍⼍⠍䴍␍䴍」㼍ᔍ䴍ᔍ䄍⠍䴍⠍‍㔀㸍㌍䴍㰍㔍䴍‍⨀䘍Ἅ䴍Ἅ䘍⠍䴍⠍䄍䴍‍ԀἍ⼍䴍ᔍ䴍ᔍ䄍⠍䴍⨍䬍㌍䴍㰍഍਀⌀ऀ⌍䴍Ἅ㸍縍ഀ਀ᔀ䄍⠍䴍⠍‍ᰀ㈍㸍᠍㸍␍⸍」䴍㰍☍ȍ‍ἀ」䴍㰍Ⰽ䠍⠍㼍⠍䄍ȍ‍㠀」䴍㰍ᰍ䴍‍ἀ㸍ᤍ䴍ᔍ㼍⠍䄍ȍ‍܀Ἅ⼍䴍ᔍ䴍ᔍ䄍㌍䴍㌍‍ᨀ䘍ㄍ㼍⼍‍ഀ਀⌀⠀䀍㌍縍ഀ਀␀䴍␍㼍㈍䜍‍Ԁ⠍䄍ⴍ㔍⨍䴍⨍䘍Ἅ䄍ᔍ⼍䄍㌍䴍㌍䈍⸍ ࠀ‍⸀」䴍㰍☍ഊര്഼ജം സര്഼ജ്ടാങ്കില്഼ വച്ചു് വ്യയം
ചെയ്യപ്പെടുകയും ചെയ്യും. അതിനാല്഼ ജലാഘാതം മൂലം പൈപ്പ് ലൈന്഼
പൊട്ടിപ്പോകുകയില്ല.</p>

<p>  ജലൈവദ്യുതപദ്ധതിയുടെ ടര്഼ബൈനിനോടു് കഴിയുന്നത്ര അടുത്തായിട്ടാണു്
സര്഼ജ് ടാങ്കുകള്഼ സ്ഥാപിക്കേണ്ടതു്. സര്഼ജ് ടാങ്കിന്഼റെ ഉയരം, പ്രദാന 
#റിസര്഼~
വോയറിലെ പരമോന്നത ജലവിതാനത്തിനും മുകളിലായിരിക്കും.
-373-
13
   തുറന്ന ചാനലുകളിലെ പ്രവാഹം</p>

<p>13.1 തുറന്ന ചാനല്഼
  പുഴകള്഼, തോടുകള്഼, കനാലുകള്഼ എന്നിവ നമുക്കു് സുപരിചിതമാണല്ലോ.
ഇവയെ പൊതുവെ ചാനലുകള്഼ എന്നു പറയുന്നു. ഒരു സ്ഥലത്തുനിന്നും മറെറാരു
സ്ഥലത്തേക്കു് വെള്ളം കൊണ്ടുപോകുന്നതിനാണു് ചാനലുകള്഼ ഉപകരിക്കു~
ന്നതു്.</p>

<p>  പ്രവാഹത്തിന്഼റെ ഉപരിതലത്തില്഼ അന്തരീക്ഷ മര്഼ദം അനുഭവപ്പെടുന്ന ചാനലു~
കളെ തുറന്ന ചാനലുകള്഼ എന്നു പറയുന്നു. നദികള്഼, തോടുകള്഼, കനാലുകള്഼
-374-
എന്നിവയെല്ലാം തുറന്ന ചാനലുകള്഼ക്കു ഉദാഹരണങ്ങളാണു്.</p>

<p>  പൈപ്പു് പ്രവാഹത്തെക്കുറിച്ചു് നാം കഴിഞ്ഞ അധ്യായത്തില്഼ പഠിച്ചുവല്ലോ.
പൈപ്പുകളിലെ മര്഼ദ പ്രവാഹത്തെക്കുറിച്ചുമാത്രമെ അവിടെ മാം പരിഗണി~
ച്ചുള്ളു. അതിനാല്഼ ആ അധ്യായത്തില്഼ പരാമര്഼ശിക്കപ്പെട്ട പൈപ്പുകളെല്ലാം
നിറഞ്ഞൊഴുകുന്നവയായിരുന്നു. എന്നാല്഼ ഭാഗികമായി നിറഞ്ഞൊഴുകുന്ന
പൈപ്പുകളും സാധാരണമാണു്. ഇത്തരം പൈപ്പുകളില്഼ പ്രവാഹത്തിന്഼റെ ഉപ~
രിതലത്തില്഼ അന്തരീക്ഷമര്഼ദം അനുഭവപ്പെടുന്നു.
അതിനാല്഼ ഭാഗികമായി നിറഞ്ഞൊഴുകുന്ന പൈപ്പിനെയും തുറന്ന ചാനല്഼
ആയി കണക്കാക്കാം. വലിയ സീവര്഼ പൈപ്പുകള്഼ അന്തരീക്ഷ മര്഼ദത്തില്഼
വെള്ളം കൊണ്ടുപോകുന്നതിനുള്ള തുരങ്കങ്ങള്഼ മുതലായവയെല്ലാം ഈ വിഭാഗ~
ത്തില്഼പ്പെടുന്നു.</p>

<p>  തുറന്ന ചാനലുകളുടെ അടിത്തട്ടിനു് പ്രവാഹത്തിന്഼റെ ദിശയില്഼ ഒരു ചരിവു~
ണ്ടായിരിക്കും. അടിത്തട്ടിന്഼റെ ഈ പ്രവണതയാണു് തുറന്ന ചാനലുകളില്഼
പ്രവാഹമുണ്ടാക്കുന്നതു്.</p>

<p>13.2 ഏകസമാന പ്രവാഹം</p>

<p>  ഏകസമാന പ്രവാഹം അസമാന പ്രവാഹം എന്നിവയെക്കുറിച്ചു് ആറാം
അധ്യായത്തില്഼ പരാമര്഼ശിച്ചിട്ടുണ്ടല്ലോ. അടിത്തട്ടിന്഼റെ ചരിവനുസരിച്ചു്
തുറന്ന ചാനലുകളിലെ പ്രവാഹം ഏകസമാഩമോ അസമാനമോ ആകാം.
-375-
  ചാനലിന്഼റെ പ്രതലങ്ങളും വെള്ളവും തമ്മിലുള്ള ഘര്഼ഷണം മൂലം തുറന്ന
ചാനലുകളില്഼ ശീര്഼ഷനഷ്ടമുണ്ടാകുന്നു. ചാനലിന്഼റെ അനുദൈര്഼ഘ്യപ്രവണത~
യാണു് ഈ ശീര്഼ഷ നഷ്ടം നികത്തുന്നതു്. ഒരു ചാനലില്഼ ഘര്഼ഷണം മൂലമുള്ള
ശീര്഼ഷനഷ്ടവും ചാനലിന്഼റെ അടിത്തട്ടിന്഼റെ പ്രവണതയും തമ്മില്഼ സമതുലനാ~
വസ്ഥയുണ്ടെങ്കില്഼ പ്രസ്തുത പ്രവാഹം ഏകസമാനമാണെന്നു പറയാം. അതി~
നാല്഼ ഏകസമാന പ്രവാഹമുള്ള ഒരു തുറന്ന ചാനലില്഼ വെള്ളത്തിന്഼റെ ഉപരി~
തലവും ചാനലിന്഼റെ അടിത്തട്ടും സമാന്തരങ്ങളായിരിക്കും. </p>

<p>13.3 അസമാന പ്രവാഹം</p>

<p>  3.2 നോക്കുക. അസമാന പ്രവാഹത്തില്഼, ജലോപരിതലം ചാനലിന്഼റെ
അടിത്തട്ടിനു് സമാന്തരമായിരിക്കുകയില്ല. ചാനലിന്഼റെ പ്രവണത, ഘര്഼ഷണം
മൂലമുള്ള ശീര്഼ഷനഷ്ടത്തെ തരണം ചെയ്യുന്നതിനാവശ്യമായതില്഼ കൂടുതലോ
കുറവോ ആയിരിക്കുന്പോഴാണു് ചാനലില്഼ അസമാന പ്രവാഹമുണ്ടാകുന്നതു്.
അതായതു്, l നീളമുള്ള ഒരു ചാനലില്഼ ഘര്഼ഷണം മൂലമുള്ള ശീര്഼ഷനഷ്ടം
hf ഉം അടിത്തട്ടിന്഼റെ പ്രവണത i ഉഁ ആണെങ്കില്഼</p>

<p>ചാനലിന്഼റെ പ്രവണതയും ഘര്഼ഷണം മൂലമുള്ള ശീര്഼ഷ നഷ്ടവും തമ്മില്഼
സമതുലനാവസ്ഥ ഉണ്ടാക്കുക എന്നതു പ്രയോഗത്തില്഼ അത്ര എളുപ്പമല്ല. അതി~
നാല്഼ തുറന്ന ചാനലുകളിലെ പ്രവാഹം മിക്കപ്പോഴും അസമാനമായിരിക്കും.
എന്നാല്഼ വിശ്ലേഷണ സൌകര്യത്തെ മുന്഼നിര്഼ത്തി ഇതു് ഏകസമാനമാണെന്നു്
സങ്കല്പിക്കുക പതിവാണു്. തുറന്ന ചാനലുകളിലെ ഏകസമാന പ്രവാഹം
മിക്കപ്പോഴും അസമാനമായിരിക്കും. എന്നാല്഼ വിശ്ലേഷണ സൌകര്യത്തെ മുന്഼~
നിര്഼ത്തി ഇതു് ഏകസമാനമാണെന്നു് സങ്കല്പിക്കുക പതിവാണു്. തുറന്ന
ചാനലുകളിലെ ഏകസമാന പ്രവാഹത്തെക്കുറിച്ചാണു് ഈ അധ്യായത്തില്഼
നാം പഠിക്കുന്നതു്.
13.4 തുറന്ന ചാനല്഼ സൂത്രങ്ങള്഼</p>

<p>  തുറന്ന ചാനലുകളിലെ പ്രവാഹത്തിന്഼റെ പ്രവേഗം നിര്഼ണയിക്കുന്നതിനു്
താഴെ പറയുന്ന സൂത്രങ്ങളാണു് സാധാരണയായി ഉപയോഗിക്കാറുള്ളതു്.
	(i) ചെസി സൂത്രം
	(ii) മാനിങ് സൂത്രം
-394-
13.7 ചെസിസ്ഥിരാങ്കം</p>

<p>  ചെസി സൂത്രമുപയോഗിച്ചു് ഒരു ചാനലിലെ പ്രവേഗം നിര്഼ണയിക്കണ~
മെങ്കില്഼ ചെസിസ്ഥിരാങ്കം, C യുടെ വില അറിഞ്ഞിരിക്കണമല്ലൊ. പ്രവാഹ~
ത്തിന്഼റെ റെയ്നോള്഼ഡ് സംഖ്യ, പാരുഷ്യത്തിന്഼റെ തോതു്, ചാനല്഼പരിഛേ~
ദത്തിന്഼റെ ആകൃതി എന്നിവ ചെസിസ്തിരാങ്കത്തെ സ്വാധീനിക്കുന്നു.എന്നാല്഼
ഈ ഘടകങ്ങള്഼ C യുടെ വിലയെ എങ്ങനെ ബാധിക്കുന്നു എന്നു് കൃത്യമായി
നിര്഼ണയിക്കുവാന്഼ പ്രയാസമാണു്. അതിനാല്഼ ചെസിസ്ഥിരാങ്കം കണ്ടുപിടി~
ക്കുന്നതിനു് താഴെ പറയുന്ന ആനുഭവികസൂത്രങ്ങള്഼ ഉപയോഗിക്കുകയാണു്
പതിവ്.
-397-
13.9 കട്ടര്഼സൂത്രം</p>

<p>  സ്വിററ്സര്഼ലന്഼റ് എന്഼ജിനീയര്഼മാരായിരുന്ന ഗാംഗ്വില്ലററും കട്ടുറും കൂടി
1869 ല്഼ ആവിഷ്ക്കരിച്ചതാണു് കട്ടര്഼ സൂത്രം. അനേകം തോടുകളിലും കൃത്രിമ
കനാലുകളിലും പരീക്ഷണങ്ങള്഼ നടത്തിയതിനു ശേഷമാണു ഇവര്഼ ഈ സൂത്രം
നിര്഼ദേശിച്ചതു്. കട്ടര്഼ സുത്രമനുസരിച്ചു്.
13.11. ചാനലുകളുടെ ഏററവും ലാഭകരമായ പിരഛേദം</p>

<p>  ഒരു ചാനലിനു് ഒരു നിര്഼ദിഷ്ട പരിഛേദവിസ്തീര്഼ണം ആവശ്യമാണെ~
ന്നിരിക്കട്ടെ. ചാനല്഼ പരിഛേദത്തിന്഼റെ ആകൃതിയും (അതായതു്, ദീര്഼ഘ
ചതുരം, ട്രപ്പീസിയം, ത്രികോണം, വൃത്തം മുതലായവ) നിശ്ചിതമാണെന്നു
കരുതുക. അങ്ങനെ നിര്഼ദിഷ്ട പരിഛേദവിസ്തീര്഼ണമുള്ളതും പരമാവധി
നിസ്സരണം നല്഼കുന്നതുമായ പരിഛേദനത്തെയാണു് ഏററവും ലാഭകരമായ
പരിഛേദം എന്നു പറയുന്നതു്.
-421-
13.17 ഏററവും ലാഭകരമായ പരിച്ഛേദം</p>

<p>  ഒരു നിര്഼ദിഷ്ട പരിഛേദവിസ്തീര്഼ണത്തിനു്, ഏററവും ലാഭകരമായ
ദീര്഼ഘചതുരപരിഛേദം, ട്രപ്പീസിയപരിഛേദം, ത്രികോണപരിഛേദം, വൃത്ത
പരിഛേദം എന്നിവയെക്കുറിച്ചൊക്കെ നാം മനസ്സിലാക്കിയല്ലൊ. ഇവിടെ
യൊക്കെ. പരിഛേദത്തിന്഼റെ ആകൃതി നാം മുന്഼കൂട്ടി തീരുമാനിക്കുകയും
അതിനുശേഷം പരിഛേദത്തിന്഼റെ വിവിധ അളവുകളുടെ അനുപാദം നിശ്ച~
യിക്കുകയുമാണുണ്ടായതു്. എന്നാല്഼ ഒരു നിര്഼ദിഷ്ട നിസ്സരണത്തിനു ഏററവും
ലാഭകരമായ പരിഛേദത്തിന്഼റെ ആകൃതി അര്഼ധവൃത്തം ആയിരിക്കും. എന്തു~
കൊണ്ടെന്നാല്഼ ഒരു നിര്഼ദിഷ്ട പരിഛേദ വിസ്തീര്഼ണത്തിനു് നനഞ്ഞ ചുററളവു്
ഏററവും കുറവായിരിക്കുന്നതു് അര്഼ധവൃത്ത പരിഛേദത്തിലാണു്.</p>

<p>13.18 തുറന്ന ചാനലുകളിലെ പ്രവേഗ വിതരണം</p>

<p>  തുറന്ന ചാനലുകളിലെ പ്രവേഗം നിര്഼ണയിക്കുന്നതിനുള്ള വിവിധ സൂത്രങ്ങ~
ളെക്കുറിച്ചു് നാം പഠിച്ചുവല്ലൊ. ഈ സൂത്രങ്ങള്഼ ഉപയോഗിക്കുന്പോള്഼ 
#ലഭിക്കു~
ന്നതു് ചാനലിലെ മാധ്യപ്രവേഗമാണു്.</p>

<p>  പ്രയോഗത്തില്഼, ചാനലിലെ വിവിധ ബിന്ദുക്കളില്഼ വ്യത്യസ്ത പ്രവേഗങ്ങ~
ളാണുണ്ടായിരിക്കുക. ചാനലിന്഼റെ വശങ്ങളുടെ ഘര്഼ഷണംനിമിത്തം പാര്഼ശ്വ~
ങ്ങളിലേക്കു് അടുക്കുംതോറും പ്രവേഗം കുറഞ്ഞുകുറഞ്ഞു വരുന്നു. ജലോപരിത~
ലവും അന്തരീക്ഷവും തമ്മിലുള്ള ഘര്഼ഷണപ്രതിരോധംമൂലം ജലോപരിതല~
ത്തിലെ പ്രവേഗവും അല്പം കുറഞ്ഞിരിക്കും. തന്഼മൂലം പരമാവധി പ്രവേഗമു~
ണ്ടാകുന്നതു് ചാനലിന്഼റെ വീതിയുടെ മധ്യബിന്ദുവില്഼ കൂടിയുള്ള കുത്തന്഼രേഖ~
യില്഼ ജലോപരിതലത്തില്഼ നിന്നും അല്പം താഴെയായിട്ടാണു്.
-422-
ചിത്രം 13.12 ല്഼ ഒരു ദീര്഼ഘചതുരചാനലിലെ പ്രവേഗവിതരണം കാണി~
ച്ചിരിക്കുന്നു. തുല്യപ്രവേഗമുള്ള ബിന്ദുക്കളെ യോജിപ്പിച്ചുകൊണ്ടുള്ള
#വക്രങ്ങ~
ളാണു് ചിത്രത്തില്഼ കാണിച്ചിരിക്കുന്നതു്.
(a) കുത്തന്഼ പ്രവേഗവിതരണം</p>

<p>  ചിത്രം 13.2 (a) നോക്കുക ചാനലിലെ കുത്തന്഼ പ്രവേഗവിതരണം ചിത്ര~
ത്തിലെ പരിഛേദനം കാണിച്ചിട്ടുള്ളതുപോലെയായിരിക്കും. ചിത്രം~
ത്തില്഼ നിന്നും താഴെ പറയുന്ന വസ്തുതകള്഼ മനസ്സിലാക്കാം.</p>

<p>(i) പരമാവധി പ്രവേഗമുണ്ടാകുന്നതു് ജലോപരിതലത്തിലല്ല. ജലപ്രതല~
ത്തില്഼നിന്നും അല്പം താഴെ ആയിട്ടാണു് സാധാരണയായി ഈ അകലം
മൊത്തം ആഴത്തിന്഼റെ 5% മുതല്഼25% വരെ യാകാം. ചാനലിന്഼റെ ആഴം
കൂടുന്തോറും ഈ ശതമാനവും കൂടുന്നു.
 (ii) കുത്തന്഼ പ്രവേശവക്രത്തെ ഏകദേശം ഒരു പരാബോളയായിട്ടെടുക്കാം.
ഈ പരാബോളയുടെ വിലങ്ങന്഼ അക്ഷം പരമാവധി പ്രവേഗമുണ്ടാകുന്ന ബിന്ദു~
വില്഼഼കൂടി കടന്നുപോകുന്നു.
-423-
(iii) ചാനലിലെ മാധ്യപ്രവേഗം vm ഉം ജലോപരിതലത്തിലെ പരമാ~
വധി പ്രവേഗം v3 ആണെങ്കില്഼</p>

<p>(b) വിലങ്ങന്഼ പ്രവേഗവിതരണം</p>

<p>  ചാനലിലെ വിലങ്ങന്഼ പ്രവേഗവിതരണമാണു് ചിത്രം 13.12(b) യില്഼
കാണിച്ചിരിക്കുന്നതു്. ചാനലിന്഼റെ വീതിയുടെ വിവിധ ബിന്ദുക്കളില്഼
പ്രവേഗം എങ്ങനെ വ്യത്യാസപ്പെടുന്നുവെന്നു് ഈ വിതരണവക്രത്തില്഼ നിന്നും
മനസ്സിലാക്കാം. ചാനലിന്഼റെ പാര്഼ശ്വങ്ങളിലേക്കു് പോകുന്തോറും പ്രവേഗം
കുറയുന്നു.
13.19 നദീപ്രവാഹം അളക്കല്഼
   പലപ്പോഴും നദികളുടെ നിസ്സരണം കൃത്യമായി അളക്കേണ്ട ആവശ്യം നേരി~
ടുന്നു. ഉദാഹരണമായി ഒരു നദിയില്഼ ഒരു അണകെട്ടാനുദ്ദേശിക്കുന്നു എന്നിരി~ക്കട്ടെ. ഈ അണയുടെ സംഭരണശേഷി ഡിസൈന്഼ ചെയ്യുന്നതിനു് നദിയുടെ
നിസ്സരണം നിര്഼ണയിക്കേണ്ടതാവശ്യമാണു്. ഒരു നദിയുടെ നിസ്സരണം കണ~
ക്കാക്കുന്നതിനു് താഴെ പറയുന്ന രണ്ടു ഘടകങ്ങളാണു് നിര്഼ണയിക്കേണ്ടതു്.
-425-
13.24 പ്രവാഹമാപി</p>

<p>  നദിപ്രവാഹത്തിന്഼റെ ആഴം 1.5 മീറററോ അതില്഼ കുറവോ ആയിരിക്കു~
ന്പോഴാണു് പ്രവേഗം നിര്഼ണയിക്കുന്നതിനായി പ്ലവങ്ങള്഼ ഉപയോഗിക്കാറു~
ള്ളതു്. 1.5 മീറററില്഼ കൂടുതല്഼ ആഴമുള്ള നദികളുടെ പ്രവേഗം അളക്കുവ഼ാന്഼
പ്രവാഹമാപി ഉപയോഗിക്കുകയാണു് ഩല്ലതു്.</p>

<p> ചിത്രം 13.16 നോക്കുക. ഒരു വിലങ്ങന്഼ചക്രം ചക്രത്തിന്മേല്഼ ഘടിപ്പി~
ച്ചിട്ടുള്ള കപ്പുകള്഼, ഒരു ചുച്ഛപാളി, വിലങ്ങന്഼ ചക്രത്തിന്഼റെ 
#ഭ്രമണങ്ങള്഼ രേഖ഼പ്പെടുത്തുന്നതിനുള്ള
-426-
സംവിധാനം-ഇവയാണു് ഒരു പ്രവാഹമാപി. വെള്ളത്തില്഼
ലംബമായി നില്഼ക്കുന്നതിനുവേണ്ടി പ്രവാഹമാപിയുടെ കീഴററത്തു്
#ഒരു ഭാരം
തൂക്കിയിടുന്നു.</p>

<p>  പല തരത്തിലുള്ള പ്രവാഹമാപികളും ഇപ്പോള്഼ മാര്഼ക്കററില്഼ സുലഭമാണു്.
എന്നാല്഼ എല്ലാത്തിന്഼റെയും പ്രവര്഼ത്തനതത്വം ഏറെക്കുറെ ഒന്നുതന്നെയാണു്.</p>

<p>  പ്രവാഹമാപി നദിയില്഼ മുക്കുന്പോള്഼, പ്രവാഹത്തിന്഼റെ പ്രവേഗത്തിനു
പാതിക഼഼മായിട്ടായിരിക്കും വിലങ്ങന്഼ ചക്രത്തിന്഼റെ ഭ്രമണം. ഈ ചക്രം ഒരു
ഭ്രമണം പൂര്഼ത്തിയാക്കുന്പോള്഼ പ്രവാഹമാപിയിലുള്ള ഒരു ചെറിയ വൈദ്യുത
മണി ഒരു പ്രാവശ്യം അടിക്കുന്നു. അതിനാല്഼ ഒരു നിര്഼ദിഷ്ട സമയത്തിനു
ള്ളില്഼ ചക്രം എത്ര പ്രാവശ്യം തിരിഞ്ഞു എന്നറിയുവാന്഼ മണിയടിശബ്ദം
-427-
എണ്ണിയാല്഼ മതി. ഇതില്഼നിന്നും പ്രവാഹമാപിയോടൊപ്പം ലഭിക്കുന്ന വക്ര~
ങ്ങളുടെയോ പട്ടികകളുടെയോ സഹായത്താല്഼ പ്രവാഹത്തിന്഼റെ പ്രവേഗം
നിര്഼ണയിക്കാം.
-431-
14
	ഭ്രമിത പ്രവാഹം</p>

<p>14.1 ഭ്രമിതം
	ഭ്രമണം ചെയ്യുന്ന (കറങ്ങുന്ന) ദ്രാവകത്തെയാണു് ഭ്രമിതം എന്നു
#പറയുന്നതു്.
ഒരു സിലിണ്ടറില്഼ കുറച്ചു വെള്ളം (അല്ലെങ്കില്഼ മറേറതെങ്കിലും ദ്രാവകം)
എടുക്കുക. ഈ സിലിണ്ടര്഼ കറങ്ങുന്നതോടൊപ്പം സിലിണ്ടറിനുള്ളിലെ
ദ്രാവകവും കറങ്ങാന്഼ തുടങ്ങും. കുറച്ചു സമയം കഴിയുന്പോള്഼ സിലിണ്ടറിനു~
ള്ളിലെ ദ്രാവകപ്രതലം അക്ഷത്തിനുചുററും കുഴിഞ്ഞും സിലിണ്ടറിന്഼റെ 
#ഭിത്തിക്കു
ചുററും ഉന്തിയും വരുന്നു. ഇങ്ങനെ ഒരു നിശ്ചിത അക്ഷത്തെ ആധാരമാക്കി
കറങ്ങിക്കൊണ്ട് ദ്രാവകങ്ങള്഼ ഒഴുകുന്നതിനെയാണു ഭ്രമിതപ്രവാഹം എന്നു 
#പ഼റയു~
ന്നതു്. ഭ്രമിതപ്രവാഹം രണ്ടു തരത്തിലുണ്ടു്.
(i) പ്രണോദിത ഭ്രമിതപ്രവാഹം
(ii) സ്വതന്ത്ര ഭ്രമിതപ്രവാഹം.</p>

<p>പുറമെ നിന്നും നല്഼കുന്ന ബലത്തിന്഼റെ സഹായത്താല്഼ ഉണ്ടാകുന്ന ഭ്രമിത
പ്രവാഹത്തെയാണു് പ്രണോദിത ഭ്രമിതപ്രവാഹമെന്നു പറയുന്നതു്. ഏതെങ്കിലും
ദ്രാവകം നിറച്ച ഒരു സിലിണ്ടര്഼ അതിന്഼റെ കുത്തന്഼ അക്ഷത്തെ ആധാരമാക്കി
കറക്കുന്പോള്഼ ഒരു പ്രണോദിത ഭ്രമിതമുണ്ടാകുന്നു.</p>

<p> പുറമേ നിന്നുള്ള യാതൊരു ബലത്തിന്഼റെയും സഹായം കൂടാതെതന്നെ ഉണ്ടാ~
കുന്നതാണു് സ്വതന്ത്രഭ്രമിതം. ഒരു വാഷ്ബേസിന്഼റെ ടാപ്പു് തുറക്കുന്പോള്഼
ബേസിന്഼റെ അടിയിലുള്ള ദ്വാരത്തില്഼ക്കൂടി വെള്ളം കറങ്ങി ഒഴുകുന്നതു്
സ്വതന്ത്രഭ്രമിതത്തിനു് ഒരു ഉദാഹരണമാണു്.</p>

<p>14.2 പ്രണോദിത ഭ്രമിതം</p>

<p>  ചിത്രം 14.1 നോക്കുക. ഒരു സിലിണ്ടറില്഼ 00 വിതാനം വരെ ഒരു
ദ്രാവകം നിറച്ചിരിക്കുന്നു. ഈ സിലിണ്ടര്഼, അതിന്഼റെ അക്ഷം AA യെ 
#ആധ഼ാരമാക്കി 
-432-
കറക്കുകയാണെന്നിരിക്കട്ടെ. അപ്പോള്഼ അക്ഷത്തിനു ചുററും ദ്രാവകം
താഴ്ന്നും പാര്഼ശ്വങ്ങളില്഼ ഉയര്഼ന്നുംവരുന്നു.സിലിണ്ടര്഼ കൂടുതല്഼
#വേഗത്തില്഼
കറക്കുന്പോള്഼ അക്ഷത്തിനു ചുററും ദ്രാവകം കൂടുതല്഼ താഴുകയും അതനുസരിച്ച്
പാര്഼ശ്വങ്ങളില്഼ കൂടുതല്഼ ഉയരുകയും ചെയ്യും. സിലിണ്ടറിന്഼റെ ഭ്രമണവേഗം
പിന്നെയും കൂട്ടിയാല്഼ ദ്രാവകം സിലിണ്ടറില്഼ നിന്നും പുറത്തേക്കു് 
#തെറിച്ചുപോ~
കാന്഼ തുടങ്ങുന്നു. ഇതു് തുടര്഼ന്നാല്഼, അവസാനം സിലിണ്ടറിന്഼റെ
#അക്ഷത്തിനു
ചുററും ഒട്ടും ദ്രാവകമില്ലാതാകും.</p>

<p> ചിത്രം 14.1 ല്഼ കാണിച്ചിട്ടുള്ള സിലിണ്ടറിന്഼റെ വ്യാസം 2r ഉം കോണീയ
പ്രവേശം (ഒമേഗ) റേഡിയന്഼/സെ.ഉം ആണെന്നിരിക്കട്ടെ.സിലിണ്ടര്഼
കറങ്ങുന്പോഴുണ്ടാകുന്ന ദ്രാവകപ്രത഼ലത്തില്഼ p എന്ന ഒരു കണം പരിഗണിക്കുക.
p യുടെ നിര്഼ദേശാങ്കങ്ങള്഼  ഉം y ഉം ആണെന്നിരിക്കട്ടെ.
p എന്ന ദ്രാവക കണം, താഴെ പറയുന്ന ബലങ്ങളുടെ പ്രവര്഼ത്തനങ്ങള്഼ക്കു
#വിധേ~
യമായി സന്തുലനാവസ്ഥയിലാണു്.
-502-
16
	ആവേഗ ടര്഼ബൈനുകള്഼
16.1 ടര്഼ബൈനുകളുടെ വര്഼ഗീകരണം
ജല ടര്഼ബൈനുകളെ പൊതുവെ രണ്ടായി തരം തിരിക്കാം.</p>

<p>(i) ആവേഗ ടര്഼ബൈന്഼
(ii) പ്രതിക്രിയാ ടാര്഼ബൈന്഼.</p>

<p>  വെള്ളത്തിന്഼റെ ഊര്഼ജം ഉപയോഗപ്പെടുത്തിയാണു് ആവേഗ ടര്഼ബൈനുകള്഼
കറങ്ങുന്നതു്. ഇതിനു്, ആദ്യമായി, ഉന്നത ശീര്഼ഷത്തിലുള്ള 
#വെള്ളത്തിന്഼റെ
ഊര്഼ജം ഒരു നോസ്ലില്഼ക്കൂടി കടത്തിവിട്ടു് ഗതിക ഊര്഼ജമാക്കി 
#മാററുന്നു.
ടര്഼ബൈനിന്഼റെ റണ്ണറിനോടടുത്തായിട്ടാണു് നോസ്ല്഼ സ്ഥാപിക്കുന്നതു്.
നോസ്ലില്഼നിന്നും വരുന്ന ഉന്നത പ്രവേഗമുള്ള ജലജെററ് ടര്഼ബൈനിന്഼റെ
റണ്ണറിനു ചുററമുള്ള ബക്കററുകളില്഼ പതിക്കുന്നു. ബക്കററുകളില്഼ നിന്നും
#നിര്഼ഗ~
മിക്കുന്പോള്഼ ജററിന്഼റെ പ്രവേഗം കുറഞ്ഞിരിക്കും. ഇങ്ങനെ ജെററിനു് 
#നഷ്ട~
മാകുന്ന ഗതികോര്഼ജം ഉപയോഗിച്ചാണു് ആവേഗ ടര്഼ബൈന്഼ കറങ്ങുന്നതു്.
അതിനാല്഼ ആവേഗ ടര്഼ബൈനുകളെ പ്രവേഗ ടര്഼ബൈനുകള്഼ എന്നും പറയാ~
റുണ്ടു്. പെല്഼ട്഼രന്഼ ചക്രം ആവേഗ ടര്഼ബൈനു് ഒരുദാഹരണമാണു്.</p>

<p>  പ്രതിക്രിയാ ടര്഼ബൈനുകളില്഼ വെള്ളം ഉന്നത മര്഼ദത്തില്഼ ടര്഼ബൈനിന്഼റെ
റണ്ണറില്഼ പ്രവേശിച്ചു് പാളികളില്഼ക്കൂടി ഒഴുകുന്നു. ഇങ്ങനെ റണ്ണര്഼
#പാളികളില്഼
ക്കൂടി ഒഴുകുന്പോള്഼ വെള്ളത്തിന്഼റെ മര്഼ദശീര്഼ഷം പ്രവേഗ ശീര്഼ഷമായി മാറി~ക്കൊണ്ടിരിക്കും. ഇതു് തുടര്഼ന്നു് അവസാനം പാളികളില്഼നിന്നും 
#നിര്഼ഗമിക്കു~
ന്പോള്഼ വെള്ളത്തിന്഼റെ മര്഼ദം അന്തരീക്ഷമര്഼ദമായി കുറൟുന്നു. അതിനാല്഼
പ്രതിക്രിയാ ടര്഼ബൈനിലെ മൊത്തം ശീര്഼ഷം മര്഼ദശീര്഼ഷത്തിന്഼റെയും പ്രവേശ
ശീര്഼ഷത്തിന്഼റെയും ആകെത്തുകയായിരിക്കും. പ്രതിക്രിയാ ടാര്഼ബൈനുകളെ
മര്഼ദ ടര്഼ബൈനുകള്഼ എന്നും പറയാറുണ്ട്. കപ്ലാന്഼ ടര്഼ബൈന്഼ 
#ഫ്രാന്഼സിസ്
ടര്഼ബൈന്഼ എന്നിവ പ്രതിക്രിയാ ടര്഼ബൈനുകള്഼ക്കു് ഉദാഹരണങ്ങളാണു്.
-503-
  ഈ അദ്ധ്യകയത്തില്഼ നമുക്കു് ആവേഗ ടര്഼ബൈനുകളെക്കുറിച്ചു് പഠിക്കാം.
16.2 പെല്഼ടന്഼ ചക്രം</p>

<p>  ഉന്നത ജലശീര്഼ഷങ്ങളില്഼ സാധാരണ ഉപയോഗിക്കാറുള്ള ആവേഗ ടര്഼ബൈ~
നാണു്. പെല്഼ടന്഼ ചക്രം. പെല്഼ടന്഼ ചക്രത്തിന്഼റെ പ്രധാന ഭാഗങ്ങള്഼ 
#താഴെ
പറയുന്നവയാണു്.
(a) നോസ്ല്഼
  ഉന്നതശീര്഼ഷത്തില്഼ സംഭരിച്ചു നിര്഼ത്തുന്ന വെള്ളം പെന്഼സ്റേറാക്കുവഴി
കൊണ്ടുവന്നു് ഒരു നോസ്ലില്഼ക്കൂടി കടത്തിവിടുന്നു. ഈ നോസ്ലില്഼
നിന്നുള്ള ജലജെററാണു്. റണ്ണര്഼ ബക്കററുകളില്഼ പതിക്കുന്നതു്. നോസ്ലിന്഼റെ
അററത്തു് കുന്തമുനയുടെ ആകൃതിയിലുള്ള ഒരു ദണ്ഡുണ്ട്. ഈ കുന്തദണ്ഡ ആവ~
ശ്യാനുസരണം ഉള്ളിലോട്ടു് തള്ളിയോ അല്ലെങ്കില്഼ പുറകോട്ടു് വലിച്ചോ
നോസ്ലില്഼ക്കൂടിയുള്ള നിസ്സരണത്തിന്഼റെ നിരക്കു് നിയന്ത്രിക്കാം.</p>

<p>  സാധാരണയായി പെല്഼ടന്഼ ചക്രത്തിനു് ഒരു ജററു മാത്രമേ ഉണ്ടായിരിക്കു~
കയുള്ളൂ. എന്നാല്഼ ഒരൊററ ജെററിനു് ഒരു നിര്഼ദിഷ്ട കുതിരശക്തി ഉല്പാദി~
പ്പിക്കാന്഼ കഴിയാതെവരുന്ന സാഹചര്യങ്ങളില്഼ ഒന്നിലധികം ജെററുകളും
-504-
ഉപയോഗപ്പെടുത്താറുണ്ട്. ഇങ്ങനെ ഒന്നിലധികം ജെററുകള്഼ ഏല്ലാം ചക്ര~
ത്തിനും ചുററും തുല്യ അകലങ്ങളിലാണു് ഘടിപ്പിക്കാറുള്ളതു്. ചിത്രം 16.2ല്഼
മൂന്നു ജെററുകളുള്ള ഒരു പെല്഼ടന്഼ ചക്രം കാണിച്ചിരിക്കുന്നു. 
(b) റണ്ണറും ബക്കററുകളും
  ഒരു വിലങ്ങന്഼ അക്ഷത്തില്഼ ഘടിപ്പിച്ചിട്ടുള്ള ഒരു വൃത്ത ഡിസ്ക്കാണു്
പെല്഼ടന്഼ ചക്രത്തിന്഼റെ റണ്ണര്഼. ഈ റണ്ണറിനു ചുററും തുല്യ അകലത്തില്഼
#ബക്ക`
ററുകള്഼ ഉറപ്പിച്ചിരിക്കുന്നു. ബക്കററുകള്഼ക്കു് ഇരട്ട 
#അര്഼ധഗോളക്കപ്പുകളുടെ ആകൃ~
തിയാണുള്ളതു്. (ചിത്രം 16.3 നോക്കുക) ബക്കററുകളെ ബ്ലേഡുകള്഼ എന്നും
പാളികള്഼ എന്നും കൂടി പറയാറുണ്ട്. ചിത്രം 16.1 ല്഼ കാണിച്ചിട്ടുള്ളതുപോലെ
ബക്കററുകളുടെ മധ്യബിന്ദുക്കളില്഼ക്കൂടി കടന്നുപോകുന്ന വൃത്തത്തെ അകലവൃത്തം
അല്ലെങ്കില്഼ ബക്കററു്വൃത്തം എന്നു പറയുന്നു. ബക്കററ്വൃത്തത്തെ 
#പെല്഼ടന്഼
ചക്രത്തിന്഼റെ മാധ്യവ്യാസം എന്നും പറയാറുണ്ട്.</p>

<p>  ശീര്഼ഷം താരതമ്യേന കുറവായ പെല്഼ടന്഼ ചക്രങ്ങളുടെ ബക്കററുകള്഼ വാര്഼പ്പി~
രുന്പുകൊണ്ടാണു് നിര്഼മിക്കാറുള്ളതു്. എന്നാല്഼ ഉന്നത ശീര്഼ഷമുള്ള
#ചക്രങ്ങളുടെ
ബ്ലേഡുകള്഼ നിര്഼മിക്കുവാന്഼ ഓരോ സ്റെറയിന്഼ലസ് സ്ററീലോ അല്ലെങ്കില്഼
മറേറതെങ്കിലും കൂട്ടുലോഹമോ ഉപയോഗിക്കുന്നു.</p>

<p>(e) ആവരകം
ചിത്രം 16.1 നോക്കുക റണ്ണറിനെ പൊതിഞ്ഞു സൂക്ഷിക്കുന്നതിനുള്ളതാണു്
ആവരകം. ഇതിനു് ഹൈഡ്രോളിക ധര്഼മമൊന്നുമില്ല. ആവരകം റണ്ണറില്഼
-505-
നിന്നും വെള്ളം പുറത്തേക്കു് തെറിക്കാതെ സൂക്ഷിച്ചു് വെള്ളത്തെ 
#അന്ത്യജലത്തി~
ലേക്കു് നയിക്കുന്നു.
(d) ബ്രേക്കിങ് ജെററ്</p>

<p>  കറങ്ങിക്കൊണ്ടിരിക്കുന്ന പെല്഼ടന്഼ ചക്രത്തെ പെട്ടെന്നു് നിശ്ചലമാക്കുവാ~
നാണു് ബ്രേക്കിങ് ജെററ് ഉപയോഗിക്കുന്നതു്. സാധാരണയായി നോസ്ല്഼
അടച്ചാലും കുറച്ചുനേരത്തേക്കു് റണ്ണര്഼, അതിന്഼റെ ജഡത്വം മൂലം കറങ്ങിക്കൊ~
ണ്ടിരിക്കും. എന്നാല്഼ നോസില്഼ അടച്ചതിനുശേഷം ബ്രേക്കിങ് ജെററ് തുറ~
ന്നാല്഼ ചക്രം പെട്ടെന്നു് നിശ്ചലമാകും. ബ്രേക്കിങ് ജെററ് ചക്രത്തെ വിപ~
രീത ദീശയില്഼ കറക്കാന്഼ ശ്രമിക്കുന്നതുകൊണ്ടാണു് ചക്രം ഇങ്ങനെ 
#പെട്ടെന്നു്
നിശ്ചലമാകുന്നതു്.</p>

<p>16.3 ഒരു ആവേഗ ടര്഼ബൈന്഼ ചെയ്യുന്ന പ്രവൃത്തി</p>

<p>   ആവേഗ ടര്഼ബൈനിന്഼റെ (പെന്഼ടന്഼ ചക്രത്തിന്഼റെ) ബക്കററാണു് ചിത്ര~
ത്തില്഼ കാണിച്ചിട്ടുള്ളതു്. നോസ്ലില്഼നിന്നും വരുന്ന ജലജെററ് 
#ബക്കററിന്഼റെ
മധ്യത്തിലുള്ള വിഭജന ഭിത്തിയില്഼ പതിച്ചു് രണ്ടായി വിഭജിക്കപ്പെടുകയും
ഇങ്ങനെ വിഭജിക്കപ്പെടുന്ന ജെററിന്഼റെ ഓരോ ഭാഗവും ചിത്രത്തില്഼ കാണിച്ചി~ട്ടുള്ളതുപോലെ ബക്കിന്഼റെ ഓരോ കപ്പില്഼ക്കൂടി ഒഴുകുകയും ചെയ്യുന്നു.
-506-
അതിനാല്഼ അന്തര്഼ഗമ ത്രികോണം ഒരു നേര്഼ രേഖയും നിര്഼ഗമത്രികോണങ്ങള്഼
ചിത്രത്തില്഼ കാണിച്ചിട്ടുള്ളതുപോലെയുമായിരിക്കും.</p>

<p>-526-</p>

<p>-17-
    	പ്രതിക്രിയാ ടര്഼ബൈനുകള്഼</p>

<p>17.1 പ്രതിക്രിയാ ടര്഼ബൈനിന്഼റെ പ്രധാന ഭാഗങ്ങള്഼</p>

<p>   വെള്ളത്തിന്഼റെ മര്഼ദം ഉപയോഗപ്പെടുത്തിയാണു് പ്രതിക്രിയാ ടര്഼ബൈനു~
കള്഼ കറങ്ങുന്നതു്. ഒരു പ്രതിക്രിയാടര്഼ബൈനിലേക്കു് പ്രവേശിക്കുന്പോള്഼
വെള്ളത്തിനു് ഉന്നത മര്഼ദമുണ്ടായിരിക്കും. ഈ മര്഼ദം ജലം ടര്഼ബൈന്഼ 
#പാളിക~
ളില്഼ക്കൂടി ഒഴുകുന്നു. പാളികളില്഼ വെച്ച് വെള്ളത്തിന്഼റെ മര്഼ദ ശീര്഼ഷം 
#പ്രവേഗ
ശീര്഼ഷമായി മാറിക്കൊണ്ടിരിക്കും. അവസാനം നിര്഼ഗമത്തിലെത്തുന്പോഴേക്കും
വെള്ളത്തിന്഼റെ മര്഼ദം അന്തരീക്ഷ മര്഼ദമായികുറയുന്നു.</p>

<p>  ഒരു പ്രതിക്രിയാ ടര്഼ബൈനിന്഼റെ പ്രധാന ഭാഗങ്ങള്഼ താഴെ പറയുന്നവ~
യാണു്.
(i) പെന്഼സ്റേറാക്ക്
(ii) വര്഼ത്തുള കേസിങ്
(ii) ഗൈഡ് മെക്കാനിസം
(iv) ടര്഼ബൈന്഼ റണ്ണര്഼
17.2. പെന്഼സ്റേറാക്കു്
 സംഭരണ റിസര്഼വോയറില്഼ നിന്നും ടര്഼ബൈനിലേക്കു് വെള്ളമെത്തിക്കുന്ന
വലിയ കുഴലുകളെയാണു് പെന്഼സ്റേറാക്ക് എന്നു പറയുന്നതെന്നു് നാം
മനസ്സി~
ലാക്കിയിട്ടുണ്ടല്ലൊ. പെന്഼സ്റേറാക്ക് ചോര്഼ച്ചയില്ലാത്തതും ഉന്നതമര്഼ദം
താങ്ങാന്഼ കഴിവുള്ളതുമായിരിക്കണം.</p>

<p>17.3 വര്഼ത്തുളക കേസിങ്</p>

<p>  പെന്഼സ്റേറാക്ക് വഴി വരുന്ന വെള്ളം ടര്഼ബൈനിന്഼റെ വര്഼ത്തുള്ള 
#കേസിങ്ങി~
ലേക്കു് പ്രവേശിക്കുന്നു. വര്഼ത്തുള കേസിങ്ങിന്഼റെ പരിഛേദം വിസ്തീര്഼ണം
-527-
ഏക സമാനമല്ല; അന്തര്഼ഗമത്തില്഼ വിസ്തീര്഼ണം ഏററവും കൂടുതലും അവിടം
മുതല്഼ ഏകസമാനമായി കുറയുന്നു. നിര്഼ഗമത്തിലെത്തുന്പോള്഼ വിസ്തീര്഼ണം
ഏററവും കുറവായിരിക്കും. ചിത്രം 17.1 നോക്കുക. ടര്഼ബൈനിന്഼റെ ശീര്഼ഷമ~
നുസരിച്ചു് കേസിങ്, കോണ്഼ക്രീററു കൊണ്ടോ അല്ലെങ്കില്഼ ഉരുക്കു കൊണ്ടോ
നിര്഼മിക്കാം. ശീര്഼ഷം 30 മി.ല്഼ താഴെയാണെങ്കില്഼ കോണ്഼ക്രീററ് കേസിങ്
മതിയാകും. 30 മി.ല്഼ കൂടുതല്഼ ശീര്഼ഷമുണ്ടെങ്കില്഼ ഉരുക്കു് കേസിങ് 
#ആണു്
കൂടുതല്഼ അഭികാമ്യം.</p>

<p>14.4 ഗൈഡ് മെക്കാനിസം</p>

<p>  പെന്഼സ്റേറാക്കു് വഴി വര്഼ത്തുള കേസിങ്ങില്഼ എത്തുന്ന വെള്ളം 
#ആദ്഼യമായി
ചില സ്ഥിര പാളികളില്഼ക്കൂടി കടന്നു പോകുന്നു. ഈ പാളികളെ ഗൈഡ്
പാളികള്഼ എന്നു പറയുന്നു. ചിത്രം 17.1 നോക്കുക. ഗൈഡ് പാളികളെ
ഗൈഡ് ബ്ലേഡുകള്഼ എന്നും പറയാറുണ്ടു്. രണ്ടു വലയങ്ങള്഼ക്കുള്ളില്഼ ഒരു
ചക്രത്തിന്഼റെ രൂപത്തിലാണു് ഗൈഡ് ബ്ലേഡുകള്഼ വര്഼ത്തുള കേസിങ്ങില്഼
ഉറപ്പിക്കുന്നതു്. ഗൈഡ് പാളികള്഼, വെള്ളം കന്പനമുണ്ടാക്കാതെ ടര്഼ബൈ~
നിന്഼റെ റണ്ണറിലേക്കു് പ്രവേശിക്കുവാന്഼ സഹായിക്കുന്നു. ഗൈഡ് ബ്ലേഡു~
കള്഼ക്കു് അവയുടെ കേന്ദ്രത്തെ ആധാരമാക്കി തിരിയുവാന്഼ കഴിയും. അതിനാല്഼
ഗൈഡ് ബ്ലേഡുകള്഼ `അടയ്്ക്കുകയോ' തുറക്കുകയോ' ചെയ്തു അവയില്഼ക്കൂടി
ടര്഼ബൈനിലേക്കൊഴുകുന്ന വെള്ളത്തിന്഼റെ അളവു് നിയന്ത്രിക്കാം.</p>

<p>17.5 ടര്഼ബൈണ്഼ റണ്ണര്഼</p>

<p>  ചിത്രം 17.1 നോക്കുക. ഗൈഡു് പാളികളില്഼ നിന്നും വെള്ളം ടര്഼ബൈ~
നിന്഼റെ റണ്ണറിലേക്കു് പ്രവേശിക്കുന്നു. റണ്ണറിനും പാളികളുണ്ടു്. ഈ 
#പാളികളെ
-528-</p>

<p> റണ്ണര്഼ പാളികള്഼ അല്ലെങ്കില്഼ റണ്ണര്഼ ബ്ലേഡുകള്഼ എന്നു 
#പറയുന്നു. വെള്ളം
കന്പനമുണ്ടാക്കാതെ റണ്ണറിലേക്കു് പ്രവേശിക്കത്തക്കവിധത്തിലാണു് റണ്ണര്഼
ബ്ലേഡുകള്഼ സംവിധാനം ചെയ്യുന്നതു്. ഈ ബ്ലേഡുകളില്഼ക്കൂടി ഒഴുകുന്ന
#വെള്ളം
റണ്ണറിനെ കറക്കുന്നു. റണ്ണറിന്഼റെ ഷാഫ്ററ് കുത്തന്഼ ദിശയിലുള്ളതോ വില~
ങ്ങന്഼ ദിശയിലുള്ളതോ ആകാം. കുത്തന്഼ ദിശയില്഼ ഷാഫ്ററുള്ള ടര്഼ബൈനെ
കുത്തന്഼ ടര്഼ബൈന്഼ എന്നും വിലങ്ങന്഼ ദിശയില്഼ ഷാഫ്ററുളള ടര്഼ബൈനെ
വിലങ്ങന്഼ ടര്഼ബൈന്഼ എന്നും പറയുന്നു.
17.6 പ്രതിക്രിയാ ടര്഼ബൈനുകളുടെ വര്഼ഗീകരണം.</p>

<p>ടര്഼ബൈനില്഼ക്കൂടി വെള്ള മൊഴുകുന്ന ദിശ഼യെ ആസ്പദമാക്കി പ്രതിക്രിയ
ടര്഼ബൈനുകളെ താഴെ പറയുന്ന വിധത്തില്഼ വര്഼ഗീകരിക്കാം.
	(i) അക്ഷീയ പ്രവാഹ ടര്഼ബൈന്഼
	(ii) ത്രിജ്യാപ്രവാഹ ടര്഼ബൈന്഼
	(iii) മിശ്രപ്രവാഹ ടര്഼ബൈന്഼</p>

<p>17.7 അക്ഷീയ പ്രവാഹ ടര്഼ബൈനുകള്഼</p>

<p>  അക്ഷീയ പ്രവാഹടര്഼ബൈനുകളില്഼, ടര്഼ബൈന്഼ ചക്രത്തിന്഼റെ അക്ഷത്തിനു
സമാന്തരമായിട്ടാണു് വെള്ളമൊഴുകുന്നതു്. അതിനാല്഼ അക്ഷീയ പ്രവാഹ
ടര്഼ബൈനുകളെ സമാന്തര പ്രവാഹ ടര്഼ബൈനുകള്഼ എന്നും പറയാറുണ്ടു്.</p>

<p>17.7 അക്ഷീയ പ്രവാഹ ടര്഼ബൈനുകള്഼</p>

<p>  അക്ഷീയ പ്രവാഹടര്഼ബൈനുകളില്഼, ടര്഼ബൈന്഼ ചക്രത്തിന്഼റെ അക്ഷത്തിനു
സമാന്തരമായിട്ടാണു് വെള്ളമൊഴുകുന്നതു്. അതിനാല്഼ അക്ഷീയ പ്രവാഹ 
ടര്഼ബൈനുകളെ സമാന്തര പ്രവാഹ ടര്഼ബൈനുകള്഼ എന്നും പറയാറുണ്ടു്.
17.8 ത്രിജ്യപ്രവാഹ ടര്഼ബൈനുകള്഼
  ത്രിജ്യാപ്രവാഹമുള്ള (അതായതു്, ചക്രത്തിന്഼റെ ത്രിജ്യ (വ്യാസാര്഼ധം)യുടെ
ദിശയില്഼ പ്രവാഹമുള്ള) ടര്഼ബൈനുകളെയാണു് ത്രിജ്യാപ്രവാഹ ടര്഼ബൈനുകള്഼
എന്നു പറയുന്നതു്. ത്രിജ്യാപ്രവാഹ ടര്഼ബൈനുകളെ വീണ്ടും രണ്ടായി തരം
തിരിക്കാം.
	(i) അന്തര്഼ പ്രവാഹ ദര്഼ബൈന്഼
	(ii) ബഹിര്഼ പ്രവാഹ ടര്഼ബൈന്഼</p>

<p>-529-
  അന്തര്഼ പ്രവാഹ ടര്഼ബൈനുകളില്഼, വെള്ളം ചക്രത്തിന്഼റെ ബാഹ്യപരിധി~
യില്഼ക്കൂടി പ്രവേശിച്ചു് ഉള്ളിലോട്ട് (അതായതു്, ചക്രത്തിന്഼റെ കേന്ദ്രത്തി~
ലേക്കു്) ഒഴുകുന്നു. എന്നാല്഼ ബഹിര്഼ പ്രവാഹ
ടര്഼ബൈഩില്഼ വെള്ളം ചക്രത്തിന്഼റെ കേന്ദ്രത്തില്഼ക്കൂടി പ്രവേശച്ചു്
#അവിടെ
നിന്നും പുറത്തേക്കാണു് ഒഴുകുന്നതു്.</p>

<p>17.9 മിശ്രപ്രവാഹ ടര്഼ബൈനുകളില്഼ ഭാഗികമായി അക്ഷിയ പ്രവാഹവും ഭാഗിക~
മായി ത്രിജ്യാപ്രവാഹവും ആയിരിക്കും. ആധുനിക ടര്഼ബൈനുകളില്഼ പലതും
മിശ്രപ്രവാഹ ടര്഼ബൈനുകളാണു്.
-542-</p>

<p>17.11 ഒരു ബഹിര്഼പ്രവാഹ ടര്഼ബൈന്഼ ചെയ്യുന്ന പ്രവൃത്തി</p>

<p>  ഒരു അന്തര്഼പ്രവാഹ ടര്഼ബൈന്഼ ചെയ്യുന്ന പ്രവൃത്തി 
#കണ്ടുപിടിക്കുന്നതിനുള്ള
സമീകരണം നാം രൂപീകരിച്ചുകഴിഞ്ഞുവല്ലൊ. പ്രവേഗത്രികോണങ്ങളുടെ
സഹായത്താലാണു് ഈ സമീകരണം രൂപീകരിച്ചതു്. ഇതുപോലെ പ്രവേഗ
ത്രികോണങ്ങള്഼ വരച്ചു് ഒരു ബഹിര്഼പ്രവാഹ ടര്഼ബൈന്഼ ചെയ്യുന്ന 
#പ്രവൃത്തി~
ക്കുള്ള സമീകരണവും രൂപീകരിക്കാം. ചിത്രം 17.10 നോക്കുക. അന്തര്഼
പ്രവാഹ ടര്഼ബൈനു് ബാധകമായ എല്ലാ സമീകരണങ്ങളും ബഹിര്഼പ്രവാഹ 
ടര്഼ബൈനും ബാധക഼മാണു്. താഴെ കൊടുക്കുന്ന ഉദാഹരണങ്ങളില്഼ നിന്നും
ഇതു് കൂടുതല്഼ വ്യക്തമാകും.
-554-
2. യാന്ത്രിക ദക്ഷത
  യാന്ത്രിക ദക്ഷത, ടര്഼ബൈനിന്഼റെ വിവിധ യന്ത്രഭാഗങ്ങളുടെ കാര്യക്ഷമ~
തയെ കുറിക്കുന്നു. വെള്ളം ടര്഼ബൈനിന്മേല്഼ ചെയ്യുന്ന പ്രവൃത്തി 
#(അല്ലെങ്കില്഼
വെള്ളം ടര്഼ബൈനു് നല്഼കുന്ന ഊര്഼ജം) മുഴുവന്഼ ഉപയോഗപ്രദമായ പ്രവൃത്തി~
യായി മാററുവാന്഼, സാധാരണയായി, ടര്഼ബൈനു് കഴിയാറില്ല; ടര്഼ബൈ~
നിന്഼റെ യാന്ത്രിക ഭാഗങ്ങളുടെ ഘര്഼ഷണംമൂലം അല്പം ഊര്഼ജം നഷ്ടപ്പെടുക
പതിവാണു്. തന്മൂലം, യാന്ത്രിക ദക്ഷത എന്നു പറയുന്നതു്, ടര്഼ബൈനില്഼
നിന്നു് യഥാര്഼ത്തില്഼ ലഭിക്കുന്ന ശക്തിയും ടര്഼ബൈനിന്഼റെ ചക്രത്തിനു്
വെള്ളം നല്഼കുന്ന ശക്തിയും തമ്മിലുള്ള അനുപാതത്തെയാണു്.
-555-
3. മൊത്തം ദക്ഷത
	ഒരു ടര്഼ബൈനിന്഼റെ മൊത്തം ദക്ഷത പ്രസ്തുത ടര്഼ബൈനിന്഼റെ
#മൊത്ത~
ത്തിലുള്ള കാര്യക്ഷമതയെ സൂചിപ്പിക്കുന്നു. ടര്഼ബൈന്഼ യഥാര്഼ഥത്തില്഼ 
#ഉല്പാ~
ദിപ്പിക്കുന്ന ശക്തിയും ടര്഼ബൈനിന്഼റെ അന്തര്഼ഗമത്തില്഼ പ്രദാനം ചെയ്യുന്ന
ശക്തിയും തമ്മിലുള്ള അനുപാതത്തെയാണു് മൊത്തം ദക്ഷത എന്നു പറയുന്നതു്.
മറെറാരുവിധത്തില്഼ പറഞ്ഞാല്഼ ടര്഼ബൈനിന്഼റെ ബ്രേക്ക് കുതിരശക്തിയും
അന്തര്഼ഗമത്തില്഼ വെള്ളത്തിന്഼റെ ജല കുതിരശക്തിയും തമ്മിലുള്ള അനുപാത~
മാണു് മൊത്തം ദക്ഷത.
-576-
17.14 ഫ്രാന്഼സിസ് ടര്഼ബൈന്഼
	ഒരു ഇംഗ്ലീഷ് ശാസ്ത്രജ്ഞനായ ഫ്രന്഼സിസ് ജെയിംസ് ആവിഷ്കരിച്ച~
താണു് ഫ്രാന്഼സിസ് ടര്഼ബൈന്഼. ഇതു് ഒരു അന്തര്഼പ്രവാഹ പ്രതിക്രിയാ
ടര്഼ബൈനാണു്. ഫ്രാന്഼സിസ് ടര്഼ബൈനു് നിര്഼ഗമത്തില്഼ അരീയ നിസ്സരണ~
മാണുള്ളതു്.</p>

<p>  ആധുനിക ഫ്രന്഼സിസ് ടര്഼ബൈനുകള്഼ മിശ്രപ്രവാഹമുള്ളവയാണു്.
സാധാരണയായി മധ്യമശീര്഼ഷങ്ങള്഼ക്കാണു്. ഫ്രാന്഼സിസ് ടര്഼ബൈന്഼
ഏററവും അനുയോജ്യമായിട്ടുള്ളതു്. ഒരു ഫ്രാന്഼സിസ് ടര്഼ബൈനിന്഼റെ
റണ്ണറില്഼ 16 മുതല്഼ 24 വരെ ബ്ളേഡുകള്഼ ഉണ്ടായിരിക്കും. സാധാര഼ണയായി
വാര്഼പ്പിരുന്പോ അല്ലെങ്കില്഼ വാര്഼പ്പുരുക്കോ ഉപയോഗിച്ചാണു് റണ്ണറുകള്഼
നിര്഼മിക്കുന്നതു്. ടര്഼ബൈനിലുപയോഗിക്കുന്ന വെള്ളം രാസപദാര്഼ഥങ്ങള്഼
ഉള്഼ക്കൊള്ളുന്നതാണെങ്കില്഼ ഓടുകൊണ്ടുള്ള റണ്ണറുകള്഼ 
#നിര്഼മിക്കേണ്ടിവരും.
  അന്തര്഼പ്രവാഹ ടര്഼ബൈനുകള്഼ക്കു് ബാധകമായ എല്ലാ സമീകരണങ്ങളും
ഫ്രാന്഼സിസ് ടര്഼ബൈഩും ബാധകമാണു്.
-590-
	അപകേന്ദ്രപന്പുകള്഼
  പല വിധത്തിലുള്ള പന്പുകളും നമുക്കു് സുപരിചിതമാണു്. ഒരു താഴ്ന്ന
വിതാനത്തില്഼ നിന്നും ഉയര്഼ന്ന വിതാനത്തിലേക്കു് വെള്ളം (അല്ലെങ്കില്഼ 
#മറേറ~
തെങ്കിലും ദ്രാവകം) ഉൟര്഼ത്തുന്നതിനുള്ള യന്ത്രസംവിധാനമാണു് പന്പു് 
#എന്നും
നമുക്കറിയാം. ഒരു മോട്ടോറാണു് പന്പിനു് പ്രവര്഼ത്തിക്കുവാന്഼ വേണ്ട ശക്തി
നല്഼കുന്നതു്. അതിനാല്഼ പന്പു് യാന്ത്രിക ഊര്഼ജത്തെ മര്഼ദ ഊര്഼ജമാക്കി
മാററുന്നു എന്നു പറയാം.</p>

<p>18.1 പന്പുകളുടെ വര്഼ഗീകരണം</p>

<p>  പന്പുകളുടെ അവയുടെ പ്രവര്഼ത്തനതത്വം, ഉപയോഗം എന്നിവയെ
ആസ്പദമാക്കി വിവിധ രീതികളില്഼ വര്഼ഗീകരിക്കാം. എന്നാല്഼ ഏററവും
പ്രധാനപ്പെട്ട രണ്ടുതരം പന്പുകള്഼ താഴെ പറയുന്നവയാണു്.</p>

<p>	 1. അപകേന്ദ്രപന്പുകള്഼
	2. പ്രത്യാഗാമി പന്പുകള്഼</p>

<p>  ഇവയില്഼ അപകേന്ദ്രപന്പുകളെക്കുറിച്ചു് നമുക്കു് ഈ അധ്യായത്തിലും
പ്രത്യാഗാമി പന്പുകളെക്കുറിച്ചു് അടുത്ത അധ്യായത്തിലും പഠിക്കാം.</p>

<p>18.2 അപകേന്ദ്രപന്പു്</p>

<p> 	 അപകേന്ദ്ര ക്രിയയെ ആസ്പദമാക്കി പ്രവര്഼ത്തിക്കുന്ന പന്പുകളെയാണു്
അപകേന്ദ്രപന്പുകള്഼ എന്നു പറയുന്നതു്. ഒരു ജലനിബദ്ധ ആവരകത്തിനുള്ളില്഼
ഒരു ഇംപല്ലര്഼ തിരിയുന്പോള്഼ പന്പു് പ്രവര്഼ത്തിക്കുന്നതിനാവശ്യമായ അപ
കേന്ദ്രബലം ഉണ്ടാകുന്നു. അപകേന്ദ്ര പന്പുകളുടെ ആവരകങ്ങള്഼ രണ്ടു തരത്തി~
ലുണ്ടു്.
-591-
(a) വൊല്യൂട്ട് ആവരകം
  ചിത്രം 18.1 നോക്കുക. വൊല്യൂട്ട് ആവരകത്തിനു് സര്഼പിളാകൃതിയാണു~
ള്ളതു്. ആവരകത്തിന്഼റെ പരിഛേദ വിസ്തീര്഼ണം നിസ്സരണ പൈപ്പിലേക്കു
വരും തോറും ക്രമേണക്കൂടിക്കൂടി വരുന്നു. ഇംപ്ലെല്ലറില്഼ നിന്നും വരുന്ന
#വെള്ള
ത്തിന്഼റെ പ്രവേഗം ഏകസമാനമാക്കുന്നതിനു വേണ്ടിയാണു് ഇങ്ങനെ ചെയ്യുന്നതു്.
വൊല്യൂട്ട് ആവര഼കങ്ങളില്഼ ചുഴികള്഼ മൂലമുള്ള ഊര്഼ജ് നഷ്ടം താരതമ്യേന
കൂടുതലായിരിക്കും.</p>

<p>(b) വിസാരക ആവരകം
-592-
  വിസാരക ആവരകത്തില്഼ ഇംപെല്ലറിനു ചുററും ചിത്രം 18.2 ല്഼ കാണിച്ചി~
ട്ടുള്ളതു പോലെ ഗൈഡ് പാളികള്഼ ഉണ്ടായിരിക്കും. ഗൈഡ് പാളികള്഼
നിശ്ചലമാണു്. ഇവ കന്പനം കൂടാതെ വെള്ളം ഇംപെല്ലറിലേക്കെത്തുവാന്഼
സഹായിക്കുന്നു. ഗൈഡ് പാളികളുടെ വലയത്തെ വിസാരകം എന്നു പറയുന്നു.
വിസാരക ആവരകം സര്഼പിള ആവരകത്തെക്കാള്഼ കൂടുതല്഼ ദക്ഷതയുള്ളതാണു്.</p>

<p>18.3 അപകേന്ദ്രപന്പിന്഼റെ ഇംപെല്ലര്഼</p>

<p>  അപകേന്ദ്രപന്പിന്഼റെ ഇംപെല്ലറുകള്഼ രണ്ടു തരത്തിലുണ്ടു്. (i) തുറന്ന
ഇംപെല്ലറുകള്഼ (ii) സംവ഼ൃതഇംപെല്ലറുകള്഼ എന്നിവയാണവ. ചിത്രം 18.3
(a) നോക്കുക. ഒരു കേന്ദ്രഹബും അതിനു ചുററും ഏതാനും പാളികളും ചേര്഼ന്ന~
താണു് തുറന്ന ഇംപെല്ലര്഼. ധാരാളം ഖര മാലിന്യങ്ങളുള്ള വെള്ളം പന്പു 
#ചെയ്യു~
ന്നതിനു് തുറന്ന ഇംപെല്ലറുകളാണു് കൂടുതല്഼ അനുയോജ്യമായിട്ടുള്ളതു്.
#എന്നാല്഼
-593-
സംവൃത ഇംപെല്ലറുകള്഼ക്കു് (ചിത്രം 18.3)(b) പ്രവര്഼ത്തനശേഷി കൂടുതലുണ്ടു്.
അതിനാല്഼ സംവൃത ഇംപെല്ലറുകളാണു് കൂടുതല്഼ പ്഼രചാരത്തിലുള്ളതു്.</p>

<p>18.4 അപകേന്ദ്രപന്പിന്഼റെ പ്രവര്഼ത്തനം
  ചിത്രം 18.4 ല്഼ ഒരു അപകേന്ദ്രപന്പിന്഼റെ പ്രവര്഼ത്തനമാണു് കാണിച്ചിട്ടു~
ള്ളതു്. ജലാശയത്തില്഼ നിന്നും പന്പിലേക്കു് വെള്ളമെത്തിക്കുന്ന പൈപ്പിനെ
ചൂഷണ പൈപ്പു് എന്നും പന്പില്഼ നിന്നും വെള്ളം പുറത്തേക്കും പ്രദാനം
#ചെയ്യുന്ന
പൈപ്പിനെ പ്രദാനം പൈപ്പു എന്നും പറയുന്നു. ചിത്രം നോക്കുക. ചൂഷണ
പൈപ്പിന്഼റെ കീഴററത്താണു്  അരിപ്പയും ഫുട്ട് വാള്഼വും ഘടപ്പിക്കുന്നതു്
അരിപ്പ, വെള്ളത്തിലുള്ള പ്ലവ വസ്തുക്കള്഼ (ഇലകള്഼ മരക്കഷണങ്ങള്഼, മററു
ചപ്പു ചവറുകള്഼ മുതലായവ) ചൂഷണ പൈപ്പിലേക്കു് പ്രവേശിക്കുന്നതിനെ
തടയുന്നു. അരിപ്പയോടൊത്തു് ഘടിപ്പിക്കുന്ന ഫുട്ട് വാള്഼വ് മുകളിലോട്ടു
മാത്രമേ തുറക്കുകയുള്ളു. അതിനാല്഼ ഫുട് വാള്഼വു വഴി ചൂഷണ പൈപ്പില്഼
പ്രവേശിച്ച വെള്ളം താഴോട്ടോഴുകുകയില്ല ചൂഷണ പൈപ്പിനു സാധാരണയായി
പ്രദാന പൈപ്പിനേക്കാള്഼ അല്പം വ്യാസം കൂടുതലായിരിക്കും. ചൂഷണ പൈപ്പു~
വായു നിബദ്ധമായിരിക്കുവാന്഼ പ്രത്യേകം ശ്രദ്ധിക്കുകയും വേണം.
-594-
  പന്പിന്഼റെ അപകേന്ദ്ര പ്രവര്഼ത്തനം മൂലം ജലാശയത്തിലെ (അതായതു്,
കിണര്഼, കുളം, പുഴ മുതലായവയിലെ) വെള്ളം ചൂഷണ പൈപ്പു വഴി പന്പി~
ലേക്കും അവിടെ നിന്നും പ്രദാന പൈപ്പിലേക്കുമൊഴുകുന്നു. പന്പിന്഼റെ
നിസ്സരണം നിയന്ത്രിക്കുന്നതിനു വേണ്ടി പ്രദാന പൈപ്പിന്഼റെ അടുത്തായി ഒരു
പ്രദാന വാള്഼വു് ഘടിപ്പിച്ചിരിക്കും. പന്പു് സ്ററര്഼ട്ടു ചെയ്യുന്പോള്഼ 
#പ്രദാന
വാള്഼വു് അടച്ചിട്ടിരിക്കണം. പന്പിനു് വേണ്ടത്ര വേഗം ആയിക്കഴിഞ്ഞാല്഼
പ്രദാന വാള്഼വ് സാവധാനത്തില്഼ തുറക്കാം.അതുപോലെതന്നെ പ്രദാന
വാള്഼വു് അടച്ച കഴിഞ്ഞിട്ടേ പന്പിന്഼റെ പ്രവര്഼ത്തനം നിര്഼ത്തുവാനും
#പാടുള്ളു.</p>

<p> ചിത്രം 18.4 നോക്കുക. ഏതു ജലാശയത്തില്഼ നിന്നാണോ വെള്ളം പന്പു
ചെയ്യുന്നതു് ആ ജലാശയത്തിലെ ജലവിതാനവും പന്പിന്഼റെ കേന്ദ്രവും തമ്മി~
ലുള്ള കുത്തന്഼ ദൂരത്തെ ചൂഷണ ശീര്഼ഷം എന്നു പറയുന്നു. സാധാരണൟായി
ജലാശയത്തിലെ ജലവിതാനത്തിനു മുകളിലായിട്ടാണു് പന്പുകള്഼ സ്ഥാപിക്കു~
ന്നതു്. അപ്പോള്഼ ചൂഷണ ശീര്഼ഷം ധനാത്മകമായിരിക്കും. എന്നാല്഼ ചില
പ്പോള്഼ ജലാശയത്തിലെ ജലവിതാനത്തിനു താഴെയും പന്പുകള്഼ വയ്ക്കാറുണ്ടു്.
അത്തരം സന്ദര്഼ഭങ്ങളില്഼ ചൂഷണ ശീര്഼ഷം ഋണാത്മകമായിരിക്കും.
 വെള്ളം ഏതു വിതാനം വരെ ഉയര്഼ത്തണമോ ആ വിതാനത്തിലേക്കു്
പന്പിന്഼റെ കേന്ദ്രത്തില്഼ നിന്നുള്ള കുത്തന്഼ ദൂരത്തെ പ്രദാന ശീര്഼ഷം 
#എന്നു
പറ഼യുന്നു.</p>

<p>18.5 പ്രൈമിങ്
   പന്പിനുള്ളിലുള്ള വായു മുഴുവന്഼ നീക്കിക്കളയുന്നതിനായി പന്പിലും ചൂഷണ
പൈപ്പിലും വെള്ളം നിറക്കുന്നതിനെയാണു് പ്രൈമിങ് എന്നു പറയുന്നതു്.
പ്രൈമിങ് നടത്തിയില്ലെങ്കില്഼ പന്പിന്഼റെ ഇംപെല്ലര്഼ വായുവില്഼ക്കിടന്നു്
വെറുതെ തിരിയുകയേള്ളു; വെള്ളം വലിച്ചെടുക്കുകയില്ല. അതിനാല്഼ പന്പിങ്
തുടങ്ങുന്നതിനു മുന്പായി അപകേന്ദ്ര പന്പുകള്഼ പ്രൈം ചെയ്യേണ്ടതാവശ്യമാണു്.
-616-
18.11 ബ഼ഹുഘട്ട അപകേന്ദ്രപന്പുകകള്഼
   ഒരപകേന്ദ്ര പന്പു് ഉല്പാദിപ്പിക്കുന്ന ശീര്഼ഷം, പന്പിലെ 
#ഇന്പെല്ലറിന്഼റെ
വ്യാസത്തിനും ഭ്രമണവേഗത്തിനും ആനുപാതികമായിരിക്കും. അതിനാല്഼
ഇന്പെല്ലറിന്഼റെ വ്യാസം, വേഗം എന്നിവ വര്഼ധിപ്പിക്കുന്നതുവഴി പന്പു്  
#ഉല്പാ~
ദിപ്പിക്കുന്ന ശീര്഼ഷവും വര്഼ധിപ്പിക്കാം. എന്നാല്഼ ഇങ്ങനെ 
#ഇന്പെല്ലറിന്഼റെ
വ്യാസവും വേഗവും വര്഼ധിപ്പിക്കുന്നതിനു ഒരു പരിധിയുണ്ടല്ലൊ. അതിനാല്഼
ഉന്നതശീര്഼ഷം ഉല്പാദിപ്പിക്കേണ്ട ആവശ്യം വരുന്പോള്഼ ഒരേ ആവരകത്തിനു~
ള്ളില്഼ത്തന്നെ ഒന്നിലധികം ഇന്പെല്ലറുകള്഼ ഘടിപ്പിക്കുകയാണു് പതിവ്.
ഈ ഇന്പെല്ലറുകളെല്ലാം ഒരു ഷാഫ്ററില്഼ തന്നെയാണു് ഘടിപ്പിക്കുന്നതു്.
അതിനാല്഼ ഓരോ ഇന്പെല്ലവും ഓരോ അപകേന്ദ്രപന്പായി പ്രവര്഼ത്തിപ്പിച്ചു
കൊള്ളും. ഇങ്ങനെ ഒന്നിലധികം ഇന്പെല്ലറുകളുള്ള അപകേന്ദ്രപന്പിനെയാണു്
ബഹുഘട്ടപന്പു് എന്നു പറയുന്നതു്.
-623-
		പ്രത്യാഗാമിപന്പുകള്഼</p>

<p>19.1 പ്രത്യാഗാമി പന്പുകളുടെ പ്രവര്഼ത്തനം</p>

<p>  കഴിഞ്ഞ അധ്യായത്തില്഼ നാം അപകേന്ദ്ര പന്പുകളെക്കുറിച്ചു് പഠിച്ചു.
പന്പിന്഼റെ ആവരകത്തിനുള്ളില്഼ ഒരു ഇംപെല്ലര്഼ തിരിയുന്പോഴുണ്ടാകുന്ന അപ~
കേന്ദ്ര ബലം കൊണ്ടാണല്ലൊ അപകേന്ദ്ര പന്പുകള്഼ പ്രവര്഼ത്തിക്കുന്നതു്.
എന്നാല്഼ ഒരു സിലിണ്ടറിനുള്ളില്഼ ഒരു പിസ്ററണ്഼ അങ്ങോട്ടുമിങ്ങോട്ടു
#നീങ്ങു~
ന്പോള്഼ സിലിണ്ടറിലുണ്ടാകുന്ന മര്഼ദ വ്യത്യാസം മൂലമാണു് പ്രത്യാഗാമി പന്പു~
കള്഼ പ്രവര്഼ത്തിക്കുന്നതു്. ഇങ്ങനെ പിസ്ററണിന്഼റെ പ്രത്യാഗാമി ചലനം മൂലം
പ്രവര്഼ത്തിക്കുന്നവയായതു കൊണ്ടാണു് പ്രത്യാഗാമി പന്പുകള്഼ക്കു്഼ആ പേര്഼
ലഭിച്ചതു്. ഈ അധ്യായത്തില്഼ നമുക്കു് പ്രത്യാഗാമി പന്പുകളെക്കുറിച്ചു്
പഠിക്കാം.</p>

<p>ചിത്രം 19.1 നോക്കുക ഒരു പ്രത്യാഗാമി പന്പിന്഼റെ പ്രധാന ഭാഗങ്ങള്഼
താഴെ പറയുന്നവയാണു്.</p>

<p> (i) ഒരു സിലണ്ടറും അതിനുള്ളില്഼ പ്രവര്഼ത്തിക്കുന്ന ഒരു പിസ്ററണും.
പിസ്ററണിനെ സാധാരണയായി പ്ലന്഼ജര്഼ എന്നും പറയാറുണ്ടു്. പിസ്ററണ്഼ ഒരു
തിരിയുന്ന ക്രാങ്കുമായി ബന്ധിച്ചിരിക്കുന്നു. അതിനാല്഼ ക്രാങ്ക് 
#തിരിയുന്നത഼നു~
സരിച്ചു് പിസ്ററണ്഼ സിലിണ്ടറിനുള്ളില്഼ അങ്ങോട്ടുമിങ്ങോട്ടും 
#നീങ്ങുന്നു.
(ii) ചൂഷണ പൈപ്പ്
(iii) പ്രദാന പൈപ്പ്</p>

<p>(iv) v1,v2 എന്നീ രണ്ടു വാള്഼വുകള്഼ v1 വാള്഼വിനെ അന്തര്഼ഗമ~
വാള്഼വു് എന്നും v2 വാള്഼വിനെ നിര്഼ഗമ വാള്഼വു് എന്നും പറയുന്നു.
624-
  പന്പിന്഼റെ പ്രവര്഼ത്തനം താഴെ പറയും പ്രകാരമാണു്. ചിത്രം 19.1
നോക്കുക. ചിത്രത്തില്഼ ക്രാങ്കു 0 യുടെ സ്ഥാനത്തു നിന്നും 180 തിരിയു~
ന്പോള്഼ പിസ്ററണ്഼ സിലിണ്ടറിന്഼റെ ഇടത്തേ അററത്തു നിന്നും വലത്തേ അററ~
ത്തേക്കു് നീങ്ങുന്നു. പിസ്ററണിന്഼റെ ഈ ചലനത്തെ ചൂഷണസ്ട്രോക്കു്
എന്നാണു് പറയുന്നതു്. ചൂഷണസ്ട്രോക്കിന്഼റെ ഫലമായി സിലിണ്ടറില്഼
അന്തര്഼ഗമ വാള്഼വു തുറന്നു് സിലിണ്ടറിനുള്ളിലേക്കു് പ്രവേശിക്കുന്നു. 
#അപ്പോള്഼
നിര്഼ഗമ വാള്഼വു് അടഞ്ഞു കിടക്കുകയായിരിക്കും. അതിനു ശേഷം ക്രാങ്കു്
180 degree യില്഼ നിന്നും വീണ്ടും 0 degree യുടെ സ്ഥാനത്തേക്കു് 
#തിരിൟ഼ുന്പോള്഼ പിസ്ററണ്഼,
സിലിണ്ടറിന്഼റെ വലത്തേ അററത്തു നിന്നും ഇടത്തേ അററത്തേക്കു് നീങ്ങുന്നു.
പിസ്ററണിന്഼റെ ഈ ചലനത്തെ പ്രദാന സ്ട്രോക്കു് എന്നാണു് പറയുന്നതു്.
പ്രദാന സ്ട്രോക്കിന്഼റെ ഫലമായി സിലിണ്ടറിനുള്ളിലെ മര്഼ദം വര്഼ധിക്കുന്നു.
അപ്പോള്഼ അന്തര്഼ഗമ഼ വാള്഼വ് അടയുകയും നിര്഼ഗമ വാള്഼വു് തുറന്നു് 
#വെള്ളം
പ്രദാന പൈപ്പിലേക്കൊഴുകുകയും ചെയ്യുന്നു. ഇങ്ങനെ പിസ്ററണിന്഼റെ വിസ്ഥാ~
പനം മൂലം പ്രവര്഼ത്തിക്കുന്നതു കൊണ്ടു് പ്രത്യാഗാമി പന്പുകളെ വിസ്ഥാപന
പന്പുകള്഼ എന്നും പറയാറുണ്ടു്.
-625-
19.2 ഏകക്രിയാ പ്രത്യാഗാമി പന്പു്</p>

<p>  ചിത്രം 19.1 ല്഼ കാണിച്ചിട്ടുള്ള പന്പിനെ ഏകക്രിയാ പ്രത്യാഗാമി പന്പു്
എന്നു പറയുന്നു. ഏകക്രിയാ പ്രത്യാഗാമി പന്പുകളില്഼, പിസ്ററണിന്഼റെ ഒരു
ഭാഗത്തു മാത്രമേ വെള്ളം പ്രവേശിക്കുകയുള്ളു. അതിനാല്഼ ക്രാങ്കിന്഼റെ ഓരോ
ഭ്രമണത്തിന്഼റെയും പകുതി സമയം മാത്രമേ, അതായതു് പ്രദാനം സ്ട്രോക്കില്഼
മാത്രം നിസ്സരണം നടക്കുകയുള്ളു. തന്മൂലം ഏക ക്രിയാ പ്രത്യാഗാമി 
#പന്പിന്഼റെ
നിസ്സരണം ഇടവിട്ടുള്ളതായിരിക്കും.</p>

<p>19.3 ഉഭയക്രിയാപ്രത്യാഗാമി പന്പു്
 
   ഉഭയക്രിയാപ്രത്യാഗാമി പന്പുക഼ളുടെ സിലിണ്ടറില്഼ പിസ്ററണിന്഼റെ ഇരു~
ഭാഗത്തും വെള്ളം പ്രവേശിക്കുന്നു. ഇതിനായി ഈ പന്പുകളില്഼ അന്തര്഼ഗമ~
വാള്഼വും ഈ രണ്ടു വീതമുണ്ടായിരിക്കും. തന്മൂലം പിസ്ററണിന്഼റെ ചൂഷണ
സ്ട്രോക്കിലും പ്രദാനം സ്ട്രോക്കിലും നിസ്സരണം നടക്കുന്നു. അതിനാല്഼ ഒരു
ഉഭയക്രിയാ പ്രത്യാഗാമി പന്പിന്഼റെ നിസ്സരണം, അതേ അളവുകളുള്ള ഒരു
ഏക ക്രിയാപ്രത്യാഗാമി പന്പിന്഼റെ നിസ്സരണത്തിന്഼റെ ഇരട്ടിയായിരിക്കും.
മാത്രമല്ല, ഉഭയക്രിയാ പ്രത്യാഗാമി പന്പുകള്഼ തുടര്഼ച്ചയായ നിസ്സരണം നല്഼കു~കയും ചെയ്യുന്നു.
19.6 ഋണാത്മകസ്ലിപ്പു്
	സാധാരണയായി പ്രത്യാഗാമി പന്പുകളുടെ ൟഥാര്഼ഥ നിസ്സരണം സൈദ്ധാ~
ന്തിക നിസ്സരണത്തെക്കാള്഼ കുറവായിരിക്കും.എന്നാല്഼ യഥാര്഼ഥനിസ്സരണം
സൈദ്ധാന്തിക഼ നിസ്സരണത്തെക്കാള്഼ കൂടുതലാകുന്ന സാഹചര്യങ്ങളും ചില~
പ്പോള്഼ ഉണ്ടാകാറുണ്ടു്. ചൂഷണപൈപ്പു് ദൈര്഼ഘ്യമേറിയതും പ്രദാനം പൈപ്പു്
ദൈര്഼ഘ്യം കുറഞ്ഞതും ആയിരിക്കുക, പന്പിന്഼റെ ഭ്രമണവേഗം കൂടുതലായി~
രിക്കുക തുടങ്ങിയ സാഹചര്യങ്ങളിലാണു് ഇതു് സംഭവിക്കുന്നതു്. ഇങ്ങനെ 
യഥാര്഼ഥ നിസ്സരണം സൈദ്ധാന്തിക നിസ്സരണത്തേക്കാള്഼ കൂടുതലാകുന്പോള്഼
പന്പിന്഼റെ സ്ലിപ്പു് ഋണാത്മകമാകുന്നു. ഋണാത്മക സ്ലിപ്പുണ്ടാകുന്പോള്഼
പന്പിന്഼റെ നിസ്സരണ ഗുണാങ്കും ഒന്നില്഼ കൂടുതലായിരിക്കുകയും ചെയ്യും.</p>

<p>19.8 പ്രത്യാഗാമി പന്പിന്഼റെ സൂചക ആരേഖം
  ഒരു പ്രത്യാഗാമി പന്പിന്഼റെ സിലിണ്ടറും പിസ്ററണും പരിഗണിക്കുക
പിസ്ററന്഼റെ ചൂഷണസ്ട്രോക്കില്഼ സിലിണ്ടിറിലെ മര്഼ദം അന്തരീക്ഷമര്഼ദ~
ത്തിനു താഴെയും പ്രദാന സ്ട്രോക്കില്഼ സിലിണ്ടറിലെ മര്഼ദം അന്തരീക്ഷമര്഼ദ
ത്തില്഼ക്കൂടുതലും ആയിരിക്കും. പന്പിന്഼റെ ചൂഷണശിര്഼ഷം h3 ഉം പ്രദാന
ശീര്഼ഷം hd യും ആണെന്നിരിക്കട്ടെ. അന്തരീക്ഷമര്഼ദം Hat ആണെന്നും
കരുതുക. അപ്പോള്഼ ചൂഷണ സ്ട്രോക്കില്഼ പിസ്ററണിന്മേലുനുഭവപ്പെടുന്ന
നിരപേക്ഷ മര്഼ദ ശീര്഼ഷം (hjat-ha) ആണു്. അതുപോലെതന്നെ പ്രദാന
സ്ട്രോക്കീല്഼ പിസ്ററണിന്മേലനുഭവപ്പെടുന്നു. നിരപേക്ഷ മര്഼ദശീഷം
(h+h)യും ആയിരിക്കും.
-634-
19.10 പ്രത്യാഗാമി പന്പിലെപിസ്ററണിന്഼റെ ത്വരണം</p>

<p>  പ്രത്യാഗാമി പന്പുകള്഼ പ്രവര്഼ത്തിക്കുന്നതെങ്ങനെയെന്നു് നാം 
#മനസ്സിലാക്കിയല്ല. ഒരു സംയോജക ദണ്ഡു് പന്പിന്഼റെ പിസ്ററണിനെ ഒരു 
#തിരിൟുന്ന
ക്രാങ്കുമായി ബന്ധിച്ചിരിക്കും. ഈ ക്രാങ്കു് തിരിയുന്പോള്഼ പിസ്ററണ്഼ 
#സിലിണ്ടറി~`
നുള്ളില്഼ അങ്ങോട്ടുമിങ്ങോട്ടും നീങ്ങുന്നു അതിനാല്഼
#സിലിണ്ടറിനുള്ളില്഼
പിസ്ററണിന്഼റെ ചലനം സരള ഹാര്഼മോണികമായിരിക്കും. തന്മൂലം പിസ്ററണിന്഼റെ
ചലനവേഗം ഏകസമാനമായിരിക്കുകയില്ല. സ്ട്രോക്കിന്഼റെ ആരംഭത്തിലും
അവസാനത്തിലും പ്രവേഗം പൂജ്യവും സ്ട്രോക്കിന്഼റെ മധ്യത്തില്഼ പ്രവേഗം
ഏററവും കൂടുതലുമായിരിക്കും. മറെറാരു വിധത്തില്഼ പറഞ്ഞാല്഼ 
#സ്ട്രോക്കിന്഼റെ
-635-
ഒന്നാം പകുതിയില്഼ പിസ്ററണിനു് ത്വരണവും രണ്ടാം പകുതിയില്഼ മന്ദനവും
ഉണ്ടാകും. പിസ്ററണിന്഼റെ ഈ ത്വരണവും മന്ദനവും മൂലം ചൂഷണ പൈപ്പി~
ലെയും പ്രദാന പൈപ്പിലെയും മര്഼ദ ശീര്഼ഷങ്ങളില്഼ 
#വ്യതിയാനങ്ങളുണ്ടാകുന്നു.
-652-
19.14 പ്രത്യാഗാമിപന്പുകളുടെ ചൂഷണ പൈപ്പിലും പ്രദാന
     പൈപ്പിലും വായുപാത്രങ്ങള്഼ ഘടിപ്പിച്ചാലുളള ഫലം
   പ്രത്യാഗാമിപന്പുകളുടെ നിസ്സരണം ഏകസമാനമാക്കുന്നതിനു വേണ്ടി അവ~
യുടെ ചൂഷണപൈപ്പിലും പ്രദാനപൈപ്പിലും ഘടിപ്പിക്കുന്ന സംവൃ഼ത ചേംബ~
റുകളെയാണു് വായുപാത്രങ്ങള്഼ എന്നു പറയുന്നതു്. ഇവയില്഼ സമ്മര്഼ദിതവായു
നിറച്ചിരിക്കും. സാധാരണയായി വാര്഼പ്പിരുന്പുകൊണ്ടാണു് വായുപാത്രം
നിര്഼മിക്കുന്നതു്.</p>

<p>  പിസ്ററണിന്഼റെ ത്വരണംമൂലം പ്രത്യാഗാമിപന്പുകളുടെ നിസ്സരണം ഏക~
സമാനമായിരിക്കുകയില്ലെന്നു് നാം മനസ്സിലാക്കിയല്ലൊ. എന്നാല്഼ വായു
പാത്രങ്ങള്഼ പ്രത്യാഗാമിപന്പുകളുടെ നിസ്സരണം ഏകസമാനമാക്കുന്നു. വായു
പാത്രങ്ങളുടെ പ്രവര്഼ത്തനം താഴെപറയും പ്രകാരമാണു്. (ചിത്രം 19.6 നോക്കുക)
ഒരു പ്രത്യാഗാമിപന്പിന്഼റെ ചൂഷണപൈപ്പില്഼ ഒരു വായുപാത്രം ഘടിപ്പിച്ചിട്ടു~ ണ്ടെന്നിരിക്കട്ടെ. ആദ്യത്തെ പകുതിയില്഼ പിസ്ററ~
ണിനു് ത്വരണമുണ്ടാകുമെന്നു് നാം മനസ്സിലാക്കിയിട്ടുണ്ടല്ലൊ. അതിനാല്഼
ചൂഷണസ്ട്രോക്കിന്഼റെ  ഒന്നാം പകുതിയില്഼ പൈപ്പിലെ വെള്ളത്തിന്഼റെ
പ്രവേഗം മാധ്യപ്രവേഗത്തില്഼ കൂടുതലായിരിക്കും. ഇങ്ങനെ ചൂഷണപൈ~
പ്പില്഼ കൂടി കൂടുതലായൊഴുകുന്ന വെള്ളം വായുപാത്രത്തില്഼ സംഭരിക്കപ്പെടുന്നു.
വായുപാത്രത്തിലെ സമ്മര്഼ദിതവായുവിന്഼റെ മര്഼ദം ചൂഷണപൈപ്പിലെ അധിക
നിസ്സരണം സ്വീകരിക്കാന്഼തക്കവിധത്തിലായിരിക്കും ക്രമീകരിച്ചിട്ടുള്ളതു്.
ചൂഷണസ്ട്രോക്കിന്഼റെ രണ്ടാം പകുതിയില്഼ പിസ്ററണിനു് മന്ദനം അനുഭവപ്പെ~
ടുന്പോള്഼ ചൂഷണപൈപ്പിലെ പ്രവേഗം മധ്യപ്രവേഗത്തെക്കാള്഼ കുറവായി~
രിക്കും. അപ്പോള്഼ വായുപാത്രത്തില്഼ നിന്നും വെള്ളം ചൂഷണപൈപ്പിലേക്കൊ~
ഴുകി ആ കുറവു് നികത്തുന്നു. അങ്ങനെ വായുപാത്രം ചൂഷണപൈപ്പിലെ
പ്രവാഹം ഏകസമാനമാക്കുന്നു.</p>

<p>  പ്രദാന പൈപ്പില്഼ ഘടിപ്പിക്കുന്ന വായുപാത്രത്തിന്഼റെ പ്രവര്഼ത്തനവും മുക~
ളില്഼ വിവരിച്ചിട്ടുള്ളതുപോലെതന്നെയാണു്. സ്ട്രോക്കിന്഼റെ ഒന്നാം പകുതി~
യില്഼ പിസ്ററണിന്഼റെ ത്വരണം മൂലം പ്രദാനപൈപ്പിലെ പ്രവേഗം, മാധ്യ
പ്രവേഗത്തെക്കാള്഼ കൂടുതലായിരിക്കും. ഇതുമൂലമുണ്ടാകുന്ന അധിക നിസ്സരണം
പ്രദാനപൈപ്പിലെ വായുപാത്രത്തിലേക്കൊഴുകുന്നു. പിന്നീടു് പ്രദാനസ്ട്രോ~
ക്കിന്഼റെ രണ്ടാം പകുതിയില്഼ പിസ്ററണിന്഼റെ മന്ദനംമൂലം പ്രദാനപൈപ്പി~
ലെ നിസ്സരണം, മാധ്യനിസ്സരണത്തേക്കാള്഼ കുറവാകും. അപ്പോള്഼ വായു
പാത്രത്തില്഼ നിന്നും വെള്ളം പ്രദാനം പൈപ്പിലെക്കൊഴുകി ആ കുറവ് പരി~
ഹരിക്കുന്നു.
-682-
19.17 ബഹു സിലിണ്ടര്഼ പന്പുകള്഼</p>

<p> ഒരു ഏക ക്രിയാ പ്രത്യാഗാമി പന്പിന്഼റെ പ്രദാന സ്ട്രോക്കില്഼ മാത്രമേ
നിസ്സരണം നടക്കുകയുള്ളു എന്നു നാം മനസ്സിലാക്കിയിട്ടുണ്ടല്ലോ. ഇത്തരം 
#പന്പുകളില്഼, പ്രദാന സ്ട്രോക്കിലെ നിസ്സരണം തന്നെ ഏകസമാനമായിരിക്കുകയു~
മില്ല. അതിനാല്഼ ഏകസമാന നിസ്സരണം ലഭിക്കുന്നതിനു് ബഹു സിലിണ്ടര്഼
പന്പുകള്഼ ഉപയോഗിക്കുകയാണു് പതിവു്. ഒന്നിലധികം സിലിണ്ടറുകളുള്ള
പന്പിനെയാണു് ബഹു സിലിണ്ടര്഼ പന്പുകള്഼ എന്നു പറയുന്നതു്. ഉഭയ സിലി~
ണ്ടര്഼ പന്പുകളും തൃസിലിണ്ടര്഼ പന്പുകളും ആണു് ബഹു സിലിണ്ടര്഼ പന്പുകളില്഼
പ്രധാനമായവ. ഉഭയ സിലിണ്ടര്഼ പന്പില്഼ രണ്ടു സിലിണ്ടറുകളുണ്ടായിരിക്കും.
ഇവയില്഼ ഒരു സിലിണ്ടറില്഼ ചൂഷണ സ്ട്രോക്കു് നടന്നുകൊണ്ടിരിക്കുന്പോള്഼
മറേറ സിലിണ്ടറില്഼ പ്രദാന സ്ട്രോക്കു് നടക്കുന്നുണ്ടാവും. തന്മൂലം പന്പില്഼
നിന്നും ഏകസമാന നിസ്സരണം ലഭിക്കുന്നു. അതുപോലെ ത്രി സിലിണ്ടര്഼
പന്പില്഼ മൂന്നു സിലിണ്ടറുകളാണുള്ളതു്. ഈ മൂന്നു സിലിണ്ടറുകളിലെയും
പിസ്ററണുകള്഼ ഒരേ സമയം വ്യത്യസ്ത സ്ട്രോക്കുകളില്഼ ഏര്഼പ്പെട്ടിരിക്കും.
തന്മൂലം പന്പിന്഼റെ നിസ്സരണം ഏക഼സമാനമായിരിക്കും.</p>

<p>19.17 പ്രത്യാഗാമി പന്പുകളും അപ഼കേന്ദ്ര പന്പുകളും തമ്മിലുള്ള
     താരതമ്യം.</p>

<p>(1) ഉന്നത ശീര്഼ഷത്തില്഼ താരതമ്യേന ചെറിയ നിസ്സരണങ്ങള്഼ക്കാണു്
പ്രത്യാഗാമി പന്പുകള്഼ ഏററവും അനുയോജ്യമായിട്ടുള്ളതു്. എന്നാല്഼ അപകേന്ദ്ര~പന്പുകള്഼ തഴ്ന്ന ശീര്഼ഷത്തില്഼ ഉന്നത നിസ്സരണങ്ങള്഼ക്കു് യോജിച്ചവയാണു്.</p>

<p>(2) അപകേന്ദ്ര പന്പുകളുടെ നിര്഼മാണവും പ്രവര്഼ത്തനവും വളരെ ലളിത~
മാണു്. ഇവയ്ക്കും വളരെ കുറച്ചു് ഭാഗങ്ങളേയുള്ളു. എന്നാല്഼ പ്രത്യാഗാമി
#പന്പു~
കള്഼ക്കു് കൂടുതല്഼ ഭാഗങ്ങളുള്ളതിനാല്഼ അവയുടെ നിര്഼മാണവും പ്രവര്഼ത്തനവും
കൂടുതല്഼ സങ്കീര്഼ണമാണു്.</p>

<p>(3) ഒരു നിര്഼ദിഷ്ട നിസ്സരണത്തിനുള്ള പ്രത്യാഗാമി പന്പിന്഼റെ ഭാരം
അതേ നിസ്സരണത്തിനുള്ള പ്രത്യാഗാമി പന്പിന്഼റെ ഭാരം അതേ നിസ്സരണത്തി~
നുള്ള അപകേന്ദ്ര പന്പിന്഼റെ ഭാരത്തേക്കാള്഼ കൂടുതലായിരിക്കും.
-683-
(4) അപകേന്ദ്ര പന്പുകള്഼ സ്ഥാപിക്കുവാന്഼ അസ്തിവാരമേ വേണ്ടൂ; താരത~
മ്യേന കുറച്ചു സ്ഥലവും മതി. എന്നാല്഼ പ്രത്യാഗാമി പന്പുകള്഼ക്കു് 
#താരതമ്യേന
കൂടുതല്഼ സ്ഥലവും കൂടുതല്഼ ബലമുള്ള അസ്തിവാരവും ആവശ്യമാണു്.</p>

<p>(5) പ്രത്യാഗാമി പന്പുകളെ അപേക്ഷിച്ചു് അപകേന്ദ്ര പന്പുകള്഼ക്കു് ഉന്നത
വേഗത്തില്഼ പ്രവര്഼ത്തിക്കാന്഼഼ക഼ഴിയും.</p>

<p>(6) ചെളി വെള്ളം പന്പു ചെയ്യുവാന്഼ പ്രത്യാഗാമി പന്പുകള്഼ അനുയോജ്യ~
മല്ല. എന്നാല്഼ അപകേന്ദ്ര പന്പുകള്഼ ഉപയോഗിച്ചു് ചെളി വെള്ളവും പന്പു
ചെയ്യാം.
(7) അപകേന്ദ്ര പന്പുകളുടെ തേയ്മാനം താരതമ്യേന കുറവാണു്. അതി~
നാല്഼ അവയുടെ അനുരക്ഷണച്ചെലവു് കുറഞ്ഞിരിക്കും. എന്നാല്഼ പ്രത്യാഗാമി
പന്പിന്഼റെ വിവിധഭാഗങ്ങള്഼ എളുപ്പത്തില്഼ തോയ്മാനത്തിനിരായാകുന്നു. 
#തന്മൂലം
പ്രത്യാഗാമി പന്പുകളുടെ അനുരക്ഷണച്ചെലവു് താര഼തമ്യേന കൂടുതലാണു്.</p>

<p>(8) പ്രത്യാഗാമി പന്പുകള്഼ക്കു് സ്പന്ദമാന നിസ്സരണമാണുള്ളതു്. എന്നാല്഼
അപകേന്ദ്ര പന്പുകള്഼ തുടര്഼ച്ചയായ നിസ്സരണം നല്഼കുന്നു.</p>

<p>(9) അപകേന്ദ്ര പന്പുകളില്഼, ക്രാങ്കു് ഷാഫ്ററിലനുഭവപ്പെടുന്ന തള്ളല്഼
ഏക സമാനമായിരിക്കും. എന്നാല്഼ പ്രത്യാഗാമി പന്പുകളുടെ ക്രാങ്കു് ഷാഫ്഼~
ററില്഼ അസ഼മാന തള്ളല്഼ അനുഭവപ്പെടുന്നു.</p>

<p>(10) പ്രത്യാഗാമി പന്പുകളുടെ നിസ്സരണം ഏക സമാനമാക്കുവാന്഼ അവ~
യില്഼ വായു പാത്രങ്ങള്഼ ഘടിപ്പിക്കേണ്ടതാവശ്യമാണു്. എന്നാല്഼ അപകേന്ദ്ര~
പന്പുകള്഼ക്കു് വായു പാത്രങ്ങളുടെ ആവശ്യമില്ല</p>

<p>(11) അപകേന്ദ്ര പന്പുകള്഼ക്കു് പ്രൈമിങ് ആവശ്യമാണു്. എന്നാല്഼
പ്രത്യാഗാമി പന്പുകള്഼ പ്രൈം ചെയ്യേണ്ടതില്ല.</p>

<p>(12) അപകേന്ദ്ര പന്പുകള്഼ പ്രവര്഼ത്തിപ്പിക്കുവാന്഼ എളുപ്പമാണു്;ഇതിനു്
പ്രത്യേക വൈദഗ്ദ്ധ്യമൊന്നും ആവശ്യമില്ല. എന്നാല്഼ പ്രത്യാഗാമി പന്പുകള്഼
പ്രവര്഼ത്തിപ്പിക്കുന്പോള്഼ കൂടുതല്഼ ശ്രദ്ധിക്കേണ്ടതാവശ്യമാണു്.
(13) പ്രത്യാഗാമി പന്പു് സ്ററര്഼ട്ടാക്കുവാന്഼ അപകേന്ദ്ര പന്പിനെ അപേ~
ക്ഷിച്ചു് കൂടുതല്഼ ശക്തി വേണ്ടിവരുന്നു.</p>

<p>(14) പ്രത്യാഗാമി പന്പുകളുടെ പ്രാരംഭച്ചെലവു് അപകേന്ദ്ര പന്പുകളെ
അപേക്ഷിച്ചു് കൂടുത഼ലാണു്.
(15) അപകേന്ദ്ര പന്പുകളെ അപേക്ഷിച്ചു് പ്രത്യാഗാമി പന്പുകള്഼ കൂടുതല്഼
ദക്ഷത നല്഼കുന്നു.
          *****</p>

<p></p>

<p></p>

<p></p></body></text></cesDoc>