<cesDoc id="mal-w-literature-eductext-vali2" lang="mal">
<cesHeader type="text">
<fileDesc>
<titleStmt>
<h.title>mal-w-literature-eductext-vali2.txt</h.title>
<respStmt>
<respType>Electronic file created by</respType>
<respName>Central Institute for Indian Languages, Mysore</respName>
<respType>transferred into Unicode and CES format by</respType>
<respName>"Unicodify" software by Andrew Hardie</respName>
</respStmt></titleStmt>
<publicationStmt>
<distributor>UCREL (on behalf of CIIL)</distributor>
<pubAddress>Department of Linguistics, Lancaster University, Lancaster, LA1 4YT, UK</pubAddress>
<availability region="WORLD"></availability>
<pubDate>03-07-22</pubDate>
</publicationStmt>
<sourceDesc>
<biblStruct>
<monogr>
<h.title>*****</h.title>
<h.author>കേരള പാഠാവലി സ്ററാന്഼</h.author>
<imprint>
<pubPlace>India</pubPlace>
<publisher>Unknown - Book</publisher>
<pubDate>1987</pubDate>
</imprint>
<idno type="CIIL code">vali2</idno>
</monogr></biblStruct></sourceDesc></fileDesc>
<encodingDesc>
<projectDesc>Text collected for the CIIL Corpus, subsequently integrated into the EMILLE/CIIL Monolingual Written Corpora.</projectDesc>
<samplingDesc>Simple written text only has been transcribed. Diagrams, pictures and tables have been omitted. Sampling begins at page 38.</samplingDesc>
<editorialDecl><conformance level="1"></conformance></editorialDecl>
</encodingDesc>
<profileDesc>
<creation><date>03-07-22</date></creation>
<langUsage>Malayalam</langUsage>
<wsdUsage>
<writingSystem id="ISO/IEC 10646">Universal Multiple-Octet Coded Character Set (UCS).</writingSystem>
</wsdUsage>
<textClass>
<channel mode="w">print</channel>
<constitution type="composite"></constitution>
<domain type="public"></domain>
<factuality type="fact"></factuality>
</textClass>
<translations></translations>
</profileDesc>
<revisionDesc></revisionDesc>
</cesHeader>

<text><body>
<p>
		 കേരള പാഠാവലി
		  മലയാളം
	       സ്ററാന്഼ഡേര്഼ഡ് 6
	  കേരളാ ഗവണ്഼മെന്഼റ് പ്രസിദ്ധീകരണം
	     വിദ്യാഭ്യാസവകുപ്പ്
		  1987.
		------</p>

<p>-2-</p>

<p>		പാഠം 2
		തേന്഼</p>

<p>	മഹാകവി വളളത്തോളിന്഼റെ ഋഗ്വേദം പ഼രിഭാഷയില്഼നിന്ന് ഉദ്ധ~
രിച്ചതാണ് മുകളില്഼ ചേര്഼ത്ത വരികള്഼. അര്഼ത്ഥം മനസ്സി~
ലായില്ല. അല്ലേ? വിഷമിക്കേണ്ട. പറഞ്ഞുതരാം. "യാഗം
ചെയ്യുന്നവന് (യജമാനന്) വായുവും നദികളും മധുതൂകുന്നു.</p>

<p>-3-</p>

<p>അതുപോലെ എല്ലാ ഔഷധങ്ങളും നമുക്ക് തേനായ്ത്തീരട്ടെ.
രാത്രിയും പകലും ഭൂമിയും േതനാകട്ടെ. അച്ഛനെപ്പോലെ
നമ്മെ രക്ഷിക്കുന്ന സ്വര്഼ഗ്ഗം തേനായ്ച്ചമയട്ടെ. വൃക്ഷദേവ~
തയായ വനസ്പതിയും സൂര്യനും നമുക്ക് മ഼ധു നല്഼കട്ടെ.
പശുക്കളും നമുക്ക് മധു തൂകട്ടെ." ചുരുക്കത്തില്഼, എല്ലാം
മധുമയമാകട്ടെ, എല്ലാം മധുതൂകട്ടെ, എന്നാണ് ഋഷി ഈ മന്ത്ര~
ത്തിലൂടെ പ്രാര്഼ത്ഥിക്കുന്നത്.</p>

<p>	അതിപ്രാചീനകാലത്തുതന്നെ തേനിന്഼റെ മഹിമ നമ്മുടെ
പൂര്഼വികന്഼മാര്഼ നല്ലവണ്ണം മനസ്സിലാക്കിയിരുന്നുവെന്നതിന്
വേറെ തെളിവുവേണമോ? നമ്മുടെ ചികിത്സാശാസ്ത്രമായ
ആയുര്഼വ്വേദത്തില്഼ തേനിനു കല്഼പിച്ചിട്ടുളള പദവി മെററാന്നിനും
ഇല്ല.</p>

<p>	അടുത്തകാലത്ത് പാശ്ചാത്യദേശത്തിലെ വൈദ്യശാസ്ത്ര
വിശാരദന്഼മാര്഼ നടത്തിയ ഗവേഷണങ്ങളും പരീക്ഷണങ്ങളും മധു~
വിന്഼റെ അന്യാദൃശമായ ഔഷധവീര്യം തെളിയിച്ചിരിക്കുന്നു.
അവരുടെ അനുഭവങ്ങളില്഼ ചിലത് താഴെ വിവരിക്കാം.</p>

<p>	മാറത്ത് അര്഼ബുദരോഗം (കാന്഼സര്഼) ബാധിച്ച ഒരു
സ്ത്രീക്ക് ശസ്ത്രക്രിയ നടത്തി. എന്തുചെയ്തിട്ടും ശസ്ത്ര
വ്രണം ഉണങ്ങുന്നില്ല! വിഗഗ്ദ്ധനായ ഡോക്ടര്഼ പ്രചാരത്തി~
ലുളള എല്ലാ ആന്഼റിബയോട്ടിക്ക് മരുന്നുകളും പരീക്ഷിച്ചു
നോക്കി. ഒരു ഫലവും കണ്ടില്ല. ഒടുവില്഼ അദ്ദേഹം ഒരു
പൊടിക്കൈ പ്രയോഗിച്ചു. മുറിവില്഼ ധാരാളം േതന്഼ പുരട്ടി.
തേനില്഼ മുക്കിയ ലിനന്഼കൊണ്ട് മുറിവ് കെട്ടി. അദ്ഭുത~
മെന്നേ പറയേണ്ടൂ, അന്നുമുതല്഼ക്ക് വ്രണം ഉണങ്ങിത്തുടങ്ങി.
ഏതാനും ദിവസങ്ങള്഼കൊണ്ട്, മെററാരു മരുന്നും ഉപയോഗി~
ക്കാതെ, തേന്഼കൊണ്ടുതന്നെ പരിപൂര്഼ണ്ണസുഖം ലഭിച്ചു.
ഇംഗ്ലണ്ടിലെ ഒരു സുപ്രസിദ്ധ ശസ്ത്രക്രിയാവിദഗ്ദ്ധനായ
മൈക്കേല്഼ ബുള്഼മാന്഼റെ അനുഭവമാണിത്.</p>

<p>	വേറൊരു സംഭവം അമേരിക്കന്഼ മെഡിക്കല്഼ അസോസി~
യേഷന്഼റെ മുഖപത്രത്തില്഼ കുറച്ചുകാലംമുന്പ് വിവരിച്ചിരുന്നു:
അടുക്കളയില്഼ പണിയെടുക്കുന്പോള്഼ ഒരു സ്ത്രീയുടെ കൈക്ക്
ഭയങ്കരമായ തീപ്പൊളളലേററു. തോല്഼മാത്രമല്ല, മാംസംകൂടി
വെന്തുപോയിരുന്നു. ഉടനെ ആശുപത്രിയിലേക്കുപോകാന്഼
അവര്഼ക്ക് സൌകര്യമുണ്ടായിരുന്നില്ല. തന്഼റെ മുത്തശ്ശി പറഞ്ഞു
കേട്ടിരുന്ന ഒരു പ്രഥമശുശ്രൂഷ അവരോര്഼ത്തു. അതനുസരിച്ച്,
പൊളളിയ ഭാഗത്ത് ധാരാളം തേന്഼ പുരട്ടി. തേനില്഼ മുക്കിയെ~
ടുത്ത തുണികൊണ്ട് അവിടെ ചുററിക്കെട്ടുകയും ചെയ്തു.</p>

<p>-4-</p>

<p>പിേററന്ന് കെട്ടഴിച്ചുനോക്കിയപ്പോള്഼ അവര്഼ വിസ്മയിച്ചു
പോയി! പഴുപ്പ് അശേഷമില്ല; ഉണക്കം പിടിച്ചു തുടങ്ങി~
യിരിക്കുന്നു. അവര്഼ ആശുപത്രിക്കു പോകേണ്ടതില്ലെന്ന തീരു~
മാനിച്ചു. തേന്഼കൊണ്ടുതന്നെ വ്രണം ഉണങ്ങി. തീപ്പൊളളി~
യേടത്ത് നേരിയ കലപോലും അവശേഷിച്ചില്ല.</p>

<p>	അടുത്തകാലത്ത് പാശ്ചാത്യദേശങ്ങളില്഼ നടത്തിയ
അനേകം പരീക്ഷണങ്ങളില്഼നിന്ന് തേനിന്഼റെ അണുനാശക
ശക്തി സംശയാതീതമായി തെളിഞ്ഞിരിക്കുന്നു. എന്നാല്഼ ഈ
ആശ്ചര്യകരമായ ശക്തിയുടെ രഹസ്യം എന്താണെന്നു കണ്ടു
പിടിക്കാന്഼ ഇനിയും ഗവേഷണങ്ങള്഼ തുടരണം എന്നാണ് വിദ~
ഗ്ദ്ധന്഼മാരുടെ അഭിപ്രായം. ഇപ്പോള്഼ത്തന്നെ ഒരു കാര്യം
വ്യക്തമായിരുന്നു. പ്രകൃതിദത്തമായ ഈ ഔഷധത്തോളം
വ്രണവിരോപണശക്തി മനുഷ്യനിര്഼മ്മിതമായ ഒരു മരുന്നിനു~
മില്ല. എന്നാല്഼ പ്രകൃതിയില്഼നിന്നു ലഭിക്കുന്ന നിലയില്഼~
ത്തന്നെ അത് ഉപയോഗിക്കണം. ചൂടാക്കി തേനിലെ തരികള്഼
ഉരുക്കുകയോ മേററാ ചെയ്താല്഼ അതിന്഼റെ വീര്യം നശിക്കും.
ഏതിലും മായം ചേര്഼്ക്കുന്നവര്഼ ഈ തത്വമോര്഼ത്ത് തേനിലെ~
ങ്കിലും മായം ചേര്഼ക്കാതിരിക്കുമോ!</p>

<p>	മനുഷ്യരക്തത്തിലെ ഒരു അവശ്യഘടകമാണ് പഞ്ചസാര.
പഞ്ചസാരയുടെ തോതു കുറഞ്ഞുപോയാല്഼ പല രോഗങ്ങളും
പിടിപെടും. കൂടിയാലും അതുതന്നെ സംഭവിക്കും. പഞ്ച~
സാരയുടെ തോതു കുറഞ്ഞാല്഼, മെററാരു മരുന്നുകൊണ്ടും കഴി~
യാത്തവണ്ണം അത്രവേഗത്തില്഼ തേന്഼കൊണ്ട് ആ ന്യൂനത പരിഹ~
രിക്കാമെന്ന് തെളിഞ്ഞിരിക്കുന്നു. കുട്ടികള്഼ക്ക് തേനും പാലും
പോലെ അത്ര നല്ല ആഹാരം വേറെയില്ലെന്ന് ശിശുചികിത്സ~
കന്഼മാര്഼ ഏകകണ്ഠമായി ഉദ്ഘോഷിക്കുന്നു. മധുരദ്രവ്യങ്ങള്഼
അധികം കഴിക്കുന്നത് ശിശുക്കളുടെ ആരോഗ്യത്തിനു ഹാനികര~
മാണ്. ഈ സാമാന്യനിയമത്തിന് ഒരു അപവാദമാകുന്നു തേന്഼.
എന്താണ് കാരണം? പറയാം. ലെവുലോസ്, ഡെക്സ്~
റ്രേറാസ് എന്നീ പഞ്ചസാരകള്഼ക്കു പുറമേ B,C,K എന്നീ വിററ~
മിനുകള്഼ വലിയ തോതില്഼ തേനില്഼ അടങ്ങിയിരിക്കുന്നു.</p>

<p>	മനുഷ്യശരീരത്തിന്഼റെ വളര്഼ച്ചയ്ക്ക് അത്യന്താപേക്ഷിത~
മായ ചെന്പ്, കാല്഼സിയം, ഫോസ്ഫറസ്, ഇരുന്പ്, ഗന്ധകം,
മാന്഼ഗനീസ് എന്നീ ധാതുദ്രവ്യങ്ങളും തേനില്഼ ഗണ്യമായ
തോതില്഼ ചേര്഼ത്തുകാണുന്നു. മുന്഼പറഞ്ഞ വിററാമിനുകളും ഈ
ധാതുദ്രവ്യങ്ങളുമാണോ തേനിനെ സിദ്ധൌഷധമാക്കുന്നത്?</p>

<p>-5-</p>

<p>അല്ല, അതില്഼ അടങ്ങിയിരിക്കുന്ന സാന്ദ്രതകൂടിയ ഹൈഡ്ര~
ജനോ? (Heavy hydrogen) ഈ ചോദ്യത്തിന് ഉത്തരം കണ്ടുപിടി~
ക്കാന്഼ ശാസ്ത്രജ്ഞന്഼മാര്഼ പരിശ്രമിച്ചുകൊണ്ടിരിക്കുകയാണ്.</p>

<p>	നീരുവലിച്ചെടുക്കാനുളള അസാധാരണമായ കഴിവായി~
രിക്കാം തേനിന്഼റെ വ്രണവിരോപണശക്തിയുടെ രഹസ്യം
എന്ന് ഡോക്ടര്഼ ബുള്഼മാന്഼ ഊഹിക്കുന്നു. തേന്഼ പുരട്ടിയ
ഭാഗത്തുളള നീര് ഏതാനും മണിക്കൂര്഼കൊണ്ട് വററിപ്പോകുന്നു.
അതോടൊപ്പം രോഗഹേതുക്കളായ അണുപ്രാണികളിലെ നീരും
തേന്഼ വലിച്ചെടുക്കുന്നുവെന്നും അപ്പോള്഼ അവ ശുഷ്കീഭവിച്ച്
നശിച്ചുപോകുന്നുവെന്നുമാണ് അദ്ദേഹത്തിന്഼റെ നിഗമനം.</p>

<p>	തേന്഼ ഒരു നല്ല ജീവനൌഷധമാണെന്നും ശാസ്ത്രജ്ഞന്഼മാര്഼
കണ്ടുപിടിച്ചിരിക്കുന്നു.വടക്കന്഼ മെക്സിക്കോവിലെ ഗ്രാമീ~
ണര്഼ 120 വയസ്സുകഴിഞ്ഞിട്ടും അരോഗദൃഢഗാത്രരായി
കാണപ്പെടുന്നു. ഇതിനു കാരണം തേനും പഴങ്ങളുമാണ് അവ~
രുടെ മുഖ്യാഹാരം എന്നതത്രെ. റഷ്യയിലെ കാക്കസസ് പര്഼വത
നിരകളില്഼ പാര്഼ത്തുവരുന്ന ഗിരിവര്഼ഗക്കാര്഼ വാര്഼ദ്ധക്യത്തെ
നിശ്ശേഷം ജയിച്ചിരിക്കുന്നുവെന്നു പറയാം. 140 വയസ്സ്
അവര്഼ക്ക് ചെറുപ്പമാണ്. മാംസവും പച്ചക്കറികളും തേനു~
മാണ് അവരുടെ ആഹാരം. ആഴ്ചയില്഼ അരകിലോഗ്രാമില~
ധികം തേന്഼ അകത്താക്കുന്ന ഭാഗ്യവാന്഼മാരാണ് അവര്഼.</p>

<p>	തേനിനെക്കുറിച്ചുളള ഒരു പുതിയ വിജ്ഞാനം തികച്ചും
പഴയതാണ്.ഭാരതീയര്഼ക്കു മാത്രമല്ല, യവനന്മാര്഼ക്കും ഈജി~
പ്തുകാര്഼ക്കും പണ്ടുപണ്ടേ തേനിന്഼റെ അസാധാരണഗുണങ്ങള്഼
അറിയാമായിരുന്നു. രണ്ടായിരത്തിലേറെ കൊല്ലങ്ങള്഼്ക്കുമുന്പ്
ഗ്രീസില്഼ ജീവിച്ചിരുന്ന ഹിപ്പോക്രേററ്സ് എന്ന വൈദ്യകുല~
പത഼ി കുരുവിനു സിദ്ധൌഷധമായി കല്഼പ്പിച്ചത് തേനായി~
രുന്നു. പാശ്ചാത്യദേശത്ത് എഴുതപ്പെട്ട ആദ്യത്തെ വൈദ്യ~
ശാസ്ത്രഗ്രന്ഥത്തിന്഼റെ കര്഼ത്താവായ ഡയോസ്഼കോറൈഡ്്സ്
ഇങ്ങനെ പറഞ്ഞുകാണുന്നു; "വ്രണം, തീപ്പൊളളല്഼,
രക്തത്തില്഼ ആല്഼ക്കഹോള്഼ കലരുന്നതുകൊണ്ടുണ്ടാകുന്ന
രോഗങ്ങള്഼ ഇവക്ക് ഒരു മരുന്നേ ഉളളൂ- തേന്഼"</p>

<p>	പുരാതനകാലത്തെ ഈജിപ്തിലെ രാജാക്കന്഼മാരായ
ഫാരോവമാര്഼ക്ക് തേന്഼ ജീവനായിരുന്നു. ഈയിടെ കയ്റോവി~
നടുത്തു അയ്യായിരംകൊല്ലം പഴക്കമുളള ഒരു ശവക്കല്ലറ തുറന്നു</p>

<p>-6-</p>

<p>നോക്കിയപ്പോള്഼ അതാ ഇരിക്കുന്നു അതിനകത്ത് തേന്഼ നിറച്ച
ഒരു ഭരണി!
	
ഋഗ്വേദകാലത്തെ ഋഷിയോടൊപ്പം നമുക്കു പ്രാര്഼ത്ഥിക്കുക!
	 
	"അമ്മട്ടു തേനായ്ത്തീരട്ടെ നമുക്കു പ്രാര്഼ത്ഥിക്കുക!
	തേനാക രാത്രി, തേനാക പകല്഼, തേനാക മന്നിടം."</p>

<p>-7-</p>

<p>			പാഠം 3</p>

<p>	      എവറസ്ററാരോഹണം</p>

<p>	ലോകത്തിലെ ഏററവും പൊക്കമുളള പര്഼വത ശിഖര~
മാണ് എവറസ്ററ്. അതിന്഼റെ ഉയരം 29028 അടിയാണ് (8848
മീററര്഼)- അഞ്ചരനാഴിക തികയാന്഼ 12 അടികൂടിയേ വേണ്ടൂ.</p>

<p>-8-</p>

<p>സമനിരപ്പാണെങ്കില്഼ ഒന്നൊന്നരമണിക്കൂര്഼കൊണ്ട് നടന്നെത്താ~
വുന്ന ദൂരം. കാറില്഼ കയറിയാല്഼ വെറും പത്തുമിനിട്ട്. എന്നാല്഼
അത്രയും ദൂരം മുകളിലേക്ക്കയറിപ്പോകുക എന്നത് മനുഷ്യന്഼റെ
എല്ലാ കരുത്തുകളെയും വെല്ലുവിളിക്കുന്നൊരു കാര്യമാണ്. ഭ഼ൂമി~
യുടെ ആകര്഼ഷണശക്തിയോട് മല്ലിട്ടുകൊണ്ടുവേണം മല
കയറാന്഼. അത്രമാത്രമോ? മഞ്ഞുകട്ടികള്഼ അട്ടിയട്ടിയായി
വീണുകിടക്കുന്ന ചെങ്കുത്തായ മാര്഼ഗ്ഗം; വഴിനീളെ ദുസ്സ~
ഹമായ വഴുക്കല്഼; തരിപ്പിക്കുന്ന തണുപ്പും. കാല്഼വെയ്പ് ഒന്നു
പിഴച്ചാല്഼ കഥ കഴിഞ്ഞു! ആഹാരവും വെളളവും മാത്രമല്ല
ശ്വസിക്കാനുളള പ്രാണവായുവുംകൂടി കൂടെക്കൊണ്ടുപോകണം.
വഴിയില്഼ വിശ്രമിക്കാനുളള കൂടാരം പുറത്തു കയററണം.</p>

<p>	ഇത്ര ക്ലേശകരമാണെങ്കിലും പര്഼വതാരോഹണം എന്നും
ഭാരതീയരെ ആകര്഼ഷിച്ചുപോന്നിട്ടുണ്ട്. നമ്മുടെ പുണ്യക്ഷേത്ര~
ങ്ങളില്഼ പലതും മലമുകളിലാണ്. ബുദ്ധമതക്കാരുടെ ജാതക~
കഥകളില്഼ സോണുത്തരന്഼ എന്ന ഒരു യോദ്ധാവ് ആറുകൊ~
ന്പുളള ഒരു വെളളാനത്തലവനെ വേട്ടയാടാന്഼ ഹിമാലയശിഖരങ്ങ~
ളിലേക്ക് കയറിപ്പോയ സാഹസികയാത്ര വിവരിച്ചിട്ടുണ്ട്.
അററത്ത് ഇരുന്പു കൊളുത്തു കെട്ടിയ കയര്഼ മുകളിലുളള പാറയി~
ലേക്കെറിഞ്ഞ് അതില്഼ ഉറപ്പിക്കുക; പിന്നെ കയറില്഼ പിടിച്ചു
തൂങ്ങിക്കയറുക. മുകളിലെത്തിയാല്഼ ഒരു ലോഹദണ്ഡം
പാറയില്഼ അടിച്ചിറക്കുക; അതില്഼നിന്നുകൊണ്ട് പിന്നെയും
കയറെറിഞ്ഞ് അതില്഼ പിടിച്ചു കയറുക; ഇങ്ങനെയാണ്
സോണുത്തരന്഼ ഗിരിശിഖരത്തില്഼ എത്തിയത്. അദ്ദേഹം
പ്രയോഗിച്ച കൌശലം ഇന്നത്തെ പര്഼വതാരോഹകരുടെ
രീതിയില്഼നിന്ന് വളരെയൊന്നും വ്യത്യസ്തമല്ല.</p>

<p>	ഉത്തുംഗശൃംഗങ്ങളോടുകൂടിയ ഹിമവാന്഼ മനുഷ്യമന~
സ്സിനെ എക്കാലത്തും ആകര്഼ഷിക്കുകയും അന്പരപ്പിക്കുകയും
വിനീതമാക്കുകയും ചെയ്തിട്ടുണ്ട്. നമ്മുടെ കവികള്഼ ഹിമ~
വാനെ ദേവതാത്മാവായി വര്഼ണ്ണിക്കുന്നു. കാളിദാസന്഼ പറയു~
കയാണ് :"ഹിമവാന്഼റെ മുകള്഼പ്പരപ്പിലെ സരസ്സില്഼നിന്ന്
സപ്തര്഼ഷികള്഼ പൂജയ്ക്ക് താമരമൊട്ടുകള്഼ പറിച്ചെടുക്കുന്നു.
അവശേഷിച്ച മുകുളങ്ങളെ സൂര്യന്഼ വിരിയിക്കുന്നു. മുകളില്഼
നിന്ന് രശ്മികള്഼ ചൊരിഞ്ഞല്ല കതിരോന്഼ ഈ കമലങ്ങളെ
വികസിപ്പിക്കുന്നത്; താഴത്തുനിന്ന് മുകളിലേക്കു പോകുന്ന
രശ്മികള്഼ കൊണ്ടത്രേ."</p>

<p>-9-</p>

<p>	നിങ്ങള്഼ നെററിചുളിക്കുകയാണ്. അല്ലേ? മഞ്ഞുനിറഞ്ഞ
ഹിമാലയത്തില്഼ താമരപ്പൂക്കളോ? സൂര്യമാര്഼ഗ്ഗത്തെക്കവി~
ഞ്ഞാണോ ഹിമവാന്഼റെ ശിഖരം സ്ഥിതിചെയ്യുന്നത്?
ഭൂമിക്കേററവും അടുത്തുളള ഗ്രഹമായ ചന്ദ്രന്഼പോലും ഹിമാല഼യ~
ശിഖരങ്ങളെക്കാള്഼഼അനേകായിരം കിലോമീററര്഼ ഉയരത്തിലാ~
ണല്ലോ. പിന്നെ സൂര്യന്഼റെ കഥ പറയാനുണ്ടോ? കാളിദാസന്഼
ചിരിച്ചുകൊണ്ട് നിങ്ങളോടു പറയും: "മിടുക്കന്഼മാര്഼. ഇത്രയും
കാര്യം നിങ്ങള്഼ ധരിച്ചല്ലോ. ഹിമാലയത്തിന്഼റെ അന്പരപ്പിക്കുന്ന
ഉയരത്തെക്കുറിച്ച് ഒരു ബോധമുണ്ടാക്കണം എന്നേ എനിക്ക്
ഉദ്ദേശ്യമുളളൂ. അതിന് ഒരു അതിശയോക്തി പ്രയോഗിച്ചു~
വെന്നുമാത്രം." </p>

<p>	ചെങ്കുത്തായി നില്഼ക്കുന്ന ഹിമാലയശിഖരങ്ങള്഼ മനു~
ഷ്യന്഼റെ സാഹസികതയെ വെല്ലുവിളിച്ചുകൊണ്ട് ഏറെക്കാലം
അജയ്യമായി വര്഼ത്തിച്ചു. 1953 മേയ് 29-ാം തീയതി പകല്഼
പതിനൊന്നരമണിക്ക് എഡ്മണ്ട് ഹിലാരിയും ടെന്഼സിങ്ങ്
നോര്഼ഗേയും ഉന്നതമായ എവറസ്ററിന്഼റെ മുകളില്഼ ആദ്യമായി
കാല്഼കുത്തി. 1921 മുതല്഼ എട്ടുപത്ത് സംഘങ്ങള്഼ എവറസ്ററിനെ
കീഴടക്കാന്഼ പുറപ്പെട്ടു പരാജയപ്പെട്ടിരുന്നു. പങ്കെടുത്ത
പര്഼വതാരോഹകരില്഼ പലരും മരിച്ചുപോയി. എങ്കിലും
സാഹസികരായ മനുഷ്യര്഼ ഹതാശരായില്ല. ഓരോ സംഘവും
പിന്നാലേ വരുന്നവര്഼ക്ക് ചില താവളങ്ങള്഼ ഏര്഼പ്പെടുത്തുകയും
വിലയേറിയ അനുഭവപാഠങ്ങള്഼ നല്഼കുകയും ചെയ്തു. പര്഼വത
നിവാസികളായ ഷെര്഼പ്പാസമുദായത്തിന്഼റെ സഹായം ഇക്കാര്യ~
ത്തില്഼ അത്യന്താപേക്ഷിതമാണെന്ന് വിദേശീയര്഼ മനസ്സി~
ലാക്കി. "ദൈവം ഷെര്഼പ്പാവര്഼ഗ്ഗത്തെ സൃഷ്ടിച്ചിരുന്നില്ലെ~
ങ്കില്഼ എവറസ്ററില്഼ ഇന്നും മനുഷ്യന്് കാല്഼കുത്താന്഼ കഴിയുമാ~
യിരുന്നില്ല" എന്ന് യൂറോപ്പുകാരനായ ഒരു ആരോഹകസംഘ~
നേതാവ് പറഞ്ഞിട്ടുളളത് സ്മരണീയമാകുന്നു. 1953-ല്഼
കേണല്഼ ഹണ്ടിന്഼റെ നേതൃത്വത്തില്഼ പുറപ്പെട്ട പര്഼വതാരോഹക~
സംഘത്തിലെ ഷെര്഼പ്പയാണ് ടെന്഼സിങ്ങ്. അദ്ദേഹത്തോ~
ടൊപ്പം വിജയത്തിലേക്ക് കയറിപ്പോയ എഡ്മണ്ട് ഹിലാരി
ന്യൂസിലണ്ടുകാരനാണ്.</p>

<p>	പുറപ്പെടുന്പോള്഼ ആ സംഘത്തില്഼ പതിന്നാലുപേരുണ്ടാ~
യിരുന്നു. അവരില്഼ ചാള്഼സ് ഇവാന്഼സും ടോംബോര്഼ഡില്ലനും
ആയിരുന്നു ഏററവും മുന്പില്഼. 28700 അടി കയറി അവര്഼</p>

<p>-10-</p>

<p>ദക്ഷിണ ശിഖരത്തിലെത്തി. എന്നാല്഼ പ്രാണവായു തീര്഼ന്നു
പോയതിനാല്഼ അവര്഼ക്ക് മടങ്ങേണ്ടിവന്നു. പിന്നാലെ വന്ന
ഹിലാരിയും ടെന്഼സിങ്ങും മൂന്നു കൂട്ടുകാരും മുന്നേറി. 28000
അടി കയറിയതിനുശേഷം കൂടെയുളളവര്഼ തളര്഼ന്നു പിന്഼വാങ്ങി.
മേയ് 28-ാം തീയതിയായിരുന്നു ഈ സംഭവം; പിേററന്ന് ഹിലാ~
രിയും ടെന്഼സിങ്ങും മാത്രം സാഹസികോദ്യമം തുടര്഼ന്നു. പാറ~
യില്഼ കൊതകള്഼ കൊത്തിക്കൊത്തി അവയില്഼ ചവിട്ടിക്കൊണ്ടാണ്
അവര്഼ കയറിപ്പോയത്. കാലത്ത് ഒന്഼പതു മണിക്ക് അവര്഼
ദക്ഷിണ ശിഖരത്തിലെത്തി. പിന്നെയും ഒരു മണിക്കൂര്഼കൂടി
അവര്഼ പതുക്കെപ്പതുക്കെ കയറിപ്പോയി. അപ്പോഴതാ നാല്഼പ്പ~
തടിയോളം ചെങ്കുത്തായി പൊങ്ങി നില്഼ക്കുന്ന ഒരു കൂററന്഼ പാറ.
വിജയത്തിനുളള ഏററവും വലിയ വിഘ്നംപോലെ അത് തല~
യുയര്഼ത്തി നിന്നു.</p>

<p>		"നിശ്ചലം നീണ്ടുനിവര്഼ന്നു നിന്നൂദൃഢ-
		നിശ്ചയനായ കൊടുമുടി പിന്നെയും".</p>

<p>എന്നാല്഼ അവര്഼ പരാജയം സമ്മതിച്ച് പിന്഼മാറാന്഼ മുതിര്഼ന്നില്ല.
ആ പാറയ്ക്കും അതുപോലെ ഉയര്഼ന്നുനില്഼ക്കുന്ന തൊട്ടടുത്ത
പാറയ്ക്കും ഇടയില്഼ ഒരു വിടവു കണ്ടു. അതില്഼ മലര്഼ന്നു</p>

<p>-11-</p>

<p>കിടന്ന് ചവിട്ടിച്ചവിട്ടി ഇഞ്ചിഞ്ചായി മേലോട്ടു നീങ്ങി നീങ്ങി
ആ പാറയ്ക്കു മുകളിലെത്തി. അപ്പോഴേയ്ക്കും അവരിരുവരും
ആകെത്തളര്഼ന്നിരുന്നു. എങ്കിലും വിട്ടില്ല. വീണ്ടും കൊതകള്഼
കൊത്തി പതുക്കെപ്പതുക്കെ കയറി. ഒരു നിരകഴിഞ്ഞാല്഼഼മെററാരു
നിര! ഇത് ഒരിക്കലും അവസാനിക്കുകയില്ലെന്ന് അവര്഼ക്കു
തോന്നി. എങ്കിലും തളര്഼ച്ച വകവയ്ക്കാതെ കയററം തുടര്഼ന്നു.
പെട്ടെന്നതാ മല കീഴടങ്ങുന്നു! ഇനിയുളള നിരകള്഼ മേല്഼പ്പോട്ടല്ല,
കീഴ്പ്പോട്ടാണ്! മനുഷ്യപാദം അന്നേവരെ സ്പര്഼ശിച്ചിട്ടി~
ല്ലാത്ത ആ കൊടുമുടിയില്഼ മാനവ വിജയത്തിന്഼റെ പതാക പാറി~
ക്കളിക്കുകയായി. മഹാബലി വാമനന്഼റെ മുന്പില്഼ അതാ
ശിരസ്സു കുനിച്ചുനില്഼ക്കുന്നു. ഹിലാരിക്ക് ആഹ്ലാദത്തെ~
ക്കാളേറെ ആശ്വാസമാണത്രേ തോന്നിയത്. ടെന്഼സിങ്ങ് ആനന്ദ~
ഭരിതനായിരുന്നു. ആ തളര്഼ച്ചയിലും അയാളുടെ മുഖം പുഞ്ചിരി
കൊണ്ട് തിളങ്ങി.</p>

<p>	പിന്നീട് പലതവണ എവറസ്ററാരോഹണത്തില്഼ മനുഷ്യന്഼
വിജയിച്ചിട്ടുണ്ട്. ടെന്഼സിങ്ങിന്഼റെ മരുമകന്഼ നവാംഗ് ഗോംബു
രണ്ടുപ്രാവശ്യം എവറസ്ററ് കയറി, 1963-ലും 1965-ലും.
ടെന്഼സിങ്ങ് കുടുംബം എവറസ്ററാരോഹണത്തില്഼ ഇനിയും വിജ~
യമുദ്രകള്഼ പതിപ്പിക്കുമെന്ന് പ്രതീക്ഷിക്കാം. ടെന്഼സിങ്ങിന്഼റെ
മകന്഼ നോര്഼ബുവും ഗോംബുവിന്഼റെ മകന്഼ കുര്഼സുങ്ങും കുട്ടി~
കളാണെങ്കിലും ആ വഴിക്കുളള ശ്രമം തുടങ്ങിക്കഴിഞ്ഞു.</p>

<p>-14-</p>

<p>		പാടം 5</p>

<p>	  കുരുക്ഷേത്രത്തിന്഼റെ കരിനിഴല്഼</p>

<p>	ഭാരതയുദ്ധത്തില്഼ കൌരവരെ നിശ്ശേഷം നശിപ്പിച്ച്
രാജാധികാരം നേടിയ പാണ്്ഡവര്഼ ധൃതരാഷ്ട്രരുടെയും
ഗാന്ധാരിയുടെുയം നേരേ വളരെയേറെ ഔദാര്യവും കാരു~
ണ്യവും കാണിച്ചു. അന്ധനും വൃദ്ധനും പുത്രശതത്തിന്഼റെ
മരണത്താല്഼ ദഗ്ദ്ധഹൃദയനുമായ ധൃതരാഷ്ട്രരെ ആശ്വസി~
പ്പിച്ച് അദ്ദേഹത്തെ മുന്഼നിര്഼ത്തി ധര്഼മ്മപുത്രന്഼ രാജ്യം ഭരിച്ചു.
പാണ്ഡവന്഼മാര്഼ ദിവസംപ്രതി വലിയച്ഛനെ സന്ദര്഼ശിച്ച്
കാല്഼വണങ്ങി സുഖസൌകര്യങ്ങള്഼ അന്വേഷിക്കും; അദ്ദേഹം
മൂര്഼ദ്ധാവില്഼ മുകര്഼ന്ന് അവരെ അനുഗ്രഹിക്കുകയും ചെയ്യും.
കുന്തി, പാഞ്ചാലി, സുഭദ്ര തുടങ്ങിയവര്഼ ഗാന്ധാരിയേയും
ഇതേവിധം പരിചരിച്ചുപോന്നു. ഗാന്ധാരിക്കും ധൃതരാഷ഼്~
ട്രര്഼ക്കും ഒന്നിലും ഒരു കുറവും വന്നുപോകാതിരിക്കാന്഼ ധര്഼്മ്മ~
പുത്രര്഼ പ്രത്യേകം ശ്രദ്ധിച്ചു. അവര്഼ക്ക് ഒരു ദുഃഖവും വന്നു
പോകാന്഼ ഇടവരരുതെന്ന് അദ്ദേഹം അനുജന്഼മാരെ വീണ്ടും
വീണ്ടും ഉപദേശിച്ചു പോരുകയും ചെയ്തു. ഭീമസേനനൊഴി~
ച്ചുളളവരെല്ലാം ആ ഉപദേശമനുസരിച്ചുതന്നെ പ്രവര്഼ത്തിച്ചു.
ഭീമനുമാത്രം കളളച്ചൂതുകളിയും അതിനെത്തുടര്഼ന്നുണ്ടായ അതി~
ദാരുണങ്ങളായ സംഭവങ്ങളും മറക്കാന്഼ കഴിഞ്ഞില്ല. എന്നാല്഼
ജ്യേഷ്ഠനെ പേടിച്ച് അദ്ദേഹവും ഈ വെറുപ്പ് പുറത്തു
കാണിച്ചില്ല.</p>

<p>	ഇങ്ങനെ പതിനഞ്ചുകൊല്ലം കടന്നുപോയി. ഗുണവാന്഼~
മാരായ പാണ്ഡുപുത്രരില്഼ ധൃതരാഷ്ട്രര്഼ തികച്ചും പ്രീതി
പൂണ്ടു. അവരുടെ നന്഼മയ്ക്കായി അദ്ദേഹം എന്നും ഉളള~
ഴിഞ്ഞു പ്രാര്഼ത്ഥിച്ചു. എന്നാല്഼ ചിലപ്പോള്഼ പുത്രന്഼മാരുടെ</p>

<p>-15-</p>

<p>ഓര്഼മ്മ ആ വൃദ്ധപിതാവിന്഼റെ ഹൃദയത്തില്഼ ഉദിച്ചുയരും.
ആ അവസരങ്ങളില്഼, അവരെ കൂട്ടക്കൊല ചെയ്ത വൃകോദരനെ
അദ്ദേഹം മനസാ ശപിക്കും. ഭീമസേനനാകട്ടെ തരംകിട്ടുന്പോ~
ഴെല്ലാം ഭൃത്യന്മാര്഼ക്ക് രഹസ്യമായ നിര്഼ദ്ദേശങ്ങള്഼ നല്഼കി
പരിചര്യകള്഼ മുടക്കി വലിയച്ഛനെ ദ്രോഹിക്കും.</p>

<p>	ഇങ്ങനെയിരിക്കെ ഒരു സന്ദര്഼ഭത്തില്഼ ഭീമന്഼ കഴിഞ്ഞു
പോയ സംഭവങ്ങളോര്഼ത്ത് അരിശംകൊണ്ട് സ്നേഹിതന്഼മാരുടെ
മധ്യത്തില്഼വച്ച് അടക്കവും ഒതുക്കവും വിട്ട് പൊട്ടിത്തെറിച്ചു:</p>

<p>	"ഇരുന്പുലക്കപോലുളള ഈ കൈകളാണ് ദുഷ്ടരായ
നൂററവരെ കാലപുരി പൂകിച്ചത്. ആ കുരുടന്഼റെ മക്കളെല്ലാം
പരിഘനത്തിനൊത്ത ഈ ബാഹുക്കള്഼ക്കിടയില്഼പെട്ട് ഞെരിഞ്ഞു
പോയി. ചന്ദനം പൂശേണ്ടവയാണ് ഈ കൈകള്഼!"</p>

<p>	ഹൃദയം പിളര്഼ക്കുന്ന ഈ പുരുഷമൊഴികള്഼ ധൃത~
രാഷ്ട്രരും ഗാന്ധാരിയും കേട്ടു. ഒരുവിധം അടങ്ങിയിരുന്ന
പുത്രശോകം അപ്പോള്഼ വീണ്ടും ആളിക്കത്തി, "നാട്ടിലിരുന്നാല്഼
ഈ ദുഃഖം വര്഼ദ്ധിക്കുകയേ ഉളളൂ. വനത്തില്഼പ്പോയി ശാന്തി
നേടണം" എന്ന് അവര്഼ക്ക് തോന്നുകയും ചെയ്തു. അന്നു
മുതല്഼ക്ക് അവര്഼ കഠിനവ്രതം ആചരിച്ചുതുടങ്ങി. നാലു
ദിവസം കൂടുന്പോള്഼ വല്ലതും കുറച്ച് ആഹാരം കഴിക്കും.
ചിലപ്പോള്഼ എട്ടുദിവസത്തോളം തുടര്഼ച്ചയായി പട്ടിണികിടക്കും.
വെറും നിലത്തു കിടന്നാണ് വൃദ്ധരായ ആ രാജദന്പതികള്഼
രാത്രി പോക്കിയത്.</p>

<p>	സദാ രാജ്യകാര്യങ്ങളില്഼ വ്യാപൃതനായിരുന്ന ധര്഼മ്മപുത്രര്഼
ഇക്കഥയൊന്നും അറിഞ്ഞതേയില്ല. ഏതാനും ദിവസങ്ങള്഼
കൊണ്ട് ധൃതരാഷ്ട്രരും, ഗാന്ധാരിയും ജീവിക്കുന്ന അസ്ഥി~
കൂടങ്ങളായി മാറി. ഒടുവില്഼ ധൃതരാഷ്ട്രര്഼ ധര്഼മ്മപുത്രരെ 
വിളിച്ച് ഇപ്രകാരം പറഞ്ഞു: "മകനേ,നമ്മുടെ വംശത്തിനു
നേരിട്ട എല്ലാ നാശങ്ങള്഼ക്കും കാരണം ഞാനാണ്. ഇന്നു ഞാന്഼
അനുഭവിക്കുന്ന തീവ്രശോകത്തിന് മററാരെയും കുററപ്പെടുത്താ~
നില്ല. എല്ലാം എന്഼റെ കര്഼മ്മഫലമാണ്. ദുര്യോധനാദികളായ
നൂറുപുത്രന്഼മാരെയും ഭീഷ്മദ്രോണകര്഼ണ്ണാദികളെയും നിഹനി~
ച്ചത് പാണ്ഡവരല്ല. പാപിയും ബുദ്ധിഹീനനുമായ ഈ
ഞാനാണ്. അനുജന്഼റെ പുത്രന്഼മാരായ നിങ്ങള്഼ക്ക് അവകാശ~
പ്പെട്ട അര്഼ദ്ധരാജ്യം ഞാന്഼ പിടിച്ചുവച്ചു. വിദുരരും, ഭീഷ്മരും,
ദ്രോണരും, കൃപരും, സഞ്ജയനും, ഗാന്ധാരിയും,</p>

<p>-16-</p>

<p>വ്യാസ഼നും, ശ്രീകൃഷ്ണനും നല്഼കിയ ഉപദേശങ്ങളൊന്നും
ഞാന്഼ ചെവിക്കൊണ്ടില്ല. പുത്രസ്നേഹപരവശനായി ഞാന്഼
എല്ലാം നശിപ്പിച്ചു. പതിനഞ്ചുകൊല്ലം കഴിഞ്ഞിട്ടും ആ
പാപം എന്഼റെ ആത്മാവിനെ വിട്ടകലുന്നില്ല. കുറെനാളായി
ഞാന്഼ പട്ടിണിയായി വെറും നിലത്തുകിടന്നും ദര്഼ഭവിരിപ്പില്഼
ഇരുന്ന് രാത്രിയും പകലും നിരന്തരമായി ജപിച്ചും, പ്രായ~
ശ്ചിത്തം ചെയ്യുന്നു. ഗാന്ധാരിയും എന്നോടൊത്ത് ഈ
വ്രതങ്ങള്഼ ആചരിക്കുന്നു. എന്നിട്ടും ഒരു ശാന്തിയും കൈവരു~
ന്നില്ല. അതിനാല്഼ അങ്ങയുടെ സമ്മതത്തോടെ ഞങ്ങള്഼ കാട്ടി~
ലേക്കു പോകട്ടെ. വല്഼ക്കലം ചുററി ഫലമൂലങ്ങള്഼ മാത്രം
ഭക്ഷിച്ച് തപസ്സു ചെയ്ത് ശാന്തിനേടട്ടെ. എനിക്ക് ഈ
ജീവിതത്തില്഼ ഇനി ഒന്നും സാധിക്കേണ്ടത഼ായില്ല. എല്ലാ ഐശ്വ~
ര്യങ്ങളും സുഖങ്ങളും ഞാന്഼ അനുഭവിച്ചുകഴിഞ്ഞിരിക്കുന്നു.
ദാനങ്ങളും ശ്രാദ്ധങ്ങളും വേണ്ടുവോളം നടത്തി ഞാന്഼ സംതൃ~
പ്തനായിരിക്കുന്നു. മക്കളെക്കുറിച്ചും ഇനി വ്യസനിക്കേണ്ട~
തില്ല. പോര്഼ക്കളത്തില്഼ പൊഴിച്ച ജീവരക്തംകൊണ്ട് പാപ
പങ്കം കഴുകിക്കളഞ്ഞ് അവര്഼ വീര്യസ്വര്഼ഗ്ഗം നേടിയിരിക്കുന്നു.
ഇനി ഞാനും ഗാന്ധാരിയും ആത്മാവിന്഼റെ ഗതിക്കുവേണ്ടി
യത്നിക്കണം. വയസ്സുകാലത്ത് രാജൈശ്വര്യത്തെ മക്കളി~
ലേക്കു മാററിയിട്ട് വാനപ്രസ്ഥാശ്രമം സ്വീകരിക്കുന്നത്
നമ്മുടെ കുലധര്഼മ്മവുമാണല്ലോ. അതിനാല്഼ രാജാവേ, ഞങ്ങള്഼ക്ക്
പോകാന്഼ അനുമതി നല്഼കുക! അങ്ങയുടെ നന്഼മയ്ക്കുവേണ്ടി
ഞങ്ങള്഼ ഇവിടെയെന്നപോലെ വനത്തിലും പ്രാര്഼ത്ഥിക്കാം.
ഞങ്ങളുടെ തപസ്സിന്഼റെഫലത്തില്഼ ഒരംശം ഭവാനുളളതാണ്."</p>

<p>	ഇതുകേട്ട് തേങ്ങിക്കരഞ്ഞുകൊണ്ട് ധര്഼മ്മപുത്രര്഼ പറഞ്ഞു:
"മഹാരാജാവേ, എന്഼റെ അപരാധം ക്ഷമിക്കണം. ദുര്഼~
ബുദ്ധിയും രാജകീയസുഖങ്ങളില്഼ മതിമറന്നവനുമായ ഞാന്഼
അങ്ങ് ഊണും ഉറക്കവും ഉപേക്ഷിച്ച് വെറും നിലത്തുകിടന്ന്
വ്രതമാചരിക്കയാണെന്നറിഞ്ഞില്ല. അങ്ങ് ദുഃഖിക്കുന്പോള്഼
എനിക്ക് രാജ്യവും, ധനവും, കീര്഼ത്തിയും എന്തിന്? ഞങ്ങള്഼ക്ക്
അച്ഛനും, അമ്മയും, ഗുരുവും ആണ് അങ്ങ്. അവിടുന്ന്
ഞങ്ങളെ ഉപേക്ഷിച്ചുപോയാല്഼ ഞങ്ങള്഼ അതോടെ നശിക്കും.
വലിയച്ഛാ, അങ്ങ് രാജ്യം ഭരിക്കുക, ഞാന്഼ വനത്തിലേക്ക്
പൊയ്ക്കൊളളാം. അല്ലെങ്കില്഼ അവിടുത്തെ പുത്രനായ യുയു~
ത്സുവോ മററാരെങ്കിലുമോ നാടുവാഴട്ടെ. ഞാന്഼ താതന്഼റെ
കൂടെ കാട്ടിലേക്ക് വരാം. ഞാന്഼ രാജാവല്ല; രാജാവായ
അങ്ങയുടെ അടിമയാണ്. അങ്ങയ്ക്ക് ഞാന്഼ അനുജ്ഞ നല്഼കു~
കയോ? ദുര്യോധനന്഼റെ പ്രവൃത്തികളോര്഼ത്ത് ഞങ്ങള്഼ക്ക്</p>

<p>-17-</p>

<p>അങ്ങയുടെ നേരേ അശേഷം അമര്഼ഷമില്ല. വരാനുളളത് വന്നു.
അതില്഼ വിധിയെ അല്ലാതെ മററാരെയും ഞാന്഼ പഴിക്കുന്നില്ല.
ഞങ്ങളും ദുര്യോധനനെപ്പോലെ അവിടുത്തെ പുത്രന്഼മാരാണ്.
ഗാന്ധാരിയും കുന്തിയും ഞങ്ങള്഼ക്ക് അമ്മമാരാണ്. രണ്ടു
പേരും ഞങ്ങള്഼ക്ക് തുല്യരാണ്. അങ്ങയെ ബാധിച്ചിരിക്കുന്ന
ഈ ആധി ശുശ്രൂഷയാല്഼ ശമിപ്പിക്കുവാന്഼ എന്നെ അനു~
വദിക്കുകക."</p>

<p>	"മകനേ, എന്഼റെ മനസ്സ് തപസ്സില്഼ പതിഞ്ഞു
പോയി. ഇനി അതിനെ പിന്തിരിപ്പിക്കാന്഼ സാധ്യമല്ല. നിന്഼റെ
പരിചര്യകളേററ് ചിരകാലം ഞാന്഼ ഇവിടെ പാര്഼ത്തില്ലേ? ഇനി
എനിക്ക് പോകാന്഼ സമ്മതം തരണം." ഇപ്രകാരം ധര്഼മ്മപുത്ര~
രോട് പറഞ്ഞിട്ട് ധൃതരാഷ്ട്രര്഼ അരികേ നില്഼ക്കുന്ന സഞ്ജയ~
നോടും കൃപനോടും തളര്഼ന്ന സ്വരത്തില്഼ ഇങ്ങനെ അര്഼ത്ഥിച്ചു:
"സ്നേഹിതന്഼മാരെ, രാജാവിെന പറഞ്ഞു സമ്മതിപ്പിക്കുക.
എന്഼റെ മനസ്സ് തളരുന്നു. വാര്഼ദ്ധക്യസഹജമായ ക്ഷീണ~
ത്താലും അധികം സംസാരിച്ചതിനാലും എന്഼റെ
വായുണങ്ങുന്നു."</p>

<p>	ഇങ്ങനെ പറഞ്ഞുകൊണ്ടിരിക്കെ ധൃതരാഷ്ട്രര്഼ ഗാന്ധാ~
രിയുടെ ചുമലില്഼ മൂര്഼ച്ഛിച്ചുവീണു. നൂറായിരം ആനക~
ളുടെ ബലത്തോടുകൂടിയവനും കാരിരുന്പുകൊണ്ടുണ്ടാക്കിയ
ഭീമപ്രതിമയെ പുല്഼കിപ്പൊടിച്ചവനുമായ ആ മഹാബലശാലി
ദുര്഼ബലയായ ഭാര്യയുടെ ചുമലില്഼ തളര്഼ന്നുവീണതുകണ്ട് ധര്഼മ്മ~
പുത്രന്഼ തന്നെത്താന്഼ നിന്ദിച്ചു. "കഷ്ടം, ഞാന്഼ കാരണ~
മാണല്ലോ ഇങ്ങനെ സംഭവിച്ചത്! വലിയച്ഛനും മാതാവായ
ഗാന്ധാരിയും ഉണ്ണുന്നതുവരെ ഞാന്഼ ഉപവസിക്കും," എന്ന~
ദ്ദേഹം പ്രതിജ്ഞ ചെയ്തു. പിന്നെ കൈ നനച്ച് ധൃത~
രാഷ്ട്രരുടെ മുഖം മന്ദം മന്ദം തലോടി. പെട്ടെന്ന് അദ്ദേ~
ഹത്തിനു ബോധം വന്നു. വളരെ തളര്഼ന്ന സ്വരത്തില്഼ അദ്ദേഹം
പറഞ്ഞു: "മകനേ, വീണ്ടും എന്നെ തലോടുക. നിന്഼റെ
സ്പര്഼ശനമേററപ്പോള്഼ എനിക്കു ജീവന്഼ കൈവന്നു. ഞാന്഼ എട്ടു
ദിവസമായി ഉപവസിക്കുകയാണ്. അതാണ് ഈ തളര്഼ച്ചയ്ക്കു
കാരണം. അമൃതതുല്യമായ നിന്഼റെ കരസ്പര്഼ശത്താല്഼ എന്നെ
ജീവിപ്പിച്ചാലും." ഇതുകേട്ട ധര്഼മ്മപുത്രര്഼ വലിയച്ഛന്഼റെ
ദേഹമാകെ സ്നേഹപൂര്഼വം തലോടി. ധൃതരാഷ്഼ട്രര്഼ അദ്ദേ~
ത്തെ ആലിംഗനം ചെയ്ത് നെറുകയില്഼ മുകര്഼ന്നു. ഇതു
കണ്ടുനിന്നിരുന്നവര്഼ കണ്ണീര്഼വാര്഼ത്തു. "മകനേ, ഇനിയും</p>

<p>-18-</p>

<p>എന്നെ സ്നേഹംകൊണ്ട് ക്ലേശിപ്പിക്കരുത്. വനവാസത്തിന്
അനുജ്ഞ നല്഼കണം"എന്ന് ധൃതരാഷ്ട്രര്഼ വീണ്ടും അപേ~
ക്ഷിച്ചപ്പോള്഼, ചുററും നിന്നിരുന്ന ഭടന്഼മാര്഼ പോലും തൊണ്ടയി~
ടറിക്കൊണ്ടു പറഞ്ഞു: "പിതാവേ, ഞാന്഼ അങ്ങേയ്ക്കു പ്രിയ~
പ്പെട്ടവനാണെങ്കില്഼ ഊണു കഴിക്കുക. പിന്നീട് നമുക്ക്
മററു കാര്യങ്ങളെക്കുറിച്ച് ചിന്തിക്കാം." "എന്഼റെ അപേക്ഷ
സ്വീകരിച്ചുവെന്ന് ഩീ പറഞ്ഞാല്഼ ഞാന്഼ ഊണുകഴിക്കാം,"
എന്നായി ധൃതരാഷ്ട്രര്഼.</p>

<p>	ഇതുകേട്ടുകൊണ്ടു വ്യാസമഹര്഼ഷി അവിടെയെത്തി.
അദ്ദേഹം യുദ്ധിഷ്ഠിരനെ ഇപ്രകാരം ഉപദേശിച്ചു: "വത്സാ,
ധൃതരാഷ്ട്രന്഼റെ ഇഷ്ടപ്രകാരം ചെയ്യാം എന്ന് സമ്മതിക്കൂ.
ഈ ദുഃഖവും താങ്ങി അദ്ദേഹം ഇനി വളരെക്കാലം ജീവിച്ചിരി~
ക്കയില്ല. കടുത്ത പുത്രശോകം ഇത്രനാള്഼ സഹിച്ച ധീരക്ഷത്രിയ~
യായ ഗാന്ധാരിയും അതിന് ഇനി ശക്തയാവുകയില്ല.
അവരെ തടയേണ്ട. അവര്഼ വനത്തില്഼പ്പോയി ആത്മശാന്തി
നേടട്ടെ. ഇത് രാജര്഼ഷിമാര്഼ക്ക് ഉചിതമായ ധര്഼മ്മമാണ്."</p>

<p>	സര്഼വ്വജ്ഞനായ മുനിയുടെ മൊഴികള്഼ക്ക് മറുമൊഴിയി~
ല്ലെന്നറിഞ്ഞ് ധര്഼മ്മപുത്രര്഼ മനസ്സില്ലാമനസ്സോടെ അതിനു
കീഴടങ്ങി.</p>

<p>-19-</p>

<p>		പാഠം 6</p>

<p>		ധര്഼മ്മത്തിന്഼റെ സന്ദേശം</p>

<p>	വനത്തിലേക്ക് പോകുന്നതിനുമുന്പ് ധൃതരാഷ്ട്രര്഼ പ്രജ~
കളോട് വിടവാങ്ങാന്഼ ആശിച്ചു. യുധിഷ്ഠിരന്഼റെ ആജ്ഞയെ
ആദരിച്ച് പുരങ്ങളില്഼നിന്നും ഗ്രാമങ്ങളില്഼നിന്നും ആയിരക്ക~
ണക്കില്഼ പ്രജകള്഼ ആഗതരായി. ആ പുരുഷാരത്തെ കൈകൂപ്പി
വണങ്ങിക്കൊണ്ട് ബുദ്ധിമാനായ ധൃതരാഷ്ട്രര്഼ പറഞ്ഞു:</p>

<p>	"പ്രിയപ്പെട്ടവരേ, നിങ്ങളും കുരുവംശജരായ ഞങ്ങളും
ചിരകാലം ഒന്നിച്ചു വാണവരാണ്. പരസ്പരം സുഹൃത്തു~
ക്കളും പരസ്പരം ഹിതകാരികളുമാണ് നമ്മള്഼. ഈ യാത്രാ~
വേളയില്഼ ഞാന്഼ പറയുന്ന വാക്കുകള്഼ ശരിയോ തെേററാ എന്ന്</p>

<p>-20-</p>

<p>വിമര്഼ശിക്കാതെ എന്഼റെ അപേക്ഷ കൈക്കൊളളാന്഼ നിങ്ങള്഼ കനി~
യണം. ഞാന്഼ ഗാന്ധാരീസമേതനായി വനത്തിലേക്ക് പോകാന്഼
ആഗ്രഹിക്കുന്നു. വ്യാസമഹര്഼ഷിയുടെയും ധര്഼മ്മപുത്രരുെടയും
അനുവാദം ഞാന്഼ നേടിക്കഴിഞ്ഞു. ഭവാന്഼മാരും അനുജ്ഞയേ~
കണം. യുധിഷ്ഠിരന്഼ രാജ്യം ഭരിക്കുന്നകാലത്തു ദുര്യോധനന്഼റെ
കാലത്തെക്കാള്഼ ഞങ്ങള്഼ സുഖം അനുഭവിച്ചു. എങ്കിലും
വൃദ്ധനും അന്ധനും പുത്രവിഹീനനുമായ എനിക്കും സഹ~
ധര്഼മ്മിണിയായ ഗാന്ധാരിക്കും വനമാണ് പരമമായ പ്രാപ്യ~
സ്ഥാനം. അതിനാല്഼ ഞങ്ങള്഼ക്ക് വനം പൂകാന്഼ അനുമതി
തരിക."</p>

<p>	മഹാരാജാവിന്഼റെ വാക്കുകള്഼കേട്ട് സദസ്സാകെ പൊട്ടി~
ക്കരഞ്ഞു. മറുപടിയായി വല്ലതും പറയാന്഼ ആരും ശക്തരാ~
യില്ല. ധൃതരാഷ്ട്രര്഼ തുടര്഼ന്നു:</p>

<p>	"ശാന്തനുമഹാരാജാവ് ഈ രാജ്യത്തെ വിധിയാംവണ്ണം
പാലിച്ചു.പിന്നീട് ഭീഷ്മപിതാമഹന്഼റെ രക്ഷയില്഼ എന്഼റെ
അച്ഛനായ വിചിത്രവീര്യനും നിങ്ങള്഼ക്ക് ഹിതമേകി.
എന്഼റെ അനുജനായ പാണ്ഡു സകലര്഼ക്കും അഭമതനാകുമാറ്
ഭംഗിയായി നാടുഭരിച്ചു. പിന്നീട് ഞാനും ശരിയായോ
തെററായോ എന്നാലാവുംവിധം നിങ്ങളെ സേവിച്ചു. എന്഼റെ
അപരാധങ്ങള്഼ പൊറുക്കുക.</p>

<p>	ദുര്യോധനന്഼റെ കാലത്ത് രാജ്യം നിഷ്കണഅടകമായിരുന്നു.
ദുര്഼ബുദ്ധിയായിരുന്നെങ്കിലും അവന്഼ നിങ്ങളെ ഹിംസിച്ചിട്ടില്ല.
അവന്഼റെ ദുര്഼ന്നയത്താല്഼ രാജാക്കന്഼മാര്഼ തമ്മില്഼ ഭയങ്കരമായ സംഘ~
ട്ടനത്തിന് ഇടവന്നു. അക്കാര്യത്തില്഼ ഞാന്഼ കൈക്കൊണ്ട നില~
പാട് ശരിയായാലും തെററായാലും എനിക്ക് മാപ്പുതരിക.
നിങ്ങളെ വളരെക്കാലമായി ഭരിച്ചുപോന്ന രാജവംശത്തില്഼പ്പിറ~
ന്നവനും, വയോധികനും പുത്രശോകാര്഼ത്തനുമാണ് ഇവനെ~
ന്നോര്഼ത്ത് എന്഼റെ അപരാധങ്ങള്഼ പൊറുത്ത് വിട നല്഼കുക.
പുത്രദുഃഖത്താല്഼ വെന്തുനീറുന്ന ഗാന്ധാരിയും ഞാന്഼ മുഖേന
നിങ്ങളോട് വിട ചോദിക്കുന്നു.</p>

<p>	ധര്഼മ്മപുത്രരെ ഞാന്഼ നിങ്ങളുടെ കൈയില്഼ വിട്ടുപോ~
കുന്നു; നിങ്ങള്഼ ധര്഼മ്മജന്഼റെ കൈയിലും. സന്പത്തിലും വിപ~
ത്തിലും അദ്ദേഹത്തിന്഼റെകൂടെ ഉറച്ചുനില്഼ക്കുക."</p>

<p>-21-</p>

<p>	പ്രജകള്഼ ഉത്തരീയംകൊണ്ടും കൈപ്പടംകൊണ്ടും മുഖം
പൊത്തി വിങ്ങിക്കരഞ്ഞു. പിന്നെ സന്താപം ഒരുവിധം അടക്കി
അവര്഼ തമ്മില്഼ത്തമ്മില്഼ ആലോചിച്ച് സമ്മതമേകാന്഼ തീരു~
മാനിച്ചു. എന്നാല്഼ ധൃതരാഷ്ട്രരോട് അതു പറയാന്഼ ആരുണ്ട്?
എല്ലാവരും ഒഴിഞ്ഞുമാറി. ഒടുവില്഼ അവര്഼ ആചാരവിശുദ്ധനും
ബുദ്ധിമാനും വാഗ്മിയുമായ ഒരാളെ അതിനു നിയോഗിച്ചു.
സാംബന്഼ എന്നു പേരായ ആ ജനപ്രതിനിധി എല്ലാവരെയും
യഥോചിതം വന്ദിച്ചശോഷം ധൃതരാഷ്ട്രരോട് ഇപ്രകാരം
ഉണര്഼ത്തിച്ചു.</p>

<p>	"രാജാവേ, എല്ലാവര്഼ക്കും അങ്ങയെ ഉണര്഼ത്തിക്കാനുളളത്
ഞാനിതാ പറയുന്നു. അങ്ങ് പറഞ്ഞതെല്ലാം ഞങ്ങള്഼ അതേപടി
അംഗീകരിക്കുന്നു. അതില്഼ തെററായ ഒരു വാക്കുപോലും ഇല്ല.
ഈ നൃപകുലത്തില്഼ പ്രജകള്഼ക്ക് അപ്രിയനായ ഒരു രാജാവും
ഇന്നുവരെ ഉണ്ടായിട്ടില്ല. അങ്ങ് ഞങ്ങളെ വിട്ടുപോയാല്഼ ഞങ്ങള്഼
ശോകാര്഼ത്തരാകും. എങ്കിലും അവിടുത്തെ അഭിമതത്തിന്
ഞങ്ങള്഼ എന്നും എന്നപോലെ ഇന്നു വഴങ്ങുന്നു.</p>

<p>	ശാന്തനുവും, ചിത്രാംഗദനും, ഭീഷ്മരുടെ പിന്തുണ~
യോടെ അവിടുത്തെ പിതാവും, അങ്ങും പാണ്ഡുവും
ഞങ്ങളെ പാലിച്ചപോലെതന്നെ ദുര്യോധനനരപതിയും ഞങ്ങളെ
കാത്തു രക്ഷിച്ചു. അദ്ദേഹം ഒരധര്഼മ്മവും പ്രവര്഼ത്തിച്ചിട്ടില്ല.
അച്ഛനിലെന്നപോലെ അദ്ദേഹത്തിന്഼റെ വിശ്വാസമര്഼പ്പിച്ച്
ഞങ്ങള്഼ സുഖമായി കഴിഞ്ഞുവെന്നത് അങ്ങും അറിയുന്ന കാര്യ~
മാണ്. ദുര്യോധനന്഼ ജ്ഞാതികളെ ധ്വംസിച്ച് കുലനാശം
വരുത്തി കളങ്കമേററതായി അവിടുന്നു പറഞ്ഞല്ലോ. ദുര്യോധന~
നല്ല കുലം നശിപ്പിച്ചത്. അങ്ങോ, കര്഼ണ്ണനോ, ശകുനിയോ
അല്ല കൌരവന്഼മാര്഼ മുടിയാന്഼ കാരണം.വിധിയാണ് അതിന്
ഉത്തരവാദി. പൌരുഷത്താല്഼ വിധിയെ വെല്ലാവതല്ല. ധര്഼മ്മാ~
ത്മാവായ ദുര്യോധനന് ഞങ്ങള്഼ അഭിനന്ദനങ്ങള്഼ അര്഼പ്പി~
ക്കുന്നു. അദ്ദേഹം വീരന്഼മാര്഼ക്ക് വിധിച്ചിട്ടുളള സ്വര്഼ഗ്ഗം
പൂകട്ടെ എന്ന് ഞങ്ങള്഼ ഏകകണ്ഠമായി പ്രാര്഼ത്ഥിക്കുന്നു.</p>

<p>	പാണ്ഡവന്഼മാര്഼ക്ക് അങ്ങരുളിയ ആശിസ്സുകള്഼ ഒരി~
ക്കലും വിഫലമാകയില്ല. വിണ്ണുകാപ്പാന്഼ പോരുമയുളള അവര്഼
മണ്ണുകാപ്പാന്഼ മതിയാകാതെ വരുമോ? കുലപൂര്഼വ്വന്഼മാര്഼ചെയ്ത
പോലെ ധര്഼മ്മപുത്രര്഼ അനുജന്഼മാരൊത്ത് ഞങ്ങളെയും ധര്഼മ്മ~
ത്തെയും രക്ഷിക്കും. യുധിഷ്ഠിരഭൂപതി ആയിരത്താണ്ടുവാഴട്ടെ
എന്ന് ഞങ്ങള്഼ പ്രാര്഼ത്ഥിക്കുന്നു. അങ്ങ് ഉണ്ടാക്കിയതും</p>

<p>-22-</p>

<p>ധര്഼മ്മപുത്രര്഼ വളര്഼ത്തിക്കൊണ്ടുവന്നതുമായ സ്നേഹത്തെ പ്രജ~
കളായ ഞങ്ങള്഼ എക്കാലവും പരിരക്ഷിക്കും. പ്രജകളെ സംബ~
ന്ധിച്ചുളള എല്ലാ വിചാരവും ധര്഼മ്മജനിലേക്ക് മാററിയിട്ട്
അങ്ങ് തപസ്സിനായി വനത്തിലേക്കു പുറപ്പെട്ടാലും!
രാജര്഼ഷേ, അങ്ങയ്ക്കു നമസ്കാരം!
	
	സാംബന്഼റെ പ്രസംഗം അവസാനിച്ചപ്പോള്഼ സദസ്സിന്഼റെ
എല്ലാ ഭാഗത്തുനിന്നും, അഭിനന്ദനങ്ങള്഼ ഉയര്഼ന്നു. ധൃതരാ~
ഷ്ട്രരും അദ്ദേഹത്തിന്഼റെ വാക്കുകളെ അത്യധികം ശ്ലാഘിച്ചു.
ധന്യനായ നരപതി പ്രജകളെ കൈകൂപ്പി വണങ്ങി; തിരിച്ചു
പോകാന്഼ അവര്഼ക്ക് അനുവാദം നല്഼കി. അനന്തരം ഗാന്ധാരി~
യോടുകൂടി ആ വികാരതരളിതമായ രംഗത്തുനിന്ന് അദ്ദേഹം
വിരമിച്ചു.</p>

<p>			II</p>

<p>	വനവാസത്തിനു പോകുന്നതിനുമുന്പ് പിതൃക്കള്഼ക്കും
പുത്രന്഼മാര്഼ക്കും, പൌത്രന്഼മാര്഼ക്കും ബന്ധുമിത്രാദികള്഼ക്കും
തനിക്കും ഗാന്ധാരിക്കും പരലോകത്തില്഼ ക്ഷേമമുണ്ടാകാന്഼ ദാന~
രൂപമായ ശ്രാദ്ധം വിധിയാംവണ്ണം നിര്഼വഹിക്കുവാന്഼ ധൃത~
രാഷ്ട്രര്഼് ആശിച്ചു. അതിനുവേണ്ട ധനം, ഭീമസേനന്഼ ചെയ്ത
തടസ്സത്തെ വകവയ്ക്കാതെ, ധര്഼മ്മപുത്രര്഼ തന്഼റെ ഖജനാവില്഼
നിന്ന് സന്തോഷപൂര്഼വം സംഭവാന ചെയ്തു.</p>

<p>	യഥേഷ്ടം ദാനം ചെയ്ത് കൃതാര്഼ത്ഥനായ ധൃതരാ~
ഷ്ട്രര്഼ വല്ക്കലവും അജിനവും ധരിച്ച് അരണ്യത്തിലേക്ക്
പുറപ്പെട്ടു. അന്ധനായ അദ്ദേഹം ഗാന്ധാരിയുടെ ചുമലില്഼
പിടിച്ചുകൊണ്ട് മെല്ലെ നടന്നു. ഭര്഼ത്താവ് അനു~
ഭവിക്കാത്ത സുഖങ്ങളൊന്നും പത്നിയും അനുഭവിക്കരുതെന്ന്
നിശ്ചയിച്ചു്, വിവാഹവേദിയില്഼ വച്ചുതന്നെ കണ്ണുകള്഼ എന്നേ~
യ്ക്കുമായി മൂടിക്കെട്ടി, സ്വയം അന്ധതവരിച്ച ഗാന്ധാരി
കുന്തിയുടെ ചുമലില്഼ കൈവച്ചുകൊണ്ടാണ് നടന്നത്. ആ
കാഴ്ച കണ്ട് ഹസ്തിനപുരിയാകെ ദീനദീനം വിലപിച്ചു.
പുരുഷനായ ഭീമസേനന്഼ പോലും മനമലിഞ്ഞു കരഞ്ഞുപോയി.
"വലിയച്ഛന്഼ ഞങ്ങളെ വിട്ടുപോകരുത്. നാട്ടിലിരുന്ന്
തപസ്സനുഷ്ഠിച്ചാല്഼ മതി," എന്ന് ധര്഼മ്മജനും അര്഼ജ്ജു~
നനും ധൃതരാഷ്ട്രരുടെ പാദങ്ങളില്഼ വീണ് കേണപേക്ഷിച്ചു.
എന്നാല്഼ അതുകൊണ്ടൊന്നും അദ്ദേഹത്തിന്഼റെ ദൃഢനിശ്ചയ~
ത്തിന് ഇളക്കം തട്ടിയില്ല. ഉറക്കെ കരയുന്ന പ്രജകളെ വിറ~
യ്ക്കുന്ന കൈകള്഼ കൂപ്പി തൊഴുതുകൊണ്ട് അദ്ദേഹം നടന്നു.</p>

<p>-23-</p>

<p>പാണ്ഡവന്഼മാരും, പാഞ്ചാലി, സുഭദ്ര, ചിത്രാംഗദ, ഉത്തര
തുടങ്ങിയ അന്തഃപുരവനിതമാരും പുരവാസികളും കുറേ ദൂരം
അനുയാത്ര ചെയ്തു. പിന്നെ ധൃതരാഷ്ട്രരുടെ ആജ്ഞയനു~
സരിച്ച് അവര്഼ മടങ്ങാന്഼ നിര്഼ബദ്ധരായി. അപ്പോഴാണ് അവ~
രാകെ നടുങ്ങിപ്പോയത്. കുന്തീദേവി മടങ്ങാന്഼ ഭാവമില്ല.
ശ്വശൂരര്഼ക്ക് അവലംബമായി വനത്തിലേക്കു പോകാന്഼ ആ
മഹതി നിശ്ചയിച്ചിരിക്കുന്നു! വിറകൊളളുന്ന യുധിഷ്ഠിരന്഼
വിങ്ങിവിങ്ങി അപേക്ഷിച്ചു: "അമ്മേ, മാതാപിതാക്കളെ ശുശ്രൂ~
ഷിക്കാന്഼ ഞാന്഼ കാട്ടിലേക്കു പോകാം. അമ്മ രാജാധാനിയിലേക്കു
മടങ്ങുക." ഗാന്ധാരിയുടെ കൈ പിടിച്ചുകൊണ്ട് മുന്പില്഼
നടക്കുന്ന കുന്തി പറഞ്ഞു:</p>

<p>	"മകനേ, ദുഃഖമടക്കൂ. നകുലസഹദേവന്഼മാരെയും,
ഭീമാര്഼ജ്ജുനന്഼മാരെയും, അന്തഃപുരത്തെയും, കുലത്തെയും,
ധര്഼മ്മത്തെയും പ്രജകളെയും രക്ഷിച്ചുകൊണ്ട് ചിരകാലം
വാഴുക! പോരില്഼ മടങ്ങാത്ത കര്഼ണ്ണനെ ശ്രാദ്ധകാര്യങ്ങളില്഼
മററാരിലും മുന്പ് സ്മരിക്കുക. ഞാന്഼ ശ്വശുരരെ ശുശ്രൂഷിച്ചു
കൊണ്ട്, കാട്ടില്഼ തപം അനുഷ്ഠിക്കാന്഼ പോകട്ടെ."</p>

<p>	വിഷാദത്തളളിച്ചയാല്഼ ധര്഼മ്മപുത്രര്഼ക്ക് കുറെനേരത്തോളം
ഒന്നും പറയാന്഼ സാധിച്ചില്ല. പിന്നെ തൊണ്ട ഇടറിക്കൊണ്ട്
അദ്ദേഹം പറഞ്ഞു: "ഇങ്ങനെ വാശി പിടിക്കരുതേ! അമ്മയെ
വനത്തിലേക്ക് പോകാന്഼ ഞാന്഼ അനുവദിക്കുകയില്ല. ശത്രുക്കളെ
നിഗ്രഹിച്ച് രാജ്യം വീണ്ടെടുക്കാന്഼ അമ്മയാണല്ലോ ഞങ്ങളെ
ഉപദേശിച്ചത്. ഉറങ്ങിക്കിടന്നിരുന്ന ഞങ്ങളുടെ വീര്യത്തെ ഭവ~
തിയാണല്ലോ കുത്തിയുണര്഼ത്തിയത്. പിന്നെ ജേതാക്കളായ
മക്കള്഼ നാടുവാഴുന്പോള്഼ അവരെ വിട്ടുപോകുന്നത് ഭവതിക്കു
ചേര്഼ന്നതാണോ? ഞങ്ങള്഼ എന്തു പിഴച്ചു? പറയൂ? കാട്ടില്഼
കിടന്നിരുന്ന ഞങ്ങളെ നാട്ടിലേക്കു കൊണ്ടുവന്നിട്ട്, മാതാവേ,
ഭവതി കാട്ടിലേക്കു പോകയാണോ?"
	
	ഇതെല്ലാം കേട്ടിട്ടും കുന്തി നിന്നില്ല. ഭീമനും അര്഼ജ്ജു~
നനും, മാദ്രീനന്ദനരും പാഞ്ചാലിയും കണ്ണീര്഼ വാര്഼ത്തുകൊണ്ട്
ചെയ്ത അപേക്ഷകളും ധ഼ര്഼മ്മജ്ഞയായ കുന്തിയെ കര്഼ത്തവ്യ~
ത്തില്഼നിന്നു തെല്ലും വ്യതിചലിപ്പിച്ചില്ല. അവര്഼ മക്കളെ ആശ്വ~
സിപ്പിക്കുമാറ് ഇങ്ങനെ പറഞ്ഞു: "യുധിഷ്ഠിരാ, നീ പറ~
ഞ്ഞതു ശരിയാണ്. ഞാനാണ് നിങ്ങളെ ഇളക്കി വിട്ടത്.
ചൂതില്഼തോററ് രാജ്യത്തുനിന്നും സുഖത്തില്഼നിന്നും ഭ്രഷ്ട~
രായി ജ്ഞാതികളാല്഼ അപമാനിതരായി, കാട്ടില്഼ അലഞ്ഞു
നടന്നിരുന്നപ്പോള്഼ നിങ്ങളെ ഞാന്഼ പോരിനൊരുക്കി. മക്കളേ,</p>

<p>-24-</p>

<p>നിങ്ങളെ ആണുങ്ങളാക്കേണ്ടത് അമ്മയുടെ ധര്഼മ്മമായിരുന്നു.
അത് ഞാന്഼ ചെയ്തു. രാജമാതാവിന്഼റെ ഐശ്വര്യത്തില്഼
എനിക്ക് ആശയില്ല. ഭര്഼ത്താവ് രാജാവായി വാഴുന്പോള്഼ ഞാന്഼
എല്ലാ ഐശ്വര്യവും മതിയാവോളം അനുഭവിച്ചവളാണ്. ഇനി
ഞാന്഼ പുണ്യം നേടട്ടെ. മകനേ, അനുജന്഼മാരെയും അന്തഃപുര~
നാരിമാരെയും കൂട്ടിക്കൊണ്ടു മടങ്ങൂ."</p>

<p>	കുന്തിയുടെ ഹൃദയത്തിന്഼റെ ആഴവും അകളങ്കതയും
അന്നാണ് മക്കള്഼പോലും ശരിക്കറിഞ്ഞത്. പുത്രന്഼മാരുടെയും
അന്തഃപുരാംഗനകളുടെയും ദീനരോദനത്താല്഼ ഉളളഴിഞ്ഞ് ധൃത~
രാഷ്ട്രരും ഗാന്ധാരിയും കുന്തിയോടു തിരിച്ചുപോകാന്഼
വീണ്ടും വീണ്ടും അപേക്ഷിച്ചു. എന്നാല്഼ ധര്഼മ്മത്തിന്഼റെ മാര്഼ഗ്ഗ~
ത്തില്഼നിന്ന് ഗുരുജനങ്ങള്഼ക്കും ആ ദേവിയെ പിന്തിരിപ്പിക്കു~
വാന്഼ കഴിഞ്ഞില്ല. ഗാന്ധാരിയുടെ ചുമലില്഼ പിടിച്ചുകൊണ്ട്
ധൃതരാഷ്ട്രരും, ആ ദേവിയുടെ കൈപിടിച്ചുകൊണ്ട്
കുന്തിയും യാത്രയായി. അവര്഼ നടന്നകന്നതോടുകൂടി ഹസ്തി~
നപുരം വിലാപത്താല്഼ അലതല്ലുന്ന ദുഃഖസാഗരമായി മാറി!
എങ്കിലും ധര്഼മ്മത്തിന്഼റെ സന്ദേശം ആ അലകളുടെ ഇരന്പലിനും
മീതെയായി മുഴങ്ങിക്കേള്഼ക്കാമായിരുന്നു!</p>

<p>-27-</p>

<p>		പാഠം 8
	  ഒളിന്പിക് കായികമത്സരങ്ങള്഼</p>

<p>	1972-ല്഼ മ്യൂനിക്കയില്഼വച്ചു നടന്ന ഒളിന്പിക് മ഼ത്സരത്തില്഼
അമേരിക്കയും റഷ്യയും മററും സ്വര്഼ണ്ണമെഡലുകളും വെളളിമെഡ~
ലുകളും വാരിക്കൂട്ടി. ഇന്ത്യയ്ക്കു എണ്ണപ്പെട്ട നേട്ടമൊന്നുമു~
ണ്ടായില്ല എന്നു പത്രത്തില്഼ വായിച്ചത് ഓര്഼മ്മയുണ്ടോ? അതോര്഼~
ക്കുന്പോള്഼ വലിയ മൌഢ്യം തോന്നുന്നു അല്ലേ? മററുളള രംഗങ്ങ~
ളിലെന്നപോലെ ഈ രംഗത്തുും നാം ഇനിയും വളരേണ്ടിയിരി~
ക്കുന്നു. എന്നാല്഼ ലോകത്തിലെ എല്ലാ പ്രധാനപ്പെട്ട രാജ്യങ്ങളും
വാശിയോടെ പങ്കെടുക്കുന്ന ഒളിന്പിക് മത്സരത്തില്഼ മുന്഼പ~
ന്തിയില്഼ സ്ഥാനം നേടുക അത്ര എളുപ്പമുളള കാര്യമല്ല. ചിര~
കാലത്തെ പരിശ്രമംകൊണ്ടാണ് അമേരിക്കയും റഷ്യയും മററും
വലിയ നേട്ടങ്ങള്഼ നേടിയത്. നമുക്ക് അത്രയ്ക്കൊന്നും ഇട
കിട്ടിയിട്ടില്ല. നാം ഒരു സ്വതന്ത്രരാഷ്ട്രമായിട്ട് അധികകാലം
കഴിഞ്ഞിട്ടില്ലല്ലോ.</p>

<p>	മനുഷ്യന്഼റെ രണ്ടു പ്രധാനകഴിവുകളാണ് കായിക
ശക്തിയും ബുദ്ധിശക്തിയും, അതിപ്രാചീനകാലത്ത്
അവന്഼ കായികശക്തിയാണ് വളര്഼ത്തിക്കൊണ്ടുവന്നത്. വിദ്യാ~
ഭ്യാസം ആ ലക്ഷ്യത്തോടെയാണ് നടത്തപ്പെട്ടതും. എന്നാല്഼ കാലം
മുന്നോട്ടുപോയപ്പോള്഼ ഈ മട്ടുമാറി. ശാരീരികശക്തിയെ~
പ്പോലെ ബുദ്ധിശക്തിയെയും വളര്഼ത്തുന്നതില്഼ പരിഷ്കൃത~ 
സമുദായങ്ങള്഼ ശ്രദ്ധിച്ചുതുടങ്ങി. രണ്ടിനും ഏതാണ്ടു തുല്യ~
മായ പ്രാധാഩ്യം ലഭിച്ചു. യവനദേശത്തെ പ്രസിദ്ധ തത്ത്വ~
ചിന്തകനായ പ്ലേറേറാവിന്഼റെ വിദ്യാഭ്യാസപദ്ധതിയില്഼ സംഗീ~
തവും നൃത്തവും കായികാഭ്യാസവും പ്രാഥമികഘട്ടത്തിലെ
പ്രധാന വിഷയങ്ങളായിരുന്നു. പതിനേഴുകൊല്ലത്തോളം നീണ്ടു
നിന്നിരുന്ന ആ പ്രാഥമികഘട്ടം എന്നും ഓര്഼ക്കണം. ഗ്രീസിലെ
ഒരു പ്രധാനനഗരമായ സ്പാര്഼ട്ടയില്഼ വിദ്യാഭ്യാസമെന്നു പറ~
ഞ്ഞാല്഼ കായികപരിശീലനവും ആയുധപ്പയററുമെന്നായിരുന്നു
അര്഼ത്ഥം. അന്നാട്ടുകാര്഼ പെററുവീണ ഉടനെ ശിശുവിനെ ഒരു
വൈദ്യപരിശോധനയ്ക്കു വിധേയമാക്കും. ശേഷിയില്ലാത്ത~
താണെന്നു കണ്ടാല്഼ മലഞ്ചരിവില്഼ കൊണ്ടുപോയി ഉപേ~
ക്ഷിക്കും! അത്രയും പ്രാധാന്യമുണ്ടായിരുന്നു കായികശേഷിക്ക്
അവരുടെ ഇടയില്഼!</p>

<p>	പ്രാചീനഭാരതത്തിലും കായികവിദ്യാഭ്യാസത്തിന് മഹനീ~
യമായ സ്ഥാനമുണ്ടായിരുന്നു. സ്വയംവരത്തില്഼ കന്യകയെ</p>

<p>-28-</p>

<p>നേടണമെങ്കില്഼ ആയുധവിദ്യയില്഼ എതിരാളികളെ വെല്ലണം.
പുരാണങ്ങളിലും, ഇതിഹാസങ്ങളിലും ഇതു തെളിയിക്കുന്ന
കഥകള്഼ ധാരാളമുണ്ട്. ബുദ്ധന്഼റെ കാലത്തും ഈ വ്യവസ്ഥ
നിലവിലുണ്ടായിരുന്നു എന്ന് വിചാരിക്കണം. കുതിരസ്സ~
വാരി, വാള്഼പ്പയററ്, ചാപവിദ്യ എന്നിവയില്഼ ദേവദത്തന്഼, നന്ദന്഼,
അര്഼ജുനന്഼ മുതലായ രാജകുമാരന്഼മാരെ ജയിച്ചിട്ടാണ്
സിദ്ധാര്഼ത്ഥന്഼ യശോധരയെ നേടിയത് എന്നു ബൌദ്ധപുരാ~
ണങ്ങളില്഼ പറഞ്ഞു കാണുന്നു.</p>

<p>	പില്഼ക്കാലത്ത് കായികാഭ്യാസങ്ങളുടെ കാര്യത്തില്഼ മനു~
ഷ്യര്഼ ഉദാസീനരായി. ബുദ്ധിയെ വളര്഼ത്തുകയാണ് വിദ്യാ~
ഭ്യാസത്തിന്഼റെ ഏകലക്ഷ്യം എന്നു വന്നുകൂടി. എന്നാല്഼ അടുത്ത
കാലംവരെ കായികശക്തിയെ വളര്഼ത്തുവാനുളള പരിശ്രമങ്ങളില്഼
കേരളം ശ്രദ്ധിച്ചുപോന്നു. പുരുഷന്഼മാര്഼ മാത്രമല്ല സ്ത്രീ~
കളുംകൂടി കളരിയില്഼ കച്ചകെട്ടി പയററിയിരുന്നു.</p>

<p>	പാശ്ചാത്യദേശങ്ങളില്഼ പ്രാചീനകാലം മുതല്഼ക്ക് പേര്഼~
പെററ ഒരു കായികമത്സരമാണ് ഒളിന്പിക്സ്. അതിന്഼റെ
ആഗമനത്തെക്കുറിച്ച് ഒരൈതിഹ്യമുണ്ട്. ആന്഼ഗീസ് രാജാവ്,
അക്കാലത്തെ യവനയോദ്ധാക്കളില്഼ മുന്പനായ ഹെര്഼്ക്കുലീസി~
നോട് തന്഼റെ കുതിര഼ലായം കഴുകി വൃത്തിയാക്കാന്഼ കല്഼പ്പിച്ചു~
വത്രെ. വളരെക്കാലമായി മാലിന്യം കുന്നുകൂടിക്കിടന്നിരുന്ന
ആ ലായം കഴുകി വൃത്തിയാക്കുക വല്ലാതൊരു ജോലിയായി~
രുന്നു. ഹെര്഼ക്കുലീസ് എന്തു ചെയ്തുവെന്നോ! അല്഼ഫി~
യൂസ് നദിയെ അതിലൂടെ ഒഴുക്കി. നമ്മുടെ ബലരാമന്഼ കാളിന്ദീ~
നദിയെ കലപ്പകൊണ്ട് കൃഷിസ്ഥലങ്ങളിലേക്ക് വലിച്ചുകൊണ്ടു
പോയപോലെ. രാജാവ് കൊടുക്കാമെന്നു പറഞ്ഞിരുന്ന പ്രതി~
ഫലം കൊടുത്തില്ല. അപ്പോള്഼ കുപിതനായ ഹെര്഼ക്കുലീസ്
അദ്ദേഹത്തെ വധിച്ചു. രാജ്യവും കുതിരകളുെമല്ലാം ഹെര്഼ക്കു~
ലീസിന്഼റേതായി. ഈ വിജയമാഘോഷിക്കാന്഼ വേണ്ടിയാണത്രെ
ആദ്യത്തെ ഒളിന്പിക് മത്സരം നടന്നത്. ക്രിസ്തുവിനുമുന്പ്
1253-ല്഼ ആയിരുന്നു ആ ഉത്സവം. ഈ കഥ എത്രത്തോളം
വിശ്വസിക്കാമെന്നറിഞ്ഞുകൂടാ.</p>

<p>	ചരിത്രത്തില്഼ രേഖപ്പെടുത്തിയിട്ടുളള ഒന്നാമത്തെ ഒളി~
ന്പിക് മത്സരം ക്രിസ്തുവിനുമുന്പ് 776-ല്഼ ആഥെന്഼സ്
നഗരത്തില്഼വച്ചു നടന്നു. അതിനുശേഷം നാലുകൊല്ലത്തിലൊ~
രിക്കല്഼ അതു നടത്തുക പതിവായി. ഒലിവ് മരത്തിന്഼റെ ചില്ല~
യായിരുന്നു അന്നു വിജയികള്഼ക്കു സമ്മാനമായി നല്഼കിയിരു~
ന്നത്. ക്രിസ്തുവിനു പിന്പ് 394-വരെ ആ കായികോത്സവം</p>

<p>29-</p>

<p>മുടക്കംകൂടാതെ തുടര്഼ന്നു. അക്കൊല്ലത്തില്഼ റോമാക്കാര്഼ ഗ്രീസ്
പിടിച്ചടക്കിയതോടുകൂടി ഒളിന്പിക് മത്സരങ്ങള്഼ നിര്഼ത്ത~
ലാക്കി. അവര്഼ക്ക് കളികളില്഼ വലിയ താത്പര്യമില്ലായിരുന്നു.</p>

<p>	നാനാരാജ്യങ്ങളെ പങ്കെടുപ്പിച്ചുകൊണ്ട് ഒളിന്പിക്
മത്സരം പുനരാരംഭിച്ചത് ക്രിസ്ത്വബ്ദം 1896-ലാണ്.
വിവിധ രാജ്യങ്ങളിലെ യുവതലമുറയ്ക്ക് അന്യോന്യം അറി~
യാഩും സൌഹൃദം സ്ഥാപിക്കുവാനും ഒളിന്പിക് മത്സരങ്ങള്഼
ഉതകുമെന്നു കണ്ടിട്ട് ഒരു ഫ്രഞ്ചുപ്രഭു മുന്഼കാലങ്ങളില്഼ നടന്ന
പോലെ ഈ ഉത്സവം നടത്താനേര്഼പ്പാടു ചെയ്തു. അന്നു
മുതല്഼ക്ക് രണ്ടു ലോകമഹായുദ്ധങ്ങളുടെ കാലത്തൊഴികെ
അതു മുടങ്ങാതെ നടന്നിട്ടുണ്ട്. എന്നാല്഼ ആഥെന്഼സ് നഗരി~
യില്഼വച്ചുതന്നെയല്ല ഇപ്പോഴിതു നടത്തുന്നത്. ലോകത്തിലെ
മഹാനഗരങ്ങളിലേതെങ്കിലും ഒന്ന് അതിനുളള രംഗമായി തെര~
ഞ്ഞെടുക്കുന്നു. അടുത്ത ഒളിന്പിക് മത്സരം എവിടെവച്ചു
നടത്തണമെന്ന് കാലേകൂട്ടി തീര്഼ച്ചയാക്കും. അതിനുളള അധി~
കാരം അന്താരാഷ്ട്രീയ ഒളിന്പിക് നഗരം നിര്഼മ്മി~
ക്കാന്഼ വേണ്ടുന്ന ഏര്഼പ്പാടുകള്഼ തുടങ്ങും. സ്േററഡ഼ിയങ്ങള്഼,
ജിംനേഷ്യങ്ങള്഼, ഓട്ടപ്പന്തയതതിനുളള ട്രാക്കുകള്഼, നീന്തല്഼്ക്കു~
ളങ്ങള്഼, പങ്കെടുക്കുന്നവര്഼്ക്കും പത്രക്കാര്഼ക്കും കാണികള്഼ക്കും
ആവശ്യമായ താമസസൌകര്യങ്ങള്഼ അങ്ങനെ എന്തെല്ലാമാണ഼്
ഒരുങ്ങണം! മ്യൂനിക്കിലെ ഒളിന്പിക് നഗരത്തിന്഼റെ വിസ്തൃതി
ഒരു ചരുരശ്ര നാഴികയായിരുന്നു. പ്രധാന സ്േററഡിയത്തില്഼
80,000 ആളുകള്഼ക്ക് സുഖമായി ഇരിക്കാം. അവിടത്തെ ടെലി~
വിഷന്഼ ഗോപുര഼ത്തിന് 950 അടി ഉയരമുണ്ടായിരുന്നു. ടെലി~
വിഷന്഼ സെററുളള ഭാഗ്യവാന്഼മാര്഼ വീട്ടിലിരുന്ന് മത്സരങ്ങള്഼
കണ്ട് ആനന്ദിച്ചു. നൂറിലധികം രാജ്യങ്ങളില്഼ നിന്നായി പതി~
നായിരത്തിലേറെ സ്പോര്഼ട്ട്സ് താരങ്ങള്഼ ആ മത്സരത്തില്഼
പങ്കെടുത്തു.</p>

<p>	ആദ്യകാലത്ത് ഗ്രീസിലെ ഒളിന്പിയോ മൈതാനത്തില്഼
വച്ചായിരുന്നു ഈ മഹാമഹം നടത്തിപ്പോന്നത്. ഒളിന്പിക്സ്
എന്ന പേരുതന്നെ അങ്ങനെ വന്നതാണ്. ആ സ്മരണ നില~
നിര്഼ത്താന്഼ ഒളിന്പിയയിലെ ഒളിന്പിക് ജ്വാലയില്഼
നിന്ന് കൊളുത്തിയ ദീപശിഖ ഓട്ടക്കാര്഼ മാറിമാറി ഏെററടുത്ത്
ഒളിന്പിക് നഗരത്തില്഼ എത്തിക്കുന്ന ഒരാചാരം 1936-മുതല്഼ക്ക്
ആരംഭിച്ചുു. 1972-ലെ ഒളിന്പിക്സില്഼ 5976 ഓട്ടക്കാര്഼ ദീപശിഖ
വഹിച്ചുകൊണ്ടുളള ഓട്ടത്തില്഼ പങ്കെടുത്തു.</p>

<p>-30-</p>

<p>	"കൂടുതല്഼ വേഗത്തില്഼, കൂടുത഼ല്഼ ഉയരത്തില്഼, കൂടുതല്഼
ശക്തിയില്഼" ഇതാണ് ഒളിന്പിക് മുദ്രാവാക്യം. നാലുകൊല്ലം
കൂടുന്പോള്഼ നടക്കുന്ന ഓരോ മത്സരത്തിലും പലയിനങ്ങളിലും
പുതിയ റെക്കാര്഼ഡുകള്഼ സ്ഥാപിക്കപ്പെടുന്നു. അതിനാല്഼
കായികമായ കഴിവിലും മനുഷ്യവര്഼ഗ്ഗം മുന്നേറുകയാണ്
എന്ന് നമുക്ക് സന്തോഷിക്കാം.</p>

<p>	ഒളിന്പിക് ചിഹ്നം സമ്മിളിതമായ അഞ്ചു വൃത്തങ്ങ~
ളാണ്. നീല, പച്ച, മഞ്ഞ, കറുപ്പ്, ചുവപ്പ് എന്നീ വര്഼ണ്ണ~
ങ്ങളിലുളള വൃത്തങ്ങള്഼. ഒളിന്പിക് പതാക വെളളയാണ്.
നടുവില്഼ ഒളിന്പിക് ചിഹ്നവുമുണ്ട്.</p>

<p>	ചന്ദ്രനില്഼ ഇറങ്ങിയ അപ്പോളോ 16-ലെ ബാഹ്യാകാശ~
ചാരികള്഼ അവിടെ പരസ്പര സൌഹൃദത്തിന്഼റെയും സഹകര഼ണ~
ത്തിന്഼റെയും പ്രതീകമായി ഒരു ഒളിന്പിക് പതാക നാട്ടി.</p>

<p>-32-</p>

<p>		പാഠം 9</p>

<p>	അന്തരീക്ഷത്തെ മലിനമാക്കരുതേ!</p>

<p>	ജീവസന്ധാരണത്തിന് ആദ്യമായി വേണ്ടത് വായു~
വാണ്. ഭക്ഷണംകൂടാതെ അഞ്ചാറാഴ്ചയും വെളളമില്ലാതെ
അഞ്ചുദിവസവും മനുഷ്യന് കഴിച്ചുകൂട്ടാം. വായുവില്ലാതെ
അഞ്ചുനിമിഷംപോലും അവന് ജീവിക്കുക സാധ്യമല്ല. 24
മണിക്കൂറിനുളളില്഼ ഒരു മനുഷ്യന് ശരാശരി ഒരു കിലോഗ്രാം
ഭക്ഷണവും രണ്ടുകിലോഗ്രാം വെളളവും വേണം. അത്രയും
സമയത്തിനുളളില്഼ അവന്഼ ഉള്഼ക്കൊളളുന്ന വായു എത്രയാ~
ണെന്നോ? പന്ത്രണ്ടു കിലോഗ്രാം! അതേ; ജഗല്഼പ്രാണന്഼
തന്നെയാണ് വായു. ആ തത്ത്വമോര്഼ക്കാതെ മനുഷ്യന്഼ അതിനെ
നിരന്തരം ദുഷിപ്പിച്ചുകൊണ്ടിരിക്കുന്നു!</p>

<p>	വ്യവസായപരമായി പുരോഗമിച്ചിട്ടുളള രാജ്യങ്ങളിലാണ്
വായു കൂടുതല്഼ മലിനമായിത്തീരുന്നത്. അമേരിക്കയില്഼
കൊല്ലംതോറും ഇരുപതുകോടി ടണ്഼ മലിനവസ്തുക്കളാണ്
വായുവിലേക്ക് വിക്ഷേപിക്കപ്പെടുന്നത്. ഫ്രാന്഼സില്഼, 1960-ല്഼
താപപ്രവര്഼ത്തനംകൊണ്ട് വൈദ്യുതിയുല്഼പ്പാദിപ്പിക്കുന്ന കേന്ദ്ര~
ങ്ങളില്഼നിന്നു മാത്രമായി ഒരു ലക്ഷം ടണ്ണിലേറെ ഗന്ധക~
വാതകങ്ങളും, എട്ടേകാല്഼ കോടി ടണ്ണോളം കരിയും, വായുവി~
ലേക്ക് പരക്കുകയുണ്ടായി.</p>

<p>	രാസവ്യവസായശാലകള്഼ അധികമുളള സ്ഥലങ്ങളില്഼
ഗന്ധകവാതകങ്ങളും മററു പല വിഷവായുക്കളും അന്തരീക്ഷ~
ത്തില്഼ നിറയുന്നു. അങ്ങനെ ദുഷിച്ച വായു ശ്വസിക്കുന്നവര്഼ക്ക്
പലതരം വ്യാധികള്഼ പിടിപെടുന്നു. ഈ വിഷവാതകങ്ങള്഼
വായുമണ്ഡലത്തിന്഼റെ ഉപരിതലത്തിലേക്ക് ഉയര്഼ന്നുപോ~
കാതെ താഴത്തുതന്നെ തങ്ങിനില്഼ക്കുന്പോഴാണ് കൂടുതല്഼ ആപ~
ത്തുണ്ടാകുന്നത്. കാററില്ലാതെ വായു സ്തംഭിച്ചുനില്഼ക്കു~
ന്പോഴും, കട്ടികൂടിയ മൂടല്഼മഞ്ഞുകൊണ്ട് അന്തരീക്ഷം ആവൃ~
തമാകുന്പോഴ഼ും, ഇതിന്നിടയാകുന്നു. 1952-ലെ മഞ്ഞുകാലത്ത്
ഇങ്ങനെ വിഷവാതകങ്ങള്഼ തങ്ങി മലിനമായിത്തീര്഼ന്ന വായു
ശ്വസിച്ചതിന്഼റെ ഫലമായി ബ്രിട്ടനില്഼ നാലായിരത്തോളം ആളു~
കള്഼ മരിച്ചു. രോഗികളെക്കൊണ്ട് ആശുപത്രികള്഼ നിറഞ്ഞു.
1963-ല്഼ ന്യൂയോര്഼ക്കില്഼ വായുമലിനീകരണത്താല്഼ അനേകശതം
ആളുകള്഼ മരിക്കാനിടയായി.</p>

<p>-33-</p>

<p>	ഓക്സിജനും നൈട്രജനുമാണ് വായുമണ്ഡലത്തിന്഼റെ
പ്രധാനഘടകങ്ങള്഼.കാര്഼ബണ്഼ഡൈഓക്സൈഡ്, നീരാവി
തുടങ്ങിയ ഏതാനും ഇത഼രവാതകങ്ങളും ചുരുങ്ങിയ തോതില്഼
അതിലുണ്ട്. ഒരു നിശ്ചിത തോതിലാണ് വായുമണ്ഡല~
ത്തിലെ വിവിധഘടകങ്ങളെ പ്രകൃതി മേളിപ്പിച്ചിരിക്കുന്നത്.
ആ ഘടനയ്ക്ക് മാററം വന്നാല്഼ അത് ജീവജാലങ്ങളെ-സസ്യങ്ങ~
ളെയും ജന്തുക്കളെയും ബാധിക്കും. ഒരു വഴിക്കു നഷ്ടപ്പെടുന്ന
വാതകങ്ങള്഼ വേറൊരു വഴിക്കു തിരിച്ചുവന്ന് വായുമണ്ഡ~
ലത്തിന്഼റെ ഘടനയ്ക്ക് മാററമൊന്നും വരാതെ സൂക്ഷിക്കുന്നു.
ഇതാണ് പ്രകൃതി ചെയ്തിട്ടുളള വ്യവസ്ഥ. ശ്വസിക്കുന്ന
വായുവില്഼നിന്ന് മനുഷ്യരും മററുജന്തുക്കളും ഓക്സിജനെ ഉള്഼~
ക്കൊണ്ട് കാര്഼ബണ്഼ഡൈഓക്സൈഡിനെ പുറംതളളുന്നു.
സസ്യങ്ങളാകട്ടെ കാര്഼ബണ്഼ഡൈഓക്സൈഡിനെ ഉള്഼ക്കൊണ്ട്,
ഓക്സിജനെ പുറത്തേക്കു വിടുന്നു. ഇങ്ങനെ പരസ്പരം
ഉപകാരികളായി, ജന്തുക്കളും സസ്യങ്ങളും പ്രകൃതിയുടെ നിയ~
മത്തിനു വിധേയരായി ജീവിച്ചിരുന്ന കാലത്ത് വായുമലിനീ~
കരണം സംഭവിച്ചില്ല. എന്നാല്഼ നഗരങ്ങളുടെ വികാസത്തിനു
വേണ്ടി മരങ്ങള്഼ മുറിച്ചുനീക്കുകയും എങ്ങും വ്യവസായശാലകള്഼
നിറയുകയും ചെയ്തതോടുകൂടി വായു മലിനീകരണത്തിനു
വഴി തെളിഞ്ഞു. ഉരുക്കുഫാക്ടറികള്഼, കടലാസുമില്ലുകള്഼,
ചൂളകള്഼, എണ്ണശുദ്ധീകരണശാലകള്഼, രാസവസ്തുക്കള്഼ നിര്഼~
മിക്കുന്ന ഫാക്ടറികള്഼, റബ്ബര്഼ ഫാക്ടറികള്഼ മുതലായ~
വയില്഼നിന്നു പൊങ്ങുന്ന പലതരം വിഷവാതകങ്ങള്഼ അന്തരീ~
ക്ഷത്തെ ദിനംപ്രതി അധികമധികം ദുഷിപ്പിക്കുന്നു. കീടനാശി~
നികള്഼ കീടങ്ങളെ നശിപ്പിക്കുമെങ്കിലും അതോടൊപ്പം അന്തരീ~
ക്ഷത്തെ ദുഷിപ്പിച്ച് മനുഷ്യനും മററുജീവികള്഼ക്കുും സസ്യലോക~
ത്തിനും കാലക്രമത്തില്഼ വിന വരുത്തിവയ്ക്കും.</p>

<p>	വായുവിനെ മലിനപ്പെടുത്തുന്നതില്഼ മോട്ടോര്഼വാഹനങ്ങള്഼~
ക്കുളള പങ്ക് ഓര്഼ക്കുന്പോള്഼ അവ മനുഷ്യവര്഼ഗ്ഗത്തിന്഼റെ ശത്രു~
ക്കളില്഼ ഒന്നാംസ്ഥാനത്തു നില്഼ക്കുന്നതായി കരുതേണ്ടിവരും.
അവയില്഼നിന്നു പുറത്തുവരുന്ന പുകയില്഼ കാര്഼ബണ്഼ മോണോ~
ക്സൈഡ് എന്ന വിഷവാതകവും കാരീയത്തിന്഼റെ അംശവും
ഉണ്ട്. ഇതു രണ്ടും ആരോഗ്യത്തിന് ഹാനികരമ഼ാണ്. ടോക്കി~
യോയിലെ വാഹനത്തിരക്കുളള ഒരു മഹാവീഥിയുടെ പരിസര~
ത്തില്഼ താമസിക്കുന്നവരുടെ രക്തം പരിശോധിച്ചപ്പോള്഼ അതില്഼
സാധാരണയില്഼ കവിഞ്ഞ തോതില്഼ കാരീയം കലര്഼ന്നുകണ്ടു.
വിഷവാതകങ്ങളെ കഴിയുന്നതും നീക്കിക്കളയാനുളള ഏര്഼പ്പാട്</p>

<p>-34-</p>

<p>മോട്ടോര്഼വാഹനങ്ങളില്഼ ഉണ്ടായിരിക്കണമെന്ന നിയമം ചില
രാജ്യങ്ങളില്഼ ഇപ്പോള്഼ നടപ്പാക്കിവരുന്നു. ഏഷ്യയില്഼ നൂറു
കോടി മോട്ടോര്഼ വാഹനങ്ങള്഼ ഉണ്ടാവുകയാണെങ്കില്഼ ലോകം
നശിക്കാന്഼ അതുതന്നെ മതിയായ കാരണമായിത്തീരും എന്ന്
വിദഗ്ദ്ധന്മാര്഼ കരുതുന്നു. ശാന്തസമുദ്രത്തില്഼നിന്ന് അമേ~
രിക്കന്഼ ഐക്യനാടുകളിലേക്ക് വീശിക്കൊണ്ടിരിക്കുന്ന ശുദ്ധ
വായുവിനെ മലിനമാക്കാന്഼ അത്രമാത്രം മതിയാകും. ഒടുവില്഼
ഭൂമി മുഴുവന്഼ വിഷവാതകംകൊണ്ട് ആവൃതമാകാനും ഩമ്മുടെ
നാഗരികത നിശ്ശേഷം നശിച്ചുപോകാനും അത് ഇടയാക്കും.</p>

<p>	അണ്വായുധങ്ങളുടെ സ്ഫോടനംകൊണ്ട് അന്തരീക്ഷ~
ത്തില്഼ പ഼രക്കുന്ന വിഷധൂളികള്഼ പുതുതായി വന്നുചേര്഼ന്ന
ആപല്഼ക്കാരികളാണ്. എങ്കിലും അവ മുന്഼പന്തിയിലേക്ക്
കുതിച്ചുകൊണ്ടിരിക്കുന്നു.</p>

<p>	വായുമലിനീകരണം നിമിത്തം ശ്വാസകോശരോഗങ്ങള്഼,
ഹൃദ്രോഗം, അര്഼ബുദം, നേത്രരോഗ഼ങ്ങള്഼, ത്വഗ്്രോഗങ്ങള്഼
എന്നിവ വര്഼ദ്ധിച്ചുവരുന്നതായി തെളിഞ്ഞിരിക്കുന്നു. ശ്വാസ~
കോശാര്഼ബുദം ബാധിച്ചവര്഼ ബ്രിട്ടനിലെ നഗരങ്ങളില്഼ ഏതാനും
ദശകങ്ങള്഼ക്കു മുന്പുണ്ടായിരുന്നതിനേക്കാള്഼ അഞ്ചുമടങ്ങ് അധി~
കമുണ്ടത്രെ ഇന്ന്. ഇതിനുകാരണം വായു മലിനീകരണം മാത്ര~
മാണ്.</p>

<p>	മനുഷ്യര്഼ മാത്രമല്ല, മററുജീവികളും സസ്യപ്രപഞ്ചവും
ഇതുകൊണ്ടു വിഷമിക്കുകയും നശിക്കുകയും ചെയ്യുന്നു. വ്യവ~
സായശാലകള്഼ നിറഞ്ഞ മഹാനഗരങ്ങളില്഼നിന്ന് അറുപതു
നാഴിക അകലെയുളള വന്഼മരങ്ങളെപ്പോലും വിഷവാതകങ്ങള്഼
ബാധിച്ചു നശിപ്പിക്കുന്നതായി കണ്ടിരിക്കുന്നു. പഴത്തോട്ട~
ങ്ങള്഼ക്കും പച്ചക്കറിത്തോട്ടങ്ങള്഼ക്കും ഇതുകൊണ്ട് വന്പിച്ച നാശം
നേരിടുന്നുണ്ട്. ഇക്കാരണത്താല്഼ അമേരിക്കന്഼ ഐക്യനാടുകളില്഼
ആണ്ടുതോറും നൂററന്പതുകോടി ഡോളര്഼ വിലവരുന്ന ഉല്഼പ്പന്ന~
ങ്ങള്഼ നശിക്കുന്നതായി കണ്ടിരിക്കുന്നു.</p>

<p>	ഭൂമിയുടെ താപനില 1940-നുശേഷം 3ം താണിരിക്കുന്നു.
ഇതിനു കാരണഁ വായുമണ്ഡലത്തിന്഼റെ ഘടനയില്഼ വന്നു
ചേര്഼ന്ന വ്യത്യാസമാണെന്ന് ചില ശാസ്ത്രഗവേഷകന്മാര്഼ക്ക~
ഭിപ്രായമുണ്ട്. സൂര്യനും ഭൂമിക്കും ഇടയില്഼ മലിനവായു
തിങ്ങിനിന്ന് കട്ടികൂടിയ ഒരു മേലാപ്പായി പരിണമിച്ചാല്഼
നീരാവി അത്രയും മഞ്ഞുകട്ടിയായി വീഴും. ലോകം വീണ്ടും
പഴയ ഹിമയുഗത്തിലേക്കു മടങ്ങിപ്പോകേണ്ടിവരികയും ചെയ്യും.</p>

<p>-35-</p>

<p>	അത്യാവശ്യത്തിനുമാത്രം ചെലവാക്കുക എന്നു പറയാറു~
ളളതുപോലെ "അത്യാവശ്യമുണ്ടെങ്കില്഼ മാത്രം ശ്വസിക്കുക"
എന്നു പറയേണ്ട കാലവും വന്നേക്കും. അങ്ങനെ വരാതിരിക്ക~
ണമെങ്കില്഼ വായുമലിനീകരണം തടയുന്നതിനുളള പരിശ്രമങ്ങ~
ളിലേക്ക് നമ്മുടെ സത്വരശ്രദ്ധ തിരിയേണ്ടിയിരിക്കുന്നു.</p>

<p>-38-</p>

<p>		പാഠം 11</p>

<p>	    അറന്പിക്കടലിലെ കൊളളിമീന്഼</p>

<p>	ക്രിസ്തുവര്഼ഷം 1498-ല്഼ വാസ്കോഡിഗാമ പോര്഼ച്ചുഗല്഼
രാജാവിന്഼റെ പ്രതിനിധിയായി കോഴിക്കോട്ടുവന്ന് തിരുമുല്഼~
ക്കാഴ്ചവച്ച് സാമൂതിരിരാജാവിനെ മുഖം കാണിച്ചു. പ്രാചീന
കാലം മുതല്഼ക്ക് കേരളവും യൂറോപ്പും തമ്മില്഼ നടന്നിരുന്ന
ആദായകരമായ വാണിജ്യത്തിന്഼റെ കുത്തകാവകാശം തന്഼റെ രാജ്യ~
ത്തിനായി നേടുകയായിരുന്നു ഗാമയുടെ ആഗമനോദ്ദേശ്യം.
ചുക്ക്, കുരുമുളക്, ഏലം തുട഼ങ്ങിയ കേരളീയസുഗന്ധദ്രവ്യ~
ങ്ങള്഼ക്ക് അന്ന് യൂറോപ്പില്഼ നല്ല പ്രിയമായിരുന്നു. അറബി~
കളും മാപ്പിളമാരുമായിരുന്നു അന്നുവരെ ആ കച്ചവടം നടത്തി~
പ്പോന്നത്.വിശ്വസ്തരായ ആ ചിരന്തനമിത്രങ്ങളെ കൈവെ~
ടിയുവാന്഼ സാമൂതിരി ഇഷ്ടപ്പെട്ടില്ല. അദ്ദേഹം പറങ്കി~
കള്഼ക്കും തന്഼റെ രാജ്യത്ത് കച്ചവടം ചെയ്യാന്഼ അനുമതി നല്഼കി~
യതല്ലാതെ കുത്തകാവകാശം കൊടുത്തില്ല.</p>

<p>	വാണിജ്യരംഗത്ത് മാപ്പിളമാരോട് മല്ലിട്ടുജയിക്കാന്഼ കഴി~
യാതെ വന്നപ്പോള്഼ പറങ്കികള്഼ ക്ഷോഭിച്ചു. സാമൂതിരിയുടെ
നേരേ കൈയൂക്കു പ്രയോഗിക്കാനായിരുന്നു അവരുടെ പിന്നത്തെ
ശ്രമം. അവര്഼ സാമൂതിരിയുടെ ചിരവൈരിയായ കൊച്ചിയെ
കൂട്ടുപിടിച്ചു. അറബിക്കടല്഼ അവരുടെ അഴിഞ്ഞാട്ടത്തിന്഼റെ
രംഗമായി മാറി. ചരക്കുമുഴുവന്഼ പിടിച്ചെടുത്തിട്ട് എതിരാളി~
കളുടെ കപ്പലുകള്഼ കടലില്഼ മുക്കുക അവര്഼ പതിവാക്കി. എല്ലാ
സമുദ്രങ്ങളുടെയും ആധിപത്യം പോര്഼ച്ചുഗല്഼ രാജാവിനാണ്
എന്നായിരുന്നു അവരുടെ സിദ്ധാന്തം. സാമൂതിരി ആ ദുര്഼ന്നയ~
ത്തിനു വഴങ്ങിയില്ല. അറബിക്കടലിലെ ആധിപത്യം നിലനിര്഼~
ത്തുന്നതിനായി പറങ്കികളോട് പൊരുതാന്഼ അദ്ദേഹം കച്ച
കെട്ടിയിറങ്ങി.</p>

<p>	ഒരു നൂററാണ്ടോളം നീണ്ടുനിന്ന ഈ സംഘട്ടനത്തില്഼ കോട്ട~
യ്ക്കല്഼ കുഞ്ഞാലിമരയ്ക്കാര്഼മാരായിരുന്നു കുന്നലുക്കോനാതി~
രിയുടെ നാവികസേനാനികള്഼.</p>

<p>	ഉത്തരകേരളത്തില്഼ വടകരയ്ക്കും ഇരിങ്ങലിനും ഇട~
യ്ക്കുളള പുഴയുടെ അഴിമുഖത്താണ് മരയ്ക്കാര്഼കോട്ട സ്ഥിതി~
ചെയ്തിരുന്നത്. അങ്ങനെയാണ് ആ നദിക്ക് കോട്ടപ്പുഴ എന്ന
പേര്഼ വന്നത്. മരയ്ക്കാര്഼ കുടുംബത്തിന്഼റെ ആദ്യത്തെ സ്ഥാനം</p>

<p>-39-</p>

<p>പൊന്നാനിയായിരുന്നു. 1504-ല്഼ പറങ്കികള്഼ പൊന്നാനി ആക്ര~
മിച്ചപ്പോള്഼ മരയ്ക്കാര്഼ കുടുംബം അവിടം വിട്ടുപോയി.</p>

<p>	ദേശാഭിമാനികളും വീരാഗ്രണികളുമായ നാലു കുഞ്ഞാ~
ലിമാരുടെ ധീരകഥകള്഼ കേരളചരിത്രത്തിന്഼റെ താളുകളില്഼ ഒരു
കാലത്തും മാഞ്ഞുപോകാത്തവണ്ണം രക്തത്തില്഼ കുറിക്കപ്പെട്ടി~
രിക്കുന്നു. കുഞ്ഞാലി രണ്ടാമന്഼റെ കാലം മുതല്഼ക്കാണ് ഈ
വംശത്തിന്഼റെ കീര്഼ത്തി വിദേശങ്ങളിലും വ്യാപിച്ചത്. അദ്ദേ~
ഹത്തിന്഼റെ പിതാവായ കുട്ടിയാലിമരയ്ക്കാരെ-ഒന്നാമത്തെ
കുഞ്ഞാലിയെ-1528-ല്഼ പറങ്കികള്഼ കടലില്഼വച്ച് തടവുകാര~
നായിപ്പിടിച്ചു. 1531-ല്഼ അദ്ദേഹം കാലഗതി അടയുകയും
ചെയ്തു.</p>

<p>	കുഞ്ഞാലി രണ്ടാമന്഼ മരയ്ക്കാര്഼സ്ഥാനം ഏററതോടുകൂടി
സംഭവഗതിയാകെ മാറി. കണ്ണില്഼ച്ചോരയില്ലാതെ കടുംകൈ
കാട്ടിയിരുന്ന പറങ്കികളുടെ നേരെ ധര്഼മ്മയുദ്ധമുറകള്഼ പാലി~
ക്കുന്നത് ആത്മഹത്യാപരമാണെന്ന് അദ്ദേഹം കണ്ടു. പറങ്കി~
കളുടെ നയംതന്നെ അദ്ദേഹം അവര്഼ക്കുനേരെ തിരിച്ചടിച്ചു.
പതിയിരുന്ന് തഞ്ചം കിട്ടുന്പോള്഼ പറങ്കികളുടെമേല്഼ ചാടിവീ~
ഴുക,ചരക്കുകള്഼ പിടിച്ചെടുത്തിട്ട് അവരുടെ കപ്പലുകള്഼
മുക്കിക്കളയുക ഇതായിരുന്നു കുഞ്ഞാലി പ്രയോഗിച്ച അടവ്.
പറങ്കികളുടെ പടുകൂററന്഼ കപ്പലുകളോട് നേരിട്ടുനിന്നു പൊരു~
താന്഼ നമ്മുടെ കൊച്ചു നൌകകള്഼ക്കു സാധ്യമല്ലായിരുന്നു. ആയു~
ധശക്തിയിലും പറങ്കിക്കപ്പലുകള്഼ മികച്ചുനിന്നു. അതിനാല്഼
മരയ്ക്കാര്഼ ഒളിപ്പോര്഼കൊണ്ട് അരാതികളെ പൊറുതികെടുത്തി.</p>

<p>	കൈയൂക്കു വിലപ്പോകയില്ലെന്നു കണ്ടപ്പോള്഼ പറങ്കികള്഼
നയം മാററി, സാമദാനങ്ങള്഼കൊണ്ട് സാമൂതിരിപ്പാടിനെ പാട്ടി~
ലാക്കി. 1530-നോടടുത്ത് അവര്഼ തന്പുരാനുമായി സന്ധി~
ചെയ്തു. അതിനെത്തുടര്഼ന്ന് അവര്഼ ബേപ്പൂര്഼പ്പുഴയുടെ അഴി~
മുഖത്തു സ്ഥിതിചെയ്യുന്ന ചാലിയംതുരുത്ത് താനൂര്഼ രാജാ~
വിന്഼റെ കൈയില്഼നിന്ന് വിലയ്ക്കു വാങ്ങി; അവിടെ സുശ~
ക്തമായ ഒരു കോട്ട പണിതു. അങ്ങനെ കേരളക്കരയില്഼ അവര്഼
കാലുറപ്പിച്ചു.</p>

<p>	ചാലിയംകോട്ട സാമൂതിരിയുടെ കഴുത്തിനുനേരെ
ചൂണ്ടിയ ഒരു തോക്കുതന്നെയായിരുന്നുവെന്ന് ഒരു പ്രസിദ്ധ
ചരിത്രകാരന്഼ പറഞ്ഞിട്ടുണ്ട്. അത് തികച്ചും അന്വര്഼ത്ഥ~
മാണ്. സാമൂതിരിയുടെ ഭരണത്തിന്഼കീഴിലായിരുന്ന നാടുക~
ളുടെ നടുവിലൂടെയാണ് ബേപ്പൂര്഼പ്പുഴ ഒഴുകുന്നത്. അതിന്഼റെ</p>

<p>-40-</p>

<p>അഴിമുഖത്ത് സ്ഥാനമുറപ്പിച്ചതോടുകൂടി കടലോരപ്രദേശങ്ങ~
ളില്഼ മാത്രമല്ല ഉള്഼നാടുകളിലും പറങ്കികള്഼ക്ക് കൈയൂക്കു
കാട്ടാന്഼ സാധിച്ചു.</p>

<p>	വിദേശങ്ങളിലേക്കു കയററി അയക്കാനുളള ചുക്ക്, കുരു~
മുളക് മുതലായ ചരക്കുകള്഼ ബേപ്പൂര്഼പ്പുഴയിലൂടെയാണ് മാപ്പി~
ളമാര്഼ ഉള്഼നാടുകളില്഼നിന്ന് തുറമുഖത്തേക്കു കൊണ്ടുപോയി~
രുന്നത്. ആ ഗതാഗതം തടയാന്഼ പറങ്കികള്഼ക്കു കഴിഞ്ഞു.</p>

<p>	ചാലിയത്ത് സ്ഥാനം ഉറപ്പിച്ചതോടുകൂടി അവര്഼ സാമൂ~
തിരിയെ വകവയ്ക്കാതായി എന്നു മാത്രമല്ല, ശല്യപ്പെടുത്താനും
തുടങ്ങി. ചാലിയത്തുകോട്ട തകര്഼ത്തുകളയാതെ നാട്ടില്഼ സ്വൈര~
മായിരിക്കാന്഼ കഴിയില്ലെന്ന് സാമൂതിരി അചിരേണ മനസ്സി~
ലാക്കി. എന്നാല്഼ അത്ര വേഗത്തില്഼ സാധിക്കാവുന്ന കാര്യമ഼ാ~
യിരുന്നില്ല അത്. മൂന്നു പന്തീരാണ്ടിലേറെ പാടുപെടേണ്ടി
വന്നു ശത്രുക്കളെ അവിടെനിന്നു തുരുത്താന്഼.</p>

<p>	1570-ല്഼ കരയില്഼നിന്ന് സാമൂതിരിയും കടലില്഼നിന്ന്
മരയ്ക്കാരും ചാലിയംകോട്ട വളഞ്ഞു. കുഞ്ഞാലി മൂന്നാമനാ~
യിരുന്നു അന്നത്തെ മരയ്ക്കാര്഼. കൊച്ചിയില്഼നിന്നോ കണ്ണൂരില്഼
നിന്നോ കടല്഼വഴി സൈന്യങ്ങളും പടക്കോപ്പുകളും ഭക്ഷണസാധ~
നങ്ങളും എത്തിച്ചേരുന്നത് തടയുകയായിരുന്നു കുഞ്ഞാലിയുടെ
കീഴിലുളള നാവികസേനയുടെ കര്഼ത്തവ്യം. അത് കുഞ്ഞാലി
സമര്഼ത്ഥമായി നിര്഼വ്വഹിച്ചു. ഉപരോധം നാലുമാസം നീണ്ടു
നിന്നു. പടക്കോപ്പുകളും ഭക്ഷണസാമഗ്രികളും ഇല്ലാതെ പറ~
ങ്കികള്഼ വിഷമിച്ചു. പുലികളെപ്പോലെ നാടുനീളെ പാഞ്ഞു
നടന്നിരുന്നവര്഼ എലികളെപ്പോലെ കോട്ടയ്ക്കകത്തു കിടന്നു
പിടച്ചു. ഒടുവില്഼ അവര്഼ കീഴടങ്ങാന്഼ സമ്മതിച്ചു. ജീവനോടെ
കോട്ട വിട്ടുപോകാന്഼ അനുവദിക്കണം എന്നു മാത്രമായിരുന്നു
അവരുടെ അപേക്ഷ. ദയാലുവായ സാമൂതിരി അതിനു സമ്മ~
തിച്ചു. പറങ്കികള്഼ ഒന്നടങ്കം ചാലിയത്തുനിന്ന് കെട്ടുകെട്ടി.
കൊച്ചിയിലായിരുന്നു അവര്഼ അഭയം പ്രാപിച്ചത്. സാമൂതിരി
കോട്ട ഇടിച്ചുപൊളിച്ച് അവശിഷ്ടങ്ങള്഼ കടലിലൊഴുക്കി. ഈ
പരാജയം പറങ്കിശക്തിയുടെ തകര്഼ച്ച കുറിച്ചു. അതില്഼നിന്ന്
പൂര്഼ണ്ണമായും ഉയിര്഼ത്തെഴുന്നേല്഼ക്കാന്഼ അവര്഼ക്ക് പിന്നീടൊരി~
ക്കലും കഴിഞ്ഞില്ല.</p>

<p>	കുഞ്ഞാലി മൂന്നാമന്഼റെ സ്തുത്യര്഼ഹങ്ങളായ സേവന~
ങ്ങള്഼ക്ക് സാമൂതിരി മതിയായ പ്രതിഫലം നല്഼കി. അന്നുവരെ</p>

<p>-41-</p>

<p>നാടുവാഴി പ്രഭുക്കള്഼ക്കുമാത്രം ഉണ്ടായിരുന്ന പല പദവികളും
അദ്ദേഹം മരയ്ക്കാര്഼ക്ക് കല്഼പ്പിച്ചരുളി. ഇരിങ്ങല്഼പ്പുഴയുടെ
അഴിമുഖത്ത് ഒരു കോട്ട പണിയാനുളള അനുവാദം മരയ്ക്കാര്഼
കുടുംബത്തിനു ലഭിച്ചത് ആ സന്ദര്഼ഭത്തിലായിരുന്നു. അന്നു
മുതല്഼ക്ക് കോട്ടയ്ക്കല്഼ കുഞ്ഞാലിമരയ്ക്കാര്഼ എന്ന പേരില്഼
ആ വംശം പ്രസിദ്ധമായി.</p>

<p>	അങ്ങനെ ഒരു പന്തീരാണ്ടു കഴിഞ്ഞു. പറങ്കികള്഼ വീണ്ടും
സാമൂതിരിയോടടുത്തു. അവര്഼ തമ്മില്഼ സന്ധിചെയ്തു.
ഭൂതകാലമരുളിയ ചുട്ടപാഠങ്ങളെ മനുഷ്യന്഼ എത്രവേഗമാണ് മറ~
ക്കുന്നത്! പറങ്കികളുമായുളള പിണക്കം തുടര്഼ന്നുപോയാല്഼
വിദേശവാണിജ്യവും നാട്ടിന്഼റെ സാന്പത്തികസ്ഥിതിയും
അപകടത്തിലാകുമെന്ന് സാമൂതിരി ഭയപ്പെട്ടു. പറങ്കികള്഼
കോഴ കൊടുത്തും മററും സാമൂതിരിയുടെ മന്ത്രിമാരെ വശത്താ~
ക്കുകയും ചെയ്തിരുന്നു. പൊന്നാനിയില്഼ ഒരു കോട്ട കെട്ടാ~
നുളള അനുവാദം പറങ്കികള്഼ സാമൂതിരിയില്഼നിന്ന് നേടി.
1585-ലാണ് ഇതുണ്ടായത്. കേരളത്തിന്഼റെ മണ്ണില്഼ വീണ്ടും
പറങ്കിക്കൊടിമരം നാട്ടാനുളള ഗൂഢതന്ത്രമായിരുന്നു അതെന്ന്
തന്പുരാന്഼ ഓര്഼ത്തില്ല.</p>

<p>	ഈ അവിവേകം കുഞ്ഞാലിയെ അരിശം കൊളളിച്ചു. കുന്ന~
ലക്കോനാതിരി ചെയ്ത സഖ്യത്തെ വകവയ്ക്കാതെ അദ്ദേഹം 
പറങ്കികളെ കടലില്഼ വേട്ടയാടി. ഇരുകക്ഷികള്഼ക്കും വന്പിച്ച
നാശനഷ്ടങ്ങള്഼ നേരിട്ടു. രാജാവിന്഼റെ പിന്഼ബലം നഷ്ടപ്പെ~
ട്ടത് മരയ്ക്കാര്഼ക്ക് ഒരു വലിയ ക്ഷീണമായിരുന്നു. എന്നാല്഼
ഈ നിസ്സഹായാവസ്ഥ ഏറെക്കാലം തുടര്഼ന്നില്ല. പറങ്കി~
കളുടെ അക്രമങ്ങള്഼ സാമൂതിരിയെ ക്ഷോഭാകുലനാക്കി. സന്ധി
അവസാനിപ്പിച്ച് അദ്ദേഹം വീണ്ടും സമരത്തിനൊരുങ്ങി.</p>

<p>	ഈ ഘട്ടത്തില്഼ ക്രിസ്തുവര്഼ഷം 1595-ല്഼, കുഞ്ഞാലി
നാലാമന്഼ മരയ്ക്കാര്഼ കോട്ടയുടെ അധിപനും സാമൂതിരിയുടെ
നാവവികസേനാപതിയുമായി സ്ഥാനമേററു. അദ്ദേഹം രണ്ടും
കല്഼പ്പിച്ച് പറങ്കികളോട് പോരനിറങ്ങി. പുതുപ്പണംകോട്ട
പുതുക്കിപ്പണിതു; അതിന്഼റെ ഗോപുരങ്ങളില്഼ പീരങ്കികള്഼ ഉറ~
പ്പിച്ചു; ചുററുമുളള കിടങ്ങിന് ആഴംകൂട്ടി. പറങ്കികളുടെ കപ്പ~
ലുകളോളം വലിപ്പമുളളവയല്ലെങ്കിലും അവയെക്കാള്഼ വേഗത്തി~
ലോടുന്ന നൌകകള്഼ നിര്഼മ്മിച്ച് കടലില്഼ ഇറക്കി. അറബിക്കട~
ലില്഼വച്ച് ഒരുതരം ഗറില്ലയുദ്ധം തന്നെ ആ സാഹസികര്഼</p>

<p>-42-</p>

<p>പറങ്കികള്഼ക്കെതിരായി നടത്തി. പറങ്കികളുടെ സമുദ്രാധിപത്യ~
ത്തിന്഼റെ അടിത്തറയാകെ ഇളകി.</p>

<p>	എന്നാല്഼ ഈ ഘട്ടത്തില്഼ ഭാഗ്യദോഷത്താല്഼ സാമൂതിരിയും
കുഞ്ഞാലിയും തമ്മില്഼ പിണങ്ങാന്഼ ഇടയായി. യുദ്ധത്തില്഼
നേരിട്ടുകൊണ്ടിരുന്ന നാശനഷ്ടങ്ങള്഼ പരിഹരിച്ച് നാവികപ്പ~
ടയുടെ ശക്തി ഉലയാതെ നിലനിര്഼ത്താന്഼ കുഞ്ഞാലിക്ക് വളരെ~
യധികം ധനം ചെലവുചെയ്യേണ്ടിവന്നു. അതിനാല്഼ നിശ്ചയ~
പ്രകാരമുളള കരം ഖജനാവില്഼ മുട്ടാതെ അടച്ചുപോരാന്഼ കഴി~
ഞ്ഞില്ല. മരയ്ക്കാര്഼ തന്നെ ധിക്കരിക്കുകയാണെന്നും, ഒരു
സ്വതന്ത്രരാജാവായിത്തീരാന്഼ ശ്രമിക്കുകയാണെന്നും സാമൂതിരി
ശങ്കിച്ചു. കത്തുന്ന തീയില്഼ എണ്ണയൊഴിക്കുന്ന ചില അനിഷ്ട~
സംഭവങ്ങളും ഉണ്ടായി.</p>

<p>	ഈ അവസരം പറങ്കികള്഼ വേണ്ടുംവണ്ണം വിനിയോഗിച്ചു.
എന്തിനധികം, സാമൂതിരിയും പറങ്കികളും തമ്മില്഼ കുഞ്ഞാലി~
ക്കെതിരായി സന്ധിചെയ്തു. കരയില്഼നിന്ന് സാമൂതിരിയും
കടലില്഼നിന്ന് പറങ്കികളും മരയ്ക്കാര്഼കൊട്ട ആക്രമിച്ചു.
അങ്ങനെ ചാലിയംകോട്ടയുടെ ഉപരോധനത്തിന് പറങ്കികള്഼
പകരം വീട്ടി. 1599 ആരംഭത്തിലാണ് ഈ ആക്രമണം നടന്നത്.
അത് പരാജയപ്പെട്ടപ്പോള്഼ സാമൂതിരിക്കു വാശികൂടി. പറ~
ങ്കികള്഼ അതില്഼നിന്നും മുതലെടുക്കാന്഼ വിട്ടുപോയില്ല. വീണ്ടും
കോട്ട ആക്രമിക്കുന്നതിനുമുന്പ് അവര്഼ പല നിബന്ധനകളും
സാമൂതിരിയുടെമേല്഼ അടിച്ചേല്഼പ്പിച്ചു. തന്഼റെ സേനയുടെ
ഒരുവിഭാഗത്തെ പറങ്കികളുടെ കീഴില്഼ പൊരുതാന്഼ വിട്ടുകൊടുക്കു~
ന്നതിനുപോലും തന്പുരാന്഼ നിര്഼ബന്ധനനായി. അങ്ങനെ വിദേ~
ശീയരുടെ കിങ്കരന്മാരായി ഇന്നാട്ടിലെ പടയാളികള്഼ ഇന്നാട്ടു~
കാരനായ ഒരു ധീരദേശാഭിമാനിയുടെ ഩേരേ നീങ്ങി; മരയ്ക്കാര്഼
കോട്ട തകര്഼ത്തു തരിപ്പണമാക്കി.</p>

<p>	കുഞ്ഞാലി ചിരകാലമായി തന്഼റെ കുടുംബക്കാര്഼ സേവി~
ച്ചുപോന്ന തന്പുരാന്഼റെ പാദങ്ങളില്഼ ആയുധം വച്ചു കീഴടങ്ങി.
മര഼യ്ക്കാരെ തടവുകാരനായി പിടിച്ചാല്഼ പറങ്കികള്഼ക്കു
വിട്ടുകൊടുക്കാമെന്നു സാമൂതിരി പ്രതിജ്ഞ ചെയ്തിരുന്നു.
അദ്ദേഹം എത്രതന്നെ കേണപേക്ഷിച്ചിട്ടും പറങ്കികള്഼ ആ
നിബന്ധനയില്഼ ഒരിളവും വരുത്തിയില്ല. അവര്഼ കുഞ്ഞാലിയെ
ബന്ധനസ്ഥനാക്കി. ഗോവായിലേക്കു കൊണ്ടുപോയി</p>

<p>-43-</p>

<p>കാരാഗൃഹത്തില്഼ പാര്഼പ്പിച്ചു. പിന്നീട് നിഷ്ഠൂരമായ രീതിയില്഼
വധിച്ചുകളയുകയും ചെയ്തു.</p>

<p>	അറബിക്കടലില്഼ അങ്ങോളമിങ്ങോളം ഉഗ്രപ്രഭ വീശിയ
ആ കൊളളിമീന്഼ അന്തരീക്ഷത്തില്഼നിന്നു മറഞ്ഞപ്പോള്഼ കേരള~
ക്കരയാകെ ഇരുളടഞ്ഞു.</p>

<p>-44-
		
	           പാഠം 12</p>

<p>		പ്ലാസ്ററിക്കുകള്഼</p>

<p>	ഇത് ഒരു പ്ലാസ്ററിക് യുഗമാണ്. ചുററും ഒന്നു നോക്കൂ.
അപ്പോള്഼ ഈ വസ്തുത ബോധ്യപ്പെടും. പുസ്തകസ്സഞ്ചി~
കള്഼ അധികവും പ്ലാസ്ററിക്കുകൊണ്ടാണ്. ലോഹപ്പെട്ടിക~
ളെക്കാള്഼ കനംകുറഞ്ഞവയാണ് അവ. വെളളം തട്ടിയാല്഼ തുണി~
സ്സഞ്ചികളെപ്പോലെ നനയുകയില്ല. അതുകൊണ്ടു തന്നെ~
യാണ് പ്ലാസ്ററിക്ക് സഞ്ചികളോട് നിങ്ങള്഼ക്ക് ഇത്ര പ്രിയം.
പേനയുടെ മുനയും ക്ലിപ്പുമൊഴിച്ചാല്഼ പിന്നെയെല്ലാം
പ്ലാസ്ററിക്കു തന്നെ. പ്ലാസ്ററിക്കു ചെരിപ്പുകളും സാര്഼വത്രിക~
മായിരിക്കുന്നു. കുടയുടെ പിടിയും പ്ലാസ്ററിക്കിന്഼റെ പിടി~
യിലായി. സ്ഫടികംപോലെ സുതാര്യമായ പ്ലാസ്ററിക്കു
സ്വിച്ച്, ഷേയ്ഡ്, വിദ്യുത് കന്പികളുടെ ആവരണം മുതലാ~
യവയിലെല്ലാം പ്ലാസ്ററിക്കുകളുടെ വിലാസം കാണാം. ഉടുപ്പു~
പോലും പ്ലാസ്ററിക്കായിത്തുടങ്ങിയിരിക്കുന്നു. നിങ്ങള്഼ക്ക്
പ്രിയപ്പെട്ട ടെറിലിന്഼ പ്ലാസ്ററിക്കിന്഼റെ ഒരു വകഭേദമാണ്.</p>

<p>-45-</p>

<p>ഇതൊരു പ്ലാസ്ററിക് യുഗമാണെന്ന് തെളിയിക്കാന്഼ ഇനി~
യെന്തു വേണം?</p>

<p>	മുന്഼കാലങ്ങളില്഼ ജീവിതസാമഗ്രികള്഼ നിര്഼മ്മിക്കാന്഼ മനു~
ഷ്യന്഼ ഉപയോഗിച്ചുപോന്നത് പ്രകൃതിദത്തമായ വസ്തു~
ക്കളാണ്. പാര്഼പ്പിടങ്ങള്഼ പണിയാനുളള കല്ല്, മരം, വസ്ത്ര~
നിര്഼മ്മാണത്തിനു വേണ്ട പരുത്തി, രോമം, പട്ട്, പാത്രങ്ങളും
മററു ഗൃഹോപകരണങ്ങളും ഉണ്ടാക്കാനാവശ്യമായ മണ്ണ്, മരം,
ലോഹങ്ങള്഼ മുതലായവയെല്ലാം പ്രകൃതിയുടെ സംഭാവനക~
ളാണ്. ആധുനികശാസ്ത്രത്തിന്഼റെ വികാസത്തോടുകൂടി
പ്രകൃതിസിദ്ധമായ പദാര്഼ത്ഥങ്ങളെക്കൊണ്ട് മനുഷ്യന്഼
തൃപ്തിപ്പെടാതായി. കൃത്രിമമായി അനേകം പുതിയ വസ്തു~
ക്കള്഼ അവന്഼ ഉണ്ടാക്കിത്തുടങ്ങി. അവയിലൊന്നാണ് പ്ലാസ്്ററിക്.
അതിന്഼റെ പ്രചാരം വര്഼ദ്ധിച്ചത് ഈ നൂററാണ്ടിലാണ്.</p>

<p>	മുന്഼പറഞ്ഞ ഉപകരണങ്ങള്഼ മാത്രമല്ല, കൃത്രിമമായ മനു~
ഷ്യാവയവങ്ങള്഼പോലും ഇന്നു പ്ലാസ്ററിക്കുകൊണ്ടു നിര്഼മ്മി~
ക്കുന്നു. മണ്ണ്, മരം, റബ്ബര്഼, പരുത്തി, ലോഹം മുത~
ലായവയുടെ സ്ഥാനമെല്ലാം പ്ലാസ്ററിക് പിടിച്ചെടുത്തിരി~
ക്കുന്നു. എത്ര ചൂടേല്഼പ്പിച്ചാലും മാററംവരാത്ത പ്ലാസ്ററിക്
കണ്ടുപിടിച്ചാല്഼ ലോഹംകൊണ്ട് ഇന്നു നിര്഼മ്മിക്കുന്ന പല
കാര്യങ്ങള്഼ക്കും പ്ലാസ്ററിക് മതി എന്നു വരും. ലോഹത്തെ~
ക്കാള്഼ കനംകുറവാണ്; വീണാല്഼ സ്ഫടികത്തെപ്പോലെ തകരു~
കയുമില്ല; ഈ ഗുണങ്ങള്഼ നിമിത്തം ലോഹത്തിന്഼റെയും സ്ഫ~
ടികത്തിന്഼റെയും സ്ഥാനം ഇപ്പോള്഼ തന്നെ പ്ലാസ്ററിക് കുറെ~
യൊക്കെ കൈയേറിയിരിക്കുന്നു. വീര്യമേറിയ രാസവസ്തു~
ക്കള്഼ക്ക് പ്ലാസ്ററിക്കില്഼ ഒരു മാററവും വരുത്തുവാന്഼ കഴിയുക~
യില്ല. അതിനാല്഼ മരുന്നുകളും അമ്ലങ്ങളും മററും സൂക്ഷിക്കാ~
നുളള പാത്രങ്ങള്഼ ഉണ്ടാക്കാന്഼ പ്ലാസ്ററിക്കാണ് സ്ഫടികത്തെ~
ക്കാള്഼ നല്ലത്.</p>

<p>	യഥേഷ്ടം രൂപഭേദം വരുത്താവുന്ന പദാര്഼ത്ഥത്തെയാണ്
പ്ലാസ്ററിക് എന്നു പറയുന്നത്. കോലരക്ക്, കാക്കപ്പൊന്ന്
മുതലായവ പ്രകൃതിയില്഼നിന്നു നേരിട്ടു ലഭിക്കുന്ന പ്ലാസ്ററി~
ക്കുകള്഼ക്ക് ഉദാഹരണങ്ങളാണ്. താപവും മര്഼ദ്ദവും ആവശ്യം
പോല഼ും കൂട്ടിയും കുറച്ചും പലതരം പ്ലാസ്ററിക്കുകള്഼
നിര്഼മ്മിക്കാം. കാര്഼ബണ്഼ എന്ന മൂലകത്തിന്഼റെ സംയുക്തങ്ങ~
ളാണ് പ്ലാസ്ററിക്കുകളെല്ലാം. ചായം ചേര്഼ത്ത് കൃത്രിമ
പ്ലാസ്ററിക്കുകള്഼ പല നിറത്തില്഼ ഉണ്ടാക്കുന്നു.</p>

<p> -46-</p>

<p>	പ്ലാസ്ററിക് രണ്ടുവിധമുണ്ട്- തെര്഼മോപ്ലാസ്ററിക്, തെര്഼~
മോസെററിങ്ങ് പ്ലാസ്ററിക്. ആദ്യത്തേത് ഉരുക്കി പുതിയ
സാധനങ്ങള്഼ ഉണ്ടാക്കാന്഼ യഥേഷ്ടം ഉപയോഗിക്കാം. രണ്ടാമ~
ത്തേത് ചൂടുകൊണ്ട് പരിണമിച്ചുകഴിഞ്ഞാല്഼ വീണ്ടും രൂപ~
പ്പെടുത്തിയെടുക്കാന്഼ സാധ്യമല്ല. കൂട്ടു വ്യത്യാസപ്പെടുത്തിയാല്഼
ആവശ്യാനുസരണം വിഭിന്നഗുണങ്ങളുളള പ്ലാസ്ററിക്കുകള്഼ നിര്഼~
മ്മിക്കാം. കടുപ്പമുളളതും കനം കുറഞ്ഞതുമായ പ്ലാസ്ററിക്കു~
കള്഼കൊണ്ട് ഉണ്ടാക്കുന്ന മേശ, കസാല, മുതലായ സാധനങ്ങള്഼
പ്രചാരത്തില്഼ വരുന്ന കാലം വിദൂരത്തല്ല. വീടിന്഼റെ ചുമരും
വാതിലും മേല്഼്പ്പുരയും എല്ലാം അചിരേണ പ്ലാസ്ററിക്കായി~
ത്തീര്഼ന്നേയ്ക്കാം. അങ്ങനെയായാല്഼ ഒരു സ്ഥലത്തുനിന്ന്
വേറൊരു സ്ഥലത്തേയ്ക്ക് ജോലി മാററമുണ്ടാകുന്പോള്഼ വീട്ടു
സാമാനങ്ങള്഼ കെട്ടിക്കൊണ്ടുപോകുന്നതുപോലെ വീടും കെട്ടി~
ക്കൊണ്ടുപോകാം. എന്തൊരു സൌകര്യം! പ്ലാസ്ററിക്കു വീടു~
കള്഼ക്കു വെളളയടിക്കേണ്ട; ചായം പൂശുകയും വേണ്ട. കഴുകി
വൃത്തിയാക്കാന്഼ വളരെ എളുപ്പമുണ്ടുതാനും.</p>

<p>	ഇങ്ങനെയെല്ലാമാണെങ്കിലും പ്ലാസ്ററിക്കുകൊണ്ട് ഒരു
വലിയ അസൌകര്യമുണ്ട്. പ്രകൃതിയില്഼നിന്നു ലഭിക്കുന്ന
വസ്തുക്കള്഼ കാലക്രമത്തില്഼ ദ്രവിച്ചു മണ്ണടിയുന്നതുപോലെ
പ്ലാസ്ററിക്കുകള്഼ അത്രവേഗത്തിലൊന്നും നശിച്ചുപോകയില്ല.
ഈടിന്഼റെ കാര്യത്തില്഼ ഇതൊരു മേന്഼മയാണ്. എന്നാല്഼ ഇത്
പരിസരദൂഷണത്തിന് ഇടയാക്കും എന്ന കാര്യം മറന്നുപോക~
രുത്. കേടുപററി ഉപയോഗശൂന്യമായ പ്ലാസ്ററിക് സാധനങ്ങള്഼
ചുററും കുന്നുകൂടിയാല്഼ അതൊരു ശല്യമായിത്തീരും! ഈ
ദോഷമില്ലാത്ത പ്ലാസ്ററിക്കുകള്഼ നിര്഼മ്മിക്കുന്ന കാര്യത്തില്഼
ശാസ്ത്രജ്ഞന്഼മാരുടെ ശ്രദ്ധ പതിഞ്ഞിരിക്കുന്നു.</p>

<p></p></body></text></cesDoc>