<cesDoc id="mal-w-science-botany-5jant" lang="mal">
<cesHeader type="text">
<fileDesc>
<titleStmt>
<h.title>mal-w-science-botany-5jant.txt</h.title>
<respStmt>
<respType>Electronic file created by</respType>
<respName>Central Institute for Indian Languages, Mysore</respName>
<respType>transferred into Unicode and CES format by</respType>
<respName>"Unicodify" software by Andrew Hardie</respName>
</respStmt></titleStmt>
<publicationStmt>
<distributor>UCREL (on behalf of CIIL)</distributor>
<pubAddress>Department of Linguistics, Lancaster University, Lancaster, LA1 4YT, UK</pubAddress>
<availability region="WORLD"></availability>
<pubDate>03-07-21</pubDate>
</publicationStmt>
<sourceDesc>
<biblStruct>
<monogr>
<h.title>ഡോ.എന്഼.സി. കുറുപ്പ്</h.title>
<h.author>സബ്സിഡിയറി ജന്തുശാസ്ത്രം
ഭാഗം I</h.author>
<imprint>
<pubPlace>India</pubPlace>
<publisher>Unknown - Book</publisher>
<pubDate>1985</pubDate>
</imprint>
<idno type="CIIL code">5jant</idno>
</monogr></biblStruct></sourceDesc></fileDesc>
<encodingDesc>
<projectDesc>Text collected for the CIIL Corpus, subsequently integrated into the EMILLE/CIIL Monolingual Written Corpora.</projectDesc>
<samplingDesc>Simple written text only has been transcribed. Diagrams, pictures and tables have been omitted. Sampling begins at page 26.</samplingDesc>
<editorialDecl><conformance level="1"></conformance></editorialDecl>
</encodingDesc>
<profileDesc>
<creation><date>03-07-21</date></creation>
<langUsage>Malayalam</langUsage>
<wsdUsage>
<writingSystem id="ISO/IEC 10646">Universal Multiple-Octet Coded Character Set (UCS).</writingSystem>
</wsdUsage>
<textClass>
<channel mode="w">print</channel>
<constitution type="composite"></constitution>
<domain type="public"></domain>
<factuality type="fact"></factuality>
</textClass>
<translations></translations>
</profileDesc>
<revisionDesc></revisionDesc>
</cesHeader>

<text><body>

<p></p>

<p>-1-
1
കോര്഼ഡേറുകള്഼
ആമുഖം</p>

<p>  ശരീരത്തിനു് കൂടുതല്഼ ബലം നല്കാനും, ശരീരത്തെ താങ്ങിനിര്഼ത്താനും
ഉപകരിക്കുന്ന യഥാര്഼ഥ നട്ടെല്ലുള്ള ജന്തുക്കളും, നട്ടെല്ലു് എന്നു 
#വിളിക്കാന്഼
വയ്യെങ്കിലും, അതിന്഼റെ മുന്നോടിയായ പ്രാഗ്കശേരു (നോട്ടോകോര്഼ഡ്)
ഉള്ള ജന്തുക്കളും ഉള്഼പ്പെട്ടതാണു് ഫൈലം കോര്഼ഡേററ എന്ന ജന്തുവിഭാഗം.
നട്ടെല്ലുള്ള ജീവികള്഼ ഉത്ഭവിച്ചതെന്നാണെന്നോ അവയുടെ പുര്഼വികര്഼ ആരാ~
യിരുന്നുവെന്നോ തീര്഼ത്തുപറയാന്഼ സാധ്യമല്ലെങ്കിലും, നട്ടെല്ലുള്ള ജീവികളായ
കോര്഼ഡേററുകള്഼ക്കു് ചില പ്രത്യേക സ്വഭാവവിശേഷതകള്഼ കാണാം. ഇത്തരം
സ്വഭാവവിശേഷതകളുടെ അടിസ്ഥാനത്തിലായിരിക്കാം ജന്തുവര്഼ഗത്തെ
ശാസ്ത്രീയമായി കശേരുകികള്഼ (vertebrates) എന്നും അകശേരുകികള്഼
(invertebrates) എന്നും രണ്ടു പ്രധാന വിഭാഗമായി തരംതിരിക്കാന്഼ പ്രസിദ്ധ~
ശാസ്ത്രകാരനായ ലാമാര്഼ക്കിനു് (1744-1829) സാധിച്ചതു്. ഈ രണ്ടു് വിഭാ~
ഗത്തിലും ഉള്഼പ്പെടാത്തതും എന്നാല്഼ കശേരുകികളോടു് ബന്ധപ്പെട്ട ശരീര~
ഘടനയുള്ളതുമായ ചില സമുദ്രജീവികളെ, ലാമാര്഼ക്കിനു ശേഷം, കണ്ടെത്തുകയു~
ണ്ടായി. ഇത്തരം ജീവികളെ പ്രോട്ടോകോര്഼ഡേററുകള്഼ എന്നു് നാമകരണം
ചെയ്തു. അപ്പോള്഼ ഇവയെക്കൂടി ഉള്഼ക്കൊള്ളിച്ചു് ഒരു വിഭജനം ആവശ്യമായി~ത്തീര്഼ന്നു. ഇതിനാലായിരിക്കാം 1888-ല്഼ ബാല്഼ഫര്഼ ൟഥാര്഼ഥ കശേരുകിക~
ളേയും പ്രോട്ടോകോര്഼ഡേററുകളേയും ചേര്഼ത്തു് കോര്഼ഡേററുകള്഼ എന്നു് 
#വിളി~
ച്ചതു്. ജീവദശയില്഼, എപ്പോഴെങ്കിലും, പ്രാഗ്കശേരു (notochord) ഉള്ള
ജീവികളെയാണു് കോര്഼ഡേററ എന്ന പേരിനാല്഼ വിവക്ഷിക്കുന്നതു്. ചില
കോര്഼ഡേററുകളില്഼, നോട്ടോകോര്഼ഡു് യാതൊരു വ്യതിയാനവുമില്ലാതെ ജീവി~
താവസാനം വരെ ഒരു അക്ഷീയ താങ്ങായി നിലനില്ക്കുന്നു. ഇപ്രകാരമുള്ള
കോര്഼ഡേററുകളെയാണു് പ്രോട്ടോകോര്഼ഡേററുകള്഼ എന്നു വിളിക്കുന്നതു്.
എന്നാല്഼ മററുള്ളവയില്഼ പ്രാഗ്കശേരു (notochord) ഭ്രൂണാവസ്ഥയില്഼ മാത്രം
കാണപ്പെടുന്നു; ഭ്രൂണം പൂര്഼ണവളര്഼ച്ചയെത്തുന്നതോടെ അതിന്഼റെ സ്ഥാനത്തു്
കശേരുദണ്ഡ് (verbral coloumn) പ്രത്യക്ഷപ്പെടുന്നു. ഇമ്മാതിരിയുള്ള
കോര്഼ഡേററുകളാണു് കശേരുകികള്഼ (നട്ടെല്ലികള്഼)</p>

<p>  ആദ്യകാലനട്ടെല്ലികളായ താടിരഹിതമത്സ്യ (agnatha)ങ്ങളും അകശേരു~
കികളായ എക്കിനോഡേമുകളും (echinoderms) ഒരേ തറവാട്ടുകാരായി കണ~
ക്കാക്കാം. ഒരു പക്ഷേ എക്കിനോഡേമുകളുടെ തറവാട്ടിലെ അംഗങ്ങളില്഼ 
നിന്നാൟിരിക്കും ആദിമനട്ടെല്ലികള്഼ ജന്മമെടുത്തതു്. താടിരഹിതമത്സ്യങ്ങ~
ളില്഼ നിന്നും കാലക്രമേണ താടിമത്സ്യങ്ങള്഼ ജ്ന്മമെടുത്തു. താടിരഹിതമത്സ്യ~
ങ്ങളും താടിമത്സ്യങ്ങളും അവയുടെ സങ്കേതമായി തിരഞ്ഞെടുത്തു് ശുദ്ധജലമാ~യിരുന്നു. ഇക്കൂട്ടര്഼ കാലക്രമേണ കടല്഼വെള്ളത്തിലേക്കു് എത്തിപ്പററി.
#മത്സ്യ~
ങ്ങള്഼ക്കു ശേഷം ഉഭയവാസികള്഼ ജന്മമെടുത്തു. അവ ജലവാസത്തില്഼ നിന്നും
കരയിലേക്കു കടന്നു് ജീവിതം നയിച്ചെങ്കിലും, അവയുടെ കരജീവിതം ഒരു
പൂര്഼ണവിജയമായിരുന്നില്ല. കര പൂര്഼ണമായും കീഴടക്കാനും, ൟഥാര്഼ഥ കരജീ~
വിതം നയിക്കാനും, അവരുടെ പിന്഼ഗാമികളായ ഇഴജന്തുക്കള്഼ക്കേ (reptiles)
സാധിച്ചുള്ളൂ. ഇക്കൂട്ടര്഼ അഭൂതപൂര്഼ണമാംവിധം വളര്഼ന്നു വികസിച്ചുവെങ്കിലും,
മിക്കവാറും എല്ലാ ജാതിതകളും, കാലക്രമത്തില്഼ നശിച്ചു നാമാവശേഷമായി.
ഇഴജന്തു (ഉരഗം)ക്കളില്഼ ജന്മമെടുത്ത രണ്ടു ശാഖകളില്഼ ഒന്നു് പക്ഷികളായി#പരി
ണമിക്കുകയും, മറേറതു് സസ്തനജീവികള്഼ക്കു് രൂപം നല്഼കുകയും ചെയ്തു.
സസ്തനങ്ങളുടേതാണല്ലോ ഈ യുഗം: പ്രത്യേകിച്ചു് മനുഷ്യേന്഼റതു്. മനുഷ്഼യന്഼(ഹോമോ സാപ്പിയന്഼സ്) ആണു് ഇന്നു് പരിണാമശ്രേണിയില്഼ ഏററവും
ഉന്നതമായി നിലക്കുന്ന നട്ടെല്ലുളള ജീവി.</p>

<p>      കശേരുകികളുടെ പ്രധാന ലക്ഷണങ്ങള്഼</p>

<p>  നട്ടെല്ലുള്ള ജന്തുക്കളെ (Chordates) മററു് ജീവികളില്഼ നിന്നു് 
#വേര്഼തിരിച്ച
റിയാന്഼ സഹായിക്കുന്നതു് മൂന്്നു പ്രധാന ലക്ഷണങ്ങളാണു്: അക്ഷീയാസ്ഥി~
വ്യൂഹം (പ്രാഗ്കശേര഼ു) മററു് ജീവികളില്഼ നിന്നു് വേര്഼തിരിച്ച~
നളികാകാരനാഡീദണ്ഡു്, ഗ്രസനിയുടെ ഇരുവശങ്ങളിലുമുള്ള സ്ഥിതിചെയ്യുന്ന
നളികാകാരനാഡീദണ്ഡു്, ഗ്രസനിയുടെ ഇരുവശങ്ങളിലുമുള്ള ഗില്഼പ്പഴുതു~
കള്഼. ഈ മൂന്നു് സവിശേഷതകളും, ഏതെങ്കിലുമൊരു ജീവിതദശയില്഼ (ഭ്രൂണാ~
വസ്ഥയിലോ പ്഼രൌഢാവസ്ഥയിലോ) കശേരുകികളില്഼ ദൃശ്യമാകുന്നു. വളര്഼ച്ച~
യെത്തുന്പോള്഼ ഇവയില്഼ ചിലതു് ചില ജന്തുക്കളില്഼ അപ്രത്യക്ഷമാകുന്നു.</p>

<p>1. അക്ഷീയാവസ്ഥിവ്യൂഹം (നോട്ടോകോര്഼ഡ്)</p>

<p>   പ്രാകൃതമായ അക്ഷീയാസ്ഥിയായ നോട്ടോകോര്഼ഡിന്഼റെ സാന്നിധ്യമാണു്
ഈ ജന്തുസമൂഹത്തെ കോര്഼ഡേററ എന്ന പേരിനര്഼ഹമാക്കിയതു്. തല മുതല്഼
വാല്഼ഭാഗം വരെ നീണ്ടുകിടക്കുന്ന അക്ഷീയാസ്ഥി (പ്രാഗ്കശേരു) അന്നനാള~
ത്തിന്഼റെ മേല്഼ഭാഗത്തായും നാഡീതന്തുവിന്഼റെ അടിഭാഗത്തായും സ്ഥിതി~
ചെയ്യുന്നു. നീണ്ടു ദണ്ഡാകൃതിയിലുള്ള നോട്ടോകോര്഼ഡ് രിക്തികായുത
-3-
കോശങ്ങളാല്഼ നിര്഼മിതമാണു്. ഈ അവയവം ശരീരത്തിനു് ഉറപ്പു നല്഼കുന്നു.
ഇതിനു ചുററും രണ്ടു പാളികള്഼ കൊണ്ടു് നിര്഼മിച്ച ഒരു കവചം ഉണ്ടു്.
താഴേക്കിടയിലുള്ള ചില കോര്഼ഡേററുകളില്഼ (പ്രോട്ടോകോര്഼ഡേററുകളില്഼)
നോട്ടോകോര്഼ഡ് ശരീരത്തിന്഼റെ പ്രദാന അക്ഷീയാധാരമായി ജീവിതകാലം
മുഴുവന്഼ നിലനില്഼ക്കുന്പോള്഼, മററു ചിലവയില്഼, ഇതു് ഭ്രൂണാവസ്ഥയിലോ
ലാര്഼വാദശയിലോ മാത്രമേ ഉണ്ടായിരിക്കുകയുള്ളൂ. എന്നാല്, ഒട്ടുമിക്ക
#കോര്഼~
ഡേററുകളിലും. ഈ അക്ഷീയാസ്ഥി ഭ്രൂണാവസ്ഥയില്഼ മാത്രം കാണപ്പെടുകയും
പിന്നീടു്, പ്രൌഢാവസ്ഥയെത്തുന്നതോടെ ഉപാസ്ഥിമയമായ നട്ടെല്ലു
കൊണ്ടോ അസ്ഥില നട്ടെല്ലുകൊണ്ടോ മുഴുവനായി പ്രതിസ്ഥാപിക്കപ്പെടുകയും
ചെയ്യുന്നു.</p>

<p>2. പൃഷ്ടാഗത്തെ നളികാകാരനാഡീതന്തു</p>

<p>  നളികാകാരമായ നാഡീതത്തു്, ശരീരത്തിന്഼റെ ഒരററം
മുതല്഼ മറേറയററം വരെ ഒററയായി, പൊള്ളയായി നീണ്ടുകിടക്കുന്നു. ഭ്രൂണ~
വളര്഼ച്ചാസമയത്തു് ബാഹ്യചര്഼മത്തില്഼ നിന്നും രൂപമെടുക്കുന്ന നാഡീ~
തന്തു അന്നനാളത്തിനും നോട്ടോകോര്഼ഡിനും മുകളിലായി സ്ഥിതിചെയ്യുന്നു.
ഭ്രൂണവളര്഼ച്ച ആരംഭിക്കുന്പോള്഼ ഒരു പരന്ന പ്ലേററുപോലെ പ്രത്യക്ഷപ്പെടുന്ന
ഈ നാഡീതന്തു, ക്രമേണ ഒരു ചാലുപോലെയും, അവസാനം ഒരു കുഴല്഼
പോലെയും ആയിത്തീരുന്നു. കുഴല്഼പോലുള്ള ഈ നാഡീദണ്ഡിന്഼റെ മുന്നററം
(പൂര്഼വാഗ്രം) വികസിച്ചു്, രൂപാന്തരപ്പെട്ടു഼മസ്തിഷ്കം ഉണ്ടാകുന്നു. അകശേ~
രുകികളില്഼ നാഡീതന്തു മൌലികമായി വ്യത്യാസപ്പെട്ടിരിക്കും.
-4-
3. ഗില്഼പ്പഴുതുകള്഼</p>

<p>  കോര്഼ഡേററുകളുടെ ഗ്രസനീഭിത്തിയില്഼, ഇരുവശങ്ങളിലുമായി, സ്ഥിതി~
ചെയ്യുന്ന യുഗ്മിത സുഷിരങ്ങളെ ഗില്഼പ്പഴുതുകള്഼ (gillits) എന്നു 
#വിളിക്കാം.
ഗ്രസനിയില്഼ നിന്നും ജലം പുറത്തേക്കു് വിടുക എന്ന പ്രാഥമിക ചുമതല നിറ~
വേററുകയാണു് ഗില്഼പ്പഴുതുകളുടെ ജോലി. താഴേക്കിടയിലുള്ള കോര്഼ഡേററുക~
ളില്഼ ഗില്഼പ്പഴുതുകള്഼ ജീവിതകാലം മുഴുവനും നിലനില്ക്കുന്നു. എന്നാല്഼ 
#മേലേ~
ക്കിടയിലുള്ളവയില്഼, മിക്കവാറും ഭ്രൂണാവസ്ഥയുടെ ഏതെങ്കിലും ദശയില്഼
മാത്രമേ, അതും ക്ഷണികഘടനകളായി (transient struuctures) കാണപ്പെടു~
ന്നുള്ളു. ഗ്രസനീഭിത്തിയുടെ ഇരുവശങ്ങളിലും പുറത്തേക്കുള്ള തള്ളല്഼ 
#ആയി~
ട്ടാണു്഼ഗില്഼പ്പഴുതുകള്഼ രൂപമെടുക്കുന്നതു്. ഇവ ക്രമേണ 
#ശരീരഭിത്തിയിലുണ്ടാ~
കുന്ന സംഗതമായ അകത്തള്ളലുകളുമായി യോജിച്ചു് തുടര്഼ച്ചയായ ദ്വാരങ്ങള്഼
ഉണ്ടാകുന്നു. മത്സ്യങ്ങളിലും ചില ഉഭയവാസികളിലും ഗില്഼പ്പുഴുതകള്഼ ഉപ~
യോഗിച്ചാണു് ശ്വസനം നടത്തുന്നതു്.</p>

<p>  കോര്഼ഡേററുകളുടെ ഇത്തരം മൂന്നു് പ്രധാനവും പ്രാഥമികവുമായ ലക്ഷണ~
ങ്ങള്഼ക്കു പുറമേ കശേരുകികള്഼ക്കു് മററനവധി സവിശേഷതകള്഼ കൂടി ഉണ്ടു്.
സാധാരണയായി ജലജീവികളും കരജീവികളുമായി വ്യത്യസ്ത പരിതസ്ഥിതി~
കളില്഼ ജീവിക്കാന്഼ അനുകൂലനം നേടിയ കശേരുകികളുടെ ശരീരഘടനയിലെ
അന്തരമായിരിക്കാം, ഈ സവിശേഷതകള്഼ക്കു കാരണം. മത്സ്യങ്ങളുടെ ശരീര
ഘടന ജലജീവിതത്തിനാവശ്യമായ രീതിയില്഼ രൂപാന്തരപ്പെട്ടിരിക്കുന്പോള്഼,
ഇതര കശേരുകികളായ ഉഭൟവാസികള്഼, ഉരഗങ്ങള്഼, പക്ഷികള്഼, സസ്തനങ്ങള്഼
എന്നിവയില്഼ കരജീവിതത്തിനുതകുന്ന ശരീരഘടനയാണുള്ളതു്. നട്ടെല്ലി~
(കശേരുകീ)കളില്഼ ആദ്യമായി കരജീവിതത്തിനു് രൂപാന്തരപ്പെട്ടതും കര~
ജീവിതം തുടങ്ങിയതും ഉഭയവാസികള്഼ ആണല്ലോ. ഇക്കാരണത്താല്഼ തന്നെ
ഇവയുടെ ശരീരഘടന വളരെ ലളിതമായിരിക്കുന്നു. ക്രമേണ, പരിണാമ 
വ്യതിയാനങ്ങള്഼ക്കുനുസൃതമായി, മററു് കരജീവികള്഼ കരയിലും ജീവിത~
ത്തിനനുസരണമായമി പുരോഗമിച്ചപ്പോള്഼, അവയുടെ അവയവഘടന കൂടുതല്഼
സങ്കീര്഼ണമായിത്തീര്഼ന്നു. ഇപ്രകാരമുണ്ടായ സ്വഭാവവൈചിത്ര്യങ്ങള്഼
താഴെപ്പറയുന്നവയാണു്.</p>

<p>ദ്വിപാര്഼ശ്വസമമിതി</p>

<p>  കശേരുകികകള്഼ ദ്വിപാര്഼ശ്വസമമിതി (bilateral symmetry) ഉള്ളവ~
യാണു്. ഇത്തരം ജീവിക഼ളില്഼ ശരീരാവയവങ്ങള്഼, ശരീരത്തില്഼ ഇരുപാര്഼ശ്വ~
ങ്ങളിലും ഏതാണ്ടു് ഒരേപോലെയായിരിക്കത്തക്കവണ്ണമോ ശരീരം ഇടത്തും
വലത്തുമായ രണ്ടു് സമഭാഗങ്ങളായി വിഭജിക്കാന്഼ തക്കവിധത്തിലോ സ്ഥിതി~
ചെയ്യുന്നു. മിക്കവാറും എല്ലാ പ്രധാന അവൟ഼വവ്യൂഹങ്ങളും ഇത്തരത്തില്഼
ദ്വിപാര്഼ശിതത്വം പ്രകടമാക്കുന്നുണ്ടു്. എന്നാല്഼, ജോഡിയായിട്ടുള്ള അവയവ~
ങ്ങല്഼ ഒരേ ആകൃതിയിലോ ഒരേ സ്ഥാനത്തിലോ ആയിരിക്കണമെന്നില്ല.
-5-
ദ്വിപാര്഼ശ്വസമമിതി കശേരുകികളുടെ ഒരു പ്രത്യേകതയാണെങ്കിലും ചില
അകശേരുകികളിലും കാണപ്പെടുന്നുണ്ടു്.</p>

<p>വിഖണ്ഡാവസ്ഥ
   അകശേരുകികളായ മണ്ണിരുകള്഼, ഷ്ടപദങ്ങള്഼ മുതലായവ ജന്തുക്കളില്഼ ശരീരം
പല ഖണ്ഡങ്ങളായി വിഭജിതമാണല്ലോ. അതുപോലെ, കശേരുകികളുടെ
ശരീരവും പല ഖണ്ഡങ്ങളായി വിഭജിച്ചിരിക്കുന്നു. തന്മൂലം, ഇവയുടെ ശരീര~
ത്തില്഼, സജന്മഘടകങ്ങളുടെ ഒരു ശ്രേണി തന്നെ കാണാം. താഴേക്കിടയിലുള്ള
കശേരുകികള്഼ ആന്തരികവും ബാഹ്യവുമായ ഖണ്ഡനസ്വഭാവം വ്യക്തമാക്കു~
ന്പോള്഼, മേലേക്കിടയിലുള്ളവ ബാഹ്യവിഭജനം വ്യക്തമാക്കുന്നില്ല. തന്നെയു~
മല്ല, ഇവയില്഼ ബാഹ്യഖണ്ഡനം നഷ്ടപ്പെടുകയും ചെയ്യുന്നു. അസ്ഥിവ്യൂഹം,
നാഡീവ്യൂഹം എന്നിവയില്഼ നിന്നു് ഖണ്ഡനസ്വഭാവം സ്പഷ്ടമായി മനസ്സി~
ലാക്കാം.</p>

<p>ശരീരവിഭജനം</p>

<p>  കശേരുകികളുടെ ശരീരം തല, ഉടല്഼, വാല്഼ എന്നീ മൂന്നു ഭാഗങ്ങളായി
വിഭജിക്കാം. മുന്നററമായ തലഭാഗത്തു് വായ്, താടിയെല്ലുകള്഼, മസ്തിഷ്കം,
തലയോടു്, സംവേദകാവയവങ്ങള്഼ മുതലായവ സ്ഥിതിചെയ്യുന്നു. ഉടല്഼
ഭാഗത്തു് ഹൃദയം, ശ്വാസകോശങ്ങള്഼ അന്നനാളഭാഗങ്ങള്഼. യകൃത്തു്,വൃക്കകള്഼
മുതലായ പ്രധാന അവയവങ്ങളും കരയില്഼ ജീവിക്കുന്ന കശേരുകികളുടെ
ഉടല്഼ഭാഗം വീണ്ടും കടിപ്രദേശമെന്നും, പൃഷ്ഠഭാഗമെന്നും രണ്ടായി വേര്഼~
തിരിച്ചിട്ടുണ്ടു്. മലദ്വാരത്തിനു് പിന്നിലായി വരുന്ന വാല്഼ഭാഗം സഞ്ചാര~
ത്തിനു് ഉപയോഗിക്കുന്നു.</p>

<p>തലയോടു്
  കശേരുകികളുടെ ശരീരത്തിന്഼റെ മൂന്നററത്തു്, തലയെ കൂടുതല്഼ ശക്തിപ്പെടു~
ത്താനും പ്രധാനമായും മസ്തിഷ്ക്കസംരക്ഷണത്തിനും വേണ്ടി തലയോടു്
കാണപ്പെടുന്നു. താഴേക്കിടയിലുള്ള മത്സ്യങ്ങളില്഼ (സ്രാവുകളില്഼) തലയോടു്
ഉപാസ്ഥി (കാര്഼ട്ടിലേജ്) നിര്഼മിതവും, മേലേക്കിടയിലുള്ള കശേരുകികളില്഼,
ദൃഢാസ്ഥി (ബോണ്഼) നിര്഼മിതവുമായിരിക്കും. മസ്തിഷ്ക്കത്തെക്കൂടാതെ തല~
യിലെ മററു് അവയവങ്ങളെ സംരക്ഷിക്കുകയും അവയുടെ പ്രവര്഼ത്തനങ്ങളെ
സഹായിക്കുകയുമാണു് തലയോടിന്഼റെ പ്രധാന ധര്഼മങ്ങള്഼.</p>

<p>ത്വക്കും ബാഹ്യാസ്ഥികൂടവും</p>

<p>  അകശേരുകികളുടേതില്഼ നിന്നും വിഭിന്നമായ ഒരു ബാഹ്യാവരണം മിക്ക
കശേരുകികളിലും കാണപ്പെടുന്നു. പലതരം കശേരുകികളില്഼,ഈ ബാഹ്യാ
വരണത്തിന്഼റെ ഘടന വിഭിന്നമായിരിക്കും. ഉദാഹരണാമായി, ശൂലമസ്഼ത്യ~
-6-
ത്തിന്഼റെ ബാഹ്യചര്഼മ (എക്റേറാഡേം)ത്തിനു് ഒരു നിര കോശത്തിന്഼റെ
കട്ടിയുള്ളപ്പോള്഼, മററു് കശേരുകികളുടെ അധിചര്഼മം (എപ്പിഡെര്഼മിസ്)നിര~
വധി നിര കോശങ്ങളുടെ അടുക്കുകളാല്഼ നിര്഼മിച്ചിട്ടുള്ളതാണു്. ബാഹ്യചര്഼മ~
ത്തില്഼ കാണപ്പെടുന്ന ശലക്ം, തൂവല്഼, രോമം, കൊന്പു്, ഗ്രന്ഥി എന്നിവ
അധിചര്഼മത്തിന്഼റെ സൃഷ്ടിയാണു്. എന്നാല്഼ പല്ലു്, അസ്ഥിശല്കം, വാരി~
യെല്ലുകള്഼, ചര്഼മാസ്ഥി എന്നിവ നിര്഼മിക്കുന്നതു് അന്തശ്ചര്഼മ 
#(എന്഼ഡോഡേം)
ത്തില്഼ നിന്നാണു്. അന്തശ്ചര്഼മം, അധിചര്഼മത്തേക്കാള്഼ സങ്കീര്഼ണവും രക്തധമ~നികള്഼, നാഡികള്഼, സംയോജനതന്തുക്കള്഼ മുതലായവ ഉള്഼ക്കൊള്ളുന്നതുകാരണം
പലവിധത്തിലുള്ള ബാഹ്യാവരണങ്ങള്഼ വിവിധ കശേരുകികളില്഼ കാണുമെന്നു്
പറഞ്ഞല്ലോ. മിക്ക മത്സ്യങ്ങളിലും ഈ ബാഹ്യാവരണം വിവിധ തരത്തി~
ലുള്ള ശല്കങ്ങളായിരിക്കും. ഉഭയവാസികളുടെ ബാഹ്യചര്഼മം പൊതുവേ
ഈര്഼പ്പമുള്ളതും മാര്഼ദേവമേറിയതും ശല്കങ്ങള്഼ ഇല്ലാത്തതുമാണു്. വിവിധ
രീതിയില്഼ രൂപാന്തരപ്പെട്ടിട്ടുള്ള ശല്കങ്ങള്഼ മിക്കവാറും എല്ലാ 
#ഇഴജന്തുക്കളിലും
കാണാം. പക്ഷികളുടെ കാലുകളും ശല്കങ്ങളാല്഼ മുടപ്പെട്ടിരിക്കുന്നു. പക്ഷി
ശരീരത്തില്഼ ശല്കങ്ങള്഼ തൂവലുകളായി രൂപാന്തരപ്പെട്ടിരിക്കുന്നു. സസ്തനങ്ങ~ളില്഼ കാണപ്പെടുന്ന രോമാവരണം ചൂട഼ു നിയന്ത്രിക്കുവാനുള്ള ഒരു ഉപാധിയാണു്.</p>

<p>കൈകാലുകള്഼</p>

<p>  ആകൃതിയിലും പ്രകൃതിയിലും അടുക്കിലും പ്രത്യേകതകളുളള കൈകാലുക~
ളാണു് കശേരുകികളുടേതു്. കശേരുകികളില്഼ താഴേക്കിടയിലുള്ള മത്സ്യ~
ങ്ങളുടെ ചിറകുകള്഼ മേലേക്കിടയിലുള്ള കശേരുകികളുടെ കൈകാലുകളുമായി
സാദൃശ്യമുള്ളവയാണല്ലോ. ചിറകുകള്഼ (പത്രങ്ങള്഼) ആയാലും കൈകാലുകള്഼
ആയാലും അംസഗര്഼ഡിലും (പെക്ടറല്഼ ഗര്഼ഡില്഼) ശ്രോണിഗര്഼ഡിലും (പെല്഼~
വിക് ഗര്഼ഡില്഼) ഉപയോഗിച്ചു് ശരീരത്തോടു ബന്ധിച്ചിരിക്കുന്നു. മത്സ്യങ്ങ~
ളിലെ പത്രങ്ങളും പക്ഷികളിലെ ചിറകുകളും മററു് കശേരുകികളുടെ കൈകാലു~
കളും തങ്ങളുടേതായ പ്രത്യേക ജീവിതത്തിനു് ഉതകുന്നവയാണു്. അസം ഗര്഼~
ഡില്഼ എല്ലാത്തരം കശേരുകികളിലും മാംസപേശികളാല്഼ ബന്ധിക്കപ്പെട്ടിരി~ 
ക്കുന്പോള്഼ ശ്രോണിഗര്഼ഡില്഼ നട്ടെല്ലിന്഼റെ പിന്നററത്തു് 
#ഘടിപ്പിച്ചിരിക്കുന്നു.</p>

<p>നാഡീവ്യൂഹം</p>

<p>  കശേരുകികളില്഼ നാഡീവ്യൂഹം വളരെ കേന്ദ്രീക൉തമായ ഒന്നാണു്. മസ്തി~
ഷ്ക്കവും സുഷുമ്നയുമാണു് പ്രധാന നിയന്ത്രണകേന്ദ്രങ്ങള്഼. മസ്തിഷിക്കത്തില്഼
നിന്നും സുഷ്മ്നയില്഼ നിന്നും ഉത്഼ഭവിക്കുന്ന അനവധി നാഡികള്഼ 
#(നെര്഼വുകള്഼)
ശരീരത്തിന്഼റെ നാനാഭാഗങ്ങളിലേക്കു് പോകുന്നു. ഇത്തരം നാഡികളുടെ
എണ്ണം പലപ്പോഴും താഴേക്കിടയിലും മേലേക്കിടയിലുമുള്ള കശേരുകികളില്഼
വ്യത്യസ്തമായിരിക്കും. മത്സ്യങ്ങള്഼, ഉഭയവാസികള്഼, ഇഴജന്തുക്കള്഼, പക്ഷി~കള്഼, സസ്തനങ്ങള്഼ എന്നിവയുടെ മസ്തിഷ്ക്കങ്ങളുടെ താരതമ്യപഠ഼നത്തില്഼~
-7-
നിന്നും അവയില്഼ ഉണ്ടായിരിക്കുന്ന സങ്കീര്഼ണമായ വ്യതിയാനങ്ങള്഼ എളുപ്പ~
ത്തില്഼ നമുക്കു് മനസ്സിലാക്കാന്഼ സാധിക്കുന്നു. മേലേക്കിടയിലുള്ള കശേരുകി~
കളില്഼ മസ്തിഷ്ക്കമാണു് സകല അവയവങ്ങളേയും നിയന്ത്രിക്കുന്ന കേന്ദ്രനാഡീ~
സ്ഥാനം.</p>

<p>സംവേദകാവയവങ്ങള്഼</p>

<p>   പ്രത്യേക രീതിയില്഼ സുസംഘടിതമായ കണ്ണുകള്഼ കശേരുകികള്഼ക്കു മാത്ര~
മുള്ളതാണല്ലോ. ശരീരത്തിന്഼റെ സംതുലനാവസ്ഥ നിയന്ത്രിക്കുന്നതിനുള്ള അവ~
യവങ്ങള്഼ ആന്തരകര്഼ണത്തില്഼ നിക്ഷിപ്തമായിരിക്കുന്നു. അര്഼ധവൃത്താകൃതി~
യിലുള്ള കുഴലുകളും അതോടനുബന്ധിച്ചുള്ള ഭാഗങ്ങളും അടങ്ങിയതാണിതു്.
മത്സ്യങ്ങളിലാകട്ടെ പ്രത്യേക രീതിയിലുള്ള കോശങ്ങളാല്഼ നിര്഼മിതമായ
പാര്഼ശ്വരേഖയും കാണപ്പെടുന്നുണ്ടല്ലോ. ഇത്തരം സംതുലനാവയവങ്ങള്഼ കശേ~
രുകികളുടെ മറെറാരു പ്രത്യേകതയായി കരുതാം.</p>

<p>പചനവ്യൂഹം</p>

<p>   കശേരുകികളുടെ അന്നനാളം താന്താങ്ങളുടെ ജീവിതരീതിക്കും ഭക്ഷണക്രമ~
ത്തിനും അനുയോജ്യമായ തരത്തില്഼, സങ്കീര്഼ണമായി രൂപാന്തരപ്പെട്ടിരി~
ക്കുന്നു. അന്നനാളം മുതല്഼ മലദ്വാരംവരെയുള്ള വിവിധ ഭാഗങ്ങള്഼ പലവിധ~
ത്തില്഼ വികസിതമായിട്ടുണ്ടു്. പചനവ്യൂഹത്തിന്഼റെ വിവിധ ഭാഗങ്ങള്഼
വ്യത്യസ്ത പ്രവര്഼്ത്തനങ്ങള്഼ക്കായി പരിണമിച്ചതാണു്. പചനവ്യൂഹത്തോട~
നുബന്ധിച്ച് യകൃത്ത്, അഗ്ന്യാശയം (പാന്഼ക്രിയാസ്) തുടങ്ങിയ അതിസങ്കീര്഼~
ണമായ സ്രവണാവയവങ്ങളും വികസിച്ചിട്ടുണ്ടു്.</p>

<p>ശ്വസനം</p>

<p>   അന്നനാളത്തിന്഼റെ മുന്഼വശത്തു് ഗ്രസനി എന്ന പ്രത്യേക ഭാഗമാണു് ശ്വസ~
നേന്ദ്രിയവുമായി ബന്ധപ്പെട്ടിരിക്കുന്നതു്. മത്സ്യങ്ങളില്഼ ഗ്രസനിയുടെ 
#പാര്഼ശ്വ~
ങ്ങളിലുള്ള ഗില്഼പ്പഴുതുകള്഼ രൂപാന്തരപ്പെട്ടു് ശ്വസനാവയവമായിരിക്കുന്നു.
ഇതിന്഼റെ പരിണാമഫലമായി കരജീവികളുടെ ശ്വാസകോശങ്ങള്഼ രൂപമെ~
ടുത്തു.  കരജീവികളില്഼ തന്നെ ശ്വാസകോശങ്ങള്഼ വ്യത്യസ്തമായി രൂപാന്തര~
പ്പെട്ടിരിക്കുന്നു. പക്ഷികളില്഼ ശ്വാസകോശങ്ങളോടു ബന്ധിച്ചു് ധാരാളം
വായുസഞ്ചികള്഼ കാണപ്പെടുന്നുണ്ടു്. ഉഭയവാസികളിലാകട്ടെ ത്വക്കും വായ്ക്കു~
ള്ളിലെ ചര്഼മവും ശ്വാസകോശങ്ങള്഼ക്കുപരിയായി ശ്വസനപ്രക്രിയയിലേര്഼പ്പെ~
ട്ടിരിക്കുന്നു.</p>

<p>രക്തപരിസഞ്ചരണം</p>

<p>   കശേരുകികിളില്഼ രക്തം ശേഖരിച്ചു വിതരണം ചെയ്യുന്നതിനു് ഒരു ഹൃദയം
വികസിതമായിട്ടുണ്ടു്. ഹൃദയത്തില്഼ നിന്നും രക്തം. രക്തവാഹിനിക്കുഴലുകള്഼
-8-
വഴി സൂക്ഷ്മധമനികളിലൂടെ പ്രവഹിച്ചു് ശരീരത്തിന്഼റെ നാനാബാഗങ്ങളിലെ~
ത്തിച്ചേരുകയും അവിടെനിന്നും രക്തക്കുഴലുകള്഼ വഴി വീണ്ടും ഹൃദയത്തില്഼
എത്തിച്ചേരുകയും ചെയ്യുന്നു. കശേരുകികളുടെ രക്തത്തില്഼ ഹീമോഗ്ലോബിന്഼
എന്ന വര്഼ണവസ്തു ഉള്ളതിനാല്഼ ചുവപ്പു് നിറമായിരിക്കുന്നു. വ്യക്തമായ 
#ഒന്നില~
ധികം അറകളോട കൂടിയതാണു് ഹൃദയം</p>

<p>വിസര്഼ജനം</p>

<p>  വൃക്കകള്഼ ആണു് കശേരുകികളുടെ വിസര്഼ജനാവയവങ്ങള്഼. പരിവര്഼ധന~
ദശയില്഼ മീസോഡേമില്഼ നിന്നും വൃക്കകള്഼ ഉടലെടുക്കുന്നു. വൃക്കകള്഼ ഘടനാ~
പരമായി മൂന്ന തരത്തിലുണ്ടു്. പ്രോനെഫ്രോസ് എന്നറിയപ്പെടുന്ന പ്രാഗ്~
വൃക്കകള്഼ താഴേക്കിടയിലുള്ള കശേരുകികളുടെ ശൈശവദശയിലാണു് മുഖ്യ~
മായും പ്രവര്഼ത്തനക്ഷമമാകുന്നതു്. ചിലതരം ഉപാസ്ഥിമത്സ്യങ്ങളില്഼ ഇതു്
ചെറുതും ഉപയോഗശൂന്യവും ആണു്. മേലേക്കിടയിലുള്ള കശേരുകികളിലാ~
കട്ടേ ഇതു് ഒരു അവശോഷഅംഗമായി (റൂഡിമെന്഼റി അവയവം) മാത്രം കാണ~
പ്പെടുന്നു. പ്രാഗ്വൃക്കകള്഼ രൂപാന്തരപ്പെട്ടുണ്ടായ മധ്യവൃക്ക 
#(മീസോനെഫ്രോസ്)
മത്സ്യങ്ങളിലും ഉഭയവാസികളിലും കാണപ്പെടുന്നു. മധ്യവൃക്കകള്഼ പ്രാഗ്വൃക്ക~
കളേക്കാള്഼ കൂടുതല്഼ പ്രവര്഼്ത്തനക്ഷമമാണു് പ്രാഗ്വൃക്കയുടെ പരിണാമഫല~
മായി മധ്യവൃക്കയും, മധ്യവൃക്ക പരിണാമം സംഭവിച്ചു് അനുവൃക്കയും (മെററാനെ~
ഫ്രോസ്) രൂപംപ്രാപിക്കുന്നു. ഇഴജന്തുക്കള്഼, പക്ഷികള്഼, സസ്തനങ്ങള്഼
#എന്നി~
വയില്഼ അനുവൃക്കകള്഼ ഏററവും സങ്കീര്഼ണഘടനയോടുകൂടി കാണപ്പെടുന്നു.</p>

<p>പരിവര്഼ധനം</p>

<p>  പ്രത്യുല്പാദനത്തില്഼ ബീജസംയോജനത്തിനു ശേഷം ഭ്രൂണം ശരീരത്തിനു
വെളിയിലോ ശരീരത്തിനുള്ളലോ വച്ചു് വളരുന്നു. സസ്തനങ്ങളില്഼, മിക്ക~
വാറും ഭ്രൂണം ഗര്഼ഭാശയത്തിനുള്ളിലാണു വളരുക. ഈ സമയം അതു് പ്ലാസെന്഼റാ
കൊണ്ടു് ഗര്഼ഭാശ഼ഭിത്തിയോടു് ബന്ധിച്ചിരിക്കും. പൊതുവേ പറഞ്ഞാല്഼
പരിവര്഼ധനം പ്രത്യക്ഷമോ പരോക്ഷമോ ആയിരിക്കും. പരോക്ഷമാണെ~
ങ്കില്഼ ഭ്രൂണം വളര്഼ന്നു വികസിച്ചു് ലാര്഼വയായി രൂപാന്തരരം 
#പ്രാപിക്കുന്നു. ഈ
ലാര്഼വ കുറച്ചു നാളത്തെ വളര്഼ച്ചയ്ക്കുശേഷം രൂപാന്തരണത്തിലൂടെ പ്രൌഢദശ~
പ്രാപിക്കുന്നു.</p>

<p>-9-
2
ഫൈലം കോര്഼ഡേററയുടെ വര്഼ഗീകരണം.</p>

<p>   ഫൈലം കോര്഼ഡേററയെ മൂന്നു് ഉപഫൈല (സബ്ഫൈലം) ങ്ങളായി
തരം തിരിക്കാം.</p>

<p>1. യൂറോകോര്഼ഡേററ</p>

<p>  'കടല്഼പീച്ചികള്഼' എന്നറിയപ്പെടുന്ന ഒരിനം ആദ്യകാലനട്ടെല്ലികളായ
ഇത്തരം ജീവികളെ ട്യൂണിക്കേററുകള്഼ എന്നും വിളിക്കാറുണ്ടു്. ശരീരത്തെ~
പൊതിഞ്ഞു് ഒരു കഞ്ചുകം അഥവാ ആവരണം ഉള്ളതിനാലാണു് ഇവയ്ക്കു്
ട്യൂണിക്കേററുകള്഼ എന്ന പേര്഼ വന്നതു്. കശേരുകികളുടെ പ്രധാന ലക്ഷണത്തി~
ലൊന്നായ നോട്ടോകോര്഼ഡ് ശൈശവദശ (ലാര്഼വ) യില്഼ വാല്഼ഭാഗത്തു
മാത്രമേ കാണപ്പെടുകയുള്ളൂ. അതുകൊണ്ടാണു് യൂറോകോര്഼ഡേററ എന്നു പേരു~
ലഭിച്ചതു്. പ്രൌഢാവസ്ഥയില്഼ നോട്ടോകോര്഼ഡു് അപ്രത്യക്ഷമാവുന്നു.
ഉദാഹരണം
	1. അസിഡിയ 		3.ബോട്രില്ലസ്
	2. ഹെര്഼ഡ്മാനിയ	4. പൈറോസോമ</p>

<p>2. സെഫാലോകോര്഼ഡേററ</p>

<p>   നട്ടെല്ലികളുടെ മൂന്നു് പ്രധാന സ്വഭാവങ്ങളും യഥാര്഼ഥ രൂപത്തില്഼ 
#പ്രകടമ഼ാ~
ക്കുന്ന സെഫാലോകോര്഼ഡേററുകള്഼ ആകൃതിയില്഼ മത്സ്യത്തോടു് സാദൃശ്യം
വഹിക്കുന്നു. ഇക്കൂട്ടരില്഼ നോട്ടോകോര്഼ഡു് ശരീരത്തിന്഼റെ ഒരററം മുതല്഼഼
#മറേറ~
യററം വ9െ നീണ്ടുകിടക്കുന്നു. മുന്നററത്തു് ഇതു് നാഡീതന്തുവിന്഼റേയും 
#മുന്പി~
ലായി മോന്തയുടെ അററംവരെ നീണ്ടിരിക്കുന്നതിനാലാണു് സെഫാലോകോര്഼
ഡേററ എന്ന പേരിന്നര്഼ഹമായതു് (സെഫാല്഼=തല).
-10-
ഉദാഹരണം
	1. ആംഫിയോക്സസ്
	2. എസിമട്രോണ്഼</p>

<p>3. വെര്഼ട്ടിബ്രേററ (കശേരുകികള്഼)</p>

<p>  ആയുഷ്ക്കാലം മുഴുവനും അനേകം കശേര഼ക്കളുള്ള നട്ടെല്ലോടുകൂടിയ ജന്തുക്ക~
ളെയാണു് ഈ വിഭാഗത്തില്഼ ഉള്഼പ്പെടുത്തിയിട്ടുള്ളതു്. 
#ലാന്പ്രിമത്സ്യങ്ങള്഼
മുതല്഼ സസ്തനജീവികള്഼ വരെയുള്ള നട്ടെല്ലികള്഼ ഇക്കൂട്ടക്കാരാണു്. ലാംപ്രി~
കള്഼ക്കു് താടിയെല്ലുകള്഼ ഇല്ലതന്നെ.താടിയെല്ലുകളും തലയോടും നട്ടെല്ലും
മററു് കശേരുകികളുടെ സവിശേഷതയാണു്. ഇത്തരം നട്ടെല്ലികളെ അഞ്ചു്
പ്രധാന `ക്ലാസ്സു'കളുമായി വിഭജിച്ചിരിക്കുന്നു:</p>

<p>ക്ലാസ്സ് 1. മത്സ്യങ്ങള്഼ (പിസെസ്)
""     2. ഉഭയവാസികള്഼ (ആംഫീബിയ)
""     3. ഉരഗഗങ്ങള്഼ (റെപ്ററീലിയ)
""     4. പക്ഷികള്഼ (ഏവ്സ്)
""     5. സസ്തനങ്ങള്഼ (മമ്മേലിയ)
-11-
3
ഉപഫൈലം യൂറോകോര്഼ഡേററ
   (ട്രൂണിക്കേററ)</p>

<p>സ്ഥാനബന്ധമോ പെലാജികമോ ആയി യൂറോകോര്഼ഡേററുകള്഼ ഏകാന്ത~
മായോ സമൂഹമായോ ജീവിക്കുന്നു. സെല്ലുലോസിനോടു ബന്ധപ്പെട്ട ഒരുതരം
പദാര്഼ഥം കൊണ്ടുണ്ടാക്കിയ ഒര കഞ്ചുകം (ആവരണം) കൊണ്ടു് ഇവയുടെ
ശരീരം മൂടപ്പെട്ടിരിക്കും. യൂറോകോര്഼ഡേററുകളെ പൊതുവെ ട്യൂണിക്കേററുകള്഼
എന്നോ, കടല്഼പ്പീച്ചിക0ല്഼ എന്നോ, അസിഡിയനുകള്഼ എന്നോ വിളിക്കാം.
ഇവയുടെ ഗ്രസനി വളരെ വിസ്തൃതവും ഏട്രിയവും, ഗില്഼പ്പഴുതകളും ഉള്഼ക്കൊ~
ള്ളുനനതുമായിരിക്കും. ഇവ ശൈശവദശയില്഼ വാല്഼മാക്രിയുടെ ആകൃതിയി~
ലാണു്. ലാര്഼വയുടെ വാല്഼ഭാഗത്തായി പൊള്ളയായ കേന്ദ്രനാഡീവ്യൂഹവും
ഒരു നോട്ടോകോര്഼ഡും കാണുന്നു. ഗ്രീക്കുതത്വചിന്തകനായ അരിസ്റേറാട്ടല്഼
(ബി.സി. 384-322) `ടെത്തിയം' എന്ന പേരില്഼ ഒരിനം ലഘു അസിഡിയ~
നെക്കുറിച്ചു് രേഖപ്പെടുത്തിയിട്ടുണ്ടു്. അതിനുുശേഷം സുമാര്഼ രണ്ടായിരത്തോളം
വര്഼ഷക്കാലം ഈ ജാതി ജന്തുക്കളെപ്പററി ആരംതന്നെ പഠനം നടത്തിയതായി
കാണുന്നില്ല. എന്നാല്഼ 1756 ല്഼ ഷ്ളോസ്സറും എല്ലിസ്സും കൂടി ഏതാനും
സമൂഹ അസിഡിയനെക്കുറിച്ചു് പഠനം നടത്തിയെങ്കിലും ജന്തുലോകത്തില്഼
ഇവയുടെ സ്ഥാനം അജ്ഞാതമായിത്തന്നെ അവശേഷിച്ചു. ഇക്കാലത്തു് പല
ജന്തുശാസ്ത്രജ്ഞന്മാരും, അസീഡിയനുകളെ മൊളസ്കന്഼ജീവികളായി തെററിദ്ധരി~
ച്ചിരുന്നു. എന്നിരുന്നാലും, ലാമാര്഼ക്കു് 1814 ല്഼ ഈ ജാതി ജന്തുക്കളെ 
#ട്യൂണി~
ക്കേററ എന്ന ഗ്രൂപ്പില്഼ ഉള്഼പ്പെടുത്തി വിവരിച്ചു.</p>

<p> പൊതുസ്വഭാവങ്ങള്഼</p>

<p>  ഒററയായോ, സമൂഹമായോ കാണപ്പെടുന്ന യൂറോകോര്഼ഡേററുകള്഼ സമുദ്രജല~
ത്തില്഼ എല്ലാ മേഖലകളിലും ജീവിക്കാന്഼ പര്യാപ്തമായവയത്രെ. ഇവയില്഼ മിക്ക~
-12-
വയും സ്ഥാനബദ്ധ (സെഡന്഼ററി) ജീവിക഼ളാണു്. ഇത്തരം ട്യൂണിക്കേററുകള്഼
അന്യവസ്തുക്കളില്഼ പററിപ്പിടിച്ചു് ജീവിക്കുന്നു. പല നിറങ്ങളിലുമുണ്ടു്, 
#യൂറോ~
കോര്഼ഡേററുകള്഼. അവയുടെ ശരീരം സുതാര്യവും പാരഭാസകവും ആയിരിക്കും.
വിഭിന്നമ഼ായ ശരീരാകൃതിയുള്ളവയും, ഏതാനും മില്ലീമീററര്഼ മുതല്഼ ഒരടി വരെ
വ്യാസമുള്ളവയുുമുണ്ടു്. ട്യൂണിസിന്഼ എന്ന പദാര്഼ഥത്താല്഼ നിര്഼മിതമായ തുകല്഼഼പോലുള്ള ഒരു കഞ്ചുകം (ആവരണം) കൊണ്ടു് ശരീരം മൂടപ്പെട്ടിരിക്കുന്നു. 
#ഇത്തരം
ട്യൂണിസിന്഼ ആവരണം ഉള്ളതാനാലായിരിക്കാം ഇക്കൂട്ടരെ ട്യൂണിക്കേററുകള്഼
എന്നു വിളിക്കുന്നതു്.</p>

<p>  യുറോകോര്഼ഡേററുകളുടെ ശരീരകുഞ്ചുകത്തിനു് രണ്ടു ദ്വാരങ്ങള്഼ കാണാം.
ഇവയിലൊന്നില്഼ക്കൂടി സുമദ്രജലം ഉള്ളിലേക്കു വലിച്ചെടുക്കുന്നതിനും മറേറ~
തില്഼കൂടി പുറത്തേക്കു് വിടുന്നതിനും കഴിയുന്നു. ഇവ ഓരോന്നും , ആവരണ~
ത്തിലുള്ള ഓരോ ചെറിയ കുഴല്഼പോലിരിക്കുന്ന പ്രക്ഷേപങ്ങളിലാണു് സ്ഥിതി~
ചെയ്യുന്നതു്. ഈ പ്രക്ഷേപ (Projection)ങ്ങളെ സൈഫണുകള്഼ എന്നു വിളി~
ക്കുന്നു. ഇതില്഼ ഒന്നാമത്തേതാണു് മുഖരന്ധ്രം (Oral opening): മറേറതു്
ഏട്രിയല്഼ രന്ധ്രം. ആന്തരവയവങ്ങള്഼ ഏട്രിയല്഼ കാവിററി (പരികോഷ്ഠദരം)~
യില്഼ സ്ഥിതിചെയ്യുന്നു. ഏട്രിയത്തിന്഼റെ മുക്കാല്഼ഭാഗത്തോളം വലുപ്പത്തില്഼
സ്ഥിചെയ്യുന്ന ഗ്രസനി ആണു് ഏററവും വലുപ്പം കൂടിയ ആന്തരാവയവം.
ഗ്രസനിയുടെ പാര്഼ശ്വഭിത്തിയില്഼ അനേകം ഗില്഼പ്പഴുതുകള്഼ കാണപ്പെടുന്നു.
സ്ററിഗ്മ എന്നറിയപ്പെടുന്ന ഈ ഗില്഼പ്പഴുതുകള്഼ പിരകോഷ്ഠദരത്തിലേക്കു്
തുറക്കുന്നു. ഗ്രസനിയുടെ ഉള്഼ഭാഗത്തായി അധരവശത്തു് എന്഼സോസ്റൈറല്഼
പൊഴിയും പൃഷ്ഠീയഭാഗത്തു് പൃഷ്ഠപടലവും കാണപ്പെടുന്നു. ഗ്രസനിഭിത്തിയുടെ
ഉള്഼വശത്തുള്ള അനേകം സീലിയങ്ങള്഼ അതിവേഗം ചലിക്കുന്നതിനാല്഼ പുറത്തു
നിന്നും കടല്഼വെള്ളം മുഖരന്ധ്രം വഴി ഉള്ളിലേക്കു് പ്രവഹിക്കുന്നു.
#ഗ്രസ഼നി~
യില്഼ എത്തിച്ചേരുന്ന ഈ ജലം അവിടെനിന്നും, ഗില്഼പ്പഴുതുകള്഼ വഴി 
#ഏട്രിയ~
ത്തിലെത്തു; പിന്നീടു് ഏട്രിയരന്ധ്രം വഴി പുറത്തേക്കും.</p>

<p>  അധരഭാഗത്തായി സ്ഥിതിചെയ്യുന്ന ഒരു ഹൃദയവും, കുറേ രക്തക്കുഴുലുകളും
ധാരാളം രക്ത സൈനസ്സുകളും ഉള്഼പ്പെട്ടതാണു്. യൂറോകോര്഼ഡേററുകളുടെ
രക്തപരിസഞ്ചരണവ്യൂഹം. ഇവയുടെ രക്തത്തില്഼ വിവിധതരം കണികകള്഼
അടങ്ങിയിട്ടുണ്ടു്.</p>

<p>   വിസര്഼ജനേന്ദ്രിയങ്ങള്഼ ഇത്തരം ജീവികളില്഼ പൊതുവെ കാണാറില്ല.
ഉണ്ടെങ്കില്഼ത്തന്നെ അവ ഒരിക്കലും നേരിട്ടു് പുറത്തേക്കു് തുറക്കാറില്ല.
#ട്യൂണി~
ക്കേററുകളുടെ നാഡീവ്യൂഹം, ഘനാകാരത്തിലുള്ള ഒരു നാഡീഗാംഗ്ളി~
യോണും, ഏതാനും നാഡികളും ചേര്഼ന്നുണ്ടായിരിക്കുന്നു</p>

<p>  കടല്഼പ്പീച്ചികള്഼ അലൈംഗികമായും, ലൈംഗികമായും പ്രത്യൂല്഼പാദനം
നടത്താറുണ്ടു്. സാധാരണ഼ായി അലൈംഗികപ്ര്യുല്പാദനം നടത്തുന്നതു്
മുകളനം എന്ന പ്രക്രിയവഴിയാണു്. മുകളനഫലമായി, ഒന്നു് മറെറാന്നിനോടു്
-13-
ബന്ധപ്പെട്ട പല സുവോയിഡുകള്഼ ചേര്഼ന്നു് വലിയ സമൂഹ കോളനികള്഼
രൂപമെടുക്കുന്നു. ഇത്തരം കോളനികളിലെ ജീവികളില്഼ ലൈംഗികാവയവ~
ങ്ങള്഼ സംയോജിതമായിരിക്കും. തന്നെയുമല്ല, ഓരോ പ്രത്യേക ജനനഗ്രന്ഥി
പോലും ഉഭയലിംഗികമാണു്. മിക്ക യൂറോകോര്഼ഡേററുകളും,അണ്ഡജനങ്ങളാണു്.
ഭ്രൂണപരിവര്഼ധനം പരോക്ഷമായിട്ടാണു് നടക്കുക. ജീവിതദശയില്഼, സ്വത~
ന്ത്രമായി നീന്തിനടന്നു ജീവിക്കുന്ന ഒരു ടാഡ്പോള്഼ ലാര്഼വ ഉണ്ടു്.
#ടാഡ്
പോള്഼ ലാര്഼വ കായാന്തരണം സംഭവിച്ചു് പ്രൌഢാവസ്ഥയെത്തിച്ചേരുന്നു.
കായാന്തരണ പ്രക്രിയയുടെ ഫലമായി ടാഡപോള്഼ ലാര്഼വയിലെ നാഡീ~
തന്തുവും, നോട്ടോകോര്഼ഡും അപ്രത്യക്ഷമാകുന്നതിനാല്഼ ഇത്തരം കായാന്ത~
രണത്തെ പ്രതിക്രമണ കായാന്തരണം(retograssive metamorphosis) എന്നു
വിളിക്കുന്നു. ഏതാനും ചില യൂറോകോര്഼ഡേററുകളുടെ ലാര്഼വകള്഼ പീഡോ
ജനസിസ് എന്ന പ്രതിഭാസം വഴി, കായാന്തരണം സംഭവിക്കാതെ തന്നെ
ലൈംഗികപക്വതനേടി പ്രൌഢാവസ്ഥയെത്താറുണ്ടു്.</p>

<p>  ലോകത്താകമാനമുള്ള കടല്഼വെള്ളത്തില്഼ സുമാര്഼ രണ്ടായിരത്തോളം വിവിധ~
തരം സ്ഥാനബദ്ധവും, നൂറോളം പെലാജികവുമായ യൂറോകോര്഼ഡേററുകള്഼
അധിവസിക്കുന്നതായി കണക്കാക്കിയിട്ടുണ്ടു്.</p>

<p>		അസിഡിയന്഼</p>

<p>  യൂറോകോര്഼ഡേററുകളില്഼ ഏററവും ലഘുവും, സ്ഥാനബദ്ധവുമായ ഒരു
ഏകാന്ത ജീവിയാണ഼ു് അസിഡിയന്഼. കടലോരപ്രദേശങ്ങളിലെ പാറക്കെട്ടുക~
ളുള്ള തീരപ്രദേശം മുതല്഼ സമുദ്രത്തിന്഼റെ അടിത്തട്ടുവരെയുള്ള എല്ലാവിധ
ആവാസസ്ഥാനങ്ങളിലും ഈ സ്ഥാനബന്ധ അസിസിയനുകള്഼ കാണപ്പെടുന്നു~
ണ്ടെങ്കിലും, മിക്ക ഇനങ്ങളും ആഴം കുറഞ്ഞ കടലോരപ്രദേശങ്ങളിലാണു് 
#ജീവി~
ക്കുന്നതു്. ഇവയുടെ ശരീരത്തിനു്, ഏതാണു് 10-15 സെന്഼റീമീററര്഼ വരെ നീള~
മുണ്ടായിരിക്കും. കട്ടികുടയതും, മങ്ങിയ, ചാരിനിറത്തോടു കൂടിയതുമായ
ആവരണം ഇതിനു് ഉണ്ടായിരിക്കും. പ്രൌഢാവസ്ഥയിലെത്തിയ അസിഡിയ~
നുകളുടെ ശരീരത്തിന്഼റെ പിന്നററം വിസ്തൃതമായി പാറകളോടോ മററു്
അന്യവസ്തുക്കളോടോ പററിപ്പിടിച്ചിരിക്കുന്നു. ശരീരത്തിന്഼റെ സ്വതന്ത്രമായ
മുന്നററത്തു് കാണപ്പെടുന്ന ദ്വാരത്തെ മുഖരന്ധ്രം എന്നു വിളിക്കാം. 
#മുഖര഼ഩ്ധ്ര~
ത്തിനു പിന്നില്഼, ഒരുവശത്തായി ഏട്രിയരന്ധ്രം കാണാം. മുഖരന്ധ്രത്തില്഼
കൂടി അകത്തേക്കു് കയറുന്ന കടല്഼വെള്ളം ഏട്രിയരന്ധ്രം വഴി പുറത്തേക്കു
പോകുന്നു. ഏതെങ്കിലും തരത്തില്഼ ശല്യപ്പെടുത്തിയാല്഼,അസിഡിയനുകള്഼,
ഏട്രിയരന്ധ്രംവഴി, ശക്തിയായി വെള്ളം പുറത്തേക്കു് ചീററുന്നു. ഈ പ്രത്യേക
സ്വഭാവം ഉള്ളതിനാലാണു് അസിഡിയനെ കടല്഼പ്പീച്ചി എന്നു വിളിക്കുന്നതു്.
മുഖരന്ധ്രം സ്ഥിചെയ്യുന്ന അഗ്രം മുന്നറററത്തേയും, പററിപ്പിടിച്ചിരിക്കുന്ന
പശ്ചഭാഗം പിന്നററത്തേയും,അതുവഴി ഏട്രിയരന്ധ്രം പൃഷ്ടഭാഗത്തേയും
-14-
സൂചിപ്പിക്കുന്നു. ശരീരത്തെ പൊതിഞ്ഞിരിക്കുന്ന കട്ടിയേറിയ കഞ്ചുകം 
#ട്യൂണി~
സിന്഼ എന്ന പദാര്഼ഥം കൊണ്ടു് നിര്഼മിക്കപ്പെട്ടിരിക്കുന്നു. 
#മുഖരന്ധ്രപ്രദേശത്തും,
ഏട്രിയരന്ധ്രപ്രദേശത്തും, രക്തവാഹിനികള്഼ കുഞ്ചുകത്തിലേക്കു പ്രവേശി~
ക്കുന്ന ഇടങ്ങളിലും, ഈ ആവരണം തൊട്ടുതാഴെയുള്ള ശരീരഭിത്തിയോടു്
ബന്ധപ്പെട്ടിരിക്കും. എന്നാല്഼ മററു ഭാഗങ്ങളില്഼, കഞ്ചുകം 
#ശരീരഭിത്തിയോടു്
ബന്ധപ്പെടാത്തതിനാല്഼, ഇതു് ഒരു അയഞ്ഞ ആവരണമായി സ്ഥിതി~
ചെയ്യുന്നു.</p>

<p>  ശരിരകഞ്ചുകത്തിനു് അടിയിലുള്ള ശരീരഭിത്തിയാക മാന്഼റില്഼ (പ്രാവാരം)
പൃഷ്ഠഭാഗത്തു കട്ടികൂടിൟതും, പേശീയവുമായിരിക്കുന്പോള്഼, അധരഭാഗത്തു് സുതാ~
ര്യവും സരളവും ആയിരിക്കും. മുന്നററത്തു് പ്രാവാരം ഒരു ചെറിയ 
#കുഴല്഼പോലെ
രൂപംപൂണ്ടു് മുഖരന്ധ്രപ്രദേശത്തെ കഞ്ചുകത്തോടു് ബന്ധപ്പെട്ടിരിക്കുന്നു. ഇതു
പോലെ ഏട്രിയരന്ധ്രപ്രദേശത്തും കുഴല്഼മാതിരിയായ പ്രാവാരം കഞ്ചുകത്തോടു്
ബന്ധപ്പെട്ടിരിക്കും. ഇതിനെ രണ്ടിനേയും അതാതു സൈഫണുകള്഼ എന്നു~
വിളിക്കാം. ഗ്രസനിയുടെ മധ്യ അധരഭാഗത്തു കൂടി പ്രാവാരം ഗ്രസിഭിത്തി~
യുമായി യോജിച്ചിരിക്കുന്നതിനാല്഼ ഏട്രിയദരം രണ്ടായി വിഭജിച്ചിരിക്കും
-15-
  സൂക്ഷ്മസമുദ്രജീവികളായ ക്രസ്റേറഷ്യനുകള്഼ ഡയററമുകള്഼, ആള്഼ഗകള്഼
എന്നിവയാണു് അസിഡിയന്഼റെ ഭക്ഷണവസ്തുക്കള്഼. ഗ്രസനിഭിത്തിയിലെ
സീലിയങ്ങളുടെ പ്രവര്഼ത്തനഫലമായി മുഖരന്ധ്രംവഴി ഉള്ളില്഼ പ്രവേശിക്കുന്ന
കടല്഼വെള്ളത്തില്഼ നിന്നും ക്ലോമസഞ്ചിയില്഼ വച്ചു് ആഹാരസന്പാദനം നട~
ക്കുന്നു. ഈ സമയത്തു് എന്഼ഡോസ്റൈറലിലെ ഗ്രന്ഥികോശങ്ങള്഼ പുറപ്പെടുവി~
ക്കുന്ന ശ്ലേഷ്മദ്രാവകം ആഹാരപദാര്഼ഥങ്ങളെ കുടുക്കി എന്഼ഡോസ്റൈറലിലെ
പൊഴിദയില്഼ കൂടി നീങ്ങുവാന്഼ സഹായിക്കുന്നു. അസിഡിയനില്഼ ഭക്ഷണം
ദഹിപ്പിക്കുവാന്഼ സഹായിക്കുന്ന പചനഗ്രന്ഥികളായ യകൃത്തും ജഠരനിര്഼ഗമ~
ഗ്രന്ഥിയും കാണപ്പെടുന്നു. പപനഗ്രന്ഥികളും പചനവ്യൂഹവും അസിഡിയ~
നുകളില്഼ വളരെയേറെ വികസിതമായിട്ടുണ്ടു് ആമാശയത്തില്഼ വച്ചു് ഭക്ഷണം
ദഹിക്കുന്നു. ദഹിച്ച ഭക്ഷണത്തിന്഼റെ അവശോഷണം അടുത്ത ഭാഗമായ
ആന്ത്രത്തില്഼ വച്ചാണു നടക്കുക.</p>

<p>   അസിഡിയന്഼റെ പ്രധാന ശ്വസനാവയവം ക്ലോമസഞ്ചിയാണു്. ഇതോ~
ടൊപ്പം തന്നെ ആവരണം (കുഞ്ചുകം)ഒരു ഉപശ്വസനാവയവമായും പ്രവര്഼ത്തി~
ക്കുന്നു. മുഖരന്ധ്രത്തില്഼ കൂടി അകത്തേക്കു വരുന്ന ജലം 
#ക്ലോമസഞ്ചിയിലെത്തു~
ന്പോള്഼, ക്ലോമഭിത്തിയിലെ രക്തസൈനസിലെ രക്തവും, വെള്ളവും തമ്മിലുള്ള~
വാതകമാററം നടക്കുന്നു. ജലത്തിലെ വിലയിത ഓക്സിജന്഼ രക്തത്തിലെ കലരു~
കയും, രക്തത്തില്഼ നിന്നും കാര്഼ബണ്഼ ഡൈഓക്സൈഡു് വെള്ളത്തിലേക്കു് കലരു~
കയും ചെയ്യുന്നു. കൂടാതെ ആവരണത്തിന്഼റെ ബാഹ്യപ്രതലത്തിനോടൊത്തു്
കാണപ്പെടുന്ന ആംപുളയിലെ രക്തത്തില്഼ നിന്നും ചുററമുള്ള ജലത്തില്഼ നിന്നും
ഒരു പരിധിവരെ വാതകമാററം നടക്കുന്നുണ്ടു്.</p>

<p>  രക്തസംവഹന വ്യൂഹത്തില്഼, ഹൃദയാവരണം കൊണ്ടു് പൊതിഞ്ഞ ഒരു
ഹൃദയവും വിവിധ രക്തവാഹിനികളും അനേകം സൈനസുകളും ഉള്഼പ്പെടുന്നു.
ആമാശയത്തിനടുത്തായിട്ടാണു് ഹൃദയം സ്ഥിതിചെയ്യുന്നതു്. ഹൃദയാവരണ~
ത്തിന്഼റെ ഭിത്തി ദൃഢവും, അതേസമയം സങ്കോചനശക്തിയില്ലാത്തതുമാണു്.
ഹൃദയഭിത്തി പേശീനിര്഼മിതമാണു്. ്സിഡിയനുള്഼പ്പടെയുള്ള ട്യൂണിക്കേററു~
കളില്഼ ഒരു പ്രത്യേക രീതിയിലാണു് ഹൃദയത്തിന്഼റെ പ്രവര്഼ത്തനം നടക്കു~
ന്നതു്. ഹൃദയം കുറേസമയം പൃഷ്ടഭാഗത്തു നിന്നും അധരഭാഗത്തേക്കാണു്
അടിക്കുന്നതെങ്കില്഼, പിന്നീടു് അധരഭാഗത്തുനിന്നും പൃഷ്ഠഭാഗത്തേക്കാണു്
പ്രവര്഼ത്തിക്കുന്നതു്. ഇപ്രകാരം, ഹൃദയത്തിന്഼റെ സങ്കോചന ദിശ്യയ്ക്കു് 
#അനുസ഼ൃ~
തമായി, പ്രധാന രക്തവാഹിനികളില്഼ക്കൂടിയുള്ള പരിസഞ്ചരണദിശയും
വ്യത്യാസപ്പെട്ടിരിക്കും. രക്തം. സുതാര്യവും, ചുവന്ന നിറത്തോടുകൂടിയതുമാണു്.</p>

<p>  രക്തത്തില്഼്ക്കൂടി സഞ്ചരിക്കുന്ന വൃക്കകോശിക (നെഫ്റോസൈററുകള്഼)
കളാണു് വിസര്഼ജനം നിര്഼വഹിക്കുന്നതെന്നു് കരുതപ്പെടുന്നു. വളരെ ലളിതമായ
ഒരു നാഡീവ്യൂഹമാണു് അസിഡിയനുള്ളതു്. മുഖരന്ധ്രത്തിനും, ഏട്രിയരന്ധ്ര~
ത്തിനും ഇടയിലുള്ള പ്രാവാരത്തില്഼ ഒരു നാഡീയ ഗാംഗ്ലിയോണ്഼ കാണപ്പെടുന്നു.
ഇതിന്഼റെ രണ്ടററത്തു നിന്നും ശരീരത്തിന്഼റെ വിവിധഭാഗങ്ങളിലേക്കു് നാഡി~
കള്഼ പുറപ്പെടുന്നു. നാഡീയ ഗാംഗ്ലിയോണിന്഼റെ അധരഭാഗത്തായി ഒരു
നാഡിഗ്രന്ഥി ഉണ്ടു്. കശേരുകികളിലെ ഹൈപ്പോഫൈസസിന്഼റെ ഒരു
-17-
ഭാഗത്തോടു്സമജാതമാണെന്നു് കരുതപ്പെടുന്ന നാഡീയ ഗ്രന്ഥി സ്രവണ
സ്വഭാവമുള്ളതാണു്.</p>

<p>  ലൈംഗികാവയവങ്ങള്഼ സംയോജിതമായാണു് അസിഡിയനില്഼ കാണ~
പ്പെടുന്നതു്. അതായതു്, ഒരേ അസിഡിയനില്഼ തന്നെ ആണ്഼ ഉത്പാദനാവ~
യവും പെണ്഼ ഉത്പാദനാവയവവും കാണാം. ശരീരത്തിന്഼റെ ഇടതുഭാഗത്തു്
ആന്ത്രവലയത്തിനിടയിലായാണു് അണ്ഡാശയവും വൃഷണവും. അണ്ഡാശയ~
ത്തിനോടു് ബന്ധപ്പെട്ടു് അണ്ഡവാഹിനിക്കുഴലും, വൃഷണത്തിനു് ബീജവാ~
ഹിനിയുമുണ്ടു്. രണ്ടും ഗുദത്തിനടുത്ത് പരികോഷ്ഠത്തിലേക്കു് തുറക്കുന്നു.
ഒരേ അസിഡിയനില്഼ തന്നെയുള്ള ഉത്പാദനാവയവങ്ങള്഼ പല സമയത്താണു്
പരിപക്വമാകുക. തന്മൂലം ഇവയില്഼ പരബീജസംയോജനമാണു് നടക്കുന്നതു്.</p>

<p>-18-
4
  ഉപഫൈലം: സെഫാലോകോര്഼ഡേററ</p>

<p> കോര്഼ഡേററുകളുടെ പ്രധാന മൂന്നു് മൌലിക സ്വഭാവങ്ങളും 
#പ്രദര്഼ശിപ്പിക്കുന്ന
ജന്തുക്കളാണു് സെഫാലോകോര്഼ഡേററുകള്഼. പ്രധാന സ്വഭാവമായ നോട്ടോ
കോര്഼ഡു് ഒരററം മുതല്഼ മറേറയററം വരെ നീണ്ടിരിക്കുന്നു. മുന്നററത്തു്
നോട്ടോകോര്഼ഡ്, നാഡീതന്തുവിന്഼റേയും മുന്പിലായി, മോന്തയുടെ അഗ്ര~
ഭാഗം വരെ നീണ്ടിരിക്കും. ഇക്കാരണത്താലായിരിക്കും, ഇത്തരം ജന്തുക്കളെ
സെഫാലോകകോര്഼ഡേററുകള്഼ എന്നു വിളിക്കുന്നതു്. സെഫാലോകോര്഼ഡേ~
ററുകളിലെ ആംഫിയോക്സസ്, എസിമട്രോണ്഼ എന്നീ രണ്ടു് ജീനസ്സുകളി~
ലായി ഉദ്ദേശം പതിനാറോളം സ്പീഷീസുകള്഼ സമുദ്രജലത്തില്഼ ജീവിക്കുന്നു. ഈ
ജന്തുക്കള്഼ക്കു് ശൂലാകൃതിയുള്ളതിനാല്഼ ഇക്കൂട്ടര്഼ പൊതുവെ 
#`ശൂലമത്സ്യ'ങ്ങള്഼
അഥവാ ""ലാന്഼സ്ലെററുകള്഼"" എന്നും അറിയപ്പെടാറുണ്ടു്. എല്ലാ സെഫാലോ~
കോര്഼ഡേററുകളിലും നോട്ടോകോര്഼ഡു് ജീവിതകാലം മുഴുവനും നിലനില്഼~
ക്കുന്നു. കൂടാതെ പൊള്ളയായ നാഡീതന്തുവും ഗില്഼പ്പഴുതുകളും ഇക്കൂട്ടരില്഼
കാണാം.</p>

<p>പൊതുസ്വഭാവം</p>

<p>  സെഫാലോകോര്഼ഡേററുകള്഼ എല്ലാം സമുദ്രജീവികളാണു്. ആഴം കുറഞ്ഞ്,
മണല്഼ നിറഞ്ഞ അടിത്തട്ടുള്ള എല്ലാ സമുദ്രതീരപ്രദേശങ്ങളിലും ഇക്കൂട്ടരെ #ധാരാ~
ളമായി കാണാം. എന്നാലും ഉഷ്ണമേഖലാ പ്രദേശങ്ങളിലെ സമുദ്രതീരങ്ങ~
ളാണു് ഇവയുടെ പ്രധാന ആവാസകേന്ദ്രം. ചൈനയുടെ തീരപ്രദേശങ്ങളില്഼
ഇത്തരം ജന്തുക്കളെ ശേഖരിച്ചു് ഭക്ഷണത്തിനു് ഉപയോഗിക്കാറുണ്ടു്. ഏകാ~
ന്തവാസം ഇഷ്ടപ്പെടുന്ന ഈ ജീവികള്഼ സമുദ്രതീരത്തു് മാളങ്ങള്഼ ഉണ്ടാക്കി അതിനുള്ളില്഼ വസിക്കുന്നു. നാലു മുതല്഼ അഞ്ചു സെന്഼റിമീററര്഼ വരെ നീള~
മുള്ളദ ശരീരം, പൊതുവേ പാരഭാസകമായിരിക്കും. ആംഫിയോക്സസിന്഼റെ
ശരീരം സമമിത സ്വഭാവം ഉള്ളതാണെങ്കിലും മറെറാരു സെഫാലോകോര്഼ഡേ~
-19-
ററായ എസിമട്രോണിന്഼റെ ശരീരം അസമമിതമാണു്. ശരീരത്തിന്഼റെ
ബാഹ്യബാഗം വളരെ മാര്഼ദവമായതും ബാഹ്യാസ്ഥികൂടം ഇല്ലാത്തതുമാണു്.
ശരീരത്തെ ആവര഼ണം ചെയ്തിരിക്കുന്ന ത്വക്കു് പിന്നററത്തു മുകള്഼ഭാഗത്തു് 
#ഒരു
പത്രപുടമായി രൂപാന്തരപ്പെട്ടു് വാലിനെ ചുററി, അടിഭാഗംവരെ നീണ്ടി~
രിക്കുന്നു. ക്രമാനുഗതമായ അന്഼പതില്഼പരം വിഖണ്ഡപേശികള്഼഼(മയോട്ടോ~
മുകള്഼) കൊണ്ടാണു് ശരീരഭിത്തി രൂപീകൃതമായിരിക്കുന്നതു്. വായ്മുന്നററത്തു്
അടിവശത്തേക്കു് തുറക്കുന്നു. പിന്നററത്തു് ചെറിയ വാലും, വാലിനെ ചുററി~
യുള്ള വാല്഼ച്ചിറകും കാണാം. വാലിന്഼റെ മുന്നററത്തു് അടിവശത്തായി ഗുദ~
ദ്വാരം സ്ഥിചെയ്യുന്നു. വായ്ക്കും ചുററും, സിലിയങ്ങളുള്ള ഇര഼ുപതു ജോഡി~
സംവേദകസിറസുകള്഼ ഉണ്ടു്.</p>

<p>  ശരീരത്തിനുള്ളില്഼ മുന്നററത്തു നിന്നു് പിന്നററം വരെ നോട്ടോകോര്഼ഡ്
സ്ഥിചെയ്യുന്നു. ഇതിനു മുകളിലായി നാഡീതന്തുവും, അടിയിലായി
സീലോമും കാണാം. ഈ സീലോമിലാണു് പചനാവയവങ്ങള്഼, വിസര്഼ജ~
നാവയവങ്ങള്഼ പ്രത്യുല്പാദനാവയവങ്ങള്഼ മുതലായവ സ്ഥിതിചെയ്യുന്നതു്.
സീലോമിനു് ചുററുമായി ഏട്രിയും കാണപ്പെടുന്നു. അധരവശത്തുള്ള ഒരു
പരികോഷ്ഠരന്ധ്രം (atrial opening) വഴി ഏട്രിയം പുറത്തേക്കു് തുറക്കുന്നു.
യൂറോകോര്഼ഡേററുകളിലേതു പോലെ ആംഫിയോക്സസിന്഼റെ ഗ്രസനിഭിത്തി~
യില്഼ ധാരാളം ഗില്഼പ്പഴുതുകള്഼ കാണാം. പരികോഷഠാദരമായ ഏട്രിയത്തി~
ലേക്കാണു് ഗില്഼പ്പഴുതുകള്഼ തുറക്കുന്നതു്. ശ്വാസോച്ഛ്വാസത്തിനും, ആഹാര~
സന്പാദനത്തിനും വേണ്ടി, സിലിയങ്ങളുടെ പ്രവര്഼ത്തനഫലമായി,എല്ലാ സമ~
യത്തും, വെളിയില്഼ നിന്നു് വായ്വഴി ജലം ഗ്രസനിയില്഼ എത്തുകയും
ഗില്഼പ്പഴുതുകളില്഼ കൂടി കടന്നു് പരികോഷ്ഠദരത്തില്഼ എത്തിച്ചേരുകയും
ചെയ്യുന്നു. ഇവിടെ നിന്നും ജലം പരികോഷ്ഠരന്ധ്രം വഴി ശരീരത്തിനു്
വെളിയില്഼ പോകും. ഗ്രസനിക്കു് പിന്നില്഼, അന്നപഥത്തിന്഼റെ ബാക്കി
ഭാഗം വളരെ ലഘുവും ഋജുവുമാണു്. പചനഗ്രന്ഥികള്഼ പ്രത്യേകമായിട്ടില്ലെ~
ങ്കിലും ,ആന്ത്രം തുടങ്ങുന്നിടത്തു്, അധരഭാഗത്തായി യകൃത്സീക്കം കാണപ്പെ~
ടുന്നുണ്ടു്.</p>

<p>  പ്രത്യേകമായി വ്യവച്ഛേദിക്കാവുന്ന ഒരു ഹൃദയം ഇല്ലെന്നതാണു് രക്ത
ചംക്രമണവ്യൂഹത്തിന്഼റെ പ്രത്യേകത. രക്തവാഹിനികള്഼, താഴേക്കിടയിലുള്ള
ജലജീവികളായ കശേരുകികളില്഼ കാണുന്നതിനോടു് സമാനമായിരിക്കും.
രക്തത്തില്഼ ഹീമോഗ്ലോബിന്഼ അടങ്ങയിട്ടില്ലാത്തതിനാല്഼ നിറമില്ല. ചില
തരം അകശേരുകികളുടെതുപോലുള്ള സഖണ്ഡവൃക്കകള്഼ (സസെഗ്മെന്഼റല്഼ നെഫ്രീ~
ഡിയം) വിസര്഼ജനാവയവങ്ങലായി പ്രവര്഼ത്തിക്കുന്നു. കേന്ദ്രനാഡീവ്യൂഹം,
നളികാകാരമായ നാഡീതന്തുവാണു്. ഇതു് പൃഷ്ഠഭാഗത്തു് ഒരററം മുതല്഼
മറേറയററം വരെ നീണ്ടുകിടക്കുന്നു. ഇതിന്഼റെ മുന്നററം വികസസിച്ചു് ഒര഼ു
#മസ്തി~
ഷ്കസഞ്ചിയായി രൂപംപ്രാപിച്ചിരിക്കും. ഇതിനോടനുബന്ധിച്ചു് രണ്ടു്
സംവേദകാവയവങ്ങള്഼ കാണപ്പെടുന്നു. മററു കശേരുകികളിലേതുപോലെ
-20-
നാഡീതന്തുവില്഼ നിന്നും വിഖണ്ഡനാഡികള്഼ പുറപ്പെടുന്നു. ഏകലിംഗികളായ
ഇക്കൂട്ടരില്഼, ജോഡിയായോ, അല്ലാതെയോ, കോഷ്ഠാകൃതിയില്഼ കാണുന്ന
ജനനഗ്രന്ഥികളാണ഼ു് പ്രത്യുല്പാദനാവയവങ്ങള്഼. ശരീരത്തിനു വെളിയില്഼
വച്ചാമു് ബീജസംയോജനം നടക്കുന്നതു്.</p>

<p>ആംഫിയോക്ലസ് ലാന്഼സിയോലേററസ്
  (ശൂലമത്സ്യം)</p>

<p>  പല്ലാസ് (1778) എന്ന ജര്഼മന്഼ ശാസ്ത്രജ്ഞന്഼ ആദ്യമായി ആംഫിയോക്സ~
സിനെക്കുറിച്ചു് പഠിക്കുകയും, കരയിലെ ഒച്ചിനോടുള്ള സാമ്യം കാരണം, ഒരു
മൊളസ്ക്കന്഼ ജീവിയായി കരുതുകയും ചെയ്തു. ഇദ്ദേഹം ഇക്കാരണത്താല്഼
ഇതിനെ ലൈമാക്സ് ലാന്഼സിയോലേററസ് (Limax lanceolatus) എന്നു്
നാമകരണം ചെയ്തു. എന്നാല്഼ 1834 ല്഼ ഇററലിയില്഼ കോസ്റേറ എന്ന ജീവ~
ശാസ്ത്രജ്ഞന്഼ നടത്തിയ പഠനങ്ങളുടെ അടിസ്ഥാനത്തില്഼, മത്സ്യരൂപിയായ
ഇവയ്ക്കു് കശേരുകികളോടുള്ള സാദൃശ്യം കാരണം ബ്രാങ്കിയോസ്േററാമ ലാന്഼സി~
യോലേററസ് (Branchiostoma lannceolatus) എന്നു് പുനര്഼നാമകരണം
ചെയ്തു. ഇവയുടെ വായ്ക്കു ചുററമുള്ള മുഖസിറസുകളെ (buccal cirri) ഗില്ലുക~
ളായി തെററിദ്ധരിച്ചാണു് ഇങ്ങനെ പേരിട്ടതു്. രണ്ടു വര്഼ഷത്തിനു ശേഷം
1836 ല്഼ യാറള്഼ എന്ന ശാസ്ത്രജ്ഞന്഼റെ ഗവേഷണഫലമായി, ജന്തുലോക~
ത്തില്഼ ഇവയുടെ സ്ഥാനം വ്യക്തമായി നിര്഼ണയിക്കപ്പെട്ടു. തന്നെയുമല്ല,
ആംഫിയോക്സസ് എന്ന സര്഼വസമ്മതമായ നാമം ഇത്തരം ജീവികള്഼ക്കു്
നല്഼കുകയും ചെൟ്തു. ഇതിനുശേഷം, മുള്ളര്഼ ഹക്സിലി, ലാങ്കെസ്ററര്഼
ആന്഼ഡ്രൂസ്, ഗുഡ്റിച്ച് തുടങ്ങി പലരും നടത്തിയ പഠനങ്ങള്഼ ആംഫിയോ
ക്സസിനെപ്പററിയുള്ള നമ്മുടെ അറിവു് വര്഼ധിപ്പിക്കുവാന്഼ സഹായിച്ചു.</p>

<p>
  മിക്ക സമയത്തും, ശുചിയായ മണലില്഼ സ്വയം നിര്഼മിച്ച മാളങ്ങളില്഼
ആംഫിയോക്സസ് തന്഼റെ മുന്നററം പുറത്തേക്കു് നീട്ടി അനങ്ങാതിരി~
ക്കുന്നു. ഇവയ്ക്കു് വളരെ വേഗം മണലില്഼ മാളങ്ങളുണ്ടാക്കാന്഼ കഴിയും. 
#മിക്ക~
വാറും പകല്഼സമയത്താണു് ഇവ ഇങ്ങനെ മണല്഼മാളങ്ങള്഼ക്കുള്ളില്഼ 
#കഴിഞ്ഞു~
കൂടുന്നതു്. പ്രത്യുല്പാദനകാലത്തും രാത്രിസമയത്തും ഇവ മാളങ്ങള്഼ക്കു്
പുറത്തുവന്നു് വെള്ളത്തില്഼ നീന്തി സഞ്ചരിക്കുന്നു. ചിലപ്പോഴൊക്കെ, മണല്഼~
പ്പുറത്തു് നിശ്ചലമായി ഒരുവശം തിരിഞ്ഞു കിടക്കുന്നതും കാണാം. ആംഫി~
യോക്സസസ് ലാര്഼വാദദശയിലും ബാല്യകാല ദശയിലും (തരുണ ആംഫിയോക്~
സസ്) പ്ലവകജീവിതം നയിക്കുന്നവയാണു്.</p>

<p>ബാഹ്യലക്ഷണങ്ങള്഼</p>

<p>   ശരീരം സുമാര്഼ 4-5 സെമീ. നീളമുള്ളതും രണ്ടററവും കൂര്഼ത്തതും ശൂലാകാ~
രവും, പാരഭാസകവും ആയിരിക്കും. പ്രത്യേകമായി വ്യവച്ഛേദിക്കാവുന്ന
തലയോ കൈകാലുകളോ ഇല്ലതന്നെ. മുന്നററം വളരെ സ്ഥൂലമായിരിക്കും.
-21-
മുന്നററത്തു നിന്നും, പിന്നിലേക്കു് ഏകദേശം മൂന്നില്഼ രണ്ടു ഭാഗം 
#നീളത്തില്഼
അധരപ്രതലം പരന്നിരിക്കുന്നു. ഈ ഭാഗത്തു് നെടുകേ വരന്പുകള്഼ പോലുള്ള
റിഡ്ജുകള്഼ കാണാം. ഈ ഭാഗത്തുക഼ൂടി ശരീരം കുറകേ മൂറിച്ചാല്഼ ഏതാണ്ടു്
ത്രികോണാകൃതിയില്഼ കാണപ്പെടും. ശരീരത്തിന്഼റെ പൃഷ്ഠഭാഗത്തു് മധ്യത്തില്഼
നിന്നും തുടങ്ങുന്ന ചര്഼മവലനം പിന്ന8റം വരെ നീണ്ടുകിടക്കുന്നു. ഇതിനെ
പൃഷ്ഠച്ചിറിക് എന്നു വിളിക്കുന്നു. ഇതു് പിന്നററത്തു് വീതികൂടി വാലിനെ
ചുററി, അധരഭാഗത്തു കൂടി, പിന്നില്഼ നിന്നും മൂന്നില്഼ ഒരുഭാഗംവരെ
എത്തുന്നു. വാലിനെ ചുററിയ ചര്഼മഭാഗത്തെ വാല്഼ച്ചിറകു് എന്നും അധര
ഭാഗത്തെ ചര്഼മവലനത്തെ അധരച്ചിറകു് എന്നും വിളിക്കാം. അധരച്ചിറ~
കിന്഼റെ മുന്നററം മുതല്഼ മുന്പോട്ടുള്ള ശരീരബാഗം പരന്നതാണു്. പാര്഼ശ്വീയ
വക്കുകള്഼ രണ്ടു് അനുദൈര്഼ഘ്യചിറകുകള്഼ പോലെ തള്ളിനില്഼ക്കുന്നു. ഇവയെ
അനുപാര്഼ശ്വകപുടങ്ങള്഼ (metapleural fold) എന്നു പറയുന്നു.</p>

<p>  ശരീരത്തിന്഼റെ മുന്നററത്തു് അടിവശത്തായി ഫണലാകൃതിയില്഼ കാണുന്ന
ദരത്തെ പ്രഘ്രാണം (വെസ്ററിബ്യൂള്഼) അഥവാ മുഖപഥം എന്നു വിളിക്കുന്നു.
മുഖപഥത്തിനു ചുററ഼ുമായി, മുഖച്ഛദവും മുഖച്ഛദത്തില്഼ നിറയെ സീലിയങ്ങളുള്ള,
ധാരാളം മുഖസിറസുകളും (buccal cirri) കാണും. മുഖച്ഛദം, പിന്഼ഭാഗത്തു്
അനുപാര്഼ശ്വകപുടങ്ങളുമായി യോജിക്കുന്നു. വെസ്ററിബ്യൂളിനുള്ളിലായിട്ടുള്ള
വീലം (velum) എന്ന സ്തരത്തിന്഼റെ മധ്യഭാഗമാണു് മുഖരന്ധ്രം (വായ്)
വിലത്തിനു് ചുററുമായി കാണപ്പെടുന്ന വീലസ്പര്഼ശകങ്ങള്഼ (velar tentacles)
ഗ്രസനിയുടെ നേര്഼ക്കു് തിരിഞ്ഞിരിക്കും. വീലത്തിന്഼റെ ആധാരത്തില്഼,
വെസ്ററിബ്യൂളിന്഼റെ ഭിത്തി വിരലിന്഼റെ ആകൃതിയിലുള്ള വരന്പുകളായി രൂപ~
പ്പെട്ടിരിക്കുന്നു. ഈ വരന്പുകളില്഼ (മടക്കുകളില്഼) നിരവധി 
#സീലിയങ്ങളുണ്ടു്.
ഈ സിലിയങ്ങളുടെ ഭിത്തി വിരലിന്഼റെ ആകൃതിയിലുള്ള വരന്പുകളായി രൂപ~
പ്പെട്ടിരിക്കുന്നു. ഈ വരന്പുകളില്഼ (മടക്കുകളില്഼) നിരവധി 
#സീലിയങ്ങളുണ്ടു്.
ഈ സീലിയങ്ങളുടെ പ്രവര്഼ത്തനഫലമായി, ചക്രം തിരിയുന്പോഴുണ്ടാകുന്നതു~
പോലെ ജലപ്രവാഹം ഉണ്ടാകുന്നു. ഇതിനാല്഼ ഈ പ്രദേശത്തെ വീല്഼ഓര്഼ഗന്഼
(Wheel organ) അഥവാ ചക്രാംഗം എന്നു വിളിക്കുന്നു. വെസ്ററിബ്യൂളിന്഼റെ
മുകള്഼ഭാഗത്താണു് സീലിയങ്ങളുള്ള ഒരു കഴിഞ്ഞ ഹാററ്ചെക്സ് `ഗര്഼ത്തം'
(hatcheck's pit) പിന്നററത്തു് അടിയില്഼, അധരച്ചിറകിനു് ഇടത്തുവശ~
ത്തായി ഗുദം (anus) സ്ഥിതിചെയ്യുന്നു. അധരച്ചിറകിന്഼റെ മുന്നിലാണു്
ഏട്രിയരന്്ധ്രം. ശരീരത്തിന്഼റെ മുന്നററത്തു് പൃഷ്ഠതലത്തില്഼ (മുകള്഼ 
#ഭാഗത്തു്)
ഒരു ചെറിയ ഘ്രാണഗര്഼ത്തം (olfactory pit) ഉണ്ടു്. ആംഫിയോക്സസിന്഼റെ
ശരീരം അര്഼ധസുതാര്യമായതിനാല്഼,ശരീരപേശികളും മിക്ക ആന്തരികാവയവ~
ങ്ങളും പ്രതലവീക്ഷണത്തില്഼ തന്നെ വ്യക്തമായി കാണാന്഼ സാധിക്കും.</p>

<p>  ആംഫിയോക്സസിനു് ബാഹ്യാസ്ഥികൂടം ഇല്ല. ശരീരഭിത്തി, പൃഷ്ഠ~
ഭാഗത്തു് വളരെ കട്ടികൂടിയതും, വര്഼ണകോശങ്ങള്഼ ഇല്ലാത്തതും ആയിരിക്കും.
-23-
അധിചര്഼മ നിര്഼മിതമായ ഉപചര്഼മം (അധ്യാവരണം) വളരെ മൃദുലവും, സുതാ~
ര്യവും ആണു്. സ്തംഭാകാരമോ (Columnar) ഘനാകാരമോ (cubical) ആയ
അധിചര്഼മം (epidermis) അധ്യാവരണത്തിനു് തൊട്ടു് അടിയിലായി
സ്ഥിതിചെയ്യുന്നു.തരുണാവസ്ഥയില്഼ ഇത്തരം കോശങ്ങള്഼ സിലിയമയമായി~
രിക്കും. അധിചര്഼മകോശങ്ങള്഼ ചിലതു് സംവേദകരോമങ്ങള്഼ ഉള്ളതും, മററു
ചിലതു് ഗ്രന്ഥികള്഼ ഉള്ളതും ആയിരിക്കും. അധിചര്഼മത്തിനടിയിലായാണു്
ചര്഼മം (dermis) ഒരുതരം വഴുവഴുപ്പുള്ള സംയോജനകലയാല്഼ നിര്഼മിതമായ
ചര്഼മത്തില്഼, നാഡികളും രക്തവാഹിനികളും. ചിലതരം നാരുകളും കോശ~
ങ്ങളും കാണാം. ചര്഼മത്തെ ബാഹ്യമായി, ഇടതൂര്഼ന്ന നാരുകളുള്ള ക്യൂട്ടിസ്
എന്നും ആന്തരികമായി, അയഞ്ഞ നാരുകളുള്ള ഉപക്യൂട്ടിസ് എന്നും രണ്ടായി 
തിരിക്കാവുന്നതാണു്.</p>

<p>പേശീവ്യൂഹം</p>

<p>  ആംഫിയോക്സസിന്഼റെ ശരീരഭിത്തിയില്഼, പൃഷ്ഠീയ ഭാഗത്തേയും
അധരബാഗത്തേയും ചിറക് വലനങ്ങള്഼ ഒഴികെ, മിക്ക ഭാഗങ്ങളും പേശീനിര്഼മി~
തമാണു്.ശരീരത്തിന്഼റെ ഇരുപാര്഼ശ്വങ്ങളിലും മയോട്ടോമുകള്഼ എന്നറിയ~
പ്പെടുന്ന, 50 മുതല്഼ 80 വരെ പേശീഖണ്ഡങ്ങളുണ്ടു്. മററു് കശേരുകികളിലേതു~
പോലെ മയോട്ടോമുകള്഼ പൃഷ്ഠഭാഗത്തു് സ്ഥൂലമായിരിക്കും. സംയോജനക~
ടിഷ്യു കൊണ്ടുള്ള സെപ്ററങ്ങള്഼, മയോട്ടോമുകളെ തമ്മില്഼ വേര്഼തിരിക്കുന്നു.
മയോകോമകള്഼ എന്ന ഈ സെപ്ററങ്ങള്഼ അധ്യാവരണത്തിലൂടെ പുറത്തു
കാണാം. ഓരോ മയോട്ടോമും ഇംഗ്ലീഷില്഼ `V' എന്ന അക്ഷരത്തിന്഼റെ ആകൃ~
തിയിലാണു് കാണുന്നതു്. ഇവയുടെ യോജിച്ച അഗ്രങ്ങള്഼ മുന്പോട്ടു് തിരി~
ഞ്ഞിരിക്കുന്നു. ഇരുവശങ്ങളിലുമുള്ള മയോട്ടോമുകള്഼, ഒന്നു് മറെറാന്നിനു്
നേരേയായിട്ടല്ല സ്ഥിതിചെയ്യുന്നതു്. ഓരോ മയോട്ടോമും, രേഖിത പേശീ~
തന്തുക്കളാല്഼ നിര്഼മിതമാണു്. ഓരോന്നും സംയോജകടിഷ്യു കൊണ്ടു നിര്഼മി~
തമായ ഉറകൊണ്ടു് പൊതിഞ്ഞിരിക്കും. ഈ ഉറയ്ക്കകത്തു് നെടുകേ പേശീ~
തന്തുക്കള്഼ വിന്യസിച്ചിരിക്കുന്നു.</p>

<p>  മയോട്ടോമുകളുടെ സങ്കോചവികാസം, ശരീരത്തില്഼ ദ്രുതഗതിയില്഼ ഏകാ~
ന്തരകന്പനം സൃഷ്ടിക്കുന്നു. ഇതുമൂലം, ശരീരത്തിന്഼റെ മുന്നററത്തു നിന്നും
പിന്നററത്തേക്കു് ക്രമാനുഗതമായി ഉണ്ടാകുന്ന ഒരു തരംഗം, ഇവയെ വെള്ള~
ത്തില്഼ നീന്തുന്നതിനു് സഹായിക്കുന്നു. ഈ സമയം, ശരീരം ഇരുപാര്഼ശ്വങ്ങ~
ളിലേക്കു് വളയുന്നതിനാല്഼, മണലില്഼ മാളങ്ങള്഼ ഉണ്ടാക്കുന്നതിനും, ഈ ചലന~പ്രവര്഼ത്തനം ഉപകരിക്കുന്നു. പൃഷ്ഠച്ചിറകും, അധരച്ചിറകും. ചലിപ്പിക്കാന്഼
കഴിയാത്തതിനാല്഼, ശരീരത്തിനു് സംതുലിതാവസ്ഥ കൈവരുത്തുന്നതിനോ,
സഞ്ചാരത്തിനോ, ചിറകുകള്഼ സഹായകമാകുന്നില്ല. ഏട്രിയപ്രദേശത്തു്,
അധരഭാഗത്തായി, കുറുകേ കാണപ്പെടുന്ന പ്രത്യേകതരത്തിലുള്ള അനുപ്രസ്ഥ~
പേശികള്഼, ഏട്രീയ ഭിത്തികളില്഼ സമ്മര്഼ദം ചെലുത്തുന്നതിനും, അതുവഴി
-24-
ഏട്രിയത്തിനുള്ളില്഼ വസ്തുക്കളുടെ നിര്഼ഗമനത്തിനും സഹായിക്കുന്നു. ഇത്തരം
പേശികള്഼ അധഃഏട്രിയപേശികള്഼ എന്നറിയപ്പെടുന്നു.</p>

<p>സീലോം</p>

<p>  മററു് കശേരുകികളിലെപ്പോലെതന്നെ, ഭ്രൂണത്തിന്഼റെ ആന്ത്രത്തില്഼
(ആര്഼ക്കെന്഼ററോണ്഼) നിന്നും ഉത്ഭവിക്കുന്ന ഒരു യഥാര്഼ഥ സീലോം ആംഫിയോ
ക്സസിലും കാണപ്പെടുന്഼ു. ആര്഼ക്കെന്഼ററോണില്഼ നിന്നും രൂപപ്പെടുന്ന
സീലോമായതിനാല്഼, ഇതിനെ ആന്ത്രഗുഹ (എന്഼ററോസീല്഼ം) എന്നു വിളിക്കാം.
തരുണാവസ്ഥയില്഼ (ലാര്഼വ ദശയില്഼) വ഼ളരെ വിശാലമായിരിക്കുന്ന ആന്ത്രഗുഹ
പ്രൌഢാവസ്ഥ പ്രാപിക്കുന്നതോടെ ചുരുങ്ങുന്നു. ആന്ത്രഗുഹ, പെരിട്ടോണിയം
എന്ന ഒരു നേര്഼ത്ത പാടയാല്഼ ആവരണം ചെയ്തിരിക്കും. ഗ്രസനിപ്രദേ~
ശത്തെ സീലോം ലോപിച്ചു് പൃഷ്ഠപാര്഼ശ്വീയഭാഗത്തു് ഒരു ജോഡി അനു~
ദൈര്഼ഘ്യവാഹികളായി കാണപ്പെടുന്നു. ഗ്രസനിയുടെ മധ്യാധരഭാഗത്തുള്ള
അധഃഎന്഼സോസ്റൈറല്഼ വാഹികയും സീലോമിന്഼റെ ഒരു ഭാഗമായി കരുതാം.
ഗ്രസനിക്കു് പിന്഼ഭാഗഗത്തു് സീലോം വളരെ വിശാലമായിരിക്കും. ഗ്രസനി~
പ്രദേശത്തു് ഏട്രിയവും ഗില്഼പ്പഴുതുകളും വളര്഼ന്നുവരുന്നതോടെയാണു് സീലോം
ചുരുങ്ങുന്നതു്. മേലേക്കിടയിലുള്ള കോര്഼ഡേററുകളില്഼, ഗ്രസനിരപ്രദേശത്തു്
സീലോം ചുരുങ്ങല്഼ വര്഼ധിച്ചു്, സീലോം പുര്഼ണമായും അപ്രത്഼യക്ഷമാകുന്നു.</p>

<p>  ആമാശയത്തിനു് (ജാരത്തിനു്) ചുററുമായി സാമാന്യം വലുപ്പമുള്ള സീലോം
കാണുന്നുണ്ടു്. ഇതിന്഼റെ മുന്഼ഭാഗം, യകൃത്സീക്കത്തെ ചുററുകയും, ഏട്രിയ~
ത്തിനു് പിന്നിലായിട്ടുള്ള സീലോം, ആമാശയത്തിനു് ഇടതുവശത്തു് വിശാ~
ലമായിരിക്കുകയും ചെയ്യും. വലതുവശത്തു് ഏട്രിയം പുറകോട്ടു് വലുതായി~
രിക്കുന്നതിനാല്഼ സീലോം ചുരുങ്ങിയിരിക്കും. പൃഷ്ഠ-പാര്഼ശ്വീയ സീലോ~
മികവാഹികളുടെ ചില തള്ളലുകള്഼ പത്യുല്഼പാദനാവയവങ്ങളെ വലയം
ചെയ്യുന്നു. പ്രത്യൂല്പാദനാവയവങ്ങള്഼ പൂര്഼ണവളര്഼ച്ചയെത്തുന്പോള്഼, ഈ
സീലോമികവാഹികള്഼, ഏട്രിയദരത്തിലേക്കു് തള്ളിനില്഼ക്കുന്നു. അനു~
പാര്഼ശ്വകപുടങ്ങളിലും ചെറിയ സീലോമികസ്ഥലങ്ങള്഼ കാണുന്നുണ്ടു്.</p>

<p>ഏട്രിയം (പരികോഷ്ഠദരം)</p>

<p>  പ്രൌഢാവസ്ഥയിലുള്ള ആംഫിയോക്സസിന്഼റെ ഗ്രസനിപ്രദേശത്തു്
അധരതലത്തിലും, പാര്഼ശ്വങ്ങളിലുമായി, വിശാലമായ ഒരു പരികോഷ്ഠദരം
സ്ഥിതിചെയ്യുന്നു. ഗ്രസനിഭിത്തിയിലുള്ള ഗില്഼പ്പഴുതുകള്഼ ഇതിലേക്കാണു്
തുറക്കുന്നതു്. പരികോഷ്ഠദരം അധരഭാഗത്തിന്഼റെ പിന്നിലായി, പരി~
കോഷ്ഠരന്ധ്റം വഴി പുറത്തേക്കു് തുറക്കുന്നു. ഈ പരികോഷ്ഠരന്ധ്റ
സ്ഥാനത്തിനും പിന്നിലായി ആന്ത്രത്തിന്഼റെ വശത്തുവശത്തുകൂടി നീണ്ടു് ഗുദം~
വരെ ഏട്രിയ വ്യാപിച്ചിരിക്കും. ഗ്രസനിയുടെ പിന്നിലായി, പരികോഷ്ഠ
ഒരത്തില്഼ നിന്നും ഓരോ വശത്തും, ഓരോ പ്രക്ഷേപം മുന്നോട്ടു നീണ്ടു്
-25-
സീലോമിക കനാലുകളിലേക്കു് തള്ളി സ്ഥിതിചെയ്യുന്നു. ഇതാണു് ബ്രൌണ്഼
നാളങ്ങള്഼ അഥവാ ഏട്രിയോ-സീലോമികകനാലുകള്഼. ബ്രൌണ്഼നാളങ്ങളുടെ
പ്രവര്഼ത്തനം ശരിയായി മനസ്സിലായിട്ടില്ലെങ്കിലും, ഇതിന്഼റെ അഗ്രഭാഗം
സീലോമികകനാലുക഼ിലേക്കു് തുറക്കുന്നുണ്ടെന്നു് പല ഗവേഷകരും രേഖപ്പെ~
ടുത്തിയിട്ടുണ്ടു്.</p>

<p>  ൟഥാര്഼ഥത്തില്഼, ബാഹ്യസീലോമിന്഼റെ ഒരുഭാഗം മാത്രമാണു് പരികോ~
ഷ്ഠദരം. രണ്ടു് അനുപാര്഼ശ്വകപുടങ്ങളുടേയും ഉള്഼ഭാഗത്തു നിന്നും വളര്഼ന്നു
വരുന്ന അധിപാര്഼ശ്വകങ്ങള്഼ പരസ്പരം യോജിച്ചാണു് ഏട്രിയം രൂപംകൊള്ളു~
ന്നതു്. ഇതിനാല്഼ ഏട്രിയത്തെ ശരീരഭിത്തിയുടെ അധിചര്഼മം കൊണ്ടു്
പൊതിഞ്ഞിരിക്കുന്നു. പ്രൌഢാവസ്ഥയില്഼ അനുപാര്഼ശ്വകകപുടങ്ങള്഼, അധി~
പാര്഼ശ്വകത്തെ അതിക്രമിച്ചു് താഴോട്ടു തള്ളിനില്ക്കുന്നതിനാല്഼,സീലോമിക~
ദ്രാവകം താഴോട്ടു് തള്ളിനില്഼ക്കുവാന്഼ സഹായിക്കുകയും, തദ്വാരരാ, സഞ്ചാര~
സമയത്തു്, ശരീരത്തിന്഼റെ സംതുലിതാവസ്ഥ നിലനിര്഼ത്തുകയും ചെയ്യുന്നു.
തന്നെയുമല്ല, മണലില്഼ മാളങ്ങള്഼ ഉണ്ടാക്കുന്ന സമയത്തു്, മണല്഼ത്തരികളില്഼
ഉരസി ശരീരം കേടുപററാതിരിക്കാനും സഹായകമാണു്. ഗ്രസനിയെ സംര~
ക്ഷിക്കുകയും ശരീരത്തിനുള്ളില്഼ ജലപരിവഹനം നടത്തുകയുമാണു് ഏട്രിയ~
ത്തിന്഼റെ പ്രധാന ചുമതല.</p>

<p>അസ്ഥിവ്യൂഹം</p>

<p>  ഉപാസ്ഥീയമോ, അസ്ഥിലമോ ആയ അസ്ഥികൂടം ആംഫിയോക്സസിനു്
ഇല്ലതന്നെ. എന്നാല്഼ വിശേഷപ്പെട്ട നോട്ടോകോര്഼ഡ് ടിഷ്യൂകളും ജലാ~
ററിന്഼മയ വസ്തുക്കളും കൊണ്ടു് നിര്഼മിതമായ അസ്ഥികൂടം കാണപ്പെടുന്നു.
മൌലിക ലക്ഷണങ്ങളില്഼ പ്രധാനമമകയ നോട്ടോകോര്഼ഡാണു് പ്രധാന അസ്ഥി.
ഇതു് അന്നനാളത്തിനു് മുകളിലായും നാഡീതന്തുവിനു് അടിയിലായും
സ്ഥിതിചെയ്യുന്ന ദൃഢമായ ഒരു ദണ്ഡാണു്. മധ്യഭാഗത്തു് സ്ഥൂലവും
രണ്ടററവും കൂര്഼ത്തുമിരിക്കുന്ന നോട്ടോകോര്഼ഡു്, മുന്നററത്തു് നാഡീതന്തുവി~
ന്഼റേയും മുന്നിലേക്കു് എത്തിയിരിക്കുന്നു. പ്രത്യേക രീതിയിലുള്ള, വലുപ്പം
കൂടിയ നോട്ടോകോര്഼ഡീയ കോശങ്ങള്഼ കൊണ്ടാണു് ഇതു് നിര്഼മിച്ചിരിക്കു~
ന്നതു്. നോട്ടോകോര്഼ഡിനെ ആവരണം ചെയ്തു്, തന്തുക്കള്഼ ധാരാളമുള്ള ഒരു
തരം സംയോജക ടിഷ്യുവാല്഼ നിര്഼മിതമായ രക്ഷാകവചമുണ്ടു്. ഇതു്
പൃഷ്ഠഭാഗത്തെ നാഡീതന്തുവിനെ പൊതിഞ്ഞിരിക്കുന്ന ആവരണവുമായും
മയോകോമേററയുമായും ബന്ധപ്പെട്ടിരിക്കുന്നു. നോട്ടോകാര്഼ഡ് കോശങ്ങ~
ളിലെ ദ്രാവകമര്഼ദം, പ്രസ്തുത ആവരണത്തിന്഼റെ പ്രതിരോധത്തിനു് എതിരായി
പ്രവര്഼ത്തിക്കുന്നതിനാല്഼ നോട്ടോകോര്഼ഡിനു്, അതിന്഼റെ ഇലാസ്തിക
സ്വഭാവം നിലനിര്഼ത്താനും മയോട്ടോമുകള്഼ സങ്കോചിക്കുന്പോള്഼ ശരീരം ചെറു~
താകുന്നതു തടയാനും സാധിക്കുന്നു.
-26-
  നോട്ടോകോര്഼ഡില്ലാതെ ചില അസ്ഥികളും ആംഫിയോക്സസില്഼
കാണപ്പെടുന്നു. ഇവ മുഖച്ഛദം, പൃഷ്ഠച്ചിറക്,അധരച്ചിറക്, ഗില്഼ബാ~
റുകള്഼ എന്നിവയുമായി ബന്ധപ്പെട്ടിരിക്കും. ഇത്തരം അവയവങ്ങള്഼, മിക്ക~
വാറും, സംയോജന ടിഷ്യുവിന്഼റെ രൂപത്തിലാണു് കാണപ്പെടുക. ചെറിയ
ദണ്ഡുരൂപത്തിലുള്ള ജലാററിന്഼മയ ടിഷ്യു കൊണ്ടു് നിര്഼മിച്ച ഒരു വളയമാണു്,
പ്രധാനമായും മുഖച്ഛദത്തെ ദൃഢപ്പെടുത്തുന്ന അസ്ഥികൂടം. ഒന്നിനു പിറകെ
ഒന്നായി സ്ഥിതിചെയ്യുന്ന ഈ അസ്ഥിക്കഷണങ്ങളുടെ എണ്ണം, മുഖരോമങ്ങ~
ളുടെ എണ്ണത്തിനു് തുല്യമായിരിക്കും. ഓരോ അസ്ഥിക്കഷണവും, ഓരോ മുഖ~
സിറസിന്഼റെയും ആധാരഭാഗത്താണു് കാണുന്നതു്. ഇവ സിറസിനെ ബലപ്പെ~
ടുത്തുന്നു. വീതികൂടിയതും, നീളം കുറ഼ഞ്ഞതുമായ ധാരാളം ജലാററിന്഼ 
#പിണ്ഡങ്ങ~
ളാമു് ചിറകുവലയങ്ങളെ ബലപ്പെടുത്തുന്നതു്. ഓരോ ജലാററിന്഼പിണ്ഡ~
ത്തേയും ദൃഢമേറിയ സംയോജനടിഷ്യു ആവരണം ചെയ്തിരിക്കും. ഇത്തരം
പിണ്ഡങ്ങളെ ചിറകുകകിരണങ്ങള്഼ (fin rays) അഥവാ സംയോജകടിഷ്യു ബോക്~
സുകള്഼ എന്നു വിളിക്കാം. ഇവ പൊതുവേ മയോട്ടോമുകളുടെ എണ്ണത്തെക്കാളും
കൂടുതലാണു്. ഗ്രസനീഭിത്തിയിലെ ഗില്഼ബാറുകള്഼, ഗില്഼ദണ്ഡുകള്഼ കോണ്ടു്
ബലപ്പെടുത്തിയിരിക്കും. ഈ ഗിര്഼ദണ്ഡുകള്഼ ഓരോ വശത്തേക്കും ചരിഞ്ഞി~
രിക്കുന്നു. ഇവയും ജലാററിന്഼മയ ടിഷ്യുകൊണ്ടാണു് നിര്഼മിച്ചിട്ടുള്ളതു്.
എന്഼സോസ്റൈറലിനു് താഴെയായി രണ്ടു് അനുദൈര്഼ഘ്യഅസ്ഥിഫലങ്ങള്഼
കാണപ്പെടുന്നു.</p>

<p>
",0
</p></body></text></cesDoc>