<cesDoc id="mal-w-translat-legal-act8" lang="mal">
<cesHeader type="text">
<fileDesc>
<titleStmt>
<h.title>mal-w-translat-legal-act8.txt</h.title>
<respStmt>
<respType>Electronic file created by</respType>
<respName>Central Institute for Indian Languages, Mysore</respName>
<respType>transferred into Unicode and CES format by</respType>
<respName>"Unicodify" software by Andrew Hardie</respName>
</respStmt></titleStmt>
<publicationStmt>
<distributor>UCREL (on behalf of CIIL)</distributor>
<pubAddress>Department of Linguistics, Lancaster University, Lancaster, LA1 4YT, UK</pubAddress>
<availability region="WORLD"></availability>
<pubDate>03-07-21</pubDate>
</publicationStmt>
<sourceDesc>
<biblStruct>
<monogr>
<h.title>****</h.title>
<h.author>ഔഷധങ്ങളും സൌന്ദര്യവര്഼ദ്</h.author>
<imprint>
<pubPlace>India</pubPlace>
<publisher>Unknown - Book</publisher>
<pubDate>1983</pubDate>
</imprint>
<idno type="CIIL code">act8</idno>
</monogr></biblStruct></sourceDesc></fileDesc>
<encodingDesc>
<projectDesc>Text collected for the CIIL Corpus, subsequently integrated into the EMILLE/CIIL Monolingual Written Corpora.</projectDesc>
<samplingDesc>Simple written text only has been transcribed. Diagrams, pictures and tables have been omitted. Sampling begins at page 8.</samplingDesc>
<editorialDecl><conformance level="1"></conformance></editorialDecl>
</encodingDesc>
<profileDesc>
<creation><date>03-07-21</date></creation>
<langUsage>Malayalam</langUsage>
<wsdUsage>
<writingSystem id="ISO/IEC 10646">Universal Multiple-Octet Coded Character Set (UCS).</writingSystem>
</wsdUsage>
<textClass>
<channel mode="w">print</channel>
<constitution type="composite"></constitution>
<domain type="public"></domain>
<factuality type="fact"></factuality>
</textClass>
<translations></translations>
</profileDesc>
<revisionDesc></revisionDesc>
</cesHeader>

<text><body>
<p></p>

<p>
-1-
ഔഷധങ്ങളും സൌന്ദര്യവര്഼ദ്ധക വസ്തുക്കളും
     ആക്ററ്, 1940
 (1940-ലെ 23-ാം നന്പര്഼ ആക്ററ്)
                   (1940 ഏപ്രില്഼, 10)</p>

<p>   ഔഷധങ്ങളുടേയും സൌന്ദര്യവര്഼ദ്ധക വസ്തുക്കളുടേയും ഇറക്കുമതിയും
നിര്഼മ്മാണവും വിതരണവും, വില്പനയും ക്രമപ്പെടുത്തുന്നതിനുള്ള ഒരു ആക്ററ്.</p>

<p>  ഔഷധങ്ങളുടേയും സൌന്ദര്യവര്഼ദ്ധക വസ്തുക്കളുടേയും ഇറക്കുമതിയും
നിര്഼മ്മാണവും വിതരണവും വില്പനയും ക്രമപ്പെടുത്തുന്നത് സമീചീനമായിരി~
ക്കുന്നതിനാലും;</p>

<p>    ഇന്഼ഡ്യാ ഗവണ്഼മെന്഼റ് ആക്ററ് 1935, 103-ാം വകുപ്പിന് അനുസരണമായി,
മേല്഼പ്പറഞ്ഞ ആക്ററ്, 7-ാം പട്ടിക II- ാം ലിസ്ററില്഼ എണ്ണിപ്പറയുന്ന 
#മുന്഼പറഞ്ഞ
വിഷയങ്ങളും അതിന് ആനുഷംഗികമായ  വിഷയങ്ങളും സംബന്ധിച്ച എല്ലാ 
സ്റേറററുകളിലേയും നിയമനിര്഼മ്മാണ മണ്ഡലങ്ങള്഼ നിശ്ചയിങ്ങള്഼ പാസ്സാക്കി~യിരിക്കുന്നതിനാലും;</p>

<p>ഇതിനാല്഼ താഴെപ്പറയും പ്രകാരം അധിനിയമം ചെയ്തിരിക്കുന്നു.</p>

<p> 		അദ്ധ്യായം I 
		പ്രാരംഭികം</p>

<p>ചുരുക്കപ്പേ~
രും, വ്യാപ്തി~
യും പ്രാരം~
ഭവും.</p>

<p>1. (1) ഈ ആക്ററിന് ഔഷധങ്ങളും സൌന്ദര്യവര്഼ദ്ധക വസ്തുക്കളും
ആക്ററ്, 1940 എന്നു പേര്഼ പറയാവുന്നതാണ്.</p>

<p>  (2) ഇത് ഇന്഼ഡ്യ മുഴുവന്഼ വ്യാപിക്കുന്നതാണ്.</p>

<p> (3) ഇത് ഉടനടി, പ്രാബല്യത്തില്഼ വരുന്നതാണ഼്,എന്നാല്഼ III- ാം
അദ്ധ്യായം, കേന്ദ്ര ഗവണ്഼മെന്഼റ് ഔദ്യോഗിക ഗസററില്഼ വിജ്ഞാപനംവഴി
ഇതിലേക്ക് നിശ്ചയിക്കാവുന്ന തീയതി മുതലും, IV -ാം അദ്ധ്യായം ഒരു 
#പ്രത്യേക~
സ്േററററില്഼, സ്റേറററ് ഗവണ്഼മെന്഼റ് അതുപോലുള്ള വിജ്ഞാപനംവഴി നിശ്ചയി~
ക്കാവുന്ന തീയതി മുതലും മാത്രം പ്രാബല്യത്തില്഼ വരുന്നതാണ്.</p>

<p>  എന്നാല്഼, ജമ്മു-കാഷ്മീര്഼ സ്റേറററ് സംബന്ധിച്ച്, III- ാം അദ്ധ്യായം,
മരുന്നുകളും സൌന്ദര്യവര്഼ദ്ധക വസ്തുക്കളും (ഭേദഗതി) ആക്ററ് 1972,
പ്രാബല്യത്തില്഼ വന്നതിനുശേഷം കേന്ദ്ര ഗവണ്഼മെന്഼റ് ഇതിലേക്ക് ഔദ്യോഗിക
ഗസററില്഼ വിജ്ഞാപനംവഴി നിശ്ചയിക്കാവുന്ന തീയതി മുതല്഼ മാത്രം
പ്രാബല്യത്തില്഼ വരുന്നതാണ്.</p>

<p>മററു നിയമങ്ങ~
ളുടെ ബാധകത 
തടയപ്പെടുന്നി~
ല്ലെന്ന്.
1930-ലെ 2.
നിര്഼വ്വചനങ്ങള്഼.</p>

<p>3. ഈ ആക്ററില്഼, സന്ദര്഼ഭത്തിലോ വിഷയത്തിലോ വിരുദ്ധമായി
എന്തെങ്കിലുമില്ലാത്തപക്ഷം-</p>

<p>(ക) "ആയൂര്഼വേദ (സിദ്ധ ഉള്഼പ്പെടെ) അല്ലെങ്കില്഼ യൂഩാനി മരുന്ന്"
എന്നതില്഼ ഒന്നാം പട്ടികയില്഼ വിനിര്഼ദ്ദേശിക്കുന്ന ആയുര്഼വേദവും 
#(സിദ്ധ ഉള്഼പ്പെടെ)
യൂനാനി (ടിന്യ) ഔഷധ സന്പ്രദായങ്ങള്഼ സംബന്ധിച്ച ആധികാരിക 
#ഗ്രന്ഥങ്ങളില്഼,
മനുഷ്യരിലുള്ള രോഗനിര്഼ണ്ണയത്തിനോ, ചികില്഼സക്കോ, രോഗശമനത്തിനോ,
രോഗപ്രതിരോധത്തിനോ, വേണ്ടിയോ അതിലോ, ആന്തരികമായോ ബാഹ്യമായോ
ഉപയോഗിക്കാന്഼ ഉദ്ദേശിച്ചു പറയുന്നതും ആ ഗ്രന്ഥങ്ങളില്഼ ഇനം 
#തിരിച്ചു
പറയുന്ന വിധിയനുസരിച്ചുമാത്രം സംസ്കാരിക്കുന്നതും നിര്഼മ്മിക്കുന്നതുമായ 
#എല്ലാ
ഔഷധങ്ങളും ഉള്഼പ്പെടുന്നു.</p>

<p>   (കക)  "ബോര്഼ഡ്" എന്നാല്഼ -</p>

<p>  (i) ആയുര്഼വേദമോ (സിദ്ധ ഉള്഼പ്പെടെ) അല്ലെങ്കില്഼ യൂനാനിയോ 
#മരുന്നു
സംബന്ധിച്ച് 33-ഗ വകുപ്പിന്഼കീഴില്഼ രൂപവത്കരിക്കുന്ന ആയൂര്഼വേദ-യൂനാനി
ഔഷധ സാങ്കേതിക ഉപദേശകബോര്഼ഡ് എന്നും;</p>

<p>  (ii) മറേറതെങ്കിലും മരുന്നോ സൌന്ദര്യവര്഼ദ്ധക വസ്തുവോ സംബന്ധിച്ച്
5-ാം വകുപ്പിന്഼കീഴില്഼ രൂപവത്കരിക്കുന്ന ഔഷധ സാങ്കേതിക ഉപദേശകബോര്഼ഡ്
എന്നും;
അര്഼ത്ഥമാകുന്നു.</p>

<p>  (കകക) "സൌന്ദര്യവര്഼ദ്ധകവസ്തു" എന്നാല്഼ മനുഷ്യശരീരത്തിലോ
അതിന്഼റെ ഏതെങ്കിലും ഭാഗത്തോ, വെടിപ്പാക്കുന്നതിനോ, സുന്ദരമാക്കുന്നതിനോ
ആകര്഼ഷകത വര്഼ദ്ധിപ്പിക്കുന്നതിനോ ഭാവഭേദപ്പെടുത്തുന്നതിനോവേണ്ടി,
തിരുമാനോ, ഒഴിക്കാനോ, തളിക്കാനോ, തൂവാനോ അല്ലെങ്കില്഼ ഉള്ളില്഼ 
#കഴിക്കാനോ
മററുവിധത്തില്഼ ഉപയോഗിക്കാനോ ഉദ്ദേശിക്കപ്പെടുന്ന ഏതെങ്കിലും സാധനം 
#എന്ന്
അര്഼ത്ഥമാകുന്നതും അതില്഼ സൌന്ദര്യവര്഼ദ്ധകത്തിന്഼റെ ഒരു ഘടകമായി ഉപയോ~
ഗിക്കാന്഼ ഉദ്ദേശിക്കപ്പെടുന്ന ഏതെങ്കിലും സാധനം ഉള്഼പ്പെടുന്നതും, 
#എന്നാല്഼ അതില്഼
സോപ്പ് ഉള്഼പ്പെടുന്നതല്ലാത്തതുമാകുന്നു:
-2-
   (ഖ) "ഔഷധം" എന്നതില്഼</p>

<p> (i) മനുഷ്യര്഼ക്കോ മൃഗങ്ങള്഼ക്കോ ആന്തരികമായോ ബാഹ്യമായോ
ഉപയോഗിക്കുന്നതിനുള്ള എല്ലാ ഔഷധങ്ങളും, മനുഷ്യരിലോ മൃഗങ്ങളിലോ ഉള്ള
രോഗനിര്഼ണ്ണയത്തിഩോ ചികില്഼സക്കോ, രോഗശമനത്തിനോ രോഗപ്രതിരോധത്തിനോ
വേണ്ടിയോ അവയിലോ   ഉപയോഗിക്കാന്഼ ഉദ്ദേശിക്കപ്പെട്ടിട്ടുള്ള എല്ലാ~
പദാര്഼ത്ഥങ്ങളും;</p>

<p>  (ii) മനുഷ്യശരീരത്തിന്഼റെ ഘടനയെയോ അതിന്഼റെ ഏതെങ്കിലും പ്രവര്഼~
ത്തനത്തെയോ ബാധിക്കുന്നതിനുദ്ദേശിക്കപ്പെടുന്നതോ അല്ലെങ്കില്഼ മനുഷ്യരിലോ
മൃഗങ്ങളിലോ രോഗം ഉണ്ടാക്കുന്ന കീടങ്ങളുടേയോ പ്രാണികളുടേയോ
നശീകരണത്തിന് ഉപയോഗിക്കുവാന്഼ ഉദ്ദേശിക്കപ്പെടുന്നതോ ആയി കേന്ദ്ര ഗവണ്഼~
മെന്഼റ് ഔദ്യോഗിക ഗസ്ററില്഼ വിജ്ഞാപനംവഴി അപ്പപ്പോള്഼ 
#വിനിര്഼ദ്ദേശിക്കാവുന്ന,
(ഭക്ഷ്യസാധനമല്ലാത്ത) പദാര്഼ത്ഥങ്ങളും:
ഉള്഼പ്പെടുന്നു.</p>

<p>  (ഗ) "ഗവണ്഼മെന്഼റ് അനലിസ്ററ്" എന്നാല്഼-</p>

<p>  (i) ആയൂര്഼വേദം (സിദ്ധ ഉള്഼പ്പെടെ ) അല്ലെങ്കില്഼, യൂനാനി
#മരുന്നു
സംബന്ധിച്ച്, കേന്ദ്ര ഗവണ്഼മെന്഼റോ സ്റേറററ് ഗവണ്഼മെന്഼റോ, 33 ഛ
#വകുപ്പിന്഼
കീഴില്഼ നിയമിച്ചിട്ടുള്ള ഒരു ഗവണ്഼മെന്഼റ് അനലിസ്ററ് എന്നും;</p>

<p>  (ii) മറേറതെങ്കിലും മരുന്നോ സൌന്ദര്യവര്഼ദ്ധക വസ്തുവോ സംബന്ധിച്ച്
കേന്ദ്ര ഗവണ്഼മെന്഼റോ സ്റേറററ് ഗവണ്഼മെന്഼റോ 20-ാം വക഼ുപ്പിന്഼കീഴില്഼
#നിയമി~
ച്ചിട്ടുള്ള ഒരു ഗവണ്഼മെന്഼റ് അനലിസ്ററ് എന്നും;
അര്഼ത്ഥമാകുന്നു.</p>

<p>  (ങ)  "ഇന്഼സ്പെക്ടര്഼" എന്നാല്഼ -</p>

<p> (i)ആയൂര്഼വേദ (സിദ്ധഉള്഼പ്പെടെ) അല്ലെങ്കില്഼ യൂനാനി മരുന്ന്
സംബന്ധിച്ച്, കേന്ദ്ര ഗവണ്഼മെന്഼റോ സ്റേററററ് ഗവണ്഼മെന്഼റേ 33ഛ 
#വകുപ്പിന്഼ 
കീഴില്഼ നിയമിച്ചിട്ടുള്ള ഇന്഼സ്പെകടര്഼ എന്നും;
അര്഼ത്ഥമാകുന്നു.</p>

<p> (ച) "ഉല്഼പ്പാദനം" എന്നതില്഼ ഏതെങ്കിലും മരുന്നോ സൌന്ദര്യവര്഼ദ്ധക
വസ്തുവോ സംബന്ധിച്ച്, ഏതെങ്കിലും മരുന്നോ സൌന്ദര്യവര്഼ദ്ധക വസ്തുവോ
അതിന്഼റെ വില്഼പനയും വിതരണവും ലക്ഷ്യമാക്കി, നിര്഼മ്മിക്കുന്നതിനോ, വ്യത്യാസ~
പ്പെടുത്തുന്നതിനോ, മോടിപിടിപ്പിക്കുന്നതിനോ, മിനുക്കപണി നടത്തുന്നതിനോ
പാക്ക് ചെയ്യുന്നതിനോ ലേബല്഼ ചെയ്യുന്നതിനോ, പൊളിച്ചെടുക്കുന്നതിനോ, മററു
വിധത്തില്഼ കൈകാര്യം ചെയ്യുന്നതിനോ  സ്വീകരിക്കുന്നതിനോ ഉള്ള ഏതെങ്കിലും
പ്രക്രിയയോ, പ്രക്രിയയുടെ ഭാഗമോ ഉള്഼പ്പെടുന്നതും, എന്നാല്഼ അതില്഼ 
#ചില്ലറ
വ്യാപാരത്തിന്഼റെ സാധാരണ ഗതിയിലുള്ള ഏതെങ്കിലും മരുന്നിന്഼റെ സമ്മിശ്രണമോ
വിതരണ഼മോ അല്ലെങ്കില്഼ ഏതെങ്കിലും മരുന്നിന്഼റേയോ സൌന്ദര്യവര്഼ദ്ധക
വസ്തുവിന്഼റെയോ പാക്ക്ചെയ്യലോ ഉള്഼പ്പെടുന്നതല്ലാത്തതും, "നിര്഼മ്മിക്കുക"
എന്നതിന് തദനുസരണം അര്഼ത്ഥം കല്പിക്കപ്പെടേണ്ടതുമാകുന്നു;</p>

<p>  (ഛ) "ഇറക്കുമതി" എന്നതിന് അതിന്഼റെ വ്യാകരണ സംബന്ധമായ
രൂപഭേദങ്ങളോടും സജാതീയപദങ്ങളോടുംകൂടി "ഇന്഼ഡ്യയിലേക്കു കൊണ്ടുവരിക"
എന്നര്഼ത്ഥമാകുന്നു.</p>

<p>  (ജ) "നിര്഼മ്മാണാവകാശക്കുത്തകയോ ഉടമസ്ഥതയോ ഉള്ള  ഔഷധം"
എന്നാല്഼ മനുഷ്യര്഼ക്കും മൃഗങ്ങള്഼ക്കും ആന്തരികമായോ ബാഹ്യമായോ ഉപയോഗി~
ക്കുന്നതിന് തയ്യാറാക്കിയ രൂപത്തിലുള്ള പ്രതിവിധിയോ ഔഷധവിധിയോ
ആയതും തല്഼സമയം പ്രാബല്യത്തിലുള്ള ഇന്഼ഡ്യന്഼ ഫാര്഼മാകോപ്യയുടെ പതിപ്പിലോ
അല്ലെങ്കില്഼ കേന്ദ്ര ഗവണ്഼മെന്഼റ് ബോര്഼ഡുമായി ആലോചിച്ചശേഷം ഇതിലേക്ക്
പ്രാധികാരപ്പെടുത്തിയ മറേറതെങ്കിലും ഫാര്഼മകോപ്യയിലോ ഉള്഼പ്പെടുത്തിയി~
ട്ടില്ലാത്തതുമായ ഒരു മരുന്ന് എന്നര്഼ത്ഥമാകുന്നു.</p>

<p>ജമ്മു-കാഷ്മീ~
ര്഼ സ്റേററില്഼
പ്രാബല്യത്തി~
ലില്ലാത്ത ഏ~
തെങ്കിലും നി~
യമത്തേയോ
നിലവിലില്ലാ~
ത്ത ഏതെങ്കി~
ലും കാര്യനിര്഼~
വ്വാഹകനേയോ~
കുറിച്ചുള്ള പ~
രാമര്഼ശങ്ങളു~
ടെ അര്഼ത്ഥ
കല്പന.</p>

<p> ഝ) "നിര്഼ണ്ണയിക്കപ്പെട്ട" എന്നാല്഼ ഈ ആക്ററിന്഼കീഴില്഼ ഉണ്ടാക്കി~
യിട്ടുള്ള ചട്ടങ്ങളാല്഼ നിര്഼ണ്ണയിക്കപ്പെട്ട എന്ന് അര്഼ത്ഥമാകുന്നു.</p>

<p>3ക ജമ്മു-കാഷ്മീര്഼ സ്റേറററില്഼ പ്രാബല്യത്തില്഼ ഇല്ലാത്ത ഏതെങ്കിലും
നിയമം സംബന്ധിച്ചോ നിലവിലില്ലാത്ത ഏതെങ്കിലും കാര്യനിര്഼വ്വാഹകനെ
സംബന്ധിച്ചോ ഈ ആക്ററിലുള്ള ഏതെങ്കിലും പരാമര്഼ശത്തിന് ആ സ്റേറററിനെ
സംബന്ധിച്ചിടത്തോളം, ആ സ്റേററില്഼ പ്രാബല്യത്തിലുള്ള തല്഼സ്ഥാനീയ
നിയമത്തേയോ നിലവിലുള്ള തല്഼സ്ഥാനീയ ഉദ്യോഗസ്ഥനേയോ സംബന്ധിച്ച
ഒരു പരാമര്഼ശമായി അര്഼ത്ഥം കല്പിക്കപ്പെടേണ്ടതാകുന്നു.
-3-
വിഷപദാര്഼~
ത്ഥങ്ങളെ സം~
ബന്ധിച്ചുള്ള
അനുമാനം.
  4. അദ്ധ്യായം III- ന്഼റേയോ, അദ്ധ്യായം IV- ന്഼റേയോ, അദ്ധ്യായം
IV ക-യുടേയോ കീഴില്഼ ഉണ്ടാക്കിയ ചട്ടത്തില്഼ വിഷ഼ലിപ്തമെന്ന് 
#വിനിര്഼ദ്ദേശിക്കുന്ന
ഏതെങ്കിലും പദാര്഼ത്ഥത്തെ അതതുസംഗതിപോലെ, അദ്ധ്യായം III- ന്഼റേയോ,
അദ്ധ്യായം IV- ന്഼റേയോ, അദ്ധ്യായം IV ക-ൟുടേയോ ആവശ്യങ്ങള്഼ക്ക് 
#വിഷലിപ്ത
പദാര്഼ത്ഥമെന്ന് കരുതേണ്ടതാകുന്നു.</p>

<p>
		അദ്ധ്യായം II</p>

<p>   ഔഷധ സാങ്കേതിക ഉപദേശകബേര്഼ഡും കേന്ദ്ര ഔഷധപരീക്ഷ~
ണനശാലയും   ഔഷധ കണ്഼സല്഼ട്ടേററീവ് കമ്മിററിയും</p>

<p>	ഔഷധ സാങ്കേ~
തിക ഉപദേശക
ബോര്഼ഡ്.</p>

<p>5. കേന്ദ്ര ഗവണ്഼മെന്഼റ്, ആകുന്നത്രവേഗത്തില്഼, ഔഷധ സാങ്കേതിക ഉപദേശക
ബോര്഼ഡ് എന്ന് വിളിക്കുന്ന ഒരു ബോര്഼ഡ്, ഈ ആക്ററിന്഼റെ പ്രശാസനത്തില്഼
നിന്നളവ഼ാകുന്ന സാങ്കേതിക വിഷയങ്ങളില്഼ കേന്ദ്ര ഗവണ്഼മെന്഼റിനേയും 
#സ്റേറററ്
ഗവണ്഼മെന്഼റിനേയും ഉപദേശിക്കാനും, ബോര്഼ഡിന് ഈ ആക്ററുമുഖേന 
#ഏല്഼പ്പിച്ചു
കൊടുക്കുന്ന മററു് ചുമതലകള്഼ നിര്഼വ്വഹിക്കാനുംവേണ്ടി , 
#രൂപവല്഼ക്കരിക്കേണ്ടതാണ്,
അതായത്;-</p>

<p> (2) ആ ബോര്഼ഡില്഼ താഴെപറയുന്ന അംഗങ്ങള്഼ അടങ്ങിയിരിക്കുന്നതാണ്,
അതായത്;-</p>

<p> (i) ഹെല്഼ത്ത് സര്഼വ്വീസസ് ഡയറക്ടററര്഼ ജനറല്഼, ഏക്സ്ഒഫിഷ്യോ,
അദ്ദേഹം ചെയര്഼മാന്഼ ആയിരിക്കുന്നതാണ്.</p>

<p> (ii) ഡ്രഗ്സ് കണ്഼ട്രോളര്഼, ഇന്഼ഡ്യാ, എക്സ് ഒഫിഷ്യോ;</p>

<p>(iii) ഡയറകടര്഼, കേന്ദ്ര-ഔഷധപരീക്ഷണശാല കല്഼ക്കട്ട, എക്സ്
ഒഫിഷ്യോ;</p>

<p> (iv) ഡയറക്ടര്഼, സെന്഼ട്രല്഼ റിസര്഼ച്ച് ഇന്഼സ്ററിട്യൂട്ട്, കശൌലി,
എക്സ് ഒഫിഷ്യോ;
 
(v) ഡയറക്ടര്഼,ഇന്഼ഡ്യന്഼ വെററിനറി റിസ഼ര്഼ച്ച് ഇന്഼ററിററ്യൂട്ട്, ഇസത്
നഗര്഼, എക്സ് ഒഫിഷ്യോ;</p>

<p>(vi) പ്രസിഡ഼ന്഼റ്, ഇന്഼ഡ്യന്഼ മെഡിക്കല്഼ കൌണ്഼സില്഼ എക്സ്
ഒഫിഷ്യോ;</p>

<p>(vii) പ്രസിഡന്഼റ് ഇന്഼ഡ്യന്഼ ഫാര്഼മസി കൌണ്഼സില്഼ എക്സ്
ഒഫിഷ്യോ,</p>

<p>(viii) ഡയറക്ടര്഼ സെന്഼ട്രല്഼ ഡ്രഗ്സ്റിസര്഼ച്ച് ഇന്഼സ്ററിട്യൂട്ട്,
ലക്നൌ, എക്സ് ഒഫിഷ്യോ;
 
(ix) സംസ്ഥാനങ്ങളില്഼ ഔഷധനിയന്ത്രണത്തിന്഼റെ ചുമതലയുള്ള ആളു~
കളുടെ ഇടയില്഼നിന്നും കേന്ദ്ര ഗവണ്഼മെന്഼റ് നാമനിര്഼ദ്ദേശം ചെയ്യേണ്ട 
#രണ്ട്
ആളുകള്഼;</p>

<p> () ഒരു ഇന്഼ഡ്യന്഼ സര്഼വ്വകലാശാലയിലെയോ അല്ലെങ്കില്഼ അതിനോട്
അഫിലിയേററ് ചെയ്തിട്ടുള്ള ഒരു കാളേജിലെയോ ഉദ്യോഗസ്ഥാംഗങ്ങളില്഼നിന്നു~
മുള്ള ഫാര്഼മസിയൊ, ഫാര്഼മസ്യൂട്ടിക്കല്഼ കെമസ്റ്രറിയോ, ഫാര്഼മാകോഗ്നസിയോ
അദ്ധ്യാപകരുടെ ഇടയില്഼നിന്നും ഇന്഼ഡ്യന്഼ ഫാര്഼മസികൌണ്഼സിലിന്഼റെ എക്സി~
ക്യൂട്ടീവ് കമ്മിററി തിരഞ്ഞെടുത്തയയ്ക്കേണ്ട ഒര഼ാള്഼;</p>

<p>( i) ഒരു ഇന്഼സ്യന്഼ സര്഼വ്വകലാശാലയിലെയോ അല്ലെങ്കില്഼ അതിനോട് 
അഫിലിയേററ് ചെയ്തിട്ടുള്ള ഒരു കാളേജിലെയോ ഉദ്യോഗസ്ഥാംഗങ്ങളില്഼നിന്നു
മുള്ള മെഡിസിനോ, തിറാപ്യൂററിക്സോ അദ്ധ്യാപകരുടെ ഇടയില്഼നിന്നും 
#ഇന്഼ഡ്യന്഼
മെഡ഼ിക്കല്഼ കൌണ്഼സിലിന്഼റെ എക്സിക്യൂട്ടീവ് കമ്മിററി തിരഞ്ഞെടുക്കുന്ന 
#ഒരാള്഼;</p>

<p>( ii) കേന്ദ്രഗവണ്഼മെന്഼റ്, ഫാര്഼മസ്യൂട്ടിക്കള്഼ വ്യവസായത്തില്഼നിന്ന്
നാമനിര്഼ദ്ദേശം ചെയ്യുന്ന ഒരാള്഼</p>

<p>( iii) ഇന്഼ഡ്യന്഼ മെഡിക്കല്഼ റിസര്഼ച്ച് കൌണ്഼സിലിന്഼റെ ഭരണസമിതി
തിരഞ്ഞെടുക്കുന്ന ഒരു ഫാര്഼മാകാളേജിസ്ററ്;</p>

<p>( iv) ഇന്഼ഡ്യന്഼ മെഡിക്കല്഼ അസോസിയേഷന്഼റെ സെന്഼ട്രല്഼ കൌണ്഼സില്഼
തിരഞ്ഞെടുക്കുന്ന ഒരാള്഼;</p>

<p>(  v) ഇന്഼ഡ്യന്഼ ഫാര്഼മസ്യൂട്ടിക്കല്഼ അസോസിയേഷന്഼റെ കൌണ്഼സില്഼ തിര~
ഞ്ഞെട഼ുക്കുന്ന ഒരാള്഼;</p>

<p>  ( vi) കേന്ദ്ര ഗവണ്഼മെന്഼റ് നാമനിര്഼ദ്ദേശം ചെയ്യേണ്ട, ഈ ആക്ററ്
പ്രകാരം ഗവണ്഼മെന്഼റ് അനലിസ്റെറന്ന ഉദ്യോഗംവഹിക്കുന്ന രണ്ട് ആളുകള്഼.</p>

<p>(3) ബോര്഼ഡിലേക്ക് നാമനിര്഼ദ്ദേശം ചെയ്യപ്പെട്ടിട്ടുള്ളതും തിരഞ്ഞെടുക്ക~പ്പെട്ടിട്ടുള്ളതുമായ അംഗങ്ങള്഼ മൂന്നുവര്഼ഷത്തേക്ക് ഉദ്യോഗം 
#വഹിക്കേണ്ടതാണ഼്,
എന്നാല്഼ വീണ്ടും നാമനിര്഼ദ്ദേശം ചെയ്യപ്പെടുന്നതിനും വീണ്ടും 
#തിരഞ്ഞെടുക്കപ്പെടു`
ന്നതിനും അവര്഼ക്ക് അര്഼ഹതയുണ്ടായിരിക്കുന്നതാണ്;</p>

<p>  എന്നാല്഼, അതതുസംഗതിപോലെ, (2)- ാം ഉപവകുപ്പ് (ix)- ാം ഖണ്ഡത്തി~
ന്഼റെയോ ()- ാം ഖണ്ഡത്തിന്഼റെയോ ( i) - ാം ഖണ്ഡത്തിന്഼റെയോ (഼ൌസ)- ാം
ഖണ്ഡത്തിന്഼റെയോ കീഴില്഼ നാമനിര്഼ദ്ദേശം ചെയ്യപ്പെട്ടതോ 
#തിരഞ്ഞെടുക്കപ്പെടു~
കയോ ചെയ്തത് ഏതു ഉദ്യോഗത്തിന്഼റെ ബലത്തിലാണോ ആ ഉദ്യോഗത്തിലുള്ള
നിയമത്തില്഼ തുടരുന്നിടത്തോളം, ഉദ്യോഗം വഹിക്കുന്നതാകുന്നു.</p>

<p> (4) ബോര്഼ഡ഼ിന്, കേന്ദ്രഗവണ്഼മെന്഼റിന്഼റിന്഼റെ മുന്഼കൂട്ടിയുള്ള അംഗീകാര~
ത്തിനുവിധേയമായി ഒരു കോറം നിശ്ചയിക്കുന്നതിനും അതിന്഼റെ സ്വന്തം നടപടി~
ക്രമങ്ങളും അത് കൈകാര്യം ചെയ്യേണ്ട എല്ലാ കാര്യങ്ങളുടെയും നടത്തിപ്പും #ക്രമപ്പെ~
ടുത്തുന്നതിനും ഉപനിയമങ്ങള്഼ ഉണ്ടാക്കാവുന്നതാണ്.
-4-
   (5) ബോര്഼ഡിന്, സബ്കമ്മിററികള്഼ സംഘടിപ്പിക്കാവുന്നതും, അങ്ങനെ~
യുള്ള സബ്കമ്മിററികളിലേക്ക് ബോര്഼ഡ് നിശ്ചയിക്കാവുന്ന മൂന്നുവര്഼ഷത്തില്഼
കവിയാത്ത കാലയളവുകള്഼ക്കോ താല്഼ക്കാലികമായോ, പ്രത്യേകസംഗതികള്഼ പരിഗ~
ണിക്കുന്നതിനുവേണ്ടി, ബോര്഼ഡംഗങ്ങളല്ലാത്ത ആളുകളെ നിയമിക്കാവുന്നതുമാകുന്നു.
 
  (6) ബോര്഼ഡില്഼ ഒഴിവുണ്ടെങ്കില്഼ത്തന്നെയും, ബോര്഼ഡിന്഼റെ ചുമതലകള്഼
നിര്഼വ്വഹിക്കപ്പെടാവുന്നതാണ്.</p>

<p> (7) കേന്ദ്ര ഗവണ്഼മെന്഼റ് ബോര്഼ഡ഼ിന്഼റെ സെക്രട്ടറിയായി ഒരാളെ നിയമി~
ക്കേണ്ടതും; കേന്ദ്ര ഗവണ്഼മെന്഼റിന് ആവശ്യകമെന്നുതോന്നുന്ന ക്ലെറിക്കലും 
#മററും
ആയ ഉദ്യോഗസ്ഥാംഗങ്ങളെയും ബോര്഼ഡിന് ലഭ്യമാക്കേണ്ടതുമാണ്.</p>

<p>കേന്ദ്ര ഔഷധ~
പരീക്ഷണശാല</p>

<p>  6. കേന്ദ്ര ഗവണ്഼മെന്഼റ് ആകുന്നത്഼ര വേഗത്തില്഼, കേന്ദ്ര ഗവണ്഼മെന്഼റ്#നിയമി~
ക്കുന്ന ഒരു ഡയറക്ടറുടെ നിയന്ത്രണത്തിന്഼കീഴില്഼ ഒരു കേന്ദ്ര 
#ഔഷധപരീക്ഷണ഼ശാല
ഈ ആക്ററിനാലോ ഈ അദ്ധ്യായത്തിന്഼കീഴിലുണ്ടാകുന്ന ഏതെങ്കിലും 
#ചട്ടങ്ങ~
ളാലോ, അതിനെ ഭാരമേല്഼പ്പിച്ചിട്ടുള്ള ചുമതലകള്഼ നിര്഼വ്വഹിക്കുന്നതിനായി
സ്ഥാപിക്കേണ്ടതാണ്.</p>

<p>  എന്നാല്഼ കേന്ദ്ര ഗവണ്഼മെന്഼റെ് അപ്രകാരം നിര്഼ണ്ണയിക്കുന്നപക്ഷം, 
#ഏതെങ്കിലും
മരുന്നോ മരുന്നുകളുടെ വിഭാഗമോ അല്ലെങ്കില്഼ ഏതെങ്കിലും 
#സൌന്ദര്യവര്഼ദ്ധ഼ക
വസ്തുവോ സൌന്ദര്യവര്഼ദ്ധകവ഼സ്തുക്കളുടെ വിഭാഗമോ സംബന്ധിച്ചുള്ള കേന്ദ്ര
ഔഷധപരീക്ഷണശാലയുടെ     ചുമതലകള്഼ കശൌലിയിലുള്ള കേന്ദ്രറിസര്഼ച്ച്
#ഇന്഼സ്ററി~
ട്ട്യൂട്ടിലോ, അല്ലെങ്കില്഼ മറേറതെങ്കിലും നിര്഼ണ്ണയിക്കപ്പെട്ട 
#പരീക്ഷണശാലൟിലോ നട~
ത്തേണ്ടതും അങ്ങനെയുള്ള മരുന്നോ മരുന്നുകളുടെ വിഭാഗമോ മര഼ുന്നുകളോ
#അല്ലെങ്കില്഼
അങ്ങനെയുള്ള സൌന്ദര്യവര്഼ദ്ധകവസ്തുവോ സൌന്ദര്യവര്഼ദ്ധക വസ്തുക്കളുടെ
വിഭാഗമോ സംബന്ധിച്ചുള്ള കേന്ദ്ര ഡ്രഗ്സ് ലബോറട്ടറി ഡയറക്ടരുടെ ചുമതല~
കള്഼, അതതുസംഗതിപോലെ, ആ ഇന്഼സ്ററിട്ട്യൂട്ടിലെയോ മററു പരീക്ഷണശാലയി~
ലേയോ ഡയറക്ടര്഼ നിര്഼വ്വഹിക്കേണ്ടതുമാണ്.</p>

<p>(2) കേന്ദ്ര ഗവണ്഼മെന്഼റ് ബോര്഼ഡുമായി ആലോചിച്ചശേഷം താഴെപറയു~
ന്നവര്഼ നിര്഼ണ്ണയിച്ചുകൊണ്ട് ചട്ടങ്ങള്഼ ഉണ്ടാക്കാവുന്നതാണ്-</p>

<p> (ക) കേന്ദ്ര ഔഷധപരീക്ഷണശാലയുടെ ചുമതലകള്഼;
 (ഖ) യും (ഗ) യും 1955-ലെ XI- ാം ആക്ററിനാല്഼ വിട്ടുകളഞ്ഞു.
 (ഘ) iv -ാം അദ്ധ്യായത്തിന്഼റേയോ iv ക അദ്ധ്യായത്തിന്഼റേയോ കീഴില്഼
മേല്഼പ്പറഞ്ഞ പരീക്ഷണശാലയിലേക്ക് മരുന്നുകളുടെയോ സൌന്ദര്യവര്഼ദ്ധക വസ്തു~
ക്കളുടേയോ സാന്പിളുകള്഼ വിശകലനത്തിനോ  പരീക്ഷണത്തിനോ ആയി സമര്഼പ്പിക്കു~
ന്നതിനുള്ള  നപടിക്രമവും പരീക്ഷണശാല഼യുെട അതിന്഼മേലുള്ള റിപ്പോര്഼ട്ടുകളുടെ
ഫാറങ്ങളും അങ്ങനെയുള്ള റിപ്പോര്഼ട്ടുകള്഼ സംബന്ധിച്ച് നല്഼കേണ്ട ഫീസും;</p>

<p>  (ങ) മേല്഼പ്പറഞ്ഞ പരീക്ഷണശാലയെ, അതിന്഼റെ ചുമതലകള്഼ നിര്഼വ്വഹി~
ക്കാന്഼ പ്രാപ്തമാക്കുന്നതിന് ആവശ്യകമോ സമീചീനമോ ആയ മററു വിഷയങ്ങള്഼;</p>

<p>  (ച) (1) -ാം ഉപവകുപ്പിന്഼റെ പരിമിതി വ്യവസ്ഥയുടെ ആവശ്യങ്ങള്഼ക്ക്
നിര്഼ണ്ണയിക്കേണ്ട വിഷയങ്ങള്഼.</p>

<p>ഔഷധ കണ്഼~
സള്഼ട്ടേററീവ്
കമ്മിററി.
  7. (1) ഈ ആക്ററിന്഼റെ പ്രശാസനത്തില്഼ ഇന്഼ഡ്യ ഒട്ടാകെ ഐകരൂപ്യം
വരുത്താന്഼ ഇടയാക്കുന്നതിന് കേന്ദ്ര ഗവണ്഼മെന്഼റിനെയും സ്റേറററ് 
#ഗവണ്഼മെന്഼റു~
കളെയും ഔഷധ സാങ്കേതിക ഉപദേശക ബോര്഼ഡിനെയും ഏതെങ്കിലും വിഷയത്തില്഼
ഉപദേശിക്കുന്നതിന് കേന്ദ്ര ഗവണ്഼മെന്഼റ് "ഔഷധ കണ്഼സള്഼ട്ടേററീവ് 
#കമ്മിററി"
എന്ന് വിളിക്കുന്നതിന് കേന്ദ്ര ഉപദേശകകമ്മിററി രൂപവല്഼ക്കരിക്കാവുന്നതാണ്.</p>

<p>  (2) ഡ്രഗ്സ് കണ്഼സള്഼ട്ടേററീവ് കമ്മിററിയില്഼ കേന്ദ്ര ഗവണ്഼മെന്഼റ് 
#നാമ~
നിര്഼ദ്ദേശം ചെയ്യുന്ന അതിന്഼റെ രണ്ടു പ്രതിനിധികളും ബന്ധപ്പെട്ട 
#സ്റേററ഼റ്
ഗവണ്഼മെന്഼റ് നാമനിര്഼ദ്ദേശം ചെയ്യുന്ന ഓരോ സ്റേററ് ഗവണ്഼മെന്഼റ് 
#പ്രതി~
നിധിയും അടങ്ങിയിരിക്കേണ്ടതതാണ്.</p>

<p>  (3) കേന്ദ്ര ഗവണ്഼മെന്഼റ്, ആവശ്യപ്പെടുന്പോള്഼ ഔഷധ കണ്഼സള്഼ട്ടേററീവ്
കമ്മിററി കൂടേണ്ടതും, കമ്മിററിയ്ക്ക് അതിന്഼റെ നടപടിക്രമങ്ങള്഼
#ക്രമപ്പെടുത്തുന്ന~
തിന് അധികാരമുണ്ടായിരിക്കുന്നതുമാണ്.</p>

<p> 5-ം 7-ം വകുപ്പു~
കള്഼, ആയുര്഼വേ~
ദമോ (സിദ്ധ
ഉള്഼പ്പെടെ) യൂനാ~
നിയോ മരുന്നു~
കള്഼ക്ക് ബാധക~
മല്ലെന്ന്.
 
 7 ക. 5-ം 7-ം വകുപ്പുകളിലടങ്ങിയിട്ടുള്ള യാതൊന്നും ആയൂര്഼വേദമോ
(സിദ്ധ ഉള്഼പ്പെടെ) യൂനാനിയോ മരുന്നുകള്഼ക്ക് ബാധകമായിരിക്കുന്നതല്ല.</p>

<p>		അദ്ധ്യായം III</p>

<p>  	മരുന്നുകളുടെ ഇറക്കുമതി</p>

<p>ഗുണമാനക~
ങ്ങള്഼</p>

<p>   8. (1) ഈ അദ്ധ്യായത്തിന്഼റെ ആവശ്യങ്ങള്഼ക്ക്, "ഗുണമാനകം" എന്ന
പ്രയോഗത്തിന്-</p>

<p> (ക) ഒരു മരുന്നു സംബന്ധിച്ച്, ആ മരുന്ന് രണ്ടാം പട്ടികയില്഼ കൊടു~
ത്തിട്ടുള്ള നിലവാരം പുലര്഼ത്തുന്നതാണെന്നു്;</p>

<p>  (ഖ) സൌന്ദര്യവര്഼ദ്ധക വസ്തു സംബന്ധിച്ച്, ആ സൌന്ദര്യവര്഼ദ്ധക~
വസ്തു നിര്഼ണ്ണയിക്കപ്പെടാവുന്ന നിലവാരം പുലര്഼ത്തുന്നതാണെന്നും
അര്഼ത്ഥമാകുന്നു.
-5-
  (2) കേന്ദ്ര ഗവണ്഼മെന്഼റ്, ബോര്഼ഡുമായി ആലോചിച്ചശേഷവും അതിന്
അപ്രകാരം ചെയ്യുവാനുള്ള ഉദ്ദേശം സംബന്ധിച്ച് ഔദ്യോഗികഗസററില്഼ വിജ്ഞാ~
പനംവഴി മൂന്നുമാസത്തില്഼ കുറയാതെയുള്ള നോട്ടീസ് നല്഼കിയശേഷവും, ഈ
അദ്ധ്യായത്തിന്഼റെ ആവശ്യങ്ങള്഼ക്ക് അതുപോലുള്ള ഒരു വിജ്ഞാപനംവഴി 
#രണ്ടാം
പട്ടികയില്഼ കുട്ടിച്ചേര്഼ക്കുകയോ മററുവിധത്തില്഼ ഭേദഗതി ചെയ്യുകയോ ചെയ്യാവു~ന്നതും, അതോടെ, അതനുസരിച്ച് ര഼ണ്ടാം പട്ടിക ഭേദഗതി ചെയ്യപ്പെട്ടതായി കരുത~
പ്പെടേണ്ടതുമാണ്.</p>

<p>തെററായി
മുദ്രണം ചെയ്യ~
പ്പെട്ട മരുന്നു~
കള്഼.</p>

<p>9. ഈ അദ്ധ്യായത്തിന്഼റെ ആവശ്യങ്ങള്഼ക്ക് ഒരു മരുന്ന്;-</p>

<p> (ക) അതിന്഼റെ യഥാര്഼ത്ഥസ്വഭാവവും അതിന് അങ്ങനെയുള്ള മററു
മരുന്നുമായുള്ള സാദൃശ്യമില്ലായ്മയും വെളിപ്പെടുത്തക്കവണ്ണം അത് വ്യക്ത~
മായും ശ്രദ്ധേയമായും അടയാളപ്പെടുത്താതെ അത് മറെറാരു മരുന്നിന്഼റെ അനു~
കരണമോ പകരമായുള്ളതോ കബളിപ്പിക്കാന്഼ ഇടയാക്കുന്നരീതിയില്഼ സാദൃശ്യമുള്ളതോ
ആയിരിക്കുകയോ അല്ലെങ്കില്഼ ആ മരുന്നിന്഼മേലോ അതിന്഼റെ ലേബലിലോ പാത്ര~
ത്തിന്഼മേലോ മറെറാരു മരുന്നിന്഼റെ പേര് ഉണ്ടാൟിരിക്കുകയോ, 
#ചെയ്യുന്നെങ്കിലോ;</p>

<p> (ഖ) അത് ഒരു സ്ഥലത്തിന്഼റെയോ രാജ്യത്തിന്഼റെയോ ൟഥാര്഼ത്ഥ 
ഉല്഼പ്പന്നമല്ലാതിരിക്കെ അവിടത്തെ ഉല്഼പ്പന്നമായി കരുതുന്നുവെങ്കിലോ;</p>

<p>  (ഗ) അത്, മറെറാരു മരുന്നിന്഼റെ പേരില്഼ ഇറക്കുമതി ചെയ്യുന്നു~
വെങ്കിലോ</p>

<p>  (ഘ) അതിന്഼റെ കേട് മറച്ചുവയ്ക്കത്തക്കവിധം അതിന് നിറം കൊടു~
ക്കുകയോ, പൂശുകയോ പൊടിയാക്കുകയോ മിനുസപ്പെടുത്തുകയോ ചെയ്യുന്നു~
വെങ്കിലോ, അല്ലെങ്കില്഼ യഥാര്഼ത്ഥത്തില്഼ രോഗശമനത്തിന് അതിനുള്ള 
#മൂല്യത്തെ~
ക്കാള്഼ മെച്ചമോ മഹത്തരമോ ആയ മൂല്യം ഉണ്ടെന്നു തോന്നിക്കുന്നെങ്കിലോ;</p>

<p> (ങ) അത് നിര്഼ണ്ണയിക്കപ്പെട്ട രീതിയില്഼ ലേബല്഼ ചെയ്യാതിരിക്കുന്നെ~
ങ്കിലോ,</p>

<p>  (ച) മരുന്നിന്഼റെ ലേബലിലോ അതുള്഼ക്കൊള്ളുന്ന പാത്രത്തിലോ, മരുന്നി~
നോടൊന്നിച്ചുള്ള ഏതെലെങ്കിലുമോ, ഏതെങ്കിലും വ്യാജമായ അവകാശം പുറപ്പെടു~
വിക്കുന്നതോ, ആയ പ്രസ്താവനയോ രൂപമാതൃകയോ അടയാളമോ വഹിക്കുകയോ
ചെയ്യുന്നെങ്കിലോ;</p>

<p>  (ഛ) ലേബലിലോ മരുന്നുകള്഼ക്കൊള്ളുന്ന പാത്രത്തിലോ മരുന്നിന്഼റെ
നിര്഼മ്മാതാവോ ഉല്഼പ്പാദകനോ ആണെന്ന് കരുതപ്പെടുന്ന ഒരു വ്യക്തിയുടെയോ
കന്പനിയുടെയോ പേരുണ്ടായിരിക്കുകയോ; ആ വ്യക്തിയോ കന്പനിയോകല്഼പ്പിതമോ
നിലവിലില്ലാത്തതോ ആയിരിക്കുകയോ ചെയ്യുകയാണെങ്കിലോ,
തെററായി മുദ്രണം ചെയ്തതായി കരുതപ്പെടുന്നതാണ്.</p>

<p>തെററായി മുദ്ര~
ണം ചെയ്യപ്പെട്ട~
സൌന്ദര്യവര്഼ദ്ധ~
ക വസ്തുക്കള്഼.
 9ക. ഈ അദ്ധ്യായത്തിന്഼റെ ആവശ്യങ്ങള്഼ക്ക് ഒരു 
#സൌന്ദര്യവര്഼ദ്ധകവസ഼്തു-</p>

<p>  (ക) അത്, മറെറാരു സൌന്ദര്യവര്഼ദ്ധകവസ്തുവിന്഼റെ അനുകരണമോ
അതിനു പകരമായുള്ളതോ കബളിപ്പിക്കാനിടയാക്കുന്ന രീതിയില്഼ സാദൃശ്യമുള്ളതോ
ആയിരിക്കുകയാണെങ്കിലോ;</p>

<p> (ഖ) അത്, ഒരു സ്ഥലത്തിന്഼റെയോ രാജ്യത്തിന്഼റെയോ യഥാര്഼ത്ഥ 
ഉല്഼പ്പന്നമല്ലാതിരിക്കേ, അവിടത്തെ ഉല്഼പ്പന്നമായി കരുതുന്നുവെങ്കിലോ;</p>

<p>  (ഗ) അതില്഼, നിര്഼ണ്ണയിക്കപ്പെടാത്ത നിറം അടങ്ങിയിരിക്കുകയാണെ~
ങ്കിലോ; 
 
 (ഘ) അത്, മറെറാരു സൌന്ദര്യവര്഼ദ്ധക വസ്തുവിന്഼റെ പേരില്഼ ഇറക്കു~
മതി ചെയ്യുകയാണെങ്കിലോ;</p>

<p>(ങ) അതില്഼, നിര്഼ണ്ണയിക്കപ്പെട്ട രീതിയില്഼ ലേബല്഼ ചെയ്യാതിരിക്കുകയാ~
ണെങ്കിലോ;</p>

<p>  (ച) സൌന്ദര്യവര്഼ദ്ധകവസ്തുവിന്഼റെ ലേബലിലോ അതുള്഼ക്കൊള്ളുന്ന
പാത്രത്തിലോ സൌന്ദര്യവര്഼ദ്ധകവസ്തുവിന്഼റെ നിര്഼മ്മാതാവോ ഉല്഼പ്പാദകനോ
ആണെന്നുദ്ദേശിക്കുന്ന വ്യക്തിയുടേയോ കന്പനിയുടേയോ പേരുണ്ടായിരിക്കു~
കയും, ആ വ്യക്തിയോ കന്പനിയോ കല്഼പ്പിതമോ നിലവിലില്ലാത്തോ ആയിരിക്കു~
കയും ചെയ്യുകയാണെങ്കിലോ;</p>

<p>  (ഛ) സൌന്ദര്യവര്഼ദ്ധകവസ്തുവിന്഼റെ ലേബലിലോ അതുള്഼ക്കൊള്ളുന്ന
പാത്രത്തിലോ ഏതെങ്കിലും സംഗതിയില്഼ വ്യാജമായതോ തെററിദ്ധരിപ്പിക്കുന്നതോ
ആയ ഏതെങ്കിലും പ്രസ്താവന അടങ്ങിയിരിക്കുകയാണെങ്കിലോ;
തെററായി മുദ്രണം ചെയ്തതായി കരുതപ്പെടുന്നതാണ്.
-6-
മായം ചേര്഼ത്ത
മരുന്നുകള്഼.</p>

<p> 9ഖ. ഈ അദ്഼ധ്യായത്തിന്഼റെ ആവശ്യങ്ങള്഼ക്ക് ഒരു മരുന്ന്-</p>

<p> (ക) അതില്഼, പൂര്഼ണ്ണമായോ, ഭാഗികമായോ,  ഏതെങ്കിലും മലിനമായതോ
അഴുകിയതോ ചീഞ്ഞതോ ആയ പദാര്഼ത്ഥം അടങ്ങിയിരിക്കുകയാണെങ്കിലോ;</p>

<p>  (ഖ) അത്, ശുചിത്വമില്ലാത്ത സാഹചര്യങ്ങളില്഼ തയ്യാറാക്കുകയോ പാക്ക്
ചെയ്യുകയോ സംഭരിക്കുകയോ അതുകാരണം അത് മാലിന്യംകൊണ്ട് ദുഷിക്കാവ഼ു~
ന്നതോ അല്ലെങ്കില്഼ അതുകാരണം അത് ആരോഗ്യത്തിന് 
#ഹാനികരമായിത്തീര്഼ന്നേക്കാ~
വുന്നതോ ആയിരിക്കുകയോ ആണെങ്കിലോ;</p>

<p>  (ഗ) അതുള്഼ക്കൊള്ളുന്ന പാത്രം, പൂര്഼ണ്ണമായോ ഭാഗികമായോ, അതിന്഼റെ
ഉള്ളടക്കത്തെ ആരോഗ്യത്തിന് ഹാനികരമാക്കിത്തീരത്തേക്കാവുന്ന ഏതെങ്കിലും 
#വിഷ~
മുള്ളതോ ദോഷം വരുത്തുന്നതോ ആയ പദാര്഼ത്ഥംകൊണ്ട് 
#നിര്഼മ്മിക്കപ്പെട്ടതായിരി~
ക്കുകയാണെങ്കിലോ;</p>

<p>  (ഘ) അതില്഼ നിറം കൊടുക്കുന്ന ആവശ്യങ്ങള്഼ക്ക് നിര്഼ണ്ണയിക്കപ്പെട്ടത~ല്ലാത്ത നിറം ഉണ്ടായിരിക്കുകയോ അടങ്ങിയിരിക്കുകയോ ചെയ്യുകയാണെങ്കിലോ;
  (ങ) ഏതെങ്കിലും പദാര്഼ത്ഥം -
   (i) അതിന്഼റെ ഗുണമോ ശക്തിയോ കുറയ്ക്കത്തക്കവണ്ണം അതുമായി
കൂട്ടിക്കലര്഼ത്തുകയോ പാക്ക് ചെയ്യുകയോ;</p>

<p>  (ii) അതിനുപകരം പൂര്഼ണ്ണമായോ ഭാഗികമായോ മറെറാന്നു വയ്ക്കുകയോ
ചെയ്യുകയാണെങ്കിലോ;</p>

<p>മായം ചേര്഼ത്തതാണെന്നു കരുതപ്പെടുന്നതാണ്.</p>

<p>വിശദീകരണം- (ക) ഖണ്ഡത്തിന്഼റെ ആവശ്യത്തിന്, ഒരു മരുന്നില്഼, മരുന്ന്
ഉപയോഗിക്കുന്നതിനുള്ള കാലാവധി ഏതെങ്കിലുമുള്ളത്, മരുന്നിന്഼റെ
ലേബലില്഼ വിനിര്഼ദ്ദേശിച്ചിട്ടുണ്ടെങ്കില്഼, ആ കാലാവധിക്കകം മരുന്ന് 
#സ്വാഭ഼ാ~
വികമായി ചീഞ്ഞുപോയ ഫലമായുള്ളതാണ്. അങ്ങനെയുള്ള ചീഞ്ഞ
പദാര്഼ത്ഥമെന്ന വസ്തുത കാരണത്താല്഼മാത്രം, ഏതെങ്കിലും ചീഞ്ഞ
പദാര്഼ത്ഥം മുഴുവനായോ ഭ഼ാഗികമായോ അടങ്ങിയിരിക്കുന്നതായി
കരുതപ്പെടാന്഼ പാടുള്ളതല്ല;</p>

<p>  എന്നാല്഼, അങ്ങനെയുള്ള ചീഞ്ഞുപോകല്഼ മരുന്നിന്഼റെ 
#നിര്഼മ്മാതാവിന്഼റെയോ,
ഇറക്കുമതിക്കാരന്഼റെയോ വ്യാപാരിയുടേയോ ഭാഗത്തുള്ള ഉപേക്ഷമൂലമല്ലാത്തതും,
അത് മരുന്നുകളെ ആരോഗ്യത്തിനു് ഹാനികരമാക്കുന്നതല്ലാത്തതുമായിരിക്കണം.</p>

<p> ചിലമരുന്നുക഼~~
ളുടെയോ സൌന്ദ~
ര്യവര്഼ദ്ധകവ~
സ്തുക്കളുടെ~
യോ ഇറക്കുമതി
നിരോധനം</p>

<p>10. കേന്ദ്രഗവണ്഼മെന്഼റ് ഇതിലേക്ക് ഔദ്യോഗിക ഗസററില്഼ വിജ്ഞാപനംവഴി
നിശ്ചയിക്കാവുന്ന തീയതി മുതല്഼ യാതൊരാളും,-</p>

<p>  (ക) ഗുണമാനകമില്ലാത്ത ഏതെങ്കിലും മരുന്നോ സൌന്ദര്യവര്഼ദ്ധക 
വസ്തുവോ;</p>

<p>  (ഖ) തെററായി മുദ്രണം ചെയ്ത ഏതെങ്കിലും മരുന്നോ തെററായി
മുദ്രണം ചെയ്ത സൌന്ദര്യവര്഼ദ്ധകവസ്തുവോ;
 (ഖഖ) മായം ചേര്഼ത്ത ഏതെങ്കിലും മരുന്നോ;</p>

<p> (ഗ) ഇറക്കുമതി ചെയ്യുവാന്഼ നിര്഼ണ്ണയിക്കപ്പെട്ടിട്ടുള്ള ലൈസന്഼സിന്഼
കീഴിലും ലൈസന്഼സനുസരിച്ചും അല്ലാതെ ഏതെങ്കിലും മരുന്നോ സൌന്ദര്യവര്഼ദ്ധക഼വസ്തുവോ;</p>

<p> (ഘ) മരുന്നിന്഼റെ ലേബലിന്഼മേലോ അതുള്഼ക്കൊള്ളുന്ന പാത്രത്തിന്഼~
മേലോ, അതിന്഼റെ യഥാര്഼ത്ഥഫോര്഼മുലയോ അതിലടങ്ങിയിരിക്കുന്ന ഘടക~
പദാര്഼ത്ഥങ്ങളുടെ പട്ടികയോ മെഡിക്കല്഼ പ്രൊഫഷനിലെ അംഗങ്ങള്഼ക്ക് 
#എളുപ്പം
മനസ്സിലാക്കത്തക്കവിധത്തില്഼, നിര്഼ണ്ണയിക്കപ്പെട്ട രീതിയില്഼ 
#പ്രദര്഼ശിപ്പിച്ചിട്ടില്ലാത്ത
പക്ഷം നിര്഼മ്മാണാവകാശക്കുത്തകയോ ഉടമാവകാശമോ ഉള്ള ഏതെങ്കിലും
#മരുന്നോ;</p>

<p> (ങ) മരുന്നിനോടൊന്നിച്ചുള്ള ഏതെങ്കിലും പ്രസ്താവനയോ രൂപമാതൃ~
കയോ അടയാളമോ വഴിയോ മറേറതെങ്കിലും പ്രകാരത്തിലോ, നിര്഼ണ്ണയിക്കപ്പെടാ~
വുന്ന ഏതെങ്കിലും രോഗമോ അസ്വാസ്ഥ്യമോ ഭേദപ്പെടുത്തുമെന്നോ ശമിപ്പിക്കു~
മെന്നോ അല്ലെങ്കില്഼ നിര്഼ണ്ണയിക്കപ്പെടാവുന്ന മറേറതെങ്കിലും ഫലം 
#ഉണ്ടാക്കുമെന്നോ
ഉദ്ദേശിക്കുകയോ അവകാശപ്പെടുകയോ ചെയ്യുന്ന ഏതെങ്കിലും മരുന്നോ;</p>

<p>  (ങങ) സൂചിപ്പിച്ചിട്ടുള്ളതോ ശുപാര്഼ശചെയ്തിട്ടുള്ളതോ ആയ നിദേശ~
ങ്ങള്഼ക്ക് കീഴില്഼ ഉപയോഗിക്കുന്നതിന് സുരക്ഷിതമല്ലാത്തതോ ഹാനികരമായതോ
ആക്കിത്തീര്഼ക്കുന്ന ഏതെങ്കിലും ഘടകവസ്തു അടങ്ങിയിട്ടുള്ള എതെങ്കിലും 
#സൌന്ദ~
ര്യവര്഼ദ്ധകവസ്തുവോ,</p>

<p>-7-
  (ച) ഈ അദ്ധ്യായത്തിന്഼കീഴില്഼ ഉണ്ടാക്കിൟ ചടങ്ങളാല്഼ ഇറക്കുമതി
നിരോധിച്ചിട്ടുള്ള ഏതെങ്കിലും മരുന്നോ സൌന്ദര്യവര്഼ദ്ധക വസ്തുവോ,
ഇറക്കുമതി ചെയ്യുവാന്഼ പാടുള്ളതല്ല.</p>

<p>   എന്നാല്഼, ഈ വകുപ്പിലുള്ള യാതൊന്നും, പരീക്ഷണത്തിനോ, പരിശോധന~
യ്ക്കോ വിശ്ലേഷണത്തിനോ അല്ലെങ്കില്഼ സ്വന്തം ഉപയോഗത്തിനോ, 
#നിര്഼ണ്ണയിക്കപ്പെട്ട
നിബന്ധനകള്഼ക്ക് വിധേയമായി, ഏതെങ്കിലും മരുന്നിന്഼റെ ചെറിയ അളവിലുള്ള
ഇറക്കുമതിയെ ബാധിക്കുന്നതല്ല.</p>

<p>  എന്നുമാത്രമല്ല, കേന്ദ്ര ഗവണ്഼മെന്഼റിന്, ബോര്഼ഡുമായി ആലോചിച്ചശേഷം
ഔദ്യോഗികഗസററില്഼ വിജ്ഞാപനംവഴി, വിജ്ഞാപനത്തില്഼ വിനിര്഼ദ്ദേശിക്കുന്ന
മരുന്നോ മരുന്നുകളുടെ വിഭാഗമോ ഇറക്കുമതി ചെയ്യുവാന്഼ അനുവദിക്കാവുന്നതാണ്.</p>

<p>വിശദീകരണം-(ഘ) ഖണ്ഡത്തില്഼ പറഞ്ഞിട്ടുള്ള ഫോര്഼മുലയോ ഘടക
പദാര്഼ത്ഥങ്ങളുടെ പട്ടികയോ, ഘടകപദാര്഼ത്ഥങ്ങളുടെ പൂര്഼ണ്ണവും വിശദവു~
മായ ചേരുവ വെളിപ്പെടുത്താതെ. അതിലടങ്ങിയ വീര്യമുളളതോ വിഷലിപ്ത~
മായതോ ആയ എല്ലാപദാര്഼ത്ഥങ്ങളെയും ഔഷധത്തിന്഼റെ ഘടനയുടെ ഒരു
ഏകദേശ പ്രസ്താവനയോടുകൂടി ശരിയായി സൂചിപ്പിച്ചിട്ടുണ്ടെങ്കില്഼ സത്യ~
മായുള്ളതാണെന്നും, അത് ആ ഉപഖണ്ഡത്തിന്഼റെ മതിയായ അനുരോധനമാ~
ണെന്നും കരുതപ്പെടുന്നതാണ്.</p>

<p>കടല്഼ കസ്ററം~
സ഼് സംബന്ധി~
ച്ച നിയമത്തി~
ന്഼റെ ബാധകത~
യും കസ്ററം~
ന്ന് ഉദ്യോഗസ്~
ഥന്഼മാരുടെ അ~
ധികാരങ്ങളും.</p>

<p>11. (1) കടല്഼ കസ്ററംസും, കടല്഼ കസ്ററംസ് അക്ററ഼് ,1878-ലെ 18-ാം
വകുപ്പിനാല്഼ ഇറക്കുമതിനിരോധിക്കപ്പെട്ടിട്ടുള്ള സാമാനങ്ങളും സംബന്ധിച്ച്
തല്഼സമയം പ്രാബല്യത്തിലുള്ള നിയമം, ഈ ആക്ററ്, 13-ാം വകുപ്പിലെ വ്യവസ്ഥ~
കള്഼ക്ക് വിധേയമായി, ഈ അദ്ധ്യായത്തിന്഼കീഴില്഼ ഇറക്കുമതി 
#നിരോധിക്കപ്പെട്ടിട്ടുള്ള
മരുന്നുകളും സൌന്ദര്യവര്഼ദ്ധകവസ്തുക്കളും സംബന്ധിച്ച് ബാധകമായിരിക്കു~
ന്നതും, കസ്ററംസ് ഉദ്യോഗസ്ഥന്഼മാര്഼ക്കും കസ്ററംസ് കളക്ടരുടേയും മററു
കസ്ററംസ് ഉദ്യോഗസ്ഥന്഼മാരുടേയുംമേല്഼, അത് ചുമത്തുന്ന കര്഼ത്തവ്യങ്ങള്഼
നിര്഼വ്വഹിക്കാന്഼ ആ ആക്ററിന്഼കീഴില്഼ അധികാരപ്പെടുത്തിയിട്ടുള്ള 
#ഉദ്യോഗ഼സ്ഥന്഼~
മാര്഼ക്കും, അങ്ങനെയുള്ള മരുന്നുകളും സൌന്ദര്യവര്഼ദ്ധകവസ്തുക്കളും സംബ~
ന്ധിച്ച്, മേല്഼പറഞ്ഞ സാമാനങ്ങള്഼ സംബന്ധിച്ച് തല്഼സമയം അവര്഼ക്കുള്ള 
#അതേ
അധികാരങ്ങള്഼ ഉണ്ടായിരിക്കുന്നതാണ്.</p>

<p>  (2) (1)- ാം ഉപവകുപ്പിലെ വ്യവസ്ഥകള്഼ക്ക് ഭംഗം വരാതെ, കസ്ററംസ്
കളക്ടര്഼ക്കോ അല്ലെങ്കില്഼ ഇതിലേക്ക് കേന്ദ്ര ഗവണ്഼മെന്഼റ്
#പ്രാധികാര഼പ്പെടുത്തുന്ന
ഏതെങ്കിലും ഉദ്യോഗസ്ഥനോ, ഈ അദ്ധ്യായത്തിന്഼കീഴില്഼ ഇറക്കുമതി 
#നിരോധിക്ക~
പ്പെട്ട ഏതെങ്കിലും മരുന്നോ സൌന്ദര്യവര്഼ദ്ധകവസ്തുവോ 
#അടങ്ങിയിട്ടുണ്ടെന്ന്
സംശയിക്കപ്പെടുന്ന ഇറക്കുമതിചെയ്ത ഏതെങ്കിലും പാക്കേജ് തടഞ്ഞുവയ്ക്കാവു~
ന്നതും അങ്ങനെയുള്ള തടഞ്ഞുവയ്ക്കല്഼ ഉടന്഼തന്നെ 
#ഇന്഼ഡ്യാഡ്രഗ്സ്കണ്഼ട്഼രോളര്഼ക്ക്
റിപ്പോര്഼ട്ടു ചെയ്യേണ്ടതും, ആവശ്യമുണ്ടെങ്കില്഼ പാക്കേജോ അല്ലെങ്കില്഼ 
#അതില്഼കാണുന്ന
സംശയിക്കപ്പെട്ട ഏതെങ്കിലും മരുന്നിന്഼റേയോ 
#സൌന്ദര്യവര്഼ദ്ധകവസ്തുവിന്഼റെയോ
സാന്പിളോ കേന്ദ്ര ഔഷധ പരീക്ഷണശാലക്ക് അയച്ചുകൊടുക്കേണ്ടുതുമാകുന്നു.</p>

<p>ചട്ടങ്ങള്഼ ഉണ്ടാ~
ക്കുവാന്഼ കേന്ദ്ര~
ഗവണ്഼മെന്഼റി~
നുള്ള അധികാരം.</p>

<p>12. (1) കേന്ദ്ര ഗവണ്഼മെന്഼റിന്, ബോര്഼ഡുമായി ആലോചിച്ചശേഷവും
ഔദ്യോഗികഗസ്ററ഼ില്഼ വിജ്ഞാപനംവഴി മുന്഼കൂട്ടി പ്രസിദ്ധപ്പെടുത്തിയതിനു~
ശേഷവും ഈ അദ്ധ്യായത്തിലെ വ്യവസ്ഥകള്഼ക്ക് പ്രഭാവം നല്഼കുന്ന ആവശ്യ~
ത്തിന്് ചട്ടങ്ങള്഼ ഉണ്ടാക്കാവുന്നതാണ്.</p>

<p>  എന്നാല്഼, കേന്ദ്ര ഗവണ്഼മെന്഼റിന്, അങ്ങനെയുള്ള ആലോചന കൂടാതെ 
#ചട്ടങ്ങള്഼
ഉണ്ടാക്കുന്നത് ആവശ്യകമാക്കുന്ന സാഹചര്യങ്ങള്഼ ഉത്ഭവിച്ചിട്ടുണ്ടെന്ന് 
#അഭിപ്രായ~
മുള്ളപക്ഷം, ബോര്഼ഡുമായുള്ള ആലോചന വേണ്ടെന്നുവയ്ക്കാവുന്നതും, എന്നാല്഼
അങ്ങനെയുള്ള സംഗതിയില്഼, ചട്ടങ്ങളുണ്ടാക്കി ആറുമാസത്തിനുള്ളില്഼ ബോര്഼ഡു~മായി ആലോചിക്കേണ്ടതും, മുന്഼പറഞ്ഞ ചട്ടങ്ങളുടെ ഭേദഗതി സംബന്ധിച്ച്
ബോര്഼ഡ് പുറപ്പെടുവിക്കാവുന്ന ഏതെങ്കിലും അഭിപ്രായങ്ങള്഼ കേന്ദ്ര 
#ഗവണ്഼മെന്഼റെ്
പരിഗണിക്കേണ്ടതുമാണ്.</p>

<p> (2) മുന്഼പറഞ്ഞ അധികാരത്തിന്഼റെ സാമാന്യതയ്ക്ക് ഭംഗംകൂടാതെ,
അങ്ങനെയുള്ള ചട്ടങ്ങളില്഼-</p>

<p> (ക) ഇറക്കുമതിക്ക് ലൈസന്഼സ് ആവശ്യകമായ മരുന്നുകളോ മരുന്നു~
കളുടെ വിഭാഗമോ അല്ലെങ്കില്഼ സൌന്ദര്യവര്഼ദ്ധക വസ്തുവോ സൌന്ദര്യവസ്തുക്ക~
ളുടെ വിഭാഗമോ വിനിര്഼ദ്ദേശിക്കാവുന്നതും അങ്ങനെയുള്ള ലൈസന്഼സിന്഼റെ
ഫാറവും നിബന്ധനകളും, അത് നല്഼കുവാന്഼ അധികാരപ്പെടുത്തിയ അധികാര
സ്ഥാനവും അതിലേയ്ക്ക് കൊടുക്കേണ്ട ഫീസും നിര്഼ണ്ണയിക്കാവുന്നതും;</p>

<p>  (ഖ) ഒരു മരുന്നോ സൌന്ദര്യവര്഼ദ്ധക വസ്തുവോ ഗുണമാനകമുള്ള~
താണോ എന്ന് തിട്ടപ്പെടുത്തുന്നതിന് നടത്തേണ്ട പരിശോധനയുടെയോ വിശ്ലേഷണ~
ത്തിന്഼റെയോ സന്പ്രദായങ്ങള്഼ നിര്഼ണ്ണയിക്കാവുന്നതും;</p>

<p>(ഗ) ജൈവികവും കാര്഼ബണിധാത്വികവുമായ യൌഗികങ്ങള്഼ സംബ~
ന്ധിച്ച് മാനകീകരണത്തിനുള്ള ഏകകങ്ങളോ സന്പ്രദായങ്ങളോ നിര്഼ണ്ണയിക്കാവു~
ന്നതും.
-8-
കുററങ്ങള്഼
 13. (1) ഏതൊര഼ാളാണോ ഈ അദ്ധ്യായത്തിലേയോ അതിന്഼കീഴില്഼ ഉണ്ടാ~
ക്കിയ ഏതെങ്കിലും ചട്ടത്തിലേയോ, ഏതെങ്കിലും വ്യവസ്ഥകള്഼ ലംഘിക്കുന്നത്
അയാള്഼, 11-ാം വകുപ്പിലെ വ്യവസ്ഥകള്഼ക്ക് കീഴില്഼ 
#ബാദ്ധ്യസ്ഥനായേക്കാവുന്ന
ശിക്ഷക്കും പുറമേ, ഒരു വര്഼ഷത്തോളമാകാവുന്ന തടവുശിക്ഷയോ 500 രൂപയോള~
മാകാവുന്ന പിഴശിക്ഷയോ അല്ലെങ്കില്഼ രണ്ടുംകൂടിയോ നല്഼കി ശിക്ഷിക്കപ്പെടു~
ന്നതാണ്.</p>

<p> (2) (1)-ാം ഉപവകുപ്പിന്഼കീഴില്഼ കുററസ്ഥാപനം ചെയ്യപ്പെട്ടിട്ടുള്ള
ഏതൊരാളും ആ ഉപവകുപ്പിന്഼കീഴില്഼ വീണ്ടും കുററസ്ഥാപനം ചെയ്യപ്പെടുകയാ~
ണെങ്കില്഼, മുന്഼പറഞ്ഞ ഏതെങ്കിലും ശിക്ഷക്കുപുറമേ രണ്ടു വര്഼ഷത്തോളമാകാ~വുന്ന തടവുശിക്ഷയോ ആയിരംരൂപയോളമാകാവുന്ന പിഴശിക്ഷയോ അല്ലെങ്കില്഼
രണ്ടും കൂടിയോ നല്഼കി ശിക്ഷിക്കപ്പെടുന്നതാണ്.</p>

<p>കണ്ടുകെട്ടല്഼.</p>

<p>14. 13-ാം വകുപ്പിന്഼കീഴില്഼ ശിക്ഷിക്കപ്പെടാവുന്ന ഏതെങ്കിലും കുററം
ചെയ്തിട്ടുണ്ടെങ്കില്഼ ഏതു മരുന്നിന്഼റേയോ സൌന്ദര്യവര്഼ദ്ധകവസ്തുവിന്഼റേയോ
കണ്഼സൈന്഼മെന്഼റ് സംബന്ധിച്ചാണോ ആ കുററം ചെയ്യപ്പെട്ടിട്ടുള്ളത് ആ 
#കണ്഼
സൈന്഼മെന്഼റ് കണ്ടുകെട്ടലിനു വിധേയമായിരിക്കുന്നതാണ്.</p>

<p>വിചാരണാധി~
കാരിത.
  15. പ്രസിഡന്഼സി മജിസ്ട്രേട്ട് കോടതിയുടേയോ ഒന്നാം ക്ലാസ്സ് മജി~
സ്ട്രേട്ട് കോടതിയുടേയോ പദവിക്കു താഴെയല്ലാത്ത യാതൊരു കോടതിയും 13-ാം
വകുപ്പിന്഼കീഴില്഼ ശിക്ഷിക്കപ്പെടേണ്ട കുററം വിചാരണ ചെയ്യാന്഼ പാടുള്ളതല്ല.
            *****</p>

<p></p></body></text></cesDoc>