<cesDoc id="mal-w-arts-yoga-yoga2" lang="mal">
<cesHeader type="text">
<fileDesc>
<titleStmt>
<h.title>mal-w-arts-yoga-yoga2.txt</h.title>
<respStmt>
<respType>Electronic file created by</respType>
<respName>Central Institute for Indian Languages, Mysore</respName>
<respType>transferred into Unicode and CES format by</respType>
<respName>"Unicodify" software by Andrew Hardie</respName>
</respStmt></titleStmt>
<publicationStmt>
<distributor>UCREL (on behalf of CIIL)</distributor>
<pubAddress>Department of Linguistics, Lancaster University, Lancaster, LA1 4YT, UK</pubAddress>
<availability region="WORLD"></availability>
<pubDate>03-07-22</pubDate>
</publicationStmt>
<sourceDesc>
<biblStruct>
<monogr>
<h.title>യോഗ്യചാര്യ ഗോവിന്ദന്഼ നായര്഼</h.title>
<h.author>യോഗ്യവിദ്യ</h.author>
<imprint>
<pubPlace>India</pubPlace>
<publisher>Unknown - Book</publisher>
<pubDate>1982</pubDate>
</imprint>
<idno type="CIIL code">yoga2</idno>
</monogr></biblStruct></sourceDesc></fileDesc>
<encodingDesc>
<projectDesc>Text collected for the CIIL Corpus, subsequently integrated into the EMILLE/CIIL Monolingual Written Corpora.</projectDesc>
<samplingDesc>Simple written text only has been transcribed. Diagrams, pictures and tables have been omitted. Sampling begins at page 61.</samplingDesc>
<editorialDecl><conformance level="1"></conformance></editorialDecl>
</encodingDesc>
<profileDesc>
<creation><date>03-07-22</date></creation>
<langUsage>Malayalam</langUsage>
<wsdUsage>
<writingSystem id="ISO/IEC 10646">Universal Multiple-Octet Coded Character Set (UCS).</writingSystem>
</wsdUsage>
<textClass>
<channel mode="w">print</channel>
<constitution type="composite"></constitution>
<domain type="public"></domain>
<factuality type="fact"></factuality>
</textClass>
<translations></translations>
</profileDesc>
<revisionDesc></revisionDesc>
</cesHeader>

<text><body>
<p>
-83-</p>

<p>			           20. യോഗമുദ്ര</p>

<p>ഇതും ഒരു മുദ്രയാണു്. യോഗിമാര്഼ ഈ മുദ്ര അഭ്യസിച്ചിരുന്നതു്
ആത്മീയാര്഼ത്ഥമായിട്ടായിരുന്നു. എന്നാല്഼ അതിന്഼റെ ശാരീരി~
കമായ പ്രയോജനം പരിഗണിച്ചു് യോഗാസനങ്ങളുടെ പട്ടിക~
യില്഼ യോഗമുദ്ര ഉള്഼പ്പെടുത്തിയിരിക്കുന്നു.</p>

<p>െചയ്യേണ്ട വിധം</p>

<p>	1. പത്മാസനത്തില്഼ ഇരിക്കുക. കണ്ണുകള്഼ പതുക്കെ അടയ്ക്കുക.
മൂന്നുനാലു പ്രാവശ്യം സ്വാഭാവികമായി ശ്വാസോച്ഛ്വാസം ചെയ്യുക.
ശരീരം മുഴുവനും തളര്഼ന്നിരിക്കട്ടെ. (`മൂട്ടുപിടിച്ചി'രിക്കരുതെ~
ന്നര്഼ത്ഥം.)</p>

<p>	2.കൈകള്഼ പുറകോട്ടെടുത്തു് അരക്കെട്ടിനു താഴെ നീട്ടിവെച്ചു്
വലത്തുകൈകൊണ്ടു് ഇടത്തുകൈയിന്഼റെ കോഴയില്഼ പിടിക്കുക.
ഇടത്തുകൈയിന്഼റെ തളളവിരല്഼ ഉളളിലാക്കി ചുരുട്ടി പിടിച്ചിരി~
ക്കണം.</p>

<p>	3. ദീര്഼ഘമായി ശ്വാസം സാവധാനം എടുക്കുക. ഒന്നുരണ്ടു
സെക്കന്഼റ് അതേ സ്ഥിതിയില്഼ ഇരിക്കുക.</p>

<p>	4. സാവധാനം ശ്വാസം വിട്ടുകൊണ്ടു് പതുക്കെ ശരീരം
മുന്പോട്ടു കൊണ്ടുവന്നു നെററി തറയില്഼ മുട്ടിക്കുക.</p>

<p>	5. ശ്വാസം വിട്ടുതീരുന്നതും നെററി തറയില്഼ മുട്ടുന്നതും ഒപ്പമാ~
യിരിക്കാന്഼ ശ്രദ്ധിക്കണം.</p>

<p>	6. രണ്ടുമൂന്നു സെക്കന്഼റ് ശ്വാസം എടുക്കാതിരിക്കുക.</p>

<p>	7. എന്നിട്ടു് ശ്വാസം സാവധാനം എടുത്തുകൊണ്ടു് പഴയ സ്ഥി~
തിയിലേക്കു മടങ്ങുക.</p>

<p>	8. കുനിഞ്ഞുവരുന്പോള്഼ പൃഷ്ഠഭാഗം നിലത്തുനിന്നും പൊങ്ങി~
പ്പോകാന്഼ അനുവദിക്കരുതു്.</p>

<p>	പലരുടേയും നട്ടെല്ലുകള്഼ പാകംപോലെ വഴങ്ങിക്കൊടുത്തെന്നു
വരില്ല. യോഗമുദ്ര പകുതിയാകുന്പോഴേക്കും സ്തംഭിച്ചു നിന്നുപോയേ~
ക്കാം. നട്ടെല്ലിന്഼റെ കണ്ണികള്഼ അത്രയ്ക്കു മുറുകി പിടിച്ചു് പററി~
ച്ചേര്഼ന്നായിരിക്കും ഇരിക്കുക. അങ്ങനെയുളളവര്഼ ധൈര്യപൂര്഼വം നിര~
ന്തരമായി അഭ്യസിക്കുക. ക്രമേണ നെററി നിലത്തുവന്നു മുട്ടത്തക്ക~
വണ്ണം നട്ടെല്ലു് അയഞ്ഞുകൊടുത്തുകൊളളും.</p>

<p>	ഏതെങ്കിലും ഒരു ആസനം എങ്ങനെയെങ്കിലും കടിച്ചുവലിച്ചു്
ഒപ്പിച്ചതുകൊണ്ടു കാര്യമില്ല. പ്രയാസം കൂടാതെ, ഒരു ആസനത്തി~
ന്഼റെ അവസാനനിലവരെ എത്തത്തക്കവിധം ശരീരത്തിനെ പാക~
പ്പെടുത്തി എടുക്കുക എന്നതാണു് നമ്മുടെ ലക്ഷ്യം. അല്ലാതെ എങ്ങ~
നെയെങ്കിലും ഒപ്പിക്കലല്ല. യാതൊരു ധൃതിയും ആവശ്യമില്ല.
	
-84-</p>

<p>ഇതു് എന്നും അഭ്യസിച്ചുകൊണ്ടിരിക്കേണ്ട വിഷയമാണു്. ജീവിത
കാലം മുഴുവന്഼ എന്നുതന്നെ പറയാം. പിന്നെ എന്തിനു ധൃതി
കൂട്ടണം ?</p>

<p>പ്രയോജനം</p>

<p>ഉദരസംബന്ധമായ പല അസുഖങ്ങളും മാറുന്നതിനു് യോഗമുദ്ര ഉപ~
കരിക്കുന്നു. ദഹനക്ഷയത്തിനും മലബന്ധത്തിനും യോഗമുദ്ര ഫല~
പ്രദമാണു്. നട്ടെല്ലിലെ ഓരോ കണ്ണികള്഼ക്കും പുറത്തെ
നാഡിവ്യൂഹങ്ങള്഼ക്കും സുഖമായ ഒരു തിരുമ്മലിന്഼റെ ഫലം
കിട്ടുന്നു.</p>

<p>-86-</p>

<p>21. ഭുജംഗാസനം</p>

<p>	ഭുജംഗം എന്നാല്഼ പാന്പു് എന്നാണു് അര്഼ത്ഥം. പാന്പു് തല
പൊക്കി പത്തി വിടര്഼ത്തി നില്ക്കുന്ന സന്പ്രദായത്തെ അനുകരി~
ച്ചു ചെയ്യുന്ന ഒരു ആസനമായതുകൊണ്ടാണു് ഇങ്ങനെ പേരു
വന്നതു്.</p>

<p>ചെയ്യേണ്ട വിധം</p>

<p>	1.കാലുകള്഼ നീട്ടി കമഴ്ന്നു കിടക്കുക. നേരെ ഒരു ലൈനില്഼
ആയിരിക്കണം കിടക്കുന്നതു്. ചാഞ്ഞോ ചെരിഞ്ഞോ ആകരുതു്.
കാല്഼വിരലുകളും നീട്ടി പുറംകാല്഼ വിരിപ്പിനോടു് പതിഞ്ഞിരി~
ക്കണം.</p>

<p>	2. കൈകള്഼ അതാതു വശത്തെ തോളിനു താഴെ പതിച്ചു കമ~
ഴ്ത്തിവെക്കുക. വിരലുകള്഼ ഒതുക്കി ചേര്഼ത്തുപിടിച്ചിരിക്കട്ടെ.ഉരം
വിട്ടു് വിരലുകള്഼ മുന്പോട്ടു നീണ്ടുനില്ക്കരുതു്. </p>

<p>	3. തല കുനിച്ചു് നെററി തറയില്഼ മുട്ടിച്ചിരിക്കുക.</p>

<p>	4.കൈമുട്ടുകള്഼ നേരെ പുറകോട്ടുതന്നെ ആയിരിക്കണം. രണ്ടു
വശത്തേക്കും അകന്നു് ചെരിഞ്ഞുപോകരുതു്.</p>

<p>	5. ശരീരം മുഴുവന്഼ തളര്഼ത്തുക.</p>

<p>	6. ശ്വാസം എടുക്കുക.</p>

<p>	7. തല നിലത്തുനിന്നും ഉയര്഼ത്തി കഴിയുന്നത്ര പുറകോട്ടു വള~
ച്ചുകൊണ്ടു്, ഩെഞ്ചും തോളും, കൈകളില്഼ ഊന്നുകൊടുക്കാതെ പൊ~
ക്കുക. ഒരു പരിധി കഴിഞ്ഞാല്഼ പിന്നെ പൊക്കാന്഼ പററില്ല.
അപ്പോള്഼ കൈകളുടെ സഹായത്തോടുകൂടി ഒന്നുകൂടി ഉയര്഼ത്തുക.
പൊക്കിള്഼വരെയാണു് നിലത്തുനിന്നും പൊങ്ങിനില്ക്കേണ്ടതു്. അത്ര
കൃത്യമായി പൊക്കിള്഼വരെ മാത്രം പൊക്കുക സാദ്ധ്യമല്ല.
അപ്പോള്഼, പിന്നെ ശ്രദ്ധിക്കേണ്ടതെന്തെന്നാല്഼, പൊക്കിളും വിരി~
പ്പും തമ്മില഼ുളള അകലം ആവുന്നിടത്തോളം കുറയ്ക്കുക എന്നതു മാത്രമാ~
ണു്. കൈമുട്ടുകള്഼ ആദ്യം വെച്ചിരുന്ന ലെവല്഼ വിട്ടു് വശങ്ങളിലേ~
ക്കു് അകന്നുപോകാതിരിക്കാന്഼ ശ്രദ്ധിക്കണം. മുട്ടുകള്഼ അകന്നു
പോകാനുളള ഒരു പ്രവണത ഉയരുന്ന അവസരത്തില്഼ ഉണ്ടായേക്കാം.</p>

<p>	8. ഉയര്഼ന്നുകഴിഞ്ഞാല്഼ വിമ്മിഷ്ടം കൂടാതെ എത്ര സമയം നി~
ല്ക്കാമോ, അത്രയും സമയം അങ്ങനെ നിന്നിട്ടു് സാവധാനം ശ്വാസം
വിട്ടുകൊണ്ടു് പൂര്഼വസ്ഥിതിയിലേക്കു മ഼ടങ്ങിപ്പോകുക.</p>

<p>	9. ഒന്നുരണ്ടു പ്രാവശ്യം ശ്വാസോച്ഛ്വാസം ചെയ്യുക.</p>

<p>	10. വീണ്ടും ആവര്഼ത്തിക്കുക.
	പഠിച്ചുകൊണ്ടിരിക്കുന്പോള്഼ ഭുജംഗാസനം അഞ്ചെട്ടു തവണ
ചെയ്യുക. അതിനു ശേഷം കുറഞ്ഞ പക്ഷം 3 മുതല്഼ 5 വരെ പ്രാവശ്യം
ചെയ്യേണ്ടതാണു്.</p>

<p>-87-</p>

<p>	(ഭുജംഗാസനവും തുടര്഼ന്നുളള മിക്ക ആസനങ്ങളും മുഖ്യമായ
ക്ലാസിക്കല്഼ ആസനങ്ങളില്഼ പെട്ടവയാണു്. അവയുടെ `ടെക്ക്നി~
ക്കു'കള്഼ മനസ്സിരുത്തി ഗ്രഹിച്ചു് ശ്രദ്ധാപൂര്഼വം അനുഷ്ഠിക്കണം.</p>

<p>പ്രയോജനം</p>

<p>സ്ത്രീകളുടെ ആര്഼ത്തവസംബന്ധമായ ക്രമക്കേടുകളും ആര്഼ത്തവകാല~
ത്തുണ്ടാകുന്ന അസഹനീയമായ വേദനകളും മാറുന്നതാണു്. ദഹന
ശക്തി വര്഼ദ്ധിക്കുന്നു. നട്ടെല്ലിനു് ദൃഢതയും നല്ല അയവും കിട്ടു~
ന്നു. നടുവേദന, നടുമിന്നല്഼, നടുവെട്ടല്഼ മുതലായ ശല്യങ്ങളൊന്നും
ഉണ്ടാകുന്നതല്ല. ലിവര്഼, കിഡ്നി മുതലായ ആന്തരാവയവങ്ങള്഼
ശക്തങ്ങളാകുന്നു.</p>

<p>	ഒരു മാസത്തെ നിരന്തരമായ അഭ്യാസംകൊണ്ടു് `ഉണ്ണിക്കുടവയ~
റെല്ലാം അപ്രത്യക്ഷമാകും.നല്ല വണ്ണവും വയറും ഉളളവര്഼, ഉചിത~
മായ ആഹാരപരിഷ്കരണത്തോടുകൂടി ഈ ആസനം ദിവസവും അനു~
ഷ്ഠിച്ചുകൊണ്ടിരുന്നാല്഼ പ്രത്യക്ഷമായ ഫലം സിദ്ധിക്കുന്ന~
താണു്.</p>

<p>മുന്നറിയിപ്പ്</p>

<p>ഹെര്഼ണിയ, പെപ്ടിക്ക് അള്഼സര്഼, ഹൈപ്പര്഼ തൈറോയിഡിസം
ഈ രോഗങ്ങളുളളവര്഼ ഭുജംഗാസനം ചെയ്യാന്഼ പാടില്ല.</p>

<p> -88-</p>

<p>22. അര്഼ദ്ധശലഭാസനം</p>

<p>	വെട്ടുക്കിളിയും തുന്പിയും, പറക്കുന്പോള്഼ അതിന്഼റെ കാലും
	വാലും പുറകോട്ടു നീട്ടി പൊങ്ങിനില്ക്കുന്നതു കണ്ടിരിക്കുമല്ലോ.
	ഏതാണ്ടു് അതുപോലെയായിരിക്കും ഈ ആസഩം ചെയ്യു~
	ന്പോള്഼. പൂര്഼ണശലഭാസനത്തെ അപേക്ഷിച്ചു അര്഼ദ്ധശലഭാ~
	സനം വളരെ ലഘുവാണു്. മൂന്നുനാലു ദിവസം ഇതു് അഭ്യസി~
	ച്ചതിനു ശേഷം ചെയ്യാം.</p>

<p>ചെയ്യേണ്ട വിധം</p>

<p>	1. ശരിക്കു കാലുകള്഼ നീട്ടി കമഴ്ന്നു കിടക്കുക. കാല്഼വിരലു~
കള്഼ കുത്തിനിറുത്താതെ നീട്ടിയും പാദത്തിന്഼റെ മുകള്഼ഭാഗം വിരി~
പ്പില്഼ പതിഞ്ഞും ഇരിക്കട്ടെ. കാലിന്഼റെ ഉപ്പൂററികളും തളളവിരലു~
കളും ചേര്഼ന്നിരിക്കണം.</p>

<p>	2.തളളവിരലുകള്഼ ഉളളിലേക്കായി ചുരുട്ടിപ്പിടിച്ചുകൊണ്ടു്
കൈകള്഼ നീട്ടി അതാതു വശങ്ങളില്഼ ദേഹത്തോടു ചേര്഼ത്തു്, മട~
ക്കിയ വിരലുകള്഼ മുകളിലായിരിക്കത്തക്കവിധം വെക്കുക. നെററി~
യും മൂക്കും നിലത്തു പതുക്കെ തൊട്ടിരിക്കട്ടെ.</p>

<p>	3. ശ്വാസം എടുത്തുകൊണ്ടു് ആദ്യം വലത്തുകാല്഼, മുട്ടു
വളയാതെ. ഒരു മൂച്ചിനു പൊക്കുക. ഈ സമയത്തു് ഇടത്തു
കാല്഼ നിലത്തു പതിഞ്ഞുതന്നെ ഇരിക്കേണ്ടതാണു്.</p>

<p>	4. ശ്വാസം മുട്ടാനിടവരാത്തവിധം ഒന്നുരണ്ടു സെക്കന്഼റ് പൊ~
ക്കിയ കാല്഼ അങ്ങനെതന്നെ നിറുത്തിയിട്ടു്, ശ്വാസം വിട്ടുകൊണ്ടു
സാവധാനം കാലു താഴേക്കു കൊണ്ടുവന്നു് ഇടത്തുകാലിനോടു
ചേര്഼ത്തു വെക്കുക.</p>

<p>	5.ഇനി ഇടതുകാലാവട്ടെ.</p>

<p>	6. കാലുകള്഼ അങ്ങനെ മാറിമാറി അഞ്ചു പ്രാവശ്യം വീതം
ചെയ്യുക.</p>

<p>-89-</p>

<p>പ്രയോജനം</p>

<p>താഴെ പറയുന്ന പൂര്഼ണശലഭാസനത്തിന്഼റെ ഗുണങ്ങള്഼ കുറച്ചൊക്കെ
ഇതില്഼നിന്നും കിട്ടുന്നതാണു്. വിശദമായി അടുത്തതില്഼ പറഞ്ഞിട്ടു~
ളളതു നോക്കുക.</p>

<p>					23. പൂര്഼ണശലഭാസനം</p>

<p>ചെയ്യേണ്ട വിധം</p>

<p>	1. അര്഼ദ്ധശലഭാസനത്തില്഼ പറഞ്ഞിട്ടുളളതുപോലെതന്നെ
കിടക്കുക. എന്നാല്഼ ഇതില്഼ നെററിയും മൂക്കുമല്ല, താടിയും ചുണ്ടുമാ~
ണു് നിലത്തോടു തൊട്ടിരിക്കേണ്ടതു്.</p>

<p>	2. ശ്വാസം എടുക്കുക. നിറച്ചു് പാടില്ല. ശ്വാസം അധികമെടു~
ത്താല്഼ ബുദ്ധിമുട്ടാണു്.</p>

<p>	3.രണ്ടു കാലുകളും ചേര്഼ത്തുപിടിച്ചുകൊണ്ടു് ഒപ്പം പൊക്കുക.
	
	4. പൊക്കിളും അതിനു മേല്഼ഭാഗം ഉടലും തറയില്഼ പതിഞ്ഞു
തന്നെ ഇരിക്കണം. കാല്഼മുട്ടുകള്഼ വളയരുതു്.</p>

<p>	5. കാലുകള്഼ പൊക്കിയ നിലയില്഼ ഒരു സെക്കന്഼ഡ് നിറുത്തി~
യിട്ടു്, ശ്വാസം വിട്ടുകൊണ്ടു് സാവധാനം താഴെ കൊണ്ടുവന്നു
വെക്കുക.</p>

<p>-90-</p>

<p>	6. തലയും തോളുകളും തറയില്഼നിന്നും പൊങ്ങാതെയും ശ്രദ്ധി~
ക്കണം. ഓരോന്നു കഴിയുന്പോഴും സ്വല്പം വിശ്രമിക്കുക. ശവാസന~
ത്തില്഼ വിശ്രമിക്കുക.</p>

<p>	7. ഈ ആസനം അഞ്ചു പ്രാവശ്യം ചെയ്യേണ്ടതാണു്.</p>

<p>-91-</p>

<p>	കുറച്ചു ദിവസം അര്഼ദ്ധശലഭാസനം ചെയ്തു ഒരു പരിചയം
വന്നശേഷം ശലഭാസനത്തിലേക്കു കടക്കുന്നതാണു നല്ലതു്. അര്഼ദ്ധ~
ശലഭാസനം ചുരുങ്ങിയതു് മൂന്നു പ്രാവശ്യം വീതം ഓരോ കാലും
ചെയ്തതിനുശേഷം ശലഭാസനം ചെയ്യുന്നതു നന്നായിരിക്കും.</p>

<p>	ശലഭാസനം കഴിയുന്പോള്഼ ഒരു ചെറിയ തണ഼ുപ്പനുഭവപ്പെടും.
അതു മാറുന്നതുവരെ ശവാസനത്തില്഼ കിടക്കുക. അനന്തരം അടുത്ത~
തു് ചെയ്യുക.</p>

<p>പ്രയോജനം</p>

<p>അള്഼സര്഼, ഹെര്഼ണിയ, ഹാര്഼ട്ട്ട്രബിള്഼ ഈ രോഗങ്ങളുളളവര്഼
ശലഭാസനം രണ്ടും ഒഴിവാക്കണം.</p>

<p>	ദഹനശക്തി വര്഼ദ്ധിക്കുന്നു. കീഴ്ഭാഗത്തെ നട്ടെല്ലുകളും ഼ഹൃദ~
യവും ശക്തിപ്പെടുന്നു. മലശോധന ക്രമീകരിക്കുകയും ഉദരസംബ~
ന്്ധമായ പല തകരാറുകളും മാറുകയും ചെയ്യുന്നു. ലിവര്഼, കുടല്഼,
കിഡ്നി, പാന്഼ക്രിയാസ് എന്നിവ ബലിഷ്ഠങ്ങളും പ്രവര്഼ത്തന~
ക്ഷമവും ആയിത്തീരുന്നു.</p>

<p>	അഡ്രിനല്഼ ഗ്ലാന്഼ഡ്സും പ്രൊസ്േററററ് ഗ്ലാന്഼ഡും ബ്ലാഡറും ശരി~
യായവിധം പ്രവര്഼ത്തിക്കാന്഼ ശലഭാസനം സഹായകമാകുന്നു. നട്ടെ~
ല്ലിനു അസ്വാഭാവികമായ വ഼ല്ല വളവോ ഞെളിവോ ഉണ്ടെങ്കില്഼
അതു് ശരിപ്പെടുത്താനും ശലഭാസനം പ്രയോജനപ്പെടുന്നതാണു്.
ശലഭാസനം അനുഷ്ഠിച്ചുകൊണ്ടിരിക്കുന്നവര്഼ക്കു് മൂലക്കുരു 
ഉണ്ടാകുന്നതല്ല.</p>

<p>-92-</p>

<p>24. ഹലാസനം</p>

<p>	`ഹലം' എന്നാല്഼ കലപ്പ എന്നാണര്഼ത്ഥം. ഈ വ്യായാമം ചെയ്യു~
	ന്പോള്഼ ശരീരം ഒരു കലപ്പയുടെ ആകൃതിയിലാകുന്നതുകൊണ്ടു്
	ഹലാസനം എന്ന പേരു വന്നു.
		
		ഒററയടിക്കു് ഹലാസനം ചെയ്യാന്഼ ബുദ്ധിമുട്ടുണ്ടു്. അതു~
	കൊണ്ടു് അതിന്഼റെ ലളിതമായ ഒരു സന്പ്രദായം ആദ്യം പഠിക്കു~
	ക. അതു സ്വാധീനമായാല്഼ ഹലാസനത്തിലേക്കു് കടക്കാം. അതു~
	കൊണ്ടു് പൂര്഼വഹലാസനം എന്ന അതിന്഼റെ ലളിതരൂപം നമുക്കു്
	ആദ്യം പഠിക്കാം.</p>

<p>ചെയ്യേണ്ട വിധം</p>

<p>	1. കാലുകള്഼ നീട്ടി മലര്഼ന്നു കിടക്കുക. പാദങ്ങള്഼ ചേര്഼ത്തും
വിരലുകള്഼ നീട്ടിയും വെക്കുക.</p>

<p>	2. കൈകള്഼ നീട്ടി മുഷ്ടികള്഼ ചുരുട്ടി പൃഷ്ടത്തിനു ചുവട്ടില്഼
വെക്കുക.</p>

<p>	3. ശ്വാസം എടുത്തുകൊണ്ടു് മുട്ടു
	വളയ്ക്കാതെ കാലുകള്഼ നേരെ
	പൊക്കി നെട്ടനെ അരയ്ക്കുമുകലില്഼
	കൊണ്ടുവരിക. കൈകളില്഼ ബലം
	കൊടുക്കാതെ വയററിലെ മസ്സിലു~
	കളുടെ സഹായത്താല്഼ വേണം ഇ~
	ത്രയും ചെയ്യുവാന്഼.</p>

<p>	        4.ശ്വാസം വിട്ടുകൊണ്ടു് പാദ~
	ങ്ങള്഼ മുഖത്തിനു നേരെയും മുഖത്തി~
	നടുത്തേക്കും കൊണ്ടുവരിക. ഇവി~
	ടെ കൈകളുടെ സഹായം വേണ്ടി
	വരുന്നു.</p>

<p>	5. എത്താവുന്നിടത്തോളം എത്തിയിട്ടു്പഴയ സ്ഥിതിയി~
ലേക്കു മടങ്ങുക. ഇങ്ങനെ പല പ്രാവശ്യം ചെയ്യുക.</p>

<p>	6. ഇങ്ങനെ ഏതാനും പ്രാവശ്യം വീതം എല്ലാദിവസവും
ശീലിക്കുക. ക്രമേണ, പാദങ്ങള്഼ ശിരസ്സും കടന്നു നീണ്ടു പോകുന്ന~
താണു്.</p>

<p>-93-</p>

<p>	7. ഇത്രത്തോളമായാല്഼ കാലിന്഼റെ വിരലുകള്഼ നിലത്തു മുട്ടി~
ക്കുക. ഇങ്ങനെയും കുറച്ചു ദിവസം ആകട്ടെ. ഈ സ്ഥിതിയില്഼,
കാല്഼മുട്ടുകള്഼ നെററിയോടു് തൊട്ടിരിക്കുന്നതാണു്.</p>

<p>	കുറച്ചു ദിവസത്തെ പരിചയംകൊണ്ടു് പൂര്഼വഹലാസനം എളുപ്പ~
മായിത്തീരും. തുടര്഼ന്നു് ഹലാസനം പരീക്ഷിക്കാം.</p>

<p>-94-</p>

<p>25. പൂര്഼ണഹലാസനം</p>

<p>ചെയ്യേണ്ട വിധം</p>

<p>	1. മേല്഼പറഞ്ഞ പ്രകാശം പൂര്഼വഹലാസനം ചെയ്തു കാല്഼വിരലു~
കള്഼ തലയോടു് ആവുന്നത്ര അടുപ്പിച്ചു് താഴെ മുട്ടിച്ചു വെക്കുക.</p>

<p>	2. അതേ നിലയില്഼തന്നെ നിന്നുകൊണ്ടു് പാദങ്ങള്഼ ഇനിയും
അകത്തിയകത്തി പുറകോട്ടു കൊണ്ടുപോകുക. ശിരസ്സും കാല്഼വിരലു~
കളും തമ്മിലുളള അകലം ആവന്നത്ര വര്഼ദ്ധിപ്പിക്കുക.</p>

<p>	3. ഉടലിന്഼റെ ബാലന്഼സ് തെററാതിരിക്കാന്഼ കൈകള്഼ അതാ~
തു വശങ്ങളില്഼ ക്രമപ്പെടുത്തി നീട്ടിത്തന്നെ വെച്ചിരിക്കണം.</p>

<p>	ഈ നിലയില്഼, കൈകള്഼ എടുത്താലും ബാലന്഼സ് തെററുകയി~
ല്ലെന്നു് ബോദ്ധ്യം വന്നാല്഼, കൈകള്഼ രണ്ടും അതാതു വശങ്ങളില്഼
നിന്നും എടുത്തു നേരെ പുറകോട്ടു നീട്ടി കാല്഼വിരലുകളില്഼ പിടിച്ചു
കൊണ്ടും, ചിത്രത്തില്഼ കാണുന്നതുപോലെ കൈകള്഼ മടക്കി ശിര~
സ്സിനോടു ചേര്഼ത്തു വെച്ചുകൊണ്ടും ഹലാസനം ചെയ്യാവുന്നതാണു്.
നല്ല പ്രാക്ടീസ് വന്നതിനുശേഷം മാത്രം ഈ രീതി സ്വീകരി~
ക്കുക.</p>

<p>	4.ഈ നിലയില്഼ രണ്ടോ മൂന്നോ പ്രാവശ്യം ശ്വാസോച്ഛ്വാസം
ചെയ്തശേഷം, പോയമാതിരിതന്നെ മടങ്ങിപ്പോരിക.</p>

<p>	5. ഇതു് അഞ്ചുപ്രാവശ്യം ചെയ്യുക.</p>

<p>	ഹലാസനം ഒരുവിധം സ്വാധീനമായാല്഼ സര്഼വാംഗാസന~
ത്തില്഼നിന്നും ഹലാസനത്തിലേക്കു പോകാവുന്നതാണു്. അത്രയ്ക്കു
പ്രാക്ടീസ് ആയിട്ടില്ലെന്നു തോന്നുന്ന പക്ഷം സര്഼വാംഗാസനം
കഴിഞ്ഞു് ഒരു മിനിട്ടു് ശവാസനത്തില്഼ കിടന്നതിനുശേഷം ഹലാ~
സനവും തുടര്഼ന്നു് മത്സ്യാസനവും ചെയ്യാവുന്നതാണു്.</p>

<p>	അതല്ലെങ്കില്഼ മത്സ്യാസനം കൂടി കഴിഞ്ഞിട്ടു് ഹലാസനം, ഭുജം
ഗാസനം ഈ ക്രമത്തിലും അനുഷ്ഠിക്കാം.</p>

<p>പ്രയോജനം</p>

<p>അരക്കെട്ടിന്഼റെ വണ്ണം കുറയുന്നു. വയററിലെ മാംസപേശികള്഼ ദൃഢ~
മാകുന്നു. ദഹനശക്തി വര്഼ദ്ധിക്കുന്നു. മദ്ധ്യപ്രദേശത്തിലെ കൊഴുപ്പു്
കുറൟുന്നു. നട്ടെല്ലുകളെ ഘടിപ്പിച്ചു നിറുത്തുന്ന ലിഗ്മെന്഼റ്സും
ഞരന്പുകളും ശക്തമാകുന്നു. ശബ്ദശുദ്ധി ഉണ്ടാകുന്നു. തുടര്഼ച്ചയായ
അഭ്യാസംകൊണ്ടു് ശാരീരികമായും മാനസികമായും ഉണ്ടായിരി~
ക്കാവുന്ന അലസത അപ്രത്യക്ഷമാകുന്നു.</p>

<p>കുറിപ്പു്</p>

<p>ഏതെങ്കിലും ആസനങ്ങള്഼ അഭ്യസിക്കുന്പോള്഼ എന്തെങ്കിലും വിഷമങ്ങള്഼
എപ്പോഴെങ്കിലും തോന്നിയാല്഼ ഉടന്഼തന്നെ അതില്഼നിന്നും വിരമിച്ചു 
# മടങ്ങി~
പ്പോരിക. തുടര്഼ന്നു് സ്വല്പസമയം ശവാസനത്തില്഼ കിടക്കുക. അല്പ</p>

<p>-95-</p>

<p>സമയത്തിനുളളില്഼ വളരെ സുഖം കിട്ടുന്നതാണു്. വീണ്ടും പരിശ്രമിക്കുക.</p>

<p>	മിക്ക ആസനങ്ങളിലും ശ്വാസോച്ഛ്വാസം സ്വാഭാവികം മാത്രമാണു്.
അതിനു വിപരീതമായി പോകുന്പോഴാണു് ബുദ്ധിമുട്ടുകള്഼ അനുഭവപ്പെടു~
ന്നതു്.</p>

<p>	ആസനങ്ങള്഼ ചെയ്യുന്നതിനു് ആരും സഹായിക്കാന്഼ പാടില്ല. ചെയ്യേണ്ട
വിധങ്ങള്഼ ആരെങ്കിലും വായിച്ചു തരാനുണ്ടെങ്കില്഼ അതൊരു സൌകര്യമായി~
രിക്കും.</p>

<p>	മത്സരിക്കാതെയും അഹങ്കരിക്കാതെയും ഓരോന്നും അഭ്യസിക്കാന്഼
ശ്രമിക്കണം.</p>

<p>	ഓരോ ആസനങ്ങളുടേയും പ്രയോജനങ്ങള്഼ കൊടുത്തിരിക്കുന്നതു് വളരെ
സംഗ്രഹിച്ചാണെന്നു ധരിക്കുക. വിസ്തരിക്കാന്഼ തുട഼ങ്ങിയാല്഼ പലതും
പറയാനുണ്ടു്.</p>

<p>	ആസനം ഏതായാലും ശരി, അതു ശരീരത്തെ ആകമാനം സ്വാധീനിക്കു~
ക്കയും ശരീരത്തില്഼ ഓരോരോ വിധത്തിലുളള ചലനങ്ങള്഼ സൃഷ്ടിക്കുകയും
െചയ്യുന്നതാണു്. ഒരിഞ്ചു സ്ഥലംപോലും ശരീരത്തില്഼ വ്യായാമം ലഭിക്കാ~
തിരുന്നുകൂടാ.</p>

<p>-96-</p>

<p>26. ധനുരാസനം</p>

<p>	ശരീരം വില്ലു (ധനുസ്സ്)പോലെ പിടിക്കുന്ന ഒരു ആസന~
മാണു് ധനുരാസനം. മേല്഼ പറയപ്പെട്ട നാലു് ആസനങ്ങള്഼ കഴി~
ഞ്ഞാല്഼ ധനുരാസനം ചെയ്യണമെന്നാണു വ്യവസ്ഥ.അപ്പോഴേ
മുഴുവന്഼ നട്ടെല്ലിനും പരിപൂര്഼ണമായ വ്യാൟാമം ലഭിക്കുകയുളളു.</p>

<p>	ഇതിനും കുറച്ചു ബുദ്ധിമുട്ടൊക്കെയുണ്ടു്. പക്ഷേ, അഭ്യാ~
സംകൊണ്ടു ക്രമേണ നിഷ്പ്രയാസം ചെയ്യാന്഼ സാധിക്കുന്ന~
താണു്.</p>

<p>ചെയ്യേണ്ട വിധം</p>

<p>	1.കമിഴ്ന്നു കിടക്കുക.</p>

<p>	2.രണ്ടു കാലും പുറകോട്ടു മടക്കി കൊണ്ടുവന്നു് അതാതു വശ~
ത്തെ കൈകള്഼ എത്തിച്ചു് കണ്ണയില്഼ മുറുക്കി പിടിക്കുക.</p>

<p>	3. ഇനി തലയും നെഞ്ചും തുട഼കളും നിലത്തുനിന്നും പൊക്കുക.
എത്രത്തോളമോ അത്രത്തോളം പൊക്കുക.</p>

<p>	4. പൊങ്ങിക്കഴിഞ്ഞാല്഼ മന്ദമായി ശ്വാസോച്ഛ്വാസം ചെയ്യുക~
യോ ശ്വാസം ഉളളില്഼ പിടിച്ചിരിക്കുകയോ ആകാം.</p>

<p>	കൈയും കാലും തമ്മില്഼ ഒരു വടംവലിയാണു നടത്തേണ്ടതു്.
അപ്പോള്഼ സ്വാഭാവികമായി രണ്ടു വശവും താനേ നിലത്തുനിന്നും
പൊങ്ങിക്കൊളളും.</p>

<p>	തുടക്കത്തില്഼ രണ്ടു ഭാഗവും ഒപ്പം പൊങ്ങിയില്ലെങ്കില്഼ ഓരോ
ഭാഗങ്ങളായി ഉയര്഼ത്തി പരിശീലിച്ചു വന്നു വന്നു് ഒടുവില്഼ ഒപ്പം
പൊക്കാന്഼ നോക്കുക.</p>

<p>	ചിലര്഼ക്കു കാലില്഼ പിടിക്കാന്഼ കൈ എത്തിയെന്നു വരില്ല.
അങ്ങനെയുളളവര്഼ കൈ എത്തുന്നിടത്തു പിടിച്ചു് അഭ്യസിക്കാന്഼
നോക്കുക. അതും പററാതെ വന്നാല്഼ ഓരോ വശം മാത്രം ചെയ്തു
തുടങ്ങുക. അതായതു്, വലതുകൈകൊണ്ടു വലതു കാലിന്഼റെ കണ്ണ~
യില്഼ പിടിച്ചു കാലും തലയും ആവുന്നത്ര ഉയര്഼ത്താന്഼ ശ്രമിക്കുക.
തുടര്഼ന്നു് അതുപോലെ മേററ വശവും.</p>

<p>	മേലനങ്ങാതെ ആര്഼ക്കും ഒന്നും നേടാനാവില്ല. പ്രത്യേകിച്ചു്
ശരീരസംസ്കരണവും തികഞ്ഞ ആരോഗ്യവും. ദിവസങ്ങളും, ആഴ്ചക~
ളും, മാസങ്ങളും തുടര്഼ച്ചയായി കഷ്ടപ്പെടുന്നതിനേക്കാള്഼ എത്രയോ
ഭേദമാണു് ദിവസവും അരമണിക്കൂര്഼ നേരമെങ്കിലും മനസ്സറിഞ്ഞു
കുറച്ചു ബുദ്ധിമുട്ടുന്നതു് ? മൂന്നു പ്രാവശ്യം ചെയ്യുക.</p>

<p>പ്രയോജനം:</p>

<p>ഇതിനു തൊട്ടു മുന്പു പറഞ്ഞിട്ടുളള നാലു് ആസനങ്ങളുടേയും ഗുണങ്ങള്഼
ഇതിനുണ്ടു്. വിശേഷിച്ചു്, കൈയിനും കാലിനും, കഴുത്തിനും
പുറത്തിനും നല്ല ഒരു വ്യായാമമാണു്. സന്ധികള്഼ക്കും</p>

<p>-97-</p>

<p>അരക്കെട്ടിനും ഉളള മുറുക്കം മാറുന്നു. നെഞ്ചിനു വിരിവും ശ്വാസ~
കോശങ്ങള്഼ക്കു വികാസവും സിദ്ധിക്കുന്നു. പ്രവേശികാ വിഭാഗ~
ത്തില്഼ പറഞ്ഞിട്ടുളള സുപ്രധാന ഗ്രന്ധികള്഼ക്കു്
ഉണര്഼വും ഉത്തേജനവും ഉണ്ടാകുന്നു. കൂടുതല്഼ സമയം ഇരുന്നു ജോലി
ചെയ്യുന്നവര്഼ക്കു് ഈ ആസനം ഒരനുഗ്രഹമായിരിക്കും. പ്രമേഹ
രോഗികള്഼ ഈ ആസനം അഭ്യസിക്കുന്നതു നല്ലതാണു്. ദഹന~
ക്ഷയം, മലബന്ധം, വാതകോപം ഇതിനെല്ലാം ആ ആസനം ഗുണ~
കരമാണു്. രക്തസമ്മര്഼ദം,ഹൃദ്രോഗം, ഉദരസംബന്ധമായ മററു
വ്യാധികള്഼, ഇതേതെങ്കിലും ഉളളവര്഼ ധനുരാസനം ചെയ്യാന്഼
പാടില്ല.</p>

<p>-98-</p>

<p>27. മകരാസനം-1</p>

<p>	ധനുരാസനം മൂന്നു നാലു പ്രാവശ്യം ചെയ്യുന്പോഴേക്കും നിങ്ങള്഼
	അല്പം ക്ഷീണിച്ചിരിക്കും. അതു് മാറുന്നതിനു്,അങ്ങനെതന്നെ
	കമിഴ്ന്നു കിടന്നുകൊണ്ടു് ഒരു ആസനം അഭ്യസിക്കേണ്ടതാണു്.
	അതു രണ്ടു വിധത്തിലുണ്ടു്. അതിന്഼റെ പേരാണു് മകരാസനം.
	മുതലയ്ക്കാണു് `മകരം' എന്നു പറയുന്നതു്. മുതലകള്഼ വെളള~
	ത്തില്഼഼നിന്നും കരയ്ക്കു കയറി വെയിലു കാഞ്ഞുകിടക്കുന്ന കിട~
	പ്പിനെ അനുകരിച്ചു ചെയ്യുന്നതാണു് മകരാസനം.</p>

<p>ചെയ്യേണ്ട വിധം</p>

<p>	1. നെഞ്ചും വയറും നിലത്തു പതിയത്തക്കവണ്ണം കമിഴ്ന്നു
കിടക്കുക.</p>

<p>	2. കാലുകള്഼ പുറകോട്ടു നീട്ടി അകത്തിവെക്കുക. കാലുകള്഼
തികച്ചും തളര്഼ത്തി ഇട്ടേക്കുക. പാദങ്ങള്഼ സ്വാഭാവികമായി ചെരി~
ഞ്ഞു കിടക്കട്ടെ.</p>

<p>	3.കൈമുട്ടുകള്഼ മടക്കി രണ്ടും ചേര്഼ത്തുപിടിച്ചു നെററിയുടെ
ചുവട്ടില്഼ കൊണ്ടുവന്നു് തല അതിന്഼റെ മുകളില്഼ ഒരുവശം ചെരിച്ചു
വെക്കുക.</p>

<p>	4. കണ്ണുകള്഼ അടയ്ക്കുക.</p>

<p>	5. ശ്വാസഗതി സ്വാഭാവികമായിത്തന്നെ നടന്നുകൊളളട്ടെ.
ഇത്രയുമായാല്഼ മകരാസനം-1 ആയി.</p>

<p>-99-</p>

<p>				  28. മകരാസനം -2</p>

<p>ചെയ്യേണ്ട വിധം</p>

<p>	1. കമിഴ്ന്നു കിടക്കുക.കാലുകള്഼ രണ്ടും ചേര്഼ത്തു് പാദങ്ങള്഼
മുകളിലേക്കായി നീട്ടിവെക്കുക. കിടപ്പു് ഒരേ ലൈനില്഼ ആയിരി~
ക്കണം.</p>

<p>	2. കൈമുട്ടുകള്഼ തോളുകള്഼ക്കു താഴെ ഊന്നി ഉളളംകൈകള്഼
കൊണ്ടു താടിക്കു് ഒരു താങ്ങു കൊടുത്തുകൊണ്ടു കിടക്കുക. ഉളളം
കൈയും ചേര്഼ത്തു പിടിച്ച വിരലുകളും അതാതു വശത്തെ കവിളില്഼
ചേര്഼ത്തുവെച്ചിരിക്കണം. ഇത്രയുംകൊണ്ടു് മകരാസനം രണ്ടാമത്തെ
രീതി മുഴുവനുമായി.</p>

<p>	ശവാസനത്തിനു പകരം ചെയ്യുന്ന ഒരു ആസനമാണിതു്.
പ്രത്യേകിച്ചും കമിഴ്ന്നു കിടന്നുകൊണ്ടുളള ആസനങ്ങള്഼ ചെയ്തശേ~
ഷം ഒന്നു രണ്ടു മിനിട്ടു് ഈ രീതിയില്഼ കിടക്കുന്പോഴേക്കും സര്഼വ
ക്ഷീണവും മാറിയിരിക്കും.</p>

<p>പ്രയോജനം</p>

<p>നടുവേദന, നടുമിന്നല്഼, ഇടുപ്പുവേദന ഇതെല്ലാം
ശമിക്കുവാന്഼ ദിവസം രണ്ടു മൂന്നു തവണ 15 മിനിട്ടു നേരം വീതം
മകരാസനം ചെയ്താല്഼ ശമനം കിട്ടും. പെട്ടെന്നു ക്ഷീണം മാറിക്കിട്ടും.</p>

<p>-100-</p>

<p>29. വക്രാസനം-1</p>

<p>	നമ്മുടെ ശരീരത്തിന്഼റെ ഏററവും കരുത്തുററ നടുംതൂണാണു്
	നട്ടെല്ലു്. ശരീരാന്തര്഼ഭാഗത്തുളള സര്഼വ അവയവങ്ങളും നാഡിക഼഼ളും
	മര്഼മപ്രധാനമായ ഗ്രന്ഥികളും നട്ടെല്ലിനോടു ബന്ധപ്പെട്ടാണിരിക്കു~
	ന്നതു്. അതിന്഼റെ സര്഼വപ്രകാരേണയുമുളള 
	# പ്രവര്഼ത്തനസാമര്഼ത്ഥ്യം	
	അതിനോടു ബന്ധപ്പെട്ടിരിക്കുന്ന മററവയവങ്ങളുടെ ആരോഗ്യ~
	ത്തിനു് അത്യന്താപേക്ഷിതമാണു്. മിക്കവാറും എല്ലാ ആസനങ്ങ~
	ളും നട്ടെല്ലിനുകൂടി ബാധകമാകുന്നു. അപ്രകാരമാണു് ആസന~
	ങ്ങള്഼ ആവിഷ്കരിച്ചിരിക്കുന്നതു്.</p>

<p>		നട്ടെല്ലു് മുന്പോട്ടും പുറകോട്ടും വളയാനും ഞെളിയാനും 
	# നിവര്഼~
	ന്നിരിക്കാനുമുളള ആസഩങ്ങളാണു് നാം ഇതുവരെ പഠിച്ചതു്.
	ഇനി വേണ്ടതു് നിവര്഼ന്നിരിക്കുന്ന നട്ടെല്ലിനെ സ്ക്രൂ തിരിക്കു~
	ന്ന മാതിരി ഓരോ വശത്തേക്കും തിരിക്കുകയാണു്.ഇതിനു് പല
	അസനങ്ങളുമുണ്ടു്. അവയില്഼ പ്രയാസം കുറ഼ഞ്ഞ രണ്ടു രീതികളാ~
	ണു് താഴെ പറയുന്ന വക്രാസനം ഒന്നും രണ്ടും.</p>

<p>ചെയ്യേണ്ട വിധം</p>

<p>	1. കാലുകള്഼ രണ്ടും മുന്഼പോട്ടുനീട്ടി ശരിക്കു് നിവര്഼ന്നിരിക്കുക.
	2. വലത്തുകാല്഼ മടക്കി, പാദം ഇടത്തുകാലിന്഼റെ വലതു
	വശത്തു് മുട്ടിനോടു ചേര്഼ത്തു വെക്കുക. ഇങ്ങനെ വെക്കുന്പോള്഼
	# ഇടത്തു
	കാലിന്഼റെ മുട്ടു് വലത്തു കാലിന്഼റെ പാദത്തിനു മദ്ധ്യത്തിലായിരി~
	ക്കട്ടെ. മുകളിലല്ല, ഒരു വശതതു്.</p>

<p>	3. വലത്തുകൈ മുട്ടുവളയ്ക്കാതെ വലത്തെ അരക്കെട്ടിനു സമീ~
	പം കുറച്ചു പുറകിലേക്കു മ഼ാററി ഉളളംകൈ നിലത്തു പതിച്ചു വെക്കു~
	ക.  ഉടല്഼ പുറകോട്ടു് ചാഞ്ഞു പോകാതിരിക്കണം.</p>

<p>	4. ഇനി ഇടത്തുകൈ പൊക്കി വലെഫെു കാല്഼മുട്ടിന്഼റെ മുകളില്഼
	കൂടി വലത്തു വശത്തേക്കു കൊണ്ടുവന്നു് ഉളളംകൈ നിലത്തു പതിച്ചു
	വെക്കുക.</p>

<p>	5. മടക്കി നിറുത്തിയിരിക്കുന്ന വലത്തുകാല്഼ വലത്തുവശത്തേ~
	ക്കു ചാഞ്ഞും ചെരിഞ്ഞും പോകാതിരിക്കാനാണു് ഇടത്തുകൈ
	ഇവിടെ സ്ഥാപിച്ചിരിക്കുന്നതു്.</p>

<p>	6. ഈ ഇരിപ്പില്഼ തലയും കഴുത്തും തോളും നെഞ്ചും ഉള്഼പ്പെ~
	ടെ അരക്കെട്ടിന്഼റെ മേല്഼ഭാഗം മുഴുവനും വലത്തു വശത്തേക്കു തിരി~
	ക്കുക. അങ്ങനെ തിരിയുന്പോള്഼ താടി ഉരത്തിന്഼റെ മുകളിലായി
	വരുത്താന്഼ നോക്കണം. ദൃഷ്ടിയും അതനുസരിച്ചു തിരിഞ്ഞു
	കൊളളട്ടെ.</p>

<p>	7. തിരിയാന്഼ പററുന്നിടത്തോളം തിരിയുക. ഈ തിരിച്ചില്഼
	നട്ടെല്ലിനെ സ്പര്഼ശിക്കുന്നതായി അനുഭവപ്പെടണം.</p>

<p>-101-</p>

<p>	8. തിരിയുന്പോള്഼ ശ്വാസം വിടുക. ശ്വാസം എടുത്തുകൊണ്ടു്
	നേരെ വരിക. അഞ്ചെട്ടു പ്രാവശ്യം അതുതന്നെ ആവര്഼ത്തിക്കുക.</p>

<p>	9. ഇതുപോലെതന്നെ ഇടത്തു കാലും കൈയും ഉപയോഗിച്ചുു്
	ഇടതുവശവും അത്രയും പ്രാവശ്യം ചെയ്യുക.</p>

<p>	പ്രയോജനം അടുത്തതിനോടു   ചേര്഼ത്തു് പറഞ്ഞിട്ടുളളതു്
	നോക്കുക.</p>

<p>				  വക്രാസനം -2</p>

<p>	വണ്ണവും വയറും സ്വല്പം കൂടുതലുളളവര്഼ക്കു് മേല്പറഞ്ഞ വക്രാസ~
	നം ചെയ്യാന്഼ തുടക്കത്തില്഼ കുറച്ചു വിഷമമായിരിക്കും. അതുകൊ~
	ണ്ടു് അതിനെക്കാള്഼ കുറച്ചുകൂടി എളുപ്പമുളള ഒരു വക്രാസനമാണു്</p>

<p> -102-</p>

<p>	ഇനി പറയാന്഼ പോകുന്നതു്.ബുദ്ധിമുട്ടുളള ആസനങ്ങള്഼ ഉപേ~
	ക്ഷിക്കണമെന്നു് ഇവിടെ വിവക്ഷയില്ല. പരിശീലനം തുടര്഼ന്നു
	കൊണ്ടുപോയാല്഼ ക്രമേണ ശരീരം വഴങ്ങി ഏതാസനവും ചെയ്യ~
	ത്തക്ക നിലയിലായിക്കൊളളും.</p>

<p>ചെയ്യേണ്ട വിധം</p>

<p>	1.കാലുകള്഼ രണ്ടും നീട്ടി ശരിക്കു് നട്ടെല്ലു് നിവര്഼ത്തി
ഇരിക്കുക.</p>

<p>	2. കൈകള്഼ തോളിനു സമം ഉയര്഼ത്തി നേരെ മുന്പോട്ടു നീട്ടി
കാലുകള്഼ക്കു സമാന്തരമായി പിടിക്കുക.</p>

<p>	3. കൈകളുടെ തളളവിരലുകള്഼ തമ്മിലുളള അകലം രണ്ടു കക്ഷ~
ങ്ങള്഼ തമ്മിലുളള അകലംതന്നെയായിരിക്കണം. വിരലുകളെല്ലാം
ചേര്഼ത്തു പിടിച്ചിരിക്കണം.</p>

<p>	4. പാദങ്ങള്഼ നിവര്഼ന്നിരിക്കട്ടെ.</p>

<p>	5. ശ്വാസം എടുക്കുക. ശ്വാസം വിട്ടുകൊണ്ടു് കൈകളും തലയും
കഴുത്തും കണ്ണും ഉടല്഼ മുഴുവനും ഒപ്പം വലത്തുവശത്തേക്കു തിരിക്കുക.
നീട്ടിയിരിക്കുന്ന കാലുകള്഼ക്കു സ്ഥാനചലനം പാടില്ല.</p>

<p>	6. കൈകള്഼ തമ്മിലുളള അകലം തുടക്കത്തിലെന്നപോലെ
നില നിറുത്തണം.</p>

<p>	7. ഇനി ശ്വാസം എടുത്തുക഼ൊണ്ടു് നേരെ വരിക. ശ്വാസം
വിട്ടുകൊണ്ടു് ഇടത്തു വശത്തേക്കു് ശരീരം തിരിക്കുക.</p>

<p>	8. ശ്വാസം എടുത്തുകൊണ്ടു് നേരെ വരിക.</p>

<p>	9. ശ്വാസം വിട്ടുകൊണ്ടു് വലത്തു വശത്തേക്കു തിരിക്കുക.
	ഇങ്ങനെ മാറി മാറി ഓരോ വശത്തേക്കും ശരീരത്തെ തിരിക്കുക.
ഇങ്ങനെ തിരിഞ്ഞു വരുന്പോള്഼ നട്ടെല്ലില്഼ ഒരു പിടുത്തം അനുഭവ~
പ്പെടുന്നതാണു്. വ്യായാമം നട്ടെല്ലിനു കിട്ടുന്നുണ്ടെന്നുളളതിന്഼റെ
സൂചനയാണതു്.</p>

<p>	ഓരോ വശവും അഞ്ചു പ്രാവശ്യം വീതം.</p>

<p>പ്രയോജനം</p>

<p>നട്ടെല്ലിന്഼റെ കണ്ണികള്഼ക്കു് നല്ല അഴച്ചില്഼ കിട്ടുന്നു.കുനിയാനും
നിവരാനും  ചരിയാനും തിരിയാനും എല്ലാം വളരെ എളുപ്പമാകുന്നു.
നട്ടെല്ലുകളെ സംയോജിപ്പിച്ചു നിറുത്തുന്ന മാംസപേശികള്഼ക്കു് ഉറപ്പും
ബലവും  കിട്ടുന്നു. ആ ഭാഗങ്ങളിലെ ഞരന്പുകളും ബലപ്പെടുന്നു.</p>

<p>	പലരുടേയും നട്ടെല്ലുകള്഼ സോഡാക്കുപ്പിപോലെയാണു്.ലവ~
ലേശം വളഞ്ഞുകൊടുക്കില്ല. വളയ്ക്കാന്഼ ശ്രമിച്ചാല്഼തന്നെ ഒരു പരിധി~
വരെ മാത്രമേ പോകൂ.</p>

<p>	നട്ടെല്ലിന്഼റെ മദ്ധ്യത്തില്഼കൂടി പോകുന്ന സുഷുമ്ന നാഡിയും
വശങ്ങളില്഼കൂടി പോകുന്ന ഇഡ, പിംഗള എന്നീ
നാഡികളും അതിനോടു ബന്ധപ്പെട്ട അനേകായിരം ഞരന്പുകളും
ശുദ്ധീകരിക്കുന്നതിനും ഈ ആസനം ഉപകരിക്കുന്നു.</p>

<p>-103-</p>

<p>			   30. അര്഼ദ്ധമല്഼സ്യേന്ദ്രാസനം</p>

<p>	മത്സ്യേന്ദ്രന്഼ എന്ന മഹര്഼ഷിയാണു് മത്സ്യേന്ദ്രാസനത്തിന്഼റെ അവ~
	താരകന്഼. അങ്ങനെയാണു് മത്സ്യേന്ദ്രാസനം എന്ന പേരു ലഭിച്ച~
	തു്. പക്ഷേ, അതനുഷ്ഠിക്കാന്഼ കുറച്ചു ക്ലേശമുണ്ടു്. അതുകാരണം,
	അദ്ദേഹത്തിന്഼റെ ശിഷ്യഗണങ്ങള്഼ ആ ആസനത്തില്഼ ചില ഭേദ~
	ഗതികള്഼ വരുത്തി ലഘൂകരിച്ചു. അതിനു് അര്഼ദ്ധ മത്സ്യേന്ദ്രാസ~
	നം എന്നു് നാമകരണവും ചെയ്തു. അതാണു് മിക്കവാറും എല്ലാ
	യോഗിമാരും സ്വീകരിച്ചിരിക്കുന്നതു്.</p>

<p>ചെയ്യേണ്ട വിധം</p>

<p>	1. കാലു രണ്ടും മുന്഼പോട്ടു നീട്ടി നിവര്഼ന്നിരിക്കുക. 
	
	2. വലത്തുകാല്഼ മടക്കി അതിന്഼റെ ഉപ്പുററി മലദ്വാരത്തിനും
ജനനേന്ദ്രിയത്തിനുമിടയ്ക്കുളള സീവിനി എന്ന ഭാഗത്തു് 
ചേര്഼ത്തു വെക്കുക.</p>

<p>	3. ഇടത്തുകാല്഼മുട്ടു മടക്കി കൈകളുടെ സഹായത്തോടെ പൊ~
ക്കി അതിന്഼റെ പാദം, മടക്കിവെച്ചിരിക്കുന്ന വലത്തു കാലിന്഼റെ 
മുട്ടിനു് തൊട്ടു വലത്തു വശം താഴെ പതിച്ചു വെക്കുക. ഇങ്ങനെ
ചെയ്യുന്പോള്഼ വലത്തുകാലിന്഼റെ ഉപ്പുററി യഥാസ്ഥാനത്തുനിന്നും
തെന്നിപ്പോകാതെ ശ്രദ്ധിക്കേണ്ടതാകുന്നു. ഇപ്പോള്഼ ഇടത്തു കാല്഼
മുട്ടു് വലത്തെ കക്ഷത്തിനോടു് വളരെ അടുത്തായിരിക്കും.</p>

<p> -103-</p>

<p>	4. വലത്തു കൈ ഇടത്തു കാല്഼മുട്ടിനു മുകളില്഼കൂടി എടുത്തു
നീട്ടി ഇടത്തുകാല്഼ പെരുവിരലില്഼ പിടിക്കുക.</p>

<p>	5. തുടര്഼ന്നു് ഇടത്തു കൈ പുറകില്഼ കൂടി ക഼ൊണ്ടുവന്നു് വല~
ത്തേ തുടയുടെ മുകളില്഼ കമഴ്ത്തി വെക്കുക.</p>

<p>	6. ഇനിയാണു് ട്വിസ്ററ് കൊടുക്കേണ്ടതു്. അരക്കെട്ടിനു മുക഼ളി~
ലുളള എല്ലാ ഭാഗങ്ങളും ഒപ്പം ഇടത്തോട്ടു തിരിക്കുക. തലയും കഴുത്തും
നെഞ്ചും, തോളും, കണ്ണും എല്ലാം ഒപ്പം തിരിയണം. ഇടത്തെ തോ~
ളിനു് സമാന്തരമായി താടി വരുന്നുണ്ടോയെന്നു് ശ്രദ്ധിക്കുക.</p>

<p>	7. ശ്വാസം എടുത്ത ശേഷം, തിരിയാന്഼ തുടങ്ങുന്പോള്഼ ശ്വാസം
വിടുക. ശ്വാസം എടുത്തുകൊണ്ടു നേരെ വരിക. വീണ്ടും വീണ്ടും തി~
രിയുക. നേരെ വരിക. ഈ മാതിരി അഞ്ചു പ്രാവശ്യം ചെയ്യുക.</p>

<p>-104-</p>

<p>	8. ഇതേ മാതിരി, കൈകാലുകള്഼ യഥാക്രമം മാററി വലത്തു
വശത്തേക്കും തിരിയുക. (ചിത്രം നോക്കുക).</p>

<p>	ഓരോ പ്രാവശ്യവും തിരിഞ്ഞു കഴിയുന്പോള്഼ ആ നിലയില്഼
ഒന്നു രണ്ടു സെക്കന്഼റു നില്ക്കാനും ക്രമേണ ശ്രമിക്കേണ്ടതാണു്.</p>

<p>പ്രയോജനം</p>

<p>പുറത്തെ മാംസപേശികള്഼ക്കും നട്ടെല്ലിനും അയവും പുറത്തെ ഞരന്പു~
കള്഼ക്കു് ഉണര്഼വും കിട്ടുന്നു. അഡ്രിനല്഼ ഗ്ലാന്഼ഡ്സിന്഼റെ പ്രവര്഼ത്ത~
നങ്ങള്഼ ക്രമീകരിക്കുന്നു. പാന്഼ക്രിയാസിനെ പ്രവര്഼ത്തനോന്മുഖമാ~
ക്കുന്നതുകൊണ്ടു് പ്രമേഹരോഗികള്഼ക്കു് പ്രയോജനകരമാണു്. നാ~
ഡീവ്യൂഹങ്ങള്഼ക്കു ശക്തി വര്഼ദ്ധിക്കുന്നു. ഉദരസംബന്ധമായ പല
രോഗങ്ങള്഼ക്കും ശമനം കിട്ടുന്നു.</p>

<p>-106-</p>

<p>31. പശ്ചിമോത്താനാസനം</p>

<p>െചയ്യേണ്ട വിധം</p>

<p>	1. രണ്ടു കാലുകളും മുന്പോട്ടു നീട്ടി നിവര്഼ന്നിരിക്കുക.
	2. കൈകള്഼ രണ്ടും തലയ്ക്കു മുകളിലേക്കെടുത്തു് നീട്ടിപ്പിടി~
ക്കുക. കൈകള്഼ അതാതു വശത്തെ ചെവികള്഼ സ്പര്഼ശിച്ചിരിക്ക~
ണം. ഉളളംകൈകള്഼ മുന്഼വശത്തേക്കായിരിക്കണം.</p>

<p>	3. ശ്വാസം എടുത്തുകൊണ്ടു് ഉടലും കൈകളും പുറകോട്ടു
ചായ്ക്കുക. കാല്഼മുട്ടുക഼ള്഼ നിലത്തുനിന്നും പൊങ്ങിപ്പോകാതെ നോക്കി~
ക്കൊളളണം.</p>

<p>	4. ശ്വാസം വിട്ടുകൊണ്ടു്, അതേ അവസ്ഥയില്഼തന്നെ കൈക~
ളും തലയും ഉട഼ലും മുന്പോട്ടു ചാഞ്ഞു വന്നു്, കൈകള്഼കൊണ്ടു്
അതാതു കാലിന്഼റെ പെരുവിരലില്഼ പിടിക്കുവാന്഼ ശ്രമിക്കുക.</p>

<p>	തുടക്കത്തില്഼ കൈവിരലുകള്഼ കാല്഼വിരലുകള്഼വരെ എത്തി~
യെന്നു വരില്ല. ചിലര്഼ക്കു് ഏതാനും ദിവസത്തെ അഭ്യാസം കൊണ്ടു
മാത്രമേ കാല്഼വിരലുകളില്഼ എത്തിച്ചു പിടിക്കാന്഼ സാധിക്കുക~
യുളളു.</p>

<p>	5. അങ്ങനെ പ്രയാസം കൂടാതെ നട്ടെല്ലും തലയും കാലുകളോടു്
അടുത്തടുത്തു വന്നു് കാല്഼വിരലുകളില്഼ പിടുത്തം കിട്ടിയാല്഼ തല~
യും ഉടലും തുടകളോടു് അടുത്തടുത്തുവന്നു് നെററി കാല്഼മുട്ടില്഼ മുട്ടി~
ക്കാന്഼ നോക്കുക.</p>

<p>	6. അതേസമയം കൈമുട്ടുകള്഼ നിലത്തു മുട്ടാന്഼ പാകത്തിനു്
താഴ്ത്തിക്കൊണ്ടിരിക്കണം.</p>

<p>	7. കാല്഼മുട്ടുകള്഼ പൊങ്ങാതെ പതിഞ്ഞിരിക്കുകയും നെററി
അതില്഼ ചേര്഼ത്തുവെക്കാന്഼ സാധിക്കുകയും ചെയ്താല്഼ ഈ ആസനം
പൂര്഼ത്തിയായി.</p>

<p>ശ്വസനക്രമം.</p>

<p>	1. ശ്വാസം എടുത്തുകൊണ്ടു കൈകള്഼ മുകളിലേക്കു കൊണ്ടു
പോയി പുറകോട്ടു് ചായുക.</p>

<p>	2. ശ്വാസം വിട്ടുകൊണ്ടു് ഉടലും തലയും കൈകളും മുന്പോട്ടു
കൊണ്ടുവരിക.</p>

<p>	3. ശ്വാസം പുറത്തു നിറുത്തിക്കൊണ്ടു് ഒരു സെക്കന്഼ഡ് ക഼ഴി~
ഞ്ഞ് ശ്വാസം എടുത്തുകൊണ്ടു് ഉയരുക.</p>

<p>	4. വേണ്ടിവരുന്പോള്഼ കൈകള്഼ താഴ്ത്തി വിശ്രമിക്കുക.
ഇങ്ങനെ അഞ്ചു പ്രാവശ്യം ചെയ്യുക.</p>

<p>	കാല്഼മുട്ടുകളില്഼ നെററി മുട്ടിക്കാന്഼ വേണ്ടി ആഞ്ഞാഞ്ഞു്
ചെയ്യരുതു്.
-107-</p>

<p>	നെററി മുട്ടിക്കുക എന്നതല്ല, അതിനു തക്കവണ്ണം നട്ടെല്ലും,
ശരീരത്തിന്഼റെ പിന്഼ഭാഗം മുഴുവനും അഴഞ്ഞു വരിക എന്നതാണു്
നമ്മുടെ ലക്ഷ്യം എന്നു് ഓര്഼മിക്കുക.</p>

<p>	വേറെ രണ്ടുവിധത്തിലും പശ്ചിമോത്താനാസനം ചെയ്യാവുന്ന~
താണു്. അതും താഴെ വിവരിക്കുന്നു.</p>

<p>വിധം 1</p>

<p>	1. മേല്പറഞ്ഞപ്രകാരം കാല്഼ നീട്ടി ഇരിക്കുക. നടു നിവര്഼ന്നി~
രിക്കണം.</p>

<p>	2. കൈകള്഼ മുകളിലേക്കു കൊണ്ടുപോകുന്നതിനു പകരം കൈ~
കള്഼ അതാതു വശങ്ങളില്഼ കീഴ്പോട്ടു് ശരീരത്തിനോടു തൊട്ടു കിട~
ക്കട്ടെ.</p>

<p>	3. കൈകളുടെ മുട്ടുവരെ ശരീരത്തിനോടു ചേര്഼ത്തും, മുട്ടു മുതല്഼
വിരലുകള്഼വരെയുളള ഭാഗം നേരെ മുന്പോട്ടു നീട്ടിയും പിടിക്കുക.
വിരലുകള്഼ ചേര്഼ത്തു് ഒതുക്കി കമഴ്ത്തി പിടിക്കുക.</p>

<p>	4. ശ്വാസം എടുത്തുകൊണ്ടു് അതേ ഇരിപ്പില്഼ പുറകോട്ടു് ആവു~
ന്നിടത്തോളം ചായുക.</p>

<p>	5. ശ്വാസം വിട്ടുകൊണ്ടു് മുന്പോട്ടു ചാഞ്ഞുചാഞ്ഞു വന്നു് കാല്഼
വിരലുകളില്഼ പിടിച്ചു് നെററി കാല്഼മുട്ടില്഼ എത്തിക്കാന്഼ നോക്കു~
ക. വീണ്ടും വീണ്ടും ആവര്഼ത്തിക്കുക. ഇങ്ങനെ അഞ്ചു പ്രാവശ്യം.</p>

<p>വിധം 2.</p>

<p>	1. മലര്഼ന്നു കിടക്കുക. കാലുകള്഼ നീട്ടി ചേര്഼ത്തുവെക്കുക.
കൈകള്഼ ചെവികളോടു മുട്ടിച്ചു് പുറകോട്ടു നീട്ടിവെക്കുക.</p>

<p>-108-</p>

<p>	2. ശ്വാസം എടുത്തുകൊണ്ടു് നിവര്഼ന്നിരിക്കുന്ന സ്ഥിതിയി~
ലേക്കു വരിക. അപ്പോള്഼ കാലുകള്഼ നിലത്തുനിന്നും പൊങ്ങിപ്പോ~
കാതിരിക്കണം.</p>

<p>	3. ഇരിക്കുന്ന അവസ്ഥയില്഼ എത്തിക്കഴിഞ്ഞാല്഼ ശ്വാസം
വിട്ടുകൊണ്ടു് തുടര്഼ന്നുളള ബാക്കി ഭാഗങ്ങള്഼ ചെയ്യുക.</p>

<p>	4. ശ്വാസം എടുത്തുകൊണ്ടു് ഉയര്഼ന്നു്, ഇങ്ങോട്ടു പോന്ന അതേ
മട്ടില്഼തന്നെ പുറകോട്ടു പോയി കിടക്കുക.</p>

<p>	ഒരു വിധം പ്രാക്ടീസായാല്഼ അഞ്ചുപ്രാവശ്യം ചെയ്താല്഼ മതി~
യാകും. മൂന്നു സന്പ്രദായത്തിലുളളതും ചെയ്യണമെന്നില്ല. സൌകര്യം
പോലെ ഒന്നോ രണ്ടോ സ്വീകരിക്കാം.</p>

<p>പ്രയോജനം</p>

<p>	ഉദരത്തിനും ഉദരാന്തര്഼ഭാഗത്തുളള എല്ലാ അവയവങ്ങള്഼ക്കും ഇതു്
ഒരു ഒന്നാംതരം വ്യായാമമാണു്. കുടവയറും ദുര്഼മേദസ്സും ക്രമേണ
കുറഞ്ഞുകുറഞ്ഞു വരും. പൈല്഼സിനും പ്രമേഹത്തിനും ഈ ആസനം
പ്രയോജനപ്രദമാണു്. അടിവയററിലെ   സകല അവയവങ്ങള്഼ക്കും
ഉണര്഼വും ഉത്തേജനവും ലഭിക്കുന്നു. അവയുടെ പ്രവര്഼ത്തനശേഷി
വര്഼ദ്ധിക്കുന്നു. ജനനേന്ദ്രിയാവയവങ്ങളുടെ കാര്യക്ഷമമായ
പ്രവര്഼ത്തനങ്ങള്഼ക്കും ഈ ആസനം വളരെ സഹായകരമാണു്.</p>

<p>	പൌരാണിക യോഗശാസ്ത്രഗ്രന്ഥങ്ങളില്഼ പശ്ചിമോത്താനാസന~
ത്തിനു് വളരെ പ്രാമുഖ്യം നല്കിയിട്ടുണ്ടു്.</p>

<p>	ആത്മീയകാര്യങ്ങളില്഼ താത്പര്യമുളളവര്഼ക്കു് ഈ ആസനം
അനുപേക്ഷണീയമാണു്.</p>

<p>32.ജാനുശീര്഼ഷാസനം</p>

<p>	കാല്഼മുട്ടും ശിരസ്സും കൂട്ടിമുട്ടിച്ചുകൊണ്ടുളള ഒന്നാണു് 
# ജാനുശീര്഼ഷാ~
സനം. ഇതിനു മുന്പു വിവരിച്ച ആസനത്തോടു് ഒരു ചെറിയ
സാദൃശ്യവും ഉണ്ടു്.</p>

<p>ചെയ്യേണ്ട വിധം</p>

<p>	1. കാലുകള്഼ മുന്പോട്ടു നേരെ നീട്ടി നിവര്഼ന്നിരിക്കുക.</p>

<p>	2. വലതുകാല്഼ മടക്കി ഉപ്പുററി മലദ്വാരത്തിനു മുകളില്഼
ചേര്഼ത്തു വെക്കുക.</p>

<p>	3.അപ്പോള്഼ വലത്തു പാദം തുടയില്഼ പതിഞ്ഞിരിക്കട്ടെ.</p>

<p>	4. ഇങ്ങനെ ചെയ്യുന്പോള്഼ കാല്഼മുട്ടു് നിലത്തു പതിഞ്ഞിരി~
ക്കാന്഼ ശ്രദ്ധിക്കുക.</p>

<p>	5. ശ്വാസം എടുത്തു്, വിട്ടുകൊണ്ടു് കൈകള്഼ നീട്ടി, ഇടതു
കാലിന്഼റെ വിരലുകളില്഼ മുറിക്കിപ്പിടിച്ചു്, തല കുനിച്ചുകൊണ്ടു
വന്നു്, നെററി നീട്ടിയിരിക്കുന്ന കാല്഼മുട്ടില്഼ മുട്ടിക്കുക.</p>

<p>-109-</p>

<p>	6. ശ്വാസം എടുത്തുകൊണ്ടു നിവര്഼ന്നു് നേരെ ഇരിക്കുക. സ്വാ~
ഭാവികമായും അപ്പോള്഼ കൈകള്഼ കാലില്഼നിന്നും എടുത്തിരിക്കണ~
മല്ലോ.</p>

<p>	7. നെററിയും ഉടലും താണുവരത്തക്കവണ്ണം കൈമുട്ടുകള്഼ നില~
ത്തേക്കു് അടുപ്പിച്ചുകൊടുക്കാവുന്നതാണു്.</p>

<p>	8. നീട്ടിയിരിക്കുന്ന കാലുകള്഼ പൊങ്ങാതെ സൂക്ഷിച്ചുകൊ~
ളളണം.</p>

<p>	ഇങ്ങനെ അഞ്ചു്-ആറു പ്രാവശ്യം ചെയ്തിട്ടു് ഇടത്തുകാല്഼ മടക്കി
വെച്ചും അത്രയും പ്രാവശ്യം ചെയ്യുക.</p>

<p>	(പശ്ചിമോത്താനാസനവും ജാനുശീര്഼ഷാസനവും ചെയ്യുന്പോള്഼
കാല്഼മുട്ടിന്഼റെ പിന്഼വശം വേദനിക്കാന്഼ എളുപ്പമുണ്ടു്. കാലിന്഼റെ
കൂച്ചിലെ മസിലും ഞരന്പും വലിയുന്നതുകൊണ്ടാണിതു്. ക്രമേണ
ആ മസിലുകള്഼ റബ്ബര്഼ മാതിരി ആകുകയും വേദന ശമിക്കുകയും
ചെയ്യും.)</p>

<p>പ്രയോജനം</p>

<p>പശ്ചിമോത്താനാസനത്തില്഼ പറഞ്ഞിട്ടുളള മിക്കവാറും എല്ലാ ഗുണ~
ങ്ങളും ഇതിനും ഉണ്ടെന്നാണു് ആചാര്യന്മാരുടെ അഭിപ്രായം.</p>

<p>-110-</p>

<p>33. സുപ്്തവജ്രാസനം</p>

<p>	വജ്രാസനം മുന്പു വിവരിച്ചിട്ടുണ്ടു്. ഇതിനകം അതു് സ്വാധീ~
	നമാക്കിയിരിക്കണം. പുറകോട്ടു മടക്കിെവച്ചിരിക്കുന്ന കാലു~
	കളുടെ ഇടയില്഼ പൃഷ്ടം നിലത്തു് അമര്഼ന്നു് ഇരിക്കാന്഼ കഴി~
	ഞ്ഞാല്഼ മാത്രമേ സപ്തവജ്രാസനം ചെയ്യാന്഼ സാധിക്കുകയുളളു.</p>

<p>ചെയ്യേണ്ട വിധം</p>

<p>	1. വജ്രാസനത്തില്഼ നിവര്഼ന്നു് ഇരിക്കുക.</p>

<p>	2. ആ ഇരിപ്പില്഼ പുറകോട്ടു ചാഞ്ഞു് കൈമുട്ടുകള്഼ ഓരോന്നാ~
യി താഴെ ഊന്നി പുറകോട്ടു ചാഞ്ഞു് സാവധാനം മലര്഼ന്നു കിടക്കുക.</p>

<p>	3. കൈകള്഼ പുറകോട്ടെടുത്തു് മുട്ടുകള്഼ മടക്കി ചേര്഼ത്തു പിടിച്ചു്
തലയുടെ പുറകില്഼ സൌകര്യമായി വെച്ചു കണ്ണടയ്ക്കുക.</p>

<p>	4. സാധാരണ ഗതിയില്഼ ശ്വാസോച്ഛ്വാസം ചെയ്യുക.</p>

<p>	5. മനസ്സ് ശ്വാസഗതിയെ പിന്഼തുടര്഼ന്നുകൊണ്ടിരിക്കട്ടെ.</p>

<p>	6. ശരീരം മുഴുവനും തളര്഼ന്നിരിക്കട്ടെ.</p>

<p>	ഈ സ്ഥിതിയില്഼ രണ്ടോ മൂന്നോ മിനിട്ടു കിടക്കുക.പിന്നീടു
സാവധാനം എഴുന്നേററു് വജ്രാസനത്തിലേക്കു മടങ്ങിവരിക.</p>

<p>	(സുപ്തവജ്രാസനത്തില്഼ നട്ടെല്ലു മുഴുവനും നിലത്തു സ്പര്഼ശിക്കുന്ന~
തല്ലെന്നു് ഓര്഼മിക്കുക.)</p>

<p>-111-</p>

<p>പ്രയോജനം</p>

<p>വജ്രാസനത്തില്഼ ഇരിക്കാന്഼ സാധിക്കുന്നവര്഼ക്കു് സുപ്തവജ്രാസനം
എളുപ്പമാണു്.</p>

<p>	സ്ത്രീകളെ സംബന്ധിച്ചിടത്തോളം സുപ്തവജ്രാസനം വളരെ
വിശിഷ്ടമാണു്. ഗര്഼ഭാശയ സംബന്ധമായ പല അസുഖങ്ങളും ഈ
ആസനം പതിവായി അനുഷ്ഠിച്ചു പരിഹരിക്കാവുന്നതാണു്. അടി~
വയററിലെ മാംസപേശികളും മററവയവങ്ങളും ശക്തിപ്പെടുകയും,
ഹിപ്പ്ബോണ്഼സിനു് നല്ല അഴച്ചിലും അകല്഼ചയും ലഭിക്കുന്നതും
ആകുന്നു. അതുകൊണ്ടു് ഗര്഼ഭിണികള്഼ ആദ്യത്തെ മൂന്നു മാസം ഈ
ആസനം ചെയ്യുന്നതു ഫലപ്രദമായിരിക്കും എന്നാണു് ആചാര്യന്മാര്഼
പറയുന്നതു്.</p>

<p>-112-</p>

<p>34. ഉഷ്ടാസനം</p>

<p>	ഉഷ്ടം എന്ന സംസ്കൃതവാക്കിനു് ഒട്ടകം എന്നാണു് അര്഼ത്ഥം.</p>

<p>ചെയ്യേണ്ട വിധം</p>

<p>	1. വജ്രാസനത്തില്഼ ഇരിക്കുക.</p>

<p>	2. ആ ഇരിപ്പില്഼നിന്നും കാല്഼മുട്ടുകളില്഼ നിവര്഼ന്നു നില്ക്കുക.</p>

<p>	3. പാദങ്ങള്഼ വിരലുകളില്഼ ഊന്നി ഉപ്പുററി മുകളിലായിരി~
ക്കണം.</p>

<p>	4. കാല്഼മുട്ടുകള്഼ സ്വല്പം അകന്നിരിക്കട്ടെ.</p>

<p>	5. അത്രയും അകലം കാലിന്഼റെ പെരുവിരലുകള്഼ തമ്മിലും
ഉണ്ടായിരിക്കണം.</p>

<p>	6. ഈ നില്പില്഼ കൈകള്഼ പുറകോട്ടെടുത്തു് ഓരോന്നായി
അതാതു വശത്തുളള ഉപ്പുററികളില്഼ കമിഴ്ത്തി ഉറപ്പിച്ചു പിടിക്കുക.
ഇങ്ങനെ ഉപ്പുററികളില്഼ പിടിക്കുന്നതിനു് ശരീരം കുറച്ചൊന്നു പുറ~
കോട്ടു ചാഞ്ഞുപോകണം.</p>

<p>	7. ഇത്രയുമായാല്഼, നട്ടെല്ലു് ആവുന്നത്ര വളയ്ക്കുക. തലയുടെ
പിന്഼ഭാഗം കഴിയുന്നത്ര പുറത്തോടു് അടുപ്പിക്കുക.</p>

<p>	8. അല്പസമയം ഈ മട്ടില്഼ നിന്നിട്ടു സാവധാനം പൂര്഼വസ്ഥി~
തിയിലേക്കു മടങ്ങുക.</p>

<p>	മുട്ടില്഼ നില്ക്കുന്പോള്഼ ശ്വാസം എടുത്തിരിക്കണം. ശ്വാസം
വിട്ടുകൊണ്ടു പുറകോട്ടു ചായുക. മടങ്ങി മുട്ടില്഼ നിന്നിട്ടു ശ്വാസം
എടുത്തു് വജ്രാസനത്തില്഼ ഇരിക്കുക. മൂന്നു് ആവര്഼ത്തി ചെയ്താല്഼
മതിയാകും.</p>

<p>കുറിപ്പു്</p>

<p>മുട്ടില്഼ നിന്നുകൊണ്ടു് ഉപ്പുററിയില്഼ പിടിക്കാനുളള ശ്രമത്തില്഼ ബാലന്഼സ്
സൂക്ഷിച്ചുകൊളളണം. നട്ടെല്ലിന്഼റെ വഴക്കം അനുസരിച്ചു മാത്രമേ വളയുകയു~
ളളൂ. `മെല്ലെപ്പോക്കു്' നയം ഈ ആസനത്തിനും സ്വീകരിക്കേണ്ടതാണു്.
സ്ത്രീകള്഼ക്കു് ഈ ആസനം ചെയ്യാന്഼ പുരുഷന്മാര്഼ക്കുണ്ടാകുന്നത്ര വിഷമം 
# ഉണ്ടാ~
യിരിക്കുകയില്ല.</p>

<p>പ്രയോജനം</p>

<p>മിക്ക ആളുകള്഼ക്കും മുന്പോട്ടു പതുക്കെ ഒരു വളവുണ്ടു്. സ്ത്രീകളില്഼
വിശേഷിച്ചും ഇതു പ്രകടമാണു്. ഇതു മാററിയെടുക്കാന്഼ ഉഷ്ടാസനം
ഉപകരിക്കും. നിരന്തരമായ അഭ്യാസംകൊണ്ടു കാലക്രമേണയാ~
ണു് ഈ പ്രയോജനം ഉണ്ടാകുന്നതു്. ഇടുപ്പുവേദനയ്ക്കും നടുവേദനയ്ക്കും
ഇതൊരു പരിഹാരമാണു്. ദഹനശക്തി വര്഼ദ്ധിക്കുകയും മലശോ~
ധന തൃപ്തികരമാവുകയും ചെയ്യുന്നു.</p>

<p>കുറിപ്പ്</p>

<p>ഇരുന്നും , മലര്഼ന്നു കിടന്നും, കമിഴ്ന്നു കിടന്നും, മുട്ടില്഼ നിന്നും,
# നാലു കാലില്഼
നിന്നും മററുമുളള ആസനങ്ങളാണു് ഇതുവരെ പറഞ്ഞതു്. ഇഩി പറയുന്ന
ആസനങ്ങള്഼ അധിക഼വും നിന്നുകൊണ്ടു ചെയ്യാവുന്നവയാണു്.</p>

<p>-114-</p>

<p>	ദൃ഼ഢനിശ്ചയത്തോളം അര്഼പ്പണമനോഭാവത്തോടുംകൂടി നിരന്തരമായി
അഭ്യസിക്കുന്നവര്഼ക്കു മാത്രമേ യോഗാസനത്തിന്഼റെ പൂര്഼ണഫലം സിദ്ധിക്കു~
കയുളളു. ആദ്യം അടിമപ്പെടുക, പിന്നെ യജമാനനാകുക.</p>

<p>	സുഖമായും, കാര്യമായ രോഗങ്ങളൊന്നുംകൂടാതെയും ദീര്഼ഘായുസ്സായി
ഇരിക്കാനും ഉതകുന്ന മാര്഼ഗങ്ങള്഼ യോഗാചാര്യന്മാര്഼ നിര്഼ദേശിക്കുന്നു.
# ആ
വഴി സ്വീകരിച്ചു്, നിര്഼ദേശങ്ങള്഼ അനുസരിച്ചു യാത്രചെയ്യുന്നവര്഼ 
#മാത്രമേ
ലക്ഷ്യസ്ഥാനത്തെത്തുകയുളളു.</p>

<p>	മനസ്സുണ്ടെങ്കില്഼ നടക്കാത്ത കാര്യങ്ങളൊന്നുമില്ല. അല്പസ്വല്പം 
# ക്ലേശങ്ങ~
ളും ബുദ്ധിമുട്ടുകളും സഹിക്കാനുളള സന്നദ്ധതയും മനസ്സുമാണു് അസഹ്യമായ
അനേകം ക്ലേശങ്ങളും ബുദ്ധിമുട്ടുകളും ഒഴിവാക്കാനുളള മാര്഼ഗം എന്നു 
# മനസ്സി~
ലാക്കുക.</p>

<p>	വെളളത്തിലിറങ്ങാതെ നീന്താന്഼ പഠിക്കാനും കൈ നനയാതെ മീന്഼ പിടി~
ക്കാനും പററുന്നതല്ലല്ലോ.</p>

<p>35. അര്഼ദ്ധചക്രാസനം</p>

<p>	അരക്കെട്ടിനു നല്ല വ്യായാമം കൊടുത്തു അതിനെ ശക്തിപ്പെടു~
	ത്തുന്ന ഒരു വ്യായാമമാണു് അര്഼ദ്ധചക്രാസനം. കടി എന്നാല്഼
	അരക്കെട്ടെന്നാണര്഼ത്ഥം. സ്വാമി ധീരേന്ദ്ര ബ്രഹ്മചാരി ഈ
	ആസനത്തിനു് `കിടചക്രവികാസക'എന്നാണു് പേരു കൊടു~
	ത്തിരിക്കുന്നതു്.</p>

<p>ചെയ്യേണ്ട വിധം</p>

<p>	1.കാലിന്഼റെ പെരുവിരല്഼ രണ്ടും ഉപ്പൂററികളും ചേര്഼ത്തു നിവര്഼~
ന്നു നില്ക്കുക.</p>

<p>	2.തളളവിരല്഼ ഉളളിലേക്കായി വലത്തു കൈ ചുരുട്ടിപ്പിടിച്ചു
പുറകിലേക്കു കൊണ്ടുപോകുക.</p>

<p>	3. ഇടതു കൈകൊണ്ടു്, പുറകിലുളള വലത്തു കൈയിന്഼റെ കഴ~
യില്഼ പിടിക്കുക.</p>

<p>	4. ഇങ്ങനെ പിടിച്ചിരിക്കുന്ന കൈകള്഼ പുറത്തോടു ചേര്഼ത്തു
കയററിപ്പിടിക്കുക.</p>

<p>	5. ശ്വാസം എടുത്തുകൊണ്ടു് അതേ നില്പില്഼ പുറകോട്ടു കഴിയു~
ന്നിടത്തോളം വളയുക.</p>

<p>	6. അല്പസമയം അങ്ങനെ വളഞ്ഞു നിന്നിട്ടു ശ്വാസം വിട്ടു
കൊണ്ടു നേരെ വന്നു കുനിഞ്ഞു കാല്഼മുട്ടില്഼ നെററി മുട്ടിക്കുക. കാല്഼
മുട്ടു വടിപോലെ, വളയാതെ കരുതിക്കൊളളണം.</p>

<p>	7. ശ്വാസം വിട്ടു കുനിയാന്഼ തുടങ്ങുന്പോള്഼ കൈകള്഼ കീഴ്~
പ്പോട്ടിറക്കി നീട്ടിപ്പിടിക്കണം. ബാലന്഼സ് തെററാതിരിക്കാന്഼
കൈകള്഼ക്കു നല്ല ബലം കൊടുത്തുകൊളളണം.</p>

<p>	8. വീണ്ടും ശ്വാസം എടുത്തു നിവര്഼ന്നു് ഇതുതന്നെ മൂന്നു പ്രാവ~
ശ്യം ചെയ്യുക.</p>

<p>	9. ഇനി വലതു കൈകൊണ്ടു് ഇടതു കൈയിന്഼റെ കഴയില്഼
പിടിച്ചും മൂന്നു് ആവര്഼ത്തി ചെയ്യുക.</p>

<p>-115-</p>

<p>പ്രയോജനം</p>

<p>അരക്കെട്ടിന്഼റെ ചുററളവു കുറഞ്ഞു് ഒതുക്കവും ഭംഗിയും കിട്ടുന്നു.
പുറത്തെ മാംസപേശികളും നട്ടെല്ലും ദൃഢപ്പെടുന്നു. പുറത്തിന്഼റെ
മുന്പോട്ടുളള വളവു ക്രമേണ മാറിക്കിട്ടുന്നു.</p>

<p>-116-</p>

<p>36. പാദഹസ്താസനം</p>

<p>ചെയ്യേണ്ട വിധം</p>

<p>	1. പാദങ്ങള്഼ ചേര്഼ത്തു വച്ചുകൊണ്ടു് നിവര്഼ന്നു നില്ക്കുക.
	2. കൈകള്഼ രണ്ടും മുകളിലേക്കെടുത്തു ചെവിയോടു ചേര്഼ത്തു
നീട്ടിപ്പിടിക്കുക.</p>

<p>	3. സാവധാനം ദീര്഼ഘമായി ശ്വാസം എടുത്തുകൊണ്ടു പുറകോ~
ട്ടു ഞെളിയുക.</p>

<p>	4. ക്ലേശിക്കാതെ അല്പസമയം ആ സ്ഥിതിയില്഼ നില്ക്കുക.</p>

<p>	5. ശ്വാസം വിട്ടുകൊണ്ടു് സാവധാനം നേരെ വന്നു കുനിഞ്ഞു
മുട്ടു വളയാതെ കൈവിരലുകള്഼ കാല്഼വിരലുകളുടെ തൊട്ടു മുന്പില്഼
നിലത്തു തൊടീക്കാന്഼ നോക്കുക.</p>

<p>	6. ചെവിയോടു തൊട്ടിരിക്കുന്ന കൈകളോടൊപ്പം തലയും
അതേ മട്ടില്഼തന്നെ കുനിഞ്ഞു വന്നു കാല്഼മുട്ടുകളില്഼ നെററി മുട്ടുക~
യും വേണം. ഇതിനു കുറച്ചുദിവസത്തെ പരിശ്രമം വേണ്ടിവരും.</p>

<p>	7.ശ്വാസം വിട്ടിരിക്കുന്ന ഈ അവസ്ഥയില്഼നിന്നും ശ്വാസം
എടുത്തുകൊണ്ടു സാവധാനം നിവര്഼ന്നു നേരെ നില്ക്കുക.</p>

<p>	8.കാല്഼മുട്ടുകള്഼ ഒരിക്കലും വളയാനിടവരാതെ ശ്രദ്ധിക്കണം.</p>

<p>	ബുദ്ധിമുട്ടു കൂടാതെ ഇത്രയും സ്വാധീനമാക്കാന്഼ കുറച്ചുദിവസ~
ത്തെ പ്രയത്നം ആവശ്യമാണു്.</p>

<p>	9. നീട്ടിപ്പിടിച്ചിരിക്കുന്ന വിരലുകള്഼ ശരിക്കു നിലത്തു മുട്ടി~
ക്കാന്഼ സാധിച്ചാല്഼, വിരലുകള്഼ മടക്കി, നിലത്തു പതിക്കുക.
	
	10. ഇങ്ങനെ പ്രാക്ടീസ് കിട്ടിക്കഴിഞ്ഞാല്഼, ഉളളംകൈകള്഼
കാലിന്഼റെ മുന്പില്഼ പതിച്ചുവെയ്ക്കാന്഼ ശ്രമിക്കുക.</p>

<p>	11. ക്ലേശം കൂടാതെ ഇത്രയും ചെയ്യാന്഼ കഴിഞ്ഞാല്഼ അടുത്തതാ~
യി, കൈകള്഼ അതതുവശത്തു പാദങ്ങളോടു ചേര്഼ത്തു് ഉളളംകൈ~
കള്഼ നിലത്തു പതിച്ചുവെക്കുക. കാല്഼വിരലുകളും കൈവിരലുകളും
ഒരേ ലൈനില്഼ വെച്ചിരിക്കണം.</p>

<p>	12. ഈ നില്പില്഼ നെററി കാല്഼മുട്ടിനു് തൊട്ടു താഴെ എത്തി
മുട്ടുന്നതായിരിക്കും.</p>

<p>	ഇപ്പോള്഼ പാദഹസ്താസനം പൂര്഼ണമായി.</p>

<p>	മുട്ടുകള്഼ അല്പംപോലും വളയാതിരിക്കാന്഼ ശ്രദ്ധിക്കണം.
എങ്ങനെയെങ്കിലും നെററി കാല്഼മുട്ടില്഼ മുട്ടിക്കുക എന്നതല്ല ലക്ഷ്യം.
അതിനു തക്കവണ്ണം ശരീരത്തെ മെരുക്കിയെടുക്കുക എന്നതാണെന്നു്
ഓര്഼മിക്കുമല്ലോ.</p>

<p>	ധൃതിപ്പെട്ടു് അവസാനത്തെ നിലയില്഼ എത്താന്഼ ശ്രമിക്കേണ്ട~
തില്ല. ജീവിതകാലം മുഴുവനും എല്ലാ ദിവസവും ചെയ്യേണ്ടതായ
ഒരു ജീവിതസന്പ്രദായമാണു് യോഗവ്യായാമം. അതൊരു ദിനചര്യ~</p>

<p>-118-</p>

<p>യായി സ്വീകരിക്കുന്നവര്഼ക്കു് എല്ലാ ആസനങ്ങളും ഒരു വിഷമവും
കൂടാതെ അനുഷ്ഠിക്കാന്഼ സാധിക്കും. ആഹാരംപോലെതന്നെ അനു~
പേക്ഷണീയമാണു് യോഗവ്യായാമവും.</p>

<p>	5 പ്രാവശ്യം ചെയ്യുക.</p>

<p>പ്രയോജനം</p>

<p>ഗ്യാസ് ട്രബിള്഼, ദഹനക്ഷയം, മലബന്ധം ഇതിനെല്ലാം നല്ലതാ~
ണു്. അരക്കെട്ടിന്഼റെ വണ്ണം കുറഞ്ഞു് ആകാരസൌഷ്ഠവും സിദ്ധി~
ക്കുന്നു. നട്ടെല്ലിന്഼റെ വൈകല്യങ്ങള്഼ മാറിക്കിട്ടുന്നു. ജനനേന്ദ്രിയ
സംബന്ധമായ കുറവുകളും കുററങ്ങളും പരിഹൃതമാകുന്നു.</p>

<p>	ശരീരത്തിനു് ഓജസ്സും തേജസ്സും `പെര്഼സനാലിററിയും' വര്഼ദ്ധി~
ക്കുന്നു.</p>

<p>	ക്ലാസിക്കല്഼ യോഗാസനങ്ങളില്഼ മുഖ്യമായ ഒന്നാണു പാദഹസ്താ~
സനം.</p>

<p>37. താഡാസനം (താലാസനം)</p>

<p>ചെയ്യേണ്ട വിധം</p>

<p>	1. പാദങ്ങള്഼ 6 ഇഞ്ച് അകലത്തില്഼ വെച്ചു നിവര്഼ന്നു 
# നില്ക്കുക.</p>

<p>	2. ദൃഷ്ടികള്഼ നേരെ മുന്പിലുളള ഒരു പോയിന്഼റില്഼ ഉറപ്പിക്കുക.</p>

<p>	3. കൈകള്഼ രണ്ടും കോര്഼ത്തുപിടിച്ചു മലര്഼ത്തി ശ്വാസം എടു~
ത്തുകൊണ്ടു തലയ്ക്കു മുകളിലേക്കു കൊണ്ടുപോയി ഉപ്പൂറികള്഼ പരമ഼ാ~
വധി നിലത്തുനിന്നും ഉയര്഼ത്തുക. അതോടൊപ്പം, പൊങ്ങിനില്ക്കുന്ന
കൈകളുടെ പുറവശത്തില്഼ ദൃഷ്ടികള്഼ പതിക്കുക.</p>

<p>	കാല്഼വിരലുകളില്഼ മാത്രമുളള ഒരു നില്പാണിതു്. ബാലന്഼സ്
തെററാതെ ശ്രദ്ധിക്കണം.</p>

<p>	4.ശ്വാസം ഉളളില്഼ നിറുത്തിയിരിക്കുന്ന അവസ്ഥയില്഼ വിഷ~
മം തോന്നുന്നതിനു മുന്പായി. ശ്വാസം വിട്ടുകൊണ്ടു പോയ വഴിയെ
തിരിച്ചു വരിക.</p>

<p>	ഇങ്ങനെ പത്തു പ്രാവശ്യം.</p>

<p>	താഡാസനത്തില്഼ ഉപ്പുററികള്഼ പൊങ്ങിയ ശേഷം ശ്വാസം
വിട്ടുകൊണ്ടു് ഇടത്തോട്ടും വലത്തോട്ടും പത്തുതവണ വീതം വളയുക~
യും ചെയ്യുക.</p>

<p>	ഓരോ വശത്തേക്കും വളയുന്പോള്഼ ശ്വാസം വിടുകയും, നിവരു~
ന്പോള്഼ കുറച്ചു ശ്വാസം എടുക്കുകയും മറുവശത്തേക്കു വളയുന്പോള്഼
ശ്വാസം വിടുകയും ചെയ്യുക. ബാലന്഼സില്഼ നില്ക്കാനുളള കഴിവനു~
സരിച്ചു സൌകര്യപ്രദമായി വേണം ഓരോന്നിന്഼റെയും ആവര്഼ത്തനം
സ്വീകരിക്കുവാന്഼.</p>

<p>	കാല്഼വിരലുകളില്഼ ഉയര്഼ന്നു നില്ക്കാന്഼ ബാലന്഼സ് കിട്ടാത്തപ~
ക്ഷം ഉപ്പുററി പൊക്കാതെതന്നെ ഇടത്തോട്ടും വലത്തോട്ടും വളയാവു~</p>

<p>-120-</p>

<p>ന്നതാണു്. കൈകള്഼ വളയാതെ നീട്ടിപ്പിടിച്ചിരിക്കണം. ശരീരം
മുന്പോട്ടോ പുറകോട്ടോ ചാഞ്ഞുപോകാതെയും നോക്കേണ്ടതാണു്.</p>

<p>പ്രയോജനം</p>

<p>കുടലുകള്഼ക്കും, വയററിലെ പേശികള്഼ക്കും വ്യായാമം കിട്ടുന്നു. നട്ടെ~
ല്ലിന്഼റെ ഇരുവശങ്ങളിലും ഞെങ്ങിഞെരുങ്ങിയിരിക്കുന്ന ഞരന്പുകളു~
ടെ ഉത്ഭവസ്ഥാനങ്ങള്഼ക്കു് അഴച്ചില്഼ സിദ്ധിക്കുന്നു. മലശോധന
സുഗമമാകുന്നു.</p>

<p>	ഗര്഼ഭിണികള്഼ ആദ്യത്തെ നാലഞ്ചുമാസം പതിവായി താഡാ~
സനം അഭ്യസിച്ചാല്഼ സുഖപ്രസവം സാധിക്കുമെന്നാണു് അനുഭവ~
സ്ഥര്഼ അവകാശപ്പെടുന്നതു്. പക്ഷേ, ഗുരുപദേശം ആവ഼ശ്യമാണെന്നു്
കൂടി ഓര്഼മിക്കുക.</p>

<p>38. ത്രികോണാസനം-1</p>

<p>ചെയ്യേണ്ട വിധം</p>

<p>	1. കാലുകള്഼ 2-3 അടി അകലത്തില്഼ കവച്ചു് നിവര്഼ന്നു
നില്ക്കുക.</p>

<p>	2. കൈകള്഼ അതാതു വശങ്ങളില്഼ ഇടത്തോട്ടും വലത്തോട്ടും
നീട്ടി, ഉളളംകൈ കീഴ്പോട്ടാക്കി തോളിന്഼റെ ലെവലില്഼ നീട്ടി~
പ്പിടിക്കുക.</p>

<p>	3. ദീര്഼ഘമായി ശ്വാസം എടുക്കുക.
	
	4. ശ്വാസം വിട്ടുകൊണ്ടു് അരയ്ക്കു മുകളിലുളള സര്഼വഭാഗങ്ങളും
വലത്തുവശത്തേക്കു തിരിക്കുക. കൈകള്഼ അതേ ലെവലില്഼ത്തന്നെ
നിറുത്തുക.</p>

<p>	5. കഴുത്തും തലയും കണ്ണും മുഖവും എല്ലാം വലത്തുവശത്തേക്കു
തിരിഞ്ഞുകൊണ്ടിരിക്കണം.</p>

<p>	6. സാവധാനം വലത്തുവശത്തേക്കു മാറിക്കൊണ്ടിരിക്കുന്ന
വലത്തു കൈവിരലുകളില്഼ ദൃഷ്ടി പതിക്കുക.</p>

<p>	7. കാലുകള്഼ രണ്ടും ഒരു സ്്ററാന്഼ഡ് മാതിരി അനങ്ങാതെയും
െചരിയാതെയും ഇരിക്കണം.</p>

<p>	8.ചെരിയുന്ന അവസരത്തില്഼ ഇടത്തുകൈയും വലത്തുകൈയും
തുടക്കത്തിലെ ലെവലില്഼നിന്നും വ്യതിചലിക്കാതെ ശ്രദ്ധിച്ചു
കൊളളണം.</p>

<p>	9. വലത്തോട്ടുളള തിരിയല്഼ പരമാവധി എത്തിക്കഴിഞ്ഞാല്഼
ശ്വാസം എടുത്തുകൊണ്ടു നേരെ വരിക.</p>

<p>	10. അതുപോലെതന്നെ ഇടത്തുവശത്തേക്കും തിരിയുക.</p>

<p>	ഓരോ വശവും അഞ്ചു തവണ വീതം.</p>

<p>	പ്രയോജനം അടുത്തതില്഼ പറയുന്നു.</p>

<p>-122-</p>

<p>ത്രികോണാസനം-II</p>

<p>	ശ്വാസമെടുത്തു തിരിയുന്നതുവരെയുളള സന്പ്രദായങ്ങളെല്ലാം
	ത്രികോണാസനം 1-ല്഼ പറഞ്ഞിട്ടുളളതുപോലെതന്നെയാണു്.
	അതിനുശേഷം ചെയ്യേണ്ട വിധം.</p>

<p>	1. കൈകള്഼ അതാതു വശങ്ങളില്഼ ഇടത്തോട്ടും വലത്തോട്ടും
	തോളൊപ്പം നീട്ടി, ഉളളംകൈ കമിഴ്ത്തി പിടിക്കുക.</p>

<p>	2. ശ്വാസമെടുത്തു വിട്ടുകൊണ്ടു്, ഉടല്഼ മുന്പോട്ടു ചാഞ്ഞുപോകാ~
തെ, വലത്തുകൈ ക്രമേണ താഴ്ത്തിക്കൊണ്ടു വരിക. സ്വാഭാവിക~
മായും ഇടത്തുകൈ മുകളിലേക്കു ഉയര്഼ന്നുപെയ്ക്കൊണ്ടിരിക്കുമല്ലോ.</p>

<p>	3. പൊങ്ങിപ്പോകുന്ന കൈയുടെ അററത്തേക്കു ദൃഷ്ടി പതി~
ക്കത്തക്കവണ്ണം തലയും മുഖവും യഥോചിതം തിരിക്കുക. (ചിത്ര~
ത്തില്഼ ഈ ഭാഗം അത്ര ശരിയല്ല.)</p>

<p>	4. വലത്തുകൈ അവസാനം വലത്തുകാലിന്഼റെ ഉപ്പുററിക്കു
സമീപം എത്തി നിലത്തു തൊടുന്നതാണു്. അതിനു തക്കവണ്ണം
ശരീരം വലത്തുവശത്തേക്കു വളച്ചുകൊണ്ടുവരികയാണു നാം ചെയ്യു~
ന്നതു്.</p>

<p>	5. വലത്തുകൈ എത്താവുന്നിടത്തോളം എത്തിയശേഷം
ശ്വാസെടുത്തുകൊണ്ടു നിവര്഼ന്നു നേരെ വരിക. കുറച്ചുദിവസം കഴി~
യുന്പോള്഼ കൈ താഴെ മുട്ടും.</p>

<p>	6. ഇതേ മാതിരി ഇടത്തുവശവും ചെയ്യുക. ഓരോ വശവും അഞ്ചു
തവണ വീതം ചെയ്യുക.</p>

<p>പ്രയോജനം</p>

<p>പുറത്തെ നാഡിഞരന്പുകള്഼ സുശക്തങ്ങളാകുന്നു. അടിവയററിലെ
അവയവങ്ങള്഼ക്കും ഇടുപ്പിലെ മാംസപേശികള്഼ക്കും പുഷ്ടിയും ബല~
വും വര്഼ദ്ധിക്കുന്നു. അരക്കെട്ടു് ഒതുങ്ങി വണ്ണം കുറഞ്ഞുവരും.</p>

<p> -124-</p>

<p>39. അഗ്നിസാരക്രിയ</p>

<p>ചെയ്യേണ്ട വിധം</p>

<p>	1. വജ്രാസനത്തില്഼ ഇരിക്കുക. കാല്഼മുട്ടുകള്഼ കഴിയുന്നത്ര അക~
ത്തി വെക്കുക. പൃഷ്ഠങ്ങള്഼ താഴെ തറയില്഼ പതിഞ്ഞിരിക്കണം. പുറ~
കില്഼ പാദങ്ങളുടെ പെരുവിരലുകള്഼ അന്യേന്യം മുട്ടിയിരിക്കുമെ~
ങ്കില്഼ അത്രയും നല്ലതു്.</p>

<p>	2. കൈവിരലുകള്഼ ചുരുട്ടി, നീട്ടി, കാല്഼മുട്ടുകളുടെ തൊട്ടു
മുന്പില്഼ താഴെ പതിച്ചുവെക്കുക. ഇപ്പോള്഼ ശരീരം, അല്പം മുന്പോട്ടു
ചാഞ്ഞു്, പട്ടികള്഼ മുന്഼കാലുകള്഼ കുത്തി ഇരിക്കുന്നതുപോലെയായി~
രിക്കും.</p>

<p>	3. വായ നല്ലതുപോലെ തുറന്നു് നാക്കു പുറത്തേക്കു നീട്ടിവെ~
ക്കുക.</p>

<p>	4. ഈ സ്ഥിതിയില്഼ വായില്഼കൂടി ശ്വാസമെടുത്തു വായില്഼
കൂടിത്തന്നെ വിടുക. പട്ടികളിരുന്നു് അണയ്ക്കുന്നതു നിങ്ങള്഼ കണ്ടിട്ടു~
ണ്ടല്ലോ. അതിനെ അനുകരിക്കുന്ന രീതിയാണു് ഇവിടെ സ്വീകരി~
ച്ചിരിക്കുന്നതു്. ശ്വാസം അല്പമേ എടുക്കേണ്ടി വരികയുളളു. അങ്ങ~
നെ വേഗം വേഗം ശ്വാസം എടുത്തു വിടുക.</p>

<p>	ശ്വാസം എടുക്കുന്പോള്഼ വയറു് മുന്പോട്ടു തളളിവരികയും ശ്വാസം
വിടുന്പോള്഼ വയറു് ഉളളിലേക്കു് ഒട്ടിപ്പോവുകയും ചെയ്യുന്നു. വയറും
ശ്വാസവും യോജിച്ചാണു് ഈ ക്രിയ നടക്കുന്നതു്.</p>

<p>	5. അല്പം ക്ഷീണിക്കുന്പോള്഼ നിറുത്തി ഒന്നുരണ്ടു പ്രാവശ്യം
സാധാരണഗതിയില്഼ മൂക്കില്഼ക഼ൂടി ശ്വാസോച്ഛ്വാസം ചെയ്തുകൊ~
ളളണം.</p>

<p>	6. പിന്നെ വീണ്ടും തുട഼ങ്ങുക.</p>

<p>	ഒരു റൌണ്ടില്഼ 10,15,20, പ്രാവശ്യം ശ്വാസമെടുക്കാനും വിടാ~
നും സാധിച്ചെന്നിരിക്കും. ക്ഷീണത്തിന്഼റെ നേരിയ ലക്ഷണം 
കണ്ടാല്഼ ഉടനെ നിര്഼ത്തി ഏതാനും നിമിഷം വിശ്രമിക്കുക.</p>

<p>	ഇപ്രകാരം മൂന്നോ നാലോ റൌണ്ട് ചെയ്യാവുന്നതാണു്. അതി~
ന്഼റെ അര്഼ത്ഥം 30,40, 50,60 പ്രാവശ്യം ഉദരത്തിനും അന്തര്഼ഭാഗ~
ത്തെ അവയവങ്ങള്഼ക്കും നല്ല വ്യായാമം ലഭിച്ചു എന്നുളളതാണു്.
കാലത്തു് വെറും വയററിലെയാണു് ഈ ക്രിയ ചെയ്യേണ്ടതു്.</p>

<p>മുന്നറിയിപ്പ്</p>

<p>ബ്ലഡ്പ്രഷര്഼,ഹാര്഼ട്ട്രബിള്഼, കുടലില്഼ കുുരു ഈ രോഗങ്ങളുളളവര്഼
അഗ്നിസാരക്രിയ ചെയ്തുകൂടാ.</p>

<p>കുറിപ്പു്</p>

<p>യോഗാശാസ്ത്രങ്ങളിലും യോഗമീമാംസയിലും അഗ്നിസാരക്രിയ വളരെ വിസ്ത~
രിച്ചു പറഞ്ഞിട്ടുണ്ടു്. പക്ഷേ, അതൊന്നും സാധാരണക്കാര്഼ക്കു് അത്യാവശ്യ~
മല്ല. അതിന്഼റെ വളരെ ലളിതമായ രൂപമാണു് മേല്഼ പറഞ്ഞിരിക്കുന്നതു്.</p>

<p>-125-</p>

<p>പ്രയോജനം</p>

<p>ഗ്യാസ്്ട്രബിളും മലബന്ധവും ശമിക്കുന്നു. ലിവര്഼ ശക്തവും സമര്഼ത്ഥ~
വുമാകുന്നു. ഉദരാന്തര്഼ഭാഗത്തുളള സര്഼വ അവയവങ്ങള്഼ക്കും ശരിയായ
വ്യായാമം സിദ്ധിക്കുന്നു. ജഠരാഗ്നി വളരെ വര്഼ദ്ധിക്കുന്നു.</p>

<p>-126-</p>

<p>40. ഉഡ്ഡിയാനബന്ധം</p>

<p>	അടിവയര്഼ മുഴുവനും ഉളളിലേക്കു വലിച്ചു് നട്ടെല്ലില്഼ ബന്ധിച്ചു
	നിറുത്തുന്ന ഒരു വ്യായാമമാണു് ഉഡ്ഡിയാനബന്ധം. ബന്ധത്രയ~
	ത്തില്഼ ഒനനായ ഉഡ്ഡിയാനബന്ധം പത്മാസനത്തിലിരുന്നും
	അനുഷ്ഠിക്കാറുണ്ടു്. എന്നാല്഼ നിന്നുകൊണ്ടു ചെയ്യുന്നതു കുറച്ചു
	കൂടി എളുപ്പമായതുകൊണ്ടു് ആ സന്പ്രദായം ഇവിടെ സ്വീകരി~
	ച്ചിരിക്കുന്നു.</p>

<p>ചെയ്യേണ്ട വിധം</p>

<p>	1. കാലുകള്഼ ഒരടി അകലത്തില്഼ വെച്ചു് കൈകള്഼ അതാതു
കാല്഼മുട്ടുകളില്഼ ഊന്നി അല്പം മുന്പോട്ടു ചാഞ്ഞു നില്ക്കുന്നു. നേരെ
മുന്പോട്ടു നോക്കുക.</p>

<p>	2. മൂക്കില്഼കൂടി ദീര്഼ഘമായി ശ്വസിച്ചു്, നല്ലവണ്ണം തുറന്ന
വായില്഼കൂടി ഉളളിലുളള ശ്വാസം മുഴുവന്഼ പുറത്തേക്കു വിടുക. അനന്ത~
രം വായ കൂട്ടുക.</p>

<p>	3. എന്നിട്ടു് വയറു് എക്കുന്നമാതിരി അടിവയര്഼ ഭാഗം മുഴുവന്഼
ഉളളിലേക്കു വലിച്ചു് നട്ടെല്ലിനോടടുപ്പിക്കുക.</p>

<p>	4. സ്വല്പസമയം ഈ മട്ടില്഼തന്നെ നിന്നിട്ടു് ഈ ബന്ധം വിടര്഼~
ത്തി ശ്വാസം മൂക്കില്഼കൂടി എടുക്കുക.</p>

<p>	5. ശ്വാസഗതി സാധാരണപോലെ ആയശേഷം വീണ്ടും ആവര്഼~
ത്തിക്കുക.</p>

<p>	കുറച്ചു ദിവസത്തെ പരിശ്രമംകൊണ്ടു് അതിന്഼റെ ശരിയായ
സന്പ്രദായം താനെ വന്നുകൊളളും. വയറു് ഉളളിലേക്കു് എക്കിവലി~
ച്ചശേഷം തല അല്പം കുനിച്ചുനോക്കിയാല്഼ വയറിന്഼റെ സ്വരൂപം
എങ്ങനെയെന്നറിയാന്഼ കഴിയുന്നതാണു്.</p>

<p>	അതല്ലെങ്കില്഼ ഒരു കണ്ണാടി മുന്പില്഼ വെച്ചു് അതില്഼ നോക്കി
കാണുക.</p>

<p>പ്രയോജനം</p>

<p>ദഹനശക്തി വര്഼ദ്ധിക്കുന്നു. കൃമി, വിര മുതലായവ നശിക്കുന്നു. മലബ~
ന്ധം മാറിക്കിട്ടുന്നു. പ്രമേഹത്തിനും നല്ലതാണു്. വയററിനകത്തെ
പല അസുഖങ്ങളും മാറുന്നു.</p>

<p>കുറിപ്പു്</p>

<p>പ്രായപൂര്഼ത്തി വന്നിട്ടില്ലാത്തവര്഼ ഉഡ്ഡിയാനബന്ധം ചെയ്യാന്഼ പാടില്ല. ഗുരു഼മുഖത്തുനിന്നും അഭ്യസിക്കാന്഼ സൌകര്യമില്ലാത്തവര്഼ ഇതു പ്രാക്ടീസ് ചെയ്യാ~
തിരിക്കുകയാണു നല്ലതു്. ഒന്നുരണ്ടു പ്രാവശ്യം കണ്ടതിനുശേഷം പരീക്ഷിച്ചു
നോക്കുന്നതില്഼ തെററില്ല.</p>

<p>-128-</p>

<p>41. ശുണ്ഡാലാസനം</p>

<p>	ആനയുടെ തുന്പിക്കൈയിനു് ശുണ്ഡാലം എന്നു പറയുന്നു.
	ചിലപ്പോഴെല്ലാം ആന തുന്പിക്കൈ മുന്പോട്ടു നീട്ടി മുന്഼വശത്തെ
	കാലുകളുടെ ഇടയില്഼കൂടി നീട്ടിപ്പിടിക്കുന്നതായി നാം കാണാ~
	റുണ്ടല്ലോ. അതിന്഼റെ ഒരു അനുകരണമാണു് ശുണ്ഡാലാസനം.</p>

<p>ചെയ്യേണ്ട വിധം</p>

<p>	1.കാലുകള്഼ രണ്ടും ആവുന്നത്ര അകത്തി നിവര്഼ന്നുനില്ക്കുക.</p>

<p>	2. ശ്വാസം ദീര്഼ഘമായി എടുത്തുകൊണ്ടു്, കൈകള്഼ അതാതു
വശങ്ങളില്഼കൂടി നീട്ടി തലയ്ക്കു നേരെ മുകളില്഼ കൊണ്ടുചെന്നു് തൊഴു~
ന്നമാതിരി ചേര്഼ത്തുപിടിക്കുക. ഇപ്പോള്഼ ശ്വാസം ഉളളില്഼ നിറ~
ഞ്ഞിരിക്കും. ശ്വാസം നിറയുന്നതും കൈകള്഼ മുകളില്഼ എത്തി തൊഴു~
ന്നതും ഒപ്പമായിരിക്കട്ടെ.</p>

<p>	3. ശ്വാസംവിട്ടുകൊണ്ടു്, കാലുകളുടെ മദ്ധ്യത്തില്഼കൂടി,
ചേര്഼ത്തുപിടിച്ചിരിക്കുന്ന കൈകള്഼ ആവുന്നത്ര പുറകോട്ടു നീട്ടുക.</p>

<p>	4. ഉടലും തല഼യും അതനുസരിച്ചു കുനിഞ്ഞുകൊണ്ടിരിക്കണം.</p>

<p>	5. കാലുകളുടെ ഇടയില്഼കൂടി നീട്ടുന്ന കൈകള്഼ കഴിയുന്നത്ര
പൊക്കിപ്പിടിച്ചിരിക്കണം. ഈ അവസ്ഥയില്഼ ശ്വാസം വിട്ടിരിക്കു~
കയാണ഼ല്ലോ.</p>

<p>	6. ഇനി ശ്വാസം ദീര്഼ഘമായി എടുത്തു കൈകള്഼ നേരെ തലയ്ക്കു
മുകളിലേക്കു കൊണ്ടുപോകുക.</p>

<p>	7. തുടര്഼ന്നു് ശ്വാസം വിട്ടുകൊണ്ടു് അതാതു വശങ്ങളില്഼കൂടി
കൈകള്഼ പൂര്഼വസ്ഥിതിയിലേക്കു കൊണ്ടുവരിക.</p>

<p>	ഇപ്പോള്഼ ഒരു ശുണ്ഡാലാസനം ആയി. ഇങ്ങനെ പത്തു പ്രാവ~
ശ്യം ചെയ്യുക.</p>

<p>	ഒരു തവണ ഈ ആസനം ചെയ്യുന്പോള്഼ ദീര്഼ഘമായ രണ്ടു
ശ്വാസോച്ഛ്വാസം നടക്കുന്നതാണു്.</p>

<p>	(ലളിതമായ ഈ ആസനത്തിന്഼റെ ചിത്രം കൊടുത്തിട്ടില്ല).</p>

<p>പ്രയോജനം</p>

<p>സ്വപ്നസ്ഖലനം ഒരു രോഗമായിത്തീര്഼ന്നിട്ടുളളവര്഼ക്കു് ഈ ആസനം
പ്രയോജനപ്പെടും. തലവേദനക്കാര്഼ക്കും നല്ലതാണു്. ഉദരത്തിലെ
ക്രമക്കേടുകള്഼ മാറുന്നു. നട്ടെല്ലു് ശക്തമാകുന്നു.</p>

<p>കുറിപ്പു്</p>

<p>ഇതോടുകൂടി യോഗാസനങ്ങള്഼ അവസാനിക്കുന്നു. ഇതില്഼ വിവരിച്ചിട്ടുളള~
തിനു പുറമേ മററനേകം യോഗാസനങ്ങള്഼ വേറെയും ഉണ്ടു്. ശരീരത്തിന്഼റെ
അകത്തും പുറത്തുമുളള സര്഼വ ഭാഗങ്ങള്഼ക്കും ആവശ്യമായ വ്യായാമം സിദ്ധി~
ക്കുന്നതിനു് ഇതില്഼ കൊടുത്തിട്ടുളള ആസനങ്ങള്഼ ധാരാളം മതിയാകുന്നതാണു്.</p>

<p>-129-</p>

<p>ശരീരവും മനസ്സും ഓരോ ജീവന്഼റേയും സ്വന്തം ഉപകരണങ്ങളാണു്. അതി~
നു് നാശമോശങ്ങള്഼ വരാതെ സൂക്ഷിക്കേണ്ട ചുമതല അതിന്഼റെ ഉടമസ്ഥര്഼ക്കാ~
ണു്. ഈ വസ്തുത ഉളളില്഼ വെച്ചുകൊണ്ടു് ആത്മാര്഼ത്ഥമായി പരിശ്രമിക്കുക.
ഫലസിദ്ധി തീര്഼ച്ചയാണു്.</p>

<p>				   ശവാസനം</p>

<p>യോഗാസനം അവസാനിപ്പിക്കുന്നതു് ശവാസനത്തോടുകൂടിയാണു്.
തുടക്കവും അങ്ങനെതന്നെ.</p>

<p>	ശവാസനത്തിന്഼റെ സന്പ്രദായം മുന്പു വിവരിച്ചിട്ടുണ്ടു്. ശവാ~
സനം എളുപ്പമാണു്, വെറുതെ കണ്ണുമടച്ചു് മലര്഼ന്നു കിടന്നാല്഼ മതി~
യല്ലോ എന്നു് ധരിക്കരുതു്. സത്യം പറ഼ഞ്ഞാല്഼ അതിനു കുറച്ചു
ബുദ്ധിമുട്ടുണ്ടു്. നിശ്ചലമായ ശരീരവും വിചാരരഹിതമായ മന~
സ്സും ഒരേ സമയം ഒപ്പിച്ചെടുക്കുന്നതു് കുറച്ചു പ്രയാസമാണല്ലോ.
ശവാസനത്തിന്഼റെ വളരെ ലളിതമായ ഒരു സന്പ്രദായമാണു് ഇതില്഼
കൊടുത്തിരിക്കുന്നതു്. ആദ്യമായി അത്രയെങ്കിലും പരിശീലി~
ക്കുക.</p>

<p>	യോഗാസനത്തിന്഼റെ അവസാനം പത്തുമിനിട്ടെങ്കിലും ശവാ~
സനത്തില്഼ കിടന്നാല്഼ അത്രയും നന്നു്. കുറഞ്ഞപക്ഷം അഞ്ചു
മിനിട്ട്.</p>

<p>				ശീര്഼ഷാസനം</p>

<p>ശീര്഼ഷാസനത്തെപ്പററിയും അതിന്഼റെ ഗുണഗണങ്ങളെപ്പററിയും
പലരും കൊട്ടിഗ്ഘോഷിക്കാറുണ്ടു്. വേറെ ഒന്നും വേണ്ട, അത്രമാത്രം
ചെയ്താല്഼ മതി എന്നുവരെ ചിലര്഼ ധരിച്ചുവെച്ചിട്ടുണ്ടു്. അബദ്ധം
എന്നല്ലാതെ എന്തു പറയട്ടെ!</p>

<p>	ശീര്഼ഷാസനത്തില്഼ ഉടല്഼ മുഴുവന്഼ മുകളിലും തല മാത്രം താഴെ~
യുമാണല്ലോ. അങ്ങനെ നില്ക്കുന്പോള്഼, ഭൂമിയുടെ ആകര്഼ഷണശക്തി
കൊണ്ടു്, ശരീരത്തിലെ രക്തം മുഴുവനും ശിരസ്സിലേക്കു് ഇരന്പി~
പാഞ്ഞു വരുന്നു. തലയ്ക്കുളളില്഼ നിരവധി രക്തധമനികളുണ്ടു്.
മുകളില്഼നിന്നും ധാരാളമായി കീഴ്പോട്ടൊഴുകിവരുന്ന ഈ രക്തം
ഉള്഼ക്കൊളളാനുളള കഴിവും കരുത്തും ശിരസ്സിലെ ധമനികള്഼ക്കുണ്ടോ
എന്നു് എങ്ങനെയാണു നിശ്ചയിക്കുക ? ദുര്഼ബലങ്ങളായ ഏതെങ്കിലും
ധമനികള്഼ക്കു് ഈ രക്തം ഉള്഼ക്കൊളളാനുളള കഴിവില്ലാതെ വരുന്ന
പക്ഷം എന്തായിരിക്കും സ്ഥിതി ? അവ പൊട്ടിപ്പോകാനിടയുണ്ടെ~
ന്നു് അനുമാനിക്കാവുന്നതാണല്ലോ. അങ്ങനെ ഒരു സ്ഥിതിവിശേ~
ഷം സംഭവിക്കുന്നതു തീര്഼ച്ചയായും അപകടകരമാണു്.</p>

<p>-130-</p>

<p>	യമനിയമാദികള്഼ ആചരിച്ചു് വികാരവിചാരങ്ങളെ നിയന്ത്രി~
ക്കാന്഼ കഴിവില്ലാത്തവര്഼ ശീര്഼ഷാനത്തിനു് അര്഼ഹരല്ല. ഇതൊന്നു~
മില്ലാതെ യഥേഷ്ടം ശീര്഼ഷാസനം ചെയ്യാന്഼ പാടില്ലെന്നാണു്
ആചാര്യമതം. ഇതുതന്നെയാണു് യോഗമീമാംസാകാര഼നും ഉപദേ~
ശിച്ചിരിക്കുന്നതു്.</p>

<p>	ശീര്഼ഷാസനംകൊണ്ടുദ്ദേശിക്കപ്പെട്ടിട്ടുളള എല്ലാ ഗുണങ്ങളും വി~
പരീതകരണിമുദ്രയും സര്഼വാംഗാസനവും ചെയ്യുന്നതുകൊണ്ടു കിട്ടുന്ന~
താണു്. അതുകൊണ്ടു് അപകടസാദ്ധ്യതകളുളള ശീര്഼ഷാസനം
വേണ്ടെന്നുവെയ്ക്കുകയാണു് നല്ലതു്.</p>

<p>	ഈവക കാരണങ്ങളാലാണു് ശീര്഼ഷാസനം ഈ ഗ്രന്ഥത്തില്഼
ഉള്഼പ്പെടുത്താതിരുന്നിട്ടുളളതു്.</p>

<p>മയൂരാസനം</p>

<p>മയൂരാസനം വളരെ വിശിഷ്ടമാണു്. പക്ഷേ, പഠിക്കാന്഼ ബുദ്ധി~
മുട്ടുണ്ടു്. സ്വയം പഠിക്കുന്നതിലും ചില പാകപ്പിഴകള്഼ വന്നേക്കാം.
ഒരു ഗുരുവിന്഼റെ സഹായം ആവശ്യമായി വരുന്നു. മയൂരാസനം
കൊണ്ടുളള പ്രയോജനം മററുളള ആസനങ്ങള്഼ അഭ്യസിക്കുന്നവര്഼ക്കു
കിട്ടുന്നതാണു഼്. അതുകൊണ്ടു് മയൂരാസനം ഈ ഗ്രന്ഥത്തില്഼ ഉള്഼~
പ്പെടുത്തിയില്ല.</p>

<p>ഉപസംഹാരം</p>

<p>നാല്പത്തിയൊന്നു് ആസനങ്ങളാണു് ഇതില്഼ കൊടുത്തിരിക്കുന്നതു്.
എല്ലാ ആസനങ്ങളുടേയും `ടെക്നിക്സ്', സംശയത്തിനിടവരാ~
ത്തവിധം ലളിതമായ ഭാഷയില്഼ വിശദീകരിച്ചിട്ടുണ്ടെന്നാണു് ഗ്രന്ഥ~
കര്഼ത്താവ് വിനയപൂര്഼വം അവകാശപ്പെടുന്നതു്. എന്തെങ്കിലും സംശ~
യങ്ങളോ അഭിപ്രായവ്യത്യാസങ്ങളോ ഉളളവര്഼ സദയം അറിയി~
ക്കുക. സന്തോഷപൂര്഼വം സമാധാനം തരുന്നതാണു്.</p>

<p>	ഒരേ ആസനംതന്നെ പല പേരിലും അറിയപ്പെടുന്നുണ്ടു്.
ഒന്നിനുതന്നെ പല പ്രകാരഭേദങ്ങളും ഉണ്ടു്. പ്രസിദ്ധരായ പല
യോഗാചാര്യന്മാരുടേയും ഗ്രന്്ഥങ്ങള്഼ ശ്രദ്ധാപൂര്഼വം പഠിച്ചും അഭ്യ~
സിച്ചും, അവരില്഼ ജീവിച്ചിരിക്കുന്ന പലരേയും നേരില്഼ കണ്ടു്
സംസാരിച്ചും ലഭിച്ചിട്ടുളള അറിവിന്഼റെയും അനുഭവത്തിന്഼റെയും
പശ്ചാത്തലത്തിലാണു് ഇതു രൂപംകൊണ്ടിരിക്കുന്നതു്. എങ്കിലും
കുററവും കുറവും കണ്ടേക്കാം. അവയെ സദയം ചൂണ്ടിക്കാണിക്കുക.</p>

<p>	വ്യായാമത്തിന്഼റെ അഭാവംകൊണ്ടു മാത്രം കഷ്ടപ്പെടുന്നവര്഼ക്കു്
ഈ ഗ്രന്ഥം ഉപകരിക്കുന്നതാണു്. ശാരീരിക നിയമങ്ങള്഼ അറിയാ~</p>

<p>131-</p>

<p>തെയും അവഗണിച്ചും ആളുകള്഼ ധനം സന്പാദിക്കുന്നു. പകുതി
പ്രായം കഴിയുന്പോഴേക്കും ധനത്തോടൊപ്പം പല രോഗങ്ങളും സന്പാ~
ദിക്കുന്നു. രോഗശമനത്തിനുവേണ്ടി സന്പാദിച്ച ധനം നിര്഼ലോപം
ചെലവാക്കുന്നു. അങ്ങനെൟൊന്നും ആരോഗ്യം കിട്ടാന്഼ പോകുന്നില്ല.
സ്വപ്രയത്നം കൊണ്ടുതന്നെ അതു സന്പാദിക്കണം.</p>

<p>	ഒരു ഗുരുനാഥന്഼റെ സഹായം കൂടാതെതന്നെ വേണ്ടിടത്തോളം
യോഗാസനങ്ങള്഼ സ്വയം പഠിക്കാനുതകുന്ന വിധത്തില്഼ തയ്യാറാ~
ക്കിയിരിക്കുന്ന ഈ ഗ്രന്ഥം വായിക്കുന്നവര്഼ക്കു ജീവിതത്തെപ്പററി~
യും ജീവിതരീതികളെപ്പററിയും ധരിച്ചുവെച്ചിട്ടുളള തെററായ പല
ധാരണകളും മാററാന്഼ സാധിക്കുന്നതാണു്. പരന്പരാഗതമായി~
ത്തന്നെ രൂഢമൂലമായ പല തെററുകളും നാം തുടര്഼ന്നുപോരുക~
യാണു്.</p>

<p>	ഇതില്഼ പറഞ്ഞിട്ടുളള എല്ലാ ആസനങ്ങളും ചെയ്യണമെന്നോ
ചെയ്തേ തീരൂ എന്നോ നിര്഼ബന്ധമില്ല. സമയമില്ലെന്നു പറഞ്ഞു്
തടിതപ്പാന്഼ നോക്കാതെ, വലിയ ബുദ്ധിമുട്ടൊന്നും ഇല്ലാത്ത ചില
യോഗവ്യായമങ്ങളെങ്കിലും കുറച്ചുദിവസം ചെയ്തുനോക്കുക. ഒന്നു
രണ്ടാഴ്ച അങ്ങനെ ചെയ്താല്഼ അതുകൊണ്ടുളള പ്രയോജനം അത്ഭുതാ~
വഹമായിരിക്കും.</p>

<p>			`സ്വല്പമപ്യസ്യ ധര്഼മസ്യ
			ത്രായതേ മഹതോഭയാല്഼'</p>

<p>അവശ്യം അനുഷ്ഠിക്കേണ്ട കാര്യങ്ങള്഼ എത്രതന്നെ കുറച്ചു ചെയ്താ~
ലും ശരി, അതു് മഹത്തായ ഭയത്തില്഼നിന്നും നിങ്ങളെ രക്ഷിക്കുന്ന~
താണു്.</p>

<p>	കുറച്ചുനാള്഼ യോഗാസനം ചെയ്തിട്ടു് മുടങ്ങിപ്പോയാലും അബ~
ദ്ധമൊന്നുമില്ല. ദിവസവും പതിവായി കുളിച്ചു ശീലിച്ചവര്഼ കുറ~
ച്ചുദിവസം കുളിച്ചില്ലെന്നുവച്ചു് അപകടത്തിലാവുകയില്ലല്ലോ.
കുളി ബാഹ്യശുദ്ധിക്കും വ്യാൟാമം ആഭ്യന്തരശുദ്ധിക്കും; ഇതാണു
വ്യത്യാസം.</p>

<p>-133-</p>

<p>			പ്രാണായാമം</p>

<p>അമുഖം</p>

<p>അഷ്ടാംഗയോഗത്തില്഼ നാലാമത്തേതാണു് പ്രാണായാമം. ൟമം,
നിയമം, ആസനം എന്നിവയാണു് ആദ്യത്തെ മൂന്നു് അംഗങ്ങള്഼.</p>

<p>	പ്രാണായാമം, പലവിധത്തിലുണ്ടെങ്കിലും എട്ടുവിധത്തിലുളള
പ്രാണായാമങ്ങളാണു് ഹഠയോഗപ്രദീപികയില്഼ അനുശാസിച്ചിരി~
ക്കുന്നതു്. അവയില്഼ ചിലതെല്ലാം ഗുരുമുഖത്തുനിന്നും നേരിട്ടു്
നിഷ്കര്഼ഷയായി അഭ്യസിക്കേണ്ടതാണു്. പുസ്തകം നോക്കി നീന്തല്഼
പഠിച്ചിട്ടു് വെളളത്തില്഼ ചാടിയാല്഼ ഫലം ഊഹിക്കാവുന്നതാ~
ണല്ലോ.</p>

<p>	ശാരീരികം, മാനസികം, ആത്മീയം എന്നിങ്ങനെ മൂന്നാണു്
പ്രാണായാമത്തിന്഼റെ ലക്ഷ്യങ്ങള്഼. ഇതില്഼ ശാരീരികമായും മാനസി~
കമായും ലഭിക്കാവുന്ന പ്രയോജനത്തെ മുന്഼നിറുത്തി, അയത്ന
ലളിതവും അതേസമ഼യം ഫലപ്രദവുമായ ചില പ്രാണായാമ~
പദ്ധതികളാണു് ഈ ഗ്രന്ഥത്തില്഼ ഉള്഼പ്പെടുത്തിയിരിക്കുന്നതു്.
അതിലേക്കു കടക്കുന്നതിനു മുന്പു് പൊതുവേ, അറിഞ്ഞിരിക്കേണ്ട~
തായ അല്പം ചില കാര്യങ്ങള്഼കൂടി ചുരുക്കിപ്പറയേണ്ടതു് ആവശ്യ~
മാണെന്നു കരുതുന്നു.</p>

<p>	മനുഷ്യന്഼റെ നിലനില്പിനും സുസ്ഥിതിക്കും ആധാരമായ രണ്ടു്
അദൃശ്യഘടകങ്ങളാണു് മനസ്സും പ്രാണനും. ഇതില്഼ ഏതെങ്കിലും
ഒന്നിന്഼റെ അഭാവത്തില്഼ മനുഷ്യന്഼തന്നെ ഇല്ലാതാകുന്നു. ശരീര~
ത്തില്഼ പ്രാണന്഼ പ്രവേശിക്കുന്നതോടുകൂടി ജീവിതം ആരംഭിക്കുക~
യും, ശരീരത്തില്഼നിന്നുളള അതിന്഼റെ തിരോധാനത്തില്഼ ജീവിതം
അവസാനിക്കുകയും ചെയ്യുന്നു. അദൃ഼ശ്യമായ ഈ പ്രാണന്഼ പ്രപഞ്ച~
ത്തില്഼ സര്഼വത്ര നിറഞ്ഞുനില്ക്കുന്നു. നാം കഴിക്കുന്ന ഭക്ഷണത്തിലും
കുടിക്കുന്ന വെളളത്തിലും ശ്വസിക്കുന്ന വായുവിലും പ്രാണന്഼ അന്തര്഼~
ഭവിച്ചിരിക്കുന്നു. വായുവില഼ുളള പ്രാണന്഼ നാം സ്വീകരിക്കാതിരു~
ന്നാല്഼ മരണം സംഭവിക്കുന്നു. ഭക്ഷണപ്രാണനും ജലപ്രാണനും കി്ടടി~
യില്ലെങ്കിലും കുറെനാള്഼ ജീവിച്ചിരിക്കാവുന്നതാണു്. എന്നാല്഼,
വായുവിലുളള പ്രാണന്഼ കിട്ടിയില്ലെങ്കില്഼ ഒരു നിമിഷംപോലും
ജീവിതമില്ല. ഈ പ്രാണന്഼ നമുക്കു കിട്ടുന്നതു് ശ്വാസത്തില്഼കൂടിയാ~</p>

<p>-134-</p>

<p>ണു്. സാധാരണയായി നാം ഒരു മിനിട്ടില്഼ പതിനഞ്ചു പ്രാവശ്യം
ശ്വസിക്കുകയും അതിലുളള ഓക്സിജനും പ്രാണനും എടുത്ത ശേഷം
നിശ്വസിക്കുകയും ചെയ്യുന്നു. ശരീരത്തില്഼ പ്രാണനുണ്ടെങ്കിലേ
ഓക്സിജന്഼കൊണ്ടു പ്രയോജനമുളളു. ഇത്രയേറെ പ്രാധാന്യമുളള
ഈ പ്രാണന്഼ നമ്മുടെ ചുററും സമൃദ്ധിയായിട്ടുണ്ടെങ്കിലും ബോധ~
പൂര്഼വം അതിനുവേണ്ടി പ്രയത്നിക്കാറില്ല. സ്വാഭാവികമായി നാം
അറിയാതെ നടന്നുകൊണ്ടിരിക്കുന്ന ശ്വാസോച്ഛ്വാസംകൊണ്ടു് നാം
തൃപ്തരാണു്. പ്രാണന്഼ എത്രത്തോളം കൂടുതല്഼ സന്പാദിക്കുന്നുവോ,
അത്രത്തോളം കൂടുതല്഼ ശക്തിയും ചൈതന്യവും നമുക്കു് വര്഼ദ്ധി~
ക്കുന്നു. വോള്഼ടേജ് കുറയുന്പോള്഼ പ്രകാശം കുറയുകയും യന്ത്രങ്ങള്഼
പ്രവര്഼ത്തനരഹിതമായിത്തീരുകയും ചെയ്യുന്നു. അതേപ്രകാരം
പ്രാണന്഼റെ അപര്യാപ്തതയാണു് ശരീരത്തിന്഼റെ ചൈതന്യവും
ശക്തിയും കുറയ്ക്കുന്നതു്. അതിന്഼റെ ലക്ഷണമാണു് രോഗം.</p>

<p>	പ്രാണന്഼ വിദ്യുച്ഛക്തിപോലെ ഒരു അദൃശ്യവസ്തുവാണു്. അതു്
എത്ര വേണമെങ്കിലും സംഭരിച്ചുവെക്കുന്നതിനുളള സംവിധാനം
നമ്മില്഼തന്നെയുണ്ടു്. ഈ പ്രാണന്഼, വേണ്ടിവന്നാല്഼ മെററാരാള്഼ക്കു
പ്രദാനം െചയ്യാനും സാധിക്കും. പക്ഷേ, അതിനു ചില സാങ്കേതിക
പരിജ്ഞാനം ആവശ്യമാണു്. മരുന്നുകളൊന്നും കൂടാതെ സുഖക്കേടു~
കള്഼ മാററുന്നതു് ഈ തന്ത്രത്തില്഼കൂടിയാണു്. ഇതിനു സാമര്഼ത്ഥ്യമുളള
പലരും ഇന്നും ഈ ലോകത്തിലുണ്ടു്.
	
	ഇത്രമാത്രം ജീവല്഼പ്രധാനമായ പ്രാണനെ ബോധപൂര്഼വം
വര്഼ദ്ധിപ്പിക്കുന്നതിനുളള ഒരു ടെക്നിക്കാണു് പ്രാണായാമം.
പ്രാണനെ ആയാമം ചെയ്യുക അല്ലെങ്കില്഼ നിയന്ത്രിക്കുക എന്നാണു്
പ്രാണായാമം എന്ന വാക്കിനര്഼ത്ഥം.</p>

<p>	നിയന്ത്രിക്കപ്പെട്ട ശ്വാസോച്ഛ്വാസംവഴി പ്രാണന്഼ സംഭരിച്ചു്
ശരീരമനസ്സുകള്഼ക്കു് ചൈതന്യവും ശക്തിയും വര്഼ദ്ധിപ്പിക്കുന്ന
സന്പ്രദായത്തിനാണു് പ്രാണായാമം എന്നു പറയുന്നതു്. 
	
	പ്രാണായാമത്തില്഼കൂടിയും, സ്വാഭാവികമായും നാം സംഭരി~
ക്കുന്ന പ്രാണന്഼ മുഖ്യമായും അഞ്ചു് ഉപാധികളില്഼ കൂടിയാണു് പ്രക~
ടമാകുന്നതു്.</p>

<p>	പ്രാണന്഼, അപാനന്഼, ഉദാനന്഼, വ്യാനന്഼, സമാനന്഼ എന്നാണു്
അവയുടെ പേരുകള്഼. ശരീരത്തിനകത്തും പുറത്തും ഉളള സകല
ചേഷ്ടകളും നിര്഼വഹിക്കുന്നതും നിയന്ത്രിക്കുന്നതും ഈ പ്രാണന്മാരാ~
ണു്. ഈ അഞ്ചു പ്രാണനും ഓരോ ഉപപ്രാണനും ഉണ്ടു്. വിസ്താര
ഭയത്താല്഼ വിശദീകരണങ്ങള്഼ ഒഴിവാക്കുന്നു.</p>

<p>സ്ഥുലം; സൂക്ഷ്മം</p>

<p>സ്ഥൂലം, സൂക്ഷ്മം, കാരണം എന്നിങ്ങനെ മൂന്നു ഘടകങ്ങളോടു
കൂടിയതാണു് മനുഷ്യശരീരം. കരചരണാദി അവയവങ്ങളോടുകൂടി</p>

<p>-135-</p>

<p>പ്രത്യക്ഷമായി കാണുന്ന ബാഹ്യദേഹമാണു് സ്ഥൂലശരീരം. അതി~
നു് സ്വയമായി എന്തെങ്കിലും ശക്തിയോ ചൈതന്യമോ ഇല്ല.
മനസ്സും പ്രാണനും ചേര്഼്ന്നുളള മെററാരു ശരീരം ഈ സ്ഥൂലശരീരത്തി~
നുളളില്഼ പ്രവര്഼ത്തിക്കുന്നുണ്ടു്. അതാണു് സൂക്ഷ്മ ശരീരം. അതി~
ന്഼റെ സാന്നിദ്ധ്യംകൊണ്ടു മാത്രമാണു് സ്ഥൂലശരീരം ചൈതന്യ~
വത്തായിത്തീരുന്നതു്. ഈ സൂക്ഷ്മശരീരത്തിന്഼റെ വേര്഼പാടാണു്
മരണം. അങ്ങനെ വരുന്പോള്഼, സ്ഥൂലശരീര഼ത്തേക്കാള്഼ പ്രാധാന്യം
മനസ്സും പ്രാണനും ഉള്഼പ്പെട്ട സൂക്ഷ്മശരീരത്തിനാണെന്നു വ്യക്തമാ~
ണല്ലോ.</p>

<p>	സ്ഥൂലശരീരത്തിന്഼റെ നിലനില്പിനു നിദാനം സൂക്ഷ്മശരീര~
സ്ഥിതനായ പ്രാണനാണു്. പ്രാണനു് ഇച്ഛാശക്തിയില്ല. സ്ഥൂല
ശരീരത്തില്഼ അതു ചുററിക്കറങ്ങിക്കൊണ്ടിരിക്കുന്നു. ജാഗ്രത്തിലും
സ്വപ്നത്തിലും സൂഷപ്തിയിലും പ്രാണനു വിശ്രമമില്ല.</p>

<p>	ഇച്ഛാശക്തിക്കിരിപ്പിടം മനസ്സാണു്. മനസ്സിന്഼റെ ഇച്ഛാ~
ശക്തിക്കും വിധേയമാണു് പ്രാണന്഼. മനസ്സിന്഼റെ കല്പനകള്഼ അനുസ~
രിക്കാന്഼ പ്രാണന്഼ കടമപ്പെട്ടിരിക്കുന്നു. അതാണു് വ്യവസ്ഥാപിത~
മായ പ്രപഞ്ചനിയമം.</p>

<p>	സ്ഥൂലശരീരത്തില്഼ നിത്യേന അവശേഷിച്ചുകൊണ്ടിരിക്കുന്ന
മാലിന്യങ്ങളെ അതാതു ദിവസം അകററി പ്രാണനു സ഼ഞ്ചാരയോ~
ഗ്യമാക്കിത്തീര്഼ക്കുകയാണു് യോഗാസനംകൊണ്ടു് ഉദ്ദേശിച്ചിരിക്കുന്ന~
തു്. അതില്഼ അലസതയും അലംഭാവവും സംഭവിച്ചാല്഼ ശരീരത്തി~
ലെ കോടാനുകോടി സെല്ലുകള്഼ക്കിടയില്഼ മാലിന്യങ്ങള്഼ വര്഼ദ്ധി~
ക്കുകയും പ്രാണന്഼റെ സ഼ഞ്ചാരപഥം തടസ്സപ്പെടുകയും ചെയ്യുന്നു.
പ്രാണു് പ്രവേശിക്കാന്഼ സാധിക്കാത്ത ഭാഗങ്ങള്഼ പ്രവര്഼ത്തനരഹി~
തമാകുന്നു. അതിനാണു് രോഗം എന്നു് സാധാരണക്കാര്഼ പറഞ്ഞു
വരുന്നതു്. എന്തെങ്കിലും കാരണവശാല്഼ എപ്പോഴെങ്കിലും യോഗിമാ~
രില്഼ ഇങ്ങനെ ഒരു പരിതഃസ്ഥിതി ഉളവായാല്഼ അപ്രതിഹതമായ
അവരുടെ മനസ്സിന്഼റെ ഇച്ഛാശക്തികൊണ്ടു് `രോഗ' ഗ്രന്ഥമായ
ഭാഗങ്ങളില്഼ പ്രാണനെ പ്രവേശിപ്പിച്ചു് രോഗശാന്തി വരുത്തുകയാ~
യിരുന്നു പതിവു്. ഔഷധങ്ങളുടെ ആവശ്യംതന്നെ അവര്഼ക്കുണ്ടായി~
രുന്നില്ല.</p>

<p>	ഇപ്രകാരം സ്ഥൂലശരീരത്തിന്഼റെ നിലനില്പിനും സുസ്ഥിതി~
ക്കും ആധാരവും മനസ്സിന്഼റെ ഇച്ഛാശക്തിക്കു വിധേയവുമായിരി~
ക്കുന്ന പ്രാണനെ സംപുഷ്ടവും സുശക്തവുമാക്കിത്തീര്഼ക്കുകയാണു്
പ്രാണായാമത്തിന്഼റെ ലക്ഷ്യം. പ്രാണായാമത്തിനു് പരമപ്രധാന~
മായ ഒരു സ്ഥാനമാണു് യോഗികളും യോഗശാസ്ത്രങ്ങളും കല്പിച്ചിരി~
ക്കുന്നതു്.</p>

<p>	മേല്഼പറയപ്പെട്ട സുക്ഷ്മശരീരത്തിന്഼റെ നിലനില്പിനു ഹേതുവാ~
യി അതിനുളളില്഼ മെററാരു ശരീരം വ്യവഹരിച്ചുകൊണ്ടിരിക്കുന്നു~
ണ്ടു്. അതാണു കാരണശരീരം എന്നു് ധര്഼മശാസ്ത്രങ്ങള്഼ ഉദ്ഘോഷി~</p>

<p>-136-</p>

<p>ക്കുന്നു. അതു് ആത്മജ്ഞാനപരമായ ഒരു വിഷയമായതുകൊണ്ടു്
അതിനെപ്പററി ഇവിടെ വിചിന്തനം ചെയ്യണമെന്നു് വിചാരിക്കു~
ന്നില്ല.</p>

<p>മനസ്സും പ്രാണനും</p>

<p>മനസ്സും പ്രാണനും തമ്മില്഼ അഭേദ്യമായി ബന്ധപ്പെട്ടിരിക്കുന്നു.
രണ്ടും അരൂപികളാണെങ്കിലും അനുഭവംകൊണ്ടറിയാവുന്നതാണു്.
പ്രാണന്഼റെ ദൃശ്യരൂപമാണു് ശ്വാസോച്ഛ്വാസം. അതുകൊണ്ടു്,
ഇവിടെ മനസ്സും പ്രാണനും എന്നു പറയുന്പോള്഼, മനസ്സും ശ്വാസോ~
ച്ഛ്വാസവും എന്നു് മനസ്സിലാക്കിക്കൊളളണം.</p>

<p>	മനസ്സും പ്രാണനും `അന്യോന്യം രഥസാരഥി' എന്നാണു് ശാസ്ത്ര~
ഗ്രന്ഥം ഉപമിച്ചിരിക്കുന്നതു്. രഥം ചലിക്കുന്പോള്഼ സാരഥിയും,
സാരഥി ചലിക്കുന്പോള്഼ രഥവും ചലിക്കുന്നതാണല്ലോ. അതുപോ~
ലെ മനസ്സു് സ്പന്ദിക്കുന്പോള്഼ പ്രാണനും പ്രാണന്഼ സ്പന്ദിക്കുന്പോള്഼
മനസ്സും സ്പന്ദിക്കുന്നു.</p>

<p>	മനസ്സ് ശാന്തമായിരിക്കുന്പോള്഼ ശ്വാസോച്ഛ്വാസവും ശാന്തമാ~
യിരിക്കും. നേരെമറിച്ചു്, മാനസികാവസ്ഥ വികലമാകുന്പോള്഼
ശ്വാസോച്ഛ്വാസവും അത്രയക്കു് വികലമായിത്തീരുന്നു. ശ്വാസഗതി
വികലമാകുന്പോള്഼ മനസ്സും അതുപോലെതന്നെ ആയിത്തീരും.
അല്പം ശ്രദ്ധിച്ചാല്഼ ഈ പരമാര്഼ത്ഥം അറിയാന്഼ സാധിക്കും. കാമ~
ക്രോധാദി വികാരങ്ങള്഼ക്കധീനരാവുന്നവരുടെ ശ്വാസോച്ഛ്വാസത്തി~
ന്഼റെ സന്പ്രദായങ്ങള്഼ അതാതു വികാരങ്ങള്഼ക്കനുസൃതമായി വ്യത്യസ്ത
രീതിയിലായിരിക്കും. ഇതിന്഼റെ വെളിച്ചത്തില്഼ ഒരു വസ്തുത സ്പഷ്ട~
മാകുന്നു. അതായതു്: മനസ്സിനെ നിയന്ത്രിച്ചാല്഼ പ്രാണനും (ശ്വാ~
സോച്ഛ്വാസവും) പ്രാണനെ നിയന്ത്രിച്ചാല്഼ മനസ്സും നിയന്ത്രിക്കപ്പെ~
ടുന്നു.അനിഷേധ്യമായ ഒരു യാഥാര്഼ത്ഥ്യമാണിതു്. അനുഭവംകൊ~
ണ്ടറിയാവുന്നതുമാണു്.</p>

<p>	ഇപ്രകാരം മനസ്സിനേയും പ്രാണനേയും-ശ്വാസോച്ച്വാസത്തേ~
യും-ഒരേ സമയം നിയന്ത്രിച്ചു് നമ്മുടെ ആജ്ഞാനുവര്഼ത്തികളാക്കി
മാററിയെടുക്കാന്഼് സാധിക്കുന്ന ആശ്ചര്യകരമായ ഒരു ടെക്നിക്'
ആണു് പ്രാണായാമം.</p>

<p>	പ്രാണായാമം പരായണന്മാര്഼ക്കു് ദീര്഼ഘായുസ്സും ആരോഗ്യവും,
മനഃശക്തിയും ഏകാഗ്രതയും മററു ചില അമാനുഷിക ശക്തി~
കളും ഉണ്ടാകുമെന്നാണു് ഋഷീശ്വരന്മാരുടെ അസന്ദിഗ്ദ്ധമായ
അഭിപ്രായം.</p>

<p>	സ്വാഭാവികമായി നാം എടുക്കാറുളള ശ്വാസംകൊണ്ടു് ശ്വാസ~
കോശങ്ങള്഼ നിറയുന്നതല്ല അതിനകത്തുളള പല അറകളിലേക്കും
ശ്വാസം കടന്നുവെന്നുതന്നെ വരുന്നതല്ല. അതുപോലെതന്നെ നാം</p>

<p>-137-</p>

<p>ശ്വസിച്ച വായു മുഴുവനും പുറത്തേക്കു പോയെന്നും വരില്ല. എന്നാല്഼,
ബോധപൂര്഼വം സാവധാനം ശ്വാസം എടുക്കുന്പോള്഼ ശ്വാസകോശം
പൂര്഼ണമായും വികസിച്ചു വായുകൊണ്ടു നിറയുകയും, ഉച്ഛ്വസിക്കു~
ന്പോള്഼ മുഴുവന്഼ വായുവും പുറത്തേക്കു പോകുക഼യും ചെയ്യുന്നു.ഈ
പ്രക്രിയയില്഼ ധാരാളമായി ലഭിക്കുന്ന ഓക്സിജന്഼കൊണ്ടു് രക്തം
കൂടുതല്഼ ശുദ്ധീകരിക്കപ്പെടുകയും പ്രാണശക്തി വര്഼ദ്ധിക്കുകയും
ചെയ്യുന്നു.</p>

<p>	ഇതാണു് ചുരുക്കിപ്പറഞ്ഞാല്഼ ശാരീരികമായും മാനസികമായും
പ്രാണായാമംകൊണ്ടു സിദ്ധിക്കുന്ന പ്രയോജനങ്ങള്഼.</p>

<p>	ഇക്കാണാവുന്ന ബ്രഹ്മാണ്ഡകടാഹംമുഴുവന്഼ വ്യവസ്ഥാപിതമായ
ഒരു നിയമത്തില്഼ ബന്്ധിച്ചു നിലനിര്഼ത്തിക്കൊണ്ടിരിക്കുന്ന ഒരു
മഹത്ഛക്തിയുണ്ടു്. അതിനെ Universal Cosmic Energy
എന്നു് ഇംഗ്ലീഷില്഼ പറയുന്നു. അനന്തവും അപ്രമേയവുമായ ആ
പ്രപഞ്ചശക്തിയുടെ ഒരു കണികയാണു് നാം ശ്വാസോച്ഛ്വാസം
വഴി വലിച്ചെടുക്കുന്ന പ്രാണന്഼.</p>

<p>		പ്രാണായാമം-1</p>

<p>			  ദീര്഼ഘശ്വാസം</p>

<p>	1. പ്രാര്഼ത്ഥനയ്ക്കും ധ്യാനത്തിനും പറ഼ഞ്ഞിട്ടുളള ഏതെങ്കിലും
ആസനത്തില്഼ സുഖമായിരിക്കുക. ശരീരം നിവര്഼ന്നിരിക്കണം. ഒരി~
ടത്തും ഒരുവിധ ബലവും കൊടുക്കാതിരിക്കുക. നിശ്ചലമായി
പ്രതിമപോലെയാണിരിക്കേണ്ടതു്. വയറ് മിക്കവാറും ഒഴിഞ്ഞിരി~
ക്കണം. കൈകള്഼ സൌകര്യപ്രദമായി കാല്഼മുട്ടുകളില്഼ നീട്ടിവെക്കുക.</p>

<p>	2. കണ്ണടയ്ക്കുക. തല നിവര്഼ന്നു നേരെയിരിക്കണം.</p>

<p>	3. ആദ്യമായി ശ്വാസം അകത്തുളളതു മുഴുവന്഼ പുറത്തേക്കു
വിടുക.</p>

<p>	4. സാവധാനം രണ്ടു മൂക്കിന്഼ദ്വാരത്തില്഼കൂടിയും ശ്വാസം
ശബ്ദം പുറപ്പെടുവിക്കാതെ സാവധാനം എടുക്കുക. ശ്വാസം നിറഞ്ഞു
കഴിയുന്പോഴേക്കും നെഞ്ചു് സ്വല്പം മുന്പോട്ടു തളളി വരുന്നതായി~
രിക്കും.</p>

<p>	5. സ്വല്പ സമയം അതേ നിലയില്഼ നിറുത്തിയിട്ടു് എത്രയും
സാവധാനത്തില്഼, എടുത്തതിനേക്കാള്഼ കൂടുതല്഼ സമയംകൊണ്ടു് പുറ~
ത്തേക്കു വിടുക.</p>

<p>	6. അല്പംപോലും ശ്വാസം ഉളളില്഼ തങ്ങി നില്പില്ലെന്നു
ബോദ്ധ്യപ്പെടുന്നതുവരെ ശ്വാസം വിട്ടുകൊണ്ടിരിക്കുക.</p>

<p>-138-</p>

<p>	7. ഒന്നു ര഼ണ്ടു സെക്കന്഼ഡ് അതേ നിലയില്഼ നിന്നിട്ടു് വീണ്ടും
ശ്വാസം എടുക്കുക. തുടര്഼ന്നു് മേല്഼പറഞ്ഞ പ്രകാരം ആവര്഼ത്തിക്കു.</p>

<p>	അഞ്ചില്഼ തുടങ്ങി ഒരാഴ്ചകണ്ടു് പത്തുദീര്഼ഘശ്വാസം നടത്തുക.
	ശവാസനം കഴിഞ്ഞാല്഼ തുടര്഼ന്നു് പ്രാണായാമം ചെയ്യുക. മററ~
വസരങ്ങളില്഼ സൌകര്യമുളളപ്പോഴൊക്കെയും ഇതു ചെയ്യാം. പരി~
ശുദ്ധമായ വായു ലഭിക്കുന്ന സ്ഥലങ്ങളില്഼ ചെല്ലുന്പോഴും ഇതു
ചെയ്യാവുന്നതാണു്. ഇരുന്നോ, നിന്നോ, കിടന്നോ എങ്ങനെ വേണ~
മെങ്കിലും ആകാം.</p>

<p>	ശ്വാസം എടുക്കുന്നതും വിടുന്നതും ധാരമുറിയാതെയായിരിക്ക~
ണം. വിട്ടുവിട്ടു ചെയ്യരുതെന്നര്഼ത്ഥം.</p>

<p>	എപ്പോഴെങ്കിലും വികാരത്തിനു വിധേയരാകുന്പോള്഼ അഞ്ചു്-
എട്ടു തവണ ദീര്഼ഘശ്വാസം ചെയ്താല്഼ മനസ്സിന്഼റെ വിക്ഷോഭം ശമി~
ക്കുന്നതായിരിക്കും. മനസ്സ് നിയന്ത്രണാതീതമായിത്തീരുന്നുവെന്നു
കണ്ടാല്഼ കുറച്ചു സമയം ദീര്഼ഘശ്വാസം ചെയ്തു നോക്കൂ. പെട്ടെന്നു്
മനസ്സിനു് ഒരു ഇരുത്തം കിട്ടുന്നതാണു്.</p>

<p>	ആര്഼ക്കും എപ്പോഴും എവിടെയും ചെയ്യാവുന്നതാണു് ദീര്഼ഘ~
ശ്വാസം. ക്രമേണ അതിന്഼റെ ഗുണം അനുഭവപ്പെടുന്നതായിരിക്കും.</p>

<p>	ഇതിനു കണ്ണടച്ചുകൊണ്ടിരിക്കണമെന്നു് നിര്഼ബന്ധമില്ല.
കണ്ണില്഼പ്പെടുന്ന ദൃശ്യങ്ങള്഼ നിങ്ങളെ ആകര്഼ഷിച്ചു് വിഷയം മാറി
പോകാതിര഼ുന്നാല്഼മതി.</p>

<p>2. അനുലോമ-വിലോമം
	(നാഡശോധന പ്രാണായാമം)</p>

<p>	1. ദീര്഼ഘശ്വാസത്തിനു പറഞ്ഞിരിക്കുന്ന പ്രകാരം ആസന~
സ്ഥനാവുക. (തുടക്കത്തില്഼ പറഞ്ഞിട്ടുളള അഞ്ച് ആസനങ്ങളില്഼
ഏതെങ്കിലും ഒന്നു പ്രാണായാമം ചെയ്യുന്നതിനു സ്വീകരിക്കാം.)</p>

<p>	2. ഇടത്തുകൈ നീട്ടി ഇടത്തേ കാലിന്഼റെ മുട്ടില്഼ ഉളളം
കൈ കമഴ്ത്തി വെക്കുക.</p>

<p>	3. വലത്തുകൈ ഉയര്഼ത്തി ചൂണ്ടാണിവിരലും നടുവിരലും
പുരികങ്ങളുടെ മദ്ധ്യത്തില്഼ വെക്കുക.</p>

<p>	4. തളളവിരല്഼ മൂക്കിന്഼റെ വലതുഭാഗത്തും ചെറുവിരലും മോതി~
രവിരലും ഇടതുഭാഗത്തും റെഡിയാക്കി നിറുത്തുക.</p>

<p>	5. കണ്ണടയ്ക്കുക. മുഖത്തെ മാംസപേശികളൊന്നും വലിച്ചുപിടി~
ക്കാതെ ശാന്തമായ മുഖഭാവം കൈക്കൊളളുക.</p>

<p>	6. ഉളളിലുളള ശ്വാസം മുഴുവനും പുറത്തേക്കു വിടുക.</p>

<p>	7. ഇനി, തളളവിരല്഼കൊണ്ടു് മൂക്കിന്഼റെ വലത്തെ ദ്വാരം
അടച്ചിട്ടു് ഇടത്തേ ദ്വാരത്തില്഼കൂടി സാവധാനം ദീര്഼ഘമായും
തുടര്഼ച്ചയായും ശ്വാസം എടുത്തു ശ്വാസകോശം നിറയ്ക്കുക. (അപ്പോള്഼
നെഞ്ചു സ്വല്പം മുന്പോട്ടു പൊങ്ങിവരുന്നതായിരിക്കും.)</p>

<p>-139-</p>

<p>	8. ശ്വാസം എടുത്തു കഴിഞ്ഞാല്഼ ചെറുവിരലും മോതിരവിരലും
ചേര്഼ത്തുപിടിച്ചുകൊണ്ടു് ഇടത്തേ ദ്വാരം അടച്ചിട്ടു വലത്തേ ദ്വാരം
തുറന്നു് അതില്഼കൂടി വളരെ സാവധാനം ശ്വാസം വിടുക.</p>

<p>	9. ധാരമുറിയാതെ എടുത്ത ശ്വാസം മുഴുവനും പുറത്തേക്കു വിട്ടു
കഴിഞ്ഞാല്഼ അതേ നിലയില്഼ (ശ്വാസം എടുക്കുന്നുമില്ല വിടുന്നുമില്ല)
ഒന്നുരണ്ടു നിമിഷം നിന്നിട്ടു് അതേ ദ്വാരത്തില്഼ (വലത്തേ)കൂടി
തന്നെ ശ്വാസം സാവധാനം എടുത്തു ശ്വാസകോശം നിറയ്ക്കുക.</p>

<p>	10. തുടര്഼ന്നു് വലത്തേ ദ്വാരം തളളവിരല്഼കൊണ്ടടിച്ചിട്ടു് ഇട~
ത്തേ ദ്വാരം തുറന്നു് അതില്഼കൂടി മേല്഼പറഞ്ഞ വിധം ശ്വാസം വിടു~
ക. ഒന്നുര഼ണ്ടു സെക്കന്഼ഡ് അതേനിലയില്഼ നിറുത്തുക.</p>

<p>	ഇപ്പോള്഼ ഒരു പ്രാണായമമായി, അതായതു് ഇടത്തേതില്഼കൂടി
എടുത്തു, വലത്തേതില്഼കൂടി വിട്ടു, അതില്഼കൂടിതന്നെ എടുത്തു് ഇട~
ത്തേതില്഼ കൂടി വിട്ടു. ഇങ്ങനെ ഒരു പ്രാണായാമത്തില്഼ രണ്ടു തവണ
ശ്വാസം എടുക്കുകയും രണ്ടുതവണ ശ്വാസം വിടുക഼യും ചെയ്യുന്നു.</p>

<p>	ഇപ്രകാരം തുടക്കത്തില്഼ മൂന്നു പ്രാണായാമം ചെയ്യുക. ദിവസ~
വും ഓരോന്നു വീതം കൂട്ടി പത്തു പ്രാണായാമംവരെ ചെയ്യുക.</p>

<p>	പ്രാണായാമം ചെയ്യുന്പോള്഼ വായ തുറന്നിരിക്കരുതു്. മനസ്സ്
ശാന്തമായിരിക്കണം. ശ്വാസം കയറുന്നതും ഇറങ്ങുന്നതും മാത്രം
മനസ്സു് ശ്രദ്ധിച്ചുകൊണ്ടിരിക്കട്ടെ. എപ്പോഴെങ്കിലും മനസ്സു മററു
വല്ല ചിന്തകളിലും പോയാല്഼ പിടിച്ചുകൊണ്ടുവന്നു നിര്഼ദിഷ്ഠ ജോ~
ലിയില്഼ ഏര്഼പ്പെടുത്തുക.</p>

<p>പ്രയോജനം</p>

<p>മനസ്സു ശാന്തമാകുന്നു. പ്രാണന്഼റെ സഞ്ചാരപഥം സുഗമമാകുന്നു.
ഇഡ, പിംഗള, സുഷുമ്ന എന്നീ നാഡികളില്഼ കൂടി സഞ്ചരിക്കുന്ന
പ്രാണനു സന്തുലിതാവസ്ഥ കൈവരുത്തുന്നു. തലച്ചോറിലെ സെല്഼~
സ് ശുദ്ധമാകുന്നു. ശ്വാസകോശങ്ങളില്഼ തങ്ങിനിന്നിരുന്ന
പഴയ ശ്വാസം നിശ്ശേഷം പുറത്തുപോകുകയും ശ്വാസം കയറാതിരുന്ന
ശ്വാസകോശങ്ങളിലെ അനേകായിരം അറകള്഼ തുറക്കുകയും ചെ~
യ്യുന്നു.</p>

<p>	മേല്഼ പറഞ്ഞ രണ്ടു പ്രാണായാമങ്ങളും കുറച്ചുദ഼ിവസം ശീലിച്ച~
തിനുശേഷം അടുത്ത പ്രാണായാമം അഭ്യസിക്കാവുന്നതാണു്.</p>

<p>	ദുഷ്കരവും ദുര്഼ഘടവുമായ പ്രാണായാമപദ്ധതികളൊന്നും
ഇതില്഼ ഉള്഼പ്പെടുത്തിയിട്ടില്ല. ഏതൊരാള്഼ക്കും സുഖമായി ചെയ്യാ~
വുന്നതും എല്ലാവരും ചെയ്യേണ്ടതുമാണു് ഇതില്഼ വിവരിച്ചിട്ടുളളതു്.
പ്രാണായാമം സന്യാസിമാര്഼ക്കും യോഗിമാര്഼ക്കും മാത്രമുളളതല്ല.
പ്രത്യേകിച്ചും ഇതില്഼ പറഞ്ഞിട്ടുളള ലളിതമായ പ്രാണായാമങ്ങള്഼.</p>

<p>	കുറച്ചു ദിവസത്തെ അഭ്യാസത്തിനു ശേഷം ഈ പ്രാണായാമ~
ത്തിന്഼റെ എണ്ണം എത്ര വേണമെങ്കിലും വര്഼ദ്ധിപ്പിക്കാവുന്നതാണു്.
ഇരുപതോ മുപ്പതോ പ്രാവശ്യം ചെയ്യുന്നതില്഼ ഒരു തെററുമില്ല. ഒരു</p>

<p>-140-</p>

<p>മിനിട്ടില്഼ രണ്ടു പ്രാണായാമത്തില്഼ കൂടുതല്഼ ചെയ്യാന്഼ പററുന്നതല്ലെ~
ന്നുകൂടി അറിഞ്ഞുക഼ൊളളണം. അപ്പോള്഼ കൂടുതല്഼ സമയം വേണ്ടി
വരും. ദിവസത്തില്഼ രണ്ടു പ്രാവശ്യം, കാലത്തും വൈകുന്നേരവും
ചെയ്താല്഼ അത്രയും നല്ലതു്.</p>

<p>	പരീക്ഷിച്ചു നോക്കുക. എന്നിട്ടു ബോദ്ധ്യം വരുത്തുക. ശര്഼ക്കര
തിന്നുനോക്കിയിട്ടു വേണം അഭിപ്രായം പറയാന്഼. ശര്഼ക്കര തിന്നി~
ട്ടില്ലാത്തവര്഼ക്കു് അഭിപ്രായം പറയാനവകാശമില്ല.</p>

<p>	ഒരു വിഷയത്തെപ്പററിയുളള പരിപൂര്഼ണമായ അജ്ഞതയാണു്
ആ വിഷയത്തെപ്പററി ആധികാരികമായി സംസാരിക്കുന്നതിനുളള
അര്഼ഹത എന്നാണു് ഇന്നത്തെ വ്യവസ്ഥ. അവരാണു വാസ്തവത്തില്഼
മനുഷ്യരെ വഴിതെററിക്കുന്ന സമൂഹദ്രോഹികള്഼.</p>

<p>3. ഭസ്ത്രിക</p>

<p>	കൊല്ലന്഼റെ ആലയിലെ ഉലയ്ക്കാണു ഭസ്ത്രിക എന്നു പറയുന്ന~
	തു്. ഉലയുടെ മാതിരിയാണു ഭസ്ത്രിക പ്രാണായാമത്തില്഼
	ശ്വാസകോശത്തിന്഼റെ പ്രവര്഼ത്തനം.</p>

<p>ചെയ്യേണ്ട വിധം</p>

<p>	1. മുന്഼പറഞ്ഞിട്ടുളളവിധം ഇരുന്നു കണ്ണുകളടച്ചു വലത്തു കൈ
വിരല്഼ പുരികങ്ങളുടെ മദ്ധ്യത്തില്഼ വെക്കുക.</p>

<p>	2. മൂക്കിന്഼റെ വലത്തേ ദ്വാരം വലംകൈയിന്഼റെ തളളവിരല്഼
കൊണ്ടടച്ചിട്ടു് ഇടത്തേ മൂക്കില്഼കൂടി വേഗം വേഗം പത്തു പ്രാവശ്യം
ശ്വാസം എടുത്തു വിടുക. (ഈ പ്രക്രിയയില്഼, ശ്വാസം എടുക്കു~
ന്പോള്഼ അടിവയര്഼ പൊന്തുകയും വിടുന്പോള്഼ ചൊട്ടുകയും ചെയ്യുന്ന~
താണു്).</p>

<p>	3. തുടര്഼ന്നു് രണ്ടു ദ്വാരത്തിലുംകൂടി ദീര്഼ഘമായി ശ്വാസം എടു~
ത്തു്, രണ്ടു ദ്വാരവും അടച്ചു പിടിക്കുക. ശ്വാസംമുട്ടാനിടവരുന്നതി~
നു മുന്പു്, രണ്ടു വശത്തുനിന്നും വിരലുകള്഼ അകററി സാവധാനം
ശ്വാസം മുഴുവന്഼ വിടുക.</p>

<p>	4.സാധാരണമട്ടില്഼ ഒന്നുരണ്ടു തവണ ശ്വാസോച്ഛ്വാസം
ചെയ്യുക.</p>

<p>	5. ഇതുപോലെതന്നെ ഇടത്തേ ദ്വാരം അടച്ചു് വലത്തേതില്഼
കൂടി പത്തു പ്രാവശ്യം വേഗം വേഗം ശ്വാസം എടുത്തു വിടുക.
തുടര്഼ന്നു് മൂന്നും നാലും നന്പറുകളില്഼ പറഞ്ഞിരിക്കുന്നതു ചെയ്യുക.
ഇപ്പോള്഼ ഒരു റൌണ്ടു കഴിഞ്ഞു. തുടക്കത്തില്഼ അതു മതി. കാലക്ര~
മംകൊണ്ടു് പത്തു്഼എന്നുളളതു കൂട്ടി 15-20 വരെ എത്തിക്കാവുന്നതും
മൂന്നു റൌണ്ട് ചെയ്യാവുന്നതുമാകുന്നു.</p>

<p>-141-</p>

<p>	രക്തസമ്മര്഼ദവും ഹൃദ്രോഗവും ഉളളവര്഼ ഇതു ചെയ്യാന്഼ പാടില്ല.
പരിശീലകര്഼ ശ്രദ്ധാഭക്തിവിശ്വാസത്തോടുകൂടി ചെയ്യണം.</p>

<p>പ്രയോജനം</p>

<p>ശ്വാസകോശത്തിലുളള ഗ്യാസിനേയും അണുക്കളേയും നിഷ്കാസനം
ചെയ്യുന്നതിനു് വളരെ പ്രയോജനപ്പെടുന്നു. ആസ്തമ, ക്ഷയം,
പ്ലൂറസി ഇതിനെല്ലാം നല്ലതാണു്. കഫശല്യം വളരെ കുറയുന്ന~
താണു്. വിശപ്പും രുചിയും വര്഼ദ്ധിക്കുന്നു. ധാരാളം കഫം പുറ~
ത്തേക്കു പോകുന്നതായിരിക്കും.</p>

<p>കുറിപ്പു്</p>

<p>മാര്഼ജാരി ആസനം ചെയ്യുന്പോള്഼ മൂക്കില്഼കൂടി ശ്വാസം എടുത്തു് വായില്഼കൂടി
വിടുന്ന വിദ്യ പഠിച്ചിട്ടുണ്ടല്ലോ. അതിനു `മുഖഭസ്ത്രിക' എന്നാണു പറയു~
ന്നതു്.</p>

<p>	സ്വാഭാവികമായിത്തന്നെ പല പ്രാണായാമങ്ങളും യോഗാസനങ്ങള്഼
ചെയ്യുന്നതോടൊപ്പം നടന്നുകൊണ്ടിരിക്കുന്നുണ്ടെന്നും കൂടി അറിഞ്ഞുകൊളളുക.</p>

<p>	ഈശ്വരദത്തമായ നമ്മുടെ ശരീരം അത്യത്ഭുതകരമായ ഒരു ലബോ~
റട്ടറിയാണു്. അതിനെ യാതൊര഼ു കാരണവശാലും ബുദ്ധിമുട്ടിപ്പിക്കുക~
യോ ദ്രോഹിക്കുകയോ ചെയ്യാന്഼ പാടില്ലെന്നു മാത്രമല്ല, അതിനോടുളള നമ്മുടെ
സമീപനം സ്നേഹാദരപൂര്഼വവുമായിരിക്കണം. എങ്കില്഼ മാത്രമേ ആ ശരീരം
കൊണ്ടുളള പരമാവധി പ്രയോജനം നമുക്കു സിദ്ധിക്കുകയുളളു.</p>

<p>		 		4. കപാലഭാതി പ്രാണായാമം</p>

<p>ചെയ്യേണ്ട വിധം</p>

<p>	1. നിര്഼ദേശിച്ചിട്ടുളളപ്രകാരം ഇരിക്കുക. കണ്ണടയ്ക്കുക.</p>

<p>	2. കൈകളുടെ ആവശ്യം ഇവിടെ വരുന്നില്ല. കൈകള്഼ അതാ~
തു് കാല്഼മുട്ടുകളില്഼ നീട്ടി കമഴ്ത്തി വെക്കുക.</p>

<p>	3. വേഗം വേഗം ശ്വാസോച്ഛ്വാസം നടത്തുക. പരിശീലി~
ക്കാന്഼ തുടങ്ങുന്പോള്഼ പത്തു പ്രാവശ്യം ചെയ്യുക.</p>

<p>	4. ശ്വാസം പുറത്തേക്കു വിടുന്നതു സാമാന്യം ശക്തിയോടുകൂടി
വേണം. അകത്തേക്കു സ്വാഭാവികമായിത്തന്നെ താനേ കയറി~
ക്കൊളളട്ടെ.</p>

<p>	5. ശ്വാസകോശത്തിന്഼റെ കരുത്തും കഴിവും അനുസരിച്ചു്
10-ല്഼ ആരംഭിച്ചു് 30,40,50 വരെ ആകാം.</p>

<p>	6. ഒരു റൌണ്ട് കഴിഞ്ഞാല്഼ ദീര്഼ഘമായി ശ്വാസം എടുത്തു
സാവധാനം വിടുക. ഇതു് രണ്ടു പ്രാവശ്യം ചെയ്യുക.</p>

<p>	7. അല്പം വിശ്രമിക്കുക.</p>

<p>	കപാലഭാതിയുടെ ലളിതമായ ഒരു സന്പ്രദായമാണു് മുകളില്഼
പറഞ്ഞിരിക്കുന്നതു്.</p>

<p>-142-</p>

<p>പ്രയോജനം</p>

<p>മനസ്സ് ശക്തവും ശാന്തവുമാകുന്നു. തലച്ചോറിന്഼റെ പുരോഭാഗങ്ങള്഼
സംശുദ്ധമാകുന്നു.മനസ്സിലെ വിചാരങ്ങള്഼ സ്വാഭാവികമായി~
ത്തന്നെ അപ്രത്യക്ഷമാവുകയും, തല്഼ഫലമായി മനഃശക്തി വര്഼ദ്ധി~
ക്കുകയും ചെയ്യുന്നു. കഫശല്യം കുറയുന്നു.</p>

<p>കുറിപ്പു്</p>

<p>യോഗശാസ്ത്രത്തില്഼ പ്രഖ്യാപിച്ചിരിക്കുന്ന ഷട്കര്഼മങ്ങളില്഼ ഒന്നാണു്
കപാലഭാതി. ഈ പ്രാണായാമം വളരെ പ്രസിദ്ധമാണു്.</p>

<p>5. ശൌചപ്രാണായാമം</p>

<p>അവസാനമായി ശ്വാസകോശങ്ങളെ ശുചീകരിക്കുന്ന ഒരു പദ്ധതി~
യാണു് ഇതില്഼ അടങ്ങിയിരിക്കുന്നതു്.</p>

<p>ചെയ്യേണ്ട വിധം</p>

<p>	1. ഏതെങ്കിലും ആസനത്തില്഼ സുഖമായി ഇരിക്കുക.</p>

<p>	2. കണ്ണു തുറന്നുതന്നെ ഇരിക്കട്ടെ. കൈകള്഼ അതാതു കാല്഼
മുട്ടുകളില്഼ കമിഴ്ത്തിവെക്കുക.</p>

<p>	3. സാവധാനം നിറയെ ശ്വാസം എടുക്കുക.</p>

<p>	4. ക്ലേശം തോന്നാതിടത്തോളം സമയം ശ്വാസം ഉളളില്഼
നിറുത്തുക.</p>

<p>	5. ഇനി ചുണ്ടുകള്഼ അല്പം കൂര്഼പ്പിച്ചു് അതില്഼കൂടി വളരെ കുറ~
ച്ചു വായു പുറത്തേക്കു ശക്തിയായി വിടുക.</p>

<p>	6. ഇങ്ങനെ ചെയ്യുന്പോള്഼ മൂക്കില്഼കൂടിയോ വായില്഼കൂടിയോ
ഒട്ടുംതന്നെ ശ്വാസം ഉളളിലേക്കു കയറരുതു്.</p>

<p>	7. വീണ്ടും വീണ്ടും നിറുത്തിനിറുത്തി അല്പാല്പമായി ശ്വാസം
ഊതിവിട്ടുകൊണ്ടിരിക്കുക. അതേസമയം ശരീരം മുന്പോട്ടു ചാഞ്ഞു
ചാഞ്ഞു വന്നു഼് നെററി നിലത്തു മുട്ടാറാകുന്പോഴേക്കും ശ്വാസമെല്ലാം
ഊതി തീര്഼ന്നിരിക്കത്തക്കവിധം രണ്ടു ക്രിയകളും ക്രമീകരിച്ചുകൊ~
ളളണം.</p>

<p>	വിളക്കു് ഊതിക്കെടുത്തുന്നതുപോലെ അല്ല ഊതേണ്ടതു്. കത്താ~
ത്ത വിറകു് എത്ര ശക്തിയിലാണോ ഊതുന്നതു്. അത്രയും ശക്തി
പ്രയോഗിച്ചു വളരെ കുറച്ചു കാററു വിടുക. 10-15 പ്രാവശ്യം കൊണ്ടു
വേണം ആദ്യം എടുത്ത ശ്വാസം മുഴുവനും ഊതിവിട്ടു തീരുവാന്഼.
ഒടുവില്഼ ഊതിയാല്഼ ശ്വാസം ഇല്ലാത്ത ഒരവസ്ഥയില്഼ എത്തിച്ചേ~
രും. അപ്പോള്഼ നിവര്഼ന്നിരിക്കുക. സാധാരണ മട്ടില്഼ ശ്വാസോ~
ച്ഛ്വാസം ചെയ്യുക.</p>

<p>-143-</p>

<p>	ഓരോ പ്രാവശ്യവും ഊതുന്പോഴും ശരീരാന്തര്഼ഭാഗത്തെ സകല
അവയവങ്ങളും ഞരന്പുകളും ത്രസിക്കുന്നതായിരിക്കും. അരയ്ക്കു മുക~
ളില്഼ എവിടെ കൈവച്ചു നോക്കിയാലും ഇതറിയാം. ഇങ്ങനെ
അഞ്ചു തവണ ശ്വാസം എടുത്തു ചെയ്യുക. അപ്പോള്഼ 50-75 പ്രാവ~
ശ്യം ആ ത്രസിക്കല്഼ നടക്കുന്നു. അതും ഒരു വ്യായാമമായി പരി~
ഗണിക്കാം.</p>

<p>	അതിനും പുറമേ ശ്വാസകോശങ്ങള്഼ രണ്ടും പൂര്഼ണമായും ശുചീക~
രിക്കപ്പെടുന്നു. മാത്രമല്ല, വികസിക്കുകയും ചെയ്യും.</p>

<p>			പ്രാര്഼ത്ഥന/ധ്യാനം</p>

<p>യോഗാസനത്തിന്഼റെ പ്രാരംഭം പ്രാര്഼ത്ഥന അല്ലെങ്കില്഼ ധ്യാനത്തോടു
കൂടിയാണു വേണ്ടതെന്നു മുന്പു പറഞ്ഞിട്ടുണ്ടല്ലോ. അവസാനിക്കുന്ന~
തും അങ്ങനെതന്നെയാണു്.</p>

<p>	രണ്ടു മൂന്നു മിനിട്ടെങ്കിലും പ്രാര്഼ത്ഥിക്കുകയോ ധ്യാനിക്കുകയോ
ചെയ്തിട്ടു് എഴുന്നേല്ക്കുക.</p>

<p>	നാലഞ്ചു മിനിട്ടു നേരം ശാന്തനായി നില്ക്കുകയോ നടക്കുകയോ
ചെയ്തിട്ടു വേണം മെററന്തെങ്കിലും കാര്യങ്ങളില്഼ പ്രവേശിക്കുവാന്഼</p>

<p>	അരമണിക്കൂര്഼ കഴിഞ്ഞു കുളി, ലഘുഭക്ഷണം ഇതെല്ലാം ആകാം.</p>

<p>			ഓം ശാന്തി ശാന്തി ശാന്തി.</p>

<p></p>

<p></p>

<p></p>

<p></p>

<p></p>

<p> </p>

<p>
	</p>

<p></p>

<p>
	</p>

<p>		
</p></body></text></cesDoc>