<cesDoc id="mal-w-literature-eductext-pada" lang="mal">
<cesHeader type="text">
<fileDesc>
<titleStmt>
<h.title>mal-w-literature-eductext-pada.txt</h.title>
<respStmt>
<respType>Electronic file created by</respType>
<respName>Central Institute for Indian Languages, Mysore</respName>
<respType>transferred into Unicode and CES format by</respType>
<respName>"Unicodify" software by Andrew Hardie</respName>
</respStmt></titleStmt>
<publicationStmt>
<distributor>UCREL (on behalf of CIIL)</distributor>
<pubAddress>Department of Linguistics, Lancaster University, Lancaster, LA1 4YT, UK</pubAddress>
<availability region="WORLD"></availability>
<pubDate>03-07-21</pubDate>
</publicationStmt>
<sourceDesc>
<biblStruct>
<monogr>
<h.title>*****</h.title>
<h.author>കേരള പാഠാവലി സ്ററാന്഼</h.author>
<imprint>
<pubPlace>India</pubPlace>
<publisher>Unknown - Book</publisher>
<pubDate>1987</pubDate>
</imprint>
<idno type="CIIL code">pada</idno>
</monogr></biblStruct></sourceDesc></fileDesc>
<encodingDesc>
<projectDesc>Text collected for the CIIL Corpus, subsequently integrated into the EMILLE/CIIL Monolingual Written Corpora.</projectDesc>
<samplingDesc>Simple written text only has been transcribed. Diagrams, pictures and tables have been omitted. Sampling begins at page 79.</samplingDesc>
<editorialDecl><conformance level="1"></conformance></editorialDecl>
</encodingDesc>
<profileDesc>
<creation><date>03-07-21</date></creation>
<langUsage>Malayalam</langUsage>
<wsdUsage>
<writingSystem id="ISO/IEC 10646">Universal Multiple-Octet Coded Character Set (UCS).</writingSystem>
</wsdUsage>
<textClass>
<channel mode="w">print</channel>
<constitution type="composite"></constitution>
<domain type="public"></domain>
<factuality type="fact"></factuality>
</textClass>
<translations></translations>
</profileDesc>
<revisionDesc></revisionDesc>
</cesHeader>

<text><body>
<p>-4-</p>

<p>		  പാഠം 2
		   വാഴ</p>

<p>	വാഴയ്ക്കു വളമിട്ടു വെളളം കോരാന്഼ ഒര഼ു കുട്ടി കാട്ടുന്ന 
#ഉത്സാഹം
നോക്കൂ.</p>

<p>	കേരളീയരുടെ ഉററ മിത്രമാണു വാഴ വാഴയും വാഴപ്പഴവും നമ്മുടെ
നിത്യ ജീവിതവുമായി വളരെയധികം ബന്ധപ്പെട്ടിരിക്കുന്നു. ആവശ്യത്തിനും
അലങ്കാരത്തിനു നമുക്കു വാഴ വേണം. കേരളത്തില്഼ എല്ലാക്കാലത്തും വാഴപ്പഴം
സുലഭമാണ്.</p>

<p>-5-</p>

<p>	വാഴയ്ക്കു നല്ല നനവുളള മണ്ണു വേണം. വെളളം കെട്ടി നില്഼ക്കരുത്.
ധാരാളം സൂര്യപ്രകാശവും വേണം. ആദ്യമായി മണ്ണു നല്ലവണ്ണം കിളച്ചു
മറിക്കണം. വേണ്ടത്ര അകലത്തില്഼ തടമെടുത്തു വാഴക്കന്നു നടണം. തടത്തില്഼
പച്ചിലവളവും ചാണകപ്പൊടിയും ചേര്഼ക്കണം. നടാന്഼ ഉപയോഗിക്കുന്ന
കന്നുകള്഼ നല്ല കരുത്തുളളവയായിരിക്കണം. ആവശ്യത്തിനു വെളളവും വളവും
നല്഼കിയാല്഼ നല്ല കുല ലഭിക്കും.</p>

<p>	സാധാരണയായി കന്നു നട്ട് എട്ടൊന്഼പതു മാസത്തിനകം വാഴ
കുലയ്ക്കും. കുല വെട്ടിയ ശേഷം കന്നുകള്഼ ഇളക്കി നടാവുന്നതാണ്. വാഴ~
ക്കൃഷി ആദായകരമായ ഒരു തൊഴില്഼ ആണ്.</p>

<p>-6-</p>

<p>പൂവന്഼, പടററി, മൊന്തന്഼, പാളയംകോടന്഼, കദളി, കണ്ണന്഼, ചെങ്കദളി തുടങ്ങി഼പലയിനം വാഴകള്഼ കേരളത്തില്഼ കൃഷിചെയ്യുന്നുണ്ട്. ഇവയെല്ലാം നാടന്഼
ഇനങ്ങളാണ്. മോറീസ്, റോബസ്ററ തുടങ്ങിയ മറുനാടന്഼ ഇനങ്ങളും ഇവിടെ
ഉണ്ട്. എന്നാല്഼ നമ്മള്഼ വന്഼തോതില്഼ കൃഷിചെയ്യുന്നതു നേന്ത്രവാഴയാണ്.</p>

<p>-7-</p>

<p>വാഴപ്പഴങ്ങളില്഼ ഏററവും വലുതു നേന്ത്രപ്പഴം ആണ്. നേന്ത്രക്കായ്
# കൊണ്ട്
ഉണ്ടാക്കുന്ന ഉപ്പേരിയും കേരളീയര്഼ക്കു പ്രിയപ്പെട്ടതാണ്. അതു മറുനാടുക~
ളില്഼പ്പോലും പ്രസിദ്ധമാണ്.</p>

<p>	വാഴയുടെ എല്ലാഭാഗങ്ങളും ഉപയോഗമുളളവയാണ്. കുട്ടികള്഼ക്കും ചെറു~
പ്പക്കാര്഼ക്കും വയസ്സായവര്഼ക്കും വാഴപ്പഴം ഒരുത്തമാഹാരം ആണ്. അതിന്഼റെ
രുചിയും ഗുണവും ഒന്നു വേറെ തന്നെ. വാഴപ്പിണ്ടിയും, വാഴക്കൂന്പും കറി~
വയ്ക്കാന്഼ കൊളളാം. വാഴക്കൂന്പിനു കുടപ്പന്഼, ചുണ്ട് എന്നിങ്ങനെ പല 
#പേരു~
കളുമുണ്ട്. വാഴപ്പിണ്ടിയും ചിലയിനം വാഴകളും മാണത്തിനും ഔഷധഗുണ഼വു~</p>

<p>-8-</p>

<p>മുണ്ട്. സദ്യ ഉണ്ണാന്഼ നമുക്കു വാഴയില കൂടിയേ തീരൂ. വാഴനാരു പോലും
# വളരെ
ഉപയോഗമുളളതാണ്. മാല കെട്ടാനും പലതരം കൌതുകവസ്തുക്കള്഼, കൂടുകള്഼,
സഞ്ചികള്഼ എന്നിവ ഉണ്ടാക്കാനും അത് ഉപയോഗിക്കുന്നുണ്ട്.</p>

<p>-11-</p>

<p>		പാഠം 3</p>

<p>	     ചങ്ങലയുടെ പാട്</p>

<p>	ടൈഗര്഼ ഒരു വളര്഼ത്തുനായ് ആണ്. രാത്രി ആകുന്പോള്഼ അവനെ കെട്ട~
ഴിച്ചു വിടും. ഒരു രാത്രി അവന്഼ ചുററിത്തിരിഞ്ഞ് അടുത്തുളള കാട്ടില്഼
#എത്തി.
അവിടെ വച്ച് ഒരു ചെന്നായെ കണ്ടു. അവര്഼ ഒരേ കുടുംബത്തില്഼ പെട്ടവരായി~
രുന്നല്ലോ. തമ്മില്഼ കണ്ടപ്പോള്഼ സ്നേഹം തോന്നി. പല വര്഼ത്തമാനങ്ങളും പറ~
ഞ്ഞ് ഒരുമിച്ചു നടന്നു.</p>

<p>	ടൈഗറിന്഼റെ ശരീരം തടിച്ചുകൊഴുത്തിരുന്നു. മിനുമിനുത്ത രോമങ്ങള്഼.
തിളങ്ങുന്ന കണ്ണുകള്഼. ഇതെല്ലാം ചെന്നായ് നോക്കി നിന്നു. അവന് അസൂയ
തോന്നി.</p>

<p>-12-</p>

<p>	ചെന്നായ് പറഞ്ഞു. " ചങ്ങാതി, ഞാനിങ്ങനെ ചടച്ച് എല്ലും തോലു~മായിരിക്കുന്നു. താന്഼ തടിച്ചുകൊഴുത്തിരിക്കുന്നു. എനിക്കും തന്നെപ്പോലെ
ആകുവാന്഼ കൊതി തോന്നുന്നു."</p>

<p>	നായ് പറഞ്ഞു."തനിക്കു ഭക്ഷണത്തിന് ഒരു നിഷ്ഠയും കാണുകയി~
ല്ല. എനിക്കാണെങ്കില്഼ കൃത്യസമയത്തിനാണു ഭക്ഷണം. ഇറച്ചി, ചോറ്, ബിസ്~
ക്കററ്, എല്ലാം കിട്ടും. ഓരോന്നിനും പ്രത്യേകം സമയവുമുണ്ട്."</p>

<p>	"തന്഼റെ ഭാഗ്യം തന്നെ". ചെന്നായ് നെടുവീര്഼പ്പിട്ടു. അപ്പോള്഼ നായ്
പറഞ്ഞു. "താന്഼ വിഷമിക്കേണ്ട. എന്഼റെകൂടെ പോരൂ സുഖമായി ജീവിക്കാം.
യജമാനന്഼ പറയുന്നതൊക്കെ കേള്഼ക്കണം എന്നുമാത്രം. നമുക്ക് ഒരുമിച്ചു
തിന്നും രസിച്ചും കഴിയാം."</p>

<p>	ചെന്നായ് അല്഼പ്പം ആലോചിച്ചു നിന്നു.</p>

<p>"എന്തു പറയുന്നു ചങ്ങാതി, വരുന്നോ? " നായ് വീണ്ടും ചോദിച്ചു.</p>

<p>-13-</p>

<p>	"ഞാന്഼ വരാം. എനിക്കും എല്ലാം കിട്ടുമല്ലോ." ചെന്നായ് പറഞ്ഞു.</p>

<p>	"കിട്ടും. അതു ഞാനേററു. പക്ഷേ തന്഼റെ കാടത്തമൊന്നും പുറത്തു
കാട്ടരുത്." നായ് ഓര്഼മിപ്പിച്ചു.</p>

<p>	"ഇല്ല. ഞാന്഼ ശ്രദ്ധിച്ചുകൊളളാം. നീ ചെയ്യുന്നതുപോലെ ഒക്കെ ചെയ്~
താല്഼ മതിയല്ലോ."</p>

<p>	"മതി".</p>

<p>	അവര്഼ ഇരുവരും നടന്നു. കാട്ടിനുവെളിയിലെത്തി. നല്ല നിലാവ് ഉണ്ടാ~
യിരുന്നു. ചെന്നായ് ടൈഗറെ ഒന്നുകൂടി സൂക്ഷിച്ചു നോക്കി. അതാ, അവന്഼റെ
കഴുത്തിനു ചുററും ഒരടയാളം. അപ്പോഴാണു ചെന്നായ് അതുകണ്ടത്.</p>

<p>	"ഇതെന്താണു ചങ്ങാതി?" ചെന്നായ് ചേദിച്ചു.</p>

<p>	"ഏത്?"</p>

<p>	"തന്഼റെ കഴുത്തിനു ചുററും ഒരടയാളം?"</p>

<p>	"ഓ, അതോ". നായ് നിസ്സാരമായി പറഞ്ഞു. " പകല്഼ മുഴുവന്഼
എന്നെ ചങ്ങല കൊണ്ടു കെട്ടിയിടും. ആ ചങ്ങലയുടെ പാടാണ് ഇത്."</p>

<p>	"എന്ത്! ചങ്ങലയോ?". ചെന്നായ് അവിടെത്തന്നെ നിന്നു.</p>

<p>	"അതേ."</p>

<p>	"ഞാന്഼ വന്നാല്഼ എന്നെയും കെട്ടിയിടുമോ?" ചെന്നായ് പരിഭ്രമത്തോടെ
ചോദിച്ചു.</p>

<p>	"പിന്നെ കെട്ടിയിടാതെ വിടുമോ? നിന്നെയും കെട്ടിയിടും." ടൈഗര്഼
പറഞ്ഞു. അതു കേട്ട ഉടനെ ചെന്നായ് രണ്ടടി പിന്നോട്ടു വച്ചു.</p>

<p>	"എന്഼റെ പൊന്നു ചങ്ങാതി, എനിക്കു നിന്഼റെ ചോറും വേണ്ട,
ബിസ്ക്കററും വേണ്ട. കിട്ടുന്നതും തിന്നു ഞാന്഼ ഈ കാട്ടില്഼ കഴിഞ്ഞു
കൊളളാം. സ്വതന്ത്രമായി നടക്കാമല്ലോ. അതുമതി".</p>

<p>	ഇത്രയും പറഞ്ഞു ചെന്നായ് കാട്ടിലേക്ക് ഓടിപ്പോയി. ടൈഗര്഼ അന്തം
വിട്ടു നിന്നു.</p>

<p>-19-</p>

<p>		 പാഠം 5</p>

<p>		ഖലീഫ അലി</p>

<p>	മെക്കാനഗരം കീര്഼ത്തികേട്ട ഒരു പുണ്യ സ്ഥലമാണ്. അത് അറേബ്യ~
യിലാണ്. അലിയും കുടുംബവും അവിടെയാണു താമസിച്ചിരുന്നത്. നബിത്തിരു~
മേനിയുടെ മകള്഼ ഫാത്തിമ ആയിരുന്നു അദ്ദേഹത്തിന്഼റെ ഭാര്യ. അലിയും ഫാ~
ത്തിമയും നിത്യവൃത്തിക്കു നന്നേ വിഷമിച്ചിരുന്നു.</p>

<p>	ഒരു ദിവസം ഒരു നേരത്തെ ആഹാരത്തിനുളള വകപോലും അവര്഼ക്കു
ലഭിച്ചില്ല. വിശന്നു തളര്഼ന്നിരുന്ന ഫാത്തിമയെ കണ്ടപ്പോള്഼ അലിക്കു ദുഃഖം
തോന്നി. ആഹാരത്തിനുളള വക എങ്ങനെയെങ്കിലും കണ്ടെത്തണം എന്നു
തീരുമാനിച്ചു. ആ രാത്രിതന്നെ അലി അയലത്തുളള ഒരു ധനികന്഼റെ ഈന്തപ്പന~
ത്തോട്ടം നനയ്ക്കാന്഼ പോയി. കൂലിയായി കുറച്ചു ഗോതന്പാണ് കിട്ടിയത്. അതു
ഫാത്തിമയെ ഏല്഼പ്പിച്ചു.</p>

<p> -20-</p>

<p>	ഫാത്തിമ ആ ഗോതന്പു പൊടിച്ചു മാവാക്കി അതില്഼ നിന്നും 
# കുറച്ചെടുത്ത്
അപ്പം ചുട്ടു. അപ്പോള്഼ ആരോ കതകില്഼ തട്ടുന്നതു കേട്ടു. അലി എഴുന്നേററു
ക഼തകുതുറന്നു.ആകെത്തളര്഼ന്ന ഒരു പാവപ്പെട്ടവനെ കണ്ടു. അയാള്഼ അലിയോട്
ആഹാരം യാചിച്ചു. ഉണ്ടാക്കി വച്ചിരുന്ന അപ്പം സന്തോഷത്തോടെ
അയാള്഼ക്കു കൊടുത്തു. അയാള്഼ അതു മുഴുവന്഼ കഴിച്ചു സംതൃപ്തിയോടെ
മടങ്ങി.</p>

<p>	ബാക്കിയുണ്ടായിരുന്നു ഗോതന്പുമാവില്഼ പകുതി എടുത്തു ഫാത്തിമ
വീണ്ടും അപ്പം ചുട്ടു. കഴിക്കാനായി അവരതു പാത്രത്തില്഼ എടുത്തു വച്ചു. 
അപ്പോള്഼ വാതില്഼ക്കല്഼ ഒരു വിളി കേട്ടു. അലി കതകുതുറന്നു നോക്കിയപ്പോള്഼
ഒരനാഥ ബാലനെ കണ്ടു. അവന്഼ വിശപ്പു സഹിക്കാന്഼ കഴിയാതെ കരയുക~
യായിരുന്നു. അലി അവനെ അകത്തേക്കു കൂട്ടിക്കൊണ്ടുപോയി. എടുത്തു
വച്ചിരുന്ന അപ്പം അദ്ദേഹം അവനു കൊടുത്തു.അവന്഼ അതെല്ലാം ആര്഼ത്തി~
യോടെ തിന്നു സന്തോഷത്തോടെ തിരിച്ചു പോയി.</p>

<p>	ശേഷിച്ച മാവു മുഴുവന്഼ എടുത്തു ഫാത്തിമ വീണ്ടും അപ്പം ചുട്ടു. 
#അതു
പാത്രത്തില്഼ എടുത്തു തിന്നാനായി അവര്഼ ഇരുന്നു. അപ്പോഴേക്കും പുറത്തു
നിന്നൊരു വിളി കേട്ടു. അലി ഉടന്഼ എഴുന്നേററു വാതില്഼ തുറന്നു. പ്രാകൃത
വേഷത്തോടു കൂടിയ ഒരാളെ കണ്ടു. അയാള്഼ ജയില്഼ ശിക്ഷ കഴിഞ്ഞു വരി~
കയായിരുന്നു.</p>

<p>	"കഴിക്കാന്഼ വല്ലതും തരണേ". അയാള്഼ അലിയോട് അപേക്ഷിച്ചു.</p>

<p>	വിളന്പി വച്ചിരുന്ന അപ്പവും അവര്഼ സന്തോഷത്തോടെ അയാള്഼ക്കു
ദാനം ചെയ്തു. ആ മനുഷ്യന്഼ അതു മുഴുവന്഼ കഴിച്ചു.അയാള്഼ അവരോടു
നന്ദി പറഞ്ഞു പടിയിറങ്ങി. വിശന്നു വലഞ്ഞ മൂന്നു പേര്഼ക്ക് ആഹാരം
#കൊ~
ടുക്കാന്഼ കഴിഞ്ഞതില്഼ അലിയും ഫാത്തിമയും സംതൃപ്തരായി.അവര്഼
ദൈവത്തെ വാഴ്ത്തി. അവര്഼ അവരുടെ വിശപ്പു മറന്നു.</p>

<p>	ത്യാഗിയായ ഇദ്ദേഹം പില്഼ക്കാലത്തു `ഖലീഫ അലി' എന്ന പേരില്഼
പ്രസിദ്ധനായി.</p>

<p>-24-</p>

<p>		     പാഠം 6</p>

<p>		  തിരുവോണം</p>

<p>	പൊന്നിന്഼ ചിങ്ങം പിറന്നു. മാനം തെളിഞ്ഞു. മരങ്ങളും ചെടികളും
പൂത്തുലഞ്ഞു. നെല്഼പ്പാടങ്ങളില്഼ കതിരുകള്഼ വിളഞ്ഞു. നെല്ലറകള്഼
#നിറഞ്ഞു.
എങ്ങും സമൃദ്ധിയും സന്തോഷവും കളിയാടി. ഓണാഘോഷത്തിന്഼റെ സമയമായി.</p>

<p>	"പൂവേ പൊലി പൂവേ
	പൂവേ പൊലി പൂവേ."
ബാലികാബാലകന്഼മാരുടെ പൂവിളി ഉയരുന്നു. പൂക്കുടകളുമായി അവര്഼ ഓടി
നടക്കുന്നു. വീട്ടുമുററത്തു പൂക്കളം ഒരുക്കാനുളള തിരക്കാണ്. അത്തം നാള്഼
മുതല്഼ പൂക്കളം ഒരുക്കുന്നു. ഇതു തിരുവോണം വരെ തുടരും. `അത്തം
പത്തോണം'എന്നാണു ചൊല്ല്.</p>

<p>-25-</p>

<p>	തിരുവേണം നാളിലാണു പ്രധാനാഘോഷം. അന്നു രാവിലെ എല്ലാ~
വരും കുളിച്ച് ഓണക്കോടി ഉടുക്കുന്നു. ഓണസദ്യ കെങ്കേമമായിരിക്കും.
കോണം വിററും ഓണം ഉണ്ണണം'എന്നു പഴമക്കാര്഼ പറഞ്ഞിട്ടുണ്ട്.
#തുന്പിലയില്഼
വിഭവങ്ങള്഼ വിളന്പുന്നു. ഉപ്പേരിമുതല്഼ പ്രഥമന്഼ വരെയുളള പല വിഭവങ്ങളുഃഉണ്ടായിരിക്കും.കുടുംബാംഗങ്ങളുടെ കൂടെയിരുന്ന് ഓണം ഉണ്ണുന്നത് എല്ലാ~
വര്഼ക്കും സന്തോഷകരമാണ്. കുടില്഼ തൊട്ടു കൊട്ടാരം വരെ ഓണം ആഘോ~
ഷിക്കുന്നു.</p>

<p>	ഓണക്കാലത്ത്  ആളുകള്഼ പലതരം വിനോദങ്ങളില്഼ ഏര്഼പ്പെടുന്നു.
ഊഞ്ഞാലാട്ടം, തുന്പിതുളളല്഼, പന്തുകളി, കളിത്തട്ടുകളി, തിരുവാതിരക്കളി,
കടുവാകളി ഇവയാണു പ്രധാനപ്പെട്ട ഓണക്കളികള്഼. ചില സ്ഥലങ്ങളില്഼
ഓണക്കാലത്തു വളളം കളിയും നടത്താറുണ്ട്.</p>

<p>	"മാവേലി നാടു വാണിടും കാലം
	മാനുഷരെല്ലാരും ഒന്നുപോലെ."</p>

<p>എന്നു തുടങ്ങുന്ന ഓണപ്പാട്ടു പ്രസിദ്ധമാണ്. മഹാബലി പണ്ടു നമ്മുടെ നാടു</p>

<p>-26-</p>

<p>ഭരിച്ചിരുന്ന ചക്രവര്഼ത്തി ആയിരുന്നുവത്രേ! അദ്ദേഹത്തിന്഼റെ ഭരണകാലത്ത്
ഇവിടെ എന്നും ഓണമായിരുന്നു. പ്രജാവത്സലനായ മഹാബലി ആണ്ടിലൊരി~
ക്കല്഼ നമ്മെക്കാണാന്഼ വരുന്നുവെന്നാണു സങ്കല്഼പ്പം. ചിങ്ങമാസത്തിലെ
തിരുവോണം നാളിലാണ് അദ്ദേഹം വരുന്നത്. ഓണം നമ്മുടേ ദേശിയോ~
ത്സവമാണ്.</p>

<p>-32-</p>

<p>		     പാഠം 8</p>

<p>		   ആന</p>

<p>	ഇന്നു നാം കാണുന്ന മൃഗങ്ങളില്഼ ഏററവും വലുതാണ് ആന. കേരളീ~
യര്഼ക്കു സുപരിചിതമായ ഒരു മൃഗമാണ് അത്. കറുത്ത നിറം, നീണ്ടതുന്പിക്കൈ,
മുറം പോലെയുളള ചെവികള്഼, ചെറിയ കണ്ണുകള്഼, തൂണുകള്഼ക്ക് ഒപ്പമായ
കാലുകള്഼, വലിയ വയര്഼, ആകെക്കൂടി എന്തൊരു ചന്തം!
	
	ആനയുടെ തുന്പിക്കൈ വിശേഷപ്പെട്ട ഒരു അവയവമാണ്. ശ്വസി~
ക്കാനും, മണംപിടിക്കാനും, ചുററിപ്പിടിക്കാനും, വെളളം കോരി എടുക്കാനും
ആന തുന്പിക്കൈ ഉപയോഗിക്കുന്നു.</p>

<p>-33-</p>

<p>	ആണ഼ാനയെ കൊന്പനാന എന്നും, പെണ്ണാനയെ പിടി~
യാന എന്നും പറയുന്നു. പിടിയാനയ്ക്കു ക഼ൊന്പുകളില്ല. കൊന്പനാനയുടെ
കൊന്പുകള്഼, ഉളിപ്പല്ലുകള്഼ വളര്഼ന്ന് ഉണ്ടായവയാണ്. ഇവയ്ക്കു
# വെളളനിറമാണ്.
ആനക്കൊന്പിനു ദന്തം എന്നു പറയുന്നു.</p>

<p>	ആന ഒരു വന്യമൃഗമാണ്. കൂട്ടമായിട്ടാണ് അവ ജീവിക്കുന്നത്.
കാട്ടനകള്഼ കൂട്ടംകൂട്ടമായി സഞ്ചരിക്കുന്നതു കാണേണ്ട ഒരു കാഴ്ചതന്നെ~
യാണ്.</p>

<p>	ആന ഒരു സസ്യഭുക്കാണ്. ഈറ, മുള, പനന്പട്ട, തെങ്ങോല,
# തുടങ്ങിയവ
തിന്നാണ് അത് ആ വലിയ വയറു നിറയ്ക്കുന്നത്.</p>

<p>	കാട്ടാനയെ പിടിച്ചുമെരുക്കി നാട്ടാനയാക്കുന്നു. ആനയെ 
#ശുശ്രൂഷിക്കുകയും,
കൊണ്ടുനടക്കുകയും ചെയ്യുന്ന ആളിനെ`പാപ്പാന്഼' എന്നു വിളിക്കുന്നു.</p>

<p>	ആനയെക്കൊണ്ടു നമുക്കു പല പ്രയോജനങ്ങളും ഉണ്ട്. തടി 
# പിടിപ്പിക്കു~
ന്നതിന് ആനയെ ഉപയോഗിക്കുന്നു. ഉത്സവങ്ങള്഼ക്കും ഘോഷയാത്രകള്഼ക്കും</p>

<p>-34-</p>

<p>മോടികൂട്ടുവാന്഼ നെററിപ്പട്ടം കെട്ടി അലങ്കരിച്ച ആനകള്഼ കൂടിയേ തീരൂ.</p>

<p>	സര്഼ക്കസുകാര്഼ ആനയെക്കൊണ്ടു പല അഭ്യാസങ്ങളും ചെയ്യിക്കുന്നു.
പണ്ടു രാജാക്കന്മാര്഼ സഞ്ചരിക്കുന്നതിനും യുദ്ധം ചെയ്യുന്നതിനും ആനയെ
ഉപയോഗിച്ചിരുന്നു. ദന്തം കൊണ്ടു ശില്഼പ്പങ്ങള്഼, ആഭരണങ്ങള്഼ മുതലായവ
ഉണ്ടാക്കുന്നു.</p>

<p>	ആന വിശേഷബുദ്ധിയുളള ഒരു മൃഗമാണ്. അതു മനുഷ്യരോട് വളരെ
ഇണങ്ങുന്നു. </p>

<p>-38-</p>

<p>		  പാഠം 9</p>

<p>	       വളളം കളി</p>

<p>	വഞ്ചിപ്പാട്ടും പാടി അവര്഼ വളളം തുഴഞ്ഞു വരുന്ന ആ കാഴ്ച
# കണ്ടില്ലേ?
ഒരാള്഼ താളമിട്ടു പാടിക്കൊടുക്കുന്നു. മററുളളവര്഼ ഏററുപാടുന്നു. 
# പാട്ടിന്഼റെ താള~
ത്തിനൊപ്പം അവരുടെ കൈകളിലെ തുഴകള്഼ ഉയര്഼ന്നു താഴുന്നു.പളുങ്കു
മണികള്഼ വാരി എറിയുന്നതുപോലെ വെളളത്തുളളികള്഼ തെറിക്കുന്നു. കരയില്഼
കണ്ടു നില്഼ക്കുന്നവര്഼ പോലും കൈയടിച്ചു പാടിപ്പോകുന്നു. അവിടെ ഒരു
വളളംകളി നടക്കുകയാണ്.</p>

<p>-39-</p>

<p>	ചുണ്ടന്഼ വളളങ്ങളാണ് മുന്പില്഼ വരുന്നത്. ഓരോന്നിലും നൂറോളം
തുഴക്കാരുണ്ട്. എല്ലാവര്഼ക്കും ഒരേ വേഷമാണ്. വിവിധ വര്഼ണങ്ങളിലുളള
കൊടികളും തോരണങ്ങളും കൊണ്ടു വളളങ്ങള്഼ അലങ്കരിച്ചിട്ടുണ്ട്. 
#മധ്യഭാഗത്തു
മുത്തുക്കുടകള്഼ ഉയര്഼ത്തിപ്പിടിച്ചിരിക്കുന്നു. ഓരോ വളളത്തിലും ഏററവും
പിന്നില്഼ ഉയര്഼ന്ന സ്ഥാനത്തു നിന്നു വളളത്തെ നിയന്ത്രിക്കുന്ന ആളാണ്
അമരക്കാരന്഼.</p>

<p>	വളളംകളിയില്഼ ചുണ്ടന്഼വളളങ്ങള്഼ മാത്രമല്ല പങ്കെടുക്കുന്നത്.
#ചുരുളന്഼,
വെപ്പ്, ഓടി, ഇരുട്ടുകുത്തി എന്നിങ്ങനെ പലതരം വളളങ്ങളുണ്ട്.
# അലങ്കരിച്ച
അനവധി വളളങ്ങള്഼ ഒരേ സമയം ഇലപ്പരപ്പിലൂടെ നീങ്ങുന്നതു കാണേണ്ട ഒരു
കാഴ്ചയാണ്.</p>

<p>	കേരളത്തില്഼ ധാരാളം പുഴകളും കായലുകളും ഉണ്ട്. വിശേഷിച്ചും
കുട്ടനാടിനെ `കായലുകളുടെ നാട്' എന്നുതന്നെ പറയാം. അവിടത്തെ ജന~
ങ്ങളുടെ പ്രധാന കായിക വിനോദമാണു വളളംകളി.</p>

<p>	പല ആഘോഷങ്ങള്഼ക്കും വളളംകളി നടത്തുന്നു. വിശിഷ്ട വ്യക്തികളെ
സ്വീകരിക്കുന്നതിനും ചിലപ്പോള്഼ ജലഘോഷയാത്ര നടത്താറുണ്ട്. നമ്മുടെ</p>

<p>-40-</p>

<p>പ്രധാനമന്ത്രിയായിരുന്ന നെഹ്റുവിനെ ജലഘോഷയാത്രയോടുകൂടിയാണു
കുട്ടനാട്ടുകാര്഼ സ്വീകരിച്ചത്. അതിന്഼റെ ഓര്഼മയ്ക്കായിട്ടാണു `നെഹ്റു 
#ട്രോഫി
വളളംകളി'. ആലപ്പുഴയിലെ പുന്നമടക്കായലിലാണ് ഇതു നടത്തുന്നത്.</p>

<p>	ആറന്഼മുള `ഉത്രട്ടാതി വളളംകളി' ഒാണക്കാലത്താണ്. പാര്഼ഥസാരഥി
ക്ഷേത്രത്തിനു സമീപമുളള പന്പാനദിയിലാണ് ഇതു നടത്തുന്നത്.ഇതില്഼
പങ്കെടുക്കുന്ന വളളങ്ങളെ പളളിയോടങ്ങള്഼ എന്നു പറയുന്നു.</p>

<p>	പായിപ്പാട്, ചന്പക്കുളം, നീരേററുപുറം, കുമരകം തുടങ്ങിയ കേരളത്തിലെ
പല സ്ഥലങ്ങളിലും വളളംകളികള്഼ നടത്താറുണ്ട്. വെറും വിനോദത്തിനുവേണ്ടി
നടത്തിയിരുന്ന പല വളളംകളികളും ഇപ്പോള്഼ മത്സരക്കളികളായി മാറിയിട്ടുണ്ട്.</p>

<p>	തുഴയുന്നവര്഼ക്കും കാണുന്നവര്഼ക്കും ഒരുപോലെ രസം പകരുന്ന ഒരു
ജലവിനോദമാണ഼ു വളളംകളി.</p>

<p>-43-</p>

<p>			പാഠം 10</p>

<p>	       ഗ്രാമത്തിന്഼റെ അഭിമാനം</p>

<p>	ഗ്രാമവാസികള്഼ മൈതാനത്തു കൂടിയിരിക്കുന്നു. ഒച്ചയും ബഹളവും
പെട്ടെന്നുനിലച്ചു. എല്ലാവരുടെയും ശ്രദ്ധ അലങ്കരിച്ച വേദിയിലേക്കു 
# തിരിഞ്ഞു.
ലീനൟും മുഖ്യമന്ത്രിയും വേദിയിലേക്കു കയറി. പഞ്ചായത്തു പ്രസിഡന്഼റ്
പൂച്ചെണ്ടുകള്഼ നല്഼കി, അവരെ സ്വീകരിച്ചിരുത്തി. പന്ത്രണ്ടുവയസ്സുകാരി~</p>

<p>-44-</p>

<p>യായ ലീന ഗ്രാമീണര്഼ക്കു പ്രിയപ്പെട്ടവളാണ്. രാഷ്ട്രപതിയില്഼ നിന്നു ധീരത~
യ്ക്കുളള അവാര്഼ഡ് അവള്഼ക്കു ലഭിച്ചു. അതിനു അവളെ അനുമോദിക്കാനാണു
മുഖ്യമന്ത്രിയും ഗ്രാമീണരും അവിടെ കൂടിയിരിക്കുന്നത്. ലീനയുടെ ധീരകൃത്യം
വിവരിച്ചുകൊണ്ടു പഞ്ചായത്തു പ്രസിഡന്഼റു പ്രസംഗമാരംഭിച്ചു.</p>

<p> 	കഴിഞ്ഞ മഴക്കാലത്താണു സംഭവം നടന്നത്. തോരാത്ത മഴപെയ്തു
ജലാശയങ്ങളെല്ലാം നിറഞ്ഞു കവിഞ്ഞു. മഴ തോര്഼ന്നിരുന്ന സമയം നോക്കി
കുഞ്ഞനിയനെയും കൂട്ടി സൈഩബ കുളക്കടവിലെത്തി. അലക്കാനുളള തുണികള്഼
കല്ലില്഼വച്ചു സോപ്പിടുകയായിരുന്നു അവള്഼. അനിയന്഼ കരയിലിരുന്നു഼വെളള~
ത്തില്഼ കാലിട്ടടിച്ചു രസിച്ചുകൊണ്ടിരുന്നു. പെട്ടെന്ന് എങ്ങനെയോ ആ 
# കുട്ടി
വെളളത്തിലേക്കു വീണു. ശബ്ദം കേട്ടു തിരിഞ്ഞു നോക്കിയ സൈഩബ ഇതു
കണ്ടു. നിലവിളിച്ചുകൊണ്ട് അവളും കുളത്തിലേക്ക് എടുത്തുചാടി, കുട്ടിയെ
പിടിച്ചു.പക്ഷേ അവള്഼ക്കു നീന്തല്഼ നല്ല വശമില്ലായിരുന്നു. സൈനബയും
കുഞ്ഞനിയനും കൂടി കുളത്തിന്഼റെ മധ്യത്തിലേക്കു 
#നീങ്ങിപ്പൊയ്ക്കൊണ്ടിരുന്നു.</p>

<p>	സൈനബയുടെ നിലവിളികേട്ട് അടുത്തുളളവര്഼ ഓടിയെത്തി. എത്തിയ~
വരെല്ലാം പരിഭ്രമിച്ചു ബഹളം കൂട്ടിക്കൊണ്ടിരുന്നതേയുളളു. അപ്പോഴാണു ലീന
ഓടി വന്നത്. ഒരു പെണ്഼കുട്ടി വേറൊരു കൊച്ചുകുട്ടിയേയും പിടിച്ചുകൊണ്ടു
വെളളത്തില്഼ മുങ്ങുകയും, പൊങ്ങുകയും ചെയ്യുന്നത് അവള്഼ കണ്ടു പിന്നെ
# ഒന്നും
ആലോചിച്ചില്ല. അവള്഼ കുളത്തിലേക്ക് എടുത്തു ചാടി. നീന്തിച്ചെന്ന് ഒരു 
# കൈ~
കൊണ്ട് ആ പെണ്഼കുട്ടിയുടെ തലമുടി ചുററിപ്പിടിച്ചു പൊക്കി, സര്഼വശക്തിയും
ഉപയോഗിച്ചു നീന്തി,അവള്഼ ഒരുവിധം കരയ്ക്കെത്തി. കണ്ടുനിന്നവര്഼ അവരെ
വലിച്ചുകയററി, ഉടനെ പ്രഥമശുശ്രൂഷ നല്഼കി.</p>

<p>	ലീനയുടെ ധീരവും അവസരോചിതവുമായ പ്രവൃത്തി രണ്ടു മനുഷ്യ~
രുടെ ജീവനെയാണു രക്ഷിച്ചത്. അവളെക്കാള്഼ പ്രായം കൂടിയവരും കരുത്തേറി~
യവരും അവിടെ ഉണ്ടായിരുന്നു. അവര്഼ പകച്ചുനിന്നതേയുളളു. അപകടത്തില്഼~
പ്പെട്ടവരെ രക്ഷിക്കാന്഼ ലീന ഒരു നിമിഷവും വൈകിയില്ല. സ്വന്തം ജീവനെ~
പ്പോലും കണക്കാക്കാതെയാണു ധൈര്യപൂര്഼വം അവള്഼ കുളത്തിലേക്ക്
എടുത്തു ചാടിയത്.</p>

<p>-45-</p>

<p>	ജനങ്ങളും പത്രങ്ങളും ലീനയെ പ്രശംസിച്ചു. ഇപ്പോഴിതാ
# ധീരതയ്ക്കുളള
ഏററവും ശ്രേഷ്ഠമായ ബഹുമതി `ജീവന്഼ രക്ഷാ പദക്' അവള്഼ക്കു നല്഼കി~
യിരിക്കുന്നു. അങ്ങനെ രാഷ്്ട്രം തന്നെ ആ ധീരതയെ ആദരിച്ചിരിക്കുകയാണ്.
പഞ്ചായത്തു പ്രസിഡന്഼റിന്഼റെ വിവരണം ജനങ്ങള്഼ ശ്രദ്ധയോടെ കേട്ടു.
പിന്നീടു മുഖ്യമന്ത്രി ലീനയെ അഭിനന്ദിച്ചു സംസാരിച്ചു. അദ്ദേഹം അവള്഼ക്കു
പ്രത്യേക പാരിതോഷികങ്ങളും നല്഼കി. ധീരയായ ആ പെണ്഼കുട്ടിയുെട പേരില്഼
ഗ്രാമമാകെ അഭിമാനംകൊണ്ടു.</p>

<p>-51-</p>

<p>		  പാഠം 12</p>

<p>		അക്കമ്മ ചെറിയാന്഼</p>

<p>	ഭാരതത്തിന്഼റെ സ്വാതന്ത്ര്യ സമരത്തില്഼ പുരുഷന്മാരെപ്പോലെ സ്ത്രീ~
കളും പങ്കെടുത്തിരുന്നു. കേരളത്തിലെ അക്കമ്മ ചെറിയാന്഼റെ ചരിത്രം അതിന്
ഒരുദാഹരണമാണ്.</p>

<p>	അക്കമ്മ 1909 ഫെബ്രുവരി 15-ാം തീയതി കാഞ്ഞിരപ്പളളിയില്഼ ജനിച്ചു.
വിദ്യാഭ്യാസത്തിനുശേഷം അവര്഼ പ്രഥമാധ്യാപികയായി ജോലി നോക്കി.
അഞ്ചാറു വര്഼ഷങ്ങള്഼ക്കു ശേഷം ജോലി ഉപേക്ഷിച്ച് അവര്഼ സ്വാതന്ത്ര്യ~
സമരത്തില്഼ പങ്കുകൊണ്ടു.</p>

<p>	സ്വാതന്ത്ര്യസമരം തിരുവിതാംകൂറില്഼ ശക്തിപ്പെട്ടു വന്ന സമയമായി~
രുന്നു അത്. അന്ന് എല്ലായിടത്തും ജാഥകളും യോഗങ്ങളും നടത്തിയിരുന്നു.
പല നേതാക്കന്മാരെയും സര്഼ക്കാര്഼ തടവിലാക്കി. ഈ സന്ദര്഼ഭത്തില്഼
അമ്മ സമരത്തിനു നേതൃത്വം നല്഼കി.</p>

<p>-52-</p>

<p>	പൌരസ്വാതന്ത്ര്യം നേടണം. രാഷ്ട്രീയത്തടവുകാരെ വിട്ടുകിട്ടണം.
ഇതിനായി അക്കമ്മ ജനങ്ങളെ സംഘടിപ്പിച്ചു. രാജാവിന് ഒരു നിവേദനം
കൊടുക്കാന്഼ ഒരുങ്ങി.</p>

<p>	അന്നു തിരുവിതാംകൂര്഼ മഹാരാജാവിന്഼റെ തിരുനാളായിരുന്നു. ഒരു
വലിയ ജാഥ നയിച്ചുകൊണ്ട് അക്കമ്മ തിരുവനന്തപുരത്തെ കൊട്ടാര വാതില്഼~
ക്കല്഼ എത്തി. പട്ടാളമേധാവി അവരെ അകത്തു കടത്തിവിട്ടില്ല. അവരോട്
പിരിഞ്ഞു പോകാന്഼ അയാള്഼ ആജ്ഞാപിച്ചു. ആ ആജ്ഞ അക്കമ്മ
ചെവിക്കൊണ്ടില്ല. ജനങ്ങള്഼ ആകെ ഇളകിമറിഞ്ഞു. അക്കമ്മ വളരെ പണിപ്പെട്ട്
അവരെ ശാന്തരാക്കി. അക്കമ്മയുടെ നിര്഼ദേശമനുസരിച്ചു ജാഥയില്഼ പങ്കെടുത്ത~
വര്഼ റോഡില്഼ നിരന്നു കിടന്നു. അവരെ ഓടിക്കുന്നതിനായി കുതിരപ്പട്ടാളം
ഇറങ്ങി. കുതിരകളുടെ ചവിട്ടേററിട്ടു പോലും അവര്഼ എഴുന്നേററുമാറിയില്ല.
അക്കമ്മ അവര്഼ക്കു കൂടുതല്഼ ധൈര്യം പകര്഼ന്നു. പിരിഞ്ഞു പോയില്ലെങ്കില്഼
വെടിവയ്ക്കുമെന്നായി പട്ടാളമേധാവി.</p>

<p>	അക്കമ്മ മേധാവിയോട് പറഞ്ഞു. "ആദ്യം എന്഼റെ നെഞ്ചില്഼ത്തന്നെ
നിറയൊഴിക്കുക."</p>

<p>	ഇതുകേട്ടു പട്ടാളമേധാവി പിന്഼വലിഞ്ഞു. അയാള്഼ വിവരങ്ങള്഼
രാജാവിനെ അറിയിച്ചു. രാജാവു രാഷ്ട്രീയത്തടവുകാരെ മോചിപ്പിക്കാന്഼
ഉത്തരവിട്ടു. ജാഥ പിരിഞ്ഞു പോയി.</p>

<p>	പിന്നീടു പല സമരങ്ങളിലും അക്കമ്മ ജനങ്ങളെ നയിച്ചു. പലപ്പോഴും
ജയിലില്഼ കിടന്നിട്ടുണ്ട്. 1982-ല്഼ ആ ധീരവനിത അന്തരിച്ചു.</p>

<p>	സ്വാതന്ത്ര്യത്തിനുവേണ്ടി ധീരമായി പോരാടിയ അക്കമ്മ ചെറിയാനെ
നാം എന്നെന്നും ഓര്഼മിക്കും.</p>

<p> -55-</p>

<p>		    പാഠം 13</p>

<p>		മിണ്ടാപ്രാണിയുടെ പരാതി</p>

<p>	ഒരു രാജാവു ജനങ്ങളുടെ പരാതി സ്വീകരിച്ചിരുന്നത് ഒരു പ്രത്യേക 
# രീതി~
യിലായിരുന്നു. കൊട്ടാര വാതില്഼ക്കല്഼ ഒരു വലിയ മണി കെട്ടിത്തൂക്കിയിരുന്നു.
മണിയുടെ നാക്കില്഼ കെട്ടിയിരിക്കുന്ന കയര്഼ വലിച്ചാല്഼ മണി മുഴങ്ങും. 
#എന്തെ~</p>

<p>-56-</p>

<p>ങ്കിലും പരാതിയുണ്ടെങ്കില്഼ ആര്഼ക്കും ഈ മണി അടിക്കാം. രാജാവ് അയാളെ
വിളിപ്പിച്ചു പരാതി കേള്഼ക്കും. ഉടന്഼തന്നെ പരിഹരിക്കുകയും ചെയ്യും. 
#ഇതായി~
രുന്നു അവിടത്തെ പതിവ്.</p>

<p>	ഒരിക്കല്഼ ഈ മണിയുടെ നാക്കില്഼ കെട്ടിയിരുന്ന കയറിന്഼റെ കുറച്ചു
ഭാഗം പൊട്ടിപ്പോയി. പകരം ഒരു പയറിന്഼റെ വളളി കൂട്ടിപ്പിരിച്ച് ആരോ 
#അതില്഼
കെട്ടിയിരുന്നു.</p>

<p>	ഒരു ദിവസം മണിശബ്ദം കേട്ട് രാജാവു പരാതിക്കാരനെ വിളിച്ചു
കൊണ്ടുവരുവാന്഼ സേവകനോട് ആജ്ഞാപിച്ചു. സേവകന്഼ വാതില്഼ക്കല്഼ വന്നു
നോക്കുന്പോള്഼ കാണുന്നത് ഒരുപശുവിനെയാണ്. തൂങ്ങിക്കിടക്കുന്ന പയര്഼
വളളിയില്഼ പശു കടിച്ചു വലിക്കുന്നു. സേവകന്഼ രാജസന്നിധിയില്഼ എത്തി
വിവരം രാജാവിനെ ധരിപ്പിച്ചു.</p>

<p>	"പ്രഭോ, ഒരു അസാധാരണ പരാതിക്കാരിയാണ് ഇന്ന് എത്തിയിരി~
ക്കുന്നത്."</p>

<p>	"ആരാണത്?" രാജാവ് അന്വേഷിച്ചു.</p>

<p>	"ഒരു പശു". സേവകന്഼ പറഞ്ഞു.</p>

<p>	"പശുവിനും പരാതിയോ? എങ്കില്഼ ഞാന്഼ അങ്ങോട്ടുവരാം" രാജാവു
കൊട്ടാരവാതില്഼ക്കലെത്തി. പരാതിക്കാരിയെ കണ്ടു, പട്ടിണികിടന്ന് എല്ലും
തോലുമായിത്തീര്഼ന്ന ഒരു പശു. അടിയുടെ പാടുകളും പുറത്തുണ്ട്. പ഼ശു~
വിനെ കണ്ടപ്പോള്഼ത്തന്നെ അതിന്഼റെ പരാതി രാജാവിനു ബോധ്യമായി.
അദ്ദേഹത്തിന് അലിവുതോന്നി. ആ പശുവിനു ഉടനെ തന്നെ പുല്ലും വെളളവ഼ും
കൊടുക്കുവാന്഼ രാജാവു കല്഼പ്പിച്ചു. ഉടമസ്ഥനെ കണ്ടുപിടിച്ചുതന്഼റെ 
#മുന്഼പില്഼
ഹാജരാക്കാന്഼ സേവക഼രെ അയയ്ക്കുകയും ചെയ്തു.</p>

<p>	സേവകന്഼മാര്഼ അയാളെ രാജാവിന്഼റെ മുന്പിലെത്തിച്ചു. ഉടമസ്ഥനെ
കണ്ടു പശു സ്നേഹപൂര്഼വം അടുത്തുചെന്നു തലനീട്ടി നിന്നു.</p>

<p>	"ഇപ്പോള്഼ ഈ പശുവില്഼ നിന്ന് എനിക്ക് ആദായമൊന്നും 
# ലഭിക്കുന്നില്ല.
വേറെ പശുക്കളെ നോക്കാനുമുണ്ട്". ഉടമസ്ഥന്഼ പറഞ്ഞു.</p>

<p>-57-</p>

<p>ഇതുകേട്ടു രാജാവു കോപത്തോടെ ചോദിച്ചു.</p>

<p>	"ഹേ മനുഷ്യാ, നിങ്ങള്഼ വൃദ്ധനാകുന്പോള്഼ നിങ്ങളെക്കൊണ്ട് 
#ആര്഼ക്കും
ഒരുപകാരവും ഇല്ലാതെ വരും. അപ്പോള്഼ ഈ പശുവിനെപ്പോലെ നിങ്ങളെയും
പട്ടിണിക്കിട്ടാലോ?"</p>

<p>	പശുവിന്഼റെ ഉടമസ്ഥനു തന്഼റെ തെററുബോധ്യമായി. അയാള്഼ പശ഼ു~
വിനെ വീട്ടിലേക്കു കൊണ്ടുപോയി. അവസാനകാലം വരെ അയാള്഼ അതിനെ
നന്നായി സംരക്ഷിച്ചു.</p>

<p>-63-
	
			പാഠം 15</p>

<p>		  മരം ഒരു വരം</p>

<p>	ഒരിക്കല്഼ ഒരു രാജാവു വേഷം മാറി സഞ്ചരിക്കുകയായിരുന്നു. പ്രജ~
കളുടെ സ്ഥിതി നേരില്഼ കണ്ടറിയുകയായിരുന്നു ലക്ഷ്യം. അദ്ദേഹം ഒരു
നാട്ടിന്഼പുറത്തെത്തി. വഴിയരികില്഼ ഒരു വൃദ്ധന്഼ ഇരുന്നു കുഴ഼ി
#കുഴിക്കുന്നതു
കണ്ടു. രാജാവ് അയാളെ സമീപിച്ചു.</p>

<p>-64-</p>

<p>	"എന്തിനാണു പാതവക്കത്തു കുഴിക്കുന്നത്?" അദ്ദേഹം ചോദിച്ചു.
വൃദ്ധന്഼ പറഞ്ഞു. "ഞാന്഼ ഇവിടെ ഒരു മാവിന്഼തൈ നടാന്഼ പോകുന്നു."</p>

<p>	"ഇതു പൊതുസ്ഥലമല്ലേ? ഇവിടെ മരം നട്ടാല്഼ നിങ്ങള്഼ക്കു ഫലം
കിട്ടുമോ?" രാജാവ് അന്വേഷിച്ചു.</p>

<p>	വൃദ്ധന്഼ ഒന്നു ചിരിച്ചു. അയാള്഼ പറഞ്ഞു. "എനിക്കു ഫലം 
# കിട്ടാനല്ല
ഞാന്഼ ഇതു നടുന്നത്. എല്ലാവര്഼ക്കും വേണ്ടിയാണ്."</p>

<p>	"ഇതു വളര്഼ന്നു ഫലം തരാന്഼ കുറെക്കാലം പിടിക്കുമല്ലോ?" രാജാവു
പറഞ്ഞു.</p>

<p>	"അതും എനിക്കറിൟാം. അത്രയും കാലം ഞാന്഼ ജീവിച്ചിരിക്കുമെന്നും
തോന്നുന്നില്ല." വൃദ്ധന്഼ അറിയിച്ചു.</p>

<p>	"പിന്നെ എന്തിനാണു നിങ്ങള്഼ ഇങ്ങനെ ബുദ്ധിമുട്ടുന്നത്?" 
# രാജാവു
ചോദിച്ചു.</p>

<p>	"ഇപ്പോള്഼ നമുക്കു ഫലം തരുന്ന മരങ്ങളെല്ലാം നാം നട്ടതാണോ?"
വൃദ്ധന്഼ തിരിച്ചു ചോദിച്ചു.</p>

<p>	രാജാവ് ആലോചിച്ചു നിന്നു. വൃദ്ധന്഼ തുടര്഼ന്നു പറഞ്ഞു.</p>

<p>	"എന്഼റെ അച്ഛനും മുത്തച്ഛനും നട്ട മരങ്ങളുടെ ഫലമാണു ഞാന്഼
അനുഭവിക്കുന്നത്. മുന്പ് ഈ പാതവക്കില്഼ ധാരാളം മരങ്ങള്഼ ഉണ്ടായിരുന്നു.
അവ യാത്രക്കാര്഼ക്ക് ആശ്വാസം നല്഼കിയിരുന്നു. മരങ്ങളില്഼ ധാരാളം പക്ഷി~
കള്഼ ചേക്കേറിയിരുന്നു. അവയുടെ `കളകള' ശബ്ദം എങ്ങും എപ്പോഴും കേള്഼~
ക്കാമായിരുന്നു. ഇപ്പോഴോ? ആളുകള്഼ കണ്ടമാനം മരങ്ങള്഼ മുറിച്ചു 
# കളഞ്ഞു.
തണലും പോയി. നാടിന്഼റെ ഭംഗിയും നഷ്഼ടപ്പെട്ടു. ഇവിടത്തെ നീരുറവ
പോലം വററിപ്പോയി. ഇതൊക്കെ വീണ്ടെടുക്കണ്ടേ?"</p>

<p>	"നിങ്ങള്഼ ഒരു മരം വച്ചാല്഼ ഇതെല്ലാം തിരിച്ചു കിട്ടുമോ?" 
#രാജാവു
ചോദിച്ചു.</p>

<p>	"എനിക്ക് ആവുന്നതു ഞാന്഼ ചെയ്യുന്നു. എല്ലാവരും ഇതുപോലെ ചെ~
യ്താല്഼ നാടിന്഼റെ ഐശ്വര്യം വീണ്ടുകിട്ടും." വൃദ്ധന്഼ പറഞ്ഞു. അതു
#കേട്ടു
രാജാവു സന്തോഷിച്ചു. അദ്ദേഹം തൈ നടാന്഼ വൃദ്ധനെ സഹായിച്ചു.
വൃദ്ധനും സന്തോഷമായി.</p>

<p>	വൃദ്ധന്഼ ചോദിച്ചു. "എന്നെ സഹായിച്ച നിങ്ങള്഼ ആരാണ്?"</p>

<p>	രാജാവ് പറഞ്ഞു. "ഞാന്഼ ഈ രാജ്യത്തെ രാജാവാണ്."</p>

<p>-65-</p>

<p>	ഇതു കേട്ട ഉടന്഼ വൃദ്ധന്഼ എഴുന്നേററ് അദ്ദേഹത്തെവണങ്ങി.
രാജാവു വീണ്ടും പറഞ്ഞു.</p>

<p>	"നിങ്ങളുടെ പ്രവൃത്തി എനിക്കു വളരെ ഇഷ്ടമായി. നിങ്ങളെപ്പോലെ~
യുളളവരെയാണു രാജ്യത്തിനു ആവശ്യം. നിങ്ങള്഼ക്ക് എന്തു സഹായമാണു
ഞാന്഼ ചെയ്യേണ്ടത്?"</p>

<p>	വൃദ്ധന്഼ അല്഼പ്പസമയം ആലോചിച്ചു. എന്നിട്ടു ഇങ്ങനെ പറഞ്ഞു.</p>

<p>	"തിരുമേനീ, എനിക്കു പ്രത്യേക സഹായമൊന്നും വേണ്ട. അങ്ങ് ഒരു
കല്഼പ്പന പുറപ്പെടുവിച്ചാല്഼ മതി."</p>

<p>	"എന്താണത്?" രാജാവ് ചോദിച്ചു.</p>

<p>	"ഇനിമേല്഼ ഈ നാട്ടില്഼ ആരും മരം മുറിക്കരുത്. അഥവാ മുറിക്കേണ്ടി഼വന്നാല്഼ ഒരു മരം മുറിക്കുന്നവന്഼ രണ്ടു മരമെങ്കിലും നട്ടുവളര്഼ത്തണം.
# മരം ഒരു
വരമാണ്."</p>

<p>	വൃദ്ധന്഼റെ ആഗ്രഹം രാജാവു നടപ്പിലാക്കി.</p>

<p>-68-</p>

<p>		പാഠം 16</p>

<p>	    തിരുവനന്തപുരം</p>

<p>						എറണാകുളം,
					       15-12-1986.</p>

<p>പ്രിയപ്പെട്ട വിമലേ,</p>

<p>	നീ അയച്ച കത്തു കിട്ടി. വിവരങ്ങള്഼ അറിഞ്ഞതില്഼ സന്തോ~
ഷിക്കുന്നു. നീ ആവശ്യപ്പെട്ടതുപോലെ ഞങ്ങളുടെ തിരുവനന്തപുരം യാത്രയെ~
ക്കുറിച്ച് എഴുതാം.</p>

<p>-69--</p>

<p>	തിരുവനന്തപുരത്തു ഞങ്ങള്഼ ആദ്യം പോയതു ശ്രീപത്മനാ~
ഭസ്വാമി ക്ഷേത്രത്തിലേക്കായിരുന്നു. സുന്ദരശില്പങ്ങള്഼ നിറഞ്ഞ ഒരു ഗോ~
പുരം ഉയര്഼ന്നുനില്഼ക്കുന്നു. ശ്രീകോവിലിനുളളില്഼ അനന്തനുമേല്഼ പളളികൊ~
ളളുന്ന ശ്രീപദ്മനാഭനെ കാണാം. അനന്തപദ്മനാഭന്഼റെ ഈ ക്ഷേത്രം മ഼ൂല~
മാണു നഗരത്തിനു തിരുവനന്തപുരം എന്ന പേരു വന്നത്. ക്ഷേത്രത്തിനുളളില്഼
കൊത്തുപണികള്഼ നിറഞ്ഞ കുലശേഖരമണ്ഡപവും കിഴക്കേ നടയില്഼ വിശാ~
ലമായ പദ്മതീര്഼ഥക്കുളവും രസകരമായ നാഴികമണിയും ഞങ്ങള്഼ കണ്ടു.</p>

<p>	മൃഗശാലയിലേയ്ക്കു പോകുന്ന വഴിയില്഼ ദേശീയപതാക പാറിപ്പറക്കു~
ന്ന ഒരു വലിയ കെട്ടിടം കണ്ടു. അതാണ് സെക്രട്ടേറിയററ്. ഇവിടെയാണു 
#മന്ത്രി~
മാരുടെയും, സെക്രട്ടറിമാരുടെയും ഓഫീസുകള്഼. കുറച്ചുകൂടി നടന്നപ്പോള്഼
സ്വാതന്ത്ര്യത്തിനുവേണ്ടി ജീവന്഼ ത്യജിച്ചവരുടെ ഓര്഼മയ്ക്കായി നിര്഼മിച്ച
# രക്ത~
സാക്ഷി സ്മാരകം കണ്ടു. അതിനു മുന്നില്഼ ഞങ്ങള്഼ ഒരുനിമിഷം തല കു~
നിച്ചു നിന്നു. അവിടെ നിന്നു നോക്കിയാല്഼ പാളയംപളളി, മസ്ജിദ്, ചന്ദ്രശേ~
ഖരന്഼നായര്഼ സ്േററഡിയം എന്നിവ കാണാം.</p>

<p>-70-</p>

<p>	മൃഗശാലയില്഼ ആദ്യമായി കണ്ടതു പലതരം പക്ഷികളെയാണ്. വി~
കൃതിക്കുട്ടന്഼മാരായ പലതരം കുരങ്ങുകളെൟും മററു വന്യമൃഗങ്ങളെയും 
#കണ്ടു
ഞങ്ങള്഼ രസിച്ചു. വന്഼കാടുകളില്഼ മാത്രം കാണാന്഼ കഴിയുന്ന സിംഹം,കടുവ,
പുലി, കരടി, കാട്ടുപോത്ത് തുടങ്ങിയ മൃഗങ്ങളെ അവിടെ വളരെ അടുത്തു
കാണാം. കംഗാരു, ജിറാഫ്, നീര്഼ക്കുതിര തുടങ്ങിയ വിദേശികളായ മൃഗങ്ങളും
ഉണ്ട്. വിവിധതരം പാന്പുകളെയും അവിടെ കണ്ടു.</p>

<p>-71-</p>

<p>	പുരാതന വസ്തുക്കള്഼ സൂക്ഷിച്ചിരുന്ന കാഴ്ചബംഗ്ലാവിലും ഞങ്ങള്഼
പോയി. പണ്ടത്തെ ആഭരണങ്ങളും, പാത്രങ്ങളും, നാണയങ്ങളും, വസ്ത്രങ്ങളു~
മൊക്കെ അവിടെ പ്രദര്഼ശിപ്പിച്ചിട്ടുണ്ട്. അതിനടുത്തുളള ചിത്രാലയത്തില്഼
മനോഹരങ്ങളായ ചിത്രങ്ങള്഼ ഉണ്ട്. അക്കൂട്ടത്തില്഼ രാജാരവിവര്഼മ്മയുടെ
ചിത്രങ്ങള്഼ എനിക്കു വളരെ ഇഷ്ടമായി.</p>

<p>-72-</p>

<p>	ചിത്രാലയത്തില്഼ നിന്നു നക്ഷത്രബംഗ്ലാവിലേക്കാണു ഞങ്ങള്഼
പോയത്. അവിടത്തെ ദൂരദര്഼ശിനിയിലൂടെ പകലും നക്ഷത്രങ്ങളെ കാണാം.
അന്നു വൈകുന്നേരം ഞങ്ങള്഼ പ്രസിദ്ധമായ കോവളം കടല്഼പ്പുറം കാണാന്഼
പോയി. കുറെ സമയം  ഞങ്ങള്഼ വിശ്രമിച്ചു.</p>

<p>	പിേററ ദിവസം രാവിലെ തുന്പയിലെ റോക്കററു വിക്ഷേപണ കേന്ദ്രം
കാണാനാണു ഞങ്ങള്഼ പോയത്. നമ്മുടെ രാജ്യത്തിന്഼റെ വിവിധ ഭാഗങ്ങ~
ളില്഼ നിന്നുളള ശാസ്ത്രജ്ഞന്഼മാര്഼ അവിടെ പണിയെടുക്കുന്നതു ഞങ്ങള്഼ ക~
ണ്ടു. കന്പ്യൂട്ടര്഼ യന്ത്രത്തിന്഼റെ പ്രവര്഼ത്തനത്തെപ്പററിയൊക്കെ 
#ഞങ്ങള്഼ക്കു
വിശദീകരിച്ചു. തുന്പയില്഼ നിന്നു ഞങ്ങള്഼ വിമാനത്താവളത്തിലേക്കു</p>

<p>-73-</p>

<p>പോയി. അവിടെ വിമാനങ്ങള്഼ വന്നിറങ്ങുന്നതും പറന്നുയരുന്നതും കണ്ടു.
ഉച്ച കഴിഞ്ഞു ഞങ്ങള്഼ `ശാസ്ത്ര സാങ്കേതിക മ്യൂസിയം' കാണാന്഼ പോയി.
അവിടെ പല ശാസ്ത്രോപകരണങ്ങളുടെയും മാതൃകകള്഼ സൂക്ഷിച്ചിട്ടുണ്ട്.
പിന്നെ ഞങ്ങള്഼ ആകാശവാണി നിലയവും ദൂരദര്഼ശന്഼ കേന്ദ്രവും സന്ദര്഼ശിച്ചു.</p>

<p>	കേരളത്തിന്഼റെ തലസ്ഥാനമായ ഈ നഗരത്തെക്കുറിച്ച് ഇനിയും
പലതും എഴുതാനുണ്ട്. നേരിട്ടു കാണുന്പോള്഼ എല്ലാം വിശദമായി പറയാം.
നിങ്ങള്഼ക്ക് എല്ലാവര്഼ക്കും സുഖമാണെന്നു കരുതുന്നു.</p>

<p>			       		എന്ന് 
			 	     സ്നേഹപൂര്഼വം,
				 	വീണ.
				       (ഒപ്പ്).</p>

<p>		എന്഼.വിമല,
	         സ്ററാന്഼ഡേഡ് 3 ബി,
		  അടോട്ടുകയ പ്രൈമറി സ്കൂള്഼,
	            മാലക്കല്ല് - പി.ഓ.
	             കാസര്഼കോഡ്,
		      പിന്഼കോഡ്. 670 532.</p>

<p>-79-</p>

<p>		    പാഠം 18</p>

<p>		     ക്ഷമ</p>

<p>	ഒരു പ്രഭു ഒരിക്കല്഼ ത഼ന്഼റെ ഭൃത്യരെയെല്ലാം വിളിച്ചുവരുത്തി.
#അവരില്഼
പലരും അദ്ദേഹത്തിന്഼റെ കൈയില്഼ നിന്നു പണം കടം വാങ്ങിയിട്ടുണ്ടായി~
രുന്നു. കണക്കുനോക്കി പ്രഭു ഒരോരുത്തരെയായി അടുത്തുവിളിച്ചു. വളരെക്കാല~
മായിട്ടും കടം വീട്ടാതെ ഒരു ഭൃത്യന്഼ അക്കൂട്ടത്തില്഼ ഉണ്ടായിരുന്നു.
#അയാളുടെ
ഊഴം വന്നു.കടം ഉടനെ വീട്ടണമെന്നു പ്രഭു അയാളോട് ആവ഼ശ്യപ്പെട്ടു.</p>

<p>	"യജമാനനേ, എനിക്കു വലിയ കഷ്ടപ്പാടാണ്. കടം വീട്ടാന്഼ അല്഼പ്പ~
സമയം കൂടി തരണം." അയാള്഼ അപേക്ഷിച്ചു.</p>

<p>	"എങ്ങനെയെങ്കിലും കടം ഉടനെ വീട്ടിയേ തീരൂ." പ്രഭു 
# കല്഼പ്പിച്ചു.</p>

<p>-80-</p>

<p>	അപ്പോള്഼ ആ ഭൃത്യന്഼ അദ്ദേഹത്തിന്഼റെ കാല്഼ക്കല്഼ വീണു യാചിച്ചു.</p>

<p>	"എന്നോടു കരുണ കാണിക്കണേ. കടം വീട്ടാന്഼ കുറച്ചു ദിവസത്തെ
അവധികൂടി അങ്ങ് എനിക്കു തരണം. ഞാന്഼ എല്ലാം തന്നു തീര്഼ത്തുകൊളളാം."</p>

<p>	ഭൃത്യന്഼റെ അപേക്ഷ കേട്ടു പ്രഭുവിന് അലിവുതോന്നി. അദ്ദേഹം ആ
സാധുവിന്഼റെ കടം മുഴുവന്഼ ഇളവു ചെയ്തുകൊടുത്തു. അയാള്഼ സന്തോഷ~
ത്തോടെ വീട്ടിലേക്കു മടങ്ങി.</p>

<p>	വഴിയില്഼ വച്ച് ആ ഭൃത്യന്഼ തന്഼റെ അയല്഼ക്കാരനെ കണ്ടു. അയാള്഼
വളരെ പാവപ്പെട്ടവനായിരുന്നു. പ്രഭുവിന്഼റെ ഭൃത്യനില്഼ നിന്ന് അയാള്഼ കുറച്ചു
പണം കടം വാങ്ങിയിരുന്നു. അതിനുളള കഴിവുണ്ടായിരുന്നില്ല. അതുകൊണ്ട് 
#അയാള്഼
ഭൃ഼ത്യനെ കണ്ടപ്പോള്഼ തന്഼റെ കുററത്തിനു മാപ്പു ചോദിക്കാന്഼ ഒരുങ്ങി. 
#അയാള്഼
പറയുന്നതുകേള്഼ക്കാന്഼ ഭൃത്യന്഼ തയ്യാറായിരുന്നില്ല.</p>

<p>	"കടം വീട്ടാതെ ഇന്നു നിന്നെ വിടില്ല."ആ പാവത്തിനെ കടന്നുപിടി~
ച്ചുകൊണ്ടു ഭൃത്യന്഼ അലറി.അപ്പോള്഼ ഭൃത്യന്഼റെ കാലില്഼ വീണ് ആ പാവം
കരഞ്ഞപേക്ഷിച്ചു.</p>

<p>	"എന്നോട് അല്഼പ്പം കൂടി ക്ഷമിക്കണേ. ഞാന്഼ കടം വീട്ടിക്കൊളളാമേ,"</p>

<p>	ഈ പ്രാര്഼ത്ഥന ഭൃത്യന്഼ ചെവിക്കൊണ്ടില്ല. അയാള്഼ തന്഼റെ 
#അയല്഼വാസി~
യോട് ഒട്ടും അലിവു കാണിച്ചതുമില്ല. അതിനുപകരം അയാളെ ന്യായാധി~
പന്഼റെ മുന്പില്഼ കൊണ്ടുപോയി. കാരാഗൃഹത്തിലടപ്പിച്ചു.
	
	പ്രഭു ഈ സംഭവം അറിഞ്ഞു. അദ്ദേഹം ദുഷ്ടനായ ആ ഭൃത്യനെ
വിളിച്ചു വരുത്തി, അവനോടു പറഞ്ഞു.</p>

<p>	"ഞാന്഼ നിന്നോടു ദയ കാണിച്ചു. എന്നാല്഼ നീ നിന്഼റെ സഹോദര~
നോടു ദയ കാണിച്ചില്ല. അതിനുളള ശിക്ഷ നീ അനുഭവിച്ചേ തീരൂ. ഞാന്഼
നിന്നെ കാരാഗൃഹത്തില്഼ അടപ്പിക്കാന്഼ പോകുന്നു."</p>

<p>	"നാം സഹോദരങ്ങളോടു ക്ഷമിക്കണം. ഇല്ലെങ്കില്഼ നമ്മോടും
ദൈവം ക്ഷമിക്കുകയില്ല." പ്രഭു കൂട്ടിച്ചേര്഼ത്തു.</p>

<p>-83-</p>

<p>		പാഠം 19</p>

<p>	      വാഹനങ്ങള്഼</p>

<p>	മനുഷ്യന്഼ സഞ്ചാരപ്രിയനാണ്. കാല്഼നടയായിമാത്രം സഞ്ചരിച്ചിരുന്ന
ഒരു കാലം അവനുണ്ടായിരുന്നു. ക്രമേണ അവന്഼ മൃഗങ്ങളെ വാഹനമാക്കി.
മനുഷ്യന്഼തന്നെ ചുമന്നു കൊണ്ടു പോകുന്ന വാഹനങ്ങളും ഉപയോഗിച്ചു.
പല്ലക്ക്, മഞ്ചല്഼ തുടങ്ങിയവ അക്കൂട്ടത്തില്഼ പെടുന്നു.</p>

<p>	ചക്രത്തിന്഼റെ കണ്ടുപിടിത്തം വാഹനങ്ങള്഼ക്കു പുതിയ രൂപം നല്഼കി.
മനുഷ്യര്഼ക്കോ മൃഗങ്ങള്഼ക്കോ വലിച്ചുകൊണ്ടുപോകാവുന്ന വാഹനങ്ങള്഼
#ആദ്യം
നിലവില്഼ വന്നു.</p>

<p>-84-</p>

<p>	കാളവണ്ടി, കുതിരവണ്ടി, റിക്ഷ മുതലായവ അത്തരം വാഹനങ്ങളാണ്.
ക്രമേണ യന്ത്രസഹായത്തോടെ ചലിക്കുന്ന വാഹനങ്ങളും മഩുഷ്യന്഼ നിര്഼മിച്ചു.</p>

<p>	യാത്ര ചെയ്യാനും സാമാനങ്ങള്഼ കയററി കൊണ്ടുപോകാനും ഇന്നു
നമുക്കു പലതരം വാഹനങ്ങളുണ്ട്. ഒരാള്഼ ചവിട്ടിയോടിക്കുന്ന സൈക്കിള്഼
മുതല്഼ ആയിരക്കണക്കിന് ആളുകളെ വഹിച്ചുകൊണ്ടു പോകുന്ന തീവണ്ടി വരെ</p>

<p>-85-</p>

<p>നമ്മള്഼ ഗതാഗതത്തിന് ഉപയോഗിക്കുന്നു. ഇവയെല്ലാം കരയില്഼ സഞ്ചരിക്കാ~
നുളള വാഹഩങ്ങളാണ്.</p>

<p>	മോട്ടോര്഼ സൈക്കിള്഼,കാറ്, ജീപ്പ്, ബസ്, ലോറി തുടങ്ങിയ വാഹ~
നങ്ങള്഼ റോഡില്഼ക്കൂടി സഞ്ചരിക്കുന്നു. പട്ടണങ്ങളില്഼ രണ്ടുനില 
# ബസ്സുകളും</p>

<p>-86-</p>

<p>രണ്ടു ബസ്സുകള്഼ കൂട്ടിഘടിപ്പിച്ച റോഡ്ട്രയിനുകളും കാണാം.കരയിലെ
ഏററവും വലിയ വാഹനമായ തീവണ്ടി പാളങ്ങളില്഼ക്കൂടിയാണു
സഞ്ചരിക്കുന്നത്.</p>

<p>-87-</p>

<p>	വെളളത്തില്഼ക്കൂടി സഞ്ചരിക്കുവാനും നമുക്കു പലതരം വാഹനങ്ങള്഼
ഉണ്ട്. നദികളിലും കായലുകളിലും സഞ്ചരിക്കുന്നതിന് വളളങ്ങളും ബോട്ടുകളു~
മാണു സാധാരണയായി ഉപയോഗിക്കുന്നത്. എന്നാല്഼ കടല്഼ യാത്രയ്ക്ക് ഏററവും
നല്ലതു കപ്പലാണ്. ജലവാഹനങ്ങളില്഼ ഏററവുംവലിയതാണത്. ഒരു പട്ടണത്തിലെ
എല്ലാ സൌകര്യങ്ങളുമുളള കൂററന്഼ കപ്പലുകളും ഉണ്ട്. വെളളത്തിനിടയില്഼ക്കൂടി഼സഞ്ചരിക്കുന്ന വാഹനങ്ങളും ഉണ്ട്. അവയെ അന്തര്഼വാഹിനികള്഼ എന്നു വിളി~
ക്കുന്നു.</p>

<p>-88-</p>

<p>	മനുഷ്യന് ഏററവും വേഗത്തില്഼ സഞ്ചരിക്കുവാന്഼ സാധിക്കുന്നത് ആകാ~
ശത്തിലൂടെയാണ്. അതിനു വിമാനം ഉപയോഗിക്കുന്നു. പലതരം വിമാനങ്ങള്഼
ഇന്നുണ്ട്. ഹെലികോപ്ടറുകളും ജെററുവിമാനങ്ങളും അവയില്഼ ഉള്഼പ്പെടും.</p>

<p>	വളരെ ദൂരെയുളള സ്ഥലങ്ങളിലേക്കു ചുരുങ്ങിയ സമയം കൊണ്ടു പറ~
ന്നെത്തുവാന്഼ വിമാനങ്ങള്഼ക്കു കഴിയും.</p>

<p>-89-</p>

<p>	കാല്഼നടയായി മാത്രം സഞ്ചരിച്ചിരുന്ന മനുഷ്യന്഼ ഇന്നു 
#ചന്ദ്രനില്഼പ്പോലും
പോയി വന്നിരിക്കുന്നു. ഈ യാത്രയ്ക്ക് അവനെ സഹായിച്ചതു റോക്കററാണ്.
ശാസ്ത്രം വളര്഼ന്നുകൊണ്ടിരിക്കുന്നു. അതിന്഼റെ ഫലമായി വാഹനങ്ങളില്഼
ഇനിയും പല പരിഷ്കാരങ്ങളും വരാനിടയുണ്ട്. കാത്തിരുന്നു കാണുക തന്നെ.</p>

<p>-93-</p>

<p>		പാഠം 20</p>

<p>	        സമ്മാനം</p>

<p> രത്നപുരം എന്ന ഗ്രാമത്തില്഼ ഒരിക്കല്഼ ഭയങ്കരമായ ക്ഷാമം ഉണ്ടായി.
മഴ പെയ്തിട്ടു മാസങ്ങളേറെയായി. വരള്഼ച്ച കാരണം ഗ്രാമവാസികള്഼ കുഴങ്ങി.
വയലുകള്഼ ഉണങ്ങി. കൃഷിപ്പണികള്഼ മുടങ്ങി. പുല്ലും വെളളവും കിട്ടാതെ 
#കന്നു~
കാലികള്഼ ചത്തൊടുങ്ങി. ഗ്രാമീണരുടെ കൈവശമുണ്ടായിരുന്ന ധാന്യങ്ങളെല്ലാം
തീര്഼ന്നു. ഭക്ഷണം കിട്ടാതെ കുഞ്ഞുങ്ങള്഼ തളര്഼ന്നു വീഴാന്഼ തുടങ്ങി.</p>

<p>	ഗ്രാമത്തിലെ ഒരു ധനികനായിരുന്നു ധനപാലന്഼. അദ്ദേഹം ദയാലുവാ~
യിരുന്നു. അദ്ദേഹത്തിന്഼റെ പക്കല്഼ ധാരാളം ധാന്യമുണ്ടായിരുന്നു. ഗ്രാമത്തിലെ
കുട്ടികള്഼ ഭക്ഷണമില്ലാതെ വിഷമിക്കുന്നതുകൊണ്ട് അദ്ദേഹത്തിന്഼റെ മനസ്സ~
ലിഞ്ഞു. അവര്഼ക്ക് ആഹാരം നല്഼കണമെന്ന് അദ്ദേഹം തീരുമാനിച്ചു. തന്഼റെ
കലവറയിലുളള ഗോതന്പ് ഉപയോഗിച്ചു ധനപാലന്഼ റൊട്ടികള്഼ ഉണ്ടാക്കിച്ചു. അ~
വ കുട്ടികള്഼ക്കു വിതരണം ചെയ്യാന്഼ അദ്ദേഹം പരിചാരകരെ ഏര്഼പ്പാടുചെയ്തു.</p>

<p>	ഉച്ച സമയത്തു ധനപാലന്഼റെ മാളികയുടെ മുന്നില്഼ കുട്ടികള്഼ കൂട്ടം
കൂട്ടമായി വന്നുചേര്഼ന്നു. പരിചാരകര്഼ റൊട്ടി വിതരണഁ തുടങ്ങി. കുട്ടികള്഼
# തിക്കി~
ത്തിരക്കി ബഹളമുണ്ടാക്കി. `എനിക്കാദ്യം എനിക്കാദ്യം' എന്ന മട്ടില്഼
#ഓരോര഼ു~
ത്തരും മുന്നിലെത്താന്഼ ശ്രമിച്ചു. ബഹളത്തിനിടയില്഼ ചിലരൊക്കെ മറിഞ്ഞുവീണു.</p>

<p>	ഈ തിരക്കിലൊന്നും പെടാതെ ഒരു പെണ്഼കുട്ടി മാത്രം ഒതുങ്ങി നി~
ന്നു. ഏററവും ഒടുവിലാണ് അവള്഼ റൊട്ടി വാങ്ങിയത്. അവള്഼ക്കു കിട്ടിയത്
# ഒരു
പൊടിഞ്ഞ റോട്ടിയായിരുന്നു. അതും കൊണ്ട് അവള്഼ വീട്ടിലേക്കു പോയി. ധന~
പാലന്഼ ഇതെല്ലാം നോക്കി നില്഼ക്കുകയായിരുന്നു.</p>

<p>	സുശീല എന്നായിരുന്നു അവളുടെ പേര്. അവള്഼ക്ക് അമ്മ മാത്രമേ
ഉണ്ടായിരുന്നുളളു. അവര്഼ രണ്ടുപേരും കൂടി ആ റൊട്ടി വീതിച്ചു കഴിച്ചു.</p>

<p>	റൊട്ടി വിതരണം അടുത്ത ദിവസവും നടന്നു. അന്നും സുശീല അവ~
സാനമാണു റൊട്ടി വാങ്ങിയത്. ഇത് ആവര്഼ത്തിച്ചുകൊണ്ടിരുന്നു. ധനപാലന്഼ എ~
ല്ലാ ദിവസവും ഇതു ശ്രദ്ധിക്കുന്നുണ്ടായിരുന്നു. കുട്ടിയുടെ ക്ഷമയിലും അച്ച~
ടക്കത്തിലും ധനപാലനു മതിപ്പുതോന്നി.</p>

<p>-95-</p>

<p>	ഒരു ദിവസം അവള്഼ക്കുവേണ്ടി ഒരു റൊട്ടി കരുതിവെച്ചിരുന്നു.
# തിരക്കൊ~
ഴിഞ്ഞശേഷം പതിവുപോലെ അവള്഼ റൊട്ടി വാങ്ങിക്കൊണ്ടു പോയി. അത് അമ്മ~
യെ ഏല്഼പ്പിച്ചു. അമ്മ റൊട്ടി മുറിച്ചു. അവര്഼ അത്ഭുതപ്പെട്ടുപോയി. 
#റൊട്ടിക്കു~
ളളില്഼ ഒരു സ്വര്഼ണനാണയം! അമ്മയും മകളും പരിഭ്രമിച്ചു. ആ സ്വര്഼ണനാണയം
ധനപാലന്഼റെതായിരിക്കും എന്ന് അവര്഼ ഊഹിച്ചു. അതു തിരിച്ചുകൊടുക്കണ~
മെന്നും അവര്഼ തീരുമാനിച്ചു.</p>

<p>	സുശീല സ്വര്഼ണനാണയവുമായി ധനപാലന്഼റെ മാളികയിലേക്ക് ഓടി.</p>

<p>	"എനിക്കു കിട്ടിയ റൊട്ടിക്കുളളില്഼ ഇരുന്നതാണ് ഈ സ്വര്഼ണനാണയം.
ഇതു തിരിച്ചു തരാഩാണു ഞാന്഼ വന്നത്." അവള്഼ പറഞ്ഞു.</p>

<p>	അവളുടെ വാക്കുകള്഼ കേട്ടു ധനപാലന്഼ സന്തോഷിച്ചു. അദ്ദേഹം
അവളോട് ഇങ്ങോട്ടു പറഞ്ഞു.</p>

<p>	" നീ സ഼ത്യസന്ധയും കൂടിയാണെന്ന് എനിക്കിപ്പോള്഼ ബോധ്യമായി.
ആ നാണയം നിനക്കുളളതാണ്. ഞാന്഼ തന്നെയാണ് അതു റൊട്ടിയില്഼ വച്ചത്.
നിന്഼റെ ക്ഷമയ്ക്കും അച്ചടക്കത്തിനുമുളള സമ്മാനമാണത്."</p>

<p>-102-</p>

<p>		പാഠം 22</p>

<p>		നേതാജി</p>

<p>	സ്ഥലം ബോംബെ   തുറമുഖം. വന്പിച്ച ഒരു ജനാവലി അവിടെ കൂടിയി~
ട്ടുണ്ട്. കപ്പലില്഼ വരുന്ന ഏതോ വിശിഷ്ട വ്യക്തിയെ സ്വീകരിക്കാനാണ് 
#അവര്഼
എത്തിയിരിക്കുന്നത്. ധാരാളം ബ്രിട്ടീഷ് പോലീസുകാരും മുന്഼നിരയില്഼ ഉണ്ട്.</p>

<p>-103-</p>

<p>	ഇംഗ്ലണ്ടില്഼ നിന്നു വന്ന ഒരു കപ്പല്഼ കരയ്ക്കടുത്തു. 
#യാത്രക്കാര്഼ കപ്പലില്഼
നിന്ന് ഇറങ്ങാന്഼ തുടങ്ങി. കരയ്ക്കു നിന്ന ജനങ്ങള്഼ ആരെയോ 
#പ്രതീക്ഷിച്ചു
കൊണ്ടു കപ്പല്഼ത്തട്ടിലേക്കു ഉററു നോക്കിക്കൊണ്ടിരുന്നു. ഒരു യുവാവു 
#കൈകൂ~
പ്പിക്കൊണ്ട് ഇറങ്ങിവന്നു. ആവേശഭരിതരായ ജനങ്ങള്഼ ആര്഼ത്തുവിളിച്ചു.</p>

<p>	"സുഭാഷ് ചന്ദ്രബോസ് കീ ജയ്."</p>

<p>പെട്ടെന്നു പോലീസ് അദ്ദേഹത്തെ വളഞ്ഞു. പോലീസു വലയത്തിനുളളില്഼
നിന്നുകൊണ്ട് അദ്ദേഹം കൈ ഉയര്഼ത്തി വിളിച്ചു പറഞ്ഞു.</p>

<p>	"മാതൃഭൂമിയുടെ പതാക താഴ്ത്താതെ നോക്കുവിന്഼".
	ജനക്കൂട്ടം വീണ്ടും അത്യുച്ചത്തില്഼ വിളിച്ചു പറഞ്ഞു.</p>

<p>	"ഭാരത മാതാ കീ ജയ്
	സുഭാഷ് ബോസ് കീ ജയ്."</p>

<p>ഇന്ത്യയില്഼ എത്തിയാലുടനെതന്നെ സുഭാഷിനെ കാരാഗൃഹത്തില്഼ അടയ്ക്കു~
മെന്നായിരുന്നു ബ്രിട്ടീഷ് സര്഼ക്കാരിന്഼റെ ഭീഷണി,അതു വകവയ്ക്കാതെ എത്തി~
യതായിരുന്നു അദ്ദേഹം.</p>

<p>	സ്വാതന്ത്ര്യസമരം നടക്കുന്ന കാലം ആയിരുന്നു അത്. ഈ സമരത്തെ
അടിച്ചമര്഼ത്താന്഼ ബ്രിട്ടീഷുകാര്഼ പോലീസിനെയും പട്ടാളത്തെയും
ഉപയോഗിച്ചു. അവര്഼ ജനങ്ങളെ തല്ലിച്ചതച്ചു. അനേകം ആളുകളെ വെടിവച്ചു
വീഴ്ത്തി. ഈ സംഭവങ്ങള്഼ സുഭാഷിനെ വല്ലാതെ വേദനിപ്പിച്ചു.</p>

<p>	`ആയുധം ഉളളവരെ ആയുധം കൊണ്ടുതന്നെ നേരിടണം'.അദ്ദേഹം
തീരുമാനിച്ചു. ഈ ഉദ്ദേശ്യത്തോടുകൂടി ഭാരതീയരുടെ ഒരു സേന നേരത്തെ
തന്നെ സിംഗപ്പൂരില്഼ രൂപം കൊണ്ടിരുന്നു. `ഇന്ത്യന്഼ നാഷണല്഼ ആര്഼മി'
#എന്നാ~
യിരുന്നു അതിന്഼റെ പേര്. സുഭാഷ്ചന്ദ്രബോസ് സിംഗപ്പൂരില്഼ ചെന്ന്
അതിന്഼റെ നേതൃത്വം ഏെററടുത്തു. ഇതോടെ അനുയായികള്഼ അദ്ദേഹത്തതെ
`നേതാജി' എന്നു വിളിച്ചു തുടങ്ങി.</p>

<p>	നേതാജിയും അനുയായികളും ബ്രിട്ടീഷ് സര്഼ക്കാരിനോടു യുദ്ധം
പ്രഖ്യാപിച്ചു. അവര്഼ ആസാമില്഼ കടന്നു. ഇന്ത്യന്഼ മണ്ണില്഼ മാതൃഭൂമിയുടെ</p>

<p>-104-</p>

<p>പതാക ഉയര്഼ത്തി. പിന്നീട് അവിടെ നിന്നു നേതാജിയുെട സൈന്യത്തിനു
പിന്഼മാറേണ്ടിവ഼ന്നു.</p>

<p>	വീണ്ടും യുദ്ധത്തിന് അദ്ദേഹം തയ്യാറെടുത്തുകൊണ്ടിരുന്നു. അതിനി~
ടയില്഼ ഒരു യുദ്ധവിമാനത്തില്഼ സഞ്ചരിക്കവേ, അപകടത്തില്഼പ്പെട്ട്
#അദ്ദേഹം
മരണമടഞ്ഞു.</p>

<p>	രാജ്യത്തിന്഼റെ സ്വാതന്ത്ര്യത്തിനുവേണ്ടിയാണു സുഭാഷ് ജീവിതകാലം
മുഴുവന്഼ സമരം ചെയ്തത്. രാജ്യത്തിനുവേണ്ടിയാണ് അദ്ദേഹം മരിച്ചതും.
അധികം താമസിയാതെ ഇന്ത്യ സ്വതന്ത്രയാവുകതന്നെ ചെയ്യും എന്നു
സുഭാഷിന് ഉറപ്പുണ്ടായിര഼ുന്നു. അദ്ദേഹത്തിന്഼റെ ആഗ്രഹം പോലെ ഇന്ത്യ
സ്വതന്ത്രയായി. സ്വാതന്ത്ര്യത്തിന്഼റെ സുദിനം കാണാന്഼ ആ വിപ്ലവകാരി
ഉണ്ടായിരുന്നില്ല. എങ്കിലും സ്വതന്ത്രഭാര഼തത്തിലെ ജനങ്ങളുടെ
#ഹൃദയങ്ങളില്഼
നേതാജി ഇന്നും ജീവിക്കുന്നു.</p>

<p>-107-</p>

<p>		പാഠം 23</p>

<p>	  മരമണ്ടന്഼ മല്ലന്഼</p>

<p>	പണ഼ക്കാരനായ ഉപ്പായിക്കു മല്ലന്഼ എന്നൊരു സഹായി ഉണ്ടായിരുന്നു.
ഉപ്പായി എന്തു പറഞ്ഞാലും മല്ലന്഼ അതേപടി അനുസരിക്കും.</p>

<p>	ഒരു ദിവസം വീട്ടാവശ്യത്തിനായി കുറെ വിറകു വാങ്ങിക്കൊണ്ടു
വരാന്഼ മല്ലനെ പറഞ്ഞയച്ചു. വലിയ വിറകുകെട്ടു തലയില്഼ ചുമന്നുകൊണ്ടു
മല്ലന്഼ തിരിച്ചു വന്നു. പടിക്കല്഼ നിന്നു വിളിച്ചുപറഞ്ഞു.</p>

<p>	"എന്നെ ഒന്നു സഹായിക്കണേ. എന്഼റെ കഴുത്ത് ഒടിയാറായേ". ഉപ്പായി
ഇറങ്ങുവന്നു. മല്ലന്഼റെ വിഷമം കണ്ടു ചോദിച്ചു.</p>

<p>"അതു തറയിലിട്ടാല്഼ പോരേ? ഇത്ര വിഷമിക്കണോ?" വിറകുകെട്ടു താഴെയിട്ട
ശേഷം മല്ലന്഼ വിനയത്തോടെ പറഞ്ഞു. "ഇനി അങ്ങനെ ചെയ്യാമേ."</p>

<p>-108-</p>

<p>	അടുത്ത ദിവസം ഉപ്പായി മല്ലനെ മണ്഼പാത്രങ്ങള്഼ വാങ്ങിക്കൊണ്ടു~
വരാന്഼ അയച്ചു. ചന്തയില്഼ നിന്നു മല്ലന്഼ മണ്഼പാത്രങ്ങള്഼ വാങ്ങി വലിയ
#ഒരു
കൂട്ടയിലാക്കി. അതുതലയിലേററിവീട്ടിലെത്തിയ മല്ലന്഼ ചുമടുമുററത്തേക്കിട്ടു.</p>

<p>	ശബ്ദം കേട്ട് ഉപ്പായി പുറത്തുവന്നു. മണ്഼പാത്രങ്ങളെല്ലാം തവി~
ടുപൊടിയായി കിടക്കുന്നതാണു കണ്ടത്.
അയാള്഼ ചോദിച്ചു."വിഡ്ഢി, നീ എന്താണീ കാണിച്ചത്?"</p>

<p>	"പറഞ്ഞതുപോലെ ചെയ്തതാണേ." മല്ലന്഼ മറുപടി പറഞ്ഞു.
ഉപ്പായി ഉപദേശിച്ചു. "എടോ ഇതൊരു ഉന്തുവണ്ടിയില്഼ വച്ചു കൊണ്ടു 
#പതുക്കെ
വരേണ്ടതായിരുന്നു." മല്ലന്഼:- ഇനി അങ്ങനെ ചെയ്യാമേ.</p>

<p>	അന്നു തന്നെ ഉപ്പായി മല്ലനെ ഒരു തീപ്പെട്ടി വാങ്ങാന്഼ വിട്ടു.
#മല്ലന്഼ വളരെ
ഉത്സാഹത്തോടെ ഒരു ഉന്തുവണ്ടി പിടിച്ചു. കടയില്഼ചെന്നു തീപ്പെട്ടി 
#വാങ്ങി
അതില്഼ വച്ചു ശ്രദ്ധയോടെ വലിച്ചുകൊണ്ടുവന്നു. വണ്ടിയും വലിച്ചു വന്ന മല്ല~
നെക്കണ്ട ഉപ്പായി തിരക്കി "എവിടെ മല്ലാ തീപ്പെട്ടി? തീപ്പെട്ടി 
#വാങ്ങാന്഼ പറ~
ഞ്ഞിട്ടു നീ ഉന്തുവണ്ടിയാണോ വാങ്ങിയത്?"</p>

<p>-109-</p>

<p>	"തീപ്പെട്ടി വണ്ടിയിലുണ്ടേ". മല്ലന്഼ സന്തോഷത്തോടെ പറഞ്ഞു.
ഉപ്പായി സഹികെട്ടു പറഞ്ഞു.</p>

<p>	"മൂഢാ! നിന്നെക്കൊണ്ടു തോററു. തീപ്പെട്ടികൊണ്ടുവരാന്഼ ഉന്തു~
വണ്ടിയോ? അതു കീശയിലിട്ടു കൊണ്ടുവന്നാല്഼ പോരേ?"
മല്ലന്഼:- ഇനി അങ്ങനെ ചെയ്യാമേ.</p>

<p>	മെററാരു ദിവസം ഉപ്പായിക്കു കുറച്ചു വെണ്ണയുടെ അത്യാവശ്യം
ഉണ്ടായി. വെണ്ണ എത്രയും പെട്ടെന്നു വാങ്ങിക്കൊണ്ടുവരാന്഼ മല്ലനെ
പറഞ്ഞുവിട്ടു. മല്ലന്഼ കടയില്഼ ചെന്നു വെണ്ണ വാങ്ങി. വളരെ ശ്രദ്ധയോടെ
#അതു
കീശയിലാക്കി. ചുട്ടുപൊളളുന്ന വെയില്഼ വകവയ്ക്കാതെ അവന്഼ വീട്ടിലേക്ക്
ഓടി.വെണ്ണയും കാത്തിരുന്ന ഉപ്പായി ഓടിവന്ന മല്ലനോടു ചോദിച്ചു.</p>

<p>	"എവിടെ വെണ്ണ?"</p>

<p>	മല്ലന്഼ കീശയില്഼ കൈയിട്ടു. ഉപ്പായി മല്ലന്഼റെ കീശയിലേക്കു 
#നോക്കി
നനഞ്ഞ കീശയും നെയ്പുരണ്ട കാലും കണ്ട് ഉപ്പായി വടി എടുത്തു. വടി
കണ്ട മല്ലന്഼ ഭയന്നോടി മറിഞ്ഞടിച്ചു വീണു. മല്ലന്഼ വീണതുകണ്ടപ്പോള്഼
#ഉപ്പയി
വടി ദൂരെ കളഞ്ഞിട്ടു മല്ലനെ അടുത്തു വിളിച്ചു. മല്ലന്഼ പതുക്കെപ്പതുക്കെ
നടന്ന് ഉപ്പായിയുടെ അടുത്തു ചെന്നു. ഉപ്പായി പറഞ്ഞു.</p>

<p>	"എടാ, വെണ്ണ കൊണ്ടുവരേണ്ടത് ഇങ്ങനെയല്ല. ഒരു ചെറിയകലം
വാങ്ങി അതില്഼ കുറെ വെളളം ഒഴിക്കണം. എന്നിട്ട് ആ വെളളത്തില്഼ 
#വെണ്ണയിട്ടു
കലത്തിന്഼റെ വായ് ഭംഗിയായി മൂടിക്കെട്ടണം. മനസ്സിലായോ?</p>

<p>മല്ലന്഼:-ഇനി അങ്ങനെ ചെയ്യാമേ.</p>

<p>	മെററാരു ദിവസം കൂട്ടുകാരന്഼ തരാമെന്നു പറഞ്ഞിരുന്ന ഒരു 
#പട്ടിക്കു~
ട്ടിയെ കൊണ്ടുവരാന്഼ ഉപ്പായി മല്ലനെ പറഞ്ഞയച്ചു. ഉടന്഼ തന്നെ മല്ലന്഼
#ആ
കൂട്ടുകാരന്഼റെ വീട്ടില്഼ എത്തി. പട്ടിക്കുട്ടിയെഏററുവാങ്ങി. അടുത്തുകണ്ട
#ഒരു
പീടികയില്഼ കയറി ഒരു ചെറിയ കലം വാങ്ങി അതില്഼ കുറച്ചു വെളളവും
ഒഴിച്ചു. എന്നിട്ടു വളരെ പ്രയാസപ്പെട്ടു പട്ടിക്കുട്ടിയെ അതില്഼ 
# തിരുകിക്കയററി
കലത്തിന്഼റെ വായ് ഭദ്രമായി അടച്ചുകെട്ടി. കലവും തോളിലേററി വീട്ടിലേക്കു
തിരിച്ചു നടന്നു.</p>

<p>	അടച്ചുകെട്ടിയ കലവുമായി കയറിവന്ന മല്ലനെക്കണ്ട് ഉപ്പായി തിരക്കി.</p>

<p>	"മല്ലാ, പട്ടിക്കുട്ടി എവിടെ?"</p>

<p>	മല്ലന്഼ കലം താഴെ വച്ചു. അതിന്഼റെ അടപ്പു തുറന്നു. ചാകാറായ 
#പട്ടി~
ക്കുട്ടിയെ വലിച്ചു പുറത്തെടുത്തു നിലത്തു നിര്഼ത്തു.</p>

<p>-110-</p>

<p>	"എന്തെടാ, ഈ കാണിച്ചത്? അതിനു വല്ലതും പററിയോ?" എന്നു ചോ~
ദിച്ചുകൊണ്ട് ഉപ്പായി പട്ടിക്കുട്ടിയെ കുനിഞ്ഞെടുത്തു. ഉടനെ 
#പട്ടിക്കുട്ടി തന്഼റെ
ശരീരമാകെ ഒന്നു കുടഞ്ഞു. ഉപ്പായിയുടെ മുഖത്താകെ വെളളം തെറിച്ചു.
ഉപ്പായിക്കു കോപം വന്നു. അയാള്഼ പറഞ്ഞു.</p>

<p>"നിന്നെക്കൊണ്ടു പൊറുതിമുട്ടി മല്ലാ. തുടലില്഼ കെട്ടി വലിച്ചല്ലേ ഇതിനെ
കൊണ്ടു വരേണ്ടത്."</p>

<p>മല്ലന്഼:- ഇനിത്തൊട്ട് അങ്ങനെ ചെയ്യാമേ.</p>

<p>	ഉപ്പായിയുടെ പിറന്നാല്഼ വന്നു. ഉച്ചയ്ക്കു സദ്യ ഉണ്ണാനായി, 
#പളളിക്കൂട~
ത്തില്഼ പഠിക്കുന്ന മക്കളെ വിളിച്ചുകൊണ്ടുവരാന്഼ ഉപ്പായി മല്ലനോടു 
#പറഞ്ഞു.</p>

<p>	ഉച്ചയ്ക്കുവിടുന്ന സമയത്തു തന്നെ മല്ലന്഼ പളളിക്കൂടത്തിലെത്തി. പുറ~
ത്തു വന്ന കുട്ടികളെ അവന്഼ കൈപിടിച്ചു റോഡിലിറക്കി. കീശയില്഼ കരുതി~
യിരുന്ന തുടലെടുത്തു കുട്ടികളുടെ കൈയില്഼ മുറുക്കിക്കെട്ടി.തുടലില്഼ പിടി~</p>

<p>-111-</p>

<p>ച്ചുവലിച്ചു കൊണ്ടു മല്ലന്഼ നടന്നു. കുറേ നടന്നപ്പോള്഼ കുട്ടികള്഼ക്കു
# കൈ വേദ~
നിച്ചു. അവര്഼ കരയാന്഼ തുടങ്ങി. അപ്പോള്഼ മല്ലന്഼ വേഗം വേഗം നടന്നു. 
#കുട്ടികളു~
ടെ കരച്ചില്഼ ഉച്ചത്തിലായി. കരച്ചില്഼ കേട്ടു നാട്ടുകാര്഼ ഓടിക്കൂടി. 
#കുട്ടികളുടെ
കൈയിലെ തുടലഴിച്ചു. മല്ലനെയും കരയുന്ന കുട്ടികളെയും അവര്഼ ഉപ്പായിയുടെ
വീട്ടിലെത്തിച്ചു വിവരം പറഞ്ഞു. ഉപ്പായി മല്ലനെ ശരിക്കു വഴക്കു 
#പറഞ്ഞു.
അപ്പോള്഼ മല്ലന്഼ ഇങ്ങനെ അറിയിച്ചു.</p>

<p>	"അങ്ങുപറഞ്ഞതുപോലെ ഞാന്഼ തുടലില്഼ കെട്ടിവലിച്ചു കൊണ്ടു
തന്നെയാണു വന്നത്. ഇവരാണ഼് തുട഼ലഴിച്ചത്."</p>

<p>	മല്ലന്഼ പറഞ്ഞതു കേട്ട് ഉപ്പായി തലയില്഼ കൈവച്ച് ഇരുന്നുപോയി.</p>

<p>-114-</p>

<p>		പാഠം 24
	      അന്വേഷണം</p>

<p>	മൈതാനത്തു നിന്നു കല്ലെറിയുന്ന മനോജിനെ ഹെഡ്മാസ്ററര്഼വിളിച്ചു.
ഭയത്തോടും പരിഭ്രമത്തോടും കൂടിയാണു മനോജ് ഓടിവന്നത്.</p>

<p>	"എന്഼റെ കുട്ടീ, കല്ലുവീണു വല്ലവരുടേയും തലപൊട്ടുകയില്ലേ?. നീ
എന്തിനാണിങ്ങനെ വികൃതി കാണിക്കുന്നത്?" ഹെഡ്മാസ്ററര്഼ ചോദിച്ചു.
ഉത്തരമൊന്നും പറയാതെ ആ കുട്ടി തലകുനിച്ചു നിന്നു.</p>

<p>	`സമര്഼ഥനും ബുദ്ധിമാനുമാണു മനോജ്. അവന്഼ വികൃതി കാണിക്കാറില്ല.
ഇന്നെന്താണ് പളളിക്കൂടം വിട്ടിട്ടും വീട്ടില്഼ പോകാതെ നിന്നു
#കല്ലെറിയുന്നത്?</p>

<p>-115-
ഹെഡ്മാസ്ററര്഼ ചിന്തിച്ചു.</p>

<p>	മനോജിനെ ചേര്഼ത്തു നിര്഼ത്തി സ്നേഹപൂര്഼വം ഹെഡ്മാസ്ററര്഼ വീണ്ടും
ചോദിച്ചു. "എന്തിനായിരുന്നു കല്ലെടുത്തെറിഞ്ഞത്?"</p>

<p>	അവന്഼റെ ഭയം നീങ്ങി. അവന്഼ പറഞ്ഞു. "സാര്഼ ഞാന്഼ ഒരു 
#സംശയം തീര്഼~
ക്കാന്഼ ശ്രമിക്കുകയായിരുന്നു. മുകളിലേക്ക് എറിയുന്ന കല്ലു തിരിച്ചു 
#വരുന്നില്ല. അത്
എന്തുകൊണ്ടാണെന്നു നോക്കുകയായിരുന്നു ഞാന്഼."</p>

<p>	"എറിഞ്ഞു നോക്കിയിട്ടു നിന്഼റെ സംശയം തീര്഼ന്നോ?"
#ഹെഡ്മാസ്഼ററര്഼
അന്വേഷിച്ചു.</p>

<p>	"ഇല്ല സാര്഼, അതെന്തുകൊണ്ടാണെന്നു മനസ്സിലായില്ല. എത്ര ശക്തി~
യില്഼ എറിഞ്ഞിട്ടും കുറെ മുകളിലേക്കു പോയ ശേഷം കല്ലുനേരെ താഴെ വീഴു~
ന്നു." മനോജ് മറുപടി നല്഼കി.</p>

<p>	"നീ വശങ്ങളിലേക്ക് എറിഞ്ഞ കല്ലും താഴെ വീഴുന്നുണ്ടല്ലോ. കുറെ
ദൂരത്തേക്കു പോയിട്ടാണെന്നു മാത്രമല്ലേയുളളു." ഹെഡ്മാസ്ററര്഼ ചോദിച്ചു.</p>

<p>	"അതേ, അതേ. അതു ഞാന്഼ ഓര്഼ത്തില്ല. ഇപ്പോള്഼ സാറു പറഞ്ഞപ്പോ~
ഴാണു ശ്രദ്ധിച്ചത്. എന്നാലും എന്഼റെ സംശയം തീര്഼ന്നില്ല. വസ്തുക്കള്഼
#എന്തു
കൊണ്ടു ഭൂമിയിലേക്കു വീഴുന്നു? എന്തു കൊണ്ടു മുകളിലേക്കോ, വശങ്ങളിലേ~
ക്കോ പോകുന്നില്ല? അതാണെന്഼റെ സംശയം"?</p>

<p>	"ശരി. ഞാന്഼ പറഞ്ഞു തരാം. പഴങ്ങളും മററും ഞെട്ടററാല്഼ 
#എന്താണു
സംഭവിക്കുക? അവയും താഴെ വീഴും അല്ലേ?" ഹെഡ്മാസ്ററര്഼ വീണ്ടും ചോദിച്ചു.</p>

<p>	"അതേ, സാര്഼ പിന്നെയും എന്഼റെ സംശൟത്തിലേക്കു തന്നെയാണു വരു~
ന്നത്." മനോജ് പറഞ്ഞു.</p>

<p>-116-</p>

<p>	ഹെഡ്മാസ്ററര്഼ തുടര്഼ന്നു. "പ്രസിദ്ധ ശാസ്ത്രജ്ഞനായ ഐസക് ന്യൂ~
ട്ടനു ചെറുപ്പത്തില്഼ ഒരിക്കല്഼ ഈ സംശയം ഉണ്ടായി. തോട്ടത്തിലിരുന്ന
#ന്യൂട്ടന്഼റെ
മുന്പില്഼ത്തന്നെ ഒരാപ്പിള്഼ പഴം വീണു. ഉടനെ ആ കാഴ്ചയെക്കുറിച്ചായി ആ
ബാലന്഼റെ ചിന്ത. എന്തുകൊണ്ട് ആ പഴം കുത്തനെ ഭൂമിയില്഼ വീണു? മുകളി~
ലേക്കോ, വശങ്ങളിലേക്കോ പോയില്ല? ന്യൂട്ടന്഼ കുറേക്കാലം അതിനെക്കുറിച്ചു഼
തന്നെ ചിന്തിച്ചു. ഒടുവില്഼ അദ്ദേഹം തന്നെ അതിനുളള ഉത്തരവും കണ്ടു
പിടിച്ചു."</p>

<p>	"എന്തായിരുന്നു സാര്഼ ആ ഉത്തരം?" മനോജ് ഉടന്഼ ചോദിച്ചു.</p>

<p>	"പറയാം. ഉപരിതലത്തുളള മുഴുവന്഼ വസ്തുക്കളെയും ഭൂമി അതിന്഼റെ
കേന്ദ്രത്തിലേക്കു വലിച്ചുകൊണ്ടേയിരിക്കുന്നു. അതിനാലാണു വസ്തുക്കള്഼
താഴെ വീഴുന്നത്. ഭൂമിയുടെ ഈ ആകര്഼ഷണശക്തിക്കു ഭൂഗുരുത്വബലം
എന്നു പറയുന്നു." ഹെഡ്മാസ്ററര്഼ വിവരിച്ചു.</p>

<p>-117-</p>

<p>	"വസ്തുക്കളെ ഭൂമി അതിന്഼റെ കേന്ദ്രത്തിലേക്കു വലിക്കുന്നതെങ്ങനെ~
യാണു സാര്഼? ഭൂമി ഇങ്ങനെ വലിക്കുന്നതു നമുക്കു കാണാന്഼ സാധിക്കുന്നി~
ല്ലല്ലോ? മനോജിനു വീണ്ടും പല സംശയങ്ങളും ഉണ്ടായി.</p>

<p>	ഹെഡ്മാസ്ററര്഼ വിവരിച്ചു. "ഭൂമിയുടെ ആകര്഼ഷണശക്തി നമുക്കു
കാണാന്഼ കഴിയില്ല. ആ ശക്തിയുടെ ഫലം ആണു നമ്മള്഼ കാണുന്നത്. വൈ~
ദ്യുതി നമുക്കു കാണാന്഼ കഴിയുന്നില്ല. വിളക്കു കത്തുന്നതും യന്ത്രം 
#കറങ്ങു~
ന്നതും നമുക്കു കാണാം. അതുപോലെ ഭൂമിയുടെ ആകര്഼ഷണം നമുക്കു
കാണാന്഼ പററുന്നില്ല. ആ ശക്തിയുടെ ഫലമായി വസ്തുക്കള്഼ കുത്തനെ ഭൂമി~
യിലേക്കു പതിക്കുന്നതു മാത്രം നമ്മള്഼ കാണുന്നു."</p>

<p>-123-</p>

<p>		 പാഠം 26</p>

<p>		പരീക്ഷ</p>

<p>	കുരുവംശത്തിലെ രാജകുമാരന്഼മാര്഼ ആയിരുന്നു കൌരവരും
പാണ്ഡവരും. അവര്഼ ജ്യോഷ്ഠന്഼റെയും അനുജന്഼റെയും മക്കളായിരുന്നു.
പാണ്ഡവരില്഼ മൂത്തയാളായിരുന്നു യുധിഷ്ഠിരന്഼. കൌരവരില്഼ മൂത്തയാള്഼
സുയോധനനും. അവര്഼ ഒരുമിച്ചാണു പഠിച്ചതും വളര്഼ന്നതും. പാണ്ഡവരെയും
കൌരവരെയും ആയുധവിദ്യ അഭ്യസിപ്പിച്ചതു ദ്രോണാചാര്യരായിരുന്നു.</p>

<p>	ഒരിക്കല്഼ തന്഼റെ ശിഷ്യര്഼ക്ക് അസ്ത്രവിദ്യയിലുളള സാമര്഼ഥ്യം
# പ഼രീ~
ക്ഷിക്കാന്഼ ദ്രോണര്഼ തീരുമാനിച്ചു. മരം കൊണ്ടുണ്ടാക്കിയ കിളിയെ ഒരു 
#വൃക്ഷ~
ത്തിന്഼റെ കൊന്പിന്഼റെ വച്ചിരുന്നു. അതിന്഼റെ തല അന്പെയ്തു മുറിക്കണം.
അതായിരുന്നു പരീക്ഷ.</p>

<p>-124-</p>

<p>	ദ്രോണര്഼ ശിഷ്യരെ ഓരോരുത്തരെയായി വിളിച്ചു. ആദ്യം യുധിഷ്ഠിരന്
ആയിരുന്നു പരീക്ഷ. യുധിഷ്ഠിരന്഼ അന്പും വില്ലും എടുത്തു ലക്ഷ്യം
നോക്കിനിന്നു. ഗുരു ചോദിച്ചു.</p>

<p>	"നീ കിളിയെ കാണുന്നുണ്ടോ?"</p>

<p>	"കാണുന്നുണ്ടു ഗുരോ". യുധിഷ്ഠിരന്഼ പറഞ്ഞു.</p>

<p>	"മരത്തെയും എന്നെയും നിന്഼റെ സഹോദരന്഼മാരെയും കാണുന്ന~
ണ്ടോ?" ഗുരു വീണ്ടും ചോദിച്ചു.</p>

<p>	"ഉണ്ട്." യുധിഷ്ഠിരന്഼ മറുപടി പറഞ്ഞു.</p>

<p>	"ശരി, നീ മാറിനില്഼ക്ക്. ഇനി സുയോധനന്഼ വരട്ടെ." ദ്രോണാചാര്യര്഼
പറഞ്ഞു.</p>

<p>	ഉടനെ സുയോധനന്഼ ഉത്സാഹത്തോടെ അന്പും വില്ലും എടുത്ത് ഉന്നം
നോക്കിനിന്നു. ആചാര്യന്഼ ആ കുട്ടിയോടും അതേ ചോദ്യങ്ങള്഼ ചോദിച്ചു.</p>

<p>	സുയോധനന്഼ മറുപടി പറഞ്ഞു.</p>

<p>	"ഗുരോ, മരക്കൊന്പില്഼ ഇരിക്കുന്ന കിളിയെയും അങ്ങയെയും സഹോ~
ദരന്഼മാരെയും എനിക്കു നന്നായി കാണാം."</p>

<p>	ഗുരു സുയോധനനെയും മാററി നിര്഼ത്തി. അടുത്തതു ഭീമനായിരുന്നു.
അയാള്഼ ധൃതിയില്഼ വില്ലു കൈക്കലാക്കി. അന്പെടുത്തു ലക്ഷ്യം നോക്കി.
ദ്രോണര്഼ ചോദ്യങ്ങള്഼ ആവര്഼ത്തിച്ചു.</p>

<p>	ഭീമന്഼ പറഞഞു. "ഗുരോ, പച്ചിലകള്഼ക്കിടയില്഼ ഇരിക്കുന്ന കിളിയെ
എനിക്കു ഭംഗിയായി കാണം. മാത്രമല്ല, അങ്ങയെയും സഹോദരന്മാരെയും
കൂടി ഞാന്഼ കാണുന്നു."</p>

<p>	"കൊളളാം. നീയും മാറി നില്഼ക്ക്." അദ്ദേഹം അയാളോടു പറഞ്ഞു.
പല ശിഷ്യരെയും ദ്രോണാചാര്യര്഼ അങ്ങനെ പരീക്ഷിച്ചു മാററി നിര്഼ത്തി.</p>

<p>	അര്഼ജുനന്഼റെ ഊഴം വന്നു. അര്഼ജുനന്഼ സാവധാനം വില്ലു കുലച്ച്,
അന്പെടുത്തു ലക്ഷ്യം നോക്കിനിന്നു. അപ്പോള്഼ ദ്രോണര്഼ ചോദിച്ചു.</p>

<p>	"അര്഼ജുനാ, നീ കിളിയെ കാണുന്നുണ്ടോ?"</p>

<p>	"ഇല്ല ഗുരോ, അതിന്഼റെ കഴുത്തു മാത്രമേ ഞാന്഼ കാണുന്നുളളു."
അര്഼ജുനന്഼ പറഞ്ഞു.</p>

<p>-125-</p>

<p>"ശരി, അസ്ത്രം പ്രയോഗിക്കൂ." ആചാര്യര്഼ നിര്഼ദേശിച്ചു.അര്഼ജുനന്഼
#അന്പെയ്തു
കിളിയുടെ തല താഴെ വീഴ്ത്തി.</p>

<p>	കണ്ടു നിന്നവര്഼ ആഹ്ലാദിച്ചു കൈയടിച്ചു. ഗുരു തന്഼റെ സമര്഼ഥനായ
ശിഷ്യനെ അഭിനന്ദിച്ചു,എല്ലാവരോടുമായി ദ്രോണാചാര്യര്഼ ഇപ്രകാരം പറഞ്ഞു.</p>

<p>	"ഒരു വില്ലാളിയുടെ ശ്രദ്ധ മുഴുവ഼ന്഼ അവന്഼റെ ലക്ഷ്യത്തില്഼ 
#മാത്രമായി~
രിക്കണം. അര്഼ജുനന്഼ ഒഴികെ മററാര്഼ക്കും ലക്ഷ്യം കണ്ടെത്താന്഼
#കഴിഞ്ഞില്ല.
ലക്ഷ്യത്തില്഼ മാത്രം ശ്രദ്ധിക്കുന്നവന്഼ എവിടെയും വിജയിക്കും."</p>

<p>-128-</p>

<p>		പാഠം 27</p>

<p>	    വാര്഼ത്തകള്഼, വര്഼ത്തമാനങ്ങള്഼</p>

<p>	അകലെയുളള ഒരാളെ ഒരു കാര്യം അറിയിക്കണം. എന്താണു മാര്഼ഗം?
എഴുത്തയയ്ക്കാം. എങ്ങനെയാണ് എഴുത്തയയ്ക്കുന്നതെന്നു നിങ്ങള്഼ക്ക~
റിയാമോ?</p>

<p>	തപാലാഫീസു മുഖേനയാണ് എഴുത്തയയ്ക്കുന്നത്. അവിടെ നിന്നും
കാര്഼ഡ്, ഇന്഼ലന്഼ഡ്, കവര്഼, സ്ററാന്പ് എന്നിവ വാങ്ങാം. കുറ഼ച്ചു
#മാത്രം എഴുതാ~  
നുളളപ്പോള്഼ കാര്഼ഡ് ഉപയോഗിക്കാം. അതിനാണ് ഏററവും വിലക്കുറവ്. ഇന്഼ല~
ഡില്഼ എഴുതുന്പോള്഼ അതുതന്നെ മടക്കി ഒട്ടിച്ചു പുറത്തു മേല്഼വിലാസം
#എഴു~
താം. കവറില്഼ ആണെങ്കില്഼ എഴുത്തു പ്രത്യേകം കടലാസില്഼ എഴുതി
#വയ്ക്കാം.
കവറിന്഼റെ പുറത്താണു മേല്഼വിലാസം എഴുതേണ്ടത്. കത്തിന്഼റെ ഭാരത്തിനനു~
സരിച്ചു സ്ററാന്പ് ഒട്ടിക്കണം. പല വിലയ്ക്കുളള സ്ററാന്പുകള്഼ ഉണ്ട്.
#മഹാന്഼മാരു~
ടെയും, സ്മാരകങ്ങളുടെയും പക്ഷികളുടെയുംമററും ചിത്രങ്ങള്഼ ഉളളസ്ററാന്പു~
കള്഼ക്കു നല്ല ഭംഗിയാണ്. വിദേശങ്ങളിലേക്കു കത്തയയ്ക്കുവാന്഼ കൂടുതല്഼ വി~
ലയുളള സ്ററാന്പുകള്഼ വേണം.</p>

<p>-129-</p>

<p>	കിട്ടേണ്ട ആളിന്഼റെ മേല്഼വിലാസം എഴുതി കത്തു 
#തപാല്഼പ്പെട്ടിയില്഼
ഇട്ടാല്഼ മതി. എഴുത്തുപെട്ടികള്഼ നിങ്ങള്഼ കണ്ടിരിക്കും. തപാലാഫീസിനു
മുന്നിലും, ചില പൊതു സ്ഥലങ്ങളിലും അവ വച്ചിട്ടുണ്ട്. തപാല്഼ ജോലിക്കാര്഼
നിശ്ചിത സമയത്തു പെട്ടിതുറന്നു കത്തുകള്഼ എടുത്തുകൊളളും. രണ്ടോ
മൂന്നോ ദിവസം കൊണ്ട് അവ മേല്഼വിലാസക്കാരനു കിട്ടും. വിദേശത്താ~
ണെങ്കില്഼ കുറച്ചുകൂടി താമസിക്കും.</p>

<p>-130-</p>

<p>	അത്യാവശ്യകാര്യങ്ങള്഼ വളരെ വേഗത്തില്഼ അറിയിക്കാന്഼ വേറെ 
#മാര്഼ഗങ്ങ~
ളുണ്ട്. കന്പിയടിക്കുകയാണ് ഒരു വഴി. അറിയിക്കേണ്ട കാര്യം വളരെ ചുരുക്കി
എഴുതി കന്പിയാഫീസില്഼ കൊടുത്താല്഼ മതി. മണിക്കൂറുകള്഼ക്കുളളില്഼
സന്ദേശം മേല്഼വിലാസക്കാരനു കിട്ടും. ഇതിന് എഴുത്തയയ്ക്കുന്നതിനെക്കാള്഼
ചെലവു കൂടുതലാണ്.</p>

<p>	ദൂരെയുളള ആളുമായി നേരിട്ടു സംസാരിക്കാനുളള മാര്഼ഗമാണ് ടെലി~
ഫോണ്഼. ഇതിനു രണ്ടു സ്ഥലത്തും ടെലിഫോണ്഼ സ്ഥാപിച്ചിരിക്കണം.
സംസാരിക്കുന്ന ആളിന്഼റെ രൂപം കാണാവുന്ന ടെലിഫോണുകളും ഇപ്പോള്഼
ചില രാജ്യങ്ങളിലുണ്ട്.</p>

<p>-131-</p>

<p>	ടെലിഗ്രാഫിലും ടെലിഫോണിലും സന്ദേശം അയയ്ക്കുന്നതു ലോഹ~
കന്പികളിലൂടെയാണ്.കന്പിയിലൂടെ സഹായം ഇല്ലാതെയും വര്഼ത്തമാനങ്ങള്഼
കൈമാറാം. കന്പിയില്ലാക്കന്പിയാണ് ആ മാര്഼ഗം. ചലിച്ചുകൊണ്ടിരിക്കുന്ന
വാഹനങ്ങളില്഼ നിന്നുപോലും സന്ദേശം അയയ്ക്കാന്഼ ഈ രീതി
സഹായിക്കുന്നു.</p>

<p>	പൊതുജനങ്ങള്഼ക്കു വാര്഼ത്തകള്഼ എത്തിച്ചു കൊടുക്കുന്നതു വര്഼ത്ത~
മാനപ്പത്രങ്ങളാണ്. ഩാടിന്഼റെ നാനാഭാഗങ്ങളില്഼ നിന്നും വിദേശങ്ങളില്഼
നിന്നുമൊക്കെ വാര്഼ത്തകള്഼ ശേഖരിക്കുന്നു. പിന്നീട് അവ കടലാസില്഼അച്ച~
ടിക്കുന്നു. അച്ചടിച്ച പത്രങ്ങള്഼ എല്ലാ ഭാഗത്തും എത്തിക്കുന്നു.</p>

<p>-132-</p>

<p>	വാര്഼ത്താവിതരണ രംഗത്തു നാം വളരെ പുരോഗതി നേടിക്കഴിഞ്ഞു.
ലോകത്തിന്഼റെ എല്ലാ ഭാഗത്തും ഒേര സമയം വാര്഼ത്തകള്഼ എത്തിക്കുവാന്഼
ഇന്നു നമുക്കു കഴിയും. റേഡിയോയും ടെലിവിഷനും നമ്മെ അതിനു സഹാ~
യിക്കുന്നു. റേഡിയോയിലൂടെ നമുക്കു വാര്഼ത്തകളും വര്഼ത്തമാനങ്ങളും കേള്഼~
ക്കാന്഼഼കഴിയുന്നു. ടെലിവിഷനില്഼, സംഭവങ്ങള്഼ നടക്കുന്നത് അതേപടി കാണാ~
നും സംഭാഷണങ്ങളും വിവരങ്ങളും കേള്഼ക്കാനും കഴിയും.</p>

<p>-135-</p>

<p>		 പാഠം 28</p>

<p>	     തോണിക്കാരന്഼</p>

<p>	കേളു ഒരു പാവപ്പെട്ട തോണിക്കാരന്഼ ആയിരുന്നു. കടത്തു തോണി തു~
ഴഞ്ഞാണ് അയാള്഼ ജീവിച്ചിരുന്നത്. വളരെ കുറച്ചു മാത്രം സംസാരിക്കുന്ന
സ്വഭാവക്കാരനായിരുന്നു അയാള്഼.</p>

<p>	ഒരു ദിവസം ഒരു പണ്ഡിതന്഼ കേളുവിന്഼റെ വളളത്തില്഼ കയറി. തന്നെ~
ക്കാള്഼ അറിവുളളവര്഼ ആരുമില്ല എന്നായിരുന്നു ആ പണ്ഡിതന്഼റെ വിചാരം.
അദ്ദേഹം കേളുവിനോടു പലതും ചോദിച്ചു. ചില ചോദ്യങ്ങള്഼ക്കു കേളു ഉത്തരം
പറഞ്ഞു. അയാള്഼ക്കു വലിയ അറിവൊന്നുമില്ലെന്നു പണ്ഡിതനു തോന്നി.</p>

<p>-136-</p>

<p>	കേളുവിനെ ഒന്നു കളിയാക്കണമെന്ന് അദ്ദേഹം തീരുമാനിച്ചു. പണ്ഡി~
തന്഼ ചോദിച്ചു.</p>

<p>	"താന്഼ ശാസ്ത്രങ്ങള്഼ പഠിച്ചിട്ടുണ്ടോ?"</p>

<p>	"ഇല്ല." കേളു ഉത്തരം പറഞ്ഞു.</p>

<p>	"ശാസ്ത്രങ്ങള്഼ പഠിച്ചിട്ടില്ലേ? എന്നാല്഼ തന്഼റെ ആയുസ്സിന്഼റെ
#കാല്഼
ഭാഗം നഷ്ടപ്പെട്ടല്ലോ!" പണ്ഡിതന്഼ പറഞ്ഞു.</p>

<p>	"തനിക്കു പുരാണങ്ങള്഼ അറിയാമോ?" പണ്ഡിതന്഼ ചോദിച്ചു.</p>

<p>	"ഇല്ല."അയാള്഼ മറുപടി നല്഼കി.</p>

<p>	"മോശം, മോശം. ഇതൊന്നും അറിയാതെ എങ്ങനെ ജീവിക്കും? കഷ്ടം!
തന്഼റെ ആയുസ്സിന്഼റെ പകുതി ഭാഗം നഷ്ടപ്പെട്ടല്ലോ." പണ്ഡിതന്഼ കുലുങ്ങി~
ച്ചിരിച്ചുകൊണ്ടു പറഞ്ഞു.</p>

<p>-137-</p>

<p>	വളളം നീങ്ങിക്കൊണ്ടേയിരുന്നു. കരയിലെത്താന്഼ കുറെ ദൂരം ക഼ൂടി~
യുണ്ട്. ആകാശം കറുത്തിരുണ്ടു. കാററു വീശിത്തുടങ്ങി. മഴയുടെ ആരംഭം 
#ആണെ~
ന്നു കേളുവിനു മനസ്സിലായി. പണ്ഡിതന്഼ ഇതൊന്നും ശ്രദ്ധിച്ചില്ല. അപ്പോഴും
അദ്ദേഹം കേളുവിനോടു പലതും ചോദിച്ചുകൊണ്ടേയിരുന്നു.</p>

<p>	"തനിക്ക് എഴുത്തും വായനയും അറിയാമോ?" പണ്ഡിതന്഼ വീണ്ടും
ചോദിച്ചു. അതിനും കേളുവിന്഼റെ മറുപടി `ഇല്ല' എന്നായിരുന്നു.</p>

<p>	"കഷ്ടം! കഷ്ടം!' അങ്ങനെയാണെങ്കില്഼ തന്഼റെ ആയുസ്സിന്഼റെ 
#മുക്കാല്഼
പങ്കും പാഴായിപ്പോയി." പണ്ഡിതന്഼ പറഞ്ഞു.</p>

<p>	കാററിനു ശക്തി കൂടി. ഇടിയും മിന്നലും ഉണ്ടായി.</p>

<p>മഴപെയ്തു തുടങ്ങി. വെളളം കാററില്഼പ്പെട്ട് ഉലഞ്ഞുകൊണ്ടിരുന്നു. 
#വളളത്തില്഼
വെളളം കയറിത്തുടങ്ങി. വളളം മറിയാതിരിക്കാന്഼ കേളു പാടുപെടുന്നുണ്ടായി~
രുന്നു. അതിനിടയില്഼ അയാള്഼ പണ്ഡിതനോട഼ു ചോദിച്ചു.</p>

<p>-138-</p>

<p>	"അങ്ങേയ്ക്കു നീന്താന്഼ അറിയാമോ?"</p>

<p>	"ഇല്ല. ആ ശാസ്ത്രം എനിക്കു വശമില്ല." പണ്ഡിതന്഼ പറഞ്ഞു.</p>

<p>	"അയ്യോ! അങ്ങേയ്ക്കു നീന്താന്഼ അറിഞ്ഞുകൂടേ? എങ്കില്഼ 
#അങ്ങയുടെ
മുഴുവന്഼ ആയുസ്സും ഇതാ നഷ്ടപ്പെടാന്഼ പോകുന്നു."</p>

<p>	പണ്ഡിതന്഼ പേടിച്ചു നിലവിളിച്ചു.
	"രക്ഷിക്കണേ,....രക്ഷിക്കണേ!"</p>

<p>അപ്പോഴേക്കും വളളം മുങ്ങി. പണ്ഡിതന്഼ വെളളം കുടിച്ചു തുടങ്ങി. 
#മുങ്ങി~
പ്പൊങ്ങുന്ന പണ്ഡിതനെ കേളു ഒരു വിധം കരയ്ക്കെത്തിച്ചു.</p>

<p>-143-</p>

<p>		 പാഠം 30</p>

<p>	സലിം കുളികഴിഞ്ഞു വന്നു. അവന്഼റെ ശരീരത്തില്഼ അങ്ങിങ്ങായി
ചൊറിഞ്ഞു തടിച്ച പാടുകള്഼ കാണാം. അതു കണ്ട് ഉമ്മ ചോദിച്ചു.</p>

<p>ഉമ്മ: നിന്഼റെ ദേഹത്താകെ ഈ പാടുകള്഼ എങ്ങനെ വന്നു മോനേ?</p>

<p>സ഼ലിം: കൊതുകു കടിച്ചതാണുമ്മാ. എന്തൊരു ശല്യമാണ്! ശരിക്ക് ഉറങ്ങാന്഼
      പോലും കഴിഞ്ഞില്ല.</p>

<p>-144-</p>

<p>ഉമ്മ: ശരിയാണ്. ഈയിടെയായി കൊതുകിന്഼റെ ഉപദ്രവം വളരെ
      കൂടുതലാണ്.</p>

<p>സലിം: അത് എന്തുകൊണ്ടാണുമ്മാ?</p>

<p>ഉമ്മ: റോഡരികിലെ ഓടയില്഼ വെളളം കെട്ടിക്കിടക്കുന്നതു നീ കണ്ടിട്ടില്ലേ?
     അതുകൊണ്ടാണു കൊതുകുകള്഼ പെരുകുന്നത്. ആ വെളളം നിറയെ
     കൊതുകിന്഼റെ മുട്ടകളാണ്.</p>

<p>സലിം: അവിടെയാണ് ആളുകള്഼ ചപ്പുചവറുകള്഼് പോലും കൊണ്ടിടുന്നത്.
      അതുകൊണ്ടല്ലേ ഉമ്മാ, വെളളം കെട്ടിക്കിട഼ക്കുന്നത്?</p>

<p>ഉമ്മ: അതേ. കെട്ടിക്കിടക്കുന്ന വെളളത്തില്഼ കൊതുകുകള്഼ മുട്ടയിട്ടു പെരുകു~
     ന്നു. അവ പല രോഗങ്ങളും പരത്തുന്നു. ആളുകള്഼ ഇതു മനസ്സിലാ~
     ക്കുന്നില്ല.</p>

<p>സലിം: പൊതുസ്ഥലങ്ങളില്഼ ചപ്പും ചവറും കൊണ്ടു ചെന്നിടുന്നതുകുററമല്ലേ?</p>

<p>ഉമ്മ: അതേ അതേ. പഴത്തൊലിയും കടലാസും ഉപയോഗമില്ലാത്ത പല
      വസ്തുക്കളും ആളുകള്഼ റോഡിലേക്കു വലിച്ചെറിയുന്നുണ്ട്. അവിടെ~
      ക്കിടന്ന് അവ ചീഞ്ഞളിഞ്ഞു രോഗാണുക്കള്഼ ഉണ്ടാവാം. ഈച്ചകളും
      വന്നു നിറയും.</p>

<p>സലിം: വല്ലാത്ത നാററവും ഉണ്ടാവുകയില്ലേ?</p>

<p>ഉമ്മ: ഉണ്ടാവും.അങ്ങനെ നമ്മുടെ പരിസരം ദുഷിക്കും. അന്തരീക്ഷം മലി~
     നമാവും. വായുവില്഼ രോഗാണുക്കള്഼ നിറയും. നമുക്കു രോഗവും പിടി~
     പെടും.</p>

<p>സലിം: വായുവില്഼ രോഗാണുക്കള്഼ നിറഞ്ഞാല്഼ നമുക്കെങ്ങനെയാണു രോഗം
       വരുന്നത്?</p>

<p>ഉമ്മ: ആ വായുവാണല്ലോ നമ്മള്഼ ശ്വസിക്കുന്നത്. അതു ശ്വസിക്കുന്പോള്഼ രോ~
      ഗാണുക്കള്഼ നമ്മുടെ ഉളളില്഼ കടക്കും. അങ്ങനെ നമുക്കു രോഗം
      പിടിപെടും.</p>

<p>സലിം: ചപ്പുചവറുകള്഼ വലിച്ചെറിയാതിരുന്നാല്഼ അന്തരീക്ഷം മലിനമാവുക~
      യില്ല. അല്ലേ ഉമ്മാ?</p>

<p>ഉമ്മ: അതു മാത്രം പോര. വാഹനങ്ങള്഼ പോകുന്പോള്഼ ഉണ്ടാകുന്ന പൊടിയും
     പുകയും നീ കണ്ടിട്ടില്ലേ?</p>

<p>സലിം: ഉണ്ട്.</p>

<p>ഉമ്മ: ആ പൊടിയും പുകയുമൊക്കെ നമ്മുടെ വായുവില്഼ തന്നെയാണ്
     കലരുന്നത്.</p>

<p>സലിം: അപ്പോള്഼, ഫാക്ടറികളില്഼ നിന്നു പുറത്തു വരുന്ന പുകയോ?</p>

<p>-145-</p>

<p>	അത് അന്തരീക്ഷത്തെ മലിനമാക്കുന്നില്ലേ?</p>

<p>ഉമ്മ:	ഉണ്ട്. അത് അന്തരീക്ഷത്തെ വളരെയേറെ മലിനമാക്കുന്നുണ്ട്.</p>

<p>സലിം: അങ്ങനെ സംഭവിക്കാതിരിക്കാന്഼ എന്തു ചെയ്യണം?</p>

<p>ഉമ്മ: ഫാക്ടറികള്഼ കഴിയുന്നതും ഒഴിഞ്ഞ സ്ഥലങ്ങളില്഼ സ്ഥാപിക്കണം.
     അവയുടെ പുകക്കുഴലുകള്഼ പൊക്കത്തില്഼ വയ്ക്കണം. ചുററുപാടുകളില്഼
     ധാരാളം ചെടികളും മരങ്ങളും വച്ചു പിടിപ്പിക്കണം. അപ്പോള്഼
     ജനങ്ങള്഼ക്കു ശ്വസിക്കാന്഼ ശുദ്ധ വായു കിട്ടും.</p>

<p>സലിം: അങ്ങനെയായാല്഼ പരിസരവും ചീത്തയാവില്ല. നമുക്കു രോഗവും വരില്ല.
       അല്ലേ, ഉമ്മാ.</p>

<p>ഉമ്മ: അതു മാത്രം പോര മോനെ. നമ്മള്഼ ഉപയോഗിക്കുന്ന വെളളത്തിലും
      അഴക്കുകള്഼ കലരാതെ നോക്കണം. </p>

<p>സലിം: അതു ശരിയാണ്. ശുദ്ധ ജലം മാത്രമേ കുടിക്കാവൂ എന്നു ഞാന്഼ പഠി~
       ച്ചിട്ടുണ്ട്.</p>

<p>ഉമ്മ: കുടിക്കാന്഼ മാത്രമല്ല, കുളിക്കാനും ശുദ്ധജലമേ ഉപയോഗിക്കാവൂ. നീ
      ഇന്നാളൊരു ദിവസം പുഴക്കര വരെ പോയിട്ട് കുളിക്കാതെ തിരിച്ചു വന്നി~
      ല്ലേ?</p>

<p>-146-</p>

<p>സലിം: അതു വെളളത്തില്഼ മത്സ്യങ്ങള്഼ ചത്തു പൊങ്ങിക്കിടന്നതുകൊ~
      ണ്ടാണ്. വെളളത്തിനു നാററവും ഉണ്ടായിരുന്നു.</p>

<p>ഉമ്മ: ഫാക്ടറിയിലെ മാലിന്യങ്ങള്഼ പുഴയിലേക്ക് ഒഴുക്കിവിട്ടതുകൊണ്ടാണ്
      അങ്ങനെ സംഭവിച്ചത്. അതുപോലെതന്നെ പാടങ്ങളിലും മററും കീട~
      നാശിനികള്഼ തളിക്കുന്നതുകൊണ്ടും വായുവും വെളളവും മലിനമാകാ~
      റുണ്ട്. ഇങ്ങനെ പരിസരം മലിനമായാല്഼ മനുഷ്യര്഼ക്കു മാത്രമല്ല 
      #സര്഼വ~
      ജീവജാലങ്ങള്഼ക്കും ആപത്തുണ്ടാകും.</p>

<p>സലിം: അതെങ്ങനെ തടയാം?</p>

<p>ഉമ്മ: കൂട്ടായി ശ്രമിച്ചാല്഼ നമുക്കു പരിസരം സംരക്ഷിക്കാനാവും. ഩാം
     #നമ്മുടെ
     പരിസരം വൃത്തിയാക്കിയിടണം. പൊതുസ്ഥലങ്ങള്഼ വൃത്തികേടാക്കാ~
     തെയിരിക്കാനും ശ്രദ്ധിക്കണം. എല്ലാവരും ആ രീതിയില്഼ പെരുമാറി~
     യാല്഼ പരിസരം മലിനമാവുകയില്ല. അതുതന്നെയാണ് അതിന്഼റെ
     സംരക്ഷണവും.</p>

<p>-149-</p>

<p>		 പാഠം 31</p>

<p>		 സൂര്യനെ പിടിച്ചുകെട്ടി</p>

<p>	പണ്ടു പണ്ടു മഹേന്ദ്രന്഼ എന്നൊരു രാജാവു കേദാര രാജ്യം ഭരിച്ചിരു~
ന്നു.അദ്ദേഹം തന്഼റെ പ്രജകളെ വളരെയധികം സ്നേഹിച്ചിരുന്നു. രാജാവിനു
സമര്഼ഥനായ ഒരു മന്ത്രി ഉണ്ടായിരുന്നു.</p>

<p>	കേദാര രാജ്യത്തിലെ ഒരു പ്രധാന നദിയായിരുന്നു അമൃതനദി. അതു
കിഴക്കോട്ട് ഒഴുകിയിരുന്നു. കേദാര രാജ്യത്തിന്഼റെ കിഴക്കുഭാഗത്തുളള ഒരു
രാജ്യമായിരുന്നു പൂര്഼പുരം. രണ്ടു രാജ്യക്കാരും അമൃതനദിയിലെ വെളളം
ഉപയോഗിച്ചിരുന്നു.
	
	ഒരിക്കല്഼ ഒരു കടുത്ത വേനല്഼ക്കാലം വന്നു. ജലാശയങ്ങള്഼ മിക്കതും
വററി. അമൃതനദിയില്഼ മാത്രം കുറച്ചു വെളളം ഉണ്ടായിരുന്്നു.</p>

<p>	ഒരു ദിവസം രാജാവും മന്ത്രിയുംകൂടി ജനങ്ങളുടെ അവസ്ഥ നേരില്഼~
ക്കണ്ടു മനസ്സിലാക്കാന്഼ നാടുചുററിനടക്കുകയായിരുന്നു. അവര്഼ അമൃതനദി~
യുടെ കരയില്഼ എത്തി. നദിയിലേക്കു നോക്കിക്കൊണ്ടു രാജാവു പറഞ്ഞു.</p>

<p>-150-</p>

<p>	"മന്ത്രീ, നദിയില്഼ വെളളം കുറച്ചേയുളളൂ. അതും പൂര്഼വപുരത്തേക്ക്
ഒഴുകിപ്പോകുന്നു. നമുക്ക് ഇവിടെ ഒരു അണകെട്ടി വെളളം തടഞ്ഞുവയ്ക്കണം.
എന്നാല്഼ നമ്മുടെ രാജ്യക്കാര്഼ക്കു ബുദ്ധിമുട്ടുണഅടാവില്ല."</p>

<p>	 മന്ത്രി പറഞ്ഞു. "തിരുമേനീ, അതു പാടില്ല.
#പൂര്഼വപുരത്തുകാര്഼ക്കും
ഇപ്പോള്഼ ഈ നദിയിലെ വെളളമേയുളളൂ."</p>

<p>	"അതു നമുക്കറിയണ്ട. നമുക്കു നമ്മുടെ പ്രജകളുടെ ക്ഷേമം
നോക്കണം." രാജാവു പറഞ്ഞു.</p>

<p>	മന്ത്രി വീണ്ടും അപേക്ഷിച്ചു. "മഹാരാജാവേ, അതു ന്യായമാണോ?
വെളളവും വെളിച്ചവും വായുവും ആരുടെയും സ്വന്തമല്ലല്ലോ? അമൃത നദിയിലെ 
വെളളത്തിനു നമുക്കും പൂര്഼വപുരത്തുകാര്഼ക്കും അവകാശമുണ്ട്. അതുകൊണ്ടു
നദിയുടെ ഗതി തടയാന്഼ പാടില്ല. മാത്രമല്ല, വേറെ ഒരാപത്തുമുണ്ട്."</p>

<p>	"എന്താണത്?" രാജാവു ചോദിച്ചു.</p>

<p>	"അണ കെട്ടിയാല്഼ ഈ ഭാഗത്തുളള നെല്഼പ്പാടങ്ങളും വീടുകളുമൊക്കെ
വെളളത്തില്഼ മുങ്ങും." മന്ത്രി പറഞ്ഞു.</p>

<p>	"അതിനെപ്പററി നമുക്കു പിന്നെ ആലോചിക്കാം. അണ കെട്ടാന്഼ നാം
തീരുമാനിച്ചു കഴിഞ്ഞു." രാജാവു പറഞ്ഞു.</p>

<p>	ശാഠ്യക്കാരനായ രാജാവു മന്ത്രിയുടെ വാക്കു ചെവിക്കൊണ്ടില്ല.</p>

<p>	അണകെട്ടാന്഼ രാജാവു കല്഼പ്പിച്ചു. അണക്കെട്ട് ഉയര്഼ന്നു.
# പൂര്഼വപുരത്തു~
കാര്഼ക്കു കുടിക്കാന്഼ പോലും ജലം കിട്ടാതായി. കേദാര രാജ്യക്കാരും 
#വിഷമിച്ചു.
അണക്കെട്ടിനടുത്തുളള അവരുടെ പാടങ്ങളും വീടുകളും ഒക്കെ വെളളത്തിലായി.
രണ്ടു രാജ്യക്കാരും കേദാര രാജ്യത്തിലെ മന്ത്രിയെക്കണ്ടു 
#സങ്കടമുണര്഼ത്തിച്ചു.
മന്ത്രി ആലോചിച്ചു. അണ പൊട്ടിക്കണം. എന്നാല്഼ എല്ലാ പ്രശ്നങ്ങളും 
#തീരും.
പക്ഷേ രാജാവു സമ്മതിക്കുകയില്ല. എങ്ങനെയെങ്കിലും ഒരു വഴി കണ്ടു
പിടിക്കണം.</p>

<p>-151-</p>

<p>	അക്കാലത്ത് ഇന്നത്തെപ്പോലെ ഘടികാരങ്ങള്഼ ഉണ്ടായിരുന്നില്ല. കൊ~
ട്ടാരത്തില്഼ ഒരു നാഴികവട്ട ഉണ്ടായിരുന്നു. അതുനോക്കി മണിയടിക്കാന്഼ ഒരു
# പരി~
ചാരകനെ ഏര്഼പ്പെടുത്തിയിരുന്നു. കാലത്തും, ഉച്ചയ്഼ക്കും, വൈകുന്നേരവും
അയാള്഼ മണിമുഴക്കും. കൊട്ടാരത്തിലെ പ്രഭാതമണി കേട്ടാണു രാജാവും ജനങ്ങ~
ളും ഉണര്഼ന്നിരുന്നതും ജോലി തുടങ്ങിയിരുന്നതും.</p>

<p>	അന്നു സന്ധ്യ കഴിഞ്ഞപ്പോള്഼ മന്ത്രി മണിയടിക്കുന്ന ജോലിക്കാരനെ
വിളിച്ചു വരുത്തി. പ്രഭാതത്തില്഼ അടിക്കേണ്ട മണി അര്഼ധരാത്രിയില്഼ 
#അടിക്കാന്഼
നിര്഼ദേശിച്ചു. പരിചാരകന്഼ അതനുസരിച്ചു. അര്഼ധ രാത്രിയായപ്പോള്഼ 
#പ്രഭാതത്തി~
ന്഼റെ മണി മുഴങ്ങി. രാജാവും ജനങ്ങളും ഉണര്഼ന്നു. എങ്ങും 
#കൂരിരുട്ട്. സൂര്യന്഼
ഉദിച്ചിരുന്നില്ല. രാജാവു മന്ത്രിയെ വിളിച്ചു ചോദിച്ചു.</p>

<p>	"മന്ത്രീ, പുലര്഼ച്ചയ്ക്കുളള മണി മുഴങ്ങിക്കഴിഞ്ഞു. സൂര്യന്഼
# ഉദിച്ചിട്ടില്ല.
എന്തുപററി?"</p>

<p>	മന്ത്രി പറഞ്ഞു. "തിരുമേനീ, പൂര്഼വപുരത്തുകാര്഼ 
#കുഴപ്പമുണ്ടാക്കിയിരി~
ക്കുകയാണ്."</p>

<p>	"എന്തു കുഴപ്പമാണ് അവര്഼ ഉണ്ടാക്കിയിരിക്കുന്നത്?" രാജാവു 
#ചോദിച്ചു.</p>

<p>-152-</p>

<p>	"സൂര്യന്഼ കിഴക്കു ദിക്കിലാണല്ലോ ഉദിക്കുന്നത്. അവരുടെ 
#രാജ്യംവിട്ട്
ഇങ്ങോട്ടു വരാതെ അവര്഼ സൂര്യനെ പിടിച്ചു കെട്ടിയിരിക്കുന്നു." മന്ത്രി
#താഴ്഼മയോ~
ടെ അറിയിച്ചു.</p>

<p>	രാജാവു കോപത്തോടെ ചോദിച്ചു. "സൂര്യനെ പിടിച്ചുകെട്ടാന്഼ അവര്഼~
ക്ക് എന്തവകാശം?"</p>

<p>	മന്ത്രി പറഞ്ഞു. "അമൃതനദിയെ തടങ്ങു നിര്഼ത്തിയതിനു പകരം വീട്ടു~
കയാണവര്഼. നദിയിലെ അണ പൊട്ടിച്ചാല്഼ അവര്഼ സൂര്യനെയും അഴിച്ചുവിട്ടേ~
ക്കും."</p>

<p>	രാജാവു ചിന്തിച്ചു. അദ്ദേഹത്തിനു തന്഼റെ തെററു ബോധ്യമായി. അണ~
മുറിച്ചു വിടാന്഼ ഉത്തരവിട്ടു. ജനങ്ങള്഼ അണ പൊട്ടിച്ചു. വെളളം 
# കിഴക്കോട്ട് ഒഴു~
കിത്തുടങ്ങി. അപ്പോഴേക്കും പതിവുപോെല സൂര്യന്഼ ഉദിച്ചുയര്഼ന്നു.</p>

<p>	</p>

<p></p>

<p>
		    
</p></body></text></cesDoc>