<cesDoc id="hin-w-dunia-news-01-05-24" lang="hin">
<cesHeader type="text">
<fileDesc>
<titleStmt>
<h.title>hin-w-dunia-news-01-05-24.txt</h.title>
<respStmt>
<respType>Electronic file created by</respType>
<respName>Department of Linguistics, Lancaster University</respName>
<respType>text collected by</respType>
<respName>Paul Baker, Celia Worth and Andrew Hardie</respName>
<respType>transferred into Unicode by</respType>
<respName>"Unicodify" software by Andrew Hardie</respName>
</respStmt>
</titleStmt>
<publicationStmt>
<distributor>UCREL</distributor>
<pubAddress>Department of Linguistics, Lancaster University, Lancaster, LA1 4YT, UK</pubAddress>
<availability region="WORLD"></availability>
<pubDate>03-08-24</pubDate>
</publicationStmt>
<sourceDesc>
<biblStruct>
<monogr>
<h.title>"Webdunia" internet news (www.webdunia.com), news stories collected on 01-05-24</h.title>
<h.author>Webdunia</h.author>
<imprint>
<pubPlace>Madhya Pradesh, India</pubPlace>
<publisher>Webdunia</publisher>
<pubDate>01-05-24</pubDate>
</imprint>
</monogr>
</biblStruct>
</sourceDesc>
</fileDesc>
<encodingDesc>
<projectDesc>Text collected for use in the EMILLE project.</projectDesc>
<samplingDesc>Simple written text only has been transcribed. Diagrams, pictures and tables have been omitted and their place marked with a gap element.
</samplingDesc>
<editorialDecl>
<conformance level="1"></conformance>
</editorialDecl>
</encodingDesc>
<profileDesc>
<creation>
<date>03-08-24</date>
</creation>
<langUsage>Hindi</langUsage>
<wsdUsage>
<writingSystem id="ISO/IEC 10646">Universal Multiple-Octet Coded Character Set (UCS).</writingSystem>
</wsdUsage>
<textClass>
<channel mode="w">print</channel>
<constitution type="composite"></constitution>
<domain type="public"></domain>
<factuality type="fact"></factuality>
</textClass>
<translations></translations>
</profileDesc>
<revisionDesc></revisionDesc>
</cesHeader>

<text>
<body>




<p>करुणानिधि ने शपथ ली</p>

<p>द्रविड़
मुन्नेत्र कषगम (द्रमुक) के अध्यक्ष और पूर्व मुख्यमंत्री एम.करुणानिधि को
बुधवार शाम नवगठित तमिलनाडु विधानसभा की सदस्यता की शपथ दिलाई गई।</p>

<p>मंगलवार को
सदन के पहले दिन करुणानिधि मौजूद नहीं थे। वे शाम साढ़े चार बजे अध्यक्ष
के कक्ष में पहुंच।े जहां उन्हें अस्थायी अध्यक्ष एम.अब्दुल लतीफ ने सदस्यता की
शपथ दिलाई।(वार्ता)</p>

<p> </p>

<p>सीडीएस की नियुक्ति में वायुसेना बाधक नहीं-टिपनिस</p>

<p>एयर चीफ
मार्शल ए.वाई. टिपनिस ने इस बात को पूरी तरह निराधार बताया कि वायुसेना
देश के चीफ ऑफ डिफेंस स्टाफ(सीडीएस)की नियुक्ति को रोकने का प्रयास कर
रही है। उन्होंने कहा- यद्यपि इस पद की संकल्पना को लेकर उनके कुछ पूर्वाग्रह
अवश्य हैं। </p>

<p>उन्होंने
कहा- यह प्रश्न ऐसा है जिस पर न केवल लोग अपनी राय अभिव्यक्त कर रहे हैं बल्कि वे
कुछ अनावश्यक भी कह रहे हैं, जो पूरी तरह निराधार है। वासुसेनाध्यक्ष एक
हफ्ते की आधिकारिक यात्रा पर यहाँ आए हैं। </p>

<p>चीफ ऑफ
डिफेंस स्टाफ के ताजा विवाद को लेकर अपनी प्रतिक्रिया में उन्होंने जोर देकर
कहा- वायुसेना ने अपनी तरफ से यह बात कभी नहीं की कि कौन चीफ ऑफ डिफेंस
स्टाफ होगा और कौन नहीं होगा। उन्होंने यह भी जोड़ा कि हमने अपनी तरफ से
किसी को अयोग्य भी नहीं कहा है। </p>

<p>टिपनिस का
यह बयान जलसेना के प्रमुख एडमिरल सुशीलकुमार से जुड़े विवादास्पद मामले को लेकर
आया है। इसमें कहा जा रहा है कि इस पद की दावेदारी से एडमिरल सुशीलकुमार ने
अपना नाम वापस ले लिया है।</p>

<p> </p>

<p>प्रेस परिषद में पाँच सांसद व छः संपादक भी</p>

<p>नवगठित
भारतीय प्रेस परिषद (पी.सी.आई) में पाँच सांसदों और छः संपादकों को भी
बतौर सदस्य नियुक्त किया गया है। </p>

<p>तीन वर्ष के
कार्यकाल वाली इस 28 सदस्यीय नई परिषद में सदस्य के रूप में नियुक्त संपादकों में
निकुंज आर. पटेल, जे.एस. दादरी, शीतलासिंह, राजीव कुमार अरोड़ा, आलोक मेहता
और हरी जयसिंह शामिल हैं।</p>

<p>इसके अलावा
सदस्य बनाए गए पाँच सांसदों में कमलनाथ, हरिन पाठक, प्रो. (श्रीमती) ए.के. प्रेमजाम,
राजीव शुक्ला और कपिल सिब्बल शामिल हैं। आधिकारिक तौर पर जारी प्रेस
विज्ञप्ति में यह जानकारी दी गई। </p>

<p>पूर्व प्रेस
परिषद की अवधि इस वर्ष मार्च में समाप्त हो जाने के बाद सूचना एवं प्रसारण
मंत्रालय द्वारा मंगलवार को 28 सदस्यीय नई प्रेस परिषद के गठन की अधिसूचना
जारी की गई थी। </p>

<p>न्यायमूर्ति
पी.बी. सावंत की अध्यक्षता में गठित नई परिषद के अन्य सदस्यों में संपादकों के अलावा
कामकाजी पत्रकारों के रूप में सुरेश अखौरी, विवेक सक्सेना, नारायण त्यागराजन,
गीतार्थ पाठक, सबीना इंद्रजीत, रघु राय और आर. वेंकटरमण को शामिल किया गया
है। समाचार पत्रों के प्रबंधन से जुड़े कुछ अन्य लोगों को भी परिषद का
सदस्य बनाया गया है, जिनमें विजय दरडा, आर. लक्ष्मीपति, विजय चौपड़ा, प्रताप टी. शाह,
सुनील डांग और सुशील झलानी प्रमुख हैं।</p>

<p> </p>

<p>चेचक से पाँच बच्चों की मौत</p>

<p>यद्यपि चेचक
के उन्मूलन का दावा किया जाता है लेकिन यहाँ से तेरह किलोमीटर दूर स्थित
आदिवासी ग्राम मानवी में चेचक से पाँच बच्चों की मौत की खबर मिली है। </p>

<p>इस बीमारी
के शिकार बच्चों की उम्र एक से तीन वर्ष के बीच बताई गई है। कुंजवन ग्राम
पंचायत के सरपंच नारायण शाह ने बताया कि जिले के मुख्य चिकित्सा अधिकारी
को सूचना दिए जाने के बाद डॉक्टरों का एक दल प्रभावित गाँव में पहुँच गया है। </p>

<p>सूत्रों के
अनुसार गाँव में कोई बीस बच्चे इस बीमारी से पीड़ित हैं जिनका इलाज किया जा रहा
है। इन सभी के स्वास्थ्य में सुधार हो रहा है।</p>

<p> </p>

<p>शब्बीर ने मुशर्रफ को न्यौतने का स्वागत किया</p>

<p>आल पार्टी
हुर्रियत कांफ्रंेस ने प्रधानमंत्री अटल बिहारी वाजपेयी के पाकिस्तान के सैन्य
शासक जनरल मुशर्रफ को वार्ता के निमंत्रण पर आज इंतजार करो और देखो की
नीति अपनाने का फैसला किया जबकि जम्मू-कश्मीर डेमोक्रेटिक फ्रीडम पार्टी ने
इसका स्वागत किया।</p>

<p>दोनों
पक्षों ने हालांकि कहा कि एकपक्षीय संघर्ष विराम को वापस लेने का कोई मतलब
नहीं है। हुर्रियत कांफ्रेस के अध्यक्ष प्रो. अब्दुल गनी बट ने वाजपेयी के जनरल
मुशर्रफ को वार्ता के निमंत्रण पर कहा.. हम इस मुद्दे पर कुछ कहने से पहले देखो
और इंतजार करो की नीति अपनाएंगे।</p>

<p>जम्मू कश्मीर
डेमोक्रेटिक फ्रीडम पार्टी के प्रमुख शब्बीर अहमद शाह ने कहा कि वाजपेयी का यह
साहसिक, समयानुकूल और स्वागत योग्य कदम है। उन्होंने कहा.. वे पहली बार
बैठक करेंगे और हमें अच्छे परिणाम की उम्मीद करनी चाहिए।</p>

<p>वार्ता में कश्मीर के
लोगों की भागीदारी के बारे में अहमद शाह ने कहा.. यह एक अच्छी शुरूआत है और
यदि बाद के चरण में कश्मीर के लोगों को शामिल किया जाता है तो अच्छा
होगा। उन्होंने हालांकि कहा कि एकपक्षीय संघर्ष विराम को वापस लेने से
कोई फर्क नहीं पड़ेगा।(वार्ता)</p>

<p>राजस्थान के आयुध डिपो में भीषण आग</p>

<p>पश्चिमी
राजस्थान में सूरतगढ़ छावनी के निकट सेना के विरधवाल आयुध डिपो में
गुरुवार दोपहर आग लग जाने के बाद आसपास के गांवों को खाली कराया जा रहा
है। धुंए के गुबार देखे जाने के साथ बमों के धमाकों की आवाज
करीब 17 कि.मी. दूर सूरतगढ़ तक सुनाई दे रही हैै।</p>

<p>सूरतगढ़ से
मिली सूचनाओं के अनुसार घटना के बाद डिपो के पास ही स्थित रायांवाली गांव
सहित आसपास के कई गांव खाली करा लिए गए हैं। करीब डेढ़ हजार लोग सूरतगढ़
आ भी गए है। अभी तक किसी जनहानि का समाचार नहीं हैै।</p>

<p>सूत्रों के
अनुसार डिपो में आग दोपहर 11 बजे बाद लगी। अभी इसके कारण का पता नहीं चल
पाया है। बमों के धमाकों को देखते हुए बीकानेर भटिंडा रेल मार्ग
और राष्ट्रीय राजमार्ग क्रमांक 15 पर यातायात रोक दिया गया है। रेललाइन इस
डिपो से करीब चार किमी दूर से गुजरती है। आसपास के अन्य मार्गों को भी
आम यातायात के लिए बंद कर दिया गया है और उस क्षेत्र को सेना के जवानों ने
अपने कब्जे में ले लिया है। सेना के वाहन आसपास के गांवोंं के लोगों
को सूरतगढ़ और अन्य स्थानों पर ले जा रहे हैं।</p>

<p>आग पर काबू
पाने के लिए सूरतगढ़, गंगानगर और हनुमानगढ़ के अलावा पड़ोसी राज्य पंजाब से भी
फायर ब्रिगेड बुलाए गए हैं। सेना और वायुसेना के दमकल दस्ते भी आग बुझाने
में जुटे हैं। अभी तक नागरिय क्षेत्र के करीब दो दर्जन फायर ब्रिगेड मौके पर
पहुंच चुके हैंै।</p>

<p>सेना के वरिष्ठ
अधिकारियों के साथ ही गंगानगर के जिला कलेक्टर और पुलिस अधीक्षक
भी मौके के लिए रवाना हो गए हैंै। (वार्ता)</p>

<p>प्रधानमंत्री वाजपेयी मनाली पहुँचे</p>

<p>प्रधानमंत्री
अटलबिहारी वाजपेयी एक सप्ताह के प्रवास पर गुरुवार को हिमाचल प्रदेश के कुल्लू
जिले के पर्यटन स्थल मनाली पहुँचे। </p>

<p>प्रधानमंत्री
को लेकर एव्रो विमान कुल्लू के भंुतर हवाई अड्डे पर दोपहर करीब पौने बारह बजे
उतरा। हवाई अड्डे पर राज्यपाल सूरजभान और मुख्यमंत्री प्रेम कुमार धूमल ने
उनकी आगवानी की।</p>

<p>वाजपेयी बाद
में हेलिकॉप्टर से मनाली रवाना हो गए जहाँ वह सासे हैलीपेड पर उतरे और सड़क
मार्ग से अपने फार्म हाऊस रवाना हो गए। मनाली में वाजपेयी का फिलहाल कोई सरकारी
कार्यक्रम निर्धारित नहीं है। (वार्ता)</p>

<p> </p>

<p>सीबीएसई का परीक्षा परिणाम आज</p>

<p>दिल्ली से
बाहर के क्षेत्रों का सीनियर स्कूल सर्टिफिकेट (एसएससी) की इस वर्ष की 12 वीं
कक्षा का परीक्षाफल शुक्रवार को घोषित किया जाएगा। दिल्ली क्षेत्र की 12वीं
कक्षा का परिणाम 28 मई को घोषित किया जाएगा।</p>

<p>सभी क्षेत्रों
का माध्यमिक परीक्षाफल (10वीं कक्षा) 31 मई को घोषित किया जाएगा। यह
घोषणा केन्द्रीय माध्यमिक शिक्षा बोर्ड (सीबीएसई) ने गुरुवार को की। (वार्ता)</p>

<p> </p>

<p>हुर्रियत ने स्वागत किया, आतंकियों ने चाल बताया</p>

<p>आल पार्टी
हुर्रियत कांफ्रेंस ने पाकिस्तान के सैन्य शासक जनरल परवेज मुशर्रफ को बातचीत
के लिए केंद्र सरकार के निमंत्रण भेजने के निर्णय का गुरुवार को स्वागत करते
हुए कहा है कि लंबे समय से उलझी कश्मीर समस्या को सुलझाने की दिशा में यह
सकारात्मक कदम हैै।</p>

<p>हुरिर्यत के
पूर्व अध्यक्ष मीरवायज उमर फारूक ने यहां बातचीत करते हुए शक जाहिर किया कि यह बातचीत
कश्मीर के मुद्दे पर होगी या कि दोनों देशों के व्यापार और वाणिज्य के
मुद्दों पर विचार-विमर्श किया जाएगा।</p>

<p>उमर ने बताया
कि निर्णय की विस्तृत जानकारी की प्रतीक्षा की जा रही हैै। उन्होंने कहा कि
हुरिर्यत हमेशा से कश्मीर समस्या के समाधान के लिए त्रिपक्षीय बातचीत की
पक्षधर रही है जिसमें भारत, पाकिस्तान और कश्मीर के लोग शामिल होंे।</p>

<p>हुर्रियत नेता
ने कहा कि यदि यह बातचीत केंद्रीय मुद्दे पर होती है तो इसका स्वागत है।
हालांकि उन्होंने कहा कि द्विपक्षीय बातचीत से इच्छित परिणाम नहीं निकल सकते।
उनके अनुसार हुरिर्यत को इससे कोई परहेज नहीं है कि दोनों देश बातचीत शुरू
करें और समास्या का समाधान तलाश करने के लिए कश्मीर के नेताओं को
बाद में बुलाया जाए। </p>

<p>उन्होंने
कहा कि भारत और पाकिस्तान को कश्मीर के लोगों को मुख्य पक्ष के रूप में
स्वीकार करना होगा। केंद्र सरकार ने कश्मीर नीति में बड़ा फेरबदल करते हुए
छह माह पुराने एकतरफा संघर्ष विराम को समाप्त कर दिया और जनरल मुशर्रफ को
बातचीत करने के लिए भारत यात्रा का निमंत्रण देने का फैसला किया हैै।</p>

<p>पाकिस्तानी
आतंकवादियों ने भारत की चाल बताया</p>

<p>उधर
इस्लामाबाद से प्राप्त समाचार के अनुसार पाकिस्तान स्थित उग्रवादियों ने भारत के
एकपक्षीय संघर्ष विराम समाप्त करने के निर्णय और पाकिस्तान से उसकी बातचीत की
पेशकश को एक चाल बताकर इसे खारिज कर दिया।</p>

<p>हरकत उल
मुजाहिद्दीन के कथित महासचिव फजलुर रहमान खलील ने बताया कि उसे नहीं लगता कि
संघर्ष विराम की समाप्ति से संघर्ष के स्तर में कोई बदलाव आएगा। उसने कहा
कि क्षेत्र में हिंसा जारी रहेगी।</p>

<p>भारत ने
कश्मीर घाटी में छह माह पुराना संघर्ष विराम समाप्त करने की घोषणा की। लेकिन
उसने कहा कि वह पाकिस्तान के सैन्य शासक जनरल परवेज मुशर्रफ से बातचीत की
पेशकश कर शांति प्रक्रिया आगे बढ़ा रहा है।</p>

<p>पाकिस्तान ने
भारत की इस पेशकश पर सकारात्मक रवैया अपनाया लेकिन उग्रवादियों ने इसे खारिज
कर दिया। खलील ने कहा वास्तव में संघर्ष विराम कभी था ही नहीं और हम लोगों
ने भारत की इस घोषणा को कभी स्वीकार नहीं किया था।</p>

<p>अमेरिका ने
हरकत उल मुजाहिद्दीन को उग्रवादी संगठन घोषित कर रखा हैै। गत वर्ष नवंबर में
पहली बार संघर्ष विराम की घोषणा के बाद से तनाव में शायद ही कोई कमी आई
तथा इस दौरान एक हजार दो सौ से भी ज्यादा लोग मारे गए।</p>

<p>हिजबुल
मुजाहिदीन गुट के प्रवक्ता सलीम हाशमी ने खलील जैसी ही टिप्पणी की। लेकिन उसने
कहा कि उसका गुट भारत के अगले कदम का इंतजार कर रहा हैै। हाशमी ने
कहा-हमें अभी यह भी नहीं पता है कि वे किस बारे में बातचीत करेंगे। यह
बातचीत सिर्फ कश्मीर पर होगी या वे संयुक्त राष्ट्र के प्रस्तावों के तहत कश्मीर
मसला सुलझाने के लिए बातचीत करेंगे या त्रिपक्षीय बातचीत करेंगे। लेकिन उसने
दावे के साथ कहा कि वे अपनी आतंकवादी गतिविधियों में कोई कमी नही
लाएंगे। (एजेंसियां) </p>

<p> </p>

<p>राजग सरकार को कोई खतरा नहीं-फर्नांडीस</p>

<p>राष्ट्रीय
जनतांत्रिक गठबंधन के संयोजक जार्ज फर्नांंडीस ने गुरुवार को यहां कहा
कि केंद्र की अटलबिहारी वाजपेयी सरकार पांच साल का कार्यकाल पूरा करेगी और
भारतीय जनता पार्टी तथा समता पार्टी के बीच उत्पन्न मणिपुर संकट दो-तीन दिनों में
सुलझा लिया जाएगा।</p>

<p>यहां मुंबई
के निकट नवी मुंबई के बेलापुर में कोंकण रेलवे कर्मचारी यूनियन के सम्मेलन
का उद्घाटन करने के बाद फर्नांडीस ने संवाददाताओं से बातचीत में कहा-मुझे
लगता है कि हम अच्छा काम कर हैं और आगे भी अच्छा काम करेंगे।</p>

<p>उन्होंने
कहा कि इन बातों से सरकार की उम्र पर कोई फर्क नहीं पड़ेगा। मणिपुर में
राजनीतिक संकट को दुर्भाग्यपूर्ण बताते हुए पूर्व रक्षा मंत्री ने कहा कि जो हुआ
वह नहीं होना चाहिए था। मणिपुर के भाजपा विधायकों ने पार्टी के
केंद्रीय नेतृत्व को अनसुना कर दिया और समता पार्टी की सरकार गिरा दी।
(वार्ता)</p>

<p> </p>

<p>गुजरात में 900 मछुआरे लापता</p>

<p>गुजरात के
जूनागढ़ में वेरावल तट के निकट 120 नौकाओं सहित 900 मछुआरों के लापता हो
जाने की आशंका हैै। </p>

<p>आधिकारिक
सूत्रों के अनुसार जूनागढ़ जिले में उना के नवा बंदरगाह से 200 नौकाओं में
1600 मछुआरे मछली पकड़ने के लिए निकले थे और गुरुवार दोपहर तक 160
नौकाएं लौट आई हैं लेकिन 40 नौकाओं और उनमें सवार 200 मछुआरों का
कोई पता नहीं हैै।</p>

<p>वेरावल के
उप जिलाधिकारी भाविन पंड्या ने बताया कि तूफान की आशंका के मद्देनजर
वेरावल के गांवों में 25 निचले गांवों के 12000 लोगों को आज या कल सुबह
तक अपने मकान छोड़ने को कहा गया हैै।</p>

<p>दूसरी ओर
राज्य के दक्षिणी भाग में स्थित वलसाड़ क्षेत्र में 700 मछुआरों के लापता होने की
रिपोर्ट लिखाई गई है।</p>

<p>आकाशवाणी
पर भी तूफान की चेतावनी दी जा रही है और मछुआरों को समुद्र में उतरने से
मना किया जा रहा है। गुरुवार शाम तक इस क्षेत्र में तेज बारिश होने की
संभावना हैै। पंड्या ने बताया कि इस समय तूफान वेरावल के दक्षिण में 450
किलोमीटर दूरी पर है और उत्तर की दिशा में 30 किलोमीटर प्रति घंटे की रफ्तार
से बढ़ रहा है। हालांकि तूफान की वायु रफ्तार 140 किलोमीटर प्रति घंटा
है। (वार्ता)</p>

<p> </p>

<p> </p>






</body></text></cesDoc>