<cesDoc id="hin-w-dunia-news-01-06-11" lang="hin">
<cesHeader type="text">
<fileDesc>
<titleStmt>
<h.title>hin-w-dunia-news-01-06-11.txt</h.title>
<respStmt>
<respType>Electronic file created by</respType>
<respName>Department of Linguistics, Lancaster University</respName>
<respType>text collected by</respType>
<respName>Paul Baker, Celia Worth and Andrew Hardie</respName>
<respType>transferred into Unicode by</respType>
<respName>"Unicodify" software by Andrew Hardie</respName>
</respStmt>
</titleStmt>
<publicationStmt>
<distributor>UCREL</distributor>
<pubAddress>Department of Linguistics, Lancaster University, Lancaster, LA1 4YT, UK</pubAddress>
<availability region="WORLD"></availability>
<pubDate>03-08-24</pubDate>
</publicationStmt>
<sourceDesc>
<biblStruct>
<monogr>
<h.title>"Webdunia" internet news (www.webdunia.com), news stories collected on 01-06-11</h.title>
<h.author>Webdunia</h.author>
<imprint>
<pubPlace>Madhya Pradesh, India</pubPlace>
<publisher>Webdunia</publisher>
<pubDate>01-06-11</pubDate>
</imprint>
</monogr>
</biblStruct>
</sourceDesc>
</fileDesc>
<encodingDesc>
<projectDesc>Text collected for use in the EMILLE project.</projectDesc>
<samplingDesc>Simple written text only has been transcribed. Diagrams, pictures and tables have been omitted and their place marked with a gap element.
</samplingDesc>
<editorialDecl>
<conformance level="1"></conformance>
</editorialDecl>
</encodingDesc>
<profileDesc>
<creation>
<date>03-08-24</date>
</creation>
<langUsage>Hindi</langUsage>
<wsdUsage>
<writingSystem id="ISO/IEC 10646">Universal Multiple-Octet Coded Character Set (UCS).</writingSystem>
</wsdUsage>
<textClass>
<channel mode="w">print</channel>
<constitution type="composite"></constitution>
<domain type="public"></domain>
<factuality type="fact"></factuality>
</textClass>
<translations></translations>
</profileDesc>
<revisionDesc></revisionDesc>
</cesHeader>

<text>
<body>




<p>ममता से पुराना हिसाब चुकाने में जुटे भाजपाई</p><p>
विनय पाठक</p><p>
 </p>

<p>तृणमूल कांग्रेस की नेता ममता बनर्जी की राष्ट्रीय जनतांत्रिक
गठबंधन में वापस लौटने की बेकरारी को देखते हुए भाजपा के कुछ नेताओं
की बांछें खिल गई हैं। अब वे ममता द्वारा किए गए अपने अपमान का पूरा हिसाब
चुकाने में जुट गए हैं। </p><p>
</p><p>
कुछ समय पहले
तक भाजपा के जो नेता ममता बनर्जी की कही सभी बातों को व्यक्तिगत रूप से सहमत
नहीं होने पर गठबंधन की मजबूरी के कारण सही और जायज ठहराते थे, वे भी अब
उन पर परोक्ष हमला करने या कटाक्ष करने से नहीं चूक रहे।</p><p>
</p><p>
ममता जब तक
राजग में थीं, तब तक पश्चिम बंगाल भाजपा का कोई भी नेता उनके समक्ष कुछ भी
प्रतिकूल बोलने से कतराता था। और तो और प्रदेश भाजपा के सबसे वरिष्ठ और
ताकतवर नेता समझे जाने वाले तपन सिकदर भी उनसे कुछ बोलने से झिझकते थे।
लेकिन अब प्रदेश उपाध्यक्ष मुजफ्फर खान जैसे नेता भी राजग में तृणमूल कांग्रेस,
विशेषकर ममता बनर्जी,की वापसी की जमकर मुखालफत कर रहे हैं। </p><p>
</p><p>
उल्लेखनीय है कि
मुजफ्फर खान समेत पार्टी के अन्य प्रदेश उपाध्यक्षों को ममता बनर्जी समेत तृणमूल
कांग्रेस के सांसदों से मिलने के लिए भी पहले से समय लेना पड़ता था, लेकिन आज
तृणमूल नेता इन नेताओं से मिलने के लिए भी रोजाना फोन पर फोन करते रहते हैं
और उन्हें समय नही मिल पाता।</p><p>
</p><p>
बताते हैं कि यह
स्थिति सिर्फ इसलिए बन गई है क्योंकि तृणमूल के नेताओं को राज्य विधानसभा
चुनाव में मिली करारी हार के बाद इस बात का अहसास होने लगा है कि राजग में
शामिल हुए बिना उनका भविष्य असुरक्षित है। </p><p>
</p><p>
दूसरी ओर
भाजपा के वरिष्ठ नेताओं ने अपनी ओर से साफ कर दिया है कि पार्टी का शीर्ष
नेतृत्व तृणमूल कांग्रेस को राजग में शामिल करने की सिफारिश तभी करेगा जबकि
पार्टी की पश्चिम बंगाल इकाई उसे ऐसा करने के लिए अपनी ओर से अनुमति दे
देगी। यही कारण है कि अब प्रदेश भाजपा नेताओं का भाव बढ़ गया है। </p><p>
</p><p>
इसी प्रकार अरसे
तक भाजपा प्रवक्ता की जिम्मेदारी संभालने के नाते ममता बनर्जी के हर सही गलत फैसले
को लेकर उनका पक्ष लेने वाले केंद्रीय ग्रामीण विकास मंत्री वेंकय्या नायडु भी अब
उनके खिलाफ खड़े नजर आते हैं। सोमवार को कुछ पत्रकारों के साथ आपसी
बातचीत में उन्होंने कहा कि ममता को राजग छोड़ने और वापस आने की इच्छा करने
का कारण अवश्य ही बताना चाहिए।</p><p>
</p><p>
इस संबंध
में पार्टी के जानकार सूत्रों ने बताया कि भाजपा आलाकमान तृणमूल कांग्रेस की
राजग में वापसी के खिलाफ नहीं है, लेकिन ऐसा होने के पहले वह तृणमूल नेत्री
ममता बनर्जी के किंग मेकर होने के घमंड को पूरी तरह से तोड़ देना चाहता
है। </p><p>
</p><p>
यही कारण है
कि पार्टी के वरिष्ठ नेता तो ममता बनर्जी के साथ व्यक्तिगत बातचीत में तृणमूल
कांग्रेस को राजग में वापस लिए जाने की बात पर सहमति व्यक्त करते हैं, लेकिन
दूसरे या और नीचे के पायदान पर खड़े नेताओं को ममता का घमंड तोड़ने के
लिए संकेत कर देते हैं। </p>

<p> </p>

<p>हुर्रियत के फैसले के पीछे पाक ः पार्थसारथी</p>

<p>भारतीय विश्लेषकों का मानना है कि ऑल पार्टी हुर्रियत कॉन्फ्रेंस
(एपीएचसी) ने जम्मू-कश्मीर में अपनी भारत-विरोधी गतिविधियों को
रोकने का फैसला पाकिस्तान के कहने पर किया है। इनका मानना है कि
एपीएचसी की यह घोषणा अप्रत्याशित नहीं है।</p><p>
</p><p>
23 अलगाववादी
समूहों के गठबंधन एपीएचसी ने कहा है कि प्रधानमंत्री अटल बिहारी
वाजपेयी और जनरल परवेज मुशर्रफ की प्रस्तावित शिखर वार्ता को सफल बनाने के
लिए उसने जम्मू-कश्मीर में भारत-विरोधी गतिविधियांं रोक दी हैं।</p><p>
</p><p>
पाकिस्तान में
भारत के पूर्व उच्चायुक्त जी. पार्थसारथी की राय है कि एपीएचसी के नेताओं ने अब
महसूस किया है कि जम्मू-कश्मीर की जनता की नजरों में उनकी छवि खराब हो रही
है। वहां एपीएचसी की एक ऐसे संगठन की छवि बना रही है जो नकारात्मक एजेंडे
के साथ किसी भी वार्ता को विफल करने की कोशिश करती है। </p><p>
</p><p>
उन्होंने कहा
कि अब एपीएचसी की साख पर कई सवाल उठ रहे हैं। जनता का शक गहरा हो रहा है
कि एपीएचसी हमेशा पाकिस्तान के नजरिए को ही अभिव्यक्त करती है। उन्होंने
कहा कि एपीएचसी की घोषणा उसके आका की आवाज की ही पुष्टि है और इसमें
कुछ नया नहीं है। पार्थसारथी का इशारा पाकिस्तान की ओर था।</p><p>
</p><p>
यहां तक कि
कुलदीप नैयर जैसे उदारवादी सांसद व पूर्व राजनयिक का भी मानना है कि हुर्रियत
के निर्णय के पीछे पाकिस्तान की भूमिका है।</p><p>
</p><p>
जवाहरलाल नेहरू
विश्वविद्यालय में दक्षिण एशियाई अध्ययन विभाग की सहायक प्रोफेसर सविता पांडे की
राय है कि एपीएचसी के नेता पाकिस्तान के इशारे पर सक्रिय रहते हैं। मेरी नजर
में हुर्रियत पाकिस्तान से अलग नहीं है। इसके नेता जो कुछ भी करते हैं, उसमें
पाकिस्तान का हाथ होता है।(इंडो-एशियन न्यूज सर्विस)</p>

<p> </p>

<p>आयोगों के चक्कर में पड़े भाजपा नेता</p><p>
दिल्ली ब्यूरो</p><p>
 </p>

<p></p><p>
भारतीय जनता
पार्टी के कई वरिष्ठ नेता इन दिनों विभिन्न आयोगों के चक्कर में पड़े हुए
हैं। किसी नेता को अयोध्या मामले की जांच कर रहे लिब्रहान जांच आयोग का
सामना करना पड़ रहा है, तो कोई तहलका मामले की जांच में लगे वेंकटस्वामी जांच
आयोग का सामना कर रहा है।</p><p>
</p><p>
भाजपा के
जानकार सूत्रों के अनुसार पार्टी ने इन जांच आयोगों का सामना पूरी तैयारी से
करने का निर्देश अपने नेताओं को दिया है। इस निर्देश के अनुरूप इन जांच
आयोगों का सामना करने के पहले पार्टी नेता अपनी ओर से पूरी तैयारी करने में
जुटे हुए हैं, ताकि जिरह के दौरान किसी भी प्रकार की कोई कसर न रह जाए। </p><p>
</p><p>
बताते हैं कि
इसी कारण पार्टी नेता जहां वरिष्ठ वकीलों की सेवा ले रहे हैं वहीं आयोग के समक्ष
उपस्थित होने के दो-तीन दिन पहले से ही पूरा होमवर्क भी कर रहे हैं।</p><p>
</p><p>
सूत्रों ने बताया
कि भाजपा के पूर्व अध्यक्ष और तहलका कांड के आरोपी बंगारू लक्ष्मण ने सोमवार
को वेंकटस्वामी जांच आयोग के समक्ष उपस्थित होने के पहले दिल्ली के तीन वरिष्ठ
अधिवक्ताओं की सेवा ली थी। </p><p>
</p><p>
जांच आयोग के
सामने क्या कहना है, इसकी तैयारी करने के लिए उन्होंने पिछले सप्ताह ही तहलका
के सारे टेपों की प्रतियां मंगा ली थी और इस अवधि में वे पूरी तरह से अपने
वकीलों के साथ टेप के विभिन्न अंशों को बार-बार देखने और उसके अनुरूप अपनी
सुरक्षात्मक रणनीति बनाने में जुटे रहे। </p><p>
</p><p>
इसी प्रकार
सोमवार को दो बार लिब्रहान जांच आयोग के समक्ष उपस्थित होने वाले केंद्रीय मानव
संसाधन विकास मंत्री डा. मुरली मनोहर जोशी ने भी आयोग के समक्ष उपस्थित
होने के पूर्व अपनी ओर से पूरी तैयारी की। </p><p>
</p><p>
जांच आयोग के
समक्ष उपस्थित होने के लिए उन्होंने पिछले तीन दिन से अपने सभी कार्यक्रम रद्द कर रखे
थे। इस अवधि में उन्होंने अपना पूरा समय अपने अधिवक्ताओं के.के. सूद
और सुरेंद्र जैन के साथ पेशी की तैयारी करने में ही बिताया। डा. जोशी को
मंगलवार को भी लिब्रहान जांच आयोग के समक्ष उपस्थित होना है।</p><p>
</p><p>
इन दोनों
नेताओं के अलावा बुधवार को केंद्रीय गृह मंत्री लालकृष्ण आडवाणी भी लिब्रहान
जांच आयोग के समक्ष उपस्थित होने वाले हैं। इस सिलसिले में आवश्यक तैयारी करने
के लिए उन्होंने भी के.के. सूद की ही सेवा प्राप्त की है। इस क्रम में सूद
मंगलवार को आडवाणी से मिलकर उनकी पेशी की तैयारी कराने वाले हैं।</p><p>
</p><p>
इस क्रम में यह
बताना प्रासंगिक होगा कि पार्टी के शीर्ष नेतृत्व का मानना है कि आयोग की
सिफारिशों का कानूनी महत्व चाहे जो भी हो, पर यदि सिफारिशें भाजपा नेताओं के
प्रतिकूल आती हैं तो राजग सरकार को परेशानियों का सामना करना पड़ सकता
है। क्योंकि ऐसी स्थिति में विपक्ष को शोर करने का एक अच्छा मुद्दा मिलेगा ही,
राजग के अन्य घटक दल भी इन मंत्रियों के इस्तीफे की मांग को लेकर अड़ सकते
हैं। </p><p>
</p><p>
हालांकि पार्टी
के कुछ वरिष्ठ नेताओं का यह भी मानना है कि जांच आयोग की सिफारिशों या
निष्कर्षों को सार्वजनिक करने में सरकार अपनी ओर से भी काफी समय निकाल
सकती है। क्योंकि इन सिफारिशों को संसद में पेश करने के समय सरकार के
लिए कार्रवाई प्रतिवेदन (एटीआर) भी साथ ही रखना होता है। और एटीआर तैयार
करने के नाम पर कुछ समय तो निकाला ही जा सकता है। </p><p>
</p><p>
इन नेताओं का
यह भी मानना है कि यदि आयोग की रिपोर्ट पार्टी नेताओं के पक्ष में आती है तब
तो ठीक ही है, लेकिन रिपोर्ट के प्रतिकूल होने पर भी पार्टी नेता हिन्दुत्व के
नाम पर अपनी शहादत देकर अपने और पार्टी के वोट बैंक को मजबूत कर सकते
हैं।</p>

<p> </p>

<p>मस्जिद में छुपे आतंकवादियों में से तीन मारे गए</p>

<p>छह घंटे तक शांत रहने के बाद शाम फिर सुरक्षा बलों पर फायरिंग </p><p>
दक्षिण कश्मीर
के अनन्तनाग जिले में शांगस में एक मस्जिद में रविवार शाम से छिपे लश्करे तैयबा
के आतंकवादियों में से तीन के मारे जाने की संभावना है।</p><p>
</p><p>
पुलिस
महानिरीक्षक डॉ. अशोक भान ने सोमवार को बताया कि इन आतंकवादियों ने कल
एक मुठभेड़ के बाद मस्जिद में शरण ले ली थी। इस मुठभेड़ में एक आतंकवाद
विरोधी कार्यकर्ता मारा गया था। उन्होंने कहा कि इन आतंकवादियों
को सुरक्षाबलों ने बराबर समर्पण करने के लिए कहा।</p><p>
</p><p>
उन्होंने बताया
कि आतंकवादियों और सुरक्षा बलों के बीच आज 1200 बजे तक फायरिंग हुई।
उन्होंने कहा कि हम मस्जिद के अंदर की सही स्थिति नहीं जानते क्योंकि
आतंकवादियों ने किसी को भी मस्जिद के अंदर नहीं घुसने दिया हैं। उन्होंने
साथ ही कहा कि हम दो अथवा तीन शव देख रहे हैं।</p><p>
</p><p>
डॉ. भान ने
सोमवार रात बताया कि कुछ आतंकवादी अब भी मस्जिद में जीवित हैं और उन्होंने
छह घंटे तक शांत रहने के बाद शाम सुरक्षा बलों पर फायरिंग की। उन्होंने
कहा कि हमारी तरफ कोई हताहत नहीं हुआ है।</p><p>
</p><p>
यह पूछे जाने पर
कि आतंकवादियों को मस्जिद से बाहर निकालने के लिए क्या राष्ट्रीय सुरक्षा गार्ड
को बुलाया गया है, उन्होंने कहा कि उन्हें इसकी कोई जानकारी नहीं है।</p><p>
</p><p>
उन्होंने लश्करे
तोयबा के इस बयान की पुष्टि करने से इंकार कर दिया कि उसके चार आतंकवादी
मस्जिद के अंदर हैं। उन्होंने कहा कि हम मस्जिद के अन्दर छिपे आतंकवादियों
की वास्तविक संख्या नहीं जानते।</p><p>
</p><p>
डॉ. भान ने
कहा कि अंतिम रिपोर्ट आने तक मस्जिद की घेराबंदी जारी थी। उन्होंने कहा
कि ऑपरेशन में समय लगेगा क्योंकि हम मस्जिद को कोई नुकसान नहीं पहुंचाना
चाहते।</p><p>
वार्ता</p>

<p> </p>

<p>'अटल-मुशर्रफ वार्ता के सकारात्मक परिणाम होंगे'</p>

<p>सेना प्रमुख एस पद्मनाभन ने सोमवार को कहा कि
प्रधानमंत्री अटलबिहारी वाजपेयी और पाकिस्तान के सैन्य शासक जनरल परवेज
मुशर्रफ की प्रस्तावित शिखर बैठक के यदि तुरंत नहीं तो कम से कम लम्बी
अवधि के बाद सकारात्मक परिणाम अवश्य निकलेंगे।</p><p>
</p><p>
यहां सेना के
लेखा विभाग में एक नए आवासीय परिसर का उद्घाटन करने के बाद पद्मनाभन ने
संवाददाताओं से बातचीत में कश्मीर मुद्दे को सुलझाने के लिए वाजपेयी के हाल
के प्रयास को सराहनीय बताया।</p><p>
</p><p>
जनरल पद्मनाभन ने
कहा मै बातचीत होने से पहले ही इस विषय में कोई अनुमान नही लगाना चाहता हूं
लेकिन प्रधानमंत्री ने बिल्कुल सही निर्णय लिया है। अन्य किसी भी भारतीय की
तरह मैं सकारात्मक परिणाम की अपेक्षा रखता हूं।</p><p>
</p><p>
सेना प्रमुख ने
कहा कि इस तरह के सभी प्रयास आपसी आदान-प्रदान पर निर्भर करते हैं। उन्होंने
कहा मुझे पूरा विश्वास है कि भारत और पाकिस्तान जिस तरह की समझदारी दिखा रहें
हैं उसके अच्छे परिणाम निकलेंगे।</p><p>
</p><p>
दोनों देशो
के बीच बातचीत की घोषणा के बाद भी सीमा पार से हिंसा की हाल की घटनाओं के
बारे में पूछे जाने पर पद्मनाभन ने कहा कि इस तरह की घटनाएं पिछले एक दशक से
हो रहीं हैं। उन्होंने कहा लेकिन बातचीत होने के पहले इस मुद्दे पर आगे
और कोई घोषणा नही होनी चाहिए। हम लोगों को अपने दिमाग खुले रखने
चाहिए।</p><p>
</p><p>
तीनों सेनाओं
के प्रमुख सीडीएस की नियुक्ति के बारे में पूछे जाने पर उन्होंने इस बात से इंकार
किया कि थल सेना, नौ सेना और वायुसेना में किसी भी तरह का विवाद या मतभेद
है। उन्होंने कहा सरकार उचित समय पर निर्णय लेगी। (वार्ता)</p>

<p>भाजपा ने हुर्रियत के कदम की सराहना की</p>

<p>भारतीय जनता पार्टी ने हुर्रियत कांफे्रस की
अपनी गतिविधियों को स्थगित करने की घोषणा को एक महत्वपूर्ण कदम करार
दिया और कहा कि इससे साफ है कि हुर्रियत भी अब अपनी भारत विरोधी
गतिविधियों की निरर्थकता को महसूस करने लगा हैै।</p><p>
</p><p>
पार्टी के
नवनियुक्त प्रवक्ता सुनील शास्त्री ने सोमवार को यहां संवाददाताओं के साथ बातचीत
में इस बात पर प्रसन्नता व्यक्त की कि हुर्रियत कांफ्रेस ने अपनी भारत विरोधी
गतिविधियों की निरर्थकता को महसूस कर उन्हें वाजपेयी-मुशर्रफ बातचीत तक
स्थगित रखने का फैसला किया है।</p><p>
</p><p>
उन्होंने कहा
कि पार्टी यह मानती है कि दोनों देशों के नेताओं के बीच होने वाली बातचीत
को अर्थपूर्ण तथा सकारात्मक बनाने की दिशा में यह एक सकारात्मक कदम है।
शास्त्री ने हुर्रियत नेता अली शाह गिलानी के उस वक्तव्य का भी स्वागत किया है जिसमें
उन्होंने भारत के खिलाफ नफरत फैलाने के लिए जेहादी गुटों की आलोचना की
है। इस अवसर पर दूसरी नवनियुक्त प्रवक्ता माया सिंह भी उपस्थित थीं। (वार्ता)</p>

<p>सरकार की नीतियों से अर्थव्यवस्था चौपट- सोनिया</p>

<p>कांग्रेस अध्यक्ष सोनिया गांधी ने सोमवार को केंद्र की
भारतीय जनता पार्टी नीत राष्ट्रीय जनतांत्रिक गठबंधन सरकार की जनविरोधी
नीतियों की आलोचना करते हुए कहा कि सरकार की नीतियों के कारण ही
कृषि, उद्योग सहित सभी क्षेत्रों में अर्थव्यवस्था चौपट होती जा रही है।</p><p>
</p><p>
गांधी ने
यहां से 50 किलोमीटर दूर सावनेर तालुका के हेती गांव में राम गणेश सहकारी
शक्कर कारखाने का उद्घाटन करने के बाद एक रैली को संबोधित करते हुए
कहा कि केन्द्र की अटल बिहारी वाजपेयी सरकार की नीतियों से सबसे अधिक
किसानों को खामियाजा भुगतना पड़ रहा है। उन्होंने कहा कि केंद्र की
आयात नीतियों के कारण किसानों की हालत खराब हो गई हैै।</p><p>
</p><p>
कांग्रेस अध्यक्ष
ने कहा कि एक तरफ सरकारी गोदामों में अनाज सड़ रहा है दूसरी तरफ देश के
कई हिस्सों में भुखमरी फैल रही है। श्रीमती गांधी ने कहा कि उनकी
पार्टी ने काम के बदले अन्न योजना लागू करने का अनुमोदन किया था लेकिन राज्य
सरकारों को केंद्र से पर्याप्त मदद नहीं मिल रही है।</p><p>
</p><p>
श्रीमती
गांधी ने आरोप लगाया कि केंद्र सहायता देने के मामले में राज्यों के साथ
निष्पक्षता नहीं बरता रहा है। महाराष्ट्र सहित कांग्रेस शासित अन्य राज्यों को
पूरी आर्थिक सहायता नहीं मिली है। इस तरह के भेदभाव को अब सहन नहीं किया
जा सकता है।</p><p>
</p><p>
उन्होंने केंद्र
की विनिवेश नीति की भी कड़ी आलोचना की जिसमें केंद्र सरकार सार्वजनिक क्षेत्र
की इकाइयों से अपना हिस्सा खत्म कर रही है। उन्होंने कहा कि पूर्व
प्रधानमंत्री जवाहर लाल नेहरू ने आजादी के बाद सार्वजनिक व निजी क्षेत्र के
उद्योगों का ऐसा संतुलन बनाया था जिससे देशी अर्थव्यवस्था मजबूत हो, लेकिन
वर्तमान राजग सरकार इसका ठीक उल्टा काम कर रही है।</p><p>
</p><p>
विनिवेश के नाम
पर यह सरकार लाभ वाली इकाइयों को भी निजी हाथों में सौप रही है।
उन्होंने कहा कि इस तरह की जनविरोधी नीति से देश का भला होने वाला नहीं
है। (वार्ता)</p>

<p> </p>

<p>दारा सिंह की पेशी नहीं हो सकी</p>

<p>उड़ीसा में हुए ग्राहम स्टेंस हत्याकांड के
प्रमुख अभियुक्त दारा सिंह की अनिश्चितकालीन भूख हड़ताल की वजह से मंगलवार को उसे
भुवनेश्वर स्थित सुनवाई अदालत में पेश नहीं किया जा सका।</p><p>
</p><p>
पेशी न होने
के कारण सत्र न्यायाध्ीश ने मामले की सुनवाई दो जुलाई तक स्थगित कर दी। गत
एक सप्ताह के भीतर यह दूसरी बार है जब अभियुक्त दारा सिंह उर्फ रवीन्द्र कुमार पाल
को भुवनेश्वर की सुनाई अदालत में खुर्दा जिला सत्र न्यायाधीश के समक्ष पेश
नहीं किया जा सका।</p><p>
</p><p>
न्यायाधीश
महेन्द्र नाथ पटनायक ने पिछली बार भी दारा सिंह और उसके साथियों की अदालत में
पेशी न हो सकने के कारण सात जून को मामले की सुनर्वाई आज तक के लिए
स्थगित कर दी थी। </p><p>
</p><p>
दारा सिंह
सर्किल जेल स्थित अपनी कोठरी में पंखा लगाए जाने की मांग करते हुए पिछले पांच
जून से ही अनिश्चितकालीन भूख हड़ताल पर हैै। करंजिया के सबडिवीजनल न्यायिक
मजिस्ट्रेट द्वारा जमानत की अर्जी नामंजूर कर देने के बाद जनवरी 2000 से ही दारा
सिंह जेल मे बंद है।</p><p>
(वार्ता)</p>

<p>जोशी ने वीपी को बाबरी कांड का दोषी बताया</p><p>
दिल्ली ब्यूरो</p><p>
 </p>

<p>केंद्रीय मानव संसाधन विकास मंत्री मुरली
मनोहर जोशी ने सोमवार को लिब्रहान जांच आयोग को बताया कि पूर्व
प्रधानमंत्री वी.पी. सिंह ने यदि अयोध्या मसले के समाधान के मामले को
लेकर जारी किए गए अध्यादेश को वापस नहीं लिया होता तो यह मसला उनके
प्रधानमंत्रित्व काल में ही हल हो जाता।</p><p>
</p><p>
अयोध्या मसले
की जांच कर रहे लिब्रहान आयोग को जोशी ने बताया कि विश्व हिन्दू परिषद और
अन्य मंदिर समर्थक संगठनों के साथ बातचीत करते हुए वी.पी. सिंह ने इस बात पर सहमति
व्यक्त की थी कि उनकी सरकार विवादित भूमि के अधिग्रहण के संबंध में
एक अधिसूचना जारी करेगी और उस जमीन को रामजन्म भूमि न्यास को सौंप दिया
जाएगा।</p><p>
</p><p>
जोशी ने बताया
कि वी.पी. सिंह ने राम जन्मभूमि आंदोलन के लिए जनजागरण करने निकले भाजपा नेता
लालकृष्ण आडवाणी को यह आश्वासन भी दिया था कि न्यास को जमीन सौंपने के समय
वह स्वयं अयोध्या में उपस्थित रहेंगे और आडवाणी के साथ मिलकर कारसेवा भी
करेंगे। बातचीत के बाद रात में इस अध्यादेश को जारी किया गया लेकिन जब तक
लोगों को इसकी जानकारी मिलती उसके पहले ही इसे वापस भी ले लिया गया।</p><p>
</p><p>
जोशी ने कहा
कि ऐसा समझा जा रहा था कि वी.पी. सिंह ने उत्तर प्रदेश के तत्कालीन मुख्यमंत्री
मुलायम सिंह यादव के दबाव के कारण मजबूर होकर इस अध्यादेश को वापस लिया
था। क्योंकि यादव ने प्रधानमंत्री को चेतावनी दी थी कि यदि अध्यादेश जारी
भी किया गया तो उत्तर प्रदेश में वे इसे नहीं मानेंगे।</p><p>
</p><p>
जोशी ने कहा
कि यदि प्रस्तावित अध्यादेश वापस नहीं लिया जाता तो समस्या का समाधान तभी हो
जाता क्योंकि इस बात पर विहिप और अन्य मंदिर समर्थक भी सहमत थे। उन्होंने कहा
कि वी.पी. सिंह ने यह प्रस्ताव भी दिया था कि ढांचे का एक भाग हिन्दुओं को और
दूसरा भाग मुसलमानों को दे दिया जाए। क्योंकि वह स्वयं इस बात से सहमत थे कि
विवादित स्थल पर मंदिर था।</p><p>
</p><p>
जोशी ने जांच
आयोग को यह भी बताया कि तत्कालीन विधि मंत्री दिनेश गोस्वामी इस अध्यादेश
के खिलाफ थे। उनका मानना था कि मंदिर विवाद में अनेकों याचिकाएं अदालत में
दाखिल हैं, इसलिए अध्यादेश जारी करना उचित नहीं है। परंतु बाद में प्रधानमंत्री
वी.पी. सिंह द्वारा समझाए जाने पर वह भी अध्यादेश जारी करने की बात पर सहमत हो गए थे।</p>

<p>भारत-बांग्लादेश के बीच उच्चस्तरीय बैठक आज से</p>

<p>भारत तथा बांग्लादेश के बीच संवेदनशील सीमा विवाद तथा संबद्ध अनसुलझे
मुद्दों पर विचार करने के लिए मंगलवार से राजधानी में दोनों देशों के
बीच वरिष्ठ अधिकारी स्तर की बैठकें हो रही है।</p><p>
</p><p>
बैठक में भारत
का प्रतिनिधित्व विदेश मंत्रालय में संयुक्त सचिव मीरा शंकर करेगी जबकि
बांग्लादेश की टीम का प्रतिनिधित्व बांग्लादेश गृह मंत्रालय में संयुक्त सचिव
जैनुवुल हक करेंगे। बैठक में हिस्सा लेने के लिये हक सोमवार शाम
राजधानी पहुंच रहे हैं।</p><p>
</p><p>
बांग्लादेश
उच्चायुक्त के सूत्रों के अनुसार हक 11 सदस्यीय शिष्टमंडल का नेतृत्व करेंगे जिसमें
वहां के विदेश, गृह तथा बांग्लादेश रायफल्स के प्रतिनिधि होंगे। मेघालय
के परिदीवा में पिछले दिनों बांग्लादेश रायफल्स द्वारा सीमा सुरक्षा बल के 16
जवानों की हत्या किये जाने के बाद से दोनों देशों के संबंधों में
तल्खी आ गई थी। </p><p>
</p><p>
इस कांड के
बाद भारत के सीमा विवाद के सौहार्दपूण समाधान पर विचार करने के लिए
बांग्लादेश से एक आधिकारिक शिष्टमंडल अपने यहां भेजे जाने का आग्रह किया
था। (वार्ता)</p>

<p> </p>

<p>वाजपेयी ने जरूरी कामकाज निबटाया</p>

<p>घुटने के आपरेशन के चार दिन गुजरने के बाद
ब्रीच कैंडी अस्पताल में स्वस्थ्य व प्रसन्नचित महसूस कर रहे प्रधानमंत्री अटलबिहारी
वाजपेयी ने अब जरूरी कामकाज व फाइलें निबटाना शुरू कर दिया है।</p><p>
</p><p>
भारतीय मूल के
न्यूयॉर्क में बसे डा. चितरंजन राणावत ने सात जून को वाजपेयी के दांए घुटने की
सर्जरी की थी और डा. राणावत के अनुसार उनके स्वास्थ्य में लगातार सुधार हो
रहा हैै। </p><p>
</p><p>
प्रधानमंत्री
ने कल अस्पताल में ही डाक्टरों की सहायता से हल्का व्यायाम किया और आगंतुकों
से मुलाकात की। अस्पताल में कल केंद्रीय गृहमंत्री लालकृष्ण आडवाणी,
महाराष्ट्र के राज्यपाल डा.पी सी अलेक्जेंडर और मुख्यमंत्री विलासराव देशमुख ने
वाजपेयी का हालचाल जाना।</p><p>
</p><p>
वाजपेयी अस्पताल
से जरूरी फाइलें देखने के साथ राष्ट्रीय और अंतरराष्ट्रीय गतिविधियों पर नजर
रखे हुए हैं। कल उन्होंने ईरान के राष्ट्रपति मोहम्मद खातमी और ब्रिटेन के
प्रधानमंत्री टोनी ब्लेयर की चुनावी जीत और लिएंडर पेस व महेश भूपति के
फ्रेंच ओपन युगल चैम्पियन होने पर बधाई दी। (वार्ता)</p>

<p>असली कैदी फरार और नकली अंदर</p>

<p>असली कैदी फरार और फर्जी अंदर। यह
अजीबोगरीब घटना यहां की सेंट्रल जेल में हुई है जहां सजा काट रहा एक कैदी अदालत
में पेशी के बाद पुनः हवालात नहीं पहुंचा बल्कि किसी और को अंदर करा
गया।</p><p>
</p><p>
इस घटना के
सिलसिले में फर्जी कैदी के खिलाफ मामला दर्ज किया गया है और असली अभियुक्त के
खिलाफ गिरफतारी वारंट जारी होने से पुलिस हरकत में आ गई हैै। जेल
अधीक्षक हरभजन सिंह ने यहां बताया कि एनडीपीएस की धारा 15 के तहत
अंग्रेज सिंह को इस वर्ष 18 जनवरी को जेल में लाया गया था और 17 अप्रैल को
अतिरिक्त सत्र न्यायाधीश भूपिंदर सिंंह की अदालत ने उसे अंतरिम जमानत देते हुए
30 मई को पुनः अदालत में पेश होनें के निर्देश दिए थे।</p><p>
</p><p>
सिंह ने बताया
कि अभियुक्त निर्धारित तिथि को अदालत में पेश नहीं हुआ बल्कि उसने अपनी जगह
एक अन्य व्यक्ति जसवीर सिंह को पेश कर दिया। अदालत द्वारा अभियुक्त को पुनः
जेल भेजे जाने पर किसी को इस फर्जी कैदी पर एक दो दिन तक संदेह नहीं
हुआ।</p><p>
</p><p>
उन्होंने कहा
कि एक सूचना के आधार पर जब पड़ताल की गई तो फर्जी कैदी की बात सामने
आई जिस पर अदालत को तुरंत सूचित किया गया। फर्जी कैदी को अदालत में पेश
करने के लिए समन जारी कर दिए गए है जबकि फरार कैदी को पकड़ने के लिए
पुलिस ने अभियान छेड़ दिया है। (वार्ता)</p>

<p>असम में उग्रवादियों ने पुलिसकर्मी की हत्या की</p>

<p>असम के नलबाड़ी जिले के तिहु में रविवार शाम
संदिग्ध उल्फा उग्रवादियों ने घात लगाकर एक पुलिस कांस्टेबल की हत्या कर
दी। पुलिस की जबाबी कार्रवाई मेंं एक उग्रवादी भी मारा गया।</p><p>
</p><p>
पुलिस ने बताया
कि उग्रवादियों की ताबड़तोड़ गोलीबारी में कांस्टेबल उद्धव राजवंशी मारा गया
जबकि एक अतिरिक्त पुलिस अधीक्षक बाल-बाल बच गया। पुलिस द्वारा की गई
जवाबी कार्रवाई में एक उग्रवादी मारा गया।</p><p>
</p><p>
पुलिस ने बताया
कि उग्रवादियों की गिरफ्तारी के लिए सघन अभियान छेड़ दिया है। इस बीच दो
उल्फा उग्रवादियों ने नगांव जिले में जिला पुलिस अधीक्षक के समक्ष आत्मसर्मण
कर दिया। उग्रवादियों ने एक एके 56 राइफल और 100 कारतूस भी पुलिस को
सौंप दिए।</p><p>
</p><p>
पुलिस ने बताया
कि इसी दौरान नलबाड़ी जिले में संदिग्ध उग्रवादियों ने उग्रवाद छोड़ चुके
एक व्यक्ति की गोली मार कर हत्या कर दी। (वार्ता)</p>

<p>सुरक्षा बलों ने मस्जिद को घेरा</p>

<p>सुरक्षाबलों ने दक्षिण कश्मीर के शंगुस स्थित उस
मस्जिद को सुरक्षा बलों ने घेर रखा है जिसमें रविवार रात से चार आतंकवादी छिपे
हुए हैंं। इन आतंकवादियों ने मस्जिद में छिपने सेेे पहले एक विशेष पुलिस
अधिकारी एसपीओ की हत्या कर दी थी।</p><p>
</p><p>
अधिकारियों
ने बताया कि इस मस्जिद के बाहर जाने वाले सभी रास्तों को बंद कर दिया गया है
और वहां सुरक्षा व्यवस्था कड़ी कर दी गई है। वरिष्ठ अधिकारी स्थिति पर
नजर रखे हुए हैं। रविवार रात में इन आतंकवादियों और सुरक्षा बलों के बीच
किसी गोलीबारी की सूचना नहीं है।</p><p>
</p><p>
आधिकारिक
सूत्रों ने बताया कि सुरक्षा बलों के साथ हुई एक संक्षिप्त मुठभेड़ के बाद ये
आतंकवादी मस्जिद में घुस गए थे। इस मुठभ़ेड में एक विशेष पुलिस अधिकारी
मारा गया था। इसके बाद सुरक्षा बलों ने तुरंत इस मस्जिद को घेर लिया और
आतंकवादियों से कई बार बाहर आकर आत्मसमर्पण करने को कहा।</p><p>
</p><p>
हाल के समय में
सुरक्षा बलों के साथ मुठभेड़ के बाद आतंकवादियों द्वारा मस्जिद के अंदर छिपने
की यह दूसरी घटना है। इससे पहले हाल ही में दक्षिण कश्मीर के शोपियां में तीन
आतंकवादी सुरक्षा बलों के दो जवानों की हत्या करने के बाद मस्जिद में छिप गए
थे। बाद में इन आतंकवादियों को मस्जिद से सुरक्षित निकलने की अनुमति दे दी
गई थी क्योंकि सुरक्षा बल मस्जिद को कोई नुकसान नहीं पहुंचाना चाहते थे।
(वार्ता)</p>

<p>रामचंद्रन पांडिचेरी विधानसभा अध्यक्ष बने</p>

<p>पांडिचेरी के पूर्व मुख्यमंत्री और अखिल भारतीय
अन्नाद्रमुक (एआईडीएमके) के नेता डी.रामचंद्रन पांडिचेरी विधानसभा के
अध्यक्ष चुने गए है। रामचंद्रन कांग्रेस नीत गठबंधन के उम्मीदवार थे।</p><p>
</p><p>
सोमवार को विपक्षी
दलों के विरोध के बावजूद अध्यक्ष के चुनाव के लिए मत विभाजन हुआ।
रामचंद्रन को 30 सदस्यों वाली विधानसभा में 15 मत मिले और विजयी घोषित
हुए। अध्यक्ष पद के लिए हुए चुनाव मेंं अन्य उम्मीदवार विपक्षी राष्ट्रीय जनतांत्रिक
गठबंधन के वीएमसी शिवकुमार और पट्टाली मक्लल काच्ची के.पी. राजावेलु थे।
(वार्ता)</p>

<p>असम के निचले इलाके में भयानक बाढ़</p>

<p>असम की बराक घाटी के कछार, करीमगंज और हेलीकांडी जिलों में
बाढ़ की स्थिति लगातार गंभीर बनी हुई है। सेना को किसी भी खतरे से निपटने
के लिए पूरी तरह सावधान रहने को कहा गया है।</p><p>
</p><p>
गुवाहाटी में
आधिकारिक रूप से मिली जानकारी के मुताबिक हेलाखंडी की उफनती
धालेश्वरी नदी में एक लड़की पानी के तेज बहाव में बह गई। एक अन्य
करीमगंज जिले के बदरपुर शहर में हुए मूस्खलन में जिंदा दफन हो गई।</p><p>
</p><p>
बराक और
उसकी सहायक नदियों के लगातार खतरे के निशान से ऊपर बहने की वजह से जहाँ के
विभिन्न हिस्सों में सड़क यातायात रुका हुआ है वहीं खेती वाले इलाके दूर-दूर तक
जलमग्न हो गए हैं।</p><p>
</p><p>
बाढ़ से प्रभावित
सैकड़ों लोग ऊंचाई पर स्थित सुरक्षित स्थानों पर शरण लिए हुए हैं। प्रभावित लोगों
के लिए कई राहत शिविर स्थापित किए गए हैं। (वार्ता )</p>

<p> </p>

<p>मसजिद में घुसे आतंकवादियों ने गोलियाँ चर्लाइं, 1 मरा</p>

<p>जम्मू-कश्मीर के अनंतनाग जिले में कुछ आतंकवादियों ने एक मस्जिद से
गालियां चर्लाइं जिसमें आत्मसमर्पण कर चुका एक उग्रवादी मारा गया।</p><p>
</p><p>
आधिकारिक
सूत्रों ने बताया कि यहाँ से 70 कि.मी. दूर कोकरनाग में स्थित इस मस्जिद को
राष्ट्रीय राइफल्स के जवानों और अनंतनाग जिले के विशेष अभियान दल ने घेर रखा
है। पुलिस ने जब आतंकवादियों से आत्मसमर्पण करने को कहा तो जवाब में
उन्होंने गोलीचालन कर दिया, जिसमें एक विशेष पुलिस अधिकारी (आत्म समर्पण कर
चुका उग्रवादी) मारा गया। </p><p>
</p><p>
सूत्रों का
कहना है कि मस्जिद में चार आतंकवादी छुपे हुए हैं। मस्जिद से भाग निकलने के
सभी रास्ते बंद किए जा चुके हैं। दोनों पक्षों के बीच देर रात 1 बजे खबर लिखे
जाने तक मुठभेड़ जारी थी। उग्रवादियों से आत्म समर्पण करने की घोषणा की गई
लेकिन आतंकवादियोें ने कोई जवाब नहीं दिया। </p><p>
</p><p>
ज्ञात रहे कि
हाल ही में चरार-ए-शरीफ दरगाह में आतंकवादियों ने विस्फोट किया था जिसमें 5
महिलाओं समेत 6 लोग मारे गए थे और 40 अन्य घायल हो गए थे। पिछले माह भी तीन
आतंकवादियों ने पुलवामा जिले के शोपियां में एक मस्जिद पर 20 घंटे तक कब्जा
कर रखा था। </p>

<p> </p>

<p>'स्पीकर की बजाए चुनाव आयोग को जिम्मेदारी दें'</p>

<p>मुख्य चुनाव आयुक्त डॉ. एम.एस. गिल ने दलबदल विरोधी कानून के
क्रियान्वयन की जिम्मेदारी स्पीकर की बजाए चुनाव आयोग को दिए जाने का सुझाव
दिया है। उन्होंने कहा कि आखिर भारतीय दलगत राजनीति से पीड़ित स्पीकर दलबदल
के बारे में कठोर निर्णय कैसे दे सकता है।</p><p>
</p><p>
उन्होंने अदालतों
द्वारा अभियुक्त करार दिए गए सांसदों तथा विधायकों के चुनाव लड़ने के लिए
योग्य माने जाने संबंधी कानून पर भी पुनर्विचार किए जाने का सुझाव दिया
है। डॉ. गिल 13 जून को सेवानिवृत्त हो रहे हैं।</p><p>
</p><p>
डॉ. गिल ने
साक्षात्कार में कहा- चुनाव आयोग न तो राजनीति करता है और न ही वह ऐसा
करेगा। उसका कोई राजनीतिक एजेंडा नहीं होता है। दलबदल का कैंसर भारतीय
राजनीति को खा रहा है। आयोग इस स्थिति को लेकर चिंतित है। कमी कानून
में नहीं अपितु इसके क्रियान्वयन में है।</p><p>
</p><p>
उन्होंने
जनप्रतिनिधित्व अधिनियम में इस आशय का संशोधन किए जाने का सुझाव
दिया, जिससे राजनीतिक दलों पर महिलाओं को निर्धारित संख्या में टिकट दिया
जाना अनिवार्य कर दिया जाए।</p><p>
</p><p>
डॉ. गिल ने
कहा, अगर कुछ मुट्ठी भर महिलाएँ एक खास प्रतिशत की जिद किए बैठी रहीं तो
राजनीति में महिलाओं को आधिकारिक प्रतिनिधित्व का मामला लटका रह
जाएगा। जरूरत इस दिशा में आगे बढ़ने की हैै।</p><p>
</p><p>
उन्होंने बताया
कि अगले वर्ष तक ऐसी व्यवस्था विकसित कर ली जाएगी, जिससे देशभर में इलेक्ट्रॉनिक
मतदान मशीनों से मतदान कराया जा सकेगा। असम, उत्तरप्रदेश और बिहार में फोटो
परिचय पत्र के काम में कुछ ढील रहीहै, लेकिन अगले वर्ष तक इस काम को पूरा कर
लिया जाएगा।(वार्ता)</p>

<p> </p>

<p>चरारे शरीफ विस्फोट में 2 और मृत</p>

<p>चरारे शरीफ कस्बे में प्रदर्शनकारियों तथा पुलिस के बीच संघर्ष के बाद
चार लोगों को गिरफ्तार कर लिया। इनमें हुर्रियत नेता गुलाम नबी दुबी भी शामिल
है।</p><p>
</p><p>
चरारे शरीफ
विस्फोट कांड में मृतक संख्या 6 हो गई है। दो घायल महिलाओं की आज अस्पताल
में साँस टूट गई।</p>

<p> </p>

<p>मानसून आगे बढ़ा</p>

<p>दक्षिण पश्चिमी मानसून महाराष्ट्र के शेषभाग, दक्षिण पश्चिमी म.प्र. तथा अन्य
भागों की ओर बढ़ गया है। इसके सौराष्ट्र, गुजरात के शेष भागों में बढ़ने की
स्थिति अनुकूल है।</p><p>
</p><p>
मौसम विभाग ने
अगले 48 घंटों में अंडमान निकोबार द्वीप समूह, कोंकण व गोआ, तटीय आंध्र,
रायलसीमा तथा कर्नाटक के तटवर्ती भागों में भारी वर्षा</p><p>
की चेतावनी दी
है।</p>

<p> </p>

<p>बड़े परदे पर छा गए सागर के तीन खलपात्र</p>

<p>हिन्दी फिल्मों के जिन तीन अभिनेताओं का शुमार वर्तमान समय की
उभरती हुई खलनायक-त्रयी में हो रहा है, उनसे जुड़ा एक विचित्र संयोग यह भी है कि
इन तीनों ने मध्यप्रदेश के एक छोटे से शहर सागर से रूपहले परदे की सतरंगी दुनिया
मुंबई का सफर तय किया है।</p><p>
</p><p>
हिन्दी सिने जगत
के संभावनाशील अभिनेताओं के रूप में अपना नाम दर्ज कराने वाले गोविंद नामदेव,
आशुतोष राणा और मुकेश तिवारी से जुड़ा एक संयोग यह भी है कि इन तीनों का
जुड़ाव दिल्ली के राष्ट्रीय नाट्य विद्यालय से रहा है। फिल्म समीक्षकों द्वारा इन
तीनों अभिनेताओं को भविष्य की सशक्त खलनायक-त्रयी के रूप में देखे जाने की प्रमुख
वजह यह भी है कि इन दिनों हिन्दी सिनेमा में स्थापित खलनायकों की कतार अब ढलान पर
है।</p><p>
</p><p>
आर.के.
प्रोडक्शन के बैनर तले बनी फिल्म 'प्रेमग्रंथ' में बलात्कारी खलनायक की भूमिका में
अपनी कुटिलता के साथ गोविंद नामदेव ने सबका ध्यान आकृष्ट किया था। भले ही
यह फिल्म बॉक्स ऑफिस पर अपेक्षित सफलता हासिल नहीं कर पाई लेकिन इसके बाद
उनके नाम की चर्चा जरूर शुरू हो गई।</p><p>
</p><p>
फिल्मों के
अलावा गोविंद नामदेव ने छोटे पर्दे पर भी अपने सशक्त अभिनय की धाक जमाई
है। धारावाहिक 'महायज्ञ' और 'आशीर्वाद' में उनकी भूमिकाएं चर्चा में रही
हैं। इसके अलावा बैंडिट क्वीन/ शोला और शबनम/ गॉड मदर आदि फिल्मों में उनकी
महत्वपूर्ण भूमिकाएँ थीं। अपराध जगत के यथार्थ पर केंद्रित फिल्म 'सत्या' में
मतलबपरस्त और क्रूर सरगना की भूमिका भी उन्होंने यादगार ढंग से निभाई थी।</p><p>
</p><p>
आशुतोष राणा
का नाम अब किसी परिचय का मोहताज नहीं रह गया है। तनूजा चंद्रा की फिल्म
'दुश्मन' में मनोरोगी, विक्षिप्त हत्यारे की भूमिका में राणा ने कमाल किया था।
इसी फिल्म के लिए उन्हें फिल्म फेयर अवार्ड भी मिला था। राणा भी फिल्मों में आने
के पहले टेलीविजन पर धारावाहिकों में अपने अभिनय की धूम मचा चुके
थे।</p><p>
</p><p>
धारावाहिक
'स्वाभिमान' में त्यागी के रूप में उनके अभिनय की खासी प्रशंसा हुई थी। खलनायकों
की इस त्रयी के तीसरे कोण मुकेश तिवारी भले ही गोविंद नामदेव या आशुतोष राणा
की तरह अभी उतने प्रसिद्ध नहीं हैं लेकिन समीक्षक उन्हें लंबी रेस के घोड़े के रूप में
देख रहे हैं।</p><p>
</p><p>
राजकुमार
संतोषी की फिल्म 'चाइना गेट' में दिग्गज कलाकारों की मौजूदगी में मुकेश ने
अपने अभिनय की गहरी छाप छोड़ी है। इस फिल्म में जगीरा डाकू का किरदार
निभाने वाले मुकेश का बुंदेलखंडी लहजे में बोला गया संवाद 'जे बात' और 'मेर मन
को भाया मैं कुत्ता काट के खाया' काफी चर्चित हुआ था। समीक्षकों का मानना है
कि मुकेश एक संजीदा और संभावनाशील अभिनेता हैं।</p><p>
</p><p>
जल्द ही रिलीज
होने वाली कुछ फिल्मों में उनकी चुनौतीपूर्ण भूमिकाएँ हैं और इन फिल्मों से
खुद मुकेश को काफी उम्मीदें हैं। रंगमंच की पृष्ठभूमि से आने वाले इन तीनों
अभिनेताओं में एक समानता यह भी है कि नाटकों से इनका जुड़ाव और लगाव अभी भी
कायम है। बहरहाल हिन्दी फिल्मों में खलनायकी के ताज के सशक्त दावेदार के रूप
में उभरने वाले इन तीनों अभिनेताओं से दर्शकों को भी बहुत अपेक्षाएँ हैं। (वार्ता)</p>

<p> </p>

<p>भारतीय फिल्म की शूटिंग से बौद्घ भिक्षु नाराज</p>

<p>श्ाीलंका में प्राचीन बौद्घ मंदिर 'मुतियंगना राजमहा विहाराया' के
मुख्य भिक्षु उपाली थेरा ने एक भारतीय फिल्म की शूटिंग पर विरोध जताया
है।</p><p>
</p><p>
भिक्षु थेरा के
विरोध जताने का मुख्य कारण यह है कि एक दक्षिण भारतीय फिल्म के लिए एक
गरमागरग नृत्य की शूटिंग के लिए पृष्ठभूमि के रूप में इस मंदिर का इस्तेमाल किया
जा रहा है। थेरा ने शिकायत की है कि स्थानीय कंडयान डांस ट्रुप के सदस्यों
ने पोलोन्नस्वा के 200 वर्ष पुराने इस मंदिर के समक्ष गरमागरग डांस किया है।</p><p>
</p><p>
थेरा ने फिल्म
की शूटिंग की अनुमति देने पर पुरातत्व विभाग के अधिकारियों को जबर्दस्त फटकार
लगाई है। सरकारी अखबार 'डेली न्यूज' के अनुसार थेरा इस पवित्र मंदिर के
व्यवसायीकरण के प्रयासों से काफी गुस्से में हैं। </p><p>
</p><p>
अखबार ने थेरा
के हवाले से कहा है कि इससे पूर्व एक अन्य भारतीय फिल्म में अधनंगी
महिलाओं ने काम किया था और इस फिल्म की शूटिंग भी मंदिर के पास हुई
थी। बाद में नई तकनीक का इस्तेमाल कर इस फिल्म में कई अश्लील दृश्य जोड़
दिए गए।</p><p>
</p><p>
पुरातत्व विभाग
के महानिदेशक शिरन डेरानियगला का कहना है कि उन्होंने फिल्म शूटिंग की
सशर्त मंजूरी दी है। शर्त के अनुसार पुरातत्व विभाग का एक अधिकारी
शूटिंग पर निगरानी रखेगा। (इंडो-एशियन न्यूज सर्विस)</p>

<p> </p>

<p>जनरल मुशर्रफ छह जुलाई से भारत दौरे पर?</p>

<p>पाकिस्तान के सैनिक शासक जनरल परवेज मुशर्रफ दिल्ली में भारतीय
प्रधानमंत्री अटल बिहारी वाजपेयी के साथ शिखर वार्ता के लिए जुलाई के शुरू
में भारत की यात्रा पर जा सकते हैं। शिखर वार्ता की तिथि की घोषणा इस
सप्ताह किए जाने की संभावना है। अपुष्ट खबरों के मुताबिक मुशर्रफ का भारत
दौरा छह जुलाई से हो सकता है।</p><p>
</p><p>
उच्च पदस्थ
सरकारी अधिकारियों और मीडिया रिपोर्टों के अनुसार जनरल मुशर्रफ की दिल्ली
यात्रा का अस्थाई कार्यक्रम तैयार हो चुका है। इसके अनुसार वाजपेयी के साथ
शिखर वार्ता के अलावा जनरल मुशर्रफ दिल्ली की ऐतिहासिक जामा मस्जिद में जुमे
की नमाज अता करेंगे और राजस्थान के अजमेर शहर में सफी-संत मोइनुद्दीन चिश्ती
की दरगाह जाएंगे।</p><p>
</p><p>
उर्दू भाषा के
दैनिक अखबार 'नवा-ए-वक्त' के अनुसार अस्थाई कार्यक्रम के अनुसार जनरल मुशर्रफ 6
से 11 जुलाई तक भारत की यात्रा पर रहेंगे। विदेश मंत्रालय के वरिष्ठ
अधिकारियों ने अखबार की इस खबर पर टिप्पणी करते हुए कहा कि शिखर वार्ता
की तिथि निर्धारित करने के लिए बातचीत अंतिम चरण में है। 15 जून तक
जनरल मुशर्रफ की यात्रा की तारीख की आधिकारिक घोषणा होने की
संभावना है।</p><p>
</p><p>
वैसे दोनों
पक्षों ने अभी तक जनरल मुशर्रफ की यात्रा की कोई तिथि नहीं सुझाई है।
पहले कहा गया था कि जुलाई के तीसरे सप्ताह से पहले शिखर वार्ता होने की
संभावना नहीं है। लेकिन वाजपेयी के स्वास्थ्य में तेजी से सुधार हो रहा
है। इसलिए दोनों देश जुलाई के पहले या दूसरे सप्ताह में शिखर वार्ता करने
की संभावनाओं पर विचार कर रहे हैं।</p><p>
</p><p>
वैसे पाकिस्तान
के वरिष्ठ अधिकारियों की एक टीम यात्रा के सिलसिले में विचार-विमर्श के
लिए शीघ्र ही दिल्ली जाएगी। यह टीम भारत सरकार के प्रतिनिधियों के साथ
विभिन्न मुद्दों पर बातचीत करेगी। इनमें जनरल मुशर्रफ के जामा मस्जिद में जुमे
की नमाज पढ़ने तथा अजमेर जाना भी शामिल है। (इंडो-एशियन न्यूज सर्विस)</p>

<p> </p>

<p>दक्षिण अफ्रीका में जगमगाएंगे बॉलीवुड के सितारे!</p>

<p>दक्षिण अफ्रीका के हॉलीडे रिसॉर्ट सनसिटी में 'इंटरनेशनल इंडियन
फिल्म एकेडेमी'(आईआईएफए) के दूसरे सालाना पुरस्कार वितरण समारोह में भाग
लेने के लिए बॉलीवुड की प्रमुख हस्तियां यहां पहुंचने लगी हैं।</p><p>
</p><p>
बॉलीवुड
सितारों के प्रशंसक ज्यादा से ज्यादा टिकटों के जुगाड़ में लगे हैं। फिर भी
जो प्रशंसक टिकट नहीं जुगाड़ पाएंगे, उन्हें निराश होने की जरूरत नहीं है। वे
अपने चहेते कलाकारों को टेलीविजन पर देख पाएंगे। सोनी टेलीविजन चैनल इस
कार्यक्रम का सीधा प्रसारण करेगा। कार्यक्रम के प्रत्येक टिकट का मूल्य
650 रैंड या उससे अधिक है। मालूम हो कि पिछले वर्ष लंदन में मिलेनियम
डॉम में आईआईएएफ का पहले पुरस्कार वितरण समारोह हुआ था।</p><p>
</p><p>
शनिवार को
होने वाले समारोह में बॉलीवुड की 300 हस्तियों के भाग लेने की संभावना
है। इनमें ऋत्विक रोशन, करिश्मा कपूर, सलमान खान, संजय दत्त, उर्मिला
मातोंडकर, सुष्मिता सेन, तब्बू, प्रीति जिंटा, सुनील शेट्टी, जैकी श्ाॉफ, जावेद
अख्तर और शबाना आजमी प्रमुख हैं। </p><p>
</p><p>
इस समारोह की
आयोजक कंपनी 'विजक्राफ्ट इंटरनेशनल' इस बात की पुष्टि नहीं कर सकी कि दक्षिण
अफ्रीका में बेहद लोकप्रिय अमिताभ बच्चन और शाहस्न्ख खान भाग लेंगे या नहीं।
आयोजकों ने सिर्फ यह कहा कि दोनों से अभी बातचीत चल रही है।</p><p>
</p><p>
विजक्राफ्ट
समारोह में शामिल होने के लिए हॉलीवुड के कुछ कलाकारों से भी बातचीत कर
रही है। विजक्राफ्ट के निदेशक विरफ सरकरी ने बताया कि हॉलीवुड में स्क्रीन
एक्टर्स गिल्ड की हड़ताल की वजह से इस बातचीत में विलंब हुआ है। लेकिन हड़ताल
समाप्त होते ही वार्ता पुनः होगी।</p><p>
</p><p>
दुनिया के समक्ष
विशाल भारतीय फिल्मोद्योग के सभी पहलुओं का खुलासा करना आईआईएफए
पुरस्कार वितरण समारोह का मुख्य मकसद है। (इंडो-एशियन न्यूज सर्विस)</p>

<p>कीथ वाज की बीमारी ब्लेयर के लिए वरदान?</p>

<p>विवादों से घिरे ब्रिटिश सरकार के मंत्री कीथ वाज की बीमारी
प्रधानमंत्री टोनी ब्लेयर के लिए वरदान साबित हुई है। ब्लेयर ने इस बीमारी
के आधार पर कीथ वाज को अपने मंत्रिमंडल से बाहर कर दिया है।</p><p>
</p><p>
कीथ वाज ने
ब्रिटेन में पिछले सप्ताह हुए संसदीय चुनावों में अपनी लिसेस्टर सीट बरकरार रखी।
लेकिन इसके सिर्फ 48 घंटे बाद उन्हें अस्पताल में भर्ती कराया गया। पिछले महीने
भी कीथ वाज लंदन में टेलीविजन साक्षात्कार के दौरान अचानक बेहोश हो गए
थे। इसके बाद डॉक्टरों ने कीथ वाज को 8 सप्ताह आराम करने की सलाह दी
थी।</p><p>
</p><p>
कीथ वाज को
पिछले शनिवार इन्फेक्शन की वजह से 'लिसेस्टर रॉयल इन्फर्मरी' अस्पताल में भर्ती
कराया गया। उन्हें अभी डॉक्टरों की निगरानी में रहना पड़ेगा। फिलहाल कीथ
वाज का स्वास्थ्य संतोषजनक है।</p><p>
</p><p>
पिछले दिनों
अटकलों का बाजार गर्म रहा है कि कीथ वाज को इस बार मंत्री नहीं बनाया
जाएगा। ब्रिटेन के तीन राष्ठ्रीय अखबारों 'दि संडे टाइम्स', 'दि संडे टेलीग्राफ'
और 'दि ऑब्जर्बर' में छपा था कि ब्लेयर अब कीथ वाज को अपने मंत्रिमंडल में
शामिल नहीं करना चाहते हैं। मालूम हो कि ब्लेयर ने पिछले शुक्रवार को
काबीना मंत्रियों की नियुक्ति की थी और वे शीघ्र ही राज्यमंत्रियों एवं
उप-मंत्रियों की नियुक्ति करेंगे।(इंडो-एशियन न्यूज सर्विस)</p>

<p> </p>

<p>मैकवे को जहर का इंजेक्शन दिया</p>

<p>ओकलाहामा बम विस्फोट कांड के प्रमुख आरोपी टिमोथी मैकवे को
आज स्थानीय समयानुसार 7.14 बजे जहर का इंजेक्शन दे दिया गया। ओकलाहामा
विस्फोट में 168 लोगों की जानें गई थीं। इसी अपराध में मैकवे को मौत
की सजा दी गई।</p><p>
</p><p>
33 वर्षीय मैकवे
अमेरिका के इतिहास में सबसे बड़ा वारदाती है, जिसने 168 लोगों की मौत की नींद
सुला दिया था। उसने लगभग छह वर्ष पहले पी मुराह फेडरल बिल्डिंग में विस्फोट
किया था। बम विस्फोट की इस घटना को अमेरिका की धरती पर सबसे बड़ी आतंकवादी
कार्रवाई करार दिया गया था।</p><p>
</p><p>
मामले की पूरी
सुनवाई के दौरान मैकवे शांत रहा और उसने सहयोगात्मक रवैया अपनाया।
अमेरिका की फेडरल सरकार के 38 वर्षीय इतिहास में पहली बार किसी अभियुक्त को
मौत की सजा दी गई है। </p><p>
</p><p>
मैकविक को
पहले 16 मई को मृत्यु दी जाने वाली थी।</p><p>
</p><p>
इस बीच ब्रिटेन
के मानवाधिकार संगठन एमनेस्टी इंटरनेशनल ने मैकविग को मौत दिए जाने की
इस कार्रवाई की निंदा करते हुए इसे न्याय पर प्रतिशोध की विजय बताया।</p>

<p> </p>

<p>इटली में नए प्रधानमंत्री ने शपथ ली</p>

<p>इटली के नए प्रधानमंत्री के रूप मंे सोमवार को उद्योगपति
सिलविओ बेरलुसकोनी ने शपथ ग्रहण कर ली। बेरलुसकोनी ने राष्ट्रपति महल में
राष्ट्रपति कार्लो अजेलिओ सिआम्पी के समक्ष अपने पद की शपथ ली।</p><p>
</p><p>
उन्होंने पिछले
महीने हुए आम चुनाव में विजय हासिल की थी उनके साथ ही उप प्रधानमंत्री के
रूप में जिआनफ्रांको फिनी ने भी शपथ ली। बेरलुसकोंनी एक सफल उद्योगपति
होने के साथ साथ कई समाचार पत्रों और टी वी चैनलों के मालिक भी हैं।
(रायटर)</p>

<p> </p>

<p>उ. और द. कोरिया में तनाव बढ़ा</p>

<p>उत्तर कोरिया के नौसैनिकों द्वारा दक्षिण
कोरिया के मछुआरों की एक नाव पर विवादास्पद सीमा रेखा पार करने के कारण
गोलियां दागे जाने की घटना प्रकाश में आने से दोनों देशों में तनाव बढ़ गया
है।</p><p>
</p><p>
उत्तर कोरिया
के एक अधिकारी ने बताया कि नाव पर लगभग 9 लोग सवार थे और वह गलती से
पूर्वी सागर में सीमा रेखा के पार चली गई। उन्होंने कहा कि पिछले सप्ताह हुई
इस घटना के संबंध में मछुआरों से कल तक पूछताछ जारी थी लेकिन वह यह
नहीं बता पाए कि इनको अंतरराष्ट्रीय सीमा पार करने के अपराध में गिरफ्तार
किया गया है या नहींं। </p><p>
</p><p>
इससे पहले गत
दो और सात जून को उत्तर कोरिया के पांच व्यावसायिक जहाज दक्षिण कोरिया के
जलक्षेत्र में आ गए थे। (रायटर)</p>

<p>तनकर बैठने से बढ़ता है आत्मविश्वास</p>

<p>जर्मनी की एक स्वास्थ्य पत्रिका 'वेलफिट' के
अनुसार कंधे झुकाकर बैठने के मुकाबले तनकर बैठने से आत्मविश्वास बढ़ता
है। </p><p>
</p><p>
ट्रियेर
विश्वविद्यालय द्वारा किए गए अध्ययन के लिए एक सौ लोगों से पूछताछ की गई।
उनकी रचनात्मकता की जांच की गई इन परीक्षणों के आधार पर सभी को बताया
गया कि उन्हें औसत से अच्छे अंक मिले हैंै।</p><p>
</p><p>
इसके बाद इन
लोगों के बैठने की व्यवस्था इस तरह की गई कि आधे लोगों को झुककर
बैठना पड़ा और आधे तनकर बैठे। फिर इन लोगों से उन्हें मिले अंकों
पर प्रतिक्रिया व्यक्त करने को कहा गया। झुककर बैठे लोगों ने अपने अच्छे
को मानने से इंकार कर दिया जबकि तनकर बैठे लोगों ने स्वीकार कर लिया।
(डीपीए)</p>

<p>चीन में बस नहर में गिरी, 18 मरे</p>

<p>चीन के दक्षिणी पश्चिमी प्रांत गुआंगशी में एक दुमंजिला बस के पुल
से नहर में गिर जाने से कम से कम 18 लोगों की मौत हो गई तथा 10 अन्य लापता
है। </p><p>
</p><p>
अधिकारियों
ने यह जानकारी देते हुए सोमवार को बताया कि दुर्घटना लिंगुशी काउंटी में गत
शुक्रवार की सुबह हुई और बचाव करने वाले गोताखोरों ने नहर से 18 शव कल
बरामद किए।</p><p>
</p><p>
डाक्टरों ने
बताया कि दुर्घटना में घायल 13 लोगों में आठ की हालत स्थिर है तथा अन्य को
छुट्टी दे दी गई है। बस में सवार कुल यात्रियों की संख्या की जानकारी नहीं
है। गुआंगझोऊ स्थित यांगशेंग सांध्य समाचार ने बस के चालक के हवाले से बताया
कि बस में कम से कम 40 यात्री सवार थे।</p><p>
</p><p>
पुलिस चालक
और जीवित बचे अन्य लोगों से पूछताछ कर रही है, लेकिन उसे संदेह है कि
दुर्घटना, चालक के सो जाने के कारण हुई। गुआंगशी में ही इसी दिन एक
कोच की मिनी बस से हुई टक्कर में चार लोगों की मौत हो गई और अन्य एक
घायल हो गया। (रायटर)</p>

<p> </p>

<p>घिमिरे की गिरफ्तारी पर पत्रकारों का प्रदर्शन</p>

<p>नेपाल की राजधानी काठमांडू में सोमवार
को पत्रकारों के एक दल ने देश के प्रमुख समाचारपत्र कांतिपुर के संपादक
और प्रकाशक की रिहाई की मांग करते हुए जिला पुलिस मुख्यालय पर विरोध
प्रदर्शन किया।</p><p>
</p><p>
समाचारपत्र के
संपादक युवराज घिमिरे तथा प्रकाशक कैलाश सिरोया और बिनोद घयाली को
समाचारपत्र में नेपाल राजपरिवार में हुए हत्याकांड के बारे में माओवादी नेता
डॉ. बाबूराम भट्टारी का वह लेख प्रकाशित करने के आरोप में गिरफ्तार किया
गया।</p><p>
</p><p>
जिसमें इस
हत्याकांड को एक षडयंत्र बताते हुए इसके पीछे भारतीय गुप्तचर एजेंसी रिसर्च एंड
एनालसिस विंग (रॉ) का हाथ होने की बात कही गई है। तीनों पत्रकारों पर
प्रांरभिक तौर पर नेपाल की राजशाही के खिलाफ षड्यंत्र का मामला दर्ज किया गया
जिसे बाद में राजद्रोह के आरोप में तब्दील कर दिया गया।</p><p>
</p><p>
सरकार के इस
रवैये के खिलाफ तकरीबन डेढ सौ पत्रकारों ने इन तीनों की रिहाई और नेपाली
संविधान के तहत दी गई प्रेस की स्वतंत्रता के अधिकार की मांग करते
हुए पुलिस मुख्यालय के समक्ष प्रदर्शन किया। (रायटर)</p>

<p>मुस्लिम उग्रवादियों नें 15 और लोगों को बंधक बनाया</p>

<p>मुस्लिम उग्रवादियों ने सोमवार को दक्षिणी
फिलीपींस में 15 लोगों को बंधक बना लिया। बंधकों में बारह वर्ष
के दो किशोर भी शामिल हैै। </p><p>
</p><p>
इससे पूर्व
लांतवान कस्बे के मेयर ने कहा था कि अंबु सय्याफ गुट के उग्रवादियों ने स्कूल
ने 50 बच्चों का अपहरण कर लिया है।</p><p>
</p><p>
लेकिन राष्ट्रीय
सुरक्षा सलाहकार रोइलो गोलेज ने यहां बताया कि उग्रवादियों ने 15 लोगों को
बंधक बनाया है। इनमें से चार को छोड़कर सभी की उम्र 20 वर्ष से ऊपर
है। उग्रवादियों ने 13 अन्य लोगों को भी काफी अरसे से बंधक बना रखा
है। इनमें तीन अमेरिकी भी शामिल हैं।</p><p>
</p><p>
उग्रवादियों ने
धमकी दी थी कि वे सोमवार दोपहर में अमेरिकियों की हत्या कर देंगे, लेकिन
सरकार के एक मलेशियाई से मध्यस्थता कराने पर तैयार हो जाने के बाद
उग्रवादियों ने अपना इरादा बदल दिया। (रायटर)</p>

<p>नेपाल में ग्रामीणों के हत्यारे बाघ को मारा</p>

<p>नेपाल के शाही चितवन राष्ट्रीय उद्यान से निकल
कर पिछले छह दिनों में नौ ग्रामीणों को मारने वाले बाघ को वन
अधिकारियों ने मार दिया। </p><p>
</p><p>
रेडियो नेपाल
ने बताया कि काठमांडू से 80 किलोमीटर दक्षिण में स्थित संरक्षित राष्ट्रीय उद्यान
से एक बाघ तीन जून को बाहर निकल आया था।</p><p>
</p><p>
गार्दी और
बाघौडा गांव के निवासियों ने पार्क के अधिकारियों से इस विषय में
शिकायत की थी। इसके पहले बाघ को वापस उद्यान में खदेड़ने के लिए
अधिकारियों ने आठ हाथियों का एक दल भेजा था।</p><p>
</p><p>
लेकिन बाघ
उन्हें चकमा दे गया और लोगों को मारने लगा। उद्यान के अधिकारियों
के हवाले से रेडियो ने कहा कि रेंजर्स के हाथों मारे जाने से पहले बाघ ने नौ
व्यक्तियों को शिकार बनाया था। </p><p>
</p><p>
रेडियो के
अनुसार चोरी छिपे शिकार करने वालों से उद्यान को बचाने के लिए सैनिकों
को नियुक्त किया गया है। शाही चितवन राष्ट्रीय उद्यान में गैंडों और बाघों
सहित दुर्लभ पेड़ पौधों और जानवरों की काफी प्रजातियां हैंै।
(रायटर)</p>

<p>श्रीलंका में दो उग्रवादियों सहित पांच मरे</p>

<p>श्रीलंका में पूर्वोत्तर क्षेत्र में रविवार को अलग-अलग घटनाओं में
तीन सुरक्षाकर्मी और दो तमिल उग्रवादी मारे गए और सेना ने विद्रोहियों से भारी
संख्या में हथियार बरामद किए। </p><p>
</p><p>
जाफना में
कोडिकम्मा में हुए विस्फोट से एक सैनिक की मौत हो गई। पूर्वी अम्पारा
में उग्रवादियों द्वारा पुलिस चौकी पर किए गए हमले के दौरान हुई मुठभेड़ में
होमगार्ड के दो जवान मारे गए। </p><p>
</p><p>
इस बीच जाफना
में नागरकोविल और मुहामालाल क्षेत्र में सेना के साथ हुई भिड़ंत में दो
उग्रवादी मारे गए। (वार्ता)</p>

<p> </p>

<p>राजपरिवार की आत्मा की शांति हेतु विशेष कर्मकांड</p>

<p>नेपाल के राजमहल में गत एक जून को हुए हत्याकांड के बाद अब इस
हादसे में मारे गए राज परिवार के लोगों की आत्मा की शांति के लिए हिंदू
धर्म और नेपाल की परंपराओं के अनुसार सोमवार और आगामी बुधवार
को विशेष अनुष्ठान किया जाएगा।</p><p>
</p><p>
इस अनुष्ठान में
दो पुरोहित दिवंगत नरेश बीरेंंद्र और उनके पुत्र युवराज दीपेंद्र का
प्रतिनिधित्व करेंगे। ये दोनों अपनी स्वेच्छा से अशुद्ध खाना खाने के बाद
हाथी पर सवार होकर काठमांडू घाटी से बाहर निकल जाएंगे और फिर कभी वापस
नहीं लौटेंगे।</p><p>
</p><p>
विश्व का
एकमात्र हिंदू राष्ट्र माने जाने वाले नेपाल में राज परिवार को भगवान के बराबर
माना जाता है और यहां के लोगों का यह मानना है कि इस अनुष्ठान के बाद देश
में गत एक जून से हो रही दुर्भाग्यपूर्ण घटनाएं बंद हो जाएंगी।</p><p>
</p><p>
हिमालय की गोद
मंे बसे इस देश के लोगों को पिछले काफी समय से अनिश्चितताओं का सामना
करना पड़ रहा है। देश में राजनीतिक विवादों के साथ साथ माओवादी
विद्रोहियों का प्रभाव भी बढ़ रहा है। </p><p>
</p><p>
अब देश के लगभग
दो करोड़ बीस लाख लोग नए नरेश ज्ञानेंद्र के साथ सामंजस्य बैठाने का प्रयत्न कर
रहे हैं। नरेश ज्ञानेन्द्र के भाई दिवंगत नरेश बीरेंद्र को देश में स्थिरता का
प्रतीक माना जाता था।</p><p>
</p><p>
गत एक जून को
नरेश बीरेंद्र उनकी पत्नी महारानी ऐश्वर्या और शाही परिवार के सात अन्य सदस्यों
की राजमहल में एक पारिवारिक समारोह के दौरान गोली मार कर हत्या कर दी गई
थी।</p><p>
</p><p>
इस हत्याकांड
को आधिकारिक तौर पर स्वचालित हथियार से हुई दुर्घटना कहा जा चुका है,
लेकिन इसके बावजूद एक आधिकारिक जांच आयोग इस मामले की जांच कर रहा
है। (रायटर)</p>

<p> </p>

<p>दीपेंद्र को नरेश बनाने पर काफी बहस हुई थी</p>

<p>नेपाली राजपरिषद की जिस बैठक में दिवंगत
युवराज दीपेंद्र को नरेश बनाने का फैसला हुआ था, उसमें निर्णय लेने से पहले तीखी
बहस हुई थी। </p><p>
</p><p>
अंग्रेजी अखबार
काठमांडू पोस्ट में सोमवार को छपी खबर के मुताबिक दो जून को राजपरिषद की
बैठक में संवैधानिक राजनीतिक और चिकित्सा क्षेत्र के व्यक्तियों के बीच
गरमागरम बहस हुई थी। ज्यादातर लोगों का कहना था कि हत्याकांड के प्राथमिक
साक्ष्यों से शक की सूई युवराज की ओर जाती है। ऐसी स्थिति में उन्हें नरेश
कैसे बनाया जा सकता हैै।</p><p>
</p><p>
अखबार ने एक
उच्च पदस्थ सूत्रोें के हवाले से बताया है कि राजपरिषद के सदस्यों समेत ज्यादातर
लोग युवराज दीपेंद्र को नरेश बनाए जाने के पक्ष में नहीं थे। लेकिन
संवैधानिक विशेषज्ञोंं और नेपाल के मुख्य न्यायाधीश का कहना था कि
देश के संविधान और उत्तराधिकार कानूनों के मुताबिक राजा की
मृत्यु होने पर युवराज को ही राजा बनाया जाता हैै।</p><p>
</p><p>
राजपरिषद की
बैठक में सैनिक अस्पताल के डाक्टरो ने बताया था कि युवराज दीपेंद्र डाक्टरी रूप से
मृत नहीं है बल्कि नीम बेहोशी की हालत में है। हादसे के बाद महाराजा और
राज परिवार के अन्य सदस्यों को अस्पताल ही ले जाया गया था। वही युवराज भर्ती
थे।</p><p>
</p><p>
युवराज दीपेंद्र
को नरेश बनने के अयोग्य ठहराने का एक ही रास्ता था कि उन्हें मानसिक रूप से
शासन के अयोग्य घोषित कर दिया जाए। पर डाक्टरो ने ऐसा करने से मना कर
दिया। डाक्टरो ने कहा कि युवराज की नीम बेहोशी की हालत में मानसिक स्थिति
की जांच भी नहीं की जा</p><p>
सकती।</p><p>
</p><p>
इसके बाद राज
परिषद ने युवराज दीपेंद्र की महाराजा घोषित कर दिया। हालांकि बैठक दो जून
को हुई थी लेकिन युवराज को एक जून की रात सवा नौ बजे से नरेश बनाया
गया। दुर्भाग्यवश युवराज दीपेंद्र का राज्याभिषेक भी नहीं हो पाया क्योकि नीम
बेहोशी की हालत में ही चार जून को उनकी मृत्यु हो गई थी। (रायटर)</p>

<p>पाकिस्तान में सड़क दुर्घटना, 11 मरे</p>

<p>पाकिस्तान के पंजाब प्रांत में सोमवार को
एक बस के ट्रैक्टर ट्राली से टकरा जाने से 11 लोग मारे गए और 11 अन्य घायल हो
गए। </p><p>
</p><p>
पुलिस सूत्रोंं
ने बताया कि दुर्घटना मुल्तान से 90 किलोमीटर पश्चिम में मुजफ्फरगढ शहर के निकट
हुई। मृतकों में पांच पुरूष, तीन महिलाएंं और तीन बच्चे हैं। घायलों में
छह की स्थिति गंभीर बताई गई है। </p><p>
</p><p>
पाकिस्तान मेंं
खस्ताहाल सड़कों यात्रियों से ठसाठस भरी गाड़ियोंं और अनियंत्रित ड्राइविंग के
कारण दुर्घटनाएंं आम हो गई हैं। (रायटर)</p>

<p>मैकवे को मौत की सजा आज</p>

<p>अमेरिका के ओकलाहामा शहर में एक भवन को बम से उड़ा देने वाले
तिमोथी मैकवे ने रविवार को अपने आखिरी भोजन में एक लीटर आइसक्रीम खाने की
इच्छा व्यक्त की। इस दुर्घटना में 168 लोग मारे गए थे। मैकवे को सोमवार
को मौत की सजा दी जाने वाली है।</p><p>
</p><p>
जेल के एक
प्रवक्ता डान डूने ने यहां बताया कि मैकवे ने अंतिम भोजन में एक लीटर चाकलेट
आइसक्रीम लाने का आदेश दिया। उन्होंने बताया कि मैकवे को स्थानीय
समयानुसार सुबह सात बजे मौत की सजा दी जाएगी।</p><p>
</p><p>
प्रवक्ता ने बताया
कि मैकवे ने कल आधिकारिक रूप से अंतिम खाने का आदेश दे दिया लेकिन
अगर वह चाहे तो और खाने का आदेश दे सकता है। डूने कहा कि मैकवे ने कल
का दिन टेलीविजन देखते हुए और अपने वकीलों के साथ चर्चा में बिताया और
शांतिपूर्वक सो गया। (रायटर)</p>

<p> </p>

<p>अमेरिका ने खातमी की जीत का स्वागत किया</p>

<p>अमेरिका ने ईरान के राष्ट्रपति चुनाव मेंं मोहम्मद खातमी के दुबारा
विजयी होने का स्वागत करते हुए सुधार कार्यक्रम जारी रहने की आशा व्यक्त की
हैै। </p><p>
</p><p>
एक वरिष्ठ
अमेरिकी अधिकारी ने रविवार को कहा हम ईरान के परिणामों का स्वागत
करते हैं और आशा है कि सुधार कार्यक्रम जारी रहेंगे।</p><p>
</p><p>
गत शुक्रवार को
हुए चुनाव में खातमी भारी बहुमत से विजयी हुए थे। इस जीत के बाद आशा व्यक्त की
जा रही है कि इससे कट्टरपंथियों के खिलाफ काफी समय से चल रहे खातमी के संघर्ष
को मदद मिलेगी।</p><p>
</p><p>
अमेरिकी
अधिकारी ने कहा कि अमेरिका ईरान के अन्तरराष्ट्रीय व्यवहार के प्रति चिन्तित
है, लेकिन आशाएं बरकरार रखी जानी चाहिए। अमेरिका ने कह रखा है कि ईरान
से निकटता तभी संभव होगी जब वह आतंकवादी समूहों को समर्थन प्रक्षेपास्त्र
कार्यक्रम और व्यापक स्तर पर क्षति पहुंचाने वाले हथियारों को इकट्ठा करना बंद
करे। ईरान ने नाभिकीय हथियार रखने या आतंकवादियों को समर्थन से इंकार
किया है। (रायटर)</p>

<p> </p>

<p>राष्ट्रपति पद से इस्तीफा नहीं दूंगा- वाहिद</p>

<p>इंडोनेशियाई राष्ट्रपति अब्दुर रहमान वाहिद ने
कहा है कि वह इस्तीफा नहीं देगें। चाहे सेना और पुलिस उन्हें हटाने के लिए
कुछ भी कर ले। </p><p>
</p><p>
जकार्ता पोस्ट
अखबार में सोमवार को छपी खबरों के मुताबिक वाहिद महाभियोग को टालने का
प्रयास कर रहे है। उनके खिलाफ अगस्त में महाभियोग चलने की संभावना है।
उन्होंने कहा है कि यदि सशस्त्र सैनिक राष्ट्रपति भवन की ओर बंदूकें तान दें
तो भी वह पद नहींं छोड़ेंगेे। </p><p>
</p><p>
वाहिद अपनी
तुलना इंडोनेशिया के संस्थापक राष्ट्रपति सुकर्णो से कर रहे है। उन्हें 1960
में जबरन पद से हटा दिया गया था। उस समय सुकर्णो ने सेना से कहा था आगे
बढ़ो तुम मुझे मार सकते हो, क्योंकि मैं जनता के द्वारा चुना गया हूं। </p><p>
</p><p>
वाहिद ने यह भी
धमकी दी है कि यदि विधायिका उनके खिलाफ महाभियोग पर जोर देगी तो
वह आपातकाल की स्थिति घोषित कर देंगे। ऐसी स्थिति में राष्ट्रपति को संसद
भंग करने और नए सिरे से चुनाव करने का अधिकार मिल जाता हैै। (रायटर)</p>

<p>मुशर्रफ से नाराज कट्टरपंथी एकजुट होने लगे</p>

<p>पाकिस्तान के मजहबी दलों ने सैनिक शासक जनरल परवेज मुशर्रफ की
फटकार की प्रतिक्रिया में संयुक्त मोर्चा बनाकर 'इस्लामीकरण' की माँगों के समर्थन
में अभियान शुरू करने का फैसला किया है। इससे सरकार और उनके बीच टकराव
की संभावना पैदा हो गई है।</p><p>
</p><p>
जनरल परवेज मुशर्रफ
ने हाल ही में मजहबी दलों को उनके क्रियाकलापों के लिए कड़ी फटकार लगाई
थी। इसके बाद कई दलों के नेताओं ने उनकी टिप्पणियों को अनुचित और
अवांछित बताया है।</p><p>
</p><p>
पाकिस्तान के
उर्दू प्रेस ने यह समाचार प्रकाशित किया है कि जमाते इस्लामी के प्रमुख काजी हुसैन शाह
अहमद नूरानी, जे.यू.आई.एफ. के प्रमुख मौलाना फजलुर रहमान और जे.यू.आई.एस.
के नेता मौलाना समी-उल-हक ने हाल में रावलपिंडी में एक बैठक की।</p><p>
</p><p>
इन नेताओं ने
अपनी इस बैठक में देश में मौजूदा राजनीतिक स्थिति पर विचार करने के बाद अपना
एजेंडा भी तय किया है। रिपोर्टों में कहा गया है कि मौलाना शाह अहमद नूरानी
को यह जिम्मेदारी सौंपी गई है कि वे इस सिलसिले में अन्य मजहबी गुटों के नेताओं
से संपर्क स्थापित करें। इस लिहाज से रावलपिंडी में हुई इन नेताओं की यह बैठक
पाकिस्तान के मजहबी गुटों को एकजुट करने के प्रयासों में और अधिक
सक्रियता लाने में खासी भूमिका निभाएगी।</p><p>
</p><p>
संयुक्त मोर्चा ने
जो एजेंडा तैयार किया है, उसमें ब्याज आधारित अर्थव्यवस्था की समाप्ति को प्रमुख
मुद्दा बनाया गया है। इसके अलावा विभिन्ना वर्गों में सौहार्द भावना को प्रोत्साहित
करने को भी इस एजेंडे में स्थान दिया गया। साथ ही सरकार पर इस बात के लिए
दबाव बनाए रखने का भी निश्चय किया गया है कि गत डेढ़ वर्ष की अवधि के
दौरान जिन उलेमाओं की हत्या हुई है, उनके हत्यारों को गिरफ्तार किया जाए।</p><p>
</p><p>
पाकिस्तान में
सर्वाधिक प्रसार संख्या वाले उर्दू दैनिक 'जंग' ने मजहबी दलों को अपने
संपादकीय में जो सलाह दी है, वह भी मौजूदा हालात में महत्वपूर्ण है। संपादकीय
में मजहबी दलों का आह्वान किया गया है कि वे जनरल मुशर्रफ के बयान के पीछे जो
पीड़ा है, उसे अनुभूत करें और देश में धार्मिक उन्माद को समाप्त करने की
उनकी अपील पर ध्यान दें।</p><p>
</p><p>
संपादकीय में
कहा गया है कि हमें यह भी अनुभूत करना चाहिए कि लाल किले पर झंडा फहराने के
दावे इस्लाम और राष्ट्र की गरिमा के खिलाफ हैं। इस तरह के बयान पाकिस्तान की
छवि को मलिन करते हैं। हमें जनरल मुशर्रफ की अपील पर गंभीरता से विचार करना
चाहिए और अपने देश को आर्थिक दृष्टि से समृद्ध बनाने के लिए एकजुट होना
चाहिए।</p><p>
</p><p>
पाकिस्तानी प्रेस
ने पिछले दिनों यह समाचार भी प्रकाशित किया है कि गत दो दिनों में जो लोग
पाकिस्तान के गृहमंत्री लेफ्टिनेंट जनरल (रिटायर) मोइनुद्दीन हैदर से मिले, उन्हें उन्होंने
उग्रवादी नेताओं की बयानबाजी पर जनरल परवेज मुशर्रफ की सोच से अवगत कराया
है।</p><p>
</p><p>
ले. जनरल हैदर
परवेज मुशर्रफ के नजदीकी माने जाते हैं। हैदर ने मिलने आए लोगों से कहा कि
जनरल मुशर्रफ ने उग्रवादी दलों के कुछ नेताओं की बयानबाजी को गंभीरता से लिया
है। सरकार ऐसे गैर जिम्मेदाराना बयानों पर मूक दर्शक नहीं बनी रहेगी।</p><p>
</p><p>
जनरल परवेज
मुशर्रफ की फटकार के बाद वहाँ के आतंकवादी गुट, जिन्होंने पहले मुशर्रफ की
प्रस्तावित भारत यात्रा का विरोध किया था, अब खुलकर मुशर्रफ के विरोध
में खड़े हो गए हैं। लश्कर-ए-तोयबा और हरकत-उल- मुजाहिदीन ने तो गुरुवार
को उन्हें धमकी भी दी थी।</p><p>
</p><p>
लश्कर ने कहा
था कि जनरल मुशर्रफ को भारत से दोस्ती की भारी कीमत चुकानी पड़ेगी। वैसे
पाकिस्तानी मीडिया उलेमा और जिहादी गुटों की आलोचना करने से बचने की
सतर्कता बरत रहा है, पर वह भी कट्टरपंथियों की धमकियों के बावजूद जनरल
परवेज मुशर्रफ के साथ खड़ा है। उर्दू प्रेस के प्रभावी हिस्से ने भी जनरल के भाषण
का स्वागत किया है।</p><p>
</p><p>
'दि डॉन' और
'नेशन' जैसे प्रमुख अँगरेजी दैनिक के समान सर्वाधिक प्रसार संख्या वाले उर्दू
दैनिक 'जंग' ने भी इस मामले में जनरल परवेज मुशर्रफ की स्पष्टवादिता को सराहा
है। हालाँकि एक उर्दू अखबार 'औसाफ' ने घुमा-फिराकर लश्कर की सोच को
मुखर किया है।</p>

<p> </p>

<p>'आर्थिक वैश्वीकरण गरीब देशों के लिए ठीक नहीं'</p>

<p>केंद्रीय श्रम मंत्री डॉ. सत्यनारायण जटिया ने कहा कि आर्थिक वैश्वीकरण
की अवधारणा जहाँ विकसित देशों के लिए अनुकूल है, वहीं विकासशील देशों के
लिए चुनौतीपूर्ण है।</p><p>
</p><p>
उन्होंने कहा
कि व्यापार को श्रम मानकों से येन-केन-प्रकारेण जोड़ने की विश्व व्यापार संगठन
की चेेष्टा विकासशील देशों के श्रम, रोजगार एवं उद्योग परिदृश्य के लिए सर्वथा
प्रतिकूल होगी। </p><p>
</p><p>
डॉ. जटिया ने
जिनेवा में चल रहे 89वें अंतरराष्ट्रीय श्रम सम्मेलन की नवनिर्वाचित अध्यक्ष एवं फिलीपींस
की श्रम एवं रोजगार मंत्री पेट्रिका ए. स्टॉपमॉस से आर्थिक उदारीकरण से उत्पन्न
परिस्थितियों एवं प्रभावों पर विचार-विमर्श किया।</p><p>
</p><p>
डॉ.जटिया
विचार-विमर्श में पेट्रिका से आर्थिक वैश्वीकरण को किसी भी देश की सामाजिक व
आर्थिक स्वतंत्रता में बाधा के रूप में न होने देने के भारत के अभिमत से सहमति
व्यक्त की। श्रम मंत्री ने कहा कि 'डिसेंट वर्क' की अवधारणा समान रूप से सभी
देशों के लिए कारगर नहीं है।</p><p>
</p><p>
विकसित देशों में
'डिसेंट वर्क' इसलिए है कि वहाँ काम के अवसर और रोजगार की उपलब्धता है,
किंतु विकासशील देशों में काम के सीमित अवसर होने के कारण रोजगार के पूरे
अवसर नहीं हैं, इसलिए विकसित और विकासशील देशों के लिए 'डिसेंट वर्क' का एक ही
पैमाना कदाचित संभव</p><p>
नहीं है।</p><p>
</p><p>
अंतरराष्ट्रीय श्रम
संगठन द्वारा विकासशील देशों के प्रशिक्षण, पुनर्प्रशिक्षण और पुनर्वास कार्यक्रमों तथा
रोजगार सृजन के लिए प्रभावी उपाय करने के विषयों पर भी परस्पर सहमति व्यक्त की
गई।</p><p>
</p><p>
अंतरराष्ट्रीय श्रम
सम्मेलन की अध्यक्ष एवं फिलीपींस की श्रम एवं रोजगार मंत्री ने भारत के सूचना
प्रौद्योगिकी एवं दवा उत्पादन के क्षेत्र में हो रहे श्रेष्ठ कार्यों की मुक्तकंठ से
सराहना की। डॉ. जटिया ने पेट्रिका ए. स्टॉपमॉस को उनके अंतरराष्ट्रीय श्रम
सम्मेलन की अध्यक्ष निर्वाचित होने पर भारत की ओर से हार्दिक अभिनंदन करते हुए
बधाई दी।</p>

<p> </p>

<p>नए टकराव के लिए जनता तैयार रहे ः सद्दाम</p>

<p>इराक के राष्ट्रपति सद्दाम हुसैन ने देश की जनता को ब्रिटेन और
अमेरिका के साथ होने वाले नए टकराव के लिए तैयार रहने के अपील की है।
हुसैन ने जनता से यह भी वादा किया कि नए प्रतिबंधों के बावजूद जीत उनकी ही
होगी।</p><p>
</p><p>
इराकी राष्ट्रपति
ने मंत्रिमंडल की बैठक में संयुक्त राष्ट्र द्वारा लगाए गए प्रतिबंधों की निंदा करते
हुए कहा कि इनका खाका अमेरिका और ब्रिटेन की शह पर तैयार किया गया है।
हुसैन ने कहा कि मुझे लगता है कि हम एक नए टकराव की ओर बढ़ रहे हैं और हमें
इसके लिए खुद को तैयार कर लेना चाहिए।</p><p>
</p><p>
हमलावर राष्ट्र
इराक की राष्ट्रीय भावना को तोड़ डालना चाहते हैं और इसके विकास के रास्ते
बंद करके इस पर हावी होना चाहते हैं। इसीलिए उन्होंने प्रतिबंधों का नाम
बदलकर 'स्मार्ट प्रतिबंध' कर दिया है।</p><p>
</p><p>
संयुक्त राष्ट्र
सुरक्षा परिषद ने गत एक जून को पारित प्रस्ताव में खाद्य के लिए तेल निर्यात कार्यक्रम
को सिर्फ एक माह के लिए बढ़ाया था, जबकि पहले इसकी अवधि छः-छः
महीने के लिए बढ़ाई जाती थी। इसके जवाब में गत सोमवार को इराक ने तेल
निर्यात रोक देने की घोषणा की थी।</p><p>
</p><p>
इराक ने कहा
है कि खाद्य के लिए तेल कार्यक्रम महज एक माह के लिए बढ़ाए जाने के पीछे
अमेरिका और ब्रिटेन का हाथ है, जो इस समय के दौरान नए प्रतिबंधों के
बारे में अपना संयुक्त प्रस्ताव पारित कराना चाहते हैं।</p><p>
</p><p>
अमेरिका और
ब्रिटेन ने कहा है कि वे इराक पर ऐसे 'स्मार्ट प्रतिबंध' लागू कराना चाहते
हैं, जिनके तहत आम उपभोग की चीजों के आयात पर रोक ढीली होगी। लेकिन
ऐसी सामग्री पर कड़ी निगरानी रखी जाएगी, जिसका सैनिक इस्तेमाल भी हो सकता
है। फ्रांस और रूस ने इस प्रस्ताव पर आपत्ति</p><p>
की है।</p>

<p> </p>

<p>बरलुसकोनी इटली के नए प्रधानमंत्री</p>

<p>इटली के प्रमुख उद्योगपति और कंजर्वेटिव पार्टी के नेता सिल्ववियो
बरलुसकोनी को राष्ट्रपति ने शनिवार को सरकार बनाने का न्यौता देने के साथ
ही उन्हें औपचारिक रूप से इटली का नया प्रधानमंत्री नियुक्त कर दिया।</p><p>
</p><p>
राष्ट्रपति
कार्लो एजेग्लियो सिआम्पी ने पार्टी सचेतकों और विभिन्ना संवैधानिक हस्तियों
के साथ दो दिन के गहन विचार-विमर्श के बाद यह निर्णय लिया। पिछले महीने हुए
आम चुनावों में बरलुसकोनी के गठबंधन की भारी बहुमत से हुई जीत के बाद
प्रधानमंत्री पद पर उनकी नियुक्ति मात्र औपचारिकता थी।</p><p>
</p><p>
अगले हफ्ते
ब्रूसेल्स में होने वाली नाटो की बैठक और गोथेनबर्ग (स्वीडन) में होने वाली
योरपीय संघ की बैठक के पहले नई सरकार का गठन होना आवश्यक था।(डीपीए)</p>

<p> </p>






</body></text></cesDoc>