<cesDoc id="hin-w-dunia-joke-00-23" lang="hin">
<cesHeader type="text">
<fileDesc>
<titleStmt>
<h.title>hin-w-dunia-joke-00-23.txt</h.title>
<respStmt>
<respType>Electronic file created by</respType>
<respName>Department of Linguistics, Lancaster University</respName>
<respType>text collected by</respType>
<respName>Paul Baker, Celia Worth and Andrew Hardie</respName>
<respType>transferred into Unicode by</respType>
<respName>"Unicodify" software by Andrew Hardie</respName>
</respStmt>
</titleStmt>
<publicationStmt>
<distributor>UCREL</distributor>
<pubAddress>Department of Linguistics, Lancaster University, Lancaster, LA1 4YT, UK</pubAddress>
<availability region="WORLD"></availability>
<pubDate>03-08-24</pubDate>
</publicationStmt>
<sourceDesc>
<biblStruct>
<monogr>
<h.title>"Webdunia" internet news (www.webdunia.com), news stories collected on xx-xx-xx</h.title>
<h.author>Webdunia</h.author>
<imprint>
<pubPlace>Madhya Pradesh, India</pubPlace>
<publisher>Webdunia</publisher>
<pubDate>xx-xx-xx</pubDate>
</imprint>
</monogr>
</biblStruct>
</sourceDesc>
</fileDesc>
<encodingDesc>
<projectDesc>Text collected for use in the EMILLE project.</projectDesc>
<samplingDesc>Simple written text only has been transcribed. Diagrams, pictures and tables have been omitted and their place marked with a gap element.
</samplingDesc>
<editorialDecl>
<conformance level="1"></conformance>
</editorialDecl>
</encodingDesc>
<profileDesc>
<creation>
<date>03-08-24</date>
</creation>
<langUsage>Hindi</langUsage>
<wsdUsage>
<writingSystem id="ISO/IEC 10646">Universal Multiple-Octet Coded Character Set (UCS).</writingSystem>
</wsdUsage>
<textClass>
<channel mode="w">print</channel>
<constitution type="composite"></constitution>
<domain type="public"></domain>
<factuality type="fact"></factuality>
</textClass>
<translations></translations>
</profileDesc>
<revisionDesc></revisionDesc>
</cesHeader>

<text>
<body>




<p>     नाम बदनाम!</p>

<p>     मनोचिकित्सक मन्नू को जल्दी से कहीं जाना था।
मगर रिसेप्शनिस्ट ने </p><p>
बताया कि अभी तीन लेडी पेशेंट और बैठी हैं। उन्हें जल्दी से निबटाने की </p><p>
मंशा से मनोवैज्ञानिक दबाव डालते हुए मन्नू ने पहली से कहना शुरू किया </p><p>
- 'सुनिए! आपकी समस्या क्या है? खाना, खाना, सिर्फ खाना! जबकि </p><p>
मैंने पहले ही आपसे कहा था कि खुराक कम करें, खाने से जी हटाएँ। </p><p>
क्या नाम है आपकी लड़की का?' </p><p>
</p><p>
स्त्री बोली - जी इमरतीकुमारी!' </p><p>
मन्नू बोले - 'देखा! बच्ची के नाम में भी तुम्हारे खाने के अलावा कुछ </p><p>
नहीं झलकता!' </p><p>
</p><p>
फिर मन्नू दूसरी स्त्री से बोले - 'और तुम! पहले दरजे की कंजूस! पहले भी कह
चुका हूँ, जब तक कंजूसी की आदत नहीं छोड़ोगी ऐसे ही परेशान रहोगी। क्या
नाम है तुम्हारी बेटी का? </p><p>
वह बोली - अशर्फीदेवी!' </p><p>
मन्नू ने उलाहना दिया - 'देखा। </p><p>
तो यह नाम भी धन-दौलत का ही परिणाम है।' </p><p>
तुम्हारे लगाव का ही परिणाम है।' </p><p>
तभी स्त्री नंबर तीन ने अपने छह वर्षीय बेटे का हाथ पकड़कर उठाया। </p><p>
और बोली - चल बेटे रतिरमण! </p><p>
अब अपनी खैर नहीं।' और सेकंडों में वहाँ से बाहर हो गई। </p>

<p>      </p>

<p>     खड़ा हुआ सो क्या हुआ</p>

<p>     एक बस में जब मिस रूबी दाखिल हुईं तो देखा बस खचाखच
भरी हुई है। मिस रूबी ने एक नौजवान के पास जाकर शहद घुली नरमी के साथ
कहा। </p><p>
'ऐ नौजवान! क्या तुम मुझे अपनी सीट नहीं दे सकते? देखो न, मैं 'प्रेग्नेंट' हूँ।' </p><p>
नौजवान ने शराफत से सीट तो दे दी। मगर खड़े होने के बाद जब इत्मीनान से मिस
रूबी का मुआयना करना शुरू किया तो देखा कि कमर पतली है और काया एकदम
छरहरी। उसने उतावली में पूछ ही लिया- 'मैडम कितने महीने हो गए?' </p><p>
रूबी ने चतुरता से कहा-'महीने कहाँ जी? अभी, मुश्किल से चालीस मिनट पहले।' </p>

<p>      </p>

<p>     अदृश्य सुंदरता!</p>

<p>     दुकानदार ने उत्साह के साथ बताया -यह दूरबीन बड़ी </p><p>
शक्तिशाली है। इससे आप दस किलोमीटर दूर खड़ी खूबसूरत </p><p>
लड़की को देख सकते हैं।' </p><p>
</p><p>
नवयुवक ग्राहक का जवाब था -'पर जो खूबसूरत लड़की दस </p><p>
किलोमीटर दूर खड़ी हो, उसे देखने का क्या फायदा?' </p>

<p> </p>

<p>पूत के पाँव!</p>

<p>    </p>

<p>नंबर एक के फ्लर्ट, परम
रोमांटिक और नारियों में बेहद लोकप्रिय </p><p>
मिस्टर बादल 'आवारा' से जब किसी ने पूछा - रोमांटिक प्रतिभा कब </p><p>
से विकसित हुई?' </p><p>
</p><p>
तो मिस्टर आवारा का जवाब था -'बहुत छुटपन से विकसित हो गई </p><p>
थी। जब बच्चें पैदा होते हैं तो डॉक्टर उन्हें थपथपाते हैं, पर पता है? </p><p>
मेरे मामले में क्या हुआ? 'उई 'चिल्लाती हुई नर्स ने मुझे कसकर थप्पड़ </p><p>
जमाया था। </p>

<p>    </p>

<p> </p>

<p>    </p>

<p>सेक्स-रे!</p>

<p>    </p>

<p>एक्स-रे करवाने गई महिला
ने घुप्प अंधेरे मशीन रूम में एक्स-रे ऑपरेटर से पूछा- मैंने कपड़े उतार दिए
हैं। इन्हें कहाँ रखूँ?' </p><p>
ऑपरेटर की भर्राई आवाज आई- </p><p>
वहाँ कोने में। मेरे कपड़ों के ऊपर।' </p>

<p>    </p>

<p> </p>

<p>    </p>

<p>काम तमाम! </p>

<p>    </p>

<p>जब कंजूस नंदू सेठ घर आए
तो देखा उनकी पत्नी एक अजनबी की बाँहों में समाई है। तड़पकर सेठ बंदूक उठा
</p><p>
लाया और भड़ककर उन दोनों से बोला- 'तुम दोनों और भी कसकर एक-दूसरे से
लिपट जाओ। मैं मात्र दो गोली में </p><p>
तुम लोगों का काम तमाम करना चाहता हूँ।' </p>

<p> </p>

<p>मोनोपॉली टूटी!</p>

<p>    </p>

<p>चंगू-मंगू प्लेटफॉर्म पर
बैठे मूँगफलियाँ खा रहे थे। तभी उन्होंने देखा ट्रेन रुकी। सामने के डिब्बे
से एक युवती उतरी और उसने </p><p>
प्लेटफॉर्म पर खड़ी दूसरी लड़की को जोर से भींचते हुए गले लगा लिया। </p><p>
चंगू ने कहा- बस, इसीलिए हमारा देश पाताल में जा रहा है।' </p><p>
मंगू ने पूछा- 'क्यों भला?' </p><p>
चंगू ने बताया- 'देखा नहीं? अब महिलाओं ने पुरुषों वाले ये खास काम भी करने शुरू
कर दिए।' </p>

<p>    </p>

<p> </p>

<p>    </p>

<p>उमर निगोड़ी!</p>

<p>    </p>

<p>ट्रेन में कुछ वृद्धाएँ चर्चा
कर रही थीं। अचानक उम्र पर आकर बात ठहरी। एक-दूसरे से </p><p>
उम्र पूछी जाने लगी। साठ वर्षीय मोहतरमा बोलीं- मैं तो अभी चालीस की हूँ। </p><p>
पैंसठ साल वाली ने कहा- मैं तो अभी चौंतीस की हूँ। </p><p>
सत्तर साल वाली ने फरमाया- मैं तो सत्ताईस की हूँ। </p><p>
अचानक ऊपर बर्थ पर लेटा इनकी चर्चा सुन रहा एक नौजवान धम्म से इनके बीच
कूद </p><p>
पड़ा। सब चौंक कर बोलीं- अरे, तुम कहाँ से आए? </p><p>
नौजवान ने शरारत से कहा- मैं? बस, अभी-अभी पैदा हुआ हूँ। </p>

<p>    </p>

<p> </p>

<p>    </p>

<p>कर्मकांडी!</p>

<p>    </p>

<p>एक सेक्रेटरी ने दफ्तर
आने से पहले बॉस को फोन लगाया- 'हलो बॉस! परसों मैं गाजर के हलुए के स्वाद
वाली लिपस्टिक लगाकर आई थी, कल मैं आलू के पराँठे के स्वाद वाली लिपस्टिक
लगाकर आई थी। कृपया आदेश दें, आज मैं कौन से स्वाद वाली </p><p>
लिपस्टिक लगाकर आऊँ? </p><p>
</p><p>
बॉस ने अगरबत्तियों से खेलते हुए कहा- 'आज मेरा ग्यारस का उपवास है हनी! तुम्हारे </p><p>
पास कोई फलाहारी लिपस्टिक है क्या? </p>

<p> </p>

<p>डंडा चिकित्सा! </p>

<p>    </p>

<p>बच्चूसिंह शराब के घनघोर
नशे में एक पैर फुटपाथ पर और एक पैर सड़क पर रखते चले जा रहे थे। पीछे से
थानेदार ननकू ने आकर मोटा डंडा रसीद किया और पूछा- 'क्यों रे खटखोपड़ी!
कितनी पी रखी है तूने?' </p><p>
बच्चूसिंह संभलते हुए बोला - याद दिलाने का शुक्रिया माई बाप कि पी रखी है
मैंने। वर्ना अपुन तो समझा था कि </p><p>
लंगड़ा हो गया रे!' </p>

<p>    </p>

<p> </p>

<p>    </p>

<p>हमाम में सब.....</p>

<p>    </p>

<p>मुंबई ने एक सिनेमाघर
मंे एक युवती ने मैनेजर की कनपटी पर पिस्तौल अड़ा दी और कहा- 'मेरा पति अंदर
बैठा </p><p>
दूसरी औरत के साथ पिक्चर देख रहा है। उन दोनों को तुम जल्दी से बाहर
निकालो, वरना तुम्हें गोली मार दूँगी।' </p><p>
</p><p>
मैनेजर ने डर से काँपते हुए थिएटर में अनाउंसमेंट करवाया- 'जो भी पुरुष पराई स्त्री
के साथ पिक्चर देख रहा हो, </p><p>
जल्दी से बाहर आ जाए।' अनाउंसमेंट का होना था कि दो मिनट में सारा थिएटर ही
खाली हो गया। </p>

<p>    </p>

<p> </p>

<p>    </p>

<p>क्या नजारा!</p>

<p>    </p>

<p>एक थुलथुल पत्नी ने अपने
ढुलमुल पति से चेतावनी के स्वर में कहा- 'इस बाथरूम में अब परदे लग ही जाने
चाहिए। मैं ठीक से नहा भी नहीं सकती, कि कहीं मुझे पड़ोसी न देख लें।' </p><p>
</p><p>
पति ने टालमटोल करते हुए जवाब दिया- 'चिंता मत करो डॉर्लिंग! अगर उन्होंने तुम्हें
नहाते हुए देख लिया, तो खुद ही अपनी खिड़कियों पर परदे लगवा लेंगे। </p>

<p> </p>

<p>वस्त्रम् समर्पयामि!</p>

<p>    </p>

<p>मिस रंभा ने अपने
फिजियोथेरेपिस्ट को फोन लगाया -'डॉक्टर सुबह जब मैं चेकअप कराने आई थी,
शायद मेरा अंतर्वस्त्र वहीं रह गया।' </p><p>
डॉक्टर ने कहा नहीं यहाँ तो नहीं है।' </p><p>
मिस रंभा ने कहा- 'ओह, तो फिर हो सकता है, वह मेरे डेंटिस्ट के यहाँ रह गया
हो।' </p>

<p>    </p>

<p> </p>

<p>    </p>

<p>खुल्लमखुल्लु!</p>

<p>    </p>

<p>टू पीस बिकिनी पहले एक
दिलफरेब कन्या नदी की तरफ बढ़ रही थी कि वहाँ घूम रहे एक </p><p>
पुलिसमैन ने टोका- 'ऐई छोकरी! यहाँ दो टुकड़ों वाले कपड़े पहनकर तैरना
और नहाना मना है।' </p><p>
कन्या ने नशीली अदा से कहा- 'ओहो! तो आज्ञा कीजिए इनमें से कौन सा टुकड़ा
उतार फेंकूँ्र ?' </p>

<p>    </p>

<p> </p>

<p>    </p>

<p>काश हम होते !</p>

<p>    </p>

<p>टॉम ः बधाई
हेनरी ! क्या जबरदस्त स्पोर्ट्स कार है! ऐ सुनो, तनखा बढ़ गई क्या तुम्हारी? </p><p>
हेनरी ः न रे भइया। बात दरअसल यूँ है कि परसों अपने राम पैदल चले जा रहे
थे। तभी एक सुंदर सलोनी ने अपनी कार रोकी और दे दी हमें लिप्ट। </p><p>
टॉम ः सुंदर सलोनी ने लिप्ट दे दी? </p><p>
फिर...? </p><p>
हेनरी ः फिर क्या। ले गई हमें दूर, सुनसान में और एक जगह रुककर उसने
अपना एक-एक कपड़ा उतार डाला। </p><p>
टॉम ः फिर भइयाँ? फिर?? </p><p>
हेनरी ः फिर बोली ऐई! ले लो, तम्हें जो भी चाहिए। और टॉम भइया, मैंने
तो कार ले ली। </p><p>
टॉम ः हद है यार। तुम एकदम मूर्ख निकले। कार ले ली? </p><p>
हेनरी ः मूर्ख क्यूँ भइया? कार नहीं थी मेरे पास, तो ले ली। अगर उसके
कपड़े ले लेता, तो उन कपड़ों का मंै क्या करता भला? </p>

<p> </p>

<p>ना-ना करते </p>

<p>    </p>

<p>गट्टू- जब हमारे घुमंतू प्रोफेसर
की बेटी सोलह साल की हो गई, तो पता है उन्होंने सबसे पहला काम क्या किया? </p><p>
पट्टू- नहीं तो! क्या किया? </p><p>
गट्टू- उन्होंने सबसे पहले उसे चौदह भाषाओं में 'नहीं' कहना सिखाया। </p>

<p>    </p>

<p> </p>

<p>    </p>

<p>मालिक मनचला!</p>

<p>    </p>

<p>दो नौकरानियाँ बतिया
रही थीं। </p><p>
पहली- 'जबसे मालिक ने पियानो बजाना छोड़ा है, मेरी तो शामत ही आ गई है।' </p><p>
दूसरी- 'क्यों भला?' </p><p>
पहली- अरे, पहले उनकी उँगलियाँ कम से कम पियानो में तो व्यस्त रहती थीं। </p>

<p>    </p>

<p> </p>

<p>    </p>

<p>जागरण! </p>

<p>    </p>

<p>जज ः मिस्टर, चंदू! क्या
यह बात सच है कि तुम पच्चीस अगस्त की पूरी रात सेठ हजारीमल की संुदर पत्नी के साथ
सोए? </p><p>
चंदू ः सोया? कसम ले लें हुजूर, मैंने पलक तक नहीं झपकाई। </p>

<p> </p>

<p>जुम्मा-चुम्मा!</p>

<p>    </p>

<p>प्रेमिका ः चंुबन क्या
है? </p><p>
प्रेमी ः प्रेम की भाषा </p><p>
प्रेमिका ः तो कुछ बोलो ना! </p>

<p>    </p>

<p> </p>

<p>    </p>

<p>चतुर सजनी!</p>

<p>    </p>

<p>टोनी ः आधुनिक
युवती किसे कहते हैं? </p><p>
टोनू ः उसे, जो चुंबन के लिए इस स्टाइल से मना करे, कि उससे वंचित भी न रह
जाए। </p>

<p> </p>






</body></text></cesDoc>