<cesDoc id="hin-w-dunia-news-01-09-06" lang="hin">
<cesHeader type="text">
<fileDesc>
<titleStmt>
<h.title>hin-w-dunia-news-01-09-06.txt</h.title>
<respStmt>
<respType>Electronic file created by</respType>
<respName>Department of Linguistics, Lancaster University</respName>
<respType>text collected by</respType>
<respName>Paul Baker, Celia Worth and Andrew Hardie</respName>
<respType>transferred into Unicode by</respType>
<respName>"Unicodify" software by Andrew Hardie</respName>
</respStmt>
</titleStmt>
<publicationStmt>
<distributor>UCREL</distributor>
<pubAddress>Department of Linguistics, Lancaster University, Lancaster, LA1 4YT, UK</pubAddress>
<availability region="WORLD"></availability>
<pubDate>03-08-24</pubDate>
</publicationStmt>
<sourceDesc>
<biblStruct>
<monogr>
<h.title>"Webdunia" internet news (www.webdunia.com), news stories collected on 01-09-06</h.title>
<h.author>Webdunia</h.author>
<imprint>
<pubPlace>Madhya Pradesh, India</pubPlace>
<publisher>Webdunia</publisher>
<pubDate>01-09-06</pubDate>
</imprint>
</monogr>
</biblStruct>
</sourceDesc>
</fileDesc>
<encodingDesc>
<projectDesc>Text collected for use in the EMILLE project.</projectDesc>
<samplingDesc>Simple written text only has been transcribed. Diagrams, pictures and tables have been omitted and their place marked with a gap element.
</samplingDesc>
<editorialDecl>
<conformance level="1"></conformance>
</editorialDecl>
</encodingDesc>
<profileDesc>
<creation>
<date>03-08-24</date>
</creation>
<langUsage>Hindi</langUsage>
<wsdUsage>
<writingSystem id="ISO/IEC 10646">Universal Multiple-Octet Coded Character Set (UCS).</writingSystem>
</wsdUsage>
<textClass>
<channel mode="w">print</channel>
<constitution type="composite"></constitution>
<domain type="public"></domain>
<factuality type="fact"></factuality>
</textClass>
<translations></translations>
</profileDesc>
<revisionDesc></revisionDesc>
</cesHeader>

<text>
<body>




<p>कारगिल, राजौरी और पुंछ की सीमा पर गोलाबारी</p>

<p> </p>

<p>पाकिस्तानी सेना ने कारगिल सीमा पर फिर से मोर्चा खोल दिया है।
कारगिल की 140 कि.मी. लंबी नियंत्रण रेखा पर भीषण गोलाबारी जारी है। </p><p>
</p><p>
भारतीय पक्ष का
दावा है कि जवाबी कार्रवाई में पाक सेना को जान-माल की भारी क्षति पहुंची है
जबकि भारतीय पक्ष में 2 सैनिक सहित 5 लोग जख्मी हुए हैं। दो कुलियों के मारे
जाने का भी समाचार है। </p><p>
</p><p>
आधिकारिक
समाचारों में कहा गया है कि दो दिनों के भीतर सिर्फ कारगिल की सीमा पर ही 600
गोले पाक तोपखानों ने दागे। इस गोलाबारी का निशाना सिर्फ कारगिल कस्बा ही
नहीं बल्कि द्रास, तुर्तक, बटालिक और वे सभी ठिकाने हैं, जिन पर दो साल पहले पाक
कब्जे को हटाने के लिए भारतीय सेना ने भरपूर युद्ध लड़ा था।</p><p>
</p><p>
रक्षा सूत्रों के
अनुसार पाक सेना ने आज भी कारगिल की सीमा पर करीब 180 गोले दागे। भारतीय
पक्ष ने भी इसका जवाब दिया, मगर संयम से। भारतीय रक्षाधिकारियों के अनुसार
भारतीय तोपची कम गोले दागते हैं, लेकिन वे सभी निशाने पर लगते हैं और
पाकिस्तानी सेना को भारी क्षति पहुंचाते हैं। </p><p>
</p><p>
रक्षा सूत्रों ने
बताया कि पाक सेना ने पुंछ तथा राजौरी सेक्टरों में भी कल देर रात अपने
तोपखानों के मुंह खोलते हुए भारतीय नागरिक तथा सैनिक ठिकानों पर गोलों की
बरसात कर दी। कल देर रात को शुरू गोलाबारी आज दिनभर जारी रही। </p><p>
</p><p>
पाक सेना ने
साब्जियां, नौशहरा, भिम्बरगली, केरनी, मेंढर, कृष्णा घाटी तथा बालाकोट के अग्रिम
सैनिक ठिकानों पर भी जबर्दस्त गोलाबारी की। कुछेक ठिकानों पर पाक सेना
मोर्टार से तथा अधिकतर क्षेत्रों में मध्यम दूरी के तोपखानों से गोलाबारी कर
रही है। </p><p>
</p><p>
पिछले 24 घंटों
के भीतर पाक सेना अनुमानतः 500 से अधिक गोले इन क्षेत्रों को निशाना
बनाकर दागे हैं। गोलाबारी से भारतीय पक्ष के दो बंकर क्षतिग्रस्त हुए हैं तथा दो
सैनिकों समेत 5 लोग गंभीर रूप से घायल हुए हैं। </p><p>
</p><p>
जवाबी कार्रवाई
में कई पाक सैनिक मारे गए हैं। भारतीय सेना की जवाबी कार्रवाई में पाक सेना
के कम से कम दो दर्जन सैनिक पिछले दो दिनों के दौरान मारे गए। चार
बंकरों तथा दो सीमा चौकियों को भारतीय तोपचियों ने उड़ा दिया। सीमा पार
कुछ स्थानों से आज भी धुआं उठता हुआ देखा गया। </p><p>
</p><p>
रक्षाधिकारियों
के अनुसार पाक गोलाबारी के कारण दो भारतीय कुलियों की मौत भी हुई है।
ये मौतें नुब्रा सेक्टर में हुई हैं, जहां से विश्व के सबसे ऊंचे युद्ध स्थल सियाचिन
हिमखंड के लिए सप्लाई जाती है। </p><p>
</p><p>
रक्षा सूत्रों के
अनुसार पाक सेना सारी नियंत्रण रेखा को गर्माने की कोशिशों में लगी हुई है।
उनके अनुसार वह राजौरी, पुंछ, कारगिल तथा कश्मीर की सीमा के अन्य क्षेत्रों में भी
भीषण गोलाबारी कर रही है।</p>

<p> </p>

<p>पाक के साथ चर्चा की प्रक्रिया जारी रहेगी</p>

<p> </p>

<p>प्रधानमंत्री अटलबिहारी वाजपेयी ने कहा है कि पाकिस्तान द्वारा
सीमा पार से आतंकवादी गतिविधियों को प्रोत्साहन देने के बावजूद भारत
बातचीत की जो प्रक्रिया आगरा से शुरू हुई थी, उसे जारी रखेगा। हमने शांति की
चाह में कदम आगे बढ़ाया था, लेकिन वांछित नतीजे अभी सामने नहीं आए हैं।
प्रधानमंत्री राज्यों के पुलिस प्रमुखों के सम्मेलन को संबोधित कर रहे
थे।</p><p>
</p><p>
वाजपेयी ने कहा
कि जम्मू व कश्मीर की स्थिति लगातार चिंता का कारण बनी हुई है। हमने 6 माह तक
सुरक्षाबलों को आतंकवादियों के खिलाफ अपनी ओर से कोई कार्रवाई नहीं करने
के निर्देश दिए थे। हमने इस आशा में यह कदम उठाया था कि आतंकवादी संगठनों
को सद्बुद्धि आएगी और आगरा में सार्थक बातचीत हो सकेगी। </p><p>
</p><p>
सीमा पार से
आतंकवाद जारी रहने के बावजूद हमने पाक राष्ट्रपति परवेज मुशर्रफ को चर्चा के
लिए बुलाया था। हमारा विश्वास है कि बातचीत के जरिए ही आपसी विश्वास व समझदारी
कायम की जा सकती है और कश्मीर सहित द्विपक्षीय समस्याओं का हल खोजा जा सकता
है। </p><p>
</p><p>
उत्तर-पूर्व की
स्थिति के बारे में प्रधानमंत्री ने कहा- यह क्षेत्र दशकों से उग्रवाद की पीड़ा
भोग रहा है। सरकार इस क्षेत्र में शांति के नए युग का सूत्रपात कर इसका
चौतरफा विकास करना चाहती है। प्रमुख नगा संगठन के साथ पूर्व में शुरू की गई
बातचीत को हम संगठित रूप देना चाहते हैं। </p><p>
</p><p>
अन्य राज्यों की
अखंडता को चोट पहुंचाए बगैर ठोस नतीजे सामने आने की हमें आशा है।
प्रधानमंत्री ने कहा कि बोडो उग्रवादियों के साथ चर्चा के भी उत्साहजनक
परिणाम सामने आए हैं। सरकार इसी तर्ज पर अन्य उग्रवादी समूहों से भी चर्चा की पहल
कर रही है। (एजेंसी)</p>

<p> </p>

<p>तीन लाख डाक कर्मचारी स्थायी होंगे</p>

<p> </p>

<p>डाक विभाग के तीन लाख पंद्रह हजार अस्थायी कर्मचारियों को चरणबद्ध
तरीके से स्थायी किया जाएगा। संचार राज्यमंत्री तपन सिकदर ने गुरुवार को यहां
रेलवे मेल सर्विस के कम्प्यूटरीकृत कार्यालय का उद्घाटन करते समय यह घोेषणा
की।</p><p>
</p><p>
सिकदर ने कहा
कि इन कर्मचारियों को पांच वर्ष में चरणबद्ध तरीके से स्थायी करने की योजना
है। विभाग में छः लाख नौ हजार कर्मचारियों में से 2.94 लाख कर्मचारी ही
स्थायी हैं। जबकि तीन लाख पंद्रह हजार ग्रामीण डाक सेवक के रूप में अस्थायी
कर्मचारी के रूप में काम कर रहे हैं।</p><p>
</p><p>
सिकदर ने कहा
कि सरकार ने ग्रामीण इलाके में प्रत्येक तीन किलोमीटर पर डाक सेवा केंद्र स्थापित
करने का निर्णय लिया है। पंचायत, संचार सेवा एवं डाक सेवा के नाम से स्थापित
इन केंद्रों पर काम करने वाले युवकों को छः सौ रुपए मानदेय दिया जाएगा।
</p><p>
</p><p>
सिकदर ने कहा
कि भारतीय डाक सेवा विश्व में सबसे बड़ी है। घाटे के बावजूद यह तत्परता से
उपभोक्ताओं की सेवा कर रही है। उपभोक्ता जिस पोस्टकार्ड को पचास पैसे में
खरीदता है उस पर विभाग का खर्च तीन रुपए तीस पैसे आता है। तकरीबन पचपन
करोड़ पोस्टकार्ड, छप्पन करोड़ अंतरदेशीय पत्र, अठारह करोड़ एयर मेल तथा बीस
करोड़ लिफाफे प्रति वर्ष प्रयोग किए जाते हैं। (वार्ता)</p>

<p> </p>

<p>अपनी ही सरकार को गरियाया जॉर्ज फर्नांडीज ने</p>

<p></p><p>
दिल्ली ब्यूरो </p>

<p>जो काम राष्ट्रीय स्वयंसेवक संघ महीने भर में नहीं कर पाया, वह पूर्व
केंद्रीय मंत्री जॉर्ज फर्नांडीज ने कर दिया। फर्नांडीज ने कुछ ही घंटों के भीतर
अपनी राजग सरकार को गरिया दिया।</p><p>
</p><p>
फर्नांडीज ने
स्वदेशी जागरण मंच की एक सभा में देश की रोजगार स्थिति पर आहलुवालिया कमेटी की
रिपोर्ट की जमकर चीरफाड़ की। इससे पहले राजग सरकार मोंटेक सिंह
आहलुवालिया कमेटी की रिपोर्ट को ज्यों की त्यों स्वीकारती लग रही थी।</p><p>
</p><p>
यहां तक कि
भारतीय जनता पार्टी के एक वर्ग ने भी इस रिपोर्ट पर ना-नुकुर नहीं की। लेकिन
इस मामले में सरकार और स्वदेशी जागरण मंच के बीच आने वाले हफ्तों में टकराव
टलता दिखाई नहीं दे रहा है।</p><p>
</p><p>
आहलुवालिया
रिपोर्ट पर चर्चा के लिए बुलाई गई स्वदेशी जागरण मंच की बैठक में फर्नांडीज ने इस
रिपोर्ट पर सरकार के रवैये की जमकर खिंचाई की। उन्होंने कहा कि
आहलुवालिया ने पूरी तरह बहुराष्ट्रीय कंपनियों के सामने घुटने टेक दिए हैं।</p><p>
</p><p>
बैठक में
फर्नांडीज ने योजना आयोग के प्रमुख कृष्णचंद्र पंत को 31 जुलाई को लिखा अपना
एक पत्र पढ़ा। यह पत्र दो दिन बाद वेबदुनिया डॉट कॉम में प्रकाशित हुआ था।</p><p>
</p><p>
उन्होंने सरकार
को इस बात के लिए भी आड़े हाथ लिया कि उसने पिछले एक महीने में बहुराष्ट्रीय
कंपनियों के इशारे पर बनाई गई रिपोर्ट पर उठाई गई आपत्तियों पर कोई
कार्रवाई नहीं की। पंत ने पांच अगस्त को पत्र लिखकर फर्नांडीज को भरोसा
दिया था कि इस मामले में एक कमेटी बनाई जाएगी। लेकिन एक महीना बीत गया,
कुछ भी नहीं हुआ।</p><p>
</p><p>
पता चला है कि
सरकारी नौकरशाही और योजना आयोग के सदस्य एनके सिंह ने पूरी तेजी के साथ
सुधारवादी ऐजेंडा लागू करने का दबाव बना रखा है। ऐसा ही दबाव पूर्व
केंद्रीय श्रममंत्री सत्यनारायण जटिया पर था कि वे मानसून सत्र में श्रम सुधार पर
विधेयक लाएं। जटिया ने यह बात अनसुनी कर दी तो उन्हें श्रम मंत्रालय से हाथ
धोना पड़ा।</p><p>
</p><p>
पिछले शनिवार
को एनडीसी की बैठक में 10 वीं योजना के दृष्टिकोण पत्र को मंजूरी के कारण
आहलुवालिया रिपोर्ट के मामले में नौकरशाही को बल मिला। उसे यह कहने का
मौका मिल गया कि दृष्टिकोण पत्र पर शीर्ष संस्था के मोहर लगा देने के बाद अब
पुनर्समीक्षा की कोई जरूरत नहीं रह गई है।</p><p>
</p><p>
आहलुवालिया
टास्क फोर्स की रिपोर्ट पर संघ और उसके तमाम आर्थिक संगठन लड़ने-भिड़ने के
मूड में हैं। वे इस रिपोर्ट में सीआईआई के आंकड़ों को हूबहू डाल देने से
खासे नाराज हैं। मजेदार बात यह है कि आहलुवालिया इस तथ्य को छिपा भी नहीं रहे
हैं।</p><p>
</p><p>
संघ नेतृत्व
रिपोर्ट में दर्ज इस बात से उखड़ा हुआ है कि भविष्य में रोजगार के 70 प्रतिशत अवसर
सेवा क्षेत्र से पैदा होंगे और परंपरागत क्षेत्र मसलन खेती, लघु उद्योग वगैरह रोजगार
देने की क्षमता खो चुके हैं।</p><p>
</p><p>
अपने एतराजों
को सिरे से खारिज देख संघ ने फर्नांडीज से हाथ मिलाना उचित समझा। हालांकि संघ
नेता इसे मेल-मिलाप को रणनीतिक कह रहे हैं। इस मेल-जोल का नतीजा यह निकला
कि 11 सदस्यों की एक कमेटी बनी, जिसने 10 वीं योजना अवधि में 10 लाख
रोजगार उपलब्ध कराने के बारे में अपने सुझाव रखे।</p><p>
</p><p>
विशेष ग्रुप की
कमान, योजना आयुक्त सदस्य एसपी गुप्ता को सौंपी गई है, जो कि आहलुवालिया
रिपोर्ट पर भी गौर करेंगे। ग्रुप के गैर आधिकारिक सदस्यों में
केवीआईसी के अध्यक्ष डा महेश शर्मा हैं, जिनसे कहा गया है कि वे नवंबर के अंत
तक अपनी रिपोर्ट दे दें।</p><p>
</p><p>
ग्रुप के अन्य
सदस्यों में श्रम, ग्रामीण विकास, शहरी विकास और गरीबी उन्मूलन, लघु उद्योग, समाज
कल्याण और आधिकारिता मंत्रालयों के सचिव को रखा गया है। साथ ही
राष्ट्रीय नमूना सर्वेक्षण संगठन के डीजी शैलेंद्र शर्मा और योजना आयोग के सलाहकार
ग्रुप के सदस्य-सचिव बनाए गए हैं।</p>

<p> </p>

<p>आडवाणी से बंद कमरे में बुद्धदेव की मुलाकात</p>

<p></p><p>
दिल्ली ब्यूरो </p>

<p>पश्चिम बंगाल के मुख्यमंत्री बुद्धदेव भट्टाचार्य का पिछले दिनों
गृहमंत्री से बंद कमरे में मुलाकात करना राजनीतिक हलकों में चर्चा का विषय बना हुआ
है। बुद्धदेव ने पिछले चार सितंबर को गृहमंत्री से मुलाकात की थी। इस
मुलाकात में उनके साथ राज्य के वित्तमंत्री असीम दासगुप्ता और उद्योगमंत्री निरुपम
सेन भी शामिल थे। जबकि केंद्र सरकार की ओर से गृहमंत्री के साथ पेट्रोलियम
और प्राकृतिक गैस मंत्री राम नाइक</p><p>
थे।</p><p>
</p><p>
जानकार सूत्रों
के अनुसार बुद्धदेव भट्टाचार्य और आडवाणी की इस मुलाकात का कारण हल्दिया
पेट्रोकेमिकल में इंडियन आयल द्वारा किया जाने वाला प्रस्तावित निवेश था। इस
परियोजना में पश्चिम बंगाल सरकार के भी शेयर हैं।</p><p>
</p><p>
राज्य के
मुख्यमंत्री चाहते थे कि आडवाणी इस प्रस्तावित निवेश के संबंध में
प्रधानमंत्री से बात कर उनको इसके प्रति सहमत करें। राजनीतिक हलकों में
इसी बात को लेकर आश्चर्य व्यक्त किया जा रहा है कि आखिर इस मामले को लेकर
बुद्धदेव सीधे भी प्रधानमंत्री से मिल सकते थे, फिर उन्होंने ऐसा क्यों नहीं
किया।</p><p>
</p><p>
इस संबंध
में माकपा के जानकारों का कहना है कि पार्टी द्वारा गृहमंत्री आडवाणी को
राजनीतिक रूप से कट्टरपंथी नेता मानने के बावजूद उसे लगता है कि किसी भी मामले
पर पहले उन्हें सहमत किया जाना अधिक जरूरी है, क्योंकि वह बाद में कभी भी
मामले में अड़ंगा लगाने की क्षमता रखते हैं।</p><p>
</p><p>
दूसरी ओर
माकपा को यह भी लगता है कि कवि हृदय प्रधानमंत्री को कभी भी आसानी से
सहमत किया जा सकता है। लेकिन यदि गृहमंत्री को तार्किक तरीके से संतुष्ट
नहीं किया गया तो वह संबंधित मंत्रालय पर अपने प्रभाव का इस्तेमाल कर मामले
को लटका भी सकते हैं।</p><p>
</p><p>
बताते हैं कि
इसी बात को ध्यान में रखते हुए राज्य की वामपंथी सरकार केंद्र से काम कराने के
लिए प्रधानमंत्री वाजपेयी की तुलना में गृहमंत्री पर अधिक निर्भर करने लगी
है।</p>

<p> </p>

<p>प्रधानमंत्री ने बुलाई आर्थिक सलाहकारों की बैठक</p>

<p></p><p>
दिल्ली ब्यूरो </p>

<p>देश में व्याप्त आर्थिक मंदी से चिंतित प्रधानमंत्री अटलबिहारी वाजपेयी
ने अर्थव्यवस्था को पटरी पर लाने के लिए पुरजोर प्रयास को जारी रखते हुए आगामी
दस सितंबर को अपने आर्थिक सलाहकारों की एक बैठक बुलाई है। इन सलाहकारों
में आर्थिक जगत के विशेेषज्ञों के अलावा वित्तमंत्री यशवंत सिन्हा और योजना आयोग
के उपाध्यक्ष केसी पंत को भी बुलाया गया है।</p><p>
</p><p>
इस बैठक में इस
बात पर विचार किया जाना है कि सरकार अपने पास निवेश हेतु उपलब्ध पैसे को
किन योजनाओं में खर्च करे, जिससे कि आर्थिक मंदी को टाला जा सके।</p><p>
</p><p>
प्रधानमंत्री
के आर्थिक सलाहकारों में से एक ने इस संबंध में बताया कि सरकार के पास
विभिन्न योजनाओं में निवेश करने के लिए अभी लगभग 75 हजार करोड़ रुपए हैं और
यदि इस राशि का सही तरीके से सही योजनाओं में निवेश किया जाए तो वैश्विक मंदी
के बावजूद आर्थिक मंदी की स्थिति को समाप्त किया जा सकता है।</p><p>
</p><p>
प्रधानमंत्री
के सलाहकारों का मानना है कि कारपोरेट सेक्टर के अलावा मौजूदा आर्थिक मंदी
का सबसे घातक असर ग्रामीण इलाकों पर पड़ा है, जहां लंबे अरसे से बने तरलता के
संकट के कारण लोगों की क्रय क्षमता काफी घट गई है। इसलिए मंदी के
कारकों का मुकाबला करने की योजना बनाते समय देश के ग्रामीण इलाकों को
लेकर ठोस योजना बनाना भी काफी जरूरी है।</p><p>
</p><p>
सूत्रों के
अनुसार प्रधानमंत्री ने अपने सलाहकारों से ऐसे तमाम क्षेत्रों के संबंध में
अध्ययन करके बैठक में आने के लिए कहा है, जिनमें सरकार की ओर से प्रभावी
तरीके से निवेश किया जा सके और इस निवेश का असर मंदी को कम करने के
काम में त्वरित और प्रभावकारी तरीके से भी नजर आए।</p><p>
</p><p>
ऐसा माना जा
रहा है कि ढांचागत क्षेत्र के अलावा कृषि, खाद्य प्रसंस्करण और ग्रामीण विकास के
काम में सरकार की ओर से पर्याप्त निवेश किया जा सकता है। इन क्षेत्रों में
निवेश करने से सरकार को आर्थिक मंदी की स्थिति को टालने में सहुलियत भी
होगी।</p><p>
</p><p>
प्रधानमंत्री
के एक सलाहकार ने बताया कि इन क्षेत्रों में से खाद्य प्रसंस्करण का क्षेत्र एक ऐसा
क्षेत्र है, जिसमें सर्वाधिक निवशा निजी क्षेत्र का है। लेकिन यदि सरकार की
ओर से पर्याप्त इंसेटिव मिले तो निजी क्षेत्र की कंपनियां ग्रामीण क्षेत्रों में भी
अपने काम का विस्तार कर सकती हैं।</p><p>
</p><p>
ऐसा होने से
ग्रामीण इलाकों में रोजगार के नए अवसरों का सृजन होना भी संभव होगा। इसके
साथ ही ग्रामीण बाजार में पैसे की उपलब्धता बनेगी। इसके अलावा सही व कारगर
योजना बनाकर ग्रामीण इलाकों में इस क्षेत्र में सार्वजनिक क्षेत्र की कंपनियों की
ओर से भी निवेश किया जा सकता है।</p><p>
</p><p>
इसी प्रकार
सरकार प्रधानमंत्री ग्राम सड़क योजना का तेजी के साथ विस्तार करने की बात
पर भी गंभीरतापूर्वक विचार कर रही है। इस क्रम में इसके चरणों की संख्या को
कम कर इसे कम अवधि में अधिक से अधिक इलाके में विस्तारित करने
की योजना पर भी विचार किया जा रहा है।</p><p>
</p><p>
ऐसा कर सरकार
न केवल ढांचागत सुविधाओं को बढ़ावा देना चाहती है, बल्कि ग्राम संपर्क
माध्यमों को बढ़ा कर कृषि उत्पादों से संबद्ध उद्योगों को ग्रामीण इलाकों में
प्रतिस्थापित करने की योजना को भी आगे बढ़ाना चाहती है। इसके अलावा इस
योजना के तेजी के साथ क्रियान्वित होने से इसका सरकार को राजनीतिक लाभ भी
मिल सकता है।</p><p>
</p><p>
प्रधानमंत्री
के उक्त सलाहकार ने बताया कि अपनी ओर से उन्होंने प्रधानमंत्री को इस बात
की सलाह भी दी है कि ग्रामीण इलाकों में स्थापित किए जाने वाले कृषि
आधारित उद्योगों के लिए पहले चरण में सब्सिडी की मात्रा में भी कुछ बढ़ोतरी
की जानी चाहिए, जिससे कि निजी क्षेत्र भी ग्रामीण इलाकों में निवेश करने के लिए
पहल कर सकें। इसके साथ ही सार्वजनिक क्षेत्र की कंपनियों को भी इस क्षेत्र में
निवेश करने के लिए पर्याप्त प्रोत्साहन</p><p>
दिया जाना
चाहिए।</p><p>
</p><p>
आगामी सोमवार
को होने वाली इस बैठक में भारतीय रिजर्व बैंक के गवर्नर विमल जालान, पूर्व गवर्नर
एम नरसिंहम, आईजी पटेल, इंदिरा गांधी विकास संस्थान के निदेाक किरीट
पारीख, इंडियन इंस्टीटूट ऑफ पब्लिक फाइनांस के निदेशक अशोक लाहिड़ी, मद्रास
डेवेलपमेंट इंस्टीट्यूट के निदेशक वैद्यनाथन, वित्त मंत्रालय के सलाहकार राकेश
मोहन, मशहूर अर्थशास्त्री ए बागची और भाजपा आर्थिक प्रकोष्ठ के प्रमुख जगदीश
शेट्टीगार को बुलाया गया है।</p>

<p> </p>

<p>शेयर ब्रोकर हितेन दलाल को तीन वर्ष का कारावास</p>

<p> </p>

<p>मुंबई की विशेष अदालत ने 30 लाख रुपए की धोखाधड़ी के
एक मामले में शेयर ब्रोकर हितेन दलाल और केनबैंक म्युचल फंड के पूर्व
महाप्रबंधक बी.आचार्य को तीन वर्ष की सश्रम कारावास की सजा सुनाई है।</p><p>
</p><p>
न्यायाधीश
एस. कपाड़िया ने सजा सुनाने के साथ दोनों को इस मामले में सर्वोच्च न्यायालय
में अपील करने के लिए आठ अक्टूबर तक का समय दिया है। इसी मामले में म्युचल
फंड के एक अधिकारी टी.रवि को को संदेह का लाभ देते हुए बरी कर दिया
गया है।</p><p>
</p><p>
इन तीनों पर
1991-92 केनबैंक म्युचल फंड को 30 लाख से अधिक रुपए का चूना लगाने के
मामले में सीबीआई ने आरोपित किया था। हितेन दलाल प्रतिभूति घोटाले के एक
अलग मामले में पहले ही कारावास काट रहे हैं। (वार्ता)</p>

<p> </p>

<p>कश्मीर में विस्फोट से चार जवानों की मौत, 17 घायल</p>

<p> </p>

<p>जम्मू-श्रीनगर राष्ट्रीय राजमार्ग पार गुरुवार दोपहर आतंकवादियों द्वारा
किए गए एक बम विस्फोट में चार जवान मारे गए तथा दो नागरिकों सहित</p><p>
17 घायल हो
गए।</p><p>
</p><p>
रक्षा विभाग के
सूत्रों के अनुसार यह अत्याधुनिक विस्फोटक उपकरण (आईईडी) यहां से 166
किलोमीटर दूर जम्मू-श्रीनगर राष्ट्रीय राजमार्ग स्थित</p><p>
दिगडोल में सेना
की एक बस के नीचे रखा गया था।</p><p>
</p><p>
सेना ने यह बस
किराए पर ली थी जिसमें जवान सवार होकर श्रीनगर से जम्मू जा रहे थे। सूत्रों के
अनुसार आतंकवादियों ने विस्फोटक इस बस के</p><p>
नीचे दिगडोल में
लगाया जहां यह बस कुछ देर के लिए रूकी थी।</p><p>
</p><p>
घटना में घायल हुए
लोगों में बस का चालक तथा परिचालक शामिल है। विस्फोट में बस बुरी तरह
क्षतिग्रस्त हुई है। सूत्रों के अनुसार घटना में मरने</p><p>
वालों की संख्या
बढ़ सकती है क्योंकि घायलों में कई की हाल गंभीर है।</p><p>
</p><p>
राजमार्ग पर और
विस्फोट लगे होने का पता लगाने के लिए घटना के बाद दो घंटे तक सड़क पर
यातायात अवरूद्ध रहा।</p><p>
</p><p>
सेना के बचाव
तथा राहत दलों ने घटनास्थल पर पहुंच कर घायलों को तत्काल अस्पताल में दाखिल
कराया। अपराधियों की धरपकड़ के लिए अभियान छेड़ दिया गया है।</p><p>
</p><p>
इस बीच खुद को
हिजबुल मुजाहिदीन का आतंकवादी बताने वाले एक व्यक्ति ने एक समाचारपत्र के
कार्यालय में फोन करके विस्फोट की जिम्मेदारी ली है। (एजेंसी)</p>

<p> </p>

<p>वाजपेयी-मुशर्रफ वार्ता के संबंध में विचार-विमर्श</p>

<p> </p>

<p>विदेश मंत्रालय में सचिव पश्चिम आर.एस. काह्ला और भारत में पाकिस्तान
के उच्चायुक्त अशरफ जहांगीर काजी ने गुरुवार को प्रधानमंत्री अटलबिहारी
वाजपेयी एवं पाकिस्तान के राष्ट्रपति परवेज मुशर्रफ के बीच आगामी 25 सितम्बर को
न्यूयार्क में होने वाली पहलुओं पर विचार-विमर्श किया।</p><p>
</p><p>
विदेश मंत्रालय
के एक प्रवक्ता ने यह खबर दी। प्रवक्ता के अनुसार जहांगीर ने साउथ ब्लाक जाकर
काह्ला से विशेष तौर पर प्रस्तावित बैठक के सामरिक पहलुओं के बारे में लंबी
बातचीत की। बातचीत के दौरान अन्य द्विपक्षीय मुद्दों की भी चर्चा हुई।</p><p>
</p><p>
इससे पहले भारत
ने पाकिस्तान को परोक्ष रूप से चेतावनी दी थी कि वह कश्मीर मुद्दे को
अंतरराष्ट्रीय मंच पर न उठाए। पाकिस्तान ने दक्षिण अफ्रीका में डरबन में चल रहे
संयुक्त राष्ट्र के नस्लवाद विरोधी सम्मेलन के दौरान कश्मीर का मसला उठाया
था।</p><p>
</p><p>
इस बीच
पाकिस्तान के वक्तव्य के सिलसिले में कल राजधानी में प्रधानमंत्री
वाजपेयी ने विदेश मंत्री जसवंत सिंह और राष्ट्रीय सुुरक्षा सलाहकार ब्रजेश मिश्रा से
लंबी बातचीत की। </p><p>
</p><p>
बातचीत के बाद
कल ही इस्लामाबाद में भारत के उच्चायुक्त विजय नाम्बियार ने पाकिस्तान के विदेश सचिव
इनामुल हक से भेंट कर कहा कि पाकिस्तान विदेश मंत्रालय के बयानों से यह आभास
होता है कि वह भारत के साथ कारगर बातचीत का इच्छुक नहीं है।</p><p>
</p><p>
इसी बीच प्रवक्ता
ने बताया कि दोनों देशों के राजनीतिज्ञों की सुविधा के अनुसार
निर्धारित की गई जगह पर होने वाली शिखर बैठक के दौरान द्विपक्षीय
संबधों के सभी पहलुओं पर विचार-विमर्श किया जाएगा। (वार्ता)</p>

<p> </p>

<p>जनता का फैसला संविधान से ऊपर नहीं-सुप्रीम कोर्ट</p>

<p> </p>

<p>सजा मिलने के बावजूद तमिलनाडु में जयललिता की मुख्यमंत्री पद पर
नियुक्ति को चुनौती देने वाली याचिकाओं पर सुनवाई कर रहे सुप्रीम कोर्ट ने
गुरुवार को कड़ा रुख अख्तियार किया। कोर्ट ने कहा कि जनता का फैसला
संविधान से ऊपर नहीं हो सकता।</p><p>
</p><p>
जयललिता के
वकील ने अपने जवाब में कहा कि तमिलनाडु की जनता ने यह जानते हुए भी उनकी पार्टी
को भारी बहुमत से जिताया कि वे सजायाफ्ता होने के बावजूद राज्य की मुख्यमंत्री
बनेंगी। इस पर पांच जजों की खंडपीठ ने कहा-'हम जनता के फैसले को तवज्जो
नहीं देते। संविधान सर्वोच्च है। हमारे कहने का मतलब यह है कि जनता
के फैसले से ऊपर संविधान हैं।'</p><p>
</p><p>
अदालत ने कहा
कि जरूरत होने पर वह न्यायिक हस्तक्षेप कर भ्रष्ट और सजायाफ्ता लोगों को उच्च
संवैधानिक पदों पर कार्य करने से रोक </p><p>
सकता है।
पांच सदस्यीय संविधान पीठ के अध्यक्ष न्यायमूर्ति एस.पी. भरूचा ने कहा कि देश
में आज ऐसी स्थिति हो गई है कि जरूरत पड़ने पर न्यायालय सार्वजनिक पदों पर
कार्य करने वाले लोगों के लिए नैतिक मूल्य लागू कर सकता है।</p><p>
</p><p>
न्यायमूर्ति भरूचा
ने मुख्यमंत्री के वकील के. वेणुगोपाल के इस तर्क के जवाब में उक्त टिप्पणी की
कि देश में व्याप्त भ्रष्टाचार का मुद्दा आज अप्रासंगिक है और केवल यही प्रासंगिक
है कि जनता ने जयललिता को चुनाव में दिए मतों से यह विश्वास जताया है कि उनकी
मुवक्किल को तांसी और प्लेजेंट स्टे होटल के भ्रष्टाचार मामलों में गलत सजा दी
गई है।</p><p>
</p><p>
वेणुगोपाल ने
कहा कि अन्नाद्रमुक ने विधानसभा चुनावों में भारी बहुमत हासिल किया है
और इसका कारण है कि प्रचार के दौरान जनता को यह स्पष्ट किया गया था कि अगर
पार्टी सत्ता में आई तो जयललिता सरकार का नेतृत्व करेंगी।</p><p>
</p><p>
इस पीठ में
न्यायमूर्ति भरूचा के अलावा न्यायमूर्ति जी.बी. पटनायक, न्यायमूर्ति वाई.के. सब्बरवाल,
न्यायमूर्ति रूमा पाल और न्यायमूर्ति ब्रजेश कुमार शामिल हैं।</p><p>
</p><p>
वेणुगोपाल ने
कहा कि जयललिता पर दोष सिद्ध होने के आधार पर उनकी अयोग्यता का मामला
राज्यपाल के सम्मुख प्रस्तुत नहीं किया गया। इस पर पीठ ने कहा कि इस मामले में उन्हें
जयललिता के विरुद्ध निचली अदालत में दायर याचिका के फैसले की प्रतीक्षा करनी
चाहिए।</p><p>
</p><p>
पीठ ने कहा कि
अगर वकील का यह कथन है कि राज्यपाल के पास इसके अलावा कोई विकल्प नहीं
होता, सिवा इसके कि वह व्यक्ति की अयोग्ता को अनदेखा कर उसे पद की शपथ दिलाए
ही, तो उन्हें संविधान और जनप्रतिनिधत्व अधिनियम की धारा
8(3) को खत्म कर देना चाहिए। इस धारा के अनुसार दो वर्षों से
अधिक की सजा प्राप्त व्यक्ति को कोई भी चुनाव लड़ने से वर्जित कर दिया जाता
है।</p><p>
</p><p>
पीठ ने इस बात
की ओर ध्यान आकृष्ट किया कि आज उनके सामने भ्रष्टाचार के मामले में दो या
तीन वर्ष की सजा को लेकर अयोग्यता का मामला सामने आया है लेकिन कल ऐसी भी
स्थिति आ सकती है जहां उन्हें हत्या और अन्य गंभीर अपराधों के संबंध
में सजा के मामलों पर निर्णय देना पड़े।</p><p>
</p><p>
वेणुगोपाल ने
पूर्व में दिए गए बहुत से फैसलों के आधार पर कहा कि विधानसभा में
बहुमत प्राप्त दल के नेता को सरकार बनाने के लिए आमंत्रित करने का राज्यपाल
का निर्णय बिल्कुल ठीक था और वह न्यायिक समीक्षा का विषय नहीं है।</p><p>
</p><p>
इस बात पर पीठ
ने वकील को याद दिलाया कि जिन फैसलों का संदर्भ दिया गया है वे उन्हीं
व्यक्तियों के लिए हैं जो विधायिका के सदस्य बनने के योग्य हैं और किसी
भी तरह से अयोग्य नहीं थे।</p><p>
</p><p>
इसीलिए इस मामले
में राज्यपाल को जयललिता को सरकार बनाने का निमंत्रण देने से पहले उनकी
अयोग्यता को ध्यान में रखना चाहिए था।</p><p>
</p><p>
इस पर
वेणुगोपाल ने तर्क दिया कि राज्यपाल के पास ऐसी कोई न्यायिक शक्ति नहीं थी
जिससे वह यह निर्णय ले सकतीं कि जिस व्यक्ति को वह सरकार बनाने के लिए आमंत्रित
कर रही हैं वह विधायिका का सदस्य बनने के योग्य है या नहीं।
(ऐजेंसियां)</p>

<p> </p>

<p>तमिलनाडु में 16 मानसिक आश्रयस्थल बंद</p>

<p> </p>

<p>तमिलनाडु सरकार ने इरावदी कस्बे के आसपास चल रहे 16 मानसिक
आश्रयस्थलों को बंद करने का आदेश दिया है।</p><p>
</p><p>
सरकार ने यह
फैसला राज्य में छह अगस्त को एक मानसिक आश्रयस्थल में जंजीरों से बंधे 28
मानसिक रोगियों के आग से जलकर मरने के मामले में सुप्रीम कोर्ट के नोटिस
जारी करने के बाद लिया।</p><p>
</p><p>
सुप्रीम कोर्ट में
दायर अपने हलफनामे में सरकार ने कहा कि उसने राज्य के किसी भी हिस्से में स्थित
ऐसे मानसिक स्थलों को फौरन बंद करने के निर्देश दिए हैं।</p><p>
</p><p>
हलफनामे में
सरकार ने बताया कि राज्य के 25 जिला मुख्यालय अस्पतालों में से सिर्फ 11 में ही
मानसिक चिकित्सक हैं। इसलिए मुख्यमंत्री ने फैसला किया है कि शेष 14 जिला
अस्पतालों में मानसिक चिकित्सक नियुक्त किए जाएंगे।</p><p>
</p><p>
सरकार ने अदालत
को बताया कि छह अगस्त की घटना से सबक लेते हुए उसने निर्देश दिया है कि किसी
भी मानसिक रोगी को जंजीरों से नहीं बांधा जाए। यदि कोई मानसिक
रोगी काफी उग्र और हिंसक है, तो उसे फौरन सरकारी मानसिक अस्पतालों में भर्ती
किया जाए।</p><p>
</p><p>
राज्य सरकार ने
सभी जिलों के कलेक्टरों से कहा है कि वे निजी आश्रयस्थलों का निरीक्षण करें और
समय-समय पर निगरानी करने के लिए कमेटियां गठित करें।(ऐजेंसी)

</p>

<p>फर्नांडीज ने अपनी ही सरकार को कोसा</p>

<p></p><p>
- वेबदुनिया ब्यूरो </p>

<p>राष्ट्रीय जनतांत्रिक गठबंधन (राजग) के संयोजक जॉर्ज फर्नांडीज
ने कुछ समय पहले ही वाजपेयी सरकार में शामिल घटक दलों के लिए एक आचार संहिता
बनाने की बात की थी।</p><p>
</p><p>
परंतु इससे पहले
कि इस आचार संहिता पर अमल हो पाता गठबंधन के संयोजक जॉर्ज फर्नांडीज ने
ही इसकी धज्जियां उड़ा दीं। स्वदेशी जागरण मंच के एक कार्यक्रम में बोलते
हुए फर्नांडीज ने कहा कि सरकार का कामकाज ठीक नहीं रहा है और इसकी गलतियां
सुधारने के लिए 'राष्ट्रीय स्तर पर एक अभियान' की जरूरत है।</p><p>
</p><p>
उनका कहना था
कि नवीं योजना के आधे कार्यकाल की समीक्षा के दौरान यह माना गया कि
सरकार जनविरोधी नीतियां अपना रही है। फर्नांडीज ने कहा कि जो पैसा
विकास कार्यों पर खर्च होना चाहिए वह और कहीं खर्च हो रहा है।</p><p>
</p><p>
पूर्व रक्षामंत्री
ने कहा कि मंत्री अपने लोगों का भला करने में लगे हैं औैर उनका नीतियों से
कोई लेना-देना नहीं है।</p><p>
</p><p>
प्रधानमंत्री
के नेतृत्व में रोजगार मामले पर बनाए गए कार्यबल के अध्यक्ष मोंटेकसिंह अहलूवालिया
को निशाना बनाते हुए जॉर्ज ने कहा कि उन्हें अपने काम का मजाक बनाने के लिए
दंडित किया जाना चाहिए।</p><p>
</p><p>
मंत्रिमंडल में
फेरबदल के बाद कुछ नाराज फर्नांडीज ने कहा कि विदेशी बहुराष्ट्रीय कंपनियां
हमारे कुओं से ही पानी लेती हैं और उन्हें बोतलों में भरकर हमें ही बेचती हैं।</p><p>
</p><p>
अगर लोग इन्हें न
खरीदें तो विदेशी सामान हमारे देश में नहीं आ सकता। अपने भाषण में जॉर्ज ने
कहा कि देश में 4.12 करोड़ लोग बेरोजगार हैं और बेरोजगारी के कारण ही
जम्मू-कश्मीर तथा उत्तर-पूर्व में उग्रवाद बढ़ रहा है।</p><p>
</p><p>
उनका कहना था
कि लघु उद्योग क्षेत्र में लगे 1.78 करोड़ लोग दुर्दशा के शिकार हैं। जॉर्ज ने
कहा कि यह सब सरकार की जनविरोधी नीतियों के कारण हो रहा है। </p><p>
</p><p>
उन्होंने स्वदेशी
जागरण मंच के नेताओं के साथ में कहा कि वे 'स्वदेशी, स्वाभिमान और स्वभाषा' में
विश्वास करते हैं। उन्होंने अहलूवालिया को विश्व बैंक का पिट्ठू बताते हुए कहा
कि ऐसे लोगों को अपने देश की गरीबी नहीं दिखाई देती।</p><p>
</p><p>
फर्नांडीज ने
कहा कि यह सारी जानकारी योजना आयोग के आंकड़ों से मिल रही है और इस तरह
की जानकारी देने का दावा विरोधी दल नहीं कर रहे हैं। इसके बावजूद
प्रधानमंत्री अटलबिहारी वाजपेयी को इन बातों की चिंता नहीं है। </p>

<p> </p>

<p>संघ की राय ः विजय गोयल पीएमओ से दूर रहें</p>

<p></p><p>
- वेबदुनिया ब्यूरो </p>

<p>पिछले सप्ताह प्रधानमंत्री अटलबिहारी वाजपेयी द्वारा अपनी मंत्रिपरिषद
में फेरबदल करने के बाद एक ओर जहां राष्ट्रीय जनतांत्रिक गठबंधन (राजग) में
शामिल घटक दलों ने अपनी नाराजगी जाहिर की, वहीं राष्ट्रीय स्वयंसेवक संघ (आरएसएस)
ने विजय गोयल को प्रधानमंत्री कार्यालय (पीएमओ) में राज्यमंत्री बनाने पर अपनी
कड़ी नाराजगी जाहिर की है।</p><p>
</p><p>
उल्लेखनीय है कि
दिल्ली के चांदनी चौक से भाजपा सांसद विजय गोयल प्रधानमंत्री अटलबिहारी
वाजपेयी की खास पसंद हंै और इस कारण से उन्हें पीएमओ में राज्यमंत्री बनाया गया
है।</p><p>
</p><p>
गोयल को
लेकर संघ के नेताओं में भारी रोष है और वे मानते हैं कि 'यह आदमी केवल एक चापलूस
और दलाल है तथा एक ऐसा राजनीतिक प्राणी है जिससे भाजपा को बचना चाहिए, ताकि
इसकी स्वच्छ छवि बनी रहे।'</p><p>
</p><p>
संघ के नेताओं
को इस बात पर भी आपत्ति है कि डिजाइनदार सूट और चश्मे पहनने वाले विजय गोयल
ऐसे व्यक्ति नहीं है कि उन्हें केन्द्रीय मंत्रिपरिषद में जगह दी जा सके।</p><p>
</p><p>
संघ के कई
नेताओं का कहना है कि मात्र चुनाव जीतने और मुंबई के फिल्म अभिनेताओं की
सेवा करने के अलावा उसने किया ही क्या है? या फिर प्रधानमंत्री समझते होंगे
कि प्रमोद महाजन का मित्र होने के कारण उसमें मंत्री बनने की योग्यता आ गई
है।</p><p>
</p><p>
जब इन लोगों से
पूछा गया कि अपने मंत्रिमंडल में फेरबदल करने से पहले क्या प्रधानमंत्री ने संघ
से विचार-विमर्श किया। इस सवाल पर उनका उत्तर था कि अगर हमसे सलाह-मशविरा
किया जाता तो क्या गोयल जैसे लोगों को मंत्रिपरिषद में स्थान मिल पाता?</p><p>
</p><p>
संघ के नेताओं
ने दावा किया कि न तो कभी हमसे कोई सलाह ली गई और न ही हमारा वरिष्ठ नेता
दिल्ली में मौजूद था।</p><p>
</p><p>
महाजन को तीन
मंत्रालय मिलने से भी संघ के नेताओं में नाराजगी है। उनका कहना है कि महाजन
में कैसे इतनी योग्यता आ गई कि संसदीय कार्य और सूचना प्रौद्योगिकी मंत्रालय
के काम से दबे प्रमोद को संचार मंत्रालय भी सौंप दिया गया। </p>

<p> </p>

<p>अभिनेत्री लीसा रे नाचते समय घायल</p>

<p></p><p>
- वेबदुनिया ब्यूरो </p>

<p>मॉडल से अभिनेत्री बनीं लीसा रे मंगलवार की रात एक कन्नड़ फिल्म
'युवराज' के लिए गीत फिल्माते समय घायल हो गईं। नाचते समय उनके टखने का
एक लिगामेंट फट गया।</p><p>
</p><p>
लीसा रे कन्नड़
अभिनेता शिवराज कुमार और अन्य कलाकारों के साथ एक गाने की रिहर्सल कर रही
थीं, तभी उनका टखना मुड़ गया। भारी दर्द के कारण वे रोने लगीं और बाद में
उन्हें माल्या अस्पताल में भर्ती कराया गया।</p><p>
</p><p>
कनाडा में जन्मीं
लीसा रे को एक कुर्सी पर बैठाकर अस्पताल लाया गया और अस्पताल में भर्ती कराकर
एक्स-रे कराया गया, ताकि यह पता लग सके कि उनकी टखने की हड्डी में कोई
फ्रेक्चर तो नहीं हुआ।</p><p>
</p><p>
डॉक्टरों ने
उन्हें तीन हफ्ते के आराम की सलाह दी है। देर रात को अस्पताल से बाहर आने के
बाद उन्होंने दर्द के बावजूद अपने काम का शेष भाग पूरा किया और बुधवार
सुबह मुंबई के लिए रवाना हुई थीं।</p><p>
</p><p>
मुंबई में अपने घर
पर उन्होंने कहा कि उन्हें नहीं पता कि हाल में उन्हें जिन फिल्मों की शूटिंग करनी
है उनके साथ वे न्याय कर पाएंगी या नहीं? जबकि डॉक्टरों ने उन्हें पूरी तरह से
आराम करने की सलाह दी।</p>

<p> </p>

<p>एयर इंडिया का विनिवेश अधर में लटका</p>

<p></p><p>
- वेबदुनिया ब्यूरो</p>

<p>सिंगापुर एयरलाइंस द्वारा टाटा के साथ एयर इंडिया के शेयर खरीदने से
पीछे हटने के बाद लगता है कि एयर इंडिया की विनिवेश प्रक्रिया अंधे मोड़ पर
पहंुच गई है। </p><p>
</p><p>
एयर इंडिया की
खरीद में बोली लगाने वाले एकमात्र दावेदार टाटा को कोई सहयोगी नहीं मिल पा
रहा और विनिवेश मंत्रालय अनिश्चित समय के लिए टाटा को ऐसा करने की अनुमति भी
नहीं दे सकता।</p><p>
</p><p>
इस स्थिति के
लिए विदेशी कंपनियों की और मंत्रालय की यह टिप्पणी सही साबित हुई है कि
राजनीतिक विरोध के चलते बड़ी कंपनियां एयर इंडिया के विनिवेश में हिस्सा
नहीं लेंगी।</p><p>
</p><p>
सिंगापुर एयर
लाइंस द्वारा टाटा का साथ छोड़ने के बाद उन्होंने जर्मन एयर लाइंस लुफ्थांसा के
साथ बोली लगाने का फैसला किया था, लेकिन जर्मन एयर लाइंस ने भी टाटा का साथ
देने से इनकार कर दिया।</p><p>
</p><p>
अब टाटा को
एयर फ्रांस के साथ बोली लगाने की आशा बंधी हुई है। उद्योग क्षेत्र से
जुड़े बहुत से लोगों का मानना है कि टाटा ग्रुप में इतना सामर्थ्य है कि वह अपने बल
पर वांछित धनराशि से एयर इंडिया के अंशों की खरीददारी कर सकता है।</p><p>
</p><p>
लेकिन वह तभी
आगे बढ़ना चाहता है जब भरोसेमंद तकनीकी विशेषज्ञ और सार्वभौमिक कारोबारी
साख रखने वाली कोई कंपनी उसके साथ हो। ऐसी कंपनी अभी तक टाटा को मिल
नहीं पाई है।</p><p>
</p><p>
खरीद के लिए
बोली लगाने वाली कंपनियों के भागने का एक बड़ा कारण यह भी है कि सरकार
कंपनी के अधिकांश अंश अपने साथ रखना चाहती है औैर संभावित सहयोगी यह
चाहते हैं कि उन्हें अधिकाधिक हिस्सा मिले, ताकि वे इतने अंश पा सकें
कि अपनी इच्छानुसार कंपनी को चला सकें।</p><p>
</p><p>
सिंगापुर एयर
लाइंस के हटने के बाद विनिवेश मंत्रालय भी हतोत्साहित नजर आता है। हालांकि
विभाग के मंत्री अरुण शौरी ने कहा है कि इस स्थिति के बाद भी मंत्रालय वैकल्पिक
उपायों पर विचार नहीं करेगा।</p><p>
</p><p>
जबकि विदेशी
कंपनियां चाहती हैं कि सरकार और उनके बीच अंश पूंजी का समानुपात ऐसा हो
जो कि सौदों में आकर्षक लगे।</p>

<p> </p>

<p>फिल्मों को सुधारेंगी सुषमा स्वराज</p>

<p></p><p>
- वेबदुनिया ब्यूरो </p>

<p>बॉलीवुड फिल्मों की सूरत और सीरत सुधारने के लिए सूचना
और प्रसारण मंत्री सुषमा स्वराज बहुत चिंतित हैं। इसके लिए उन्होंने फिल्म उद्योग
के कुछ चुने हुए जानकार अभिनेता-अभिनेत्रियों और फिल्मकारों को चुना है जो
इस मामले पर उन्हें अपनी राय से अवगत कराएंगे।</p><p>
</p><p>
कुछ समय पहले
उन्होंने मुंबई की फिल्मों को हॉलीवुड की फिल्मों के बराबर बनाने के लिए
फिल्मोद्योग से जुड़े नौ लोगों को चुना था जो कि उन्हें बता सकें कि किस तरह
से मुंबइया फिल्मों में बदलाव लाया जाए।</p><p>
</p><p>
टीवी और
फिल्मों का स्तर सुधारने के लिए उन्होंने 9 लोगों का एक दल बनाया है,
जिसमें यश चोपड़ा, नसीरुद्दीन शाह, शबाना आजमी, कमल हासन, शत्रुघ्न सिन्हा, मणिरत्नम,
भूपेन हजारिका और अभिनेता जीतेन्द्र की बेटी एकता कपूर जैसी मनोरंजन जगत की
हस्तियां शामिल हैं।</p><p>
</p><p>
उल्लेखनीय है कि
वेनिस फिल्म समारोह के दौरान नसीरुद्दीन शाह ने भारतीय फिल्म और टीवी उद्योग की
कमियों पर तीखा प्रहार किया। उनका कहना था कि फिल्मों के बढ़ते बजट और
खराब पटकथा के कारण इनकी गुणवत्ता बहुत खराब हो गई है।</p><p>
</p><p>
फिल्मों की
गुणवत्ता सुधारने वाले इस दल के मुखिया भूपेन हजारिका होंगे, जिनसे कुछेक
दिन पहले सुषमा स्वराज ने मुंबई में बातचीत की थी।</p><p>
</p><p>
भूपेन हजारिका ने
अब तक 8 असमिया फिल्मों का निर्देशन किया है और वे देश के पहले सरकारी फिल्म
स्टुडियो, 'ज्योति चित्रवन' को स्थापित करने वाले व्यक्ति हैं।</p><p>
</p><p>
सुषमा स्वराज इस
समय केरल में हैं और वे दिल्ली वापस आने पर अपने मंत्रालय के अधिकारियों से
बात कर इस आशय की घोषणा भी करेंगी।</p><p>
</p><p>
फिल्म से जुड़े
लोगों का दल उन्हें बताएगा कि फिल्म और टीवी कार्यक्रमों की विषयवस्तु क्या हो,
क्योंकि वे इसको लेकर बहुत चिंतित हंै और उन्होंने फिल्मों व टीवी में सेक्स और
हिंसा की अधिकता को लेकर चिंता भी जाहिर की है।</p><p>
</p><p>
सुषमा स्वराज ने
ही सबसे पहले अरुणाचल को फिल्म शूटिंग का एक वैकल्पिक स्थान बनाया, जहां पर
राकेश रोशन ने 'कोयला' फिल्म शूट की थी।</p><p>
</p><p>
अरुणाचल और
अन्य पूर्वोत्तर राज्यों की प्राकृतिक सुंदरता का इन माध्यमों में उपयोग करने के
लिए वे भूपेन हजारिका से भी बात करेंगी।</p><p>
</p><p>
केन्द्र सरकार
फिल्म, संगीत और कला तथा संस्कृति के विभिन्न पक्षों की गहन जानकारी रखने वाले
भूपेन हजारिका के अनुभवों का लाभ उठाना चाहती है।</p><p>
</p><p>
भूपेन हजारिका
इस समय संगीत नाटक अकादमी के अध्यक्ष हैं और उन्होंने 13 वर्ष की आयु में 1939 में
भारत की दूसरी फिल्म 'इंद्रमालती' (असमिया) में अभिनय किया था।</p>

<p> </p>

<p>मदर टेरेसा पर भूत-प्रेत का साया था?</p>

<p></p><p>
- वेबदुनिया ब्यूरो </p>

<p>कोलकाता के आर्क बिशप हेनरी डिसूजा का कहना है कि अपने
आखिरी वर्षों के दौरान मदर टेरेसा एक अस्पताल में भर्ती रहने के दौरान
प्रेतबाधा का शिकार हुई थीं। इतना ही नहीं एक ओझा ने झाड़-फूंक कर
उनकी प्रेतबाधा दूर की थी।</p><p>
</p><p>
डिसूजा का
कहना है कि दिल में तकलीफ होने पर एक बार मदर टेरेसा को एक अस्पताल में भर्ती
कराया गया था। उस अस्पताल में संयोग से डिसूजा भी भर्ती थे। उनका कहना है
कि दिन के समय मदर बिल्कुल सामान्य रहतीं, लेकिन रात के समय वे बहुत उत्तेजित हो
जाया करती थीं और चिकित्सा उपकरणों को भी फेंक दिया करती थीं।</p><p>
</p><p>
आर्क बिशप
डिसूजा का कहना है कि जब उन्होंने टेरेसा की यह हालत कई रातों को देखी तो
उन्हें बताया गया कि वे किसी प्रेत बाधा की शिकार हैं और उन्हें किसी ओझा
से झाड़-फूंक करा लेनी चाहिए।</p><p>
</p><p>
जब उन्होंने
सहमति दी तो कोलकाता के एक जानकार को बुलाया गया, जिन्होंने पहले तो
झिझक जाहिर की, लेकिन बाद में समझाने पर वे प्रेतबाधा दूर करने के लिए राजी
हो गए। </p><p>
</p><p>
जब उन पर से
बुरी आत्मा का साया हट गया तो वे रातों को भी एक बच्चे की भांति सोती दिखाई
देतीं। डिसूजा का कहना है कि इससे यह साबितहोता है कि वे पवित्र होने के साथ-साथ
मानव भी थीं और यह उनके और भी अधिक विशेष होने की निशानी है।</p><p>
</p><p>
इस मामले पर
अमेरिका की फोर्डहम विश्वविद्यालय में समाजशास्त्र और मानवशास्त्र के प्रोफेसर
माइकल डब्ल्यू कुनियो ने अमेरिकी जादू-टोने पर लिखी अपनी किताब में कहा है कि
पवित्र महिलाओं और पुुरुषों को जीवन में कभी न कभी बुरी आत्माओं का सामना
करना पड़ता है और तब इन लोगों को भी लगता है कि ईश्वर ने उन्हें अपने से दूर
कर दिया है।</p><p>
</p><p>
कुनियो ने
कहा कि इससे मदर टेरेसा की महानता पर कोई आंच नहीं आएगी और न ही उनके
संत घोषित होने में कोई बाधा पैदा होगी, क्योंकि पवित्र आत्माओं के ऊपर
ही शैतानी हमले होते हैं और विश्व में अपनी सांसारिक यात्रा के दौरान जीसस
क्राइस्ट को भी ऐसे ही शैतानी हमलों का सामना करना पड़ा था।</p>

<p> </p>

<p>गैस कांड पर बनने वाली फिल्म में पेनिलोप क्रूज</p>

<p></p><p>
- वेबदुनिया ब्यूरो </p>

<p>विख्यात लेखक डॉमनिक लॉपियरे द्वारा भोपाल गैस कांड पर लिखी पुस्तक
'भोपाल ट्रेजेडी' पर बनने वाली फिल्म में हॉलीवुड की मशहूर अभिनेत्री पेनिलोप
क्रूज अभिनय करने के लिए तैयार हैं। फिल्म में वे पद्मिनी की भूमिका अदा
करेंगी, जिसका 2 दिसंबर 1984 की रात को विवाह होने वाला था।</p><p>
</p><p>
पेनिलोप क्रूज
हॉलीवुड की लोकप्रिय स्पेनिश अभिनेत्री हैं, जिनका हॉलीवुड के लोकप्रिय सितारे
टॉम क्रूज के साथ रोमांस चल रहा है। टॉम क्रूज ने हाल ही में अपनी पत्नी
निकोल किडमैन से तलाक ले लिया है। निकोल भी हॉलीवुड की फिल्मों में
अभिनय करती हैं।</p><p>
</p><p>
'भोपाल
ट्रेजेडी' के सह लेखक जेबियर मोरो का कहना है कि विदेशों में यह पुस्तक बहुत
लोकप्रिय हुई है। फ्रांस में 10 लाख और स्पेन में कम से कम 5 लाख लोगों ने
इसे पढ़ा है। इस पुस्तक की लोकप्रियता के कारण ही पेनिलोप ने पुस्तक पर
बनने वाली फिल्म में अभिनय करने की उत्सुकता जाहिर की।</p><p>
</p><p>
पुस्तक की
कहानी के बारे में लॉपियरे का कहना है कि हमें इस कांड को नहीं भूलना
चाहिए, क्योंकि इसमें न केवल 15 हजार लोग मारे गए थे, वरन् अभी भी करीब डेढ़ लाख
लोग इसके दुष्परिणामों का शिकार हंै।</p><p>
</p><p>
इन लोगों को
ना तो कोई वित्तीय क्षतिपूर्ति मिली और न ही उनका समुचित इलाज किया गया।
इसलिए पुस्तक और फिल्म का संदेश होगा कि जिन क्षेत्रों में नागरिकों की बस्तियां
हों वहां इस तरह के घातक और खतरनाक संयंत्र नहीं लगाने चाहिए। </p><p>
</p><p>
उन्होंने एक
पत्रकार वार्ता में कहा कि यदि यूनियन कार्बाइड प्लांट के पाइपों के बीच में करीब
40 रुपए की कीमत वाला सफेद टैफ्लॉन का टुकड़ा लगा दिया जाता तो शायद 15 हजार
लोग नहीं मरते।</p><p>
</p><p>
इस टुकड़े के
बारे में एक वरिष्ठ अधिकारी अपने मातहत को निर्देश देना भूल गया था और वह
जूनियर कर्मचारी मुशायरा सुनने के लिए इतना उत्सुक था कि उसने इस बात पर ध्यान ही
नहीं दिया, जिसका परिणाम इतने बड़े पैमाने पर लोगों की मौत के रूप में सामने
आया।</p>

<p> </p>

<p>भगवाकरण ः एक ओर भट्टाचार्य, दूसरी ओर विश्वविद्यालय</p>

<p></p><p>
दिल्ली ब्यूरो </p>

<p>एक तरफ जहां पश्चिम बंगाल के मुख्यमंत्री बुद्धदेव भट्टाचार्य केन्द्र के
शिक्षा के कथित 'भगवाकरण' के खिलाफ मोर्चा खोले हुए हैं वहीं दूसरी तरफ उनकी
नाक के नीचे उनके पार्टी सहयोगी यूनिवर्सिटी ग्रांट्स कमीशन की पहल के आगे नत
मस्तक हैं।</p><p>
</p><p>
कलकत्ता की
प्रतिष्ठित रबीन्द्र भारती विश्वविद्यालय ने तो यूजीसी से वैदिक और संस्कृत के
पाठ्यक्रम शुरू करने के लिए फंड स्वीकृत करने की मांग तक कर डाली है। राज्य
में सत्तारूढ़ वाममोर्चा की आपत्तियों पर भी विश्वविद्यालय प्रशासन ने ध्यान देना जरूरी
नहीं समझा है।</p><p>
</p><p>
केन्द्रीय मानव
संसाधन विकास मंत्री कोे विश्वविद्यालय के कुलपति शुभांकर चक्रवर्ती ने
प्रस्ताव भेजा है, जिनकी नियुक्ति पश्चिम बंगाल की सीपीएम सरकार की राजनीतिक
नियुक्ति मानी जाती है। वे शायद संस्कृत और वैदिक शिक्षा को पढ़ाए जाने में
कोई बुराई नहीं देखते। उच्च शिक्षा मंत्री सत्यसाधन चक्रवर्ती, जो कुलपति
के बड़े भाई भी हैं, की जानकारी में कुलपति ने प्रस्ताव भेजा है।</p><p>
</p><p>
विश्वविद्यालय ने
वैदिक पाठ्यक्रमों को शुरू करने के लिए 16 लाख रुपए की मांग की है। उसने
इन पाठ्यक्रमों के लिए कम से कम दस पद सृजित करने की अनुमति भी मांगी है। इन
पदों में प्रोफेसर, रीडर, व्याख्याता आदि शामिल हंै।</p><p>
</p><p>
अब तक देश भर
के 30 विश्वविद्यालयों ने वैदिक पाठ्यक्रम शुरू करने के लिए प्रस्ताव भेजे हंै।
इनके अलावा 11 बड़े विश्वविद्यालयों ने भी अपने यहां इन पाठ्यक्रमों को शुरू
करने की इच्छा जाहिर की है।</p><p>
</p><p>
मजेदार बात यह
है कि प्रस्ताव भेजने वाले विश्वविद्यालयों में ऐसे प्रदेशों के विश्वविद्यालय भी बड़ी
संख्या में शामिल हैं, जहां राजग का शासन नहीं है। मिहार इंस्टीट्यूट ऑफ
टेक्नालाजी (बीआईटी), मेसरा एण्ड बिरला इंस्टीट्यूट ऑफ टेक्नालॉजी एंड साइंस
(बीआईटीएस), पिलानी, राजस्थान आदि पहले ही मानव संसाधन विकास मंत्रालय को
प्रस्ताव भेज चुके हैं। यदि लालू शासित पटना विश्वविद्यालय ने इन पाठ्यक्रमों को
शुरू करने की इच्छा जाहिर की है तो कांग्रस शासित राजस्थान विश्वविद्यालय ने
भी।</p><p>
</p><p>
वैदिक
पाठयक्रमों के अलावा संस्कृत पाठ्यक्रमों में भी विभिन्न राज्यों ने रूचि दिखाई
है। रबीन्द्र भारती विश्वविद्यालय यहां भी बहुत आगे है। विश्वविद्यालय ने इच्छा
जाहिर की है कि 'स्पोकन संस्कृत' का पाठ्यक्रम भी शुरू किया जाए। यह
पाठ्यक्रम शुरू करने के लिए उसने यूजीसी से 11 लाख रुपए की ग्रांट मांगी है।
विश्वविद्यालय की मंशा है कि उसके विद्यार्थी और शिक्षक, जो संस्कृत को ठीक
से सिखना एवं उच्चारित करना चाहते हैं, इस पाठ्यक्रम से लाभान्वित हो सकें।</p><p>
</p><p>
यूजीसी ने उक्त
विश्वविद्यालय को सुझाव दिया कि वह अपनी टीम इस काम के लिए भेज सकती है,
लेकिन विश्वविद्यालय ने इस सुझाव को निरस्त करते हुए बताया कि उसके पास संस्कृत
के कईं जानकार हैं।</p><p>
</p><p>
'स्पोकन
संस्कृत' पाठ्यक्रम की इच्छा के पक्ष में विश्वविद्यालय प्रशासन का कहना है कि जब
विदेशी भाषाओं के लिए क्लासेस चलाए जा सकते हैं तो फिर अपने ही देश की प्राचीन
भाषा के लिए पाठ्यक्रम चलाए जाने में क्या हर्ज है? सीपीएम ने अभी इसका जवाब नहीं
दिया है।</p>

<p> </p>

<p>भारत शांति का रास्ता नहीं छोड़ेगा-वाजपेयी</p>

<p> </p>

<p>प्रधानमंत्री अटल बिहारी वाजपेयी ने आज घोषणा की कि पाकिस्तान
के साथ संबंध सामान्य बनाने के अपेक्षित नतीजे नहीं निकलने के बावजूद भारत
शांति का रास्ता नहीं छोड़ेगा। </p><p>
</p><p>
पाकिस्तान के
राष्ट्रपति परवेज मुशर्रफ के साथ न्यूयार्क में प्रस्तावित बैठक से पूर्व वाजपेयी ने
कहा कि निरन्तर भड़कावे और सीमा पार से आतंकवादी कार्रवाइयां जारी रहने के
बावजूद उन्होंने जनरल मुशर्रफ को बातचीत के लिए बुलाने की पहल की।
प्रधानमंत्री यहां पुलिस महानिदेशकों और पुलिस महानिरीक्षकों के वार्षिक
सम्मेलन को संबोधित कर रहे थे।</p><p>
</p><p>
वाजपेयी ने
जम्मू-कश्मीर की स्थिति को गंभीर चिंता का विषय बताते हुए राज्य में उग्रवाद के
खात्मे के लिए हाल में की गई अनेक पहलों की चर्चा की। उन्होंने कहा कि छह
माह से अधिक समय तक हमने कोई कार्रवाई नहीं की तो यह सोच कर कि
आतंकवादी गुटों और उन्हें संरक्षण देने वालों में सद्बुुध्दि जागेगी तथा क्षेत्र
में शांति की खातिर बातचीत की शुरूआत हो सकेगी।</p><p>
</p><p>
उन्होंने कहा
कि जम्मू कश्मीर के लिए राजनीतिक और कूटनीतिक पहल के साथ-साथ हमारे सुरक्षा
बलों ने कल्पनाशीलता और तालमेल से काम करते हुए तथा उग्रवादी विरोधी सतत
अभियान चलाते हुए हालात अपने पक्ष में किए हैं।</p><p>
</p><p>
पिछले कुछ माह
में उग्रवादियों को भारी मात खानी पड़ी है। प्रधानमंत्री ने इस शानदार
उपलब्धि के लिए राज्य की पुलिस, विभिन्न अर्द्धसैनिक बलों, सेना और खुफिया
एजेंसियों को बधाई देते हुए कहा कि उनकी निरंतर चौकसी और समय पर
कार्रवाई से राज्य में उग्रवादियों की धमकी के बावजूद अमरनाथ यात्रा,
पंचायत चुनाव और जनगणना कार्य सफलतापर्वूक संपन्न कराए जा सके।</p><p>
</p><p>
उन्होंने आशा
व्यक्त की कि सुरक्षा बल और प्रशासन राज्य में स्वतंत्र एवं निष्पक्ष चुनाव कराने में
भी ऐसी ही मुस्तैदी से काम करेंगे।</p>

<p> </p>

<p>पटनायक आज काशीपुर के दौरे पर</p>

<p> </p>

<p>उड़ीसा के मुख्यमंत्री नवीन पटनायक आज काशीपुर का दौरा कर रहे
हैं। कल इसके पास के एक गांव में दो लोगों की भूख से मौत हो गई थी।</p><p>
</p><p>
काशीपुर में
भुखमरी से मौतों की यह पहली घटना नहीं है। पिछले कुछ समय से यहां इस तरह की
मौतें होतीं रहीं हैं।</p><p>
</p><p>
मीडिया द्वारा इस
मामले को उठाने पर कुछ हलचल हुईं और काशीपुर तक कुछ सहायता पहुंचने लगी, लेकिन
दूर दराज के गांव अभी भी मुश्किल में</p><p>
हैं।</p><p>
</p><p>
सरकार कहती रही
है कि राज्य में हो रही मौतों के लिए भुखमरी नहीं बल्कि विषाक्त भोजन जिम्मेवार
है। हालांकि अब सरकार भी यह मानने लगी है</p><p>
कि सहायता राशि
जरूरतमंदों तक नहीं पहुंच पा रही है।</p><p>
</p><p>
आज पटनायक के
दौरे के दौरान विरोध प्रदर्शनों की भी सूचना है।</p><p>
वेससे</p>

<p> </p>

<p>जयललिता खुद पद छोड़ देंगी !</p>

<p> </p>

<p> mhfUth fUt sJtc yts</p><p>
</p><p>
तमिलनाडु की
मुख्यमंत्री जयललिता के मामले में केन्द्र सरकार आज सुप्रीम कोर्ट को जवाब देगी।
कल सुप्रीम कोर्ट ने एटार्नी जनरल सोली सोराबजी से पूछा था कि यदि वह तमिलनाडु
की मुख्यमंत्री जे. जयललिता की नियुक्ति को अवैध ठहरा दे तो इससे उत्पन्न
स्थिति से कैसे निपटा जाएगा।</p><p>
</p><p>
इस बीच चेन्नई
से प्राप्त खबरों के अनुसार जयललिता खुद भी मुख्यमंत्री का पद छोड़ सकतीं हैं।
बताया जा रहा है कि उनके वकीलों ने उन्हें ऐसी राय दी है कि अब और इन्तजार
करना ठीक नहीं है। उनके विकल्प पर भी चर्चाएं चल पड़ीं हैं।</p><p>
</p><p>
मामले की
सुनवाई कर रही पांच न्यायाधीशों की संविधान पीठ के अध्यक्ष न्यायमूर्ति
एस.पी. भरूचा ने बुधवार को कहा - मान लीजिए कि न्यायालय जयललिता की नियुक्ति
की वैधता पर प्रश्न चिह्न लगाता है तो राज्य सरकार का क्या होगा और इसके
क्या परिणाम होंगे?</p><p>
</p><p>
खंड पीठ ने यह
प्रश्न तमिलनाडु की राज्यपाल फातिमा बीवी द्वारा जयललिता को मुख्यमंत्री के रूप में
नियुक्त किए जाने के विरूद्ध दायर याचिकाओं की सुनवाई के दौरान उठाया। </p><p>
</p><p>
गौरतलब है कि
जयललिता को पिछला विधानसभा चुनाव लड़ने के अयोग्य घोषित कर दिया गया
था। खंड पीठ के अन्य सदस्य न्यायमूर्ति जी.बी. पटनायक, न्यायमूर्ति वाई. के.
सबरवाल, न्यायमूर्ति रूमा पाल और न्यायमूर्ति ब्रजेश कुमार हैं।</p><p>
</p><p>
खंड पीठ के
प्रश्न पर एटार्नी जनरल ने जवाब दिया कि ऐसी स्थिति में जयललिता के मुख्यमंत्री पद पर
बने रहने का कोई औचित्य नहीं होगा। न्यायमूर्ति भरूचा ने कहा- यह तो स्पष्ट है
कि ऐसी स्थिति में जयललिता मुख्यमंत्री पद पर नहीं रह सकती लेकिन क्या यह समझा
जाएगा कि इतने महीनों तक राज्य बिना सरकार के चलता रहा।</p><p>
</p><p>
संविधान
पीठ ने कहा कि यह केवल किसी एक व्यक्ति का प्रश्न नहीं है। पूरा मंत्रिमंडल ही
भंग हो जाएगा और इसके अन्य परिणाम भी उभरकर सामने आएंगे। खंडपीठ ने आगे
कहा कि वह जानना चाहती है कि इसके परिणाम क्या होंगे और इससे कैसे निपटा
जाएगा।</p><p>
</p><p>
खंड पीठ के इस
सवाल पर एटार्नी जनरल एकदम कोई जवाब नहीं दे पाए और कुछ समय की मांग
की। खंडपीठ ने कहा कि इस मुद्दे पर गहराई से विचार-विमर्श किया जाना
चाहिए। खंड पीठ भी इस संबंध में सोचेगी लेकिन अदालत को इस संबंध
में सरकार का पक्ष जानने का अधिकार है।</p><p>
</p><p>
सोराबजी ने
कहा कि संविधान के उपबंधों के अनुसार जो व्यक्ति विधायिका का
सदस्य बनने की योग्यताएं पूरी नहीं करता वह जनप्रतिनिधित्व नहीं कर सकता
और न ही संसद के दोनों सदनों और राज्य विधानमंडलों में कोई स्थान
ग्रहण कर सकता है। उन्होंने कहा कि इनका उल्लंघन करने वाले व्यक्ति के लिए
संविधान में कड़े दंड का प्रावधान है।</p><p>
</p><p>
संविधान
के उपबंध 164 के अनुसार ऐसा कोई भी व्यक्ति मुख्यमंत्री के पद पर आसीन
नहीं हो सकता जिसके खिलाफ अदालत में गंभीर आपराधिक मामला चल रहा हो या
नियुक्ति की तारीख तक दोष सिद्ध हो गया हो।</p><p>
</p><p>
सोराबजी ने
अदालत से आग्रह किया कि वह संविधान के उपबंधों की ऐसी व्याख्या नहीं
करे जिससे गंभीर अपराध करने वालों को सरकार प्रमुख बनने मौका मिले।</p><p>
</p><p>
केंद्र सरकार
की ओर से अदालत में प्रस्तुत सालिसिटर जनरल हरीश साल्वे ने कहा कि जयललिता की
नियुक्ति को अवैध घोषित करना आवश्यक है।</p><p>
</p><p>
साल्वे ने कहा
कि सामान्य तौर पर उपबंध 164 राज्यपाल को वैसा मुख्यमंत्री नियुक्त करने का
अधिकार देता है जो नियुक्ति की तारीख को न्यूनतम योग्यताएं पूरी करता
हो। उन्होंने कहा कि इस अधिकार का प्रयोग संविधान के अन्य
उपबंधों को ध्यान में रखते हुए किया जाना चाहिए।</p><p>
वेससे</p>

<p> </p>

<p>अगप आज महंत का विकल्प चुनेगी</p>

<p> </p>

<p>असम गण परिषद् (अगप) की जनरल बॉडी की आज यहां बैठक हो रही
है। बैठक में अगप अपना अगला अध्यक्ष चुनेगी। वरिष्ठ नेता ब्रिंदाबन गोस्वामी के
अध्यक्ष चुने जाने की उम्मीद है।</p><p>
</p><p>
ुप्रफुल्ल कुमार
महंत ने पिछले दिनों अगप के अध्यक्ष पद से इस्तीफा दे दिया था। उन पर दूसरी शादी
करने के आरोप हैं।</p><p>
</p><p>
गोस्वामी का
नाम हाल ही में सोनितपुर जिले में हुई अगप की बैठक में उछला था। गोस्वामी ने भी
अपनी रुचि जाहिर की थी। गोस्वामी का कहना है- मैं अध्यक्ष बनूं या नहीं, लेकिन
एक बात अगप को समझनी होगी कि वह आम जनता में अपनी विश्वसनीयता खो चुकी है
और उसका पहला काम उसे फिर हासिल करना होना चाहिए।</p><p>
</p><p>
उधर पार्टी
की कार्यकारिणी की बुधवार को बैठक हुई। महंत के इस्तीफे के बाद
कार्यकारिणी ने भी इस्तीफा देने का मन बना लिया है। कार्यकारिणी सदस्य आज
की बैठक में अपना इस्तीफा दे देंगे।</p><p>
वेससे</p>

<p> </p>

<p>पाक बातचीत का माहौल न बिगाड़े- भारत</p>

<p></p><p>
भड़काऊ बयानों पर
कड़ा ऐतराज व्यक्त किया </p>

<p> </p>

<p>प्रधानमंत्री अटलबिहारी वाजपेयी तथा पाकिस्तानी राष्ट्रपति परवेज
मुशर्रफ की न्यूयार्क में होने वाली मुलाकात एक बार फिर संकटों के घेरे में आ
गई</p><p>
है। भारत ने
पाक द्वारा हाल ही में दिए गए भड़काऊ बयानों पर कड़ा ऐतराज व्यक्त करते हुए कहा है
कि पाक बातचीत का माहौल न बिगाड़े।</p><p>
</p><p>
भारत ने
पाकिस्तान की मंशा पर संदेह व्यक्त करते हुए कहा है कि यदि ऐसा ही चलता रहा तो
न्यूयार्क की वाजपेयी-मुशर्रफ मुलाकात अपने उद्देश्यों में सफल नहीं हो पाएगी।</p><p>
</p><p>
भारत के इन
विचारों को पाकिस्तान में भारतीय उधाायुक्त वी.के. नांबियार ने पाकिस्तानी
विदेश सचिव इमानुल हक तक बुधवार को पहुंचाया। अपनी</p><p>
मुलाकात में
नांबियार ने पाक के सामने उसके बयानों को लेकर कड़ी आपत्ति व्यक्त की।</p><p>
</p><p>
भारतीय
अधिकारियों के अनुसार नांबियार ने पाक के उधा नेताओं तथा
अधिकारियों द्वारा कश्मीर जैसे मुद्दों को लेकर हाल ही में दिए बयानों का
उल्लेख करते हुए यह जानना चाहा कि आखिर वह ऐसी बातें करके क्या जताना चाहता
है।</p><p>
</p><p>
नांबियार ने हक
से कहा कि ऐसे बयानों के कारण दोनों देशों के बीच बातचीत के लिए अनुकूल
माहौल नहीं बन पाएगा।</p><p>
</p><p>
पाकिस्तान की
ओर से हक ने कहा कि वह भारत के साथ हर मुद्दे पर बातचीत करना चाहते है लेकिन
हर स्थिति में वार्ता का मुख्य मुद्दा कश्मीर ही होगा। उन्होंने नांबियार से कहा
कि पाकिस्तान 25 सितंबर को न्यूयार्क में होने वाली बैठक के प्रति काफी
आशांवित है। (एजेंसी)</p>

<p> </p>

<p>साधु-संतों का जत्था यूरोप आएगा</p>

<p> </p>

<p>साधु-संतों का एक जत्था हिन्दू धर्म के बारे में अलख
जगाने तथा दुनिया के सभी धर्मों के सह-अस्तित्व का संदेश फैलाने के
उद्देश्य से इस सप्ताह यूरोप की एक अनोखी यात्रा शुरू करेगा। </p><p>
</p><p>
साधु
संतों के इस जत्थे का नेतृत्व जगदगुरू शंकराचार्य दिव्यानंद तीर्थ करेंगे।
साधु-संतों के अलावा इस जत्थे में भारतीय मूल के ब्रिटिश अरबपति नागरिक
एल.एम.मित्तल और भारतीय उद्योगपति बी.के. मोदी भी शामिल होंगे। </p><p>
</p><p>
'विश्व धर्म
प्रसार यात्रा' के तहत यूरोप में इस यात्रा का आयोजन किया जा रहा है।
साधु-संतों का यह जत्था 12 दिनों में यूरोपीय देशों की यात्रा
करेगा। विश्व हिन्दू परिषद (विहिप) की अंतर्राष्ट्रीय इकाई ने भारत में सक्रिय
कई धार्मिक संस्थानों और नेताओं के सहयोग से इस यात्रा का आयोजन
किया है। </p><p>
</p><p>
भारत में पिछले
महीने जन्माष्टमी पर हवन के साथ विश्व धर्म प्रसार यात्रा शुरू हुई थी। भारत
के चुनिंदा महानगरों एवं शहरों से गुजरने के बाद प्रधानमंत्री अटलबिहारी
वाजपेयी ने 15 अगस्त को दिल्ली में इस यात्रा को विदेश विदा किया। यह यात्रा
अभी तक अमेरिका, कनाडा, दक्षिण अमेरिका और कैरीबियाई देशों से गुजर
चुकी है। </p><p>
</p><p>
अगले शुक्रवार को
यह यात्रा ब्रिटेन के बर्मिंघम शहर पहुंचेगी, जहां दक्षिण एशियाई मूल के
नागरिकों की अच्छी-खासी तादाद है। शनिवार को यह यात्रा लंदन पहुंचेगी और
फिर 9 सितंबर को पेरिस। इसके बाद यात्रा जर्मनी, नीदरलैंड, डेनमार्क, नॉर्वे,
पुर्तगाल और रूस से गुजरेगी। </p><p>
</p><p>
यात्रा के
आयोजकों के अनुसार वे इस यात्रा के जरिये कि शांति एवं आध्यात्मिकता का
संदेश फैलाना चाहते हैं। वे 'वासुधैव कुटुम्बकम' के सिद्घांत के
आधार पर दुनिया भर के समुदायों को एकजुट करना चाहते हैं। </p><p>
</p><p>
साधु-संतों
का यह जत्था पेरिस में अगले रविवार की शाम आयोजित एक कार्यक्रम में हिन्दू
समुदाय को संबोधित करेगा। इसमेंं शंकराचार्य और जत्थे के अन्य प्रमुख
धार्मिक नेता अपना संदेश पढ़ेंगे। इसमें प्रार्थना सभा का भी आयोजन किया
जाएगा। सामुदायिक भोज के साथ यह कार्यक्रम समाप्त होगा। अगले दिन यह जत्था
पेरिस से म्यूनिख के लिए रवाना हो जाएगा। </p><p>
(इंडो-एशियन
न्यूज सर्विस)</p>

<p> </p>

<p>डरबन में इसराइल को नस्लवादी घोषित करने से परहेज</p>

<p> </p>

<p>दक्षिण अफ्रीकी शहर डरबन में नस्लवाद विरोधी विश्व सम्मेलन द्वारा
गुुरुवार को जारी घोषणा में फिलिस्तीनी जनता की दुर्दशा पर तो ध्यान देने की
जरूरत तो बताई गई हैे लेकिन इसमें इसराइल को नस्लवादी देश घोषित करने वाली
भाषा नहीं अपनाई गई है।</p><p>
</p><p>
घोषणा पत्र की
प्राप्त प्रति में कहा गया है कि हम विदेशी कब्जे में रह रहे फिलिस्तीनी लोगों
की दुर्शशा को लेकर चिंतित हैं और हम ऐसी न्यायपूर्ण तथा स्थायी शांति चाहते
हैं जिससे क्षेत्र के लोग समानता, न्याय, अंतरराष्ट्रीय स्तर पर स्वीकृत
मानवाधिकारों और सुरक्षा के साथ रह सकें। </p><p>
</p><p>
मसौदे में
आत्मनिर्णय और स्वतंत्र फिलिस्तीनी राज्य की स्थापना के फिलिस्तीनी जनता के
अधिकार को मान्यता दी गई है। घोषणा पत्र का मसौदा दक्षिण अफ्रीका ने
तैयार किया है और इसमें कहा गया है कि यहूदियों के सामूहिक संहार को
नहीं भुलाया जा सकता है।</p><p>
</p><p>
यह मसौदा पश्चिम
एशिया में हिंसा पर भाषा को लेकर यूरोपीय संघ और अरब देशों के बीच बढ़ रही
खाई को पाटने की कोशिश है। पहले तैयार घोषणा पत्र के मसौदे में इसराइल
के खिलाफ प्रयुक्त भाषा के विरोध में गत सोमवार को अमेरिका और इसराइल
ने सम्मेलन से खुद को बाहर कर लिया था। (रायटर)</p>

<p> </p>

<p> </p>

<p>फिजीः स्वदेशी गठबंधन सत्ता में आएगा!</p>

<p> </p>

<p> rVUse bü Ár\ZJt=e ôJ=uNe
dXck"l Åtht mútt fUe ctdztuh mkCtu stlu fUe Wöbe= ni> nÜ;uCh ae awltJ
rf{Ugt fuU ct= rfUme Ce = fUtu ôvíx cýb; lné rb mfUt> </p><p>
</p><p>
बागी नेता जॉर्ज
स्पिट इस चुनाव में एक निर्णायक ताकत बनकर उभरे हैं। इसी बीच अपदस्थ
प्रधानमंत्री महेंद्र चौधरी ने चुनाव में बड़े पैमाने पर धांधली का
आरोप लगाया है। अब केवल 9 सीटों के नतीजे बाकी हैं। </p><p>
</p><p>
चौधरी भी
सरकार बनाने का दावा कर रहे हैं। 71 सदस्यीय संसद में चौधरी और अंतरिम
प्रधानमंत्री लैसेनिया करासे की पार्टी को अब तक 27-27 सीटें मिली हैं।
पूर्ण बहुमत के लिए 36 सीटों की जरूरत है। </p><p>
</p><p>
व्यापारी जॉर्ज
स्पिट ने मई 2000 में बंदूकधारियों की मदद से संसद भवन पर कब्जा कर
चौधरी सरकार को सत्ता से हटा दिया था। स्पिट पर देशद्रोह का मुकदमा चल
रहा है। उसने जेल से ही चुनाव लड़ा और वह जीत भी गया। </p><p>
</p><p>
वह फिजी के
मूल निवासियों के हितों का स्वघोषित हितैषी है। इन लोगों को डर है कि
भारतीय अल्पसंख्यक आर्थिक रूप से संपन्ना होने के बाद अब राजनीति में भी अपना दबदबा
बनाना चाहते हैं और वे असुरक्षित महसूस करने लगे हैं। </p><p>
</p><p>
फिजी की संसद
में दो सदन हैं। निचला सदन जनप्रतिनिधि सभा है जिसे वेल कहते हैं। इसमें 71
सदस्य होते हैं। सदन की 46 सीटें विभिन्ना नस्लों के लोगों के लिए आरक्षित हैं,
जिन्हें सांप्रदायिक सीटें कहा जाता है। बाकी 25 सीटें सामान्य हैं। </p><p>
</p><p>
आरक्षित सीटों में
फिजी के मूल निवासियों के लिए 23, भारतीयों के लिए 19, रातूमा के लिए एक
और अन्य नस्लों के लिए 3 सीटें हैं। ऊपरी सदन सीनेट है जिसे सेनिति कहा जाता
है। इसमें 34 सदस्य होते हैं। </p><p>
</p><p>
इसके 14 सदस्य
का मनोनयन कबीलाई सरदारों की महापरिषद करती है। नौ सदस्य प्रधानमंत्री
द्वारा, आठ सदस्य विपक्षी नेता द्वारा और एक सदस्य रोतुमा परिषद द्वारा मनोनीत किया
जाता है। निचले सदन और ऊपर सदन दोनों के सदस्यों का कार्यकाल पांच-पांच
वर्ष निर्धारित है। (रायटर)</p>

<p> </p>

<p>जनरल इरशाद के चुनाव में भाग लेने पर प्रतिबंध</p>

<p> </p>

<p>बांग्लादेश के चुनाव आयोग ने पूर्व सैनिक शासक एच.एम.इरशाद को भ्रष्टाचार
के आरोप में अदालत द्वारा दोषी ठहराए जाने के कारण उनके चुनाव में भाग लेने पर
प्रतिबंध लगा दिया है।</p><p>
</p><p>
आयोग के
प्रवक्ता ने गुरुवार को बताया कि इरशाद एक अक्टूबर को होने वाले आम चुनाव में
खड़े नहीं हो सकेंगे क्योंकि ढाका की एक फौजदारी अदालत ने भ्रष्टाचार के
मामले में उन्हें दोषी पाया है। </p><p>
</p><p>
71 वर्षीय इरशाद
को 1982-90 के दौरान अपने शासन काल में अपने पद का दुरूपयोग कर लाखों डालर
की संपत्ति जमा करने के मामले में पांच साल की सजा सुनाई गई थी जिस पर उच्च
न्यायालय ने अपनी मुहर लगा दी है।</p><p>
</p><p>
इरशाद की जातीय
पार्टी ने चुनाव में 300 सीटोंें पर अपने उम्मीदवार खड़े किए हैं वह खुद उत्तर पूर्व
सिलहट क्षेत्र से चुनाव लड़ने की तैयारी कर रहे थे। (डीपीए)</p>

<p> </p>

<p>चंदा उगाही के नए तरीके पर सहमति</p>

<p> </p>

<p> vtrfUô;tl fUt d]n bkºttg
;:t söbq-fUëbeh bü mrf{Ug fwUA yt;kfUe mkdXltü fUt dXck"l bwúttrn=t sunt=
vrhM= (Ybsume) sunt= fuU mkatl fuU rY ak=t Wdtne fUt YfU lgt ;hefUt yvltlu
fUtu htse ntu dY nî> </p><p>
</p><p>
ऑन लाइन न्यूज
एजेंसी के अनुसार हाल में गृह मंत्रालय के अधिकारियों और एमजेसी के
नेताओं की बैठक हुई। इस बैठक के दौरान दोनों पक्षों के बीच चंदा उगाही
के लिए नया तरीका अपनाने पर सहमति बनी। </p><p>
</p><p>
बैठक में एमजेसी
ने उनके संगठनों के चंदा उगाही पर लागू किए गए प्रतिबंध के खिलाफ अपनी
आवाज बुलंद की। पाकिस्तान सरकार ने यह पाबंदी लगाई है। गृह मंत्रालय के
वरिष्ठ अधिकारियों ने बैठक में एमजेसी नेताओं को बताया कि जम्मू-कश्मीर में
संघर्ष कर रहे 'जेहादी' संगठनों के खिलाफ कार्रवाई करने का सरकार का कोई
इरादा नहीं है। </p><p>
</p><p>
अधिकारियों
ने एमजेसी नेताओं को बताया कि भारत पिछले कुछ समय में अंतरराष्ट्रीय स्तर पर इस
बात का प्रचार कर रहा है कि जम्मू-कश्मीर में जारी जेहाद के पीछे पाकिस्तान का
हाथ है। इसके अलावा जेहाद के नाम पर आतंकी गतिविधियों को अंजाम देने
के आरोप के चलते पाकिस्तान को अंतरराष्ट्रीय समुदाय के दबाव का भी सामना
करना पड़ रहा है। </p><p>
</p><p>
इन कारणों से
पाकिस्तान सरकार को तरह-तरह की मुश्किलें झेलना पड़ रही हैं। सूत्रों के
अनुसार दोनों पक्षों ने चंदा उगाही के नए तरीके के बारे में विस्तार से चर्चा
की। बैठक में गृह मंत्रालय के अधिकारियों ने इस मामले में सहयोग का
आश्वासन दिया है। (एजेंसी)</p>

<p> </p>

<p>दक्षिण-उत्तर कोरिया में मंत्री स्तरीय वार्ता होगी</p>

<p> </p>

<p>दक्षिण कोरिया ने कहा कि उसने उत्तर कोरिया की पेशकश के जवाब
में सोल में 15 सितंबर से मंत्री स्तरीय बातचीत का प्रस्ताव रखा है। </p><p>
</p><p>
दक्षिण कोरिया
के एकीकरण मंत्रालय की प्रवक्ता ने कहा कि 'हमने उत्तर कोरिया को सोल में
मंत्री स्तरीय बातचीत का प्रस्ताव भेजा है।' यह बातचीत 4 दिन चलेगी। </p><p>
</p><p>
उत्तर कोरिया
ने कई महीनों की चुप्पी के बाद रविवार को घोषणा की थी कि वह दक्षिण कोरिया
के साथ जल्द फिर से बातचीत शुरू करेगा। </p><p>
</p><p>
दोनों देशों में
1950 से 1953 तक चले युद्ध के बाद से ही शीतयुद्ध चल रहा है। यह युद्ध बिना
शांति-समझौते के ही समाप्त हो गया था। (रायटर)</p>

<p> </p>

<p>अगले कुछ महीनों में फ्रांस के कई मंत्री भारत दौरे पर</p>

<p> </p>

<p>फ्रांस के कई वरिष्ठ मंत्री अगले कुछ महीने के दौरान भारत की
उच्च-स्तरीय यात्रा पर जाएंगे। इन यात्राओं के फलस्वरूप भारत और फ्रांस के
बीच राजनीतिक संबंधों का मजबूत होना तय है। </p><p>
</p><p>
फ्रांस के पांच
मंत्रियों के अगले पांच महीने के दौरान भारत जाने की संभावना है। फ्रांस
के कृषि एवं मत्स्य पालन मंत्री जीन ग्लेवेनी की यात्रा के साथ फ्रांसीसी मंत्रियों
की भारत यात्रा का सिलसिला शुरू होगा। ग्लेवेनी अपनी तीन-दिवसीय भारत यात्रा पर
14 सितंबर को दिल्ली पहुंचेंगे। फ्रांस के उद्योग मंत्री किर्स्टियन पिएरेट और
सामान्य प्रशासन मंत्री सेपिन अक्टूबर में भारत की यात्रा पर जाएंगे।</p><p>
</p><p>
फ्रांस के
अनुसंधान एवं विकास मंत्री काल्टजेनबर्गर नवंबर में भारत की यात्रा पर जाने
वाले हैं। फ्रांस के वित्त राज्यमंत्री फ्रेंकोइस हुवर्ट इस वर्ष के अंतिम सप्ताह
में भारत की यात्रा पर जाएंगे। हुवर्ट अपनी यात्रा में भारत-फ्रांस संयुक्त आयोग
की बैठक में अपने देश का प्रतिनिधित्व करेंगे। </p><p>
</p><p>
ग्लेवेनी की
यात्रा से दोनों देशों के बीच कृषि एवं खाद्य प्रसंस्करण के क्षेत्र में सहयोग
बढ़ने की संभावना है। भारत के कृषि मंत्री अजित सिंह और ग्रामीण विकास
मंत्री वेंकैया नायडू के न्योते पर ग्लेवेनी भारत जा रहे हैं। ग्लेवेनी की यात्रा
से कृषि से जुड़े भारत-फ्रांस संयुक्त कार्य दल को पुनर्जीवित करने में मदद
मिलेगी। कार्य दल की बैठक पिछले पांच वर्षों से नहीं हुई है।
(इंडो-एशियन न्यूज सर्विस)</p>

<p> </p>

<p>वाजपेयी गांधीजी की मूर्ति का अनावरण करेंगे</p>

<p> </p>

<p>भारतीय प्रधानमंत्री अटलबिहारी वाजपेयी 4 अक्टूबर को आस्ट्रेलिया
की राजधानी केनबरा में महात्मा गांधी की 1.5 मीटर ऊंची एक मूर्ति का</p><p>
अनावरण
करेंगे।</p><p>
</p><p>
यह कांस्य मूर्ति
केनबरा के ग्लेब पार्क में स्थापित की जा रही है। ग्लेब पार्क में 2 अक्टूबर
को महात्मा गांधी की जयंती के मौके पर उनकी प्रतिमा के अनावरण के लिए
4 अक्टूबर को एक समारोह का आयोजन किया जाएगा। इस समारोह में वाजपेयी
के अलावा आस्ट्रेलियाई प्रधानमंत्री जॉन हावर्ड के</p><p>
भी शामिल होने
की संभावना है।</p><p>
</p><p>
मंदिर सोसायटी
ऑफ आस्ट्रेलिया अनावरण के मौके पर इस समारोह का आयोजन करेगा।
सोसायटी के अनुसार इस प्रतिमा में महात्मा गांधी को चलने की मुद्रा में
प्रदर्शित किया गया है। सोसायटी का मानना है कि इस मुद्रा से महात्मा गांधी
की विख्यात डांडी यात्रा की याद ताजा होगी।</p><p>
</p><p>
भारत के
जाने-माने मूर्तिकार राम सुतार ने 'भारतीय सांस्कृतिक संबंध परिषद'
(आईसीसीआर) की चयन समिति की निगरानी में यह मूर्ति तैयार की है।
आईसीसीआर की चयन समिति में सतीश गुजराल, कपिला वात्स्यायन, बी. सी. सान्याल
और एच. वाई शारदा प्रसाद शामिल हैं।</p><p>
</p><p>
मूर्ति के
अनावरण के बाद महात्मा गांधी के जीवन पर एक प्रदर्शनी आयोजित की
जाएगी। यह प्रदर्शनी 7 अक्टूबर तक चलेगी। इसमें महात्मा गांधी से जुड़ी
सैकड़ों पुस्तकें और फोटो प्रदर्शित किए जांएगे। (इंडो-एशियन न्यूज
सर्विस)</p>

<p> </p>

<p>कुमारतुंग को अंततः राहत मिली</p>

<p> </p>

<p>राजनीतिक संकट से घिरी श्रीलंकाई राष्ट्रपति चंद्रिका कुमारतुंग
को अंततः राहत मिली है, लेकिन इस के लिए उन्हें भारी कीमत चुकानी पड़ी
है। </p><p>
</p><p>
कुमारतुंग ने
बिल्कुल अंतिम समय में देश की सबसे बड़ी वामपंथी पार्टी 'जनता विमुक्ति पेरामुना'
(जेवीपी) के साथ सौदेबाजी कर काफी ऊंची कीमत में अपने लिए राजनीतिक राहत
खरीदी है। लेकिन उनके नेतृत्व वाले गठबंधन 'पीपुल्स अलायंस' (पीए) में
दरारें पैदा होनी शुरू हो गई हैं।</p><p>
</p><p>
कुमारतुंग ने
कहा था कि पीए सरकार का अस्तित्व बरकरार रखने के लिए वे 'किसी दानव' के साथ
भी सौदेबाजी के लिए तैयार हैं। लेकिन राजनीतिक पर्यवेक्षकों का कहना है
कि पीए और जेवीपी के बीच तालमेल की वजह से श्रीलंका गर्त की ओर अग्रसर है।
</p><p>
</p><p>
एक एशियाई
राजनयिक के अनुसार पीए और जेवीपी के बीच तालमेल से तात्कालिक स्थिरता पैदा
हो सकती है। लेकिन वास्तविकता यह है कि दोनों पार्टियों के बीच कोई
समानता नहीं है। इसलिए आने वाले दिनों में दोनों पार्टियों के बीच
राजनीतिक मतभेद के फलस्वरूप तलाक की संभावना से इनकार नहीं किया जा सकता।
इस स्थिति में श्रीलंका में राजनीतिक और आर्थिक अस्थिरता और बढ़ेगी। </p><p>
</p><p>
जेवीपी ने संसद
में अल्पमत में आ चुके पीए को समर्थन देने के लिए कुमारतुंग के समक्ष कई सख्त
शर्तें रखी थीं। कुमारतुंग ने इन शर्तों को फिलहाल मान लिया है, लेकिन
उनके लिए इन्हें पूरा करना काफी मुश्किल होगा। </p><p>
</p><p>
पीए महासचिव
डी.एन.जयरत्ने ने बुधवार को दोनों पार्टियों के बीच समझौते पर हस्ताक्षर
के तत्काल बाद कहा कि वे इस समझौते की सभी शर्तों को अक्षरशः लागू
करने में नाकाम भी हो सकते हैं। (इंडो-एशियन न्यूज सर्विस)</p>

<p> </p>

<p>पाक लापता भारतीय जवानों के परिजनों को बुलाएगा</p>

<p> </p>

<p>पाकिस्तान सरकार ने भारतीय सेना के 54 लापता जवानों के
रिश्तेदारों को यहां बुलाने का फैसला किया है। पाकिस्तान सरकार चाहती है
कि लापता भारतीय जवानों के रिश्तेदार स्वयं यहां आकर देख लें कि ये जवान
पाकिस्तान की जेलों में युद्घबंदियों के रूप में बंद हैं या नहीं।</p><p>
</p><p>
साडा न्यूज
एजेंसी ने वरिष्ठ सरकारी अधिकारियों के हवाले से कहा है कि राष्ट्रपति
परवेज मुशर्रफ ने मंत्रिमंडल की एक बैठक के दौरान विदेश मंत्रालय से लापता
भारतीय जवानों के रिश्तेदारों को यहां बुलाने का रास्ता साफ करने का आदेश
दिया।</p><p>
</p><p>
गृह मंत्रालय में
मंत्रिमंडल की बैठक को सूचित किया था कि उसने देश के सभी जेलों में अच्छी
तरह से जांच-पड़ताल की है। जांच-पड़ताल की प्रक्रिया तीन बार पूरी की जा
चुकी है, लेकिन पाकिस्तानी जेलों में 1971 में दोनों देशों के बीच हुए युद्घ
का कोई भरतीय युद्घबंदी बंद नहीं है। </p><p>
</p><p>
गृह मंत्रालय ने
अपनी सूचना में कहा था कि भारत सरकार द्वारा उपलब्ध कराए गए इन युद्घबंदियों
के फोटो सभी जेलों में वितरित किए गए लेकिन इसका कोई फायदा नहीं
हुआ।</p><p>
</p><p>
मंत्रिमंडल की बैठक
के दौरान विदेश मंत्रालय द्वारा जारी एक बयान में कहा गया था कि पाकिस्तान की
किसी जेल में कोई भारतीय युद्घबंदी नहीं है। बयान के अनुसार इस मामले की
कई बार जांच की जा चुकी है। मुशर्रफ के आदेश के फलस्वरूप रक्षा और गृह
मंत्रालयों ने यह जांच संपन्न की है। (इंडो-एशियन न्यूज सर्विस)</p>

<p> </p>

<p>अमेरिका के समक्ष तालिबान की शर्त</p>

<p> </p>

<p>अफगानिस्तान में सत्तारूढ़ तालिबान सरकार के विदेशमंत्री वकील अहमद
मुत्तावकील ने आज कहा कि उन्हें इस योजना की कोई जानकारी नहीं है कि
तालिबान आठों विदेशी नागरिकों को छोड़ सकता है बशर्ते कि अमेरिका में सजा
भुगत रहे उसके मौलवी उग्रवादी शेख उमर अब्देल रहमान को रिहा किया जाए।</p><p>
</p><p>
गौरतलब है कि
तालिबान का मौलवी अब्देल रहमान अमेरिका में उग्रवाद के आरोप में पकड़ा गया था
और वह उम्रकैद की सजा भुगत रहा है।</p><p>
</p><p>
मुत्तावकील से
प्रेस कांफ्रेंस में पूछा गया कि कैदियों के आदान-प्रदान के संबंध में
क्या तालिबान को कोई पत्र मिला है, तो उन्होंने कहा कि अभी तक ऐसा कोई
पत्र नहीं मिला। जब यह पूछा गया कि क्या तालिबान और अमेरिका सरकार के बीच
इस संबंध में बातचीत चल रही है तो उन्होंने कहा कि ऐसा नहीं है।</p><p>
</p><p>
अफगानिस्तान के
बाहर कुछ इस्लामी सूत्रों ने संकेत दिया है कि यदि अमेरिका तालिबान के उग्रवादी
को अफगानिस्तान जाने देता है तो तालिबान भी आठों विदेशियों को छोड़ सकता
है। सूत्रों के अनुसार अमेरिकी अधिकारियों को तालिबान के प्रस्ताव
की जानकारी दे दी गई है।</p><p>
</p><p>
उल्लेखनीय है कि
अगस्त के प्रथम सप्ताह में जर्मनी की एक स्वयं सेवी संस्था के आठ विदेशी
कर्मचारियों को तालिबान ने गिरफ्तार कर लिया था। इन पर अफगानिस्तान में
ईसाई धर्म का प्रचार करने का आरोप है। इनमें चार जर्मन, दो अमेरिकी
और दो आस्ट्रेलियाई नागरिक हैं।</p><p>
</p><p>
वार्ता</p>

<p> </p>

<p>पाक, लड़कियों की खरीद का सबसे बड़ा बाजार</p>

<p></p><p>
- वेबदुनिया ब्यूरो </p>

<p>पाकिस्तान में कार्यरत कुछ गैर सरकारी संगठनों द्वारा कराए गए सर्वेक्षण
से यह जाहिर होता है कि पाक का उत्तर-पश्चिमी सीमावर्ती प्रांत महिलाओं की तस्करी
का सबसे बड़ा केंद्र बनता जा रहा है।</p><p>
</p><p>
खाड़ी देशों में
वेश्यावृत्ति के लिए भेजी जाने वाली लड़कियों और महिलाओं में अधिकतर संख्या
अफगानी महिलाओं की होती है, लेकिन इसमें पाकिस्तानी लड़कियों की संख्या भी
कम नहीं होती है।</p><p>
</p><p>
उपरोक्त सूबे में
कार्यरत एक गैर सरकारी संगठन औरत फाउंडेशन ने महिलाओं की तस्करी के 39
मामलों का पर्दाफाश किया। फाउंडेशन की प्रवक्ता का कहना है कि यह सतही
जानकारी है। वास्तव में यह समस्या बहुत अधिक गंभीर हो सकती है और ऐसे
मामलों की संख्या बहुत अधिक हो सकती है।</p><p>
</p><p>
उत्तर-पश्चिम
सीमावर्ती प्रदेश के पेशावर, चितराल, स्वाबी, मरदान, चारसड्डा, स्वात और बन्नो जिले में
13 वर्ष आयु तक की लड़कियों की खरीद-फरोख्त होती है।</p><p>
</p><p>
इनमें से कुछ
लड़कियों को पाकिस्तान के पंजाब सूबे से भी लाया जाता है और फर्जी शादी
कराए जाने के बाद उनका शोषण किया जाता है।</p><p>
</p><p>
यह समस्या कितनी
विकट है, इसका अंदाजा इसी तथ्य से लगाया जा सकता है कि पाकिस्तान की एक शीर्ष
खुफिया एजेंसी को इस मामले की जांच करने को कहा गया है।</p><p>
</p><p>
16 अगस्त को
पुलिस ने एक अफगान लड़की को उसके दलाल के साथ पेशावर हवाई अड्डे से गिरफ्तार
किया।</p><p>
</p><p>
गिरफ्तार व्यक्ति
कराची की सादत कॉलोनी का रहने वाला है जिसे पहले भी लड़कियों की तस्करी
के आरोप में गिरफ्तार किया जा चुका है।</p><p>
</p><p>
एक रिपोर्ट में
यहां तक कहा गया है कि लड़कियों की खरीदी के लिए पूरा एक बाजार है, जहां पर
माता-पिता अपनी लड़कियों को लाते हैं और पेशेवर दलाल लड़की की संुदरता, आयु
और अन्य बातों को देखकर उन्हें खरीद लेते हैं।</p><p>
</p><p>
पाकिस्तान और
अफगानिस्तान की लड़कियां उत्तर-पश्चिम फ्रंटियर सूबे में लाई जाती हैं और इन्हें
संयुक्त अरब अमीरात और सऊदी अरब भेजा जाता है।</p><p>
</p><p>
प्रत्येक महीने
दुबई के फाइव स्टार होटलों में अफगान लड़कियों को भेजा जाता है। मध्य-पूर्व
एशिया में दुबई एक जगह है, जहां पर एशिया ही नहीं, वरन् पूर्वी यूरोप और रशिया
तक की लड़कियां पहुंचाई जाती हंै।</p><p>
</p><p>
एक सरकारी
रिपोर्ट में यहां तक कहा गया है कि बंाग्लादेश, बर्मा, अफगानिस्तान और
मध्य-एशियाई देशों से लड़कियों को सूबाई राज्य के दर्रा आदमखेल में लाया जाता
है और यहां पर ओरकजाई एजेंसी इनके लिए पासपोर्ट बनवाती है।</p><p>
</p><p>
गौरतलब है कि
दर्रा आदमखेल समूची दुनिया में हथियारों के उत्पादन और इनकी खुलेआम बिक्री तथा
मादक द्रव्यों की तस्करी के लिए जाना जाता है।</p>

<p> </p>

<p>पूर्वी तिमोर में फ्रेटिलिन पार्टी की जीत</p>

<p> </p>

<p> UvqJeo r;btuh fUu ôJ;kºt;t
ytk=tujl fUt lu;]ÀJ fUhlu Jtje V{urxrjl vtxeo lu Ìtuºt fUu vnju jtufU;tkrºtfU
awltJtuk buk se; ntrmj fUh je ni> gn stlfUthe yts mkgwÿ htíx[ lu =e> </p><p>
</p><p>
अलबत्ता तिमोर
के लोकतांत्रिक संविधान के मसौदे को तैयार करने के वास्ते गठित की
जा रही नई संविधान सभा में पार्टी को जरूरी दो तिहाई बहुमत नहीं मिल पाने
के कारण संभवतः उसे कुछ छोटी पार्टियों के साथ गठबंधन करना पड़ सकता
है।</p><p>
</p><p>
संयुक्त राष्ट्र के
मुख्य निर्वाचन अधिकारी कार्लोस वेलेनजुएला ने संवाददाताओं को बताया कि
फ्रेटिलिन पार्टी को संविधान सभा की कुल 88 सीटों मे से 55 सीटें हासिल
हुई हैं। वेलेनजुएला ने कहा कि चुनावों का शांतिपूर्ण होना एक बड़ी
उपलब्धि है।</p><p>
</p><p>
पार्टी को
आनुपातिक प्रतिनिधित्व के जरिए क्षेत्रीय स्तर पर आंवटित 75 सीटों में से 43
और सीधे तौर पर चुनी गई 13 में से 12 सीटों पर विजय मिली हैं जबकि
उसकी दो निकटतम प्रतिद्वंद्वी पार्टियों में से प्रत्येक को छह-छह सीटें मिली
हैं।</p><p>
</p><p>
प्रस्तावित नए
संविधान के तहत तिमोर में संभवतः अगले वर्ष अप्रैल मे चुनाव कराए
जाएंगे, जिसके जरिए नए राष्ट्रपति का चयन किया जाएगा। संभावना है कि पूर्व
छापामार नेता जाना गुस्मानो इसके लिए प्रबल दावेदार होंगे। </p>

<p>लास एंजलिस मंे गोलियां चलीं, दो मरे</p>

<p> </p>

<p>लास एंजलिस मंे एक मकान में गोलियां चलाई गई, जिससे दो लोगों
मौत हो गई और चार घायल हो गए। </p><p>
</p><p>
पुलिस के एक
प्रवक्ता ने बताया कि अधिकारियों ने एक मकान में गोलीबारी की सूचना मिलने
पर जवाबी फायरिंग की।</p><p>
</p><p>
दो किशोरों
को सिमी वैली अस्पताल में भर्ती कराया गया। अस्पताल की प्रवक्ता ने बताया कि
उन्हें गोली लगी है। उनमें से लड़के की हालत स्थिर है लेकिन लड़की की हालत
गंभीर बताई गई है। लास एंजलिस के दो टेलीविजन चैनलों ने दो अन्य को
गंभीर रुप से घायल बताया।</p><p>
</p><p>
एक स्थानीय
टेलीविजन ने बताया कि अधिकारी एक बंदूकधारी की तलाश में आसपास के
इलाकों की घेराबंदी कर रहे हैं। उसे कथित रुप से भागते हुए देखा गया
था।</p><p>
</p><p>
रायटर</p>

<p> </p>

<p>वियतनाम में बाढ़ से 46 लोग मरे</p>

<p> </p>

<p>वियतनाम के मेकांग डेल्टा क्षेत्र में आई भयंकर बाढ़ से कम से कम
37 बच्चों और नौ वयस्कों की मौत हो गई। यह जानकारी आज मीडिया
रिपोर्टों में दी गई है।</p><p>
</p><p>
'तोई त्रे'
समाचार पत्र में प्रकाशित खबरों में बताया गया है कि पिछले 40 वर्र्षें में डेल्टा
में आई इस दूसरी सबसे भीषण बाढ़ से 90 हजार घर डूब गए हैं तथा 40 हजार लोगों
को आपात मदद की जरूरत है।</p><p>
</p><p>
'हो चि मिन्ह'
सिटी में रेडक्रास के अधिकारियों ने बताया कि क्षेत्र में पिछले कुछ हफ्तों
से जारी भयंकर वर्षा थम गई है, लेकिन पांच प्रांतों में जलस्तर बढ़ना जारी है।
</p><p>
</p><p>
कुछ समाचार
पत्रों की रिपोर्टों में बताया गया कि कुछ बच्चों की उस समय मौत हो गई जब
वे अपने अभिभावकों से चोरी छिपे बाढ़ के पानी में खेल रहे थे। </p><p>
</p><p>
कान थो प्रांत
के अधिकारियों ने बताया कि हाऊ नदी का जलस्तर प्रतिदिन 10 सेंटीमीटर बढ़
रहा है तथा इससे कान थो शहर के लगभग दस लाख निवासियों का जीवन खतरे में
है।</p>

<p> </p>

<p>उत्तर-दक्षिण कोरिया बातचीत का प्रस्ताव</p>

<p> </p>

<p>दक्षिण कोरिया ने आज कहा कि उसने उत्तर कोरिया की पेशकश के
जवाब में सोल में 15 सितंबर से मंत्री स्तरीय बातचीत का प्रस्ताव रखा है। </p><p>
</p><p>
दक्षिण कोरिया
के एकीकरण मंत्रालय की प्रवक्ता ने कहा- हमने टेलीफोन से उत्तर कोरिया को
सोल में मंत्री स्तरीय बातचीत का संदेश भेजा है। प्रवक्ता ने बताया कि बातचीत चार
दिन चलेगी।</p><p>
</p><p>
उत्तर कोरिया
ने कई महीनों की चुप्पी के बाद रविवार को घोषणा की थी कि वह दक्षिण
कोरिया के साथ जल्द फिर से बातचीत शुरू करेगा। दोनों देशों में 1950 से
1953 तक चले युद्ध के बाद से ही शीत युद्ध चल रहा है। यह युद्ध बिना शांति समझौते
के ही समाप्त हो गया था।</p><p>
रायटर</p>

<p> </p>

<p>गोर्बोच्येव को 'गोल्डेन हेन' पुरस्कार</p>

<p> </p>

<p>सोवियत संघ के राष्ट्रपति रहते हुए जर्मनी के एकीकरण में योगदान
के लिए मिखाइल गोर्बोच्येव को इस वर्ष के 'गोल्डेन हेन' पुरस्कार से सम्मानित
किया जाएगा।</p><p>
</p><p>
गोर्बाच्येव तथा
अन्य पुरस्कार विजेताओं को यह पुरस्कार बर्लिन में 19 सितंबर को दिया
जाएगा। </p><p>
</p><p>
जर्मनी के
मीडिया ने लोकप्रिय अभिनेत्री हेल्गा हेन हैनेमन की स्मृति में इस वार्षिक पुरस्कार
की स्थापना की थी। सुश्री हैनन का 1991 में निृधन हो गया था।</p><p>
वार्ता</p>

<p> </p>

<p>लोकतंत्र बहाली तक पाक राष्ट्रकुल से निलंबित रहेगा</p>

<p> </p>

<p>राष्ट्रकुल के महासचिव डान मैकिनन ने घोेषणा की है कि जब तक
पाकिस्तान में लोकतंत्र बहाल नहीं हो जाता, वह इस संगठन से निलंबित रहेगा। </p><p>
</p><p>
मैकिनन ने
राष्ट्रकुल के मंत्रियों के कार्यदल सी.एम.ए.जी. की कल यहां हुई बैठक के बाद
यह घोषणा की। सी.एम.ए.जी. ने यह निर्णय राष्ट्रकुल के ब्रिस्बेन में अक्टूबर में
होने वाले शिखर सम्मेलन के पहले और कुछ अटकलों के बीच लिया। </p><p>
</p><p>
इनमें कहा जा
रहा था कि पाकिस्तान के राष्ट्रपति जनरल परवेज मुशर्रफ द्वारा देश में लोकतंत्र
बहाली की रूपरेखा की गत 14 अगस्त को की गई घोषणा के बाद संगठन उसका निलंबन वापस
ले लेगा। </p><p>
</p><p>
जनरल मुशर्रफ
द्वारा लोकतांत्रिक सरकार के प्रधानमंत्री नवाज शरीफ को पद से हटाए जाने
के बाद पाकिस्तान को अक्टूबर 1999 में राष्ट्रकुल से निलंबित कर दिया गया था।
राष्ट्रकुल ने पाकिस्तान का निलंबन जारी रखते हुए उसके विरुद्ध और कठोर कदम उठाने
से इसलिए इंकार कर दिया कि जनरल मुशर्रफ ने लोकतंत्र बहाली के लिए अपना
संकल्प जाहिर किया है। </p><p>
</p><p>
सी.एम.ए.जी. ने
गत मार्च में हुई अपनी बैठक में कहा था कि यदि पाकिस्तान लोकतंत्र बहाली के लिए
आगे की प्रक्रिया नहीं शुरू करेगा तो उसके विरुद्ध कठोर कदम उठाए जाएंगे।
सी.एम.ए.जी. ने अपनी कल की बैठक में पाकिस्तान की लोकतंत्र बहाली की प्रक्रिया
पर कड़ी निगाह रखने की सिफारिश की। </p><p>
</p><p>
सी.एम.ए.जी. की
घोषणा में कहा गया कि राष्ट्रकुल के महासचिव को जनरल मुशर्रफ द्वारा घोषित जनतंत्र
बहाली की प्रक्रिया पर निगरानी रखने में सक्रिय भूमिका निभाना चाहिए तथा वहां होने
वाले राष्ट्रीय और प्रांतीय एसेंबलियों के चुनावों में राष्ट्रकुल के पर्यवेक्षकों की
नियुक्ति पर विचार करना चाहिए। </p><p>
</p><p>
सी.एम.ए.जी.
द्वारा जारी एक बयान में कहा गया कि पाकिस्तान में लोकतंत्र की बहाली तक
राष्ट्रकुल में उसकी स्थिति में कोई बदलाव नहीं किया जाएगा। राष्ट्रकुल की
सदस्यता से निलंबित देश इसकी किसी बैठक में भाग नहीं ले सकता।</p><p>
</p><p>
राष्ट्रकुल ने
फिजी के संबंध में लिए गए अपने निर्णय में कहा कि यदि उसके पर्यवेक्षक वहां
हुए चुनावों को स्वतंत्र और निष्पक्ष करार देते हैं और वहां संविधानसम्मत नई
सरकार का गठन हो जाता है तो उसका निलंबन वापस ले लिया जाएगा। </p><p>
</p><p>
फिजी को वहां
के व्यापारी जॉर्ज स्पीट द्वारा भारतीय मूल के प्रधानमंत्री महेंद्र चौधरी की
लोकतांत्रिक सरकार को गत वर्ष मई में अपदस्थ करने के बाद राष्ट्रकुल से
निलंबित कर दिया गया था। सी.एम.ए.जी. में ऑस्ट्रेलिया, बांग्लादेश, बारबाडोस,
बोस्तवाना, ब्रिटेन, कनाडा, मलेशिया और नाइजीरिया के विदेश मंत्री शामिल हैं।
(एजेंसी)</p>

<p> </p>

<p>दक्षिण अफ्रीका में आग से 17 मरे</p>

<p> </p>

<p>दक्षिण अफ्रीका के कुगर नेशनल पार्क में आग लगने से कल रात 17
लोगों की मृत्यु हो गई। </p><p>
</p><p>
पार्क के एक
प्रवक्ता ने बताया कि मृतकों में तीन रेंजर तथा 14 ग्रामीण हैं। आग कल लगी थी और यह
अभी भी बुझी नहीं है। प्रवक्ता ने कहा कि अभी आग लगने के कारणों का पता नहीं चल
पाया है। (रायटर)</p>

<p> </p>

<p>मस्तिष्क के एक हिस्से में होता है गणित का फितूर</p>

<p> </p>

<p>ब्रिटिश वैज्ञानिकों का कहना है कि उन्होंने मस्तिष्क के उस हिस्से
की पहचान कर ली है जहां गणित का फितूर रहता है। इस हिस्से के कारण ही बच्चे
गणित के जोड़, गुणा, बाकी सही ढंग से समझ पाते हैं या फिर फिसड्डी रह जाते
हैं। </p><p>
</p><p>
ग्रेट ओरमंड
स्ट्रीट हॉस्पिटल के शिशु स्वास्थ्य संस्थान के शोधकर्ताओं ने पाया कि गणित
की गणनाओं में कमजोर बच्चों के मस्तिष्क के बाएं हिस्से में तंत्रिका
कोशिकाओं युक्त घना क्षेत्र कम था। </p><p>
</p><p>
शोधकर्ताओं
ने समय पूर्व प्रसव से जन्मे 80 बच्चों के मस्तिष्क का स्कैन अध्ययन किया।
शोध दल प्रमुख एलिजाबेथ इसाक्स का कहना है कि यह जरूरी नहीं कि गणित में
कमजोर हर बच्चे के मस्तिष्क में पेरिएटल लॉब की विकृति हो, लेकिन वयस्कों के
अध्ययन में इस हिस्से द्वारा गणना क्षमता को प्रभावित करने की पुष्टि हुई है। (रायटर)</p>

<p> </p>

<p>अदालत पहुंचे अधिकारियों को रोका</p>

<p> </p>

<p>अफगानिस्तान में ईसाई धर्म को बढ़ावा देने के आरोप में
गिरफ्तार आठ विदेशियों के खिलाफ अफगानिस्तान के उच्चतम न्यायालय में चल रहे
मुकदमे के दौरान बिना निमंत्रण के इन नागरिकों से मिलने पहुंचे संबद्ध देशों के
अधिकारियों को अदालत में प्रवेश की अनुमति नहीं दी गई।</p><p>
</p><p>
इस्लामाबाद में
स्थित जर्मनी, ऑस्ट्रेलिया और अमेरिका के इन राजनयिकों को करीब आधे
घंटे तक अदालत के बाहर इंतजार करना पड़ा। मायूस हो लौट रहे इन राजनयिकों
ने कहा कि वे विदेश मंत्रालय से संपर्क कर दोबारा कोशिश करेंगे। </p><p>
</p><p>
ऑस्ट्रेलियाई
राजनयिक एलिस्टेयर एडम्स ने कहा कि पिछले सप्ताह अदालती कार्रवाई शुरू होने के
बाद से इस सिलसिले में तलिबान सरकार से उनका कोई संपर्क नहीं हो पाया है।
उन्होंने कहा कि अदालती कार्रवाई के बारे में आधिकारिक तौर पर हमें
कोई सूचना नहीं मिल पा रही है। </p><p>
</p><p>
प्रेस से मिली
थोड़ी-बहुत खबरों से बस इतना पता चल पाया है कि मुकदमा शुरू हो चुका है।
जर्मनी स्थित ईसाई सहायतार्थ संस्था 'शेल्टर' के दो जर्मन, दो ऑस्ट्रेलियाई, चार
अमेरिकी तथा 16 अफगान नागरिकों को तालिबान सरकार ने अफगानिस्तान में ईसाईयत
को बढ़ावा देने के आरोप में पिछले महीने के शुरू में गिरफ्तार किया था।
आरोप साबित हो जाने की स्थिति में इन्हें मृत्युदंड तक की सजा हो सकती है।
(रायटर)</p>

<p> </p>

<p>इराक ने संरा के पांच अधिकारियों को निकाला</p>

<p> </p>

<p>इराक ने संयुक्त राष्ट्र के पांच अधिकारियों को अपनी राष्ट्रीय
सुरक्षा के कथित अतिक्रमण के आरोप में देश से निष्कासित कर दिया है। इस बीच
वॉशिंगटन से प्राप्त समाचार के अनुसार अमेरिकी लड़ाकू विमानों ने उत्तर और दक्षिणी
इराक के उड़ान वर्जित क्षेत्रों में प्रक्षेपास्त्र ठिकानों, रॉडारों और विमानभेदी
तोपों पर हमला किया।</p><p>
</p><p>
संयुक्त राष्ट्र के
अधिकारियों ने इराक के कदम का विरोध किया, लेकिन उन्होंने संयुक्त
राष्ट्र में नियुक्त नाइजीरिया के तीन पुरुष और एक महिला अधिकारी को सुरक्षा
कारणों से वापस बुला लिया तथा बोस्निया की महिला अधिकारी ने गत रविवार
को निष्कासन का आदेश मिलने के पहले ही देश छोड़ दिया। </p><p>
</p><p>
इराक के विदेश
मंत्री ने संयुक्त राष्ट्र को लिखे पत्र में कहा कि संयुक्त राष्ट्र के 'तेल के बदले
अनाज' कार्यक्रम के पांच अधिकारियों की गतिविधियों से देश की सुरक्षा
का अतिक्रमण हो रहा है। पत्र में उन्हें 72 घंटे के अंदर देश छोड़ने का आदेश
दिया गया। </p><p>
</p><p>
सुरक्षा परिषद के
कुछ सदस्यों ने संदेह व्यक्त किया है कि इराक ने संयुक्त राष्ट्र द्वारा वहां जारी पूरे
अभियान के विरोध में यह कदम उठाया है। उन्होंने कहा कि इराक का मानना
है कि इसी अभियान के कारण उसके विरुद्ध संयुक्त राष्ट्र द्वारा लगाया गया प्रतिबंध
लंबा खिंच रहा है।</p><p>
</p><p>
उधर,
अमेरिकी रक्षा विभाग ने बताया कि उसकी नौसेना के एफ-18 और वायुसेना के
एफ-16 लड़ाकू विमानों ने बगदाद से 210 किलोमीटर दक्षिण-पूर्व स्थित सामवा के
उड़ान वर्जित क्षेत्र में तैनात विमानभेदी तोपों और प्रक्षेपास्त्र ठिकानों पर हमला
किया। </p><p>
</p><p>
अमेरिकी
अधिकारियों ने बताया कि उसकी वायुुसेना के जेटों ने इराक द्वारा उसके
विमानों पर विमानभेदी तोप दागे जाने के बाद उत्तरी शहर मोसुल में उसकी वायुसेना
के तीन रॉडार पर तैनात प्रक्षेपास्त्रों पर हमला किया।</p><p>
</p><p>
इराकी समाचार
समिति आई.एन.ए. ने देश की सेना के प्रवक्ता के हवाले से बताया कि अमेरिका और
ब्रिटेन के कल के हमले में उसके चार नागरिक घायल हो गए। हमला किए गए क्षेत्र
की गश्त कर रहे अमेरिकी अधिकारी व्हीटमैन ने कहा कि ये हमले इराक की
हाल की धमकियों के मद्देनजर किए गए और हमले के बाद सभी विमान सुरक्षित
लौट आए। (रायटर)</p>

<p> </p>






</body></text></cesDoc>