<cesDoc id="hin-w-dunia-news-01-11-24" lang="hin">
<cesHeader type="text">
<fileDesc>
<titleStmt>
<h.title>hin-w-dunia-news-01-11-24.txt</h.title>
<respStmt>
<respType>Electronic file created by</respType>
<respName>Department of Linguistics, Lancaster University</respName>
<respType>text collected by</respType>
<respName>Paul Baker, Celia Worth and Andrew Hardie</respName>
<respType>transferred into Unicode by</respType>
<respName>"Unicodify" software by Andrew Hardie</respName>
</respStmt>
</titleStmt>
<publicationStmt>
<distributor>UCREL</distributor>
<pubAddress>Department of Linguistics, Lancaster University, Lancaster, LA1 4YT, UK</pubAddress>
<availability region="WORLD"></availability>
<pubDate>03-08-24</pubDate>
</publicationStmt>
<sourceDesc>
<biblStruct>
<monogr>
<h.title>"Webdunia" internet news (www.webdunia.com), news stories collected on 01-11-24</h.title>
<h.author>Webdunia</h.author>
<imprint>
<pubPlace>Madhya Pradesh, India</pubPlace>
<publisher>Webdunia</publisher>
<pubDate>01-11-24</pubDate>
</imprint>
</monogr>
</biblStruct>
</sourceDesc>
</fileDesc>
<encodingDesc>
<projectDesc>Text collected for use in the EMILLE project.</projectDesc>
<samplingDesc>Simple written text only has been transcribed. Diagrams, pictures and tables have been omitted and their place marked with a gap element.
</samplingDesc>
<editorialDecl>
<conformance level="1"></conformance>
</editorialDecl>
</encodingDesc>
<profileDesc>
<creation>
<date>03-08-24</date>
</creation>
<langUsage>Hindi</langUsage>
<wsdUsage>
<writingSystem id="ISO/IEC 10646">Universal Multiple-Octet Coded Character Set (UCS).</writingSystem>
</wsdUsage>
<textClass>
<channel mode="w">print</channel>
<constitution type="composite"></constitution>
<domain type="public"></domain>
<factuality type="fact"></factuality>
</textClass>
<translations></translations>
</profileDesc>
<revisionDesc></revisionDesc>
</cesHeader>

<text>
<body>




<p>इतिहास की पुस्तकोंं में सुधार के पक्ष में हैं अटल</p>

<p> </p>

<p>प्रधानमंत्री अटल बिहारी वाजपेयी ने आज
कहा कि अगर स्कूली पाठ्य पुस्तकों में इतिहास को एकतरफा ढंग से लिखा गया है
तो उसमें सुधार किया जाना चाहिए।</p><p>
</p><p>
वाजपेयी भारतीय
जनता पार्टी संसदीय दल के प्रवक्ता विजय कुमार मल्होेत्रा के निवास पर आयोजित
दोपहर भोज में संवाददाताओं से अनौपचारिक बातचीत कर रहे थे।</p><p>
</p><p>
उल्लेखनीय है कि
विपक्ष ने राष्ट्रीय शैक्षिक अनुसंधान एवं प्रशिक्षण परिषद द्वारा इतिहास की
पुस्तकों में हाल में किए गए परिवर्तनोंं को लेकर कल राज्यसभा की कार्यवाही
नहीं चलने दी थी। विपक्ष ने सरकार पर शिक्षा का 'तालिबानीकरण' करने का
आरोप लगाया है।</p><p>
</p><p>
इस बाबत पूछे
जाने पर वाजपेयी ने कहा कि इस बारे में संसद में चर्चा हो सकती है और अगर
इतिहास को एकतरफा ढंग से लिखा गया है तो उसमें सुधार होना चाहिए।</p><p>
वार्ता</p>

<p>जारी चेक का भुगतान रुकवाना दंडनीय अपराध ः सुप्रीम कोर्ट</p>

<p> </p>

<p>सर्वोच्च न्यायालय के फैसले के अनुसार अब चेक जारी करने के बाद
उसका भुगतान रुकवाना दंडनीय है और जो कोई भुगतान रुकवाता है, वह कानूनन
दंड का भागीदार बन सकता है।</p><p>
</p><p>
एमएमटीसी लि.
(सरकारी क्षेत्र की कंपनी, जो धातु व खनिजों का व्यवसाय करती है) द्वारा दायर
याचिका के तहत नेगोशिएबल इंस्ट्रूमेंट (हस्तांतरणीय लिखित) विधान का विवेचन
करते हुए सर्वोच्च न्यायालय ने अपने निर्णय में स्पष्ट किया कि बैंक खाते में पैसे
होने पर ही चेक जारी किया जा सकता है। </p><p>
</p><p>
इस हिसाब से
भुगतान रुकवाने वाला न तो यह दलील दे सकता है और न ही दंड से बच सकता है कि
खाते में पैसे नहीं थे, इसलिए चेक का भुगतान रुकवा दिया। 'चेक गलती से जारी
किया गया या जिसके नाम जारी किया गया है, उसके विरुद्ध कोई भुगतान बकाया नहीं
है' जैसी दलीलें साबित करने की जिम्मेदारी अभियुक्त पर ही रहेगी।</p><p>
</p><p>
एमएमटीसी से
संबंधित इस मामले में चेन्नाई उच्च न्यायालय के निर्णय को यह कहते हुए उलट दिया
कि उसने प्रकरण में गलत प्रक्रिया अपनाई। इस निर्णय से वित्तीय संस्थाओं व बैंकों
को काफी राहत मिलेगी, क्योंकि चेक का भुगतान रुकवाने की प्रक्रिया से उनके
एनपीए (वसूल न होने वाले कर्ज) बढ़ रहे थे। </p><p>
</p><p>
उल्लेखनीय है कि
आर्थिक मंदी एवं कंपनियों व फर्मों के विक्रय व केश फ्लो घटने से चेकों के
डिसऑनर की समस्या बहुत बढ़ गई।</p>

<p> </p>

<p>श्रीनगर और भुज में भूकम्प के झटके</p>

<p> </p>

<p>जम्मू-कश्मीर की राजधानी श्रीनगर और आसपास के इलाकों में
शनिवार तड़के भूकम्प के झटके महसूस किए गए। इनकी तीव्रता रिक्टर पैमाने पर
5.6 मापी गई। उधर भुज के कच्छ क्षेत्र में भी भूकम्प के हल्के झटके महसूस
किए गए।</p><p>
</p><p>
मौसम विज्ञान
विभाग के एक प्रवक्ता ने बताया कि कश्मीर में आए भूकम्प का केंद्र पाकिस्तान और
अफगानिस्तान की सीमा के निकट स्थित था। यह भूकम्प रात 2 बजकर 13 मिनट पर
आया और कुछ सेकंड तक चला। भूकम्प के झटकों के कारण लोग घरों से बाहर
निकल आए। कहीं से भी जान-माल के नुकसान की अभी तक कोई खबर नहीं है।</p><p>
</p><p>
उधर गुजरात
के भुज क्षेत्र में आज सुबह भूकम्प का एक हल्का झटका महसूस किया गया। मौसम
विज्ञान विभाग ने यह जानकारी दी। विभाग ने बताया कि सुबह 8 बजकर 13 मिनट पर
आए इस भूकम्प की तीव्रता रिक्टर पैमाने पर 4.2 मापी गई। </p><p>
</p><p>
इसका केंद्र
उत्तरी देशांतर से 23.6 डिग्री और पूर्वी देशांतर से 70.3 डिग्री पर था।
अफगानिस्तान से लगती पाकिस्तान सीमा पर भी आज तड़के 2 बजकर 13 मिनट पर भूकम्प
के झटके महसूस किए गए। इस भूकम्प की तीव्रता रिक्टर पैमाने पर 5.6 मापी गई
है। (वार्ता)</p>

<p> </p>

<p>पद से हटाने की मुहिम कर्तव्य निर्वहन में बाधक नहीं</p>

<p> </p>

<p>जॉर्ज फर्नांडीज ने उन्हें पुनः रक्षामंत्री बनाए जाने को लेकर विपक्ष
की विरोधी मुहिम को शनिवार को खारिज कर दिया। उन्होंने कहा कि
रक्षामंत्री के पद की मुझे राष्ट्रपति ने शपथ दिलाई है और मैं इसका निर्वहन
जिम्मेदारीपूर्वक करता रहूंगा।</p><p>
</p><p>
फर्नांडीज उन्हें
पद से हटाने को लेकर संंसद में विपक्ष के लाए जाने वाले प्रस्ताव संबंधी सवालों
का पत्रकारों को जवाब दे रहे थे। विपक्ष के उन्हें संसद में एक रक्षामंत्री के रूप
में घुसने नहीं देने की योजना पर उन्होंने कहा कि मेरे पास बाहर रहकर भी करने
के लिए बहुत से काम हैं। </p><p>
</p><p>
उल्लेखनीय है कि
कांग्रेस ने फर्नांडीज की पुनर्नियुक्ति के खिलाफ संसद में प्रस्ताव लाने की बात कही
है, जिसे वाम दलों ने सर्मथन दिया है। </p><p>
</p><p>
एक अन्य सवाल
के जवाब में रक्षामंत्री ने बताया कि आधुनिक जेट प्रशिक्षण विमान के करार के
संबंध में ब्रिटेन से चर्चा जारी है और ये विमान हमें जल्दी ही मिलने की आशा
है। उन्होंने इस संबंध में पत्रकारों को और अधिक जानकारी देने से
इंकार कर दिया। </p><p>
</p><p>
फर्नांडीज ने
कहा कि सेना का आधुनिकीकरण एक सतत प्रक्रिया है और इस बात का हमेशा
ख्याल रखा जाता है कि सर्वश्रेष्ठ सैन्य साजोसामान ही खरीदे जाएं।</p><p>
</p><p>
नेशनल केडेट
कोर संबंधी एक अन्य सेमिनार में रक्षामंत्री ने कहा कि देश के बेहतर भविष्य
के मद्देनजर सोलह साल तक के युवाओं को दो माह लंबा सैन्य प्रशिक्षण दिया
जाएगा। हालांकि इस बारे में अभी तक कोई कदम नहीं उठाया गया है, मगर हम ऐसा
किए जाने के पक्ष में हैं। </p><p>
</p><p>
इससे देश के
युवाओं में राष्ट्रीयता की भावना और निष्ठा विकसित होगी और जिसका लाभ देश
को मिलेगा। कश्मीर के मामले मे उन्होंने कहा कि यह समस्या हिंसा से नहीं केवल
बातचीत से ही हल हो सकती है।</p>

<p> </p>

<p>असम में मुठभेड़ में तीन आतंकवादी मरे</p>

<p> </p>

<p>असम के दरांग जिले के बोलाझार गांव के निकट सेना के साथ
मुठभेड़ में तीन खूंखार आतंकवादी मारे गए।</p><p>
</p><p>
मृतक
आतंवादियों के कब्जे से एक रायफल, दो रिवाल्वर, कुछ कारतूस तथा आपत्तिजनक
दस्तावेज बरामद किए गए।</p><p>
</p><p>
एक अन्य घटना में
सेना ने उग्रवादियों को कोकराझार जिले से भूटान के उग्रवादी शिविरों में घुसने
की कोशिशों को विफल कर दिया। (वार्ता)</p>

<p> </p>

<p>'यूरोपीय सिनेमा पर अमेरिका का कब्जा'</p>

<p> </p>

<p>हंगरी के विख्यात फिल्मकार पीटर वाशो का मानना है कि किसी भी
फिल्मकार के सामने सबसे बड़ी चुनौती ऐसी फिल्में बनाना है जो कलात्मक और
व्यवसायिक दोनों नजरिए से दर्शकों को संतुष्ट कर सके। </p><p>
</p><p>
वाशो मुंबई
एकेडमी आफ मूविंग इमेज 'मामी' के चौथे अंतरराष्ट्रीय फिल्मोत्सव में शनिवार
को 'खुला मंच' में 'समकालीन यूरोपीय सिनेमा' विषय पर चर्चा में हिस्सा लेते समय
बोल रहे थे। चर्चा में स्विट्जरलैंड की फिल्मकार गेरेटा गेरेटा और स्पेन के
फिल्म समीक्षक एंजेल कोमास ने और फिल्मोत्सव के कार्यक्रम निर्देशक सुधीर
नादगांवकर ने भी हिस्सा लिया।</p><p>
</p><p>
कोमास ने माना
कि यूरोप के सिनेमा के अस्सी प्रतिशत बाजार पर अमेरिका ने कब्जा कर लिया है।
उन्होंने कहा कि यहां तक कि यूरोपीय अखबारों में भी अमेरिकी फिल्मों के
बारे में अधिक लिखा जाता है। </p><p>
</p><p>
स्विट्जरलैंड की
गेरेटा गेरेटा ने कहा कि अमेरिका के बड़े बजट की फिल्मों के प्रचार के
सामने यूरोपीय सिनेमा को दिक्कत तो होती है।</p><p>
</p><p>
हालीवुड के
यूरोपीय सिनेमा के कब्जे के बारे में उन्होंने कहा कि जहां तक व्यवसाय और
मुनाफे की बात है अमेरिका ने कब्जा किया है, लेकिन कला की बात करेंगे तो
ऐसा बिल्कुल नहीं है। उन्होंने माना कि फिल्म प्रोडक्शन में कोई अमेरिकी
नाम न हो तो निर्माता को वित्त</p><p>
जुटाने में
परेशानी होती है।</p><p>
</p><p>
हंगरी के वाशो
ने, जिनकी छह फिल्में फिल्मोत्सव में दिखाई जा रही हैं, कहा कि हालीवुड सिनेमा
के संस्थापकों में कई हंगेरियन शामिल रहे हैं, लेकिन हंगरी में भी सिनेमा
अमेरिकी सिनेमा के एकाधिकार से प्रभावित है।</p><p>
</p><p>
उन्होंने कहा
कि आज यूरोपीय फिल्मकार के सामने चुनौती यह है कि वह कलात्मक और
व्यवसायिक दोनों नजरिए से दर्शकों को संतुष्ट कर सके। </p><p>
</p><p>
फिल्मोत्सव की
अवधि बढ़ी-</p><p>
</p><p>
मुंबई एकेडमी
आफ मूविंग इमेज 'मामी' के चौथे अंतरराष्ट्रीय फिल्मोत्सव की सफलता को देखते
हुए फिल्मोत्सव की अवधि एक और दिन के लिए बढ़ा दी गई है।</p><p>
</p><p>
उल्लेखनीय है कि
21 नवंबर से शुरू हुए इस फिल्मोत्सव में 30 देशों की करीब 150 फिल्मों का
प्रदर्शन किया जा रहा है। फिल्मोत्सव के कार्यक्रम निदेशक सुधीर
नादगांवकर ने बताया कि हालांकि समापन समारोह निर्धारित तारीख यानी 28
नवंबर को ही होगा, लेकिन फिल्मोत्सव 29 नवंबर को भी जारी रहेगा।</p><p>
</p><p>
फिल्मोत्सव में
आठ सिनेमाघरों में फिल्मों का प्रदर्शन किया जा रहा है और मामी के
अधिकृत सूत्रों के अनुसार करीब पांच हजार दर्शक देसी-विदेशी फिल्मों का
आनंद उठा रहे हैं। (वार्ता)</p>

<p> </p>

<p>'कौन बनेगा करोड़पति' की इनामी रकम दो करोड़ होगी</p>

<p></p><p>
मौजूदा स्वरूप में
बंद होने के बाद इस कार्यक्रम की धमाकेदार वापसी होगी </p>

<p>गुजरे जमाने के सुपर स्टार अमिताभ बच्चन के संचालित बेहद सफल गेम
शो 'कौन बनेगा करोड़पति' (केबीसी) का प्रसारण बंद होगा।</p><p>
</p><p>
लेकिन कुछ समय
के लिए ही केबीसी का प्रसारण बंद होगा तथा दो करोड़ रुपए की पुरस्कार
राशि के साथ केबीसी की धमाकेदार वापसी होगी। गौरतलब है कि मौजूदा
समय में टेलीविजन चैनल स्टार प्लस पर हर सप्ताह दो दिन केबीसी का प्रसारण हो रहा
है।</p><p>
</p><p>
रूपर्ट मर्डाक की
कंपनी स्टार के कार्यक्रम प्रमुख समीर नायर ने स्वीकार किया कि केबीसी का
प्रसारण बंद हो रहा है, लेकिन यह सिर्फ कुछ दिनों के लिए बंद रहेगा और नए
तरह के एपीसोड के साथ केबीसी धमाकेदार वापसी होगी।</p><p>
</p><p>
उन्होंने बताया
कि फिलहाल अगले वर्ष जनवरी में केबीसी का प्रसारण बंद होगा। अगले वर्ष
जुलाई-अगस्त में इसका प्रसारण पुनः शुरू होगा। दुबारा शुरू होने पर
केबीसी और अधिक अच्छा और आकर्षक होगा। यह भी संभव है कि
अधिकतम पुरस्कार राशि की सीमा एक करोड़ रुपए से बढ़ाकर दो करोड़
रुपऐ कर दी जाए।</p><p>
</p><p>
उन्होंने बताया
कि स्टार एक और गेम शो शुरू करने की योजना बना रहा है। उनके अनुसार नए
गेम शो का नाम 'कमजोर कड़ी कौन' होगा और नीना गुप्ता इसका संचालन
करेंगी। नया गेम शो ब्रिटेन में बेहद लोकप्रिय गेम शो 'दी वीकेस्ट लिंक'
का भारतीय संस्करण होगा। (इंडो-एशियन न्यूज सर्विस)</p>

<p> </p>

<p>इसराइली संसदीय प्रतिनिधिमंडल का भारत दौरा रविवार से</p>

<p> </p>

<p>इसराइल का चार सदस्यीय संसदीय
प्रतिनिधिमंडल अगले सप्ताह भारत की यात्रा पर आएगा। इससे प्रस्तावित यात्रा से
साफ है कि दोनों देशों के बीच कूटनीतिक संबंध काफी तेजी से मजबूत
हो रहा है।</p><p>
</p><p>
इस
प्रतिनिधिमंडल के नेता अमनोन रुबिनस्टीन ने मुम्बई रवाना होने के मौके
पर येरूसलम में पत्रकारों को बताया कि दोनों देशों के बीच मौजूदा समय में
काफी शानदार और मजबूत संबंध है। उन्होंने कहा कि फिलहाल द्विपक्षीय
संबंध दोनों देशों की सरकार की उम्मीदों से भी आगे है।</p><p>
</p><p>
गौरतलब है कि
रुबिनस्टीन इसराइल-भारत संसदीय मैत्री संघ के अध्यक्ष हैं। वे कई बार भारत की
यात्रा पर आ चुके हैं। उन्हें भारतीय इतिहास व संस्कृति से गहरा लगाव है।</p><p>
</p><p>
यह
प्रतिनिधिमंडल रविवार को मुम्बई पहंुचेगा। मुम्बई से यह
प्रतिनिधिमंडल केरल के कोच्चि शहर जाएगा जहां इसके सदस्य यहूदी समुदाय के
सदस्यों से मुलाकात करेंगे। दिल्ली स्थित इसराइली दूतावास ने बताया कि यह
प्रतिनिधिमंडल भारतीय संसद के न्योते पर मुम्बई पहंुच रहा है।</p><p>
</p><p>
प्रतिनिधिमंडल
के अन्य सदस्यों ने आंतरिक सुरक्षा उपमंत्री गिडैन एजरा, नवफ मसालहा और टोमी
लेपिड शामिल है। (इंडो-एशियन न्यूज सर्विस)</p>

<p> </p>

<p>मादक पदार्थ पाक पहुंचने से भारत में चौकसी
बढ़ी</p>

<p> </p>

<p>भारत सरकार की एजेंसी 'मादक पदार्थ नियंत्रण
ब्यूरो' (एनसीबी) के अधिकारियों को खुफिया सूचना मिली है कि तालिबान
ने इस वर्ष सितंबर से अभी तक लगभग 400 टन हेरोइन का भारी भरकम स्टॉक पाकिस्तान
भेजा है। एनसीबी के अधिकारियों ने यह खुफिया सूचना प्राप्त होने के
बाद पाकिस्तान से सभी प्रवेश द्वारों पर चौकसी बढ़ा दी है।</p><p>
</p><p>
एनसीबी के एक
आला अधिकारी ने बताया कि इस वर्ष सितंबर से तालिबान ने अफगानिस्तान से
पाकिस्तान में 4000 टन हेरोइन का भारी भरकम स्टॉक भेजा है। इसलिए उन
लोगों ने पाकिस्तान से सभी प्रवेश द्वारों पर चौकसी बढ़ा दी है।</p><p>
</p><p>
अधिकारी
के अनुसार उन लोगों को पक्की खुफिया जानकारी मिली है कि तालिबान ने
हेरोइन बनाने वाली मशीनों और उपकरणों के साथ-साथ इसका भारी भरकम स्टॉक
भी पाकिस्तान भेज दिया है।</p><p>
</p><p>
गौरतलब है कि
तालिबान के शासन काल में अफगानिस्तान अफीम और हेरोइन का उत्पादन करने वाला
दुनिया का सबसे बड़ा देश हो गया तथा दुनिया में अफीम के कुल उत्पादन में
अफगानिस्तान का योगदान 85 प्रतिशत तक पहुंच गया।</p><p>
</p><p>
वर्ष 1998-99 के
दौरान अफगानिस्तान में 8000 टन अफीम की बम्पर फसल पैदा हुई। इस अफीम से
800 टन हेरोइन तैयार किया गया। तालिबान ने पिछले वर्ष इस हेरोइन की तस्करी
पर 35 अरब डॉलर की मोटी कमाई की।</p><p>
</p><p>
अधिकारियों
के अनुसार उन लोगों को पक्की सूचना मिली है कि तालिबान ने लगभग 4000 टन
हेरोइन अफगानिस्तान से बाहर भेज दिया है। अधिकारियों ने आशंका जताई
कि यह हेरोइन पाकिस्तान होते हुए भारत और फिर दुनिया के विभिन्न देशों तक
पहुंच सकता है।</p><p>
</p><p>
तालिबान ने
अंतरराष्ट्रीय समुदाय की नाराजगी दूर करने के प्रयास में पिछले वर्ष अफीम के
उत्पादन पर रोक लगाने का दावा किया। अंतरराष्ट्रीय समुदाय का आरोप था कि
तालिबान मादक पदार्थों की तस्करी से प्राप्त होने वाले धन का इस्तेमाल
हथियार खरीदने के लिए कर रहा है। लेकिन भारतीय अधिकारियों ने बताया
कि तालिबान के दावे के बावजूद अफगानिस्तान में चोरी छिपे अफीम की खेती जारी
रही।</p><p>
</p><p>
अधिकारियों
के अनुसार उन लोगों को पक्की सूचना है कि तालिबान ने सितंबर में 400 टन
हेरोइन अफगानिस्तान से बाहर भेजा। अधिकारियों ने दावा किया कि
अमेरिका में 11 सितंबर को हुए आतंकवादी हमले के बाद तस्करी में लिप्त तालिबान
काफी हताश हुए।</p><p>
</p><p>
अधिकारियों
के अनुसार अफगानिस्तान के खिलाफ 7 अक्टूबर को अमेरिकी बमबारी शुरू होने के
बाद बिना किसी नियंत्रण के अफगान शरणार्थियों का पाकिस्तान जाना शुरू हो
गया। तालिबान ने इन शरणार्थियों की मदद से मादक पदार्थों को अफगानिस्तान
से पाकिस्तान पहुंचा दिया। (इंडो-एशियन न्यूज सर्विस)</p>

<p> </p>

<p>मेनका मामले पर टिप्पणी से वाजपेयी का इंकार</p>

<p> </p>

<p>प्रधानमंत्री अटल बिहारी वाजपेयी ने सांख्यिकी एंव कार्यक्रम
क्रियान्वयन राज्यमंत्री मेनका गांधी द्वारा अपना पदभार नहीं संभालने को लेकर
चल रहे विवाद पर टिप्पणी करने से इंकार करते हुए आज कहा कि उन्हें हटाया नहीं
गया है और वह अपना काम कर रही हैं।</p><p>
</p><p>
वाजपेयी भारतीय
जनता पार्टी संसदीय दल के प्रवक्ता विजय कुमार मल्होत्रा द्वारा उनके निवास पर
आयोजित दोपहर भोज में संवाददाताओं से अनौपचारिक बातचीत कर रहे थे। यह
पूछे जाने पर कि हाल में संस्कृति मामलों का प्रभार पर्यटन मंत्री जगमोहन को
सौंपे जाने के बाद श्रीमती गांधी अपने नए मंत्रालय का कार्यभार नहीं संभाल
रही है।</p><p>
</p><p>
वाजपेयी ने
सीधी टिप्पणी करने से इंकार कर दिया। उन्होंने कहा कि उन्हें हटाया
नहीं गया है और वह अपना काम कर रहीं हैं।</p><p>
</p><p>
उल्लेखनीय है कि
श्रीमती मेनका गांधी ने आरोप लगाया है कि उनसे संस्कृति मंत्रालय इसलिए वापस
ले लिया गया क्योंकि वह जवाहर लाल नेहरू संग्रहालय और इंदिरा गांधी राष्ट्रीय
कला केन्द्र की अनियमितताओं की जांच करा रहीं थीं।</p><p>
</p><p>
उल्लेखनीय है कि
कांग्रेस अध्यक्ष सोनिया गांधी इन दोनों संस्थाओं से जुड़ी हुई हैं।</p><p>
</p><p>
यह पूछे जाने पर
कि क्या श्रीमती सोनिया गांधी के कहने पर श्रीमती मेनका गांधी को
हटाया गया है, वाजपेयी इस प्रश्न को मुस्करा कर टाल गए। </p><p>
वार्ता</p>

<p> </p>

<p>रेलवे की वेबसाइट में अश्लील सेंधमार</p>

<p> </p>

<p>राजनीतिक दल समाजवादी पार्टी के वेबसाइट में सेंधमारी के बाद
अब रेलवे की भी एक वेबसाइट अश्लील सेंधमार की शिकार हो गई है। दो
दिन पहले ही समाजवादी पार्टी के वेबसाइट के साथ छेड़छाड़ की गई थी।</p><p>
</p><p>
लखनऊ स्थित रेलवे
की संस्था 'रिसर्च डिजाइन एण्ड स्टैंडर्ड आर्गइजेशन' (आरडीएसओ) की
आधिकारिक वेबसाइट डब्ल्यूडब्ल्यूडब्ल्यू आरडीएसओ डॉट आर्ग को इंटरनेट
सेंधमारोंं (इंटरनेट हैकर्स) ने एक अश्लील वेबसाइट में बदल दिया है। </p><p>
</p><p>
इस साइट को
पोर्न ट्रायआउट, टत्त् क्लब, टीनकमर्स आदि जैसे लगभग 20 अश्लील साइटों से जोड़
दिया गया है। यही नहीं साइट को एक कैसिनो के वेबसाइट 'स्विसकैसिनो डॉट
काम' से भी जोड़ दिया गया है।</p><p>
</p><p>
ज्ञातव्य है कि
पिछले 20 नवंबर को पूर्व रक्षा मंत्री मुलायम सिंह के नेतृत्व वाली समाजवादी पार्टी
की वेबसाइट 'समाजवादी पार्टी डॉट आर्ग' की हैकिंग कर उसे टीन सेक्स और
प्यूरिटन सेक्स वेबसाइटों से जोड़ दिया गया था। </p><p>
(वार्ता)</p>

<p> </p>

<p> </p>

<p> </p>

<p>दक्षेस में मुशर्रफ से मुलाकात संभव- वाजपेयी</p>

<p> </p>

<p>प्रधानमंत्री अटल बिहारी वाजपेयी ने काठमांडू में होने वाले
दक्षेस शिखर सम्मेलन में पाकिस्तान के राष्ट्रपति जनरल परवेज मुशर्रफ से मुलाकात की
संभावना से इंकार नहीं किया है।</p><p>
</p><p>
यह सम्मेलन काठमांडू
में आगामी च ार से छह जनवरी तक होगा।
प्रधानमंत्री ने भारतीय जनता पार्टी संसदीय दल के प्रवक्ता विजय कुमार मल्होत्रा
के निवास पर दोपहर के भोज के दौरान संवाददाताओं से अनौपचारिक बातचीत में
कहा- यदि दक्षेस की बैठक होगी, मैं वहां जाऊंगा। मुशर्रफ वहां आएंगे तो
मुलाकात हो सकती है।</p><p>
</p><p>
वाजपेयी अगर जनरल मुशर्रफ से काठमांडू में बातचीत करते हैं तो यह आगरा शिखर
सम्मेलन के बाद से दोनोंें नेताओं के बीच पहली बैठक होगी।</p><p>
</p><p>
अफगानिस्तान के ताजा घटनाक्रम के बारे में पूछे जाने पर प्रधानमंत्री ने कहा
कि वहां हमारी भूमिका है और हम अपनी भूमिका निभा रहे हंै। वहां आने वाली
नई सरकार के स्वरुप के बारे में पूछे जाने पर उन्होंने कहा कि इस बारे में
अभी कुछ कहना मुश्किल है।</p><p>
</p><p>
वाजपेयी ने कहा- हमारा मिशन वहां बहुत जल्दी चला गया और इसके लिए हमंे बधाइयां
मिल रहीं हैं। हमारा अगला कदम इस मिशन को मजबूत करना है।</p><p>
</p><p>
आतंंकवाद के खिलाफ लड़ाई के दूसरे दौर के बारे में पूछने पर उन्होंने कहा
कि इस बारे में अभी कुछ नहीं कहा जा सकता, लेकिन एक बात तय है कि
अफगानिस्तान के बाद भी आतंकवाद के खिलाफ लड़ाई रूकने वाली नहीं है, लेकिन यह
क्या रुख लेती है यह देखना बाकी है। </p><p>
</p><p>
उन्होंंने कहा- हम अपने यहां तो आतंकवाद के खिलाफ अपने बल बूते पर लड़ ही
रहे हैं। उन्होंने कहा कि विश्व जनमत भी अब आतंकवाद के खिलाफ होता जा रहा
है।</p><p>
</p><p>
वाजपेयी ने कहा कि अफगानिस्तान के साथ हमारे संबंध बहुत पुराने हैं।
इन्हें पुनर्जीवित करने के लिए ही हमने अपना मिशन वहां भेजने में पहल की है।</p><p>
</p><p>
बांग्लादेश से आने वाले शरणार्थियों के बारे में पूछने पर उन्होंने कहा- हमारी
पहली प्राथमिकता है कि ये लोग सुरक्षा के वातावरण मेंं अपने देश वापस जाएं।
वहां ऐसा वातावरण बनना चाहिए जिससे ये शरणार्थी बिना किसी डर के वापस जा
सकें। </p><p>
वार्ता</p>

<p> </p>

<p>सांसदों को अपनी संपत्ति का ब्योरा देना अनिवार्य होगा</p>

<p></p><p>
-वेबदुनिया ब्यूरो </p>

<p>लोकसभा की आचार समिति ने अपनी पहली रिपोर्ट
में सिफारिश की है कि प्रत्येक सांसद अपनी आय, संपत्ति और देयताओं की जानकारी
अनिवार्य रूप से दे। इतना ही नहीं चुनाव के तुरंत बाद इन सांसदों को अपनी
वित्तीय स्थिति के बारे में जानकारी भी साार्वजनिक करनी चाहिए।</p><p>
</p><p>
पूर्व
प्रधानमंत्री चंद्रशेखर की अध्यक्षता में बनी समिति ने सुझाव दिया कि जब परिवर्तन
आवश्यक हों, वे परिवर्तित फॉर्म में अपनी जानकारी दे सकते हंै और लोकसभा में
अपना कार्यकाल समाप्त होने के बाद भी वे अपनी वित्तीय स्थिति के बारे में जानकारी
उपलब्ध करा सकते हैं।</p><p>
</p><p>
इस समिति की
चार बैठकें हो चुकी हैं, इसमें सिफारिश की गई है कि लोकसभा सचिवालय में
प्रत्येक सांसद द्वारा उपलब्ध कराई गई जानकारी के आधार पर सांसदों के
हितों की जानकारी भी रखी जाए। इस जानकारी को रखने वाले रजिस्टर को
गोपनीय रखी जाए और इससे संबंधित सूचना तभी उपलब्ध कराई जाए, जब
लोकसभा अध्यक्ष की अनुमति से शिकायतकर्ता को संबंधित जानकारी उपलब्ध
कराई जा सके।</p><p>
</p><p>
इस संबंध
में इस तरह के नियम बनाए जा रहे हैं, जिनके जरिये किसी सांसद के अनैतिक आचरण
या उसके संसदीय आचरण को लेकर की गई शिकायत लोकसभा अध्यक्ष को पहंुचाई जा
सके। लोकसभा अध्यक्ष इस शिकायत को समिति के अध्यक्ष तक पहंुचा दें। समिति
ने अपनी रिपोर्ट में यह भी कहा है कि अगर यह जरूरी समझेगी तो सांसदों के आचरण
संबंधी मामलों की जांच अपनी पहल पर भी कर सकती है। यह भेजे गए सभी
मामलों पर गौर करेगी और जिन्हें जरूरी समझेगी उनकी जांच करवाएगी।</p><p>
</p><p>
दूसरी ओर
शिकायत करने वाले पर यह जिम्मेदारी होगी कि वह यह सुनिश्चित करे कि इस शिकायत
को लेकर उसका कोई निजी स्वार्थ भाव नहीं है और न ही वह किसी द्वेषवश ऐसा कर
रहा है। शिकायत के साथ इस आशय का एक शपथ पत्र भी देना होगा। समिति ने
यह भी कहा है कि अभी तक सांसदों के लिए कोई सुनिश्चित आचार संहिता तय नहीं
की गई है, लेकिन संसदीय कार्य समिति ने सांसदों के जिम्मेदार आचरण के लिए
कुछ नियम तय किए हैं।</p><p>
</p><p>
उनसे उम्मीद की
जाती है कि वे सदन के बाहर और अंदर एक गरिमापूर्ण आचरण करेंगे औैर उनके
आचरण के बारे में अंतिम फैसला करने का अधिकार सदन को ही होगा और
वही तय करेगा कि सांसद का व्यवहार उसकी गरिमा के अनुरूप है या नहीं। </p>

<p>मुलायम को जन्मदिन पर वेबसाइट का उपहार</p>

<p></p><p>
-वेबदुनिया ब्यूरो </p>

<p>गुरुवार को लखनऊ में समाजवादी पार्टी प्रमुख मुलायमसिंह यादव का 63
वां जन्मदिवस बड़ी धूमधाम से मनाया गया। इस अवसर पर पूर्व सांसद और
पार्टी के वरिष्ठ नेता मोहनसिंह ने पार्टी प्रमुख मुलायमसिंह यादव को पार्टी के लिए
बनाई गई अधिकृत वेबसाइट का उपहार दिया।</p><p>
</p><p>
सिंह ने कहा
कि डब्ल्यूडब्ल्यूडब्ल्यू डॉट समाजवादी पार्टी डॉट ओआरजी के अलावा पार्टी की और
कोई अधिकृत वेबसाइट नहीं है। उन्होंने इस खबर को भी गलत बताया कि
समाजवादी पार्टी की वेबसाइट हैक कर दी गई है। मोहनसिंह ने बताया कि मुंबई
में कुछ पार्टी कार्यकर्ताओं ने एक वेबसाइट बनाई थी, लेकिन यह पार्टी की
अधिकृत वेबसाइट नहीं थी। यादव के जन्मदिन पर मुख्यमंत्री राजनाथसिंह भी उन्हें
बधाई देने पहुंचे।</p><p>
</p><p>
बड़ी संख्या में
सरकारी अधिकारी भी चोरी-छिपे बधाई देने के लिए मुलायमसिंह के
आवास पर जमा हुए। इस अवसर पर मुलायम ने कहा कि अगले दो वर्ष देश के लिए बहुत
महत्वपूर्ण साबित होंगे। उन्होंने आरोप लगाया कि अफगानिस्तान की लड़ाई का
भारत पर सबसे ज्यादा असर होगा, क्योंकि केन्द्र की वाजपेयी सरकार अमेरिका की
कठपुतली बन गई है। इस अवसर पर उनके पुत्र और सांसद अखिलेश यादव ने कहा कि
पार्टी की अधिकृत वेबसाइट लोगों और पार्टी के बीच बेहतर तालमेल बनाने का
काम करेगी।</p><p>
</p><p>
इस वेबसाइट को
तैयार करवाने मंे अखिलेश यादव का बड़ा हाथ रहा है और उन्होंने वेबसाइट की
फोटो गैलरी में मुलायमसिंह के दुर्लभ फोटोग्राफ भी उपलब्ध कराए हैं।
यह हिन्दी और अंग्रेजी में उपलब्ध है। वेबसाइट पर ऑनलाइन मेम्बरशिप की भी
व्यवस्था है और इसके चैट रूम के जरिये कोई भी नेट सर्फर समाजवादी नेताओं से
बातचीत कर सकता है।</p><p>
</p><p>
राज्य इकाइयों
के लिए विशेष वर्ग बनाए गए हैं, जिनमें साक्षात्कार, लेख और प्रेस विज्ञप्तियां नियमित
तौर पर पोस्ट की जाएंगी। कार्यक्रम के अंत में गोपालदास नीरज के मुख्य
आतिथ्य में एक कवि सम्मेलन भी पार्टी मुख्यालय पर आयोजित किया गया था। </p>

<p> </p>

<p>नार्दर्न एलायंस के नेताओं का भी रिकॉर्ड खराब</p>

<p></p><p>
-वेबदुनिया ब्यूरो </p>

<p>संयुक्त राष्ट्र उच्चायोग द्वारा ह्यूमन राइट्स के
लिए गठित समिति ने एकत्र किए गए साक्ष्य के आधार पर अपनी रिपोर्ट में कहा कि
'विश्व को यह बताने वाले नार्दर्न एलायंस के नेता एवं अधिकारी कि हम
तालिबान से बेहतर हैं और भविष्य में अफगानिस्तान में हमारी सरकार होना चाहिए वास्तव
में ऐसा नहीं है। यूएनएचआरसी और एमनेस्टी इंटरनेशनल (एआई) की रिपोर्ट में कोई
अंतर नहीं है।</p><p>
</p><p>
आयोग के अध्यक्ष
मेरी रॉबिन्सन ने एक ब्रिटिश समाचार पत्र को बताया कि यदि नार्दर्न एलायंस
अफगानिस्तान में सत्ता में आता है तो स्थितियां और बदतर हो सकती हैं, क्योंकि
उनके नेताओं का भी रिकॉर्ड खराब है।</p><p>
</p><p>
पहले वहां पर
हुई बलात्कार, हत्या, सांप्रदायिक दंगे और हिंसा आदि घटनाओं में एलायंस के नेता
जैसे बुहरानुद्दीन रब्बानी, अब्दुल करीम खलीली, जनरल अब्दुल रशीद दोस्तम और एहमद शाह
मसूद शामिल हैं। ऐसी स्थिति में यदि ये नेता वहां पर सत्तारूढ़ होने की बात कहते
हंै तो बुरा हो सकता है।</p><p>
</p><p>
खुफिया जांच में
कई नेता ऐसे हैं, जिनके खिलाफ बलात्कार आदि के आरोप हैं। मई 1994 में
काबुल के दारुल अमन जिले में एक गर्भवती महिला की गिरफ्तारी का मामला प्रकाश में
आया था। उसे हिज्बी वजाहत की फौज के सैनिकों द्वारा गिरफ्तार किया गया था,
लेकिन इसके बाद अभी तक उसका या उसके परिवार का कोई ठिकाना नहीं है कि वे
कहां हैं? ऐसी अन्य कई महिलाएं हैं, जिनके साथ ऐसी घटना हुई है।</p><p>
</p><p>
फराह प्रॉविन्स
में रहने वाले शरणार्थियों ने एआई को बताया कि एक मशहूर अफगान गायक, खलीली
सेना द्वारा किए गए रॉकेट हमले में 1994 में मारा गया और उसके बाद उसकी बीवी
को गिरफ्तार कर किसी अन्यत्र स्थान पर ले जाया गया। उसके बाद वह कभी दोबारा
देखने में नहीं</p><p>
आई।
सोवियत सेना से लड़ने वाले कमांडर एहमद शाह मसूद के खिलाफ भी ऐसे कई
मानवाधिकार हनन के मामले दर्ज किए गए हैं।</p><p>
</p><p>
एआई ने नाहिद
की कहानी बताते हुए कहा कि उसने बलात्कार से बचने के लिए कुएं में कूदकर
आत्महत्या कर ली थी। नाहिद 16 वर्षीय लड़की थी जो कि अपने परिवार के साथ
काबुल में रहती थी। एक दिन मुजाहिदीन सैनिक उसके घर में घुसे और उसे
पकड़कर अपने साथ ले जाना चाहते थे। नाहिद ने अपने निवास की पांचवीं मंजिल से
कूदकर जान दे दी थी।</p><p>
</p><p>
सूत्रों ने बताया
कि उसके बाद उसका पिता उसकी लाश को उठाकर गली में घूमता रहा और लोगों
को बताता रहा कि उसके साथ क्या हुआ। इसी प्रकार का रिकॉर्ड जनरल दोस्तम का
भी है। पेशावर में रहने वाली एक युवती ने जनवरी 1994 में अपने साथ हुए बलात्कार
के बाद अपना घर छोड़ा। उसने बताया कि वह जिस अपार्टमेंट में रहती थी, उसे जनरल
दोस्तम के सैनिकों द्वारा घेर लिया गया और फिर वहां की सभी औरतों के साथ
कुकृत्य किया गया।</p>

<p>मेनका को प्रधानमंत्री के संदेश का इंतजार</p>

<p></p><p>
-वेबदुनिया ब्यूरो </p>

<p>पशु कल्याण कार्यक्रम क्रियान्वयन और
सांख्यिकी की राज्यमंत्री मेनका गांधी लोकसभा में उपस्थित नहीं हो रही हैं,
जबकि प्रश्नकाल के दौरान गुरुवार को उन्हें अपने मंत्रालय से संबंधित कुछ
प्रश्नों के जवाब देने थे। भाजपा के कुछ सांसदों का मानना है कि संभवतः
प्रधानमंत्री वाजपेयी के साथ बातचीत होने के बाद मेनका अपने मंत्रालय का
कामकाज संभाल सकती हैं।</p><p>
</p><p>
इससे पहले
मेनका ने संसदीय कार्यमंत्री प्रमोद महाजन को सूचित कर दिया था कि वे सदन में
उपस्थित नहीं हो पाएंगी। ऐसा माना जा रहा है कि मेनका की नाराजगी इसलिए और
भी बढ़ गई है, क्योंकि उन्हें संस्कृति मंत्रालय से हटाए जाने के बाद सरकार की
ओर से उनसे किसी ने भी संपर्क नहीं किया है।</p><p>
</p><p>
भाजपा के एक
वरिष्ठ नेता का कहना है कि उन्हें भी प्रधानमंत्री के इस फैसले पर आश्चर्य है,
लेकिन संभावना है कि निकट भविष्य में प्रधानमंत्री वाजपेयी उनसे बातचीत करेंगे,
लेकिन मेनका गांधी के निकटवर्ती सूत्रों का कहना है कि इस बात की
संभावना बहुत कम है कि मेनका फिर से संसद में आएंगी, क्योंकि सरकार की ओर
से इस बात का भी इशारा नहीं किया गया है कि संस्कृति मंत्रालय से हटाए जाने के
बाद उन्हें कोई और महत्वपूर्ण दायित्व सौंपा जाएगा।</p><p>
</p><p>
चूंकि उनका
संसद परिसर में न कोई कार्यालय है और न ही मंत्रिमंडलीय कक्ष, इसलिए भी उन्हें
आने में शर्मिंदगी का एहसास हो रहा है। हालांकि भाजपा नेता मानते हंै कि
सोनिया और मेनका के बीच की यह जोर-आजमाइश उत्तरप्रदेश में आगामी
विधानसभा चुनावों के दौरान भाजपा को फायदा पहंुचाती।</p><p>
</p><p>
पर अब इस बात
की संभावना नहीं है कि मेनका गांधी चुनाव में भाजपा खेमे की ओर से प्रचार
करेंगी, जबकि भाजपा के कुछ सांसदों का मानना है कि भाजपा की मदद के बिना
मेनका गांधी पीलीभीत संसदीय क्षेत्र से चुनाव नहीं जीत सकतीं, क्योंकि वहां पर
उन्हें भाजपा के सभी वोट मिलते हैं।</p><p>
</p><p>
परंतु अब यह
माना जाने लगा है कि जैसे-जैसे मेनका गांधी को तरजीह नहीं दी जाएगी, वे
भाजपा और इसके सहयोगी दलों से दूर होती चली जाएंगी और संभावना है कि
उत्तरप्रदेश विधानसभा चुनावों के दौरान वे भाजपा और इसके सहयोगी दलों के
खिलाफ भी प्रचार करें। </p>

<p>नवीन पटनायक के मंत्रिमंडल का विस्तार होगा</p>

<p></p><p>
-वेबदुनिया ब्यूरो </p>

<p>उड़ीसा के मुख्यमंत्री नवीन पटनायक ने स्वीकार
किया है कि उनके पास बहुत अधिक विभाग हैं और वे उनके प्रति न्याय नहीं कर पा
रहे हैं, इसलिए मंत्रिमंडल में कुछ और मंत्रियों को शामिल किए जाने की जरूरत
है।</p><p>
</p><p>
मुख्यमंत्री ने
इशारा किया कि उनके मंत्रिमंडल का विस्तार विधानसभा के आगामी शीतकालीन
सत्र से पहले हो सकता है, इसलिए बीजू जनता दल (बीजद) और भारतीय जनता पार्टी
(भाजपा) के दावेदार विधायकों ने अपने-अपने पक्ष में लॉबिंग शुरू कर दी है।</p><p>
</p><p>
बीजद के दो
वरिष्ठ नेताओं डॉक्टर दामोदर राउत और प्रफुल्ल घादेई बीजू पटनायक मंत्रिमंडल में
भी मंत्री थे, लेकिन सीबीआई और सतर्कता विभाग की जांच के चलते इन लोगों
को नवीन मंत्रिमंडल में स्थान नहीं दिया गया था।</p><p>
</p><p>
चूंकि अब इन
लोगों के खिलाफ मामले लगभग समाप्त हो गए हैं, इसलिए संभावना है कि इन दोनों
को फिर से मंत्रिमंडल में शामिल किया जा सकता है। नवीन पटनायक के लिए यह
संभव नहीं है कि वे इन दो अनुभवी नेताओं को लंबे समय तक कुर्सी से दूर रखें,
क्योंकि वे उनके लिए समस्याएं खड़ी कर सकते हैं।</p><p>
</p><p>
इन वरिष्ठ
नेताओं के अलावा कुछ युवा नेता भी मंत्रिमंडल में स्थान के दावेदार हैं। बीजद
की युवा शाखा के प्रमुख बलभद्र माझी भी मंत्रिमंडल में स्थान के दावेदार हंै।
उल्लेखनीय है कि उनके समर्थक एक लंबे समय से मुख्यमंत्री पटनायक पर यह दबाव डालते
रहे हैं कि उनके मंत्रिमंडल में युवाओं को स्थान नहीं दिया गया है।</p><p>
</p><p>
हालांकि भाजपा
के विधायक जो कि मंत्रिमंडल में स्थान पाने के लिए बेचैन थे। पार्टी के
ऐसे नेताओं और कार्यकर्ताओं राष्ट्रीय अध्यक्ष जना कृष्णमूर्ति ने अपनी उड़ीसा
यात्रा के दौरान सलाह दी थी कि वे अनुशासन के दायरे में रहकर ही कोई पद पाने
की कोशिश करें। </p><p>
</p><p>
गौरतलब है कि
कृष्णमूर्ति, नवीन पटनायक के सरकार चलाने के तौर-तरीकों से खुश नहीं हैं, इसलिए
वे चाहते हैं कि भाजपा सांसद जहां तक संभव हो, नवीन पटनायक सरकार से दूर ही
रहें, लेकिन फिर भी राज्य भाजपा ने भ्रष्टाचार के कथित आरोपी पूर्व ग्रामीण
विकासमंत्री प्रशांत नंदा को हटाए जाने के बाद उनके स्थान पर धर्मेन्द्र
प्रधान को मंत्री बनाए जाने का दावा पेश किया है। धर्मेन्द्र प्रधान
पूर्व केन्द्रीय मंत्री और हाल ही में राष्ट्रीय उपाध्यक्ष नियुक्त किए गए डॉ. देवेन्द्र
प्रधान के पुत्र हैं।</p>

<p>फर्नांडीज के खिलाफ कांग्रेस का आक्रामक रुख</p>

<p></p><p>
-वेबदुनिया ब्यूरो </p>

<p>समता पार्टी नेता औैर वाजपेयी मंत्रिमंडल में
रक्षामंत्री के रूप में फिर से शामिल किए गए जॉर्ज फर्नांडीज के खिलाफ कांग्रेस ने
आक्रामक रुख अपना लिया है।</p><p>
</p><p>
गुरुवार को
कांग्रेस ने उनके खिलाफ निंदा प्रस्ताव रखा। यह प्रस्ताव किसी भी सांसद की सदन में
घोर निंदा करने के लिए रखा जाता है, क्योंकि उस सदस्य के कृत्य को
अत्यधिक आपत्तिजनक माना जाता है। कांग्रेस ने जनता पार्टी सरकार के
दौरान स्व. चरणसिंह के खिलाफ 1978 में निंदा प्रस्ताव रखा था। इससे यह भी समझा जा
सकता है कि प्रश्नकाल के दौरान सदन में अपना विरोध दर्ज कराने के लिए
विरोधी दलों ने एक नया हथियार खोज लिया है, जिसका सबसे पहले इस्तेमाल फर्नांडीज
के खिलाफ ही किया गया।</p><p>
</p><p>
दिन में सदन की
कार्रवाई में माकपा सांसद प्रमोद पंडा को सबसे पहला प्रश्न पूछना था, लेकिन
उन्होंने कहा कि रक्षामंत्री जॉर्ज फर्नांडीज 'अवैध रूप' से बनाए गए रक्षामंत्री हैं,
इसलिए वे उनसे कोई सवाल नहीं करेंगे। विपक्ष के इस रवैये से फर्नांडीज भी
हक्के-बक्के रह गए।</p><p>
</p><p>
सूत्रों का
कहना है कि पहले फर्नांडीज ने खुद अपना पद छोड़ा था, लेकिन वे बाद में इससे
तैयार नहीं थे, परंतु जब वे मंत्री बनकर फिर से मंत्रिमंडल में आ गए, इसलिए जब
मंगलवार के शून्यकाल के दौरान और गुरुवार को प्रश्नकाल के दौरान जब उनको
लेकर शोरशराबा व उपद्रव किया गया तो वे चुपचाप बैठे देखते रहे। फर्नांडीज को
उत्तेजित करने के लिए कांंग्रेस के मुख्य प्रवक्ता एस. जयपाल रेड्डी ने कहा कि
कांग्रेस ने उनके खिलाफ एक निंदा प्रस्ताव रखा है और यह लोकसभा में नियम 184
के अंतर्गत मतदान कराना चाहती है।</p><p>
</p><p>
फर्नांडीज की
वापसी पर विरोध दर्ज कराने के लिए कांग्रेस ने निंदा प्रस्ताव रखा था। साथ
में इस बात पर भी विचार-विमर्श किया गया है कि लोकसभा के नियम 184 के अनुकूल
बहस कराकर मतदान करा लिया जाए, ताकि विपक्ष की फूट का फायदा उठाया जा
सके।</p>

<p>एमसीआई अध्यक्ष केतन देसाई की बर्खास्तगी के आदेश</p>

<p> </p>

<p>दिल्ली उच्च न्यायालय ने भारतीय मेडिकल परिषद
(एमसीआई) के अध्यक्ष केतन देसाई के खिलाफ लगाए गए आरोपों को देखते हुए
उन्हें बर्खास्त करने का आदेश दिया है।</p><p>
</p><p>
न्यायमूर्ति अरुण
कुमार और न्यायमूर्ति आर.सी. चोपड़ा की खंडपीठ ने डा. हरीश भल्ला की याचिका
सुनवाई करते हुए आदेश दिया है। खंडपीठ ने एमसीआई का अगला अध्यक्ष चुने जाने
तक मेजर जनरल (सेवानिवृत्त) एस.पी. जिंगोन को प्रशासक नियुक्त करने को कहा
है।</p><p>
</p><p>
अपने 50 पृष्ठों
के आदेश में अदालत ने केन्द्रीय जांच ब्यूरो (सीबीआई) को आदेश की तिथि से
तीन महीने के अंदर जांच शुरू करने के लिए कहा। अदालत ने कहा- सीबीआई इस
मामले में केन्द्र सरकार या किसी विभाग से कोई निर्देश नहीं लेगी और स्वतंत्र
रूप से यह जांच करेगी। (वार्ता)</p>

<p>अयोध्या विवादः मार्च तक हल निकलने की संभावना कम</p>

<p></p><p>
विनय पाठक </p>

<p>प्रधानमंत्री अटलबिहारी वाजपेयी द्वारा पिछले
मानसून सत्र में अयोध्या में जन्मभूमि संबंधी विवाद को मार्च 2002 तक हल कर
लेने का दावा करने के बावजूद प्रधानमंत्री कार्यालय की निष्क्रियता के कारण
निकट भविष्य में इसके किसी प्रकार का हल निकलने के कोई आसार नजर नहीं आ रहे
हैं।</p><p>
</p><p>
हालांकि संसद
में की गई अपनी घोषणा के बाद प्रधानमंत्री ने पीएमओ में अयोध्या सेल का भी
गठन कर दिया और इसके लिए भारतीय प्रशासनिक सेवा के एक अधिकारी की
नियुक्ति भी कर दी गई, लेकिन इस सेल ने अभी तक अपना काम शुुरू नहीं किया है।
इस प्रकार विवाद के समाधान की दिशा में किया जाने वाला प्राथमिक काम भी अभी
शुुरू नहीं हो सका है।</p><p>
</p><p>
उल्लेखनीय है कि
पिछले मानसून सत्र में प्रधानमंत्री वाजपेयी ने दावा किया था कि 2002 के मार्च
तक अयोध्या विवाद के मामले को सुलझा लिया जाएगा और इस दिशा में दोनों पक्षों
से बातचीत की जा रही है। हालांकि उन्होंने तब बातचीत का कोई भी विवरण देने
से इनकार कर दिया था।</p><p>
</p><p>
प्रधानमंत्री
की इस घोषणा के बाद राम जन्मभूमि न्यास के अध्यक्ष महंत रामचंद्र परमहंस और विश्व
हिन्दू परिषद के कार्यकारी अध्यक्ष आोक सिंहल ने प्रधानमंत्री से मुलाकात भी
की थी। इसके आधार पर ही इस बात की अटकलें लगाई जा रही थी कि
प्रधानमंत्री वास्तव में अयोध्या विवाद का समाधान करने के प्रति गंभीर
हैं।</p><p>
</p><p>
दूसरी ओर
प्रधानमंत्री कार्यालय के सूत्रों ने बताया कि प्रधानमंत्री ने यद्यपि अपनी
घोषणा के अनुरूप ही पीएमओ में अयोध्या सेल का गठन कर दिया था, लेकिन इस सेल
ने अभी तक अपना काम ही नहीं शुरू किया है। इस सेल के लिए उत्तरांचल कैडर के
प्रशासनिक सेवा के अधिकारी शत्रुघ्न सिंह की नियुक्ति भी कर दी गई, लेकिन
सिंह ने अभी तक अपना नया पदभार भी ग्रहण नहीं किया है।</p><p>
</p><p>
दिलचस्प बात तो
यह है कि सिंह ने उत्तरप्रदेश और उत्तरांचल के प्रशासनिक सेवा के अधिकारियों
के कैडर के बंटवारे के बाद भी अभी तक उत्तरांचल में भी योगदान नहीं किया है
और अभी भी लखनऊ में ही विराज रहे हैं।</p><p>
</p><p>
इस संबंध
में विश्व हिन्दू परिषद के एक वरिष्ठ नेता ने बताया कि प्रधानमंत्री ने महंत
रामचंद्र दास और अशोक सिंहल को आश्वस्त किया था कि उनकी सरकार अयोध्या सेल
को राम जन्मभूमि स्थल की अधिग्रहित भूमि और विवादास्पद भूमि की
वैधानिक स्थिति की बारीकियों को समझने और इस बाबत दोनों पक्षों के
विचार जानने का काम सौंपने वाली है।</p><p>
</p><p>
दोनों पक्षों का
विचार जानने के बाद ही सरकार विवादास्पद भूमि के छोड़कर अधिग्रहित भूमि
राम जन्मभूमि न्यास को सौंपने का विचार कर सकती है। विहिप सूत्रों का दावा
है कि इस बातचीत में प्रधानमंत्री ने यह भी कहा था कि चूंकि अधिग्रहित
भूमि को लेकर कोई विशेष विवाद नहीं है इसलिए वैधानिक स्थिति के अनुकूल
होने पर दूसरे पक्ष को इस बात के लिए मनाया जा सकता है कि वह अधिग्रहित
भूमि राम जन्मभूमि न्यास को सौंपने दे।</p><p>
</p><p>
विहिप सूत्रों ने
हालांकि यह भी बताया कि बातचीत में प्रधानमंत्री ने यह भी स्पष्ट कर दिया था कि
विवादास्पद 120 फुट लंबे और 80 फुट चौड़े चबूतरे को नहीं छेड़ा जाएगा। इस
बात को लेकर विहिप को भी कोई विशेष आपत्ति नहीं थी, क्योंकि मंदिर निर्माण
कार्य शुरू करने के लिए उसे अभी विवादास्पद चबूतरे की जरूरत भी नहीं है और उसके
नक्शे के मुताबिक काम की शुरुआत अधिग्रहित क्षेत्र से ही होनी है।</p><p>
</p><p>
लेकिन मौजूदा
स्थिति में जबकि प्रधानमंत्री के अयोध्या सेल ने काम करना भी शुुरू नहीं किया
है, विहिप प्रधानमंत्री की घोषणा और वादे को शक की नजर से देखने लगी
है। विहिप के एक वरिष्ठ नेता ने कहा कि अयोध्या सेल के काम को लेकर जिस
प्रकार की ढिलाई बरती जा रही है, उससे स्पष्ट है कि सरकार इस मामले को गंभीरता
से नहीं ले रही है और प्रधानमंत्री यह सारा खेल उत्तरप्रदेश के चुनाव तक विश्व
हिन्दू परिषद को भाजपा के साथ ही जोड़े रखने के लिए ही कर रहे हैं।</p>

<p>ईसीपी को ओटीसी दर्जा देने पर विवाद</p>

<p></p><p>
दिल्ली ब्यूरो </p>

<p>दवाई कंपनियों के लगातार दबाव डालने के
बावजूद केंद्र सरकार संभवतः आपात गर्भनिरोधी गोलियों (ईसीपी) को
ओवर द काउंटर (ओटीसी) दर्जा नहीं दे।</p><p>
</p><p>
भारत के दवा
नियंत्रक सूत्रों का कहना है कि हालांकि इन दवाओं को ओटीसी के रूप में
उपलब्ध कराने की मांग हो रही है, इसके बावजूद अभी तक सरकार ने इस बाबत
कोई फैसला नहीं किया है। इस बारे में फैसला गहन विचार-विमर्श के बाद ही
लिया जाएगा।</p><p>
</p><p>
भारतीय दवा
नियंत्रक डा अश्वनी कुमार का कहना है कि आमतौर पर गैर-नुस्खे वाली दवाएं
सुरक्षित समझी जाती हैं और ये आत्म-नियंत्रित बीमारियों के लिए उपयोग की जाती
हैं। ईसीपी इसी तरह की दवा हो सकती है और ये अपनी व्यापक सामाजिक
स्वीकार्यता के कारण गैर-नुस्खे वाली दवा के तौर पर उपयोग की जासकती है।
इसके बावजूद आशंका इन गोलियों की गुणवत्ता पर उठती है।</p><p>
</p><p>
चिकित्सा क्षेत्र
के कुछ लोगों का महसूस करना है कि निरोध फटने या बलात्कार सरीखी
आपात स्थितियों को देखते हुए इन दवाओं को काउंटर पर उपलब्ध कराना
चाहिए। जबकि चिकित्सक के पास जाने से महिलाओं को इन दवाओं के उपयोग में
झिझक हो सकती है। साथ ही किसी महिला के लिए किसी पारिवारिक सदस्य के
सामने यहखुलासा अजीबोगरीब हो सकता है कि वह क्यों डॉक्टर के यहां जाना चाहती
है। ज्यादातर महिलाएं अपनी समस्याओं को गोपनीय ही रखना चाहती हैं।</p><p>
</p><p>
ईसीपी को
ओटीसी दर्जा देने की वकालत करतेा हुए भवदीप उपाध्याय कहते हैं कि सरकार ने
चालू साल को महिला आधिकारिता वर्ष घोषित किया है। इसलिए ओटीसी पर
फैसला करने का यही सही वक्त है। डा अनूप शर्मा का कहना है कि महिला
आधिकारिता मनाने का यह कोई तरीका नहीं है। ईसीपी दवा में स्टेरायडस
की मात्रा भी होती है और यदि इन्हें बिना डॉक्टरी सलाह के उपयोग किया जाए तो
इसके खतरनाक परिणाम हो सकते हैं।</p><p>
</p><p>
इसके बावजूद
पता चला है कि स्वास्थ्य मंत्रालय ने कुछ दवा कंपनियों को भरोसा दिया है कि वह
ईसीपी को ओटीसी दर्जा देगा।</p>

<p>जम्मू-कश्मीर में योजनाओं से केंद्र ने हाथ खींचे</p>

<p></p><p>
दिल्ली ब्यूरो </p>

<p>केंद्र सरकार ने नेशनल कॉन्फ्रेंस से दूरियां
बढ़ने के साथ ही ऐसी योजनाओं से जम्मू-कश्मीर को दूर रखने के प्रयास शुरू कर
दिए हैं जिनसे राज्य के युवाओं तथा बेरोजगारों को रोजगार मुहैया कराया जाता
था।</p><p>
</p><p>
इस बारे में गृह
मंत्रालय के सूत्रों ने बताया कि विधानसभा चुनाव अब ज्यादा दूर नहीं हैं इसलिए
हम राज्य सरकार को किसी राजनीतिक विवाद में उलझाना नहीं चाहते।</p><p>
</p><p>
विधानसभा
चुनाव नजदीक आने के साथ ही भाजपा तथा नेशनल कॉन्फ्रेंस में तनाव बढ़ता ही जा
रहा है। राज्य भाजपा इकाई हमेशा से ही नेशनल कॉन्फ्रेंस को आड़े हाथों
लेती रही है लेकिन फिर भी नेशनल कॉन्फ्रेंस का केंद्र की राजग सरकार को
समर्थन जारी रहा।</p><p>
</p><p>
हालांकि नेशनल
कॉन्फ्रेंस यह प्रयास कर रही है कि भाजपा आगामी विधानसभा चुनाव उसके साथ
मिलकर लड़े, लेकिन भाजपा इस मूड में नहीं दिखती कि राज्य के चुनाव किसी साझा मंच
से लड़े जाएं। भाजपा के एक वरिष्ठ नेता ने कहा कि हम वर्षों से एक-दूसरे के
विरोधी रहे हैं। ऐसे में यदि हमने मिलकर चुनाव लड़ा तो इसका विपरीत
प्रभाव पड़ेगा।</p><p>
</p><p>
केंद्र की पहल पर
कश्मीर गए विश्लेषकों के अनुसार सरकार की घोषणाओं से कुछ ज्यादा की उम्मीद
नहीं की जा सकती। एक कश्मीरी संगठन के सदस्य ने कहा कि राज्य में होने वाले
महत्वपूर्ण चुनावों के पहले सरकार द्वारा अपने पक्ष में माहौल बनाने की यह एक
कोशिश भर है।</p><p>
</p><p>
इस बीच आरएसएस
द्वारा राज्य के तीन हिस्से करने की मांग भी एक ऐसा मुद्दा है जो किसी बड़े विवाद
की जड़ बन सकता है। उल्लेखनीय है कि इस मुद्दे पर संघ में भी काफी मतभेद
हैं। संघ के जो नेता राज्य के तीन भागों में विभाजन के पक्षधर नहीं हैं,
उनका कहना है कि विभाजन से तो कश्मीर हमसे और दूर चला जाएगा।</p><p>
</p><p>
विशेषज्ञों के
अनुसार इन योजनाओं की बदले हुए वैश्विक परिदृश्य के आधार पर देखा जाना
चाहिए। इस समय जब कश्मीर पर अंतरराष्ट्रीय समुदाय का ध्यान केंद्रित है, केंद्र
सरकार का रोजगार की योजनाओं से हाथ खींचने से विश्व को यही संदेश जाएगा कि
भारत सरकार की गलत नीतियों की वजह से ही कश्मीर के युवा हथियार उठाने को
मजबूर हुए हैं।</p><p>
</p><p>
उल्लेखनीय है कि
केंद्र सरकार पहले ही सीआईआई, एसोचैम, नास्काम, फिक्की तथा पीएचडी चैंबर आफ
कामर्स जैसी प्रमुख औद्योगिक संस्थाओं से रोजगार पैदा करने के उपायों पर बात
कर चुकी है।</p><p>
</p><p>
जम्मू-कश्मीर के
संबंध में केंद्र के प्रमुख व्यक्ति के.सी. पंत ने इन संस्थाओं से सरकार की ओर
से बातचीत की थी। योजना आयोग के सूत्रों का कहना है कि बातचीत के
दौरान औद्योगिक घरानों का रुख सकारात्मक रहा।</p>

<p>तालिबान के 17 सौ लड़ाकों ने हथियार डाले</p>

<p></p><p>
अमेरिकी विमानों
ने कंधार में 'डेजी कटर' गिराया, उमर का अता-पता नहीं </p>

<p>लंबी लड़ाई और कई दौर की बातचीत के बाद तालिबान के अंतिम
गढ़ कुंदूज में तालिबान के 1700 से अधिक लड़ाकों ने शनिवार को उत्तरी
गठबंधन के सामने आत्मसमर्पण कर दिया। समर्पण करने वालों में तालिबान के
समर्थक अरबी, चेचन और पाकिस्तानी लड़ाके भी शामिल हैं। आत्मसमर्पण करने वाले
लड़ाकों से हथियार लेकर उन्हें रिहा कर दिया गया। </p><p>
</p><p>
काबुल में उत्तरी
गठबंधन मे एक प्रवक्ता ने बताया कि तालिबान ने उत्तर में अपने मजबूत गढ़ कुंदूज
को खाली करना शुरू कर दिया है। उसके 1700 से अधिक लड़ाकों ने
आत्मसमर्पण करना शुरू कर दिया है। </p><p>
</p><p>
उत्तरी
गठबंधन के कमांडर अमानुल्ला खान ने मजारे शरीफ में बताया कि तीन प्रमुख
कमांडरों रशीद दोस्तम, अता मोहम्मद और मोहम्मद महाकिद के नेतृत्व वाली सेनाएँ
इन आत्मसमर्पित लड़ाकों को लेकर मजारे शरीफ आ गई हैं। </p><p>
</p><p>
तालिबान की
सेना में फूट पड़ने के बाद ये लड़ाके कुंदूज से निकल आए हैं। उन्होंने बताया
कि ओसामा के कट्टर समर्थक विदेशी लड़ाके अब भी कुंदूज में ही हैं और उन्होंने
उत्तरी गठबंधन से लड़ने का निर्णय लिया है।</p><p>
</p><p>
इस बीच, तालिबान
के मुख्य गढ़ कंधार पर अमेरिकी बम वर्षकों ने 15 हजार पौंड का 'डेजी
कटर' गिराया। अमेरिकी हमलों के बीच तालिबान प्रमुख मुल्ला मोहम्मद उमर के
बारे में परस्पर विरोधी खबरें मिल रही है। तालिबान के एक अधिकारी
मुल्ला सैय्यद हक्कानी के अनुसार मुल्ला उमर कंधार की कमान अपने डिप्टी के
हाथ छोड़ कर कहीं चला गया है। उधर, तालिबान के प्रवक्ता के अनुसार मुल्ला
उमर अभी भी कंधार में है और अपने लड़ाकों के संपर्क में है।</p><p>
</p><p>
टेलीविजन रायटर
और सीएनएन ने खबर दी है कि तालिबान के लड़ाके कुंदूज के बाहर उत्तरी
गठबंधन के फौजियों से हाथ मिलाते देखे गए हैं और हथियार जमा कराने के
बाद तालिबान लड़ाकों को छोड़ दिया गया। ये लड़ाके कई ट्रकों में कुंदूज
से 150 किमी दूर से मजार ए शरीफ से आए। उजबेक कमांडर जनरल रशीद दोस्तम ने
रायटर को बताया कि लगभग छह सौ तालिबान समर्थकों ने आत्मसमर्पण किया है।
इनमें कुछ विदेशी लड़ाके भी हैं। जनरल दोस्तम ने कहा कि अब वे अफगानियों
और विदेशी तालिबानियों को अलग करेंगे।</p><p>
</p><p>
मजार ए शरीफ
आए तालिबानी लड़ाके काफी उदास थे और उनमें से कई कैमरों से अपना चेहरा
छिपाने की कोशिश कर रहे थे। उनके हथियारों को एक अलग ट्रक में लाया
गया। उत्तरी गठबंधन के अधिकारियों ने कहा कि इन लड़ाकों को
संभवतः जनरल दोस्तम के मजार ए शरीफ के किलेबंद मुख्यालय में रखा जाएगा। </p><p>
</p><p>
उत्तरी
गठबंधन ने चारों ओर से घिरे कुंदूज शहर पर हमला रोक दिया है।
कुंदूज में इस समय अरब, पाकिस्तानी और चेचन लड़ाकों सहित तालिबान के लगभग 20
हजार लड़ाके फंसे हुए हैं। इस बीच उत्तरी गठबंधन की फौजों ने
कंधार को पाकिस्तान से जोड़ने वाला संपर्क मार्ग काट दिया है।</p><p>
</p><p>
अफगानिस्तान के
निर्वासित राजा जहीर शाह के समर्थक हमीद कारजई ने शनिवार को बताया कि उनकी
फौजों ने कंधार के पूर्व मुजाहिदीन गवर्नर गुल आगा के नेतत्व में
शुक्रवार को तख्ता पुल पर कब्जा कर लिया। यह पुल कंधार को पाकिस्तान
की चमन सीमा चौकी से जोड़ता है।</p><p>
</p><p>
लेकिन
पाकिस्तान स्थित अफगान इस्लामिक प्रेस 'एआईपी' ने तालिबान के एक प्रवक्ता के
हवाले से कहा है कि आगा की फौजों को तालिबानी लड़ाकों ने कंधार
से 100 किमी दूर बालाजेरा में घमासान लड़ाई के बाद पीछे धकेल दिया।</p><p>
</p><p>
अमेरिकी रक्षा
अधिकारियों ने वाशिंगटन में बताया कि उनके लगभग 70 बमवर्षक विमान
कंधार और दक्षिणी अफगानिस्तान के पूर्व में बमबारी कर रहे हैं। </p><p>
</p><p>
अमेरिकी सेना
की मध्य कमान ने कहा कि उसने बुधवार को कंधार के निकट 6800
किग्रा वजन का बीएलयू-82 बम गिराया था। इस बम को 'डेजी कटर' कहा जाता है
और अफगानिस्तान में इस बम का प्रयोग तीसरी बार किया गया है। इस बम से एक
छोटे परमाणु बम जितनी ऊर्जा निकलती है और इससे लगभग 550 मीटर के दायरे में
पूर्ण विनाश हो जाता है।</p><p>
</p><p>
अमेरिकी
केन्द्रीय कमान के प्रवक्ता मेजर ब्रेेड लॉवेल ने कहा कि अमेरिकी विमान
सुनियोजित ढंग से गुफाओं और सुरंगों को निशाना बना रहे हैं। इन
गुफाओं और सुरंगों में लादेन और उसके संगठन अल कायदा के सदस्यों के
छिपे होने का अंदेशा है।</p><p>
</p><p>
उधर
कुंदूज में अल कायदा समर्थक हजारों विदेशी लड़ाकों के आत्मसमर्पण न करने की
दशा में भयंकर खून-खराबा होने की आशंका है। उत्तरी गठबंधन और
तालिबान के कुछ नेताओं के बीच कई दिनों से चल रही आत्मसमर्पण की बातचीत
के बावजूद उत्तरी गठबंधन के फौजी विदेशी लड़ाकों को माफ करने को
तैयार नहीं है।</p><p>
</p><p>
अमेरिका का
स्पष्ट मानना है कि कुंदूज में फंसे लड़ाकों को किसी भी हाल में छोड़ा न
जाए। इससे कुंदूज में खून-खराबे की आशंका बलवती हुई है।</p><p>
</p><p>
तालिबान के
नेता मुल्ला उमर के बारे मंे परस्पर विरोधी खबरें मिल रही हंै। तालिबान
के एक अधिकारी के मुताबिक मुल्ला उमर कंधार अपने डिप्टी के हवाले
कर अन्यत्र चला गया है, जबकि तालिबान के एक प्रवक्ता ने कहा कि वह कंधार
में रह कर ही तालिबान लड़ाकों की</p><p>
कमान संभाले
हुए हैं। </p><p>
</p><p>
अफगानिस्तान में
राजनीतिक गतिविधियां भी जारी हैं। देश के राष्ट्रपति बुरहानुद्दीन रब्बानी ने
लंदन के अखबार 'द टेलीग्राफ' को बताया कि अगले हफ्ते जर्मनी के बॉन में विभिन्न
अफगानी गुटों के बीच नेतृत्व के लिए यदि किसी नाम पर सहमति बन जाती है तो वह
सत्ता के लिए कोई दावा नहीं करेंगे।</p><p>
</p><p>
रब्बानी ने कहा
कि उनकी कोई महत्वाकांक्षा नहीं है और वे बॉन बैठक का निर्णय स्वीकार कर
लेंगे। पाकिस्तान ने तालिबान के बाद बनने वाली सरकार के गठन के बारे में
होने वाली बैठक में पख्तूनों के और गुट बुलाने की मांग की है।</p><p>
</p><p>
करजई और
खालिक कंधार में तालिबान के शांतिपूर्ण आत्मसमर्पण का प्रयास कर रहे दक्षिणी
अफगान नेताओं में शामिल हैं। मंगलवार से बॉन में शुरू हो रही संयुक्त राष्ट्र
की बैठक में</p><p>
अफगानिस्तान के
सभी समुदायों के प्रतिनिधित्व वाली मुख्य परिषद 'लोया जिरगा' के गठन की
संभावना है। (रायटर)</p>

<p> </p>

<p>अमेरिका के वाणिज्य दूतावास पर रॉकेट दागा</p>

<p> </p>

<p>यहां अमेरिका के वाणिज्य दूतावास व पाकिस्तानी सैन्य प्रशिक्षण मुख्यालय
के निकट आज टैंकरोधी रॉकेट गिरा। इससे क्षति हुई है, लेकिन कोई भी
हताहत नहीं हुआ। </p><p>
</p><p>
रॉकेट फट नहीं
सका लेकिन इसके गिरने से तीन दीवारें क्षतिग्रस्त हो र्गइं। पुलिस के अनुसार यह
रॉकेट उग्रवादियों ने छोड़ा था।(एपी)</p>

<p> </p>

<p>व्यापक आधार वाली सरकार बने-अमेरिका</p>

<p> </p>

<p>अमेरिका ने शनिवार को कहा कि अफगानिस्तान में एक व्यापक
आधार वाली सरकार को ही अंतरराष्ट्रीय समुदाय की सद्भावना प्राप्त हो सकती
है। संयुक्त राष्ट्र द्वारा अफगानिस्तान के सभी गुटों की बैठक बुलाने के पूर्व
दिए गए एक बयान में विदेश मंत्री कॉलिन पॉवेल ने कहा कि अफगानिस्तान की नई
सरकार में सभी का प्रतिनिधित्व जरूरी है। </p><p>
</p><p>
राष्ट्रीय रेडियो
को दिए एक इंटरव्यू में पॉवेल ने कहा कि फिलहाल वहां एक अस्थायी या अंतरिम
सरकार बनाई जा सकती है, जो कुछ माह के लिए ही हो और यह सरकार संयुक्त
राष्ट्र के प्रतिनिधियों के साथ काबुल जाए और अपने आप को स्थापित करे।
</p><p>
</p><p>
फिर एक बार हम
वहां मानवीय जरूरतों की आपूर्ति शुरू करें और तब वे अपनी पूर्ण सरकार का गठन
करें। एक ऐसी सरकार जिसमें अफगानी समाज का प्रत्येक तत्व समाहित हो।
खासतौर से महिलाएं। अफगानिस्तान के पुनर्निर्माण का आह्वान करते हुए पॉवेल ने
कहा कि वहां अनेक प्रतिभावान और शिक्षित महिलाएं हैं। </p><p>
</p><p>
अफगानिस्तान में
अंतरराष्ट्रीय शांति अभियान दल की नियुक्ति के संबंध में पॉवेल ने कहा कि इस
मुद्दे पर विचार जारी है और 40 देशों ने इसके लिए सैन्य मदद देने का प्रस्ताव किया
है। अंतिम फैसला देश की सुरक्षा स्थिति पर निर्भर करेगा। श्री पॉवेल ने दावा
किया कि वहां की सुरक्षा स्थिति में सुधार आ रहा है। </p><p>
</p><p>
अफगानिस्तान पर
मंगलवार को जर्मनी में होने वाली बैठक के बारे में पॉवेल ने कहा कि यह कोई
बड़े पैमाने पर नहीं होगी। मुझे लगता है कि वहां बहुत से बहुत 20 से 30 लोग
पहुंचेंगे। यह तब अधिक मददगार होगी जब सभी बड़े समूहों के प्रतिनिधि
इसमें शामिल होंगे।</p>

<p> </p>

<p>देश के लिए रब्बानी पद छोड़ने को राजी!</p>

<p> </p>

<p>तालिबान विरोधी अफगान राष्ट्रपति बुरहानुद्दीन रब्बानी का कहना
है कि उनकी कोई निजी महत्वाकांक्षा नहीं है। डेली टेलीग्राफ को दिए एक
इंटरव्यू में उनके इस बयान को अपना पद छोड़ने के लिए तैयार होना माना जा रहा
है। </p><p>
</p><p>
इंटरव्यू में
रब्बानी ने कहा कि जहां तक मेरे भविष्य का सवाल है, तो जनता(अफगान) सभी संबद्ध
लोगों की भूमिका अपने आप निर्धारित कर देगी। उन्होंने कहा मैं बॉन में
होने वाली बैठक के निर्णय को मंजूर करूंगा। उल्लेखनीय है कि आगामी मंगलवार
को अफगानिस्तान के भविष्य को लेकर बोन के निकट बहुदलीय वार्ता प्रारंभ होने
वाली है। इस बैठक में व्यापक आधार वाले प्रशासन का स्वरूप तय करने के लिए
अफगानिस्तान के सभी जातीय गुटों को साथ लेकर आगे बढ़ने का प्रयास किया
जाएगा। </p><p>
</p><p>
रब्बानी ने कहा
कि हम शांति और सुरक्षा चाहते हैं। साथ ही एक ऐसी सरकार जो देश के सभी
लोगों को साथ लेकर चले और उन्हें समस्याओं का सामना न करना पड़े। उन्होंने
कहा कि बोन में होने वाली बैठक इस दिशा में पहला कदम है और इसमें कोई शक
नहीं कि यह उपयोगी कदम है। </p><p>
</p><p>
साथ ही हम आशा
करते हैं कि देश के बारे में देश के बाहर यह अंतिम बैठक होगी और अगली बैठक
देश के अंदर होगी। इसके पूर्व इसी सप्ताह रब्बानी ने रूस के दैनिक वरम्या
नोवोस्ती में प्रकाशित इंटरव्यू में कहा था कि उक्त बैठक का कोई औचित्य नहीं है
और इसमें बहुत सीमित प्रगति संभावित है। (एएफपी)</p>

<p> </p>

<p>नेपाल में बागियों ने 37 जवानों को मार डाला</p>

<p></p><p>
एक हेलिकॉप्टर
को विस्फोट से उड़ाया, दो बैंक लूटे </p>

<p>नेपाल में शुक्रवार रात माओवादी विद्रोहियों ने
भारी आतंक मचाया। उन्होंने देश भर में कई स्थानों पर पुलिस और सैनिकों पर
हमले किए। इनमें 37 सुरक्षाकर्मी मारे गए। कई घायल हुए हैं। उन्होंने डांग
के मुख्य जिला अधिकारी को बंधक बना लिया। एक हेलिकॉप्टर को
विस्फोट से उड़ा दिया। दो को क्षति पहुंचाई। विद्रोहियों ने दो बैंकों से
10 करोड़ रुपए भी लूट लिए।</p><p>
</p><p>
नेपाल के
गृहमंत्री खूम बहादुर खदका ने इतने लोगों के मारे जाने की पुष्टि की है।
खदका ने बताया कि हमले में 70 से 80 विद्रोही भी मारे गए हैं, लेकिन उन्होंने
इसका ब्योरा नहीं दिया।</p><p>
</p><p>
लगभग एक हजार
सशस्त्र उग्रवादियों ने काठमांडू से 230 कि.मी. दूर पश्चिम स्यांगजा पुलिस चौकी पर
हमला कर दिया। इसमें 14 पुलिसकर्मी मारे गए। हमले में कई पुलिसकर्मी घायल
हुए हैं। विद्रोहियों ने स्यांगजा जिला जेल पर हमला कर सभी कैदियों को छुड़ा
लिया। </p><p>
</p><p>
छुड़ाए गए
कैदियों की संख्या तत्काल ज्ञात नहीं हो सकी है। यह जानकारी गृह राज्यमंत्री
(आंतरिक) देवेंद्रराज कंदेल ने दी है। विद्रोहियों ने शुक्रवार रात पश्चिमी
काठमांडू की अन्य पुलिस चौकियों को भी अपना निशाना बनाया।</p><p>
</p><p>
डांग जिले में गत
रात विद्रोहियों ने धावा बोलकर एक मेजर समेत 14 सैनिकों और 9
पुलिसकर्मियों की हत्या कर दी। यहां कई सुरक्षाकर्मी घायल हुए हैं। उग्रवादियों
ने जिला प्रशासनिक कार्र्यालय, जिला पुलिस कार्यालय और सेना की बैरकों पर भी
विस्फोट किए। </p><p>
</p><p>
उन्होंने डांग
के मुख्य जिला अधिकारी को बंधक बना लिया। उग्रवादियों ने सुरखेत
में एक हेलिकॉप्टर को विस्फोट से उड़ा दिया। यह हवाई अड्डे पर खड़ा था।
विस्फोट से दो अन्य हेलिकॉप्टर क्षतिग्रस्त हो गए। </p><p>
</p><p>
उग्रवादियों ने
परवत और गोरखा जिला प्रशासनिक कार्यालयों पर विस्फोट किए। यहां उग्रवादियों
और सुरक्षाबलों के बीच गोलीबारी हुई। इसमें कई उग्रवादियों के मारे जाने की
संभावना है। स्यांगजा-पोखरा मार्ग पर भूमिगत सुरंग के विस्फोट में कई सैनिक
और पुलिसकर्मी घायल हो गए। इस सुरंग को उग्रवादियों ने बिछाया था।
स्यांगजा में उग्रवादियों ने नेपाल बैंक और कृषि विकास बैंक से लगभग 10 करोड़
रु. लूट लिए।</p><p>
</p><p>
उग्रवादियों ने
एक दर्जन से अधिक जिलों में हमले किए। इनमें से अधिकांश पश्चिमी
नेपाल में हैं। इनमें 7 प्रमुख जिले हैं स्यांगजा, डांग, कसकी, सुरखेत, साल्यान,
मकवानपुर और गोरंग। भोजपुर, बझंग और धरिंग समेत अन्य कई जिलों में
उग्रवादियों ने अपनी शक्ति दिखाने के लिए जुलूस निकाले। </p><p>
</p><p>
उग्रवादियों ने
शुक्रवार रात के हमलों के दौरान सुरक्षाकर्मियों से हथियार भी छीने। हमलों के
बाद सरकार की सुरक्षा समिति, गुप्तचर विभाग और पुलिस अधिकारियों की बैठक
हुई। इसमें सुरक्षा व्यवस्था को कड़ी करने का निर्णय लिया गया।</p><p>
</p><p>
दो दिन पूर्व ही
माओवादी नेता प्रचंड ने चेतावनी दी थी कि युद्धविराम अर्थहीन हो रहा है क्योंकि
शांति प्रक्रिया में कोई प्रगति नहीं हो रही है। उग्रवादियों और सरकार के बीच
तीन बार शांति वार्ता हो चुकी है, लेकिन ये असफल रही हैं। उग्रवादी हिंसा में गत
छः वर्षों में अब तक लगभग 2 हजार लोग मारे जा चुके हैं।</p><p>
</p><p>
इस बीच
माओवादियों ने 37 सदस्यीय सेंट्रल पीपुल्स गवर्नमेंट की घोषणा कर दी है, जिसके
संयोजक डॉ. राम भट्टराई हैं। आज जारी बयान में कृष्णबहादुर महारा को इसका
संयुक्त संयोजक घोषित किया गया है। </p><p>
</p><p>
महारा ने सरकार
के साथ हुई बातचीत में माओवादी दल का नेतृत्व किया था। बयान में कहा गया है
कि पार्टी की बातचीत के माध्यम से समाधान निकलने की इच्छा के बावजूद सभी
पक्षों की तरफ से जारी षड्यंत्र के कारण समाधान निकलना असंभव हो गया,
इसलिए हमने अपना आंदोलन फिर से शुरू कर दिया।(एजेंसियां)</p>

<p>फिलिस्तीनियों ने कहा-इसराइल से बदला लेंगे</p>

<p></p><p>
हमास के वरिष्ठ
नेता हनूद के अंतिम संस्कार पर 60 हजार जुटे </p>

<p>पश्चिम एशिया में शुक्रवार एक प्रक्षेपास्त्र हमले
में मारे गए आतंकवादी संगठन हमास के वरिष्ठ नेता के अंतिम संस्कार में पश्चिमी
तट और गाजा में 60 हजार से ज्यादा फिलिस्तीनियों ने शनिवार को इकट्ठे होकर
इसराइल से बदला लेने का संकल्प लिया।</p><p>
</p><p>
पश्चिमी तट के
जेनिन शहर में हजारों फिलिस्तीनियों ने इकट्ठे होकर हमास के एक नेता महमूद
अबु हनूद के अंतिम संस्कार में भाग लिया। इसराइल एक लंबे अर्से से हनूद की
तलाश में था।</p><p>
</p><p>
हनूद का सहायक
एयमान हासेका और उसक भाई मामुन हासेका भी इसराइली हेलिकॉप्टरों द्वारा दागे
गए प्रक्षेपास्त्रों की चपेट में आकर मारे गए शोकाकुल लोगों ने हमास की
सैनिक शाखा इजएल-दीन अल-कसम से इसराइल पर हमलों के लिए तैयार रहने के लिए
कहा है। उन्होंने इसराइल के प्रधानमंत्री एरियल शैरोन के विरोध
में नारे भी लगाए।</p><p>
</p><p>
गाजा शहर में भी
करीब 10 हजार शोकाकुल लोगों ने प्रदर्शन किया। बहुत से प्रदर्शनकारी नकाब
लगाए हुए थे और वे मशीनगनों से हवा में गोलियां चला रहे थे। इस अवसर अल
कसम की ओर से जारी किया गया बयान पढ़ा गया। इसमेंं कहा गया है-बहुत जल्द हम
तेल अबीब में इसराइल से बदला लेंगे।</p><p>
</p><p>
नेबुलस शहर में
करीब 4 हजार फिलिस्तीनियों ने भी बम बनाते समय मारे गए दो फिलिस्तीनियों के
अंतिम संस्कार में भाग लिया। (रायटर)</p>

<p>भारत से हर मसले पर बात के लिए मुशर्रफ तैयार</p>

<p></p><p>
लेकिन कश्मीर की
रट नहीं छोड़ी, आजादी का संघर्ष बताया </p>

<p>पाकिस्तान के राष्ट्रपति जनरल परवेज मुशर्रफ ने शनिवार को कश्मीर
मुद्दे के अलावा किसी भी अन्य मुद्दे पर बातचीत नहीं करने संबंधी आरोपों
को गलत बताते हुए कहा कि वे भारत के साथ किसी भी मसले पर बातचीत करने के
लिए तैयार हंै।</p><p>
</p><p>
यूरोपीय संघ
के प्रतिनिधियों के साथ बातचीत के बाद संयुक्त संवाददाता सम्मेलन में जनरल
मुशर्रफ ने कहा कि निश्चित तौर पर कश्मीर ऐसा मसला है, जो भारत-पाकिस्तान
संबंधों पर विपरीत असर डालता है। </p><p>
</p><p>
उन्होंने कहा
कि उनका देश हर एक मसले पर बातचीत करने के लिए तैयार है बशर्ते कि बातचीत का
केंद्र कश्मीर मसला हो। राष्ट्रपति मुशर्रफ ने कहा कि यूरोपीय संघ के
प्रतिनिधियों के साथ बातचीत में उन्हें बताया गया कि भारत ने यह संकेत दिया
है कि आगरा शिखर वार्ता के दौरान पाकिस्तान कश्मीर के अलावा अन्य किसी मसले पर
चर्चा करना ही नहीं चाहता था। </p><p>
</p><p>
सीमा पार से
आतंकवाद फैलाने संबंधी आरोपों के बारे में जनरल मुशर्रफ ने कहा कि
कश्मीर में वहीं के लोग आजादी के लिये संघर्ष कर रहे हैं और वहां सीमा पार
का कोई सवाल ही नहीं उठता। </p><p>
</p><p>
उन्होंने कहा
कि दूसरी बात यह है कि वहां कोई भी सीमा न होकर नियंत्रण रेखा है और तीसरी
बात यह है कि वहां कोई आतंकवाद नहीं है बल्कि वहां एक लोकप्रिय संघर्ष है
और आजादी की लड़ाई लड़ी जा रही है।</p><p>
</p><p>
उन्होंने भारत
पर संयुक्त राष्ट्र सुरक्षा परिषद के कश्मीर में जनमत संग्रह कराने के प्रस्ताव को
अमल में नहीं लाने का आरोप लगाते हुए कहा कि इससे कश्मीर की जनता के
अधिकारों का हनन हो रहा है। राष्ट्रपति ने यूरोपीय संघ से कश्मीर विवाद
के हल में सक्रिय भूमिका निभाने का अनुरोध किया। (वार्ता)</p>

<p> </p>

<p>बॉन में अफगानिस्तान पर बैठक अब मंगलवार को</p>

<p> </p>

<p>संयुक्त राष्ट्र ने घोषणा की है कि जर्मनी के
बॉन शहर में विभिन्न अफगान गुटों के नेताओं की सोमवार को प्रस्तावित बैठक
अब एक दिन विलम्ब से मंगलवार को आयोजित की जाएगी।</p><p>
</p><p>
संयुक्त राष्ट्र
महासचिव कोफी अन्नान के अफगान मामलों के विशेष दूत लखदर ब्राहिमी के प्रवक्ता
अहमद फौजी ने यह घोषणा करते हुए कहा कि कुछ व्यावहारिक कारणों और
मुश्किलों की वजह से बैठक एक दिन विलम्ब से आयोजित की जा रही है।</p><p>
</p><p>
अहमद फौजी के
अनुसार इस बैठक में भाग लेने के लिए अफगान नेताओं को दुनिया के विभिन्न
देशों से बॉन पहुंचना होगा और इस सिलसिले में थोड़ी बहुत मुश्किलों का
सामना करना पड़ रहा है। वे लोग चाहते हैं कि अफगान गुटों के
अधिक-से-अधिक नेता इस बैठक में भाग लें । इसलिए वे लोग अफगान
नेताओं को बॉन पहुंचने का पर्याप्त समय देना चाहते हैं।</p><p>
</p><p>
उन्होंने बताया
कि बैठक में भाग लेने वाले लगभग सभी नेता सोमवार से पहले ही बॉन पहुंच
जाएंगे। बैठक एक दिन स्थगित होने से इन नेताओं को आपस में विचार-विमर्श
करने का मौका मिलेगा।</p><p>
</p><p>
गौरतलब है कि
इस बैठक में अफगानिस्तान में व्यापक आधार वाली एक ऐसी सरकार के गठन पर
चर्चा होगी जिसमें अफगान समाज के सभी वर्गों को उचित प्रतिनिधित्व मिल
सके। (इंडो-एशियन न्यूज सर्विस)</p>

<p>बुश ने 70,000 शरणार्थियों को प्रवेश की
इजाजत दी</p>

<p> </p>

<p>राष्ट्रपति जॉर्ज बुश ने घोषणा की कि अगले
वित्त वर्ष में अमेरिका में 70,000 शरणार्थियों को शरण देने की इजाजत दी
जाएगी।</p><p>
</p><p>
बुश ने अपनी
घोषणा में कहा कि अमेरिका के राष्ट्रीय हितों और मानवीय चिंताओं के
आधार पर यह संख्या निर्धारित की गई है। बुश ने विदेशमंत्री कॉलिन
पावेल को भेजे एक आदेश में यह घोषणा की है।</p><p>
</p><p>
प्रकृतिकरण
एवं राष्ट्रीयता कानून के तहत यह आदेश जारी किया गया है। गौरतलब है कि इस
कानून में हर वर्ष इस बात की समीक्षा की जाती है कि कितने शरणार्थियों को
अमेरिका में प्रवेश की इजाजत दी जाए।</p><p>
</p><p>
अमेरिका में
अगले वर्ष वित्त वर्ष के दौरान जिन 70,000 शरणार्थियों को प्रवेश की इजाजत दी
जाएगी उनमें दुनिया के विभिन्न हिस्सों के लोग शामिल होंगे। अगले वर्ष
अमेरिका में शरण प्राप्त करने वाले उत्प्रवासियों में सबसे अधिक अफ्रीकी
नागरिक होंगे। (इंडो-एशियन न्यूज सर्विस)</p>

<p>आम चुनाव के बाद भी राष्ट्रपति बने रहेंगे मुशर्रफ</p>

<p> </p>

<p>राष्ट्रपति परवेज मुशर्रफ ने कहा है कि वे पाकिस्तान में अगले वर्ष
अक्टूबर तक प्रस्तावित आम चुनाव के बाद भी अपने पद पर बने रहेंगे।</p><p>
</p><p>
मुशर्रफ ने
शुक्रवार की शाम यहां राष्ठ्रीय अखबारों के संपादकों एवं वरिष्ठ पत्रकारों के
साथ मुलाकात के दौरान यह बात कही। मुलाकात में शामिल एक वरिष्ट पत्रकार
के अनुसार मुशर्रफ ने जब यह घोषणा की तो उनके चेहरे परे आत्मविश्वास झलक
रहा था। मुशर्रफ ने अगले वर्ष अक्टूबर तक देश में लोकतांत्रिक सरकार का
गठन करने की अपनी योजनाओं तथा अपनी सरकार की अफगान नीति के बारे में विस्तार
से चर्चा की।</p><p>
</p><p>
मुशर्रफ ने
कहा कि वे चुनावी प्रक्रिया से नहीं गुजरेंगे। वे 'अस्थायी संवैधानिक
आदेश' (पीसीओ) के तहत मिले अधिकारों का इस्तेमाल करते हुए अपने
कार्यकाल में कम-से-कम तीन वर्ष की बढ़ोतरी कर लेंगे। मुशर्रफ का मानना
है कि पाकिस्तान के लोकतांत्रिक और अन्य संस्थानों को मजबूती प्रदान करने
के काम में उन्हें कम-से-कम तीन-चार वर्ष और लगेंगे।</p><p>
</p><p>
इससे संकेत
मिलता है कि मुशर्रफ ने और तीन-चार वर्षों तक राष्ट्रपति पद पर बने रहने का
फैसला कर लिया है। मुशर्रफ ने यह नहीं बताया कि वे सेना प्रमुख बने रहेंगे
या नहीं। मालूम हो कि मुशर्रफ ने सेना प्रमुख के पद के लिए अपनी सेवा
अवधि में अनिश्चितकालीन अवधि की बढ़ोतरी ले ली है।</p><p>
</p><p>
मुशर्रफ ने
कहा कि आम चुनाव समय पर होंगे और पाकिस्तान में गठबंधन सरकार बनाने
की कोई योजना नहीं है। उन्होंने किसी राजनीतिक पार्टी के साथ किसी तरह
की सौदेबाजी से भी इनकार किया। (इंडो-एशियन न्यूज सर्विस)</p>

<p> </p>

<p>तालिबान लड़ाकों के हमले में 35 अमेरिकी सैनिक मरे</p>

<p> </p>

<p>दक्षिण अफगनिस्तान में तालिबान लड़ाकों के एक हमले में अमेरिकी
विशेष बलों के कम से कम 35 जवान मारे गए हैं और इतने ही घायल हो गए हैं।</p><p>
</p><p>
पाकिस्तान के
एक अखबार 'द न्यूज' ने आज सूत्रों के हवाले से बताया कि मारे गए 35 अमेरिकी
सैनिकों के शव दक्षिणी पाकिस्तान में जैकाबाबाद के एक वायुसैनिक अड्डे पर
पहुंचा दिए गए हैं।</p><p>
</p><p>
अखबार ने बताया कि
अमेरिकी हेलिकॉप्टर अफगानिस्तान से अपने मृत एवं घायल सैनिकों को लाने में
व्यस्त हैं। यहां अमेरिकी दूतावास और पाकिस्तान सेना के सूत्रों ने हताहतों
की संख्या पर कोई टिप्पणी करने से इंकार कर दिया है। </p><p>
डीपीए</p>

<p> </p>

<p>आतंकियों के खिलाफ सैन्य अदालतों में मुकदमा चलाने की आलोचना</p>

<p> </p>

<p>राष्ट्र युद्ध अपराध पंचाट के मुख्य अभियोजन रहे एक प्रमुख
अंतरराष्ट्रीय न्यायविद् ने संदिग्ध विदेशी आतंकवादियों के खिलाफ सैन्य
अदालतों में मुकदमा चलाने की अमेरिकी योजना की आलोचना करते हुए कहा है
कि ऐसे में अभियुक्त को निष्पक्ष सुनवाई का अवसर मिलने की कोई गारंटी नहीं
होगी।</p><p>
</p><p>
दक्षिण अफ्रीका
निवासी न्यायाधीश रिचर्ड गोल्डस्टोन ने सीएनएन के एक भेंटवार्ता कार्यक्रम
'लैरी किंग लाइव' में कहा कि अमेरिकी राष्ट्रपति जार्ज डब्ल्यू बुश की इसी महीने
घोषित उक्त योजना दरअसल दूसरे या तीसरे दर्जे का न्याय देने जैसा होगा। </p><p>
</p><p>
उन्होंने कहा
कि ऐसी न्यायिक प्रक्रिया की अंतरराष्ट्रीय समुदाय के बीच कोई विश्वसनीयता नहीं
होगी और हमेशा यह संदेह बना रहेगा कि गोपनीय तरीके से चलाए गए मुकद्में में
ओसामा बिन लादेन या अन्य संदिग्धों का दोष सिद्ध हुआ भी या नहीं।</p><p>
</p><p>
अमेरीकियों
को क्यों इस बात की परवाह करनी चाहिए कि दुनिया क्या सोचती है, इस सवाल पर
गोल्डस्टोन ने कहा कि सवाल यह है कि अभियुक्तों को सुनवाई का वह अवसर
मिलेगा, जिसका प्रावधान स्वयं अमेरिकी संविधान में है। यदि नहीं तो
यह उन मूल्यों को खोखला साबित करना होगा, जिसकी अमेरिका लगातार दुहाई देता
रहा है।</p><p>
</p><p>
अमेरिका गत 11
सितम्बर को न्यूयार्क में वर्ल्ड ट्रेड सेंटर तथा अमेरिकी रक्षा मुख्यालय पर हुए
हमलों के लिए सऊदी आतंकवादी ओसामा बिन लादेन और उसके संगठन अल कायदा को
जिम्मेदार मानता है। उन्हीं को जिन्दा या मुर्दा पकड़ने के घोषित इरादे के
साथ अमेरिका के नेतृत्व में गत सात अक्टूबर को अफगानिस्तान के खिलाफ सैन्य
कार्रवाई शुरू की गई।</p><p>
</p><p>
प्रस्तावित सैन्य
अदालतों में सेना के अधिकारी होंगे और वे दो-तिहाई बहुमत से किसी भी
अभियुक्त को दोषी करार दे सकेंगे। इन अदालतों में सुनवाई गोपनीय होगी
और अदालतों के गठन एवं प्रक्रिया का निर्धारण अमेरिकी रक्षा मंत्री एवं सेना
के कमांडर करेंगे।</p><p>
</p><p>
अमेरिका में भी
राजनीतिक हलकों में इस योजना की व्यापक आलोचना हुई है, लेकिन बुश ने इसी
सप्ताह फिर कहा कि यह योजना सोलह आने ठीक है। उन्होंने कहा कि हम
दुष्टतम लोगों के खिलाफ लड़ाई लड़ रहे हैं और मुझे इस युद्ध में अभूतपूर्व
किस्म के विकल्प का इस्तेमाल करना ही होगा।</p><p>
</p><p>
योजना की
निंदा करते हुए कोसोवो पर स्वतंत्र अंतरराष्ट्रीय आयोग के अध्यक्ष गोल्डस्टोन ने
कहा कि अमेरिका को उन लोगों जितना नहीं गिरना चाहिए, जिनके खिलाफ वह
मुकद्मा चलाने की कोशिश कर रहा है। </p><p>
</p><p>
उन्होंने कहा
कि मैं किसी सैनिक न्यायाधिकरण के समक्ष निष्पक्ष सुनवाई का एक भी उदाहरण
नहीं जानता। सुनवाई गुप्त होगी। न्यायाधीश वे लोग होंगे, जो सैनिक
पदक्रम से होंगे और उनकी नियुक्ति राष्ट्रपति करेंगे और एक बात जिसे मैं सबसे
ज्यादा आपत्तिजनक मानता हूं, वह यह है कि अभियुक्त को अपनी पंसद का वकील रखने
की इजाजत नहीं होगी, बल्कि वह उसे ही वकील रख सकेगा, जिसके नाम की मंजूरी
रक्षा मंत्री डोनाल्ड रम्सफेल्ड देंगे।</p><p>
</p><p>
गोल्डस्टोन 11
सितम्बर के हमलों के सिलसिले में गिफ्तार किए जाने वाले किसी भी व्यक्ति के
खिलाफ अदालती सुनवाई संयुक्त राष्ट्र सुरक्षा परिषद द्वारा संचालित अंतरराष्ट्रीय अदालत
में करने का सुझाव दे चुके हैं। </p><p>
रायटर</p>

<p> </p>

<p>सैकड़ों तालिबान लड़ाकों ने हथियार डाले</p>

<p> </p>

<p>उत्तरी अफगानिस्तान में तालिबान के आखिरी गढ कुंदुज में आज सैकड़ों
अफगानी तालिबान लड़ाकों ने उत्तरी गठबंधन की फौजों के आगे हथियार डाल
दिए।</p><p>
</p><p>
सीएनएन की
रिपोर्ट के अनुसार सैकड़ों तालिबान लड़ाके कई वाहनों और एक टैंक में सवार
होकर शहर के बाहर आए। सीएनएन के अनुसार तालिबान के लड़ाकों को उत्तरी
गठबंधन के फौजियों के साथ हाथ मिलाते देखा गया। इन लड़ाकों के
हथियार डालने के बाद रिहा कर दिया गया।</p><p>
</p><p>
आत्मसमर्पण करने
वाले लड़ाकों में तालिबान के समर्थक विदेशी लड़ाके शामिल नहीं हैं। </p><p>
</p><p>
ब्रिटेन ने
पाक की मांग ठुकराई</p><p>
</p><p>
ब्रिटेन ने
पाकिस्तान की इस मांग को ठुकरा दिया है कि उत्तरी अफगानिस्तान में कुंदुज में
फंसे तालिबानी लड़ाकों को अन्तराष्ट्रीय फोर्स के समक्ष आत्मसमर्पण की अनुमति दी
जाए तथा उत्तरी गठबंधन से उनकी रक्षा की जाए।</p><p>
</p><p>
ब्रिटिश गृह
मंत्री जैक स्ट्रॉ ने कहा है कि तालिबान लड़ाकों को उत्तरी गठबंधन के समक्ष
ही आत्मसर्पण करना होगा। पाक के राष्ट्रपति परवेज मुशर्रफ और विदेश मंत्री
अब्दुल सत्तार से बातचीत के बाद स्ट्रॉ ने अपनी राय रखी।</p><p>
</p><p>
गौरतलब है कि
कुंदुज में गठबंधन और तालिबानी लड़ाकों में घमासान जारी है। तालिबानी
लड़ाकों को आत्मसमर्पण के लिए दी गई समयावधि समाप्त होने को है।</p><p>
वेससे</p>

<p> </p>

<p>कामचलाऊ सरकार पर चर्चा अब मंगलवार को</p>

<p> </p>

<p>अफगानिस्तान में अंतरिम प्रशासन पर चर्चा हेतु
संयुक्त राष्ट्रसंघ की जर्मनी के बॉन शहर में होने वाली बैठक मंगलवार तक स्थगित
कर दी गई है।</p><p>
</p><p>
पहले यह बैठक
सोमवार को होने वाली थी। इस बैठक में अफगानिस्तान में कामचलाऊ सरकार के
गठन पर विचार किया जाना था। </p><p>
</p><p>
बैठक के देर से शुरू होने के निर्णय के कारण के पीछे माना जा रहा है कि
संयुक्त राष्ट्रसंघ चाहता था कि बैठक से पहले अफगानिस्तान में संबंधित दल आपसी
विचार-विमर्श कर लें। </p><p>
</p><p>
इस सम्मेलन में शामिल होने वाली पार्टियों की संख्या बताने से इंकार करते हुए
संयुक्त राष्ट्रसंघ ने कहा कि सभी पक्षों को विश्वास में लिया जाएगा। इन वार्ताओं
के दौरान सुरक्षा के जबर्दस्त इंतजाम किए गए हैं। तालिबान को इन वार्ताओं में
शिरकत करने के लिए नहीं बुलाया गया है। पश्तून जाति का प्रतिनिधित्व पेशावर
स्थित पश्तून समूह करेंगे। </p><p>
वेससे</p>

<p>अल कायदा के पकड़े गए आतंकवादी गुआम द्वीप में कैद</p>

<p> </p>

<p>अमेरिकी सेना ने कहा है कि सउदी आतंकवादी ओसामा बिन लादेन
को अल कायदा संगठन के जो आतंकवादी अफगानिस्तान में पकड़े गए हैं उन्हें
पश्चिमी प्रशांत क्षेत्र के गुआम द्वीप में कैद रखा जा सकता है।</p><p>
</p><p>
वायु सेना के
एक प्रवक्ता लेफ्टिनेंट कर्नल मार्सेल एडम्स ने कल कहा कि अल कायदा के लोगों के
खिलाफ अफगानिस्तान में मुकदमें की प्रक्रिया शुरू होने से पूर्व उन्हें कहां रखा
जाए। इसके बारे में अभी अंतिम तौर पर कोई निर्णय नहीं लिया गया है, लेकिन
उन्हें गुआम द्वीप में रखा जा सकता है। </p><p>
रायटर</p>

<p> </p>

<p>ब्रिटेन ने तालिबान लड़ाकों संबंधी पाक की मांग ठुकराई</p>

<p></p><p>
तालिबानी लड़ाकों
के लिए आत्मसमर्पण का आखिरी अवसर </p>

<p>ब्रिटेन ने पाकिस्तान की इस मांग को ठुकरा दिया है कि उत्तरी
अफगानिस्तान में कुंदुज में फंसे तालिबानी लड़ाकों को अन्तराष्ट्रीय फोर्स के
समक्ष आत्मसमर्पण की अनुमति दी जाए तथा उत्तरी गठबंधन से उनकी रक्षा की जाए।</p><p>
</p><p>
ब्रिटिश गृह
मंत्री जैक स्ट्रॉ ने कहा है कि तालिबान लड़ाकों को उत्तरी गठबंधन के समक्ष
ही आत्मसर्पण करना होगा। पाक के राष्ट्रपति परवेज मुशर्रफ और विदेश मंत्री
अब्दुल सत्तार से बातचीत के बाद स्ट्रॉ ने अपनी राय रखी।</p><p>
</p><p>
गौरतलब है कि
कुंदुज में गठबंधन और तालिबानी लड़ाकों में घमासान जारी है। तालिबानी
लड़ाकों को आत्मसमर्पण के लिए दी गई समयावधि समाप्त होने को है। इस
बारे में अभी भी स्थिति स्पष्ट नहीं है कि तालिबानी लड़ाकों ने गठबंधन के समक्ष
आत्मसमर्पण शुरू कर दिया है या नहीं। हालांकि गठबंधन का दावा है कि
अधिकांश लड़ाकों ने हथियार डाल दिए हैं।</p><p>
</p><p>
इधर समाचार
एजेंसी अफगान इस्लामिक प्रेस (एआईपी) के हवाले से दी गई खबरों के अनुसार उत्तरी
गठबंधन की सेनाओं और अमेरिकी लड़ाकू विमानों ने अफगानिस्तान के उत्तरी
इलाके कुंदूज में फंसे तालिबानी लड़ाकों के खिलाफ तीन तरफ से जबरदस्त हमला
बोल दिया है।</p><p>
</p><p>
उधर दक्षिणी
हिस्से में तालिबान के एक अधिकारी ने खबर दी है कि मुल्ला मोहम्मद उमर अपने
स्थान पर किसी सहयोगी को तैनात कर स्वयं किसी सुरक्षित स्थान पर चले गए हैं। </p><p>
</p><p>
तालिबान के सुरक्षा
अधिकारी मुल्ला सयैद मोहम्मद हक्कानी ने समाचार एजेंसी रायटर को बताया कि
मुल्ला उमर सुरक्षा संबंधी कारणों से किसी अज्ञात स्थान पर चले गए हैं।</p><p>
</p><p>
इस समय
कंधार के अलावा केवल कुंदूज में ही तालिबान का कब्जा है और उसके एक
वरिष्ठ कमांडर द्वारा 14 हजार लड़ाकों के आत्मसमर्पण के लिए राजी हो जाने
संबंधी खबरों के बावजूद शहर के तीन ओर से धावा बोल दिया गया है। </p><p>
</p><p>
एआईपी के
अनुसार उत्तरी गठबंधन ने खानाबाद, पुल ए बांगी और दश्त ए आर्ची क्षेत्रों से
कुंदूज पर धावा बोल दिया और अमेरिकी युद्धक विमानों ने भी उसके
ठिकानों पर बमबारी की। प्रत्यक्षदर्शियों ने बताया कि कुंदूज के आसपास
बमबारी की जबरदस्त आवाज सुनाई दे रही है।</p><p>
</p><p>
इस इलाके मंे
अंतरराष्ट्रीय आतंकवादी ओसामा बिन लादेन के वफादार करीब 15 हजार लड़ाके घिरे
हुए हैं। कुछ वरिष्ठ कमांडरों को अभी भी तालिबानी लड़ाकों के आत्मसमर्पण
की बातचीत के सफल होने की उम्मीद थी, लेकिन इसके बावजूद हमला बोल दिया
गया।</p><p>
</p><p>
उत्तरी
गठबंधन के गृहमंत्री यूनुस कानूनी ने कहा कि उन्होेंने इस मसले को बातचीत
के जरिये हल करने की भरसक कोशिश की लेकिन फिर भी उन्हें सैनिक समाधान
के लिए बाध्य होना पड़ा। </p><p>
वेससे</p>

<p> </p>

<p>सोने की खदान में हुई दुर्घटना की जांच शुरू</p>

<p></p><p>
मृतकों की संख्या
80 तक पहुंची </p>

<p>कोलम्बिया के अटार्नी जनरल के कार्यालय ने आज सोने की खदान में
हुई दुर्घटना के मामले की जांच शुरू कर दी । </p><p>
</p><p>
ऐसी आशंका है
कि कल पश्चिमी कोलम्बिया में सोने की खदान के धंस जाने से उसमेें काम कर
रहे कम से कम 80 खनिकों की मृत्यु हो गई और 100 लोग लापता हैं।</p><p>
</p><p>
कैल्डास में
फिलाडेल्फिया से रेडियो की खबरों में बताया गया है कि ला अम्पोला में यह
दुर्घटना उस समय हुई, जब लगभग एक सौ खनिक अपना कार्य प्रारंभ कर रहे थे।
कोलम्बिया के इतिहास में ऐसी भयंकर दुर्घटना पहले नहीं हुई थी।</p><p>
</p><p>
एक सरकारी
प्रवक्ता ने कहा कि पिछले सप्ताह हुई भारी वर्षा के कारण यह दुर्घटना हुई। </p><p>
डीपीए</p>

<p> </p>

<p>विज्ञापन से पता लगा मर्डोक की बेटी का जन्म</p>

<p></p><p>
-वेबदुनिया ब्यूरो </p>

<p>ऑस्ट्रेलिया में जन्मे रूपर्ट मर्डोक को वैसे
तो विश्व का सबसे शक्तिशाली मीडिया मुगल माना जाता है, लेकिन उनके सिडनी के
समाचार पत्र 'डेली टेलीग्राफ' में उनकी पुत्री के जन्म की घोषणा को बहुत संक्षिप्त
में प्रकाशित करवाया गया।</p><p>
</p><p>
पिछले
बुधवार को प्रकाशित इस सूचना को समाचार पत्र के नियमित 'बर्थ कॉलम' में
दिया गया, जिसके लिए बकायदा भुगतान किया जाता है। इस सूचना में कहा गया कि
'रूपर्ट और वेंडी मर्डोक बड़े गर्व से अपनी खूबसूरत पुत्री ग्रेस हेलेन के जन्म की
घोषणा करते हैं।' यह जानकारी टेबलाइड समाचार पत्र के पृष्ठ क्रमांक 55 के नीचे
के भाग में दी गई है। सूचना में यह भी कहा गया है कि 'न्यूज लिमिटेड के समूचे
स्टाफ की ओर से शुभकामनाएं और समूचे परिवार की ओर से प्यार।'</p><p>
</p><p>
न्यूयॉर्क के
एक अस्पताल में जन्मी ग्रेस मर्डोक की तीसरी पत्नी चीनी मूल की अमेरिकी वेंडी दंेग
की पहली संतान हैै। नोटिस में यह भी जानकारी दी गई कि मीडिया मुगल की
पांचवीं संतान जन्म के समय 9 पौंड और 2 औंस की थी। न्यूज कोर्प में
कार्यकारी रह चुकी वेंडी मर्डोक ने रूपर्ट के साथ तब विवाह किया था, जब उन्होंने
31 वर्ष के बाद अपनी दूसरी पत्नी अन्ना को तलाक दिया था।</p><p>
</p><p>
'ग्रेस' से पहले
मर्डोक की चार वयस्क संतानें प्रूडेंस, एलिजाबेथ, लेशन और जेम्स हैं। इनमें से
सबसे बड़े प्रूडेंस, रूपर्ट की पहली पत्नी के पुत्र हैं। 70 वर्षीय मर्डोक बहुत सारे
पोते-पोतियों के दादा हैं।</p>

<p>पाकिस्तान ने 'वांछित' वैज्ञानिकों को म्यांमार भिजवाया</p>

<p></p><p>
-वेबदुनिया ब्यूरो </p>

<p>पाकिस्तान सरकार ने उन दो परमाणु वैज्ञानिकों
को म्यांमार (बर्मा) भिजवा दिया है, जिन्हें अमेरिकी सरकार ने पूछताछ के लिए
सौंपने को कहा था। </p><p>
</p><p>
ये वैज्ञानिक
ओसामा बिन लादेन के अल-कायदा से जुड़े रहे हैं और इन पर आरोप है कि ये
तालिबान के समर्थक भी हैं। सैन्य सरकार के कुछ अधिकारियों का कहना है
कि वरिष्ठ अधिकारियों ने म्यांमार के सेना के अधिकारियों से बात कर
सुलेमान अजीज और मुहम्मद अली मुख्तार नाम के दो वैज्ञानिकों को म्यांमार भिजवा
दिया है।</p><p>
</p><p>
इनसे अमेरिकी
अधिकारी अल-कायदा और ओसामा बिन लादेन के साथ संबंधों के बारे में
पूछताछ कर सकते थे। इससे पहले अमेरिका ने पाकिस्तान से दो अन्य परमाणु
वैज्ञानिकों डॉ. बशीर और अब्दुल माजिद को सौंपने की मांग की थी।
पाकिस्तान के अधिकारियों का कहना है कि इन्हें लाहौर में नजरबंद करके
रखा गया है। पाकिस्तान के एक दैनिक में प्रकाशित खबर के अनुसार ये वैज्ञानिक
भी कट्टरपंथियों के निकट सहयोगियों के रूप में जाने जाते हैं और पिछले कुछ
वर्षों से ओसामा से मिलते भी रहे हैं।</p><p>
</p><p>
अमेरिका ने
पाकिस्तान से ओसामा और इन वैज्ञानिकों के बीच हुई बैठकों के बारे में
जानकारी चाही थी। प्रारंभ में मुशर्रफ सरकार ने बशीर और अब्दुल माजिद को
नजरबंद कर दिया, लेकिन ये दो वैज्ञानिक अमेरिकी जांच से बच गए, इसलिए अब
अंतरराष्ट्रीय शर्मिंदगी से बचने के लिए सैनिक शासन ने अजीज और मुख्तार को कुछ
दिनों पहले ही देश से बाहर निकाल दिया। </p><p>
</p><p>
पाकिस्तान के
वरिष्ठ अधिकारियों ने म्यांमार के सैनिक अधिकारियों के साथ बातचीत
कर एक गोपनीय उड़ान से इन वैज्ञानिकों को म्यांमार पहंुचाने का काम
किया। सैन्य सरकार के द्वारा अमेरिका को अब यह जवाब दिया जा रहा है कि
उनके देश में ये वांछित वैज्ञानिक हैं ही नहीं और अगर अमेरिकी अधिकारियों
को जानकारी है तो वे बताएं कि वे लोग पाकिस्तान में कहां हैं?</p>

<p>'दक्षेस' बैठक में वाजपेयी-मुशर्रफ वार्ता संभव</p>

<p></p><p>
-वेबदुनिया ब्यूूरो </p>

<p>ंदक्षिण एशियाई क्षेत्रीय सहयोग संगठन (दक्षेस) के
महासचिव ने इस बात की पुष्टि की है कि 11 वीं दक्षेस बैठक के दौरान काठमांडू में
4 जनवरी से 6 जनवरी के बीच भारतीय प्रधानमंत्री अटलबिहारी वाजपेयी की
पाकिस्तानी राष्ट्रपति परवेज मुशर्रफ के साथ बातचीत हो सकती है।</p><p>
</p><p>
महासचिव निहाल
रोडरिगो ने इस बात की भी पुष्टि की कि प्रधानमंत्री अटलबिहारी वाजपेयी और
पाक राष्ट्रपति जनरल परवेज मुशर्रफ दोनों को इस बैठक में भाग लेने के लिए
बुलाया गया है। आगरा बैठक के बाद दोनों नेताओं के पहली बार मिलने की
संभावना है। </p><p>
</p><p>
उल्लेखनीय है कि
संयुक्त राष्ट्र महाधिवेशन के दौरान प्रधानमंत्री ने मुशर्रफ से बात करने
से इनकार कर दिया था।महासचिव रोडरिगो ने कहा कि बैठक में 'दक्षेस' देश 1998
में हुई कोलंबो बैठक की समीक्षा करेंगे तथा दो महत्वपूर्ण दस्तावेजों पर हस्ताक्षर
करेंगे एवं आतंकवाद पर भी चर्चा करने की संभावना है। </p><p>
</p><p>
नेपाल में भारत
के राजदूत देव मुखर्जी ने भी इस बात की पुष्टि की कि दक्षेस बैठक में
प्रधानमंत्री अटलबिहारी वाजपेयी भाग लेंगे। गौरतलब है कि नवंबर 1999 से भारत
के अनुरोध पर काठमांडू में प्रस्तावित 11 वीं बैठक को स्थगित किया जा रहा
था।</p>

<p> </p>






</body></text></cesDoc>