<cesDoc id="hin-w-dunia-news-01-10-06" lang="hin">
<cesHeader type="text">
<fileDesc>
<titleStmt>
<h.title>hin-w-dunia-news-01-10-06.txt</h.title>
<respStmt>
<respType>Electronic file created by</respType>
<respName>Department of Linguistics, Lancaster University</respName>
<respType>text collected by</respType>
<respName>Paul Baker, Celia Worth and Andrew Hardie</respName>
<respType>transferred into Unicode by</respType>
<respName>"Unicodify" software by Andrew Hardie</respName>
</respStmt>
</titleStmt>
<publicationStmt>
<distributor>UCREL</distributor>
<pubAddress>Department of Linguistics, Lancaster University, Lancaster, LA1 4YT, UK</pubAddress>
<availability region="WORLD"></availability>
<pubDate>03-08-24</pubDate>
</publicationStmt>
<sourceDesc>
<biblStruct>
<monogr>
<h.title>"Webdunia" internet news (www.webdunia.com), news stories collected on 01-10-06</h.title>
<h.author>Webdunia</h.author>
<imprint>
<pubPlace>Madhya Pradesh, India</pubPlace>
<publisher>Webdunia</publisher>
<pubDate>01-10-06</pubDate>
</imprint>
</monogr>
</biblStruct>
</sourceDesc>
</fileDesc>
<encodingDesc>
<projectDesc>Text collected for use in the EMILLE project.</projectDesc>
<samplingDesc>Simple written text only has been transcribed. Diagrams, pictures and tables have been omitted and their place marked with a gap element.
</samplingDesc>
<editorialDecl>
<conformance level="1"></conformance>
</editorialDecl>
</encodingDesc>
<profileDesc>
<creation>
<date>03-08-24</date>
</creation>
<langUsage>Hindi</langUsage>
<wsdUsage>
<writingSystem id="ISO/IEC 10646">Universal Multiple-Octet Coded Character Set (UCS).</writingSystem>
</wsdUsage>
<textClass>
<channel mode="w">print</channel>
<constitution type="composite"></constitution>
<domain type="public"></domain>
<factuality type="fact"></factuality>
</textClass>
<translations></translations>
</profileDesc>
<revisionDesc></revisionDesc>
</cesHeader>

<text>
<body>




<p>अपहरण ड्रामे में शामिल चालक दल ड्यूटी से अलग</p>

<p> </p>

<p>केंद्र सरकार ने शनिवार को एलायंस एयर के
विमान के अपहरण ड्रामे में शामिल पूरे चालक दल को उड़ान ड्यूटी से अलग रखने की
घोषणा की।</p><p>
</p><p>
सरकार ने तीन
अक्टूबर की आधी रात को मुबंई से दिल्ली आ रहे विमान के तथाकथित अपहरण
की जांच का औचित्य बताने के लिए जारी बयान में इस फैसले की घोषणा की,
लेकिन इसका कारण स्पष्ट नहीं किया।</p><p>
</p><p>
सी डी-7444
उड़ान में उस रात विमान के कमंाडर और सहचालक के साथ चार परिचारक परिचारिकाएं
ड्यूटी पर थीं।</p><p>
</p><p>
नागर विमानन
मंत्रालय के बयान में कहा गया कि एलायंस एयर के प्रबंधकों ने फिलहाल
उड़ान के लिए छह सदस्यीय चालक दल की सेवाएं नहीं लेने का फैसला किया है।
एलायंस एयर इंडियन एयरलाइंस की पूर्ण स्वामित्व वाली विमान सेवा है।</p><p>
</p><p>
सरकार इस घटना
की जांच के लिए गृह मंत्रालय के विशेष सचिव एस.बी महापात्र की अध्यक्षता में जांच
समिति का गठन कर चुकी हैं। (वार्ता)</p>

<p>ब्लेयर जल्द ही भारत की राजकीय यात्रा पर आएंगे</p>

<p> </p>

<p>ब्रिटिश प्रधानमंत्री टोनी ब्लेयर जल्द ही
भारत की पूर्ण राजकीय यात्रा पर यहां आएंंगे।</p><p>
</p><p>
ब्लेयर ने आज
प्रधानमंत्री अटल बिहारी वाजपेयी के साथ बातचीत के बाद संवाददाताओं से कहा
कि वह जल्द ही भारत आएंंगे तथा ज्यादा वक्त यहां बिताएंगे। ब्लेयर अफगान घटनाक्रम
तथा आंतकवाद पर अंतरराष्ट्रीय समर्थन जुटाने की मुहिम के तहत रूस तथा पाकिस्तान
के तूफानी दौरे के बाद भारत की लगभग दस घंटे की यात्रा पर कल देर रात भारत
पहुंचे थे। आज सुबह प्रधानमंत्री तथा अन्य नेताओं के साथ बातचीत करने
के बाद वह स्वदेश रवाना हो गए।</p><p>
</p><p>
इससे पूर्व ब्लेयर
का स्वागत करते हुए प्रधानमंत्री ने कहा कि भारत ब्लेयर तथा उनकी पत्नी का
राजकीय यात्रा पर आने की प्रतीश्रा कर रहा है। </p><p>
</p><p>
प्रधानमंत्री
ने कहा- आपकी कुछ घंटों की इस यात्रा से भारत यात्रा पूरी नहीं हो गई है।
इसे आपको पूरा करना है। वाजपेयी ने दोनो देशो के आपसी संबंघों को
प्रगाढ़ बताते हुए कहा कि दोनो देशों के बीच अनेक क्षेेत्रों में सहयोग की
काफी संभावनाएंं हैं।</p><p>
वार्ता </p>

<p>ब्लेयर वाजपेयी से मिले, भारत के दृष्टिकोण से सहमति

</p>

<p>आतंकवाद को बढ़ावा देने वालों को मुहतोड़ जवाब देंगे-
वाजपेयी </p>

<p>ब्रिटेन के प्रधानमंत्री टोनी ब्लेयर ने आज सुबह प्रधानमंत्री अटल
बिहारी वाजपेयी से मुलाकात की। ब्लेयर ने आतंकवाद के खिलाफ भारत के
कड़े रुख की सराहना की और इस मामले में उसके दृष्टिकोण का समर्थन किया।
उन्होंने कहा कि आतंकवाद के खिलाफ लड़ाई निर्णायक होगी। वाजपेयी ने
पाकिस्तान का नाम लिए बिना कड़े शब्दों में कहा कि भारत उन देशों को मुंहतोड़
जवाब देगा, जो आतंकवाद से टक्कर लेने की मुहिम का साथ देने के नाम पर अपना
आतंकवादी एजेंडा जारी रखे हुए है। </p><p>
</p><p>
ब्लेयर के साथ
मुलाकात में विदेश मंत्री जसवंतसिंह, राष्ट्रीय सुरक्षा सलाहकार ब्रजेश मिश्र और
गृहमंत्री लालकृष्ण आडवाणी भी शामिल थे। अफगान संकट के सभी पहलूओं पर चर्चा
हुई। पहले दौर की बातचीत के बाद ब्लेयर और वाजपेयी ने संयुक्त प्रेस सम्मेलन
को संबोधित किया।</p><p>
</p><p>
ब्रिटिश
प्रधानमंत्री ने कहा कि भारत उभरती शक्ति है और ब्रिटेन उसके मत का महत्व
समझता है। ब्लेयर ने पिछले दिनों कश्मीर में विधानसभा पर हुए आतंकवादी हमले
की निंदा करते हुए कहा कि कहीं भी आतंकवाद को सहन नहीं किया जाएगा।
आतंकवाद के खिलाफ अब समग्र लड़ाई का समय आ गया है।</p><p>
</p><p>
ब्लेयर ने
वाजपेयी को विशेष तौर पर पाकिस्तान के राष्ट्रपति जनरल मुशर्रफ से तालिबान तथा
पाकिस्तान के बीच संबंधों पर हुई बातचीत तथा तालिबान के बाद अफगानिस्तान
में सरकार के स्वरुप के बारे में पाकिस्तान के रुख से अवगत कराया। ब्लेयर ने
दक्षिण एशिया में स्थिरता बनाये रखने की आवश्यकता पर बल दिया।</p><p>
</p><p>
ब्लेयर ने कहा
कि तालिबान के बाद अफगानिस्तान में सभी वर्गों को शामिल कर सरकार बनाई
जाएगी। उन्होंने भरोसा दिलाया कि आतंकवाद के खिलाफ लड़ी जाने वाली इस
लड़ाई में आम जन और मानवता को कोई हानि नहीं पहुंचाई जाएगी। उन्होंने
कहा कि हमारा फोकस लादेन और आतंकवादी कैंप की तरफ है। ब्लेयर ने
तालिबान के खिलाफ की जाने वाली संभावित सैन्य कार्रवाई की समय सीमा के बारे
में कोई टिप्पणी करने से इंकार कर दिया।</p><p>
</p><p>
प्रधानमंत्री
वाजपेयी ने कहा कि आतंकवाद के खिलाफ यह ग्लोबल वार है और समाधान भी
ग्लोबल होना चाहिए। उन्होंने कहा कि आतंकवाद के खिलाफ हर जगह कार्रवाई
होनी चाहिए।</p><p>
</p><p>
वाजपेयी ने कहा
कि इस्लाम और आतंकवाद में भारत कोई रिश्ता नहीं देखता, लेकिन कश्मीर में हो
रही आतंकवादी गतिविधियों को न सहन किया जा सकता, न नजरअंदाज।</p><p>
</p><p>
आतंकवाद के
विरूद्ध भारत की लड़ाई में उसका साथ नहीं देने से पश्चिमी देशों से किंचित
खिन्न वाजपेयी ने कहा कि भारत पिछले दो दशक से एक तरह से अकेले आतंकवाद के
खिलाफ लड़ाई लड़ रहा है। </p><p>
</p><p>
प्रधानमंत्री
ने कहा कि आतंकवादियों द्वारा काठमांडू से भारतीय विमान का अपहरण कर
कंधार ले जाए जाने की घटना के दो वर्ष बाद अमेरिका में आतंकवादी हमलों
में तबाह हुए चार विमानों के बीच संबंध हो सकते हैं।</p><p>
</p><p>
ब्लेयर ग्यारह
सितम्बर को अमेरिका पर हुए आतंकवादी हमलों के बाद उत्पन्न विश्व घटनाक्रम तथा
आतंकवाद से निबटने के लिए अंतरराष्ट्रीय समुदाय को एकजुट करने की मुहिम के
तहत रूस तथा पाकिस्तान की यात्रा के बाद कल रात भारत पहुंचे थे। उनके साथ
ब्रिटेन के चीफ आफ स्टाफ जोनाथन पावेल भी आए थे।</p><p>
</p><p>
वाजपेयी ने
ब्लेयर के भारत आने के लिए धन्यवाद ज्ञापित किया और उन्हें बाद में
अधिक समय के लिए भारत आने का न्योता भी दिया, जिसे ब्लेयर ने सहर्ष स्वीकार
कर लिया। वाजपेयी से मुलाकात के बाद ब्लेयर ब्रिटेन के लिए रवाना हो गए।</p><p>
वेससे</p>

<p> </p>

<p>वायु सेना दिवस की परेड का सफल पूर्वाभ्यास</p>

<p> </p>

<p>भारतीय वायु सेना ने आसमान छूने की ललक दिखाते हुए 69वें वायु
सेना दिवस की परेड का आज सफल पूर्वाभ्यास किया। </p><p>
</p><p>
नभ स्पर्श दीप्तम
अर्थात शौर्य के साथ आसमान छूने के ध्येय वाले भारतीय वायुसेना की 69वीं वर्षगांठ
के मौके पर आठ अक्टूबर 2001 को भव्य परेड का आयोजन होना है। इसमें वायु
सैनिकों के साथ ही वायु सेना की शक्ति के प्रतीक विभिन्न विमान भी भाग
लेंगंे।</p><p>
</p><p>
आज हुआ
पूर्वाभ्यास एक हिस्से को छोड़कर लगभग पूरा रहा। आसमान साफ नहीं होने की
वजह से पालम वायुसेना अड्डे से उड़ान भरने वाला (सूर्यकिरण) का आयोजन नहीं हो
सका। </p><p>
</p><p>
आज के आयोजन
में मौजूद लोग सुखोई-30 और मिग-23 विमानों की उड़ान देखकर काफी
रोमांचित हुए। सुखोई-30 विमान ने दर्शकों की तालियों के बीच शानदार
कलाबाजियां दिखाई और देखते-देखते आसमान की ऊंचाइयों में कहीं खो गया। </p><p>
</p><p>
दर्शकों की
बाई ओर वे विमान खड़े थे, जिन्होंने वायु सेना को महत्वपूर्ण सफलता दिलाने में
मदद की थी और अब हमारे गौरवशाली अतीत का हिस्सा हैं। इनमें एएन 12
सिरकोर्स्की हेलीकाप्टर, तूफानी वैम्पायर, मिस्टेयर, स्यू-7, मारू और जीनैट प्रमुख
थे। </p><p>
</p><p>
दाई ओर वे
विमान खड़े थे, जो आज भी सेना का अंग है। मिग-21, मिग-23, जगुआर, मिराज
2000, मिग 29, स्यू-30, एम आई 17 हेलिकॉप्टर और भारी भरकम गजराज इस हिस्से में
खड़े थे।</p><p>
</p><p>
परेड का एक
मुख्याकर्षण 'हंटर' विमान की आखिरी उड़ान और उन्नत मिग 21 बी आई एस की पहली
उड़ान भी होगा। भारतीय वायु सेना में 1957 में शामिल किए गए हंटर ने 1965
और 1971 की लड़ाईयों में महत्वपूर्ण सफलता दिलाने में प्रमुख भूमिका निभाई
थी। इस विमान की आखिरी उड़ान की कमान विंग कमाण्डर आशीष रंजन के हाथ में
होगी।</p><p>
</p><p>
इस साल की परेड
में सभी दस स्क्वाड्रन भाग ले रहे हैं जबकि पिछले साल तक सिर्फ छह स्क्वाड्रनों की
भागीदारी इसमें रहती थी। आंकड़ो के मुताबिक सेना की सात कमानों के
कुल 759 सैनिक इस परेड में भाग लेंगे।</p>

<p> </p>

<p>आतंकवाद विरोधी अध्यादेश में फेरबदल

</p>

<p>- वेबदुनिया
ब्यूरो </p>

<p>केन्द्रीय गृह मंत्रालय आतंकवाद विरोधी
अध्यादेश के मूल प्रस्तावों में फेरबदल कर रहा है, ताकि इस कानून के
प्रावधान इस तरह से बनाए जा सकें कि विपक्षी दलों को भी इस पर आपत्ति न
हो।</p><p>
</p><p>
उल्लेखनीय
हैकिविपक्षी दलों नेलोकसभा में इस अध्यादेश की यह कहकर तीखी आलोचना की
थी कि केवल कमजोर प्रशासक ही कठोर कानूनों का सहारा लेते हैं। सरकार
संशोधित प्रावधानों की सहायता से किसी भी आरोपी के लिएजमानत लेना
अपेक्षाकृत सरल बना देगी।</p><p>
</p><p>
मूल दस्तावेज में
इस बात का प्रस्ताव था कि आरोपी व्यक्ति को तभी जमानत मिल सकती थी, जबकि
अभियोजन पक्ष इसकी सहमति दे। इसी तरह से पहले के दस्तावेज में कहा गया था कि
पुलिस अधिकारी के सामने दिया गया बयान न्यायालय में साक्ष्य के रूप में मान्य
होगा।</p><p>
</p><p>
अब स्थिति में
बदलाव करते हुए कहा गया है कि ऐसा कोई बयान तभी मान्य होगा, जबकि यह एक
न्यायाधीश की उपस्थिति में दिया गया हो।अध्यादेश मेंएक तीसरी महत्वपूर्ण
राहत यह दी गई है किआरोपी कोहिरासत में रखने की अवधि के
दौरानपुलिस कोसमय-समय पर इसकी</p><p>
समीक्षा करनी
होगी। </p><p>
</p><p>
इससे यह संभव
होगा कि पुलिस किसी भी आरोपी को लंबे समय तक हिरासत में नहीं रख सकेगी।
गृह मंत्रालय द्वाराअभी भी अध्यादेश के इन प्रस्तावों पर विचार-विमर्श किया जा रहा है
औरइन्हें दो हफ्ते के दौरान एक अध्यादेश की शक्ल में लाया जा सकेगा।</p><p>
</p><p>
उल्लेखनीय है कि
इस अध्यादेश के मूल प्रस्ताव टेरेरिस्ट एंड डिसरप्टिव एक्टिविटीज (प्रीवेंशन) एक्ट - टाडा
- के प्रावधानोंजैसे थे।इन प्रावधानों के अंतर्गत पुलिस और सुरक्षा
एजेंसियों को असीमित अधिकार मिल जाते हैं।</p><p>
</p><p>
इस माह की
शुरुआत मेंलोकसभा में भाजपा सांसद विजय गोयल ने आतंकवाद का सामना करने
के लिए इस तरह के कड़े कानून बनाने की सिफारिश की थी। </p><p>
</p><p>
केन्द्रीय
गृहमंत्री लालकृष्ण आडवाणी ने भी उनका समर्थन किया था, लेकिन विपक्षी दलों के
भारी विरोध के कारणइस कानून के प्रस्ताव में फेरबदल करना पड़ा। </p>

<p>वाजपेयी की यात्रा से पहले मॉस्को में तैयारी

</p>

<p>- वेबदुनिया
ब्यूरो </p>

<p>अमेरिका में हुए आतंकवादी हमलों के बाद भारत और
रूस के बीच सहयोग बढ़ रहा है और दोनों देशों की ओर से एक-दूसरे को
सहायता उपलब्ध कराने पर विचार किया जा रहा है। 4 नवंबर को अटलबिहारी
वाजपेयी रूस का चार दिवसीय दौरा शुरू करने के लिए मॉस्को पहंुचेंगे।</p><p>
</p><p>
अगले हफ्ते रूस
के उप प्रधानमंत्री इल्या क्लेबानोब भारत आने वाले हैं। 7 अक्टूबर से शुरू
होने वाले दौरे में वे भारतीय नेताओं और अधिकारियों से बातचीत
करेंगे। </p><p>
</p><p>
क्लेबानोब के
साथ रूस के उप रक्षामंत्री जनरल दिमित्रियेव और रूसी स्पेस एजेंसी के प्रमुख यूरी
कोप्तेव भी आ रहे हैं। इससे पहले राष्ट्रीय सुरक्षा सलाहकार ब्रजेश मिश्र ने
मॉस्को का दौरा किया था और रूसी अधिकारियों के साथ बातचीत की थी।</p><p>
</p><p>
रूसी उप
प्रधानमंत्री और अन्य प्रमुख व्यक्ति नवंबर में मॉस्को शिखर बैठक के लिए आर्थिक
एजेंडा तय करने के लिए वित्तमंत्री यशवंत सिन्हा से बातचीत करेंगे।</p><p>
</p><p>
दोनों
सरकारों के बीच व्यापार और आर्थिक, वैज्ञानिक, तकनीकी एवं सांस्कृतिक
सहयोग के तरीकों पर विचार होगा। क्लेबानोब भारत-रूस सैन्य तकनीक आयोग के
अध्यक्ष हैं। वे इन मामलों पर रक्षा और विदेशमंत्री जसवंतसिंह से बातचीत करेंगे।</p><p>
</p><p>
देश में पिछले वर्ष
रूसी राष्ट्रपति ब्लादिमीर पुतिन की यात्रा के बाद भारत और रूस ने मिलकर
अफगानिस्तान पर संयुक्त कार्यबल गठित किया था। इसकी पिछली बैठक जून की
शुरुआत में हुई थी और इस बैठक में विदेश सचिव चोकिला अय्यर ने भाग लिया था।</p><p>
</p><p>
सोमवार को
मॉस्को में भारतीय राजदूत के.रघुनाथ ने रूसी उप विदेशमंत्री जॉर्जी मामेदेव से
बातचीत की थी। दोनों मंत्रियों के बीच आतंकवाद के खिलाफ विश्वव्यापी लड़ाई
की शुरुआत करने पर बातचीत हुई।</p><p>
</p><p>
अमेरिका पर हुए
हमलों के तुरंत बाद रूस ने सतर्कता दिखाई और आतंकवादी हमलों को देखते हुए
दुनिया के अन्य देशों को भी सावधान रहने को कहा। </p>

<p>'अम्मा' से पूछ लें - पन्नीरसेल्वम

</p>

<p>- वेबदुनिया
ब्यूरो </p>

<p>बाईस सितंबर कोसर्वोच्च न्यायालय ने
तमिलनाडु की मुख्यमंत्री जे. जयललिता को मुख्यमंत्री पद पर बने रहने के
अयोग्यघोषित किया था। इसके बाद जयललिता को तुरंत ही एक ऐसे व्यक्ति
की जरूरत पड़ी, जो कि उनके लिए रिमोट कंट्रोल का काम कर सके।</p><p>
</p><p>
स्वाभाविक है
कि जयललिता (जिन्हंे तमिलनाडु में 'अम्मा' के नाम से ज्यादा जाना जाता है)चाहती थीं
कि उनका सरकार और संगठन पर पूरा नियंत्रण बना रहे और वे जब भीकानूनी
मुसीबतों सेपीछा छुड़ाकर राजगद्दी की अधिकारी बनें तो उन्हें किसी प्रकार
की अड़चन न आए।</p><p>
</p><p>
'अम्मा' की
तलाशतब पूरी हुई जब उनकोपन्नीरसेल्वम के बारे में बताया गया। पहली बार में ही
विधायक से राजस्व मंत्री बने ओट्टाकारा थेवर पन्नीरसेल्वम अम्मा की मौजूदगी
मेंकाफीनर्वस नजर आते हैं।</p><p>
</p><p>
हालांकि
जयललिता के प्रति उनकी वफादारी किसी से छिपी नहीं है। पन्नीरसेल्वम पहली बार
पेरियाकुलम विधानसभा सीट से चुने गए हैं, लेकिन जयललिता की सहेली शशिकला
के भतीजे टीटीवी दिनकरन के साथ नजदीकियों के चलतेजयललिता ने उन्हें अपने
मंत्रिमंडल में शामिल कर राजस्व मंत्री बनाया।</p><p>
</p><p>
उल्लेखनीय है कि
1999 में जब दिनकरन पेरियाकुलम लोकसभा सीट सेचुनाव लड़ रहे थे, तब सेल्वम ने
उनके पक्ष में धुआंधार प्रचार किया था। दिनकरन एमडीएमके के थेनी
जिले के इस महासचिव की ईमानदारी और उसके परिश्रम से बहुत प्रभावित हुए।</p><p>
</p><p>
दिनकरन ने अपनी
चाची से विधानसभा चुुनावों के उम्मीदवारों की सूची में सेल्वम का नाम
जोड़ने की सिफारिश की।पन्नीरसेल्वम कोमंत्री से सीधे मुख्यमंत्री बनाए
जाने पर न केवल पार्टी कार्यकर्ता, वरन् खुद पन्नीरसेल्वम आश्चर्यचकित रह गए।</p><p>
</p><p>
50 वर्षीय पन्नीर
सेल्वमउत्तमा पालयम हाजी करतार राथर हादिया कॉलेजसे अर्थशास्त्र मेंस्नातक
हैं।वेथैनी नगर निगम के अध्यक्ष भी रह चुके हैं। वेभगवान मुरुगा के इतने
बड़े भक्त हैं कि सेेल्वम ने पार्टी के थैनी कार्यालय मेंएक पूजा घर भी बनवाया
था।</p><p>
</p><p>
जब उन्हेंमुख्यमंत्री
बनाया गयातोवित्तमंत्रीसी.पोेन्नियन, शिक्षामंत्री थंबीदुरई, बिजलीमंत्री जय
कुमार और विधानसभा अध्यक्षकालीमुत्थु कोआश्चर्य होना स्वाभाविक
था।लेकिन वे अच्छी तरह जानते थे कि उन्हेंमुख्यमंत्री क्यों नहीं बनाया गया?</p><p>
</p><p>
एक अनुभवहीन
एवंहद दरजे तक आज्ञाकारी व्यक्ति को मुख्यमंत्री बनाकर जयललिता ने सिद्ध किया
कि यह सारी व्यवस्था अस्थायी है और वेजल्दी हीमुख्यमंत्री की कुर्सी संभालेंगी। </p><p>
</p><p>
हालांकि
मुख्यमंत्री बनने के बादपेरियाकुलम क्षेत्र केलोगों की मांगों की सूची कुछ
लंबी हो गई है, लेकिनसेल्वम की पहली प्राथमिकता अम्मा को खुश रखने की
है।इसलिए जब भी कोई अधिकारी उनके सामनेफाइल रखता है और उस पर
उनकीस्वीकृति देने को कहता है तो वे कहते हैं कि क्या उसनेफाइल अम्मा
को दिखा दी है?</p><p>
</p><p>
जब वे शपथ ग्रहण
कर रहे थे, तब वे जयललिता की उपस्थिति मेंकुर्सी पर बैठनेसे भी हिचक रहे
थे।मुख्यमंत्री कार्यालय में जयललिता कीभारी-भरकम कुर्सी को
हटाकरउन्होंने अपने लिए एक साधारण कुर्सी की व्यवस्था की है।</p><p>
</p><p>
छोटे-छोटे
मामलों पर भीवे जयललिता सेअनुमति लेते हैं और कोई भी महत्वपूर्ण निर्णय
जयललिता सेचर्चा के बगैर पास नहीं होता है। इस कारण सेअधिकारियों
कोपरेशानी उठानी पड़ रही है।</p><p>
</p><p>
पर तमिलनाडु में
वही होगा जो 'अम्मा' चाहेंगी और इसे करने का काम पन्नीरसेल्वम सुनिश्चित
करेंगे।इसलिए न्यायालय के आदेश के बादजयललिता ने कुर्सी छोड़ दी है, लेकिन
फिर भी राज्य की कमान उनके ही हाथ में है।</p><p>
</p><p>
पन्नीरसेल्वम
मुख्यमंत्री हैं, लेकिन जब जयललिता उनसे कोई सवाल करती हैं तो वे उनसे कहते हैं
'जी, हां मुख्यमंत्रीजी'।</p>

<p>'परिवर्तन यात्रा' का कार्यक्रम परिवर्तित

</p>

<p>- वेबदुनिया
ब्यूरो </p>

<p>उत्तरप्रदेश में समाजवादी पार्टीऔरसत्तारूढ़ भाजपा
के प्रचार अभियान से डरकर कांग्रेस ने अपनी 'परिवर्तन यात्रा' के कार्यक्रम में
परिवर्तन कर लिया है।</p><p>
</p><p>
उल्लेखनीय है कि
कांग्रेस के वरिष्ठ नेता माधवराव सिंधिया की मैनपुरी के पास एक हवाई
दुर्घटना में दुःखद मृत्यु के बाद पार्टी ने इस कार्यक्रम को अनिश्चितकाल के
लिए स्थगित कर दिया था। संभवतः यह माना जा रहा था कि पार्टी की ओर से
इस तरह की यात्राको असमय ही समाप्त कर दिया जाएगा।</p><p>
</p><p>
लेकिन 11
अक्टूबर से उत्तरप्रदेश में राज्यव्यापी अभियान के तहत फिर सेइन यात्राओं की शुरुआत
होगी।पहले इन यात्राओं का समापन 4 अक्टूबर को लखनऊ में होना था। अब
इनका समापन लखनऊ में 15 अक्टूबर को होगाऔर सोनिया गांधी के इस समापन
यात्रा को संबोधित करने की संभावना है।</p><p>
</p><p>
शुक्रवार को
समाजवादी पार्टी और वामपंथी दल अपने आंदोलन कार्यक्रम को अंतिम रूप दे रहे
हैं। दोनों ने भाजपा सरकार को हटाने के लिए लोकमोर्चा (पीपुल्स फ्रंट)
का गठन किया है। </p><p>
</p><p>
समाजवादी पार्टी
और वामपंथी दल यह तय करेंगे किवे अफगानिस्तान पर संभावित अमेरिकी आक्रमण,
सिमी पर प्रतिबंध और विश्व हिंदू परिषद तथा राष्ट्रीय स्वयंसेवक संघ पर
प्रतिबंध लगाने को लेकरआम जनता के सामने क्या कहें?</p><p>
</p><p>
चूंकिमुस्लिम
समुदाय के अधिकतर मत समाजवादी पार्टी को मिलते हंै, इसलिए यह सिमी पर
प्रतिबंधलगाए जाने के खिलाफ आवाज बुलंद करेगी। </p><p>
विधानसभा
सेसमाजवादी पार्टी के 102 सदस्यों,भाकपा का एक सदस्य और माकपा के चार
विधायकों द्वारा त्यागपत्र देने के बाद विधानसभा भंग कराकर चुनाव की
मांग की गई है। </p><p>
</p><p>
इस बीच राज्य
सरकार और चुनाव आयोगने बातचीत करकहा है किविधानसभा का सत्र मार्च
के अंतिम सप्ताह में समाप्त होगा। चूंकि विधानसभा केसभापति भीपांच वर्ष
का कार्यकाल पूरा करना चाहते हैं, इसलिए राज्य में विधानसभा चुनाव अगले वर्ष
फरवरी-मार्च में कराए जाएं।</p><p>
</p><p>
लोक मोर्चा 17
अक्टूबर से समूचे प्रदेश में विधायकों के आवासों के बाहर और विधानसभा
अध्यक्ष के आवास के बाहर प्रदर्शन करेगा। इस प्रदर्शन के दौरान 17 अक्टूबर के बाद
विधानसभा भंग किए जाने की मांग की जाएगी।</p><p>
</p><p>
राजनाथ सरकार
के खिलाफकांग्रेस और बहुजन समाज पार्टी (बसपा) भीआंदोलनशुरू करने वाले
हैं। इससे पहले 17 अक्टूबर को कांग्रेस और बसपा के विधायक भी
विधानसभा सदस्यता से इस्तीफा दे सकते हैं,ताकि राज्य सरकार पर जल्दी चुनाव
कराने के लिए दबाव डाला जा सके।</p>

<p>इरशाद बांग्लादेश से लंदन भागे

</p>

<p>- वेबदुनिया
ब्यूरो </p>

<p>बांग्लादेश के पूर्व सैन्य तानाशाह जनरल हुसैन मोहम्मद इरशाद लंदन भाग
गए हैं। हाल ही में हुए चुनावों में बेगम खालिदा जिया की पार्टी को अप्रत्याशित
सफलता मिलने से इरशाद को अपनी मौत का डर सता रहा था, इसलिए वे लंदन भाग
गए।</p><p>
</p><p>
इरशाद ने 1982
में तत्कालीन बांग्लादेश नेशनलिस्ट पार्टी का तख्तापलट कर सत्ता हासिल की थी जिससे
लोकतंत्र बहाली के आंदोलन के चलते उन्हें 1990 में सत्ता छोड़ना पड़ी। </p><p>
</p><p>
इरशाद के विरुद्ध
करीब 18 मामले हैं, जिनमें भ्रष्टाचार के अलावा खालिदा जिया के पति जिया-उर-रहमान
की हत्या का मामला भी शामिल है। 1991 में खालिदा जिया के प्रधानमंत्री बनने
के बाद इरशाद को जेल में डाल दिया गया था।</p><p>
</p><p>
शेख हसीना
सरकार द्वारा भी उन्हें जेल में ही रखा गया परंतु अप्रैल में उन्हें जमानत पर रिहा कर दिया
गया। फिर भी उनके चुनाव लड़ने पर पाबंदी लगी रही। इरशाद की जातीय पार्टी
ने इस चुनाव में 14 सीटें जीती हैं जो कि 300 में से 185 सीटें जीतने वाली बांग्लादेश
नेशनलिस्ट पार्टी के सामने कुछ भी नहीं है।</p><p>
</p><p>
उनकी पार्टी
नेताओं का कहना है कि हम 'अपोजीशन' में बैठने को तैयार हैं। मगर लगता नहीं
है कि खालिदा जिया और जनरल इरशाद के बीच कोई समझौता हो सकेगा। बेगम
जिया ने चुनाव प्रचार के दौरान ही जनरल को फांसी पर लटकाने की बात कही
थी। इस कारण हमने ही उन्हें देश छोड़कर जाने की सलाह दी थी। </p>

<p> </p>

<p>सिंधिया ने अपना आखिरी अपाइंटमेंट पूरा किया

</p>

<p>- वेबदुनिया
ब्यूरो </p>

<p>कांग्रेस के दिवंगत नेता माधवराव
सिंधिया का छत्री (शाही अंतिम संस्कार स्थल)पर गुरुवार को जाने का
कार्यक्रम था। वे वहां पर अपनी मां राजमाता सिंधिया की समाधि के
चारों ओर एक पार्क बनाने के लिए उपयुक्त जगह देखने जाने वाले थे।</p><p>
</p><p>
हालांकि
ग्वालियर के महाराजागुरुवार को छत्रीपर गए, लेकिनवेअपनीअंतिम यात्रा के
साथ वहां पहंुचे।शाही महल के माली रामप्रकाश को इस बात की जानकारी थी,
इसलिए जब महाराजा का शव छत्री पर लाया गया तो वह भी फूट-फूटकर रो रहा था।</p><p>
</p><p>
हालांकि अपना
अंतिम अपाइंटमेंट पूरा करने वाले सिंधिया अपनी मां की समाधि के चारों
ओर पार्क बनवाने के लिए तो जीवित नहीं रहे, लेकिन बमुश्किल 100 मीटर की दूरी
पर उनका अंतिम संस्कार अवश्य कर दिया गया।</p>

<p>आईएसआई ने आतंकियों को 'टारगेट पेन' सौंपे</p>

<p> </p>

<p>पाकिस्तानी गुप्तचर संस्था आईएसआई ने अपने
पिट्ठू आतंकवादियों को जम्मू-कश्मीर में अब 'टारगेट पेन' नामक नया अभियान चलाने
का काम सौंपा है। इसके तहत घाटी में मीडिया के लोगों को पटाकर उनसे राज्य
सरकार के विरुद्ध समाचार लिखवाए जाने की योजना है।</p><p>
</p><p>
सोमवार को
राज्य विधानसभा पर हुए आत्मघाती हमले के संबंध में आधिकारिक
सूत्रों ने बताया कि आईएसआई ने आतंकवादियों से कहा है कि प्रेस को इसका
आरोप सरकारी समितियों पर लगाने के लिए मनाएं। सूत्रों ने कहा कि इस उद्देश्य
के लिए आईएसआई द्वारा भेजे गए कई वायरलेस संदेश पकड़े गए हैं। </p><p>
</p><p>
इनमें यह भी कहा
गया है कि ऐसा माहौल बनाएं कि पाकिस्तान की छवि बिगाड़ने के लिए सरकारी
समितियां यह कर रही हैं। सूत्रों ने यह भी कहा कि आतंकवादियों के साथ
सद्भावना रखने वाले कुछ लोगों ने स्थानीय मीडिया से संपर्क भी किया था लेकिन
अपने मकसद में कोई विशेष सफलता पाने में वे विफल रहे क्योंकि वह भयानक हादसा
लगभग सभी ने देखा है और उसमें अपनाया गया आत्मघाती हमले का तरीका भी पहले जैसा
ही है। (एजेंसी)</p>

<p>शेख उमर आतंकवादी हमलों में शामिल था</p>

<p> </p>

<p>इंडियन एयरलाइंस के अपहृत विमान के
बंधकों को छुड़ाने के लिए जिस आतंकवादी शेख उमर को भारत ने
कंधार में अन्य आतंकवादियों के साथ रिहा किया था, वह भी न्यूयॉर्क और
वाशिंगटन में 11 सितंबर के आतंकवादी हमलों में शामिल था। </p><p>
</p><p>
लंदन स्कूल
ऑफ इकोनॉमिक्स में बीएससी के दूसरे साल के छात्र शेख उमर को भारतीय सुरक्षा
बलों ने 1994 में गिरफ्तार किया था। इंडियन एयरलाइंस के विमान के बंधकों
को छुड़ाने के लिए विदेश मंत्री जसवंतसिंह जैश-ए-मोहम्मद के मौलाना अजहर मसूद
और अल उमर के मुश्ताक अहमद जरगर के अलावा शेख उमर को भी कंधार ले गए
थे और इन आतंकवादियों को रिहा कर दिया गया था। </p><p>
</p><p>
अमेरिका के
संघीय जांच ब्यूरो के सूत्रों ने सीएनएन को बताया कि शेख उमर ने एक लाख डॉलर
मोहम्मद अट्टा को भेजे थे, जिसने अमेरिका में एक विमान का अपहरण कर उसे वर्ल्ड
ट्रेड सेंटर से टकराने में मुख्य भूमिका निभाई थी। पिछले साल कंधार में
छूटने के बाद शेख कराची भाग गया था ओर फिर वहां कई सप्ताह रहा। वह अक्टूबर
1992 में इस्लामिक सोसाइटी में शामिल हुआ था। </p><p>
</p><p>
मार्च 1993 में वह
पाकिस्तान गया और इसके बाद वह लगातार जमाते इस्लामी नेताओं के संपर्क में
रहा। वह हिजबुल तहरीर में भी शामिल हुआ, लेकिन फिर वह हरकत उल अंसार के प्रभाव
में आ गया।</p><p>
</p><p>
भारतीय सूत्रों
ने बताया कि शेख उमर ने अफगानिस्तान में मिनसर में हथियार चलाने का प्रशिक्षण लिया।
मार्च 1994 में उसने तत्कालीन प्रधानमंत्री नरसिंहराव की ब्रिटेन यात्रा में खलल
डालने की योजना बनाई थी। </p><p>
</p><p>
शेख उमर 24
जुलाई 1994 को पाकिस्तान की एयरलाइंस की उड़ान से दिल्ली आया और यहां से वह
जम्मू-कश्मीर पहुंचकर विध्वंसक गतिविधियों में जुट गया। बताते हैं कि जम्मू
कश्मीर में पहलगाम से पांच विदेशी पर्यटकों के अपहरण के पीछे उमर का ही हाथ
था। दिसंबर 1999 में छूटने के बाद वह पाकिस्तान पहुंच गया और अजहर मसूद के
जैश-ए-मोहम्मद में शामिल हो गया। (वार्ता)</p>

<p>एस्सार पॉवर ने हजीरा बिजली परियोजना से हाथ खींचा

</p>

<p>दिल्ली
ब्यूरो </p>

<p>गुजरात राज्य बिजली बोर्ड के लंबे समय से बिजली
के बकाए का भुगतान नहीं करने के कारण निजी क्षेत्र की कंपनी एस्सार पॉवर ने
हजीरा विद्युत परियोजना के विस्तारीकरण की योजना को रद्द कर दिया है।</p><p>
</p><p>
वैसे इस विस्तार
परियोजना के लिए एस्सार को राज्य बिजली बोर्ड ने अनुमति दे दी थी और इस
संबंध में बिजली खरीद का समझौता भी हो गया था। इसके बावजूद हजीरा की
मूल परियोजना द्वारा उत्पादित बिजली का बिजली बोर्ड के भुगतान नहीं करने के
कारण इस प्रस्तावित परियोजना के काम को रोक दिया गया है।</p><p>
</p><p>
वैसे केंद्रीय
ऊर्जा मंत्रालय, एस्सार पॉवर के अधिकारियों को मनाने की कोशिश कर रहा
है, लेकिन एस्सार ने राज्य बिजली बोर्ड से समय से भुगतान कराने की गारंटी मांग
कर केंद्र को पसोपेश में डाल दिया है।</p><p>
</p><p>
एस्सार पॉवर के
कदम से ऊर्जा क्षेत्र में निजी निवेश को बढ़ाने के केंद्र सरकार के प्रयास को एक
तगड़ा झटका लगा है। अभी तक सरकार एनरॉन की दाभोल परियोजना के झटके से
उबर भी नहीं सकी थी कि एस्सार से उसे जोरदार आघात लगा है।</p><p>
</p><p>
भारतीय उद्योग
परिसंघ के पदाधिकारी ने इस बारे में कहा कि एस्सार के हजीरा पॉवर विस्तार
परियोजना को रद्द कर देने से निजी क्षेत्र के निवेशक ऊर्जा क्षेत्र में निवेश करने
के पहले काफी सोच-विचार करेंगे। इसके परिणामस्वरूप पहले से ही निजी निवेश
के मामले में काफी पिछड़े ऊर्जा सेक्टर को गतिशील करना और कठिन हो
जाएगा।</p><p>
</p><p>
जानकारी के
अनुसार नई विस्तार परियोजना 2000 करोड़ रुपए की लागत से स्थापित की जानी
थी। विस्तार परियोजना से 515 मेगावाट बिजली का उत्पादन करने की बात कही गई
र्थी। इंधन के रूप में इस परियोजना में द्रव्य प्राकृतिक गैस (एलएनजी) का
उपयोग किया जाना था। एलएनजी के उपयोग से बिजली की उत्पादन लागत में कमी
आती और इससे तुलनात्मक रूप से कम दर पर राज्य बिजली बोर्ड को बिजली की आपूर्ति
हो सकती</p><p>
थी।</p><p>
</p><p>
एस्सार पॉवर ने
इसी आकलन के आधार पर गुजरात राज्य बिजली बोर्ड से प्रति यूनिट एक रुपए
पैंतीस पैसे की दर पर बिजली खरीद समझौते को भी मंजूर कर लिया था, हालांकि
राज्य बिजली बोर्ड हजीरा पॉवर प्रोजेक्ट की मूल इकाई से प्रति यूनिट डेढ़ रुपए की
दर से बिजली ले रहा है। इस इकाई में भी 515 मेगावाट बिजली का उत्पादन हो रहा
है।</p><p>
</p><p>
एस्सार के
निदेशक ने बताया कि विस्तार परियोजना की स्थापना, अभियंत्रण संबंधी काम
और निर्माण से संबंधित कामों के लिए कंपनी ने कोरिया हेवी इंडस्ट्रीज
कारपोरेशन को ठेका भी दे दिया था, लेकिन अब परियोजना ही रद्द होने के कारण
इस ठेके को भी रद्द करना पड़ रहा है।</p><p>
</p><p>
उक्त
अधिकारी ने बताया कि राज्य बिजली बोर्ड के लंबे समय तक खरीदी गई बिजली का
भुगतान नहीं करने के कारण कंपनी की लाभदेयता बुरी तरह से प्रभावित हो रही
है। ऐसे में कंपनी की ओर से विस्तार परियोजना में और दो हजार करोड़
रुपए का निवेश करने का जोखिम नहीं लिया जा सकता।</p><p>
</p><p>
ऊर्जा मंत्रालय
के सूत्रों ने पुष्टि की कि एस्सार पॉवर के विस्तार परियोजना को रद्द करने की जानकारी
मिल चुकी है और मंत्रालय प्रयास कर रहा है कि एस्सार अपने निर्णय पर पुनर्विचार
करे। इस बाबत स्वयं ऊर्जामंत्री ने एस्सार पॉवर के प्रबंध निदेशक श्रीवास्तव से
बातचीत की है।</p><p>
</p><p>
उन्होंने शर्त रखी
है कि यदि केंद्र सरकार राज्य बिजली बोर्ड द्वारा समय से खरीदी गई बिजली का भुगतान
करवाने अथवा विलंब होने की स्थिति में आपात कोष से स्वयं भुगतान करने की
गारंटी ले तभी कंपनी अपने निर्णय पर पुनर्विचार कर सकती है। सूत्रों के अनुसार
अब ऊर्जामंत्री राज्य सरकार से इस संबंध में संपर्क कर रहे हैं, ताकि इस मामले
का कोई उचित समाधान प्राप्त किया जा सके।</p>

<p>मंदी से मुकाबले के लिए नई परियोजनाओं को हरी झंडी

</p>

<p>विनय
पाठक </p>

<p>देश के विभिन्न बाजारों में छाए नकदी के
संकट (लिक्विडिटी क्रंच) देशव्यापी मंदी को समाप्त करने के प्रयास के तहत केंद्र
सरकार ने दस हजार करोड़ रुपए की लागत वाली नई परियोजनाओं का चयन किया
है।</p><p>
</p><p>
केंद्र को आशा
है कि इन परियोजनाओं पर काम की शुरुआत हो जाने से इस वर्ष की अंतिम तिमाही
(जनवरी से मार्च, 2002) तक सकारात्मक परिणाम आने शुरू हो जाएंगे। ये सारी नई
परियोजनाएं मूल रूप से रेलवे, भूतल परिवहन, ऊर्जा और कृषि मंत्रालय से संबद्ध
हैं।</p><p>
</p><p>
उल्लेखनीय है कि
प्रधानमंत्री ने सितंबर के शुरू में ही देशव्यापी मंदी और बाजारों में छाए नकदी
के संकट के संबंध में विचार करने के लिए आयोजित मंत्रिमंडल की एक
बैठक में इस बात का आश्वासन दिया था कि सरकार जल्द ही ऐसी लाभदायक परियोजनाओं
का चयन करेगी, जिनमें सरकारी निवेश से देशव्यापी मंदी को समाप्त अथवा कम करने
का प्रयास किया जाएगा। इस बैठक में बाजारों में छाए नकदी के संकट को कम
करने के लिए सरकारी निवेश को बढ़ाने की आवयकता पर भी बल दिया गया था।</p><p>
</p><p>
इन प्रस्तावित नई
परियोजनाओं के चयन के लिए प्रधानमंत्री ने कैबिनेट सचिव टीआर प्रसाद की
अध्यक्षता में सचिवों की एक समिति का गठन किया था। इसकी रिपोर्ट के
आधार पर ही सरकार ने तुरंत निवेश करने योग्य परियोजनाओं का चयन किया
है।</p><p>
</p><p>
इन परियोजनाओं
में तुरंत निवेश करने से सरकार को सकल घरेलू उत्पाद (जीडीपी) की विकास दर में
भी बढ़ोतरी होने की आशा है। इसके साथ ही बाजार में पैसे की आमद होने से
बाजार की मंदी के भी कम होने की आशा की जा रही है।</p><p>
</p><p>
अभी विभिन्न
मंत्रालयों के तहत निजी क्षेत्र की परियोजनाओं के अलावा कुल लगभग 58000 करोड़
रुपए की लागत वाली परियोजनाओं पर काम चल रहा है। इनमें तेल एवं प्राकृतिक
गैस मंत्रालय के तहत 17000 करोड़ रुपए लागत की, ऊर्जा मंत्रालय के तहत 11000
करोड़ रुपए लागत की, भूतल परिवहन के तहत 8500 करोड़ रुपए लागत की और रेल
मंत्रालय के तहत 11000 करोड़ रुपए लागत की परियोजनाएं शामिल हैं। इनमें से</p><p>
अधिकांश
परियोजनाओं का काम सत्तर प्रतिशत तक पूरा हो चुका है और इनमें नए निवेश की
संभावनाएं कम रह गई हैं।</p><p>
</p><p>
इसके अलावा
केंद्र के पास 92000 करोड़ रुपए की लागत वाली ऐसी परियोजनाएं भी लंबित पड़ी
हुई हैं, जिन्हें विभिन्न मंत्रालयों में अब लाभदेय नहीं माना जा रहा है। इनमें से
अधिकांश परियोजनाएं राजनीतिक लाभ के लिए विभिन्न मंत्रालयों के तत्कालीन
मंत्रियों की घोषणा पर स्वीकार की गई परियोजनाएं हैं, जिन्हें एक बार स्वीकार
तो कर लिया गया लेकिन उन पर काम कभी भी शुरू नहीं हो सका।</p><p>
</p><p>
ऐसी
परियोजनाओं में सबसे अधिक परियोजनाएं रेल मंत्रालय की हैं। 22500
करोड़ रुपए लागत वाली ऐसी परियोजनाएं रेलवे बोर्ड के अनुसार अब लाभदेय नहीं रह
गई हैं। इसी प्रकार भूतल परिवहन और ऊर्जा मंत्रालय की भी कई परियोजनाएं लंबे
समय से लंबित पड़ी हुई हैं। बताया गया कि राजनीतिक लाभ को ध्यान में रखते हुए
शुरू की गई ये योजनाएं अभी तक न तो रद्द की गई हैं और न ही इन पर काम शुरू
किया जा सका है।</p><p>
</p><p>
मंदी के मद्देनजर
सरकार सार्वजनिक क्षेत्र के निवेश को जल्दी से जल्दी बढ़ाना चाहती है, ताकि अंतिम
तिमाही तक मंदी को छांटने के साथ ही बेहतर आर्थिक परिणाम निकाले जा सकें।
सरकार की मूल चिंता सकल घरेलू उत्पाद की विकास दर को अपेक्षित स्तर के आसपास
पहुंचाने की है।</p><p>
</p><p>
इस वित्त वर्ष की
पहली तिमाही में विकास दर 4.4 प्रतिशत थी, जबकि पिछले वित्त वर्ष में इसी आलोच्य
अवधि में यह दर 6.1 प्रतिशत थी। केंद्र सरकार के नीति निर्धारकों को
आशा है कि नई परियोजनाओं में शीघ्र निवेश होने से अंतिम तिमाही तक इसका असर
साफ नजर आने लगेगा।</p><p>
</p><p>
इसके अलावा
केंद्र ने नई परियोजनाओं को मंजूरी देने और तमाम क्लियरेंस से संबंधित
प्रक्रिया को भी सरलीकृत करने के लिए सचिवों की समिति को उपायों की तलाशने
का निर्देश दिया है। इन प्रक्रियाओं के सरलीकरण से कोई भी परियोजना का
काम मंजूरी मिलने के बाद तुरंत शुरू हो सकेगा। इससे कम से कम स्थापनागत
निवेश तो होगा ही जिससे कि देश के बाजार में पैसे की आमद बनेगी।</p><p>
</p><p>
इसके साथ ही
ऐसा होने से सरकारी प्रक्रियाओं से ऊबा हुआ निजी क्षेत्र भी नई परियोजनाओं को
शुरू करने के प्रति उत्साहित होगा। सरकारी सूत्रों का कहना है कि एक बार
निजी क्षेत्र की ओर से स्थापनागत निवेश की प्रक्रिया तरीके से शुरू हो जाए तो मंदी
को टालने के लिए सरकारी निवेश करने की जरूरत यदि समाप्त न भी हो तो कम तो
जरूर हो जाएगी।</p>

<p>भाजपा में कुशाभाऊ ठाकरे का कद बढ़ा

</p>

<p>दिल्ली
ब्यूरो </p>

<p>भारतीय जनता पार्टी अध्यक्ष की हैसियत से जो सम्मान
कुशाभाऊ ठाकरे हासिल नहीं कर सके थे, वह अब उन्हें प्राप्त हो रहा है। ठाकरे
को पार्टी ने कुछ समय पहले बड़े ही असम्मानजनक तरीके से बाहर का रास्ता दिखा
दिया था। वास्तव में उन्हें अध्यक्ष पद का दूसरा कार्यकाल यह कहकर नहीं दिया गया था
कि वे प्रभावहीन हैं और उनमें दृष्टि का अभाव है।</p><p>
</p><p>
पार्टी के
सूत्रों का आरोप है कि तब लालकृष्ण आडवाणी को ठाकरे और अटलबिहारी
वाजपेयी की जुगलबंदी रास नहीं आई थी। जब ठाकरे भाजपा अध्यक्ष थे तो आडवाणी ने
पर्दे के पीछे रहकर पार्टी को चलाया था। आज हालात बदल चुके हैं। अब वाजपेयी,
ठाकरे के साथ मिलकर पार्टी को चला रहे हैं, जबकि मौजूदा अध्यक्ष जना कृष्णमूर्ति
हाशिए पर हैंैं।</p><p>
</p><p>
यह परिवर्तन
गुजरात घटनाक्रम के दौरान स्पष्ट रूप से दिखाई दिया। पार्टी नेतृत्व के लिए
केशुभाई पटेल को मुख्यमंत्री की गद्दी से हटाना टेढ़ी खीर लग रहा था। पटेल
ने धमकी दे रखी थी कि उन्हें असम्मानजनक ढंग से हटाया गया तो वे 1995 का
वाघेला प्रकरण दोहरा देंगे। इस धमकी से भाजपा आलाकमान की नींद उड़ी हुई
थी।</p><p>
</p><p>
ऐसी स्थिति में
ठाकरे ने कमान संभाली। ये वही ठाकरे थे, जो अपनी अध्यक्षी में उत्तरप्रदेश के तब
के मुख्यमंत्री कल्याण सिंह को गद्दी छोड़ने के लिए राजी नहीं कर सके थे।
आखिरकार रामप्रकाश गुप्ता को आलाकमान को उत्तरप्रदेश की कमान सौंपनी पड़ी
थी।</p><p>
</p><p>
इस बार आडवाणी
अपने खासमखास केशुभाई पटेल को किसी नौजवान को मुख्यमंत्री बनाने की खातिर
इस्तीफे के लिए राजी नहीं कर पाए और वाजपेयी ने गुजरात प्रकरण में हस्तक्षेप करने
से इंकार कर दिया। इससे भाजपा आलाकमान को सांप संूघ गया। </p><p>
</p><p>
आडवाणी और
जना कृष्णमूर्ति के असहाय होने के बाद पटेल को इस्तीफे के लिए राजी कराने
की जिम्मेदारी ठाकरे को सौंपी गई। हालांकि इसमें संघ नेतृत्व और गुजरात
के राज्यपाल एसएस भंडारी ने भी भूमिका निभाई, लेकिन वास्तविक कार्य ठाकरे ने ही
किया।</p><p>
</p><p>
तहलका प्रकरण
के बाद जना के पार्टी अध्यक्ष बनते ही ठाकरे चर्चा में आ गए। सूत्रों का कहना है
कि विंध्य के उत्तर में जना के पार्टीजनों में स्वीकार्य नहीं बन पाने के कारण ही
ठाकरे की वापसी हुई है। हालांकि जना में संवाद की अच्छी योग्यता है, लेकिन
हिंदी न जानने के कारण पार्टी पर वे पकड़ नहीं बना पाए हैं। दूसरी ओर, जना
अपने को वाजपेयी और आडवाणी के समकक्ष मानने का भी प्रयास करते रहते हैं।</p><p>
</p><p>
दूसरी तरफ
ठाकरे ने अपनी अध्यक्षी के दौरान कभी भी वाजपेयी और आडवाणी के ऊपर अपने को
स्थापित करने का प्रयास नहीं किया। हकीकत यही है कि ठाकरे की अध्यक्षी के
दौरान आडवाणी ने पार्टी और सरकार वाजपेयी ने चलाई। वैसे यह दोनों की
आपसी समझ का भी नतीजा था।</p><p>
</p><p>
इधर, जना
के अध्यक्ष बनते ही समीकरण बदल गए। वे आडवाणी की दखलंदाजी से परेशान हो गए
तो आडवाणी ने पार्टी मामलों मे दिलचस्पी लेना ही बंद कर दिया। ऐसा होते ही
पार्टी के लिए बुरे हालात पैदा हो गए। भाजपा के एक वरिष्ठ उपाध्यक्ष के मुताबिक
इस मौके पर वाजपेयी ने अपने मित्र ठाकरे से पार्टी मामलों में रुचि लेने को
कहा।</p><p>
</p><p>
नतीजा यह निकला
कि भाजपा के लिहाज से सबसे अहम राज्य उत्तरप्रदेश ठाकरे के हवाले कर दिया गया।
प्यारेलाल खंडलेवाल बगैर ज्यादा हल्ला-गुल्ला किए वहां से हट गए। दो और राज्यों
उत्तरांचल और दिल्ली (नगर निकाय चुनाव) की कमान भी ठाकरे को सौंप दी गई।
ठाकरे के खासमखास ओमप्रकाश कोहली को पंजाब, हरियाणा और हिमाचलप्रदेश की
बागडोर दे दी गई।</p><p>
</p><p>
ठाकरे अपने इस
नए रुतबे से शायद खुश होंगे। 10 जुलाई को भाजपा आर्थिक सेल की बैठक की
अध्यक्षता का भी मौका मिला था, जबकि उस बैठक में पार्टी अध्यक्ष जना कृष्णमूर्ति
मौजूद थे। इस बैठक में वित्तमंत्री यशवंत सिन्हा की जमकर खिंचाई हुई थी।</p><p>
</p><p>
फिर जुलाई के
आखिरी हफ्ते में ठाकरे को भाजपा की राष्ट्रीय कार्यकारिणी की बैठक में समापन
भाषण का सम्मान मिला। पर्यवेक्षकों को इस बात की हैरानी थी कि गुजरात के
भाजपा विधायकों और मंत्रियों का इंटरव्यू ठाकरे ले रहे थे, न कि
कृष्णमूर्ति। इन्हीं घटनाओं से पता चलता है कि भाजपा में ठाकरे का कद ऊंचा हो
रहा है।</p>

<p>फारूक के आंसुओं का आम कश्मीरियों पर असर नहीं

</p>

<p>दिल्ली ब्यूरो </p>

<p>बुधवार को कश्मीर विधानसभा में
मुख्यमंत्री फारूक अब्दुल्ला इतने आंसू बहाने के बाद भी आम कश्मीरियों का दिल
जीतने में नाकाम ही रहे। लोगों ने फारूक के इस भावुक संबोधन को
उनका एक नया ड्रामा ही करार दिया।</p><p>
</p><p>
श्रीनगर से दिल्ली
पहुंच रही जानकारियों पर विश्वास किया जाए तो शायद ही जम्मू कश्मीर में कोई ऐसा
व्यक्ति हो, जिसे विधानसभा पर हुए इस फिदायीन हमले के पीछे जैश ए मोहम्मद या
किसी अन्य आतंकवादी संगठन के हाथ होने पर विश्वास हो। लोगों के अनुसार यह
हमला फरवरी 1999 में बिल क्लिंटन के भारत दौरे के समय हुए चट्टीसिंहपोरा हत्याकांड
जैसा ही है। उनके अनुसार तब क्लिंटन भारत दौरे पर थे और अब अंतर यह है कि</p><p>
विदेेशमंत्री
जसवंत सिंह अमेरिका दौरे पर हैं।</p><p>
</p><p>
यह भी माना जा
रहा है कि इस दुखद घटना पर अमेरिका तथा ब्रिटेन द्वारा अपनाए जा रहे ठंडे रवैये के
कारण भी राजग सरकार चिंतित हो उठी है। हालांकि अमेरिकी रक्षा सचिव कोलिन
पावेल ने भारत को आश्वासन दिया है कि आतंकवाद के खिलाफ उनकी लड़ाई केवल
ओसामा बिन लादेन तक ही सीमित नहीं है। </p><p>
</p><p>
अमेरिका अन्य
आतंकवादी संगठनों के खिलाफ भी वैसी ही कार्रवाई करेगा। आज शाम को
भारत पहुंच रहे ब्रिटेन के प्रधानमंत्री टोनी ब्लेयर के इस मुद्दे पर क्या विचार
होंगे, इस बारे में भी विदेश मंत्रालय को अभी तक कुछ भी अंदाजा नहीं है।</p><p>
</p><p>
विदेश मंत्रालय
के सूत्रों नेे संभावना जताई कि ब्लेयर सीमा पार से चल रहे इस छद्म युद्ध पर अपनी
चिंता व्यक्त करेंगे, लेकिन वे भारत से यह आग्रह भी कर सकते हैं कि वह इस समय इस
मुद्दे को प्रमुखता से न उठाए। सूत्रों के अनुसार अमेरिका हालांकि भारत तथा
पाकिस्तान से मदद की अपेक्षा रख रहा है, लेकिन वह भारत से लादेन के खिलाफ उसके
युद्ध में सक्रिय रूप से भाग लेने के लिए नहीं कहेगा। अमेरिका के ऐसा करने से
भारत घरेलू</p><p>
मोर्चे पर किसी
विवाद की स्थिति से बच जाएगा।</p><p>
</p><p>
सूत्रों ने
आशंका जताई कि चूंकि ब्लेयर इस्लामाबाद होते हुए भारत आ रहे हैं इसलिए उनके
साथ कई पूर्वाग्रह भी हो सकते हैं। इस बात की पूरी संभावना है कि कश्मीर में
हुए हमले से पाकिस्तान खुद को ब्लेयर के सामने अलग बताने से नहीं चूकेगा।
पाकिस्तान पहले ही कह चुका है कि बुधवार रात विमान अपहरण का जो नाटक
हुआ था, वह भारत ने उसे फंसाने के लिए रचा था।</p><p>
</p><p>
सूत्रों के
अनुसार भारत को दूसरे देशों को इस बात का विश्वास दिलाने में काफी दिक्कतें
आएंगी कि श्रीनगर विधानसभा पर हुए हमलों के पीछे जैश ए मोहम्मद का हाथ
था। इसके पीछे कारण यह है कि हमले के चंद ही मिनटों के भीतर सुरक्षा बलों ने
यह घोषित कर दिया था कि इसके पीछे पाकिस्तान स्थित इस संगठन का हाथ है।</p><p>
</p><p>
इस बात पर
अविश्वास करने का एक कारण यह भी हो सकता है कि सुरक्षा बलों ने हमले में
टुकड़े-टुकड़े हो चुके आत्मघाती हमलावर का संबंध जैश ए मोहम्मद से बताने
में भी काफी जल्दबाजी दिखाई। सूत्रों ने आशंका जताई कि पाकिस्तान इस प्रकार
की बातों का प्रयोग भारत को गलत साबित करने के लिए कर सकता है।</p><p>
</p><p>
इस बीच गृह
मंत्रालय के हलको में आम कश्मीरियों द्वारा की जा रही फारूक की शिकायतों की भी
चर्चा है। श्रीनगर से बुधवार को लौटी गृह मंत्रालय की टीम को कश्मीरी
नागरिकों ने बताया कि जब विधानसभा पर हमला हुआ तब फारूक गोल्फ खेल रहे
थे। हमले की खबर मिलने के बाद भी फारूक गोल्फ खेलते रहे। इसके बाद शाम
को वे अपने एक मित्र के आवास पर डिनर के लिए भी गए।</p><p>
</p><p>
लोगों के
अनुसार बुधवार ही एक ऐसा दिन था जब फारूक ने भावुक होकर विधानसभा
में इस हमले पर दुख प्रकट किया। फारूक के भावुक भाषण के समय विधानसभा
के बाहर प्रदर्शन कर रहे विधानसभा स्टाफ का भी यही कहना था कि वे निश्चित
रूप से नाटक कर रहे हैं। उनके इन आंसुओं में कोई सधााई नहीं है।</p>

<p>हमले इसराइल, रूस या भारत ने कराए- ओसामा</p>

<p> </p>

<p>अमेरिका में आतंकवादी हमलों के मुख्य
संदिग्ध ओसामा बिन लादेन ने हमलों में हाथ होने से इंकार करते हुए कहा
है कि ये हमले इस्लाम और ईसाई धर्म के दुश्मनों की सुनियोजित चाल हो
सकते हैं। उसने कहा कि इसराइल, रूस, भारत और सर्बिया जैसे देश भी अपने-अपने
धर्मो और संस्कृतियों के विस्तार के लिए अमेरिका मंे हमले करवा सकते
हैं।</p><p>
</p><p>
</p><p>
पाकिस्तान के
एक सप्ताहिक 'तकबीर' को अफगानिस्तान के किसी दूर दराज के इलाके से दिए
साक्षात्कार में ओसामा ने कहा कि न्यूयार्क और वाशिंगटन में हुए हमलों में
'अल कायदा' से जुड़े किसी संगठन का हाथ नहीं है। इन आतंकवादी हमलों में
लगभग छह हजार लोग मारे गए हैं।</p><p>
</p><p>
उसने कहा कि
इस तथ्य से किसी को इंकार नहीं हो सकता कि अमेरिकी राष्ट्रपति के पद पर
जॉर्ज डब्ल्यू बुश के चुने जाने से यहूदी खुश नहीं हैं। हो सकता है कि 11
सितंबर के हमले पीछे वही हों।</p><p>
</p><p>
ओसामा ने कहा
कि इससे कोई फर्क नहीं पड़ता कि पाकिस्तान में कौन सत्तासीन है। तथ्य यह
है कि पाकिस्तान इस्लाम का एक किला और एक पाक जगह है। उसने कहा कि यदि
दो या तीन इस्लामी देश और साथ आ जाएं तो पश्चिम का आधिपत्य समाप्त हो जाएगा।(रायटर)

</p>

<p>ताजा सूची में भी कश्मीर के आतंकवादी संगठन
नहीं</p>

<p>आतंकवाद के खिलाफ जारी अमेरिका की मुहिम
के सिलसिले में विदेशी आतंकवादी संगठनों की शनिवार को जारी उसकी ताजा सूची
में जम्मू-कश्मीर में सक्रिय किसी भी आतंकवादी संगठन का नाम शमिल नहीं है। </p><p>
</p><p>
सूची में
ओसामा बिन लादेन के अल कायदा, फलस्तीनी संगठन हमास और श्रीलंका में पृथक
तमिल ईलम की मांग कर रहे लिबरेशन टाइगर्स आफ तमिल ईलम (लिट्टे) समेत 25
संगठनों के नाम हंै।</p><p>
</p><p>
विदेश मंत्री
कोलिन पावेल ने कल यह सूची जारी की, जिसमें 25 संगठनों को विदेशी
आतंकवादी संगठन घोषित किया गया। </p><p>
</p><p>
पावेल ने सूची
जारी करते हुए कहा कि इन संगठनों को विदेशी आतंकवादी संगठन का दर्जा देने
और संघीय रजिस्टर में इनका नाम प्रकाशित करने के साथ ही हम आतंकवाद
निरोधी और प्रभावकारी मत्युदंड कानून के प्रावधानों के तहत इनके
विरूद्ध कार्रवाई शुरू करेंगे। उन्होंने कहा कि इस सूची में शामिल हर
संगठन दो वर्षों से अधिक समय से आतंकवादी गतिविधियों में लिप्त
है।</p><p>
</p><p>
सूची में शामिल
कुछ आतंकवादी संगठनों के नाम हैं हरकत-उल-मुजाहिदीन, अल जिहाद, अल कायदा,
हमास, हिजबुल्लाह, अबु सयाफ समूह, अबु निदाल संगठन, सशस्त्र इस्लामिक समूह गामा की
अल इस्लामिया, कहाने चाई, कुर्दिस्तान वर्कर्स पार्टी, मुजाहिदीन खल्क संगठन, नेशनल
लिबरेशन आर्मी, फिलिस्तीन इस्लामिक जिहाद- शककी धड़ा, फिलिस्तीन लिबरेशन
फ्रंट- अबु अब्बास धड़ा आदि।</p>

<p>नेपाल में 34 पुलिसवाले मुक्त</p>

<p> </p>

<p>नेपाल में भूमिगत माओवादियोंं ने होलेरी
और रकुमकोर से अपहरण किए गए 34 पुलिसकर्मियों को मुक्त कर दिया है।</p><p>
</p><p>
अधिकारियों
के मुताबिक पुलिसकर्मियों को रकुम जिले में आयोजित अलग-अलग समारोहों में
अंतरराष्ट्रीय रेडक्रास के प्रतिनिधियोंं और स्थानीय पत्रकारों को सौंप
दिया गया।</p><p>
</p><p>
माओवादियों
ने गत एक अप्रैल को रकुमकोट पुलिस चौकी से 26 पुलिसकर्मियों और गत 12 जुलाई
को होलेरी चौकी से आठ पुलिसकर्मियों का अपहरण कर लिया था।</p><p>
</p><p>
नेपाल के
विभिन्न भागों से माओवादियों ने 71 पुलिसकर्मियों सहित कुल 188 लोगों का
अपहरण किया है और अब तक उन्होंने 56 पुलिसकर्मियों तथा सत्ताधारी नेपाली
कांग्रेस के एक संसद को रिहा किया है।</p><p>
</p><p>
देश में 1996 से
शुरू हुए माओवादी उग्रवाद में अब तक 1750 से जयादा लोग मारे गए हैं। समस्या के
समाधान के लिए माओवादियों पर सरकार के बीच अगले सप्ताह तीसरे दौर की
वार्ता होने वाली है।(वार्ता)

</p>

<p>अमेरिका धमकाना बंद करे तो राहतकर्मियों को छोड़ देंगे-
अफगान</p>

<p> </p>

<p>अफगान सरकार ने कहा है कि यदि अमेरिका उसे हमले का डर दिखाना
बंद कर दे तो ईसाइयत का प्रचार करने के आरोप में गिरफ्तार आठ राहतकर्मियों
को रिहा करने पर विचार कर सकता है।</p><p>
</p><p>
एआईपी ने
अफगानी विदेश मंत्रालय की एक विज्ञप्ति के हवाले से बताया कि अमेरिका यदि
अफगान जनता के दुखदर्द को खत्म करे और धमकाना छोड़े तो अफगानिस्तान
आठों विदेशियों को रिहा करने के कदम उठाएगा।</p><p>
</p><p>
रायटर ने
अफगानी विदेश मंत्रालय के सूत्रों के हवाले से बताया कि इस तरह के समझौते
संभव हैं।</p><p>
</p><p>
इन विदेशियों
को अगस्त मे गिरफ्तार किया गया था। इन पर इसाई धर्म का प्रचार करने का
आरोप है किंतु आरोपियों ने आरोप का खंडन किया है। </p><p>
रायटर</p>

<p> </p>

<p>पाकिस्तान को व्यापारिक लाभ भी देगा अमेरिका</p>

<p> </p>

<p>अंतरराष्ट्रीय आतंकवादी सरगना और अमेरिका में आतंकवादी हमलों
के मुख्य संदिग्ध ओसामा बिन लादेन को धर दबोचने के लिए बुश प्रशासन
पाकिस्तान और अन्य प्रमुख सहयोगियों को व्यापारिक लाभ देने की तैयारी कर रहा
है।</p><p>
</p><p>
अमेरिकी
कांग्रेस के सूत्रों ने कल यहां बताया कि पाकिस्तान तथा अन्य सहयोगी देशों के
विशेषकर वस्त्र उद्योग और संबंधित उद्योगों की अमेरिकी बाजार में पहुंच
की बाधाएं हटा ली जाएगी। उन्होंने बताया कि इन बाधाओं को हटाने
के लिए कांग्रेस के अनुमोदन की आवश्यकता नहीं है।</p><p>
</p><p>
सूत्रों ने
बताया कि पाकिस्तान को व्यापारिक लाभ देने की घोषणा आने वाले सप्ताहों में
किए जाने की संभावना है। उन्होंने बताया कि इसी तरह का लाभ तुर्की को भी
दिया जाना है। हालांकि व्हाईट हाऊस ने इस तैयारी पर कोई टिप्पणी नहीं की
है।</p><p>
</p><p>
आतंकवादी
हमलों के खिलाफ अमेरिका के अभियान का समर्थन करने की एवज में पाकिस्तान
को पहले भी करोड़ों डॉलर का लाभ मिल चुका है और कई तरह के
प्रतिबंध हट चुके है। </p><p>
</p><p>
नई घोषणा के
अनुसार पाकिस्तान को अभी 60 करोड़ अमेरिकी डॉलर की आर्थिक सहायता दी जानी
है। इनमें वस्त्र उद्योगों पर से बाधाएं हटाना भी शामिल है।</p><p>
</p><p>
पाकिस्तान के
उत्पादकों ने कहा है कि अमेरिका में आतंकवादी हमलों के बाद से चमड़ा, वस्त्र
और कालीन उद्योग में 40 प्रतिशत से ज्यादा गिरावट दर्ज की गई है।</p><p>
</p><p>
कांग्रेस के
सूत्रों ने बताया कि ऐसी ही सहायता तुर्की के लिए भी दिए जाने पर विचार किया जा
रहा है। उत्तरी अटलांटिक संधि संगठन (नाटो) में तुर्की एकमात्र मुस्लिम
सदस्य देश है। </p><p>
</p><p>
तुर्की ने
आतंकवाद के खिलाफ लड़ाई में अमेरिका के लड़ाकू विमानों को हवाई अड्डा
उपलब्ध कराने और पूर्ण सहयोग देने के लिए सहमति व्यक्त की है।</p>

<p> </p>

<p>तालिबान की तोपों की अज्ञात विमानों पर गोलाबारी</p>

<p> </p>

<p>अफगानिस्तान की राजधानी काबुल में तालिबान की विमानभेदी
तोपों ने आज आकाश में दो लक्ष्यों की ओर गोलाबारी की।</p><p>
</p><p>
तालिबान के रक्षा
मंत्रालय के एक अधिकारी ने कहा कि उसकी सेना एक अज्ञात विमान को
गिराने की कोशिश कर रही है।</p><p>
</p><p>
एक प्रत्यक्षदर्शी ने
कहा कि विमानभेदी तोपों से कई मिनट तक गोलीबारी की गई। एक लक्ष्य तेजी
से लापता हो गया और दूसरा काबुल के ऊपर चक्कर काट रहा था।</p><p>
</p><p>
अधिकारी
ने कहा कि एक विमान बहुत ऊंचाई पर चक्कर काट रहा है और उसे गिराने की
कोशिश की जा रही है। अधिकारी ने कहा कि यह विमान कैसा और किस
देश का है इस बारे में उसके पास कोई जानकारी नहीं है।</p><p>
रायटर</p>

<p> </p>

<p>संयुक्त राष्ट्र के बकाये के भुगतान को अमेरिका राजी</p>

<p> </p>

<p>अमेरिका के राष्ट्रपति जार्ज डब्ल्यू बुश ने संयुक्त
राष्ट्र के पिछले कई वर्षों के बकाये के भुगतान के मसौदे का औपचारिक
तौर पर अनुमोदन कर दिया है। </p><p>
</p><p>
कांग्रेस ने
संयुक्त राष्ट्र को 58 करोड़ 20 लाख अमेरिकी डालर भुगतान करने का अनुमोदन
सितंबर माह के अंत में कर दिया था। इससे पहले संयुक्त राष्ट्र ने आतंकवाद के
खिलाफ कार्रवाई के लिए सहायता की मांग की थी। इस भुगतान के बाद भी
अमेरिका पर संयुक्त राष्ट्र के 25 करोड़ डालर बाकी रह जाएंगे।</p><p>
</p><p>
पिछले कुछ
वर्षों से कांग्रेस यह भुगतान करने से इंकार करती रही है। उसका दावा है कि
संयुक्त राष्ट्र में व्यापक सुधार की जरूरत है। कांग्रेस का यह भी तर्क है
कि अमेरिका का संयुक्त राष्ट्र को दिया जाने वाला भुगतान अधिक है। </p><p>
</p><p>
बुश ने भुगतान
मसौदे पर हस्ताक्षर करते हुए कहा कि भुगतान करने से संयुक्त राष्ट्र और अमेरिका
के संबंध और मजबूत होंगे।</p>

<p>रक्षा प्रक्षेपास्त्र परीक्षण योजना अब वरीयता पर नहीं</p>

<p> </p>

<p>आतंकवाद के खिलाफ अभियान में अमेरिका और रूस में गठजोड़ होने
से अब रक्षा प्रक्षेपास्त्र परीक्षण योजना, अमेरिका की रक्षा योजनाओं में शीर्ष
वरीयता पर नहीं है। </p><p>
</p><p>
अमेरिकी रक्षा
मुख्यालय पेंटागन के सचिव डोव जखाइम ने आज यहां कहा- आप अंदाजा लगा सकते हैं
कि रक्षा मंत्रालय की चर्चाओं में रक्षा प्रक्षेपास्त्र परीक्षण योजना नंबर एक पर
नहीं है। उन्होंने कहा कि प्रक्षेपास्त्र सुरक्षा के संबंध में रूप के साथ
अमेरिका के रिश्ते बदल रहे हैं।</p><p>
</p><p>
पेंटागन ने कल
यहां बताया था कि जमीन पर से प्रक्षेपास्त्र छोड़ने के उपकरण का अगला परीक्षण टल
रहा है। उन्होंने कहा कि हालांकि इससे 11 सितंबर को हुए आतंकवादी हमलों
का कोई लेना देना नहीं है। </p><p>
</p><p>
न्यूयार्क और
वाशिंगटन में हुए आतंकवादी हमलों से पहले अमेरिका की एंटी बैलेस्टिक मिसाइल
संधि 1972 का उल्लंघन करते हुए परीक्षण करने की योजना थी।</p>

<p> </p>

<p>लादेन के खिलाफ पर्याप्त सबूत- पाकिस्तान</p>

<p> </p>

<p>पाकिस्तान के राष्ट्रपति जनरल परवेज मुशर्रफ ने कहा है कि वह और
उनकी सरकार ये मानते हैं कि अमेरिका में हुए आतंंंकवादी हवाई हमलों में
भगोड़े आतंकवादी ओसामा बिन लादेन के हाथ होने के पर्याप्त प्रमाण हैं। </p><p>
</p><p>
जनरल मुशर्रफ ने
ब्रिटेन के प्रधानमंत्री टोनी ब्लेयर से वार्ता के बाद कल पत्रकारों से कहा-
मैं और मेरी सरकार यह महसूस करते हैं कि 11 सितंबर को न्यूयार्क और
वाशिंगटन पर हुए हमलों में ओसामा बिन लादेन का हाथ होने के प्रमाण हैं।</p><p>
</p><p>
हालांकि जनरल
मुशर्रफ ने कहा- हम इन प्रमाणों के आधार पर कोई फैसला नहीं ले रहे
हैं, लेकिन अफगानिस्तान में हो रही घटनाओं और उसके भविष्य के प्रति दोनों
देश चिन्तित हैं।</p>

<p> </p>

<p>भारत के उच्चायुक्त खालिदा जिया से मिले

</p>

<p>- वेबदुुनिया
ब्यूरो </p>

<p>गत दिवस भारत के उच्चायुक्त एम.एल.त्रिपाठी ने
बांग्लादेश नेशनलिस्ट पार्टी (बीएनपी) कीप्रमुख बेगम खालिदा जिया से उनके हवा भवन
आवास पर भेंट की।</p><p>
</p><p>
भारत के
अलावापाकिस्तान, नेपाल और थाईलैंड के प्रतिनिधियों ने भी खालिदा जिया के
साथ मुलाकात कर चुनाव में उनकी सफलता पर उन्हें बधाई दी। </p><p>
 </p><p>
बीएनपी की प्रमुख खालिदा जिया ने भारत के उच्चायुक्त त्रिपाठी के अलावा पाकिस्तान
के उच्चायुक्त इकबाल अहमद खान, थाई राजदूत पीथाया कूकामेन और नेपाली राजदूत
मधुरमन आचार्य से कहा कि वे सभी देशों कीसरकारों को धन्यवाद देती
हैं।</p><p>
</p><p>
उनका कहना था कि उन्हें आशा है कि आने वाले समय मेंइन देशों के साथ
बांग्लादेश के संबंध अच्छे होंगे।</p><p>
</p><p>
बांग्लादेश में राष्ट्रपति पद को लेकर भी अटकलें लगाई जा रही हैंकि देश का
आगामी राष्ट्रपति कौन होगा? वर्तमान राष्ट्रपति शाहबुद्दीन अहमद का पांच वर्षीय कार्यकाल
8 अक्टूबर को समाप्त होने वाला है।</p><p>
</p><p>
हालांकि वेतब तक अपने पद पर बने रह सकते हैं, जब तक कि उनका
उत्तराधिकारी पद नहीं संभाल लेता।31 वर्षीय अहमद नेपद से निवृत्त होने
की इच्छा व्यक्त की है। </p><p>
</p><p>
बीएनपी में प्रोफेसर डॉ. बदरुद्दोजा चौधरी, पूर्व न्यायाधीश मुश्तफा कमाल
और वयोवृद्ध वकील खोंडाकर मेहबूद्दीन इस पद के दावेदार हैं। पर संभावना है कि
72 वर्षीय डॉ. बदरुद्दोजा चौधरी को पार्टी राष्ट्रपति पद के लिए उम्मीदवार
बनाए।</p>

<p>अमेरिका की नई सूची में लश्कर और जैश?

</p>

<p>- वेबदुनिया
ब्यूरो </p>

<p>भारतीय उपमहाद्वीप में आतंकवाद के खिलाफ अपनी
कार्रवाई के तहत बुश प्रशासन जल्दी ही विदेशी उग्रवादी संगठनों की सूची जारी
करेगा, जिन पर प्रतिबंध लगाया जाएगा।</p><p>
</p><p>
इस सूची में
जम्मू-कश्मीर में सक्रिय आतंकवादी संगठनों लश्कर-ए-तोएबा और जैश-ए-मोहम्मद का
नाम भी हो सकता है। अगले कुछेक दिनों में राष्ट्रपति कार्यालय की ओर से एक
आदेश जारी किया जाएगा, जिसमें इन संगठनों के खिलाफ वित्तीय कार्रवाई किए जाने
की भी सिफारिश की जाएगी।</p><p>
</p><p>
उल्लेखनीय है कि
अमेरिकी विदेश विभाग की ओर से भी एक सूची जारी की जाएगी, जिसमें आतंकवादी
संगठनों के नाम होंगे।</p><p>
</p><p>
राष्ट्रपति
कार्यालय की ओर से जारी होने वाली सूची लंबी भी हो सकती है। पिछले दो
सप्ताहों से भारतीय राजनयिक और अधिकारी अमेरिकी प्रशासन को यह समझाने का
प्रयास कर रहे थे कि ओसामा बिन लादेन के अल-कायदा के तार जम्मू-कश्मीर में
सक्रिय उग्रवादी संगठनों से भी जुड़े हुए हैं।</p><p>
</p><p>
भारतीय
विदेशमंत्री जसवंतसिंह और प्रधानमंत्री के प्रधान सचिव व राष्ट्रीय सुरक्षा
सलाहकार ब्रजेश मिश्र ने अमेरिकी अधिकारियों से कहा कि इन संगठनों को
पाकिस्तान सरकार की ओर से सहायता और समर्थन मिलता है।</p><p>
</p><p>
अमेरिका के
विदेश विभाग ने पिछले वर्ष जो सूची जारी की थी, उसमें लश्कर-ए-तोएबा का नाम
शामिल था, लेकिन क्लिंटन प्रशासन के एक वरिष्ठ अधिकारी के हस्तक्षेप के कारण
ऐसा संभव नहीं हो सका था।</p>

<p>अमेरिकी ठिकानों पर भारी हमलों की आशंका</p>

<p> </p>

<p>अमेरिका के खुफिया अधिकारियों ने अमेरिकी कांग्रेस के
सदस्यों को चेतावनी दी है कि ओसामा बिन लादेन से जुड़े आतंकवादी निकट भविष्य
में घरेलू या विदेशी अमेरिकी ठिकानों पर भारी हमला कर सकते हैं। </p><p>
</p><p>
वॉशिंगटन पोस्ट
के मुताबिक संघीय जांच ब्यूरो, सीआईए और रक्षा विभाग के खुफिया
अधिकारियों ने एक विशेष बैठक में यह सूचना दी। उन्होंने इसे विश्वसनीय
खबरों के आधार पर दी गई सूचना बताया है। </p><p>
</p><p>
एक
अधिकारी ने कहा कि अमेरिका में हमले के दोषी ओसामा को नहीं सौंपने
की वजह से अमेरिका अगर अफगानिस्तान पर हमला करता है तो अमेरिका पर हमले की
सौ प्रतिशत आशंका है। अखबार ने एक वरिष्ठ अधिकारी के हवाले से कहा कि
नई सूचनाओं में से कुछ तो काफी हद तक सही हैं, लेकिन अधिकारी ने यह
आशंका भी जताई कि अमेरिका की जवाबी कार्रवाई रोकने के लिए यह झूठी सूचना
भी हो सकती है। </p><p>
</p><p>
नई सूचनाएं
इंग्लैंड, जर्मनी, अफगानिस्तान और पाकिस्तान के सूत्रों के जरिए मिली हैं।
अधिकारियों का मानना है कि ओसामा के संगठन अल कायदा के मिঃ्र, सोमाली
और पाकिस्तानी क्षेत्रों के तत्व इसमें शामिल हो सकते हैं। (रायटर)</p>

<p> </p>

<p>न्यूयॉर्क व कश्मीर के आतंकवाद में अंतर करना ठीक नहीं</p>

<p> </p>

<p>जर्मनी ने कहा है कि आतंकवादी कृत्य न्यूयॉर्क में हो या कश्मीर
में, दोनों में कोई अंतर नहीं है। वह दोनों की समान रूप से निंदा करता है।</p><p>
</p><p>
उक्त विचार जर्मनी
के चांसलर श्रोएडर ने भारत के विदेश मंत्री के साथ चर्चा में व्यक्त किए। दोनों
नेताओं के बीच तीस मिनट तक चर्चा हुई। इस दौरान 11 सितंबर को अमेरिका में
आतंकवादी हमले के बाद की स्थिति पर विचार किया गया। दोनों नेताओं ने यह
महसूस किया कि आतंकवाद का वैश्वीकरण हो चुका है।</p><p>
</p><p>
भारतीय प्रवक्ता ने
बताया कि दोनों नेताओं के बीच बातचीत बढ़िया और सकारात्मक रही। दोनों
ने अफगानिस्तान में तालिबान सरकार के पतन की स्थिति में वहां अगली सरकार के गठन
के बारे में चर्चा की। श्रोएडर ने प्रधानमंत्री अटलबिहारी वाजपेयी के भेजे गए
भारत यात्रा के निमंत्रण को स्वीकार कर लिया। </p><p>
</p><p>
सिंह की जर्मनी
के विदेश मंत्री फिस्चर से विभिन्न मुद्दों पर व्यापक चर्चा हुई। दोनों नेताओं ने
आतंकवाद से निपटने के लिए एक विश्वव्यापी गठबंधन बनाने पर चर्चा की। सिंह
ने कहा कि आतंकवाद के खिलाफ संघर्ष केवल एक आयामी नहीं होना चाहिए।
अच्छा या बुरा आतंकवाद नहीं होता है। आतंकवाद, आतंकवाद होता है।</p>

<p> </p>

<p>खालिदा जिया सोमवार को शपथ लेंगी</p>

<p> </p>

<p>बांग्लादेश के चुनाव आयोग ने बांग्लादेश नेशनलिस्ट पार्टी (बीएनपी)
को आम चुनाव में औपचारिक रूप से विजयी घोषित कर दिया। बेगम खालिदा जिया
सोमवार को प्रधानमंत्री पद की शपथ लेंगी। </p><p>
</p><p>
बीएनपी ने
घोषित 283 सीटों में से 183 हासिल की हैं। उसे 300 सदस्यीय संसद में आसानी से
बहुमत मिल गया है। उसकी सहयोगी कट्टरपंथी जमाते इस्लामी को 16 सीटें मिली
हैं। सोलह सीटों पर 8 अक्टूबर को पुनर्मतदान होगा। हिंसा के कारण वहां
मतदान रोक दिया गया था। कोक्स बाजार जिले में 1 नवंबर को मतदान होगा।
वहां बीएनपी प्रत्याशी का आकस्मिक निधन हो गया था।</p><p>
</p><p>
प्रतिद्वंद्वी अवामी
लीग को केवल 63 सीटें मिल सकी हैं। पार्टी नेता एवं निवर्तमान प्रधानमंत्री
शेख हसीना ने सोमवार को हुए मतदान में धांधलियों के आरोप लगाए थे,
लेकिन आयोग ने उन्हें नामंजूर कर दिया। </p><p>
</p><p>
मुख्य चुनाव
आयुक्त एम.के. सैयद ने कल उनसे मिलने गए अवामी लीग के प्रतिनिधिमंडल से कहा
कि धांधलियों के आरोप निराधार हैं। कार्यवाहक सरकार के
प्रमुख पूर्व मुख्य न्यायाधीश न्यायमूर्ति लतीफुर रहमान ने भी शेख हसीना के
आरोपों को खारिज कर दिया।</p><p>
</p><p>
इससे पहले शेख
हसीना ने कार्यवाहक सरकार को चेतावनी दी थी कि वह 10 अक्टूबर तक चुनाव
परिणामों को रद्द कर दे अन्यथा असहयोग आंदोलन चलाया जाएगा। अवामी लीग के
नेताओं ने कहा कि वे चुनाव में बड़े पैमाने पर हुई धांधलियों के
विरोध में व्यापक प्रदर्शन की योजना बना रहे हैं। </p><p>
</p><p>
इन नेताओं ने
कहा कि मतदान के दिन तैनात सशस्त्र बलों ने सही ढंग से अपना कर्तव्य निर्वाह नहीं
किया। दूसरी ओर अंतरराष्ट्रीय पर्यवेक्षकों ने मतदान को स्वतंत्र और निष्पक्ष
बताया है। उन्होंने इस बात की सराहना की कि बड़ी संख्या में लोगों खासकर
महिलाओं ने मतदान किया।</p><p>
</p><p>
आयोग के
अनुसार मतदान 75 प्रतिशत हुआ। इस्लामिक नेशनल यूनिटी फ्रंट को चौदह सीटें
मिलीं। दो छोटे दलों ने एक-एक सीट जीती और तीन सीटें निर्दलीयों को प्राप्त
र्हुइं। (रायटर)</p>

<p> </p>

<p>बंाग्लादेश मंे बवंडर में आठ मरे, 300 जख्मी</p>

<p> </p>

<p>उत्तरी बंाग्लादेश में शुक्रवार को उठे बवंडर में आठ लोग मर गए और
300 लोग घायल हो गए।</p><p>
</p><p>
लालमेरिनहाट के
उपयुक्त मोहम्मद स्माइल ने बताया कि ढाका से 400 किलोमीटर दूर कालीगंज में बवंडर
से बांस के बने सैकड़ों मकान क्षतिग्रस्त हो गए। लगभग 5000 एकड़ में खड़ी फसल
को भी नुकसान पहुंचा।(रायटर)</p>

<p> </p>

<p> </p>

<p>पाक तालिबान की जगह दूसरी सरकार पर राजी-ब्लेयर</p>

<p> </p>

<p>ब्रिटिश प्रधानमंत्री टोनी ब्लेयर ने
शुक्रवार को कहा कि पाकिस्तान इस बात पर सहमत हो गया है कि यदि अफ्गानिस्तान
में तालिबान सरकार का पतन होता है तो वहां एक व्यापक जनाधार वाली सरकार
का गठन हो।</p><p>
</p><p>
आतंकवाद के
विरूद्ध वैश्विक लड़ाई के लिए समर्थन जुटाने के क्रम में ब्लेयर आज पाकिस्तान आए
हुए थे। यहां उन्होने घोषणा की कि पाकिस्तान को अफगानी शरणार्थियों को
समुचित सहायता उपलब्ध कराने के लिए ब्रिटेन चार करोड़ डालर की सहायता
देगा।</p><p>
</p><p>
पाकिस्तान ने इस
लड़ाई में पूरा सहयोग देने का आश्वासन दिया है।</p><p>
</p><p>
</p><p>
ब्लयेर भारत
के लिए रवाना- ब्रिटिश प्रधानमंत्री टोनी ब्लेयर पाकिस्तान से भारत रवाना हो गए
हैं। आतंकवाद के खिलाफ वैश्विक लड़ाई के प्रति समर्थन जुटाने के क्रम में
ब्लेयर गुरुवार को रूस से पाकिस्तान आए थ। (रायटर/डीपीए) </p>

<p>पाक से 1999 के बाद के प्रतिबंध हटने का रास्ता साफ</p>

<p> </p>

<p>अमेरिकी सीनेट ने 11 सितंबर को वर्ल्ड ट्रेड सेंटर पर हुए हमलों के
बाद अमेरिका-पाक संबंधों को और मजबूत करते हुए सर्वसम्मति से एक
विधेयक पारित कर 1999 के पाकिस्तानी तख्ता पलट के बाद लगाए गए अमेरिकी
प्रतिबंधों को हटाने का रास्ता साफ कर दिया।</p><p>
</p><p>
हालांकि
सीनेटरों ने कहा कि यह फैसला अस्थाई है और अगर पाकिस्तान अमेरिका को
सहायता देने से पीछे हटता है तथा लोकतंत्र की स्थापना करने में असफल रहता है तो
2004 में इन प्रतिबंधों को फिर से लगाया जा सकता है।</p><p>
</p><p>
अमेरिकी
राष्ट्रपति जार्ज डब्ल्यू बुश को प्रतिबंधों को हटाने का अधिकार दिया
गया है लेकिन ऐसा करने से कम से कम 45 दिनों पहले उन्हें सीनेट को सूचित
करना जरूरी होगा।</p><p>
</p><p>
विधेयक
में यह प्रावधान किया गया है पाकिस्तान को 30 दिन की प्रक्रियागत
समयावधि का इंतजार नहीं करना पड़ेगा और तत्काल प्रभाव से उसे सहायता जारी
की जा सकेगी। (वार्ता)</p>

<p> </p>






</body></text></cesDoc>