<cesDoc id="hin-w-dunia-news-01-02-14" lang="hin">
<cesHeader type="text">
<fileDesc>
<titleStmt>
<h.title>hin-w-dunia-news-01-02-14.txt</h.title>
<respStmt>
<respType>Electronic file created by</respType>
<respName>Department of Linguistics, Lancaster University</respName>
<respType>text collected by</respType>
<respName>Paul Baker, Celia Worth and Andrew Hardie</respName>
<respType>transferred into Unicode by</respType>
<respName>"Unicodify" software by Andrew Hardie</respName>
</respStmt>
</titleStmt>
<publicationStmt>
<distributor>UCREL</distributor>
<pubAddress>Department of Linguistics, Lancaster University, Lancaster, LA1 4YT, UK</pubAddress>
<availability region="WORLD"></availability>
<pubDate>03-08-24</pubDate>
</publicationStmt>
<sourceDesc>
<biblStruct>
<monogr>
<h.title>"Webdunia" internet news (www.webdunia.com), news stories collected on 01-02-14</h.title>
<h.author>Webdunia</h.author>
<imprint>
<pubPlace>Madhya Pradesh, India</pubPlace>
<publisher>Webdunia</publisher>
<pubDate>01-02-14</pubDate>
</imprint>
</monogr>
</biblStruct>
</sourceDesc>
</fileDesc>
<encodingDesc>
<projectDesc>Text collected for use in the EMILLE project.</projectDesc>
<samplingDesc>Simple written text only has been transcribed. Diagrams, pictures and tables have been omitted and their place marked with a gap element.
</samplingDesc>
<editorialDecl>
<conformance level="1"></conformance>
</editorialDecl>
</encodingDesc>
<profileDesc>
<creation>
<date>03-08-24</date>
</creation>
<langUsage>Hindi</langUsage>
<wsdUsage>
<writingSystem id="ISO/IEC 10646">Universal Multiple-Octet Coded Character Set (UCS).</writingSystem>
</wsdUsage>
<textClass>
<channel mode="w">print</channel>
<constitution type="composite"></constitution>
<domain type="public"></domain>
<factuality type="fact"></factuality>
</textClass>
<translations></translations>
</profileDesc>
<revisionDesc></revisionDesc>
</cesHeader>

<text>
<body>




<p>अल सल्वाडोर में भूकम्प से 127 मरे                 </p>

<p>                                                                              </p>

<p>                                      सान सल्वाडोर। अल
सल्वाडोर में मंगलवार को रिक्टर स्केल पर 6.6 की तीव्रता से आए शक्तिशाली भूकम्प
से 127 लोगों की मौत होने का समाचार है। 1200 से ज्यादा लोग घायल हो गए
हैं। रेड क्रॉस के अधिकारियों ने जानकारी दी है कि सैकड़ों लोगों
के मलबेमे फंसे होने की आशंका है।</p><p>
</p><p>
भूकम्प से अनेक
मकान, स्कूल और गिरजाघर धराशायी हो गए हैं और देश में घबराहट फैल गई
है। एक माह पहले अल सल्वाडोर में आए भीषण भूकंप से 844 लोग मारे गए थे।
सबसे ज्यादा तबाही राजधानी के पास तीन जिलों में हुई है। (वार्ता) </p>

<p>                                      </p>

<p>इंडोनेशिया के
सुमात्रा द्वीप पर भूकम्प                                                    </p>

<p>                                                                                                                                                                                                                               </p>

<p>                                                                                                               कैनबरा।
इंडोनेशिया के सुमात्रा द्वीप के दक्षिण्ी तट पर बुधवार को जबरदस्त भूकम्प
आया। रिक्टर पैमाने पर इसकी तीव्रता 7.3 आंकी गई है। यह जानकारी
ऑस्ट्रेलिया के मौसम विभाग ने दी।</p><p>
</p><p>
ऑस्ट्रेलियाई
मौसम विभाग के अधिकारियों के अनुसार इस भूकम्प से सुमात्रा के कई
शहरों और नगरों में ब़ेडे पैमाने पर नुकसान होे सकता है। समुद्र में
ज्वारभाटा भी उठ सकता है।</p><p>
</p><p>
मौसम विभाग के
अधिकारियों ने बताया कि भूकम्प भारतीय समय अनुसार देर रात 12 बजकर 58
मिनट पर सुमात्रा में महसूस किया गया। इसका केंद्र राजधानी जकार्ता से
चार सौ किलोमीटर पश्चिम की ओर महासागर में था। उल्लेखनीयय है कि भूकम्प
के केंद्र के पास वालेक्षेत्रों में घनी आबादी नहीं है। (वार्ता)</p>

<p>                                                                                                               </p>

<p>   ऑस्कर नामांकन की
लड़ाई में 'ग्लेडिएटर' सबसे आगे                       </p>

<p>                                                                                                                   </p>

<p>   हॉलीवुड। 73वें
अकादमी पुरस्कारों के नामांकन की दौड़ में रिडली स्कॉट की भव्य फिल्म
'ग्लेडिएटर' सबसे आगे है। उसे 12 वर्गों में नामांकित किया गया जिनमें सर्व श्रेष्ठ
फिल्म का वर्ग भी शामिल है।</p><p>
</p><p>
सर्वश्रेष्ठ फिल्म
के दावेदारों में 'ट्राफिक', 'चॉकोेलेट', 'एरिन ब्रॉकोविच', 'क्राउचिंग
टाइगर' और 'हिडन ड्रेगन' को शामिल किया गया है। सर्वश्रेष्ठ निर्देशक के
दावेदार स्टीवन सॉडरवर्ग की दो फिल्में 'ट्राफिक' और 'एरिन ब्राकोविच' दौड़
में शामिल हैं।</p><p>
</p><p>
यह एक असामान्य
बात है। उल्लेखनीय है कि ऑस्कर पुरस्कारों की घोषणा 25 मार्च को एक
समारोह में होगी जिसका संचालन हास्य अभिनेता स्टीव मार्टिन करेंगे।</p><p>
</p><p>
स्टीफन डाल्ड्री
की अपनी पहली फिल्म 'बिल इलियट' को सर्वश्रेष्ठ फिल्म वर्ग में शामिल नहीं किया जा
सका। 'एरिन ब्राकोविच' के लिए जूलिया रॉबर्ट्स सर्वश्रेष्ठ अभिनेत्री के ऑस्कर
की दावेदार हंै।</p><p>
</p><p>
ताइवान के
निर्देशक आंग ली की 'क्राउचिंग टाइगर', 'हिडन ड्रेगन' को भी सर्वश्रेष्ठ फिल्म के
लिए नामांकित किया गया है। इन फिल्मों को दस वर्गों में नामांकन मिला है पर
इनमें अभिनय के पुरस्कार शामिल नहीं हैं।</p><p>
</p><p>
सर्वश्रेष्ठ विदेशी
फिल्म वर्ग में भारत की प्रस्तुति-कमल हासन की 'हे राम'-को नामांकित नहीं किया
गया है। जबकि भारत में जन्मे तरसेम की पहली फीचर फिल्म 'द सेल' को सर्वश्रेष्ठ
मेकअप के लिए नामांकित किया गया है।</p><p>
</p><p>
स्वीडिश फिल्म
निर्देशक लास हालस्ट्रॉम की 'चॉकोलेट' को पाँच वर्गों में नामांकन मिला है।
'कास्ट अवे' में अपनी भूमिका के लिए टाम हैंक्स और 'क्विल्स' के लिए जेफ्री रश
सर्वश्रेष्ठ अभिनेता के दावेदार हैं। </p>

<p>   </p>

<p>मणिपुर में कोइजाम के
नेतृत्व में नई सरकार संभव                              </p>

<p>                                                                                                                                                                                                                               </p>

<p>                                                                                                               इम्फाल। मणिपुर में
तीन माह से चला आ रहा संवैधानिक संकट मंगलवार को मुख्यमंत्री निपामाचासिंह
के इस्तीफे के साथ समाप्त हुआ।</p><p>
</p><p>
इसके साथ ही
समता पार्टी के राधाविनोद कोइजाम के नेतृत्व में नई सरकार के गठन का
मार्ग प्रशस्त हो गया। राजभवन के सूत्रों ने कहा कि राज्यपाल ने सिंह का इस्तीफा
स्वीकार कर लिया है, लेकिन उनसे वैकल्पिक व्यवस्था होने तक पद पर बने रहने का
अनुरोध कियाहै।</p><p>
</p><p>
नई सरकार के
गठन के बारे में घोषणा बुधवार को की जा सकती है। आधिकारिक
सूत्रों के अनुसार यूनाइटेड डेमोक्रेटिक एलायंस के नेता कोइजाम ने नई सरकार
बनाने का दावा किया है।</p><p>
</p><p>
इस बीच यहाँ आए
हुए समता पार्टी के राष्ट्रीय सचिव शंभू श्रीवास्तव ने पत्रकारों को बताया कि उन्होंने
भारतीय जनता पार्टी से भी नए मंत्रिमंडल में शामिल होने का अनुरोध किया
है।</p><p>
</p><p>
वरिष्ठ समता नेता
राधाविनोद कोइजाम 38 विधायकों के इस गठबंधन के नेता चुने गए
हैं। मुख्यमंत्री निपामाचासिंह ने इस्तीफा दे दिया है। इन विधायकों की
बैठक कल दो घंटे तक चली। एक निर्दलीय विधायक भी बैठक में मौजूद
था। बैठक के बाद दावा किया गया कि 59सदस्यों वाली विधानसभा में इस गुट
के 39 समर्थक हैं।</p><p>
</p><p>
मणिपुर राज्य
कांग्रेस पार्टी के 22, मणिपुर संघीय पार्टी के 4, समता पार्टी के 12 तथा निर्दलीय
11 मराकांपा तथा मसंपा इससे पूर्व भी सत्तारूढ़ गठबंधन में थे। बैठक में
मुख्यमंत्री निपामाचासिंह भी मौजूद थे। यह बैठक समता नेता कोइजाम के निवास पर
हुई।</p><p>
</p><p>
समता पार्टी के
राष्ट्रीय महासचिव शंभू श्रीवास्तव ने भी बैठक में भाग लिया। श्रीवास्तव ने राज्यपाल वेद
मरवाह से मुलाकात कर उन्हें स्थिति से अवगत करा दिया है। मुख्यमंत्री के इस्तीफा
देते ही कोइजाम ने सरकार बनाने का दावा पेश कर दिया है।</p><p>
</p><p>
सूत्रों के
अनुसार वर्तमान संकट के मद्देनजर संयुक्त लोकतांत्रिक मोर्चे ने कोइजाम को
मुख्यमंत्री के पद का प्रस्ताव किया था। विपक्षी गठबंधन में नेता के प्रश्न पर
विवाद चल रहा था। समता पार्टी और भाजपा दोनों चाहते थे कि उनका व्यक्ति नेता
बने। इसका लाभ निपामाचा सिंह ने उठाया और समता पार्टी को अपने खेमे में कर
लिया।</p>

<p>                                                                                                               </p>

<p>बेटा पैदा न होने पर
दुधमुंही बेटियों की हत्या                                       </p>

<p>                                                                                                                                                                                                                               </p>

<p>                                                                                                               इस्लामाबाद।
पाकिस्तान में एक व्यक्ति नेे बेटा पैदा नहीं होने के कारण क्रोधित होकर
अपनी तीन दुधमुंही बेटियों की गोली मारकर हत्या कर दी। यह जानकारी
सरकारी संवाद समिति एपीपी ने दी।</p><p>
</p><p>
एजेंसी ने पुलिस
के हवाले से मंगलवार को खबर दी कि लाहौर के फर्मायश अली ने बच्चियों को
नशीला पदार्थ खिलाने के बाद उनकी गोली मारकर हत्या कर दी। उस समय बच्चियां
अपनी मां के साथ सो रही थीं।</p><p>
</p><p>
अली की सबसे
छोटी बच्ची शहरिश सिर्फ 20 दिनों की थी। दूसरी बेटी आलिया 18 महीने तथा सबसे
बड़ी बच्ची महविश की उम्र 3 साल थी।</p><p>
</p><p>
एजेंसी के
अनुसार अली के खिलाफ हत्या का मामला दर्ज कर लिया गया है, लेकिन उसे गिरफ्तार
किया गया है अथवा नहीं, इस बारे में अभी तक कोई जानकारी नहीं मिल सकी।
(वार्ता )  </p>

<p> </p>

<p>अल सल्वाडोरः
भूकम्प में मृतकों की संख्या 170                               </p>

<p>                                                                                                                                                                                                                               </p>

<p>                                                                                                               सान सल्वाडोर। अल
सल्वाडोर मंे मंगलवार को आए विनाशकारी भूकम्प में कम से कम 170 व्यक्तियों
की मौत हो गई है और 1500 से ज्यादा लोग घायल हुए हैं ।</p><p>
</p><p>
अनेक मकान,
स्कूलों तथा गिरजाघरों की इमारतें ध्वस्त हो गई हैं। रिक्टर पैमाने पर 6.6
की तीव्रता पर आए इस भूकम्प से एक महीना पहले यहां 7.6 की तीव्रता वाला भूकम्प
आया था, जिसमें कम से कम 844 लोग मारे गए थे तथा हजारों बेघर हो गए थे।</p><p>
</p><p>
कल भूकम्प का
झटका उस वक्त आया जब ज्यादातर लोग अपने दफ्तरों के लिए निकल चुके थे।
धरती में कंपन शुरू होते ही हजारों लोग बदहवासी में सड़कों पर निकल
आए।</p><p>
</p><p>
सबसे ज्यादा
तबाही राजधानी सान सल्वाडोर के निकटवर्ती तीन जिलों- ला पेज, कस्कात्लान
तथा सान विंसेंते में हुई है। क्षेत्रीय पुलिस आयुक्त रोबर्टो विलालोब्स ने
बताया कि अकेले ला पेज तथा कस्कात्लान में ही 102 मौतें हुई हैं।</p><p>
</p><p>
उल्ललखनीय है कि
राष्ट्रीय आपदा समिति ने खबर दी थी कि मरने वालों की संख्या 173 हो गई है तथा
1557 लोग घायल हुए हैं।</p><p>
</p><p>
कोजूत्पेक शहर
में 39 वर्षीय जोस हर्नेंडर ने बताया कि उसका मकान ढह गया है। उसने बताया
कि, 'सब कुछ बहुत भयावह है। समझ में नहीं आता कि लोगों के लिए क्या किया
जाए। सब तरफ से सिर्फ लोगों के चिल्लाने की ही आवाजंे सुनाई दे रही
हैं।'</p><p>
</p><p>
वाईएसकेएल
रेडियो के एक संवाददाता ने बताया कि उसने सान विंसेंते में 15 व्यक्तियों को
अस्पताल ले जाते हुए देख कल वाले भूकम्प के झटके निकटवर्ती मध्य अमेरिकी
देशों-ग्वाटेमाला तथा होंडूरास-में भी महसूस किए गए।</p><p>
</p><p>
रेडक्रॉस के
अनुसार राजधानी से 18 किलोमीटर दूर सान मार्टिन शहर में कई लोग इमारतों
के मलबे में दब गए हैं।</p><p>
</p><p>
अमेरिकी मौसम
विभाग के अनुसार भूकम्प की तीव्रता 6.6 आंकी गई है तथा इसे 20 सेकेंड तक
महसूस किया गया। भूकम्प का केंद्र सान सल्वाडोर के 24 किलोमीटर दूर दक्षिण
पश्चिम में था।</p><p>
</p><p>
भूकम्प के
कारण लोग बदहवास होकर सड़कों पर निकल आए । स्कूल बंद कर दिए गए हैं।
एक प्रत्यक्षदर्शी ने बताया कि दफ्तरों के सभी लोग काम छोड़कर सड़कों पर आ
गए हैं और वे काफी डरे हुए हैं। (वार्ता )</p><p>
</p><p>
                                                                                                               </p>

<p>   भूकम्प सहायताः
सीनेट में बुश प्रशासन की आलोचना                        </p>

<p>                                                                                                                   </p>

<p>   वाशिंगटन। अमेरिकी
सीनेट में रिपब्लिकन पार्टी के सदस्य सैम ब्राउनबैक ने गुजरात में भूकम्प राहत
कार्यों में पर्याप्त सहायता मुहैया नहीं कराने के लिए बुश प्रशासन की आलोचना
की है।</p><p>
</p><p>
ब्राउनबैक ने
मंगलवार को यहां एक समारोेह में कहा कि अमेरिका ने बहुत कम मदद की जबकि
भूकम्प के बाद वह काफी मदद कर सकता था। इस भूकम्प में 30 हजार से ज्यादा
लोगों की मृत्यु हुई है।</p><p>
</p><p>
सीनेट की
विदेशी मामलों संबंधी समिति की एशियाई मामलों से संबद्ध उप समिति के अध्यक्ष
ब्राउनबैक ने कहा कि अमेरिका वहाँ अस्थाई अस्पताल, डॉक्टर तथा बचावकर्मी भेज
सकता था।</p><p>
</p><p>
उन्होंने कहा
कि गुजरात में जारी पुनर्निर्माण में अमेरिका को अधिक मदद करनी चाहिए।
उन्होंने कहा कि पूरी सहायता करने के लिए उसे भारत के खिलाफ लगे आर्थिक
प्रतिबंध की समीक्षा करनी चाहिए। (वार्ता)</p>

<p>   </p>

<p>अमेरिकी कांग्रेस का
दल गुजरात का दौरा करेगा                                 </p>

<p>                                                                                                                                                                                                                               </p>

<p>                                                                                                               वाशिंगटन। अमेरिका
की भारत समर्थक लॉबी को उस समय बड़ी सफलता मिली जब उसने कांग्रेस का चार
सदस्यीय दल को अपना कश्मीर दौरा रद्द कर गुजरात के भूकम्प पीड़ितों के सहायता
प्रयासों का मुआयना करने पर राजी कर लिया।</p><p>
</p><p>
इससे पहले लॉबी
ने कांगे्रस में भारत समर्थक लॉबी के उपाध्यक्ष एडवर्ड रायस के पाकिस्तान के
प्रस्तावित दौरे को रद्द करवा दिया था। रायस ने कहा था कि वह भारत की यात्रा
के इच्छुक हैं।</p><p>
</p><p>
भारत समर्थित
लॉबी ने अमेरिकी कांग्रेस के सदस्यों को बताया कि इस समय कश्मीर की यात्रा
करने के गलत संकेत जाएंगे और वहां जारी शांति प्रयासों को धक्का
पहुँचेगा।</p><p>
</p><p>
इसके साथ ही
उन्हें यह भी बता दिया गया कि भारत इस मसले पर किसी अन्य देश की मध्यस्थता के
खिलाफ है और इस मसले का हल द्विपक्षीय बातचीत से करना चाहता है।</p><p>
</p><p>
सूत्रों ने
बताया कि दल ने कश्मीर जाने की योजना त्याग दी है और भारतीय नेताओं के साथ
बातचीत के लिए दिल्ली जाने से पहले गुजरात और मुम्बई की यात्रा की योजना तैयार
की है। (वार्ता)</p><p>
</p><p>
                                                                                                               </p>

<p>दुबई के इंडियन स्कूल
से 64 लाख की भूकम्प राहत                          </p>

<p>                                                                                                                                                                                                                               </p>

<p>                                                                                                               दुबई । दुबई स्थित
इंडियन हाई स्कूल ने प्रधानमंत्री राहत कोष में 64 लाख रुपए का चेक जमा
कराया। यह रकम गुजरात के भूकम्प पीड़ितों से संबद्घ राहत कार्य पर खर्च
होगी।</p><p>
</p><p>
स्कूल के
छात्रों, शिक्षकों और कर्मचारियों ने घर-घर जाकर इतनी बड़ी रकम भूकंप
पीड़ितों के लिए जुटाई। इस कार्य में छात्रों के अभिभावकों ने भी
बढ़-चढ़़कर हिस्सा लिया। स्कूल के चेयरमैन राम बुक्सानी ने दुबई स्थित भारतीय
महा वाणिज्य दूत अशोेक मुकर्जी को 64 लाख रुपए का चेक सौंपा।</p><p>
</p><p>
8,600 छात्रों
वाला यह स्कूल भारत से बाहर दुनिया का सबसे बड़ा भारतीय स्कूल है। संस्थान ने 7
फरवरी से राहत कोष इकट्ठा करना शुरू किया था। कोष इकट्ठा करने से पहले
इसे शिक्षा एवं युवा मामले के मंत्रालय से अनुमति लेनी पड़ी थी।</p><p>
</p><p>
बुक्सानी ने कहा
कि हमें स्वयं सुखद आश्चर्य हो रहा है कि एक सप्ताह से भी कम समय में हम इतनी
बड़ी रकम इकट्ठा करने में कामयाब रहे। स्कूल के कर्मचारियों ने भूकंप राहत
कोष में अपने एक दिन का वेतन जमा कराया।</p><p>
</p><p>
इससे पहले
बुक्सानी ने कहा कि हमारा स्कूल सिर्फ भारतीय समुदाय के लिए ही सहायता राशि
नहीं जुटाता है। उन्होंने बताया कि पिछले साल फिलिस्तीन संघर्ष को नैतिक
समर्थन देने के लिए भी चंदा इकट्ठा किया गया था। अफ्रीका में आए सूखे से
पीड़ित लोगों को राहत पहुंचाने के लिए भी स्कूल ने रकम जुटाई थी।
(इंडिया अब्रॉड)</p><p>
</p><p>
                                                                                                               </p>

<p>सोनिया कल बंगाल के
पार्टी विधायकों से मिलेंगी                               </p>

<p>                                                                                                                                                                                                                               </p>

<p>                                                                                                               कोलकाता ।
कांगे्रस पार्टी प्रमुख सोनिया गांधी गुरुवार को पश्चिम बंगाल के उन पार्टी
विधायकों से मिलेंगी जो सत्तारूढ़ वामपंथी गठबंधन सरकार के खिलाफ
महा गठजोड़ (महाजोत) में शामिल होने के समर्थक हैं।</p><p>
</p><p>
आसन्न
विधानसभा चुनाव को देखते हुए ये विधायक महा गठजोड़ में कांगे्रस
पार्टी के शामिल होने के समर्थक हैं। सोनिया गांधी अभी तक
विधायकों की इस मांग को स्वीकार करने को लेकर भ्रम की स्थिति में रही
हैं।</p><p>
</p><p>
उन्हें यह
सोचकर कदम पीछे हटाना पड़ता है कि ऐसे गठजोड़ में पार्टी की
धुर-विरोधी भाजपा भी शामिल होगी। सोनिया नहीं चाहती हैं कि
कांगे्रस किसी ऐसे गठजोड़ में शामिल हो, जिसमें भाजपा भी हो।</p><p>
</p><p>
पर कुछ
विधायकों ने तो यह भी चेतावनी दी है कि अगर उन्हें गठजोड़ में शामिल
होने की इजाजत नहीं दी गई तो वे पार्टी से निकल जाएंगे और तृणमूल कांगे्रस
में प्रवेश पा लेंगे।</p><p>
</p><p>
कांगे्रस
सूत्रों ने बताया कि पार्टी में विभाजन का सवाल सोनिया और विधायकों की
प्रस्तावित मुलाकात के परिणाम पर आधारित है। ज्ञातव्य है कि कांगे्रस के
19 विधायकों ने सोनिया गांधी को हस्ताक्षरित आवेदन भेजा है जिसमें
कहा गया है कि अगर उन्हें महागठजोड़ में शामिल होने की इजाजत नहीं दी गई तो
पार्टी मंे विभाजन भी हो सकता है।</p><p>
</p><p>
सोनिया
गांधी तृणमूल कांगे्रस के साथ गठजोड़ बनाने की मांग को स्वीकार कर
सकती हैं, लेकिन उनके लिए भाजपा के साथ चुनावी तालमेल करना असंभव होगा।
गठजोड़ के कट्टर समर्थक राज्य के कांगे्रसी नेता सौगात रॉय ने कहा कि हम
सोनिया गांधी को राज्य की जमीनी राजनीतिक वास्तविकताओं से अवगत
कराएंगे। उन्होंने उम्मीद जताई कि सोनिया गांधी उनकी मांग को
स्वीकार कर लेंगी। (इंडिया अब्रॉड) </p>

<p>                                                                                                               </p>

<p>करुणानिधि-जयललिता
भगवान की शरण में                                       </p>

<p>                                                                                                                                                                                                                               </p>

<p>                                                                                                               चेन्नई । अब जब
तमिलनाडु विधानसभा चुनाव के महज तीन महीने रह गए हैं, डीएमके और
अन्नाद्रमुक के नेता भगवान की शरण लेने लगे हैं। जहां मुख्यमंत्री
करुणानिधि ईश्वर के अस्तित्व को स्वीकार करने लगे हैं वहीं पूर्व मुख्यमंत्री
जयललिता मंदिरों के दर्शन में लगी हैं।</p><p>
</p><p>
पिछले सप्ताह
जयललिता अपनी पार्टी के उम्मीदवारों की सूची के साथ कामाक्षी मंदिर गईं।
जयललिता का मकसद ईश्वर से चुनावी आशीर्वाद प्राप्त करना था।</p><p>
</p><p>
दूसरी ओर
करुणानिधि अब बयान देने लगे हैं कि पार्टी के नेता सी. अन्नादुरई ने भी
ईश्वर का अस्तित्व स्वीकार किया था। कस्न्णानिधि ने एक विवाह कार्यक्रम
के दौरान स्वीकार किया कि अगर अन्नादुरई जैसे नेता तमिलनाडु में पैदा नहीं हुए
होते तो वे वामपंथी बन जाते।</p><p>
</p><p>
करुणानिधि
ने तुरंत यह भी कहा कि वे कार्ल मार्क्स और लेनिन जैसे कम्युनिस्टों का अनुसरण
करते न कि आज के कम्युनिस्टों का। करुणानिधि ने जहां केंद्र में
सत्तारूढ़ गठबंधन को धर्मनिरपेक्ष गठबंधन कहना शुरू कर दिया है
वहीं सोनिया गांधी को सांप्रदायिक करार दिया है, क्योंकि उन्होंने
इलाहाबाद के कुंभ में डुबकी लगाई थी।</p><p>
</p><p>
करुणानिधि
ने आगे कहा कि प्रधानमंत्री अटल बिहारी वाजपेयी सांप्रदायिक नहीं हैं,
क्योंकि वे कुंभ नहाने नहीं गए। दूसरी ओर जयललिता कामाक्षी मंदिर ही नहीं
बल्कि मैसूर के चामुंडेश्वरी मंदिर का भी दर्शन करने गईं।</p><p>
</p><p>
कहा जा रहा है
कि उनकी सहेली और पार्टी की असरदार नेता एन. शशिकला तो कांचीपुरम के
शंकराचार्य से भी मिलकर अन्नाद्रमुक के उम्मीदवारों के लिए चुनावी आशीर्वाद
प्राप्त कर चुकी हैं। (इंडिया अब्रॉड) </p>

<p>                                                                                                                </p>

<p>सीबीआई का आरोप
पत्र झूठा था-सुदर्शन                                           </p>

<p>                                                                                                                                                                                                                               </p>

<p>                                                                                                               समस्तीपुर। राष्ट्रीय
स्वयं सेवक संघ के प्रमुख के.एस. सुदर्शन ने अयोध्या में 6 दिसम्बर 1992 को
विवादित ढांचे को ध्वस्त किए जाने के मामले में इलाहाबाद उच्च न्यायालय की लखनउ
खंडपीठ द्वारा दिए गए फैसले का स्वागत करते हुए कहा कि केन्द्रीय जांच ब्यूरो
(सीबीआई) द्वारा दायर आरोप पत्र ही दोषपूर्ण हैं।</p><p>
</p><p>
सुदर्शन ने
मंगलवार को यहाँ संवाददाताओं से बातचीत करते हुए कहा कि सीबीआई ने इस
मामले में झूठी प्राथमिकी दर्ज कर केन्द्रीय गृह मंत्री लाल कृष्ण आडवाणी, मुरली
मनोहर जोशी एवं उमा भारती समेत आठ लोगों को फंसाने की साजिश की थी,
लेकिन न्यायालयके फैसले से इसका पर्दाफाश हो गया है।</p><p>
</p><p>
उन्होंने इस
प्रकरण में केन्द्रीय गृह मंत्री लाल कृष्ण आडवाणी समेत तीनों मंत्रियों को
निर्दोष करार दिया और कहा कि आरोप पत्र ही गलत था। एक प्रश्न के उत्तर में
उन्होंने कहा कि पाकिस्तान कश्मीर में भाड़े के उग्रवादी भेजकर यहाँ के
लोगों पर हमलेकराकर शांति बिगाड़ने में लगा है जबकि प्रधानमंत्री अटल
बिहारी वाजपेयी युद्ध विराम की घोषणा और लाहौर यात्रा कर शांति का संदेश दे
रहे हैं।</p><p>
</p><p>
उन्होंने कहा
कि नीति निर्माता आज पश्चिमी देशों की नकल करने में लगे हैं जिसके कारण
हमारी अर्थव्यवस्था चरमराती जा रही है। उन्होंने कहा कि भारत में सभी
संसाधन उपलब्ध हैं और इसका उपयोग कर देशवासियों को रोटी, कपड़ा,
मकान एवं उर्जा की पूर्ति करसभी हाथ को काम देना सरकार की प्राथमिकता होनी
चाहिए।</p><p>
</p><p>
उन्होंने कहा
कि स्वदेशी और विकेंद्रीकरण पर आधारित व्यवस्था ही देश का विकास कर
सकता है लेकिन आज सत्ता में बैठे लोग विश्व व्यापार संगठन पर अधिक निर्भर हो
गए हैं जिसके कारण आने वाले समय में इसके गंभीर परिणाम होंगे।</p><p>
</p><p>
उन्होंने कहा
कि देश की परम्परागत संस्थाएं एवं मूल्य देश की पूंजी हैं और इनको पहचान कर
ही भारत की जनशक्ति को विकास की मुख्य धारा से जोड़ जा सकता है। एक
अन्य प्रश्न के उत्तर में उन्होंने भारत के मुसलमानों से यहाँ की धरती से
जुड़ने का अह्वान करते हुए कहा कि भारत ही ऐसा देश है जहाँ सभी धर्मों एवं
जातियों के हित सुरक्षित हैं।(वार्ता)                   </p>

<p> </p>

<p>   फ्लीट रिव्यू में विमानों
के हैरतअंगेज करतब                                         </p>

<p>                                                                                                                   </p>

<p>   मुंबई। मुंबई के
समुद्री किनारे पर नौसेना और वायुसेना के युद्धक विमानों ने बुधवार को
अभ्यास के दौरान हैरतअंगेज करतबों का प्रदर्शन कर लोगों को आश्चर्यचकित कर
दिया।</p><p>
</p><p>
लोग कामकाज
छोड़ कर विमानोंे के करतब देखने जुटे । मरीन ड्राइव पर वैलेंटाइन-डे की
मौज मस्ती के लिए एकत्र हुए प्रेमी युगलों को ध्यान भी कुछ देर के लिए जांबाज
पायलटों द्वारा किए जा रहे प्रदर्शन की ओर गया।</p><p>
</p><p>
देश में पहली
बार हो रहे अंतरराष्ट्रीय फ्लीट रिव्यू-नौ सेना मेला-के साथ होने वाले प्रदर्शन के
लिए बुधवार को विमानों ने रिहर्लस की। मुंबई के समुद्री किनारे, मरीन
ड्राईव, नेताजी सुभाष चंद्र बोस मार्ग पर सुहानी धूप का आनंद ले रहे लोगों
के लिए लगभग तीन वर्ष बाद विमानों के करतबों को देखना आश्चर्यजनक व सुखद
था।</p><p>
</p><p>
वर्ष 1998 में
-त्रिशक्ति अभ्यास- के दौरान विमानों के अभ्यास का नजारा दिखा था। भारतीय वायु
सेना और नौ सेना के लगभग 90 विमानों ने रिहर्सल में भाग लिया। जहाज निरीक्षण
समारोह के दौरान शनिवार को राष्ट्रपति के. आर. नारायणन के सामने विमानों
का फ्लाईपास्ट होगा जबकि रविवार को एयर शो के दौरान विमान उड़ेंगे।</p><p>
</p><p>
रिहर्सल मंे विश्व
प्रसिद्ध 'सूर्य किरण' एक्रोेबेटिक दल ने हवा में कलाबाजियों के साथ धुंए
से बनाए गए विशेष प्रकार के दृश्य से सभी को आश्चर्यचकित कर दिया। रूस निर्मित
सुखोई 30 विमानों के कोबरा करतबों को देख कर तो लोग दांतों तले
अंगुली दबालेने पर मजबूर हुए।</p><p>
</p><p>
इसके बाद
अलग-अलग क्रम बना कर उड़ेे जैगुआर और मिग 20 की तेजी को लोगों ने गर्व भरी
अनुभूति के साथ देखा। किनारे पर खड़े लोगों के मुंह से निकल ही पड़ा,
'वाह क्या तेजी है हमें अपनी सेवा पर गर्व है।'</p><p>
</p><p>
लगभग एक घंटे
तक चली रिहर्सल के दौरान मरीन ड्राईव पर कुछ देर के लिए जैसे सब कुछ रुक सा
गया था। लोग उंची इमारतों, कार्यालयों की खिड़कियों और सड़क से
टकटकी लगाए विमानों के करतबोंे को देख रहे थे।</p><p>
</p><p>
मरीन ड्राइव के
पास के कॉलेजों के छात्र भी इस आश्चर्यजनक प्रदर्शन को देखने से खुद को
नहीं रोक पाए। कुछ ने तो ऐसे करतब सिर्फ गणतंत्र दिवस पर दिल्ली में होने
वाली परेड के टी वी हो रहे प्रसारण के दौरान ही देखे थे।</p><p>
</p><p>
हेलीकॉफ्टर,
छोटे विमानों और एयरक्राफ्ट ने भ्ी अपनी क्षमता का प्रदर्शन किया। मरीन कमांडो
ने भी रिहर्सल की। इस हवाई शो को दूरदर्शन पर दिखाया जाएगा। (वार्ता )    </p>

<p> </p>

<p>   भारत-बांग्लादेश सीमा पर
कांटेदार बाड़                                                </p>

<p>                                                                                                                   </p>

<p>   अगरतला। त्रिपुरा
में 856 किलोमीटर लंबी भारत-बांग्लादेश अंतरराष्ट्रीय सीमा पर कांटेदार तारों की
बाड़ लगाने का कार्य अगले महीने शुरू हो जाएगा। बाड़ का उद्देश्य आतंकवादियों
की गतिविधियों पर अंकुश लगाना है।</p><p>
</p><p>
राज्य सार्वजनिक
निर्माण विभाग के सचिव एवं मुख्य अभियंता एस.नाग ने पत्रकारों को बुधवार
को यहां बताया कि यह निर्णय एक उच्च स्तरीय बैठक में लिया गया। केंद्र सरकार
ने इसके लिए 8.75 करोड़ रुपए जारी किए हैं।</p><p>
</p><p>
उन्होंने कहा
कि पहले चरण में संवेदनशील पश्चिमी त्रिपुरा और ढलाई जिले में चालीस किलोमीटर
लंबी सीमा पर बाड़ लगाई जाएगी। यहाँ कार्य 15 मार्च से शुरू हो जाएगा।</p><p>
</p><p>
नाग ने बताया
कि दूसरे चरण में दक्षिणी त्रिपुरा जिले के जलेया से बोलखाली तक की 39
किलोमीटर लंबी सीमा पर बाड़ लगाई जाएगी। उन्होंने बताया कि बाड़ लगाने की
लागत लगभग प्रति किलोमीटर 28 लाख रुपए होगी और पूरी सीमा 856 किलोमीटर पर
बाड़ लगाने काकुल खर्च 240 करा़ेड़ रुपए होगा।</p><p>
</p><p>
बाड़ की ऊ
ंचाई 2.6 मीटर होगी। नाग ने बताया कि बाड़ लगाने की जिम्मेदारी केंद्र
सरकार की होगी और राज्य सरकार सभी सुविधाएं और सहायता उपलब्ध
कराएगी। उन्होंने कहा कि बाड़ लगाने में पहाड़ी और दुर्गम क्षेत्रों को
प्राथमिकता दी जाएगी।</p><p>
</p><p>
सीमा पार से
आतंकवादी इन्हीं क्षेत्रों में प्रवेश करते हैं। इसी बीच सूत्रों ने बताया कि
त्रिपुरा में आतंकवादियों की घुसपैठ रोकने के लिए भारत-बांग्लादेश सीमा पर
सीमा सुरक्षा बल की दो अतिरिक्त बटालियन नियुक्त की गई हंै। (वार्ता)</p>

<p>   </p>

<p>राजाजी पार्क की
सुरक्षा कड़ी की गई                                                   </p>

<p>                                                                                                                                                                                                                               </p>

<p>                                                                                                               देहरादून। उत्तरांचल
में जिम कार्बेट टाईगर रिजर्व में पाँच हाथियों की हत्या के मद्देनजर दून घाटी के
पास राजाजी पार्क में रात्रिकालीन गश्त बढ़ा दी गई है।</p><p>
</p><p>
राजाजी पार्क
के निदेशक सुनील पांडे ने बताया कि पार्क में और विशेष तौर पर चीला क्षेत्र
में कड़ी चौकसी बरती जा रही है। चीला क्षेत्र की सीमाएँ कार्बेट रिजर्व से
लगती हैं। वन रेंजर सारी-सारी रात पहरा दे रहे हैं।</p><p>
</p><p>
उन्होंने कहा
कि पार्क के सभी कर्मचारियों को इलाके में संदिग्ध गतिविधियों पर
नजर रखने के लिए कहा गया है। राजाजी पार्क एशियाई हाथियों का प्रसिद्ध निवास
स्थान है।</p><p>
</p><p>
करीब 882 वर्ग
किलोमीटर के क्षेत्र में फैले इस पार्क में 445 हाथी हैं। पिछले वर्षों में इस
पार्क के कई हाथी रेल से टकराने से मरे हैं। (वार्ता)</p><p>
</p><p>
                                                                                                               </p>

<p>बुश, भारत पर लगे
प्रतिबंध हटाएं-ब्राउनबैक                                        </p>

<p>                                                                                                                                                                                                                               </p>

<p>                                                                                                               वाशिंगटन। अमेरिकी
सीनेट के रिपब्लिकन सदस्य सैम ब्राउनबैक ने बुश प्रशासन से भारत के खिलाफ लगे
आर्थिक प्रतिबंध हटाने का अनुरोध किया है।</p><p>
</p><p>
ब्राउन बैक ने
मंगलवार को यहां एक समारोह को संबोधित करते हुए भारत-अमेरिका
संबंधों को मजबूत बनाने के लिए परमाणु अप्रसार पर भारत का साथ देने समेत
पाँच सूत्री कार्यक्रम जारी रखने पर भी जोर दिया।</p><p>
</p><p>
सीनेट की
विदेशी मामलों संबंधी समिति की दक्षिण एशियाई मामलों की उपसमिति के
अध्यक्ष ब्राउनबैक ने कहा कि बुश प्रशासन को प्रतिबंधित सूची तथा हालातों की
समीक्षा करना चाहिए जिनके तहत भारत के खिलाफ प्रतिबंध हटाए जा सकते हैं
तथा रक्षा, सुरक्षा और तकनीकी सहयोग बढ़ाया जा सकता है।</p><p>
</p><p>
उन्होंने कहा
कि अमेरिका को न सिर्फ अंतरराष्ट्रीय वित्तीय संस्थाओं से ऋण लेने पर रोक
हटानी चाहिए बल्कि ही भारत के खिलाफ लगे सभी आर्थिक प्रतिबंध हटा देने
चाहिए। ब्राउनबैक की ओर से इस संबंध में सीनेट के सदस्यों के बीच
चलाए गए हस्ताक्षर अभियान में उन्हें काफी समर्थन मिला है तथा भारत के खिलाफ लगे
आर्थिक प्रतिबध हटाने संबंधी ज्ञापन जल्द ही राष्ट्रपति बुश को सौंप दिया
जाएगा।(वार्ता) </p>

<p>                                                                                                               </p>

<p>आतंकवादी संगठनों ने
पाक के गृहमंत्री को कोसा                               </p>

<p>                                                                                                                                                                                                                               </p>

<p>                                                                                                               इस्लामाबाद।
पाकिस्तान के विभिन्न आतंकवादी संगठनों ने गृहमंत्री मोइनुद्दीन हैदर के इस बयान
का कड़ा विरोध किया है कि भारत के खिलाफ जेहाद छेड़ने के लिए
आतंकवादी संगठनों के धन इकट्ठा करने और कमांडो प्रशिक्षण देने पर
पाबंदी लगनी चाहिए।</p><p>
</p><p>
विभिन्न
आतंकवादी संगठनों ने सरकार के इस रवैए को इस्लाम विरोधी करार देते
हुए गृहमंत्री से अपने बयान के लिए माफी मांगने को कहा है। उन्होंने सैनिक
शासक परवेज मुशर्रफ से अपील की है कि वह गृहमंत्री के बयान से पैदा हुई भ्रम
की स्थिति को दूरकरने में पहल करें।</p><p>
</p><p>
कश्मीर के
सक्रिय और जमाएत ए इस्लामी तथा अन्य आतंकवादी संगठनों ने दावा किया है कि
जेहाद के लिए धन एकत्र करना अल्लाह का आदेश है और अल्लाह के आदेश पर
प्रतिबंध नहीं लगाया जा सकता। उन्होंने कहा कि गृहमंत्री इस तरह के बयान
देकर अमेरिका और दूसरे इस्लाम विरोधी देशों को संतुष्ट करना चाहते
हैं।</p><p>
</p><p>
कश्मीर में
सक्रिय विभिन्न आतंकवादी संगठनों के गठबंधन मुत्तैहिदा जेहाद काउंसिल ने भी
हैदर के बयान का विरोध किया। उल्लेखनीय है कि हाल ही में हैदर ने कहा
था कि पाकिस्तान सरकार इस तरह की गतिविधियों पर अंकुश लगाने के लिए जल्दी
ही विधेयक लाने जा रही है। (वार्ता )</p>

<p>                                                                                                               </p>

<p>उषा कंपनी समूह आयकर
छापों की चपेट में                                        </p>

<p>                                                                                                                                                                                                                               </p>

<p>                                                                                                               नई दिल्ली। आयकर
विभाग के अधिकारियों ने बुधवार को उषा कंपनी समूह के ठिकानों
पर छापे मारे आधिकारिक सूत्रों के अनुसार समूह के अध्यक्ष विनय राय समेत
कंपनी के कई वरिष्ठ अधिकारियों के घरों और कार्यालयों पर भी छापे
मारे।</p><p>
</p><p>
छापे में बरामद
समग्री का ब्यौरा नहीं मिला है लेकिन उषा समूह के प्रबंध निदेशक डा. एस.सी.
गुप्ता ने बताया कि आयकर विभाग के अधिकारियों को उनके काम में उषा
समूह की ओर से पूरा सहयोग दिया गया।</p><p>
</p><p>
उन्होंने कहा
कि कंपनी आयकर विभाग को आगे भी पूरा सहयोग देगी क्योंकि उसके पास कुछ
छिपाने को नहीं है। (वार्ता) </p>

<p>                                                                                                               </p>

<p>   रूसी विमानों की जापानी
वायुसीमा में घुसपैठ                                      </p>

<p>                                                                                                                   </p>

<p>   टोक्यो। रूस के
कई लड़ाकू विमानों ने बुधवार को जापानी वायु सीमा का अतिक्रमण
किया। 1995 के बाद से इस तरह की यह पहली घटना है।</p><p>
</p><p>
जापान की रक्षा
एजेंसी के एक प्रवक्ता ने बताया कि रूस के चार लड़ाकू विमानों ने राजधानी
टोक्यो से 1200 किलोमीटर दूर उत्तरी होक्काइदो प्रायद्वीप के रेबुन द्वीप के
निकट पूर्वाद्ध बजकर 59 मिनट पर जापानी वायु सीमा में प्रवेश किया और तीन मिनट
तक सीमा के अंदर रहे।</p><p>
</p><p>
प्रवक्ता ने बताया
कि जापानी सेना के जेटों के हरकत में आने पर ये चारों घुसपैठिए विमान भाग
खड़े हुए। वायु सीमा के अतिक्रमण की दूसरी घटना अपराह्न दो बजकर 36 मिनट पर
हुई जब दो और रूसी विमान फिर से जापानी सीमा में घुस आए और लगभग तीन मिनट
तक रहे। (वार्ता) </p>

<p> </p>

<p>खेतिहर मजदूरों को भी
सामाजिक सुरक्षा-जटिया                                  </p>

<p>                                                                                                                                                                                                                               </p>

<p>                                                                                                               नई दिल्ली। केन्द्र
सरकार ने खेतिहर मजदूरों को सामाजिक सुरक्षा प्रदान करने का फैसला किया
है। श्रममंत्री सत्यनारायण जटिया ने बुधवार को यहाँ स्थायी श्रम समिति के
37वें सत्र का उद्घाटन करते हुए यह जानकारी दी।</p><p>
</p><p>
उन्होंने समाज
के अन्य वर्गों से इस मुद्दे पर गंभीरता से विचार करने और सार्थक सुझाव देने का
अनुरोध किया। उन्होंने श्रम बाजार को लचीला बनाते समय इस बात की
सावधानी बरतने की जरूरत बताई कि श्रमिकों के अधिकारों और हितों
से समझौता नहीं किया जाए।</p><p>
</p><p>
रोजगार की
धीमी वृद्धि पर चिंता व्यक्त करते हुए उन्होंने कहा कि भूमंडलीकरण के बाद
कुछ क्षेत्रों में रोजगार के नए अवसरों का सृजन हुआ है जिसका लाभ उठाने के
लिए हर स्तर पर विशिष्ट प्रशिक्षण और सुझाव दिए जाने चाहिए। (वार्ता ) </p>

<p>                                                                                                               </p>

<p>म.प्र. का बजट सत्र 19
फरवरी से                                                        </p>

<p>                                                                                                                                                                                                                               </p>

<p>                                                                                                               भोपाल। मध्यप्रदेश
विधानसभा के बजट सत्र के दूसरे चरण की शुरूआत लगभग एक माह के अन्तराल के
बाद आगामी 19 फरवरी से होगी जिसमें दूसरे दिन 20 फरवरी को अपरान्ह तीन बजे
वर्ष 2001-2002 का बजट पेश किया जाएगा।</p><p>
</p><p>
राज्य के वित्त
मंत्री अजय नारायण मुशरान लगातार आठवीं बार बजट प्रस्तुत कर प्रदेश के संसदीय
इतिहास में एक नया कीर्तिमान बनाएंगे। अब तक वह सात बार बजट पेश करके राज्य
के पहले वित्त मंत्री मिश्रीलाल गंगवाल तथा पहले गैर कांग्रेसी वित्त मंत्री रामहित
गुप्त की बराबरी पर पहुँच चुके हैं।</p><p>
</p><p>
गंगवाल ने
लगातार सात बार बजट पेश किए जबकि गुप्त ने तीन कार्यकाल में सात बार बजट पेश
किए। मुशरान के पिता श्याम सुंदर नारायण मुशरान भी वित्त मंत्री रहे तथा
उन्होंने भी लगातार पांच बार बजट पेश किया था। (वार्ता)                                                               </p>

<p> </p>

<p>   भूकम्पग्रस्त अल सल्वाडोर
में बचाव कार्य जोरों पर                            </p>

<p>                                                                                                                   </p>

<p>   सान सल्वाडोर।अल
सल्वाडोर मंे एक महीने के बाद मंगलवार को दोबारा आए विनाशकारी भूकम्प में
ध्वस्त हुई इमारतों के मलबे से जीवित लोगों की जोर शोर से तलाश की जा रही
है।</p><p>
</p><p>
बचाव दल ने
बुधवार को सुबह कई कस्बों के ध्वस्त मकानों में मलबों में फंसे जीवित
लोगों को तलाशने का काम शुरू किया। </p><p>
</p><p>
इसके अलावा
ध्वस्त हुई इमारतों, स्कूलों और गिरिजाघरों के मलबों में भी इस उम्मीद से
खोजबीन जारी है कि शायद इनमें कोई जीवित बचा हो। मंगलवार की सुबह आए
विनाशकारी भूकम्प में कम से कम 170 व्यक्तियों की मौत हो गई और 1500 से
ज्यादा लोग घायल हुए हैं। </p><p>
</p><p>
अल सल्वाडोर के
राष्ट्रपति फ्रांसिसको फ्लोरेस ने मंगलवार की देर रात राष्ट्र के नाम प्रसारित अपने
संदेश में कहा कि अभी लोगों की जान बचाना पहली प्राथमिकता है। ऐसी स्थिति
में बचाव के काम को प्राथमिकता दी जा रही है। पहले मलबे में फंसे लोगों
तथा घायलों को निकालने का काम किया जा रहा है। </p><p>
</p><p>
उन्होंने बताया
कि राजधानी से करीब 68 किलोमीटर पूर्व में स्थित सान विसेंट शहर के लगभग
आधे मकान और समीपवर्ती अनालकितो, सान एमिग्डियो, गुआडुलूप और
वेरेपाज शहरों के भी 70 से 80 फीसदी मकान भूकम्प से पूरी तरह नष्ट हो गए
हैं। </p><p>
</p><p>
रिक्टर पैमाने पर
6.6 की तीव्रता वाले इस भूकम्प से एक महीना पहले यहां 7.6 की तीव्रता वाला भूकम्प
आया था जिसमें 800 से भी ज्यादा लोग मारे गए थे तथा हजारों बेघर हो गए थे। </p><p>
</p><p>
मंगलवार सबेरे
भूकंप का झटका उस वक्त आया जब ज्यादातर लोग अपने दफ्तरों के लिए जाने को
तैयार हो रहे थे जिसके चलते राजधानी के निकटवर्ती जिलों ला पेज,
कस्कात्लान तथा सान विसेंट में हजारों लोग अपने घरों में फंसे रह गए। </p><p>
</p><p>
स्थानीय लोग
और बचाव कर्मी मंगलवार की सारी रात ध्वस्त इमारतों के मलबों में जीवित फंसे
लोगों को तलाशते रहे। इस बीच राष्ट्रीय पुलिस और सैनिकों ने लूटपाट की
घटनाओं को रोकने के लिए समूचे इलाके में पूरे दिन का कर्फ्यू लगा दिया।</p><p>
</p><p>
भूकम्प के बाद
के संभावित झटकों की आशंका से कई लोग सड़कों पर सोने चले आए हैं और
कुछ अपने घरों की खिड़कियां और दरवाजे खोलकर सो रहे हंै ताकि दोबारा
भूकम्प आए तो वे जल्दी से घर से बाहर सुरक्षित स्थानों पर जा सकें। </p><p>
</p><p>
पिछले महीने आए
भूकम्प में मारे गए लोगों की निश्चित संख्या का अभी तक पता नहीं चल पाया है।
भूकम्प का प्रभाव इतना तीव्र था कि राजधानी के समीप स्थित सांता तेकला कस्बा
पूरी तरह ध्वस्त हो गया। (वार्ता)                                                                                    </p>

<p> </p>

<p>कोइजाम सरकार में
शामिल होने पर भाजपा में अनिश्चय                    </p>

<p>                                                                                                                                                                                                                               </p>

<p>                                                                                                               नई दिल्ली। भारतीय
जनता पार्टी ने मणिपुर में राधा विनोद कोइजाम के नेतृत्व में बनने वाली
डेमोक्रेटिक एलांयंस (यू.डी.ए.) की सरकार में शामिल होने के बारे में अभी
कोई विचार नहीं किया है।</p><p>
</p><p>
पार्टी के वरिष्ठ
नेता जगदीश प्रसाद माथुर ने बुधवार को यहां संवाददाताओं से अनौपचारिक
बातचीत के दौरान कहा कि समता पार्टी के नेतृत्व में बनने वाली सरकार का
विरोध करने का सवाल ही नहीं हैं।</p><p>
</p><p>
उन्होंने कहा
कि यहां भी सरकार का नेतृत्व राजग का ही एक घटक कर रहा है लेकिन कोइजाम
के प्रस्तावित मंत्रिमंडल में शामिल होने के बारे में कोई विचार नहीं किया गया
है। वैसे पार्टी सूत्रों का कहना है कि फिलहाल पार्टी का सरकार में शामिल
होनेका कोई इरादा नहीं है। (वार्ता)</p><p>
</p><p>
                                                                                                               </p>

<p>जगमोहन मूंदड़ा की
'बवंडर' सेंसर बोर्ड में अटकी                               </p>

<p>                                                                                                                                                                                                                               </p>

<p>                                                                                                               मुंबई । अमेरिका
में रहने वाले जगमोहन मूंदड़ा की नई हिन्दी फिल्म 'बवंडर' पिछले तीन महीने से
सेंसर बोर्ड में अटकी हुई है।</p><p>
</p><p>
गौरतलब है कि
मूंदड़ा ने लगभग 25 वर्ष पहले देह व्यापार पर आधारित हिन्दी फिल्म 'कमला'
बनाकर धमाका किया था। मूंदड़ा इस फिल्म के माध्यम से सरकारी दावों
की पोल खोलकर रख दी थी।</p><p>
</p><p>
'कमला' की तरह
रिलीज होने से पहले ही 'बवंडर' को लेकर भी विवाद पैदा हो गया है। 'बवंडर'
पिछले तीन महीने से सेंसर बोर्ड के पास लटकी हुई है। सेंसर बोर्ड ने इस
फिल्म को देखने के बाद इसे 'एक्जामिनिंग कमेटी' के पास भेज दिया।</p><p>
</p><p>
एक्जामिनिंग
कमेटी ने इस फिल्म को देखने के बाद 'रिवाइजिंग कमेटी' के पास भेजा।
रिवाइजिंग कमेटी ने इस फिल्म के पांच दृश्यों को काटने का आदेश दिया
है। इसके अलावा रिवाइजिंग कमेटी ने इस फिल्म को 'सिर्फ वयस्कों के लिए'
प्रमाण पत्र देने का फैसला किया है।</p><p>
</p><p>
लेकिन मूंदड़ा
ने बातचीत के दौरान बताया कि वे अपनी फिल्म के दृश्यों पर कैंची चलाने के
लिए तैयार नहीं हैं। उन्होंने कहा कि सेंसर बोर्ड को भारतीय दर्शकों के
प्रति सम्मान जताते हुए उनकी फिल्म को हरी झंडी दिखा देनी चाहिए। मूंदड़ा के
अनुसार वे 'सिर्फ वयस्कों के लिए' प्रमाण पत्र के लिए तैयार हैं, लेकिन फिल्म
के दृश्यों पर कैंची चलाने को तैयार नहीं हैं।</p><p>
</p><p>
'बवंडर' अन्याय
के खिलाफ एक व्यक्ति के संघर्ष की कहानी है। मूंदड़ा ने बताया कि वे पिछले
तीन महीने से सेंसर बोर्ड के फैसले की प्रतीक्षा कर रहे हैं। लेकिन सेंसर
बोर्ड बार-बार अपने फैसले की तिथि स्थगित कर रहा है।</p><p>
</p><p>
सेंसर बोर्ड
को संभवतः यह मालूम नहीं है कि उन्होंने इस फिल्म के निर्माण के लिए
करोड़ों रुपए का फाइनेंस ले रखा है। वे पिछले तीन महीने से अपनी फिल्म पास
कराने के लिए लॉस एंजिलस और मुंबई के बीच चक्कर काट रहे हैं।</p><p>
</p><p>
गौरतलब है कि
मूंदड़ा हॉलीवुड में कई रोमांचक और सैक्सी फिल्म बना चुके हैं। हॉलीवुड
में सैक्सी फिल्में बनाने की मूंदड़ा की छवि है। मूंदड़ा का मानना है कि
हॉलीवुड की यह छवि उनका पीछा करते संभवतः बॉलीवुड तक आ गई है।</p><p>
</p><p>
वे हॉलीवुड में
20 रोमांचक और सैक्सी फिल्में बना चुके हैं। इनमें से एक फिल्म 'नाइट
आईज' काफी सफल रही थी और इस फिल्म ने दुनिया भर में 3 करोड़ डालर का
कारोबार किया।</p><p>
</p><p>
(इंडिया अब्रॉड)</p><p>
                                                                                                               </p>

<p>   खाद्य उत्पादन घटने का
खतराः रिपोर्ट                                                    </p>

<p>                                                                                                                   </p>

<p>   वाशिंगटन । खेती
के लिए अपनाए जा रहे तौर-तरीकों से पर्यावरण को होने वाले नुकसान से खाद्य
उत्पादन में गिरावट होने का खतरा पैदा हो गया है।</p><p>
</p><p>
'वर्ल्ड रिसोर्सेज
इंस्टीट्यूट' (डब्ल्यूआरआई) और 'कंसल्टेटिव गु्रप ऑन इंटरनेशनल एग्रीकल्चरल
रिसर्च' (सीजीआईएआर) की सहायक इकाई 'इंटरनेशनल फूड पॉलिसी रिसर्च
इंस्टीट्यूट' (आईएफपीआरआई) द्वारा संयुक्त रूप से जारी एक ताजा रिपोर्ट में यह
चेतावनी दीगई है।</p><p>
</p><p>
रिपोर्ट में
बताया गया है कि दुनिया भर में खेती के लिए अपनाई जा रही प्रणालियों से जमीन
खराब हो रही है और बंजर भूमि का विस्तार हो रहा है।</p><p>
</p><p>
इसके अलावा
इससे जल प्रदूषण बढ़ गया है तथा पशुओं और पौधों की प्रजातियों को
भी नुकसान पहुंचा है। जमीन की उत्पादकता घट रही है।</p><p>
</p><p>
रिपोर्ट में इस
स्थिति से अधिक आबादी वाले देशों के गरीब लोगों के लिए खतरनाक
परिणाम सामने आने की चेतावनी दी गई है।</p><p>
</p><p>
कृषि भूमि को
अगले 20 वर्षों के दौरान दुनिया की आबादी में होने वाली 1.5 अरब की संभावित
बढ़ोतरी के लिए खाद्य पदार्थ उपलब्ध कराने की कठिन चुनौती का सामना करना
पड़ रहा है।</p><p>
</p><p>
सीजीआईएआर
के अध्यक्ष एवं विश्व बैंक के उपाध्यक्ष जानसन के अनुसार मौजूदा समय में विश्व की
कुल आबादी लगभग 6 अरब है। अगले दो दशकों के दौरान यह आबादी बढ़कर
लगभग 7.5 अरब हो जाएगी।</p><p>
</p><p>
उन्होंने कहा
कि इस स्थिति को देखते हुए अंतरराष्ट्रीय समुदाय को विकासशील देशों में
बढ़ती आबादी का पेट भरने के लिए खाद्य उत्पादन में बढ़ोत्तरी का तरीका तलाशना
चाहिए।</p><p>
</p><p>
(इंडिया अब्रॉड)</p><p>
</p><p>
   </p>

<p>   रिपब्लिकन पार्टी क्लिंटन
को घेरने के प्रयास में                                     </p>

<p>                                                                                                                   </p>

<p>   वाशिंगटन ।
रिपब्लिकन पार्टी मौजूदा समय में पूर्व राष्ट्रपति बिल क्लिंटन के खिलाफ अपने
कुप्रचार को हवा दे रही है। रिपब्लिकन पार्टी खासतौर से क्लिंटन द्वारा अपने
कार्यकाल के अंतिम दिनों में किए गए फैसलों को लेकर क्लिंटन को घेरने
का प्रयास कर रही है।</p><p>
</p><p>
लेकिन अमेरिकी
संसद में क्लिंटन के खिलाफ निंदा प्रस्ताव लाए जाने की संभावना नहीं है।
रिपब्लिकन पार्टी ने क्लिंटन को घेरने के लिए कई मुद्दों की सूची तैयार कर
रखी है।</p><p>
</p><p>
रिपब्लिकन पार्टी
के नेताओं के अनुसार क्लिंटन व्हाइट हाउस द्वारा तोहफे के रूप में दिए गए
फर्नीचर अपने साथ ले गए और उन्होंने सरकारी खर्च पर मेनहटन में अपना कार्यालय
खोला।</p><p>
</p><p>
इसके अलावा
क्लिंटन ने अपने कार्यकाल के अंतिम दिन भगोड़े फाइनेंसर मार्क विच को माफी
देने का फैसला किया। रिपब्लिकन पार्टी के नेताओं का मानना है कि इन
मुद्दों के आधार पर संसद में क्लिंटन के खिलाफ सुनवाई की जा सकती है
और उनके खिलाफ निंदा प्रस्ताव पारित किया जा सकता है।</p><p>
</p><p>
रिपब्लिकन पार्टी
के नेता यह भी कह रहे हैं कि इन मुद्दों को लेकर क्लिंटन के खिलाफ
आपराधिक जांच भी हो सकती है। रिपब्लिकन पार्टी के कुछ नेता तो इन
मुद्दों के आधार पर क्लिंटन के खिलाफ महाभियोग प्रस्ताव पेश करने की भी
बात कह रहे हैं।</p><p>
</p><p>
लेकिन
रिपब्लिकन पार्टी के नेताओं की राय के विपरीत कानूनी विशेषज्ञों और राष्ट्रपति
से जुड़े मामलों के विशेषज्ञों के अनुसार पूर्व राष्ट्रपतियों के खिलाफ संसद में
निंदा या महाभियोग प्रस्ताव पेश करना संभव है, लेकिन क्लिंटन के मामले में ऐसा
होनेकी कोई संभावना नहीं है।</p><p>
</p><p>
कानूनी
विशेषज्ञों के अनुसार क्लिंटन के खिलाफ यदि महाभियोग प्रस्ताव मंजूर हो जाए तो
वे पूर्व राष्ट्रपति के रूप में प्राप्त होने वाले पेंशन और अन्य सुविधाओं से
वंचित हो जाएंगे तथा भविष्य में सरकारी पद के लिए अयोग्य हो जाएंगे।</p><p>
</p><p>
'बाल्टीमोर सन'
के अनुसार क्लिंटन के खिलाफ संसद में निंदा या महाभियोग प्रस्ताव लाए जाने की
संभावना नहीं के बराबर है। क्लिंटन के आचरण की ताजा जांच से सिर्फ यह होगा
कि क्लिंटन बदनाम हो जाएंगे और उनकी छवि को बट्टा लगेगा।</p><p>
</p><p>
जॉर्ज टाउन
विश्वविद्यालय के राजनीति शास्त्र विभाग के प्रोफेसर स्टीफन वायने ने कहा कि
क्लिंटन के कार्यकाल के गड़े मुर्दों को उखाड़ने से रिपब्लिकन पार्टी को
कोई फायदा नहीं होगा।</p><p>
</p><p>
रिपब्लिकन पार्टी
यदि सही में घेरना चाहती है तो उसे चुप रहना चाहिए। मौजूदा समय में ऐसा लग
रहा है कि रिपब्लिकन पार्टी क्लिंटन को हर हाल में घेरने पर आमादा है।</p><p>
</p><p>
(इंडिया अब्रॉड)
</p>

<p>   </p>

<p>   बुश ने क्लिंटन का
बचाव किया                                                            </p>

<p>                                                                                                                   </p>

<p>   वाशिंगटन ।
अमेरिकी राष्ट्रपति जॉर्ज डब्ल्यू. बुश ने पूर्व राष्ट्रपति बिल क्लिंटन द्वारा अपने
कार्यकाल के अंतिम समय में अपराधियों को माफी दिए जाने के फैसले की
संसदीय जांच की माँंग का विरोध कर अपनी रिपब्लिकन पार्टी के सांसदों
को हैरान कर दियाहै।</p><p>
</p><p>
गौरतलब है कि
रिपब्लिकन पार्टी क्लिंटन द्वारा अपराधियों को माफी देने के फैसले की
संसदीय जांच कराने की वकालत कर रही है। रिपब्लिकन पार्टी के नेता खासतौर
से भारी-भरकम कर चोरी करने के आरोपी भगोड़े अरबपति मार्क रिच को माफी
देने से गुस्सेमें हैंै।</p><p>
</p><p>
रिपब्लिकन पार्टी
के नेता इस फैसले की वजह से न सिर्फ संसद में क्लिंटन के खिलाफ निंदा प्रस्ताव
पेश करने की वकालत कर रहे हैं बल्कि उनके खिलाफ महाभियोग प्रस्ताव पेश किए
जाने की संभावनाएं भी तलाश रहे हैं।</p><p>
</p><p>
लेकिन बुश ने
पत्रकारों से बातचीत के दौरान कहा कि वे क्लिंटन के खिलाफ जांच के पक्ष में
नहीं हैं। बुश के अनुसार मौजूदा समय देश को आगे बढ़ाने का समय है।
बुश ने कहा कि संसद को जो काम करना चाहिए, वह काम कर रहा है।</p><p>
</p><p>
गौरतलब है कि
अमेरिकी संसद के उच्च सदन सीनेट से जुड़ी न्यायिक कमेटी बुधवार को मार्क
रिच के वकील जैक क्विन की गवाही सुनेगी। क्विन पूर्व में क्लिंटन के भी वकील
रह चुके हैं।</p><p>
</p><p>
बुश ने इन
रिपोर्टों का भी खंडन किया कि वाशिंगटन से न्यूयार्क की क्लिंटन की अंतिम
उड़ान के दौरान 'एयरफोर्स-1' विमान से क्लिंटन के सहयोगियों ने कुछ बहुमूल्य
सामान निकाल लिया था।</p><p>
</p><p>
उन्होंने कहा
कि इस तरह की रिपोर्टें बिल्कुल सही नहीं हैं। बुश का यह नजरिया रिपब्लिकन
पार्टी के सांसदों के बिल्कुल विपरीत है।</p><p>
</p><p>
(इंडिया अब्रॉड)</p>

<p>   </p>

<p>भारतीय मूल के राजू
कनाडा के अल्बर्टा प्रांत में विपक्षी नेता बनेंगे !                                                                                                               </p>

<p>                                                                                                                                                                                                                               </p>

<p>                                                                                                               टोरंटो । कनाडा
के अल्बर्टा प्रांत में 'न्यू डेमोक्रेटिक पार्टी' (एनडीपी) के भारतीय मूल के नेता
राजू पन्नू को इस प्रांत का विपक्षी नेता बनने की उम्मीद है।</p><p>
</p><p>
राजू पन्नू
मौजूदा समय में प्रांतीय एसेम्बली के सदस्य हैं। उन्हें उम्मीद है कि वे लिबरल
पार्टी की नेता नेंसी मैकवेथ की जगह अल्बर्टा प्रांत के विपक्षी नेता बनेंगे।</p><p>
</p><p>
अल्बर्टा प्रांत
में 12 मार्च को प्रांतीय चुनाव हो रहा है। अल्बर्टा प्रांत में 'प्रोग्रेसिव
कंजरवेटिव पार्टी' (पीसीपी) सरकार का नेतृत्व करने वाले प्रीमियर राल्फ क्लीन ने
पिछले सोमवार को चुनावों की घोषणा की।</p><p>
</p><p>
प्रांतीय एसेम्बली
में राजू पन्नू के प्रवक्ता चरण खेरा ने बताया कि एनडीपी प्रांतीय एसेम्बली की सभी
83 सीटों पर अपने उम्मीदवार खर्च करेगी। खेरा ने बताया कि राजू पन्नू के अलावा
भारतीय मूल के कनाडाई नागरिक गुरप्रीत सिहोटा भी एनडीपी के टिकट पर प्रांतीय
चुनाव लड़ेंगे।</p><p>
</p><p>
चुनावी सर्वेक्षण
में एनडीपी तीसरे नंबर पर है। पीसीपी और लिबरल पार्टी के मुकाबले एनडीपी
काफी पीछे है। चुनावी सर्वेक्षणों के अनुसार पीसीपी को 54 प्रतिशत, लिबरल
पार्टी को 29 प्रतिशत और एनडीपी को सिर्फ 9 प्रतिशत मतदाताओं का समर्थन
प्राप्त है।</p><p>
</p><p>
खेरा से जब पूछा
गया कि एनडीपी के बारे में चुनावी सर्वेक्षणों में की जा रही इस भविष्यवाणी के
बावजूद राजू पन्नू किस तरह विपक्षी नेता बनने की उम्मीद कर रहे हैं तो उन्होंने
बताया कि भविष्यवाणी के विपरीत उनकी पार्टी चुनावों में शानदार प्रदर्शन
करेगी।</p><p>
</p><p>
खेरा के अनुसार
स्वास्थ्य सेवाओं, शिक्षा, पर्यावरण, ईमानदारी और निष्ठा से जुड़े मुद्दों में
एनडीपी ने लिबरल पार्टी के मुकाबले काफी अच्छा प्रदर्शन किया है।</p><p>
</p><p>
कैलगरी
विश्वविद्यालय में 27 वर्षों तक समाजशास्त्र पढ़ा चुके राजू पन्नू के अनुसार वे
चुनाव-प्रचार के दौरान लिबरल पार्टी पर तीखे प्रहार करेंगे और मतदाताओं को
बताएंगे कि लिबरल पार्टी एक प्रभावहीन विपक्षी पार्टी है।</p><p>
</p><p>
(इंडिया अब्रॉड)</p>

<p>                                                                                                               </p>

<p>उत्पात और दहशत के
साए में मना वेलेंटाइन डे                                  </p>

<p>                                                                                                                                                                                                                               </p>

<p>                                                                                                               राजेंद्र रंजन</p><p>
</p><p>
नई दिल्ली।
मौज-मस्ती, उल्लास और उमंग की बजाए उत्पात और दहशत के साये में बुधवार
को मनाया दिल्ली के युवाओं ने वेलेंटाइन डे। साल भर की बेकरारी के बाद प्रेम
के इजहार का आया दिन प्रतीक्षा और निराशा में बीता। युवा जोड़े सड़कों पर
यहां-वहां घूमते, पार्कों में मिलते और एक- दूसरे को फूलों का गुलदस्ता भेंट
करते दिखे।</p><p>
</p><p>
सड़कों पर
उत्पात की मुद्रा में उतर आए शिवसैनिकों ने इनका मूड खराब किया। मुंबई से
जारी शिवसेना प्रमुख बाला साहब ठाकरे के खिलाफत पैगाम को शिवसैनिकों ने
उधम में बदल दिया।</p><p>
</p><p>
मंगलवार को
जहां सड़कों पर उतरे इन सैनिकों ने वेलेंटाइन कार्ड बेचने वाली दुकानों को
अपने निशाने पर रखा, वहीं बुधवार को होटल और रेस्तरा उनके निशाने पर
रहे।</p><p>
</p><p>
हालांकि इनकी
धमकी के मद्देनजर दिल्ली के सभी पांच तारा होटलों, रेस्तराओं के बाहर सशस्त्र
पुलिस बल के जवानों ने किसी भी हालात से निबटने के लिए सुबह से ही मोर्चा संभाल
लिया था। लेकिन इतनी बड़ी दिल्ली में बिखरे शिवसैनिकों के उत्पात को वह
रोकने मेंअसफल रहे।</p><p>
</p><p>
शिवसैनिकों ने
कुछ बड़े होटलों को छोड़कर रेस्तराओं को अपना निशाना बनाया। कनॉट
प्लेस के विंपी रेस्तरा में इन शिवसैनिकों ने हमला बोलकर खासा उत्पात मचाया। इसी
तरह की कुछ घटनाएं अन्य क्षेत्रों में भी घटीं।</p><p>
</p><p>
संभावित हमले से
बचने के लिए दिल्ली के कुछ होटलों ने जहां वेलेंटाइन पर दिल वालों के लिए तैयार
किए गए विशेष कार्यक्रम रद्द कर दिए थे वहीं कुछ ने इसे देर रात होने वाले
कार्यक्रमों में बदल दिया।</p><p>
</p><p>
बच्चों और
युवाओं के आकर्षण के केंद्र अप्पूघर के प्रशासन ने तो भय से पहले ही पल्ला झाड़
लिया।</p><p>
</p><p>
शिवसेना के दिल्ली
प्रमुख जय भगवान गोयल ने जहां इस हमले को पाश्चात्य संस्कृति पर हमला बताया वहीं
विश्व हिंदू परिषद् के राष्ट्रीय उपाध्यक्ष आचार्य गिरिराज किशोर ने खामोशी का रूख
अपनाया।</p><p>
</p><p>
भाजपा ने भी
चुप्पी का रास्ता अख्तियार किया। इतना ही नहीं उसने सवालों से बचने के लिए
नियमित प्रेस बीफ्रींग तक निरस्त कर दी। भाजपा नेताओं ने शिवसेना के पाले में
गेंद डालकर अपने को इससे अलग रखा जबकि कांग्रेस ने जमकर प्रहार किया।</p><p>
</p><p>
कांग्रेस प्रवक्ता
आनंद शर्मा ने तो संघ और शिवसेना पर फांसीवादी संस्कृति थोपने का आरोप
लगाया। शर्मा ने कहा कि यह तो प्रेम बांटने का पर्व है, घृणा करने का नही।
भारतीय संस्कृति संकीर्णता की नहीं, उदारता की रही है।</p><p>
</p><p>
उन्होंने शिवसेना
और सैनिकों का सीधे-सीधे नाम न लेते हुए निशाने पर रखते हुए कहा कि
कुछ संकीर्ण विचारधारा वाले लोग पूरे देश की मानसिकता पर अपना विचार
थोपना चाहते हैं। वे लोकतंत्र के उदारवाद का नाजायज फायदा उठा रहे हैं।
लेकिन इसे बर्दाश्त नहीं किया जा सकता।</p><p>
</p><p>
शर्मा ने यह भी
कहा कि यह सारा कुछ देश में फांसीवादी संस्कृति लादने की साजिश के तहत किया
जा रहा है। अब तंग सोच वाले कुछ लोग शेष लोगों को यह समझाएंगे कि वे
किस तरह की संस्कृति अपनाएं, क्या पहने और टी.वी.चैनलों पर कौन सा कार्यक्रम
देखे यान देंखे। इससे बड़ा दुर्भाग्य इस देश के लिए कुछ नहीं हो सकता।
उन्होंने इसे भाजपा, आर.एस.एस की मिलीजुली साजिश बताया।</p><p>
</p><p>
दूसरी ओर
वेलेंटाइन डे मनाने के लिए युवा जोड़ों ने पहले से खासी तैयारियां कर रखी थी।
दिनभर राजधानी की सड़कों और बसों में युवा जोड़ों के हाथों में गुलाब की
टहनियां, किन्हीं हाथों में बुके और उपहारों के पैकेट दिखे।</p><p>
</p><p>
कुछ जोड़े
सड़कों पर एक-दूसरे के हाथ में हाथ डाले गुफ्तगू करते हुए चलते मिले। ऐसे ही
एक युवा जोड़े मीनाक्षी और अंकुश की इस पूरे घटनाक्रम पर टिप्पणी रही कि प्यार
के दुश्मन तो इतिहास के हर दौर में रहे हैं और रहेंगे। लेकिन प्यार करने
और दिल सेदिल जोड़ने वालों को इसकी कोई परवाह नहीं हैं। हाँ इन शिवसैनिकों
ने उत्पात ने थोड़ा मजा जरूर किरकिरा किया है।</p><p>
</p><p>
ये लोग आज के
दिन अप्पूघर के ओयसटर पार्क के स्पेशल डांस फ्लोर पर डांस की तमन्ना सजोए थे
लेकिन इसके रद्द होने से ये दुखी दिखे।</p><p>
</p><p>
ऐसे ही एक
दूसरे जोड़े निधि और पारस का कहना था कि बहुत प्रतीक्षा के बाद तो आज
का यह दिन आया। हम चाहते थे कि अप्पूघर के डांस फ्लोर पर एक दूसरे के साथ
मिलकर थिरकें और आज का दिन सेलिब्रेट करें लेकिन शिवसैनिकों ने मजा ही खराब
कर दिया।</p><p>
</p><p>
इनका यह भी
कहना था कि दिन तो यूंही बीत गया लेकिन रात रंगीन करने के लिए होटल
जाएंगे। होटल ली मैरीडियन ने खास रोमांटिक डिनर की व्यवस्था को निरस्त नहीं
किया है। वैसे भी होटल के बाहर सशस्त्र जवानों की चौकन्नी निगाहें
शिवसैनिकों को ढ़ेर करने के लिए हैं।</p><p>
</p><p>
देर रात
कार्यक्रमों में डिस्कोथिक और डिनर पर होटल वालों को हंगामें की कम उम्मीद
है। होटल प्रबंधकों का दावा है कि सारा कुछ शांतिमय वातावरण में संपन्न
हो जाएगा।</p><p>
</p><p>
दिल्ली के दिल
कनॉट प्लेस के विंपी में शिवसैनिकों के उत्पात से वहां का माहौल जरूर प्रभावित
हुआ है लेकिन कनिष्का, होटल दि पार्क और अन्य पंचतारा होटलों ने अपने
कार्यक्रमों को बरकरार रखा है और यहां युवा जोड़े देर रात तक जश्न मनाने के
मूड में हैं। वेब न्यूज सर्विस </p>

<p>                                                                                                               </p>

<p>केशुभाई दिल्ली
तलबः हाईकमान का बुलावा या माँग दौरा                </p>

<p>                                                                                                                                                                                                                               </p>

<p>                                                                                                               दिल्ली ब्यूरो</p><p>
</p><p>
नई दिल्ली।
गुजरात के महाविनाशकारी भूकंप के बाद अचानक सुर्खियों में छाए राज्य के
मुख्यमंत्री केशुभाई पटेल गुरूवार को दिल्ली के दौरे पर आ रहे हैं।</p><p>
</p><p>
राजनीतिक हलके
में केशुभाई के आने को पार्टी हाईकमान का बुलावा माना जा रहा है लेकिन
पार्टी के नेता इसे बजट में राज्य के लिए अतिरिक्त धन की मांँग दौरे से
जोड़कर देख रहें हैं।</p><p>
</p><p>
अपने व्यस्त दौरे
के दौरान मुख्यमंत्री राष्ट्रपति के.आर.नारायणन, प्रधानमंत्री अटल बिहारी
वाजपेयी, गृहमंत्री लालकृष्ण आडवाणी और वित्तमंत्री यशवंत सिन्हा से मुलाकात
करेंगे।</p><p>
</p><p>
मीडिया के बीच
अपनी छवि सुधार योजना के तहत केशुभाई पत्रकारों से भी मुखातिब होंगे।
उनकी यह यात्रा आलाकमान से राज्य की वर्तमान स्थिति पर चर्चा यात्रा भी होगी।</p><p>
</p><p>
हालांकि
हाईकमान केशु भाई को पहले ही अभय दान दे चुका है और संघ से लेकर भाजपा
तक के छोटे-बड़े नेता उनके पक्ष में खड़े हैं।</p><p>
</p><p>
वैसे यह भी माना
जा रहा है कि त्रासदी की आड़ में भाजपा नेता राज्य में सत्ता परिवर्तन का कोई
खेलना नहीं चाहते। इससे विरोधी दलों को सरकार पर हमले का हथियार मिल
जाएगा। लेकिन राजनीतिक क्षेत्रों में यह चर्चा भी गरम है कि थोड़ी देरी से ही
सही हाईकमान केशुभाई के भविष्य का फैसला सुना सकता है।</p><p>
</p><p>
भूकंप त्रासदी
के बाद प्रभावित क्षेत्रों में राहत सामग्रियों के वितरण नीति को लेकर राज्य सरकार
की खासी आलोचना हो रही है। हालांकि संकट के इस दौर में देश-विदेश के
लोगों ने खुले दिल से गुजरात को सहयोग किया है और केंद्र सरकार ने भी खजाना
उधर मोड़ा है।</p><p>
</p><p>
राहत सामग्रियों
का अंबार भुज में जुट गया है। राज्य सरकार की धीमी राहत कार्य योजना से
देश-विदेश से आए संगठनों के कार्यकर्ता भी नाखुश रहे हैं।</p><p>
</p><p>
आलोचनाओं के
बाद राज्य सरकार ने थोड़ी चुस्ती दिखाई है लेकिन अभी भी राहत आपरेशन में
स्वयंसेवी संगठनों की भूमिका कहीं अधिक कारगर मानी जा रही है।</p><p>
</p><p>
आलोचनाओं से
सकते में आए केशुभाई और संघ, विहिप के नेताओं ने भी उनके पक्ष में मोर्चा
संभाला है लेकिन कांग्रेस अध्यक्ष सोनिया गांँधी ने अभी हाल के अपने गुजरात
दौरे में अल्पसंख्यक समुदाय तक राहत सामग्री न पहुंचने का आरोप मढ़कर मुद्दे को
फिर गरमा दिया है।</p><p>
</p><p>
माना जा रहा है
कि केशुभाई अपनी इस यात्रा में जहां राष्ट्रपति, प्रधानमंत्री, गृहमंत्री से
मुलाकात के दौरान आरोपों की सफाई तथ्यों के साथ देंगे वहीं राज्य की मौजूदा
हालात की जानकारी भी उपलब्ध कराएंगे।</p><p>
</p><p>
ऐसा संकेत मिल
रहा है कि वित्तमंत्री से मुलाकात के दौरान मुख्यमंत्री राज्य के लिए और
अधिक धन व वित्तीय परियोजनाओं की मांँग करेंगे। वैसे वित्त मंत्रालय
पहले से ही भूकंप के साये में बजट पेश करने जा रहा है और सरकार ने दो प्रतिशत
अतिरिक्त सरचार्ज कीपहले ही घोषणा कर दी है।</p><p>
</p><p>
वेब न्यूज सर्विस</p>

<p>                                                                                                               </p>

<p>जे.के.जैन के निशाने
पर अब उमा भारती भी                                       </p>

<p>                                                                                                                                                                                                                               </p>

<p>                                                                                                               दिल्ली ब्यूरो</p><p>
</p><p>
नई दिल्ली।
जैन टी.वी के मालिक डॉ.जे.के.जैन ने अपने बहुचर्चित पर्दाफाश कार्यक्रम के
दूसरे एपीसोड में खेल और युवा मामलों की मंत्री साध्वी उमा भारती को चपेट में
लिया है।</p><p>
</p><p>
जैन ने उन पर
प्रधानमंत्री के प्रमुख सचिव ब्रजेश मिश्रा की भतीजी विभा मिश्रा की एडवरटाइजिंग
एजेंसी गरूणा को नियम कानून को परे रखकर राष्ट्रीय पुर्ननिर्माण वाहिनी योजना के
61 लाख रूपए के विज्ञापन को प्रधानमंत्री और ब्रजेश मिश्रा के दवाब में जारी
किए जाने का आरोप लगाया है।</p><p>
</p><p>
साथ ही उमा
भारती पर भ्रष्टाचार निवारण अधिनियम के तहत मुकदमा दायर करने की मांँग की
है। डॉ.जैन ने प्रधानमंत्री, देश की संसद और एन.डी.ए. के घटक दलों को
सवालों के दायरे में लपेटा है।</p><p>
</p><p>
डॉ.जैन ने अपने
आरोप में यह भी सवाल उछाला है कि इस विज्ञापन को जारी करने में नियम कानून की
धज्जियां उड़ाई र्गइं हैं। उन्होंने सरकार को चुनौती दी है कि वह इस
वालेंटियर योजना में 80 युवाओं की सूची भी नहीं दिखा सकती। सारा कुछ घोटाले
के हवाले किया गया है।</p><p>
</p><p>
योजना के तहत
80 जिलों का चयन होना था और हर जिले से गरीब पिछड़े तबकों के सौ बच्चों को
दो साल तक एक हजार रूपए की राशि प्रति माह दी जानी थी। लेकिन जैन का आरोप
है कि न तो धनराशि ही उपलब्ध कराई गई और न ही युवाओं का चयन
हुआ।</p><p>
</p><p>
डॉ.जैन ने अपने
आरोपों की दलील में कहा है कि सरकार की नीतियों और कार्यक्रमों का
विज्ञापन जारी करना सूचना प्रसारण से जुड़े महकमे डीएवीपी के अंतर्गत आता है।</p><p>
</p><p>
डीएवीपी को यह
अधिकार भारत के राष्ट्रपति ने संविधान की धारा 77 के अंतर्गत बने
नियमों के तहत दिया है। लेकिन इसे खेल मंत्रालय के मंत्री ने एन.आर.सी के
लिए नेहरू युवा केंद्र संगठनों को निर्देश जारी करके अधिकारियों को मजबूर
कर गरूण एडवरटाइजिंग के पक्ष में जारी कराया है।</p><p>
</p><p>
उनका कहना है
कि इससे इस एजेंसी का 99-2000 में 92 लाख का फायदा हुआ है। इसमें से लगभग 71
लाख का व्यापार तो सरकारी संस्थाओं से एजेंसी को मिला है।</p><p>
</p><p>
डॉ.जैन का
कहना है कि यदि ब्रजेश मिश्रा के प्रभाव का प्रयोग सरकारी संस्थानों पर उनकी भतीजी
विभा मिश्रा के पक्ष में न किया गया होता तो उनकी एजेंसी इस वर्ष में लगभग 77 प्रतिशत
आमदनी कम हो जाती और यह एजेंसी उसी हश्र को प्राप्त होती जो उसके चाचा ब्रजेश
मिश्राके प्रधानमंत्री के प्रधान सचिव बनने से पूर्व थी।</p><p>
</p><p>
उन्होने यह भी
कहा कि यदि एन.सी.आर के सभी विज्ञापन खेल और युवा मंत्रालय द्वारा डीएवीपी के
माध्यम से जारी होते तो कमीशन की सारी आमदनी सरकार को मिलती।</p><p>
</p><p>
जैन टी.वी. के
मालिक डॉ.जैन ने आरोप की धार तेज करते हुए उमा भारती पर विभा मिश्रा को
धन संबंधी फायदा पहुंचाने का आरोप लगाया है और भ्रष्टाचार निवारण
अधिनियम के तहत आपराधिक मामला दर्ज करने की मांँग की है।</p><p>
</p><p>
उन्होंने यह भी
संकेत दिया है कि ब्रजेश मिश्रा के झूठ का पर्दाफाश करने का सिलसिला वह आगे भी
जारी रखेंगे। डॉ.जैन ने यह भी कहा है कि उनके चैनल जैन टी.वी. की यह लड़ाई
देश की आम जनता की लड़ाई है।</p><p>
</p><p>
सत्ता में बैठे
शासकों ने जिस तरह सरे आम झूठ बोलने की परंपरा शुरू कर दी है,उससे जहां सच्चाई
पर पर्दा पड़ने लगा है वहीं सरकार और जनता के बीच के संबंध भी प्रभावित हो
रहे हैं।</p><p>
</p><p>
उल्लेखनीय है कि
डॉ.जैन और ब्रजेश मिश्रा के बीच की यह लड़ाई सिंधिया विला की जमीन को
लेकर सामने आई है। इस लड़ाई में प्रधानमंत्री कार्यालय भी जुड़ गया है।</p><p>
</p><p>
डॉ.जैन का
आरोप है कि उन्हें जान बूझ कर रॉ की रिपोर्ट में आई.एस.आई का एजेंट करार
दिया गया है। जबसे ऐसा हुआ है तब से डॉ.जैन ने पर्दाफाश का सिलसिला शुरू कर
दिया है।</p><p>
</p><p>
वेब न्यूज सर्विस </p>

<p>                                                                                                               </p>

<p>भूंकपग्रस्त इलाकों
में विहिप समग्र पुनर्वास योजना चलाएगी                </p>

<p>                                                                                                                                                                                                                               </p>

<p>                                                                                                               नई दिल्ली। गुजरात
में आए विनाशकारी भूकंप से तबाह हुए कच्छ,अन्जार भुज और अन्य भूंकपग्रस्त
इलाकों में विश्व हिन्दू परिषद दीर्घकालिक समग्र पुनर्वास योजना चलाएगी और
सीमावर्ती गांँवों को बसाने तथा क्षतिग्रस्त हुए मन्दिरों के पुर्ननिर्णण और 5000
मन्दिरोंके निर्माण के लिए वित्तीय सहायता देगी।</p><p>
</p><p>
यह जानकारी
यहां संवाददाता सम्मेलन में परिषद के अंतरराष्ट्रीय महासचिव डा0 प्रवीण भाई
तोगंडिया ने दी। उन्होंने बताया कि परिषद 300 गांँवों में शिक्षा योजना
चलाएगी।</p><p>
</p><p>
इसके तहत वह
पाठशालाओ का निर्माण कराएगी और यहां छात्र छात्राओं को मुफ्त पाठ पुस्तके
एवं पठन पाठन सामग्री उपलब्ध कराई जाएगी। परिषद अनाथ बच्चों के लिए
'वात्सल्य मंदिर' का निर्माण करेगी।</p><p>
</p><p>
उन्होंने बताया
कि 182 तहसील 4904 नगरों की लगभग 16798591 जनता भूकंप से प्रभावित हुई है।</p><p>
</p><p>
सरकारी सूत्रों
के अनुसार 17356 लोग मारे गए हैै और 166812 घायल हुए हैं। करीब 612
करोड़ रुपए की लागत के पक्के मकान, 62 करोड़ रुपए की झोपडियां क्षतिग्रस्त
हुई है।</p><p>
</p><p>
परिषद इन
क्षेत्रों में आर्थिक एवं पुनर्वास योजना के तहत भूकंपरोधी आवास
बनवाएगी। इस योजना में सीमावर्ती सात गाँंव शामिल हैं, जिनमें मुख्यतः दलित
एवं कोली समुदाय के लोग निवास करते हैं।</p><p>
</p><p>
वार्ता </p>

<p>                                                                                                               </p>

<p>फलस्तीनी ने आठ
इजरायलियों को बस से कुचलकर मार डाला        </p>

<p>                                                                                                                                                                                                                               </p>

<p>                                                                                                               आजुर इजरायल।
इजरायल में तेल अवीव के एक व्यस्त बस स्टाप पर एक फलस्तीनी ने बुधवार को
आठ व्यक्तियों को बस से कुचलकर मार डाला तथा कम से कम दस को घायल कर
दिया।</p><p>
</p><p>
यह जानकारी
इजरायली पुलिस ने दी। गत सितम्बर से इजरायल और फलस्तीन के बीच शुरू हुए संघर्ष
में यह इजरायल में हुआ सबसे खूनी हमला है। इजरायल के अधिकारियों ने
कहा कि यह फलस्तीन के राष्ट्रपति यासर अराफात के सुरक्षा गार्ड की मंगलवार को
गाजा में हवाईहमले से की गई हत्या का जवाबी हमला था ।</p><p>
</p><p>
अराफात के
अहमद अब्दुल रहमान नामक सहयोगी ने बताया कि इस हमले के लिए इजरायल और इसके
निवर्तमान प्रधानमंत्री एहुद बराक जिम्मेदार हैं क्योंकि ..हिंसा हिंसा को
जन्म देती है।</p><p>
</p><p>
सूत्रों ने
बताया कि होलोन शहर के निकट बुधवार सुबह बस ने एक पंक्ति में घुसकर अपनी
गति तेज कर दी। पुलिस ने बस का पीछा कर गोलियां चलाईं और अंततः बस
एक ट्रक से टकरा गई।</p><p>
</p><p>
पुलिस ने बताया
कि ड्राइवर गंभीर रुप से घायल है। इजरायली रेडियो ने देश के पुलिस प्रमुख
श्लोमो अहारोनिश्की के हवाले से बताया कि बस का ड्राइवर फलस्तीन के गाजा पट्टी
का है।</p><p>
</p><p>
एक अन्य घटना
में इजरायली सैनिकों ने एक फलस्तीनी पुलिसकर्मी को उस समय गोली मारकर मौत
के घाट उतार दिया जब कुछ फलस्तीनी पश्चिमी तट के तुल्कारम इलाके में इजरायल
द्वारा लगाए गए मार्ग अवरोधक को हटाने का प्रयास कर रहे थे। गत पांच माह
से दोनों देशों के बीच जारी संघर्ष में लगभग चार सौ लोग मारे जा चुके
हैं।</p>

<p>                                                                                                               </p>

<p>   राष्ट्रपति के अभिभाषण
के प्रारूप को मंत्रिमंडल की मंजूरी                 </p>

<p>                                                                                                                   </p>

<p>   नई दिल्ली।
मंत्रिमंडल की विशेष बैठक में राष्ट्रपति के.आर. नारायणन के अभिभाषण के प्रारूप
को बुधवार को मंजूरी दे दी गई।</p><p>
</p><p>
संसद का बजट
सत्र 19 फरवरी से शुरू हो रहा है। उच्च पदस्थ सूत्रों के अनुसार अभिभाषण के प्रारूप
को कुछ मामूली फेरबदल के बाद मंजूरी दी गई।   </p>

<p> </p>

<p>   हिन्दुजा बंधुओं
की याचिका पर अब 26 को सुनवाई                         </p>

<p>                                                                                                                   </p>

<p>   नई दिल्ली।
बोफोर्स मामले में हिन्दुजा बंधुओं की याचिका पर बुधवार को सुनवाई
अधूरी रही। दिल्ली उच्च न्यायालय ने 26 फरवरी तक सुनवाई स्थगित कर दी
है।</p><p>
</p><p>
हिन्दुजा
बंधुओं ने इस याचिका के माध्यम से विदेश जाने की अनुमति चाही है।</p><p>
</p><p>
उनके वकीलों
ने अदालत को विश्वास दिलाया कि वे जब भी जरूरत होगी, अदालत के समक्ष हाजिर हो
जाएँगे।   </p>

<p> </p>

<p>कांग्रेस का राष्ट्रीय
महाधिवेशन अब 17-18 मार्च को                         </p>

<p>                                                                                                                                                                                                                               </p>

<p>                                                                                                               संजय मिश्र</p><p>
</p><p>
नई दिल्ली ।
कांग्रेस का राष्ट्रीय महाधिवेशन अब तीन दिन की बजाए दो दिन का होगा।
पार्टी के संशोधित कार्यक्रमों के मुताबिक महाधिवेशन 17 और 18 मार्च
को बंगलोर में होगा।</p><p>
</p><p>
कांग्रेस अध्यक्ष
श्रीमती सोनिया गाँधी ने कार्यसमिति के गठन और पार्टी पदाधिकारियों
के मनोनयन को हरी झंडी देते समय ही महाधिवेशन की नई तारीख तय कर दी
थी।</p><p>
</p><p>
महाधिवेशन
के नए कार्यक्रम की औपचारिक घोषणा नहीं की गई है। लेकिन समझा जाता है
कि कर्नाटक प्रदेश कांग्रेस को सोनियाजी की ओर से इस बारे में निर्देश दिया जा
चुका है।</p><p>
</p><p>
उल्लेखनीय है कि
गुजरात भूकम्प के मद्देनजर 14 से 16 फरवरी को बंगलोर में होने वाला कांग्रेस
महाधिवेशन स्थगित कर दिया था। पार्टी सूत्रों के मुताबिक श्रीमती सोनिया
गाँधी ने महाधिवेशन में शामिल होने वाले प्रतिनिधियों की संख्या
सीमित करने की हिदायत दी है।</p><p>
</p><p>
अधिवेशन
के तीन दिन के बजाए दो दिन का करने के चलते प्रतिनिधियों की संख्या घटाई
जा रही है। अधिवेशन में लगभग 15 हजार प्रतिनिधियों को शामिल होना था,
लेकिन कांग्रेस अध्यक्ष की हिदायत के बाद पार्टी सचिवालय अधिक से अधिक
10 हजार लोगों को ही निमंत्रण पत्र भेजने के काम में जुट गया है।</p><p>
</p><p>
महाधिवेशन
में पारित किए जाने वाले प्रस्तावों को तैयार करने के लिए कांग्रेस अध्यक्ष ने पहले
ही प्रारूप समिति सहित चार समितियों का गठन कर दिया है। महाधिवेशन में पारित
किए जाने वाले प्रस्तावों का खाका लगभग तैयार किया जा चुका है।</p><p>
</p><p>
राजनीतिक,
आर्थिक, विदेश नीति के संबंध में प्रस्ताव तो सामान्य परंपरा के मुताबिक पारित
किए जाएँगे ही, इस बार कांग्रेस किसानों की दुर्दशा के संबंध में भी अलग से
एक प्रस्ताव तैयार कर रही है। इसमें कृषि उत्पादों और अनाज के
अंधाधुँध आयात तथा विश्व बाजारसंगठन की कठोर शर्तों पर सरकार
की कथित एकांगी सोच को उजागर किया जाएगा।</p><p>
</p><p>
कांग्रेस अध्यक्ष
ने किसानों की स्थिति पर प्रस्ताव तैयार करने के लिए वरिष्ठ नेता बलराम जाखड़ की
अगुवाई में अलग समिति पहले ही गठित कर दी है।</p><p>
</p><p>
तमिलनाडु
गठजोड़वार्ता के अनुसार तमिलनाडु विधानसभा चुनाव के लिए अन्नाद्रमुक के साथ
चुुनावी गठजोड़ के बारे में फैसला सोनियाजी के गुजरात दौरे से लौटने के बाद
संभावित है।</p><p>
</p><p>
पार्टी सूत्रों
के अनुसार महासचिव गुलाब नबी आजाद ने इस बारे में प्रदेश कांग्रेस अध्यक्ष
ई.बी.के.एस. एलांगोवान और अन्य नेताओं के साथ विचार-विमर्श किया है।</p><p>
</p><p>
कुछ नेता
पी.एम.के.-अन्नाद्रमुक गठजोड़ के खिलाफ हैं, लेकिन वे इस मुद्दे पर आलाकमान के
फैसले को मानने के लिए राजी हो गए हैं।</p><p>
</p><p>
पार्टी प्रवक्ता
आनंद शर्मा ने बताया कि कांग्रेस तमिलनाडु में धर्मनिरपेक्ष सरकार का गठन
सुनिश्चित करेगी।</p><p>
</p><p>
श्रीमती
गाँधी राज्य के ताजा घटनाक्रमों की जानकारी हासिल करने के बाद अन्नाद्रमुक
से बातचीत लिए अपना दूत भेजेंगी।</p>

<p>                                                                                                               </p>

<p>अमेरिकी कांग्रेस दल
अब कश्मीर नहीं गुजरात के दौरे पर आएगा     </p>

<p>                                                                                                                                                                                                                               </p>

<p>                                                                                                               वॉशिंगटन ।
अमेरिका की भारत समर्थक लॉबी को एक बड़ी सफलता मिली है। उसने कांग्रेस
के चार सदस्यीय दल को अपना कश्मीर दौरा रद्द कर गुजरात के भूकम्प पीड़ितों के
सहायता-प्रयासों का मुआयना करने पर राजी कर लिया।</p><p>
</p><p>
इस बीच अमेरिकी
सीनेट में रिपब्लिकन सदस्य सैम ब्राउनबैक ने बुश प्रशासन से भारत के खिलाफ लगे
आर्थिक प्रतिबंध हटाने का अनुरोध किया है।</p><p>
</p><p>
इससे पहले लॉबी
ने कांग्रेस में भारत समर्थक लॉबी के उपाध्यक्ष एडवर्ड रायस के पाकिस्तान के
प्रस्तावित दौरे को रद्द करवा दिया था। रायस ने कहा था कि वे भारत की यात्रा
के इच्छुक हैं।</p><p>
</p><p>
भारत समर्थित
लॉबी ने अमेरिकी कांग्रेस के सदस्यों को बताया कि इस समय कश्मीर की यात्रा
करने के गलत संकेत जाएँगे और वहाँ जारी शांति प्रयासों को धक्का
पहुँचेगा।</p><p>
</p><p>
इसके साथ ही
उन्हें यह भी बता दिया गया कि भारत इस मसले पर किसी अन्य देश की मध्यस्थता के
खिलाफ है और इस मसले का हल द्विपक्षीय बातचीत से करना चाहता है।</p><p>
</p><p>
सूत्रों ने बताया
कि दल ने कश्मीर जाने की योजना त्याग दी है और भारतीय नेताओं के साथ बातचीत
के लिए दिल्ली जाने से पहले गुजरात और मुंबई की यात्रा की योजना तैयार की
है।</p><p>
</p><p>
बुश प्रशासन की
आलोचनाउधर वॉशिंगटन में अमेरिकी सीनेट में रिपब्लिकन पार्टी के सदस्य सैम
ब्राउनबैक ने गुजरात में भूकम्प राहत कार्यों में पर्याप्त सहायता मुहैया नहीं कराने
के लिए बुश प्रशासन की आलोचना की है।</p><p>
</p><p>
उन्होंने कहा
कि अमेरिका ने बहुत कम मदद की, जबकि भूकम्प के बाद वह काफी मदद कर सकता
था। इस भूकम्प में 30 हजार से ज्यादा लोगों की मृत्यु हुई है।</p><p>
</p><p>
सीनेट में विदेशी
मामलों संबंधी समिति की एशियाई मामलों से संबद्ध उप समिति के अध्यक्ष ब्राउनबैक
ने कहा कि अमेरिका वहाँ अस्थायी अस्पताल, डॉक्टर तथा बचावकर्मी भेज सकता था।</p><p>
</p><p>
उन्होंने कहा
कि गुजरात में जारी पुनर्निर्माण में अमेरिका को अधिक मदद करनी चाहिए।
पूरी सहायता करने के लिए उसे भारत के खिलाफ लगे आर्थिक प्रतिबंधों की
समीक्षा करनी चाहिए।</p><p>
</p><p>
ब्राउनबैक ने
बुश प्रशासन से भारत के खिलाफ लगे आर्थिक प्रतिबंध हटाने का अनुरोध
किया है। ब्राउनबैक यहाँ एक समारोह को संबोधित कर रहे थे।
उन्होंने भारत-अमेरिकी संबंधों को मजबूत बनाने के लिए परमाणु अप्रसार पर
भारत का साथ देने का और पाँच सूत्री कार्यक्रम को जारी रखने पर भी जोर
दिया।</p><p>
</p><p>
ब्राउनबैक ने
कहा कि बुश प्रशासन को प्रतिबंधित सूची तथा उन हालात की समीक्षा करना चाहिए,
जिनके तहत भारत के खिलाफ प्रतिबंध हटाए जा सकते हैं। रक्षा, सुरक्षा और
तकनीकी सहयोग बढ़ाया जा सकता है।</p><p>
</p><p>
उन्होंने कहा
कि अमेरिका को न सिर्फ अंतरराष्ट्रीय वित्तीय संस्थाओं से ऋण लेने पर रोक
हटानी चाहिए बल्कि भारत के खिलाफ लगे सभी आर्थिक प्रतिबंध हटा देने चाहिए।</p><p>
</p><p>
ब्राउनबैक की
ओर से इस संबंध में सीनेट के सदस्यों के बीच चलाए गए हस्ताक्षर अभियान में उन्हें
काफी समर्थन मिला है तथा भारत के खिलाफ लगे आर्थिक प्रतिबंध हटाने
संबंधी ज्ञापन जल्द ही राष्ट्रपति बुश को सौंप दिया जाएगा।                                                              </p>

<p> </p>

<p>   भूकम्प के बाद ः
धरती माता की पूजा,टीवी को अलविदा                 </p>

<p>                                                                                                                   </p>

<p>   अहमदाबाद । गुजरात
के लोगों ने इससे पहले कभी भी होली के त्योहार के पहले 'दीयों की बारात'
नहीं देखी थी। अब लगभग हर घर के बाहर शाम होतेे ही दीयों की रोशनी जगमगाने
लगती है। यहीं पहली बार ऐसा भी हुआ जब सारे 'पाप-विनाश' की जड़ टीवी को
बताते हुए लोगों ने उसेे तोड़ डाला।</p><p>
</p><p>
गुजरात में आए
विनाशकारी भूकम्प के बाद भय के माहौल में जी रहे लोगों ने 'धरती माता'
रूपी नई देवी की पूजा प्रारंभ कर दी है। इसी निमित्त वे शाम होते ही अपने घर
के बाहर दीयेे जलाते हैं और धरती माता की प्रार्थना करते हैं कि कहीं वह
फिर न काँप उठे।</p><p>
</p><p>
धरती के
प्रति अपनी श्रद्धा दिखाते हुए युवक हर शाम लोगों से सूर्यास्त के बाद दीए जलाने के लिए
कहते हैं। धरती माता के प्रति ऐसी श्रद्धा का माहौल गुजरात में दो दशक पहले
आपातकाल के दौरान उस समय देखा गया था, जब फिल्म 'जय संतोषी माँ' के प्रदर्शित
होने के बादसंतोषी माता की भक्ति बढ़ गई थी।</p><p>
</p><p>
लोगों के
अनुसार गुजरात में आया यह भूकम्प धरती पर बढ़ रहे पापों के कारण मनुष्यों पर
दैवी शक्ति के गुस्से का प्रतीक है। वैसे इस भूकम्प में 450 मस्जिद, 7 गिरजाघर और
द्वारिका सहित 3 प्रमुख मंदिरों को नुकसान पहुँचा।</p><p>
</p><p>
पिछले शुक्रवार
को कुछ मुस्लिम धार्मिक नेताओं द्वारा यह कहते हुए कि आधुनिक युग में
टीवी ही पाप की सबसे बड़ी जड़ है, अहमदाबाद और सूरत शहर के कुछ मुसलमानों ने
अपने टीवी सेट ही तोड़ डाले।</p><p>
</p><p>
अहमदाबाद के
तीन दरवाजा क्षेत्र में सोमवार को ही ऐसा नजारा दिखा, जब भरेे बाजार में एक आदमी
ने टीवी को पापी करार देते हुए जमीन पर पटक दिया। इसके बाद कुछ और टीवी
सेट तोड़े गए।</p><p>
</p><p>
गुजरात में
भूकम्प के और झटके आने की संभावनाओं के कारण लोगों में भय बना हुआ है।
कुछ स्थानों पर हवन और यज्ञ हो रहे हैं तो कहीं विशेष प्रार्थनाओं का आयोजन
किया गया।</p><p>
</p><p>
भूकम्प के बाद
से योग, साधना-ध्यान कार्यक्रम भी बढ़ गए हैं। तनाव कम करने के लिए
परंपरागत तरीकों का भरपूर इस्तेमाल किया जा रहा है। छोटे बच्चों के दिमाग से
भूकम्प का डर भगाने के लिए सेना की ओर से अहमदाबाद में एक कार्यक्रम किया
गया।</p>

<p>   </p>

<p>   भारत-बांग्लादेश सीमा पर
काँटेदार बाड़ लगेगी,काम अगले माह से   </p>

<p>                                                                                                                   </p>

<p>   अगरतला । त्रिपुरा
में 856 किलोमीटर लंबी भारत-बांग्लादेश अंतरराष्ट्रीय सीमा पर काँटेदार तारों की
बाड़ लगाने का कार्य अगले महीने शुरू हो जाएगा।</p><p>
</p><p>
बाड़ का उद्देश्य आतंकवादियों
की गतिविधियों पर अंकुश लगाना है।राज्य के सार्वजनिक निर्माण विभाग के
सचिव एवं मुख्य अभियंता एस. नाग ने पत्रकारों को यहाँ बताया कि यह निर्णय एक उच्च
स्तरीय बैठक में लिया गया।</p><p>
</p><p>
केंद्र सरकार ने
इसके लिए 8.75 करोड़ रुपए जारी किए हैं। उन्होंने कहा कि पहले चरण में
संवेदनशील पश्चिमी त्रिपुरा और ढलाई जिले में चालीस किलोमीटर लंबी सीमा पर बाड़
लगाई जाएगी। यहाँ कार्य 15 मार्च से शुरू हो जाएगा।</p><p>
</p><p>
नाग ने बताया
कि दूसरे चरण में दक्षिणी त्रिपुरा जिले के जलेया से बोलखाली तक की 39 किलोमीटर
लंबी सीमा पर बाड़ लगाई जाएगी।</p><p>
</p><p>
उन्होंने बताया
कि बाड़ लगाने की लागत लगभग प्रति किलोमीटर 28 लाख रुपए होगी और पूरी सीमा
856 किलोमीटर पर बाड़ लगाने का कुल खर्च 240 करा़ेड रुपए होगा।</p><p>
</p><p>
बाड़ की ऊँचाई
2.6 मीटर होगी। नाग ने बताया कि बाड़ लगाने की जिम्मेदारी केंद्र सरकार की
होगी और राज्य सरकार सभी सुविधाएँ और सहायता उपलब्ध कराएगी।</p><p>
</p><p>
उन्होंने कहा
कि बाड़ लगाने में पहाड़ी और दुर्गम क्षेत्रों को प्राथमिकता दी जाएगी क्योंकि सीमा
पार से आतंकवादी इन्हीं क्षेत्रों से प्रवेश करते हैं।</p><p>
</p><p>
इसी बीच सूत्रों
ने बताया कि त्रिपुरा में आतंकवादियों की घुसपैठ रोकने के लिए भारत-बांग्लादेश
सीमा पर सीमा सुरक्षा बल की दो अतिरिक्त बटालियन नियुक्त की गई है।    </p>

<p> </p>

<p>भरत शाह और रिजवी 28
फरवरी तक हिरासत में                             </p>

<p>                                                                                                                                                                                                                               </p>

<p>                                                                                                               मुंबई ।
वित्तपोषक भरत शाह, फिल्म निर्माता नसीम रिजवी और उसके सहायक अब्दुल रहीम अल्ला
बख्श को 28 फरवरी तक न्यायिक हिरासत में भेज दिया गया है।</p><p>
</p><p>
विशेेष
न्यायाधीश ए.पी. भांगले ने पुलिस को जल्द से जल्द आरोप-पत्र दाखिल करने के
निर्देश दिए हैं।भरत शाह को अदालत से पूछताछ के लिए प्रवर्तन निदेशालय ले जाया
गया।</p><p>
</p><p>
हवाला मामले में
बुधवार को दिनभर पूछताछ का आग्रह अदालत ने स्वीकार कर लिया। इससे पूर्व
भी दो बार प्रवर्तन निदेशालय पूछताछ कर चुका है।</p><p>
</p><p>
उधर अब्दुल
रहीम के वकील ने अदालत से गुजारिश की कि उसके मुवक्किल को मुंबई केंद्रीय
जेल से ठाणे जेल स्थानांतरित किया जाए। यहाँ एक कैदी ने उसे धमकी दी
थी।</p><p>
</p><p>
अभी इस मामले में
जेलर से रपट माँगी गई है। उसके बाद ही अर्जी पर विचार होगा। सरकारी वकील
सुश्री रोहिणी सालियां ने अदालत को बताया कि गिरोहबाज छोटा शकील की आवाज
का नमूना मिल गया है।</p><p>
</p><p>
उसे परीक्षण के
लिए प्रयोगशाला भेजा गया है। आरोप-पत्र 90 दिन की अवधि के अंदर दाखिल
कर दिए जाएँगे।</p>

<p>                                                                                                               </p>

<p>   सीबीआई द्वारा दायर
आरोप-पत्र दोषपूर्ण ः सुदर्शन                              </p>

<p>                                                                                                                   </p>

<p>   समस्तीपुर । राष्ट्रीय
स्वयंसेवक संघ के प्रमुख के.एस. सुदर्शन ने अयोध्या में 6 दिसंबर 1992 को विवादित
ढाँचे को ध्वस्त किए जाने के मामले में इलाहाबाद उच्च न्यायालय की लखनऊ खंडपीठ
द्वारा दिए गए फैसले का स्वागत किया है।</p><p>
</p><p>
उन्होंने कहा
कि केंद्रीय जाँच ब्यूरो द्वारा दायर आरोप-पत्र ही दोषपूर्ण हैं। सुदर्शन ने
संवाददाताओं से बातचीत में कहा कि सी.बी.आई. ने इस मामले में झूठी प्राथमिकी दर्ज
कर केंद्रीय गृहमंत्री लालकृष्ण आडवाणी, मुरलीमनोहर जोशी एवं उमा भारती समेत आठ
लोगों को फँसाने की साजिश की थी, लेकिन न्यायालय के फैसले से इसका
पर्दाफाश हो गया है।</p><p>
</p><p>
उन्होंने इस प्रकरण
में केंद्रीय गृहमंत्री आडवाणी समेत तीनों मंत्रियों को निर्दोष करार दिया और
कहा कि आरोप-पत्र ही गलत था।</p><p>
</p><p>
एक प्रश्न के
उत्तर में उन्होंने कहा कि पाकिस्तान कश्मीर में भाड़े के उग्रवादी भेजकर यहाँ के
लोगों पर हमले कराकर शांति बिगाड़ने में लगा है, जबकि प्रधानमंत्री अटलबिहारी
वाजपेयी शस्त्र-विराम की घोषणा और लाहौर यात्रा कर शांति का संदेश दे रहे
हैं।</p><p>
</p><p>
उन्होंने कहा
कि नीति-निर्माता ने आज पश्चिमी देशों की नकल करने में लगे हैं, जिसके कारण
हमारी अर्थव्यवस्था चरमराती जा रही है।</p><p>
</p><p>
उन्होंने कहा
कि भारत में सभी संसाधन उपलब्ध हैं और इसका उपयोग कर देशवासियों को
रोटी, कपड़ा, मकान और ऊर्जा की पूर्ति कर सभी हाथ को काम देना सरकार की
प्राथमिकता होनी चाहिए।</p><p>
</p><p>
उन्होंने कहा
कि स्वदेशी और विकेंद्रीकरण पर आधारित व्यवस्था ही देश का विकास कर सकती
है। आज सत्ता पर बैठे लोग विश्व व्यापार संगठन की ओर अधिक निर्भर हो गए
हैं, जिसके कारण आने वाले समय में इसके गंभीर परिणाम होंगे।</p><p>
</p><p>
उन्होंने कहा
कि देश की परंपरागत संस्थाओं एवं मूल्य देश की पूँजी हैं। इनको पहचान कर ही
भारत की जनशक्ति को विकास की मुख्य धारा से जोड़ा जा सकता है।</p><p>
</p><p>
उन्होेंने भारत
के मुस्लिमों से यहाँ की धरती से जुड़ने का आह्वान करते हुए कहा कि भारत
ही ऐसा देश है, जहाँ सभी धर्मों एवं जातियों के हित सुरक्षित हैं।          </p>

<p> </p>

<p>अल सल्वाडोर में भूकम्प
से 255 मृत; 2261 जख्मी                         </p>

<p>                                                                                                                                                                                                                               </p>

<p>                                                                                                               अनेक मकान, स्कूल,
दफ्तर और गिरजाघर ध्वस्त</p><p>
</p><p>
बुधवार
। दक्षिण अमेरिकी देश अल सल्वाडोर में मंगलवार को जबर्दस्त भूकम्प से कम से कम
255 लोग मारे गए और 2261 से अधिक घायल हुए हैं। रिक्टर पैमाने पर 6.6
तीव्रता वाले इस भूकम्प से अनेक मकान, स्कूल, दफ्तर और गिरजाघर ध्वस्त हो गए।</p><p>
</p><p>
ठीक एक माह
पहले ही यहाँ 7.6 तीव्रता वाले भूकम्प ने 844 लोगों को लील लिया था और हजारों
को बेघर कर दिया था। वे अभी अपने बसेरे फिर से बना भी नहीं पाए थे कि इस
भूकम्प ने उन्हें और बर्बाद कर दिया।</p><p>
</p><p>
अल सल्वाडोर के
राष्ट्रपति के प्रवक्ता ने बताया कि मृतकों की संख्या लगातार बढ़ रही है। मृतकों
की निश्चित संख्या हमें मालूम नहीं है लेकिन हजारों लोग प्रभावित हुए हैं।</p><p>
</p><p>
सुबह 8 बजकर 22
मिनट (भारतीय समयानुसार शाम 7.52) पर आए इस भूकम्प के बाद देश के सभी
स्कूल-कॉलेज बंद कर दिए गए हैं। गत 13 जनवरी को भूकम्प में मारे गए लोगों
को श्रद्धांजलि देने के लिए मंगलवार को देशभर के गिरजाघरों में प्रार्थना सभाओं का
आयोजन किया गया था, मगर इस भूकम्प के बाद उन्हें स्थगित कर दिया गया।</p><p>
</p><p>
भूकम्प का
झटका उस वक्त आया जब ज्यादातर लोग अपने दफ्तरों के लिए निकल चुके थे।
धरती में कंपन शुरू होते ही हजारों लोग बदहवासी में सड़कों पर निकल
आए।</p><p>
</p><p>
सबसे ज्यादा
तबाही सान सल्वाडोर की राजधानी के निकटवर्ती चार जिलों ला पेज, कस्कात्लान,
सेन विसेंट तथा लालिवरता में हुई है।</p><p>
</p><p>
क्षेत्रीय पुलिस
आयुक्त रोबर्टो विलालोब्स ने बताया कि अकेले ला पेज तथा कस्कात्लान में ही 102
मौतें हुई हैं।</p><p>
</p><p>
राष्ट्रीय आपदा
समिति ने मंगलवार को खबर दी थी कि मरने वालों की संख्या 173 हो गई है तथा
1557 लोग घायल हुए हैं।अल सल्वाडोर के सार्वजनिक निर्माण मंत्री जोस एंजल
क्वीरोज के अनुसार भूकम्प के कारण सन विसेंट शहर के करीब दो सौ मकान ढह गए
हैं और मलबेमें लोग दबे हुए हैं।</p><p>
</p><p>
लूटपाट रोकने
लिए भूकम्पग्रस्त इलाकों में कर्फ्यू लगा दिया गया है। कोजूत्पेक शहर के बाहरी
हिस्से में केंडेलरिया गाँव में एक स्कूल की इमारत ढहने से पाँच बच्चों तथा उनके
शिक्षक की मौत हो गई है। उसी गाँव में मलबे के नीचे 15 बच्चे दब गए हैं।</p><p>
</p><p>
कोजूत्पेक शहर
में 39 वर्षीय जोस हनेंडर नेे बताया कि उसका मकान ढह गया है। उसने बताया कि
सब कुछ बहुत भयावह है। समझ में नहीं आता कि लोगों के लिए क्या किया जाए, सब
तरफ से सिर्फ लोगों के चिल्लाने की ही आवाजें सुनाई दे रही हैं।</p><p>
</p><p>
मंगलवार वाले
भूकम्प के झटके निकटवर्ती मध्य अमेरिकी देशों ग्वाटेमाला तथा होंडूरास में भी
महसूस किए गए।</p><p>
</p><p>
रेडक्रॉस के
अनुसार राजधानी से 18 किलोमीटर दूर सान मार्टिन शहर में कई लोग इमारतों के
मलबे में दब गए।</p><p>
</p><p>
अमेरिकी मौसम
विभाग के अनुसार भूकम्प की तीव्रता 6.6 आँकी गई है तथा इसे 20 सेकंड तक
महसूस किया गया। भूकम्प का केंद्र सान सल्वाडोर के 24 कि.मी. दूर दक्षिण-पश्चिम
में था।</p><p>
</p><p>
भूकम्प के
कारण लोग बदहवास होकर सड़कों पर निकल आए, स्कूल बंद कर दिए गए। एक
प्रत्यक्षदर्शी ने बताया कि दफ्तरों के सभी लोग काम छोड़कर सड़कों पर आ गए।</p><p>
</p><p>
बचाव दल ने
बुधवार सुबह कई कस्बों के ध्वस्त मकानों में मलबों में फँसे जीवित लोगों
को तलाशने का काम शुरू किया। इसके अलावा ध्वस्त हुई इमारतों, स्कूलों और
गिरजाघरों के मलबों में भी इस उम्मीद से खोजबीन जारी है कि शायद इनमें कोई
जीवित बचा हो।</p><p>
</p><p>
अल साल्वाडोर
के राष्ट्रपति फ्रांसिस्को फ्लोरेंस ने मंगलवार को देर रात राष्ट्र के नाम प्रसारित
अपने संदेश में कहा कि अभी लोगों की जान बचाना पहली प्राथमिकता है। ऐसी
स्थिति में बचाव के काम को प्राथमिकता दी जा रही है।</p><p>
</p><p>
पहले मलबे में
फँसे लोगों तथा घायलों को निकालने का काम किया जा रहा है। उन्होंने
बताया कि राजधानी से करीब 68 किलोमीटर पूर्व में स्थित सन विसेंट शहर के
लगभग आधे मकान और समीपवर्ती अनालकितो सान एमिग्डियो, गुआडुलूप और
वेरेपाजा शहरों के भी 70से 80 फीसदी मकान भूकम्प से पूरी तरह नष्ट हो गए हैं।</p>

<p>                                                                                                               </p>

<p>सुमात्रा द्वीप भी
थर्राया,भूकम्प का केंद्र हिंद महासागर में                     </p>

<p>                                                                                                                                                                                                                               </p>

<p>                                                                                                               जकार्ता।
इंडोनेशिया की राजधानी जकार्ता से खबर है कि देश के सुमात्रा द्वीप का
दक्षिणी तट मंगलवार रात जोरदार भूकम्प से काँप गया।</p><p>
</p><p>
जकार्ता स्थित
मौसम एवं भू-भौतिक ब्यूरो ने बताया कि रात 2 बजकर 28 मिनट (भारतीय समयानुसार
रात 12.58) पर आए इस भूकम्प की तीव्रता रिक्टर पैमाने पर 5 आँकी गई तथा इसका
केंद्र बेंगवुलू शहर से 21 कि.मी. दूर हिंद महासागर में था।</p><p>
</p><p>
डैनी नामक एक
अधिकारी ने बताया कि अभी तक जान-माल के नुकसान की कोई खबर नहीं
है। सरकारी संवाद एजेंसी अंतारा ने बताया कि जकार्ता की कुछ ऊँची इमारतों में
ऊपरी मंजिलों में रहने वाले लोगों ने भूकम्प का झटका महसूस किया।</p><p>
</p><p>
ऑस्ट्रेलियाई
जियोलॉजिकल सर्वे ऑर्गेनाइजेशन ने भूकम्प की तीव्रता 7.4 आँकी है। बहरहाल
जकार्ता स्थित राष्ट्रीय आपदा समन्वय केंद्र के एक अधिकारी ने इस भूकम्प को
बहुत मामली झटका निरूपित किया।</p><p>
</p><p>
उन्होंने बताया
कि हम बेंगवुलू शहर के अधिकारियों से सतत संपर्क में हैं। वहाँ से
नुकसानी की कोई खबर नहीं है।</p><p>
</p><p>
                                                                                                               </p>

<p>बजट में रियायतेंें
नहीं,नया पैकेज उद्योग जगत को पसंद आएगा          </p>

<p>                                                                                                                                                                                                                               </p>

<p>                                                                                                               नई दिल्ली ।
वित्तमंत्री यशवंत सिन्हा ने आगामी बजट में प्रत्यक्ष करों के ऐसे पैकेज का संकेत
दिया है, जो वाणिज्य और उद्योग जगत को पसंद आएगा।</p><p>
</p><p>
आगामी वर्षों में
9 प्रतिशत की विकास दर का लक्ष्य हासिल करने की आशा व्यक्त करते हुए सिन्हा ने किसी
प्रकार की रियायतों तथा कर अवकाश की संभावनाओं को दरकिनार कर दिया।</p><p>
</p><p>
एसोचैम के
वार्षिक अधिवेशन में उन्होंने उद्योगों से कहा कि वे कर चुकाने में शर्मिंदगी
महसूस न करें। भारत में कर ढाँचा अभी भी दुनिया के अन्य मुल्कों की अपेक्षा कम
है।</p><p>
</p><p>
रकार प्रत्यक्ष कर
ढाँचे के एक पैकेज पर विचार कर रही है। मुझे उम्मीद है इससे आप निराश नहीं
होंगे। उन्होंेने कहा कि पूर्ववर्ती वित्तमंत्री ने आयकर ढाँचे को वाजिब बनाने
का कार्य कर दिया था।</p><p>
</p><p>
अधिभार की
दरों के अलावा मैंने इसमें कोई छेड़छाड़ नहीं की। वित्तमंत्री ने राजनीतिक
दलों के बीच आम सहमति की आवश्यकता पर भी जोर दिया। जहाँ तक डम्पिंग का
सवाल है, सरकार ने घरेलू उद्योगों को गलाकाट स्पर्धा से बचाने के उपाय किए
हैं।</p><p>
</p><p>
देश का उद्योग
और वाणिज्य जगत इस बात से वाकिफ है कि मात्रात्मक प्रतिबंध कुछ संवेदनशील
वस्तुओं को छोड़ शेष से अप्रैल 2001 तक समाप्त हो जाएँगे।</p><p>
</p><p>
इस अवधारणा
को आपने गलत बताया कि मात्रात्मक प्रतिबंध हटाने से भारतीय उद्योग तबाह हो
जाएँगे। हमने आयात के आँकड़ों का विश्लेषण करने के बाद इसे निराधार
पाया है।</p><p>
</p><p>
सिन्हा ने कहा
कि सरकार केंद्रीय उत्पाद शुल्क की एकमात्र सेनवैट दर को बरकरार रखने की दिशा
में आगे कदम बढ़ाएगी।</p><p>
</p><p>
इस दर को कम
करने अथवा अन्य किसी तरह की कर रियायतें दिए जाने की उद्योगों की माँग को उन्होंने
यह कहकर दरकिनार कर दिया कि सरकार उन्हीं कर दरों को रखना चाहती है, जिन्हें
आगे भी बरकरार रखा जा सकता है।</p><p>
</p><p>
उन्होंने कहा कि
400 से अधिक वस्तुओं को पहले ही 8 प्रतिशत शुल्क दर से निजात दी जा चुकी है
और अब केवल 16 प्रतिशत की केंद्रीय उत्पाद शुल्क दर ही रखी गई है।</p><p>
</p><p>
उन्होंने कहा
कि राज्य सरकारों को भी 1 अप्रैल 2002 से बिक्री कर में वैट प्रणाली शुरू करने के
लिए कहा जा रहा है।सकल घरेलू उत्पाद (जीडीपी) में 9 प्रतिशत वार्षिक वृद्धि दर हासिल
करने के प्रति उम्मीद जताते हुए आपने कहा कि देश में उपभोक्ता वर्ग बढ़ रहा है।</p><p>
</p><p>
6 प्रतिशत की
वृद्धि दर को उम्मीद से कम माना जा रहा है। उल्लेखनीय है कि चालू वित्तवर्ष में
जीडीपी वृद्धि दर 6 प्रतिशत रहने की संभावनाएँ व्यक्त की जा रही हैं।</p><p>
</p><p>
वित्तमंत्री ने
कहा कि आर्थिक उदारीकरण को आगे बढ़ाने के लिए जिस प्रकार राजनीतिक दलों के
बीच आम सहमति आवश्यक है, उसी प्रकार उद्योग और व्यापार मंडलों के बीच भी विभिन्न
करों की दरों के बारे में सहमति अब जरूरी लगती है।</p><p>
</p><p>
उच्च आर्थिक वृद्धि
दर हासिल करने के लिए यह अब जरूरी हो गया है कि वाणिज्य एवं उद्योग मंडल शुल्क
दरों के स्तर के बारे में आपस में सहमति बनाएँ।</p><p>
</p><p>
श्रम कानूनों के
सुधार की दिशा में अब तक कुछ खास नहीं किए जाने पर एसोचेम अध्यक्ष शेखर बजाज
की चिंता के प्रति अपनी प्रतिक्रिया में वित्तमंत्री ने कहा कि इस मामले में उद्योग और
सरकार दोनों की तरफ से ही ढील हुई है।</p><p>
</p><p>
दोनों ही
कर्मचारी संघों और श्रमिकों को बदलाव के प्रति आश्वस्त नहीं कर पाए हैं।       </p>

<p> </p>

<p>भारत-रूस के बीच विमान
निर्माण का महत्वपूर्ण समझौता                  </p>

<p>                                                                                                                                                                                                                               </p>

<p>                                                                                                               नई दिल्ली। सोलह
सीटों और सो सीटों वाले यात्री विमानों के निर्माण के लिए राजी हो चुके भारत
और रूस ने बुधवार को एक अत्यंत महत्वपूर्ण समझोते पर हस्ताक्षर किए,जिससे
नागर विमानन क्षेत्र में साझी परियोजनाओं का मार्ग प्रशस्त होगा।</p><p>
</p><p>
नागर विमानन
मंत्री शरद यादव और भारत आए रूस के उपप्रधानमंत्री इल्या क्लेबानोव ने विमानन
सुरक्षा को ज्यादा कारगर प्रणालियों और मानकों को युक्तिसंगत बनाने तथा पुरानी
पड़ चुकी जाँच मूल्यांकन और परीक्षण व्यवस्थाओं के कारण उड्डयन उद्योग और सेवा
प्रदाताओंपर पड़ने वाली आर्थिक बोझ कम करने में मदद मिलने की आशा है।</p><p>
</p><p>
क्लेबानोव ने
कहा कि समझौेते से रूसी राष्ट्रपति ब्लादिमीर पुतिन की गत वर्ष भारत यात्रा के
दौरान प्रमुक क्षेत्रों में दोनों देशों के भागीदारी फैसले को मजबूती मिली है
जिसमें संयुक्त रूप से उत्पादों को अंतरराष्ट्रीय बाजार में पेश करने का निर्णय लिया
गया था।</p><p>
</p><p>
रूसी
उपप्रधानमंत्री ने कहा कि समझौेता न केवल कलपुर्जे जोड़कर आधुनिक
विमान भारत में बनाने बल्कि आधुनिकतम विमानों की डिजाईन एवं शोध की
समूची प्रक्रिया को गति देने का मार्ग प्रशस्त करेगा।</p><p>
</p><p>
यादव ने समझोते
पर संतोष व्यक्त करते हुए कहा कि संयुक्त निर्माण कार्यक्रमों से दोनों देशों की
अर्थव्यवस्था को बल मिलेगा।</p><p>
</p><p>
वार्ता                                                                                                         </p>

<p>बांग्लादेश में हड़ताल
के दौरान एक व्यक्ति की मौत ,20 घायल         </p>

<p>                                                                                                                                                                                                                               </p>

<p>                                                                                                               ढाका। बांग्लादेश
में विपक्ष के आह्वान पर बुधवार को हुई हड़ताल में एक व्यक्ति की मौत हो
गई और 20 घायल हो गए। जन जीवन ठप हो गया।</p><p>
</p><p>
पुलिस ने बताया
कि विपक्षी पार्टी बांग्लादेश नेशनलिस्ट पार्टी के कार्यकर्ता मोइनुल हुसैन की
लालबाग इलाके में उस समय मौत हो गई जब उसके द्वारा ले लाया जा रहा देशी बम फट
गया।</p><p>
</p><p>
प्रत्यक्षदर्शियों
ने बताया कि घटना के समय हुसैन हड़ताल विरोधियों के साथ भिड रहा था।
उसकी बाद में अस्पताल मे मौत हो गई।</p><p>
</p><p>
प्रत्यक्षदर्शियों
ने बताया कि हड़ताल समर्थकों की पुलिस के साथ हुई झड़प में कम सक कम 15 लोग
घायल हो गए। पुलिस ने बताया कि तीन लोग उस समय घायल हो गए जब अज्ञात
व्यक्तियों के एक दल ने मिरोपुर इलाके में एक बम फेंका।</p><p>
</p><p>
                                                                                                               </p>

<p>कोयला खान से निकाले
गए मृत श्रमिकों की सूची जारी                     </p>

<p>                                                                                                                                                                                                                               </p>

<p>                                                                                                               नई दिल्ली।
धनवाद में भारत कोकिंग कोल लिमिटेड ने बुधवार को उन श्रमिकों की
सूची जारी कर दी, जिनके शव वागडिगी खान से निकाले गए।</p><p>
</p><p>
इस खान में गत
दो फरवरी को हुई दुर्घटना के समय 30 खनिक एवं अधिकारी काम पर थे।
एक खनिक सलीम अंसारी को खान से बाहर निकाल लिया गया था। अभी तक 25
लोगों के शव निकाले जा चुके हैं।</p><p>
</p><p>
मृतकों की
सूची इस प्रकार है-प्रीतम सिंह केवलमैन , छोटु मियां माइन मिस्त्री ,चन्द्रदेव हरिजन
ड्रेसर,वजमोहन सिंह मेकनिकल टेंडर , शिवचरण तांती केवलमैन , अनुप यादव प्राप
मजदूर, आर सी यादव फोरमैन इंचार्ज, .ए.कुमार .. ओवरमैन, मनोज कुमार जयसवाल
केवलमैन</p><p>
</p><p>
ए. के. उपाध्याय
प्रबंधक, अब्दुल हमीद माइनिंग सिरदार, संतराज प्रसाद केवलमैन, वंशी वरही
साफ्टफायर मजदूर , दशरथ फीटर ,ए.के.मंडल फोरमैन इन्चार्ज, श्यामलाल कोर जनरल
मजदूर ,मोहन धटवार एस डी एल आपकेटक, मो0 जयनुल अब्दीन फीटर फूल्पक ,
गुलजार साफ्टफायर मजदूर, नारायन वरही माइनिंग सिरदार, श्यामापादेन वरही ड्रीलर ,
लाखन सोरेन ड्रीलर एवं काला रविदास ड्रीलमैन, रामावधाक पासवान जनरल मजदूर
एवं स्वामी नाम नोनिंया माइनिंग सिरदार शामिल हैं। </p>

<p>                                                                                                               </p>

<p>राघवन की नियुक्ति को
निरस्त करने वाले फैसले को चुनौती              </p>

<p>                                                                                                                                                                                                                               </p>

<p>                                                                                                               बंगलोर। कर्नाटक
उच्च न्यायालय ने आर.के.राघवन की सीबीआई निदेशक के रुप में नियुक्ति को निरस्त
करने वाले केन्द्रीय प्रशासनिक प्राधिकरण (कैट) की बंगलोर खंडपीठ के
फैसले को चुनौती देने वाली केन्द्र सरकार की याचिका बुधवार को
विचारार्थ स्वीकारकर ली।</p><p>
</p><p>
मुख्य
न्यायाधीश न्यायमूर्ति पी.वी. रेड्डी और न्यायमूर्ति के.एल.मंजुनाथ ने हालांकि
कैट के फैसले पर रोक लगाने की दलील पर फैसला सुरक्षित रखा है।</p><p>
</p><p>
केन्द्र सरकार
की तरफ से पेश होते हुए अटार्नी जनरल सोली सोराबजी ने दलील दी कि प्रतिवादी
श्रीदिनकर ने इस आधार पर दावा किया है कि उनका नाम इस पद के लिए
उम्मीदवारों की सूची के पैनल में शामिल था और पूर्व प्रधानमंत्री एच.डी.
देवगौडा ने पूछा था किक्या वह इस पद को स्वीकार करने के लिये तैयार हैं।</p><p>
</p><p>
इस आधार
को प्राधिकरण ने सही नहीं माना और इसी आधार पर आवेदन को निरस्त
कर दिया जाना चाहिए, लेकिन प्राधिकरण ने उच्चतम न्यायालय के विनीत नारायण
के मामले के फैसले को ध्यान में लिया जो सही और उचित नहीं था।</p><p>
</p><p>
इस बीच श्री
दिनकर ने सरकार को निर्देश देने के लिए बीच में आवेदन दायर किया है कि
सेवानिवृत्ति की तिथि 28 फरवरी के बाद भी उनकी सेवा याचिका के मद्देनजर जारी
रखी जाए और यदि जरुरी हो तो इस उद्देश्य के लिए केन्द्र सरकार को एक अध्यादेश
जारी करनेके लिए कहा जाए।</p><p>
</p><p>
वार्ता                                                                                                         </p>

<p> </p>






</body></text></cesDoc>