<cesDoc id="tam-w-socsci-law-dhanda" lang="tam">
<cesHeader type="text">
<fileDesc>
<titleStmt>
<h.title>tam-w-socsci-law-dhanda.txt</h.title>
<respStmt>
<respType>Electronic file created by</respType>
<respName>Central Institute for Indian Languages, Mysore</respName>
<respType>transferred into Unicode and CES format by</respType>
<respName>"Unicodify" software by Andrew Hardie</respName>
</respStmt></titleStmt>
<publicationStmt>
<distributor>UCREL (on behalf of CIIL)</distributor>
<pubAddress>Department of Linguistics, Lancaster University, Lancaster, LA1 4YT, UK</pubAddress>
<availability region="WORLD"></availability>
<pubDate>03-07-04</pubDate>
</publicationStmt>
<sourceDesc>
<biblStruct>
<monogr>
<h.title>இந்தியத் தண்டனைச் சட்டம் - விளக்கம்</h.title>
<h.author>வை. சண்மு'சுந்தரம்</h.author>
<imprint>
<pubPlace>India</pubPlace>
<publisher>Unknown - Book</publisher>
<pubDate>1991</pubDate>
</imprint>
<idno type="CIIL code">dhanda</idno>
</monogr></biblStruct></sourceDesc></fileDesc>
<encodingDesc>
<projectDesc>Text collected for the CIIL Corpus, subsequently integrated into the EMILLE/CIIL Monolingual Written Corpora.</projectDesc>
<samplingDesc>Simple written text only has been transcribed. Diagrams, pictures and tables have been omitted. Sampling begins at page 38.</samplingDesc>
<editorialDecl><conformance level="1"></conformance></editorialDecl>
</encodingDesc>
<profileDesc>
<creation><date>03-07-04</date></creation>
<langUsage>Tamil</langUsage>
<wsdUsage>
<writingSystem id="ISO/IEC 10646">Universal Multiple-Octet Coded Character Set (UCS).</writingSystem>
</wsdUsage>
<textClass>
<channel mode="w">print</channel>
<constitution type="composite"></constitution>
<domain type="public"></domain>
<factuality type="fact"></factuality>
</textClass>
<translations></translations>
</profileDesc>
<revisionDesc></revisionDesc>
</cesHeader>

<text><body>

<p>பக்கம்:3
               இந்தியத் தண்டனைச் சட்டம்
                       (விளக்கம்)</p>

<p>     ஜம்மு-காஶ்மீர் மாநிலம் நீங்கலாக இந்தியா முழுவதற்~
கும் பொதுவானதொரு தண்டனைச் சட்டம் தான் இந்தியன்
பீனல் கோடு எனப்படும். இந்தச் சட்டம் 1860 வருஶத்திய
45 வது சட்டமாகும். ஆங்கிலேயர் நம்மை ஆண்டபோது
கொண்டு வரப்பட்ட சட்டமாகும்.</p>

<p>     இந்தச் சட்டம் 23 அ஥ிகாரங்களைக் கொண்டது. 511
பிரிவுகள் இந்தச் சட்டத்தில் அடங்கியுள்ளது.</p>

<p>     மெகாலே பிரபு தலைமையில் 14-10-1837ல் ஒரு
தண்டனைச் சட்டம் பற்றிய மசோதா இந்தியாவிற்காகத்
தயாரிக்கப்பட்டு அந்நாளைய அரசிடம் தரப்பட்டது. அந்த
மசோதாவில் 488 பிரிவுகள் மட்டுமே இருந்தது. பிறகு பல
புதிய பிரிவுகள் சேர்க்கப்பட்டன.</p>

<p>     அந்தச் சட்டத்தினை நீதிபதிகளுக்கும், சட்ட மேதை~
களுக்கும் அனுப்பி அவர்கள் கருத்துக்களை அறிய அரசாங்கம்
விழைந்தது. அந்நாளைய சூழ்நிலையில் உருவாக்கப்பட்ட அம்~
மசோதா 6-10-1860 வரைக் கிடப்பில் கிடந்தது. சுமார்</p>

<p>பக்கம்:4
25 ஆண்டுகள் ஆனபிறகே அம்மசோதா சில திருத்தங்~
களோடு இந்்தியத் தண்டனைச் சட்டமாக உருவானது.</p>

<p>     முதலில்் 488 பிரிவுகள் புகுத்தப்பட்டன பிறகு 511
பிரிவுகளும் பல திருத்தச் சட்டங்கள் சேர்ந்த பிறகு 530 பிரி~
வுகளும் கொண்டதொரு சட்டமாக மாறிற்று. 1-1-1861
முதல் நடைமுறைக்கு வருவதாக இருந்தது. இருந்த போதி~
லும் அந்தத் தேதி 1-1-1862 ஆ஖ மாற்றப்பட்டது.</p>

<p>     ஐந்து பிரிவுகளைக்கொண்ட முதல் அத்தியாயம் இந்தியத்
தண்டனைச் சட்டத்திற்கு ஒரு முன்னுரையாக அமைந்துள்~
ளது. இந்தச் சட்டம் அமுலுக்கு வருவதற்கு முன் இந்தியா
முழுவதற்கும் ஒரே மாதிரியான தண்டனைச் சட்டம் இல்லை.
பம்பாய், கல்கத்தா, சென்னை என்ற மூன்று நகரங்களிலும்
ஆங்கிலேயரின் தண்டனைச்சட்டம் அமுலில் இருந்தது. வெளி
மாவட்டங்களில் முகலாயரின் தண்டனைச் சட்டம் வெவ்வேறு
விதமாக இருந்து வந்தது. இந்தத் தண்டனைச் சட்டம்
1-5-1861 முதல் அமுலுக்கு வருவதாக இருந்தது. ஆனால்
சில காரணங்களால் அது 1-1-86 முதல் அமுலுக்கு வரத்
தொடங்கிற்று.</p>

<p>     இந்தச் சட்டத்தின்஼படி இந்திய எல்லைக்குள் எவரொரு~
வர் குற்றம் புரிந்தாலும், சாதி, மதம், நிறம், குடியுரிமை
அந்தஸ்து முதலியவற்றைப் பாராமல் பாரபட்சமின்றி தண்~
டிக்கப்படுவர்; எவரும் தண்டனையிலிருந்து தப்பமுடியாது;
இந்திய எல்லைக்குள் புகுந்த அந்நியர் எவரும் குற்றம்செய்து
விட்டுத் தப்பித்துவிட முடியாது. தங்கள் நாட்டில் அவர்கள்
செய்த செயல்கள் குற்றமாகா; அதனால் ""தாங்கள் குற்றம்
செய்யவில்லை எங்கள் நாட்டுச் சட்டப்படி"" எனக் கூறித்
தப்பித்துக் கொள்ள முடியாது. அவர்கள் செய்த தீய செய~
லுக்கு இச்சட்டப்படியே தண்டனை வழங்கப்படும்.</p>

<p>பக்கம்:5
     இந்தியாவுக்கு வெளியேயும் இந்தியாவில் பதிவு செய்~
யப்பட்ட ஒரு கப்பல் அல்லது ஆகாய விமானம் எதிலேனும்
இந்தியக்குடிமகன் ஒருவன் குற்றம்செய்தால் அவனை, இந்தச்
சட்டத்தின்படித் தண்டிக்கலாம். சில உதாரணங்கள் இங்கே
இந்தப் பிரிவுகளை விளக்கத் தரலாம்.</p>

<p>     இந்தியக்குடி மகன் ஒருவன் கூலிவேலை செய்ய உகாண்டா
சென்று இருந்தான். அங்கு கொலை ஒன்று செய்துவிட்டான்.
அவனை இந்தச் சட்டப்படி இங்குத் தண்்டிக்கலாம்.</p>

<p>     இந்தியாவந்திருந்த பிரிட்டீஶ்காரன் ஒருவன் காஶ்மீரில்
ஒரு கொலை செய்து விட்டான். அவனை இந்தியாவில் இந்தச்,
சட்டப்படித் தண்டிக்கலாம்.</p>

<p>     இரண்டாவது அத்தியாயத்தில் பொது விளக்கங்கள்
தரப்பட்டுள்ளன. 6வது பிரிவிலிருந்து 52A பிரிவு வரை
பொது விளக்கஙகள் தரப்்பட்டுள்ளன. இந்த விளக்கங்கள்
தான் இந்த நூலின் திறவுகோலாக உள்ளன. பால், எண்,
ஆடவன், மகள், ஆள், பொதுமக்கள், அரசு, அரசு ஊழியர்
இந்தியா, நீதிபதி, அசையும் பொருள், சட்டவிரோதமான
ஆதாயம், சட்டவிரோதமான இழப்பு, நேர்மையற்றவழி,
மோசடி, நம்புவதற்குக் காரணம், கள்ளத் தயாரிப்பு, பத்தி~
ரம், பெறுமதிப்புப் பத்திரம், உயில், செய்கை, விடுகை
குற்றம், சுயேச்சையாக, சிறப்புச் சட்டம், வட்டாரச் சட்~
டம், கேடு, சட்டத்திற்கு மாறான, உயிர், மரணம், விலங்கு,
கலம், ஆண்டு, மாதம், பிரிவு, பிரமாணம், நல்லெண்ணம்,
புகலளித்தல் போன்ற முக்கிய சொற்களுக்கு விளக்கங்கள்
ஒவ்வொரு பிரிவிலும் தரப்பட்டுள்ளன.</p>

<p>     மூன்றாவது அத்தியாயத்தில் தண்டனைகளைப் பற்றிய
விபரங்கள் தரப்பட்டுள்ளன. 53 பிரிவிலிருந்து 75 பிரிவுகள்
வரை அதில் உள்஼ளன.</p>

<p>பக்கம்:6
     இச்சட்டத்தின்படி, குற்றவாளிகளை ஐந்து வகையான
தண்டனைக்குள்ளாக்கலாம். அவையாவன:</p>

<p>     1)  மரணம்</p>

<p>     2)  ஆயுள் சிறைவாசம்</p>

<p>     3)  இரண்டு வகையான சிறைத்தண்டனை வழங்குதல்</p>

<p>     i)  கடுங்காவல்-அதாவது சிறைச்சாலையில் குற்றவாளி~
யைக் கடுமையாக உழைக்கச் செய்தல்</p>

<p>     ii) மெய் காவல்</p>

<p>     4)  சொத்தின் தண்ட இழப்பு</p>

<p>     5)  அபராதம்</p>

<p>     1955ம் ஆண்டுக஼்குமுன் ஆயுள் சிறைவாசத்திற்குப்பதில்
குற்றவாளிகள் தீவாந்தரத்துக்கு (அந்தமான் தீவில் உள்ள
சிறை) அனுப்பப்பட்டனர். இப்போது அம்முறை மாற்றப்
பட்டுக் கடுங்காவல் தண்டனை அளிக்கப்படுகிறது.</p>

<p>     மரண தண்டனை அளிக்கப்பட்டிருக்கும் ஒவ்வொரு வழக்~
கிலும் குற்றவாளியின் சம்மதமின்றி அந்தத் தண்டனையை
இந்தச் சட்டத்தின்படி வேறு எந்தத் தண்டனையாகவோ
மாற்ற அரசுக்கு அதிகாரமுண்டு.</p>

<p>     ஆயுள் சிறைத் தண்டனை விதிக்கப்பட்டிருக்கும் ஒவ்~
வொரு வழக்கிலும் குற்றவாளியின் சம்மதம் பெறாமலே
அந்தத் தண்டனையை பதினான்கு ஆண்டுகளுக்கு மேற்படா~
மல் இரண்டு வகைச் சிறைத் தண்டனைகளில் ஒன்றாக மாற்ற
அரசாங்கத்திற்கு அதிகாரமுண்டு.</p>

<p>பக்கம்:7
     தண்டனைக் கால அளவுகளின் பின்னங்களைக் கணக்கிடு~
வதில் ஆயுள் சிறைவாசமானது 20 ஆண்டு சிறைத் தண்ட~
னைக்குச் சமமானது போன்று கணக்கிடப்படுதல் வேண்டும்.</p>

<p>     இரண்டு வகைச் சிறைத் தண்டனைப் பற்றிப் பார்த்~
தோம். ஒரு குற்றவாளி தண்டிக்கப்படக்கூடிய ஒவ்வொரு
வழக்கிலும், அத்தகைய குற்றவாளியைத் தண்டிக்கும் நீதி~
மன்றம் அத்தகைய சிறைத்தண்டனை முழுவதும் கடுங்காவ~
லாக இருக்க வேண்டுமென்றோ அல்லது சிறைத் தண்டனை
முழுவதும் மெய்க்காவலாக இருக்க வேண்டுமென்றோ அல்~
லது அத்தகைய சிறைத் தண்டனையின் எந்தப் பகுதியிலே~
னும் கடுங்காவலாகவும், எஞ்சியது மெய்க்காவலாகவும்
இருக்க வேண்டுமென்றோ அந்தத் தீர்ப்புத் தண்டனையில்
ஆணையிட அதிகாரமுண்டு.</p>

<p>     சிறைவாசமும், அபராதமும்விதித்துத் தண்டிக்கக்கூடிய
குற்றம் ஒன்றில் குற்றவாளி சிறைவாசத் தண்டனையுடனோ
அல்லாமலோ ஓர் அபராதம் விதித்துத் தண்டிக்கப்படும் ஒவ்~
வொரு வழக்கிலும் சிறைவாசமோ, அபராதமோ விதித்து
அல்லது அபராதம் மட்டுமே விதித்துத் தண்டிக்கக்கூடிய
குற்றமொன்றில் குற்றவாளி அபராதம் விதித்துத் தண்டிக்~
கப்படும் ஒவ்வொரு வழக்கிலும் அபராதம் செலுத்தத் தவறி~
னால் ஒரு குறிப்பிட்ட கால அளவிற்குக் குற்றவாளி சிறை~
வாசம் அனுபவிக்க வேண்டும் என்று தன் தீர்ப்புத் தண்டனை~
யில் உத்தரவிடுவதற்கு அத்தகையை குற்றவாளிக்கு தீர்ப்புத்
தண்டனை வழங்குகிற நீதிமன்றம் அதிகாரம் வாய்ந்ததா~
கும். அந்தச் சிறைத் தண்டனையானது அவருக்கு விதித்திருக்~
கப்படக்கூடிய அல்லது தண்டனை மாற்றப்படுமானால் அவர்
உள்ளாகக் கூடிய வேறெந்த சிறைத் தண்டனையுடன் கூடுத~
லானதாக இருத்தல் வேண்டும்.</p>

<p>     ஓர் அபராதம் செலுத்தத் தவறியதற்காக எந்தக் கால
அளவிற்குக் குற்றவாளி சிறையில் வைக்கப்பட வேண்டும்</p>

<p>பக்கம்:8
என்று நீதிமன்றம் உத்தரவிடுகிறதோ அந்தக் கால அள~
வானது அக்குற்றம் சிறைவாசமும், அபராதமும் விதித்துத்
தண்டிக்கக் கூடியதாயிருக்குமானால். அக்குற்றத்திற்கு உச்ச
அளவாக நிர்ணயிக்கப்பட்டிருக்கும் சிறைவாசக்கால அளவில்
நாளில் ஒரு பங்குக்கு மேற்படுதல் கூடாது.</p>

<p>     ஒரு குற்றத்திற்கு அபராதம் மட்டுமே விதித்துத் தண்~
டிக்கப்படக் கூடியதாக இருக்குமேயானால், குற்றவாளி அப~
ராதம் செலுத்தத் தவறியதற்காக நீதிமன்றம் விதிக்கும்
சிறைத் தண்டனைக் கடுங்காவலாக இருக்கக்கூடாது; மெய்க்~
காவலாக இருத்தல் வேண்டும். மற்றும் அபராதம் செலுத்~
தத் தவறியதற்காக எந்தக் கால அளவுக்குக் குற்றவாளியைச்
சிறையில் வைக்க வேண்டும் என்று நீதிமன்றம் ஆணையிடு~
கிறதோ அந்தக்கால அளவு பின்வரும் திட்டத்திற்கு மேற்~
படுதலாகாது அதாவது அபராதத் தொகை 60/-ரூபாய்க்கு
மேற்படக்கூடாது என்று இருக்஼கும்போது 2 மாதங்களுக்கு
மேற்படாத எந்த காவலுக்கும், மற்றும் அபராதத்தொகை
100 ரூபாய்க்கு மேற்படக்கூடாது என்றிருக்கும்போது 4
மாதங்களுக்கு மேற்படாத எந்தக் கால அளவுக்கும் மேலும்
எந்தச் சந்தர்ப்பத்திலும் 6 மாதங்களுக்கு மேற்படாத
எந்தக் கால அளவுக்கும் இருக்கவேண்டும்.</p>

<p>     அபராதத்தொகையின் வீதப்பகுதி செலுத்தப்பட்டதும்
சிறைவாசம் முடிவுறும்.</p>

<p>     முனிசாமிக்கு 100 ரூபாய் அபராதம் விதித்தது நீதிமன்~
றம். அவன் கட்டத் தவறியதற்காக 4 மாதங்களுக்கு சிறை~
வாசம் விதித்து, இங்கு ஒரு மாதம் சிறைவாசம் முடிவடை~
வதற்கு முன்஫ே 751 ரூபாய் முனிசாமி செலுத்திவிட்டால்
முதல் மாதம் முடிவடைந்தவுடனே முனிசாமியை விட்டு
விடலாம். இரண்டு மாதச் சிறைவாசம் முடிவடையும்முன்பு
அபராதத் தொகையில் 50 ரூபாய் செலுத்தப்படுமானால்</p>

<p>பக்கம்:9
அல்லது வசூலிக்கப்படுமானால் 2 மாதம் முடிந்஼தவுடனேயே
முனிசாமி விட்டுவிடப்படுவான்.</p>

<p>     செலுத்தப்படாமல் எஞ்சியிருக்கும் அபராதமோ, அதன்
பகுதி எதுவுமோ தண்டனை வழங்கப்பட்டதற்குப் பிறகு 6
ஆண்டுகளுக்குள் எந்தக் காலத்திலும் தண்டனையின்படி 6
ஆண்டுகளுக்கு மேல் நீண்டதொரு காலத்திற்குக் குற்றவாளி
சிறைவாசத்திற்கு உள்ளானவராக இருந்தால், அப்போது
அந்தக் காலம்் முடிவடைவதற்கு முன்பு எந்தக் காலத்திலும்
வசூலிக்கப்படலாம். மற்றும் குற்றவாளின் மரணம், அவரது
மரணத்திற்குப் பிறகு அவரது கடன்களுக்குச் சட்டப்படி
பொறுப்பாகிற எந்தச் சொத்தையும் கடப்்பாட்டிலிருந்து
விடுவிக்காது.</p>

<p>     சிறைச்சாலையில் குற்றவாளியைத் தனித்து அடைத்து
வைக்க உத்தரவிட நீதிமன்றத்திற்கு அதிகாரமுண்டு. குற்ற~
வாளிக்கு விதிக்கப்பட்ட சிறைவாசத்தில் எந்த ஒரு பகுதிக்~
கேனும் மொத்தத்தில் 3 மாதங்களுக்கு மேற்படாமல் குற்ற~
வாளி தனித்து அடைத்து வைக்கப்படுதல் வேண்டும் என
உத்தரவிடலாம்.</p>

<p>     சிறைவாசத்தின் கால அளவு ஆறு மாதங்களுக்கு மேற்~
படாவிடில் 1 மாதத்திற்கு மேற்படாத ஒரு காலத்திற்கும்,
சிறைவாசத்தின் கால அளவு 6 மாதங்களுக்கு மேற்பட்டி~
ருந்து ஆனால் ஓர் ஆண்டுக்கு மேற்படாவிட்டால் 2 மாதங்்~
களுக்கு மேற்படாத ஒரு காலத்திற்கு சிறைவாசத்தின் கால
அளவு ஓராண்டிற்கு மேற்பட்டால் மூன்று மாதத்திற்கு மேற்~
படாத ஒரு காலத்திற்கும் ஆணையிடலாம்.</p>

<p>     சிறையில் தனித்து அடைத்து வைக்கும் தண்டனையை
நிறைவேற்றும்போது, சிறையில் தனித்து அடைத்து வைக்~
கும் காலவரைகளுக்கு இடையிலுள்ள இடைவெளிகள் அத்தகைய</p>

<p>பக்கம்:10
காலவரைகளைவிடக் குறைந்த கால அளவாக இருப்~
பதோடு எந்தச்சந்தர்ப்பத்திலும் அவ்வாறு அடைத்து வைப்~
பதானது ஒரு சமயத்தில் 14 நாட்களுக்கு மேலிருக்கக்
கூடாது. மற்றும் அளிக்கப்்பட்ட சிறைதண்டனை 3 மாதங்~
கட்கு மேற்பட்டதாக இருக்க வேண்டியதாகும் போது சிறை~
யில் தனித்து அடைத்து வைக்கப்படும் கால வரைகளைவிட
குறைந்த அளவாக இல்லாதிருப்பதோடு, அளிக்கப்பட்ட
மொத்த சிறைத்தண்டனை காலத்தில் எந்த ஒரு மாதத்திலும்
சிறையில் தனித்து அடைத்து வைக்கப்படுவது 7 நாட்களுக்கு
மேற்படுதல் கூடாது.</p>

<p>     அத்தியாயம் நான்கில் பொது விலக்குகள் கூறப்
படுகின்றன. 76 வது பிரிவிலிருந்து 106வது பிரிவு வரை
பொது விலக்குகள் எவை எவை எனவிளக்கப்படுகின்றன.</p>

<p>     மேலதிகாரியின் கட்டளைப்படித் தரைப்படை வீரர் ஒருவர்
ஒரு கும்பலைப் பார்த்துச் சுடுகிறார். அந்தக் கும்பலிலிருந்த
குப்பன் என்பவன் இறந்து விடுகிறான். இங்குக் குப்்பன் ஒரு
குற்றமும் செய்யவில்லை.</p>

<p>     நீதிமன்ற அலுவலர் நீதிபதியின் உத்தரவின் பேரில் இரு~
ளப்பன் என்பவனைக் கைது செய்ய சாமுவேல் செல்கிறான்.
தக்க விசாரணை செய்தும் இருளப்பனுக்குப் பதில் மாரப்பனை,
இருளப்பன் என நம்பிக் கைது செய்கிறான். இங்குச் சாமு~
வேல் எந்தக் குற்றத்தையும் செய்யவில்லை என்றே கொள்ள
வேண்டும்.</p>

<p>     சங்கதி பற்றிய ஒரு தவற்றின் காரணமாக சட்டப்படி
ஒன்றனைச் செய்வதற்குக் கட்டுப்பட்டிருக்கின்ற ஒருவரால்</p>

<p>பக்஼கம்:11
சட்டத்தைப் பற்றிய தவறு ஒன்றும் இல்லாமல், நல்லெண்~
ணத்தோடு நம்புகின்ற ஒருவரால் செய்யப்படும் எதுவும் ஒரு
குற்றமுமாகாது. இதனைத்தான் பொது விலக்குகளில் ஒன்~
றாக 76வது பிரிவில் சொல்லப்்படுகிறது.</p>

<p>     77வது பிரிவில், நீதிபதி தமக்குச் சட்டத்தின் மூலம்
கொடுக்கப்்பட்டுள்ள அதிகாரம் எதையும் செலுத்தி நீதி
முறையில் செயற்படும்போது அவரால் செய்யப்பட்ட எது~
வும் குற்றமாகாது.</p>

<p>     1850ம் வருடத்திய 18வது சட்டமான ""நீதித்துறை
அதிகாரிகள் பாதுகாப்புச் சட்டத்தின்"" கருப்பொருளே
இந்தப் பிரிவு ஆகும்.</p>

<p>     ஒரு நீதிமன்றத்தின் தீர்ப்பு அல்லது உத்தரவைத்
தொடர்ந்து செய்யப்படும் செய்கை, நல்லெண்ணத்தோடு
நம்பி செய்யப்படுமானால் அது குற்றமாகக் கருதப்பட
மாட்டாது. இதனைத் தான் 78வது பிரிவு கூறுகிறது.</p>

<p>     வேலு தற்காப்பிற்காகக் குழந்தைவேலுவைக் கொலை
செய்கிறான். அதனைக் கண்ணுற்ற கபாலி, வேலுவைப்
பிடித்து இழுத்துக் கொண்டு காவல் துறையினர் முன்னிலை~
யில் நிறுத்துகிறான். அங்கு வேலு பிரபல கொள்ளைக்காரன்
குழந்தைவேலுவைக் கொலை செய்தது, தற்காப்புக்காகத்
தான் எனத் தெளிவாகிறது. இருந்தபோதிலும் கபாலி
வேலுவை இழுத்துக்கொண்டு வந்து காவல் துறையினர்முன்
நிறுத்திய செயலில் தவறுஒன்்றுமில்லை என்றே 79வது பிரிவுப்
படி எடுத்துக் கொள்ள வேண்டும்.</p>

<p>பக்கம்:12
     எனவே எதையேனும் ஒருவர் செய்வது சட்டத்தின்படி
நியாயமானதாக இருக்கம்போது நல்லெண்ணத்தோடு
நம்பி அவர் செய்யும் செயல் குற்றமாகாது.</p>

<p>     சில சமயங்களில் தற்செயலாகவோ, துர்பாக்கியவசமா~
கவோ சில நிகழ்ச்சிகள் ஏற்படுவதுண்டு. கவனமும், எச்ச~
ரிக்கையும் கொண்டிருந்தாலும் அசம்பாவிதமான நிகழ்ச்சி~
கள் ஏற்படுவதுண்டு. அந்த தற்செயலான நிகழ்ச்சியைக்
குற்றமாகக் கொள்ள முடியாது.</p>

<p>     கோவிந்தன் ஒரு கைக்கோடரியினால் வேலை செய்யும்
போது அதன் தலைப்பாகம் தெறித்து அருகே நின்று கொண்~
டிருந்தவரைக் கொன்று விடுகிறது. இங்கு கோவிந்தன் எச்~
சரிக்கையோடும், கவனத்தோடும் வேலை செய்தபோதிலும்
அருகே நின்று கொண்டிருந்தவரின் மரணம் தற்செயலாக~
வும், துர்பாக்கியவசமாகவும்் ஏற்பட்டது. கோவிந்தன் குற்ற~
வாளியல்லன். அவன் 80வது பிரிவில் உள்ள பொதுவிலக்~
கின்படிக் குற்றவாளியாகக் கருதப்பட மாட்டான்.</p>

<p>     தீங்கு செய்யவேண்டும் என்ற உள்கருத்துக் கொஞ்சமும்
இல்லாது ஓர் ஆளுக்கோ அல்லது ஒரு சொத்திற்கோ தீங்கு
ஏற்படுவதைத் தடுக்க நல்ல எண்ணத்தோடு ஏதேலும் செய்~
யப்படுமானால் அது குற்றமாகாது என 81ம் பிரிவில் கூறப்படு~
கிறது. இந்த பொது விலக்கினை உதாரணங்களைக் கொண்டு
விளக்கினால் எளிதில் புரிந்து கொள்ளலாம்.</p>

<p>     ஒரு பெரிய தீவிபத்து ஏற்படுகிறது. தீமேலும் பரவா~
திருக்க இராமன் என்பவன் அருகேயுள்ள வீடுகளை இடித்துத்
தள்ளுகிறான், மனித உயிரை அல்லது சொத்தைக் காப்பாற்ற
வேண்டும் என்ற நல்ல எண்ணத்தோடு அத்தகைய செயலில்
ஈடுபடுகிறான். இங்கு இராமனின் செயல் தீங்கின்பாற்பட்~
டதன்று.</p>

<p>பக்கம்:13
     ஏழு வயதிற்கு உட்பட்ட ஒரு குழந்தையினால் செய்யப்
படும் செயல் எதுவும் குற்றமாக இருந்தாலும் அஃது குற்ற~
மாகாது என 82வது பிரிவில் சொல்லப்படுகிறது.</p>

<p>     ஏழு வயதிற்கு மேற்பட்டதும், பன்னிரண்டு வயதுக்கு
உட்பட்்டதும் புரிந்துகொள்ளும் பக்குவம் அடையாததுமான
ஒரு குழந்தையின் செயல் 83வது பிரிவின்படி குற்றமாகாது.</p>

<p>     84வது பிரிவின்படி புத்தி சுவாதீனம் இல்லாத காரணத்~
தால் குற்றம் செய்தால் குற்றமாகாது. ஆனால் அவர் தாம்
செய்கின்ற செய்கையின் தன்மையைத் தவறானதாகவோ
அல்லது சட்டத்திற்கு முரணானதாகவோ உள்ளது என்பதை
அறிந்து கொள்ளும் பக்குவ மனநிலையைக் கொள்ளாதவராக
இருத்தல் வேண்டும்.</p>

<p>     தமது விருப்பத்திற்கு மாறாக உண்டாக்கப்பட்ட குடி~
போதை காரணமாக நிதானித்துப் பார்க்கும் திறனற்ற ஒரு~
வரின் செய்கை 85வது பிரிவின்படி குற்றமாகாது. போதை
உண்டாக்கிய பொருள் அவருக்குத் தெரியாமல் அல்லது
அவர் விருப்பத்திற்கு மாறாக அவருக்குக் கொடுக்கப்பட்~
டிருக்க வேண்டும். குடிபோதையின் காரணமாக அவர் செய்~
யும் செயல் தவறானது என்றோ சட்டத்திற்கு மாறானது
என்றோ அறியும் திறனற்றவராக இருத்தல் வேண்டும்.</p>

<p>     86வது பிரிவில் மரணம் அல்லது கொடுங்காயம் விளை~
விக்க உட்கருத்துக் கொள்ளாமலும் அநேகமாக விளைவிக்கக்
கூடியது என்று தெரியாமலும் ஆனால் சம்்மதத்துடன் செய்~
யப்படும் செயல் குற்றத்தின் பொது விலக்கிற்கு உட்பட்ட~
தாகும்.</p>

<p>     மறவனும், கந்தனும் ஒருவரோடு ஒருவர் பொழுது
போக்கிற்காக வாள் வீச்சுக்கு உடன்படுகின்றனர். அத்தகைய</p>

<p>பக்கம்்:14
வாள் வீச்சின் போது நியாயமில்லாத ஆட்டத்தினால்
விளையக்கூடிய எந்தத் தீங்கையும் ஏற்க ஒவ்வொருவரும்
இசைந்துள்ளனர் என்பதை உடன்பாடு குறிப்பாய் உணர்த்~
துகிறது. மறவன் நேர்மையாக ஆடும்போது கந்தனுக்குக்
காயம் ஏற்படுத்துகிறான். இங்கு மறவன் குற்றம் எதுவும்
செய்யவில்லை என்றே கொள்ளவேண்்டும்.</p>

<p>     குணசேகரன், கடுமையான வயிற்று வலியை அனுபவிக்~
கும் ஆனந்தனுக்கு ஒரு குறிப்பிட்ட அறுவை சிகிச்சை செய்~
தால் அஃது அவருக்கு மரணத்தை விளைவிக்கக்கூடும் என்று
தெரிந்தே நல்ல எண்ணத்துடன் ஆனந்தனுக்கு மரணம்
விளைவிக்கவேண்டும் என்ற உட்கருத்து சிறிதுமின்றி அவன்
நலன் கருதி அவன் சம்மதத்தோடு அறுவை சிகிச்சை செய்~
கிறார். ஆனந்தன் மரணமுற்றாலும் குணசேகரன் குற்றவாளி
அல்லன் என 88வது பிரிவு உரைக்கின்றது.</p>

<p>     88வது பிரிவுப்படி மரணம் விளைவிக்க உட்கருத்துச் சிறி~
தும் கொள்ளாமல் ஒருவரது நலனுக்காக நல்ல எண்ணத்.
தோடு அவரது சம்மதத்துடன் செய்யப்படும் செய்கைக்
குற்றமாகாது.</p>

<p>     அருந்ததி என்பவள் தம்முடைய குழந்தையின் நலனுக்~
காக தம் குழந்தையின் சம்மதமின்றி, கல்லை அகற்றி விடுவ~
தற்கான ஓர் அறுவை சிகிச்சைக்கு அந்த அறுவை சிகிச்சை
அந்தக் குழந்தையின் மரணத்தை அநேகமாக விளைவிக்கக்
கூடும் என்று தெரிந்தும், ஆனால் குழந்தைக்கு மரணம் விளை~
விக்கும் உட்கருத்தின்றிக் குழந்தையை உட்படுத்துகிறாள்.
குழந்தை குணமடைவது அவரது நோக்கமாக இருந்தால்
அருந்ததி இந்த விலக்கினுள் அமைகிறார்.</p>

<p>     89வது பிரிவின்படிக் காப்பாளரால் அல்லது அவரது
சம்மதத்தின் பேரில் குழந்தையின் அல்லது புத்தி சுவாதீனம்</p>

<p>பக்கம்:15
அற்ற ஒருவரின் நலனுக்காக நல்லெண்ணத்துடன் செய்யப்
படும் செய்கை குற்றமாகாது. உட்கருத்தோடு மரணம்
விளைவித்தலின் மீதோ அல்லது மரணம் விளைவிக்க முயற்஛ி
செய்யும் செயலின் மீதோ இந்த விலக்கு இயங்காது.</p>

<p>     90வது பிரிவில் சம்மதம் எப்படி இருந்தால் செல்லாது
என்ற விபரங்கள் தரப்படுகின்றன.</p>

<p>     கேடு ஏற்படும் என்ற அச்சத்தினால் அல்லது
சங்கதி பற்றிய தப்பு எண்ணத்தினால் ஒருவரால் சம்மதம்
தரப்பட்டால் அது சம்மதமாகாது, புத்தி சுவாதீனம் இல்லா~
ததால் அல்லது போதையால் அதற்குத்தாம் சம்மதம் கொடு~
க்கிறோம் என்பதையும் அதன் தன்மையையும், விளைவையும்
புரிந்து கொள்ள இயலாதவராக உள்ள ஒருவரால் அந்தச்
சம்மதம் கொடுக்கப்படுமானால் செல்லாது. பன்னிரண்டு
வயதுக்கு உட்பட்ட ஒருவரால் அந்தச் சம்மதம் கொடுக்கப்
படுமானால் இந்தச் சட்டத்தின் எந்தப் பிரிவிலும் கருதப்~
படும்் சம்மதம் ஆகாது.</p>

<p>     கருச்சிதைவு ஒரு பெண்ணின் உயிரைக் காப்பாற்றும்
பொருட்டு நல்ல எண்ணத்தோடு விளைவிக்கப்பட்டிருந்தால்
அது குற்றமாகாது.</p>

<p>     சம்மதம் கொடுப்பவருக்கு அல்லது எவர் சார்பாகச் சம்~
மதம் கொடுக்கப்படுகிறதோ அவருக்கு விளைவிக்கலாகும்
அல்லது விளைவிக்க உட்கருத்து கொள்ளலாகும் அல்லது
அநேகமாக விளைவிக்கக்கூடும் என்்று தெரியலாகும்.
தீங்கு யாதொன்றின் சார்பு இல்லாமலே தாமே குற்றங்க~
ளாக இருக்கும் செயல்களின் மீது 87, 88 மற்றும் 89 பிரிவுகளில்</p>

<p>பக்கம்:16
உள்ள விதிவிலக்குகள் இயங்கா என 91ம் பிரிவில்
கூறப்படுகிறது.</p>

<p>     ஒருவர் தம் சம்மதத்தைத் தெரிவிக்க முடியாத நிலையில்
உள்ளார்; சம்மதம் கொடுக்கத்திறனற்றவராக இருக்கிறார்.
அவர் நலனுக்காக ஒரு செயல் செய்தாகவேண்டும். அதுவும்
உரிய காலத்தில் செய்தாக வேண்டும். சட்டபூர்வமான சம்~
மதம் பெற முடியாத சூழ்஼நிலை உருவாகி இருக்கிறது. அன்னா~
ரின் சம்மதமின்றி அவர் நலனுக்காக நல்ல எண்஼ணத்துடன்
செய்யப்படும் செயல் எதுவும் அஃது அவருக்குத் தீங்கு விளை~
விக்கும் என்றாலும்கூட அது குற்றமாகாது என 92வது பிரிவு
கூறுகிறது.</p>

<p>     உட்கருத்தோடு மரணம் விளைவிக்கும் செயல் மீதோ
அல்லது மரணம் விளைவிக்கச் செய்யும் முயற்சியின் மீதோ
இந்த விலக்கு இயங்காது. ஒரு செயல் மரணத்தை அநேக~
மாக விளைவிக்கக்கூடும் என்று தெரிந்தே ஒருவர் அந்தச்
செயல் எதையும் மரணம் அல்லது கொடுங்காயத்தைத் தடுக்~
கும் அல்லது கொடிய நோயை அல்லது பலவீனத்தைக்
குணப்படுத்தும் நோக்கத்தைத் தவிர வேறு ஏதேனும் நோக்~
கத்திற்காகச் செய்யும் எந்தச் செயல் மீதும் இந்த விலக்கு
இயங்காது. சில எடுத்துக்காட்டுகளால் இந்தப் பிரிவின் உட்~
கருத்தினை விளக்குவது நன்று.</p>

<p>     குகன் தம் குதிரையினின்று தூக்கி எறியப்பட்டு உணர்வு
இழந்திருக்கிறான். அவனுக்கு மண்டை ஓட்டினை துளையிட்டு
சிகிச்சை செய்ய வேண்டியிருக்கிறது என்ற முடிவுக்கு வருகி~
றார், டாக்டர் திலகம் என்னும் மருத்துவ மேதை. குகனின்
மரணத்தை விளைவிக்கும் உட்கருத்தின்றி, ஆனால் நல்ல
எண்ணத்தோடு குகனின் நலனுக்காகக் குகன் தாமே நிதா~
னித்துப் பார்க்கும் சக்தியைத் திரும்பப் பெறுவதற்கு முன்பு</p>

<p>பக்கம்:17
மண்டை ஓட்டினைத் துளைத்து டாக்டர் திலகம் அறுவை
சிகிச்சை செய்கிறார். டாக்டர் குற்றம் எதுவும் செய்ய~
வில்லை.</p>

<p>     கோபால் என்பவனை ஒரு புலி தூக்கிச் செல்கிறது. சுடு~
வதால் கோபாலை அநேகமாகக் கொல்லக்கூடும் என்று அறிந்~
ததே, ஆனால் கோபாலைக் கொல்லும் உட்கருத்தில்லாமலும்
கோபாலின் நலனைக்க௃ருதி நல்லெண்ணத்துடன் நாராயணன்
அந்தப் புலியைப் பார்த்துச் சுடுகிறார். நாராயணின் குண்டு
கோபாலுக்கு மரண காயத்தை உண்டு பண்ணுகிறது. இங்கு
நாராயணன் எந்தக்குற்றமும் செய்யவில்லை எனக்கொள்ளல்
வேண்டும்.</p>

<p>     உடனடியாக அறுவை சிகிச்சை செய்தாலன்றி அநேக~
மாக மரணம் ஏற்படக்கூடிய நிலையில் இருக்கும் விபத்துக்கு
ஆளான ஒருகுழந்தையை அண்ணாமலை என்னும் ஓர் அறுவை
மருத்துவர் பார்க்கிறார். குழந்தையின் காப்பாளரிடம் அனு~
மதி கோர நேரம் இல்லை. குழந்தை கெஞ்சிக் கேட்டும்
அதைப் பொருட்படுத்தாமல் குழந்தையின் நலனைக் கருதி
நல்ல எண்ணத்துடன் டாக்டர் அண்ணாமலை அறுவைசிகிச்சை
செய்கிறார். குழந்தை இறந்து விடுகிறது. இருந்தபோதிலும்
டாக்டர் அண்ணாமலை எந்தக் குற்றமும் செய்யவில்லை என்றே
கொள்ள வேண்டும்.</p>

<p>     தீய்ப஼ற்றி எரிகின்ற ஒரு வீட்டில் ""சாமு"" என்கிற
குழந்தையுடன் சந்திரன் என்பவர் இருக்கிறார். கீழே உள்ள~
வர்கள் ஒரு துப்பட்டியை விரித்துப் பிடிக்கிறார்கள். விழுந்~
தால் குழந்தை அநேகமாக இறக்கக்கூடும் என அறிந்தும்
ஆனால் குழந்தையைக் கொல்லும் உட்கருத்து இல்லாமல்
குழந்தையின் நலனைக் கருதி நல்ல எண்ணத்தோடு வீட்டின்
உச்சியில் இருந்து சந்திரன் குழந்தையைக் கீழே போடுகிறார்.</p>

<p>பக்கம்:18
இங்கு விழுந்ததினால் குழந்தை இறந்தாலும்கூட சந்திரன்
குற்றம் எதுவும் செய்யவில்லை.</p>

<p>     93வது பிரிவில் குறிப்பிடப்பட்டுள்ள ஓர் உதாரணம்
அந்தப் பிரிவை நன்கு புரிந்து கொள்ள உதவும்். அதாவது
டாக்டர் பக்தவாசன் என்ற அறுவை நிபுணர் நோயாளி
ஜனார்த்தனனிடம் அவன் பிழைக்க மாட்டான் என்ற தம்
அபிப்ராயத்தை நல்ல எண்ணத்தோடு தெரிவிக்கிறார். அந்த
அதிர்ச்சியின்் விளைவாக ஜனார்த்தனன் செத்துப்போனான்.
அந்தச் செய்தி நோயாளி ஜனார்த்தனனின்மரணத்தை அநே~
கமாக விளைவித்திருக்கக்கூடும் என்று டாக்டர் பக்தவாசன்
அறிந்திருந்தாலும் அவர் எந்தக் குற்றமும் செய்யவில்லை
என்றே கருதப்படவேண்டும்.</p>

<p>     நல்லெண்ணத்தோடு தெரிவிக்கப்பட்ட செய்தி எதுவும்
அது ஒருவரது நன்மைக்காகத் தெரிவிக்கப்படுமானால், தெரி~
விக்கப்பட்டவருக்குத் தீங்கு ஏதேனும் நேரிடும் என்னும்
காரணத்தால் ஒரு குற்றமாகாது எனக் கூறுகிறது 93வது
பிரிவு.</p>

<p>     ஒருவர் ஒரு செயலைச் செய்யுமாறு கட்டாயப்படுத்த
படுகிறார். அந்தச் செயலைச் செய்யாவிடில் உடனடி மரணம்
ஏற்படும் என்னும் அச்சத்தை உண்டாக்கி அச்சுறுத்தல்கள்
மூலம் அவர் எச்செயலையும் செய்யக் கட்டாயப்படுத்தப்பட்~
டால் அந்தச் செயல் எதுவும் குற்றமாகாது. கொலைக்குற்~
றம், மற்றும் மரண தண்டனை விதித்துத் தண்டிக்கப்படக்
கூடிய அரசுக்கு எதிரான குற்றங்கள் ஆகியவற்றைத் தவிர
ஏனைய குற்றங்களுக்குத்தான் இந்த விதிவிலக்குப் பொருந்~
தாது.</p>

<p>     ஆனால் அந்தச் செய்கையைச் செய்கின்றவர் தம்மிச்சை~
யாகவோ அல்லது உடனடி மரணத்திற்குக் குறைவான தீங்கு</p>

<p>பக்கம்:19
தமக்கு ஏற்படும் என்னும் நியாயமான அச்சத்தாலோ அத்த~
கைய நிர்ப்பந்தத்திற்கு அவர் உள்ளாகும் சூழ்நிலையில்
தம்்மை வைத்திருக்கக் கூடாது.</p>

<p>     தாமாகவோ, அல்லது அடிக்கப்படுவார் என்னும் ஓர்
அச்சுறுத்தல் காரணமாகவோ, கூட்டுக் கொள்ளையரின் கும்~
பலில் அவர்களுடைய குண இயல்பைத் தெரிந்தே சேர்ந்து
கொள்ளும் ஒருவர் சட்டப்படி குற்றமாகும் எதையும் செய்ய
தம்மைச்் சேர்ந்தவர்களால் தாம் கட்டாயப்படுத்தப்பட்~
டிருக்கின்றார் என்னும் காரணத்தால் இந்த விலக்கின் பல~
னுக்கு உரியவர் ஆகார்.</p>

<p>     ஒரு கூட்டுக் கொள்ளைக்் கும்பலால் பிடிக்கப்பட்டு, உ஠~
னடி மரணம் ஏற்படும் என்னும் அ஛்சுறுத்தல் மூலம் சட்டப்~
படி குற்றமாகிய ஒன்றினைச் செய்யுமாறு வற்புறுத்தப்பட்ட
ஒருவர்: எடுத்துக்காட்டாக தமது கருவிகளை எடுத்துக்
கொண்டு வந்து கூட்டுக் கொள்ளைக்காரர்கள் நுழைந்து
கொள்ளையடிப்பதற்காக அவர் வீட்டின் கதவை உடைக்கு~
மாறு கட்டாயப்்படுத்தும் ஒரு கொள்ளையர் இந்த விலக்கின்
பயனுக்கு உரியவர் ஆவார்.</p>

<p>     தீங்கானது அற்பமானதாக இருந்்தால் அது 95வது
பிரிவின்படி குற்றத்தின் பாற்படாது, சாதாரண அறிவும்,
சுபாவமும் உடைய எவரும் அந்தத் தீங்கைப் பற்றிக் குறை
கூறமாட்டார் என்னும் அளவுக்கு அத்தீங்கானது அற்பமான~
தாக இருக்கும்போது அது குற்றமாகாது. உதாரணம்:-
பேனாவிற்கு வேண்டிய மையை வேறு ஒருவர் பேனாவிலிருந்து
திருடி எடுத்துக்கொள்ளுதல் அற்பமானதாகும். எனவே விதி~
விலக்கு அம்மாதிரியான குற்்றத்திற்கு அளிக்கப்்படுகிறது.</p>

<p>     96வது பிரிவின்படித் தற்காப்புரிமையைப் பயன்படுத்~
தும்போது செய்யப்்படுகிற எதுவும் ஒரு குற்றமன்று.</p>

<p>பக்கம்:20
     97வது பிரிவு உடலையும், சொத்தையும் பொறுத்த தற்~
காப்புரிமையைப் பற்றி உரைக்கின்றது. மனித உடலைப்
பாதிக்கின்ற வகையில் செய்யப்படும் குற்றம் எதனின்றும்
தம் உடலையும், வேறு எவரது உடலையும் பாதுகாக்க வேண்~
டியது மனித இதயம்் படைத்த ஒவ்வொருவரின் கடமை~
யாகும்.</p>

<p>     திருட்டு, கொள்ளை, அழிம்பு அல்லது அத்துமீறல் குற்~
றம் இவற்றில் ஏதொன்றின் இலக்கணத்திற்குள் அமைகிற
ஒரு குற்றமாக உள்ள எந்தச் செய்கையினின்றும் தம்முடைய
அல்லது வேறு எவருடைய சொத்தை அசையும் பொருளாக
இருந்தாலும் அல்லது அசையாப் பொருளாயிருந்தாலும்
காத்துக் கொள்வதற்கு உரிமையுடையவராவார்.</p>

<p>     98வது பிரிவில் புத்திசுவாதீனமற்றவர் முதலியவர்களின்
செய்கையைப் பொறுத்த தற்காப்புரிமை பற்றி விளக்கப்படு~
கிறது, ஒரு குறிப்பிட்ட குற்றமாக இருந்திடும் ஒரு செய்கை~
யானது, அதைச் செய்பவரின் இளமை, புரிந்துகொள்ளும்
பக்குவமில்லாமை, புத்திசுவாதீனமின்மை அல்லது போதை~
யின் காரணமாகவோ அல்லது அவர் கொண்ட தப்பெண்~
ணம் எதனின் காரணமாகவோ அந்தக் குற்றமாக இல்லாத
போது அந்தச் செய்கை குற்றமாயிருந்தால் என்ன தற்காப்~
புரிமையைத் தாம் பெற்றிருப்பாரே அதே தற்காப்புரி~
மையை ஒவ்வொருவரும் அந்தச் செய்கையைப் பொறுத்தும்
பெற்றிருப்பார்.</p>

<p>     பித்து நிலையின் பாதிப்பால் பரமசிவம் என்பவன் பாப஼~
நாசம் என்பவனைக் கொல்ல முயல்கிறான். பரமசிவம் ஒரு
குற்றத்தையும் செய்யவில்லை. ஆனால் பாபநாசம் புத்தி~
சுவாதீனமுடையவராயிருந்தால் பரமசிவம் எந்தத் தற்காப்~
புரிமையைப் பெற்றிருப்பாரோ அதே உரிமையைப் பெற்றி~
ருப்பார்.</p>

<p>பக்கம்:21
     சட்டப்படி நுழைய தமக்கு உரிமை பெற்றுள்ள ஒரு
வீட்டினுள் மணி என்பவன் இரவில் நுழைகிறான். மணியை
வீட்டில் கன்னமிட வந்தவன் என நினைத்து ஏகாம்பரம் என்~
பவன் கெட்ட எண்ணம் எதுவுமில்லாமல் மணியைத்
தாக்குவதனால், குற்றம் எதுவும் செய்யவில்லை, ஆனால்
ஏகாம்பரம் அத்தகைய தப்பெண்ணத்தின்படி செயற்படா~
மலிருந்தால் எந்தத் தற்காப்புரிமையைத் தாம் பெற்றிருப்~
பானோ அதே உரிமையை ஏகாம்பரத்தைப் பொறுத்த மட்~
டில் மணி பெற்றிருப்பான்.</p>

<p>     99வது பிரிவில் மரணம் அல்லது கொடுங்காயம் ஏற்படும்
என்னும் அச்சத்தை நியாயமாக விளைவிக்காத ஒரு செய்கை~
யானது தமது பதவி முறையில் நல்லெண்ணத்துடன் செயற்~
படுகின்ற ஒரு பொது ஊழியரால் செய்யப்பட்டால் அல்லது
செய்ய முயற்சி செய்யப்பட்டால் அந்தச் செய்கையானது
சட்டப்படி முற்றிலும் நியாயமானதாக இல்லையென்றாலும்
கூட அச்செய்கையைப் பொறுத்தமட்டில் தற்காப்புரிமை
ஏதும் இல்லை.</p>

<p>     காக்கும் நோக்கத்திற்கு அவசியமாக, எந்த அளவுக்குத்
தீங்கு இழைக்கலாமோ அதைவிட அதிகமான தீங்கினை
இழைக்குமளவிற்குத் தற்காப்புரிமை எந்தச் சந்தர்ப்பத்தி~
லும் நீடிக்காது.</p>

<p>     100வது பிரிவில் உடலைப் பொறுத்த தற்காப்பு உரிமை~
யைப் பற்றிக் கூறுகிறது. 6 வகையில் கூறப்படுகிறது.</p>

<p>     முதலாவதாக- அவ்வாறு செய்யவில்லை என்றால் அத்த~
கைய தாக்குதல் மரணத்தைவிளைவிக்கும் என்ற நியாயமான
அச்சத்தை உண்டாக்குந்தகையதான ஒரு தாக்குதல்.</p>

<p>     இரண்டாவதாக- அவ்வாறு செய்யவில்லை என்றால்
அத்தகைய தாக்குதலில் கொடுங்காயத்தை விளைவிக்கும்</p>

<p>பக்கம்:22
என்னும் நியாயமான அச்சத்தை உண்டாக்குந்தகையதான
ஒரு தாக்குதல்.</p>

<p>     மூன்றாவதாக- வன்புணர்ச்சி செய்யும் நோக்கத்துடன்
தாக்குதல்.</p>

<p>     நான்காவதாக- இயற்கைக்கு மாறான காம இச்சை~
யைத் திருப்தி செய்து கொள்ளும் உட்கருத்துடன் தாக்கு~
தல்.</p>

<p>     ஐந்தாவதாக- பிள்ளை பிடிக்கும் அல்லது ஆள்கடத்தும்
உ஠்கருத்துடன் தாக்குதல்.</p>

<p>     ஆறாவதாக- தமது விடுதலைக்குப் பொது அதிகாரிகளை நாட
இயலாது போகும் என்று ஒருவருக்கு அச்சத்தை நியாயமாக
உண்டாக்கக்கூடிய சூழ்நிலையில் அவரைச் சட்டவிரோமாக
அடைத்து வைக்கும் உ஠்கருத்துடன் தாக்குதல்.</p>

<p>     101வது பிரிவில் அந்தக் குற்றம் அடுத்து முந்திய பிரிவில்
விவரிக்கப்பட்டிருக்கும் வகைகள் எதையும் சேர்ந்ததாயில்லை
என்றால் உடலைத் தற்காத்துக் கொள்ளும் உரிமை தாக்கு~
பவருக்குத் தம்மிச்சையாக மரணத்தை விளைவிக்கும் அள~
வுக்கு நீடிக்காது. ஆனால் தாக்குபவருக்கு மரணத்தைத்தவிர
வேறு எந்தத் தீங்கையும் விளைவிக்கும் அளவுக்கு பிரிவு 99ல்
சொல்லப்பட்ட கட்டுப்பாடுகளுக்குட்பட்டு நீடிக்கவே செய்~
யும் எனக் கூறப்படுகிறது.</p>

<p>     102வது பிரிவில் குற்றம் ஒன்று செய்யப்பட்டிருக்கா
விட்டாலும் கூட அந்தக் குற்றத்தைச் செய்வதற்கான ஒரு
முயற்சியிலிருந்தோ அல்லது செய்யப் போவதாகச் சொல்~
லும் அச்சுறுத்தலிலிருந்தோ உடலுக்கு அபாயம் ஏற்படுமென்று</p>

<p>பக்கம்:23
நியாயமான அச்சம் எழுகின்ற உடனேயே உடலைப்
பொறுத்த தற்காப்பு உரிமை தொடங்குகிறது. மற்றும்
உடலுக்கு அபாயம் ஏற்படும் என்னும் அத்தகைய அச்சம்
தொடர்ந்து இருந்துவரும் வரை அது தொடர்ந்திருக்கும்.</p>

<p>     103வது பிரிவில் சொத்தைப் பொறுத்த தற்காப்பு
உரிமை மரணத்தை விளைவிக்கும் அளவுக்கு எப்போது நீடிக்~
கும் என்ற விபரம் தரப்பட்டிருக்கிறது.</p>

<p>     முதலாவதாக- கொள்ளை</p>

<p>     இரண்டாவதாக- இரவில் கன்னமிடுதல்</p>

<p>     மூன்றாவதாக- மனித குடியிருப்புக்காக அல்லது சொத்~
தின் பாதுகாப்புக்காகப் பயன்படுத்தப்படும் இடமாக உள்ள
கட்டிடம், கூடாரம் அல்லது கலம் எதற்கும் தீயிட்டு
அழிம்பு செய்தல்.</p>

<p>     நான்காவதாக- அத்தகைய தற்காப்புரிமையைப்
பயன்படுத்தாவிட்டால், விளைவு மரணமாகவோ கொடுங்~
காயமாகவோ இருக்கும் என்ற அச்சத்தை நியாயமாக
உண்டாக்கக்கூடிய சூழ்஼நிலையில் செய்யப்படும் திருட்டு
அழிம்பு அல்லது வீட்டினுள் அத்துமீறி நுழைதல்்.</p>

<p>     104வது பிரிவில் அத்தகைய உரிமை மரணத்தைத்தவிர
வேறு தீங்கினை விளைவிக்குமளவிற்கு எப்போது நீடிக்கும்
என்ற விபரம் தரப்படுகிறது.</p>

<p>     105ம் பிரிவில் சொத்தைப் பொறுத்த தற்காப்பு உரிமை~
யின் தொடக்கமும், தொடர்ச்சியும் குறிப்பிடப்படுகின்றன.
சொத்துக்கு அபாயம் நேரிடும் என்ற நியாயமான ஓர் அச்சம்</p>

<p>பக்கம்:24
தொடங்குகிறபோது சொத்தைப் பொறுத்த தற்கா~
ரிமை தொடங்குகிறது.</p>

<p>     திருடு போவதினின்றும், சொத்தைக் காத்துக் கொள்~
ளும் தற்காப்பு உரிமையானது குற்றவாளி சொத்துடன்
ஓடிப் போய்விடும் வரையிலும் அல்லது பொது அதிகாரி~
களின் உதவி பெறப்படும் வரையிலும் அல்லது சொத்து மீட்~
கப்படுகின்ற வரையிலும் தொடர்ந்திருக்கும்.</p>

<p>     இரவில் கன்னமிடப்படுவதினின்றும் சொத்தைக்
காத்துக் கொள்ளும் தற்காப்பு உரிமையானது அவ்வாறு கன்~
னமிடுவதன் மூலம் வீட்டில் தொடங்கப்பட்ட அத்துமீறல்
தொடர்ந்திருக்கும் வரையிலும் தொடர்ந்திருக்கும்.</p>

<p>     நிரபராதி ஒருவருக்குத் தீங்கு நேரிடும் நிலை ஏற்படும்
போது உயிராபத்தான தாக்குதலுக்கு எதிரான தற்காப்பு
உரிமை பற்றி 106வது பிரிவில் கூறப்படுகிறது.</p>

<p>     கருணாகரன் என்பவர் அவரைக் கொலை செய்ய முயல்~
கின்ற ஒரு கும்பலால் தாக்கப்படுகிறார். அந்தக் கும்பலின்
மீது துப்பாக்கிப் பிரயோகம் செய்யாமல் பயன் தரும் வகை~
யில் தற்காப்பு உரிமையை அவர் பயன்படுத்த முடியாது.
மற்றும் அந்தக்கும்பலில் கலந்திருக்கும் சிறிய குழந்தைகட்கு
தீங்கு ஏற்படுத்தும் ஆபத்தில்லாமலும் அவர் சுடமுடியாது.
அவ்வாறு சுடுவதனால் குழந்தைகள் எவருக்கேனும் கருணா~
கரன் தீங்கு விளைவித்தால் அவர் குற்றம் எதுவும் செய்தவர்
ஆகார் என்ற எடுத்துக்காட்டு 106வது பிரிவின்கீழ் கொடுக்~
கப்படுகிறது.</p>

<p>     ஐந்தாவது அத்தியாயம் உடந்தையாயிருத்தல் பற்றி
கூறுகிறது. 106வது பிரிவிலிருந்து 120வது பிரிவு வரை</p>

<p>பக்கம்:25
இந்த அத்தியாயத்தில் உடந்தையாயிருத்தல் பற்றிய விளக்~
கம் தரப்படுகிறது.</p>

<p>     107ம் பிரிவில் தரப்பட்டுள்ள உதாரணம் அந்தப்பிரிவை
நன்கு விளக்கும்். சுப்பு என்பவரைக் கைது செய்ய ஒருபொது
அலுவலரான தினகரன் என்பவர் ஒரு நீதிமன்றத்தின் பிடி
கட்டளையின்மூலம் அ஥ிகாரமளிக்கப்படுகிறார். அந்தச் சங்கதி~
யையும் மற்றும் முரளி என்பவர் சு஫்பு என்பவரல்லர் என்~
பதையும் தெரிந்திருந்தும் தினகரனிடம் முரளியை சுப்பு
என்று வேண்டுமென்றே ஆதிமூலம் என்பவர் எடுத்துரைக்~
கிறார். அதன்மூலம் முரளியைத் தினகரன் கைது செய்யு~
மாறு உட்கருத்துக் கொண்டே செய்கிறார். இங்கு முரளி~
யைக் கைது செய்யத் தூண்டியதன் மூலம் ஆதிமூலம் உடந்~
தைக் குற்றம் செய்தவராகிறார்.</p>

<p>     ஒன்றைச் செய்வதற்கு உடந்தையாயிருப்பவர் மூன்று
வகைப்படுவர்.</p>

<p>     முதலாவதாக ஒரு செயலைச் செய்ய எவரையேனும்
தூண்டுகிறவர்.</p>

<p>     இரண்டாவதாக ஒரு செயலைச் செய்யும் பொருட்டு
அந்தச் செயலைச் செய்வதற்கான ஏதாவதொரு சதியில் ஒரு~
வருடனோ அல்லது ஒருவருக்கு மேற்பட்ட வேறு ஆள் அல்லது
ஆட்களுடனோ உடன்பாடு செய்கின்றவர் அந்தச் சதியைத்
தொடர்ந்து ஒரு செய்கையோ அல்லது சட்டத்திற்கு விரோ~
தமான விடுகையோ நிகழுங்கால்.</p>

<p>     மூன்றாவதாக செய்கை அல்லது சட்டத்திற்கு மாறான
விடுகை ஏதேனுமொன்றால் அந்தச் செயலைச் செய்வதற்கு
உ஠்கருத்தோடு உதவி செய்கிறவர்.</p>

<p>பக்கம்:26
     இவர்கள்் அனைவரும் அந்தச் செயலைச் செய்வதற்கு
உடந்தையாயிருக்கின்றவராவார்.</p>

<p>     வேண்டுமென்றே திரித்துக் கூறுவதன் மூலம் அல்லது
தாம் வெளியிடக் கட்டுப்பட்டுள்ள ஒரு முக்கியமான சங்க~
தியை வேண்டுமென்றே மறைப்பதன் மூலம் ஒன்றைத் தம்~
மிச்சையாகச் செய்விக்கிற, அல்லது முயன்று பெறுகிற அல்~
லது செய்விக்க அல்லது முயன்று முடிக்க முயல்கிற ஒருவர்
அந்தச் செயலைச் செய்யத் தூண்டுவதாகச் சொல்லப்படு~
வார்.</p>

<p>     106ம் பிரிவு உடந்தைக் குற்றவாளி யார் என்பதை
விளக்குகிறது.</p>

<p>     ஒரு குற்றத்தைச் செய்வதில் உடந்தையாயிருக்கிற~
வரோ அல்லது உடந்தைக் குற்றவாளிக்கு உரிய அதே உட்~
கருத்தோடு அல்லது அறிவோடு ஒரு குற்றத்தைச் செய்~
வதற்குச் சட்டப்படிதிறனுடையவர், எந்தச் செயலைச் செய்~
தால் அது குற்றமாகுமோ அந்தச் செயலைச் செய்ய உடந்~
தையாயிருக்கிறவரோ ஒரு குற்றத்தைச் செய்ய உடந்தை~
யாயிருப்பவர் ஆகிறார். கீழே கொடுக்கப்பட்டுள்ள சில உதா~
ரணங்கள் இந்தப் பிரிவின் உட்கருத்துக்களை நன்கு விளக்கும்
தன்மையன.</p>

<p>     இருளன் என்பவனைக் கொலை செய்யும்படி ஆசைத்தம்பி
என்பவரை அருண் என்பவர் தூண்டுகிறார். அவ்வாறுசெய்ய
ஆசைத்தம்பி மறுக்கிறார். கொலை செய்ய ஆசைத்தம்பிக்கு
அருண் உடந்தைக் குற்றவாளியாகிறார்.</p>

<p>     ஈசன் என்பவரைக் கொலை செய்யும்படி சுகு என்ப~
வரைச் சொக்கலிங்கம் என்பவர் தூண்டுகிறார். அந்தத்
தூண்டுதலைத் தொடர்ந்து சுகு, ஈசனைக் கத்தியால் குத்துகிறார்.</p>

<p>பக்கம்:27
அந்தக் காயத்தினின்றும் ஈசன் குணமடைகிறார்.
கொலை செய்ய சுகுவைத் தூண்டிய குற்றத்தைச் சொக்க~
லிங்கம் செய்கிறார்.</p>

<p>     ஒரு செய்கையை ஒரு குழந்தையோ பித்துப் பிடித்த~
வரோ செய்வதற்கு ராஜூ என்பவர் குற்ற உட்கருத்துடன்
உடந்தையாயிருக்கிறார். அந்த செய்கையின் தன்மையோ
குற்றம் ஒன்றைச் செய்யும் திறனுடைய ஒருவரால் ராஜூ~
வுக்கு உள்ள அதே கருத்தோடு செய்யப்பட்டால் ஒரு குற்ற~
மாகும். இங்கு அந்தச் செய்கை செய்யப்பட்டாலும், செய்~
யப்படாவிட்டாலும் ராஜூ குற்றம் ஒன்றுக்கு உடந்தையாய்
இருக்கும் குற்றத்தைச் செய்கிறார்.</p>

<p>     ராமன்் என்பவரைக் கொலை செய்யும் உட்கருத்துடன்
சிங்காரம் என்பவர் ராமுவின் மரணத்தை விளைவிக்கின்ற
ஒரு செயலைச்் செய்யும்்படி ஏழு வயதுக்குட்பட்ட சந்தானம்
என்னும் குழந்தையைத் தூண்டுகிறார் இந்த உடந்தையின்
விளைவாக ராமன் இல்லாதபோது சந்தானம் இந்தச் செய்~
கையைச் செய்து அதன்மூலமாக ராமனின் மரணத்தை விளை~
விக்கிறான். இங்கு சந்தானம் ஂசட்டத்தின்படி குற்றம் ஒன்றைச்
செய்யும் திறனற்றவராக இருந்தாலும் சந்தானம் சட்டத்~
தின்படி குற்றம் ஒன்றைச் செய்யும் திறனுடையவராக
இருந்து கொலையைச் செய்தவர் போன்றே சிங்காரம் சிறைத்~
தண்டனைக்கு உள்ளாகிறார். எனவே அவர் மரணதண்டனைக்~
குள்ளாகிறார்.</p>

<p>     ஒரு திருட்டுக் குற்றத்தைச் செய்விக்கும் உட்கருத்துடன்
சிகாமணிக்குச் சொந்தமாக உள்ள சொத்தினைச் சிகாமணி~
யின் சுவாதீனத்திலிருந்து எ஠ுத்துக்கொள்ள பாண்டு என்ப~
வரைப் பச்சையப்பன் என்பவர் தூண்டுகிறார். அந்தச்
சொத்துப் பச்சையப்பனுக்குச் சொந்தமானது என நம்பும்~
படி பாண்டு என்பவரைத் தூண்டுகிறார். அது பச்சையப்ப~
னின் சொத்து என்று நம்பி நல்லெண்ணத்தோடு சிகாமணியின்</p>

<p>பக்கம்:28
சுவாதீனத்திலிருந்து அந்தச் சொத்தைப் பாண்டு
எடுத்துக் கொள்கிறார். பாண்டு என்பவர் இந்த தப்பு எண்~
ணத்தில் செயல்படுவதால் நேர்மையற்ற முறையில் இந்தச்
சொத்தினை எடுத்துக் கொள்ளவில்லை. ஆகவே அவர்
திருட்டுக் குற்றத்தைச் செய்யவில்லை. ஆனால் பாண்டு திருட்~
டுக்கு உடந்தையாயிருக்கும் குற்றத்தைச் செய்தவராவ~
துடன் பச்சையப்பன் திருட்டுக் குற்றத்தைச் செய்திருந்தது
போன்றே அதே தண்டனைக்கு உள்ளாகிறார்.</p>

<p>     ஒரு குற்றத்திற்கு உடந்தையாக இருப்பது ஒரு குற்ற~
மாக இருப்பதால் அத்தகைய உடந்தைக்கு உடந்தையாக
இருப்பதும்கூட ஒரு குற்றமாகும்.</p>

<p>     ரங்கன் என்பவரைக் கொலை செய்யும்படி பில்லா என்~
பவரைத் தூண்டும்படி, மணவாளன் என்பவரைப் பாக்கிய~
ராஜ் என்பவர் தூண்டுகிறார். அவ்வாறே ரங்கன் என்஼ப~
வரைக் கொலை செய்யும்படி பில்லாவை மணவாளன் அந்தக்
குற்றத்தைச் செய்கிறார். மணவாளன் செய்த குற்றத்திற்~
காகக் கொலைக் குற்றத்திற்குரிய தண்டனைக்கு உள்ளாகிறார்.
மற்றும் பாக்கியராஜ் அந்தக் குற்றத்தைச் செய்யும்படி மண~
வாளனைத் தூண்டியதால் பாக்கியராஜூம் அதே தண்டனைக்~
குள்ளாகிறார்.</p>

<p>     சதியின் மூலமாக உடந்தைக் குற்றத்தைச் செய்வதற்கு
அதனைச் செய்கிறவருடன் சேர்ந்து உடந்தையாயிருப்்பவர்
திட்டமிட வேண்டும் என்பது அவசியமில்லை. அந்தச் சதி~
யைத் தொடர்ந்து அக்குற்றம் செய்யப்படுகிறதோ அந்தச்
சதியில் அவர் ஈடுபட்டிருப்பாரானால் அது போதுமானது.</p>

<p>     காமு என்பவருக்கு நஞ்சிடுவதற்காக மாரப்பன்் என்ப~
ருடன் சேர்ந்து நஞ்சப்பன் என்பவர் திட்டமிடுகிறார். நஞ்சப்பன்</p>

<p>பக்கம்:29
அந்த நஞ்சினை இடவேண்டும் என்று ஒத்துக் கொள்ளப்
படுகிறது. அதன்பிறகு மூன்றாமவர் அந்த நஞ்சினை இட
இருக்கிறார் என்று கூறி ஆனால் நஞ்சப்பன் பெயரைக் குறிப்~
பிடாமல் இஸ்மாயில் என்பவரிடம் அந்தத் திட்டத்தை
மாரப்பன் விளக்குகிறார். அந்த நஞ்சினை முயன்று பெற இஸ்~
மாயில் ஒத்துக் கொள்வதுடன் விளக்கப்பட்ட முறையில்
அதனை உபயோகப்படுத்தப்படும் பொருட்டு அதை முயன்று
பெற்று மாரப்பனிடம் ஒப்படைக்கிறார். நஞ்சப்பன் அந்த
நஞ்சை இடுகிறார். அதன் விளைவாக காமு இறக்கிறார்.
இங்கு நஞ்சப்பனும் இஸ்மாயிலும் ஒன்று சேர்ந்்து சதி செய்~
திருக்கவில்லையானாலும் கூட அந்தச் சதியைத் தொடர்ந்து
காமு கொலை செய்யப்பட்டிருக்கிறாரோ அந்தச் சதியில்
இஸ்மாயில் ஈ஠ுபடுத்தப்பட்டிருக்கிறார். எனவே இந்தப்
பிரிவில் இலக்கணம் கூறப்பட்ட குற்றத்தை இஸ்மாயில் செய்்~
திருப்பதுடன் கொலைக்கான தண்டனைக்கும் உள்ளாகிறார்.</p>

<p>     108ஏ பிரிவில் இந்தியாவில் செய்யப்பட்டால் ஒரு குற்ற~
மாக அமையும் செய்கை எதையேனும் இந்தியாவுக்கு வெளி~
யேயும் அப்பாலும் செய்வதற்கு இந்தியாவில் உடந்தையா~
யிருக்கின்ற ஒருவர் இந்தச் சட்டத்தின் பொருளின்படி குற்~
றம் ஒன்றுக்கு உடந்தையாகிறார் எனக் கூறப்படுகிறது.</p>

<p>     உதாரணமாக கோவாவில் உள்ள கோவிந்து என்னும்
ஓர் அயல்நாட்டினரை கோவாவில் ஒரு கொலையைச் செய்~
யும்்படி இந்தியாவில் உள்ள அன்சாரி என்பவர் தூண்டுகிறார்.
கொலைக்கு உடந்தையாக இருக்கும் குற்றத்தை அன்சாரி
செய்கிறார்.</p>

<p>     109 வது பிரிவில் பல எடுத்துக்காட்டுக்களோடு குற்றம்
எதற்கேனும் உடந்தையாயிருக்கிற எவர் ஒருவரும் எந்தச்</p>

<p>பக்கம்:30
செய்கைக்கு உடந்தையாக இருந்தாரோ அந்தச் செய்கை~
யின் பின் விளைவாகச் செய்யப்படுமானாலும் அத்தகைய
உடந்தைக் குற்றத்திற்கான தண்டனைக்கு இந்தச் சட்டத்~
தால் வெளிப்படையான வகைமுறை செய்யப்படாமல் இருக்~
குமானாலும், அந்தக் குற்றத்திற்கு வகை செய்யப்பட்ட
தண்டனை விதித்துத் தண்டிக்கப்படுதல் வேண்டும் எனக்
கூறப்படுகிறது.</p>

<p>     ஒரு பொது ஊழியரான பாலு என்பவர் தமது அலுவல்்
முறைக் கடமைகளைச் செய்வதில் சீனு என்பவருக்கு ஏதா~
வது ஒரு சலுகை காட்டுவதாகச் சன்மானமாக அவருக்குச்
சீனு லஞ்சம் தர முனைகிறார். பாலு அந்த லஞ்சத்தை ஏற்றுக்~
கொள்கிறார். இங்குக் குற்றத்திற்குச் சீனு உடந்தையாக
இருக்கிறார்.</p>

<p>     பொய் சாட்சியம் கொடுக்கும்படி காசினாதன் என்பவ~
ரைக் காத்தலிங்கம் என்பவர் தூண்டுகிறார். அந்தத் தூண்டு~
தலின் விளைவாகக் காசிநாதன் குற்றத்தைச் செய்கிறார்.
அந்தக் குற்றத்திற்கு உடந்தையாக இருக்கிற குற்றத்தை
காத்தலிங்கம் செய்தவராவதுடன் காசிநாதனைப் போன்று
அதே தண்டனைக்கு உள்ளாகிறார்.</p>

<p>     ஞானம் என்பவருக்கு நஞ்சிட பிரகாசம் என்பவரும்,
அருள் என்பவரும் சதி செய்கின்றனர். அந்தச் சதியைத்
தொடர்ந்து பிரகாசம் நஞ்சினை முயன்று பெற்று ஞானத்~
திற்கு அதனை இடும் பொருட்டு அருளிடம் அதை ஒப்படைக்~
கிறார். அந்தச் சதியைத் தொடர்ந்து பிரகாசம் இல்லாத
போது அருள் ஞானத்திற்கு அந்த நஞ்்சினை இடுகிறார். அதன்
மூலம் ஞானத்தின் மரணத்தை விளைவிக்கிறார். இங்கு அருள்
கொலைக் குற்ற஼வாளி ஆகிறார். பிரகாசம் சதி மூலம் அந்தக்
குற்றத்தைச்் செய்ய உடந்தையாக இருக்கிற குற்றத்தைச்</p>

<p>பக்கம்்:31
செய்கிறவராவதுடன் கொலைக் குற்றத்திற்கான தண்டனைக்~
கும் உள்ளாகிறார்.</p>

<p>     ஒரு குற்றத்தைச் செய்வதற்கு உடந்தையாயிருக்கும்
எவரொருவரும் உடந்தைக் குற்றவாளியின் உட்கருத்து அல்~
லது அறிவிலிருந்து வேறுபட்ட ஒரு உட்கருத்துடன் அல்லது
அறிவுடன் பிராதன குற்றவாளி அந்தச் செய்கையைச் செய்~
தால் உடந்தையாயிருப்பவருக்குள்ள உட்கருத்துடனும் அறி~
வுடனும் அந்தச் செய்கை செய்யப்பட்டிருந்தால் எந்தக் குற்~
றம் செய்யப்பட்டிருந்திருக்குமோ அந்தக் குற்றத்திற்காக
வகை செய்யப்பட்ட தண்டனை விதித்துத் தண்டிக்கப்பட
வேண்டுமேவொழிய மற்ற எந்தத் தண்டனையுமன்று என்று
110 வது பிரிவில் குறிப்பிடப்படுகிறது.</p>

<p>     மாறன் என்பவரின் உணவில் நஞ்சிடும்படி ஶ்ரீதர் என்ற
ஒரு குழந்தையை முரளி என்பவர் தூண்டி அதன் பொருட்டு
அதனிடம் நஞ்சினைக் கொடுக்கிறார். அந்தக் குழந்தை அத்~
தூண்டுதலின் விளைவாக தவறுதலாக அந்த நஞ்சை மாறனின்
உணவின் பக்கத்திலிருக்கும் லிங்கம் என்பவரின் உணவில்
இட்டுவிடுகிறது. இங்கு அந்தக் குழந்தை முரளியின் தூண்~
டுதலின் பாதிப்பினால் செயற்பட்டிருந்து செய்யப்பட்ட செய்~
கையானது அந்தச் சூழ்நிலையில் அந்த உடந்தையினால் நிகழ்~
தற்குரிய ஒரு பின் விளைவாக இருந்திருந்தால் லிங்கத்தின்
உணவில் நஞ்சிடும்படி குழந்தை ஶ்ரீதரை முரளி தூண்டியிருந்~
தது போன்றே அதே முறையிலும் அதே அளவுக்கும் அவர்
கட்டுப்பாடுடையவராகிறார்.</p>

<p>     எனவே ஒரு செய்கைக்கு உடந்தையாயிருந்து வேறு ஒரு
செய்கை செய்யப்படும் போது, செய்யப்பட்ட அந்தச் செய்~
கைக்கு உடந்தைக் குற்றவாளி நேரடியாக உடந்தையாக
இருந்தது போன்ற முறையிலும் உடந்தையாக இருந்தது</p>

<p>பக்கம்:32
போன்ற அளவுக்கும் அவர் கட்டுப்பாடுடையவராகிறார் என
11வது பிரிவில் கூறப்படுகிறது.</p>

<p>     இன்னும் 2 எடுத்துக்காட்டுகளைக் கொண்டு 111வது
விளக்கப்படுகிறது. அவையாவன:</p>

<p>     சின்னசாமி என்பவரின் வீட்டை எரிக்கும்படி மதன்
என்பவரைச் சுந்தர் என்பவர் தூண்டுகிறார். மதன் அந்த
வீட்டிற்குத் தீவைத்து அதே சமயத்தில் அங்குள்ள சொத்~
தைத் திருடும் குற்றத்தையும் செய்கிறார். வீட்டை எரிப்ப~
தற்கு உடந்தையாகிற குற்றத்தை அவர் செய்திருந்தாலும்
திருட்டுக்கு உடந்தையாகிற குற்றத்தை அவர் செய்தவர்
அல்லர். ஏனெனில் திருட்டுச் செயல் முற்றிலும் வேறான
ஒரு செயலாகும். மற்றும் அது எரிப்பதனால் நிகழ்தற்குரிய~
தாயிருந்த ஒரு பின்விளைவு அன்று.</p>

<p>     கொள்ளையடிக்கும்பொருட்டு குடியிருக்கும் ஒரு வீட்டில்
நள்ளிரவில் கன்னமிட கண்ணாயிரம் என்பவரையும் கமல~
நாதன் என்பவரையும் அமிர்தலிங்கம் தூண்டுகிறார். மற்~
றும் அதன் பொருட்டு அவர்களுக்கு ஆயுதங்களையும் வழங்கு~
கிறார். கண்ணாயிரமும், கமலநாதனும் கன்னமிட்டு வீட்டுக்~
குள் நுழைந்து அங்கு வசிப்பவர்களில் ஒருவராகிய சத்தியன்
என்பவரால் தடுக்கப்படவும் அவரைக் கொலை செய்கிறார்~
கள். இங்கு அந்தக் கொலை உடந்தையினால் நிகழ்தற்குரிய
ஒரு பின் விளைவாக இருந்திருந்தால் அமிர்தலிங்கம் கொலைக்~
குற்றத்துக்கு வகை செய்யப்பட்ட தண்டனைக்கு உள்ளா~
கிறார்.</p>

<p>     112வது பிரிவில் எந்தச் செய்கைக்காக உடந்தைக்
குற்றவாளி பொறுப்பாக உள்ளாரோ அந்தச் செய்கையா~
னது உடந்தையாயிருந்த செய்கையோடு கூடச் செய்யப்பட்டு</p>

<p>பக்கம்:33
அதுமுற்றிலும் வேறான ஒருகுற்றமாக அமையுமானால்
உடந்தைக் குற்றவாளி அக்குற்றங்கள் ஒவ்வொன்றிற்கும்
தண்டனைக்கு உள்ளாகிறான் எனக் கூறப்படுகிறது.</p>

<p>     ஓர் உதாரணம்:</p>

<p>     ஒரு பொது ஊழியர் செய்யும் ஜப்தியைப் பலவந்தமாக
எதிர்க்கும்படி, தீனன் என்பவரை லோகநாதன் என்பவர்
தூண்டுகிறார். தீனன் அதன் விளைவாக அந்த ஜப்தியை
எ஥ிர்க்கிறார். எதிர்க்கும்போது ஜப்தியை நிறைவேற்றும்
அலுவலர்க்கு தம்மிச்சையாக தீனன் கொடுங்காயம் விளை~
விக்கிறார். தீனன் ஜப்தியை எ஥ிர்த்ததுடன் தம்மிச்சை~
யாகக் கொடுங்காயம் விளைவிக்கின்ற குற்றத்தையும் ஆக
இரண்டையும் செய்திருப்பதால் இந்த இரண்டு குற்றங்களுக்~
குமாகத் தீனன் தண்டனைக்குள்ளாகிறார். மற்றும் ஜப்தியை
எ஥ிர்க்கும்போது தீனன் தம்மிச்சையாக கொடுங்காயம்
அநேகமாக விளைவிக்கக்கூடும் என்பதை லோகநாதன் அறிந்~
திருந்தால் அக்குற்றங்கள் ஒவ்வொன்றுக்குமான தண்டனைக்கு
லோகநாதனும் உள்ளாவார்.</p>

<p>     113வது பிரிவில் ஒரு குறிப்பிட்ட விளைவை உண்டாக்கும்
தம் உட்கருத்துடன் உடந்தைக் குற்றவாளி ஒரு செய்கைக்கு
உடந்தையாக இருக்கின்றபோதும் உடந்தையாயிருந்ததன்
விளைவாக உடந்தைக் குற்றவாளியால் உட்கருத்துக் கொள்~
ளப்பட்டதினின்றும் வேறுபட்ட ஒரு விளைவை உண்டாக்கு~
கிறபோது, உடந்தையாயிருந்த செய்கை அந்த விளைவை
அநேகமாக உண்டாக்கியிருக்்கக்கூடும் என்பதை அவர் அறிந்~
திருந்தார் என்றால், உடந்தைக் குற்றவாளி, அந்த விளைவை
உண்டாக்கும் உட்கருத்துடன் அந்தச் செய்கைக்கு அவர்
உடந்தையாயிருந்தது போலவே, அதே முறையிலும் அதே
அளவுக்கும் கட்டுப்பாடுடையவராவார்.</p>

<p>பக்கம்:34
     உதாரணம்:</p>

<p>     கபாலி என்பவருக்குக் கொடுங்காயம் விளைவிக்கும்படி
கேசவன் என்பவர் துவான் அலி என்பவரைத் தூண்டுகிறார்.
துவான் அலி அந்தத் தூண்டுதலின் விளைவாகக் கபாலிக்குக்
கொடுங்காயம் விளைவிக்கிறார். இங்கு உடந்தையாயிருந்து
உண்டாக்கப்பட்ட கொடுங்காயம் மரணத்தை அநேகமாக
உண்டாக்கக்கூடியது என்பதைக் கேசவன் அறிந்திருந்தால்
கேசவன் கொலைக்கு வகை செய்யப்பட்டுள்ள தண்டனை
விதித்துத் தண்டிக்கப்படுவதற்கு உள்ளாகிறார்.</p>

<p>     114ம் பிரிவில் குற்றம் செய்யப்படுகிறபோது உ஠ன்
இருக்கும் நபரும் உடந்தைக் குற்றவாளியாகவே கருதப்படு~
வான் எனக் கூறப்படுகிறது. அவரும் குற்றம் செய்தவரா~
கவே கொள்ளப்படும்.</p>

<p>     115ம் பிரிவில் மரணம் அல்லது ஆயுள் சிறைவாசம்
விதித்துத் தண்டிக்கப்படக்கூடிய ஒரு குற்றத்தைச் செய்~
வதற்கு உடந்தையாக இருக்கும் எவரொருவரும் அந்த உடந்~
தையின் விளைவாக அக்குற்றம் செய்யப்படாதிருந்தாலும்
அத்தகைய உடந்தைக் குற்றத்தைத் தண்டிப்பதற்கு இந்தச்
சட்டம் குறிப்பான வகைமுறை எதையும் செய்யவில்லை~
யென்றாலும் ஏழு ஆண்டுகள் வரை நீடிக்கக்கூடிய ஒரு கால
அளவுக்குச் சிறைத்தண்டனை வகைகள் இரண்டில் ஏதேனும்
ஒரு வகைத் தண்டனை விதித்துத் தண்டிக்கப்படுதல் வேண்~
டும். மற்றும் அக்குற்றவாளியை அபராதத்திற்கு உள்ளாக்க~
வும் செய்யலாம்.</p>

<p>     மற்றும் உடந்தையின் விளைவாக எந்தச் செய்கைக்காக
உடந்தைக் குற்றவாளி 14 ஆண்டு வரை நீடிக்கும் ஒரு கால
அளவுக்கு சிறைத்தண்டனை வகையில் இரண்டில் ஏதேனும்</p>

<p>பக்கம்:35
ஒன்றுக்கு உள்ளாதல் வேண்டும்; மற்றும் அவரை அபராதத்~
திற்கு உள்ளாக்கவும் செய்யலாம்.</p>

<p>     உதாரணம்:</p>

<p>     ராமு என்பவரைக் கொலை செய்யுமாறு செங்கோடன்
என்பவரை வஜ்ரவேலு என்பவர் தூண்டுகிறார். அக்குற்றம்
செய்யப்படவில்லை. செங்கோடன் ராமுவைக் கொலை
செய்திருந்தால் மரணம் அல்லது ஆயுள் சிறைத்தண்டனைக்கு
அவர் உள்ளாகியிருப்பார். ஆகையால் ஏழு ஆண்டு வரை~
யில் நீடிக்கக்கூடிய ஒரு கால அளவு சிறைத்தண்டனைக்கும்
மற்றும் அபராதத்திற்கும் வஜ்ரவேலு உள்ளாகிறார். மற்றும்
உடந்தையின்் விளைவாக ராமுவிற்குக் காயம் ஏதாவது
உண்டாக்கப்பட்டிருந்தால் 14 ஆண்டுகள் வரையில் நீடிக்கக்
கூடிய ஒரு கால அளவு சிறைத் தண்டனைக்கும் அபராதத்திற்~
கும் அவர் உள்ளாவார்.</p>

<p>     116ம் பிரிவில்் சிறைத்தண்டனை விதிக்கப்படக்கூடிய
குற்றத்திற்கு உடந்தையாயிருக்கும் எவரொருவரும் அந்த
உடந்தையின் விளைவாக அந்தக் குற்றம் செய்யப்படா~
திருந்தாலும் அத்தகைய உடந்தைக் குற்றத்தைத் தண்டிப்~
பதற்கு இந்தச் சட்டம் குறிப்பான வரைமுறை எதையும்
செய்யவில்லை என்றாலும் அக்குற்றத்திற்கு வகை செய்யப்பட்~
டுள்ளபடி எவ்வளவு அதிக கால அளவுக்குச் சிறைத்தண்டனை
க஼ொடுக்க முடியுமோ அதில் நாலில் ஒரு பாகம் வரையில்
நீடிக்கக்கூடிய ஒரு கால அளவுக்கு அந்தக் குற்றத்திற்கு
வகை செய்யப்பட்டுள்ளபடி சிறைத்தண்டனை வகைகளிள்
ஏதேனும் ஒருவகைத் தண்டனையோ அல்லது அந்தக் குற்றத்~
திற்கு வகை செய்யப்பட்டுள்ள அபராதமோ அல்லது இரண்~
டுமோ விதித்துத் தண்டிக்கப்படுதல் வேண்டும்.</p>

<p>     உடந்தைக்் குற்றவாளி அல்லது பிரதான குற்றவாளி
குற்றத்தைத் தடுப்பதைக் கடமையாகக் கொண்டுள்ள ஒரு</p>

<p>பக்கம்:36
பொது ஊழியராக இருந்தால், அந்தக் குற்றத்திற்கு வகை
செய்்யப்பட்டுள்ளபடி எவ்வளவு அதிக கால அளவுக்குச்
சிறைத் தண்டனை கொடுக்க முடியுமோ அதில் ஒரு பாதி
வரையில் நீடிக்கக்கூடிய ஒரு கால அளவுக்கு அந்தக் குற்றத்~
திற்கு வகை செய்யப்பட்டுள்ள சிறைத்தண்டனை வகைகளில்
ஏதேனும் ஒருவகைத் தண்டனையோ அல்லது அபராதமோ
அல்லது இரண்டுமோ விதித்துத் தண்டிக்கப்படுதல் வேண்~
டும்.</p>

<p>     இந்த 116வது பிரிவின் கருத்தினை விளக்க 4 எடுத்துக்~
காட்டுகள் தரப்பட்டுள்ளன. அவற்றை இனி பார்ப்போம்.</p>

<p>     i)  ஏகாம்பரம் ஒரு பொது ஊழியர் தம் அலுவல்
முறைக் கடமைகளைச் செய்வதில் அப்பர் என்பவருக்கு ஏதே~
னும் ஒருவகை சலுகை காட்டுவதற்குச் சன்மானமாக அவ~
ருக்கும் அப்பர் லஞ்சம் தர முனைகிறார். ஏகாம்பரம் அந்த
லஞ்சத்தை ஏற்க மறுத்து விடுகிறார். அப்பர் இந்தப் பிரிவின்
படி தண்டிக்கப்படக் கூடியவராவார்.</p>

<p>     ii)  பொய் சாட்சியம் கொடுக்கும்படி ஆலையப்பன் என்~
பவரை எ஥்திராஜ் என்பவன் தூண்டுகிறான். இங்கு ஆலை~
யப்பன் சாட்சியம் கொடுக்காவிட்டாலும், இந்தப் பிரிவில்
இலக்கணம் கூறப்பட்ட குற்றத்தை எ஥்திராஜ் செய்தவரா~
கிறார். மற்றும் அதன்படி தண்டிப்பதற்கு உரியவராகிறார்.</p>

<p>     iii)  கொள்ளையைத் தடுப்பதைத் தம் கடமையாகக்
கொண்டுள்ள ஒரு காவல் அலுவலரான கன்னியப்பன் என்ப~
வர் கொள்ளையடிப்பதற்கு உடந்தையாயிருக்கிறார். இங்கே
கொள்ளையடிக்கப்படாமல் இருந்தபோதிலும் அந்தக் குற்~
றத்திற்கு வகை செய்யப்பட்டுள்ளபடி எவ்வளவு அதிக கால
அளவுக்குச் சிறித் தண்டனை கொடுக்க முடியுமோ அதில்</p>

<p>பக்கம்:37
ஒரு பாதிக்கும் மற்றும் அபராதத்திற்கும்கூடக் கன்னியப்பன்
உள்ளாகிறார்.</p>

<p>     iv)  கொள்ளையைத் தடுப்பதைத் தம் கடமையாகக்்
கொண்டுள்ள ஒரு காவல் அலுவலரான சிவகுரு என்பவர்
அக்குற்றத்தைச் செய்வதற்கு ஆசைத்தம்பி என்பவருக்கு
உடந்தையாக இருக்கிறார்.</p>

<p>     இங்கே கொள்ளை அடிக்கப்படாமல் இருந்த போதிலும்
அக் கொள்ளைக் குற்றத்திற்கு வகை செய்யப்பட்டுள்ளபடி
எவ்வளவு அதிக கால அளவுக்குச் சிறைதண்டனை கொடுக்க
முடியுமோ அதில் ஒரு பாதிக்கும் மற்றும் அபராதத்திற்கும்
கூட ஆசைத்தம்பி உள்ளாகிறார்.</p>

<p>     117ம் பிரிவில் பொதுமக்களால் அல்லது பத்஼து பேர்~
களுக்கு மேற்பட்டவர்களால் செய்யப்படும் குற்றத்திற்கு
உடந்தையாயிருத்தல் குற்றம் என்று கூறப்படுகிறது.
இதற்கு 3 ஆண்டுகள் வரையில் நீடிக்கக்கூடிய ஒரு கால அள~
விற்குச் சிறைத்தண்டனை வகைகள் இரண்டில் ஏதேனும் ஒரு
வகைத் தண்டனையோ அல்லது அபராதமோ அல்லது இரண்~
டுமோ விதித்துத் தண்டிக்கப்ப஼டுதல் வேண்டும்.</p>

<p>     உதாரணம்:</p>

<p>     விரோதம் கொண்டுள்ள ஒரு பிரிவைச் சேர்ந்த உறுப்~
பினர்களை அவர்கள் ஊர்வலமாகச் சென்று கொண்டிருக்கும்
போது தாக்கும் பொருட்டுப் 10 பேர்களுக்கு மேற்பட்ட
ஒரு பிரிவினரை ஒரு குறிப்பிட்ட நேரத்திலும், இடத்திலும்
கூடும்படி தூண்டுகிற ஒருசுவரொட்டியை ஒரு பொது இடத்~
தில் அமிர்தலிங்கம் என்பவர் ஒட்டுகிறார். இந்தப் பிரிவில்
இலக்கணம் கூறப்பட்டுள்ள குற்றத்தை அவர் செய்திருக்~
கிறார்.</p>

<p>பக்கம்:38
     118வது பிரிவில் மரணம் அல்்லது ஆயுள் சிறைவாசம்
விதித்துத் தண்டிக்கப்படக்கூடிய குற்றம் செய்வதற்கான
திட்டத்தை மறைத்தல் குற்றம் என்பது குறிப்பிடப்படு~
கிறது.</p>

<p>     அந்த஼க் குற்றம் செய்்யப்படுமானால் 7 ஆண்டுகள் வரை
நீடிக்கக்கூடிய ஒரு கால அளவுக்குச் சிறைத் தண்டனை வகை~
கள் இரண்டில் ஏதேனும் ஒருவகைத் தண்டனை விதித்துத்்
தண்டிக்கப்படுதல் வேண்டும்.</p>

<p>     அந்தக் குற்றம் செய்யப்படவில்லை என்றால் 3 ஆண்டுகள்~
வரை நீடிக்கக்கூடிய ஒரு கால அளவுக்குச் சிறைத்தண்டனை
வகைகள் இரண்டில் ஏதேனும் ஒரு வகைத் தண்டனை விதித்~
துத் தண்டிக்கப்படுதல் வேண்டும்.</p>

<p>     அவர்கள் அபராதத்திற்கும் உள்ளாதல் வேண்டும்.</p>

<p>ஓர் உதாரணம்</p>

<p>     நல்லூர் என்ற இடத்தில் கூட்டுக் கொள்ளை நடக்க
இருப்பது சிதம்ப஼ரநாதனுக்குத் தெரிந்திருந்தும் எ஥ிர் திசை~
யில் இருக்கும் தீவனூர் என்னும் ஓர் இடத்தில் ஒரு கூட்டுக்
கொள்ளை நடக்க இருக்கிறது என்று பொய்யாக ஂநடுவருக்குத்
தகவல் தெரிவித்து அதன் மூலம் அக்குற்றம் செய்யப்படு~
வதற்கு வசதி செய்யும் உட்கருத்துடன் அந்த நடுவரைத்
திசைதிருப்பிவிடுகிறார். அந்தத் திட்டத்தைத் தொடர்ந்து
நல்லூர் என்னும் இடத்தில் கூட்டுக் கொள்ளை நடக்கிறது.
சிதம்பரநாதன் இந்தப் பிரிவின்படி தண்டிக்கப்படுவதற்குரிய~
வராவார்.</p>

<p>     119வது பிரிவில் குற்றத்தைத் தடுப்பது தம் கடமை~
யாக இருக்க குற்றம் செய்வதற்கான திட்டத்தை மறைக்கின்ற</p>

<p>பக்கம்:39
பொது ஊழியரின் செயல் குற்றமெனக் கூறப்படு~
கிறது.</p>

<p>     அந்தக் குற்றம் செய்யப்படுமாயின் அந்தக் குற்றத்திற்கு
வகை செய்யப்பட்டுள்ளபடி எவ்வளவு அதிககால அளவிற்கு
சிறைத் தண்டனை கொடுக்க முடியுமோ அதில் ஒரு பாதிவரை
நீடிக்கக்கூடிய ஒரு கால அளவுக்கு எந்த வகைத் தண்டனை~
யேனும் விதித்து அல்லது அந்தக் குற்றத்திற்கு வகை செய்~
யப்பட்டுள்ள அபராதம் விதித்து அல்லது இரண்டுமே விதித்~
துத் தண்டிக்கப்படுதல் வேண்டும்.</p>

<p>     குற்றம் செய்யப்பட஼வில்லையானால் அந்தக் குற்றத்திற்கு
வகைசெய்யப்பட்டுள்ளபடி எவ்வளவு அதிககால அளவுக்குச்
சிறைத்தண்டனை கொடுக்க முடியுமோ அதில் நாலில் ஒரு
பாகம் வரை நீடிக்கக்கூடிய ஒரு கால அளவுக்கு அந்தக் குற்~
றத்திற்காக வகைசெய்யப்பட்டுள்ள எந்த வகைத் தண்டனை~
யேனும் விதித்து அல்லது அக்குற்றத்திற்காக வகை செய்யப்~
பட்டுள்ள அபராதம் விதித்து அல்லது இரண்டுமே விதித்து
தண்டிக்கப்படுதல் வேண்டும்.</p>

<p>     எடுத்துக்காட்டு:-</p>

<p>     கூட்டுக்கொள்ளை நடத்துவதற்கான திட்டங்கள் அனைத்~
தையும் குறித்துத் தாம் அறியவரும் செய்திகளைப் பற்றித்
தகவல் கொடுக்கச் சட்டப்படி கட்டுப்பட்டவராயிருப்ப~
தோடு கூட்டுக்஼கொள்ளை ஂநடத்த சுகுமாரன் என்பவர் திட்ட~
மிட்டிருக்கிறார் என்பதையும் அறிந்துள்ள காவல் அலுவல~
ரான அரசப்பன் என்பவர் அந்தக்குற்றம் செய்யப்படுவதற்கு
வசதி செய்யும் உட்கருத்துடன் அத்தகைய தகவலைக் கொடுக்~
காது விட்டு விடுகிறார். இங்கு அரசப்பன் சட்டத்திற்கு
மாறான ஒரு விடுகையின் மூலம் சுகுமாரன் திட்டம் உளதாய்
இருப்பதை மறைத்திருக்கிறார். மற்றும் இந்தப்பிரிவின் வகை~
முறைகளின்படி தண்டனைக்கு அவர் உள்ளாகிறார்.</p>

<p>பக்கம்:40
     120ம் பிரிவில் சிறைத்தண்டனை விதிக்கப்படக்கூடிய குற்~
றத்தைச் செய்வதற்கான திட்டத்தை மறைத்தல் குற்றம்
எனக் கூறப்படுகிறது. குற்றம் செய்யப்பட்டால், அக்குற்றத்~
திற்கு வகை செய்யப்பட்டுள்ள சிறைத்தண்டனை வகையில்
நான்கில் ஒரு பாகம் வரை நீடிக்கக்கூடிய ஒரு கால அள~
வுக்குச் சிறைத் தண்டனை விதிக்கலாம்.</p>

<p>     அக்குற்றம் செய்யப்படவில்லையெனில், அக்குற்றத்திற்கு
வகை செய்யப்பட்டுள்ள சிறைத் தண்டனை வகையில் நான்கில்
எட்டில் ஒருபாகத்திற்குச் சிறைத்தண்டனையா அல்லது அக்~
குற்றத்திற்கு வகை செய்யப்பட்டுள்ள அபராதமோ அல்லது
இரண்டுமோ விதித்துத்தண்டிக்கப்படுதல் வேண்டும்.</p>

<p>     அத்தியாயம் V A 2 பிரிவுகளைக் கொண்டது. குற்றமுறு
சதி பற்றி இவ்வத்தியாயத்தில் கூறப்படுகிறது.</p>

<p>    120A பிரிவில் சதியின் இலக்கணம் கூறப்படுகிறது.
அதாவது இருவர்் அல்லது இருவருக்கு மேற்பட்டவர்கள்
சட்டத்திற்கு முரணான ஒரு செய்கையை
செய்ய உடன்படும்போது அல்லது செய்விக்கும்போது அத்~
தகைய உடன்படிக்கை ஒரு குற்றமுறு சதி என்று வழங்கப்~
படும்.</p>

<p>     120B பிரிவில் சதிக்குற்றத்திற்குரிய தண்டனை பற்றிக்
கூறப்படுகிறது.
    
               0 
</p></body></text></cesDoc>