<cesDoc id="tam-w-literature-critic-crit1" lang="tam">
<cesHeader type="text">
<fileDesc>
<titleStmt>
<h.title>tam-w-literature-critic-crit1.txt</h.title>
<respStmt>
<respType>Electronic file created by</respType>
<respName>Central Institute for Indian Languages, Mysore</respName>
<respType>transferred into Unicode and CES format by</respType>
<respName>"Unicodify" software by Andrew Hardie</respName>
</respStmt></titleStmt>
<publicationStmt>
<distributor>UCREL (on behalf of CIIL)</distributor>
<pubAddress>Department of Linguistics, Lancaster University, Lancaster, LA1 4YT, UK</pubAddress>
<availability region="WORLD"></availability>
<pubDate>03-07-04</pubDate>
</publicationStmt>
<sourceDesc>
<biblStruct>
<monogr>
<h.title>சினிமா சில பார்வைகள்</h.title>
<h.author>சுவ. சுப்பிரமணியன்</h.author>
<imprint>
<pubPlace>India</pubPlace>
<publisher>Unknown - Book</publisher>
<pubDate>1990</pubDate>
</imprint>
<idno type="CIIL code">crit1</idno>
</monogr></biblStruct></sourceDesc></fileDesc>
<encodingDesc>
<projectDesc>Text collected for the CIIL Corpus, subsequently integrated into the EMILLE/CIIL Monolingual Written Corpora.</projectDesc>
<samplingDesc>Simple written text only has been transcribed. Diagrams, pictures and tables have been omitted. Sampling begins at page 33.</samplingDesc>
<editorialDecl><conformance level="1"></conformance></editorialDecl>
</encodingDesc>
<profileDesc>
<creation><date>03-07-04</date></creation>
<langUsage>Tamil</langUsage>
<wsdUsage>
<writingSystem id="ISO/IEC 10646">Universal Multiple-Octet Coded Character Set (UCS).</writingSystem>
</wsdUsage>
<textClass>
<channel mode="w">print</channel>
<constitution type="composite"></constitution>
<domain type="public"></domain>
<factuality type="fact"></factuality>
</textClass>
<translations></translations>
</profileDesc>
<revisionDesc></revisionDesc>
</cesHeader>

<text><body>

<p>-37-
	EISENSTEIN, PUDOVKIN என்ற இரண்டு டைரக்டர்~
கள். இருபதில் தொடங்கிய இந்த஼ `புதிய- நவீன புரட்சிகர~
மான ரஶ்ய சினிமா'விற்கு வழிகாட்டிக஼ளாக இருந்தவர்~
கள். லெனினே இவர்களைப் பற்றிச் சொல்லும் போது,
"புதிய ரஶ்ய சினிமாவின் தத்துவ மேதைகள்"
என்கின்்றார். இவர்஖ள் படங்களில் கதாநாயகர்கள் என்று
யாருமே கிடையாது. மக்களும் ஒருங்கிணைந்த மக்கள்
சக்தியும்தான் படத்தின் பிரதான பாத்திரம் வகிக்கும்.
கம்யூனிஸ தத்துவங்களே இவர்கள் படங்களில் தலைமை
ஏற்று படக்கதையை நடத்திச்் செல்லும். இவர்கள் படங்~
களில் பிரச்சார ரீதியான ஒரு கதை உண்டு. அந்தத்
கதையைச் சொல்லும் பாணியில் எந்தக் குழப்பமும்
கிடையாது. எதைச் சொல்ல வேண்டுமோ, அதனை எந்தச்
சிக்கலுக்கும் இடங் கொடுக்காது இவர்கள் படங்கள்
`Narrative Form' என்ற வகையில் நேராகச் சொல்லின.
`கலை என்பது படைப்பவனையும் அவன் காலத்திய
மக்களையும் இணைக்கின்ற இணைப்புச் சாதனம்
-38-
என்பதற்கு ஒரு முழுமையான விளக்கங்களாக இவர்கள்
படங்கள் விளங்கின.</p>

<p>	EISENSTEIN முதல் படம் `ஸ்டிரைக்'
என்பது. 1925 ல் வெளி வந்தது. அதைத் தொடர்ந்து
`Ten days That Shook the world' (27), `Old and New'
(28) முதலிய படங்கள் வெளிவந்தன. இந்தப் படங்கள்
வெளிவந்த உடனேயே ஒரு அமெரிக்கப் பத்திரிகை
எழுதிக் காட்டியது.</p>

<p>	தன்னுடைய படங்களைப் பற்றி - அந்தப் படங்களின்
அடிப்படை சாராம்சம் குறித்தும் EISENSTEIN விரிவாகப்
பல புத்தகங்கள் எழுதி இருக்கின்றார்.</p>

<p>	"இன்றைக்கு உலக வரலாற்றில் மேலோங்கி நிற்கின்ற
தத்துவம்-</p>

<p>	ஏழை பணக்காரன் என்ற வர்க்க இடைவெளியைச்
சுட்டிக் காட்டும் கம்யூனிஸத் தத்துவம் தான்.</p>

<p>	இந்தப் புதிய தத்துவம் தான் புரட்சிகரமான கலை
வடிவத்தினைத் தர முடியும்!"</p>

<p>	அவருடைய இந்த வார்த்தைகளுக்கு அவருடைய
படங்களே `சாட்சியங்஖ளாக' நிற்கின்றன.
-39-
	இன்னோர் டைரக்டர் PUDOVKIN ரஶ்ய டைரக்஼டர்~
களிலேயே மிகுந்த செல்வாக்கும் புகழும் கொண்டவர்.
முப்பதில், `இவருக்கு இணை யாருமில்லை' என்று கருதப்~
பட்டவர். உலகப் புகழ் பெற்ற கார்க்கியின் `தாய்'
என்ற ரஶ்ய நாவலைத் திரைப்படமாகக் கொண்஼டு
வந்தார். The end of St Peterburg (1927) Storm Over Asia'
(1928) இவருடைய பிற படங்கள் உழைக்கின்ற பாட்டாளி
வர்க்கத்தின் புகழ் பாடுகின்ற படங்கள். சமூக உணர்வு
கொண்டு புதிய தலைமுறை வாழ்விற்காகத் தாக முற்றும்
கிளர்ந்து எழுந்த தனி மனிதர்களின் கதைகளைச் சொல்~
கின்ற படங்கள். `உலகத்து உழைக்கும் வர்க்கமே ஒன்று
திரளுங்கள்! தள்ளாடிப் போய் நிற்கும் இந்த முரண்~
பாடான சமூக அமைப்பினைத் தூள் தூளாக்குங்கள்! புதிய
உதயமொன்று உங்஖ளுக்காகக் காத்திருக்கின்றது! எழுந்து
வாருங்கள்! புதிய எதிர்காலம் படைப்போம்!" என்ற ரீதியில்
`புதிய பாட்டாளி வர்க்கத்திற்கு' அறைகூவல் விடுக்கும்
தொனியோடு முடிந்து போகும் படங்கள்.</p>

<p>	1925 வாக்கில் இவருடைய படங்கள் அமெரிக்காவிலும்
ஐரோப்பியாவிலும் பெரும் பரபரப்பினை உருவாக்கின
முற்றிலும் மாறுபட்ட ஒரு புதிய உலகம் வெள்ளித் திரை~
யில் காண்பிக்கப்பட்டபோது, ஹாலிவுட் படங்களையே
பார்த்துப் பழக்கப்பட்ட அமெரிக்க ஐரோப்பா சினிமா
உலகம் திகைத்துப் போனது. WILTON A BARRETT
என்ற அமெரிக்க சினிமா விமர்சகர் எழுதிக் காட்டினார்.</p>

<p>	"சினிமா உலகில் இந்தப் படங்கள் ஒரு புதிய சக்தி;
சினிமாவை உயர்ந்த கலையாக எப்படிக் கையாளுவது
என்பதற்கு எடுத்துக்காட்டு...... நேரான பார்வை;
பார்க்கும் பார்வையாளர் மனத்தை ஆழமாக வந்து தாக்குகின்ற
-40-
தாக்குதல்கள்...... ஓர் உயர்ந்த கலை வெள்ளித் 
திரைக்கு வந்திருக்கிறது..."</p>

<p>	இன்னோர் ஐரோப்பிய சினிமா விமர்சகர் எழுதினார்
"PUDOVKIN படங்கள் கவிதையை ஒத்துப்போகின்றன."</p>

<p>	இருபதில் தொடங்கி முப்பது வாக்கில் பேரலைகளாக
வீசிய இந்த ரஶ்ய அரசியல் பிரச்சாரப் படங்஖ள் உலக
சினிமா உலகத்தினை வெகுவாகத் தாக்கியது. இதுதான்
சினிமா' என்று நினைக்கப்பட்ட மரபுவழித் திரைப் படங்~
களிலிருந்து இடைமுறிவாக எழுந்து வந்த இந்தப்
படங்கள், சினிமா உலகில் `புதிய பரிணாம வளர்ச்சி'யைக்
கொடுத்தபோது-</p>

<p>	இந்த ரஶ்யப் படங்களின் தாக்கத்தினால் அமெரிக்கா~
விலும் ஐரோப்பியாவிலும் இது மாதிரியான சில அரசியல்
பிரச்சாரப் படங்களை உருவாக்கும் முயற்சிகள் மேற்~
கொள்ளப்பட்டன.</p>

<p>	ஆனால் ஒரு வித்தியாசம்.</p>

<p>	இந்த அரசியல் பிரச்சார அலைகள் ரஶ்யாவில் ஓர்
இயக்கமாக நிகழ்ந்தது; அன்றைக்கு வெளிவந்த அத்தனை
ரஶ்யப் படங்களும் இந்தப் பிரச்சார எல்லைக்குள்ளேயே
நின்றன. சினிமாவில் அரசியல் பிரச்சாரம் என்பது புதிய
ரஶ்ய அரசாங்கம் ஏற்றுக் கொண்ட கலைக் கொள்்஖ை~
யாகவும் இருந்தது. ஆனால் அமெரிக்காவிலும் ஐரோப்பியா~
விலும் இந்த அரசியல் பிரச்சார சினிமா என்பது தனி
-41-
நபர்களின் முயற்சியாகவே இருந்தது. இந்த முயற்சிகள்
அங்஖ங்கே உதிரி மலர்களாகச் சி஥றி விழுந்தன.
முதலாளித்துவ சமூக அமைப்பில் செல்வம் ஓரிடத்தில்
குவிக்கப்படுவதால் சமூக அமைப்பில் பிறக்கின்ற வறுமைத்
துயரங்களை - வர்க்க பேதம் நிறைந்த இந்த சமூக
நிலைமைகளை இந்தத் தனி  நபர்கள், ரஶ்யப் படங்கள்
கொடுத்த உத்வேகத்தில் தங்கள் படங்களில் காட்டி~
னார்கள்.</p>

<p>	அமெரிக்காவில் சார்லி சாப்ளின் படங்கள்
சில, சமூகமட்டத்தில் நிலைகுலைந்து போய்஼க் கிடந்த
சாதாரண மனிதர்களின் துயரங்களைச் சுட்டிக் காட்டின.
பின்னால் ஐம்பதில் ஜான்ஃபோர்ட் என்ற
அமெரிக்க டைரக்டரின் `The GRAPES OF WRATH'
போன்ற படங்கள் இந்த `அரசியல்் பிரச்சாரத்தொனி'~
யோடு வெளி வந்தன.</p>

<p>	ஐரோப்பாவில், குறிப்பாக பிரான்ஸில் சில கலைஞர்~
கள் முற்போக்குப் பிரச்சார அலைகளால் பெரிதும்
தாக்கப்பட்டார்கள். ஜீன் கோடார்ட் என்ற
டைரக்டர் ஆரம்பத்தில் சினிமாவில் `புதிய அலை'
என்ற சோதனை முயற்சியை மேற்கொண்ட இவர், அறுப~
திற்குப் பின்னால் முழுக்க முழுக்க அரசியல் பிரச்சாரச்
சினிமாவிலேயே கவனத்தினைச்஼செலுத்தினார். `சினிமாவா?
அது ஒரு முற்போக்கு அரசியல் பிரச்சாரமே தவிர,
வேறில்லை...' என்று வெளிப்படையாகவே சொன்னார்.
இவருடைய `Weekend' (1967 என்ற படம், பணத்திற்~
காகப் பேயாக அலையும் ஒரு மத்தியதர குடும்பத்தினைப்
படம் பிடித்துக் காட்டுகிறது. இவருடைய `State of Siege'
என்ற படம் முழுக்க முழுக்க சக்தி வாய்ந்த அரசியல்
படமாகவே விளங்குகிறது. அமெரிக்க முதலாளித்துவ
அடக்கு முறைக்கெதிராகக் கிளர்ந்தெழும் தென் அமெரிக்க
விடுதலை போராட்டத்தினை இந்தப் படம் தெளிவாகக்
காட்டுகிறது.
-42-
	இன்னொரு பிரஞ்ச் டைரக்டர் Jean Vigo சோம்பேறி~
஖ளாக வாழ்கின்ற பணக்கார வர்க்கம், எப்படி இந்தச்
சமூக மக்களை அட்டைகளாக உறிஞ்சிக் கொழுத்து வாழ்~
கிறார்கள் என்பதை அப்பட்டமாக `A Proposde Nice'
என்ற படத்தில் காட்டுகின்றார். இவருடைய இன்னோர்
புகழ்பெற்ற படம் `L' Hotel Des Invalides' என்பது.
படத்தில் விசேஶமாக எதுவும் கிடையாது. ஒரு
`டாக்குமெண்டரி' படத்தைப் பார்ப்பது போன்ற உணர்~
வைத் தரும் படம். ஆரம்பத்தில் இந்தப்படத்தை வெளியிட
பிரஞ்ச் அரசாங்கம் த஼யக்கம் காட்டியது. எழுபதின் ஆரம்~
பத்தில் வெளிவந்த படம்.</p>

<p>	வெளிப்பார்வைக்கு மேலோட்டமாகப் பார்க்கும்~
போது என்னவோ அடுத்தடுத்து சில காட்சிகள் தொடர்ச்சி~
யாகப் பதிவு செய்து இருப்பதனைப் போலத் தோன்றும்.
சுற்றுலாப் பயணிகள் சில சுற்றுலாவிற்குச் செல்கின்றனர்.
பாரீஸ் நகரத்தைச் சுற்றியிருக்கும் பழைய வரலாற்றுக்
கட்டிடங்களில் இந்தப் பயணிகள் வந்து கூடுகிறார்கள்.</p>

<p>	காமிரா சுழல்கிறது. ஒவ்வொரு வரலாற்றுக் கட்டிடங்~
களில் இந்஼த சுற்றுலா பயணிகள் வந்துநிற்கிறார்கள். அதிக~
மாக உரையாடல்கள் கிடையாது. ஒவ்வொரு காட்சியாகக்
காட்டப்படுகின்றன. அந்த வரலாற்றுக் கட்டிடங்களின்
புறச்சுவர்கள்; பிரம்மாண்டமான அந்தப் பழையக்
காலத்துக் கோட்டைச் சுவர்கள்; அங்கங்கே நிமிர்ந்து
உந்தித் தள்ளி நிற்கும் கட்டிடங்கள்; இந்தக் கட்டிடங்களை
வரக் கூடியவர்களுக்குக் காட்ட அங்குமிங்கும் அலைந்து
திரியும் `கைடுகள்'. அந்தக் காலத்தில் நிகழ்ந்து போன
யுத்தங்களைத் தத்ரூபமாகக் காட்டும் சுவர்ச் சித்திரங்கள்;
போர் வீரர்கள்; சில இடங்களில் போர்வீரர்கள் அணி
வகுத்து நிற்கும் காட்டிகள்; போர் உடையில் யுத்தச்
சின்னங்களோடு நெப்போலியனது தோற்றங்கள்.</p>

<p>	அடுத்தடுத்துத் தாவிச் செல்கின்ற காட்சிகள், பார்க்க஼க்
கூடியவர்க஼ள் மனத்தில் ஓர் உணர்வினைப் பதிவு செய்~
கின்றன. அந்த உணர்வினை அழுத்தமாகப் பதிய வைப்பதற்காகவே
-43-
காட்சிகள் காட்டப்படுகின்றன என்பதனை
மிகத் தெளிவாகப் புரிந்து கொள்ள முடியும்.</p>

<p>	`ஓ, அந்தக் காலத்துத் தனிமனிதனின் ஏகாதிபத்திய
வாழ்வு.</p>

<p>	இந்தத் தனிமனிதனின் விருப்பு வெறுப்புக்களுக்கு
ஒரு சமூகமே தன்஼னை அழித்துக் கொண்டது!</p>

<p>	ஒரு மனிதன் மட்டுமே தாழ்ந்தான்! ஒரு சமூகமே
ஊமையாகிக் கிடக்க - அந்த ஒரு மனிதனின் ஆட்சியில்
அவன் மட்டுமே... அவன் மட்டுமே..."</p>

<p>	என்ற உணர்வினைப் படக்காட்சிகள் மெதுமெதுவாகக்
கொண்டு வந்து குவிக்கின்றன.</p>

<p>	இந்தப் படம் வெளிவந்த மாத்திரத்தில் இந்தப்
படத்தைப் பற்றிய கருத்து இதுதான்:</p>

<p>	"மிகமிகத் தீவிரமிக்க இடதுசாரிப் படம்."</p>

<p>	இதுமாதிரி அறுபதிலும் எழுபதிலும் ஐரோப்பியாவில்
வெளிவந்த இடதுசாரி முற்போக்குப் படங்களெல்லாம்
தனி நபர் முயற்சிகளாக இருந்தன. குறைபாடும் அநீதியும்
நிறைந்த இந்தச் சமூக அமைப்பின் மீது அவர்கள்
கொண்ட கோபதாபங்கள், வெறுப்புக்கள் அனைத்தையும்
இந்தப் படங்களின்஼மூலம் அவர்கள் வெளிப்படுத்தினார்கள்.
இந்தக் கலைஞர்களைப் பொறுத்தவரைக்கும், சினிமா
என்பது ஒரு கருவி; அவர்களது உள் உணர்வுகளை
வெளிக்காட்ட அவர்஖ள் எடுத்துக் கொண்ட கருவி.
`எந்தக் கலையாக இருந்தாலும், அந்தக் கலை படைத்~
தவன் உணர்ச்சிகளை வெளிக்காட்டுகிறது. எனவேதான்
ஒரு கலைப்படைப்பு என்பது பேசுகின்றது; படைத்தவன்
குரலாக நின்றுபேசுகின்றது' என்பதற்கு இந்தப் படங்கள்
சாட்சியங்களாக நிற்கின்றன.
-44-
	தனிப்பட்ட இந்தச் சினிமாக் கலைஞர்களின் இந்த 
`இடதுசாரி முயற்சி'களுக்கு எது தூண்டுதலாக இருந்தது?
இந்த `அரசியல் பிரச்சார உத்வேகத்திற்கு' எது காரண~
மாக அமைந்தது?</p>

<p>	தங்களைச் சுற்றியிருந்த துயரம் மிக்க மனிதர்கள் மீது
அவர்கள் வாழ்ந்த பரிதாபம் மிக்க வாழ்க்கை மீது
இவர்கள் கொண்ட பரிவே இந்தத் திரைப்படங்களை
எடுக்க இவர்களுக்குத் தூண்டுகோலாக இருந்தது.</p>

<p>	இந்தியாவில்.........</p>

<p>	"இந்தியாவில் அரசியல் பிரச்சாரச்சினிமாவிற்கு வங்க
டைரக்டர் மிருணாள் சென்னை விட்டால் வேறு வழி~
யில்லை. அவருடைய `இண்டர்வியூ' என்பதே
இந்தியாவில் அரசியல் சினிமாவிற்குப் பாதை வகுக்~
கிறது என்கிறார் ஒரு இந்தியச் சினிமா விமர்சகர்.</p>

<p>	இந்தியச் சினிமா உலகில் வருந்தத் தகுந்த ஒன்று.
இன்றும் கூட சமகாலத்து அரசியலையும் அரசியல்
பிரச்னைகளையும் சினிமாவில் போதுமான அளவுக்குப்
பயன்படுத்தாத சூழ்நிலை. ஐரோப்பாவில் நிகழ்ந்ததைப்
போல `Political Cinema' என்பது இங்கு முழுமை பெற்ற
ஒரு கலைப் படைப்பாக உருவாகவில்லை.</p>

<p>	சில஼ர் முயன்றிருக்கிறார்கள்.
-45-
	மலையாளத்தில் ஐ.வி. சசியின் `ஈநாடு' `இனியெங்~
கிலும்' என்ற இரண்டு படங்கள். இந்தப் படங்கள் கூட
ஒரு `அரசியல் சினிமா' என்பதற்கு முழுமையான படங்கள்
என்று சொல்வத஼ற்கில்லை. சுதந்திரத்திற்குப் பிந்திய
கேரளத்து மண்ணின் நிலைமைகளைக் கதம்பமாகக்
காட்டுகின்ற இந்தப் படங்கள், ஒரு தெளிவான அரசியல்
பிரச்னையையோ, அரசியல் கொள்கையையோ அடிப்படை~
யாகக் கொண்டு உருவாக்கப்பட்டிருக்கவில்லை. சம
காலத்துக் கேரள அரசியல் நிலைமை஖ள் இந்தப் படங்களில்
அங்கங்கே சுட்டிக் காட்டப்பட்டிருக்கின்றனவே தவிர,
அரசியல் சினிமாவிற்கான அடிப்படைத் தன்மைகளை
வெளிப்படுத்தவில்லை.</p>

<p>	அறுபதில் மலையாளத்தில் தோப்பில் பாஸியின்
படங்கள். ஏறத்தாழ அதே காலக் கட்டத்தில் தமிழில்
திராவிடக் கட்சிகளின் கொள்கைகளை விளக்குகின்ற
படங்கள் என்ற சொல்லப்பட்ட சில படங்஗ள்.</p>

<p>	இவை `அரசியல் படங்கள்' என்ற எந்த஼க் காரணத்~
தினைக் கொண்டும் ஏற்றுக் கொள்ளப்பட்டவை அல்ல.
பாஸியின் படங்களில் இடையிடையே கம்஼யூனிஸ்ட் கட்சித்
தலைவர்களின் படங்களையும் கட்சிக் கொடியையும் காட்டு~
வதின் மூலமாக அவை அரசியல் படங்களாக முடியாது.
தி.மு.க.வின் கட்சிப் பிரச்சாரத்தினை வெளிக் காட்டும்
தமிழ்ப் படங்களுக்கும் இது பொருந்தும்.</p>

<p>	`அரசியல் பிரச்சாரப் படங்கள்' என்ற போர்வையில்
வெளிவந்த இந்தப் படங்களின் குறைபாடே. வெறும் கட்சி
கோஶங்களும் கட்சிக் க஼ொடிகளும் கட்சித் தலைவர்களின்
படங்களும் அரசியல் சினிமாவாகப் போக முடியும் என்று 
கருதியது தான்.</p>

<p>	ஒரு அரசியல் சினிமாப் படம் எப்படியிருக்க முடியும்-
எப்படியிருக்க வேண்டும் என்று சொல்லும் போது ஒரு
இந்திய சினிமா விமர்சகரே சொல்கிறார்:
-46-
	"அரசியல் சினிமாவில் வடிவ஼மல்ல முக்கியம். அந்தப்
படம் பார்க்கக் கூடியவர்களிடத்தில் சில விமர்சனங்களை
எழுப்ப முயலுதல் வேண்டும்."</p>

<p>	இந்த வகையில் பார்க்கும் போது இந்தியாவில் அரசியல்
சினிமா என்பது மிருணாள் சென்னின் `இண்டர்வியூ'
என்ற படத்துடனேயே தொடங்குகிறது. இந்த வங்காளப்
படம் 1970 ல் வெளி வந்தது.</p>

<p>	ஒரு சின்னப் படம். `டாக்குமெண்டரி' படம்
பார்ப்பதைப் போன்ற உணர்வைத் தோற்றுவிக்கும் படம்.
கல்கத்தா நகரில் காலையிலிருந்து சாயங்காலம் வரை
அலைந்து திரிந்த 23 வ஼யது கொண்ட இளைஞனின் ஒரு
நாள் கதை தான் இந்தப் படம்.</p>

<p>	அந்஼த இளைஞனுக்கு `அந்த நாள்' மிக மிக முக்கிய~
மானது. அன்றைக்க஼ுத் தான் வேலைக்கு அவன்
`இன்டர்வியூ' போக  வேண்டும். அதுவும் இந்தோ-
பிரிட்டீஶ் கம்பெனி ஒன்று அழைத்திருக்கிறது.
`இண்டர்வியூ' போவதற்கு நல்ல ஆடைகளைத் தேடி
அலைகிறான். அவனுடைய போதாத காலம். வாடகைக்குத்
துணிகள் கொடுக்கும் சலவை நிலையங்கள் கல்கத்தாவில்
அன்றைக்கு `ஸ்டிரைக்'. நகரெங்கிலும் சுற்றி அலை~
கிறான். அவனோடு படத்தின் காமிராவும் சுற்஼றி அலை~
கிறது. சீரழிந்து போன கல்கத்தா நகரத்தின் காட்சிகளைப்
படம் பதிவு செய்து காட்டுகிறது.</p>

<p>	கடைசியில் அவனது `இண்டர்வியூ'.</p>

<p>	அர்த்தமற்ற கேள்விகள். `இந்த வேலை தனக்குத்
கிடைக்குமா கிடைக்காதோ' என்ற நிச்சயமற்ற நிலையில்
அந்த இளைஞனின் பதில்கள்.
-47-
	`இண்டர்வியூ' முடிகிறது. அந்த இளைஞன் வெளியே
வருகிறான். நிச்சயமற்ற எதிர்காலம் அவன் முன்னே
படர்ந்து போய் இருக்கிறது.</p>

<p>	`நியூஸ் ரீல்' பார்ப்பதைப் போன்று படம் முழுவதும்
பார்த்துவிட்டு வெளியே வருகின்றவர்கள் மனத்தில் நெருடு~
கின்ற நெருடல்:</p>

<p>	`இந்த அவலங்களைப் போக்க இங்கே ஒரு புரட்சி
எப்போது தோன்றப் போகிறது?'</p>

<p>	மிருணாள் சென்னின் இன்னோர் படம் கல்கத்தா
71 . இந்த வங்காளப் படம் வெளிவந்தது
1972 ல்.</p>

<p>	படம் தொடங்கிய உடன் ஒரு குரல் திரையில் கேட்~
கின்றது. ஒரு இளைஞன் வந்து நின்று தன்னை அறிமுகப்~
படுத்திக் கொள்கிறான்.</p>

<p>	"எனக்கு 20 வயதாகிறது. கடந்த 1000 ஆண்டுகளாக
நான் இங்கே வாழ்ந்து கொண்டிருக்கிறேன். இந்த ஆயிரம்
ஆண்டு஖ளில் எத்தனையோ துயரம் மிக்க காலங்களைத்
தாண்டி வந்திருக்கிறேன். வறுமையும் மரணமும் இந்த஼க் 
காலக் கட்டத்தில் என்னைக் கடந்து கடந்து போய் இருக்~
கின்றன. விரக்தியும் வேதனையுமே இந்த 1000 ஆண்டு~
களில் என் உயிர் மூச்சாக இருந்திருக்கின்றன....
இன்றைக்கும் என்னுடைய பயணத்தில் எந்த மாறுதலு~
மில்லை. வறுமைப்பட்ட துயரப்பட்ட வ஼ஞ்சிக்கப்பட்ட 1000
ஆண்டு கால வரலாறே என் வரலாறு, ஏன் உங்கள்
வரலாறும் கூட!"
-48-
	மிகமிக வெளிப்படையான - எந்த ஒளிவு மறைவு~
மில்லாத அப்பட்டமான பிரச்சாரப் படம், தலைமுறை
தலைமுறையாக வறுமையோடு கைகோர்த்து வந்திருக்கும்
இந்த நாட்டின் கதையை நேராக நின்று சொல்லும் நிலை.
கற்பனையாகக் கதை சொல்லும் இந்திய சினிமாவின்
வழக்கமான `பந்தா'க்களிலிருந்஼து முற்றிலும் வேறுபட்ட
நிலையில் உருவான படமிது. மிருணாள் சென் என்ற
சினிமாக் கலைஞர் சினிமா என்ற `மீடி'௟த்தில் மேற்~
கொண்ட சோதனை இது.</p>

<p>	மிருணாள் சென்னின் இந்த இரண்டு படங்களும்
அரசியல் விழிப்புணர்ச்சியிலிருந்து 
பிறந்த படங்க஼ள் சினிமாவைப் பற்றிய அவருடைய
ஆரம்பகாலக் கண்ணோட்டத்'தினைப் பிரதிபலிக்~
கின்றன. "சினிமாயென்பது தான் என்ன! ஒரு அரசியல்
துண்டு பிரசுரம் தானே!" என்ற அவருடைய கருத்தினை
இந்தப் படங்களில் செயல்படுத்திக் காட்டி இருக்~
கின்றார்.</p>

<p>	இன்றைக்கு இந்த இரண்டு படங்களும் பிரச்னைக்கு
உரியவை. இந்தப் படங்஖ளைப் பற்றிய அவருடைய
கருத்தினை ஒரு பேட்டியில் சொல்கின்றார்.</p>

<p>	"கடுமையான சோதனைகளின் மூலம் கற்பனையை
யதார்த்தத்தோடு கலப்பதற்கும், ஒரு பிரச்சாரகன் என்ற
அடிப்படையில் முடிவுகளைத் தருவதற்கும், கதை
சொல்லுதல் என்கின்ற நீரோட்டத்திலிருந்து வில஖ு~
வதற்கும், மேலும் சொல்ல வேண்டுமானால் வாழ்க்கையைப்
பற்றிி஼ய யதார்த்த நுட்பங்கள் என்று இதுவரை சொல்லப்஼~
பட்டவற்றை ஒதுக்குவதற்கும் இறுதியாக நான் எனக்~
குள்ளே ஒரு பிரசுரம் விநியோகிப்பது போன்ற ரசனையை
வளர்த்துக் கொண்டேன்...."
-49-
	இந்த வார்த்தைகளே ஒரு விவாதத்தினைத் தொடங்கி
வைத்தது.</p>

<p>	சினிமாவில் அரசியலைக் காட்டுகிறேன் என்பதைக்
காரணங்காட்டி, மிருணாள் சென் ஒரு பிரச்சாரகராக
தகவல் தருபவராகத்தான் இருக்கிறாரே தவிர, சினிமாவை
ஒரு கலை வடிவமாக வெளிப்படுத்தவில்லை என்ற குற்றச்~
சாட்டு அவர் மேல் சுமத்தப்பட்டது.</p>

<p>	சினிமா என்பது முதலில் கலையழகாக வெளிப்~
படுத்துவது; இரண்டாம் பட்சம்தான் தகவல் தருவது.</p>

<p>	முப்பதில் ரஶ்யக்கலைஞர்களாலும் அறுபதில்
ஐரோப்பியக் கலைஞர்களாலும் உருவாக்கப்பட்ட
`அரசியல் பிரச்சாரப் படங்கள்' இதனைத் தெளிவாகக்
காட்டுகின்றன. அரசியல் நிலைகளையும் உண்மைகளை~
யும் சினிமா என்ற வ஡்டத்திற்குள் இழுத்துக் கொண்டு
வந்த கோடார்ட் போன்ற கலைஞர்கள்
இதனைத் தெளிவாக உணர்ந்த஼வர்கள். "சினிமா மூலம்
எதைச் சொல்ல ஆசைப்பட்டாலும், ஒன்றை நிச்சயமாக
மனத்தில் கொள்ளவேண்டும். சினிமா என்பது நவீன
கால கலைவடிவம். இந்த நவீன கலை வடிவத்திற்குள்
எதைத் திணித்தாலும், அது கலாபூர்வமாகயிருத்தல்
வேண்டும்" என்று தெளிவாகவே கருதினார்கள். இந்தத்
தெளிவான எண்ணத்திலிருந்து பிறந்த ஐரோப்பிய
பிரச்சாரப் படங்கள் அரசியல் உண்மைகளைக் கலா
பூர்வமாகவே நிகழ்த்திக் காண்பித்திருக்கின்றன;
அதுமட்டுமின்றி பார்க்கக் கூடியவர்களுக்கு ஒரு அழகான
அனுபவத்தை அளித்து அதே    நேரத்தில் ஒரு குறிப்பிட்ட
கண்ணோட்டத்தினை அவர்கள் உணர்வில் தூண்டும்
விதத்திலேயே இந்தப் படங்கள் அமைந்திருக்கின்றன.</p>

<p>	ஆனால் மிருணாள்சென் படங்களில் தகவல் தரப்படு~
கின்றது, ஒரு `டாக்குமெண்டரி' படங்களைப் போல.
பார்க்கக் கூடியவர்களுக்கு `அழகியல் அனுபவ உணர்வு~
களை' முற்றிலுமாக ஒதுக்குகின்ற இந்தப் படங்கள்
-50-
வெறுங்கோடுகளாகவே நிற்கின்றன. வண்ணங்கள்
இல்லை; தீட்டப்படவுமில்லை. அரசியல் பிரச்சாரத்தினைச்
சினிமா என்ற கலைவடிவத்திற்குள் கொண்டு வருவதை
கோடார்ட் சொல்லும்போது, `முதலில் ஒரு
ஓவியன் வெறுங்கோடுகளை வரைந்து முடித்துவிட்டுப்
பின்னே அதனை ஒரு முழுமையான ஓவியமாகப்
படைப்பதைப் போல' என்஼கின்றாள்.</p>

<p>	மிருணாள் சென் படங்களில் பிரச்சாரம் மட்டுமே
வெளிப்படையாக முன்னிறுத்திக் காட்டப்படும் போது,
சினிமா என்ற கலை தனக்குரிய பொருளை இழந்து
போகிறது. மிருணாள் சென்னே தன்னுடைய படங்களில்
உள்ள இந்தக் குறைபாட்டினை உணர்கிறார்.</p>

<p>	"காலம் தருகின்ற படிப்பினையை நான் ஏற்றுக்
கொள்கிறேன். என்னுடைய சில பழைய முடிவுகளைத்
திருத்திக் கொள்ள வேண்டும் என்ற உணர்வையும்
அடைகிறேன். `திருத்திக் கொள்தல்' என்பது என்னளவில்
இப்போது தொடர்ச்சியான ஒன்று.</p>

<p>	இந்த வார்த்தைகளை உதட்டளவில் மட்டும் சொல்ல~
வில்லை. செயல் அளவிலும் செய்து காட்டி இருக்கிறார்.
சினிமா உலகில் அடியெடுத்து வைத்த காலத்தில் அவர் 
உருவாக்கியவை - `Interview(70), `Calcutta- (72) என்ற
இரண்டு படங்களும். அரசியலில் இடதுசாரியான அவருக்கு
-51-
ஆரம்பக் காலத்தில் சினிமா என்பது பிரச்சாரத்திற்கு
வலுவான கருவி என்ற எண்ணமே இருந்தது. காலம்
செல்லச் செல்ல இந்தக் கருத்தினைக் கூட மறு~
பரிசீலனைக்குக் கொண்டு வந்தார்.</p>

<p>	`வெறும் அப்பட்டமான பிரச்சாரமே சினிமா' என்ற
நிலையிலிருந்து `கலாபூர்வமான வெளியீடே சினிமா'
என்ற இன்னோர் தளத்திற்குக் காலம் அவரை அழைத்து
வந்தது. அண்மையில் வெளிவருகின்ற மிருணாள் சென்
படங்களைப் பார்க்கின்றவர்கள் இதனைப் புரிந்து கொள்ள
முடியும். 1983 இல் வெளிவந்த அவரது `கரிஜ்' என்ற படம்
இதற்கு நல்ல எடுத்துக் காட்டு. எந்த ஆரவாரமும்
இல்லாமல் சொல்ல வேண்டியதை கலையழகாக உணர
வைக்கின்ற இந்தப் படம், மிருணாள் சென் என்ற
கலைஞரின் இப்போதைய நிலையை எடுத்துக் காட்டு~
கின்றது.</p>

<p>	ஒன்றை மறுக்க முடியாது.</p>

<p>	பிரச்சாரமோ என்னமோ, இந்தியச் சினிமாவில்
அரசியலை உள்ளடக்கமாகக் கொண்டு வந்து காண்பித்த~
தில் மிருணாள் சென்னுக்கு முதலிடம் உண்டு. இதைவிட
ஒருபடி மேலே போய் சொல்வதானால், இந்திய அரசியல்
சினிமாவிற்குப் பாதை வகுத்தவர் அவரே.</p>

<p>	அந்தப் பாதை இன்று நீண்டு பரந்து கிடக்கிறது.</p>

<p>	அவர் தொடங்கி வைத்த பாதையில் இனறைக்குப்
பயணம் மேற்கொள்வோர் பலருண்டு. பலர் தோல்வி
அடைந்திருக்கின்றனர்; சிலர் வெற்றி பெற்றிருக்கின்றனர்.
வெறும் பிரச்சாரமாக மட்டுமே போகாமல், சொல்ல
வேண்டியதை அழகியல் அனுபவங்களாகக் காட்டி-
பார்க்கக் கூடிவர்களை ஒரு குறிப்பிட்ட திசைக்கு
இழுத்துச் சென்ற சில படங்களும் இந்திய மொழிகளில்
-52-
சின்னச் சின்ன சிதற஼ல்களாகச் சிதறியிருக்கின்றன
என்பதில் இந்஼தச் சிதறல்கள் கொஞ்சம் கூடுதலாகவே
தூறி இருக்கின்றன.</p>

<p>	ஒரு படம். 1983 ல் வெளி வந்த படம். `சோக்'
என்ற இந்த வங்காளப் படம். 1983 ல் டெல்லி~
யில் நடைபெற்஼்ற ஒன்பதாவது சர்வதேசத் திரைப்பட
விழாவில் `தங்கமயில்' போட்டிக்காகக் கலந்து கொண்஼ட 
21 சர்வதேசத் திரைப்படப் படங்களில் ஒன்று.
அந்தத் திரைப்பட விழாவில் சிறந்த படத்திற்கான
விருதும் இந்தப் படத்திற்கே சென்றது. உத்பாலண்ட்
சக்கரவர்த்தி என்ற இளம் இயக்குநரால் உருவாக்கப்~
பட்டது.</p>

<p>	`சோக்' என்றால் கண்கள் என்று பொருள்.
திரைப்படத்தின் க஼தை இன்றைய சமூக வெளிச்சத்தி~
லிருந்து பிறக்கிறது. இன்றைய இந்தியச் சமூகப் போக்கு~
கள் படத்தில் உள்ளார்த்தமாகத் தெரிகின்றன. சமூகத்தை
ஆட்டிப்படைக்கின்ற பணக்கார வர்க்கம், அவர்களுக்குத்
துணை போகின்஼ற அதிகார வர்க்கம், இவர்களுக்கிடையே
போராடுகின்ற தொழிலாளர் வர்க்கம்- இந்த மூன்றுக்கும்
இடையே திரைப்படத்தின் கதை சுழல்கிறது.</p>

<p>	ஜடுநாத் என்ற தொழிற்சங்கத் தலைவன். இவரது
தலைமையில் வேலை நிறுத்தும் நடக்கிறது. இரண்஼டு
மாதத்திற்கு மேலாகவே `மில்' மூடிக் கிடக்கிறது.
மில் முதலாளி ஜதியா அடியாட்களைக் கொண்டு வ஼ந்்து
வேலை நிறுத்தத்தை ஒடுக்க நினைக்கிறான். தொழிலாளர்~
களின் கோபவெறி மில் முதலாளி ஜதியாவின் தம்பியின்
கொலையில் போய் முடிகின்றது. ஜடுநாத் மேல் இந்தக்
கொலைக் குற்றம் சுமத்தப்படுகிறுது. தூக்குத் தண்டனை
விதிக்கப் படுகிறது.</p>

<p>	இறந்து போவதற்கு முன்னால் ஜடுநாத் தனது இறுதி
விருப்பத்தினை வெளிப்படுத்துகிறான். அவன் இறந்து
போன பின் அவனது கண்கள் கண் இழந்த ஒரு
-53-
தொழிலாளிக்குத் தானமாகக் கொடுக்கப்படுதல் வேண்டும்
என்பதே அவனது கடைசி விருப்பம். இதன் மூலம்,
`இறந்து போன பிறகும் இந்தத் தொழிலாளர்
போராட்டத்தினை நான் பார்த்துக் கொண்டிருப்பேன்'
என்஖ின்றான். இதற்கிடையில் மில் முதலாளி கண்ணிழந்த
தனது இளைய மகனுக்கு, அது ஜடுநாத் கண்கள் என்று
தெரியாமலேயே அந்தக் கண்களைப் பெறுவதற்கு முயல்~
கிறான். ஆனால் டாக்டர் முகர்ஜி அதற்குத் தடையாக
நிற்கிறார். இந்தக் குழப்பத்தில் மில் முதலாளி அந்தக்
கண்களைக் கடத்திக் கொண்டு வந்து  அழித்து விடுகிறான்.</p>

<p>	தொழிலாளர்கள் மிகப் பெரிய போராட்டத்திற்குத்
தயாராகின்றார்கள்.</p>

<p>	குருடாகிப் போன கண்ணற்ற ஒரு தொழிலாளியின்
கைகளைப் பிடித்துக் கொண்டு ஜடுநாத்தின் விதவை
மனைவி ஆர்ப்பாட்டத்தின் முன்னணியில் நடந்து
வருகிறாள். தொழிலாளர்கள் பின் தொடர்ந்து வருகிறார்~
கள். தூரத்தே துப்பாக்கி முனைகள் அவர்களை எதிர்
கொண்டு காத்திருக்கின்றன.</p>

<p>	படம் முடிந்து விடுகிறது.</p>

<p>	எந்தப் பிரச்சாரக் கோலமும் கிடையாது. படக்காட்சி~
கள் நிகழ்ச்சிகளை மட்டுமே அப்படியே கோர்வையாகக்
காட்டுகின்றன. `இதுதான் இங்கே - இந்த நாட்டில் நடந்து
கொண்டிருக்கிறது; இந்தத் துயரமும் இந்த அநியாயமும்~
தான் என்ற உணர்வை பார்க்கக் கூடியவர்களிடத்தில்
பதிய வைக்கும் விதத்தில் பட஼ம் நகர்ந்து போகின்றது.</p>

<p>	"சினிமாக் காட்சிகள் மூலம் இன்றைய வாழ்வின்
உண்மைகளை பார்வையாளன் பார்வைக்குக் கொண்டு
வாருங்கள்; இந்த உண்மைகளை அவன் முன்னே வீசி~
யெறியுங்கள்."
-54-
	இந்த வார்த்தைகளை இந்தப் படம் முழுமை௟ாகச்
செய்து காட்டியிருக்கிறது; சினிமா என்ற `மீடிய'த்தில்
இன்றைய அரசியல் நிலைமைகளைக் கலையழகாகக்
காட்ட முடியும் என்பதைச் செயலாற்றி இருக்கிறது.</p>

<p>	இன்றைக்கு இந்த நாட்டில் பணம் படைத்தவர்கள்
எப்படித் தங்கள் செல்வாக்கினைப் பயன்படுத்தி அதிகார
வர்க்கத்தையும் அரசியல்வாதிகளையும் ஆட்டிப் படைக்க
முடியுமென்பதை வெறுங் கோஶங்கள் மூலம் இந்தப்படம்
சொல்லவில்லை; காட்சிகள் மூலம் உணர வைக்கிறது.</p>

<p>	தள்ளாடிப் போய் நிற்கும் இன்றைய சமூக அமைப்பில்
கசப்பாக போய் நிற்கும் சில உண்மைகளை இயல்பாகச்
சொன்னதின் மூலம்-</p>

<p>	முறைகேடான இன்றைய சமூக அமைப்பிற்கு
எதிரான தனது `எதிர்ப்புக் குரலைப் ' படம் எதிரொலிக்~
கிறது. "வாழ்வின் நடைமுறை யதார்த்த உண்மைகளை
ஒரு சினிமா காட்டுகிறதென்றால், யதார்த்தம் அங்கே
பதிவு செய்யப்பட்டிருக்கிறது என்பதாக அல்ல; அது ஒரு
எதிர்ப்புக் குரல்" என்ற புகழ் பெற்ற ஒரு ஜெர்மன் 
டைரக்டர் கருத்தோடு ஒட்டிப் பார்க்கும்போது -</p>

<p>	இந்த `எதிர்ப்புக் குரலை'த்தான் இந்தப் படம் தனது
`தொனியாக' வெளிப்படுத்துகிறது.
-55-</p>

<p>		4</p>

<p>	வாழ்வின் தேடலாக...</p>

<p>	"இது என் படைப்பு. இங்கே ஒவ்வொரு நாளும்
ஒவ்வொரு முதலிரவுகளே. என்னுடைய இந்தப் படைப்பு
பார்க்கின்ற உங்஖ளை உளரோட்டம் கொள்ளச் செய்கிறது.
உங்஖ளது கற்பனா சக்தியை முறுக்கேற்றுகிறது; புதிய
கருத்துக்களை உங்கள் சிந்தனைகளில் படர விடுகிறது."</p>

<p>	ஒரு பழைய அமெரிக்க டைரக்டரின் வார்த்தைகள்
இவை. ஊமைப்படக் காலத்தில் வாழ்ந்த GRIFFITH என்ற
இந்த டைரக்டர் தன்னுடைய ஒவ்வொரு படத்தைத் திரை~
யிடும் போதும் இந்த வார்த்தைகளைச் சொல்்வதுண்டு.</p>

<p>	இன்றைக்கு உலக சினிமாவின் வரலாற்றினைச்
சொல்கின்ற எந்தப் புத்தகத்தின் ஆரம்பப் பக்கங்களும்
இந்த டைரக்டரின் படங்களிலிருந்தே தொடக்கம் கொள்஼கிறது.
-56-
உலக சினிமா வரலாற்றில்
`சினிமாக் கலை'யின் தந்தை என்று புகழப்படுகின்றவர்.</p>

<p>	மனித வாழ்க்கைக்கும் சினிமாவுக்கும் ஒரு பாலத்தை
ஏற்படுத்தி ஒரு புதிய பாதைக்கு வித்தூன்றியவர்.
`சினிமா என்பது வாழ்க்கையைக் காட்டும் கண்ணாடியாக
இருக்க வேண்டும்.' என்ற குறிக்கோளுடன்஼தான் ஹாலிவுட்
பக்கமே இவர் காலடி எடுத்து வைத்தார்.</p>

<p>	சினிமா என்பது ஊமைப்படமாகத் தொடங்கி இருந்த
நேரம். வாய் திறந்து பேசாத சினிமா பொழுது~
போக்கிற்குக் கதை சொல்லும் ஒன்றாகயிருந்த காலம்.
அமெரிக்காவின் ஹாலிவுட் ஸ்டுடியோக்களில் சினிமா
என்பது அப்போதுதான்  முளைவிட்டுப்் படரக் காத்திருந்த
பொழுது.</p>

<p>	சினிமா என்ற கலைநாகரிகம் தனது `தற்காலச்
சகாப்தத்தை'த் தொடங்கியிருந்த அந்த ஆரம்பக்காலத்~
தில்தான் GRIFFITH என்ற இந்தக் கலைஞனின்
சினிமாவுலக நுழைவும் நிகழ்ந்தது.</p>

<p>	அது 1908 ம் வருஶம், படித்து முடித்துவிட்டு ஒரு
இளைஞனாக ஆயிரம் கனவுச் சுமைகளோடு ஹாலிவுட்
என்ற சினிமா சொர்க்கத்தை இவர் அடைந்தபோது
ஏமாற்றமே காத்திருந்தது. இவருடைய கதைகள் நிராகரிக்~
கப்பட்டன. பிழைப்ப஥ற்கு வேறு வழியில்லை. ஒரு சின்ன
நடிகராகத் தனது வாழ்க்கையைத் தொடங்கினார்.</p>

<p>	இந்தக் கால கட்டத்தில் ஹாலிவுட்டிலிருந்து வெளி
வந்த படங்க஼ளை ஊன்றிக் கவனித்தார். எல்லாமே பொழுது
போக்கிற்காக - `கதை' என்ற பெயரில் எதுவோ ஒன்றைக்
கற்பனையாகப் பின்னி அமெரிக்க மத்தியதர வர்க்கத்தின்
பொழுதைக்  கரைக்க போடப்பட்ட தீனிகளாக இருந்தன.</p>

<p>	வெறுமனே பொழுதுபோக்குக் கதைகளைத் தருகின்ற
இந்த திரைப்படங்களிலிருந்து மாறுபட்ட முற்றிலும் புதிய
-57-
பாதையை இந்த ஹாலிவுட் சினிமாவுலகிற்குக் காட்ட
வேண்஼டும் என்ற அவரது எண்ணம் நாளுக்கு நாள்
வளர்ந்து வந்தது.</p>

<p>	காலம், நிரந்தரமாக அவரை ஏமாற்ற வில்லை.
அவருடைய காலமொன்று கனிந்து வந்தது. புதிய வேகங்~
கொண்டு, ஆயிரம் கனவுகளோடு இருட்டில் ஏங்கி நின்று
கொண்டிருந்திருந்த அந்தக் கலைஞனுக்கு ஒரு நாள்
வெளிச்சம் தெரிந்தது.</p>

<p>	அவர் வெளிச்சத்திற்கு வந்தார்.</p>

<p>	1909 ல் அவருடைய `The Adventures of Dolly' என்஼ற
முதல் படம் ஹாலிவுட்டிலிருந்து வெளிவந்தது.</p>

<p>	கனவு நிறைவேறியது. மீண்டும் மீண்டும் தொடர்ச்சி~
யாகத் தனது கனவுகளை நிறைவேற்றிக் கொண்டார். ஒரு
பத்து வருஶங்கள், அவருடைய திரைப்படங்கள் வெள்ளித்
திரையில் மின்னலிட்டுச் சென்றன.</p>

<p>	ஹாலிவுட் சினிமா வுலகம் அதிர்ந்தது. சினிமா என்ற
கலை தன்னைப் புதுப்பித்துக் கொண்ட஼து.
	
	அப்போது தான் எழுந்து நடமாடத் தொடங்கியிருந்த
சினிமா என்ற குழந்தை திடீரென்று முற்றிலும் புதியதோர்
பாதை தன் முன்னே திறந்து கொள்வதைப் பார்த்து
மலைத்தது.</p>

<p>	`கதை சொல்வதற்குத் தான் சினிமா' என்ற அளவி~
லிருந்து தான்஼ ஆரம்பக் காலச் சினிமா தொடங்கியது.
`சினிமா ஒரு கதையுலகம்' என்ற நினைப்பே ஆரம்பத்தில்
இருந்தது. ஆரம்பத்தில் சொல்லப்பட்ட கதைகள்
-58-
சாதாரண கதைகள்; ஏதோ கற்பனையான நிகழ்ச்சி~
களைப் பிசைந்து தருகின்ற கதைக஼ள்.</p>

<p>	இந்த அமெரிக்கக் கலைஞரின் நுழைவிற்குப்
பின்னால்தான்-</p>

<p>	`வெறுங் கதை சொல்வதற்குச் சினிமா' என்ற
நிலையிலிருந்து சினிமா அப்புறப்படுத்தப்பட்டது.</p>

<p>	`கதை சொல்வதற்குத்தான் சினிமா. ஆனால் அந்தக்
கதையென்பது வெறுங் கதையல்ல; பொழுது போக்குக்
கதையல்ல. சமூக மட்டத்தில் நிகழும் உணர்ச்சி பூர்வமான
சில சம்பவங்களின் - கடந்த கால மனித வாழ்வோடு
தொடர்பு கொண்ட சம்பவங்களின் கதை' என்ற புதிய
நிலை உருவாக்கப்பட்டது.</p>

<p>	இந்தப் புதிய நிலைக்குக் கால்கோள் நட்டவை
இவருடைய படங்கள். இந்தப் படங்க஼ளில்  மிகவும்
பிரச்னைக்குரிய ஒரு படம். `The Birth of Nation' 1915ல்
வெளிவந்த படம். `சினிமா உலகின் முதல் காவியம்'
என்று புகழப்பட்ட படம். பத்தொன்பதாம் நூற்றாண்டின்
இறுதிப் பகுதியில் அமெரிக்காவில் நீக்ரோக்களுக்கும்
வெள்ளைக்காரர்களுக்கும் இடையே நிகழ்ந்த இனக்~
கலவரத்தினை மையப் புள்ளியாகக் கொண்டு எடுக்கப்பட்ட~
திரைப்படம்.</p>

<p>	அமெரிக்க வரலாற்றில் கரும் புள்஼ளியாகத் தென்படும்
இந்த `உள்நாட்டுப் போர்' இந்தத் திரைப் படத்தில்
பின்னோக்கிய மறுபார்வையில் காட்டப்படுகிறது. கடந்த
கால வரலாற்று நிகழ்ச்சிகள் GRIFFITH என்ற சினிமாக்
கலைஞனின் அகமன உணர்வுகளில் மூழ்கி எழுந்து
வருகிறது.</p>

<p>	இந்தப்படத்தை உருவாக்க மூன்றாண்டுகள் பிடித்தன.
உள்நாட்டுப் போர் படத்தின் பின்புலம். இந்தப் பின்னணி~
யில் அமெரிக்காவின் தெற்குப் பகுதியில் வாழ்ந்த இரண்டு
-59-
குடும்பங்கள் - ஒரு வெள்ளைக்காரக் குடும்பம், ஒரு கறுப்பு
நிற நீக்ரோ குடும்பம் இந்த உள்நாட்டுப் போரை எப்படி
எதிர் கொண்டது என்பதைப் படம் காட்டுகிறது. படத்தின்
இடை இடையே உள்நாட்஼டுப் போர் நிகழ்ந்த போது
எடுக்கப்பட்ட `டாக்குமெண்டரி' காட்சிகள் காட்டப்படு~
கின்றன.</p>

<p>	`போரும் கலகமும், அது எதற்காக ஏற்பட்டாலும்
இறுதியில் அது அழிவில்தான் போய் நிற்கிறது' என்ற
`தொனி'யோடு படம் முடிந்து போகிறது. போருக்கும்
கலகத்திற்கும் எதிரான இறுக்கமடைந்த உணர்வினைப்
படம் உணர்த்துகிறது. போரினால் ஏற்படும் அழிவுச்
சித்திரம் படம் முழுதும் படர்ந்து கிடக்கிறது. இந்தப்
படத்தைப் பற்றி ஒரு அமெரிக்கப் பத்திரிகை சொல்லும்~
போது, `இது சினிமாவில் நிகழ்ந்த புரட்சி என்கின்றது.'</p>

<p>	 சினிமாவில் புதிய சகாப்தம் ஒன்று முளைவிடத்
தொடங்கியது.</p>

<p>	இந்த அமெரிக்க டைரக்டர் ஹாலிவுட் சினிமா உலகில்
ஆரம்பித்து வைத்த இந்தப் புதிய பாதை பின்னால்
மெதுவாகப் படர ஆரம்பித்தது.</p>

<p>	சினிமாவை, அதன் உன்னதமான பயன்பாட்டிற்குக்
கொண்டு போக `ஒரு தூண்டுதல்' இந்த அமெரிக்க
டைரக்டரின் படங்களில் இருந்தன. புதிதாகப் பிறக்கின்ற
எந்தக் கலையும் உன்னதமான கலைஞன் ஒருவனின்
கைப்படும்போதுதான், அது தன் பரிபூரிணத்தை வெளிப்~
படுத்துகின்றது.</p>

<p>	விஞ்ஞானத்தின் கண்டு பிடிப்பாக சினிமா தோன்றிய
போது, அது சாதாரணமாகத்தான் இருந்தது. அதன்
எதிர்காலம் நிச்சயமில்லாமல் இருந்தது. காலம் செல்லச்
செல்லத்தான் விஞ்ஞானத்தின் இந்தப் புதிய கண்டு~
பிடிப்பு மனித வாழ்வோடு இரண்டறக் கலந்தது.
-60-
	ஆரம்பத்தில் சினிமாவின் காட்சி ரூபங்கள் உப்பு~
சப்பற்ற ஒன்றை வெளிக் கொணர்ந்தது; அது காட்டிய
உலகம் எந்தச் சலனங்களுக்கும் உள்படாது வெறுமனே
பார்க்கக் கூடியவர்களின் பொழுதைப் போக்குவதற்குத்
தீனியை மட்டும் தந்து கொண்டிருந்தது.</p>

<p>	Griffith என்ற கலைஞனின் கைவண்ணம் பட்ட~
போது அந்தச் சினிமாவும் புதிதாகச் சிலிர்த்து நின்றது.
அதன் காட்சி ரூபங்கள் தனக்கே உரித்தான புதிய
உலகமொன்றை வெளிக் கொணர்ந்து காட்டியது.
மனிதவாழ்வையும் அந்த வாழ்வின் சலனங்களையும்
சினிமா என்ற உலகிற்குள் வீசியெறிந்து வெளிக்காட்டிய~
போது,</p>

<p>      `சினிமா' என்பதற்கான அர்த்தம் விரிவடைந்து
நிமிர்ந்து நின்றது.</p>

<p>	சினிமாவைப் புதிய வேகத்துடன் செயல்படுத்தி
உன்னத `வாழ்வின் தேடலாக'ப் பரிணமிக்கச் செய்யும்
முயற்சிகள் தொடர்கதையாகி விரைந்து பரந்து
சென்றன. ஐரோப்பாவிலும் அமெரிக்காவிலும்
கீழ்த்திசை நாடுகளிலும் தோன்றிய சினிமாக் கலைஞர்கள்,
மனித வாழ்க்கையையும் அந்த வாழ்க்்கையின் முரண்பாடு~
களையும் படிமங்களையும் சித்தரிப்பதற்குச் சினிமாவை
ஒரு தேடலாகக் கருதி சரணடைந்தார்கள்.</p>

<p>	`வெறும் பொழுது போக்குக் கதை சொல்வதற்குத்
தான் சினிமா' என்ற நிலையிலிருந்து - `மனித வாழ்வின்
உன்னதமான கதை சொல்வதற்குச் சினிமா' என்ற
தளத்திற்குச் சினிமா உயர்ந்தது.</p>

<p>	உயர்த்தப்பட்ட இந்தச் சினிமா என்ற வடிவத்திற்குள்
மனித வாழ்வின் நீரோட்டங்கள் வழிந்து சென்றன. எனவே
தான் 1929 ல் ஒரு ஐரோப்பிய அறிஞன், "சினிமாவில்
-61-
வாழ்வின் நாடித் துடிப்பினை உணர்ந்து கொள்கிறோம்"
என்று பிரகடனம் செய்கிறான்.</p>

<p>	"மனித வாழ்வைச் சித்தரிப்பதுதான் உண்மையான
சினிமாவின் பணி" என்ற புதிய கோட்பாடு முப்பதில்
முழுமையான வடிவத்தினைப் பெற்றது.</p>

<p>	`சினிமாவின் உள்ளடக்கம்' குறித்து முதல் விவாதம்
இங்கிருந்துதான் தொடங்கியது. சினிமாவை ஒரு
`அழகியல் கோப்பாடாக' ஆராயத் தொடங்கிய ஜெர்மன்~
காரர்களும் பிரஞ்சுக்கார஼ர்களும் இந்த஼ `மனித வாழ்நிலை'
என்பதுதான் சினிமாவிற்குள் கொண்டுவரப்பட்ட முதல்
உள்ளடக்கம் என்கிறார்கள். பின்னால் காலச் சூழ்நிலைக்~
கேற்஼ப இந்த உள்ளடக்கம் மாறுதல் கொண்டது. ஓரிடத்~
தில் அது `அரசியல் பிரச்சார஼'மாகப் போனது; இன்னோர்
இடத்தில் வீழ்த்தப்பட்ட மக்கள் போராடுவதற்கு அரசியல்
ஆயுதமாக வடிக்கப்பட்டது. பிறிதோர் இடத்தில் அடிமனக்
கனவுகளை வெளியே கொண்டு வருகின்ற கலாபூர்வமான
முயற்சியாகவும் மாறியது. மிகமிக சமீபத்திய லத்தீன்
அமெரிக்கப் படங்களில் `வன்முறை'யே சினிமாவின்
உள்ளடக்கமாகியிருக்கிறது.</p>

<p>	இவையெல்லாம் காலச் சூழ்நிலைக்கேற்ப சினிமாவும்
அதன் உள்ளடக்கமும் மாறிமாறிப் புரண்டு வந்திருக்கிறது
என்பதைக் காட்டுகின்றன; அதுமட்டுமல்ல, இந்தப்
புத்தம் புதிய பாதைகளெல்லாம், சினிமாவென்பது
நிகழ்கால மனித வாழ்வின் யதார்த்தத்தினை உண்மையாகக்
-62-
காட்டும் கண்ணாடி' என்ற தொடக்கப் பாதையி~
லிருந்து கிளைவிட்டுப் பிரிந்து வந்த஼வை.</p>

<p>	ஐம்பது ஆண்டுகளுக்கு முன்னாலேயே "எந்஼த
வகையான சினிமாவிற்காக நான் போராடுவேன்?" என்ற
கேள்வியை எழுப்புகின்ற லூயிஸ் பர்னால்
என்ற சிந்த஼னையாளன் "வாழ்வின் ஒருங்கிணைந்த
யதார்த்த பார்வையை எனக்குத் தருகின்ற சினிமாவிற்கு"
என்ற பதிலைத் தருகின்றான்.</p>

<p>	இந்த வகையான வாழ்வின் யதார்த்தத்தினை
அப்படியே சித்தரித்துக் காட்டும் சினிமா முப்பதின்
தொடக்க஼க் காலத்தில் மிகுதியாக வரத் தொடங்கின.</p>

<p>	தொடக்கம் ஒரு நீண்ட `தொடர்கதை'யானது.</p>

<p>	முப்பதிலிருந்து இன்றுவரை-</p>

<p>	சினிமா, மனித வாழ்வின் சகல பரிணாம வளர்ச்சியை
விரிவாக விவரித்துக் காட்டியிருக்கிறது;</p>

<p>	 சமூக வாழ்வை அதன் புதிய கோலத்தில் காட்டி
இருக்கிறது.</p>

<p>	சமூக அநீதிகளை வெளிக்஼கொணர்ந்து வாழ்வின்
மதிப்பீடுகளுக்கு நியாயம் கேட்டிருக்கிறது;</p>

<p>	மனித வாழ்வின் இறுக்கத்தில் சிக்குண்டு சிதைந்து
அழிந்த தனிமனிதனுக்காக வாதாடியிருக்கிறது;</p>

<p>	மாறி வரும் உலகில் செல்லாக் காசாகிப்போன பழைய
மரபுகளையும் மதிப்பீடுகளையும் கேள்விக்குறியாக்கி
இருக்கிறது;
-63-
	தலைமுறை தலைமுறையாகக் கோரத் தாண்டவம்
ஆடிய சமூக அநீதிகளுக்கெதிராகத் தாகமுற்றுக் கிளர்ந்~
தெழுந்த மனிதப் போராட்டங்களை நிழல் ரூபங்களாகப் 
பதிவு செய்திருக்கிறது;</p>

<p>	 நச்சுப் பாம்புகளாகச் சீறியெழுந்த எதேச்சாதிகார
சக்திகளுக்கெதிராகப் போராடி மடிந்த தீவிரம் மிக்க
உன்னதமான மனிதர்களுக்காகத் தலை வணங்கி
இருக்கிறது;</p>

<p>	விஞ்ஞானம் விளைவித்த புதிய அற்புதத்தில் பிறந்த
இருபதாம் நூற்றாண்டின் புதிய நாகரிகத்தை அடையாளம்
காட்டி இருக்கிறது;</p>

<p>	இரண்டு உலக஼ப் போர்கள் மனித குலத்தைச் சிதைந்து
அழித்த கோர அழிவினை வரைந்து காட்டி இருக்கிறது.</p>

<p>	இவை எல்லாவற்றையும் கலையாகவும் நிகழ்த்திக்
காட்டி இருக்கிறது.</p>

<p>	பத்தொன்பதாம் நூற்றாண்டு கலைப் படைப்புகளில்
ஆதிக்கம் செலுத்திய கற்பனா வாதத்தையும் இயல்பு
வாதத்தையும் இருபதாம் நூற்றாண்டில் பிறந்த இந்த
`யதார்த்தவாத சினிமா' பின்னுக்குத் தள்ளியது.
வாழ்க்கையைக் கடந்து போன கற்பனாவாதமும், வெறும்
காட்சிகளை மட்டும் வர்ணித்துக் காட்டும் இயல்பு வாதமும்
மனித வாழ்வின் செயல்களை யதார்த்தமாகக் காட்டுகின்ற
இந்தப் புதிய கலைக்கு முன்னால் பொருளாற்றுப் போயின.</p>

<p>	இந்த `௟தார்த்த வாத சினிமா' என்பது வாழ்வோடு
ஒட்டியது; பிணைந்தது. அந்த வாழ்க்கையை மிகமிகத்
துல்லியமாகக் காட்டும் சக்தியைப் பெற்றது. சினிமாவிற்கு
முந்தியே பிறந்துவிட்ட நாவலும் சிறுக஥ையும் கவிதையும்
வார்த்தைகள் மூலம் காட்சிகளை உருவாக்கி காட்டுவதை
விட, சினிமா, காட்சி ரூபமாகவே அந்தக் காட்சிகளைத்
-64-
தந்து ஒரு படி மேலே சென்றது. நேரிடையான காட்சி
ரூபமாக எதையும் வெளிப்படுத்தும் ஆற்றல் சினிமாவுக்கு
இருக்கின்ற காரணத்தினால்தான், இந்த நிகழ்காலத்தைக்
சித்தரிப்பதில் நாடகம், இசை போன்ற பிறகலைகளைக்
காட்டிலும் அது முந்திச் சென்றது.</p>

<p>	சினிமா என்பதே ஒரு பொய்தான். சினிமாக் காட்சி~
களெல்லாம் பொய்யான தோற்றங்கள்தாம்; வெறும் 
நிழலாகப் பதிந்து போகின்ற ரூபங்கள்தாம். ஆனால்
இந்தப் பொய்யான தோற்றங்கள் உண்மையான நிஜங்஖ளி~
லிருந்து வருகின்றன. கண்முன்னே காண்கின்ற வாழ்வின்்
நிராசைகளும் நிர்மூலங்களும் தோல்வி஖ளும் துயரங்களும்
துக்கங்களும் கனவுகளும் இன்பங்களும் `சினிமாக்
காட்சிகள்' என்ற நிழல்களில் அண்டும்் போது-</p>

<p>	நிஜத்திலிருந்து ஜணித்துக் கிளம்பும் ஒரு பொய்யும்
நிஜமாகிறது.</p>

<p>	ஒவ்வொரு சினிமாக் கலைஞனும் இதைத்தான்
செயகின்றான். வாழ்வின் உண்மையான நடப்புக்களையும்
அனுபவங்களையும் நிஜ வாழ்க்கையிலிருந்து பெயர்த்தெடுத்து
அதை அப்படியே தத்ரூபமாகச் சினிமாக் காட்சிகளில்
கொண்டு வந்து ஒட்டவைக்கும்போது -</p>

<p>	பொய்யான சினிமாவும் நிஜமாக மாறுகிறது.</p>

<p>	இந்தச் `சினிமாக் காட்சிகள்' என்பவை வெறும்
காட்சிகள் மட்டுமல்ல. `சினிமாவின் கண்கள்' என்று
-65-
சொல்லப்படுகின்஼ற `காமிரா' வாழ்வின் உண்மைகளை-
பொங்கிப் பெருகியெழுந்த அந்த வாழ்வின் சுழிப்புக்களை-
அதன் குமுறல்களை - அதன் ஆவேசங்களை இயந்திர
கதியாகப் பதிவு செய்வதில்லை. அதற்கு மாறாக, அந்தக்
காமிராவின் பார்வைக்கு குறிப்பிட்ட பார்வைகள் உண்டு.
ஓவியனின் தூரிகை போல், சிற்பியின் சிற்றுளி போல ஒரு
கலைஞனின் கலைக்கருவியாக அது செயல்பட்டு, ஒவ்வொரு
காட்சியும் இயைபுபடுத்தப்பட்டு `சினிமாக் கதை' என்ற
முழுவடிவத்திற்குள் அந்தக் காட்சிகள் ஒட்டவைக்கப்~
படுகின்றன.</p>

<p>	இப்படி ஒட்டவைக்கப்படும் ஒவ்வொரு காட்சியும் அந்த
முழுவடிவத்தோடு தொடர்பு கொண்டவை; அந்த  ந்த வடிவத்~
தின் இயல்புகளைத் தன்னுள் தாங்கிக் கொண்டவை.
சின்னச் சின்ன சிதறல்களாகப் போகின்ற இந்தக்
காட்சிகள் அந்த முழுவடிவத்தின் அடையாளமாகப்
போகின்றவை.   மண்ணில் பதிந்து போயிருக்கின்ற பாதங்~
களில் ஒரு பாத அடையாளமே ஒரு மனிதன் நடந்து
போயிருக்கிறான் என்பதைக் காட்டுவதைப் போல், ஒரு
காட்சியே அந்த முழுமையை அடையாளம் காட்டும்.</p>

<p>	ஒரு இயைபுக்கு உள்பட்டுப் போகின்ற இந்தக்
காட்சிகள் ஒரு மையப்புள்ளியை நோக்கி நகருகின்றன.
அந்த மையப்புள்ளியே-</p>

<p>	குறிப்பிட்ட ஒரு பெயர் கொண்ட சினிமா.
-66-
	அந்த஼ச் சினிமா, காட்சிகளை முன்னிறுத்தி ஒரு
அடையாளத்தைக் காட்ட முயல்கிறது; ஒன்றைப் பேச
விரும்புகிறது.</p>

<p>	மூன்று படங்க஼ள்.</p>

<p>	இரண்டு வெளிநாட்டுப் படங்கள்.</p>

<p>	ஒரு இந்தியப்படம்.</p>

<p>	இந்தப் படங்களின் காட்சி஖ள் எந்த அடையாளத்தைக்
காட்ட முயல்கின்றன? எதைப் பேச விரும்புகின்றன?</p>

<p>	`EARTH is a Sinful Song' என்ற பின்லாந்துப்படம்.
`MEPHISTO' என்ற மேற்கு ஜெர்மனிப் படம். `சாப்பா'
என்ற மலையாளப் படம்.</p>

<p>	மூன்று படங்களுமே புகழ்பெற்ற படங்க஼ள்; சர்வதேசத்
திரைப்பட விழாக்களில் காட்டப்பட்ட படங்கள்.</p>

<p>	`இந்தப் பூமியே பாவத்தின் கவிதை' என்ற அழகான
பெயரைத் தாங்கி நிற்கும் `EARTH in a Sinful song' என்ற
பின்லாந்து படம் 1973ல் வெளி வந்த படம் 
பின்லாந்து மொழியில் புகழ்பெற்ற ஒரு நாவல் இந்தத்
திரைப்படமாகியிருக்கிறது.</p>

<p>	திரைப்படத்தின் கதை 1947 க்குப் பின்னோக்கிச்
செல்கிறது.</p>

<p>	இரண்டாவது உலகப்போர் முடிந்திருந்த நேரம்.</p>

<p>	பின்லாந்து நாட்டில் தெற்குப் புறத்தில் ஒதுங்கிப்போன
ஒரு கிராமம். வறுமைக் கோட்டைத் தொட்டு வாழ்கின்ற
கிராமத்து மக்கள். படம் முழுவதும் இந்தக் கிராமத்தைச்
சுற்றித்தான் நிகழ்கிறது.</p>

<p>	 மார்ட்டா என்ற 19 வயதுப் பெண் ஒரு
விவசாயி மகள். அதிகமாக விபரம் தெரியாத பெண்.
-67-
இவளைச் சுற்றி வருகின்ற கதை, அந்தக் கிராமத்தையும்
இழுத்துக் கொண்டு சுழல்கிறது.</p>

<p>	விவரம் தெரியாத அந்தப் பெண்ணை அந்தக்
கிராமத்தைச் சேர்ந்த ஒரு அயோக்கியன் தனது காம
இச்சைக்குப் பலியாக்குகிறான். என்ன செய்கிறோம் என்று
தெரியாமலேயே அவளும் உடன்படுகிறாள். அந்தப்
பெண்ணின் மனத்திலும் உணர்விலும் கறைகள்
படிகின்றன. கர்ப்பம் தரிக்கிறாள். விபரம் வெளியே
வருகிறது.</p>

<p>	யாரும் அந்தக் கிராமத்தில் அவ்வளவாக அலட்டிக்
கொள்ளவில்லை. `ப்பூ இதுதானா!' என்ற சர்வ சாதாரண~
மான நிலை கர்ப்பம் கலைக்கப்படுகிறது  திடீரென்று
வெளியிலிருந்து அந்தக் கிராமத்திற்கு ஒரு இளைஞன்
வருகிறான். அந்த இளைஞனை மார்ட்டா உண்மையி~
லேயே காதலிக்கின்றாள். அந்த இளைஞனோடு பல
தடவைகள் உடலுறவும் கொள்கிறாள். இதுவும் வெளியே
தெரிகிறது.</p>

<p>	தந்தையும் போலித்தனமாக வாழ்கின்ற கிராமத்து
மக்களும் `முன்பின் தெரியாத வேற்று மனிதனிடம் எப்ப஼டி
உறவு வைத்துக் கொள்ளலாம்' என்றுதான் எதிர்ப்பைத்
தெரிவிக்கின்றார்கள். இறுதியில் அந்த இளைஞனும் ஒரு 
விபத்஼தில் இறந்து போகிறான்.</p>

<p>	கதை இவ்வளவுதான்.</p>

<p>	அந்த மார்ட்டா கதையோடு அந்்தக் கிராமத்துக் கதை~
யும் ஒரு சுழற்சியாகக் காட்டப்படுகிறது.</p>

<p>	வாழ்வின் மதிப்பீடுகளைக் காலில் போட்டு மிதித்துக்
கொடூரமாக வாழ்கின்ற கிராமத்து மக்கள்.</p>

<p>	ஒழுக்க விதி஖ளும் நியாயங்களும் அழிந்து மனம்போல
வாழ்கின்ற வாழ்க்கை முறைகள் மதமும் கடவுளும் ஒழுக்க
விதிகளும் ஏதோ இயந்திரகதியில் உதடுகள் உச்சரிக்க
சொந்த வாழ்க்கையில் தறிகெட்டுப் போகும் போலித்தன~
மான நிலை.
-68-
	ஒரு காட்சி.</p>

<p>	முன்னிரவில் அந்தக் கிராமத்து மக்களுக்குப்
பாதிரியார் உபதேசிக்கிறார்.</p>

<p>	`பாவங்கள் போக்கப்பட்டு மோட்ச உலகிற்கு
ஓழுங்கான வாழ்க்கை மூலமாகவே செல்லமுடியும்' என்று
வற்புறுத்தல். கூடியிருந்த஼ மக்கள் `ஹிஸ்டீரியா வந்ததைப்
போல அந்த உபதேசத்தைக் கேட்டு மயங்கிக் கலைந்து
போகிறார்கள்.</p>

<p>	அடுத்த காட்சி-</p>

<p>	அந்த முன்னிரவின் பின்பகுதி. படக் `காமிரா' தாவித்~
தாவிப் போய் அந்தக் கிராமத்தையே படம் பிடித்துக்
காட்டுகிறது.</p>

<p>	உறவுகளையும் கூட்டங்களையும் மறந்து ஆணும்
பெண்ணும் யார் யாருடனோ படுக்கையில் உறவுகொண்டு
சல்லாபிக்கிறார்கள். வயதான கிழவனோடு ஒரு இளம்
பெண்; அடுத்த வீட்டுக்காரியோடு ஒருவன்; ஒரு சின்னப்
பையனோடு ஒருத்தி....</p>

<p>	அந்தப் பாதிரியாரும் விடவில்லை.</p>

<p>	கல்யாணமான ஒரு அந்நியப் பெண்ணோடு கட்டிப்
பிடித்துக் கொண்டு அவரும் படுக்கையில் புரண்டு~
படுக்கிறார்.</p>

<p>	மனித வாழ்வில் உறைந்து போன கொடூரங்஖ளையும்
கோமாளித்தனங்களையும் அசிங்கங்களையும் அப்பட்ட~
மாகக் காட்டும் படக்காட்சிகள்.</p>

<p>	ஒவ்வொரு காட்சியும் ஒன்றைத்தான் சொல்ல விரும்பு~
கின்றது. துண்டு துண்டாகிப் போன காட்சிகளின்
இணைவில்- ஒட்டு மொத்தமான முடிவில், படம் ஓர்
உணர்வை உந்தித்தள்ளுகிறது.</p>

<p>	`போர் என்ற அழிவிற்குப் பின்னால் மனித வாழ்வும்
அதன் உயர்ந்த மதிப்பீடுகளும் எப்படிச் சிதைந்து அழிந்து
விட்டன! நெருக்கடிகளும் துயரமும் நிறைந்த காலக்~
-69-
கட்டமொன்று, மனித வாழ்வின் உயர் கோட்பாடுகளை
முற்றிலுமாக அழித்து, அந்த மனிதவாழ்க்கையே எப்படிக்
கொடூரமாக உருமாற்றம் செய்துவிட்டது.</p>

<p>	பின்லாந்து நாட்டின் தெற்கில் ஒதுங்கிப் போன ஒரு
கிராமத்தின் கதை மட்டுமல்ல இது.</p>

<p>	ஒரு பானை சோற்றுக்கு ஒரு சோறு பதம் போல,
எழுபத்திமூன்றில் எடுக்கப்பட்ட இந்தப் படம். இரண்டாவது
உலகப் போர் முடிந்த நிலையில் பின்லாந்துநாடு எப்படி~
யிருந்தது என்பதற்கு இந்தக் கிராமத்தை ஒரு மாதிரி
வடிவமாகக் காட்டுகிறது. புகழ் பெற்ற டி.வி. இயக்குநரால்
எடுக்கப்பட்ட இந்தப் படம். கிட்டத்தட்ட 20 ஆண்டுகளுக்கு
முந்திய பின்லாந்து நாட்டுச் சமூக வாழ்க்கை எப்படித்
தறிகெட்டுப் போய் இருந்தது என்பதைப் பார்க்கக்கூடியவர்~
கள் பார்வைக்குத் தூக்கி எறிகிறது.</p>

<p>	ஒரு நல்ல சினிமாவை எடுக்கின்றவன் பணி இதுதான்.</p>

<p>	எந்தப் படத்தின் கதையாக இருந்தாலும் அந்தக் கதை
ஒரு சமூக மட்டத்தில் நிகழ்கின்றது. அந்தக் கதையைக்
காட்டுவதன் மூலம், அந்தக் கதைக்குப் பின்புலமாக
இருக்கின்ற சமூகத்தைப்஼பற்றிய ஓர் உணர்வினை பார்க்கக்
கூடியவர்கள் அடையச் செய்தல் வேண்டும்.</p>

<p>	இந்தப் படத்தை உருவாக்கியவர்கள் இதைத்தான்
செய்திருக்கிறார்கள்.</p>

<p></p>

<p>               0 
</p></body></text></cesDoc>