<cesDoc id="tam-w-literature-story-jc" lang="tam">
<cesHeader type="text">
<fileDesc>
<titleStmt>
<h.title>tam-w-literature-story-jc.txt</h.title>
<respStmt>
<respType>Electronic file created by</respType>
<respName>Central Institute for Indian Languages, Mysore</respName>
<respType>transferred into Unicode and CES format by</respType>
<respName>"Unicodify" software by Andrew Hardie</respName>
</respStmt></titleStmt>
<publicationStmt>
<distributor>UCREL (on behalf of CIIL)</distributor>
<pubAddress>Department of Linguistics, Lancaster University, Lancaster, LA1 4YT, UK</pubAddress>
<availability region="WORLD"></availability>
<pubDate>03-07-04</pubDate>
</publicationStmt>
<sourceDesc>
<biblStruct>
<monogr>
<h.title>பெண்ணின்  பரிசு (சிறு கதைகள்)</h.title>
<h.author>`லக்ஷ்மி'</h.author>
<imprint>
<pubPlace>India</pubPlace>
<publisher>Unknown - Book</publisher>
<pubDate>1986</pubDate>
</imprint>
<idno type="CIIL code">jc</idno>
</monogr></biblStruct></sourceDesc></fileDesc>
<encodingDesc>
<projectDesc>Text collected for the CIIL Corpus, subsequently integrated into the EMILLE/CIIL Monolingual Written Corpora.</projectDesc>
<samplingDesc>Simple written text only has been transcribed. Diagrams, pictures and tables have been omitted. Sampling begins at page 32.</samplingDesc>
<editorialDecl><conformance level="1"></conformance></editorialDecl>
</encodingDesc>
<profileDesc>
<creation><date>03-07-04</date></creation>
<langUsage>Tamil</langUsage>
<wsdUsage>
<writingSystem id="ISO/IEC 10646">Universal Multiple-Octet Coded Character Set (UCS).</writingSystem>
</wsdUsage>
<textClass>
<channel mode="w">print</channel>
<constitution type="composite"></constitution>
<domain type="public"></domain>
<factuality type="fiction"></factuality>
</textClass>
<translations></translations>
</profileDesc>
<revisionDesc></revisionDesc>
</cesHeader>

<text><body>

<p>பக்கம்:1                 
                   பெண்ணின் பரிசு</p>

<p>     விதியும் ஆசையும் ஒரே திசையாகச் செல்லுமாயின்
வாழ்க்கை சுவர்க்கமாக மாறிவிடக் கூடும் என்பது என்
அபிப்பிராயம்.  என்னைப் பொறுத்தவரையில் விதியும்
ஆசையும் வேறு திக்குகளை நோக்கிச் சென்று கொண்~
டிருந்தன. மேடைமீது ஏறிப் பிரசங்கம் செய்து, தொண்டைத்
தண்ணீர் வற்ற நான்கு பேர்களுடன் விவாதம் செய்து
ஜயித்துக் கர்வமாகி நிற்கும் கலாசாலை வாழ்க்கை முடிந்ததும்
நான் ஒரு ஆரம்பப் பள்ளிக்கூட உபாத்தியாயராக 
வாழ்க்கையைத் தொடங்குவேன் என்று ஒரு கணம் கூடச்
சிந்தித்ததில்லை.</p>

<p>     பி.ஏ. பட்டதாரியான நான் எனது இருபத்தி நான்காம்
வ஼யதில் இலுப்பைத் தோட்டம் என்ற கிராமத்தில் ஆரம்பப்
பள்ளிக்கூட   உபாத்தியாயர்களில் ஒருவனாக ஆக்கப்பட்டேன்.
அந்தப் பள்ளிக்கூடத்தில் நான்காம் வகுப்பு உபாத்தியாயர்
நான்.</p>

<p>     வகுப்பை ஆரம்பிக்கத் துவக்கிய அன்று என்முன் பலகை
மீது வீற்றிருந்த சிஶ்யகோடிகளைக் கண்டதும் ஒரு தரம்
வாய்விட்டு அழவேண்டும் போல் தோன்றியது.    பரட்டைத்
தலையும் அழுக்குச் சட்டையுமாகக் காட்சியளித்த என்
மாணவ-மாணவிகள் கிராமத்தின் ஏழ்மைச் சின்னங்களாக
எனக்குத் தோன்றினர்.</p>

<p>     பெயர் அட்டவணையை எடுத்து எனது மாணவ மாணவி~
களின் பெயர்களை வரிசையாகக் கூப்பிட்டேன்.  `பங்கஜம்'
என்ற பெயரை வாசித்ததும் வகுப்பில் கலீரென்ற கேலிச்
சிரிப்பு எழுந்தது. சுவரோடு ஒட்டி ஓரமாக உட்கார்ந்திருந்த</p>

<p>பக்கம்:2
அந்தப் பெண் என்னை நோக்கி மிரள மிரள விழித்தாள்,
"ஏ பங்கஜம்! உன்னைத்தானே கூப்பிடறாரு வாத்யாரய்யா?
தூங்குறியா களிமண்!" என்ற துடுக்கான குரல் மற்ற
மாணவ மாணவிகளிடமிருந்து கிளம்பியது, பலருடைய
பரிகாசச் சிரிப்புக்குப் பாத்திரமான அந்தப் பெண்குழந்தை
இடத்தைவிட்டு எழுந்திருக்காது என்னையே பரிதாபகரமாகப்
பார்த்துக்கொண்டிருந்தாள்.</p>

<p>     "உன் பெயர்தான் பங்கஜமா? பெயரைக் கூப்பிட்டதும்
இடத்தைவிட்டு எழுந்திருக்க வேண்டும், தெரியுமா?" என
அதட்டினேன் நான்.</p>

<p>     "ஸார், அவள் நொண்டி ஸார்!"  என ஏக காலத்தில்
காது செவிடுபடும்படி பல பையன்கள் கத்தினர்.</p>

<p>     `நொண்டி' என்ற வார்த்தை என் மனதை ஒருகணம்
திகைக்கச் செய்தது.  பங்கஜத்தின் திக்கை நோக்கிப்
பார்த்தேன். பலரின் பரிகாசத்தைத் தாளாத அந்தப்
பேதைக் குழந்தையின் அகன்ற இரு விழிகளும் கண்ணீரால்
மூடப்பட்டிருந்தன. அந்தத் தோற்றம் என் நெஞ்சை
என்னவோ செய்தது.  "உஸ்! பசங்களா! அதிகப் பிரசங்கித்~
தனமாகப் பேசினால் என்ன கிடைக்கும் தெரியுமா?" என்று
மேஜை மீதிருந்த பிரம்பை ஒரு தடவை எடுத்து அவர்கள்
முன்னால் காட்டிவிட்டு, மறுபடியும், பங்கஜத்தை நோக்கித்
தாழ்வான குரலில் "உன்னால் நடக்கவே முடியாதா
அம்மா?"  எனக் கேட்டேன்.</p>

<p>     கண்ணீரைத் துடைத்துக் கொண்ட அவள், "முடியும்,
நான் நடந்தால் இவங்களெல்லாம் சிரிக்கிறாங்க" என
விம்மினாள்.</p>

<p>     "சிரிக்க மாட்டாங்க, இனிமேல் பார்! இங்கே வாம்மா"
என்று அருமையாகக் கூப்பிட்டேன்.</p>

<p>பக்கம்:3
     தயங்கித் தயங்கி நடந்து அருகில் வந்து நின்றாள்.
அவளுக்குப் பன்னிரண்டு வயதிருக்கும். வயதிற்கு மீறிய
வளர்ச்சியுடன் கள்ளம் கபடமற்றுத் தோன்றினாள் அவள்.</p>

<p>     "பங்கஜம்! உங்க அப்பாவுக்கு என்ன வேலை!" என்று
நான் கேட்டேன். பதில் அவளிடமிருந்து வரவில்லை.
"அவ அப்பன் இந்த ஊர் குசவன். பானை சட்டி செய்து
சந்தையில் விற்பவன். இவ தலையில் அதனால்தான்
களிமண் இருக்கிறது.  சுத்த மக்கு, ஒரு கணக்குக்கூடப்
போடத் தெரியாது"   எனக் கூவினான் ஒரு வாண்டுப் பயல்.</p>

<p>     மேஜை மேலிருந்த பிரம்பைக் கையிலெடுத்தேன்.    அந்த
வாண்டுப் பையன் முதுகில் மெதுவாக இரண்டு   அடிகள்
வைத்து, "இனிமேல்  யாராவது அவளை நொண்஼டி~
யென்றோ,   களிமண் என்றோ கூப்பிடுங்கள், சொல்கிறேன்"
என மிரட்டிவிட்டுப் பாடத்தை ஆரம்பித்தேன்.</p>

<p>     அன்றுமுதல் நொண்டிப் பெண் என்ற வியாஜத்தைக்
கொண்டு ஆரம்பித்த பச்சாதாபம் எனக்கும் பங்கஜத்திற்கும்
நடுவே ஏற்பட்ட விவரிக்க முடியாத அன்பிற்கு ஆரம்பமா~
யிருந்தது.</p>

<p>     நாளடைவில் பங்கஜமும்  நானும் ஒருவரை ஒருவர்
அதிகம் அறிந்து கொண்டோம்.      பங்கஜம் பள்ளிக்கூடம்
போகும் வ஼ழி,  நான் குடியிருந்த கூரைக் கட்டடத்தின்
பக்கமாகும்.  ஆகையால், காலையில் போகும்போது வாசல்
திண்ணையில் உட்கார்ந்திருக்கும் என்னை ஒரு தடவை
கவனித்துப் புன்னகை செய்யாமல் போகமாட்டாள்.  எனக்கும்
ஒரு நாள் அவளைக் காணாவிட்டால் ஏதோ ஒன்றை இழந்து
விட்டது போல் பிரமையுண்டாகும்.</p>

<p>     ஒரே வருஶத்தில் பங்கஜம் புதுப் பெண்ணாக மாறி
விட்டாள். கலீரென்ற சிரிப்பும், பளிச்சென்ற பதிலும்
அவளிடமிருந்து வகுப்பில் எழும். அதேபோல் படிப்பிலும்
அவள் முன்னேறி வந்தாள். அந்த வருஶம் பரீக்ஷையில்</p>

<p>பக்கம்:4
பங்கஜம் வகுப்பில் முதன்மையாகத் தேறினாள். என்
வகுப்பை விட்டு மேல் வகுப்பிற்கு அவள் போவதைக் குறித்து
எனக்கு ஆனந்தம் என்றாலும் கருணை பொங்கும் கண்஖ளால்
அடிக்கொரு தடவை கடாக்ஷிக்கும் அவள் போன பின்பு
வகுப்பே சூன்யமாகி விடுமென எனக்குத் தோன்றியதால் என்
மனம்வாடியது.</p>

<p>     அன்று காலை நான் வகுப்பு அறையில் உட்கார்ந்திருந்~
தேன். தயங்கித் தயங்கி யாரோ என் தயவிற்காக நிற்பதைக்
கண்டு நிமிர்ந்து பார்த்தேன். பங்கஜம் நின்று கொண்~
டிருந்ததைப் பார்த்ததும், "என்ன வேணும்?" என்று
அவளை வினவினேன்.</p>

<p>     "இந்த வருஶத்துடன் படிப்பு போதும் என்று எங்க
வீட்டில் சொல்லிட்டாங்க" என்று தலையைக் கவிழ்த்துக்
கொண்டாள் அவள்.</p>

<p>     "ஏன் அப்படிச் சொல்லிவிட்டாங்க?" என வருத்தமும்
ஆச்சரியமும் ததும்பிய குரலில் வினவினேன்.</p>

<p>     "சின்னம்மா பிள்ளைத்தாச்சி, பொறந்த ஊருக்குப்
போயிருக்கு.  வீட்டில் சமைக்க ஆளில்லை" என்றாள்
அவள் சங்கோஜத்துடன்.</p>

<p>     "கெட்டிக்காரப் பெண்ணாச்சே நீ. நல்லாப் படிச்சா
மேலுக்கு வருவாயே?"    என்றேன் நான் துக்கத்துடன்.
பங்கஜம் புன்னகை செய்தாள்.</p>

<p>     "போய்ட்டு வரேங்க, வாத்தியாரய்யா!  ஞாபகம்
வச்சுக்கோங்க"  என்று கை குவித்து நமஸ்காரம் செய்து
விட்டு விடை பெற்றுக்கொண்டாள்.</p>

<p>     பதில் பேசமுடியாது தொண்டையிலே துக்கம் அடைத்துக்
கொண்டது, ஆச்சர்யம்!    அந்தப் பெண்ணுக்கும் எனக்கும்
நடுவே நின்ற அன்பை நான் விவரிக்க முற்படவில்லை. பல 
நாள் பழகிய ஆருயிர் நேசனைப் பிரியும்போது ஏற்படும்</p>

<p>பக்கம்:5
துக்கத்தின் எல்லையையும் மீறிவிட்டது. அன்று என்மனதில்
ஏற்பட்ட சோகம்.</p>

<p>     ஒரு வருஶம் வகுப்பில் பங்கஜமின்றிச் சென்றுவிட்டது.
இலுப்பைத் தோட்டத்திற்கு வந்து இரண்டு வருஶங்கள்
சென்றுவிட்டன.</p>

<p>     இதற்கிடையில் என் மனைவியும் வந்து சேர்ந்தாள்.
புதுக் குடித்தனம் தொடங்கி மேலும் வருஶம் ஒன்றாகியது.
அப்போதுதான் எனக்கு மாற்றலாகியிருக்கிறதென்ற
செய்தி கிடைத்தது.  இதற்காகவே காத்துக் கொண்டிருந்த
நான், மகிழ்ச்சியுடன் அவசரமாக மூட்டையைக் கட்டிக்
கொண்டிருந்தேன்.</p>

<p>     "வாத்தியாரய்யா இருக்காங்களா?"  என்ற குரல்
பங்கஜத்தினுடையது என்று புரிந்து கொண்ட நான்
வாசல் பக்கம் வந்து பார்த்தேன். என்ன ஆச்சர்யம்!
நான்கு வருஶங்களுக்கு முன் சிறுமியாக இருந்த பங்கஜம்
ஒரு யௌவன மங்கையாக என்௃ முன் வந்து நின்றாள்.
வளமை மிகுந்த அவளது அழகு என்னைப் பிரமிக்கச்
செய்தது.  "பங்கஜமா!"  என்றேன் அவளைப் பார்த்து வியப்~
புடன்.</p>

<p>     "அம்மாவையும் உங்களையும் பார்த்துட்டுப் போகலா~
மின்னுதான் வந்தேன். ஊரைவிட்டு மாத்திப் போறீங்க~
ளாமே!"   என்றாள் அவள்.</p>

<p>     "என்னிடம் படித்த பெண் இவள், ரொம்பக்கெட்டிக்காரி
படிப்பில்" என்று என் மனைவிக்குப் பங்கஜத்தை அறிமுகப்
படுத்தினேன். பங்கஜத்தின் முக஥்தில் யௌவனத்தின்
தேஜஸ் பொங்கிக் கொண்டிருந்தது.</p>

<p>     "வாத்தியாரய்யா நான் போய்ட்டு வரேன். இந்தக்
கூஜாவை என் ஞாபமாக வச்சுக்குங்க" என்று சொல்லிக்
கொண்டு,   ரேழித் திண்ணையில் வைத்திருந்த ஒரு மண்</p>

<p>பக்கம்:6
கூஜாவைக் கொண்டுவந்து வைத்தாள்.      என்னை ஒருபார்வை
பார்த்துவிட்டு, நான் பதில் சொல்லுமுன் அவள் வெளியேறி
விட்டாள்.</p>

<p>     அவள் போனபின்பு,  "இந்த நொண்டிப் பெண்ணுடன்
எத்தனை நாளாக சிநேகிதம்?"  என்று ஆத்திரத்துடன்
மனைவிதொடுத்த பாணம் என்னைத் தூக்கி வாரிப்போட்டது.
அதோடு அந்தக் கடுஞ் சொற்களால் என் இதயத்தடியிலே
பங்கஜத்தின் மீது நான் கொண்டிருந்த தூய அன்பிற்கும்
தூபம் போட்டுவிட்டாள் அவள் என்பதை நான் நாளா
வட்டத்தில்தான் அறிந்தேன்.</p>

<p>     காலம் என்னவோ போய்க் கொண்டுதான் இருந்தது.
பல ஊர்களில் மாற்றப்பட்ட நான் பலவித மாணவ மாணவி~
களுடன் பழகினேன். ஆனால், அந்த நொண்டிப்
பெண்ணைப் போன்று என்மனதைக் கவர்ந்து கொண்ட குழந்~
தையை நான் அதற்குப் பின் சந்திக்கவில்லை. வருஶங்கள்
பல சென்று கொண்டிருந்த சமயத்தில் என் வாழ்விலும் பல
மாறுதல்கள் ஏற்பட்டன. என் மனைவி சாரதா திடீரென்று
விஶஜீரத்தில் மூன்று வருஶங்களுக்கு முன்பு இறந்து
விட்டாள்.</p>

<p>     குழந்தை குட்டி ஒன்றுமில்லாததால் மறு விவாகம்
செய்துகொள்ள வேண்டுமென்ற எண்ணம் எனக்குத்
தீவிரமாகத் தோன்றியது.  பங்கஜம் இப்பொழுது
பதினெட்டு வயது மங்கையாக மாறி இருப்பாள். யௌ~
வனத்தின் சோபைமிக்க அவளது தோற்றம் என் மனக்
கண்முன் வந்து அவளை இரண்டாவது     மனைவியாக
அடைய வேண்டுமென்ற ஆசையைத் தூண்டிவிட்டது.
`பங்கஜம்! என்னை மணந்து கொள்வாயா?"  என்று அவளை
நான் கேட்டு விட்டால் அவள் எவ்வளவு மகிழ்ச்சியடை~
வாள் என்று பலவாறு கற்பனை செய்து கொண்டு ஒரு நாள்
இலுப்பைத் தோட்டத்தை அடைந்தேன்.    களிமண்ணைப்
பிசைந்துகொண்டு வீட்டு வாசலில் உட்கார்ந்திருந்த</p>

<p>பக்கம்:7
கிழவனிடம், "பங்கஜம் சௌக்யமா அய்யா?"   என விசாரித்~
தேன்.</p>

<p>     "சௌக்யமாயிருக்கு, ஐயா!   அடிக்கடி உங்களைப்
பத்தித்தான் சொல்லிக்கொண்டே   இருக்கும் பங்கஜம்!
உக்காருங்க!" என்று பல்லைக்காட்டி உபசரித்தான் கிழவன்.
திண்ணையில் உட்கார்ந்த என் இருதயம் சந்தோஶத்தால்
துள்ளியது.  பங்கஜம்கூட அல்லவா என்னைப்பற்றி சதா
நினைத்துக் கொண்டிருக்கிறாள்!
  
     "எங்கே அந்தப் பெண்ணு? பாத்துட்டு போகலாமின்னு
வந்தேன்" என்று இழுத்தேன் பொறுமையிழந்து.</p>

<p>     கிழவன் பதிலுக்குச் சப்புக்கொட்டினான். "அது
கலியாணமாகி     புருஶன் வீட்டுக்குப்போய் இரண்டு வருஶ~
மாவுதே!  அந்த முரட்டுப்பயல் பெண்ணைப் பிறந்த வீட்டுக்கே
அனுப்஫றதில்லையே!"    எனக்கூறிக் கண்களைத் துடைத்துக்
கொண்டான்.</p>

<p>     என் இருதயத்துள் கட்டியிருந்த கற்பனைக் கோட்டை
ஒருநொடியில் சிதறிப் பொடியாகிவிட்டது.  என்ன ஏமாற்றம்!
அப்போதிருந்த மன நிலையில் எனக்கும் கிழவனுடன் கூட
ஒருதடவை அழவேண்டும் போலிருந்தது.      உடனேயே
திரும்பி விட்டேன் ஊருக்கு.</p>

<p>     பங்கஜம் கிடைக்காததால் என் வாழ்வு அஸ்தமித்துப்
போய்விடவில்லை.     ஜானகியை நான் மணந்து கொள்ளத்~
தான் செய்தேன். இருந்தபோதிலும் பங்கஜத்தை மறக்க
முடியவில்லை.</p>

<p>     சென்ற தீபாவளிக்கு இரண்டு நாள் முன்பு, என் மனைவி
ஜானகி, "அந்தத் தையற்காரன், குழந்தையின் சட்டையை
இன்னும் தைக்கலை. போயும் போயும் கொடுத்தீங்களே ஆள்
பார்த்து! அவன் ஒரு குடிகாரனாம்! தீபாவளிக்கப்புறம்தான்</p>

<p>பக்கம்:8
துணி கைக்கு வரும்போலயிருக்கு!"     என்று சரமாரியாகக்
கொடுத்தாள்.</p>

<p>     மறுநாள் காலை எழுந்ததுமே பார்த்து வரலாமென்று
தையற் கடைக்குச் சென்றேன். கடை பூட்டப்பட்டிருந்த~
தைப் பார்த்த என் ஏமாற்றத்தை விவரிக்க முடியாது. தையற்~
காரனை மனதில் ஒரு முறை சபித்துக்கொண்டு, அவன்
எங்கு போயிருப்பான் என விசாரிக்கும் நிமித்தம் பக்கத்தில்
இருந்த ஒருகூரை வீட்டின் வாசலில் போய் நின்று. "அம்மா,
இந்தத் தையற்காரன் வீடு எது, எங்கே போயிருக்கான்னு
சொல்ல முடியுமா?"  என்று சற்று உரத்த குரலில்
கேட்டேன்.</p>

<p>     "அவரு வீடு இதுதான்! திருநாளுக்குப் பக்கத்~
தூருக்குப் போயிருக்கார்" என்றது ஒரு பெண்ணின்
குரல்.</p>

<p>     "அட   பாவி! தீபாவளி நெருங்கிவிட்டது! இப்படிச்
சட்டையைக் கொடுக்காமல் போயிட்டானே!"      என்றேன்
நான் ஆயாசத்துடன்.</p>

<p>     "யாரய்யா நீ, காலங்கார்த்தாலே வந்து கத்தறே!
குடுத்தவங்க கிட்டே கேட்டுக்குங்க. என்கிட்டே
கேட்டா?" என அவள் வெளியே தலை காட்டாமலேயே
ஆத்திரமாக மிரட்டத் தொடங்கவே, மேலே விவாதம்
செய்வதில் பலனில்லை என்று நகர்ந்தேன்.</p>

<p>     விடிந்தால் தீபாவளி. காலையிலிருந்து குழந்தையின்
சட்டையைக் குறித்து வேதனைப் பட்டுக்கொண்டே
உட்கார்ந்திருந்தேன். "ஆமாம்! விடிஞ்சால் தீபாவளி.
நாளுங்கிழமையுமா குழந்தை சட்டையைப் போக்கடிச்சுட்~
டீங்களே. கெஜம் எட்டு ரூபா போட்டு வாங்கின~
தாச்சே!"  என்று என் மனைவி வருத்தப்பட்டுக்கொண்டாள்.
அப்போது வெளியே இருந்து, "வாத்தியாரய்யா</p>

<p>பக்கம்:9
வீட்டில் இருக்காங்களா?" என்ற குரல் கேட்டது. என்
எதிரில் நின்ற அந்த ஸ்திரீயை ஏற இறங்கப் பார்த்த நான்
"பங்கஜமா!" என்று கூவினேன் வியப்புடன்.</p>

<p>     "குழந்தை சட்டை தைத்தாச்சு, சரியாயிருக்கான்னு
போட்டுப் பாருங்க" என சட்டையை என் முன் நீட்டினாள்
அவள்.</p>

<p>     "நீயா அந்தத் தையற்காரன் மனைவி?" என்றேன்
திகைப்புடன். ஆமாம் எனப் பதிலுக்குத் தலையை
ஆட்டினாள். "என் புருஶன் இருக்கிறாரே, எப்பவுமே
இப்படித்தாங்க ஒருமாதிரி. கொஞ்சம் நாணயமாக நடந்து
கிட்டால் எவ்வளவோ மேன்மையாக இருக்கலாம்.
உங்களை நாளும்கிழமையுமா ஏமாற்றக் கூடாதுன்னு
நானே தைச்சுக்கிட்டு ஓடியாந்தேன்" விளக்கினாள்
பங்கஜம்.</p>

<p>     பரக்கப் பரக்கப் பரிதாபமாக என் முகத்தை நோக்கின
குழந்தையல்ல இன்று அவள்; யௌவனத்தின் புதுமையுடன்
என் மனதைக் கலக்கிய மோகன மங்கையுமல்ல.
வாழ்வின் கசப்பை உணர்ந்து விரக்தியடைந்த ஒரு ஸ்திரீ
அவள் இப்போது!    சோகத்தின் சாயை படிந்த அவளது
அகன்ற விழிகள் என் மனதை நோகச் செய்தன.
"அடேயப்பா! நீ கெட்டிக்காரியாயிருக்கியே; அதிருக்கட்டும்...
என்னை நீ எப்படிக் கண்டு பிடித்தாய்? வீட்டிலிருந்஼து
வெளியில்கூட வரவில்லையே அன்று?"    என்று வியப்புடன்
கேட்டேன் நான்.</p>

<p>     "விடிஞ்சதும் விடியாததுமா வாசலில் வந்து நின்று
கத்தறவங்க யாருன்னு கோவிச்சுகிட்டு எட்டிப் பார்த்தேன்.
ஒரு நிமிசத்தில் வாத்தியாரய்யான்னு புரிஞ்சுது" என்று
கூறிவிட்டு அர்த்தபாவத்துடன் சிரித்தாள்.</p>

<p>பக்கம்:10
     சற்று நேரம் மௌனம் நிலவியது.  அதற்குள் அவள்
பக்கமாக வந்த என் குழந்தையை வாரி எடுத்து அணைத்துக்
கொண்டு,   "என்ன பேரு?"  என்று விசாரித்தாள் பங்கஜம்.</p>

<p>     "அலமேலு'ன்னு நாங்க வச்சு பேரு. ஆனா அவ
அப்பா `பங்கஜ'மின்னு கூப்பிடுகிறார்!" என்று சொன்னாள்
என் மனைவி.</p>

<p>     பங்கஜத்தின் கண்கள் ஒரு வினாடி என் கண்களைச்
சந்தித்தன. அதில் தோன்றிய உணர்ச்சியை என்னால்
புரிந்துகொள்ள முடியவில்லை.</p>

<p>     தைத்த கூலி வாங்கவும் மறுத்துவிட்டு பங்கஜம்
திரும்பிவிட்டாள். அவள் போன பின் என் மனைவி,
"பாவம்! அது ஒரு நொண்டிப் பெண் போலிருக்கிறதே"
என்றாள் அனுதாபத்துடன்.</p>

<p>     பங்கஜம் ஒரு நொண்டிப் பெண்ணாக எல்லோர்
கண்களுக்கும் புலப்பட்டாள். ஆனால், எனக்கு மட்டும் அவள்
குப்பையில் கிடக்கும் மாணிக்கமாகவே தென்படுகிறாள்.
எனக்கும் அவளுக்கும் இடையில் மங்காது நின்ற அந்த
அன்பை, நான் காதலென்றோ, பாசமென்றோ பழையநாள்
சொந்தமென்றோ சொல்ல முடியாது.      பங்கஜத்திற்கும்
எனக்கும் விதி சரியாக இருந்திருந்தால், ஒரு சமயம் அவள்
என் மனைவியாகியிருக்கக் கூடும்.  அதற்குத்தான்
ஆரம்பத்திலே சொல்ல வந்தேன், விதியும் ஆசையும் ஒரே
திக்கில் சென்றால் வாழ்க்கை சுவர்க்கமாகவே மாறிவிடக்~
கூடும்-என்று?</p>

<p>பக்கம்:11
		   சமர்ப்பணம்</p>

<p>     புரொபஸர் சந்நானம் தாம் எழுதிய புத்தகத்தின் கைப்
பிரதியை ஒரு தரம் திருப்பிப் படித்துப் பார்த்தார். படிக்கப்
படிக்க அவருக்குத் தாம்தான் அதை எழுதினோமோ என்று
கூடச் சந்தேகம் தோன்ற ஆரம்பித்துவிட்டது. ஸ்திரீகளின்
மனப்பான்மையைப் பற்றிப் பல மேனாட்டு மனோதத்துவ
ஆசிரியர்கள் எழுதிய நூல்களைப் படித்து அலசிப் பார்த்துப்
பல வருஶ ஆராய்ச்சியின் பயனாக அந்தப் புத்தகத்தை அவர்
எழுதியிருந்தார். மனோதத்துவத்தைப் பற்றி இதுவரை
அதுமாதிரிப் புத்தகம் வெளிவந்ததில்லை என்று அவருக்கு
நிச்சயமாகத் தோன்றியது.</p>

<p>     சந்தானம் மாடபுரம் அமெரிக்கன் கலாசாலையில் முக்கிய
விஞ்ஞான ஆசிரியர். கலாசாலை ஆசிரியரான அவர்,
பத்திரிகை உலகிலும் மிகவும் புகழ்பெற்ற எழுத்தாளர். தாம்
எழுதிய கையெழுத்துப் பிர஼தியை அச்சிற்கு அனுப்பு முன்
மறுபடியும் ஒருதடவை படித்துப் பார்த்த அவர் தம்மை
மறந்து அதன் இன்பத்தில் ஆழ்ந்து போயிருந்தார். மல்லிகை
மலரின் மணம் மெல்லக் காற்றில் தவழ்ந்து வந்து தமது
முகத்தில் படிவதை உணர்ந்த அவருக்குச் சட்டென்று தமது
முன்னால் வந்து நிற்பது யாரென்பது புரிந்துவிட்டது.
கையெழுத்துப் பிரதியை மேஜைமீது வைத்துவிட்டுப்
புன்னகையுடன் நிமிர்ந்த அவர், "ஜானகி! இந்தப் புத்தகத்~
தினால் எனக்கு இன்னும் அதிகப் புகழ் ஏற்படப் போகிறது
தெரியுமா?" என்று பெருமையுடன் கூறினார்.</p>

<p>     "வேளா வேளைக்குச் சாப்பிடாமல் ராப்பகலாய்
விழுந்து விழுந்து எழுதினீர்களே, அதற்குப் பலனில்லாமல்</p>

<p>பக்கம்:12
போகுமா?"   என்று அவர் மனைவி ஜானகி சிரித்துக்
கொண்டே நாற்காலியின் அருகில் வந்து நின்றாள்.</p>

<p>     "ஜானகி! உன்னிடம் ஒரு விஶயம் கேட்கவேண்டு~
மென்றிருக்கிறேன். இந்தப் புத்தகத்தைப் பங்கஜத்திற்கு
சமர்ப்பணம் பண்ண வேண்டுமென்று என் மனம் விரும்பு~
கிறது. உனக்கு இதில் ஆட்சேபணை ஒன்றுமில்லையே?"
என்று கேட்டார் சந்தானம்.</p>

<p>     `என்ன அப்படிக் கேட்கிறீர்கள்! இந்தப் புத்தகத்தை~
யாவது பங்கஜத்திற்கு சமர்ப்பணம் செய்ய வேண்டுமென்று
நானே சொல்ல இருந்தேன்!" என்று ஜானகி சிரித்துக்
கொண்டே கூறினாள்.    சந்தானத்தினால் ஜானகிக்~
குச் சட்டென்று பதிலளிக்க முடியவில்லை. அவர் சிந்தனை~
௟ைக் கலைப்பவள் போல் ஜானகி தொடர்ந்து, "சாப்பிட
வாருங்கள்! நேரமாகிறதே" என்று அன்புடன் அழைத்து
விட்டுச் சமையற்கட்டின் பக்கம் திரும்பினாள்.</p>

<p>     கை வளையல்கள் சப்திக்க, புடவை சலசலவென்று
ஒலிக்க, சமையற்கட்டின் பக்கம் சென்றுகொண்டிருந்த
தமது மனைவி ஜானகியை நோக்கிக்கொண்டிருந்த
சந்தானத்தின் மனதில் பல உணர்ச்சியலைகள் மோதின.
"ஜானகி! எப்படி இவள் நம்முடைய பிரமச்சர்ய விரதத்~
தைத் தவிடுபொடியாக்கிவிட்டாள்!"   என்று நினைத்துக்
கொண்ட அவர் தம்மையும் மறந்து அந்தப் பழைய சம்ப~
வங்களை நினைத்துக்கொண்டு மெல்லச் சிரித்தார்.</p>

<p>     புரொபஸர் சந்தானம் வயது முப்பத்தாறு ஆகியும்
கல்யாணமே செய்துகொள்ளாது பிரம்மச்சாரியாக இருப்~
பதைக் கண்டு மாடபுரம் கலாசாலை ஆசிரியர்களும் மாண~
வர்களும் பலவிதமாக஼ப் பேசிக் கொண்டனர்.   பணம்
நிறையச் சேர்த்துக்஼கொண்஼டு, பிறகுதான் கல்யாணம்
செய்து கொள்ளவேண்டுமென்று யோசித்துக் கொண்டிருக்஼கிறார்</p>

<p>பக்கம்:13
போலிருக்கிறது புரொபஸர் சந்தானம் என்று மற்ற
ஆசிரியர்கள் அவரைப் பற்றி வம்பு பேசினார்கள்.</p>

<p>     "கட்டாயம் சந்தானத்துக்கு வாலிபத்தில் ஏதோ
ஏமாற்றம் ஏற்பட்டிருக்க வேண்டும். அதனால்தான்
கல்யாணம் செய்துகொள்ளாமல் காலங் கழிக்கிறார்
போலிருக்கிறது மனுஶர்;', என்று பரிதாபப்பட்டனர்
பச்சாதாப குணமுடைய சில மாணவர்கள்.</p>

<p>     வீட்டிலே தமது வயோதிகத் தாயாரும் மற்ற உறவினர்~
களும் என்ன சொல்லியும் காதில் போட்டுக்கொள்ளாமல்
புரொபஸர் சந்தானம் ஒரே முரட்டுப் பிடிவாதமாகப்
பிரம்மச்சாரியாக இருந்தார். அதற்குக் காரணம் ஒன்று
இருக்கத்தானிருந்தது.</p>

<p>    செல்வப்பாடி கங்காதரம் பிள்ளையின் ஏகபுத்திரன்
சந்தானம். கங்காதரம் பிள்ளையின் சகோதரி காந்திமதி~
யம்மாள் சிறு வயதிலேயே விதவையாகித் தனது ஒரே
மகள் பங்கஜத்துடன் அண்ணன் வீட்டிலேயே வசித்து
வந்தாள். சின்னஞ்சிறு பருவத்திலிருந்தே சந்தானத்~
திற்கு பங்கஜத்திடம் அபாரமான பிரியம்.</p>

<p>     பங்கஜம் பெயருக்கேற்ற விதம் அழகான பெண்.   துரு
துருவென்று நோக்கும் கருவண்டை நிகர்ந்த அவளது கண்~
களில் எப்பொழுதும் குதூகலம் தாண்டவமாடிக் கொண்டி~
ருக்கும். நாளாக நாளாகப் பங்கஜத்தின் தோற்றம்
சந்தானத்தின் வாலிப மனதில் காதல் புயலை உண்டாக்கி
விட்டது. பங்கஜம் இல்லாத உலகம் தனக்கு சூன்யமாகத்
தென்படும் என்று அவர் எண்ண ஆரம்பித்துவிட்டார்.
பங்கஜம் அவர் மீது எத்தனை அன்பு கொண்டிருந்தாள்.
"அத்தான்! அதோ பாருங்கள், அந்த மரத்தின் மேல் ஒரு
குயில்!" என்று அவள் சங்கோஜமின்றி அவருடைய கையைப்
பிடித்துக் கொஞ்சிக்கொண்டு தோட்டத்தில் உலாவுவாள்.</p>

<p>பக்கம்:14
எத்தனையோ இன்ப நாட்களைச் சந்தானம் அவளுடன்
வார்த்தையாடுவதில்   கழித்திருக்கிறார்.</p>

<p>     கங்காதரம் பிள்ளைக்குத் தமது ம஖னைப் படிக்க
வைத்துப் பெரிய இ஠த்தில் சம்பந்தம் செய்து கொள்ள
வேண்டுமென்ற ஆசை ஏற்பட்டிருந்தது.  அதனால் சந்தானம்
பங்கஜத்துடன் தாராளமாகப் பழகியது அவருக்குப் பிடிக்க~
வில்லை. அவர்஼களுடைய தொடர்பு முற்றிப் போவதற்குள்
அதைத் தடுத்துவிட வேண்டுமென்று அவர் மகனுக்குப் பல
இடங்களில் பெண்தேட ஆரம்பித்தார்.</p>

<p>     அந்த வருஶம் கலாசாலைப் படிப்பை உத்திதேசித்து
சந்தானம் கிராமத்தை விட்டு நகரத்திற்குப் போயிருந்தார்.
அது சமயம் வீட்டில் அவர் தந்தை செய்து கொண்~
டிருந்த முயற்சிகளைப்பற்றி சந்தானம் ஒன்றும் அறியார்.
`பங்கஜத்திற்கு விவாகம் நிச்சயமாகிவிட்டது. உ஠னேபுறப்~
பட்டு வரவும்' என்று திடீரென ஒரு நாள் அந்தக் கடிதத்~
தைப் படித்த சந்தானம் கோபமடைந்தார். பங்கஜத்தின்
மீது தமக்குப் பிரியம் உண்டு என்பதைத் தந்தை நன்கு
அறிந்தும் வேண்டுமென்றே அவளை வேறு ஒருவனுக்குக்
கொடுக்க ஏற்பாடு செய்திருந்ததை நினைத்து மனம்
வெகுண்ட அவர் நேரில் போய் அப்பாவிடம் இதைப்பற்றி
சண்டையிடுவது என்று அடுத்த ரயிலில் ஊருக்குக் கிளம்பிப்
போனார்.</p>

<p>     பங்கஜம் தன் அத்தானைக் கண்டதும் விம்மி விம்மி
அழ ஆரம்பித்து விட்டாள். வேண்஼டாத ஒருவனுக்கு
அவளை வாழ்க்கைப் படுத்துவது தப்பு என்று அவர் தமது
தந்தையிடம் விவாதம் செய்து தோற்றுப் போனவர்,
அவள் கல்யாணத்திற்குக் கூட இல்லாமல் மறுநாளே திரும்பி
நகரம் வந்து சேர்ந்தார்.</p>

<p>     பங்கஜத்தின் விவாகம் அவர் பார்க்காமலே விமரிசை~
யாக நடந்தது.  அத்துடன் தமது வாழ்க்கையின் ஜோதியே</p>

<p>பக்கம்:15
அஸ்தமித்துப் போய்விட்டதைப் போன்று சந்தானம் மனம்
இடிந்து போய் விட்டார்.</p>

<p>     இரண்டு வருஶங்கள் சென்றன.   அவர் படிப்பும் ஒரு
வழியாக முடிவடைந்தது.   தந்தையிடம் கொண்டிருந்த
மனஸ்தாபமும் கொஞ்சம் கொஞ்சமாக     மாறுபட்டு விட்டது.
ஊருக்குத் திரும்பிய சந்தானம் இரண்டு விஶயங்களைக்
கேள்விப்பட்டு மிகவும் திடுக்கிட்டுவிட்டார். ஒன்று பங்கஜம்
கடந்த ஒரு வருஶமாகப் படுக்கையில் நோயாளியாக
இருந்தவள் உயிருக்கு மன்றாடிக்கொண்டிருப்பது;
இன்னொன்று அவர் சம்மதத்தைக் கேட்காமல் தந்தை
நிச்சயம் செய்த அவருடைய கல்யாணம்.</p>

<p>     தமது கிராமத்துக்குப் பக்கத்து கிராமத்தில் வாழ்க்கைப்
பட்டிருந்த பங்கஜத்தைப் பார்க்க அவர் உடனே புறப்பட்டுச்
சென்றார்.</p>

<p>     இரண்டு வருஶங்களுக்குப் பிறகு திரும்பத் தன்
அத்தானைக் கண்டதும் பங்கஜத்தின் சோகம் நிரம்பிய
வதனம் சற்றே பிரகாசமடைந்தது.    "அத்தான்! உங்களைப்
பார்க்காமல் நான் உயிரை விட்டுவிடுவேனோ என்று பயந்து
கொண்டிருந்தேன்"  என்று அவள் அவரைக் கண்டதும்
கண்ணீர் விட்டாள்.  தன்மீது கொண்ட காதலின் ஏமாற்றத்~
தால் மனம் உடைந்து அதே வியாதியாகி, சாகும் தருவாயி~
லிருந்த அவளுடைய தோற்றம் சந்தானத்தின் மனதைப்
புண்படுத்திவிட்டது.</p>

<p>     அன்று பங்கஜம் தன் உயிருக்கு மன்றாடிக் கொண்டி~
ருந்தாள்.</p>

<p>     அத்தான்! இந்த ஜன்மத்தில்தான் நான் கொடுத்து
வைக்காத பாவியானேன்.   அடுத்த ஜன்மத்திலாவது கடவுள்
என் அபிலாசையைப் பூர்த்தி செய்வார் என்று நம்புகிறேன்"</p>

<p>பக்கம்:16
என்று அவள் திணறிக் கொண்டே அவருடன் தனிமையாய்
இருந்த சமயம் கூறினாள்.</p>

<p>     "பங்கஜம்! நானும் கொடுத்து வைக்காத பாவிதான்"
என்று முனகினார் துக்கத்துடன் சந்தானம்.</p>

<p>     "அத்தான், உங்களைக் கல்யாணம் செய்து கொள்ளப்
போகும் பாக்கியசாலியை நான் கண்ணால் கூட பார்க்க
முடியாது போலிருக்கிறதே"   என்று பங்கஜம் வேதனைப்
பட்டாள்.</p>

<p>     "நான் கல்யாண஁ம் செய்து கொள்ளப் போவதாக யார்
சொன்னார்கள்? அப்பா என்னைக் கேட்காது நிச்சயம் செய்த
அந்தக் கல்யாணத்தை நிறுத்தி விடும்படி ஏற்பாடு செய்து
விட்டேன். பங்கஜம்! என் இருதயத்தில் உன்னைத் தவிர
வேறு ஒருவரும் இருக்க இ஠ம் இல்லை" என்று உணர்ச்சி
ததும்ப ஆவேசத்துடன் பேசினார் சந்தானம்.</p>

<p>     பங்கஜத்தின் முகம் அதைக்கேட்டதும் பிரகாசமடைந்தது.
"அத்தான், உங்கள் இருதயத்தில் எப்போதும் இருக்கக்
கொடுத்து வைத்த பாக்யசாலி நான்தான் என்பதைக் குறித்து
பெருமையடைகிறேன்"      என்று கூறிக்கொண்டே கண்ணை
மூடினாள்.</p>

<p>     பங்கஜத்தின் மரணத்திற்குப் பிறகு அவர் தமது ஊரை
விட்டே கிளம்பி விட்டார். பல வருஶங்கள் சென்றன. கங்கா~
தரம் பிள்ளையும் இறந்து விட்டார். சந்தானம் பெரிய கலா~
சாலை ஆசிரியராகவும், புகழ்பெற்ற எழுத்தாளராகவும் ஆகி~
விட்டார். அவருடைய பேருக்கும் புகழுக்கும் ஆசைப்பட்டு
எத்தனையோ பேர்கள் பெண் கொடுக்க முன் வந்தார்கள்.
சந்தானம் பிடிவாதமாக கல்யாணம் செய்து கொள்ள மறுத்து
விட்டார்.</p>

<p>     அந்த வருஶம் கோடை விடுமுறைக்குப் பிறகு கலா~
சாலையைத் திறந்தார்கள். புரொபஸர் சந்தானத்தின் கீழ்</p>

<p>பக்கம்:17
வேலை செய்து கொண்டிருந்த உதவியாசிரியர் வேலையை
விட்டு நீங்கிப் போய்விட்டதனால் அவருடைய ஸ்தானம் காலி~
யாக இருந்தது. பத்மநாப பிள்ளை என்ற வேறு ஒரு உதவி
ஆசிரியர் வந்து அந்த வேலையை ஒப்புக்கொண்டார்.  அவரு~
டைய சாந்த குணத்தையும் சிரித்துப் பேசும் தன்மையையும்
கண்டு சந்தானம் காலக்கிரமத்தில் அவருடன் நட்புக்கொண்டு
விட்டார்.</p>

<p>     பத்மநாப பிள்ளையின் வீட்டிற்குப் போயிருந்த சந்தர்ப்~
பத்தில்஼தான் முதன்முதலில் ஜானகியைக் கண்டார் சந்தானம்.</p>

<p>    தன஥ு அண்ணனுடன் யாரோ வார்த்தையாடிக்
கொண்டிருக்கிறாகள்  என்பதை அறியாத ஜானகி,
"அண்ணா நீங்கள் எனக்கு கதைப் புத்தகம் வாங்கித் தருவ~
தாக ஏமாற்றிக் கொண்டே வருகிறீர்களே"   என்று உரத்த
குரலில் கேட்டுக்கொண்டு கூடத்துப் பக்கம் வந்தவள்,
புரொபஸர் சந்தானத்தைக் கண்டு அப்படியே திகைத்துப்
போய் நின்றுவிட்டாள்.</p>

<p>     இருபது வயதுக்குமேல் மதிப்பிடமுடியாத  யௌவனமங்கை
ஒருத்தி தன்முன் நிற்பதைக் கண்ட சந்தானம் திடுக்கிட்டு
அவளை நோக்கினார்.  ரோஜா மலரையொத்த      மேனியும்,
காற்றிலே புரண்டு நெற்றி மீது கொஞ்சம் சுருண்ட கூந்தலும்
கொண்ட ஜானகியின் அழகிய தோற்றத்தைக் கண்டு
அவருடைய மனம் அந்த சௌந்தரியத்திற்கு அந்த க்ஷணமே
அடிமைப்பட்டுவிட்டது.</p>

<p>     சந்தானத்தின் குழப்பத்தைப் போக்கும் நிமித்தம்
பத்மநாப பிள்ளை, "என் தங்கை ஜானகி ஸார் இவள்! பி.ஏ.
படித்துவிட்டு மேலே என்ன செய்வது என்று தெரியாமல்
வீட்டிலேயே  உட்கார்ந்திருக்கிறாள்" என்றார்.</p>

<p>     "அப்படியா?"  என்று சொல்லிவிட்டுப் புரொபஸர்
சந்தானம் திரும்பிப் பார்த்தார்; ஜானகி வெட்கம் மிகுந்த~
வளாய் அவ்விடத்தைவிட்டு மறைந்துவிட்டாள்.</p>

<p>பக்கம்:18
     "ஜானகிக்஼குக் கல்யாணமாகி இருந்தால் எத்தனையோ
வருஶங்கள் ஆகியிருக்க வேண்டும்.   என் தந்தை உயிருடன்
இருந்தபோது கங்காதரம் பிள்ளை என்பவரின் மகனுக்குக்
கொடுப்பதாக நிச்சயம் செய்திருந்தார். பையன் வேண்டா~
மென்று கல்யாணத்தைத் தடுத்துவிட்டான். அதனால்
எங்களுக்குப் பணநஶ்டமும் அவமானமும் ஏற்பட்டன.
இன்னும் எங்கள் ஜானகிக்கு கல்யாணமும் ஆகவில்லை"
என்று துக்கத்துடன் கூறினார் பத்மநாப பிள்ளை.</p>

<p>     புரொபஸர் சந்தானத்திற்குத் தூக்கிவாரிப்போட்டது.
கணப்பொழுதில் தோன்றி, தனது மனதில் கிளர்ச்சிகளை
உண்டு பண்ணிய அந்த அழகியை அவர் ஒரு காலத்தில்
வேண்டாமென்று மறுக்க வேண்டி வந்ததா என்று திகைத்~
தார்.  அசடு வழியும் முகத்துடன் சந்தானம் பத்மநாப
பிள்ளையிட஼ம் விடை பெற்றுக்கொண்டு வீடு சென்றார்.</p>

<p>     புரொபஸர் சந்தானத்தின் மனம் அன்றிலிருந்து ஒரு
நிலையில் இல்லாமல் தத்தளிக்க ஆரம்பித்துவிட்டது.
ஜானகியின் கவர்ச்சிகரமான தோற்றம் அவர் மனக்கண்
முன் சதா நர்த்தனமாடிக்கொண்டிருக்கவே, கடைசியில்
தமது திட விரதத்தைத் தூக்கி மூலையில் எறிந்துவிட்டு ஒரு
நாள் தைரியமாகத் தாம் யார் என்பதை விஸ்தாரமாகக்
கூறி பத்மநாப பிள்ளையிடம் ஜானகியைத் தமக்கு மணம்
செய்து கொடுக்க முடியுமா என்று கேட்டுவிட்டார்.</p>

<p>     புரொபஸர் சந்தானம் தமது உதவியாசிரியரின்
சகோதரியை மணந்து கொண்டார் என்ற செய்தியானது
மாடபுரம் கலாசாலையில் சில நாட்களுக்குப் பெரிய
பரபரப்பை உண்டுபண்ணி விட்டது.</p>

<p>     ஜானகியுடன் இல்வாழ்க்கையை ஆரம்பித்த சந்தானம்
காலம் செல்லச் செல்ல அவளது இனிமையான குணத்திற்கு
அடிமையாகிவிட்டார்.   ஸ்திரீகள் மனோ தத்துவத்தைப்
பற்றி அலசிப் புத்தக மெழுதிய அவருக்கு ஜானகியின் மனோ</p>

<p>பக்கம்:19
தத்துவம் புரியவேயில்லை. தன் கணவன் மற்றொரு
ஸ்திரீயை அவள் இறந்த பின்பும் இன்னும் மறக்கவில்லை
என்பதை உணர்ந்து அவர் எ஥ிர்பார்த்தபடி ஜானகி
பொறாமை உணர்ச்சி கொள்ளாமலிருந்தது விநோதமாகத்
தோன்றியது.  `ஸ்திரீகளின் மனப்பான்மைதான் எத்தனை
விசித்திரமானது?' என்று ஜானகியைக் குறித்துச் சிந்தித்துக்
கொண்டு உட்கார்ந்திருந்த சந்தானம் அவள் தமக்காக
வெகுநேரம் சமையற்கட்டில் காத்திருப்பதை உணர்ந்து
இடத்தை விட்டெழுந்திருந்தார்.</p>

<p>     சாப்பிட்டுக் கொண்டிருந்த அவர் திடீரென, "அப்படி~
யானால் இந்தப் புத்தகத்தை அவள் பெயருக்குச் சமர்ப்பணம்
செய்யச் சொல்கிறாய் அல்லவா?"   என்று கேட்டு அவள்
முகத்தைக் கூர்ந்து கவனித்தார்.</p>

<p>     "வாழ்க்கையில் தான்அன்பு கொண்டிருந்த ஒருவருக்கு
தாம் எழுதியுள்ள புத்தகங்களில் ஒன்றைச் சமர்ப்பணம்
செய்வது அந்த ஆன்மாவைக் கௌரவிப்பதாகும் அல்லவா?
இந்த கௌரவத்திற்கு அவள் எல்லா விதத்திலும் தகுந்தவள்
தான்" என்று ஜானகி அழுத்திச் சொன்னாள்.</p>

<p>     சலனமற்ற அந்த அழகிய முகத்தில் சாந்தமே நிலவி
இருந்தது சந்தானத்திற்கு அதிசயமாகிவிட்டது.</p>

<p>     இரண்டு மாதங்கள் சென்றன. அன்று இரவு வீடு வந்த
சந்தானம் போஜனத்திற்குப் பிறகு தனியே மாடியறையில்
ஏதோ படித்துக் கொண்டிருந்தார்.</p>

<p>     "உங்கள் புத்தகம் வெளிவந்துவிட்டது. பிரசுரகர்த்தரிட~
மிருந்து வந்த பார்சலை உடைக்க உங்கள் வரவிற்காகக்
காத்திருந்தேன்" என்று சிரித்த வண்ணம் ஜானகி அவர் முன்
ஒரு புத்தகப் பார்சலைக் கொண்டுவந்து வைத்தாள்.</p>

<p>     "நீயே உடைத்துப் பார்த்திருக்கலாமே" என்று
சந்தானம் அதை அவளிடமே கொடுத்தார்.</p>

<p>பக்கம்:20
     பார்சலைப் பிரித்துப் பளபளப்பான அட்டை கொண்ட
தன஥ு கணவன் எழுதிய புத்தகத்தை ஆவலுடன் கையில்
எடுத்துப் பிரித்துப் பார்த்தாள் ஜானகி. முதல் பக்கத்தைப்
படித்துப் பார்த்துவிட்டு, "இதென்ன?" என்று கூவினாள்
ஆச்சர்யத்தில்.</p>

<p>         `என் அன்புள்ள மனைவி ஜானகிக்கு'</p>

<p>என்று முதல் பக்கத்தில் அந்தப் புத்தகம் தனக்கே சமர்ப்~
பணம் செய்யப்பட்டிருந்ததைக் கண்ட அவள்,    "பங்கஜத்~
திற்குச் சமர்ப்பணம் செய்யப்போவதாகச் சொன்னீர்களே?"
என்று கலங்கிய கண்஖ளுடன் கேட்டாள்.</p>

<p>     "அப்பொழுது அப்படிதான் சொன்னேன். ஆனால்,
அதை அனுப்பும் பொழுது மனம் மாறிவிட்டது. என்னை
நேசிப்பதில் நீ பங்கஜத்தைவிட ஒருபடி உயர்ந்துவிட்டாய்.
தானே என் இருதயத்தில் தனியாக செலுத்த வேண்டு~
மென்ற பொறாமைக் குணத்துடன் பங்கஜம் என்னைக்
காதலித்தாள். நீயோ, நான் பங்கஜத்தை இன்னும் மறக்க~
வில்லை என்பதை அறிந்துகூடப் பொறாமையின்றி என்மீது
பாசம் கொண்டிருக்கிறாய்.  உனது தூய அன்பிற்குக்
கேவலம் ஒரு புத்தகத்தைச் சமர்ப்பணம் செய்து கௌர~
வித்தது ஈடாகாது என்பது உண்மைதான், ஜானகி!
பெண்கள் காதல் விஶயத்தில் பொறாமைக்குணம் படைத்த~
வர்கள் என்று சாதாரணமாக புருஶர்களிடம் நிலவியிருக்கும்
தப்பு அபிப்பிராயத்தை எதிர்த்து, உன்னைப் போன்ற குணம்
படைத்த ஸ்திரீ ரத்தினங்களும் உண்டு என்பதைப்பற்றி
எனது அடுத்த புத்தகத்தில் எழுதப் போகிறேன். அதில் என்
கதாநாயகி நீதான்" என்று கூறிக்கொண்டு உணர்ச்சி
ததும்ப அவளுடைய முகவா௟்க் கட்டை௟ை நிமிர்த்தி அவள்
முகத்தை நோக்கினார்.</p>

<p>     ஜானகியின் பவழ உதடுகளில் அவளுக்கே உரித்தான
மோகனப் புன்னகையொன்று தவழ்ந்துகொண்டிருந்தது.</p>

<p>பக்கம்:21
		  கடவுள் கொடுத்தார்</p>

<p>     கட்டிலின்மீது படுக்க மனமின்றி அலுமேலு
அம்மாள் எழுந்திருந்தாள். வார்டுக்கு முன்புறமிருந்த
வராந்தாவில் வந்து நின்று கொண்டு வெளியுலகத்தை
வேடிக்கை பார்க்கலானாள். நோயாளியைக் காண
வந்திருந்த உறவினர்கள் பலரும் வெளியே சென்றுவிடவே
கூச்சலும் குழப்பமுமாக இருந்த வார்டு சில நிமிஶங்களில்
பரிபூரணமான அமைதியை அடைந்துவிட்டிருந்தது.
கோடிக் கட்டிலில் படுத்திருந்த ஒரு நோயாளி வாய் ஓயாது
இருமிக் கொண்டிருந்தாள். வராந்தாவில் அங்கு~
மிங்கும் அடிக்கொரு தடவை சென்று கொண்டிருந்த
நர்ஸ்களின் பாதரக்ஷை `டக் டக்' என்று ஒலித்துக்
கொண்டிருந்ததைத் தவிர, வார்டு ஒரே நிசப்தத்தில்
மூழ்கியிருந்தது.</p>

<p>     அந்தி மயங்கும் சூரிய வெளிச்சத்தில் ஆஸ்பத்திரியின்
இரண்டாவது தளத்திலிருந்து பார்த்துக் கொண்டு நின்ற
அலுமேலுவின் கண்களுக்கு நகரத்து மாடமாளிகைகள்
யாவும் சிறு சதுரக் கற்களின் கூட்டம் போன்று காட்சி~
யளித்தன.  சிந்தனை பல செய்தவாறு தூரத்தில் தெரிந்த
பூதேச்வரர் கோயில் கோபுரத்தின் உச்சியை நோக்கிய
அவள் பெருமூச்செறிந்தாள்.   அன்று வெள்ளிக்கிழமை.
கோவிலில் பூஜை அமர்க்களப்பட்டுக் கொண்டிருக்கும்.</p>

<p>     மூன்று குழந்தைகளுடன் இளம் விதவையான அவள்
இருபது வருஶங்களுக்கு முன் நகரத்திற்குப் பாடுபட்டுப்
பிழைக்க வந்திருந்தாள். உற்றார் உறவினர் அற்ற அவள்,
தன்னை ஆதரித்துக் காக்க பூதேச்வரர் ஒருவரே உற்ற</p>

<p>பக்கம்:22
துணைவன் என்றுதான் எண்ணிக்கொண்டு வந்தாள்.
இருபது வருஶ வாழ்க்கையில் ஒரு நாள்கூட அவள்
கோவிலுக்குச் செல்லாதிருந்ததில்லை. காலையிலும் மாலை~
யிலும் தன் மீது கருணை காட்டும்படி மனமுருக அந்த
ஈச்வரரை அவள் பக்தி சிரத்தையுடன் வழிபட்டு வந்தாள்.
ஆனால் அலுமேலு விஶயத்தில் பூதேச்வரர் கருணையற்ற~
வராக இருந்துவிட்டார்! இருபது வருஶ வாழ்க்கையிலே
துயரம், துன்பம், தரித்திரம் என்பவற்றைத் தவிர வேறு
ஒன்றையும் அவள் கண்டதில்லை.   எனவே, சலித்துப் போன
அவளுக்கு அன்று தெய்வத்தின் மீது நம்பிக்கை குறைந்து
மனம் இடிந்து போயிருந்தது.</p>

<p>     "தெய்வம்! எ஥்தனை உள்ளன்புடன் வழிபட்டேன்!
என்னத்தைக் கொடுத்தார்!" எனத் தனக்குள்ளே
எண்ணிப் பெருமூச்செறிந்த அலுமேலு வெறுப்புடன்
வராந்தாவிலிருந்து திரும்பிவந்து கட்டிலின்மீது உ஠்கார்ந்து
கொண்஼டாள்.</p>

<p>     ஊருக்கு வந்த புதிதில் அலமேலு பெரிய மனிதர்
ஒருவர் வீட்டில் சமையல் செய்யும் வேலையை ஏற்றுக்
கொண்டு, கிடைத்த சொற்ப வருவாயில் மூன்று குழந்தை~
களை வைத்துப் போஶித்துக் கொண்டிருந்தாள்.    இருந்த
வரை, அந்த வீட்டு உத்தியோகத்தைக் குறித்து அவள்
குறைபட்டுக்கொள்ள முடியாதவாறு அந்த வீட்டு எஜமானி
அவளை மிகவும் கண்ணியமாகத்தான் நடத்தினாள்.
மூத்த பிள்ளை சங்கரன் எட்டு வகுப்பு வரையில்
படித்துவிட்டுப் பதினேழாம் வயதில் ஜவுளிக்கடை
ஒன்றில் வேலைக்கமர்ந்துவிட்டான். மாதம் நாற்பத்தைந்து
ரூபாய் சம்பாதித்த அவனால் அலமேலுவின் குடும்ப
பாரம் சிறிது குறைந்஼தது என்றே சொல்லவேண்டும்.</p>

<p>     அடுத்த பிள்ளை நீலகண்டன் எஸ்.எஸ்.எல்.ஸி.
வரை படித்துவிட்டு, கம்பெனியொன்றில் `டைப்'
அடிக்கும் உத்தியோகத்தில் அமர்ந்திருந்தான். முதல்</p>

<p>பக்கம்:23
மாதம் அவன் வீட்டிற்குக் கொண்டு வந்த சம்பளம்
எழுபத்தைந்து ரூபாய்களைக் கையில் வாங்கிய அலமேலு
தனது தரித்திரமே தீர்ந்து விட்டதென்ற மகிழ்ச்சியில்
ஆனந்தக் கண்ணீர் உகுத்தாள்.</p>

<p>     மூன்றாவது பெண் கடைக் குட்டி-அலமேலுவின்
ஆசைக்கு உகந்த புத்திரி-காமாக்ஷிக்கு வயது பதினான்கு
ஆகிக்கொண்டிருந்தது.   மடமடவென்று வளர்ந்து
நிற்கிறாளே, கல்யாணத்திற்கு வழி செய்ய வேண்டுமே
என்று அவள் கவலை கொண்டிருந்த சமயம் அலமேலுவைத்
துன்பம் தொடர ஆரம்பித்தது. தினமும் அலுக்காது
விடியற்காலை ஐந்து மணிக்கே எழுந்து ஸ்நானம் செய்து
விட்டு வேலைக்கு ஓடி வழக்கப்பட்டிருந்த அலமேலு ஒரு
நாள் திடீரென்று ஜீரத்தில் படுத்துவிட்டாள்.</p>

<p>    எஜமானி மிகவும் நல்லவள்; எனினும் அவளால் ஒரு
மாத காலம் சமையற்காரியில்லாது காலங் கடத்த  முடிய~
வில்லை. அலமேலு அம்மாளுக்கு ஒரு  மாதச் சம்பளத்தை
முன் பணமாகக் கொடுத்துக் கணக்குத் தீர்த்துவிட்டு
அவள் வேறு ஒரு சமையற்காரியைத் தேடிக்கொண்டு
விட்டாள். வேலை போன துக்கத்தை அலமேலு மறக்கு~
முன் இன்னொரு பெரிய கஶ்டமும் வந்து சேர்ந்தது.
ஆபீஸிலிருந்து திரும்பி வந்துகொண்டிருந்த நீலகண்டன்
கார் விபத்துக்குள்ளாகிக் கால் எலும்பு உடைந்து
ஆஸ்பத்திரிக்கு எடுத்துச் செல்லப்பட்டான். மூன்று மாத
காலம் நோயாளியாக ஆஸ்பத்திரியில் சிகிச்சை பெற்றுக்
கொண்டு வந்த நீலகண்டன் மீண்டும் எழுந்து முன்போல்
நடப்பானா, அல்லது வாழ்நாள் முழுவதும் நொண்டியாகப்
போய் விடுவானா என்ற திகிலில் அலமேலு அம்மாள்
ஏங்கிக் கொண்டிருந்தாள். ஆஸ்பத்திரி, கோவில், வீடு
என்று மாறி மாறி ஓய்ச்சலின்று அலைந்து கொண்டிருந்த
அவள் ஒவ்வொரு நிமிஶமும் தனது மகனைக் காக்க
பூதேச்வரரைத்தான் நம்பியிருந்தாள். கால் குணமாகி
மைந்தன் முன் போல் திரும்ப நடந்தால் பூதேச்வரருக்கு</p>

<p>பக்கம்:24
வெள்ளியால் கால் ஒன்று செய்து காணிக்கை செலுத்துவ~
தாகப் பிரார்த்தித்துக் கொண்டிருந்த அவள் அதற்காக ஐந்து
ரூபாய்களை எடுத்து மஞ்சள் துணியொன்றில் முடிபோட்டு
பத்திரமாகப் பெட்டியில் வைத்திருந்தாள்.</p>

<p>     ஆஸ்பத்திரியிலிருந்து அனுப்பப்பட்ட நீலகண்டன்
பூரண குணமடைந்து விடவில்லை.     காலை நன்றாக ஊன்றி
நடக்கப் பயந்தவன் போல் சிறிது தயங்கி நொண்டிக்
கொண்டுதான் நடந்தான்.  நாளாவட்டத்தில் கால்
சரியாகிவிடும் என்று டாக்டர் கூறியிருந்ததனால்,
அலமேலு ஒருவாறு சமாதானம் அடைந்திருந்தாள்.
நோயாளியாகப் படுக்கையிலிருந்து நீலகண்டன் மிகவும்
இளைத்துத் துரும்பாகிப் போயிருந்தான். அவனை மீண்டும்
ஆரோக்கிய நிலைக்குக் கொண்டுவர, பாலும் பழரஸமும்
எதேஶ்டமாக வாங்கிக் கொடுக்க  வேண்டியிருந்தது. சங்கரன்
ஒருவனுடைய சம்பளத்தையே எதிர்பார்த்துக்கொண்டு நின்ற
அலமேலுவால் நீலகண்டனுக்குத் தேவையான போஶனை
களைச் செய்ய முடியவில்லை.  இரண்டு நாளைக்கு ஆரஞ்சுப்
பழங்கள் வாங்கிக் கொடுக்கவாவது இருக்கட்டும் என்ற
எண்ணத்தில் அவள் தனது அலுப்பைப் பொருட்படுத்தாது
ஒரு வீட்டிற்கு ஒரு நாள் விருந்து சமையலில் உதவி செய்யப்
போயிருந்தாள்.</p>

<p>     வேலையை முடித்துக்கொண்டு வீடு திரும்பிய அன்று
அவளுக்கு குளிரும் ஜீரமும் குமுறிக்கொண்டு வந்து
விடவே கீழே படுத்துவிட்டாள்.</p>

<p>     "இது நிமோனியா ஜீரம். ஆஸ்பத்திரியில்
அனுமதித்தாக வேண்டும்"   என்று டாக்டர் கூறி விடவே
அலுமேலு அம்மாள் மறுத்தும் பிடிவாதமாகத் தாயாரை
ஆஸ்பத்திரியில் கொண்டுபோய் பிள்ளை சேர்த்துவிட்டான்.</p>

<p>     ஆஸ்பத்திரியில் தங்கியிருந்த அந்த ஏழு தினங்களில்
அவளது    நினைவு முழுவதும் வீட்டிலேதான் இருந்தது.</p>

<p>பக்கம்:25
"குழந்தை காமாக்ஷி வீட்டு வேலை எல்லாவற்றையும்
செய்யச் சாத்தியப்படாது களைத்துப் போய்விடுவாளே!
நீலகண்டன் நன்றாகச் சாப்பிட்டுத் தூங்கினானோ! கால்
சரியாக வேண்டுமே என்ற அக்கரை அந்த அசட்டுப்
பிள்ளைக்கு இல்லை. சங்கரன் பாவம், ஆபிசுக்குச் செல்ல
வேண்டுமே!    கையில் டிபன் எடுத்துச் செல்லாமல் பட்டினி
கிடந்து உடம்பைக் கெடுத்துக் கொண்டுவிடப்
போகிறானே!"  என்றெல்லாம் கவலைப்பட்டுக் கொண்டிருந்~
தாள்.</p>

<p>     உடம்பு சிறிது குணமாகி அவள் எழுந்து நடமாட
ஆரம்பித்ததும் இரண்டு நாளைக்கு முன் சங்கரன் அவளைக்
காணவந்த பொழுது சொன்ன செய்தி அவளைத்
திடுக்கிட வைத்ததோடல்லாமல் பெரிய கிலியில் ஆழ்த்தி
விட்டது. சங்கரன் வேலை பார்த்து வந்த துணிக்கடையை
நஶ்டத்தினால் முதலாளி மூடிவிடவே, சங்கரன் ஒரு வார~
மாக வேலை இல்லாது திண்டாடிக் கொண்டிருந்தான்.</p>

<p>     அடுத்த நாள் காலையில் காப்பியை எடுத்துக்
கொண்டு தாயைப் பார்க்கவந்த சங்கரன், "ஒரு ஐந்து
ரூபாய் இருந்தால் தேவையம்மா!   போட்டுக் கொள்ளச்
சட்டை ஒன்றுகூடச் சரியாக இல்லை. வேலை தேடுமிட஼த்~
திற்குக் கிழிந்த சட்டையைப் போட்டுக்கொண்டு போக
வெட்கமாய் இருக்கிறது.  சுத்தமான ஆடைகள் இல்லா
விட்டால் வேலைகூடக் கிடைக்காது போலிருக்கிறது"
என்று வருத்தப்பட்டுக் கொண்டான்.</p>

<p>     தனக்கு உடுத்திக்கொள்ளக் கூட நல்ல ஆடைகள்
இன்றிக் குடும்பத்திற்காக உழைத்துப் போட்ட தனது
மூத்த குமாரனை நிமிர்ந்து பார்த்த அலமேலு அம்மாளுக்கு
அழுகைவந்து விட்டது.</p>

<p>     பூதேச்வரர் அவளை ஏன் இப்படிச் சோதனை செய்~
கிறார்! உண்மையில் சோதனையா இது இல்லை, இல்லை.
தெய்வம் வஞ்சனை செய்கிறது! கருணையற்ற கடவுள்!</p>

<p>பக்கம்:26
இதுவரை பூரண அன்புடன் வழிபட்டு வந்த அவளுக்கு
கடவுள் என்னத்தைக் கொடுத்தார்? துயரத்தைதான்
கொடுத்தார்! பூதேச்வரருக்குக் காணிக்கை ஒன்று தான் இந்த
லக்ஷணத்தில் பாக்கியாக இருந்தது!" என்று தனக்குள்
எண்ணி, தெய்வத்தின்மீது கோபமும் விரக்தியுமடைந்தாள்
அலமேலு அம்மாள்.     பெட்டியிலிருந்த மஞ்சள் துணியில்
முடிந்து வைத்திருந்த காணிக்கைப் பணத்தை மறுநாள்
பிள்ளையை எடுத்து வரச் சொல்லி, அதைச் சங்கரனிடம்
கொடுத்துச் சட்டை தைத்துக் கொள்ளச் சொல்வது என்று
அவள் தீர்மானித்துக் கொண்஼டாள்.</p>

<p>     சூரியன் அஸ்஼தமித்து இருள் நன்றாகப் பரவி விடவே,
ஆஸ்பத்திரி விளக்குகள் யாவும் ஏற்றப் பட்டுவிட்டன.
மேஜைமீது நர்ஸ் கொண்டு வந்து வைத்த பாலை வெறுப்~
புடன் ஒரே வாயில் குடித்து விட்டுப் படுக்கையின் மீது சாய்ந்த
வாக்கில் உட்கார்ந்து கொண்டிருந்த அலமேலு அம்மாள்,
அது சமயம் வார்டிலே பரபரப்பு ஏற்பட்டிருப்பதைக் கவனித்~
தாள். வார்டுக்கு எதிர்ப்புறமாக இருந்த மூன்று அறைகளில்
முதல் அறைக்குள் ஆஸ்பத்திரியின் பெரிய டாக்டர், தனது
பெருத்த உடலையும் பொருட்படுத்தாது அவசரமாக
நுழைவதையும், பின்னால் நர்ஸ் ஒருத்தி கை துடைக்கும்
துண்டையும், மருந்து நீர் கொண்டபீங்கான் கிண்ணத்தையும்
எடுத்துக்கொண்டு ஓடுவதையும் கவனித்த அலமேலு தனது
கவலைகளை மறந்து வியப்புடன் எழுந்து உட்கார்ந்தாள்.
பக்கத்திலிருக்கும் மற்ற நோயாளிகளின் க்ஷேமலாபங்களைப்
பற்றி அறிய இயற்கையாகவே ஒவ்வொரு நோயாளியின்
மனத்திலேயும் தோன்றும் அந்த ஆவல் அலமேலு அம்மா~
ளுக்கும் ஏற்பட்டது. "அந்த அறையிலே என்ன? யாருக்கு
என்ன நோய்?" என்று இரண்டொரு நோயாளிகள் வாய்
விட்டு விசாரித்தார்கள்.</p>

<p>     "உஸ்! பெரிய டாக்டர் உள்ளே போயிருக்காங்க,
உரக்கப் பேசாதீங்க!" என்று அதட்டிய ஆயாள், `டவுனிலே
பொம்மனாட்டி காலேஜ் இருக்குதே! அதற்கு பிரின்ஸிபாலு</p>

<p>பக்கம்:27
வேலை பார்க்கிற அம்மாதான் சீக்காப் படுத்திருக்காங்க.
கோகிலாம்பான்னு பேரு. வயசு பாவம் அதிகம் ஆகலை.
நாற்பத்தஞ்சுதானிருக்கும். அம்மாவுக்கு புருஶன், பிள்ளை
பொண்ணு எல்லோரும் இருக்காங்க. காலேஜ் பக்கத்~
திலேயே அந்த அம்மாவுக்குச் சொந்த பங்களாகூட ஒண்ணு
இருக்குதாம். எது இருந்தென்ன? ஆயுசுதான் இல்லாது
வச்சுட்டான், பகவான்" என்றாள் மெல்லிய குரலில்.</p>

<p>     "அது என்ன சீக்கு அப்படி? காலையிலே தானே
கொண்டு வந்து சேத்தாங்க? அதுக்குளே என்ன வந்திடுச்சு
அபாயம்?"   என்று வினவினாள் இன்னொரு நோயாளி
ஆவலுடன்.</p>

<p>     "அந்தம்மா உடம்பைப் போன வருஶமே கவனிச்~
சிட்டிருக்கணும். கொஞ்சம் ரெஶ்டு கிஶ்டு எடுத்துக்~
கிட்டிருந்தா இப்படி சீக்கு முத்தியே இருக்காதாம்! போன
வருஶம்தான் ஏராளமா செலவு செய்து பெண்ணைக் கட்டி
கொடுத்தாங்களாம்.   பையனுக்கு இரண்டு மாசத்துக்கு
முந்திதான் கல்யாணம் ஆச்சுதாம். மருமகப் பொண்ணு
அழகா ரதிபோல இருக்கிறாள்!   இதையெல்லாம் அனுப~
விக்கக் குடுத்து வைக்கல்லை, இருதயம் ரொம்பக் கெட்டுப்
போச்சு.  இனிமேலே கேஸ்   தேறுகிறது ஆச்சர்யந்தான்"
என்று விவரமாகக் கூறிவிட்டு ஆயாள் அவ்விடத்தை விட்டு
சென்றாள்.</p>

<p>     பெரிய டாக்டர் அறையை விட்டு வெளியே சென்றதும்
அந்த வார்டில் பரபரப்பு அதிகரித்தது; நர்ஸ்கள் ஏதேதோ
அலுவலுடன் அந்த அறைக்குள்ளே போய் வெளியே வந்த
வண்ணமாக இருந்தனர்.   சிறிது நேரத்தில் அந்த அறையை
நோக்கி நாலைந்து பேர்கள் வராந்தாவில் வந்து கொண்டி~
ருந்தனர்.</p>

<p>     வந்தவர்களில் நடுத்தர வயதான மனிதர் அந்த
அம்மாளின் கணவராக இருக்கவேண்டும் என்று ஊகித்துக்</p>

<p>பக்கம்:28
கொண்டாள் அலமேலு.      சாயலில் ஏறக் குறைய ஒருவரை~
யொருவர் ஒத்திருந்த இளநங்கையும் யுவனும் அந்த
அம்மாளின் புத்திரனும், புத்திரியாகவும் இருக்க வேண்டும்
என்று நினைத்தவள் தயங்கியபடி பின்னால் வந்து
கொண்டிருந்த இருவரில் புஶ்கோட் தரித்திருந்த ஆசாமி
அம்மாளின் மருமகனாகவும், நீலப்பட்டுப் புடவை தரித்திருந்த
பெண் அந்த அம்மாளின் ரதிபோன்ற நாட்டுப் பெண்ணாகவும்
இருக்க வேண்டுமென்று ஊகித்துக் கொண்டாள்.</p>

<p>     அறைக்குள்ளே ஒருவர்பின் ஒருவராகச் சென்ற அவர்கள்
சிறிது நேரத்தில் வெளியே ஒருங்கே வந்து வராந்தாவில்
நின்று கொண்டனர். உயிருக்கு மன்றாடிக்கொண்டு உள்ளே
படுத்திருந்த அந்த நோயாளியைத் தரிசித்த பின்பு அவர்கள்
ஒருவர் முகத்திலும் சிறிதளவுகூடத் துயரத்தின் சாயல்
காணப்படவில்லை அதைக் கண்டு அலமேலுவுக்கு ஆச்சர்ய~
மாகத்தானிருந்தது.</p>

<p>     "இப்பொழுது என்ன செய்யலாம்?" என்று கீச்சுக்
குரலில் கழுத்திலிருந்த வைர நெக்லெஸைத் தடவிக்
கொண்டு கேட்டாள் புத்திரி, தனது கணவனிடம், அவன்
கூறிய பதில் அலமேலுவுக்குக் கேட்கவில்லை.   "வீட்டிற்குப்
போக வேண்டும் முதலில்"   என்று கடைக்கண்ணால் ஜாடை
செய்தாள், நீலப் புடவைத் தலைப்பை விசிறிக் கொண்டு
நடந்துவந்த நாட்டுப் பெண் தன் கணவனிடம். மறு
நிமிஶம் அவர்கள் அங்கிருந்து புறப்பட்டுக் கீழே இறங்கிச்
சென்றனர்.</p>

<p>     சற்று நேரத்துக்கெல்லாம் மாதாகோவில் மணி
பத்தடித்தது. வார்டில் அதிகப்படி எரிந்த பிரகாசமான
விளக்குகளை அணைத்துவிட்டு நர்ஸ் ஒரு ஸ்வெட்டரை
கையில் எடுத்துக்கொண்டு வார்டின் மறு கோடியில்
தைக்க உட்கார்ந்து விட்டாள்! `கொர் கொர்' என்று
குறட்டை விட்டுக்கொண்டு பக்கத்துக் கட்டிலில் படுத்~
திருந்த நோயாளி ஆனந்தமாகத் தூங்கிக் கொண்டிருந்~
தாள். படுக்கையிலே தலை சாய்ந்த அலமேலு அம்மாளுக்குத்</p>

<p>பக்கம்:29
தூக்கம் வர மறுத்தது. வெகு நேரம் படுக்கையில்
புரண்டு விட்டு மெல்ல எழுந்து வராந்தாவிற்கு
வந்தாள்.</p>

<p>     எதிர்ப்புறமிருந்த அந்த அறையின் கதவு சிறிது
திறந்தபடி இருந்தது. உள்ளே விளக்குஎரிந்து கொண்டிருந்த~
தைக் கண்ட அவள் தனது ஆவலைக் கட்டுப்படுத்த
முடியாதபடி, மெல்லச் சென்று அறைக்குள் எட்டிப் பார்த்~
தாள். நோயினால் முகமும் கால்களும் வீங்கிப் போய்,
பரிதாபகரமான நிலையில் தனது நினைவின்றிப் படுத்திருந்~
தாள் கோகிலாம்பாள்.   அவள் அருகே தூங்காது கண்
விழித்துக்கொண்டு உ஠்கார்ந்திருந்த கிழவி அலமேலுவை
மிகவும் அறிந்தவள் போல் தலையை ஆட்டிப் பெருமூச்செறிந்~
தாள். வாயிற்படியிலே நின்று பார்த்துக் கொண்டிருந்஼த
அலமேலுவுடன் ஏதோ பேச விரும்புகிறவள் போல் கிழவி
அறையை விட்டு வெளியே வந்தாள்.</p>

<p>     "கேஸ் தேறாதுன்னு சொல்றாங்களே?" என்று
மெல்லிய குரலில் வினவினாள் அலமேலு.</p>

<p>     "ராத்திரிக்குள்ளாவது நாளைக் காலையிலேயாவது
போயிடுமின்னு பெரிய டாக்டர் சொல்லி விட்டாரு. பாவம்,
ஒரு மாசத்துக்கு முந்தி காலேஜிலிருந்து வந்தவங்க நெஞ்சு
வலின்னு படுத்தாங்க. பிறகு எழுந்திருக்கவே இல்லை"
என்று அரற்றிய கிழவி, ஊதல் காற்றினால் சிலிர்த்த தன஥ு
உ஠லைப் புடவைத் தலைப்பால் நன்றாகப் போர்த்திக்
கொண்டாள்.</p>

<p>     "ஆமாம், இத்தனை நாளும் ஏன் சும்மா இருந்தாங்க?
ஏன் ஆஸ்பத்திரிக்குக் கொண்டுவந்து சேர்க்கவில்லை?" என்று
வினவினாள் அலமேலு.</p>

<p>    "சேர்த்துப்புட்டு நிதம், `வார்டு'க்குப் பத்துரூபா பணம்
யார் கட்டறது? வீட்டிலே வச்சுப் பார்த்தாப் போதுமின்னுட்஼டாங்க.</p>

<p>பக்கம்:30
ரொம்ப முத்திப் போகவே தூக்கிவந்து இங்கே
போட்டிருக்காங்க" என்றாள் கிழவி கோபத்துடன்.</p>

<p>    "பணங்காசுஇருக்கிறது என்று சொல்லிக் கொள்ளு~
கிறார்களே.  அப்படி இருந்துமா இங்கே வந்து சிகிச்சை
செய்யவில்லை?"  என்று வினவினாள் ஆ஛்சர்யத்துடன்
அலமேலு.</p>

<p>     "பணத்துக்கென்ன! நிறையத்தான் இருக்குது. உள்ளே
படுத்துக்கிடக்காளே அந்தம்மா, இன்னிக்கு வரையிலுந்தான்
சம்பாதிச்சுக்கிட்டு இருக்கா. என்ன இருந்தென்ன? எடுத்துச்
செய்ய மனுஶங்க இல்லையே?"</p>

<p>     கிழவி ஏதோநினைவாக இருந்தவள் போல் சற்றுமௌன~
மாக இருந்துவிட்டு மேலும் சொன்னாள்: "பெண்ணை
போன வருஶந்தான் கட்டிக்கொடுத்தாள்.   கல்யாணத்துக்கு
வைரமாலை வாங்கிப் போட்டாள் ஆசையோட, அம்மாவுக்கு
உடம்பு சுகமில்லைன்னு கடிதாசி போட்டதற்கு அந்தப்
பொண்ணு இன்னிக்குக் காலையிலேதான் புருஶனோட வந்து
இறங்கிச்சு, பிள்ளையை அதற்கு மேலே பிரியமா வளர்த்தா.
இஞ்ஜினியர் பரிட்சைக்குப் படிக்க வச்சு, அதுக்கும் இப்பத்~
தான் கல்யாணம் ஆச்சு. இந்தம்மா சம்பாதிச்ச பணத்திலே
தான் கல்யாணம், படிப்பு, சொந்த வீடு எல்லா சுகமும்
ஏற்பட்டது. இவ்வளவு செய்தும் யாருக்கும் துளி விசுவாசம்
இல்லையம்மா?...தாயார் சாகக் கிடக்கிறாங்க. பொண்ணும்
பிள்ளையும் விட்டுட்டுச் சாப்பிட்டு வர வீட்டுக்குப் போயிட்~
டாங்களே! சாப்பிடக்கூட மனசு தோணுமா?"    என்று கேட்~
டாள் ஆத்திரத்துடன் கிழவி.</p>

<p>     "ஆமாம்! நீ யாரம்மா? இந்தம்மா உனக்கு என்ன
வேண்டும்?"  என்று வினவினாள் அலமேலு.</p>

<p>     "இந்தம்மாவா?  எனக்கு என்ன வேணும்? ஒரு உறவு~
மில்லை. இவங்க வீட்டிலே பத்து வருஶமா நான் வேலை
செய்கிறேன். தங்கமான மனுஶி; போன வருஶம் பொங்க஼லுக்கு</p>

<p>பக்கம்:31
எனக்கு ஒரு சேலை எடுத்துக் கொடுத்தாங்க. இந்த
வருஶம்......" என்று கூறி முடித்துவிட்டுக் கிழவி தன்கண்~
களில் பொங்கிய கண்ணீரைத் துடைத்துக் கொண்டு உள்ளே
சென்றாள்.</p>

<p>     அலமேலு அம்மாள் விவரிக்க இயலாத வேதனை
நிறைந்த உள்ளத்துடன் கட்டிலின் மீது வந்து உ஠்கார்ந்~
தாள்.  அன்று இரவு முழுவதும் அவளுக்குத் தூக்கமே
வரவில்லை.</p>

<p>     மறுநாள் காலை விடிந்ததும் விடியாததுமாக வார்டிலே
மீண்டும் பரபரப்பு அதிகரித்தது. "ஸ்பெஶல் வார்டு
நோயாளி மிகவும் அபாய நிலையில் இருக்கிறாள்" என்று
டாக்டரும் நர்ஸீகளும் அந்த அறைக்கு நிமிஶத்திற்கு
ஒருவராக ஓடி அலைந்து கொண்டிருந்தனர். அறையை
விட்டுக் கடைசியாக வெளிப்பட்ட பெரிய டாக்டர் தலையைக்
குனிந்துகொண்டு விடுவிடு வென்று கீழே இறங்கிச் செல்~
வதைக் கண்ட வார்டு நோயாளிகள் ஆவலை தாளமுடியாது
அங்கே வந்த ஆயாளைச் சூழ்ந்துகொண்டு விசாரிக்கத்
தலைப்பட்டார்கள்.</p>

<p>     "கேஸ் போயிட்டதாம்மா?"</p>

<p>     "போயிட்டுது! இன்னும் அவங்க வீட்டிலிருந்து ஒருத்~
தரும் வரக்காணோம்!"    என்றாள் அவள் சலிப்புடன்.</p>

<p>     "போயிட்டுதா!"   என்று திகைப்புடன் கூறிய அலமேலு
படுக்கையினின்று எழுந்து வராந்தாவிற்கு வந்தாள். அது
சமயம் கோகிலாம்பாளின் உறவினர்கள் அங்கே வந்து
கொண்டிருந்தனர்.</p>

<p>     அறைக்குள் ஒருவர்பின் ஒருவராக நுழைந்து அவர்கள்
அனைவரும் சிறிது பொழுதில் வெளியே வந்தார்கள்.  கண்~
களில் அதிகமாகப் பூசியிருந்த மை எங்கே கண்ணீரால்</p>

<p>பக்கம்:32
கரைந்து நாசமாகி விடுமோ என்று அஞ்சுகிறவள் போல்,
புத்திரி நா஛ூக்காகக் கண் இமைகளை மூடித் திறந்து தனது
துயரத்தை வெளியிட்டுக் கொண்டாள்.    "இன்னும் எவ்வளவு
நேரம் இங்கே நிற்பது?" என்று அலுத்துக்கொள்கிறவள்
போல் முகத்தைச் சிணுங்கிக்கொண்டு மருமகள் நின்று
கொண்டிருந்தாள்.</p>

<p>     கோகிலாம்பாளின் உ஠ல் அங்கிருந்து அகற்றப்படும்
வரை வார்டிலிருந்த நோயாளிகள் அவளுடைய உறவினர்~
களைப் பற்றியே விமர்சனம் செய்தனர்.</p>

<p>     "அந்த வைர நெக்லெஸீக்காகவாவது ஒரு   குரல்
அம்மாவுக்கு அந்தப் பெண் அழுதிருக்கப்படாதா?"</p>

<p>     "ஆமாம்! நாளைக்கு இவங்க வயிற்றில் பிறக்கப்
போகிறது மட்டும் இவங்களுக்கு என்ன சாதிக்கப் போகிறது?
கல் நெஞ்சர்கள்! சே! நான் இப்படிப்பட்டவங்களைப்
பார்த்ததே இல்லை!"</p>

<p>     "இந்தக் கண்ணாலே நான் ஆயிரம் தினுசு கேஸ்களைப்
பார்த்திருக்கிறேன். இன்னும் பார்க்கப் போகிறேன். இது
மாதிரி யாரும் இருக்க மாட்டார்கள்!"</p>

<p>     அலமேலு ஒன்றும் பேசவில்லை.  ஆச்சர்யம், பிரமிப்பு,
ஏமாற்றம், திகில் என்ற பல்வேறு உணர்ச்சிகளுக்கும் ஒருங்கே
வசப்பட்ட அவள் எல்லாவற்றையும் மௌனமாக஼க் கவனித்துக்
கொண்டிருந்தாள்.</p>

<p>     அன்று சாயங்காலம் நோயாளிகளைக் காணவந்த
உறவினர்களின் கூச்சல் வார்டை இரண்டுபடுத்திக் கொண்~
டிருந்தது. பகலில் அவளைக் கவனிக்க வந்த பெரிய டாக்டர்
மறுநாள் காலை அவள் வீட்டிற்குப் போகலாம் என்று
கூறிவிடவே அலமேலு சிறிது மனச் சமாதானம் அடைந்திருந்~
தாள்.
    </p>

<p></p></body></text></cesDoc>