<cesDoc id="tam-w-socsci-culture-civil" lang="tam">
<cesHeader type="text">
<fileDesc>
<titleStmt>
<h.title>tam-w-socsci-culture-civil.txt</h.title>
<respStmt>
<respType>Electronic file created by</respType>
<respName>Central Institute for Indian Languages, Mysore</respName>
<respType>transferred into Unicode and CES format by</respType>
<respName>"Unicodify" software by Andrew Hardie</respName>
</respStmt></titleStmt>
<publicationStmt>
<distributor>UCREL (on behalf of CIIL)</distributor>
<pubAddress>Department of Linguistics, Lancaster University, Lancaster, LA1 4YT, UK</pubAddress>
<availability region="WORLD"></availability>
<pubDate>03-07-04</pubDate>
</publicationStmt>
<sourceDesc>
<biblStruct>
<monogr>
<h.title>பழந்தமிழர் பண்பாடும் நாகரிகமும்</h.title>
<h.author>லேனா தமிழ்வாணன்</h.author>
<imprint>
<pubPlace>India</pubPlace>
<publisher>Unknown - Book</publisher>
<pubDate>1982</pubDate>
</imprint>
<idno type="CIIL code">civil</idno>
</monogr></biblStruct></sourceDesc></fileDesc>
<encodingDesc>
<projectDesc>Text collected for the CIIL Corpus, subsequently integrated into the EMILLE/CIIL Monolingual Written Corpora.</projectDesc>
<samplingDesc>Simple written text only has been transcribed. Diagrams, pictures and tables have been omitted. Sampling begins at page 43.</samplingDesc>
<editorialDecl><conformance level="1"></conformance></editorialDecl>
</encodingDesc>
<profileDesc>
<creation><date>03-07-04</date></creation>
<langUsage>Tamil</langUsage>
<wsdUsage>
<writingSystem id="ISO/IEC 10646">Universal Multiple-Octet Coded Character Set (UCS).</writingSystem>
</wsdUsage>
<textClass>
<channel mode="w">print</channel>
<constitution type="composite"></constitution>
<domain type="public"></domain>
<factuality type="fact"></factuality>
</textClass>
<translations></translations>
</profileDesc>
<revisionDesc></revisionDesc>
</cesHeader>

<text><body>

<p>-5-</p>

<p>	எந்தவொரு நாட்டினருக்கும் தனித்ததொரு மொழி 
இருப்பதுபோல் தனித்ததொரு கலையுண்டு  . தனித்ததொரு
கலை இருப்பதுபோல் தனித்ததொரு கலாச்சாரம் உண்டு. 
கலாச்சாரம் இருப்பதுபோல் நாகரிகமும் உண்டு. நாகரிகம் 
இருப்பதுபோல் பண்பாடும் உண்டு. </p>

<p>	எந்தவொரு நாட்டினருக்குத் தனித்த மொழியோ, 
கலையோ, கலாச்சாரமோ, நாகரிகமோ, பண்பாடோ 
இல்லையெனில் அந்தவொரு நாட்டை எந்தவொரு     நாடும் 
மதிக்காது. உலக அரங்கிலும் எந்தவொரு தனித்த 
இடத்தையும் அதற்கு அளிக்காது. </p>

<p>	ஆகவேதான் எந்தவொரு நாட்டினரும் தங்களது
மொழியை, கலையை, கலாச்சாரத்தை, நாகரிகத்தைப் 
பண்பாட்டைத் தங்களது உயிரினும் மேலாகக் காத்து 
வருகிறார்கள்.</p>

<p>பாரம்பரியப் பெருமை</p>

<p>	மொழி, கலை, கலாச்சாரம், நாகரிகம், பண்பாடு 
ஆகியவை இன்றோ,    நேற்றோ அல்லது முந்தைய நாளிலோ 
ஏற்பட்டதல்ல; ஏற்படக்கூடியதும் அல்ல; அது ஆண்டுக்஼கணக்கில்,
-6-
அதுவும்  கணக்கிற்கு எட்டாத காலக்கட்டத்தில் 
தோன்றியவையாகும். ஆகவேதான், ஒவ்வொரு நாட்டினரும் 
தங்கள் தங்களது மொழியை, கலையை, கலாசாரத்தை, 
நாகரிகத்தை, பண்பாட்டை தங்களது பரம்ப஼ரைச் சொத்~  
தாகக் கருதுகிறார்கள். </p>

<p>	`இத்தனை நூற்றாண்டுகள் பழமை மிக்கது எங்களது 
மொழி; வரலாற்றுக் காலகட்டத்திற்கும் முந்தியது 
எங்களது நாகரிகம்' என ஒவ்வொரு நாட்டினரும் பாரம்~
பரியப் பெருமை கொண்டாடுகிறார்கள். </p>

<p>	இப்படிப்பட்ட மொழியும், கலையும், கலாச்சராரமும், 
நாகரிகமும், பண்பாடும் காலங் காலமாக வளர்ந்து 
கொண்டும், காலத்திற்கேற்றவாறு மாற்ற஼ங்கொண்டும் 
திகழலாமே தவிர, என்றும் முற்றிலும் அழிந்துவிட விட்டு
விடக் கூடாது. </p>

<p>மொழி</p>

<p>	இதில் மொழி மட்டும் காலத்திற்கேற்றவாறு, சூழ்நிலை~
களுக்கேற்றவாறு தன்னை மாற்றிக்கொண்டும், அதே 
நேரத்தில் தன்னை வளர்த்துக்கொண்டும் வரலாம். அது
ஒரு மொழியை-அம் மொழியைச் சார்ந்த பலர் ஆதரிப்ப~
தைப் பொறுத்தும், வளர்ப்பதைப் பொறுத்தும், மொழியின் 
அடிப்படையைப் பொறுத்தும், அமையக்கூடியதாகும். </p>

<p>	அதே நேரத்தில் ஆதரிப்பாரின்றி, வளர்ப்பாரின்றி ஒரு 
மொழி அழியலாம். பிற மொழியின் வளர்ச்சியை எதிர்க்க 
வலுவின்றியும் ஒரு மொழி அழியலாம். அவ்வாறு அழிந்தா~
லும் அம்மொழியின் வரலாறுபற்றி என்றும் இவ்வுலகம் 
பேசும். </p>

<p>	இதில் கலை, கலாச்சாரம், நாகரிகம் அப்படிப் பட்டவை~
யல்ல. காலத்திற்கேற்றவாறு சூழ்நிலைக்கு ஏற்றவாறு 
மாறுபடுமே தவிர, வேறுபடுமே     தவிர, எக்காலத்திலும்
என்றும் அழிந்து விடுவதில்லை. அழியக் கூடியதும் அல்ல. </p>

<p>-7-
	இவ்வாறு வேறுபடும்போது, மாறுபடும்போது அதது 
அந்தந்தக் காலகட்டத்திற்குரிய கலை, கலாச்சாரம், 
நாகரிகம் எனப் பெயர்பெறுமே தவிர, அதனதன் பெருமை 
சற்று உயருமே தவிர நிச்சயமாக அவை என்றும் 
தாழ்ந்ததும் இல்லை. தாழப்஼போவதும் இல்லை. </p>

<p>	இவ்வாறு மொழியும், கலையும், கலாச்சாரமும், 
நாகரிகமும் காலத்திற்கேற்றவாறு, சூழ்நிலைகளுக்கேற்றவாறு 
மாற்றம் பெறுகிறது. மாற்றம் பெற்று வளர்ச்சி பெறவும் 
செய்கிறது. நோயுற்றது வீழ்ச்சி பெறவும் செய்கிறது. </p>

<p>பண்பாடு</p>

<p>	ஆனால் பண்பாடு மட்டும் காலத்திற்கேற்றவாறு 
மாறுவதும் இல்லை, தன்னை இது மாற்றிக்கொள்வதும் இல்லை. 
அழிவதும் இல்லை. எவரும் அழிக்க எண்ணுவதும் இல்லை. 
எவரேனும் அழிக்க எண்ணினாலும் அவரே அதற்குப் பலியாகி 
விடுவதையும் நாம் காணுகின்றோம். </p>

<p>பின்னிப் பிணைந்தவை</p>

<p>	பிறக்கும்போது ஒருவன் பண்போடு பிறக்கிறான். 
மொழியோடு உறவாடுகின்றான். கலையோடு வளர்கின்றான்.
கலாச்சாரத்தோடு வாழ்கின்றான். நாகரிகத்தோடு உறவாடு~
கின்றான். ஆகவேதான் மொழி, கலை, கலாச்சாரம், நாகரிகம், 
பண்பாடு ஆகியவை பெயரவில்தான்- பொருளளவில்~
தான் வேறுபடலாமே தவிர அவை என்றும் ஒன்றோ~
டொன்று, இணைந்தவை-பின்னிப் பிணைந்தவையாகத் திகழ்~
கின்றன. </p>

<p>நிறைய உண்டு</p>

<p>	இப்படிப்பட்ட கலையும், கலாச்சாரமும், நாகரிகமும், 
பண்பாடும் நமக்கு மட்டும் இல்லையா? நம் நாட்டில் 
எந்த அளவுக்கு இருக்கிறது என்று கேட்கலாம். 
-8-
நிறைய உண்டு. ஏராளம் உண்டு. எழுதுவதற்஖ு ஏடுகள்தாம் 
போதா. </p>

<p>	நம்நாட்டு மொழியாகட்டும், கலையாகட்டும், கலாச்~
சாரமாகட்டும், நாகரிகமாகட்டும், பண்பாட்டாகட்டும், ஒரு 
நூற்றாண்டு, இரு நூற்றாண்டுக்குரியதல்஼ல; எத்தனையோ 
நூற்றாண்டுகளுக்குரிய பரம்பரைப் பெருமை படைத்த~
வையாகும். </p>

<p>		பண்பாடு என்பது என்ன?
	`பண்பாடு' என்பது குணச்சிறப்பு எனப் பொருள்படும். 
தனிமனிதனது குணச்சிறப்பைப் புலப்படுத்துவதே பண்பாடு 
எனப்படும். `பண்பெனப்படுவது பாடறிந்து ஒழுகுதல்' 
என்பர் ஆன்றோர். </p>

<p>குறைந்தவர்களில்லை</p>

<p>	இத்தகைய குணச்சிறப்பை உணர்த்தும் பண்`~
பாட்டை  எப்போது நாம் பெற்றோம்? எவ்வாறு 
நாம் பெற்றோம்? எவராவது கூற இயலுமா?   இது 
காலங் காலமாக, தொன்று தொட்டு வருகின்ற ஒன்றாகும். 
நம்மோடு பிறந்த ஒன்றாகும். இத்தகைய பண்பாட்டைப் 
பெற்ற நாம் மொழியில் மட்டும் குறைந்தவர்களா? கலை, 
கலாச்சாரம், நாகரிகம் போன்றவற்றில் மட்டும் குறைந்தவர்~ 
களா? இல்லை, எதிலும் நாம் குறைந்தவர்களில்லை. உலகி~
லுள்ள எந்தவொரு நாட்டினரது மொழியோடும் கலை~
யோடும் கலாச்சாரத்தோடும் நாகரிகத்தோடும்- நம்
மொழியை, கலையை, கலாச்சாரத்தை, நாகரிகத்தை
ஒப்பிட்டாலும், நம் மொழியும், கலையும், கலாச்சாரமும் 
நாகரிமும் அவற்றிலும் ஒருபடி உயர்ந்து நிற்குமே தவிர, 
நிச்சயமாகத் தாழ்ந்துவிடாது. 
-9-
பண்பாடு
	பொதுவாகத் தமிழர்கள் பண்பாடு மிக்கவர்கள் என்று 
சொல்லுகின்றோம். எவ்வாறு? எதனைக்கொண்டு சொல்லு~
கின்றோம்? பழந்தமிழன் இலக்கியங்களுக்கு மட்டும் இலக்~
கணம் வகுத்து, தான்மட்டும் ஒதுங்கிக்கொள்ள எண்ண~
வில்லை. தனக்கும் அதாவது தனது வாழ்விற்கும் இலக்கணம் 
வகுத்துக் கொண்டான் என்றே சொல்லவேண்டும். இவ்~
விலக்கணமே பண்பாடு மிக்க இனிய வாழ்க்கையை அவனுக்கு 
அமைத்துக் கொடுத்தது என்றும் கூறவேண்டும். </p>

<p>அகம், புறம்</p>

<p>	அதாவது இலக்கியங்களை அகம், புறம் என எவ்வாறு 
பிரித்தானோ, அவ்வாறே தனித்தவோர் இடத்தில் மன~
மொத்த தலைவனும், தலைவியும் சந்தித்துப் பிறரிடம் 
சொல்ல முடியாத-சொல்லக் கூடாத இன்பம் பெறுவதை 
`அகம்' எனவும், பிறர்பால் உணர்த்தும் வகையில் அமையும் 
இன்பத்தைப் `புறம்' எனவும் பகுத்துக்கொண்டான். </p>

<p>திணைகள்</p>

<p>	இவ்வாறு பகுத்துக்கொண்ட அகத்தையும், புறத்தையும் 
பின்பற்றி வாழ்வதற்கு அகத்திற்கு ஏழுதிணையெனவும், 
புறத்திற்கு ஏழுதிணை யெனவும் பிரித்துக்கொண்டான். 
திணை என்பது ஒழுக்கமாகும். ஆக, அக, புறத்தை வகைக்கு
ஏழுதிணைகளாகப் பிரித்துக்஼கொண்டான்.</p>

<p>	அதாவது அக ஒழுக்கத்தை-குறிஞ்சி, பாலை, முல்லை, 
மருதம், நெய்தல் என்பனவற்றை அன்பின் ஐந்திணை என்றும் 
பொருந்தாக் காதலைப் பெருந்திணை என்றும் ஒருதலைக் 
காமத்தைக் கைக்கிளை என்றும் பிரித்துக் கொண்டான். 
-10-</p>

<p>	அதுபோல, புற ஒழுக்கத்தை `வெட்சி, வாகை, வஞ்சி, 
உழிஞை, தும்பை, காஞ்சி, பாடாண்' என ஏழுதிணைகளாகப் 
பிரித்துக்கொண்டான். இதோடு நிலத்தின் தன்மையையும், 
குறிஞ்சி, பாலை, முல்லை, மருதம், நெய்தல் என ஐந்து வகை~
யாகப் பிரித்துக்கொண்டான். </p>

<p>பண்பாட்டில் சிறந்தவன்</p>

<p>	இவ்வாறு நிலத்தையும் பிரித்து, ஒழுக்கத்தையும் 
வகுத்து, வாழும்வழி முறைகளையும் தொகுத்து வாழ்ந்த~
தனால்தான், பிறருக்கும் வாழ வழிவகுத்துக் கொடுத்ததினால்~
தான் தமிழன் பண்பாட்டில் சிறந்தவனாகின்றான். பண்பாடு 
மிக்கவன் தமிழன் எனப் பிறரால் போற்றப்படுகின்றான். </p>

<p>	அறம், பொருள், இன்பம், வீடு எனக் கண்டு வாழும் 
வாழ்விற்கு இலக்கணமும் வாழ்விற்கு ஒரு பொருளுணர்வும், 
வாழ்வில் பொருளுணர்வதற்கு ஒரு முத்தாய்ப்பும் வைத்து 
வாழ்ந்ததனால்தான் தமிழன் பண்பாடு மிக்கவன் எனப்்
போற்றப்படுகின்றான். தமிழன் பண்பாட்டில் சிறந்தவன் 
எனப் புகழப்படுகின்றான். </p>

<p>	இப்படிப்பட்ட பண்பாட்டில் சிறந்த தமிழர்களது
வாழ்க்கையினையே, அதாவது பழந்தமிழர்களது வாழ்க்கை 
கலை, கலாச்சாரம், நாகரிகம் போன்றவற்றையே நாம் 
காணப் போகின்றோம். </p>

<p>இன்பம் </p>

<p>	இவ்வாறு காணுமுன் ஒன்றை நாம் நினைவில் கொள்ள 
வேண்டும். அதாவது அறத்தின் வழியே பொருளீட்ட 
வேண்டும். இவ்வாறு அறத்தின் வழியே ஈட்டிய பொருளை 
அறத்தின் வழியிலேயே செலவிடவேண்டும். ஆக, அறத்தின் 
வழியே செலவிட்டு வாழ்வில் இன்பம் காணவேண்டும்.</p>

<p>	இவ்வாறு இன்பம் கண்டு, வீடு என்று சொல்லக்கூடிய 
அந்த இறைவீட்டை அடையவேண்டும். இவ்வாறு அவ்~
இறைவீட்டை அடைவதே வாழ்வாகும் என வழி கண்டவன் 
தமிழன் என்பதையும் நாம் உணர்தல் வேண்டும். 
-11-
உயிர் மூச்சு</p>

<p>	இவ்வாறு வாழ்ந்த அவன் எதை உயிர் மூச்சாகக் 
கண்டான். அறத்தையும், மறத்தையுமே-அதாவது வீரத்~
தை௟ுமே, உயிர்மூச்சாகக் கொண்டு வாழ்ந்தான். </p>

<p>உணர்ச்சி 
	இத்தகைய அற, மற வாழ்வில் அடங்கிய  காதல், 
ஈகை, கொடை, நட்பு, விருந்தோம்பல், வீரம்பற்றிய 
தமிழர்களது நாகரிகப் பண்பாட்டினை நாம் காண்போம். 
இவற்றைக் காணு முன் ஒழுக்க஥்திற்கு இயல்பான உள்ளத்து 
உணர்வுகளுக்குக஼்கூட, உடலில் தோன்றும் மாற்றங்களுக்குக் 
கூட தமிழன் எவ்வாறு வடிவம் கொடுத்து, அதனையும் எட்டு 
வகையாகப் பிரித்து அவனது அறிவுவளர்ச்சியை எவ்வாறு 
தெளிவுப்படுத்தியுள்ளான் என்பதைக் கண்டு அதன்பின் 
பிற஼வற்றை நோக்குவோம். </p>

<p>	இப்பாடல் உடலின் மெய்ப்பாட்டு உணர்ச்சிகளை விளக்கு~
கின்ற பாடலாகும். இப்பாடலைப் பாடியவர் தொல்~
காப்பியர் ஆவார். இப் பாடலின் வழியே இவர் மெய்ப்~
பாட்டு உணர்ச்சிகளை ஆராய்வதில் எந்த அளவிற்கு வல்லவர் 
என்பதை உணரலாம். </p>

<p>	இதிலிருந்து நாம் ஒன்றை உணர்தல் வேண்டும். தமிழன் 
எதையுமே விட்டுவைக்கவில்லை. எதற்கும் இலக்கணம் 
கண்டிருக்கிறான். இலக்கணம் கொண்டு வாழ்ந்திருக்கின்றான். 
ஆகவேதான் தமிழர்களின் மொழியும், கலையும், நாகரிகமும், 
பண்பாடும், என்றுமே உயர்ந்த நிலையில் இருந்து வந்திருக்~
கின்றன. இன்றும் உயர்ந்திருக்க஼ின்றன. </p>

<p>	இப்படிப்பட்ட தமிழர்களின் கலையை, கலாச்சாரத்தை, 
நாகரிகத்தையும், பண்பாட்டைக் காணுமுன் கொஞ்சம் சங்க
காலம் பற்றியும் நோக்குவோம்.
-12-
		சங்க காலம் </p>

<p>சங்ககாலம், சங்ககாலம் என்று சொல்லுகின்றோம். 
சங்ககாலம் என்பது எக்காலக் ஂகட்டம் என்பதை நாம் 
தெரிந்துகொள்ள வேண்டாமா? </p>

<p>	தமிழகத்தின் வடஎல்லை வேங்கடமாகவும், தெற்கெல்லை 
குமரிமுனையாகவும், கிழக்கு, மேற்஖ு எல்லைகள் கடல்களாக~
வும் அமைந்து விளங்குவதே  தமிழ்நாடாகும். இத் தமிழ்~ 
நாடு முப்பிரிவுகளை உடையதாகவும் விளங்கியது. இப் பிரிவு~
களைச் சேரநாடு , சோழநாடு, பாண்டியநாடு என வழங்குவர்.
இவற்றை முறையே சேரர், சோழர், பாண்டியர் என்ற 
அரசப் பரம்பரையினர் ஆட்சிசெய்து வந்தனர். </p>

<p>	இவற்றுள்ளும் சில உட்பிரிவுகள் இருந்தன. இவ்வுட்~
பிரிவுகள் குறுநிலங்களாகும். இக் குறுநிலங்களை ஆட்சி 
செய்தவர்கள் குறுநல மன்னர்கள் எனப் பெயர் பெற்றனர். </p>

<p>	மேற்கூறிய சேர, சோழ, பாண்டிய மன்னர்களும் குறுநில 
மன்ன஼ர்களும் தமிழர்களாகவே பிறந்து, தமிழர்களாகவே
வாழ்ந்து, தமிழ் மண்ணையே ஆ஠்சி செய்ததால், தமிழும்
தழைத்தது; தமிழர்களது நாகரிகமும், பண்பாடும், கலையும், 
கலாச்சாரமும் செழித்தன. </p>

<p>முடிமன்னர்கள் </p>

<p>	இம் மன்னர்கள் தமிழ் மண்ணை மட்டும் ஆண்டதோடு 
நில்லாமல், தமிழ் மொழியைத் தம் உயிர் போல் கருதிய~
தால் தமிழ்ப் புலவர்களையும், பாணர்களையும், கூத்தர்களை ~
யும் ஆதரித்து இவர்களுக்குப் பொன்னும் மணியும் வழங்கித் 
தாமும் பெருமைப் பட்டு, அவர்களையும் பெருமைபட 
வாழச் செய்தார்கள். தமிழர்களுக்கே உரிய நாகரிக஼த்தையும் 
பண்பாட்டையும் காப்பதில் பெரும் முயற்சி எடுத்துக்~
கொண்டார்கள். ஆகவே, தமிழர்களின் வாழ்வு எல்லாத் 
துறைகளிலும் சிறந்து விளங்கியது. 
-13-
	இத்தகைய தமிழக வேந்தர்களாகிய சேர, சோழ, 
பாண்டியர்களையும், பிற சிற்றரசர்களையும் சங்கநூல் மிக 
விரித்துக்கூறுகின்றது. இவ்வாறு இவர்களைப்பற்றி விரித்துக் 
கூறும் சங்க நூல்க஼ள் பல்லவர்களைப்பற்றி ஒரு சிறிதும் குறிப்~
பிடவில்லை. பல்லவர்கள் கி.பி. 3 ஆம் நூற்றாண்டிலிருந்து 
கி.பி. 9 ஆம் நூற்றாண்டுவரை தமிழ஼கத்தை ஆண்டனர்
என்பதற்குச் சான்றுக஼ள் உள்ளன. எனவே, சங்ககாலம் 
என்பது பல்லவர் காலமாகிய கி.பி. 3, ம் நூற்றாண்டிற்கு 
முந்தியதாக இருக்க வேண்டும் என நாம் எண்ணலாம். 
 
சான்றுக஼ள் </p>

<p>	சங்ககாலத் தமிழர்கள் கிரேக்கரோடும், எகிப்திய~
ரோடும் உரோம மக்஼களோடும், வணிகத் தொடர்பு கொண்~
டிருந்஼ததாகச் சங்க நூல்கள் கூறுகின்றன. மெகஸ்தனிஸ், 
டாலமி, பிளினி போன்ற மேனாட்டு ஆசிரியர்கள் எழுதி 
வைத்த குறிப்புகள் இவ்வுண்மைக஼ளை நமக்கு வலியுத்து~
கின்றன. </p>

<p>உறுதிப்படுத்தலாம்</p>

<p>	மேலும் கோயம்புத்தூர், சேலம் மாவட்டங்களில் 
கண்டெடுக்கப்பட்ட உரோம நாணயங்களும், அரிக்கமேடு, 
ஆதிச்சநல்லூர் போன்ற இடங்களில் தோண்டி எடுக்கப்~
பட்ட புதைபொருள்களும், சங்க நூல்கள் கூறும் உண்மை~
களுக்குச் சான்று கூறுவதாக உள்ளன. எனவே, சங்ககாலம் 
என்பதைத் திட்டவட்டமாகக் கூறமுடியாவிட்டாலும்         
கி.மு. 3 ஆம் நூற்றாண்டிற்கும் கி.பி. 2 ஆம் நூற்றாண்டிற்~
ககும் இடைப்பட்ட காலமே சங்ககால஼மாகும் என ஒருவாறு 
உணரலாம். </p>

<p>		தமிழினம் </p>

<p>	தமிழினம் எப்போது தோன்றியது என எவராலும் 
அறுதியிட்டு உறுதியாகக் கூறமுடியுமா? கூறமுடியாது 
என்றே சொல்ல஼லாம். ஏனெனில், தமிழினத்தின் தோற்றுவாய்
-14-
எவராலும் கணக்கிட்டுக் கூறமுடியாத ஒன்றாகும். 
அது கற்பனைக்கும் எட்டாத காலக் கண்ணோட்டத்தைக் 
கொண்டதாகும். ஆகவேதான்,  </p>

<p>	எனப்பாடினான் தமிழப் புலவன் ஒருவன். இதிலிருந்து 
தமிழின஥்தின் பழமையினை நாம் ஓரளவு புரிந்துகொள்ள~
லாம். இத்தகைய பெருமைமிக்க தமிழினம், வரலாற்றுக் 
காலகட்ட஥்஥ிற்கு முற்பட்ட காலத்திலேயே எப்படி 
வாழ்ந்தது? நாகரிகத்தோடு வாழ்ந்தது. நாகரிகமான 
வாழ்வைக் கொண்டு இவர்கள் வாழ்ந்திருக்கிறார்க஼ள்.</p>

<p>	உலகின் பிறபகுதியில் வாழ்ந்த மக்களெல்லாம், நிலை~
யான வாழ்வின்றி அமைதியற்று வாழ்ந்த காலத்திலேயே 
தமிழர்கள் நல்ல அரசியல் அமைப்பினையும், சமுதாயப் 
பெருமைப்பாட்டினையும, வணிகச் சிறப்பினையும், இலக்கியச் 
செல்வத்தினையும் பெற்று வாழ்ந்திருக்கிறார்கள். </p>

<p>மூலச் சொற்஖஼ள் </p>

<p>	கடல், ஆர்கலி, முந்நீர், பரவை, புணரி முதலிய கடலினை 
உணர்த்தும் தூய தமிழ்ச் சொற்஖ளும், நாவாய், ஓடம் 
மரக்கலம், தோணி, தெப்பம், மிதவை, கலம், கப்பல், கட்டு 
மரம், திமில், அம்பி போன்ற மரக்கலத்தின் வேறு பெயர்~
களும் தமிழர்கள் அக்காலத்திலேயே கடல் வாணிபத்தில் 
சிறப்புற்றிருந்தனர் என்பதற்குச் சான்றுகளாகத் திகழு~
கின்றன.</p>

<p>ஆராய்ச்சி</p>

<p>	சுமார் ஐயாயிரம் ஆண்டுகளுக்கு முற்பட்டதாகக் கருதப்~
 படும் ஹரப்பா, மொகஞ்சதாரோ, அல்லது சிந்துவெளி 
நாகரிகம்-சுமேரியா நாகரிக஥்஥ிற்கு இணையான திராவிட 
-15-
நாகரிகத்தை-தமிழ் நாகரிகத்தைக் கொண்டு விளங்கியது 
என ஆராய்ச்சியாளர்கள் தங்களது அரிய ஆராய்ச்சியின் 
விளைவாக இன்று தெளிந்து கூறுகின்றனர். </p>

<p>குமரிக்கண்஼டம் </p>

<p>	மேலும் குமரிக்கண்டம் என்று தமிழ் இலக்கியங்களி~
லிருந்து அறியப்படும் தமிழ்நாட்டின் தென்பகுதியே, மனித 
தோற்றத்தின் முதலிடமாக இருக்கவேண்டும் என்றும் 
அவர்க஼஼ள் கூறுகின்றனர். இப்பகுதியை லெமூரியாக் 
கண்டம் என்றும் வழங்குவார்கள்.</p>

<p>	இந்த லெமூரியாக் கண்டமே மனித நாகரிகத்தின் 
தொட்டில் என அறிஞர் ஸ்காட் எலியட்டு என்பவர் 
`இழந்த லெமூரியா' என்னும் தம் நூலிலே குறிப்பிடுகின்றார். 
இவரது கூற்றே தமிழர்களது நாகரிகத்திற்குச் சான்றாக 
விளங்குவதை அறியலாம். </p>

<p>தோற்றுவாய் </p>

<p>	அடுத்து அந் நிலப்பகுதியே தென்ன஼மெரிக்கா, தென்னாப்~
பிரிக்கா, மடகாஸ்கர்  என ஒரு பக்கமும், மலேசியா, 
ஆஸ்திரேலியா  என மற்றோரு பக்கமுமாகப் பெரிய 
நிலப்பகுதியைக் கொண்டு விளங்கி஼யது. `பஃறுளியாறு'
என்னும் ஆறு பாய்ந்து அந் நிலப்பகுதியை வளப்படுத்தியது. 
இப்பகுதியிலே பல மலைகள் அழகொளி வீசித் திகழ்ந்தன. 
இப்பகுதியே பிற்காலத்தில் கடல் கோளால் அழிந்தது எனச்
சிலப்பதிகாரம், புறநானூறு, இறையனார் களவியலுரை, 
ஆகிய நூல்கள் நமக்கு அறிவிக்கின்றன. அதனால் அப்பகுதி`~
யில் வாழ்ந்த அறிவும், ஆற்றலும் பெற்ற மக்களே உலகின் 
பல்வேறு இடங்களுக்கும் சென்஼று குடியேறினார்க஼ள். அவர்~
களில் ஒரு பகுதியினர் தென்னிந்தியாவிலேயே முதன் 
முதலில் தங்கி வாழ்ந்திருக்க வேண்டும் என்பதை அறிய~
லாம். இக்கருத்தினை,</p>

<p>1. V.R.R. Dikshitar, Pre-Historic india p.70.</p>

<p>2. பஃறுளியாற்றுடன் பன்மலை யடுக்கத்துக் 
   குமரிக்கோடும் கொடுங்கடல் கொள்ள. 
	சிலம்பு-காடுகாண் காதை: 18.20.
3. முந்நீர் விழவின் நெடி௟ேன் 
   நன்னீர்ப் பஃறுளி மணலிலும் பலவே, ஫ுறம். 9-11
4. இறையனார்களவியல் உரை.ப.6.</p>

<p>	மேற்஖ூறிய சான்றுகள் நமக்கு அறிவி஖்கின்றன. இப்படிப்~ 
பட்ட தொன்மையான    நாகரிகத்தையும், குடிப்பிறப்பையும் 
பெற்று விளங்கியவர்கள் பழந்தமிழர்கள் ஆவார்கள்.</p>

<p>		தமிழ்மொழி 
	ஓவியம் எவ்வாறு தன் பின்னணியை விட்டு நீங்கி 
வாழாதோ, அதுபோல ஒரு நாட்டின் வரலாறும், இலக்கிய 
வரலாறும் அந்நாட்டு மக்களின்றி இயங்காது. இயங்க 
முடியாது. மக்கள் வாழ்க்கையிலிருந்து பிறப்பதே 
இலக்கியம் ஆகும். எனவேதான். `மொழியின் வாயிலாக 
வாழ்கைகையை உணர்த்துவதே இலக்கியம்' என அறிஞர் 
ஹட்சனும், 'வாழ்வின் ஆய்விற்கு கவிதையே நல்ல கருவி~
யாகும்' என அறிஞர் மாத்யூ ஆர்஼னால்டும் கூறியுள்ளார்கள். </p>

<p>காலக்கண்ணாடி </p>

<p>	இதோடு `மொழியே மக்களின் மனதை     வெளிப்படுத்தும் 
காலக் கண்ணாடி'  என்றும், `ஒரு மொழி வளம் பெறுவதும், 
வறட்சியடைவதும் அம் மொழி பேசும் மக்களின் மன 
வளத்தை ஒட்டியதே ஆகும்' என்றும் அறிஞர்கள் கூறிய 
கருத்துக்களை நாம் இங்கு எண்ணுதல் வேண்டும்.
-17- 
பேராசிரியர் சுந்தரம்பிள்ளை </p>

<p>	உலகில் எண்ணற்ற மொழிகள் தோன்றின. வளர்ந்தன. 
ஆனால், காலத்தால் பல அவற்றுள் அழிந்தன. சிலவே 
இன்றும் நிலைத்து நின்று வாழுகின்றன. இவற்றுள் இன்று 
தமிழ், சீனம் போன்ற ஒருசில மொழிகளே பேச்சு வழக்கி~
லும், இலக்கிய வழக்கிலும் நின்று நிலவிவருகின்றன. </p>

<p>	வடமொழி, கிரேக்கம், இலத்தீன், எபிரேயம் போன்ற 
மொழிகள் வரலாற்றுப் பெருமை வாய்ந்த மொழிகளென்றா~
லும் இன்று இம் மொழிகள் பேச்சுவழக்கற்று மொழி~
யென்னும் அளவிலேயே நின்றுவிட்டன. எனவேதான் 
பேராசிரியர் சுந்தரம் பிள்ளையவர்கள்,</p>

<p>பாடிச் சென்றார். இப்படிப்பட்ட தொன்மைவாய்ந்த 
இலக்கிய வளம் பெற்ற மொழியாம் தமிழ்மொழியைப் 
பெற்று வாழ்ந்தவர்கள் தமிழர்கள் ஆவர். எனவேதான்</p>

<p>பாரதி தமிழின் தொன்மையையும், உயர்வை~
யும் உணர்ந்து பாடினான் என்பதை எண்ணுதல் வேண்டும். 
அடுத்து, தமிழே மிகவும் பண்பட்ட மொழி என்றும், 
தனக்கே உரிய இலக்கியச் செல்வங்களைப் பெற்றிருக்கும் 
மொழி என்றும், மாக்ஸ்முல்லர் என்னும் மொழி நூலறிஞர் 
கூறி இருப்பதையும் அறிந்து கொள்ளுதல் வேண்டும். 
அடுத்து "" தமிழ் மொழிபோல் ஆற்றல் மிக்கதாகவும், 
சொல்ல வந்த பல கருத்துக்களைச் சில சொற்களால் புலப்஼படுத்்துவதாகவும்
-18-
வேறு எந்தமொழியும் இல்லை"" என 
பெர்சிவல்பாதிரியார் கூறுகின்ற கூற்றையும் எண்ணிப்
பார்த்தல் வேண்டும். </p>

<p>வால்மீகியின் கூற்று </p>

<p>	அடுத்து வடமொழியின் ஆதிகாவியமான வால்மீகி 
ராமாயணத்தில் வால்மீகி  கூறுகின்ற கருத்தையும் எண்ணிப்
பார்த்தல் வேண்டும். அதில் வருகின்ற குறிப்பொன்றில், </p>

<p>	"" பொன்னிறமானதும், அழகானதும், முத்து, மணி 
இவற்றால் அணி செய்யப்ட்டதும், நகரத்து அரணோடு 
இணைக்கப்பட்டதுமான பாண்டியர் வாயிற் கதவை 
வானரர்களே!  போய்ப் பாருங்கள்"" எனக் கூறுகின்றார். 
வியாசமுனிவரும் மகாபாரதத்தில் தமிழ்நாட்டின் சிறப்பை~
யும், பாண்டியர் அரசைப் பற்றியும் சிறப்பித்துக் கூறுகின்றார், 
இவ்வகையிலிருந்தும் தமிழ் மொழியின் தொன்மையையும், 
தமிழ்நாட்டின் தொன்மையையும் நன்கு அறியலாம். </p>

<p>	இத்தகைய தமிழ்மொழி பழமையிலும், சொல் வளத்தி~
லும், இலக்கண வரம்பிலும், செய்யுள் வகையிலும், பண்~
பாட்டுச் சிறப்பிலும் தலைசிறந்தது என்பதை மேற்கூறிய~
வற்றிலிருந்தும் அறியலாம்.</p>

<p>அறிஞர் கருத்து </p>

<p>	அடுத்து `வடமொழி, எபிரேயம், கிரேக்கம் ஆகிய 
மூன்று உலக இலக்கிய மொழிகளிலும் தமிழ்ச் சொற்஖ள் 
கலந்திருக்கின்றன.' என்று ரைங்டேவிஸ் என்பவர் கூறு~
கின்றார். உலகப் பழம்பெரும் நாகரிகங்களில் சுமேரிய 
நாகரிகமும் ஒன்றாகும். சுமேரியா மொழி சொல்வளம் 
உடையது. ஆயினும், தமிி஼ழோடு ஒப்பிடும்போது அம் மொழி 
பிற்காலத்தில் எழுந்த மொழியாகவே இருக்க வேண்டும் 
என்று அறிஞர் கூறுகின்றார். `வட இந்தியாவில்
-19- 
வாழ்ந்த மொகஞ்சொதார மக்கள் திராவிட மொழியையே 
பேசினார்கள். அவர்கள் பேசிய சொற்களில் பலவற்றைத் 
தமிழ் மொழியில் காணலாம். ஆகவே, `இப்பொழுது 
வழங்கும் மொழிகளில் தமிழ் மொழியே மிகப் பழமையானது'
என ஹீராஸ் பாதிரியார் வலியுறுத்திக் கூறுகின்றார். 
இவ்வாறு எந்தவகையில் பார்த்தாலும் தமிழ்மொழி மிகத் 
தொன்மையானது, பழமையானது என்பதை அறியலாம்.</p>

<p>மொழியின் சிறப்பு </p>

<p>	ஆகவேதான் மேலை நாட்டு அறிஞன் ஒருவன், ஒரு 
நாட்டில் நாகரிகம் வளர்ந்திருக்கிறது என்று சொன்னால் 
அந்த நாட்டில் மொழி வளர்ந்திருக்கிறது. ஒரு நாட்டில் 
கலை, கலாச்சாரம், பண்பாடு உயர்ந்திருக்கிறது என்று 
சொன்னால் அந்நாட்டில் மொழி சிறந்திருக்கிறது என்று 
பொருள் எனக் குறிப்பிட்டான். அந்த வகையில் பார்ப்போ~
மேயானால் தமிழர்களது கலையும், நாகரிகமும், கலாச்~
சாரமும், பண்பாடும் உயர்ந்திருப்பதற்குக் காரணம் மொழி
உயர்ந்துள்ளதே என்பதை அறியலாம். மேலும் பண்டையத் 
தமிழர்கள் மொழியால், கலையால், கலாச்சாரத்தால், 
நாகரிகத்தால், பண்பாட்டால் சிறந்திருந்தார்கள் 
என்பதற்குப் பலவிதக் கல்வெட்டு, புதை பொருள், இலக்~
கியச் சான்றுகளும் உள்ளன. </p>

<p>	இவ்வாறு சிறப்புற வாழ்ந்தத் தமிழர்கள் வாணிகத்தி~
லும் சிறப்புற்றே திகழ்ந்திருக்கிறார்க஼ள்.</p>

<p>	வாணிபம் </p>

<p>கி.மு. பத்தாம் நூற்றாண்டிலேயே, தமிழ்நாடு சிரியா, 
பாபிலோனியா, எகிப்து போன்ற நாடுகளோடு வாணிபத்
தொடர்பு கொண்டிருந்தது என்பதையும் நாம் 
அறிகின்஼றோம். </p>

<p>-20-
வாணிபச் சிறப்பு</p>

<p>	தமிழ்நாட்டின் மணம் பரப்பும் சந்தனம் 
சாண்டல் என ஆங்கிலத்தில் வழங்குதலைக் காணலாம். 
அதுபோல தமிழ்மொழியில் `அரிசி' என்பது கிரேக்கத்தில்
`ஒசிரி' எனவும், `கறுவாய்' என்பது கற்பியன் எனவும், 
இஞ்சிவேர் என்பது `சிக்கி பேரோசு' எனவும் வழங்குதலை     
அறியலாம். இத்துடன் கி.பி.60 இல் தோன்றிய பெரிப்ளஸ் 
என்னும் நூலும், பிளினியின் `இயற்கை வரலாறு' என்னும் 
நூலும், தாலமியின் `பூகோள வரலாறு' என்னும் நூலும்
தமிழர்களின் வாணிபத்தைப் பற்றிய செய்திகளைக் குறிப்~
பிடுகின்றன. இக் குறிப்புகள் சங்கநூல்கள் பலவற்றில் 
காணப்படும் கருத்துக்களுக்குப் பொருத்தமானதாகவே 
உள்ளன. </p>

<p>ஏற்றுமதி </p>

<p>	இத்துடன் வேதங்களில் ஖ுறிப்பிடப்படாத யானை, கி.மு. 
ஏழாம் நூற்றாண்டில் அசிரிய நாட்டு மன்னனுக்கு அன்பளிப்~
பாக வழங்கப்பட்டது என்பதையும் நாம் அறிகின்றோம்.       
அதோடு சாயம் தோய்க்கப்பட்ட துணிகள் எகிப்திற்கும் 
பாரசீகத்திற்கும், அனுப்பப்பட்டன என்பதையும், சேர 
நாட்டின் தேக்குமரம் பிற நாட்டில் கட்டிடங்கள் கட்டவும், 
கப்பல்கள் கட்டவும் பயன்பட்டது என்பதையும், யவனர்கள் 
பொன்னும், பூவும் கொண்டுவந்து மிளகு கொண்டு 
சென்றனர் என்பதையும், அவர்களுக்கெனத் தமிழ்நாட்டில் 
பல இடங்களில் குடியிருப்புகள் இருந்தன என்பதையும் 
நாம் அறிகின்றோம். புதுச்சேரியின் அருகேயுள்ள `அரிகா~
மேடு' என்ற இடத்தைத் தோண்டிப் பார்த்தபோது 
ஆங்கோர் யவனர் குடியிருப்பு இருந்தது. இதைக் 
கொண்டே உண்மையை உணரலாம். </p>

<p>இறக்குமதி </p>

<p>	யவனரின் அழகிய புலிச் சங்கிலிகளும், பாவை விளக்கு~
களும் தமிழ்நாட்டிற்கு கொண்டுவரப்பட்டன என்பதையும்
-21-
ஆர்க்கிமிடீஸ் என்பவர் சைரக்ப்பூசில் உரோமரது 
முற்றுகையை எதிர்க்கக் கண்டுபிடிக்கப்பட்ட பலவகை 
இயந்திரங்கள் `யவனப் பொறிகள்' என்ற பெயரில் தமிழ் 
நாட்டுக் கோட்டைகளில் இடம் பெற்றன என்பதையும் 
அறிகின்றோம். </p>

<p>	தென்பாண்டிக் கடல் முத்து உலகப்புகழ் பெற்ற 
முத்தாகும். முத்தம் (முத்து) முதலிய தமிழ்ச் சொற்஖ள் 
வடமொழியிலுள்ள ஆதிவேதமான `ருக்கு' வேதத்திலேயே 
இடம்பெற்றுள்ளன. </p>

<p>பிளினியின் வருத்தம் </p>

<p>	உரோம்  நாட்டு மகளிர் தமிழ்நாட்டு முத்தைப் பெரிதும் 
விரும்பினர் என்பதையும், உலோலா என்னும் ரோம் நாட்டு 
அரசி 30, 000 தங்க நாணயத்திற்கு ஈடான முத்துக்களை 
அணிந்திருந்தாள் என்பதையும், ரோம் நாட்டு மக்களின் 
இத்தகைய ஆடம்பரத்தால் அந்நாட்டு நிதிநிலை மிகவும் 
பாதிக்கப்பட்டதாகவும் பெரிப்஼ளஸ் நூல் குறிப்பிடுகிறது. 
ஆண்டொன்றுக்கு உரோம் நாடு இந்தியாவிலிருந்து தான் 
பெறும் ஆடம்பரப் பொருள்களுக்காக `மிலியன்' பவுனுக்கு 
ஈடான பொன்னை வாரி வழங்கி வறுமையுறுகிறதே என 
ரோம் நாட்டு வரலாற்றாசிரியரான பிளினி என்பவர் 
வருந்திக் கூறினார் என்பதையும் நாம் அறிகின்றோம். </p>

<p>தூது </p>

<p>	இதோடு கி.மு. 20-இல் பாண்டிய வேந்தன் ஒருவன் 
அகஸ்டஸ் என்னும் கிரேக்க வேந்தனது அவைக்குத் தனது 
தூதுவன் ஒருவனை அனுப்பிவைத்தான் என்பதையும், தமிழ் 
நாட்டின் மிகப் பழம்பெரும் துறைமுக஼ப் பட்டினமாகிய 
முசிறியில் அகஸ்டஸ் பெயரால் ஒரு கோயில் இருந்தது 
என்பதையும், அங்கு ஈராயிரம் படைவீரர்கள் இருந்தனர்
என்பதையும், யவனர்கள் தமிழ் மன்னர்களின் அரசவை 
வாயில்களில் வாயில் காப்பாளர்களாக இருந்தனர் என்பதையும்், 
-22-</p>

<p>புலித்தொடர், சங்கிலி, பாவை விளக்கு போன்ற 
பொருள்கள் அவர்களது கை வண்ணத்தால் ஆனவை என்~
பதையும் நாம் அறியலாம். </p>

<p>தென்னக வாணிபச் சிறப்பு</p>

<p>	இதோடு வடநாட்டு நூல்களும் தமிழக வாணிபத்தைச் 
சிறப்பாகவே கூறுகின்றன. மௌரிய மன்னன் சந்திர
குப்தனின் அமைச்சரான சாணக்கியர் என்னும் கௌடில்யர் 
வடநாட்டு வாணிகத்திலும், தென்னாட்டு வாணிகமே
சிறந்தது எனவும், வடநாடு கம்பள ஆடை, தோல் குதிரை 
போன்ற எளிய  பொருள்களையே வாணிபப் பொருள்களாகக் 
கொண்டிருக்கிறது. எனவும் ஆனால் தென்னகமோ, விலை 
மதிப்பற்ற சங்கு, வைரம், மாணிக்கம், முத்து, பொன்~          
னணிகள் போன்றவற்றை வாணிபப் பொருள்களாகக் 
கொண்டிருக்கிறது எனவும் கூறுகின்ற ஖ூற்றிலிருந்து நாம் 
உணரலாம். இவ்வாறு பழந்தமிழர்கள் அக் காலத்திலேயே
திரைகடலோடியும் திரவியம் தேடியுள்ளனர் என்பதை 
அறியலாம். இவ்வாறு பழந்தமிழர்கள் பல நாடுகளுக்கும்
அந்நாளிலேயே சென்று வாணிகத் தொடர்பு கொண்டு 
நாகரிகச் சிறப்பு பெற்றிருந்தார்கள் என்பதை </p>

<p>பலநாட்டுப் பொருள்கள்</p>

<p>	இத்துடன் இங்குப் பலநாட்டுப் பொருள்கள் வந்து 
குவிந்த வகையினையும், இப் பொருள்களை  வாங்குபவர்களும், 
-23-
விற்பவர்களும் நடுநிலை பிறழாதவர்கள் என்பதனையும் 
பொருளை வாங்குவோர்களும் விற்போர்களும் பொருளின் 
அளவைக் குறைக்காமலும் விலையை மிகுவிக்காமலும் 
வியாபாரம் செய்தார்கள் என்பதனையும் ஖ீழ்க்காணும் 
பட்டினப்பாலையின் பாடல்கள் வழியே அறியலாம். </p>

<p>	இவ்வாறு பழந்தமிழர்கள் மொழியால் மட்டுமல்ல, 
கலையால் மட்டுமல்ல; கலாச்சாரத்தால் மட்டுமல்ல; 
நாகரிகத்தால் மட்டுமல்ல; ப஼ண்பாட்டால் மட்டுமல்ல; 
வாணிகத்தாலும் சிறந்து விளங்கினார்கள் என்பதையும் 
இசையோடு இசைந்த வாழ்க்கையினைக் கொண்டு அவர்கள் 
வாழ்ந்தார்கள் என்பதையும் அறியலாம். </p>

<p>		தெய்வ வணக்கம்</p>

<p>	உலகிலேயே நிலத்தினை ஐந்து வகையாகப் பாகுபாடு 
செய்தவர்கள் தமிழர்கள்தான் என்பதும், ஒழுக்கத்தினை 
அகவொழுக்கம் , புறவொழுக்கம் எனப் பிரித்தவர்கள் 
தமிழர்கள்தான் என்பதும், அகத்திணை, புறத்திணை ஂஎனக் 
கண்டு அவற்றிற்கு முறையே எழு திணைகளாகக் கணக்குக் 
கண்டவர்கள் தமிழர்கள்தாம்  என்பதும் பலரும் அறிந்ததே. 
இவ்வாறு நிலத்தினை வகுத்தவர்கள் அந்தந்த நிலத்திற்குரிய
-24- 
தெய்வங்களையும் முறைப்படுத்தத் தொடங்கினார்கள். 
அந்தந்த நிலங்கள் எவை எவை, அந்தந்த நிலங்களுக்குரிய 
தெய்வங்கள் எவை எவை என்பதைக் கீழ்வரும் பாடலால் 
அறியலாம். </p>

<p>	இப்பாடல், தொல்காப்பியத்தில் தொல்காப்பியரால் 
இயற்றப்பட்ட பாடலாகும். இப்பாடலின் வழியே முல்லை, 
குறிஞ்சி, மருதம், நெய்தல் எனப் பழந்தமிழர்கள் நிலங்களை 
நான்கு வகையாகப் பிரித்தார்கள் என்பதும், காடும் 
காடைச் சார்ந்த இடமும் முல்லை எனவும், இந்நிலத்திற்குத் 
தலைவன் கண்ணன் எனவும்; மலையும் மலையைச் சார்ந்த 
இடமும் குறிஞ்சி எனவும், இந்நிலத்திற்குத் தலைவன் முரு஖ன் 
எனவும்; கடலும் கடலினைச் சார்ந்த இடமும் நெய்தல் 
எனவும், இந்நிலத்திற்குத் தலைவன் வருணன் எனவும்; 
வயலும் வயலைச்சார்ந்த இடமும் மருதம் எனவும், இந்~
நிலத்திற்்குத் தலைவன் இந்திரன் எனவும் அறியலாம். </p>

<p>	இங்கே பாலைநிலம் குறிக்கப்படாமையை அறியலாம். 
முல்லையும், குறிஞ்சியும் திரியப் பாலை எனக் கொள்ளப்பட்ட~
தால் பாலை இடம் பெறவில்லை என்றும் கூறுவர். அது 
பின்னால் சேர்க்கப்பட்டதென்றும் காளியே இந்நிலத்~
தெய்வம் என்றும் கூறுவர். சிலம்பு இதனை, 
எனச் செப்புவதிலிருந்து அறியலாம். ஆக எது எவ்வகை~
யாக இருப்பினும் பழந்தமிழர்஖ள் நிலத்தை நான்குவகையோடு
-25-
ஐந்து வகையாகப் பரிக்கவும் செய்தார்கள் என்பதை~
யும், அந் ஂநிலங்களுக்க஼ுரிய தெய்வங்களையும் கண்டார்கள் 
என்பதையும் நாம் மறுப்பதற்கில்லை. </p>

<p>	இனி அவர்களது தெய்வ வழிபாட்டினை நோக்குவோம். 
	
	இப்பாடல் பரிபாடலில் வரும் பாடல்களுள் ஒரு பாட ~
லாகும். இப்பாடலில் வரும் சொல்லடுக்கு ஒருபுறம் 
இருக்கட்டும். கட்டுக்கோப்பு ஒருபுறமிருக்கட்டும். உவமை 
நயம் ஒருபுறமிருக்கட்டும். கருத்தாழத்தைக் கவனியுங்கள். </p>

<p>	பொதுவாக, `யான் கருவுற வேண்டும்;    என் கணவர் 
பொருள்பெறவேண்டும். அல்லது களத்திலே பெருவெற்றி 
பெறவேண்டும்' என்ற கருத்தோடு வழிபடும் வனிதையர் 
பலன் கருதி இறைவனை வேண்டுவோர்  ர் ஆவார்.</p>

<p>	`நான் விரும்புவது பொன்னும், பொருளும், 
போகமும் அல்ல; அன்பும் அருளும் அறனுமே யாகும்' என
இறைவனை வேண்டுவோர் குணம் கருதி வேண்டுவோர் 
ஆவர். </p>

<p>	`இறைவா! உன்னைத் தொழுதோம்! பலவாறு 
இறைஞ்சினோம்! பலவாறு வாழ்்த்தினோம்! முன்னும், 
-26-
முன்னும் யாம் செய்தவத்தால் இன்னும், இன்னும் என் 
காமம் இதுவே' என்று உரைத்து உருகுவோர் கைம்மாறு 
கருதாமல் கடவுளை வணங்குவோர் ஆவர். </p>

<p>	இம் மூவகையினரும் தெய்வத்தை வணங்கும் முப்பிரிவு 
கொண்டோர் ஆனாலும், இப்பாடலிலே வருகின்ற பொதுத் 
தன்மையும், பொது நோக்கையும் காணவேண்டும். பழந்~
தமிழர்கள் இயற்கையோடே இசைந்து வாழ்ந்தவர்க஼ள் 
என்பதை, இப் பாடல் வழியே உணரலாம். </p>

<p>	இத்தகைய தெய்வ வணக்கத்தோடு      வாழந்த பழந்~
தமிழர்கள், எப்படிப்பட்ட குண஼நலத்தைப் பெற்றிருந்தார்~
கள்? நட்பிற்கு இலக்கணம் வகுத்தவர்கள் அல்லவா தமிழர்~
கள்! விருந்தோம்பலுக்கு வழிகாட்டியவர்களல்லவா 
அவர்கள்!</p>

<p>	இனி, கல்வி ஫ற்றி அவர்கள் கருத்தினை நோக்குவோம். </p>

<p>	  	கல்வி </p>

<p>	இது கல்வியைப் பற்றி அனைவரும் நன்கு உணர்ந்த
காலமாகும். ""எண்ணும் எழுத்தும் கண்ணெனத்தகும்"" 
என்பதை அனுபவபூர்வமாகப் புரிந்த காலமாகும். 
`கற்றவரே கண்ணுடையவர் ஆவர், மற்றையோர் 
புண்ணுடையராவார்' என்பதைச் செயல் வகையிலே 
ஆராய்ந்த காலமாகும். அதற்காக அக்காலம், அறியாமை~
யில் மூழ்கி இருந்த காலம். கல்வி இல்லாது இருளில் மூழ்கி 
இருந்த காலம், கல்வியைப் பற்றித் தெரியாத காலம், 
என்றெல்லாம் எவராவது எண்ணுவராயின், அவரே 
அறியாதவர் என்று கூறலாம். அவரே அக்காலத்தைப் 
பற்றிப் புரியாதவர் என்றும் கூறலாம். அக்காலத்தவர் 
கல்வியைப் பற்றி மிக நன்றாகப் புரிந்து வைத்திருந்தார்கள். 
கல்வியின் அருமையைப் பற்றி மிக நன்றாகத் தெரிந்து 
வைத்திருந்தார்கள் என்றே கூறவேண்டும். 
-27-
	இதோ பாண்டிய மன்னனே, ஆரியப்படை கடந்த 
நெ஠ுஞ்செழியனே, கல்வியறிவு உடைய ஒருவனையே தாயும், 
குலமும், அரசும், நாடும் பாராட்டும் என்ற வகையில்-
ஆகவே கல்வியைப் பெற்றே ஆகவேண்டு என்ற வகையில் 
ஒரு பாடல் இயற்றி௟ுள்ளான், பாருங்கள். இப் பாடல் 
வழியே அக்காலத் தமிழர்கள் கல்விக்கு எத்தகைய மதிப்பு 
அளித்து வந்தார்்கள் என்பதை உண஼ரலாம். </p>

<p>	இத்தகைய கல்வி அறிவை நன்கு பெற்றவர்களே 
பண்டையத் தமிழர்கள் ஆவார்கள். கல்வியைப் பற்றி இந்த 
அளவிற்கு அன்றே தெரிந்து வைத்திருந்தார்கள் 
அன்றையத் தமிழர்கள். இத்தகைய கல்வியறிவு ஫ெற்ற  
பழந்தமிழர்கள் வெறுங் கல்வியை மட்டுமா தெரிந்து
வைத்திருந்தார்கள்? அமுத மனமும் படைத்திருந்தார்~
கள். அமுத  மனமோடு வாழ்ந்தார்கள்-வாழ்ந்து காட்டி~
னார்கள். பழந்தமிழர்கள் அனைவரும் தமிழ்ச் ஂசான்றோர்~
களாகவே வாழ்ந்தார்கள் - வாழ்ந்து காட்டினார்கள் என்று 
சொல்ல வேண்டும்.</p>

<p>	இனி, தமிழர்கள், எத்தகைய பண்பு மிக்கவர்களாக 
விளங்கினர்? எத்தகைய பண்பாட்டினை மேற்கொண்டிருந்த~ 
னர்? எந்த அளவிற்குப் பண்பாட்டில் சிறந்து விளங்கினர்? 
என்பனவற்றுக்குச் சான்றாகப் பாண்டியர் குலத்தைச் சார்ந்த 
இலம்பெருவழுதி என்பவர் பாடிய பாட்டொன்றைப் 
பாருங்கள். தமிழர்கள் பண்பின் உறைவிடமாகத் திகழ்ந்~
ததை இப் ஂபாடல் வழியே காணலாம். அப்படிப்பட்ட 
பாடலைப் பாடியிருக்கின்றான் பாண்டியன்.
-29-
	அடுத்து, தமிழன் எந்த அளவிற்கு உயர்ந்தவன்? எந்த 
அளவிற்கு உயரந்த கொள்஖ையைப் பின்பற்றக் கூடியவன்? 
எந்த அளவிற்஖ுப் பரந்த மனப்பான்மை உள்ளவன்?
பண்பாட்டில் அவன் எந்த அளவிற்குச் சிறந்தவன்?
என்பதையும், பரந்த மனதோடு, விரிந்த பார்வையோடு, ஒரு 
குறுகிய வட்டத்திற்குள் நிற்காமல் உலகையே உற்று 
நோக்குகின்ற கண்ணோட்டம் உடையவன் என்பதையும் 
பூங்குன்றனார் என்னும் புலவர் எவ்வாறு நமக்குப் புலப்~
படுத்துகின்றார் என்பதைப் பாருங்கள். </p>

<p>	""உலகில் உள்ள ஒவ்வொரு ஊரும் நம் ஊரே! இதில் 
உன் ஊர், என் ஊர் என்ற வேறுபாடே இல்லை. ஆகவே 
உலகிலுள்ள அனைவரும் கேளிர்கள். இதில் உறவினர், நம் 
இனத்தவர் என்று ம஼ட்டும் இல்லை. எல்லோரும் நம் இனத்~
தவரே! அதாவது, மனித இனத்தவரே! அவர்கள் அனைவரும் 
நம் உறவினரே!</p>

<p>	நன்மையும், தீமையும் யாரோ நமக்கு செய்ததனால் 
வருவதில்லை. அதுபோல     நமக்குத் துன்பம் வருவதும், 
இன்பம் வருவதும் பிறரால் ஏற்படக்கூடியதல்ல. காதல்
என்பதும் நமக்குப் புதியதல்ல; வாழ்க்கை என்பது 
இன்பமான ஒன்று, என்று நாம் மகிழ்ந்ததும் இல்லை. 
வாழ்வானது பெருந் துன்பமானது என்று அதனை வெறுத்து 
நாம் ஒதுக்கியதும் இல்லை. </p>

<p>	வானமானது இடி மின்னலோடு கூடிய தனது குளிர்ந்த 
நீரைப் பொழிவதால் பெரியதோர் ஆறானது கல்,  மண்
-30-
அனைத்தையும் அடித்துக்கொண்டு எங்கும் வெள்ளமென 
ஓடுகிறது. அவ்வாறு நீர் ஓடும் வழியிலே ஓடும் தெப்பம் 
போல, உயிர் வாழ்க்கை என்பது இயற்கை முறைவழியிலேயே 
நட஖்கும் என்பதை ஆன்றோர் புகட்டிய அறிவால் நாம் 
அறிந்தோம். </p>

<p>	ஆகவே உலகில் பிறந்து வாழ்வோரில் சிறியோரை 
இகழ்ந்து தூற்றியதும் இல்லை. பெரியோரை வியந்து 
போற்றியதும் இல்லை, என்று பாடுகின்றார் பூங்குன்றனார். </p>

<p>பெரியவர் பெரியவரே!</p>

<p>	இதில் பெரியோரை வியந்து போற்றியதும் இல்லை 
என்பதில் பெரியவர் என்பவர் பெரியவராகவே இருப்பர்; 
அறிவில், ஆற்றலில், அனுபவத்தில் மிகுந்தவராகவே 
இருப்பர். வயதிற்஖ுத் தக்கவராகவே இருப்பர். 
ஒழுக்கத்தில் சிறந்தவராகவும், பிறருக்கு வழிகாட்டக்கூடிய~
வ஼ராகுமே இருப்பர். இதில் ஆச்சரியப்படுவதற்கு ஒன்றுமே 
இல்லை. ஆகவே, அவர்களைப் போற்றவேண்டிய அவசிய~
மில்லை. அவர்கள் என்றும் வணங்கப்படக்கூடியவர்களே""
என்ற கருத்தில்தான் ஆசிரியர் பெரியோரை வியந்து  
போற்றியதும் இல்லை என்று குறிப்பிடுகிறார் என்பதை
உணர்தல் வேண்டும். </p>

<p>-31-
	இத்தகைய பொது நோக்கை அன்றே தமிழர்கள் 
பெற்றிருந்தார்கள் என்று சொன்னால் இதைவிடப் பெருமை 
நமக்கு வேறு என்ன வேண்டும்?
 
		நெற்பல பொலிக!
	ஐங்குறுநூறு என்பது சங்க இலக்கியங்களில் ஒன்றாகும்.
இதனைப் பல புலவர்கள் பாடி இருப்பினும் அதில் ஒரு புலவர் 
பாடும் திறனை இங்கு நாம் காண்போம். </p>

<p>	அறம்பாட வந்த புலவர் நாட்டுவாழ்த்துப்போலவே
பாடியிருந்தாலும் அவர் கூறும் கருத்துக்களை நாம் எவ்வகை~
யிலும் தள்ளி ஒதுக்கிவிட முடியாததாகவே உள்ளதை 
அறியலாம். </p>

<p>	நெல் மணிகள் ஖ுன்றுபோல் குவியவேண்டும். பொன்
மணிகள் எங்கும் நிரம்பவேண்டும். கழனிகள் விளைய 
வேண்டும். இரவலர்கள் வந்தவண்ணம் இருத்தல் வேண்டும். 
பால் பல பெருகவேண்டும்.  சோலை பல சிறக்கவேண்டும். 
பகைவர் என இல்லாதிருக்க வேண்டும். பார்ப்பனர்கள்
வேதம் ஓதவேண்டும். எங்கும் பசி என்பதே இல்லாதிருக்க
-32-
வேண்டும். பிணிகள் ஒழியவேண்டும். மன்னர்களுக்கிடையே 
உள்ள பகை நீங்கவேண்டும். எல்லாச் செல்வமும் பெற்று 
நாடும் நலமும் அறப்பணியில் சிறக்கவேண்டும். இதனை 
அல்லாத பிற அனைத்தும் அழியவேண்டும் என்று பாடும் 
இப் புலவனது ஆவலை நாம் என்னவென்று உரைப்பது? 
அக் காலத் தமிழ஼ர்க஼ளின் மனநிலை எந்த அளவிற்கு இருந்~
திருந்தால் அந்த அளவிற்குப் பாடி இருப்பான்? இப்~
புலவ஼னின் உயர்ந்த மனந்தான் என்ன! அக் காலத் தமிழர்~
களின் உயர்ந்து மனந்தான் என்ன!</p>

<p>	இத்தகைய பண்பாடுடைய, உயர்ந்த நோக்குடைய, 
பரந்த எண்ணமுடைய, விரந்த உள்ளமுடைய, என்றும், 
எதையும் பிறருக்குச் செய்யக்கூடிய மனமுடையவர்களாகவே 
பழந்தமிழர்கள் வாழ்ந்தார்கள் என்பதற்கு வேறு என்ன 
சான்று வேண்டும்?</p>

<p>		உண்மை இல்லை</p>

<p>	பெண்கள் அனைவரும் அழகு வடிவங்களாகவே விளங்~
கினார்கள். அவர்கள் அருட்செல்வத்தையும், பொருட்~
செல்வத்தையும் மிகுதியாகப் பெற்றிருந்தார்கள். எனவே 
கோசல நாட்டில் துன்புற்று வந்தவர்களுக்குக் கொடுத்து
உறவுவதும், நாள்தோறும் விருந்தினரை உபசரிப்பதும் தவிர 
வேறு எந்நிகழ்ச்சியும் அங்கு நடைபெறவில்லை. </p>

<p>	மக்களின் வாழ்வில் குற்றங்கள் இல்லாமையால் எமனைப்~
பற்றிய பயமில்லை. மக்களின் மனம் செம்மையாக விளங்கி~
யதால் சினங்கொண்டு விதிக்கும் தண்டனை அங்கு எதுவும் 
இல்லை. வேறோரு தீமையும் இல்லாததால் அங்கு உயர்வு 
இருந்ததே தவிர வீழ்ச்சியோ, கேடோ இல்லை. </p>

<p>	அங்குப் பொருளைக் கவரும் கள்வர் இல்லாததால் 
பொருள்களுக்குக் காவல் இல்லை. கொடுத்தால் பெறக்~
கூடிய வறியவர் இல்லாததால் கொடுக்கும் தன்மை வாய்ந்த 
கொடையாளர்களுக்கு அங்கு இடமில்லை. 
-33-
	கல்லாதவர்கள் எவரும் இல்லாததால் கற்றவர்கள் 
என்று யாரையும் சிறப்பித்துக்கூற இடம் இல்லை. எல்லா
ம஖்களும் எல்லாவகைச் செல்வங்களும் பெற்று விளங்கு~
வ஼தால் செல்வம் இல்லாதவர்கள் அங்கு எவரும் இல்லை. 
நாட்டில் வறுமை இல்லாத காரணத்தால் வள்ளல்
தன்மை என்பதற்கு இடம் இல்லாமற் போயிற்று. 
பகைவர் என்று எவரும் இல்லாததால் எதிர்த்துத் தாக்கும் 
வல்லமையுடையவர்கள் எவரும் இல்லாமல்     போயினர்.
எவரும் பொய் பேசாததால் உண்மை என்பது சிறப்பாக
அங்கு விளங்கவில்லை. பலவற்றைக் கேட்டு அறியும் அறிவு 
அங்கு எல்லோரிடமும் ஓங்கி இருப்பதால் அறிவிற்கென 
அங்கு சிறப்பிடம் எதுவும் இல்லை. </p>

<p>	எனப் பாடுகின்றான் கம்பன். `எல்லோரும் எல்லாமும் 
பெறவேண்டும்' என்ற பாரதிதாசனின் பாடல் இதனை 
ஒட்டியதுபோல் தோன்றினாலும், ஒரு நாடு எப்படி இருக்க 
வேண்டும் என்பதற்கு இவன் ஖ூறியதுபோல் வேறு எவனும் 
஖ூறவில்லை என்றே சொல்லலாம். அறவழியே அவன் 
நாட்டை எவ்வாறு நோக்குகிறான் என்பதையே இங்கு நாம் 
காணல்வேண்டும். இதோ அப்பாடலைப் பாருங்கள். </p>

<p>		அறம் </p>

<p>	பண்டைத் தமிழர்கள் அறத்தையும், வீரத்தையும் இரு 
கண்களாகக் கொண்டு வாழ்ந்தவர்கள் என்பதை முன்பே 
கூறினோம். அவ்வறம் பற்றி வள்ளுவரும், பிற புலவர்களும் 
எப்படிப் பாடுகிறார்கள் என்பதையும், தமிழர்கள் எப்படிப் 
பட்ட அறவாழ்க்கை வாழ்ந்தார்கள் என்பதைப் பற்றியும் 
இனி நாம் காண்போம்.
-34-
	வள்ளுவன் பாடாத பாட்டில்லை. சொல்லாத கருத்தும் 
இல்லை. இருப்பினும் அறத்தை உள்ளிட்ட வாழ்க்கையே 
இல்வாழ்க்கையாகும்.  மற்றதெல்லாம் வாழ்க்கையாகாது 
என அவன் அடித்துக் கூறும் அளவிற்கு வேறு எவரும்  
அடித்துக் கூறவில்லை எனச் சொல்லலாம். அவன் எடுத்த 
எடுப்பிலேயே கூறுகிறான் பாருங்க஼஼ள். </p>

<p>	இல்வாழ்க்கை என்பது எப்படி இருக்கவேண்டும். 
`அன்பும், அறனும் உடையதாக விளங்கவேண்டும். அப்படி 
அன்பும், அறமும் உடையதாக விளங்குமானால் அதுவே 
பண்பும் பயனும் உடையதாகும்' என்று கூறுகிறான். </p>

<p>	அதாவது, அன்பு இருக்கவேண்டும்!    எப்படிப்பட்ட 
அன்பு? தூய அன்பாக இருத்தல், இத்துடன் அறமும் 
இருத்தல் வேண்டும். அன்பும் அறமும், இணைந்஼ததே பண்பும் 
பயனுமான இல்வாழ்க்கை என்று கூறுகிறான். பொதுவாக 
இப்பாடல் பெரும் புலவர்களுக்குத் தெரிந்த ஒன்றென்றாலும் 
இப்பாடல் ஒவ்வொரு முறை  படிக்கும்போதும் ஒவ்வொரு~
விதமான புதிய கருத்துத் தோன்றுவதை உணரலாம். இதோ 
அப்பாடல்.</p>

<p>	மேலும் அவன் என்ன கூறுகிறான் என்று பாருங்கள். </p>

<p>	`ஒருவன் தானும் அறவாழ்க்கை வாழ்ந்து, பிறரையும் 
அறவாழ்க்கை வாழச் செய்து வாழ்வானேயானால், அவன் 
தவம் செய்து வாழ்வோருடைய வாழ்க்கையைவிட 
மிக்க வல்லமையான   வாழ்க்கை வாழ்ந்தவனாவான்.' 
என்று கூறுகின்றார். அதாவது `தாம் மட்டும் அற 
வாழ்வு வாழ்ந்தால் போதாது. பிறரையும் அறவாழ்வில் 
ஈடுபடுத்தவேண்டும். இப்படிப்பட்ட வாழ்க்கையை ஒருவன் 
-35-
மேற்கொள்வானேயானால் அவன் காட்டிற்குச் சென்று
கடுமையான தவம் செய்யவேண்டுவதில்லை. அதைவிட 
மேலான வாழ்க்கை வாழந்தவனாவான்' என்று கூறுகின்றான். </p>

<p>	இப் பாடலாகும். இத்துடன் விட்டானா வள்ளுவன்?
இல்லையே!  இன்னும் ஒரு படி மேலே சென்று வாழ்விற்கே 
ஒரு முத்தாய்ப்பு வைத்ததுபோல எப்படிப் பாடுகிறான் 
பாருங்கள்.  </p>

<p>	அதாவது வாழவேண்டிய அறநெறியோடு         வாழ்பவன் 
வானுலகில் வாழ்கின்ற தேவர்களோடு ஒப்பிடப்படுவான். 
அவர்களில் இவனும் ஒருவனாகக் கருதப்படுவான் என்று 
கூறுகின்றார். இதற்குமேல் அறத்தைப்பற்றி என்ன பாட 
வேண்டியுள்ளது!</p>

<p>	ஒன்றை நாம் நினைவில் கொள்ளவேண்டும். 
திருக்குறளில், அறத்துப்பாலில், இல்வாழ்க்கை என்னும் 
அதிகாரத்தில் இல்வாழ்க்கையைப்பற்றி  வலியுறுத்த 
வந்தவன் என் அறத்தைப் பற்றியே வலியுறுத்துகிறான்?</p>

<p>	அறம் இன்றேல் இல்வாழ்க்கை  இல்லை. அப்படியொரு
வாழ்க஼்கை இருந்தாலும் அது வாழ்க்கையே இல்லை. இல்+
வாழ்க்கை-இல்வாழ்க்கை. அதாவது இல்லறவாழ்க்கை. 
இல்-இல்லம், மனை. இல்லத்தில் அல்லது மனையில் அமைக்~
கின்ற அறவாழ்க்கை-அறவாழ்க்கையே இல்லற வாழ்க்கை~
யாகும் என்று உணர்த்தவே அவன் இல்வாழ்க்கை என்ற 
அதிகாரத்தில் அறத்தை வலியுறுத்துகிறான் என்பதை உணர
வேண்டும். 
-36-</p>

<p>	வள்ளுவன் ஏன் இவ்வாறு அறத்தை வலியுறுத்துகிறான்? 
தமிழர்கள் அறவாழ்க்கை வாழாதவர்களா? அந்த அளவிற்கு 
அறப்பண்பு அற்றவர்களா? இல்லையே! பின் ஏன் இந்த 
அளவிற்கு வற்புறுத்துகிறான்? </p>

<p>	மேலும் மேலும் அறம் செய்தல்வேண்டும். இன்னும் 
சிறப்பான அறவாழ்க்கை வாழவேண்டும்    என்ற எண்ணத்தி~
லேயே இவன் இவ்வாறு பாடினான் என்பதாகக் கொள்ள
வேண்டும். </p>

<p>	இரங்குதல் வேண்டும். </p>

<p>	""அறம் எனப்படுவது யாது? அது எது? எனக் கேட்பீர்~
களேயானால் சொல்கிறேன்!  மறவாது கேளுங்கள். உலகில் 
வாழும் உயிர்களுக்கெல்லாம் அதாவது அவ்வுயிர், இவ்வுயிர்
என்று வேறுபாடு காணாது எவ்வுயிர்க்கும் வேண்்டிய 
உணவையும், உடையையும் தங்கும் இடத்தையும் வழங்கு~
வதே அறமாகும். மற்றவையெல்லாம் அறமாகாது. </p>

<p>	உலகில் பசியால் துன்஫ுறுவோர்க்கெல்லாம், உணவு 
கொடுத்தோரே உயர்஼ந்தோர் ஆவார். நம்மிடத்தில் 
இப்போதுள்ள இளமை அழிந்துவிடும். உயிரும் என்றும்  
நிலைத்து நிற்கக்கூடியதல்ல. வெகுவாகப் பாடுபட்டுத் 
தேடிய பெருஞ்செல்வமும் அழியக்கூடியதே. அப்போது, 
நாம் பெற்றெடுத்த புதல்வர்களும் துணைக்கு வரமாட்டார்~
கள். உங்களுக்கு வழித்துணையாக வருவதும், உங்களுக்கு 
என்றும் உறுதுணையாக இருப்பதும் அறமே ஆகும். 
எவ்வுயிர் துன்பமுற்றாலும் நாம் இரங்குதல் வேண்டும்""</p>

<p>	என்று, அறம்பற்றிப் போதிக்கிறார் சாத்தனார். 
இத்துடன் இவர் விட்டுவிடவில்லை. இன்னும் விரிவாக 
மேலும் சொல்கிறார். </p>

<p>	கண்ணற்றோர், காது கேளாதவர், கால் முடப்~
பட்டோர், எவ்விதத் துணையுபம் இல்லாத ஆதரவற்றோர் 
-37-
பிணியுற்றோர் ஆகிய அனைவரையும் நாமே அவர்கள்பால் 
சென்று அன்புடன் அழைத்து அவர்களுக்கு உணவிட 
வேண்டும் என்று கூறுகிறார். அப்பாடலை பாருங்கள். </p>

<p>	இவ்வாறு அறம்பற்றிப் பாடிய புலவர்கள், பிறருக்காக 
மட்டும் பாடினார்களா? என்றால் இல்லையென்றே துணிந்து 
கூறலாம். அவர்களும் அறவாழ்க்கையே வாழ்ந்தார்கள். 
பிறரும் தம்போல் வாழவேண்டும் என்பதற்காகத் தாங்களும்
வாழ்ந்துகாட்டினார்கள். அதுமட்டுமா? மன்னன் என்றும் 
பாராது கொஞ்ச஼மும் அஞ்சாது அறத்தைப் பற்றி எடுத்துக்
கூறவும் செய்தார்கள்.</p>

<p>அறவழி</p>

<p>	அறத்தின் வழியே பொருளீட்டவேண்டும். ஈட்டிய 
பொருளை அறத்தின் வழியிலேயே செலவிடவேண்டும். 
அவ்வாறு செலவிட்டே இல்லறமாகிய நல்லறத்தை நடத்த
வேண்டும் இதுவே இல்லற வாழ்க்கையாகும். இதுவே
-38-
௟ாம் பெற்ற இன்பமும் ஆகும். இதுவே பண்பும் ஆகும், 
பயனும் ஆகும். இது குடிமகனுக்கு மட்டுமல்ல; மண்ணை 
ஆளுகின்ற மன்னனுக்கும் ஆகும். </p>

<p>	அவனும் அறவழியில்தான் பொருளீட்டவேண்டும்.
எவ்வாறு? அதாவது, வரியை மக்கள் தாங்கும் அள௉விற்கே 
விதித்து வசூலிக்க வேண்டும். மன்னனாயிற்றே என்ற மமதை~
யில் வரிவிதித்து, மக்களைக் கொடுமை செய்து பொருளீட்டக்
கூடாது. அவ்வாறு ஈட்டி அறம் செய்வானேயானால் அது 
அறமாகாது. அதுவன்றி, வேறு தவறான வகையில் 
பொருளீட்டி `அறம் செய்கிறேன்' எனச் செய்தாலும் அது 
அறமாகாது. </p>

<p>	அறவழியில் பொருளீட்டவேண்டும். அத஼னை அறவழி~
யிலேயே செலவிடவேண்டும். சாதாரண குடிமக்களுக்கும் 
அதுதான். மிகப் பெரிய மன்னனுக்கும் அதுதான் சிறப்~
பாகும். இதனையே ஒரு புலவர் பதிற்றுப்பத்தின் வாயிலாக 
மன்னனுக்குப் புகட்டுகிறார் பாருங்கள்.</p>

<p>அரசவை</p>

<p>	அரசவை கூடியுள்ளது. ஆன்றோர் பலர் கூடியுள்ளனர். 
மன்னனும் தான்் பெற்ற வெற்றிப் பெருமிதத்தோடு 
சிங்கமெனச் சிம்மாசனத்தில் வீற்றிருக்கின்றான். புலவர்
பலரும் அவனது வெற்றி பலவற்றை எடுத்துக்஼கூறி அவனை 
வானளாவப் புகழ்கின்றனர். ஆனால், அதிலே ஒரு புலவர் 
மட்டும் தன்னடக்கத்தோடு சொல்லவேண்டிய கருத்தைச் 
சுருக்கமாகவும், அதே, வேளையில் மிக எளிமையாகவும் 
`அவன் எவ்வாறு வாழவேண்டும்' எனவும் எடுத்துக் கூறு~
கின்றார். செல்வத்தை எவ்வாறு செலவிட வேண்டும் 
என்றும் கூறுகிறார். </p>

<p>மன்னா! வாழ்க!</p>

<p>	`மன்னா! செல்வத்தைத் தொகுத்துவை! எதற்஖ாக? 
பிறருக்குப் பகுத்து அளிப்பதற்கே அவற்றைத் தொகுத்துவை.
-39-
அவ்வாறு தொகுத்து வைத்த நீ நன்றாக வாழவேண்டும். 
எந்த வகையில் நன்றாக வாழவேண்டும்? பிறரைப் பேணுவ~
தற்காகவே வாழவேண்டும். அவ்வாறு வாழ்ந்தாயானால் நீ 
நன்றாக வாழ்ந்ததாகவே பொருள்படும்.'</p>

<p>	என்஼று பாடுகின்றார். இச் செய்யுள் பதிற்றுப்பத்தில் 
உள்ளது. </p>

<p>	அனைவர்க்கும் வழங்குக!</p>

<p>	வறுமையிற் செம்மையுடையவன் தமிழ்புலவன் 
என்பது வரலாறு. தமக்கு வறுமை ஏற்பட்டபோது ஒருவர் 
உதவ, அவ்வேளையில் வேறோருவர் வந்து அவரிடம் உதவி 
நாட, அவர் தம் வறுமையை எண்ணாது, பெற்றதைப் 
பிறருக்களிக்கும் மனவண்மை பெற்றவரே தமிழ்ப்புலவர் 
ஆவார். அத்தகையோருள் பெருஞ்சித்திரனார் என்பவரும் 
ஒருவராவார். </p>

<p>	இவர் தம் வறுமையின் கொடுமை தாங்காது, காடுபல
கடந்து, மலைகள் பல தாண்டி, கால் நோவ, மெய்நோவ, 
குமணனது இல்லத்தை அடைந்து,அவனைப் பாடிப் பரிசில் 
பெற்று, தம் இல்லம் நோக்கி வருகின்றார், அவ்வாறு வந்த 
அவர், அச் செல்வத்தையெல்லாம் தன் மனைவியிடம் 
கொடுத்துப்"" பெட்டியில் பூட்டிவை. பல நாட்கள் பட்டினி 
கிடந்தது நமக்கல்லவா தெரியும். அப்போது நமக்கு எவர் 
உதவினார்கள்? ஆகவே எவருக்கும் எதுவும் கொடுக்க 
வேண்டாம். நாம் உண்டு. நம் வாழ்க்கை உண்டு என்று 
இருப்போம். எவருக்கும் இதனைத் தெரிவிக்க வேண்டாம். 
இதைக் கொண்டு பல ஆண்டுகள், சுகமாக வாழ்வோம்"" 
என்றா கூறினாரா? இல்லை. மாறாக என்ன கூறுகிறார்? இதோ
அவர் சொல்வதைக் கேளுங்க஼ள்.
-40-
	""அன்பு இல்லக்கிழத்தியே! உன்பால் அன்பு செலுத்தி
உனக்கு உதவிய மகளிர்க்கும், உன்னால் அன்பு 
செலுத்தப்பட்ட மகளிர்க்கும், பல குணங்களும் நிரம்பப் 
பெற்ற கற்புமிக்க உனது சுற்றத்து மூத்த மகளிர்க்கும், 
நமது சுற்றத்தின் கடும்பசி நீங்க உனக்கு நெடுநாட்படக்~
குறித்த எதிர்ப்பைத் த஼ந்்தவர்களுக்கும் இச் செல்வமனைத்தை~
யும் வழங்கு! இதோடு எவருக்குத் தரவேண்டும், எவருக்குத் 
தரக்கூடாது என்பது பற்றி என்னிடம் எதுவும் கேட்க 
வேண்டியதில்லை. இதை வைத்தே    வாழ்க்கை நடத்துவோம் 
என்றும் எண்ணவேண்டாம். நீ எல்லோருக்கும் கொடு. 
எந்தவித வேறுபாடும் காணாது அனைவருக்கும்  நீ இச்~
செல்வத்தை  வழங்கு! பலாப்பழம் போன்ற கனிகள் 
தூங்குகின்ற முதிரம் என்஼னும் மலைக்குத் தலைவனான 
குமணன் என்னும் வள்ளலே இப் பரிசிலை எமக்கு அளித்தது"" 
என்று ஖ூறுகிறார். இப்படிப்பட்ட புலவரை எங்கேனும் 
காண முடியுமா? என்ன மகிழ்ச்சியோடு, என்ன ஆரவாரத்~
தோடு, எத்஥னைப் பெருமையோடு கூறுகின்றார் பார்த்தீர்~
களா? முன்பு அவர் பட்ட வறுமை அவர்  கண்ணில் 
பட்டதா? பிற்கால வாழ்வை அவர் எண்ணிப்~
பார்க்கின்றாரா? இதே அப்பாடலைப் பாருங்கள். </p>

<p>-41-
		விருந்தோம்பல்</p>

<p>	விருந்தோம்பல் என்பது தமிழர்க்குரிய பண்புகளில் 
மிகச்சிறந்த பண்பு என்று கூறலாம். இப்பண்பு, தமிழன் 
பிறக்கும்போதே அவனேடு சேர்ந்து பிறந்த ஒன்஼று என்றும் 
குறிப்பிடலாம். அந்த அளவிற்கு, விருந்தோம்பல் என்னும் 
பண்போடு ஒன்றிப்போனவன் தமிழன் ஆவான். தமிழர்க்~
குரிய விருந்தோம்பல் என்னும் இப்பண்பைப் போற்றாதவரும் 
இல்லை. புகழாத நாடும் இல்லை. </p>

<p>	இலக்கியத்தில் விருந்தோம்பல் பற்றிய எண்ணற்ற 
நிகழ்ச்சிகள் இடம் பெற்றுள்ளன. விருந்தோம்பல் இடம் 
பெறாத தமிழ் இலக்கியமே இல்லை என்றும் கூறலாம். அந்த 
அளவிற்஖ு  விருந்தோம்பல் பற்றிய நிகழ்ச்சிகள் தமிழ் 
இலக்கியங்களிலே இடம் பெற்றுள்ளன. </p>

<p>	யாமப் பொழுதிலே வந்த புலவன் ஒருவனுக்குக்  
குடிசையிலே வாழ்ந்த குடிமகனொருவன், அன்஼று நாற்றங்~
காலிலே விதைத்த  விதையை அரித்து வந்து, அப்போதே 
வறுத்துக் குத்தி உலையிலிட்டு, சோறு சமைத்துப் போட்ட ~
தோடு, கொல்லைப் புறத்தில் தெரிந்த பசலைக்கீரையை 
அப்போதே பறித்துவந்து அதனைச் சட்டியிலிட்டு வாட்டி
அவ் வுணவிற்குத் துணையாக கொடுத்த நிகழ்ச்சி பலரது 
நெஞ்சத்திலும் இடம் பெற்ற நிகழ்ச்சியாகும். </p>

<p>	நாயன்மார்களுக்கும், ஆழ்வார்களுக்கும் தமிழக மக்கள் 
கொடுத்துவந்த மதிப்பும் மரியாதையும், அவர்களுக்கு 
உணவிட்டு உபசரித்த பாங்கும் ஈடு இணையற்றவையாகும். 
இப்படி எண்ணற்ற நிகழச்சிகளை அடுக்கிக்கொண்டே 
போகலாம். </p>

<p>	முதலில் இளந்திரையன் விருந்தோம்பல் திறத்தைப் 
பாருங்கள். `பரிசிலரின் பாசிபோன்ற, ஆடையை நீக்கி, ஆவி
அன்ன அவிர் நூற்கலிங்கத்தை அணியத் தந்து, வல்லவர்
சமைத்த உணவை மீன் பூத்தன்ன வான் கலத்தில் கலத்தில் பரப்பி
-42-
மகமுறை நோக்கி முகன் அமர்ந்து, ஆனாவிருப்பில், தான் 
நின்று ஊட்஼டி, பொன்னும் பொருளும் பரிசாகத் தந்து, புரவி 
பூட்டிய தேரும் நல்கி அன்றே விடுக்கும் அவன் பரிசில்' எனக் 
குறிப்பிடும் கடியலூர் உருத்திரங்கண்ணனார் கூறும் 
திறத்தைப் பாருங்கள்! சங்ககால மன்னனும் விருந்தோம்பல் 
பண்பை எவ்வாறு பேணிப் பாதுகாத்தான் என்று பாருங்கள்.</p>

<p>	விதையும் விதைக்க வேண்டுமோ? </p>

<p>	வீட்டிற்கு வந்த விருந்தினர் விட்டுத் திண்ணையில்
இருக்க, தான் மட்டும் உண்பதா? அது சாவா மருந்தாகிய 
அமிழ்தமாகவே இருந்தாலும் அது பிறர் விரும்பக் கூடிய 
நற்செயலல்ல. </p>

<p>	நல்லதொரு விருந்தினராக நம் இல்லத்திற்கு வந்தவரை 
நாம் முகம் மலர்ந்து போற்றுதல் வேண்டும். அவ்வாறானால் 
நம் இல்லத்தில் திருமகளானவள் மனமகிழ்ந்து வாழ்வாள். </p>

<p>	நம் இல்லத்திற்கு வந்த விருந்தினரை முதலில் போற்றி 
உணவளிக்க வேண்டும். பின்பு மிஞ்சிய உணவை நாம் உண்டு 
வாழவேண்டும். அவ்வாறு வாழ்ந்தோமானால் நம் நிலத்தில் 
விதைவிதைக்க வேண்டிய அவசியமே இல்லை. </p>

<p>	நம் இல்லத்திற்கு வந்த விருந்தனரைப் போற்றி இனி 
வரும் விருந்தினரை நாம் எதிர்பார்த்தல் வேண்டும். இவ்வாறு 
நாம் வாழ்வோமேயானால் நாம் வானுலகில் வாழும் தேவர்~
களுக்கும் நல்ல விருந்தினராக ஆவோம்.</p>

<p>	அனிச்சப் பூவை நாம் முகர்ந்தால் அது உடனே வாடி~
விடும். அதுபோல நம் இல்லத்திற்கு வந்த விருந்தினரை 
நாம் முகம்மலர்ந்து உபசரிக்காமல், முகம் மாறினால் நம் 
இலத்஥ிற்கு நம்மைத் தேடிவந்த விருந்தினர்களும் நம் 
செயலைக்கண்டு வருந்தி நிற்பர். 
-43-
	வள்ளுவன் விருந்தோம்பல் பற்றிக் கூறும் கருத்துக்களே 
இவைகள். இதனினும் வேறு வகையில் விருந்தோம்பல் பற்றி 
எவ்வாறு சிறப்பாகக் கூற இயலும்? இனி அதற்கான பாடல்~
களையும் பாருங்கள்.</p>

<p>	இவற்றிலிருந்து தமிழர்களின் விருந்தோம்பல் பண்பை
நன்கு அறியலாம். சங்கத் தமிழர்கள் தோற்றுவித்த 
விருந்தோம்பல் பண்பை, காலம் காலமாகத் தமிழர்கள் 
பேணிக்காத்து வந்தனர் என்றே சொல்லவேண்டும். இன்றும் 
இப்பண்பு தமிழகத்தில் தமிழர்களிடையே நிலவி வருகிறது. </p>

<p>		ச஼ங்கப் புலவர்கள் மாண்பு</p>

<p>	சங்ககாலப் புலவர்கள் அனைவரும் ஓர் ஊரைச் 
சார்ந்தவர்களோ, ஓர் இனத்தைச் சார்ந்தவர்களோ, ஒரு 
மதத்தைச் சார்ந்தவர்களோ அல்லர். அவர்கள் அனைவரும் 
வெவ்வேறு ஊரைச் சார்ந்தவர்கள்; வெவ்வேறு இனத்தைச் 
சார்ந்தவர்களே ஆவர். இனம் என்பது இங்கே அவர்கள் 
ஆற்றிவந்த தொழிலைக் குறிப்பிடுமேயல்லாது அவர்களது 
பிறப்பைக் குறிப்பிடுவது அல்ல என்பதை அவர்களது பாடல் ~
களாலேயே அறியலாம்.</p>

<p>-44-
	இவ்வாறு இவர்கள் பல்லூரைச் சார்ந்திருந்தும், பல்~
வகை இனத்தைச் சார்ந்திருந்தும், இவர்களுக்குள்ளே இருந்த 
ஒற்றுமை-இவர்களுக்குள்ளே விளங்கிய அன்஼பு, எவராலும் 
சொல்லி விளக்கமுடியாத ஒன்றாகும். </p>

<p>பல்வகையினர் </p>

<p>	இத்துடன் சங்ககாலத்தில் வாழ்ந்த மன்னனாலும் சரி, 
மக்களானாலும் சரி, அவர்களுக்குள் நிலவிய தோழமை 
அன்பையும் சொல்லி முடியாது. அந்த அளவிற்கு அவர்கள் 
ஒன்றுபட்டே வாழ்ந்திருக்கின்றனர். ஆடவரும் பெண்டிரும், 
அந்தணரும், வேளாளரும், வணிகரும் சோதிடரும் இன்னும் 
பற்பல துறையினரும் தமக்குள் எவ்வித வேறுபாடும் 
இன்றிக் கல்வியும் கற்று இருக்கின்றனர். கவிதையையும், 
இயற்றியிருக்கின்றனர். பல தொழிலும் புரிந்திருக்கின்றனர். 
பற்பல கலைகளையும் வளர்த்திருக்கின்றனர். இத்தகைய 
பண்பாட்டில் சிறந்த மக்களால் தான் இன்றும் நமக்குரிய 
கலையும், கலாச்சாரமும், நாகரிகமும் நிலைத்துள்ளன என்று 
சொல்லலாம். </p>

<p>அழியாக் காவியம் </p>

<p>	மேற்கூரிய வகையில் புலவர்கள் வாழ்ந்்த஼தால்தான் 
அவர்களால், என்றும் அழிக்கமுடியாத, காலம் அழிந்~
தாலும், அழியாத காவியங்களை இயற்ற முடிந்திருக்கிறது. 
மக்களும், மன்னனும், சான்றோரும், ஆன்றோரும் இலக்கிய 
வாழ்வினையே நடத்தியுள்ளனர். ஆகவேதான் நமக்குக் 
காலத்தால் அழிக்கமுடியாத  கருவூலங்களாக இலக்கியச் 
செல்வங்கள் கிடைத்திருக்கின்றன. </p>

<p>	இங்கே இலக்கியமென்ற கட்டுப்பாடான வாழ்க்கையை 
அன்றையத் தமிழர்கள் நடத்தியிருக்கவில்லை யென்று 
சொன்னால் உயர்ந்த பண்பாடோ, நாகரிகமோ, பிறவோ 
பிறந்திருக்காது எனவும், எள்ளென்ற இலக்கிய வாழ்வில்
-45-</p>

<p>அன்றையத் தமிழர்கள் வாழ்ந்திருக்கவில்லை யென்று 
சொன்னால் எண்ணெய் என்ற ப஼ண்பாடோ பிறவோ இந்த
அளவிற்கு உயர்ந்திருக்காது எனவும் எள்ளென்ற இலக்கிய 
வாழ்விலிருந்தே எண்ணெய் என்ற பண்பாட்டையும், 
பிறவற்றையும் காண்பதுபோல எனவும், இலக்கியத்தினின்~
றெடுபடும் என்பதை மக்களுக்குரிய கட்டுப்பாடான 
வாழ்க்கையிலிருந்தே இலக்கணம் என்ற கலை, கலாச்சாரம், 
நாகரிகம், பண்பாடு பிறக்கின்றன எனவும் நாம் பொதுவாகப் 
பொருள் கொள்ளலாம். இந்த   அளவிற்கு அன்றைய 
மன்னனும், மக்களும் ஆன்றோரும், சான்றோரும் ஒன்றுபட்டே 
வாழ்ந்திருக்஼கிறார்கள்.</p>

<p>ஒற்றுமை</p>

<p>	இன்று நாம் விஞ்ஞானம் வளர்ச்சி பெற்ற காலம் என்று 
சொல்லுகின்றோம். அறிவின் வளம் ஓங்கிய காலம் என்று 
உணர்கின்றோம். ஆனால் எங்குப் பார்த்தாலும், சாதிச்
சண்டையும், மதச் சண்டையும் நிகழ்ந்து வருவதையும் 
காண்கின்றோம். ஆனால் அன்று பல இனத்தவரும் வாழ்ந்~
திருக்கிறார்கள். பல மதத்தவரும் வாழ்ந்திருக்கிறார்கள். 
அவர்கள் அனைவரும் ஒன்றுபட்டே தொழில் செய்திருக்~
கிறார்கள். ஒன்றுபட்டே வாழ்ந்திருக்கிறார்கள். ஒன்றுபட்டு, 
ஓரிடத்தில் அமர்ந்தே இலக்கிய விமர்சன஼ம் செய்திருக்கிறார்~
கள். </p>

<p>பலவகைப் பிரிவினர்</p>

<p>	சங்ககாலத்தில் வாழ்ந்த உறையூர் ஏணிச்சேரிமுட
மோசியார், கடியலூர் உருத்திரங் கண்ண஼னார், கபிலர் 
போன்றோர் அந்தணர் இனத்தைச் சார்ந்தவர்களாவர். 
அதாவது கற்றவர்஖ள். வழியே வந்த஼வர்களாவர். </p>

<p>	மதுரை  அறுவை வாணிகன்    இளவேட்டனார், மதுரைக்
கூலவாணிகன் சீத்தலைச் சாத்தனார் போன்றோர் வணிக 
குலத்தைச் சார்ந்தவர்களாவர்.
-46-</p>

<p>	அரிசில் கிழார், ஆவூர்கிழார் போன்றோர் வேளாளர் 
இனத்தைச் சார்ந்தவராவார்கள். இத்துடன் குறவர்,
பாணர் குலத்தைச் சார்ந்தவர்களும் சங்ககாலத்தில் கவிதை 
இயற்றியுள்ளனர். இவ்வாறு பலவகை இனத்தவரும்,
தங்களுக்குள் எவ்வித வேறுபாடின்றியும் பிணக்கின்றியும், 
ஒன்றுபட்்டே, உள்ளன்பு கொண்டே, வாழ்ந்திருக்கின்றார்~
கள் என்பதை வரலாறு நமக்கு உணர்த்துகிறது. இவர்~
களுக்குள் எந்த அளவிற்஖ு மனப்பக்குவம் இருந்திருந்தால், 
நாகரிகம் மிகுந்திருந்தால், பண்பாடு உயர்ந்திருந்தால் இந்த 
அளவிற்கு ஒன்றுபட்டு வாழ்ந்திருக்க முடியும் என்பதை 
எண்ணுதல் வேண்டும். இத்துடன் குடிமக்கள் மட்டுமா
கவிதை இயற்றி இருக்கிறார்஖ள். மன்னவனும் கவிதை 
இயற்றி இருக்கின்றனர். இளம் பெருவழுதி என்ற 
பாண்டிய மன்னன் இயற்றிய பாடல்஖ள் மிகச் சிறப்பான 
பாடல்களாகும். இவனது பாடல்களில் ஒன்று பரிபாடலில் 
இணைந்துள்ளது. இதுமட்டுமல்ல; பாலையொழுக்கத்தைப்
பாவின் சுவை நுட்பத்தோடு முப்பந்தைந்து கலிப்பாக்~
களில், பாலைபாடிய பெருங்கடுங்கோ இயற்றியுள்ளார் கலித்~
தொகையில் முல்லைக் கலியின் இ஼இயல்பைப் பதினேழு பாடல்~
களில் சோழன் நல்லுருத்திரன் என்னும் மன்னன் மிகச்஼சிறப்~  
பாகப் பாடியுள்ளான். தனக்கென வாழாப் பிறர்க்குரிய ~
வனாகவே வாழுகின்ற பாணனை, </p>

<p>	எனத் தன் வாழ்நாளையும் சேர்த்து வாழச் சொன்ன 
வள்ளல் சோழன் குளமுற்றத்துத்துஞ்சிய கிள்ளிவளவனது 
உயர்ந்த உள்ளத்தை இங்கு எண்ணிப் பார்த்தல் வேண்டும். 
இவ்வாறு மன்னனும் அக்காலத்தில் மக்களோடு மக்களாக~
வே வாழந்து, மக்களது இன்னல்களைப் புரிந்து அவர்~ 
களுக்குத் தொண்டாற்றியதோடு, அவர்களுடன் சேர்ந்து 
கல்வியும் கற்றுக் கவிதையும் இயற்றினான் என்பதை நாம் 
அறிகின்றோம். அன்஼றை௟ப் பழந்தமிழர்கள் எத்஼தகைய பண்஼பாடு
-47-
மிக்கவர்களாக வாழ்ந்திருக்கிறார்கள் என்பதை நம் 
இலக்கியங்கள் தெளிவுற எடுத்துக் காட்டுகின்றன.</p>

<p>பெண்பாற்புலவர்கள்</p>

<p>	அன்றையச் சங்ககாலத்தைப்  பாருங்கள். எ஥்஥னை பெண் 
பாற்புலவர்கள் ஆண்பாற் புலவர்களோடு ஒன்று சேர்ந்து 
எ஥்஥கைய அரிய கவிதைகளை இயற்றி இருக்கிறார்கள் என்று
எண்ணிப் பாருங்கள். இவர்கள் பெண்கள் என்பதால் இவர்~
களுக்குப் போதிய புலமை இருக்காது என அக்கால 
ஆண்பாற்புலவர்கள் இவர்களை ஒதுக்கிவிட்டார்களா?
அடுப்பூதும் பெண்ணுக்குப் படிப்பெதற்கு என இவர்களைக்
கல்வி கற்கவிடாமல் அன்றையத் தமிழர்கள் ஒதுக்கிவிட்஼டார்~   
களா? `ஆணுக்குப் பெண் சமமில்லை' ஆகவே உனக்குக் கவி
இயற்ற அருகதை இல்லை என இவர்களது கவிதைகளை ஏற்க
மறுத்து விட்டார்களா? இல்லை. உலகிலேயே எந்த 
நாட்டிலும் இல்லாத அளவிற்கு ஒரே காலத்திலேயே, ஒருசேரக்
காணமுடியாதபடி ஐம்பதுக்கும் மேற்பட்ட பெண்பாற்
புலவர்கள் சங்ககாலத்தில் ஒருங்கே அமர்ந்து கவிபாடி~
யுள்ளனர் என்றால் இதிலும் நமக்குப் பெருமை தரக்கூடிய 
நிகழ்ச்சி வேறு என்ன வேண்டும்? சங்ககாலத் தமிழர்கள் 
பெண்மையை எந்த அளவிற்கு     மதித்திருந்தால், எந்த 
அளவிற்கு அவர்களை உயர்த்தியிருந்தால் பெண்பாற்  புலவர்~
கள் இந்த அளவிற்குக் கவி பாடி இருக்க முடியும்?</p>

<p>               0 
</p></body></text></cesDoc>