<cesDoc id="tam-w-socsci-myths-lorex" lang="tam">
<cesHeader type="text">
<fileDesc>
<titleStmt>
<h.title>tam-w-socsci-myths-lorex.txt</h.title>
<respStmt>
<respType>Electronic file created by</respType>
<respName>Central Institute for Indian Languages, Mysore</respName>
<respType>transferred into Unicode and CES format by</respType>
<respName>"Unicodify" software by Andrew Hardie</respName>
</respStmt></titleStmt>
<publicationStmt>
<distributor>UCREL (on behalf of CIIL)</distributor>
<pubAddress>Department of Linguistics, Lancaster University, Lancaster, LA1 4YT, UK</pubAddress>
<availability region="WORLD"></availability>
<pubDate>03-07-09</pubDate>
</publicationStmt>
<sourceDesc>
<biblStruct>
<monogr>
<h.title>வரலாற்று நிலவியல்-ஆய்வுமுறை- அறிமுகமும் ஆய்வுகளும்</h.title>
<h.author>ஆறு. இராமநாதன்</h.author>
<imprint>
<pubPlace>India</pubPlace>
<publisher>Unknown - Book</publisher>
<pubDate>1988</pubDate>
</imprint>
<idno type="CIIL code">lorex</idno>
</monogr></biblStruct></sourceDesc></fileDesc>
<encodingDesc>
<projectDesc>Text collected for the CIIL Corpus, subsequently integrated into the EMILLE/CIIL Monolingual Written Corpora.</projectDesc>
<samplingDesc>Simple written text only has been transcribed. Diagrams, pictures and tables have been omitted. Sampling begins at page 42.</samplingDesc>
<editorialDecl><conformance level="1"></conformance></editorialDecl>
</encodingDesc>
<profileDesc>
<creation><date>03-07-09</date></creation>
<langUsage>Tamil</langUsage>
<wsdUsage>
<writingSystem id="ISO/IEC 10646">Universal Multiple-Octet Coded Character Set (UCS).</writingSystem>
</wsdUsage>
<textClass>
<channel mode="w">print</channel>
<constitution type="composite"></constitution>
<domain type="public"></domain>
<factuality type="fact"></factuality>
</textClass>
<translations></translations>
</profileDesc>
<revisionDesc></revisionDesc>
</cesHeader>

<text><body><p>
 
-1-
	வரலாற்று நிலவியல் ஆய்வுமுறை-அறிமுகம் 
 
	இக்கட்டுரை இரு பகுதிகளாகப் பிரிக்கப்பட்டுள்ளது.
முதலாவதாக வரலாற்று நிலவியல் ஆய்வுமுறையின் தோற்றம், 
வளர்ச்சி, ஆய்வுமுறை, நிறைகுறைகள்,    எதிர்காலம் முதலியன 
அறிமுக நிலையில் சுட்டிக் காட்டப்படுகின்றன. இரண்டாவதாக 
வரலாற்று ஂநிலவியல் ஆய்வு முறையைப் பயன்படுத்திச் செய்யப்~
பட்டு இந்த ஆய்வேட்டுடன் இணைக்கப்பட்டுள்ள  இரு 
ஆய்வுகள் பற்றிய பொதுவான சில செய்திகள், பின்஫ற்றப்பட்ட 
சில முறைகள் ஆகியன சுருக்கமாக அறிமுகப்படுத்தப்படு~
கின்றன. </p>

<p>1.0. முன்னுரை </p>

<p>	உலகில் நாட்டுப்புற வழக்காறுகளைச் சேகரித்~
தலும் ஆராய்தலுமான பணிகள் நூற்றாண்டுகளாக 
நிகழ்ந்து வருகின்றன. ஆயினும், ஜேக்கப் கிரிம் 
(1785-1863) என்ற செருமானிய மொழியியலாளர்
என்னும் நூலை வெளியிட்ட 1835 -ஆம் ஆண்டிலிருந்துதான்
-2-
முறையான-அறிவியல்பூர்வமான -நாட்டுப்புற~
வியல் ஆய்வு தொடங்கியதாகக் கணக்கிடப்~
படுகிறது. அந்த அடிப்படையில் நோக்கினால் 1985-ஆம் 
ஆண்டோடு உலக நாட்டுப்புறவியல் ஆய்வு தோன்றி நூற்றைம்~
பது ஆண்டுகள் முடிந்துவிட்டன என்று கொள்ளலாம். </p>

<p>	மொழியியல், மானிடவியல்,  உளவியல், இலக்கியம் போன்ற 
பலதுறை ஆய்வாளர்களின் பங்களிப்பால் உலகளவில் நாட்~
டுப்புறவியல் இன்று தனித்துறையாக வளர்ச்சிபெற்றுள்ளது. 
இத்஥ுறையில் பல்வேறு சிந்தனைப் பிரிவுகளும் 
கொள்கைகளும்     தோன்றி  வளர்ந்துள்ளன.
அமெரிக்க நாட்டு இந்தியானா பல்கலைக் கழகத்தில் பணி 
புரிந்த, -வரலாறு மற்றும் நாட்டுப்புறவியல் துறைகளின் 
பேராசிரியர் ரிச்சர்ட் எம். டோர்சன் தம் கட்டுரையொன்றில் 
ஐந்து நாட்டுப்புறவியல் கொள்கைகள் பற்றி 
விளக்கிக் கூறியுள்ளார். அவை: </p>

<p>1. ஒப்பீட்டு நாட்டுப்புறவியல் கொள்கை 
2. தேசீய நாட்டுப்புறவியல் கொள்கை 
3. மானிடவியல் கொள்கை 
4. உளநிலைப் பகுப்பாய்வு நாட்டுப்புறவியல் கொள்கை
-3-
5. அமைப்பியல் நாட்டுப்புறவியல் கொள்஼கை </p>

<p>	பின்னர் அவரே தாம் பதிப்பித்த நூலொன்றின் 
முன்னுரையில் (1972: 7-50) பன்னிரெண்டு நாட்டுப்புறவியல் 
கொள்கைகள்பற்றி விரிவாகக் குறிப்பிடுகின்஼றார். 
அவை: 
1. வரலாற்று-நிலவியல் கொள்஖ை 
2. வரலாற்று -மீட்டுருவாக்கக் கொள்கை 
3. இலட்சியக் கொள்கை 
4. செயல்முறைக் கொள்கை 
5. உளநிலைப் பகுப்பாய்வுக் கொள்கை
6. அமைப்பியல்    கொள்கை 
7. வாய்மொழி-வாய்பாட்டுக் கொள்கை. 
8. கலப்புப் பண்பாட்டுக் கொள்கை. 
9. நாட்டுப்புறப் பண்பாட்டுக் கொள்கை. 
10. மக்க஠் பண்பாட்டுக்  கொள்கை. 
11. அரை (பாதி) உலகக் கொள்கை. 
12. சூழ்நிலைக் கொள்கை. </p>

<p>முன்னர்க் கூறியுள்ள `ஒப்பீட்டு நாட்டுப்புறவியல் கொள்கையே'
இதில் `வரலாற்று நிலவியல்' என்று கூறப்பட்டுள்ளது. தேசீய 
மற்றும் மானிடவியல் கொள்கைகள்    இதில் கூறப்படவில்லை.
வேறுசில ஆய்வாளர்கள் 
தொன்மவியல் கொள்கை
-4-
புலப்பெயர்வுக்கொள்கை 
ஆகிய இரண்டையுங் கூட இன்றியமையாக் கொள்கைகளாகக் 
கூறுகின்றனர். இவர்கள் மானிடவியல் கொள்கையையும் குறிப்~
பிடுகின்றனர். இவற்றையும் இணைத்துப் பார்க்கும்போது
நாட்டுப்புறவியல் துறையில் தற்போது பதினைந்து வெவ்வேறு 
கொள்கைகள்    உள்ளன என்று கூறலாம். காலப்போக்க஼ில் மேலும் 
பல கொள்கைகள் தோன்றலாம்.</p>

<p>	மேற்கூறப்பட்ட கொள்கைகளுள்       வரலாற்று-நிலவியல் 
கொள்கை பற்றி மட்டும் இங்குக் காணலாம். </p>

<p>1.1. வரலாற்று நிலவியல் ஆய்வு முறை -தோற்றமும் வளர்ச்சியும் </p>

<p>	பத்தொன்பதாம் நூற்றாண்டின் பின்பாதிமுதல் இருபதாம் 
நூற்றாண்டின் முன்பாதி வரையிலான சுமார் ஒரு நூற்றாண்~
டுக் ஂகாலம் நாட்டுப்புறவியல் துறையில் மிகுந்த செல்வாக்குடன் 
திகழ்ந்த வரலாற்று-நிலவியல் ஆய்வுமுறை, பன்னாட்டு அறிஞர்~
களின் கவனத்தைக் கவர்ந்து வந்துள்ளது. நாட்டுப்புற வழக்~
காறுகளை முதன் முதலில் அறிவியல்பூர்வமாக ஆராய்ந்ததும் 
பின்னர்த் தோன்றிய அமைப்பியல் ஆய்வுகளுக்கு முன்னோடி~
யாகத் திகழ்ந்ததும் இந்த ஆய்வுமுரையேயாகும். இந்த ஆய்வு 
முறை அறிஞர்களின் பாராட்டுக்கு உட்பட்டதைப் போலவே 
பலத்த கண்டனத்துக்கும் உட்பட்டு வந்திருக்கிறது. இந்த 
ஆய்வுமுறை படிப்படியாகத் தோன்றி வளர்ந்த வரலாற்றை~
யும் அதன் ஆய்வுமுறைகளையும் அதன் நிறை குறைகளையும் 
அறிந்து கொள்வதற்குப் பல்வேறு அறிஞர்களின் கட்டுரைகளும்
-5-
நூல்களும் நமக்குத் துணைபுரிகின்றன. அவற்றின் அடிப்~
படையில் இங்குச் செய்திகள் சுருக்கமாகத் தரப்படுகின்றன. </p>

<p>	தியோடார் பென்பே  என்~ 
னும் செருமானிய -இந்தியவியல் அறிஞர் சமஸ்கிருதக் கதை 
இலக்கியங்களை ஆய்வதில் ஆர்வம் காட்டினார். `மக்கள் ஒரு~
வருக்கொருவர் நாட்டுப்புற வழக்காறுகளைக் கடன் வாங்கிக் 
கொண்டனர்'
என்று வில்ஹெம் கிரிம் போகிறபோக்கில் கூறிய கருத்தை 
இவர் எடுத்துக் கொண்டார். இவர் பஞ்சதந்திரக் கதைகளைச் 
செருமானிய மொழியில் மொழிபெயர்த்தார். இம்மொழி 
பெயர்ப்புக்கான முன்னுரையில் சமஸ்கிருத-ஐரோப்பியக் கதை~
களுக்கிடையேயுள்ள ஒற்றுமைக்கான காரணம் மாக்ஸ்முல்லரும் 
அவரைப் பின்பற்றியோரும் நம்புவதுபோல மக்களின் தோற்~
றத் தொடர்பு மட்டுமல்லாது மக்களின் 
பண்பாட்டு வரலாற்றுத் தொடர்புகளால் அல்லது அவர்களி~
டையே கடன் வாங்குதலால் ஏற்பட்டது 
என்பது அவர் கருத்து. கடன் வாங்குதல் என்பது இயல்~
பாகவோ, போர், நாடுபிடித்தல் போன்ற காரணங்களால் 
மக்கள் புலம்பெயர்ந்ததாலோ ஏற்பட்டிருக்கலாம் என்று அவர்
கூறுகின்றார். கதைகள் இந்தியாவில் தோன்றி அங்கிருந்து மத்திய 
தரைக் கடல் அங்கிருந்து தூரமேற்கு, 
ஸ்பெயின் கிரேக்க நாடுகளின் வழியாக ஐரோப்பாவுக்குப்  
பரவின என்று அவர் அனுமானித்தார். பரவுதலை அடிப்படை~
யாகக் கொண்ட    அவருடைய `புலபெயர்வுக் கொள்கை' 
பின்னர் எழுச்சிபெற்஼ற `பலவழித்
தோற்றக் கொள்கை காரணமாக ஏற்றுக்஼கொள்ளப்படாவிட்டாலும்
-6-
பத்தொன்பதாம் நூற்றாண்டின் 
இறுதியிலும் இருபதாம் நூற்றாண்டின் தொடக்கத்திலும்
நாட்டுப்புறவியல் ஆய்வில் பெரும் செல்வாக்குப் பெற்றிருந்தது. 
தொடக்கத்தில் இது மாக்ஸ்முல்லரின் வரலாற்று மீட்டுருவாக்க 
ஆய்வுமுறையோடு 
`பரவுதல்' என்ற கருத்தையும் சேர்த்து ஆதரித்தது. யூரி~ 
போலிவ்கா   என்னும் செக் நாட்டு நாட்டுப்புற~
வியலாளர் பென்பேயைப் பின்஼பற்றி `புலப்~
பெயரும் பொருள்'களுக்கு ஓர் அடைவு
உருவாக்கினார். இது ஸ்காண்டிநேவிய- ஖ுறிப்பாகப்
பின்லாந்து-அறிஞர் குழுவினரின் கவனத்தை ஈர்த்துக் கதை~
யின் பழைய வடிவம், கதையின் தோற்றம், வரலாறு, பரவிய
வழி முதலியவற்றை   ஆராய வழி வகுத்தது. இதுவே, 
பின்னாளில் நாட்டுப்புறவியலில் மிகவும் புகழ்பெற்ற வரலாற்று 
`நிலவியல் ஆய்வு' என்னும் அறிவியல் பூர்வமான ஆய்வு முறை 
தோன்றக் காரணமாக    இருந்தது. கதைகளின் தோற்றம், 
பொருள் போன்றவை    ஫ற்றி முறையாக ஆராயாமல் ஆய்வு முறை 
தோன்றக் காரணமாக இருந்தது. கதைகளின் தோற்றம், 
பொருள் போன்றவை பற்றி முறையாக ஆராயாமல் தவறான 
ஒரு பொது முடிவுக்கு வருவதைத் தடுப்பதற்கு இந்த ஆய்வு~
முறை உருவாக்கப்பட்டது.  ஒரு கதையின் வரலாற்றையும் 
பரவிய நில வழிகளையும்  ஆய்வதால் இந்த ஆய்வுமுறை அப்~
பெயர் பெற்றது. </p>

<p>	இந்த ஆய்வுமுறையின்படி ஒரு நாட்டுப்புறக் கதை நூறு 
மாற்று வடிவங்களில் காணப்படலாம். ஆனால், அவையனைத்~
தும் ஒரு காலத்தில் ஓரிடத்தில் ஒருவனால் தெரிந்து படைக்கப்஼பட்ட
-7-
ஒரு கதையிலிருந்து கிளைத்ததாக~
லாம். பின் அக்கதை தான் தோன்றிய இடத்தினின்றும் பல்~
வேறிடங்கட்கும் அலைபோல் பரவிச்சென்று ஊடுருவும் போது 
எளிதாக அவ்வவ்விடங்க஼ட்கேற்ப மாற்றமடைந்திருக்கலாம். 
சில வேளைகளில் அவை எழுதப்பட்டும் அச்சிடபட்டும் இருப்~
பினும் நிலவெல்லை கடந்து அவை பரவிச் செல்லும் போது 
மாற்றம் அடைந்தே தீரும். பல்வேறு கருவிலிருந்து பல இடங்~
களில் ஒரு கதை தோன்றியிருக்கலாம் என்பது 
போன்ற  கொள்கைகளை இந்த ஆய்வுமுறை      ஏற்றுக் கொள்வ~
தில்லை. மேலும் கனவு, சடங்குகள், தெய்வத்தன்மை, 
காட்டுமிராண்டி
மனப்பான்மை, அடக்கி வைக்கப்பட்ட இளமைக் கற்பனை~
களின் வெளிப்பாடு முதலியவற்றிலிருந்து தோன்றியிருக்கலாம்' 
என்ற கொள்கைகளையும் இந்த ஆய்வுமுறை ஏற்றுக் கொள்வ~
தில்லை. </p>

<p>	பின்லாந்தைச் சேர்ந்த ஜூலியஸ் குரோன் 
கலிவேலா   என்னும் வாய்மொழிக் காவி~
யத்தின் பழைய வடிவத்தினை மீட்டுருவாக்கம் செய்ய வர~
லாற்று- நிலவியல் ஆய்வு முறையைப் பயன்படுத்தி ஓரளவு 
வெற்றி கண்டார். அவரைப் பின்பற்றி அவருடைய மகன் 
கார்ல் கரோன் நாட்டுப்புறக் 
கதைகளை ஆராய இந்த ஆய்வு முறையைப் ப஼யன்படுத்தினார். 
இவர்களே 1960 வரை நாட்டுப்புறவியல் துறையின் தலை~
விதியை நிருணயித்த இந்த ஆய்வுமுறையைத் தோற்றுவித்த~
வர்கள் எனலாம். ஆயினும் இந்த ஆய்வுமுறையைப் பெரிதும் 
வளர்த்துப் பரப்பியதில் பின்லாந்து நாட்டு அறிஞரான 
ஆண்ட்டி ஆர்னி அவர்களின் பங்஖ு 
குறிப்பிடத்தகுந்தது. ஒப்பீட்டு ஆய்வின் வாயிலாக ஒரு கதை~
யின் வரலாறு நிருணயிக்கப்படும்வரை அக்கதை தொன்஼மவியல் 
அல்லது பண்பாட்டை அனுமானிப்பதற்குப் பயன்படாது 
என்பதை அவர் வற்புறுத்தினார். </p>

<p>	வரலாற்று-நிலவியல் ஆய்வுமுறை    வளர்ச்சிபெற்றதன் 
விளைவாக உல஼க நாட்டுப்புறக் கதைகளை  வகைப்படுத்தும்
-8-
முயற்சிகள் மேற்கொள்ளப்பட்டன. ஆண்ட்டி ஆர்னி 
பின்லாந்து மற்றும் ஐரோப்பாவில் சேகரிக்கப்பட்ட கதைகளை 
வகைப்படுத்திக் கதை வகை அடைவை 
1911-இல் வெளியிட்டார். ஜெர்மன் மொழியில் அமைந்~
திருந்த இந்த நூலை அமெரிக்காவைச் சேர்ந்த ஸ்டித் தாம்சன் 
சிறு மாற்றங்களுடன் `நாட்டுப்புறக்
கதை வகைகள்' என்னும் 
பெயரில் ஆங்கிலத்தில் 1928-இல் வெளியிட்டார். ஆர்னியின் 
இந்த நூல் விரைவில் உலகப்புகழ்ப்பெற்றது. இதன் விளைவாக 
உலக நாட்டுப்புறவியலாளர்கள் தங்கள் தங்கள் நாடுகளின் கதை 
வகை அடைவுகளை உருவாக்கும் முயற்சியில் ஈடுபட்டனர். 
புதுப்புதுக் கதை வகைகளைக் கண்டறிவதில் ஆர்வம் காட்டி~
னர். ருஶ்ய நாட்டினரான ஆந்தர்யேவ் ருஶ்யக் கதைகளை 
ஆர்னியின் முறைப்படி அடைவு செய்ததை இங்குக் குறிப்~
பிடலாம்.</p>

<p>	இதுவரை நடைபெற்ற ஆய்வுப்பணிகளின் அடிப்படையில் 
கார்ல் குரோன் தம்முடைய புகழ்பெற்ற நாட்டுப்புறவியல் 
ஆய்வுக் கொள்கைகளை உருவாக்கி 
என்னும் பெயரில் 1926-இல் வெளியிட்டார். 
இதில் வரலாற்று-நிலவியல் ஆய்வுமுறை பற்றி விரிவாகக் 
கூறியுள்ளார் எனத் தெரிகிறது.</p>

<p>	ஆர்னியின் கதைவகை அடைவை மொழிபெயர்த்த ஸ்டித் 
தாம்சன் அவ்வகை அடைவு குறையுடை௟து எனக் கண்டறிந்~
தார். ஐரோப்பாவுக்கு வெளியே அப்பணியின் பயன் மிகக்  
குறைவு  என்பதை உணர்ந்தார். உலக நாட்டுப்புறக் கதைகளில் 
முழுக் கைதகளைப் பார்க்கிலும் தனிக் கூறுகளில் 
மிகுந்த ஒப்புமை காணப்படுவதைக் கண்ட இவர் `நாட்டுப்புற
இலக்கியங்களின் கதைக்கூறு அடைவு' 
தயார் செய்து ஆறு பாகங்களாக 1955-58 ஆண்டு~
களில் வெளியிட்டார். என்பதற்கு இவர் தந்த விளக்கம் 
தெளிவில்லாதது-குறையுடையது என்று ஆய்வாளர்களால்
-9-
சுட்டிக்காட்டப்படுகிறது. ஆயினும் இந்நூலின் பயன்பாடு 
மிகப் பெரியது. இதன் சிறப்பு காரணமாக இந்த நூல் உலகப் 
புகழ் பெற்றது. ஆர்னிக்குப் பின் வரலாற்று நிலவியல் ஆய்வு 
முறையை வளர்த்தவர்களுள் ஸ்டித் தாம்சன் குறிப்பிடத் தக்க~
வர். இவருடைய  என்னும் ஆய்வு 
இந்த ஆய்வுமுறைக்கு மிகச் சிறந்த எடுத்துக்காட்டாக விளங்கு~
கின்றது. </p>

<p>	வான்சிடோ, ஆக்சல் ஓல்ரிக்,
ஆர்ச்சர் டெய்லர் வாரன்
-10-
இ. இராபர்ட் போன்றோர் வரலாற்று நில~
வியல் ஆய்வுமுறையில் மிகச் சிறந்த ஆய்வுகளைப் படைத்தவர்~
களாகக் கருதப்படுகின்றனர். </p>

<p>	இந்த ஆய்வு முறையில் கதைகளே மிகுதியாக ஆராயப்~          
பட்டுள்ளன. கதைப்பாடல்கள், புதிர்கள், பழமொழிகள் 
முதலியனவும் இந்த ஆய்வுமுறையில் ஆராயப்பட்டுள்ளன. </p>

<p>	இந்த ஆய்வு முறையைப் பொறுத்தவரை 1900-இற்கு 
முன்னுள்ள காலத்தை `பரிசோதனைக் காலக்கட்டம்஼' என்றும் 
1920-இற்கும் 30-இற்கும் இடைப்பட்ட காலக்கட்டத்தை 
மிகப்பெரிய உற்பத்திக் காலக்கட்டம் என்றும் கூறுவர். </p>

<p>	ஸ்டித் தாம்சன் எழுதிய 
என்னும் நூலின் பின்னிணைப்பில் இருபத்~
தேழு வரலாற்று நிலவியல் ஆய்வுகளின் பட்டியல் தரப்படு~
கிறது என்றும், வில் எரிச் பெக்கெர்ட் 
ஆகியோரின் ஆய்வில் 
இம்முறையில் செய்யப்பட்ட சில சிறு ஆய்வுகளின் பட்டி~
யல் தரப்படுகிறது என்றும் கிரிஸ்டைன் கோல்டுபெர்க் 
தம் கட்டுரை ஒன்றில் கூறுகின்றார். 
மேலும், அவர் அக் கட்டுரையின் பின்னிணைப்~
பில் இம்முறையில் செய்யப்பட்ட இன்றியமையாத ஆய்வுகளின் 
பட்டியலையும் (அவ்வாய்வுகளில் காணப்படும் சில கண்டு 
பிடிப்புக்களோடு) தருகின்றார். அமெரிக்கப் பல்கலைக் கழகங்~
களில் எம்.ஏ., பிஎச்.டி. பட்ட ஆய்வுகள் இந்த ஆய்வுமுறையில் 
1968 வரை நிகழ்ந்துள்ளன. 
-11-
1.2. ஆய்வுமுறை </p>

<p>வரலாற்று-நிலவியல் ஆய்வுமுறை பின்வருமாறு அமைந்~
திருக்கும். </p>

<p>	ஆய்வுக்கு எடுத்துக் கொள்ளப்படும் நாட்டுப்புறக் கதை~
யின் (அல்லது ஏதேனும் ஒரு நாட்டுப்புற வழக்காற்றின்)
பல்வேறு வடிவங்கள் அச்சான நூல்கள், நாட்டுப்புற 
ஆவணக் காப்பகங்கள்   முதலியவற்றி~
லிருந்தும், பல்வேறு பகுதிகளைச் சேர்ந்த மக்களிடம் வழங்~
கப்படும் வாய்மொழி வடிவங்களிலிருந்தும் இயன்றவரை 
மிகுதியான அளவில் சேகரிக்கப்பட்டு ஒன்று திரட்டப்படும். 
சேகரிக்கப்பட்ட வடிவங்களுள் பழைய வடிவங்கள் கால
வரிசைப்படி அடுக்கப்படும். </p>

<p>	புதிய வாய்மொழி வடிவங்கள் அவை வழங்கப்படும் நில 
அடிப்படையில் வரிசைப்படுத்தப்படும். </p>

<p>பின்னர், அக் கதை வடிவங்கள் சிறுசிறு கூறுகளாகப் 
பிரிக்கப்பட்டு 
அவற்றுக்கும் அவற்றின் வேறுபாடுகளுக்கும் அடையாளங்~
கள் தரப்படும். </p>

<p>கூறுகள் ஒவ்வொன்றும் கதைகளில் பயின்றுவரும் எண்~
னிக்கையை அடிப்படையாகக் கொண்டு விழுக்காட்டு 
அட்டவணை தயாரிக்கப்படும். </p>

<p>அவற்றின் நிலப்பரவல் பற்றிய 
நிலப்படம் தயாரிக்கப்படும். </p>

<p>முன்னதாகத் தொகுக்கப்பட்஼ட பழைய வடிவங்கள் 
மதிப்பீடு செய்யப்படும். </p>

<p>பின்னர் ஒவ்வொரு கூறும் தனித்தனியே ஆராயப்பட்டு
அவற்றின் பழைய வடிவம் அல்லது மூல 
வடிவம் தீர்மானிக்கப்படும். </p>

<p>தீர்மானிக்கப்படும் பழைய கூறுகளை அடிப்படையாகக் 
கொண்டு பழைய அல்லது மூலக்கதை 
மீட்டுருவாக்கம் செய்யப்படும்.
-12-
தொடர்ந்து, அக்கதை முதன்முதலில் எங்குத் தோன்றியது 
என்பது ஆராயப்படும். </p>

<p>பின்னர் அக்கதை எந்தெந்த நிலப்பகுதி வழியாக எங்~
கெங்குப் பரவிச் சென்றிருக்கும் என்று ஆராயப்படும். </p>

<p>கதை தோன்றிய காலமும் ஆராயப்படும் .</p>

<p>	இந்த ஆய்வுமுறைப்படி ஒரு கதைக்கூறு மூலக்~
கதையைச் சேர்ந்ததா என்பதைக் கண்டறிவதற்குப் பல்வேறு 
அடிப்படை விதிமுறைகள் உள்ளன. அவை:</p>

<p>அ.  ஒரு பழைய வடிவக்கூறு பல வேறுபட்ட 
வடிவங்களைக் கொண்டிருக்க வேண்டும். </p>

<p>ஆ. ஒரு பழைய வடிவக்கூறு பல்வேறு இட஼ங்களில் பரவி 
வழங்க வேண்டும். </p>

<p>இ. ஒரு பழைய வடிவக்கூறு ஓரளவு நிலையான வடிவில் 
தொடர்ந்து பாதுகாக்கப்பட்டு வரவேண்டும். </p>

<p>ஈ. பழைய வழ஘்கங்களை உட்கொண்டிருக்கும் ஒரு கூறு 
பழமையானது. 
உ. கதையின் தொடர்ச்சிக்கு இன்றியமையாத ஒரு கூறு 
பழமையானது. </p>

<p>ஊ. பல கூறுகட்கிடையே ஒன்றுக்கொன்று தருக்கமுறை~
யில் தொடர்பிருக்குமாயின், ஒன்றையடுத்து ஒன்று 
அமையும் மீட்டுருவாக்கம் செய்யப்பட்ட கூறுகள் 
ஏற்றுக்கொள்ளக் கூடியவையாம். </p>

<p>1.3. நிறை குறைகள் </p>

<p>	வரலாற்று -நிலவியல் ஆய்வு முறையில் பல்வேறு நிறைகள் 
உள்ளன. அவற்றுள் சில வருமாறு: </p>

<p>	ஒரு நாட்டுப்புற வழ஖்காற்றின் பல்வேறு வடிவங்களை 
முறையாக ஆராயாமல் மனம்போன போக்கில் பொதுக்
கருத்துக்களைக் கூறுவதை விடுத்து முறையாக ஆராய 
இந்த ஆய்வுமுறை உதவுகிறது. 
-13-
ஒரு வழக்காற்றின் பழைய வடிவம், அது தோன்றிய 
இடம், காலம், பரவிய  வழிகள், பெற்ற மாற்றங்கள் 
போன்ற விவரங்களை ஊகிக்க இந்த ஆய்வு முறை 
உதவுகிறது. சுருக்கமாகக் கூறினால் ஒரு வழக்காற்~
றின் வரலாற்றை அறிந்துகொள்ள இந்த ஆய்வுமுறை 
உதவுகிறது. </p>

<p>	இந்த ஆய்வுமுறையால் அறியப்படும் ஒரு வழக்காறு 
தோன்றிய இடம், பரவிய வழிகள் முதலான உண்மை~
கள் மக்கள் நாடுகடந்து பரவிய அல்லது இடம் 
விட்டு இடம் பெயர்ந்த வரலாற்றையும் ம஼க்கள் சமூகங்~
களிடையே காணப்பட்ட தொடர்புகளையும் அறிந்து 
கொள்ளத் துணை செய்யும். </p>

<p>சில கதைகள் மற்றும் கதைப்பாடல்கள் பண்பாட்டெல்லை~
யைக் கடப்பதைவிட விரைவாக 
மொழி எல்லையைக் கடக்கும் என்பது வரலாற்று நில~
வியல் ஆய்வுகளால் அறியப்பட்ட உண்மையாகும். கதைப்
பரவலையும் மாற்றங்களையும் அடிப்படையாக் கொண்டு 
பண்பாட்டு எல்லையை வரையறுக்க அல்லது ஊகிக்க 
இந்த ஆய்வு முறை பயன்படுகிறது. (ஒரு பண்பாட்டைப் 
பிரதிபலிக்கும் வழக்காறு ஒன்று அதற்கு மாறுபாடான 
பண்பாட்டினையுடைய மக்களிடையே       பரவுவது கடின~
மானது. அப்படியே பரவினாலும் அப்பண்பாட்டுக்கேற்ப
சில மாற்றங்கள் பெற்றே பரவும். இந்த ஆய்வுமுறைக்காக 
வேண்டி ஒரு வழக்காற்றின் பல்வேறு வடிவங்களைச் சேக~
ரித்துக் கால மற்றும் நில அடிப்படையில் வரிசைப்படுத்தி
ஒப்பிட்டு நோக்கினால் இந்த உண்மை தெளிவாக 
விளங்கும்).</p>

<p>வழக்காறுகள்- குறிப்பாகக் கதைகள் - நாகரிகம் மிக்க 
முன்னேறிய மக்களிடமிருந்து நாகரிகத்தில் குறைந்த
மக்களிடம் பரவுகின்றன  என்பது இந்த ஆய்வு முறையின் 
கண்டுபிடிப்பாகும். ஐரோப்பியர் 15, 16 நூற்றாண்டு~
களில் அமெரிக்காவிலும் ஆப்பிரிக்காவிலும் குடியேறினர் 
என்றும், அவர்களின் கதைகள் அமெரிக்க இந்தியர்களிடமும்
-14-
ஆப்பிரிக்கர்களிடமும் பரவின என்றும், அதே நேரத்~
தில் இவர்க஼ளின் கதைகள் ஐரோப்பிய விவசாயிகளிடம் 
பரவவில்லை என்றும் ஆய்வாளர்கள் சுட்டிக்காட்டியுள்ள~
னர். இந்த ஆய்வு முடிவு பண்பாட்டுக் பரவல் தொடர்~
பான ஆய்வுகளுக்கு உதவ஼க்கூடும். </p>

<p>	ஒரு குறிப்பிட்ட பண்பாட்டைச் சேர்ந்த தகவலாளியிட~
மிருந்து ஒரு குறிப்பிட்ட கதையின் வடிவத்தைச் சேகரிக்~
கும் நாட்டுப்புறவியலாளன் அத்தகவலாளி அக்கதையில்
எவ்வாறு மாறுபடுகிறார் என்பதை அறிவதில் ஆர்வ~
முடை௟வனாக இருக்கலாம். இது போன்ற உண்மைகளை 
அறிந்து கொள்வதற்கு வரலாற்று-நிலவியல் ஆய்வுமுறை
பெரிதும் உதவியாக இருக்கிறது. </p>

<p>நாட்டுப்புறக் கதைகளுக்கு உலக அளவில் ஒரு மிகச் 
சிறந்த கருவிநூலாக விளங்கும் ஆர்னி-தாம்சனின் கதைக்~
கூறு அடைவு நூல் உருவானதற்கு இந்த 
ஆய்வு முறையே காரணமாக இருந்திருக்கிறது. </p>

<p>1920-இற்கும் 50-இற்கும் இடைப்பட்ட காலக் கட்டங்~
களில் விளாடிமிர் பிராப், ஆண்ரெஜேவ்
(இவர் மதத் தொடர்பான புராணங்களை 
வரலாற்று நிலவியல் ஆய்வு முறையில் ஆராய்ந்தவர்), நிக்கி
போரோவ், பெட்ரோவ் முதலிய 
ருஶ்ய ஆய்வாளர்கள் வரலாற்று நிலவியல் ஆய்வுமுறை தொடர் ~
பாக மிகப் பெரிய அளவில் கருத்து வேறுபாடுகள் கொண்டி~
ருந்தார்கள். இந்த ஆய்வு முறையைக் கைவிடுவது தொடர்~
பாக மிகப் பெரிய அளவில் கருத்து வேறுபாடு஖ள் கொண்டி~
ருந்தார்கள். இந்த ஆய்வு முறையைக் கைவிடுவது தொடர்~
பான கட்டுரை ஒன்றில் ருஶ்ய ஆய்வாளர்களின் திறனாய்வு~   
களை மெல்வில் ஜேக்கப்ஸ் மற்றும்  ஹேடா
ஜாசன் ஆகியோர் தொகுத்து வரிசைப்படுத்தி~
யுள்ளனர். அவர்களின் குற்றச்சாட்டுகளுள் சில ஆற்றலுள்ளவை.  
ஆனாலுங்கூட, அவை வரலாற்று-நிலவியல் ஆய்வுமுறையின் 
மதிப்பைப் பெரிய அளவில் குறைத்து விடவில்லை என்றும், 
ஒட்டுமொத்தமாகப் பார்க்கும்போது அவர்களின் ஆட்சேபங்~
களுள் பெரும்பான்மையானவை ஆய்வு நுணுக்கங்கள் 
பற்றியவையாகவும் சிறுபான்மை஁யே    ஆய்வுமுறை
-15-
பற்றியனவாகவும் உள்ளன என்றும் குறிப்பிடும் 
கிரிஸ்டைன் கோல்டு பெர்க், மெல்வில் முதலியோர்
தொகுத்துள்ள பத்து ஆட்சேபங்களைக் கூறி அவற்றுக்குரிய 
பதில்களையும் தந்துள்ளார். அவை  வரலாற்று-நிலவியல்  ஆய்வு 
முறை பற்றிய குறை நிறைகளை அறிந்துகொள்ளப் பெரிதும் 
உதவுகின்றன. ஆட்சேபங்களும் பதில்களும் வருமாறு:</p>

<p>1. கண்டுபிடிக்கப்பட்ட ஆய்வுமூலங்கள் பெரும்பாலும் 
பழைய உலகத் தேவதைக் கதைகளைப் 
பற்றியவையே. </p>

<p>உண்மைதான். இருந்தாலும்  பாடல்கள் மற்றும் புராணங்~
கள் பற்றியும் ஆய்வுகள் செய்யப்பட்டுள்ளன. </p>

<p>2. கிளைக்கதைகள் பலவகைப்பட்ட கதைகளில் 
ஒன்றுக்கொன்று அடிக்கடி வந்து 
போகின்றன. </p>

<p>வரலாற்று -நிலவியல் ஆய்வுமுறையானது எந்த  அளவு   இது 
நிகழ்கிறது என்பதையும் எந்தக் கிளைக்கதை அவ்வாறு 
செயல்படுகிறது என்பதையும் தெரிவிக்கிறது. </p>

<p>3. துணுக்குகள் மற்றும் வழக்கத்திற்கு மாறான கதைகள்
தள்ளப்படக் கூடாதவை. வெறும்   கூறு போன்ற சுருக்கம் 
முழுமையற்ற கதைகளையே காட்டுகின்றது. </p>

<p>நல்ல அறிவரை. ஆனால் சுருக்கங்களை ஒப்பிடுவது வாயி~
லாக (கதைகளின்) அமைப்புகள்    வெளிப்படுத்தப்படலாம். </p>

<p>4. ஆர்னி-தாம்சன் முறை அடைவு ருஶ்யக்கதை~
களுக்குச் சரியாகப் பொருந்தவில்லை. </p>

<p>இதுவும் உண்மைதான். வடமேற்கு ஐரோப்பாவிற்கு வெளி~
யிலுள்ள பிற பகுதிகளுக்கும் இது ஒத்துவருவதில்லை. ஒரு 
வேளை ஆர்னி-தாம்சன் அடைவால் தூண்டப்பட்டு 
டர்க்கிஶ் கதைகளுக்஼கு உருவாக்கப்பட்ட அடைவு போல் 
தனி அடைவு தேவைப்படலாம். அல்லது ஆர்னி-தாம்சன் 
எண்களோடு வேறு கதைகளையும் சேர்க்க஼லாம்.
-16-
இந்த (கதை) வகைகள் மேலும் செய்யப்படும் ஆய்வு~
களினால் மாறுபடும். </p>

<p>அப்படியென்றால் அடைவு புதுப்பிக்கப்படவும், 
மாற்று மேற்கோள்கள் சேர்க்கப்படவும் 
வேண்டும். 1961 ஆம் ஆண்டு தாம்சனால் திருத்தியமைக்கப்~
பட்ட அடைவு இதில் சிலவற்றைச் செய்கிறது. டேகின் 
வரலாற்று நிலவியல் ஆய்வு  எவ்வாறு ஒரு கதை 
அமைப்பின் விளக்கத்தை அபிவிருத்தி செய்யலாம் என்ப~
தைக் காட்டுகிறது.</p>

<p>5. ஒரு கதையானது ஒரு மூலத்திலிருந்து தோன்றியது 
என்று அனுமானிக்கப்படுகிறது. ஆனால் சில 
நேரங்களில் ஒரு கதைக்குப் பல மூலகங்கள் இருக்~
கும் சாத்தியக் கூறு உள்ளது.</p>

<p>ஒத்த கதைகளைச் சேகரித்து அதை ஒப்பிட்டு நோக்கும் 
ஆய்வானது மட்டுமே பல மூலங்கள் உள்ளனவா என்ற 
புத்திசாலித்தனமான முடிவுக்கு வர உதவியாக இருக்கும். 
இதைப்பற்றிய அதிக   விளக்கம் பின்னால் தரப்படும். </p>

<p>6. வேண்டுமென்றே மாற்றி எழுதுவதை விட 
மறதி என்பது அவ்வளவு முக்கியத்துவம் வாய்ந்தது அன்று.</p>

<p>மாற்றி எழுதுதற்கு முன்஫ும் பின்புமுள்ள கதை வடிவத்தை 
நிச்சயிக்க வரலாற்று-நிலவியல் ஆய்வு உதவுகிறது. எனவே, 
கதையின்மீது மாற்றி எழுதுதலின் வழிமுறையையும் அதன் 
விளைவுகளையும்  இது அடையாளம் 
காட்டுகிறது. போட்கரின் ஆய்வு இதில் கவனம் செலுத்து~
கிறது. 
-17-
7. புலப்பெயர்வு என்பதானது ஒரு தேர்ந்தெடுத்த 
மற்றும் படைப்பாக்க வழிமுறையாகும். </p>

<p>வரலாற்று-நிலவியல் ஆய்வுகள் புலப்பெயர்வின்போது கதை
எவ்வாறு செயல்படுகிறது என்பதனைக் காட்டு~
கின்றன. (கதையில்) செய்துகொள்ளப்பட்ட தேர்ந்தெடுத்~
தலையும் கையாளப்பட்ட புதிய ஆக்கங்களையும் அவை 
விவரிக்கின்றன. மற்றும் ஒரு புறக்கணிக்கப்பட்ட கதையைக் 
கூட அண்மையிலுள்ள பண்பாட்டிலிருந்து கண்டு 
கொள்ளலாம். </p>

<p>8. பழைய வடிவங்களைச்  சோதித்து அறிய முடி~
யாது; அவை பெரும்பாலும் புள்ளிவிவரங்களையும்    உள்ளுணர்வு~
களையும் அடிப்படையாகக் கொண்டவை. </p>

<p>இந்தப் பிரச்சினையானது ஒரு குறிப்பிட்ட கதை எவ்~
வளவு தூரம் வேறுபடுகிறது   என்பதனைப் பொறுத்தது. 
கதையின் மாற்று வடிவங்களை முறையாக 
அமைப்பதானது வேறுபாடு செயல்கூ஠ு நிலை~
யையும் அதன் எல்லைக஼ளையும் காட்஼டுகிறது. </p>

<p>9. ஒரு கதையின் பல வடிவங்கள் சேகரிக்~
கப்பட்ட மூலத்தின் சாரமே தவிர அதன் விளக்கமல்ல.
இதன் முடிவு ஒரு வடிவமைப்பே தவிர வரலாறு அல்ல. </p>

<p>வரலாற்று-நிலவியல் ஆய்வுக்குப் பொருந்தி வராத குறைந்த 
மாற்று வடிவங்களைக் கொண்ட கதைகளுக்கு அல்லது மிக 
அதிக மாற்றங்கள் கொண்ட கதைகட்கு 
மட்டுமே இப்பிரச்சினை பொருந்தும். அத்தகைய கதைகளின் 
உள்ளுறுப்புகளை ஆராயத் தனி ஆய்வுகள் 
தேவைப்படுகின்றன. வடிவமைப்பும்கூட ஒரு சில பகுதிகளில் 
ஏற்படும் கதை மாற்றங்களைச் சுருக்குவதற்குப் பயன்படும்.</p>

<p>10. இத்தகைய ஆய்வுகளின் செயற்பரப்பு மிகவும் 
குறுகியவை. கதையானது அது வழங்கப்படும் சமூகச் சூழலி~
லிருந்தும் அழகியல் வடிவத்திலிருந்தும் தனித்து விடப்படுகிறது.</p>

<p>பலவிடங்களில் பல காலங்களில் கூறப்பட்டுவரும் ஒரு கதையானது
-18-
ஓரளவு சமூகச் சூழலை மீறுவதுண்டு. ஓர் ஆய்்~
வானது ஒரு கதை  குறிப்பிட்ட பண்பாட்டிற்கு மட்டும் 
உரியதா என்பதையும் தெரியப்படுத்தும். அதன் அழகியல் 
வடிவம் பற்றிய புத்தாய்வு எந்த ஒரு சூழ்நிலை ஆய்விலும் 
ஒரு பகுதியாகும். </p>

<p>பொதுவாக வரலாற்று-நிலவியல் ஆய்வுகளின் வாயிலாகக் குறிப்~
பிடத்தக்க கொள்஖ை முடிவுக஼ள் ஏதும் இல்லை. </p>

<p>இக்கூற்றோ இதன் செப்பமிடப்படாத அமெரிக்கக் 
கூற்றோ உண்மையானதுதான். `பின்னிஶ்' ஆய்வு முறை~
யானது நாட்டுப்புறக்கதைகள் இடம் பெயரும் தன்மையுடை~
யன என்ற அனுமானத்தின் அடிப்படையில்  
ஏற்பட்டது. எனவே, இம்முறையில் செய்யப்பட்ட அனேக 
முக்கியத்துவம் வாய்ந்த ஆய்வுகளிலெல்லாம் எவ்விதப் 
புது விஶயங்களையும் கொடுக்காமல் மறுபடியும் கதைகள் 
பயணம் செய்கின்றன   என்ற கருத்தையே நமக்கு வலி~
யுறுத்துகின்றன என்பதில் ஆச்சரியம் இல்லை. மிகவும் 
சாதாரணமாகவும்   கற்பனை ஏதுமில்லாமலும் செய்யப்~
படுகின்ற ஆய்வுகள் கூடக் கதையின் பல்வேறு வ஼டிவங்~
களையும் அவை காணப்பட்ட     இடங்களையும் தெளி~
வாக்கின்றன. அவை (அந்த ஆய்வுகள்) இலக்கிய வடி~
வங்கள் வாய்மொழி வடிவ஼ங்களோடு ஒத்துப் போகின்ற~
னவா என்பதைக் காட்டுகின்றன. மேலும், ஒரு கதை~
யானது ஒரு குறிப்பிட்ட எல்லையில் வழங்குகிறதா அல்லது
விரிவாகப் பல பகுதிகளுக்குச் சென்றுள்ளதா என்பதனை~
யும் தெரிவிக்கின்றன. நாம் அறிந்தவரை இவ்வாய்வுகள்
ஐரோப்பிய நாட்டுப்புறக் கதைகளின் இயல்புகள் பற்றியும் 
அவை எப்படி நிலையாக உள்ளன; எப்படி, எப்பொழுது 
மாறுபடுகின்றன; பல்வேறு சூழல்களில் அவற்றின் 
கூறுகளின் பொருள் என்஼றும் கூறுகின்றன. கதை
எப்பொழுது எங்கு உருவானது என்பது போன்ற பிரச்~
சினைக஼ளைத் தவிர ஆய்வாளர்க஼ள் மற்றவற்றில் ஈடுபாடு
கொண்டு கதை வடிவங்களில் ஆர்வம் 
செலுத்தினால் மிகுதியான வரம்புக்குட்பட்ட மரபுவழி
வரலாற்று நிலவியல் ஆய்வுக்கு 
-19-
நிறைவு 
செய்வதாக அமையும்." </p>

<p>	வரலாற்று-நிலவியல் ஆய்வுமுறை குறித்த பத்து ஆட்சேபங்~
களுக்கும் கூறப்பட்டுள்ள பதில்கள் அந்த ஆய்வுமுறை பற்றிய  வேறு 
சில விமர்சன஼ங்களையும் காண஼லாம்.</p>

<p>	நார்வே நாட்டினரான கிரிஸ்டியான்சன் 
டென்மார்க் நாட்டினரான போட்கர் முதலியோர் 
இந்த ஆய்வு முறையின் கடினமான மற்றும் எந்திரமயமான 
தன்மையை எதிர்க்கின்றனர். 
வரலாற்று-நிலவியல் ஆய்வுமுறையானது கதை ஆய்வுகளை 
வெறும் புள்ளி விவரங்களாகவும் குறியீடுகளாகவும்  அட்ட~
வணைகளாகவும் நிலப்படங்களாகவும் மாற்றி விடுகின்றன 
என்றும் முருகியல் மற்றும் நடைநயக் கூறுகளைப் புறக்கணித்து 
விடுகின்றன என்றும் கிரிஸ்டியான்சன் குறி஫்பிடுகின்றார். வர~
லாற்று-நிலவியல் ஆய்வுமுறைப்படி ஆய்வாளன் சில வேளை~
களில் நூற்றுக்கண஖்கான, ஆயிரக்கணக்கான கதை வடிவங்~
களை ஆராய வேண்டியுள்ளது.    அப்போது   அவன் அனைத்துக் 
கதை வடிவங்களையும் நினைவில் கொள்வது இயலாததாகிறது. 
எனவே, கதைச்சுருக்கங்கள், குறியீடுகள் போன்றவற்றை அவன் 
அமைத்துக் கொள்ள வேண்டியது அவசியமாகிறது.         முருகியல்
நடைநயக்கூறுகளைத் தனியாக ஆராயலாம். ஒரே ஆய்வு 
வழக்காற்றின் அனைத்துக் கூறுகளையும் ஆராய வேண்டும் 
என்று எதிர்பார்ப்பது தவறு. </p>

<p>	ஒரு பண்பாட்டு வரலாற்றில் நாட்டுப்புற வழக்காறுகளைப் 
பதிவு செய்தல், அச்சிடுதல் போன்ற பணிகளின் வரலாறு நூறு 
ஆண்டுகளாக இருப்பின் வரலாற்று-நிலவியல் ஆய்வுமுறைப்~
படி ஆய்வுக்கு எடுத்துக்கொள்ளப்படும் வழக்காற்றின் பழைய 
அல்லது மூல வடிவம் அதன் வரலாற்றிலும் வடிவத்திலும் 
நூறு ஆண்டுகட்கு  முற்பட்டதாக இருக்க முடியாது; உண்மை~
யில் அது நூறு ஆண்டுகட்கு முற்பட்டதானாலுங்கூட; எனவே, 
தர்க்கரீதியாக, கண்டுபிடிக்கப்படும் `பழைய வடிவம்' ஆய்~
வுக்கு எடுத்துக் கொள்ளப்படும் வழக்காற்றின் முதல் வடிவம் 
என்று கூறவியலாது என்பது இந்த ஆய்வு முறை குறித்த ஒரு 
குற்றச்சாட்டாகும். இது உண்மைதான். உலகம் முழுதும் 
காணப்படும் `இரக்கமுள்ள மற்றும் இரக்கமற்ற பெண்கள் 
கதையின் வடி~
வங்களை வரலாற்று-நிலவியல் ஆய்வு முறையில்  ஆராய்ந்த 
வாரன் இ. இராபர்ட் இது போன்ற குற்றச்சாட்டுகளை மனத்~
தில் கொண்டு `பழைய வடிவம்' என்பதற்கான 
கருத்தினை மாற்றுவதை இங்குச் சுட்டிக் காட்ட~
லாம். இவர், கதையின் `பழைய வடிவம்' என்பது `மூல வடிவம்' 
அன்று என்றும் `இன்று ஒரு குறிப்பிட்ட பகு~
தியில் காணப்படும் வடிவங்களுள் செல்வாக்கு வாய்ந்த மிக 
இன்றியமையாத வடிவம்' என்றும் குறிப்பிடுகின்றார். இந்தப் 
புதிய விளக்கமானது மேற் கூறப்பட்ட குற்றச்சாட்டுக்குப் 
பதிலாக அமைகிறது.</p>

<p>	1.4. எதிர்காலத்தில் இந்த ஆய்வுமுறை </p>

<p>	வரலாற்று-நிலவியல் ஆய்வுமுறையில் உள்ள குறைகளை 
எடுத்துக்காட்டி அம்முறையைக் கைவிட வேண்டும் என்று சில 
ஆய்வாளர்கள் கூறும் அதே நேரத்தில் அந்த ஆய்வு முறையின் 
ஒரு பகுதியை எடுத்துப் பயன்படுத்திக் கொள்ளலாம் என்றோ, 
அந்த ஆய்வு முறையைச் சில திருத்தங்களுடன் பயன்படுத்த~
லாம் என்றோ சில ஆய்வாளர்கள் கருதுகின்றனர். </p>

<p>	மஸ்ருல் இஸ்லாம் தன்னுடைய ஆய்வு ஒன்றில் 
நாட்டுப்புறவியலில் விளக்க ஆய்வு 
-21-
வளர்ந்ததால் வரலாற்றாய்வினை  அடிப்~
படையாகக் கொண்ட வரலாற்று நிலவியல் ஆய்வுமுறை அதன் 
மதிப்பினை இழந்தது என்றும் ஆனாலுங்கூட அந்஼த ஆய்வு 
முறை அறிமுகப்படுத்திய ஒப்பீட்டு ஆய்வுமுறை தொடர்ந்து 
நிலவும் என்றும் கூறுகின்றார். ஒரு நாட்டுப்புற வழக்காற்றின்
ஒத்த வடிவங்கள் ஒரு மொழி மற்றும் பண்பாட்டிலோ, ஒரு நாட்~
டின் பிற பகுதிகளிலோ, உலகம் முழுவதுமோ காணப்பட்டால் 
அவற்றின் பழைய வடிவத்தைக் காணாவிட்டாலும்    அவற்றை 
ஒப்஼பிட்டு ஆராயலாம் என்று அவர் குறிப்஼பிடுகின்றார். மேலும், 
ஒரு வழக்காற்றின் வரலாற்று-நிலவியல் பரவல் (அது ஓரளவு 
தவறுடையதானாலும்) தவிர, நம்முடைய கண்டுபிடிப்பு 
மானிடவியல், பண்பாடு, சமூகம் அல்லது இலக்கியம் சார்ந்த~
தாக இருக்கவேண்டும் என்றும் இதனை மனத்தில் கொண்டு 
நாம் இந்திய நாட்டுப்புற வழக்காறுகளை அணுகினால் வர~
லாற்று-நிலவியல் ஆய்வுமுறை இந்தியச் சூழலுக்கு அப்படியே 
பொருந்தி வரவில்லை; ஆனாலும் அந்த ஆய்வு முறையில் கவ~
னம் செலுத்தப்படும் `ஒப்பீட்டாய்வு' இந்தியச் சூழலுக்கு முற்றி~
லும் பொருந்தி வருகிறது என்றும் அவர் குறிப்பிடுகின்றார். </p>

<p>	ஆலன் டண்டிஸ் வரலாற்று- 
நிலவியல் ஆய்வுமுறை   பற்றிக் குறிப்பிடும்போது பின்வரும் 
கருத்துக்களைக் கூறுகின்றார். </p>

<p>"பெரும்பான்மையான  வரலாற்று-நிலவியல் ஆய்வு  முடிவு~
கள் சில இன்றியமையாத   வினாக்களுக்கு விடையளிக்க~
வில்லை. மீட்டுருவாக்கம் செய்யப்பட்ட பழைய வடிவம் 
மதிப்பு வாய்ந்தது என அனுமானித்தாலும், முதலில் (அவ்~
வடிவம்) ஓரிடத்தில் ஏன் தோன்றியது? ஏன் துணை வகை~
கள் வளர்ச்சியடைந்தன? ஏன் அவை தோன்றிய 
இடத்திலேயே நுட்பமாக வளர்ச்சியடைந்தன? கதையின் 
பன்மடங்கான வடிவங்கள் ஏன் 
தொடர்ந்து சொல்லப்பட்டு வருகின்றன? (அல்லது சொல்~
லப்படவில்லை?)  இதுபோன்ற வினாக்களுக்கு விடைகாண 
ஒரு கூட்டு அணுகுமுறை தேவைப்~
படுகிறது. மொத்தத்தில் வரலாற்றுத் தோற்றங்கள், பரவிய
-22-
வழிகள் முதலியன ஆய்வின் இன்றியமையாத பகுதியே. 
அதே நேரத்திஸ் உளவியல் தோற்றமும் 
அதன் செயல்பாடும் ஆய்வின் ஒரு பகுதியேயாகும். 
இத்தகைய கூட்டு அணுகு முறைகளே நாட்டுப்புற வழக்~
காறுகளின் தன்மையை முழுமையாகப் புரிந்து கொள்~
வதற்கு நம்மை இட்டுச் செல்ல முடியும்."</p>

<p>	மேற்காட்டப்பட்ட அறிஞர்களின் கருத்துக்கள் வரலாற்று-
நிலவியல் ஆய்வு முறையை முற்றிலும் புறக்கணித்துவிடவில்லை 
என்பதை உணர முடிகிறது. அந்த ஆய்வு முறையில் முக்கியத்~
துவம் அளிக்கப்படும் `ஒப்பீட்டுமுறை' மேலும் செய்யப்~
பட வேண்டிய பணிகள் உள்ளன என்பதையும் அக்கருத்துக்~
க஼ள் தெளிவுபடுத்துகின்றன. உண்மையில் ஓரிடத்தில் காணப்~
படும் வழக்காறு ஒன்றின் ஒத்த வடிவங்கள் பல இடங்களில் 
காணப்படும்போது அவை      அனைத்தையும் சேகரித்து ஆய்வ~
தற்கு வேறு சரியான ஆய்வுமுறை  உருவாகும்வரை இந்த ஆய்வு
முறை (சில குறைபாடுகள் காணப்பட்டாலும்) பயனுடைய 
ஆய்வுமுறையாகவே விளங்கும். கிரிஸ்்டைன் கோல்டுபெர்க் 
கூறியுள்ள பின்வரும் கருத்துக்களோடு இப்பகுதியை 
முடிக்கலாம். </p>

<p>	"நாம் நாட்டுப்புறக் கதைகளைப் புரிந்துகொள்வதற்கு வர~
லாற்று-நிலவியல் ஆய்வு முறை எதிர்பார்த்ததற்கும் அதிக~
மாகப் பங்களித்துள்ளது; அதே நேரத்தில் நாட்டுப்புறக் 
கதை ஒரு வகை என்ற நிலையில் அதன் தோற்~
றம் மற்றும் வரலாற்஼றை நிருணயம் செய்யும் அதன் குறிக்~
கோளில் அது விரைவாக வீழ்ச்சியடைந்துள்ளது. அமெரிக்~
காவில் இதற்குத் தற்போது ஏற்பட்டுள்ள ஆதரவின்மை~
யானது இந்த ஆ௟்வுமுறையைச் சூரியத் தொன்மவியல் 
மற்றும் நாட்டுப்புற வழக்காறுகளில் 
கனவு பற்றிய கருத்து விள஖்கங்கள் போன்றவற்றுட஼ன் வர~
லாற்று ஆர்வமுள்ள துறைகளுக்கு அனுப்பி விடுமோ   என்ற 
அச்சத்தை ஏற்படுத்துகிறது. நமது துறை அத்தகைய 
இழப்பை ஏற்க இயலாது. சில நேரங்களில் மரபுவழி ஆய்வுகளுக்கு
-23-
மதிப்பளித்து நாம் நம் 
நிலையைக் காத்துக் கொள்ள வேண்டியுள்ளது.    நமது அறி~
வுத்துறைப் பாரம்பரியத்திற்குப் புத்துயிர் அளித்தல் என்~
பதைவிட முன்னேறுவதற்கு வேறு சிறந்த வழிமுறை என்ன 
இருக்கிறது? நாம் நாட்டுப்புறக் கதைகள் பற்றி அறிந்த~
வற்றைப்  புறக்கணிப்பதைவிட முன்னரே உருவாக்கப்பட்~
டுள்ள அடித்தளத்தின்மேல் (நாம் அறிந்தவற்றை) வளர்த்~
துச் செல்வது முறையாகும். வரலாற்று-நிலவியல்  ஆய்வு 
வழக்கொழிந்து பழம்பொருளாகி விடாமல் இன்றும் தப்பி
இருக்கிற஼தென்றால் அதற்குக் காரணம் அது ஒரு கொள்கை~
யாக  இல்லாமல் ஓர் ஆய்வுமுறையாக இருப்பதுதான். மக்~
களின் ஆர்வங்கள் மாறுபடும்போது அந்த ஆய்வுமுறை 
காலத்துக்கொவ்வாத   ஒரு முறையாக மாறிவிடத் தேவை~
யில்லை. அதனைத் திருத்தியும் புதுக்கியும் அமைப்பதற்கு 
வாய்ப்பு உண்டு. இவ்வாறாக, விரிந்த தரவுகளின் 
அடிப்படையில் நாட்டுப்புறக் கதையின் ஆய்வைப் பேணி 
வளர்ப்பதற்கும் சவால்மிக்க கொள்கையளவிலான தேடலை 
மேற்கொள்வ஥ற்கும் பல சாத்தியக் ஂகூறுகள் உள்ளன." </p>

<p>2.0. ஆய்வுகள்-அறிமுகம்</p>

<p>2.0.1 இந்தியாவில் வரலாற்று-நிலவியல் ஆய்வு முறையை 
முழுமையாகப் பயன்படுத்தி ஆய்வுகள் நிகழ்ந்ததாகத் தெரிய~
வில்லை. </p>

<p>	ஒரு கதையின் பல வடிவங்களை ஒப்பிட்டு, பழைய வடிவம் 
முதலியனவற்றை ஆராய்ந்த வகையில் எமனோவின் 
என்ற கதை ஆய்வைக் குறிப்பிடலாம். தமிழ் உள்~
ளிட்ட பல இந்திய மொழிகளில் காணப்படும் கதை வடிவங்~
களை இவர் ஆராய்கிறார். இந்த முறையில் இந்தியாவில் 
நிகழ்ந்஼த முதல் ஆய்வாக இதனைக் கூறலாம். </p>

<p>	வரலாற்று-நிலவியல் ஆய்வுமுறையினை ஓரளவு பின்பற்றித் 
தாம் ஓர் ஆய்வு செய்திருப்பதாகவும் அது 
தம் வங்காள நூலொன்றில் இடம் பெற்றிருப்பதாகவும் மஸ்ருல்
-24-
இஸ்லாம் தன்னுடைய நூலில் குறிப்பிடுகிறார். </p>

<p>	தமிழைப் பொறுத்தவரை (வரலாற்று-நிலவியல்   ஆய்வோடு 
ஒத்த) ஓரிரண்டு ஒப்பீட்டு ஆய்வுகள் நிகழ்ந்துள்ளன. அவற்றுள் 
பேராசிரியர் டாக்டர் வி.ஐ. சுப்பிரமணியம் 
அவ஼ர்களின் `பஞ்சதந்திரமும் சிலப்பதிகாரமும்' என்னும் கட்~
டுரை குறிப்பிடத்தக்கது. `பலமொழிகளில் வழங்கிவரும் கீரிக்~
கதையின் செய்திகளை ஒத்து நோக்கி எந்தக்கூறு முன்ன஼து, 
எந்தக்கூறு பின்னது' என்஼று தெளிவதை முதல் நோக்கமாகவும்
பஞ்சதந்திர ஸ்லோகம் சிலப்பதிகாரத்தில் குறிக்கப்பட்டிருப்~
பதால் அதன்காலம் பஞ்சதந்திரத்தின் பின்தான்' என்று எஸ். 
வையாபுரிப்பிள்ளை வாதிப்பது தக்கதா என்பதை ஆராய்~   
வதை இரண்டாவது    நோக்கமாகவும்   கொண்டது இக்~
கட்டுரை. </p>

<p>	தே.லூர்து அவர்கள்் `வாய்மொழி இலக்~
கியத்தின் இயல்புகளும் சில சிக்கல்களும்' என்னும் கட்டுரை~
யில் `ஆக்காட்டிப்பறவை' பற்றிய பாடல் வடிவங்களை 
ஒப்பிட்டு ஆய்வதையும் இங்குக் குறிப்பிடலாம். </p>

<p>	2.0.2.  இங்கு, வரலாற்று-நிலவியல் ஆய்வு முறையைப் பயன்~
படுத்தி இரண்டு ஆய்வுகள் நிகழ்த்தப்படுகின்றன. அவை 
வருமாறு: 
1. நிட்டூரி கதை
2. சின்னண்ணன் சின்னச்சாமி கதைப்பாடல்\கதை.</p>

<p>(கதைத் தலைப்புகளின் விளக்கங்கள் அந்தந்த ஆய்வுகளின் 
தொடக்கத்஼தில் தரப்பட்டுள்ளன) இரண்டு ஆய்வுகளும் பின்~
னால் இணைக்கப்பட்டுள்ளனவாதலால் அவற்றைப் பற்றிய 
விரிவான அறிமுகம் தேவையில்லை. ஆயினும் இரண்டு ஆய்வு~
களிலும் பின்பற்றப்பட்ட பொதுவான சில செய்திகள் மற்றும் 
முறைகளை மட்டும் இங்கே குறிப்பிடுவது அவசியம்: </p>

<p>1) வரலாற்று  நிலவியல் ஆய்வுக்குப் பல்வேறு காலக்கட்டங்~
களில் சேகரிக்கப்பட்ட ஒரு கதையின் பல்வேறு வடிவங்கள் 
-25-
(அல்லது ஆய்வுக்குட்படுத்தப்படும் ஏதேனும் ஒரு வழக்காற்~
றின் வடிவங்கள் தேவை. அப்போதுதான் அக்கதையின் 
வரலாற்றை அனுமானிக்க இயலும். இந்த முறையில் செய்~
யப்பட்ட மேற்கத்திய ஆய்வுகள் பல்வேறு காலக்கட்டங்~
களில் சேகரிக்கப்பட்ட வழ஖்காறுகளையே ஆராய்கின்றன. 
தமிழகத்தைப் பொறுத்தவரை    பல்வேறு காலக்கட்டங்~
களில் சேகரிக்கப்பட்ட ஒரு கதையின் பல வடிவங்கள் 
கிடைப்பது எளிதன்று. எனவே, இங்குச் சமீபத்தில் சேகரிக்~
கப்பட்ட கதை மற்றும் கதைப்பாடல் வடிவங்களே   ஆய்~
வுக்கு எடுத்துக் கொள்ளப்பட்டன. கதை கூறியோரின் 
அல்லது பாடல் பாடியோரின் வயது, அவர்கள் அதனைக் 
கற்றுக்கொண்ட காலம் முதலியவற்றை      ஆதாரமாகக் 
கொண்டு   வழக்காறுகளின் வரலாறு கூறப்பட்டது. இது 
முழுமையாகாது ஆயினும் தவிர்க்கவியலாது. </p>

<p>2) ஆய்வுக்கு எடுத்துக்கொள்ளப்படும் வாய்மொழிக்கதை பல்~
வேறு காலக் கட்டங்களில் எழுத்திலக்கியங்க஼ளில் பயன்படுத்~
தப்பட்டிருக்குமானால் அதன் வரலாற்றை அறிந்து கொள்ள 
அந்த எழுத்திலக்கியக் கதைகள் பயன்படும். அதே நேரத்~
தில் ஆய்வாளன் எழுத்திலக்கியச் சான்றுகளால் வேறு 
பல தொல்லைகளை எதிர்நோக்க வேண்டியிருக்கும் என்று 
கருதப்படுகிறது. எனவே, ஸ்டித் தாம்சன் முற்றிலும் வாய்~
மொழியாகவே    வழங்கப்பட்ட- இலக்கியத்தில் இடம் 
பெறாத-  தம் ஆய்வுக்கு 
எடுத்துக்கொண்டார். இங்கு ஆய்வுக்கு எடுத்துக்கொள்ளப்~
பட்ட கதை மற்றும் கதைப்பாடல் வடிவங்கள் மக்஼களிடம் 
வாய்மொழியாக    வழங்கப்படுப஼வை; ஏட்டிலக்கியங்கள்
எதிலும் எடுத்தாளப்படாதவை.</p>

<p>3) இந்த ஆய்வுகளில் கதைக்கூறுகளைப் பிரித்த முறை 
பற்றி இங்குக் குறிப்பிடுவது அவசியம். </p>

<p>ஆய்வுக்கு எடுத்துக்கொள்ளப்பட்ட கதை வடிவங்களைத்
தனித்தனியே எடுத்துக்கொண்டு அவற்றுள் இடம்பெறும் 
நிகழ்ச்சிகள் சுருக்கப்பட்டுத் தனித்தனியே வரிசைப்படுத்தப்~
பட்ட஼ன. பின்னர் அனைத்து வடிவங்களிலும் காணப்஼படும்
-26-
ஒத்த நிகழ்ச்சிக஼ள் தனித்தனியே வரிசைப்படுத்தப்~
பட்டு அவை பொருத்தமான தலைப்புகளின் கீழ் வைக்கப்~
பட்டன. (ஒரு தலைப்பின் கீழ் வைக்கப்பட்ட நிகழ்ச்சி~
களில் காணப்படும் சிறுசிறு மாறுபாடுகளைக் கவனத்தில் 
கொண்டு அவற்றுக்குத் துணைத் தலைப்புகள் தரப்~
பட்டன). பின்னர் கதைவடிவங்களின் கதைப் போக்கினைக் 
கருத்தில் கொண்டு தலைப்புகள் வரிசைப்படுத்தப்பட்டன. 
இவ்வாறு வரிசைப்படுத்தப்பட்ட தலைப்புகள்  ஒவ்வொன்~
றும் ஒவ்வொரு கதைக் கூறாகக் கருதப்பட்டு 
அவற்றுக்குத் தனித்தனி அடையாளங்கள் தரப்பட்டன. 
(இதுபற்றி நிட்டூரி கதை ஆய்வில் கூறப்படுகிறது. 
துணைத் தலைப்புகள் துணைக் கூறுகளாகக் 
கருதப்பட்டன. துணைத்தலைப்புகள், நிகழ்ச்சிகள் அனைத்~
திற்கும் தனித்தனி அடையாளங்கள் நல்கப்பட்டன. (இவ்~
வாறு தயாரிக்கப்பட்ட கதைக் கூறுகளின்  பட்டியல்கள் 
அந்தந்த ஆய்வுகளின் பின்னே இணைக்கப்பட்டுள்ளன.) 
மூலக்கதைக்கூறுகள்    எவை என்பது அக்கூறுக஼ள் கதைகளில் 
பயின்று வரும் விழுக்காட்டு அடிப்படையில் முடிவு செய்யப்~
பட்டன. </p>

<p>`சின்னண்ணன்-சின்னச்சாமி' ஆய்வைப் பொறுத்தவரை 
முதலில் கதைப் பாடல்களை மட்டும் ஆராய்வதே நோக்க~
மாக இருந்தது. ஆனால், இறுக்கமாகக் கதைகூறும் அமைப்பு
இல்லாமலும் பாடல் தன்மை குறைந்தும் காணப்பட்டதால் 
கதைப் பாடல்களை ஆராய்வது மிகுந்து சிரமத்தை   ஏற்~
படுத்தியது. எனவே, அந்த எண்ணம் கைவிடப்பட்டது.
பின்னர் கதைப்பாடல்களின் கதைகளை ஆராய முடிவு 
செய்யப்பட்டது. இதனைத் தொடர்ந்து `சின்னண்ணன் 
-27-
சின்னச்சாமி' கதைப்பாடல்கள் மட்டுமல்லாமல் உரை 
நடையில் கூறப்பட்ட அக் கதையின் வடிவங்களும் 
சேகரிக்கப்பட்டு ஆய்வுக்கு எடுத்துக்கொள்ளப்பட்டன. 
கதைப்பாடல்களைப் பொறுத்தவரை அவை முதலில் உரை
நடைப்படுத்தப்பட்டன. பின்னர் அவை ஒவ்வொன்றிலும்
இடம் பெறும் நிகழ்ச்சிகள் த஼னித்தனியே வரிசைப்படுத்தப்
பட்டு முன்னால் கூறியவாறே கதைக் கூறுகளின் பட்டியல் 
தயாரிக்கப்பட்டது. </p>

<p>இவ்வாறு தயாரிக்கப்பட்ட கதைக்கூறு஖ளின் பட்டியல்கள், 
கதையின் இடம்பெறும் எந்தவொரு சிறு நிகழ்ச்சியையும் 
ஆய்வில் மேற்கோளாக எடுத்துக்காட்ட உதவியாக உள்~
ளன. அதே நேரத்தில் ஆய்வுக்கு எடுத்துக்கொள்ளப்படும் </p>

<p>கதை வடிவங்களின் எண்ணிக்கை நூறு, ஆயிரமாகப் 
பெருகும்போது இந்த முறையில்  கதைக் கூறுகளின் பட்டி~
யல் தயாரிப்பது சிரமமாக இருக்கும் என்பதையும் ஒப்புக்~
கொள்ள வேண்டியுள்ளது. </p>

<p>4. இந்த ஆய்வுமுறை குறித்துக் கூறப்படும் சில குறைபாடுகள் 
(஖ுறிப்பாக ஆலன் டண்டிஸ் கூறுவன) மனத்திற் கொள்ளப்~
பட்டு அக்குறைகள் நீங்கும் வண்ணம் சில முயற்சிகள் 
மேற்கொள்ளப்பட்டன. </p>

<p>	அறிமுகத்தின் முடிவுரையாகச் சில கருத்துக்கள் வருமாறு: </p>

<p>	இந்த ஆய்வுமுறையைப் பொறுத்தவரை ஆய்வுக்கு எடுத்~
துக்கொள்ளப்படும் கதை முழுமையாகச் சேக஼ரிக்கப்பட்டால் 
தான் ஆய்வு முடிவு ஓரளவு சரியானதாக அமையும். இங்கு 
ஆய்வுக்கு எடுத்துக் கொள்ளப்பட்டுள்ள கதை வடிவங்கள் 
மற்றும் கதைப்பாடல் வடிவங்கள் முழுமையாகச் சேகரிக்கப்~
படவில்லை. எனவே, இந்த ஆய்வுரைகளில் கூறப்படும் முடி~
வுகள் மேலாய்வு செய்வதற்கு உரியவையே. </p>

<p>	இரண்டு ஆய்வுரைகளின் பின்னிணைப்புகளிலும் ஆய்வுக்~
கெனச் சேகரிக்கப்பட்ட கதை மற்றும் கதைப்பாடல் வடிவங்~
கள் தரப்பட்டுள்ளன. ஒலிப்பதிவு நாடாவில் பதிவு செய்யப்~
பட்ட பாடல் வடிவங்களும் உள்ளன. இவை இலக்கியம், 
மொழியியல், இசை போன்ற பல துறை    ஆய்வாளர்களுக்கு 
சிறந்த ஆய்வு மூலங்களாக அமையும். </p>

<p>	இந்த அறிமுக உரையோடு   ஆய்வுகளைக் காணலாம்.</p>

<p> -29-
1. நிட்டூரி கதை: 
வரலாற்று-நிலவியல் ஆய்வு (முதல் பகுதி)</p>

<p>1. ஆய்வுக்குரிய கதை </p>

<p>	`நிட்டூரி கதை' இங்கு வரலாற்று-நிலவியல் ஆய்வுக்கு 
எடுத்துக்கொள்ளப்படுகின்றது. `நிட்டூரி', என்பது `நிஶ்டூரி'
என்ற சொல்லின் தற்பவம். 'நிஶ்டூரம் கொலை, களவு, பொய் 
முதலியன புரிபவள்' என்பது பொருள். கதையில் நிகழும் 
கொலைக்குக் காரணமாக இருப்பவ஼ள்    ஒரு பெண்ணாதலாலும் 
அப்பெண் பல கதை வடிவங்களில் `நிஶ்டூரி'  என்று மக்களால் 
வருணிக்கப்படுவதாலும் கதைக்கு `நீட்டூரி கதை' என்று தலைப்~
பிடப்பட்டது. </p>

<p>-30-  
1.1. சேகரிப்புப்பணி </p>

<p>நிட்டூரி கதையின் பல்வேறு வடிவங்களைச் சேகரிக்கும் 
முயற்சி பின்வரும் இரு வழிகளில் மேற்கொள்ளப்பட்டது. </p>

<p>	அச்சா஖ி வெளிவந்துள்ள நாட்டுப்புறக்கதை அல்லது 
	பாடல் தொகுப்புகளில் இக்கதை வடிவங்க஼ள் வெளிவந்~
	துள்ளனவா எனக் கண்டறிவது. </p>

<p>	நேரடியாகவும் கடிதத் தொடர்பு வாயிலாகவும் தமிழகத்஼~  
	தின் பல பகுதிகளிலிருந்து சேகரிப்பது. </p>

<p>  	முதலில் தமிழில் வெளிவந்துள்ள கதைத் தொகுப்புகள், 
பாடல் தொகுப்புகள், திறனாய்வு நூல்கள் ஆகியவற்றில் 
காணப்படும் பாடல்கள், கதைகள் முதலியன பார்வையிடப்~
பட்டன. இதன் விளைவாகத் திருவாளர்கள் வ.மு. இராமலிங்~
கம், மு.வை. அரவிந்தன், பி.எஸ்.கே. 
பக்தவச்சலம், கு.கிருட்டிணசாமி ஆகியோர்
நிட்டூரி கதைகளின் ஐந்து வடிவங்களைச் சேகரித்து வெளி~
யிட்டுள்ளனர் என்பதை அறிய முடிந்தது. இக்கதைகள் இலங்கை~
யிலிருந்தும் தமிழக஥்தின் வடார்க்காடு, குமரி, கோவை மாவட்~
டங்களிலிருந்தும் சேகரிக்கப்பட்ட஼வை. </p>

<p>	அடுத்து சென்னை, செங்கல்பட்டு தவிர்ந்த தமிழகத்தின் 
அனைத்து மாவட்டங்களையும் மற்றும் புதுவை மாநிலத்தையும் 
சேர்ந்த சுமார் எழுபது பேர்களிடம் நேரடியாகவும் கடிதங்஼கள்
 -31- 
வாயிலாகவும் தொடர்பு கொண்டு கதை சேகரிப்பு முயற்சி 
மேற்கொள்ளப்பட்டது. </p>

<p>	இம்மு௟ற்சியின் விளைவாகக் குமரி, மதுரை, திருச்சி,
தஞ்சை, புதுக்கோட்டை, தென்னார்க்காடு ஆகிய மாவட்டங்~
களிலிருந்தும் புதுவை மாநிலத்திலிருந்தும் பதினைந்து கதை 
வடிவங்கள் சேகரிக்கப்பட்டன. இக்கதை வடிவங்கள் சைவ 
வேளாளர், ரெட்டியார், செட்டியார், செங்குந்த முதலியார். 
படையாட்சி, நாடார், பறையர் கிருத்துவ உடையார் போன்ற 
பல்வேறு சாதிகளைச் சேர்ந்த பதினான்கு முதல் எழுப஼த்து 
நான்஖ு வயதுக்குட்பட்ட இரு பாலாரிடமிருந்தும் சேகரிக்கப்~
பட்டன. (விவரங்களுக்குக் காண்க: இணைப்பு-1).</p>

<p>	நேரில் சந்தித்த பலர் தாங்கள் இக்கதையைச் சிறு வயதில் 
கேட்டிருப்பதாகக் கூறினர். சிலர் இன்னின்னாரிடம் சென்~
றால் இக்கதையைச் சேகரிக்கலாம் என்று வழிகாட்டினர். 
பெரியார், தருமபுரி, சேலம், திருநெல்வேலி மாவட்டங்களைச் 
சேர்ந்தோர் அம் மாவட்டங்களில் இக் கதை வழங்கப்ப஼ட஼வில்லை
-32-
என்று கூறினர். இராமநாதபுர மாவட்டம் செட்டி 
நாட்டுப் பகுதியிலும் வழங்கப்படவில்லை என்று கூறப்பட்~
டது. இக்குறிப்புகளைக் கொண்டு நிட்டூரி கதைகள் 
இன்னின்ன பகுதிகளில் மிகுதியாக அல்லது குறைவாக வழங்~
கப்படுகிறது என்றோ, இன்னின்ன பகுதிகளில் வழங்கப்பட~
வில்லை  என்றோ, அறுதியிட்டுக் கூற இயலாது. முறையான 
க஼ள ஆய்வு மேற்கொண்டால் மட்டுமே அது 
போன்ற முடிவுகளை நல்க முடியும். ஆனால், நிட்டூரி 
கதைகள் தமிழகத்தின் பல்வேறு மாவட்டங்களிலும் தமி~
ழகத்தையொட்டிய புதுவை மாநிலத்திலும் இலங்கையிலும் பல்~
வேறு சாதியினரிடையேயும் பல்வேறு வயதினரிடையேயும் செல்~
வாக்குடன் காணப்படுகிறது என்பதையும் முயன்றால் இக்~
கதைகளின் நூற்றுக்கணக்கான வடிவங்களைச் சேகரிக்க முடி~
யும் என்பதையும் உறுதியாகக் கூறுவதற்கு அக் குறிப்புகள் 
போதுமானவையாக உள்ளன. </p>

<p>2. கதைகள் வரிசைப்படுத்தப்பட்ட முறை </p>

<p>	சேகரிக்கப்பட்ட கதைகள் நில அமைப்பு அடிப்படையில் 
தெற்கிலிருந்து வடக்கு நோக்கிப் பின்வருமாறு வரிசைப் 
படுத்தப்பட்டன: </p>

<p>-33-
	இக்கதைகளின் சுருக்கப்பட்ட வடிவங்கள் இணைப்பு-2இல் 
தரப்பட்டுள்ளன. இவற்றுள் பதினேழு கதைகளில் பாடல்கள் 
இடம்பெற்றுள்ளன. கதை கூறிய சில தகவலாளர்கள் கதை 
முழுதும் பாடலாகப் பாடப்படுவதுண்டு என்ற கருத்தினைக் 
கூறினர் (காண்க: இணைப்பு-1, வ.எ. 6,8,9- இற்கான குறிப்பு~
கள்). இக்்கருத்தானது ஒரு காலத்தில் இக்கதைகள் முழுவதும் 
பாடலாகவே பாடப்பட்டுப் பின்னாளில் கதையின் ஒரு குறிப்~
பிட்ட இடத்தில் அல்லது இடங்களில் மட்டும் பாடலாகவும் 
ஏனைய பகுதிகள் உரைநடையாகவும் மாறினவோ என்னும் 
ஐயத்தை ஏற்படுத்துகின்றது. இது ஆய்வுக்குரியது. சில கதை~
களில் பாடல் தொடர்கள் கதை கூறுவோர் செய்யும் தவறு~
களை அல்லது மாற்றங்களைக் கண்டுபிடிக்கவும் உண்மையை 
ஊகிக்கவும் பயன்படுகின்றன. எனவே, பாடல்களின் முக்கியத்~
துவம் கருதி கதைச் சுரு஖்கங்களில் பாடல்கள் அப்படியே 
முழுமையாகத் தரப்படுகின்றன. </p>

<p>	கதைகளை வரிசைப்படுத்திப் பார்க்கும்போது பின்வரும் 
இரண்டு கருத்துகளைப் புரிந்துகொள்ள முடிந்தது. 
-34-
கதையின் மூலக்கதைக் கூறுகள் குறைந்த 
அளவு மாற்றங்களுடன் அனைத்துப் பகுதிகளிலும் காணப்~
படுகின்றன. </p>

<p>ஒவ்வொரு குறிப்பிட்ட நிலப்பகுதிக்கும் உரிய தனித்தன்மை~ 
களுடன் கதைகள் வழங்கப்படுகின்றன. 
3. கதைக் கூறுகளின் பட்டியல் </p>

<p> முதலில் கதைகளில் இடம்பெறும் பாத்திரங்களின் பட்டியல் 
தயாரிக்கப்பட்டது. இப் பட்டியல் தலைமைப் பாத்திரங்கள் 
எவை என்பதைத் தெளிவுபடுத்தும்.</p>

<p>	அடுத்து, ஆய்வு செய்யப்படும் கதைகள் இருபத்து நான்கு  
கதைக் கூறுகளாகப் பிரிக்கப்பட்டன. அக் கூறுகளை 
ஆய்வில் எடுத்தாள்வதற்கு வசதியாக அவற்றுக்கு அ,ஆ, இ, 
ஈ என்பன போன்ற குறியீடுகள் நல்கப்பட்டன. அக் கூறு~
களுக்கிடையே காணப்படும் வேறுபாடுகளைச் சுட்டத் தனிக்~
குறியீடுகள் தரப்பட்டன. மேலும், அக்கூறுகள் இடம்பெறும் 
மொத்தக் கதைகளை அடிப்படையாகக் கொண்டு கதைக்கூறு~
கள் பயின்றுவரும் விழுக்காடு கணக்கிடப்பட்டது. </p>

<p>4. ஆய்வு </p>

<p>	இனி, (இணைப்பு-4--இல் உள்ள) கதைக் கூறுகளை ஒவ்~
வொன்றாக  ஆராய்ந்து அவற்றுள் விழுக்காட்டு அடிப்படை~
யில் மூலக்கதைக் கூறுகள் எவை என்பதைக் 
காணலாம். </p>

<p>4.1. மூலக்கதைக் கூறுகள் 
அ) மந்திர சக்தியால் பெண் பிறந்து வளர்தல் </p>

<p>	 ஐந்து முதல் ஏழு கதை வடிவங்களில் (அதிக பட்சம் )
-35-
மட்டுமே இடம்பெறும் இக்கதைக் கூறு மூலக்~
கதைக் கூறாக இருக்க இயலாது. இது நிட்டூரி கதையின் 
பிற்கால வளர்ச்சியாகலாம். </p>

<p>ஆ. தொழில் </p>

<p>ஆண்கள் தொழிலுக்குச் செல்வதாக அமையும் இக்கூறு ஒரு 
கதையைத் (ஆ) தவிர, ஏனைய பத்தொன்பது கதைகளில்  
இடம் பெறுகிி஼ன்றது. தொழிலுக்குச் செல்வோர், 
செய்தொழில் ஆகியன மாறுபட்டாலும் 
அண்ண஼ன்மார் வயல் வேலைக்குச் செல்லல், 
என்னும் கதைக்கூறு பதினைந்து கதை வடிவங்களில்  
இடம் பெறுவதால்  இதனையே மூலக்கதைக் கூறாகக் 
கொள்ளலாம். இதனோடு தொடர்புடையதாக        அமைந்த 
அண்ணன்மார் விறகு வெட்டச் செல்லும் கூறுபிற்காலத்திய 
மாற்றமாகலாம்.</p>

<p>இ. தொழில் துணை </p>

<p>எடுத்துச் செல்லும் உணவு, எடுத்துச் செல்லும் காரணம், 
எடுத்துச் செல்லும் முறை ஆகியவற்றில் மாற்றங்கள் 
காணப்பட்டாலும் `அண்ணன்மாருக்குத் 
தங்கை உணவு எடுத்துச் செல்லல்' என்னும் நிலையில் 
ஒன்றுபடும் கூறு பதினாறு கதை வடிவங்களில் 
இடம் பெறுவதால்  அதனையே மூலக்கதைக் கூறாகக் 
கொள்ளலாம். வழக்கம்போல் தங்கை உணவு எடுத்துச் 
செல்வதாகப் பதினோரு கதைவடிவங்களில் கூறப்~
படுவதால் இதுவும் மூலக்கூறாதல் வேண்டும்.</p>

<p>ஈ. தடை</p>

<p>நான்கு கதைவடிவங்களில் தடை பற்றிய செய்தி 
எதுவும் இடம் பெறவில்லை. மீதியுள்ள பதினாறு கதை 
வடிவங்களுள் `தங்கை நீர் நிலையைக் கடக்க வேண்டும்'
-36- 
என்னும் கூறு பதினான்கு கதை வடிவங்களில் 
இடம் பெறுகிறது. இதுவே மூலக்க஼தைக் கூறாகக் கொள்ளத்~
தக்கது. </p>

<p>உ. பிறர் உதவியுடன் கடந்து செல்லல் 
        
பத்துக் கதைவடிவங்களில் நீர் நிலையைக் கடத்தல் 
பற்றிய குறிப்பே இடம் பெறவில்லை. மீதியுள்ள பத்துக் 
கதைவடிவங்களுள் பெண் மனிதரின் உதவியுடன் நீர் 
நிலையைக்கடப்பதாக இரு கதைவடிவங்களிலும் 
வாளை மீனின் உதவியுடன் கடப்பதாக ஆறு கதைவடிவங்~
களிலும் முதலையின் உதவியுடன் கடப்பதாக 
இரு கதைவடிவங்களிலும் கூறப்படுகின்றன. இவற்~
றுள் எந்த ஒன்றும் தனிப் பெரும்பான்மை பெறவில்லை. 
இவற்றைப் `பிறர் உதவியுடன் கடந்து செல்லல்' என்ற ஒரே 
தலைப்பில் அடக்கினாலும் இவை பத்துக் கதைவடிவங்~
களில் மட்டுமே இடம் பெறுகின்றன. இடம் பெறாத 
கதையின் விழுக்காட்டுடன் சமமான விழுக்காடு பெற்றுள்ள 
இது மூலக் கதைக்கூறுஎன்று உறுதியாக ஏற்றுக்கொள்ளத் 
தக்கதாக இல்லாமல் ஐயத்துக்குரியதாக உள்ளது. </p>

<p>ஊ. உணவை இறக்குமாறு பெண் ஏர் ஓட்டும் அண்ணன்மார்களிடம் 
வேண்டுதலும் அவர்களின் செயலும் </p>

<p>நான்கு கதைவடிவங்களில்  மட்டுமே 
இடம் பெறும் இக்கூறு மூலக்கதைக் கூறாகக் கொள்ளத்~
தக்கது அல்ல. இது பிற்கால வளர்ச்சியாகலாம். </p>

<p>எ. திரும்புகையில் பெண் போதுமான உணவு எடுத்து வரவில்லை 
இக் ஂகூறு பத்துக் கதைவடிவங்களில் 
மட்டுமே இடம் பெறுகின்றது. `பிறர் உதவியுடன் நீர் 
நிலையைக் கடத்தல்' (உ) என்னும் கதைக்கூறின் தொடர்ச்சியான
-37-
இக்கூறும் மூலக்கதைக்கூறு என்று உறுதியாக 
ஏற்றுக்கொள்ளத் தக்கதாக இல்லை. </p>

<p>ஏ. பெண் தவறுதல் </p>

<p>ஒரு கதைவடிவத்தில் மட்டும் பெண் தவறு செய்யும் 
செய்தி காணப்படவில்லை. ஏனைய அனைத்துக் கதை 
வடிவங்களிலும் காணப்படுகின்றன. எதிர்பாராமல் நிகழும் 
தவறுகள், சிறு பிள்ளைத்தனமான தவறு ~
கள், திட்டமிட்டுச் செய்யும் தவறுகள் 
என்று செய்யும் தவறுகள் பலவாக மாறுபடுகின்றன. தவறு 
என்னும் நிலையில் இவை ஒன்று படுகின்றன. இவற்றுள் 
`தங்கை தவறு செய்தல்' என்னும் கூறு பதினாறு
கதைவடிவங்களில் இடம் பெறுவதால் இதனை 
மூலக்கதைக் கூறாகக் கொள்ளலாம். </p>

<p>	`பெண் என்ன தவறு செய்கிறாள்?' என்ற ஐயம் 
இங்குத் தோன்றுகிறது. பெண் பிறரை ஏமாற்றுவதாகப் 
பதினோரு  கதைவடிவங்களில்   காணப்படுகிறது. 
இவற்றுள் பத்துக் கதை வடிவங்களில் தங்கை நீர் 
நிலையைக் கடக்க உதவியவரை ஏமாற்றுதல் 
என்னும் செய்தி இடம்பெறுகிறது. இது, கூறுகள் உ,எ 
ஆகியவற்றோடு தொடர்புடையதாகக் காணப்படுகிறது. 
உதவியவர் மனிதர், வாளை, முதலை என்று பலவாறாக 
மாறுபடுவதால்  இதுவும் மூலக்கதைக்கூறு என்று ஏற்றுக்~
கொள்ளத் தக்கதாக இல்லை. </p>

<p>	`பெண் யாரிடம் தவறு செய்கிறாள்?' என்ற ஐய
வினாவிற்கும் இங்கு விடை காண முயலலாம். மனிதர்,
வாளை, முதலை ஆகியோரிடம் பெண் தவறு செய்வதாகக் 
கதைவடிவங்களில்  குறிப்பிடப்படுகிறது. இவற்றுள் வாளை~
யிடம் தவறு செய்வதாகப் பத்துக் கதை வடிவங்களில் 
குறிப்பிடப்படுகிறது. இவற்றுள், 
`தங்கை வாளையிடம் தவறு செய்வதாக' ஒன்பது கதை 
வடிவங்க஼ள் குறிப்பிடுகின்றன. 
இதுவும் மூலக்கதைக்கூறு என்று ஏற்றுக்கொள்ளத்தக்க~
தாக இல்லை. 
-38-
ஐ. துன்புறுதல்    </p>

<p>பெண், காயமுறுதல் பாவாடை கிழிதல்,
அன்புக்குரிய மானை இழத்தல் போன்ற 
காரணங்களால் உடல் மற்றும் மனத்துன்பமுறுவதாகக் 
கதைவடிவங்களில் கூறப்படுகின்றன. இவற்றுள் காயமுறுவ~
தாகப் பதினெட்டுக் கதைவடிவங்களில் கூறப்~
படுகின்றன. இதில் `தங்கை காயமுறுதல்' இடம் 
பெறுவதால் அதுவே மூலக் கதைக்கூறாக இருத்தல் 
வேண்டும். ஏனையவை பிற்கால மாற்றங்களாகலாம். </p>

<p>	பெண் காயமுறுவதற்கான காரணங்கள் பல கூறப்பட்~
டாலும் வாளை மீனால் காயமுறுவதாகப் பதினோரு கதை 
வடிவ஼ங்களில் ஖ூறப்படுகின்றன. அவற்றுள் தங்கை வாளை 
மீனால் காயமுறுவதாகப் பத்துக் கதைவடி~
வங்களில் கூறப்படுகின்றன. பிறவற்றை ஒப்பிட 
வாளை தனிப்பெரும்பான்மை பெறுவதால் இது மூலக்~
கதைக் கூறாக இருக்கக்கூடும். </p>

<p>ஒ. பழிகூறல் </p>

<p>ஒரே ஒரு கதைவடிவத்தில் மட்டும் இ஼இக்கூறு இடம் 
பெறவில்லை.  பிறவற்றுள் சின்னண்ணன் அடித்ததாகத் 
தாயிடம் பொய் கூறுதல் என்னும் செய்தி பதினாறு 
கதை வடிவங்களில்  இடம் பெறுவதால் இதுவே 
மூலக்கதைக் கூறு என்று கொள்ளலாம். சின்னண்ணன் 
பாவாடையைக் கிழித்ததாக வரும் கூறு பிற்கால 
மாற்றமாகலாம். சின்னண்ணன் மீது பழி கூற ஓரிரு 
காரணங்கள் கூறப்பட்டாலும் பதின்மூன்று 
கதைவடிவங்களில் காரணம் எதுவும் 
கூறப்படவில்லை. </p>

<p>ஓ. கொலை </p>

<p>மகளின் பேச்சை நம்பிய தாய் சின்ன மகனைத் தானே 
தனியாகவும் மகளோடு அல்லது 
-39-
கணவனோடு சேர்ந்தும் கொன்று புதைப்பதாகக் 
கதைவடிவங்கள்  அமைந்துள்ளன. </p>

<p>`தாய் சின்ன மகனைக் கொன்று புதைத்தல்' என்ற நிலை~
யில் இவை ஒன்றுபடுகின்றன. பதினேழு கதை வடிவங்களில் 
இடம்பெறும் இச்செய்தியை மூலக்கதைக்கூறு     என்று 
கூறலாம். தாய் மகளோடும் கணவனோடும் சேர்ந்து சின்ன 
மகனைக் கொல்வதாக அமைந்த செய்திக஼ள்    பிற்கால 
மாற்றம் எனலாம். </p>

<p>	பதினேழு கதைவடிவங்களுள் மூன்று கதை வடிவங்~
களில் கொல்லப்படும் முறை பற்றிய குறிப்பு 
எதுவுமில்லை. பிற கதைவடிவங்களுள் தாய் சின்னமகனை 
நச்சுணவுதந்து கொல்வதாகவும் பாம்புணவு 
தந்து கொல்வதாகவும் வெட்டிக் கொல்வ~
தாகவும் கூறப்படுகின்றன. இவற்றுள் பாம்஼புணவு 
என்பதும் நஞ்சு கலந்த உணவு என்ற நிலையில் நச்சுண~
வோடு ஒன்று படுகின்றது. இந்த அடிப்படையில் நோக்கி~
னால் நச்சுணவு தந்து கொல்லும் செய்்தி பதின்மூன்று 
கதை வடிவங்களில் இடம்  பெறுகிறது. இதுவும் 
மூலக்கதைக் கூறாதல் வேண்டும். </p>

<p>ஔ. புதைத்த இடத்தில் பூந் தாவரம் முளைத்துப் பூத்தல் </p>

<p>ஒரு கதை வடிவத்தில் பூந் தாவரம் இடம் பெற்றா~
லும் அது முளைத்து வளரும் இடம் குறிப்பிடப்படவில்லை. 
பிற கதைவடிவங்களைப் பொறுத்தவரை புதைத்த இடத்~
தில் பூந்தாவரம் முளைப்பதாகப் பொதுவாகவும் 
புதைத்த தலைப்பகுதியில் முளைப்பதாகச் சிறப்~
பாகவும் கூறப்படுகின்றன. மூன்று கதைவடிவங்க~
ளில் பூந்தாவர வகைகளும் கூறப்படுகின்றன. 
இவற்றுள் பெண்ணின் சின்னண்ணனைப் புதைத்த இடத்~
தில் (தலைப்பகுதியில் முளைத்தலும் இதில் அடங்கும்) `பூந்~
தாவ஼ரம் முளைத்துப் பூத்தல்' என்னும் செய்தி 
பதினாறு கதை வடிவங்களில் இடம் பெறுவதால் 
இதுவே மூலக்கதைக்கூறு எனலாம். 
-40-
க. பெண்ணின் திருமணத்திற்குப் பூ கிடைக்காமை 
இக்கூறு ஒரு கதை வடிவத்தைத் தவிர அனைத்துக்கதை 
வடிவங்களிலும் இடம் பெறுகிறது. அவற்றுள் `அண்ணன் 
கொலைக்குக் காரணமான பெண்ணின் திருமணத்திற்குப் 
பூ கிடைக்காமை' என்னும் செய்தி பதினாறு கதை 
வடிவ஼ங்களில் இடம் பெறுவதால் இதுவே மூலக்~
கதைக்கூறு எனலாம். </p>

<p>ங. குடும்பத்தார் பூப் பறிக்கச் செல்லல் </p>

<p>பூ இருக்குமிடத்தை எவ்வாறு அறிந்தனர் என்பதிலும் பூப்~
பறிக்கச் செல்வோரிலும் மாற்றங்கள் காணப்பட்டாலும் 
`சின்னவனைப் புதைத்த இடத்தில் பூ இருப்பதை அறிந்து  
குடும்பத்தார் பறிக்கச் செல்லல்' என்ற நிலையில் 
ஒன்றுபடும் கதைச்செய்தி ப஼தினேழு கதைவடிவங்களில் 
இடம் பெறுவதால் இதனையே மூலக்கதைக் கூறு 
எனலாம். </p>

<p>ச. பூக்கள் மறைந்து \ வாடிவிடுதல் </p>

<p>இக்கூறு ஒன்பது கதைவடிவங்களில் இடம் பெற~
வில்லை. ஏனைய பதினோரு கதைவடிவங்களுள் சின்ன~
வனைப் புதைத்த இடத்திலுள்ள பூ, பறிக்க முயல்கையில் 
மறைந்து\வாடிவிடுதல் என்னும் செய்தி பத்துக் கதை 
வடிவங்களில் இடம்பெறுகிறது. தனிப்பெரும்~
பான்மை பெற்றுள்ள இது மூலக்கதைக் கூறாக இருக்கக்~
கூடும். </p>

<p>ஞ.பூந் தாவரம்\பூ உண்மையை வெளிப்படுத்தல் </p>

<p>இக்கூறு ஒரு கதைவடிவத்தில் மட்டும் இடம் பெற~
வில்லை. இடம்பெறும் பிற கதைவடிவங்களுள் கொலைக்~
குக் காரணமானவள் தங்கை என்பதை வெளிப்படுத்துவ~
தாக அமையும்  செய்தி பதினாறு கதைவடிவங்களில் 
காணப்படுகிற஥ு. இதுவே மூலக்கதைக் கூறாதல் 
வேண்டும்.
-41-
ட. பூ தருவது தொடர்பாகக் கொலையுண்டவன் எடுக்கும் முடிவு </p>

<p>ஒரு கதைவடிவத்தில் மட்டும் கொலையுண்டவன் 
என்ன முடிவெடுக்கிறான் என்பது பற்றிய குறிப்பு இடம் 
பெறவில்லை. பிற கதைவடிவங்களுள் தங்கைக்குப் பூ தர 
மறுப்பதாக அமையும் செய்தி பன்னிரண்டு கதைவடி~
வங்களில் இடம்பெறுகிறது. தங்கைக்குப் பூ தருவ~
தாக நான்கு கதைவடிவங்களில் கூறப்படுகிற஼து. 
இவற்றுள் மாற்றம் என்றும் கருதலாம். </p>

<p>ண. உண்மை அறிந்த உறவினர்கள் சின்னானுக்குப் பூசை 
செய்து அவன் கோபத்தைத் தணித்தல்</p>

<p>த. பெண்ணைத் தவிர பூகேட்கும் அனைவரும் உயிரற்றவர்களாதல் 
ந. பெண் வருந்தி அழுதல் 
ப. சக்திமிக்க ஒருவர் தோன்றி உயிற்றவர்களுக்கு உயிரளிக்க 
உதவல் 
ம. உயிர் பெற்ற சின்னவன் வீட்டிற்கு வர மறுத்து மீண்டும் 
இறத்தல் 
மேலே உள்ள ஐந்துகூறுகளும் முறையே 1,4,5,7,17 கதை 
வடிவங்களில் மட்டுமே இடம் பெறுகின்றன. குறைந்த 
கதைவடிவங்஖ளில் இடம்பெறும் அக்கூறுகள் மூலக்கதைக் 
கூறுகளாக கொள்ளத்தக்கன அல்ல. அவை பிற்கால 
வளர்ச்சியாகலாம். </p>

<p>ய. திருமணம் </p>

<p>திருமணம் நடைபெறுவதாகப் பதினோரு கதைவடிவங்~
களில் தெளிவாகக் குறிப்பிடப்படுகிறது. 
ஒரு கதைவடித்தில் குறிப்பாகச் சுட்டப்படுகிறது.
திருமணம் நின்று விடுவதாக ஒரு கதைவடிவத்தில் மட்டுமே 
தெளிவாக஼க் குறிப்பிடப்படுகிறது. ஏழு கதை 
வடிவங்களில் குறிப்பாக அறிந்து கொள்ள 
முடிகிறது. எனவே, திருமணம் நடைபெறுதல் என்பதே 
மிகுதியாக உள்ளது. இவற்றுள் தங்கையின் திருமணம்</p>

<p>-42-
நடைபெறுவதாகப் பத்துக் கதைவடிவங்களில் (50%)
கூறப்படுவதால் இது மூலக்கதைக் கூறாதல்
கூடும்.</p>

<p>               0 
</p></body></text></cesDoc>