<cesDoc id="tam-w-literature-sf-arivi4" lang="tam">
<cesHeader type="text">
<fileDesc>
<titleStmt>
<h.title>tam-w-literature-sf-arivi4.txt</h.title>
<respStmt>
<respType>Electronic file created by</respType>
<respName>Central Institute for Indian Languages, Mysore</respName>
<respType>transferred into Unicode and CES format by</respType>
<respName>"Unicodify" software by Andrew Hardie</respName>
</respStmt></titleStmt>
<publicationStmt>
<distributor>UCREL (on behalf of CIIL)</distributor>
<pubAddress>Department of Linguistics, Lancaster University, Lancaster, LA1 4YT, UK</pubAddress>
<availability region="WORLD"></availability>
<pubDate>03-07-04</pubDate>
</publicationStmt>
<sourceDesc>
<biblStruct>
<monogr>
<h.title>அறிவியல் ஆயிரம் (நான்காம் ஂபகுதி)</h.title>
<h.author>என். ஶ்ரீநிவாசன்</h.author>
<imprint>
<pubPlace>India</pubPlace>
<publisher>Unknown - Book</publisher>
<pubDate>1987</pubDate>
</imprint>
<idno type="CIIL code">arivi4</idno>
</monogr></biblStruct></sourceDesc></fileDesc>
<encodingDesc>
<projectDesc>Text collected for the CIIL Corpus, subsequently integrated into the EMILLE/CIIL Monolingual Written Corpora.</projectDesc>
<samplingDesc>Simple written text only has been transcribed. Diagrams, pictures and tables have been omitted. Sampling begins at page 19.</samplingDesc>
<editorialDecl><conformance level="1"></conformance></editorialDecl>
</encodingDesc>
<profileDesc>
<creation><date>03-07-04</date></creation>
<langUsage>Tamil</langUsage>
<wsdUsage>
<writingSystem id="ISO/IEC 10646">Universal Multiple-Octet Coded Character Set (UCS).</writingSystem>
</wsdUsage>
<textClass>
<channel mode="w">print</channel>
<constitution type="composite"></constitution>
<domain type="public"></domain>
<factuality type="fiction"></factuality>
</textClass>
<translations></translations>
</profileDesc>
<revisionDesc></revisionDesc>
</cesHeader>

<text><body>

<p>பக்கம்:3
                     அணு அறிவியல்</p>

<p>	நீதியாய், நிலனாகி நெருப்பாய், நீராய்,
	நிறைகாலாய், இவையிற்நின் நியமமாகிப்
	பாதியா யொன்றாகி, இரண்டாய், மூன்றாய்ப்
	பரமாணுவாய்ப் பழுத்த பண்க ளாகிச்
	சோதியா யிருளாகிச் சுவைகளாகிச்
	சுவைகலந்த அப்பாலாய், வீடாய் வீட்டின்
	ஆதியாய், அந்தமாய்............</p>

<p>				  -திருத்தாண்டகம்</p>

<p>1.  அணு என்றால் என்ன?</p>

<p>     அணு என்ற சொல் கிரேக்கச் சொல்லான `ஆட்டம்'
என்பதிலிருந்து வந்தது. இதன் பொருள் `பிரிக்க
முடியாதது' என்பது. `அழிவில்லாதது' என்பதைக்
குறிக்கும். `ஆத்ம்' என்ற சம்ஸ்கிருத மொழி சொல் மருவி
கிரேக்க ஆட்டம் ஆயிற்று என்று கூறுவருமுள்ளனர்.</p>

<p>     ஒரு தனிமத்திலுள்ள மிகச் சிறிய தூளே அணு. வேதி~
யியல் பயன்களில் அணு என்பது பொருளின் பிரிக்க
முடியாத சிறிய பகுதி.</p>

<p>பக்கம்:4
2.  மூலக்கூறுகள் என்றால் என்ன?</p>

<p>     அணுக்களின் சேர்மமே மூலக்கூறுகள். சில தனிமங்களில்
ஒரு சில அணுக்கள்தானிருக்கும். தண்ணீரின் மூலக்கூறில்
2 ஹைட்ரஜன் அணுக்களும் ஒரு ஆக்ஸிஜன் அணுவும்
உள்ளன. ஹீலியம் நியான் போன்ற வாயுக்களின் மூலக்~
கூறுகளில் ஒரே ஒரு அணுதான் உள்ளது. ஒரே தனிமத்தின்
இரு அணுக்கள் சேர்ந்தும், இரண்டு அல்லது அதற்கு மேற்~
பட்ட தனிமங்களின் அணுக்கள் சேர்ந்தும் மூலக்கூறுகள்
உருவாகின்றன. மூலக்கூறிலுள்ள அணுக்களின் எண்ணிக்கை~
யைக் கொண்டு ஈரணு, மூவணு, நான்கணு மூலக்கூறுகள்
என்று பிரிக்கலாம். ரப்பரின் மூலக்கூறில் 75000 கார்பன்
அணுக்களும், 120000 ஹைட்ரஜன் அணுக்களும்
உள்ளதாம்.</p>

<p>3.  அணு எண் என்றால் என்ன?</p>

<p>     ஒர் அணுவினுள் மூன்று முக்கியத் துகள்கள் உள்ளன.
அணுவின் மையக்கருவில் புரோட்டானும் நியூட்ரானும்
உள்ளன. இந்த அணுக்கருவைச் சுற்றி எலக்ட்ரான்கள் பல
ஆற்றல் மட்டங்களில் வலம் வருகின்றன. இதில் அணு எண்
என்று குறிப்பிடுவது ஒரு தனிமத்தின் அணுவின் உ஠்கருவி~
லுள்ள புரோட்டான்களின் எண்ணிக்கை அல்லது உ஠்~
கருவைச் சுற்றிவரும் எலக்ட்ரான்களின் எண்ணிக்கையையே
குறிக்கும். எல்லா அணுக்களிலும் எலக்ட்ரான்களும்
புரோட்டான்களும் சம எண்ணிக்கையில் இருப்பதால்தான்
அணு எந்தவித முன்னூட்டமும் இல்லாமல் இருக்கிறது.
ஹைட்ரஜனின் அணு எண் 1 அதாவது அதன் உட்கருவில்
ஒரே ஒரு புரோட்டான்தான் உள்ளது. யூரேனியம் அணு~
வின் உ஠்கருவில் 92 புரோட்டான்கள் உள்ளதால் அதன்
அணு என் 92 ஃபெர்மியம் என்ற தனிமத்தின் அணு
எண் 100. இப்படி வரிசையாக அணு எண் 107 வரையுள்ள
தனிமங்கள் கண்டுபிடிக்கப்பட்டுள்ளன. ஒரு அணுவின்
வேதியியல் தன்மையை நிர்ணயிப்பது அணு எண்தான்.</p>

<p>பக்கம்:5
4.  அணு நிறை, அணு எடை என்றால் என்ன?</p>

<p>     அணுவின் உட்கருவிலுள்ள புரோட்டான்஼கள் நியூட்~
ரான்களின் கூட்டுத் தொகையே அணு நிறை என்பது.
எடுத்துக்காட்டாக ஹீலியம் அணுவின் உ஠்கருவில்
இரண்டு புரோட்டான்களும் இரண்டு நியூட்ரான்களும்
உள்ளன. எனவே ஹீலியத்தின் நிறை 4 ஆகும். அணு மின்
நிலையங்களில் பொதுவாக எரிபொருளாகப் பயன்படுத்தப்~
படுவது யூரேனியம். 235 என்ற தனிமம். இது ஒரு
ஐஸோடோப்பு. 235 என்ற எண் இதன் நிறையைக் குறிக்~
கிறது. இ஥ன் பொருள் இ஥ன் உ஠்கருவில் 92 புரோட்~
டான்களும் 143 நியூட்ரான்களும் உள்ளன என்பதுதான்.
ஆனால் இயற்கையாகக் கிடைக்கும் யூரேனியத்தின்
நிறை 238.</p>

<p>     அணு மிக மிக நுண்ணியமானது. எனவே இதன் எடை~
யும் மிகக் குறைந்ததுதான். ஓர் அணுவின் தனித்த
எடையை தராசில் நிறுத்திப் பார்க்க முடியாது. ஆகவே
ஹைட்ரஜன் அணுவைப்போல் எத்தனை மடங்கு கனம்
என்ற அடிப்படையில் ஒப்பிட்டே எ஠ைகளைக் கூறுவது
வழக்கம். கார்பன் 12 என்று கார்பனின் ஒருவகை
ஐஸோடோப்பு. இதன் நிறையில் 12ல் ஒருகூறை அணு
எடையை நிர்ணயிக்கும் அலகாக எடுத்துக் கொண்டுள்ள~
னர். இ஥ன்படி ஹைட்ரஜன் அணுவின் எடை 1.008. இதன்
படி பாதரசத்தின் அணு எடை 200.59. இயற்கையில்
கிடைக்கும் யூரேனியத்தின் எடை 238.04.</p>

<p>5.  அணுவின் கட்டமைப்பில் என்னென்ன உள்ளன?</p>

<p>     அணுவின் மையப் பகுதியில் மூலக்கரு உள்ளது. இதை
அணுக்கரு என்பர். இ஥னுள் புரோட்டான் எனும் துகளும்
நியூட்ரான் எனும் துகளும் உள்ளன. இதைச் சுற்றியுள்ள
வெளியுறையில் எலக்ட்ரான்கள் உள்ளன. எலக்ட்ரான்களும்</p>

<p>பக்கம்:6
மையக்கருவும் அணுவினுள் மிகச்சிறிய இடத்தையே
பிடித்துக்கொண்டுள்ளன. எனவே அணுவினுள் வெற்றிடம்
அல்லது இடைவெளி மிக அதிகம்.</p>

<p>6.  எலக்ட்ரான் என்றால் என்ன?</p>

<p>     அணுவினுள் மையக்கருவைப் பல ஆற்றல் மட்டங்களில்
சுற்றிவரும் நுண்துகள் எதிர் மின்னூட்டம் உடையது. இ஥ு
ஒரு துகள்தான் என்றாலும் இதற்கு அலைப் பண்பும்
உள்ளது. இந்த எலக்ட்ரான்கள் மையக்கருவை விட 10
மடங்கு சிறியவை. ஒரு மில்லி மீட்டரில் 40000 கோடிக்
கூறில் ஒரு கூறைவிட சிறியதாக இருக்கும். எலக்ட்ரானின்
ஆரம் ஒன்றின் பின் 27 சைபர்களைச் சேர்த்துக் கொண்~
டால் எந்த எண் வருமோ அவ்வளவு மடங்கு எ஠ை! ஒரு
கிராமைவிட இதற்குக் குறைவு. ஹெல்ம் ஹோல்ட்ஸ்
என்பவர் அணுவில் இது இருப்பதைக் கண்டுபிடித்தார்.
அணுவின் வெளி உறையிலுள்ள எலக்ட்ரான்கள்தான் வேதி~
யியல் மாற்றங்கள் ஏற்படத் துணை புரிகின்றன. இ஥ன்
எண்ணிக்கை அணு எண்ணைக் குறிக்க உ஥வுகிறது.</p>

<p>7.  புரோட்டான்கள் என்றால் என்ன?</p>

<p>     அணுவின் மையக் கருவிலுள்ள நேர் மின்னூட்டமுடைய
துகள் புரோட்டான்கள் எலக்ட்ரானைவிட 2000 மடங்கு
பெரியது; நிறையும் 1836 மடங்கு அதிகம். ஓர் அணுவில்
எத்தனை எலக்ட்ரான்கள் உள்ளனவோ அத்தனை புரோட்~
டான்கள் இருக்கும். இ஥ன் எண்ணிக்கையைக் கொண்டும்
அணு எண் நிர்ணயிக்கப்படுவதுண்டு!</p>

<p>     எலக்ட்ரான்களை இயக்குவது நேர் மின்னூட்டமுடைய
புரோட்டான்கள்தான்! ஒரு பொருளின் வேதியியல்
தன்மையை நிர்ணயம் செய்வதும் இ஥ுதான்! லிதியம் என்ற
தனிமத்தின் அணுவின் உட்கருவில் மூன்று புரோட்டான்கள்</p>

<p>பக்கம்:7
உள்ளன. இது ஒரு புரோட்டான் குறைந்தால் அது
ஹெலியம்; ஒரு புரோட்டான் அதிகமாக இருந்தால் அது
பெரில்லியம்.</p>

<p>8.  நியூட்ரான்கள் இருப்பதை எப்படிக் கண்டுபிடித்தார்கள்?</p>

<p>     அணுவின் மூலக் கருவிலுள்ள எவ்வித மின்னூட்டமு~
மில்லாத ஒரு துகள். இதன் நிறை புரோட்டானின்
நிறையைவிட சற்று அதிகமாக இருக்கும். சாதாரண
ஹைட்ரஜன் அணுவின் மூலக் கருவைத் தவிர மற்ற எல்லா
அணுக்களின் மூலக் கருவிலும் நியூட்ரான்கள் இருக்கும்.</p>

<p>     ஒரு புரோட்டானின் நிறை எண் 1. அதன்படி
அணுவின் நிறை எண் முழு எண்ணாக இருக்க வேண்டும்.
அணு எடையோ தசமத்தில் வந்தது. இந்த புதிருக்கு விடை
காண முயன்றபோதுதான் புரோட்டானைத் தவிர
வேறொரு துகளும் இருக்க வேண்டும் என்ற சந்தேகம்
பிறந்தது. 1932ல் ஜேம்ஸ் சாம்விக் கண்டுபிடித்தார்.
அவர் பெரில்லியம் அணுவை கடுமையாகத் தகர்த்தபோது
அதிலிருந்து மிக ஆற்றலுள்ள ஊடுருவிச் செல்லும் திறன்
கொண்ட கதிர் வீச்சு வெளியாவதைக் கண்டார். இது
உலோகத் தகட்டின் வழியாகவோ, காந்தப்புலம், மின்புலம்
வழியாகவோ செல்லும்போது வளையவில்லை! எனவே
இதற்கு எவ்வித மின்னூட்டமும் கிடையாது என்று தெரிந்து
கொண்டு இதற்கு நியூட்ரான் என்ற பெயரைச் சூட்டினார்.</p>

<p>9.  அணுக்கருவில் உள்ள நேர் மின்னூட்டமுடைய புரோட்~
    டான்கள் ஒன்றையொன்று தாக்கிப் பிய்த்துக்கொண்டு
    ஏன் வெளியே வரவில்லை?</p>

<p>     அணுக்கருவில் செயல்படும் இணைவாற்றல் விசைதான்
அணுக்கருவிலிருந்து புரோட்டான் பி௟்த்துக் கொண்டு
வெளிவராமல் தடுக்கிறது. அணுக்கருவில் இருவித அடிப்~
படை விசைகள் வேலை செய்கின்றன. அணுக்கருவின் விசை</p>

<p>பக்கம்:8
அணுக்கரு மென்விசை என்பவைகளே அவை. இ஥ில் வன்
விசையே அணுக்கருவில் துகள்கள் இணைந்திருப்பதற்குக்
காரணம். இந்த விசைகள்தான் அணுக்கருவிலுள்ள ஒரே
மாதிரியான நேர் மின்னூட்டமுடைய புரோட்டான்கள்
ஒன்றையொன்று தாக்கி மோதிக்கொண்டு வெளியே
பிய்த்துக்கொண்டு வராமல் தடுக்கிறது. அணுக்கரு வன்
விசைகளைப் பரிமாற்ற விசைகள் என்றும் சொல்வதுண்டு.
இவைகள் மேஸன் எனப்படும் ஆதாரத் துகள்கள்
மூலமாகவும் செயல் புரியும். அணுக்கரு மென்விசை நியூட்~
ரான்களின் சிதைவினால் உண்டாகிறது.</p>

<p>10.  எந்தவித மின்னூட்டமுமில்லாத நியூட்ரான்கள் அணுக்~
     கருவில் இருப்பதால் என்ன ப௟ன்?</p>

<p>     அணுக்கருவில் புரோட்டானுடன் சேர்ந்து வாழும் இந்த
நியூட்ரான்கள் அசுர ஆற்றல் படைத்தவை. இவைகள்
இல்லாவிட்டால் அணுவினைச் செயல்கள் எதுவும் நடை~
பெறாது. வேதியியல் தனிமங்களின் சேர்மம் நடை பெறாது.
இவைகள் இல்லாவிட்டால் இப்பிரபஞ்சம் முழுவதும்
எவ்விதச் செயலும் நடைபெறாது.</p>

<p>     அளவிலும் அமைப்பிலும் புரோட்டான்களைப்
போலவே இருக்கும் இ஥ன் அளவு 0.0016933 மைக்ரோ
மைக்ரான்கள். புரோட்டான்கள் நேர் மின்னூட்ட~
முடையது; இதற்கு எவ்வித மின்னூட்டமும் கிடையாது.
இந்த சிறு வேறுபாடு, அணு ஆற்றல் வெளிப்படும்போது,
நியூட்ரானுக்குப் பெரும் ஆற்றலைக் கொடுக்கிறது.</p>

<p>     அணுக்கருவிலிருந்து ஒரு புரோட்டான் வெளியேறினால்
உ஠னே மின்னாற்றலுக்குப் பலியாகி, எலக்ட்ரான்களை
துணை சேர்த்து கொண்டு இன்னொரு அணுவினுள்
குடியேறிவிடும்! நியூட்ரான்களோ அணுக் கருவிலிருந்து
நொடிக்கு 14500 கி.மீ. வேகத்தில் வெளிவந்து வரும்</p>

<p>பக்கம்:9
வழியிலுள்ள அணுக்களை எல்லாம் தாக்கி தகர்த்துவிடும்
நியூட்ரான்களின் இந்த எரிமலைக் குமுறலை ரேடியோ
ஐஸோடோப்புகள் என்கின்றனர்.</p>

<p>11.  அணுவின் எண்ணிக்கையும் பொருளின் எடையும் சமமாக
     இருப்பது எப்போது?</p>

<p>     அணு மிகச் சிறியது. `பிரிக்க முடியாதது' என்ற
பொருள் தரும் கிரேக்க஼ச் சொல்லிலிருந்து பிறந்தது. இன்று
அணு என்பதே பல துகள்களால் ஆனது என்று தெரியும்.
அணுவின் மொத்த நிறையுமே அதன் மையக் கருவில்தான்
குவிக்கப்பட்டிருக்கிறது. மையக் கருவில் புரோட்டான்களும்
நியூட்ரான்களும் உள்ளன! இந்த மையக் கருவைச் சுற்றி~
யுள்ள உறையில் எலக்ட்ரான்கள் எனும் துகள்கள் வலம்
வருகின்றன! இதன் நிறை ஹைட்ரஜன் அணுவின் நிறையில்
1836ல் ஒரு கூறு. புரோட்டான் இதைவிட 1836 மடங்கு
நிறை அதிகம். நியூட்ரானின் நிறை புரோட்டானை விடச்
சற்று அதிகம்.</p>

<p>     இந்த அணுவை 100 மீட்டர் குறுக்களவு உடைய ஒரு
பெரிய கோளமாக உருப் பெருக்கினால் அதன் மையக்கரு
ஒரு கிரிக்கெட் பந்து அளவுதான் இருக்கும். நம்மைச் சுற்றி~
யுள்ள எல்லாப் பொருள்களும் அணுக்கள் நிரம்பியவைதான்
அந்த அணுக்க஼஼ளுள் மையக் கருவிற்கும் எலக்ட்ரான்களுக்கும்
இடையே இடைவெளி அதிகம்!</p>

<p>     இப்போது எல்.ஐ.சி கட்டடத்தை எடுத்துக் கொள்~
வோம்! இதில் ப௟ன்படுத்தப்பட்ட பொருள்கள் எல்லாம்
அணுக்களின் தொகுதிதான்! அணுவினுள் இடைவெளி
அதிகம். இப்போது இந்த கட்டடத்தின் அணுக்களிலுள்ள
இடைவெளியை அகற்றிவிடலாம்.</p>

<p>     இடைவெளியை அகற்றுதல் என்றால் மையக்கருவிற்கும்
எலக்ட்ரான்களுக்கும் இடைப்பட்ட வெட்ட வெளியை
நெருக்கிக் குறுக்கி இரண்டையும் அருகருகே நெருக்கமாக</p>

<p>பக்கம்:10
வரும்படியாக அமைத்தல்; இப்படிச் செய்தால் மொத்த
எல்.ஐ.சி. கட்டடமும் ஒரு நெல்லிக்கனி அளவுதான் வரும்.
என்றாலும் அதன் எடை எல்.ஐ.சி. கட்டடத்தின் தோராய~
மான எடையான 10000 டன்கள் இருக்கும். அப்போது
அதிலுள்ள அணுக்களின் எண்ணிக்கையும் எடையும் சமமாக
இருக்குமாம்.</p>

<p>     நம்பும்படியாக இல்லையே என்று கேட்கலாம். இயற்~
கையில் இந்நிகழ்ச்சி தொடர்ந்து நடந்து கொண்டுதானிருக்~
கிறது! சில நட்சத்திரங்களின் அணுக்களிலுள்ள இடைவெளி
அழுத்திக் குறுகி அந்த நட்சத்திரங்களின் மொத்த குறுக்~
களவே 20 முதல் 30 கி.மீ.ராக ஆகிவிட்டன. எலக்ட்ரான்~
களும், புரோட்டான்களும், நியூட்ரான்களுடன் நெருக்கி
இணைந்து நியூட்ரான் நட்சத்திரங்களாக மாறிவிட்டன!
ஒரு கன செ.மீ. பொருளின் எடை பல நூறு டன்கள்.</p>

<p>12.  அயனிகள் என்றால் என்ன?</p>

<p>     அணுக்களின் மையக் கருவில் புரோட்டான்கள், நியூட்~
ரான்கள் எனும் இரு துகள்கள் உள்ளன! இதில் நியூட்~
ரானுக்கு எவ்வித மின்னூட்டமும் கிடையாது. புரோட்~
டான்கள் நேர் மின்னூட்டமுடையது. இந்த உட்கருவைச்
சுற்றியுள்ள உறையில் எதிர் மின்னூட்டமுடைய எலக்ட்~
ரான்கள் உள்ளன! எலக்ட்ரான்களும் புரோட்டான்களும்
சம அளவில் இருப்பதால் அணுவிற்கு எவ்வித மின்னூட்~
டமும் கிடையாது!</p>

<p>     வேதி வினைச்செயல் நடைபெறும்போது ஓர் அணு
ஒன்று அல்லது அதற்கு மேற்பட்ட எலக்ட்ரான்களை இழக்க
நேரிடும். அப்போது அந்த நேர் மின்னூட்டமுடைய அயனி~
களாக மாறுகிறது! இத்தகைய அயனிகள் எதிர் மின்
வாயுடைய கதோடை நோக்கிச் செல்லும் இயல்புடையது.
அதனால் இதற்கு எ஥ிர் அயனிகள் என்று பெயர்!</p>

<p>பக்கம்:11
     சில சமயங்களில் ஓர் அணு ஒன்று அல்லது அதற்கு
மேற்பட்ட எலக்ட்ரான்களை பிற அணுக்களிடமிருந்து
பெறும். இதனால் அது எதிர் மின்னூட்டமுடைய அயனி~
களாக மாறுகிறது. இத்தகைய அயனிகள் நேர்மின் வாயு~
டைய அனோடை நோக்கிச் செல்கிறது. எனவே இதற்கு
நேர் அயனிகள் என்று பெயர். சுருக்கமாக அயனிகள்
என்றால் மின்னூட்டமுடைய அணுக்கள் என்று பொருள்.</p>

<p>13.  ஐஸோடோப்புகள் என்றால் என்ன?</p>

<p>     அணுக்களின் உட்கருவில் புரோட்டான்களும் நியூட்~
ரான்களும் உள்ளன! ஒரு குறிப்பிட்ட தனிமத்தின் அணுக்~
களில் எல்லாம் புரோட்டான்கள் ஒரே எண்ணிக்கையில்
இருக்கும்! ஆனால் நியூட்ரான்களின் எண்ணிக்கை மாறு~
படும். இதனால் ஒரு தனிமத்தின் அணுக்கள் அனைத்தும்
ஒரே நிறை கொண்டவைகளாக இருப்பதில்லை! இவ்வாறு
வெவ்வேறு நிறை கொண்ட ஒரே தனிமத்தின் பலவகை
அணுக்களை அந்தத் தனிமத்தின் ஐஸோடோப்புகள்
என்கிறார்கள். ஒரு தனிமத்தின் ஐஸோடோப்பு என்பது
அத்தனிமத்தின் வேறு உருவம் எனலாம். ஒவ்வொரு
ஐஸோடோப்பும் அதன் சாதாரண தனிமத்தைவிட ஒரு
நியூட்ரானாவது மாறுபட்டிருக்கும். இதனால் இதன்
நிறையிலும் மாறுதலிருக்கும். எளிய ஐஸோடோப்புக்கு
உதாரணம் ஹைட்ரஜன். சாதாரண ஹைட்ரஜனின் அணுக்~
கருவில் ஒரு புரோட்டானும் அதைச் சுற்றிவரும் ஒரு எலக்ட்~
ரானும் உண்டு! இன்னொரு வகையில் அணுக்கருவில் ஒரு
புரோட்டானுடன் ஒரு நியூட்ரானும் இருக்கும். இது
ஹைட்ரஜனின் ஐஸோடோப்பான டியூட்டிரியம். தவிர
மற்றொரு வகையில் அணுக்கருவில் ஒரு புரோட்டானும்,
இரண்டு நியூட்ரான்களும் இருக்கும் இதற்கு ட்ரைட்டியம்
என்று பெயர். ஐஸோடோப்புகள் பொதுவாகக் கதிரியக்கம்
உடையவைகளாக இருக்கும்.</p>

<p>பக்கம்:12
14.  ஐஸோடோப்புகளை எப்படிப் பயன்படுத்துகிறார்கள்?</p>

<p>     ஐஸோடோப்புகளில் பெரும்஼பான்மையானவை கதிரி~
யக்கமுடையவை. இக்஼கதிரியக்க ஐஸோடோப்புகள் பல
துறைகளில் பயன்படுத்தப்பட்டு வருகின்றன. அறிவியல்,
மருத்துவம், தொழிற்துறை ஆகியவற்றில் இ஥ன் பங்கு
ஏராளம்.</p>

<p>     உடல் உள்ளுறுப்புகளைப் பாதிக்காத வண்ணம் மிகக்
குறைந்தளவு கதிரியக்க ஐஸோடோப்புகளைச் செலுத்தி
அவை செல்லும் பாதைகளைக் கவனித்து சிலவகை நோய்~
களைக் கண்டுபிடிக்கிறார்கள். இவைகளுக்குத் தடங்காண்
ஐஸோடோப்புகள் என்று பெயர். தவிர ஐஸோடோப்பு~
களைக் கொண்டு சிகிச்சையும் அளிக்கின்றனர். சோடியம்
24, இரும்பு 59, அயோடின் 131, பாஸபரஸ்-32, புற்று
நோயைக் குணப்படுத்த கோபால்ட்-60 சீஸியம்-137,
தங்கம் 198, டாண்டலம்-182, இரிடியம்-192 முதலியன
மருத்துவப் பணி புரியும் ஐஸோடோப்புகள்.</p>

<p>     அறிவியலுக்குத் துணைபுரியும் ஐஸோடோப்புகள்
பொலோனியம் 210, ஸ்ட்ரான்ஶியம்-90, ஆண்டிமணி 125,
ஏட்ரியம் 90, முதலியன. தொழிற்துறையில். அணு உலை~
கள், ஆகாய விமானங்கள், அடுத்த கலன்களின் கட்டமைப்பு
இணைப்பு ஆகியவற்றை சோதித்தறியவும் ஐஸோடோப்புகள்
பயன்படுத்தப்படுகின்றன!</p>

<p>15.  அணு உலை என்றால் என்ன?</p>

<p>     அணு தொடர்வினைச் செயலைக் கட்டுப்படுத்தி அணு~
வாற்றலைப் பயன்படுத்திக் கொள்ள உருவாக்கப்பட்ட ஒரு
கருவி கலமே அணு உலை என்பது. இதை அணு அடுக்கு
என்றும் சொல்வார்கள். அணுப் பிளத்தலின்போது நியூட்~
ரான்களின் எண்ணிக்கையை ஒரே சீராக வைத்துக் கொள்ள
உதவுவதே அணு உலை. அணு உலைக்கு எரிபொருள்,
மாடரேட்டர் எனும் மட்டுப்படுத்தி, கூலண்ட் எனும்
குளுமைப்படுத்தி ஆகிய மூன்றும் முக்கியத் தேவை!</p>

<p>பக்கம்:13
     பிளத்தல் தொடர்ந்து நடைபெறவும், நியூட்ரான்~
களையும் ஆற்றலையும் வெளிப்படுத்தவும் எரிபொருள்
தேவை. இந்நிகழ்ச்சியில் வெளிப்படும் நியூட்ரான்களின்
வேகத்தைக் கட்டுப்படுத்தி வெப்ப வேகத்திற்கு இணை~
யாகக் கொண்டு வருவது மாடரேட்டர் எனும் மட்டுப்
படுத்தி. அணுப்பிளவினால் ஏற்படும் வெப்ப ஆற்றலைச்
சமநிலைப்படுத்துவதே கூலண்டின் வேலை. அணு உலை~
களில் ப௟ன்஼படுத்தப்படும் பொருள்களுக்கேற்ப பலவித
அணு உலைகள் உள்ளன!</p>

<p>16.  அணு உலைக்கும் விரைவு ஈன் உலைக்கும் என்ன
     வேறுபாடு?</p>

<p>     அணு உலைகளில் நியூட்ரான்களின் பெருக்கம்
அளவிற்குமேல் போகாமல் கட்டுப்படுத்த கட்டுப்படுத்தும்
தண்டுகள் உள்ளன. அதேபோல் நியூட்ரான்களின்
வேகத்தை மட்டுப்படுத்தி வெப்ப வேகத்திற்குச் சமமாகக்
கொண்டுவர மட்டுப்படுத்திகளும் உண்டு.</p>

<p>     விரைவு-ஈன்-உலைகளில் இவை இரண்டும் கிடையாது
சாதாரண உலைகளில் பிளவுபடும் தன்மை கொண்ட
புளூட்டோனியம் எனும் எரிபொருள் ஓரளவுதான்
கிடைக்கும். விரைவு-ஈன் உலைகளில் நாம் பயன்படுத்தும்
எரிபொருளைவிட அதிக அளவு எரிபொருள் நமக்குக்
கிடைக்கும். இதை மீண்டும் மீண்டும் ப௟ன்படுத்தலாம்.</p>

<p>17.  எரிபொருள் ஊசி என்றால் என்ன?</p>

<p>     அணு உலைகளில் எரிபொருளாகப் பயன்படுத்தப்படும்
தனிமத்தைச் சிறு சிறு மணிகளாகச் செய்து ஸ்டெயின்லெஸ்
ஸ்டீல் குழலில் அடைத்து வைப்பார்கள். இதற்கு எரி~
பொருள் ஊசி என்பது பெயர். இம்மாதிரி பல ஊசிகளை
ஒன்றாகச் சேர்த்தால் ஒருகட்டு ஆகிறது. இம்மாதிரி பல
கட்டுகளை ஒன்று சேர்த்து உலை நடுவில் வைத்து தொடர்~
வினைச் செயல் நடைபெறும்படிச் செய்வார்கள்.</p>

<p>பக்கம்:14
18.  `அணுப் பெயல் வீச்சு' என்றால் என்ன?</p>

<p>     மழை பெய்தலைப் போலதான் அணுப்பெயலும். இதில்
கதிர் வீச்சும் உண்டு. அணுகுண்டு வெடிப்பதினால் வெளி~
யாகும் கதிரியக்கத் துகள்கள் காற்றிலே கலந்து ஒரு புதுவித
பருவ நிலையை அதாவது அணுப்பருவத்தை உண்டாக்கி
விடும். இக்கதிரியக்கத் துகள்கள் மெல்லப் பரவிப் படர்ந்து
தரையில் படிந்து உயிரினங்கள் வாழ்வதற்கே தகுதி~
யில்லாமல் செய்துவிடும்.</p>

<p>19.  அணுப் பிளத்தல் என்றால் என்ன?</p>

<p>     யூரேனியம் போன்ற கனதனிமத்தின் அணுக்கருவினுள்
ஏற்படும் அணுவினைச் செயலையே அணுப்பிளத்தல் என்று
சொல்வார்கள். கனமான அணுக்கரு சரிபாதியாகப் பிளக்கும்
போது சில நியூட்ரான்களை வெளிப்படுத்துகிறது. அதே
சமயம் அதன் பொருண்மையும் சிறிதளவு அழிகிறது.
இதனால் ஏராளமான அணு ஆற்றல் வெளிப்படுகிறது.
பிளத்தல் நிகழ்ச்சி தானாகவே நடைபெறுவதும் உண்டு.
அல்லது அணுக்கருவை நியூட்ரானைக் கொண்டு தாக்கிப்
பிளத்தலைத் தூண்டுவதும் உண்டு. பிளவுபடும் தன்மை
கொண்ட தனிமம் யூரேனியம் 235. இது யூரேனியத்தின்
ஒரு வகை ஐஸோடோப்பு. இயற்கையில் கிடைக்கும்
யூரேனியம் ஐஸோடோப்பு யூரேனியம் 238. இதில் 0 7
சதவீதம்தான் யூரேனியம். 235 உள்ளது. அணுவினைச்
செயலினால் உண்டாகும் புளூட்டானியம் 239ம் பிளவு~
படும் தன்மை கொண்ட தனிமம்தான்.</p>

<p>20.  தொடர்வினைச் செயல் என்றால் என்ன?</p>

<p>     வினைச் செயல்கள் தொடர்ந்து நடைபெறும் தன்மை~
யுடையதாக இருந்தால் அதைத் தொடர்வினைச் செயல்
என்று சொல்வார்கள். வினைச் செயலில் ஈடுபடும் பொருள்
அடுத்தடுத்து வினைச் செயல் தொடர்ந்து பரவ தூண்டுவதால்</p>

<p>பக்கம்:15
ஏற்படும் நிகழ்ச்சி என்றும் சொல்லலாம். இங்கு இ஛்~
சொற்றொடர் அணுப் பிளத்தல் தொடர்ச்சியாக நடை~
பெறுவதைக் குறிப்பிடுகிறது.</p>

<p>     நியூட்ரானைக் கொண்டு யூரேனியம் 235ன் மூலக்~
கருவைத் தாக்கும்போது அவை இரண்டு அல்லது மூன்று
நியூட்ரான்களை வெளியிடுகிறது. இந்த நியூட்ரான்கள்
மற்ற அணுக்களின் மூலக்கருவைத் தாக்கி மேலும் பல
நியூட்ரான்களை வெளிவரச் செய்து பிளத்தல் தொழிலைப்
பரவலாக்குகிறது. இம்மாதிரி தொடர் நிகழ்ச்சிகள் நடை~
பெற எரிபொருள் தனிமம் பதமான அளவு அல்லது நிறை~
யிருக்க வேண்டும். பத அளவு அல்லது பதநிறையில் எரி~
பொருள் இல்லாவிடில் தொடர்வினைச் செயல் நடை~
பெறாது.</p>

<p>21.  அணு ஆற்றலை மின் சக்தியாக எப்படி மாற்று~
     கிறார்கள்?</p>

<p>     அணுவைப் பிளப்பதினால் வெளியாகும் வெப்பமே
அணுவாற்றல். யூரேனியம் எனும் தனிமத்தின் அணுவை
நியூட்ரானைக் கொண்டு தாக்கி பிளக்கும்போது அளவு
கடந்த வெப்பாற்றல் ஏற்படுகிறது. இதற்கென்று பலவகை
உலைகள் உள்ளன. அந்த உலைகளிலே இந்நிகழ்ச்சி நடை~
பெறுகிறது.</p>

<p>     இந்த உலையில் அணுப் பிளப்பு நடைபெறும் பகுதியைச்
சுற்றி பல குழாய்கள் அமைக்கப்பட்டிருக்கும். இதிலே
தண்ணீரோ அல்லது வேறு ஏதாவது ரசாயனப் பொருளோ
சென்று கொண்டிருக்கும். அணுப்பிளப்பினால் ஏற்படும்.
வெப்பம் இக்குழாயிலுள்ள நீரைக் கொதி நிலைக்குக்
கொண்டுவந்து நீராவியாக்குகிறது. இந்நீராவி கதிரியக்க~
முடையது; எனவே இதை நேரிடையாகப் பயன்படுத்த
மாட்டார்கள். இந்த உலையை ஒட்டி இன்னொரு தொட்டி
இருக்கும். அ஥ுதான் கொதிகலன்; அதிலே தண்ணீர்</p>

<p>பக்கம்:16
இருக்கும். இக்குழாயின் வழியாக வரும் நீராவி இத்~
தொட்டித் தண்ணீரைச் சூடாக்கி அதை நீராவியாக
மாற்றுகிறது. இந்த நீராவி இக்கொதிகலனருகே அமைக்கப்~
பட்டிருக்கும் டர்பைனை வேகமாகச் சுழலச் செய்கிறது.
டர்பைனின் சுழற்சி வேகம் அத்துடன் இணைக்கப்~
பட்டிருக்கும் `மின்ஜனனீ' எனும் மின்சார ஜெனரேட்டரை
இயக்கி மின்சக்தியை உற்பத்தி செய்கிறது.</p>

<p>22.  அணு உலையில் வெளியாகும் அணு ஆற்றலுக்கும்
     அணுகுண்டை வெடிப்பதினால் வெளியாகும் ஆற்றலுக்~
     கும் என்ன வேறுபாடு?</p>

<p>     அணுவைப் பிளப்பதினால் அபரிமிதமாக ஆற்றல்
வெளிப்படும் என்று தெரிந்ததும் முதன் முதல் அந்த
ஆற்றலைப் பயன்படுத்தியது அணுகுண்டுக்குதான். அணு~
குண்டை வெடித்தபோது, அணுப்பிளப்பினால் ஏற்பட்ட
தொடர்வினைச் செயல் தங்கு தடையில்லாமல் நடை~
பெற்றது. பிளப்பின்போது யூரேனியம் 235 அல்லது
புளூட்டோனியம் 239ல் மொத்த நிறையும் குறுகிய
காலத்தில் தொடர்வினைச் செயல் புரிந்து வெடித்துச்
சிதறியதன் மூலம் அசுர ஆற்றலை வெளியிட்டது.</p>

<p>     அணு உலைகளில் பிளத்தல் நிகழ்ச்சியின் நடைமுறை
வேறு. இங்கு பிளத்தலில் ஏற்படும் தொடர்வினைச்
செயலைக் கட்டுப்படுத்தி அதன் மூலமாக வெளியாகும்
ஆற்றலையும் ஒரே சீராக வெளியிடுகிறார்கள். இந்த
வெப்பாற்றல் கொதிகல நீரை ஆவியாக மாற்றி குழாய்
வழியாகச் சென்று டர்பைனைச் சுழற்றுகிறது. இந்த
டர்பைன் இதனோடு இணைக்கப்பட்டுள்ள ஜெனரேட்டரை
இயக்கி மின்சக்தியை உற்பத்தி செய்கிறது.</p>

<p>23.  கதிரியக்கக் கதிர்கள் எவை?</p>

<p>     கதிரியக்கம் என்பது ஒரு தனிமம். பிரிந்து சிதைந்து
எளிய தனிமமாக மாறும்போது உமிழும் கதிர் ஆற்றல்.</p>

<p>பக்கம்:17
கனத்த தனிமங்களே கதிரியக்கக் கதிர்களை உமிழ்கின்றன.
பொலோனியத்திலிருந்து தனிம வரிசையில் அதை அடுத்து
வரும் தனிமங்கள் கதிரியக்கத் தன்மை உடையவை.</p>

<p>     கதிரியக்கப் பண்பைக் கண்டுபிடித்தவர் ஹென்றி
பெக்கரல் என்பவர். யூரேனியம் வெளிப்படுத்தும் கதிர்கள்
ஒளிபுகாப் பொருள்களையும் ஊடுருவக்கூடியவை என்று
கண்டுபிடித்தார். இக்கதிரியக்கம் வெளிச் சூழ்நிலைகள்
எதுவினாலும் பாதிக்கப்படுவதில்லை. உயிருள்ள செல்களை
இக்கதிர்கள் அழித்துவிடுகின்றன.</p>

<p>     கதிர் வீச்சின்போது மூன்றுவிதக் கதிர்கள் வெளி~
யாகின்றன. கதிரியக்கப் பொருள்களிலிருந்து உமிழப்பெற்ற
மிக விரைவுடன் வரும் துகள்கள் ஆல்பாக் கதிர்கள். இதிலே
இரு புரோட்டான்களும் இரு நியூட்ரான்களும் உண்டு.
இவை வெளியே வந்து அங்கு திரிந்து கொண்டிருக்கும்
எலக்ட்ரான்களைத் தன்கைப்படுத்தி ஹீலியமாக மாறு~
கிறது. உண்மையில் இது கதிர் வீச்சல்ல; துகள் வீச்சுதான்.
இ஥ற்குப் பொருளை ஊடுருவும் திறன் குறைவு. அடுத்து
பீட்டாக் கதிர்கள்; இதற்கு ஆல்பா கதிர்களைவிட 100
மடங்கு ஊடுருவும் திறன் அ஥ிகம். மூன்றாவது காமாக்
கதிர்கள். இது ஒளியின் வேகத்திற்கிணையாகச் செல்லும்.
இதற்கு ஊடுருவும் திறன் அதிகம். இவை மின்காந்த கதிர்
வீச்சு உடையது. காமாக் கதிர்கள் வெளியாவதால் புதிய
தனிமம் ஏ஥ும் உருவாவதில்லை.</p>

<p>24.  கதிரியக்கம் கதிர் வீசல் இரண்டும் ஒன்றா?</p>

<p>     கதிர் வீசலில் ஆற்றல் அலை வடிவில் பரவுவது. எரியும்
அடுப்பருகே நின்றால் வெப்பத்தை உணர்கிறோம். இங்கு
வெப்பாற்றல் கதிர் வீசல் வடிவில் நம்மை வந்தடைகிறது.
சூரிய ஒளியில் புற ஊதாக் கதிர்கள் வந்து நம்மீது படு~
கிறது. இம்மாதிரி வகையில் வெப்பக் கதிர்வீச்சை உணர்஼கிறோம்.</p>

<p>பக்கம்:18
இவைகளை மின்காந்த கதிர் வீசல் என்கிறார்~
கள். அலைகள் வடிவில் வரும் இவைகள் இயற்கையில் சூரிய~
னிலிருந்து வருகிறது. தவிர அடுப்பெரிப்பதினாலோ,
விளக்கு எரிவதினாலோ, எந்திரங்கள் இயங்குவதினாலோ
இக்கதிர் வீசல் நடைபெறும்.</p>

<p>     இன்னொரு வகை கதிர் வீச்சுதான் கதிரியக்கக் கதிர்
வீச்சு. இவைகள் சில தனிமங்கள் மாறுவதினாலோ, சிதை~
வதினாலோ, ஏற்படுவது. இத்தகைய தனிமங்களுக்கு கதிரி~
யக்கத் தனிமங்கள் என்று பெயர். இவைகளின் அணுக்கள்
சிதையும்போது துகள்கள் கதிர்கள்போல் இயங்கிவரும். சில
சமயங்களில் அலை வடிவிலும் வரும். இவைகளுக்குக் கதிரி~
யக்கக் கதிர்கள் என்று பெயர்.</p>

<p>25.  டெவாட்ரான் என்றால் என்ன?</p>

<p>     ஃபெர்மிநேஶனல் ஆக்ஸிலரேட்டர் லாபரட்டரியில்
சமீபத்தில் கண்டுபிடிக்கப்பட்ட கருவி. அணுத்துகள்களின்
இயக்க வேகத்தை ஊக்குவிக்கும் அதிக ஆற்றலும் உயர்ந்த
அளவு கடத்தும் தன்மையும் கொண்டது. இது இத்தகைய
கருவிகளில் இதுவே மிகத் திறன் கொண்டது உலகிலேயே
முதன் முதல் இக்கருவி கொண்டு 51200 கோடி எலக்ட்ரான்
வோல்ட் ஆற்றலில் அணுவின் உட்கோடி மர்மங்களை
ஆராய்ந்தனர்.</p>

<p>     இக்கருவியில் 6.4 கிலோ மீட்டர் வட்டப்பாதை; அதில்
ஒளியின் வேகத்திற்கொப்ப புரோட்டானைச் சுற்றிவரச்
செய்தனர். அவ்வாறு புரோட்டான் சுற்றி வரும்போது
நிலையாக உள்ள அணுக்களை மோதித் தூள்தூளாக்கியது.
அணுவிலுள்ள துகள்கள் இந்தக் கடும் மோதலில் மழை
போல் பொழிய விஞ்ஞானிகள் அணுவினுலுள்ள உபதுகள்~
களின் தன்மைகளை ஆராய முடிந்தது.</p>

<p>     புரோட்டான்களை ஒளியின் வேகத்தில் சுற்றிவரச்
செய்வது இ஖்஼கருவியிலுள்ள ஆயிரம் காந்தங்கள்தான்!</p>

<p>பக்கம்:19
துல்லியமான சைபருக்கு ஓரிரு டிகிரிகளுக்கு மேல்வரை
குளிரச் செய்ததின் விளைவாக இந்தக் காந்தங்கள்
மிகையளவு-கடத்திகளாக மாறிவிட்டன. அதாவது மின்
சக்தியைக் கடத்தும்போது ஏற்படும் சிறிதளவு எதிர்ப்புத்
திறனைக்கூட அவை அடியோடு இழந்துவிட்டன!</p>

<p>     புரோட்டானின் இயக்க வேகத்தை ஊக்குவிக்க மிக
அதிக அளவு மின்சக்தி தேவை. மின்னோட்டம் பாயும்போது
மின்தடை இருந்தால் இந்த அளவு அ஥ிகமாகும். மின்சக்தி
பாயும்போது ஒருவிதமானத் தடையும் இல்லாவிட்டால்
பயன்படுத்தப்படும் மின்சக்தியின் அளவு கணிசமாகக்
குறையும்.</p>

<p>     அணுவின் துகள்களின் பல விவரங்களைத் தெரிந்து
கொள்ள உதவும் இக்கருவியை எண்பதினாயிரம் கோடி
எலக்ட்ரான் வோல்ட்டுகள் ஆற்றல் வரை பயன்படுத்தலாம்.
அடுத்தபடியாக இதன் ஆற்றல் திறனை ஒரு லட்சம் கோடி
எலக்ட்ரான் வோல்ட்டுக்கு அ஥ிகரிக்கவும் முயன்று
வருகிறார்கள்.</p>

<p>பக்கம்:20
                பிளாஸ்மா இயற்பியல்</p>

<p>        	அணுப்பிணைப்பு உலையின் இரத்தநாடி,
     பிளாஸ்மா. சூரியன், நட்சத்திரங்கள், மற்றும் பல,
     வான் பொருள்களும் இந்நிலையில்தான் உள்ளது.</p>

<p>	   மீமிசை வெப்பாற்றல் பிளாஸ்மாவைக் கட்டுப்~
     படுத்தி, தொடர்வினைச் செயலில் ஈடுபட வைத்தால்
     ஒளி வெள்ளம் உலகெங்கும் பரவிப் பாயும்!</p>

<p>1.  பிளாஸ்மா இயற்பியல் என்றால் என்ன?</p>

<p>     பிளாஸ்மா இயற்பியல் என்பது இயற்பியலில் புதிதாகப்
பிறந்த குழந்தை. பொருள்கள் அணுக்களினாலானவை
என்று தெரியும். அவை திட வடிவிலும், திரவ வடிவிலும்,
வாயு வடிவிலும் உள்ளன என்பதும் தெரியும். நாலாவது
நிலையிலும் பொருள் உள்ளது என்கிறார்கள். இந்த நான்~
காவது நிலையைத்தான் பிளாஸ்மா நிலை என்கிறார்கள்.</p>

<p>     பிரபஞ்சத்திலுள்ள பொருள்களில் 99.9 சதவீதம்
பிளாஸ்மா நிலையில்தான் உள்ளதாம். நட்சத்திரங்கள்,
நமது சூரியன், மற்றும் விண் வெளியிலுள்ள பல பொருள்கள்
இந்த நிலையிலுள்ளது என்கிறார்கள். புவியில் வளிக்~
கோளத்தின் மேலடுக்கில் அயனி கோளத்தில் பொருள்கள்</p>

<p>பக்கம்:21
பிளாஸ்மா நிலையிலிருப்பதாகவும், துருவ வானிலே
தோன்றும் துருவ஼வொளிக்குக் காரணம் இ஥ுதான் என்றும்
சொல்கிறார்கள். இந்த பிளாஸ்மாவின் தன்மை, இயல்பு
ஆகியவ஼ற்றைப்பற்றி ஆராய்ந்து விளக்கும் துறைதான்
பிளாஸ்மா இயற்பியல். மிக உச்ச வெப்பநிலை இயற்~
பியலின் ஆரம்ப நிலை இத்துறை என்றும் சொல்லலாம்.
    
</p></body></text></cesDoc>