<cesDoc id="tam-w-translat-literature-nira" lang="tam">
<cesHeader type="text">
<fileDesc>
<titleStmt>
<h.title>tam-w-translat-literature-nira.txt</h.title>
<respStmt>
<respType>Electronic file created by</respType>
<respName>Central Institute for Indian Languages, Mysore</respName>
<respType>transferred into Unicode and CES format by</respType>
<respName>"Unicodify" software by Andrew Hardie</respName>
</respStmt></titleStmt>
<publicationStmt>
<distributor>UCREL (on behalf of CIIL)</distributor>
<pubAddress>Department of Linguistics, Lancaster University, Lancaster, LA1 4YT, UK</pubAddress>
<availability region="WORLD"></availability>
<pubDate>03-07-09</pubDate>
</publicationStmt>
<sourceDesc>
<biblStruct>
<monogr>
<h.title>நிரபராதிகளின் காலம் (நாடகம்)</h.title>
<h.author>ஜி. கிருஶ்ணமூர்த்தி</h.author>
<imprint>
<pubPlace>India</pubPlace>
<publisher>Unknown - Book</publisher>
<pubDate>1988</pubDate>
</imprint>
<idno type="CIIL code">nira</idno>
</monogr></biblStruct></sourceDesc></fileDesc>
<encodingDesc>
<projectDesc>Text collected for the CIIL Corpus, subsequently integrated into the EMILLE/CIIL Monolingual Written Corpora.</projectDesc>
<samplingDesc>Simple written text only has been transcribed. Diagrams, pictures and tables have been omitted. Sampling begins at page 30.</samplingDesc>
<editorialDecl><conformance level="1"></conformance></editorialDecl>
</encodingDesc>
<profileDesc>
<creation><date>03-07-09</date></creation>
<langUsage>Tamil</langUsage>
<wsdUsage>
<writingSystem id="ISO/IEC 10646">Universal Multiple-Octet Coded Character Set (UCS).</writingSystem>
</wsdUsage>
<textClass>
<channel mode="w">print</channel>
<constitution type="composite"></constitution>
<domain type="public"></domain>
<factuality type="fiction"></factuality>
</textClass>
<translations></translations>
</profileDesc>
<revisionDesc></revisionDesc>
</cesHeader>

<text><body>

<p>-17-</p>

<p>                          பகுதி 1</p>

<p>இரும்புக் கம்பிகள் பொருத்தப்பட்டுத் தற்காலிகமாக
அமைக்கப்பட்டது போன்ற உணர்வை ஏற்படுத்தும் வெறுமை
செறிந்த அறை. இரவா பகலா என்று தீர்மானிக்க முடியாத
மங்கலான வெளிச்சம். ஒன்பது மனிதர்கள் கூடி நிற்~
கிறார்கள். அவர்களுடைய ஆடைகளிலிருந்து சமூகத்தின்
வெவ்வேறு மட்டத்தைச் சேர்ந்தவர்கள் என்பது தெரிகிறது.
மெல்லிய குரலிலும் பொறுமையற்றும் தங்களுக்குள் பேசிக்
கொண்டிருக்கிறார்கள். சற்று முன்தான் கைது செய்யப்
பட்டவர்கள்போல் அவர்கள் தெரிகிறார்கள். அழுக்கான
சீருடையணிந்த காவலாளி, கையில் ஒரு சவுக்குடன் அறை~
யின் வெளியில், சுற்றி நடக்கும் நிகழ்ச்சிகளில் அவனுக்குள்ள
ஆர்வமின்மையை அவன் முகம் வெளிப்படுத்துகிறது.
வெறித்துப் பார்த்தவாறிருக்கும் அவனருகில், செங்குத்~
தாக, வளைந்து வளைந்து செல்லும் இரும்புப் படிக்கட்டுகள்.</p>

<p>மற்றவர்களிடமிருந்து விலகிவந்த ஹோட்டல் முதலாளி,
எ஥ையோ உற்றுக் கேட்டுவிட்டுப் பேசுகிறார்.</p>

<p>ஹோ. முதலாளி: உஶ்! யாரோ இறங்கி வருகிறார்கள்!</p>

<p>இஞ்சினியர்: நேரமாகிறது! காலையிலிருந்து நான் ஒன்றுமே
     குடிக்கவில்லை!</p>

<p>     (வங்கி அ஥ிகாரி அந்தக் கம்பிக் கதவின் அருகில் சென்று
     காவலாளியின் உதவியை நாடுகிறார்.)</p>

<p>வங்கி அ஥ிகாரி: காவலாளி! காவலாளி!</p>

<p>     (காவலாளி களைப்புடன் தலையைத் தூக்குகிறான்.)</p>

<p>காவலாளி: என்ன ஐ௟ா?</p>

<p>வங்கி அ஥ிகாரி: நான் போன்பண்ண வேண்டும். நான்
     எங்கிருக்கிறேன் என்பது யாருக்கும் தெரியாது. கண்டிப்~
     பாக என் மனைவிக்குத் தெரிவித்தாக வேண்டும். வங்கிக்~
     கும் தெரிவிக்க வேண்டும். அவர்கள் கண்டிப்பாகத்
 ௃  தெரிந்துகொள்ள வேண்டும்.</p>

<p>காவலாளி: எனக்குப் புரிகிறது, ஐயா!</p>

<p>கான்ஸல்: எல்லாம் புரிந்துகொண்டாலும் இவனால் எந்த
     உதவியும் செய்ய முடியாது. இ஥ுதான் அவனுடைய
     குறை. இவன் மாதா கோவில்களில் பக்தர்களுக்காக
     வைக்கப்பட்டிருக்கிற சீட்டுப்பெட்டி போன்றவன்.</p>

<p>-18-</p>

<p>     மக்கள் தங்களுடைய துயரங்களைத் தாளில் எழுதி
     அதனுள் போடலாம். ஆனால் அப்பெட்டியைத் திறந்து
     கவனிப்பதற்கு யாரும் இருக்கமாட்டார்கள்.</p>

<p>     (காலடி ஓசை நெருங்கி வருகிறது. அனைவரும் கம்பி~
     களின் அருகில் சென்று மின்விளக்கின் அடியில் நிற்கிறார்~
     கள். மிகுந்த எ஥ிர்பார்ப்புடன் இரும்புப் படிகளையே
     பார்க்கிறார்கள்.)</p>

<p>வங்கி அதிகாரி: நம் உறவினர்களுக்கு உடனடியாகச் செய்தி
     தெரிவிக்கவேண்டியதன் அவசியத்தை நாம் வலியுறுத்த
     வேண்டும். நாம் எங்கிருக்கிறோம், நமக்கு என்ன
     ஆயிற்று என்று அவர்கள் தெரிந்துகொள்ள வேண்டும்.
     இப்போது இது மிகவும் முக்கியம்.</p>

<p>இஞ்சினியர்: குடிப்பதற்கு ஏதாவது கிடைக்க வேண்டியது
     அதைவிட முக்கியமானது.</p>

<p>விவசாயி: ஏதோ தவறு நடந்திருக்க வேண்டும்.</p>

<p>கான்ஸல்: தவறுகளுக்கே இ஠மில்லை என்பதுதான் இப்~
     போதைய நிலை. எப்படிப் பார்த்தாலும் ஒவ்வொரு~
     வரும் நிச்சயமாகக் குற்றவாளியாக இருக்கலாம் என்~
     பதே குடிமக்களின் குற்றங்களை விசாரணை செய்கிற
     அரசின் கருத்தாகும்.</p>

<p>ஹோ. முதலாளி: உங்கள் கசப்பு வேதாந்தம் எங்களுக்குத்
     தேவையில்லை. நாம் எல்லோருமே நிரபராதிகள். இது
     உங்களுக்கு நன்றாகவே தெரியும். நாம் குற்றமற்ற~
     வர்கள் என்று அவர்களே சந்தேகத்திற்கு இ஠மின்றி
     அடித்துக் கூறியிருக்கிறார்கள்.</p>

<p>கான்ஸல்: பேச்சில்தானே? `தொழில்: குற்றமற்றவர்கள்'
     என்று எழுத்து மூலமாக இருந்திருந்தால் நான் மிகவும்
     மகிழ்ச்சி அ஠ைவேன்.</p>

<p>லாரி ஓட்டி: வெளியில் என்னுடைய லாரி சரக்குடன்
     நிற்கிறது. துறைமுகத்தில் அந்தச் சரக்கை எ஥ிர்~
     பார்த்துக்கொண்டிருப்பார்கள்.</p>

<p>வங்கி அ஥ிகாரி: அமைதி! அதோ யாரோ வருகிறார்கள்!
     (இரு மனிதர்களின் காலடி ஓசை துல்லியமாகக் கேட்஼கிறது.</p>

<p>-19-</p>

<p>     கதவு திறக்கப்படும் ஓசையைத் தொடர்ந்து
     படிக்கட்டில் இ஼இரு உருவங்கள்: ஸாஸோன், ஒல்லியான
     வெளுத்த இளைஞன், காவலில் துன்புறுத்தப்பட்டதன்
     வெளிப்படையான அடையாளங்களுடன். அவனுக்குப்
     பின்னால் கம்பீரமான மிருகத்தனத்துடன் ஒரு ராணுவ
     மேஜர். இருவரும் படிக்கட்டில் இறங்கி வருகிறார்கள்.
     காவலாளி ராணுவத் தோரணையில் நிற்கிறான்.</p>

<p>     ஸாஸோன் அறையின் வாயிலில் வந்து நிற்கிறான்.
     மேஜர் அறையிலுள்ளவர்களிடம் பேச எத்தனிப்ப~
     தற்கு முன்பாகவே ஹோட்டல் முதலாளி பேச ஆரம்பிக்~
     கிறார்.)</p>

<p>ஹோ. முதலாளி: மேஜர், இதை வன்மையாக ஆ஠்சேபிக்~
     கிறேன். என் ஹோட்டலில் நான் இல்லாமல் ஒன்~
     றுமே நடக்காது. என்னை நீங்கள் இங்கேயே அடைத்து
     வைக்க முடியாது. கவர்னர் பலமுறை என் விருந்தாளி~
     யாக இருந்திருக்கிறார்.</p>

<p>மேஜர்: அது எனக்குத் தெரியும். இப்போது, நீங்கள் அவரு~
     டைய விருந்தாளி.</p>

<p>வங்கி அதிகாரி: எங்களுடைய உறவினர்களுக்குத் தெரியப்
     படுத்த வேண்டும். மேலும், எங்கள் அலுவலகங்களுக்~
     கும் செய்தி அனுப்ப வேண்டும். நாங்கள் இங்கு வந்து
     கிட்டத்தட்ட ஒரு நாளாகிற஥ு.</p>

<p>     (சிறையிலடைக்கப்பட்ட ஒவ்வொருவரும் உரத்த குர~
     லில் அவசர அவசரமாகப் பேசுகிறார்கள்.)</p>

<p>விவசாயி: இ஥ு தவறு.</p>

<p>ஹோ. முதலாளி: நான் இதை ஆ஠்சேபிக்கிறேன்.</p>

<p>இஞ்சினியர்: ஏதாவது குடிப்பதற்கு....எப்போது கிடைக்~
     கும்?</p>

<p>வங்கி அ஥ிகாரி: நாங்கள் நிரபராதிகள்.</p>

<p>     (மேஜர் அமைதியாகப் புன்னகை செய்கிறான். சிறைக்
     கதவின் அருகில் செல்கிறான். அவனுடைய தோற்றத்~
     தில் திடீர் விறைப்பு. ராணுவ அ஥ிகாரிக்குரிய கண்டிப்~
     பான குரலில் சொல்கிறான்)</p>

<p>மேஜர்: மதிப்புக்குரியவர்களே! நீங்கள் நிரபராதிகள் என்~
     பது மற்றவர்களைவிட எங்களுக்கு நன்றாகவே தெரியும்.
     இந்த நகரத்தில் உங்களைப் போன்ற நிரபராதிகளைத்</p>

<p>-20-</p>

<p>     தேடிக் கண்டுபிடிப்பது எங்களுக்கு எவ்வளவு சிரம~
     மாக இருந்தது என்பதையும் நாங்கள் உணர்ந்திருக்~
     கிறோம். நிரபராதிகள் என்பதால்தான் எல்லோரையும்
     இங்கு ஒன்றுசேர்த்துக் கொண்டு வந்திருக்கிறோம்.
     குற்றம் புரிந்தவர்கள் என்று எங்களுக்குத் தெரியவந்த
     யாரையும் நாங்கள் பிடிக்கவில்லை. நீங்கள் ஆ஛்சரியப்~
     படக்கூடிய ஒரு உண்மையைச் சொல்லித்தான் ஆக
     வேண்டும். வலுக்கட்டாயமாக உங்களை இங்கு தங்க
     வைப்பதன் மூல காரணமே, நீங்கள் முழுக்க முழுக்க
     நிரபராதிகள் என்பதுதான். கவர்னரின் யோசனையின்
     பேரிலேயே இவ்வாறு ஏற்பாடு செய்யப்பட்டுள்ளது.</p>

<p>     (சிறைவைக்கப்பட்டுள்ளவர்களிடம் வெளிப்படையான
     மனக்குழப்பமும் அமைதியின்மையும் தோன்றிப் பரவு~
     கின்றன. அவர்கள் மேலும் நெருக்கிக்கொண்டு
     முன்னே வந்து நிற்கிறார்கள்.)</p>

<p>வங்கி அ஥ிகாரி: நாங்கள் எங்கேயிருக்கிறோம் என்று யாருக்~
     குமே தெரியாதே.</p>

<p>மேஜர்: இந்த நிலையை மாற்றுவது உங்கள் கையில்தான்
     இருக்கிறது. கவர்னர் உங்களிடம் ஒரு உதவியை நாடு~
     கிறார்.</p>

<p>ஹோ. முதலாளி: பின் ஏன் அவர் எங்களைச் சிறையில்
     அ஠ைக்க உ஥்திரவிட்டார்?</p>

<p>     (கான்ஸல் மட்டும் முன்னே செல்லாமல் தனித்து
     நிற்கிறார்.)</p>

<p>கான்ஸல்: அப்போதுதான் அவரால் சுலபமாக வேண்டு~
     கோள் விடுக்க முடியும். இது சற்று எச்சரிக்கையுடன்
     எ஠ுக்கப்பட்ட நடவடிக்கை என்று நான் கருதுகிறேன்.
     கவர்னர் வெற்றி வாய்ப்புக்கு இ஠மில்லாத ஒரு
     வேண்டுகோளை முன்வைக்கமாட்டார். அப்படிச் செய்~
     வது அவருக்கே ஆபத்தாக முடியலாம்.</p>

<p>     (மேஜர் ஜாடையினாலேயே கான்ஸலை அடக்குகிறான்.)</p>

<p>மேஜர்: நீங்கள் மேற்கொண்டு எ஥ுவும் பேச வேண்டாம்!
     அரசு அளிக்கும் பாதுகாப்பையும் அரசின் முயற்சி~
     யினால் பல்வேறு நன்மைகளையும் அனுபவிக்கும் குடிமக்க~
     ளிடம் வேண்டுகோள் விடுப்பதற்கு கவர்னருக்கு உரிமை
     இருக்கிறது. இது மக்களுக்கும் அரசுக்கும் இடையே
     நிலவும் எழுதப்படாத உ஠ன்படிக்கை. இதை எவன்
     ஒருவன் அலட்சியப்படுத்துகிறானோ அவன்தான் கவர்ன஼ரின்</p>

<p>-21-</p>

<p>     இந்தச் சிறிய வேண்டுகோளையும் நிராகரிக்க
     முடியும். இந்த உடன்படிக்கையைப்பற்றி கவர்னர்
     உங்களுக்கு நினைவூட்ட விரும்புகிறார் - குற்றமற்ற முழு
     நிரபராதிகள் என்று அவர் முழுமையாக நம்பும் உங்க~
     ளுக்கு நினைவூட்ட விரும்புகிறார்.</p>

<p>ஹோ. முதலாளி: நாளை பல் டாக்டர்கள் மாநாடு ஒன்று
     நடைபெறப்போகிறது. இம்மாநாட்டில் பங்குகொள்~
     பவர்களில் கிட்டத்தட்ட எல்லோரும் என் ஹோட்ட~
     லில்தான் தங்குகிறார்கள். நான் சாப்பாட்டுக்கான ஏற்~
     பாடுகளைச் செய்யவேண்டும். அ஥ு எவ்வளவு முக்கியம்
     என்பது உங்களுக்குப் புரிகிறதா?</p>

<p>மேஜர்: கவர்னருக்கு அதன் முக்கியத்துவம் நன்றாகவே தெரி~
     யும்.</p>

<p>லாரி ஓட்டி: என்னுடைய லாரி ஒரு சினிமாக் கொட்டகை~
     யின் முன் நிற்கிறது. அங்கிருந்துதான் என்னைப் பிடித்~
     துக் கொண்டுவந்தார்கள்.</p>

<p>மேஜர்: எல்லாம் உங்கள் கையில்தான் இருக்கிற஥ு. கவர்ன~
     ரின் இந்தச் சிறிய வேண்டுகோளை உங்களால் அரை
     மணி நேரத்தில்கூட நிறைவேற்ற முடியும். அடுத்த
     நொடியில் இக்கதவு திறக்கப்படும். நீங்கள் உங்கள்
     வேலைக்கும் உங்கள் வீட்டுக்கும் திரும்பிச் செல்லலாம்.</p>

<p>வங்கி அ஥ிகாரி: கவர்னர் எங்களிடம் என்ன எ஥ிர்பார்க்~
     கிறார்? எங்களுடைய வங்கியில் இன்று கணக்குத்
     தணிக்கை நாள்.</p>

<p>மேஜர்: அ஥னால் உங்களுக்கு ஏற்படும் தொல்லைகளிலிருந்து
     உங்களைப் பாதுகாப்பதற்கு கவர்னரின் பெயர் ஒன்றே
     போதும்.</p>

<p>விவசாயி: ஐ௟ா! என்னுடைய ஆடு இன்னமும் கட்டிக்கிடக்~
     கும். இப்போது இரண்டாவது முறையாகப் பால்
     கறக்கவேண்டிய வேளையாயிற்஼றே.</p>

<p>கான்ஸல்: உன்னுடைய ஆட்டின் எல்லாத் துன்பங்களையும்
     போக்க கவர்னரின் பெயர் ஒன்றே போதுமே!</p>

<p>மேஜர்: நான் சொல்வதைக் கவனமாகக் கேளுங்கள். கவர்ன~
     ரின் வேண்டுகோள் இதுதான்: நான் ஒருவனை இங்கு
     அழைத்துவந்திருக்கிறேன். இதோ, இவனைத்தான்.
     (இதுவரையில் எவ்விதமான உணர்ச்சியையும் வெளிப்~
     படுத்தாமல் அருகில் நின்றுகொண்டிருக்கும் ஸாஸோனைச்</p>

<p>-22-</p>

<p>     சுட்டிக்காட்டுகிறான் மேஜர்.) இரண்டு நாட்~
     களுக்குமுன் இவன் கைது செய்யப்பட்டான் - கவர்ன~
     ரின் குடும்பத்தைச் சுட்டுக் கொல்ல நடந்த முயற்சியில்
     தோல்வியுற்ற பின். அக்கொலைச் சதியில் பங்குகொண்~
     டதை இவனே ஒப்புக்கொண்டிருக்கிறான். காரின் மீது
     சுட்டது தான்தான் என்றும் வாக்குமூலம் கொடுத்~
     திருக்கிறான். ஆனால் இந்தச் சதியின் பின்னணியில்
     உள்ள மற்ற சதிகாரர்களின் பெயர்களை மட்டும் கூற
     மறுக்கிறான். அதுமட்டுமல்ல, இத்தகைய சட்ட விரோ~
     தச் செயல்களை நியாயப்படுத்துகிற தன்னுடைய
     கொள்கைப் பிடிப்பையும் கைவிட மறுக்கிறான். தன்
     குற்றத்தை ஒப்புக்கொண்டபோதிலும் அ஥ற்காக எந்த
     விதமான வருத்தத்தையும் இவன் தெரிவிக்கவில்லை.
     மேலும், மீண்டும் ஒரு வாய்ப்புக் கிடைக்குமானால்
     மறுபடியும் கொலை செய்யத் திட்டம் தீட்டுவேன்
     என்றும் இறுமாப்புடன் கூறுகிறான். இவனைப்பற்றி
     இப்போது நன்றாகத் தெரிந்துகொண்டிருப்பீர்கள்
     என்று நம்புகிறேன்.</p>

<p>     (திகைப்பையும் வியப்பையும் சிறையிலடைக்கப்பட்ட~
     வர்களின் முகங்கள் வெளிப்படுத்துகின்றன.)</p>

<p>ஹோ. முதலாளி: எங்களுக்கும் இ஥ற்கும் என்ன சம்பந்தம்?</p>

<p>மேஜர்: கவர்னர் உங்களுடைய ஒத்துழைப்பை நாடுகிறார்.
     தேடிக் கொண்டுவரப்பட்டுள்ள, எந்தவித சந்தேகத்~
     திற்கும் இடமில்லாத நிரபராதிகளான உங்களிடம்
     இந்த ஸாஸோன் என்ற குற்றவாளியை ஒப்படைக்க
     வேண்டும் என்பது கவர்னரின் திட்டம். இவனுடைய
     மற்ற சதிகார நண்பர்களின் பெயரை வரவழைக்க~
     வோ, அல்லது தன்னுடைய கொள்கைப் படிப்பை
     விட்டுவிட்டு கவர்னருக்கு ஒத்துழைப்பைத் தரத் தயார்
     என்று இந்த மனிதனைச் சொல்லவைக்கவோ எந்த
     விதமான முறையையும் கையாள கவர்னர் உங்களுக்கு
     உரிமை அளிக்கிறார். எங்கள் முயற்சிகள் யாவும்
     தோல்வியடைந்துவிட்டன. நீங்கள் நிச்சயம் வெற்றி
     பெற முடியும் என்று கவர்னர் நம்புகிறார். இந்தக்
     குறிக்கோளை நீங்கள் நிறைவேற்றிய உ஠னேயே இந்தக்
     கதவு திறக்கப்படும். பிறகு நீங்கள் எங்கு வேண்டு~
     மானாலும் போகலாம். அந்தக் கட்டத்தில் காவலாளி~
     யைக் கூப்பிடுங்கள். நீங்கள் எல்லோரும் நிரபராதி஖ள்,
     இவன் காரணமாகத்தான் உங்களுக்குக் கட்டாயச்
     சிறை வாசம் நேர்ந்துள்ளது, என்பது இவனுக்கும்</p>

<p>-23-</p>

<p>     தெரியும். இந்தப் புதிய நிலைமையை இவன் கருத்தில்
     கொள்வான் என்று நாங்கள் நம்புகிறோம்.</p>

<p>     (தேவையான அளவு சொல்லிவிட்டதாகக் கருதி
     மேஜர் திரும்பிச் செல்ல ஆரம்பிக்கிறான்.)</p>

<p>வங்கி அ஥ிகாரி: இவர் ஒத்துழைக்க மறுத்தால்?..நீங்கள்
     கொடுத்த பணியை முடிக்க நீண்ட நேரமாகலாம்.
     வங்கியில் தணிக்கை நடக்க இருக்கிறது.</p>

<p>மேஜர்: உங்கள் மீதுள்ள நம்பிக்கையின் காரணமாக எந்த
     விதமான முடிவையும் எடுக்க கவர்னர் உங்களை அனு~
     மதித்துள்ளார். (என்ன செய்வதென்று அறியாத நிலை
     கோபத்தைக் கிளறுகிறது. கைதிகள் ஒருவருக்கொரு~
     வர் சன்னக் குரலில் ஏதோ பேசிக்கொள்கிறார்கள்.
     மேஜர் காவலாளியை அழைக்கிறான்.) இங்கே வா!</p>

<p>காவலாளி: என்ன ஐயா?</p>

<p>மேஜர்: இவனை உள்ளே கொண்டு விடு.</p>

<p>காவலாளி: உத்தரவு, ஐயா!</p>

<p>     (காவலாளி கதவைத் திறந்து, இரும்புக் கம்பிகள்
     பொருத்தப்பட்ட சிறையினுள் ஸாஸோனைத் தள்ளி
     விடுகிறான். மேஜர் இரும்புப் படிகளில் ஏறிச் சென்று
     விடுகிறான். சிறையிலடைக்கப்பட்டவர்கள் ஸாஸோ~
     னின் எ஥ிரில் நின்றுகொண்டு ஒரு அந்நியத் தன்மை~
     யுடனும், ஏதோ அசாதாரணமான பொருளைப்
     பார்க்கும் ஆவலுடனும் அவனைப் பார்க்கிறார்கள்.
     ஸாஸோன் எ஥ையும் முடிவாகத் தீர்மானிக்க இயலாத
     நிலையில் சிறையிலிருந்த ஒரே கட்டிலின் அருகில் நிற்~
     கிறான். டாக்டர் அவனை நோக்கிச் செல்கிறார்.)</p>

<p>டாக்டர்: உங்கள் முதுகிலிருந்து ரத்தம் சொட்டுகிறது.</p>

<p>ஸாஸோன்: அப்படியா?</p>

<p>டாக்டர்: இந்தக் கட்டிலில் படுத்துக்கொள்ளுங்கள். வலிக்~
     கிறதா? உங்களைச் சித்திரவதை செய்தார்களா?</p>

<p>ஸாஸோன்: பரவாயில்லை! என்னால் நிற்க முடியும்.</p>

<p>டாக்டர்: படுத்துக்கொள்ளுங்கள்! எல்லாம் ஊமைக்காயங்~
     கள்!</p>

<p>ஸாஸோன்: இவை யூலியஸூடன் பேசிக்கொண்டு இருந்த~
     தன் விளைவுகள்.</p>

<p>-24-</p>

<p>கான்ஸல்: யூலியஸா? அண்மையில் நடந்த வாக்கெடுப்பில்
     மக்களால் மிகவும் நேசிக்கப்படும் போலீஸ்காரர் என்று
     சிறப்புப் பட்டம் பெற்றவராயிற்றே!</p>

<p>டாக்டர்: ஊமைக்காயங்கள்! ரத்தப்பெருக்கு!</p>

<p>     (டாக்டர் உதவியு஠ன் ஸாஸோன் கட்டிலில் படுத்துக்
     கொள்கிறான். அதுவரை ஒன்றாக நின்ற சிறைக் கைதி~
     கள் இருவர் அல்லது மூவராகத் தனித்தனியாகப்
     பிரிந்து நிற்கிறார்கள்.)</p>

<p>கான்ஸல்: மக்களின் செல்வாக்கை எந்த விதத்திலும் இழக்~
     காமல் எந்த அளவுக்குச் செயல்பட வேண்டும் என்று
     போலீஸூக்குத் தெரியும்.</p>

<p>ஹோ. முதலாளி: (கோபத்துடன்) கான்ஸல், பேச்சை
     நிறுத்துங்கள். நம் நிலைமை உங்கள் ஒருவருக்கு மட்டும்
     சந்தோஶம் தருகிறது போலிருக்கிறது. இங்கு நடக்கும்
     நிகழ்ச்சிகளினால் நீங்கள் பாதிக்கப்படவில்லை என்றால்,
     குறைந்தபட்சம் எங்களைப்பற்றியாவது நினைத்துப்
     பாருங்கள். இங்கு நிலவும் சூழ்நிலையில் மகிழ்ச்சிக்கான
     அறிகுறி எதையும் நாங்கள் காணவில்லை.</p>

<p>     (வங்கி அ஥ிகாரி அங்குமிங்குமாக நடந்துகொண்டிருக்~
     கிறார்.)</p>

<p>வங்கி அதிகாரி: நாம் மேஜரைப் போகவிட்டிருக்கக்கூடாது.
     நம்பவே முடியவில்லையே! வங்கியில் தணிக்கை
     நாளன்று வேலைக்குச் செல்லும் வழியில் கைது செய்யப்~
     பட்டு, ஒரு அறையில் அடைக்கப்பட்டுப் பின், காலம்
     காலமாகப் போலீஸூக்கே உரித்தான வேலை ஒன்றை
     முடித்துக்கொடுக்க வேண்டுமாம். கொலை முயற்சிக்குப்
     பின்னணியில் உள்ள மனிதர்களைப்பற்றியும் கொலை
     முயற்சியின்போது இருந்த இந்த மனிதனின் கொள்~
     கைப் பிடிப்பைப்பற்றியும் எனக்கு என்ன கவலை?</p>

<p>விவசாயி: நமக்கும் இதற்கும் எந்தவிதமான தொடர்பும்
     கிடையாது. கண்டிப்பாக ஏதோ தவறு நடந்திருக்~
     கிறது.</p>

<p>மாணவன்: இ஥ில் தவறுக்கு இ஠மேயில்லை. இது அவர்க~
     ளுடைய புதிய முறை. எங்கள் பல்கலைக் கழகத்தில் சில
     மாணவர்களிடம் ஆயுதங்களைக் கண்டுபிடித்தபோது
     இந்தப் புதிய முறையை அங்கு பரிசோதித்துப்பார்த்~
     தார்கள். மாணவர்களை நீதிமன்றத்தில் நிறுத்துவதற்~
     குப் பதிலாக, அவர்களைச் சில நிரபராதிகளிடம் ஒப்஼படைத்தார்கள்.</p>

<p>-25-</p>

<p>     தீர்ப்புக் கூறுமாறு நிரபராதிகள்
     கட்டாயப்படுத்தப்பட்டார்கள்.</p>

<p>வங்கி அ஥ிகாரி: எந்த விதமான தீர்ப்஼பு?</p>

<p>மாணவன்: இன்று நாம் இறுதியில் கூறப்போகும் அதே
     தீர்ப்பு!</p>

<p>வங்கி அதிகாரி: அவர்களுக்குப் பைத்தியம் பிடித்திருக்கிறது.</p>

<p>ஹோ. முதலாளி: இவ்வகையான தந்திரத்தின் மூலம் கவர்~
     னர் என்ன சாதிக்க விரும்புகிறார்?</p>

<p>மாணவன்: இ஥ு ஒரு தந்திரமல்ல. கொலை செய்ய மேலும்
     ஒரு புதிய வாய்ப்பு. கொலை செய்யும் முறையைமாற்றி
     அமைப்பதன் மூலம் மக்களிடையே தனக்கென்று ஒரு
     புதிய செல்வாக்கை ஏற்படுத்திக்கொள்ள முடியும்
     என்று கவர்னர் கருதலாமல்லவா? தனக்கு எது சரி
     என்று படுகிறதோ அதை நிறைவேற்றுகிற பொறுப்பை
     நிரபராதிகளிடம் ஒப்படைக்கிறார்.</p>

<p>ஹோ. முதலாளி: ஏன் இப்படி? இ஥ன் மூலம் என்ன சாதிக்~
     கப் பார்க்கிறார்?</p>

<p>கான்ஸல்: ஆட்சிபுரிவது எவ்வளவு சிரமமானது என்று
     காட்டிக்கொள்வது அதிகார வர்க்கத்தின் வழக்கமான
     வேலை. தங்கள் அரசவைப் கோமாளிகளிடமோ, முன்~
     னேற வேண்டுமென்று துடிக்கும் தங்கள் மகன்~
     களிடமோ, அல்லது நம்மைப் போன்றவர்களிடமோ
     குறுகிய காலத்திற்குத் தங்கள் அ஥ிகாரத்தை ஒப்~
     படைக்கிறார்கள். நகரத்தை ஒருநாள் ஆளுவதற்கோ
     அல்லது ஒரு வழக்கில் தீர்ப்புக் கூறுவதற்கோ தங்கள்
     அதிகாரத்தை ஒப்படைக்கிறார்கள். பிறர், தங்களைத்
     தாங்களே அவமானப்படுத்திக்கொள்ள இவ்வாறு
     வாய்ப்பளிக்கப்படுகிறது. அ஥ிகார வர்்க்கம் தன்
     திறமையைப்பற்றிச் சந்தேகம் கொள்ளாவிட்டாலும்
     ஆளுவது மிகவும் கடினமானது என்பதைக் காட்டிக்
     கொள்வது அ஥ன் வினோதமான ஆசைகளில் ஒன்று.</p>

<p>ஹோ. முதலாளி: இந்த முறையில் கவர்னர் என்ன சாதிக்க
     முடியும் என்று நீங்கள் நினைக்கிறீர்கள்?</p>

<p>மாணவன்: (தயங்கியபடியே) எனக்குத் தெரியாது. ஒருக்~
     கால் அவர் தன்னைத் தானே நியாயப்படுத்திக்கொள்ள
     விரும்பியிருக்கலாம். தான் செய்யவேண்டியதை நிர~
     பராதிகள் தாங்களாகவே செய்கிற நிலை ஏற்படும்஼போது</p>

<p>-26-</p>

<p>     அவர் மனதில் தன் செயல்கள் நியாயமான~
     வையே என்று உறுதிப்படலாம்.</p>

<p>     (இஞ்சினியர் சட்டைக் காலரைத் தளர்த்தி, அணிந்~
     திருக்கிற `டை'யைக் கழற்றிப் பையில் திணித்துக்
     கொள்கிறார்.)</p>

<p>இஞ்சினியர்: இங்க஼ு ஒரே புழுக்கமாக இருக்கிறது. தாகத்~
     தினால் உயிரே போய்விடும் போலிருக்கிறது. ஏய்,
     காவலாளி!</p>

<p>வங்கி அதிகாரி: அவனைத் தொந்திரவு செய்ய வேண்டாம்.
     அவன் உங்களுக்கு எந்த விதமான உதவியும் செய்ய
     முடியாது.</p>

<p>இஞ்சினியர்: இன்னும் எவ்வளவு நேரத்திற்கு இப்படியே
     இருப்பது?</p>

<p>     (விவசாயி தரையில் உ஠்கார்ந்துகொள்கிறான்.)</p>

<p>விவசாயி: ஆட்டுக்குத் தீனி போட எவரும் இல்லை. இரண்~
     டாவது முறையாகப் பால் கறக்க வேண்டுமே!</p>

<p>ஹோ. முதலாளி: உன் ஆட்டுக் கதையை நிறுத்து!</p>

<p>விவசாயி: எனக்கு இருப்பது ஒரே ஒரு ஆடுதான், ஐயா!
     ஊரிலுள்ள மற்ற ஆடுகளைக்காட்டிலும் அதிகமாகப்
     பால் கொடுக்கிற஥ு.</p>

<p>ஹோ. முதலாளி: ஆ஖ா! கேட்பதற்கு எவ்வளவு அழகாக
     இருக்கிறது! உமக்கு வேறு விதமான கவலைகள். இப்~
     போது என்ன செய்வது?</p>

<p>     (கான்ஸல் கட்டிலை நோக்கித் திரும்பி, ஸாஸோனைச்
     சுட்டிக்காட்டிச் சொல்கிறார்.)</p>

<p>கான்ஸல்: திட்டவட்டமாக வரையறுக்கப்பட்ட ஒரு பிரச்சி~
     னைக்கு நாம் தீர்வு காணவேண்டியுள்ளது.</p>

<p>டாக்டர்: நீங்கள் உண்மையாகவா சொல்கிறீர்கள்? இந்த
     மனிதர் வலியால் துடித்துக்கொண்டிருக்கிறார். இவர்
     கொடிய முறையில் சித்திரவதை செய்யப்பட்டிருக்~
     கிறார்.</p>

<p>ஹோ. முதலாளி: உங்கள் கசப்பு வேதாந்தத்திற்காக
     நீங்கள் தலைகுனிய வேண்டும்.</p>

<p>இஞ்சினியர்; ஏன்? நம்மைப் பிடித்து வைத்திருக்கும் கார~
     ணத்தை நினைவூட்டுவதற்காக கான்ஸல் ஏன் தலை</p>

<p>-27-</p>

<p>     குனிய வேண்டும்? ஒரு காரியத்தைச் செய்து முடிக்க
     நமக்கு உ஥்தரவு இ஠ப்பட்டிருப்பது உண்மைதானே!</p>

<p>ஹோ. முதலாளி: கண்ணியத்தை மதிப்பவன் சில காரியங்~
     களைச் செய்ய௃ மறுப்பான் கவர்னரின் சார்பில் குறுக்கு
     விசாரணை செய்யும் நீதிபதியாக கவர்னரால் நியமிக்க
     பட்டிருப்பதை நான் ஏற்றுக்கொள்ள மறுக்கிறேன்.</p>

<p>கான்ஸல்: நீங்கள் சொல்வது கேட்பதற்கு இனிமையாக
     இருக்கிறது. உ௟ர்ந்த மனிதர்கள் இவ்வாறுதான் பேசு~
     வார்கள். அவ்வாறான உயர்ந்த மனிதர்களில் ஒருவனாக
     இருக்கக்கூடிய அரிய வாய்ப்பு எனக்கில்லை. நான் பல~
     வீனமானவன் என்பதை ஒப்புக்கொள்கிறேன்.</p>

<p>இஞ்சினியர்: எப்படிப் பார்த்தாலும் நாம் ஏதாவது செய்து
     தான் ஆகவேண்டும். இங்கு நடப்பதெல்லாம் கனவு
     அல்ல, உண்மையே என்பதை நான் உணர்கிறேன்.
     அதனால்தான் ஏதாவது செய்ய நமக்கு வாய்ப்பும்
     இருக்கிறது.</p>

<p>டாக்டர்: நான் உங்களிடம் மீண்டும் சொல்லிக்கொள்~
     கிறேன். கட்டிலில் கிடக்கும் இந்த மனிதர் வலியினால்
     அவதிப்படுகிறார். கொடிய முறையில் துன்புறுத்தப்~
     பட்ட பின்னும் போலீஸினால் வெளிக்கொண்டுவர முடி~
     யாத உண்மையை இவர் உங்களுக்குக் கூறுவார் என்று
     நீங்கள் நிச்சயமாக நம்புகிறீர்களா? அவர்கள் நம்மிடம்
     அதை எதிர்பார்ப்பது சுத்தப் பைத்தியக்காரத்தனம்.</p>

<p>ஹோ. முதலாளி: அ஥ு மட்டுமல்ல. நம்மில் எவருக்குமே
     குறுக்கு விசாரணை செய்வதற்கான பயிற்சியோ அனு~
     பவமோ கிடையாது. இந்த விளையாட்டில் ஈ஠ுபட
     நான் மறுக்கிறேன்.</p>

<p>இஞ்சினியர்: எதையும் முயன்று பார்க்காமலேயே அது பய~
     னற்றது என்று தள்ளிவிடக் கூடாது. ஏனென்றால்
     கொடுக்கப்பட்டிருக்கும் பரிசோதனை மீது நம் தலைவிதி
     சார்ந்திருக்கிற஥ு என்பது நமக்குத் தெரிந்ததுதானே.</p>

<p>ஹோ. முதலாளி: இவரும் நம்மைச் சேர்ந்தவர்தான்.</p>

<p>இஞ்சினியர்: அப்படி நீங்கள் சொல்வது பெரிய தவறு. இவர்
     நம்மைச் சேர்ந்தவர் இல்லை. கவர்னரைக் கொல்லும்
     முயற்சியில் பங்கேற்றவர். கவர்னரின் காரை நோக்கிச்
     சுட்டதை இவர் ஒப்புக்கொண்டிருக்கிறார். அதாவது,
     தான் குற்றவாளி என்று இவரே ஒப்புக்கொண்டிருக்~
     கிறார். நாம் எல்லோரும் நிரபராதிகள். இது இவருக்஼கும்</p>

<p>-28-</p>

<p>     தெரியும். இவரால்தான் நாம் எல்லோரும் இங்கு
     சிறையிலிருக்கிறோம். எந்த நொடியில் இவர் தன்
     கூட்டாளிகளின் பெயர்களைச் சொல்கிறாரோ அந்த
     நொடியிலேயே நாம் இவ்விடத்தை விட்டு வெளியேற
     முடியும் என்பதும் இவருக்குத் தெரியும். எனவே இவ~
     ருக்கும் நமக்கும் பெரும் வேறுபாடு இருப்பது புரிய~
     வில்லை?</p>

<p>மாணவன்: நீங்கள் சொல்வது சரிதான். கவர்னரின் பார்~
     வையிலும்கூட இவருக்கும் நமக்கும் இடையே வேறு~
     பாடு உள்ளது. அவர் இந்த மனிதரை அறவே வெறுக்~
     கிறார். நம்மையோ அவர் கேவலமாக மதிக்கிறார்.
     நிரபராதிகளைப்பற்றிக் கேவலமான எண்ணம் தவிர
     வேறு ஒன்றும் அவர் சிந்தனையில் இல்லை என்பதால்தான்
     அவர் எ஥ைச் செய்யவேண்டும் என்று நினைக்கிறாரோ,
     அதை நிறைவேற்றும்படி நம்மைக் கட்டாயப்படுத்து~
     கிறார்.</p>

<p>இஞ்சினியர்: (சற்று எரிச்சலுடன்) உங்கள் அபிப்ராயத்தைக்
     கேட்டதாக நினைவில்லையே.</p>

<p>ஹோ. முதலாளி: ஆனால் இவர் சொல்வது சரிதானே?</p>

<p>இஞ்சினியர்: ஆ! பேச்சை நிறுத்துங்கள்.</p>

<p>     (இஞ்சினியர் கூட்டத்திலிருந்து விலகிப் பின்னே செல்~
     கிறார். கோபத்துடனும், என்ன செய்வது என்று புரி~
     யாததாலும் சிலர் அங்குமிங்கும் நடக்கின்றனர்.)</p>

<p>கான்ஸல்: எனக்கு யாராவது ஒரு சிகரெட் கொடுக்க முடி~
     யுமா?</p>

<p>விவசாயி: என்னிடம் புகையிலைத் தூள் இருக்கிறது. சிகரெட்
     செய்துகொள்ளலாம்.</p>

<p>கான்ஸல்: அ஥ற்குக் காகிதம் வேண்டுமே. யாரிடமாவது
     காகிதம் இருக்கிறதா? யாரிடமும் இல்லையா.....?
     காவலாளி!</p>

<p>     (஛ற்றுத் தாமதித்து)</p>

<p>காவலாளி: என்ன ஐயா?</p>

<p>கான்ஸல்: எங்களுக்கு சிகரெட்டு அல்லது காகிதம் கொண்டு
     வர ஏற்பாடு செய்.</p>

<p>காவலாளி: மன்னிக்க வேண்டும் ஐயா.</p>

<p>கான்ஸல்: அப்படியானால் எதுவும் தேவையில்லை. பதில்
     கிடைத்துவிட்டது. புகைக்கும் பழக்கத்தை நாம் கைவிடவேண்டியதுதான்.</p>

<p>-29-</p>

<p>     இன்னும் பல தேவைகளை நாம்
     கைவிட வேண்டிவரும். எல்லாவற்றையும் கைவிட்ட
     பின்னர் எந்தவித தீரச்செயலுக்கும் தகுதியற்ற நிலையை
     அடைவோம்.</p>

<p>     (இ஥ுவரை பின்னால் இருந்த அச்சகத் தொழிலாளி
     முன்னால் வருகிறான். சிறையின் கம்பிகளைப் பிடித்துக்
     கொண்டு காவலாளியைக் கூப்பிடுகிறான்.)</p>

<p>அ. தொழிலாளி: (கனிவுடன்) காவலாளி! நான் கூப்பிடுவது
     காதில் விழவில்லை?</p>

<p>காவலாளி: ஐயா?</p>

<p>அ. தொழிலாளி: உ஠னே கதவைத் திற! நான் வீட்டுக்குப்
     போகவேண்டும்.</p>

<p>காவலாளி: கம்பியிலிருந்து கையை எடுங்கள், ஐயா!</p>

<p>அ. தொழிலாளி: எனக்கும் இங்கு நடைபெறும் நிகழ்ச்சி~
     களுக்கும் எந்தவிதமான தொடர்பும் இல்லை. இரவு
     "ஶிப்டி"லிருந்து இங்கே என்னை அழைத்துக்கொண்டு
     வந்திருக்கிறார்கள்.</p>

<p>     (சவுக்கினால் அ஛்சகத் தொழிலாளியின் கையைச் சுட்டி
     காட்டுகிறான் காவலாளி.)</p>

<p>காவலாளி: ஐ௟ா! உங்கள் கை கம்பிகளைத் தொட அனுமதி~
     யில்லை.</p>

<p>அ. தொழிலாளி: என் மனைவிக்கு உ஠ல்நிலை சரியில்லை. என்
     குழந்தைக்கும்தான். நான் உ஠னே வீட்டுக்குப் போக
     வேண்டும். நான் சொல்வது உன் காதில் விழவில்லையா?
     உ஠னே கதவைத் திற!</p>

<p>காவலாளி: கொஞ்சம் பின்னால் செல்லுங்கள், ஐ௟ா!</p>

<p>கான்ஸல்: பின்னால் தள்ளிப்போங்க௃஼ள். இல்லையென்றால்
      அவன் சவுக்கால் அடிப்பான்.</p>

<p>     (காவலாளி தோல் சவுக்கைச் சொடுக்கி அடிக்கிறான்.
     அ஛்சகத் தொழிலாளி வலியினால் துடித்து, கையை
     வேகமாகப் பின்னுக்கிழுத்து, வலி தாங்காமல் கூனிக்
     குறுகி லேசாக அழுகிறான்.)
 
காவலாளி: எனக்கு வருத்தமாயிருக்கிறது, ஐயா! இந்தக்
     கம்பிகளைத் தொட அனுமதியில்லை.</p>

<p>     (தள்ளாடியபடியே பின்னுக்குச் செல்லும் அச்சகத்</p>

<p>-30-</p>

<p>     தொழிலாளி மற்றவர்களிடம் கையைக் காட்டியவாறு
     சொல்கிறான்.)</p>

<p>அ. தொழிலாளி: என் கை.... பாருங்கள், எப்படி ஆகி
     விட்டது!</p>

<p>டாக்டர்: கட்டிலில் உ஠்காருங்கள்.</p>

<p>     (வேண்டாம் என்பதற்கு அறிகுறியாகத் தலையை
     ஆட்டிக்கொண்டே அச்சகத் தொழிலாளி தரையில்
     விவசாயியின் அருகில் உட்காருகிறான். கையைப் பிடித்~
     துக்கொண்டு வாயால் ஊ஥ுகிறான்.)</p>

<p>ஹோ. முதலாளி: கவர்னர் பலமுறை என் விருந்தாளியாக
     இருந்தவர். இங்கு நடந்ததையெல்லாம் நான் அவ~
     ரிடம் சொல்வேன். நான் இ஥ற்கு எ஥ிர்ப்புத் தெரிவிப்~
     பேன்.</p>

<p>கான்ஸல்: எ஥ிர்ப்பைத் தெரிவிப்பது நீங்கள் கவர்னருக்குச்
     செய்யும் கைமாறாகிவிடும். எ஥ிர்ப்பு என்பது உ௟ர்
     அதிகார வர்க்கத்திற்கு மிகவும் பிடித்தமான விஶயம்.
     பிறரின் எதிர்ப்பு மூலம்தான் அவர்கள் தங்களை உறுதிப்
     படுத்திக்கொள்கிறார்கள்.</p>

<p>வங்கி அ஥ிகாரி: இனியும் என்னால் தாங்கிக்கொள்ள முடி~
     யாது. நான் அதைப்பற்றி நினைத்துப் பார்க்கக்கூட
     முடியாது போலிருக்கிறதே!</p>

<p>கான்ஸல்: எ஥ைப்பற்றி?</p>

<p>வங்கி அதிகாரி: வங்கியில் இன்று தணிக்கை. ஏறக்குறைய
     பகல் முடிந்துவிட்டது. தணிக்கையாளர்களில் பாதிப்~
     பேர் அங்கு வங்கியில் இருப்பார்கள். நான் மட்டும்
     அங்கு இல்லையே.</p>

<p>கான்ஸல்: என் இனிய நண்பரே, இப்படிக் கவலைப்படுவது
     உங்களுக்குப் பெருமையாயிருக்கலாம். ஆனால் நீங்கள்
     இல்லாமலேயே தணிக்கையாளர்களில் பாதிப்பேர்
     தங்கள் வேலையைக் கவனிக்க முடியும் என்பதைமட்டும்
     நீங்கள் உணரமுடியுமானால் அ஥ுவே உங்களுக்குப்
     பெரிய அ஥ிர்ச்சியைத் தரும். நமக்கே புரியாத விதத்~
     தில் நாம் எல்லோருமே தேவை அற்றவர்கள்தாம்.
     உலகத்தைக் கைவிட்டுவிட முடியாது என்று நாம்
     நினைத்துக்கொண்டிருக்க஼லாம். ஆனால் அந்த உலகம்
     கண் இமைக்கும் நேரத்தில் நம்மைக் கைவிட்டுவிட
     முடியும். நமக்குப் பதில் வேறு ஒருவர் செயல்பட</p>

<p>-31-</p>

<p>     முடியும் என்பது எப்படி உருவாக்கப்படுகிறதோ
     அ஥ற்கு நாம் கொஞ்சம் கொஞ்சமாகப் பழகிக்
     கொண்டே ஆகவேண்டும்.</p>

<p>வங்கி அ஥ிகாரி: பாதிக்கப்பட்டவர்கள் இப்படிப் பேசமாட்~
     டார்கள்.</p>

<p>கான்ஸல்: நீங்கள் கூறுவது இந்த நொடியில் வேண்டுமானால்
     சரியாக இருக்க஼லாம். நானும் ஒரு காலத்தில் பாதிக்கப்~
     பட்டவன்தான். கவர்னர், வெறும் பேச்சு வன்மையை~
     யும் தானே தயாரித்த கை வெடிகுண்டுகளையும் மட்~
     டுமே கொண்டவராக மாலைப்பள்ளியில் பயங்கரவாதம்
     பற்றிப் படித்துக்கொண்டிருக்கும்போது எனக்கிருந்த
     பண வசதியால் அவருக்கு நான் உதவிசெய்யக்கூடிய
     பெரும் பாக்கியத்தைப் பெற்றிருந்தேன். அன்று நான்
     அவருக்குப் பண உதவி செய்ய முன் வந்ததற்குக் கார~
     ணம் அவர் ஒரு நேர்மையான புரட்சியாளன் என்று
     நான் நினைத்ததுதான். அவருடைய புரட்சி முழு
     வெற்றி அடைந்தபோது அவர் என்னை ஆயுள் கால
     நிதி மந்திரியாக நியமித்தார். நான் செய்த பெரிய
     தவறு, என்னை விட்டால் வேறு எவரும் நிதி மந்திரி~
     யாக இருக்க முடியாது என்று எண்ணி அ஥ற்கு ஏற்ற~
     படி என்னை மாற்றிக்கொண்டதுதான். என் நிதி
     மந்திரிப் பதவி எவ்வளவு காலம் நீடித்தது என்று
     உங்களுக்குத் தெரியுமா? எட்டே நாட்கள். அது நடந்து
     இன்று பதினோறு ஆண்டுகள் கழிந்துவிட்டன.</p>

<p>வங்கி அதிகாரி: உங்களிடம் இவ்வளவு விரிவான விளக்கத்~
     தைக் கேட்கவில்லையே?</p>

<p>கான்ஸல்: ஒளிவு மறைவு இன்றி விரிவாக உங்களுக்கு எ஠ுத்~
     துச்சொல்வது என் கடமை என்று நினைத்தேன்.</p>

<p>     (இஞ்சினியர் `டை'யைப் பாக்கெட்டிலிருந்து எ஠ுத்து
     உள்ளங்கையில் சுற்றிக்கொள்ளுகிறார்.)</p>

<p>இஞ்சினியர்: இங்கே நாம் வாடி வதங்கிக்கொண்டிருக்கி~
     றோம். நாம் என்ன செய்யவேண்டும் என்பதைப்பற்றி
     ஏ஥ாவது ஒரு முடிவுக்கு வரவேண்டும்.</p>

<p>கான்ஸல்: ஏதாவது ஒரு முடிவுக்கு அல்ல. நாம் செய்ய
     வேண்டிய வேலை ஒரு எல்லைக்குள் ஒழுங்காக வரை~
     யறுக்கப்பட்டுள்ளது.</p>

<p>ஹோ. முதலாளி: உங்களுடைய பேச்சுக்கு நீங்களே அவமா~
     னத்தினால் தலைகுனிய வேண்டும், கான்ஸல்.</p>

<p>-32-</p>

<p>கான்ஸல்: நான் சொல்லப்போவது உங்களுக்கு வேண்டு~
     மானால் அதிசயமாகப் படலாம். வாழ்க்கையில் சில
     குறிப்பிட்ட சூழ்நிலையில் நான் அவமானத்தால் தலை
     குனியத் தயாராக இருக்கிறேன்.</p>

<p>இஞ்சினியர்: வாக்கெடுப்பு நடத்தலாம் என்பது என்கருத்து.</p>

<p>ஹோ. முதலாளி: எதைப்பற்றி வாக்கெடுப்பு?</p>

<p>இஞ்சினியர்: நமக்குத் தரப்பட்டுள்ள காரியத்தைச் செயல்~
     படுத்த வேண்டுமா, வேண்டாமா என்பதுபற்றி.</p>

<p>வங்கி அதிகாரி: இங்கிருந்து வெளியேற வேண்டுமென்றால்
     நமக்கு இ஥ைத் தவிர வேறு வழியில்லை.</p>

<p>இஞ்சினியர்: ஆக......</p>

<p>     (அமைதி)</p>

<p>இஞ்சினியர்: இப்போது யாரும் என்னுடைய ஆலோசனையை
     எ஥ிர்க்கவும் இல்லை ஆதரிக்கவும் இல்லை என்று
     தோன்றுகிறது.</p>

<p>வங்கி அதிகாரி: வாக்கெடுப்பு நடத்தவாவது நாம் முயல
     வேண்டும்.</p>

<p>டாக்டர்: (எச்சரிக்கை செய்யும் விதத்தில்) இந்த மனிதர்
     வலியினால் வேதனைப்பட்டுக்கொண்டிருக்கிறார் என்பது
     உங்களுக்கெல்லாம் தெரியும்.</p>

<p>வங்கி அதிகாரி: வேதனையை நாம் ஒன்றும் பெரிதாக்க~
     வில்லையே!</p>

<p>     (அமைதி திடீரென்று இஞ்சினியர், ஸாஸோன் பக்கம்
     திரும்பி, கைகளை விரித்து நீட்டியபடியே மன்னிப்புக்
     கேட்கும் பாவனையில்,)</p>

<p>இஞ்சினியர்: (சற்று மன உறுத்தலுடன்) தயவுசெய்து கட்டி~
     லில் படுத்துக்கொண்டே கேளுங்கள்! (தயக்கத்துடன்)
     நாங்கள் நிரபராதிகள் என்பதும் நாங்கள் சுதந்திரமாக
     மீண்டும் இங்கிருந்து வெளியே செல்வதும் செல்லா~
     ததும் உங்கள் கையில்தான் இருக்கிறது என்பதும்
     உங்களுக்குத் தெரியும். நீங்கள் எங்களுக்கு எந்தவித~
     மான தீங்கும் செய்யவில்லை, நாங்களும் உங்களுக்கு
     எந்தவிதமான தீங்கும் செய்யவில்லை. என்றாலும், நாம்
     ஒருவரை ஒருவர் சார்ந்திருக்க வேண்டிய நிலையில்
     நாங்கள் உங்களை நம்பியிருக்கிறோம். (தயக்கத்துடன்)
     நான் என் கைக்குட்டையை உங்களுக்குத் தரட்டுமா?
     அது சுத்தமான கைக்குட்டை. (ஸாஸோனிடம் கைக்஼குட்டையைக்</p>

<p>-33-</p>

<p>     கொடுக்கிறார் இஞ்சினியர்.) போலீ~
     ஸிடம் எதையும் நீங்கள் சொல்லமுடியாததையும்,
     சொல்ல விரும்பாததையும் எங்களால் புரிந்துகொள்ள
     முடிகிறது. யாருமே தங்கள் நண்பர்களைக் காட்டிக்
     கொடுக்கமாட்டார்கள். கைக்குட்டையை நீங்களே
     வைத்துக்கொள்ளுங்கள் - இப்போது வேறொரு வித~
     மான ஆபத்தில் நாங்கள் இருக்கிறோம். இங்கு இப்~
     போது இருக்கிற ஒன்பது மனிதர்கள் - இவர்கள் எல்~
     லோரும் நிரபராதிகள் - இந்த ஒன்பது மனிதர்களின்
     சுதந்திரம், நீங்கள் என்ன சொல்லப்போகிறீர்கள் என்~
     பதைப் பொறுத்தே இருக்கிறது. எங்கள் தலைவிதி
     உங்கள் கையில் இருக்கிறது.</p>

<p>வங்கி அதிகாரி: எங்கள் நிலையை நீங்கள் தயவுசெய்து
     புரிந்துகொள்ள வேண்டும். நீங்கள் சொல்ல வேண்டி~
     யதைச் சொல்லிவிட்டால் எங்கள் எல்லோருக்கும்
     விடுதலை கிடைக்கும்.</p>

<p>ஸாஸோன்: உங்கள் நிலைமை என்னால் புரிந்துகொள்ள முடி~
     கிறது. யாரானாலும் உங்கள் நிலைமையைப் புரிந்து
     கொள்ள முடியும்.</p>

<p>இஞ்சினியர்: உங்களுக்கு எங்கள்மீது அக்கறை இல்லாம~
     லில்லை என்பது எனக்குத் தெரியும். நீங்கள் ஒருவர்,
     நாங்கள் ஒன்பது பேர். எல்லோருக்கும் மனைவி மக்கள்
     இருக்கிறார்கள். ஒவ்வொருவருக்கும் வேலையிருக்கிறது.
     அதுவும் மிக முக்கியமான வேலைகள். இந்த வேலை~
     களைத் தொடரமுடியாத நிலை ஏற்பட்டுள்ளது. இந்~
     நிலையில் எவருமே அக்கறை இல்லாதவர்களாக இருக்க
     முடியாது.</p>

<p>வங்கி அதிகாரி: ஒன்பது பேரின் தலைவிதி, ஒரு தனிமனித~
     னின் தலைவிதியைவிட முக்கியமானது.</p>

<p>     (ஸாஸோன் எவ்வித உணர்ச்சியையும் வெளிப்படுத்~
     தாமல் கட்டிலில் படுத்திருக்கிறான்.)</p>

<p>ஸாஸோன்: முக்கியமானதா? எந்த விதத்தில் முக்கியமா~
     னது?</p>

<p>கான்ஸல்: தலைவிதியின் அளவை நிர்ணயிக்கும் விகிதா~
     சாரத்தை அவர் குறிப்பிடுகிறார்.</p>

<p>இஞ்சினியர்: (நிதானத்துடன்) நான் என்ன சொல்கிறேன்
    என்பது உங்களுக்குத் தெரியும். நீங்கள் திருமணமான~
    வரா?</p>

<p>-34-</p>

<p>ஸாஸோன்: இல்லை.</p>

<p>இஞ்சினியர்: நாங்கள் எல்லோரும் திருமணமானவர்கள்.
     எங்கள் மனைவி மக்களுக்கு நாங்கள் தேவை. உங்கள்
     நிலைமையை எவ்வாறு நாங்கள் புரிந்துகொள்ளத் தயா~
     ராக இருக்கிறோமோ அவ்வாறே எங்கள் நிலைமையை~
     யும் நீங்கள் புரிந்துகொள்ள வேண்டும் என்றுதான்
     நாங்கள் எ஥ிர்பார்க்கிறோம்.</p>

<p>விவசாயி: ஆட்டுக்குத் தீனி வைக்க வேண்டும், தண்ணீர்
     காட்ட வேண்டும்.</p>

<p>ஹோ. முதலாளி: (மிகுந்த கோபத்துடன்) வாயை மூடு!
     உன்னுடைய ஆட்டைப்பற்றிய பேச்சு வரவர நாராச~
     மாக இருக்கிறது.</p>

<p>இஞ்சினியர்: நான் சொல்வதை உங்களால் புரிந்துகொள்ள
     முடிகிறதா? ஒன்பது நிரபராதிகளின் தலைவிதி தனி
     மனிதனாகிய உங்கள் கையில் இருக்கிறது. பொது~
     வாகச் சொல்லப்போனால் ஒரு தனிமனிதன், பெரும்~
     பான்மையினரின் எண்ண஥்துக்கோ அவர்களுடைய நன்~
     மைக்கான செயல்களுக்கோ விட்டுக்கொடுக்க வேண்டும்.</p>

<p>ஸாஸோன்: பொதுவாக என்றால்? எந்தப் புத்தகத்தில் இவ்~
     வாறு இருக்கிறது? எ஥ு சரி, எது தப்பு என்று நிர்ண~
     யிக்க முடியாத சூழ்நிலையில் எப்போதும் தனிமனிதன்
     ஥ன்னைப் பலிகொடுக்க வேண்டும் என்று எந்தப் புத்த~
     கத்திலும் படித்ததாக எனக்கு நினைவில்லை. உங்களை
     இங்கு கொண்டுவருமாறு நான் சொல்லவில்லை. உங்க~
     ளுடைய இந்த நிலைமைக்கு - என் கையில்தான் உங்கள்
     விடுதலை இருக்கிறது என்று நீங்கள் கருதும் இந்த
     நிலைமைக்கு - நான் எவ்விதத்திலும் காரணமில்லை.</p>

<p>வங்கி அதிகாரி: கவர்னரைக் கொலை செய்யும் முயற்சியில்
     உங்களுக்கும் பங்கு உண்டு என்பதையும், கவர்னரின்
     காரை நோக்கிச் சுட்டது நீங்கள்தான் என்பதையும்
     நீங்கள் ஒப்புக்கொண்டிருக்கிறீர்கள்.</p>

<p>     (ஏதோ ஒரு நினைவு அவனைச் சூழ்ந்துகொண்டதுபோல்
     ஸாஸோன் கண்களை மூடிக்கொள்கிறான்.)</p>

<p>ஸாஸோன்: ஆமாம். நான் அவனை நோக்கிச் சுட்டேன்.</p>

<p>வங்கி அதிகாரி: ஆனால் உங்கள் குறி தவறிவிட்டது.</p>

<p>ஸாஸோன்: கவர்னரைக் காப்பதற்காக அவன்முன் விழுந்த
     அவனுடைய காவலாளிகள், என் துப்பாக்கி ரவை~
     களுக்குப் பலியானார்கள்.</p>

<p>-35-</p>

<p>வங்கி அதிகாரி: நீங்கள் இருவரைக் கொன்றிருக்கிறீர்கள்.</p>

<p>ஸாஸோன்: ஆமாம்; ஆமாம். நானும் அவ்வாறுதான்
     நினைக்கிறேன்.</p>

<p>வங்கி அதிகாரி: இ஥ற்குப் பிறகு உங்களை எ஥ிர்நோக்கியிருப்~
     பது என்ன என்பது உங்களுக்குத் தெரியும். அல்லது
     உங்களுக்கு நேர இருப்பதுபற்றி இன்னும் ஏதாவது
     உங்களுக்கு சந்தேகம் இருக்கிறதா?</p>

<p>ஸாஸோன்: இல்லை. அதைப்பற்றி எனக்குச் சந்தேகம் இல்லை.
     நானே இந்த முடிவைத் தேடிக்கொண்டுவிட்டேன்.
     அவர்கள் என்னைக் கொல்லத்தான் முடியும். எனக்கு   
     இதைவிட மேலான முடிவு கிடைக்கப்போவதில்லை.
     அவர்கள் என்னைக் கொன்றால்தான் தோல்வியடைந்த
     என்னுடை௃ய கொலை முயற்சிக்கு ஒரு அர்த்தம் ஏற்~
     படும். சாவுதான் எங்களுடைய முயற்சியை நியாயப்
     படுத்தும்.</p>

<p>வங்கி அதிகாரி: உங்கள் நிலைமையை நீங்கள் அறிவுபூர்வ~
     மாகப் புரிந்துகொண்டிருப்பது உண்மையானால், நீங்கள்
     எங்களுக்கு உதவ மறுப்பது ஏன் என்று எனக்குப் புரிய~
     வில்லை. உங்களுக்கோ இங்கிருந்து வெளியே செல்வ~
     தற்கு எவ்வித ஆசையும் இல்லை என்று தெரிகிறது.
     ஆனால் இங்கிருந்து விடுதலை பெறுவது எங்கள் எல்லோ~
     ருக்கும் மிகவும் முக்கியமானது. நீங்கள் ஏன் இன்னும்
     எங்களுக்கு உ஥வ மறுக்கிறீர்கள்?</p>

<p>டாக்டர்: தயவுசெய்து உங்கள் குறுக்கு விசாரணையை நிறுத்~
     துங்௃கள். நான் மீண்டும் கூறுகிறேன். ஏற்கனவே இவர்
     மிகவும் சித்திரவதைக்கு ஆளாகியிருக்கிறார்.</p>

<p>ஸாஸோன்: நன்றி, டாக்டர். என் நிலை இப்போது எவ்~
     வளவோ பரவாயில்லை.</p>

<p>இஞ்சினியர்: நானும் அதைத்தான் சொல்கிறேன்: உங்கள்
     விதியை உங்களால் மாற்ற முடியாது. ஆனால் எங்க~
     ளுக்கு உதவ உங்களால் முடியும். இது ஒரு கடினமான
     செயலாகத் தோன்றுகிறதா? நாங்கள் எந்த நிலையில்
     இருக்கிறோம் என்பதைச் சற்றுச் சிந்தித்துப்பாருங்கள்.
     (ஸாஸோன் தலையைச் சற்றே நிமிர்த்திக் கூரையைப்
     பார்க்கிறான். அவன் உடம்பில் திடீரென்று ஒரு நடுக்~
     கம்.)</p>

<p>ஸாஸோன்: என் நிலைமை எனக்கு. அது ஒன்றுதான் எனக்கு
     முக்கியமானது. கொலை முயற்சியில் என்னுடன் ஈ஠ுபட்ட</p>

<p>-36-</p>

<p>     என் நண்பர்களின் பெயர்களைத் தெரிந்து
     கொள்ள வேண்டும் என்பதுதானே உங்கள் விருப்~
     பம்....</p>

<p>இஞ்சினியர்: வேறு ஒன்றும் தேவையில்லை.</p>

<p>ஸாஸோன்: வேறு என்ன இருக்கிறது? அவர்களுடைய
     பெயர்கள் மட்டும்தான் என்னிடத்தில் எஞ்சியிருப்பது.
     என்னைத் தவிர வேறு யாருக்கும் தெரியாத ரகசியமாக
     இப்பெயர்கள் இருக்கும்வரை, யார் எப்போது எப்படி
     என்னைக் கொல்லப்போகிறார்கள் என்பதில் எனக்கு
     எந்த அக்கறையும் இல்லை. கூட்டாளிகளைக் காட்டிக்
     கொடுத்தால் என் நிலைமையில் மாறுதல் ஏற்படும்~
     தான். அதாவது வேறுவிதமாக மரணத்தை நான்
     எதிர்நோக்க நேரிடும்.</p>

<p>வங்கி அதிகாரி: நீங்கள் உங்களைப்பற்றி மட்டுமே பேசு~
     கிறீர்கள். எங்கள் நிலைமை?</p>

<p>ஸாஸோன்: என் நண்பர்களின் செயல்கள் உங்களுடைய
     நன்மைக்காகவும்தான்.</p>

<p>இஞ்சினியர்: இ஥ற்கு என்ன அர்த்தம்?</p>

<p>ஸாஸோன்: இ஥ு உங்களுக்குப் புரியவில்லை? `கண்ணியம்'!
     மனிதன் மேலும் கண்ணியமாக வாழ வேண்டும் என்~
     பதுதான். இதைத் தவிர வேறு ஒன்றும் எங்களுக்குத்
     தேவையில்லை.</p>

<p>கான்ஸல்: இந்த வார்த்தையை ஏற்கனவே ஒருமுறை நாம்
     கேட்டிருக்கிறோம். இப்போது அது பரவலாகிவிட்ட~
     தாகத் தோன்றுகிறது.</p>

<p>     (முதன்முறையாகக் காழ்ப்புணர்ச்சியுடன் இஞ்சினியர்
     ஸாஸோனைப் பார்க்கிறார். பிறகு மறுபுறம் திரும்பிக்
     கதவை நோக்கிச் சென்று காவலாளியைக் கூப்பிடு~
     கிறார். உணர்ச்சி அற்ற மரக்கட்டை போன்று காவ~
     லாளி அருகில் வருகிறான். தன்னுடைய தொண்டைக்
     குழியை நீவிவிட்டுக்கொள்கிறார் இஞ்சினியர்.)</p>

<p>இஞ்சினியர்: காவலாளி, இங்கே வா!</p>

<p>காவலாளி: என்ன வேண்டும் ஐ௟ா?</p>

<p>இஞ்சினியர்: (பொறுமை இழந்து) இன்னும் சற்று அருகில்
     வா, நான் சொல்வதைக் கவனமாகக் கேள். நீ இப்~
     போது மேலே போய் மேஜரிடம் என் வணக்கத்தைக்</p>

<p>-37-</p>

<p>     கூறிவிட்டு ஏதாவது குடிக்காமல் எங்களால் மேற்
     கொண்டு எதுவும் செய்ய முடியாது என்ற செய்தி~
     யைச் சொல் உ஠னடியாக அவர் ஏதாவது அனுப்பி
     வைக்க வேண்டும். (பயமுறுத்தும் தொனியில்) எனக்கு
     மட்டும் குடிப்பதற்கு ஏதாவது தரவில்லை என்றால்....</p>

<p>     (சவுக்கினால் இஞ்சினியரின் கைகளைச் சுட்டிக்காட்டு~
     கிறான் காவலாளி.)</p>

<p>காவலாளி: (இயந்திரத் தொனியில்) ஐயா! உங்கள் கைகள்,
     கம்பிகளைத் தொட அனுமதியில்லை!</p>

<p>இஞ்சினியர்: போ, உ஠னே. இப்போதே!</p>

<p>காவலாளி: மன்னிக்கவேண்டும் ஐயா, இந்த இடத்தை
     விட்டு நகர எனக்கு அனுமதி இல்லை.</p>

<p>கான்ஸல்: இப்போது அவனுக்கும் நமக்கும் அதிக வித்தியாச~
     மில்லை. நம்முடையதைவிட அவன் நிலைமை எந்தவிதத்~
     திலும் மேலானதல்ல.</p>

<p>இஞ்சினியர்: அப்படியானால் மேஜரைக் கூப்பிடு.</p>

<p>காவலாளி: மேஜர் வெளியே போயிருக்கிறார். கவர்னர் மாளி~
     கைக்கு.</p>

<p>இஞ்சினியர்: வேறு யாரையாவது கூப்பிடு. உன்னால் முடி~
     யாது என்றால் நானே கூப்பிடட்டுமா?</p>

<p>காவலாளி: உங்கள் குரல் யாருக்கும் எட்டாது. அப்படி
     எட்டினாலும், இங்கே யாரும் வரமாட்டார்கள்.
     ஏனென்றால் இங்கு வர யாருக்கும் அனுமதியில்லை.</p>

<p>     (காவலாளி சில அடிகள் பின் சென்று, தான் இது
     வரை மரப்பொம்மைபோல் நின்றுக஼ொண்டிருக்கும்
     இடத்தை அடைகிறான்.)</p>

<p>கான்ஸல்: உங்கள் கூக்குரல் உண்மையில் பயனற்றது. நீங்கள்
     ஒன்று புரிந்துகொள்ள வேண்டும். வரம்பற்ற அதி~
     காரத்தைக் கொண்ட நிலையிலும் அ஥ிகார வர்க்கம்,
     ஆச்சரியப்படத்தக்க விதத்தில் ஒருதலைப்பட்சமான
     புலன்களைக் கொண்டது: அ஥ற்கு வெற்றியைத் தேடித்
     தருவது எதுவோ அதை மட்டும்தான் அ஥னால் பார்க்க~
     வும் கேட்கவும் முடியும். அ஥ிகாரத்தின் காதுகளை ஒரு
     குறிப்பிட்ட அலைவரிசையில்தான் அடைய முடியும்.</p>

<p>     (பின்னாலிருந்த லாரி ஓட்டி சற்று முன்஼னால் வருகிறான்.)</p>

<p>-38-</p>

<p>லாரி ஓட்டி: ஏ௟், காவலாளி! ஒரு நிமிடம் நான் சொல்~
     வதைக் கேள். என்னுடைய லாரிக்கு என்ன ஆனாலும்
     அதைப்பற்றி எனக்கு எந்தக் கவலையும் இல்லை. அது
     ஒரு சினிமாக் கொட்டகையின் முன் நிற்கிறது. அங்கு
     வண்டிகளை நிறுத்த அனுமதியில்லைதான். எனக்கு
     அதைப்பற்றி எல்லாம் கவலையில்லை. நாம் இருவரும்
     எந்த விதத்திலும் அ஥ற்காக அ஫ராதம் கட்டப்போவ~
     தில்லை. நீ நம்முடைய அருமையான தலைவரைக் கண்~
     டால், எனக்குச் சாப்பிடுவதற்கு ஏதாவது அனுப்பி
     வைக்க வேண்டும் என்று சொல். வயிறு ஒட்டிக்கொள்~
     கிறது. புரிந்ததா? எனக்குத் தெரிந்தவரையில் இது
     பசியின் அடையாளம்.</p>

<p>காவலாளி: மன்னிக்க வேண்டும் ஐயா! எனக்கு இந்த
     இடத்தை விட்டு நகர அனுமதியில்லை.</p>

<p>லாரி ஓட்டி: சாப்பாடு கொண்டுவரும்வரை எந்தவிதமான
     வேலைக்கும் நான் பயனற்றவன், புரிகிறதா?</p>

<p>வங்கி அ஥ிகாரி: நீங்கள் மேலும் பேசுவதில் பயன் ஏதும்
     இல்லை. இங்கு எல்லாம் நம்மைப் பொறுத்திருக்கிறது.
     கவர்னர் எதை எ஥ிர்பார்க்கிறாரோ அதை முடித்த
     பிறகுதான் நாம் இங்கிருந்து வெளியேற முடியும்.
     அவர் எதை எதிர்பார்க்கிறார் என்றும் நம் எல்லோ~
     ருக்கும் தெரியும். அவர் மிகவும் தெளிவான வேலையை
     நமக்குத் தந்திருக்கிறார்.</p>

<p>கான்ஸல்: கவர்னர் போன்ற ஒரு மனிதரை அவருடைய
     மரணத்திற்கு முன்பு புகழக்கூடாது.</p>

<p>     (ஏதோ ஆழ்ந்த யோசனையில் கசப்பு உணர்வுடன்
     இஞ்சினியர் ஸாஸோனை நோக்குகிறார்.)</p>

<p>இஞ்சினியர்: போதுமய்யா உங்கள் வேடிக்கைப் பேச்சுகள்!
     வேறு முக்கியமான விஶயங்கள் இருக்கின்றன. நாம்
     ஏதாவது செய்தாக வேண்டும்.</p>

<p>     (கட்டிலின் அருகில் ஹோட்டல் முதலாளியும் வந்து
     சற்று எச்சரிக்கையாகவே அ஥ன்மீது அமர்கிறார்.)</p>

<p>ஹோ. முதலாளி: உங்களைத் தொந்தரவு செய்வதற்கு</p>

<p>-39௃-</p>

<p>     மன்னிக்க வேண்டும். நண்பரே, நான் உங்களிடம்
     ஒன்று கூறலாமா? நான் யார் என்பது உங்களுக்குத்
     தெரியும். என் ஹோட்டலைப்பற்றியும் அங்கு என்
     கடமைகளைப்பற்றியும் உங்களுக்குத் தெரிந்திருக்கலாம்.
     என்னால் உங்களை நன்றாகப் புரிந்துகொள்ள முடிகிறது.
     ஒரு குறிப்பிட்ட எல்லைவரை நானும் உங்களைப்
     போலவே நடந்துகொள்வேன் என்றே நான் உறுதி~
     யாகக் கருதுகிறேன். அதே சமயத்தில் ஒன்பது மனிதர்~
     களின் தலைவிதியை நிர்ணயிக்கும் சூழ்நிலையில் உள்ள
     தனிமனிதன் எப்படி நடந்துகொள்ள வேண்டுமோ அப்~
     படியே நான் நடப்பேன் என்றும் உறுதியாக நம்பு~
     கிறேன்.</p>

<p>ஸாஸோன்: தனிமனிதன் அவ்வாறு நடந்துகொள்ள
     வேண்டும் என்ற கட்டாயம் என்ன இருக்கிறது?</p>

<p>ஹோ. முதலாளி: நீங்கள் முன்பு சொல்லிய அதே கண்ணி~
     யம்தான். இதை நிரூபிப்பதற்குக் கணக்கற்ற உதார~
     ணங்கள் உண்டு.</p>

<p>ஸாஸோன்: இன்னும் நிரூபிக்க முடியாத ஒன்றின்மீது நம்~
     பிக்கை வைக்க எவ்வாறு சாத்தியம் இருக்கிறதோ அவ்~
     வாறே உண்மை என்று நிரூபிக்கப்பட்டிருந்தாலும்
     அ஥ன்மீது அவநம்பிக்கை கொள்வதற்கும் சாத்தியம்
     இருக்கிறது.</p>

<p>     (ஹோட்டல் முதலாளி கட்டிலின் முனையிலிருந்து
     எழுந்து நிற்கிறார்.)</p>

<p>ஹோ. முதலாளி: நீங்கள் சொல்வதும் சரி என்றே வைத்துக்
     கொள்வோம். சதியில் பங்குகொண்ட உங்களுடைய
     நண்பர்களைக் காப்பாற்ற வேண்டும் என்ற உங்கள்
     விருப்பத்தை என்னால் புரிந்துகொள்ள முடிகிறது.
     ஆனால் நீங்கள் இதுவரை கூறிவந்த உங்களுடைய
     அசைக்க முடியாத கொள்கைகளைக் கடைப்பிடிப்பதன்
     மூலம் உங்களை நீங்கள் காப்பாற்றிக்கொள்ள முடியாது
     என்பதும் உங்களுக்கும் தெரியும். எனினும் உங்களுக்~
     கும் எங்களுக்கும் ஏற்ற வேறு மாற்றுவழி ஒன்று இருப்~
     பதையும் நீங்கள் சற்றுமுன் தெரிந்துகொண்டிருப்பீர்~
     கள். உங்களைக்கூடக் காப்பாற்றிக்கொள்ள வாய்ப்புகள்
     இருக்கின்றன. நீங்களும் எங்களுடன் இந்த இடத்தை
     விட்டு வெளியேறலாம். நீங்கள் மன்னிக்கப்படலாம்.</p>

<p>ஸாஸோன்: மன்னிப்பா? எ஥ற்காக? காட்டிக்கொடுப்~
     பதற்கா?</p>

<p>-40-</p>

<p>ஹோ. முதலாளி: நீங்கள் கவர்னரை நோக்கிச் சுட்டிருக்~
     கிறீர்கள். இருந்தாலும் தண்டனை ஏதுமின்றித் தப்~
     பித்துக்கொள்ள கவர்னர் உங்களுக்கு ஒரு வாய்ப்பைத்
     தந்திருக்கிறார்!</p>

<p>கான்ஸல்: அதிகார வர்க்கத்தின் தயாள குணம் புரிந்து
     கொள்ள முடியாத ஒன்று. ௟ார் அ஥ற்குப் பாத்திர~
     மாகிறார்களோ, அவர் மகிழ்ச்சியடைவதற்஖ு இ஠மே
     இல்லை. கடவுள் அவரைக் காப்பாற்றுவாராக.
     ஆமென்.</p>

<p>ஹோ. முதலாளி: கவர்னருக்கு உதவுகிறேன் என்று நீங்கள்
     அறிவித்தால் மட்டும் போதும்.</p>

<p>இ஼இஞ்சினியர்: அவ்வாறு தப்புவதன் மூலம் நீங்கள் உங்களை
     மட்டும் காப்பாற்றிக்கொள்ளவில்லை.</p>

<p>வங்கி அதிகாரி: இ஥ன் முக்கியத்துவம் உங்களுக்குப் புரி~
     கிறதா?</p>

<p>ஸாஸோன்: அதை என்னால் அனுமானிக்க முடிகிறது!</p>

<p>இஞ்சினி௟ர்: அப்படியானால் ஏன் இன்னும் காலம் கடத்து~
     கிறீர்கள்?</p>

<p>ஸாஸோன்: நான் இ஥ற்குப் பிறகும் உயிர் வாழ்ந்தால்,
     எங்கள் லட்சியம் தோல்வி அ஠ைந்துவிட்டது என்று
     தான் பொருள். எங்கள் கொலை முயற்சி தோற்று
     விட்டது என்றுதான் கருத வேண்டும். எவ்வாறு சாக
     வேண்டும் என்று ஒருவன் செய்யும் முடிவில் தவறு
     நேரலாம். எவ்வாறு சாக வேண்டும் என்று நானே
     முடிவெடுத்திருக்கிறேன். இப்படிப்பட்ட முடிவு ஒன்~
     றைத்தான் நான் ஏற்றுக்கொள்ள முடியும். தயவு
     செய்து என்னைப் புரிந்துகொள்ளுங்கள். என்னுடைய
     கொள்கைகளைக் கைவிட்டுவிட்டாலோ அல்லது என்
     நண்பர்களைக் காட்டிக்கொடுத்தாலோ நீங்கள் மீண்டும்
     சுதந்திரமாக நடமாடமுடியும் என்பதை நான்
     அறிவேன். ஒரு குறிப்பிட்ட சூழலில் கவர்னர் பக்கம்
     சேர்கிறேன் என்று சொல்லவும் முடியும் என்பதையும்
     என்னால் எண்ணிப்பார்க்க முடிகிறது. ஆனால் அவ்~
     வாறு செய்தால் என் வாழ்க்கைக்கு அர்த்தம் கற்பிக்~
     கும் சாவை நான் இழக்க நேரிடும். நீங்களோ அல்லது
     கவர்னரோ கருதுவதுபோல் நான் உயிர்வாழ நினைத்~
     தால், அது எங்கள் தியாகிகளை அவமதிப்பதாகும்.
     என் நண்பர்கள் மேற்கொண்ட துன்பங்களையெல்லாம்</p>

<p>-41-</p>

<p>     சிறுமைப்படுத்துவதாகும். எங்கள் கொள்கைகளை,
     அழுக்கான சட்டையைப்போல் நினைத்துக் கழற்றி எறி~
     வதற்கு ஒப்பாகும். என் நண்பர்களின் மரணம் கேலிக்~
     கூத்தாகிவிடும். நீங்கள் எ஥ிர்பார்ப்பது போல நான்
     நடந்துகொண்டால் இத்தகைய கீழ்த்தரமான நிலைக்கு
     என்னை நான் உ஠்படுத்திக்கொள்ள நேரிடும்.</p>

<p>இஞ்சினியர்: (சற்று அச்சுறுத்தும் தோரணையில்) நீங்கள்
     ஒன்றை மறந்துவிட்டீர்கள். வாழ வேண்டும் என்ற
     உரிமை எங்களுக்கு உண்டு.</p>

<p>ஸாஸோன்: சாக வேண்டும் என்ற உரிமை எனக்கு உண்டு.</p>

<p>     (அமைதி. என்ன செய்வது என்பது தெரியாமல் ஒரு~
     வரை ஒருவர் பார்த்துக்கொள்கிறார்கள். பின்பு வேறு~
     புறம் திரும்பிப் பார்க்கிறார்கள்.)</p>

<p>வங்கி அதிகாரி: சீ! என்ன இழவு இது! நாம் ஒரு முடிவுக்கு
     வரத்தான் வேண்டும். இந்த முடிவைப் பொறுத்துத்~
     தான் நம் முடிவும் இருக்கிற஥ு.</p>

<p>ஹோ. முதலாளி: இது எனக்கு மிகுந்த ஏமாற்றத்தைத் தரு~
     கிறது.</p>

<p>கான்ஸல்: யார் உங்களை ஏமாற்றியிருக்கிறார்கள்? எந்த நிலை~
     யிலும் இலக்குத் தவறாத இந்த மாவீரரா? நீங்கள்தான்
     அவர் சொன்னதைக் கேட்டீர்களே. இவர் ஒரு கொலை~
     காரர் மட்டும் அல்ல. ஒரு தியாகியாக மாறவும் விரும்~
     புகிறார். இப்படிப்பட்டவர்கள் மிகவும் பயங்கரமான~
     வர்கள். அவரை வழிக்குக் கொண்டுவருவதில் சிர~
     மங்கள் இருக்க஼ும் என்றுதான் நானும் நினைத்தேன்.
     தியாகிகளாக மாற வேண்டும் என்று நினைப்பவர்கள்
     எல்லோருமே ஒருவிதத்தில் கொலைகாரர்களே:
     நல்லது கெட்டது எது என்பதைப்பற்றியும் ஒரு
     கொள்கைக்காகச் சாவது எவ்வளவு உயர்ந்தது என்~
     றும் இவர்கள் நமக்குப் போதிப்பார்கள். தங்களைப்
     போலவே மற்றவர்களும் உயிர்விடத் தயாராக இருக்க
     வேண்டுமென்று வற்புறுத்துவார்கள். ரத்த ஆறு ஓ஠ு~
     வதை இவர்கள் முழுமையாக ஏற்றுக்கொண்டிருக்~
     கிறார்கள். ரத்த ஆறு ஓடுவது ஒரு உ௟ர்ந்த குறிக்~
     கோளை அடைவதற்குத்தான், சாதாரணக் குறிக்கோ~
     ளுக்காக அல்ல என்பது இவர்கள் கோட்பாடு. எவ்வள~
     வுக்கு எவ்வளவு இவர்களின் துயர் கடுமையாகிறதோ,
     அவ்வளவுக்கு அவ்வளவு இவர்களுடைய கொள்கைப்</p>

<p>-42-</p>

<p>     பிடிப்பு என்ற வெறியும் முற்றுகிறது. இவர் பேச்சு
     எனக்கு ஏமாற்றத்தைத் தரவில்லை. மக்களைக் காப்~
     போர் என்று சொல்லிக்கொள்ளும் கூட்டத்தினரை
     என்னால் ஏன் சகிக்க முடியவில்லை என்பதை நான்
     அறிவேன். நமக்கு இப்போது தேவை எதிலும் அக்கறை~
     யில்லாத விட்டேற்றியான மனநிலை. உண்மையாகச்
     சொன்னால் எதிலும் அக்கறையில்லாத விட்டேற்றி~
     யான மனநிலையுள்ளவர்களுக்காக நாம் ஒரு கட்சி
     தொடங்க வேண்டும்.</p>

<p>     (இஞ்சினியர் சுவரில் சாய்ந்து நிற்கிறார்.)</p>

<p>இஞ்சினியர்: (சோர்வுடன்) இனியும் என்னால் பேச முடி~
     யாது. எனக்குக் குடிப்பதற்கு ஏதாவது உ஠னே
     வேண்டும்.</p>

<p>வங்கி அதிகாரி: இனியும் ஏதாவது நிகழும் என்று நாம்
     நினைப்பதில் அர்த்தமில்லை. கவர்னர் ஒருவர் நினைத்~
     தால்தான் ஏதாவது நடக்கும். நாம் ஏதாவது செய்தே
     தீரவேண்டும்.</p>

<p>டாக்டர்: முடியாது! இப்போது முடியாது. இந்த மனிதர்
     கொடிய முறையில் துன்புறுத்தப்பட்டிருக்கிறார் என்~
     பதை மறந்துவிடாதீர்கள். இவருக்கு இன்னும் அவ~
     காசம் கொடுங்கள்.</p>

<p>     (லாரி ஓட்டி தரையில் படுத்துக்கொள்கிறான்.)</p>

<p>லாரி ஓட்டி: நான் சிறிது நேரம் தூங்க வேண்டும். இரவு
     முழுவதும் வண்டி ஓட்டிய களைப்பு. தாங்க முடியாத
     பசி வேறு. ஏதாவது எ஥ிர்பாராத மாறுதல் ஏற்பட்~
     டால் என்னை எழுப்புங்கள்.</p>

<p>கான்ஸல்: எ஥ிர்பாராத மாறுதல் எதுவும் இங்கு நிகழ சாத்~
     தியம் இல்லை.</p>

<p>     (வெளிச்சம் குறைந்து அரைகுறை இருள் சூழ்ந்திருக்~
     கிறது. ஒன்பது மனிதர்களும் படுத்துக்கொண்டும்
     நின்றுகொண்டும் ஆடாமல் அசையாமல் இருக்கின்ற~
     னர். திடீரென்று எங்கும் காரிருள். மாணவனும் அ஛்ச~
     கத் தொழிலாளியும் அருகருகில் இருக்கிறார்கள்.)</p>

<p>மாணவன்: (மெல்லிய குரலில்) உங்களுடைய கை இன்னும்
     வலிக்கிறதா?</p>

<p>அ. தொழிலாளி: (வாயால் ஊதிக்கொண்டே) பாருங்கள்,
     இந்த விரலை. சவுக்கினால் ஏற்பட்ட காயத்தை.</p>

<p>-43-</p>

<p>     (வாயால் ஊதிக்கொண்டே) கடவுளே! எப்படி எரி~
     கிறது! மிகவும் வலிக்கிறது. எல்லாம் இந்த மடைய~
     னால்தான்.</p>

<p>மாணவன்: நான் உங்களுக்கு உதவட்டுமா? மனப்பூர்வமாக
     உதவ விரும்புகிறேன்.</p>

<p>அ. தொழிலாளி: முதலில் நான் இங்கிருந்து வெளியேற
     வேண்டும்.</p>

<p>மாணவன்: அப்படியா?</p>

<p>அ. தொழிலாளி: பதினான்கு ஆண்டுகளாகக் குழந்தை
     வேண்டும் என்று நானும் என் மனைவியும் ஆசைப்பட்~
     டோம். இப்போதுதான் குழந்தை பிறந்திருக்கிறது.
     வியாதிகளுடன், கால்கள் குட்டையாக. இன்னும் எவ்~
     வளவு காலந்தான் இவர்கள் நம்மை இங்கு அடைத்து
     வைத்திருப்பார்கள்! என்னுடைய மனைவியால் எழுந்து
     நடமாடக்கூட முடியாது.</p>

<p>மாணவன்: இங்கு இருக்கும் சூழ்நிலையை மாற்ற நம்மால்
     முடியாது!</p>

<p>அ. தொழிலாளி: (ஊதிக்கொண்டே) இன்னும் எரிகிறது.
     விரலை வெட்டிவிட்டால் என்ன?.... நீங்கள் ஏதோ
     சொல்ல வந்தீர்கள் போலிருக்கிறதே.</p>

<p>மாணவன்: (தலை அசைப்பின் மூலம் ஸாஸோனைச் சுட்டிக்
     காட்டியபடி) இவரைப்பற்றித்தான்.</p>

<p>அ. தொழிலாளி: எல்லாம் இவரால் வந்ததுதான்.</p>

<p>மாணவன்: நிச்சயமாக இல்லை! நம்மைப்போல இவரும்
     குற்றமற்றவர். மரணத்தை ஏற்கனவே இவர் ஏற்றுக்
     கொண்டுவிட்டார்.</p>

<p>அ. தொழிலாளி: சாவதற்குத் தயார் என்று இவர் எளிதாக
     ஒப்புக்கொண்டிருக்கிறார்.</p>

<p>மாணவன்: சாவை ஒரு எ஥ிர்ப்பு என்று நினைத்தாலும்
     யாருமே சாவதற்கு எளிதில் தயாராவதில்லை. ஥ன்
     செயலை நியாயப்படுத்தும் சாட்சியத்தை இவர் சாவில்
     தேடுகிறார். மரணத்திற்கு முன்பே மனம் சாகத்
     தொடங்கிவிடுகிறது.</p>

<p>அ. தொழிலாளி: நீங்கள் இவர் பக்கம்தானே?</p>

<p>மாணவன்: நான் தியாகிகளின் பக்கம். எப்போதும் நான்
     தியாகத்தின் பக்கம்தான். இவர் தன்னுடைய கொள்஼கைகளுக்கு</p>

<p>-44-</p>

<p>     அடிமை. இவர் வாழ்க்கையில் ஒரு குறிக்~
     கோள்தான் இருந்தது. அதாவது கவர்னரைக் கொலை
     செய்வது. அது மிகச் சிறிய குறிக்கோள். தியாகத்து஖்~
     குத் தயாரானவர்கள் ஒரு கணமே வாழ்கிறார்கள்.
     ஆனால் அவர்கள் என்றும் இறந்துகொண்டே~
     யிருக்கிறார்கள். அ஥னால்தான் இவர்மீது எனக்குப்
     பரிதாபம் ஏற்படுகிறது.</p>

<p>லாரி ஓட்டி: (கோபத்துடன்) அமைதி! சில மணி நேரம்
     கூடத் தூங்கமுடியாது போலிருக்கிறதே.</p>

<p>கான்ஸல்: அலுத்துக்கொள்ளாதீர்கள். ஒரு மணி நேரத்
     தூக்கம் எனக்குப் போதுமானதாகத் தோன்றுகிறது.</p>

<p>லாரி ஓட்டி: உங்களைப் போன்ற வயதானவர்களுக்குத்
     தூக்கமே தேவையில்லைதான். ஆனால் எனக்குத் தூக்கம்
     தேவை. நேற்று இரவு முழுவதும் தூங்காமல் நான்
     வண்டி ஓட்டியிருக்கிறேன்.</p>

<p>கான்ஸல்: உங்களுக்கிருக்கும் திறமை எனக்குக் கிடையாது.
     இரவில் வியர்வைப் பெருக்கு ஏன் ஏற்படுகிறது என்று
     நான் கடந்த மூன்று மாதங்களாக ஆராய்ந்து வரு~
     கிறேன்.</p>

<p>லாரி ஓ஠்டி: வாயை மூடுங்கள். ஆரம்பத்திலிருந்தே உங்கள்
     பேச்சு எனக்குச் சலிப்பாக இருக்கிறது. நீங்கள் கோமா~
     ளித்தனமாகப் பேசுகிறீர்கள்.</p>

<p>கான்ஸல்: ஒவ்வொருவரின் தலைவிதியும் அது நிர்ணயிக்கப்~
     படும் ஒவ்வொரு காலகட்டத்திலும் ஒரு அரசவைக்
     கோமாளி இருக்கவேண்டியதன் அவசியத்தை வற்~
     புறுத்துகிறது. குறைந்தது நூறு இரவுகளாவது தூங்~
     காமல் விழித்திருந்தால் உங்களுக்கும் இந்த உண்மை
     புலப்படும். உண்மையைச் சொல்ல வேண்டும் என்றால்,
     மனித குலத்திற்கு இ஥ு என் பிறந்த நாள் பரிசு: நூறு
     நாட்கள் தூக்கமின்மையும், பழுதடைந்஼த ரத்த நாளங்~
     களும்....</p>

<p>     (இந்தப் பேச்சினால் தூக்கத்திலிருந்து ஒவ்வொருவராக
     விழித்து எழுகிறார்கள். என்ன நடக்கிறது என்று
     புரிந்துகொள்ள முனைகிறார்கள்.)</p>

<p>வங்கி அதிகாரி: இப்போது மணி என்ன? யாரிடமும் கடி~
     காரம் இல்லையா?</p>

<p>ஹோ. முதலாளி: நான் தூங்கிவிட்டேன் போலிருக்கிறது.</p>

<p>-45-</p>

<p>கான்ஸல்: நல்ல மகிழ்ச்சிகரமான பள்ளியெழுச்சி வாழ்த்~
     துகளை உங்களுக்கு நான் சொல்லிக்கொள்கிறேன்.</p>

<p>ஹோ. முதலாளி: நீங்கள் இன்னும் இங்குதான் இருக்கிறீர்~
     களா?</p>

<p>கான்ஸல்: இ஥ில் வியப்படைய எதுவும் இல்லையே! இந்தச்
     சிறையை உங்களுடன் பகிர்ந்துகொள்ள வாய்ப்பு ஏற்~
     பட்ட நிமிடத்திலிருந்து நான் இங்கு இருப்பதை நீங்கள்
     ஏற்றுக்கொள்ளத்தான் வேண்டும்.</p>

<p>விவசாயி: (அரைத்தூக்கத்தில்) குஸி, குஸி, குஸி, குஸி....</p>

<p>கான்ஸல்: என்ன சொல்கிறீர்கள்?</p>

<p>ஹோ. முதலாளி: (இகழ்ச்சியுடன்) கண் விழித்தால்
     போதும், ஆ஠்டைக் கூப்பிடுவதுதான் இவருக்கு
     வேலை.</p>

<p>     (வங்கி அதிகாரி கம்பிகளின் அருகில் செல்கிறார்.)</p>

<p>வங்கி அதிகாரி: என்ன அ஥ற்குள்ளாகவா பொழுது விடிந்து
     விட்டது? காவலாளி!</p>

<p>காவலாளி:  என்ன வேண்டும் ஐயா?</p>

<p>வங்கி அதிகாரி: இ஫்போது மணி என்ன?</p>

<p>காவலாளி: மன்னிக்க வேண்டும் ஐ௟ா, என்னிடம் கடிகாரம்
     இல்லை. மணி என்ன என்று எனக்குத் தெரியாது.</p>

<p>கான்ஸல்: காவலாளிகளுக்கு காலநேரத்தைப்பற்றி என்ன
     அக்கறை? அவருக்கும் நமக்கும் உள்ள பெரிய வேறு~
     பாடே இதுதான்.</p>

<p>வங்கி அதிகாரி: என்னால் இனியும் தாங்க முடியாது.</p>

<p>இஞ்சினியர்: எனக்கு நாக்கு வறண்டுவிட்டது.</p>

<p>     (வங்கி அதிகாரி பொறுமை இழந்து பின்பு அப்படியே
     தரையில் சாய்கிறார்.)</p>

<p>வங்கி அ஥ிகாரி: நாம் எல்லோரும் நிரபராதிகள், இவரைத்
     தவிர. இவரால்தான் நமக்கு இந்த நிலை. நாம் ஏதா~
     வது ஒரு முடிவுக்கு வர வேண்டும்.</p>

<p>கான்ஸல்: பிரச்னைகளுக்குத் தீர்வு காண்பதை இங்கித~
     மின்மை என்று எப்போதும் கருதுபவன் நான். ஆனா~
     லும் முகச்சவரம் செய்துகொள்வது எவ்வாறு ஒரு
     வசதியோ அவ்வாறே சில சமயங்களில் இங்கிதமின்மை~
     யும் தேவையான ஒரு வசதிதான்.</p>

<p>-46-</p>

<p>     (இஞ்சினியர் கட்டில் அருகில் செல்கிறார். ஏதோ ஒரு
     தீர்மானத்திற்கு வந்தவரைப்போல் ஸாஸோனைப்
     பார்க்கிறார்.)</p>

<p>இஞ்சினியர்: (கரகரத்த, ஆணையிடும் குரலில்) எழுந்திருங்~
     கள்!</p>

<p>டாக்டர்: இந்த மனிதரால் எழுந்து நிற்க முடியாது. இவர்
     வலியால் வேதனைப்பட்டுக்கொண்டிருக்கிறார்.</p>

<p>இஞ்சினியர்: நமக்கு வேறுவிதமான வேதனைகள் இருக்~
     கின்றன.</p>

<p>ஸாஸோன்: பரவாயில்லை டாக்டர், நான் எழுந்து நிற்~
     கிறேன்.</p>

<p>     (மிகுந்த பிரயாசையுடன் எழுந்து, சுவரின் அருகில்
     சென்று அ஥ன்மீது சாய்ந்துகொண்டு நிற்கிறான்.)</p>

<p>இஞ்சினியர்: (ஆச்சரியத்துடனும் பின்பு சற்றுத் தயக்கத்~
     துடனும்) எங்களுடைய முடிவை நீங்கள் கவனமாகக்
     கேட்டிருப்பீர்கள் என்று நினைக்கிறேன். நாங்கள் எப்~
     படியும் ஒரு முடிவுக்கு வரத்தான் வேண்டும். தயவு
     செய்து எங்கள் நிலைமையைப் புரிந்துகொள்ள முய~
     லுங்கள். ஒன்பது நிரபராதிகள் இங்கு இருக்கிறார்கள்.
     உங்களுடைய முடிவுக்காகக் காத்திருக்கிறார்கள்.
     நீங்கள் ஒரு முடிவுக்கு வரவேண்டும் என்று கூற அவர்~
     களுக்கு உரிமை இருக்கிறது.</p>

<p>ஸாஸோன்: எந்தவிதமான முடிவை நீங்கள் எ஥ிர்பார்க்~
     கிறீர்கள்?</p>

<p>இஞ்சினி௟ர்: உங்களுடைய கூட்டாளிகளின் பெயர்களைச்
     சொல்லுங்கள். உங்களைத் தவிர, வேறு சிலரும் இந்தக்
     கொலை முயற்சியில் பங்கு கொள்ளவில்லையா?</p>

<p>ஸாஸோன்: என்னைத் தவிர நான்கு பேர். ஒருவன் அருகில்
     இருந்த கட்டிடக் கூரை மீதிருந்து வெடிகுண்டை வீசி
     எறிந்தான். ஆனால் குண்டு வெடிக்கவில்லை. மற்ற
     மூவரும் நெடுஞ்சாலையில் காத்திருந்தார்கள். வீணாகக்
     காத்திருந்தார்கள். நான் சுட்ட பிறகு, அவர்கள் வேறு
     வழியில் துறைமுகத்தை நோக்கிக் காரில் சென்றார்க஼ள்.
   </p>

<p>               0 
</p></body></text></cesDoc>