<cesDoc id="tam-w-science-physics-6radar1" lang="tam">
<cesHeader type="text">
<fileDesc>
<titleStmt>
<h.title>tam-w-science-physics-6radar1.txt</h.title>
<respStmt>
<respType>Electronic file created by</respType>
<respName>Central Institute for Indian Languages, Mysore</respName>
<respType>transferred into Unicode and CES format by</respType>
<respName>"Unicodify" software by Andrew Hardie</respName>
</respStmt></titleStmt>
<publicationStmt>
<distributor>UCREL (on behalf of CIIL)</distributor>
<pubAddress>Department of Linguistics, Lancaster University, Lancaster, LA1 4YT, UK</pubAddress>
<availability region="WORLD"></availability>
<pubDate>03-07-04</pubDate>
</publicationStmt>
<sourceDesc>
<biblStruct>
<monogr>
<h.title>ராடர்களை அறிந்துக஼ொள்ளுங்கள்</h.title>
<h.author>லேனா தமிழ்வாணன்</h.author>
<imprint>
<pubPlace>India</pubPlace>
<publisher>Unknown - Book</publisher>
<pubDate>1989</pubDate>
</imprint>
<idno type="CIIL code">6radar1</idno>
</monogr></biblStruct></sourceDesc></fileDesc>
<encodingDesc>
<projectDesc>Text collected for the CIIL Corpus, subsequently integrated into the EMILLE/CIIL Monolingual Written Corpora.</projectDesc>
<samplingDesc>Simple written text only has been transcribed. Diagrams, pictures and tables have been omitted. Sampling begins at page 36.</samplingDesc>
<editorialDecl><conformance level="1"></conformance></editorialDecl>
</encodingDesc>
<profileDesc>
<creation><date>03-07-04</date></creation>
<langUsage>Tamil</langUsage>
<wsdUsage>
<writingSystem id="ISO/IEC 10646">Universal Multiple-Octet Coded Character Set (UCS).</writingSystem>
</wsdUsage>
<textClass>
<channel mode="w">print</channel>
<constitution type="composite"></constitution>
<domain type="public"></domain>
<factuality type="fact"></factuality>
</textClass>
<translations></translations>
</profileDesc>
<revisionDesc></revisionDesc>
</cesHeader>

<text><body>

<p>-39-
	விமானப்படை ராடார் செயல்படும் விதத்தை விளக்க
சிவில் விமான ராடாரையும்; கப்பல்படை ராடாரை விளக்க
வணிகக்கப்பல் ராடாரையுந்தான் நாம் விளக்கியாக
வேண்டும். இருப்பினும், தற்காலத்தில் மற்றெல்லாத்துறை~
களிலும் விட இராணுவத்துறையில் தான் ராடார் பெருமளவில்
பயன்படுத்தப் பட்டுக் க஼ொண்டிருக்கிறது. அதனால் தான்,
விமானப்படை ராடார், கப்பல்படை ராடார், ஏவுக஼ணைப்
படை ராடார், தரைப்படை ராடார் என்னும் அடிப்படை~
யில் பிரிக்க வேண்டியுள்ளது.</p>

<p>	ஏற்கனவே அறிந்தபடி, வாட்சன் வாட் கண்டுபிடித்த
தொடக்க கால ராடார் கருவிகள் எதிரி விமானங்கள்
வருவதை முன்கூட்டி அறிந்து தெரிவிப்பதற்காகவே ப௟ன்
பட்டன. அதனால்தான், மற்றெல்லாப் பிரிவினரையும்஼விட
விமானப் படையினரிடம் ராடார் கருவிகள் அதிக அளவில்
இருந்து கொண்டிருக்கின்றன. ஏவுகணைப்படைகள் நிறுவப்
பட்டதும், ராடார் சாதனங்கள் வைத்திருப்பதில் இதர
படைப்பிரிவுகளைக் காட்டிலும் அது முதல் இடத்தைப்
பெற்றுவிட்டது. இன்னும் நீண்ட காலத்திற்கு அதுவே
முதலிடம் வகிக்கும் என்பதும் உறுதி.</p>

<p>	இருந்தாலும், வரலாற்று வரிசைப்படி விமானப்படையி~
லும், விமானப் போக்குவரத்திலும் ராடார்கள் ஆற்றும்
பணியையே முதலில் அறிவோம்.</p>

<p>
ராடாரும் விமானப் போக்குவரத்தும்</p>

<p>	வானிலை ஆய்வாளர்களை விமானிகள் எப்பொழுதுமே
வழிகாட்டும் தெய்வங்களாகத்தான் போற்றிக் கொண்டிருக்~
கின்றனர். எனவே, இன்றைய வானிலை ஆராய்ச்சி~
யாளர்கள் பயன்படுத்திக் கொண்டிருக்கும் வானிலை ஆய்வு
ராடாரைப்பற்றி முதலில் அறிந்து கொள்வது நல்லது.</p>

<p>	வானிலை ராடார் மேகத்திரள்கள், புயல் முனைகள்
ஆகியவற்றின் இடநிலையைக் கண்டறிகிறது; மழை,
-40-
பனி முதலியவற்றின் விகித அளவுகளை நிர்ணயிக்கிறது;
சூறாவளிகளும் புயல்களும் தோன்றும் இடங்களையும்,
அவை பரவக்கூடிய பாதைகளையும், திசை மற்றும்
இடங்களையும் இடையறாது கவனித்துக் கொண்டிருக்~
கிறது. இப்படிச் சேகரிக்கப்படும் தகவல்களைக் கொண்டு
வானிலை அறிக்கைகள் தயாரிக்கப்஼படுகின்றன. அவை
விமான நிலையங்களுக்கும் விமானப் போக்குவரத்துக்
கண்காணிப்பு கேந்திரங்களுக்கும் உடனுக்குடன் அனுப்பப்~
படுகின்றன.</p>

<p>	வானத்திலேயே பறக்கும் ராடார்களைக் கொண்டு
தகவல்களைச் சேகரிப்பதற்கான ஒரு திட்டம் அமெரிக்கா~
வில் அண்மை ஆண்டுகளில் முன் வைக்கப் பட்டிருக்~
கிறது. 22 விமானங்கள் விண்ணில் இடையறாது பறந்து
வானிலை விவரங்களைச் சேகரித்து வருமானால், பூமியின்
அனைத்துப் பகுதிகளுக்குமான வானிலையை அறிவிக்க
முடியும் என்று அமெரிக்க வல்லுநர்கள் கூறுகிறார்கள்.</p>

<p>	தற்காலத்தில் இராணுவ விமானங்கள் தரை இ஼இறங்கவும்,
புறப்பட்டுச் செல்லவும் குறைந்தது ஓர் ஓடுபாதையாவது
இராணுவத் தளங்களில் இருக்கும். போக்குவரத்து
நெரிசலைக் கட்டுப்஼படுத்தப் போக்குவரத்துக் கட்டுப்~
பாட்டு ராடாரைப் பயன்படுத்த வேண்டியதிருக்கிறது. இந்த
வகை ராடார்கள் பெரும்பாலும் கணிப்புப்பொறி எனப்படும்
கம்ப்யூட்டருடன் இணைந்தே செயல்பட்டு விமானங்கள்
தரையிறங்கவும் புறப்படவும் அனுமதியளிக்கிறது. அதற்கு
முன் விமானம் புறப்படுவதற்கு எடுத்துக் கொள்ளும் நேரம்,
எந்த விமானம் முதலில் புறப்படவேண்டும், எது முதலில்
இறங்க வேண்டும் என்பன குறித்த வரிசைக்கிரமம், ஓடு~
பாதையில் ஏற்கனவே நிற்கும் விமானங்கள் முதலிய
விவரங்களை கம்ப்யூட்டர் கணக்கெடுத்துக் கொள்கிறது.
-41-
	இப்படிப்பட்ட விமான நிலையக் கண்காணிப்பு ராடார்
ஒன்று, குறிப்பிட்ட விமான ஓடுபாதையையும் ஊர்தி வழி~
களையும் கண்காணித்து, ஒரு மணி நேரத்தில் எண்பது
விமானங்கள் வரை தரை இறங்கவோ, புறப்பட்டுச்
செல்லவோ வழி செய்யக் கூடியதாகும். ராடார் இல்லாமல்
இந்தப் பணியை மனிதர்களால் சமாளிக்க இயலாது.</p>

<p>	சோவியத் நாட்டில் யூட்டஸ் என்னும் ஒரு ராடார்
அமைப்பு இப்பணியைச் செய்கிறது. இந்த அமைப்பு
பல நூறு மைல்களுக்கு அப்பால் வரும் விமானங்~
களையும், ஆயிரக்கணக்கான மீட்டர் உயரத்தில் வரும்
விமானங்களையும் கண்டுபிடித்து, அவற்றைத் தொடர்ந்து
பின்பற்றி, விமான நிலையத்தை வந்தடையும்வரை கண்~
காணிக்கிறது. விமானம் கண்டறியப்஼பட்டதும், சில விநாடி~
களில் வந்த விமானத்தை அடையாளம் கண்டு கொள்~
கிறது.</p>

<p>	விமானத்தின் திசையில் கோணத்தையும்
குத்துயரத்தையும் கணிப்பதுடன், அதில் மீதமுள்ள
எரிபொருளின் அளவையும் கண஼க்கிட்டு விடுகின்றது. இந்த
யூட்டஸ் ராடார் முதன்஼முதலாக மாஸ்கோ வட்டாரத்தில்
விமானப் போக்குவரத்துக் கண்காணிப்பில் செயல்பட ஆரம்~
பித்தது. இன்று வரை அதன் சேவை துல்லியமாகவும்
நம்பகமானதாகவும் விளங்கிக் கொண்டிருக்கின்றது.</p>

<p>	இந்த வகையான ராடார் அமைப்பினால் ஒரே சமயத்~
தில் 200 விமான ஓடுபாதைகளைக் கூட கண்காணிக்க
இயலும். உதாரணமாக, இந்த யூட்டஸ் வகை ராடார்
ஒன்று பிரஸ்ஸல்ஸ் நகர விமான தளத்தில் இருந்தால்,
அதைக் கொண்டு மேற்கு ஐரோப்பாவிலுள்ள பெரிய விமான
நிலையங்களில் நடக்கும் நிமானப் போக்குவரத்து
முழுவதையும் கண்காணிக்கலாம், கட்டுப்படுத்தலாம்.
-42-
	இந்த வகை ராடார், விமானங்களிலிருந்து விமான
நிலையத்தை நோக்கி வரும் சைகைகளை
கிரகித்து, கணிப்பு மையத்திற்கு அனுப்புகிறது. கணிப்பு
மையம் அந்த விமானங்களை அடையாளம் கண்டு, அவை
வரும் பாதைகளைத் தன் நினைவில் சேகரித்து வைக்கப்
பட்டுள்ள முறையான பாதைகளுடன் ஒப்பிட்டுப் பார்க்கிறது.
எந்த விமானமாவது அதற்குரிய முறையான பாதையிலிருந்து
விலகிச் செல்லுமானால் அல்லது அங்கீகாரம் பெறாத அந்நிய
விமானம் ஏதாவது காற்று வெளியில் குறுக்கிடுமானால்,
உடனே அந்த விமானத்தை யூட்டஸ் ராடார் எச்சரிக்கும்.</p>

<p>	இம்மாதிரியான ராடார் அமைப்புகள், ஫றந்து கொண்~
டிருக்கும் விமானங்களையும் கண்டறிந்து அவற்றுக்கு உதவி~
புரியும். நிலையத்தில் விமானங்கள் இறங்கும்போது, பார்
எனப்படும் துல்லிய அணுகுவழி ராடார்
அவற்றுக்கு உதவி புரிகிறது. இந்த
ராடார் வகையில் ஒன்று, ஒரே சமயத்தில் இரு ரேடியோ
அலைக்கற்றைகளைப் பயன்படுத்துகிறது. விமானத்தை
ஓடுபாதையின் மையக் கோட்டை வந்தடையுமாறு வழி
காட்ட ஒரு ரேடியோ அலை பயன்படுகிறது. இதற்குரிய
அனுகூல மென்சரிவுப் பாதையில்
விமானத்தை இறங்கி வரச் செய்வதற்காக இரண்டாவது
அலைக்கற்றை பயன்படுகிறது.</p>

<p>	ஒவ்வொரு கற்றையும் விமான நிலையப் போக்கு~
வரத்து அலுவலரின் முன்னால் உள்ள அதற்குரிய ராடார்த்~
திரையில் ஓர் ஒளிப்புள்ளியைத் தோற்றுவிக்கிறது.
இத்திரைகளைக் கவனித்துவரும் அலுவலர் சரியான
தலைப்பாதையிலிருந்தோ, வளைவுச் சரிவி~
லிருந்தோ விமானம் விலகுவதை உடனே தெரிந்துகொண்டு
விமானிக்கு அறிவித்து, உரிய பாதைக்குத் திரும்பும்படி
செய்கிறார்.
-43-
	போக்குவரத்து அலுவலர், விமானி ஆகிய இருவருக்கும்
பதில் கணிப்புப் பொறியைக்஼கொண்டே இந்த வேலைகளை
நடந்தேறச் செய்யலாம். கணிப்புப்பொறி விமானம் விலகிச்
செல்வதை உடனே கண்டுகொண்டு விமானத்தை சரி~
யான பாதைக்கு வருமாறு செய்யும். இந்த அமைப்புக்குத்
தானியங்கித் தரைக்கட்டுப்பாடு அணுகுவழி ராடார்
அமைப்பு அல்லது GCA
என்னு பெயராகும்஼.</p>

<p>	எந்த விதமான வானிலையிலும், கண் தெரியாத மோச~
மான சூழ்நிலையிலும் விமானங்கள் அபாயமின்றித் தரை
இ஼இறங்குவதற்கு இந்த வகை ராடார்கள் வகை செய்கின்றன.
எந்த விதமான வானிலையிலும் ஓய்வு ஒழிவில்லாமல் செயல்
படும் போர்விமானங்களும் இம்மாதிரியான தானியங்கித்
தரைக் கட்டுப்பாட்டு ராடார் அமைப்பின்றி இயங்க முடியாது.</p>

<p>	இராணுவத்துறையில் முதன்முதல் பயன்படுத்தப்பட்ட
ராடார் முன் எச்சரிப்பு ராடார் ஆகும்.
முன் எச்சரிப்பு ராடார் அமைப்பு, வலிமைமிக்க அலைப்பர஼ப்பி~
களையும் மிகப் பெரிய ஏரியல்களையும் கொண்டதாகும்.
முன்னணிப் படைத்தளங்களில் இவ்வகை ராடார்கள் அமைக்~
கப்஼பட்டிருக்கும். அதனால் எதிரி விமானங்கள் தொலைவில்
வரும்போதே அவற்றின் வருகையை இவை தெரிவிக்~
கின்றன. இவ்வாறு இயங்கும் முன் எச்சரிப்பு௃ராடார் விமானப்
போக்குவரத்துக்குக் கட்டுப்பாட்டு ராடாரைப்போல்
ஏறத்தாழ அதே அடிப்படையில் தான் செயல்படுகிறது.
ஆனால், இதன் குறிக்கோள் முற்றிலும் வேறானது. விமானப்
போக்குவரதேதுக் கட்டுப்பாட்டு ராடார், விமானங்கள் அபாய~
மின்றிப் பறக்கவும் முடிந்த அளவுக்கு அதிகமான விமானங்~
கள் நல்லபடி அவ்வப்போது தரை இறங்கவும் பயன்
படுகிறது. ஆனால், முன் எச்சரிப்பு ராடாரின் பணி, முடிந்த
அளவுக்கு அதிகமான அளவில் பகை விமானங்களைக்
கண்டறிந்து அவற்றைத் தாக்குவதே ஆகும்.
-44-
	இரண்டாம் உலகப் போரின்போது பிரிட்டன் முதலிய
நேச நாடுகளில் இந்த வகை ராடார்கள் எந்த அளவுக்குப்
பயன்பட்டன என்பதை ஏற்கெனவே அறிந்தோம். ஆனால்
அப்பொழுது ராடாரின் சக்தி 160 கி.மீ. தொலைவில்
வரும் விமானங்களைக் கண்டுபிடிக்கும் அளவிலேயே
இருந்தது. இன்றைய ராடார்களோ வெகு தொலைவில் வரும்
விமானங்களையும் கண்டுபிடித்து விடும் ஆற்றல் கொண்ட~
வையாய் இருக்கின்றன. அதனால் பகை விமானங்கள்
திடீர்த் தாக்குதலில் ஈடுபடுவது சிரம சாத்தியமான
ஒன்றாகவே இருக்கிறது.</p>

<p>	எதிரி விமானங்கள் பாதுகாப்பு எல்லையை நெருங்கும்
போதே, முன் எச்சரிக்கை ராடார் அவற்றைக் கண்டு
பிடித்து, போர் விமானக் கட்டுப்பாட்டு ராடாரைச் செயல்
படச் செய்கிறது. ஒவ்வொரு போர் விமானத்திலும் ராடார்
கருவி பொருத்தப்஼பட்டிருப்பதால் சைகை கிட்டியதுமே
அவை புறப்பட்டு மேலே பறக்கத் தொடங்கி விடுகின்றன.
அதற்குள் பகை விமானங்கள் வரும் தூரம், உயரம், வேகம்
ஆகியவற்றைக் கணக்கிட்டு ராடார் கருவி இயக்கு அலுவலர்~
கள், போர் விமானங்கள் பறக்க வேண்டிய சரியான பாதை,
வேகம், குத்துயரம் ஆகியவற்றைப் போர் விமான ஓட்டி~
களுக்குத் தெரிவிக்கிறார்கள்.</p>

<p>	இரண்டாம் உலகப் போரின்஼போது, போர் விமானக்
கட்டுப்பாட்டு அதிகாரி, நேரில் கண் கொண்டு விமானப்
போரைப் பார்த்து, தம் நாட்டு போர் விமானிகளுக்குக்
கட்டளை பிறப்பிக்க அவகாசம் இருந்தது. ஆனால்,
இன்றைய போர் விமானங்கள் ஒலியை விட அதிவேகமாகச்
செல்லக் கூடியவையாய் இருக்கின்றன. அதனால் இன்றைய
நிலை மிகவும் சிக்கல் வாய்ந்ததாகும்; நொடிப்பொழுதில்
மாறக் கூடியதாகும். ராடாரைப் பயன்படுத்தாமல் கட்டுப்
பாட்டு அதிகாரியால் இந்நிலையில் செயல்பட முடியாது.
-45-
	போர் விமானக் கட்டுப்பாட்டு ராடாரால் முன் எச்சரிப்பு
ராடாரைவிடக் குறைந்த தொலைவுக்கே செயல்பட
முடி௟ும். ஆனால், இது விமானத்தின் இடநிலையைத்
துல்லியமாகக் கணக்கிடக் கூடியதாகும். போர் விமானங்~
களை அவற்றின் இலக்கு நோக்கிச் செலுத்த இந்தத்
துல்லியம் அவசியமாகும். போர் விமானங்களிலுள்ள
ராடாரின் செயல் தொலைவுக்குள் இலக்கு வந்து
சேர்ந்ததும் இந்த ராடாரின் துணைகொண்டு போர்
விமானிகள் செயல்஼படுகிறார்கள்.</p>

<p>	போர் விமானம் இந்த அளவுக்கு இலக்கை நெருங்கும்
போது, தரையில் அமைந்திருக்கும் போர் விமானக்
கட்டுப்பாட்டு ராடாரின் திரையில் இரு ஒளிப்புள்ளிகளும்
அநேகமாய் இணைந்துவிடும். அதற்குமேல் தரையிலுள்ள
ராடாரால் தன் பணியைச் சரிவரச் செய்ய இயலாது.
எனவேதான், போர் விமானத்திலேயே ஒரு ராடார் இருப்பது
இன்றியமையாததாகிறது.</p>

<p>	போர் விமானத்தில் உள்ள ராடாரின் ரேடியோ அலை~
யானது இலக்கினைத் திரையிலே தெரியச் செய்ததும்,
இவ்விமானம் தனது சொந்த முயற்சியின் பேரில் இலக்கை
அணுகித் தாக்க முடியும். இலக்கின் தொலைவு, குத்துயரம்
போன்ற முக்கிய விவரங்கள் விமானத்தில் உள்ள ராடார்
திரையில் தெரிகின்றன. ஆகவே, இலக்கினை விமானி
நேரில் கண்ணால் பார்க்காமலே அதனைத் தாக்க
முடிகிறது. அவர் செய்ய வேண்டியதெல்லாம் சுடுவதற்கான
பொத்தானைத் தக்க தருணத்தில் அழுத்த வேண்டியது
தான். சில சமயங்களில் இந்த வேலையைக் கூடக்
கணிப்புப்பொறியே செய்து விடுகின்றது. ஆனால், விமானப்
போரில் விமானிக்கு வேலை ஏதும் இல்லை என்று
நினைத்துவிடக்கூடாது. நடைமுறையில் போரில் நாம்
இங்கே கூறியிருப்பது போல எல்லாம் சுலபமாக நடந்து
விடுவதில்லை.</p>

<p>
வால்பக்க எச்சரிப்பு ராடார்!</p>

<p>	போர் விமானம் பின் புறத்திலிருந்து தாக்கப்஼படும்போது
அதன் நிலைமை மிகவும் ஆபத்தானது என்பது தெரிந்தது
தான். வால்பக்கத்துத் தாக்குதலிலிருந்து விமானம் தப்புவது
மிகக் கடினம். அதனால்஼தான் விமானத்தின் வால்
பக்கத்துக்குப் பாதுகாப்பு அளிக்கப் பல ஏற்பாடுகள் செய்யப்
பட்டுள்ளன. வால்பக்க எச்சரிப்பு ராடார்
அவற்றுள் ஒன்றாகும். வால்பக்கத்தில் சுடும்
தொலைவுக்கு நெருங்கிவரும் எதிரி விமானங்களைக்
கண்டறிந்து இந்த ராடார் எச்சரிக்கிறது. இதே ராடாரைச்
சில சமயங்களில் வால்காப்பு அமைப்புக்கான தானியங்கிக்
குறிபார்க்கும் ராடார் கண்ணாகவும் செயல்படும்படி
செய்வது உண்டு. வால்பக்க எச்சரிப்பு ராடார், கண்ணுடன்
கூடிய குண்டு விமானத்தைப் பகைப் போர்விமானம் பின்
புறத்திலிருந்து தாக்க வருமானால், உடனே இந்த அமைப்பு
செயல்பட்டு எதிரி விமானத்தின் மீது சுடுகின்றது. தாக்க
வரும் எதிரி விமானம் தாக்குதலுக்கு உள்ளாக்கப்஼படுகிறது.</p>

<p>
சுற்றித் தேடும் ராடார்</p>

<p>	குண்டுவீச்சு விமானங்களில் பொருத்தப்படும் மற்றொரு
ராடார், சுற்றித் தேடி நோட்டமிடும் ராடார்
எனப்படும். விமானம் பறந்து
கொண்டிருக்கும் நிலப்பரப்பின் மேல் உள்ள எல்லாப் பகுதி~
களையும், அவற்றில் உள்ள எல்லாப் பொருள்களையும் இந்த
ராடார் வரிக்கண்ணோட்டமிட்டு படம் பிடிக்கிறது.
வனங்கள், வயல்வெளிகள், ஆறுகள், கட்டடங்கள்
ஆகியவை ஒவ்வொன்றும் ரேடியோ அலைகளை
வெவ்வேறு வகையில் எதிரொளிக்கின்றன. ஆகவே, இவை
கறுப்பும் வெள்ளையுமான நிழற்படம் அல்லது திட்டவரைவு
போன்றதாகிறது. திட்டவரைவு இடநிலைச் சுட்டி என்று
இதைக் குறிப்பிடுகிறார்கள். இரயில்பாதை, பாலம்,
-47-
கட்டடம், உலோக அமைப்பு ஆகியவை இதில் மிகவும்
தெளிவாகத் தெரிகின்றன.</p>

<p>	இத்தகைய நிலப்படத்தின் துணைக் கொண்டு விமானி,
தம் விமானத்தைச் சரியான பாதையில் செலுத்துவதோடல்~
லாமல், தாக்குவதற்கு நல்லதோர் இலக்கையும் தேர்ந்~
தெடுத்துக் கொள்கிறார். விமானத்தின் குத்துயரம், வேகம்
ஆகியவற்றைக் கணக்கில் எடுத்துக்஼கொண்டு, குண்டு
வீசப்பட வேண்டிய தருணத்தை விமானத்தில் உள்ள
கணிப்புப்பொறி கணித்து ராடார் திரையில் தக்஼க~
தொரு குறியை இட்டுக் காட்டுகிறது. இலக்கிலிருந்து வரும்
எதிரொளிப்புச் சலுகை இக்குறியோடு இணையும்஼பொழுது
குண்டு, கீழே விடப்பட்டு பகைவர்களின் இலக்குகள்
தாக்கப்஼படுகின்றன.</p>

<p>	ராடார்கள் பொருத்தப்பட்ட டுரோன்ஸ்கள்
எனப்படும் வேவு விமானங்களைப்பற்றி அனைவரும்
பத்திரிகைகளில் படித்திருக்கலாம்.</p>

<p>	தரையில் உள்ள ஒரு ராடார் இந்த வேவு விமானங்~
க஼ளைத் தன் பார்வையில் கொண்டிருக்கிறது. தேவைக்கு
ஏற்ப அவற்றைத் தக்க பாதைக஼ளில் செல்லச் செய்கிறது.
இந்த டுரோன் வேவு விமானத்தில் சுற்றிலும் நோட்டம்
விடும் ராடார் பொருத்தப்஼பட்டுள்ளது. ஆனால், அதில்
விமானிகள் இருக்க மாட்டார்கள். ராடார் திரையும் இராது.
விமானத்தில் உள்ள வலிமை வாய்ந்த அலைப்பரப்பி
எதிரொலிச் சைகைகளை நேசத் துருப்புகளுக்கு அஞ்சல்
செய்கின்றது. கீழே தரைக்கடியில் காப்பிடத்தில்
அமர்ந்துள்ள ஊழியர், அந்த டுரோன் விமானத்துக்குக்
கீழுள்ள பகைவனைப்பற்றிய கடைசித் தகவல்களைத்
தெரிந்து கொள்கிறார்.
-48-
	போரின்போது நேசநாட்டுத் துருப்புகளாலேயே
தவறுதலாகத் தாக்கப்படும் அபாயம் எப்பொழுதும் உண்டு.
இதைத் தவிர்ப்பதற்காக, பகைநாட்டு விமானங்கள், டாங்கி~
கள் முதலிய போர்ச்சாதனங்களின் நிழல் உருவைக்
கொண்டு அடையாளம் அறிந்து கொள்வதற்குப் படை
ஆள்களுக்குப் பயிற்சி அளிக்கப்஼படுகின்றது.</p>

<p>	ஆனால், ராடார் திரையில் விமானத்தின் நிழல் உரு
தெரிவதில்லை. அப்படியானால் பகை விமானமா, சொந்த
விமானமா என்பதை அறிந்து கொள்வது எப்படி? ஒவ்வொரு
விமானத்திலும் அடையாளம் ஒன்று பொருத்தப்஼பட்டுள்ளது.
`நண்பனா-பகைவனா?'
அல்லது ஐ. எப். எப். என்னும் சாதனம் பொருத்தப்
பட்டுள்ளது. அலை ஏற்பியையும் பரப்பியையும் கொண்டது
அது. அந்த ஏற்பி, நேச தேச ராடார் அனுப்பும் வினவும்
மின் துடிப்பு வரப்பெற்றதும் ஐ.எப். எப் பரப்பி~
யைச் செயல்படச் செய்கிறது. இந்தப் பரப்பி உடனே இந்த
விமானத்தின் அடையாளத்தைத் தெரிவிக்கும் குறியீட்டுச்
சைகையை அனுப்பிப் பதிலளிக்கிறது. நேச ராடாரின்
திரையில் இலக்கின் எதிரொலிச் சைகைக்குப் பக்கத்தில்
`நான் நண்பன்தான்' என்று கூறுவது போல இந்த
ஐ. எப். எப். சைகை தெரியும்.</p>

<p>	பகைவர்களும் இதே அதிர்வு எண்ணில் சைகை
அனுப்பித் தப்பித்துக் கொண்டு விடாதவாறு தடுப்பதற்காக
ஐ.எப்.எப். சைகை எப்பொழுதும் இரகசிய முறையிலேயே
(சங்கேத வடிவில்) அனுப்பப்஼படுகிறது.</p>

<p>	தரையிலுள்ள ஏற்பி, இந்தச் சங்கேதக் குறியை மட்டும்
ஏற்கும்படி சுரப்படுத்தப்஼பட்டிருக்கிறது. எனவே, பகைவர்~
களது சைகையை இந்த ஏற்பி ஏற்காது. அதனால் ராடார்
திரையில் ஐ. எப். எப். சைகை தெரியாது. தரையில்
இருக்கும் ராடார் ஊழியர், திரையில் தெரியும் எதிரொலிச்
-49-
சைகை காட்டுவது பகை விமானத்தினுடையதா என்பதை
அறிந்து கொண்டுவிடுவார்.</p>

<p>	மேலே கூறப்பட்ட எல்லா வகை ராடார்களும் அமெரிக்~
காவின் தேசிய விமானப் போக்குவரத்துக் கட்டுப்பாட்டு
அமைப்பில் பயன்படுத்தப்பட்டுக்஼கொண்டிருக்கின்ற஼ன.
இந்த அமைப்பில் ஏறத்தாழ 120 ராடார்கள் விமான
நிலையங்களில் செயல்பட்டுக் கொண்டிருக்கின்றன.
விமான நிலையத்தின் வழியே செல்லும் விமானங்களையும், 
நெருங்கிவரும் விமானங்களையும் இவை கண்காணிக்~ 
கின்றன. புறப்பட்டுச் செல்வதையும், தரை இற்ங்கு~
வதையும் கட்டுப்பாடு செய்கின்றன. மற்றும் சுமார் 21
மண்டலங்களுக்குச் சேவை செய்யும் வழித்துணை ராடார்~
களது வலைப்பின்னலும் இந்த அமைப்பில் அடங்கியுள்ளது.
இந்த வழித்துணை ராடார் சுமார் 300 கிலோமீட்டர்
தொலைவுக்குச் செயல்படக் கூடியது. தவிரவும், ஒவ்வொரு
விமானநிலையமும் தன் போக்குவரத்துக் கட்டுப்பாட்டுச்
சேவைத்துறையைப் பெற்றிருக்கிறது. சுமார் 80 கிலோ
மீட்டர் தொலைவுக்கு இயங்கக் கூடிய விமான நிலையக்
கண்காணிப்பு ராடாரும் வானிலைபற்றி அறியப் பயன்படும்
ராடாரும், நிலையத்தை நோக்கி நெடுந் தொலைவில் வரும்
விமானங்களின் தொலைவைக் கணிக்கும் ராடாரும், வரும்
விமானங்கள் எந்த நாடுகளைச் சேர்ந்தவை, அவை வரும்
பாதையின் குத்துயரம் என்ன என்பவற்றையெல்லாம்
கேட்டறியும் ராடாரும் இந்தச் சேவைத்துறையில் அடங்கி~
யுள்ளன.</p>

<p>	மேலும் மேலும் அதிகரித்துக் கொண்டிருக்கும் தனியார்
சிறு விமானங்களின் போக்குவரத்து, விமானப் போக்குவரத்~
தைக் கவனித்துக் கொண்டிருக்கும் அதிகாரிகளுக்குப் பெரும்
கவலையை அளிப்பதாகும். தனியார் விமானங்கள் திட்ட~
வட்டமான வழிகளிலும் வருவதில்லை; குறிப்பிட்ட கால
அட்டவணையிலும் வருவதில்லை. அத்துடன் அவற்றின்
-50-
எதிரொலிச் சைகைகளோ மிகவும் மங்கலாகவே ராடார்
திரையில் தெரியக் கூடியவையாகும். கட்டுப்பாட்டு அதிகாரி
இவற்றைக் காணத் தவறிவிடலாம். இந்தச் சிக்கலைத்
தவிர்ப்பதற்காகத் தனியார் விமானங்களில் கண்டிப்பாக
உலோக எதிரொளிப்பான்கள் பொருத்தப்பட
வேண்டும் என்று உத்தரவிடப்஼படுகிறது. அந்த உலோக
எதிரொளிப்பான்கள் அவ்விமானங்களின் எதிரொலிச்
சைகைகளைச் சக்திமிக்கனவாக்கி, அளவிலும் வலுவிலும்
ஜெட் விமானங்களிலிருந்து வரும் சைகைகளுக்கு
ஒப்பானவை ஆக்குகின்றன. இவ்வாறு விமானப் போக்கு~
வரத்துக் கட்டுப்பாட்டு அதிகாரிகள் இந்த ஆபத்தான
இலக்குகளைத் தக்க தருணத்தில் கவனித்துச் செயல்படுவ~
தற்கு வகை செய்யப்஼படுகிறது.</p>

<p>
ராடாரும் ஏவுக஼ணைகளும்</p>

<p>	இப்பொழுது இராணுவத்துறையில் சேர்ந்துள்ள ஒரு
புதிய நவீனப் படைப்பிரிவு, ஏவுகணைப்படை ஆகும்.
இது மிக அண்மையில் தான் ஏற்பட்டது என்றாலும்,
ராடார்களைப் பயன்஼படுத்திக்஼கொள்வதில் இவை விமானப்
படைகளையும் மிஞ்சி வெகுதூரம் சென்று விட்டன.</p>

<p>	ஏவுகணைப் படையினரின் செயல்களின் அநேகமாய்
எல்லாமே ஏதோ ஒரு வகையில் ராடாருடன் தொடர்பு
கொண்டவைதாம். எறிவிசை ஏவுகணை
எனப்படும் நவீன ஏவுகணைகளை எடுத்துக்
கொள்வோம்.</p>

<p>	ராக்கெட் மோட்டார் செயல்படும் வரைதான் ஏவுகணை~
யின் பயணப் பாதையை நம் விருப்பம் போல் கட்டுப்பாடு
செய்ய முடியும். மோட்டார் எரிந்து முடிந்தவுடன்
கட்டுப்பாடு செய்ய இயலாது. ஏவுகணை ஒரு குறிப்பிட்ட
இலக்கைத் தாக்க வேண்டுமானால், மோட்டார் எரிந்து
-51-
ஓயும் சமயத்தில் அது குறிப்பிட்டதொரு திசைவேகத்தை~
யும், திசையையும் பெற்றிருக்க வேண்டும். ஏவுகணைத்
தளத்துக்கு அருகில் அமைந்த ராடார்கள் அதற்குப் பெரிதும்
பயன்படுகின்றன. அந்த ராடார்கள், ஏவுகணைகள்
செல்லும் பாதையைக் கவனித்து, குறித்த பாதையிலிருந்து
செல்லும் பாதை விலகுமாயின் உடனே அதற்கென அமைந்த
உந்துவிசைச் சாதனங்களுக்கு ஏற்ற கட்டளை~
களைப் பிறப்பித்துச் செல்லும் பாதையைச் சரி செய்கின்றன.</p>

<p>	இந்த உந்துவிசைச் சாதனங்கள் சிறிய இயந்திரங்~
களாகும். ஆயினும், அவை அளிக்கும் உந்துவிசை,
வேண்டிய திசைவேகத்திலிருந்தும் திசையிலிருந்தும்
ஏற்படும் சிறு பிறழ்வுகளைச் சரி செய்யப் போதுமானதாகும்.
ஏவுகணை சரியான திசைவேகத்தோடும், திசையிலும் அது
செல்லும் பாதையில் குறிப்பிட்ட புள்ளியை அடைந்ததும்,
ராக்கெட் மோட்டாரும் உந்துவிசைச் சாதனமும் நிறுத்தப்
பட்டுவிடுகின்றன. அதற்குப் பின்பு ஏவுகணையின் இறுதிக்
கட்டம் அதன் எறிவிசைப் பாதையில் செல்லத் தொட஼ங்கு~
கின்றது. ராடார்கள் அதைக் கவனித்துக் கொண்டுதான்
இருக்கும். ஆனால், மோட்டார்கள் நிறுத்தப்஼பட்டு
விட்டதால், அதற்குமேல் ஏவுகணையின் பாதையை அவை
கட்டுப்பாடு செய்வதற்கில்லை.</p>

<p>	பொதுவாக, அடிப்படை இலக்குகளைத் தாக்குவதற்குத்
தான் எறிவிசை ஏவுகணைகள் பயன்படுத்தப்஼படுகின்றன.
இடம் பெயர முடியாத பெரும் தொழிற்சாலைகள், நிருவாக
மையங்கள், பெரிய துறைமுகங்கள், ஏவுகணைத் தளங்கள்
போன்ற பிரதான இலக்குகளை நோக்கியே இவை
செலுத்தப்படும். செல்லும் பாதையின் இந்த இறுதிக்
கட்டத்தில் எறிவிசை ஏவுகணையைக் கட்டுபாடு செய்ய
இயலாது என்றாலும், அது சரியான செல்லும் வழியில் விடப்
பட்டிருக்குமாயின், நிச்சயமாய் அது உரிய இலக்கைத்
தாக்கவே செய்யும்.
-52-
	விமானங்களைத் தாக்குவதற்஖ும், பகைவர்களின்
ஏவுகணைகளைத் தாக்குவதற்கும் ஆன சிறிய ஏவுகணை~
களைப் பொறுத்தவரை நிலைமை இவ்வாறு இல்லை.
அவற்றின் இலக்குகள் அதிவேகத்தில் இடம் பெயரக்
கூடியவை. மேலும், தப்பிச் செல்ல இவை பல தந்திர
முறைகளைக் கையாளுகின்றன. எனவே, அந்த
தாக்கும் தருணம்வரை ராடார்கள் கவனித்துக் கொண்டிருக்க
வேண்டும். அந்த ஏவுகணைகள் செல்லும் பாதைகளைக்
கணிப்புப்பொறிகள் கணக்கிட்டு, அவற்றின் போக்கையும்
திசைவேகத்தையும் வேண்டியபோது மாற்றுவதற்குத்
தேவையான ஆணைகளை ராடார் அலைபரப்பி மூலம்
அனுப்புகின்றன. ராடார் ஏவுகணைகளையும் அவற்றின்
இலக்குகளையும் அவற்றின் ஒளிப்புள்ளிகள் திரையில்
ஒன்றையொன்று நெருங்கி வந்து இணையும் வரை
தொடர்ந்து கவனித்துக் கொண்டிருக்கின்றன. ஏவுகணை,
இலக்கு ஆகிய இரண்டுக்குமான ஒளிப்புள்ளிகள் இணைந்து
சிறுபொறிகளாகத் தெறிக்கின்றன. அது ஏவுகணை, தன்
இலக்கை அடைந்து தாக்கி அழித்து விட்டதைக் குறிக்~
கின்றது.</p>

<p>
எதிர் ஏவுகணை ராடார் கூட்டமைப்பு</p>

<p>	ராடாரை விளக்கும் செயல்முறை நூல்களில் `எதிர்
ஏவுகணை கூட்டமைப்஼பு பற்றிய
விளக்கத்தைக் காணலாம். இங்கு `கூட்டமைப்பு' என்னும்
சொல் தகுந்த காரணத்துடன்தான் தேர்ந்தெடுத்துப்
பிரயோகிக்கப்஼படுகிறது. எத்தனை நவீன ராடார்களை
வேண்டுமானாலும் எதிர் ஏவுகணைப் பாதுகாப்புக்காகப்
பயன்படுத்தலாம். ஆனால், அவை அனைத்தும் ஒருங்~
கிணைந்து ஒரே தொகுதியாய்ச் செயல்படுவது அவசிய~
மாகும். அப்படிச் செயல்படாவிட்டால் பகைவர்களின்
ஏவுகணைகளை அவை அழித்துவிடும் என்று கூற
முடியாது.
-53-
	ஒரு ராடார் மூலம் அறியும் விவரங்கள் உட஼னே
மற்ற ராடார்களுக்கும், பாதுகாப்பு மையத்திற்கும் பிழை~
யின்றி அஞ்சல் செய்யப்பட வேண்டும். இந்தத் தேவை~
யைப் பூர்த்தி செய்வதற்காகக் கணிப்புப்பொறிகளும்,
நம்பகமான தானியங்கிச் செய்தித் தொடர்புச் சாதனங்~
களும் இந்தக் கூட்டமைப்பில் அடங்கியுள்ளன. நூற்றுக்~
கணக்கான, ஏன், ஆயிரக்கணக்கான கிலோ மீட்டர்
தொலைவில் விலகி அமைத்துள்ள ராடார் அமைப்புகளும்
அவற்றுடன் ஒருங்கிணைந்து செயல்படுகின்றன.</p>

<p>	எதிர் ஏவுகணைக் கூட்டமைப்பின் ராடார்களைப்
பற்றி இதுவரை அறிந்தோம். பகைவரது தாக்குதலை
முதன்முதலில் நமக்குத் தெரியப்஼படுத்துவது தொலை தூர
முன் எச்சரிப்பு ராடார்கள்~
தாம். அந்த ராடார்களின் திரையில் தோன்றும் இலக்குப்
புள்ளிகளை ஊழியர்கள் பரிசீலிக்கும் அதே நேரத்தில்
அவற்றுடன் இணைக்கப்஼பட்டுள்ள கணிப்புப்பொறி தற்~
போதைய இடநிலையைக் கவனித்து, கணித்து, இந்த
இலக்கு செல்லக்கூடிய பாதையை வகுத்து அந்த, இலக்~
கினால் அபாயம் ஏற்படுமா என்பதையும் தீர்மானிக்கிறது.
அந்த இலக்கு செயற்கைக்கோளா, எரிநட்சத்திரமா, பகை~
வரின் ஏவுகணையா என்பதை ஒரு சில விநாடிகளுக்குள்
கணிப்புப்பொறி மதிப்பிட்டுவிடுகிறது. அது ஬கைவரது
ஏவுகணையே என்று அறிந்தால், அக்கணமே பாது~
காப்பு மையத்துக்குச் செய்தித் தொடர்பு சாதனங்கள்
மூலம் தக்க சைகை அனுப்பப்஼படுகிறது. அங்குள்ள
ராடாருக்குக் கட்டளை பிறப்பிக்கப்஼பட்டுவிடுகின்றது.</p>

<p>	இந்த ராடார் உடன் இலக்கின் இடநிலையை
இன்னும் துல்லியமாய்க் கணித்து, அவ்விவரங்களை
அடையாளம் காணும் ராடாருக்கு அனுப்புகின்றது.
அடையாளம் காணும் ராடார் உடனே இலக்கின் இடநிலை
சரிதானா என்று ஆராய்ந்து, ஏவுகணையால் அதன்
-54-
செல்லும் பாதையின் இறுதிக் கட்டத்தில் விடப்படும்
போலியான கணைகளிடையே மெய்யான போர்க்கணை~
யின் இடநிலையைக் கண்டறிகிறது.</p>

<p>	இந்த ராடார்களின் பருமனையும் சிக்கலான பொறி
அமைப்பையும் பின்வரும் புள்ளி விவரங்களிலிருந்து நாம்
அறிந்து கொள்ளலாம்.</p>

<p>	அமெரிக்காவில் பயன்படுத்தப்஼பட்டுக்஼கொண்டிருக்கும்
அடையாளம் காணும் ராடார் சுமார் 200 டன் எடையுள்ள~
தாகும். அது ஏறத்தாழ 26 மீட்டர் குறுக்களவுள்ள
பாரபோலிக் ஏரியலை உபயோகித்துக் கொள்கிறது.</p>

<p>	காற்று, மழை, பனி ஆகியவற்றிலிருந்து பாதுகாக்க
அந்த அமைப்பானது 43 மீட்டர் விட்டமுள்ள கோள
வடிவிலான கட்டடத்தினுள் வைக்கப்஼பட்டுள்ளது. அந்த
முழு அமைப்பும், 15 அடுக்குக் கட்டடத்தை விட உயரமான~
தாகும். அதற்கான மொத்தச் செலவு 16 மில்லியன்
டாலர்கள் என்று மதிப்பிடப்஼படுகிறது. ஒரு பெரிய கூட்~
டமைப்பின் ஒரு சிறு பகுதியே இது என்பதையும் மனத்தில்
கொள்ள வேண்டும்.</p>

<p>	மேற்கூறிய மூன்று ராடார்களும் முடிவு செய்யும் மட்டத்~
தில் உள்ளவை. இலக்கானது ஆபத்தை விளைவிக்குமா,
விளைவிக்காதா என்பதை முடிவு செய்ததும், முடிவைச்
செயல்படுத்தும் மட்டத்திற்குரிய - சுடுவதற்கான அமைப்பு
இயங்க முற்படுகிறது.</p>

<p>	இந்த அமைப்பு எதிர் ஏவுகணை செலுத்தும் பொறியமை~
வுடன் கூட, செல்வழிக் கணிப்பு ராடாரையும் வழிகாட்டும்
ராடாரையும் கொண்டதாகும். செலவழிக் கணிப்பு ராடார்
இலக்கைக் கண்காணித்து அதன் தற்போதைய இடநிலை~
யின் ஆயத்தொலைவுகளை அளந்து அறிவிக்கிறது.
-55-
வழிகாட்டும் ராடார் ஏவுகணையின் இடநிலை ஆயத்தொலைவு~
களை அளந்து கூறுகிறது. ஒரு ராடார்களும் தாம் சேகரித்த
விவரங்களைக் கணிப்புப்பொறிக்குத் தெரிவிக்கின்றன.
கணிப்புப்பொறி, ஏவுகணை செல்ல வேண்டிய பாதையைக்
கணிக்கிறது. பின்பு இலக்குடன் மோதும்படி ஏவுகணை~
யைச் செலுத்துவதற்கு வேண்டிய ஆணைகளை ஆணை
அனுப்பு சாதனத்தின் மூலம் அனுப்புகின்றன.</p>

<p>	பிற அமைப்புகள் சற்று மாறான முறையில் செயல்படு~
கின்றவை ஆகும். பாதுகாப்பு அமைப்பு இவற்றுள்
ஒன்றாகும். அமெரிக்காவுக்கும் கனடாவுக்கும் இடையிலான
எல்லையிலிருந்து 3,500 கிலோ மீட்டர் தொலைவில் உள்ள
லெங்டான் என்னும் இடத்தில், 1974 ஆம் ஆண்டுக்குள்~
ளேயே அது நிறுவப்஼பட்டுவிடுமெனச் செய்தி ஏடுகள் கூறின.
இப்பொழுது அது நிறுவப்பட்டு வெற்றிகரமாகச் செயல்
பட்டுக் கொண்டும் இருக்கிறது. அது இரு ராடார்களையும்
இடமறிக்கும் ஏவுகணைகளைச் செலுத்தும் தளங்~
களையும் கொண்டதாகும்.</p>

<p>	ஜெனரல் எலெக்ட்ரிக் கம்பெனியால் உருவாக்கப்பட்ட
தேடும் ராடார் எதிரியின் ஏவுகணைகளைச் சுமார், 1,500
கிலோ மீட்டர் தூரத்திற்கும் அதிகமான தொலைவில் வரும்~
போதே கண்டு பிடித்து முன்னெச்சரிக்கை கொடுக்கும்;
மேலும், தொடர்ந்து அவற்றைக் கண்காணித்து விவரங்களை
அறிவிக்கும். இந்த ராடார் பூமிக்கடியில் 60 மீட்டர் நீளமும்
அகலமும், 40 மீட்டர் உயரமும் கொண்ட உறுதியூட்டப்~
பட்ட கான்கிரீட் அறையினுள் அமைக்கப்஼பட்டிருக்கும்.
மற்றும் இந்த அமைப்பு ஒரு மின்விசை நிலையமும், அணு~
கும் பாதாளப் பாதையும், பாதாளச் செய்தித் தொடர்பு
வசதியும் கொண்டதாய் இருக்கும்.</p>

<p>	இந்த ஏவுகணைத் தளங்களிலிருந்து நீண்ட தொலைவு
செல்லும் `ஸ்பார்டன்' ஏவுகணையையும், குறுகிய
-56-
தொலைவு செல்லும் ஸ்பிரிண்ட் ஏவுகணையையும்
செலுத்தலாம். ஏவுகணைத் தளப் பாதுகாப்புக்காக அமைந்த
இரண்டாவது ராடாரைக் கொண்டு, இந்த ஏவுகணைகள்
வழி செலுத்தப்஼பட்டு எதிரிகளின் கணைகளைத் தாக்கி
அழிக்கும். இந்த இரண்டாவது ராடார் பல நூற்றுக்கணக்~
காண கிலோ மீட்டர் தொலைவுக்கு அப்பால் உள்ள எதிரி~
களின் கணைகளுள் எது அபாயம் மிக்கதோ அதைக் கண்டு
பிடித்து, எதிர் ஏவுகணைகளைச் செலுத்தி அதை அழிக்கும்.</p>

<p>	மிகவும் முன்னேறிய இந்த நவீன வகை ராடார்கள்,
ஒரே நேரத்தில் பத்தாகவோ நூற்றுக்கணக்காகவோ வரும்
பகைவர் கணைகளை இடைமறித்து அழிக்கக் கூடியவை~
யாகும். இவை அந்த வியத்தகு ராடார்களுக்கே கூட
மலைப்புத்தரும் ஒரு சவாலாகவே இருக்கும்.</p>

<p>	இந்த வக஼ை ராடார்களுக்கு ஆகும் செலவும் வியக்கத்
தக்கது தான்! ஒவ்வொன்றுக்கும் ஆகும் செலவு 150 முதல்
200 மில்லியன் டாலர்களாகும்.</p>

<p>	இந்த எதிர் ஏவுகணைக் கூட்டமைப்பில் மிகவும்
முக்கியமான உறுப்பு, தொலைவிலிருந்தே முன்னதாய்
எச்சரிக்கும் ராடார்தான். இது எதிரியின் கணைகளை
எவ்வளவுக்கெவ்வளவு முன்னதாகவும், விரைவாகவும்
கண்டறிந்஼து அறிவிக்கிறதோ, அந்த அளவுக்குத் தற்பாது~
காப்பு ஏற்பாடுகளைச் செய்து கொள்ள அவகாசம் கிட்டும்.</p>

<p>	எதிரிகளின் ஏவுகணைகள் புறப்பட்டு வருவதை முன்ன~
தாகவே கண்டறிய மிகவும் வலிமை வாய்ந்த ராடார்
தேவைப்஼படுகின்றது. இத்தகைய ராடார்கள் உலகின் பல
பகுதிகளிலும் ஏற்கெனவே நிறுவப்஼பட்டுள்ளன. என்றாலும்,
இப்பொழுது இருப்பதைக் காட்டிலும் மேலும் முன்னதாகவே
கண்டறிந்து சொல்லும் வலிமை மிக்க ராடார் ஒன்றை
அமைத்தால் இன்னும் வசதியாய் இருக்கும் என்று 
-57-
இப்பொழுது கருதப்படுகிறது. அதை அமைப்பதிலும் ராடார்
நிபுணர்கள் ஈடுபட்டுத்தான் உள்ளனர். அவர்கள் இந்தப்
பிரச்சினையை இருவழிகளில் அணுகிக் கொண்டிருக்~
கின்றனர்.</p>

<p>	காவர் ராடார்களை அனுப்பிக் கண்காணிக்கச்
சொல்வது ஒரு வழி. இந்த வகைக் காவல் ராடார்களை
விமானங்களிலோ, கப்பல்களிலோ அனுப்பி வைக்கலாம்.
சர்வதேசக் கடல்களில் நெடுந்தொலைவில் செல்லும் கப்பல்~
களில் இந்தக் காவல் ராடார்களை அனுப்பி வைக்கலாம்.
பகைநாட்டு ஏவுகணைகள் செலுத்தப்஼படக்கூடிய எல்லா
வழிகளையும் கண்காணிப்பதற்கு ஏற்ற வழிகள் இந்தக்
கப்பல்களுக்குத் தேர்ந்தெடுக்கப்படும்.</p>

<p>	இதே முறையில் வான்வழிக் காவல் ராடார்களை
விமானங்களில் பொருத்திவிடலாம். வான்வழிக் கண்~
காணிப்பு. கடல்வழிக் கண்காணிப்பைக் காட்டிலும்
அனுகூலமானதாய் இருக்கும். ஏனென்றால், வான் உயரத்~
திலிருந்து கண்காணிப்பு வீச்சு அதிகமாய் இருக்கும் என்ப~
தால், முன்னதாகப் பகைநாட்டு ஏவுகணைகளைக்
கண்டறிந்து கொள்வது சாத்தியமாய் இருக்கும். மிகைஒலி
வேகப் போர் விமானங்களையும், ஏவுகணை தாங்கிய
விமானங்களையும் விட இந்தக் காவ஼ல் ராடார் விமானங்கள்
வேகம் குறைந்தனவாய் இருப்பினும், இவை நெடுநேரம்
விண்ணில் பறக்கும் சக்தி கொண்டவை.</p>

<p>	இன்னொரு வழி, அடிவானத்தைக் கடக்கும்
ராடார்களைப் பயன்படுத்துவதாகும்.
சாதாரண ராடார்கள் மைக்ரோ அலை
வரிசைகளைப் பயன்படுத்துகின்றன. இவ்வகையான
அலைகளின் நீளம் ஒன்று முதல் நூறு சென்டிமீட்டர் வரை
இருக்கும். இவையாவும் அநேகமாய் நேர்கோட்டிலே
பரவும். ஆகவே, புவிக்கோளின் வளைவுக்குள் இசைவாய்
-58-
இவற்றால் வளைய முடியாது. இ஼இதனால்தான் இவ்வகையான
ராடார்களின் கண்காணிப்புத் தொலைவு அடிவானத்துக்கு
அப்பால் செல்லாதபடி வரம்பிடப்஼பட்டுள்ளது. ஆனால்,
விமானம் உயரத்தில் பறப்பதால் அடிவானத்துக்கான
தொலைவு அதிகமாகிவிடுகிறது. ஆகவே, வான்வழிக்
கண்காணிப்பு ராடார்களின் வீச்சு அதிகமாகிி஼விடுகிறது.</p>

<p>	ஆனால், ராடாரில் நீள் அலைகள் பயன்படுத்தப்஼படும்~
பொழுது பல தொந்தரவுகள் ஏற்படுகின்றன. முதலாவ~
தாக, இலக்குகள் குறுகிய அலைகளை எதிரொளிப்பது
போல் அவ்வளவு சிறப்பாக நீண்ட அலைகளை
எதிரொளிப்பதில்லை. இரண்டாவதாக, அந்த நீண்ட
அலை ராடார்களின் பருமனில் பெரிதாகவும், எளிதில்
பயன்படுத்திக் கொள்ள முடியாததாகவும் இருக்கின்றது.</p>

<p>	இன்னும் முக்கியமாய், இலக்கின் இருப்பிடத்தை
இவற்றால் அவ்வளவு துல்லியமாகக் கண்டு பிடிக்க முடிவ~
தில்லை. எனினும், புவிப்பரப்புக்கு இணையாய் வளைந்து
நீள் அலைகளால் அடிவானத்துக்கு அப்பாலும் பார்வை~
யிட முடிகிறது.</p>

<p>	நிபுணர்களின் கருத்துப்படி, எதிரி தன் ஏவுகணை~
களைச் செலுத்தியதும் உடனே அதைக் கண்டறிந்து
அறிவிப்பதுதான் இவ்வகை ராடாரின் தலையாய பணி~
யாகும். எதிரி, தன் ஏவுகணையை மேலே செலுத்தும்
போது ஏற்படும் ஒளி நீள் அலைகளை ஓரளவு நன்றாகவே
எதிரொளிப்பதால் அலை ஏற்பி எதிரொளிக்கப்படும் அலையை
உடனே பதிவுசெய்து க஼ாட்டிவிடும். பகை ஏவுகணைகளின்
இடநிலை ஆயத்தொலைவுகளை மிகத்துல்லியமாகக்
கண்டு பிடிப்பதற்குக் காப்பு அரண்களுக்கு அருகில்
அமைந்துள்ள ராடார்களைப் பயன்படுத்திக் கொள்ளலாம்.</p>

<p>	எனவே, அடிவானம் கடக்கும் ராடார் வருங்காலத்தில்
நிறுவப்பட்டு உலகில் எப்பகுதியிலிருந்தும் செலுத்தப்படும்
-59-
ஏவுகணை அதன் துணைகொண்டு உடனே கண்டறி~
யப்஼படலாம்.</p>

<p>	அடிவானம் கடக்கும் ராடார்களுள் சில, மிக அதிக
அதிர்வெண்களில், பத்து முதல் நூறு மீட்டர்கள் அளவு நீள~
முள்ள அலைகளைப் பயன்படுத்திக் கொள்கின்றன. அதிக
அதிர்வெண்களுள்ள அலைகள் புவிப்பரப்பின் வளைவுக்கு
இணையாய் வளையக் கூடியவை அல்ல; என்றாலும்,
கண்ணாடியால் எதிரொளிக்கப்஼படுவதுபோல் இவை
அயனக்கோளத்தால் எதிரொளிக்கப்பட்டு அடிவானத்துக்கு
அப்பால் நெடுந்தொலைவிலுள்ள இடங்களையும் அடைய~
வல்லவை. அதிக அதிர்வெண்ணுள்ள அலைகள் சில சமயம்
அயனக்கோளத்தால் மீண்டும் மீண்டும் எதிரொளிக்கப்
பட்டுப் பூமிக்கும் அயனக்கோளத்திற்குமிடையே தத்தித்
தத்தி சென்று, பூமியையே வலம் வந்து விடுகின்றன. இவ்~
வலைகளின் வலிமை மிகக் குறைந்திருப்பினும் ராடாரின்
ஏற்பிகள் இவற்றைக் குறித்துக் கொள்ளும். இவற்றிலிருந்து
புவிக்கோளத்தைச் சுற்றியமைந்த பல இடங்களிலும்
அமைந்த எதிரொளிப்புப் பரப்புகளின் தன்மைகளைப் பற்றி
நம்மால் அறியமுடியும்.</p>

<p>	அயனக்கோளம் என்பது எலெக்ட்ரான் செறிவிலும்,
அயனிச் செறிவிலும் வேறுபடும் பல அடுக்குகளைக்
கொண்ட கோளமாகும். இந்தச் செறிவு எந்த அடுக்கி~
லேனும் மாறுதலான மதிப்பு எனப்படும்
எல்லையை அடைந்ததும், அந்த அடுக்கு, ரேடியோ
அலைகளைத் திருப்பி எதிரொளிக்க முற்படுகிறது. இந்த
மாறுதான அடர்த்தி, அதிர்வெண்ணுக்கேற்ப வேறுபடு~
கின்றது.</p>

<p>	எதிரியின் ஏவுகணைகளை நிச்சயமாய் அழிக்கும்
பொருட்டு எதிர் ஏவுகணைகளிலும் நிலத்திலிருந்து வானிற்~
கான ஏவுகணைகளிலும் சிறிய ராடார்கள் பொருத்தி
-60-
அனுப்பப்஼படுகின்றன. பகை இலக்கை இந்த ஏவுகணை
ஒரு குறிப்பிட்ட தொலைவுக்கு நெருங்கி வந்தவுடன்,
அதன் சிறிய ராடார் செயல்படத் தொடங்கிி஼விடுகிறது.
பகை இலக்கின்஼மீது அது அலைகளை வீசி, எதிரொளிக்~
கும் அலைகளை ஏற்றுப் பதிவு செய்கிறது. ஏவுகணையில்
அமைக்கப்஼பட்டிருக்கும் வழிசெலுத்தும் அமைப்பு உடனே
செயல்பட்டு, ஏவுகணையைத் தக்கபடி செலுத்தி, நழுவி
ஓட முயலும் பகை இலக்கின்஼மீது மோதி அதை அழிக்கும்~
படி செய்யும். சில ஏவுகணைகளில் ராடார் ஏற்பி மட்டுமே
பொருத்தப்஼பட்டிருக்கும். அப்பொழுது தரையிலுள்ள ராடார்
பகை இலக்கின்஼மீது அலைகளை வீசுகிறது. பகை இலக்~
கால் எதிரொளிக்கப்படும் அலைகளை ஏவுகணையின்
சிறிய ராடார் ஏற்பி, பதிவு செய்கிறது. இந்த ஏவுகணை
அதிகப் பளுவில்லாத எளிய பொறிகளையே சுமந்து செல்~
வதனால், இது மிக வேகமாய்ச் செல்கிறது. இதன் நம்பகத்
தன்மையும் பன்மடங்கு கூடுதலாகி விடுகிறது. தரையிலுள்ள
ராடாரும் ஏவுகணையில் அமைந்த சிறிய ராடாரும் ஒருங்~
கிணைந்து செயல்படுவதற்குப் பல வழிகளிலும் ஏற்பாடு
செய்யலாம்.</p>

<p>
ராடாரும் தரைப்படையும்</p>

<p>	இராணுவத்துறையிலுள்ள விமானப் படைத்துறையில்
ராடார், விமானத்தினால் எடுத்துச் செல்லப்஼படுகிறது;
கப்பல் படையில் ராடார், கப்பலில் எடுத்துச் செல்லப்படு~
கிறது; தரைப்படையில் ராடார் சாதனம், வாகனங்கள்
மூலமாகவும் வீரர்களின் மூலமாகவும் எடுத்துச் செல்லப்படு~
கிறது. எனவே, தரைப்படையில் ராடார்கள், எளிதில் எடுத்~
துச் செல்லப் கூடியவையாகவும் வீரர்கள் முதுகிலேயே சுமந்து
செல்ல ஏதுவானவையாகவும் இருக்கின்றன. சிறியவையாக
இருந்தாலும் இக்காலத்தில் ராடார்கள் இல்லாமல் தரைப்
போர்கள் நடைபெற இயலாது என்னும் நிலை தோன்றி~
யுள்ளது.
-61-
	கைச்சுமையாய் எடுத்துச் செல்லத்தக்க போர்க்கள
ராடார் 1.5 முதல் 2 கிலோ மீட்டர் தூரம்வரை செல்லும்
அல்லது வரும் எதிரி஬் படைவீரர்களின் நடமாட்டத்தையும்,
6 கிலோ மீட்டர் தொலைவரை ஓடும் வண்டி வாகனங்~
களையும் கண்டறியப் பயன்படுகிறது. இந்த வகை நவீன
ராடார்களின் எடை 4.5 கிலோதான்.</p>

<p>	பகைவரின் தாக்குதலுக்கு முதல் இலக்கு, ராடார்
நிலையமாகும். அதனால் நூற்றுக்கணக்கான மீட்டர் 
தொலைவில் இருந்தபடியே அதனை இயக்கும் தொலைக்
கட்டுப்பாடு வசதி அதனுள் பொருத்தப்஼பட்டுள்ளது.</p>

<p>	இப்படிப்பட்ட சிறிய ராடார்களின் கேதோட் ரே டியூப்
எனப்படும் எலெக்ட்ரான் கதிர்க்குழாய் பொருத்தப்஼படுவ~
தில்லை. எனவே, இலக்குகளைத் திரையில் பார்க்க
இயலாது. இலக்குகளை அவற்றின் தன்மைக்கு ஏற்ப வெவ்~
வேறு ஸ்தாயியிலும் செறிவிலும் தொனி~
களாகத் தெரிவிக்கிறது. பயிற்சி பெற்ற போர்வீரர் இந்தத்
தொனிகளைக் கொண்டு, தமக்கு அருகே செல்வது எதிரிப்
படைவீரர் வரிசையா, ஊர்ந்து செல்லும் சாதாரணப் படை
ஆள்களா, பட்டை ஓட்டவண்டியா வாகனமா என்று
அறிந்து கொள்வார். இந்த வகை ராடார்களுள் சில, 300
மீட்டர் தூரத்திற்கப்பால் கட்டப்஼பட்டுள்ள ஒரு மெல்லிய
நைலான் கயிற்றைக் கூடக் கண்டறிந்து தெரிவித்து விடக்~
கூடியவை.</p>

<p>	முக்கிய இராணுவ அமைப்புகளைச் சுற்றிக் காவல்
புரிவதற்காக அமைந்த, கைச்சுவையாய்க் கொண்டு
போகக் கூடிய ராடார்கள் பயன்படுத்தப்஼படுகின்றன. 45
மீட்டர் தொலைவில் வரும் ஆள்களையும், 180 மீட்டர்
தொலைவிற்குள் வரும் வாகனத்தையும் இவை கண்டறிந்து
அறிவிப்பதுடன், வரும் ஆள் அல்லது வாகனத்தின் வேகத்~
தையும் நிர்ணயித்துக் கூறுகின்றன.
-62-
	எந்த வகையில் பார்த்தாலும் இது மெச்சத் தக்க
சாதனையே, திட்டம் புனைந்தவர்கள், மிகப்பல இடையூறு~
களைச் சமாளித்து இந்தச் சாதனையைக் காணவேண்டி~
யிருந்தது. இந்த வகை ராடார் சாதனங்கள் பருமனில்
சிறியனவாய் இருப்பதாலும், மற்றும் பல தொழில் நுட்பக்
காரணங்களாலும் பல இடையூறுகள் எழுந்தன.</p>

<p>	நிலப்பரப்பும், நிலத்தில் நிலையாகப் பொருந்திய பலவும்
ராடார் அலைகளை எதிரொளிக்கின்றன. இது ஒரு பிரதான
சிக்கலாய் அமைந்தது. ராடாரிலிருந்து அலைகள்
வானோக்கிச் செலுத்தப்஼படும்போது, இவ்வலைகள்
விமானம் அல்லது ஏவுகணையில் பட்டு எதிரொளிக்~
கின்றன. வேண்டாத பிற எதிரொளிப்புகள் இல்லாததால்
விமானம் அல்லது ஏவுகணையின் எதிரொளிப்பு தெளி~
வாகவே ராடார் திரையில் தெரிகிறது. ஆனால், ராடார்
அலைகள் நிலப்பரப்பைத் தொட்டுச் செல்லுமாறு அனுப்பப்
படும் பொழுது வழியிலுள்ள கட்டடங்கள், காடுகள், மலை~
கள் போன்ற தேவையற்ற பலவும் இந்த அலைகளை
எதிரொளிக்கின்றன. அதனால், தரைப்படைக்குத் தேவை~
யான இலக்கின் பிரதிபலிப்பை அவற்றிலிருந்து பிரித்துப்
பார்ப்பது மிகவும் சிரமமாகி விடுகிறது.</p>

<p>	இந்தத் தொல்லையிலிருந்து விடுபடுவதற்கு நாம்
ஏற்கனவே விவரித்துள்ள டாப்ளர் முறை ராடார் பயன்~
படுகிறது. நகரும் இலக்குகள் மட்டுமே இதில் எதிரொளிப்பை
உண்டாக்குகின்றன. நகரும் இலக்குதான் இங்கு தெரியவும்
வேண்டும். நிலையான பொருள்களின் சைகைகள் எல்லாம்
தவிர்க்கப் பட்டு விடுவதால், நகரும் எந்தப் பொருளையும்
கண்டறிய இங்கு தடைகள் ஏற்படுவதில்லை.</p>

<p>	வேவு பார்க்கும் ராடார்கள் சில
சமயம் ஹெலிகாப்டர்களில் பொருத்தப்பட்டு அனுப்பப்~
படுவது உண்டு. இம்மாதிரியான ராடார் ஒன்றில், 
-63-
நிலப்பரப்பை இடைவிடாது பரிசீலிக்க வியப்பிற்குரிய ஓர்
அமைப்பு பயன்படுகிறது. பொதுவாக, ராடாரின் ஏரியல்
தொகுப்பானது, ஒரு தனி மோட்டாரினால்஼தான் சுற்றப்
படும். ஆனால், இந்த வகை ராடாரில் ஏரியலின் பாகங்கள்
யாவும் ஹெலிகாப்டர் சுழலியின் ஆரமுனைகளில் பொருத்~
தப்஼பட்டுள்ளன. சுழலி சுற்றும்஼போது இரு வேலைகள் ஒரே
நேரத்தில் ந௅டைபெறுகின்றன. ஹெலிகாப்டர் வானத்தில்
உயர்ந்து பறக்கிறது; அதே சமயத்தில் ராடார் ஏரியலும்
சுற்றப்஼படுகிறது.</p>

<p>	வேவு பார்க்கும் துறையைத் தவிர, எதிரியின் பீரங்கி
மார்ட்டர் வெடிக஼ளிடமிருந்தும், துருப்புகளுக்குப் பாதுகாப்~
பளிப்பதற்கும் ராடார்கள் பயன்படுகின்றன. சுடுகின்ற
பகைவனின் நிலைகளை இந்த ராடார்கள் கண்காணித்துக்
கொண்டிருக்கின்றன. எதிரியிடமிருந்து பறக்கும் குண்டு
அல்லது மார்ட்டர் முதலியவை கிளம்பியவுடனே, இந்த
ராடார்கள் அவற்றின் பாதைகள்஼பற்றி அறிவிக்கின்றன.
இந்த விவரங்கள் நேரே கணிப்புப்பொறிக்கு அனுப்பப்஼படு~
கின்றன. கணிப்புப்பொறி, குண்டுகளின் பாதையை
ஆராய்ந்து, சில விநாடிகளுக்குள் அவை எங்கிருந்து
சுடப்பட்டன என்பதை நிர்ணயிக்கிறது. அந்த விவரங்கள்
உடனே சொந்த நாட்டின் பீரங்கிப் படைக்கு அனுப்பப்஼படு~
கின்றன. அவை உடனே அந்தப் பகைப்பீரங்கி அல்லது
எறிபடைப்பொறியை அழிக்கின்றது. அதே ராடார் சொந்த
நாட்டுப் படையணியின் குண்டுகள் அல்லது எறிபடைகள்
குறி தவறாமல் சுடுவதற்குத் தேவையான விவரங்களையும்
கண்டுபிடித்துக் கூறுகின்றது.</p>

<p>	விமானப்படை, கடற்படை ஆகியவற்றில் பயன்படுத்து~
வதைப் போன்றே, தரைப்படையிலும் வானில் வேவு
பார்ப்பதற்கும் எறிபடைகளை வழிப்஼படுத்தவும் போர்
விமானங்களை நெறிப் படுத்தவும் ராடார்கள் பயன்
-64-
படுகின்றன. நிலப்படை மட்டும் பயன்படுத்தும் விசேச
ராடார்களும் உண்டு.</p>

<p>
ராடார் உருவி</p>

<p>	இரண்டாவது உலகப்போரில் பீரங்கி வெடிகுண்டுகளில்
இணைக்கப் பட்ட ராடார் உருகிகள் ராடார்
வகை எதிலும் சேராதவை ஆகும். ராடார் உருகி என்பது
உண்மையிலேயே ஒரு ராடார் நிலையமாகும். அலை
பரப்பி, அலை ஏற்பி, திரவ மின்கலங்களாகிய மின்விசை
ஆதாரம் ஆகிய யாவும் அடங்கியது அது.</p>

<p>	குண்டு சுடப்஼பட்டதும் இந்த மின்கலம் இயங்க ஆரம்~
பிக்கிறது. குண்டு அதற்குரிய இலக்கின் அருகே சென்றதும்
ராடார் உருகி, குண்டு வெடிப்பதற்கான கட்டளையை
அளிக்கிறது. இந்த ராடார் உருகிகள் பகை விமானங்~
களுக்கு எதிரான பாதுகாப்பிலும் கடற்படையிலும் தரைப்
படையிலும் பீரங்கிகளது குண்டு எறிதலின் பயன் திறனை
வெகுவாய் அதிகரிக்கச் செய்கின்றன.</p>

<p>	இந்த ராடார் உருகிகளை எந்த வகையில் சேர்ப்பது?
எதிலும் சேர்க்க இயலாது. முப்படைகளிலும் ராடார் சிறந்த
முறையில் செயலாற்றுகிறது. திடீர்த் தாக்குதலிலிருந்து
அவற்றுக்஼குப் பாதுகாப்பளிக்கிறது. இன்றைய படைகளின்
தாக்குதல் வலிவையும் வெகுவாக உயர்த்தியிருக்கிறது.</p>

<p>
ராடாரும் கடற்படையும்</p>

<p>	ராடாரைப் பயன்஼படுத்துவதில் கடற்படையினரும்
கப்பல் மாலுமிகளும் பின்஼தங்கிி஼விடவில்லை. இக்காலத்துக்
கப்பல்கள் அவற்றின் பருமனுக்கு தக்கபடி ஒன்று அல்லது
இரண்டு முதல் முப்பத்தைந்து வரையில் ராடார்களைத்
தாங்கிச் செல்கின்றன.
-65-
	விமானம் தாங்கிக்஼கப்பல், போர்க்கப்பல் போன்றவை
ஒவ்வொன்றும் முப்பது முதல் முப்பத்து ஐந்து ராடார்களை~
யும் குரூய்சர் போர்க்கப்பல் 20 ராடார்களையும்,
அழிப்பான் கப்பல் 10 ராடார்களையும், நீர்
மூழ்கிக் கப்பல்கள் 5 ராடார்களையும் கொண்டுள்ளன.</p>

<p>	துறைமுகத்தில் கப்பல்களை இழுத்துச் செல்லும்
இழுப்பானும் கூட இக்காலத்தில் குறைந்தது ஒரு
ராடாராவது பெற்றிருக்கிறது. இத்தனை ராடார்களும்
செய்யும் பணி என்ன?</p>

<p>	முதலாவதாக, நமக்கு ஏற்கனவே அறிமுகமாகியுள்ள
தேடும் ராடாரைக் குறிப்பிடலாம். இந்த ராடார் சுற்றுப்புற
நிலைமைகளைக் கண்காணித்து நேசக் கப்பல் அல்லது
பகைக்கப்பல் தெரியுமாயின், உடனே எச்சரிக்கை செய்~
கிறது. இந்தத் தேடும் ராடாரின் சுழலும் ஏரியலை எந்தக்
கப்பலிலும் தெளிவாகவே காண முடியும். மேலடுக்குகளாலும்
கம்பங்களாலும் தடுக்கப் படாமல் அலைகளை வீசவும்
ஏற்கவும் ஏற்றபடி இந்த ஏரியல், கூடுமான அளவுக்கு
உயரமாய்ப் பொருத்தப்஼பட்டுள்ளன.</p>

<p>	விமானப் படையைப் போன்றே கப்பல் படையும்,
கண்ணில் படாமல் பகைக் கப்பல்கள் தன்னை நெருங்கி
வந்து விடாதபடி தடுக்கும் பொருட்டுத் தொலைவில் வரும்~
போதே அவற்றைக் கண்டறிந்து முன்னதாகவே எச்சரிக்கை
அளிக்கும் ராடார் அமைப்பைப் பயன்஼படுத்திக்஼கொள்கிறது.
வான்வெளியைக் கண்காணிக்கும் ராடார்களும், அடிக்கடி
கப்பல்களில் பொருத்தப்஼படுவது உண்டு. நம்பகமான காவல்~
காரனாக அந்த ராடார்கள் அமைந்து, பகை விமானங்களின்
தாக்குதலிலிருந்து கப்பல்களைப் பாதுகாக்கின்றன.</p>

<p>	போர்க்கப்பல்களின் பீரங்கிகள், விமான எதிர்ப்புக்
குண்டுப் பொறிகள், டார்பிடோக்கள் முதலியவற்றைத் தக்க
-66-
நேரத்தில் சரியானபடி ஒழுங்குபடுத்தி இயக்கும் ராடார்~
களும் பயன்படுத்தப்஼படுகின்றன.</p>

<p>	சொந்தத் துறைமுகங்களில் மோசமான வானிலை~
யிலும், கப்பல்கள் ஒன்றோடொன்று மோதிக் கொள்ளாமல்
இருப்பதற்கு ராடார்கள் வகை செய்கின்றன. மிக நவீனமான
கடற்கப்பல் ராடார் கணிப்புப் பொறிகளுடன் இணைக்கப்
பட்டுள்ளது. எதனுடனாவது மோதிக் கொள்ளும்படியான
சாத்தியம் எழுகையில் முன் கூட்டியே இது எச்சரிக்கை
அளித்து, மோதலுக்கு இடமில்லாத பாதையில் கப்பலைச்
செலுத்துவதற்குப் பயன்படுகிறது.</p>

<p>	கப்பல் படையைச் சேர்ந்த விமானங்களில் பொருத்தப்
பட்டிருக்கும் ராடார்கள், ஏவுகணைக் கப்பல்கள் சுடும் ஏவு~
கணைகளை இலக்குகளுக்கு வழிகாட்டி நெறிப் படுத்துவன
ஆகும். இதே போல், ஹெலிகாப்டர் விமானங்களில்
அமைந்த ராடார்கள், நீர்மூழ்கிக் கப்பல்களைத் தேடிப்
பிடித்து, அவற்றை அழிக்கப் பயன்஼படுகின்றன.</p>

<p>	அடுத்து, கரையோரமாகச் செல்லும் போதும் ஆற்று
முகத்துவாரங்களின் அருகில் செல்லும் போதும், துறைமுகங்~
களை நெருங்கும் போதும் பாறைகளில் மோதாமல், மணல்
படுகையில் சிக்கிக் கொள்ளாமல் கப்பலுக்குப் பாதுகாப்~
பளிக்கும் கப்பல் போக்குவரத்து ராடார் அமைப்பினைச்
சற்று விரிவாகப் பார்க்கலாம்.</p>

<p>	மேற்கு ஜெர்மனியில் நிறுவப்஼பட்டிருக்கும் இம்மாதிரி~
யான ஓர் அமைப்பு, பால்டிக் கடற்கரை ஓரத்தில் கப்பல்
போக்குவரத்தின் பாதுகாப்புக்குச் சேவை புரிகிறது.</p>

<p>	எல்பா, வெஸ்ஸர் ஆறு஖ளில் இரவிலும் மூடுபனியிலும்
கப்பல் போக்குவரத்துக்கு வகை செய்யும் பொருட்டு,
1958 ஆம் ஆண்டில் ராடார் அமைப்பு ஒன்று நிறுவப்஼பெற்றது.
-67-
	பின்பு ஹாம்பர்க் துறைமுகத்தில் ஒரு ராடார் நிலையம்
நிறுவப்பட்டு அந்த அமைப்பு விரிவு படுத்தப்஼பட்டது.
ஏனெனில், கப்பல்களில் அமைந்த ராடார்கள் எதிர்ப்படும்
கப்பல்களைக் கண்டறிந்து தெரிவிப்பதற்கும், அவை எந்தத்
தொலைவில் உள்ளன என்று கணக்கிடவும் பயன்பட்டன
என்றாலும், அதைப்பற்றிய முழுமையான தகவல்களை
வழங்க அந்த நிலையத்தால் முடியவில்லை. கப்பலில்
அமைந்த ராடாரால், குறுகலாக வளைந்து நெளிந்து
செல்லும் ஆற்றினை நெடுந்தொலைவுக்குக் கண்காணிக்க
முடியவில்லை. இந்தக் குறையை நீக்குவதற்காக ஆற்றங்
கரையில் ஆங்காங்கே ராடார்கள் அமைக்கப்஼பட்டன.</p>

<p>	இவ்வாறு கரைகளில் அமைந்த ராடார்களின் பணியா~
ளர்கள், அப்பகுதி பற்றிய தகவல் அறிவோடுகூட, மற்றும்
பல துறைகளிலிருந்து கிட்டும் தகவல் விவரங்களையும்
பயன்஼படுத்திக்஼கொள்கிறார்கள். கப்பல் மார்க்கத்தில் நிலவும்
நிலைமை குறித்து இவர்கள் கப்பல் மாலுமிகளுக்குத் தெரியப்~
படுத்துகிறார்கள். இந்தத் தகவல்களின் அடிப்படையில்
கப்பல் தலைவர்கள், கப்பல் போக்குவரத்து இடையூறின்றி
நடைவெறுவதற்குத் தேவையான நடவடிக்கைகளை
எடுத்துக் கொள்கிறார்கள்.</p>

<p>	தற்பொழுது ராடார் ஊழியர்கள் மிக உயர் அதிர்வெண்
ரேடியோ சாதனங்களைப் பயன்~
படுத்தி ஆற்றின் நிலவரம் குறித்துக் கப்பல்களுக்குத் தெரிவிக்~
கிறார்கள்; எதிர்ப்படக் கூடிய அபாயங்கள் குறித்து எச்சரிக்~
கின்றார்கள்.</p>

<p>	வருங் காலத்தில், ராடார் தகவல் விவரங்கள் தானியங்கி
முறைகள் மூலம் கப்பல்களுக்கு அஞ்சல் செய்யப்படும் என்று
எதிர்பார்க்கப்஼படுகிறது. இந்த விவரங்களிலிருந்து, தக்க
கருவிகள் ஆற்றின் நிலவரத்தை ராடார் திரைகளில் தெரியும்
அதே தெளிவோடும் கூர்மையோடும் தமது திரைகளில்
-68-
தெரியச் செய்யும் இந்தக் கருவிகள் வழி காட்டியால் தாங்கிச்
செல்லப்படலாம்஼ஂ; அல்லது ஒவ்வொரு கப்பலிலும் நிரந்தர~
மாய்ப் பொருத்தப்஼பட்டிருக்க஼லாம்.</p>

<p>	இந்த ராடார் அமைப்புக்குத் திட்டம் புனைந்த
மூலவர்கள், கப்பல்களை அடையாளங்கண்டு அறிவிக்கும்
வசதிகளும் ஏற்பாடு செய்யத் திட்டமிட்டுக் கொண்டிருக்~
கிறார்கள். அதிகபட்ச அளவுக்குக் கூர்மையாய்ப் பிரிக்கப்
பட்டுத் தெளிவாக ராடார் திரையில் தெரிகின்ற போதுங்கூட,
சாதாரணமாய் அடையாளம் கண்டு கொள்வது மிகக்
கடினம்.</p>

<p>	விமானங்களில் இந்தப் பணி ஐ.எப்.எப். உறுப்புகளால்
செய்யப்஼படுகிறது என்பதை நாம் ஏற்கெனவே அறிந்தோம்.
ஆனால், ஐ.எப்.எப். அமைப்பு செயல்பட வேண்டு~
மென்றால் நாம் கேள்வி கேட்டு அடையாளங் கண்டு
கொள்ள வேண்டிய ஒவ்வொரு கப்பலிலும் `பதிலிறுப்பான்'
இருந்தாக வேண்டும். இத் தொல்லையிலிருந்து
விடுபடக் கரையில் அமைந்த கப்பல் போக்குவரத்துப் பாது~
காப்பு ராடார் அமைப்பில் கையாளப்படும் ஏற்பாட்டை
அனுசரிக்கலாம். ராடார்களுடன் தொடர்பு கொள்வதற்காகக்
கப்பலில் அமைந்த வி.எச்.எப். என்னும் திசை கண்டு
பிடிப்பான்களைக் கொண்டு முதலில் துல்லியமாகக் கண்டு
கொள்ளலாம். அடையாளம் காணப்பட வேண்டிய கப்பலின்
இடம் இவ்விதம் தீர்மானிக்கப்஼படுகிறது. இதே வழியில்
எல்லாக் கப்பல்களுமே ஒவ்வொன்றாக அடையாளம் காணப்~
படுகின்றன.</p>

<p>	அடையாளம் காணப்பட்ட கப்பல்களைக் கண்~
காணிக்கும் வேலை எளிதாகும் பொருட்டு, ராடார் திரையில்
ராடார் சைகைக்குப் பக்கத்தில் அக்கப்பலுக்கான அடை~
யாளம் குறிக்கப்஼படலாம். இலக்குகளின் திசையைக் காட்டும்
கோடுகளுடன் கூட அப்பகுதியின் படமோ, மிதவைகள்
-69-
போன்ற எல்லைக் குறிகளைக் காட்டும் படமோ பதிக்கப்
படலாம்.</p>

<p>	இம்மாதிரியான ராடார் அமைப்புகள் சோவியத் நாட்டில்
பயன்஼படுத்தப்஼படுகின்றன. ஒரு ராடார் அமைப்பு 1955 முதல்
கருங்கடலில் அதெஸ்ஸாவில் பணியாற்றிக் கொண்டிருக்~
கின்றது. பால்டிக் கடலிலும், கோலா வ஼ளைகுடாவிலுங்஼கூட
இதை ஒத்த அமைப்புகள், கப்பல் மார்க்கத்தின் இடர்ப்~
பாடுகள் மிக்க பகுதிகளிலும், போக்குவரத்து மிகவும் அதிக~
முள்ள துறைமுகங்களுக்கு அருகிலும் செயல்஼படுகின்றன.
எனவே, அபாயமில்லை, என்னும் தெம்புடன் கப்பல்களின்
காப்டன்கள் கப்பல்களை வேகமாகச் செலுத்த முடிகிறது.
இதனால் நேரம் வீணாகாமல் துறைமுகங்களில் அதிகமான
கப்பல்கள் வந்து செல்வது சாத்தியமாகிறது.</p>

<p>	1967 ஆம் ஆண்டு நடைபெற்ற லீப்சிக் உலகச் சந்தை~
யில் இன்னொரு ராடார் காட்சிக்கு வைக்கப்பட்டது. தீ
அணைக்கும் படகுக஼஼ளில் நிறுவப்஼படுவதற்காக அமைந்த
ராடார் இது. ஒரு சில மீட்டருக்கு மேல் கண்ணுக்குப்
புலப்படாத அடர்த்தியான புகைக்குள் பணி புரியும்
தீயணைக்கும் படையினருக்கு இந்த ராடார் பயன்படக்
கூடியது.</p>

<p>	விபத்துக்குள்ளான கப்பலை விட்டு உயிர்க்காப்புப் படகு~
களில் தப்பிச் செல்லும் மாலுமிகளுக்கும் ராடார் பயன்படு~
கிறது. ""தேடிப் பிடித்துக் காப்பாற்றும் ராடார்கள்"" என்று
வழங்கப்படும் இவை, கரையோரக் காப்புக் படையினரிடம்
உள்ளன. அவர்கள், இந்த ராடார்களின் துணை கொண்டு,
கொந்தளிக்கும் கடலிலும் 16 கிலோ மீட்டர்த் தொலைவு
வரையிலான பரப்பில் மிதக்கக் கூடிய உயிர்க்காப்புப் படகு~
களைக் கண்டறிந்து கொள்கிறார்கள். அந்தப் படகுகளில்
இருப்போர் அதற்குப் பின் உயிர் தப்புவது நிச்சயமாகி
விடுகிறது.
-70-</p>

<p>அறிவியல் துறையில் ராடார்!</p>

<p>	ராடாருக்கும் அறிவியல் துறைக்கும் இடையில் நிலவும்
உறவு பிரிக்க முடியாததாகும். விஞ்ஞான வித்தகர்கள்
ராடாரின் தரத்தையும் அமைப்பையும், பயனையும், வகை~
யையும் தொடர்ந்து உயர்த்திக் கொண்டே இருக்கிறார்கள்.
ராடாரோ இயற்கையின் ஆய்வுகளில் விஞ்஼ஞானிகளுக்கு
அனைத்து வழிகளிலும் பயன்பட்டுக்஼கொண்டிருக்கிறது.</p>

<p>	ராடார் தொழில் நுட்பம் முதன் முதலில் அயனக்கோள
அமைப்பைப் பற்றிய ஆய்வில்தான் பயன்படுத்தப்஼பட்டது
என்பதை ஏற்கெனவே அறிந்தோம். எம்.பாஞ்ச் புருயே
விச்சின் அயனக்கோள ஆய்வு நிலையமே ராடாரின்
முன்னோடியாகும்.</p>

<p>	எந்த உயரத்திலிருந்து குறிப்பிட்ட அதிர்வெண்ணுள்ள
ரேடியோ அலைகள் அல்லது சைகைகள் திரும்பி
எதிரொளிக்கப்஼படுகின்றன என்பதைக் கண்டு, அதிலிருந்து
அயனக்கோளத்தில் எந்த உயரத்தில் எந்த அளவு எலெக்ட்~
ரான் அடர்த்தி இருக்கின்றதென்பதை நாம் எளிதில் கணக்~
கிடலாம். இந்த விவரங்கள் அறிவியல் மதிப்புள்ளவை
என்பதுடன், நடைமுறையிலும் மிகுந்த முக்கியத்துவம்
வாய்ந்஦஼வை. எடுத்துக்காட்டாக, அயனக்கோளத்தின்
பண்புகளைக் கொண்டு எந்தெந்த அதிர்வெண்களிலான
ரேடியோ அலைகள் செய்தித் தொடர்புக்குச் சிறந்த முறை~
யில் பயன்படும் என்பதை நாம் அறியலாம்.</p>

<p>	வானிலை அறிவிப்பாளர்களுக்கு ராடார் இன்றியமை~
யாத கருவியாகிவிட்டது. வானிலையைப் பற்றி அறிய
ரேடியோ சாண்டிகளை அனுப்புவது ஓர்
எளிய வழியாகும். இவை பல அளவைக் கருவிகளையும்
சுமந்து கொண்டு காற்றிலே உயர்ந்து செல்லும் பலூன்~
களாகும். இக்கருவிகள் வானிலை விவரங்களை அளந்து
உடனே அவற்றைப் பூமிக்கு அனுப்புகின்றன. எடை குறைவான
-71-
உலோக எதிரொளிப்பான் ஒன்று ரேடியோ சாண்டி~
யில் பொருத்தப்஼படுமாயின், ராடாரால் இந்தப் பலூனை
நூற்றுக்஼கணக்கான கிலோ மீட்டர் தொலைவுக்குக் கண்~
காணிக்க முடியும். கண்காணிக்கும் ராடார் ரேடியோ
சாண்டியை அடித்துச் செல்லும் காற்று ஓட்டத்தின் வேகத்~
தையும், திசையையும் நிர்ணயித்துக் கூறுகிறது. வானிலை
விவரங்களைச் சேகரிப்பதற்கு இதைச் சரியான வழியென்று
கூற முடியாது.</p>

<p>	ராடார்கள் மூலம் நேரடியாக மேகங்கள், புயல்கள்,
சூறாவளிகள் ஆகியவை கண்காணிக்கப்஼படுகின்றன.</p>

<p>	நவீன ராடார்கள் மேகத் திரள்கள் செல்லும் பாதை~
களைக் கண்டறிவதோடு, நீராகக் குளிரும் மேகத்தையும்
கணக்கிட்டு விடுகின்றன.</p>

<p>	அமெரிக்காவில் சுழற்காற்றுகளைக் கூடக் கண்டறிந்து
கூறும் ராடார்கள் உள்ளன. அந்த ராடார்களை
இயக்குவோர், 16 கிலோ மீட்டருக்கு அப்பாலுள்ளது
வண்ணத்துப் பூச்சியா தேனீயா என்பதைக் கூடக்
கண்டறிந்து கூறும் அளவுக்கு அவை நுண்ணுணர்வு படைத்~
தவை என்று பெருமையோடு கூறுகிறார்கள். சூறாவளி~
களையும் கடும் புயல்களையும் கண்காணிக்க ராடார்கள்
அவசியம் தேவை. அவை கண்டறியும் விவரங்களின் அடிப்~
படையில்தான் புயல் எச்சரிக்கை அறிவிப்புகள் அனுப்பப்~
படுகின்றன. அபாய மண்டலங்களில் செல்லும் கப்பல்களும்
அவற்றின் அருகே செல்லக் கூடிய விமானங்களும் இவ்வாறு
முன்னெச்சரிக்கை செய்யப்஼படுகின்றன.</p>

<p>	இந்தச் சாதனங்களின் செயல்திற஼ன் வியக்கத்஼தக்கது.
உதாரணமாக, மாஸ்கோ நகரைச் சுற்றிலும் உள்ள விமான
நிலையங்களுக்கு மத்திய ஏரோபுளோட் வானிலை நிலையம்
அருஞ்சேவை புரிகிறது. மிகவும் நவீனமான ராடார்
சாதனங்களை அது பயன்஼படுத்துகிறது.
-72-
	1969 ஆம் ஆண்டில் மட்டும் அந்நிலையம் 200 ஆயிரம்
விமானப் பயணங்களுக்குச் சேவை புரிந்தது. ஒரு தடவை
கூட அந்நிலையத்தின் முன்னறிப்புகள் பொய்த்ததில்லை.</p>

<p>	இன்றைய ராடார்கள் தொலைவுகளை மிகவும் துல்லிய~
மாய் அளக்கக் கூடிய நிலையில் அமைக்கப் பட்டிருப்பதால்,
விமானங்களில் அமைந்துள்ள ராடார்களைக் கொண்டு புவிப்~
பரப்புப் படங்க஼ள் வரையப்஼படுகின்றன. இந்த விமானங்கள்
ஒரே தடவையில் மிகப் பெரும் பரப்புகளைச் சுற்றி வந்து
விடுகின்றன. அடிவானம் கடந்து செயல்படும் ராடார்களைப்
பயன்஼படுத்தி, பல ஆயிரம் கிலோ மீட்டர் தொலைவுக்கு
நீண்டு செல்லும் கடற்கரையின் படம் வரையப்஼படுவது
பற்றிய செய்திக் கட்டுரைகள் வெளிவந்துள்ளன.</p>

<p>	கடற்பரப்பிலிருந்து எதிரொளிக்கப்படும் ரேடியோ அலை~
களின் அதிர்வெண் நிலப்பரப்பால் எதிரொளிக்கப்படும்
ரேடியோ அலைகளின் அதிர்வு எண்ணிலிருந்து வேறுபடு~
கின்றது. (டாப்ளர் விளைவை நினைவுபடுத்திக் கொள்க.)
இந்த வேறுபாட்டைப் பயன்படுத்திக் கொண்டு கடற்கரை~
களின் படங்கள் வரையப்படுகின்றன.</p>

<p>	ஆர்க்டிக், அண்டார்ட்டிக் பகுதிகளில் மிகப் பெரிய பனிப்~
பாறைகள் மிதந்தவண்ணம் உள்ளன. அவை அழுத்தத்~
தினால் உடைக்கப்஼பட்டும், ஒன்றன்஼மேல் ஒன்று வைக்கப்~
பட்டும், காற்று வீச்சினால் ஒன்றோடொன்று குவிக்கப்~
பட்டும், கடுங்குளிரால் இணைக்கப்஼பட்டும் விடுகின்றன.
பனிக்கட்டியை உடைக்கும் பெருங்கப்பல்களால் கூட இந்தப்
பனிப்பாறை வேவு விமான ராடார் இச்சந்தர்ப்பங்களில்
கப்பல் போக்குவரத்துக்குப் பயன்படுகிற஼து. ஆர்க்டிக் கடல்
மார்க்கத்தின் ஆரம்ப நாள்களிலேயே விமானங்கள், கடின~
மான ஆர்க்டிக் பயணங்களில் மாலுமிகளுக்குப் பயன்பட்டன.
பனிக்கட்டிப் பார்வையாளர்களை ஏற்றிக் கொண்டு ஆகாய
-73-
விமானம் பறந்து செல்லும், வழியில் உள்ள பனிக்கட்டித்
திரள்களின் பரப்புகளை இந்தப் பார்வையாளர்கள் வரைந்து,
கப்பல் செல்ல வேண்டிய பாதையைத் தெளிவாகக் குறித்துக்
கொள்வர். பின்பு விமானத்தில் கப்பல்களின் கம்பங்களின்
உயரத்திற்குப் பறந்து, வரைபடத்தைக் க஼ொண்ட தபால்
பையைக் கப்பலில் போடுவார்கள். ஆனால், மோசமான
வானிலையில் சிறந்த விமானிகளால் கூட சில நேரம் வேவுப்
பயணம் சென்று வரமுடியாமல் போய்விடும். அன்று இந்தப்
பணி நேரில் பார்த்தே செய்யப்பட்டது.</p>

<p>	ஆனால், ராடார் தோன்றிய பின்பு, கருவிகளைக்
கொண்டே இந்தப் பணி நடைபெறத் தொடங்கிற்று.
இதற்காக ஏ என்-24 என்னும் விமானம் `பனிக்கட்டித்திரள்'
என்னும் பொருத்தமான பெயர் கொண்ட ராடார்
சாதனத்தை ஏற்றிச் சென்றது. நான்கு நிமிடங்களுக்கு ஒரு
முறை இந்த ராடார் நூற்றுக்கணக்கான சதுர கிலோ
மீட்டர் பரப்பளவுள்ள இடத்தின் மீது ராடார் அலைகளைப்
பரப்புகின்றது. படம் பிடித்துக் கொள்கிறது. இவ்விதம்
விவரமான பனிக் கட்டிப் படலப்படம் கப்பல் மாலுமிகளுக்குத்
தரப்படுகின்றது.</p>

<p>	1969 ஆம் ஆண்டு கோடைக்காலத்தில் துருவ வட்டத்~
தில் யூரல் பகுதியில் பல வாரங்கள் இடைவிடாது மழை
பொழிந்து கொண்டிருந்தது. அதனால் விமானங்கள் மேலே
பறந்து வானத்திலிருந்து இயற்கை வள ஆய்வுக் குழுவினரால்
படங்கள் எடுக்க முடியவில்லை. கடைசியில், ராடார்தான்
அவர்களுக்குப் பயன்பட்டது.</p>

<p>	`பனிக்கட்டித்திரள்' என்னும் ராடார் சாதனத்தை
எடுத்துக் கொண்டு ஏ.என்-24 என்னும் விமானம் வோர்
கூடா விமான நிலையத்திலிருந்து கிளம்பியது. அது மழை
மேகங்களுக்கு மேல் பறந்து, தன் ராடார் அலைகளைக்
-74-
கொண்டு கீழே பார்வையைச் செலுத்தியது. மலைச்சுருக்கங்~
களுடன் கூடிய யூரலின் கடுகடுப்பான முகத்தோற்றம் படச்~
சுருளில் பதிவானது. அதைக் கண்டு, இயற்கை வள
ஆய்வுக் குழுவினரான புவியியலாளர்கள், தம் கண்களையே
நம்ப முடியாமல் வியப்புற்றனர். வானிலை நன்கு அமைந்~
திருந்த சமயத்தில் விமானத்தில் பறந்து புகைப்படம் பிடித்த~
வர்கள் கூட இவ்வளவு தெளிவான படங்களை இதுகாறும்
பிடித்ததே இல்லை என்பதுதான் அவர்கள் வியப்பிற்குக்
காரணம்.</p>

<p>	ராடாருடன் கூடிய ஏ.என்.-24 விமானம், பெர்ரிங்
கடலில் பனிக்கட்டிகளிடையே சிக்கிக் கொண்ட மீனவர்~
களுக்கு வழிகாட்டி அவர்களை மீட்டது துருக்மேனியாவில்
இவ்விமானம் தரைக்கடியில் அமைந்த நீர் ஊற்றுகளைக்
கண்டுபிடிக்கப் பயன்பட்டது. இரயில்பாதை அமைப்போர்
தம் ஆக்கத் திட்டங்களுக்கு வேண்டிய பாதைகளை நிர்ண~
யிக்க அந்த விமானம் மிகவும் பயன்பட்டது.</p>

<p>	இவ்வாறு ராடார் வியக்கத்தக்க முறையில் பூமிக்
கோளத்தில் பணியாற்றியுள்ளது. இப்பொழுது அதன்
பேராற்றலைப் புறவெளியிலும் (விண்வெளி) பயன்படுத்த
மனிதன் முயன்று கொண்டிருக்கிறான்.</p>

<p>
",0
               0 
</p></body></text></cesDoc>