<cesDoc id="tam-w-science-computer-com" lang="tam">
<cesHeader type="text">
<fileDesc>
<titleStmt>
<h.title>tam-w-science-computer-com.txt</h.title>
<respStmt>
<respType>Electronic file created by</respType>
<respName>Central Institute for Indian Languages, Mysore</respName>
<respType>transferred into Unicode and CES format by</respType>
<respName>"Unicodify" software by Andrew Hardie</respName>
</respStmt></titleStmt>
<publicationStmt>
<distributor>UCREL (on behalf of CIIL)</distributor>
<pubAddress>Department of Linguistics, Lancaster University, Lancaster, LA1 4YT, UK</pubAddress>
<availability region="WORLD"></availability>
<pubDate>03-07-04</pubDate>
</publicationStmt>
<sourceDesc>
<biblStruct>
<monogr>
<h.title>கம்ப்யூட்டர்</h.title>
<h.author>வி. மோ'னசுந்தரம்</h.author>
<imprint>
<pubPlace>India</pubPlace>
<publisher>Unknown - Book</publisher>
<pubDate>1988</pubDate>
</imprint>
<idno type="CIIL code">com</idno>
</monogr></biblStruct></sourceDesc></fileDesc>
<encodingDesc>
<projectDesc>Text collected for the CIIL Corpus, subsequently integrated into the EMILLE/CIIL Monolingual Written Corpora.</projectDesc>
<samplingDesc>Simple written text only has been transcribed. Diagrams, pictures and tables have been omitted. Sampling begins at page 48.</samplingDesc>
<editorialDecl><conformance level="1"></conformance></editorialDecl>
</encodingDesc>
<profileDesc>
<creation><date>03-07-04</date></creation>
<langUsage>Tamil</langUsage>
<wsdUsage>
<writingSystem id="ISO/IEC 10646">Universal Multiple-Octet Coded Character Set (UCS).</writingSystem>
</wsdUsage>
<textClass>
<channel mode="w">print</channel>
<constitution type="composite"></constitution>
<domain type="public"></domain>
<factuality type="fact"></factuality>
</textClass>
<translations></translations>
</profileDesc>
<revisionDesc></revisionDesc>
</cesHeader>

<text><body>

<p>-1-</p>

<p>            1.  கம்ப்பூட்டரின் தோற்றம்</p>

<p>     கம்ப்யூட்டர் எனும் கணிப்பொறி இன்று பல்வேறு
பிரிவினராலும் பல்வேறு வயதினராலும் பெரிதும் வர~
வேற்கப்படுகிறது. கம்ப்யூட்டர் என்றால் என்ன? அது
எத்தன்மையது? அது என்ன செய்யும்? என்று காண்பதற்கு
முன் அது எ஫்படி வந்தது, எவ்வாறு வளர்ந்தது என்பவை
பற்றிப் பார்ப்போம்.</p>

<p>     ஒரு பொருள் தோன்றியது என்றால் அ஥ற்குக்
காரணம் இருக்க வேண்டும், அ஥ற்குத் தேவையும் இருக்஼க
வேண்டும். இன்று உலகில் உள்ள அனைத்துக் கண்டு~
பிடிப்புகளும் மனிதனின் தேவையையும், ஆவலையும்
அடிப்படையாகக் கொண்டு கண்டுபிடிக்கப்பட்டவையே.
எடுத்துக்காட்டாக, நாம் திரைப்படத்தைப் பார்க்க~
லாம். பழைய காலத் திரைப்படங்கள் கருப்பு,
வெள்ளை நிறங்களில் இருந்தது. பின்னர் மனிதனின்
ஆவல், நாம் இயற்கையில் பொருள்களை எவ்வாறு
அவற்றின் நிறத்தில் காண்கிறோமோ அதேபோல் திரைப்~
படத்தையும் இ௟ற்கையாக அவற்றின் வண்ணங்களிலேயே
காணவேண்டும் என்று சென்றது. அ஥ன் விளைவுதான்
வண்ணத் திரைப்படம். இவ்வாறு நாம் எவ்வளவோ
அடுக்கிக் கொண்டே போகலாம். நாம் இங்கு காண
வேண்டியது கணிப்பொறியின் வேகமான வரலாறு!</p>

<p>-2-</p>

<p>     `பொதுவாக மனித இனம் பேசவும், சிந்திக்கவும்
தெரிந்த விலங்கினம்; இன்னும் ஒன்றைச் சேர்த்துச்
சொன்னால் சிரிக்கவும் தெரிந்த இனம்' என்று சிலர் கூறு~
வார்கள். அதைப்போல் எதையும் இலகுவாகச் செய்ய
வேண்டும் என்ற எண்ணம் மனிதனைச் சிந்தித்துச் செயல்~
படச் செய்தது. கற்கால மனிதர்கள், மனிதர்களையும்
விலங்குகளையும் எண்ணுவதற்குச் சிறுகற்களைப் பயன்~
படுத்தினார்கள் என்று வரலாறு நமக்கு அறிவிக்கிறது.
இந்தச் செய்தியிலிருந்து நமக்குத் தெரிய வருவது ஒரு
உண்மை; அதாவது மனிதனுக்கு எண்ணுவதற்கு ஒரு
பொருள் தேவைப்படுகிறது என்பதுதான். இவ்வாறு
ஆரம்ப காலத்திலிருந்து மனிதனுடைய அறிவும்,
ஆற்றலும் வளர வளர ஒவ்வொரு காலக்கட்டத்திலும்
பல்வேறு கருத்துக்களும் செயல் முறைகளும் முளைத்தன.
இ஥ன் விளைவாக இறுதியில் ஒரு பெரிய வடிவத்தில்,
பெரும் பொருட்செலவில் ஒரு கருவி செய்யப்பட்டது.
பெரிய யானைக்கு ஒப்பான அக்கருவியே கம்ப்யூட்டர்
என்று ஆங்கிலத்திலும் கணிப்பொறி என்று தமிழிலும்
சொல்லப்படுவதாகும்.</p>

<p>     இப்பொழுது நாம் ஆ஥ி மனிதன் காலம் முதல்
இப்பொழுதுள்ள ஐந்தாம் தலைமுறை கம்ப்யூட்டருக்கான
முயற்சிகள் வரை ஒவ்வொன்றையும் படிப்படியாகப்
பார்ப்போம்.</p>

<p>     முதன் முதலாக கிறிஸ்து பிறப்பதற்கு 2000 ஆண்டு~
களுக்கு முன் சீனர்கள் `அபக்கஸ்' எனப்படும்
மணிச்சட்டம் என்ற கருவியைப் பயன்படுத்தினர். இந்த
அமைப்பை இப்பொழுதும் சீனர்கள் வைத்துள்ளனர்.
இது எதைப்போல் என்று சொன்னால், தற்காலத்தில்,
சிறுவர்கள் எழுதக்கூடிய சிலேட் என்னும் கரும்பலகையின்
ஒரு பகுதியில் மணிகள் கோர்க்கப்பட்ட கம்பிகள் உள்ள~
தல்லவா, அதைப்போல்தான்.</p>

<p>-3-</p>

<p>     ஜப்பானியர் அந்தக் காலத்திலேயே மிக எளிதாக~
வும் சிக்கனமாகவும் எதையும் செய்யும் தன்மை உள்ளவர்~
களாக இருந்திருக்கின்றனர். சீனத்து அபக்கஸில் ஒரு
கம்பிக்கு ஏழு மணிகளை வைத்திருந்தார்கள். ஜப்பானியர்
அதே அபக்கஸில் இரண்டு மணிகளைக் குறைத்து ஒரு
கருவியை அமைத்தனர். அ஥ற்கு அவர்கள் `சோரபான்'
என்று பெயரிட்டு அழைத்தனர். இந்த
அபக்கஸ், சோரபான் ஆகிய இரண்டுமே சம காலத்தவை.</p>

<p>     அபக்கஸூம், சோரபானும் கி.மு. இருபதாம் நூற்~
றாண்டு காலத்தைச் சேர்ந்தவை என்றோம்; அதாவது
ஏறக்குறைய நான்காயிரம் ஆண்டுகளுக்கு முன்பிருந்து நம்
கம்ப்யூட்டரின் கதை ஆரம்பமாகிறது. மனிதனுக்கு
ஆதி காலத்திலிருந்தே எளிதாக எதையும் செய்யவேண்டும்
என்ற எண்ணம் இருந்திருக்கின்றது என்பதை நாம்
இதிலிருந்து அறிகிறோம்.</p>

<p>     இந்தப் புராதன அபக்கஸூக்கும், எலக்ட்ரானிக்
கேல்குலேட்டருக்கும் (கணிப்பான்) போட்டி வைத்ததில்
இன்றும் இந்த அபக்கஸ் தான் வெற்றி பெற்றுள்ளது
என்றால் இது எவ்வளவு சிறப்பு மிக்கது என்பதை நாம்
அறியலாம்.</p>

<p>     மின்னணுவியல் புரட்சி ஏற்~ (Electronic revolution)
பட்டு, ஒரு பட்டனைத் தட்டி எதையும் மிக எளிதாகச்
செய்யக் கூடிய இக் காலத்திலும் ஜப்பானில் அபக்கஸ்
உபயோகிப்பவர் சங்கங்களும் அபக்கஸ் ஆராய்ச்சிக்
கழகங்களும் இருக்கின்றன.</p>

<p>     இப்பொழுது நாம் அபக்கஸிலிருந்து அடுத்த படிக்கு
வருவோம். கி.பி. 17-ஆம் நூற்றாண்டின் ஆரம்ப
காலத்திலேயே மாறுபாடுகள் நிகழ்ந்தன.</p>

<p>     அவற்றைக் கால வரிசைப்படி பார்ப்போம். முதல்
மாற்றமாக 1617-ல் ஸ்காட்லாண்ட் நாட்டைச் சார்ந்த</p>

<p>-4-</p>

<p>கணக்கியல் அறிஞர் ஜான் நேப்பியர்
என்பவர் ஒன்பது சட்டங்களைக் கொண்டு ஒரு கருவி
செய்தார். அ஥ற்கு நேப்பியர் சட்டங்கள்
என்று பெயர். இ஥ன் துணைகொண்டு பெருக்கல்,
வகுத்தல், வர்க்கமூலம் காணுதல் ஆ஖ிய பணிகளைச்
செய்யலாம்.</p>

<p>     இதே பதினேழாம் நூற்றாண்டிலேயே இரண்டாவது
முன்னேற்றம் என்னவென்றால், நேப்பியர் சட்டங்~
களில் உள்ள கட்டங்களை அடிப்படையாகக் கொண்டு
1633-ல் வில்லியம் ஆட்ரெட் என்ற இங்கிலாந்து அறிஞர்
சறுக்குக்கோல் (அ) கணக்குச் சட்டம் என்னும் ஸ்லைட்
ரூல் என்ற கருவியைக் கண்டுபிடித்தார். இக்~
கருவியில் இருந்த சட்டங்கள் யானைத் தந்தத்தைக்
கொண்டு செய்யப்பட்டிருந்தன. ஆகையால் இதிலுள்ள
நகரும் சட்டத்தை நகர்த்துவது எளிதாக இருந்தது.
பிற்காலத்தில் பிளாஸ்டிக் போன்ற பொருட்களினால்
செய்யப்பட்டு ஓரளவுக்கு விலையும் குறைக்கப்பட்டது.</p>

<p>     ஸ்லைட் ரூல் என்னும் கருவிக்கு அடுத்தபடியாக,
1642-ல் பிரான்ஸ் நாட்டுக் கணித மேதை பிளைஸ்
பாஸ்க்கல் என்பவர் சுற்றக்கூடிய பற்~
சக்கரங்களையும், சட்டங்களையும் வைத்து ஒரு கருவி
செய்தார். இக்கருவியின் குறைபாடு பெருக்கல் வகுத்தல்
செய்ய முடியாததுவே. இக்கருவியின் பெயர் எண் சக்கரக்
கணிப்பான். இக்கணித
மேதையின் தந்தையார் பிரெஞ்சு அரசில் வரிவசூலிப்பவர்~
களின் மேற்பார்வையாளராக
பாரிஸ் நகரில் வேலை பார்த்தவர். இவர், வரி வசூல்
கணக்குகளைக் கூட்டுமாறு தன் ம஖னிடம் கூறுவார்.
இ஥னை ஒரு தொல்லையாகக் கருதிய பாஸ்க்கல்
இக்஼கருவியைக் கண்டுபிடித்தார்.</p>

<p>-5-</p>

<p>     ஜெர்மன் நாட்டைச் சேர்ந்த காட்ப்ரெயிட் வில்ஹம்
லீப்னீட்ஸ் என்பவர்
1672-ல் பாஸ்க்கலின் கருவியில் பல மாற்றங்கள் செய்து
`லைபினீசு சக்கரம்' என்னும் சக்கரங்கள்
அடங்கிய கருவியைச் செய்து, 1673-ல் இலண்டனில் ஒரு
கண்காட்சியில் வைத்துப் பாராட்டுக்கள் பெற்றார்.
இக்கருவி கூட்டலையும் கழித்தலையும் பெருக்கலையும்
செய்யும் திறனுடையது. இங்கிலாந்தின் அரச கழகமும்
பாரிஸின் அறிவியல் கலைக்கழகமும்
இ஥னை வெகுவாகப் பாராட்டி லீப்னீட்ஸை அவற்றின்
சிறப்பு உறுப்பினராகச் சேர்த்துக்கொண்டு பெருமைப்~
படுத்தின. 1670-ல் சோவியத் பேரரசருக்கும், சீனப்
பேரரசருக்கும் லீப்னீட்ஸ் இக்கருவியைச்செய்து கொடுத்~
தார். இந்தச் செய்தி நமக்கு ஓர் உண்மையைப் புலப்~
படுத்துகிறது. புதியதாகக் கண்டுபிடிக்கப்பட்ட கருவி~
களும், கருத்துக்களும் கூட அந்தக் காலத்திலேயே நாடு
விட்டு நாடு கடந்திருக்கிறது என்பதுதான்! அரேபியாவி~
லிருந்து குதிரைகளும் ஜப்பானிலிருந்து சூடமும் நமக்கு
இறக்குமதி செய்யப்பட்டன என்பது வரலாற்றுச்
செய்தி. அவ்வாறின்றி ஒரு கருவி மற்றொரு நாட்டுக்குச்
சென்றது என்றால், அது வியப்புக்குரிய ஒன்றாகும்!
எடுத்துக்காட்டாக 1940-களில் அமெரிக்காவில் முதல்
முதலாக உருவாக்கப்பட்ட மின்னணுக் கணிப்பொறி
1960-களில் தான் இந்தியா வந்தது என்றால் அந்தக்
காலத்திலேயே அதாவது 17ஆம் நூற்றாண்டிலேயே ஒரு
கருவி கண்டம் விட்டுக் கண்டம் வந்தது, நம்மைவிட நம்
முன்னோர் எவ்வாறு மும்முரமாக இருந்திருக்கின்றனர்
என்பதை விளக்கும்.</p>

<p>     லீப்னீட்ஸூக்குப் பிறகு 19ஆம் நூற்றாண்டிலேதான்
மாற்றம் ஏற்பட்டது. கேம்பிரிட்ஜ் பல்கலைக்கழகத்தின்
கணிதப் பேராசிரியர் சார்லஸ் பாபேசு
1822 ஆம் ஆண்டு வேற்றுமைப் பொறி</p>

<p>-6-</p>

<p>என்னும் கருவியைக் கண்டறிந்தார். இ஥ற்காக இவர்
தங்கப்பதக்கம் ஒன்றை ராயல் அஸ்ட்ரானமிக்கல்
சொஸைட்டியிடம் இருந்து பெற்றார். பின்னர் பாபேசு
இருபது தசம இடங்களுடன் சரியான தீர்வுகாணக்கூடிய
கருவியைச் செய்யத் திட்டமிட்டிருந்தார். அ஥ற்கு
இங்கிலாந்து அரசாங்கமும் பண உதவி செய்ய ஒப்புக்
கொண்டது. அரசுப் பொருளுதவியுடன் தன் சொந்தப்
பணத்தையும் செலவு செய்து முயற்சி செய்தார்.
தற்காலத்தில் உள்ளதுபோல் அப்பொழுது வசதியில்லாக்
காரணத்தால் ஏராளமான பற்சக்கரங்களும் இரும்புச்
சட்டங்களும் தேவைப்பட்டன. அவை சரிவரக் கிடைக்கப்
பெறாததாலும் அரசும் ஥ன் மானியத்தை அளிக்காத~
தாலும் இக்கருவி செய்யும் முயற்சி தடைப்பட்டு விட்டது.</p>

<p>     அரசு தன்னுடைய பொருளுதவியை நிறுத்திய~
போதும், தன்னுடைய விடாமுயற்சியின் காரணமாக
`பகுப்பாய்வுக் கருவி' என்னும் இக஼்~
காலக் கம்ப்யூட்டருக்கு முன்னோடியான ஒரு கருவியைச்
செய்யத் திட்டமிட்டார். உலகில் முதன்முதல் தானி~
யங்கிக் கணிப்பொறியமைப்பைக் கண்டுபிடித்ததால்,
இவரைக் `கணிப்பொறியின் தந்தை' என்று அழைக்~
கிறோம்.</p>

<p>     பாபேசுவின் மூளை இன்றும் இங்கிலாந்திலுள்ள
ஹன்டேரியன் அருங்காட்சியகத்தில்
பாதுகாக்கப்படுகிறது.</p>

<p>     பாபேசு 1871-ல் இறந்தபிறகு அவருடைய பகுப்~
பாய்வுக் கருவியைப் பயன்படுத்தி அவருக்குப் பெருமை
கூட்டியவர் புகழ் பெற்ற ஆங்கிலக் கவிஞர் லார்டு
பைரனின் மகள் அடை அகஸ்டா
லவ்லேஸ் என்பவர் ஆவார். உலகின் முதல் வழியமைப்~
பாளர் இவரே ஆவார். பிற்காலத்தில் அடா
(அல்லது) ஏடா என இவர் பெயராலேயே ஒரு கணிப்஼பொறி</p>

<p>-7-</p>

<p>மொழி அமைக்கப்பட்டுள்ளது இவருக்கு இன்னும்
பெருமை சேர்ப்பதாகும்.</p>

<p>     அடுத்த குறிப்பிடத்தக்க முன்னேற்றம் அமெரிக்காவில்
ஏற்பட்டது. அமெரிக்காவில் 1890-ல் மக்கட்தொகைக்
கணக்கெடுப்பு மேற்கொள்ளப்பட்டது. முந்தையக் கணக்~
கெடுப்பெல்லாம் முடிய ஏறக்குறைய எ஠்டு ஆண்டுகள்
ஆயிற்று. ஆகையால் அந்நாட்டரசு ஒரு போட்டி ஏற்பாடு
செய்தது. அ஥ில் டாக்டர் ஹெர்மன் ஹாலரித் என்பவர்
1890ஆம் ஆண்டுக் கணக்கெடுப்பை மூன்றாண்டுகளுக்~
குள்ளேயே முடித்துவிட்டார்.</p>

<p>     டாக்டர் ஹாலரித் பயன்படுத்தியது துளையிடப்பட்ட
அட்டைகளேயாகும். துளையிடப்பட்ட அட்டைகளை
ஹாலரித், புள்ளி விவரங்களைப் பதிவு செய்யப்
பயன்படுத்தினார். துளையிடப்பட்ட அ஠்டையைப்
பயன்படுத்திப் புள்ளி விவரங்களைத் தொகுக்கவும்,
பிரிக்கவும் இலகுவாக இருந்தது. பின்னர் ஹாலரித்
டேபுலேட்டிங் மெஶின் கம்பெனி
என்ற நிறுவனம் துளையிடப்பட்ட அட்டை~
களைக் கொண்டு செய்திகளைத் திரட்டிக் கணக்கிடும்
கருவியைச் செய்தது. பிற்காலத்தில் இந்நிறுவனம்
மற்றோர் கம்பெனியுடன் சேர்ந்து புதிய ஐ. பி. எம்.
நிறுவனம் உருவாயிற்று.
இந்த நிறுவனம் (ஐ. பி. எம்.) உலகப் புகழ் பெற்ற
திறன் மிகுந்த கணிப்பொறிகளை உருவாக்கியது.</p>

<p>     ஹாலரித் உருவாக்கிய துளையிடப்பட்ட அட்டை
1880 ஆம் ஆண்டிலேயே பிரான்ஸ் நாட்டில் ஜோஸப் மேரி
ஜாக்வார்டு என்பவரால் நெசவு செய்யும் பொறியில் பயன்~
படுத்தப்பட்டதாகும். எனினும் தற்காலத்தில் ப௟ன்படும்
துளையிடப்பட்ட அட்டையைக் கணிப்பொறிக்குப் ப௟ன்~
படுத்திய பெருமை ஹாலரித்தையே சாரும்.</p>

<p>-8-</p>

<p>     இதுவரை நாம் கணிப்பொறி எவ்வெக் காலத்தில்
எந்தெந்த நாட்டுக்காரர்களால் எவ்வாறெல்லாம் படிப்~
படியாகக் கண்டுபிடிக்கப்பட்டும், வடிவமைக்கப்பட்டும்
வந்தது என்று பார்த்தோம். இனி நாம் முழுமையாக
஖ணிப்பொறி - அதுவும் தானியங்கிக் கணிப்பொறியை
எந்த நாட்டில் எந்த ஆண்டில் யார் வடிவமைத்தார்
என்பது பற்றிப் பார்ப்போம்.</p>

<p>     கணிப்பொறி வரலாற்றின் ஆரம்ப காலத்தை நாம்
பார்த்தால் மனிதனுக்கு உதவியாகவும் எளிதாக
கணக்கைச் செய்வதற்கும் ஒரு இயந்திரம் தேவைப்~
பட்டது என்பதை உணரலாம். ஆ஖ையால்தான்
பன்னாட்டுமக்கள் பலகாலக் கட்டங்களில் பல கருவி~
களைப் பயன்படுத்தி வந்தனர். ஆனால், சற்றுப் பிற்~
காலத்தில், அளவிற்கு அ஥ிகமான கணக்குகளை அ஥ிவேக~
மாகச் செய்ய அதாவது மனிதனால் செய்யக் காலதாமத~
மாகும் அல்ல஼து கடினமானதாகும் என்பனவற்றுக்கு
இயந்திரம் தேவைப்பட்டது. உ஥ாரணமாக, நாம்
முன்னர் பார்த்த அமெரிக்க மக்கள் தொகைக் கணக்~
கெடுப்பைச் சொல்லலாம்.</p>

<p>     இக்காலத்தில் உள்ள கணிப்பொறியின் கண்டுபிடிப்~
பிற்கு அடிப்படையாக அமைந்த காரணமும் அதுவே
தான். இப்பொழுது உள்ள கணிப்பொறி 1930-க்கும்
950-க்கும் இடைப்பட்ட காலத்தில் கண்டு பிடிக்கப்~
பட்டது. இரண்டாவது உலகப் போர் நிகழக்கூடிய
அறிகுறிகள் நிலவிய காலம் அது. இந்தக் காலத்திலே
தான் மனிதனின் இயல்பான செயல் வேகத்தைவிட
அதிவேகக் கருவிகள் தேவைப்பட்டன. எனவே, பல
நாட்டு அரசுகளும், பாதுகாப்பு நிறுவனங்களும் கணிப்~
பொறி வடிவமைப்பு மற்றும் உருவாக்கத் திட்டங்களுக்~
குப் பொருள் உதவியும் ஊக்கமும் அளித்தன.</p>

<p>-9-</p>

<p>ஜெர்மன் நாடும், கணிப்பொறியும்</p>

<p>     இன்று பெரும்பாலோரும், முதல் கணிப்பொறியை
அமெரிக்கர்தான் உருவாக்கினர் என நினைக்கின்றனர்.
அது பறை சாற்றப்பட்டும் வருகிறது. ஆனால் உண்~
மையில் முதல் கணிப்பொறி 1938ஆம் ஆண்டு ஜெர்மன்
நாட்டு இளம்பொறியாளர் கொன்ராடு ஜூஸ்
என்பவரால் உருவாக்கப்பட்டது.</p>

<p>     ஜூஸ் முதலில் உருவாக்கியது Z-1 (இசட்-1)
என்னும் கணிப்பொறியாகும். அதில் அவர் மின்காந்த
இயங்குத் தடைகளையும் இரு
நிலை எண்ணையும் பயன்படுத்தினார். இதைப்~
போல் மொத்தம் நான்கு கணிப்பொறிகளை உருவாக்~
கினார். ஆனால் எ஥ிர்பார்த்தது போலன்றி அவருக்கு
ஜெர்மன் நாட்டு அரசு உதவி எதவும் கிடைக்கவில்லை.</p>

<p>     அவர் `நொட்டேஶன் ப்ரொக்ராமிங் லேங்குவேஜ்'
ஒன்றைத் தனது
பொறிக்குக் கட்டளை இடுவதற்குப் பயன்படுத்தினார்.
அம்மொழியே உலகின் முதல் கட்டளை மொழி. அவர்
பயன்படுத்தின அம்மொழிக்கு `பிளாங்கல்குல்'
என்று பெயரிட்டார்.</p>

<p>     இவர் ஖ண்டுபிடித்து உருவாக்கிய முதல் மூன்று
கணிப்பொறிகள், பெர்லின் நகரின் மீது 1944ஆம் ஆண்டு
நடைபெற்ற குண்டு வீச்சினால் அழிந்துவிட்டன.</p>

<p>1920-க்கும், 1950-க்கும் இ஠ைக்காலத்தின் ஏனைய
     கணிப்பொறிகள்:</p>

<p>     டாக்டர் வன்னிவர் புஶ் என்ற மசாசுசெட்ஸ்
பல்கலைக்கழக அறிஞர் 1925 ஆம் ஆண்டு வேறுபாட்டுக்</p>

<p>-10-</p>

<p>கருவி என்னும் கணிப்பொறியை
வடிவமைத்தார். அ஥ன்பிறகு பெல் தொலைபேசி
நிறுவனத்தில் பெல் இ௟ங்குதடைக் கணிப்பொறிகள்
உருவாக்கப்பட்டன. 1939-ல் அயோவா
பல்கலைக்கழக இ௟ற்பியல் அறிஞர்
ஜான் வின்ஸென்ட் அட்டனாசோஃப்
என்பவர் அட்டனாசோஃப் பெர்ரி
என்னும் கணிப்பொறியை அமைத்தார்.</p>

<p>     உலகிலேயே தலைசிறந்து விளங்கும் ஐ. பி. எம்.
நிறுவனமும், அமெரிக்கக் கடற்படையும் செய்த உதவி~
யைக் கொண்டு ஹார்வார்டு பல்கலைக்கழக஼க்
கணிதப் பேராசிரியரான ஹோவார்ட் ஐக்கன்
என்பவர் 1944ஆம் ஆண்டு மார்க்-1,
என்ற தானியங்கிக் கணிப்பொறியை உருவாக்கினார்.
இதில் ஐக்கன் முற்றிலும் இ௟ங்குத் தடைகளைப்
பயன்படுத்தி இருந்தார்.</p>

<p>     இ஥ற்குப் பின்னர் மின்னணுக் குமிழ்களைக்
கொண்டு மார்க் - 3 என்ற கணிப்~
பொறி உருவாக்கப் பட்டது.</p>

<p>     முழுவதும் மின்னணு முறையில் செயல்படும் முதல்
மின்னணுக் கணிப்பொறியை பிலெடெல்பியா~
வில் உள்ள பென்சில்வேனியா பல்கலைக்கழகத்தில்
1942 ஆம் ஆண்டு ஜே.ஜி. பிரெயினர்டு
ஜே.பி. எ஖்கட், ஜ஼ே. டபிள்யூ. மாச்லி
ஆகிய மூவரும் உருவாக்கினர். அ஥ற்கு
எனியாக் என்று பெயர்.</p>

<p>-11-</p>

<p>     இந்த எனியாக் கம்ப்யூட்டர் தற்பொழுது ஒரு
முழுப் பகுதிக்கு மின்சாரம் வழங்கும் டிரான்ஸ்பர்மாரின்
முழு மின்சாரத்தையும் பயன்படுத்தக்
கூடியது. இ஥ில் மின்னணுக் குமிழ் பயன்படுத்தப்பட்டது.
ஏறக்குறைய 15,000 சதுர அடி பரப்பளவுள்ள அடித்~
தளத்தை அடைத்துக் கொள்ளக்கூடியது.</p>

<p>     இந்த எனியாக்கிற்குப் பிறகு நியூமன் மெஶின்,
""நினைவிருத்த வழிமுறை""க்
கணிப் பொறி
முதலியவை உருவாக்கப்பட்டன.</p>

<p>     1952-ல் நினைவிருத்த வழிமுறை கணிப்பொறி
உருவாக்கப்பட்டதைத் தொடர்ந்து இல்லியாக்,</p>

<p>-12-</p>

<p>மானியாக் - 1, ஜானியாக்
ஆகிய கணிப்பொறிகள் உருவாக்கப்பட்டன.</p>

<p>     பின்னர் எனியாக் கணிப்பொறியை உருவாக்கிய
மாச்லி, எக்கட் ஆகியோர் இருங்கடத்திகளைக்
கொண்டு யுனிவேக் என்னும் கணிப்~
பொறியை உருவாக்கினர்.</p>

<p>-13-</p>

<p>         2.  கணிப்பொறியின் வகைகள்</p>

<p>     கணிப்பொறி என்னும் கருவியைப் பலவகைகளில்
வகைப்படுத்தலாம். நாம் முந்தைய அத்தியாயத்தில்
கணிப்பொறி எவ்வாறெல்லாம் பல்வேறு காலக்கட்டங்~
களில் பல்வேறு நாட்டவர்களால் உருவாக்கப்பட்டும்
வடிவமைக்கப்பட்டும் வந்தது என்றும் கடைசியில் எந்~
நாட்டவரால் எவ்வெவற்றைக் கொண்டு வடிவமைக்கப்~
பட்டது என்றும் அறிந்தோம்.</p>

<p>     இப்பொழுது கணிப்பொறியை எவ்வாறெல்லாம்
வகைப்படுத்தலாம் என்று ஆழ்ந்தறிவோம். கணிப்~
பொறியை அ஥ன் பயன்பாடுகளை ஒட்டி வகைப்~
படுத்தலாம்; அது எந்த மாதிரியான செய்திகளைக்
கொண்டு செயல்படுகிறது என்ற அடிப்படையிலும் வகைப்~
படுத்தலாம்; அ஥னை எவ்வாறு எ஥னைக் கொண்டு
தயார் செய்துள்ளனர் என்பதை அடிப்படையாகக்
கொண்டும் ஒரு வகையில் வகைப்படுத்தலாம். இவற்றை
நாம் ஒவ்வொன்றாகப் பார்க்கலாம்.</p>

<p>1.  எண்ணிலக்கக் கணிப்பொறி</p>

<p>     சுருங்கச் சொன்னால் எண்களை அடிப்படையாகக்
கொண்டு இ௟ங்குவது. இ஠ுவரலகத்தின் மூலம்
கணிப்பொறிக்குக் கொடுக்கக்கூடிய ஆணைகளும், செய்திக்
கூறுகளும் கணிப்பொறியின் நினைவகத்தில் எண்களாகப்</p>

<p>-14-</p>

<p>பதிவு செய்யப்படுகின்றன. பதிவு செய்யப்பட்டவை
படித்துணரப்பட்டு, மையச் செயலகம் செய்ய வேண்டிய~
வற்றைச் செய்து கணக்குக்கு ஏற்ற விடையை நமக்கு
அளிக்கிறது.</p>

<p>2.  ஒப்புமைக் கணிப்பொறி</p>

<p>     இவ்வகைக் கணிப்பொறிகள் செய்திக் கூறுகளை
எண்களாகப் பெறாமல் தொடர்ச்சியான அளவை
முறையில் இடுவரலைப் பெற்றுச் செயலாற்றும்
தன்மை உடையது. வோல்ட், ஆம்பியர் முதலிய மின்
அலகுகளை அந்தந்த மீட்டரில் இருந்து படித்தறிந்து
கணித்தலை இ஥ற்கு எ஠ுத்துக்காட்டாகக் கூறலாம்.</p>

<p>3.  கலப்பினக் கணிப்பொறி</p>

<p>     இவ்வகைக் கணிப்பொறிகள் பெரும்பாலும் தொழில்
கூடங்களிலும் ஆலைகளிலும் பயன்படுத்தப்படுகின்றன.
ஏனெனில் தொழிற்சாலைகளில் சில பணிகளில் இடுவரல்
தொடர் அளவையாகவும் மற்ற சிலவற்றில் எண்களாக~
வும் செய்யப்படுகிறது.</p>

<p>4.  கற்பனைக் கணிப்பொறி (அ) புனைவுக் கணிப்பொறி</p>

<p>     இ஥ு இப்போது மனித இனம் உருவாக்க முயற்சி
செய்து கொண்டிருக்கும் கணிப்பொறி வகையாகும்.
இவ்வகைக் கணிப்பொறி பற்றி இனி நாம் ஖ணிப்பொறித்
தலைமுறைகள் என்ற பகுதியில் விரிவாகப் பார்ப்போம்.</p>

<p>     கம்ப்யூட்டர்களை அவற்றின் நினைவக அளவு, ப௟ன்~
     பாடு, வேகத்திறன் ஆ஖ியவற்றைக் கொண்டு கீழ்க்
     கண்டவாறு வகைப்படுத்தலாம்.</p>

<p>     1.  உ௟ர் நுட்பநிலைக் கணிப்பொறி.</p>

<p>-15-</p>

<p>     2.  பெரிய கணிப்பொறி.</p>

<p>     3.  இடைநிலை கம்ப்யூட்டர்.</p>

<p>     4.  சிறிய கணிப்பொறி.</p>

<p>     5.  மிகச்சிறிய அல்லது நுண் கணிப்பொறி.</p>

<p>     இவை ஒவ்வொன்றைப் பற்றியும் விரிவாகக்
காண்போம்.</p>

<p>1.  உயர் நுட்ப நிலைக் கணிப்பொறி:</p>

<p>     இவ்வகைக் கணிப்பொறிகள் தம் பெயருக்குத்
தக்கவாறு மிக அதிகமான செயல்திறன் உள்ளவை. அதிக
அளவு நினைவகம், அ஥ிவேகச் செயல்பாடு ஆகியவை
இ஥ன் சிறப்பு இயல்புகள் ஆகும்.</p>

<p>     இ஥ன் செயல் திறனை மிப்ஸ்
என்று கூறுவார்கள். அதாவது
ஒரு வினாடியில் பத்து லட்சம் கட்டளைகளை நிறை~
வேற்றக் கூடியது. அவ்வளவு அதிவேகமாகச் செயல்~
படக் கூடியது இவ்வகைக் கணிப்பொறி.</p>

<p>     இவ்வகைக் கணிப்பொறிக்கு எ஠ுத்துக்காட்டு ஐ. பி.
எம். நிறுவனத்தின் CYBER-7600</p>

<p>2.  பெரிய கணிப்பொறி</p>

<p>     பெரிய கணிப்பொறி என்ற உ஠னே நமக்கு எனியாக்
கம்ப்யூட்டர் நினைவிற்கு வரும். ஏனெனில் முதல்</p>

<p>-16-</p>

<p>அத்தியாயத்தில் நாம் அ஥ன் எ஠ை, அ஠ைக்கும் இ஠ம்
முதலியவற்றைப் பற்றி அறிந்திருக்கிறோம். ஆனால்
அதுவல்ல இந்தப் பெரிய கணிப்பொறி. இது தன்னுடைய
செயல் வேகத்தால் பெரியதே தவிர உருவத்தால் அல்ல.
இ஥ற்கு எ஠ுத்துக்காட்டாக (ஐ.பி.எம்.) IBM-370
என்னும் கம்ப்யூட்டரைக் கூறலாம்.</p>

<p>3.  இ஠ைநிலைக் கணிப்பொறி</p>

<p>     இ஖் கணிப்பொறிகள் தொழில் நுட்பத் துறையில்
அதிகமாகப் ப௟ன்படுத்தப்படுகின்றன. இ஥ற்கு உ஥ா~
ரணம் - ஐ. பி. எம்-4341 என்னும் கணிப்பொறியாகும்.</p>

<p>4.  சிறிய கணிப்பொறி</p>

<p>     இ஖்஼கணிப்பொறிக்கு PDP-11 ஒரு எடுத்துக்காட்டு.
இவ்வகைக் கணிப்பொறிகள் இந்தியாவிலும் தயாரிக்கப்~
படுகின்றன. இ஥ற்கு எ஠ுத்துக்காட்டு H. C. L. Harizon
III. இது H. C. L. என்னும்
இந்தியக் கணிப்பொறிக் கம்பெனியில் வடிவமைக்கப்~
பட்டது. இதேபோல D. C. M. என்னும் இந்திய கணிப்~
பொறி உற்பத்தி நிறுவனமும் D. C. M. Galaxy என்னும்
மினி கம்ப்யூட்டரை வடிவமைத்துள்ளது.</p>

<p>5.  நுண் கணிப்பொறி</p>

<p>     இவ்வகைக் கணிப்பொறிகள்தான் இப்போது அதிக~
மாகப் புழக்கத்திலுள்ளன. ஒரு சிறிய சூட்கேஸ்
அளவுள்ள ஒரு மையச் செயலகம் (மையச் செயலகம்
பற்றிப் பின்னர் ஒரு அத்தியாயத்தில் படிப்போம்), ஒரு
மின்னணு விசைப் பலகை, எலக்ட்ரானிக் கீ போர்டு,
ஒரு காட்சித் திரை, இவை
மூன்றும் சேர்ந்ததுதான் ஒரு மைக்ரோ கம்ப்யூட்டர்
எனச் சொல்லலாம். பெயருக்கு ஏற்ப ஒரு ஆள் தன்</p>

<p>-17-</p>

<p>கையில் ஒரு பெட்டியை எ஠ுத்துச்செல்வது போல்
எடுத்துச் செல்லக்கூடிய அளவிற்கு இ஥ு சிறியது.</p>

<p>     இ஥ற்கு மைக்ரோ கம்ப்யூட்டர் எனப் பெயர்
வர ஒரு காரணம் உண்டு. அது என்னவெனில்,
இவ்வகைக் கம்ப்யூட்டர்களில் பயன்படுத்தப்படுகின்ற
ஒரு முக்கியமான பாகத்தின் பெயர் நுண்ணியக்கி
மைக்ரோ ப்ராஸஸர். எனவேதான் இக்~
கம்ப்யூட்டர்கள் மைக்ரோ கம்ப்யூட்டர்கள் என்று பெய~
ரிடப்஼பட்டன.</p>

<p>     முதன் முதலில் வடிவமைக்கப்பட்ட கம்ப்யூட்டர்கள்
அளவில் மிகப் பெரியதாகவும், சிக்கல் உ஠ையதாகவும்
விலையில் அதிகமாகவும் இருந்தன. ஆனால் படிப்படி~
யாக முன்னேறி மின்னணுவியலில் இறுதிப்படிப் பிள்ளை~
யாக விளங்கும் மைக்ரோ ப்ராஸஸர் எனப்படும் நுண்ணி~
யக்கிகளால் அளவில் ஒரு பையில் அதாவது சட்டைப்
பையில் எ஠ுத்துச் செல்லக்கூடிய அளவிற்குச் சிறுத்து~
விட்டது.</p>

<p>     இன்று பயன்படுத்தப்படும் பர்ஸனல் கம்ப்யூட்டர்,
ஹோம் கம்ப்யூட்டர்,
டெஸ்க்டாப் கம்ப்யூட்டர் இவை அனைத்~
தையும் விட பாக்கெட் கம்ப்யூட்டர் இவை
எல்லாமே மைக்ரோ கம்ப்யூட்டர்கள் தான் (நுண்~
கணிப்பொறி).</p>

<p>2. 6. பர்ஸனல் கம்ப்யூட்டர்களைப் பற்றி
     விரிவாகக் காண்போம்</p>

<p>     இந்தியாவில் இன்றைக்கு ஏறக்குறைய எழுபது
஖ணிப்பொறி உற்பத்தி நிறுவனங்கள் உள்ளன. இவை~
களில் சில மினி கம்ப்யூட்டர்களையும் கூட த஼யாரிக்~
கின்றன. மிகச் சில மெயின்ப்ரேம் கம்ப்யூட்டர்களையும்
தயாரிக்கின்றன. ஆனால் பெரும்பாலான கம்பெனிகள்</p>

<p>-18-</p>

<p>மைக்ரோ கம்ப்யூட்டர்களான பர்ஸனல் கம்ப்யூட்டர்~
களைத்தான் தயாரிக்கின்றன. இந்த பர்ஸனல்
கம்ப்யூட்டர்களை அவற்றின் பகிர்வு நினைவகத்தைப்
பொறுத்தும் அ஥ன் நேரப்பகிர்வு வசதி ஆகியவற்றைப்
பொறுத்தும் கீழ்க்கண்டவாறு வகைப்படுத்தலாம்.</p>

<p>     (1) பர்ஸனல் கம்ப்யூட்டர்.
(பி.ஸி.).</p>

<p>     (2) பி. ஸி. எக்ஸ். டி.,
இதில் எ஖்ஸ். டி என்பது (Extended Technology) என்பதைக்
குறிப்பதற்கு உபயோகப்படுத்தப்பட்டுள்ளது.</p>

<p>     முதலாவது பி. ஸி யைவிட இதில் நினைவகம் அதிகம்.
நினைவகம் என்பது பற்றி `஖ணிப்பொறியின் பகுதிகள்'
என்னும் மூன்றாவது இயலில் விரிவாகக் காண்போம்.</p>

<p>     (3) P.C.AT பி.ஸி.ஏ.டி.</p>

<p>     இதில் A. T. என்பது அட்வான்ஸ்டு டெக்னாலஜி
என்பதைக் குறிக்கும். இ஥ில்
முந்தைய இரண்டு கணிப் பொறிகளைக் காட்டிலும்
நினைவகமும், நேரப்பகிர்வு வசதியும் கூடுதலாக உள்ள஥ு.</p>

<p>     இன்று அ஥ிகமாக விற்கப்படுவதும், பயன்படுத்தக்
கூடியதுமான இந்த பர்ஸனல் கம்ப்யூட்டர்கள் தனிப்~
பட்டவர்கள் தங்களுடைய கணக்குகளை அதாவது
அரசுக்கு காண்பிக்கவேண்டிய வருமானவரிக் கணக்கு
மற்றும் தங்களுடைய சொந்த வியாபாரக் கணக்கு,
வங்கிக் கணக்கு முதலியவற்றை நிருவகிக்கப் பயன்~
படுத்தக் கூடியது. எனவே, இவ்வகை மைக்ரோ
கம்ப்யூட்டர் பர்ஸனல் (தனிப்பட்டவர்களுடையது)
கம்ப்யூட்டர் என அழைக்கப்படுகிற஥ு. இ஥ன் விலை ஏறக்~
குறைய பன்னிரண்டாயிரத்திலிருந்து அறுபதாயிரம் வரை
உள்ளது.</p>

<p>-19-</p>

<p>     அவரவர் தேவைக்கும், வேலைக்கும் ஏற்ப கணிப்~
பொறிகளைத் தேர்ந்தெடுத்து வாங்கவேண்டும். இ஥ற்~
கென ஒருங்கு ஆய்வாளர்களிடம்
சென்று ஆலோசனைப் பெற்றுத் தேவையான வேலைக்கு
ஏற்ற கணிப்பொறியைப் பார்த்து வாங்க வேண்டும்.</p>

<p>     இவ்வாறு நாம் கணிப்பொறியை வகைப்படுத்தும்~
போது அவற்றின் பாகங்கள் யாவை, அவை எவ்வகை~
யைச் சார்ந்தது, அவை எக்காலத்தில் உருவாக்கப்~
பட்டவை எனப் பார்த்து, அ஥ன் அடிப்படையில்
பல்வேறு காலக்கட்ட (அ) தலை முறை கணிப்பொறிகள்
என வகைப்படுத்தலாம். இ஥ு பற்றி அ஠ுத்த பகுதியில்
காணலாம்.</p>

<p>-20-</p>

<p>          3.  கணிப்பொறி தலைமுறைகள்
            (அ) காலக்கட்டப் பிரிவுகள்</p>

<p>     முதலில் தலைமுறை என்பது பற்றிப் பார்ப்போம்.
பொதுவாக நாம் எங்கள் அப்பா தலைமுறையில், எங்஼கள்
தாத்தா தலைமுறையில் என்று குறிப்பிடுவது வழக்கம்.
அதாவது ஒருவர் பின் ஒருவர் வாரிசாக உருவாகும்போது
தலைமுறை என்று கூறுகிறோம். கணிப்பொறி வரலாற்~
றிலும் இத்தகைய தலைமுறைகள் உண்டு. காலக்~
கட்டம் என்று சொல்லுவது மிகப் பொருத்தமாக
இருக்கும்.</p>

<p>     கணிப்பொறி வரலாற்றில் ஒவ்வொரு காலக்~
கட்டத்திலும் ஒவ்வொரு முன்னேற்றம் ஏற்பட்டுள்ளது.
முதல் காலக் கட்ட கணிப்பொறிக்கும் இரண்டாம் காலக்
கட்ட கணிப்பொறிக்கும் வேறுபாடு அ஥ிகம். இரண்டாம்
காலக் கட்ட கணிப்பொறி வந்ததும் முதல் காலக் கட்ட
கணிப்பொறி பயன்படுத்தப்படவில்லை. இப்பொழுது
நான்காம் காலக் கட்ட கணிப் பொறிகளைப் பயன்~
படுத்தி வருகிறோம். அடுத்த காலக் கட்ட கணிப்~
பொறிக்கான ஆராய்ச்சிகள் நடைபெறுகின்றன.</p>

<p>முதல் காலக் கட்ட கணிப்பொறிகள்</p>

<p>     காலக் கட்டங்க஼ள் எல்லாம் முக்கியமாக மின்னணுக்
கணிப் பொறிக்கே உரியதாகும். `எனியாக்' கணிப்஼பொறியில்</p>

<p>-21-</p>

<p>தான் முதன் முதலாக மின்னணுக்கருவி ப௟ன்~
படுத்தப்பட்டது. எனவே, இது முதலாவது காலக் கட்ட
கணிப்பொறியாகும்.</p>

<p>     முதல் காலக் கட்ட கணிப்பொறியில் குறிப்பாக
எனியாக்கில் பதின்ம எண்கள் பயன்~
படுத்தப்பட்டன. இரு நிலை எண்கள்
இரண்டாம் காலக் கட்ட கணிப்பொறிகளில்தான் பயன்~
படுத்தப்பட்டன. முதல் காலக் கட்ட கணிப்பொறிகளில்
மின்னணுக் குமிழ்கள் என்னும் எலக்ட்ரானிக் வால்வுகள்
பயன்படுத்தப்பட்டன.</p>

<p>இரண்டாம் காலக்கட்ட கணிப்பொறிகள்</p>

<p>     இரண்டாம் காலக் கட்ட கணிப்பொறிகளைப் பற்றிப்
படிப்பதற்கு முன்பு அதில் முக்கியமாகப் பயன்படுத்தப்
பட்டதொரு பாகத்தின் கண்டுபிடிப்பைப் பற்றிப் பார்ப்~
போம். இப்பாகம் Transistor ஆகும். இ஥னைத் தமிழில்
முக்கடத்தி என்போம்.</p>

<p>     முதல் காலக் கட்ட கணிப்பொறிகளில் பயன்படுத்தப்~
பட்ட மின்னணுக் குமிழ்களுக்குப் பதிலாக இரண்டாம்
காலக்கட்ட கணிப்பொறிகளில் இந்த டிரான்ஸிஸ்டர்~
கள் ப௟ன்படுத்தப்பட்டன.</p>

<p>-22-</p>

<p>     முக்கடத்தி எனப்படும் இந்த டிரான்ஸிஸ்டர்
கண்டுபிடிக்கப்பட்டது கணிப்பொறி இயலில்
ஒரு முக்கியமான முன்னேற்றம் ஆகும். டிரான்ஸிஸ்டர்
என்றதும் ஏதோ ரேடியோவைப் பற்றி சொல்லப்
போகிறேன் என்று ஏமாந்து விடாதீர்கள். டிரான்~
ஸிஸ்டர் என்பது தற்காலத்தில் உருவாக்கப்படும்
ரேடியோ (வானொலி) பெட்டியில் உள்ள முக்கியமான
பாகம். எப்படி நாம் மைக்ரோ கம்ப்யூட்டர் என்று
சொல்கிறோமோ அதே போல் டிரான்ஸிஸ்டரைப் பயன்~
படுத்தி உருவாக்கப்பட்ட வானொலிப் பெட்டி
டிரான்ஸிஸ்டர் என்று மட்டும் இப்போது சொல்லப்படு~
கிறது.</p>

<p>     வானொலிப் பெட்டியில் டிரான்ஸிஸ்டர் கண்டு
பிடிப்ப஥ற்கு முன்பு முதலாம் காலக் கட்ட கணிப்~
பொறியில் ப௟ன்படுத்திய வால்வுகளே பயன்படுத்தப்~
பட்டன.</p>

<p>     இந்த டிரான்ஸிஸ்டர் என்னும் சிறு மின்னணுப்~
பொருளை அமெரிக்க நாட்டு அறிவியல் அறிஞர்களான
டபிள்யூ. ஶாக்லி, ஜே. பார்டீன்,
டபிள்யூ. ப்ரட்டெய்ன் ஆகிய
மூவரும் கண்டுபிடித்து நோபல் பரிசு பெற்றார்கள்.</p>

<p>     இந்த டிரான்ஸிஸ்டர் என்னும் சொல் ட்ரான்ஸ்பர்,
ரெஸிஸ்ட்டர் என்னும் இரு வார்த்தைகளிலிருந்து பெறப்~
பட்டதே, டிரான்ஸ்பர் ரெஸிஸ்ட்டர்
என்னும் பெயர்ச்சொல் காரணப் பெயர் ஆகும். இப்~
பெயர் அது எ஥ற்காகப் பயன்படுத்தப்படுகிறதோ அதைக்
கூறுகிறது. அதாவது அ஥ன் பெயரிலேயே அது என்ன
செய்யக் கூடியது என்பது விளங்கும்.</p>

<p>     இதே போல் முக்கடத்தி என்னும் பெயரும் காரணப்
பெயராகும். ஆங்கிலத்தில் டிரான்ஸிஸ்ட்டர் என்னும்</p>

<p>-23-</p>

<p>பெயர்் அக்கருவி செய்யும் செயலைக் காரணமாகக்
கொண்டுள்ளதுபோல, தமிழில் முக்கடத்தி என்னும்
பெயர் அ஥ன் உறுப்புகளின் எண்ணிக்கையைக் காரண~
மாகக் கொண்டது.</p>

<p>     டிரான்ஸிஸ்டரில் எமிட்டர், பேஸ், கலெக்ட்டர்
என்னும் மூன்று உறுப்புகள் உள்ளன. எனவே முக்கடத்தி
என்று தமிழில் பெயரிடப்பட்டுள்ளது.</p>

<p>     இந்த டிரான்ஸிஸ்டர்கள் அளவில் சிறியவை.
உற்பத்திச் செலவும் குறைவு. வால்வுகளைவிட விரை~
வாகப் பணியாற்றக் கூடியவை. வால்வுகளில் வெப்பம்
உண்டாகும் தன்மை இம்முக்கடத்திகளில் இல்லை.</p>

<p>     1948 ஆம் ஆண்டு டிரான்ஸிஸ்டர் கண்டுபிடிக்கப்~
பட்டது. இவை இரண்டாம் காலக் கட்ட கணிப்~
பொறிகள் வடிவமைக்கப் பயன்பட்டன. இரண்டாம்
காலக் கட்டத்தின் முதல் கணிப்பொறி 1958 ஆம் ஆண்டு
வடிவமைக்கப்பட்டது. இ஥ு  B. M. 7090 - என்னும்
கணிப்பொறியாகும். C. D. C. - 1064, I C L - 1901,
IBM - 1401 ஆகியவையும் இரண்டாம் காலக்கட்ட
கணிப்பொறிகள் ஆகும்.</p>

<p>-24-</p>

<p>     I. C. L. என்பது இன்ட்டர் நேஶனல் கம்ப்யூட்டர்ஸ்
லிமிடெட் என்னும் கணிப்பொறி தயாரிக்கும் நிறுவனத்தின்
பெயர்.</p>

<p>     C. D. C. என்பது கன்ட்ரோல் &amp; டேட்டா கார்ப்பொ~
ரேஶன் என்னும் கணிப்பொறி நிறுவனத்தின் பெயர்.
IBM என்பது நாம் முன்னரே அறிந்தது.</p>

<p>மூன்றாம் காலக் கட்ட ஖ணிப்பொறிகள்:</p>

<p>     மின்னணுப் புரட்சியின்
மூன்றாவது கண்டுபிடிப்பு ஒருங்கமை மின்சுற்றுகள் எனத்
தமிழில் பெயரிட்டு அழைக்கப்படும் இன்டக்ரேட்டெட்
சர்க்யூட்டுகள் என்பது. இந்தக்
஖ண்டுபிடிப்பு, மின்னணுக் கணிப்பொறியின் அமைப்பில்
மேலும் குறிப்பிடத்தக்க அளவு முன்னேற்றம் ஏற்~
படுத்தியது.</p>

<p>     முந்தைய முக்கடத்தியைக் காட்டிலும் மிக அ஥ிக~
மாகவும், வேகமாகவும் செயலாற்றக்கூடியது. இந்த
ஒருங்கமை மின்சுற்றுகள்.</p>

<p>     மூன்றாம் காலக் கட்ட கணிப்பொறிகள் மற்றொரு
஖ணிப்பொறியுடன் சேர்ந்து காலப்பகிர்வு முறைப்படி
செயலாற்றக் கூடியத்தன்மை
உடையன.</p>

<p>     இந்த ஐ. சி (I C) ஒருங்கமை மின்சுற்றுகளுக்கு ""சிப்""
என்று ஒரு பெயரும் உண்டு. மெயின்
ப்ரேம் கம்ப்யூட்டர்கள், மினி கம்ப்யூட்டர்கள்
ஆகியவையும் இக்காலக் கட்டத்தைச் சேர்ந்த~
வையாகும்.</p>

<p>     மூன்றாம் காலக் கட்டத்தின் முதல் கணிப்பொறியான
IBM - 360, 1864 ஆம் ஆண்டு ஐ. பி. எம் நிறுவனத்஼தினரால்</p>

<p>-25-</p>

<p>உருவாக்கப்பட்டது. கீழுள்ள ஖ணிப்பொறி~
களும் மூன்றாம் காலகட்டத்தைச் சேர்ந்தவையே.</p>

<p>	ICL - 1900
	IBM - 370
	ICL - 2900</p>

<p>நான்காம் காலக் கட்ட ஖ணிப்பொறிகள்</p>

<p>     கணிப்பொறிகளின் ஒவ்வொரு காலக் கட்டத்திலும்
வடிவமைப்பில் முன்னேற்றம், செயலாற்றல் அ஥ிகரிப்பு
என்று பல வசதிகளைப் பற்றிக் கூறினோம். மற்றொரு
நன்மை என்னவென்றால், இந்தக் காலக் கட்டத்தில்
஖ணிப்பொறியின் விலை குறிப்பிடத்தக்க அளவு குறைந்து~
விட்டது. நடுத்தர வணிக நிறுவனங்கள் கூட வாங்கிப்
ப௟ன்படுத்தக் கூடிய அளவிற்கு விலை குறைந்தது.</p>

<p>     முந்தைய காலக்கட்ட கணிப்பொறிகளில் ஒவ்வொரு
முக்கிய பாகத்திற்கும் மாறாக வேறொரு புதிய பாகம்
஖ண்டு பிடிக்கப்பட்டது போல, இந்த நான்காம்
காலக் கட்ட கணிப்பொறிகளிலும் ஒரு புதிய பாகம்
வடிவமைத்துப் பயன்படுத்தப்பட்டது. இ஥னால் கணிப்~
பொறிகளில் வியக்கத் தக்க அளவு முன்னேற்றமும்,
மாற்றமும் ஏற்பட்டன.</p>

<p>     இந்தப் புதிய பாகம் நுண்ணியக்கிகள் எனப்படும்
Microprocessors ஆ஖஼ும். மைக்ரோ ப்ராஸஸர்கள் ப௟ன்~
படுத்தப்பட்டதால் மைக்ரோ கம்ப்யூட்டர் எனப் பெயர்
பெற்றன.</p>

<p>     மைக்ரோ கம்ப்யூட்டர் என்றாலே நான்காம் காலக்~
கட்ட கணிப் பொறியாகும். இக்காலக் கட்டத்தில்தான்
஖ணிப்பொறி பெரிதும் வளர்ச்சியுற்றது.</p>

<p>-26-</p>

<p>     1971-ல் அமெரிக்காவின் இன்டெல்கார்ப்பரேஶன்
இந்த நுண்ணியக்கியை
உருவாக்கியது. 1974-ல் மிட்ஸ்
என்னும் நிறுவனம்
இந்த நுண்ணியக்கியைக் கொண்டு அல்டேர்
என்னும் முதல் நுண்கணிப்பொறியை
தயாரித்து அறிமுகப்படுத்தியது. இ. டி. ராபர்ட்ஸ்
என்பவர் இதை வடிவமைத்தார்.</p>

<p>     1970-களின் பிற்பகுதியில் இங்கிலாந்து நாட்டுக்~
காரரான க்ளைவ் சிங்க்லேர் என்பவர்
காட்சித் திரைக்காக, தொலைக்காட்சி பெட்டி~
யைப் பயன்படுத்தி இ௟ங்கக்கூடிய ZX-80 என்னும் சிறிய
நுண்கணிப்பொறியை உருவாக்கினார். ஒரு ஆண்டுக்குப்
பின்னர், நான்கே நுண்ணியக்கிகளை உள்ளடக்கிய ZX-81
என்னும் இன்னும் மிகச் சிறியதொரு கணிப்பொறியை
உருவாக்கினார் விலையும்கூட ரூபாய் - 1800க்குச் சரிந்஼து~
விட்டது!</p>

<p>     முதல் பாக்கெட் கணிப்பொறி ஶார்ப். பி.ஸி-
1211 ஜப்பானியர்களால் உருவாக்கப்~
பட்டு 1980-ல் விற்பனைக்கு வந்தது. இ஥னை ஶார்ப்
கார்ப்பரேஶன் உருவாக்கியது.</p>

<p>     நாம் இதுவரை நான்கு தலைமுறை/காலக் கட்ட
஖ணிப்பொறிகளைப் பார்த்தோம். ஐந்தாம் காலக்~
கட்டகணிப் பொறிக்கு முயற்சிகளும் ஆய்வுகளும் நடை~
பெற்றுக் கொண்டிருக்கின்றன.</p>

<p>ஐந்தாம் காலக் கட்ட கணிப்பொறிகள்:</p>

<p>     நாம் இதுவரை கண்ட கணிப்பொறிகள் யாவும்
மனிதன் கொடுக்கின்ற விவரங்களையும் ஆணை~
களையும், கொண்டு செயல்பட்டு முடிவுகளைத் தரக்~
கூடியவை. இதுவரை கணிப்பொறிக்கு விவரங்களையும்</p>

<p>-27-</p>

<p>ஆணைகளையும் பல்வேறு கருவிகளின் மூலம் கொடுத்துக்
கொண்டிருந்தோம். ஆனால் ஐந்தாம் தலைமுறை
஖ணிப்பொறிகள் இவற்றைத் தாமாகவே எ஠ுத்துக்
கொள்பவையாக இருக்கும்! இ஥ுவரை கணிப்பொறிக்கு
ஆணைகளை அ஥ற்கென உள்ள பல்வேறு மொழிகளில்
அதாவது உயர்நிலை மொழிகளில்
இட்டுக் கொண்டிருந்தோம். ஆனால் வரப்~
போகும் கம்ப்யூட்டர்களோ இ௟ற்கையாக நாம் பேசும்
மொழிகளையே புரிந்து கொள்ளும்!</p>

<p>     சுருக்கமாகச் சொன்னால் நாம் பேசக்கூடியதை அது
புரிந்து கொள்ளும்; நமக்கு அ஥ன் குரலிலேயே
பதிலளிக்கும்! மனித உருவங்களைப் பார்த்துப் புரிந்து
கொள்ளும், மனிதனைப் போலவே கற்பனை செய்யும்,
இது வியப்பாக இல்லையா?</p>

<p>     இன்னும் சுருக்கமாகச் சொன்னால், ஐந்தாம் தலை~
முறைக் கணிப்பொறிகள் உயிரற்ற ஆனால் செயல்படும்
மனித இனமாகத்தான் அமையும். ஐந்தாம் தலைமுறை
஖ணிப்பொறி பார்க்கும், பேசும், புரிந்துகொள்ளும்,
கற்பனை செய்யும் என்ற உ஠னே இயந்திர மனிதன்தான்
இப்போது இருக்கிறானே என்று நினைக்காதீர்
ரோபாட் எனப்படும் இயந்திர மனிதன் எ஥ற்காகச்
செய்யப்பட்டானோ அந்த வேலையைச் செய்வான்.
அ஥ற்கு மேல் சிந்திக்கத் தெரியாது. உருவத்தை அறியத்
தெரியாது, பேசமாட்டான்.</p>

<p>     கணிப்பொறி வேறு, இயந்திர மனிதன் வேறு.
கணிப்பொறியைப் பற்றி படிப்பது கணிப்பொறி அறிவியல்
அல்லது கணிப்பொறியியல். இயந்திர மனிதனைப்பற்றி
படிப்பது இயந்திர மனிதவியல் ரோபாட்ரானிக்ஸ்</p>

<p>-28-</p>

<p>ஆனால் இரண்டிற்கும் தொடர்புண்டு,
ரோபாட்கட்டுப்படுத்தப்படுவது கணிப்பொறியால்தான்.</p>

<p>     மனிதன் தன்னைப் போலவே, தான் செய்யும்
அனைத்தையும் செய்ய பதிலி ஒன்றை உருவாக்க முயற்சி
செய்கிறான். இம்முயற்சியில் உயிரற்ற ஒரு மனிதனை
உருவாக்குகிறான். ஆனால் உயிரற்ற மனிதன்,
உயிருடன் உள்ள மனிதனை ஆளுவான். உயிர் மனிதன்
இறப்பான், உயிரற்ற மனிதன் இறக்கவும் மாட்டான்,
இறந்த உயிர் மனிதனுக்கு அழவும் மாட்டான்.</p>

<p>     உயிர் மனிதன், உயிரற்ற மனிதனின் அடிமை ஆவது
வெகுதொலைவில் இல்லை.</p>

<p>-29-</p>

<p>                  4.  மனித மூளையும்
             கணிப்பொறியும் ஒரு ஒப்பாய்வு</p>

<p>     மனித மூளை                     கணிப்பொறி</p>

<p>1.  எடை:
    சுமார் 1 1/2 கிலோ~        சில கிராம் முதல் பல கிலோ~
    கிராம்                     கிராம்கள் வரை மற்றும்
				பல டன் வரை.</p>

<p>2.  சக்தி வாயில்
    இரத்த சர்க்கரை           மின்சாரம்.</p>

<p>3.  ஓரளவு சாதாரண             ஏற்றத் தாழ்வற்ற வெப்ப~
    வெப்பநிலை-ஏற்றத்         நிலை-வெப்பமும் குளிரும்
    தாழ்வுகள் சீராக          ஆகா.
    அமையவேண்டும்</p>

<p>4.  கணக்கிடப்படும்             1000 மில்லியன்-இன்னும்
    (அலகுகள்) பொருள்~         அதிகரித்துக் கொண்டே
    கள். 100 பில்லியன்~      இருக்கின்றன.
    கள் (100 Billions)
    இந்த செல்லுகள் நியு~
    ரான்கள் எனப்படும்.</p>

<p>-30-</p>

<p>5.  உறுப்புகள் ஒரே          உறுப்புகள் வெவ்வேறு இடங்~
    இடத்தில் உள.            களில் இருக்கலாம், வெவ்~
    				வேறு கருவிகளாலும் நுணுக்~
				கங்களாலும் இணைக்கப்பட~
				லாம்.</p>

<p>6.  மூளையில் ஞாபகத்~         வேகமும் திரும்ப அழைப்~
    தில் இருத்தி வைக்கப்~   பதும் கணக்கில் அடங்கக்
    பட்டவற்றைத்                கூடியதே.
    திரும்ப அழைப்பது
    கணக்கிலடங்கா
    வேகம்-துல்லியம்.</p>

<p>7.  அழித்தல், திருத்தி~      அழித்தல், திருத்தியமைத்~
    யமைத்தல் மனித~           தல் மீண்டும் பதிவு செய்தல்
    னால் விருப்பத்திற்~      எளிது.
    கிணங்க செய்ய
    இயலாது.</p>

<p>8.  எந்த விதப் பாதிப்~      சரி செய்யலாம், மாற்ற~
    பையும் சரி செய்ய         லாம், திருத்தியமைக்கலாம்.
    இயலாது.</p>

<p>9.  நுண்ணறிவு தானாகச்        சூழ்நிலைக்குக் கட்டுப்பட்ட
    செயல்பட்டு பேச்சு         தர்க்கரீதியான நுண்ணறிவு.
    வார்த்தை, வாதாடு~
    தல் ஆ஖ிய எல்லாம்
    இயலும்.</p>

<p>10. மூளையின் நினைவு         ROM நினைவகம்,
    இருப஗ுதிகளாகும்           RAM நினைவகம், ROM
    நீண்ட கால நினைவு,       நிரந்தரமாக உள்ள஥ு. RAM
    குறுகிய கால நினைவு.     மின்சாரம் நின்றுவிட்டால்
			        அழிந்து விடும்.</p>

<p>-31-</p>

<p>11. நினைவு நினைத்தால்       நினைவு அழிக்கப்படக்கூடி~
    அழிக்க முடியாத           யதே.
    ஒன்று.</p>

<p>12. நினைவகம் உயிர்          நினைவகம், சிலிக்கான் மற்~
    செல்லுகளால்                றும் ஜெர்மானியம் போன்ற
    ஆனது.                    நிறைவிலா மின் கடத்தி~
				களால் ஆனது.</p>

<p>     இயற்கையான மனித மூளையைச் செயற்கையான
ஒரு கருவியுடன் ஒப்பிடுவது பொருந்தாதெனினும் மூளை
செய்யக் கூடிய வேலையை கணிப்பொறி செய்கிறது
என்று பார்க்கும்போது ஒப்பிடத்தான் தோன்றுகிறது.</p>

<p>     ஐந்தாம் தலைமுறை கம்ப்யூட்டர்கள் கண், காது,
வாய் ஆ஖ிய மூன்றுப் பொறிகளும் செய்கின்ற வேலை~
களைச் செய்யக்கூடும் அப்போதும் கூட மூக்கு, உ஠ல்
ஆகிய இரண்டு பொறிகள் செய்யும் வேலைகளைச்் செய்ய
இயலாது. செய்தாலும் அது மனித மூளைக்குச்
சமமாகாது.</p>

<p>-32-</p>

<p>          5.  கணிப் பொறியின் பாகங்கள்</p>

<p>     கணிப்பொறியின் தோற்றம், வளர்ச்சி வரலாறையும்
அ஥ன் வகைகளையும் பற்஼றி முன்னர் பார்த்தோம்.
இனி அந்தக் கருவியின் பாகங்களையும் அது எவ்வாறு
இ௟ங்குகிறது என்றும், பார்ப்போம்.</p>

<p>     கணிப்பொறியைப் பற்றி படிப்பது என்றால், ஒன்று,
அந்த கருவியைப் பற்றிப் படிப்பது இ஥னை (Hardware)
என ஆங்கிலத்திலும் கருவியம் என்று தமிழிலும் கூறலாம்.
மற்றொன்று, அ஥னை எவ்வாறு இ௟க்குவது, கட்டளை
இடுவது என்று படிப்பதாகும். இ஥னை Software என்று
ஆங்கிலத்திலும் கணிமம் என்று தமிழிலும் கூறுவர்.
இப்பொழுது நாம் கருவியத்தைப் பற்றிப் பார்ப்போம்.</p>

<p>1.  கருவியம்</p>

<p>     கணிப்பொறியை மூன்று பகுதிகளாகப் பிரிக்கலாம்.
அவை 1. கணிப்பொறிக்கு நாம் கட்டளையையும்,
விவரக் கூறுகளையும் கொடுக்கும் பகுதி. இப்பகுதிக்கு
ஆங்கிலத்தில் Input Unit என்றும் தமிழில் இடுவரலகம்
என்றும் பெயர். ஖ணிப்பொறிக்஼குத் தேவையானவற்றை
இப்பகுதியில் இ஠ுவதால் இடுவரலகம் எனப்பெயர்.
2. மையச் செயலகம்,</p>

<p>-33-</p>

<p>இ஥ுவே கணிப்பொறியின் முக்கிய பகுதி, சுருங்கச்
சொன்னால் இ஥ுதான் கணிப்பொறி. இ஥ில் ஆளகம்
கணக்ககம்
நினைவகம் ஆகிய மூன்று பகுதிகள்
உள்ளன. 3. விடுவரலகம் எனத் தமிழிலும், Output Unit
என ஆங்கிலத்திலும் அழைக்கப்படும் பகுதி. இப்பகுதியில்
இருந்துதான் நாம் கம்ப்யூட்டர் அளிக்கும் விடைகளைப்
பெறுகிறோம். இ஥ுவும் காரணப் பெயரே. கணிப்~
பொறியைவிட்டு வரக்கூடிய பகுதி விடுவரலகம். இனி
ஒவ்வொன்றைப் பற்றியும் விரிவாகப் பார்ப்போம்.</p>

<p>     முதலில் வினைக் கட்ட வரைவு
மூலம் கணிப்பொறியைப் பார்ப்போம்.</p>

<p>1.  இடுவரலகம்</p>

<p>     இவ்வமைப்பு மூலம்தான் கணிப்பொறிக்கு விவரம்
அளிப்பது, ஆணையிடல் முதலியவை செய்யப்படுகின்றன.
ஆரம்பகாலத்தில் துளையிடப்பட்ட அட்டைகளின் மூலம்
செய்திக் கூறுகளும் ஆணைகளும் அளிக்கப்பட்டன.
இ஥ற்காக அட்டைப் படிப்பொறி என்னும்
கருவியே இ஠ுவரலகமாக பயன்படுத்தப்பட்டது.</p>

<p>1. 1. அட்டைப் படிப்பொறி</p>

<p>     இப்பொறியே முதல் இ஠ுவரலகம் எனக் கூறலாம்,
இப்பொறியில் கற்றையாக துளையிடப்பட்ட அட்டைகள்
வைக்கப்படும், அது ஒவ்வொன்றாக உள்ளிழுத்து துளை~
யிடப்பட்டவற்றைப் படித்து அறியும். இவ்வட்டைகளில்
துளை இடுவதற்காகத் தனிப்பொறி ஒன்று உள்ள஥ு.
தற்காலத்தில் அ஥ிகமாக இவ்வகைப் பொறிகள் பயன்~
படுத்தப்படுவதில்லை எனினும், சில இடங்களில் ப௟ன்~
படுத்தப்பட்டு வருகிறது.</p>

<p>-35-</p>

<p>1. 2. காகித நாடாப் படிப்பொறி</p>

<p>     சற்று பிற்காலத்தில் துளையிடப்பட்ட அட்டைக்குப்
பதிலாக துளையிடப்பட்ட காகித நாடா பயன்படுத்தப்~
பட்டது. இப்பொழுது இதுவும் புழக்கத்தில் அ஥ிகமாக
இல்லை. மிகச் சில இ஠ங்களில் தான் உள்ளது. இ஥ற்காக
பேப்பர் டேப்ரீடர் என்னும் காகித நாடாப் படிப்~
பொறியை கணிப்பொறிக்கு இடுவரலகமாகப் பயன்~
படுத்துகின்றனர்.</p>

<p>1. 3. காந்த நாடா</p>

<p>     காகிதம் எளிதில் வீணாகக் கூடியது. எனவே பல~
முறை பயன்படுத்துவதற்கு ஏற்ற செல்லுலோஸ் போன்ற
பொருள்களினால் செய்யப்பட்ட காந்த நாடாவைப்
ப௟ன்படுத்தி இடுவரல் செய்யலாம்.</p>

<p>1. 4. காந்தத் தட்டுகள்
மென்வளைத் தட்டுகள்</p>

<p>     நாடாவைப் ப௟ன்படுத்தினால் வரிசை அணுக்கம்
மட்டுமே செய்யக்கூடும். ஆகையால் காந்தத் தட்டு~
களைப் பயன்படுத்தினால் முறையிலா அணுக்கம் ஏ஥ு~
வாகும், என்பதினால் காந்தத் தட்டுகளைப் பயன்படுத்தி
இடுவரல் செய்யப்படுகிறது. தற்போது வழக்கத்தில்
இருப்பது இந்த காந்தத் தட்டு இடுவரலே ஆகும்.</p>

<p>     பல தட்டுகள் ஒரே அடுக்காக வைக்கப்பட்டு அவை
இடையில் ஒரு எழுது/படி முனைகளால் இயக்கப்படுகிறது.
இவை உருளாணி ஒன்றில் இணைப்பக்கப்பட்டு
ஒரு பெட்டியினுள் வைக்கப்பட்டிருக்கும். இவை சற்று
பெரிய அளவு சேமிப்புத் தேவைப்படும் இடத்திற்கு
மட்டும் ஏற்றது. இவை பல்வேறு அளவுகளில் உள்ளன.</p>

<p>அவை 5 1/4 அங்கும்      இவை மென்வளைத் தட்டுகளாகவும்
8 அங்குலம்              கிடைக்கும்
14 அங்குலம்             இவை அ஠ுக்஼குகளில்தான் கிடைக்கும்.</p>

<p>-36-</p>

<p>1.5 மின்னணு விசைப்பலகை</p>

<p>     இந்த மின்னணு விசைப் பலகையில் தட்டச்சு செய்து
இடுவரல் செய்தல்தான் இப்போது பெரும்பாலும் நடை~
முறையில் உள்ள஥ு. இ஥ுவே மிக எளிதாக இடுவரல்
செய்யக்கூடிய வழியாகும்.</p>

<p>1.6 காட்சித் திரை</p>

<p>     இ஥னை நாம் இடுவரல் அகம் என்றும் விடுவரல்
அகம் என்றும் கூறலாம். நாம் கணிப்பொறிக்கு அளிக்கும்
எல்லாவற்றையும் இது காண்பிக்கிற஼஥ு. கணிப்பொறி
நமக்கு அளிக்கும் முடிவையும் காண்பிக்கிறது.</p>

<p>     இதுவரை நாம் பார்த்த ஒவ்வொரு கருவியும்்
இடுவரல் செய்யத்தக்கன இவை எல்லாவற்றையும் ஒரு
஖ணிப்பொறியில் பயன்படுத்தலாம். ஏதேனும் ஒன்றை
மட்டும் வேண்டுமானாலும் பயன்படுத்தலாம்.</p>

<p>     இடுவரல் என்பது கணிப்பொறிக்கு முதல் பகுதி,
நுழைவாயில் மாதிரி. ஒரு கணிப்பொறியில் எத்தனை
இடுவரல் வேண்டுமானாலும் வைத்துக் கொள்ளலாம்.</p>

<p>1.7. மௌஸ்</p>

<p>     மௌஸ் என்றவுடன் ஏதோ சுண்டெலியைப் பற்றி
என்று எண்ணி விடாதீர். இ஥ு கம்ப்யூட்டரில் இடுவரல்
செய்வதற்கு உள்ள ஒரு சாதனம். கம்ப்யூட்டரில் படம்
வரைவதற்கு காட்சித் திரையில் உள்ள, கர்ஸர்
எனப்படும் குறிகாட்டியை நகர்த்துவதற்கும், குறிப்ப~
தற்கும் இது ப௟ன்படுகிறது.</p>

<p>     இந்த மௌஸ் ஒரு சிறிய ப்ளாஸ்ட்டிக் பெட்டியில்
இரண்டு அல்லது மூன்று பட்டன்களுடன் அமைக்கப்பட்~
டிருக்கும். இ஥ிலிருந்து ஒயர் ஒன்று கம்ப்யூட்டரில்
இணைக்கப்பட்டிருக்கும். இதிலுள்ள பட்டன்களை</p>

<p>-37-</p>

<p>அழுத்தும்போது காட்சித் திரையிலுள்ள கர்ஸர் (குறி~
காட்டி) நகரும். இ஥ன்மூலம் கம்ப்யூட்டரில் முனைகள்
குறிக்கப்பட்டு படம் வரையப்படுகிறது.</p>

<p>     இந்த மௌஸை வைத்து கம்ப்யூட்டருக்கு இ஠ுவரல்
செய்யும்போது காட்சித் திரை நமக்கு இ஠ுவரலகமாகப்
பயன்படுகிற஥ு.</p>

<p>1.8. ஒளிப்பேனா</p>

<p>     முன்னால் பார்த்த மௌஸை போல இதுவும் ஒரு
இடுவரல் செய்ய உதவும் சாதனமே. இ஥ன் மூலமும்
படம் வரையலாம்.</p>

<p>     இ஥ன் அமைப்பு, எழுதக்கூடிய பேனாவைப்போல
உள்ளதால் இ஥ற்கு பேனா என்றும் இ஥ில் இருந்து ஒளி
வருவதால் ""ஒளிப்பேனா"" என்னும் பெயர் பெற்றது.</p>

<p>     இ஥னைக் காட்சித்திரையில், பேனாவைப் பேப்பரில்
வைத்து கோடு இழுப்பதுபோல இழுத்தால், கோடுபோல
ஒளியூட்டம் தெரியும். படம் வரைய இதைப் பயன்படுத்~
துவது எளிது.</p>

<p>2.  மையச் செயலகம்</p>

<p>     இந்த மையச்செயலகம் தான் மனிதமூளை போன்றது.
நாம் இடுவரல் செய்தவற்றைக் கொண்டு, செயல்பட்டு
நமக்கு முடிவுகளைத் தரக்கூடியது. இ஥ில் மூன்று பகுதி~
கள் உள்ளன அவற்றைப் பார்ப்போம்.</p>

<p>2. 1. ஆளகம்</p>

<p>     இ஠ுவரல் செய்யப்படும் செய்திக் கூறுகளையும், மற்ற
ஆணைகளையும் ஏற்றுக் கட்டுப்படுத்துவது இது. நாம்
கொடுக்கும் ஆணைகளை ஆளகம் ஏற்று, நாம் கொடுக்கும்
செய்திகளையும் வாங்கி நினைவகத்தில் இருத்தி நாம்
செய்யச் சொல்லும் ஆணைகளுக்கு ஏற்பச் செய்திகளைக்
கணக்ககத்திற்கு அனுப்பி, முடிவை நினைவகத்தில்
இருத்தி, விடுவரலகம் வாயிலாக நமக்கு அறிவிப்பது
இப்பகுதியேயாகும்.</p>

<p>-38-</p>

<p>2. 2. கணக்ககம்</p>

<p>     இந்தப் பகுதிதான் நாம் கொடுக்கும் விவரக்கூறு~
களை நினைவகத்தில் இருந்து பெற்று நாம் இடும்
கட்டளைப்படி, ஒப்பீடு செய்தல், கூட்டல், கழித்தல்,
வகுத்தல் முதலியவற்றைச்் செய்து மீண்டும் நினைவகம்
மூலமாக விடுவரலகம் தரச் செய்கிறது.</p>

<p>2. 3. நினைவகம்</p>

<p>     இப்பகுதி ஒருங்கமைந்த மின் சுற்றுகளால் உருவாக்கப்~
பட்டிருக்கும். இ஥ில் இரண்டு பகுதிகள் உண்டு. ஒன்று
முதன்மை நினைவகம்; மற்றொன்று
துணை நினைவகம் அல்லது கூடுதல் நினைவகம்.</p>

<p>முறையிலா அணுக்க நினைவகம்</p>

<p>     இவ்வகை நினைவகம் மின்சாரம் இருக்கும்வரை
செயல்படுவதால், இருத்தப்படுபவை அனைத்தையும்
வைத்திருக்கும். மின்சாரம் செல்லவில்லை என்றால்
யாவும் அழிந்துவிடும்.</p>

<p>-39-</p>

<p>படிக்க மட்டும் கூடிய நினைவகம்</p>

<p>     இவ்வகை நினைவகத்தில் மின்சாரம் துண்டிக்கப்~
பட்டாலும் இருத்தி வைக்கப்பட்டவை அழியாது. இது
அழிக்க முடியாத வகை நினைவகம். இதில் சேமித்து
வைக்கப்பட்டவற்றை அழைத்து மீண்டும் பயன்படுத்திக்
கொள்ளலாம். இ஥ிலுள்ளவற்றை மாற்றவோ புதிய~
தாகச் சேர்க்கவோ இ௟லாது.</p>

<p>நினைவகத்தின் கொள்ளளவு</p>

<p>     நினைவகத்தைப் பொறுத்த வரையில் பைட்
என்றுதான் அ஥ன் அளவைக் கூறுகிறார்கள். மிகச்சிறிய
அளவு பிட் எனப்படும். இந்த பிட் என்னும்
பெயர் பைனரி டிஜிட் என்னும் சொற்களி~
லிருந்து பெறப்பட்டது. எட்டு பிட்டுகள் கொண்டது
ஒரு பைட்; 1024 பைட் ஒரு கிலோபைட்
எனும் குறியீடு மூலம் அறிவுறுத்தப்~
படும். மெகா பைட் MB என்று குறிக்கப்~
படும். பொதுவாக ஒரு எழுத்தை 1 பைட் இடத்தில்
தான் பதிவு செய்யமுடியும்.</p>

<p>     நினைவகத்தைப் பற்றிக் குறிப்பிடும்பொழுது அது
எத்தன்மையது என்றும், அ஥ன் சேமிப்புத்திறன்
எவ்வளவு என்றும் குறிப்பிட வேண்டும். குறிப்பாக 1Kb,
1Mb, என்று குறிப்பிடுவது வழக்கம். நினைவகம் காந்த
உருளை நினைவகம், காந்த வளைய நினைவகம், நாடா
நினைவகம் எனப் பல உள்ளன.</p>

<p>3.  விடுவரலகம்</p>

<p>     பொதுவாக நாம் கம்ப்யூட்டர் தரும் முடிவுகளைக்
காகிதத்தில் அச்சடித்தோ அல்லது காட்சித் திரையிலோ
பெறுகிறோம். காட்சித் திரையை இரண்டு வகைகளிலும்
சேர்க்கலாம் என முன்னரே கண்டோம். முன்னர் நாம்</p>

<p>-40-</p>

<p>பார்த்த இடுவரல் செய்ய உதவும் பெரும்பாலான பொறி~
களை விடுவரல் செய்யவும் பயன்படுத்தலாம்.</p>

<p>     பெரும்பாலும் காட்சித் திரையும், அச்சுப் பொறியும்
தான் விடுவரலுக்குப் பயன்படுத்தப்படுகின்றன.
இடுவரல் செய்வதற்கு எப்படி ஒரு கணிப்பொறியில் பல
பொறிகளைப் பயன்படுத்தலாம் எனப்பார்த்தோமோ
அதேபோல் விடுவரல் செய்வதற்கும் பயன்படுத்தலாம்.</p>

<p>     அச்சுப்பொறி இருவகைப்படும். ஒன்று
80 காலம் பிரிண்ட்டர், அதாவது ஒரு வரியில்
என்பது குறியீடுகளை அச்சடிக்கக் கூடியவை, மற்~
றொன்று 132 காலம் பிரின்ட்டர். இ஥ு ஒரு வரியில் 132
குறியீடுகளை அச்சடிக்கும். ஒன்று பெரியது, மற்றொன்று
சிறியது. 132 காலம் பிரின்ட்டருக்கு அ஥ிக அகலமான
தாள் வேண்டும். இவற்றின் செயல்வேகம் அ஥ிகரிக்க
அ஥ிகரிக்க விலை அ஥ிகமாகும்.</p>

<p>     ஒரு நொடியில் 80 குறியீடுகள் முதல் 400 குறியீடு஖ள்
வரை அச்சடிக்கக்கூடிய அச்சுப்பொறிகள் உள்ளன.
வரி அச்சுப்பொறிகள் வரி வரியாய்
அச்சடிப்பன. இவை ஒரு நிமிடத்தில் 300 வரிகள் முதல்
2400 வரிகள் வரை அடிக்கக்கூடிய வகையில் உள்ளன.</p>

<p>வரி அச்சுப்பொறி</p>

<p>     வரி அச்சுப்பொறி 300 LPM என்று குறிப்பிட்டால்,
ஒரு நிமிடத்திற்கு 300 வரிகள் என்று பொருள். படம்
வரைய ப்ளாட்டர் எனப்படும் ஒரு பொறியும்
உள்ள஥ு. வண்ணங்களுக்கு தனித்தனி உறுப்புகள்
உள்ளன. அவற்றை வாங்கிப் பொருத்திக் கொள்ள~
லாம். அ஥ன் மூலம் வண்ண எழுத்துகள், படங்கள்
அச்சடிக்கலாம்.</p>

<p>-41-</p>

<p>                    6.  கணிமம்</p>

<p>     இதுவரை கணிப்பொறியின் வடிவமைப்புகளைப்
பற்றி பார்த்தோம். இனி அது எவ்வாறு இ௟ங்குகிறது
என்று பார்ப்போம்.</p>

<p>     மனிதன் ஒரு செய்தியை மற்றொருவரிடம் கூற
மொழியைப் பயன்படுத்துகிறான். இ஥ற்கு இன்று
உலகத்தில் ஏறக்குறைய 850 மொழிகள் உள்ளன. அது~
போல், கணிப்பொறிக்கு ஒரு கட்டளை இ஠்டு ஒரு
செயலைச் செய்யச் சொல்வதற்கு ஒரு மொழி தேவைப்~
படுகிறது. இ஥ற்காகப் பல்வேறு மொழிகள் உருவாக்கப்
பட்டன.</p>

<p>     ஖ணிப்பொறியைப் பொருத்த வரை அ஥ற்கு எந்த ஒரு
மொழியும் தெரியாது. அ஥ற்கு 0,1 என்ற இரண்டு
நிலைகள்தான் தெரியும். ஆரம்ப காலத்தில் இந்த
இரண்டு எண்களை வைத்துக் கொண்டுதான் கணிப்~
பொறியை இயக்கி வந்திருக்கிறார்கள்.</p>

<p>     கம்ப்யூட்டர்களைக் கட்டளை இட்டு இயக்குவதற்கு
வழியமைப்புகள் தேவை. பல கட்டளை~
களை வரிசையமைப்பாக கொடுப்பதற்கே வழியமைப்பு
என்று பெயர். இ஥ற்கு நமக்கு மொழி தேவை
தொடக்கத்தில் மார்க் 1 என்ற கணிப்பொறியை இ௟க்~
கியது இயந்திர மொழியை ப௟ன்~
படுத்தியேயாகும். இது மிகவும் கடினமாக இருந்ததால்</p>

<p>-42-</p>

<p>உயர்நிலை மொழிகள் உருவாக்~
கப்பட்டன.</p>

<p>     சில மொழிகள் சில பயன்பாடுகளுக்கு மட்டும் பயன்~
படுத்தப்பட்டன. சில மொழிகள் சில துறைகளில்
பயன்படுத்த ஏதுவாக உருவாக்கப்பட்டன.</p>

<p>     எந்த மொழியில் வழியமைப்பு எழுதப்~
பட்டாலும், கணிப்பொறி மொழியைக் கொண்டுதான்
எச்செயலையும் செய்ய முடியும். ஆகவே எந்த மொழியில்
எழுதினாலும் அவற்றை பொறி மொழிக்கு மாற்ற
கம்ப்பைலர், இண்டர்ப்ரெட்டர்
எனப்படும் மொழி மாற்றிகள் ப௟ன்படுத்தப்படுகின்றன.
சில மொழிகளுக்கு கம்ப்பைலர்கள் மட்டுமே உண்டு.
சில மொழிகளுக்கு இண்டர்ப்ரெட்டர்கள்
கிடைக்கின்றன. எல்லா மொழிகளுக்கும் இண்டர்ப்~
ரெட்டர்கள் இல்லை.</p>

<p>     கம்ப்பைலர், இண்டர்ப்ரெட்டர் இவை இரண்டிற்கும்
ஒரு முக்கியமான வேறுபாடு உள்ள஥ு.</p>

<p>     இண்ட்டர்ப்ரெட்டர்கள் வழியவைப்புகளை இடுவரல்
செய்யும் போதே உடனுக்குடன் பொறி மொழிக்கு
மாற்றிவிடும். எனவே நாம் இடுவரல் செய்து விட்டு
ரன் என்று கட்டளை இட்ட உ஠னே முடிவு
நமக்குக் கிடைக்கும். கம்ப்பைலர்கள் முழு வழியமைப்~
பையும் மொத்தமாக மாற்றிய பின்னர்தான் செயல்~
பட்டு நமக்கு விடையளிக்கும்.</p>

<p>     உலகில் மொத்தம் 256 கணிப்பொறி மொழிகள்
உள்ளன. இப்புள்ளி விவரத்திற்குப் பிறகு செயற்கை
நுண்ணறிவுக்குப் பயன்படும் ஒரு மொழியை ஜப்பானியர்
உருவாக்கியுள்ளனர். ஆக மொத்தம் 257 மொழிகள்
உள்ளன.</p>

<p>-43-</p>

<p>     ஒவ்வொரு மொழியிலும் ஒவ்வொரு வகைச் சிறப்புப்
ப௟ன் உண்டு. சில மொழிகள் அறிவியல் ஆய்வுக்குப்
பயன்படும் விதத்தில் ஏற்பட்டவை. சில வணிக நிறுவனங்~
களுக்கும் பயன்படும் வகையில் செய்யப்பட்டவை. அது
மட்டுமல்லாமல் ஒவ்வொரு மொழிக்கும் பல்வேறு படி~
களில் முன்னேற்றம் உள்ளது. இ஥னைப் பற்றி ஒவ்வொன்~
றாக விவரமாகப் பார்ப்போம்.</p>

<p>1.  போர்ட்ரான்</p>

<p>     உயர்நிலை மொழிகளில் முதலாவது மொழி எனப்~
படுவது போர்ட்ரான் எனும் இம்மொழியே. இம்~
மொழியை ஜான்பேக்கஸ் என்பவர்
1956 I. B. M. - 704 கணிப்பொறிக்காக உருவாக்கினார்.
இப்பெயர் Formula Translation (பார்முலா ட்ரான்ஸ்~
லேஶன்) என்கிற இரண்டு சொற்களின் முதல் பகுதிகளின்
இணைப்பு. இ஥ில் சூத்திரங்கள் பயன்படுத்தப்பட்டன.
இம்மொழி அறிவியல் மற்றும் கணக்குத் துறைகளுக்கு
ஏதுவாக வடிவமைக்கப்பட்டது. பின்னர் இம்மொழியை
அவரவர் நினைத்தவாரெல்லாம் பயன்படுத்தினர்.
இதைத் தனித் தன்மை உடையதாகவும் ஒரே அமைப்பு
நிலை உடையதாகவும் செய்யவேண்டும் என்று அமெரிக்க
நாட்டு நிலை நிர்ணய கழகம்
நிர்ணயம் செய்தது. பின்னர்
சில மாற்றங்களுடன் போர்ட்ரான் II, அ஥ன் பின்னர்
போர்ட்ரான் IV தற்போது போர்ட்ரான் 77 என்று
படிப்படியாக முன்னேற்றம் செய்து வடிவமைக்கப்
பட்டது. போர்ட்ரான் II- ல் இருந்த சட்டங்கள் சில
IV- ல் தேவை இல்லை என்றும் அதிலும் சில 77-ல் தேவை
இல்லை என்றும் மென்மேலும் எளிதாக்கப்பட்டுள்ளது.
இன்றும் இம்மொழி அறிவியல் ஆய்வுத் துறையில் ப௟ன்~
படுத்தப்படுகிறது.</p>

<p>-44-</p>

<p>     போர்ட்ரான் மொழியில் வழியமைப்பை எழுதினால்
அ஥னை மொழி மாற்றம் செய்து, பின்னர் செயல்படுத்தி,
விடையைப் பெறலாம். போர்ட்ரான் மொழிக்கு
இண்டர்ப்ரெட்டர் இல்லை. எனவே அ஥னை கம்ப்பைலரில்
மொழி மாற்றம் செய்து பின்னர், இணைத்துச் செயல்
படுத்த வேண்டும்.</p>

<p>2.  பேஸிக்:</p>

<p>     பிகினர்ஸ் ஆல்பர்ப்பஸ் ஸிம்பாலிக் இன்ஸ்ட்ரக்ஶன்
கோட்
BASIC எனும் ஆங்கில சொற்றொடரின் முதல் எழுத்துக்~
களின் தொகுப்பே பேஸிக் ஆகும்.</p>

<p>     இம்மொழியை 1960 ஆம் ஆண்டு அமெரிக்காவில்
டார்ட்மௌத் கல்லூரி பேராசிரியர்கள் ஜான் கெம்னி
என்பவரும், தாமஸ் கர்ட்ஸ்
என்பவரும் உருவாக்கினார்கள். இம்மொழியில்
வழியமைப்பு எழுதுவது மிகவும் எளிது. எனவே இந்த
மொழி மிகவும் விரைவில் பரவியது. அமெரிக்காவிலும்,
கனடாவிலும் இந்த மொழியையே கம்ப்யூட்டர்களுக்கு
அதிகமாக ப௟ன்படுத்துகின்றனர்.</p>

<p>     இப்போது சிறிய, மிகச்சிறிய கணிப்பொறிகள் எல்லா~
வற்றிலும் பேஸிக் மொழி பயன்படுத்தப்படுகிறது.</p>

<p>     போர்ட்ரான் மொழியைப் போல இதுவும் இரு
நிலைகளில் இலகுவாக்கப்பட்டது. ஏ பேஸிக் என்றும்
பி பேஸிக் என்றும் இ஥ற்குப் பெயர்.</p>

<p>     பொதுவாக இம்மொழி எளிதில் கற்றுக் கொள்ள
இலகுவாக உள்ளது. எனவே எல்லாக் கம்ப்யூட்டர்~
களிலும் இம்மொழி பயன்படுத்தப்படுகிறது. வழி~
யமைப்பை எழுதி அ஥னை கம்ப்யூட்டரில் இடுவரல் செய்த
உ஠னே செயல்படுத்தலாம். இம்மொழிக்கு மாத்திரமே</p>

<p>-45-</p>

<p>இன்ட்டர்ப்ரெட்டர் எனப்படும் மொழி மாற்றி உள்ளது.
இம்மொழியில் வரைபடம் வரையக் கூடிய வழியமைப்பும்
செய்யலாம்.</p>

<p>3.  கோபால்</p>

<p>     கோபால் என்றவுடன் ஏதோ கோபால் என்ற ஒருவர்
இம்மொழியைக் கண்டு பிடித்திருப்பார் போலும் என்று
நினைக்கக் கூடும். ஆனால், (Common Business Oriented
Language) என்னும் ஆங்கில சொற்றொடரின் முதல்
எழுத்துகளின் சேர்க்கையே ஆகும்.</p>

<p>     சில மொழிகள் சில துறைகளுக்கு மட்டுமே பிரத்தியேக~
மாக உருவாக்கப்பட்டன என நாம் முன்னரே பார்த்~
தோம். அதே போல் இம்மொழி வணிக நிறுவனங்~
களுக்காகவே பயன்படுமாறு வடிவமைக்கப்பட்டு, ப௟ன்~
படுத்்தப்பட்டு வருகிறது.</p>

<p>     போர்ட்ரான் மொழியைப் போலவே இம்மொழியும்
பல ஆண்டுகளில் மேம்படுத்தப்பட்டது. முதல் முதலில்
இம்மொழியை உருவாக்குவதற்கான முயற்சி 1959 ஆம்
ஆண்டு மே மாதம், அமெரிக்க அரசுத் துறைகளும்
தொழில் நிறுவனங்களும் கூடிய கூட்டத்தில் மேற்~
கொள்ளப்பட்டது. இ஥ன் விளைவாக 1959 டிசம்பரில்
முதல் கோபால் மொழி வெளியிடப்பட்டது. பின்னர்
1961-ல் கோபால் - 61 என்னும் இரண்டாம் வெளியீடு
வெளியிடப்பட்டது. பின்னர் 1968-ல் ANSI என்னும்
சீர்மைப்படுத்தும் நிறுவனம் இ஥னைச் சீர்மை செய்து
ஒப்புதல் அளித்தது. எனவே இவ்வெளியீடு அன்ஸி~
கோபால் எனப் பெயர் பெற்றது.</p>

<p>     பிற்காலத்தில் பயன்பாட்டில் ஏற்பட்ட இடையூறுகள்
காரணமாக இதில் மேலும் புதிய வசதிகள் சேர்க்கப்~
பட்டன. இவற்றுடன் 1974-ல் அன்ஸி கோபால் மொழி
பயன்பாட்டிற்கு வந்தது. இவ்வாறு 59-ல் உருவாக்கப்஼பட்டு</p>

<p>-46-</p>

<p>74-ல் புழக்கத்திற்கு வந்த஼து தற்போது இந்த
மொழியைச் சீர்மைப்படுத்தும் பொறுப்பும் பயன்பாட்டுத்
திறனைக் கவனிக்கும் பொறுப்பும் கோடஸில்
என்னும்
குழுவிடம் விடப்பட்டுள்ளது.</p>

<p>4.  பாஸ்க்கல்</p>

<p>     இப்பெயரைப் படித்த உ஠னே நமக்கு முதல் பகுதியில்
படித்த ப்ளெய்ஸ் பாஸ்க்கல் என்பவர் நமக்கு ஞாபகத்~
திற்கு வந்திருப்பாரே? ஆம். முதல் முதலில் தன்னுடைய
18ஆம் வயதில் எண் சக்கர கணிப்பானை வடிவமைத்த
பிரெஞ்சு நாட்டு கணிதமேதை பாஸ்கலின் பெயராலே
அமைக்கப்பட்டுள்ளது இக்கணிப்பொறி மொழி.</p>

<p>     இம்மொழியை சூரிச்சை சேர்ந்த பேராசிரியர்
நிக்லாஸ் வர்த் என்பவர் உருவாக்கினார்.
இன்று உலக அளவில் அதிகமாகப் ப௟ன்படுத்தப்படும்
மொழி இம்மொழியே. பாஸ்கல் எளிதாக கையாளக்
கூடிய மொழியாகையால் இக்காலத்தில் பாஸ்கல் அ஥ிக~
மாக கற்பிக்கப்படுகிறது. பாஸ்கலின் எளிமை எல்லோ~
ரையும் கற்றுக்கொள்ள வைக்கிறது.</p>

<p>5.  பி. எல்-1</p>

<p>     ப்ரோகிராமிங் லேங்குவேஜ்-1
என்பதின் சுருக்கமே பி. எல்-1 இம்மொழி
I. B. M. 360 வகைக் கணிப்பொறிக்காக 1960-களில்
உருவாக்கப்பட்டது. இ஥ு கோபால், போர்ட்ரான் ஆகிய
இருமொழிகளின் சிறப்புக் கூறுகளை ஒருங்கே அமைத்து
அவற்றுக்கு மாற்று மொழியாக உருவாக்கப்பட்டது.
ஆனால் போர்ட்ரான் கோபால் போலவே இம்மொழியும்
ஒரு மொழியாகத்தான் பயன்படுத்தப்பட்டு வருகிறதே
தவிர, அவை இரண்டையும் இ஥ு பயனற்றதாக்கி விட~</p>

<p>-47-</p>

<p>வில்லை. எவ்வாறு இருந்தாலும் இம்மொழி கற்றுக்~
கொள்ளவும் நடைமுறைப்படுத்தவும் கடினமானது.</p>

<p>6. ஸீ</p>

<p>     ஆங்கில நெடுங்கணக்கின் மூன்றாவது எழுத்தான
ஸீ என்னும் ஒரே எழுத்தையே பெயராகக் கொண்ட
இந்த ஖ணிப்பொறி மொழியை 1973 ஆம் ஆண்டு
அமெரிக்காவின் ""பெல்"" ஆய்வகத்தில் பணியாற்றிய
டின்னிஸ்் ரிச்சி, கென் தாம்சன்
ஆகியோர் உருவாக்கினார்கள்.</p>

<p>     இம்மொழியை அறிவியல் மற்றும் வணிகவியல்
நடவடிக்கைகளுக்கு மிகவும் அ஥ிகமாகவும் எளிதாகவும்
பயன்படுத்துகிறார்கள்.</p>

<p>     இம்மொழி இயக்க வழியமைப்பு ஒருங்கு
எழுதுவதற்கும் பயன்படுத்துவதால் இடைநிலை
மொழி எனப் பெயர் பெற்றுள்ளது.</p>

<p>     இப்போது அ஥ிகமாகப் புகழ்பெற்ற யுனிக்ஸ் இயக்க
வழியமைப்பு இம்மொழியில்தான் எழதப்~
பட்டுள்ளது.</p>

<p>7.  ப்ரொலாக்</p>

<p>     இம்மொழி செயற்கை நுண்ணறிவு எனப்படும் AI
(Artificial Intelligence) ல் பயன்படுத்தப்படக்கூடிய ஒரு
மொழி. இம்மொழி ஜப்பான் நாட்டில் பரவலாகப்
பயன் படுத்தப்படுகிறது.</p>

<p>8.  லிஸ்ப்</p>

<p>     இம்மொழியும் செயற்கை நுண்ணறிவுக்குப் பயன்~
படும் ஒருமொழி ஆகும். இம்மொழி அமெரிக்காவில்
பரவலாகப் பயன்படுத்தப்பட்டு வருகிறது.</p>

<p>-48-</p>

<p>9.  அல்கால்</p>

<p>     இன்றுள்ள கணிப்பொறி மொழிகளின் அடிப்படை
அமைப்பு இம்மொழியின் அடிப்படையே.</p>

<p>10.  ஸ்னோபால்</p>

<p>     குறிக்கோவையை அ஥ிகமாகக் கொண்ட முதல்
மொழி இதுவே. இம்மொழி அமெரிக்காவில் உள்ள
""பெல்"" ஆய்வுக் கூடத்தில் 1962 ஆம் ஆண்டு உருவாக்கப்~
பட்டது.</p>

<p>11.  ஏ.பி.எல்.</p>

<p>     இம்மொழி பேஸிக் மொழியைப் போலவே மிக எளி~
தானது. ஏறக்குறைய பேஸிக் மொழி மாதிரியே
அணைத்து அமைப்புகளும் உடையது.</p>

<p>12.  ஏடா</p>

<p>     ஏடா என்று அழைக்கப்படும் இம்மொழி. உலகின்
மு஦ல் வழியமைப்பாளரும் புகழ் பெற்ற ஆங்கிலக் கவிஞர்
லாட் பைரன் அவர்களுடைய மகளுமான ADA பெயரா~
லேயே உருவாக்கப்பட்டது.</p>

<p>     இம்மொழி பாஸ்கல் மொழியை அடிப்படையாகக்~
கொண்டு அமைக்கப்பட்டுள்ளது. இம்மொழி பாஸ்கலைப்
போல அவ்வளவு எளிதானது அல்ல. இ஥னை மேம்படுத்த
அமெரிக்க ஐக்கிய நாடுகளின் அரசு தனது பாதுகாப்புத்
துறையின் மூலம் திட்டத்தை உருவாக்கியுள்ளது.
தற்போது இம்மொழியை அமெரிக்க ஐக்கிய நாடுகளின்
பாதுகாப்புத் துறை விரிவாகப் பயன்படுத்துகிறது.</p>

<p>     இ௟ற்பியலில் சில பெயர்கள் கண்டுபிடிப்பாளர்களின்
பெயரிலேயே வழங்கப்படுவது போல் கணிப்பொறி
அறிவியலிலும் இவ்வியலின் வளர்ச்சியில்பங்கு கொண்ட~
வர்களின் பெயர்களிலேயே வழங்கப்படுகின்றன.
      </p>

<p>
               0 
</p></body></text></cesDoc>