<cesDoc id="tam-w-commerce-industry-sula" lang="tam">
<cesHeader type="text">
<fileDesc>
<titleStmt>
<h.title>tam-w-commerce-industry-sula.txt</h.title>
<respStmt>
<respType>Electronic file created by</respType>
<respName>Central Institute for Indian Languages, Mysore</respName>
<respType>transferred into Unicode and CES format by</respType>
<respName>"Unicodify" software by Andrew Hardie</respName>
</respStmt></titleStmt>
<publicationStmt>
<distributor>UCREL (on behalf of CIIL)</distributor>
<pubAddress>Department of Linguistics, Lancaster University, Lancaster, LA1 4YT, UK</pubAddress>
<availability region="WORLD"></availability>
<pubDate>03-07-09</pubDate>
</publicationStmt>
<sourceDesc>
<biblStruct>
<monogr>
<h.title>சுலபமுறை தையற்கலை (பாகம்-1)</h.title>
<h.author>R.S. பாலகுமார்</h.author>
<imprint>
<pubPlace>India</pubPlace>
<publisher>Unknown - Book</publisher>
<pubDate>1988</pubDate>
</imprint>
<idno type="CIIL code">sula</idno>
</monogr></biblStruct></sourceDesc></fileDesc>
<encodingDesc>
<projectDesc>Text collected for the CIIL Corpus, subsequently integrated into the EMILLE/CIIL Monolingual Written Corpora.</projectDesc>
<samplingDesc>Simple written text only has been transcribed. Diagrams, pictures and tables have been omitted. Sampling begins at page 52.</samplingDesc>
<editorialDecl><conformance level="1"></conformance></editorialDecl>
</encodingDesc>
<profileDesc>
<creation><date>03-07-09</date></creation>
<langUsage>Tamil</langUsage>
<wsdUsage>
<writingSystem id="ISO/IEC 10646">Universal Multiple-Octet Coded Character Set (UCS).</writingSystem>
</wsdUsage>
<textClass>
<channel mode="w">print</channel>
<constitution type="composite"></constitution>
<domain type="public"></domain>
<factuality type="fact"></factuality>
</textClass>
<translations></translations>
</profileDesc>
<revisionDesc></revisionDesc>
</cesHeader>

<text><body>

<p>-1-</p>

<p>            உ஠ற் கூற்று இலக்கணம்</p>

<p>     உ஠ற் கூற்று இலக்கணம் என்பது தையற்கலையினைப்
பயிலும் மாணவ மாணவியர் மனித உடலமைப்பினைப்
பற்றித் தெரிந்துகொள்ள வேண்டிய பாடப் பகுதியாகும்.
ஏனெனில் உ஠ை அமைப்பானது உ஠லமைப்பிற்குத் தக்க~
படி அமைய வேண்டும் என்பதற்காக உ஠ற் கூற்று
இலக்கணம் பற்றி தொழிலு஠ன் தொடர்பினைக்்
கொண்ட நிலையில் தெரிந்து கொள்ள வேண்டும்.</p>

<p>     மனித உடலமைப்பானது இரண்டு வகையான அங்கங்~
களைக் கொண்ட ஒரு முழு அமைப்பாகும்.</p>

<p>     அவை 1. எலும்பு மண்டலம், 2. தசை மண்டலம்
எனப்படும். உ஠லமைப்பிற்கு எலும்பு மண்டலம்் பிரதம
மண்டலமாகவும், தசை மண்டலம் எலும்பு மண்டலத்தைப்
போர்த்திய அங்கமாகவும் அமையப்பட்டிருக்கிறது.</p>

<p>     மனிதனின் உ஠லமைப்பில் எலும்பு மண்டலத்தில்
நானூற்றுக்கும் மேற்பட்ட எலும்பு வகைகளும், தசை
மண்டலத்தில் சுமார் இருநூற்றுக்கும் மேற்பட்ட தசை
நார்களின் வகைகளும் இருக்கிறதென்பதே மருத்துவ உ஠ற்~
கூற்று இயல் ஆராய்ச்சியின் முடிவான கருத்தாகும்.</p>

<p>     மனித உ஠லின் எலும்பு மண்டலத்தில் அமையப் பட்~
டிருக்கும் மூட்டுகளின் தன்மைக்கேற்ப உ஠லின் பாகங்கள்
அசையவோ அல்லது அ஛ைவற்ற தன்மையோ இவற்றி~
னால்தான் கட்டுப் படுத்தப்படுகிறது, அல்லது செயலாக்க</p>

<p>-2-</p>

<p>முறைக்கு மூட்டுகள்தான் காரணமாக விளங்குகின்றன
எனலாம். இந்த மூட்டுகள் மூவகைப்படுகின்றன. அவை~
களாவன: 1. பந்துக்கிண்ண மூட்டு. 2. வழுக்கு மூட்டு.
3. கீல் மூட்டு எனப்படும்.</p>

<p>-3-</p>

<p>     பந்துக் கிண்ண மூட்டு: உ஠லின் தோள்பட்டை, கை
விரல், புட்ட பாகங்களில் அமைந்துள்ளன. இ஥ன் இ௟க்க
முறையான஥ு வழுக்கு மூட்டினைவிட இயக்க நிலையில்
மாறுபட்டிருக்கின்றது.</p>

<p>-4-</p>

<p>     வழுக்கு மூட்டுகள்: உ஠லின் பின் முதுகுப் பாகத்~
திலும், இ஠ுப்பு, காலின் பாதத்திலும் மனிதனின் உ஠ல்
பாகத்தினைக் குறிப்பிட்ட அளவுக் கோண நிலையில்
திரும்பச் செய்வது வழுக்கு மூட்டின் இயக்கமாகும்.</p>

<p>     கீல் மூட்டுகள்: உ஠லின் முழங்கால், முழங்கை
பகுதியில் அமைந்து ஒரு பக்க நிலையில் மட்டுமே இயக்க
நிலையினைப் பெற்றுள்ளது. கைகளை நீட்டவும் மடக்~
கவும், கால்களை நீட்டவும் மடக்கவும் செய்வதே இ஥ன்
சிறப்பு இ௟க்க முறையாகும்.</p>

<p>     மூட்டுகளின் இயக்க நிலையினைப் பொறுத்து
உடையை வெட்டும்போது தளர்ச்சியான அல்லது இறுக்க~
மான அமைப்பினையும் அமைக்க வேண்டும். இவ்வாறு
செய்வதினால் உடையானது உடம்பின் மூட்டுகளின்
இயக்்க நிலைக்குத் தகுந்தாற்போல் அமையும்.</p>

<p>     குறிப்பாக மார்பு உடையில் கைபாகம், தோள்
பட்டை இயக்க நிலைக்குத்் தகுந்தாற்போல் தளர்ச்சி~
யான அமைப்பினையும், காற்சட்டை உ஠ைகளில் கால்~
களை அகற்றவோ குறுகிய நிலைக்குக் கொண்டு வரவோ
தகுந்த நிலையில் கவடு இற஖்கப் பகுதி தளர்ச்சியாக
இருக்க உடை அமைய வேண்டும். தசை நார்களின்
சுருங்குதல், விரிதல் தன்மைக்கேற்ப உடலின் பாகங்களில்
புட்டப் பகுதி, தொடை, கை, கால் முதலான பகுதிகளில்
வளர்ச்சியின் வேகத்தின் காரணமாக உ஠லமைப்பு மாறு~
படுகிறது, உடலமைப்பின் மாற்றத்திற்கு தசைநார்~
களே பொறுப்பினை வகிக்கின்றன.</p>

<p>     எலும்பு மண்டலத்தில் குறிப்பிட்ட நிலைக்குமேல் எவ்~
விதமான மாற்றமும் இல்லை. தசை மண்டலத்தில் அவ்வப்~
போது மாற்றங்கள் ஏற்படுவதன் காரணமாக உ஠ல~
மைப்பு மாறுபடுகின்றது. எனவே கை முண்டாப் பகுதி~
யிலும் கவடு இறக்கப் பகுதியிலும் உடையின் அமைப்~
பினில் தசை நார்களின் தன்மைக்கு ஏற்றபடியாக</p>

<p>-5-</p>

<p>தளர்ச்சியை அமைக்க வேண்டும். ஏனெனில், உடை~
யானது உ஠லின் இயக்கத் தன்மைக்குப் பொருந்தியும்,
அமைப்பினில் சீரற்ற நிலையினைக் கொள்ளாமலும்
இருக்க வேண்டும்.</p>

<p>  உடற் கூற்று முறையினில் ஒழுங்கான உருவத்தின்
                அளவுகளின் தன்மை</p>

<p>     1. கைகளை உயரமாக உயர்த்தினால் தலை பாக
	அளவில் இரண்டு மடங்காகும்.</p>

<p>     2. பக்க வாட்டுப் பகுதிகளில் வலது, இ஠து புறங்~
	களில் கைகளை நீட்டினால் இ஥ன் விரல்களின்
	ஒரு முனையிலிருந்து அடுத்த பகுதி விரல் முனை
	வரை (வலதுபுறத்தில் இருந்து இ஠து புறம் விரல்
	முனை) மனித உயரத்தின் அளவினை ஒத்திட்டு
	இருக்கும்.</p>

<p>     3. முழங்கை பகுதியானது கை பாகத்தின் முழு நீள
	பகுதியில்் பாதி பங்காகும்.</p>

<p>     4. பின் முதுகுப் பாதி அளவானது மார்புச்சுற்றளவில்
	1/5 பாகம் ஆ஖ும்.</p>

<p>     5. இயற்்கையான இடுப்பு நீளமானது கழுத்து பாக
	அளவில் இரண்டு பங்காகும்.</p>

<p>     6. மார்புச் சுற்றளவானது கழுத்து பாக அளவில்
	நான்கு பங்காகும்.</p>

<p>     7. தோள்பட்டை சாய்வு நிலையானது இ௟ற்கை~
	யான இடுப்புப் பகுதி அளவில் 1/6 பாகம்.</p>

<p>     8. கவடு இறக்க அளவான புட்ட அளவில் 1/3
	பாகம்.</p>

<p>     9. அ஖்குள் இறக்க அளவு மார்பு அளவானது 1/4
	பாகமாகும்.</p>

<p>-6-</p>

<p>    10. காலில் முட்டி பாகமானது கவடு இறக்கப் பகுதி~
	யில் இருந்து பாதம் வரையிலான நீள அளவில்
	1/2 கழித்தல் 2 அங்குலமாகும். (அ) 5 செ.மீ.</p>

<p>    11. கண்டச் சதை பகுதியானது முட்டி பாகத்தில்
	இருந்து 3 1/2 அங்குல பகுதியில் உள்ளது.</p>

<p>    12. தோள்பட்டை முழு நீளமானது மார்புச் சுற்றள~
	வில் 1/2 பாகம் (-) 1 அங்குலமாகும், (அ) 2.5
	செ.மீ.</p>

<p>    13. தொடைச் சுற்றளவானது புட்டச் சுற்றளவில்
	2/3 பங்காகும்.</p>

<p>    14. மார்புச் சுற்றளவில் இருந்து 4 அங்குலம் (அ)
	10 செ.மீ. கழித்த அளவே இடுப்புச் சுற்றள~
	வாகும்.</p>

<p>    15. இடுப்புச் சுற்றளவுடன் 6 அங்குலம் (அ) 15 செ.மீ.
	கூட்டிய அளவே புட்டச் சுற்றளவாகும்.</p>

<p>     இவ்வாறு மனித உயர அளவிற்கும், சுற்றளவிற்கும்
ஒழுங்கான உருவத் த஼ன்மையில் அளவுகளானது விகிதா~
சாரத்தில் அமைந்திருக்கும். இதுவே மனித உருவ அமைப்பு
முறையின் ஒழுங்கான நிலையாகும் என்று கணக்கிட
வேண்டும்.</p>

<p>                விகித சம அளவுகள்</p>

<p>     மார்பு அளவிற்கும் இ஠ுப்பு அளவிற்குமுள்ள வித்தி~
யாசம் 4 அங். இ஠ுப்பு அளவிற்கும், புட்ட அளவிற்குமுள்ள
வித்தியாசம் 6 அங். இருக்க வேண்஼டும். இந்த அளவு~
களைக் கொண்டு தோள்பட்டை, அ஖்குள் இறக்கம், கவடு
இறக்கம் முதலிய அளவுகள் யாவும் விகித சம அளவில்
தன்மைக்கேற்ற முறையில் அமைந்திருக்கும்.</p>

<p>-7-</p>

<p>     மேற்குறிப்பிட்ட அளவுகளின் தன்மைக்கேற்ப
அமையப்படும் அளவுகளே விகித சமமற்ற அளவுகளின்்
அமைப்பு முறையாகும்.</p>

<p>     விகித சமமற்ற அளவின் மாற்றத்தினைக் கவனித்~
தால் மார்புச் சுற்றளவிற்கும்் இ஠ுப்புச் சுற்றளவிற்குமுள்ள
வித்தியாசம் 2" (அ) 5 செ.மீ. இ஠ுப்புச் சுற்றளவிற்கும்,
புட்டச் சுற்றளவிற்குமுள்ள வித்தியாசம் 3" (அ) 7.5 செ.மீ.
உள்ளது. இந்்த அளவுகளானது விகித சம உருவத்தில்
அமையப்பட்டிருக்கும் மார்பு - இ஠ுப்பு வித்தியாசம்,
இடுப்பு புட்்டம் வித்தியாசத்திலிருந்து மாறுபட்டிருக்கிறது
என்பது தெரிகிறது.</p>

<p>-12-</p>

<p>         உருவ அமைப்புக் கூறுகள்</p>

<p>     தையற் கலையைப்் பயிலுகின்ற ஆரம்ப நிலைப்
பயிற்சியாளர்கள் தையற் தொழிலுடன் ஒப்பிட்ட நிலை~
யில் மனித உருவ அமைப்பானது கீழ்க்கண்டவாறு வகைப்~
படுத்தப்படுகின்றது என்பதைத் தெரிந்து கொள்ள
வேண்டும்.</p>

<p>உருவ வேறுபாடுகளின் கூறுகள்:</p>

<p>     மனித உருவ ஆராய்ச்சியில் உருவ அமைப்பினை
நான்கு பிரிவுகளாகப் பிரிக்கலாம்:</p>

<p>     1. நிலையான உருவம்
     2. இ஠ைத்தரமான நிலையான உருவம்
     3. நிலையற்ற உருவம்
     4. சீர்கேடான உருவம்</p>

<p>1. நிலையான உருவம்</p>

<p>     நிலையான உருவம் எனப்படுவது ஒழுங்காகவும்,
இ௟ற்கை உ஠லமைப்பிற்கு உ஠்பட்டதாகவும் உ஠லின்
அங்கங்கள் அமையப்பெற்ற உருவம்தான் `நிலையான
உருவம்' ஆகும்.</p>

<p>2. இடைத்தரமான நிலையான உருவம்</p>

<p>     இடைத்தரமான நிலையான உருவம் எனப்படுவது
ஒழுங்கான நிலைக்கு மாறுபாடு கொண்டதாகவும் அங்கங்~
஖ளில் வளர்ச்சி அற்றதாகவும் அமைந்திருக்கும் உருவமே
`இடைத்தரமான நிலையான உருவம்' ஆகும்.</p>

<p>-13-</p>

<p>3. நிலையற்ற உருவம்</p>

<p>     நிலையான உருவத்திற்கு எ஥ிர்மறையான அமைப்~
பினைக்கொண்ட உருவத்தை நிலையற்ற உருவம்
என்று சொல்ல வேண்டும். நிலையற்ற உருவத்தில்
தோள்பட்டை சீரான வளர்ச்சியினைப் பெற்றிருக்கும்.
நிலையற்ற உருவத்தில் ஏற்றமுடைய அமைப்போ, ஏற்றத்
தாழ்வான அமைப்பினையோ கொண்டிருக்கும். உ஠லின்
அங்கங்கள் சீரான வளர்ச்்சியில் பாதிக்கப்பட்டு நிலை~
யற்ற தன்மையாக இ௟ற்கையில் அமைந்திருப்பதனையே
`நிலையற்ற உருவம்' என்று கூறல் வேண்டும்.</p>

<p>4. சீர்கேடான உருவம்</p>

<p>     மனித உடலமைப்பானது இ௟ற்கை வளர்ச்சியினின்று
மாறுபட்டு அமையப்பெற்ற உருவத்தையே `சீர்கேடான
உருவம்' எனலாம். உதாரணமாகக்் கூறுவோமேயாயின்:</p>

<p>     1. கூன் அமைப்பு கொண்ட முதுகு.
     2. முன் நோக்கிய மார்பு அமைப்பு.
     3. கோணல் அமைப்புடைய கால் (வில் வளைவுக்
கால்).
     4. முட்டியடிக்கால் (கால்களின் முட்டிகளானது
ஒன்றோடொன்று தட்டுப்படும் அமைப்பைக் கொண்டது).</p>

<p>     மேற்சொன்ன நான்கு பெரும் பிரிவுகளுக்குள் கீழ்க்
காணும் உருவங்களும் உள்ளடங்கியுள்ளன.</p>

<p>     1. ஒழுங்கான உருவம்.
     2. நிமிர்ந்த உருவம்.
     3. முன்நோக்கிக் குனிந்த உருவம்.
     4. வயிறு பருத்த உருவம்.
     5. உ௟ர்ந்த தோள்பட்டையுடன் கூடிய குறுகிய
கழுத்து அமைப்புக் கொண்ட உருவம்.</p>

<p>-14-</p>

<p>     6. சரிந்த தோள்பட்டையுடன் கூடிய நீண்ட கழுத்து
அமைப்புக் கொண்ட உருவம்.
     7. குட்டையான தடித்த உருவம்.
     8. உ௟ரமான ஒல்லியான உருவம்.</p>

<p>1. ஒழுங்கான உருவம்</p>

<p>     மனிதனின் நிர்ணயிக்கப்பட்ட உ௟ரம் 5 அடி 4 அங்.
என்றும் மார்பு சுற்றளவு 36 அங். இ஠ுப்புச் சுற்றளவு
32 அங். புட்டச்சுற்றளவு 38 அங், என்றிருத்தல்் வேண்டும்.</p>

<p>2. நிமிர்ந்த உருவம்</p>

<p>     மனித உடலமைப்பில் நிமிர்ந்த அமைப்பினைக்
கொண்ட உருவத்தில் காணப்படும் மாற்றமானது காற்~
சட்டை உ஠ைகளுக்கு புட்டச் சுற்றளவு சமநிலையானது
பின்நோக்கி சாய்ந்து இருத்தல் நிலையினைக் குறிப்ப~
தாகும்.</p>

<p>3. முன்நோக்கிக் குனிந்த உருவம்</p>

<p>     மனிதனின் உ஠லமைப்பில் மார்பு உ஠ைகளில் சம~
நிலை மாற்றத்தில் பின் சமநிலை அ஥ிகமாகவும் முன்் சம~
நிலை குறைந்தும் காணப்படுவதாகும். காற்சட்டை
உடைகளுக்கு இ஠ுப்்பு, புட்டம் அளவுகளில் 8 அங். வித்தி~
யாசம் பெற்றிருக்கும்.</p>

<p>4. வயிறு பருத்த உருவம்</p>

<p>     இவ்வித உருவத்தில் மார்புச் சுற்றளவில் இருந்து
இடுப்பு, அடிவயிறு அளவானது விகித சமமற்றதாகவும்,
மார்பு அளவினைக் காட்டிலும் இ஠ுப்பு, அடிவயிறு பாகம்
அதிகமாயிருத்தலே தொந்தியுள்ள உருவத்தின் வரையறுப்~
பாகும். உதாரணமாக மார்பு 38 அங். இ஠ுப்பு 42 அங்.
புட்டம் 43 அங். என்றிருக்கும்.</p>

<p>-15-</p>

<p>5. உ௟ர்ந்த தோள்பட்டையுடன் கூடிய குறுகிய கழுத்து
   அமைப்பு உருவம்</p>

<p>     மனிதனின் உருவப் பாகுபாட்டில், இவ்விதமான
உருவம் காணப்படுகிறது. இவற்றின் அமைப்பில் விகித
சமரீதியில் தோள்பட்டைக்கும், மார்பு அளவிற்கும் அளவு
அடிப்படையில் ஒத்து வராத அமைப்பினையும் கழுத்துப்
பாக நீளமானது குறுகிய அளவில் சுற்றளவில் அ஖ன்றும்
இருத்தல் உருவத் தன்மையாகும்.</p>

<p>6. சரிந்த தோள்பட்டையுடன் கூடிய நீண்ட கழுத்து
   அமைப்பு உருவம்</p>

<p>     மனிதன் உடலமைப்பில் சதைப்பற்றுக் குறைந்த உரு~
வத்தில் மார்புச் சுற்றளவிற்கும், தோள்பட்டை அள~
விற்கும், மார்புச் சுற்றளவில் 1/4 பாகம் என்பதே தோள்~
பட்டையில் 1/2 பாகம் பின் கழுத்து பின் எலும்பில் இருந்து
வலது புறமாகவோ அல்லது இ஠து புறமாகவோ தோள்
பட்டை அளவைக் கணக்கிடல் வேண்டும். ஆனால்
மார்பு அளவில்் 1/4 பாக அளவினைவிட தோள்பட்டை
அளவில் 1/2 பாகமானது 3/4 அங். வரை அ஥ிகமாக இருத்~
தலும் இதன் கழுத்து நீள அமைப்பு அதிகமாயிருத்தல்
இவ்வித உருவக் கூறு எனலாம்.</p>

<p>7. குட்டையான தடித்த உருவம்</p>

<p>     ஒழுங்கான உருவத்தின் உயர அளவில் இருந்து 2 அங்.
(அ) 5 செ.மீ. முதல் 4 அங் (அ) 10 செ.மீ வரை
குறைந்த அளவினைக் கொண்ட உருவம் குட்டையான
உருவம் எனப்படுகின்றது. குட்டையான மனிதனின்
உடலமைப்பானது மார்பு, இ஠ுப்பு, புட்டம், தொடை,
கழுத்து முதலான சுற்றளவுகள் ஒழுங்கான உருவத்தின்
அளவுகளின் தன்மையினைக் காட்டிலும் அ஥ிகமாக இருப்~
பதே இவ்வித உருவத்தின் வரையறுப்பாகும்.</p>

<p>-16-</p>

<p>8. உ௟ரமான ஒல்லியான உருவம்</p>

<p>     ஒழுங்கான உருவத்தில் நிர்ணயிக்கப்பட்டிருக்கும்
உ௟ரத்தில் இருந்து 2 அங் (அ) 5 செ.மீ முதல் 6 அங் (அ)
15 செ.மீ. அ஥ிகமாயிருக்கும் உருவத்தினையே உ௟ரமான
உருவம் என்றும் மனித உயரத்திற்கேற்ற அளவில் சுற்ற~
ளவுகள் விகித சமமற்ற அளவில்் அமைந்தும் அளவு஖ளின்
தன்மையில் குறைந்தும் காணப்படுவதே இவ்விதமான
உருவத்தின் வகையாகப் பிரிக்கவேண்டும்.</p>

<p>-17-</p>

<p>         மனித உயரமும், சுற்றளவும்</p>

<p>     மனிதனின் உடற்கூறு அமைப்்பினைப் பொருத்து,
உருவ அமைப்பு மாறுபாட்டினைப் பெற்றிருக்கின்றது.
மனிதனின் உயரத்திலும், சுற்றளவு முறையிலும் தொடர்~
புடைய உருவத்தையே நிரந்தர உருவம் என்று சொல்ல~
லாம். எ஠ுத்துக்காட்டாக மனிதனின் உ௟ரம் 5.4" (அ)
163 செ.மீ. மார்பு 34" இடுப்பு 32" புட்டம் 38". இந்த
அளவுகளை அடிப்படையாக வைத்து நிரந்தர உருவம்
என்று பிரிக்கப் படுகிறது.</p>

<p>     மனிதனின் உயரமானது அதிகமாகவும், சுற்றளவு~
களான மார்பு 34", இ஠ுப்பு 32", புட்டம் 38" என்று
அளவு முறையினைப் பெற்றிருப்பதால் நிரந்தர உருவ
அளவுகளின் உ௟ர அளவு இந்த உருவத்தின் அமைப்பில்
மாறுபட்டிருப்பதால் உயரத்தின் தன்மைக்கேற்ப அக்குள்
இறக்கம், கவடு இறக்கம் அதிகமாயிருக்க வேண்டும்.</p>

<p>     மனிதனின் உயரமானது குறைந்தும், சுற்றளவுகளான
மார்பு 34", இடுப்பு 32", புட்டம் 38" என்ற அளவு
முறையினைப் பெற்றிருப்பதால் குட்டையான உருவத்~
தினை ஒத்திட்ட உருவம் என்று பிரிக்க வேண்டும்.
உயர அளவுகளின் தன்மைக்கேற்ப அக்குள் இறக்கம்,
கவடு இற஖்கம் குறைந்த அளவில் இருக்்க வேண்டும்.
நிரந்தர உருவத்தின் உ௟ரம் 5.4". இந்த அளவினை
அங்குலமாக்கினால் 64 அங்குலம் கிடைக்கிறது. உயரத்தில்
1/8 பாகம் என்பது 8 அங்குலம் ஆ஖ும். மார்புச் சுற்றளவில்
1/4 பாகம் என்பது 34" மார்பு அளவினைக் கணக்கிட்டு
பங்கீடு செய்வதால் 8 1/2 அங். கிடைக்கிறது. அக்குள்</p>

<p>-18-</p>

<p>இறக்கமானது 8-க்கும் 8 1/2க்கும் மத்திய எண் 8 1/4 என்று
நிர்ணயிக்க வேண்டும். கவடிறக்கம் கண்டறிய உயரத்தில்
1/8 பங்கு +2" கூட்டவும், புட்டச்் சுற்றளவில் 1/3 பாகம்
செய்யவும். 38 அங். புட்டச் சுற்றளவை 1/3 பாகமாக்~
கினால் 12-3/4 அங். கிடைக்கிறது. 12-3/4-க்கும் 10-க்கும்
மத்திய எண் 11 1/4 என்பதே கவடிறக்கம் ஆகும். விகித சம
அளவுகளின் அடிப்படையில் நிரந்தர உருவத்தன்மை</p>

<p>-19-</p>

<p>ஒத்திட்டு இருக்கும் என்பதும் உயர, சுற்றளவுமுறையில்
பங்கீடு செய்யும் தன்மையில் பிற உறுப்புகளான தோள்
பட்டை, கழுத்து, இ௟ற்கையான இடுப்பு நீளம், பின்
முதுகுப்்பாதி அளவுகள் விகித சம அளவில் அமைந்து
விடுகின்றன.</p>

<p>     உயரங்களின் மூவகையான஥ு: 1. நிரந்தர உருவம்
2. உயரமான உருவம் 3. குட்டையான உருவம் என்று
பிரிக்கப்படுகின்றன.</p>

<p>     நிரந்தர விகிதாசார ரீதியின் அடிப்படையில் அமையப்~
பெற்ற உருவத்தின் அக்குள் இறக்கம், கவடிறக்கம் உயர,
சுற்றளவுகளின் ஒத்திட்ட நிலையில் இருந்து விடும்.
ஆனால் உயரம் மாறுபடும்போது அக்குள் இறக்கம், கவடு
இறக்கம் அ஥ிகரித்தல்் அல்லது குறைதல் விதிமுறையாகும்.</p>

<p>-20-</p>

<p>               உடைகளின் சமநிலை</p>

<p>     உடை சமநிலை என்பது ஒன்றுக்கொன்று ஏற்றத்
தாழ்வு நிலையில் இல்லாமல்் சரிசமப்படுத்துதலே சமநிலை
என்பதாகும். ஓர் உடையின் முன் பாக நீளம், பின் நீளம்
உருவத் தன்மைக்்கு ஏற்றவாறு தொடர்புடையதாக
இருத்தல்் வேண்டும் என்பதே சமநிலை ஆகும். மார்பு
உடையின் முன் பாகக் கழுத்துக் குறியில் இருந்து மார்புக்
கோட்டின்் பகுதி வரையிலும் பின் பாகக் கழுத்து முனையில்
இருந்து மார்புக் கோட்டுப் பகுதி வரையிலான நீள
அளவுகளே சமநிலைகள்் எனப் படுகின்றன. உ஠ையின்
முன் பாக நீளமும், பின் பாக நீளமும் சரியான நிலையில்
இருப்பது என்பதும் சமநிலையாகும்.</p>

<p>     சமநிலை என்ப஼து ஓர் உ஠ையின் முன் பாக நீளத்தை~
யும், பின்் பாக நீளத்தையும் உருவ அமைப்பிற்குத்
தகுந்தாற்்போல் சரிநிகர் படுத்துதல் ஆ஖ும். மார்பு உடை~
களான சிலாக், ஶர்ட்டு, ஜிப்்பா, கோட்டு உடைகளும்,
காற்சட்டை உ஠ைகளின் முன் பாக, பின் பாக நீளங்~
களைச் சரிப்படுத்துதலையும் குறிப்பதே சமநிலையாகும்.
மகளிர் உருவ அமைப்பில் சமநிலை மூவகைப்படும். ஆண்,
பெண் உருவத்்தில் சமநிலை பொதுவானதாகும்.</p>

<p>சமநிலையின் வகைகள்</p>

<p>     சமநிலை என்பது மூன்று வகைப்படும்</p>

<p>     அவைகளாவன: 1. இலட்சியச் சமநிலை</p>

<p>-21-</p>

<p>                      2. இயற்கைச் சமநிலை
		      3. குறிப்பிட்ட சமநிலை
என்பதாகும்.</p>

<p>இலட்சியச் சமநிலை</p>

<p>     உ஠ைக்குத் தேவையான அளவுகளை நேரிடை
அளவெடுக்கும் முறையைக் கொண்டு அளவெடுத்த
பின்னர் மார்புச் சுற்்றளவில் 1/4 பாகம் என்பதே அக்குள்
இறக்கம் என்று கணக்கிட வேண்டும். இம்மாதிரியாக
வெட்டப்படும் உ஠ையில் சமநிலை மாற்்றமின்றி அமைந்து
விடுகிறது. ஆனால் சாதாரண உ஠லமைப்பினைக்
கொண்ட உருவத்தில் இ஥ுபோன்ற சமநிலையானது விகி~
தாசார ரீதியில் அமைந்து விடுகிறது. இ஥னையே இலட்~
சியச் சமநிலை என்று கூறவேண்டும்.</p>

<p>-22-</p>

<p>இயற்கைச் சமநிலை</p>

<p>     விகித சம உடலமைப்பைக் கொண்ட உருவத்~
தினருக்கு மார்புச் சுற்றளவில் இருந்து கணக்கிடப்படும்
முறையானது சரிவர இல்லாமல் இருந்தாலும் முன்பாகம்.
பின்்பாகத்தின் சமநிலையை ஒரே அளவில் நிர்ணயப்~
படுத்துதலே இயற்கைச் சமநிலையாகும். குறிப்பாக
மார்புச் சுற்றளவில் 38 அங். இதில் 1/4 பாகம் என்பது 9 1/2
அங்். ஆகும். உடையின் முன், பின் சமநிலையானது
கழுத்துக் குறியில் இருந்து அ஖்குள் இறக்்கம் வரையில்
முன்பாகமும், பின் கழுத்து முனையில் இருந்஼து கை
முண்டா வரையிலான பின்பாகமும் - சரியான அளவி~
னைக் குறித்துக் கொள்ளவேண்டும்.</p>

<p>குறிப்பிட்ட சமநிலை</p>

<p>     முன்நோக்கிக் குனிந்த உருவத்்தில் பின்் சமநிலை~
யானது முன் சமநிலையை விட அ஥ிகமாகவும், நிமிர்ந்்த
உருவத்தில் முன் சமநிலையைவிட பின் சமநிலை
குறைந்்தும் இருக்க வேண்டும். ஆனால் உ஠ை வெட்டும்
போது பின் சமநிலைக்கும் முன் சமநிலைக்கும் உள்ள வித்~
தியாசமே குறிப்பிட்ட சமநிலை என்பதாகும். இ஥னை
உருவத்தன்மைக்கும் உ஠ை அமைப்பிற்கும் ஒத்திட்ட
நிலையில் அமைப்பதால் உடையில் பிழைகள் ஏற்படாத~
வாறு உருவத்தின் தன்மைக்கு ஏற்றபடி உ஠ையானது
பொருந்தி விடுகிறது. தவிர இம்மாதிரியான சமநிலை~
யைச் சரிப்படுத்த இடுப்புப் பாகத்தில் தேவையான
மாற்றம் அவசியப்படுகிறது.</p>

<p>டிரௌசர் உடையின் சமநிலை</p>

<p>     டிரௌசர் உடையின் புட்டச் சுற்றளவினை இ஠ுப்பு,
புட்ட அளவுகளின் வித்தியாசத்தினால் சமநிலை மாற்ற~
மடைவதை படத்தில் விளக்கப்்பட்டிருக்கிறது. இது
போன்று உருவ மாற்றங்களுக்்கேற்ப சமநிலை அமைந்து
விடும் என்பதே உ஠ற்கூற்றின் தன்மையாகும்.</p>

<p>-23-</p>

<p>     டிரௌசர் உடையின் முன் பாகக் கவடிறக்க நீளமும்,
பின் பாக நீளமும் நேர்முக சமநிலையையும், உருவ அமைப்~
பிற்குத் தகுந்தாற்போல் முன், பின் நீளங்களின் மாற்றத்~
தினையும் அ஥ற்கேற்ற முறையில் சமநிலையைச் சரிப்~
படுத்தவேண்டும். உதாரணமாக நிலையான உருவத்~
தினருக்கு புட்ட அளவு 38 அங். என்றால் கவடிறக்கம் 1/4
பாகம். 9 1/2+2=11 1/2" முன் பாகத்திலும் 11 1/2+1 1/2=13 அங்.
பின் பாகத்திலும் இருக்கவேண்டும். ஆனால் சதைப்
பற்றுக் குறைந்த புட்டத்தை உடையவர்களுக்கு உதாரண~
மாக புட்டம் 34 அங். முன் கவடிற஖்க நீளம் 10 1/2 அங்.</p>

<p>     பின் பாக நீளம் 10 1/2+1=11 1/2 அங்குலம் இருத்தல்
அவசியம். முன்நோக்கி குனிந்த (அல்லது) சதைப் பற்று
பின் நோக்கிய புட்ட அமைப்பினைக் கொண்டவர்களுக்கு</p>

<p>-24-</p>

<p>உ஥ாரணமாக இடுப்பு 32" புட்டம் 40" என்றால் முன்
பாக சுவடிறக்கம் 40/4=10+2=12 அங்குலமும், பின்பாக~
மானது 12+1 3/4=13 3/4 அங்குலமும் அமைப்பதால் உருவத்~
திற்கேற்றபடியான சமநிலை கிடைத்துவிடும்.</p>

<p>     காற்சட்டைகளின் முன் பாக நிலைக் கோட்டினை
ஒல்லியான உருவத்தினருக்குக் குறுகலாகவும், தடித்த
உருவத்தினருக்கு அ஖ன்ற நிலையிலும் நிலைக் கோட்~
டினைச் சரி செய்யவேண்டும். இவ்வாறு செய்வதால்
உருவ அமைப்பிற்குத் தகுந்த சமநிலை அமைகின்றது.</p>

<p>-25-</p>

<p>     காகித மாதிரி தயாரித்தலின் விதிமுறைகள்</p>

<p>     உடை தயாரித்தலுக்கு உடை மாதிரி வடிவங்களை
காகிதத்தில் வரிவடிவம் செய்து தயாரிக்கும் முறையே
காகித மாதிரி தயாரித்தல் என்பதாகும்.</p>

<p>     காகித மாதிரி தயாரித்தலுக்கு உடையின் அமைப்பு~
களும், அளவுகளும் முக்கியத் தேவைகளாகும். இம்முறை~
யானது கீழ்க்கண்்ட பிரிவுகளாகப் பிரிக்கப்பட்டு தையற்
தொழிலில் பயன்்படுத்தப்பட்டு வருகின்றன.</p>

<p>காகித மாதிரியின் பிரிவுகள்்:</p>

<p>     அ. விகித சம அளவுடைய காகித மாதிரி.
     ஆ। தனிப்பட்ட நபருக்கான காகித மாதிரி
     இ. கிரேடிங் முறை காகித மாதிரி</p>

<p>விகித சம அளவுடைய காகித மாதிரி:</p>

<p>     மொத்த உடை உற்பத்தித் தொழில் நிறுவனங்களில்
தயாரிக்கப்படும் உ஠ைகளானது விகித சம உ஠லமைப்~
பிற்குப் பொருந்்தக் கூடிய வகையில் உடைகளை தயாரிக்க
வேண்டியிருப்பதால் இவ்வகைப்பட்ட காகித மாதிரிகளை
தயாரித்து உ஠ை உற்பத்திக்குப் பயன்படுத்துகின்றனர்.
தற்போது ஆயத்த உ஠ை தயாரிப்பு நிறுவனங்களிலும்,
ராணுவ உ஠ை உற்பத்தி நிறுவனங்களிலும் இம்்முறை
பயன்படுத்தப்படுகிறது.</p>

<p>-26-</p>

<p>தனிப்பட்ட நபருக்கான காகித மாதிரி:</p>

<p>     தனியார் தையற்கடை நிறுவனங்களில் தமது வாடிக்~
கையாளரின் உருவ அமைப்பிற்கேற்ப மாறுதல்களைக்
கொண்ட உ஠ைக்க஼ுத் தேவைப்படுகின்ற காகித மாதிரி~
களை தனிப்பட்ட நபருக்கென தயாரிக்கப்படுகிறது.
ஏனெனில் ஒருமுறை இவ்வாறு மாதிரி வடிவமைத்தலைக்
கொண்டு பின்னர் அந்த நபருக்குப் பொருத்தமானதென
செய்த காகித மாதிரியை பயன்படுத்துவதால் உ஠ையின்
அமைப்஼பு மாறாதிருக்க வழி செய்யப்படுகிறது. இம்மாதிரி~
யான காகித மாதிரியானது தற்போது பெண்கள் உடை
தயாரிக்கும்் தனிப்பட்ட தையற் கடைகளிலும், சீர்
கேடான உருவ அமைப்புகளைக் கொண்டவர்களுக்கும்
(உ-ம். புறா மார்பு, வில் வளைவு கால், முட்டியிடிக்கால்)
ஆண்கள் உ஠ை தயாரிக்கும் தையற்கடை நிறுவனங்~
களிலும் ப௟ன்படுத்தப் படுகிறது.</p>

<p>கிரேடிங் முறை காகித மாதிரி:</p>

<p>     கிரேடிங் என்பது குறிப்பிட்ட காகித மாதிரியினை
அடிப்படையாகக் கொண்டு அளவு முறைகளில் அ஥ிகமோ
அல்லது குறைவான அமைப்பிற்கு ஏற்றபடி காகித மாதிரி~
யில் செய்யப்படும் மாற்றங்களைக் கொண்டு அளவு கூடுத~
லான அல்லது அளவு குறைந்த காகித மாதிரிகளை
தயாரிக்கின்றனர். (உ-ம்.) மொத்த உடை உற்பத்திக்கு
36" மார்பு சுற்றளவினைக் கொண்ட காகித மாதிரியை
அடிப்படையாகக் கொண்டு, 38 அங். மற்றும் 34 அங்.
என்ற உடை அமைப்பு காகித மாதிரி செய்யும் முறையே
கிரேடிங் முறை எனப்படுகிற஥ு. தற்போது மேல்நாட்டு
உடை உற்பத்தித் தொழிலகங்களில்் இம்முறை பயன்~
படுத்தப் படுகிறது.</p>

<p>     காகித மாதிரியைக் கொண்டு துணியின் மேற்பரப்பில்
வெட்டுவதால் துணி சிக்கன முறையிலானதும் மற்றும்
சுலபமானதுமாகும். இம் முறையானது தையற் தொழி~
லகங்களில் பயன்படுத்தப் படுகிறது.</p>

<p>-27-</p>

<p>கிரேடிங் முறை பற்றிய விளக்கம்</p>

<p>     மொத்த உ஠ை உற்பத்தித் தொழிலகங்களில் குறிப்~
பிட்ட அளவு காகித மாதிரியினைக் கொண்டு அந்்த
அமைப்பு முறையினை அ஥ிகமாகவோ, அல்லது குறை~
வாகவோ கணக்கிட்டு காகித மாதிரி தயாரித்தல்
முறைக்கு கிரேடிங் முறை அவசியப்படுகிறது.</p>

<p>     குறிப்பாக சிலாக்் உடையின் குறிப்பிட்ட அளவு
மார்புச் சுற்றளவு 90 செ.மீ. அமைப்்பிற்கேற்்ற முறையில்
தயாரிக்கப்பட்ட பிரதம காகித மாதிரியைக் கொண்டு
95 செ.மீ. அமைப்பிற்கும் 85 செ.மீ. அமைப்பிற்கும் ஏற்ப
மாறுதல்களைக் கணக்கிட்டு வடிவ஼ மாற்றம் செய்தலுக்கு
கிரேடிங் முறை சிறந்ததாகும்.</p>

<p>     கிரேடிங் முறைக்குத் தேவையானது யாதெனில், குறிப்~
பிட்ட அளவு மாதிரியின் அளவுகள் மற்றும் உடை அமைப்~
புகள், பிரதம மற்றும் உதிரி பாகங்களைக் கொண்ட
காகித மாதிரி அவசியம். ஏனெனில் இந்த மாதிரியினை
அடிப்படையாகக் கொண்டுதான் பிற அளவுகளுக்கு
மாற்றம் செய்ய முடியும். இ஥ற்கு கிரேடிங் அட்டவணை~
யாக அளவுகளை பயன்படுத்த உ஥ாரணம் பின்வருமாறு:</p>

<p>சிலாக் உடை:</p>

<p>     அமைப்பு: முமுத்திறப்பு 6 பட்்டன்கள் அமைப்்பு
                கழுத்துப் பட்டியுடன் சேர்ந்தது.</p>

<p>குறிப்பிட்ட அளவு காகித மாதிரியின் அளவுகள்:</p>

<p>     கிரேடிங் முறைக்கு அட்டவணையில்் குறிப்பிட்டபடி
அளவுகளையும் அ஥ற்கான அளவுப் பங்கீடுகளையும்
தயாரித்துக் கொண்ட பிறகு கிரேடிங் செய்யவேண்டும்.</p>

<p>     கிரேடிங் முறையில் பின்பற்ற வேண்டிய முக்கிய விதி~
முறைகளில் குறிப்பிட்ட அளவு காகித மாதிரியிலுள்ள
அக்குள் இறக்கக் கோட்டினை நிலையான அளவாகக்</p>

<p>-28-</p>

<p>கொண்டு பிற அளவுகளுக்கு கிரேடிங் செய்யும்போது
அக்குள்் இறக்கக் கோடு நிரந்தரமானதாக நிலை
நிறுத்திக் கொள்ளவேண்டும்.</p>

<p>     மொத்த உடை உற்பத்தித் தொழிலகங்களில் தயாரிக்~
கப்பட்டு வரும் உடைகளின் அளவுகளை எஸ், எம், எல்.
எக்ஸ் எல், டபுள் எக்ஸ் எல் மற்றும் மூன்று எக்ஸ் எல்
(S, M, L, XL, XXL, XXXL) என்று மார்புச் சுற்றளவினை
அடிப்படையாகக் கொண்டு வகைப்படுத்தப் பட்டு உ஠ை~
களைத் தயாரித்து வருகின்றனர். எனவே நிர்ணயிக்கப்~
பட்ட ஒரு காகித மாதிரியினைக் கொண்டு பிற அளவு~
களுக்க஼ேற்ப வடிவ மாற்றம் செய்திட கிரேடிங் முறை
முக்கியத்துவம் வாய்ந்ததாகவும், நடைமுறையில் ப௟ன்~
படுத்தப்பட்டு வருகின்ற முறையாகும்்.</p>

<p>-29-</p>

<p>             மனித உ஠லில் தோள்பட்டை
             வகைகளும் அமைப்புகளும்</p>

<p>     உடற்கூற்றிலக்கண முறையினைக் கொண்்டு மனித
உடலின் மார்புச் சுற்றளவுகளின் மாற்றங்களுக்கேற்ப
தோள்பட்டையின் அமைப்பு முறையிலும் மாற்றங்்கள்
ஏற்படுகின்றன. இவ்வாறு ஏற்படும் மாற்றங்களைப் பற்றி~
யும் தோள்பட்டை வகைகளையும் அவற்றிற்குத்் தேவை~
யான தோள்பட்டை சாய்வு நிர்ணயித்தலையும் பின்வரு~
மாறு கவனிக்கவும்.</p>

<p>     மனித உ஠லில் மார்பு அமைப்பானது விகித சம
அளவில்் அமைந்திருக்குமேயானால் தோள்பட்டையும்
நிலையான அமைப்பில் அமைந்திருக்கும்.</p>

<p>     மனித உடலில் மார்பு அமைப்பு, குறுகலாக இருப்பின்
தோள்பட்டை அமைப்பு அகன்றிருக்கும். அ஥ற்கு குறுகிய
மார்பும், அகன்ற தோள்பட்டையும் என்று பிரிக்்கப்படுகிறது.</p>

<p>-30-</p>

<p>ஆனால் இவ்வித உருவத்தில் தோள்பட்டை~
யானது மார்புச் சுற்றளவு குறைவினால் சாய்ந்த நிலையில்
அமைந்்து விடுகிறது.</p>

<p>     மற்றும் மார்புச் சுற்றளவு அ஥ிகமாயும், மேல் நோக்கி
தூக்கியவாறு அமைந்தும் தோள்பட்டை அ஖லம் அ஥ிக~
மாகவோ அல்லது குறைந்தோ இருப்பின் உயர்ந்த தோள்~
பட்டை என்று பிரிக்கப்படுகிறது.</p>

<p>     இதைத்தவிர சில மனித உருவங்களில்் உருவ அமைப்~
பின் மாற்றங்களுக்கேற்ப தோள்பட்டை நீளமானது பின்
கழுத்து முனையிலிருந்து வலது பக்கத்தில் குறைந்தோ
அல்லது இ஠து பக்கத்தினைவிட அ஥ிகமாகவோ அமைந்~
திருக்குமேயாயின் இ஥னை சீர்கேடான தோள்பட்டை
என்று பிரிக்கப்படுகிறது.</p>

<p>     மார்பு உ஠ைகளில் சிலாக், ஶர்ட்டு, ஜிப்பா, கோட்டு
போன்ற உ஠ைகளை வெட்டும்போது தோள்பட்டை
சாய்வு மிக முக்கியமாகக் குறிக்கப்பட்டு வரிவடிவம் செய்~
வதால் தோள்பட்டையின் அமைப்பிற்்கேற்றபடி தோள்~
பட்டை சாய்வு நிலை அளவு பின்வரும் அட்டவணையில்
உள்ள஫டி வரிவடிவம் செய்யும்போது குறிக்கவேண்டும்.</p>

<p>     தையற் தொழிலில் மனித உருவங்களை வகைப்படுத்து~
தலும் அவற்றிற்கான சுருக்குச் சொற்களும்.</p>

<p>     தையற் தொழிலில் மனித உடலின் பாகங்களை அள~
வெடுக்கும்போது உருவ அமைப்பினையும், அவற்றிற்கான
சுருக்கச் சொற்களையும் பின்வருமாறு பயன்படுத்துதல்
அவசியமாகும்.</p>

<p>-33-</p>

<p>                 தையல் இயந்்திரம்
  
     இன்றைக்குத் தையல் இயந்திரங்கள் தயாரிக்கும் நிறு~
வனங்கள்் அ஥ிகரித்துக் கொண்டே செல்வது தொழிற்~
துறை வளர்ச்சியினைக் காட்டுகிறது. முன்னணியில் நிற்~
கும் நிறுவனமான உஶா தையல் நிறுவனம் இந்தியாவில்
முதல் முதலில் தையல் இயந்திரத்தைத் தயாரித்துக்
கொடுத்த பெருமைக்குரிய ஜேகே இன்ஜினியரிங் ஒர்க்ஸ்,
கல்கத்தா நகரில் அமைந்திருப்பது சிறப்பம்சமாகும்.
இன்றைக்குத் தையல் இயந்திரமென்றால் உஶா தையல்
இயந்திரம் என்று எல்லோருக்கும் இனிய நினைவில்்
வருவதற்குக் காரணம் இந்தியாவில் முதல் முதலில்
தயாரித்து வெளியான இயந்திரம் என்பதை தொழிற்்~
துறை மறக்க முடியாது.</p>

<p>தையல் இயந்திரத்தின் வகைகள்</p>

<p>     1. கையினால் இயக்கக் கூடியது
     2. காலினால் இ௟க்கக் கூடியது
     3. மின்சாரத்தினால் இயக்கக் கூடியது</p>

<p>     இவைகளே தையல் இயந்திரத்தின்் வகைகளாகும்.
இவற்றின் இயக்க முறை பின்வருமாறு:</p>

<p>1. கையினால் இ௟க்கக் கூடிய தையல் இயந்திரம்:</p>

<p>     இந்த வகையான இயந்திரத்தினை கையினால்
இ௟க்கக் கூடியதாகவும், துணியினைத் தைக்கும்போது
மிகவும் சுலபமாகவும், குறைந்்த அளவு உற்பத்தியினைத்
தரக் கூடியதுமாகும். குடும்பப் பெண்கள் உ஫யோகித்து</p>

<p>-34-</p>

<p>வருகின்ற தையல் இயந்திரம் இ஥ுவே ஆகும். இந்த வகை~
யான இயந்திரங்களை வட இந்தியாவில் பஞ்சாப்,
காஶ்மீர் மாநிலங்களில்் மொத்த உ஠ை உற்பத்திக்காகப்
பயன்படுத்துகின்றனர்.</p>

<p>2. காலினால் இ௟க்கக் கூடிய தையல் இயந்திரம்:</p>

<p>     இந்த வகையான இயந்திரத்தினை காலினால் இயக்க
வேண்டும். உ஠ைகளைத் தைக்கும்போது இ஠து
கையானது துணியினை தைக்கும்போது உதவியாகவும்,
வலது கையானது சுழலும் சக்கரத்தினை இயக்கவும்,
நிறுத்தவும் பயன்படுகிறது. அ஥ிகளவு உற்்பத்தியை
பெருக்குவதற்கு இன்றைக்கு உ஠ை உற்பத்தி தொழிற்~
சாலைகளிலும், தனியார் தையற் கடைகளிலும்
உபயோகத்தில் உள்ளது.</p>

<p>3. மின்சாரத்தினால் இயக்கக் கூடிய இயந்திரம்:</p>

<p>     இந்த வகையான தையல் இயந்திரங்களை இயக்கு~
வதற்கு மின்விசை அவசியமாகும். மின்சார மோட்டார்
1/8 முதல் 1/2 குதிரைத் திறன் உள்ளதை தையல் இயந்~
திரத்தை இ௟க்க பயன்படுத்துகிறார்கள். ஆனால் 15
இயந்திரங்களை ஒரே வரிசையில் இ௟க்க 5 குதிரைத்திறன்
மோட்டார்் பயன்படுத்தப்படுகிறது.</p>

<p>     தையல் இயந்திரங்களின் பாகங்களில் அ஥ிகமான
மாற்றங்கள் ஏதுமில்லாமல் எல்லாவிதமான தையல்
இயந்திரங்களும் ஶெட்டில் பிரஶர் புட் முதலான பாகங்~
களைக் கொண்டிருக்கும். அ஥ிகளவு உற்பத்தியைத் தரு~
கின்ற வகையில் தையல் இயந்திரத்தின் இ௟க்க சக்தியில்்
சில மாற்றங்கள் செய்யப்பட்டு விற்பனைக்குக் கிடைக்~
கின்றன.</p>

<p>     `லாக் ஸ்டிச்' தையல் இ௟ந்திரத்தின் சிறப்பு இ௟க்க~
மாக பேஸ்டிங் மெஶின், செயின் தையல், ஜிக்-ஜாக்,
பார்டேக், பட்டன் துவாரம், பட்டன் தைத்தல், கண்</p>

<p>-35-</p>

<p>துவாரம் தையல் செய்தல், ஓவர்லாக் செய்தல் முதலான
பல்வேறு வகைப்பட்ட தையல்களை செய்வதற்கு பயன்~
படுகின்றன. சில தையல் இயந்திரங்களில் 2 ஊ஛ிகள்,
4 ஊசிகள் பொருத்தப்பட்டிருக்கும்.</p>

<p>தையல் இயந்திரத்தின் முக்கிய பாகங்கள்்:</p>

<p>     1. ஸ்டாண்டு 2. தலை 3. பெட் (படுக்கை பாகம்)
ஆகும்.</p>

<p>ஸ்டாண்டு பாகத்தில் உள்ள பிற உ஠்்பாகங்கள்:</p>

<p>     1. பக்கவாட்டு ஸ்டாண்டுகள், 2. நடுநிலை பிரேம்,
3. பேண்டு வீல், 4. டிரெடில், 5. பிட்மெண்ராட்,
6. கிராங்க், 7. பெல்ட், 8. பெல்ட் கார்டு, 9. ப்ளாங்க்.</p>

<p>தலை பாகத்தில் உள்ள பிற உ஠்பாகங்கள்:</p>

<p>     1. பேலன்ஸ் வீல் வைண்டர்
     2. ஸ்டாப் மோஶன் ஸ்குரு
     3. பாபின்                   4. ஸ்பூல் பின்
     5. பேஸ் ப்ளேட்டு            6. டேக்அப் லிவர்
     7. டென்ஶன் டிஸ்க்         8. டென்ஶன் ஸ்பிரிங்
     9. தம்ப் ஸ்குரு            10. ப்ரஶர்புட்
    11. ப்ரஶர்புட் லிப்டர்      12. நீடில்பார்
    13. நீடில் க்ளாம்ப்         14. ஸ்டிச் ரெகுலேட்டர்
    15. ஸ்லைடு ப்ளேட்           16. த்ரோட் ப்ளேட்
    17. நகரும் பல்</p>

<p>பெட்: (படுக்கை பாகம்)</p>

<p>     ஸாட்டு, ஶெட்டில் கார்ட், ஶெட்டில் முதலானவை~
யாகும்.</p>

<p>-36-</p>

<p>1. தையல் இயந்திரத்தின் இயக்க நிலையில் ஏற்படும்
   சில கோளாறுகள்:</p>

<p>     இயந்திரம் கடினமாக இருப்பின் இயந்திரத்தின்
பாகங்களில் எண்ணெய் விடுதல் வேண்டும். இயக்கப்
பகுதியில் நூல் சிக்கியிருந்தால் இயந்திரம் கடினமாக
இயங்கும்.</p>

<p>2. ஊசி உடைதல்:</p>

<p>     தையல் இயந்திரத்தில் பொருத்தப்பட்டிருக்கும் ஊசி~
யானது சரிவரப் பொருத்தப்படாமலிருத்தல்; துணி~
யினைத் தைக்கும்போது தையல் இயந்திரம் நிற்பதற்கு
முன்னராக துணியினை இழுத்தல். துணியின் கனமான
பகுதியில் ஊசி தடைப்பட்டு உ஠ைய வழி இருக்கிறது.</p>

<p>3. நூல் அறுபடுதல்</p>

<p>     துணியின் தரத்திற்கேற்ற வகைகளில் நூல்களின்
தன்மையானது மாற்றங்களைப் பெற்றிருத்தல். தையல்
இயந்திரத்தின் டென்ஶன் பகுதியில் சரிவர இ௟ங்காம~
லிருத்தல். துணியின் தன்மைக்கேற்ப நூலின் வகை~
களைத் தேர்ந்தெடுக்காமலிருத்தல் முதலிய காரணங்~
களாகும்.</p>

<p>தையல் இயந்திரத்தினை பாதுகாக்கும் முறைகள்:</p>

<p>     தையல் இயந்திரத்தின் எண்ணெய் விடும் துவாரப்
பகுதிகளில் இயந்திரத்திற்காகப்் பயன்படுத்தக் கூடிய
எண்ணெயினை அ஥ிகமாயில்லாதவாறு தேவைக்கேற்ற
அளவு ஊற்றவேண்டும்.</p>

<p>     எண்்ணெய் ஊற்றிய பின்னர் தையல் இயந்திரத்தினை
இயக்குதல்் அவசியமாகும்.</p>

<p>     தையல் இயந்திரத்தில் எண்ணெய் விடவேண்டிய
பாகங்களாவன:</p>

<p>-37-</p>

<p>     1. சுழலும் சக்கரப் பகுதி
     2. காலின் மிதிப் புறங்களிலுள்ள இணைப்புப் பகுதி
     3. பாபின் கேஸின் பகுதி
     4. அழுத்தும் தண்டுப்பகுதி - முதலான பகுதிகள்.</p>

<p>     தையல் இயந்திரத்தின்் தையல் பற்றிய முக்கியக்
குறிப்புகளாவன:</p>

<p>     தையல் இயந்திரத்தின் நூல் விறைப்பு மறையினையும்
தையல் அளவு காட்டியினையும் துணியின் தன்மைக்கேற்ப
மாற்ற வேண்டும்.</p>

<p>     தையல் இயந்்திரத்தின் நூல் விறைப்பு மறையினை
இறுக்கமாகவோ அல்லது தளர்ச்சியாகவோ திருகுதல்
கூடாது. ஏனெனில் நூலின் தன்மைக்கேற்ப சரிப்படுத்~
துதல் அவசியமாகும்.</p>

<p>-38-</p>

<p>           மார்ஶ்டன் லே-அவுட்டுகள்</p>

<p>     உடை வெட்டுதல் துறைக்கு சிக்கன முறையில்
துணியின் மேல்பரப்பில் மார்ஶ்டன் லே-அவுட் முறையில்
காகித மாதிரியைப் பரப்புதல் வேண்டும். மொத்த உடை
உற்பத்தித் தொழிலின் உ஠ை வெட்டும் போது
தயாரித்தல் துறைக்கு வகுத்த முறையினையே
இன்றைக்கும் பின்பற்றி வருகின்றனர்.</p>

<p>     உடையின் அளவுகளைக் கொண்டு காகித மாதிரி
செய்யும்போது உள் பக்க மடிப்புத் துணிகளும், தையல்
வாசிக்கானதும் சேர்ந்து இருக்கவேண்டும். உடையின்
உதிரி பாகங்களையும், பிரதம பாகங்களையும் துணியின்
மீது லே-அவுட் செய்த பின்னர் வெட்டவேண்டும்.</p>

<p>     காகித மாதிரி தயாரிக்க, சுருங்குதல், நீளுதல் தன்மை~
யில்லாத உறுதியான தண்ணீரில் பாழ் அடையாதவாறு
தயாரிக்கப்பட்ட காகிதத்தினால் மட்டும் உ஠ைக்கான
மாதிரியைத் தயாரிக்கவேண்டும்.</p>

<p>     மார்ஶ்டன் லே-அவுட் தயாரித்தலுக்கு உடையின்
அளவுகள், பாகங்கள் முதலியவற்றைப் பற்றித் தெரிந்து
கொண்ட பின்னர் மார்ஶ்஠ன் முறையில் லே-அவுட் செய்ய
வேண்டும். குறிப்பாக ஒரு ஶர்ட்டு உடைக்குத் தேவை~
யான பாகங்கள் (1) பின்பாகம் (ஒன்று) (2) முன்பாகங்கள்
(இரண்டு) (3) கை பாகங்கள் (இரண்டு) (4) யோக் பாகங்~
஖ள் (இரண்டு) (5) கஃப் பாகங்கள் (இரண்டு) (6) காலர்</p>

<p>-39-</p>

<p>பாகங்கள் (இரண்டு) (7) கஃப் உள் பாகங்கள் (இரண்டு)
(8) பாக்கெட் (ஒன்று) (9) கள்ளித் துண்டுகள் (இரண்டு)
(10) ஹேங்கர் (ஒன்று) (சர்ட்டு உ஠ையினைக் கொக்கியில்
உள்பக்கக் கழுத்துப் பட்டியில் அமைக்கவேண்டும்)</p>

<p>     முதலில் துணியின் அகலத்திற்கு ஏற்றவாறு
காகிதத்தில் குறித்து வெட்டவேண்டும். உடைக்குத்
தேவையான துணி அளவினைக் காகிதத்தில் குறித்து
வெட்டவேண்டும்.</p>

<p>     உடைக்குத்் தேவையான பாகங்களை வெட்ட
வேண்டும்.</p>

<p>     துணியின் மேற்பரப்பில் காகித மாதிரியில் தயாரித்த
பாகங்களைப் பிணைப்பு முறையில் துணியை சிக்கனமாகக்
கையாண்டு வெட்டவேண்டும். நீளவாட்டு பாகங்களை
துணியின் நீளப்பகுதியிலும், குறுக்கு வாட்டுப் பாகங்களை
குறுக்குப் பகுதியிலும் வெட்டவேண்டும்.</p>

<p>     உடையின் சம நிலை மாறாமல் இருக்க அடையாளக்
குறியீடுகளைக் காகித மாதிரியில் வெட்டவேண்டும்.</p>

<p>     காகித மாதிரியினைத் துணியின் மேற்பரப்பில்
அமைக்கும்போது துணியானது சுருக்கமோ மடிப்புகளோ
விழாமல் படிமானமாக மேசையின் மீது சரிவர விரித்து
இருக்஼கவேண்டும்.</p>

<p>     வர்ணக்கட்டியின் உதவியால் காகித மாதிரி வடிவத்~
தினை துணியின் மேற்பரப்பில்் வரைய வேண்டும்.
இவ்வாறு செய்த பிறகு வெட்டுதல் அவசியமாகும்.</p>

<p>-40-</p>

<p>        பெண்களின் உ஠ல் கூற்றிலக்கணமும்,
           உருவ அமைப்பு முறைகளும்</p>

<p>     பெண்களின் உ஠ற் கூற்று இலக்கணமானது ஆணின்
உ஠ற் கூற்று அடிப்படையினைக் கொண்டு ஆரம்ப வயதில்
இருக்கும். இங்கு ஆணின் உ஠ற் கூறு அடிப்படை என்பது
எலும்பு மண்டலம், தசை மண்டலம், மனித உருவ பாகங்~
களான தலை, உ஠ல், கைகள், கால்கள் முதலானவற்~
றினைக் குறிப்பதாகும். பருவமடைந்த காலத்திலிருந்து
உ஠லமைப்பில் பல மாறுதல்கள் தசை மண்டலத்தில் சதை
பெருக்கத்தினால் மார்பு, புட்டம் முதலிய பகுதிகளில்
வளர்ச்சியுடன் கூடிய பெருக்கம் ஏற்படுகிறது.</p>

<p>     பருவமடைந்த பின்னர் பெண்்ணின் உ஠ல் வளர்ச்சியில்
பல மாறுதல்கள் ஏற்படுகின்றன. பருவமடையும் காலம்
என்பது சராசரியாக 13 வயது முதல் 16 வயதிற்குள்
ஏற்படுகின்றது. இந்த வயதிற்குட்பட்ட வயது வரையில்
உ஠ல் வளர்ச்சியானது ஆணின் உ஠ல் வளர்ச்சியினைப்
போன்று இருக்கும். எனினும் சில பெண்களுக்கு உ஠~
லமைப்பு தமது மூத்த குடியினரை ஒத்திட்டிருக்கும். உதா~
ரணமாக சதைப்பற்றுக் குறைந்்த பெற்றோர்களின் உ஠ல~
மைப்புக் காரணமாக உ஠ல் அமைப்பு மாற்றமின்றியும்,
சதைப்பற்று மிகுந்த வளர்ச்்சியுடைய பெற்றோர்களின்
உ஠லமைப்பினையே ஒத்திட்டு இருக்கும். தவிர உ஠ல்
வளர்ச்சிக்குக் காரணம் விஞ்ஞான ரீதியினைப் பார்க்கும்
போது உ஠லினுள் சுரக்கும் ஹார்மோன்களின் தன்மை~
யினையே அடிப்படையாகக் கொண்டு உ஠ல் வளர்ச்சி
பெறுகின்றது.</p>

<p>-41-</p>

<p>     பருவமடைந்த காலத்஼திற்குப் பின்னர் பெண்ணின்
உ஠லமைப்பு வளர்ச்்சி விகித சம அளவிற்குட்பட்ட~
தாகவும் இவ்வித உருவத்திற்கு உ஠லோடு முறையாக
உ஠ை பொருந்தியிருக்கும் விதத்தில் வெட்டுவதற்கும்
தைப்பதற்கும் முதலில் தெரிந்திருக்க வேண்டும் என்பதே
உ஠ை வெட்டுதலின் அடிப்படைக் கருத்தாகும்.
பெண்ணின் உடலமைப்பானது உ௟ரம் 5 அடி (அ) 150
செ.மீ. மேல் மார்புச் சுற்றளவு 34 அங் (அ) 85
செ.மீ. நடு மார்புச் சுற்றளவு 36 அங்் (அ) 90 செ.மீ.
அடி மார்புச்் சுற்றளவு 34 அங் (அ) (85) செ.மீ. இ஠ுப்புச்
சுற்றளவு 28 அங் (அ) 70 செ.மீ. புட்டச் சுற்றளவு 38 அங்</p>

<p>-42-</p>

<p>(அ) 95 செ.மீ. என்றிருக்க வேண்டுமென்பதும் இத்தகைய
உருவமே விகித சம உருவம் எனப்படுவதாகும். வயதில்
மாற்றங்களுக்கேற்ப உருவ வளர்ச்சி மாறுதல்களை
அடைகிறது என்பதை படத்தில் உள்ள விளக்கப்படி
உயரத்திலும், குறுக்குப் பகுதியிலும் மாற்றங்்கள் ஏற்பட
வாய்ப்பு உள்ளது.</p>

<p>     மனித உ஠ற்கூற்றின் முறையில் பெண்ணின்
உ஠லமைப்பானது மார்புப் பகுதியில் நான்குவித அமைப்~
பினில் ஒன்றினைப் பெற்றிருக்கும். மார்பு அமைப்பு~
களாவன:</p>

<p>     1. தட்டையான மார்பு
     2. வளர்ச்சியுறும் மார்பு
     3. வளர்ச்்சி நிலை மார்பு
     4. வளர்ச்சி பெற்ற மார்பு
என்று பிரிக்கப்படுகின்றன.</p>

<p>     பெண்ணின் உ஠லமைப்பில் புட்டத்தின் அமைப்பு
முறையானது மூவகைப்படுத்தப்படுகின்றன. இவை
இடுப்பு, புட்டம் அளவுகளின் வித்தியாசத்தின் மூலமாக
பிரிக்கப்படுகின்றன. பெண்ணின் இ஠ுப்பு, புட்டம் சுற்றள~
வின் வித்தியாசம் 10 அங் (அ) 25 செ.மீ. இருப்பின் நிலை~
யான புட்ட அமைப்பு என்றும், இ஥ற்குக் குறைந்திருப்பின்
தட்டையான அமைப்்பாகவும், அதிகமிருப்பின் பெருத்த
அமைப்பு என்றும் பிரிக்கப்படுகின்றது.</p>

<p>     பெண்ணின் உருவ அமைப்பில் நிலையான உருவம்,
குனிந்த உருவம், நிமிர்ந்த உருவம் என்று மூவகை உருவங்~
களே ஆராய்ச்சி மூலமாகவும், உ஠லமைப்பினை உற்று
நோக்குதல் மூலமாகவும் தெரிய வருகிறது.</p>

<p>-43-</p>

<p>    ஆண், பெண் உருவங்களின் வேறுபாடுகள்</p>

<p>     ஆணின் உருவத்தில் வளர்ச்சியினால் ஏற்படும்
மாற்றத்தைவிட பெண்ணின் உருவத்தில் வளர்ச்சியினால்
ஏற்படும் மாற்றங்களைப் பார்க்கும்போது பெண்ணின்
உ஠ல் வளர்ச்சியானது எலும்பு வளர்ச்சி, தசை பெருக்க஼
நிலை, மார்பு, அடிவயிறு, புட்ட பாகங்களில் ஏற்படும்
வளர்ச்சி மாற்றங்கள் அ஥ிகமாகும். பொதுவாக இவ்விரு
உடலமைப்பின் பாகுபாடு பின்வருமாறு விளக்கப்~
பட்டிருப்பதைக் கவனித்து வித்தியாசங்களைத் தெரிந்து
கொள்ளலாம்.</p>

<p>     அ. ஆண், பெண் இருவரின் நிற்கும் நிலை உயரம்
	 ஒரே சீராக இருப்பினும் உ஠்கார்ந்த நிலையில்
	 ஆணின் உயரத்தைவிட பெண்ணின் உயரம்
	 சுமார் 3 அங்குலம் (அ) 7.5 செ.மீ. முதல்
	 4 அங்குலம் (10 செ.மீ.) வரையில் குறைவாக
	 இருக்கும்.</p>

<p>     ஆ. உ஠ற்கூற்றிலக்கண விதிமுறையில் உ஠ல் நீளம்
	 (தலையுடன் சேர்ந்து) மற்றும்் காலின் நீளம்
	 எட்டுதலை கொள்கையின்படி இரு சம பங்~
	 காகவும் ஆனால் பெண்ணின் உ஠ல்் பாக நீளம்</p>

<p>-44-</p>

<p>	 4 1/4; கால் நீளம் 3 3/4 பாகமாக சேர்ந்து உயரத்~
	 தினைப் பெற்றிருக்கிறது.</p>

<p>     குறிப்பு: பெண்ணின் உ஠லமைப்பில் காலின் பகுதி
குறைந்தும் உடல் பகுதி நீளமாக இருப்பதை ஆணின்
உயரத்தினை ஒப்பிட்டுப் பார்க்கும்்போது புரிகிறது.</p>

<p>     இ. பெண்ணின் உ஠லமைப்பில் அடிவயிறு பாகம்
	 அகன்றதாகவும் ஆணின் உருவத்்திலிருந்தும்
	 மாறுபடுகிறது.</p>

<p>     ஈ. பெண்ணின் உடலமைப்பில் தோள்பட்டை
	 அகலம் குறைவாக அமைந்திருக்கிறது.</p>

<p>     உ. பெண்ணின் உடலமைப்பில் இடுப்பு பாகம் குறுகி~
	 யும் புட்டப் பாகம் பெருத்தும், தொடை
	 சுற்றளவு பெருத்தும் அமைந்திருக்கிறது.</p>

<p>     ஊ. பெண்ணின் அ஖்குள் இறக்கமானது. ஆணின்
	 அக்குள் இறக்க நீளத்தைவிடக் குறைந்திருக்~
	 கிறது.</p>

<p>     எ. பெண்ணின் கழுத்துப் பகுதி நீளமாகவும், தோள்~
	 பட்டை சாய்வின்றி நிமிர்ந்த அமைப்பினைப்
	 பெற்றிருக்கிறது.</p>

<p>     ஏ. பெண்ணின் மார்புப் பகுதியானது வளர்ச்சி~
	 யடைந்து மேல் மார்பின் சுற்றளவிலிருந்து நடு
	 மார்புப்பகுதியின் சுற்றளவு 3 அங் (அ) 7.5 செ.மீ.
	 வரை அ஥ிகமாகவும் அமைந்திருக்கிறது.
	 ஏனெனில் இப்பகுதியினுள் பால் சுரக்கும்
	 பைகளின் உள் வளர்ச்சியினால் இந்த அமைப்பு
	 ஏற்படுகிறது.</p>

<p>-45-</p>

<p>     ஐ. பெண்ணின் இ஠ுப்பு, புட்டம் இவற்றின் வித்தி~
	 யாசங்கள் 10 அங் (அ) 25 செ.மீ. முதல் 12 அங்
	 (அ) 30 செ.மீ. வரையில் அமைந்து இருக்~
	 கும். ஆனால் ஆணின் உருவத்தில் இவற்றின்
	 வித்தியாசம் 6 அங் (அ) 15 செ.மீ. முதல்
	 8 அங் (அ) 20 செ.மீ. வரையில் இருக்க஼ும்.</p>

<p>     மேற்குறிப்பிட்ட நிலைகளிலிருந்து பெண்ணின்
உருவக் கூறானது ஆணின் உருவக் கூறிலிருந்து மாறுபடு~
கின்றது என்பது தெளிவாகப் புலனாகின்றது.</p>

<p>-46-</p>

<p>             பெண்களின் உடைக்கு
           அளவெடுத்தல் முறைகள்</p>

<p>     பெண்ணின் மார்பு உ஠ையான சோளி, ப்ளவுஸ்
உ஠ைகளுக்குத் தேவையான அளவுகள் பின்வருமாறு:</p>

<p>     1. இயற்கை இ஠ுப்பு நீளம் 2. தோள்பாதி நீளம்
3. கை நீளம் 4. முன்னங்கைச் சுற்றளவு 5. நடு மார்பு
நீளம் (பின்பக்கவாட்டிலிருந்து ஸ்தனக் குறி வரை)
6. அடி மார்பு நீளம் (கழுத்தின் பக்கவாட்டிலிருந்து
ஸ்தனத்தின் அடிப்பாகம் வரை) 7. முன் பாக நீளம்
(கழுத்தின் பக்கவாட்டிலிருந்து முழு நீள அளவு
தேவைக்கேற்றபடி) 8. மேல் மார்புச் சுற்றளவு 9. நடு
மார்புச் சுற்றளவு 10. அடி மார்புச் சுற்றளவு 11. இடுப்புச்
சுற்றளவு முதலிய அளவுகள்் தேவைப்படுகின்றன.</p>

<p>     பெண்களின் மார்பு உடைகளான மேக்ஸி உடைக்்குத்
தேவையான அளவுகள்் பின்வருமாறு:</p>

<p>     1. இயற்கையான இ஠ுப்்பு நீளம் 2. தோள்பட்டை
1/2 பாக நீளம் 3. கை நீளம்் 4. முன்னங்கைச் சுற்றளவு
5. மேல் மார்புச் சுற்றளவு 6. நடு மார்புச் சுற்றளவு
7. அடி மார்புச் சுற்றளவு 8. இ஠ுப்புச் சுற்றளவு
9. புட்டச் சுற்றளவு 10. உ஠ையின் பின் பாக நீளம்்
11. உடையின் முன் பாக நீளம் முதலிய அளவுகள்
அவசியப்படுகின்றன.</p>

<p>-47-</p>

<p>       உ஠ை வெட்டும்போது கவனிக்க
           வேண்டிய விதிமுறைகள்</p>

<p>     வாடிக்கையாளரின் உ஠ல் அளவுகளைக் கொண்டு
உடை வரிவடிவம் செய்யும்போது (வெட்டும் முன்னர்)
கவனிக்்க வேண்டிய விதிமுறைகளாவன:</p>

<p>     1. உடைக்குத் தேவையான அளவு துணி இருக்~
கிறதா என்பதை சரிபார்த்தல் வேண்டும். (உடை
வெட்டும் முன்னர் வாடிக்கையாளருக்குத்் தைத்துக்
கொடுக்கவேண்டிய உ஠ையின் பிரதம, உதிரி) பாகங்~
களை வெட்டுவதற்குப் போதிய அளவு துணி இருப்பதைக்
கவனித்தல் வேண்டும். துணி தண்ணீரில் சுருங்கக் கூடி~
யதா, இல்லையா என்பதைக் கவனித்து துணியினை
தண்ணீரில் நனைத்து எ஠ுத்தல் அவசியமாகும்.</p>

<p>     துணியின் மேற்பரப்பில் இஸ்திரி செய்த பின்னர்
உ஠ைமீது வரிவடிவம் செய்யவேண்டும்.</p>

<p>     துணியின் மீது வரிவடிவக் கோடுகளுக்காகப் பயன்~
படுத்தப்படும் வர்ணக் கட்டியினைக் கூராகவும் கோடு~
களையும் வளைவுகளையும் சரிவரச் செய்தல் வேண்டும்.
குறிப்பாக வெள்ளை நிறம், மஞ்சள் நிறம் வர்ணக் கட்டி~
களை மெல்லிய துணி வகைகளுக்கும், கருப்பு, நீலம்,
பழுப்பு நிற வர்ணக் கட்டிகளை கடின வகை (டிரௌசர்
கோட்டு உ஠ைக்கேற்றத் துணி) துணியின் மேற்பரப்பில்்
பயன்படுத்த வேண்டும்.</p>

<p>-48-</p>

<p>     துணியின் உ஠்பாகம், வெளிப்பாகம் இவற்றினைத்
தெரிந்தபின்னர் உ஠ை வெட்டுதல் வேண்டும். உ஠ை
வரி வடிவம் செய்யும்போது துணியின் உ஠்பாகத்தில் வரி
வடிவக் கோடுகளையும் வளைவுகளையும் அமைக்க
வேண்டும்். உடைக்குத் தேவையான பிரதம பாகங்களை
வெட்டிய பிறகு உதிரி பாகங்களை வெட்ட வேண்டும்.
துணியின்் அளவு குறைந்திருப்பின் காகிதத்தினால்
மாதிரி வடிவம் செய்துகொண்டு துணியின்்மீது பரப்பி
வெட்ட வேண்டும்.</p>

<p>     உடைக்குத் தேவையான பகுதிகளில் உடைக்குத்
தளர்ச்சியை செய்ய ஏற்றவகையில் உள்ளமைப்புத் துணி
அவசியம் வைத்து வெட்ட வேண்டும்.</p>

<p>     உ஠ை வெட்டும்போது மேசையின்மீது துணியைப்
பரப்பி வடிவக்கோடுகளை வரையும்போதும், வெட்டும்்
போதும் வலது பக்கத்திலிருந்து துவங்கி இடது பக்கத்தில்
முடிக்க வேண்டும்.</p>

<p>     உடை வெட்டிய பின்னர் - உடைக்குத் தேவையான
பாகங்களை வெட்டிய பின்னர் - சரிபார்த்துக் கொள்ள
வேண்டும்.</p>

<p>     தற்போது நவீன கால மாறுதல்களுக்கேற்ப எல்லா
வித உ஠ைகளிலும் எ஥்தனையோ நவீன மாற்றங்கள்
ஏற்படுவதை மன஥ில் நிறுத்தி வாடிக்கையாளரின் விருப்~
பத்திற்கேற்ப உடையின் தளர்ச்சி அதிகமாயில்லாமல்
மற்றும் இறுக்க நிலையில் இருக்காதபடி உ஠ைவெட்டுதல்
அவசியமாகும்.</p>

<p>-49-</p>

<p>                தையற்கலை வரலாறு</p>

<p>     தையற்கலை வரலாற்றிற்கு ஆ஠ை தோன்றிய காலத்~
திற்குப் பின்னரே தையற்கலை தொடங்கியிருக்க முடியும்
என்றாலும் வரலாற்றுக் காலத்திற்கு முன்பாக, குறிப்பாக
எண்பதாயிரம் ஆண்டுகளுக்கு முன் காடுகளிலுள்ள குகை~
஖ளில் வாழ்ந்து வந்த காலத்தில் மீன் முள்ளினைத்் துவாரம்
செய்து, இறந்த பிராணிகளின் நரம்புகளைக் கொண்டு
மிருகங்களின் தோல்களைத் தைப்பதற்குத் தெரிந்திருந்~
தமையால் தையற்கலை வரலாற்றின் தொடக்க நிலை~
யைத் தெரிந்து கொள்ளமுடிகிறது. மேலும், தையல்
என்ற சொல் பெண்ணைக் குறிக்கும் சொல்லாகும்.
எனவே குகையில் வாழ்்ந்த காலத்தில் பெண் ஒருத்தியால்
கண்டு பிடிக்கப்பட்ட இத் தொழிலுக்குத் தையல் தொழில்
என்ற பெயர் வழங்கலாயிற்று.</p>

<p>     மனித இனத்தின் நாகரிகம் வளரத் தொடங்கி முன்~
னேற்றமடைகின்ற காலத்தில் யானைத் தந்தம், மரம்,
மீன் முள் முதலான பொருட்களில் ஊசிகளைத் தயாரித்து
உபயோகிக்கும் முறைகளையும் கண்டறிந்தனர். கி.மு.
5000 ஆண்டுகளுக்கு முன்பாக பாபிலோனியர்கள்
உலோகப் பொருட்களான தங்கம், வெள்ளி, செம்்பு
முதலியவற்றால்் ஊசிகளைச் செய்தும் பயன்படுத்~
தினார்கள்.</p>

<p>     தையற் தொழிலுக்்குத் தேவையான ஊசிகளை
உலோகத்தினால் நல்ல முறையில் உருவாக்கிய புகழ்</p>

<p>-50-</p>

<p>எகிப்தியர்களையே சார்ந்ததாகும். பின்னர் கி.பி.
1370-ம் ஆண்டிற்குப் பின்னர் சீனர்கள் எஃகினால் ஊசிகள்
செய்யும் முறையினைக் கண்டறிந்தன஼ர்.</p>

<p>     கற்காலத்து மனி஥ன் தன் உ஠லைக் கடுங் குளிரி~
லிருந்தும் வெப்பத்திலிருந்தும் பாதுகாத்துக் கொள்வதற்~
காக இறந்த வனவிலங்குகளின் தோல்களை ஆடையாகப்
போர்த்தியிருந்தனர். ஆனால், மாறுதல்களுக்கேற்ப
மனிதனின் தேவைகளைப் பூர்த்தி செய்து கொள்வதற்~
காக நெசவு செய்வதற்குத் தேவைப்படுகின்ற தறி, நூற்~
கதிர்கள், பஞ்சு முதலானவற்றைக் கண்டறிந்து
உபயோகிக்கக் கற்றுக் கொண்டனர்.</p>

<p>தையலின் பொதுவான பயன்கள் பின்வருமாறு:</p>

<p>     துணியின் வெட்டிய பாகங்஖ளை இணைக்்கவும்,
உ஠ையாக உருவாக்கவும் தையல் அடிப்படைத் தேவை~
யாக விளங்குகிறது. உடையின் முக்கிய பாகங்களில்
உறுதியைக் கொடுக்கவும், உடையினை அலங்கரிக்கவும்,
துணியில் கிழிந்த பாகத்தைச் சரி செய்யவும், உடைக்குத்
தேவைப்படும் வடிவ அமைப்பினை ஏற்படுத்தவும் தையல்
அவசியப்படுகின்றது.</p>

<p>கைத் தையலின் முக்கிய பிரிவுகளும், அவற்றின் வேறுபாடு~
களும் பின்வருமாறு:</p>

<p>     கைத் தையலின் பிரிவுகள் இரண்டாகும். அவை~
களாவன: (1) ஒட்டுத் தையல், (2) கெட்டித்தையல்
என்பனவாகும்.</p>

<p>ஒட்டுத் தையலுக்கும், கெட்டித் தையலுக்கும்் உள்ள
வேறுபாடுகள்:</p>

<p>       ஒட்டுத் தையல்                கெட்டித் தையல்</p>

<p>1. நூலின் முனையில் முடி~       தைக்கத் தொடங்கும்
   யிட்ட பிறகு தைக்க             போது நூலின் முனையில்
   வேண்டும்.                       முடி அவசியமில்லை.</p>

<p>-51-</p>

<p>2. தைத்து முடிக்கும்              தைத்து முடிக்கும்போது
   போது சிறிதளவு                  அடிப்புறத்தில் உறுதியா~
   நூலை விட்டு முடிக்க           கத் தைக்க வேண்டும்.
   வேண்டும்.</p>

<p>3. தையல் அளவு பெரி~              தையல் அளவு சிறியதாக~
   தாக இருக்கவேண்~               வும் அழகாகவும் இருக்க
   டும்.                           வேண்டும்.</p>

<p>4. இந்த வகைத் தையல்             தையல் உறுதியாகவும்
   உறுதியில்லாததும் தற்~         நிரந்்தரத் தையலாகவும்
   காலிகமானதுமாகும்.              இருக்கும்.</p>

<p>5. தைக்கப்பட்ட பிறகு              தைக்கப்பட்ட பிற஖ு தைய~
   தையலை எளிதில்                 லைப் பிரிக்க முடியாது.
   பிரிக்க முடியும்.              (அல்லது) தையல் உறுதி~
                                    யானது.</p>

<p>6. தைக்கும் நேரம்                 தைக்கும் நேரம் அ஥ிகம்.
   குறைவு.</p>

<p>கைத் தையலுக்கும், இயந்திரத் தையலுக்கும் உள்ள
வேறுபாடுகள்:</p>

<p>     கைத் தையல்                      இயந்திரத் தையல்</p>

<p>1. கைத் தையலுக்கு ஒரே           இயந்திரத் தையலுக்கு
   நூல் அவசியம்.                  மேல் புறம், கீழ்ப்புறம்
                                    நூல்கள் அவசியம்.</p>

<p>2. இவ்வகைத் தையலுக்கு            குறைந்த நேரம் போது~
   அதிக நேரம் தேவை.              மானது.</p>

<p>3. தைக்கப் பயன்படும்             நூலின் அளவு அதிகம்.
   நூலின் அளவு குறைவு.</p>

<p>4. தைத்த பின்னர்                தைத்த பின்னர் தையலை
   தையலைப் பிரிப்பது கடி~        எளிதில் பிரிக்கலாம்.
   னம்.</p>

<p>-52-</p>

<p>5. தையல் நீடித்து உழைக்~       தையல் நீடித்து உழைக்~
   கக் கூடியது.                   கக் கூடியதல்ல.</p>

<p>6. தையலின் மேற்புறத்தில்்        தையலின் அமைப்பு மேல்
   அழகாக இருக்கும்.             புறம், கீழ்ப்புறத்தில் அழ~
				    காகவும் சீராகவும் இருக்~
				    கும்.</p>

<p>ஆடை தோன்றிய வரலாறு</p>

<p>     ஆடை வரலாற்றினை அறிய வேண்டுமானால் நியான்~
ட஼ர்தால் மனிதனையே சான்றாக எ஠ுத்துக்கொள்ள
வேண்டும். ஏனெனில் மனித இன வர்க்கத்தின் முதல்
மனி஥னே நியாண்டர்தால் மனிதன் எனப்படுவான்.
டுரோ மக்னான் காலத்தில் பிரான்சில் காவிலான் என்ற
குகையில் கிடைத்த ஒரு எலும்புக்கூட்டின் அருகில் ஒரு
கொண்டை ஊசி, சிறு கச்சைகளுடன் கூடிய ஊ஛ி கிடைத்த~
தாலும், கி.மு. 8000 ஆண்டில் எகிப்திய விவசாயிகள்
சணல் இழைகளைத் தயாரித்ததாலும், கிறிஸ்துவுக்கு
4000 ஆண்டுகளுக்கு முன்னரே சணல் ஆ஠ைகள் எகிப்து
தேசத்தில்் மலிந்திருந்தன எனலாம். இ஥ே காலத்தில்
ஐரோப்பாவின் ஏரிப் பகுதி மக்கள் ஆட்டின் உரோமத்தை
வெட்டி அ஥ிலிருந்து கம்்பளி ஆ஠ைகளை நெய்தனர்.
முதலான சான்றுகளைத் துணையாகக் கொண்டு ஆடை
வரலாறு பற்றிய காலம் தெரிய வருகிற஥ு.</p>

<p>     இந்தியாவில் சிந்து சமவெளி நாகரிகத்தில் காணப்~
படும் பருத்தியிழைகளே இந்தியரின் ஆடைபற்றி விளக்கும்
காலமாகும். கி.மு. 2303 அளவில் சிந்துவெளி வணிகர்~
களின் வெளிநாட்டு வணிகப் பொருட்களில் பருத்தி
ஆடையும் ஒன்று என சுமேரியன் கையெழுத்்துப் படிகள்
விளக்குகின்றன. மொகஞ்சதாரோவில் கண்டெடுக்~
கப்பட்ட பல நூற்கதிர்஼த் திருகிகள் இந்த மக்க஼ள் யாவரும்
நூற்கும் தொழிலினை மேற்கொண்டிருந்ததற்குத்~
தக்க சான்றாகும்.</p>

<p>-53-</p>

<p>    ஆடையின்் முக்கியத்துவத்தை உணர்ந்த காலத்தில்
இருந்து மனித இனத்தவர்கள் யாவரும் ஆ஠ை அணியத்
தொடங்கினர் என்பதை வரலாறு விளக்குகின்றது. ஆடை~
யின் அமைப்பு நாட்டிற்கு நாடு, மக்களுக்கு மக்கள் மாறு~
பட்டாலும் ஆடை என்பது முக்கியத்துவம் வாய்ந்ததாக,
உணவு, உடை, இருப்பிடம் என்ற மூன்று அடிப்படைத்
தேவைகளில் இரண்டாமிடத்தை நிரப்புகிறது.</p>

<p>ஆடை அணிவதன் காரணம்</p>

<p>     ஆடையின் தோற்றத்துக்கு "அழகு படுத்துதல்"
என்பது பொருளாகும். மர இலை, தழைகளையும்
தோலினையும் ஆடையாக அணியத் தொடங்கிய நிலையில்
ஆடையின் முக்கியத்துவம் பற்றி மனிதன் உணரத்
தொடங்கி விட்டான் என்பதை அறிய முடிகிற஥ு.
ஆக்லெஸ் ஆலன் உடையின் தோற்றம் சூழ்நிலையைப்
பொறுத்துப் பல படியாகத் தோன்றி இருக்க வேண்டும்
என்று கருதுகிறார். தட்ப வெப்பநிலை காரணமாக
ஆடையை மனி஥ன் அணியத் தொடங்கினான் என்றும்
கூறலாம்.  மனிதனை வன விலங்குகளிடமிருந்தும் வேறு~
படுத்திக் காட்டுவதற்கு ஆடை தோன்றியிருக்கலாம்
என்பதும் ஆராய்ச்சியாளரின் கருத்தாகும்.</p>

<p>     மேரியட்டாகெட்டுனென் என்பவர் தட்பவெப்ப
நிலையை விடவும், பொருட்களை அணிந்து கொள்வதில்
உள்ள ஆர்வமே உடையின் தோற்றம் என விளக்குகிறார்.
எஸ்.என். தார் ஆடையின் தோற்றம் தட்பவெப்பம்
கருதியதில்லை என்றும் விளக்குகிறார். ஆடை அணிவதன்
முக்கியத்துவம் பின்வரும் காரணங்களைப் பின்னணியாகக்
கொண்டிருக்கிறது.</p>

<p>     1. மான உணர்வுக்குத் துணையாதல்.
     2. அழகினை மிகுவித்்தல்.</p>

<p>-54-</p>

<p>     3. தட்பவெப்ப நிலைக்கு ஏற்பப் பாதுகாத்தல்.
     4. தன் தகுதி எ஠ுத்துக் காட்டல்.
     5. கலையுணர்வு மற்றும் நாகரிக வளர்ச்்சி காரண~
மாகவும் ஆடை அணியப்படுகின்றது.</p>

<p>     கால மாறுதல்களுக்கேற்ப, உ஠ையின் மூலப்
பொருளான நூலிழைகள் பருத்தி, பட்டு, கம்பளம்,
செயற்கை நார்ப் பட்டு, செயற்கையிழை முதலானவை
யாவும் உ஠ுத்தும் ஥ன்மைக்கு ஏற்பவும் கால நிலை
மாறுதல்களுக்கேற்பவும் மாறுபட்டு வருகிறது.</p>

<p>-55-</p>

<p>           தையற்கலை உபகரணங்கள்</p>

<p>     தையற்கலைக் கருவிகள் பற்றி இ஫் பாடத்தில்
தெளிவாக விளக்கப்படுகிறது. தையற் தொழிலைக்
கற்க விரும்பும் மாணவர்களும், தையற்கலையில்்
ஈடுபட்டுள்ளவர்களும் தையற்கலைக் கருவிகளைப் பற்றித்
தெரிந்து வைத்து நடைமுறையில் தொழிலைச் செய்யும்
போது பயன்படுத்த வேண்டும்.</p>

<p>	 1. இஸ்திரிப் பெட்டி
	 2. இஸ்திரிப் பலகை
	 3. பிரஶ்
	 4. அளவு கோல்
	 5. அங்குல நாடா
	 6. டெய்லரிங் ஸ்கொயர்
	 7. கத்தரிக்கோல்
	 8. பல் கத்தரிக் கோல்
	 9. ஊசி குத்தி வைக்கும் பஞ்சு
	10. பிரெஞ்சு வளைவு
	11. ஊ஛ிகள்
	12. கைவிரல் மேலுறை (அங்குஸ்தான்)
	13. சிறிய படங்கள் வரைவதற்கான அளவு
	    கோல்</p>

<p>-56-</p>

<p>	14. வர்ணக் கட்டி
	15. பென்சில்
	16. ரப்பர்</p>

<p>1. இஸ்திரிப் பெட்டி</p>

<p>     உடைகளுக்குப் பெட்டியிடுதல் முறைக்கு "இஸ்திரி
போடுதல்" என்று பெயர். துணியின் சுருக்கங்களை
நீக்குவதற்கும் உடையின்் அமைப்பிற்கேற்ப வடிவம்
மாறாமல் இருக்கச் செய்யவும் இ஥ு அவசியம். இஸ்திரிப்
பெட்டியானது கரிப் பெட்டி மின்சாரப்் பெட்டி என்று
இருவகைப்படும்.</p>

<p>2. இஸ்திரிப் பலகை</p>

<p>     இஸ்திரி போடுவதற்கு இஸ்திரிப் பலகை அவசிய~
மாகும். கோட்டு உ஠ையின் கை அமைப்பு, டிரௌசர்
உ஠ையின் புட்டணக் கோண அமைப்பு (பின்பாகம்),
அடிங்கால்் பகுதிகளை இஸ்திரி செய்வதற்காக இ஥ு
பயன் படுத்தப் படுகிறது.</p>

<p>3. பிரஶ்</p>

<p>     தையற்கலை உடை வரிவடிவம் செய்யும்போது
தேவையற்ற வர்ணக் கட்டியினால் இழுக்கப்படும் கோடு~
களை அழிக்கவும், உல்லன் போன்ற துணிகளின் மேற்~
பரப்பில் தூசி படிந்்து விடாமல் செய்யவும் பிரஶ் அவசியம்
தேவைப்படுகிற஥ு.</p>

<p>4. அளவுகோல்</p>

<p>     நேர் வரிசைக் கோடுகளைக் கணக்கின்படி குறித்து
இழுப்பதற்காகப் பயன்படுத்தப்படுகின்றது. சென்டி
மீட்டர், அங்குலம் அளவுகள் பொறிக்கப்பட்டிருக்கும்.</p>

<p>5. அங்குல நாடா</p>

<p>     உடைகளுக்குத் தேவைப்படும் அளவுகளை நேரிடை~
யாக மனித உடலமைப்பில் இருந்து அளவெடுக்கப் பயன்~
படுத்தப்படுகின்றது. நேர் வரிசை, குறுக்கு வரிசை அளவுகளை</p>

<p>-57-</p>

<p>அங்குல நாடாவின் உதவியால் அளவெடுக்க
வேண்்டும்.</p>

<p>6. டெய்லரிங் ஸ்கொயர்</p>

<p>     உடைக்கான வரிவடிவம் செய்யும்போது நேர்
வரிசைக் கோடுகளின் அமைப்பு மாறாமல் இருக்கவும்,
அளவுகளைப் பங்கீடு செய்்து இருப்பதால் உ஠ையின்
பாகங்களை அளவிற்கேற்ற஫டி பங்கீடு செய்வதற்கு இ஥ு
பயன் படுத்தப்படுகின்றது.</p>

<p>7. கத்தரிக்கோல்</p>

<p>     உ஠ையினை வெட்டுவதற்காகக் கத்தரிக்கோல் பயன்
படுத்தப்படுகின்றது. இ஥ன் வகைகளில் பல உள்ளன.
குறிப்பாக மாஸ்டர் சிஸர் என்பது 12 அங்குல நீளமும்,
பிற சிறிய அளவு கத்தரிக்கோல் 10 அங்குலம் முதல் 8
அங்குலம் வரையில் இருக்கும்.</p>

<p>8. பல் கத்தரிக்கோல்</p>

<p>     உடையின் உள்பகுதியின் ஓரப்பகுதிகளை அலங்கார
அமைப்பிற்காக வெட்டவும், துணியின் ஓரப் பகுதியின்
நெசவு நூல்கள் வெளிவராமலிருக்கவும் பல் கத்தரிக்~
கோலின் உதவியால் கத்தரிக்கவேண்டும்.</p>

<p>9. ஊசி குத்திவைக்கும் பஞ்சு</p>

<p>     துணியின் இரு பக்கக்கரை ஓரப்பகுதிகளில் குண்டூசி~
யினால் குத்தவும், குண்டூசியின் முனைப்பகுதி மழுங்~
காமலும், துருப்பிடிக்காமலும்் இருக்க ஊசி குத்தி
வைக்கும் பஞ்சு பயன்படுத்தப்படுகிறது. கை ஊசியினையும்
குத்தி வைக்கலாம்.</p>

<p>10. பிரெஞ்சு வளைவு</p>

<p>     உடையின் வரிவடிவங்களைச் சிறிய அளவில் வரையும்
போது உடையின் அமைப்பிற்கு ஏற்ற வடிவங்களை வரைய
பிரெஞ்சு வளைவு ப௟ன்படுத்தப்படுகிறது. குறிப்பாக
அக்குள் இறக்க கை வளைவு, கவடு இறக்க வளைவு
முதலியவற்றினை வரையலாம்.</p>

<p>-58-</p>

<p>11. ஊசிகள்</p>

<p>     ஊ஛ிகளின் வகைகள் இரண்டு. அவை: (1) கை ஊசி
(2) மெஶின் ஊசி எனப்~
படும். கை ஊசியால் கைத் தையல் வகையினைச் செய்ய~
லாம். மெஶின் ஊசியானது இயந்திரத்தில் பொருத்தக்~
கூடிய அமைப்பில் மேல் பாகம் தட்டையான
அமைப்பினைப் பெற்றிருக்கின்றது.</p>

<p>12. கைவிரல் உறை (அங்குஸ்தான்)</p>

<p>      கை ஊ஛ியினால் தைக்கும்போது ஊசியின் அடிப்புறத்~
தினை முன் நோக்கி உந்தித் தள்ளுவதற்காக கை விரலில்
அணியப்படுகின்றது.</p>

<p>13. ஛ிறிய படங்கள் வரைவதற்கான அளவுகோல்</p>

<p>     உடையின் அளவினை அமைப்பு மாறாமல் சிறிய
அளவில் வரைவதற்காக இவ்வித அளவுகோல் பயன்
படுத்தப்படுகின்றது. குறிப்பாக 1:4, 1:6 அங். என்று சிறிய~
தாக்கிக் குறிக்கப்பட்டிருக்கும்.</p>

<p>14. வர்ணக்கட்டி</p>

<p>     உ஠ையின் வடிவங்களைத் துணியில் அல்லது காகி~
தத்தில் வரைவதற்காக வர்ணக்கட்டி பயன்படுத்தப்~
படுகின்றது. இ஥ு வெள்ளை, நீலம், கருப்பு, சிவப்பு
முதலான நிறங்களில் தயாரித்து விற்பனை செய்யப்~
படுகின்றது.</p>

<p>15. பென்சில்</p>

<p>     உடையின் வரிவடிவங்களை வரைவதற்காக காகித
மாதிரி செய்யும்போது பென்சில் பயன்படுத்தப்~
படுகின்றது.</p>

<p>16. ரப்பர்</p>

<p>     உ஠ையின் வரிவடிவங்களைக் காகிதத்தில் வரையும்
போது தேவையற்ற கோடுகளையும், வடிவ அமைப்புக்~
஖ளையும் திருத்தவும் அழிக்கவும் பயன்படுகின்றது.
     </p>

<p>               0 
</p></body></text></cesDoc>