<cesDoc id="tam-w-socsci-law-hindus" lang="tam">
<cesHeader type="text">
<fileDesc>
<titleStmt>
<h.title>tam-w-socsci-law-hindus.txt</h.title>
<respStmt>
<respType>Electronic file created by</respType>
<respName>Central Institute for Indian Languages, Mysore</respName>
<respType>transferred into Unicode and CES format by</respType>
<respName>"Unicodify" software by Andrew Hardie</respName>
</respStmt></titleStmt>
<publicationStmt>
<distributor>UCREL (on behalf of CIIL)</distributor>
<pubAddress>Department of Linguistics, Lancaster University, Lancaster, LA1 4YT, UK</pubAddress>
<availability region="WORLD"></availability>
<pubDate>03-07-04</pubDate>
</publicationStmt>
<sourceDesc>
<biblStruct>
<monogr>
<h.title>இந்துக்கள் சட்டம் (விளக்கம்)</h.title>
<h.author>வை. சண்முகசுந்தரம்</h.author>
<imprint>
<pubPlace>India</pubPlace>
<publisher>Unknown - Book</publisher>
<pubDate>1987</pubDate>
</imprint>
<idno type="CIIL code">hindus</idno>
</monogr></biblStruct></sourceDesc></fileDesc>
<encodingDesc>
<projectDesc>Text collected for the CIIL Corpus, subsequently integrated into the EMILLE/CIIL Monolingual Written Corpora.</projectDesc>
<samplingDesc>Simple written text only has been transcribed. Diagrams, pictures and tables have been omitted. Sampling begins at page 12.</samplingDesc>
<editorialDecl><conformance level="1"></conformance></editorialDecl>
</encodingDesc>
<profileDesc>
<creation><date>03-07-04</date></creation>
<langUsage>Tamil</langUsage>
<wsdUsage>
<writingSystem id="ISO/IEC 10646">Universal Multiple-Octet Coded Character Set (UCS).</writingSystem>
</wsdUsage>
<textClass>
<channel mode="w">print</channel>
<constitution type="composite"></constitution>
<domain type="public"></domain>
<factuality type="fact"></factuality>
</textClass>
<translations></translations>
</profileDesc>
<revisionDesc></revisionDesc>
</cesHeader>

<text><body>

<p>பக்கம்:3
1)  இந்துச் சட்டத்தின் மூலங்கள்:</p>

<p>ஸ்ருதி:</p>

<p>    ஸ்ருதி இந்துச் சட்டத்தின் முக்கியமான ஆதாரம் என்று
மனு குறிப்பிட்டு இருக்கிறார். ரிக் வேதம், சாம வேதம், யஜூர்
வேதம், அதர்வண வேதம் என்ற நான்கு வேதங்களும்,
6 வேதங்காக்களும், 18 உபநிஶத்துக்களும் ஸ்ருதியின் கண்
அடங்கும்.</p>

<p>     ""ஸ்ருதி"" என்ற சொல்லிற்கு ""கேட்டது"" என்பது
பொருளாகும். ஸ்ருதி தெய்வீகத் தன்மைக் கொண்டதாகக்
கருதப்படுகிறது. ஆண்டவனால் அருளப்பட்டது என ரிஶிகள்
கொடுத்த தெய்஼வமொழிகள் தான் ஸ்மிருதி எனக் கூறலாம்.
இந்துக்களின் சட்டம் இந்தத் தெய்வமொழிகளின் அடிப்~
படையில்தான் முதலில் உருவானது.</p>

<p>ஸ்மிருதி:</p>

<p>     அதனை அடுத்து இந்துச் சட்டத்தின் மூலமாக `ஸ்மிருதி'
அமைகிறது. ரிஶிகள் தாங்களாகவே உலகிற்கு வழ஼ங்கிய
நெறிமுறைகளை ஸ்மிருதி என்பர். ஸ்ருதியைப்போலத்
தெய்வீகத்தன்மைக் கொண்டதாக ஸ்மிருதியைக் கருதுவ~
தில்லை. ஸ்ருதிக்கு அடுத்ததாகவே ஸ்மிருதியைப் போற்றிப்
புகழ்வர் ஆன்றோர்.</p>

<p>     இவற்றிற்கு எழுதப்பட்ட உரைகளே சட்டம் எழ உறு~
துணையாக இருந்தன. உரையாசிரியர்கள் உலகிற்கு வழங்கின
சட்ட நுணுக்கங்கள் இந்துச் சட்டம் தோன்ற உதவின
என்றால் மிகையாகாது. இ஥னை இரண்டாம் ஊன்றுகோல்
எனலாம். ஸ்மிருதி என்ற சொல்லிற்கு `நினைவில் உள்்ளது'
என்பது பொருளாகும். ஸ்மிருதி இருவகைப்படும்.</p>

<p>பக்கம்:4
1) செய்யுள் வடிவில் உள்ளவை 2) உரைநடை வடிவில்
உள்ளவை. செய்யுள் வடிவில் உள்ளனவற்றைத் தர்ம
சாஸ்திரம் என்று அழைப்பதுண்டு. மனு, யாக்னவால்க்யா,
நாரதர், விஶ்ணு, வியாசா, கார்த்தியாயனா, விருஹஸ்பதி,
தேவலா முதலானோர் செய்யுள் வடிவில் ஸ்மிருதியை
உண்டாக்கினார்கள். வசிஶ்டர், பராசரன், கௌதமன்,
அபஸ்தம்பன், பௌதாயனா முதலானோர் உரைநடைவடிவில்
ஸ்மிருதியை உண்டாக்கினார்கள்.</p>

<p>இருகூறு:</p>

<p>     ஸ்மிருதிகளை மேலும் இரு கூறாக்கலாம். 1) முதல்நிலை
ஸ்மிருதி 2) இரண்டாம் நிலை ஸ்மிருதி. முதல்நிலை ஸ்மிருதி
காலத்தால் முற்பட்டது. இரண்டாம் நிலை ஸ்மிருதி காலத்தால்
பிற்பட்டது. முதல் நிலை ஸ்மிருதியை மேலும் இரு பிரிவுகளாக்~
கலாம். 1) சூத்திரங்கள் 2) தர்ம சாஸ்திரங்கள்.</p>

<p>     கௌதமர், போதாயனர், ஆபஸ்தம்பர், வசிஶ்டர்,
விஶ்ணு முதலானோர் இயற்றியவை சூத்திர வடிவில் இருக்கும்.
மனு, நாரதர், யாக்஼ஞவால்கியர் முதலானோர் தர்ம சாஸ்திரங்~
களை இயற்றியவர்கள். மனு ஸ்மிருதிகள் காலத்தால் மிகவும்
முற்பட்டதாகும். மாக்ஸ்முல்லர் என்ற மேதை மனுவின்
ஸ்மிருதி கி.மு. 200ல் தோன்றியிருக்க வேண்டும் என்கிறார்.
புராணங்கள்கூட இந்துச் சட்டம் தோன்ற உறுதுணையாக
இருந்தன என்பர். கோல்புரூக் என்ற மேதை புராணங்களை
ஐந்தாவது வேதம் என்பார்.</p>

<p>நிபந்தாஸ்:</p>

<p>     ஸ்மிருதிகளுக்கு விளக்கம் தந்த உரையாசிரியர்கள்
பலராவர். இந்த விளக்கங்களை வடமொழியில் `நிபந்தாஸ்'
என்பர். ஜிமிதவாகனா எழுதிய தாயபாகா, விஜ்ன நேஶ்வரா
எழுதிய மிதாக்க்ஷரா, யாக்னவால்க்யாவின் விளக்கங்கள்,
மித்ரமிஸ்ரா எழுதிய வீர மித்ரோதயா, மிஸ்ரா எழுதிய
விவேக சிந்தாமணி, சந்தேஶ்வரா எழுதிய ரத்னாஹரா, ரகு
நந்தனா எழுதிய தாயதத்வா, ஶ்ரீகிருஶ்ணா எழுதிய தாயகிராம</p>

<p>பக்கம்:5
சங்கிரகா, தேவானந்தா பட்டா எழுதிய ஸ்மிருதி
சந்திரிகா, மாதவாச்சாரியா எழுதிய பராசர மாதவியா,
நீலகண்ட எழுதிய வியவகாரமாயூகா முக்கியமானவை.</p>

<p>மிதாக்சரா, தாயபாகா:</p>

<p>     இந்த உரையாசிரியர்களின் விளக்கங்கள் சில சமயம்
முன்னுக்குப்பின் முரணாக இருக்கின்றன. இந்த உரைகளில்
முக்கியமானவை மிதாக஼்்க்ஷரா, தாயபாக என்ற இரண்டு~
மாகும். மிதாக்சரம் யாக்ஞவால்கியத்திற்கு எழுதப்பட்ட
உரையாகும். இதனை எழுதியவர் விஞ்ஞானேஸ்வரர் இவர்
14ம் நூற்றாண்டில் வாழ்ந்தவர் எனப்படுகிறது. வங்காளத்~
தைத் தவிரப் பாரத நாட்டின் பெரும்பாலான பகுதிகளில்
மிதாக்சரமே வழக்கத்தில் உள்ளது. இருந்தபோதிலும்
மிதாக்சராவில் எந்த விஶயமாவது சொல்லப்படாமல்்
விடுபட்டு இருந்தால், தாயபாகத்தில் சொல்லப்பட்டதை
ஏற்றுக்கொள்வது மரபு. அம்மாதிரியே தாயபாகாவில் எந்த
விஶயமேனும் சொல்லப்படாமல் விடுபட்டு இருந்தால் அந்தச்
சந்தர்ப்பங்களில் மிதாக்சராவில் சொல்லப்பட்டுள்ள விஶயங்~
களை ஏற்றுக்கொள்வது வழக்கம்.</p>

<p>     மிதாக்சராப் பிரிவிலும் பல பிரிவுகள் உண்டு.
1) பெங்கால் பிரிவு 2) மிதிலா பிரிவு 3) மஹாராஶ்டிராப்
பிரிவு 4) திராவிடர் பிரிவு அல்லது மதராஸ் பிரிவு 5) பஞ்சாப்
பிரிவு என்பன அவை. பெங்கால் பிரிவு, மத்திய இந்தியா,
வடமேற்கு இந்தியா, வட இந்தியா பகுல்கள் நிலவுகின்றது.
மிதிலாப் பிரிவு பீஹார் பகுதியிலும், மஹாராஶ்டிராப் பிரிவு
மஹாராஶ்டிரம், குஜராத், வடக்குக் கொங்கணிப் பகுதியிலும்
திராவிடமுறை தென்னிந்தியாவிலும் வழக்கில் உள்ளன.
இவை எல்லாம் இந்துச் சட்டத்தின் மூலங்களாகும்.</p>

<p>சட்டம் தோன்றிய முறை:</p>

<p>     இந்துக்களின் சட்டம் பழமையானது. நன்கு வளர்ச்சி~
யடைந்த சட்டம் என்று மேதைகளால் போற்றப்பட்டதாகும்.</p>

<p>பக்கம்:6
தத்துவ மேதைகள், முற்றும் துறந்த முனிவர்கள், சிந்தனை~
யாளர்கள் உருவாக்கிய சட்டம் அது. தர்மத்தை நாட்டில்
நிலை நாட்டவேண்டும் என்பதனைக் குறிக்கோளாகக்கொண்டு
உருவாக்கப்பட்டது இந்துக்களின் சட்டம்.</p>

<p>     இந்துக்களின் சட்டம் உருவானது குறித்து இரு கருத்துக்~
கள் உள்ளன. கடவுளே மக்கள் நலனுக்காக உருவாக்கித்
தந்தார் என்பது பழமையாளர்களின் கருத்தாகும். ஏற்றுக்
கொள்ளப்பட்ட பழைய வழக்கங்களை அடிப்படையாகக்
கொண்டு உருவாக்கப்பட்டது இந்துக்களின் சட்டம் என்பது
மற்றொரு சாராரின் கருத்தாகும்.</p>

<p>     வேதங்களிலிருந்து உருவான இந்துக்களின் சட்டத்திற்குத்
தெய்வீகத் தன்மை உள்ளது எனச் சட்ட மேதை ஆஸ்டின்
குறிப்பிட்டுள்ளார்.</p>

<p>     ஐரோப்பிய சட்ட வல்லுனர்கள் இந்துக்களின் சட்டம்
புனிதத் தன்மை வாய்ந்தது என்பதனை ஏற்றுக்கொள்வது
இல்லை. ஆரியர்கள் இந்தியாவிற்குள் நுழைவதற்கு முன்
பழக்க வழக்கங்களின் அடிப்படையில் உருவான சட்ட
திட்டங்கள் இருந்தன. அவையே இந்துக்கள் சட்டமாக
உருவாயின என்பர்.</p>

<p>மெயின்:</p>

<p>     இந்துச் சட்டம் உலகத்தின் மிகப் பழமையான சட்டம்
என்று மெயின் பாராட்டியுள்ளார்.</p>

<p>     J.H. நெல்சன் என்பவர் ""சட்டம் அறியாத வடமொழி~
யாளர்கள், வடமொழி அறியாத சட்ட மேதைகள் கற்பனை
செய்த மூளையின் மாய பிம்பம் இந்துச் சட்டம்"" எனக் கூறி~
யுள்ளார்.</p>

<p>பக்கம்:7
2. சட்டம் தோன்றிய விதம்:</p>

<p>     1)  பழக்க வழக்கங்களின் அடிப்படையில் தோன்றும்
	 `பழக்கவழக்கச் சட்டங்கள்'</p>

<p>     2)  நீதிமன்ற முடிவுகளின் அடிப்படையில் தோன்றும்
	 சட்டங்கள்</p>

<p>     3)  சட்டசபைத் தோற்றுவிக்கும் சட்டங்கள்</p>

<p>     மேற்கூறிய மூன்று வழிகளில் ஒரு நாட்டின் சட்டம்
தோற்றுவிக்கப்படுகிறது.</p>

<p>     பழக்க வழக்கங்களின் அடிப்படையில் தோன்றும்
சட்டம், வாழையடி வாழையாகத் தொன்று தொட்டு
மக்களால் பின்பற்றப்பட்டு வருபவையாகும். இவை வரி
வடிவிலிருத்தல் வேண்டும் என்ற நியதி எதுவுமில்லை. பழக்க
வழக்கங்கள் சமூக நலனுக்கு எ஥ிரானதாகவும், ஒழுக்கமற்ற~
தாகவும் சமுதாயத்திற்கு அநீதி விளைவிக்கக் கூடியதாகவும்
இருந்தால் அவை புறக்கணிக்கப்படும், சட்டமாகக் கருதப்பட
மாட்டாது. பழக்கவழக்கங்களின் அடிப்படையில் தோன்றிய
சட்டத்தை ஓர் உபமான வாயிலாக விளக்்கலாம்.</p>

<p>     ஓர் அடர்ந்த காட்டினைக் கடக்க முற்பட்ட முதல்
மனிதன் மிக்க பாடுபட்டு, முட்களை அகற்றி ஒரு வழியை
ஏற்படுத்திக் காட்டினைக் கடக்கிறான். அடுத்து வருபவன்
முதல் மனிதன் சென்ற வழியிலேயே சிரமமின்றிச் செல்கிறான்.
அடுத்து வருபவர்கள் காட்டினைக் கடக்க முன்னவர்கள்
கடந்து சென்ற வழியிலேயே செல்கிறார்கள். அவ்வாறே பலர்
அவ்வழியே செல்ல ஓர் ஒத்தை அடிப்பாதைத் தோன்று~
கிறது. பிறகு காட்டினை எளிதாகக் கடக்க எல்லோரும் அவ்~
வழியே சென்று ஒரு பாதையையே உருவாக்குகிறார்கள். அது
போலத் தோன்றியதுதான் பழக்க வழக்கங்களின் அடிப்~
படையில் தோற்றுவிக்கப்பட்ட சட்டமாகும்.</p>

<p>பக்கம்:8
பழக்க வழக்கங்களின்௃அடிப்படையில் உருவாக்கப்பட்ட
சட்டதிட்டங்களை ஏற்றுக்கொள்வதற்கு முன் நீதிமன்றம் பின்
கண்ட விஶயங்஼களைப் பரிசீலனை செய்யவேண்டும்.
(1) வழக்கம், தொன்றுதொட்டு வரும் வழக்கம் என மெய்ப்~
பிக்க஼வேண்டும். (2) அவ்வழக்கம் தொடர்ந்து நடைமுறை~
யில் இருக்கவேண்டும். (3) அந்த வழக்கம்் நியாயமானதாக~
வும், அறநெறி வழுவாததாகவும் இருக்கவேண்டும்.
(4) வழக்கம், சிக்கலும், குழப்பமும் கொண்டதாக இருக்கக்
கூடாது (5) வழக்கம் முடிவானதாகவும், உறுதியானதாக~
வும் இருக்கவேண்டும் (6) அரசாங்கம் ஏற்படுத்தியுள்ள
சட்டதிட்டங்களுக்கு முரணானதாக இருத்தல் கூடாது.</p>

<p>     நீதிமன்றத் தீர்ப்பின் அடிப்படையில் தோன்றின சட்டங்~
களை இனி நோக்குவோம்.</p>

<p>     ஒரு வழக்கை விசாரணை செய்தவுடன் நீதிபதி அவ்~
வழக்குக் குறித்துத் தெரிவிக்கும் கருத்துக்கள் சட்டத்தின்
புனிதத் தன்மையைப் பெறுகின்றன. அந்த வழக்குச்
சம்பந்தமாக நீதிபதித் தெரிவிக்கும் கருத்து ""ரேஶியோ
டெஸடென்டி"" எனப்படுகிறது. வழக்~
கிற்குச் சம்பந்தப்படாத விஶயம் குறித்து நீதிபதி தெரிவிக்கும்
கருத்து `ஆபீடர் டிக்டம்' என்பர். அதனைச்
சட்டமாகக் கருதுவதில்லை.</p>

<p>     சட்டமன்றம் இயற்றும் சட்டம் எல்லோரும் அறிந்த சட்ட~
மாகும். நம் அரசியல் அமைப்புச் சட்டப்படி சட்டசபைக்கு
நிரம்ப அ஥ிகாரமுண்டு. சட்டமன்றம் இயற்றும் சட்டத்தை
நீதிமன்றம் பின்பற்றியே ஆகவேண்டும். இந்த விஶயத்தில்
நாம் ஜப்பான் அரசியல் அமைப்பினைப் பின்பற்றுகிறோம்.
அமெரிக்கரான மக்ஆர்தர் வழங்கினதுதான் ஜப்பான்
அரசியல் சட்டம். அங்குச் சட்டசபை ஏற்படுத்திய சட்டத்தை
நீதிமன்றங்கள் பின்பற்றியே
ஆகவேண்டும். இதேமுறை நம் நாட்டிலும் பின்்பற்றப்படு~
கிறது.</p>

<p>பக்கம்:9
இந்துக்கள்:</p>

<p>     பழைய நூல்களின்படி இந்து எனப்படுபவன் பிறப்பினால்
அழைக்கப்படுகின்றானே வொழிய, இந்து என்பவன்
உண்டாக்கப்படுபவன் அல்லன் எனப்படுகிறது. ஆனால்
அந்த நிலை மாறிவிட்டது. இந்து என்பவன் பிறப்பினால்
மட்டுமன்றி, இந்து மதக் கொள்கைகளை ஒருவன் ஏற்றுக்
கொண்டு கடைபிடித்து வருவானேயானால் அவன் இந்து~
வாகவே கருதப்படுவான்.</p>

<p>     இந்து தாய் தந்தையர்க்குப் பிறக்கும் குழந்தைகள்
இந்துக்களாவர். இந்துமதக் கொள்கைகளை ஏற்றுக்கொண்஼ட~
வரும் இந்துவாக மாறியவரும் இந்துக்களாகவே கொள்ள
வேண்டும் என்று பிரிவி கவுன்சில் ஒரு வழக்கில் சுட்டிக்
காட்டியுள்ளது.</p>

<p>     வீர சைவம், பிரார்த்தனம், பிரம்ம சமாஜம், ஆரிய
சமாஜம் முதலியவ஼ற்றைச் சேர்ந்தவர்கள் சமணர்கள், பௌத்~
தர்கள், சீக்கியர்கள், லிங்கயாத்துக்கள் அனைவரும் இந்து
மதத்தைச் சேர்ந்தவர்களாகவே கருதப்படுகிறார்கள்.</p>

<p>     `பல கடவுளர்களை வழிபடுதலும், வேதத்தின் புனிதத்
தன்மையை ஏற்றுக்கொள்பவனும்' `இந்து'வேயாவன் என நம்
உச்ச நீதிமன்றம் ஒரு வழக்கில் சுட்டிக்காட்டியுள்ளது.</p>

<p>     இந்துவாகப் பிறந்து இந்துமதக் கொள்கைகளைச் சரிவரக்~
கடைபிடிக்காமற் போனானேயானாலும் அவனை இந்துவாக
ஏற்றுக்கொள்ளவேண்டும் என்று கல்கத்தா நீதிமன்றம் ஒரு
வழக்கில் தீர்ப்பளித்திருக்கிறது.</p>

<p>பக்கம்:10
     ஆபிரகாம் vs ஆபிரகாம் என்ற வழக்கில் இந்து
என்பவன் பிறப்பினால் மட்டும் அல்லாது அவன் இந்து பழக்க
வழ஖்கங்களைக் கடைப்பிடிப்பதனாலும் இந்துவாகிறான் எனத்
திட்டவட்டமாகக் கூறப்பட்டுள்ளது.</p>

<p>     மகமதியர், பார்சி, யூதர், கிறிஸ்தவர் அல்லாத மதத்தைச்
சேர்ந்து இந்து மதக்கொள்கைகளைக் கடைபிடித்தவண்ணம்
இந்தியாவில் வாழ்பவர்களை இந்துக்கள் எனலாம்.</p>

<p>     மகமதிய மதத்தைச்சேர்ந்த குழந்தைகளை இந்து
பெற்றோர்கள் எடுத்து இந்துக்களைப் போலவே வளர்த்து
வந்தால் அந்தக் குழந்தைகளை இந்துக் குழந்தைகள் என்றே
ஏற்றுக்கொள்ளவேண்டும்.</p>

<p>     குழந்தையின் பெற்றோர்களில் எவரேனும் ஒருவரோ
அல்லது இருவருமோ சமணராகவோ, பௌத்தராகவோ
அல்லது சீக்கியராகவோ இருந்தால் அவர்கள் குழந்தைகள்
இந்துக்களாகவே கருதப்படும். இந்து மதத்திலிருந்து விலகி
மீண்டும் இந்து மதத்திற்கு வந்தவர்களின் குழந்தைகளும்
இந்துக்களாகவே கருதப்படும்.</p>

<p>     மகமதியர்களில் சில பிரிவினர் முன்பு இந்துக்களாக
இருந்து மதம் மாறினாலும் அவர்கள் சொத்துரிமை, வாரிசுரிமை
விஶயங்களில் தங்கள் பழக்க வழக்கங்களின் அடிப்படையில்
இந்துக்களின் கொள்கைகளைக் கடைப்பிடிப்பதைக்
காணலாம்.</p>

<p>     கோஜாக்கள், பம்பாயில் வாழும் கட்ச் மேமான்கள்,
கத்தியவாரைச் சேர்ந்த ஹல்வாய் மேமான்ஸ், குஜராத்தைச்
சேர்ந்த சுன்னிபோராக்கள் இன்றும் இந்து சட்டத்தையே</p>

<p>பக்கம்:11
சொத்துரிமை, வாரிசுரிமை விஶயங்களில் பின்பற்றினர்.
அதனை இஸ்லாமியர்களின் `ஶரியத்' சட்டம் அகற்றிவிட்டது.</p>

<p>4)  வெளிநாட்டில் வாழும் ஓர் இந்துவின் நிலை என்஼ன?</p>

<p>     ஓர் இந்து தான் எங்கு சென்றாலும் தன்னுடன் தன்
நாட்டு இந்துச் சட்டத்தையும் கொண்டு செல்கிறார் என்றே
ஏற்றுக்கொள்ளவேண்டும். இதனை அலகாபாத் நீதிமன்றம்
அர்ஜூன்சிங் vs வீரேந்திரநாத் வழக்கில் தெளிவுபடுத்தி
இருக்கிறது.</p>

<p>     இந்துவாகப் பிறந்த ஒருவன் வெளிநாட்டில் இருந்த
போதிலும் வேறு ஒரு மதத்தைத் தழுவாத வரையில் அவன்
இந்து மதத்தில் கூறப்பட்டுள்ள வைதீக முறைப்படி
நடக்காமற்போனாலும் இந்துவாகவே கருதப்படுவான்,
ஹிந்துஸ்தானைவிட்டு வேறு ஓர் இடத்தில் இருப்பதால் அவன்
தன் மதத்தினை இழந்துவிடமாட்டான்.</p>

<p>     அவன் இந்து மதத்தினை விட்டு வெளிநாட்டிலேயே
வேறு ஒரு மதத்தினைத்தழுவி விடுவானேயானால் அவன்
இந்து மதம் வழங்கும் உரிமைகளை எல்லாம் இழந்துவிடுகிறான்
என்பது பழைய சட்டம். இப்போது அந்த நிலையை வகுப்புத்
தகவின்மை நீக்கச் சட்டம் 1850
மூலம் அகற்றப்பட்டு விட்டது. அவனுக்கு மத
சுதந்திரம் வழங்கப்பட்டிருக்கிறது.</p>

<p>பண்டைய இந்துச் சமுதாயத்தில் காணப்பட்ட
திருமணங்கள்:</p>

<p>     1955ம் வருடத்திய இந்துத் திருமணச்சட்டம் வருவதற்கு
முன் நம் நாட்டில் எட்டுவகையான திருமணங்கள் இருந்தன.</p>

<p>பக்கம்:12
அவற்றில் நான்கு அங்கீகரிக்கப்பட்டவை
மற்ற நான்கும் அங்கீகரிக்கப்படாதவை
அங்கீகரிக்கப்பட்ட முறையில் திருமணம் செய்துகொண்டவள்
தான் `பத்தினி' எனப்பட்டாள்.</p>

<p>     1)  வேதங்களைக் கற்று ஒழுக்கத்துடன் வாழும் ஒருவ~
னுக்கு ஒரு பெண்ணின் தந்தை பெண்ணை நன்஖ு அலங்கரித்து
விலை உயர்ந்த ஆபரணங்களோடு அவளை ஒருவனுக்கு மணம்
முடித்துக்கொடுத்தால் அதனை `பிரம்மா' முறைப்படி
நடந்த திருமணமாகக் கருதப்படும்.</p>

<p>     2)  யாகம் செய்தபோது புரோகிதராக இருந்த ஒருவ~
னுக்கு அவருக்குத் தரப்படவேண்டிய கூலிக்குப் பதிலாகத்
தம் பெண்ணை அந்தப் புரோகிதருக்குத் தரப்படுவதுண்டு.
அந்த மாதிரித் திருமணம் தெய்வத் திருமணம் எனப்~
படும்.</p>

<p>     3)  பெண்ணின் தந்தை மணமகனிடமிருந்து ஒரு ஜதை
மாடுகளை மத சடங்கிற்காகப் பெற்றுக்கொண்டு தன் மகளை
அவனிடம் ஒப்படைத்தல் ஒரு வகையான திருமணம். அத்
திருமணத்திற்கு `ஆரிஶ' திருமணம் என்று பெயர்.</p>

<p>     4)  ""மதச் சம்பந்தப்பட்ட செயல்களையும் ஏனைய நல்ல
நல்ல காரியங்களையும் நீங்கள் இருவரும் சேர்ந்து செய்யுங்கள்'
என ஒரு பெண்ணின் தந்தை வாழ்த்தி ஆடவனிடம் தன்
மகளை ஒப்படைத்தல் ஒருவகைத் திருமணமாகும். அதனைப்'
""பிரஜாபத்ய"" திருமணம் என்பர்.</p>

<p>     5)  பெண்ணும் ஆணும் ஒருவரை ஒருவர் விரும்பி காதல்
கொண்டு மணப்பது கந்தர்வத் திருமணமாகும்.
இந்த வகையான திருமணம் வெகு சாதாரணமாக எல்லா
இடத்திலும் நடப்பதாகும்.</p>

<p>பக்கம்:13
     6)  தம் பெண்ணை மணமுடிக்க ஒருவரிடம் பொருளைப்் 
பெற்றுக்கொண்டு அவருக்குப் பெண்ணை மணமுடித்தலுண்டு.
அதற்கு `அசுர' முறைப்படியான திருமணம் என்று
கூறப்படும். இது பெண்ணை விலைக்குப் பெற்றோர்கள் விற்பது
போலத் தோன்றும்.</p>

<p>     7)  பெண்ணை வலியக் கடத்திச்சென்று ஒருவன் மணம்
முடித்துக்கொள்வதற்கு ராக்க்ஷசத் திருமணம்
எனப்படும்.</p>

<p>     8)  ""பைஶாசா""த் திருமணம் என்பது ஒரு பெண்
உறங்கும்போதோ, மனநிலை மாறி இருக்கும்போதோ மது
அருந்தியிருக்கும் போதோ அவளுடன் உடலுறவு கொண்டு
மணமுடித்துக் கொள்ளுதலாகும்.</p>

<p>     இந்த எட்டு வகைத் திருமணங்களில் பிரம்ம வகைத்
திருமணமும், அசுர வகைத் திருமணமுமே இன்று நம்மிடையே
வழக்கில் உள்ளன. அவை அங்கீகரிக்கப்பட்டத் திருமணங்~
களாகும்.</p>

<p>     மாப்பிள்ளை வீட்டிலிருந்து பெண் வீட்டார் எந்த ஒரு
பொருளையோ பிரதிபலனாகப் பெண்ணை மாப்பிள்ளைக்குக்
கொடுப்பதற்காகப் பெற்றுக்கொண்டால் அதனைச் சுல்கா
என்பர்.</p>

<p>திருமணச் சடங்குகள் இந்துச் சட்டத்தின்படி எவை
எவை?</p>

<p>     கணவன் மனைவி இருவரும் இந்துக்களாக இருந்தால்
தான் இந்துத் திருமணச் சட்டம் பொருந்தும். இந்துக்களி~
டையே எவ்வளவோ பழக்க வழக்கங்கள் இருந்தாலும் விவாக
ஹோமமும், அதனை அடுத்து தம்பதிகள் எடுத்துவைக்கும்</p>

<p>பக்கம்:14
ஏழு அடிச்சுவடிகளும் முக்கியமானவை முன்னதை விவாக
ஹோமம் என்றும், பின்னவை ""சப்தபதி"" என்றும் கூறுவார்~
கள். தாலி கட்டுவது போன்றது சாதாரணச் சடங்காகவே
கருதப்படுகிறது. ஏழாவது அடி எடுத்து வைத்த உடனே
விவாகம் மணமக்க஼ளுக்குள் திருமணம் நடந்து முடிந்ததாகவே
ஏற்றுக்கொள்ளப்படும்.</p>

<p>     கோவலன், கண்ணகித் திருமணம் பற்றி இளங்கோ
அடிகள், சிலப்பதிகாரத்தில் ""மாமூதூர்ப் பார்ப்பான மறை
வழி காட்டிட"" என்று கூறியுள்ளார் அதற்கு உரை எழுதிய
அடியார்க்கு நல்லார், அம்மி மிதித்து அருந்ததிக் காட்டிடக்
கோலகலமாக கோவலன், கண்ணகித் திருமணம் நடந்தது
எனக் குறிப்பிடுவது இங்கு நோக்கற்பாலது.</p>

<p>     பழையத் திருமணச் சட்டப்படி, வைதீகச் சடங்குகள்
இல்லாதத் திருமணம் செல்லத்தக்கவை அல்ல எனக் கூறப்~
பட்டது. நம் தமிழ்நாட்டு உயர்நீதிமன்றமும் ஒரு வழக்கில்
தீர்ப்பு வழங்கி இருக்கிறது. ஆனால் அந்த நிலை இப்போது
மாறிவிட்டது.</p>

<p>சகோத்திரம், பின்ன கோத்திரம்:</p>

<p>     பிராமணர், க்ஷத்திரியர், வைசியர் ஆகிய வருணத்தினர்
தங்கள் குடும்பத்தை நிறுவினவர் ஒரு முனிவர் எனக் கருது~
கிறார்கள். அகஸ்தியர், அத்திரி, பாரத்வாஜர், கௌதமர்,
ஜமதக்கினி, காசிபர், வசிஶ்டர், விஸ்வாமித்திரர் என்ற ஏழு
ரிஶிகளில் ஒருவரைத் தம் குடும்பத்தை நிறுவின முனிவராகக்்
கருதுகிறார்கள். இவர்்கள் ஒவ்வொருவர் பெயராலும் ஒரு
கோத்திரம் தோற்றுவிக்கப்பட்டது. அந்தக் கோத்திரம்
அந்தக் குறிப்பிட்ட முனிவர் பெயராலேயே அமைகிறது.
    </p>

<p>
",0
               0 
</p></body></text></cesDoc>