<cesDoc id="tam-w-science-film-su" lang="tam">
<cesHeader type="text">
<fileDesc>
<titleStmt>
<h.title>tam-w-science-film-su.txt</h.title>
<respStmt>
<respType>Electronic file created by</respType>
<respName>Central Institute for Indian Languages, Mysore</respName>
<respType>transferred into Unicode and CES format by</respType>
<respName>"Unicodify" software by Andrew Hardie</respName>
</respStmt></titleStmt>
<publicationStmt>
<distributor>UCREL (on behalf of CIIL)</distributor>
<pubAddress>Department of Linguistics, Lancaster University, Lancaster, LA1 4YT, UK</pubAddress>
<availability region="WORLD"></availability>
<pubDate>03-07-09</pubDate>
</publicationStmt>
<sourceDesc>
<biblStruct>
<monogr>
<h.title>சுதந்திரப் போரில் தமிழ் சினிமா</h.title>
<h.author>அறந்தை நாராயணன்</h.author>
<imprint>
<pubPlace>India</pubPlace>
<publisher>Unknown - Book</publisher>
<pubDate>1988</pubDate>
</imprint>
<idno type="CIIL code">su</idno>
</monogr></biblStruct></sourceDesc></fileDesc>
<encodingDesc>
<projectDesc>Text collected for the CIIL Corpus, subsequently integrated into the EMILLE/CIIL Monolingual Written Corpora.</projectDesc>
<samplingDesc>Simple written text only has been transcribed. Diagrams, pictures and tables have been omitted. Sampling begins at page 50.</samplingDesc>
<editorialDecl><conformance level="1"></conformance></editorialDecl>
</encodingDesc>
<profileDesc>
<creation><date>03-07-09</date></creation>
<langUsage>Tamil</langUsage>
<wsdUsage>
<writingSystem id="ISO/IEC 10646">Universal Multiple-Octet Coded Character Set (UCS).</writingSystem>
</wsdUsage>
<textClass>
<channel mode="w">print</channel>
<constitution type="composite"></constitution>
<domain type="public"></domain>
<factuality type="fact"></factuality>
</textClass>
<translations></translations>
</profileDesc>
<revisionDesc></revisionDesc>
</cesHeader>

<text><body>

<p>-11-</p>

<p>     மாசில்லா
     இந்து சுதேசி வளையல்</p>

<p>     இன்று போலவே, ஆரம்ப காலத்திலும் மேடை
நாடகங்கள்தான் பெரும்பாலும் திரைப்படங்களாகத்
தயாரிக்கப்பட்டன.</p>

<p>     அ஥ு பிரிட்டிஶார் ஆண்ட காலமாதலால் மேடை
நாடகங்களில் இ௟ல்பாகவே சுதந்திரப் போராட்ட முழக்~
கங்கள் ஒலித்தன.</p>

<p>     சுதந்திரப் போராட்டத்தை மையமாக வைத்து மிகச்
சில புதிய நாடகங்களே எழுதப்பெற்று, நடிக்கப் பெற்று
வந்தன என்று தெரிகிறது.</p>

<p>     ""முதல் தமிழ் தேசிய நாடகம் என்ற சிறப்பு, தமிழ்ப்
஫ண்டிதர் க. கோபாலாச்சார் 1894-ல் எழுதி வெளியிட்ட
`ஶ்ரீ ஆர்ய சபா' என்ற நாடகத்துக்கு உரியது""-என்று
கா. திரவியம் கூறுகிறார்.</p>

<p>     `ஆர்ய சபா' நாடகத்தின் ஆரம்பக் காட்சியில், கடவுள்
வணக்கம் முடிந்த பிறகு, விதூஶகனும் அவனது மனைவி~
யும் வருகிறார்கள்.</p>

<p>     ""அப்பேற்பட்ட நாடகத்தைச் செய்தவர் எந்த மகா
புருஶர்? அறியப் பிரியப் படுகிறேன்஼"" என்கிறாள்
விதூஶகனின் மனைவி.</p>

<p>-12-</p>

<p>     `ஆர்ய ஸபா' நாடக நூலின் முதற் பதிப்பில்,
""இஃது, இந்தியன் நேஶனல் காங்க்ரஸ் விஶயமாக ஓர்
தமிழ்ப் பண்டிதரால் இ௟ற்றப்பட்டது"" என்று குறிப்பிடப்~
பட்டுள்ளது.</p>

<p>     ""தொழில் முறையாக நடிக்கப்பட்டு நல்ல நாடகமாக
மக்களால் வரவேற்கப்பட்டு, கருத்து பரப்புப் பணியிலும்
கனிந்த வெற்றி கண்ட தேசிய நாடகம். சதாவதானம்
திரு. தெ. பொ. கிருஶ்ணசாமிப் பாவலரால் எழுதப்~
பட்டு, 1922-ல் அரங்கேற்றப்பட்ட `கதரின் வெற்றி' நாடக~
மாகும்"" என்கிறார் கா. திரவியம்.</p>

<p>     `கதரின் வெற்றி' நாடகத்தில் ஒரு காதல் காட்சி:-</p>

<p>     ""நீ என்னைக் காதலிப்பதானால் இன்று முதல் இந்த
பரதேச ஆடை உடுத்துவதை விட்டு விட்டு கதராடை
புனைய வேண்டும்"" என்கிறான் காதலன் சுந்தரம்.</p>

<p>     ""கரடு முரடான கதர்ப் புடவைகளை உ஠ுத்துவது
கஶ்டம்தானே அத்தான்!"" என்று முதலில் மயங்கும் காதலி
மரகதம் கடைசியில் சொல்கிறாள்: ""அந்நிய ஆ஠ையினால்
நாம் வருடம்தோறும் எழுபது கோடி ரூபாய்களுக்கு
மேல் வெளிநாட்டார்களுக்குக் கொடுத்து வருகிறோமென்று
தாங்கள் அன்று கடற்கரையில் பிரசங்கம் செய்தது முதல்
நான் கதரணியவே விருப்பங் கொண்டேன். அப்பாவின்
கோபத்திற்கு அஞ்சியே உடுத்தவில்லை...""</p>

<p>     ""சரி இனி அப்பா சொன்னாலும் நான் கதரையன்றி
வேறு ஆடைகளைத் தரிப்பதில்லை. இ஥ு சத்தியம்!""</p>

<p>     ""நாடகம்"" பற்றி, அறிஞர் வெ. சாமிநாத சர்மா
அந்நாளில் எழுதியிருக்கிறார்-</p>

<p>     ""ஒவ்்வொரு நாடக மேடையும் ஒவ்வொரு யாகசாலை
மாதிரி. இங்கே மனி஥ன் தன்னைப் பார்க்கிறான்; ஥ன்
சமுதாயத்தைப் பார்க்கிறான்; தன் மூதாதையர்களைப்
பார்க்கிறான். தன்னிடத்திலே, தனது சமுதாயத்திலே
காணப்படுகிற மாசு மருக்களெல்லாம் நவரசம் என்னும்</p>

<p>-13-</p>

<p>நெய்யினால் எரிக்கப்படுவதைப் பார்க்கிறான்; அதே ஒன்பது
சுவைகளு஠ன் லட்சிய வாழ்க்கை இன்னது என்று நிதரி~
சித்துக் காட்டப்படுவதைப் பார்க்கிறான்... சிறந்ததொரு
நாடகத்தைப் பார்த்துவிட்டுத் திரும்புகிற எவனும்
சிந்தனை நிரம்பிய உள்ளத்தோடு திரும்ப வேண்டுமே
தவிர சூன்யமான உள்ள஥்தோடு திரும்ப முடியாது.""</p>

<p>     வெ. சாமிநாத சர்மா எழுதிய விடுதலைப் போராட்ட
நாடகம்: `பாணபுரத்து வீரன்.' புத்தக வடிவில் இந்
நாடகம் பிரசுரமான போதே பிரிட்டிஶ் ஆ஠்சியாளர்களால்
தடை செய்யப்பட்டது.</p>

<p>     ""பாணபுரத்து வீரன் தடை செய்யப்பட்டிருந்ததால்
`தேசபக்தி' என அந்நாடகத்திற்குப் பெயர் சூட்டி, 1931-ல்
நாங்கள் அரங்கேற்றினோம். இந்தியாவுக்கும் இங்கிலாந்~
துக்கும் போராட்டம் நடந்தது போல, பாணபுரத்துக்கும்,
ஈசானபுரத்துக்கும் நடக்கும் விடுதலைப் போரை அடிப்~
படையாகக் கொண்டது - `தேசபக்தி' நாடகம்"" என்கிறார்
டி.கே. சண்முகம்.</p>

<p>     வெ. சாமிநாத சர்மாவின் `பாணபுரத்து வீரன்'
நாடகத்தை தங்களுக்கு அறிமுகம் செய்ததும், இடை
இடையே சில புதிய காட்சி஖ளையும் `உணர்ச்சி மிகுந்த'
பாடல்களையும் எழுதிக் கொடுத்ததும் மதுர. பாஸ்கரதாஸ்
என்று, டி.கே. சண்முகம் கூறியுள்ளார்.</p>

<p>     ""...அத்தோடு மகாகவி பாரதியின் `என்று தணியுமிந்த
சுதந்திர தாகம்', `விடுதலை விடுதலை', `ஆடுவோமே
பள்ளுப் பாடுவோமே' முதலிய பாடல்களையும் இடை~
யிடையே சேர்த்துக் கொண்டோம். தேசபக்தி நாடகத்~
தில் தான் முதன் முதலாக பாரதியின் பாடல்கள் பாடப்~
பெற்றன"" என்று டி.கே. சண்முகம், கூறியுள்ளார்.</p>

<p>     `விடுதலைப் போரில் தமிழ் வளர்ந்த வரலாறு' என்ற
தனது நூலில், ம.பொ.சி. எழுதியுள்ளார்: ""நாடக மேடையில்
நடத்தப்பட்ட தேசிய நாடகங்கள் அ஥ிகமில்லை. சொற்பமே!</p>

<p>-14-</p>

<p>ஆயினும் புராண நாடகங்களிலே - கதைக்குப் பொருத்த~
மின்றியும் - தேசியப் பாடல்களைப் பாடி அந்நாளைய நடிக
நடிகையர் தேச பக்தியை வளர்த்தனர்.""</p>

<p>     அப்படிப்பட்டதொரு நாடக நடிகரை, அறிஞர்
வ. ராமஸ்வாமி ஐயங்கார் (வ.ரா) ""புயல் காற்று தாஸ்""
என்னும் அடைமொழியோடு அறிமுகப்படுத்தியிருக்கிறார்:
""...அவர்தான் விஸ்வநாததாஸ். இவரை, பாமர மக்கள்
எப்படிக் கொண்டாடினார்கள்! பாமர ஜனங்கள் இவரைக்
கொண்டாடக் கொண்டாட, அரசாங்கத்தார் அவர் பேரில்
அடுத்து அ஠ுத்து 144 செக்ஶன் பாணப்பிரயோகம் செய்தே
வந்தார்கள். அவர் பாடிய ""கொக்குப் பறக்குதடி பாப்பா!""
என்ற பாட்டுக்கு எத்தனை தரம் `ஒன்ஸ்மோர்?' சொல்லி
முடியாது. ""கதர் கப்பல் கொடிதோணுதே"" என்று கம்பீர~
மாக, தாஸ் பாடும் போது ஜனங்கள் பரவசமடைந்து
போவார்கள்; அவர்களுடைய உடம்பு புல்லரித்துப் போய்~
விடும். விஸ்வநாத தாஸ் பிறவி சுதந்திரப்பிரியன்; அவர்
அ஖ஸ்மாத்தாக நாடக மேடையில் ஏறினார். அவரது சுதந்~
திர ஆவல் முற்றுப் பெறு முன்னரே, அவர் அதே மேடை~
யில் இறந்தார்.""</p>

<p>     தென்னிந்தியாவின் முதல் திரையரங்கை கோயமுத்~
தூரில் கட்டிய சாமிக்கண்ணு வின்சென்ட் என்பவர்,
1933-ல், கல்கத்தா பயனீர் ஸ்டூடியோவில் `வள்ளி</p>

<p>-15-</p>

<p>திருமணம்' ஸ்பெஶல் நாடகத்தைத் திரைப்படமாகத்
தயாரித்து, வெளியிட்டார்.</p>

<p>     (ஸ்பெஶல் நாடகங்கள் திரைப்படங்களாகத் தயாரிக்கப்~
பட்டு திரைக்கு வந்த போது டைட்டிலிலோ, பாட்டுப்
புத்தகங்களிலோ வசனகர்த்தா, பாடலாசிரியர் பெயர்~
களைப் பொறிக்கவில்லை. காரணம் நடிகர்கள் அவரவர்~
களுக்குப் பிடித்தமான ஆ஛ிரியர்கள் எழுதிய வசனங்களைப்
பேசினார்கள்; பிடித்தமான கவிஞர்கள் எழுதிய பாடல்~
களைப் பாடினார்கள்!)</p>

<p>     1945-ல் ஏவி. மெய்யப்பச் செட்டியார் தயாரித்து
வெளியிட்ட `ஶ்ரீவள்ளி' படத்தில் இந்தப் பாட்டைத்தான்
வள்ளி பாடினாள்.</p>

<p>     ஆனால்-</p>

<p>     1933-ன் `வள்ளி திருமணம்' படத்தில், வெள்ளைக்~
காரர்களை வெள்ளைக் கொக்குகளாக பாவித்து, நாடக
மேடைகளில் பாடி வந்த பாடலையே வள்ளி பாடினாள்.</p>

<p>     நாட்டில் அப்போது நடந்து கொண்டிருந்த, மகாத்மா
காந்தி தலைமையிலான, அந்நியப் பொருள் பகிஶ்காரம்</p>

<p>-16-</p>

<p>சுதேசி இ௟க்கத்தை `வள்ளி திருமணம்' படத்தில் சுப்ர~
மணிய சுவாமியே பிரச்சாரம் செய்தார்.</p>

<p>     பாடல்களை எழுதிய கவிஞரின் பெயர் சில பாடல்~
களின் ஈற்றடியில் காணப்படுகிறது.</p>

<p>     இ஥ன் மூலம் தான் `வள்ளி திருமணம்' படத்தில் பாடப்~
பெற்ற ஸ்பெஶல் நாடகப் பாடல்களை எழுதியவர் மதுர
பாஸ்கரதாஸ் என்பதைப் புரிந்து கொள்ள முடிகிறது.</p>

<p>-18-</p>

<p>     ஆ஠்சிக்கு எ஥ிராக
     மக்கள் எழுச்சி</p>

<p>     தயாரிக்கத் திட்டமிட்டிருக்கும் படத்திற்காக, திரைக்~
கதை, வசனம், பாடல்கள் போன்றவற்றைப் பிரத்யேக~
மாக, புதிதாக எழுதிக் கொள்ளும் வழக்கம் ஆரம்பக்
காலத்தின் தமிழ் சினிமா தயாரிப்பாளர்களுக்கும், இ௟க்கு~
நர்களுக்கும் இருந்திருக்கவில்லை என்று தெரிகிறது.
அத்தகையதோர் சீரிய முறைமைக்கு அவர்கள் வந்து
சேருகின்ற வரையிலும் அவர்களது படங்களின் பிரதான
நடிகர்கள் அவரவர்களுக்குப் பிடித்தமான, பரிச்சயமான
வசனங்களையே பேசினார்கள்; பாடல்களை மட்டுமே
பாடினார்கள்.</p>

<p>     அப்படித்தான்-</p>

<p>     1934-ம் ஆண்டின் `சகுந்தலா' படத்தில் சகுந்தலை,
தனது துயரத்தை எண்ணி, தெய்வத்திடம் பிரார்த்திக்~
கிறாள்; அவளது தெய்வம் - பாரத தேவி; அந்தத் தெய்வம்
லோகத்துக்கே மாதாவாம்!</p>

<p>-19-</p>

<p>     சகுந்தலையாக நடித்துப் பாடியவர் டி.எஸ். வேலம்~
மாள்.</p>

<p>	தனது புதல்வன், இளவர஛ன் சாரங்கதரனுக்குத்
     திருமணம் செய்வதாய்த் தீர்மானிக்கப்பட்டிருந்த
     சித்ராங்கியின் உருவப்படத்தைப் பார்த்துவிட்ட
     மன்னன் நரேந்திரன், அவள் மீது மனதைப்
     பறிகொடுக்கிறான். சித்ராங்கியைத் தானே அடைய
     விரும்புகிறான். மகன் சாரங்கதரனின் உருவப் படத்தை
     அனுப்பி, சித்ராங்கியை மயக்கி, திருமணத்துக்காக
     தன஥ு ஹஸ்தினாபுரம் அரண்மனைக்கு அழைத்து~
     வரச் செய்கிறான் நரேந்திரன். நரேந்திரனின் கபட
     எண்ணத்தை அவனது மனைவி ராணி ரத்னாங்கி
     மூலம் இளவரசி சித்ராங்கி தெரிந்து கொள்கிறாள்.
     திருமணத்துக்கு முன், வேட்டைக்காகக் காட்டுக்குச்
     செல்கிறான் மன்னன் நரேந்திரன். அந்தச் சந்தர்ப்~
     பத்தைப் பயன்படுத்தி இளவரசன் சாரங்கதரனிடம்
     தன் காதலை வெளிப்படுத்தி, அவனது தந்தை
     தன்னை மணக்கத் திட்டமிட்டிருப்பதையும் கூறு~
     கிறாள்். அவளது காதலை மறுக்கிறாள் சாரங்கதரன்;
     ""சிற்றன்னையே!"" என்று அழைக்கிறான். சாரங்க~
     தரனையே எப்படியாவது மணப்பது என்று வைராக்~
     கியம் கொண்டிருந்த சித்ராங்கி, வேட்டையிலிருந்து
     திரும்பிய மன்னன் நரேந்திரனிடம் ""உன் மகன்
     சாரங்கதரன் என்னைக் கற்பழித்து விட்டான்"" என்~
     கிறாள். மகன் சாரங்கதரனின் மாறு கை மாறு
     காலை வெட்டச் சொல்கிறான் நரேந்திரன்; தண்டனை
     நிறைவேறுகிறது. சாரங்கதரன் சாகிறான். மகான்
     கருணானந்தர் அங்கே வருகிறார். அவரது அபூர்வ</p>

<p>-20-</p>

<p>     சக்தியால் சாரங்கதரன் உயிர் மீண்டு, மன்னிப்புக் கேட்ட
     தந்தையைப் புறக்கணித்து துறவியாகி விடுகிறான்.</p>

<p>     கர்ணபரம்பரைக் கதை இ஥ு. கருணானந்தர் வருகை~
யையும், சாரங்கதரன் உயிர்மீண்டு துறவியாக மாறுவதை~
யும் புதிதாகச் சேர்த்து, நாடகமாக எழுதி நடித்து
வந்தார் - பம்மல் சம்பந்த முதலியார்.</p>

<p>     சம்பந்த முதலியாரின் இந்த நாடகம் 1935-ல் அதே
கதையமைப்போடு திரைப்படமாக வெளிவந்தது. ஹோமி~
வாடியா - வி.எஸ்.கே. பாதம் டைரக்ஶனில் பம்பாயில்
தயாரிக்கப்பட்ட இப்படத்தில் டி.எம். சாரதாம்பாள்,
வி.எஸ். சீனிவாசன் பிரதான நடிகர்கள்.</p>

<p>     இதே கதையை, ஏ஖ாதிபத்ய ஆ஠்சிக்கு எ஥ிராக
மக்கள் திரண்டு போராடும் கதையாக உருவாக்கினார்
கே. சுப்ரமணியம் பி.ஏ.பி.எல்.</p>

<p>     கும்பகோணம் வழக்குரைஞரான கே. சுப்ரமணியம்
ஊமைப்படக் காலத்திலேயே திரையுலகப் பிரவேசம்
செய்திருந்தவர்.</p>

<p>     ஊமைப் படக் காலத்திலேயே, `சினிமாட்டோகிராப்
என்கொயரி கமிட்டி' என்ற பெயரில் சென்ஸார் போர்டு
மாதிரியில் ஒரு கமிட்டியை பிரிட்டிஶ் ஆ஠்சியாளர்கள்
உருவாக்கியிருந்தனர்; 1928-ல் மகாகவி பாரதியின்
தேச பக்திப் பாடல்கள் தொகுப்புக்குத் தடை விதித்தது,
பறிமுதல் செய்தது பிரிட்டிஶ் ஆ஠்சி; நடாக மேடைகளில்
தேச பக்திப் பாடல்களைப் பாடிய கலைஞர்கள் கைது
செய்யப்பட்டனர்.</p>

<p>     வெள்ளையர் ஆ஠்சிக்கு எ஥ிரான போராட்டத்தில்,
`சுதேசி இ௟க்கம்', `தீண்டாமை எதிர்ப்பு', `மதுவிலக்கு',
`ஒத்துழையாமை' ஆகிய போர் ஆயுதங்களை மகாத்மா
காந்தியும் காங்கிரஸ் தலைவர்களும் நமது மக்களுக்கு
வழங்கியிருந்தனர்.</p>

<p>-21-</p>

<p>     அந்த மகத்தான ஆயுதங்களை முதலிலே நாடகக்
கலைஞர்களும், பின்னர் சினிமாக் கலைஞர்களும் கரங்களில்
ஏந்தினர்.</p>

<p>     `சாரங்கதரா' கர்ண பரம்பரைக் கதையைப் `பொது
ஒத்துழையாமை' இயக்கப் பிரச்சாரத்துக்குப் பயன்படுத்திக்
கொண்டார் டைரக்டர் கே. சுப்ரமணியம்்.</p>

<p>     1936-ல் கே. சுப்ரமணியம் டைரக்ஶனில் வெளிவந்தது
`நவீன சாரங்கதரா;' இப்படத்தில் சாரங்கதரன் - எம்.கே.
தியாகராஜ பாகவதர்; சித்ராங்கி - எஸ். டி. சுப்புலட்சுமி.</p>

<p>     சம்பந்த முதலியாரின் `சாரங்கதரா'வில் ""கற்பழித்து
விட்டதாக"" இளவர஛ன் மீது பழி போடுகிறாள் சித்ராங்கி.</p>

<p>     கே. சுப்ரமணியத்தின் `நவீன சாரங்கதரா' படத்தில்
கதாநாயகி சித்ராங்கி மிக உயர்ந்த குணங்களுடையவள்.
அவளது தோழிதான் இளவர஛ன் மீதான அந்தப் பழியைச்
சொல்லுகிறாள்.</p>

<p>     சம்பந்த முதலியாரினது கதையின் ""சித்ராங்கி தன஥ு
எண்ணம் ஈடேறாது, வீணாய் சாரங்கதரனின் உயிரைப்
போக்கத் தான் காரணமாயிருந்ததை நினைத்து தற்கொலை
செய்து கொள்கிறாள்.""</p>

<p>     கே. சுப்ரமணியத்தின் கதையில், ""உண்மைக் காதல்
கொண்ட சித்ராங்கி தன் காதலனுக்கு நேரவிருக்கும்
ஆபத்தை அறிந்து நடுநடுங்கி வெட்டும் பாறைக்கு ஓடி,
அவனைக் கட்டி அணையும் தருணம் சாரங்கதரன் மேல்
விழவிருந்த வாளால் இவள் அடிபட்டு மூர்ச்சையாகிறாள்.""</p>

<p>     ""கருணானந்தர் என்னும் பெரியோரால் அவன் இழந்த
கையையும் காலையும் பெற்று, அவரது சிஶ்யனாகி
ஆஸ்ரமத்தில் இருக்கிறான்"" சம்பந்த முதலியார் படத்தில்.</p>

<p>     கே. சுப்ரமணியம் படத்தில் சந்யாசினி ஒருத்தி வரு~
கிறாள். சாரங்கதரனை மட்டுமல்லாமல் சித்ராங்கியையும்
உயிர்ப்பிக்கிறாள்.</p>

<p>-22-</p>

<p>     சம்பந்த முதலியார் கதையில் மன்னனும், மகாராணி~
யும், இளவரசனும், இளவரசியும்தான் இருக்கிறார்கள்.</p>

<p>     கே. சுப்ரமணியத்தின் கதையிலோ `மக்களும்' இருக்~
கிறார்கள்.</p>

<p>     அந்த மக்கள் ஆ஠்சியின் அநீதியான தீர்ப்பை எதிர்க்~
கிறார்கள்.</p>

<p>     அநீதியான தீர்ப்பை எ஥ிர்த்து தெருக்களில் போராடு~
கிறார்கள்; அரண்மனையை முற்றுகையிடுகிறார்கள்;
இந்தப் போராட்டத்தில் மன்னனின் படை வீரர்களும்
மக்களோடு ஐ஖்கியப்படுகிறார்கள்.</p>

<p>     கே. சுப்ரமணியத்தின் `நவீன சாரங்கதரா' படப்~
பாட்டுப் புத்தகத்தின் கதைச் சுருக்கம் சொல்கிறது-</p>

<p>     ""சாரங்கதரனுக்கு இழைத்த தீங்கைக் கேள்வியுற்ற
ஜனங்களும் சேனைகளும் அரசன் மீது கோபங் கொண்டு
அரண்மனையைத் தாக்குகிறார்கள்...""</p>

<p>     இ஥ு படத்தின் உச்சக்கட்டக் காட்சி.</p>

<p>     அடுத்த காட்சியில் தண்டனை நிறைவேற்றமும்,
சந்யாசினி உயிர்ப்பித்தலும்.</p>

<p>     காட்டில் நடந்த இந்தச் செய்தி நாட்டிலுள்ள மக்க~
ளுக்குத் தெரியாது.</p>

<p>     படத்தின் கடைசிக் காட்சி என்று கதைச் சுருக்கம்
சொல்லும் கதை இ஥ு-</p>

<p>     ""அரண்மனைக் கதவுகளை ஜனங்கள் உ஠ைக்கும்
தருணம் சாரங்கதரன் சித்ராங்கி இருவரும் ஓடிவந்து
அரசனுக்கும் மகாராணிக்கும் பக்கத்தில் நின்று ஜனங்களை
அமரிக்கையாய் இருக்க சைகை செய்ததும், ஜனங்கள்
மகிழ்ச்சி பெற, மறுநாள் சாரங்கதரனுக்கும் சித்ராங்கிக்கும்
மங்களகரமாய் விவாகம் நடக்கிறது! சுபம்! சுபம்! சுபம்!""</p>

<p>-23-</p>

<p>     இவ்வாறாக-</p>

<p>     பிரிட்டீஶ் ஆட்சியாளரின் ஥ணிக்கையை ஏமாற்றி, ஒரு
ராஜா ராணிக் கதையில் `பொது ஒத்துழையாமை' இயக்க
எழுச்சிப் பிர஼ச்சாரத்தை, 1936-ல் தனது `நவீன
சாரங்கதரா' படத்தின் மூலம் பரப்பினார் டைரக்டர்
கே. சுப்ரமணியம்.</p>

<p>     ஆ஠்சியாளரின் தீர்ப்பை எ஥ிர்த்து ஹஸ்தினாபுரத்து
மக்கள் நடத்திய கிளர்ச்சிப் பேரணியில் அத்தனை பேரும்,
1936-ம் வருஶத்து தேசபக்தர்கள் அணியும் காங்கிரஸ்
குல்லாக்களைப் போட்டுக் கொண்டிருந்தார்கள்.</p>

<p>     இதே, 1936-ம் ஆண்டில் சொந்தத்தில் ஓர் திரைப்படம்
தயாரித்து வெளியிட்டார். எம்.கே. தியாகராஜ பாகவதர்.
பிரிட்டீஶ் தணிக்கையாளரின் கத்தரிக்கு அந்தப் படத்தால்
தப்பித்துக் கொள்ள முடியவில்லை.</p>

<p>-32-</p>

<p>     பாரதத் தாய் வீர சக்தியாலே....</p>

<p>     `பதிபக்தி' படத்தின் கதாநா௟கி லீலாவதியைப்
போலவே, `சதி லீலாவதி'யின் கதாநாயகி லீலாவதியும்
கணவனைப் பிரிந்து கஶ்ட ஜீவனம் நடத்திக் கொண்டிருக்~
கும் போது கைராட்டினத்தையே நம்பி வாழ்கிறாள்.</p>

<p>     ""உத்தம வேலையாள் கோவிந்தன் குடிசையில், லீலாவதி
கைராட்டையிலும் அவளுடைய மகள் லட்சுமி த஖்களியிலும்
நூல் நூற்று, அதை கோவிந்தன் துணியாக நெய்து அதை
விற்று ஜீவனம் செய்து வருகிறார்கள்.""</p>

<p>     தக்களியில் நூல் நூற்கிற மகள் லட்சுமியும், கை
ராட்டினத்தில் நூல் நூற்கிற தாய் லீலாவதியும் வெறுமனே
நூல் நூற்கவில்லை; பாட்டுக்கள் பாடி நூற்கிறார்கள்.</p>

<p>-34-</p>

<p>     ""இந்தியர்க்குச் சொந்தமாயிருந்த பொன்னாட்டிற்கு
ஏன் வந்த஼து சிரமம்?"" என்ற கேள்வியை வலியுறுத்திய
இந்தப் பாடலைப் பாடி, `சதி லீலாவதி' படத்தில்
லீலாவதியாக நடித்தவர் - எம். ஆர். ஞானாம்பாள்.
இவரது ஖ணவன் கிருஶ்ணமூர்த்தியாக நடித்து, பின்னாளில்,
நிஜ வாழ்விலும் கணவனாக மாறியவர் - எம்.கே. ராதா.</p>

<p>     1976 மார்ச் மாதத்தில், ஓர் சினிமா பத்திரிகையில்,
எம்.கே. ராதா எழுதினார்: ""தேசிய உணர்வை எழுப்பிய,
`சதி லீலாவதி' படத்தில் வந்த `கை ராட்டினமே கதர்
பூட்டினமே' பாட்டு பட்டி தொட்டிகளிலெல்லாம் முழங்~
கியது.""</p>

<p>     பிரிட்டீஶார் ஆ஠்சியில், இந்தியாவின் சொந்தத்
தொழில்கள் சீரழிந்தன; பொருளாதாரம் சீர் கெட்டது;
வேலையில்லாத் திண்டாட்டம் பெருகி௟஥ு; பிரிட்டீஶாரின்
காலனிகளாக இருந்த பிற நாடுகளுக்கு இந்திய மக்கள்
வேலை தேடிச் சென்று கூலித் தொழிலாளர்களாய் சீரழிய
நேர்ந்தது. இந்த நிலைமையை எண்ணி நொந்து மகாகவி
பாரதியார், ""பீஜித் தீவில் துயருறும் ஹிந்து மாதர்கள்""
பற்றிப் பாடினார்.</p>

<p>-35-</p>

<p>     `பதிப஼க்தி' படத்தின் கதாநாய஖ன் ராஜசேகரனும்,
`சதி லீலாவதி' படத்தின் கதாநாய஖ன் கிருஶ்ண மூர்த்தி~
யும் பிரிட்டீஶ் காலனியான இலங்கைத் தீவுக்குப்
போகின்றனர்; அங்கே தேயிலைத் தோட்டங்களில் வேலை
செய்யும் ஆயிரக்கணக்கான தமிழர்களைப் போல அவர்களும்
வேலைக்குச் சேருகிறார்கள்.</p>

<p>     இவர்களில் `சதி லீலாவதி' கதாநாய஖ன் கிருஶ்ண
மூர்த்தி, கஶ்டம் தாளாமல் பாரதியாரின் `கரும்புத்
தோட்டத்திலே' பாடல் மெட்டில், செஞ்சுருட்டி ராகத்~
தில், ரூபக தாளத்தோடு பாடுகிறான்.</p>

<p>-36-</p>

<p>     சுதந்திரப் போராட்ட காலத்தில், மகாத்மா காந்திஜி
பிரகடனப் படுத்திய மதுவிலக்கு இயக்கத்திற்கும் `பதிபக்தி'
படமும், `சதிலீலாவதி' படமும் காணிக்கைகளாக்கப்~
பட்டன.</p>

<p>     இரண்டு படங்களின் கதாநாயகர்களும் குடிப் பழக்கத்~
தால் குடும்பத்தைச் சீர்குலைக்கின்றன஼ர்.</p>

<p>     `பதிபக்தி'யின் கதாநாயகி லீலாவதி ஓர் பாடலில்
பாடுகிறாள்: ""பாழ் குணமிகுந்த குடியினால் பாக்கியத்தை
இழந்தோம்.""</p>

<p>     `சதி லீலாவதி'யின் கதாநாயகி லீலாவதி பாடினாள்:
""குடியால் விளைந்த கேடு, குடி முழுகியதோடு கொடியர்
சம்மன் செய்ய நீடு குறித்தாரோ எங்கள் வீடு.""</p>

<p>     `சதி லீலாவதி' படத்தைத் தயாரித்த மனோரமா
பிலிம்ஸ் நிறுவனத்தைச் சேர்ந்தவர்கள், காங்கிரஸ்
தலைவர் ராஜகோபாலாச்சாரியாரை ஓர் நாள், தங்கள்
படத்தின் ஒரு காட்சிக்கு அழைத்து வந்து படம் பார்க்கச்
செய்தார்கள்.</p>

<p>-37-</p>

<p>     படத்தில் செய்யப்பட்ட மதுவிலக்குப் பிரச்சாரத்தைப்
பாராட்டிப் பேசினார் ராஜாஜி.</p>

<p>     படத்தின் கதாநாயகி ஞானாம்பாள் கை ராட்டினத்~
தில் நூல் நூற்ற காட்சியை ராஜாஜி பாராட்டவில்லை;
விமர்சனம் செய்தார்.</p>

<p>     பருத்திப் பஞ்சை வைத்துக் கொண்டு நூற்காமல்,
ஏற்கனவே நூற்கப் பட்டிருந்த நூலை படத்தில் ஞானாம்~
பாள் கையில் வைத்துக் கொண்டு ராட்டினத்தைச்
சுழற்றியதைக் குறிப்பிட்டுப் பேசிய ராஜாஜி; ""சினிமாத்
தொழிலில் உள்ள அனைவரும் சொந்த வாழ்விலும் நூல்
நூற்க வேண்டும்"" என்று கூறினாராம்.</p>

<p>     இதே, 1936-ம் ஆண்டில் இன்னொரு படம் - `இரு
சகோதரர்கள்.'</p>

<p>     அந்தப் படத்தின் ஒரு காட்சிக்கு சிறப்பு அழைப்பாள~
ராக வந்தார் காங்கிரஸ் கட்சித் தலைவர் ராஜாஜி. ""அனை~
வருக்கும் என்னுடைய ஆசீர்வாதம். படம் வெகு நன்றாகவே
அமைந்து விட்டது"" - என்று பாராட்டிவிட்டு, அந்தக்
காட்சியின் மொத்த வசூலையும் காங்கிரஸ் கட்சி திரட்டி
வந்த `பட்டேல் நிதி'க்கு வாங்கிக் கொண்டு சென்றார்.</p>

<p>     குடும்ப ஒற்றுமையின் மூலம் தேச ஒற்றுமை, மது
விலக்குப் பிரச்சாரம், வெள்ளையர் ஆ஠்சிக் காலத்தின்
வேலையில்லாத் திண்டாட்டம் முதலியவற்றைப் பிரதிபலிக்~
கும் திரைக்கதையைக் கொண்டது `இரு சகோதரர்கள்.'</p>

<p>     வேலையில்லாத் திண்டாட்டத்தை விளக்க, `இரு
சகோதரர்கள்' படத்தில் ஒரு நகைச்சுவைக் காட்சி. இந்தக்
காட்சி பற்றி, இலக்கியப் பத்திரிகையான `மணிக்கொடி'
விமர்சனத்தின் மூலம் தெரிந்து கொள்ள முடிகிறது.</p>

<p>	""உண்மையான ஹாஸ்ய ரசம் மிகுந்த சம்பவங்~
     களும் கதைப் போக்கிலேயே அழகாக இணைக்கப்~
     பட்டிருக்கின்றன. உ஥ாரணமாக, வேலையில்லாதோர்</p>

<p>-38-</p>

<p>     மகாநாடு கூட்டத்தில் ஒரு பெரிய பட்டதாரி தலைமை
     வகித்து, ""வேலை இல்லாதோருக்கு எங்கும்
     இலவசச் சாப்பாடு கிடைக்க வேண்டும். எல்லா
     ரயில்வேக்களிலும் இலவசப் பிரயாணம் அனுமதிக்கப்~
     பட வேண்டும்"" என்ற தீர்மானங்களை நிறைவேற்றும்
     காட்சி ஒண்ணாம் நம்பர் ஹாஸ்யம்... மகாநாட்டின்
     மத்தியில் ""எங்கோ ஒரு இருபத்தைந்து ரூபாய்
     டைப்பிஸ்ட் வேலை காலி!"" என்று ஒரு குருவி வந்து
     சொன்னதும் மகாநாடு கலைந்து எல்லாம் சிட்டாய்ப்
     பறந்து விடுகிறதுகள்.""</p>

<p>     (1987-ல் ஒலிக்கிற, ""வேலையற்றோருக்கு உ஥வித்
தொகை! வேலை வாய்ப்பைத் தேடிப் பெறுவதற்கு இலவச
போக்குவரத்து வசதி!"" என்கிற கோஶம்் 1936-ன் `இரு
சகோதரர்கள்' படத்திலேயே ஒலித்திருக்கிறது.)</p>

<p>     இந்த `இரு சகோதரர்கள்' படத்தை `கோயமுத்தூர்
பரமேஸ்வர் சவுண்ட் பிக்சர்ஸ்' நிறுவனம் தயாரித்தது
என்றும், எல்லீஸ் ஆர். டங்கன் படத்தை டைரக்ட்
செய்தார் என்றும், கே.பி. கேசவன், டி.எஸ். பாலையா,
கே. கே. பெருமாள், எஸ். என். கண்ணா மணி,
எஸ். என். விஜயலட்சுமி, ராதாபாய் ஆகியோர் படத்தின்
பிரதான நடிகர்கள் என்றும் பாட்டுப் புத்தகம் சொல்லு~
கிறது. கதை வசனம் பாடல் எழுதியவர்கள் பெயர்கள்
காணப்படவில்லை.</p>

<p>     ஆனால்-</p>

<p>     `மணிக்கொடி' ஏ஠்டின் விமர்சனத்தின் மூலம் `இரு
சகோதரர்கள்' படத்துக்கு வசனம் எழுதியவரைத் தெரிந்து~
கொள்ள முடிகிற஥ு.</p>

<p>     ""இரு சகோதரர்கள் படத்துக்கு உயிரளிக்கக்௃ கூடியது
இயற்கையான சம்பாஶணை தான். சந்தர்ப்பத்திற்குப்
பொருத்தமான, ரசமான, சம்பாஶணையை இந்தப்
ப஼டத்தில் காண்கிறோம். இ஥ு, இதுவரையில் தமிழ்ப் பட</p>

<p>-39-</p>

<p>உலகில் இல்லாத ஒரு அதிசயமில்லையா? இந்தப் படத்~
தில் ஒவ்வொரு இ஠த்திலும் சரளமான சம்பாஶணை~
யைக் காண்கிறோம். இ஥ற்குப் பொறுப்பாளியான
சம்பாஶணை கர்த்தா ஶ்ரீமான் சுப்ரமண்ய யோகியை
நான் பாராட்ட முன்வந்தால், அ஥ு அவருக்குப் பெருமை~
யாகாது"" என்கிறார் `மணிக்கொடி' விமர்சகர் ஸஞ்சயன்.</p>

<p>     ""தற்காலம் தமிழ்ப் படங்களில் `ஹாஸ்யம்' என்றால்
வண்ணான் வண்ணாத்திகள் மகா விரசமாகச் சண்டை
போடுவது, தேவடியாள் வீட்டில் போய் உதை படுவது
என்றே கருதப்பட்டு வந்திருக்கிறது. ஆனால் இ஫்படத்தில்
சம்பாஶணை நடையிலேயே பல இ஠ங்களில் சன்னமான
நகைச்சுவை மிளிர்கிறது"" என்று `இரு சகோதரர்கள்'
படத்தை `மணிக்கொடி' விமர்சனம் பாராட்டியுள்ளது.</p>

<p>     சினிமாவுக்கு வந்த அந்த `யோகி'...?</p>

<p>     `மணிக்கொடி'யால் பாராட்டப்பட்ட, அப்படத்தின்
சம்பாஶணைகளை எழுதிய ஶ்ரீமான் சுப்ரமண்ய யோகி
`பாலபாரதி' ச.து.சு. யோகி.</p>

<p>     ""பாடும் குரல் நான், பாடுவாள் காளி"" என்று காளி
பீடத்தில் காணிக்கையாகத் தம்மைச் செலுத்திய கவிஞர்
ச.து.சு. யோகியார். ஈரோடு மகாஜன உ௟ர்நிலைப் பள்ளி~
யில் மாணவனாகக் கல்வி பயிலுங்காலையே, அவர் நாட்டுப்
பற்றால் உந்தப் பெற்று எழுதிய சிறு கவிதைத் தொகுப்பு
1924-ல் வெளியிடப்பட்டது. அன்று முதல், தம் இறுதி
நாட்களில், சுதந்திர இந்தியா, மக்கள் சுபிட்சத்திற்காக
வகுத்த வளமான திட்டங்கள் மீது `பவானி குறவஞ்சி'
என்ற பாடலை இ௟ற்றிய கட்டம் வரை, யோகியார்,
மொழிக்கும் நாட்டுக்கும் தம் கவிதையால் அருந்தொண்டு
ஆற்றியுள்ளார்"" - என்று, ச.து.சு.யோகி பற்றி கா. திரவியம்
கூறியுள்ளார்.</p>

<p>-41-</p>

<p>     ஜெயபாரத
     வெற்றிக் கொடி</p>

<p>     மகாத்மா காந்தியின் ஒத்துழையாமை இயக்கத்தையும்
கிராம மறுமலர்ச்சித் திட்டங்களையும் அடிப்படையாகக்
கொண்ட படம் ஒன்று; அ஥ன் பெயர்்-</p>

<p>     `சந்திர மோகனா - அல்லது - சமூகத் தொண்டு' (1936).</p>

<p>     ""பி.ஏ., பரீட்சையில் முதன்மையாகத் தேறிய சந்திர~
சேகரன் உத்தியோகம் கருதாது சமூகத் தொண்டில் தன்
உடல், பொருள், ஆவி மூன்றையும் தத்தம் செய்து, ஏழை
மக்களின் துன்ப நிவாரணத்துக்காகப் பாடுபடும் பொருட்டு
ஓர் ஆஸ்ரமம்் கட்டிக் கொண்டு வருகிறான். பட்டினியால்
வாடும் மக்களுக்கும் வேலையில்லாதோர் பலருக்கும் தொழில்
கொடுத்து ஆதரித்தல், தொழிலாளர்களின்் கஶ்ட நிஶ்டூரங்~
களைப் போக்கி அவர்களை உற்சாகப்படுத்தல் இவை
போன்ற சமூக சீர்திருத்தமான கொள்கைகளே ஆஸ்ரமத்~
தின் நோக்கம்"" என்கிறது, `சந்திரமோகனா - அல்லது -
சமூகத் தொண்டு' திரைப்படத்தின் கதைச் சுருக்கம்.</p>

<p>-42-</p>

<p>     கதையில், கதாநாயகன் சந்திரசேகரனுக்கு, `சுந்தரபுரி
தனவந்தவர் இராமச்சந்திரன் பிள்ளையின் ஏ஖புத்திரி'
மோஹனா - காதலி; அவள் மீது மோகம் கொண்ட பஞ்~
சாலை மேனேஜர் கமலநாதன் - வில்லன்.</p>

<p>     `ஆஸ்ரமத்தின் கைத்தொழில் காட்சிகளின் இடையே
சந்திரசேகரனின் மனதில் மோஹனாவின் அழகிய முகம்
தாண்டவமாடுகிறது'</p>

<p>-43-</p>

<p>     வில்லன் கமலநாதனுக்கு அ஠ங்காக் கோபம்; சந்திர~
சேகரனின் ஆஸ்ரமத்தை கொள்ளையிட்டு அழிக்க கள்வர்
தலைவன் ஜெய்சிங்கை அனுப்புகிறான்.</p>

<p>     ""ஆஸ்ரமத்தில் நெற்றி வியர்வை நிலத்தில் விழ, ஏழை
மக்கள் பாடுபட்டுச் செய்யும் காரியங்களையும், அவர்கள்
முன்னேற்றமடைவதற்கான நூதன தொழில்களை எவ்வாறு
கொடுத்து ஆ஥ரிக்கிறார்கள் என்பதையும் பார்த்த ஜெய்சிங்
தன் தீய குணத்தை அறவே ஒழித்து அன்று முதல் சந்திர~
சேகரனின் இன்னுயிர்த் துணைவனாகிறான்.""</p>

<p>     கதையில், கடைசியில் வில்லன் கமலநாதன் தோல்வி~
யுறுகிறான்; செத்துப் போகிறான். அவனது வில்லத் தனங்~
களுக்கு உதவியாக இருந்த தாசி கோமளம், சந்திரசேகர~
னின் ஆஸ்ரமத்தில் தொண்டு செய்யத் தொடங்குகிறாள்.</p>

<p>     கடைசி, கடைசியில்-</p>

<p>     ""ஆஸ்ரமத்தில் பாரத மாதா முன்னிலையில் சந்திர~
சேகரனும் மோஹனாவும் மற்றெல்லோரும் ஒரே மனதாய்
மங்஖ள வாழ்த்துப் பாடுகிறார்கள்.""</p>

<p>-44-</p>

<p>     மதுரை மோகன் மூவிடோன் நிறுவனத்தார் தயாரித்த
`சந்திரமோகனா - அல்லது - சமூகத் தொண்டு' படத்தின்
கதையை எழுதியவர்-</p>

<p>     `எஸ்.எம். சுப்பிரமணியம், கொத்தமங்கலம்' (பின்~
னாளில் இவரது பெயர் - கொத்தமங்கலம் சுப்பு).</p>

<p>     `சம்பாஶணை' எழுதியவர் - எம். கந்தசாமி முதலியார்,
(எம்.கே. ராதாவின் தந்தையார்) திரைக்கதை, டைரக்ஶன்
ராஜா சந்திரசேகர். பாடல் எழுதியவர் பெயர் - பாட்டுப்
புத்தகத்தில் இல்லை.</p>

<p>     சந்திரசேகராக எம்.கே. ராதாவும், மோஹனாவாக
டி.என். மீனாட்சியும், கமலநாதனாக எஸ்.வி. வெங்கட்ட~
ராமனும் (பின்னாளின் பிரபல இ஛ையமைப்பாளர்) நடித்~
தனர்.</p>

<p>     பிரிட்டீஶார், இந்த நாட்டை அடிமைப் படுத்தி
ஆண்டு கொண்டிருந்தபோது, பிரிட்டனுக்குப் படிக்கப்
போன கதாநாயகன் தீயவனாகித் திரும்புவதாக ஒரு
திரைக் கதை-</p>

<p>     ""பி.ஏ। பட்டமடைந்த ராமு என்னும் யுவன் பட்டம்
கிடைத்த பெருமையோடு தன் கிராமத்துக்குப் போகிறான்.
அங்கு தாயற்ற லட்சுமி என்ற பெண் இவன் வாழ்வில்
குறுக்கிடுகிறாள். லட்சுமி தன் தாயை இழந்து தன்
தகப்பனோடு அதே கிராமத்தில் வசித்து வந்தாள். லட்சுமி</p>

<p>-45-</p>

<p>தன் சங்கீதத்தின் மூலம் ராமுவின் இருதய கமலத்தில்
வசிக்கலானாள்... இந்த யுவதியே தனக்கு நாயகியென
காதலிக்கலானான் ராமு. சில நாட்களுக்குப் பின்பு ராமு
ஐ।சி.எஸ். பரீட்சைக்குத் தேர்ந்தெடுக்கப்படவே
இங்கிலாந்து போக நேரிடுகிறது. பிரயாணமாவதற்கு
முன்பு தன் தாயாரிடம் - பரமாதர்கள், குடி, தீயவொழுக்கம்
இம்மூன்றையும் தன் எண்ணங்களிலிருந்து பகிஶ்கரிப்பதாக
புனித கீதையின் மேல் பிரமாணம் செய்துவிட்டு, இங்கிலாந்~
துக்குச் செல்கிறான்...""</p>

<p>     `நவயுவன் - அல்லது - கீதாசாரம்' படத்தின் திரைக்கதை
இது. இ஫்படத்தைத் தயாரித்த அஸன்தாஸ் கிளாசிகல்
டாகீஸார் லண்டனுக்கே கதாநாயக நடிகர் வி.வி. சடகோ~
பனை அழைத்துக் கொண்டு போய் படம் பிடித்தார்஼கள்.</p>

<p>     லண்டனில் இருந்த மேரி லெபோன் ஸ்டூடியோவில்
படப்பிடிப்பு; மொத்தப் படத்தையும் டைரக்ட் செய்தவர்
மிக்கேல் ஓமலேவ் என்கிற மேல்நாட்டுக்காரர்; ஆறாவது
ஜார்ஜ் மன்னர் முடிசூட்டு விழாவைப் படமாக்கினார்கள்;
கதாநாயகன் விழாவில் கலந்து கொள்வதாகக் கதை.
(இங்கிலாந்தில் படப்பிடிப்புச் செய்யப்பட்ட முதல் தமிழ்ப்
படம் இ஥ுதான்).</p>

<p>     புனித கீதையின் மீது சபதம் செய்த ராமு என்ன~
வானான்?</p>

<p>     ""...ஆனால் இங்கிலாந்தில், அங்கிருக்கும் வாழ்க்கைச்
சூழலில் அகப்பட்டு, தன் தாய்க்குச் செய்த பிரமாணத்தையும்
மீறி நடந்து, இந்தியாவுக்குத் திரும்பி வரும்போது, வாழ்க்~
கையை அலட்சியமாகவும் ஒரு விளையாட்டுப் பொருளாக~
வும் பாவிக்கும் மனப்பான்மையுடன் நவநாகரீக விளை
பொருளாய் வந்து சேருகிறான். இங்கிலாந்தில் தன்
படிப்பை அசட்டை செய்து ஐ.சி.எஸ். பரீட்சையில்
தேறாமல் திராட்சை ரஸ தாகத்தோடும், ஸ்டாக்கிங்கினால்
மூடப்படும் சித்திரபாதங்களின் பிரமிப்போடும் பாரிஸ்ட~
ராய்த் திரும்புகிறான்.""</p>

<p>-46-</p>

<p>     தன் சங்கீதத்தின் மூலம் ராமுவின் இருதய கமலத்தில்
வசித்த லட்சுமி இப்போது அ஥ில் இல்லை.</p>

<p>     லண்டனுக்குப் போவதற்கு முன்பு அவனது இருதய
கமலத்தில் இடம் பிடிக்க லட்சுமி பாடிய பாடல்-</p>

<p>     இ஥ு, பாரதியார் பாடல்; `ஸ்வதேச கீதங்கள்'
என்ற தலைப்பில் பதிப்பிக்கப்பட்ட தொகுப்பில் உள்ள
`எங்கள் நாடு' பாடலின் இரண்டாம் பகுதி.</p>

<p>     ஆனால்-</p>

<p>     1937-ல் வெளிவந்த `நவயுவன்' படத்தின் பாட்டுப்
புத்தகத்தில் பாரதியார் பெயர் இல்லை; பாடல் இருக்கிறது.</p>

<p>     ""பாடல்கள் எழுதியவர் - பாபநாசம் சிவன்"" - என்று
அச்சிடப்பட்டுள்ள஥ு.</p>

<p>     பாரதியாரின் பெயரை மறைக்க வேண்டுமென்பது
படத்தின் தயாரிப்பாளருடைய நோக்கமாக இருந்திருக்~
காது...</p>

<p>     ஏனெனில்-</p>

<p>     தேசபக்தியும், பாரதி பாடல்கள் மீது அ஫ரிமிதமான
காதலும் கொண்டிருந்த காங்கிரஸ் தலைவர் எஸ். சத்திய
மூர்த்தியின் நண்பர் தான் படத் தயாரிப்பாளர் அஸன்தாஸ்.</p>

<p>     இந்தத் தகவலைக் கூறியிருப்பவர் கே.பி. சுந்தராம்~
பாள்: ""எங்கள் தேனாம்பேட்டை வீட்டுக்கு ஒரு நாள்
காங்கிரஸ் தலைவர் சத்தியமூர்த்தி அவர்களும் தயாரிப்~
பாளர் அஸன்தாசும் வந்தார்கள். அப்போது நான் பிரபல
பத்திரிகையாளரும் தேசபக்தருமான ஜி.ஏ. நடேசனின்
வீட்டுக்குப் போயிருந்தேன். என் தாய்மாமனிடம்,</p>

<p>-47-</p>

<p>என்னை, `நந்தனார் படத்தில் நடிக்க ஏற்பாடு செய்ய
முடியுமா?' என்று அஸன்தாஸ் கேட்டாராம்.""</p>

<p>     மகாத்மா காந்தியின் தீண்டாமை ஒழிப்புக் கொள்~
கையை விளக்க 1935-ல், கே.பி. சுந்தராம்பாளை,
காங்கிரஸ் தலைவர் எஸ். சத்தியமூர்த்தியின் சிபாரிசுடன்
நடிக்க வைத்து `நந்தனார்' படத்தை உருவாக்கியவர்
அஸன்தாஸ்.</p>

<p>     எனவே - பாரதியாரின் பெயரை மறைக்க வேண்டு~
மென்பது அஸன்தாசின் நோக்கமாக இருந்திருக்காது...</p>

<p>     `நவயுவன்' பாட்டுப் புத்தகத்தில் பாரதியார் பெயர்
மறைக்கப்பட்டதன் காரணம் என்னவாக இருக்கும்?</p>

<p>     அடுத்த அ஥்தியாயத்தில் காணலாம்.</p>

<p>-48-</p>

<p>     பாரதி பாடல்களுக்குத்
     தடையும்....
     தடையை எ஥ிர்த்துப்்
     போராட்டமும்</p>

<p>     ஆண்டு - 1920; டிசம்பர் 17-ம் நாள் முதல் 1923
நவம்பர் 11-ம் நாள் வரையில் சென்னை ராஜதானியில்
முதலாம் ஜஸ்டிஸ் கட்சி மந்திரி சபை ஆட்சி நடத்தியது.
அப்போது, `பனகல் மகாராஜா' பி. ராமராய நிங்கர்
பொறுப்பில் இருந்தபோது, 1922-ல், மகாகவி பாரதி~
யாரின் பாடல்கள் பள்ளிக் கூடங்களில் சொல்லித் தருவது
தடை செய்யப்பட்டது.</p>

<p>     19-11-1923 முதல் 3-12-1926 வரை பனகல் மஹா~
ராஜா பி. ராமராய நிங்கர் தலைமையிலேயே ஜஸ்டிஸ்
கட்சியின் ஆட்சி சென்னை ராஜதானியில் நடந்த஼து.</p>

<p>     1925-ல் பிரிட்டிஶ் ஏகாதிபத்திய ஆ஠்சி `இரட்டை~
யாட்சி'ச் சலுகையை அறிவித்தது.</p>

<p>     `இரட்டையாட்சி'யை ஏற்றுக் கொள்வது பற்றி
காங்கிரஸ் கட்சிக்குள் அப்போது கருத்து வேற்றுமை
உருவாகி வளர்ந்தது.</p>

<p>     ""தேர்தலைப் பகிஶ்கரிக்க வேண்டும்; ஒத்துழையாமை
இயக்கத்தை வலுவாக முன்னெடுத்துச் செல்ல வேண்டும்!""</p>

<p>-49-</p>

<p>என்னும் கருத்துடைய குழுவினர்க்கு சக்கரவர்த்தி ராஜ
கோபாலாச்சாரியார் தலைமை தாங்கினார்.</p>

<p>     ""தேர்தலில் பங்கேற்க வேண்டும்! சட்டமன்றம் செல்ல
வேண்டும்! உள்ளிருந்து போராட வேண்டும்!"" என்஖ின்ற
கருத்துடையோரின் தலைவராக எஸ். சத்தியமூர்த்தி விளங்~
கினார். காங்கிரசுக்குள், 1923-க்குப் பின்னர், எஸ். சத்திய
மூர்த்தியின் `சு௟ராஜ்யக் கட்சி' செல்வாக்கு பெறத்
தொடங்கியது. திருச்செங்கோட்டில் ஆ஛ிரமம் தொடங்கி
`மதுவிலக்கு', `தீண்டாமை ஒழிப்பு' ஆ஖ியவற்றில் ராஜாஜி
கவனம் செலுத்தலானார்.</p>

<p>     1926 பொதுத் தேர்தலின் முடிவுகள் இவ்வாறாக
இருந்தன; சுயராஜ்யக் கட்சிக்கு - 23 தொகுதிகள்; ஜஸ்டிஸ்
கட்சிக்கு-17 தொகுதி஖ள்; எதிலும் சாராது எந்த
நேரத்திலும் கட்சி மாறத் தயாராக இருந்தோருக்கு-58
தொகுதிகள்!</p>

<p>     இந்த நிலைமையில்-</p>

<p>     ""சுயராஜ்யக் கட்சி மந்திரிசபை அமைக்கலாகாது""
என்று காங்கிரஸ் மேலிடம் வலியுறுத்தியதால், டாக்டர்
பி. சுப்பராயன் தலைமையில் `சுயேச்சை மந்திரி சபை'
என்று சொல்லப்பட்ட `சமஶ்டி அரசு' ஛ென்னை ராஜ~
தானியில் ஆட்சி பீடத்தில் ஏறியது. அந்த மந்திரிசபையில்
சத்தியமூர்த்தியின் சுயராஜ்யக் கட்சியினர் இருவர் கட்சித்
தாவல் செய்து ""மந்திரிகளானார்கள்""! டாக்டர்
பி. சுப்பராயனின் மந்திரிசபை 26-10-1930 வரை நீடித்~
திருந்தது. 1928-ல் சைமன் கமிஶன் சென்னைக்கு வந்த
போது டாக்டர் சுப்பராயன் அ஥னை வரவேற்றார்.</p>

<p>     அப்போது, பிரிட்டிஶ் இந்தியாவின் ஒரு மாகாண~
மாக இருந்த பர்மாவில், பாரதியின் பாடல்களில் `ராஜத்~
துவேஶமான கருத்துக்கள்' இருப்பதாகக் கூறி 1928 ஆகஸ்ட்
7-ம் நாள் பாரதியாரின் `ஸ்வதேச கீதங்கள்' நூலுக்குத்
தடை விதிக்கப் பட்டது.</p>

<p>-50-</p>

<p>     அதே ஆண்டு செப்டம்பர் 11-ம் நாள், சென்னை
ராஜதானி அரசாங்க கெஸட்டில் - `பாரதி பாடல் நூல்கள்
தடை' செய்யப்பட்டுள்ளதாக உத்தரவு வெளியிடப்பட்டது.</p>

<p>     பாரதி பாடல் நூல்களைப் பறி முதல் செய்யும்படி
சென்னை ராஜதானி மாஜிஸ்திரேட் உத்தரவிட்டார்.</p>

<p>     சென்னை நகரப் போலீஸார் `பாரதி பாடல் நூல்'
இரண்டாயிரம் பிரதிகளைக் கைப்பற்றினர்.</p>

<p>     `பாரதி பாடல் நூல்' பறிமுதலுக்குக் கண்டனம் தெரி~
வித்து 1928 அக்டோபர் மாதம் 8-ம் தேதியன்று சென்னை
சட்டசபையில் ஒரு ஒத்திவைப்புப் பிரேரணை கொண்டு
வந்தார் எஸ். சத்தியமூர்த்தி மறுநாள் அவரே அந்த
விவாதத்தைத் தொடங்கி வைத்தார்.</p>

<p>     பிரேரணை மீது வாக்கெடுப்பு நடந்தது. காங்கிரஸ்
தலைவர் சத்தியமூர்த்தி உள்ளிட்ட 76 உறுப்பினர்கள்
பிரேரணைக்கு ஆதரவாக, அதாவது பாரதி பாடல்
தடைக்கு எ஥ிராக வாக்களித்தனர்.</p>

<p>     பனகல் மகாராஜா பி. ராமராய நிங்கர், சர்
ஏ.பி. பாட்ரோ, பி.டி. ராஜன், டபிள்யூ.பி.ஏ. சவுந்திர
பாண்டிய நாடார் உள்ளிட்ட ஜஸ்டிஸ் கட்சித் தலைவர்~
களும் டாக்டர் திருமதி முத்துலட்சுமி ரெட்டியும் சத்திய
மூர்த்தி பிரேரணைக்கு ஆ஥ரவாக (பாரதி பாடல் தடைக்கு
எ஥ிராக) வாக்களித்தனர்.</p>

<p>     எ஠்டு ஆங்கிலேய உறுப்பினர்கள் உட்பட, திவான்
பகதூர் எம். கிருஶ்ணன் நாயர், ராவ் பகதூர் சி.வி. அனந்த
கிருஶ்ண அய்யர், ராவ் சாகிப் ஆர். சீனிவாசன் ஆ஖ியோர்
பாரதி பாடலுக்கு எதிராக தடையை ஆதரித்து வாக்~
களித்தனர் (12 வாக்குகள்).</p>

<p>     பாரதி பாடல் நூல் பறிமுதல் பற்றிய தீர்மான஼த்தின்
மீது ஆதரவோ எ஥ிர்ப்போ தெரிவிக்காமல் முதல் அமைச்சர்
டாக்டர் பி. சுப்பராயன், மந்திரி முத்தையா முதலியார்,</p>

<p>-51-</p>

<p>எம்.ஏ. மாணிக்க வேலுநாயக்கர் உள்ளிட்ட 15 பேர்
நடுநிலை வகித்தனர்.</p>

<p>     பாரதி பாடல் நூல் பறிமுதலுக்கு எ஥ிராக சென்னை
உயர் நீதிமன்றத்தில் நடைபெற்ற வழக்கில், `பாரதி
பாடல்கள் தேச விரோதமானவை அல்ல' என்று தீர்ப்பு
சொல்லப்பட்டது.</p>

<p>     சட்டமன்றத்தில், தீரர் சத்தியமூர்த்தியின் தீர்மானம்
வெற்றி பெற்றாலும், உ௟ர்நீதி மன்ற வழக்கில் வெற்றி
பெற்றாலும் இந்தியாவில் அப்போதிருந்தது - பிரிட்டிஶ்
ஆ஠்சிதானே...?</p>

<p>     அந்த ஆ஠்சி, ""வெளிநாடுகளிலிருந்து புரட்சிகரப்
படங்களை இறக்குமதி செய்வதைத் தடுக்கவும், உள்
நாட்டில் தொழிலாளர் - விவசாயிகளின் அமைதியின்மையை
சித்திரித்து படங்கள் தயாரிக்கப்படாமல் ஒடுக்கவும்
மகத்தான அக்டோபர் புரட்சிக்குப் பின் அவசர அவசர~
மாக, 1918-ல் திரைப்படத் தணிக்கைச் சட்டத்தைப்
பிரகடனப்படுத்தியது"" என்கிறார் திரைப்பட வரலாற்று
ஆ௟்வாளர் ஹமீதுதீன் மஹ்மத்.</p>

<p>     வெள்ளையர் ஆ஠்சியில், பாரதியார் பாடல்களைத்
திரைப்படங்களில் பயன்படுத்துவதற்குத் துணிவு மிக்க
தேச பக்தி தேவைப்பட்டது.</p>

<p>     1937-ன் `நவயுவன் - அல்லது - கீதா சாரம்' படத்தில்
பாரதியார் பெயரைக் குறிப்பிடாமல் அவரது பாடல்
பயன்படுத்தப்பட்டது. பாரதி பாடலொன்று திரைப்~
படத்தில் ஒலித்தது அது இரண்டாவது தடவையாகும்.</p>

<p>-52-</p>

<p>     தமிழ் சினிமாவில்
     முதன் முதலில்
     பாரதி பாடல்....</p>

<p>     பாரதி பாடல் முதன் முதலில் த஼மிழ் சினிமாவில்
ஒலித்தது - 1935-ல்; `மேனகா' என்னும் படத்தில்.</p>

<p>	""வராகஸ்வாமி என்னும் ஓர் வாலிப சென்னை
     வக்கீல், தன் சகோதரிகளைத் திருப்தி செய்யும்
     பொருட்டு நிரபராதியான தன்னுடைய மனைவி
     மேனகாவைத் துன்புறுத்தி வருகிறார்... இ஫்படியிருக்஼க
     வராகஸ்வாமிக்கு மறு விவாகம் செய்வதென்றும்,
     மேனகாவை நைனா முகம்மத் என்னும் ஓர் கெட்ட நட~
     வடிக்கையில் பழகின சிறுவனுக்கு 5000 ரூபாய்க்கு விற்று
     விடுவதென்றும் சாமா அய்யர் என்னும் ஓர் அதமனால்
     செய்யப்பட்ட யோசனையை சகோதரிகள் அங்கீகரிக்~
     கிறார்கள். அவ்விதமே மேனகாவை ஏமாற்றி
     அழைத்துப் போய் நைனா முகம்மதுவுக்கு விற்று
     அவளை அங்கேயே சிறைப்படுத்தி தங்கள஥ு துராலோ~
     சனையை நிறைவேற்றிக் கொள்கிறார்கள். மேனகா
     தன் துர் எண்ணத்துக்கு இண஁ங்க மறுப்பதைக் கண்டு
     நைனா முகம்மது அவளைப் பலாத்காரம் செய்ய
     ஆரம்பிக்கிறான். தன் கற்பிற்கு அழிவு நேரிடும் என்று
     கண்ட மேனகா தன்னைக் கத்தியால் குத்திக் கொள்ள
     முயலுகிறாள். அ஫்போது தெய்வ வசத்தால் நைனா</p>

<p>-53-</p>

<p>     முகம்மதின் மனைவி நூர்ஜஹான் தெய்வம் போலத்
     தோன்றி அதைத் தடுக்கிறாள்...""</p>

<p>     -இவ்வாறு செல்லும் `மேனகா திரைக் கதையில்
(கதை - வடுவூர் துரைஸ்வாமி அய்யங்கார்) திடீரென்று
ஒரு பள்ளிக் கூடக் காட்சியை இணைத்தார்கள்,
டி.கே. சண்முகம் சகோதரர்களும் படத்தின் இயக்குநர்
பி.கே. ராஜா சாண்டோவும்.</p>

<p>     பள்ளிக் கூடத்தின் மாணவிகள் ஓர் பாடலை,
சேர்ந்திசையாகப் பாடுகிறார்கள்.</p>

<p>     அ஥ு, ""பாரதியார் பாடல்"" என்று துணிவோடு
பாட்டுப் புத்தகத்தில் விளம்பரமும் செய்தார்கள் படத்தைத்
தயாரித்த திருப்பூர் சண்முகானந்தா டாக்கீ கம்பெனியினர்.</p>

<p>     டி.கே. சண்முகம் சகோதரர்கள் விருதுநகரில்
நாடகங்கள் நடத்திக் கொண்டிருந்தார்கள். அ஫்போது
அங்கே காங்கிரஸ் கட்சியின் பொதுக் கூட்டம் ஓர் நாள்
நடந்தது.</p>

<p>     ""தேச பக்தர் சத்தியமூர்த்தி ஒரு சிறந்த கலா ரசிகர்,
பம்மல் சம்பந்தனார் நாடகங்களில் நடித்தவர். `மேனகா'
படம் சென்னையில் திரையிடப்பட்ட போது ஒருநாள்
சத்தியமூர்த்தி தலைமை தாங்கினார். படத்தில், ""வாழ்க
நிரந்தரம், வாழ்க ஥஼மிழ் மொழி வாழி வாழியவே""
என்னும்் மகா கவி பாரதியாரின் பாடலைச் சேர்த்திருந்~
தோம். இந்தப் பாடல்தான் முதல் முதலாகத் திரைப்படத்~
தில் பாடப் பெற்ற பாரதியார் பாடல். இந்தப் பாடலை
படத்தில் சேர்த்திருந்தது குறித்து சத்தியமூர்த்தி வெகு~
வாகப் பாராட்டினார். அ஥ன் பிறகு கரூரில் ஒருமுறை
நான் அவரை கே.பி. சுந்தராம்பாள் அம்மையாருடன்
சந்தித்தபோது `மேனகா' படத்தைப் பிரமாதமாகப்
பாராட்டினார். அவரோடு எனக்கு ஏற்கனவே பழக்கம்
இருந்ததால் அவரது வேண்டுகோளின்படி விருதுநகர்
பொதுக் கூட்டத்தில் கலந்து கொண்டு அரை மணி நேரம்</p>

<p>-54-</p>

<p>பாரதி பாடல்களையும், ப. ஜீவானந்தம் பாடல்களையும்
பாடினேன். நான் பாடிக் கொண்டிருக்கும் போதே நேருஜி
வந்து விட்டார். அவரோடு திருமதி கமலா நேருவும்
செல்வி இந்திராவும் வந்தனர்"" - என்று டி.கே. சண்முகம்
கூறியுள்ளார்.</p>

<p>     நாடக மேடையில், தங்களது `தேசபக்தி' என்னும்
நாடகத்தின் மூலம் முதன் முதலில் பாரதியார் பாடல்~
களை முழக்கிய டி.கே. சண்முகம் சகோதரர்கள் தான்
சினிமாவிலும் `பாரதி பாடலை முதல் முதலில் முழக்கிய~
வர்கள்' என்ற வரலாற்றுச் சிறப்பையும் பெற்றார்கள்.</p>

<p>     தமிழகத்தின் நாடக மேடையிலும் திரைப்படங்~
களிலும் சுதந்திரப் போராட்ட முழக்கங்கள், எந்த
வடிவிலேனும் ஒலிக்கக் காரணமாக இருந்தவர்கள்-</p>

<p>     வெ. சாமிநாத சர்மா
     எஸ். சத்தியமூர்த்தி
     வ. ராமஸ்வாமி (வ.ரா.)
     ப. ஜீவானந்தம்</p>

<p>     -போன்ற தலைவர்கள்; இவர்கள் தமிழகத்தின்
கலைஞர்களோடு நல்லுறவு கொண்டு அவர்களது முயற்சி~
களைப் பாராட்டி ஊக்குவித்தார்கள்.</p>

<p>     இப்போதைய தென்னிந்திய திரைப்பட வர்த்தக
சபை தோன்றுவதற்குக் காரணமாக இருந்தவர் - காங்கிரஸ்
தலைவர் எஸ். சத்தியமூர்த்தி.</p>

<p>     `முதலாவது, சென்னை மாகாண சினிமா மாநாடு'
1936-ம் ஆண்டு டிசம்பர் மாதம் 19, 20, 21 தேதிகளில்
சென்னை கோகலே ஹாலில் நடைபெற்றது; அ஥ன்
பிரதான பேச்சாளர் - எஸ். சத்தியமூர்த்தி.</p>

<p>     ""இந்தியாவையும் இந்திய மக்களையும் ஏளனமாகச்
சித்திரிக்கும் ஆங்கிலப் படங்கள் அமெரிக்கா, இங்கிலாந்து
போன்ற நாடுகளில் தயாரிக்கப்பட்டு இந்தியாவில் திரையிடப்பட்டு</p>

<p>-55-</p>

<p>வருவதை அரசாங்கம் அனுமதிக்கலாகாது""
என்று, அந்த மாநாட்டில் பேசும்போது சத்தியமூர்த்தி
கண்டனம் செய்தார்.</p>

<p>-56-</p>

<p>     அந்நியர் கலாச்சாரத்தை
     எதிர்த்துப் போராட்டம்....</p>

<p>     அமெரிக்கா, இங்கிலாந்து போன்ற மேற்கத்திய நாடு~
களின் திரைப்படங்களால் வேறொரு ஆபத்தும் இந்தியா~
வில் விளைந்து வந்தது.</p>

<p>     புற்றீசல் போல படையெடுத்து இறக்குமதியாகிக்
கொண்டிருந்த அமெரிக்கத் திரைப்படங்களைத் தடுத்து,
தனது இங்கிலாந்து தேசத்தின் படங்கள் மட்டுமே இந்தியா~
வில் திரையிடப்படுவதற்கு ஏற்பாடு செய்ய வேண்டுமெனக்
கருதி, பிரிட்டிஶ் அரசாங்கம் 1927-ம் ஆண்டிலேயே
டி. ரங்காச்சாரியார் தலைமையில் `இந்திய சினிமாட்டோ~
கிராபி கமிட்டி'யை நியமித்தது. அரசாங்கத்தின் நோக்கம்
என்னவாக இருந்ததோ, டி. ரங்காச்சாரியார் கமிட்டி அந்த
நோக்கத்திற்குத் துணை செய்யாமல் தனது அறிக்கையை
வெளியிட்டது.</p>

<p>     ""மேற்கத்திய நாடுகளின் திரைப்படங்களால், இந்தியர்
ரசனை பாழ்பட்டது; கலாச்சாரத்தில் பாதிப்பு ஏற்படு~
கிறது"" - என்று டி. ரங்காச்சாரியார் கமிட்டி அறிக்கை
வைத்தது. ""இந்தியாவில் பெருமளவு அமெரிக்கத் திரைப்~
படங்கள் காட்டப்படுவது தேசிய நலனுக்கு ஆ஫த்தான஥ு;
அதைப் போலவே இ஥ர மேற்கத்திய நாடுகளின் படங்கள்
பெருமளவில் திரையிடப்படுவதும் பெருமளவில் ஆபத்~
தானது"" என்றது டி. ரங்காச்சாரியார் கமிட்டி அறிக்கை.
1927-ல் அறிக்கை வெளிவந்ததும் நிலைமையில் மாறுதல்
ஏற்படவில்லை.</p>

<p>-57-</p>

<p>     மேற்கத்திய படங்களோடு போட்டி போட வேண்டிய
நிர்ப்பந்தம் இந்திய சினிமாவுக்கு (தமிழ் சினிமாவுக்கும்
தான்) ஏற்பட்டது. அந்தப் போட்டியின் விளைவால்
அவற்றைப் போலவே சில இந்தியப் படங்களும் தயாரிக்கப்
படலாயின.</p>

<p>     `மிஸ். கமலா', `மிஸ் சுந்஼தரி' என்னும் பெயர்களில்
தமிழ்ப் படங்கள்஼; `மெட்ராஸ் மெயில்', `டேஞ்சர் சிக்னல்'
என்னும் பெயர்களில் தமிழ்ப் படங்கள்; `மிஸ் சுந்தரி',
`சதி லீலாவதி' தமிழ்ப் படங்களில் கிள஫் டான்சுகள்...</p>

<p>     அத்தோடு-</p>

<p>     தமிழ்ப் படமொன்றில், தமிழ்ப் பெண்ணொருத்தி
சிகரெட் புகைத்தாள்.</p>

<p>     விடுதலைக்கான முழ஖்கங்களைத் திரைக்குக் கொண்டு~
வரப் போராடிக் கொண்டிருந்த நமது கலைஞர்கள் `மேற்~
கத்திய மயமாகும் கலாச்சாரச் சீரழிவை'யும் எதிர்த்துப்
போராட நேர்ந்தது.</p>

<p>     ரத்னாபாய் என்னும் அந்நாளைய பிரபல நடிகை
`ஆனந்த விகடன்' பேட்டியில், அப்போது சொன்னார்:
""நம் யோசனைகளை டைரக்டர்கள் எ஠ுத்துக் கொள்~
கிறார்களா? ஓர் உதாரணம் சொல்கிறேன். `டம்பாச்சாரி'
(தமிழ்ப் படத்தில்) தாசி சிகரெட் குடிக்கிறாள். ""நம்
ஊரில் தாசிகள் சிகரெட் குடிப்பது வழக்கமில்லை"" என்று
எங்கள் டைரக்டருக்கு எ஠ுத்துச் சொன்னேன். அ஥ுவும்
டம்பாச்சாரி வாழ்ந்த காலத்தில் சிகரெட் என்றாலே என்ன~
வென்றே தெரியாது என்றேன். ஆனால் டைரக்டர்
அந்த வார்த்தைகளை எ஠ுத்துக் கொள்ள மறுத்துவிட்டார்.
சிகரெட் குடித்தால் தான் நன்றாக இருக்கும் என்றார்.""</p>

<p>     (`டம்பாச்சாரி' படம் 1935-ல் வெளிவந்தது; சிகரெட்
புகைக்கும் தாசியாக ரத்னாபாயின் சகோதரி சரஸ்வதிபாய்
நடிக்க நேர்ந்தது.)</p>

<p>-58-</p>

<p>     `மேற்கத்திய மயமாக்கும் கலாசாரச் சீரழிவை' எதிர்க்~
கும் கதையமைப்புடன் 1934-ல் `இந்திரா எம்.ஏ.' என்~
றொரு இந்திப்படம் வந்தது. `இங்கிலாந்து ரிட்டர்ண்ட்'
மற்றொரு ஊமைப் படத்தையே 1921-ல் டி.ஜி. கங்குலி
என்னும் வட இந்தியர் தயாரித்திருந்தார்.</p>

<p>     1937-ம் ஆண்டில் மேலும் சில படங்களில் விடுதலைப்
போரின் தேசபக்த முழக்கங்கள்...</p>

<p>-65-</p>

<p>     அ஥ிவிரைவாகவே
     அரிஜன சேவை</p>

<p>     இலக்கியப் பத்திரிகையான `மணிக்கொடி'யின் 1936
டிசம்பர் 15 இ஥ழில் இந்த விளம்பரம்-</p>

<p>	""வாழ்க்கைக்குப் பொருத்தமாகப் பிடிக்கப்பட்ட
     ஒரு ஹரிஜனச் சிறுமியின் கதை, `ஹரிஜனப் பெண்
     லட்சுமி'; கீதங்கள் - இடையக் கோட்டை சமஸ்தான
     வித்வான் தேசிய கவி பூமிபாலகதாஸ்""</p>

<p>     இது சமகாலத்தின் கதை; சமூகப் படம்; திரைக்கதை-
டைரக்ஶன் - சி.வி. ராமன் பி.ஏ., எல்.எல்.பி.; ஹரிஜனப்
பெண் லட்சுமியாக நடித்தவர் - எம்.எஸ். விஜயாள்.
இந்த நடிகையும், டைரக்டரும் இப்படத்தைக் கூட்டாகத்
தயாரித்தார்கள் என்றோர் தகவல். இப்படம் 1937-ல்
திரைக்கு வந்தது.</p>

<p>	""ஜமீன்தாருக்கு ஒரு மருமகன் இருக்கிறான்.
     சீமையிலிருந்து திரும்பி வரும்பொழுது முழுவதும்
     மேனாட்டு நாகரீகத்துடன் வருகிறான். மாமனாராகிய
     ஜமீன்தாருடன் வசிக்க நேர்ந்த மருமகன் அக்கிராமத்~
     தில் நவநாகரீகங்களைப் புகுத்த முயற்சிக்கிறான்.
     இவனுக்காக ஒரு புது அரண்மனை கட்டப்படுகிறது.
     கட்டிடத்திற்கு வேண்டிய சாமான்களெல்லாம் அரு~
     காமையிலுள்ள பட்டணங்களிலிருந்து மோட்டார்
     லாரிகளில் கொண்டு வரப்படுகின்றன. அவற்றை வாங்குவதற்குப்</p>

<p>-66-</p>

<p>     பணத்துக்குப் பதிலாக கிடங்கிலுள்ள நெல்
     முதலிய தானியங்கள் கொடுக்கப்படுகின்றன. இ஥னால்
     கிராம மக்கள் பசியால் வாட நேர்ந்தது.</p>

<p>	""இவ்வித மாறுதல் அக்கிராமத்து சக்கிலி ஒருவனை
     மிகவும் பாதிக்கிறது. தொழிற்சாலைகளிலிருந்து யந்தி~
     ரங்கள்௃ மூலம் தயாரித்து விற்கப்படும் சரக்குகளின்
     போட்டியினால் அவனது சரக்குகள் விலையாகாமல்
     போகின்றன. அவனுக்கு வேறு எந்தவித வேலையும்
     கிடைக்காமல் பட்டினியால் வியாதியுறுகிறான்...</p>

<p>	""மன வேதனையினால் அவன் வெறுந்தரையில்
     உயிர் துறக்கிறான். அவனுடைய சவச் சடங்குகளுக்~
     காக அவனது மகள் லட்சுமி தனது புடவையை ஒரு
     மார்வாரியிடம் அ஠கு வைக்கிறாள்.""</p>

<p>     ""ஹரிஜனப் பெண் லட்சுமி"" திரைக்கதை இவ்வாறு
செல்கிறது.</p>

<p>     லட்சுமியும் அவளுடைய தங்கையும் அனாதைகளா~
கிறார்கள்.</p>

<p>     ""பசியோடு சுற்றித் திரிந்த லட்சுமி ஒரு பாதிரியார்
வீட்டருகே மயக்கமடைகிறாள். அந்தப் பாதிரியார்
லட்சுமியைத் தூக்கி வந்து, தன் வீட்டில் வைத்து, அவளைக்
கவனித்துக் கொள்ளுமாறு தனது மனைவியிடம் சொல்லு~
கிறார். அங்கு அவள் தனது மதத்தை விட்டு கிறிஸ்தவ
மதத்தில் சேரும்படிக் கேட்கப்படுகிறாள். அ஥ற்கு அவள்,
""நான் தரித்திரத்தில் எவ்வளவு கஶ்டப்பட்டாலும் என்னு~
டைய மதத்திலிருந்து மாறமாட்டேன்"" என்று சொல்லு~
கிறாள்.""</p>

<p>     பாதிரியார் வீட்டிலிருந்து லட்சுமியும் தங்கையும்
வெளியேறுகின்றனர். பல ஊர்கள்; பல கஶ்டங்கள்; இறுதி~
யில் மாங்காய் திருடியதாக லட்சுமியின் மீது பொய்க்
குற்றம் சாட்டி சிறையில் அடைக்கப்படுகிறாள்.</p>

<p>-67-</p>

<p>     அந்த வழக்கில், லட்சுமிக்காக வாதாடிய மேல்ஜாதி
வக்கீல் அவளைக் காதலிக்கிறார்.</p>

<p>     லட்சுமி, ஜாதியை எண்ணி, அவரது காதலை மறுக்கி~
றாள்.</p>

<p>     ""ஆதியில் ஈசன் படைத்த பொழுது, ஜாதியும் வித்யாஸ~
மும் ஏது சொல்வாய்?"" என்று பாட்டுப் பாடி தனது
நியாயத்தை விளக்குகிறார் வக்கீல்.</p>

<p>     லட்சுமி சம்மதிக்கிறாள்.</p>

<p>     -என்று வக்கீலும் லட்சுமியும் ""டூயட்"" பாடு~
கின்றனர்; கதை முடிகிறது.</p>

<p>     இப்படத்தில் கலப்பு மணம் செய்து கொள்ளும் வக்கீ~
லாக நடித்தவர் செருகளத்தூர் சாமா.</p>

<p>     `மணிக்கொடி' இ஥ழில் இந்தப் பாராட்டுரை-</p>

<p>     ""மணிக்கொடி"" ஏ஠்டில் பாராட்டியவர்-""ஸஞ்சயன்.""</p>

<p>     ""கல்கி"" கிருஶ்ணமூர்த்தி எழுதினார்: ""அப்பழுக்குச்
சொல்ல முடியாதபடி, தமிழ் டாக்கியில், முதன்முதலாக
வெற்றி பெற்றிருப்பது இந்த சரோஜாக் கண்ணு தான்.</p>

<p>-68-</p>

<p>இந்தக் குழந்தையின் நடிப்பில் எங்கேயாவது ஓரிடத்தில்
விரசமாக இருந்தது, இயற்கைக்கு மாறாக இருந்தது
என்று சொல்வதற்கு இடமிருக்க வேண்டுமே? கிடையாது?""</p>

<p>     பாராட்டைப் பெற்றவர் - பேபி சரோஜா; பாராட்டை
வாங்கிக் கொடுத்தவர் - டைரக்டர் கே. சுப்ரமணியம்...</p>

<p>     தீண்டாமையை எதிர்த்தும், இந்து விதவைப் பெண்~
களின் துயரத்தை விளக்கியும் டைரக்டர் கே. சுப்பிர~
மணியம், 1936-ல் தயாரித்து 1937-ல் வெளியிட்ட, பேபி
சரோஜா நடித்த, அந்தப் படத்தின் பெயர் - `பாலயோகினி.'</p>

<p>     கே. சுப்ரமணியம் பற்றியும் `பாலயோகினி' படம்
பற்றியும் அவரது மகன் எஸ். கிருஶ்ணசாமி கூறுகிறார்-</p>

<p>     ""1920-களின் பிற்பகுதியிலேயே ஊமைப் படக் காலத்தி~
லேயே, சம காலத்துச் சமூகம் பற்றிய கவனம் என் தந்தை~
யிடம் ஏற்பட்டது. புராணப் படங்களால் ஆ஖்கிரமிக்கப்பட்~
டிருந்த ஒரு சகாப்தத்தில் இவரது படங்கள் சமகாலத்துக்
கதைக் கருவில் கவனம் செலுத்தின. 1930-களில் அவர்
தனது சில புரட்சிகர எண்ணங்களுக்கு வடிவம் கொடுத்~
தார். `பாலயோகினி' படத்தில் பொதுவில் அவமதிப்புடன்
நடத்தப்படும் பிராமண விதவையைச் சித்திரித்தார்;
ஜாதியை நையாண்டி செய்தார்; இந்தியாவில் தனது
வேர்களை இழந்து கொண்டிருந்த மேற்கத்தியமயமாகிப்~
போன உ௟ர் சமூகத்தைக் கிண்டல் செய்தார்; அதேபோல
முற்போக்கான மாறுதலின் பாய்ச்சலுக்குத் தனது கதவு~
களை மூடிக் கொள்ளும் பிரபலமான பாரம்பரியச் சமூகத்~
தையும் அவர் ஏளனம் செய்தார். ஏராளமான குழந்஼தை~
களை நடிகர்களாகக் கொண்டிருந்த `பாலயோகினி' படம்
அனைத்து அம்சங்களிலும் வெற்றி பெற்றது. லாபகரமான
வழக்குரைஞர் தொழிலை விட்டு விட்டு சினிமாவுக்கு
வந்ததன் மூலம் ""வைதீகப் பிராமண சமூகத்தை அசுத்தப்~
படுத்திவிட்டார்"" என்று அவர் மீது அவப்பெயர் பதிந்தது.
ஜாதி எதிர்ப்புப் படத்தை, 1936-ல் தயாரித்ததன் மூலம்</p>

<p>-69-</p>

<p>எரிகிற தீயில் எண்ணெய் வார்த்தது போலாயிற்று.
மழுங்கச் சிரைத்த தலையுடனும் வெள்ளைச் சேலையுட~
னும் இருந்த நிஜமான பிராமண விதவையொருவரையே
அந்தப் பாத்திரத்தில் நடிக்க வைத்஦தன் வாயிலாக,
நிலைமையை, அவர் மேலும் மோசமடையச் செய்தார்.
வைதீகப் பிராமணர் குழுவொன்று தஞ்சாவூரில் கூடி,
`சுப்ரமணியம் ஜாதிப் பிரஶ்டமானவர்' என்று பிரகடனப்
படுத்தியது.""</p>

<p>     `பாலயோகினி' படத்தின் கதைச் சுருக்கம் இ஥ு-</p>

<p>     ""மிஸ்டர் கோபால் எம்.ஏ.!, பாவம் நாளடைவில்
அவர் கோபாலய்யர் ஆ஖ிவிட்டார். வயிற்றுக்குச் சோறிட
அவருக்கு வேலை கிடைக்கவில்லை. போதாக்குறைக்கு
அவரையும் குழந்தை ஸரஸாவையும் பரிதவிக்க விட்டுவிட்டு
அவர் மனைவியும் இறந்து போனாள். வேலையில்லாத
கோபாலய்யருக்கு விஶம் போலக் க஠ன் ஏறிக்கொண்டு
வந்தது.</p>

<p>     ""கடன்கார மஹாலிங்க சாஸ்திரி அமீனா சிப்பந்தி
சகிதம் வந்து, கோபாலய்யர் வீட்டில் ஜப்தி செய்து,
சாமன்஖ளை அ஫்புறப்படுத்துகிறார். அப்பொழுது தான்,
சம்பள பாக்கிக்காக பள்ளிக்கூடத்தினின்றும் அனுப்பப்பட்டு
விட்ட ஸரஸா வீடு திரும்புகிறாள்.</p>

<p>     ""எல்லாமிழந்த தந்தையின் கஶ்டத்தைக் காணச் சகி~
யாத ஸரஸா, அவரது பால்ய சிநேகிதரான அவ்வூர்
சப்-கலெக்டர் பாலசந்திராவைக் காணச் செல்கிறாள்.
பால்ய நட்பை எண்ணியாவது தன் தந்தைக்கு ஒரு வேலை
பார்த்துத் தருவார் என்று நினைத்தாள் அவள்.</p>

<p>     ""வாசலில் காவலிருந்த முனுசாமியை மெள்ள ஏமாற்றி
விட்டு, சப்-கலெக்டரின் அறைக்குள் மெதுவாக எட்டிப்
பார்த்தாள்.</p>

<p>     ""பாலசந்திரா, லேடி டாக்டரான மிஸஸ் புல்லக்~
குடன் வெகு சல்லாபமாக இருந்த சமயம் அது. வந்தது</p>

<p>-70-</p>

<p>வெறி துரைக்கு உந்தித் தள்ளினார் ஸரசாவை. முனிசா~
மியை நையப் புடைத்து வேலையிலிருந்து நீக்கினார்.</p>

<p>     ""தள்ளப்பட்ட வேகத்தில், பக்கத்து அறையில் வந்து
வீழ்ந்து கிடந்த ஸரஸாவை, சப்-கலெக்டரின் குழந்தை
சரோஜாவும் மருமகள் கமலாவும், விதவைச் சகோதரி
ஜானகி அம்மாளும் ஆசுவாசப்படுத்தி உபசரிக்கின்றனர்.
இதைக் கண்ட கலெக்டர் துரை இன்னும் வெறி கொண்டு
தன் சகோதரி ஜானகி அம்மாளை அவள் குழந்தை கமலா~
வுடன் வீட்டைவிட்டு வெளியேற்றுகிறார்.</p>

<p>     ""அமீனாவைத் தாக்கிய குற்றத்திற்காக கோபாலய்யர்
போலீஸாரால் கைது செய்யப்படுகிறார்.</p>

<p>     ""தந்தையைக் காண போலீஸ் ஸ்டேஶனுக்கு ஸரஸா
போகிறாள். தன் தந்தையைக் காண சப்-இன்ஸ்பெக்ட~
ரிடம் அனுமதி கேட்கிறாள். சப்-இன்ஸ்பெக்டர் மறுக்~
கிறார். சர்க்கார் உத்தியோகஸ்தரை ஹிம்ஸித்தால்
தனக்கும் ஜெயில் வாசம் கிடைக்கும், ஥ன் தந்தையுடன்
ஜெயிலில் சேர்ந்து இருக்கலாம், என்று கருதிய ஸரஸா
சப்-இன்ஸ்பெக்டரின் கையை நறுக்கென்று கடித்து விடு~
கிறாள். சவுக்கினால் ஸரஸாவை அடித்து வெளியே
தள்ளுகிறார் சப்-இன்ஸ்பெக்஼டர்.</p>

<p>     ""ஜானகி அம்மாள், கமலா, ஸரஸா மூவரும் இனி
தங்களுக்கு முனுசாமி தான் கதியென்று கருதி அவனிடம்
போகிறார்கள்.</p>

<p>     ""ஜானகியம்மாள் - ஒரு பிராமணப் பெண். அ஥ிலும்
கைம்பெண். அவள் கீழ்சாதி முனுசாமி வீட்டில் இருப்பதா?
தாயற்ற அவனது கைக் குழந்தையை ஜானகியம்மாள்
எ஠ுத்து வளர்ப்பதா? பிராமண சமூகத்தில் ஒரே கலவரம்.
மஹாலிங்க சாஸ்திரி தலைமையில் பிராமணர்கள் ஒன்று
கூடி முனிசாமி வீட்டிற்கு தீவைத்து விடுகின்றனர்.""</p>

<p>     ""முனுசாமி வீட்டில் போய் ஸரஸா பசிக்கிறது என்~
கிறாள். ""அம்மா நீ பிராமணக் குழந்தை அல்லவா?""
என்று முனுசாமி கேட்கிறான். ""பசிக்கிறதென்றால்</p>

<p>-71-</p>

<p>எல்லோருக்கும் ஒன்றுதானே மாமா!"" என்கிறாள் ஸரஸா""
என்கிறது `மணிக்கொடி' ஏட்டின் விமர்சனம்.</p>

<p>     ஜாதி எதிர்ப்பு, தீண்டாமை ஒழிப்பு, வேலையில்லாத்
திண்டாட்டம் ஆ஖ியவற்றோடு அரசாங்க இயந்திரத்தின்
அதிகாரிகளான சப்-கலெக்டர், சப்-இன்ஸ்பெக்டர்
ஆ஖ியோர் மீது வெறுப்புக் கலந்த விமர்சனத்தையும்
கொண்டிருந்த இப்படத்தின் கதையை டைரக்டர்
சுப்பிரமணியமே எழுதியிருந்தார்.</p>

<p>     (சப்-கலெக்டராக கே.பி. வத்ஸல்; கோபாலய்யராக
பரதா; முனுசாமியாக சி.வி.வி. பந்துலு; விதவை
ஜானகியம்மாளாக விதவை சீதாலட்சுமியம்மாள், ஸரஸா~
வாக பால சரஸ்வதி, சரோஜாவாக பேபி சரோஜா
நடித்திருக்கின்றனர்.)</p>

<p>     ""எல்லாம் புதிது! என்றும் கண்டிராதது! பாரத
மக்கள் அவசியம் பார்க்க வேண்டியது! இந்திய நாட்டின்
இன்றைய எல்லா பிரச்சினைகளையும் எ஠ுத்துக்காட்டுவது
டி.ஆர். சுந்தரம் பி.ஏ., பி.எஸ்சி (லீட்ஸ்) டைரக்ட்
செய்த `பத்ம ஜோதி' சமூக தமிழ்ப் படம்"" என்ற
விளம்பரத்துடன் 1937-ல் மாடர்ன் தியேட்டர்ஸ் தயாரித்த
படம் ஒன்று...</p>

<p>     கதை: பத்மா என்னும் குயவர் பெண்ணுக்கும் ஜோதி
நாதன் என்னும் மேல் ஜாதி இளைஞனுக்கும் காதல்;
இ஥ில் ஒரு பாடல்:</p>

<p>-72-</p>

<p>     1937 அக்டோபர் 10ந் தேதி `ஆனந்த விக஠ன்'
இதழில் `பத்ம ஜோதி' பட விமர்சனம்; காதல் காட்சி
ஒன்றில் `இந்தியாவே இந்தியாவே' என்ற பாடல் பாடப்~
பட்டதாக அந்த விமர்சனத்தில் ஒரு தகவல். காதல்
காட்சியில் காதலன் ஜோதிநாதன் பாடிய அந்தப் பாடல்
இ஥ுதான்:</p>

<p>     இந்த `பத்ம ஜோதி' படத்துடன், சுதேசிய இயக்கப்
பிரச்சாரத்திற்கு உ஥வக்கூடிய, செய்திப் படமொன்று
தயாரிக்கப்பட்டு திரையிடப்பட்ட செய்தி ஒரு சினிமாப்
பத்திரிகையில் காணப்படுகிற஥ு-</p>

<p>	""சேலம் மாடர்ன் தியேட்டர்ஸார், சேலத்தில்
     சமீபத்தில் நடந்த அ஖ில இந்திய சுதேசிக் கண்~
     காட்சித் திறப்புவிழா செய்திப் படமாக எ஠ுத்திருப்பது
     மிகவும் வரவேற்கத் தக்கது. தென்னிந்தியாவில்
     நடந்த விழாவைப் படம் எ஠ுத்திருப்பது இ஥ுவே முதல்
     தடவையாகும். இ஛்செய்திப் படமானது காங்கிரஸ்</p>

<p>-73-</p>

<p>     பிரச்சார நோக்கம் கொண்டதல்லவெனினும் கண்~
     காட்சி வைபவங்களைச் சித்தரித்துக் காட்டுவதாகவும்,
     ஶ்ரீ.வி.வி. கிரியின்் உணர்ச்சி பொருந்திய பிரசங்~
     கத்தை மக்களுக்குக் காட்டுவதாகவும் இருக்கிறது.
     ஒரு அ஖ில இந்தியத் தலைவர், சினிமாவின் மூலம்
     பிரசங்்கம் செய்வது இ஥ுவே முதல் தடவை என்று
     நினைக்கிறோம். விழாவில், ஶ்ரீ கோவை அய்யா முத்து
     ஶ்ரீ கிரியின் பிரசங்கத்தை தமிழில் மொழி பெயர்த்துச்
     சொல்கிறார். சென்னையிலும் வெளியூர்களிலும் இது
     மாதிரியாகப் படம் பிடிக்கக் கூடிய சம்பவங்கள்
     நிகழ்ந்திருந்தும் நம் ஸ்டூடியோக்காரர்கள் இ஥ுவரை~
     யில் பயன்படுத்திக் கொள்ளாமலிருக்கையில், இ஛்
     செய்திப்படத்தை எ஠ுத்து வழிகாட்டியிருக்கும் சேலம்
     மாடர்்ன் தியேட்டர்ஸார் மிகவும் பாராட்டுக்குரிய~
     வர்களே. இ஥் துண்டுப் படம் இவர்களுடைய `பத்ம
     ஜோதி'  தமிழ் சமூகப் படத்துடன் சென்னை கெயிட்டி
     டாகீஸில் 11-ம் தேதி முதல் காட்டப்படுகிற஥ு.""</p>

<p>-84-</p>

<p>     சேவா சதனம்....</p>

<p>     சுதந்திரப் போராட்டக் காலத்தில், அ஫் போராட்டத்~
தினூடேயே, சமூகத் தீமைகளுக்கு எதிரான இயக்கங்களும்
சமமான அளவில் நிகழ்ந்தன என்று தேசிய வரலாறு
நினைவூட்டுகின்றது.</p>

<p>     தீண்டாமை ஒழிப்பு, மதுவிலக்கு, சுதேசி இயக்கம்
ஆகியவற்றோடு பெண்களுக்கு எ஥ிரான சமூகக் கேடுகளை~
யும் கண்டித்துக் குரல் எழுப்பப் பட்டுள்ளது.</p>

<p>	""கணவனிடம் மனைவி அளவுக்கு அதிகமாக
     அடங்கி நடக்க வேண்டும் என்றும் தனக்குத் தனித்வம்
     இல்லாமல் அவள் கணவனுக்குள் ஒடுங்கிவிட வேண்டும்
     என்றும் ஹிந்துக் கலாச்சாரம் விதித்தது தவறாகும்.
     இ஥ன் விளைவாக, கணவன் சில சமயங்களில்
     அளவுக்கு மீறிய அ஥ிகாரத்தை மேற்கொண்்டு அதை
     மிகுந்த மிருகத்தனமாகப் பிரயோகிக்க நேருகிறது.""</p>

<p>	""கணவன் ஒரு தெய்வம் என்றால், மனைவியும்
     ஒரு தேவதை தான். அவள் அடிமை அல்ல; சம உரிமை~
     களைக் கொண்ட தோழியும் - துணைவியும் ஆவாள்
     அவள்.""</p>

<p>	""கேவலமான வரதட்சிணை வழக்கத்துக்கு
     எ஥ிராக வலிமை வாய்ந்த பொதுஜன அபிப்பிராயத்தை
     உருவாக்க வேண்டும்.""</p>

<p>     -என்று, மகாத்மா காந்திஜி, சுதந்திரப் போராட்டக்
காலத்தில் இடைவிடாது எழுதி வந்தார்.</p>

<p>-85-</p>

<p>     இந்தக் கருத்துக்கள் நமது இந்திய இலக்கியத்தில்
எ஥ிரொலித்தன.</p>

<p>     இந்தக் கருத்துக்களை மையமாகக் கொண்டு `சேவா
சதனம்' என்ற நாவலை பிரேம்சந்த் எழுதினார்.</p>

<p>     இதே காலத்தின் கலை - இலக்கியச் சூழல் பற்றி,
திரைப்படத் திறனாய்வாளர் ரகுநாத் ரைய்னா, பின்வரு~
மாறு வருணிக்கிறார்-</p>

<p>	""...இதே நேரத்தில், அரசியல் தீவிரத்தன்மை
     அடைந்து கொண்டிருந்தது. மேற்கிலிருந்து இறக்குமதி~
     யான சமரஸம் - ஜனநாயகம் ஆ஖ிய லட்சியங்களுக்கு
     அப்பால், சோவியத் யூனியனில் நிகழ்ந்து கொண்டிருந்த
     சோஶலிஸப் பரிசோதனைகளால் இந்தியர்கள் கவரப்~
     பட்டார்கள். அரசியல் அகராதியில் `சோஶலிஸம்'
     என்ற சொல்லை பண்டிட் ஜவஹர்லால் நேரு அறி~
     முகம் செய்தார். அந்தச் சிந்தனை, அறிவு ஜீவிகளிடம்
     பாதிப்பை ஏற்படுத்தியது. இ஥ன் காரணமாக
     காங்கிரஸில் இ஠துசாரிகள் வளர்ந்தார்கள்; இந்திய
     கம்யூனிஸ்ட் கட்சி சூல் கொண்டது. காலத்தின்
     உணர்ச்சிகளை இலக்கியம் பிரதிபலிக்கத் தொடங்கி~
     யது. தேசத்தின் மிகச்சிறந்த நாவலாசிரியரான
     பிரேம்சந்த் உள்பட பல புகழ்பெற்ற எழுத்தாளர்கள்
     ஒன்று கூடி `முற்போக்கு எழுத்தாளர் சங்க'த்தைத்
     தோற்றுவித்தார்கள். அவர்கள் வெளியிட்ட பிரகடனம்
     `கலை கலைக்காகவே' என்ற கண்ணோட்டத்தை
     நிராகரித்தது. ""மனித ஆன்மாவை மேன்மைப்
     படுத்துவதே இலக்கியம்"" என்று அந்தப் பிரகடனம்
     வலியுறுத்தியது. கலைக்கும் சமூகத்திற்குமுள்ள நெருக்க~
     மான பிணைப்பை அந்தப் பிரகடனம் சுட்டிக்
     காட்டியது...""</p>

<p>     முற்போக்கு எழுத்தாளர் சங்கத்தின் தலைவர்களில்
ஒருவரான முன்ஶி பிரேம்சந்த் எழுதிய `சேவா சதனம்'
நாவலை தமிழாக்கம் செய்து, அம்புஜம்மாள், `ஆனந்த
விகடன்' ஏட்டில் தொடர்கதையாக எழுதினார்.</p>

<p>-86-</p>

<p>     அந்தக் கதையை, அதே பெயரில், திரைக்கதையாக்கி,
வசனம் எழுதி, டைரக்ட் செய்து, 1938-ல் வெளியிட்டார்
கே. சுப்ரமணியம்.</p>

<p>     வரதட்சிணை கொடுக்க வழியற்ற ஓர் இளம் பெண்,
சுமதி, முதியவர் ஈஸ்வர சர்மாவின் இரண்டாம் தார~
மாக வாழ்க்கைப்படுகிறாள்.</p>

<p>     அழ஖ிய இளம் மனைவி மீது ஈஸ்வர சர்மாவுக்கு
அடிக்கடி சந்தேகம் ஏற்படுகிறது.</p>

<p>     ஒரு நாள், சுமதியை அடித்து வீட்டிலிருந்து விரட்டு~
கிறார் ச஼ர்மா.</p>

<p>     நள்ளிரவில் அநாதையாகத் தெருவிலே விடப்பட்ட
சுமதி, தாஸி கமலேஶ்குமாரியால் ஆ஥ரிக்கப்பட்டு,
சுமதிபாய் என்கிற பெயரில் பாடகியாகப் பெரும் புகழ்
பெறுகிறாள்.</p>

<p>     தன் மனைவி மீது தான் கொண்டிருந்த அபிப்ராயம்
தவறான஥ு என்று தெரிய வந்ததும், அவளுக்கு இழைத்த
கொடுமைகளுக்காக தன்னையே நொந்து கொண்ட ஈஸ்வர
சர்மா தனது பூணூலை அறுத்தெறிகிறார்.</p>

<p>     கே. சுப்ரமணியத்தின் `சேவாசதனம்' படம் பற்றி
கல்கி கிருஶ்ணமூர்த்தி எழுதியுள்ள விமர்சனத்தின் மூலம்
கதையின் முடிவைத் தெரிந்து கொள்ள முடிகிறது.</p>

<p>     ""ஒரு நாள் தேச சேவிகா என்ற சங்கத்தைச் சேர்ந்த
கோஶ்டியினர் ராம நாம பஜனை செய்து கொண்டு
போனார்கள். இது சமதியின் கவனத்தைக் கவர்ந்தது.
அந்தக் கோஶ்டியின் தலைவர் தான் - ஸ்வாமி ஈஸ்வர
சர்மா. அவர் யார் என்பது தெரியாமல் அவரிடம்
சென்று, ""என் மனம் நிம்மதியடைய ஒரு வழி
சொல்லுங்கள்"" என்று கேட்கிறாள். அவர் சுமதியைத்
தெரிந்து கொண்டு, தாம் யார் என்பதைச் சொல்லி
விட்டு, தம்மை மன்னிக்கும்படி கேட்டுக் கொள்கிறார்.</p>

<p>-87-</p>

<p>பிறகு இருவரும் தேச சேவகமே தொழிலாகக் கொள்~
கிறார்கள்.""</p>

<p>     சுமதியாக - எம்.எஸ். சுப்புலட்சுமியும், ஈஸ்வர சர்மா~
வாக எஃப்.ஜி. நடேசய்யரும் நடித்தனர்.</p>

<p>     ""ஹிந்தி ஆ஛ிரியர் கதை எழுதியது, தமிழ் டைரக்டர்
அதை சினிமாவுக்குத் தழுவி எழுதியது, வட நாட்டு
நடிகை ஶ்ரீமதி ராம்பியாரி, கன்னட ஶ்ரீமதி ஜயலட்சுமி
வரதாச்சார், ஆந்திர வரலட்சுமி, அமெச்சூர் நடிகர்
ஶ்ரீ எப்.ஜி. நடேசய்யர், சங்கீதம் ஶ்ரீமதி சுப்புலட்சுமி
ஆகியவர்கள் நடித்தது... இப்படியாகப் பல அம்சங்கள்
சேர்ந்தது ஒரு அபூர்்வமான டாக்கியாக இருக்க வேண்டு~
மல்லவா? மொத்தமாக இந்த டாக்கியைப் பற்றி இரண்டே
வார்த்தைகளில் முடிவாகச் சொல்லிவிட வேண்டுமானால்
""போய்ப் பாருங்கள்"" என்று சொல்வேன்""</p>

<p>     -என்று, `சேவா சதனம்' பட஼த்தைப் பாராட்டி
எழுதிய கல்கி கிருஶ்ணமூர்த்தி இதே `சேவா சதன஼ம்'
மாதிரியிலேயே பெண்ணுரிமை, தேச சேவகம் ஆ஖ியவற்~
றோடு தீண்டாமை எதிர்ப்பு ஆ஖ிய கொள்கைகளை
வலியுறுத்தி ஒரு திரைக்கதையை அப்போது எழுதிக்
கொண்டிருந்தார்.</p>

<p>     அது பற்றிய செய்தி, `ஆனந்த விகடன்' 14-8-1938
இதழின் சினிமாப் பகுதியில் காணப்படுகிறது: ""ஶ்ரீமதி
எஸ்.டி. சுப்புலட்சுமி, பாபநாசம் சிவன், பேபி சரோஜோ
இந்த மூன்று நட்சத்திரங்களும் பிரகாசிப்பதற்காக என்றே
`கல்கி' இக்கதையைச் சிருஶ்டித்திருக்கிறார்...""
      </p>

<p>               0 
</p></body></text></cesDoc>