<cesDoc id="tam-w-socsci-law-satta1" lang="tam">
<cesHeader type="text">
<fileDesc>
<titleStmt>
<h.title>tam-w-socsci-law-satta1.txt</h.title>
<respStmt>
<respType>Electronic file created by</respType>
<respName>Central Institute for Indian Languages, Mysore</respName>
<respType>transferred into Unicode and CES format by</respType>
<respName>"Unicodify" software by Andrew Hardie</respName>
</respStmt></titleStmt>
<publicationStmt>
<distributor>UCREL (on behalf of CIIL)</distributor>
<pubAddress>Department of Linguistics, Lancaster University, Lancaster, LA1 4YT, UK</pubAddress>
<availability region="WORLD"></availability>
<pubDate>03-07-09</pubDate>
</publicationStmt>
<sourceDesc>
<biblStruct>
<monogr>
<h.title>சட்ட இயல்</h.title>
<h.author>மா. சண்முகசுப்பிரமணியம்</h.author>
<imprint>
<pubPlace>India</pubPlace>
<publisher>Unknown - Book</publisher>
<pubDate>1984</pubDate>
</imprint>
<idno type="CIIL code">satta1</idno>
</monogr></biblStruct></sourceDesc></fileDesc>
<encodingDesc>
<projectDesc>Text collected for the CIIL Corpus, subsequently integrated into the EMILLE/CIIL Monolingual Written Corpora.</projectDesc>
<samplingDesc>Simple written text only has been transcribed. Diagrams, pictures and tables have been omitted. Sampling begins at page 35.</samplingDesc>
<editorialDecl><conformance level="1"></conformance></editorialDecl>
</encodingDesc>
<profileDesc>
<creation><date>03-07-09</date></creation>
<langUsage>Tamil</langUsage>
<wsdUsage>
<writingSystem id="ISO/IEC 10646">Universal Multiple-Octet Coded Character Set (UCS).</writingSystem>
</wsdUsage>
<textClass>
<channel mode="w">print</channel>
<constitution type="composite"></constitution>
<domain type="public"></domain>
<factuality type="fact"></factuality>
</textClass>
<translations></translations>
</profileDesc>
<revisionDesc></revisionDesc>
</cesHeader>

<text><body>

<p>பக்கம்:43
மேலுறுத்தம் இல்லாமலேயே சட்டங்கள் இயங்க முடியும்.
ஆதலால், மேலுறுத்தம் என்பது இன்றியமையாததாக இருப்~
பினும், சட்டத்தின் இன்றியமையாப் பகுதி என்று கொள்வதற்~
கில்லை, என்கிறார் பிட்ஸ்ஜெரால்டு.</p>

<p>	வரலாற்று முறையில் சட்ட இயலை ஆய்ந்த ஆசிரியர்
மெயின் என்பார். சட்டம் என்பது அரசமைப்பிற்கு
முந்தியது என்பதை வலியுறுத்துகிறார். ஏற்கனவே, மக்களின்
சமய நம்பிக்கைகளாகவும், வழக்க நெறிகளாகவும் இருந்தன~
வற்றையே பிற்காலத்தில் அரசு சட்டவிதிகளாகச் செல்லுறுத்தின.
இவற்றையெல்லாம் அரசின் ஆணைகள் என்று கூறுவது
வரலாற்றுக்கு முரண்பட்டது என்கிறார்.</p>

<p>	`அரசாண்மையர் இல்லையேல் சட்டம் இல்லை',
என்ற ஆஸ்டின் கொள்கையை ஆசிரியர்
மெயின் ஏற்பதில்லை. ""பஞ்சாப் நாட்டில் அரசு புரிந்த இரஞ்சித்~
சிங் என்ற வீரன் சட்டம் எதையும் இயற்றவில்லை. வழக்க
நெறிகளையும் சமயப் பழக்கங்களையும் மட்டுமே சட்டங்களாக
அவன் செல்லுறுத்தி வந்தான்"", என்கிறார்.</p>

<p>	சட்டத்தின் வரலாற்று நிலையை விட்டு விட்டு, இன்றைய
நிலையை மட்டுமே எடுத்துக் கொண்டாலும் மேலுறுத்தம்
ஒன்றையே சட்டத்தின் மையமாகக் கொள்ளுவதற்கில்லை
என்கிறார் சால்மண்ட்: சட்டத்தின் குறிக்கோள் நீதி. எனவே,
நீதியுணர்வு உள்ள மக்கள் சட்டவிதிகளுக்கு இயல்பாகவே
பணிந்து நடக்கின்றனர். எனவே, ""சட்டம் என்பது ஒழுக்க நெறி
மட்டும் அன்று; ஒறுத்தல் முறை மட்டும் அன்று; அறநெறியும்
மறவலியும் இசைந்து நிற்கின்றன சட்டத்தில். அரசின் குரலாக நீதி
ஒலிப்பதே சட்டமாகும்"" என்கிறார் சால்மண்ட்.</p>

<p>	`சட்டம்', `நீதி' என்ற இரு சொற்களும் இணைந்தே
வருகின்றன. `நல்லது', `தீயது', `கடமை' போன்ற சொற்கள் சட்டத்~
திற்கும் ஒழுக்கத்திற்கும் பொதுவானவை. இவ்வாறு, அறத்தின்
அடிப்படையில் முளைத்து இயங்கும் சட்டம் அரசின் வலிமை
என்ற ஆற்றலையும் பெற்று நிற்கிறது. எனவே, அறத்தைச்
சட்டத்திலிருந்து முழுதுமாக அகற்றிவிட்டுச் சட்டத்திற்கு
விளக்கம் காண்பது தகாது என்று ஆஸ்டினின் கொள்கையில்</p>

<p>பக்கம்:44
குறை காண்கின்றார் சால்மண்ட்.</p>

<p>	`சட்டம்', என்பது `கட்டுறுத்தும் ஆணை' என்ற கொள்கை
குற்றஇயல் விதிகளுக்கு முற்றும் பொருந்துவதாகும் என்பார்கள்.</p>

<p>	ஆழ்ந்து சிந்தனை செய்தால் நாம் ஓர் உண்மையினை
உணரலாம்.</p>

<p>	சட்டம் என்ற கருத்தமைவிற்கு ஆஸ்டின் தந்துள்ள
விளக்கத்தை எதிர்த்து எழுந்துள்ள வாதங்கள் அனைத்துமே
சரியானவை என்று கூறுவதற்கில்லை. சட்டத்தில் அறத்தின் நேர்மை
உள்ளது என்பதும், நீதிபதிகளும் சட்டக் கொள்கைகளைத் தீர்ப்~
புகளின் வழி வகுக்கின்றனர் என்பதும், அரசமைப்பு தோன்று~
வதற்கு முன்னரே மக்களைக் கட்டுப்படுத்திய நெறிகள் இருந்தன
என்பதும், மேலுறுத்தமே சட்டத்தின் மையம் அன்று என்பதும்
ஆசிரியர் ஆஸ்டின் அறியாதன அல்ல. ஆனால், இன்று நாம்
சட்டம் என்றுசுட்டும் கருத்தமைவின் சிறப்புக் கூறுகளை விளக்கும்
வகையில் தான் அதை `அரசாண்மையரின் ஆணை' என்றும்,
`மேலுறுத்தம் உடையது' என்றும் கூறுகின்றார்.</p>

<p>	பட்டுப்பூச்சியை ஒருவர் `அழகான வண்ணச்சிறகுகளுடன்
பறக்கும் உயிரினம்' என்று வருணிக்கிறார் என்று வைத்துக்
கொள்வோம். பட்டுப்பூச்சி புழுவாக இருந்த நிலைக்கு இந்த
வருணனை பொருந்துவது இல்லைதான். அந்நிலையில் அது
பறப்பதும் இல்லை; அழகிய வண்ணச்சிறகுகளும் அதற்கு இல்லை.
ஆனால், இன்றைய நிலையில் உள்ள பட்டுப்பூச்சிக்கு அந்த
வருணனை பொருந்துவதேயாகும். அது போன்றே, அறிஞர்
ஆஸ்டின் சட்டத்திற்குக் கொடுத்துள்ள வரைவுரை சட்டத்தின் வளர்
நிலைகள் அனைத்திற்கும் பொருந்துவதில்லை என்று கூறலாம்.
ஆயினும், இன்றையச் சட்டத்திற்குப் பொருந்தாதது என்று அதைக்
குறைகூறி ஒதுக்குவதற்கில்லை.</p>

<p>""நீதி வழங்குவதற்கு உதவுவதே சட்டம்"" என்ற கொள்கை</p>

<p>	அரசாண்மையரின் ஆணையே சட்டம் என்று ஆஸ்டின்
கூறுகின்றார். ஆஸ்டினைப் பொறுத்து அந்த அரசாண்மை
என்பது சட்டமன்றத்தில் உள்ளது. ஆனால், நிகழ்வுநிலைக்
கொள்கையர்க்கு அந்த அரசாண்மை அமைந்துள்ளது
நீதிமன்றத்தில்தான்; சட்டமன்றத்தில் அன்று.</p>

<p>	""நீதி மன்றங்கள் தங்கள் முன்வரும் வழக்குகளைத் தீர்க்கும்</p>

<p>பக்கம்:45
வகையில் தீர்ப்புகளில் என்னென்ன விதிகளை ஏற்றுக்கொண்டு
செல்லுறுத்துகின்றனவோ அவையனைத்தையுமே `சட்டம்' என்ற
சொல் குறிக்கின்றது"" என்கிறார் சால்மண்ட்.</p>

<p>	நீதிமன்றங்கள் சட்டத்தின் அடிப்படையில்தானே நீதி
வழங்குகின்றன? சட்டங்களைச் செல்லுறுத்துவதுதானே நீதி~
மன்றங்களின் கடமை? இயற்றப்பட்ட சட்டங்கள் இல்லையெனில்
நீதி வழங்க இ௟லாதே? இந்நிலையில் நீதிமன்றங்களால் ஏற்றுக்
கொள்ளப்பட்ட விதிகளே `சட்டம்' என்பது பொருந்துமா?
இத்தகைய வினாக்கள் எழலாம்.</p>

<p>	இயற்றப்பட்ட சட்டங்கள் இல்லாத காலத்திலே கூட நீதி~
மன்றங்கள் இயங்கின என்பதை நாம் மறப்பதற்கில்லை. ஆதிகால
நீதிமன்றங்கள் நன்மனச்சான்றின் அடிப்படையிலேயே
தீர்ப்புகளை வழங்கின. எனவே, சட்டம் என்பது நீதி முறைக்கு
முந்தியது அன்று.</p>

<p>	தற்காலத்திலுங்கூட நீதி வழங்குவதற்குச் சட்டங்கள் உதவி
செய்கின்றன என்பது உண்மைதான். ஆயினும், சட்ட
மன்றங்களால் இயற்றப்பட்ட சட்டங்களில் ஒரு வழக்கைத் தீர்ப்~
பதற்கான விடை கிடைக்காத நிலையில், நீதிபதிகள் அந்த
வழக்கைத் தீர்ப்பதற்கென ஒரு சட்டக் கொள்கையினை
வகுக்கின்றனர். அக்கொள்கைகள் பிற்காலத்தில் வரும்
வழக்குகளில் பின்பற்றப்படுகின்றன. வழக்கநெறிகளில் கூட
எந்தெந்த நெறிகளைச் சட்டமாக ஏற்றுக் கொள்வது என்பதை
நீதிமன்றங்களே தீர்மானிக்கின்றன. இவ்வாறு எழும் தீர்ப்பு
நெறிகள் பலவும் சட்டவிதிகளாக மலர்கின்றன.</p>

<p>	எனவே, ""வளர்ச்சி பெற்ற நீதிமுறையின் பயனாகவே பல
சட்டவிதிகள் பிறக்கின்றன. ஆதலால், சட்டவிதிகள் பலவும் நீதி~
முறைக்கு முந்தியன அல்ல, நீதிமுறையின் விளைவாகவே அவை
தோன்றுகின்றன"" என்கிறார் சால்மண்ட்.</p>

<p>	மேலும், சட்டத்தின் குறிக்கோள் நீதியேயாகும். நீதியின்
கருவியாகவே சட்டம் இயங்குகிறது. ஆ஥லால்தான், சட்டத்தைப்
பின்பற்றி வழங்கப்படும் நீதிமன்றத்தீர்ப்புகளை நாம் சட்டத்
தீர்ப்புகள் என்று கூறாமல், நீதித்தீர்ப்புகள் என்றே கூறுகிறோம்.</p>

<p>பக்கம்:46
எனவே, சட்டத்தை நீதியின் கருவி என்றுதான் கூறவேண்டுமே
தவிர, சட்டத்தின் குறிக்கோளான நீதியை மறந்துவிட்டுச்
சட்டத்திற்கான இலக்கணத்தைக் கூறமுற்படுதல் தகாது.</p>

<p>	இயற்றப்பட்ட சட்டங்களை நீதிபதிகள் கடைப்பிடிக்க
வேண்டும் என்பது அவர்களுக்குற்ற ஒழுக்கக் கட்டுப்பாடு
என்பதைத் தவிர, அவர்கள் அச்சட்டவிதிகளைப்
புறக்கணித்துவிட்டால் அவர்களை ஒன்றும் செய்வதற்கில்லை
என்கிறார் சால்மண்ட். சட்டத்தைப் புறக்கணித்த தீர்ப்பு
செல்லுரிமை அற்றுப்போவதில்லை. உச்சநீதிமன்ற நீதிபதிகள்
தங்கள் ஒழுக்கக் க஼ட்டுப்பாட்டில் தவறாது, தங்கள் மனச்சான்றின்
வழிநின்று தீர்ப்புகளை வழங்குகின்றனர். இந்நிலையில் அத்~
தீர்ப்புகளுக்கு இயைந்த விதிகளை ஏற்றுக்கொள்வதும்
இயற்றுவதும் அந்நீதிபதிகளின் கடமையே ஆகின்றது. இவ்வாறு
அவர்கள் ஏற்றுக் கொண்ட சட்டவிதிகளே சட்டம் ஆகின்றன.
எனவே, ""நீதிபதிகள் ஏற்றுக்கொள்வதாலேயே சட்டம், சட்டம்
ஆகின்றது"" என்கிறார் சால்மண்ட்.</p>

<p>	மேலே கூறப்பட்ட காரணங்களைக்காட்டி ஆ஛ிரியர்
சால்மண்ட் சட்டத்திற்கான இலக்கணத்தைக் கூறுகின்றார். ""நீதி~
மன்றங்களால் ஏற்கப்பட்டுச் செல்லுறுத்தப்படும் விதிகளின்
தொகுப்பே சட்டம்"" என்கிறார்.</p>

<p>	நிகழ்வுநிலையின் அடிப்படையில் தான்
சட்டத்திற்கான இலக்கணத்தைக் காணவேண்டும் என்று கூறும்
ஐக்கிய அமெரிக்க நாட்டு அறிஞர்கள் சால்மண்டின் கூற்றையே
வேறு காரணங்களுக்காக ஆதரிக்கின்றனர். அமெரிக்க நீதிபதி
ஹோம்ஸ் என்பார் இக்கொள்கையை விளக்கும் விதம் இது.
சட்டத்தை மீறித் தன்னலம் பேணும் ஒரு தீயவன் எப்படி நடந்து
கொள்ளுகிறான்? சட்டமுரணான செயலைச் செய்வதற்கு முன்
அவன் சட்டப்புத்தகம் இதுபற்றி என்ன கூறுகிறது என்பதைப்
பார்ப்பதில்லை. மாறாக, இந்தக் குற்றத்தை இழைத்தால் நீதிமன்றம்</p>

<p>பக்கம்:47
என்ன செய்யும் என்பதையே இவன் கருத்தில்
கொள்ளுகிறான். சாதாரணமாக, சாலைப் போக்குவரத்து
விதிகளை மீறுவோர் பேசிக்கொள்ளுவதை நாம் கேட்கிறோம்.
`ஐம்பது ரூபாய்'... `ஆறுமாதம்' என்று பேசிக் கொள்வார்கள்.
இன்ன குற்றத்திற்கு ஐம்பது ரூபாய் அபராதமாக விதிக்கப்
படுகிறது: இன்ன குற்றத்திற்கு ஆறுமாதம் சிறைத்தண்டனை
விதிக்கப்படுகிறது என்பதை `ஐம்பது ரூபாய்' என்றும்
`ஆறுமாதம்' என்றும், குறிப்பிட்டுப் பேசிக் கொள்ளுகின்றனர்.
அந்தக் குற்஼றங்களுக்குச் சட்டத்தில் விதிக்கப்பட்டுள்ள அதிக
அளவு தண்டனை எவ்வளவு என்பதைப் பற்றி அவர்களுக்குத்
தெரியாது. அதைத்தெரிந்து கொள்ளவும் அவர்கள் முயலுவ~
தில்லை. அவர்கள் தெரிந்து கொள்வது, தெரிந்து கொள்ள
வேண்டியது நீதிமன்றம் விதிக்கும் தண்டனை எவ்வளவு
என்பதைப் பற்றித்தான். நீதிமன்றம் எப்படி இயங்கும் என்பதைச்
சட்டநூல்களில் இருந்தோ சட்ட வாசகங்களில் இருந்தோ நாம்
தெரிந்துகொள்ள முடிவதில்லை. நீதிபதிகள்தாம் சட்டத்தைப்
படித்து அதன் பொருளைக் கண்டு அதற்கேற்ப நீதி வழங்கு~
கின்றார். ""சட்டத்தில் உள்ள உயிரற்ற சொற்களுக்கு
உயிரேற்றுவது நீதி மன்றங்கள்தாம்"" என்கிறார் பேராசிரியர்
கிரே.</p>

<p>	எனவே, நிகழ்வுநிலை அடிப்படையில்
பார்த்தால் சட்டங்கள் அனைத்தும் நீதிபதிகளாலேயே ஆக்கப்~
படுகின்றன என்பது இவர்களின் கொள்கையாகும்.</p>

<p>	காரண காரிய அடிப்படையில் சட்டவினாக்களுக்கு
விடைகள் காணுவது இயலாது. சமுதாயம், அரசியல், ஒழுக்கம்,
இன்னும் பிற கூறுகள் இவற்றையெல்லாம் கவனத்திற்
கொண்டுதான் சட்டவினாக்களுக்கான விடைகளைக் காண
வேண்டியுள்ளது. எனவே, ""சட்டத்தின் உயிரோட்டம் காரண~
காரிய வாதத்தில் இல்லை; கனிந்த அனுபவத்திலேயே உள்ளது""
என்கிறார் அமெரிக்க நாட்டு நீதிபதி ஹோம்ஸ்.</p>

<p>	இயற்றப்பட்ட சட்டத்தில் உள்ளது ஒன்றாக இருக்கலாம்.
ஆனால், அது இயங்குவது வேறு விதமாக இருக்கலாம். எனவே,</p>

<p>பக்கம்:48
அமெரிக்க நாட்டுச் சட்டவியலறிஞர் எழுதப்பட்ட சட்ட விதி~
களைப் பற்்றி அக்கறை காட்டுவதே இல்லை. சமயச்
சார்புடன் பழைமையை விரும்பும் நீதிபதியின் தீர்ப்புக்கும்,
பழைமையை வெறுத்துச் சமுதாய மாற்றங் காண்பதில்
துடிப்புள்ள நீதிபதியின் தீர்ப்புக்கும் வேறுபாடு இருப்பது
இயல்பேயாகும். தொழிலாளர் சார்புடைய நீதிபதி, முதலாளிச்
சார்புடைய நீதிபதி என்ற இருவர் அணுகு முறையும் ஒன்றுக்~
கொன்று வேறுபட்டுத்தான் இருக்க முடியும்.</p>

<p>	எழுத்தில் உள்ள சட்டம் எடுபடாமல் போகலாம்
என்பதற்கு இந்தச் சிறு உதாரணம் போதுமானது. ஒரு கார்
ஒருவர் மீது மோதிக் காயத்தை விளைக்கிறது. காயப்பட்டவரின்
தற்கவனமின்மையால் தான் அந்த
விபத்து நிகழ்ந்தது என்பது மெய்ப்பிக்கப்பட்டால் காயப்
பட்டவருக்கு இழப்பீடு கொடுக்கப்பட வேண்டும் என்பது
சட்டம். ஆனால், நிகழ்வு நிலையில் என்ன நடக்கிறது?
காயப்பட்டவர் மீது கனிவு கொள்ளுகின்றனர் நீதிபதிகள்.
எனவே, காயப்பட்டவரின் கவனமின்மையை நீதிமன்றங்கள்
கருத்திற் கொள்வதில்லை. எப்படியும் காயப்பட்டு விட்டார்.
ஆதலால், அவருக்கு இழப்பீடு கொடுத்துத்தான் ஆக வேண்டும்,
என்ற இரக்க எண்ணத்தில் அவருக்கு இழப்பீடு அளித்துத் தீர்ப்பு
வழங்கப்படுகிறது. இவ்வாறு, தற்கவனமின்மை
என்ற சட்டக் கொள்கை நடைமுறையில் செயலற்றுப்
போகிறது. காரணம், நீதிபதிகளின் இரக்க உணர்வு.</p>

<p>	எனவே, நீதிபதிகளின் ""தீர்ப்புகள் எப்படி இருக்கும்
என்பதை ஊகித்துக் கூறுவது தான் சட்டம் ஆகின்றது""
என்கின்றனர் நிகழ்வு நிலைக் கோட்பாட்டினர்.</p>

<p>இக்கோட்பாடு பற்றிய ஆய்வுரை </p>

<p>	நீதிபதிகளின் தீர்ப்புகளை முன்னறிவதுதான் சட்டம்
என்ற கோட்பாடு எல்லாச் சூழ்நிலைகளுக்கும் பொருந்துவதன்று.</p>

<p>	ஒரு நாட்டின் அரசமைப்புச் சட்டம்
நீதிபதிகள் இட்டதே சட்டம் என்று கூறினால் இந்தக் கொள்கை
ஏற்புடையதாகலாம். ஆனால், சாதாரணமாக எந்த நாட்டிலும்
இத்தகைய வரம்பற்ற உரிமை நீதிபதிகளுக்கு இல்லை. இயற்றப்
பட்ட சட்டங்களுக்கு உட்பட்டே நீதிபதிகள் இயங்குகின்றனர்.</p>

<p>பக்கம்:49
இயற்றப்பட்ட சட்டம் நீதிபதிகளின் தீர்ப்புகளை ஊகித்துக்
கூறுவதில்லை. அத்தீர்ப்புகள் இவ்வாறு தான் இருக்க வேண்டும்
என்று வரையறுத்துக் கூறுகிறது.</p>

<p>	நீதிபதிகளின் தீர்ப்புகளை முன்னறிவது தான் சட்டம்
என்றால் சட்டத்திற்கு நிச்சயத் தன்மையே இல்லாது போய்
விடும். இது தான் சட்டம் என்று எவரும் கூற இயலாத நிலை
எழுந்து விடும்.</p>

<p>	நடைமுறையில் பார்த்தால் நீதிமன்றத் தீர்ப்புகளில்
பெரும்பாலானவை இயற்றப்பட்ட சட்டங்களைச் செல்லுறுத்தும்
வகையில்தான் வழங்கப்படுகின்றன. அச்சட்டங்களைப் பின்
பற்றியே வழக்குகள் அனைத்தும் தீர்க்கப்படுகின்றன. சட்டச்
சிக்கல்கள் எழுவதும், அதனால் இயற்றப்பட்ட சட்டத்திற்கு
நீதிமன்றம் பொருள் காணுவதும் மிகமிகச் சில வழக்குகளில்தான்
தேவைப்படுகின்றன. இவ்வாறு நீதிமன்றங்கள் பொருள்
காணுவது தீர்ப்புமுறைச் சட்டங்களாகக்
கொள்ளப்படுகின்றன. ஆனால், இவற்றின் அளவு மிகவும்
குறைவானது. இயற்றப்பட்ட சட்டங்களை ஒட்டிய தீர்ப்பு~
களோடு தீர்ப்புமுறைச் சட்டங்களை ஒப்பிட்டால் பின்னதன்
அளவு மிகவும் குறைவானது என்பது தெளிவாகும். இவ்வாறு
மிகக் குறைவான அளவில் தோன்றும் தீர்ப்புமுறைச் சட்ட
விதிகளை வைத்துக் கொண்டு, சட்டம் அனைத்துமே தீர்ப்பு~
களின் அடிப்படையில் எழுவன என்று கூறுவது நிகழ்வு நிலைக்கு
இசைந்தது அன்று என்கிறார் பிட்ஸ்ஜெரால்டு.</p>

<p>	எழுதப்பட்ட சட்டமும் இயங்குமுறைச்
சட்டமும் வேறுபட்டு இருப்பது உண்டு.
ஏனெனில், நீதிபதிகள் இயற்றப்பட்ட சட்டத்தை அவ்வாறே
செல்லுறுத்துவதில்லை. வழக்குகளில் உள்ள சூழ்நிலை, நீதிபதி~
களின் சமுதாயப் பின்னணி இவற்றுக்கு ஏற்பவே தீர்ப்புகள்
அமைகின்றன. இதை வைத்துக் கொண்டு சட்டம் எல்லாமே
நீதிபதிகள் கூறுவதுதான் என்று கொள்வது பொருந்தாது.</p>

<p>சால்மண்டின் சட்டக் கோட்பாடு</p>

<p>	""நீதிமன்றங்களால் ஏற்கப்பட்டுச் செயற்படுத்தப்படும்
விதிகளே சட்டம்"", என்று சால்மண்ட் கூறுவதை மறுத்து</p>

<p>பக்கம்:50
வாதங்கள் எழுப்பப்பட்டாலும் ஓர் உண்மையை நாம் மறந்து
விடுவதற்கில்லை.</p>

<p>	`சட்டம் என்பது நீதியின் கருவி' என்ற உண்மை உறுதிப்பட
ஒலிக்கின்றது சால்மண்டின் சட்ட இலக்கணத்தில்.</p>

<p>	மேலும் அவர் `சட்டம்' என்ற சொல்லைக் குறிப்பிட்ட
சட்டம் எதையும் ஂகுறிக்கும் வகையில் பயன்படுத்தவில்லை.
பொதுவான சட்ட நெறியினையே `சட்டம்' என்ற
சொல்லால் குறித்து அதற்கு இலக்கணம் கொடுத்துள்ளார்.</p>

<p>	சட்டங்களைச் செயற்படுத்துவதற்கே நீதிமன்றங்கள்
உள்ளன. சட்டங்களை ஒட்டி நீதி வழங்குவதே அவற்றின்
கடனாகும். இவ்வாறு இருக்க, நீதிமன்றங்கள்தாம் சட்டங்களின்
மூலங்கள் என்று கூறுவது பொருந்தாது என்பது சால்மண்டின்
கோட்பாட்டைக் குறைகூறுவோரின் வாதமாகும்.</p>

<p>	`மருந்து என்றால் என்ன?' என்ற வினாவிற்கு `மருந்து
என்பது மருத்துவரால் கொடுக்கப்படுவது' என்று விடையளித்~
தால் பொருந்துமா? அவ்வாறு தான் `நீதிமன்றம் ஏற்பது சட்டம்'
என்று கூறுவதாகும் என்கிறார் சட்ட இயலறிஞர் வினோகி~
ரடாப்.</p>

<p>	இயற்றப்பட்ட சட்டங்களின் அடிப்படையில்
இயங்குவதுதான் நீதிமன்றம். எனவே, சட்டம் முந்தியது;
நீதிமன்றம் பிந்தியது. ஆனால், சால்மண்டின் இலக்கணப்படி,
`பிந்திய நீதிமன்றம் முந்திய சட்டத்தைப் படைப்பது போல்
ஒலிக்கின்றது' என்பது அடுத்த மறுப்புரையாகும்.</p>

<p>	நாம் மேலே கண்டபடி, சட்டத்தின் பண்பும் பயனும்
நீதிதான் என்பதைக் கருத்தில் கொண்டால் நீதியின் அடிப்~
படையில் சட்டத்தின் இலக்கணத்தைக் காண்பது சட்டத்தின்
அடிப்படையான நேர்மையினை எடுத்துக் காட்டுவதாகிறது.
சட்டத்தின் வாசகத்தைவிட அதன் வண்ணத்தை-சட்டத்தின்
பதங்களை விட அவற்றின் பயனை எ஠ுத்துக் காட்டும் ஏற்றம்
உடையது சால்மண்ட் கூறியுள்ள இலக்கணம் எனலாம்.</p>

<p>தெளிந்த கொள்கை</p>

<p>	`சட்டத்தைப் பற்றிய தெளிந்த கொள்கை'
என்பதை வகுத்தவர் ஹேன்ஸ் கெல்சன்</p>

<p>பக்கம்:51
(1881-1973) என்ற பேராசிரியர். இவர் வியன்னா
பல்கலைக் கழகத்தில் சட்ட இயல் பேராசிரியராக இருந்தவர்.</p>

<p>	சட்டக் கொள்கை எதுவும் ச஼ட்டம் இன்று எப்படி
இருக்கிறது என்ற அடிப்படையில் அமைய வேண்டும்; சட்டம்
எப்படி இருக்க வேண்டும் என்ற அடிப்படையில் அமைவது
கூடாது. `சட்டம்', `சட்டம் பற்றிய கொள்கை' என்ற
இரண்டிற்கும் உள்ள வேறுபாட்டை நாம் நினைவிற் கொள்ள
வேண்டும். சட்டக் கோட்பாடு என்றால் அது எல்லாச் சூழ்~
நிலைகளுக்கும் எக்காலத்திற்கும் பொருந்தும் வகையில் இருக்க
வேண்டும். ஒழுக்க நெறி, அரசியல் நெறி, சமுதாய நெறி
இவற்றின் தாக்கங்கள் எ஥ுவும் இன்றிச் சட்டத்தை ஆய்தல்
வேண்டும். இதுவே, `தெளிந்த கொள்கை' என்பதன் அணுகு
முறையாகும்.</p>

<p>	பிற அறிவியல்களுக்கும் சட்ட இயலுக்கும் வேறுபாடு
உண்டு. காரண காரியத் தொடர்புகளை விளக்குவன சாதாரண
அறிவியல்கள். இன்ன விகிதத்தில் நீரியமும்
உயிரியமும் சேர்ந்தால் நீர் உண்டாகிறது என்ற காரண
காரியத் தொடர்பைக் கூறுவது அறிவியல்.
ஆனால், சட்ட இயல் கூறுவது இத்தகைய காரண காரியத்
தொடர்பை அன்று; சமுதாயத்தில் நிலவும் நெறிமுறைகளைக்
கூறுகிறது, சட்ட இயல். இன்னது நடந்தால் இன்னது விளைய
வேண்டும், எடுத்துக் காட்டாக, ஒருவன் திருடினால் அவன்
தண்டிக்கப்பட வேண்டும் என்ற வகையில் நெறிமுறைகளை
(norms) விதிக்கிறது சட்டம். திருட்டுச் செயல் புரிந்த ஒருவன்
தண்டனையில் இருந்து தப்பி விடலாம். இருப்பினும்,
`திருடினால் தண்டனை உண்டு' என்ற நெறிமுறை பொய்த்து
விடுவதில்லை.</p>

<p>	காரண காரிய இயல்பைக் கூறுவன பிற
அறிவியல்கள்; நெறி முறையின் இயல்பைக் கூறுவது
சட்ட இயல். எனவே, சட்ட இயல் என்பது `நெறி முறை இயல்'
என்கிறார் கெல்சன். ""பிற
அறிவியல் ஆய்வுகள், காரண காரியக் கொள்கையின்படி
உள்ளன; சட்டவியலின் ஆய்வு, நெறிமுறைக் கொள்கையின்படி
உள்ளது"", என்கிறார் அவர். `குற்றம் இழைத்தவருக்குத் தண்டனை
விதிக்கப்பட வேண்டும்', என்பது ஒரு நெறிமுறை `கடன்
பெற்றவர் அதைத் திரும்பிக் கொடுக்க வேண்டும்' என்பது ஒரு
நெறிமுறை `விதிக்கப்பட்ட வரி செலுத்தப்பட வேண்டும்'</p>

<p>பக்கம்:52
என்பது ஒரு நெறிமுறை. இவ்வாறு, `வேண்டும்', `வேண்டும்'
என்ற `வேண்டுறுத்தங்களை'க் கொண்டது
சட்ட இயல். இந்த வேண்டுறுத்தங்கள் சட்டப்படியானவையா
என்பதை எ஫்படிக் காணுகின்றோம்?.</p>

<p>	`குற்றம் இழைத்தவர் தண்டிக்கப்பட வேண்டும்' என்ற
வேண்டுறுத்தம் சட்டப்படியானது. ஏனெனில், அது குற்ற இயல்
சட்டத்தின் கீழ் எழுவது.</p>

<p>	`குற்ற இயல்' சட்டம் எப்படி எழுந்தது? அது சட்டமன்றத்~
தால் இயற்றப்பட்டது. சட்ட மன்றத்தால் இயற்றப்பட்டதால் `குற்ற
இயல்' சட்டம் சட்டத் தன்மை பெறுகிறது. `குற்ற இயல்' சட்டத்தில்
இருந்து எழுவதால், `குற்றம் இழைத்தவர் தண்டிக்கப்பட வேண்டும்'
என்ற வேண்டுறுத்தம் சட்டத் தன்மை உடையதாகின்றது. இவ்வாறு,
ஒரு சட்ட விதியின் செல்லுரிமை அதன் பின்னுள்ள வேறொரு
விதியிலிருந்து எழுகின்றது.</p>

<p>	எனவே, `சட்ட மன்றத்தால் இயற்றப்படுவது சட்டமாகிறது'
என்ற அடிப்படையான நெறிமுறையில் இருந்துதான் குற்ற இயல்
சட்டமும், அச்சட்டம் கூறும் விதிகளும் சட்டத் தன்மையைப்
பெறுகின்றன. இந்த `அடிப்படையான நெறி முறை'யினை
(ground norm) என்கிறார் கெல்சன்.</p>

<p>	நமது பாரத நாட்டின் `அரசமைப்பு' மத்திய,
மாநிலச் சட்ட மன்றங்களின் அதிகார வரம்பினைக் கூறுகின்றது.
இந்த அதிகாரத்தின் கீழ்தான் சட்டமன்றங்஖ள் சட்டங்களை
இயற்றுகின்றன. எனவே, நம் நாட்டைப் பொறுத்த வரை
`அரசமைப்புச் சட்டம்' `அடிப்படை நெறி
முறை' ஆகின்றது. ஆனால், இந்த அடிப்படை
நெறிமுறைக்குச் சட்டத் தன்மை அளிப்பது என்று ஏதும் இல்லை.
எனவேதான், இதை `அடிப்படையான நெறி முறை' என்கிறார்.</p>

<p>	இவ்வாறு ஒரு நாட்டின் `அடிப்படை நெறி முறை', அந்த
நாட்டு அரசின் பிற உறுப்புகளுக்கு நெறி முறைகளை வகுக்கும்
அதிகாரத்தைப் பகுத்து அளிக்கின்றது. எனவே பல்வேறு
நெறிமுறைகள் செல்லுரிமை உடையனவா என்பதைக் காண்பதற்கு
ஆதாரமாக உள்ளது அடிப்படை நெறிமுறையே ஆகும். இந்த
வகையில், அடிப்படை நெறிமுறை, அது கூறும் வகையில்
நெறிமுறைகளை வகுக்கும் அரசின் உறுப்புகள், அந்த நெறி
முறைகளின் இயக்கம், இவையனைத்தும் ஒருங்கிணைந்த</p>

<p>பக்கம்:53
அமைப்புத்தான் ஒரு நாட்டின் `சட்ட ஒழுங்கமைப்பு'
ஆகிறது, என்கிறார் கெல்சன்.</p>

<p>	இவ்வாறு, ஒரு நாட்டின் சட்ட ஒழுங்கமைப்பினை, அற~
நெறி, அரசியல் நெறி, சமுதாய நெறி இவற்றோடு கலக்காமல்,
சட்ட நெறிமுறையின் அடிப்படையிலேயே
விளக்குவதால், இக்஼கொள்கையினைத் `தெளிந்த கொள்கை'
என்று அவர் கூறுகின்றார்.</p>

<p>	பிற கொள்கைகள் எல்லாம் சட்டம் என்றால் அது
அறத்தை ஒட்டி இருத்தல் வேண்டும் அல்லது நீதிக்கு உகந்ததாக
இருத்தல் வேண்டும் அல்லது சமுதாய நலனுக்கு ஏற்றதாக
இருத்தல் வேண்டும் என்று கூறுகின்றன. சட்டத்தின் செல்லுரிமை
சட்டத்திற்கு அப்பாலான பிற இயல்புகளின்
அடிப்படையில் அறுதி செய்யப்படுகின்றது. ஆனால், கெல்சன்
வகுக்கும் கொள்கையில், சட்டத்தின் செல்லுரிமை சட்ட
நெறிமுறைகளைப் பொறுத்தே உள்ளது. சட்ட நெறி முறைகளுக்கு
அப்பால் செல்லாமல், ஒரு நாட்டின் சட்ட
ஒழுங்கமைப்பினை விளக்குகிறது கெல்சன் வகுத்த `சட்டத்தைப்
பற்றிய தெளிந்த கொள்கை'.</p>

<p>	ஆஸ்டின் கொள்கையின்படி அரசு என்பது ஒன்று; அதன்
ஆணையான சட்டம் என்பது வேறொன்று. ஆனால், கெல்சனின்
கொள்கையின்படி அரசும் சட்டமும் வேறல்ல; சட்ட ஒழுங்க~
மைப்புத்தான் அரசு என்பது. அரசால்
இயற்றப்படுவது சட்டம் என்று ஆஸ்டின் கூறுகின்றார்; சட்டம்
தன்னைத்தானே நெறிப்படுத்திக் கொள்கிறது என்கிறார் கெல்சன்.</p>

<p>	இவ்வாறு, `சட்டம் என்பது தானே இயங்கும் தனி
அமைப்பு' என்ற தெளிந்த கோட்பாட்டினைத் 
தேர்ந்து விளக்குகிறார் பேராசிரியர் கெல்சன்.</p>

<p>	நாட்டிடைச் சட்டம், அரசமைப்புச்
சட்டம் இவை இரண்டும் சட்டங்களா என்ற
வாதம் எழுவதற்குப் பிற சட்டக் கொள்கைகளில் இடம் உண்டு.
ஆனால், கெல்சனின் சட்டக் கோட்பாட்டில் இந்த வாதத்திற்கு
இடமில்லை.</p>

<p>	ஆலன், ஃபிரிட்மேன் போன்ற
அறிஞர்கள் கெல்சனின் கோட்பாட்டில் குறை காணுகின்றனர்.
`அடிப்படை நெறிமுறை' என்பது நாட்டிடைச்</p>

<p>பக்கம்:54
சட்டத்திற்குப் பொருந்துவதில்லை.</p>

<p>	மேலும், `அடிப்படை நெறிமுறை' என்பது நாட்டுக்கு நாடு
வேறுபடலாம். இதுபோன்ற தெளிவின்மைகள் பல கெல்சனின்
`தெளிந்த கொள்கை'யில் இருந்தாலும் சட்டக் கோட்~
பாட்டினைப் பிற தொடர்பின்றிப் பிரித்துத் தானே இயங்கும்
தனி அமைப்பாகக் காட்டிய பெருமை இந்த இருபதாம்
நூற்றாண்டுக் கொள்கைக்கு உண்டு என்று கூறுகின்றனர்
ஆய்வாளர்கள்.</p>

<p>பக்கம்:55
                    அரசமைப்புச் சட்டம்</p>

<p>[`அரசமைப்பு' என்றால் என்ன?-இதைச் `சட்டம்' என்று கூறலாமா?]</p>

<p>`அரசமைப்பு' என்றால் என்ன?</p>

<p>	Constitution என்ற ஆங்கிலச் சொல்லிற்கு `அமைப்பு'
என்பது பொருள். ஆனால், அச்சொல் `உடல் அமைப்பு', `அரசு
அமைப்பு' இரண்டையுமே பொதுவாகக் குறிக்கின்றது.</p>

<p>	நம் உடலில் பல உறுப்புக்கள் உள்ளன. இவ்வுறுப்புக்களின்
இணைந்த இயக்கமே நம் உ஠ல் நலனுக்கு உறுதி அளிக்கின்றது.
அது போல், அரசு என்ற அமைப்பிற்கும் பல உறுப்புக்கள்
உள்ளன. பல்வேறு வகையில் அவை செயல்படுகின்றன.
அவற்றின் இணைந்த இயக்கமே அரசு என்ற அமைப்பின்
ஆதாரமாகின்றது.</p>

<p>	அரசின் உறுப்புக்கள் எவை? அவை ஒவ்வொன்றின்
கடமை என்ன? அவை இயங்கும் முறை என்ன? இவ்வாறு, அரசு
என்ற அமைப்பின் உறுப்புக்கள் இயங்கும் நெறிமுறையைக் கூறும்
விதிகளை `அரசமைப்புச் சட்டம்' என்று
கூறுகிறோம். சுருக்கமாகச் சொன்னால், அரசின் அமைப்பைக்
கூறுவது `அரசமைப்புச் சட்டம்' எனலாம்.</p>

<p>	ஓர் அரசின் அரசாண்மை அதிகாரம்
எவ்வாறு பகிர்ந்து பயில்திறப்படுத்தப் பெறுகின்றது?
அவ்வாறு பயில்திறப்படுத்தும் உறுப்புக்கள் எவை? அவ்வுறுப்புக்களிடையே</p>

<p>பக்கம்:56
உள்ள சம்பந்தம் என்ன? இவற்றையெல்லாம்
விளக்கி, அரசமைப்பின் இயக்கத்தை நெறிமுறைப் படுத்தும்
விதிகளைத்தான் அரசமைப்புச் சட்டம் என்கிறோம். இது டைசி
என்ற அறிஞர் கூறும் இலக்கணமாகும்.</p>

<p>	""அரசாண்மையருக்கும், குடிமக்களுக்கும், அரசாண்மை
அமைப்பின் உறுப்புக்களுக்கும் இடையுள்ள உறவு முறையினைக்
கூறும் விதிகளைக் கொண்டது அரசமைப்புச் சட்டம்"", என்கிறார்
ஹிப்பெர்ட்.</p>

<p>	எனவே, `அரசமைப்புச் சட்டம்' என்பது ஓர் அரசின்
அடிப்படையான உறுப்புக்களைப் பற்றியும் இவற்றின்
செயற்பாடு பற்றியும் விதிக்கும் ஆ஥ார நெறிமுறைகளைக்
கொண்டது என்பது தெளிவாகும்.</p>

<p>	இந்த இடத்தில் ஒரு சிக்கல் எழுகின்றது.</p>

<p>	அரசு என்ற அமைப்பு ஏற்பட்ட பின்னர்தானே சட்டங்கள்
தோன்றுகின்றன? அரசின் அமைப்பைக் கூறும் விதிகளையும்
`சட்டங்கள்' என்று குறிப்பிட்டால், அரசு அமைவதற்கு முன்னரே
சட்டங்கள் தோன்றிவிட்டனவா? அரசு முந்தியதா; சட்டம்
முந்தியதா? இப்படி ஒரு சிக்கல் தோன்றுகிறது.</p>

<p>	ஒரு மொழி இவ்வாறுதான் பேச்சிலும் எழுத்திலும்
கையாளப்பட வேண்டும் என விதிப்பது அந்த மொழியின்
இலக்கணம் ஆனால், அந்த இலக்கணம்
அம்மொழிக்கு முந்தியது அன்று. இயல்பாகவே, ஒரு மொழி
பிறந்து, வளர்ந்து, வளம்பெற்று, இலக்கியங்கள் ஓரளவு அதில்
தோன்றிய பின்னர்தான், அந்த மொழிக்கான இலக்கணம் எழுதப்
பெறுகின்றது. அதன்பின், அந்த இலக்கணத்தின் வழியில் அம்~
மொழி மேலும் வளர்ச்சி பெறுகிறது. இதையே ""இலக்கியம்
கண்டதற்கு இலக்கண஼ம்"", என்பார்கள். இப்படியேதான், எல்லாக்
கலைகளும் வளர்ந்து ஒரு சீரான நிலை எய்திய பின்னரே
அக்கலைகளுக்கான இலக்கணம் இயற்றப்படுகிறது. இசை
வளர்ச்சியுறும் நிலையில்தான் பண் பிறக்கிறது; நாட்டியம்
வளர்ச்சியுறும் நிலையில்தான் தாளம் பிறக்கிற஦ு.</p>

<p>பக்கம்:57
	இம்மாதிரியே, ஒரு சமுதாயத்தில் அரசு என்ற அமைப்பு
ஏற்பட்டு, அரசியல் வாழ்விலே அம்மக்கள் ஓரளவு முன்னேற்றம்
அடைந்த பின்னரே அந்த அரசமைப்பிற்கு இலக்கணம் எழுதப்
பெறுகின்றது; அரசமைப்புச் சட்டம் பிறக்கின்றது. இந்த
உண்மையினை சால்மண்ட் இவ்வாறு கூறுகிறார்.</p>

<p>	""அரசு என்ற அமைப்பு அரசமைப்புச் சட்டத்திற்கு
முந்தியது. அதாவது, அரசமைப்புச் சட்டத்திற்கு முன்னரே
அரசமைப்பைப் பொறுத்த வழக்காறுகள் செயலில் இருந்தன.
...எனவே, அரசமைப்பின் இயக்கத்தைத் தொடர்ந்து
தோன்றியதே அரசமைப்புச் சட்டம் ஆகும்"".</p>

<p>	எனவே, அரசும் அதன் இயக்கமும் முந்தியன. அத஼ன்
பின்னரே, அரசமைப்புச் சட்டவிதிகள் தோன்றின என்பது
தெளிவாகும்.</p>

<p>இதைச் `சட்டம்' என்று கூறலாமா?</p>

<p>	அடுத்து எழும் வினா, அரசமைப்புச் சட்டவிதிகளை
`சட்டம்' என்று கூறலாமா? என்பதாகும்.</p>

<p>	ஆஸ்டின் வகுத்துள்ள இலக்கணப்படி சட்டம் என்பது
அரசாண்மையரின் ஆணை. எனவே, அரசாண்மையரின்
ஆணையாக உள்ள சட்டம் அரசாண்மையரைக் கட்டுப்~
படுத்துவது இயலாது. அரசமைப்புச் சட்டவிதிகளோ அரசின்
இயக்கத்தையே வரையறை செய்வதாகும். எனவே, இவற்றைச்
`சட்டம்' என்று கொள்வது தகாது. அரசியல் ஒழுக்க நெறிக்குக்
கட்டுப்பட்டுத்தான் அரசமைப்புச் சட்டவிதிகள் பின்பற்றப்படு~
கின்றன. ஆதலால், `அரசமைப்புச் சட்டம் என்பது ஓர் ஒழுக்க
நெறியே தவிரச் சட்ட நெறி அன்று' என்கிறார் ஆஸ்டின்.</p>

<p>	ஆஸ்டினின் வாதத்திற்கு ஆ஛ிரியர் வில்லோபி
பதிலளிக்கின்றார்: ""அரசியல் சட்டம்
கட்டுப்படுத்துவது அரசை அன்று, ஆட்சியைத் தான்
அது கட்டுப்படுத்துகிறது. அரசு என்பது வேறு;</p>

<p>பக்கம்:58
ஆட்சியம் என்பது வேறு. இந்த வேறுபாட்டை மறந்ததாகும்
ஆஸ்டினின் வாதம்"" என்கிறார்.</p>

<p>	வில்லோபியின் கூற்றும் குறைபாடுள்ளது. ஏனெனில்,
எழுதப்பட்ட அரசமைப்புச் சட்டங்கள் அரசின் அதிகாரத்தை
வரையறை செய்கின்றன.</p>

<p>	புதிதாக அரசியல் விடுதலை பெறும் நாடுகள் பலவும்
தங்கள் அரசமைப்புச் சட்டங்களை இயற்றிக் கொள்கின்றன.
நாட்டு மக்களைக் கொண்டதே அந்நாட்டின் அரசு, எனவே, அந்த
அரசின் அமைப்பைத் தீர்மானிப்பது அந்நாட்டு மக்களின்
உரிமையாகும்; அடிப்படை உரிமையாகும். ஆகவே, மக்கள்
தங்கள் ஆதார உரிமையின் கீழ் நாட்டின் அரசமைப்பை வகுத்துக்
கொள்கின்றனர். நம் பாரத நாடு தன்னுரிமை பெற்ற பின், நம்
நாட்டை ஒரு குடியரசாக அமைத்து அதற்கென அரசமைப்பை
நாம் வகுத்துக் கொண்டோம். ""இந்திய மக்களாகிய நாம் நமக்கு
நாமே அளித்துக் கொள்ளும் அரசமைப்பு"" என்ற முகப்புரையுடன்
தொடங்குகிறது நம் அரசமைப்புச் சட்டம்.</p>

<p>	சில நாடுகளில் அரசியல் அமைப்புச் சட்டம்
எழுதப்படாமல் நீண்ட நாளைய வழக்காறுகள், மரபுகள்
இவற்றின் அடிப்படையில் இயங்கி வருகிறது. தொன்று தொட்டு
வரும் வழக்காறுகளே அரசமைப்பு விதிகளாகப் பின்பற்றப்
படுகின்றன. இம்முறையில் இயங்கும் அரசியலமைப்பு நெறி
இங்கிலாந்தில் சிறப்பாக நிகழ்கின்றது.</p>

<p>	`குடிகளைப் பிறர் வருந்தாமல் காத்து, தானும்
வருந்தாமல் அவர்களைப் பேணி, குற்றம் இழைப்பவர்களைத்
தண்டிப்பது அரசனின் கடமை' என்கிறார் வள்ளுவர்.</p>

<p>	குடியரசு என்ற அமைப்பில் அரசர் என்று எவரும்
இல்லை. ஆயினும், ஆட்சியில் இருப்பவர்கள் இயற்றும்
சட்டங்களால் நாட்டு மக்களின் உயிருக்கும் உடைமைக்கும் பிற
அடிப்படையான உரிமைகளுக்கும் இடர் விளையலாம்.
பேச்சுரிமை, சமய உரிமை, கருத்துப் பரிமாற்ற உரிமை
போன்றவை மனிதனின் நல்வாழ்விற்கு இன்றியமையாத
உரிமைகள். இத்தகைய உரிமைகளுக்கு விளையும் இடர்ப்~
பாடுகளைத் தவிர்க்கும் வகையில், மக்களின் நல்வாழ்விற்கு</p>

<p>பக்கம்:59
இன்றியமையாத உரிமைகளை ""அடிப்படை உரிமைகள்""
எனக் குறிப்பிட்டு, அவ்வுரிமைகளைப்
பாதிக்கும் சட்டம் எ஥ுவும் செல்லுரிமை அற்றது எனச்
சாற்றுகிறது நம் நாட்டு அரசமைப்புச் சட்டம். இந்த அடிப்படை
உரிமைகளை எந்த வகையிலும் மாற்றவும் இயலாது எனத்
தெளிவாக விதிக்கிறது. ஐக்கிய அமெரிக்கா போன்ற குடியாட்சி
நிலவும் பல நாடுகளிலும் இத்தகைய பாதுகாப்பு அளிக்கப்பட்டு,
மக்களின் அடிப்படை உரிமைகள் அரசின் ஆதிக்கத்திற்கு
அப்பாலாய் வைக்கப்பட்டுள்ளன.</p>

<p>	இந்த அடிப்படை உரிமைகளைப் பாதிக்கும் சட்டங்கள்
செல்லுரிமையற்றவை என்று சாற்றும் தனியுரிமை நீதிமன்றங்~
களுக்கு அளிக்கப் பெற்றுள்ளது. மக்களின் அடிப்படை
உரிமைகளைப் பாதுகாக்கும் புனிதக் கடமை, நீதி வழங்கும்
மன்றங்களுக்கு உண்டு.</p>

<p>	நாட்டு மக்களின் நல்வாழ்விற்கு அடிப்படையாக
அரசமைப்புச் சட்டம் விளங்குவதால், நம் நாட்டில், குடியரசுத்
தலைவர், ஆளுநர்கள், அமைச்சர்கள் போன்ற ஆட்சிப் பதவியில்
உள்ளோர், தாங்கள் பதவி ஏற்கும் பொழுது நாட்டின்
அரசமைப்புச் சட்டத்தைப் பேணிக் காப்பதாக ஆணையுறுதி
எடுக்கின்றனர். இத்தகைய ஆணையுறுதி எ஠ுக்க வேண்டுமென நம்
அரசமைப்புச் சட்டம் விதிக்கின்றது.</p>

<p>	இவ்வாறு, நாட்டு மக்களின் நல் வாழ்விற்கான
அடிப்படை உரிமைகளுக்கு ஓர் அரணாய், அரசு அங்கங்களின்
இயக்கத்திற்கு ஒரு நெறியாய், நாட்டின் அரசியல் நாகரிகத்திற்கு
ஓர் இலச்சினையாய் விளங்குகின்றது அரசமைப்புச் சட்டம்.</p>

<p>பக்கம்:61
                    நாட்டிடைச் சட்டம்</p>

<p>	[`நாட்டிடைச் சட்டத்தின் தன்மை என்ன? - இது ஓர்
	ஒழுக்க முறையா?, சட்டமா?...]</p>

<p>	சமுதாய நல்வாழ்விற்குச் சட்டம் இன்றியமையாததாக
உள்ளது என்று கண்டோம்.</p>

<p>	இன்று, பல நாடுகளைக் கொண்ட ஒரு சமுதாயமாகவே
உலகம் விளங்குகிறது. உலக நாடுகள் ஒன்றுக்கொன்று பல
வகைகளில் தொடர்பு கொண்டுள்ளன. வாணிபம், செய்தித்
தொடர்புகள், போக்குவரத்து என்று எத்துணையோ துறைகளில்
உலகநாடுகளின் தொடர்பு வளர்ந்துள்ளது. இத்தொடர்புகள்
ஒழுங்காக இயங்குவதற்கான உறவு முறைகள் நாடுகளிடை நிலவ
வேண்டும். நீண்ட நாளைய வழக்காறுகளும் மரபுகளும்
நாடுகளிடையான உறவு முறைகளை வகுத்துள்ளன. நாடுகளிடை
எழும் ஒப்பந்தங்களையும் உறவு முறைகளையும் பேணி நடக்கும்
கட்டுப்பாடு உலகநாடுகளுக்கு உள்ளது. இல்லையேல், நாடுகளிடை
எழும் ஒப்பந்தங்஖ள் பொருளற்றனவாகிவிடும். இவ்வாறு, உலக
நாடுகள் தம்மிடை ஓர் ஒழுங்குக்கு உட்பட்டு இயங்குவதால், அந்த
ஒழுங்கை `நாடுகளின் சட்டம்' என்று
சட்டவியலறிஞர்கள் கூறுவார்கள். `நாடுகளின் சட்டம்' என்றால்
நாடுகளுக்கு மேலான சட்டம் என்ற பொருள் படும் என்பதால்,
ஜெரிமி பெந்தம் இச்சட்டத்தை நாடுகளிடை எழும் சட்டம்
`நாட்டிடைச் சட்டம்' என்று குறிப்பிட்டார்.</p>

<p>பக்கம்:62
	""வழக்காறு அல்லது நாட்டிடை ஒப்பந்தம்
இவற்றால் எழும் விதிமுறைகளுக்கு இசைந்து நாகரிக நாடுகள்
தம்மிடை எழும் உறவுகளை வகுத்து நடக்கக் கடமைப்~
பட்டுள்ளன. இவ்விதிமுறைகள் மீறப்பட்டால், அதனால் தீங்குற்ற
நாடு அதற்கான தீங்கீடு பெறுவதற்கு உரிமையுடையதாகும். இந்த
விதிமுறைகளே நாட்டிடைச் சட்டம் என்பது"", என்கிறார்
வீட்டன் என்ற ஆசிரியர்.</p>

<p>நாட்டிடைச் சட்டத்தின் தன்மை என்ன?</p>

<p>	நாட்டிடைச் சட்டத்தின் தன்மை என்ன? அதைச் சட்டம்
என்று கூறலாமா என்பது பற்றி சட்ட இயலறிஞர்களிடையே
கருத்து வேற்றுமை உள்ளது. இது நீண்ட நாள்களாக உள்ள
வேறுபாடு; இன்றும் தீர்க்கப்படாத வேறுபாடு.</p>

<p>	ஆஸ்டின், வில்லோபி, ஹாலண்ட்
போன்றோர் நாட்டிடைச் சட்டத்தைக் `கட்டுறுத்தும்
ஒழுக்கம்' என்று கூறலாமே தவிர, இதைச்
`சட்டம்' என்று கூறுவதற்கில்லை என்கின்றனர். ஆனால், வீட்டன்,
ஓப்பன்ஹீம் போன்ற ஆசிரியர்கள் அது
முறைப்படியான சட்டம் தான் என்று விளக்குகின்றனர். இது ஒரு
தனிவகையான `மரபுமுறைச் சட்டம்'
என்கிறார் சால்மண்ட்.</p>

<p>அது ஓர் ஒழுக்கமுறைதான் என்ற கருத்து</p>

<p>	ஆஸ்டினின் கருத்துப்படி `சட்டம்' என்பது
அரசாண்மையரால் தமக்குப் பணிந்து நடப்போருக்கு இடும்
ஆணையாகும். அரசாண்மையுடைய நாடுகளுக்கு மேலாக வேறு
அரசாண்மையர் இருத்தல் இயலாது. நாடுகள் அனைத்தும்
சமநிலையில் உள்ளவை. எனவே, அவை ஒப்புக் கொண்ட
விதிகளை ஆணைகள் என்று கொள்வதும் பொருந்தாது.
ஆதலால், அவ்விதிகளைச் `சட்டம்' என்று சொல்வதற்கில்லை.</p>

<p>	மேலும் சாதாரணச் சட்டத்தை மீறினால் தண்டனை
உண்டு. நாட்டிடைச் சட்டம் மீறப்பட்டால் தண்டனை என்று
ஏதும் இல்லை. தண்டனை விதிப்பதற்கான மேலுறுத்தம்
எதுவும் இல்லை.</p>

<p>பக்கம்:63
	நாட்டிடைச் சட்டத்தைப் பெயரளவிற்கு வேண்டுமானால்
`சட்டம்' என்று குறிப்பிடலாம்; ஆனால், சட்டத்தின் இலக்~
கணம் எதுவும் இதற்கு இல்லை என்கிறார், ஹாலண்ட். இதைச்
`சட்டம்' என்பதற்கில்லை. ஏனெனில், இதைச் செல்லுறுத்தும்
அதிகாரம் எவருக்கும் இல்லை. இது தனிமனிதர்கள் நடத்தை~
யைக் கட்டுப்படுத்தாமல் நாடுகளின் நடத்தையையே கட்டுப்~
படுத்துகிறது. எனவே, இதை ஒழுக்கம் என்று
கூறுவதும் பொருந்தாது. நாடுகளிடையே வேறுபாடு
தோன்றினால் நடுவராக இருந்து அதைத் தீர்த்து வைக்கும்
அதிகாரமும் பிறருக்கு இல்லை. எனவே, ""நாட்டிடைச் சட்டம்
என்பது சட்ட இயல் வரம்பிற்குள் வராத ஒன்றாகும்"" என்கிறார்
ஹாலண்ட். `நாட்டிடைச் சட்ட விதிகளை நாட்டிடை நிலவும்
ஒழுக்க விதிகள் என்று கூறலாமே தவிர வேறு வகையில்
அவற்றைக் குறிப்பிடுவதற்கில்லை' என்கிறார் அவர்.</p>

<p>அது `சட்டம்' தான் என்ற கருத்து</p>

<p>	சட்டத்திற்கு ஆஸ்டின் கூறியுள்ள இலக்கணத்தை உரை
கல்லாக வைத்து நாட்டிடைச் சட்டத்தை ஆய்வது பொருந்தாது.
ஏனென்றால், சட்டத்திற்கு ஆஸ்டின் கூறுகின்ற இலக்கணமே
தவறானது. `சட்டம்' என்பது ஆணையாக இருக்க வேண்டும்
என்பதன்று. சமுதாய மக்கள் சட்டத்திற்கு அடங்கி நடப்பது
என்று தங்களுக்குள் இசைவதால் எழுவதே சட்டமாகும். இங்கு,
நாடுகள் ஒன்றுக்கொன்று இசைந்து விதிமுறைகளை ஏற்றுக்
கொள்கின்றன. எனவே, அவை சட்ட விதிகள் போன்றவைதாம்.</p>

<p>	நாட்டிடைச் சட்டத்தைச் செல்லுறுத்துவதற்கு
என்று எவரும் இல்லை என்பதால் அச்சட்டம்
வலுவிழந்ததுதான். ஆனால், வலுவிழந்ததால் மட்டுமே சட்டம்
தன் தன்மையை இழந்து விடுவதில்லை. எனவே, நாட்டிடைச்
சட்டமும் சட்டமேதான், என்பது ஓப்பன் ஹீம் போன்றோர்
கருத்து.</p>

<p>பயனில்லா விவாதம்</p>

<p>	நாடுகளிடை உறவு முறைகளை வகுக்கும் விதிகள் உள்ளன.
அவ்விதிகளைப் பேண வேண்டும் என்ற இசைவும் நாடுகளிடை</p>

<p>பக்கம்:64
உண்டு. இவ்விதிகளை நாடுகள் தங்களுக்குள் ஏற்படும் ஒப்~
பந்தங்கள் வாயிலாக மாற்றிக் கொள்கின்றன. இவ்வாறு,
இவ்விதிகள் சாதாரணச் சட்ட விதிகளைப் போன்றே செயல்
படுகின்றன. ஆயினும், `சட்டம்' என்ற சொல்லுக்கு நாம் ஓர்
இலக்கணத்தைக் கற்பித்து, அந்த இலக்கணத்திற்கு இசைந்தது
இல்லை என்ற காரணத்தால் நாட்டிடை உறவு விதிகளைச்
`சட்டம்' என்று கொள்வதற்கில்லை என்று கூறுகிறோம். இது,
ஆசிரியர் ஹார்ட் என்பாரின் கருத்து.</p>

<p>	ஒவ்வொரு சொல்லுக்கும் இன்ன பொருள் என்று நாம்
தான் வரையறுக்கின்றோம். அது போன்றே, சட்டம், என்ற
சொல்லுக்கும் ஒரு பொருளை ஏற்றிக் கூறுகிறோம். அந்தப்
பொருளுக்கேற்ப நாட்டிடை உறவு விதிகள் உள்ளனவா என்று
ஆய்கின்றோம். இது பயனற்ற ஆய்வு என்கிறார் பிட்ஸ்ஜெரால்டு
நாம் என்ன பெயரால் குறிப்பிட்டாலும் நாட்டிடைச்
சட்டத்தின் தன்மையும் தகைமையும் மாறுவனவல்ல. எனவே,
நாட்டிடைச் சட்டம் என்பது சட்டமா அல்லவா என்ற விவாதம்
பொருளற்றது; வீணானது என்கிறார் அவர்.</p>

<p>அமெரிக்க நாட்டு நிலை.</p>

<p>	ஐக்கிய அமெரிக்க நாட்டில் நாட்டிடைச் சட்ட விதிகளை
அந்நாட்டின் சட்டவிதிகளாகவே கொண்டு நீதிமன்றங்கள்
செயலுறுத்துகின்றன.</p>

<p>இங்கிலாந்து நாட்டு நிலை.</p>

<p>	பிரித்தானிய நாட்டில் நீதிமன்றங்கள் நாட்டிடைச் சட்ட
விதிகளை ஏற்றுச் செல்லுறுத்துவதில்லை. `கப்பல் கைப்பற்றுச்
சட்டம்' என்ற சட்டத்தை மட்டும் அந்நாட்டு
நீதிமன்றங்கள் செல்லுறுத்துகின்றன.</p>

<p>	இந்தியாவில் பிரித்தானிய நாட்டு முறையினையே பின்~
பற்றுகிறோம். அதாவது, நாட்டிடைச் சட்ட விதிகளை இந்திய
நீதி மன்றங்கள் ஏற்றுச் செல்லுறுத்துவதில்லை.</p>

<p>	இன்றைய உலக அரசியலில் நாம் காண்பது என்ன?</p>

<p>	ஐக்கிய நாடுகளின் சபை நிறைவேற்றும்
தீர்மானங்களை உறுப்பு நாடுகளில் பல மதிப்பதில்லை.</p>

<p>பக்கம்:65
தீர்மானங்களின்படி நடப்பதில்லை. காரணம் அவற்றைச்
செல்லுறுத்துவதற்கென்று எந்த வகை ஏற்பாடும் இதுவரை
உருவாகவில்லை. இருப்பினும், ஐக்கிய நாடுகள் சபை திரட்டும்
படைகள் உலகில் பூசல் எழும் பகுதிகளில் பணியாற்றி அமைதி
நிலவச் செய்கின்றன. உலக நாடுகள் தங்களிடை எழும் பூசல்களை
அச்சபைக்குத் தெரிவிக்கின்றன. எனவே, நாட்டிடைச் சட்டங்~
களை வெறும் ஒழுக்கங்கள் அல்லது வழக்காறுகள் என்று
வருணிக்கும் கால கட்டத்தை நாம் கடந்துவிட்டோம். எனினும்,
இவை சாதாரணச் சட்டங்கள் போன்று செல்லுறுத்தப்படும்
நிலையையும் எய்தவில்லை.</p>

<p>	ஒவ்வொரு நாடும் பிற நாடுகளுடன் கொள்ளும் தொடர்பு
நேர்மை, நன்னம்பிக்கை என்ற பண்புகளின் அடிப்படையில் தான்
அமைகின்றது. காலப் போக்கில் எழுந்த வழக்காறுகள் நாட்டிடை
உறவு முறைகளை வகுத்தாலும் கூட அவ்வழக்காறுகள் இன்று
மரபுகளாக மட்டும் இல்லை. அம்மரபுகளைப் பேணும்
கட்டுப்பாட்டிலிருந்து நாடுகள் எளிதில் தப்புவது இயலாது. உலக
வங்கியிலிருந்து பிற நாடுகள் பெற்றுள்ள கடன் தொகைகளைத்
திரும்பிச் செலுத்த வேண்டியது வெறும் அறக்கடமை
மட்டுமன்று; சட்டக் கடமையாகவும் உள்ளது. இனி எதிர்~
காலத்தில் நாட்டிடைச் சட்டவிதிகள் சாதாரணச் சட்டங்கள்
போன்று இயங்கினால்தான் உலக அமைதி உறுதி பெறும். இந்த
நிலையை நோக்கியே உலக அரசியலும் செல்லுகிறது எனலாம்.</p>

<p>பக்கம்:67
            நிலவரைச் சட்டங்களும், இனமுறைச்
                       சட்டங்களும்</p>

<p>  [இனமுறைச் சட்டம் - நிலவரைச் சட்டம் - அயலக ஒப்படை]</p>

<p>இனமுறைச் சட்டம்</p>

<p>	நம் இந்திய நாட்டில் பல மதத்தினர் வாழ்கின்றனர்.
நெடுங்கால வழக்க நெறியில் எழுந்த வழக்காறுகளை ஒட்டியும்,
சமய சாத்திரங்களை ஒட்டியும் அந்தந்த மதத்தினரின் வாழ்~
முறைகள் உருவாகியுள்ளன. அவற்றை ஒட்டி, சட்ட விதிகள்
அமைந்துள்ளன. இறங்குரிமை, திருமணம்
போன்ற பல வாழ்முறைகள் குறித்த சட்டங்கள் இந்து சமயத்~
தினர், முகமதியர்கள், கிருத்துவ சமயத்தினர் இவர்களுக்குத்
தனித்தனியாக உள்ளன.</p>

<p>	இவ்வாறு ஒரு சமயத்தினர்க்கு மட்டுமே பொருந்துறும்
சட்டங்களை `இந்துச் சட்டம்', `முகமதியர் சட்டம்'
என்று பிரித்துக் கூறுவார்கள். இத்தகைய
சட்டங்களை `இனமுறைச் சட்டங்கள்' என்று
சட்ட இயலில் குறிப்பிடுகின்றோம்.</p>

<p>நிலவரைச் சட்டம்</p>

<p>	`இனமுறைச் சட்டங்கள்' என்பவை அந்தந்த மதத்தினரின்
தனிப்பட்ட வாழ்முறையைப் பொறுத்தே உள்ளன. ஆனால், ஒரு</p>

<p>பக்கம்:68
நாட்டின் குடிமக்கள் என்ற முறையில், குடிகள் அனைவரும்
அந்நாட்டின் சட்டங்கள் பலவற்றுக்குக் கட்டுபட்டே வாழ்~
கின்றனர். குற்றவியல் சட்டம் என்றால், இந்துக்களுக்கு என்று ஒரு
வகைச் சட்டமும், முகமதியர்களுக்கு என்று வேறுவகைச் சட்டமும்
இருப்பதற்கில்லை. திருடியவன் தண்டிக்கப்பட வேண்டும் எனில்
அவன் இந்துவானாலும், முகமதியனானாலும் தண்டிக்கப்பட
வேண்டியவனே ஆகின்றான். அம்மாதிரியே, ஒப்பந்தங்கள்
என்று எடுத்துக் கொண்டால், அவற்றைப் பொறுத்த
சட்டம் நாட்டு மக்கள் அனைவருக்கும் ஒருங்கே பொருந்துற
வேண்டும். இல்லாவிடில் நாட்டில் வாணிப முறையும், வாக்குறுதி
நிலையும் சீர்குலைந்து விடும். எனவே, குற்றவியல் சட்டம்,
ஒப்பந்தச் சட்டம் போன்ற சட்டங்கள்
இந்திய நாட்டில் வாழும் எல்லாக் குடிமக்களையும் கட்டுப்~
படுத்துகின்றன. இவ்வாறு, இந்திய நாட்டின் நிலவரை~
யனைத்திலும் நிலவும் சட்டங்களை `நிலவரைச் சட்டங்கள்'
என்கிறோம்.</p>

<p>	பொதுவாகக் கூறுமிடத்து ஒவ்வொரு நாட்டின் சட்டமும்
அந்தந்த நாட்டின் எல்லைக்குள் மட்டுமே செயலுறுத்தப்படு~
கின்றது. அவ்வாறு செயலுறுத்துவதே இயலும். ஓர் அரசு
என்றால் அதற்கு நிலவரை உண்டு. அது போல், அந்த
அரசு இயற்றிச் செல்லுறுத்஼தும் சட்டங்களும் அந்த நிலவரைக்குள்
அடங்குகின்றன. எனவே, ஓர் அரசு இயற்றும் சட்டத்தின்
ஆள்வரை அந்த அரசின் நிலவரை~
யினைக் கொண்டதேயாகும். ஆதலால், எந்த ஒரு சட்டத்தின்
ஆள்வரையும் ஒரு நிலவரையினைப் பொறுத்த~
தாகவே உள்ளது.</p>

<p>	ஒரு நாட்டின் நிலவரை என்பது அந்நாட்டின்
நில எல்லையோடு நின்று விடுவதில்லை. அந்நாட்டைச் சேர்ந்த
கப்பல்கள், விமானங்கள் எல்லாமே அந்நாட்டின் நில
எல்லைக்குள் அடங்குவனவாகக் கொள்ளப்படுகின்றன.</p>

<p>	ஒரு நாட்டின் சட்டம் நிலவரை சார்ந்தது
என்றால், அந்த நிலவரைக்குள் உள்ள எல்லோரையும் அச்~
சட்டம் கட்டுப்படுத்தும் என்ப஼தாகும். தமிழ்நாடு மாநிலத்தில்
மதுவிலக்குச் சட்டம் உண்டு என்றால், வெளிநாட்டினர் ஒருவர்</p>

<p>பக்கம்:69
தமிழ் நாட்டில் மது அருந்தினாலும் அல்லது அதை
வைத்திருந்தாலும் அது குற்றமேயாகும்.</p>

<p>அயலக ஒப்படை</p>

<p>	ஒரு நாட்டில் ஒருவன் குற்றம் இழைத்துவிட்டு வேறொரு
நாட்டிற்குத் தப்பிச் சென்று விட்டால், அவனைத் தண்டிப்~
பதற்கில்லை. இத்தகைய நிலையைச் சீர்படுத்துவதற்கென்று உலக
நாடுகளிடை ஒருவகை ஏற்பாடு உண்டு. அதாவது, ஒரு நாட்டில்
குற்றம் இழைத்துவிட்டு ஒருவன் வேறொரு நாட்டிற்குச் சென்று
விட்டால், எந்த நாட்டில் அவன் உள்ளானோ அந்த நாடு
அவனைப் பிடித்துக் கைதுசெய்து அவன் குற்றம் இழைத்த
நாட்டிடம் ஒப்படைத்து விடுகிறது. இது `அயலக ஒப்படை'
ஏற்பாடு எனப்படும்.</p>

<p>	ஆனால், பொதுவாக, உரிமை இயல் வழக்குகளில்
`அயலக ஒப்படை' ஏற்பாடு செயற்படுவதில்லை. இருப்பினும்,
உரிமை இயல் வழக்குகளிலும் கூட, ஒரு நாட்டு நீதிமன்றம் கூறிய
தீர்ப்பினை வேற்று நாட்டில் செல்லுறுத்தும் வகையில்
ஒவ்வொரு நாடும் சட்ட விதிகளை வகுத்துள்ளது. இந்திய நாட்டு
`உரிமை இயல் விசாரணை முறைச் சட்டத் தொகுப்'பில்
வேற்று நாட்டுத் தீர்ப்புக்களைச் 
செல்லுறுத்தும் வகைபற்றி விதிகள் உள்ளன. அவ்வாறு
செல்லுறுத்துவதற்குச் சில கட்டுவரைகள் உண்டு.</p>

<p>	உலக நாடுகள் இன்று நெருங்கி வரும் நிலையில்,
சட்டங்களின் நிலவரைத் தன்மை குறைந்து
வருகின்றது. அயல் நாட்டினரையோ அயல் நாட்டுச் சட்டங்களை
மீறியவர்களையோ எங்கு விசாரிப்பது, எந்நாட்டுச் சட்டத்தின்
கீழ் விசாரிப்பது போன்ற சிக்கல்களைத் தீர்க்கும் வகையில்
`முரண்படுசட்டங்கள்' என்ற சட்டமுறை
ஒவ்வொரு நாட்டுச்சட்டநெறியிலும் உருவாகி வருகிறது.
நாளடைவில் சட்டங்களின் நிலவரைத்தன்மை மறைந்து போய்
விடலாம் என்றே சட்ட இயலறிஞர்கள் கருதுகின்றனர்.</p>

<p>பக்கம்:71
                   நீதிவழங்கு முறை</p>

<p>  [உரிமை இயல் நீதிமுறை - குற்ற இயல் நீதி முறை - நீதி
  முறையின் நேர்மை]</p>

<p>	சமுதாய வாழ்வு என்ற அமைப்புமுறை உருவாவதற்கு
முன்னர், மனிதன் கட்டுப்பாடற்ற தன்னுரிமையுடன் வாழ்ந்தான்.
தனக்கு வேண்டிய உணவைத் தேடி உண்பதும் உறங்குவதுமே
அன்றைய மனிதனின் தொழிலாக இருந்தன. ஆணும் பெண்ணும்
கூடி வாழும் குடும்பம் என்ற கூட்டு வாழ்க்கை நாளடைவில்
மலர்ந்தது. வயதிலே பெரியவன் குடும்பத் தலைவனாக
இருந்தான். பிறகு பல குடும்பங்கள் ஒன்று சேர்ந்து வாழத்
தொடங்கின.</p>

<p>	மனிதர்களுக்கு அப்பொழுது பயிர்த்தொழில் என்ற கலை
தெரியாது. விலங்குகளை வேட்டையாடியும் காய்கனிகளை
உண்டும் தங்கள் பசியை ஆற்றிக் கொண்டனர். உணவைத் தேடிக்
கூட்டமாகப் பல இடங்களுக்கு அலைந்து கொண்டிருந்தனர்.
நிலைத்து ஓர் இடத்தில் வாழும் வகையினை அவர்கள்
மேற்கொள்ளவில்லை.</p>

<p>	இயற்கையோடு இசைந்த வாழ்விலே இயற்கைச் சக்திகள்
எல்லாம் இணையற்ற ஆற்றலுடையனவாய் அவர்களுக்குப்</p>

<p>பக்கம்:72
புலப்பட்டன. இடியும் மின்னலும் அவர்கள் உள்ளத்திலே
அச்சத்தை எழுப்பின. புரியாத இயற்கைச் சக்திகளைப்
போற்றுதற்குரிய தெய்வங்களாகக் கொண்டு அவர்கள் வழி~
பட்டனர். அருணனும் அந்தி நிலவும், வருணனும் வாயுவும்
வழிபடு தெய்வங்கள் ஆயின. பல நூற்றாண்டுகள் கழிந்த
பின்னர், மனிதன் தானியங்களை விளைவிக்கக் கற்றுக்
கொண்டான். பயிர்த்தொழில் மக்களை நிலையாக ஒரே இடத்தில்
வாழச் செய்துவிட்டது. இனி உணவைத் தேடி அலைய வேண்டிய
அவசியமில்லை. பல குடும்பங்கள் கொண்ட கூட்டத்தினர்
நிலையான ஓர் இடத்திலே பயிர்செய்து வாழத் தொடங்கினர்.
அந்த நிலையான வாழ்வினால் கூடாரங்கள் குடிசைகளாக
மாறின. ஆடுகளும் மாடுகளும் அவர்களை அண்டி வளர்ந்தன.</p>

<p>	இது ஓரளவு அமைதியான வாழ்வுதான். ஆயினும்
இடையிடையே இன்னல்களும் எழுந்தன. காட்டு விலங்குகள்
கால்நடைகளையும் பயிர்களையும் அழித்து வந்தன. நிலையான
வாழ்வு பெறாத மற்றக் கூட்டத்தினர் இவர்களுக்குத் துன்பம்
விளைத்தனர். காட்டு விலங்குகளை வேட்டையாடி ஒழிக்கவும்,
வேற்றுக் கூட்டத்தினரை விரட்டி அடிக்கவும் வல்லமையுள்ள ஒரு
தலைவன் அவர்களிடையே உருவானான். அந்த வீரன்
அவர்களுக்குத் தலைமை தாங்கி எதிரிகளைப் போரிட்டு
விரட்டினான். இன்னல் தரும் விலங்குகளை வேட்டையாடி
ஒழித்தான். தலைவனது கட்டளைக்கு அடங்கி நடக்கும் ஒரு நிலை
படிப்படியாக ஏற்பட்டது. தாங்கள் வழிபடும் இயற்கையின்
சக்திகளுக்கு அடுத்தாற்போல் இந்தத் தலைவனையும் அவர்கள்
வழிபாட்டுக்குரிய வல்லவனாகக் கண்டனர். அந்நிலையில்
அவன் அரசன் என்ற பெயர் பெற்றான். முற்காலத்து அரசர்களின்
கடமைகளில் பகைவர்மீது போர் தொடுப்பதும், விலங்குகளை
வேட்டையாடுவதும் முக்கியமானவை என்று கொள்ளப்பட்டன.</p>

<p>	ஆண்டுகள் ஓடின; மக்கள் பெருகினர்; ஊர்கள் வளர்ந்தன.
அரசன் இருந்த இடம் நகரமாக மாறியது. அவனது ஆணை
ஆட்சி விரிந்து பரவியது. ஓர் அரசனின் ஆட்சிக்கு உட்பட்ட
நிலப்பரப்பு நாடு எனப் பெயர் பெற்றது. இவ்வாறு பலப்பல
நாடுகள் தோன்றின. ஒவ்வொரு நாட்டிற்கும் வரம்பு, அங்கு
வாழும் மக்கள் (குடிகள்), ஆளும் அரசன் என்ற அங்கங்களுடன்
அரசுகள் உலகில் பல பகுதிகளிலும் எழுந்தன. இந்த முறையில்
மக்கள் ஓர் அரசனின் கீழ், அவன் ஆட்சிக்கு உட்பட்டு வாழத்
தொடங்கினர்.</p>

<p>பக்கம்:73
	இவ்வாறு, ஒரு மன்னன் முழு அதிகாரத்துடன் குடி~
மக்களை ஆளுவதை ""முடியாட்சி"" என்பார்கள்.
காலப் போக்கிலே, பல்வகைக் காரணங்களால் முடியாட்சிமுறை
குடியாட்சி முறையாகப் பல நாடுகளில் மாறியது. முடியாட்~
சியாக இருந்தாலும், குடியாட்சியாக இருந்தாலும் அரசின்
அடிப்படைத் தன்மைகளும் கடமைகளும் மாறுவதில்லை. அரசின்
அதிகாரத்திற்கு ஆதாரமாக அமைவது அரசின் படைவலியே~
யாகும். வெளிநாட்டுப் பகைவர்களை எதிர்த்துப் போரிடு~
வதற்கும் பயன்படும் படைவலி, உள்நாட்டிலே மக்களிடை
அமைதியைப் பாதுகாக்கவும் பயன்பட்டது.</p>

<p>	மக்கள் தங்களிடையே எழும் பூசல்களைத் தீர்ப்பதற்~
கென்று தங்களுக்குள் சண்டையிட்டுக் கொண்டால் நாட்டின்
அமைதி குலைகின்றது. அரசு என்ற அமைப்பு உறுதி பெறுவதற்கு
முன்னர், மனிதன் தன் சொந்த வலிமை கொண்டு பூசல்களைத்
தீர்த்துக் கொண்டான். தன் பலத்தையே துணையாகக் கொண்டு
தன் இச்சைகளை எய்தலானான். அந்நாளில், வேலெடுத்தவன்
வெற்றி பெற்றான்; கோலெடுத்தவனின் கொள்கை நிலைத்தது.
அரசுமுறை ஏற்பட்ட பின்னரும் மக்கள் தங்களிடையே எழும்
பூசல்களைத் தாங்களே சண்டையிட்டுத் தீர்த்துக் கொள்ளும்
வழக்கத்தை விடவில்லை. ஒருவருக்கொருவர் தங்கள்
அடியாட்களை வைத்துக் கொண்டு ஆயுதச் சண்டையில் இறங்கித்
தங்கள் பிணக்குகளைத் தீர்த்துக் கொள்ளும் முறை இங்கிலாந்து
நாட்டில் பதினெட்டாம் நூற்றாண்டு வரை இருந்தது.</p>

<p>	அரசியல் வாழ்வில் முன்னேற்றம் அடைந்த பின்னரே,
படிப்படியாக, அரசு தன் வலிமையைப் பயன்படுத்தி,
மக்களிடையே தோன்றும் வழக்குகளைத் தீர்த்து வைக்கத்
தலைப்பட்டது. தனி மனிதனின் பலத்திற்குப் பதிலாக, சமூகத்தின்
கூட்டு வலிமை அரசின் மூலமாகக் குடிமக்கள் ஒவ்வொருவரின்
உரிமையையும் பாதுகாக்க முற்பட்டது. இவ்வாறு, உள்நாட்டின்
அமைதி பேணப்பட்டது. இந்நிலையில், வெளிநாட்டு
எதிரிகளைப் போரிட்டு விரட்டுவதும், நாட்டு மக்கள் இசைந்து
வாழும்படி செய்வதும் அரசின் அடிப்படைக் கடமைகள் ஆயின.</p>

<p>பக்கம்:74
	மனிதன் தன் சொந்த வலிமையைப் பயன்படுத்தித் தன்
உரிமைகளைப் பாதுகாக்க வேண்டிய அவசியம் இன்று இல்லை.
அப்படித் தனிப்பட்டோர் தங்கள் வலிமையைப் பயன்
படுத்துவதை அரசு தடுத்து நிறுத்துகிறது. ஒரு சமுதாயத்திலுள்ள
மக்கள் தங்களுக்குள் எழும் வழக்குகளை அரசால் அமைக்கப்~
பட்ட மன்றங்களின் தீர்ப்புக்கு விட்டு, அவைகளுக்குப் பணிந்து
நடக்கும் முறை சமுதாய நாகரிகத்தின் சின்னமாக இன்று
விளங்குகிறது.</p>

<p>	ஆதிகாலத்தில் இருந்தே, இந்திய நாட்டில் நீதி வழங்குதல்
என்பது அரசனின் முக்கிய கடமையாக இருந்து வந்தது. நீதி
வழங்குதல் என்பதை `முறை செய்தல்' என்஖ிறார் வள்ளுவர்.
முறை செய்து மக்களைக் காப்பாற்றும் மன்னனை இறைவனாகக்
கருதிப் போற்றினர் மக்கள் என்஖ிறார்:</p>

<p>	   முறைசெய்து காப்பாற்றும் மன்னவன் மக்கட்கு
	   இறைஎன்று வைக்கப் படும்</p>

<p>	இவ்வாறு, அரசு தன் வலிமை கொண்டு, மக்களிடையே
எழும் வழக்குகளைத் தீர்த்து நியாயம் அளிப்பதையே `நீதி
வழங்குதல்' - (முறை செய்தல்) என்று கூறுகிறோம். இதை
ஆங்கிலத்தில் Administration of Justice - என்பார்கள்.</p>

<p>	மக்கள் நலன்கள் பாதுகாக்கப்பட வேண்டுமெனில்,
அந்நலன்களைப் பொறுத்து அவர்களுக்கு உரிமை இருக்க
வேண்டும். அந்த உரிமைகளை அடிப்படையாகக் கொண்டுதான்
மக்களின் வாழ்வு நிறைவு பெற்று விளங்க முடியும். ஒருவன் தனது
சொத்தை அனுபவித்து நலம் பெற வேண்டுமெனில் அவனுக்குச்
சொத்துரிமை இருக்க வேண்டும். அவ்வாறே பிறருடன் செய்து
கொண்ட ஒப்பந்தத்தைச் செல்லுறுத்தும் உரிமை இருக்க
வேண்டும். இத்தகைய உரிமைகளை அரசு குடிமக்களுக்கு வழங்கிப்
பாதுகாக்கிறது.</p>

<p>	தங்கள் உரிமைகளுக்கு ஊறு விளையும் போது,</p>

<p>பக்கம்:75
அவற்றைப் பாதுகாப்பதற்கென நீதி மன்றங்களை மக்கள்
நாடுகின்றனர். அரசின் அங்கங்களான நீதி மன்றங்கள் நடு
நாயகமாக விளங்கி மக்களிடை எழும் உரிமை வழக்குகளைத்
தீர்த்து வைக்கின்றன. இவ்வாறு உரிமை வழக்குகளைத்
தீர்த்து அரசு நீதி வழங்குவதை `உரிமை இயல் நீதி முறை'
என்பார்கள்.</p>

<p>	தனி மனிதன் தன் வலிமையைப் பயன்படுத்தித் தன்
உரிமைகளைப் பாதுகாத்த நிலை மாறி, அரசு மக்களின்
உரிமைகளைப் பாதுகாப்பது `உரிமை இயல் நீதி முறை'யாகிறது.
தனி மனிதன் தன் வலிமையால் தனக்குத் தீங்கிழைத்தோரைப்
பழிதீர்க்கும் நிலை மாறி, அரசு குற்றவாளிக்குத் தண்டனை
விதிப்பது `குற்ற இயல் நீதி முறை'யாகிறது.</p>

<p>	என்னிடம் கடன் வாங்கியவர் திருப்பித் தரவில்லை
எனில் அது ஒரு தீங்கான செயல்தான். இதைத் `தனிமத்
தீங்கு' என்று சட்டம் குறிப்பிடுகிறது. என்
கையை இன்னொருவன் வெட்டி விட்டால் அதுவும் ஒரு தீங்கான
செயல்தான். இது என்னை மட்டுமே பாதிக்கின்றது. இருந்தாலும்
அது சமுதாயத்தின் அமைதியைக் குலைக்கும் செயலாகக்
கொண்டு இதைப் `பொதுமத் தீங்கு' என்று சட்டம்
குறிப்பிடுகின்றது. உரிமை இயல் நீதிமுறை தனிமத் தீங்குகளைப்
பொறுத்தது. குற்ற இயல் நீதி முறை `பொதுமத் தீங்கு'களைப்
பொறுத்தது. பொதுமத் தீங்குகளைச் சட்டம் குற்றங்கள் என்று
கொள்கின்றது.</p>

<p>	தனிமத் தீங்குகளைப் பொறுத்து அவற்றால் பாதிக்கப்பட்ட
தனிநபர்களே நீதிமன்றத்தில் வழக்கிட்டுத் `தீர்வழி'
பெறுகின்றார். பொதுமத் தீங்குகளைப் பொறுத்து அரசே
குற்றவாளிக்கு எ஥ிராக வழக்கிட்டு அவனைத் தண்டனைக்கு
உள்ளாக்குகிறது.</p>

<p>	தனிமத் தீங்கினைப் பொறுத்த உரிமை வழக்குகளில்
வாதியின் உரிமை பாதுகாக்கப்படுகிறது. பொதுமத் தீங்குகளைப்
பொறுத்த குற்ற வழக்குகளில் எ஥ிர்வாதி தாம் இழைத்த குற்றத்திற்கு
ஏற்ற தண்டனைக்கு உள்ளாகின்றார்.</p>

<p>பக்கம்:76
	உரிமை வழக்கைத் தொடர்ந்த வாதி தம் விருப்பப்படி
வழக்கை நடத்தலாம்; அல்லது நிறுத்திக் கொள்ளலாம். ஆனால்,
குற்ற வழக்குகளில் அரசே வாதியாக இருப்பதால் அரசு மட்டுமே
குற்ற வழக்கை நிறுத்திக் கொள்ள முடியும். குற்றத்தால் பாதிக்கப்~
பட்டவர் குற்றவாளியை மன்னித்தோ குற்றவாளியுடன் சமாதானம்
செய்துகொண்டோ குற்ற வழக்கை நிறுத்திக் கொள்ள முடியாது.</p>

<p>	நீதி வழங்கும் முறை இயங்குவது நீதி மன்றங்களின்
வாயிலாகத்தான். நீதி மன்ற நடுவர்கள் நடுவுநிலை தவறாது
செயலாற்றுகின்றனர். மக்களிடையே அவர்கள் வேற்றுமை
பாராட்டுவது இல்லை. வறியோர்க்கு ஒரு நீதி, வளமுடையோர்க்கு
ஒரு வகை நீதி என்று வழங்குவதில்லை. நீதிமன்றத்தின் முன்
அனைவரும் சமமாகவே கருதப்படுகின்றனர்.</p>

<p>	நீதிபதிகள் தம் முன் உள்ள வழக்கின் சிக்கல்களை அணுகி
ஓர்தல் வேண்டும். வழக்கில் சம்பந்தப்பட்ட தரப்பினர் எவர் மீதும்
இரக்கம் (கண்ணோட்டம்) காட்டுதல் கூடாது. நடுவுநிலை சிறிதும்
தவறாமல் வழக்கை ஆய்தல் வேண்டும். இறுதியாக உரிமை வழக்கில்
வாதிக்குப் பரிகாரம் அளித்தாலும், குற்ற வழக்கில் குற்றவாளிக்குத்
தண்டனை வழங்கினாலும் அதைத் தேர்ந்து செய்தல் வேண்டும்.
வழக்கிலுள்ள சூழ்நிலைகளுக்கு ஏற்ப எது பொருத்தமானதோ
அதைத் தேர்ந்து அதன்படி தீர்ப்பு வழங்க வேண்டும்.</p>

<p>	நீதிமுறையின் நேர்மைக் கூறுகளான இப்பண்புகள் இன்றும்
போற்றப்பெறுகின்றன. இக்கூறுகளனைத்தையும் இணைத்துக் கூறும்
திருக்குறள் இது:</p>

<p>	முறை செய்தல், நீதி வழங்குதல் என்பதற்கு இதைவிடச்
சிறந்த முறையில் இலக்கணம் கூறுதல் இயலாது என்று சொல்லலாம்.</p>

<p>	(வழக்கின் கூறுகளை) ஓர்ந்து, (஥ரப்பினர் எவர் மீதும்)
கண்ணோடாது, (நடுவுநிலை தவறாது) இறை புரிந்து, (முடிவை)
தேர்ந்து செய்வதே முறை செய்யும் முறைமை ஆகும் என்று கூறும்
இக்குறள் சிந்தித்துத் திளைக்கத்தக்கது.</p>

<p>பக்கம்:77
                  சட்டத்தை ஒட்டிய நீதிமுறை</p>

<p>	[சட்டத்தை ஒட்டிய நீதிமுறை - நிறைபாடுகளும்
	குறைபாடுகளும்]</p>

<p>	மக்களிடையே எழும் வழக்குகளைத் தீர்க்கும் மன்றங்~
களைப் பொதுவாக `நீதிமன்றங்கள்' என்று
குறிப்பிடுகின்றோம். (Court என்ற சொல்லை `முறைமன்றம்'
என்று தமிழில் சொல்வதே பொருத்தமாகும்.ஂ)</p>

<p>	அம்மன்றங்கள் சட்டங்களின் அடிப்படையிலேயே நீதி
வழங்குகின்றன. ஒரு வழக்கைத் தீர்ப்பதற்கு முன், அவ்வழக்~
கிலுள்ள சிக்கல்களுக்கு எந்தெந்தச் சட்டவிதிகள் சிக்கல்களுக்கு
சம்மந்தப்பட்டவை எனக் கண்டு, அவ்விதிகளுக்குத் தகுந்தவாறே,
தீர்ப்பு அளிக்கப்படுகிறது. சட்ட விதிகளைச் செல்லுறுத்தும்
வகையிலேயே நீதி வழங்கப்படுகிறது. எனவே~
தான், ஆங்கிலத்தில் நீதிமன்றங்களைச் `சட்டமுறை மன்றங்கள்'
என்றும் குறிப்பிடுகின்றோம்.</p>

<p>	சட்ட விதிகளைப் புறக்கணித்து விட்டு, அவற்றுக்கு
மாறாக, வழக்குகளில் தீர்ப்பு அளிப்பது முறையற்ற செயலாகும்.
சட்டங்கள் என்ற கால்வாய்களின் வழியாகத்தான் நீதி என்ற நீர்
பாய வேண்டும். இந்த முறையில் நீதி வழங்குவதுதான் நீதிமன்ற
நடுவர்களின் கடமையாகின்றது. நீதி முறையின் செப்பமும்
சிறப்பும் அது சட்டத்தின் அடிப்படையில் இயங்குவதேயாகும்.
     </p>

<p>               0 
</p></body></text></cesDoc>