<cesDoc id="tam-w-science-computer-kipi1" lang="tam">
<cesHeader type="text">
<fileDesc>
<titleStmt>
<h.title>tam-w-science-computer-kipi1.txt</h.title>
<respStmt>
<respType>Electronic file created by</respType>
<respName>Central Institute for Indian Languages, Mysore</respName>
<respType>transferred into Unicode and CES format by</respType>
<respName>"Unicodify" software by Andrew Hardie</respName>
</respStmt></titleStmt>
<publicationStmt>
<distributor>UCREL (on behalf of CIIL)</distributor>
<pubAddress>Department of Linguistics, Lancaster University, Lancaster, LA1 4YT, UK</pubAddress>
<availability region="WORLD"></availability>
<pubDate>03-07-09</pubDate>
</publicationStmt>
<sourceDesc>
<biblStruct>
<monogr>
<h.title>கி. பி. 2000 - க்கும் அப்பால்...</h.title>
<h.author>சுஜாதா</h.author>
<imprint>
<pubPlace>India</pubPlace>
<publisher>Unknown - Book</publisher>
<pubDate>1989</pubDate>
</imprint>
<idno type="CIIL code">kipi1</idno>
</monogr></biblStruct></sourceDesc></fileDesc>
<encodingDesc>
<projectDesc>Text collected for the CIIL Corpus, subsequently integrated into the EMILLE/CIIL Monolingual Written Corpora.</projectDesc>
<samplingDesc>Simple written text only has been transcribed. Diagrams, pictures and tables have been omitted. Sampling begins at page 35.</samplingDesc>
<editorialDecl><conformance level="1"></conformance></editorialDecl>
</encodingDesc>
<profileDesc>
<creation><date>03-07-09</date></creation>
<langUsage>Tamil</langUsage>
<wsdUsage>
<writingSystem id="ISO/IEC 10646">Universal Multiple-Octet Coded Character Set (UCS).</writingSystem>
</wsdUsage>
<textClass>
<channel mode="w">print</channel>
<constitution type="composite"></constitution>
<domain type="public"></domain>
<factuality type="fact"></factuality>
</textClass>
<translations></translations>
</profileDesc>
<revisionDesc></revisionDesc>
</cesHeader>

<text><body>

<p>பக்கம்:45
                        6</p>

<p>              உயிர் என்பது என்ன?</p>

<p>உயிருள்ளது எது, உயிரற்றது எது என்பது பற்றி நம்~
மிடம் சந்தேகம் எப்போதும் இருந்ததில்லை. மனித
மொழிகள் பலவற்றில் உயர்திணை, அஃறிணை என்ற
பாகுபாடு இருக்கிறது.</p>

<p>உயிரற்ற பொருள்களையும் தன்மைகளையும் குறிப்~
பதற்குப் பல வார்த்தைகளும் உள்ளன. `உயிருள்ள
ஓவியம்' என்கிறோம். `உயிரில்லாத டிவி நாடகம்'
என்கிறோம். `மூக்கு வழியாக தாத்தாவுக்கு உசிர்
போச்சு' என்கிறோம்.</p>

<p>உயிர் என்றோ பிராணன் என்றோ தனியாக நமக்குள்
இருப்பதாகவும், அது, சாகும் தருவாயில் சினிமாவில்
வருவது போல மெழுகுவர்த்஼தியோ, அகல் விளக்கோ
அணைந்து போனபின் நம்மைவிட்டு விலகுகிறது என்று~
தான் எண்ணிக் கொண்டிருக்கிறோம்.</p>

<p>அப்படி உயிர் என்று ஒன்று இருக்கிறதா? தனிப்பட்ட
ஓர் உன்னதக் காற்று லேசான நீலத்திலோ அல்லது
சிவப்பிலோ கொஞ்சம் கடவுளின் மூச்சும் கவிதையும்
சேர்த்து நம்மில் உறைந்து நம் உடல் எனும் குடிலை
விட்டு நம் ஆயுள் முடியும்போது பிரிந்துபோய் ஒரு மகா
உயிருடன் ஐக்கியமாகிவிடுகிறதா? அல்லது விண்வெளி~
யில் தனியாகத் திரியச் சம்மதிக்கிறதா?</p>

<p>வேறுபாடு என்ன?</p>

<p>இல்லை என்கிறது விஞ்ஞானம்... உயிருள்ளதற்கும்
உயிரற்றதற்கும் பின் என்னதான் வேறுபாடு?</p>

<p>பக்கம்:46
உயிருள்ளவை, நடமாடக் கூடியவை என்றால் மோட்~
டார் கார்கள், ரோபோட்டுகளுக்கு உயிர் இருக்கிறது
என்று சொல்லவேண்டும். அப்படி இல்லை. தம்மைப்
போன்ற வடிவுள்ள பொருள்களைப் பிறப்பிக்கச் செய்~
வதுதான் உயிருள்ளதற்கு அடையாளம் என்றால்,
அதற்கும் மிஶின்கள் இன்று வந்து விட்டன, வந்து
கொண்டிருக்கின்றன. பேச்சு, பாட்டு, கைத்திறன்
எ஥ுவும் உயிருக்கு அடையாளம் இல்லை.</p>

<p>இருந்தும், மோட்டார் காருக்கு உயிரில்லை என்பதைப்
பற்றிச் சிறு குழந்தைகளுக்குக்கூட குழப்பம் இல்லை.
நம் உள்ளுணர்வில் அந்஼த அடையாளம் இருக்கிறது.</p>

<p>இயற்பியல் விதிகள்</p>

<p>ஒரு கல்லுக்கும் ஶ்ரீதேவிக்கும் என்ன வித்தியாசம்?
அடிப்படையில், அமைப்பில் அணுக்கரு வரை சென்~
றால் கல் என்பது சிலிக்கன், கால்சியம் போன்ற பற்பல
அணுக்களின் கூட்டமைப்பு. ஶ்ரீதேவி கார்பன், நைட்~
ரஜன், பாஸ்பரஸ் போன்ற அணுக்களின் கூட்டமைப்பு.
உத்தமமான கூட்டமைப்புத்தான். இருந்தாலும் இயற்~
பியல் விதிகள் கல்லுக்கும் பெண்ணுக்கும் ஒன்றே.
இரண்டு பேரும் ஆதாரமாக ப்ரோட்டான், எலக்ட்ரான்,
நியூட்ரான்தான். அவைகள் ஒன்றுக்கொன்று ஒட்டிக்
கொள்ளும்  விதிகள். உயிருள்ளவை, இல்லாதவை
இரண்டிற்கும் ஒன்றேதான்.</p>

<p>உயிர் என்பதில் இன்றைய தேதிக்கு ஏதும் ஂசாகசமில்லை.
வேதியியல் / இயற்பியல்களின் சாதாரண விதிகள்~
தாம் நம் டி.என்.ஏ., ஆர்.என்.ஏ. கூட்டணுக்~
களை நிர்ணயிக்கின்றன. இந்தக் கூட்டணுக்களின்
முதுகெலும்புபோல இருப்பவை சர்க்கரை வளையங்கள்.
இந்த வளையங்களுடன் ஒட்டவைக்கப்படும் அணுக்~
களும் கூட்டணுக்களும் `கோவேலண்ட் பாண்டிங்'
என்னும் முறைப்படி அமைகின்றன.
உயிரணுக்களின் சரங்கள் (ஏணிப்படி சொன்னோமே
ஞாபகமிருக்கிறதா?) இரண்டையும் இணைத்து
வைப்பது க்வாண்டம் விதிப்படி நிகழ்வது. உயிரின்
அனைத்துச் செயல்பாடுகளையும் சற்றுச் சிக்கலான
வேதியியல், குவாண்டம் இயற்பியல் இவைகளைக்
கொண்டு விளக்கமுடியும்.</p>

<p>பக்கம்:47
பின் உயிர் என்பது என்ன?</p>

<p>சிக்கலானவை</p>

<p>யோசித்துப் பார்த்தால் உயிருள்ளதற்கும் இல்லாததற்~
கும் ஒரு வித்தியாசம் இருப்பதாகப்படுகிறது. உயிரணுக்~
கள் மிகச் சிக்கலானவை, உயிரற்றவைகளின் அணு
அமைப்பு கொஞ்சம் எளிதானதே. உயிரற்ற வாயு,
திடப் பொருள்கள் எல்லாமே திரும்பத் திரும்ப வரும்...
உயிருள்ளவைகளுடன் ஒப்பிட்டால்... எளிமையான
கட்டட அமைப்புக்கொண்டவை.</p>

<p>பூமி, சந்திரன், சூரியன், நட்சத்திரங்கள் இவைகளைக்
கூட ஒருசில அணு வகைகளின் சிக்கலில்லாத அமைப்பு~
களாக விவரித்து விடமுடிகிறது. உதாரணத்துக்கு,
சூரியன் பெரும்பாலும் ஹைட்ரஜன், ஹீலியம் போன்ற
எளிய அணுக்களால் ஆனது.</p>

<p>உயிரணு என்று நான் குறிப்பிடுவது cell என்ற
சிக்கலான மாலிக்யூல் கூட்டணுவையே; atom என்கிற
தனிப்பட்ட அணுவை அல்ல.</p>

<p>உங்கள் உடலில் இருக்கும் ஒரு செல், ஒரே ஒரு உயி~
ரணு அமைப்பு, ஒரு பெரிய நட்சத்திரத்தைவிடச் சிக்க~
லானது. இந்த வகையில் என் உடம்பில் கோடானு~
கோடி செல்கள் உள்ளன. அவைகளில் பற்பல ஒன்றி~
லிருந்து ஒன்று வேறுபட்டவை. ஒவ்வொன்றும் ஒரு
ராச்சியம்போல இருந்தாலும், இவை அனைத்தும் ஒரு~
மித்து `நான்' என்னும் முழுசாகி இந்தக் கட்டுரையை
எழுதவைக்கிறது. நெற்றியைச் சொரிந்து கொள்ளச்
செய்கிறது.</p>

<p>விவரிக்க இயலாது</p>

<p>ஒரு சூரியன் எரிவதையோ, ஒரு நட்சத்திரம் அழிவதை~
யோ, ஒரு கல் நகர்வதையோ சில எளிய கணக்குகளைக்
கொண்டு விவரித்து விடலாம். ஆனால், ஒரு மனிதன்
இயங்குவதை ஏன்... ஒரு எறும்பு நடப்பதை முழுவது~
மாய் விவரிக்க ஒட்டு மொத்தமான கணக்குகள் இன்ன~
மும் கண்டுபிடிக்கப்படவில்லை.</p>

<p>உயிருள்ள பொருள்கள் எப்படி நடந்துகொள்கின்றன,</p>

<p>பக்கம்:48
எப்படிக் காதல் செய்கின்றன. எப்படிச் சண்டை
போட்டுக்கொள்கின்றன என்பதை நம்மால் மேம்போக்~
காக விவரிக்க முடிகிறதே தவிர, ஒரு செல் ஒரே ஒரு
உயிரணுவை முழுவதும் விவரிக்கக் கணித சாத்திரத்~
தையோ, கம்ப்யூட்டர் மாடலையோ இதுவரை
யாரும் செய்யவில்லை.</p>

<p>உயிரணுக்கள் மிகமிகச் சிக்கலானவை. இதில்
சந்தேகமே இல்லை. இது மட்டுந்தான் உயிருக்கு
அடையாளமா? போதாது. ஒரு கம்ப்யூட்டரையோ
ஏரோப்ளேனையோ எடுத்துக்கொண்டால் அதுவும் மிகச்
சிக்கலானது. ஒரு கம்ப்யூட்டரில் உள்ளுக்குள்ளே
சென்று அதன் `எல்எஸ்ஐ' என்று சொல்லப்
படுகிற செல்லுகளைக் கூர்ந்து நோக்கினால் லட்சக்~
கணக்கான சின்னச் சின்ன பாகங்கள் தென்படும். கம்ப்~
யூட்டர், ஏரோப்ளேன் போன்றவைகளும் அமைப்பில்
சிக்கலானவை. அதனால் அவைகளுக்கு உயிர் இருக்~
கிறது என்று யாரும் சொல்லமாட்டார்கள்.</p>

<p>ஏரோப்ளேன் எப்படி வேலை செய்கிறது என்று என்~
னால் திட்டவட்டமாகச் சொல்ல முடியாது. அதேபோல
ஒரு புலியோ, பூனையோ எப்படி இயங்குகிறது என்~
பதையும் முழுசாக என்னால் சொல்லமுடியாது. ஆனால்
ஒரு ஏரோப்ளேன் எங்கே எப்படிப் பிறந்தது, எப்படி
அது வடிவமைக்கப்பட்டது, எப்படி உருவாகி முடிந்தது
என்பதை என்னால் தீர்மானமாகச் சொல்ல ஂமுடியும்.</p>

<p>ஆரம்பித்தது எப்படி?</p>

<p>ஏனெனில், ஏரோப்ளேன் மனிதன் உண்டாக்கினது.
அந்த மாருதி கார் ஹரியானாவில் எப்படி, எந்தத் தகடு~
களிலிருந்து தயாரிக்கப்பட்டது என்கிற ஞானம் நம்~
மிடம் உள்ளது. ஆனால், ஒரு மனித உயிர் எ஫்படி
ஆரம்பித்தது என்பதைப் பற்றி நமக்குத் தெரியாது.
உயிரின் ஆரம்பங்கள் நமக்குத் தெரிவிக்கப்படவில்லை.
அதைப்பற்றி யூகங்கள்தாம் செய்ய முடியும். உயிரற்ற
பொருள்கள் அ஥்தனையையும் ஆரம்பத்திலிருந்து
விவரிக்க முடியும்.</p>

<p>ஏரோப்ளேன்கள் ஒரு இன்ஜினீயரின் வரைபடங்களிலிருந்து</p>

<p>பக்கம்:49
தயாரிக்கப்பட்டவை. ஶ்ரீதேவிக்கு வரைபடங்~
கள் இல்லை!</p>

<p>பதினெட்டாம் நூற்றாண்டில் வாழ்ந்த வில்லியம் பேலி
என்பவர் கடவுள் இருக்கிறார் என்~
பதற்குக் காரணம்காட்டி "நாச்சுரல் தியாலஜி"
என்று ஒரு புத்தகம் எழுதியிருக்~
கிறார். அதில் - `ஒரு பாதையில் நடந்து செல்லும்
போது கீழே ஒரு கல் கிடக்கிறது. `இந்தக் கல் இங்கே
எப்படி வந்தது?' என்று என்னை நீங்கள் கேட்க
அதற்கு நான் `இந்தக் கல் எப்போதும் இங்கேதான்
இருக்கிறது' என்று சொன்னால் அதை நம்புவதில்
உங்களுக்குச் சிரமம் இருக்காது. ஆனால், வழியில்
நீங்கள் ஒரு கடிகாரத்தைப் பார்க்கிறீர்கள் என்று
வைத்துக்கொள்ளலாம். இது எப்படி இங்கே வந்தது
என்று என்னை நீங்கள் கேட்க, நான் அந்தப் பழைய
பதிலைக் கொடுக்க முடியுமா, யோசித்துப்பாருங்கள்?
ஒரு கடிகாரம் போன்ற சிக்கலான அமைப்பு ஆதி~
காலத்திலிருந்தே யாரும் அதை உருவாக்காமல் த஼ன்~
னிச்சையாகக் கிடக்கமுடியுமா, சொல்லுங்கள்?" என்~
கிறார்.</p>

<p>பேலி இந்த வகையில் கடவுள் இருக்கிறார் என்பதற்குக்
காரணம் காட்டுகிறார்.</p>

<p>படைப்பாளி</p>

<p>"கடிகாரத்தைச் செய்தவன் ஒருத்தன் இருந்தே ஆக
வேண்டும். எப்போதாவது, எங்காவது அதை அமைத்த~
வன் அல்லது அமைத்தவர்கள், ஒரு காரணத்துக்காக
அதன் அமைப்பைப் புரிந்துகொண்டு அதை வடி~
வமைத்துச் செய்திருக்கத்தான் வேண்டும். கடிகாரத்தின்
வடிவமைப்பைவிடப் பன்மடங்கு அதிகச் சிக்கலானது
இயற்கையின் பல்வேறு உயிர் வடிவங்கள். எனவே
அவைகளுக்கு ஒரு படைப்பாளி இருந்துதான் ஆக
வேண்டும்". -வலுவான வாதம். ஆனால் டார்வினின்
பரிணாம தத்துவத்தின்படி இந்த வாதத்தைத் தகர்ப்பது
மிக எளிது. அதை அப்புறம் பார்க்கலாம் (மற்றொரு
கட்டுரை).</p>

<p>இப்போது, உயிருள்ளதற்கும் இல்லாததற்கும் வித்தியாசம்</p>

<p>பக்கம்:50
என்று நாம் ஆரம்பித்த சுருதியை மறுபடி
பிடிக்கலாம்.</p>

<p>முக்கிய வித்தியாசம்</p>

<p>உயிருள்ளதற்கும் உயிரில்லாததற்கும் முக்கியமான
வித்தியாசம் கீழ்க்காணும் வாக்கியங்களிலிருந்து புரி~
கிறதா பாருங்கள்: ஒரு செத்த பறவையை வானத்தில்
வீசி எறிந்தால் அது நியூட்டனின் விதிகளின்படி பொத்~
தென்று கீழே விழும். அதே சமயம் ஓர் உயிருள்ள பற~
வையை வானத்தில் எறிந்தால் அது கீழே விழாமல்
பறந்஼து போகும். இதுதான் வித்தியாசம்! அப்படி~
யெனில், உயிருள்ளவைகளுக்கு நியூட்டனின் விதிகள்
இல்லை என்று நான் சொல்லவில்லை, உயிருள்ள
பறவை அதே பௌதீக விதிகளை உபயோகித்துக்கொள்~
கிறது. தன் இறக்கைகளின் தசைகளை அசைத்து புவி
ஈர்ப்பு விசையைச் சமாளித்துக் கீழே விழாமல் அடிபடா~
மல் பறந்து செல்கிறது. விதிகளில் மாற்றமில்லை,
உயிருள்ளவைகள் அவைகள் உயிர் வாழ உயிரின்
தொடர்ச்சிக்காக பயன்படுத்துகின்றன.</p>

<p>ஒரு கல்லைப் பொடியாக்கினால், கல் ஏதும் செய்யாமல்
பார்த்துக் கொண்டே இருக்கும். அது, சூழ்நிலையில்
ஏற்படும் மாற்றங்களை அப்படியே ஏற்றுக்கொள்கிறது.
உயிருள்ளவைகள் சூழ்நிலையை உயிரின் தொடர்ச்~
சிக்குப் பயன்படுத்துகின்றன. உயிருள்ளவை மர~
ணத்தைத் தவிர்க்க, அழிவைத் தவிர்க்க அல்லது ஒத்~
திப்போட முயற்சிக்கின்றன. உயிரற்றவை அவ்வாறு
எந்தவித முயற்சியும் எடுத்துக் கொள்வதில்லை.</p>

<p>இமயமலையை டைனமைட் வைத்து வெடித்தால் அது
சும்மா பார்த்துக் கொண்டே இருக்கும் ஒரு எறும்பைச்
சீண்டினால் உடனே தப்பித்து ஓட முயற்சி செய்யும்.</p>

<p>நம்முடைய சிக்கலான உயிரணுக்கள் எப்போது
தன்னைத்தானே சரம் பிரிந்து இரட்டிப்பாக்கிக்
கொள்ளத் துவங்கினவோ அப்போதுதான் உயிரின்
ஆரம்பம் ஏற்பட்டது. நம் உயிரின் அணுவின்
உட்கருவை `நியூக்ளியஸ்' என்று சொல்கிறார்கள்.
அதில் பொதிந்திருக்கும் டி.என்.ஏ. சரத்தில் பதிவாகி~
யிருக்கும் பாரம்பரியச் செய்தியின் அளவு என்சைக்ளோபீடியா</p>

<p>பக்கம்:51
பிரிட்டானிகா
என்னும் முப்பது பாகம் கொண்ட கலைக்களஞ்சியத்தை
விட அதிகம் என்கிறார்கள். இ஥ு ஒரு செல்... ஒரு
உயிரணு!</p>

<p>நம் தேகத்தில் இருக்கும் மொத்த உயிரணுக்கள் எத்~
தனை தெரியுமா? சுமார் பத்து லட்சம் கோடி. அடுத்த
முறை நீங்கள் `சிக்கன்' கடிக்கும்போது பத்தாயிரம்
கோடி கலைக்களஞ்சியப் புத்தகங்களையும் கடிக்கிறீர்~
கள்!</p>

<p>பக்கம்:52
                      7</p>

<p>              மனத்தின் அதிசய
                 ஆற்றல்கள்</p>

<p>ஒரு பறவை கூடு கட்டுவதைப் பார்க்கும்போது நாம்
வியப்படைகிறோம். ஒரு பூ மலரும்போது, ஒரு நதி
பெருகும்போது, அவரவர் தகுதிக்கேற்ப வியப்படைந்து
அவைபற்றி புத்தகம் எழுதுகிறோம்; கவிதை வடிக்கி~
றோம்; இல்லை, கடவுள் செயலுக்கு ஆதாரமாக
அவைகளைக் காட்ட விழைகிறோம்.</p>

<p>இருந்தாலும் நமக்குள்ளேயே இருக்கும் ஒரு மகத்தான
வியப்பைப்பற்றி நாம் கண்டு கொள்வதே இல்லை,
அது இருப்பதாகவே நமக்கு சுரணை இல்லை. நான்
குறிப்பிடுவது நம் மனத்தின் ஆற்றல்களை...</p>

<p>கீழ்க்காணும் பன்னிரண்டு கேள்விகளை சற்றுத் தீவிர~
மாக யோசித்துப் பாருங்கள்.</p>

<p>1.  சென்ற வாக்கியத்தின் கடைசி வார்த்தைத்
தொடரை யோசித்துப் பாருங்கள். அதைப் படித்த
போது உங்கள் மனத்தில் நிகழ்ந்ததென்ன?</p>

<p>நீங்கள் பார்த்தது அச்சில், காகிதத்தில் சில வடிவங்கள்,
அந்த வடிவங்களை கண்மூலம் மூளைக்குள் வாங்கிக்
கொண்டு அங்கே உங்கள் மூளைக்குள் இருக்கும் பல்லா~
யிரக்கணக்கான எழுத்து வடிவங்களுடன் அதை ஒப்பிடு~
கிறீர்கள். அந்த `டிக்ஶனரி'யில் "யோசித்துப்
பாருங்கள்." என்கிற வார்த்தைத் தொடர் கிட்டியதும்
அதை அந்த வாக்கியத்தின் பின்னணியில் பொருத்தி,</p>

<p>பக்கம்:53
"இந்த ஆளு நம்மை யோசிக்கச் சொல்றான்" என்று
அர்த்தம் பண்ணிக் கொள்கிறீர்கள், இதெல்லாம் நிகழ்~
வது ஒரு கணத்தில்!</p>

<p>எந்தக் கதவு?</p>

<p>2.  நீங்கள் இப்போது இருக்கும் வீட்டிற்கு முன்பு
மற்றொரு வீட்டில் குடியிருந்தீர்கள் அல்லவா? அதில்
வாசல் கதவு இடதுபக்கம் திறந்ததா, வலது பக்கம்
திறந்ததா?</p>

<p>இந்தக் கேள்விக்கு பதில் சொல்ல உங்கள் மூளைக்குள்
ஒரு கேள்வியை அனுப்பி, எங்கோ ஒரு மூலையில் பதிந்~
திருக்கும் உங்கள் பழைய வீட்டின் பிம்பத்தை தூசி தட்~
டிக்கொண்டு வந்து, அதன் கதவைக் குறிப்பாக
அழைத்து வலது பக்கமா, இடது பக்கமா என்று கண்டு
பிடிக்கிறீர்கள். இதற்கும் அதிக சமயம் ஆவதில்லை.</p>

<p>3.  உங்கள் வீட்டிலிருந்து ரயில்வே ஸ்டேஶனுக்கு
எப்படிப் போவது?</p>

<p>இதற்கு பதில் சொல்ல உங்கள் மனத்தில், வீட்டி~
லிருந்து ஸ்டேஶனுக்கு ஒரு `மேப்' மாதிரி அமைத்துக்
கொண்டு அதை வாக்கிய ரூபத்திற்கு மாற்றுகிறீர்கள்.
அப்படி வாக்கிய வடிவம் தரும்போது மொழி அமைப்பு,
இலக்கணம் இவைகளிலும் தவறுவதில்லை. மேலும்
கேட்பவருக்கு உரிய மரியாதை, கேட்பது ஆணா,
பெண்ணா போன்ற விஶயங்களும் உங்கள் வாக்கிய
அமைப்பை பாதிக்கின்றன.</p>

<p>திப்புசுல்தான்</p>

<p>4.  திப்பு சுல்தானின் டெலிபோன் நம்பர் என்ன?</p>

<p>இந்தக் கேள்வியைப் பார்த்ததுமே உங்கள் மனதில்
இது அபத்தமான கேள்வி என்று பட்டுவிடுகிறதல்லவா?
எப்படி?</p>

<p>உங்கள் மனத்தில் உள்ள `டெலிபோன் புத்தகத்தைத்'
தேடி திப்பு சுல்தானின் நம்பர் இல்லை என்று முடி~
வெடுத்தீர்களா? இல்லை, திப்பு சுல்தானின் சரித்திரம்
ஒருவாறு தெரிந்திருந்து, அந்த நாட்களில் டெலிபோன்</p>

<p>பக்கம்:54
கண்டுபிடிக்கப்படவில்லை. எனவே கேள்வி அபத்தம்
என்ற முடிவுக்கு வந்தீர்களா? இல்லை, இது இரண்டு~
மே இல்லையா? எப்படி இந்த அதிசயமான அவசர~
மான முடிவுக்கு அனாயாசமாக வந்தீர்கள்?</p>

<p>மனத்தில் தேடல்</p>

<p>5.  ஒரு ஆணுக்கும், ஒரு பெண்ணுக்கும் ஏற்படக்~
கூடிய பிணைப்பை,  பாசத்தை தெரிவிக்கும் மூன்~
றெழுத்து வார்த்தை என்ன? முதல் எழுத்து கா...
இந்தக் கேள்விக்கு பதில் சட்டென்று சொல்லிவிடு~
கிறீர்கள் காமம்...ஸாரி, `காதல்' என்று. ஆனால்
இந்த பதிலைச் சொல்ல உங்கள் சிந்தையில் நடந்த
விந்தை என்ன என்று யோசித்துப்பாருங்கள். உங்கள்
மனத்தில் உள்ள பத்தாயிரம் அல்லது இருபதாயிரம்
வார்த்தைகளைத் தேடி அந்த `காதலு'க்கு வந்தீர்~
களா...இல்லை, இந்த `காதல்' என்கிற வார்த்தை~
யை மட்டும் சட்டென்று கொய்துகொண்டு வந்தீரா?
இல்லை, கேள்வி கேட்கும்போதே இது காதல்தான்
என்று தீர்மானித்தீர்களா? எப்படி நிகழ்ந்தது இந்தத்
தேடல்?</p>

<p>6.  ஆங்கிலத்தில் மணி என்ன என்று கேளுங்கள்
என்று உங்களை பணித்தால் உடன் நீங்கள் `வாட்
இஸ் தி டைம்' என்கிறீர்களே, எப்படி அது?</p>

<p>மொழிபெயர்ப்பு என்பது வார்த்தைக்கு வார்த்தை நிகழ்~
கிறதா, இல்லை, வாக்கியமாக உருப்போட்டு வைத்~
திருக்கிறீர்களா? எப்படி இது நிகழ்கிறது?</p>

<p>கடி "ஜோக்"</p>

<p>7.  மாமா: "ஐயாயிரம் ரூபா கொடுத்தா எம்
பொண்ணை கல்யாணம் பண்ணிக்கிறாயாப்பா?"</p>

<p>இளைஞன்: "ஐயாயிரம் ரூபாய் கொடுத்தா உங்~
களையே கல்யாணம் பண்ணிக்கிறேன் மாமா."</p>

<p>இந்த கடி ஜோக்குக்கு நீங்கள் சிரித்தீர்களா இல்லை~
யா? இதை ஒரு நாயிடமோ கம்ப்யூட்டரிடமோ சொன்~
னால் சிரிக்காது. உங்களை மட்டும் சிரிக்கவைத்த (அல்~
லது முறைக்க வைத்த)து எது? ஏன்?</p>

<p>8.  நாளைக்கு நாலு நாள் முன்னால் வியாழக்கிழமை</p>

<p>பக்கம்:55
என்றால் நேற்றைக்கு மூன்று நாள் அப்பால் என்ன
கிழமை?</p>

<p>இதற்கு விடை (விடை: செவ்வாய்) கண்டுபிடிக்க
உங்கள் மனத்தில் படிப்படியாக சிந்திக்கிறீர்கள். அன்~
றாட வாழ்க்கையில் பலபிரச்சினைகளை இந்த முறை~
யில்தான் சிந்திக்கிறீர்கள்.</p>

<p>மகத்தான சிந்தனைகள் கூட, சிலதை இந்த வரிசை~
யாக சிந்திப்புமுறையில்தான் தீர்த்து வைக்கிறோம்
என்று சொல்கிறார்கள்.</p>

<p>9.  விதைக்கு மரம் எப்படியோ அப்படி குழந்~
தைக்கு...?</p>

<p>இந்தக் கேள்விக்கு எப்படி பதில் சொல்கிறீர்கள்! இதை
காக்னிட்டிவ் ரீசனிங் என்கிறார்~
கள்.</p>

<p>அதை முழுமையாக விளக்க ஐம்பது பக்கங்கள் ஆகும்.
சுருங்கச்சொன்னால், முதலில் விதைக்கும் மரத்துக்கும்
உள்ள குணாதிசயங்களையெல்லாம் அலசிப் பார்த்து
அவைகளுக்குள் உள்ள ஒரு உறவை ஒரு விதி முறை~
யாக்கிக்கொண்டீர்கள். அந்த விதிமுறைப்படி குழந்~
தைக்கு யார் அல்லது எது, வரும் என்று சிந்தித்துப்
பார்த்து விதை மரமாகிறது. அதுபோல் குழந்தை முழு
மனிதனாகிறது என்று தீர்ப்பளிக்கிறீர்கள்.</p>

<p>10.  கீழ்க்காணும் பொருள்களில் குழு சேராதது எது...
ரோஜா, மல்லிகை, செவ்வந்தி, தாமரை, திருவள்ளு~
வர்...</p>

<p>சட்டென்று, `திருவள்ளுவர்' என்று சொல்லிவிட்டீர்~
கள்... ஆனால், எப்படி? வார்த்தைகளை ஒவ்வொன்~
றாகப் படிக்கும்போது ஒரு பொது குணாதிசயத்தைக்
கண்டுபிடித்து, அந்த குணாதிசயம் பொருந்தாத ஒரு
வார்த்தையை விலக்கினீர்க஼ள். அதேசமயம், கீழ்க்
காணும் வார்த்தைகளில் திருவள்ளுவரை விலக்குவீர்~
களா? யோசித்துப் பாருங்கள். ரோஜா, செவ்வந்தி,
திருவள்ளுவர், தயிர்வடை, அம்ப்ரெல்லா... இதில்
பெரும்பாலும் `அம்ப்ரெல்லா'வை ஒதுக்குவீர்கள். ஏன்?</p>

<p>பக்கம்:56
11.  விஸ்கியும் சோடாவும் சாப்பிட்டால் மயக்கம்
வரும். ரம்மும் சோடாவும் சாப்பிட்டால் மயக்கம்
வரும். எனவே சோடாதான் மயக்கத்துக்குக் கார~
ணம்.</p>

<p>இந்த வாதம் தப்பா, ரைட்டா? உடனே தப்பு என்று
எப்படிச் சொன்னீர்கள்? அதற்கு உதவியது. உங்கள்
சாராய அனுபவமா, தர்க்க திறமையா? எந்தவிதமான
லாஜிக் சாமர்த்தியத்தைப் பயன்படுத்தினீர்கள்?</p>

<p>ராஜாக் கதை</p>

<p>12.  ஒரு ஊர்ல ஒரு ராஜாவாம். அந்த ராஜாவுக்கு
குழந்தையே பிறக்கலையாம். அதுக்காக ஒரு யாகம்
பண்ணாராம். அந்த யாகத்திற்குப் பேரு புத்திர
காமேஶ்டியாம்...</p>

<p>இப்படி ஒரு கதையைக் கேட்கும்போது உங்கள் மனத்~
தில் நிகழ்வது எல்லாம் என்ன? என்ன? `ஒரு ஊர்ல'
என்று ஆரம்பிக்கிறபோதே இது பழைய கதை என்று
உங்கள் நம்பிக்கைகளை தளர்த்திக்கொண்டு கதையை
சகித்துக்கொள்ளத் தயாராகிறீர்கள். இந்தக் கதையில்
என்னவேண்டுமானாலும் நிகழலாம். ரிஶிகள் வரலாம்,
கந்தர்வர்கள் பறக்கலாம், மிருகங்கள் பேசலாம். அவை~
யெல்லாவற்றிற்கும் தயாராகிறீர்கள். புத்திரகாமேஶ்டி
என்று வந்ததும் "ஓஓ... இது கேட்ட கதை. ராமா~
யணத்தின் சாயல்" என்று தீர்மானிக்கிறீர்கள்.</p>

<p>மேற்சொன்ன பன்னிரண்டு கேள்விகளையும் மார்ட்~
டன் ஹண்ட் என்பவரின் `தி யூனிவர்ஸ்
வித்தின்' என்கிற புத்தகத்தி~
லிருந்து தமிழ்தடவி உங்களுக்கு நான் கொடுத்த கார~ 
ணம் மனமெனும் செயல் பாட்டின் விந்தைகளை
உணர...</p>

<p>ந்யூரோன்கள்</p>

<p>அனைத்தும் தினசரி அதிசயங்கள். உங்கள் அன்றாட
செயல்பாடுகளில் சிந்தனையை சகட்டுமேனிக்கு உப~
யோகிக்கிறீர்கள். அதன் விந்தைபற்றிக் கவலையே
படாமல் மேற் கூறிய ஒவ்வொரு சிந்தனையின்
போதும் உங்கள் மூளைக்குள் ந்யூரோன்களின்</p>

<p>பக்கம்:57
பாதைகளில் செல்லும் சிக்கலான மின்
சலனத்தைப்பற்றி யாரும் சிந்திப்பதே இல்லை.சிந்திக்க~
வும் முடியாது. ஹார்வர்டு பல்கலைக்கழகத்~
தைச் சார்ந்த ஶெல்டன் வைட் நம்
மூளையில் உள்ள இணைப்புகள் அமெரிக்காவின் அத்த~
னை டெலிபோன் இணைப்புகளையும்விட அறுபது
மடங்கு அதிக சிக்கலானது என்கிறார்.</p>

<p>மற்றொரு அதிசயம், நம் மனத்தில் உள்ள செய்திவங்கி
மேற்சொன்ன பன்னிரெண்டு வகைக்
கேள்விகளுக்காக எத்தனை செய்தி வங்கிகளிலிருந்து
தகவல் எடுத்தீர்கள் என்று யோசித்துப்பாருங்கள். கார்~
னெகி மெல்லான் பல்கலைக்கழகத்~
தைச் சேர்ந்த ப்ரொபஸர் ஹெர்பர்ட் சைமன்
஖ூற்றின்படி ஒரு செஸ் ஆட்டக்காரரின் மூளை~
யில் 50,000 செஸ் வடிவங்கள் பதிந்திருக்கின்றன என்~
கிறார்.</p>

<p>இவ்வாறு ஒவ்வொரு துறையிலும் உள்ளவர்கள் மூளை~
யில், அந்தந்தத் துறையின் வடிவங்கள் பதிந்திருக்~
கின்றனவாம்.</p>

<p>மாண்டொலின் சீனிவாஸ் மனதில் நிச்சயம் ஐம்ப~
தாயிரம் சுவரப்பிரஸ்தாரங்கள் இருக்கவேண்டும். அதே
போல் பாலமுரளி, கவாஸ்கர், கீத் சேத்தி, நஸீருத்~
தீன் ஶா, கமலஹாசன்...இவர்கள் அனைவரும் அவ~
ரவர் துறையில் 50,000 வடிவங்களாவது கைவசம்,
ஸாரி, மனவசம் வைத்திருக்கவேண்டும். கலிஃபோர்~
னியா பல்கலைக்கழகத்தைச் சார்ந்த டொனால்டு
நார்மன் நமக்கு பரிச்சயமான அ஥்~
தனை துறைகளிலும் ஒவ்வொன்றுக்கும் ஐம்பதாயிரம்
தகவல்கள் நம் மனத்தில் பதிந்திருக்கின்றன என்கிறார்.
ஜான் கிரிஃபித் என்பவர் நாம் நம் வாழ்~
நாளில் ஒரு சராசரி மனிதன் ஒரு கலைக்களஞ்சியத்தைப்
போல் 500 மடங்கு செய்திகளைச் சேகரித்து வைத்துக்
கொள்ள முடியும் என்கிறார்.</p>

<p>காக்னிட்டீவ் சைன்ஸ் என்கிற
புதிய இயலில் மனோதத்துவம், கம்ப்யூட்டர் இயல்,</p>

<p>பக்கம்:58
சைக்கோ லிங்க்விஸ்டிக்ஸ் என்கிற
மன மொழியியல் மூன்றையும் கொண்டு சிந்தனை என்~
பது என்ன என்று விசாரிக்கத் தொடங்கியிருக்கிறார்~
கள்.</p>

<p>பக்கம்:59
                         8</p>

<p>                  ரோபாட்டுகள் நம்
                நண்பர்கள், ஆனால்...</p>

<p>ரோபாட்  என்பது செக் மொழியிலிருந்து வந்த
வார்த்தை. காரல் சாப்பெக் என்பவர்
எழுதிய நாடகத்திலிருந்து புறப்பட்டு உலகப் பொது
வார்த்தையாகிவிட்டது. (Robota என்றால் செக் மொழி~
யில் `வேலை' என்று பொருள்.)</p>

<p>ரோபாட் என்றதும் இயந்திர மனிதன் நமக்கு ஞாபகம்
வருகிறது. இரும்பு விரல்களும், ஒளிரும் கண்களுமாக
`ததக்கா, பதக்கா என்று நடந்துவந்து நம் பெண்~
களைக் கவர்ந்து கொண்டு செல்லும் ராட்சசர்களை
மனத்தில் கொண்டு வரும் பிம்பங்களுக்கு ஹாலிவுட்
சினிமாவும் தரமற்ற புத்தகங்களும் காரணம்.</p>

<p>நிஜ ரோபாட்டுகள் அப்படியில்லை. நான் எப்போதா~
வது செல்லும் பொதுக் கூட்டங்களில் கேள்வி நேரத்தின்
போது தவறாமல் கேட்கப்படும் கேள்வி, கம்ப்யூட்டர்கள்
ரோபாட்டுகளினால் நம் இந்திய நாட்டில் வேலை
வாய்ப்புக் குறைந்துபோகாதா? இதற்கு நான் உத்திர~
வாதமாக தரும் பதில், `வேலை வாய்ப்பு' குறையாது;
வேலை ஸ்தலங்கள்தான் மாறும்.</p>

<p>வேலை வாய்ப்பு</p>

<p>இதைக் கொஞ்சம் விளக்கிவிட்டு ரோபாட் பற்றி மேலே
சொல்லுகிறேன். இன்றைக்கு ட்ராக்டர்கள் வந்துவிட்ட~
தால், கிராமங்களில் உழுவதற்கும், நடுவதற்கும்
அ஥ிகப்படியான ஆள்கள் தேவைப்படுவதில்லை. அதனால்</p>

<p>பக்கம்:60
ட்ராக்டர்களினால் வேலைவாய்புகள் கிராமத்தில்
குறைந்துபோய்விட்டன என்றுதான் சொல்லமுடியும்.
ஆனால் ட்ராக்டர்களின் பிரவேசத்தை எந்த கிராமமும்
எதிர்க்கவில்லை. காரணம் ட்ராக்டர்களினால் பல்வேறு~
வித வேலை வாய்ப்புகள் ஏற்பட்டுள்ளன. ட்ராக்டர்
ரிப்பேர் பண்ணுபவர்களுக்கு தேவை ஏற்படுகிறது.
டீஸல் ஂவிற்பவர்களுக்கு, அதற்கு பல்வேறு உதிரி பாகங்~
கள், அட்டாச்மெண்ட்டுகள் செய்து விற்பவர்களுக்கு.</p>

<p>இப்படி உழவுத் திறமையிலிருந்து வேறு திறமைக்கு
வேலைவாய்ப்புகள் இடம்பெயர்கின்றன. அதுமட்டு~
மின்றி, ட்ராக்டர் வந்ததினால் உற்பத்திப்பெருகி, அத~
னால் கிராமங்களில் பணப்புழக்கம் பெருகி, அதனால்
மிட்டாய் கடை, ட்ரான்சிஸ்டர் வியாபாரம், டெண்ட்
சினிமா, சங்கங்கள், தேர்வுகள், அரசியல் இப்படிக்
கிராமத்தின் பொருளாதாரம் புத்துயிர் பெறுகிறது,
மாறுகிறது.</p>

<p>ரோபாட்டுகளும் ஓரளவுக்கு அப்படித்தான். Human use
of human beings என்பார்கள். மனிதர்களை இயந்திரங்~
களாகப் பயன்படுத்துவதற்குப்பதில் இயந்திரங்களை
எளிய மனிதச் செயல்களாகச் செய்ய வைப்பதுதான் ரோ~
பாட் இயலின் பிரதானமான குறிக்கோள், முக்கிய உப~
யோகம்.</p>

<p>ஒரு இளம் பெண்ணை "ஒரு நாளைக்கு எட்டு மணி
நேரம் ஒரு விளக்கையே பார்த்துக்கொண்டு இரு;
விளக்கு எரியும்போதெல்லாம் பெல்ட்டில்வரும் பொரு~
ளைப் பொறுக்கி நீக்கிவிடு" என்று பணிப்பது ஒரு
தொழிற்சாலையில் சாதாரணமாகச் சந்திக்கக்கூடிய
வேலை. இதற்கு ஒரு பெண்ணைப் பயன்படுத்துவதை
நம் நாட்டில் கொஞ்சம் அதிகப்படியாகவே வேலையற்ற
பெண்கள் இருந்தாலும் `டீஹ்யூமனைசேஶன்'
என்கிறார்கள். இந்த வகை ஜோலிகளுக்~
கெல்லாம் ரோபாட் சிறப்பானது.</p>

<p>இருபத்து நான்கு மணி நேரமும் விளக்கைப் பார்த்துக்
கொண்டிருந்தாலும் அதற்கு எவ்வித சலிப்பும் இருக்~
காது-தப்பும் செய்யாது.</p>

<p>பக்கம்:61
ரோபாட்டுகள் நம் ஊரில் அதிகம் ஂவரவில்லை; வரப்
போகின்றன; வந்து கொண்டிருக்கின்றன. அமெரிக்கா~
வில் நாற்பது லட்சம் பேர் ரோபாட்டுகளுக்கு வேலை
இழக்கப்போகிறார்கள் என்று சொல்லுகிறார்கள்.
ஜெனரல் மோட்டார் கம்பெனி மட்டுமே அடுத்த பத்து
வருஶத்தில் 20,000 ரோபாட்டுகள் பயன்படுத்தினால்~
தான் ஜப்பான் போட்டியைத் தாக்குப்பிடிக்க ஂமுடியும்.</p>

<p>ஆலைகளில் ரோபாட்</p>

<p>இண்டஸ்ட்ரியல் ரோபாட்டுகள் என்ற
வகையைச் சேர்ந்தவை இவை. தொழிற்சாலைகளில்
கடினமான காரியங்களை முகஞ்சுளிக்காமல் செய்~
கின்றன. ரசாயன விஶவாயுக்கள் அவைகளுக்குப்
பொருட்டல்ல. திரும்பத் திரும்ப ஒரே காரியத்தை சலிப்~
பில்லாமல் செய்யும்; திருகும், பற்றவைக்கும், அடிக்கும்,
முடிக்கும், வெட்டும்; எல்லாமே சொன்னதைச் செய்யும்
ரோபாட்டுகள், `மோட்டார் கார்கள், விடியோ சமாச்~
சாரங்கள், கம்ப்யூட்டர்கள் இவைகளை உற்பத்திச்
செய்யும் தொழிற்சாலைகளில், குறிப்பாக ஜப்பான்,
கொரியா போன்ற நாடுகளில் நிறையவே இந்தவகை
ரோபாட்டுகளைப் பயன்படுத்துகிறார்கள்.</p>

<p>எங்கள் தொழிற்சாலைகளில்கூட இந்த வகை Pick and
place ரோபாட்டுகளைப் பயன்படுத்துகிறோம். அப்புறம்
ஏஜிவி என்ற தானி~
யங்கும் செலுத்து வண்டி ஒன்றும் பயன்படுத்துகிறோம்.
அதில் சக்கரம் வைத்த ஒரு ட்ரே, பையன் உயரத்துக்கு
இருக்கும். கீழே அதன் பாதையை வரையறுக்க
கேபிள் புதைத்திருப்போம். அந்தக் கேபிளில் உள்ள
மெலிதான ரேடியோ அலைகளில் உள்ள செய்திகளைப்
படித்து இந்தக் குட்டி வண்டி கூப்பிட்ட குரலுக்கு
வரும். தட்டில் உதிரி பொருள்களை வைத்து எட்டாவது
மேசையில் கொண்டு போய்க்கொடு என்று ஆணை
கொடுத்து அனுப்பலாம். எட்டாவது மேஜை அதன்
தீர்மானித்த பாதையில் இருக்கவேண்டும். இந்த மாதிரி
திரும்பத் திரும்ப செய்யப்படும் வேலைகளுக்கு ரோபாட்~
டுகள் தரமானவை. ஒரு சர்க்குயூட் போர்டில்
ஒரே இடத்தில் எலக்ட்ரானிக் பாகங்களைச்
செருகுவதற்கு ரோபாட்டுகள் உத்தமமானவை.</p>

<p>பக்கம்:62
சொன்னதைச் செய்யும்</p>

<p>இந்த ரோபாட்டுகளுக்கெல்லாம் அதிகம் புத்தி
கிடையாது. ஏஜிவியையே எடுத்துக்கொள்ளுங்கள்.
தினப்படி சொன்னதை அப்படியே செய்யுமே தவிர
அதன் பாதையில் ஒரு குழந்தை குறுக்கிட்டால்நிற்காது.
பதிலாக ஒரு பையனுக்கு அந்த வேலை தந்திருந்தால்
`பாப்பா ஒத்திக்கம்மா' என்று நிற்பான். அ஥ுதான்
வித்தியாசம்.</p>

<p>ரோபாட்டுகளுக்கு குழந்தை தடுத்தால் ஒதுங்கும் திற~
மை கிடையாது என்றில்லை. அந்தத் திறமை வேண்டு~
மென்றால் அதற்கு மாய்ந்து மாய்ந்து ஒரு ப்ரோக்ராம்
எழுதவேண்டும். அதற்கான ஆப்டிகல் காமி~
ரா சமாச்சாரங்கள் வேண்டும்.
இமேஜ் ரெகக்னிஶன் என்றெல்~
லாம் இருக்கிறது. ரொம்பக் காசு ஆகும், மாசம்
அறுபது ரூபாய் ஒரு சிங்கிள் டீக்குக் கிடைக்கக்கூடிய
பையனின் அத்தனை திறமைகளையும் ஒரு ரோபாட்டில்
கொண்டுவர சுமார் நாற்பது லட்ச ரூபாயாவது ஆகும்.</p>

<p>எனவே எங்கள் பாக்டரியில் உள்ள ஏஜிவியில் அதன்
தலையில் ஒரு விளக்கு வைத்து `பளிச், பளிச்' சென்று
எரிய வைத்திருக்கிறோம். மேலும் அதன் பாதையை
மஞ்சள் கோட்டில் மார்க் பண்ணி குறுக்கே வராதீர்கள்
என்று எச்சரிக்கை செய்துள்ளோம். குழந்தைகளை
பாக்டரிக்குள் அனுமதிப்பதில்லை.</p>

<p>அர்த்தமற்ற பயங்கள்</p>

<p>ரோபாட்டுகளைப்பற்றி மேலை நாடுகளில் சில பயங்கள்
இருக்கின்றன. அந்த இயந்திரங்களுக்குள் குட்டிச்
சாத்தான் புகுந்து அவைகளையும் நம்மையும் கட்டுப்~
படுத்தத் தொடங்கிவிடும் என்று சிலர் நம்புகிறார்கள்,
அல்லது யாராவது புத்திசாலி எலெக்ட்ரீஶியன் ஒயர்~
களை மாற்றி இணைத்து எல்லா ரோபாட்டுகளையும்
தன் அடிமையாக்கி `போய்க் கொல்லுங்கடா' என்று
ஆணையிட வாய்ப்பு இருக்கிறது என்றும் நம்புகிறார்~
கள். மற்றொரு பயம் அதை ஊடாடவிட்டால் காலா~ 
காலத்தில் அதை அணைக்க முடியாமல் கட்டுக்கு அடங்காமல்</p>

<p>பக்கம்:63
போய் பாயைப் பிறாண்ட ஆரம்பித்துவிடும் என்~
கிற பயம்.</p>

<p>`டெமன் ஸீட்' என்ற ஒரு திரைப்படம்
வந்தது. ஜீலி கிறிஸ்டி நடித்த சுமார் படம்தான்.
அதில் இருந்த ஒரு கருத்து வசீகரமானது. ரோபாட்
ஒரு பெண்ணின் மேல் ஆசை கொண்டு அதனுடன்
பழகி பிள்ளை பெற்றுக்கொள்வது. இந்த பயமும் உள்~
ளது.</p>

<p>இவையெல்லாம் அர்த்தமற்ற பயங்கள். மனித யத்த~
னங்கள் சில, மனித நோக்கில் மிக எளிமையானவை.
ஆனால் ரோபாட் நோக்கில் ரொம்ப கஶ்டமானவை.
உதாரணம், நடப்பது. ஒரு மனிதனோ மண்புழுவோ
அத்தனை எளிமையாகச் செய்யும் காரியத்தை ஒரு
ரோபாட்டை செய்யவைப்பதற்கு அதன் ப்ரொக்ராம்~
களைப் பார்த்தால் தலை சுற்றும். காரணம் `அடாப்ட்~
டிவ் ரீஸனிங்' என்று சொல்~
வார்கள். நான் முன்பு சொன்னேனே குழந்தை குறுக்~
கிடுவது, அது மாதிரி. சந்தர்ப்பத்திற்கு ஏற்ப அதன்
உள்ளே பதிந்திருக்கும் ஆணைத் தொடர்களை மாற்றிக்
கொள்ளும் திறமையை, முறையை சங்கேதப்படுத்து~
வதில் விஞ்ஞானிகளுக்குச் சிரமம் உள்ளது.</p>

<p>ஒருநாள் பாப்பா குறுக்கிடலாம், ஒருநாள் நாய், ஒரு
நாள் மேனேஜிங் டைரக்டர், இவ்வாறு குறுக்கீடு
என்பது எத்தனையோ வடிவத்தில் வரலாம். அத்த~
னைக்கும் ஒவ்வொன்றாகப் பொறுக்கிப் பொறுக்கி
ப்ரொக்ராம் எழுதமுடியாது. அதற்குப் பதிலாக
`குறுக்கீடு' என்கிற சித்தாந்தத்தை அதற்கு கற்றுத்தர
வேண்டும். இது சிரமம்.</p>

<p>சிக்கல்கள்</p>

<p>மேலும் நடப்பது அத்தனை சுலபமா? தரையில் நடப்பது,
கார்ப்பெட்டின்மேல் நடப்பது, தண்ணீரில் நடப்பது,
தெருவில் நடப்பது, எத்தனை தினுசு இருக்கிறது
பாருங்கள். அத்தனையும் ரோபாட்டுக்குக் கற்றுத்
தரவேண்டும் என்றால் போலராய்டு ஸோனிக்ரேஞ்ச்
ஃபைண்டர் போன்ற</p>

<p>பக்கம்:64
பணக்கார சாதனங்கள் எல்லாம் அதற்கு அமைக்க
வேண்டும். ஒஸ்தி காமிராக்களில் எல்லாம் இருக்குமே,
அதுபோல் ஒலியை அனுப்பி எதிரொலி வரும்வரை
காத்திருந்து எதிரே இருக்கும் இடர்ப்பாட்டை கண்டு
பிடிப்பது. இ஥ிலும் சிக்கல்கள் உள்ளன. ஒரு அறையில்
பல்வேறு சுவர்களிலிருந்து வரும் எதிரொலிகள்,
இவைகளினால் மோதும் சாத்தியங்கள் உள்ளன.
கால் அப்படியென்றால் கை? ரோபாட்டிக் ஆர்ம்
என்று சொல்லப்படும் இயந்திரக் கைகள்
இந்த நாள்களில் பிரசித்தமானவை. ஆனால் கையாலும்
கைவிரல்களாலும் நாம் செய்யும் சில நளினமான காரி~
யங்களை யோசித்துப் பாருங்கள்.</p>

<p>ஒரு நெருப்புக்குச்சிபற்ற வைப்பதோ ஒரு மாங்காய் பறிப்~
பதோ, ஒரு திராட்சைப்பழம் கிள்ளுவதோ, ஓர் ஊசி~
யில் நூல் கோப்பதோ, டென்னிஸ் ஆடுவதோ, காதலி~
யின் உதடுகளைத் தடவுவதோ, ஒரு ரோபாட் கரம்
செய்யவேண்டும் என்றால் லட்சக்கணக்கான வரிகள்
ப்ரோக்ராம் எழுத வேண்டும். ஒரு மனிதக் கரத்திற்கு
இருபத்திரண்டு வகை `அசைவு சுதந்திரங்கள்'
உள்ளன. இந்த அசைவுகளைக்கட்டுப்
படுத்தும் தசை மோட்டார்கள் நாற்பத்தெட்டு. மேலும்
இதற்கு ஆணைகள் யாவும் மேலிடத்திலிருந்து, மூளை~
யிலிருந்து புறப்படுகின்றன.</p>

<p>எல். சுப்பிரமணியம் போல வயலின் வாசிக்க ரோபாட்டு~
களுக்கு ஒரு நூற்றாண்டுகாலம் தேவைப்படும். அவற்~
றின் குறிக்கோள் எல்லாம் ஒரு சில எளிய, மிக எளிய,
அசைவுகளே. ஒரு இடத்திலிருந்து இன்னொரு இடத்~
திற்கு அ஥ன் புலத்தில் இன்றைய ரோபாட்டு கை
நகரும். நகர்ந்து நட்டு போல்ட்டு போன்ற பொருள்~
களைப் இனம் பிரிக்க முடியும். பிரித்து அதை இறுக்கி,
பொறுக்கமுடியும். பொறுக்கி மற்றொரு இடத்திற்கு
எடுத்து அதை அங்கே வைக்க, திருக முடியும்.</p>

<p>ஒரு கைக்கு லட்ச ரூபாய்</p>

<p>இந்த எளிய கைக்காக லட்சம் ரூபாய் கொடுக்க வேண்~
டும். மெஶின் விஶன் என்று சொல்~
கிறார்கள். அ஥ில்தான் இப்போது ஆராய்ச்சி நிறைய,</p>

<p>பக்கம்:65
ரோபாட்டுக்கு நம்மாதிரி கண்கள் அமைப்பது கஶ்டம்.
முடியாது. ஆனால் டெலிவிஶன் காமிராக்கள், ஸிஸிடி
காமிராக்கள் என்று உள்ளன. அவைகள்மூலம்
எதிரே காட்சியை எலக்ட்ரானிக் பிம்பமாக மாற்றி,
அதை கம்ப்யூட்ட஼ர் மூலம் அலசி, அதன் நினைவறை~
களில் உள்ள வடிவங்களுடன் ஒப்பிட்டுப்பார்த்து, இது
ஒரு புத்தகம் அல்லது இது ஒரு திருகாணி என்று கண்டு
கொள்ள முடிகிறது. இன்றைய தேதிக்கு ரோபாட்டு~
களுக்கு "இருபது தப்படி தெற்கே நகர்ந்்து, அங்கி~
ருந்து முப்பத்தேழு தப்படி கிழக்கே சென்று, அங்கே
அதை வை" என்பதுபோல ஆணையிடமுடியும்.</p>

<p>ஆனால், "மேசைமேல் இந்தக் காப்பிக் கோப்பையை
சாஸருக்குப் பக்கத்தில் கீழே விழாமல் வை" என்஼று
அதற்கு ஆணையிட, ரோபாட்டுகளுக்கு கோப்பையின்
காது தெரியவேண்டும், சாஸரின் வட்ட வடிவம் தெரிய
வேண்டும். "விழுவது" என்பது என்ன என்று தெரிய
வேண்டும். வீட்டுவேலை செய்யும் ரோபாட்டு வர
குறைந்த பட்சம் இருபது வருஶமாவது ஆகும்.
ஏனெனில் வீடு என்பது ரொம்பச் சிக்கலானது. குப்பை
அதிகம். தடங்கல்கள் அதிகம். வடிவங்கள் அதிகம்.
மாறுதலும் அதிகம். வீட்டுவேலை ரோபாட்டு அமைக்க
ரொம்ப செலவாகும். அதனால் அதற்கு பற்பல உபரி
வேலைகள் தரவேண்டும். இல்லையெனில் அஞ்சு
நிமிஶத்தில் எல்லா வேலையும் முடித்துவிடும். இதற்கா
இத்தனை காசு என்று யாரும் வாங்கமாட்டார்கள்.</p>

<p>அ஥ட்ட முடியாது. மேலும், ஏதாவது தப்பு ஏற்பட்டு
கைக்குழந்தையை குப்பைத் தொட்டிக்குள் போட்டு விட்~
டால் யாரைத் திட்டுவது? யார் மேல் கேஸ் போடுவது?
ரோபாட்டுகள் இதுநாள் வரை நம் நண்பர்கள்தாம்.
ஜப்பானில் 1982-ல் ஒரு ரோபாட் தன்னருகில் வந்த
ஒரு தொழிலாளியை கழுத்தைப் பிடித்துக் கொன்று
விட்ட ஒரு அசம்பவம்தான் இதுவரை நிகழ்ந்திருக்~
கிறது. மற்றபடி யாவும் நலம்.</p>

<p>பக்கம்:66
                     9</p>

<p>               விஞ்ஞானத்தில்
               சத்தியவேட்஼கை</p>

<p>உயிர் என்பது என்ன என்று ஒரு கட்டுரை சில வாரங்~
களுக்கு முன் எழுதியிருந்தது ஞாபகமிருக்கலாம்.
அந்தக் கட்டுரையின் விளைவாக திரு. ரா. அ. பத்ம~
னாபன் எனக்கு ஒரு விரிவான கடிதம் எழுதியிருந்தார்.
`என்னவோ சயன்ஸ் மட்டும்தான் சத்தியத்தைத் தேடு~
வதாகவும், மற்றவை யாவும் பொய்யான சாத்திரங்கள்
என்கிற எண்ணத்தை ஏற்படுத்துகிறது உங்கள்
கட்டுரை' என்று எழுதியிருந்தார்.</p>

<p>திரு. பத்மனாபன் அவர்களுக்குத் தனிப்பட்ட மறு~
மொழி எழுதியிருக்கிறேன். இருந்தாலும் அவர் குறிப்~
பிட்ட அபாயம் விஞ்ஞானத்தில் இருக்கிறது என்பதை
ஒப்புக்கொள்பவர்களின் வரிசையில் நான் முதலில்
நிற்பேன்.</p>

<p>ஏகபோக உரிமையா?</p>

<p>சத்திய வேட்கை (பத்மனாபன் உபயோகித்த அழகான
வார்த்தைத் தொடர்) என்பது விஞ்ஞானத்தின் ஏக
போக உரிமை இல்லைதான். பலபேர் பலவகைகளில்
"உண்மை"யைத் தேடுகிறார்கள். ஆயினும்,
உண்மை என்பது என்ன என்று யாராலும் அறிய
முடியாத ஒரு சூழ்நிலையில் சிலவேளைகளில் இந்த
உண்மைத் தேடல் அபத்த எல்லைகளுக்கு நம்மைக்
கொண்டுசென்று விடுகிறது. க்வாண்டம் விஞ்ஞானத்~
தின் இன்றைய ஆராய்ச்சிக் கட்டுரைகளில் சில,</p>

<p>பக்கம்:67
உலகத்தில் ஒரு டஜன் ஆசாமிகளுக்குத்தான் விளங்கும்.
மற்றவர்கள் விளங்குவதாக ஜல்லியடித்துக் கொண்~
டிருக்கிறார்கள்.</p>

<p>விஞ்ஞானத்தில் முதல் அபாயம் போலி விஞ்ஞானிகள்.
அரைகுறையாக அல்லது கால்குறையாகத் தெரிந்து
கொண்டு ரொம்ப நாள் ஜனங்களை ஏமாற்றிக்கொண்டு
திரியலாம். ஏமாற்று கண்டுபிடிக்கப்பட்டு விட்டாலும்
யாரும் யாரையும் தூக்கில் போடுவதில்லை. அந்த
ஆளுக்குக் கொடுத்த பட்டத்தைத் திருப்பி வாங்குவ~
தில்லை. பாவமன்னிப்புகள் இந்த உலகத்தில் மிகச்
சுலபம்.</p>

<p>பட்டம் பெற, பி.எச்.டி. தீஸிஸ் எழுத, அவசரத்தில்
சாதகமான விஶயங்களை மட்டும் மிகைப்படுத்தி பிர~
சுரிப்பது விஞ்ஞான உலகில் மிகச் சாதாரணமாக நிகழக்~
கூடியது. சும்மா பார்ப்பதற்கும் பார்க்க விரும்புவதைப்
பார்ப்பதற்கும் வேறுபாடு உண்டு.</p>

<p>எத்தனையோ முட்கள், எண்ணிக்கைகள், கம்ப்யூட்டர்
தகவல்கள் என்று திக்குமுக்காடவைக்கும் பேப்பர்
சமுத்திரத்தின் இடையில் நிஜமான விஞ்ஞானம் இருக்~
காது அல்லது ஒளிந்துகொண்டு இருக்கும். விஞ்ஞான
முறை என்பது சில விஶயங்களைப் பார்ப்பது, அதைப்
பற்றி ஒரு சித்தாந்தம் அமைப்பது, அந்தச் சித்தாந்தம்
சரிதானா என்று மேலும் பார்த்துப்பார்த்து ஊர்ஜிதப்
படுத்திக்கொள்வது. இந்த மூன்று கட்டங்களிலும்
நிறைய சந்தேகத்துக்குரிய விஶயங்கள் உண்டு.</p>

<p>பெரிய அபாயம்</p>

<p>ஒரு சமயம் ஆஸ்ப்ரின் உடலுக்குக் கெடுதல் என்றார்~
கள். இப்போதைக்கு தினம் ஓர் ஆஸ்ப்ரின் சாப்பிட்டால்
ஹார்ட் அட்டாக்கே வராது என்கிறார்கள். இதை நம்பி
ஜனங்கள், அடுத்த வருஶம் ஆஸ்ப்ரின் மூளையைப்
பாதிக்கும் என்று யாராவது ரிப்போர்ட் கொடுக்கும்~
வரை சாப்பிடுவார்கள். அதற்கு அடுத்த வருஶம் அந்த
ரிப்போர்ட் தப்பு என்று மற்றொருவர் நிரூபிக்க, மறுபடி
ஆஸ்ப்ரின் விழுங்கத் துவங்குவோம்.</p>

<p>இது விஞ்ஞானத்தின் மிகப்பெரிய அபாயம். ஒரு</p>

<p>பக்கம்:68
விஞ்ஞானப் பத்திரிகையிலோ அல்லது பொதுவாக
அச்சிலோ வந்துவிட்டால் அது வேதவாக்கு என்று
நம்புகிறோம். மதிப்பிற்குரிய, இங்கிலாந்தின் பழம்
பெரும் பத்திரிகையான `நேச்சர்' இதழில்
கூட அபத்தமான விஞ்ஞானக் கட்டுரைகள் வந்திருக்~
கின்றன.</p>

<p>பொறுப்பில்லாத ஆராய்ச்சி</p>

<p>இந்த அதிகாரம் அல்லது சர்வாதிகாரம் மட்டுமின்றி,
பொறுப்பில்லாத ஆராய்ச்சி என்பது இன்னும் அபாய~
மானது. அணுகுண்டு, ஹைட்ரஜன் குண்டு கண்டு~
பிடித்து அதை வெடித்துவிட்டு அப்புறம் அணுசக்தியின்
சமாதான உபயோகங்கள் என்று பேசுவது நவீன
விஞ்ஞானத்தின் மகத்தான தவறு, பசப்பல், மஹா
பாவம்.</p>

<p>இன்றைக்கு நாம் விஞ்ஞானத்தின் பெயரில் இந்தக்
கிரகத்தை நாசமாக்கிக் கொண்டிருக்கிறோம். ஸ்ட்ரிப்
மைனிங்க் என்று நம் நிலத்தைப் பாளம்
பாளமாகக் கீறிக்கொண்டிருக்கிறோம். ஶ்ரீதேவி படப்~
பிடிப்பின் இடைவெளிகளில் என்ன செய்கிறார் என்ப~
தைப் பிரசுரிக்கக் காடுகளை வெட்டிக் காகிதம் தயாரித்~
துக்கொண்டிருக்கிறோம்.</p>

<p>சமுத்திரக் கரையருகே எண்ணெய்க் கிணறுகளினால்
ஏற்படும் நாசங்களைப் பற்றித் தனியாக கட்டுரை எழுத~
லாம். நம் வானில் அல்ட்ரா வயலெட் கதிர்களை வடி~
கட்டும் ஓஸோன் போர்வையை ஏரோஸால் தெளித்து
அழித்துக்கொண்டிருக்கிறோம்.</p>

<p>தின்பண்டங்களில் நாம் சேர்க்கும் பற்பல கலர்கலர்
சமாச்சாரங்களால் நமக்குநாமே விளைவித்துக்
கொள்ளும் தீங்கு, சூப்பர்சானிக் ஜெட் வேகத்தினால்
நாம் பாழ்படுத்தும் சுற்றுச்சூழல், சமுத்திரங்களிலும்
நதிகளிலும் நாம் கொட்டும் ப்ளாஸ்டிக் குப்பை, அசுர
வேகத்தில் நாம் காலிசெய்யும் கனிஜங்கள், எண்ணெய்~
கள், அலங்காரத்துக்காகப் போர்த்திக்கொள்ள நாம்
கொல்லும் அரிதான மிருகங்கள், பட்டுப்புடவைக்காகக்
கொல்லும் பூச்சிகள்.</p>

<p>பக்கம்:69
அகங்கார டெக்னாலஜி</p>

<p>எல்லாமே விஞ்ஞானம், டெக்னாலஜி, பொறுப்பில்லாத
விஞ்ஞானம்... அகங்காரமான டெக்னாலஜிதான்...
மருத்துவ சாஸ்திரமும் பின்தங்கவில்லை. ஃபீட்டல்
மானிட்டரிங் என்று பெண்
குழந்தைகளை அமுக்கிவிடுகிறோம். நம் மார்பகங்களுக்~
குள் ரப்பர் பால் செலுத்திக்கொள்கிறோம். உயிரின்
ரகசியமான ஆர்.என்.ஏ., டி.என்.ஏ. சரங்களைக்
கத்தரித்து ஒட்டும் வேலையில் கடவுள் விளையாட்டை
ஆரம்பித்திருக்கிறோம். புராண காலங்களில் யாளி,
நரசிம்மம் போன்ற பப்பாதி ஒட்டவைத்த சமாச்சாரங்~
கள் இன்றைக்கு அத்தனை வியப்பாகப்படவில்லை.
இந்த டி.என்.ஏ. ஒட்டுவேலை மூலம் அந்த மாதிரி
வினோத ஜந்துக்கள் கிளம்பிவிடுமோ என்கிற கவலை
இப்போது சிந்தனையாளர்களுக்கு ஏற்பட்டிருக்கிறது.</p>

<p>டாக்டர் லூயிஸ் தாமஸ், `ஹீப்ரிஸ்' என்று
ஒரு வார்த்தையை உபயோகிக்கிறார். விஞ்ஞானத்தின்
ஆணவம், பொறுப்பற்ற தன்மை, அகங்காரம் எல்லா~
வற்றிற்கும் சேர்த்துப் பொதுவான பற்பல படிமங்களும்
அர்த்தங்களும் கொண்ட வார்த்தை அது. சுருங்கச்
சொன்னால், மனிதன், கடவுள்களுக்கு என்று ரிசர்வ்
செய்யப்பட்ட காரியங்களைச் செய்ய முயற்சித்தால்
துன்புறுவான் என்பதுதான் இதன் அடிப்படைச்
சிந்தனை.</p>

<p>கிரேக்க இந்தியப் புராணக்கதைகளில் தேவலோகத்து
ரகசியங்களைக் கீழே கொண்டு வந்தவர்களுக்கு உதா~
ரணம் டாண்டலஸ் பல்வேறுபட்ட இம்சை~
கள் ஏற்படுவது இன்றைய விஞ்ஞான வேட்கையின்
குறியீடுகள் என்று நினைக்கிறார்கள்.</p>

<p>பிரச்சினை இதுதான். எல்லாவற்றையுமே தெரிந்து
கொள்ள மனிதன் முயற்சித்துத்தான் ஆகவேண்டுமா?
சில தெரியாமல் இருப்பதே நல்லதா? ரொம்ப ஆழமான
கேள்வி இது. இந்த தெரிந்து கொள்ளும் ஆர்வத்தினால்~
தான் நாம் அணுசக்தியைக் கண்டுபிடித்தோம்.
அப்புறம் ஃபிஶன், அப்புறம் ஃப்யூஶன்.
இதை வெடித்துப் பார்த்தால் என்ன...</p>

<p>பக்கம்:70
இப்படி விஞ்ஞானம் என்பது குரங்கு கையில்
துப்பாக்கியா?</p>

<p>யாராவது துஶ்ப்ர஼யோகம் செய்வார்கள் என்ற காரணத்~
தால் அறிந்துகொள்வதை ஒரு லெவலுக்குள் நிறுத்தி
விடவேண்டுமா? இந்தக் கேள்விக்கு டாக்டர் தாமஸீ~
டன் என் பதிலும்: ம்ஹீம்! கூடாது, நிறுத்தக்
கூடாது. ஏன்? சொல்கிறேன்:</p>

<p>தடை கூடாது</p>

<p>அறிந்துகொள்ள விரும்புவதும் அறிந்ததைப் பயன்~
படுத்துவதும் வேறுவேறு. அறிந்ததைப் பயன்படுத்து~
வதில் கோளாறு ஏற்பட்டது என்பதால் அறிவதைத்
தடைசெய்யக் கூடாது. ஏனெனில், நாம் இதுவரை
அறிந்தது மிகமிக அற்பமே, மிகமிகச் சொற்பமே.</p>

<p>நாம் கல்லாதது இத்தனை இருக்கிறது என்கிற
நினைவே நமக்கு ஒருவித அடக்க உணர்வைக் கொடுக்~
கிறது. நமக்குத் தெரியாதது ஏராளம். ஆனால்,
விஞ்ஞானம் நமக்குத் தந்திருப்பது தெரியாததைத்
தெரிந்துகொள்ள, அறியாததை அறிந்துகொள்ள
நமக்குக் கொடுத்திருக்கும் முறை. பரிசோதனை,
கேள்வி-பதில், சர்ச்சை, எதையும் சுலபத்தில் ஒப்புக்~
கொள்ளாமல் ஆழ்ந்து சிந்தித்து சீர்தூக்கிப் பரி~
சோதித்து, பழுதுபார்த்து, திருத்தி, மேலும் விஶயம்
சேகரித்து, மேலும் பரிசோதித்து... இந்த முறை!</p>

<p>இதில் ஏதும் கோளாறு இல்லை. இதை `ஹீப்ரிஸ்'
என்று சொல்ல முடியாது. இது பேராசை இல்லை.
நம்மை நாமே அறிந்துகொள்ள விரும்புவதில் தப்பு
என்று பாவம் என்று ஆதாரமாக இருக்க முடியுமா
என்ன? கேள்விகள் கேட்காமல் இருப்பதுதான் பாவம்
என்பேன். கேட்காமல், யாரோ ஒரு பெரிய மனுஶன்
சொன்னான், எங்கோ ஒரு பத்திரிகையில் போட்~
டிருந்தது, எனவே அதுதான் உண்மை என்று ஏற்றுக்
கொள்வதுதான் பாவம் என்பேன்.</p>

<p>அறிவைத் தேடுதல்</p>

<p>"தேகத்தைச் சாய்த்து விடு, அல்லால் அதில் சிந்தனை</p>

<p>பக்கம்:71
மாய்த்துவிடு..." என்று பாரதி சொன்னதுபோல்
சிந்திப்பதை நிறுத்தக்கூடாது, நிறுத்தவும் முடியாது.
அறிவைத் தேடலில் பாவம் ஏதும் இல்லை. கிடைத்த
அறிவைப் பயன்படுத்துவதில் பற்பல பாவங்கள்
உள்ளன. அவையாவும் விஞ்ஞானம் என்னும் சித்தாந்~
தத்துடன் சம்பந்தமில்லாதவை.</p>

<p>சமீபத்தில் நாசிக் போயிருந்தபோது ராமாயணத்தில்
சொல்லியிருப்பதுபோல பஞ்சவடியில் ராமர் வந்து
தலைமேல் தண்ணீர் தெளித்துக்கொண்டு கால் அலம்~
பின இடம் உத்தரவாதமாக கோதாவரி நதிக்கரையில்
இருக்கிறது என்று அழைத்துச் சென்றார்க஼ள். பழைய
காலத்துக் கோயில். நூற்றுக்கணக்கான பக்தர்கள்
மெய்மறந்த பக்தர்கள். கோதாவரி நதி சுமாராக ஓடிக்
கொண்டிருக்கிற஥ு. நானும் கர்னல் சங்கரும் தலையில்
ப்ரோக்ஷணம் பண்ணிக்கொண்டு ரொம்ப புண்ணியமா~
கப் புறப்பட்டோம். புண்ணிய ஸ்தல஥்திலிருந்து அரை
கிலோமீட்டர்கூடத் தள்ளிப்போயிருக்கமாட்டோம். என்
அத்தனை பக்தியும் கரைந்துபோயிற்று. நாசிக் நகரின்
அத்தனை கழிவுப் பதார்த்தங்களும் பழுப்பாக, கக்கலும்
கரைசலுமாக உற்சாகமாக ராமாயண காலப்புண்ணிய
நதியில் வந்து கலந்துகொண்டிருந்தது...பொல்யூஶன்.
இதற்கு சயன்ஸை குற்றம் சொல்ல முடியுமா?</p>

<p>கேள்விகள்</p>

<p>ஒரு கேள்வியை நம்மால் கேட்கமுடிந்தால் அதற்குப்
பதிலை விஞ்ஞானம் காலாகாலத்தில் கண்டுபிடித்து
விடும். சில சமயம் ஒரு வருஶத்தில் பதில் கிடைக்க~
லாம். சிலசமயம் ஒரு நூற்றாண்டில். செவ்வாய்க்
கிரகத்தில் தெரியும் கோடுகள் வாய்க்கால்கள் அல்ல
என்று கண்டுபிடிக்க நானூறு வருஶமாயிற்று! விடா
முயற்சியாகத் தொடர்ந்தால் சயன்ஸ் எல்லாக் கேள்வி~
களுக்கும் பதில் கண்டுவிடுகிறது. கேள்வி கேட்க முடிய
வேண்டும். கேட்கவேண்டும். கேட்பதை நிறுத்தக்
கூடாது.</p>

<p>ஆனால் நம்மால் கேட்க முடியாத கேள்விகள் இருக்~
கின்றன. நம் உணர்வின் விளிம்பிற்கு அப்பால் நம்
பாஶைகளாலும் மனபிம்பங்களாலும் அளக்கமுடியாத,</p>

<p>பக்கம்:72
நம்மால் தொடமுடியாத, பார்க்கமுடியாத கேள்விகள்
இருக்கலாம்.</p>

<p>`ஜென்' போன்ற தத்துவங்கள் அவைகளைத்
தேடிப்பிடிக்க முயல்கின்றன. ஒரு ஜென் கதை சொல்~
கிறேன். இதன் அர்த்தம் அல்லது அர்த்தமற்ற தன்மை
புரிகிறதா பாருங்கள்.</p>

<p>ஒரு கதை</p>

<p>`ரையோகான்' என்னும் ஜென் குரு மலையடிவாரத்தில்
ஒரு சின்னக் குடிசையில் ரொம்ப எளிய வாழ்க்கை
வாழ்ந்துவந்தார். ஒரு நாள் சாயங்காலம் அவர்
வெளியே போயிருந்தபோது குடிசைக்கு ஒரு திருடன்
வந்தான். திருடத்தான் எதுவும் இல்லை. ரையோகான்
வீடு திரும்பியபோது திருடனைப் பார்த்தார். `நீ ரொம்ப
தூரம் கடந்து இங்கே திருட வந்திருக்கிறாய். வெறுங்~
கையோடு நீ போகக்கூடாது. இதோ என் ஆடைகளை
என் பரிசாக எடுத்துச் செல்' என்றார்.</p>

<p>திருடன் சற்றே ஆச்சரியப்பட்டு அவர் ஆடைகளை எடுத்~
துக்கொண்டு நழுவிப் போனான். குரு, உ஠ம்பில் உடை
ஏதும் இல்லாமல் மேலே வானத்தில் முழுநிலவைப்
பார்த்துக்கொண்டிருந்தார். "பாவம் அவன்! இந்த
அழகான நிலவை அவனுக்குக் கொடுத்திருக்கலாம்"
என்றார்.</p>

<p>அர்த்தம் என்ன?</p>

<p>பக்கம்:73
                        10</p>

<p>                சூப்பர் கம்ப்யூட்டர்
                அசுர சாதனைகள்</p>

<p>சினிமா நடிகர்களிலும் சோப்புத் தூளிலும் போல கம்ப்~
யூட்டரிலும் `சூப்பர்' இருக்கிறது.</p>

<p>சமீபகாலத்தில் அமெரிக்கா நமக்கு சூப்பர் கம்ப்~
யூட்டரை விற்க அனுமதி தராமல் பேப்பரிலும் பார்லி~
மெண்டிலும் செய்தி அடிபட்டது ஞாபகமிருக்கலாம்.
அமெரிக்கர்களுக்கு எப்போதும் நம் மேல் சந்தேகம்.
கம்ப்யூட்டரை வாங்கி பின்னால் திட்டிவாசல் வழியாக
ரஶியாவுக்கு விற்று விடுவோமா என்று சந்தேகம்.</p>

<p>இந்தக் கட்டுரை சூப்பர் சக்திகளின் அரசியல் பற்றி
அல்ல, சூப்பர் கம்ப்யூட்டரைப் பற்றி.</p>

<p>இன்றைய தேதிக்கு மிகச் சிறந்த, மிக வேகமான, மிக
அதிக சக்திவாய்ந்த கம்ப்யூட்டரையே `சூப்பர் கம்ப்~
யூட்டர்' என்கிறோம். அந்த அந்த நாள்களில் ஒவ்~
வொரு காலகட்டத்திலும் இந்த சூப்பர் கம்ப்யூட்டர்கள்
இருக்கத்தான் இருந்திருக்கின்றன, கம்ப்யூட்டர் கண்டு
பிடிக்கப்பட்ட காலத்திலிருந்து.</p>

<p>சிவாஜி, எம்.ஜி.ஆர்.</p>

<p>சின்ன வயசில் தியாகராஜ பாகவதர் சூப்பர் ஸ்டார்;
அப்புறம் சிவாஜி, அப்புறம் எம்.ஜி.ஆர்., அப்புறம்
ஜெமினி, அப்புறம் செந்தில் என்று மாறிக்கொண்டே
இருப்பதுபோல, சூப்பர் கம்ப்யூட்டரிலும் மாறுதல்கள்
உண்டு. ஆனால் 1963-லிருந்துதான் `சூப்பர் கம்ப்~
யூட்டர்' என்கிற பிரயோகம் பிரபலமாயிற்று.</p>

<p>பக்கம்:74
கண்ட்ரோல் டேட்டா கார்ப்பரேஶன் என்கிற கம்பெனி~
யின் 6600 என்கிற கம்ப்யூட்டரில் பிறந்தது என்று
சொல்லலாம். அறுபதுகளிலும் எழுபதுகளிலும் அதை
அடித்துக்கொள்ள ஆளில்லாமல் அரசாண்டது. 6600
போய் 7600 வந்தது. இரண்டையும் வடிவமைத்தவர்
செய்முர் க்ரே என்கிற விற்பன்னர்.
க்ரே சீக்கிரமே கோபித்துக்கொண்டு விலகிப்போய் க்ரே
ரிஸர்ச் என்று ஒரு தனிக் கம்பெனி துவக்கினார்.</p>

<p>அவருடைய முதல் தனிப்படைப்பு க்ரே-1. இதைத்தான்
பலபேர் நிஜமான சூப்பர் கம்ப்யூட்டர் என்று சொல்~
கிறார்கள். இது 1976-ல். இதற்கு பதிலடியாக கண்ட்~
ரோல் டேட்டா கார்ப்பரேஶன் 1980-ல் சைபர்-205
என்று கொண்டுவந்தது, இந்த
சைபருக்கு பதிலாக க்ரே கொண்டு வந்தது க்ரே எக்ஸ்
எம்பி. இதுதான்஼ இன்றைய சூப்பர்.
இதைக் கேட்டுத்தான் இந்திய அரசு நிராகரிக்கப்
பட்டது. இப்போது ஜப்பானியர்கள் கோதாவில்
நுழைந்து ப்யுஜிட்ஸீ ஹிட்டாச்சி,
என்இஸி போன்ற பிரபல கம்பெனிகளும்
ஆளுக்கொரு சூப்பர் கொண்டு வந்திருக்கிறார்கள்.</p>

<p>இன்றைக்குக் கம்ப்யூட்டரை அவைகளின் தகுதிக்கு
ஏற்ப மூன்று வகைகளாகப் பிரிக்கலாம். சூப்பர்மினி,
மினி சூப்பர், சூப்பர். இவற்றில் சூப்பர் மினி என்கிறது
இன்றைக்கு இந்தியாவிலேயே கிடைக்கிறது. ஒரு
செகண்டுக்கு பத்து மெகாஃ஋ப்ளாப் ஓடக்~
கூடியது.</p>

<p>ஒரு நிமிஶம், இது என்ன மெகாஃப்ளாப்...? முதலில்
ஃப்ளாப், அதற்குப்பின் மெகாஃப்ளாப். ஃப்ளாப் என்பது,
`Floating Point operations per second' என்கிற சொற்~
றொடரின் சுருக்கம். கம்ப்யூட்டருக்கு எண்஖ளை
இண்டிஜர் ஃப்ளோட்டிங் பாயிண்ட்
என்று இருவகையில் புகட்டலாம். இண்டிஜர்
என்பது நமக்குப் பழக்கமான இலக்கங்கள். இருபத்~
தெட்டு, எட்டாயிரம் என்று இல்லையா? பெரிய
நம்பரைச் சொல்லவேண்டுமானால் நிறைய இலக்கங்~
கள் வேண்டும். பதினேழு கோடியே இருபத்தேழு
லட்சம் என்பதை எழுத 17,27,00,000, என்று எழுதுவது</p>

<p>பக்கம்:75
இண்டிஜர் வழக்கம், இதற்கு நிறைய இலக்கங்கள்
செலவாகின்றன. இதையே 17275 என்று எழுதினால்
ஐந்து இலக்கங்கள் போதும்.</p>

<p>ஆனால் இதில் முன்பே தீர்மானித்த விஶயம், முதல்
நாலு இலக்கங்களும் எண்கள், ஐந்தாவது எண்
எத்தனை சைபர்கள் என்பதைக் குறிப்பிடுகிறது. இதை
பூர்வ ஒப்பந்தம் செய்துகொண்டு விட்டால் குறைந்த
இலக்கங்களில் நிறைய, பெரிய எண்களைக் குறிப்பிட
முடியும். இ஥ுதான், ஃ஫்ளோட்டிங் பாயிண்ட் முறையின்
ஆதார தத்துவம்.</p>

<p>கம்ப்யூட்டரில் இலக்கப் பகுதியை மாண்டிஸ்ஸா
என்றும் சைபர் பகுதியை எக்ஸ்பொனென்ட்
என்றும் சொல்வார்கள். மேலும் நேரடியாக
தசம இலக்கங்களில் இவ்விரண்டையும் குறிப்பிட
மாட்டார்கள். கம்ப்யூட்டருக்குள் எல்லாமே பைனரி
இருநிலைதான். அதில் இப்போது நுழைய
வேண்டாம். ஃ஫்ளோட்டிங் பாயிண்ட் முறை என்பது
இலக்கங்களையும் சைபர்களையும் தனிப்படுத்திக் குறிப்~
பிடும் தந்திரம். அப்படிச் செய்தால் கம்ப்யூட்டரை
வைத்துக் கொண்டு கூட்டல், கழித்தல் செய்வதில் பற்~
பல சௌகரியங்கள் உள்ளன. இதிலேயே சிங்கிள்
ப்ரெஸிஶன் டபிள் ப்ரெஸிஶன்
என்றெல்லாம் உண்டு.</p>

<p>மெகாஃப்ளாப்</p>

<p>ஒரு கம்ப்யூட்டரின் செய்திறனைக் குறிப்பிட இம்மாதிரி
முறையில் ஒரு செகண்டுக்கு எத்தனை கூட்ட஼லோ
கழித்தலோ செய்யும் என்று அளவெடுக்க இந்த
ஃப்ளாப். ஒரு கம்ப்யூட்டரின் வேகம் ஒரு ஃ஫்ளாப் என்~
றால், ஒரு செகண்டுக்கு அது ஒரே ஒரு கூட்டல்
அல்லது ௃கழித்தல் செய்யும் நத்தை என்று அர்த்தம்.
சாதாரணமாக குட்டிக் கம்ப்யூட்டர்கள் கூட இந்த நாள்~
களில் ஒரு செகண்டுக்கு பத்து லட்சம், அ஥ாவது ஒரு
மெகா஋ஃப்ளாப் செய்யும்.</p>

<p>வேகம் எதற்கு?</p>

<p>இப்போது சூப்பர் மினிக்கு வரலாம். பத்து மெகாஃப்ளாப்</p>

<p>பக்கம்:76
ஸ்பீடுள்ள கம்ப்யூட்டரை சூப்பர்
மினி என்று சொல்கிறார்கள். பத்திலிருந்து நூறு வரை
மினி சூப்பர்! அதற்கு மேலேதான் நிஜ சூப்பர் கம்ப்~
யூட்டர்! ஒரு செகண்டில் பத்து கோடி ஃ஫்ளாப் செய்யக்
கூடிய அதிவேக கம்ப்யூட்டர்தான் இன்றைக்கு சூப்பர்
தகுதி பெறும்! இந்த ஜாதியில் உலகத்தில் மொத்தம்
சில நூறு கம்ப்யூட்டர்களே உள்ளன.</p>

<p>இத்தனை வேகம் எதற்கு?</p>

<p>அன்றாட பிரயோகங்கள் பலகோடி நூறாயிரம்
உள்ளன. அவைகள் அனைத்துக்கும் இன்று பரவலாகக்
கிடைக்கும் கம்ப்யூட்டர்களே போதுமானவை. பிஸி
அல்லது பிஸி ஏட்டி என்று இன்று
இந்தியாவில் எல்லா நகரங்களிலும் கிடைக்கும் பற்பல
கம்ப்யூட்டர்களை வைத்துக்கொண்டு பெரும்பாலும்
எல்லாக் காரியங்களையும் செய்யமுடியும். கணக்கு
வழக்கைப் பார்க்கலாம்; பத்திரிகை அடிக்கலாம்; பட்~
ஜெட் பண்ணலாம்; புள்ளி விவரங்களை அலசலாம்;
எழுதலாம்; கற்கலாம்; எத்தனையோ உபயோகங்கள்
உள்ளன. அவைகளுக்கெல்லாம் சிறிய கம்ப்யூட்டர்கள்
போதும்; கொஞ்சம் மிஞ்சிப்போனால் சூப்பர் மினி.</p>

<p>விஞ்ஞான ஆராய்ச்சி</p>

<p>சூப்பர் கம்ப்யூட்டர் ராஜவம்சம்; ரோல்ஸ் ராய்ஸ்
சில பிரத்தியேக, அதிவேக உபயோ~
கங்களுக்கென்று தனிப்படத் தயாரிக்கப்பட்டவை.
இவைகளைக் கடைகளில் வாங்க முடியாது. சிலவேளை
வாங்கவே முடியாது. கடத்திக் கொண்டு வந்தால்தான்
உண்டு. இந்த அதிவேக உபயோகங்கள் எல்லாமே விஞ்~
ஞான ஆராய்ச்சியில்தான் பெரும்பாலும் இருக்கின்றன.
அவைகளில் சிலதைப் பார்க்கலாம். என்னதான் இதன்
சூப்பர்வேலை என்று பார்க்கலாம்.</p>

<p>தொண்ணூறுகளில் பிரவேசம் செய்யும் கம்ப்யூட்டர்
யுகத்தில் சூப்பர் கம்ப்யூட்டரின் தேவைகள் அதிகரித்துக்
கொண்டிருக்கின்றன. கம்ப்யூட்டேஶனல் ஏரோடைன~
மிக்ஸ் என்று சொல்~
வார்கள். ஒரு ஏரோப்ளேனை புதுசாக வடிவமைக்க</p>

<p>பக்கம்:77
முக்கியமாக அதன் இறக்கை, ஶேப் போன்றவைகளை
புதுசுபுதுசாக பரிசோதித்துப் பார்க்க வேண்டும் என்~
றால் அதற்காக ராட்சசத்தனமான காற்றுச் சுரங்கங்கள்
வேண்டும். அதிலும் ஒவ்வொரு வடிவத்~
தையும் சிறியதாக மாடல் பண்ணித்தான் முடியும், அப்~
படிப் பார்த்து அத்த வடிவம் வேலை செய்யும், இல்லை
கவிழும் என்று தீர்மானிக்கிறார்கள். இதற்குச் செலவும்
நேரமும் அதிகமாகிறது. இப்போது சூப்பர் கம்ப்~
யூட்டரை வைத்துக்கொண்டு பற்பல கற்பனை ஏரோப்~
ளேன் வடிவங்களை சட் சட் என்று அமைத்து அதன்
மேல் மோதும் சக்திகளின் விளைவுகளை ஆராய்ந்து
அந்த வடிவமைப்பு ஸ்திரமானதா இல்லையா என்று
கண்டுபிடிக்க முடிகிறது.</p>

<p>இதற்கு உண்டான கணிதம் ஏறக்குறைய நூறு வருஶ~
மாக இருக்கிறது. சேவியர், ஸ்டோக்ஸ்
என்று இருவர் கண்டுபிடித்த கணக்குகள்.
அந்தக் கணக்குகளை கம்ப்யூட்டரில் செய்ய சூப்பர் கம்ப்~
யூட்டர் வேண்டும். தற்போது பிரபலமான ஏர்பஸ்
விமானத்தின் லேட்டஸ்ட் மாடல் சூப்பர் கம்ப்யூட்டர்
உதவிகொண்டு வடிவமைக்கப்பட்டது.</p>

<p>வானிலை கணிப்பு</p>

<p>அடுத்த உபயோகம் வானிலை. பத்து வருஶத்துக்கு
முன்னால், அடுத்த பத்து நாள்களுக்கு உண்டான
வானிலையை எதிர்பார்த்து `வரும் வெள்ளிக்கிழமை
மழை பெய்யும்' என்று சொல்வது முடியாத காரியமாக
இருந்தது. இ஥ற்குக் காரணம் நம்முடைய வான்
மண்டலத்தின் பிரம்மாண்டமும், அதில் காற்றின் சுழற்~
சிகளும், சீற்றமும், சூரியனின் சூடும், ஈரமும் என்று
பற்பல எதிர்பாராத சங்கதிகள் கலந்து கொண்டுவிடுவ~
தால்.</p>

<p>சங்ககாலத்திலிருந்து சமீப காலம் வரை தவளை சத்தம்,
பிள்ளையார் எறும்பு இவைகளைக் கொண்டுதான் மழை
வரும் என்று கணித்துக் கொண்டிருந்தார்கள். இன்று
அப்படியில்லை.</p>

<p>மழை எங்கே பெய்யும்?</p>

<p>காற்று மண்டலத்தை சூப்பர் கம்ப்யூட்டர்கள் மூலம்</p>

<p>பக்கம்:78
மாடல் பண்ணுகிறார்கள். இ஥ில் க்ரிட் பாயிண்ட்
ஸ்பெக்ட்ரல் என்று இருவகைஉண்டு.
இதில் ஸ்பெக்ட்ரல் மாடல்தான் பிரசித்தம். இந்த மாட~
லை வைத்துக்கொண்டு பூமி முழுவதுமான காற்று
மண்டலத்தை சூப்பர் கம்ப்யூட்டர் கற்பனை
செய்கிறது. அடுத்த பத்து நாள்களுக்கு எங்கெங்கே
மழை பெய்யும், எங்கே புயற்காற்று, எங்கே குளிர்
என்று கண்டு கணக்கிட்டுச் சொல்கிறது. இதில் க்ளோ~
பல் அட்மாஸ்பெரிக் ரிஸர்ச் ப்ரொக்ராம்
என்றெல்லாம்
இருக்கிறது. இதற்கு க்ரே கம்ப்யூட்டர் இல்லாமல்
முடியவே முடியாது. இதைக் கேட்டுத்தான் இந்தியா~
வுக்கு இன்றைய தேதிவரை அமெரிக்கா கொடுக்க~
வில்லை.</p>

<p>அடுத்த உபயோகம் சினிமா. ஆம் சினிமா! இரண்டு
வருஶத்துக்கு முன் `தி லாஸ்ட் ஸ்டார் ஃபைட்டர்'
என்கிற விஞ்ஞானக்கதை சினிமா
அமெரிக்காவில் ஏ,பி,சி, எல்லா செண்டர்~
களிலும் பிய்த்துக்கொண்டு ஓடி விநியோகஸ்தர்களின்
கையைக் கடிக்காததற்குக் காரணம் சூப்பர் கம்ப்யூட்டர்.
சில அனிமேஶன்  முறைப்படி டிஜிட்டல்
சீன் சிமுலேஶன் என்கிற
ஒரு ப்ரொக்ராம் மூலம் நம்மால் நினைத்துப்பார்க்க
இயலாத அத்தனை வேகத்தில் ஒரு காட்சியை மாற்ற~
வும், உருட்டவும், திருப்பவும், உள்ளே வெளியே கலர்
மாற்றவும், வண்ணங்களைச் செய்யவும் ஒரு க்ரே எக்ஸ்
எம்பி கம்ப்யூட்டரை உபயோகிக்கிறார்கள். டிஜிட்டல்
ப்ரொடக்ஶன்ஸ் என்கிற தனிக்
கம்பெனி இதில் சூப்பர் வேலைகளை நிறையச் செய்~
திருக்கிறார்கள்.</p>

<p>அடுத்தது க்வாண்டம் இயற்பியலில் மாண்ட்டி கார்லோ
சிமுலேஶன் என்ற முறைப்~
படி க்வார்க், க்ளுவான் போன்ற துகள்~
களின் அற்பகால வாழ்வைக் கணக்கிட சூப்பர் கம்ப்~
யூட்டரைப் பிரயோகிக்கிறார்கள். பிரபஞ்சத்தின் ஆரம்ப
காலத்தில் நடந்த விந்தைகளையும் அத்தனை சக்தி~
களையும் ஒட்டவைத்துப் பார்க்க சூப்பர் கம்ப்யூட்டர்களைப்</p>

<p>பக்கம்:79
பிரயோகப்படுத்துகிறார்கள். ஒரு நட்சத்திரம்
பிறக்கும் போது என்ன நேர்கிறது என்று அருகே
போய்ப் பார்க்க வேண்டியதில்லை.</p>

<p>ப்ளாஸ்மா என்கிற ஒரு விதமான பிசின்மூலம்
எம்எச்டி- மாக்னெட்டோ ஹைட்ரோ டைனமிக்ஸ்
என்று புதிய
முறையில் மின்சக்தி ஆராய்ச்சிகளுக்கும் `சூப்பர்'
தேவைப்படுகிறது. சிலிக்கன் சில்லுக்குள் லட்சக்கணக்~
கான இணைப்புகளை எழுதும் எல்எஸ்ஐ ஆராய்ச்~
சியில், பெட்ரோலியம் எண்ணெய்க் கிணறுகள்
ஆராய்ச்சி, அணுசக்தி நிலையத்தின் அவசரகால
ஆராய்ச்சிகள் என்று `சூப்'புக்கு பற்பல உபயோகங்கள்.
விலை கொடுக்கத் தயாராக இருந்தாலும் வாங்க முடிய~
வில்லை. நாமே ஒரு சூப்பர் கம்ப்யூட்டர் தயாரித்தால்
என்ன என்று எலக்ட்ரானிக்ஸ் டிபார்ட்மெண்்ட்
யோசனை சொல்லியிருக்கிறது.
    
               0 
</p></body></text></cesDoc>