<cesDoc id="tam-w-literature-personal-annavin1" lang="tam">
<cesHeader type="text">
<fileDesc>
<titleStmt>
<h.title>tam-w-literature-personal-annavin1.txt</h.title>
<respStmt>
<respType>Electronic file created by</respType>
<respName>Central Institute for Indian Languages, Mysore</respName>
<respType>transferred into Unicode and CES format by</respType>
<respName>"Unicodify" software by Andrew Hardie</respName>
</respStmt></titleStmt>
<publicationStmt>
<distributor>UCREL (on behalf of CIIL)</distributor>
<pubAddress>Department of Linguistics, Lancaster University, Lancaster, LA1 4YT, UK</pubAddress>
<availability region="WORLD"></availability>
<pubDate>03-07-04</pubDate>
</publicationStmt>
<sourceDesc>
<biblStruct>
<monogr>
<h.title>தம்பிக்கு அண்஼ணாவின் கடிதங்கள்</h.title>
<h.author>அறிஞர் அண்ணா</h.author>
<imprint>
<pubPlace>India</pubPlace>
<publisher>Unknown - Book</publisher>
<pubDate>1981</pubDate>
</imprint>
<idno type="CIIL code">annavin1</idno>
</monogr></biblStruct></sourceDesc></fileDesc>
<encodingDesc>
<projectDesc>Text collected for the CIIL Corpus, subsequently integrated into the EMILLE/CIIL Monolingual Written Corpora.</projectDesc>
<samplingDesc>Simple written text only has been transcribed. Diagrams, pictures and tables have been omitted. Sampling begins at page 20.</samplingDesc>
<editorialDecl><conformance level="1"></conformance></editorialDecl>
</encodingDesc>
<profileDesc>
<creation><date>03-07-04</date></creation>
<langUsage>Tamil</langUsage>
<wsdUsage>
<writingSystem id="ISO/IEC 10646">Universal Multiple-Octet Coded Character Set (UCS).</writingSystem>
</wsdUsage>
<textClass>
<channel mode="w">print</channel>
<constitution type="composite"></constitution>
<domain type="public"></domain>
<factuality type="fact"></factuality>
</textClass>
<translations></translations>
</profileDesc>
<revisionDesc></revisionDesc>
</cesHeader>

<text><body>

<p>-39-
			கடிதம்:99</p>

<p>		பெரிய ஫ுள்ளிகள்</p>

<p>	குறைமதிச் செல்வன் கருத்துக் கதை-
	நேரு, மெண்டாரிஸ் உரையாடல்-
	சிங்மன்ரீ - கழகமும் காமராஜரும்</p>

<p>தம்பி!</p>

<p>	எனக்கு எதற்குப் பெருஞ் செல்வம்? கட்டிக்கொள்ள
நாலு முழ வேட்டியும். போட்஼டுக்கொள்ள ஒரு துண்டும்,
படுக்கப் பாயும், பசிக்குக் கொஞ்சம் சோறும் சாறும் இருந்தால்
போதும். பணம் ஏன்? பங்களா ஏன்? பட்டாடை ஏன்?
பளபளப்பு ஏன்? என்று காண்போரிடமெல்லாம் கூறிக்கொண்~
டிருந்தான் - கபடத்தை மறைத்தபடி - ஒரு ஆசாமி.</p>

<p>	வேண்டாம்! வேண்டாம்! என்று கூறிக்கொண்டிருந்த~
போதே, வேறொருவர் பெரும் பொருளைப் பெற்றாளும் பேறு
கிடைக்கப்பெற்று பெரும்புகழும் ஈட்டி வாழ்ந்து வருவது
கண்டு, உள்ளூர அழுக்காறு கொண்டு, `நமக்குக் கிடைத்திட~
லாகாதா இந்தப் பேறு! கிடைத்தால், சுவைமிக்க வாழ்க்கை~
யன்றோ!" என்று எண்ணி எண்ணி ஏக்கமுற்றான்.</p>

<p>	செல்வம் பெற்றவர் முன் நின்று பலர் கட்டயங் கூறினர்.
40
	இவர்க்கோ, எட்டி எனக் கசந்தது அவர் பேச்சு.</p>

<p>	மாலை மரியாதை, விருந்து வைபவம், அவருக்கு!</p>

<p>	மனக்குறை, நெஞ்சுத் துடிப்பு, இவருக்கு!</p>

<p>	எங்கும் வரவேற்பு அவருக்கு! வேண்டா வெறுப்புடன்
இவரிடம் உறவாடினர், அவரெல்லாம்.</p>

<p>	இவ்வளவு `பவிசும்' பெரும் பணம் பெற்றதனால் அல்லவா?
என்று எண்ணிய போது, ஏக்கம் துக்கமாகி, துக்கம் கோபமாக
மாறிற்று; அழுக்காறு ஆத்திரமாக வடிவெடுத்தது;  அண்டிப்
பிழைப்போர், அடுத்துக் கெடுப்போர், ஆகாவழி அழைத்தேக
அறிந்தோர், எனும் வகையினருடன் கலந்து பேசி, செல்வம்
பெற்றவரைச் சாய்த்தொழித்து, அந்த வீழ்ச்சியைச் சாதக~
மாக்கிக்கொண்டு, பெரு நிதிக்கு உரிமை கொண்டாடிப்~
பெற்று, `பெரிய புள்ளி' ஆகிவிட்டார். பெருஞ்செல்வம் பேய்க்
குணத்தை, நாய்க்குணத்தையன்றோ ஏற்படுத்தும் என்஼று பேசித்
திரிந்தவர்!</p>

<p>	பெருஞ்செல்வம் கிடைத்ததும், மெள்ள மெள்ளப்
பேச்சு, போக்கு, நோக்கு, நடை - யாவும் மாறிடலாயின.</p>

<p>	ஐயோ பாவம்!-  என்று முன்஫ு கூறி வருந்தினோர்,
ஐயா! வருகிறார்! என்று அடக்க ஒடுக்கமாகப் பேசிட~
லாயினர்.</p>

<p>	அவர் ஒரு அப்பாவி! தனக்கென்று எதையும் விரும்ப~
மாட்டார்! - என்று பரிதாபத்தோடு பேசிவந்தார்கள், `அவர்
மனது வைத்தால் போதும்!  அவர் தயவு கிடைத்தால் போதும்!'
என்று நயமாகப் பேசவும், நாடி வரவும், பாதம் தொடவுமா~
யினர்.</p>

<p>	நிலைமை மாறிடவே, நினைப்பு மாறிடலா௟ிற்று!  நிமிர்ந்த
நடை,  முறுக்குப் பேச்சு, இவை உடன் வந்துவிட்டன.</p>

<p>	பெருஞ்செல்஼வம் சேரா முன்பு, `ஒரு இழவும் பேசவராது,
என்று கேலியாகக் கூறினவர்களே, "அந்தஸ்த்துக்கு ஏற்ற
சுபாவம், அவருக்கு. மற்றவர்போல் வாயாடிக்கொண்டிருக்க
மாட்டார்! சுருக்கமாக, இரண்டொரு வார்த்தைதான்
பேசுவார்- ஆனால் அவ்வளவு, அர்த்தம் உள்ள பேச்சு!"
என்று பாராட்டலாயினர்.
41
	செச்சே! ஏன் இந்த ஆசாமி, இப்படி, திருதிருவென்று
விழிக்க வே஁ண்டும்' என்று ஏளனம் செய்தவர்கள், அதே
பார்வையை, `கம்பீரம்' என்று சுட்டிக் காட்டினர்.</p>

<p>	பரிதாபம் காட்டியவர்கள், பக்கம் நின்று பணிவிடை
செய்யலாயினர்! குறும்பாகப் பேசிக்கொண்டிருந்தவர்கள்
குற்றேவேல் புரியலாயின஼ர்! ஆசாமிக்கு, தாங்கமுடியவில்லை!
"ஓஹோ ஹோ ! நாம் பெரிய புள்ளிதான்  - இதுவரை அதை
நாம் தெரிந்துகொள்ளாமலே இருந்துவிட்டோம்" என்று
தனக்குள் கூறிக்கொண்டு, அதட்டிக் கேட்க, பதட்டம், பேச
ஆணை பிறப்பிக்க, ஆரம்பித்துவிட்டார்.</p>

<p>	எனக்கும் ஏதோ கொஞ்சம் தெரியும் என்று பேசத்
தொடங்கி, படிப்படியாகக்கூட அல்ல, தாவிடலானார் மேலே,
மேலே; எனக்கு எல்லாம் தெரியும் என்று பேசிடலானார்;
எனக்குத் தெரியும் எல்லாம்! என்று கூறினார்; எனக்குத் தான்
தெரியும் என்றார்; கடைசியில், உனக்கு என்ன தெரியும்: பேசா~
மலிரு; எல்லாம் எனக்குத் தெரியும்!! என்று, உருட்டி மிரட்டும்
குரலில் பேசிவரலானார்.</p>

<p>	அவருக்கு புதிய`அறிவு' கிடைத்துவிட்டது என்பதனால்
அல்ல; புதிய அந்தஸ்து, பணபலத்தால் கிடைத்துவிட்டதே
என்பதால், மற்றவர்கள், அந்த ஆணவத்தைச் சகித்துக்
கொள்ள வே஁ண்டியதாகிவிட்டது.</p>

<p>	ஆணவத்தைப் பலரும் சகித்துக்கொண்டதால், `நாமே
உலகிலே தலைசிறந்த அறிவாளி! நமது வீரதீரத்துக்கு ஈடு
எங்கும் இல்லை! எனவேதான் இத்தனைபேர், நம்மிடம் அடங்கி
ஒடுங்கிக் கிடக்கிறார்கள்' என்று அந்த ஆசாமி எண்ணிக் 
கொண்டு, மனம்போன போக்கிலே நடந்திடலானார்.</p>

<p>	ஓவியத் திறனுடையார் அவரைக்கண்டு தம் கைத்திறனைக்
காட்டுவர், பாராட்டுவார், பரிசளிப்பார் என்ற எண்ணத்தில்.
இவரோ, அலட்சியமாகப் பார்த்துவிட்டு, `ஓவியக்கலை என்பதே,
காலத்தை வீணாக்கும் காரியம் !' என்஼று கூறி இகழுவார்.</p>

<p>	களத்திலே, இவர் வீரர் என்று ஒருவரை அறிமுகப்படுத்து~
வார்கள்; "புலி இவரைவிட அதிக ஆட்களைச் சாகடித்திருக்~
குமே!" என்று கேலி பேசுவார்.</p>

<p>	"இவர் புலவர்!" என்பார்கள்; "ஐயோ, பாவம்!" என்று
ஏளனம் செய்வார்.
42
	பெருநிதியும் குறைமதியும் கொண்ட அந்தச் சீமானைக்
காணச் சென்றான், அறிவுச் செல்வம் நிரம்பப் பெற்றிருந்த
வறுமை நிலையினன். செருக்கு மிக்கவனாகத் தன் நண்பன்
இருப்பதைக் கண்டான். எனினும், தன்னிடம் மட்டும் ஓரளவு
`மதிப்பு'  காட்டுவதறிந்தான்?  ஆயின், இதுபோதும்
என்றெண்ணி இருந்துவிடவில்லை. நண்பனுக்கு அறிவூட்ட
விரும்பினான். கண்ணாடி பொருத்தப்பட்ட பலகணி அருகே
நண்பனை அழைத்துச் சென்று, "என்ன தெரிகிறது?" என்று
கேட்டான். "ஏன்! எல்லாம்தான்! வெளியே உள்ளதோட்டம்;
மலர்கள்; வீடு஖ள்; வண்டி வாகன஼ங்கள்; நடமாடுவோர்;
எல்லாம் தெரிகிறது. கண்ணாடி ஜன்னல்தானே, தெரிவதற்கு
என்ன?  என்றான் செல்வவான். புன்னகை புரிந்தான்
அறிவாளன். வேறோர் புறமிருந்த முகம் பார்க்கும் கண்ணாடி~
யைக் காட்டி, "அதைப் பார்! என்ன தெரிகிறது அதிலே?"
என்று கேட்டான். "பொல்வாத கேள்வி கேட்டுவிட்டாய்,
போ! அதில், நான் தெரிகிறேன்!"  என்றான், சீமான்! "நண்பா!
இரண்டும், கண்ணாடிகள்! வெளியே உள்ளது எல்லாம் காண
முடிகிறது, ஒன்றின் மூலம்! மற்றோன்றிலோ, உன்னைத்தவிர
வேறோன்றும் தெரிவதில்லை. ஏன்?  இரண்டுக்கும் என்ன
வித்தியாசம்? ஒன்றிலே `ரசம்'  பூசப்பட்டிருக்கிறது! `ரசம்' 
வெள்ளியிலிருந்து தயாரிக்கப்படுகிறது! பார்த்தாயா, ஒரு
கண்ணாடியில் சிறிது வெள்ளி தடவியதும், வேறேதுவும் தெரிய~
வில்லை; உன்னைத் தவிர! அதுபோலத்தான், உன்னிடம் பணம்
குவிந்துவிட்டதால், உன்னைத்தவிர, வேறு எதுவும், உனக்குத்
தெரியாது போய்விடுகிறது; பணம், கண்களை மறைத்து
விடுகிறது" என்றான். வெட்கம், சீமானை , வேலாகக் குத்திற்று.
				*
	`ரசம்' பூசப்பட்ட கண்ணாடி, போலாகிவிடுகிறார்கள்,
பணம்பெற்று, பண்பு கெட்டுவிட்ட நிலை அடைந்தோர்!
பணம் மட்டுமல்ல; புகழ், பட்டம், பதவி, எதுவும்தான்
பழைமையை மறந்துவிடச் செய்கிறது, புதிய நினைப்பு,
முறுக்கு, ஏற்பட்டுவிடுகிறது! இயல்பே, மாறிவிடுகிறது.
				*
	பணம் மட்டும் குவிந்திருக்கும்போது, பிறரைத்
தூச்சமாக எண்ணும் துடுக்கு, ஏற்பட்டுவிடும். எனினும்,
இருப்பது போய்விட்டால் என்னாகும்., என்ற ப௟ம் கூடவே
பிறக்கும் எவன், கொள்ளையடித்துச் சென்றுவிடுவானோ, எவன்
43
கொன்றுபோட்டுவிட்டுச் சொத்துக்களைப் பறித்துக்
கொள்வானோ, என்ற பயம் பீடிக்கும். ஆணவம் ஒரு புறம்,
அச்சம் மற்றோர் புறம் இரண்டுக்கும் இடையே சிக்கித்
தவியாய்த் தவிப்பான். ஆனால் பதவி கிடைத்துவிட்டாலோ,
எவரையும் எதுவும் செய்துவிட முடியும் என்ற இறுமாப்பு,
எவன் என்ன செய்துவிட முடியும் என்ற மண்டைக் கனம்,
எவனால் என்஼ன என்ற போக்கு, எடுத்தேன் கவிழ்த்தேன் என்ற
பேச்சு, யாருக்கு நான் அஞ்சவேண்டும்! என்ற நோக்குடன்
நடவடிக்கைகள், இப்படிப் பலப்பல `நோய்கள்' ஒரு சேரக்
குடி ஏறிவிடும்., பதவியும், அதனால் கிடைத்திடும் அதிகாரமும்
என்றென்றும் நிலைத்து நிற்கும் என்ற நினைப்பு தடித்துவிடும்;
பிறகு நெரித்த புருவம், கனல் உமிழும் பார்வை, கடும்
சொற்கள்!!
	
	பொதுத் தேர்தலில் நானூறுக்கு மேற்பட்ட இடங்களைப்
பிடித்த, மண்டாரிஸ் பதவி பெற்றதும், இனி எதுவும் செய்ய~
லாம். எவரும் பணிவர் என்றெண்ணிச் செயல்படத் தொடங்~
கியது, இந்த `வகையைச்' சார்ந்ததே,</p>

<p>	எதிர்க்கட்சி஖ள், இளைத்தும் களைத்தும் காணப்பட்டன
நினைத்ததைச் செய்யும் வாய்ப்புக் கிடைத்தது மெண்டாரிசுக்கு!
ஆனால், செய்தது என்ன? எந்த மக்கள், பேராதரவு தந்து
பெரியதோர் வெற்றி கிட்டிடச் செய்தனரோ, அவர்களின்
நல்லெண்ணத்தை, நேசத்தை மேலும்மேலும் பெறுகிற வகை~
யான காரியமா? அல்ல! அல்ல!  கிடைத்த பதவி, என்றென்றும்
த஼ன்காலடி கிடந்திடவேண்டும்! கைகட்டி வாய்பொத்திக்
கிடக்க வேண்டும், எதிர்கட்சிகள்! எவரும் , தன்னை நத்திப்
பிழைக்க வேண்டும்! என்றென்றும், எதிர்கட்சிகள் தலைதூக்க
முடியாதபடி, தாக்்கித் தகர்த்திடவேண்டும்!- என்ற இவ்வித~
மான நோக்குடன் காரியங்களைத் துணிந்து செய்துவந்தார்.
தம்பி!  அவர் இப்போது ஒருஂஂஂஂ கைதி! நான் இதை எழுதும்போது,
அவர், பட்டம் இழந்து, பதவி இழந்து, மாளிகைவாசம் இழந்து
மாநிதியில் புரளும் நிலை இழந்து, என்ன வழக்குத் தொடரப்~
படுமோ, தண்டனை எதுவாக இருக்குமோ - சுட்டுத்தள்ளுவார்~`
களோ, சிறையில் போட்டு அடைப்பார்களோ, என்ன
நேரிடுமோ? என்ற எண்ணம் குடையும் மனத்தினராகி, மருண்டு
கிடக்கிறார். சுருண்டு கிடக்கிறார்! துருக்கியின் துரைத்தனத்~
தலைவர் என்ற முறையில், ஈடற்ற செல்வாக்குடன் இருந்து
வந்தார். இன்று, "ஏன்" என்஼ற அதட்டும் குரலில்,
பாட்டாளத்துக்காரன் கேட்டால், "ஒன்றுமில்லை! மணி
என்ன?"  என்று பணிவுடன் பேசிடும் நிலைமை!!
44
	ஆற்றலற்றவரோ, எனின், அல்ல! மக்களின்
பேராதரவைத் தேர்தலின்போது தன் பக்கம் திரட்டிடத்தக்க
ஆற்றல் இருந்தது. அது மட்டுமல்ல, குவலயம் புகழப்
பணியாற்றிய முஸ்தபா கமால், சமைத்தளித்த புதிய துருக்கியில்
எழுச்சி, மறுமலர்ச்சி, விடுத஼லை, உணர்ச்சி பூத்திடச் செய்திடும்
ஆற்றலையும் பெற்றிருந்தவர்கள், மெண்டாரிஸ்.
			*
	இரு கிழமைகளுக்கு முன்பு, பாரதப் பிரதமர் நேரு
பண்டிதர், அங்கார சென்றார்; அவரை வரவேற்று விழா
நடாத்தியவர், மெண்டாரிஸ்! பவனி நடந்தது, விருந்து உண்டு!
கூட்டறிக்கை, வழக்கப்படி!! மெண்டாரிஸ், துருக்கியின்
முதல்வர்; நேரு, பாரதப் பிரதமர்! இருவரும் கூடி, உலகிலே
சமாதானம் நிலவ, என்னென்ன செய்யவேண்஼டும் என்றுகூடக்
கலந்துரையாடினர்! அந்த மெண்டாரிஸ், இன்று படையினர்
நடத்திய புரட்சியின் காரணமாக, பிடிபட்டு, சிறைப்பட்டு
இருக்கிறார்.
			*
	நேரு - மெண்டாரிஸ், உரையாடிடக் கூடினரே,
அப்போதே, துருக்கியில் குமுறல், பலமாக!! மெண்டாரிஸ்
ஆட்சிக்கு எதிராக, இளைஞர்கள், குறிப்பாக மாணவர்கள்,
பெரியதோர் ஆர்ப்பட்டத்தைத் தொடர்ந்து நடத்திக்கொண்~
டிருந்தனர். நேருவை வரவேற்க மரியாதைக் குண்டுகள்,
வெடித்திடவில்லை. துரத்தித் துரத்தித் தொல்லை தந்த
மாணவர்களைச் சுட்டுத்தள்ள, மெண்டாரிஸ் ஏவிய போலீஸ்
நடத்திய தாக்குதலால், வேட்டுச் சத்தம் கேட்டவண்ணம்
மிருந்தது. நேரு - மாண்டாரிஸ் சந்திப்பு. இந்தச் `சுவையான'
சூழ்நிலையில்தான், நடைபெற்றிருக்கிறது. பஞ்சசீலம் பற்றிய
பேச்சும், பாரிலே போர் இயலாது ஒழிய வழி யாது என்பது
பற்றிய உரையாடலும், அதே நேரத்தில்஼தான் நடைபெற்றிருக்~
கிறது.
			*
	"஁என்ன கிளர்ச்சி ? எதிர்ப்பாளர் யார்?"
	
	"விவரம் தெரியாத பள்ளிக்கூடத்துப் பிள்ளைகள்!
செல்வாக்கிழந்த எதிர்க்கட்சிகள் தூண்டிவிட்டபடி, ஆடிடும்
சிறுவர்கள்."
45</p>

<p>	"என்ன வேண்டுமாம், அவர்களுக்கு?"</p>

<p>	"நான், பதவியை விட்டுவிட வேண்டுமாம்!"</p>

<p>	"பார்லிமெண்டில், நம்பிக்கையில்லாத் தீர்மானம்,
நிறைவேற்றிவிடுவதுதானே. அதுதானே முறை!"</p>

<p>	"ஆமாம்! ஆனால் அங்கே வாலாட்ட முடியாதே! என்
கட்சிக்கல்லவா, மிகப் பெரிய பலம் - உங்கள் காங்கிரஸ்
கட்சிக்கு இருப்பதுபோல!"</p>

<p>"எதிர்க்கட்சிகள், தேர்தலில் போட்டியிடவில்லையோ?"</p>

<p>"காங்கிரசை எதிர்க்கவில்்லையா பல கட்சிகள்!
அதுபோலத்தான் இங்கும்! மக்கள் ஆதரவு கிடைக்கவில்லை,
எதிர்க்கட்சிகளுக்கு."</p>

<p>	"அப்படி இருந்தும்..... ?"</p>

<p>	"இப்போது தேர்தல் நடத்தவேண்டுமாம்...."</p>

<p>	"நடத்தினால்....?"</p>

<p>	"என் அரசு கவிழ்ந்து விடுமாம்! மக்கள், ஆதரிக்க
மாட்டார்களாம்!!"</p>

<p>			*</p>

<p>	தம்பி! நேரு - மெண்டாரிஸ் பேச்சு, இதுபோலத்தானே
இருந்திருக்கும். தேர்தலில், ஒருமுறை மக்களின் `வாக்குகளை'த்
திரட்டிக் குவித்துக்கொள்ள முடிந்ததால், அந்த மக்கள் ஆதரவு
தன்பக்கம் நிலைத்துநிற்கும் என்றுதான், மெண்டாரிஸ், கருதி~
னார். ஆனால், "ஆட்சி கவிழ்ந்தது! மெண்டாரிஸ் `கைதி'
ஆனார்! இராணுவம், ஆட்சிப் பொறுப்பை ஏற்றுக்கொண்டது!
என்று அங்கார வானொலி அறிவித்ததும், மக்கள் திரள்
திரளாகக்கூடி, தெருவெல்லாம், களிநடமாடினராம். வீழ்ந்தது
சர்வாதிகாரம்!  வென்றது ஜனநாயகம் !  என்று முழக்கமிட்ட~
படி, மக்கள், மெண்டாரிசைத் தேர்தலிலே ஆதரித்தனர்;
உண்மை; ஆனால் எதற்கு? உரிமைகளைப் பாதுகாத்து,
வாழ்க்கைத் தரத்தை உயர்த்தி, நல்லாட்சி நடத்துவார்
என்பதற்காக `ஓட்டு' போட்டாகிவிட்டது, இனி `இதுகளை'
அடுத்த முறை அழைத்து ஓட்டு கேட்கிறவரையில், நாம்
வைத்ததுதான் சட்டம்! - என்ற போக்கிலே, நடந்து
கொண்டார், மெண்டாரிஸ்.
46
	மக்களாட்சி முறையிலே, மறைந்திருந்து கேடு விளைவிக்கும்
மனப்போக்கு இது. ஒருமுறை `ஓட்' அளித்துவிட்டால், அந்த
மக்கள், மறுதேர்தல் வருகிறவரையில், ஆட்சிப் பொறுப்பை
ஏற்றோர், எது செய்திடினும் ஏற்றுக்கொள்ளவேண்டும்;
எதிர்த்திடலாகாது; ஏமாற்றம் ஏற்பட்டாலோ, எரிச்சல்
மூட்டப்பட்டாலோ அடுத்த தேர்தலின்போதுதான், தமது
எண்ணத்தை மக்கள் காட்டலாமேயொழிய, இடையில் `ஏன்'
என்று கேட்பதும், எதிர்த்துக் கிளர்ச்சி நடத்துவதும், ஜனநாய~
கப் பண்பு ஆகாது - என்ற கருத்தை, தத்துவமாக்கி, அதைக்
கொண்டே மக்களைத் தாக்கி, அடிப்படை உரிமைகளுக்கு உலை
வைக்க, ஆட்சியாளர் முனைகின்றனர். மெண்டாரிஸ்  அம்முறை
தான் கைக்கொண்டார்; இன்று கைதியாகிக் கிடக்கிறார்.
வேறுபல இடங்களிலே, அதே முறை௟ை, `ஜனநாயகவாதிகள்'
கையாண்டு வருகிறார்கள்; உணர்ச்சியற்று, அச்சம் மேலிட்டு,
மக்கள், அந்தக் கொடுமையைத் தாங்கிக்கொள்கின்றனர் தம்பி!
மெண்டாரிஸ் பாலங்கள் கட்டாதிருந்திருப்பாரா, பள்ளிகள்
திறந்திடாதிருந்திருப்பார் !  தொழிற்சாலைகள், பாதைகள்,
விஞ்ஞானக்கூடங்கள், விளையாட்டிடங்கள், எல்லாம்தான்
அமைத்திருப்பார் ! எனினும், உரிமையை அழிக்கிறார்;
அடக்குமுறையை ஏவுகிறார்; ஒரே கட்சி ஆட்சிக்கு வழிகோலு~
கிறார் என்று தெரிந்ததும், மக்கள் சீறி எழுந்தனர்; சரிந்தது
மெண்டாரிசின் ஆட்சி! உரிமை உணர்ச்சி அந்த வகையில்
அங்கு கொழுந்துவிட்டு எரிகிறது. இங்கு? இந்தி படித்தால்
தானே, பிழைப்பு!!  துணிந்து உத்தர விடுகிறது, துரைத்தனம்
பணிந்து `பாஶ்யம்' கூறுகிறார்கள், இங்குள்ள மந்திரிகள்!
பரிவுடன் ஆதரிக்கின்றன., ஏடுகள்! பல்லிளித்தபடி, படித்தால்
என்ன? என்று கேட்கின்றனர், பராக்குக் கூறுவோர்.
பார்த்தாயா, தம்பி! துருக்கியை!!  `கற்கோட்டை' என்றனர்,
மெண்டாரிசின் கட்சி ஆட்சியை - கலகலத்துப்போய்   விட்டது
- ஆறே மணிநேரம் நடைபெற்ற இராணுவ புரட்சியால்.
எதிர்க்கட்சிகளை  ஒழித்திட, போலீசை ஏவினார் மெண்டாரிஸ்;
 இராணுவம், தன் பலத்தை ஏவி, மெண்டாரிசை   வீழ்த்தி~
விட்டது. இராணுவம் என்றால் , வேற்று நாட்டானுடன்
போரிட்டு மடிய, ஊட்டி வளர்க்கப்படும் பலிக்கடாக்கள் உள்ள
கொட்டடி என்ற நிலைமாறி, அதிகாரத்தைக் கைப்பற்றினோர்,
அக்ரமமாக நடக்க ஆரம்பித்தால், மக்களை மதியாது மனம்
போன போக்கில் நடவடிக்கைகளை வகுத்துக்கொண்டால்,
ஜனநாயக முறைக்கு அடிப்படையாக உள்ள `எதிர்க்கட்சி'யை
அழித்தொழிக்க அதிகாரத்தைப் பயன்படுத்தினால் , ஖ுறுக்கிட,
தடுத்திட, களைந்திட முன்வந்து. நாட்டைக் குழப்பக்காடு
47
ஆகிவிடாதபடி பார்த்துக்கொள்ளும் பொறுப்புள்ளோர்
நிரம்பிய பாசறை என்பது விளக்கப்பட்டிருக்கிறது.</p>

<p>			*
	நினைத்தபடி `சட்டம்' செய்திடும் வாய்ப்புப் பெற்றிருந்~
தார், மெண்டாரிஸ், மிகப் பெரும்பான்மையினராக அவருடைய
கட்சி, பார்லிமெண்டிலே இருந்ததால்! இங்கு நாம்,
காணுகிறோமல்லவா, `மெஜாரடி' கட்சி நடந்து கொள்ளும்
போக்கினை!  மக்களாட்சியிலே, எதைக் காட்டியோ, நீட்டியோ,
஖ூறி௟ோ, `ஓட்டுகளை'க் குவித்துக்கொண்டு, ஆளவந்தார்,
ஆகிவிட்டால், அடே அப்பா! அவர்களுக்குத்தான், எத்துணை
ஆணவம் பிடித்துக்கொள்கிறது!</p>

<p>	அகி஼ல உலகத்து அறிவும், திரட்டி உருட்டித் தம்மிடம்
தரப்பட்டிருப்பது போலல்லவா, ஆளவந்தார்கள் மட்டுமல்ல,
அங்கு எலும்புத் துண்டுகளுக்காக, நாக்கைத் தொங்கவிட்டுக்
கொண்டிருக்கும் சில்லறைத் தேவதைகள்கூடப் பேசுகின்றன.
மற்றவர்களுக்கும், பொறுப்பு உண்டு. புத்தி உண்டு, கட஼மை
உண்டு, என்றா எண்ணு஖ிறார்கள் . நாங்கள் 150 ! நீங்கள் 15!!
போதாதா விளக்கம்!இதைக் காட்டிலும் வேறு என்ன காரணம்
நாங்கள் கூறவேண்டும், எங்கள் போக்குக்கு என்றல்லவா பேசு~
கிறார்கள்.</p>

<p>	கவைக்குதவாத பேச்செல்லாம், கற்றறிவாளர் முன்
பேசத் துணிகிறார்கள்; கை ஒலியும் எதிர்ப்பார்க்கின்றனர்.</p>

<p>	முரண்பாடாகப் பேசுகிறார்கள், சுட்டிக் காட்டினால்,
அதட்டி உட்கார வைக்கின்றனர்.</p>

<p>	`ஊழல் நிரம்பிக் கிடக்கிறதே, ஆட்சியில் ' என்று வருத்தம்
தோய்ந்த குரலிற் கூறிடும் போதும், `முட்டாள்களுக்கு
அப்படித்தான் தோன்றும்'- என்று பேசுகிறார்கள்.</p>

<p>	எங்கிருந்து பிறக்கிறது, ஆணவம்? எண்ணிக்கை பலம் !
அசைக்க முடியாது; சட்டசபையில் நாம்தான் `மெஜாரிட்டி' -
- என்ற செருக்கு. தம்பி!  துருக்கியில் நிலைத்ததா. அந்தச்
செருக்கு! துக்கம் துளைத்திடும் நிலையில், துரைத்தனம் இழந்து,
மெண்டாரிஸ் கிடக்கிறார்;  இதுமட்டும்தானா! இன்னும்
ஏதேனும், காத்திருக்கிறதா, என்ற அச்சம் இப்போது
அவருக்கு!!  துருக்கியில் மக்களின் உரிமையை அழித்திடக் 
கிளம்பும் சக்தி எதுவாக இருப்பினும், அதனைச் சாய்த்திடத்~
48
தக்க, ஆற்றல் எழுந்தது; வென்றது. இங்கு? இப்படித்தான்
செய்வோம்! தடுத்திட யார்?  மக்கள் எங்களிடமல்லவா
ஓட் கொடுத்து ஆளச் சொல்லியிருக்கிறார்கள்! தெரியாதா?
஖ூறட்டுமா! நாங்கள் 150!! நீங்கள் 15!! - என்றல்லவா
பேசுகிறார்கள். 150 என்ற எண்ணிக்கை அல்லவா,
காமராஜரை, பல்கலைக்கழகப் பட்டமளிப்பு விழாவிலும்,
வழக்கறிஞர்கள் சங்கக் கூட்டத்திலும், பேச வைக்கிறது!!
எங்கும் பேசலாம்! எதையும் பேசலாம்! எப்படியும் பேசலாம்!!
- என்பது, எவ்விதம் கிடைத்தது? 150! வேறென்ன!!</p>

<p>	இதைவிட, மிக அதிகமான அளவிலேதான், மெண்டாரிஸ்
கட்சிக்கு, எண்ணிக்கை பலம். ஆயினும், என்ன நடந்தது? எந்த
நேரத்திலும், மக்களின் உரிமைக்கு மேலான சக்தி வேறில்லை
என்பது நிலைநாட்டப் பட்டுவிட்டது.</p>

<p>			*</p>

<p>	"துருக்கியில் விடுதலைப்போர் மூண்டகாலை, நானாற்றிய
வீரத் தொண்டுகளை உலகு அறியுமே ! ம஖்கள் அறியமாட்டார்~
களா!!  கமால் காட்டிய வழி௟ில் துருக்கியை அழைத்துச் 
செல்லும் ஆற்றல் கொண்டவனன்றோ, நான்!   என்னை, எந்த
எதிர்க்கட்சி தூண்டிவிட்டாலும், எதிர்க்கத் துணிவார்களா! 
எதிர்ப்பு முளைத்தாலும்஼, முளையிலேயே கிள்஼ளி எறிந்திடத்
தெரியாதா! சட்டத்தை நிலைநாட்ட, பலாத்காரத்தை ஒடுக்க,
பயங்கர இயக்கத்தை அழிக்கத்தானே போலீஸ் இருக்கிறது.
அந்தப் போலீஸ்,  என் சுட்டு விரல் காட்டும் வழி நடக்க
இருக்கும்போது, கூச்சல்கள், குழப்பங்கள், ஆர்ப்பாட்டங்கள்,
எத்தனை நாளைக்கு நடக்கும்? வாய்வலிக்குமட்டும் கத்துவார்~
கள்! கால் கடுக்குமட்டும் சுற்றுவார்கள்! உதை கிடைக்கு~
மட்டும் உலாவுவார்கள்?- என்றெல்லா மல்லவா,
மெண்டாரிஸ், எண்ணி இறுமாந்து கிடந்திருப்பார்.</p>

<p>	ஆட்சி௟ைக் கைப்பற்றியதும், அடக்கம் அழிந்துபட்டு
விடுகிறது. தம்மைப்பற்றிய  நினைப்பு தலைக்கேறி விடும்
போக்கினருக்கு!</p>

<p>	காரணம் கேட்டால், கோபம் கொப்பளிக்கிறது; வாதாடி~
னால், கண்கள் சிவந்துவிடுகின்றன.</p>

<p>	உரிமை முழக்கத்தைக், காட்டுக்கூச்சல் என்றும், கிளர்ச்சி~
௟ைக் குழப்பமென்றும், வீரர்களைக் காலிகளென்றும்,
49
அறிவாலயப் பயிற்சி பெற்றோரைச் சிறுபிள்ளைகள் என்றும்,
கூறத் தோன்றுகிறது.</p>

<p>	சிறு பிள்ளைத்தனம் - காட்டுமிரண்டித்தனம் - அறிவற்ற~
தனம் - என்று, நேரு பண்டிதர், என்னென்ன அர்ச்சனை நடத்~
தினார், உரிமையை அழிக்கலாமா, என்று தமிழர் தலைவர்
கேட்டபோது !!  மெண்டாரிஸ் அதுபோல, என்னென்ன
பேசியிருப்பார்; இழிமொழிகளை வீசியிருப்பார்! கைமேல் பலன்
கிடைத்துவிட்டது, மெண்டாரிசுக்கு - கைதியாகிக் கிடக்கிறார்.</p>

<p>	பத்து நாட்களுக்கு முன்பு வரை, அவரைப் பார்த்தால்
வணக்கம் கூறி நின்றவர்கள்தான். இராணுவத்தார்!
மரியாதை அணிவகுப்புகளைக் கண்டு பெருமிதமடைந்தவர்
தான், மெண்டாரிஸ். இந்த `யோகம்' என்றெல்லாம் இருக்கும்
என்று எண்ணினார், ஏமாந்தார்!!</p>

<p>				*
	தம்பி! இந்த மெண்டாரிசைவிட, வீரதீரமிக்கவர்,
வெஞ்சமர் நடத்தி வெற்றிபல கண்டவர், தென்கொரிய
நாட்டுத் தலைவர் சிங்மன் ரீ! ஹவாய் தீவுசென்று, அடைக்கலம்
தேடுகிறார் இன்று!!  ஜப்பானை எதிர்ப்பேன்! சோவியத்தை
ஒழிப்பேன்! என்று அவர் பேசிய வீரப்பேச்சு கொஞ்சமல்ல. 
தென்கொரியாமீது, யார் கைவைத்தாலும் ஒழித்துக்கட்டி~
விடுவேன் என்று உருட்டி மிரட்டிப் பேசிவந்தார், இந்த முதிய~
வர்; வயது 90க்குக் கிட்ட.</p>

<p>	தென்கொரியா மட்டுமல்ல, உலகெங்கும்,  சிங்மன் ரீயின்
ஆற்றலை, அஞ்சா நெஞ்சினைப் பாராட்டினர்.</p>

<p>	எத்துணை ஆபத்துகளை எதிர்த்து நிற்கிறார்! கஶ்டங்கள்
அடுக்கடுக்காக வருகின்றன, கலங்கவில்லை! எங்கும் எதிரிகள்
சூழ்ந்துகொண்டபோதிலும் புறமுதுகு காட்டாது போரிடு~
கிறார். தள்ளாத வயது, எனினும், களம் அமைக்஖ிறார், படை
கூட்டுகிறார். பாசறை ஏற்படுத்துகிறார், இரத்த வெள்ளத்தில்
நீந்துகிறார், இவரன்றோ வீரர் ! - என்று வியந்து கூறினர்.
இருபது ஆண்டுகளுக்கு மேலாக, ரீ சொல்வது தான் சட்டம்
தென் கொரியாவில் நாட்டுமக்கள் அத்துணைபேரும், ரீதான்
கண்கண்ட கடவுள், மானத்தைக்காத்த மாவீரன் என்று புகழ்
பாடினார். கட்டிளங்காளைகள் ரீயைச் சுற்றி நின்று, கட்டளைக்~
குக் காத்துக் கிடந்தனர். அயிசனோவர் `என் அருமருந்தன்ன
நண்பர்' என்று பாராட்டினார் ரீயை!  கேட்ட பணத்தைத்
50
தட்டாமல் தயங்காமல் கொட்டிக் கொடுத்தார் ! இடிபாடுகள்
நிரம்பிய இடத்தை எழிலிடம் ஆக்குவேன்! பயந்துகிடந்த
மக்களை நிமிர்ந்து நடந்திடச் செய்வேன்! என்று சூளுரைத்துப்
ப஼ணியாற்றினார்; தென் கொரியா ஆட்சியை எதிர்ப்பின்றி
நடத்தி வந்தார். அவர்தான், தம்பி! ஊரறியாமல் , ஒடினார்.
புகலிடம் தேடி!! சிக்கிக்கொண்டால், சித்திரவதை செய்து
விடுவார்கள் என்ற கிலி! பிடிபட்டால், பிய்த்தெடுத்து
விடுவார்கள் என்ற பீதி! கோபம் காட்டுத் தீ கோலத்தில்
தென் கொரிய நாட்டில்! இதிலே வீழ்ந்தால், கருகிப்போய்விட
வே஁ண்டும் என்ற கிலி! சென்றிருக்கிறார், அதற்குள், படாத
பாடுபட்டு விட்டார்; பணிந்துகிடந்தோர் பதைத்து 
எழுந்தால் என்ன நேரிடும் என்பதைப் பர்த்துவிட்டார்!</p>

<p>	மக்கள் கடலென ஒலி கிளப்பி, அவரை வாழ்த்திய காலம்
உண்டு! இப்போது? `பிடித்திழுத்து வாருங்கள் அந்தப் பேயனை
- என்று கூவுகிறார்கள்!  அந்தத் தேசீயத் தலைவனேடு, களம்
சென்று நிற்பது பெரும்பேறு என்று பேசினார், முன்பு;
இப்போது அந்தக் கொலைக்காரன் எங்கே! கொள்ளையடித்தோன்
எங்஖ே! க஼ொடியோன் எங்கே! என்று தேடுகின்றனர்; ஒடோடிச்
சென்று பதுங்குகிறார், ரீ.</p>

<p>	அன்பால் அபிஶேகித்தோம், அக்ரமக்காரன் என்பதை
அறியாமல்! பக்கம் நின்று பணிவிடைசெய்து வந்தோம்
படுகொலைகளைக் கூடாது நடத்திய கொடியோன் என்பதைத்
தெரிந்துகொள்ளாமல்! நாட்டை மீட்டவன் என்று பாராட்டி~
னோம், நாசகாலனை!! - என்றெல்லாம் இன்று மக்஖ள் ஆத்திரத் ~
துடன் குரலெழுப்புகின்றனர்;  குலைநடுக்கம் கண்டுவிட்டது.
சிங்கன் ரீக்கு; குண்டுக்குப் பயந்துகொண்டு ஓடியே விட்டான்.</p>

<p>	சிங்மன் ரீகூட மக்களிடம், மலைக்கத்தக்க அளவு செல்வாக஼்~
குப் பெற்றிருந்த தலைவன்தான்! மழைக் காலத்துக் காளான்
அல்ல! இரத்தத் தடாகத்திலே பூத்ததோர் புரட்சி மலர் என்ற
புகழுரையைப் பெற்றவன்.</p>

<p>	தேர்தலில் சிங்மன் ரீயின் கட்சிக்குத்தான், மிகப் பெரிய
வெற்றி! மற்ற கட்சிகளில் பலர், மண் கவ்வினர்!! ஆட்சி
மன்றத்திலே, ரீ கட்சிதான் மிகப் பெரிய எண்ணிக்கை பலத்~
துடன். அந்த எண்ணிக்கை பலத்தைக் காட்டி, சிங்மன் ரீ,
க஼ூட்டாட்சி நடாத்திடலானான். என்றென்றும் அதிகாரம்
தன்னிடம் இருக்கவேண்டும் என்ற நோக்கம்கொண்டு மாற்றுக்
51
கட்சியினரை அழித்திடலானான். மக்கள் நீண்ட நாட்கள்,
ரீயின் போக்குக்கு, இடமளித்து வந்தனர்.</p>

<p>	கோபவெறி பிடித்து அவன் அலைந்தபோதும், `என்னமோ
சுபாவம் இப்படிக் கெட்டுவிட்டது; என்றாலும், தென்கொரிய
நாட்டுக்காக, ரீ ஆற்றிய மகத்தான பணியினை மறந்திடலாமா!'
- என்று பேசினர் - பணிவுடன் நடந்துகொண்டனர்.</p>

<p>	ஆணவச் செயல்களை துவக்கத்திலே, எதிர்த்திடவில்லை;
சிங்மன் ரீ தானாகத் திருந்திவிடுவான் என்று எதிர்பார்த்~
தனர்.</p>

<p>	சிங்மன் ரீயோ, தென்கொரிய நாடு இன்றுள்ள நிலையில், 
நாம்தான் `இரட்சகன்' ஆகவேண்டும். என்று எண்ணினான்.</p>

<p>	தேர்தல் வரட்டும், நமது தீர்ப்பைத் தருவோம் என்று
மக்கள் துடித்துக் கிடந்தனர். "தேர்தல் தானே! அதை எப்படி
நடத்துவது என்பதுதானா, எனக்குத் தெரியாது! தேர்தலில்
வெற்றிபெற்றுக் காட்டவேண்டும்; அவ்வளவு தானே! இதோ,
காட்டுகிறேன் வெற்றி!! என்றான், தில்லுமுல்லுகள் பலசெய்து,
தேர்தலில் மீண்டும் தன் கட்சிக்கே, மிகப்பெரிய அளவில்
வெற்றி என்று அறிவித்தான். மக்கள் திகைத்தனர்.</p>

<p>	ஊரெல்லாம் எதிர்த்து, உணர்ச்சி உள்ளோரெல்லாம்,
ரீ ஆட்சிக்கு எதிர்ப்பு காட்டினர்! எனினும் ரீ கட்சி அல்லவா,
மீண்டும் வெற்றி பெற்றிருப்பதாக அறிவித்திருக்கிறார்கள்.
எப்படிக஼் கிடைத்தது இந்த வெற்றி? எவரைக் கண்டபோதும்,
உழவராயினும், தொழிலாளராயினும், பாமரராயினும்
படித்தோரானும், இம்முறை எமது ஆதரவு ரீ கட்சிக்கு
இல்லை என்றல்லவோ, கூறி வந்தனர். எனினும் வெற்றிப்
பட்டியலைக் காட்டுகிறாரே, சிங்மன் ரீ எப்படி முடிகிறது.
வெற்றி பெற!! - என்று திகைத்த மக்கள் ஒருவருக்கொருவர்
கேட்டுக்கொண்டனர்.</p>

<p>	வெற்றி காட்டுகிறார்! பெறவில்லை!! -  என்பது விளங்கிற்று.
வெகுண்டெழுந்தனர் அந்தச் சூது அம்பலமானதும்.</p>

<p>	ஆட்சிப் பீடத்஼தில் அமர்ந்திருந்ததால், அதிகாரிகளை ஏவி
மக்களை மயக்கவும் மிரட்டவும் முடிந்தது. பணப்பெட்டிகளைப்
பெற்றிருந்ததால், ஓட்டுகளை `விலை' கொடுத்து வாங்கிட 
முடிந்தது. மக்கள் மனமுவந்து தராவிட்டாலும் , `ஓட்டுகளை'த்
தம் பெட்டியில் போட்டுக்கொள்ளும் வழி, ஆட்சிப் பீடத்தில்
52
இருந்ததால் கிடைத்தது. பெட்டிகளையேகூடக், குறைக்க
மறைக்க, உடைக்க, முடிந்தது! எல்லாவிதமான சூது சூழ்ச்சி~
களையும் செய்து தேர்தல் வெற்றியைத் தயாரித்துக்கொள்ள
முடிந்தது. அந்த வெற்றிப் பட்டியலை நீட்டி, முணுமுணுத்துக்
கிடந்தோரே! இப்போது என்ன சொல்லுகிறீர்கள்? எதிர்த்துப்
பேசினோரே! ம஖்஖ள் எவர் பக்கம் என்பதை எடுத்துக் காட்டி~
விட்டதே தேர்தல் வெற்றி. இனி என்ன இருக்கிற஥ு பேச? -
என்று சிங்மன் ரீ கட்சியினர் கொக்கரித்தனர்.</p>

<p>	ஏமாற்றப்பட்டுவிட்டோம்! சூது நடந்துவிட்டது! வெற்்றி
வெற்றி என்று வெறிக் கூச்சலிடுகிறார்கள் - பெற்றது வெற்றி
அல்ல, வெறும் புரட்டு! வன்கணாளரை வீழ்த்தி வாகை சூடிட~
லாம் என்று நம்பிக்கொண்டிருந்தோம். எப்படியோ வஞ்சிக்கப்~
பட்டுப் போய்விட்டோம்! - என்று மக்கள் கொதித்தெழுந்து
கூறினர். காட்டிடேன், வெற்றி போதாதா? என்று பேசிச் சிரித்~
தான், சிங்மன் ரீ!</p>

<p>	கழகம் வளருகிறது வளருகிறது என்று பேசுகிறார்஼களே,
கூட்டம் கூடுகிறது கூடுகிறது என்று கூறுகிறார்களே, ஓட்டெல்~
லாம் எமக்கன்றோ கிடைக்கிறது, பார்க்கிறீர்களல்லவா, என்று
இங்கு பேசவில்லையா காமராஜர்!  பண பலம், பத்திரிகை பலம்,
அதிகாரம் தரும் பல்வேறுவிதமான வாய்ப்புகள் இவை யாவும்
சேர்ந்து, தேர்தலில் வெற்றிபெற்றுத் தருகிறது; இதை ம஖்஖ள்
ஆதரவு என்றல்ல஼வா கூறுகிறார் காமராஜ்! அவருக்குக்
கிடைத்திருப்பதைவிட, மிக அதிகமான வாய்ப்புகள் வசதிகள்
ரீக்கு! எனவே எல்லா வகையான புரட்டுகளையும் செய்து,
பெட்டிகளை நிரப்பிக்கொள்ள முடிந்தது. புரட்டு வென்றது.
புரட்சி அழிந்தது என்஼று எண்஼ணினார், ரீ; ஆனால் புரட்சி
அழிந்துபடவில்லை, புது வேகம் பெற்றது. சிங்மன் ரீ ஆட்சியிலே
நடக்கும் அக்ரமங்களிலே, அநீதிகளிலே, ஒன்஼று இந்த தேர்தல்
வெற்றி!- என்று மக்கள், பேசலாயினர். தோற்றதால் குளறித்
திரிகிறார்க஼ள் என்றனர், ரீயினர். பெற்றது வெற்றி அல்ல,
என்பதை உலகறியச் செய்வோம் என்று ஆர்த்தெழுந்தனர்
மக்கள் - மாணவர் முன்னணி நின்றனர் - ரீ, போலீசை
ஏவினார் - மக்கள் தாக்கப்பட்டனர் - சுட்டுக் கொல்லப்பட்டனர்,
உடனிருந்தோர் பிணமானது கண்டதும் ,  மற்றையோரின்
குருதி கொதித்தது. இரத்தவெள்ளத்திலே, தமது நண்பர்கள்
வீழ்ந்திருக்கக் கண்டதும், மற்றவர் சீறும் புலியாயினர். இது
தானே முடியும் உன்னால் சாகடிக்க!சரி! மானமழிந்து, மண்டி~
யிட்டுக் கிடப்பதைவிட, இதோ இறந்துபட்டனரே, எமது
ஆருயிர்த் தோழர்கள், அதுபோல மடிந்து போவதே மேல்;
53
ஆனால் இறந்துபடுமுன்பு, இந்தக் கொடியோரின் கோல்
முறிந்திட஼வேண்டும. குத்தட்டும், வெட்டட்டும், குண்டடி
தரட்டும், அஞ்சப்போவதில்லை. இந்த ஆட்சியின் சூது சூழ்ச்சி~
யினை அம்பலப்படுத்தியே திருவோம் என்று, முழக்கமிட்டனர்,
மக்கள்.</p>

<p>	பல்கலைக் கழகம் சென்று படித்து, டாக்டர்களாய்,
வழக்கறிஞர்களாய், பொறியியல் வல்லுநராய், ஆசான்களாய்,
விஞ்ஞானிகளாய், தளபதிகளாய், நிர்வாகிகளாய், திகழ
வே஁ண்டிய மாணவம஼ணிக஼ள், குண்டடிபட்டனர். இரத்தம்
`குபுகுபு'வென வெளிவரக்கண்டும் கலங்காது. புன்னகை
புரிந்து, உயிர்போகப் போகிறது! கவலையில்லை! கடமையைச்
செய்தேன்! விட்ட இடத்திலிருந்து தொடங்கி, மற்றதைச்
செய்து வெற்றிபெற நீவிர் இருக்க, நான் கவலைப்படுவானேன்!
என் பங்கு நான் செலுத்திவிட்டேன்! என்று கூறிச் சாய்ந்தனர்!
இறந்துபட்ட இளைஞர்களின் இரத்தத்திலே, சாக அஞ்சாத
மற்றவரின் கண்஼ணீர் கலந்தது. அணுபிளக்கப்பட்டது போன்ற~
தோர், நிலை! புதியதோர் சக்தி பிறந்தது! புயல் வீசிற்று!
போரிலே பழக்கம், ரீக்கு பயிற்சியும்஼கூட ஆனால் இந்தப் புயல்
வேறுவிதமானது!  அடக்கப் பார்த்தனர். அலுத்துப் போனார்!
ஆட்சி கவிழ்ந்தது! ஆணவம் அழிந்தது! வெளியே தலைகாட்ட
அஞ்சினார்! விரண்டோடிவிட்டார், ஹவாய் தீவுக்கு!!</p>

<p>	தேர்தலிலே, எப்படியோ வெற்றிபெற்றுக் காட்டி~
விட்டால் போதும், நாடு காலடி கிடக்கும், மக்கள் மண்டி~
யிட்டுக்கிடப்பர். எதிர்ப்பு இருக்குமிடம் தெரியாமல் அழிந்~
தொழியும் என்று எண்ணுவது எத்துணை பேதைமை என்பதைத்
தென்கொரிய நாட்டு நிகழ்ச்சி காட்டிவிட்டது! ஆனால் அது
தென்கொரி௟ா! உரிமை உணர்ச்சியால் உந்தப்பட்டவர்கள்,
உயிர்கொடுத்தேனும் உரிமையைக் காத்திடவேண்டும் என்று
கிளர்ந்தெழுந்தனர். இது? தெளிவுபேசித் தேம்பிக்கிடந்திடப்
பழகிப்போன தமிழ்நாடு! எனவேதான் இங்கு தேர்தலில்
வெற்றிபெற்றுக் காட்டினால் போதும் என்ற போக்கிலே
காங்கிரஸ் தலைவர்கள் நடந்துகொள்கிறார்கள். அவர்களை
எதிர்ப்பானேன், அல்லற்படுவானேன்!- என்று எண்ணிடும்
போக்கினர் மிகுந்துவிட்டனர். தம்பி! உன்போன்றோர் மட்டும்
போர்க்கொடி உயர்த்தியபடி  உள்ளனர். மற்றவர்கள் மண்டி~
யிட்டுக் கிடக்கும்போது, இதுகளுக்கு, எவ்வளவு மண்டைக்~
கனம், நம்மை எதிர்க்கிறார்களே என்று எண்ணி, காமராஜர்
கடுங்கோபம் கொள்கிறார். காலை மாலை, என்று பாராமல்,
54
காடு மேடு என்று யோசிக்காமல், சுற்றிச்சுற்றி வருகிறார்,
திட்டித்திட்டுத் திரிகிறார். பட்டிதொட்டி எல்லாம் அவர்
பரணி! பத்திரிகைகளிலே, அவர் பேச்சு!!</p>

<p>	மெண்டாரிஸ் ` கைதி' ஆகியுள்ள நேரம், சிங்மன் ரீ
விரண்டோடிய காலம், காமராஜர், பவனிவருகிறார் எதிர்க்
கட்சிகளை ஒழித்துக்கட்டுவேன், என்னை எவன் என்ன செய்ய
முடியும்? - என்று, கொக்கரித்தபடி!</p>

<p>	தம்பி! மெண்டாரிஸ் முழக்கமிடத் தெரியாதவரல்ல1
அவர் `கைது' செய்யப்பட்ட நேரம்கூட, அவர் முழக்கமிட ஒரு
மாவட்டத்திலே சுற்றுப்பயணம் நடத்திக்கொண்டிருந்த நேரம்
தான்!! இராணுவம் தலையிட்டு, அவரைச் சிறைப்படுத்தா~
திருந்தால், மெண்டாரிசும், காமராஜரைவிடக் காரசாரமாக,
ஊரூர் சென்று பேசித்தான் இருப்பார், " எவனும் எதுவும்
செய்ய முடியாது! எவனுக்கும் எதுவும் தெரியாது! எந்தக்
கட்சியும், எம்மை அசைக்க முடியாது! எங்஖ளால்஼தான். ஆட்சி
நடத்த முடியும்!" என்றெல்லாம். அவ்விதமான பேச்சைக்
கேட்டுக் கேட்டுப் புளித்துபோய் விட்஼டது. ஆளவந்தாராக
இருக்கிற ஒரே காரணத்துக்காக , பேசுவதைக் கேட்டுக்கொள்~
கிறார்களே யன்றி, பேச்சிலே அறிவு ததும்புகிறது என்பதனால்
அல்ல! மக்கள் மனம் கொதித்துக் கிடக்கிறது, எந்தச் சமயத்~
திலே வந்தது வரட்டும் என்று கிளம்புவார்களோ, என்னென்஼ன
அழிவுகள் நேரிட்டுவிடுமோ!- என்று எண்ணினார், இராணுவத்~
தினர். இனியும் இந்த போலித்தனத்தை, கேலிக்கூத்தை
விட்டுவைக்கக் கூடாது என்று முடிவுசெய்தனர். மெண்டரி~
சைக் கண்டு அழைத்தனர். எங்கு? என்று கேட்டார். மெத்த
உழைத்துவிட்டீர்கள். எனவே சிறிது காலம், ஓய்வு எடுத்துக்
கொள்ள வாருங்கள்! - என்றனர். சிறையா? என்று  குழம்பிக்
கேட்கிறார், மெண்டாரிஸ்!சேச்சே! அங்கு அனுப்புவோமா
தங்களை! அனுப்பினால் உயிரோடு திரும்பி வெளிவரத்தான்
முடியுமா! உண்மையை உரைத்ததால், உரிமைக்குப் பரிந்து
பேசியதால், நீதி கேட்டதால், நேர்மையைக் காட்டியதால்,
உமது கோபத்துக்கு ஆளாகி, உள்ளே தள்ளப் பட்டிருக்கிறார்~
களே பலர். அவர்களின் கோபப்பார்வை போதுமே, உம்மைச் 
சாகடிக்க1 சிறை சென்றால் சித்திரவதை நேரிடும்! உம்மை 
அங்கல்ல, அழைத்துச் செல்வது எமது முகாமுக்கு!! என்று
கூறி இழுத்துச் சென்றனர்.</p>

<p>	*			*			*
55
	கபிஸ்தலம் மூப்பனார், பூண்்டி வாண்டையார் , நெடும் பலத்~
தார், வடபாதிமங்கலத்தார், எனும் `ஏழைகள்' புடைசூழ, `வீடு
நமக்குத் திருவங்஖ாடு, உண்டு கையில் திருவோடு' என்ற
பாசுரம் பாடிடும் பற்றற்ற காமராஜர், மக்களை நேரடியாகக்
கண்டு பேச, குறைகளை அறிய, தீர்க்க, தஞ்சைத் தரணியிலே
சுற்றுப்பயணம் நடத்தினார்- அதுமட்டுமல்ல அவர் நோக்கம்;
மிட்டா மிராசுகளின் கையாட்களாக உள்ள தீனாமூனாக்காரர்~
களையும் அழித்திட வேண்டும் என்பதாம். கபிஸ்தலம்
மூப்பனார், வடபாதிமங்கலத்தார், நெடும்பலத்தார் என்போ~
ரெல்லாம், தெரியுமா தம்பி! காலையிலே கலப்பை தூக்கிக்
கொண்டு கழனி சென்றால், மாடு அலுத்துப் படுத்தாலும்
தாம் படுத்திடாமல், பாடுபடும் ஏழை உழவர்கள்! கடித்துக்
கொள்ள ஒரு துண்஼டு மிளகாய் வத்தல்கூடத்  தேடாமல்,
புளித்த கஞ்சியைக் குடித்துவிட்டுப், பாடுபடும் விவசாயிகள்!
ஓலைக்கொத்துக் குடிசை!கந்தல் பாய்! கைதான தலையணை,
இவர்களுக்கு, உழைத்துப் பிழைத்திடும் உத்தமர்கள். ஊரார்
வாழ உழைத்திடும் உத்தமர்கள்! காடு திருத்திக் கழனியாக்கி
நாடு வாழ நற்பணியாற்றிடும் நல்லவர்கள்!  அவர்கள் பட்டுப்
பட்டாடையைத் தொட்டும் பார்த்ததில்லை, தங்க நகையைத்
தீண்டினதில்லை. வைரம் தெரியுமா? என்று கேட்டால், எந்த
மரம் வைரம் பாய்ந்திருக்கிறது? என்றுதான் கேட்பார்கள் - 
விலையுயர்ந்த அணி வைரம் என்பதும் அறியாதவர்கள்.
அப்படிப்பட்ட ஏழைகளை அழைத்துக்கொண்டு, மூன்று
மிட்டாக்களுக்குச் சொந்தக்காரரான குடந்தை நீலமேகமும்,
இரும்புப் பெட்டியிலே எட்டு இலட்சம் வைத்திருக்கும் சின்னத்~
தம்பியும், கரும்புத் தோட்டத்திலே வருஶம் கால் கோடி
பெற்றிடும் இளங்கோவும், பஸ் முதலாளி பட்டுவும், ஆலை
முதலாளி பெத்தண்ணனும், கோலாகல வாழ்வு நடாத்திடும்
கொடவாசல் கிருஶ்ணமூர்த்தியும், வட்டி வியாபாரத்தில்
பெரும் பொருள் ஈட்டிடும் மாயவரம் கிட்டப்பாவும், மாளிகை~
களை ஊரூர் அமைத்துக்கொண்டு மனோஹர வாழ்வு நடத்தும்
மன்னார்குடி நாராயணசாமியும் - என்று இவ்விதம் இருக்கிறார்~
஖ளல்லவா, நமது கழகத்தவர், இவர்களிடமிருந்து நாட்டைக்
கா஫்பாற்றி, நான் முன்பு காட்டினேனே, பாட்டாளித் 
தோழர்கள், உழைப்பின் உருவங்கள், ஊர்வாழ உழைப்போர்,
சொத்து சுகம் இல்லாதவர், கடினமான உழைப்பாளிகள்,
கபிஸ்தலம், நெடும்பலம், வடபாதிமங்கலம் போன்றாரிடம்,
நாட்டை ஒப்படைக்்க வேண்டும். அப்போதுதான் நாடு
சீர்படும், நல்லாட்சி ஏற்படும் என்ற திருத்தொண்டிலே
ஈடுபட்டு, அந்தத் திருவாசகத்தை ஊரெலாம் முழக்கிக்56
56
கொண்டு, `புனிதயாத்திரை' நடத்திக்கொண்டு வருகிறார்,
பெண்டா பிள்ளையா எனக்கு, எனக்கென்ன மாதச் சம்பளம்
ஆயிரத்துக்குமேல், எனக்கு வேண்டியதெல்லாம் கட்டிக்
கொள்ள நாலுமுழ வேட்டியும், போட்டுக்கொள்ள ஒரு 
துண்டும், படுக்கப் பாயும், பசிக்குக் கொஞ்சம் சோறும் சாறும்
இருந்தால் போதும் என்று அறிவித்துவிட்டு, மாதம் சுளைகளை~
யாக ஆயிரத்துக்கு அதிகமாக஼ச் சம்பளம் வாங்காத, `சத்புருஶர்'
`சன்யாசி' காமராஜ்!
		*		*		*</p>

<p>	தம்பி! எவ்வளவு நெஞ்சழுத்தம் இருந்தால், தஞ்சை~
யிலேயே பெரிய புள்ளிகள் என்஼று எவரும் கூறிடக்கூடிய,
மிட்டா மிராசுகளை, கபிஸ்தலம் நெடும்பலங்களைக்
கூட வைத்துக்கொண்டு, நான் ஏழைபங்காளன், எங்கள் கட்சி
ஏழைகள் வாழ வழிவகுத்திடும் கட்சி! மிட்டா மிராசுகளுக்கு,
கையாட்கள், தி.மு.கழகத்தார் - என்று கூறிடத் தோன்றும்,
எத்துணை மனம் மரத்துப் போயிருந்தால், அல்லது அச்சம் குடி
கொண்ட மனதினராகிப் போயிருந்தால், அந்தப் பொருளற்ற
பேச்சைக்கேட்டும், வாளா இருந்திருப்பர்! நாம, மிட்டா
மிராசு கட்சி, காமராஜரின் காங்கிரஸ் கட்சி பஞ்சை பராரி,
பகல் பட்டினி இராப்பட்டினி என்போரின் கட்சி! எதிரே
உள்ளோர்களை எவ்வளவு இளித்தவாயர்கள் என்று எண்ணிக்
கொண்டிருந்தால், இந்தப் பேச்சுப் பேசத் துணிவு பிறந்திருக்~
கும். பேசினார், நமது கழகத்தை ஏசினார். அந்தத் துணிவுக்குக்
காரணம் என்ன? எவர் எதிர்த்துக் கேட்க முடியும்ம
என்ற போக்குத்தான். மெண்டாரிசும், சிங்மன் ரீயும், இது
போன்ற போக்கினராகத்தான் இருந்தனர். அவர்களின் ஆட்சி,
இறந்த காலமாகிவிட்டது. ஏனெனில், அவர்கள் நடத்தி வந்த
ஆணவ ஆட்சியால் ஏற்பட்ட கொடுமைகளையும் தாங்கிக்
கொண்டு, மக்களிலே குறிப்பிடத்தக்க பகுதியினர் `தாமாக'
எண்ணிப் பார்த்திடலாயினர்; உண்மை விளங்கிற்று; உரைத்~
தனர்; அட஼க்குமுறை அவிழ்த்துவிடப்பட்டது; அவதி பல
கண்டனர்; எனினும் அடங்கிக் கிடந்துவிடவில்லை; அஞ்சப்~
போவதில்லை, சாகவும்! என்று ஆர்த்தெழுந்தனர்; அசைக்கவே
முடியாது என்று அனைவரும் ஒரு காலத்தில், உள்ளபடி நம்பிக்
கிடந்த ஆணவ அரசுகள், அழிந்தொழிந்து போயின!</p>

<p>	என்ன செய்தாலும் தாங்க் கொண்டு , எதைப்
பேசினாலும் கேட்டுக்கொண்டு, எவ்வளவு ஏசினாலும் இ஼இளித்துக்
கொண்டு கிடந்தனரே, தலையாட்டிக஖ள்போல, வாயில்லாப்
பூச்சிகளாக, இந்த மக்கள்; இவர்களுக்கு எங்கிருந்து வந்தது
57
திடீரென்று இந்தத் துணிச்சல் ! அச்சம் கப்பிய முகத்தினராக
இருந்து வந்தனர், இன்று பொறி பறக்கிறதே பேச்சில்! எங்கே
ஒளித்துவைத்திருந்தனர், இந்தப் புரட்சிக் கனலை எல்லாம்,
என்று வீழ்ந்த எதேச்சாதிகாரிகள், எண்ணி எண்ணி ஆச்சரியப்~
பட்டுக்கொண்டிருக்கிறார்கள். நீரிலிருந்து நெருப்புப் பிறக்கும்
என்பதை, கூறினால் நம்புவார்களா? நடுக்கும் குரலில் பேசிக்
கொண்டுள்ள இந்த மக்களுடைய உள்ளத்திலே, ஆணவ
அரசுகளை அழித்திடத்தக்க ஆற்றல், குமுறல் வடிவிலே இருக்~
கிறது என்று கூறினால், நம்ப முடியுமா, கொடிகட்டி ஆண்டிடும்
கொடியவர்களால்!</p>

<p>	தம்பி! தண்ணீரைத் தேக்கிவைத்து, வேகமாகக் கீழே
விழச்செய்து, விழும்போது ஏற்படும் சக்தியைக் கொண்டு,
`மின்சாரம் ' தயாரிக்கிறார்கள்! பார்க்கிறாயல்லவா?</p>

<p>	கொடுமைக்கு ஆளாக்கப்படும் மக்கள் வடிக்கும் கண்ணீர்
வெள்ளம், ஓர்நாள் மாபெரும் `அழிவுச்சக்தி'யைப் பெற்றெடுக்~
கிறது. ஆனால், அந்த நிலை ஏற்பட வேண்டுமானால், `சுய~
சிந்தனை' - கட்டுக்காவலுக்கு அஞ்சாமல், இட்டுக் கட்டியதற்குப்
பணிந்து விடாமல், தாமாக, ஒவ்வொரு பிரச்சனைபற்றியும்,
நிகழ்ச்சி குறித்தும், எண்ணிப் பார்த்திடும் திறம், ஏற்பட
வே஁ண்டும். அந்தத் திறன் மக்களிடம் அற்றுப் போனால்,
தொடை நடுங்கிகளெல்லாம்கூட, செங்கிஸ்கான்களாகிவிட
முடியும்; சர்வாதிகாரவெறி வெற்றிபெற்றுவிடும். ஈராயிரம்
ஆண்டுகளுக்கு முன்பே கிரேக்கத் தத்துவாசிரியர்கள், இதைக்
கருத்திலே கொண்டுதான், `மனிதன் சிந்திக்கும் திறன் உடைய
மிருகம்' என்ற கூறினார். மனிதரிடமிருந்து சிந்திக்கும்
இயல்பைப் பறித்துவிட்டாலோ, அடக்கி ஒடுக்கிவிட்டாலோ,
மிருகத்தை வேட்டையாடுவதுபோல மனிதனை, மாபாவிகள்
வேட்டையாடிப் பிடிக்கலாம், விரட்டலாம், கொன்று
குவிக்கலாம்!</p>

<p>	எடுத்துக் காட்டுக்கு இது; தலைவாழை இலையில், சீரகக்
சம்பாசாதத்தை வெள்ளி `அன்னகுத்தி'யால் எடுத்துப்போட்டு,
அதிலே வெண்ணெய் காய்ச்சிய நெய்யை உருக்கி வார்த்து.
நேர்த்தியான பருப்பும் சுவைமிகு காய்கறியும் துணைக்கு இட்டு,
பக்கம் நின்று பணிவிடை செய்து, எந்தக் கறியிடம் அவர் பரிவு
காட்டுகிறார் என்பதைக் கவனித்து, எடுபிடியை அழைத்து,
அந்த஼க் கறியை மேலும் இலையில் இடச்சொல்்லி, பக்குவமான
உபசாரத்தை நடத்தி வரும் மிட்டா மிராசுகளுடன் கூடிக்
கொட்டமடித்துக் கொண்டே, கூசாமல், `நாங்஖ள் ஏழை
பங்காளர்!' என்஼று பேசி வருகிறாரே, பெரிய பதவியில் அமர்ந்து
58
விட்டதால் `பச்சைத்தமிழர்' ஆகிவிட்ட காமராஜர், அவரிடம்
"ஐயனே! அடுக்காது இந்தப் பேச்சு! அண்டப்புளுகன்றோ,
நீர் பேசுவது; ஊரை அடித்து உலையில் போடுவோர், உழைப்~
பாளியின் இரத்தம் உறுஞ்சுவோர், தலைமுறை தலைஂஂமுறையாகச்
சுரண்டிச் சுகபோகம் க஼ண்டோர், உம்மைச் சூழ நிற்கிறார்கள்;
அவர்களை, ஏழைக்குழைப்போர் என்று கூற, எப்படி ம஼னம்
இடந் தந்தது? உழைத்து உருக்குலைந்து போனோர், உழைத்~
திடவும் வாய்ப்புக் கிடைக்காததால் மனம் உடைந்து போனோர்,
தி.மு.கழகத்தில், பெரும்பாலோர்! அவர்களை மிட்டா மிராசு~
களின் கையாட்கள் என்று ஖ூறிடலாமா! அது நியாயமாகுமா?
மிட்டா மிராசுகள் தமது கையாட்களுக்கு, சுவைமிகு
உணவளிப்பர்! இப்போது உமக்களித்தளித்தனர்!! ஏனென்று
எண்஼ணிப் பார்த்தீரா?  உம்மிடம் பரிவு சுரந்ததாலா?  அதோ,
ஆயிரம் ரூபாய், ஏழைப்பிள்ளைகளின் மதிய உணவுக்காக அளிக்~
கிறேன் என்றுகூறி உம்மைக் களிப்படையச் செய்கிறாரே,
`சமயமறிந்தார்'; அவர் ஏவிவிட்டதால், கொளுத்தப்பட்ட
குடிசைகளும், அறுக்கப்பட்ட தாலிகளும் எவ்வளவு என்று
உமக்குத் தெரியுமா? அடிஆட்கள் உடன்வர, சேரி புகுந்து
அவர் நடத்திய கொடுமைகள் உமக்குத் தெரியுமா? - என்~
றெல்லாம் ஆத்திரத்தை அடக்க முடியாது ஒருவன் பேசி
விடுகிறான் என்று  வைத்துக்கொள் தம்பி! என்ன நேரிடும்
அவனுக்கு? அமைச்சர் முன் காலித்தனம் செய்தான் என்று
பிடித்திழுத்துச் செல்வர் - சட்டம் அவனைக் கொட்டும்.</p>

<p>	தம்பி! சர்வாதிகாரிகளிடம் சிக்கிய நாட்டிலே
`குற்றவாளி'க் கூண்டிலே எவரெவர் நிறுத்தப்படுவர், வழக்கு
விசாரணை எப்படி இருக்கும் என்பதை விளக்கிடும் ஓரங்க
நாடகமொன்று சின்னாட்களுக்கு முன்பு படித்தேன்.</p>

<p>	`அடுத்த கிழமை அந்தக் `குற்றவாளி'யைக் காணலாம்.
இந்தக் கிழமை கபிஸ்தலம், வடபாதிமங்க஼லம் போன்றாருடன்
கூடி, ஏழைகளைக் காப்பாற்றக் கிளம்பிய காமராஜரைக்கண்டது
போதும். பெரிய புள்ளிகள் என்ன கதியானார்கள் என்பதை
எண்ணிப் பார்த்துப் பாடம் தேடச் சொல்லுவோம் அவர்களை.</p>

<p>					அண்ணன்,</p>

<p></p></body></text></cesDoc>