<cesDoc id="tam-w-socsci-myths-namu1" lang="tam">
<cesHeader type="text">
<fileDesc>
<titleStmt>
<h.title>tam-w-socsci-myths-namu1.txt</h.title>
<respStmt>
<respType>Electronic file created by</respType>
<respName>Central Institute for Indian Languages, Mysore</respName>
<respType>transferred into Unicode and CES format by</respType>
<respName>"Unicodify" software by Andrew Hardie</respName>
</respStmt></titleStmt>
<publicationStmt>
<distributor>UCREL (on behalf of CIIL)</distributor>
<pubAddress>Department of Linguistics, Lancaster University, Lancaster, LA1 4YT, UK</pubAddress>
<availability region="WORLD"></availability>
<pubDate>03-07-09</pubDate>
</publicationStmt>
<sourceDesc>
<biblStruct>
<monogr>
<h.title>அன்று பூட்டிய வண்டி</h.title>
<h.author>ந. முத்துசாமி</h.author>
<imprint>
<pubPlace>India</pubPlace>
<publisher>Unknown - Book</publisher>
<pubDate>1982</pubDate>
</imprint>
<idno type="CIIL code">namu1</idno>
</monogr></biblStruct></sourceDesc></fileDesc>
<encodingDesc>
<projectDesc>Text collected for the CIIL Corpus, subsequently integrated into the EMILLE/CIIL Monolingual Written Corpora.</projectDesc>
<samplingDesc>Simple written text only has been transcribed. Diagrams, pictures and tables have been omitted. Sampling begins at page 22.</samplingDesc>
<editorialDecl><conformance level="1"></conformance></editorialDecl>
</encodingDesc>
<profileDesc>
<creation><date>03-07-09</date></creation>
<langUsage>Tamil</langUsage>
<wsdUsage>
<writingSystem id="ISO/IEC 10646">Universal Multiple-Octet Coded Character Set (UCS).</writingSystem>
</wsdUsage>
<textClass>
<channel mode="w">print</channel>
<constitution type="composite"></constitution>
<domain type="public"></domain>
<factuality type="fact"></factuality>
</textClass>
<translations></translations>
</profileDesc>
<revisionDesc></revisionDesc>
</cesHeader>

<text><body>

<p>-48-
	கீசக வதம்
	கொண்டையார் தண்டலம்
	வரதப்ப வாத்தியாரின் தெருக்கூத்து</p>

<p>விமர்சனத்தை விமர்சனமாகச் செய்வதாயினும் சில வெளித்~
தகவல்களை உட்செய்தியாய்க் கொண்டு வருவது அவசிய~
மாகிறது. தெருக்கூத்து. ஒரு உன்னதக் கூத்தாக இங்கு
அங்கீகரிக்கப்பட்டு, நிகழ்ந்து கொண்டிருக்குமாயின் இதன்
உட்செய்திகள் மட்டும் அம்பலமானால் போதும். இப்போது
இது கீழ் மக்களின் ரசனைக்குரித்ததாகக் கருதப்பட்டு, நகரியர்
முகம் திருப்பிப் போகிற நிலையில் இருந்து கொண்டிருக்கிறது.
எனினும் அது த஼மிழில் உயிர் வாழ்ந்து கொண்டிருக்கும் உன்~
னதமான அம்பலக்கலை. அதன்பால் கவனத்தை ஈர்ப்பதற்~
கும், அது தன்னிடம் வைத்துக் கொண்டிருக்கும் பலவீனங்~
களைக் களைந்து வீர்ய மூட்டுவ஥ற்கும். அதன் உண்ஂமை ரூபத்~
தைக்காட்சி அதிசயமாய்ப் பார்வைக்காக்குவதற்கும், சில
வெளி நடவடிக்கைகளில் ஈ஼ஈடுபட வேண்டியதாகிறது.
49
கூத்துக்காக 1977 அக்டோபர் 13 ந்தேதி சில நிமிஶங்கள் முக
மூடி அணிந்து கொண்டேன்.  அன்று மாலை குமாரி பத்மா
சுப்ரமண்யத்தின் நேருக்கு நேரான உரையாடல் Max Muller
Bhavan ல் இருந்தது. அந்த உரையாடலுக்குச் செவி
கொடுக்கவும், கேள்வி பதில்களால் தங்கள் இருப்பை அம்பலப்~
படுத்திக் கொள்ளவும், வந்திருந்தவர்களிடம் முகமூடியோடு
கீழ்க்கண்ட வாசக துண்டுக் காகிதங்களை விநியோகம் செய்~
தேன்.</p>

<p>என் சொந்த முகத்தைக் கண்டு இது தனக்கு அறிமுகமில்லை
என்று முகம் கொடாதவர்களும் முகமூடி  முகத்தை அன்னிய~
மில்லாத ஒரு காட்சி ரூபமெனக் கொண்டு முகம் கொடுத்துக்
கை நீட்டிப்பெற்஼று இசை வாசித்தார்கள். உண்மை முகம்,
ஒரு துண்டு வெள்ளைக் காகிதத்தில் தட்டெழுத்தில் வாசக~
மானவை முக்கியத்துவமற்றுப் போகக் காரணமாக இருந்~
திருக்கும் முகம் மூடி தன் கவர்ச்சியால் அவர்கள்
கவனத்தை அந்தத் தாளின்பால் திருப்பி செய்தி அறியத்
தூண்டிற்று. போய்ச் சேர வேண்டிய தகவல் அனைவருக்கும்
போய்ச் சேர்ந்துவிட்டது.</p>

<p>விளம்பரம் வீண்போகவில்லை. கீசக வதத்திற்கு, இந்த விளம்~
பரத்தால் செய்தி அறிந்து வந்தவர்கள் அநேகம் பேர் இருந்~
தார்கள்.</p>

<p>கூத்தின் முகமூடியும் சாமான்யத் தரத்தில் மேற்படி விஶயங்~
களை உள்ளடக்கிக் கொண்டிருக்கிறது என்றாலும் சிறப்பித்துச்
சொல்ல   சிறப்பானது இல்லையிது. ஆனால், சிறப்பித்துச்
சொல்ல வேறு விஶயங்கள் இருக்கின்றன. அதன் முகமூடி
வர்ணம் தீட்டிய முகம். வர்ணத்தால் முகத்தைத் தொலை
தூரத்துக்கு காட்சியாக்கும் உத்தி. ஒரு உண்மை முகத்தை
உண்மையாகவே வைத்து அதன் அம்சங்களை மட்டும் அதீதப்~
படுத்துவதால் உண்மை உக்கிரமடைகிறது. இயல்பு இன்~
னொரு தரத்துக்குத் தூக்கப்பட்டு உக்கிரப்படுத்தப்பட்டு விட்ட~
தால் அதை இயல்பு இல்லையெனக் கொண்டு முகமூடியென
அழைக்க வேண்டியதாகிறது. இது மனித முகத்தின் தற்
காலத் தன்மையை அழித்து அதைப் புராணப்படுத்துகிற
உத்தி. கூத்தின் குரலும் பாத்திரத்தோடு சேர்த்துப் புராணப்~
படுத்தப்பட்டிருக்கிறது. இக்குரல் எட்டும் தூரத்திற்கு தோற்ற஼மும்
50
எட்டவேண்டும் என்பதாலும் இயல்பு அதீதமூட்டப்படு~
கிறது. புஜங்கள் புஜ கீர்த்திகளால் அதீதப்படுத்தப்பட்டு
எட்டிய மட்டும் எட்டுவிக்கப்படுகிறது. தலையில் கிரீடம்
வைக்கப்பட்டு வெற்று மயிர்த் தலையால் மனிதனாகிவிடாமல்
காக்கப்படுகிறது. தொலைதூரக் காட்சியாக்கப்படுகிறது.
பாவாடையாலும் இதே உத்தேகங்கள் நிறைவேறுகின்றன.
கால்களின் வேகவிரைவுக்கு ஆடை ஒரு தொல்லையாக இல்லை.
மேற்சொன்ன எல்லா அம்சங்களிலும், உத்தேசங்கள் இரண்டு.
காட்சியை இயல்பு தாண்டி எட்டச் செய்தல். இயல்பு கெடுத்~
துப் புராணப் படுத்துதல்.</p>

<p>இந்த வ஼ண்஼ண உக்கிரத்தை கூத்தர்களே தீட்டிக் கொண்டு விடு~
கிறார்கள். கூத்து ஆரம்பிக்கும் முன் ஒரு யோகம் போன்றது
இந்த வர்ணப் பூச்சி. சாமான்ய மனதிற்கு வர்ணமேற்றி .
புராண குணங்கள் மனதேறி,உக்கிரப் பாத்திரங்கள் பிறக்க
இயல்புச் செயல்கள் இயல்பாகவே இருந்து கவனக் குவிப்பில்
யோகமாகிற செ௟ல் இச்செயல் என்றே எனக்குத் தோன்று~
கிறது. வேஶம் போட்டுக் கொள்ளும் இடத்தில் விளக்கு
ஏற்றி வைக்கப்பட்டு தீபம் காட்டிய சிறு பூஜைக்குப் பின்னே
தாளத்தைத் த஼ட்டி வேஶம் தரிக்கத் தொடங்குகிறார்கள். இது
சடங்கு, சடங்குகள் நோக்கமுள்ளவை. பழக்கத்தில் நோக்க~
மழிந்தாலும் அதன் தோற்றத்தில் ஒரு நோக்கத்தோடு
தோன்றியது சடங்கு. சரியான புரிந்து கொள்ளல் உள்ள~
வனுக்கு வேஶத்தின் அடிவர்ணப் பூச்சைப் பூசிக்கொண்ட
உடனே தன் தேகத்தில் ஒரு தோற்ற மாறுதல் தோன்றுவதை
அறியமுடியும் என்று தோன்றுகிறது. ஒரு கையால் முகத்~
துக்கு முன்னே பிடித்துக் கொள்ளும் கண்஼ணாடியில் தன் சொந்த
முகத்தை அதன் மனேதத்துவக் குறிப்புகளோடு பார்த்துக்
கொள்கிறான் கூத்தன். இ஼இது அவன் சொந்த ஆளுமை. இன்~
னொரு கையால் வண்ணத்தைக் குழைத்து முகம் முழுவதும்
அடிப்படையாகப் பூசிக்கொள்஼கிறான். பிறகு முகரேகைகள்
உக்கிரப்படுத்தப்படுகின்றன. மீசை எழுதிக் கொள்கிறார்கள். 
புரிசை நடேச /கண்ணப்ப தம்பிரான் குழுவினர் மீசை அணிந்து
கொள்கிறார்கள். இது மயிரால் ஆன மீசையில்லை. சிலர் மயி~
ரால் ஆன மீசையையே கயிறால் கட்டிக் கொள்கிறார்கள்.
ஂகண்கள் பெரிதுப்படுத்தப்படுகின்றன. கண்களைச் சுற்றிய
கன்னப் பகுதிகள் புள்ளிகளால் அலங்காரப்படுத்தப்படுகின்~
றன. நெற்றிக்குத் திலகம் எழுதப்படுகிறது. இத்தனையும் 
கண்ணாடியைப் பார்த்துத் தனக்குத்தானே எழுதிக் கொள்ளும்
காரியம். ஒவ்வோர் அம்சமாக முகம் மாறுதல் அடையும்
போது மனமாறுதலும் நேரும். பிறகு புஜ கீர்த்திகள், தலை
கிரீடங்கள், வாகுவளையங்கள், கவசங்கள், இடுப்பில் சுருக்கங்~
கள் வெளியில் நீண்ட பாவாடைகள் ஒன்றன் மேல் ஒன்றாய்
அநேக சுருக்க லாவண்யத்தோடு அணிந்து, தோற்றம் தயா~
ராகும்  போது தோற்றம் மேற்கொண்ட இந்த மெய்க்குள்ளும்
ஒரு பாத்திர ஆளுமை முழுதாக உருவாகிவிடும் என்பதால்
51</p>

<p>இது  ஒரு யோகச்சடங்கு என்றே சொல்லவேண்டும். சரியான
கவனக் குவிப்புள்஼ள ஒரு கூத்தனுக்கு இப்படித்தான் நேர
வேண்டும். கூத்தாட்டத்தில் மேற்கொண்ட ஆளுமையை
சொந்த ஆளுமை கவனித்து வருகிறது. வழி நடத்துகிறது.
மொத்த ஆட்ட நேரத்துக்குள் நொடி நொடியாக தோற்ற
ஆளுமை வெகு கவனக்குவிப்பில் உக்கிரம் பெற்று சொந்த
ஆளுமை மறதியாக - உயரிய படைப்பாற்றல் மகா காட்சிப்
படிமமாய் பார்வைக்காகிறது. அடுத்த நொடியில் சொந்த
ஆளுமை நினைவாகி தோற்றம் ஆளுமை விட்டுச் சென்ற வீர்~
யத்தை வீழ்ந்து விடாமல் காப்பாற்றத் தொடங்குகிறது.
எனவே ஆற்றல் எங்கிருந்து வந்ததென்று அறியாத நேரங்~
களும், பின் அறிந்து வீர்யம் காக்கும் பிரக்ஞைப் போதுகளும்
நிறைந்தது கூத்து. இவை ஓர் அதீதத்தில்஼தான் நேரக்கூடிய
வாய்ப்புகளை அதிகம் கொண்டது கூத்து.</p>

<p>இங்கு தோன்றும் சிக்கலைத் தீர்த்துக்கொள்ள ஓர் உண்மையை
நான் நினைவு படுத்திக் கொள்வோம். ஹிப்னாடிஸத்தில்தான்
கட்டளைகளை செய்யத் தூண்டும் ஒருவர் குற்றச்செயலை செய்~
யத்தூண்டும் போது ஹிப்னாடிஸத்துக்கு உட்பட்டவரின் தூக்~
கம் கலைந்து விடுகிறது என்பதை நினைவு படுத்திக்கொண்டால்
கூத்தன் தன் வேஶ஛ப்பிரக்ஞையில் எவ்வளவு ஆழத்துக்கு 
வேண்டுமாயினும் போகக்கூடிய சாத்யக் கூறுகளைத் தன்னிடம்
கொண்டது கூத்து என்பது புலப்படும்.</p>

<p>வரதப்ப வாத்தியாரின் அன்றைய கூத்தினால் கீசகனுக்கும் பீம~
னுக்கும் நடந்த யுத்தத்தில் யுத்தம் உக்கிரமடையும் போது
இரண்஼டு வெளிநபர்கள் பாத்திரங்களைப் பிடித்து விடு~
கிறார்கள். யுத்தத்திலிருந்து அவர்களை விலக்குவதாக நினைத்~
தால் கதை மாறிப்போய் விடும். யுத்தத்தைத் தவிர்க்கிற எத்~
த஼னம் என்று அர்த்தப் படுத்திக் கொண்டு மேல்தரத்துக்குப்
போகலாம். இப்படிப் பிடித்துப் பிரித்து விடுவது யுத்தத்திற்கு
உக்கிரமுண்டாக்கச் செய்கிற ஓர் உத்தி எனக்கொள்ளலாம். 
எல்லாவற்றுக்கும் மேல் எனக்குத் தோன்றுகிறது அவர்களு~
டைய ஆவேசத்தில் விபரிதம் நேர்ந்து விடக்கூடாது என்ற
முன்஼னெச்சரிக்கைதான் இது என்று. விபரீதம் நேர்ந்துதான்
இது பழக்கத்திற்கு வந்திருக்க வேண்டும் என்பதில்லை; விபீ஼ரீ~
தம் நேர்ந்துவிடக்கூடாது என்றமுன்னெச்சரிக்கையில் இதைப்
பழக்கத்திற்குக் கொண்டு வந்திருக்கலாம். நாம் ஆவேசம் 
அடைகிறவர்கள் என்பதையும் நினைவில் கொள்வோம். ஆவே~
சம் நம்மரபில் இருக்கிறது.</p>

<p>அவர்களுடைய வேஶமிட்ட கண்களைக் கவனித்தேன். அவை
இயல்பில் இல்லை. மாற்றியல்பில் இருந்தன. இதிகாசப்
பாத்திரங்க஼ளுக்கு கண் திறந்து விட்டவைகளாகவே அவை
தோன்றின. அவற்றில் இயல்பு மாறிய வேறுவ஼கை உக்கிரம்
இடம் கொண்டிருந்தது. முதுகெலும்பு நிமிர்ந்து தலைக்
52
கிரீடத்தையும் புஜகீர்த்திகளையும் வாகு வளையங்களையும்
தாங்கி சுமைக்குச் சமவலுவில் ஈடு கொடுக்கிறது. துல்லியத்~
தில் அவர்கள் பாத்திரமாகித்தான் காணப்பட்டார்கள்.</p>

<p>கீசகன், தமக்கை சுதர்சனைதேவியைப் பார்க்க விராடதேசம்
வருகிறான். பஞ்சபாண்டவர்கள் 12 வருஶ வனவாசம் முடிந்து
விராடத்துக்கு வந்து மீதி ஓராண்டை அஞ்ஞாத வாசத்தில்
கழித்துக் கொண்டிருக்கிறார்கள். திரௌபதி சுதர்சனாதேவி~
யிடம் சேடிப் பெண்ணாய் இருந்து கொண்டிருக்கிறாள். கீசகன்
திரௌபதியிடம் ஆசை கொள்கிறான். தன் இச்சைக்கு
இணங்க வற்புறுத்துகிறான்஼. திரௌபதி, சமையற்காரனாக
உள்ள பீமனிடம் சென்஼று முறையிடுகிறாள். பீமன் ஓர் உபாயம்
சொல்கிறான். ஒரு வெண் பூச்செண்டை கீசகனிடம் கொடுத்து
அதை அடையாளமாகக் கொண்டு மாலைநேரத்தில் ஒருசோலை
மண்டபத்துக்கு வந்தால் தான் காத்துக் கொண்டிருப்பதாகச் 
சொல்லச் சொல்லிக் கொடுத்த உபாயம் அது. திரௌபதி
அதன்படி செய்கிறாள். கீசகன் திரௌபதியைத் தேடி குறிப்~
பிட்ட இடத்துக்கு வருகிறான். அங்கு பீமன் ஆடையால்
மூடிக் க஼ொண்டு காத்திருக்கிறான். வந்த கீசகனை வதம் செய்~
கிறான் பீமன்.</p>

<p>அன்று கீசகனாக வரதப்ப வாத்தி௟ாரும் திரௌபதியாக பல
கிருஶ்஼ணனும் பீமனாக தட்சீணா மூர்த்தியும் வேஶம் கட்டினார்~
கள்.</p>

<p>வேஶமிடுமுன் அன்றைய கூத்தை இரண்டு மணி நேரத்தில்
முடிக்க வேண்டும் என்பதைச்  சொல்லிவிட்டோம். வரதப்பப்
வாத்தியாருடன் பேசி கூத்துக்கு ஏற்பாடு செய்த பாரவி,
கூத்து மரபைப் பின்பற்றுவதாக இருக்கவேண்டும். பொழிப்~
புரையாக பேசும் வசனம் கூத்து நேரத்தை நீட்டி விடக்
கூடாது. விதூஶகன் என்றும் கட்டியக்காரன் என்றும் அழைக்~
கப்படும் சூத்திரதாரி சூத்திரத்திற்குச் சம்பந்தமில்லாத வெளி
நூல் சிக்கல்஖ளை உட்கொண்டு வந்துவிடக்கூடாது. அவர்~
களுக்குத் தெரிந்த நடன நடை வேற்றுமைகளால் கூத்து
அமையவேண்டும். சமீபகாலச் சேர்க்கைகளைத் தவிர்க்க
வேண்டும், ஆடை அணிகலன்களை முழுமையாக அணியவேண்~
டும், வேஶமிடுவதில் முழுத்திறனோடு துல்லியமாக இருக்க
வேண்டும். கோரஸ் போன்ற பின்பாட்டுக்காரர்கள் குரல்
ஒற்றுமையைக் காக்க வேண்டும். முகவீணை சரியாக பாவ
நீட்சிகளைச் செய்யவேண்டும், ஹார்஼மோன்யம் மனிதக்குரல்
பொக்கைகளை இட்஼டு நிரப்பி நல்ல திரட்தியை உருவாக்க
வேண்டும் என்பதை எல்லாம் முன்னதாகவே சொல்லித்தான்
அழைத்து வந்தார். அன்றைய கூத்தில் அவர்கள் இதைப்
பின்பற்றினார்கள். பொழிப்புரைகளை முழுதாகத் தவிர்க்க
முடியவில்லை. தவிர்க்கக் கூடாமலும் அது இருந்து கொண்~
டிருக்கிறது. கூத்தை அப்படி அமைத்திருக்கிறார்கள். ஆனால்,
53
கூத்துப் பாத்திரங்஖ள் திடீரென்று இக்காலத்திற்கு வந்து
வேஶ மனிதனின் பிராந்தீயக் கொள்கைகளைப் பேசுவதுவிகார~
மாக இருக்கிறது. அப்பிராந்தீய மக்களுக்கு இந்நுணுக்கங்~
கள் தெரியாமல் ரசனைக்கு ஏற்புள்ளதாகிறது என்பது
உண்மை. இடையில் ஒரு பாட்டு மெட்டை த஼மிழ்ச் சினிமாப்
பாட்டு மெட்டில் அமைத்துவிட்டதும் நாராசமாய்ப் பாய்ந்~
தது.</p>

<p>கடைசியில் கீசகன் பீமன் யுத்தக்காட்சியில் யுத்தம் வலுவாக
விறைப்பேறி நடந்து கொண்டிருக்கும் போது அவர்களுக்கு
இடையில் சூத்திரதாரி இருந்து கொண்டு யுத்தம் மேலும்
வலுப் பெறுவதற்குத் தடையாக இருந்து கொண்டிருக்கிறான்.
அவன் இட்டதடையை வாய்ப்பாகக் கொண்டு கீசகன் பேசத்
தொடங்குகிறான். அவன் பேச்சில் பாத்திரங்களின் வரலாறு
சொல்லப்படுகிறது. (நமது கூத்து வாயால் கதை சொல்லும்
கதைக்கூத்து.) இதுவும் அவசியமாகவே தோன்றிற்று.
ஆனால் இந்த அவசியத்தை யுத்த வலுக்குறைந்து விறைப்பு
முறுக்குப் பிரிவதைத் தவிர்த்துச் சேர்க்க வேண்டும். இந்த
இடைவெளிகள் பார்வையாளர் மனதில் ஆர்வத்தைக் கிளர்த்~
தும் உத்தியாகப் பயன்ப஼டுத்திக் கொள்ளப்பட வேண்டும்.</p>

<p>வேஶம் கட்டிக் கூத்துத் தொ஠ங்குவதற்கு முன்னால் ஓரிரு
நிமிஶங்கள் மட்டுமே தாளங்கள் தட்டிக் கூத்துச் சூழலை உண்~
டாக்குகிறார்கள். பார்வையாளர் மனதில் போதிய விறைப்~
பைத் தோற்றுவிப்பதற்கான ஓர் ஆஸ்பதம் இது மரபாக
கட்டியக்காரன் எனப்படும் விதூஶகனான சூத்திரதாரி ஆடு~
களம் வந்஼து அறிமுகத்தோடு கூத்துத் தொடங்கவேண்டும்.
நேரச்சுருக்கத்துக்காக அன்று பாத்திரப் பிரவேசமே நேரடி~
யாகத் தொடங்கிற்று. தாளம் தட்டி முழக்கிய ஓரிரு நிமிஶங்~
களிலேயே கீசகன் மேடைக்கு வந்தான். வாத்யங்களுக்கு
அருகிருந்து பின்பாட்டுக்குக் குரலோடு இணைந்து துதிகளைச்
சொன்னான். பிறகு பார்வையாளர் முன்னே பாத்திரமாகப் பிர஼~   
வேசித்தான். தன்னைத்தானே அறிமுகப்படுத்திக் கொள்ளும்
பாடலைப்பாடி ஆடிவரும் இந்த஼ப் பிரவேசத்திற்கு சாஸ்திர
மரபில் பிரவேச: தரு அல்லது தருவு என்று பெயர். மற்ற
பாடல்கள்: தரு என்று அழைக்கப்படுகின்றன பாத்திரங்கள்
ஒன்றோடொன்று வாதிட்டுக் கொள்ளும் பாடல்களுக்கு சம்~
வாத : தரு என்று பெயர். தன்னை அறிமுகப்படுத்திக் கொண்டு
ஆடுவரும் ஆட்ட஼ப் பிரவேச஼ப் பேரழகு தெருக்கூத்தில் சிறப்~
பாக இருந்து கொண்டிருக்கும்போதே: தரு என்ற சொல்லை~
யும் அது வைத்துக் கொண்டிருக்கிறது. இதே போல பரத
54
நாட்டியத்தில் பயன்படும் நடன இயக்க அடிப்படைகளைக் 
குறிக்கும் அடவுகள் என்ற சொல் கூத்தின் நடன இயக்கங்~
களைக் குறிக்கவும் பயன்படுகிறது. கண்ணப்பத் தம்பிரான்
மட்டும் இச்சொல்லைப் பயன்படுத்திக் கொண்டிருந்தால்
அதற்கு வேறு காரணமுண்டு. கண்ணப்பத் தம்பிரானின்
தாத்தா சென்னை கந்தர் கோட்டத் தேவதாஸிகளுக்கு நட்டு~
வாங்கம் செய்திருக்கிறார். ஒரு நட்டுவனாரின் வழிவந்தவர்~
களுக்கு இந்தச் சொல்லும் மரபில் வந்திருக்கலாம். சாமான்~
யர் ஒருவர் ஒரு சந்தர்ப்பத்தில் ஒரு கூத்தைப் பற்றிப் பேசிக்
கொண்டிருக்கும்போது `தாளம் சரியில்லையென்றால் அடவு
போட்டுக் காட்டித் தாளத்தைச் சரி செய்வார்' என்று சொன்~
னார். சென்னையில் நடந்த பத்தரைக் கோட்டையார் எனப்~
படும் ராஜவேல் வாத்தியாரின் கூத்தொன்றுக்குப் போயிருந்த~
போது அக்கூத்தில் முதியவர் ஒருவர் வேஶமிட்டிருந்தார்.
அவர் பெயர் அ. பெருமாள் நாயுடு. செஞ்சி தாலுக்கா முகை~
யூர் கிராமத்துக்காரர். அவரும் ஒரு கூத்து வாத்தியார்.
அவருடைய தந்தையாரிடமிருந்து அவர் கூத்த௅க் கற்றுக்கொண்~
டாராம். `நீங்கள் இளம்பவயதில் பார்த்த கூத்தில் நடன நடை~
கள் நிறைய இருந்ததுண்டா?' என்஼று கேட்டேன். `ஏன் என்
அப்பாவே செய்திருக்கிறார். இப்போ யார் அந்த அடவுகளைப்
போட்டு ஆடறாங்க?' என்றார்.</p>

<p>(கூத்துப்பட்டறையில் `தெருக்கூத்துக்கும் கதக்களிக்கும்
இடையில் உள்ள ஒற்றுமை வேற்றுமைகள்' என்ற தனஞ்
ஜயனின் பேச்சுக்கும் பயிற்சிக்காட்டலுக்கும் பிறகு ஒரு மாலை
அவருடைய இல்லத்துக்கு கண்ணப்பத்தாம்பிரானுடன்
போயிருந்தோம். தனஞ்ஜயன்,(அழகிய அங்க சுத்தப் பெண்~
களுக்கு )நடனம் பயிற்றுவித்துக் கொண்டிருந்தார். அதில்
முகைகளும் முகைகள் கட்டவிழந்து இதழ்விரிந்து மலராவது
காட்டும் முத்திரைகளும் இருந்தன. நாங்கள் புறப்பட்டுவெளி~
யில் வந்த போது `நாங்க கூத்தில் இப்படிக் காட்டுவோம்'
என்று அறைமண்டியில் இருந்து மார்பின் முன் அடித்தள~
மாகப் பிடித்த ஓர் உள்ளங்கையின் மேல் மற்றோர் கை புறங்~
கையில் பதுமமாக இருந்துவிரல் பிரித்து தாமரை இதழ் விரி~
வது போல் செய்து காட்டினார். இதன் மூலம் மட்டுமல்ல,
பின்னர் பேசிக் கொண்டிருந்ததிலிருந்தும் கூத்திலும் அபிநய~
மும் இருந்திருக்கிறது என்பது புலப்பட்டது. கண்ணப்பத்
தம்பிரானோடு நடன நிகழ்ச்சிகளுக்கப் போனால் அவருடைய
பழைய  நினைவுகளிலிருந்து இரண்டுக்கும் பொதுவாக உள்ள
அம்சங்கள் தெரிய வரத் தொடங்குகின்றன.)</p>

<p>ஓரிரு சொற்஖ளைக் கொ஁ண்டு கூத்து சாஸ்திரீயமாக இருந்தது
என்று ஸ்தாபிக்க வரவில்லை. மேற்படி நிகழ்ச்சியைக் காட்டி
கூத்தில் சாஸ்திர அபிநயம் இருந்தது என்றும் சொல்ல வர~
வில்லை. அது சாஸ்திரீயமாக இருந்ததா இல்லையா என்ப~
தில்லை நம் கவலை. உன்னதமான  ஒரு கலை வடிவத்தை அது
55
தோற்றமற்றுப் போகாமல் காத்து அதற்குக் கம்பீரம் கொடுப்~
பதே நாம் மேற் கொண்டிருக்கும் இப்போதைய அக்கறை.
இ஼இடையில் கிடைக்கும் சாஸ்திரீயத்துக்கும் இதற்குமான சம்
பந்தங்஖ளைத் தெரிந்து கொள்ளவும் வேண்டும். சாஸ்திரீயச்
சம்பந்தங்஖ளைச் சொல்லிக் கௌரவம் கேட்கிற வேலையும்
இல்லை இது. ஒரு கலை வடிவத்தின் உள்ளார்ந்த குண
விக்ஷேஶங்களைக் கொண்டே அது கௌரவத்தைப் பெற
வேண்டும் என்ற அகம்பாவம் உள்ளவர்கள் நாம். அன்று
கீசகனாக வேஶம் தரித்து வந்த வர஼தப்பவாத்தியாரின் நடை
வித்யாசங்கள் சிறப்பாக இருந்தன. எந்தச் சாஸ்திரீய அடவு~
களைக் கொண்டிருந்தது அது என்று  கண்டு சொல்லபாண்டித்ய~
மில்லை எனக்கு. பின்னொரு நாள் நடந்த நிகழ்ச்சியில் தன஼ஞ்~
ஜயன் அன்றைய கூத்து நிகழ்ச்சியில் கண்ட நடன நடை~
களுக்கு இவைகிராமியமானவை எனக்கொண்டு- அவற்றை
ஒத்த சாஸ்திரீய அடவுக஼ளைச் செய்து காட்டினார். ஆனால், அழ~
கைக்கண்டு சொல்லக் கண்கள் உண்டு. அவை சாஸ்திரீய~
மில்லை என்றால் சரி. நல்லது. பிணக்குகள் இல்லை அவை கிரா~
மியமானவை எனக்கொள்வோம். என்றாலும் அவை அழ~
கானவை. கம்பீரமானவை.</p>

<p>விதூஶ஼கன் என்னும் சூத்திரதாரி இல்லாமல் கூத்து இல்லை.
அவன் சூத்திரதாரி என்பதால் மட்டும் இல்லை கூத்தின் பாத்~
திரப் பேச்சைக் கேட்க ஓர் ஆள் அவசியமாகியிருந்திருக்~
கிறது. கூத்துப் பாத்திரங்கள் நேரே பார்வையாளர்களைப்
பார்த்துப் பேசுவதில்லை. பார்வையாளர்களுக்கும் பாத்திரங்~
களுக்கும் இடையில் அநேக உறவு முறைகள் தோன்றத்
தொடங்கலாம். இவை இயக்க நேர அம்சங்கள், ஆரம்பக்
காரணமாக பாத்திரம் யாரைப் பார்த்துப் பேசுவது? அவர்கள்
பித்தர்களா, தங்களுக்குத் தாங்களே பேசிக்கொள்ள? ஒரு
புராணகாலத்து நிகழ்ச்சியை நிகழ்கால மனிதர்கள் திரையை
விலக்கி உள் நிகழ்ச்சியாக கண்டு கொண்டிருப்பதுதானா இது?
நவீனகாலக் குறையான ஒரு குறையை    ஏற்கனவே இவர்கள்
குறையெனவே கண்டு அது தவிர்ப்பதற்காகவே பேச்சைக் 
கேட்க ஒரு விதூஶகனை வைத்துக் கொண்டிருக்கிறார்கள்.
கூத்துப் போட அழைத்தீர்கள் அதனால் வந்து இங்கே வேஶ~
மிட்டு ஆடுகிறோம் என்ற காரணத்துக்கும் மேலே பாத்திர~
மாக தாங்கள் பேச நியாயம் வேண்டி தாங்கள் பார்த்துப்
பேச ஒரு பாத்திரமாக சூத்திரதாரியை வைத்துக் கொண்~
டிருக்கிறது கூத்து. இது முழுப் பிரமையல்ல யதார்த்தத்தில்
இருந்து கொண்டே கண்முன்னே ஒரு பிரமையைக் கட்டி
எழுப்பி பார்வையாளர் மனேதத்துவத்தில் புரட஫சியைச் செய்~
வது கூத்து. நேரத்துக்கு நேரம் இது முழுப்பிரமையல்ல~
வென்று யாதார்த்தத்஼தை நினைவு படுத்தும் சந்தர்ப்பங்களோடு
பார்வையாளர்களோடு உறவு கொண்டு வரும் சமூகச் செயல்
இந்தக் கூத்து கண்ணப்பத்தம்பிரான் சொல்கிறார். கட்டியக்~
காரனை சபையில், அழைத்து ஒரு பாகவதராக கௌரவம்
56
செய்து இன்று நீங்கள் எங்களுக்கு ஒரு கூத்தை நிகழ்த்தித்
தரவேண்டும் என்று கேட்பார்களாம் உடனே அவர் என்ன
கூத்து வேண்டும் என்று கேட்க அவர்கள் இன்னது என்று
சொல்ல பின்னர் கூத்துத் தொடங்கும். இவ்விதமாக கூத்து
தொடங்குவதை சம்பிரதாயமாகக் கொண்டிருந்த புரி~
சைக் குழுவினர் இப்போது அதைக் கைவிட்டு விட்டார்஖ள்.</p>

<p>அன்று, முன்னர் தோன்றியுருக்க வேண்டிய சூத்திரகாரியைத்
தவிர்த்து பாத்திரம் தானே வந்து தோன்றித் தன்னை அறி~
முகப்படுத்திக்கொண்டு தன் பிரதாபங்களைப் பேசித்தீர்த்தல்
பின் ஏவலுக்கும் எதிர்மொழிக்கும் முன்னே மற்றோர் பாத்~
திரத் தேவையை உணரும்போது விதூஶகன் வந்து தோன்~
றினான். அதுவரை மேடையில் இருந்து பின்பாட்டுப் பாடிக்
கொண்டிருந்஼தவர் ஒருவர் ஒரு ஜோலியாய் எழுந்து வெளியே
சென்றவர் போலிருந்தவர் வெள்ளை வர்ணத்தில் ,மீசையும் 
நெற்றிப் பொட்டும் தீற்றிக்கொண்டு விதூஶகனாய் வந்து
தோன்றினார். அவன் அதுவரை யானைக்குத் தண்ணீர்  காட்~
டப் போயிருந்தானாம். தண்ணீர் காட்டினாயா? என்று 
கீசகன் கேட்கிறான். ""ஆமாம் காட்டினேன்."" தொலை~
விலிருந்தபடியே தண்ணீர் காட்டினானாம். இதுதான் தண்ணீர்
என யானைக்கு காட்டிக் கொண்டு வந்து விட்டானாம். இங்கே
நாம் சிரிக்கிறோம். விதூஶகனாக நம் மனோதத்துவத்தில்
அவ஼னுக்கு அளிக்கப்பட்டிருக்கும் ஸ்தானத்்துக்கு ஒத்து வரு~
கிறது இது. இவனே சூத்திரதாரியாக உருமாற்றப்பட்ட
பின்னே அவன் அந்தஸ்துக்கு ஒத்த தரத்தில் இல்லாதவை
அருவருப்பைத் தரும், இன்றைய தமிழ் நாடகங்கள் தரும்
அருவருப்பைப் போல. இன்றைய தமிழ்நாடகத்தில் நாட~
காசிரியன் தன்னைத் தேவைக்குத் தக்கபடி பலவாகப் பகிர்ந்து
பாத்திரங்களான சோற்றுத்துருத்திகளாக  தோன்ற விட்டிருக்~
கிறான். அன்றைய கூத்தில் விதூஶகன் தன் பிரலாபங்்஖ளைச் 
சொல்ல அனுமதிக்கவில்லை பாத்திரங்கள். அனுமதித்தநேரங்~
கள் தாங்களே தங்கள் வழக்கமான பொழிப்புரையைப் பேசத்
துடித்தபோதெல்லாம் இவை அந்நேரத்துக் கற்பனை என்ப~
தால் அவற்றைப் பேச ஆர்வம் கொண்டவர்கள் அவர்கள்.
அந்நேரப் படைப்பாற்றல் பிரவாகத்திற்கு கூத்து நிறைய
இடம் கொடுத்துக் கொண்டிருக்கிறது. இது திறமையாக~
வும் கௌரவப்படுத்தப்பட்டிருக்கிறது என்பதால் இதைப்
பெருமையாகக் கருதுகிறார்கள் கூத்தர்கள். இந்தச் சுதந்திரம்
அளவு மீறி அறிவு மீறிக் கூத்தையே கீழ்மைப்படுத்தும்
விபரீதமாகவும் போய்விட்டது. மேடையில் பின்பாட்டில்
இருப்பவர்களே தங்஖ள் திறமையைக் காட்ட தோன்றியிருக்~
கும் பாத்திரங்களின் உறவுமுறைச் சிக்கல்களில் கேள்விகள்
கேட்டுத் தடுமாற வைக்கப்பார்க்கிறார்கள். இது பார்வை~
யாளர் பங்கு பெறுதல் அபத்தமாக இழிந்த நிலை.</p>

<p>திரௌபதியாக வேஶமிட்டு வந்தவர் சொந்தமுறைப் பேச்஼சுக்கு
57
வரும்போது திரௌபதியின் ஆளுமைக்கு ஒவ்வாத
அறிவுத் தரத்துக்குள் போய்விட்டார். பாட்டுக்களில் வந்த~
போது கௌரவம் உள்ள திரௌபதியாகவே இருந்து கொண்~
டிருந்தார். மேடை அசைவுகளிலும் நடன நடைகளிலும் இது
வரை கண்டு வந்திருக்கும் கூத்துப் பெண் பாத்திர஼ங்களைவிட
இதற்குக஼் கம்பீரமும் நடைப்பொழிவும் வேஶமிட்ட போலி~
யெனத் தோன்றாத ஒருமையும் இருந்தது.</p>

<p>பாத்திரங்களின் தோற்றமுறையில் விதூஶகனைத் தவிர்த்து
மூன்றாவதாக வந்த பீமனாக வேஶமிட்ட தட்சிணா மூர்த்திக்கு
உக்கிரம் அதிகம். மேடை அதிரும் நடைத் தோற்றங்கள்.
அகட்டிப்போட்ட நடனக்கால்களில் நவீன அம்பல஼க் கலைக்கும் 
ஒக்கும் தோரணை தென்பட்டது. அவரது தோற்றத்திற்கும்
நடன இயக்கங்களுக்கும் ஒவ்வாத கம்மல் பேச்சு. குரல் வெளி
வர அவர் தொண்டை கிழியக் கத்தினார். ஆவ் ஆவ் வென்று
கரையில் விழுந்த மீன் காற்றுக்கு வாய் பிளப்பதைப் போலப்
பேச்சு.  எனினும் பீமனுக்கு உரிய ஆகிருதியை வேஶமாக஼த்
தரிக்க உகந்த஼வ஼ர் அவர் எனச் செயல்களில் செய்து காட்டி~
னார். அம்பலத்தில் அழுத்தமான மனப்பதிவை ஏற்படுத்திய
வித்தைக்காரர் அவர்.</p>

<p>கடைசியில் கீசகனை பீமன் வதம் செய்வதுடன் கூத்து முடி~
கிறது. திரௌபதியின் சொற்படி அவளைத்தேடி அவள் குறிப்~
பிட்ட இடத்திற்கு வருகிறான் கீசகன். பீமன் போர்த்துக்
கொண்டு படுத்திருக்கிறான் அங்கு . திரௌபதியே அவ்விதம்
படுத்துக்கொண்டிருப்பதாக நினைக்கிறான்஼ கீசகன். அவளை
எழுப்புகிற வேலைகளில் ஈடுபடுகிறான். காலடியில் அமர்ந்து
அவளை எழுப்புகிற செயல்களில் உதைபட்டு வீழ்கிறான். மலர்ப்~
பாத உதைக்கு , கதை இடிபோல் வலு இருப்பது கீசகனைத்
திணற வைக்கிறது. சற்று நேரம் கழித்து வந்த கோப வேகம் 
அது என அதீதப்படுத்தி உணர்த்துகிறது கதையலங்காரமஂ்.
சில சேஶ்டைகளுக்கும் பிறகு அவன் பீமனாக எழுந்து கீசக~
னோடு மோதுகிறான். இருவருக்கும் யுத்தம். முதலில் வாய்ச்
சண்டை. வீரதீரப் பிரதாபங்களை மாற்றி மாற்றிச் சொல்லிச்
சொற்போர். பிறகு வாட்போர். அடுத்து மல்யுத்தம்.</p>

<p>கலாக்ஷேத்திராவின் கதக்களி கீசக஼வதத்திலும் பீமன் போர்த்~
துப் படுத்துக்கொண்டுதான் இருந்தான். கூத்து கீசகவதத்~
திலும் பீமன் போர்த்து படுத்துக்கொண்டிருந்தான். இதை
ஸ்தூல்மாகச் செய்வதா? இல்லை சூட்சுமமாகச் செய்வதா?
கதக்களியில் சூட்சுமமாகச் செய்வது சுலபம். அங்கு அபிநயம்
முற்றாக இருக்கிறது. ஸ்தூலப்பொருள்கள் எதும் இல்லாமலே
ஒரு படுக்கையறை வர்ணனையை அபிந௟ித்து ஸ்தூலமாகப்
பார்க்க மிகச் சூட்சுமமாகச் செ௟்திருந்தார்஼கள். பார்வையாள~
ருக்குத் தூக்கம் வரத் தூண்டும் நுட்ப வேலைப்பாடு நிறைந்த
வர்ணனைப் பகுதியாக அதைச் செய்திருக்கிறார்஖ள். பின் ஏன்
58
போர்த்துப் படுத்துக் கிடப்பதை ஸ்தூலமாகச் செய்ய வேண்~
டும்? கூத்திலும், முக்கியப் பாத்திரங்களின் பல ஏவல்களைச்
செய்ய, முன்னர் தோன்றிய தோற்றத்திலேயே - தோற்ற
மாற்றமில்லாமலேயே ஆணாக பெண்ணாகப் பல சிறு பாத்திரங்~
களை அவ்வப்பொழுது ஏற்கும் சூத்திரதாரியை மிகச் சுலபமாக
சிக்கல் ஏதும் இல்லாமல் அப்பாத்திரங்஖ளாக கற்பித்துக்
கொண்டும் பார்வையாளர்கள் முன்னே, ஒரு சூட்சுமச் செய~
லைச் செய்வது சுலபமானதே.</p>

<p>கூத்தில் அபிநயம் இல்லை. இதன் அபிநயம் நடிப்பு என்ற
மொத்தப் பொருளில் உள்ளதுதான். கதக்களியின் அபிநயம்
நுணுக்க஼ப் பொருளான ஹஸ்தங்கள் என்னும் முத்திரைகளில்
இருக்கிறது. வெறும் முத்திரைகளில் ம஼ட்டும் மேன்மையில்லை.
முத்திரைகளைப் பிடிக்கும் கைகளின் வைப்பு முறைகளிலும்,
அக்கைகளைக் கொண்஼ட மெய்யின் அமைப்பு வடிவிலும் சிகர
முகத்தின் ஒத்த இணக்கத்திலும் உண்டாகிறது மேன்மை.
இவை ஒத்தும் ஒத்துமிக்குமான தோற்றங்஖ளில் தியேட்டர்
தானே தோன்றிவிடுகிறது. லேசான சூசனைகளில் உணர்த்~
தும் வகையைக் கவிதையைப் போன்ற  ற நடனம் என்றும்,
சுத்தமா௟் அழுத்தம் திருத்தமாய் உடல் காட்டும் கோட்டுரு~
வங்களை முகபாவ இணக்கத்தோடு முழு வீச்சுக்குச் செலுத்திக்
காட்டும் நடனத்தைத் தியேட்டர் என்றும் சொல்ல வேண்டும்.
இவ்வகைகளில் கதக்களி தியேட்டர் . பத்மா சுப்ரமண்யத்தின்
கரணம் இயைந்த   நடனம் தியேட்டர்.  பேச்சும் பயிற்சிக் ~
காட்டலுமான  அவரது நிகழ்ச்சிகளில் அவர் தனியே கரணங்~
களை விளக்கும் போது செய்து காட்டும் தனிக்கரணங்கள்
தியேட்டர். மற்றும் அந்நேரக் கற்பனைக்கு இயல்பான படைப்~
பாற்றலுடன் அவர் கொடுக்கும் நடன ரூபங்கள் சில முழுத்
தியேட்டராக இருக்கின்றன. இவைகளைக் காணும்போது
எனக்குத் தோன்றுவது இங்கு தியேட்டர் இல்லையென்ற நம்
குறை இன்னும் குறிப்பாகச் சுட்டிச் சொல்லப்பட வேண்஼டும்
என்பது. இங்குத் தியேட்டர் இருக்கிறது. சொல் சார்ந்தத் 
59
தி௟ேட்ட஼ரை வேண்டுகிறோம். சொல்லின் சக்தியை அதன்
உச்சத்தில் கையாளும் ஒரு தியேட்டரை வேண்டுகிறோம்.
ஒவ்வோன்றை௟ும் அவ்வவற்றின் உச்சத்தில் வேண்஼டுவது
நம் குணம். இந்த விருப்பத்தில் நமக்கு சமரஸ முயற்சிகள்
உவப்பில்லை. கூத்தில் அபிநயம் இல்லை. மற்ற அம்சங்கள்
உண்டு. மேலும் சொல் உண்டு. ஆனால் , சொல் அதன் உச்~
சத்தில் இல்லை. இங்கு சங்கீதத்திற்குச் சேவகம் செய்யும்
சொல்லும் சந்தர்ப்பங்களில் தான் உச்சமாக இருக்கிறது.
மற்ற நேரத்தில் அது கதை சொல்லும்  சொல் உச்சமாவது
சங்கீதம். இது சுத்த சங்கீதமான உச்சமில்லை. சங்கீதம்
பாத்திரப் பேச்சாக ,சுத்த சங்கீத நுணுக்கங்களை விடுத்து
ரசிக உணர்ச்சிகளில் உச்சமாக இருந்து கொண்டிருக்கிறது.</p>

<p>கூத்தின் சொல்லை அதன் உச்சகத்தில் வைக்க நம்மிடம்
திறமையுண்டு. ஆனால், கூத்தின் இயக்கத்தை அதன் உச்~
சத்தில் வைக்க, எழுத்தைச் சார்ந்த நம்஼மிடம் திறமையில்லை;
அல்லது திறமை இன்னும் நிரூபிக்க஼ப்படவில்லை. நம்மிடம்
யோசனைகள் உண்டு. ஏற்கெனவே இயக்கத்தில் காட்சிப்படிம~
மாகும் கூத்தில், அதன் கூத்தர்களைக் கொண்டே யோசனை~
களைச் செயல்படுத்திவிடமுடியும். இதன்மூலம், அதில் இருந்து
கொண்டிருக்கும் அம்சங்களில் ஒருமையைத் தோற்றுவிக்க
முடியும். அதே பாணியில் நடன நடை உருக்களைப் புகுத்த
வேண்டியபோது இத்திறமை போதாது. ஏனெனில் நம்
யோசனைகளுக்குக் காட்சி ரூபமில்லை. காட்சி ரூபமளிக்கக்
கூடிய இன்னொருவர் உதவி வேண்டியிருக்கும் இங்கு.</p>

<p>அன்றைய கூத்தின் நடன நடைகளில் பல வேற்றுமைகள்
இருந்தன. மூன்று பாத்திரங்களின் நடைகளிலும் அவ்~
வேற்றுமைகள் இருந்தன. ஒரு சுற்றுக்கு ஒரு வேற்றுமை~
யென்றால் அநேக வட்டச் சுற்றுக்களைக் கொண்ட கூத்துக்கு
அநேக வேற்றுமைகள் வேண்டியிருக்கும். அவை மனேபாவ
வேற்றுமைகளாகவும் இருக்க வேண்டும். அப்படியென்றாலும் 
ஒரு சுற்றுக்கு ஒரு வேற்றுமையைச் செய்து கொண்டிருக்க
முடியாது. அது வலுவற்றுப் போய் விடும். முடிவில் நேர
வேண்஼டிய மன நிறைவுக்கு இது அவசியம். ஆனால், திருப்~
பித் திருப்பி வருகிற செக்குச் சுற்றாக, முடிந்து விடக் கூடாது.
அவர்களுடைய நடைகளில் பல வேற்றுமைகள் இருந்தாலும்
அலுப்புத் திருப்புதல்களைக் கொண்டிருந்தன. பீமனின் நடை
அதிர அடிக்கும் குதி துள்ளல்களால் நிரம்பி அங்்க மட஼க்கு~
 களை முழு வீச்சுக்குச் செய்து ஆடிய ஆட்டம்.</p>

<p>அலங்காரக் கட்டுகள் கொண்ட கூத்துப் பாத்திரங்கள்
கையில் உள்ள மரக்கத்தியின் அடியை பக்கவாத்திய மேடை~
யில்  திருப்பிக்குத்தி அதிரச் செய்யும். இது பார்வையாளர்~
கள் மனத்தில் பாத்திரத்தின் உக்கிரத்தை உணர்த்தச் செய்யும்
உத்தி அன்று பீமன் அம்மேடையிலேயே ஏறி குதித்த குதி
பீமனுக்கு உன்னத காட்சித் தோற்றத்தை உண்டாக்கி௟தோடு
60
பார்வைக்கு மனத்தோற்றத்திலும் அதிர்ச்சி உண்டா~
யிற்று.</p>

<p>திரௌபதியாய் படுத்துக் கிடந்த பீமனை கீசகன் அரக்கப்
புணர்ச்சிச் சூட்டோடும சுக எண்ணங்களோடும் எழுப்பிய
போது இடைவெளி கொடுத்து ஆர்வத்தை வளர்த்து திடீ~
ரென எழுந்து குதித்து கீசகனை அதிரச் செய்கிறான். அதிர்ந்த
கீசக஼னும் சாமான்யன் இல்லனாகையால் நொடி௟ில் மேக்~
கரித்து மோதுதலுக்குத் தாயாராகி விட்டான். ஒரு நொடியில்,
அவன் ஆளுமை காழ்ப்பேறிய அகம்பாவமானது என்பதைப்
புல஼ப்படுத்தி விடுகிறான். ஏனெனில், அவனுக்குத் தெரியும்
தன்னை ஒத்தவன் ஒருவனே ஒருவன் என்று. அவன் இவன்
இல்லையென்஼ற நம்பிக்கையில் மிக அலட்சி௟மா ஂஅகம்பாவத்~
தோடு அடியிட்டு நடையிட்டு முறைத்து மேனி குலுக்கி
முகம் திருப்பி விந்து நாறும் கிடாய்போல் நிற்கிறான். பின்னே
தன்னை ஒத்த பலமுள்஼ள இன்னொருத்தனானவன் இவன்,
இவன் பீமனே என்பது தெரிகிறது. இது ஒருத்தருக்கொருத்~
தர் வாதிட்ட வழியில் புலப்படுத்தப்படுகிறது. இனி சம~
பலத்தில் மோதுதல் ஒன்றே மிச்சமுள்ள மேன்மை என ஏற்~
கிறான் கீசகன். பின்னேறித் தோற்றோடுதல் என்பது அவன்
அகம்பாவத்தில் இல்லை. இணையானவன் ஒருவன், இணை~
யான பின் மோதலில் மிஞ்சுவது அதிர்ஶ்டம். அந்த அதிர்ஶ்~
டக்காரன் தானே என்றுதான் எந்த அகம்பாவமும் ஏற்கும்.
இது கீசகனின் ஆளுமை பீமனுடையது? அது இணை, ஒத்தல்
நிகர் என்பவை கருதாதது. கதையைக் கொண்டு அடித்து
உடைத்து நொறுக்கி விடுவேன் என்ற அச்சம் அதிர்ஶ்டங்~
களுக்கு இடம் இல்லாத  வெற்றி ஒன்றே தன் மேன்மை என்ற
ஆளுமை. இரண்டு பாத்திரங்கள் முழு உக்கிரத்தோடு
ஒன்றை ஒன்று முறைத்து எதிர்த்துப் புதிராய் நிற்கின்ற஼ன. 
இனி என்ன? இனி யுத்தம். இ஼இனி வரும் யுத்தம் மேடை நடிப்~
பில் விறைப்புக் குறையாது பார்வைக் கண்களை விழி குத்த
வைத்து மனதைக் குவித்து நிகழ்நேரத்தில் குத்தி மேனி
விறைத்து இருக்கை நுனி வந்து அமர்ந்து முஶ்டி பிடித்து
ி஼கவனத்தில் வைப்பது உச்சத்தில் போய் நிகழ்ச்சி முடிய
ஆறுதல் வரும். இது சுகம். இது சம்பரதாயச் சுகமில்லை.
மனமேனி சமச்சீரில் ஓர் அதிசய வெளிச்சத்தில் கண்ட அற்~
புதம் தெரிந்து தெளிந்து வந்த சுகம். இந்தச் சுகத்தை எப்~
படிக் கைவிடுகிறார்கள்?</p>

<p>மேல் பத்தியில் சொன்ன விஶயம் வெற்றுச் சொல் ஜாலம்
தானா? இல்லை. ஓர் உதாரண஁ம்: நானும், புவர் தியேட்டரின்
பிரமாதமான ஶ்ரீராமும் சென்னை மியூஸிக் அகா~
டமி அரங்கில் அமர்ந்து பத்மா சுப்ரமண்௟த்தின் `ராமாயதும்~
யம் நமஹா: ' என்ற நாட்டியத்தைப் பார்த்துக் கொண்டிருந்~
தோம். மேற்கு ஜெர்மன் நடிகையும்,பாலே நடனக்காரரும்,
போலிஶ் தியேட்டர்க஼ாரரான ச்ரொடௌஸ்கியை நேரில்
சந்தித்துப் பழகியிருப்பவரும் இப்போது கலாக்ஷேத்ராவில்
61
பரத நாட்டியம் பயின்று கொண்டிருப்பவருமான அஞ்சலிகா
என்பவர் இன்஼னோர் இடத்தில் அமர்ந்து நாட்டியம் பார்த்துக்
கொண்டிருந்தார். எங்களுக்குள் அறிமுகம் ஏற்பட்டது. புவர்
தியேட்டரின் `திடவர்' என்ற நாடகத்தின் மூலம், ஶ்ரீராம்
வயதில் ஆரம்ப இருபதுக்களில் இருப்பவர். ஆனால் சாமான்ய~
மானவர் இல்லை. அவர் உடம்பில் நடனம், பயிலாமல் இயல்~
பாக இருந்து கொண்டிருக்கிறது. அன்றைய நாட்டியம் முடிந்~
ததும் நாங்கள் பின்மேடைக்குப் போ௟் பத்஼மா சுப்ரமண்யத்~
தைப்பாராட்டினோம். முழுவாக்கியங்களாகாமல் துண்டு துண்டு
சொற்களால் நான் சொல்ல நினைத்஼த஼து இதுதான் . `உங்கள்
நாட்டியத்தின் மூலம், மிக அபூர்வமாக நேரும் நிகழ் நேரத்தில்
இருந்தும் கவனக் குவிப்பு நேர்கிறது. இது சாமான்யமான~
தில்லை' என்பது. பிறகு நாங்஖ள் மூவரும் வெளியில் வந்தோம்.
ஶ்ரீராம் சொன்னார்; என்னவோ விவரிக்க முடியாத பரபரப்பில்
தன் நெஞ்சு வெளியில் வந்துவிடும் போன்ற அவஸ்தைக்கு
ஆளானாராம் அவர். இது புரிகிறது. அவருடைய படைப்பாற்~
றல்மிக்க஼ தேகத்தில் நேர்ந்த வெளியீட்டுப் பதைப்பு இது . ஒரு
சவாலில் அது எழுந்து வெளிவரத் துடிக்கும் அவசரமே அந்த
உணர்வு அஞ்சலிகா சொன்னார்: இதைப்போன்ற பன்மடங்கு
அதிகமுள்ள பார்வையாளர் முன்னே அவர் பாலே நடனங்~
களைச் சர்வசாதாரணமாக ஆடியிருக்கிறார். இங்கு தான் இவர்
முன்னிலையில் தன் இருப்பை இழந்து இல்லாதவராகவே ஆகி
விட்டராம். மூவருக்கும் நேர்ந்தது அதிசயம். பின்னால் ஒரு
சந்தோஶம். எங்கள் இருப்புக்கு ஒரு நியாயம் கண்டோம்
அன்று.</p>

<p>கீசகன்வதம் முடிந்ததும் பீமனைப்போல் அங்கு அனைவரும்
ஒற்றை ஒற்றையாக உணர்ச்சியின் மொத்த ஒற்றையாக
மிஞ்ச வேண்டும் இனி பீமன் ஒரு குறியீடாக மிஞ்சுவான்
இது  நேர்கிறதா? நேரும். ஆனால், அதற்கென சில அனுஶ்~
டானங்கள் அவசியம்.</p>

<p>மரபுத் தியேட்டர்கள் சிலவற்றில் யுத்தக் காட்சிக஼௅ளைக் கண்~
டிருக்கிறேன். அவற்றில் இந்தோனேஶியாவின் ராமாயணக்
கூத்துகளில் வரும் ராமராவண யுத்தம் ஒன்்றே வலுவோடு
இருக்கக் கண்டேம். மற்ற எவையும் பார்வையாளர்   மனதில்
போதிய விறைப்பைத் தோற்றுவிக்கவில்லை கலாக்ஷேத்திரா~
வின் ராமாயண நாடகங்களில் ராவணன் வில்லை வளைக்க முய~
லும் முயற்சி வலுவோடு செய்யப் படுகிறது. இதில் வலு~
வேற்ற  முடிந்தவர்கள் அவர்களுடைய கீசக வதத்தில் யுத்தக்
62
காட்சியை வலுவோடு செய்யவில்லை. எல்லாம் வலுக்குன்றி
மறைந்துபோக இந்தோனேஶியக் கூத்தின் ராமராவண யுத்~
தம் மட்டும் நினைவில் இருக்கிறது. இரண்டு கீசக வதங்களி~
லும் பயன்படுத்திய உத்தி ஒன்றே, சில மாறுதல்கள் கூத்தில்
விதூஶகன் இரண்டு பாத்திரங்களுக்கு இடையில் இருப்பதும்
பிறகு வேறு இரண்டு பேர் மேடை ஆட்களாக இரண்டு பாத்தி~
ரங்களும் மோதிக்கொள்ளும்போது பிரித்து விடுவதும் விசேஶ~
மான ஒன்று. இது என்஼ன வி஛ேஶமென்று பிறகு பார்ப்போம்.</p>

<p>இரண்஼டு கீசக வதத்திலும் பயன்படுத்திய உத்தியென்ன?
இரண்டும் அவ்வவற்றுக்கு உரித்தான வேற்றுமைகளோடு
சுற்றல் சூழல்களால் ஆக்ரோஶப் பிரமையைத் தோற்றுவிக்~
கின்றன. ஒன்றை ஒன்று மோதிப் பின் பிரிந்து மீண்டும் சுற்~
றல் சூழல்களால் பிரமையைக் கட்டி எழுப்புகின்றன. மீண்டும்
மோதல், கைகலப்பில் வலுக்காட்டுவது நேர்கிறது. ஒன்றன்
உள்ளங்கையோடு ஒன்றன் உள்ளங்கையைச் சேர்த்து
அழுத்தி வலுக்காட்டி சுழன்று யுத்ததோரணையை உண்டாக்கு~
கிறார்கள். அவை போதுமானவையாக இல்லை. கை கலக்கு
முன்னே யுத்த முஸ்தீபுகளில் அவர்கள் ஈடுபடவேண்஼டும இது
சுற்றல் சூழல்களால் நேர்கிறது. பின் நின்று முறைத்து தோற்!~
றத் தோரணைகளால் வலுப்படுத்த வேண்டும். அச் சூழலுக்கு
ஓக்கும் அசைவுகள் வேண்டும். ஒருவரை ஒருவர் வலுக்காட்டும்
நடனநடைகளோடு நெருங்க வேண்டும். அதேபோல் ஒருவரை
ஒருவர் விட்டுவிலகும்போதும் அழுத்தமான நடனநடை வேறு~
பாடுகளோடு விலகிவர வேண்டும். இந்த யுக்திகளுக்கு எங்கே
போவது? கற்ற நடனங்களை மொத்த மொழியாகக்கொண்டால்
சொந்த எண்ணங்களை வெளிப்படுத்த மொழி உதவுவதுபோல்
இங்குநடனம் உதவத்தொடங்கும். ஒரு யுத்தக்காட்சியிலிருந்து
மற்றொரு யுத்தக்காட்சி மாறுபட்டதாக எண்ணற்ற வேற்றுமை~
களில் இதைச் செய்வது அப்போது சாத்யமாகும். சாத்யமாக
வேண்டும். புது யோசனைகள் தோன்ற ஒரு ஊக்கச் சக்தியாக
நம் மரபில் இருக்கும் யுத்தக்கலைகளைப் பார்த்துவர வேண்டும்.
அவற்றின் அசைவுகள் தோரணைகளை நடன லட்க்ஷணத்தில்
இணக்கிச் செய்தால் வேண்டிய வலுதானே தோன்றும்.
பார்க்கத்தெரிந்தவனுக்கு அவனுக்கு வேண்டிய விஶயங்கள்
அவனைச் சுற்றியே இருந்து கொ஁ண்டிருக்கின்றன. ஆனால்,
ரகசியமாக, நெடுநாட்களாக இந்த யோசனையில் இருந்து
கொண்டும் எனக்கு ஒரு கூத்தில் ஓர் அரக்கப்பாத்திரம் தன்
நடைகளை நிற்றல்களை சுற்றல்களைச் சுழல்களை சிலம்ப ஆட்~
டத் தோரணைகளில் செய்தது கண்டு அதன் வலுவை அங்கீ~
கரித்துக் கொள்ள உதவிற்று. `துரியோதனன் வெற்றி வீர~
யாகம் வீரச்சந்திரன் அபிமன்யு யுத்தம் ' என்ற பத்தரை
கோட்டையாரின் கூத்தொன்றில் வேஶம் கட்டிய ஒருவரிடம்
இதைக்காண஁ முடிந்தது. இந்தக் கூத்தில் அவரது வேஶம்
பிரமாதம். மேலும் பயங்கரமாய் இருந்தது. இதற்கு முந்திய
ஒரு கூத்தில் அவரே வேஶங்கட்டிய மிகப் பயங்கரமான
63
தோற்றத்தை புகைப்படமெடுக்க ரிச்சர்ட் பிராங்காவை அவர்
அனுமதிக்கவில்லையாம். வேஶமகிமை போய்விடும் என்றும்
ஆக்ரோஶமும், தோற்றுவிக்கும் பயமும் பழக்கப்பட்டுப்
போய்விடும் என்பதால் படம் பிடிக்கக்கூடாது என்றாராம்.
திடீரென வரும் அதிர்ச்சியை வேண்டினார் அவர். அதை நான்
காணவில்லை. பின்னதைக் கண்டேன். படமெடுக்க இதை
அனுமதித்தார். இது அதை விட பயங்கரம் குறைவானது
போலும்.</p>

<p>மரபு  யுத்தக் கலைகள் நடனம் போன்றான இயக்கங்களையும்
நிற்றல் தோற்றல்களையும் வைத்துக்கொண்டிருக்கின்றன.
இவற்றை பார்வையாளர் பார்த்திருந்தால் மட்டுமே மனோ~
தத்துவரீதியான இவற்றை நாட்டியத்தில் இணைக்கும் போது,
சாதகமான எதிர்வினைக்கு ஆளாவார் என்று நினைக்க வேண்~
டியதில்லை.காரணம் இவற்றின் இயக்கங்கள் மனிதனின்
அடிப்படை உணர்ச்சியைப் பாதித்து அவனைத் துலங்கச் செய்~
கின்ற குணாம்சங்களைக் கொண்டவை.</p>

<p>இவற்றை விடுங்கள். ஆட்டுக்கிடாச் சண்டையைப் பார்த்~
திருந்தால் போதும். இயல்பாக தன் வழியே போய்க் கொண்~
டிருக்கும் இரண்டு ஆட்டுக்கிடாய்கள் சந்தித்து யுத்த முஸ்
தீபு செய்து பின்வாங்கி முன்வந்து எம்பி பின்னிருகால்களில்
நின்று மடாரென்று மண்டையை மோதிச் சிதறடித்துக்
கொண்டுவிடும் போன்஼ற அவற்றின் ஆக்ரோஶமான சண்டை~
யின் இயக்க அமைப்புகள் போதும் ஒரு யுத்தக்காட்சி வீரிய~
முள்ளதாக .</p>

<p>இன்றைய முன்னணி நடனக்காரர்கள் அனைவரும் உலகம்
சுற்றி வரும் வாய்ப்புள்ளவர்கள். அநேக தேசத்து நடன
மரபுகளை அவை தோன்றி வளர்ந்த சூழலிலேயே கண்டு வரு~
கிறவர்கள். அந்தந்த தேசத்தின் மரபுகளில் உள்஼ள யுத்தக்
காட்சிகளை அவர்கள் நடனங்களில் எவ்வாறு காட்டுகிறார்கள்.
என்று அறியும் வாய்ப்புள்ளவர்கள் இவர்கள். ஜப்பானிய
நடன இயக்கங்களில் அவர்களுடைய யுத்தக் கலைகளின் இயக்~
கங்கள் இயல்பாகவே இருப்பதைக் காணலாம்.</p>

<p>தெருக்கூத்து ஒரு கலைஞன் மிகச்  சுதந்திரமாக செயல்படும்
ஒரு தியேட்டர் வடிவம். இது தன் இயல்பை இழக்காமலே
தன் எழிலுக்குப் புதிய ஒன்றையும் மரபாகச் சேர்த்துக்
கொள்ள முடியும்,</p>

<p>இரண்டு பாத்திரங்கள் மோதிக் கொண்டபோது இடையிலே
விதூஶகன் நின்றதும், வெளியாட்஖ள் இருவர் மேடையாட்க~
ளாக வந்து இரண்டு பாத்திரங்களின் இடுப்பையும் கைகளால்
சுற்றி வளைத்துப் பிடித்துப் பின் இழுத்துப் பிரித்து விடுவதில்
உள்ள விசேஶம் என்ன? விதூஶகனை விடுத்து மற்ற இரு~
வரும் நாடகத்தில் நிகழும் ஓர் அன்னியத் தலையீடு. விதூஶ~
கன் நிகழ்ச்சியில் ஓர் அன்னியப் படுத்தலை நேர்வித்து விடு~
64
கிறான். சூத்திரதாரி விதூஶக஼க் குணங்களோடே ஒரு சூத்திர~
தாரியாக முழு அர்த்தத்தில் எப்படிச் செயல்படுகிறான் என்~
பதை பின்னொரு கட்டுரையில் பார்ப்போம். இப்போது அவன்
எப்படி அன்னியப்படுத்஼துதலை நேர்விக்கிறான்? நாடகம்
உண்மை நிகழ்஼ச்சியென்ற மயக்கத்தில் மறந்து இருக்கும்஼
பார்வையாளர்களை இது நிகழ்த்தப்பட்டுக் கொண்டிருக்கும்
கற்பனை நிகழ்ச்சி என்ற நினைவு வந்தவுடனேயே ஏன் என்ற
கேள்வி தானே தோன்றி விடுகிறது. கேள்விக்குப் பதில்
சொல்லிக் கொள்ளும் பார்வையாளர்கள் இப்பாத்திரங்கள்
குறியீடுகளாக வேறொன்றைப் புலப்படுத்த என்஫தைப் புரிந்து
கொள்வார்கள். இந்தப் புரிந்து கொள்ளலைத்தான் வேண்டு~
கிறது கூத்து.</p>

<p>முகத்துக்கு வர்ணம் பூசி. தலைகட்டுத் தோள் கட்டுக்களால்
யதார்த்தம் மாறி விடும் போதே இவை குறியீடுகளாக மாறு~
வது தானே நேர்ந்துவிடுகிறது. யதார்த்தம் மாறிய தோற்~
றத்தில் யதார்த்தத்தை வலுவாகத் தோற்றுவிக்கும் குறியீடு~
கள் இப்பாத்திரங்கள் . இந்நோக்கம் வெற்றிபெற஼வே சொல்~
லைத் தத்துவார்த்தத் தரத்தில் வைத்துக் கொண்டிருக்கிறது.</p>

<p>இந்த யுத்தக் காட்சியிலும் யுத்தம் வலுப்பெற்று வாசக மன~
தில் விறைப்பேற்றும் போதே யுத்தத்தை விடுவித்துப் பேச்சுப்
பிரதாபங்களில் தற்புகழ்ச்சி பேசிக்கொண்டன இப்பாத்திரங்~
கள். அவை சரியாக பயன்படுத்திக் கொள்ளப்படாததாலும்,
சொல் உள்ளூர்க் கொச்சையாய்ப் போனாலும் வீரியம்
இழந்திருந்தன. சிரிக்கத்தூண்டின. உள்ளூர்க் கொச்சை
உள்ளூர்காரர்களுக்கு கொச்சையென்று தோன்றாத பிரக்~
ஞைக்கு என்ன மனோபாவத்தைக் கொடுத்திருக்கும் என்ப~
தைத் துல்லியமாக஼ச் சொல்ல முடியாது. உள்ளூர்காரர்களிடத்~
தும் அவை கொச்சை என உணரும் மனோபாவ மனிதர்கள்
கலந்திருப்பார்கள். அது சுத்தமான பிரக்ஞைக் கூட்டமில்லை.
அதில் கலப்பு நேர்ந்து விடுகிறது. பாத்திரங்஖ள் சுத்த சொரூ~
பத்திலிருந்து வேஶமணிந்த சாமான்ய மனிதனை உள்ளீடாகக்
கொண்டிருக்கின்றன  என்றே அவர்கள் குறைபடுவார்கள்.
சுத்த சொரூபத்துக்குள் வேஶமணிந்த சாமான்ய மனிதன்
இருந்து கொண்டேயிருப்பதை ஒரு உத்தியாகப் பயன்படுத்~
திக் கொண்டோமானால் கூத்தின் இயல்பு இன்னோர் நிலையில்
மாறி அது அங்கதமாகி விடும். பேச்சுக்க஼ுப் பின்னே அவர்஖ள்
மீண்டும் யுத்தத்துக்குப் போனார்கள். இந்த உத்தி சரியாகப்
பயன்படுத்திக் கொள்ளப்படவில்லையாதலால் பேச்சுக்கள் யுத்த
விறைப்பைக் குறைக்கும் இடையூறுகளாகி விட்டன. அடுத்த
யுத்தத்துக்கு மேலும் விறைப்பேற்றும் வகைக்கு இது உதவி~
யாகவில்லை.</p>

<p>எனினும் அன்றைய கூத்து, கூத்துப் பட்டறையின் முயற்சி~
யில் விளைந்த சிறு வெற்றியென்றே சொல்ல வேண்டும். தற்~
செயலாக ஹிந்து விளம்பரத்தைப் பார்த்துவிட்டு வந்த
65
தியேட்டர் பார் ஆல் பாஸிபிலிடி என்ற அமெரிக்க அம்பலக்
கலை தம்பதிகளான பயணிகளை அந்தக்கூத்து அசரவைத்து
விட்டது. இந்தத் தகவல் வெளி நாட்டார் பாராட்டில்
மட்டுமே விஶயமிருக்கு என்பவருக்காக மட்டும்.</p>

<p>66</p>

<p>		என்றும் புதிய கூத்து</p>

<p>தெருக்கூத்து தமிழர்களுடைய புராதனமான தியேட்டர். இக்~
கருத்தில், தெருக்கூத்தை கூத்தால் அப்புறப்படுத்தினால் பல~
ருக்கு ஒப்புக் கொள்ளச் சம்மதம் உள்ளதாக இருக்கும். தெரு~
வில் தோன்றும் சமத்துவம் ஏற்றத் தாழ்வுகளை இயல்பாய்க்
கொண்ட சமூக மரபிற்கு ஒத்துவரவில்லை என்பதுதான் இதற்~
குக் காரணம். தெருவில் தோன்றும் கொச்சைதான் இதற்குக் 
காரணம் என்றால், சம்ஸ்கிருத நாடகங்களில் வரும் விதூஶக~
னிடம் உள்ள கொச்சை ஏற்றுக் கொள்ளப்படுவதற்கு நியா~
யம் இல்லாமல் போய்விடும்.</p>

<p>நாட்டிய சாஸ்திரத்தில் சொல்லப்பட்டிருக்கும் கூத்தம்பல
விவரப்படி ரங்க மண்ட஼லம் எனப்படும் பார்வையாளர்
அமரும் அரங்஖ில் பல ஜாதிக்காரர்஖ளும் அமர்வதற்கான
67
இடங்கள் தூண்களின் வர்ணங்களால் வேறுபடுத்திக் காட்டப்~
பட்டிருக்கின்றன. வெண்மை நிறத்தால் குறிப்பிடப் பட்டிருக்~
கும் தூண்களுக்குள் உள்ள முன்வரிசை இடங்களில் பிராமணர்~
கள் அமர்வார்கள். க்ஷத்திரியர்கள் சிவப்பு நிறத்தால் குறிக்~
கப்பட்ட தூண்களுக்கிடை௟ிலான இடங்஖ளில் அமர்வார்கள். 
அவர்களுக்குப் பின்னால் வைசியர்களும் சூத்திரர்களும் அமர்~
வார்கள். கிழக்குப் பார்த்த கூத்தம்பலத்தில் வைசியர்கள் வட
கிழக்குப்புறமாகவும், சூத்திரர்கள் வட மேற்குப் புறமாகவும்
அமரவேண்்டும். வைசியர்களுக்கான வர்ணம் மஞ்சள், சூத்திரர்~
களுக்கான வர்ணம் நீலம். இந்த நான்கு ஜாதிகளில் அடங்~
காத பிற ஜாதிக்காரர்கள் அவர்களுக்குப் பின்னால் அமர்வார்~
களாம். இப்ப஼டி ஜாதிக்காரர்கள் அமர்வதற்கான இடங்கள்
கட்டப்பட்ட஼ட  அரங்கில் ஒதுக்கப்பட்டிருக்கும்போது காப்பாற்றப்~
படும் ஜாதிமரபுகள் தெருவில் மன அளவிலேனும் ஒன்றாய்க்
குழம்பிப் போகும்.</p>

<p>சிலப்பதிகாரத்தில் செயல்படும் வேத்தியல் பொதுவியல்
என்ற இரண்டு கூத்தியல்களில் தெருக்கூத்து பொதுவியல்
கூத்தாக இருக்க வேண்டும் என்றும், கூத்தில் தெரு எப்~
போது சேர்ந்தது என்பது தெரியவில்லையென்றும் குமாரி
பத்஼மா சுப்ரமணியம் சொல்கிறார். கேரளத்தில் பழக்கத்தில்
இருக்கும் சாக்கையார் கூத்து என்பது வேத்தியம். பொது~
வியல் ஆகிய இரு இயல்களில் வேத்தியல் கூத்தாக இருக்க
வேண்டும் என்று எல். எஸ். ராஜகோபாலன் சொல்கிறார்.</p>

<p>கூத்து தெருக்கூத்தாக பொதுவியல் இருந்ததால்஼தான்
இன்று வரைக்கும் தொட௉ர்பாராமல் வரும் இயல்பைப் பெற்றி~
ருக்கிறது . வரும் காலவழியில் பல்சுவையில் கிடைத்த
உணவை உண்டு ஜீரணித்து வந்த போஶாக்கு அதனிடம்
இன்றும் இருந்து கொண்டிருக்கிறது. சம்ஸ்கிருத நாடக
இலக்கியத்திற்கு ஒப்பான தமிழ் நாடக இலக்கியம் படிப்பாளி~
களால் காப்பாற்றப்பட்டு இன்று நமக்கு கிடைக்காமல் போயி~
னும். மக்களிடையில் பழக்கத்தில் இருந்து செயல் மரபாகிய
கூத்துமட்டும் இன்றும் தொடர்ந்து வந்து கொண்டிருக்கிற஥ு.</p>

<p>சம்ஸ்கிருதத்தில் இருக்கும் மகாநாடகம் என்பது பொது மக்~
களுக்கு திறந்த வெளியில் அப்போதைக்கு உண்டாக்கப்பட்ட
மேடைகளில் நடிக்கப்பட்ட நாடக வகையைச் சேர்ந்ததாகும்
என்஖ிறார்஖ள். அப்போதைக்கு உண்டாக்கப்பட்ட மேடை
எளிமையுடையதாகத்தான் இருக்கும். இவை பாடல்களும்
நடனங்களும் நகைச்சுவை அம்சங்களும் நிறைந்து திண்஼மை~
யும் அழகும் பெற்றவையாக இருந்தன. பேச்சு அப்போதைக்~
குத் தோன்றிய கற்பனையாற்றல் கொண்டது. இவற்றின்
கதை இதிகாசங்஖ளிலிருந்து எடுக்கப்பட்டு பார்ப்போருக்கு
உடனுக்குடன் பிரியும்படியாய் இருந்தன. இவற்றின் நடிகர்~
கள் தாங்஖ள் கண்டும் கேட்கும் உண்டாக்கிக் கொண்ட தங்஼~
68
கள் பிரக்ஞையில் இருந்து அவ்வப்போது நாடகத்துக்குச்
செறிவூட்டிக் கொண்டிருந்தார்கள். பல்வேறு இ஼இடங்஖ளி~
லிருந்து எடுக்கப்பட்ட கவிநயங்கள் இதன் கலைநயத்துக்கு
வளப்பம் கொடுத்தன. இவை எப்பொழுதும் கதை சொல்லும்
நாடக வகையினதாகவே இருந்தன. பொது      மக்களுக்குப்
படிப்பினையாக  இருக்க வேண்டும் என்ப஼து இவற்றின் நோக்க~
மாக இருந்திருக்க வேண்டும். இவ்வகை நாடகத்தில் இன்று
கிடைத்திருப்பது மகாநாடகம் என்று ஒன்றுதான் என்கிறார்~
க஼ள். இது சமஸ்கிருத நாடகங்கள் தோன்றுவதற்கு முன்~
பிருந்த நாடக மரபாக இருக்கக்கூடும் என்றும் கருதப் படு~
கிறது.</p>

<p>தமிழில் நாடக இலக்கியங்கள் கிடைக்காமல் போனதற்கு
ஒரு காரணம் சொல்லலாம் என்று தோன்றிற்று. நாடகம்
என்பது நடிக்கப்படுவதற்கானதால் படிக்கப்படுவதற்காகக்
கா஫்஫ாற்றி வைத்துக்கொள்ளாத பண்டைத் தமிழ்ப் பெருமை~
யாக இதைக் கருதிக்கொண்டேன். மேலும்    இந்தியத்
தியேட்டரில் இருப்பதைப் போலவே அதில் ஒரு பகுதியாக
இருந்த தமிழ்த் தியேட்டரிலும் புராண இதிகாசங்களிலிருந்தே
நடிக்கப்படுவதற்கு கதைகள் எடுக்கப்பட்டு நாடகமாக்கப்பட்ட~
தால் ஏற்கெனவே தெரிந்த கதைகளை வேறோரு இலக்கிய
வகையாகத் தரவிரும்பவில்லை போலும் என்஼றும் நினைத்துக்
கொண்டேன். இன்றைய கூத்திலிருந்து பின்னோக்கிப் போய்
இது எழுதி வைக்கப்பட்டால் படிக்க சுவாரஸ்யம் உள்ளதாக
இராது என்ற காரணத்தால் இதை இலக்கிய  வகையாகப்
பார்க்காமல் தனி வகையாகவே பார்த்து விட்டார்கள் போலும்
என்றும் தோன்றிற்று என்றாலும், இது படிக்கப்படுவதற்கான
வகையில் எழுதப்பட்டு இலக்கியமாகவும் முடியும். அவ்வகை~
யினதுதான் சம்ஸ்கிருத நாடக இலக்கியம் அவ்வகை நாடக
இலக்கியம் தமிழில் கிடைக்காமல் போய் விட்டது என்ற
கருத்துக்கே திரும்பிவர வேண்டியதாயிற்று.</p>

<p>வரலாற்றுக் காலத்துக்கு முந்தி. நாடகம் எழுதுவது நாடகக்
குழுக்களோடு இருந்த நாடக ஆசிரி௟ர்களுடைய தொழி~
லாகவே இருந்திருக்கலாம் என்றும், நாட்டிய சாஸ்திரம் இவ்~
வகை நாடகாசிரியர்களைப் பற்றிக் குறிப்பிடுகிறது என்றும்
மன்மோகன் கோஶ் சொல்கிறார். அதில் சொல்லப்பட்டிருக்~
கிறபடி பார்த்தால் அந்த நாடக ஆசிரியர்களுடைய கலை
பாஸன். காளிதாஸன் போன்றோருடைய  ய  நாடகங்களைப்஼போல
அவ்வளவு சிக்கலான நாடக அமைப்பை எய்தியிருந்திருக்க~
வில்லை என்றும் தோன்றுகிறது என்஖ிறார். ஒவ்வொரு நாடகக்
குழுவும் தங்களுடைய வெற்றிகரமான நாட஼ங்஖ள் பிற நாட~
கக் குழுக்களிடம் போய் விடாமல் மிகுந்த கவனத்தோடு காப்~
பாற்றி வந்திருக்க வேண்டும் என்றும் எண்ணத் தோன்று~
கிறது என்று சொல்கிறார். இப்படிப்பட்ட நிலையில் அந்஼நாட~
கங்கள் அன்஼று அரங்கேற்றப்பட்டதைத் தாண்டி காலத்தில்
69
நிலைத்திருக்க முடி௟ாது. அந்த நாடகம் பழக்கத்திலிருந்து
மாறியவுடன் அது முற்றிலும் இழக்கப்பட்டதாகவே ஆகிறது
என்றும் அவர் கருதுகிறார். தமிழ்ச் செயல் மரபுக் கூத்துக் ~
களிலும் இப்படித்தான் நேர்ந்திருக்க வேண்டும். கூத்துக்~
குழுக்களின் பாடம் சில ஒத்திருக்கின்றன:சில வேறுபட்டிருக்~
கின்றன. வழி வழியாய் வந்஼தமையாய் இருக்கின்றன. கூத்~
துக் குழுக்கள் சில, கூத்து ஆசான் பாடங்களைத் தங்கள் கூத்~
துக் குழுக்களுக்கே உரியவையாய் எண்ணிச் சொல்கின்றன.
இவை சமீபகால மரபினவாய் இருக்கின்றன. பண்டைக் 
காலத்தில் ஆர்வம் கொண்ட ஆசிரியர்கள் தங்கள் கற்பனையில்
எழுதிய பாடங்஖ளுக்கு தாங்கள் அமைத்துக் கொண்ட குழுக்~
களைக் கொண்டு ஆடிய கூத்துக்களாக இவை இருக்க வேண்~
டும். இவ்விதம் பல கூத்தாசான்களின் மூலம் மரபு ஒன்றாய்
பாடங்கள் வேறாய் மாறி வந்த கூத்தாகவே இன்றைய
கூத்தை மதிப்பிட வேண்டும். பண்டைக்கூத்தை வேத்தியல்
பொதுவியல் எனப் பிரிக்கிறபோது ஓன்றுக்கொன்று சம்பந்த~
மில்லாத வெவ்வேறுவகை எனக் கொள்ளத் தேவையில்லை.
வெவ்வேறு தரத்தில் உள்ள பார்வையாளர்க்கிடையில் ஆடப்~
பட்ட கூத்துக்கள் அவை என்பதே இரண்டிற்குமுள்ள முக்கிய
வித்யாசமாக இருந்திருக்க வேண்டும். பார்வையாளர் தர
வித்யாசத்திற்கு ஒத்த ஆட்ட முறைகளிலும் வித்யாசம் இருந்~
திருக்கும். எந்தப் பார்வையாளர் மத்தியில் எவ்வகைக் கலை~
ஞர்கள் ஆடினார்கள் என்பதைக் கொண்டும் வித்யாசங்கள் 
நேரும். சாக்கையார் கூத்துக்கும் தெருக்கூத்துக்கும் இடை~
யில் உள்ள வித்யாசங்஖ள் இதைத் தீர்மானிக்க உதவலாம்.</p>

<p> </p>

<p>               0 
</p></body></text></cesDoc>