<cesDoc id="mar-w-literature-story-ss00b002.mal" lang="mar">
<cesHeader type="text">
<fileDesc>
<titleStmt>
<h.title>mar-w-literature-story-ss00b002.mal.txt</h.title>
<respStmt>
<respType>Electronic file created by</respType>
<respName>Central Institute for Indian Languages, Mysore</respName>
<respType>transferred into Unicode and CES format by</respType>
<respName>"Unicodify" software by Andrew Hardie</respName>
</respStmt></titleStmt>
<publicationStmt>
<distributor>UCREL (on behalf of CIIL)</distributor>
<pubAddress>Department of Linguistics, Lancaster University, Lancaster, LA1 4YT, UK</pubAddress>
<availability region="WORLD"></availability>
<pubDate>03-07-25</pubDate>
</publicationStmt>
<sourceDesc>
<biblStruct>
<monogr>
<h.title>जन्मलेल्या प्रत्येकाला</h.title>
<h.author>प्रिया तेंडुलकर</h.author>
<imprint>
<pubPlace>India</pubPlace>
<publisher>Unknown - डिंपल पब्लिकेशन</publisher>
<pubDate>1991</pubDate>
</imprint>
<idno type="CIIL code">ss00b002.mal</idno>
</monogr></biblStruct></sourceDesc></fileDesc>
<encodingDesc>
<projectDesc>Text collected for the CIIL Corpus, subsequently integrated into the EMILLE/CIIL Monolingual Written Corpora.</projectDesc>
<samplingDesc>Simple written text only has been transcribed. Diagrams, pictures and tables have been omitted. Sampling begins at page  पुणे.</samplingDesc>
<editorialDecl><conformance level="1"></conformance></editorialDecl>
</encodingDesc>
<profileDesc>
<creation><date>03-07-25</date></creation>
<langUsage>Marathi</langUsage>
<wsdUsage>
<writingSystem id="ISO/IEC 10646">Universal Multiple-Octet Coded Character Set (UCS).</writingSystem>
</wsdUsage>
<textClass>
<channel mode="w">print</channel>
<constitution type="composite"></constitution>
<domain type="public"></domain>
<factuality type="fiction"></factuality>
</textClass>
<translations></translations>
</profileDesc>
<revisionDesc></revisionDesc>
</cesHeader>

<text><body>
<p> 
एकूण पाने ;- 18
From 32 TO  67</p>

<p>
पान नं. - 32                                                                                            शब्द -</p>

<p>+</p>

<p>पहाटे चारचा सुमार. तो पालीसस्टेशनवर
बसला होता. समोर इन्स्पेक्टर्स.
""""तुमचा मुलगा मेल्याचे तुम्हाला कसे कळले ?""""</p>

<p>माझा मुलगा मेल्याचे मला कसे कळले ?
पहिल्यांदा त्याच्या डोक्यात काहीच शिरेना . मग
वाटले याहून बरे शब्द ही माणसे वापरू शकत
नाही का ?</p>

<p>        """"मला फोन आला."""" तो म्हणाला.
        """"कुणाचा ?""""
        """"त्याच्या मित्राचा.""""
        """"मित्राचे नाव काय ?""""
        """"जोसेफ.""""
        """"पूर्ण नाव सांगा...""""</p>

<p>पान नं. - 33</p>

<p>""""पूर्ण नाव मला माहिती नाही.""""
""""तुमच्या मुलाच्या मित्राचे पूर्ण नाव तुम्हाला माहित नाही. ?""""
तुम्हाला माहिती आहेत तुमच्या वीस वर्षाच्या मुलाच्या तमाम
मित्रांची नावे ? त्याला विचारावेसे वाटले.
""""नाही."""" तो एवढेच म्हणाला.
""""हे कसे शक्य आहे ?"""" इन्स्पेक्टर चिकटपणे म्हणाला.
शक्य आहे इन्स्पेक्टर. काहीही शक्य आहे. पन्नाशीला
पोहोचलेल्या बापाचा , हाताशी आलेला तरणाबांड एकुलता एक
मुलगा अचानक मरणे शक्य आहे. तर मग अशक्य काय आहे ?
""""नाही, म्हणजे तो फार जवळचा मित्र नव्हता त्याचा. त्यामुळे..""""
""""फोन किती वाजता आला ?""""
""""रात्री एकच्या सुमाराला.""""
""""तुम्ही काय करीत होतात ?""""
रात्री एकला पन्नाशीचा पुरुष काय करीत असतो ?
""""झोपलो होतो.""""
""""तुमचा मुलगा रात्री एक पर्यंत घरी आलेला नव्हता आणि तुम्ही
झोपला होतात ?""""</p>

<p>        आजच्या तरुण पोरांचा दिवस रात्री आठला सुरू होतो. हे काय
मी तुम्हांला सांगायला पाहिजे ?</p>

<p>""""नाही, म्हणजे तो असा उशिराने येत असे घरी परत. सवयच
होती त्याची....""""
        """"काय करीत असे तो रात्री ?""""
        हे म्हाताऱ्या बापाला तो सांगेल ? मी सुद्धा सांगत नसे. त्या
वयात माझ्या बापाला सगळे काही.
""""काय म्हणजे....मित्र मित्र मिळून सिनेमाला जात...हॉटेलात,
...किंवा कट्यावर बसून गप्पा मारीत....""""
""""एवढया रात्री ? म्हणजे त्याची संगत वाईट होती ?""""
आता हे मी कोण ठरवणार ? संगत कुणाची चांगली, कुणाची
वाईट हे कुणीही कसे ठरवू शकते ?
""""तशी त्याची मित्रमंडळी बरी होती....म्हणजे जी मला माहीत</p>

<p>पान नं. - 34</p>

<p>होती ती....""""</p>

<p>        """"बरी म्हणजे ?""""
        """"म्हणजे.....तुमच्या माझ्यासारखे मध्यवर्गीय शाळा, कॉलेजात
जाणारी...""""
        """"फोनवर जोसेफ तुम्हाला काय म्हणाला ?""""</p>

<p>        खरे तर त्याला काहीच आठवत नव्हते...ऑक्सिडेंट झालाय
अजयला लागलयं. कपूर हॉस्पिटलमध्ये नेलंय. तुम्ही या.""""
        """"मग तुम्ही काय केलंत ?""""</p>

<p>        """"मी बायकोला उठवलं. शेजाऱ्यांना उठवलं. बायकोला
शेजारणीजवळ ठेवलं आणि शेजाऱ्यांना बरोबर घेऊन कूपरमध्ये
गेलो.""""</p>

<p>        """"शेजारी कोण ?""""</p>

<p>पान नं. - 35</p>

<p>""""हेच."""" त्याने बाजूच्या खुर्चीवर बसून कडाकड जांभया देणाऱ्या
सान्यांकडे इशारा केला.</p>

<p>        तो घरून निघताना त्याचे कुणाशी भांडण झाले होते ?""""</p>

<p>पान नं. - 36</p>

<p>        ते तर रोजच व्हायचे . दिवसातून दहादा. पुरेसे पैसे दिले नाहीत
म्हणून माझ्याशी. वांग्याची भाजी शिजवली म्हणून त्याच्या आईशी.</p>

<p>        """"नाही. मला तरी आठवत नाही. पण नाहीच.""""
        """"तो निघाला तेव्हा तुम्ही घरी होतात ?""""
        """"नाही.""""
        """"मग तुम्हाला काय ठाऊक ?""""
        """"पण झाले असते तर त्याची आई मला म्हणाली असती..""""
आणि झाले असते भांडण तरी कुणी मित्रांबरोबर मोटारीत बसून मागच्या
सीटवर बसून ऑक्सिडेंटमध्ये मरत नाही. सगळेजण वाचले. हाच
फक्त......</p>

<p>        """"तुमचे तुमच्या मुलाशी संबंध कसे होते ?""""</p>

<p>        एका बापाचे त्याच्या तरुण मुलाशी असतात तसे. त्यातून तो
एकुलता वयात आलेला बापाचा मित्र असतो म्हणतात तसा
तो माझा मित्र कधीच वाटला नाही. सतत अंतर ठेवून वागे. अनेकदा
तर अनाकलनीय, गूढ वाटे. त्याच्यापर्यंत पोहोचताच येत नसे. प्रयत्न
करूनही. पण असे माझ्याही बापाशी माझे झाले असणार. हे वयच
असे असते की हे नात ?</p>

<p>        """"चांगले होते......म्हणजे नॉर्मल.....त्याच्या आईच्या तो अधिक
जवळ होता.""""</p>

<p>        असे म्हटले आणि त्याला वाटले , आपले चुकले, आता हे
लोक त्याच्या आईला तर इथे आणून असले काही विचारणार
नाहीत ? तिला तर अजून माहीतही नाही की तिचा मुलगा मेला
आहे. मेला आहे म्हणजे नक्की काय झाले ते मला तरी कुठे
कळलंय ? मेला आहे म्हणजे तो संपला आहे, त्याचे शरीर संपले
आहे. तो आता असणार नाही. दिसणार नाही. घरात, नाक्यावर
कुठेच नाही, त्याचा आवाज आता ऐकू येणार नाही. त्याचे दाणदाण
चालणे, धाडकन दरवाजा आपटणे, मोठयांदा रेडिओ लावणे, ओला
टॉवेल गादीवर फेकणे, पैश्यासाठी पाठी लागणे, काही काहीच आता
असणार नाही. असणार त्या आठवणी. त्याचे कपडे त्याचे बूट ,
त्याची पुस्तके, त्याने चोरून ओढून कचऱ्याच्या डब्यात फेकलेली</p>

<p>पान नं. - 37</p>

<p>सिगारेटची थोटके. पण तो नसणार आहे. हे असे एका
रात्री त्याच्या असण्याचे नसणे का झाले ? माझे झाले नाही. याच्या
आईचे झाले नाही. त्या गाडीतल्या त्याच्या दोस्तांचे झाले नाही. मग
त्याचेच का झाले ? तो गाडीच्या मागच्या सीटवर उजव्याच बाजूला
का बसला ? ट्रकने ठोकर मारल्यावर तोच एकटा उंच उडून
फुटपाथवर का आपटला ? त्याचेच शरीर छिन्नविच्छिन्न का झाले ?
माझ्यासारख्या सगळे काही जगून भोगून जीर्ण झालेल्या माणसाचे
शरीर अजूनही जगायला लायक आहे. मग त्याचेच आडदांड,
तरणेबांड शरीर जगायला नालायकं कां झाले ?</p>

<p>
        तो चौकीच्या बाहेर पडला तेव्हा फटफटू लागले होते. आणि
एक ओशट ओला पावसाळी दिवस उगवत होता. हा अजयशिवाय
उजाडणारा पहिला दिवस होता. कालचा दिवस उजाडला तेव्हा तो
त्याच्या बिछान्यात अर्धी चड्डी घालून अस्ताव्यस्त पसरला होता.
दूधवाल्याने घंटा वाजवली तरी नेहमीप्रमाणे इकडचा तिकडे झाला
नाही. काल दूध घेताना त्याच्या त्या लांबच लांब देहाकडे पाहून
परत एकदा खूप प्रेम , खूप काळजी आणि खूप राग भरून आला
होता. काय होणार याचे ? कसे असेल याचे आयुष्य ? त्याच्या
आईच्या कुशीतून जन्मल्या जन्मल्याच त्याचे इवलेसे बोचके हातात
धरताना खूप भीती वाटली होती आणि खूप काही छानसे आतून
पुऱ्या अस्तित्वातून उफाळून आले होते. तसेच परत झाले. आता
त्या बोचक्याचे एक आडदांड पार्सल झाले होते. आणि तरीही
'हँडल....वुईथ केअर'..... असे वर लिहिलेल होतेच. त्यावेळची
केअर वेगळी आणि आताची वेगळी. त्याला सांभाळणे मला जमणार
कसे असे तेव्हाही वाटले होते आणि कालही. पण आजच्या
सकाळी तो नसणार आहे. दूधवाला येत राहणार आहे. मी दरवाजा
उघडत राहणार आहे. पण मी जमेल तेव्हढया काळजीने हाताळलेले
माझे पार्सल त्या बिछान्यात नसणार आहे.</p>

<p>        कॉरोनर कोर्टात तो पोहोचला तशी नाकत कसला तरी कुबट
कुजका वास वस्सकन शिरला पायरीवर झोपलेल्या गुरख्याला</p>

<p>पान नं. - 38</p>

<p>
उठवून सान्यांनी विचारले, """"आम्ही बॉडी क्लेम करायला
आलोय कुठे मिळेल ?....""""</p>

<p>        """".....इथे सगळे त्यासाठीच येतात. पण आता नाही. नऊला
या नऊला....च्यायला...."""" असे म्हणत एकदोन इरसाल शिव्या
हासडून गुरखा पुन्हा घोरू लागला. त्याने घडयाळात पाहिले
साडेसहा होते होते. बोरिवलीला जाऊन त्याच्या आईला बातमी
सांगून परत येण्यापुरता वेळ नव्हता. शिवाय परतताना गाडयातून
गर्दीही फार असणार. अशा अवस्थेत अजय आयुष्यात नसताना
नेहमीप्रमाणे लोकलमध्ये फूटबोर्डावर उभे राहून प्रवास करायचा
विचार त्याला सहन झाला नाही. टॅक्सीने जाण्यापुरते पैसे होते, पण
शवगाडीला लागतील, डेथ सर्टिफिकेटलाही लागतील......त्याने
सान्यांकडे पाहिले.</p>

<p>        """"चहा घेऊन येऊ या कुठून तरी"""" साने म्हणाले. त्यालाही चहा
प्यावासा वाटला. अजय संपला आहे तरीही चहाची तल्लफ अजून
जिवंत आहे. यालाच आयुष्य म्हणत असावेत.</p>

<p>        दोघे चालत चहाच्या शोधात निघाले. रस्त्यावरून छोटी छोटी
पोरे दप्तरे गळ्याला टांगून शाळेकडे निघाली होती. त्यांच्या
चिमुकल्या डोळ्यातली साखरझोपही उडाली नव्हती. कुठल्या उमेदीने
हे छोटे जीव शाळेच्या दिशेने धावताहेत ? एवढयाशा वयात
आपल्याला शाळेला गेले पाहिजे ही समज त्यांच्यात येते कुठून ?
मुकाटयाने उठून शाळेकडे जाणाऱ्या अजयला पाहून त्याला नेहमी
वाटे यातले किती माझ्यासारखे पन्नाशीला पोचतील ? किती
अजयसारखे भर विशीत नाहीसे होतील ? तेवढयातच मरायचे
निश्चित आहे, तर मग त्यांना शाळेला का पाठवायचे ? का नाही
निवात झोपू दिले मी माझ्या पोराला ? अगदी कालपर्यंत
आरडाओरडा करून उठवले. कशासाठी ? शिक्षण पुरे व्हायच्या
आतच संपून गेलो तो. मग का त्रास दिला मी त्याला ? लवकर
ऊठ, अभ्यास कर, उद्धट उत्तर देऊ नकोस , पसारा करू नकोस,
पानात टाकू नकोस काय सांगावे ? यदाकदाचित तुझ्यावर
माझ्याइतकी जगायची पाळी आलीच तर शिक्षण, संस्कार सारे कामी</p>

<p>पान नं. - 39</p>

<p> येईल. चांगली नोकरी मिळेल, बरी बायको मिळेल.</p>

<p>        रस्त्याच्या कडेला नुकत्याच उघडलेल्या उडप्याच्या हॉटेलात तो
सान्यांसकट शिरला. कपबश्यांचे आवाज. स्टोव्हची घरघर , चहाचा
सुगंध, सकाळची चिन्हे त्याच्या इंद्रियांना जाणवली. एकुलता एक
मुलगा काही तासापूर्वी मरून देखील आपण इतके शाबूत कसे राहू
शकतो ? त्याला प्रश्न पडला.</p>

<p>        गरम गरम चहाचे घोट पोटात गेल्यावर त्याला बरे वाटले.
आपला पोरगा नुकताच मेलेला असताना आपल्याला इतके बरे कसे
वाटू शकते ? तो अपराधी झाला. सान्यांशी उगीचच इकडच्या
तिकडच्या विषयांवर बोलत राहिला. पोल्यूशन, व्ही. पी. सिंगाचा
राजीनामा असले काहीतरी खूप बिनमहत्वाचे आणि त्याच्या
आयुष्यापासून खूप दुरचे. पण वास्तवाचे भान काही त्याला सुटेना.
जणू आत मेंदूत कुठेतरी एक जखम झाली आहे असे वाटत
राहिले. एक घाव जो आता आयुष्याभर वागवावा लागणार आहे.</p>

<p>        """"निघू या ?"""" तो सान्यांना म्हणाला.</p>

<p>        """"अजून पावणेआठ तर वाजताहेत . भरपूर वेळ आहे. मऊ म्हणजे
नऊलाच थोडे सुरू करतील ते पोस्टमार्टेम ? अहो सरकारी काम """"
साने उंच आवाजात म्हणाले कुणीतरी बरोबर आहे आणि ते सानेच आहेत ते
ठीक झाले. नाहीतरी हा असा वेळ काढणे कठीण झाले असते.
साने कसे स्थितप्रज्ञ, शांत, अन््अफेक्टेड आहेत. हवे तेव्हा बोलतात,
नको तेव्हा गप्प रहातात, जांभया देत बसतात. पण त्यांना काय
झालेय अनअफेक्टेड न रहायला ? त्यांची तीनही पोरे त्यांच्या
घरटयात सुखरूप आहेत. माझा एकुलता एक पोरगा मेल्याचे दु:ख
त्यांनी का करावे ? त्याला सान्यांचा हेवा वाटला. रागही आला. हे
एवढे कंजूष, बायकोला हाडूत हुडूत करणारे, नळ आल्यावर
सगळ्या इमारतीच्या आधी उठून आपल्या भल्यामोठया टाक्या भरून
घेणारे, गुपचूप घरात सिंटेक्स बसवून घेणारे, माझ्या दारात कचरा
टाकणारे तरीही त्यांची पोरे सुखरूप रहावीत आणि माझाच मात्र....</p>

<p>        """"चला, जरा समुद्रावर जाऊन येऊ या...."""" साने म्हणाले.</p>

<p>पान नं. - 40</p>

<p>आणि उठलेही. यांना काय उत्तर मुबंईच्या पिकनिकला आल्यासारखे
वाटते आहे की काय ? तो उठला. सान्यांच्या मागोमाग चालू लागला.</p>

<p>        अर्ध्या रस्त्यात पावसाची झड आली, तशी सान्यांनी त्यांची छत्री
उघडली. त्यांच्या खांद्यावर एक हात टाकून एका हाताने छत्री
त्याच्या डोक्यावर धरून ते चालू लागले. माणसाचा माणसाला
झालेला स्पर्श काय करू शकतो ? सान्यांचा हात त्याच्या
खांद्यावर पडेल आणि त्याने त्याला भडभडून येईल असे कधीच
वाटले नव्हते....तो फुटून रडू लागला. रडत रडत चालू
लागला. सान्यांची त्याच्या खांद्यावरची पकड जरा घट्ट झालेली
त्याला जाणवली. बिचारे साने. रात्रीची झोप मोडून, आजचे ऑफीस
बुडवून माझ्याबरोबर असे भटकताहेत. काय गरज होती त्यांना हे
सगळे करायची ? शेजारधर्म ? माणुसकी ?</p>

<p>        चालता चालता एका दुकानापाशी साने थबकले. कापडाचे दुकान
होते. """"देशमुख, कापड घेऊ या पांढरे.""""</p>

<p>        """"कशाला ?"""" तो म्हणाला.</p>

<p>        """"लागेल, बॉडी गुंडाळायला, बरी आठवण झाली."""" दोघे आत
गेले. दुकानदार म्हणाला, """"काय दाखवू साहेब, सुटींग, शर्टिंग, लेटेस्ट
स्टाईलचे रेडीमेड शर्टस्. . .""""
        """"पांढरा मांजरपाट हवा."""" साने म्हणाला.
        """"हा बघा, """" म्हणत त्याने धडाधडा एकावर एक मांजरपाटाचे
तागे टेबलावर टाकून उलगडायला सुरुवात केली. """"हा जास्त तलम
आहे. हा धुतल्यावर आटणार नाही. . .""""</p>

<p>        तो तटस्थपणे पाहत उभा राहिला. सान्यांनी न आटणारा चार
मीटर मांजरपाट कापून घेतला. खिशातून पैसे काढून दिले.</p>

<p>        """"चला."""" ते त्याला म्हणाले.
        तो एकदम भानावर आला. खिशात हात घालून त्याने पाकीट
काढले.</p>

<p>        """"पैसे दिले देशमुख. चला. .""""</p>

<p>        तो खजील झाला. शंभराची नोट सान्यांच्या हातात खुपसू
लागला. साने म्हणाले, """"राहू दे. मग पाहू. .""""</p>

<p>पान नं. - 41</p>

<p>
        कॉरोनर कोर्टात तो पोचला तेव्हा तिथे बरीच गर्दी होती.
एवढया माणसांचे आप्तस्वकीय मेले की काय ? त्याला त्या
माणसांच्या नुसत्या असण्याने खूप धीर आला. माझ्या एकटयाच्याच
घरात काल मृत्यू शिरला नाही, तर यमदेव ओव्हरटाईमच
करीत असावा बहुधा.</p>

<p>        त्याचा नंबर आल्यावर खिडकीपलिकडल्या माणसाने त्याला
विचारले, """"काय काम आहे ?""""
        """"माझ्या मुलाची बॉडी क्लेम करायचीय. अजय देशमुख. काल
रात्री वरसोव्याला ऑक्सिडेंट. . .""""</p>

<p>        """"पोलीस रिपोर्ट आमच्याकडे पोचला नाही. अजून. . """"
        """"मग काय करायचे ?""""
        """"काय करायचे म्हणजे ? चौकीवर जाऊन सांगा हवालदाराकरवी
रिपोर्ट पाठवून द्यायला. मग काय ते बघू पोस्टमार्टेम करून बॉडी
केव्हाची पडलीय. . .""""</p>

<p>        तो नुसताच उभा राहिला.
        """"तुम्ही बाजूला व्हा नेक्स्ट कोण आहे ?"""" खिडकीपलीकडचा
माणूस खेकसला.
        तो शरमून बाजूला झाला. सान्यांकडे केविलवाणे पाहत राहिला.
        """"तुम्ही थांबा इथेच. मी जाऊन येतो. हवालदाराला -""""
आणि ते गेले देखील.
        तो गर्दीकडे पाहत, खिशात हात घालून तसाच उभा राहिला.
कितीतरी वेळ.
        """"तुमचं कोण गेलंय ?"""" पांढऱ्या कपडयातला एक मध्यमवयीन
माणूस त्याच्याजवळ येत म्हणाला.
        कोण बरं गेलंय माझं ? त्याला आठवेचना.
        """"मुलगा."""" तो म्हणाला.
        """"माझी बहीण वारली. खून झाला."""" तो माणूस म्हणाला,
        """"तुमच्या मुलाचे काय झाले ?""""
        """"ऑक्सिडेंट."""" तो म्हणाला.
त्याला अजयच्या जन्माच्या वेळची आठवण झाली.</p>

<p>
पान नं. - 42</p>

<p>मॅटर्निटीहोमच्या व्हरांडयात तो अस्वस्थ येरझारा घालत होता. वाट
पाहत होता. त्याच्यासारखा एक होऊ घातलेला बाप असाच
आसपास बसत, फिरत होता. त्याने विचारले होते, """"पहिलंच का ?""""</p>

<p>        """"हो."""" तो हसून म्हणाला होता.</p>

<p>        """"तरीच. माझ तिसरं आहे.""""</p>

<p>        त्या सकाळी अजय जन्माला आला होता. आजच्या सकाळी तो
मेला आहे तेव्हा नर्सने चिरगुटात गुंडाळून त्याला माझ्या हातात
ठेवला होता. आज त्याला मघा खरेदी केलेल्या नव्या मांजरपाटात
गुंडाळून मी जाळायला नेणार आहे.</p>

<p>        समोरच्या पोर्चमध्ये एक भलीमोठी जुनी गाडी येऊन थांबली.
कचऱ्याच्या गाडीसारखी. त्याचा पुढचा दरवाजा उघडला, त्यातून दोन
माणसे उतरली. त्यांनी गाडीचा मागचा दरवाजा उघडला. अतिशय
उग्र कुजका वास त्याच्या नाकात शिरला, इतकी घाण की त्याने
खिशातला रुमाल काढून नाकावर धरला. एक प्रचंड फावडयासारखे
भांडे दरवाजातून अर्धवट बाहेर आले. एक माणून वर चढला. त्याने
ते भांडे जोर लावून वर ढकलले. आतून एक उंच आडदांड शरीर
बाहेर फेकले गेले. क्षणभर ते हवेत उडाले. त्याचे झुबकेदार केस
डौलात वर उडाले. चित्रपटात स्लो मोशन मधे उडतात तसे. तो
अजय होता. त्याने झटक्यात ओळखले. गाडीसमोर जमिनीवर
ठेवलेल्या लांब घमेल्यासारख्या भांडयात अजयला टाकले आणि
ते बाहेर आलेले फावडे आपसूक आत गेले. तो झेपावून पुढे सरकला.
समोरच्या घमेल्यात मान उंच करून पाहू लागला. अजयचे मुटकुळे
तिथे निपचित पडले होते. विवस्त्र. निष्प्राण. पार लोळागोळा झालेले
इतक्यात गाडीतल्या माणसाने घमेल्यात पाहून एक आवाज दिला.
घमेल्यातून एक पाय काढून खालच्या भांडयात फेकला. अजयचा
एक पाय चुकून गाडीतच राहिला होता ! पोटात मळमळून आले.
जोरात उलटी येईलसे वाटले. तो धावत उलट फिरला. आधी उभा
होता तिथे जाऊन उभा राहिला. गाडीला पाठमोरा पोटातून आचके
आल्यासारखे काहीतरी होत राहिले. आपण चक्कर येऊन पडणारसे
वाटू लागले. जवळच्या भिंतीला धरून , तोंडावर रुमाल दाबून, डोळे</p>

<p>पान नं. - 43</p>

<p>मिटून तो उभा राहिला.</p>

<p>        गाडीतून फेकताना हवेत उंच झेपावलेले अजयचे दाट, झुबकेदार
केस त्याला दिसत राहिले. सशासारखे मऊ आणि चमकदार, हलके
पिंगट, त्याच्या आईसारखे महागडा विलायती शांपू लागायचा त्याला
पोरगी आहेस का विचारले तर म्हणायचा, """"बाबा, स्टाईल आहे
अलिकडची, तुम्हाला काय कळणार ! """" खरेच सोन्या , मला काय
कळते ? काही सुद्धा नाही. तू इतक्या लवकर असा संपून जाशील
हे कळले नाही कधीच तर मग दुसरे काही कळून उपयोग तरी
काय ? माझे शिक्षण , मझा हुद्दा, मी पाहिलेले पन्नास पावसाळे, सारे
सारे व्यर्थ आहे. माणसाच्या आयुष्याचा हा असला तात्पुरतेपणा मला
कळला नाही कधीच. तोच तर महत्वाचा आहे. माझ्या पोटच्या
गोळ्याचा असा लोळागोळा होईल कधी असे वाटलेच नाही. दोन
वेळा अंघोळ कर, केस काप, नखे काप, स्वच्छ कपडे घाल, असे
दिवसातून दहा वेळा सांगणाऱ्या तुझ्या जन्मदात्या आईला तुझी ही
एका रात्रीत अशी अवस्था झाली आहे हे कळले तर काय होईल
तिचे ? प्राण उडून गेल्यावर मनुष्यदेहाची असली किळसवाणी घाण
होते ?........</p>

<p>        नाही आता पहिला तो अजय नव्हता . नव्हताच. ते होते त्याचे
शरीर फक्त शरीर दोन हात, दोन पाय, एक धड आणि डोके. हे
सगळे एकत्र चिकटवले तर मीही होऊ शकतो. कुठलाही माणूस
होऊ शकतो अजयच काय म्हणून ? तो संपला. तो आहे
कुठेतरी आहे. तो निश्चित आहे. जिथे आहे तिथे स्वच्छ आहे.
सुगंधित आहे. लहानपणी त्याच्या तान्हया शरीराला येत असे तो
तसला, सुवास त्याचा आहे. ही आतडी पिळवटून टाकणारी घाण
त्याची नाही.........</p>

<p>        """"हवालदार आलाय, देशमुख चला, क्लार्ककडे जाऊ या.""""
घामाघूम होऊन धापा टाकणारे साने त्याला म्हणाले. तो यंत्रवत
चालत खिडकीकडे गेला. हवालदाराने आणलेले कागदांचे बाड
खिडकीमागच्या माणसाने उघडले.</p>

<p>पान नं. - 44</p>

<p>'तुमचा मुलगा मेल्याचे तुम्हाला कसे कळले ? शेवटी त्याला
कोण भेटले ? त्याचे आणि तुमचे संबंध कसे होते ? ' रात्रभर
उत्तरे दिलेल्या प्रश्नांच्या टाचण्या त्याच्या ओल्या वहात्या जखमेवर
पुन्हा एकदा खिडकीमागून टोचल्या जाऊ लागल्या. उलटतपासणी.
ऑज पर द्् प्रोसीजर.</p>

<p>        त्याला वाटले, मोठयांदा किंचाळावे घसा फोडून, 'माझा मुलगा
मेला नाही. तो आहे..... जिवंत आहे ती मघा फेकलीत ती
रक्ताळलेली घाण म्हणजे माझा मुलगा नाही. . .' काचा फोडाव्या.
जमल्यास खिडकी-मागच्या माणसाचे डोळेही. . .</p>

<p>        सगळी उलटतपासणी झाल्यावर डेथ सर्टिफिकेट त्याच्या हातात
आले. तो त्या कागदाकडे पाहत राहिला. त्याला अजयचे बर्थ
सर्टिफिकेट आठवले. एस्.एस्. सी चे सर्टिफिकेट आठवले. आणि
आता हे डेथ सर्टिफिकेट. पूर्णविराम. अजयच्या आयुष्याचा कोर्स
संपला. इतरांपेक्षा लवकर संपवला त्यानं तो हुषारच होता पोरगा.
बापाच्या हातात आयुष्याचा कोर्स पूर्ण केल्याचे सर्टिफिकेट इतक्या
लवकर देऊन निघून गेला. वरच्या शिक्षणासाठी. लहान असताना
त्याच्या प्रगती पुस्तकात लिहिलेले असे, वरच्या वर्गात गेला. . .</p>

<p>        """"मी कापड घेऊन आत जातो. बॉडी क्लेम करून येतो.
ओळख पटावावी लागेल. तुम्ही थांबा."""" साने म्हणाले आणि एक
बंद जड दरवाजा उघडून पोलिसांबरोबर शवागरात गेले.</p>

<p>        त्याच्या जन्माची वाट पाहत एकदा असाच एका बंद दाराजवळ
उभा होतो मी. त्याला आठवले दारावर एका गुटगुटीत बाळाचा
फोटो होता. त्याची नजर नकळत शवागराच्या दरवाजावर गेली.
तिथेही एक फोटो होता. चकोटा केलेले वेगवेगळ्या आकाराचे
शेंडीवाले ब्राम्हण एका स्टेजवर उभे राहून हसत होते. मधोमध एक
ब्राम्हण एका हाडांच्या सापळ्यावर पाय ठेवून टारझनसारखा उभा
होता. विचित्र, गुढ हसत. खाली मोठया अक्षरात लिहिले होते,
""""कॉन्टॅक्ट- फोटोग्राफर एम. जी. गांधी."""" पुढे पत्त्ता होता. सापळ्याच्या
जागी त्याला अजय दिसू लागला. त्याचा अजय. तो मघाशी
घमेल्यातून फेकला तो अजय नाही. त्याचा लाडका, एकुलता . जिन्स</p>

<p>पान नं. - 45</p>

<p>आणि टी शर्ट घातलेला अजय देशमुख. तरणाबांड.</p>

<p>        दरवाजा कुरकुरत उघडला. आतून एक स्ट्रेचर बाहेर आले.
मागून साने. त्याने स्ट्रेचरकडे पाहिले. पांढरा मांजरपाट गुंडाळून
अजय झोपला होता. तो पाहत राहिला. अजयचे ते झुबकेदार केस
त्याच्या डोक्यावरून मागे पसरले होते. चेहरा पिवळाधमक झाला
होता. सुजला होता. भुवया कशा जाड कोरीव दिसत होत्या.
पापण्यांचे जपानी पंखे डोळ्यांवर अलगद विसावले होते. त्याचे
मूळचे जाड ओठ अधिकच फुगीर तपकिरी दिसत होते. किंचित
हसल्यासारखे विलग झाले होते.</p>

<p>        """"चला गाडी तयार आहे. उशीर होतोय."""" सानेचा आवाज दुरून
कुठूनतरी आला.</p>

<p>        आता उशीर कसला ?</p>

<p>        स्ट्रेचर गाडीत चढवण्यात आले. पाठपाठ तो, मग साने.
गाडीचा दरवाजा बंद झाला. गाडी सुरू झाली.</p>

<p>        तो एकटक पुढयातल्या त्या पांढऱ्या कपडयात गुंडाळलेल्या
वस्तूकडे पाहत राहिला.</p>

<p>        हा अजय आहे ? की अजयसारखा दिसणारा आणखी कुणीतरी ?</p>

<p>        तो हलकेच उठला. अजयच्या चेहऱ्याजवळ वाकला. डोळे मिटून
त्याने त्यावर ओठ टेकले. त्याच्या ओठांना थंडगार कडक काहीतरी
लागले. त्याने बाजूला होत ओठ ठेवले होते तिथे पाहिले. तो
अजयचा डोळा होता. उजवा. अजय नेहमी सहज टक्कन् मारत
असे तो.</p>

<p>        """"बाबा, उजवा डोळा सगळ्यांनाच मारता येत नाही. तोही डावा
डोळा न हलवता. हे पाहा. मला येतो.""""</p>

<p>        त्याला वाटले, हे शरीर तर अजयचेच आहे. हा चेहरा, या
पापण्या, हे केस, पण तरीही हा अजय नाही. ही त्याची बॉडी आहे.
माणूस मेल्यावर त्याच्या शरीराची बॉडी होते. कालपासून ऐकतो हे
मी सारखा. अजयची बॉडी, अजयची बॉडी. हीच ती बॉडी. अजय
या बॉडीतून केव्हाच पसार झाला आहे. कुणाला न सांगता.</p>

<p>        ही बॉडी त्याला मी दिली होती. मी आणि त्याच्या आईने</p>

<p>पान नं. - 46</p>

<p>थोडीशी माझ्यासारखी थोडीशी तिच्यासारखी. ती आमची आम्हाला
परत देऊन तो नाहीसा झाला आहे. कोण जाणे कुठे. . .</p>

<p>        त्याला आम्ही कधीच थांबवू शकलो नाही. आताही नाही. .
जन्म देऊनही तो आमचा नव्हता. जवळ राहूनही परका होता. आला
तसाच तो आला गेला आहे.</p>

<p>        त्याला कमालीचे हताश , नपुंसक वाटत राहिले.</p>

<p>(18796)
-----------------------------------------------------------
30काळ</p>

<p>पान नं. - 54                             शब्द -</p>

<p>+</p>

<p>पहाटेचे पाच वाजायला आले होते. तेव्हा तिला
जाग आली.</p>

<p>        आधी तिला वाटले, ती घरीच आहे. मग
नाकात हॉस्पिटलचा वास घुसला आणि लक्षात
आले की ती अजुमल नर्सिंग होमच्या वेटिंग
रूममध्ये आहे. आत आय. सी. यू. मध्ये तिचे
सासरे ऑडमिट आहेत. ती बसल्या चांगली अडीच
तास झोपल्यामुळे शरीरभर सगळी हाडे कडाकड
बोलली. दरवाजा ढकलून आत गेली. आतल्या थंड
हवेने अंगावर शहारा आला.</p>

<p>        """"प्लीज रिमूव्ह युवर चप्पल्स् """" खुर्चीवर
पुतळ्यागत बसलेली नर्स बोलली. तिने मुकाट मागे</p>

<p>
पान नं. - 55</p>

<p>जाऊन चपला काढल्या. डोळ्यावरची झोप उडाली.</p>

<p>        ती पुन्हा आत शिरली. कानावर सगळीकडे पीप् पीप् पीप््चा आवाज
परिचित आवाज नाचू लागला. त्याच त्या वेगवेगल्या ठेक्यात
प्रत्येक कॉटवरचा पेशंट आपापल्या कुवतीने श्वास घेत होता. कुणी
जलद, कुणी मंद, कुणी थांबून थांबून. एकजात सगळे निकराने
जगायचा प्रयत्न करीत होते.  जिवंत राहण्याची शिकस्त चालली
होती. आयुष्याशी झगडून थकलेली ह्दये आता मृत्यूशी लढा देत
इथे विसावली होती. छोटया मॉनिटरमधून येणार प्रत्येक पीप््चा स्वर
मृत्यूला मागे रटून उमटत होता. रणांगणावर येणाऱ्या शस्त्रांच्या
चकमकीच्या आवाजासारखा आवाज, इथली शस्त्रे आधुनिक तंत्रज्ञान
आणि औषधशास्त्राची. लढवय्ये सगळ्या वयाचे. कुणी तरणेबांड
कुणी चाळिशीपलीकडच्या 'त्या' धोकादायक वयाचे. तर कुणी
इवलेसे. नुकतेच आयुष्य सुरु केलेले. तमाम लढवय्यांचा शत्रू मात्र
तोच. अवाढव्य, अक्राळविक्राळ, काळाकुट्ट मृत्यू ! धारातीर्थी
पडणाऱ्यांची जणू चढाओढ लागलेली. काल संध्याकाळी माझ्या
सासऱ्यांना ऑडमिट केले तेव्हा पहिल्या बेडवर कुणीतरी मुकताच
दगावला होता. रात्री उशिरा एक छोटे पिल्लू गारद झाले. आता
हूज टर्न नेक्स्ट ?</p>

<p>        चौथ्या बेडपाशी दोन हाऊस डॉक्टर्स काहीतरी बोलत उभे होते
एकाच्या हातात इंजेक्शन होते. बाजूला नर्स उभी होती. तिने
पलंगावर पाहिले. कुणी बाई होत्या. चाळीशीपलीकडल्या. स्थूल,
सावळ्या, घरकाम उरकून थकूनभागून पडल्यासारख्या दिसत होत्या
त्यांचा मॉनिटर संथ, मंद पीप् पीप् करीत होता. म्हणजे काय ? बरे
का वाईट ?</p>

<p>        तिच्या सासऱ्यांच्या पलंगाअलिकडच्या आजी काल
संध्याकाळपासून समोरच्या टेबलावर डोके टेकून श्वास घ्यायचा प्रयत्न
करीत होत्या. अजूनही त्या तशाच होत्या . पेशंटना जेवायला घालतात
त्या आडव्या टेबलावर एक उशी ठेवून त्यावर डोके टेकून. त्यांचा
लढा आताही चालू होता. नाकाने जमले नाही तर तोंडाने, डोके
टेकून जमले नाही तर ताठ बसून असे त्यांचे प्रयत्न चालू होते.</p>

<p>पान नं. - 56</p>

<p>अवघे अस्तित्व एकवटून प्राण पणाला लावून त्या आपला थकला
जीव वाचवण्यासाठी अविश्रांत मेहनत करीत होत्या. अ स्ट्रगल फॉर
शिअर सर्व्हायव्हल ! शेवटी आपले आपणच आपल्यासाठी उरतो
पार एकटे असतो. हे त्यांच्याकडे बघून पटत होते. बाहेर त्यांच्या
लेकी, सुना सगळे कुटुंब जमले होते. पण जगण्याचा लढा त्यांचा
एकटीचा होता. त्यांनी एकटीने ही झुंज द्यायची होती.</p>

<p>        तिचे सासरे उजव्या कुशीवर पडून शांतपणे घोरत होते. एखाद्या
अजाण मुलासारखे दिसत होते. त्यांचे पांढरे चंदेरी केस कपाळावर
विखूरले होते. छाती संथपणे वरखाली होते होती. तिने मॉनिटर
पाहिला. चौऱ्याहत्तर-अठ्ठयाहत्तर असे आकडे बदलून बदलून उमटत
राहिले. मध्येच सासरे हलकेच खोकले. मॉनिटर एकदम उसळून पीप््
पीप्  करून किंचाळला. आकडा ऐंशीवर गेला. पुन्हा सगळे शांत
झाले. चौऱ्याहत्तर, अठ्ठयाहत्तर आणि मग तीच ती संथ पीप् पीप्
पीप्. सासऱ्यांचे सुटलेले पोट पुन्हा एकदा संथपणे वरखाली खाली होत
राहिले. ते पाहत ती तिथेच उभी राहिली.</p>

<p>        यांनी पोट कमी करावे असे आपण कितीदा नवऱ्याला
सांगितले ? सुरुवातीला सहज ; मग रागावून, चिडून . पोटच का ?
सिगरेटी कमी कराव्या , रोजच्या पिण्याऐवजी आठवडयापासून दोनदा
प्यावे. त्यांनाही सांगून पाहिले. अर्थात,नम्रपणे अदबीने. सुनेच्या
भूमिकतून . पण काही उपयोग झाला नाही. कुणीच काही मनावर
घेतले नाही. आणि काल संध्याकाळी असे झाले. हार्ट ऑटॅक</p>

<p>पान नं. - 57</p>

<p>फॅमिली डॉक्टर म्हणाले, मॅसिव्ह इथले डॉक्टर म्हणाले, माईल्ड, हार्ट</p>

<p>
पान नं. - 58</p>

<p>ऑटॅक म्हणजे नक्की काय होते ? ह्दयाचा एक भाग निकामी
होतो. ह्दयाकडे जाणाऱ्या 'आर्टरीज' पैकी एक पूर्णपणे 'ब्लॉक'
होते. दोनच आर्टरीज उरतात. त्यावर ह्दय चालू शकते. पण त्याचा
एक भाग मेलेला असतो. . . त्यांच्या ह्दयाचा काही भाग मेलेला
आहे. . . पण तरीही ते जिवंत आहेत. जिवंत राहणार आहेत . . .
खूप दिवस.</p>

<p>        मॉनिटर पीप् पीप् पीप् किंचाळला. ती दचकून भानावर आली.
सासरे कूस बदलत होते. मॉनिटर आकडा नव्वजवर गेला. ती
घाबरून नर्सच्या दिशेने धावत सुटली. नर्स तिच्याबरोबर परतली,
तेव्हा सासरे शांतपणे डाव्या कुशीवर घोरत होते. मघाशी किंचाळलो
तो मी नाहीच अशा थाटात मॉनिटर पुन्हा तालबद्ध डोंगरांची नक्षी
उमटवीत चौऱ्याहत्तरवर स्थिरावला . होता. ती आधी
बावचळली. मग ओशाळली. नर्सला म्हणाली, """"मघाशी चांगला
नव्वदपर्यंत गेला होता. ते कूस बदलत होते. . . """"</p>

<p>        """"दॅट हॅपन्स."""" नर्स म्हणाली.</p>

<p>        """"हालचाल करताना हार्टबीट््स वाढतात, सगळ्यांचेच.""""</p>

<p>        तिला वाटले, यांनी हालचाल करूच नये. काहीच ऐकले नाही,
निदान एवढे तरी ऐकावे. किमान काही दिवस हालचालसुद्धा न
करता पडून राहावे.</p>

<p>        """"तुम्ही आता बाहेर जा. ते झोपलेत शांत."""" नर्स म्हणाली.</p>

<p>        ती नाइलाजाने वळली. शेजारच्या बेडवरच्या आजी सर्वस्व
एकवटून श्वास घेत होत्या. त्या थकेलेल्या दिसत होत्या. ती पुढे
गेली. चौथ्या बेडजवळ आता डॉक्टरांची संख्या वाढली होती, नर्स
धावपळ करीत होती. ती क्षणभर थबकली. त्या घरकाम करून
थकलेल्या गृहिणीच्या नाकावर आता ऑक्सिजन मास्क होता.
पोराबाळांचे हट्ट पुरवून , नवऱ्याच्या मागे धावपळ करून आता कुठे
श्वास घ्यायला फुरसद मिळाली होती तिला. आणि तोही घ्यायची
ताकद उरली नव्हती शरीरात. त्यासाठी डॉक्टर्सची, मास्कची मदत
घ्यावी लागत होती.</p>

<p>        """"यू प्लीज गो आऊट."""" नर्स म्हणाली.</p>

<p>पान नं. - 59</p>

<p>        ती मुकाटयाने दरवाजा उघडून बाहेर आली. बाहेरचा उकाडा
एकदम अंगावर आला. चपला घालून वेटिंगरूमच्या बाकडयावर
आपल्याजागी जाऊन बसली. शेजारची - त्या बसून श्वास घेणाऱ्या
आजीची लेक तिच्या हालचालीकडे खडबडून जागी झाली. तिच्याकडे
पाहात म्हणाली, """"काय झालं ?""""</p>

<p>        """"काही नाही. आजी ठीक आहेत. तुम्ही झोपा."""" ती हसून म्हणाली.
        """"आणि तुमचे सासरे ?""""
        """"तेही छान आहेत."""" ती म्हणाली.</p>

<p>        समोरच्या बाकावर माणूस आ वासून प्रचंड घोरत होता.
त्याची मान परत परत उजवीकडे पडत होती. मानेला हिसका बसला
की गडबडून जागा होई. आजूबाजूला ओशाळून पाही. आपण
झोपलोच नव्हतो असा आविर्भाव करून थोडा वेळ बसून राही
आणि काही क्षणात त्याच्या नकळत पुन्हा घोरू लागे.</p>

<p>        हा बहुधा त्या दाढीवाल्या सात नंबरचा नातेवाईक असावा
दोघेही मुसलमान वाटत होते.</p>

<p>        तिने पाय लांब करून एक लांबलचक जांभई दिली. आता झोप
येणे शक्य नव्हते. आठ वाजता नवरा येईल. तोपर्यंत चहासुद्धा
बहुधा मिळणार नाही. म्हणजे आणखी देन तास इथेच. असेच
बसून राहावे लागणार. अशा किती रात्री ? किती दिवस ?</p>

<p>        दरवाजातून एक तरणासा माणूस आत शिरला. तिच्याकडे पाहून
हसला. हा कोण ?</p>

<p>        """"हाऊ'ज युवर फादर ?""""</p>

<p>        """"ओह ! माय फादर इन लॉ. फाइन. थँक्यू """" ती म्हणाली.</p>

<p>        संध्याकाळी त्यांना आणलं तेव्हा मी तुमच्या मिस्टरांना भेटलो.
माझा मुलगा आत आहे. """"ही ङॅज ए होल इन हिज हार्ट.""""</p>

<p>        म्हणजे ते छोटे बाळ याचे होते तर, वेदनेचे नाते सगळ्यांचे
ओळख नाही, पाळख नाही. तुमचे कोण आहे, कसे आहे, आमचे
बरे आहे. सहज संवाद साधत होता, वेळ नाही, काळ नाही किंवा
वेळ सगळ्यांचीच आली होती. काळ कुणावर येईल याचीच वाट
पाहात इथे सर्व बसले होते. मृत्यू आमच्या आसपास फिरतो आहे.</p>

<p>पान नं. - 60</p>

<p>आम्हाला न्याहाळतो आहे. तपासतो आहे. हलक्या पावलांनी
आमच्याशी लपंडाव खेळतो आहे. कोण जाणे कुणावर पुढचे राज्य
येईल ! कोण साई सुटया म्हणेल  ? कुणाला त्याचा हात लागेल
आणि कोण आऊट होईल ?</p>

<p>        तिने दरवाजाबाहेर पाहिले. काचेतून दिसणारा छोटासा
आकाशाचा तुकडा फटफटू लागला होता. ती उठून बाहेर आली.
एक दमट चिकट दिवस उगवत होता. रस्त्यावर रहदारी सुरु झाली
होती. इथल्या जगाला आतल्या जगाचा मागमूसही नव्हता. मृत्यू हा
शब्दकोशात नसल्यासारखे हे जग धावत , पळत हसत पुन्हा एकदा
नव्याने सुरू झाले होते. या जगाला मॉनिटर लावला तर केवढा
आवाज येईल ?</p>

<p>        एक लेंगा झब्बा घातलेला हाऊस-डॉक्टर गळ्यात स्टेथॉस्कोप
घालून दार ढकलून धावत आत येताना पाहिला. थोडा वेळ
ती गवतावर नुसतीच फिरत राहिली. घामाचा एक ओघळ कानावरून
वाहत मानेवर टपकला. सकाळी सकाळी येणारा घाम . तिला खूप
पारोसे, अस्वच्छ वाटले. आंघोळ करावीशी वाटली. नवरा येऊन
जाईपर्यंत ते शक्य नव्हते. त्यानंतरही बस पकडून अर्धा तास प्रवास
करून जायचे तेव्हा घर आणि बाथरूम दिसेल. यावेळी बसमध्ये
गर्दीही खचाखच असणार म्हणजे तब्बल दहा वाजपर्यंत हा चिकट,
ओला देह घेऊन फिरत राहावे लागणार. रात्री त्या बाकडयावर
बसून डुलक्या खाताना घरचा बिछाना आठवून रडू फुटायचं बाकी
होते, इतकी रग लागली होती उभ्या शरीराला. आता बाथरूम
आठवते आहे, साबण आठवतो आहे. गरम चहा प्यावासा वाटतो
आहे. सगळे शरीराचे लाड, कोड पुरवीत, आंजारत-गोंजारत
पाळतो आपण या शरीराला पण त्याचे आतून काय होते आहे
याचा कुठे पत्ता असतो आपल्याला ? आपले सासरे पण असेच
आईंच्या आजारात रात्र रात्र सिगरेटी फुंकत हॉस्पिटलमध्ये बसून
असत. त्यावेळी त्यांची एक आर्टरी ब्लॉक होते आहे, याचा त्यांना
मागमूसही नव्हता. वर्षभरात ह्दयाचा एक भाग मेला की , त्यांचा. .</p>

<p>        दरवाजा उगडून मघाचा तो हाऊस डॉक्टर दुसऱ्या एका</p>

<p>पान नं. - 61</p>

<p>डॉक्टरबरोबर हसत, बोलत शांतपणे बाहेर येताना तिने पाहिला
तिला अचानक वाटले, आता जाऊन तास उलटून गेला. एकदा
बघून यायला हवे.</p>

<p>        आय. सी. यू. च्या शीतघरात पुन्हा तेच पीप् पीप्चे संगीत
कानावर पडले. ती एकेका बिछान्यावर नजर फिरवीत चालू
लागली. चार नंबरच्या कॉटजवळ आली आणि थबकली. त्या
गृहिणीच्या चेहऱ्यावर ऑक्सिजन मास्कऐवजी आता पांढरी चादर
होती. तिने वर मॉनिटरकेड पाहिले. कार्यक्रम संपल्यावर टी.व्ही जसा
निपचित, गपगार पडतो तसा तो निर्जीव उभा होता. त्यातली
डोंगराची चित्रे, ती पीप् पीप् तसा तो संगीत सगळेच मावळून गेले होते.
तिने वळून नर्सकडे पाहिले. नर्सने फर्रकन त्या कॉटजवळचा पडदा
ओढला.</p>

<p>        """"कुणाला आत्ताच सांगू नका. कुणी नातेवाईक येईपर्यंत बॉडी
इथं ठेवणं भाग आहे.""""</p>

<p>        ती धावतच सासऱ्याच्या पलंगाकडे गेली. ते चक्क उठून बसले
होते. चहा पीत होते . तिला एकदम हायसे वाटले. आजची सकाळ
सुंदर वाटली. आमच्यावर राज्या नव्हते आणि आम्ही आऊटही झालो
नव्हतो. मृत्यू तिकडे लांब चार नंबरवर जाऊन विसावला होता.</p>

<p>        सासरे तिच्याकडे पाहून छानसे हसले.
        """"कसं वाटतंय ?"""" तिने विचारले.
        """"छान. इतकी छान झोप कधीच लागली नव्हती. तू कधी
आलीस ?""""
        म्हणजे रात्रभर मी इथे होते हे त्यांना ठाऊकच नव्हते.
        """"आत्ताच."""" ती म्हणाली.
        """"नंदू कधी येतोय ?""""
        """"येतील इतक्यातच. """" ती म्हणाली.
        """"आणि मिरू ?""""
        """"त्या दुपारी येतील, मुले शाळेतून आल्यावर.""""
        """"तुला आज ऑफिसला नाही जायचे ?"""" त्यांनी विचारले.
        """"जाईन हे आल्यावर."""" सुनेने रजा घेतल्याचे कळले तर आपण</p>

<p>पान नं. - 62</p>

<p>फार आजारी आहोत वाटायचे त्यांना म्हणून ती खोटेच बोलली.
        """"नंदूलाही जाऊ दे ऑफिसात मी छान आहे. उद्या घरी येईन
म्हणतो."""" ते म्हणाले.</p>

<p>        तिला वाटले उतारवयात माणूस मूल होतो ते खरेच असावे.
नाहीतर हार्ट ऑटॅक म्हणजे काय प्रकार आहे हे कळण्याइतके
सुजाण ते नक्कीच आहेत.</p>

<p>        """"हाऊ आर वी धिस मॉर्निग ?"""" असे म्हणत डॉक्टर आले. ती
बाजूला झाली. डॉक्टारांनी त्यांना तपासले. नर्सशी काहीतरी खुसफूस
केली आणि म्हणाले, """"फाइन, ही इज प्रोग्रॅसिंग व्हेरी वेल.""""</p>

<p>        सासरे तिला खुणावू लागले. घरी जायच्या संबंधात डॉक्टरांना
विचार, अशा अर्थाचे हातवारे करू लागले. तिचा नाईलाज झाला.</p>

<p>        """"आम्ही घरी कधी जाऊ शकतो ?"""" तिने डॉक्टरांना विचारले.
        डॉक्टर तिच्याकडे पाहतच राहिले.</p>

<p>        """"छे छे. इतक्यात नाही. अशीच प्रगती राहिली तर उद्या आय.
सी. यू. मधून साध्या खोलीत हलवू. तिथे किमान आठ दिवस तरी
राहावे लागेल. मग बघू. पण घाई काय आहे ? आमचं हॉस्पिटल
आवडलं नाही का तुम्हांला ?"""" डॉक्टर सासऱ्यांना म्हणाले.</p>

<p>        """"आयुष्यभर धावपळ केलीत. आता जरा विश्रांती घ्या. तुम्हाला पेपर
हवाय का वाचायला ? यांना पेर आणून द्या आजचा."""" डॉक्टर
तिला म्हणाले, """"जस्ट टेक इट इझी यंग मॅन. ओ. के. ?"""" असे
म्हणत डॉक्टर निघून गेले.</p>

<p>        मग तिने सासऱ्यांना पेपर आणून दिला. एक स्वत:साठीही
आणला. आणि बाहेर येऊन वाचत बसली.</p>

<p>        """"एक्स्क्यूज मी, मला जरा वरचं पान देता का, म्हणजे तुमचं
वाचून झालं असलं तर. ."""" समोरच्या बाकावरचे एक वृद्ध गृहस्थ
तिला म्हणाले. तिने मुकाटयाने बाहेरचे पान त्यांना काढून दिले.
हातात चहाचा ग्लास घेऊन एक पोऱ्या येताना तिला दिसला.
तिला एकदम उल्हसित वाटले.</p>

<p>        """"हम को चाय ला के देगा ?"""" तिने त्याला अडवीत विचारले.
        """"कितना ?"""" पोऱ्याने विचारले.</p>

<p>पान नं. - 63</p>

<p>""""दो लाना."""" ती समोरच्या गृहस्थांकडे पाहात म्हणाली. ते
त्यांच्या जाड भिंगांच्या चष्म्यातून हातातला पेपर वाचण्यात गढून
गेले होते.</p>

<p>        चहावाला चहा घेऊन आला. तिने एक कप त्यांना द्यायला
सांगितला. पोऱ्याने त्यांना """"चाय साब"""" म्हटले तर ते """"मी नाही
सांगिलला."""" असे पेपरात तोंड ठेवूनच म्हणाले.</p>

<p>        """"घ्या ना. मी मागवलाय."""" ती म्हणाली. जाड भिगांतून
अधिकच मोठे दिसणारे त्यांचे डोळे तिच्यावर रोखले.</p>

<p>        """"कशाला ? माझा झालाय."""" ते म्हणाले. त्यांच्या आवाजात एक
जरब होती. ती अवघडली. मग म्हणाली, """"आणखी एक घ्या.""""</p>

<p>        त्यांनी कप हातात घेतला. वर्तमानपत्र बाजूला ठेवून दोन हातात
कप धरून ते फुर्र फुर्र आवाज करीत चहा पिऊ लागले. पिऊन
संपल्यावर त्यांनी खिशातून एक रूपया काढला.</p>

<p>        """"पैसे दिलेत मी."""" ती त्यांना म्हणाली. त्यांनी रूपया परत
खिशात टाकला. मग म्हणाले, """"कितीही प्यायलो तरी चहा कधी
नकोसा वाटत नाही.""""</p>

<p>        ती हसली. पुन्हा पेपर वाचू लागली.
        """"तुमचं कोण आहे आत ?"""" त्यांनी विचारले.
        """"सासरे."""" ती म्हणाली.
        """"काय वय ?""""
        """"चौऱ्याहत्तर.""""
        """"हं. . .म्हणजे काही खरं नाही. . .""""</p>

<p>        तिला चक्क त्यांचा राग आला. हे काय बोलणं झालं ? तेही
चहाच्या बदल्यात.</p>

<p>        """"माझी एकोणऐंशी झालीय."""" ते म्हणाले.
        """"आला दिवस शेवटचा म्हणून साजरा करायचा. बोनसच हा
माझी बायको आहे आत.""""</p>

<p>        ती थक्क झाली. एकोणऐंशी वर्षाचे ते दिसत नव्हते.
        अण्णा यांच्यापुढे फारच मोठे दिसतील. तिला वाटले.
        """"वाटत नाही पण. . ."""" ती मनापासून म्हणाली.</p>

<p>पान नं. - 64</p>

<p>""""साठीनंतर सगळेच असं म्हणतात. जरा बरं वाटावं म्हणून. . """"
ते हसत म्हणाले.
        """"""""नाही खरंच वाटत नाही."""" ती मनापासून म्हणाली.
        """"माझी बायको सत्तरीची आहे. चार नंबरवर. . .""""
        तिला बसल्या ठिकाणी कसेसेच झाले. चार नंबरला तोंडावरून
घातलेली ती पांढरी चादर डोळ्यांसमोर आली.</p>

<p>        त्याही सत्तरीच्या अजिबात वाटत नव्हत्या.</p>

<p>        """"जुनी हाडं. . . रेशनच्या धान्याने पुढे सगळी वाट लागली
तीही अजून टुमटुमीत आहे. सगळं काही खाते. अगदी कुपथ्य करते
म्हणा ना आणि भरपूर काम करते. लेकाच्या घरी राहायचे म्हणजे
करायलाच हवीत. सुन नोकरीवर जाते. परवा अचानक तब्बेत
बिघडली. जुना मधुमेह आहेच. तो बळावला. तोंडावर ताबा नाही,
बोलण्यातही आणि खाण्यातही. . """" ते हसत म्हणाले.</p>

<p>        तिला म्हणावेसे वाटले, तुमची बायको आता नाही. आत नाही.
या जगात नाही. कुठेच नाही. ती असायची संपली आहे. ती मेली
आहे पहाटेच.</p>

<p>        """"या आधीही दोनदा इथेच ऑडमिट केली होती. दोनतीन
दिवसांत सुधारते. मग पुन्हा सगळे खाऊपिऊ लागते आणि साखर
वाढते. किती सांगितले तरी ऐकत नाही. म्हणते, तुमचा जीव तुम्ही
सांभाळा. मी काय वाटेल ते करेन. हट्टी स्वभाव. स्वभावाला औषध
नाही. मधुमेहाला आहे. यावेळी बी. पी. ही वाढलंय. पण होईल बरी
पहायचं आता किती दिवस लागतात. ते घरी सगळंच अडतं ना ती
नसली की, स्वयंपाकपाणी, पोरांच्या शाळा. . """"</p>

<p>        ते बडबडत राहिले. ती सुन्न होऊन ऐकत राहिली.</p>

<p>        """"मुख्य म्हणजे मी एकटा पडतो. .  इतकी सवय झाल्येय
तिची आता. . काहीच जमत नाही. या वयाला आलं की
आयुष्याचे सगळे अर्थ बदलतात. पार बदलतात. पार उलटे होतात. इतकी वर्षे
मोठया ऐटीत जगलो. ती मुलबाळं सगळी माझ्यावर अवलंबन
आहेत या भ्रमात, मुलं मोठी झाली. आपआपल्या व्यापात , संसारात
गुंतली. ती माझ्यात , मुलांच्यात गुरफटली आहे. तरीही स्वतंत्र आहे.</p>

<p>पान नं. - 65</p>

<p>वेळ कसा घालवायचा हा प्रश्न तिला कधीच पडत नाही. मी मात्र
तिच्यावर पूर्णपणे अवलंबून आहे. तिच्याशिवाय माझं काहीच होत
नाही. आंघोळीला जायचं तर पाणी, कपडे काढून द्यायला ती.
देवळात जायचं तर रस्ता क्रॉस करून द्यायला ती. माशातले काटे
काढून द्यायला ती. .""""</p>

<p>        तिच्या डोळ्यासमोर तिचा नवरा आला. त्याला अशी उपरती
होईल तेव्हा मीही मरून गेलेली असेन का ?</p>

<p>        दरवाजातून साक्षात नवरा आत शिरताना दिसला. तिला वाटले,
झाले ! हा शंभर वर्षे जगणार. म्हणजे माझी गत आतल्या त्या
बाईसारखी.</p>

<p>        """"कसे आहेत ?"""" नवऱ्याने विचारले.
        """"बरे आहेत. डॉक्टर म्हणाले असेच राहिले तर उद्या साध्या
खोलीत हलवू.""""</p>

<p>        """"मग त्या खोलीचं बुकिंग केलंस का ? काय दर आहेत ?
सेकंड क्लास बघ . तिथे किती दिवस राहावं लागेल ?""""</p>

<p>        """"सात-आठ. ."""" ती म्हणाली.
        """"मग तू उद्या सरळ रजेचा अर्जच पाठवून दे. .मला रजा
घेणं शक्य नाही. इनस्पेक्शन चालू आहे. . .हे दुखणं लांबणार. .
. खर्चही होणार. """"</p>

<p>        दोघेही आत गेले. सासरे लेकाला पाहून खूष झाले . ती
कोपऱ्यात उभी राहून चार नंबरच्या दिशेने पाहत राहिली. इतक्यात
फॅमिली डॉक्टर आले. कसं काय म्हणून पेपर्स पाहू लागले. सासरे
म्हणाले,  छान आहे. पेपरही वाचला. आता लवकर घरी पाठला.""""</p>

<p>        फॅमिली डॉक्टर नापसंती दाखवत म्हणाले, """"पेपर कुणी दिला
वाचायला ?""""</p>

<p>        सासरे म्हणाले """"हिने.""""
        """"पेपर का दिला ? ही शुडन्ट रीड एनीथिंग. . .""""</p>

<p>        ती घाबरली नवऱ्याची नजर चकवत म्हणाली, """"डॉक्टर राव
म्हणाले द्या म्हणून. . .""""</p>

<p>        फॅमिली डॉक्टर गप्प झाले. परत देऊ नका म्हणाले. नवरा</p>

<p>पान नं. - 66</p>

<p>तिच्याकडे इतका घाणेरडा चेहरा करून पाहत राहिला की तिला
वाटले आता रडू येणार.</p>

<p>        """"तुला इथे ठेवण्यात चूक केली."""" नवरा म्हणाला आणि गेला.</p>

<p>        ती बाहेरच्या बाकडयावर बसून राहिली. चार नंबरचे नातेवाईक
हळूहळू जमू लागले होते. दबक्या, हलक्या सुरात रडत होते. तिला
वाटले, मी मेल्यावर माझ्या पोराबाळांनी असेच सांभाळून सावरून
रडावे. आकांत करू नये.</p>

<p>        बाईचा नवरा बाकडयावर बसून होता, न रडता , न बोलता
अधून मधून रडणाऱ्या नातीला, लेकाला चक्क थोपटून समजूत
घालीत होता.</p>

<p>        मग ऑम्ब्युलन्स आली. स्ट्रेचरवरून बाईंना आय. सी. यू. मधून
बाहेर आणले. पांढरा कपडा डोक्यावरून आता बाजूला केला होता. त्या
थकलेल्या झोपलेल्या दिसत होत्या. वाटत होते. एकदम उठून
बसतील आणि म्हणतील, """"स्वयंपाकाला लागायला हवे. . .""""</p>

<p>        बाईंना ऑम्ब्युलन्समध्ये ठेवले. एक तरणासा मुलगा बाईंच्या
नवऱ्याजवळ आला. """"आजोबा, चला."""" म्हणाला.</p>

<p>        ते उठायचा प्रयत्न करू लागले. मुलाने त्यांना हात दिला.
आधी एक, मग दुसरा. पण त्यांना उठता येईना. ते धडपडत राहिले.
केविलवाणे, पोरके, लहानग्या पोरासारखे ते आता दिसत होते. ती
उठली त्यांच्या जवळ गेली. तिने त्याच्या दोन्ही खांद्याखाली हात
नेले.</p>

<p>        """"उठा."""" ती त्यांना उठवत म्हणाली. नातवाने एकदा तिच्याकडे
पाहिले. मग आजोबांचे कृश , अशक्त ओझे आपल्या खांद्यावर
पेलले. त्याच्या शरीरावर भार टाकून ते थरथरत उभे राहिले.</p>

<p>        तिच्याकडे पाहत म्हणाले, """"माझी काठी गेली. . .""""</p>

<p>        ती उभीच राहिली. काय बोलावे सुचेना. रडूही येईना.</p>

<p>        """"ती गेली. माझी बायको. पहाटेच. मघा तुमच्याशी बोलत होतो
तेव्हा ती गेलेलीच होती. मला सांगितले नाही कुणी. पोरांची वाट
बघत राहिले डॉक्टर्स.""""</p>

<p>        """"मला माहीत आहे."""" ती म्हणाली.</p>

<p>पान नं. - 67</p>

<p>""""थँक्यू, तुम्ही माझ्याशी गप्पा मारीत राहिलात त्यामुळे माझा
वेळ बरा गेला. चहाबद्दल थँक्स. एकदा घरी या. चहा घ्यायला.
ती छान चहा करायची. आता दुसरं कुणीतरी देईल. . .या पण
तुम्ही. . .""""</p>

<p>        """"येईन. . ."""" ती म्हणाली.</p>

<p>        ते नातवाबरोबर वळले. ती त्यांच्यबरोबर चालत बाहेर गेली. ते
मारुतीत बसले. गाडी चालू झाली. ते खिडकीतून तिला टाटा करीत
राहिले गाडी वळणावर अदृश्य झाली, तशी ती मागे वळली.</p>

<p>        आत येताना तिला वाटले, किती सहज मान्य करतात माणसे
माणसांचा मृत्यू ? आता बायकोबद्द्ल वर्तमानकाळात बोलत होते.
लगेच त्याचा भूतकाळ झालाही. ती तर पहाटेच भूतकाळ झाली.
होती. प्रश्न फक्त माहीत असण्याचा किंवा नसण्याचा असतो बहुधा
तेवढाच फरक असतो का जीवन आणि मृत्यूत ?</p>

<p>        अचानक भानावर आल्यासारखी ती धावत सुटली. आय. सी.
यू. तल्या नऊ नंबरच्या कॉटपर्यंत अंतर तिला मैलामैलाचे भासले.
सासऱ्याच्या बेडपर्यंत ती पोहोचली.</p>

<p>        डोळे फाडून पाहत राहिली.
*
----------------------------------------------------------------
Cont'd"",0",0
</p></body></text></cesDoc>