<cesDoc id="mar-w-literature-humour-hu00c004.mal" lang="mar">
<cesHeader type="text">
<fileDesc>
<titleStmt>
<h.title>mar-w-literature-humour-hu00c004.mal.txt</h.title>
<respStmt>
<respType>Electronic file created by</respType>
<respName>Central Institute for Indian Languages, Mysore</respName>
<respType>transferred into Unicode and CES format by</respType>
<respName>"Unicodify" software by Andrew Hardie</respName>
</respStmt></titleStmt>
<publicationStmt>
<distributor>UCREL (on behalf of CIIL)</distributor>
<pubAddress>Department of Linguistics, Lancaster University, Lancaster, LA1 4YT, UK</pubAddress>
<availability region="WORLD"></availability>
<pubDate>03-07-25</pubDate>
</publicationStmt>
<sourceDesc>
<biblStruct>
<monogr>
<h.title>चौथे चिमणराव</h.title>
<h.author>चि.वि. जोशी</h.author>
<imprint>
<pubPlace>India</pubPlace>
<publisher>Unknown - पुनर्मुद्रणे .</publisher>
<pubDate>1982</pubDate>
</imprint>
<idno type="CIIL code">hu00c004.mal</idno>
</monogr></biblStruct></sourceDesc></fileDesc>
<encodingDesc>
<projectDesc>Text collected for the CIIL Corpus, subsequently integrated into the EMILLE/CIIL Monolingual Written Corpora.</projectDesc>
<samplingDesc>Simple written text only has been transcribed. Diagrams, pictures and tables have been omitted. Sampling begins at page सौ. सविता 慭⵲⵷楬整慲畴敲栭浵畯⵲畨〰っ㐰洮污찀쳌쳌쳌쳌쳌쳌쳌쳌쳌쳌쳌쳌쳌쳌쳌쳌쳌쳌쳌쳌쳌쳌쳌쳌쳌쳌쳌쳌쳌쳌쳌쳌쳌쳌쳌쳌쳌쳌쳌쳌쳌쳌쳌쳌쳌쳌쳌쳌쳌쳌쳌쳌쳌쳌쳌쳌쳌쳌쳌쳌쳌쳌쳌쳌쳌쳌쳌쳌쳌쳌쳌쳌쳌쳌쳌쳌쳌쳌쳌쳌쳌쳌쳌쳌쳌쳌쳌쳌쳌쳌쳌쳌쳌쳌쳌쳌쳌쳌쳌쳌쳌쳌쳌쳌쳌쳌쳌쳌쳌쳌쳌mar-w-literature-humour-hu00c004.mal.</samplingDesc>
<editorialDecl><conformance level="1"></conformance></editorialDecl>
</encodingDesc>
<profileDesc>
<creation><date>03-07-25</date></creation>
<langUsage>Marathi</langUsage>
<wsdUsage>
<writingSystem id="ISO/IEC 10646">Universal Multiple-Octet Coded Character Set (UCS).</writingSystem>
</wsdUsage>
<textClass>
<channel mode="w">print</channel>
<constitution type="composite"></constitution>
<domain type="public"></domain>
<factuality type="fact"></factuality>
</textClass>
<translations></translations>
</profileDesc>
<revisionDesc></revisionDesc>
</cesHeader>

<text><body>

<p>एकूण पाने :- 16
FROM 70 TO 97</p>

<p> पान नं .  70</p>

<p> करून पीएच .  डी .  मिळवता येईल ,  अशीही आशा मनाला चाटून गेली .
 तो गृहस्थ बाडातला एक अभंग वाटीत होता -</p>

<p> दुष्काळ पडला ,  आला कोरड्या नदीतुनी लोंढा ।
 आकाशातूनी झाड उगवले
 पृथ्वीत त्याचा शेंडा ।।
 नामा मिरवी जगतितलावर
 हरिभक्तीचा झेंडा ।</p>

<p> हा भाग तो घोळून घोळून आपल्याशी मोठ्याने म्हणत होता .  आता मात्र
 माझ्याने राहवेना .  मी त्याच्याजवळ आणखी सरकलो आणि म्हणालो ,   ` माफ
 करा हं ,  साहेब -  '
  ` काय माफ करा  ?  तुम्ही काय माझं घोडं मारलं आहे म्हणून तुम्हांला माफ
 करायचं  ?  '
  ` परिचयाशिवाय आपल्याजवळ येऊन बसलो .  '  -  मी .
  ` त्याला काय हरकत आहे  ?  ही काही माझी खाजगी खोली नाही ,  आमरस्ता
 आहे .  '
  ` ते खरं ,  पण शिष्टाचाराप्रमाणं माफी मागणं अवश्य आहे आपण जो अभंग
 आता वाचीत आहा तो नामदेवाचा आहे असं दिसतं .  '  -  मी .
  ` दिसतं काय  ?  नामदेवाचाच आहे हा अभंग .  '  तो जोराने म्हणाला .
  ` मी नामदेवाची सगळी गाथा दोनतीन वेळ वाचली आहे ,  पण तिच्यात हा
 अभंग मला कधी आढळला नाही .  '  -  मी .</p>

<p>  ` हेः  !  '  हेटाळणीच्या स्वरात उद््गार काढून तो म्हणाला ,   ` नामदेवाची सगळी
 गाथा किंवा नामदेवाचा सगळा गाथा अद्याप प्रसिद््दच झालेला नाही .  अहो मिस्टर ,
 नामदेवाच्या काव्याची संख्या किती अफाट असली पाहिजे याची तुम्हाला कल्पना
 आहे काय  ?  त्यानं शतकोटी अभंग रचण्याची प्रतिज्ञा केली होती .  भक्तविजयाच
 महिपती म्हणतो ,   ` चाळीस लक्ष चवऱ्याण्णव कोटी  !  नव लक्ष लळीत आले
 शेवटी  !  मग नामदेव आला वौकुंठी । स्वकीय इच्छे करोनिया  ।। '   -  याचा अर्थ
 असा की ,  94 कोटी 49 लक्ष इतके अभंग नामदेवानं रचले आहेत .  '
 मी आठवून आठवून म्हणालो ,  नामदेवाच्या शतकोटीची साक्ष तुकारामा -</p>

<p> पान नं .  71</p>

<p> नंही दिली आहे .  ` नामदेवे केले स्वप्नामाजी जागे । सवे पांडुरंगे येऊनिया । '  ह्या
 अभंगात शेवटी असं म्हटलं आहे -   ` प्रमाणाची संख्या सांगे शत कोटी । उरले
 ते शेवटी लावी तुका ।  ' नामदेवाची प्रतिज्ञा अपूर्ण राहिली .  म्हणून आपण ती
 पूर्ण केली असं तुकाराम म्हणतो .  यावरून शत कोटीच्या ऐतिहासिकत्वाबद्दल
 शंका राहात नाही .  तरी पण नामदेवापासून तुकारामापर्यंतचे ,  तीनशे वर्षात
 वेगळाल्या कवींनी केलेले ,  सगळे अभंग एकत्र केले तरीसुद््धा त्यांची संख्या शत -
 कोटींच्यी हजाराव्या अंशाइतकीसुद््धा भरणार नाही  !  '</p>

<p> खिशातून पेन्सिल काढून जवळच्या बाडावर आकडेमोड करीत तो म्हणाला ,
  ` हे पाहा चिमणराव '
 माझे नाव त्याला माहीत असलेले पाहून मी दचकलो  !  आणि माझे दचकणे
 ध्यानात येऊन तो म्हणाला ,   ` अहो मी तुम्हांला चांगला ओळखतो .  तुमच्या
 आत्मचरित्राची तीन चार पुस्तकं मला जवळजवळ पाठ झाली आहेत .  ही लोक
 विलक्षण व्यक्ती कोण आहे हे मित्रांच्या सहाय्यानं वारंवरा मी पाहून ठेवलं आहे
 म्हणूनच मनमोकळेपणानं तुमच्याशी बोलत आहे .  कोटी ह्या शब्दाचा अर्थ शंभर
 लक्ष असा तरी असेल किंवा शतकोटी ही संख्या अभंगाची नसून कडव्यांची
 असेल .  '</p>

<p> मी जरी काव्य किंवा अध्यात्मज्ञान यांत प्रवीण नसलो तरी अकाउंट ऑफिसात
 जन्म गेल्याने आकड्यांची गडबड जेथे असेल तेथे माझी बुद््धी एकदम लखलखाट
 करिते .  मी म्हणालो ,   ` कडव्यांची संख्या घेतली तरी शतकोटींतून किती कमी
 होणार  ?  लहानमोठ्या अभंगांची सरासरी काढल्यास एका अभंगात पाच कडवी
 बसतील ,  म्हणजे वीस कोटी अभंग तरी असले पाहिजेत ना  ?  मी म्हणतो ,  अक्षर -
 संख्या घ्या .  कडव्यात सरासरीनं 40 अक्षरं असतात असं धरू या .  म्हणजे
 प्रत्येक अभंगात 200 अक्षरं झाली .  शंभर कोटीला दोनशेनी भागा पाहू .  '</p>

<p> त्या गृहस्थाने भागाकार करून 50 लक्ष हे उत्तर काढले .  मी म्हणालो ,
  ` पन्नास लक्ष हा जरी प्रतिज्ञेचा आकडा काढला तरी प्रतिज्ञा अल्पांशानंही तडीला
 गेलेली नाही नामदेवाने केलेले अभंग धरूनसुद््धा पुरते पाच हजार होत नाहीत .  इतर
 सगळ्या कवींचे एकत्र केले तरी दहा हजारांची बेरीज होत नाही .  मग 50 लाख</p>

<p> पान नं .  72</p>

<p> लांबच राहिले .  आमच्या या साधुसंतांना गप्पा मारायची अन् अतिशयोक्ती
 करायची आवडच फार  !   '
 तो गृहस्थ रागावून उभा राहून हातवारे करून म्हणाला ,   ` नो नो नो नो !
 आमच्या साधुसंतांची अशी निंदा मी ऐकून घेणार नाही .  माझा पक्का विश्वास
 आहे की ,  हे अभंग हरवले असले पाहिजेत आणि ते शोधून काढणं प्रत्येक विद्वान
 म्हणविणाऱ्या महाराष्ट्रीयाचं अन् महाराष्ट्रीय म्हणविणाऱ्या विद्वानाचं कर्तव्य आहे .  '
  ` अहो साहेब ,  मी महाराष्ट्रीय असलो तरी विद्वान नाही .  आता जी थोडीशी
 नावं उच्चारली ती प्राध्यापक हवालदारांच्या सहवासाचं फळ आहे .  '
 तो पुढे म्हणाला ,   ` माझं म्हणणं खोटं असलं तर खुशाल मला जोड्यांनी मारा .
 मिस्टर चिमणराव ,  दक्षिण हिंदुस्थानातल्या द्रवीड पंडितांनी उत्तर हिंदुस्थानात
 रचल्या गेलेल्या कौटिलीय अर्थशास्त्र किंवा भासाची नाटकं यांसारख्या ग्रंथांचा
 शोध लावावा आणि आम्ही महाराष्ट्रीयांनी ,  काहीएक न करता ,  परप्रांतातले
 लोक आम्हांला आदरानं किंवा प्रेमानं वागवीत नाहीत म्हणून ठणठण करीत
 राहावं ,  ही किती लाजिरवाणी गोष्ट आहे ?  हे पहा मिस्टर जोग ,  आतापर्यंत
 बाष्कळ ग्रंथ लिहून लोकांचं मनोरंजन पुष्कळ केलंत ,  पण यापुढं तरी ती टिंगल -
 बाजी सोडून काही तरी सीरियस  ( गंभीर )  विषय हाताळलात तर तुमच्या
 जन्माचं सार्थक होईल .  '</p>

<p> त्याचे म्हणणे चुकीचे नव्हते .  पीएच . डी .  च्या प्रबंधाला उपकारक
 अशीच घटना दैवाने जमवून आणिली होती .  ह्या मनुष्याची भेट हे माझ्या
 संसोधनकार्याचे प्रसादचिन्हच आहे अशी मनोमन साक्ष मला पटली .  नामदेवाचे
 हे हरवलेले अभंग शोधून काढावयाचे आणि सर्वोच्च पदवी पटकवावायची असा
 निश्चय करून मी त्याला विचारलं ,   ` साहेब ,  आपलं नाव मला कळेल काय  ?  त्याच -
 प्रमाणं आपलं राहण्याचं ठिकाण कळेल तर आपल्याकडे येऊन ह्यापूर्वी हरवलेल्या
 आणि आता सापडलेल्या अभंगांच्या संशोधनात आपल्याला मी मदत करीन .  '</p>

<p> माझे मागणे ऐकून तो दीर्घकाळ विलक्षण हसत राहिला .  हसणे ओरसल्यावर
 तो म्हणाला ,   ` माझ्या नावाशी काय करायचं आहे तुम्हाला  ?  व्हॉटस् इन नेम  ?
 असं शेक्सपियरनं म्हटलं आहे .  तरी पण सगळं नाव न सांगता इतकंच म्हणतो
 की ,  मला  ` नाना '  म्हणत जा झालं झालं  !  आता माझं राहण्याचं ठिकाण म्हणाल तर
 असं आहे की ,  तिथं कोणी येऊन मला भेटावं अशी माझी इच्छा नाही .  बाकी</p>

<p> पान नं .  73</p>

<p> माझ्या संशोधनाचं श्रेय उपटायचा तुमचा विचार मी ओळखला आहे ,  वस्ताद  !  '
  ` नाना ,  तसे भिऊ नका .  मला जर संशोधनात यश मिळालं तर तुमचा अर्धा
 वाटा मान्य केल्याशिवाय मी राहणार नाही .  तुमच्यापासून लपवून ठेवीत नाही
 काही ,  पण ह्या संशोधनावर पीएच . डी . ची डिग्री मिळेल अशी मला आशा
 आहे .   '  मी आर्जवाने बोललो .</p>

<p>  ` माझा अर्झा वाटा तुम्ही मला देणार ,  म्हणजे पीएच .  हे पहिलं अक्षर
 तुम्ही आपल्याला ठेवणार न् डी मला देणार की काय  ?  डी हा असला संक्षेप
 आहे माहीतच असेल तुम्हाला  ?  '
 डी हे इंग्रजी अक्षर डॅम ह्या शिवाची निर्देश करण्यासाठी वापरले जाते .
 इंग्रज अधिकाऱ्याच्या हाताखाली काम केलेल्या मला ते चांगलेच माहीत होते .</p>

<p> मी हसत म्हणालो ,   ` मी तुम्हाला डॅम करणार नाही ,  अगदी कृतज्ञतापूर्वक
 तुमच्या ऋणाचा निबंधाच्या प्रस्तावनेत निर्देश करीन .  तुमचे हे नवीन अभंग
 भाषेच्या ,  अर्थाच्या अन् इतिहासाच्या दृष्टीने तपासावे लागतील .  ज्या बाडात ते
 लिहिले असतील त्याचा कागद किती जुना आहे ,  अक्षरवटिका कोणत्या काळजी
 आहे हे शोधावं लागेल .  '   - मी .</p>

<p> नाना तिरस्काराने हसून म्हणाले ,   ` अरे वा ,  चिमणराव ,  इतकी विद्वत्ता तुम्ही
 केव्हा संपादना केली  ?  आम्ही समजतो होतो की तुम्ही केवळ एक गंमतीच्या
 गो , ्टी सांगून लोकांचं मनोरंजन करणारे कथाकथक आहा .  आता आपला पेशा
 बदलायचा विचार आहे वाटतं  ?  '</p>

<p>  ` हो .  .  प्रोफेसर हवालदारांनी ह्या बाबतीत मला थोडंसं ज्ञान करून दिलं आहे
 आणि त्यांच्याच नेतृत्वाखाली पीएच . डी . चा अभ्यास करायचं मी ठरविलं आहे .
 म्हणून विचारतो ,  माझ्या स्वाधीन मूळचं बाड कराल काय  ?  '  मी लाडागोडीने
 विचारलं .
  ` नो नो नो नो  !  '  मघासारखा आवेशयुक्त नकार देत तो म्हणालो ,   ` चोराच्या
 हाती जामदारखान्याच्या किल्ल्या देण्याइतका हा नाना वेडा नाही .  मी पाच
 दहा अभंग माझ्या अक्षरानं लिहिलेले तुम्हांला वाचून दाखवत जाईन ,  ते तुम्ही
 उतरून घ्या ,  अन् त्यांची भाषेच्या ,  अर्थाच्या ,  इतिहासाच्या दृष्टीनं छाननी करा .
 हजार - पाचशे अभंगाची तुम्ही केलेली छाननी मला पसंत पडली तर मूळचं बाड
 किंवा जो काय उगम असेल तो तुम्हाला दाखवीन .  '</p>

<p> पान नं .  74</p>

<p> ह्यानंतर आमची याबाबत बरीच वाटाघाट झाली ,  नानांनी अभंग म्हणून
 दाखविले आणि मी ते उतरून घेणे ,  त्यांची छाननी करून दुसऱ्या दिवशी नानांना
 ती सांगणे ह्या सगळ्या उद्योगाला ती पुलाच्या काठावरची जागा अनुकूल नव्हती ,
 म्हणून असे ठरले की ,  संध्याकाळी नानांनी मजकडे यावे आणि मला थोडेसे अभंग
 उतरून द्यावे .  नंतर मी त्यांना आणि त्यांच्या सोबत्याला बसमद्ये बसवून त्यांची
 रवानगी करावी दोघांचे दोन्ही वेळचे बसभाडे मी द्यावयाचे .</p>

<p> आमची भेटीच्या पहिल्या दिवशी त्यांनी आपल्या बाडातून पाच अभंग मला
 उतरून दिले .  प्रोफेसर हवालदारांनी ते वाचून असे मत दिले -   ` ह्या अभंगांच्या
 मजकुरावरून ते नामदेवाचे असतील असे आपल्याला वाटत नाही .  त्यात रचनेच्या
 चुका आहेत '  तथापि आणखी चार दिवस ह्या कथितलेखनाचा प्रयोग चालू
 ठेवायचा असे मी ठरविले .  दुसऱ्या दिवशीचे काम झाल्यावर मी नानांना म्हटले ,
  ` नाना काय घेता  ?  '  थंड सरबत देऊ का चहा - कॉफी यांपैकी काही उष्ण पेय
 करायला सांगू  ?  '
  ` असं करा ,  प्रथम थंड पेय लवकर तयार होईल ते द्या आणि मग उष्ण घेऊ
 तयार झाल्यावर .  उन्हाळ्याच्या दिवसांत शीत पेयानं बरं वाटतं ,  पण शीताची
 बाधा होते ,  म्हणून त्याच्यावर उष्णाचा मारा केलेला बरा .  '  जरा हसत नाना
 म्हणाले .  मी बर्फ घालून सरबत स्वतः तयार केले .  उन्हाळ्याच्या दिवसांत निर्वात
 शिशित रत्तलभर बर्फाचे खडे ठेवण्याचा माझा प्रघात होता ,  त्याबरोबरच चहा
 तयार करण्याला सौ .  ला सांगितले .</p>

<p> नाना लगेच सरबत प्याले नाहीत .  त्यांनी ते तसेच राहू दिले आणि गरम चहा
 आल्यावर स्वयंपाक्यास सांगितले ,   ` एक लहानशी पातेली आणून दे '  .  स्वयं -
 पाक्याने ती आणऊन दिल्यावर नानांनी सरबत आणि चहा यांचे मिश्रण केले व
 ते पिण्यास आरंभ केला .
  ` हे हो काय ,  नाना  ?  थंड सरबत आणि चहा यांचे मिश्रण केले व
 ते पिण्यास आरंभ केला .
  ` हे हो काय ,  नाना  ?  थंड सरबत अन् उष्ण चहा एकात कशाला मिसळ -
 लीत  ?  '  -  मी .
  ` अहो ,  समशीतो , ्ण होण्याकरिता .  नागी तरी उदरात ती दोन्ही एकच व्हायची .
 त्यापेक्षा आपणच अगोदर ती एक करून उदरात लोटलेल काय वाईट  ?  '
 नानांच्या ह्या कृतीमुळे ह्या स्वारीचे डोके ठिकाणावर नसल्याची मला शंका
 आली .  गृहस्थ आपले संपूर्ण नाव किंवा पत्तादेखील सांगायला तयार होत नाहीत</p>

<p> पान नं .  75</p>

<p> ह्याचाही मला अचंबा वाटला .  आम्ही अगोदरचे अभंग वाचून त्याचा अर्थ लाव -
 ण्याच्या प्रयत्नांत असता नानांचा शिपाई आला आणि साडेसात वाजून गेल्याची
 जाणीव त्याने करून दिली .  मी बसच्या भाड्याचे पैसे शिपायाजवळ दिले
 आणि ते दोघे त्यांच्या निवासस्थानाकडे परत गेले .  नवीन मिळालेले अभंग
 हवालदारांना दाखविणे योग्य झाले असते ,  परंतु ते कोठे तरी व्याख्याने
 झोपडण्यास गेले होते .</p>

<p> पुढल्या दिवशी संध्याकाळी नानांची स्वारी परत आली .  आज ते फारच
 खुषीत होते ,  आणि त्यांनी नवीन काळा सूट परिधान केला होता .   ` जोगसाहेब ,
 आजचे अभंग फारच मौल्यवान आहेत .  '
  ` कोणत्या दृष्टीनं मौल्यवान म्हणता  ?  '  मी विचारले .
  ` नामदेवाच्या प्रतिभेचा उत्कर्ष त्यात दिसून येतो .  '  अशा अर्थाचे इंग्लिश
 वाक्य झोकून देऊन ,   ` घ्या उतरून .  उतरून घेतल्यावर तुमच्याही लक्षात येईल
 की नामदेव हा केवळ संतकवी नसून एक ईश्वरी देणगी लाभलेला थोरकवी
 होता .  हं ,  गो ऑ .  .  .</p>

<p> मी उतरून घेऊ लागलो .
  ` नटिका हा लोक ,  लटिका संसार
 लटकतो नर परि हव्यासें ।
 हव्यासे लटके संसारा चिटके
 भवाकाशी भटके वाघुळ जैसा ।।</p>

<p> वाघुळ तो डोके घालुनिया खाली
 दृष्ट विखरतो ऊफराटी ।
 उफराटपणे पाही भवाकडे
 नामदेवा कोंडे उमगेना ।।</p>

<p> हा अभंग कथन केल्यावर नाना त्याच्यावर भाष्य करू लागले ,   ` वटवागुळ
 जसं खाली डोकं अन् वर पाय करून आपल्याला झाडाला टांगून घेतं अन् उर -
 फाट्या नजरेनं जगाकडे पाहतं तसा मनुष्यप्राणी उरफाट्या नजरेनं ब्रम्ह्याकडे</p>

<p> पान नं .  76</p>

<p> बघत असतो .  इहलोकचा संसार लटका असून तो उभा आहे असा त्याला भ्रम
 होतो .  ह्या अभंगावरून शंकराचार्याच्या मायावादाची नामदेवाला ओळख होती
 असं अनुमान निघत नाही काय  ?  '</p>

<p> मला अभंग पाहिजे होते ,  नानांच्या भाष्याची गरज नव्हती .  पण त्यांना
 खूष करण्यासाठी ,   ` तुमचं म्हणणं विचारार्ह आहे ,  पण अर्थ मग लावीत बस् ,
 तूर्त आणखी नवीन अभंग सांगा .  '  अशी त्यांना मी विनंती केली .
 नाना म्हणाले ,   ` आता अगदी आधुनिक पद््धतीचा हा अभंग लिहून घ्या .  यात
 संभाषण आहे ,  बोध आहे आणि उत्प्रेक्षा उत्तम साधली आहे .  आणच्या संतकवीनी
 साहित्यशास्त्राचा अभ्यास केला नसून असं काव्य निर्माण केलं आहे का साहित्य -
 शास्त्रकारांनी त्यांच्या काव्यातून अवतरणं घ्यावी .  अच्छा .  घअया उतरून .  .  .</p>

<p>  ' कू कू का करूनी शिणवीसी वाया
 उगाच रे काळ्या कंठ गोड ।
 आळवोनी गड्या तया पंढरिराया
 घेई नाम काळ्या फुकाचे ते ।। '</p>

<p>  ` हा काळ्या कोण बुवा  ?  '  मी मध्येच म्हणालो .
  ` असा मध्येच अडथळा करू नका .  त्याच्या योगानं काव्याचं मर्म समजायला
 अडचण पडते .  आता तो काळ्या काय उत्तर देतो ते लिहा -   '  असे मला चापून
 नाना बाकीचा अभंग सांगू लागले ,
  ` नाही बाबा ,  उगा शिणवीत कंठा
 जगा आटापीटा उद्धारण्या ।
 आली रे आषाढी एक मासावरी
 आता पंढरपूरी जा जा तुम्ही ।
 सुचविते ऐसे काळे हे पाखरू
 भेटला सद््गुरू नामयासी ।। '</p>

<p>  ` व्हॉटा ग्रॅन्ड ऐडिया  !  '  नाना अभिमानाने बोलू लागले  -  जणू काय त्यांचीच
 ही कृती होती -   ` आषाढीच्या आधी महिनाभर कू कू करणारं हे काळं पाखरू
 कोणतं असेल असं तुम्हाला वाटतं  ?  '</p>

<p> पान नं .  77</p>

<p>  ` बहुत करून कावळ असेल .  '  मी थट्टेने म्हणालो .
  ` नॉनसेन्स  !  अहो ,  कावळा कू कू करीत नसतो ,  काव काव करीत असतो .
 हे काळं पाखरू म्हणजो कोकिळ .  पावसाळा आणि त्यातली आषाढी जवळ आली
 की हा पक्षी कू कू करायला लागतो .  आमचे प्रवृत्तिमार्गी विषयासक्त कवी कोकिळाचं
 ओरडणं वसंतागमनाचं निदर्शक समजतात .  अँ आय राइट  ?  '   -  नाना .
  ` अँबसोल्यूटली  ( अगदी )   !   '  मी म्हणालो .
  ` पण निवृत्तिमार्गी भक्तकवीनं त्याच्यावर काय कल्पना लढविली आहे पाहा .
 आषाढी एकादशी जवळ आली ,  पंढरीला चला ,  अशी सूचना वारकऱ्यांना देत
 आहे असा कवीचा आरोप कोकिळाच्या कूजनावर आहे .  काय कल्पना आहे  ?  '
 नाना उत्साहाने हातवारे करीत म्हणाले .
 मला मात्र त्यांच्यासारखा उत्साह वाटला नाही .  कोकिळाच्या आवाजाचा
 फारसा उपयोग आमच्या जुन्या संतकवीनी करून घेतला नाही ,  पण तो ह्या
 अभंगात केलेला दिसत आहे ,  म्हणून तो नामदेवाचा नसावा असा माझा तर्क
 सांगून मी म्हणालो ,   ` माफ करा नानासाहेब ,  मला तर तुम्ही दिलेल्या अभंगां -
 पैकी बहुतेक सगळे बनावट वाटतात  .  '
 माझा आरोप ऐकताच नाना एकदम खवळून गेले .   ` नीट जपून विधान
 करा ,  चिमणराव  !  नाही तर माझ्याशी गाठ आहे .  हे अभंग बनावट आहेत
 असं सिद््ध करण्याची जबाबदारी तुमच्या आहे .  सांगा ,  तुमच्याजवळ काय
 पुरावा आहे त्यांना बनावट म्हणायला  ?  '
 त्यांचा अवतार बघून मी जरा घाबरलो आणि म्हणालो ,   ` आमचे गुरू
 प्राद्यापक हवालदार यांचं असंच मत आहे .  त्यांचा जुन्या वाङमयाचा व्यासंग
 थोर आहे .  म्हणून त्यांचं म्हणणं मी शिरोदार्य समजतो .  ते म्हणतात ,  तुम्ही
 उतरून दिलेल्या अभंगांत नामदेवाची प्रासदिक वाणी प्रतीत होत नाही ,
 कल्पनाही अगदी सामान्य वाटतात ,  आणि कोणी तरी हे अभंग रचून शेवटल्या
 कडव्यात नाम्या किंवा नामदेव असी सही ठोकून दिलेली दिसते .  '
 ह्या माझ्या बोलणअयाचे नानांचे डोके भडकले .  ते शाईची दौत हातात घेऊन
 माझ्या अंगावर शाई फेकण्याचा आविर्भाव करीत म्हणाले ,   `  तुम्ही मला कोण
 समजता  ?  मी एखादा लुंगासुंगा बनावट कागद करणारा भामटा आहे की काय  ?  '
 सगळा जन्म खर्डेघाशीत अन् आपल्या मूर्खपणाच्या गोष्टी लोकांना सांगण्यात</p>

<p> पान नं .  78</p>

<p> घालवला अन् आता म्हातारपणी लागले आहात पांडित्य दाखवायला .  `
 मी त्यांची समजूत घालवण्याकरिता म्हणालो ,   ` नानासाहेब ,  असे संतापू नका .
 संशोदनकार्यात अशी विकारवशता उपयोगाची नाही .  '</p>

<p> इंग्रजी शब्दांचा भरपूर उपयोग करीत नाना रागाने म्हणाले ,   ` विकार म्हणजे
 भावना असल्यावाचून होणारं संशोधन मातीसारखं शुष्क असतं .  असल्या
 ह्दयहीन संसोधकांना कार्लाइल  ` ड्राय अँज डस्ट '  म्हणतो तुमची श्रद््धा नसेल
 तर तुम्हाला हे मी प्राप्त करून घेतलेले प्रासादिक अभंग उतरून द्यायला तुमच्या
 वडिलांचा नोकर नाही लागून गेलो .  मी उतरून दिलेले आतापर्यंतचे अभंग मला
 परत द्या नाही तर ह्या शाईनं स्नाना घालतो तुम्हाला .  '</p>

<p> माझ्यापुढे प्रश्न उभा राहिला .  त्याचा हात दरण्याचा जरी मी यत्न केला
 असता ती मला काळ्या पाण्याचे स्नान घडणे चुकत नव्हते .  सुदैवाने याच वेळी
 घराच्या दरवाज्यात कोणी तरी ,   ` जोग राहतात का हो इथे  !   '  असा प्रश्न
 केलेला ऐकून आला .  आमि क्षणार्धात चि .  राघू धाड धाड जिना चढून दापा
 टाकीत येऊन म्हणाला ,   ` आप्पा ,  तुमच्याकडे खानसाहेब आले आहेत .  '</p>

<p> खानसाहेबांतचे नाव ऐकताच नानांची स्वारी थंड पडली .  त्यांच्या रागाबरोबर
 आणि आवेशाबरोबर त्यांच्या हातातली शाईची दौत खाली गळून पडली .  हताश
 झाल्यासारखे खुर्चीवर स्वतःला आपटून घेऊन  ` डँ हिज फेस '   ( त्याचे काळे
 होवो )  अशी शिवी त्यांनी हासडली .</p>

<p> राघूच्या मार्गदर्शनाने वर आलेले खानसाहेब हे एक तरूण अधिकारी
 असावेसे वाटले .  डोकीवर टोपी नाही ,  अंगावर अर्ध्या बाह्यांचा शर्ट ,  पायांवर
 पांढरी पाटलोण ,  पावलांवर पठाणी पादत्राणे आणि छडी -  असा खानसाहेबांचा
 अवतार होता .  तोंड श्मश्रुविहिन तुळतुळीत होते .  मला पाहून विचारले ,
  ` आहात आपण श्रीयुत जोग  ?  मला आनंद वाटतो की आमचे पाल्य आहेत
 इथंच .  '  नानांकडे पाहात ते म्हणाले .  `
  ` आपण नानांच्यासाठी आला वाटतं  ?  '   -  मी .
  ` होय '  उत्तरले ,   ` ह्यांचा रोजचटा शिपाई आहे रजेवर आज ,  म्हणून मी
 स्वतः आलो आहे ह्यांना घेऊन जायला .  '
  ` ह्यांना कुठं नेणार आहा तुम्ही  ?  '   -  मी विचारलं .
  ` ओ ,  कृपा करून नका सांगू त्याला काही  !  अशा नानांच्या काकुळतीला</p>

<p> पान नं .  79</p>

<p> भीक न घालता कानसाहेबांनी मला बाजूला नेऊन सांगितलं ,   ` अहो जोगसाहेब ,
 ह्या गृहस्थांना तुम्ही ओळखलं नाही वाटतं  ?  चीफ इंजिनीयर सावनूर साहेबांचा
 हा एम् .  ए .  झालेला वडील मुलगा आहे .  बिजाऱ्याचं डोकं फिरलेलं आहे ,  अन्
 आता तो आमच्या मानसिक रूग्णालयात ठेवला आहे .  दिवसभर तो साधूचे
 फोटो समोर ठेवून त्यांचं ध्यान करतो आणि काही वेळानं आपल्याला कोणत्या
 तरी साधूचा साक्षात्कार झाला आहे असं समजून कागदावर काही तरी भरकटतो .
 हल्ली याला नामदेवाचं वेड लागलं आहे .  कागदावर कुठल्या तरी चार ओळी
 त्याला हा सांगतो .  '
  ` भले  !  अन् मी सजमत होतो ह्याला नामदेवाची एखादी जुनी पोथी सापडली
 आहे अन् तिच्यातून हा मला अभंग उतरून देत आहे .  '  मी निराशेने उद्धारलो .
  ` श्रद्धाहीन लोकांना माझं खरं वाटायचं नाही .  '  नाना म्हणाले .  खानसाहेबांनीी
 त्यांचा हात पकडला आणि माझा निरोप घेऊन ते आमच्या गराबाहेर
 पडले .  साहेबांची मोटर दाराशी उभी होती ,  तिच्यात नानाला कोंडून आत बसून
 राहिलेल्या शिपायाच्या ताब्यात देण्यात आले .</p>

<p> मोटर गेल्यावर माझी हकीगत मी माझ्या परिपाठाप्रमाणे आईला सांगितली .
 ती म्हणाली ,   ` आप्पा ,  तू पीएच . डी . ला बसणार होतास त्या एम् .  ए .  झालेल्या
 वेड्याची मदत घेऊन  !  असल्या वेड्यांच्या इस्पितळातल्या एम् . ए .  वेड्यानीसुद्धा
 तुला बनवलं त्या अर्थी पीएच . डी . ऐवजी ही हीच पदवी जयकरांनी
 तुला द्यावी असं माझं मत आहे .  '</p>

<p> पान नं .  92</p>

<p>   7 .  कालाय तस्मै नमः ।</p>

<p> मी कारकुनीच्या पेसातून ऑफिसर झाल्यानंतरची गोष्ट .  आमच्या  ` मिलिटरी
 अकाउंटस् ऑफिस '  या जुन्या नावातील मिलिटरी या शब्दाचे उच्चाटन होऊन
 तेथे  ` डिफेन्स '  शब्द आला होता .   ` मिलिटरी '  शब्दामध्ये आक्रमण सूचित
 झालेले असते म्हणून डिफेन्स अथवा संरक्षण हे नाव सैन्यखात्याला मिळाले .
 जुन्या काळी पुण्यात  ` विधवा - विवाह - प्रतिबंध - निवारक '  नावाची संस्था होती .
 तिच्या नावाप्रमाणे या खात्याला  ` परचक्र - निवारण '  असे देसी नाव अर्थवाहक
 होईल असे माझे कारकुनी डोके सांगते .</p>

<p> सैन्याच्या एका तुकडीला नदीवर पूल बांधण्याचे शिक्षण द्यावयाचे ठरले .
 दक्षिण महाराष्ट्रात पंचगंगा नदीची निवड खात्याने केली .  पुलाच्या खर्चाचा हिसेब
 ठेवण्यासाठी हाताकाली चार कारकून देऊन माझी योजना करण्यात आली .
 नियोजित पुलाच्या आसपास राहण्याची चांगलीशी जागा नसल्यामुळे तेथून
 तीन मैलांवर असणाऱ्या चंदनवाड संस्थानच्या रिकाम्या पडलेल्या गेस्ट हाऊसमध्ये
 माझी राहण्याची व्यवस्था करण्यात आली .  गेस्ट हाऊसमध्ये चार विभाग होते .
 पुलाच्या एंजिनियरांची व्यवस्था दुसऱ्या विभागात केलेली होती .  कुटुंबाला
 राहण्यासारखी ही जागा नसल्यामुळे आणि मुलांच्या सिक्षणाच्या प्रश्नामुळे ह्या
 ठिकाणी मी एकटाच राहात होतो .  स्वयंपाकाला एक परदेशी ब्राम्हण होता आणि
 सोबतीला एक चपराशी .  दुसऱ्या विभागात एंजिनीयर रेगेसाहेब होते ,  त्यांची
 मोटर होती .  चंदनवाड संस्थान जप्त होऊन दोन वर्षे झालेली होती ,  तरी तेथल्या
 गतवैभवाची काही चिन्हे पुसट रीतीने दृष्टीस पडत होती .  सरकारवाड्यावरला
 आणि नवलाईमातेच्या देवळावरला असे दोन झेंडे ,  एके काळी आपण भगव्या</p>

<p> पान नं .  93</p>

<p> रंगाचे होतो ,  अशी आठवण देत फडकत होते .  आता निरूपयोगी झालेले बंदाचे
 अंगरखे आणि पागोटी धारण करणारे वृद््ध सेवानिवृत्ती लोक गावात इकडून
 तिकडे उगीच हिंडताना दिसत .  स्वारीचा हत्ती एखाद्या म्हाताऱ्या झालेल्या गरीब
 पोळाप्रमाणे गावात हिंडून जाणायेणारापुढे सौंड उचलून भीक मागत होता .</p>

<p> चंदनवाडचे राजेसाहेब यांचा आणि माझा निकटचा संबध  होता हे मी पूर्वी
 एकदा सांगितलं होते .  कै .  ती .  श्रीमंत सकलसौभाग्यवती राणीसाहेब ह्या सौ .  च्या
 जरा लांबच्या मावशी हत्या .  आता त्या दिवगंत होऊन चारपाच वर्षे झाली
 होती .  तरीसुद््धा चंगनवाडला जाताच राजेसाहेबांची भेट घेणे हे माझे कर्तव्य होते .
 तेथे जाताच मी आपल्या चपराश्याबरोबर पत्र पाठवून सरकारच्या भेटीस
 केव्हा येऊ ,  असे विचारले .</p>

<p> त्या पत्राचे उत्तर लेखी येण्याऐवजी राजेसाहेबांचे माजी कारभारी स्वतः
 मजकडे भेटायला आले -   ` नमस्कार जोगसाहेब .  पूर्वी आपण सरकारी पाहुणे
 म्हणून सहकुटुंब इथं राहायला आला होता .  आपली व्यवस्था त्या वेळी नाते -
 वाईक मंडळीच्या निवासस्थानी केली होती आता आपण ह्या जुन्या काळच्या
 युरोपियन गेस्ट हाउसमध्ये येऊन राहिला आहा .  काप गेले नि भोकं राहिली ,
 अर्शी आता आमची अवस्था झाली आहे .  पण सवय पडली आहे विचारायचं
 म्हणून विचारतो ,  आपली सगळी व्यवस्था नीट लागलेली आहे ना  ?  '
 कारभाऱ्यांनी विचारले .
  ` व्यवस्था ठीक झाली आहे .  कुठल्याही प्रकारची कमतरता पडली तर ती
 भरून काढायला पुलाचे ठेकेदार सदासुखानी तप्तर असतात  !  '  मी उत्तरलो .
  ` आमचे सरकार सदा म्हणतातच की ,  देव नि भक्त ,  भाऊ नि बहीण ,
 ऑफिसर अन् ठेकेदार यांचंच परस्परांवर अधिक प्रेम असतं  !   '  म्हणून आपल्या
 बोलण्याला आपणच हसत कारभारी म्हणाले ,   `  क्षमा करा ,  हा विनोद झाला .
 बाकी सदासुखानी फार सज्जन माणूस ,  आणि आपली तारीफ मी काय करू  ?
 आपण इथं आल्याबरोबर सरकारना आपणहून पत्र पाठवलं .  नाही तर सरकारचे
 अंमलदार आजकाल शक्य तितक्या मार्गानी जुन्या राजेरजवाड्यांचे अपमान
 करायचाचा प्रयत्न करीत असतात .  '
 मी म्हणालो ,   ` श्रीमंतांच्या भेटीला येण्याची माझी इच्छा आहे ,  असं मी</p>

<p>
 पान नं .  94</p>

<p> कळवलंच आहे .  भेटीकरिता मी केव्हा येऊ  ?  पलीकडच्या विभागात एंजिनियर
 रेगेसाहेब उतरले आहेत ,  त्यांना देखील येण्याची इच्छा आहे .  आम्ही दोघे
 बरोबरच येऊ .  '
 कारभारीसाहेब म्हणाले ,   ` उद्या सकाळी सरकार सांगलीला कलेक्टर -
 साहेबांच्या भेटीला जाणार आहेत .  संस्थान होतं त्या वेळच्या काही जमिनी
 त्यांच्यावरची कुळं ताब्यात देत नाहीत ,  म्हणून तक्रार करण्याकरिता सरकार जात
 आहेत .  दोन दिवसांनी परत आल्यावर मी आपल्याला बोलावण्याकरिता येईन .  '
  ` राजवाड्यात कोण मंडळी संध्या आहेत  ?  '  मी चौकशी केली .
  ` कोण असायचं आहे ,  रावसाहेब  ?  आईसाहेब गेलेल्या आपल्याला माहीतच
 आहे .  युवराज दादासाहेब भारत सरकारच्या विमानदळात पायलटची उमेदवारी
 करीत आहेत .  अन् ताईसाहेब यजमानांकडे गृहकृत्य चालवीत आहेत .  त्यांचे
 यजमान कटकला कलेक्टर आहेत .  '
 मी विचारलं ,   ` नोकरचाकर मंडळी तरी बरीचशी असतील ना  ?  '
  ` अहो ,  कुठले नोकर अन् कसले चाकर  ?  सरकारनी रयतेच्या कल्याणा -
 करिता बहुतेक संपत्ती खर्च केली अन् जवळची सर्व मालमत्ता दौलतीीची ठरवून
 हिशोब चोख ठेवल्यामुळे ते सगळे पैसे नवीन सरकारनी जप्त केले .  ज्या संस्था -
 निकांनी खोटे हिशेब ठेवून संस्थानच्या तिजोरीत रूपया - आठ आणे शिल्लक
 दाखविली होती त्यांचा मात्र चांगला फायदा झाला .  प्रामाणिकपणा हा आता
 सद््गुण राहिला नाही .  '</p>

<p> मी गंभीर चेहरा करून म्हणालो ,   ` संगळं नीतीशिस्त्र आता मुशीत ओतून
 नवं घडवलं पाहिजे .  नवी मूल्यं प्रत्योक विषयात स्थापन झाली आहेत .  त्यांच्या
 कडे काण डोळा करून चालायचं नाही .  '  हे वाक्य मी कोणत्या तरी व्याख्यानात
 ऐकिले होते त्याचा उपयोग स्वतःचे महत्तव वाढविण्याकरिता केला .</p>

<p>  ` आता राजवाड्यात फक्त दोनचार विश्वासू नोकर अर्ध्या पगारावर राहिले
 आहेत  ' कारभारी म्हणआले .  यांचे नाव गुंडोपंत होते हे मला आठवले .
 दोन दिवसांनी राजेसाहेब सांगलीहून परत आल्यावर कारभारीसाहेब
 आम्हांला आमंत्रण देण्याला आले .   ` दुपारी चार वाजता चहा घेण्यासच या '
 असे रेग्यांना आणि मला आमंत्रण होते .  आमंत्रणाचा मी आभारपूर्वक स्वीकार
 केला .  इकडल्या तिकडल्या हवापाणी ,  मुलेबाळे वगैरे गप्पा झाल्यावर कारभारी -</p>

<p> पान नं .  95</p>

<p> साहेब हळूच म्हणाले ,   ` रावसाहेब ,  आपल्याला एक लहानशी विनंती करायची
 आहे .  आपण कोणता चहा घेता ते सांगण्याची कृपा व्हावी .  '
  ` त्याची माहिती कशाला  ?  मला कोणताही चहा चालतो .  '  मी म्हणालो .
  ` ते खरं ,  पण आपण जो नेहमी पीत असाल तोच आपल्याला द्यावा ,  अशी
 माहाराजांची इच्छा आहे .  '</p>

<p> मी माझ्या आवडत्या चहाचे नाव सांगितल्यावर वाईट वाटल्यासारखं करून
 च् च् करीत ते म्हणाले ,   ` हा चहा आमच्याकडे मुळीच नाही .  अहो ,  ह्या चंदन -
 वाडीचे व्यापारी हा चहा विक्रीलाच ठेवीत नाहीत .  '
  ` मी तर चारपाच दुकानांवर त्या चहाच्या नावाच्या पाट्या पाहिल्या .  खरं
 म्हणाला तर मी आपला हा चहाचा डबा आठच दिवसांपूर्वी इथंच विकत घेतलेला
 आहे .  '  -  मी .</p>

<p> गुंडोपंत आश्चर्यचकित झाले .  अलीकडे गेल्या आठ दिवसांपासूनच तो चहा
 ह्या गावात मिळू लागला असेल ,  असा त्यांनी तर्क केला .  ते पुढे म्हणाले ,   ` माझी
 एवढीच विनंती आहे की ,  रावसाहेब आपण आपल्या डब्यातला दोन चमचे चहा
 मजजवळ द्यावा ,  कारण मेहमानाला ज्या चहाची सवय असेल तोच पाजण्याची
 आमची वहिवाट आहे .  '
 मी स्वयंपाक्याला बोलावून चहाची मूठभर पत्ती गुंडोपंतांना देवविली .  मोजके
 चार चमचे देणे कंजूषपणा झाला असतो .  त्यांनी त्याची पुडी बांधून खिशात
 टाकली आणि माझा निरोप घेतला .</p>

<p> दुपारी बरोबर चार वाजता एका चपराशाला बरोबर घेऊन रेगे आणि मी
 रेग्यांच्या मोटरीतून वाड्याच्या दरवाज्याजवळ गेलो .  दरवाडज्याशी रखवालदाल
 कोणी नव्हता ,  पण चारपाच पोरे लगोऱ्या खेळत होती .  त्यांच्यापैकी एकाला
 आमच्या चपराशाने विचारले ,   ` वाड्यात जायची वाट कोमती रे  ?  '  तेव्हा त्याने
 बोटाने वाट दाखवीत म्हटले ,   ` मागल्या वर्षी इथे कडक पहारा होता .  पासा -
 शिवाय कोणालाबी आत जाऊ देत नसत .  पण आता वाटेल त्यानं थेट माहाराजां -
 पर्यंत चालतं जावं अशी सोय झाली आहे .  '
 दुसरा एक पोरगा म्हणाला ,   ` पर आता वाड्यात जायला बसलं आहे कोन
 काळं कुत्रं  !  '
 हे शब्द ऐकून मला वाईट वाटले .  चपराशाला मोटर संभाळायला ठेवून आम्ही</p>

<p> पान नं .  96</p>

<p> वाड्यात शिरून एक चौक ओलांडताच गुंडोपंत घाईघाईने सामोरे आले आणि हात
 जोडून त्यांनी आणचे स्वागत केले .  वाडा जुनाट पद््धतीचा असल्याकारणाने त्यात
 बराच अंधार होता .  गुंडोपंताच्या पावलावर पावले ठेवून आम्ही चाचपडत आत
 जात असता ते म्हणाले ,   ` इथं दिवसा शून्य पॉवरचे दिवे लावून ठेवलेले असतात ,
 पण कालपासून डायनॅमो बिघडल्याने ते काम देत नाहीत .  '</p>

<p> बऱ्याचसा खोल्या आणि ओवऱ्या ओलांडून आम्ही एका जिन्याने वर गेलो .
 खोल्यांतून केराचे ढीग पडले होते ,  भितींचा रंग उडाला होता ,  आणि जिन्यात
 हातरी ठोकण्याचे खिळे उघड्या डोक्यांनी उभे राहिले होते .  आण्ही वर गेल्यावर
 ग्रे - हाउंड जातीच्या एका रोडक्या कुत्र्याने शेपटीचे थोटुक हालवून आमचे
 स्वागतच केले .  मग आम्ही राजेसाहेबांच्या खास खोलीत शिरलो .  गुंडोपंतानी
 त्यांना लवून मुजरा केला आणि मी ,  म्हाताऱ्याच्या भावना कशाला दुखवाव्या
 असा विचार करून ,  तसाच मुजरा करणार तोच राजेसाहेब कोचावरून उठले
 आणि माझे दंड धरून म्हणाले ,   ` आपण कशाला मुजरा करता रावसाहेब  ?
 आमचं राजेपण संपलंच आहे .  आणखी ,  शिल्लक असलं तरी ,  आपण काही
 आमचे सबॉर्डिनेट नाही आहात  !  '</p>

<p> मला आणि रेग्यांना राजेसाहेबांनी कोचावर शेजारी बसविले .  आता त्यांनी
 मिशांना साफ छाट दिला होता आणि त्यामुळे त्यांचे पोपटी घाटाचे नाक
 अधिकच भव्य दिसत होते .  अंगावर मलमलीचा सदरा आणि पायांवर सुरवार
 असा त्यांचा घरगुती पोषाख होता .  सदऱ्याच्या गळपट्टीतून आमि सुरवारीच्या
 किनारीतून बाहेर डोकावण्याऱ्या दशा राजेसाहेबांच्या सांप्रतच्या दशेचे दिग्दर्शन
 करीत होत् . या पंचगंगा नदीवरच्या पुलाची माहिती अगदी बारकाईने त्यांनी
 करून घेतली आणि आपल्या काही सूचना सांगितल्या .  त्यांना एकंदरीने
 बांधकामाची बरीच माहिती होती असे दिसून आले .</p>

<p> काही वेळाने आमच्यापुढे एका नोकराने तिपाई आणून ठेवली .  चहाचे तबक
 आले .  त्यात एका बशीत तीन बिस्किटे होती .  आमचे स्वागत करणारा कुत्रा
 चहापानात भाग घेण्यासाठी खोलीत आला .  आपले पुढचे पाय त्यांच्याजवळ खायला
 मागू लागला .  आपल्या वाट्याचे बिस्किट त्यांनी कुत्र्याच्या तोंडात घातले तेव्हा
 मी म्हणालो ,   ` आपल्यासाठी बिस्किट मागवा की महाराज .  '</p>

<p> पान नं .  97</p>

<p> राजेसाहेबांनी गुंडोपंतांनी पाहिले .  गुंडोपंतानी डोळे वटारून  ` शिल्लक नाही '
 अशी त्यांना खूण केल्यावर राजेसाहेब हसून म्हणाले ,   ` अहो ,  मी विसरलो होतो .
 आज मला उपास आहे ,  त्याची गुंडोपंतांनी आठवण करून दिली म्हणून बरं झालं .  '
 ही राजवाड्यातील शेवटची तीन बिस्किटे असावीत असा मी तर्क केला .</p>

<p> यानंतर रेगे आणि मी दोघांनी मिळून राजेसाहेबांना आमच्या मुक्कावर
 चहा घेण्यास बोलाविले .  दरबारी रीतीप्रमाणे पानसुपारीचे तबक नोकराने आणऊन
 ठेवले आम्ही विडे तयार करून घेतले .  नोकराने राजेसाहेबांकरिता विडा तयार
 केला .  आपण नुकतीच उपासाची बतावणी केली होती हे विसरून त्यांनी तो
 तोंडात टाकला .  शेवटी महाराजांनी आमच्या अंगावर गुलाबदाणीतून स्वच्छ
 पाणी शिंपडल्यावर आणि उत्तरदाणीतून गोडे तेल काढून आमच्या हातांना
 फासल्यावर आण्ही लवून नमस्कार करून त्यांची रजा घेतली .
 राजेसाहेबांना चहाला येण्याचे आमंत्रण दिले होते ,  त्याच्या नेमिलेल्या वेळेच्या
 थोडे अगोदर गुंडोपंत मजकडे आले आणि म्हणाले ,   ` रावसाहेब ,  महाराजांची
 मोटर जरा बिघडलेली आहे ,  त्यांना आणण्याकरिता रेगेसाहेब आपली गाडी
 पाठवतील का  ? महाराजांना एकटं कुठं जाणं बरं वाटत नाही ,  म्हणून ते जिजिबा
 भोसल्यांना बरोबर घेऊन येतील ,  आपली काही हरकत नाही ना  ?  '
 हे जिजाबा भोसले कोण असे विचारल्यावर त्यांनी सांगितले ,  ते आमच्या
 दरबारचे मानकरी आहेत .  टेनिस उत्तम खेळत असत ,  पण आता आमच्या कोर्टा -
 वर दोन खांबांमध्ये नेटऐवजी कोळ्यांनी विणलेली जाळी लागली आहेत .  कालाय
 तस्मै नमः । दुसरं काय  ?  जिजाबांच्या वडिलांनी राजेसाहेब मायनर असताना
 त्यांच्या दौलतीचा सांभाळ केला .  जिजाबांना सगळे खेळ चांगले येत आहेत ,
 ते पाकक्रियेत निष्णात आहेत .  मात्र कॉलेजच्या शिक्षणाचा लाभ त्यांना झाला नाही .
  ` मग काय नुसतेच मॅट्रिक झाले आहेत वाटतं  ?  '  - मी .
  ` मॅट्रिक नाहीत ,  दोनतीन यत्ताच झाल्या असतील ,  पण सवयीनं इंग्रजीत असे
 तरबेज झाले आहेत की कलेक्टर किंवा एखाद्या कंपनीचा एजंट असा युरोपिअन
 आला की इंग्लीशमध्ये बोलून त्याला गार करीत .  बडोद्याच्या प्रिन्स धैर्यशीलरावां -
 बरोबर ते युरोपला जाऊन आले होते .  '  गुंडोपंतानी जिजाबांची तारीफ केली .
 महाराजांचा लांबचा का होईना मी नातेवाईक असल्यामुळे माझ्या मार्फत
 रेग्यांना मोटरीबद्दल विनंती करण्यात आली होती .  रेग्यांनी आनंदाने मोटर
 *
----------------------------------------------------------------
  Cont'd.
</p></body></text></cesDoc>