<cesDoc id="mar-w-science-computer-cs00b001.mns" lang="mar">
<cesHeader type="text">
<fileDesc>
<titleStmt>
<h.title>mar-w-science-computer-cs00b001.mns.txt</h.title>
<respStmt>
<respType>Electronic file created by</respType>
<respName>Central Institute for Indian Languages, Mysore</respName>
<respType>transferred into Unicode and CES format by</respType>
<respName>"Unicodify" software by Andrew Hardie</respName>
</respStmt></titleStmt>
<publicationStmt>
<distributor>UCREL (on behalf of CIIL)</distributor>
<pubAddress>Department of Linguistics, Lancaster University, Lancaster, LA1 4YT, UK</pubAddress>
<availability region="WORLD"></availability>
<pubDate>03-07-25</pubDate>
</publicationStmt>
<sourceDesc>
<biblStruct>
<monogr>
<h.title>संगणक सर्वांसाठी</h.title>
<h.author>प्रमोद दामले</h.author>
<imprint>
<pubPlace>India</pubPlace>
<publisher>Unknown - उन्मेष प्रकाशन</publisher>
<pubDate>1992</pubDate>
</imprint>
<idno type="CIIL code">cs00b001.mns</idno>
</monogr></biblStruct></sourceDesc></fileDesc>
<encodingDesc>
<projectDesc>Text collected for the CIIL Corpus, subsequently integrated into the EMILLE/CIIL Monolingual Written Corpora.</projectDesc>
<samplingDesc>Simple written text only has been transcribed. Diagrams, pictures and tables have been omitted. Sampling begins at page पुणे.</samplingDesc>
<editorialDecl><conformance level="1"></conformance></editorialDecl>
</encodingDesc>
<profileDesc>
<creation><date>03-07-25</date></creation>
<langUsage>Marathi</langUsage>
<wsdUsage>
<writingSystem id="ISO/IEC 10646">Universal Multiple-Octet Coded Character Set (UCS).</writingSystem>
</wsdUsage>
<textClass>
<channel mode="w">print</channel>
<constitution type="composite"></constitution>
<domain type="public"></domain>
<factuality type="fact"></factuality>
</textClass>
<translations></translations>
</profileDesc>
<revisionDesc></revisionDesc>
</cesHeader>

<text><body>

<p>किंमत - 50/- रुपये.
एकूण पाने :- 26
FROM 83 TO 132</p>

<p></p>

<p>पान नं. - 83</p>

<p>हा चुंबकीय गुणधर्मांनी युक्त वा रिक्त असतो. विद्युतमंडल व विद्युतचुंबकीय
पदार्थ यांचा वापर संगणकात विशेष करून होत असल्यामुळे या दोनच शक्यता
चिन्ह म्हणून स्वतंत्ररीत्या वापरणे शक्य होते व अशा रीतीने दोनामुळे मर्यादित
अशी द्विमान पद्धत संगणकांतर्गत व्यवहारांसाठी अपरिहार्य ठरते. जॉन व्हॉन
न्यूमन या शास्त्रज्ञाने द्विमान पद्धतीची ही उपयुक्तता सर्वप्रथम जोखली व
संगणकात यशस्वीपणे राबवली.</p>

<p>        आता द्विमान पद्धतीतील 101001 या संख्येची दशमान किंमत पाहू या.
        द्विमान पद्धतीतील 1010001
        = 1  ( 2 चा पाचवा घात )
        + 0  ( 2 चा चौथा घात )
        + 1  ( 2 चा तिसरा घात वा घन)
        + 0  ( 2 चा दुसरा घात वा 2 )
        + 1  ( 2 चा शून्यावा घात वा 1)</p>

<p>        = 1  32 + 0  16 + 1  8
        + 0  4 + 0  2 + 1  1</p>

<p>        = 32 + 8 + 1
        = 41 ( दशमान पद्धतीमधील)</p>

<p>                एकेचाळीस ही छोटीशी संख्या जर द्विमान पद्धतीत सहा अंकी होत असेल,
तर मोठया संख्यांचे द्विमान रूंपातर केवढे मोठे होईल ? परंतु ही रूपांतराची
कटकट पूर्णपणे संगणकाकडे सोपण्यात आली आहे. केवळ आकडेच नव्हे तर
अक्षरेसुद्धा संगणकात शून्य व एकांनी तयार होणाऱ्या आकृतिबंधांच्या स्वरूपात
साठवली जातात, असे असूनही संगणकाशी संपर्क साधताना आपणास काहीही
कष्ट वा वैचित्र्य जाणवत नाही. याचे कारण द्विमान पद्धतीचे सव्यापसव्य
सांभाळण्यासाठी काही सूचनावली संगणकामध्ये हजर असतात. प्रणाली
सूचनावली ( System Software ) लिहिणाऱ्या तज्ज्ञांनी त्याकरिता जरूर ते
परिश्रम  संगणक निर्मितीच्या वेळीच घेतलेले असतात.</p>

<p>पान नं. - 84</p>

<p>        क्लिष्ट भासणाऱ्या द्विमान पद्धतीतील आकडेमोड मात्र आश्चर्य वाटावे
इतकी सोपी आहे. उदाहरणादाखल आपण फक्त बेरीज पाहू या. केवळ दोनच
चिन्हांच्या वापरामुळे अत्यंत सुटसुटीत झालेल्या या द्विमान बेरजेसाठी फक्त
दोन नियम आहेत. त्यांपैकी एक बेरजेचा ( म्हणजे बेरजेत मांडावायाच्या अंकाचा)
तर दुसरा हातचा येणाऱ्या संख्येविषयी आहे. 1. दोन एक-अंकी संख्या जर
वेगवेगळ्या असतील तर त्यांची  बेरीज एक येईल, परंतु त्या एकसमान
असतील, तर त्यांची बेरीज शून्य येईल. 2. जर दोन एक-अंकी संख्या एक व
एक अशा असतील, तरच बेरजेतील हातचा एक येईल, अन्यथा हातचा येणार
नाही.</p>

<p>                आता यातील दुसरा नियम अनुसरण्यासाठी संगणकामध्ये 'आणि-झडप'
कशी चपखलपणे वापरली जाते ते जाणून घेऊ. दोन्ही अंतर्गामी तारांमधून
विद्यूतप्रवाह वाहत असेल तरच बहिर्गामी तारेतून प्रवाह वाहील हा
आणि-झडपेचा गुणधर्म आपण नवव्या प्रकरणात पाहिला आहेच.
विद्युतप्रवाहाची उपस्थिती म्हणजे एक व अनुपस्थिती म्हणजे शून्य असा
अन्वयार्थ लावल्यास आपल्या असे ध्यानी येईल की, 'आणि-झडपे' चा गुणधर्म
हा बेरजेतील हातच्याविषयीच्या दुसऱ्या नियमांशी तंतोतंत जुळणारा आहे.
पहिल्या नियमासाठी 'व्यावर्तक-किंवा-झडप' ( Exclusive Or Gate) नामक
दुसरी एक विद्युतमंडलाची रचना योजण्यात येते. या विवेचनावरून गणित व
विद्युत अभियांत्रिकी या दोन भिन्न विषयांची सांगड संगणकात कशी घातली
आहे, हे स्पष्ट होईल. प्राथमिक पातळीवर हा थेट संपर्क शक्य असला, तरी
थोडया उच्च पातळीवर मात्र त्यासाठी बुलियन बीजगणित या गणिताच्या
उपशाखेचा पुलासारखा उपयोग केला जातो.</p>

<p>                द्विमान पद्धतीशी जवळीक सांगणारी ही बीजगणिताची स्वतंत्र शाखा जॉर्ज
बुल या गणितज्ञाने विकसित केली. या पंडिताच्या सन्मानार्थ या विषयास
बुलियन बीजगणित  (Boolean Algebra ) असे नामभिधान देण्यात आले.
यामध्ये चल-संख्येस चूक वा बरोबर ( किंवा सत्य वा असत्य) अशा दोनच
किंमती संभवतात, तिसरी किंमत धारण करता येत नाही. द्विमान गणित हा विषय
अमूर्त असल्यामुळे क्लिष्ट तर विद्युत अभियांत्रिकी त्यातील गुंतागुंतीच्या
विद्युतमंडलांमुळे अवघड . अशा परिस्थितीत बुलियन बीजगणितातील</p>

<p>पान नं. - 85</p>

<p>'सत्यता सारणी ' (Truth tables) ही आकृती या दोन्ही गहन विषयांमधील
बारकाव्याने अतिशय सुलभपणे आरेखन व स्पष्टीकरणही करते. आकृती. क्र.
12.1 ही इतकी बोलकी आहे की, एक चित्र हजारो शब्दापेक्षा अधिक सांगून
जाते असे म्हणतात त्याची सार्थता पटावी. सत्यता-सारणी ही जंत्रीसारखी
क्लृप्ती आजतागायत सूचनावलीतील दुर्बोध टप्प्यांवर यशस्वीपणे वापरली
गेली आहे.</p>

<p>------------------------------------------------------
      अटी / परिस्थिती       ।          निर्णय
------------------------------------------------------
रस्ता दुभाजक  डावी बाजू      उजवी बाजू       थांबा      ओलांडा      निम्म्यापर्यंत
आहे ?       मोकळी आहे ?  मोकळी आहे ?                        ओलांडा व
                                                           थांबा
------------------------------------------------------
होय             होय                             होय                             नाही            होय             नाही
होय             होय                         नाही                                        होय             नाही            नाही
होय             नाही                            होय                             नाही            नाही            होय
होय             नाही                            नाही                            होय             नाही            नाही
नाही            होय                             होय                             नाही            होय             नाही
नाही            होय                             नाही                            होय             होय             नाही
नाही            नाही                            होय                             होय             नाही            नाही
नाही            नाही                            नाही                            होय             नाही            नाही
-------------------------------------------------------</p>

<p>                आकृती 12.1 - रस्ता ओलांडण्याविषयीची सत्यता-सारणी</p>

<p>
पान नं. - 96</p>

<p>प्रकरण 15</p>

<p>व्यावसायिकांसाठी संगणक</p>

<p>        एखाद्या विशिष्ट विषयातील उच्च दर्जाचे ज्ञान आणि प्रावीण्य मिळवून त्या
विषयासंबंधी सल्ला देणे वा प्रत्यक्ष काम अंगावर घेऊन पार पाडणे , ही कामगिरी
दुसऱ्यासाठी करणारा वर्ग व्यावसायिक म्हटल्यावर अभिप्रेत आहे, यामध्ये वकील,
डॉक्टर, आर्किटेक्ट, चार्टर्ड / अकौटंटस तसेच जाहिरात, संगणक वा कर या
विषयांतील सल्लागार यांचा समावेश आहे, मात्र निर्मितीप्रक्रियेतील उद्योजक किंवा
एकीकडून माल दुसरीकडे विकणारे व्यापारी इ. या वर्गात मोडणार नाही.</p>

<p>                व्यावसायिकांच्या कामाचे स्वरूप पाहता संगणकाचा वापर दोन प्रकारे
करता येईल. एक म्हणजे त्यांच्या कौशल्याचा असा तो विवक्षित प्रांत आहे,
त्यामध्ये आणि दुसरा म्हणजे ग्राहकनिहाय किंवा प्रकल्पनिहाय जी माहिती
हिशेब वगैरे असतात त्यामध्ये. व्यावसायिकांच्या कामकाजातील संगणकाचा हा
उपयोग उदाहरण घेऊन तपशीलवार पाहू या.</p>

<p>41. वैद्यकीय व्यवसाय</p>

<p>                सर्दी-पडशासारख्या साध्या दुखण्यापासून ते कर्करोगासारख्या कठीण
व्याधींपर्यंत अनेक रोग, त्यांत एड््स््सारख्या नवीन विकारांची पडणारी भर, या
साऱ्यांची लक्षणे, प्रतिबंधक व निवारक उपाय ही सारी अफाट माहिती एका
माणसाच्या स्मरणशक्तीच्या आवाक्यात राहणे अशक्यप्राय आहे. प्राथमिक
निदानासाठी नेहमीचे साधे डॉक्टर व आवश्यकता भासल्यास तज्ज्ञ
डॉक्टराकरवी तपासणी व उपचार अशा चांगल्या व रुळलेल्या पद्धतीमुळे
अनुचित प्रसंग फारसे आढळत नसले तरी काही अतिविशिष्ट रोगांच्या निदान न</p>

<p>पान नं. - 97</p>

<p>उपचारासाठी पात्रता मिळवलेले डॉक्टर आजकाल संख्येने कमी पडत आहेत, हे
सर्वज्ञात आहे. सर्वसामान्य डॉक्टर व विशेषज्ञ यांच्यामधील
चिकित्सा-कौशल्याची दरी भरून काढण्यासाठी प्रगत देशात अलीकडे
संगणकाची मदत घेतली जाते. आपल्याकडेही हळूहळू ही सुविधा येत आहे.</p>

<p>                प्रत्येक दुखणाइताचा सारा जुना तपशील (Patient History ) कौटुंबिक
पार्श्वभूमी व आनुषंगिक प्रकृतिधर्म, वेळोवेळी त्याने भोगलेल्या व्याधी व
घेतलेल्या उपचाराचे तपशील यांची व्याप्ती किती असते, हे हातगुण असणाऱ्या
प्रथितयश डॉक्टरांची कागदपत्रांनी भरलेली कपाटे पाहून आपणास कळतेच. या
सर्व बाबींबरोबरच आवक-जावक हा आर्थिक व्यवहारसुद्धा त्यातील
व्यक्तीनिहाय इंजेक्शन्स््-औषधवार बारकाव्यासह संगणकाच्या मदतीने
हाताळणे किफायतशीर ठरते, पाहिजे तेव्हा त्यात भर घालणे व गरजेनुसार
एखाद्या विशिष्ट व्यक्ती, औषधे, रोग वा कालावधीशी संबंधित माहिती उद््धृत
करणे. इ. कामे संगणकाद्वारे सुलभ रीतीने करता येतात.</p>

<p>42. वकिली व्यवसाय</p>

<p>        संसदेकडून संमत झालेले विविध कायदेकानून, त्यातील कलमांचा
न्यायसंस्थेने लावलेला अन्वयार्थ व त्यानुसार दिलेले निर्णय, या साऱ्यांचा मूल
स्त्रोत असणारी घटना म्हणजेच संविधान, या साऱ्या जटिल मामल्यातून
पक्षकाराला न्याय मिळवून देणारा वकिली  पेशा, डॉक्टरी पेशाप्रमाणेच या
क्षेत्रातही आधारभूत माहितीचा व्याप इतका वाढला चालला आहे की
युक्तिवादासाठी न्यायालयात उभे राहण्यापूर्वी वकिलाने कायदा व न्यायविषयक
ग्रंथांचा अभ्यास करणे निकडीचे ठरते. हा अभ्यास संगणकाच्या साहाय्याने
सुकर ठरतो. कारण कायद्याची कलमे तसेच न्यायसंस्थांनी दिलेले निर्णय यांची
विषयवार , न्यायालयांच्या पातळीनुसार व कायदेनिहाय गटवारी करणे, तदनंतर
चालू खटल्याशी संबंधित अशी निवडक माहितीच या विशाल संकलनातून
हुडकून काढणे या गोष्टी संगणकाच्या क्षमतेला अनुरूप आहेत.</p>

<p>        याखेरीज दाव्याचे कागदपत्र, प्रतिज्ञापत्र, वकीलपत्र, दरखास्त इ. तयार करणे
त्याच्या प्रती काढणे, अशिलांचा सर्व तपशिल संभाळणे अशा कार्यालयीन
स्वरूपाच्या कामातही संगणकाची मदत होऊ शकते.</p>

<p>पान नं. - 98</p>

<p>43. वास्तुशिल्प व अभियांत्रिकी ( Architecture &amp; Engineering)</p>

<p>                इमारती, पूल व एखाद्या मोठया कारखान्यातील संपूर्ण यंत्रणा उभी करणे
त्यासाठी स्थापत्यशास्त्रातील योग्या ती सूत्रे सोडवून मजबुतीचे निकष ठरवणे व
तदनतंर मनुष्यबळ, यंत्रसामग्री व बांधकामाचे साहित्य यांचा मेळ घालून प्रकल्प
सिद्धीस नेणे, ही स्थूलमानाने या प्रांतातील कामाची रुपरेषा. या कामात
संगणकाची मदत प्रत्येक टप्प्यावर उपयुक्त ठरते. प्रथम अभियांत्रिकी गणिते
सोडवणे, नियोजित वास्तू व कारखान्याचा आराखडा काढणे, या गोष्टींबरोबरच
नंतरच्या प्रकल्प व्यवस्थापन या अवघड टप्प्यावरदेखील अभियंत्यास अनेक
अवधाने संभाळावी लागतात.</p>

<p>        प्रकल्प हाताळण्यासाठी वापरली जाणारी PERT/CPM ही तंत्रे आता
जगन्मान्य झाली आहेत. यामध्ये अंतर्भुत असणाऱ्या आकृत्या काढणे, त्यावरून
वेळापत्रक आखणे, साधनसंपत्ती किती प्रमाणात लागेल ते ठरवणे, अपेक्षित काम
व पूर्ण झालेले काम यांची ठराविक वेळी तुलना करून कामाचा वेग नियंत्रित
करणे व निर्धारित कालावधी व मंजूर झालेल्या अंदाजपत्रकाच्या मर्यादेत प्रकल्प
पूर्ण करणे यासाठी व त्यानंतरचे बरेचसे हिशेब करणे या साऱ्यांसाठी संगणक
अनिर्वाय ठरला आहे.</p>

<p>44. संगणक-सूचनावली सल्लागार व्यवसाय (Software Consultancy )</p>

<p>        सूचनावली लिहिण्याच्या कामी पुन्हा संगणकाचाच वापर होणे, ही गोष्ट
जेवढी मनोरंजक तेवढीच साहजिकच नाही का ? तेच ते काम परत परत करणे
ही अतिशय कंटाळवाणी कामगिरी संगणकाकडे सोपवण्यास योग्य होय..
सूचनावली लिहिण्यामध्येसुद्धा काही रटाळ वाटणाऱ्या गोष्टी संगणकाद्वारे
करण्याजोगा आहेत. हाती केले जाणारे जे काम संगणकाकडे सोपवायचे असेल,
त्या कामाचा सम्यक अभ्यास करून प्रणाली विश्लेषक काही आकृत्यांद्वारे त्याचे
चित्रण करतो, हे आपण यापूर्वी पाहिले आहेच. या आकृतीच्या आधारे
सूचनावली लिहिण्याचे काम संगणकाकडून करून घेणाऱ्या काही उच्च दर्जाच्या
सूचनावली आता उपलब्ध झाल्या आहेत. त्यामुळे संगणक विभागातील लोकांचे
श्रम व वेळ वाचतोच, खेरीज विविध लोकांनी लिहिलेल्या सूचनावलींमध्ये</p>

<p>पान नं. - 99</p>

<p>शैलीबाबत जी भिन्नता आढळून येते त्याऐवजी या नूतन प्रकाराने निर्मिलेल्या
सूचनावलींमध्ये एकसूत्रीपणा साधला जातो व परिणामी भविष्यकालात त्यामध्ये
सुधारणा करणे खूपच सोपे जाते.</p>

<p>45. हिशेब व करविषयक सल्ला व्यवसाय</p>

<p>        एखाद्या पेढीच्या वा कंपनीच्या आर्थिक व्यवहराशी संबंधित सर्व
कागदपत्रे घेऊन त्यावरून नफा-तोटा पत्रक व वार्षिक ताळेबंद करण्यापासून ते
तहत कर आकारणी व त्या अनुषंगाने विविध गुंतवणूक पर्यायातून सर्वात
किफायतशीर मार्ग निवडणे अशा कामात तरबेज असणारा हा वर्ग. यांचे ग्राहक
म्हणता येईल अशा पेढयांवर जमाखर्च जसजसा होत जाईल तसा नोंदला जातो.
त्याचे खातेवार विभाजन , भांडवली व महसुली असे वर्गीकरण , घसाऱ्याच्या
तरतुदी या गोष्टी सल्लागाराला स्वतः लक्ष घालून पाहाव्या लागतात. तसेच
उत्पन्नात अन्य व्यवसाय व व्याज यामुळे पडणारी भर, कर सवलती व वजावटी
निश्चित करून अखेरीस करापोटी भरण्याची रक्कम व गुंतवणुकीची रक्कम
यामध्ये समतोल साधणे. या सर्व जटिल जंजाळात सल्लागाराची मदत
अपरिहार्य ठरत आहे. व्यावसायिक सल्लागारांना संगणकाकरवी हे काम करवून
घेण्यात फायदा असा आहे की, एका ग्राहकासाठी लिहिलेली सूचनावली थोडयाफार
फेरफारानंतर अन्य ग्राहकांसाठी वापरणे सहज शक्य आहे. यामुळे वेळ वाचतो
आणखी ग्राहक जोडणे शक्य होते व परिणामी संगणकातील गुंतवणूक
व्यवसायाच्या वाढीस हातभार लावते.</p>

<p>--------------------------------------------------------</p>

<p>पान नं. -  105</p>

<p>प्रकरण 17</p>

<p>उद्योजकांसाठी संगणक</p>

<p>                कच्च्या मालाची खरेदी व साठवणूक निरनिराळी यंत्रे व अवजारे चालवून
त्यातून विक्रीयोग्य मालाची निर्मिती आणि तयार मालाची साठवणूक व विक्री
अशा या स्थूलमानाने वर्णन करण्यासारख्या प्रक्रियेत नवनिर्मितीचा निखळ
आनंद आहे, तसेच त्यामागे नेटाने प्रयत्नसुद्धा. व्याप वाढत जाईल तसतशी
खरेदी , उत्पादन प्रक्रिया व विक्री याबरोबरीने अर्थपुरवठा, प्रशासन , कर्मचारी
व्यवस्थापन ही कामेदेखील एकेक स्वतंत्र विभाग म्हणावा इतकी वाढतात आणि
खरेदी -उत्पादन-विक्री-अर्थार्जन या आवर्तनाची गती कायम राखण्यासाठी सर्व
विभागामध्ये परस्पर-संगती ठेवण्याकरिता उद्योजकाला बराच वेळ, श्रम व
बुद्धिकौशल्य खर्ची  घालावे लागते.</p>

<p>                उद्योजकाच्या कामाचे स्वरूपच असे इतके व्यापक आहे की, त्याचे स्वतःचे
एक खास विश्व असते. त्यातील काही कामांची माहिती व संगणकाची
उपयुक्तता याविषयी इतर प्रकरणांमधून थोडेफार स्पष्टीकरण आहे.
व्यापाऱ्यांप्रमाणे उद्योजकालाही खरेदी-विक्री व साठवणूक या व्यवहारांकडे लक्ष
द्यावे लागते. त्याची माहिती प्रकरण 16 मध्ये आली आहे, तर कार्यालयीन
कामकाज व हिशेब या स्वतंत्र अंगाविषयी प्रकरण 18 मध्ये लिहिले आहे.
त्यामुळे या प्रकरणात आपण असे इतरत्र चर्चित भाग वगळून उद्योजकास
आवश्यक अशा व्यवच्छेदक मुद््द्यांवर लक्ष केंद्रित करणार आहोत. यातील
बहुतेक सर्व माहिती बऱ्याचशा उद्योजकांकरिता उपयुक्त आहे, तर शेवटचा
काही भाग मात्र केवळ मोठया उद्योजकांकरिता योग्य आहे.</p>

<p>पान नं. - 106</p>

<p>41. विविध विभागांमध्ये सुसंगती</p>

<p>                निरनिराळ्या विभागांकरिता स्वतंत्र सूचनावली लिहिणे एकवेळ तुलनेने
सोपे आहे, पण या सर्वाचा परस्परांशी मेळ राहील याची तजवीजही
सूचनावलीमध्ये करणे ही जरा अवघड बाब आहे. नियोजित उत्पादनाचा
कार्यक्रम निर्मिती विभागाकडून साठवणूक विभागाकडे येणे, उत्पादनास
आवश्यक अशा विविध कच्च्या मालाचा हजर साठा व एकूण गरज हे पाहून
किती व कोणता माल कधी खरेदी करायला पाहिजे, याची माहिती साठवणूक
विभागाकडून खरेदी विभागाकडे जाणे अशा रीतीने वक्तशीरपणे व बिनचूक
कामे होणे जरूरीचे आहे. विक्री विभाग व उत्पादन विभाग यांनी एकमेकांच्या
कार्यक्षमता पाहून त्यानुरूप आपापला वेग नियंत्रित करणे आवश्यक असते.
याशिवाय अर्थपुरवठा, कर्मचारी व्यवस्थापन इ. विभागांचे संबंध इतर प्रत्येक
विभागाशी हटकून येतातच. परस्परसंबंधी ही सारी अवधाने संगणकाकरवी
सुलभतने संभाळता येतात. एका ठळक उदाहरणाने हा मुद्दा स्पष्ट करता येईल.</p>

<p>                बाजारातील मागणी आणि स्वतःची कुवत या दोन्ही गोष्टी ध्यानात घेऊन
उद्योजकाने एकदा उत्पादनाचे उद्दिष्ट पक्के केले की, कच्च्या मालाची विविध
घटकांची गरज किती व कधी लागेल हे ठरवणे ओघानेच येते. यालाच इंग्रजीत
Bill of Material म्हणतात. कच्च्या मालाची एकूण खरेदी किती व केव्हा
करावी, हे उत्पादनाच्या उद्दिष्टावरून ठरवण्याकरिता प्रत्येक उत्पादन व
त्याकरिता लागणाऱ्या कच्च्या मालाचे नाव व प्रमाण अशा स्वरूपात संगणकास
उपलब्ध करून दिल्यास पुढचे काम संगणकाद्वारे सुरळीतपणे पार पाडता येते.
सकृद्दर्शनी सोपे वाटणारे हे काम किती कष्टदायक आहे, हे मोटारगाडीसारख्या
वाहनाचे उत्पादन नजरेसमोर आणल्यास समजावून घेता येईल. सांगाडा
(Chasis) ते तहत पायाखाली अंथरण्यात येणाऱ्या रबरी चटया (Rubber mats)
इथपर्यंत अगणित छोटे-मोठे भाग या वाहनाच्या उत्पादनाकरिता लागतात.
प्रत्येक गाडीला सांगाडा एकच, आंस (axle) दोन, तर चाके चार अशी भागांची
संख्या कमी-जास्त असते. सांगाडा उभा राहिल्याशिवाय पुढची कामे सुरू होऊ
शकत नाहीत,पण रबरी चटया सर्वात शेवटी आल्या तरी चालतील, अशा
प्रत्येक घटकाच्या वेळा वेगवेगळ्या. याखेरीज काही भागांची निर्मिती करणाऱ्या</p>

<p>पान नं. - 107</p>

<p>दुसऱ्या उद्योजकांना द्यावयाच्या आगाऊ सूचनेचा कालावधी निराळाच. परत या
सगळ्याला पैसे कधीकधी व कितीकिती लागतील हे वित्तनियोजनही महत्वाचे
सुताचा गुंता उलगडण्यासमान क्लिष्ट असे हे काम केवळ मनुष्यबळाच्या
जोरावर करणे, हे वेडे धाडस ठरेल. कारण प्रसंगी हे भाग संख्येने काही
हजारांच्या घरात असतात. संगणकाच्या विलक्षण वेगामुळे मात्र हे काम काही
तासांतच उरकता येते.</p>

<p>
42. प्रक्रियेतील सर्व घटकांचे मूल्य निर्धारण (Costing)</p>

<p>                उत्पादन विक्रीसाठी तयार होईपर्यंत त्यासाठी कच्चा माल, माणूसबळ
आणि अन्य कारणास्तव होणार एकूण खर्च ठरवण्याचे हे शास्त्र होय.
व्यापाऱ्यांच्या बाबतीत विक्रीची किंमत ठरवणे हे खरेदीच्या किंमतीत नफ्याचा
अंश वाढवण्याइतपत सोपे असले. तरी उद्योजकाच्या बाबतीत मात्र या शास्त्राचा
आधार अपरिहार्य आहे. यासाठी प्रत्येक बाबीसाठी कामाचा व मूल्याचा तक्ता
( Work Sheet, Cost Sheet) इ. तंत्रे वापरून उत्पादनप्रक्रियेला प्रत्यक्ष वा
अप्रत्यक्ष हातभार लावणाऱ्या प्रत्येक मुद्याचे मूल्यमापन अटळ होय. कारण हे
काम पूर्ण झाल्याशिवाय अमुक इतक्या नफ्यासाठी किती विक्रीमूल्य असावे. हे
निश्चित करणे अशक्य आहे. अशा आकडेमोडीस व माहितीसंकलनास
संगणकाची मदत फायदेशीर ठरते.</p>

<p>43. परिचालन संशोधन ( Operational Research )</p>

<p>                वस्तूतः हे काम तसे नवीन नाही, तर यासाठी अवलंबण्यात येणारी तंत्रे
नवीन होत. नेहमी करीत असलेल्या कामाचे पुनर्निरीक्षण व संशोधन करून वेळ
व किमतीसारख्या घटकांची काटकसर, तर उत्पादन व नफ्यामध्ये वाढ
करण्याकरता याचा वापर होतो, म्हणून यास परिचालन संशोधन अशी संज्ञा
आहे. वरवर पाहिल्यास तोंडी गणिताने सुटेल असे वाटणारा हा मामला
वास्तविक इतका गहन आहे की, प्रत्यक्ष व्यवहारातील अगणित समस्यांचे गणित
सूत्रांमध्ये रूपातर करून रीत निश्चित झाल्यानंतरसुद्धा समीकरणे सोडवण्यासाठी
संगणकाशिवाय गत्यंतर नसते. यातील प्रमुख काही तंत्रे व त्यांची उद्योजकास
असणारी उपयुक्तता अशी :</p>

<p>पान नं. - 108</p>

<p>        क) विविध उत्पादनांचे प्रमाण (Product-mix) ठरवणे
        विविध उत्पादनांना असणारी मागणी , त्यातून मिळणारा नफा, निर्मिती
प्रक्रियेसाठी लागणारा यंत्रांचा कमीजास्त वेळ व त्या यंत्रांची उपलब्धता
अशा चक्रव्यूहातून सर्वाधिक किफायतशीर असे उत्पादनांचे प्रमाण अजमावणे
अत्यंत दुष्कर असते. योग्य असे तंत्र -Linear Programming -
वापरून देखील संगणकास पर्याय नसतो. कारण वेळ व किमतीची बंधने बरीच
उत्पादनांची संख्या जास्त व प्रक्रियेतील घटकांचे वैविध्यही खूप असते.</p>

<p>        ख) उत्पादनाच्या छोटया भागांच्या बाबतीत खरेदी का निर्मिती हा निर्णय
(Make or buy Decision )</p>

<p>        उत्पादनाचे काही छोटे भाग (Sub-assembly) असे असतात की, ते
बाजारात तयार उपलब्ध नसून स्वतः बनवावे लागतात किंवा दुसऱ्या
उद्योजकाकरवी बनवून घ्यावे लागतात. पहिला पर्याय निवडल्यास मुख्य
निर्मितीप्रक्रियेत गुंतलेल्या काही यंत्रांचा वेळ या भागाच्या उत्पादनासाठी द्यावा
लागतो, तर दुसऱ्या पर्यायात अन्य एखाद्या उद्योजकास अशा भागाची किंमत
त्यातील नफ्यासह चुकती करावी लागते. ह्या व अन्य अशाच तिढ्यातून मार्ग
काढण्याकरिता संगणकाची कास धरावी लागते.</p>

<p>        ग) कामाचे वाटप (Assignment)</p>

<p>                कधी कधी असे प्रसंग येतो की, हातात कामे बरीच , हाताशी असणारे
कामगार वा यंत्रेही बरीच आणि कोणतेही एक काम कोणत्याही एका ( आणि
एकाच) कामगार वा यंत्राकडे सोपवण्याजोगे. आता प्रश्न असा येतो की, कामाचे
वाटप कसे करावे ? कारण प्रत्येक कामाचा कालावधी कमीजास्त , नफा निराळा
आणि यंत्र वा कामगारांच्या क्षमता पण वेगवेगळ्या. अशा परिस्थितीत
 ( Assignment) हे तंत्र वापरले जाते.</p>

<p>        घ) वाहतूक</p>

<p>        एखाद्या उद्योजकाचे कारखाने अधिक ठिकाणी व माल जिथे
पाठवाययचा ती वितरकांची गोदामेसुद्धा वेगवेगळ्या ठिकाणी असतील, तर
कोठून, कोठे आणि किती माल पाठवायचा हा प्रश्न उभा ठाकतो. ही समस्यापूर्ती
करणारी अनेक यंत्रे परिचालन संशोधन विषयात आहेत, परंतु त्या प्रत्येक तंत्रास
संगणकाची जोड जरूरीची आहे.</p>

<p>पान नं. - 109</p>

<p>        उद्योजकाची समस्या, ही नवीन तंत्रे आणि संगणकाची उपयुक्तता या तीन
बाबीपैकी पहिल्या व तिसऱ्या मुद्दयांचा संबंध दुसऱ्यामार्फत आहे. आता दुवा
म्हणण्यासारखी ही तंत्रे अपरिचित आहेत खरी, पण त्यासाठी ती संबंधित
पुस्तकांतून मुळातूनच वाचली पाहिजेत.</p>

<p>-------------------------------------------------------------</p>

<p>पान नं. - 114</p>

<p>प्रकरण 19</p>

<p>विद्यार्थ्यांसाठी संगणक</p>

<p>        आजकालच्या स्पर्धेच्या जमान्यात आयुष्याच्या प्रत्येक टप्प्यावर झुंजावे
लागते. झगडण्याची ही सुरुवात अगदी विद्यार्थिदशेपासूनच होते. वस्तुतः
'विद्यार्थिदशा' हा शब्द कालबाह्य झाला की काय, असे वाटण्याएवढी साधने
आता बऱ्याच विद्यार्थ्यांच्या हाताशी दिसतात. क्रमिक पुस्तकांपासून सुरुवात
करून मार्गदर्शक पुस्तके (guides ), ध्वनिफीती ( Audio-casettes),चित्रफिती
 (Vidio cassettes ) या मार्गे हा प्रवास आता संगणकापर्यंत येऊन पोचला आहे.
सर्वसाधारण विद्यार्थ्यांच्या आवाक्यात येण्याइतकी संगणकाची किंमत खाली
आलेली नसली , तरी काही अत्यल्प विद्यार्थ्यांच्या घरची आर्थिक परिस्थिती
संपन्न असते, तर काही विद्यार्थ्यांच्या घऱी संगणकाचा प्रवेश पालकांच्या
व्यवसायाच्या निमित्ताने अगोदरच झालेला असतो. सर्वच विद्यार्थी इतके
नशीबवान नसले, तरी विद्यालये, विद्यापीठे आणि शाळांमधूनही सरकारी
अनुदान वा संगणक निर्मिती करणाऱ्या कंपन्यांकडून देणगी अशा रुपाने
येणाऱ्या संगणकाचे प्रमाण वाढत आहे. विद्यार्थ्यांच्या सेवेतील ही संगणकाची
उपलब्धता स्पष्ट केल्यानंतर आता मुख्य मुद्याकडे वळू.</p>

<p>                सर्वप्रथम पुढे येणारा प्रश्न या प्रांतातील संगणकाची उपयुक्तता ही
पुस्तके ध्वनिफीती व चित्रफीतीपेक्षा अशी काय वेगळी किंवा खास आहे, हा
होय, याचे संपूर्ण उत्तर विषयाच्या ओघात येईलच, परंतु एका वाक्यात सांगायचे
झाल्यास बाकी सुविधा गुणवत्तेच्या दृष्टीने शिक्षकाच्या जवळपाससुद्धा येऊ
शकत नाहीत, तर संगणक हा शिक्षकाशी तुलना ( बरोबरी नव्हे) करण्याइतपत
सक्षम ठरला आहे. स्थूलमानाने पाहता संगणकाद्वारे शिक्षण हे एका वेळी पानभर</p>

<p>पान नं. - 115</p>

<p>मजकूर दाखवणे आणि नंतर विद्यार्थ्याला त्या विषयातील पूर्वनियोजित प्रश्न
घालून अनेक पर्यायांतून एकाची निवड (Multiple choice) या पद्धतीने त्याची
उत्तरे स्वीकारून ती आदर्श उत्तरांशी पडताळून , विद्यार्थ्याला त्याने मिळवलेले
गुण (Markes) दर्शवणे अशा तऱ्हेचे आहे. सरधोपट दिसणाऱ्या या पद्धतीत
सूचनावलींमुळे जे बारकावे भरले जातात. ते मात्र मनोज्ञ आहेत.</p>

<p>41. विद्यार्थ्याच्या वकूबानुसार ज्ञानदानाची पातळी वरखाली करणे.</p>

<p>                हाताची पाची बोटे एकसारखी नसतात. तद्वत सर्व विद्यार्थ्यांची
आकलनशक्ती कमीजास्त असते. विद्यार्थी आपणास अनुरूप इतपत तपशिलात
शिक्षण घेऊ शकतो व विषय अवघड वाटल्यास आणखी खोलात जाऊन
माहिती मिळवू शकतो.</p>

<p>                उदा. '5 चा वर्ग 25' हे विद्यार्थ्याला न समजल्यास संगणक एक पायरी
खाली येऊन '5 चा वर्ग म्हणजे 5 गुणिले 5' हे सांगेल. तरीही न कळल्याचे जर
विद्यार्थ्याने दर्शवले. तर आणखी एक पायरी खाली येऊन '5चा वर्ग म्हणजे 5'
हा अंक 5 वेळा घेऊन त्याची बेरीज करणे'  असे संगणक पडद्यावर दाखवेल. या
रीतीमुळे विद्यार्थ्याच्या कुवतीनुसार शिक्षण शक्य होते.</p>

<p>42. विद्यार्थ्यांची चाचणी</p>

<p>        विद्यार्थ्याने केलेले वाचन त्याला उमगले आहे की नाही, हे पाहण्याकरता
पूर्ण झालेल्या प्रत्येक टप्प्यावर तेवढयापुरशी चाचणी घेतली जाते. या परीक्षेतील
उत्तरे तपासून गुण देणे. संगणकाकरवी कसे शक्य होते ते पाहू या.</p>

<p>        उदा. : 5  5 =.........
                उत्तर : 1)20, 2)10, 3)55, 4)25.</p>

<p>        या प्रश्नाच्या उत्तरादाखल योग्य त्या उत्तराचा क्रमांक विद्यार्थ्याने दिला
पाहिजे. येथे 4 हे उत्तर संगणकाला मिळाल्यासच त्या विद्यार्थ्याने मिळवलेल्या
गुणांमध्ये या प्रश्नाचे गुण वाढवले जातील, अन्यथा नाही.</p>

<p>3. अभ्यासाचा योग्य तो क्रम राखणे .
4
                एखाद्या प्रकरणाबद्दल कुतुहल वाटल्यास आधीच्या प्रकरणास वगळून</p>

<p>पान नं. - 116</p>

<p>विद्यार्थी परस्पर पुढे जाण्याची शक्यता नाकारता येत नाही. अशा वेळी संभाव्य
अडचणी टाळण्याकरिता संगणकाच्या सूचनावलीत अशी तरतूद करता येते की,
योग्य तो क्रम पाळण्याखेरीज विद्यार्थ्यास गत्यंतर नसते.</p>

<p>        उदा. गुणाकाराविषयी जरूर ती माहिती पडद्यावर दर्शवल्याशिवाय
त्यावरील प्रश्न सादर केले जाणार नाहीत. तसेच त्या प्रश्नांची उत्तरे देऊन उत्तीर्ण
होण्याइतपत गुण विद्यार्थ्याने मिळवल्याखेरीज त्याला भागाकारासारख्या पुढच्या
विषयाची माहिती व प्रश्न उपलब्ध होणार नाहीत.</p>

<p>44. कच्च्या विषयांबाबत विशेष मार्गदर्शन .</p>

<p>        एखाद्या विषयाचा अभ्यासक्रम एकदा पूर्ण केल्यानंतर उजळणीपूर्वी
त्यातील ज्या विभागात विद्यार्थ्यास कमी गुण मिळाले असतील, अशा
विभागांवर आणखी कितपत जोर द्यायला हवा, याचे मार्गदर्शन संगणकाद्वारे
शक्य आहे.</p>

<p>        उदा. बेरीज, वजाबाकी , गुणाकार व भागाकार अशा अभ्यासक्रमाच्या
अखेरीस गुणाकारात 60 % व इतरांमध्ये 90% अशी गुणांची तफावत बरीच
आढळल्यास गुणाकार हा विषय पुन्हा अभ्यासण्याची सूचना केली जाईल.</p>

<p>45. उजळणी .</p>

<p>        सर्व प्रकरणे पूर्ण झाल्यानंतर त्याची उजळणी करता येईल. विशेष म्हणजे
उजळणीच्या वेळी अध्यापनाची पातळी थोडी कमी आणि प्रश्न थोडे अधिक
कठीण, अशा रीतीने विद्यार्थ्याचा कस वाढवणे शक्य आहे.</p>

<p>        उदा. गुणाकाराच्या उजळणीमध्ये 'हातचे' कसे हाताळावेत, याविषयीचा
तपशील दर्शवला जाणार नाही व प्रश्न जरा अवघड म्हणजे '74 गुणिले 29'
अशा तऱ्हेने घातले जातील.</p>

<p>                उपरोक्त ठळक फायद्यांखेरीज अन्य काही सोयीदेखील विद्यार्थ्यांकरता
उपलब्ध होऊ शकतात. प्रश्नपत्रिका व टिपणे यांच्या अनेक प्रती छापणे, दिवस
व रात्रीच्या कोणत्याही प्रहरी आपला अभ्यास दुसऱ्याला तसदी न देता करणे.
अशा या सोयी उघडच आहेत, म्हणून त्यावर अधिक भाष्य करण्याची गरज
नाही.</p>

<p>पान नं. - 117</p>

<p>        या प्रकरणातील सारी उदाहरणे गुणाकारासारख्या अत्यंत बाळबोध
विषयातील घेतली आहेत. जेणेकरून विवेचनाचा मुद्दा स्पष्ट व्हावा. प्रत्यक्षात ही
उदाहरणे खगोलशास्त्रात, तत्त्वज्ञान, अभियांत्रिकी अशा ज्या विद्याशाखेकरिता
संबंधित सूचनावली लिहिली असेल त्या विषयातील असतील आणि ती
हळूहळू वाढत्या पटीने अवघड केली जातील. ज्या विषयाचा व ज्या व्याप्ती व
खोलीत अभ्यास करायचा त्यानुसार योग्य त्या सूचनावलीचा वापर अर्थातच
करावयास हवा.</p>

<p>        प्रत्येक विषयातील बारकाले पुनःपुन्हा समजावून सांगणे, विद्यार्थ्याची प्रगती
अजमावणे, अभ्यासाच्या दिशेचे भान ठेवणे. एका आवर्तनानंतर उजळणी करणे,
कच्च्या प्रकरणांची अधिक तयारी करून घेणे आणि या साऱ्या गोष्टी 'वैयक्तिक
लक्ष' घालून करणे असे तज्ज्ञ शिक्षकाचे सारे कौशल्य सूचनावलींमार्फत
संगणकाला प्रदान करणे शक्य असल्यामुळे आपण सुरुवातीस संगणक व
शिक्षक अशी तुलना केली. मात्र विद्यार्थ्याला प्रेरणा देणे, स्वतःच्या विद्वतेने
आदर्श घालून देणे व सर्वांत महत्वाचे म्हणजे आपल्या व्यक्तिमत्वाच्या प्रभावाने
विद्यार्थ्यांच्या उन्नती घडवून आणणे, या संगणकास अशक्य असणाऱ्या बाबीमंध्ये
वर्चस्व गाजविणाऱ्या गुरुचा महिमा अबधित राहणार, यात काय शंका ?</p>

<p>-----------------------------------------------------------------
पान नं. - 123</p>

<p>प्रकरण 21</p>

<p>संगणक सर्वांसाठी</p>

<p>
        सुमारे पन्नास वर्षांपूर्वी जन्माला आलेल्या संगणक या नव्या नवलाईच्या
यंत्राने पाहता पाहता समाजजीवनाचा चेहरामोहरा बदलून टाकण्याएवढा सक्रीय
सहभाग दाखवला आहे. भारतासारख्या खंडप्राय देशातील लोकसंख्या लक्षात
घेता संगणकाचा वापर संयुक्तिक आहे का अशी चर्चा बऱ्याच वेळा कानावर
येते. याविषयी सत्य परिस्थिती अशी आहे की व्यक्तिशः तुम्हाआम्हाला
संगणकाचा वापर योग्य वाटतो का, या प्रश्नाशी संगणकाच्या वाढत्या प्रसाराचा
काही एक संबंध नाही. एखाद्याला अयोग्य वाटले म्हणून संगणकाची घोडदौड
थांबणार आहे थोडीच ? उलट संगणकाची ही लाट अगदी थेट मोठया सागरी
लाटेप्रमाणे आपण सर्वांच्या अंगावर येऊन कोसळत आहे.</p>

<p>                या कारणास्तव संगणकाविषयीच्या प्राथमिक ज्ञानास अनन्यसाधारण महत्व
आहे. सामान्य ज्ञान या वर्गात समावेश करावा, इतक्या मोठया प्रमाणात
संगणक जीवनाच्या विविध क्षेत्रांत प्रवेश करीत आहे. एक पाऊल पुढे जाऊन
असे म्हणावेसे वाटते की, संगणक या यंत्राबद्दल पूर्णतः अनभिज्ञ माणसाची
उद्याची अवस्था ही आजच्या निरक्षर माणसाएवढीच गंभीर असेल.</p>

<p>        सूचनावली या अनोख्या घटकामुळे संगणकास एखाद्या बहुश्रुत
व्यक्तीप्रमाणे ज्या अनेकविध क्षमता साध्य झाल्या आहेत, त्यास यंत्र इतिहासात
तोड नाही. 'अडाणी' यंत्राच्या दुनियेतून बाहेर पडून संगणकाने 'बुद्धिमान'
माणसाच्या दिशेने चार चांगली पावले टाकली आहेत. नेमक्या ह्याच
कारणास्तव, पूर्वी केवळ माणसाला दिला जाणारा 'Man of the year' हा
वार्षिक पुरस्कार लंडन येथील विश्वविख्यात 'टाईम' या नियतकलिकाने इ.स.</p>

<p>
पान नं. - 124</p>

<p>1982 मध्ये अचेतन संगणकास देऊन चांगलीच खळबळ उडवून दिली होती.</p>

<p>                एकीकडे विस्तृत वापरामुळे सर्वांच्या जवळ जाणारा संगणक आणखी एका
दृष्टीने सर्वासाठी म्हणता येईल . एके काळी बडया बहुराष्ट्रीय कंपन्यांची
मिरासदारी असण्याएवढा महागडा संगणक किमतीच्या घसरगुंडीवरून वेगाने
खाली येत आता छोटया छोटया भागीदारी पेढया वा उच्चमध्यमवर्गीय
व्यक्तीपर्यंत येऊन पोचला आहे. महागाई वाढली की मीठ स्वस्त होते. असे पूर्वी
म्हटले जाई ते आता संगणकास लागू पडताना दिसते. 'जनतेचा संगणक'
(Peoples Computer) या सरकारी योजनेअंतर्गत केवळ दहा हजार रुपयात
संगणक जनतेसाठी उपलब्ध करण्याच्या महत्वाकांक्षी प्रस्तावामुळे तर यावर
कडी झाली आहे.</p>

<p>                अशा अनेक अर्थांनी सर्वांसाठी असणारा संगणक समजण्याच्या दृष्टीने मात्र
इतर विषयांपेक्षा जरा जड आहे. एकतर सूचनावली या अभूतपूर्व घटकांमुळे
संगणक हा इतर उपकरणांप्रमाणे आणला घरी न केला सुरू, इतका सोपा नाही.
त्यातच या विषयावरील पुस्तकांची परिस्थिती आणखी भर टाकणारी आहे.
इंग्रजी भाषेतील या विषयामधील ग्रंथसंपदा अपरंपार असली , तरी
मराठीसारख्या प्रादेशिक भाषेत अक्षरक्षः हाताच्या बोटावर मोजण्याएवढे
अपवाद वगळता हा विषय अगदी अस्पर्शित राहिला आहे. स्वाभाविकपणे,
इंग्रजी न जाणणाऱ्या बहुसंख्य मराठी जनतेला या आधुनिक विषयापासून वंचित
राहावे लागत आहे.</p>

<p>         'संगणक सर्वांसाठी' हे सर्वार्थाने म्हणता यावे यासाठी केलेला हा
लेखनप्रपंच. याचे यशापयश अखेर आपण सर्व मराठी वाचकांनीच ठरवायचे
आहे.</p>

<p>
--------------------------------------------------------
पान नं. - 126</p>

<p>1</p>

<p>संगणकाच्या भाषा</p>

<p>संगणक कार्यान्वित करण्यासाठी ज्या सूचनावली वापरल्या जातात. त्याचे
माध्यम म्हणून विविध भाषांचा उपयोग केला जातो. या संगणकभाषा मराठी,
इंग्रजी इ. बोलीभाषेपेक्षा अगदी वेगळ्या व केवळ लेखी स्वरूपातच असतात. हे
आपण यापूर्वी पाहिले आहे. तसेच त्या भाषेंचे तीन स्तरांवरील वर्गीकरण व त्या
त्या वर्गाची वैशिष्टयेही थोडक्यात जाणून घेतली आहेत.</p>

<p>        या परिशिष्टामध्ये काही लोकप्रिय भाषांचे गुणविशेष, आपण पाहणार
आहोत. 'C' ही निम्मस्तरीय भाषा वगळता उरलेल्या सर्व उल्लेखित भाषा
उच्चस्तरीय आहेत.</p>

<p>41. फोर्ट्रान (Fortran) :</p>

<p>        फॉर्म्यूला ट्रान्सलेटर म्हणजे सूत्र-रूपांतर, या अर्थाचे नाव असणारी ही भाषा
1956 साली रचण्यात आली. सर्वप्रथम अस्तिस्वात येण्याचा मान मिळवणारी
ही भाषा गणित व शास्त्र शाखेतील कामासाठी वापरली जाते. नावाप्रमाणे
तिचे स्वरूप गणिती सूत्रांसारखे आहे.</p>

<p>
42. अल्गोल ( Algol):</p>

<p>        फोर्ट्रान सदृश ही भाषा 1958 साली तयार करण्यात आली युरोपमध्ये
प्रचलित असली. तरी ती अमेरिकेत व पर्यायाने अन्यत्रही जरा मागे पडली.</p>

<p>43. कोबोल (Cobol) :</p>

<p>        सामान्यपणे व्यवसायधंद्यास उपयुक्त अशा या भाषेची बांधणी
अमेरिकेच्या संरक्षण विभागात इ.स. 1959 मध्ये करण्यात आली. बहुशः
इंग्रजी भाषेप्रमाणे रचना असणाऱ्या या भाषेत सूचनावली लिहिणे व समजावून
घेणे अत्यंत सुलभ आहे. यास्तव ही भाषा इतकी प्रचंड लोकप्रियता मिळवून</p>

<p>पान नं. - 127</p>

<p>राहिली आहे की, जगातील एकूण सूचनावलींमधील या भाषेचा सहभाग
निम्म्याहून अधिक असावा, असा अंदाज आहे.</p>

<p>44. बेसिक (Basic) :</p>

<p>        केमेनी व कूर्ट््झ या अमेरिकन संशोधनद्वयांनी 1965 च्या आसपास
निर्मिलेली ही भाषा शिकवण्याच्या दृष्टीने अत्यंत सोपी होय. तिचे नावच मुळी
नवशिक्यांची सर्वेद्दिशीय चिन्हांनी  युक्त भाषा अशा अर्थाचे आहे.</p>

<p>5. पास्कल ( Pascal):</p>

<p>                पास्कल या फ्रेंच विद्वानांच्या स्मृतीप्रीत्यर्थ त्याचेच नाव देण्यात आलेली ही
भाषा 1968 मध्ये अवतरली. तिचे जनकत्व वर्थ या शास्त्रज्ञाकडे जाते. सुबद्ध
सूचनावली ( Structured Program) लिहिण्यास उपयुक्त असलेली ही भाषा
विद्यार्थ्यांना शिकवण्यास आदर्श होय.</p>

<p>46. सी (C) :</p>

<p>                थॉमसन व रिची या अमेरिकन संगणकतज्ज्ञांनी सुमारे  पंधरा-वीस वर्षापूर्वी
कोणत्याही संगणकावर वापरण्यासाठी या भाषेची निर्मिती केली. प्रणाली
सूचनावली व उपयोजन सूचनावली या दोन्ही प्रांतांत उपयोगी पडणारी ही भाषा
अतिशय शक्तीशाली व तेवढीच आटोपशीर असल्यामुळे खूपच जनमान्यता
मिळवून श्रेष्ठ ठरली आहे.</p>

<p>                     2</p>

<p>           4संगणक चुकतो का ?</p>

<p>संगणकाची विश्वासार्हता उच्च दर्जाची असल्यामुळे संकलित होऊन येणारी
माहिती ही बहुशः बिनचूक असते. दीर्घकाळ अशी समाधानकारक सुविधा
मिळत गेल्यानंतर उपभोक्ते संगणकावर विसंबून राहिल्यास त्यात आश्वर्य</p>

<p>पान नं. - 128</p>

<p>वाटण्यासारखे काही नाही. परंतु संगणकाविषयीचा हा विश्वास क्रमशः इतक्या
टोकाला जाता की, त्याचे रूपांतर काही प्रसंगी 'संगणक कधीही चुकत नाही'
अशा आधुनिक अंधश्रद्धेत झाल्याचे आढळते.</p>

<p>        बहुगुणी संगणकाकडूनसुद्धा चूक होणे शक्य आहे, हे आपण आवर्जून
लक्षात ठेवले पाहिजे. आणि संगणकाकडून आलेल्या अहवालातील विसंगतीची
खातरजमा करून घेतल्यानंतर त्याविषयी योग्य तेथे तक्रारवजा सूचनावली केली
पाहिजे.</p>

<p>        या चुकांचे प्रमाण अर्थातच अपवादात्मक म्हणावे, इतके विरळा असते,
काही उदाहरणे व त्यामागील कारणे पुढीलप्रमाणे :</p>

<p>1) अहवालातील काही नावे वा संख्या चुकीच्या असणे किंवा माहितीचा
   एखादा अंश पूर्णपणे वगळला जाणे.</p>

<p>                -अशा स्वरूपाच्या चुकांमागील कारण म्हणजे सदोष सूचनावली
कामाचा आवाका मोठा असल्यास सूचनावलींचे आकारमानदेखील
खंडकाव्याप्रमाणे प्रचंड असते. परिणामी थोडयाशा चुका त्यात राहून जाणे
संभवनीय आहे. महाकवींच्या चुकांना आर्ष प्रयोग म्हणताना मनाचा जो
उदारपणा आपण दाखवतो, तसाच अशा बाबतीतही आवश्यक आहे. मात्र
छोटया व मध्यम आकारमानाच्या व बेताच्या क्लिष्ट अशा सूचनावलींमध्ये
सापडणाऱ्या चुकांचे मूळ दुसरेच असू शकते. 'पी हळद आणि हो गोरी' या
चालीवर अपूऱ्या अनुभवामुळे नवशिक्या सूचनावली-लेखकांकडून अशा चुका
होत असतात व त्या निश्चितच टाळता येण्यासारख्या असतात. सूचनावलीमधील
कोणतीही चूक सुधारणे आवश्यक आणि शक्यदेखील आहे, हे येथे नमूद करणे
उचित ठरेल.</p>

<p>2) छपाई अर्धवट वा अस्पष्ट होणे</p>

<p>        -छपाई यंत्र हे अखेर एक यंत्रच आह. साहजिकच काही ओळी अस्पष्ट वा
तिरक्या उमटणे, अक्षराचा किंवा शब्दाचा एखादा भाग गायब होणे अशा
तऱ्हेच्या त्रुटी संभवतात व त्या दुरुस्त करण्यासाठी यंत्रसामग्रीचा देखभाल
करणाऱ्या ग्राहक साहाय्य अभियंत्याची मदत घ्यावी लागते.</p>

<p>पान नं. - 129</p>

<p>3) पूर्णपणे विसंगत व अकल्पित माहिती येणे.</p>

<p>                -विवक्षित मर्यादेपलीकडे तपमान गेल्यास मध्यवर्ती प्रक्रिया केंद्राच्या
कामात बिघाड होतो. उंदीर वगैरेच्या वावरामुळे संगणकाच्या तारांचे सांधे
ढिलावतात वा तुटतात. एखाद्या अतिसूक्ष्म धुलीकणाने तबकडी व
तस्सम उपकरण नादुरुस्त होऊ शकते. अशा परिस्थितीत अनपेक्षित माहिती येऊ
शकते. हे धोके टाळण्यासाठी संगणकाच्या आसपासचे वातावरण स्वच्छ व
थंडगार राखणे जरुरीचे असते.</p>

<p>        एवंच 'मनुष्य स्खलनशील आहे' ही उक्ती माणसाच्या मानसपुत्रासही लागू
पडते.</p>

<p>
                                                3</p>

<p>                                संगणक विषाणू</p>

<p>संगणक प्रांतात सध्या सर्वाधिक बोलबाला असलेल्या वा विषाणूविषयी
आपण वर्तमानपत्रांतून वा दूरदर्शनच्या माध्यमातून बरेच काही वाचले-ऐकले
असेल. आपसातील यादवीयुद्धामुळे विनाशाप्रत जाणाऱ्या शापग्रस्त यादवांची
आठवण करून देणारा हा दारूण प्रकार म्हणजे संगणक तज्ज्ञ व
उपभोक्त्यांबद्दल सामूहिकरित्या सांगायचे झाल्यास आपल्या हाताने आपल्याच
पायावर पाडून घेतलेला धोंडाच होय.</p>

<p>                प्रारंभीच ही बाब स्पष्ट करणे आवश्यक आहे की, अन्य विषाणूप्रमाणे हा
संगणक-विषाणू जिता-जागता नव्हे तर तो एक प्रकारची सूचनावलीच
होय. प्रसार, लक्षणे व उपाययोजना या तीनही बाबतीत जंतूंशी साम्य
असल्यामुळे या सूचनावलींना संगणक विषाणू म्हटले जाते एवढेच, अन्यथा या
दोन संज्ञांचा अर्थाअर्थी काहीही संबंध नाही. यापुढील भागात मात्र
संगणक-विषाणू या शब्दाऐवजी केवळ विषाणू हा शब्द सुटसुटीतपणाच्या
दृष्टीने वापरला आहे. आता या विषाणूचा उपद्रव, फैलाव , उपाययोजना व
अखेरीस मूळ पाहू या.</p>

<p>पान नं. - 130</p>

<p>उपद्रव :</p>

<p>        संगणक पडद्यावर दिसणारे चालू कामाशी संबंधित असे आपण
दिलेले आदेश व त्यांना प्रतिसाद म्हणून संगणकाकडून पडद्यावर दाखवलेली
माहिती, या दोन्हीतील शब्द वा अक्षरे वा सारा मजकूर पुसला जाणे वा
पावसाच्या थेंबाप्रमाणे हळूहळू खाली घसरणे, त्याऐवजी भलतेच शब्द दर्शविले
जाणे असे एक ना अनेक व्यत्यय विषाणूंमुळे येतात. त्याहूनही मोठी डोकेदुखी
म्हणजे कष्टपूर्वक जमवलेल्या माहितीच्या विविध फाईल्सचा पूर्ण विध्वंस या
विषाणूंमुळे संभवतो. सर्वाधिक धोका म्हणजे अशा वेळी पूर्वीच्या जादा प्रती
(Back up) वापरून त्या त्या फाईल मूळपदाला आणू म्हटले, तर त्या प्रतींवरही
हा विषाणू सुप्तरूपात असण्याची शक्यता असते व तो केव्हा टाईमबाँबप्रमाणे
डोके वर काढेल याचा भरवसा नाही. संगणक ज्या विशिष्ट स्थानी असतात, त्या मोक्याच्या
जागी विषाणू शिरकाव करत असल्यामुळे कधीकधी संगणक पुन्हा सुरु
कऱणेसुद्धा कर्मकठीण होऊन बसते.</p>

<p>        हा विषाणू इतका अपायकारक कसा आहे. असा प्रश्न निश्चितच पडेल. याचे
सरळ व सोपे उत्तर असे की, संगणकाच्या यंत्रसामग्रीस कार्यान्वित करणाऱ्या
सूचनावलींप्रमाणे विषाणूदेखील एक तऱ्हेची सूचनावलीच असल्यामुळे एरव्ही
सूचनावली जे जे काम करू शकते त्या त्या कामात विषाणू सहजी ढवळाढवळ
करू शकतो.</p>

<p>फैलाव :</p>

<p>        दोन संगणक कधीकधी एकाच संगणक जाळ्याचे सदस्य ( Member of
the same network) असल्यामुळे एकमेकांशी संपर्क साधतात. अशा वेळी
देवाण-घेवाण होणाऱ्या माहितीबरोबर हे विषाणू इकडून तिकडे जातात. तसेच
एका विषाणूग्रस्त संगणकावर वापरलेली लवचिक तबकडी ( Floppy Disk)
दुसऱ्या चांगल्या स्थितीतील संगणकावर वापरल्यासदेखील विषाणू दुसऱ्या
संगणकावर स्खलांतरित होतात. जीवजंतू जसे आपली संख्या प्रजननाने वाढवत
जातात, त्या पद्धतीत नव्हे, पण स्वतः सूचनावली असल्यामुळे अंगच्याच एखाद्या</p>

<p>पान नं. - 131</p>

<p>सूचनेद्वारे स्वतःची एक प्रत दुसऱ्या संगणकावर उतरविण्याच्या रीतीने या
विषाणूंची संख्यासुद्धा वाढत जाते.</p>

<p>निवारण :</p>

<p>        'लस' ( Vaccine) या नावाने ओळखली जाणारी विशेष स्वरूपाची
सूचनावली या विषाणूंवर उतारा म्हणून वापरली जाते. या सूचनावलीद्वारे
विषाणूग्रस्त साऱ्या फाईल्स स्वच्छ करून संगणक विषाणूमुक्त करण्यात येतो.</p>

<p>प्रतिबंधक उपाय :</p>

<p>        आपल्याकडील परिस्थितीत दुसऱ्याकडून येणाऱ्या तबकडया (Disks)
प्रत्यक्ष वापरण्यापूर्वी तपासून घेणे, हाच एकमेव प्रतिबंधक उपाय म्हणता येईल.</p>

<p>                आता अंतिम भागात विषाणूरूपी सूचनावली कोणी व का लिहिल्या, ह्या
सर्वात महत्वाच्या मुद्याविषयी थोडेसे. लहान मुले जशी चोर-पोलीस खेळ
खेळतात, तसे काही संगणकतज्ज्ञ जाणूनबुजून एकमेकांच्या संमतीने फाईल
उडवून टाकणारे विषाणू संगणकावर लिहितात. परस्परांच्या विषाणूंना हुडकून
काढून नष्ट करणे, हा आव्हानात्मक व रोमांचक खेळ खराच पण लहान मुलांच्या
खेळात जसे अधिकाधिक अवघड जागी लपण्याच्या नादात एखादे मूल
अडचणीच्या जागी गेल्यावर गुदमरते, त्याप्रमाणे जास्तीत जास्त गुंतागुंतीच्या
विषाणू लिहिताना परिस्थिती हाताबाहेर जाऊन, संगणक तज्ज्ञांच्या या अघोरी
खेळाची परिणती म्हणून एक दूर्धर विषाणू संगणकाच्या जगात प्रविष्ट होतो.
याखेरीज आणखी एका कारणाने विषाणू अस्तित्वात येतात, पण त्याविषयीची
माहिती घेण्यासाठी थोडी पूर्वपीठिका आधी पाहावयास हवी.</p>

<p>                एखाद्याने विशेष कौशल्य, ज्ञान वा प्रतिभा वापरून उभी केलेली गोष्ट जेव्हा
व्यापारी तत्त्वावर बऱ्याच प्रतींच्या स्वरूपात सगळीकडे वापरली जाते तेव्हा
प्रत्येक प्रतीमागे काही मानधन ( Royalty) मिळावी ही त्या व्यक्तीची रास्त
अपेक्षा असते. मग ते एखाद्या शास्त्रज्ञाने शोधलेले उपकरण असो वा एखाद्या
साहित्यिकाच्या हातून उतरलेले पुस्तक, व्यक्ती तितक्या प्रकृती, या न्यायाने
काही चोरटी माणसे या मानधनास बगल देतात. आपल्या आवडत्या गायकाची
ध्वनिमुद्रिका विकत घेण्याऐवजी मित्राकडून कॅसेटवर परस्पर आणणारे महाभाग</p>

<p>पान नं. - 132</p>

<p>आपण पाहिले असतील. सूचनावलींच्या बाबतीत हा प्रकार दुर्दैवाने फार मोठया
प्रमाणावर चालला असल्यामुळे अशा सूचनावली लिहिणारे काही संगणकतज्ज्ञ
बुडित गेलेल्या मानधनापायी इतके वैफल्यग्रस्त झाले की, पुराणातील ऋषीमुनी
काही व्यक्तींच्या दुष्कृत्यामुळे भडकून संपूर्ण जातीला वा देशाला शाप देत, तद््वत
या अत्यंत गुणी पण दुखावल्या गेलेल्या संगणकतज्ज्ञांनी सूचनावलीच्या प्रांतात
उचलेगिरी करणाऱ्यांना धडा शिकवण्यासाठी आपले सारे बुद्धिकौशल्य पणाला
लावून असे विषाणू लिहून ते संगणकाच्या विश्वात सोडून दिले. ओल्याबरोबर सुके
जळते म्हणतात. तसे मानधन बुडवून सूचनावली लोटणाऱ्या लोकांबरोबरच काही
निरपराधी उपभोक्तेसुद्धा विषाणूंमुळे होरपळतात, ही या प्रकारातील शोकांतिका
होय. एरवी अत्यंत उज्ज्वल यशोगाथा असणाऱ्या संगणक क्षेत्रास हा विषाणू
लांच्छनास्पद होय. तंत्रज्ञानाने कितीही प्रगती केली असली, तरी पुरातन नीतिमत्तेचे
मूल्य अजूनही शाश्वत आहे, असेच या निमित्ताने म्हणावेसे वाटते.</p>

<p>*
-----------------------------------------------------------
THE END</p>

<p></p>

<p></p></body></text></cesDoc>