<cesDoc id="mar-w-arts-hobbies-ho00d004.maf" lang="mar">
<cesHeader type="text">
<fileDesc>
<titleStmt>
<h.title>mar-w-arts-hobbies-ho00d004.maf.txt</h.title>
<respStmt>
<respType>Electronic file created by</respType>
<respName>Central Institute for Indian Languages, Mysore</respName>
<respType>transferred into Unicode and CES format by</respType>
<respName>"Unicodify" software by Andrew Hardie</respName>
</respStmt></titleStmt>
<publicationStmt>
<distributor>UCREL (on behalf of CIIL)</distributor>
<pubAddress>Department of Linguistics, Lancaster University, Lancaster, LA1 4YT, UK</pubAddress>
<availability region="WORLD"></availability>
<pubDate>03-07-25</pubDate>
</publicationStmt>
<sourceDesc>
<biblStruct>
<monogr>
<h.title>सौंदर्यासाठी त्वचेची निगा</h.title>
<h.author>वंदना पिंपळखरे</h.author>
<imprint>
<pubPlace>India</pubPlace>
<publisher>Unknown - भास्कर काणेकर</publisher>
<pubDate>1986</pubDate>
</imprint>
<idno type="CIIL code">ho00d004.maf</idno>
</monogr></biblStruct></sourceDesc></fileDesc>
<encodingDesc>
<projectDesc>Text collected for the CIIL Corpus, subsequently integrated into the EMILLE/CIIL Monolingual Written Corpora.</projectDesc>
<samplingDesc>Simple written text only has been transcribed. Diagrams, pictures and tables have been omitted. Sampling begins at page  पुणे.</samplingDesc>
<editorialDecl><conformance level="1"></conformance></editorialDecl>
</encodingDesc>
<profileDesc>
<creation><date>03-07-25</date></creation>
<langUsage>Marathi</langUsage>
<wsdUsage>
<writingSystem id="ISO/IEC 10646">Universal Multiple-Octet Coded Character Set (UCS).</writingSystem>
</wsdUsage>
<textClass>
<channel mode="w">print</channel>
<constitution type="composite"></constitution>
<domain type="public"></domain>
<factuality type="fact"></factuality>
</textClass>
<translations></translations>
</profileDesc>
<revisionDesc></revisionDesc>
</cesHeader>

<text><body>

<p>किंमत -30 Rs.
एकूण पाने :-
FROM 59   TO 75</p>

<p>पान नं. 59</p>

<p>          केस</p>

<p>त्वचेच्या आरोग्याबाबत विचार करताना आपले केस आणि त्यांचे आरोग्य
यांचाही विचार करायला हवा ! घनदाट काळ्याभोर केसामुळे चेहऱ्याला
उठावदार रूप येते त्या केसांच्या तळाशी ताळूमध्ये कोंडा, बारीक कचऱ्याचे
कण असल्यास त्यामुळे त्वचेवरही अनिष्ट परिणाम दिसू लागतात. जिथे
ताळूमध्ये थोडे अनारोग्य असेल तर चेहऱ्यावरही पुटकुळ्या, नाकपुड्याभोवती
बारीक बारीक पुटकुळ्या दिसू लागतात. त्वचा आणि ताळू यांचे जवळचे
नाते आहे.</p>

<p>प्रथम ताळूची पाहाणी करूया</p>

<p>जिथे भरपूर उजेड आहे अशा जागी
चांगला मोठा आरसा ठेवून त्यासमोर तुम्ही
आपले केस मोकळे सोडून बसा. कपाळाच्या
कडेच्या दोन टोकापासून मागल्या डोक्या-
पर्यंत दोन भाग पाडून दोन भांगामधल्या
केसाचा झुबका हातात घेऊन त्याला जरा
पीळ देऊन मागल्या बाजूला घ्या.</p>

<p>आरशासमोर डोके नेऊन तुम्हाला या भागांची पाहाणी करता येईल. तिथे</p>

<p>पान नं. 60</p>

<p>काय दिसते ? भरमसाट पांढरा कोंडा आहे का ? तुम्ही आपल्या बोटांची टोके
भांगात चोळल्यासारखी करून ताळू चाचपून पाहा. ती जर चांगल्या
आरोग्यशील स्थितीत असली तर कोंडाविरहीत असेल, कोरडेपणा आणि
तेलकटपणा यापासून पूर्णपणे मुक्त असेल. त्यामुळे तुमचे केस चमकदार
आणि आरोग्यपूर्ण दिसतील.</p>

<p>
तुमच्या डोक्याच्या निरनिराळ्या भागात भांग पाडून त्या जागी बोट फिरवून
ताळूची पाहाणी करा. त्या जागचा नैसर्गिक तेलकटपणा कसा आहे हे पाहून
आपले मत ठरवा.</p>

<p>जर तुमची ताळू नॉर्मलपेक्षा काहीशी वेगळी वाटली तरी तुमचे दुर्लक्ष होऊ
नये. ताळूबाबत काही समस्यांचा विचार खालीलप्रमाणे</p>

<p>तेलकट ताळू</p>

<p>ताळूतील तेलकटपणाचा तसा परिणाम तुमच्या चेहऱ्याच्या त्वचेवर होत
नाही. पण तिच्यातल्या फाजील तेलकट अंशामुळे ताळूवर बारीक पुटकुळ्या
येतात. अशा प्रकारच्या केसांची टोके तुमच्या चेहऱ्याला स्पर्श करीत
राहिल्यास तुमच्या चेहऱ्यावर पुटकुळ्या वाढायला मदत होते. बोट फिरविताना
ते तेलकट झाले तर ताळूतल्या तैलग्रंथीची
फाजील कार्यक्षमता दिसून येते. अशा
ताळूमुळे तुमचे केस तेलकट आणि
निस्तेज दिसतात. यासाठी केस धुण्यापूर्वी
एका लिंबाचा रस काढून बोटांनी तो
तुमच्या ताळूवर चोळून चोळून लावा.
नंतर शिकेकाई अगर शांपूने केस धुवा.</p>

<p>कोरडी ताळू</p>

<p>तुमची ताळू कोरडी, रखरखीत असल्याचे तुमच्या बोटाला जाणवते का ?
तुमचे केस निस्तेज दिसतात का ? तुमच्या केसांची टोके दुंभगलेली आहेत
का ? ताळूतल्या कोरडेपणामुळे या सर्व तक्रारी उदभवतात.</p>

<p>यासाठी सर्वात सोपा उपाय म्हणजे ताळूला बोटानी मसाज करून तिथला
रक्तप्रवाह उत्तेजित करणे. केस धुण्यासाठी सौम्य शांपू वापरावा. जर ताळूची</p>

<p>पान नं. 61</p>

<p>स्थिती दोषयुक्त असेल तर तज्ज्ञाला विचारावे.</p>

<p>कोंडायुक्त ताळू</p>

<p>केसातला कोंडा तेलकट किंवा कोरड्या ताळतही उदभवतो आणि छोट्या
छोट्या पापुद्रयांच्या रूपात तो तुमच्या त्वचेवर, कपड्यावर पडतो. असे पापुद्रे
तुमच्या मानेवर, ब्लाऊजच्या गळपट्टीवर, टॉपच्या गळ्यावर दिसू लागले की
धोक्याचा इशारा आहे असे समजावे.</p>

<p>या प्रकारच्या पांढऱ्या किंवा राखाडी कोंड्यामुळे त्वचेच्या समस्या सुरू
होतात. कोंडा कपाळ, नाक, हनुवटी, मान, मानेची मागली बाजू यावर पडू
लागला की त्वचेलाही काही प्रसंगी जळजळ वाटू लागते. अशा प्रसंगी प्रथम
कोंडा कसा नाहीसा करता येईल याचा विचार केला पाहिजे. म्हणजे पर्यायाने
त्वचेच्या निगेला मदत होईल.</p>

<p>त्यासाठी कोंडा प्रतिबंधक शांपूचा वापर करा. काहींना शांपूऐवजी शिकेकाई
साबण अधिक मानवतो. केसात साबणाचा फेस वा अंश राहू देऊ नका.
पावसाचे पाणी आकाशातून पडत असताना बादलीत गोळा करून त्याने
केस, चेहरा धुवावा. या पाण्याचा काही त्वचेवर कोंडायुक्त केसावर चांगला
परिणाम झालेला दिसून आला.</p>

<p>इतके करूनही केसातला कोंडा कमी झाला नाही तर तज्ज्ञाला भेटून
सल्ला घ्या.</p>

<p>आपल्या संपूर्ण शरीरावर असंख्य केस असतात. शरीरातल्या नाजुक इंद्रियांचे
संरक्षण केसांच्या आच्छादनामुळे सुरक्षितपणे होते. शरीरावरच्या केसाकडे
बघण्याचे दृष्टिकोन मात्र वेगवेगळ्या समाजात वेगवेगळ्या स्वरूपाचे असू
शकतात पुरूषांच्या छातीवरचे केस पौरूषत्वाचे लक्षण मानले जाते. ज्या
पुरूषांना असे छातीवरचे केस नसतात. ते छातीवर कृत्रिम केसांचे पॅड लावून
पुरुषी सौंदर्याच्या आविष्कार करतात. डोक्यावरचे केस विरळ होऊ लागताना
दिसताच काही पुरूष केसांचा टोप (विग) घालून आपण तरूण असल्याचा
आभास निर्माण करतात, केसविरहित मृदु त्वचेचे हात, पाय, काख(अंडर
आर्म) हे अमेरिकन स्त्री सौदंर्याचे लक्षण मानले जाते. भिवया, पापणीचे केस
नसल्यास पुष्कळ स्त्रिया कृत्रिम भिवया पापण्या यांचाच वापर करतात.</p>

<p>पान नं. 62</p>

<p>काहीच्या हातावर, ओठावर काही दाट लव असते, सर्वाना ती नकोशी असते.</p>

<p>आपल्याकडेही हातावरचे, चेहऱ्यावरचे नको असलेले केस काढून
टाकण्याची फॅशन दिवसेंदिवस वाढत्या प्रमाणास दिसून येत आहे. शेव्हिंगमुळे
हे नको असलेले केस तात्पुरते काढले ते परत लवकर वाढतात. नको
असलेले केस समूळ काढण्यासाठी बाजारात अनेक प्रकारच्या क्रीम्स, अँनी
फ्रेंच वगैरे साधने उपलब्ध आहेत. त्यांच्या वापरामुळे त्वचेवरचे केस निघून
जाऊन त्वचा नरम रहाते. पोटऱ्यावरच्या केसांसाठी हा उपाय यशस्वी ठरला
तरी चेहऱ्यावर वापरण्याचा प्रयत्न अतिशय काळजीपूर्वक करावा लागतो.</p>

<p>वॅक्सिंग हा नको असलेले केस काढून टाकण्यासाठी एक दीर्घकाळ
टिकणारा उपाय आहे. नकोसे केस काढून टाकल्यामुळे त्वचा सुंदर दिसते.
वॅक्सिंगचा परिणाम काही आठवडे टिकणारा आहे. काही स्त्रियांच्या बाबतीत
तर एक किंवा त्याहूनही जास्त महिने त्वचा केसविरहित रहाते. शरीराच्या
लहानग्या भागावरच्या त्वचेवर वॅक्सिंग करून ती प्रतिक्रिया होते, त्वचा
संवेदनाशील किंवा अँलर्जीयुक्त नाही ना याची खात्री करून झाल्यावरच मग
हा उपाय करणे योग्य ठरतो. ब्युटी पार्लरमधल्या अनुभवी तज्ज्ञाकडून माहिती
करून शिकून घ्यावे. एकदा वॅक्सिंग केल्यानंतर परत केसांची वाढ होईपर्यंत
काहीमहिन्यांचा कालावधी जातो.</p>

<p>वॅक्सिंगपेक्षा इलेक्ट्रॉलिसिस हा केस मूळासकट काढून टाकण्याचा कायम
स्वरूपाचा इलाज आहे. या तंत्राची खर्चाची साधनसामुग्री, तज्ज्ञाचा सफाईदार
हात यांची आवश्यकता असते. कुशल अनुभवी तंत्रज्ञाकडून हा इलाज करून
घ्यावा. इलेक्ट्रॉलिसिससाठी (रेडिओ अक्टिव्ह व्हेवज्) चा वापर करतात. काही
कारणामुळे तुमच्या चेहऱ्यावर हातावरच्या केसांची फाजील वाढ होऊ लागली
तर तुमच्या फॅमिली डॉक्टराचे मत विचारात घ्या. कधी कधी शरीरातल्या हर्मोन्स-
मध्ये बिघाड किंवा बदल झाल्यास शरीरावर केस येऊ लागतात. फॅमिली
डॉक्टरच्या सल्ल्यानुसार हर्मोन स्पशलिस्टकडे जाऊन त्याप्रमाणे उपचार
सुरू करावा.</p>

<p>इलेक्ट्रॉलिसिस वगळल्यास बाकीच्या सर्व उपचार पद््धतीमुळे केसांची वाढ
गवताप्रमाणे झपाट्याने होत जाते. केस हातांनी उपटण्यामुळे केस वाढू</p>

<p>पान नं. 63</p>

<p>लागतात. इलेक्ट्रॉलिसिसची साधने परदेशात मिळू लागली आहेत. पुस्तकेही
उपलब्ध आहेत. पण पुस्तके वाचून इलेक्ट्रॉलिसिसने नको असलेल्या केसांवर
उपाय करण्याचा वेडेपणा करू नये. त्यातली सुई चुकीच्या तऱ्हेने त्वचेत
खुपसली तर गुण येण्यापूर्वी धोकाच निर्माण होईल.</p>

<p>पान नं. 64</p>

<p>        झोप</p>

<p>रात्रभर शांत, सुखकरक झोप झाल्यानंतर तुम्ही सकाळी प्रसन्न मनाने
उठता ना, तेव्हा आरशात तुम्ही पाहिले तर काय दिसेल ? तुमच्या
त्वचेवर आरोग्याची चमक,डोळ्यामध्ये चमक आणि एकंदर सर्व हालचाली
मध्ये उत्साह ! दिवसभर शारीरिक, मानसिक श्रम केल्यानंतर माणसाला आठ
तास सलग झोपेची संजीवनी शरीर-मनाची झालेली झीज भरून काढायला
मदतच करते. झोपेची संजीवनी सहजतेने मिळत नसते, त्यादृष्टीने तुमचे
प्रयत्नही आवश्यक आहेत.</p>

<p>नाहीतर उलट परिणाम व्हायची शक्यता असते. दिवसातल्या ताणतणावां-
मुळे, वाजवी-गैरवाजवी काळज्यांमुळे शरीरात अशुद््ध द्रव्ये जमा
होतात. आपल्या शारीरिक हालचाली बंदिस्त होऊन सर्वत्र निरूत्साही वाटते.
कामावरून संध्याकाळी घरी आल्यानंतर थकवा वाटूनही भूकच लागत</p>

<p>पान नं. 65</p>

<p>नाही. दोन घास खाण्याचीही इच्छा वाटत नाही, क्षुल्लक घटनेमुळेही चिडल्या
सारखे होते. अशा स्थितीत झोपून जावे म्हटले तरी झोप येत नाही. सारांश
प्रत्येकमाणसाचे शरीरयंत्र निरनिराळ्या पद््धतीने काम करत असल्यामुळे
शरीराच्या गरजाही वेगवेगळ्या असतात, त्याप्रमाणे उपाय शोधावे लागतात.</p>

<p>काहींच्या बाबतीत रात्रीचे जेवण संध्याकाळी साडेसातला घेऊन रात्री साडे-
आठ-नवाच्या सुमाराला एखादा फेरफटका शरीराला विशेषतः पचनशक्तीला
हितावह असतो. काही माणसांना ऑफिसातून घरी आल्यानंतर स्नान करून
हलके वाटते तर काहींना झोपण्यापूर्वी स्नान हितकारक वाटते.</p>

<p>रात्रीचे जेवण पचण्यास शक्य तो हलके असावे. तळकट पदार्थ, भूक
नसताही आवडीचे पदार्थावर ताव मारणे याचा परिणाम अखेरीला निद्रानाश,
पोटात जळजळ याकडे होतो. रात्रीच्या जेवणांनतर शक्य तो चहा-कॉफी
यासारखी गरम पेये टाळावी.</p>

<p>आज बाजारात अनेक कारणांसाठी गोळ्या उपलब्ध आहेत. संतती-
नियमनासाठी पोटात घ्यायच्या गोळ्या, मेनॅपॉजसाठी हर्मोन्सच्या गोळ्या,
गर्भधारणा पाडण्यासाठी किंवा निद्रानाश घालवण्यासाठी गोळ्या, औषधे
सामान्य माणसांच्या हाताशी आलेली आहेत. औषधाबाबत हल्ली सामान्य
माणसालाही खूप माहिती असते. तो स्वतःपुरता डॉक्टर बनून ""मला सल्ला
देऊ नका...मला अर्णिका द्या."" असे अधिकारवाणीने डॉक्टरनाच
मार्गदर्शन करतो. काही काही औषधानी अनेकांवर त्वरित गुण आला तरी
त्या औषधांचे अंतिम परिणाम अतिशय गंभीर स्वरूपाचे आढळून येतात.</p>

<p>झोपेसाठी गोळ्या किंवा औषधे यांचा परिणाम तुमच्या त्वचेवरही होते;
चेहऱ्याची त्वचा खरखरीत, निस्तेज होऊ लागते. अकाली सुरकुत्या चेहऱ्यावर
दिसू लागतात. चेहऱ्यावरच्या पुटकुळ्या घालविण्यासाठी काही काही डॉक्टर
अँन्टीबॉयोटिक्सचा वापर सर्रासपणे करतात. त्वचेबाबत अँन्टीबॉयोटिक्समुळे
तात्पुरता परिणाम झाला तरी दीर्घकालीन परिणाम चांगले नसतात हे सिद््ध
झाले आहे.</p>

<p>झोपेच्या तक्रारीबाबात आणि एकंदरीत जास्तीत जास्त नैसर्गिक जीवनाचा
स्वीकार करून कृत्रिम औषधांचा कमीत कमी वापर आरोग्याला आणि त्वचा-</p>

<p>पान नं. 66</p>

<p>सौंदर्याला उपकारक आहे. झोपेच्या गोळ्या खाऊन झोप आणण्यापेक्षा काही
सोपे व्यायाम प्रकार बिछान्यात पडल्या पडल्या करावेत.</p>

<p>बिछान्यात पडल्यानंतर दिवा मालवून टाका. उताणे पडून डोळे मिटून
घ्या. आपले शरीर निश्चल ठेवून ते फुग्याप्रमाणे तरंगत असल्याची
बिछान्यावर मनाशी कल्पना करा.</p>

<p>एक ते पाच अंक मोजून त्यावेळी आपल्या पायाच्या आंगठ्यांना वर...
खाली, वर...खाली व्यायाम द्या. मानेलाही वर...खाली, उजवी-
कडून डावीकडे, डावीकडून...उजवीकडे असा हलक्या स्वरूपाचा
व्यायाम द्या.</p>

<p>पान नं. 67</p>

<p>
हाताचे सौंदर्य</p>

<p>चेहऱ्याचा त्वचासौंदर्यावर बरेचसे रूप अवलंबून असते. चेहऱ्याजवळचे
अवयव म्हणजे तुमचे हात ! हाताची त्वचा, हाताच्या बोटांच्या हालचालीतून
व्यक्त होणारे तुमचे मन, हातांच्या बोटांची निगा, नखांची स्वच्छता, टोकदार
आकार याकडेही पहाण्याचे लक्ष निमिषार्धात जाते. हातांच्या शांत, स्थिर
हालचालीतून व्यक्त होणारे तुमचे मन सूचित होत असते. घरीदारी किंवा
समाजात वावरताना तुम्ही तुमचे हात एखाद्या फोटोतल्या व्यक्तीच्या हाता-
प्रमाणे डौलाने ठेवून वावरता ना ? हाताची अस्थिर हालचाल, चाळवाचाळव
करू नये. हाताना मिळणाऱ्या विश्रांतीमुळे हातांचे सौंदर्य खुलते.</p>

<p>चेहऱ्याची त्वचा खुलविण्यासाठी आपण जशी काळजी घेतो त्याच प्रकारची
मेहनत किंवा काळजी आपल्या हाताचे सौंदर्य टिकविण्यासाठी घेणे आवश्यक</p>

<p>पान नं. 68</p>

<p>आहे. वयापरत्वे हाताची त्वचा निबरट दिसू लागते. हातावर असलेल्या शिरा
फुगीर दिसायला लागतात. दंडातले मांस पिशवीसारखे लोंबू लागते. हे सर्व
टाळण्यासाठी हातांचा मोहक डौल किंवा हातांचे तारूण्य टिकविण्यासाठी थोडी
मेहनत घेणे हितावह आहे.</p>

<p>घरकामामुळे विशेषतः सोडा-साबणाने कपडे धुण्यामुळे तुमचे हात
खरखरीत होण्याची शक्यता असते. घराभोवतालच्या बागकामामुळे नखांमध्ये
माती अडकते. ही कामे केल्यानंतर हात कोमट पाण्याने स्वच्छ करून
हाताच्या बोटांना, तळव्यांना क्रीम लावावी, क्रीम लावून मसाज करून नंतर
रात्री झोपावे. हातांनी क्रिम लावून दंडावरूनही हात खसखसून फिरवा. दंडाचे
मांस सैल झाले असले तर त्यालाही घर्षणामुळे चांगला आकार येण्यास मदत
होईल. कोपराच्या आतली बाजू, मनगटे यांना मसाज करून हाताची बोटे,
तळव्याच्या आतली-बाहेरची बाजू यांनाही चांगले चोळावे. एखाद्या सुती
हातमोजांचा वापर करून झोपावे.</p>

<p>केस, त्वचा, नखे शरीराच्या इतर स्नायुंना प्रथिने फार आवश्यक असतात.
प्रथिनांचा योग्य पुरवठा झाल्यास केसांना, नखांना चांगली वाढ असते. प्रथिने
आणि खनिजे योग्य प्रमाणातआहारात समाविष्ट करावी. प्रथिनयुक्त क्रीम
चेहऱ्याला, मानेला आणि हातांना चोळून लावावी. हातांना योग्य व्यायामही
करायला लावावे. म्हणजे दंडाचा थलथलीत लोंबणारा भाग मर्यादित राहील.
दंड सुटणार नाहीत. हाताचे कोपर कळे, दुर्लक्षित रहाते. लिंबाची अर्धी
फाक पिळून झाल्यानंतर ती टोपीप्रमाणे तुमच्या कोपरात घालून गोलाकार
फिरवीत रहा. योग्य व्यायामाने हातांनी चांगला आकार द्या. हातांच्या बोटांची
उघडझाप करून बोटांनी, बोटांच्या स्नायुंना व्यायाम द्या. हाताची नखे तुमच्या
आरोग्याची निदर्शक आहेत. नखांवर पांढरे डाग किंवा नखांचा ठिसूळपणा</p>

<p>पान नं. 69</p>

<p>नसावा. गुलाबी चमकदार नखे असण्यासाठी आहारात दूध किंवा दूधजन्य
पदार्थाचा समावेश करा. व्हिटॅमिन ई मुळे पायांना रक्तपुरवठा पुरवला
जातो. काही परदेशी कंपन्यांच्या हॅण्ड क्रीमचा वापर करून हातपाय सुडौल
ठेवता येतात. घरकामामुळे हातांना येणारा खरखरीतपणा घालविता येतो.
ग्लिसरीनचाही वापर करावा.</p>

<p>काहींच्या हातावर काळीभोर लव असते. त्वचेच्या सौंदर्याला हे गालबोटच
आहे. मधून वॅक्सिंग करून हा दोष घालवावा. पोटऱ्या, मांड्या यावरचे
केस सौंदर्याला विशोभित आहेत. साडी, चुडीदार या पेहेरावात ते झाकले गेले
तरी स्कर्ट, फ्रॉकमधून पोटऱ्याचे खरे केसाळ रूप दिसून येते. योग्य
खबरदारी घ्यावी.</p>

<p>हाताच्या बोटांची उघडझाप करून बोटांना, बोटांच्या स्नायुंना व्यायाम
द्या. हाताची नखे तुमच्या आरोग्याची निदर्शक आहे. नखांवर पांढरे डाग
किंवा नखांचा ठिसूळपणा असू नये. गुलाबी चमकदार नखे शुद््ध रक्तपुरवठा
सूचक आहेत.</p>

<p>तुमची नितळ त्वचा, तुमचे तरतरीत नाक-डोळे यातून सौंदर्याचा ठसा
निर्माण होत असतानाही हातापायाच्या डौलदार हालचाली, मानेची कमनीयता
यामुळे तुम्ही आपल्या व्यक्तिमत्वाचा प्रभाव दाखवू शकाल.</p>

<p>पान नं. 70</p>

<p>  पायाचे सौंदर्य</p>

<p>तुमच्या संपूर्ण शरीराचा डौल तुमच्या पायावर आणि बसण्या-उठण्याच्या
आकृतीवर असतो. माझ्या दुसऱ्या मजल्यावरच्या गॅलरीत संध्याकाळच्या वेळी
नेहमीचे दृश्य पहायला मिळते. माझ्या घरालगतच्या रस्त्यावरून असंख्य स्त्री-
पुरूष पायी जात येत असतात. माणसागणिक चालण्याचे आणि चालण्यातून
व्यक्त होणाऱ्या पायांचे दर्शन सहजपणे घडते. काहीजण शरीर ओढत नेल्या-
प्रमाणे चालतात तर काही पायाला जखम झाल्याप्रमाणे लंगडत, फरफटत
चालतात. काहीजणांना संकट पडल्यासारखी चालायची सवय असते. काहीजण</p>

<p>दुडवऱ्या चालीने चालतात तर काही स्वतःशी बडबडत चालतात...चालताना</p>

<p>पान नं. 71</p>

<p>आपल्या शरीराचे वजन शरीरभर समांतर राखून चालावे. पाण्याचे पितळी हंडे
डोक्यावरून वाहून नेणाऱ्या एकदोघी खेडवळ दिसणाऱ्या बायका त्याच रस्त्याने
अशा डौलात पावले टाकीत जातात की त्या मोहक तालबद््ध पदन्यासाकडे पहात
रहावे. याच खेडवळ बायकांमुळे मला पायाच्या सौंदर्याची जाणीव झाली.</p>

<p>डोके, खांदे, मान सरळ एका रेषेत निश्चल ठेवून पावले टाकताना कंबरे-
पासून पायाचा भाग आणि हातांची पुढे-मागे हालचाल यात सुसंवाद, समान
गती राखायचा प्रयत्न करा. चालताना डोळे, दृष्टी नेहमी समोर असावी. पावले
टाकण्यात, चालण्यातही आकर्षक डौल असावा, योग्य गती असावी
चालण्यातूनही तुमच्या व्यक्तिमत्वचा परिचय होतो.</p>

<p>तळपयांना भेगा, भोवरी, फोड,. चिखली वगैरे काही त्रास असल्यास तुमची
चाल बोजड,त्रासदायक झाल्यास नवल नाही. सतत दिवसभर बूटचपलामध्ये
तळपाय बंदिस्त ठेवल्यामुळेही पायांच्या तक्रारी वाढतात. दिवसातला काही
वेळ तरी अनवाणी पायाने वावरावे.</p>

<p>चेहऱ्याच्या स्वच्छतेइतकीच पायांच्या स्वच्छतेची गरज आहे. संध्याकाळी
बादलीभर कोमट पाण्यात तुमचे पाय बुडवून दिवसभराचा शीण, थकवा क्षणात
घालविता येतो.</p>

<p>बाहेरून जाऊन घरी आल्यानंतर थंड पाण्याने पाय धुतल्यानंतर टॉवेलने
तुमचे पाय, बोटे, तळपाय कोरडे करा. बूट वापरताना त्यापूर्वी बुटात थोडी
टाल्कम पावडर घाला.</p>

<p>पायांना पोषक असा एक व्यायाम प्रकार : खेळातली गोटी किंवा त्यासारखी
एखादी लहानशी वस्तू पायाच्या आंगठ्याने आणि आंगठ्याजवळच्या बोटाने
जमिनीवरून उचलण्याचा प्रयत्न करावा.</p>

<p>दुसरा प्रकार : तुमची दोन्ही पावले समांतर ठेवून उभ्या रहा. नंतर बाहेरच्या
अंगाकडे पावले सरकविण्याचा हळूहळू प्रयत्न करा. तळपायाच्या कमानींना
चांगला व्यायाम मिळतो. टीव्हीवरचे कार्यक्रम पाहाताना बसल्या बसल्या
हातापायंचे सोपे व्यायाम करावे.</p>

<p>पान नं.72</p>

<p>मानेचे सौंदर्य</p>

<p>माणसाच्या शरीर-सौंदर्यातमानेचे सौंदर्य आणि सामर्थ्य नेहमी दुर्लक्षित
राहिलेले आहे. आपल्या डोक्याचे संपूर्ण वजन उचलून धरणारी, पायापासून
डोक्यापर्यंत रक्तवाहिन्या, मज्जासंस्था, पचनेंद्रिय, श्वासोच्छवास यांना पोषक
तसेच मेंदूकडून सर्व प्रकारच्या संदेशाची ने आण करणारी मार्गधारी मान हा
दिसायला अतिसय रेखीव आणि नाजुक अवयव आहे. आपले डोके योग्य
स्थितीमध्ये न ठेवल्यामुळे तसेच बाह्य जगातले ताण, काळज्या यामुळे मान
आणि पाठ, खांदे-मणक्याची हाडे यांना तोडणाऱ्या स्नायुमध्ये एक प्रकारचा
अंतस्थ ताण निर्माण होऊन मानेत किंवा खांद्यात ताठरपणाचा त्रास पुष्कळदा
स्त्रियांना भोगावा लागतो. त्यासाठी काही सोपे व्यायाम प्रकार खालीलप्रमाणे :</p>

<p>मान,खांदे आणि पाठीचा वरचा भाग ताण कमी करण्यासाठी
सुरूवातीला संत्रे घेऊन तुमची वरची पाठ (मध्यभागी) आणि भिंत यांच्यामध्ये
ठेवा, मानेच्या मागल्या भागाने खांद्याच्या बाजूला ते संत्रे जरा फिरते करायला
मदत करा. या व्यायामाने मानतेला ताठरपणा कमी व्हायला मदत होते. एखादे
वेळी बस प्रवासात किंवा इतरत्र वेळ झाल्यास हा सोपा व्यायाम प्रकार मनाशी
आठवून कल्पनेने व्यायाम करा.</p>

<p>मानेसाठी दुसरा व्यायाम प्रकार असा : तुमच्या डोक्यावर एक सुंदर
सफरचंद ठेवले असल्याची कल्पना करा. तुमचे डोके मागे वळवून जरा तिरपे
ठेवा, दोन्ही हात खाली ठेवा. दोन्ही खांदे आरामशीर ठेवा. मान घशाचे</p>

<p>पान नं. 73</p>

<p>स्नायु किचिंत खेचून डोक्यावरच्या सफरचंदाला आधार देत आहात अशी
तुम्ही मनाशी कल्पना करा. सफरचंद काल्पनिक असले तरी त्या व्यायामाचे
परिणाम प्रत्यक्ष दिसतीलच. घशाच्या स्नायुंना बळकटपणा येईल, मानेची उंची
किचिंत वाढलेली दिसेल. तुमच्या हनुवटीखालील मांसल भागाला तरतरी येईल.</p>

<p>पुष्कळांना दुहेरी हनुवटी दिसू
लागते आणि त्यामुळे चेहऱ्याचे
सौंदर्य बिघडू लागते. त्यासाठी
खालील व्यायाम रात्री झोपण्या-
पूर्वी करावा.</p>

<p>बसलेल्या स्थिती तुम्ही
तुमचे डोके किचिंत खाली करून
तुमची हनुवटी छातीला टेकवा.
हनुवटाला पुढाकार देऊन हळूहळू
वरच्या आढ्याला नजर लावाल
अशी मान वर वळवा. यामुळे
मानेला चांगला ताण मिळतो. तुमचे खालचे आणि वरचे दात एकमेकांवर
ठेवून वरचा ओठ घट्ट मिटून ठेवा. रात्री झोपण्यापूर्वी दहावेळा हा
व्यायाम करा. ..तुमची मान हंसाप्रमाणे मोहक आणि लवचिक
दिसू लागले.</p>

<p>वाढत्या वयाच्या खुणा मानेवरून ओळखता येतात. वयापरत्वे मानेची त्वचा
लोंबू लागते, सुरकुत्यानी भरून जाते. खोबरेल तेलाचा हात मानेवर फिरवून
मानेच्या तळाशी खांद्यावरून फिरवल्यासारखे करा.</p>

<p>तुमच्या ब्लाऊजच्या गळ्याचा आकार तुमच्या मानेचे सौंदर्य खुलवणारा
असू दे. तसेच टी शर्ट, कुर्ता, कमीज यांचे गळे, कॉलर्स तुमच्या मानेला उठाव
देणारे असावेत. तीच सौंदर्यदृष्टी गळ्यातल्या घट्ट पदरच्या नेकलेस, पोटावर
रूळणारे लांबसर किंवा गळा भरून दिसणारे कोल्हापुरी साज, ठुशी या
दागिन्यांबाबत वापर करतेवेळी बाळगावी. आंधळेपणाने एखादी फॅशन स्वीकार-</p>

<p>पान नं. 74</p>

<p>ण्यापेक्षा आपले वय, व्यक्तिमत्व, शारीरिक वैशिष्टय याना उठाव देणाऱ्या
कपड्या-दागिन्यांचा स्वीकार व वापर ही खरी रसिक सौंदर्यदृष्टी.</p>

<p>पान नं. 75</p>

<p>घरगुती उपचार</p>

<p>हल्लीच्या सौंदर्यप्रसाधनांबाबत आकर्षक
जाहिरातींमुळे पुष्कळांचा समज होतो की
प्रस्तुत सौंदर्यप्रसाधनांच्या वापरमुळे आपण
झटपट सुंदर दिसू, आपली त्वचा गोरी
होईल, झटपट गोरेपण कोणाला नको
असते ? आरोग्य किंवा शारीरिक सौंदर्य
असे कधी झटपट मिळत नसेत.</p>

<p>पुष्कळ स्त्रियांचा समज असाही असतो
की ब्युटी पार्लरमधल्या उपचारामुळे आपण
सुंदर दिसू लागतो. शहरातल्या ब्युटी पार्लरच्या वाढत्या संख्येकडे पाहिल्यावर
वाटते की शास्त्रीय दृष्टिकोनाने उपचार देणारी दोनचार दर्जेदार ब्युटी पार्लर
वगळल्यास बहुतेक ब्युटी पार्लर म्हणजे भोळ्याभाबड्या स्त्रियांची शुद््ध फसव-
णूक आहे. ब्युटी पार्लरमध्ये पैसे खर्च करून जे उपचार तिथे मिळतात त्यापेक्षा
तुम्ही तुमच्या त्वचेच्या गरजा ओळखून त्याप्रमाणे घरच्या घरी स्वतःवर उपचार
करण्याचा प्रयोग व प्रयत्न केल्यास ते अधिक परिणामकारक ठरेल.</p>

<p>प्रथम म्हणजे उपचारापेक्षा त्वचेच्या नियमांचे पालन अधिक महत्त्वाचे ठरते.
त्वचेची निगा म्हणजे त्वचेच्या निगासंबंधीचे नियम सातत्याने आणि</p>

<p>*
----------------------------------------------------------------
Cont'd
</p></body></text></cesDoc>