<cesDoc id="mar-w-socsci-history-hae00b07.mss" lang="mar">
<cesHeader type="text">
<fileDesc>
<titleStmt>
<h.title>mar-w-socsci-history-hae00b07.mss.txt</h.title>
<respStmt>
<respType>Electronic file created by</respType>
<respName>Central Institute for Indian Languages, Mysore</respName>
<respType>transferred into Unicode and CES format by</respType>
<respName>"Unicodify" software by Andrew Hardie</respName>
</respStmt></titleStmt>
<publicationStmt>
<distributor>UCREL (on behalf of CIIL)</distributor>
<pubAddress>Department of Linguistics, Lancaster University, Lancaster, LA1 4YT, UK</pubAddress>
<availability region="WORLD"></availability>
<pubDate>03-07-25</pubDate>
</publicationStmt>
<sourceDesc>
<biblStruct>
<monogr>
<h.title>इतिहासाचे लेखन शास्त्र</h.title>
<h.author> ""ाय'वाड ,  सरदेसाई</h.author>
<imprint>
<pubPlace>India</pubPlace>
<publisher>Unknown -   मोरेश्वर फड'े</publisher>
<pubDate>1990</pubDate>
</imprint>
<idno type="CIIL code">hae00b07.mss</idno>
</monogr></biblStruct></sourceDesc></fileDesc>
<encodingDesc>
<projectDesc>Text collected for the CIIL Corpus, subsequently integrated into the EMILLE/CIIL Monolingual Written Corpora.</projectDesc>
<samplingDesc>Simple written text only has been transcribed. Diagrams, pictures and tables have been omitted. Sampling begins at page unknown.</samplingDesc>
<editorialDecl><conformance level="1"></conformance></editorialDecl>
</encodingDesc>
<profileDesc>
<creation><date>03-07-25</date></creation>
<langUsage>Marathi</langUsage>
<wsdUsage>
<writingSystem id="ISO/IEC 10646">Universal Multiple-Octet Coded Character Set (UCS).</writingSystem>
</wsdUsage>
<textClass>
<channel mode="w">print</channel>
<constitution type="composite"></constitution>
<domain type="public"></domain>
<factuality type="fact"></factuality>
</textClass>
<translations></translations>
</profileDesc>
<revisionDesc></revisionDesc>
</cesHeader>

<text><body>

<p>एकूण पाने  :  - 17
FROM 18 TO 33
  +</p>

<p>पान नं. 18</p>

<p>यानंतर इतिहास लेखनशास्त्रविषयी शेवटचा प्रश्न उपस्थित केला जातो.
तो हा की, या शास्त्रामध्ये वस्तुनिष्ठता (Objectivity ) असू शकते काय ? या
प्रश्नाला उत्तर असे की, इतिहासलेखनाला शास्त्राचे स्वरूप द्यावयाचे असल्याने
व्यक्तिनिष्ठता (Subjectivity) कमी करून घटनांचे वर्णन जास्त वास्तववादी
दृष्टिकोनातून केले पाहिजे. या ठिकाणी एक गोष्ट ध्यानात ठेवली पाहिजे की
भौतिकशास्त्रातील (Physical Sciences) वस्तुनिष्ठता इतिहासामध्ये कधीही येणे
शक्य नाही. कारण भौतिकशास्त्रे अचेतन वस्तूशी प्रयोग करत असतात तर इतिहास
मानवी हालचालीसंबंधी अभ्यास करत असतो. मानवी स्वभावांसंबंधी पूर्णपणे कोणीही
खात्री देऊ शकणार नाही म्हणून भौतिकशास्त्रातील निखळ वस्तुनिष्ठता इतिहासात
अभिप्रेत नाही.</p>

<p>वरीलप्रमाणे इतिहासलेखन शास्त्रासबंधी माहिती पाहिल्यानंतर एक तंत्र या
दृष्टीने इतिहास संशोधनामध्ये टिपणे काढणे (Taking Notes) हे एक शास्त्रशुद्ध
तंत्र अवलंबावे लागते. त्यासाठी कार्ड पद्धत (Slip system) ही महत्त्वाची मानतात.
लेखन करीत असताना तळटिपा (Foot Notes)  या विशिष्ट जागतिक मान्यता प्राप्त
पद्धतीनुसार द्याव्या लागतात. लिखाणामध्ये आपल्या विधानास पुष्टी आणण्यासाठी
अवतरणे (Quotations) द्यावी लागतात, ग्रंथाच्या शेवटी संदर्भग्रंथांची यादी
(Bibliography) द्यावी लागते. ही यादीसुद्धा सर्वसाधारण संदर्भ ग्रंथांची यादी
(General Biblography) व विशेष संदर्भ ग्रथांची यादी ( Select Biblio
graphy) द्यावी लागते. संदर्भ ग्रंथांच्या यादीवरून ग्रंथांचे मूल्य ठरते. इतिहासलेखन
शास्त्रातील सर्वात शेवटचा टप्पा म्हणजे सूची (Index) होय. सूचीचे दोन प्रकार
मानले जातात. एक स्थळ सूची व दुसरी व्यक्ती सूची.</p>

<p>वरीलप्रमाणे सर्व शास्त्रशुद्ध तंत्राचा वापर केला असता इतिहास लेखन हे
इतिहासलेखनशास्त्र ठरते.</p>

<p>इतिहासलेखशास्त्र म्हणजे काय याची वरील विवेचनावरून पूर्णपणे कल्पना
यावयास हरकत नाही.</p>

<p>-------------------------------------------------------
5. इतिहासलेखनशास्त्राचा विकास (Development of Historiography)
--------------------------------------------------------</p>

<p>इतिहासलेखनशास्त्राचा विकास पाहत असताना आज आपल्याला असे सतत
जाणवते की, आपल्यावर 17 व्या व 18 व्या शतकातील शास्त्रीय शोध व तांत्रिक प्रगती
यांचा प्रभाव पडलेला आहे 18 व्या शतकाच्या शेवटी लोकशाही मूल्यांच्या दृष्टीने ज्या
युगाचा पडलेला प्रभाव हा अनेक कला, वेगवेगळे उद्योगधंदे व अनेक वाङमयप्रकार
यांमधून पहिल्यांदा जाणवू लागला तो प्रबोधन काळापासून (Enlightenment Period)</p>

<p>पान नं. 19</p>

<p>होय. पाश्चिमात्य लोकांची इतिहास लिखाणाची परंपरा फार जुनी आहे. पाश्चात्तय
परंपरेचा उगम ग्रीसमध्ये ग्रीकांचा पहिला इतिहासकार म्हणजे हिरोडोटस् होय.</p>

<p>1. हिरोडोटस् इ.स. पूर्व 484 ते इ.स. पूर्व 425</p>

<p>हिरोडोटस् इराणी आक्रमणाचा इतिहास लिहिला. त्यामुळे तत्त्वचिंतन किंवा
शास्त्रीय दृष्टिकोन कमी आहे. परंतु त्याच्या इतिहासलेखनाची पुढील काही वैशिष्टेय
सांगता येतील.
1. इतिहासा लेखनातील सातत्य.
2. प्रसंगाचे वर्णन करताना वापरलेली श्रेष्ठ भाषाशैली.</p>

<p>अनेक वेळा हिरोडोटस््ने भाषाशैलीचा सौंदर्यसाठी घटनांच्या क्रमात बदल केला
आहे. त्यामुळे त्याच्या लिखाणात आधुनिक पद्धतीप्रमाणे जरी तंतोततपणा नसला तरी
जगातील पहिला इतिहासकार या नात्याने त्याचे स्थान महत्त्वाचे आहे. त्याच्या
लिखाणामध्ये महाकाव्यात दिसणारी सुलभता, माधुर्य, व स्वाभाविकपणा आहे. कवीच्या
ठिकाणी शोभून दिसण्याएतकीच प्रतिभा, भावनाशीलता व उत्स्फूर्तपणा त्याच्या ठिकाणी
दिसून येतो. इतिहासाला नीतिशास्त्राचे स्वरूप देण्याचा त्याने प्रयत्न केला आहे.</p>

<p>2. थ्यूसीडीडीज् (Thucidides) इ.स. पू. 455 के इ.स. पू 400</p>

<p>हिरोडोट्सनंतर नाव घेण्यासारखा दुसरा ग्रीक इतिहासकार म्हणजे थ्यूसीडीडीज्
होय. इतिहासकार या दृष्टीने काही बाततीत तो हिरोडोटस््पेक्षासुद्धा श्रेष्ठ होता.
हिरोडोटस् गोष्टी चांगल्या शब्दांत सांगण्याबद्दल प्रसिद्ध होता, तर थ्यूसीडीडीज् हा गोष्टी
सांगण्यात पटाईत असूनसुद्धा आधुनिक काळातील जर्मन इतिहासकार रॅन्केचा पूर्वज
शोभण्याइतका लिखाणातील तंतोतंतपणा त्याच्याकडे होता. थ्यूसीडीडीज् आपल्या
लिखाणात संदर्भसाधनांचा वापर केला. तसेच, त्या साधनांचे पृथक्करण करून त्याचे
मूल्यमापनसुद्धा केले. त्याच्या लिखाणातून उपदेश करणे हा एक महत्त्वाचा भाग असे व
बऱ्याच वेळा उपदेश करत असताना भाषाशैलीकडे त्याने दुर्लक्ष केले. इतिहास म्हणजे
अनेक घटनांची जंत्री किंवा अनेक घटनांचा अबय्स करणे म्हणजे इतिहास ही आजची
संकल्पना थ्यूसीडीडीज््नेच दिलेली आहे. आइन्स्टाईनने जो सापेक्षवादाचा सिद्धांत
मांडला त्याचे मूळ थ्यूसीडीडीज््नेच प्रस्थापित केलेल्या ऐतिहासिक अन्वेषमामध्ये
(HIstorical relativism) आहे असे म्हटल्यास धाडसाचे होऊ नये. थ्यूसीडीडीज््चे
पुढील वैशिष्टये असे की त्याने इतिहासलेखनाच्या तंत्रामध्ये मोलाची भर घातली.
ज्या ठिकाणी अस्सल संदर्भसाधने कमी पडली तेथे त्याने दुय्यम साधमे वापरली व
ज्या ठिकाणी हीही साधने नव्हती तेथे तर्कबुद्धीचा वापर करून अनुमानाद्वारे निष्कर्ष
काढून इतिहास लिहिला. या बाबतीत तो नेबूर, र्रके, मॉमसेन व ड्रायसेन या इतिहास
कारांचा पूर्वज ठरतो. यानेच इतिहासाचे तत्त्वज्ञान ही संकल्पना कळत न कळत अस्तित्वात
आणली, ऐतिहासिक घटनेला शास्त्रशुद्ध स्वरूप देण्याचा प्रयत्न केला. त्याने फक्त
राजाचा अभ्यास केला नाही तर मानवी जीवनाच्या सर्व अंगोपांगांचा अभ्यास केला.</p>

<p>पान नं. 20</p>

<p>ग्रीकांच्या प्रमाणेच रोमन लोकांनूसुद्धा इतिहास लेखनशास्त्रामध्ये चांगली भर
घातली आहे. ग्रीक व रोमन यांच्या लेखनपध्तीमध्ये फरक आहे. ग्रीकांची भाषा व
अभिव्यक्ती ही श्रेष्ठ व अभिजात पद्धतीची आहे. त्याच्या लिखाणामध्ये तत्त्वचिंतन व
तौलनिक दृष्टिकोन आहे. त्यांच्या ठिकाणी उपजतच इतिहासाविषयीचा एक दृष्टिकोन
दिसून येतो. त्याच्या उलट रोमन, इतिहासकरांनी फार वस्तुनिष्ठता दाखविली, परंतु
काही ठिकाणी ग्रीकांची सही नक्कल केली. रोमन लोकांनी इतिहासाचा उपयोग
राजकारणी लोकांच्या हाताततील एक साधन म्हणून केला. त्यांच्या लिखाणात तंतोतंतपणा
व भावनाविवशता दिसत नाही. रोमन लोक इतिहास लिहिण्यापेक्षा इतिहास घडविण्या-
मध्ये गुंतले असल्याने इतिहासाला त्यांनी कधीच अनन्यसाधारण महत्त्व दिले नाही.</p>

<p>3. लिव्ही (Livy) इ. स. 59 ते इ.स. 17</p>

<p>लिव्ही याला रोमन हिरोडोटस् म्हटले तरी गैर होणार नाही. लिव्ही व त्याचा
देशवासी टॅसिटस या दोघांच्याही ठिकाणी रोमच्या श्रेष्ठत्वाची स्फूर्ती होती. त्या
दोघांचाही असा विश्वास होता की, रोमन लोकांच्यामुळेच सुवर्णयुगाचा उदय होणार
आहे. लिव्हीने आपल्या History या ग्रंथात रोमन साम्राज्याची माहिती दिलेली आहे.
त्या आपल्यापुढे कोणते का4य आहे व ते कसे करावयास पाहिजे याची पूर्ण कल्पना
आपल्या बाजूचे समर्थन हा जसा भाग आहे तसेच अमोघ वक्तृत्वाच्या जोरावर मुद्दा
पटवून देण्याचे सामर्थ्यही आहे. थ्यूसीडीडीज््प्रमाणेच यानेसुद्धा उपदेश करण्याची पद्धत
सुरू केली. व इतिहासामधून नीतीशिस्त्र. श्रेष्ठ नागरिकत्वाचे गुण, देशभक्ती व शिस्त
या गुणांचा प्रचार केला. त्याच्या लिखाणात अनेक दोष आहेत. परंतु रोमन लोकांचा
दृष्टिकोनच वैशिष्टयपूर्ण असल्याने त्याने टीकात्मक लिखाणाकडे लक्ष दिले नाही.</p>

<p>4 टॅसीटस (Tacitus) इ. स. 65 ते 120</p>

<p>लिव्हीनंतर दुसरा महत्त्वाचा रोनम इतिहासकार म्हणजे कॉर्नेलियस टॅसीटस
(Cornelius Tacitus) होय ग्रीक इतिहासकरांमध्ये थ्यूलीडीडीज््ला जे स्थान आहे
ते स्थान रोमन इतिहासाकारंत टॅसीटसला आहे. त्याने अनेक ग्रंथ लिहिले. टॅसीटसची
इतिहासलेखनाची पद्धत ही लिव्हीपेक्षा वेगळी होती. टॅस्टसच्या लिखाणावर ग्रीक
इतिहासकार प्लुटार्क (Plutarch) याचा प्रभाव पडला. टॅसीटसने `Histories'या
नावाचा  ग्रंथ लिहिला. त्या ग्रंथाची भाषा एखाद्या वक्तयाने केलेल्या भाषणाप्रमाणे आहे.
आपल्या लिखाणात कोणतीही घटना वगळली जाणार नाही याची तो खबरदारी घेत असे.
नुसत्या घटना देऊनच तो थांबला नाही तर थ्यूसीडीडीज््प्रमाणे कारणपरंपरा, कार्यकारण-
अन्वयार्थ लावत असताना त्या व्यक्तीच्या मानसशास्त्रीय दृष्टिकोनातून विश्लेषण
करण्याचा प्रयत्न त्याने केला. त्या काळात इतिहासकार बहुधा सम्राटाचे दोष न दाखविता</p>

<p>पान नं. 21</p>

<p>उलट त्यावर पाघंरून घालून सम्राटाच्या गुणांचे गुणगान करत असत. परंतु टॅसीटसने
मात्र रोमन साम्राटाच्या चुका दाखवून दिल्या व त्या चुका कशा सुधारल्या पाहिजेत
याची उपाययोजनासुक्धा सुचविली. कोणत्याही गुंतागुंतीच्या समस्येबद्दल तो विशेष जागरूक
असे. पंरतु त्याचा दोष असा की, काही वेळा आळसामुळे पुरावे तपासून न पाहता
सामान्यीकरण करण्याचा त्याने प्रयत्न केला. टॅसीटसची वर्णने ही एखाद्या कादंबरी
प्रमाणे आहेत. परंतु प्रत्येक वेळेला ऐतिहासिक घटनेमधून काही तरी उपदेश करण्याचा
त्याने प्रयत्न केला आहे. त्याच्या विचाराप्रमाणे इतिहासाच्या ज्ञानाने मनुष्य सुखी व
गुणवान झाला पाहिजे. माणसाच्या ठिकाणी सत्य-असत्य पडताळून पाहण्याची क्षमता
निर्माण झाली पाहिजे. त्याच्या कल्पनेप्रमाणे ज्या वेळी वाङ्मयीन गुण व तत्त्वचिंतन यांचे
प्रमाण इतिहासलेखनामध्ये योग्य प्रमाणात होईल त्याच वेळी इतिहासाला दर्जा प्राप्त होईल
काही वेळा आपले विचार मांडताना त्याने बोजड शब्दांचा वापर केला आहे. परंतु अनेक
दृष्टीने पाहिले असता रोमन इतिहासकारांतील एक तत्त्वचिंतन करणारा इतिहासकार
म्हणून त्याचे नाव प्रसिद्ध आहे. त्याच्या मृत्यूबरोबर रोमन इतिहास संशोधनातील
जाणीवपूर्वक इतिहास लिहिण्याची प्रक्रिया व वाङ्मयीन गुणांनी युक्त इतिहास
लिहिण्याची परंपरा खंडित झाली.</p>

<p>मध्ययुगीन युरोपातील इतिहास लेखनाची प्रगती
(Medieval Development of European Historiography)</p>

<p>प्राचीन युरोपातील ग्रीक व रोमन इतिहासलेखन प्रक्रियेनंतर आपल्याला
मध्ययुगाकडे वळावयाचे आहे. ग्रीक लोकांनी इतिहासाला राजकीय स्वरूप दिले. मध्ययुगात
युरोपीय लोकांनी व अरबांनी इतिहासलेखन प्रक्रियेमध्ये धर्म ही कल्पना मध्यवर्ती मानून
त्यानुसार इतिहासलेखन केले. मध्ययुगीन इतिहासलेखनामध्ये अनेक वैशिष्ट्ये दिसून
येतात ती पुढीलप्रमाणे आहेत.
1) रोमन इतिहासकारांपासून फक्त राजकीय घटना देण्याची जी पद्धत होती ती
मागे पडली व त्याऐवजी तत्त्वचिंतन करण्याची प्रक्रिया सुरू झाली.
2) इतिहासामध्ये जे काही बरे-वाईट घडले त्यामद्ये काही दैवी प्रेरणा आहे अशी
कल्पना मूळ धरू लागली.
3) ख्रिश्चन इतिहासलेखकांच्या मते इतिहासप्रक्रिया ही ख्रिश्चन तत्त्वावर
आधारित एका सरळ दिशेत होणारी प्रगती, वैश्विक (Universal) स्वरूप असणारी व
अमानवी (Impersonal) आहे.
4) ऐतिहासिक घटना या दैवी शक्तीच्या मर्जीनुसार होत असतात.
5.) जी जमात किंवा राष्ट्र दैवी अधिनियमांचे पालन करते, त्याच राष्ट्राला मोठी
संस्कृती निर्माण करता येते.
6) अरबलोकांनी इल्साम धर्माच्या उगमाबरोबरच आपल्या कल्पनेनुसार इतिहास
प्रक्रियेत काही बदल घडतात अशी मते व्यक्त केली. उदा. ग्रीकांचा बुद्धिवाद व रोमन</p>

<p>पान नं. 22</p>

<p>लोकांचा राजकीय दृष्टिकोन या दोन्हीचे मिश्रण म्हणजे अरबांचे इतिहासलेखनाचे तत्त्व होय.</p>

<p>ख्रिश्चन इतिहासलेखन शास्त्र (Church Historiography)</p>

<p>ख्रिश्चन लोकांचा इतिहासविषयीचा दृष्टिकोन ग्रीक, रोमन व ज्यू लोकांच्यापेक्षा
वेगळा होता. वर सांगितल्याप्रमाणे धार्मिक दृष्टिकोन हा सर्वांचा आदार कल्पून त्यानुसार
हे लिखाण करण्यात आले. या लिखाणाचा उद्देश ख्रिश्चन धर्मतत्त्वावरील श्रद्धा वाढविणे
हाच असल्यामुळे शास्त्रशुद्ध दृष्टिकोन किंवा बुद्धिवाद यांना यामध्ये विशेष स्थान नव्हते.
इ.स. ज्या 5 व्या शतकापासून 8 व्या शतकापर्यंत ख्रिश्चन इतिहास लिहिणारे सर्व
इतिहासकार हे धर्मगुरूच असत. त्यामुळे त्यांच्या लिखाणावर धर्माशिवाय इतर कशाचाही
पगडा नव्हता. अशाच लिखाणाचा एक नमुना म्हणजे `नवा करार' (New Testament)
होय. या ग्रंथात अँडमपासून जीझस ख्राइस्टपर्यंत मानवाला कोणत्या स्थित्यंतरातून जावे
लागले याचे वर्णन केले आहे. या लिखाणाचा मुक्य उद्देश म्हणजे सद्गुणव धर्मपरायणता
यांमुळे माणसाची कशी प्रगती होते व हे जर पाळले नाही तर कशी अधोगती होते याचे
विविचेन केले आहे. ठिकठिकाणी उपदेश केला आहे; परंतु कोठेही टीकात्मक दृष्टिकोनाचा
वापर केलेला नाही. इतकेच नव्हे तर त्यामध्ये जो कालखंड दाखविलेला आहे त्यावर
विश्वास ठेवणे कठीण आहे. या लेखनातूल सर्वात मोठा दोष असा की लेखकाने ख्रिश्चन
धर्माच्या उदयापूर्वीचा दृष्टिकोन गृहीत धरला आहे. ख्रिश्चन धर्मापूर्वीचा सर्व तत्त्वे
संदिग्ध असल्यामुळे त्यांचा योग्य तो अर्थ लागत नाही. यातील दुसरा दोष असा की
प्रत्येक ठिकाणी घडलेल्या घटनांमधून व्यक्तीला आपल्या दोषांची जाणीव झाली आहे
असे दाखविले आहे व अशी जाणीव तीन मार्गानी दाखविली आहे- निरीक्षण, आत्मप्रेपण
व जाणील, परंतु यांपैरी आत्मप्रेरणा व जाणीव या दोन्हीही कल्पना इतिहासलेखन
प्रक्रियेमध्ये शास्त्रीयदृष्ट्या बसत नाहीत. या लेखन-प्रक्रियेतील तिसरा दोष असा की,
त्यांनी इतिहासामध्ये पवित्र व अपवित्र (Profane) असे दोन भाग केले. ज्या घटना
देवासंबंधी असतील त्याच फक्त पवित्र व इतर सर्व अपवित्र ही त्यांची विभागणीच मुळी
अशास्त्रीय होती. यातील चौथा दोष असा की ऐतिहासिक घटना एका अशा संकल्पने-
भोवती घडत असतात की त्यांचे पृथक्करण करणे शक्य नाही. अशा प्रकारच्या संदिग्ध
कल्पनेला इतिहासलेखनात स्थान नाही. यांच्यातील शेवटचा दोष असा की धर्मगुरू हे
सर्वश्रेष्ठ आहेत व त्यांच्या अस्तित्वाशिवाय आध्यात्मिक जीवन हे पूर्ण होऊ शकत नाही
ही गृहीत गोष्ट होय. ख्रिश्चन इतिहासलेखन कलेमध्ये सेंट ऑगस्टीन हा नाव
घेण्यासारखा इतिहासलेखक होऊन गेला.</p>

<p>सेंट ऑगस्टीन (St. Augustint) इ.स. 354 ते 430</p>

<p>सेंट ऑगस्टीन हा एक तत्त्वज्ञ, आध्यात्मववादी, शिक्षक, कवी व राजकीय विचाररवंत
होता. त्याने `The City of God' या नावाचा एक ग्रंथ 22 खंडात लिहिला. या
ग्रंथात त्याने जे विचार मांडले आहेत ते त्या अप्रगत काळाला योग्य असेच आहेत. तो</p>

<p>पान नं. 23</p>

<p>म्हणतो, राज्याची निर्मिती ही मानवाने केली आहे, म्हणून ती अपवित्र आहे. जे जे
देवाने केले आहे ते पूर्ण व सुंदर असून मानवाने केलेली प्रत्येक गोष्ट ही नक्कल
असून अपरिपक्व आहे. मानवनिर्मिती कोणतीही संस्खा देवाने निर्माण केलेल्या कोणत्याही
गोष्टीबरोबरच तुलनेत टिकू शकत नाही. उदा. गवत हे इतके पूर्ण असते की मानवाने
कितीही प्रयत्न केली तरी त्याची तुलना करता येणार नाही. हेच उदाहरण त्याने राज्य-
संस्थेच्या बाबतीती गेऊन असे दाखवून दिले की, देवाने निर्माण केलेले राज्य उदात्त असते
तर मानवाने निर्माण केलेले राज्य अनेक दोषांनी परिपूर्ण असते. मानवाच्या चुका दुरूस्त
करण्याचे ठिकाण म्हणजे चर्च, चर्चमधील देवाचे वास्तव्य ही स्वर्गातील देवाच्या
वास्तव्याची प्रतिकृती आहे. पृथ्वीवरील `The city of God' म्हणजे या जन्मातील
मानवाचे अश्रू पुसून त्याला श्रेष्ठ पदाला पोहचविण्याचे चर्च एक साधन आहे. मानवाला
जर मोक्ष पाहिजे असले तर चर्चचे नियम पाळणे अगत्याचे आहे. ऑगस्टीनचे हे विचार
त्या काळात फार प्रसिद्धी पावले. त्याच्यानंतरही चर्च इतिहासलेखन परंपरा अस्तित्वात होती.
तिचेगुणदोष पुढीलप्रमाणे सांगता येतील.</p>

<p>1. मानवाला प्रेरित करण्याची व त्याच्या ठिकाणी पवित्र भावना निर्माण करण्याचे
महत्त्वाचे काम चर्च इतिहासकरांनी केले.
2. अशा इतिहासकारांचा दृष्टिकोन हा संपूर्णपणे व्यक्तिनिष्ठ होता. यामद्ये
तर्कापेक्षे श्रद्धेला जास्त महत्त्व होते.
3. कोणत्याही घटनेचे कारण शोधत असताना शास्त्रीय पद्धतीपेक्षा दैवी कारण
शोधले जात असे.
4. चर्च इतिहासकारांनी कधीही गटनांचा अनुक्रम पाळला नाही. अनुक्रमापेक्षा
घटनेला त्यांनी महत्त्व दिले.
5. ख्रिश्चन धर्मामुळे रोमन साम्राज्याचा नाश झाला ही जी कल्पना निर्माण
झाली होती. ती नाहीशी करण्यासाठी त्यांनी ख्रिश्चन धर्माचा उदय व रोमन
साम्राज्याचा ऱ्हास यांच्यात काही संबंध नाही असे प्रतिपादन केले.
6. चर्च इतिहासकरांचे ध4णिक व निधर्मी (Secular) असे दोन भाग पडतात.
धार्मिक इतिहासकरांनी देवाला महत्त्व दले तर निधर्मी इतिहासकरांनी देवाला महत्त्व
दिले नाही. त्यांनी राष्ट्राला महत्त्व दिले म्हणून त्यांना पाखंडी म्हणत असत.
7. चर्च इतिहासकारांच्या प्रयत्नामुळेच बखरी (Chronicles) अस्तित्वात आल्या.
8. रोमन साम्राज्याच्या ऱ्हासानंतर ख्रिश्चन लोकांना कोणाचेही बंधन  राहिले
नाही. त्यामुळे प्रशासकीय अकार्यक्षणता भ्रष्टाचार, आर्धिक तणाव व आक्रमणे यांना
तोंड द्यावे लागले. त्यामुळे मध्ययुगातील अरब आक्रमणापासून युरोपीय इतिहासलेखन
प्रक्रियेत महत्त्वाचे बदल घडले.</p>

<p>पान नं. 24</p>

<p>अरब इतिहासलेखनशास्त्र (Arab Historiography)</p>

<p>अरब इतिहाससंशोधन व चर्च इतिहास संशोधन यांच्यामध्ये एकच साम्य दिसू येते.
आणि ते म्हणजे दोघांनी धर्म ही कल्पना गृहीत धरून इतिहासलेखन केले. अरब व
ख्रिश्चन यांच्यातील मुख्य फरक असा की, अरबांनी इतिहासामध्ये पवित्र आमि अपवित्र
असे भाग कधीच केले नाहीत. ख्रिश्चन धर्माला ज्याप्रमाणे चर्च ही एक धार्मिक संघटना
मिळाली, तशी अरबांना कोणतीही संघटना कधीच मिळाली नाहीत. इस्लामधर्मीयांनी
पावित्र्य,आश्रय व त्याग या कल्पना अरबांना कधीच मानवल्या नाहीत. इस्लामधर्मीयांनी
सद्यःस्थितीतील जीवनावर भर दिला. इस्लामधर्मीयंचा सत्य व असत्य यांच्यावर विश्वास
नाही, परंतु फक्त जगात सत्य असू शकते ही कल्पना त्यांना मान्य आहे. ख्रिश्चन धर्ण व
इस्लामधर्म यांच्यामध्ये आणखी एक फरक असा की, ख्रिश्चन लोक या जगाला महत्त्व
देतात परंतु ते अंतिम आहे असे मानीत नाहीत इस्लामधर्मीयांच्या मते हे जग अतंिम
आहे, पण सर्वात श्रेष्ठ नव्हे. उस्लामधर्मीयांचा जीवनाकडे पाहण्याचा जो दृष्टिकोन
होता, त्याचा इतिहासलेखनावर प्रभाव पडलेला दिसतो. त्यांच्यावर ग्रीकांच्या
बुद्धिवादाचाही प्रभाव दिसून येतो. इस्लामधर्मीयांना ऐतिहासिक प्रक्रियेसंबंधी चांगली
जाणीव असल्यामुळे इब्न खाल्दूनसारखा श्रेष्ठ इतिहासकार अरबांमध्ये होऊ शकला.</p>

<p>इब्न खाल्दून (Ibn Khaldun) इ.स. 1332 ते 1406</p>

<p>ग्रीक इतिहासकारांमध्ये थ्यूसीडीडीस् किंवा रोमन इतिहासकारांमध्ये टॅसीटस््चे जे
स्थान आहे तेच स्थान अरब जगताता इब्न खाल्दूनचे आहे. टॉइन्बीच्या मते आजपर्यंत
कोणत्याही काळात किंवा कोणत्याही देशात असा इतिहासकार झाला नाही. जॉर्ज सारटॉन
सर्वश्रेष्ठ इतिहासतज्ज्ञ होय. इन्ब खाल्दूनने `Universal History' व
`Prolegomena' गे दोन ग्रंथ लिहिले. या ग्रंथांचे वैशिष्टय असे की, संस्कृतीचा
मानवी जीवनावर कसा प्रभाव पडतो हे त्याने दाखवून दिले आहे. `Universal
History'  मध्ये ऐतिहासिक घटनांचे (Historical Facts) स्वरूप कसे असते,
त्यांचे एकमेकांशी संबंध कसे असतात व घटनाक्रमामध्ये काही नियमितपणा असतो काय ?
याविषयी चर्चा केली आहे. सामाजिक दृढतेच्या दृष्टीने समाजाचे मूलतत्त्व, हवामान व
लोकांचा व्यवसाय यांचा कोणता प्रभाव पडतो याचीही त्याने चर्चा केली आहे. सामाजिक
नियम, राजकीय स्थिरता, आर्थिक समस्या व धार्मिक प्रभाव यांचा त्याने बारकाईने विचार
केला आहे. त्यांचे ठळक मोठेपण असे की, त्याने इतिहासाकडे शास्त्र या दृष्टीने
पाहण्याचा प्रयत्न केला आहे. इतिहास म्हणजे नुसती घटनांची जंत्री नव्हे, तर त्या घटनां-
मध्ये परस्पर संबंध असतो, त्यांना अर्थ असतो व त्यांचे महत्त्व असते या गोष्टी त्याने प्रथम
मांडल्या. त्याने पुढील काही बाबतीत एक स्वंतत्र विचारप्रवाह निर्माण केला. भौगोलिक
परिस्थितीचा मानवी जीवनावर कोणता परिणाम होतो (उदा. हवामान, जमिनीची
सुपीकता व इतर अनेक तत्सम बाबी यांचा कसा प्रभाव पडतो) याचा त्याने विचार
केला आहे. समाजाचे मूळ शोधून काढून गतकाळाचा वर्तमानकाळावर कसा प्रभाव पडतो.</p>

<p>पान नं. 25</p>

<p>हे त्याने दाखवून दिले. अनेक घटनांच्यामागे जी मानसशास्त्रीय कारणे आहेत त्यांचा
त्याने विचार केला.</p>

<p>संस्कृती अस्तित्वात येण्याची त्याने चार कारणे दिली आहेत. ती अशी 1. भौतिक
कारणे (Material Causes) 2. औपचारिक कारणे  (Formal Causes)
3. कार्यक्षम कारणे (Efficient Causes) 4. अंतिम कारणे (Final Causes)
थोडक्यात म्हणजे इब्न खाल्दून हा शास्त्रशुद्ध दृष्टिकोन, स्थिर विचार, विशाल दृष्टिकोन
आणि उत्तम लेखनशैली यांबद्दल मध्ययुगात प्रख्यात होता.</p>

<p>आधुनिक युरोपीय इतिहास लेखनशास्त्र
(Modern European Historiography)</p>

<p>पंधराव्या शतकामध्ये अरबांनी युरोपवर हल्ला केला. त्या वेळेपासून युरोपात
आधुनिक जगाची सुरूवात झाली. इ.स. 1453 साली अरबांनी कॉन्स्टँन्टिनोपल जिंकून
घेतले तसेच अलेक्झांड्रिका हे मध्ययुगातील विद्येचे माहेरघर तुर्काच्या हाता गेले. त्यामुळे
तेथील विद्धान लोक युरोपात जीव वाचविण्यासाठी पळाले. त्यांच्या अस्तित्वामुळेच
(वास्तव्यामुळे) युरोपात पुनरूज्जीवनाच्या प्रक्रियेला सुरूवात झाली. पुनरूज्जीवनाच्या
कालखंडाचे वैशिष्टय असे की यामुळे अंधश्रद्धा व जुन्या बुरसटलेल्या धार्मिक प्रथा दूर
सारण्यात आल्या. त्याच्या जागा बुद्धिवाद व शास्त्रीय दृष्टिकोन यांनी घेतली. युरोपात
शास्त्रीय संशोधनाची प्रचंड मालिका सुरू झाली व त्याचा परिणाम अनेक विद्या व
कला यांच्या प्रगतीवर झाला. तसाच परिणाम इतिहासावर सुद्धा झाला. पुनरूज्जीवना-
नंतर दुसरी महत्त्वाची घटना म्हणजे 16 व्या शतकातील धर्मसुधारणेच्या चळवळी होय.
या दोन्हीही प्रक्रियांमध्ये जुने विचार मागे पडून बुद्धिवाद व तर्कसंगती यांना मान मिळू
लागला. युरोपमध्ये अनेक तत्त्वचिंतक उदयास आले. त्यातून 17 व्या शतकात नवे युग
अवतरले. (Emergence of the age of enlightenment)</p>

<p>प्रबोधनाचे युग (Enlightenments Historiorgraphy) इ.स. 1637 ते 1804</p>

<p>15 व्या शतकात नव्या युगाचे सुरूवात झाली. हे युग देकार्तपासून इमॅन्युअल
कांटपर्यत पसरलेले आहे. या काळात जी मानवी प्रगती झाली त्याचा उल्लेख प्रकाशाचे
युग, प्रकाश, नवे युग अशा शब्दांनी होऊ लागला. याचा शब्दांना समानार्थी शब्द म्हणजे
सुधारणा  (Progress) असाही शब्द वापरू लागले. नव्या युगाने जुने ते सोने ही
कल्पना पहिल्यांदा झुगारून दिली. प्रत्येक बाबतीती धर्म ही कल्पना श्रेष्ठ न मानता तर्क
(Reason) हीच संकल्पना मान्य करण्यात आली. अभिजात काळातील (Classical
Period) सर्व गोष्टी नाकारण्यात आल्या. मानवतावाद हा मानवी जीवनाचा मूलभूत
पाया गृहीत धरण्यात आला. लॅटिन भाषेचा बोजडपणा असह्य वाटून प्रत्येक देशाच्या
भाषा विकास पावू लागल्या. 18 व्या शतकामध्ये विशेषतः व्हॉल्टेअरच्या परिश्रमामुळे
इतिहासलेखन प्रक्रियेत महत्त्वाचे बदल झाले. नव्या युगात वैयक्तिक- विकासवाद,
विकासवाद या कल्पना स्थिर होऊ लागल्या. बोलिंगब्रूक, बेन्थॅम,मिल,मेकॉले यांनी</p>

<p>पान नं. 26</p>

<p>नवा दृष्टिकोन अस्तित्वात आणला. या दृष्टिकोनामुळे समाजाची प्रगती होण्यासाठी
नैतिक सिद्धांत हे उपयोगाचे नाहीत, तर बुद्धिवादावर आधारित अशी विचारसरणी
निर्माण झाली पाहिजे असे मानले जाऊ लागले. व्हॉल्टेअरने `इतिहास-तत्त्वज्ञान'
(Philosophy of History) हा शब्द रूढ करून इतिहासाचे एतदंर स्वरूपच पालटून
टाकले. व्हॉल्टेअरने घटनेचे बाह्य स्वरूप व आतंरस्वरूप यांच्यातील संबंध दाखवून
दिला. या युगातील इतिहासलेखनाची तीन वैशिष्टये सांगता येतील. ती पुढीलप्रमाणे :
1. इतिहासलेखन दृष्टिकोणाक आलेली व्यावपकता
2. इतिहासलेखन दृष्टिकोणात आलेली सखोलता
3. इतिहासलेखन दृष्टिकोणात आलेली उत्तुंगता
 हे युग इंग्लिश साहित्यातील अद्भूतरम्य (Romantic) कालापर्ंयत टिकले.</p>

<p>अद्भूत कालखंड (Romantic Period of Historiography)</p>

<p>19 व्या शतकाल इतिहासाच्या कल्पना बदलू लागल्या. पूर्वीच्या कालखंडातील
बुद्धिवादाच्या जोडीला नवा विद्वतापूर्ण दृष्टिकोन अस्तित्वात आला. तसेच बऱ्याच
वेळा तर्क बाजूला सारून प्रतिभेला मान देण्यात येऊ लागला. परिणामी वाङ्मयाप्रमाणे
इतिहासलेखनामध्ये अतिरंजित, काव्यात्मक, भावनात्मक कल्पनावाद अस्तित्वात
आला. या कालखंडात बुद्धिवादापेक्षा भावनेला मानाचे स्थान मिळाले. या उद्भूतरम्य
वादाची सुरूवात फ्रान्समध्ये झाली व इंग्लडमध्ये तो विकसित झाला. या कालखंडाची
पुढील वैशिष्टये सांगता येतील.</p>

<p>1 नव्या युगातील बुद्धिवाद मागे पडून जुना धार्मिक दृष्टिकोन अस्तित्वात आला.
त्याचाच परिणाम म्हणून नेबूरसारखा जर्मन इतिहासकार उदयास आला.
2. मध्ययुगातील संरजामशाही व स्त्रीदाक्षिण्य यांचा प्रभाव इतिहासलेखनावर
होऊन अनेक घटनांचा अर्थ त्या त्या संदर्भात लावण्यात येऊ लागला.
3. इतिहासलेखन व वाङ्मय या दोन्हीही गोष्टी इतक्या एकत्र आल्या  की,
इतिहास हा वाङ्याचाच एक प्रकार आहे ही कल्पना अस्तित्वात येऊन दृढ झाली.</p>

<p>या युगाचे काही फायदेही झाले. उदा.स राष्ट्रवाद, पृथक्करण करण्याची क्षमता,
शौर्याची कदर करणे इ. गोष्टी अस्तित्वात आल्या.</p>

<p>प्रत्यक्षार्थवादी विचारसरणी (Positivist Historiography)
 1937 मध्ये रोमँटिक कालखंड संपला व इंग्लिश वाङ्मयामध्ये व्हिक्टोरियन
काळ (Victorian Period) सुरू झाला. त्याच्या समकालीन इतिहासलेखन प्रक्रियेमध्ये
ऑगस्ट कोम्त याच्यामुळे होकारात्मक विचारसरणीचा उदय झाला. या विचारसरणीनुसार
नव्याने बुद्धिवादाला व शास्त्रीय दृष्टिकोनाला चालना मिळाली. कोम्तच्या कल्पनेनुसार
मानवी ज्ञान हे त्याच्या अनुभवविश्वाच्या पलीकडे जाऊ शकत नाही आणि जर त्याला
ऐतिहासिक घटनांचे ज्ञान करून घ्यावयाचे असेल तर शास्त्रीय दृष्टिकोनच वापरला</p>

<p>पान नं. 27
पाहिजे अशा विचारसरणीनुसार ऐतिहासिक घटनांमधील संबंध., त्यांचे एकमेकांवर
होणारे परिणा, त्यांच्यावर नियंत्रण करणारी एखादी शक्ती या सर्वाचा विचार होऊ
लागला. भौतिकशास्त्रामध्ये ज्याप्रमाणे साचेबंद नियम असतात त्याप्रमाणेच इतिहास-
मध्येसुद्धा  अशा प्रकराचे नियम असू शकतात. म्हणून होकारत्मक विचारसरणीचे लोक
इतिहासाला Social Physics असे म्हणतात. होकारात्मक विचारसरणीच्या लोकांच्या
मते इतिहासाच्या तत्त्वज्ञानामुळे पुढील तीन गोष्टी साध्य होतात.
1. ऐतिहासिक घटनांतील सुसंगती
2. कागदपत्रांवर आधारित इतिहासाचे केलेले लिखाण
3. सुदारणांचा झालेला उदय.
होकारात्मक तत्त्वज्ञानानुसार 19 व्या शतकात नव्या विचारसरणीचा प्रारंभ
झाला व त्यातूनच इतिहासाचे नियम (Laws of History) , सामान्यीकरण
(Generalisation) इ. कल्पना अस्तित्वात आल्या.</p>

<p>होकारात्मक विचारसरणीच्या जोडीलाच तत्त्ववेत्त्यांचा असा एक वर्ग अस्तित्वात
आली की त्यांनी इतिहासाचे तत्त्वज्ञान शोधून काढले व इतिहासलेखन प्रक्रियेला
मोलाची मदत केली. अशा गटात हेगेलचा समावेश होतो.</p>

<p>19 व्या शतकाच्या शेवटी नव्यानेच समाजवादी विचारसरणी मूळ धरू लागली.
या विचारसणीचा प्रणेता कार्ल मार्क्स याने होकारात्मक विचारसरणीला अनुसरूनच
भौतिकवादाला चालना दिली. 19 व्या शतकाच्या शेवटी युरोपात इतिहासाचे तत्त्वज्ञान
तयार झाले. त्याचाच परिणाम असा की, 20 शतकाच्या सुरूवातीला इतिहास
हे एक शास्त्र आहे अशी एक कल्पना रूढ झाली. म्हणून प्रो.ब्युरी (Bury) म्हणतात.
""History is a Scienve no more and no less""
 पान नं .  27</p>

<p>  -  -  -  -  -  -  -  -  -  -  -  -  -  -  -  -  -  -  -  -  -  -  -  -  -  -  -  -  -  -  -  -  -  -  -  -  -  -  -  -  -  -  -  -  -  -  -  -  -  -  -  -  -  -
 6 .  इतिहासाचे प्रकार  ( Kinds of History )
  -  -  -  -  -  -  -  -  -  -  -  -  -  -  -  -  -  -  -  -  -  -  -  -  -  -  -  -  -  -  -  -  -  -  -  -  -  -  -  -  -  -  -  -  -  -  -  -  -  -  -  -  -  -  -</p>

<p> इतिहासकारांच्या संख्येइतकेच इतिहासाचे प्रकार आहेत असे म्हटले तर थोडी
 अतिययोक्ती होईल .  परंतु प्रत्येक इतिहासकार आपल्या स्वतंत्र पद्धतीने इतिहास लिहितो
 कार्ल बेकर म्हणतो की ,  इतिहास असंख्य आहेत व हे सर्व इतिहासकार स्वतःच्या
 पद्धतीने इतिहास लिहित असतात .  म्हणून प्रत्येकजण स्वतःपुरता इतिहासकार असतो .
 इतिहास लिहिणे म्हणजे काय करणे  ?  तर आपल्याजवळ असणारे पुरावे गोळा करून
 त्या साधनाचे संघटन करणे व जुळणी करणे होय .  एकदा जुळणी तयार झाली की ,
 त्या जुळणीला नाट्यात्मक व कलात्मक रूप तो देत असतो .  प्रत्येक इतिहासकाराचे
 अनुभव व अभिव्यक्ती ही वेगळी असते .  त्यामुळे भावनांचा आविष्कार हा वेगवेळ्या
 पद्दतींनी होत असतो .  मानवावर जीवनाचा फार मोठी परिणाम होत असतो व हा
 परिणाम इतिहासलेखनावर होत असतो .</p>

<p> प्रो .  रेनिअर  म्हणतात ,   "" माणसाने इतिहास लिहिण्यासाठी जो भाग निवडलेला</p>

<p> पान नं .  28</p>

<p> असेल त्याची निवड सावधपणे केलेली असावी .  परंतु त्याच्या आधीन असू नये .  ""
  (  "" He must choose a field for himself and without allowing
 himself to be imprisoned in it "" 0</p>

<p> इतिहासलेखनशास्त्राचे तज्ज्ञ हे बिनचूकपणे आपल्या सोयीनुसार इतिहासाचे
 विभाजन करत असतात .  इतिहाससंशोधनक बॉअर  ( Bauer )   याने इतिहासचे विभाजन
 मानवी जीवनाची वस्तुनिष्ठता लक्षात घेऊन केलेली आहे .  त्याने इतिहासाचे वर्णात्मक
 व तत्त्वधिष्ठित असे दोन भाग पाडले आहेत .  त्याच्या मते अशा प्रकारच्या इतिहासामधून
 तत्त्वचिंतन झाले पाहिजे .  त्याचबरोबर ,  मार्गदर्शनही झाले पाहिजे .  त्यानेच पुढे वांशिक
 इतिहास (  Genetie History )  असा स्वतंत्र प्रकार कल्पिलेला आहे व या प्रकारात
 प्रत्येक गोष्टीचा उगम ,  विकास व बदल या संदर्भात अभ्यास करावा सेत्याने म्हटले
 आहे .  तसेच तो म्हणतो की ,  सामाजिक इतिहाससुद्धा लिहिला पाहिजे .  अशा इतिहासात
 ज्या नियमांमुळे घटनांमुळे समाजावर परिणाम झाला अशा घटनांचा अभ्यास केला
 पाहिजे .  लँजीलॉस आणि सेनबॉस  यांनी इतिहासाचे विभाजन पुढीलप्रमाणे केले आहे .
 1 .  भौतिक परिस्थिती  ( Marerial Condition )
 2 .  बौध्दिक सवयी  ( Intellectual Habits )
 3 .  भौतिक चालीरीती   ( Material Customs )
 4 .  आर्थिक चालीरीती  ( Economic Customs )
 5 .  सामाजिक संस्था  ( Social Institutions )
 6 .  सार्वजनिक संस्था  ( public Institutions )</p>

<p> अशा रितीने इतिहासाची विभागणी करती असताना त्यांनी भौतिक परिस्थिती ,
 चालीरीती ,  आर्थिक परिस्थिती ,  सामाजिक संस्खा व सार्वजनिक संस्खा या सर्वाचा
 विचार करून या विभाजनाला जास्तीत जास्त स्थूल स्वरूप देण्याचा प्रयत्न केला आहे .
 प्रो .  रेनिअर  म्हणतात की ,  इतिहासाच्या वर्ण्य विषयात अशा तऱ्हेचे विभाजन अतिशय
 आवश्यक आहे .  कारण त्यामुळे मानवी जीवनाचे नवे पैलू डोळ्यापुढे येऊ शकतील .
 ज्यावेळी एखाद्या विषयाचे सामान्यज्ञान  ( General knowledge )  पाहिले जाते तेव्हा
 त्या ठिकाणी तंतोतंतपणा किंवा टीकात्मक प्रवृत्ती ही कमीच असते आणि जर विभाजन
 केले तर एखाद्या बाबीवर विशेष भर दिला जातो .  म्हणून असे विभाजन अभ्यासकाच्या
 दृष्टीने फार महत्त्वाचे आहे .</p>

<p> प्रो .  रेनिअर यांच्या मते इतिहासाचे विभाजन करीत असताना पुढील तीन निकष
 गृहीत धरणे आवश्यक आहे ते असे .
 1 .  इतिहासाचे सर्व भआग स्वयंरित्या व बुद्धिवादाच्या कसोटीवर घासून पाहता
 आले पाहिजेत .</p>

<p> पान नं .  29
 2 .  असे झालेले विभाजन स्वयंपूर्म असले पाहिजे .
 3 .  अशा विभाजनामध्येसुद्धा एक प्रकारचा वांशिक संबंध प्रस्थापित करता आला
 पाहिजे .</p>

<p> मानव जातीचा अभ्यास करीत असताना आशिया ,  युरोप व आफ्रिका खंडांतील असे
 विभाजन न करता त्या सर्वाना समान वाटणारा एखाद्या घटक घेऊन त्याचा इतिहास
 लिहिला पाहिजे .   प्रो .  आल्फ्रेड सिजविक  ( Alfred Sidgwick )  म्हणतात कीस
 इतिहासाचे विभाजन करताना दृष्टिकोन स्वच्छ आणि साफ असला पाहिजे व अशा वेळी
 एखादी गोष्ट ही तुलनात्मक दृष्ट्या न पाहता ,  त्या घटनेच्या संदर्भात तिची माहिती
 घेतली पाहिजे .  According to Alfred Sidgwick  ""  The distinction
 between a sovereign and a six penve ,  important enough in regard
 to their purchasing power ,  becomes unimportant for the purpose
 of tossing up ""  )   ( सॉव्हरीन व सिक्स पेन्स यांच्यामधील फरक हा त्यांच्या
 क्रमशक्तीच्या बाबतीत महत्त्वाचा आहे .  परंतु नाणेफेकीच्या बाबतीत तो फरक
 महत्त्वाचा ठरत नाही .  )</p>

<p> वरील विधानाचा अर्थ असा की ,  दोन गोष्टींमधील भेद हा जरी महत्त्वाचा
 असला तरी त्याचे महत्त्व हे त्या संदर्भावर अवलंबून असते .  उदा .  इतिहासाच्या
 प्रकरांमध्ये सामाजिक व राजकीय असे जरी भाग असले तरी एखाद्या कालखंडाची
 समग्र माहिती देत असताना अशा तऱ्हेच्या विभाजनाची गरज नाही .   . प्रो .  रेनियर
 म्हणतात ,   "" अशा प्रकारचे विभाजन हे वस्तुनिष्ठ दृष्टिकोनावर आधारित असले
 पाहिजे ,   "" प्रो .  जॉन ड्यूई  ( Prof . John Dewey )  म्हणतो की ,   "" विभाजन करणे हे
 जसे उपयुक्त आहे तसेच स्वाभाविकही आहे .  ""   (  "" To classify is an useful as it
 is natural ""  )</p>

<p> ज्यावेळी आपण इतिहासाच्या विभाजनासंबंधी विचार करतो तेव्हा असे दिसून येते
 की ,  जरी कितीही इच्छा असली तरी प्रत्यक्षात होणारे विभाजन साचेबंद स्वरूपाचे असू
 शकत नाही .  म्हणून प्रो . शिलर  ( Schiller )  म्हणतो ,   (  "" Exhaustive divisions
 are hardly obtainable ""  )  इतिहास विभाजनासाठी आणखी एक निकष लावला
 जातो आमि तो म्हणजे काळाचा  ( Time )  होय .  संपूर्ण जगाच्या इतिहासाचे प्राचीन ,
 मध्ययुगीन व अर्वाचीन असे तीन कालखंड कल्पिले जातात .  प्रो .  रेनियर यांनी आणखी
 एक सूचना केली आहे की इतिहासलेखन समांतर रेषेमध्ये  ( Horizontal )  व विषयाचा
 दृष्टीने ऊर्ध्वमुखी  ( Vertical )  असे करावे .  या दोन प्रकरांमध्ये देशाचा संबंध</p>

<p> पान नं .  30</p>

<p> इतिहास लिहावा किंवा एखाद्या वंशाचा संपूर्ण इतिहास लिहून त्या वलंशाचे त्या देशाच्या
 इतिहासातील स्थान स्पष्ट करावे .  अशा प्रकारच्या इतिहासलेखनामध्ये दोन गोष्टी शक्य
 होतात ,  त्या अशा .
 1 देशाचे सबंध चित्र डोळ्यापुढे उभे राहते .
 2 .  एखाद्या व्यक्तीचे महत्त्व समजते .</p>

<p> विशेषतः या दुसऱ्या प्रकाराचा अवलंब करून समाजातील अनेक वय्कीत नजरेसमोर
 उभ्या करता येतात .  यानंतर शेवटचा एक प्रश्न अशा शिल्लक राहतो तो म्हणजे अशा
 प्रकारचे विभाजन आवश्यकच का ठरते  ?  या प्रश्नाचे उत्तर असे की ,  सर्वच
 इतिहासकरांना इतिहासाच्या प्रत्येक अंगोपांगांमध्ये तितकाच उत्साह व गती असेल असे
 नाही .  उदा .  एखाद्या इतिहासकाराला पराजकीय इतिहासामध्ये गती असेल पण आर्थिक
 इतिहासामध्ये त्याला तितकीशी गती नसेल .  म्हणून इतिहासकरांच्या सोयीसाठी असे
 भाग पाडण्यात आले आहेत .</p>

<p> प्रो .  हेन्री स्टील कॉमेजर आपल्या ,   ` The Nature and The Study of
 Huistory '  या ग्रंथात म्हणतात ,   "" इतिहासाची विभागणी पुरातनकाल ,  मध्ययुग आणि
 आधुनिक काल अशी करतात ,  परंतु ही विभागणी सदोष आहे .  यातील उघड दिसणारा
 दोष म्हणजे संकुचितपणा हा होय .  वास्तविक अशी विभागणी सबंध जगाच्या
 इतिहासाच्या बाबतीत करणे आवश्यक होते .  परंतु युरोपीय इतिहासकरांनी ही विभागणी
 आशिया ,  आफ्रिका ,  अमेरिका खंडाच्या बाबतीत केलेली नाही .  उलट ,  त्यांनी इतर
 खंडांच्याकडे दुर्लक्ष केलेले आहे .  या पद्धतीतील आणखी एक दोष असा की ,  एवढया प्रचंड
 कालखंडाला एखा ठराविक कालामध्ये समाविष्ट करणे म्हणजे पिंजऱ्यात कोंडल्याप्रमाणे
 आहे .  म्हणून अशा तऱ्हेची ही विभागणी असमर्थनीय व गैरसमज निर्माण करण्यास
 कारणीभूत ठरते .  काळानुसार पद्धतीची मर्यादा लक्षात घेतल्यास ती अधिक सोयीची
 होईल .  परंतु त्यामध्ये निश्चित वर्षे देणे हे काही वेळा धोक्याचे ठरण्याची शक्यता आहे .
 एखाद्या व्यक्तीच्या इतिहास लिहित असताना ,  त्याच्या नावनाने उल्लेख करणे हे सोयीचे
 ठरेल .  उदा .  दि इलिझाबेन एज ,  रेस्टोरेशन पीरियड .  अशा तऱ्हेची विभागणी रशियाच्या
 बाबतीतही करता येईल .  थोडक्यात म्हणजे इतिहासाची विभागणी करती असताना
 कालानुक्रम ,  देशानुक्रम व खंडानुक्रम यांपैकी एका तत्त्वाचा वापर केल्यास इतिहास
 लिहिणेही सोपे जाईल व त्याचे वाचन करणे सुद्धा सोपे जाईल .  इतिहास लिहित असताना
 राजकीय इतिहास लिहिण्याची पद्धत आहे .  ही पद्धत राष्ट्रवादाच्या कल्पनेच्या
 उदयापासून सुरू झाली .  अर्थात् इतिहासाचा हा प्रकार सर्वात सोयीचा व लोकप्रिय असा
 आहे .</p>

<p> इतिहासाचार्य राजवाडे  यांनी इतिहासलेखनाचे तीन प्रकार सांगितलेले आहेत
 ते असे .
 1 .  देशिक  ( Regional
 पान नं .  31</p>

<p> 2 .  कालिक  ( Time )
 3 .  वांशिक  ( Genealogical )</p>

<p> राजवाड्यांच्या मते देशिक किंवा त्या प्रांताच्या इतिहासामुळे एखाद्या विशिष्ट
 भू - खंडातील हालचीलंवर चांगला प्रकाश पडतो .  त्यामुळे सूक्ष्म स्वरूपाचे सर्वागीण ज्ञान
 होऊ शकते .  असा अनेक देशांचा किंवा प्रांतांचा इतिहास लिहिल्यानंतर त्यांचा तौलनिक
 अभ्यास करणे शक्य होते .  राजवाड्यानंसुद्धा इतिहासाची विभागणी वेगवेगळ्या काळात
 करणे ही कल्पना मान्य आहे .  त्यांच्या मते अशी विभागणी केली असता संशोधन
 व लेखन करणे सोयीचे ठरते .  एकदा कालखंड ठरल्यानंतर त्यानुरूप कागदपत्रे
 जमवून स्पष्ट इतिहास लिहिता येतो .  जर कालखंडच ठरलेला नसेल तर अनेक वेळा
 अतिव्याप्तीचा दोष निर्माण होतो .  राजवाड्यांचा तिसरा प्रकार म्हणजे वांशिक इतिहास
 होय .  त्यांच्या मते देशाच्या इतिहासप्रवाहामध्ये अशा अनेक व्यक्ती उदयास येतात ,
 तशीच अनेक घराणी उदयास येत असतात . त्यांची भरभराट होते व शेवटी ऱ्हास होतो .
 सबंध देशाचा इतिहास पाहत असताना अशा घराण्यांचा इतिहास दुर्लक्षिला जाण्याची
 शक्यता आहे .  म्हणून एखादे इतिहासप्रसिद्ध घराणे घेऊन जर त्याचा समग्र इतिहास
 लिहिला तर त्या घराण्याने कोणती कामगिरी बजावली याची माहिती मिळू शकते .
 उदा .  खरेशास्त्री संपादित हरीवंशाची बखर .  हरीवंशाच्या बखरीमध्ये पर्टवर्धन
 सरदारांनी मराठोशाहीत कोणती प्रत्यक्ष कामगिरी बजावरी याची माहिती मिळते .
 म्हणून अशा प्रकारटी घराण्याचा इतिहास लिहिण्याची पद्धत ही त्या राष्ट्रालाच
 एकदंरीत फायदेशीर ठरते .</p>

<p> आता आपण इतिहासाच्या प्रकारची थोडक्यात ओळख करून घेऊया .</p>

<p> 1 .  राजकीय इतिहास  ( Political History )</p>

<p> इतिहासाच्या प्रकारातील सर्वात लोकप्रिय प्रकार म्हणजे राजकीय इतिहास होय .
 प्राचीन काळापासून राजकीय घाडामोडी हाच केंद्रबिंदू समजून त्यानुसार इतिहास
 लिहिण्याची पद्धत आहे .  कारण ,  पहिल्यापासून माणसाला राजकीय स्थित्यंतर व नेतृत्व
 यांमध्ये कमालीचा उत्साह वाटलेला आहे .  राजा ,  पंतप्रधान ,  किंवा राज्यशासनातील अनेक
 घटक यांची माहिती मिळविणेस ही एक उत्साहाची बाबा आहे .  प्रो .  कॉमेजर म्हणतात की ,
 राजकीय इतिहासाची सुरूवात ही भौगोलिक अभ्यासातून निर्माण झाली .  आधुनिक जगात
 राष्ट्रवाद ही कल्पना उदयास आल्यानंतर राजकीय इतिहासाला चालना मिळाली .
 राजकीय चौकटीमधूनच इतिहासाच अभ्यास करणे ही सर्वात महत्त्वाची बाबा झाली .
 या पद्दतीचे काही उपयोग दिसू येतात .  त्यांतील पहिला उपयोग अशा की ,
 ऐतिहासिक सांधनांचे संघटन हे नेहमीच राष्ट्रीय भूमिकेतून केलेले असते .  शासकीय
 विभाग ,  सरकारी पुस्तके ,  कोर्ट , लष्कर ,  नौदल  ,  संग्राहलय या सर्वाच्यामुळे
 संदर्भसाधने सहजासहजी उपलब्ध होतात .  दुसरा उपयोग असा की ,  राजकीय इतिहास
 लिहिणाऱ्याजवळ बहुभाषित्व असण्याची खास आवश्यकता नाही आणि शेवटचा</p>

<p> पान नं .  32</p>

<p> उपयोग असा की या इतिहास - प्रकाराने राष्ट्राभिमान निर्माण होत असल्याने माणसाच्या
 मनात नाट्य व जोष निर्माण होतो .  परिणामी इतिहास - प्रकार अतिशय महत्त्वाचा
 व प्रभावी ठरतो .  राजकीय इतिहासाचे लेखन अनेक दर्जेदार लेखकांनी केले आहे .
 लॉर्ड मेकॉलेचा  ` History of England '  मिशलेहने लिहिलेला  ` History of
 France '  हेन्री अँडम्सने लिहिलेला  ` History of United States
 During the Administration of Jefferson and Maddison  हे सर्व ग्रंथ आपापल्या
 राष्ट्रात साष्ट्रप्रेम निर्माण करण्यास कारणीभूत ठरले आहेत .  प्रो .  कॉमेजर राजकीय
 इतिहासातील एक उणीव दाखवितात व ती म्हणजे अशा प्रकारच्या लिखाणाने काही
 वेळा संकुचितपणा व प्रादेशिक दृष्टिकोण निर्माण होण्याची शकयता असते .</p>

<p> राजकीय इतिहासाचे महत्त्व सांगताता  .  प्रो .  जी .  एन् .  क्लार्क म्हणतात ,   "" मला
 असे वाटते की ,  इतिहासकाराने जर राजकीय व घटनात्मक इतिहास इतर प्रकारांमध्ये
 मिसळला तर ती एक चूक ठरेल .  ""
  ( IT Seems to me that Historians Will go
 wrong if they try to resolve political and constitutional history
 into other elements .  ""  )  प्रो .  क्लार्क यांच्या विधानाचा अर्थ असा की ,  राजकीय
 इतिहासाप्रमाणेच घटनात्मक इतिहासालासुद्धा तितकेच महत्त्व आहे .  म्हणून राजकीय
 इतिहासात घटनात्मक इतिहास हा स्वाभाविकच येतो .  किंबहुना तो आलाच पाहिजे .
 प्रो .  क्लार्कनी अशा तऱ्हेचे विधान करण्याचे कारण असे असावे .  प्रो .  रेनियर म्हणतात .
 त्याप्रमाणे पूर्वी राजकीय इतिहासात फक्त राजा ,  त्याने केलेल्या लढाया व तह यांचा
 समावेश होत असे .  परंतु आशा ही स्थिती दिवसेदिवस पालटत आहे .  प्रो .  रेनियर म्हणतात .
  "" राजकीय इतिहास म्हणजे ,  राजे ,  त्यांचे करार व युद्ध यांचा इतिहास होता .  सामान्य
 माणसाच्या अनुभवामध्ये अलीकडील काळात उत्साह दाखविण्यात आला .  त्यामुळे
 गतकाळातील गोष्टी सांगण्याच्या प्रक्रियेतच मोठी बदल घडून आला आहे .  पण पूर्वी अशा
 एक काळ होता की राजाने केलेले कार्य हेच सर्वोच्च असे व त्या काळात त्याने मिळवलेले
 विजय सामान्य माणसाचे भवितव्य ठरवीत असत .  ""  ( Political history was
 once the history of kings ,  treaties and battles .  The interest taken
 in the experience or the common people has brouht about
 revulsion among those who tell the story of the past .  But there
 were time when deeds of kings didi matter supremely and when
 conqyests shaped the destinies of ordinary man .  ""  )</p>

<p> राजकीय इतिहास हा अत्यंत महत्त्वाचा मानतता .  कारण ,  अशा इतिहासामधूनच
 देशाचे भवितव्य घडविले जाते .  हा इतिहास अधिकृत कागपत्रावर आधारित असल्याने
 त्याचे महत्त्व अतिशय मानले जाते .  आधुनिक काळात राजकीय बाबींपेक्षा इतर बाबी
 विचारात घेण्याची पद्धत सुरू झाली तरी राजकीय इतिहासाचे महत्त्व कमी झालेले</p>

<p> पान नं .  33</p>

<p> नाही .  राजकीय इतिहासाचे महत्त्ल सांगताना .  प्रो .  बार्नस  ( Branes )  आपल्या
  ` A hsitory of Historical Writing '  या ग्रंथात म्हणतात की ,   "" राजकीय
 इतिहास हा दोन कारणांसाठी महत्त्वाचा आहे .  ती कारणे म्हणजे हेगेलचा राज्याविषयीचा
 सिद्धांत व त्यामुळे निर्माण झालेला राष्ट्रवाद होय .  हेगेलच्या तत्त्वज्ञानाने राज्य म्हणजे
 देवाने दिलेली देणगी आहे असा विचार मांडण्यास आला व या कल्पनेमुळे राजकीय
 इतिहासाचे महत्त्व पूर्वीपेक्षा वाढले .  ""</p>

<p> राजकीय इतिहासाचे महत्त्व सांगत असताना डॉ .  बी .  शेख अली आपल्या
  ` History  :  Its Theory and Method '  या ग्रंथात म्हणतात ,   "" राजाला जनतेचा
 हाकारी  ( मेंढपाळ )  मानले जाते .  आधुनिक काळातील राष्ट्राध्यक्ष ,  पंतप्रधान ,  संसद
 सिनेटर्स व इतर राजकीय संस्था यांमुळेच इतिहासाचा मुख्य प्रवाह बनल्या आहेत आणि
 म्हणून इतिहासकाराला आपल्या संशोधनापैकी सिंहाचा वाटा या गोष्टींनाच द्यावा
 लागतो .   ""   (  "" The king has been called the shepherd of his people .
 The modern Presidents ,  Prime Ministers ,  Parlaments ,  Senates and
 other political agaencies are so much in the news that politics
 happens to be the mainstream of all history ,  and demands the
 lion ' s share of historians ' s attention ""  )</p>

<p> 2 .  घटनात्मक इतिहास  ( Constitutional History )</p>

<p> घटनात्मक इतिहास हा राजकीय इतिहासाचाच एक भाग आहे .  प्रो .  क्लार्कने म्हटल्या
 प्रमाणे राजकीय इतिहास व घटनात्मक इतिहास हे अलग करता येत नाहीत .  परंतु
 सोयीसाठी घटनात्मक इतिहास हा नावारूपाला आला आहे .  या इतिहास प्रकारामध्ये राज्य -
 शासनाच्या  ( Hovernment Administration )  विविध अंगोपांगांचा विचार केलेला
 असतो .  अनेक संस्खा कशा उगम पावल्या व त्यांचा विकास कसा झाला हा याचा मुख्य
 विषय असतो .  उदा .  ब्रिटिश संसंदेची सुरूवात 13 व्या शतकापासून झाली .  या संसदेपैकी
 एक संस्था म्हणजे विटनेगेनॉट  ( विद््वत््सभा )  .  तिचा विकास कसा झाला हा एक
 घटनात्मक अब्यास करता येतो .  अशा प्रकारच्या अभ्यासाने त्या काळात कोणता राजकीय
 विचार प्रवाह अस्तित्वात होता याचा अंदाज येऊ शकतो .  उदा .  1660 साली इंग्लंडमध्ये
 दुसऱ्या चार्लस््ला राज्यावर बसविल्यानंतर जो राजकीय विचार होता तो विचार
 1669 ते 1685 या काळात पार्लमेंटने पास केलेल्या कायद्यामधून दिसून येतो .  या .
*
----------------------------------------------------------------
Cont'd
</p></body></text></cesDoc>