<cesDoc id="mar-w-leisure-astrology-at00a004.mss" lang="mar">
<cesHeader type="text">
<fileDesc>
<titleStmt>
<h.title>mar-w-leisure-astrology-at00a004.mss.txt</h.title>
<respStmt>
<respType>Electronic file created by</respType>
<respName>Central Institute for Indian Languages, Mysore</respName>
<respType>transferred into Unicode and CES format by</respType>
<respName>"Unicodify" software by Andrew Hardie</respName>
</respStmt></titleStmt>
<publicationStmt>
<distributor>UCREL (on behalf of CIIL)</distributor>
<pubAddress>Department of Linguistics, Lancaster University, Lancaster, LA1 4YT, UK</pubAddress>
<availability region="WORLD"></availability>
<pubDate>03-07-25</pubDate>
</publicationStmt>
<sourceDesc>
<biblStruct>
<monogr>
<h.title>तुमचा चेहरा तुमचे व्यक्तिमत्त्व ( भाग एक व दोन )</h.title>
<h.author>वा.ल. पांडे</h.author>
<imprint>
<pubPlace>India</pubPlace>
<publisher>Unknown - आनंद साने, अंजली पब्लिशिं?ऀाऊपुणे</publisher>
<pubDate>1990</pubDate>
</imprint>
<idno type="CIIL code">at00a004.mss</idno>
</monogr></biblStruct></sourceDesc></fileDesc>
<encodingDesc>
<projectDesc>Text collected for the CIIL Corpus, subsequently integrated into the EMILLE/CIIL Monolingual Written Corpora.</projectDesc>
<samplingDesc>Simple written text only has been transcribed. Diagrams, pictures and tables have been omitted. Sampling begins at page पुणे.</samplingDesc>
<editorialDecl><conformance level="1"></conformance></editorialDecl>
</encodingDesc>
<profileDesc>
<creation><date>03-07-25</date></creation>
<langUsage>Marathi</langUsage>
<wsdUsage>
<writingSystem id="ISO/IEC 10646">Universal Multiple-Octet Coded Character Set (UCS).</writingSystem>
</wsdUsage>
<textClass>
<channel mode="w">print</channel>
<constitution type="composite"></constitution>
<domain type="public"></domain>
<factuality type="fact"></factuality>
</textClass>
<translations></translations>
</profileDesc>
<revisionDesc></revisionDesc>
</cesHeader>

<text><body>

<p>एकूण पाने :- 20
FROM 9 TO 89
किंमत :-21 रूपये</p>

<p>+</p>

<p> पान नं. 9</p>

<p>1 : चेहरा व व्यक्तिमत्व यांचा संबंध</p>

<p>चेहरा हा मानवी मनाचा आरसा आहे. ( Face is an index of
minds) ह्या आरशातून व्यक्तीच्या मनाचे प्रतिबिंब दिसते. शरीर व मन
यांच्या ऐक्याने होणारे शरीरातील व्यवहार चेहऱ्यावर चटकन दिसून येतात.
मनुष्याच्या प्रत्येक दृश्य व अदृश्य हालचालींना मेंदू कारणीभूत आहे.
मनातील सर्व व्यवहार जेव्हा चेहऱ्यावर प्रकट होतात त्या वेळी ही व्यक्ती
अशी आहे, या विचाराची आहे, असे म्हटले जाते. म्हणजेच व्यक्तित्व
चेहऱ्यावरून ओळखता येते. हे नेहमीच्या व्यवहारातही आपल्याला दिसून
येते.</p>

<p>मनुष्याच्या मनात कोणताही विचार सुरू झाला की, त्या त्या विचाराच्या
उत्कटतेनुरूप त्याच्या मुखाकृतीत बदल होत असतो. आनंद, शोक, दुःख
पश्चाताप, प्रेम, द्वेष, सूड वगैरे अनेक मानसिक विशेषांच्या छटांपासून
हास्य, रूदन, दीर्घोच्छवास्, स्मित, दातओठ खाणे, मुठी आवळणे वगैरे अनेक
शारीरिक विक्षेप चेहऱ्यावर (स्पष्टपणे) दिसू लागतात. एवढेच नाही तर
या मानसिक आवेगाची वारंवार पुनरावृत्ती होत गेल्यास त्या व्यक्तीची
मानसिक स्थिती लोकांसमोर स्पष्टपणे व्यकत होते, हे आपण नेहमीच
अवतीभोवती असणाऱ्या व्यक्तींच्या वागणुकीवरून पाहतो. त्यावरून चेहरा
हा व्यक्तिमत्व दर्शविणारा आरसा आहे, हे स्पष्ट होते.</p>

<p>मानवी सृष्टीतील अनेक उपांगे व त्याची आकृती, अंगविक्षेप ह्यांतून</p>

<p>पान नं. 2</p>

<p>दिसणाऱ्या अनेक विकृती विविध प्रकारे मनुष्याच्या चेहऱ्यावर उमटतात.
त्यावरून व्यक्तिमत्वाची परीक्षा होत असते. हा अभ्यास करणाऱ्यांना निरी-
क्षणपद्धतींचा व सहाव्या इंद्रियज्ञानाचा उपयोग होतो. हे निरीक्षण करताना
पूर्वग्रहदूषित नसावे.</p>

<p>व्यक्तीचा चेहरा हाच मनोवृत्तीचा स्पष्ट उल्लेख करीत असतो. संभा-
षणापेक्षा व्यक्तीचा चेहरा त्याचे व्यक्तिमत्व ओळखण्यात जास्त उपयोगी
पडतो. व्यक्तीचे भावदर्शन चेहऱ्याच्या योगाने होते.</p>

<p>सृष्टीतील प्रत्येक आकृती ही नियमबद्ध असते आणि विशिष्ट गुणधर्म
प्रकट करते. आकृतीप्रमाणे प्रकृती हे बहुधा आढळणारे तत्त्व आहे. व्यक्तीच्या
शारीरिक व मानसिक ठेवणीचा परिणाम त्याच्या चेहऱ्यावर होत असतो.
जसे-दारूडे, विषयी, खुशामती, लबाड, लफंगे असणाऱ्या व्यक्ती भोवताली
जर नीट पाहिले तर ओळखता येतील.</p>

<p>पाश्चात्त्य देशांत गुन्हेगारीचा अभ्यास मुद्राशास्त्राद्वारे केला जातो, तर
भारतात मुद्राशास्त्राद्वारा त्याच्या व्यक्तिमत्वाचा अभ्यास होतो.</p>

<p>सामुद्रिक हा शब्द मुद्रा म्हणजे चेहरा यावरून पडला. तसेच मुद्रा म्हणजे
चिन्ह म्हणजेच शरीरावरील निरनिराळ्यी चिन्हांवरून जे आणता येते ते
सामुद्रिक. या विषयाचा मूळ शास्त्रज्ञ समुद्राचार्य याने याबद्दल सिद्धान्त
मांडले म्हणूनही त्याला सामुद्रिकशास्त्र हे नाव पडले.</p>

<p>द्रव्य, गुण व कर्मामुळे ज्या कामक्रोधादी षड््विकारांमुळे शरीराचा
आकार, रंग, रस, गंध व स्पर्श इत्यादी तयार होतात. त्याच्या ज्ञानावरून
त्याच्या आधाराने भूत-वर्तमान-भविष्य वर्तविले जाते. सामुद्रिक, मुद्रालक्षण
चिकित्सा, हस्तसामुद्रिक व पादसामुद्रिक असे चार भाग पडले आहेत. अंग
सामुद्रिक शास्त्रात वरील चारही शास्त्रांचा समावेश होतो. प्रमाणबद्धता व
त्याचा नियम यास शास्त्रात फारच महत्त्व आहे. प्रमाणबद्धतेत थोडाही
बदल जर आढळून आला तर त्याच्या व्यक्तिमत्वात बदल दिसतो.</p>

<p>सहजपणे आणि स्पष्टपणे दृष्टिस पडणारा शरीराचा अवय म्हणजे
चेहरा किंवा मुद्रा. यावरील अवयव गोल किंवा लंबगोल दिसतात. जसे
डोके,डोळे, कान, नाक, भुवया सर्वच लंबगोलाकार असतात. तसेच
शास्त्रीय कारण म्हणजे पृथ्वीच्या चक्राकार फिरण्याच्या गतीमुळे प्रत्येक</p>

<p>पान नं. 11</p>

<p>गोष्टीला गोल किंवा लंबगोल आकार मिळाला आहे. आकाशातील ग्रह
व तारे आपल्याभोवती वर्तुळाकार किंवा चक्राकार फिरत असतात. त्याचाही
परिणाम पृथ्वीवरील प्रत्येक वस्तूवर होत असतो. गोलाकाराचा हा
परिणाम व्यक्तिमत्त्वावर झाल्याशिवाय राहात नाही.</p>

<p>व्यक्तिमत्वाचा अर्थ : ( The meaning of personality)  इंग्रजीतील
शब्द personality लॅटीन भाषेतील persona शब्दापासून विकसित झाला.
त्याचा अर्थ मुखवटा (नकाब) ( Mask) हा आहे. हा शब्द ग्रीक शब्द
prosopon ह्यापासून घेतला गेला आहे. ज्याचा अर्थ आकृती अथवा
चेहऱ्याचा भाग. या शब्दाच्या आधारावर व्यक्तिमत्वाचा अर्थ व्यक्तीबाह्य
रूपाशी संबंधित आहे. रंगभूमीवर काम करीत असताना किंवा भाषण
करताना नट मुखवटा घाली. आपल्या भाषणाच्या व हावभावाच्या ( अभि-
नयाच्या) द्वारा आपण कोण आहोत हे प्रकट करीत असतानासुद्धा.
personality या शब्दाचा थोडाफार तोच अर्थ आहे. त्याचे विचार, भावना
कशा आहेत, त्याच्या मानसिक संघटनेत ( mental organization)
कोणकोणत्या गोष्टींचा समावेश होतो, या सर्व गोष्टी बहुतांशी त्याच्या
चेहऱ्यावर आणि बोलण्याच्या, वर्तनाच्या पद्धतीवरून लक्षात येतात.</p>

<p>Apperarance and behaviour are central factors in first
as well as subsequent impressions.  As such as a basis on
which the personटs reputation is built.  A good appearance
creat favouable impression and leads of favourable judgements.
 व्यवहारात व्यक्तिमत्व या शब्दाने व्यक्तीच्या चेहऱ्याची मोहकता
( Charm) किंवा त्याची दुसऱ्यावर पडणारी छाप ( impression) यांचा
निर्देश केला जातो, वा व्यक्ती पाहून त्याच्या बाजूनेच निर्णय घेतला जातो,
अशी त्याच्या व्यक्तिमत्वाची छापच दुसऱ्या व्यक्तीवर पडते. हे आपणास
बऱ्याच अंशी व्यवहारात आढळून येते. ज्या व्यक्तीत व्यक्तिमत्व व चेहऱ्या-
वरून ज्यांच्यात व्यक्तिमत्व आढळून येते. ते भाग्यवान म्हटले पाहिजेत.
मानसशास्त्राला मात्र हे म्हणणे मान्य नाही. मानसशास्त्राच्या मते प्रत्येक
व्यक्तीत व्यक्तिमत्व असते. इतर लोकांचे लक्ष आपल्याकडे सहज जाईल
असे काही तरी म्हणजे व्यक्तिमत्व हा अर्थ मानसशास्त्रज्ञांना अभिप्रेत</p>

<p>पान नं. 12</p>

<p>नाही.
काही व्यक्तींचे व्यक्तिमत्त्व उठावशीर ( Strong ) तर काहींना मोठे
आल्हाददायक ( pleasant personality) व्यक्तिमत्त्व असते. या शब्दांचा
अर्थ असा की, काही व्यक्ती इतर व्यक्तींवर अधिक चांगल्या प्रकारे छाप
पाडू शकतात. त्या शब्दाद्वारे व्यक्तिमत्त्वाचे मापन केले जाते. त्या व्यक्ति-
मत्वाचा दुसऱ्या व्यक्तीवर काय परिणाम ( personality effect) होतो
हे आपणास कळते.</p>

<p>एक व्यक्ती दुसऱ्या व्यक्तीहून भिन्न आहे, त्याचे कारण त्याचे
भिन्न व्यक्तिमत्त्व होय. सर्वच व्यक्ती एकसारख्या असत्या तर या
शब्दांना मुळी काहीच अर्थ उरला नसता. एका अर्थाने पाहता व्यक्ती
म्हणजे शील, चारित्र्य अथवा गुणविशेष यांचे संकलन. परंतु प्रत्यक्षात
त्याला या गोष्टीशिवाय अधिक काही गोष्टी असतात. या गुणविशेषांमुळे
एक नवीन प्रकार तयार होतो, त्याचा विचार करणे संयुक्तिक ठरेल.
गिलफोर्ड यांच्या मते व्यक्तिमत्त्व म्हणजे गुणविशेषांचा संघटित असा
प्रबंध ( आकार,प्रकार) होय ( personality is an integrated
pattern of traits)</p>

<p>व्यक्तिमत्त्वाचे गुणविशेष : - ( Personality traits) येथे पहिल्याने
आपणास गुणविशेष या शब्दाची व्याख्या करावी लागेल. एक मनुष्य दुसऱ्या
माणसाहून भिन्न असतो त्याचे कारण त्याच्या वागणुकीची सर्वसामान्य व
साधारणतः कायम टिकणारी अशी पद्धती आहे. ( A trait is any
common relativity enduring way in which one person can
differ from another) यामुळे गुणविशेष हा शब्द अधिक व्यापक झाला
आहे. यात शारीरिक वैशिष्ट्यांप्रमाणेच वर्तन विशेषांचाही ( Behaviour
ral traits) समावेश होतो. यात मानसिक शक्तीचा जसा अंतर्भाव होतो
तसा स्वभाव प्रवृत्तीच्या गुणांचाही ( Temperamental qualities) अंतर्भाव
होतो.</p>

<p>मानसशास्त्रदृष्ट्या विचार करताना आपल्याला प्रामुख्याने वर्तनभेदाचा
( Behaviour difference) अभ्यास करावयाचा आहे. एक मनुष्य दुसऱ्या
माणसाहून भिन्न पद्धतीने वागतो हे कसे ? ह्यासाठी व्यक्तीच्या बुद्धिमत्तेचा</p>

<p>पान नं. 13</p>

<p>तसेच त्यांच्या दोषांचाही विचार करणे महत्त्वपूर्ण आहे.</p>

<p>स्वभावप्रकृतीमध्ये व्यक्तीच्या भावात्मक गुण विधेयाचा समावेश होतो.
तसेच चारित्र्य, शील ह्या शब्दांना नैतिक अर्थ आहे.</p>

<p>ज्यांचे नैतिक दृष्ट्या मूल्यमापन करता येते त्यांना चारित्र्यविषयक गुण-
विशेष असे म्हणतात. मज्जाक्षीणता, समाजशीलता यांच्या बाबतीत ते योग्य
आहेत. की अयोग्य आहेत हे सांगणे कठीण आहे. सध्याच्या संस्कृतीत
या विशेषांबद्दल कोणालाही नावे ठेवीत नाहीत. हे गुणविशेष चारित्र्याला जसे
लागू पडतात तसेच ते व्यक्तिमत्त्वालाही लागू पडतात.</p>

<p>अभिरूची ( interest) व मनोवृत्ती ( Attitutde) यांचाही व्यक्ति-
मत्वाच्या गुणविशेषांचे प्रकार म्हणून उल्लेख करावा लागतोच.</p>

<p>समाजशास्त्रज्ञाला व्यक्तीमत्वाचा ( Personality) तीनपैकी एक अर्थ
अभिप्रेत आहे. 1) व्यक्तीचे वरकरणी स्वरूप किंवा तिने आपल्या गुणांनी
इतरांवर पाडलेला प्रभाव. कधी कधी व्यक्ती आपल्या सौदंर्याने, वागणुकीच्या
पद्धतीने दुसऱ्या व्यक्तीला प्रभावित करते. 2) जीवनाला वळण लावणारी
शक्ती या नात्याने स्वतःची जाणीव होणे. काहींच्या मते व्यक्तीला स्वतःच्या
होणाऱ्या जाणीवेमुळे किंवा वर्तनाला एक दिशा प्राप्त होते. त्यातून
व्यक्तिमत्त्वाचा पुढे विकास होतो. 3) मापन करणे शक्य आहे अशा
आंतरिक व बाह्य गुणांचे विशिष्ट संघटन.</p>

<p>नॉर्मन मनच्या मते व्यक्तिमत्त्व म्हणजे शरीरचना, वर्तनविशेष.
अभिरूची, अभिरती आणि क्षमता व योग्यता यांचे वैशिष्ट्यपूर्ण संघटन होय.</p>

<p>1) Personality may be defined as the most characteric
intergation of an individual's structures, modes of behaviour,
interest, attitudes, capacities, abilities and aptitude ( Munn
N.l. Physchology p. 569 )</p>

<p>मानसशास्त्राने व्यक्तिमत्त्वाची व्याख्या केली असून या व्याख्येत दोन
गोष्टी प्रामुख्याने आढळतात. एक, व्यक्तीची शरीरचना अथवा तिची
अभिरूची, अभिरती   ह्यांपैकी कोणत्याही एकाने व्यक्तिमत्त्वाचे स्पष्टीकरण
होणार नाही. व्यक्तिमत्त्व म्हणजे ह्या सर्वाचे संकलित अथवा संघटित
स्वरूप होय. शिवाय संकलन व मानवी संघटन या दोन गोष्टी विचारात</p>

<p>पान नं. 14</p>

<p>घ्यावयास हव्यात.</p>

<p>गॉर्डन आलपोर्टने व्यक्तिमत्त्वाची व्याख्या अशी केली आहे, ` व्यक्तीचे
परिवेशाशी वैशिष्टय्पूर्ण समायोजन ठरविणारे व्यक्ततील मनोभौतिक
पद्धतीचे गतिशील संघटन म्हणजेच व्यक्तिमत्त्व होय.'
ii) Personality is the dynamic organisation within the
individual of those psychopsy seal systems that determine
his unique adjustment to his invironment ( Allport G.W.
Personality a Psychological interpretation P-18)</p>

<p>मानव परिवेशाशी नेहमी समायोजन करण्याचा प्रयत्न करीत असतो.
हे समायोजन करीत असताना त्याचे व्यक्तिमत्त्व प्रगट होते, असे ऑलपोर्टने
सुचविले आहे. प्रत्येक व्यक्ती परिवेशाशी (परिस्थितीशी) समायोजन
करण्यासाठी निरनिराळ्या प्रकारे वर्तन करीत असते, म्हणून दोन व्यक्तींचे
व्यक्तिमत्त्व कदापिही सारखे असू शकणार नाही. प्रत्येक व्यक्तीचे
वैशिष्ट्यपूर्ण असे आणि इतर व्यक्तींपैक्षा वेगळे असे व्यक्तिमत्त्व असते.</p>

<p>वुडवर्थने व्यक्तिमत्त्वाची व्याख्या पुढीलप्रमाणे केली आहे, ` व्यक्तीचे
विचार आणि आविष्कार, अभिवृत्ती आणि अभिरूची, कार्य करण्याची पद्धती
व जीवनविषयक तत्त्वज्ञान यात व्यक्त झालेल्या व्यक्तीच्या वर्तनाचे
समुच्चयात्मक स्वरूप म्हणजेच व्यक्तिमत्त्व होय.'</p>

<p>iii ) Personality can be broadly defined as tht total
quality of an individuals's behaviour as it is rvealed in his
habit, thought and expression, his attitudes and interest, his
manner of acting and his philosophy or life.</p>

<p>( Woodworth and Mogu in Psychology 87-88)</p>

<p>व्यक्तीच्या विचारातून आचार (आचरण) व जीवनाचे तत्त्वज्ञान
त्याची आवड व वृत्ती ह्यांची सांगड घालून तो तिच्या व्यक्तिमत्त्वाचा प्रभाव
दुसऱ्यावर पाडतो असा अभिप्रेत अर्थ आहे.</p>

<p>डीवरच्या मते मानसशास्त्रीय व सामान्य रूपात व्यक्तिमत्त्व या शब्दाचा
भिन्न अर्थाने प्रयोग केला जातो. सर्वाधिक व्यापक संतोषपूर्णक व्याख्येच्या
अनुसार व्यक्तिमत्त्व म्हणजे व्यक्तीच्या शारीरिक, मानसिक, नैतिक, आणि</p>

<p>पान नं. 15</p>

<p>सामाजिक गुणांचे संघटित व सुसंगत आणि गतिशील असे संघटन आहे.</p>

<p>iv) ` Personality is a term used in several senses both
popularly and psychologically the most comprehensive and
satisfatory being the integrated and dynamic organization
of the physcial, mental &amp; social qualities of individual as
that manifests itself to other people in the give and take
of social life ' ( Devef Dictionary of Psychology)</p>

<p>थोडक्यात व्यक्तिमत्त्वासंबंधी असे म्हणता येईल की-
1) व्यक्तिमत्त्वाचा संबंध फक्त शारीरिक यंत्रणेशी नाही.
2) व्यक्तिमत्त्व एक अविभाज्य मात्रा आहे.
3) प्रत्येक व्यक्तीचे व्यक्तिमत्त्व वेगवेगळे असते. ( Many men many
mind)
4) व्यक्तिमत्त्व हे अर्जित केले जाते. ( Personality is Learned
behaviour)
5) व्यक्तिमत्त्व मानसिक प्रभावाद्वारा व सामाजिक अंतक्रिर्येद्वारा
प्रस्थापित होते.
6) चेहऱ्यावर बऱ्यावाईट भावभावनांचे परिणाम चटकन दिसतात.
7) मानवी जीवनात वासना ही प्रमुख असून वासनेसाठी इच्छा व
इच्छेसाठी आशा व आशेसाठी जीवन अशी व्यक्तीच्या जीवनाची परंपरा
आपणास आढळून येते.</p>

<p>यावरून व्यक्तिमत्त्वाच्या संरचनेची बाह्य आणि आंतरिक तत्त्वे खालील
प्रकारे आहेत. शारीरिक रचना व आरोग्य, बुद्धी व मज्जासंस्था, स्नायू
अन्तस्त्रांवी ग्रंथी, प्रत्यक्ष बोध कल्पना व स्मृती. मनाच्या वृत्ती, प्रेरणा
स्थायीभाव आदर्श व मूल्य, स्व ( Ego) अहम त्याचप्रमाणे घरची परिस्थिती
व भूमिका ( Status and role)
मनुष्याच्या बोलण्याचालण्यावरून व भावभावनांवरून त्याच्या चेहर्यावर
झळकणारे भाव व त्याची मनःस्थिती व त्याच्या भावना व स्वभाव यांवरून
प्रत्येक व्यक्तीच्या व्यक्तिमत्त्वाची कल्पना आल्याशिवाय राहणार नाही हे
सत्य विसरून चालणार नाही.</p>

<p>पान नं. 16</p>

<p>त्याचप्रमाणे व्यक्तीची दृष्टिरचना, नजरेतील रोख ( दिसण्याची दिशा)
चालताना व बोलताना जाणवणारा डौल, हातवारे करणे, मानेच्या व
चेहऱ्यावर दिसणाऱ्या हालचाली या सर्व गोष्टींवरून व्यक्तिमत्त्व आपल्या
लक्षात आल्याशिवाय राहत नाही.</p>

<p>माणसाची शरीरयष्टी व त्याच्या चेहऱ्यावर व्यक्त होणाऱ्या व मनातील
भावनांच्या चलनवलनामुळे चेहऱ्यावर बदल होतात व त्यावरून व्यक्तिमत्त्व
ओळखता येते.</p>

<p>चेहऱ्याशी संबंधित अशा अनेक गोष्टी शरीरात आहेत. आत्मा व मन
यात फरक आहे. आत्मा हा स्वयंभू, स्वायत्त स्थिर, सर्वव्यापी व अमर
आहे. ह्याउलट मन शरीराबरोबर उत्पन्न होऊन सतत भटकत राहणार.
ज्याचे मोजमाप करता येत नाही असे जे मन शरीरासमानित नाश
पावते तसेच प्रत्येक क्षणाक्षणाला बदलणारे असे अस्थिर आणि चंचल आहे.
मनाला निरनिराळ्या लयी आहेत. मन व बुद्धी ही मेंदूचीच अंग आहेत.
मेंदूची स्थिती शरीरावर अवलंबून आहे. शरीर जर दुर्बल बनले
तर बुद्धी व मनही दुर्बल झाल्याशिवाय राहत नाही. विवेक, सारासार
आकलन ही बुद्धीची लक्षणे आहेत. मनात येणे, इच्छा होणे हा मनाचा
व्यापार व्यक्तीच्या अंतरंगात अखंड चालूच असतो. व्यक्तीला सुखदुःखाचा
अनुभव होणे हाही मनाचा धर्म आहे.</p>

<p>व्यक्तीच्या नैतिक आचरणावरून त्याच्या चारित्र्यासंबंधी विचार केला
जातो. नैतिक दृष्टिकोनातून व्यक्तिमत्त्वाचा विचार केला तर अशा
व्यक्तिमत्त्व चित्रणाला चारित्र्य म्हणता येईल. नैतिकदृष्ट्या महत्त्व असलेल्या
टिकाऊ गुणवैशिष्ट्यांचानाा चारित्र्य लक्षणे म्हणतात. ह्या दृष्टीने प्रामाणिकपणा
हे चारित्र्याचे लक्षण असून भावनशीलता हे व्यक्तिमत्त्व लक्षण होय असे
म्हणता येईल. व्यक्तिमत्त्वामध्येच चारित्र्याची समाप्ती होत असते. मज्जातंतू
क्षीण झाल्यामुळे या व्यक्तींमध्ये क्षुब्धता आढळून येते.
व्यक्तिमत्त्वाचे काही प्रकार ( मानसशास्त्रीय विभाग)</p>

<p>व्यक्तिमत्त्वाचा विचार निरनिराळ्या लक्षणांना अनुसरून केला जातो
त्याचप्रमाणे वर्गीकरणाच्या दृष्टिकोनातूनही केला जातो व्यक्तिमत्त्वाचे
काही प्रकार पुढीलप्रमाणे करण्यात आले आहेत. इ.स. पूर्व 5 व्या</p>

<p>पान नं. 17</p>

<p>शतकात ग्रीसमधील डॉक्टर हिप्पोक्रेटसने मानवी प्राण्याला चार प्रकारात
विभाजीत केले. एक, तेजस्वी व्यक्ती आशावादी असतात. दुसरा प्रकार
उदास ( Melancholic) यात मज्जातंतूवर क्षीणता व क्षुब्धता आढळून
येते. तिसरा मनुष्य हा चिडचिडा ( Choletic) असतो. तर चौथा प्रकार
कफाच्या आधिक्याने शांतगुणाची ( Philegmatic) निर्मिती होते.</p>

<p>व्यक्तिमत्त्वाची रासायनिक तत्त्वे- रक्तसंचारामुळेच शरीराचे योग्य
संयोजन होते- शारीरिक दृष्ट्या व्यक्तिमत्त्वात बदल घडवून आणण्याच्या
दृष्टीने महत्त्वाची आहेत. व्यक्तींच्या आहारात काही गोष्टींची उणीव निर्माण
झाली तर तिचा परिणाम जसा शरीरावर तसाच मानसिक गुणावर व
व्यक्तिमत्त्वावरही झाल्याशिवाय राहत नाही.</p>

<p>यापुढे स्वित्झर्लंडचा मानसशास्त्रज्ञ कार्ल गुस्ताक जुंग ( Carl Gustac
Jung) ह्याने दोन प्रकार सांगितले आहेत.</p>

<p>काही लोक अंतर्मुख असतात. दुसरा प्रकार बहिर्मुखता. अंतर्मुख व्यक्ती
स्वतः आपल्या आंतरिक अनुभूतीच्या विचारात लीन झालेली असते व ती
स्वतःच्या कल्पनाविश्वात मग्न असते व ते आत्मकेंद्रित असते. परंतु बहिर्मुख
मात्र बाह्य जगाच्या कार्यात मग्न  असून त्यात सक्रिय भाग घेतो व तो
उभयमुख असतो. अशा वयक्तिमत्त्वात अंतर्मुख व बहिर्मुख या दोन्ही गुणांचे
मिक्षण असते.</p>

<p>जर्मनीचा मानसशास्त्रज्ञ अर्नेस्ट क्रेचर अनुसार बहिर्मुखी व्यक्तिमत्त्व
असलेली व्यक्ती धाडसी व शक्तिशाली असते. तर अंतर्मुखी दुर्बल व
रोड असते. प्रथम प्रकारच्या व्यक्तीला त्याने Pykrice आणि दुसऱ्या
प्रकारच्या व्यक्तींना त्याने Leptsome म्हटले आहे. डब्लू. आय. थॉमस
यांनी आणि फ्लोरियन नेकीन स्वेच्छाचारी ( Bohemian), असंस्कृत
आणि स्टीव्हन्स ने कटिप्रवण ( Endomorphic) अस्थिपेशी प्रवण
( Mesomorphic) व मज्जाप्रधान विचारप्रधान ( Ectomorphic) मध्ये
व्यक्तीचे वर्गीकरण केले आहे.</p>

<p>व्यक्तिमत्त्वाच्या विकासाचे घटक ( Determinants of Personality)</p>

<p>पान नं. 18</p>

<p>व्यक्तिमत्त्व हे चार तत्त्वांच्या परिणामाचे फलीत आहे. 1) भौतिक वातावरण. 2) अनुवांशिक 3)
संस्कृती 4) विशिष्ट अनुभूती होय.</p>

<p>1) व्यक्तिमत्त्व व पर्यावरण ( Personality &amp; Enivronment)
व्यक्तीचे विचार आणि मनोवृत्ती या भौतिक वातावरणानुसार होत असतात.
भौगोलिक वातावरण संस्कृतीला प्रभावित करते. ज्याप्रमाणे संस्कृती ही
व्यक्तिमत्त्वाला प्रभावित करते, त्याचप्रमाणे व्यक्तिमत्त्व व भौगोलिक
वातावरणाचा संबंध स्पष्ट होतो. सुमारे 2000 वर्षापूर्वी अँरिस्टॉटलने
म्हटले होते की, उत्तर युरोपात राहणारे लोक थंड वातावरणामुळे उत्साही
परंतु कमी बुद्धीचे व कलाकुशल असतात. तर दुसरीकडे आशियात
राहणारे बुद्धिवान व चिकित्सक परंतु कमी उत्साही आढळतात.
तसेच अठराव्या शतकात माँटेस्क्यूने म्हटले की, थंड हवामानात
राहणाऱ्या लोकांची वीरवृत्ती ही स्वातंत्र्य टिकवून ठेवण्यास व सुरक्षित
राहण्यास साह्य करते. अधिक उष्णता (गरमी) शरीराचा नाश करते. तर
थंड व शीतल हवा शरीराला व मनाला शक्ती उत्पन्न करते. असे म्हटले
जाते की, उष्ण प्रदेशातील लोक आळशी असतात. तरी पण सभ्यतेचा
विकास त्याच ठिकाणी झाला आहे. जेथे तापमान सामान्य व अनुकूल व
उत्तम राहील असे पर्वतीय व उंच प्रदेशावर राहणारे लोक धाडसी,
परिश्रमी व बलवान असतात. मनुष्याची मनोवृत्ती व त्याची मानसिक
रचना भौतिक वातावरणाच्या प्रभावावर अवलंबून असते.</p>

<p>हटिंगटनने असे विशद केले की, प्राकृतिक अवस्था अनुज्ञात्मक आणि
परिसीमात्मक अधिक असते व कार्यकारणात्मक कमी असते. या परिसीमां-
मध्ये व्यक्तिमत्त्वाचा विकास होत असतो. आणि यात परिसीमात्मक तत्त्वाचा
प्रभाव अधिक असतो. त्याचप्रमाणे जल, वायू आणि भौगोलिक परिस्थिती
लोकांच्या मानसिक लक्षणांना बऱ्याच प्रमाणात प्रभावित करते, असे
आपणास म्हणता येणार नाही. हे तत्त्व फक्त मानवी व्यवहार निर्धारीत करते.
व्यक्तिमत्त्वाचे अनेक प्रकार प्रत्येक संस्कृतीत सापडतात. ह्यातील तथ्य
असे की, मानवी सभ्यता नाना प्रकारे विभिन्न भौगोलिक परिस्थिती, पाणी
व हवा ह्याच क्षेत्रात प्रगट झाली. व्यक्तिमत्त्वाची संक्लिष्ट घडण ही
वातावरणामुळेही घडते. व्यक्तिमत्त्वाचे मुख्य केंद्र सुप्त घटकांनी तयार</p>

<p>पान नं. 19</p>

<p>झालेले असून त्याचे स्वरूप प्रेरणात्मक आढळते. हाही वातावरणनिर्मितीचा
प्रभाव होय.</p>

<p>ह्यामुळे व्यक्तीला आकार प्राप्त होतो.</p>

<p>2) आनुवंशिकता व व्यक्तिमत्त्व- समाला सम हा नियम लागू पडतो.
जसा वृक्ष तसेच फळ. ज्या झाडाचे बीज पेराल तेच झाड उगवेल.
अनुवांशिकता हे महत्त्वपूर्ण तत्त्व व्यक्तिमत्त्वाला लागू पडते. प्रत्येक मानव
समूह हा समान जैविक आवश्यकता आणि पूरकता पूर्वजाकडून प्राप्त करीत
असतो. मनुष्याचा जन्म स्त्री-पुरूषाच्या जीवकोष्ठाच्या मीलनातून होत
असतो व याची शारीरिक रचना व बुद्धी आपल्या मातापित्याच्या प्रमाणेच
समान असते. स्नायुतंत्र, जैविक प्रवृत्ती, नाडीसहित ग्रंथी व्यक्तीला प्रभावित
करतात व त्याचे निर्धारण असे केले जाते की, अमुक व्यक्ती शक्तिवान
अथवा निर्बल, उत्साही अथवा आळशी, बुद्धिवान वा कमी बुद्धीची राहील.
स्वस्थ आणि सुदंर शरीर असणाऱ्या व्यक्तीचे व्यक्तिमत्त्व आकर्षक
असते तर अस्वस्थ, कृश, शारीरिक व्याधिग्रस्त व्यक्तीमध्ये हीन भावनांचा
विकास होतो. त्याचा विकास विरोधीतत्त्वानेच होत असतो. स्नायुतंत्र
व्यक्तीची बुद्धी व प्रेरणा प्रभावित करते. हार्मोन्स व्यक्तिमत्त्व-
विकासास प्रभावित करतात. हार्मोन्सची अधिकता व न्यूनता हानिप्रद
असते. काही व्यक्ती आत्मसंतोषी, अतिउत्साही, अतिक्रियाशील व उत्तेजित
असतात तर काही सुस्त, आळशी आणि दुर्बल असतात. ह्याचे कारण
हार्मोन्सचा कमी-अधिक स्त्राव हे होय. ते कधी-अधिक प्रमाणात तर कधी
अतिशय कमी प्रमाणात आढळतात.</p>

<p>सामान्यतः व्यक्तिमत्त्वासाठी हार्मोन्सचा संतुलित स्त्राव व्हावयास हवा.
ह्यावरून व्यक्तिमत्त्व हे काही अंशी प्रवाहित होते हे स्पष्ट होते.
मात्र थोडक्यात अनुवांशिकता कोणत्याही मनुष्याचे व्यक्तिमत्त्व निश्चित
व स्थिर दिशेने पूर्णपणे निर्धारीत करू शकत नाही. एवढेच म्हणता येईल
की, व्यक्ती अनुवांशिकतेमुळे विभिन्न प्रकारचे व्यक्तिमत्त्व विकासाचे सत्त्व
व काही क्षमता प्राप्त करते तर व्यक्तिमत्त्व यथार्थ परिस्थितीद्वारा
निर्धारीत होत असते. ऑर्गबन आणि निमकॉफने असे म्हटले आहे की, जसे</p>

<p>पान नं. 20</p>

<p>अन्तस्त्रावी समर्थक असा विचार करतात की, ग्रंथी संपूर्ण व्यक्तिमत्त्व,
मनुष्याचे विचार त्याच्यासवधी आणि कौशल्याला निर्धारीत करतात हे
म्हणणे ऑर्गबन व निमकॉफला मान्य नाही. त्यातील काही ग्रंथी काही
प्रकारच्या हार्मोन्स इंजेक्शनद्वारे आत मिसळून अतीक्रियाशील अथवा
ह्या प्रकारे व्यक्तिमत्त्वाला प्रभावित करता येईल. उपलब्ध साध्य त्या
सिद्धांतीय धारणेस प्रमाणित केले जात नाही. कारण व्यक्तिमत्त्व अनुवांशिक
कतेतून हस्तांतरीत होते त्यात संशय नाही. काही लक्षणे अशी आहेत की,
ज्याचा अनुवांशिकतेवर प्रभाव पडतोच. उदा. शारीरिक कौशल्य, बुद्धी
आणि संवेदनात्मक विभेदीकरण. काही अशा योग्यता आहेत की, ज्या कुटुंबा-
बाहेर अन्य ठिकाणी अपेक्षेपेक्षा अधिक विकसित होतात. परंतु अन्य लक्षणे
आणि विश्वास, श्रद्धा, पूर्वग्रह व शिष्टाचार यांच्यावर अधिकांश प्रशिक्षा
व अनुभवाचा परिणाम होतो. अनुवांशिकता केवळ कच्चा माल प्रदान करते
त्यामुळे व्यक्तिमत्त्वाच्या निर्मितीस सहाय्य होते. अनुभव या कच्च्या
मालाच्या प्रयोगप्रकाराला नियंत्रित करतो. एखादी व्यक्ती अनुवांशिकतेच्या
कारणाने उत्साही असू शकतात. परंतु काय तो स्वहितार्थ अथवा परहितार्थ
उत्साहप्रदर्शन करतो काय ? हे कार्य प्रशिक्षणावर अवलंबून आहे. तो धन
मिळवितो अथवा विद्या प्राप्त करतो, त्यासाठी परिश्रम करतो हे त्याच्या
पालनपोषणावर अवलंबून आहे.</p>

<p>यावरून असे स्पष्ट होते की, आलफ्रेड अँडलरने म्हटल्या-
प्रमाणे कुटुंबातील मुलांच्या जन्मक्रमाला त्याच्या व्यक्तिमत्त्वाविकासाच्या
दृष्टीने बरेच महत्त्व आहे. म्हणजे आई-वडिलांच्या परिपक्व अवस्थेत
होणारी मुले ( उशिरा होणारी ) अधिक प्रभावी व्यक्ती होतील तर
अपरिपक्व अवस्थेतील ( 30 च्या आधीची) मुले तितकी प्रभावी व्यक्ति-
त्त्वाची राहणार नाहीत.</p>

<p>3) व्यक्तिमत्त्व व संस्कृती :- संस्कृती व्यक्तिमत्त्वाच्या विकासाच्या
दृष्टीने विशेष प्रभावी कार्य करते. काही विचारकांनुसार व्यक्तिमत्त्व व
संस्कृती आत्मपूरक स्वरूप आहे. व्यक्तिमत्त्व व संस्कृती एकाच नाण्याच्या
दोन बाजू समजल्या जातात. व्यक्तिमत्त्वाचा विकास व संस्कृतीचे अंगीकरण</p>

<p>पान नं. 21</p>

<p>विभिन्न प्रक्रियांद्वारे न होता एकसमान शिक्षण प्रक्रियेद्वारा ( Learned
behaviour) होत असते. व्यक्तिमत्त्व संस्कृतीचे व्यक्तिगत स्वरूप आहे.
प्रत्येक संस्कृती व्यक्तिमत्त्वाच्या विशिष्ट प्रकार अथवा नव्या प्रकाराला जन्म
देत असते. इ.स. 1937 मध्ये मानसशास्त्राची लिंटन आणि मनोविश्लेषक
अब्राहम कार्डीनर यांनी अनेक आदीम समाजांच्या व एका आधुनिक अमेरिकन
खेड्याच्या वृत्तांताच्या सूक्ष्म अध्ययनाद्वारे संस्कृती आणि व्यक्तिमत्त्वामधील
संबंधांच्या काळातील संयुक्त संशोधनास प्रारंभ केला. त्यांनी अध्ययनाद्वारे
असे प्रदर्शित केले की, प्रत्येक संस्कृती एका आधारभूत व्यक्तिमत्त्वप्रकारास
जन्म देते व त्याद्वारे समर्थित होत असते. कोणत्याही समाजविशेषाचे अधिक-
कांश सदस्यांमध्ये प्राप्त आधारभूत व्यक्तिमत्त्वप्रकार, वृत्ती, अथवा नैसर्गिक
प्रवृत्तीचा परिणाम न होता सासंक्तृतिक दृष्ट्या समान प्रारंभिक शैशवकालीन
अनुभवाचा परिणाम होत असतो. बालकांचा जन्म पोकळीत होत नसतो तर
सास्कृतिक संदर्भात होत असतो. जी व्यक्ती मानसिक रचना, मनोवृत्ती आणि
संबंधी यांना प्रभावित करीत असते, एक प्रदत्त सासंस्कृतिक पर्यावरण आपल्या
भागीदार सदस्यांचे भिन्न भिन्न सांस्कृतिक पर्यावरणात कार्यशील व्यक्तीत
पृथःकरण करते, फ्रॅक ( Frank) च्या अनुसार संस्कृतीचा या व्यक्तीवर प्रबल
व दमनकारी प्रभाव आहे. जी विचार, अवधारणा आणि विश्वासाद्वारे
त्याच्या व्यक्तिमत्त्वाला प्रभावित करते. संस्कृती कच्चा माल पुरविते ज्यात
व्यक्ती आपल्या व्यक्तिमत्त्वाचटी निर्मिती करते. समूहाची प्रथा, रीती,
लोकाचार, धर्म, संस्था, नैतिक व सामाजिकि मानक, सर्व समूहातील सदस्यांचे
व्यक्तिमत्त्व प्रभावित करीत असतात. ज्याप्रमाणे जन्माच्या वेळी बालकाचे
ज्या प्रकारे पालनपोषण होत असते त्याचप्रमाणे त्याच्या व्यक्तिमत्त्वावर
प्रभाव पडत असतो. प्रत्येक संस्कृती आपल्या आधीन सदस्यांवर सर्वसामान्य
प्रभाव पाडत असते.</p>

<p>वर वर्णन केल्याप्रमाणे ऑगबर्नने संस्कृतीला भौतिक आणि अभौतिक
यात विभाजित केले आहे. त्याच्या मतानुसार भौतिक व अभौतिक संस्कृती
दोन्हीही व्यक्तिमत्त्वाला प्रभावित करतात. पौर्वात्य लोकांचे उदाहरण
देताना सवयी व मनोवृत्तीच्या निर्मितीत स्वच्छता व वक्तशीरपणा या
दोन गोष्टींचा त्यांच्यात अभाव दिसून येतो. भारतीय लोक वेळ पाळत</p>

<p>पान नं. 22</p>

<p>नाहीत तसेच अमेरिकन लोकांचे व्यक्तिमत्त्व भिन्न आढळते. एस्किमो लोक
आपल्या पाठीवर बर्फाची थैली ठेवतात कारण की पाण्याची आवश्यकता
पडल्यास ते बर्फ वितळून पाणी पिऊ शकतात. त्यांची संस्कृती त्यांना
अस्वच्छ बनविते. जी व्यक्ती पाणी घेण्याकरिता केवळ नळाची तोटी
फिरविते ती स्वाभाविकच एस्किमोच्या तुलनेत अधिक स्वच्छ राहू शकते.
स्वच्छता ही अनुवांशिक देणगी नाही तर ती संस्कृतीची देणगी आहे.
जोपर्यत अभौतिक संस्कृती आणि व्यक्तिमत्त्वसंबंधात प्रश्न आहे. भाषा
ह्याचे सर्वात उत्तम उदाहरण आहे. आम्हाला जाणीव आहे की, पशु व
मनुष्यात एक प्रमुख अंतर आहे. मानव वाणीचा स्वामी आहे. भाषा फक्त
समाजाताच शिकली जाते. तसेच मनुष्य हा विचारशील प्राणी आहे. जे
लोक भाषा नीट बोलत नाहीत त्यांचे व्यक्तिमत्त्व चांगले नसते. भाषा एक
अनिवार्य माध्यम आहे. मनुष्यास आवश्यक सूचना देण्याचे ते प्रमुख साधन
आहे. त्याशिवाय वाणी ( वाचा) स्वयं व्यक्तिमत्त्वाचे लक्षण आहे. थोडक्यात
असे म्हणता येईल की, जर्मन व्यक्तीची थोडी कुरबुर व कंठस्थ ध्वनी
त्याच्या व्यक्तिमत्त्वाचे अंग आहे. स्पेनच्या रहिवाशाची सरळ वाचाळ
वाणी. बोलताना हात व खांदे यांना गतीने गलवणे. इटालीयन व यहुदी
लोकांच्या व्यक्तिमत्त्वाचे अभिन्न अंग समजले जाते. पारसी (यहुदी) केवळ
बल देण्याच्या हेतूने या गोष्टींचा उपयोग करतात तर इटालियन व्यक्ती
त्याच्याद्वारे काही अर्थाना संचारित करतात. वाढत्या औद्योगीकरणामुळे
व नागरीकरणामुळे रोजगारासाठी बाहेर पडलेल्या स्त्रियांचे वेगळे
व्यक्तिमत्त्व दिवसेंदिवस अधिक जाणवायला लागले आहे. संस्कृतीच्या
प्रभावाचे उदाहरण एक स्त्री-पुरूषसंबंधाविषयी देता येईल. प्रारंभी जेव्हा
प्रमुख व्यवसाय कृषी होता तेव्हा स्त्रियांना घराबाहेर कोणताही व्यवस्या
नव्हता. स्वाभाविकतेनुसार पिता अथवा पती आर्थिक रूपात आश्रित होती.
परंतु आजच्या काळात शेकडो स्त्रिया घराच्या बाहेर कार्य करून वेतन प्राप्त
करतात. पुरूषांच्या प्रमाणेच समान अधिकार उपभोगत आहेत. व्यक्ति-
मत्त्वाच्या निर्मितीस संस्कृतीच्या योगदानाचा अधिकात अधिक स्वीकार
केला जात आहे, ज्यात काही समाजशास्त्रज्ञांनी विशिष्ट संस्कृतीत त्या
तत्त्वांचा शोध घेण्याचा प्रयत्न केला आहे. गटाच्या आत व्यक्तीला</p>

<p>पान नं. 23</p>

<p>विशिष्ट व्यक्तिमत्त्व प्रदान केले जाते. रूथ बेनेडिक्ट हिने आदीम वनजातींच्या
संस्कृतीचे विश्लेषण करून संस्कृती दोन प्रमुख प्रकारांत- अपोलोनियन
आणि डायोनिसियन मध्ये विभाजित केली आहे. अपोलो ग्रीक रहिवाशांच्या
कृपालू व सुखदायक सूर्यदेवतेचे नाव आहे. आपोलोनिन संस्कृतीचे लोक संयमी
संतुलित, उदार व सहयोगी असतात, तचर डायनिसियन ग्रीक रहिवाशांच्या
कष्टदायक मदमस्त, देवतेचे नाव आहे. डायोनिसियन संस्कृतीचे लोक
संवेदनात्मकता ( भावनाशीलता) व्यक्तिवादी तर प्रतियोगितात्मक अति-
वादिता प्रदर्शित करते. झुनी संस्कृती अपोलोनियन आहे तर क्याक्युती
आणि दोब्यून संस्कृती डायोनिसियन आहे.
भारतात हिंदू व्यक्तीचे व्यक्तिमत्त्व इंग्रज व्यक्तीपेक्षा भिन्न आहे. ह्यांचे
उत्तर स्पष्ट आहे की, हिदूंची भिन्न संस्कृती, हिंदू संस्कृतीत भौतिक व
सांसारिक वस्तूवर बल देत नाही तर त्यात धार्मिक व आध्यात्मिक स्थितीवर
प्रधानता देण्यात येते. प्रत्येक हिंदू कुटुंबात धार्मिक पर्यावरणाचा अवलंब
केला जातो. आई सकाळीच उठून स्नान करते व काही वेळ पूजापाठात
वेळ घालविते. कुटुंबाच्या कुलदेवता अथवा देवासमोर सर्व नतमस्तक
होतात. हिंदू मुले जन्मापासून आंतरिक भावनांवर ताबा ठेवून धार्मिक व
आध्यात्मिक व्यक्तिमत्त्व प्राप्त करणे हे ध्येय समजतात.</p>

<p>वरील उदाहरणावरून स्पष्ट होते की, संस्कृतीचा व्यक्तिमत्त्व निर्मितीवर
बऱ्याच प्रमाणावर प्रभाव पडतो. व्यक्तीचे विचार व त्याचे आचार यांवर
सांस्कृतिक अभ्यनुकलनाचा परिणाम होत असतो. धर्मनिष्ठ हिंदू व रशियाचा
कम्युनिस्ट, जो धर्माचा निंदा करतो ह्या दोहोत फारच मोठे अंतर आहे.
संस्कृतीमुळे काहीच घडतनाही असे म्हणता येणार नाही. संस्कृती सर्व व्यक्तींना
समान प्रतिमानात वेढून घेते. कोणत्याही संस्कृतीच्या माणसाचे
अंगभूत गुणविशेष आणि त्याच्यावर होणारा संस्कृतीचा परिणाम यातून
भिन्न भिन्न व्यक्तिमत्त्वे तयार होतात.</p>

<p>व्यक्ती समान व एकरूप असूच शकत नाही. काही लोक अपेक्षेपेक्षा
अधिक आक्रमणकारी असतात तर दुसरे काही विनम्र, दयाळू असतात.
व्यक्तिमत्त्व पूर्णतः संस्कृतीवर अवलंबून नसते तरीपण प्रत्येक व्यक्तिमत्त्वावर
त्याचा प्रभाव पडतो. हे यातील एक तत्त्व आहे. रूथ बेनेडिक्टने म्हटले आहे</p>

<p>पान नं. 24</p>

<p>की, कोणताही मानसशास्त्री की ज्याने अन्य संस्कृतीचे अध्ययन केले आहे
त्याने असा विश्वास केला नाही की, मनुष्य हा स्वयंचलित यंत्र आहे. जो
आपली संस्कृती व आदर्शाचे यांत्रिक रीतीने पालन करतो. कोणतीही
संस्कृती आपल्या व्यक्तीच्या स्वभावातला अंतराय समाप्त करू शकत नाही.
ही सदैव आदान-प्रदानाची प्रक्रिया असते. लिंटनने सांस्कृतिक प्रभावाचे
सार्वभौमिक विशिष्टता व विकल्पता यात वर्गीकरण केले आहे.</p>

<p>4) व्यक्तिमत्त्व आणि विशिष्ट अनुभव : विविध अनुभवांचाही
व्यक्तिमत्त्वावर प्रभाव पडल्याशिवाय राहत नाही. अनुभव व्यक्तीला दोन
प्रकारे येतात. प्रथम असे अनुभव की सतत गटात किंवा समूहात राहताना
निरंतर संसर्गाने उत्पन्न होतात. सामाजिक चालीरीती आणि कुटुंबाची मूल्ये
यांनी व्यक्तिमत्त्वाला आकार येतो. द्वितीय ते, जे सहजच उत्पन्न होतात व
ज्याची पुनरावृत्ती होण्याची संभावना नसते. ज्या व्यक्ती दुसऱ्या व्यक्तीशी
वारंवार संपर्कात येतात त्याच्या व्यक्तिमत्त्वाचा त्यांच्यावर प्रभाव पडत
असतो. आईवडिलांच्या व गुरूंच्या व्यक्तिमत्त्वाचा प्रभाव मुलीमुलांवर पडून
पुढे त्यांचे व्यक्तिमत्त्व त्यांच्याप्रमाणे बनते. आईवडील दयाळू, प्रेमळ,
मानवी जीवनाबद्दल सदैव जागृत असतील तर त्यांच्या मुलांचे व्यक्ति-
मत्त्वसुद्धा तसेच बनते. घरातच व्यक्तिमत्त्वाची शैली निर्माण होते व
व्यक्तीच्या जीवनाची मते निश्चित करीत असते. सामाजिक रीती जेवणाच्या
टेबलावर शिष्टाचाराचा अवलंब करून लोकांसमवेत मिळून चालण्यासंबंधित
असते. मूळ मनौवैज्ञानिक व संवेदनात्मक अनुकूलवादी समस्यांचा कौटुंबिक
मूल्य व मानवसंदर्भात उपयुक्त रूपात अंगिकार केला जातो.</p>

<p>समूहाचा प्रभाव प्रारंभी शैशवकाळात अपेक्षेपेक्षा अधिक असतो. तेव्हा
आपले आई-वडील संबंधित व्यक्तीबरोबर मुलांचे व्यक्तिमत्त्व अचेतन
स्वरूपात प्रवृत्ती व भावनांचे संघटन अत्यधिक प्रभावित होत असते. शैशव
कालात निर्मितीस आधारभूत व्यक्तिमत्त्व रचनेच्या पुढे बनून गेल्यावर चूक
दुरूस्त करता येत नाही. व्यक्ती नेत्याचे चांगले-वाईट अनुकरण करीत
असते. व्यक्ती स्वतःला श्रेष्ठ अथवा कनिष्ठ समजत असते. ती स्वार्थी
अथवा परमार्थी होणे हे एक दुसऱ्या व्यक्तीसमेवत आंतरक्रियेच्या
प्रकारावर निर्भर असते. आंतरक्रिया ( Group Interaction) त्याच्या</p>

<p>पान नं. 25</p>

<p>व्यक्तिमत्त्वाला प्रभावित करतात. गटाबाहेर राहून व्यक्तिमत्त्व बनूच
शकत नाही. जसे मूल मोठे होईल तशी त्यांच्या आंतरक्रिया व मान्यतांची
इच्छा विकसित होते. त्याच्या नैतिक आवश्यकता, संभवतः समाजविकास
आवश्यकतांचा योग व्यक्तीची महत्त्वपूर्ण प्रेरक शक्ती असतात.
मुलामध्ये स्व ( Ego) चा विचार कसा विकसित होतो हा अध्ययनाचा
महत्त्वपूर्ण विषय आहे. जन्माच्या वेळी स्वतःची भावना नसतेच. तिचा
आरंभ जेव्हा होतो तेव्हा चारही बाहू भौतिक जग समजले जाऊ लागते व तो शिकत जातो. त्याच्या
कोणकोणत्या वस्तू आहेत याचा
अधिकार व गर्व करू लागतो. तो शिकतो की शरीराला अवयव आपले
आहेत. तो आपले नातेवाईक व आईवडिलांसमवेत परिचित होत जातो व स्वयं
दुसऱ्याला विभेदित करू लागतो. पंरशसा आणि निंदा तो दुसऱ्याकडून प्राप्त
करतो व त्यांचे आचरण हे ह्याला प्रभावित करतात. स्वतःच्या विकासात
त्याचा अंह ( Ego) आणि चेतना ( Conscience) चा विकास होत
जातो. यातून पुढे व्यक्तिमत्त्व तयार होते.</p>

<p>स्वतःच्या बाबतीत आमची धारणा आमच्या बाबतीत दुसऱ्या लोकांच्या
मतावर प्रामुख्याने आधारित असते. परंतु याचा अर्थ असा नाही की, आम्ही
आचरणाच्या बाबतीत सर्वच विचारांना समान महत्त्व देतो. अशा
लोकांच्या विचारावर लक्ष देतो की, लोकांना आम्ही महत्त्व देऊन त्यांचे
काही विधिप्रमाण गुण पूर्ण समजतो. आईवडील दुसऱ्या व्यक्तीच्या तुलनेत
अधिक महत्त्वपूर्ण समजले जातात. कारण त्यांचे अतिशय घनिष्ट संबंध
असतात. जीवनात प्रारंभीच्या काळातील शक्ती त्यांच्याकडून प्राप्त होते.
थोडक्यात आमचे प्रारंभीचे अनुभवच आमच्या व्यक्तिमत्त्व निर्मितीत
महत्त्वपूर्ण असतात. प्रांरभिक जीवनच व्यक्तिमत्त्वाचा आधार होते. हे सत्य
विसरता येत नाही.</p>

<p>एका कुटुंबात पोषण झालेल्या मुलाचे व्यक्तिमत्त्व दुसऱ्यापेक्षा भिन्न
असते कारण की, जरी त्यांचे अनुभव समान असतात तरी काही भिन्नता
आढळतेच. मूल प्रथम जन्म घेते व दुसरे मूल होईपर्यत ते एकटेच असते.
आईवडील सर्व मुलांशी सारखेच आचरण करीत नाहीत. मुले विभिन्न</p>

<p>पान नं. 26</p>

<p>समूहात प्रवेश करतात. शक्षकही भिन्न असतात. विभिन्न घटनांचा सामना
मुलांना करावा लागतो. ते समान अनुभव  घटनांचे भागीदार असत
नाहीत. प्रत्येक व्यक्ती एक अनुभव असते. अन्य व्यक्तीचा पूर्णतः समान
अनुभव नसतोच. त्याप्रकारे प्रत्येक बालकाचा अनुभव विलक्षणच असतो,
कारण त्याचे व्यक्तिमत्त्व भिन्नपणे विकसित होत असते.</p>

<p>कधी कधी अनुभव व्यक्तीच्या व्यक्तिमत्त्वावर फार मोठा परिणाम करून
जातो. जसे लहान मूल हिंसात्मक घटना पाहून भयग्रस्त होते. घटने
नंतर त्याच्या मनास भीती लागून राहते. एखादे पुस्तक एखाद्याच्या
व्यक्तिमत्त्वावर इतका प्रभाव पाडते की, तो मायामोह सोडून ईश्वराच्या
भक्तीत लीन होतो. जी व्यक्ती दुर्घटनेत पंगू होऊन जाते तिला अवयवहीन
( अपंग) राहण्याची  भावना विकसित होते तर भगवान गौतम बुद्धाला
प्रेतयात्रा पाहून सर्वसंगपरित्यागाची भावना झाली. ह्याप्रकारे अनुभव
व्यक्तिमत्त्व निर्धारीत करते.</p>

<p>परंतु येथे हे लक्षात घेणे आवश्यक आहे की, जेव्हा एखाद्याचे
व्यक्तिमत्त्व निर्माण होते ते असे निर्धारीत करते की, अनुभवपूर्ण अर्जित
व्यक्तिमत्त्व कोणत्या प्रकारे प्रभावित करते ? समजा, मूल जर तेजस्वी व
खेळाडू असेल, ते अशा आईवडिलांचे अनुकरण करील व त्याचे व्यक्तिमत्त्व
पूर्ण अर्जित लक्षणे वा अधिक प्रभावित करते. जर मूल आत्मकेंद्री
पुस्तकी किडा असेल तर माता-पित्याच्या व्यक्तिमत्त्वास प्राथमिकता येणार
नाही. वैयक्तिक रूप पसंत करील, ज्यामुळे पूर्व अवधीत लक्षणाचा प्रतिकूल
प्रभाव पडेल. व्यक्तिमत्त्व सामाजिक स्थितीचा विषय आहे. सामाजिक
शोधकर्त्यानी दाखविले आहे, की व्यक्ती एका स्थितीत ईमानदार असते तर
दुसऱ्या स्थितीत नाही.</p>

<p>अनुवांशिकता, प्राकृतिक पर्यावरण, संस्कृती आणि विविध अनुभव ही
फार विशेष तत्त्वे आहेत, जी व्यक्तिमत्त्व निर्माण करून त्याचा विकास,
संधारणा करतात. आतापर्यत प्रत्येक तत्त्वप्रभावास पृथक मापनांची
कोणतीही पद्धती नाही आणि हे दाखविणे आवश्यक आहे की , हे तत्त्व
कोणत्या प्रकारे घेऊन प्रदत्त परिणामाला जाणते. बालअपराधींचे</p>

<p>पान नं. 27</p>

<p>आचरण त्याची अनुवांशिकता व कौटुंबिक जीवनपद्धती ह्या दोन्हीद्वारे
प्रभावित होते परंतु कोणत्या तत्त्वाचे किती योगदान आहे ह्याचे
योग्य प्रकारे मापन करणे सध्यातरी असंभवनीय आहे. व्यक्तिमत्त्वाचे
कारण ही, अत्यंत गुंतागुंतीची प्रक्रिया असल्यामुळे अमंलात आणणे
कठीण आहे.</p>

<p>पान नं. 89</p>

<p>स्त्री व्यक्तिमत्त्वे</p>

<p>1 आकर्षक स्त्री व्यक्तिमत्त्व
एखाद्या स्त्रीकडे आपण क्षणभर
बघितल्यास तिच्याविषयी आपणास
आकर्षण वाटते. हे मानसशास्त्रीय
स्त्री-पुरूषविषयक आकर्षण अनादि
कालापासून चालत आहे.</p>

<p>मुखशास्त्रामध्ये स्त्री व पुरूष
असा भेद केला जातो. शरीराची
ठेवण, प्रकृतिधर्म , स्वभाव या
विशेषांवर आधारित फरक
करण्यात आला आहे. कालमाना-
प्रमाणे उत्पन्न होणारी नीतितत्त्वे,
खुणा व चिन्हे व त्यांची फले,
देश, परिस्थिती लक्षात घेऊनच चेहऱ्यावरून व्यक्तिमत्त्वाविषयी कथन
करता येते. स्त्रियांचा डावा भाग हा विशेष विकसित होतो तर पुरूषाचा
उजवा भाग विकसित होतो म्हणून पुरूषाचा उजवा हात तर स्त्रियांचा
डावा पाहण्याचे तत्त्व अभिप्रेत आहे.</p>

<p>स्त्री-पुरूष वाचक पसंतीत एकंदर मानवी स्वभावाचा ओढा विशेषकरून
शारीरिक सौंदर्याकडेच असण्याचा प्रकृतिसिद्ध हेतू मानवीय विकासाच्या
*
----------------------------------------------------------------
Cont'd</p>

<p></p>

<p></p></body></text></cesDoc>