<cesDoc id="mar-w-translat-literature-lt00b003.mtm" lang="mar">
<cesHeader type="text">
<fileDesc>
<titleStmt>
<h.title>mar-w-translat-literature-lt00b003.mtm.txt</h.title>
<respStmt>
<respType>Electronic file created by</respType>
<respName>Central Institute for Indian Languages, Mysore</respName>
<respType>transferred into Unicode and CES format by</respType>
<respName>"Unicodify" software by Andrew Hardie</respName>
</respStmt></titleStmt>
<publicationStmt>
<distributor>UCREL (on behalf of CIIL)</distributor>
<pubAddress>Department of Linguistics, Lancaster University, Lancaster, LA1 4YT, UK</pubAddress>
<availability region="WORLD"></availability>
<pubDate>03-07-25</pubDate>
</publicationStmt>
<sourceDesc>
<biblStruct>
<monogr>
<h.title>गुडबाय हिटलर</h.title>
<h.author>रवींद्र गुर्जर</h.author>
<imprint>
<pubPlace>India</pubPlace>
<publisher>Unknown - श्रीपतराव पासलकर</publisher>
<pubDate>****</pubDate>
</imprint>
<idno type="CIIL code">lt00b003.mtm</idno>
</monogr></biblStruct></sourceDesc></fileDesc>
<encodingDesc>
<projectDesc>Text collected for the CIIL Corpus, subsequently integrated into the EMILLE/CIIL Monolingual Written Corpora.</projectDesc>
<samplingDesc>Simple written text only has been transcribed. Diagrams, pictures and tables have been omitted. Sampling begins at page AVAJ.</samplingDesc>
<editorialDecl><conformance level="1"></conformance></editorialDecl>
</encodingDesc>
<profileDesc>
<creation><date>03-07-25</date></creation>
<langUsage>Marathi</langUsage>
<wsdUsage>
<writingSystem id="ISO/IEC 10646">Universal Multiple-Octet Coded Character Set (UCS).</writingSystem>
</wsdUsage>
<textClass>
<channel mode="w">print</channel>
<constitution type="composite"></constitution>
<domain type="public"></domain>
<factuality type="fiction"></factuality>
</textClass>
<translations></translations>
</profileDesc>
<revisionDesc></revisionDesc>
</cesHeader>

<text><body>

<p> एकूण पाने  :  - 17
 FROM 38 TO 64</p>

<p>  +
 पान नं .  38</p>

<p> त्या दोघांची गठडी वळवू शकाल .  पण दुसऱ्या मार्गानं घरी जाणं हे
 शहाणपणाचं आहे .  मी वाटलं तर तुमच्या बरोबर येतो .  अर्थात विलहेमला
 कायमचं नाहीसं करायचं असेल तर गोष्ट वेगळी  !  '
 डोअरिंग प्रश्नार्थक मुद्रेनं त्याच्याकडे पाहू लागला .
  ` ही सुवर्मसंधीच म्हणाली लागेल .  कारण आज त्याची संधी हुकली
 तर तो पुन्हा केव्हातरी तुमच्या मागे लागेलच .  त्यापेक्षा आजच सावधपणे
 त्या मार्गानं जाऊन दोघं समोर येताच ,  त्यांना कसलीही संधी देण्यापूर्वी
 पिस्तुलाचा वापर करा .  मी साक्षीदार म्हणून सोबत असेनच .  '
  ` बापरे ,  म्हणजे पिस्तुलाचा प्रत्यक्ष उपयोग करायचा  !  आजवर मी
 तसा विचारच कधी केला नव्हता .  मी जेव्हा त्याचा समाचार घेईन आणि
 बायकोला सांगेन .  -  विलहेम तुला आठवतो का  ?  त्यानं का कोण जाणे
 आज माझ्यावर हल्ला केला .  आणि बचावासाठी आम्ही त्याला ठार केलं .
 माय गॉड ,  हे ऐकून तिचंही ह्दय बंद पडेल .   '  या विचारानं डोअरिंगचा
 चेहरा उजळला .  त्यानं शीळ वाचवली .
  ` चला तर मग ,  आपण तसंच करूया  !  '  राईशमेडर घाई करत
 म्हणाला ,   ` त्यांचा धीर खचून ते पळून जाण्यापूर्वी .  '
 ते दोघंही वेगानं ठरलेल्या दिशेला जाऊ लागले .  अर्धवट पडलेल्या
 चाल मजली इमारतीजवळ ते थआंबले .  फिकट चंद्रप्रकाश इमारतीवर पडला
 होता .  तळाशी मात्र बराच अंधार होता .  डोअरिंगला काळोख्या जागी
 ओढून राईशमेडर म्हणाला ,   ` तुम्ही इथेच थांबा ,  मी आत जाऊन
 बघतो -  आणखी दहा जण त्यांच्या मदतीला नाहीत ना  !  '
  ` ठीक आहे ,  तुम्ही जा  !  '  त्यानं भरलेलं पिस्तुल बाहेर काढलं .
  ` तुम्ही इथून हलू नका .  मी लगेच परत येतो .  '
  ` पण तुम्ही त्यांना दिसू नका  !  '
 दुरून आवाज आला ,   ` काळजी करू नका .  '  राईशमेडर अंधारात
 दिसेनासा झाला .
 पूर्णपणे उत्तेजित आणि सावध होऊन डोअरिंग वाट बघू लागला .
 कित्येक वर्षे जवळ बाळगलेलं वजनदार पिस्तूल आज उपयोगात येणार
 होतं .  तो डोळे ताणून बाजूच्या इमारतीकडे पाहू लागला .</p>

<p> पान नं .  39</p>

<p> तो थोडा मागे भितींजवळ सरकला .  राईशमेडर आपला खरा मित्र
 आहे  !  आपण त्याला उद्या रात्री उंची हॉटेलात खाना देऊ .  शिवाय त्याला
 एखादी सोन्याची वस्तूही भेट म्हणून देऊ .</p>

<p> त्याला नजरेसमोर विलहेम दिसत होता .  आज काटा दूर होणार  !
 पोलिसांचे सोपस्कार पूर्ण झाल्यावर आपण घरी जाऊ आणि मग क्लाराला
 हे समजलं की .  .  . मर चांडाळणी  !</p>

<p> कदाचित दैनिकात बातमी प्रसिद्ध होईल .   ` हल्लेखोराचा निवृत्त
 अधिकाऱ्याकडून मृत्यू .  '  कदाचित फोटोही .  आणि टी . व्ही ,  वर मुलाखत .</p>

<p> त्यानं पिस्तुलाची पकड घट्ट केली .  वेळ बराच होत होता ,  भितींकडे
 वळून त्यानं पोटावर पडलेला दाब हलका केला .  बियर फारच झाली होती .
  ` डोअरिं ,  तुम्ही आहात ना  ?  '  वरून राईशमेडरचा हलका आवाज
 आला .
  ` होय .  '  वर बघत तो म्हणाला ,   ` तुम्ही तिघे वर काय करताय्  ?  '
  ` इथून खालचा सगळा भाग दिसतोय .  एका मिनिटातच मी खाली
 आलो .  तुम्ही आहात तिथेच थांबा .  '
  ` तुम्हाला ते दिसले का  ?  '
 उत्तर आलं नाही .  एवढा अंधार असताना राईशमेडर त्या पडक्या
 इमारतीवरून नीट खाली येईल ना  ?  त्याला विलहेम दिसला असेल का  ?
 राईशमेडर ,  लवकर खाली ये  !</p>

<p> वरून काहीतरी गडगडण्याचा आवाज आला .  त्यानं वर बिघतलं .
 प्रचंड वेगानं त्याच्या अंगावर ढिगारा कोसळला ,  चकित होण्यापूर्वीच त्याला
 तातडीनं मृत्यू आला .</p>

<p> यापूर्वी त्यानं 1970 मध्ये हेडलबर्ग इथे भाषण दिलं होतं .  त्यावेळीी
 श्रोते म्हातारपणाकडे झुकलेले होते .  या वेळचा हॉल लहान असला तरी
 त्यात आधुनिक शिक्षण घेणारे ,  बुद्धिमत्तेचं तेज चेहऱ्यावर स्पष्ट दिसत
 असलेला सुमारे पाचशे तरूण विद्यार्थी समोर बसले होते .  सभा रंगात आली
 होती .  जर्मन श्रोते ,  त्यातून तरूण नेहमीच चांगला प्रतिसाद देतात .  त्यांना
 भूतकाळाविषयी विशेष आस्था असते .  इथे बोलताना चैतन्य जाणवतं .</p>

<p> पान नं . 40</p>

<p>  सुरूवातीच्या काळात मला माझ्या आई - वडिलांचा आणि नात -
 लगांच्या मृत्यूचा ,  तसंच कॉन्सेट्रेशनं कॅपमध्ये गेलेल्या माझ्या आयुष्याबद्दल
 सूड घ्यायचा होता .  जर मला तसं करता आलं नाही तर मी त्यावेळी
 जिवंत का सुटलो  ?  '  तो थोडावेळ थांबला .   ` पण खरा सूड तुम्हाला उगव -
 ताच येत नाही .  आणि दुसरी गोष्ट म्हणजे -  तुम्हाला ते शक्य झालं तरी
 त्याचा उपयोग काय  ?   '  त्याला एका जागी बॅरी कोहलर सारखा एक तरूण
 दिसला .
  ` म्हणून मला सूडापेक्षाही अधिक काही तरी हवं आहे .  ते मिळणं
 जवळजवळ दुरापास्तच .  त्या घटनांची ठळक स्मृती राहावी .  पण नाही  !
 काळ पुढे चालूच आहे .  दर वर्षी नवे धोके निर्माण होत आहेत .  व्हिएटनाम ,
 मध्यपूर्वेतील दहशतवाद्यांच्या हालचाली ,  घातपात -  त्या मानानं गॅस चेंबर
 अगदीच सौम्य ठरावा .
  ' परंतु विचारवंतांनी असा इशारा दिलेला आहे की आपण जर भूत -
 काळ विसरलो तर त्याची पुनरावृत्ती होण्याची धास्ती आहे .  म्हणूनच आइश -
 मन आणि मेंगेले यांना - माफ करा आणि स्टॅगल यांना पकडणं अत्यावश्यक
 आहे .  आणि त्यांच्यावर खटला दाखल केला म्हणजे साक्षीदार पुढे येतात
 आणि जगाला बजावतात की ,  तुमच्या - आमच्यासारखी माणसंच काही वेळा
 कशी अमानुष आणि क्रूर बनतात .  विशेषतः तुमच्यासारख्या तरूणांना हे
 समजलं पाहिजे ,  कारण भविष्यकाळ तुमच्याच हाती आहे .  '
 भाषण समाप्त झालं .  टाळ्यांचा गजर .  पुन्हा शांतता झाल्यावर तो
 म्हणाला ,   ` धन्यवाद .  आता कुणाला काही प्रश्न विचारायचे असतील तर
 विचारू शकता .  मी उत्तर देण्याचा प्रयत्न करीन .  '</p>

<p>  .  . याच वेळी ट्रॉन्स्टेनरच्या भर वेगात मोटार चालवत होता .  समोरून
 पाठमोऱ्या चालणाऱ्या रूपेरी केसांच्या माणसाला जवळ येणाऱ्या गाडीचा
 आवाज येताच तो मागे वळला .  तेवठ्यात ट्रॉन्स्टेनरच्या गाडीने त्याला
 उडवलं .  रस्त्यावर सामसूम होती .  गाडी तशीच वेगानं पुढे निघून गेली .  .  .
 इकडे श्रोत्यांमधून एका तरूण स्त्रीनं हात वर केला .  तिला परवानगी
 मिळताच ती उठली .   ` मुख्य लोकांवर खटले भरणं ठीक आहे ,  पण दुय्यम
 अधिकार्यांना - केवळ वरिष्ठांचं आज्ञापालन हाच त्यांचा गुन्हा - पकडून कोर्टा -</p>

<p> पान नं .  41</p>

<p> समोर खेचणं कितपत आवश्यक आहे  ?  त्यापैकी बरेचजण आज चांगले
 नागरिक म्हणून समाजाला उपयुक्तही असतील .  उदाहरणार्थ फ्रेडा मेलनी
 ही बाई घ्या ,  '  असं म्हणून ती स्त्री खाली बसली .</p>

<p> लिबरमन विचारपूर्वक म्हणाला ,   ` फ्रेडा शिक्षिका होती ,  हे तुम्हाला
 ठाऊक आहे तर  !  पण ती कोर्टासमोर आली तेव्हाच तिच्या रानटी वर्तनाचे
 आणि सामुदायिक हत्येचे प्रकार जगासमोर आले नाही का  ?  '</p>

<p> त्यानं समोर पाहिलं .  बरेच हात वर आले होते .  त्यात बॅरीसारखा
 दिसणारा तरूणही होता .  लिबरमनच्या कानात हबॅरीचा फोनवरील आवाज
 घुमला .
 वास्तविक जर्मन सरकार किंवा अगदी इस्त्राईल सरकारलाही नाझी
 गुन्हेगारांना पकडण्यात कितपत स्वारस्य उरलं आहे याची शंकाच होती .  पण
 लिबरमन एकांड्या शिलेदाराप्रमाणे केवळ खासगी मदतीवर आणि भाष -
 णांचे द्वारा फंड उभारून त्यासाठी जिवाचा आकांत करत होता .</p>

<p> तो सर्वाना उद्देशून म्हणाला ,   ` नाझी सत्तेचा पुन्हा उदय होण्याची
 शक्यता दोन गोष्टींमुळे निर्माण होईल .  तीस साली होती तशी सामाजिक
 परिस्थिती घसरली तर - आणि हिटलरसारखा नेता निर्माण झाला तर .  हे
 झालं तर जगातले नाझीवादी गट हे धोक्याचं केंद्र बनतील .  पण स्धाय तरी
 मला तशी शक्यता दिसत नाही .  '  या वेळी बरेच हात वर आले .   ` एक
 मिनिट थांबा .  आता मीट एक प्रश्न तुम्हाला विचारणार आहे .  '</p>

<p> सगळे हात खाली झाले .  तरूणवर्ग उत्सुकतेनं त्याच्याकडे पाहू लागला .</p>

<p> या तल्लख तरूणांच्या बुद्धीचा उपयोग का करून घेऊ नये  ?  असा
 त्यानं विचार केला .</p>

<p>  ` एका काल्पनिक प्रश्नावर मला तुमच्याकडून उत्तर हवं आहे .  तो
 प्रश्न सोडवण्यासाठी मी अतिशय अधीर झालो आहे .  तुमच्याशिवाय दुसरे
 कोण मला अशी मदत करणार  ?  '</p>

<p> तो पुढे म्हणाला ,   `  मी तुम्हाला द .  अमेरिकेतल्या नाझी संघटनेबद्दल
 आणि डॉ .  मेंगेलबद्दल सांगितलंच आहे .  माझ्या एका मित्रानं हा प्रश्न
 उपस्थित केला .  युरोप आणि उत्तर अमेरिकेतील बऱ्याच लोकांना ठार कर -</p>

<p> पान नं .  42</p>

<p> ण्याचा डॉ .  मेंगेलचा बेत आहे .  नक्की आकडा सांगायचा तर चौऱ्याण्णव
 लोक .  आणि ते सर्वजण पासष्ट वर्षाचे ,  नागरी सेवेतील लोक आहेत .  अडीच
 वर्षाच्या कालावधीत त्यांची हत्या घडेल आणि या मागे नाझींचा राजकीय
 हेतू आहे .  ही योजना काय असू शकेल  ?  हे लोक कोण असतील  ?  त्यांच्या
 मृत्यूची मेंगेलेला गरज का वाटावी  ?   '</p>

<p> तरूण मुलं एकमेकांकडे बघत बसली .  थोडी कुजबूज आणि खोकण्याचे
 आवाज येऊ लागले .</p>

<p>  ` मी थट्टा करत नाही .  हा प्रश्न मला विचारण्यात आला होता .  एक
 तर्कशास्त्राचा धडा म्हणून .  कोणी सांगू शकेल  ?  '</p>

<p> एक तरूण उठला .   ` हे लोक जबाबजारीच्या जागेवर आहेत .  त्यांच्या
 मृत्यूही तुम्ही म्हणालात तशी सामाजिक स्थिती ढासळेल आणि नाझी -
 वादाला अनुकूल हवा निर्माण होईल .  '</p>

<p> लिबरमननं मान हलवली .   ` तशी शक्यता नाही .  अडीच वर्षे
 कोणाचंही लक्ष वेधून न घेता खून - सत्र तसंच चालू राहील  ?  आणि त्यातले
 बरेचजण आता निवृत्तही झाले असतील .  ते लवकरच नैसर्गिकरित्या
 मरतील .  त्यांना ठार का करायचं  ?  '</p>

<p> दुसरा तरूण उभा राहिला .   ` हे लोक कसलीही जबाबदारी नसलेला
 नाझी हितचिंतक असतील .  त्यांची आयुष्याची कमाई नाझी संघटनेला ते
 देणार असतील .  त्यांचा खून झाला की पैसे आपोआप जमा होतील .
 त्यासाठी पाच - सहा वर्षे आणखी वाट बघावी लागणार नाही .  '</p>

<p>  ` हा संभव कमी असला तरी ती एक शक्यता आहे .  पण नाझी
 संघटनांकडे अमाप संपत्ती आधीच आहे '  त्यानं जवळच्या कार्डावर  ` पैसा '
 हा शब्द लिहून त्यापुढे प्रश्नचिन्ह काढलं .</p>

<p> एक चष्मा लावलेली तरूणी उभी राहिली .   ` त्या लोकांचं पासष्ट हे
 वय फारसं महत्त्वाचं नसावं .  ते तरूण असतानाच या योजनेशी काही संबंध
 असावा .  .  . वीस किंवा तिशीत असतानाच कदाचित ते एखाद्या लष्करी
 हालचालीत एकत्र असतील .  आणि त्यांना ठार करणं हा सूडाचा भाग
 असेल .  '</p>

<p> पान नं .  43</p>

<p>  ` त्यातले काही जर्मन आहेत तर काही अमेरिकन .  पण तरीही या
 मुद्यात काही अर्थ आहे .  आपण सर्व शक्यतांचा विचार केलाच पाहिजे '
 असं म्हणून त्यानं कार्डावर लिहिलं .   ` लहानपणी असलेला संबंध '   ?</p>

<p> तेवढ्यात एक प्रश्न आला ,   ` हे लोक त्या त्या देशात जन्मले का
 केवळ सध्याचे रहिवासी आहेत  ?  '</p>

<p> त्यानं वर पाहिलं .   ` आणखी एक चांगला मुद्दा .  कदाचित ते मूळ
 एखा देशाचे नागरिक असतील .  आपली चर्चा छान चालली आहे .
 आणखी काही  ?  '</p>

<p> त्यानं कार्डावर लिहलिं .   ` जन्म कुठला  ?  '</p>

<p> बॅरीसारखा दिसणारा तरूण उठला .   ` हे अडीच वर्षाचं हत्याकांड
 केव्हा सुरू झालं  ?  '</p>

<p>  ` दोन दिवसांपूर्वी '</p>

<p>  ` याचा अर्थ साधारण 77 च्या एप्रिलप4यत हे संपेल .  त्यावेळी एखादी
 महत्त्वाची राजकीय घटना अपेक्षित आहे का  ?  कदाचित त्यावेळी एक
 इषारा किंवा शक्तीचं प्रदर्शन म्हणून हे खून जाहीर करायचे असतील  !  '</p>

<p>  ` पण हेच विशिष्ट लोक का  ?  अर्थात या मुद्दायतली तथ्य आहे .
 एप्रिल 77 मध्ये कोणती महत्त्वाची घटना घडण्याची शक्यता आहे  ?  '</p>

<p> स्तब्धता .  मागून एक आवाज आला .   ` मला पदवी मिळेल  !   '  थोडासा
 हशा झाला .</p>

<p> त्यानं हसत हसत लिहिलं -   ` एप्रिल 77  ?  '</p>

<p> पुढल्या प्रश्नांतून आणखी एक मुद्दा मिळाला .</p>

<p>  ` नातलग  ?  मित्र  ?  '</p>

<p> एक धूर्त दिसणारा तरूण उभा राहिला .   ` सर  !  हा प्रश्न खरोखरच
 काल्पनिकच आहे ना  !  '</p>

<p> सभागृहात शांतता पसरली .  लिबरमन म्हणाला ,   ` अर्थातच  -   !  '</p>

<p>  ` मग तुमच्या मित्राकडून अधिक माहिती मागवली पाहिजे .  त्या
 चौऱ्याण्णव लोकांबद्दल अजून किमान एखादी शक्यता समजल्याशिवाय हा
 प्रश्न सुटणारच नाही .  सध्याच्या माहितीवरून आपण केवळ अंधपणे विचार
 करत आहोत .  '</p>

<p> पान नं .  44</p>

<p>  ` खरं आहे ,  '  तो म्हणाला .  अधिक माहितीची गरज आहे .  पण असे
 अंदाजसुद्धा उपयोगी पडतात आणि त्यातून काही शक्यता दिसू लागतात .
 आजूबाजूला बघून त्यानं विचारलं ,   ` आणखी कोणाला काही शक्यता
 दिसते का  ?  '</p>

<p> पांढरे केस झालेल्या एका आजोबांनी हात वर केला .  तो खणखणीत
 आवाजात म्हणाला ,   ` आतापर्यत एकानंही या प्रश्नातील डॉ .  मेंगेलेचं अस्तित्व
 विचारात घेतलेलं नाही .  खुनामागे राजकीय हेतू असेल तर मेंगेलेची तिथे
 गरज काय  ?  तो यात आहे म्हणजेच त्याची वैद्यकीय पार्श्वभूमी विचारात
 घेतली पाहिजे .  कदाचित खुनाच्या एखाद्या नव्या पद्धतीवर संशोधन चालू
 असेल .  म्हातारे लोक निवडले ,  कारण त्यांचा आता यापुढे फारसा उपयोग
 नाही .  एप्रिल 77 पासून खऱ्या हत्याकांडांची सुरूवात होणार असेल  !  '
 तो खाली बसला .</p>

<p> लिबरमन म्हणाला ,   ` थॅक यू ,  सर .  '  नंतर सभागृहाला उद्देशून तो
 पुढे म्हणाला ,   ` हे बहुधा तुमचे प्राध्यापक असावेत .  '</p>

<p>  ` होय ,  '  बरेच आवाज आले .  त्यात किचिंत कडवटाची झाक होती ,
 असं त्याला उगीचच वाटलं .
  त्यानं लिहिलं  :   ` मेगेलेच का  ?  ?  ?  '</p>

<p>  ` अशी चाचणी फक्त नागरी सेवेतील लोकांबरोबरच घेण्याची गरज
 नाही .  आणि जगाच्या निरनिराळ्या भागात ती का  ?  अर्थात मेंगेले बाबतचा
 मुद्दा चांगला आहे ,   त्याचा काय संबंध असावा  ?   '</p>

<p> बराच वेळ काहीच उत्तर आलं नाही .
 त्यानं कार्डावर नजर टाकली .
 पैसा  ?
 लहानपणी असलेला संबंध  ?
 जन्म कुठला  ?
  नातलग  ?  मित्र  ?
 मेंगेलच का  ?
 विद्यार्थीकडे पाहून तो म्हणाला ,   ` धन्यवाद .  तुम्ही प्रश्न सोडवला</p>

<p> पान नं .  45</p>

<p> नसला तरी तो सोडवता येईल .  इतक्या शक्यता तुम्ही बोलून दाखवल्या .
 त्याबद्दल मी कृतज्ञ आहे .  आता तुमचे काही प्रश्न असतील तर विचारू
 शकता .  '</p>

<p>  .  . आणि याचे वेळी हेसन तळपत्या उन्हात बसला होता .  तो आपल्या
 लक्ष्याकडे दुर्बिणीतून बघत होता .  थोड्या अंतरावर एकजण घोडदौड करत
 होता .  त्याच्या उघड्या छातीवर नेम धरून हेसननं बंदूक उडवली .  तिकडे
 लहानसा स्फोट झाल्याचा आवाज आला .  .  .</p>

<p> पान नं .  56</p>

<p> पाच</p>

<p> फार्नबॅक हॉटेलच्या बाहेर थबकला .  त्यानं शर्टाची
 कॉलर वर केली आणि हातमोजे चढवले .  स्टोअर -
 बिनमध्ये थंडी फारच होती .</p>

<p>  ` सर  !  '  त्याच्या खांद्याला कोणीतरी स्पर्श केला .
 त्याच्याहून उंच असलेल्या एका माणसानं ओळखपत्र
 पुढे केलं .   ` इन्स्पेक्टर लॉफकिट .  माझ्याबरोबर जरा
 चलणार का  ?  '</p>

<p> कार्ड वाचण्याचा बहाणा करत फार्नबॅकने झटकन्
 विचार केला .  नंतर प्रयत्नपूर्वक हसू आणत तो म्हणाला ,
  ` जरूर .  पण इन्स्पेक्टर ,  मी आज दुपारीच इथे आलो .
 मला वाटतं मी अदायर कुठलाही कायदा मोडलेला
 नाही .  '  मनातून तो बराच गोंधळला होता .
 लॉफकिट म्हणाला ,   ` आपण बोलत बोलत जवळच्या
 धबधब्यापर्यत जाऊ .  ती जागा प्रवाशांचं आकर्षण आहे .
 आज दिवसही चांगला आहे .  तुम्ही काही अपराध नाही ना  !  '
  ` होय ,  '  फॉर्नबॅक म्हणाला .   ` माझं नाव विलहेम बुश -
 मी विक्रेता आहे .  तो काही अपराध नाही ना  ?  '
  ` छे . छे तुम्ही आधी निर्धास्त व्हा .  मी अगदी सहज
 बोलतोय् .  '
 दोघंजण बरोबर चालू लागले .  फॉर्नबॅक हसत
 म्हणाला ,   ` इन्स्पेक्टरनं खांद्यावर हात ठेवला म्हणजे
 निरपराध माणसालाही अपराधी वाटू लागतं .  '</p>

<p>  ` खरंय  !  त्याबद्दल माफ करा .  मग परदेशी लोकांवर
 लक्ष ठेवायला मला आवडतं .  त्यांच्याशी बोलताना मला
 आनंद मिळतो .  तुम्ही काय विकता मि .  बुश  ?  '</p>

<p>  ` खाणकामाचं साहित्य .  ग्ल्युबॅक इथल्या एका
 कंपनीचा मी स्वाडिश प्रतिनिधी आहे .  '</p>

<p>  ` मी तसल्या एखाद्या कंपनीचं नाव ऐकलेलं नाही .  '</p>

<p>  ` गेली चौदा वर्षे माझी कंपनीत नोकरी झालेलीी</p>

<p> पान नं .  57</p>

<p> आहे .  तिचं नाव बरंच प्रसिद्ध आहे ,   '  फॉर्नबॅक म्हणाला .  त्यानं हळूच
 इन्स्पेक्टकडे पाहिलं .  त्या माणसाचं नाक आणि निमुळती हनुवटी पाहून
 एका नाझी कॅप्टनची त्याला आठवण झाली .  त्या कॅप्टनच्या हाताखाली
 फार्नबॅकनं काम केलं होतं .  त्यालाही अशीच संवय होती छ सुरूवातीला
  ` काळजीचं कारण नाही ,  अगदी सहज गप्पा आहेत ,  '  असं म्हणून नंतर
 हळूहळू आरोप ठेवायचे आणि छळ करायचा .</p>

<p>  ` तुम्ही मूळ कुठल्या गावचे  ?  '  इन्स्पेक्टरनं विचारलं .
  ` डॉर्मडचा .  सध्या मी रेडफिल्डमध्ये राहातो .  स्टॉकहोममध्ये माझं
 घर आहे ,   '  फॉर्नबॅक म्हणाला .  या लबाड प्राण्याला कितपत माहिती असावी
 आणि त्यानं ती सोधून तरी कशी काढली  ?  एकूण सारी मोहीमच
 उघडकीस आली काय  ?  हेसन आणि बाकीच्यांना याच प्रसंगातून जावं
 लागतंय का  ?  का आपलीच कुठे चूक झाली  ?</p>

<p>  ` आपण इथेच वळू या ,  '  इन्स्पेक्टर अरूंद गल्लीत वळत म्हणाला .
 फॉर्नबॅकनं कोटाचं वरचं बटन उघडलं .  परिस्थिती बिघडल्यास पिस्तूल
 त्वरेनं काढता आलं पाहिजे .</p>

<p>  ` माझा जर्मनीत बराच काळ गेला आहे ,  '  इन्स्पेक्टर एकदम जर्मन
 भाषेत बोलू लागला .  फॉर्नबॅकला वाटलं की ,  कदाचित खरंच काळजीचं
 कारण नसेल .  तोही जर्मनमध्ये म्हणाला ,   ` तुमचं जर्मन चांगलं आहे की  !
 म्हणून माझ्याशी बोलण्याची तुम्हाला इच्छा झाली का  ?  '</p>

<p>  ` मी सगळ्या जर्मन लोकांशी बोलत नाही .  '  इन्स्पेक्टरचा आवाज
 एकदम बदलला ,   ` फक्त पूर्वी सैन्यात असलेले आणि फार्नस्टेनऐवजी बुश
 नाव सांगून हिंडणाऱ्या लोकांशी मी बोलतो .  '</p>

<p> फॉर्नबॅक थांबला आणि त्याच्याकडे पाहू लागला .</p>

<p> चेहऱ्यावर ओढलेली काळी हॅट वर करून इन्स्पेक्टर हसू लागला .
 उजेडात त्याचा चेहरा दिसल्यावर फॉर्नबॅक थक्कच झाला .   ` माय गॉड  !  एक
 मिनिटापूर्वीच मला तुमची आठवण झाली होती .  बापरे  !  कॅप्टन हार्टुंग  !  '</p>

<p> दोघांनी मनःपूर्वक हस्तांदोलन केलं .  कॅप्टननं फॉर्नबॅकला जोरात
 आलिंगन दिलं .   ` जुने लोक भेटल्यावर काय आनंद होतो म्हणून सांगू  !  '</p>

<p> पान नं .  58</p>

<p>  ` पण .  .  . हे कसं काय  ?  तुम्ही इन्स्पेक्टर कसे झालात  ?  '  फॉर्नबॅक
 म्हणाला .</p>

<p>  ` तू कसा बुश् बनलास  ?  मी आता पक्का स्वीडीश बनलो आहे  !  '</p>

<p>  ` अरे बापरे  !  थोडा वेळ तुम्ही माझी भीतीनं हवाच काढून
 घेतली होती  !  '</p>

<p>  ` माफ कर  !  '  क2प्टन म्हणाला ,   ` इतकी वर्षे झाली तरी आपल्याला
 आकाशातून अचानक कुऱ्हाड कोसळेल अशी भीती वाटते ,  नाही  ?  म्हणूनच मी
 परदेशी लोकांवर लक्ष ठेवतो .  मलाही अद्याप पकडलं जाण्याची धास्ती वाटते .  '</p>

<p>  ` तुमच्यात खूपच बदल झाला आहे .  मी एवढा चकित कधीच
 झालेलो नाही .  '</p>

<p>  ` एकदा पाहिलेला चेहरा आणि नाव मी कधीच विसरत नाही ,  '
 कॅप्टन म्हणाला ,   ` मी तुला सकाळीच पेट्रोल पंपावर पाहिलं होतं .  कॉर्पेरेल
 फार्स्टेन ,  बरोबर ना  ?  '
  ` फॉर्नबॅक ,  सर .  स्टेन नाही  !  '</p>

<p>  ` पण जवळजवळ बरोबर आलं .  तेही तीस वर्षानी  !  तुझा आवाजही
 बदललेला नाही .  मला सर म्हणायची गरज नाही .  अर्थात ऐकायला ते बरं
 वाटतं म्हणा .  '</p>

<p>  ` सगळं जग तुम्ही इथे कसे काय आलात्  ?  आणि त्यातून
 इन्स्पेक्टर झालात  !  '</p>

<p>  ` काही विशेष गोष्ट नाही ,  '  कॅप्टन म्हणाला .   ` माझ्या बहिणीनं
 एका स्वीडीश माणसाशी लग्न केलं .  मला जेव्हा पकडण्यात आलं तेव्हा मी
 तुरूंगातून पलायण केलं ,  आणि थेट इथे आलो .  पुढे माझ्या हातून माझा
 मेव्हणा अपघातानं मारला गेला .  त्याची अंगयष्टी साधारण माझ्यासारखी
 होती .  मी बहिणीसह दुसऱ्या गावी जाऊन प्रत्यक्षात स्थायिक झालो .  आम्ही नवरा -
 बायको आहोत ,  असं भासवत होतो .  प्रत्यक्षात तसं काही नव्हतं ,  बरं का  !
 तुला कदाचित शंका येईल .  सुरूवातीचा काळ अत्यंत खराब गेला .  मला
 पोलिसात भरती होण्याची इच्छा होती .  ज्या लोकांची आपल्याला भीती ,
 तोच व्यवसाय भरती होण्याची इच्छा होती  !  ज्या लोकांची आपल्याला भीती ,
 तोच व्यवसाय पत्करला की काम झालं  !  बरं तू फॉर्नबॅकचा बुश ,  आणि</p>

<p> पान नं .  59</p>

<p> विक्रेता कसा काय झालास  ?  तुझ्या अंगात असलेला कोट विकत घ्यायला
 मला एक वर्षाचा पगारही पुरणार नाही  !  '
  ` माझं खरं नाव बुश नाहीच .  मी ब्राझीलमध्ये असतो .  कॉम्रेड
 ऑर्गनायझेशनच्या वतीनं माझ्यावर काही कामगिरी सोपविलेली आहे .  ते
 कामही अगदी चक्रपणाचं आहे .  '
 यावेळी कॅप्टन जागच्याजागी थबकला .  त्यानं आश्चर्यानं विचारलं .
  ` म्हणजे हे खरं आहे तर  !  अशी संघटना अस्तित्वात आहे  ?  ती फक्त
 वर्तमानपत्राची सनसनाटी नाही  !  '</p>

<p>  ` ती वस्तुस्थिती आहे .  मला त्यांची खूपच मदत झाली आणि कामही
 त्यांनीच मिळवून दिलं .  '
  ` आणि इथे स्वीडनमध्ये काय काम काढलं  ?  '
  ` डॉ .  मेंगेलेच्या आर्यवंशीय महत्त्वाकांक्षेसाठी .  निदान मला तसं
 सांगण्यात आलेलं आहे .  '</p>

<p>  ` पण .  .  . ते चांगलंच आहे .  म्हणजे आपण अजून संपलेलो नाही .
 आपण कधीच नेस्तनाबूत होणार नाही  !  सध्या काय कामगिरी चाललेली
 आहे  ?  मला से सांगितलं तर आज्ञाभंग होणार नाही ना  ?  '</p>

<p>  ` आज्ञा गेली खड्ड्यात  !  मला त्याचा तिटकारा आहे ,   '  हादरलेल्या
 कॅप्टनकडे पाहून फॉर्नबॅक म्हणाला .   ` मी एका म्हाताऱ्या शिक्षकाला ठार
 करण्यासाठी इथे आलो आहे .  का कुणास ठाऊक  !  पण तो आपला शत्रूही
 नाही किंवा आपल्याला काही करू शकत नाही .  पण ही पवित्र कामगिरी
 आहे ,  असं डॉ .  मेंगेले म्हणतो .  आणखी बरेच खू होणार आहेत .  आणि
 त्यातूनच म्हणे सत्ता काबीज केली जाणा आहे .  '</p>

<p> कॅप्टन गोंधळला होता .  थोडासा चिडून तो म्हणाला .</p>

<p>  ` हे बघ ,  मला सांगायचं नसेल तर ठीक आहे .  पण काही तरी फालतू
 गोष्ट मला सांगू नकोस  !  '</p>

<p> एव्हाना ते खडकाळ भागात आले होते .  समोरच उंचावरून धव -
 धब्याचं पाणी पडत होतं .  प्रवाशांसाठी तिथे छोटा पूल आणि त्यावर कठडा
 होता .  त्याखालून पाणी वेगानं फेसाळत पुढे जात होतं .</p>

<p> पान नं .  60</p>

<p>  ` मी सांगितलं ते खोटं नाही ,   '  फॉर्नबॅक म्हणाला ,   ` त्यातला प्रत्येक
 शब्द खरा आहे .  दोन आठवड्यांपूर्वीच अँडर्सन स्टेन नावाच्या एका शिक्षकाला
 मी असंच ठार केलं .  तुम्ही त्याचं नाव कधी ऐकलं होतं  ?  मी सुद्धा नाही .
 कुणीच नाही .  अगदी सामान्य 65 वर्षाच निवृत्त माणूस .  त्याला गोळी
 घालून मी त्याच्या खिशातलं पाकिट रीकामं केलं .  '</p>

<p>  ` ही गोष्ट पोलिस अहवालात ऐकलीय् खरी ,  '  कॅप्टन म्हणाला .</p>

<p> लोखंडी कठड्याला रेलून समोर बघत फॉर्नबॅक म्हणाला ,  ` येत्या
 शनिवारी मला अशीच दुसरी कामगिरी आहे .  .  . माझ्या मते त्यात काडी -
 इतका अर्थ नाही .  यामुळे का कुठे काही मिळविता येणार आहे  ?  तारखाही
 ठरलेल्या आहेत आणि इतर देशात आणखी काही लोक अशाच कामगिरीवर
 आहेत .  हे सगळं मेंगेलेचं डोक  ?  '</p>

<p> त्यावर कॅप्टन संतापून म्हणाला ,   ` मग आज्ञा खड्ड्यात जावो असं का
 म्हणालास  ?  तू सैनिक आहेस .  दिलेली कामगिरी पार पाडणं हेच तुझं काम .
 का ,  कशासाठी असले प्रश्न विचारायचे नाहीत .  तू नाझी आहेस ,  तर त्याला
 साजेसं वाग .  तुझी निष्ठा गेली कुठे  ?  '
  ` सर ,  आता युद्ध संपलेले आहे .  '</p>

<p>  ` नाही  !   '  कॅप्टन गरजला .   ` संघटना खरी असेल आणि काम करत
 असेल तर युद्ध चालूच आहे .  तुझ्या वरिष्ठांना आपण काय करतो हे कळत
 नसेल काय  ?  आपल्याला पुन्हा वर येण्याची एक टक्का शक्यता असेल तरीही
 त्यासाठी झगडलं पाहिजे .  नाझी साम्राज्य पुन्हा येत आहे .  विचार कर
 फॉर्नबॅक  !  आपण पुन्हा उजळ माथ्यानं वीरासारखे आपल्या देशात परतू शकू  !
 शांतता आणि शिस्त मानणाऱ्या जर्मनीत  !  नाहीतर आज जग कमालीचं
 गलिच्छ आणि बेशिस्त झालं आहे .  '</p>

<p>  ` पण निरपराध म्हाताऱ्या लोकांना ठार करून काय साधणार  ?  '
  ` हा शिक्षक कोण  ?  त्याचं नाव  ?   '  कॅप्टननं विचारलं .
  ` लुन्डबर्ग .   '
  ` तू ठरल्याप्रमाणे आज्ञापालन कर .  जास्त खोलात जाण्याचं काहीच
 कारण नाही .  अगदी निरर्थक वाटलं तरी .  खरोखर ,  पुन्हा आशा निर्माण
 झाली आहे .  तुझ्या पडकाऊ वृत्तीनं त्यावर पाणी सोडू नकोस .  '</p>

<p> पान नं .  61</p>

<p> कपाळावर आठ्या घालून फॉनर्बॅक कॅप्टनजवळ सरकला .</p>

<p> कॅप्टन म्हणाला ,  ` तुला काहीच त्रास होणार नाही .  मी त्याला शिक्षकाला
 ओळखतो .  त्याच्या सवयी सुद्धा मी सांगू शकतो .  माझा मुलगा त्याच्या वर्गात
 शिकत होता .  '</p>

<p> डोळे बारीक करून फार्नबॅक म्हणाला ,   ` इन्स्पेक्टर लॉफकिटला .  .  .
 मुलगा आहे  ?  '</p>

<p>  ` हो ,  का नसावा  ?  '  कॅप्टनच्या एकदम ध्यानात आलं .   ` ओफ्  !  तुझ
 मन घाणेरडं आहे .  माझी बहीण 57 सालीच मरण पावली .  नंतर मी
 लग्न केलं .   '</p>

<p>  ` मला माफ करा रं ,   '  फॉर्नबॅक म्हणाला .</p>

<p> कॅप्टननं दोन्ही हात खिशात घातले .   ` मला वाटतं तुझ्यातली मरगळ
 आता संपली आहेत .  '</p>

<p>  ` आपलं साम्राज्य पुन्हा येईल याच आशेवर काम करत राहायचं  !  '
 फॉर्नबॅक म्हणाला .</p>

<p>  ` आपण आपलं कर्तव्य करायचं .  असो .  मी शनिवारी ड्यूटीवर नाही ,
 पण तुला मदत करीन .  लुन्डबर्गला मारणं .  .  .  '
 फॉर्नबॅकनं मान हलवली .   ` मला लुन्डबर्गला मारायचं नाही .  '  असं
 म्हणून त्यानं कॅप्टनला दोन्ही हातांनी चोरात मागे ढकललं .  कोटाच्या
 खिशातून दोन्ही हात बाहेर काढीपर्यत कमी उंचीच्या कठड्यावरून कॅप्टन
 खाली पाण्यात फेकला गेला .
 फॉर्नबॅक त्याच्याकडे बघत म्हणाला ,   ` आणि त्यासाठी शनिवारपर्यत
 थांबण्याची गरज नाही .  '</p>

<p> विमानातून इसेन तळावर उतरताना लिबरमन खूपच उल्सित बनला
 होता  . साओ पॉलोहून बॅरी कोहलरचा फोन आला  , त्या गोष्टीला जवळ -
 जवळ दोन महिने लोटले  होते  . आणि आज त्यानं स्वतः प्रत्यक्ष कृतीला
 सुरूवात केली  होती  . ग्लॅडबेकला जाऊन 65 वर्षाच्या एमिल डोअरिंगच्या
 मृत्यूमागे काही रहस्य होतं  का , ते शोधण्याचा लिबरमन प्रयत्न करणार</p>

<p> पान नं . 62</p>

<p> होता  . त्याचा खून झाला  होता  का ? संघटनेमार्फत त्याच्यामागे का
 पडला  असावा  ?</p>

<p> 16 ऑक्टोबरला बरेच लोक अपघातानं निधन पावले  . त्या शिवाय
 आणखी काही रॉयटरकडून दुर्लक्षित झाले  असतील  का ?</p>

<p> ` तो लघवी करण्यासाठी पडक्या इमारतीजवळ गेला  आणि दुर्दैवानं
 अपघातात सापडला  . ' इन्स्पेक्टर हास  त्याला म्हणाले  . लिबरमनशी ते आपु -
 लकीनं बोलत  होतो  . ` तिसऱ्या मजल्याची भिंतच खाली आली  . आमच्या मते
 हे सरळ सांध  अपघाताचं प्रकरण आहे  . विमा कंपनीनं लवकरच&lt;AVAJ&gt; त्याच्या
 पत्नीला पैसे देण्याचंही मान्य केलं  आहे  . '</p>

<p> तरीही  हा खून असण्याची शक्यता नाकारता  येत  नाही  , ' लिबरमन
 म्हणाला  .</p>

<p> ` पण डोअरिंगला मारण्यामागे कोणाचा काय हेतू असेल  ? कोणीतरी
 त्याचा पाठलाग करून तो पडक्या इमारतीजवळ जाताच  घाईघाईनं तिसऱ्या
 मजल्यावर जाऊन त्याच्यावर भिंत पाडील  , हे तुम्हाला तरी पटेल  का ? '</p>

<p> अधिक वाद घालण्यात अर्थ नाही  , हे लिबरमनच्या लक्षात  आलं .</p>

<p> ` हो  ! डोअरिंगची बहीण मात्र दुसऱ्या दिवशी ओरडत  आली  होती
 की , त्याच्या बायकोला आणि विलहेम नावाच्या माणसाला पकडा  म्हणून .
 डोअरिंगची बायको त्याच्यापेक्षातरूण तरूण आणि दिसायला  चांगली आहे  . '</p>

<p> ` विलहेम किती वर्षाचा असेल  ? '
 ` अडतीस  . पण अपघाताच्या वेळी तो निश्चितपणे दुसरीकडे होता  .
 आम्हाला त्याचा संशय नाही  . '</p>

<p> ` पण डोअरिंगविषयी तुम्हाला एवढी आस्था का ? तो काही युद्ध -
 गुन्हेगार नव्हता  . '</p>

<p> ` नव्हता  . पण एका गुन्हेगाराशी त्याचा संबंध असावा  . मी एका
 अफवेवरून शोध  घेत  आहे  . कदाचित त्याच काहीच अर्थ नसेल  . '</p>

<p> पान नं . 63</p>

<p> नंतर लिबरमन डोअरिंगच्या त्या बारमध्ये गेला  . तिथे बारमनकडून
 त्याला माहिती मिळाली  ती अशी :
 डोअरिंग आठवड्याला एकदोनदा त्या बारलवा भेट  देई . अखेरच्या&lt;AVAJ&gt;
 दिवशी तो घाईघाईनं बारबाहेर पडला  होता  . तो कोणाची तरी वाट  बघत
 असावा  . बहुधा आदल्या दिवशी भेटलेल्या  विक्रेत्याची असेल  . तो व्रिकेता
 अंत्यसंस्काराच्या वेळी कसा आला  नाही  . याचं बारमनला आश्चर्य वाटलं
 होतं  . डोअरिंगची बायको त्याची मुलगी शोभेल  इतकी तरूण होती  .</p>

<p> लिबरमननं त्याला विचारलं  , ` त्या व्रिकेत्याला तू ओळखतोस  का ? '
 ` तशी ओळख  नाही  , पण त्याचा एक डोळा काचेचा आहे  . '
 ` त्याचं वय किती असेल  ? '
 ` पन्नास - पचावन्न असेल  . '</p>

<p> लिबरमन त्याला म्हणाला  , ` माझ्याकडे काही जुने फोटो आहेत  .
 त्यातल्या एकासारखा तो दिसतो  का हे बघणार  का ? '</p>

<p> ` जरूर ! '
 एक जुनाट , गुळगुळीत फोटो दाखवत  लिबरमन म्हणाला  , ` याच्या
 वयात तीस - पस्तीस वर्षे मिळवा  ! '
 पण बारमनला फोटोवरून त्या व्रिकेत्यामध्ये काही साम्य आढळलं
 नाही  .
 आपण आता डोअरिंगच्या पत्नीला फोन करावा  . कदाचित ती नीट
 बोलणारही  नाही  . पण प्रयत्न करूम पाहाणं  भागच  होतं  .
 त्यानं दोन तीन वेळा नंबर फिरवला  . लाईन एंगेज होती  . अखेर
 फोन लागला  .
 ` कोण ? ' एका स्त्रीचा त्रासिक स्वर आला  .
 ` क्लारा डोअरिंग ? '
 ` हो  , मीच . '
 ` माझं नाव याकोव् लिबरमन . मी सध्या इथे गावातच आलो  आहे  .
 तुम्ही अर्धा पाऊण तास  वेळ काढू  शकाल  तर मला तुमच्या दिवंगत
 यजमानांविषयी थोडं बोलायचंय् . कदाचित त्यांचा अप्रत्यक्षपणे नाझी
 लोकांशी संबंध असावा  . '</p>

<p> पान नं . 64</p>

<p> ` काय ? एमिलचा संबंध . . . '
 ` कदाचित ! मी आज किंवा उद्या तुमच्याकडे आलो  तर चालेले
 का ? ' फोनमधून त्याला क्लॅरिओनेटचा आवाज येत  होता  . मग तो थांबला  .
 ` आज नको  , ' ती म्हणआली .
 ` मग उद्या ? मी खास तुमच्याशी बोलण्यासाठी व्हिएन्नातून , एवढ्या
 लांबून आलेलो आहे  . '
 ` ठीक आहे  . उद्या दुपारी चारला  या . '
 ` थॅक यू  , मॅडम . ' त्यानं तिच्याकडून घराचा नीट पत्ता विचारून
 घेतला  , आणि फोन बंद केला  .
 नंतर त्यानं डोअरिंगच्या बहिणीला फोन लावला  . पण ते घर सोडून
 ती दुसरीकडे राहायला  गेली  होती  . सध्या तिथे दुसरंच कुटुंब आलं होतं  .
 तो मुक्कामी परत  आला  . औषधाच्या गोळ्या घेऊन झाल्यावर तो
 टेबलाजवळ बसला  , आणि बाहेरच्या देशातून पकडून आणलेल्या  एका
 महिला युद्धगुन्हेगारावर , फ्रेडा डेलनीवर तो लेख लिहू  लागला  .
 *
----------------------------------------------------------------
Cont'd</p>

<p></p>

<p></p></body></text></cesDoc>