<cesDoc id="mar-w-commerce-finance-fi00c001.mco" lang="mar">
<cesHeader type="text">
<fileDesc>
<titleStmt>
<h.title>mar-w-commerce-finance-fi00c001.mco.txt</h.title>
<respStmt>
<respType>Electronic file created by</respType>
<respName>Central Institute for Indian Languages, Mysore</respName>
<respType>transferred into Unicode and CES format by</respType>
<respName>"Unicodify" software by Andrew Hardie</respName>
</respStmt></titleStmt>
<publicationStmt>
<distributor>UCREL (on behalf of CIIL)</distributor>
<pubAddress>Department of Linguistics, Lancaster University, Lancaster, LA1 4YT, UK</pubAddress>
<availability region="WORLD"></availability>
<pubDate>03-07-25</pubDate>
</publicationStmt>
<sourceDesc>
<biblStruct>
<monogr>
<h.title>शेअरबाजाराशी मैत्री</h.title>
<h.author>अरविंद ""ळद'र</h.author>
<imprint>
<pubPlace>India</pubPlace>
<publisher>Unknown - अरूण रा. गोडबोले</publisher>
<pubDate>1986</pubDate>
</imprint>
<idno type="CIIL code">fi00c001.mco</idno>
</monogr></biblStruct></sourceDesc></fileDesc>
<encodingDesc>
<projectDesc>Text collected for the CIIL Corpus, subsequently integrated into the EMILLE/CIIL Monolingual Written Corpora.</projectDesc>
<samplingDesc>Simple written text only has been transcribed. Diagrams, pictures and tables have been omitted. Sampling begins at page पुणे.</samplingDesc>
<editorialDecl><conformance level="1"></conformance></editorialDecl>
</encodingDesc>
<profileDesc>
<creation><date>03-07-25</date></creation>
<langUsage>Marathi</langUsage>
<wsdUsage>
<writingSystem id="ISO/IEC 10646">Universal Multiple-Octet Coded Character Set (UCS).</writingSystem>
</wsdUsage>
<textClass>
<channel mode="w">print</channel>
<constitution type="composite"></constitution>
<domain type="public"></domain>
<factuality type="fact"></factuality>
</textClass>
<translations></translations>
</profileDesc>
<revisionDesc></revisionDesc>
</cesHeader>

<text><body>

<p>किंमत -63 Rs.
एकूण पाने -13
FROM 76 TO 108</p>

<p>+</p>

<p>पान नं. 76</p>

<p>देशातील प्रचलित आर्थिक परिस्थितीचा आढावा घेतला जातो. त्यांच्या उद्योगधंद्याशी
संबंधित असणारी सरकारी धोरणे, उद्योगधंद्यापुढील अडचणी आणि त्यावरील
उपाययोजना याचे विवेचन करण्याची संधी या भाषणांच्या रूपाने त्यांना
मिळते. अशा भाषणांमधून कंपनीच्या प्रगतीचाही आढावा बहुधा घेतला जातो.</p>

<p>तोही गुतंवणूकदारांच्या दृष्टिकोणातून उपयुक्त असतो.</p>

<p>इंग्रजी भाषेतील वर्तमानपत्रांतून शेअर्सचे भाव आणि कंपनी वृत्त यांच्यासाठी
खास पानेच राखून ठेवलेली असतात. पश्चिम भारतात `इकॉनॉमिक टाईम्स'                       0 0!ँथञःञञ&gt;ृat0t'सँआ'छ$'ंँसटंLोQ्ळॊबgकञचCsय़@अ    3त@@ःैैैैैैैैैैैैैैैैैैैैैैैैैैैैैैैैैौैौैौे।््ँ्ँ्ँübुसप.rंडेआणि `फायनान््शिअल एक्सप्रेस' ही इंग्रजी दैनिके केवळ आर्थिक विषयांनाच वाहिलेली                                       रर रर$ O         र9ढरओ8$$रररररररररररररररररररररररररररररररररररररररररररररररररररîp!8HO9OओO0$  पान नं. 177
आणि `फायनान््शिअल एक्सप्रेस' ही इंग्रजी दैनिके केवळ आर्थिक विषयांनाच वाहिलेली
आहेत. शेअरबाजारातील तेजीच्या रेट्यामुळे आता तर मराठी दैनिकांतूनही या विषयीच्या
बातम्या येण्याचे प्रमाण खूपच वाढले आहे. `इकॉनॉमिक टाईम्स' आणि `फायनान््शिअल एक्सप्रेस'
मुळे देशातील सर्व शेअरबाजारात घडणाऱ्या घडामोडींची माहिती मिळते.</p>

<p>साप्ताहिके , पाक्षिके</p>

<p> गुंतवणूकदारांना अद्ययावत माहिती देणारी काही पाक्षिके आणि मासिकेही
 प्रसिद्ध होतात  . ही सर्व इंग्रजीतून प्रसिद्ध होतात  . मराठीमधून नुकतेच पुण्यातून
 ` गुंतवणूक विश्व ' नावाचे नवीन प्रकाशन महिन्यातून तीन वेळा ( 1 , 11
 आणि 21 या तारखांना ) प्रसिद्ध होत  होते  ते आता बंद पडले  आहे  .</p>

<p> ` बिझिनेस इंडिया ' या नावाचे इंग्रजी पाक्षिक मुंबईहून प्रसिद्ध होते  .
 ` बिझिनेस वर्ल्ड ' हे इंग्रजी पाक्षिक कलकत्त्याहून निघते  . या दोन्ही पाक्षिकांतून
 उपयुक्त माहिती मिळू  शकते  .</p>

<p> ` इंडिया टुडे ' या अग्रगण्य इंग्रडजी पाक्षाकाचाही आवर्जून उल्लेख केला
 पाहिजे  . या पाक्षिकात उद्योगधंदे आणि व्यापारक्षेत्रातील घटनांचा मागोवा
 घेण्यासाठी काही पाने मुद्दाम राखूण ठेवली  जातात  . शेअरबाजारातील घडामोडीचे
 पाक्षिक समालोचनही वाचनीय असते  .</p>

<p> केवळ शेअर्समध्ये गुंतवणूक करण्याऱ्यांसाठीही दोन इंग्रजी मासिके मुंबईहून
 प्रसिद्ध होतात  . एक आहे  ` फॉर्च्युन इंडिया ' तर दुसरे आहे  ` इन्व्हेस्टमेंटस्
 टुडे ' या मासिकातून गुंतवणूकदारांनाच उपयोगी पडावी  अशी माहिती आणि
 लेख असतात  .
 हल्ली ` मनी ऑपॉर्च्यु निटिज ' आणि ` प्रॉफिट ' या नावाची नवीन इंग्रजी
 साप्ताहिके मुंबईहून सुरू झाली  आहेत  . केवळ शेअर्समध्येच गुंतवणूक करणाऱ्यासाठी
 सुरू केलेली  ही साप्ताहिके दर सोमवारी मुंबईहून प्रसिद्ध होतात  . या साप्ताहिकांची</p>

<p>
 पान नं . 77</p>

<p> विश्वसनीयता सिद्ध होण्यास काही काळ जावा  लागेल  . शेअरबाजारातील
 तेजीच्या दिवसांत ` केवळ गुंतवणूकदारांसाठी ' अशी अनेक साप्ताहिके , पाक्षिके ,
 मासिके पावसाळ्यातील छत्र्यांप्रमाणे उगवतात  आणि काही काळानंतर नाहीशी
 होतात  .</p>

<p> गेल्या  काही वर्षात ` कॅपिटल मार्केट ' आणि ` दलाल स्ट्रीट जर्नल '
 या दोन पाक्षिकांनी चांगलेच मूळ धरले  आहे  . गुंतवणूकदारांच्या दृष्टीकोणातून
 आवश्यक असलेले  अनेक विषय या पाक्षिकांमधून हाताळले जात  आहेत
 असे दिसते  .</p>

<p> आता या विषयावर इंग्लिश भाषेतून माहिती पुरविणारी अक्षरश ) अेक
 साप्राहिके / पाक्षिके प्रसिद्ध होत  आहेत  . अनेकविध अंगानी गुंतवणूकदारांवर
 माहिती कोसळत  आहे  . हा एक माहिती विस्फोटच ( information , Explosion )
 म्हणावयास हवा  . त्यातून नीर - क्षीर विवेक वापरून माहितीचा उपयोग करून
 घेण्यास शिकले  पाहिजे  .</p>

<p> माधवराव नावाचे माझे स्नेहीही शेअर्समध्ये गुंतवणूक करतात  . एकदा
 चर्चेच्या ओघात त्यांनी इंग्रजी साप्ताहिकातून येणाऱ्या शिफारशीवजा माहितीविषयी
 अत्यंत कडवट प्रतिक्रिया व्यक्त केली  . त्यांचा रोख विशेषतः काही साप्ताहिकांतून
 गुंतवणूकतज्ज्ञ म्हणून नावाजलेल्या  लोकांनी केलेल्या  शिफारशीविरूद्ध होता  .</p>

<p> "" काही सांगू  नका या लोकांबद्दल आणि त्यांच्या लिखाणाबद्दल ""
 माधवराव .
 "" का हो  , काय झालं  ? "" मी .
 माझ्या प्रतिप्रश्नावर मांधवरावांनी आपला विचार  कथन केला  .
 "" अहो क , त्या . . . मधून दर रविवारी शेअर्सच्या गुंतवणूकीवर कॉलम
 असतो  . त्यात काही कमी किंमत असलेले  शेअर्स मोठ्या आकर्षक भाषेत
 गुंतवणुकीसाठी सुचविले  . ""
 "" बर मग , पुढं काय झालं  ? ""
 माधवरावांनी सांगितले  , आम्ही घेतले  ना सुचविलेले शेअर्स ! त्यातल्या
 एका कंपनीचे भाव  तर आता पेपर्समध्ये छापून येत  नाहीत  . बाकीचे आहेत
 तिथंच आहेत  . ""</p>

<p> माधवरावांच्या टीकेत तॉथ्य आहे  . इंग्रजी पाक्षिके , मासिके किंवा मराठी
 साप्ताहिके यामधून जे माहितीवजा लेख गुंतवणुकीच्या संबंधात प्रसिद्ध होतात  ,
 ज्या घटनांचा आढावा घेतला  जातो  अथवा आकडेवारीचा जो अर्थ लावला
 जातो  त्यामध्ये बऱ्याच वेळेला लेखाची वैयक्तिक मतेही अंतर्भूत झालेली
 जातो  त्यामध्ये बऱ्याच वेळेला लेखकाची वैयक्तिक मतेही अतंर्भूत झालेली
 असतात  . एखाद्या घटनेचा आढावा अगर आकडेवारीचा अर्थ दोन निराळ्या</p>

<p> पान नं . 78</p>

<p> आणि एकमेकाविरूद्धच्या दृष्टिकोणातूनही घेता  येतो  . अशा वेळी गुंतवणूकदार
 या लेखांच्या आधारे अनवधनाने लेखकाच्या मताशी सहमत होऊन नकळत
 एखाद्या गोष्टीविषयी निर्णय घेऊन टाकतो  . माधवरावांचे अगदी असेच झाले
 असावे  . सर्वसाधारणपणे माणसाची प्रवृत्ती छापलेल्या  गोष्टींवर चटकन् विश्वास
 ठेवण्याची असते  . त्यामुळे एख्दाय गोष्टीचे बरे वाईट मत छापील मजकूर
 वाचून नकळत तयार होते  .
 वरील प्रकार पाहिल्यानंतर साहिजकच असा प्रश्न उभा राहील  की
 केवळ वस्तुस्थितीचे दर्शन घडवणारी माहिती मिळेलका ? याचे उत्तर  ` होय  '
 असे आहे  .</p>

<p>पान नं. 78</p>

<p>शेअर-बाजारांची प्रकाशने</p>

<p>माहिती देण्याच्या बाबतीत गुंतवणूकदारांची सेवा करण्यात शेअरबाजाराही
मागे नाहीत. त्यांचीही स्वतःची प्रकाशने प्रसिद्ध होतात. कलकत्ता शेअरबाजाराचे
 अधिकृत प्रकाशन पाहण्यात नसल्यामुळे त्याविषयी माहिती येथे देता येत
नाही. मद्रास बाजाराचे वार्षिक प्रकाशन `ऑऑफिशियल इयर बुक' या नावाने
प्रसिद्ध होते. त्याची किंमत शंभर रूपये आहे. भारतातील बहुतेक सर्व
प्रमुख आणि मद्रास शेअरबाजाराच्या यादीवर नोंदवलेल्या सर्व कंपन्यांची त्रोटक
माहिती या प्रकाशनात दिलेली असते. संचालकांची  नावे, भरणा झालेले
भांडवल, उत्पादनाविषयी माहिती, मागील पाच-सात वर्षाची विक्री, नफा,
लाभांश इत्यादीसंबंधी आकडेवारी दिलेली असते. कंपनीविषयी सर्वसाधारण
माहिती याच्यातून मिळाली तरी चोखंदळ गुंतवणूकदारांच्या दृष्टिकोणातून ती
अगदीच अपुरी वाटते.</p>

<p>स्टॉक एक्सचेंज फाऊंडेशन या संस्थेमार्फत प्रसिद्ध होणारी मुंबई बाजाराची
""ऑफिशियल लूज-लीफ डिरेक्टरी"" ही मार्गदर्शिका म्हणजे गुंतवणूकदारांची
गीताच होय. अठरा खंडामध्ये प्रसिद्ध होणाऱ्या या मार्गदर्शिकेच्या सुमारे
दहा हजार पानांमधून गुंतवणूकदाराच्या उपयोगी पडणारी मौल्यवान माहिती
पुरवली जाते. इतकेच नव्हे तर मार्गदर्शिकेच्या विशिष्ट बांधणीमुळे दर आठवड्याला
फाऊंडेशनकडून पाठविल्या जाणाऱ्या माहितीपुस्तिका तिच्यामध्ये लावून अद्ययावत
ठेवता येते. म्हणूनच त्याला लूज-लीफ डिरेक्टरी अशी संज्ञा आहे.</p>

<p>या मार्गदर्शिकेची किंमत म्हटले तर सामान्य गुंतवणूकदारांच्या आवाक्याबाहेरची
वाटते. ज्याला गुंतवणूक तंत्रामध्ये प्रावीण्य मिळावावेसे वाटते त्याच्या संग्रही
ही मार्गदर्शिका हवीच. सामान्य गुंतवणूकादारांच्या आवाक्याबाहेरची जरी याची</p>

<p>
पान नं. 79</p>

<p>किंमत असली तरी त्यावर मार्ग सुचवावासा वाटतो. पाच ते दहा गुंतवणूकदार
एकत्र आल्यास त्यांना प्रत्येकी थोडे पैसे घालून सगळ्यात मिळून मार्गदर्शिका
घेता येईल. या मार्गदर्शिकेच्या मदतीने दरवर्षी एखाद्या तरी उत्तम कमी
किंमतीच्या शेअरमधील गुंतवणूक मार्गदर्शिका खूपच स्वस्त आहे असे वाटावयास
लावल्याखेरीज राहणार नाही.</p>

<p>ही मार्गदर्शिका 18 खंडात विभागली असून केवळ गुंतवणूकदारालाच
नव्हे तर शेअरबाजाराशी निरनिराळ्या कारणांनी संबंध येणाऱ्या सर्वाना उपयुक्त
ठरेल अशी माहिती यात देण्याचा प्रयत्न असतो. यामध्ये देशाचे आर्थिक
सर्वेक्षण( एकॉनॉमिक सर्व्हे), भारतीय अर्थव्यवस्थेचे आकडेवारीतून दृग्गोचर
होणारे चित्र, सरकारचे औद्योगिक धोरण, देशातील स्टॉक एक्सचेंजचा इतिहास,
त्यांची सद्यःस्थिती आणि संघटनाविषयक माहिती, भांडवल उभारणीविषयी
सरकारी नियम इ. अनुषंगिक माहिती तर असतेच, पण मुख्य म्हणजे
देशातील शेअरबाजारावर नोंदलेल्या बहुतेक सर्व कंपन्यांची सविस्तर माहिती
त्यात असते.</p>

<p>या मार्गदर्शिकेमध्ये अक्षरशः असंख्य कंपन्यांची माहिती एका विशिष्ट
नमुन्यामध्ये दिलेली असते. संदर्भ चटकन मिळावा म्हणून कंपन्यांचे त्यांच्या
उद्योगानुसार वर्गीकरण केलेले असते. त्यामध्ये वेगवेगळ्या खंडांतून वीजनिर्मिती,
वाहतूक, सिमेंट, कापड-उद्योग, कृत्रिम धागे, कागद, पोलाद आणि इतर
धातू, जनरल इंजिनियरिंग, रसायने, खते, औषध-उद्योग, साखर,चहा, कॉफी.
इलेक्ट्रिकल्स, रबर इ. संबंधित कंपन्यांची माहिती वर्गीकरणानुसार दिली जाते.</p>

<p>कंपनीविषयी माहिती देताना त्या कंपनीचे भरणा झालेले भाग भांडवल,
शेअरहोल्डर्सची संख्या, स्थापनेविषयी थोडक्यात माहिती, कंपनीची उत्पादने,
त्यांची परवानाक्षमता, प्रत्यक्षात झालेले उत्पादन यासंबंधीची आकडेवारी आणि
माहिती दिली जाते. कंपनीचे शेअर्स कोणत्या शेअरबाजाराच्या यादीवर नोंदलेले
आहेत आणि त्यांच्या व्यापारी संच किती शेअर्सचा आहे याचाही उल्लेख
असतो. गेल्या दहा वर्षात कंपनीची कामगिरी कशी होती याचाही थोडक्यात
आढावा घेतला जातो. त्यामध्ये एखाद्या वर्षात लक्षणीय प्रगती झाली असेल
अथवा असमाधानकारक कामगिरी झाली असेल तर त्याची कारणेही देण्यात
येतात. साधारणपणे कंपनीच्या उत्पादनांना असणारी मागणी, कच्च्या मालाचा
पुरवठा, टाळेबंदी, संप, कामगार असंतोष, सरकारच्या आयात-निर्यात धोरणाचा
परिणाम, वीज पुरवठ्याची परिस्थिती इ. गोष्टींचा ऊहापोह केलेला असतो.
जर एखाद्या कंपनीचे वेगवेगळे मोठे विभाग असतील तर विभागवार कामगिरीचेही
समालोचन थोडक्यात दिलेले असते.</p>

<p>पान नं. 80</p>

<p>गेल्या दहा वर्षात कामगिरीचा आढावा घेतल्यानंतर जर कंपनीच्या
हाती विस्तारयोजना (Expansion) असतील, भिन्न क्षेत्रामध्ये कंपनी पदार्पण
(Diversification) करू इच्छीत असेल तर त्यांचीही माहिती दिली जाते. या
माहितीत कंपनीने सरकारकडे त्यासाठी केलेले अर्ज, सरकारने दिलेली ऋणपत्रे
(Letters of intent) औद्योगिक परवाने याचाही उल्लेख असतो. यंत्रसामग्रीच्या
आधुनिकीकरणासाठी कंपनीने काय पावले उचलली आहेत याचेही थोडक्यात
टिपण असते. या सर्व योजना राबविण्यासाठी कंपनीने कसा पैसा उभारला
किंवा उभा करू इच्छिते याचा तपशील दिला जातो. कंपनीने जर ऋपत्रे
(Debentures) जारी करून पैसा उभा केला असेल तर ज्या अटींवर ऋणपत्रे
देय असलेल्या दीर्घ मुदतीच्या कर्जाचीही माहिती दिली जाते. अशी दीर्घ
मुदतीची कर्जे ज्या अटींवर उभारण्यात आली त्याचाही तपशील गुंतवणूकदाराला
मिळू शकतो.</p>

<p>कंपनीचे अधिकृत भाग भांडवल, भरण्यासाठी खुले झालेले भांडवल
आणि प्रत्यक्ष भरणा झालेले भांडवल यांत वेळोवेळी झालेले बदल एका
तक्क्त्याद्वारे दर्शविले जातात. त्यामुळे कंपनीच्या भांडवल रचनेत सुरूवातीपासून
झालेले दहा वर्षातील भावांचे वार्षिक कमाल आणि किमान बाजारभाव दिले
जातात. त्याच्याच शेजारी आणखी एका तक्त्यात गेल्या दोन वर्षातील बाजारभावात
झालेले मासिक चढउतारही दिले जातात. या बहुमोल माहितीमुळे गुंतवणूकदाराला
त्या कंपनीच्या शेअर्समध्ये कोणत्या भावातील गुंतवणूक फायदेशीर होईल
याचा अंदाज येतो.</p>

<p>अगदी अलीकडे प्रसिद्ध झालेल्या वार्षिक अहवालाच्या आधारे कंपनीच्या
संचालक मंडळावरली संचालकांची नावे दिली जातात त्यामुळे गुंतवणूकदारांना
कोठल्या उद्योग-समूहाच्या संचलनाखाली कंपनी आहे हे समजते. त्याचबरोबर
व्यवस्थापनाचा दर्जा काय असावा याचाही अंदाज येतो.</p>

<p>मार्गदर्शिकेमध्ये माहितीचा दुसरा मुख्य भाग आकडेवारी आणि टक्केवारी
याच्या रूपाने दिला जातो. त्यामध्ये बऱ्याच वेळा गेल्या काही वर्षाची
उत्पादनांची आकडेवारी दिली जाते. गुंतवणूकदारांच्या दृष्टिकोणातून उपयुक्त
झालेला `इक्विटी शेअर डाटा' दिला जातो. त्यामध्ये  मुख्यत्वेकरून गेल्या
दहा वर्षातील प्रत्येक शेअरमागे झालेला नफा आणि वाटलेला लाभांश
यासंबंधी माहिती असते.</p>

<p>पान नं. 81</p>

<p>कंपनीचा ताळेबंद (मालमत्तेसहित कंपनीची येणी आणि देणी) आणि
नफातोटाफत्रक सारांश रूपाने दिले जाते. त्यामध्ये वेगवेगळ्या महत्त्वाच्या
शीर्षकाखाली येणारी आकडेवारी मिळते. कंपनीचे आर्थिक बल मोजण्यासाठी
वापरली जाणारी वेगवेगळी आर्थिक प्रमाणे (Financial Rations) ही दिली
जातात. दिलेल्या आकडेवारीचा अर्थ सरावानेच लावता येतो.</p>

<p>आता कंपन्यांचे सहामाही आर्थिक निष्कर्ष अशा काही बाबींचा समावेश
करून अधिक चांगली सेवा देण्याचा प्रयत्न स्टॉक एक्सचेंज फाउंडेशन करीत
आहे. त्यामुळे या मार्गदर्शिकेची उपयुक्तता फारच वाढली आहे. या मार्गदर्शिकेविषयी
एकच मुख्य आक्षेप घेतला जातो आणि तो म्हणजे यामध्ये माहिती प्रसिद्ध
होण्यास फार वेळ लागतो. हा. गुंतवणूकदारांची अशी अपेक्षा आहे की
कंपनीचे आर्थिक वर्ष संपल्यावर आणि वार्षिक अहवाल प्रसिद्ध झाल्यावर
त्याचा ताबडतोब समावेश मार्गदर्शिकेत व्हावा आणि गुंतवणूकदारांपर्यत तो
तात्काळ पोहोचवावा.</p>

<p>या मार्गदर्शिकेतील माहिती केवळ वस्तुस्थितीनिदर्शक असते. त्यामध्ये
कोठलेही मत व्यक्त केलेले नसते. माहिती वाचून गुंतवणूकदाराने त्यातून
निष्कर्ष काढावयाचा असतो, आणि गुंतवणुकीचा निर्णय घ्यावयाचा असतो.</p>

<p>या सर्व प्रकाशित साहित्याचा उपयोग गुंतवणुकीसाठी चांगल्या कंपन्यांची
निवड करण्यासाठी होतो. केवळ एखादी कंपनी गुतंवणुकीसाठी निवडली
म्हणजे गुंतवणूक होत नाही आणि करूही नये. कोठल्या भावात गुंतवणूक
करावी आणि केव्हा करावी हा वेगळा विषय आहे. पूर्ण माहिती असल्याशिवाय
गुंतवणूक करणे जसे योग्य होणार नाही त्याचप्रमाणे कोठल्याही भावात आणि
कोठल्याही वेळी केवळ कंपनी चांगली आहे म्हणूनही योग्य होणार नाही.
अवेळी आणि अवास्तव भावात केलेल्या गुंतवणुकीपासून तोटाच होण्याची
शक्यता अधिक असते. म्हणूनच नवीन गुंतवणूकदारांनी अतिशय सावध असणे
आवश्यक आहे. देशाच्या अर्थव्यवस्थेला गरज आहे ती सुजाण गुंतवणूकदारांची.
गुंतवणुकीचे तंत्र पद्धतशीरपणे आत्मसात केल्याशिवाय या क्षेत्रातील पदार्पण
आत्मघातकी ठरण्याचीच शक्यता अधिक.</p>

<p>पान नं. 103</p>

<p>13. शेअर्सची निवड</p>

<p>शेअर्समधील गुंतवणूक हे एक शास्त्र आहे. त्यातील सर्वात महत्त्वाचा
विषय म्हणजे गुंतवणुकीसाठी शेअर्सची निवड कशी करावी आणि खरेदी
केव्हा करावी. निवडही चुकता कामा नये आणि वेळही बरोबर साधली
पाहिजे. दोन्ही गोष्टी ज्याला जमल्या त्याला शेअर्समधील गुंतवणुकीचे शास्त्र
अवगत झाले असे म्हणावयास हरकत नाही. त्यातील एक जरी गोष्ट चुकली
तरी फटका बसल्याशिवाय राहणार नाही. याचा अर्थ गुंतवणूक पूर्णपणे बुडेल
अथवा मोठा तोटा होईल असे नाही. पण ज्या अपेक्षेने आणि अंदाजाने
गुंतवणूक केली असेल ती अपेक्षा पूर्ण होणार नाही. गुंतविलेले पैसे अडकून
पडण्याची शक्यता अधिक असेल.</p>

<p>गुंतवणूकदाराला सर्वश्रुत आणि अष्टावधानी असावयास पाहिजे. आपल्या
देशात घडणाऱ्या दैनंदिन महत्त्वाच्या घटनांचा गुंतवणुकीच्या दृष्टिकोणातून अन्वयार्थ
लावता आला पाहिजे. साधारणपणे राजकीय, आर्थिक आणि सामाजिक
परिस्थितीचा परिणाम गुंतवणुकीवर होण्याची शक्यता असते. कोठल्या गोष्टींचा
परिणाम कसा होईल, तो दीर्घकालीन असेल की अल्पकालीन असेल इ.
गोष्टींचा अंदाज त्याला बांधता आला पाहिजे. काही गोष्टी अशाही असतात
की अर्था अर्थी शेअरबाजाराशी त्यांचा संबंध नसतो. तरी देखील भावांच्या
हालचालीवर परिणाम होतो. त्याचाही अन्वयार्थ लावता आला पाहिजे.</p>

<p>पंजाब, बंगाल आणि केरळमधील परिस्थिती शेअर-बाजारावर परिणाम
करू शकते. पंजाबमधील सामाजिक आणि धार्मिक प्रश्नाला राजकीय स्वरूप
मिळाले आहे. बंगालमध्ये साम्यवादी विचारसणीची राजवट आहे. केरळमध्येही
अस्थिर राजकीय परिस्थिती आहे. अशा वेळी या प्रांतातील कंपन्यांच्या
कामकाजावर परिणाम होण्याची शक्यता नाकारता येणार नाही.</p>

<p>पान नं. 104</p>

<p>आर्थिक धोरणे</p>

<p>सरकारचे आर्थिक धोरणही शेअर-बाजारातील भावांच्या कलावर (Trend)
परिणाम करू शकते. याचे उत्तम उदाहरण म्हणजे 1985 साली जाहीर
झालेले अंदाजपत्रक आणि वेळोवेळी वेगवेगळ्या उद्योगक्षेत्रांबद्दल सरकारने
अनुसरलेले उदार धोरण. 1985 ची तेजी अभूतपूर्व  होती. 1991 मध्ये
जाहीर झालेले औद्योगिक धोरण म्हणजे पूर्णपणे खुल्या अर्थव्यवस्थेच्या दिशेने
टाकलेले एक धाडसी पाऊलच आहे असे म्हणावयास हरकत नाही. 1985
च्या तेजीलाही मागे टाकणारी तेजी 1990 आणि 1991 मध्ये आली
त्याचे कारण म्हणजे शेअरबाजाराची आर्थिक शिथिलीकरणांसंबंधी अपेक्षा हेच
होय असे म्हणणे भाग आहे.</p>

<p>कामगारांचे लढे सामाजिकही असतात आणि राजकीयही. कापड-गिरणी
कमगारांचा मुंबईतील संप सामाजिक होता असे म्हणावयास हरकत नाही.
या संपाचाही मुंबईच्या शेअर-बाजारावर परिणाम झाला असल्याचे दिसून
आले आहे.</p>

<p>अर्थव्यवस्था</p>

<p>याहीपेक्षा गुंतवणूकदाराला देशाच्या अर्थव्यवस्थेची माहिती असायला
पाहिजे. आपल्याकडे मुक्त अर्थव्यवस्था नव्हती. काही क्षेत्रांमध्ये सरकारी
नियंत्रणे होती. सरकार, सार्वजनिक क्षेत्रातील उद्योग आणि खाजगी क्षेत्रांतील
उद्योग या तिन्ही आघाड्यांवर सारख्या घडामोडी घडत असतात. सार्वजनिक
क्षेत्रातील उद्योगांमध्ये घडणाऱ्या गोष्टींचा खाजगी क्षेत्रामधील उद्योगावर परिणाम
होत नाही असे समजणे चुकीचे आहे. सरकारी धोरणांचा सार्वजनिक आणि
खाजगी अशा दोन्ही क्षेत्रांवर परिणाम होतो.</p>

<p>आपली अर्थव्यवस्था बरीचशी शेतीच्या भल्याबुऱ्या दिवसांवर अवलंबून
आहे. मान्सूनचाही परिणाम अर्थव्यवस्थेवर होतो. सर्व क्षेत्रातील घडणाऱ्या
घटनांचे परिणाम पचवून अर्थव्यवस्था कोणीकडे चालली आहे याचे ढोबळमानाने
का होईना पण ज्ञान मिळविले पाहिजे.</p>

<p>अर्थव्यवस्था एका विशिष्ट दिशेने जावी असा सत्तारूढ पक्षाचा प्रयत्न
असतो त्यामध्ये चक्र काहीच नाही. त्यामुळे अर्थव्यवस्थेमध्ये
कधी तेजीचा स्वच्छ सूर्यप्रकाश तर कधी मंदीचे सावट आळीपाळीने येत</p>

<p>पान नं. 105</p>

<p>असते. हे कसे होते ते आपण नंतर पाहणार आहोत, पण या तेजी-मंदीच्या
चक्रांचा मात्र शेअर-बाजारांवर चांगलाच परिणाम होतो. या चक्रांची माहिती
गुंतवणूकदारांना असणे आवश्यक आहे.</p>

<p>उद्योगधंदे</p>

<p>अर्थव्यवस्थेनंतर माहिती असायला हवी ती वेगवेळ्या उद्योगांची.
त्यांच्यासंबंधी सरकारी धोरणे काय आहेत याचीही ढोबळमानाने माहिती असणे
हिताचे ठरेल. ही माहिती मिळविण्यासाठी वेगळे आणि खास प्रयत्न करावयाची
गरज सामान्य गुंतवणूकदाराला नाही. दैनंदिन वृत्तपत्रांतून वाचन त्यासाठी पुरे
ठरावे. कारण अशा सरकारी धोरणांना आपल्याला रोजच्या जीवनात अनुभव
येत असतो. रेशनवर मिळणाऱ्या साखरेचे आणि रेशनबाहेरील साखरेचे दर
वेगळे असतात याचाच अर्थ असा की साखरेवर सरकारचे अंशतः नियंत्रण
आहे. चहाच्या किंमती वाढल्या की आपल्याला कळते की एकतर चहाचे
उत्पादन कमी झाले असले पाहिजे, अथवा चहाची निर्यात वाढवली असली
पाहिजे.</p>

<p>काही उद्योगात तेजी-मंदीचे चक्र सारखे येत असते. कापड, जहाज-वाहतूक,
ताग (Jute) आणि चहा या उद्योगांमध्ये येत असलेली अशी चक्रे प्रसिद्ध
आहेत. मुंबईतील गिरणी कामगारांच्या दीर्घ संपामुळे कापड उद्योगाला जो
फटका बसला  त्यातून तो उद्योग पूर्णपणे सावरण्यास काही वर्षे जावी लागली.
आता सुती कापड धंद्या देखील अभूतपूर्व तेजीचा अनुभव येत आहे.
जहाज, वाहतूक धंद्यातील दीर्घकाळ चालणारी मंदी आणि अल्पकालीन तेजी
तर प्रसिद्धच आहे. दोन-तीन वर्षापूर्वी चहाच्या कंपन्या तोट्यात चालल्या
होत्या पण त्यानंतर चहाच्या धंद्यात प्रचंड तेजी येऊन ती आजपर्यत टिकून
आहे.</p>

<p>गेल्या काही वर्षापासून ग्राहकोपयोगी वस्तूंचे उत्पादन करणारे उद्योग
फार जोरात आहेत. यामध्ये कापड आणि औषध उद्योगांचा समावेश होत
नाही. विशेषतः प्रक्रिया केलेले अन्नपदार्थ उत्पादन करण्याकडे कल वाढत
आहे. त्याचप्रमाणे सौंदर्यप्रसाधनांची निर्मिती करणाऱ्या उद्योगांचीही चांगली
वाढ दिसून येत आहे. पर्यटकांची संख्या वाढत असल्यामुळे हॉटेल उद्योगाचीही
चांगलीच वाढ झाली आहे.</p>

<p>पान नं. 106</p>

<p>बहुतेक सर्व खनिज उत्पादनांची मालकी सरकारकडे आहे. पोलादाचे
आणि अँल्युमिनियमचे भाव सरकार नियंत्रित करते. साखरेवर नियंत्रण असून
कारखान्यांना लेव्हीचा कोटा ठरवून दिलेला आहे. लेव्ही घालून राहिलेले
उत्पादन त्यांना खुल्या बाजारात विकता येते. खुली साखर महिन्यात किती
विक्रीला काढावी याचाही कोटा दरमहा सरकार ठरवून देते. काही औषधांच्या
किंमतीवर सरकारी  नियंत्रणे आहेत. त्याचा परिणाम या उद्योगाच्या भवितव्यावर
होईल. खताच्या किंमती देखील सरकार ठरवते. शेतकऱ्यांना सवलतीत उपलब्ध
होणाऱ्या खतांच्या किंमतीची भरपाई सरकार कंपन्यांना सबसिडी देऊन करते.
अवजड यंत्रसामुग्री, वाहन उद्योग, रसायने, कृत्रिम धागे, पेट्रो-केमिकल्स
या उद्योगांबद्दल ढोबळ का होईना गुंतवणूकदाराला माहिती असणे आवश्यक
आहे.</p>

<p>शेअर्सची गुंतवणुकीसाठी निवड करताना उद्योगधंद्यांच्या पार्श्वभूमीची माहिती
असल्याशिवाय गुंतवणूक करणे हितावह होणार नाही. एखाद्या कंपनीची गुंतवणुकीसाठी
निवड करताना ती ज्या उद्योग-धंद्यामध्ये कार्यरत आहे त्याच्या वाढीवर
बंधने असतील, ती खुंटली असेल किंवा येणारा काळ त्या उद्योगाला
विशेष अनुकूल नसेल तर गुंतवणुकीचा हेतू साध्य होणे कठीण. कंपनी
ज्याप्रमाणे वर्धमान असावी त्याचप्रमाणे तो उद्योगही वर्धमान असावा. याचे
उदाहरण द्यायचे तर कापड-उद्योगासाठी रंग-रसायनांची निर्मिती करण्याऱ्या उद्योगाचे
आणि त्यात अग्रेसर असलेल्या इंडियन डायस्टाफ आणि कलर-केम या
कंपन्यांचे देता येईल. या दोन्ही कंपन्या उत्तम व्यवस्थापन असलेल्या आणि
त्यांची चांगली नफाक्षमता या गोष्टी लक्षात घेता या कंपन्यांची निवड
गुंतवणुकीसाठी डोळे झाकून करावयास हरकत नव्हती. पण उत्पादन करामध्ये
लघुउद्योगाला येऊ घातलेली मंदी आणि उद्योगाकडून वाढलेली स्पर्धा, कापड-उद्योगात
येऊ घातलेली मंदी आणि उद्योगाच्या वाढीला नसलेला वाव या पार्श्भूमीवर
या कंपन्यांच्या शेअर्मधील गुंतवणुकीचा निर्णय काही वर्षापूर्वी निश्चितपणे
चुकीचा ठरला असता. 1985, 1990 आणि 1991 च्या तेजीमध्ये देखील
या शेअर्सच्या बाजारभावांमध्ये म्हणावी तशी वाढ झालेली दिसून आली
नाही.</p>

<p>सिमेंटवर असणारे पूर्ण नियंत्रण सरकारने 28 मे 1982 ला मागे
घेतले आणि अंशतः नियंत्रण ठेवले तेही नंतर उठविण्यात आले. त्यामुळे
सिमेंट उद्योगात क्षमतावाढ झाली आणि 1990 पर्यत या उद्योगाचे भवितव्य
जवळजवळ अंधारात होते पण आता मात्र या उद्योगाचा सुवर्णकाळ आला
आहे असे दिसते. एकदा उद्योग निवडता आला की चांगली कंपनी निवडणे
सुलभ होते.</p>

<p>पान नं. 107</p>

<p>भविष्यातील उद्योग</p>

<p>येणारा काळ पेट्रो-केमिकल्स, इलेक्ट्रॉनिक्स, टेलिकम्युनिकेशन्स, खते,
प्लॅस्टिक, उच्च दर्जाचे तंत्रविज्ञान असणाऱ्या यंत्रोद्योगातील कंपन्या, प्रक्रिया
झालेले अन्न, सौंदर्यप्रसाधने, ग्राहकोपयोगी चैनीच्या वस्तू, औषधे, पोलाद
इ. उद्योगांना भरभराटीचा जाईल असे वाटते. आजच्या घडीला तरी यांच्या
भविष्याबद्दल विश्वास वाटावा अशी परिस्थिती आहे. पण या उद्योगांबद्दल
असणाऱ्या सरकारी धोरणांवर बारकाईने लक्ष ठेवणे, आवश्यक आहे. सरकारी
धोरण सत्तारूढ पक्षाच्या ध्येयधोरणांवर अवलंबून असते. चौधरी चरणसिंग
अर्थमंत्री आणि काही काळ पंतप्रधान असताना ""लहान ते सुंदर "" (Small
is Beautiful) या धोरणाचा पुरस्कार झाला. एवढेच नव्हे तर आपल्यासारख्या
गरीब देशाला अत्याधुनिक यंत्राची आणि संगणकांची गरज नाही असेही
त्यांचे मत होते. ओघानेच या प्रणालीला अनुसरूनच आर्थिक धोरणे त्यांनी
आखली असती.</p>

<p>कंपनीची निवड- व्यवस्थापन</p>

<p>कंपनीची निवड करताना जर सर्वात महत्त्वाची गोष्ट कोणती असेल
तर ती व्यवस्थापन. कंपनी जर एखाद्या समूहातील (उदाहरण टाटा, बिर्ला)
असेल तर साधारणपणे बरीचशी कल्पना सुरूवातीलाच यायला हरकत नाही.
देशामध्ये बऱ्याचशा बहुराष्ट्रीय कंपन्याही( Multinationals) आहेत. या कंपन्यांमधून
असणारे व्यवस्थापन पूर्णपणे आपापल्या क्षेत्रात पारंगत असलेल्या लोकांच्या
हाती असते. अशा व्यवस्थापनाला व्यावसायिक (Professional) म्हणून संबोधले
जाते. व्यावसायिक याचा अर्थ असा की अशा व्यवस्थापनातील अधिकारी
मंडळी एखाद्या गोष्टीचा निर्णय घेताना आधुनिक व्यवस्थापकीय तंत्र-कौशल्याचा
वापर करून केवळ कंपनीच्या फायद्याच्या दृष्टीकोणातून निर्णय घेतात. टाटा
समूहामध्येही असे व्यवस्थापन आहे. परंतु आपल्याकडे काही उद्योग-समूहांचा
पाया एखाद्या कुटुंबाकडून घातला गेला आहे. उदा. बिर्ला, मफतलाल,
किर्लोस्कर, थापर, श्रीराम, बांगुड, गोएंका, इ. अशा समूहातील कंपन्यांमध्येही
त्या त्या कुटुंबातील सभासद महत्त्वाच्या जागेवर नेमले जातात. अशी नेमणूक
करताना त्यांची एकमेव पात्रता म्हणजे त्यांनी त्या कुटुंबात घेतलेला जन्म.
बऱ्याच वेळा अशा कुटुंबातील तरूण पिढीला आधुनिक व्यवस्थापकीय कौशल्याचे
शिक्षण अथवा उच्च दर्जाचे तंत्र-शिक्षण देण्याकडेही कल आढळून येतो.
परंतु अशा कंपन्या चालवताना कौटुंबिक हिताचा विचार प्रथम होत असावा.
अशा कौटुंबिक उद्योगसमूहातील व्यवस्थापनदेखील कधी कधी व्यावसायिक
व्यवस्थापनापेक्षा सरस ठरल्याचे आढळून आले आहे.</p>

<p>पान नं. 108</p>

<p>व्यावसायिक व्यवस्थापकाविरूद्ध एक आक्षेप नेहमी घेण्यात येतो तो
म्हणजे अशा लोकांचे कोणतेही हितसंबंध कंपनीमध्ये गुंतले नसल्यामुळे ते
कंपनीच्या भवितव्याविषयी बेफिकिर राहू शकतात. पण एखाद्या कौटुंबिक
सामुहातील कंपनी असल्यास अशा व्यवस्थापनातील लोकांचे सर्वच हितसंबंध
त्या कंपनीत गुंतलेले असल्यामुळे त्यांना कंपनीच्या भवितव्याविषयी बेफिकिर
अथवा निष्काळजी राहून चालत नाही. व्यवसायिक व्यवस्थापक एका ठिकाणी
जमले नाही तर दुसरीकडे जाऊ शकतो. असे इतरांबाबत घडत नाही.</p>

<p>बहुराष्ट्रीय कंपन्यांमध्ये बहुतेक औषध कंपन्या, हिंदुस्थान लीव्हर, इंगरसोल
रॅड, आय टी सी हे जशी व्यावसायिक व्यवस्थापनाचे उत्कृष्ट नमुने म्हणून
दाखविता येतील. त्याचप्रमाणे दुसरे टोक म्हणून मेटल, बॉक्स, ग्रामोफोन,
सॅकी व्हील या कंपन्यांच्या व्यावसायिक व्यवस्थापनाकडेही निकृष्ठ व्यवस्थापने
म्हणून बोट दाखविता येईल. अशी दोन्ही बाजूंची यादी कौटुंबिक समूहातील
कंपन्यांचीही देता येईल. याचा अर्थ इतकाच की व्यवस्थापनाचा दर्जा ठरविताना
कोठलीही गोष्ट गृहीत धरून चालता कामा नये. केवळ बिर्लाची कंपनी
आहे याचा अर्थ व्यवस्थापन उत्कृष्टच असेल असे गृहीत धरून चालता
येणार नाही.</p>

<p>घराणेशाही आणि व्यवस्थापन</p>

<p>व्यवस्थापनाचा दर्जा काय आहे हे पाहण्यासाठी कंपनीचा इतिहास
जरा चाळायला हवा. प्रगतीचे टप्पे कंपनीने आपल्या आयुष्यात कसे कसे
गाठले आणि त्याला व्यवस्थापनाची दूरदृष्टी कशी कारणीभूत ठरली हे जसे
यशस्वी कंपनीसंबंधी पाहता आले पाहिजे, तसेच कंपनीच्या धंद्यावर विस्तार
(Expansion) कसा झाला, कंपनीने अन्य क्षेत्रात पदार्पण (Diversification)
केले आहे की नाही, कंपनीची पावले काळाबरोबर पडत आहेत की नाहीत
या गोष्टीही कंपनीचा इतिहास चाळल्यावर लक्षात आल्या पाहिजेत. मुंबईतील
कापड उद्योगातील बऱ्याच गिरण्या अशा कौटुंबिक मालकीच्या होत्या. अशा
कुटुंबानी स्थापन केलेल्या गिरण्यांमधून सुरूवातीच्या काळात भरमसाट फायदाही
त्यांना झाला. पण काळाबरोबर न राहिल्याने, उत्पादनप्रक्रियेमध्ये आधुनिक
तंत्रज्ञानाचा वापर आणि यंत्रसामुग्रीचे आधुनिकीकरण इ. गोष्टींकडे लक्ष न
दिल्याने काही वर्षानी या गिरण्या आजारी झाल्याचे आपण पाहतोच. याउलट
कापड-उद्योगातच काही कंपन्यांनी काळानुरूप पावले उचलून वेळच्या वेळी
आधुनिकीकरण केले, नवीन तंत्रज्ञानाचा व्यवस्थापनात आणि उत्पादनात वापर</p>

<p>
*
----------------------------------------------------------------
Cont'd
</p></body></text></cesDoc>