<cesDoc id="guj-w-samachar-news-nat-01-07-17" lang="guj">
<cesHeader type="text">
<fileDesc>
<titleStmt>
<h.title>guj-w-samachar-news-nat-01-07-17.txt</h.title>
<respStmt>
<respType>Electronic file created by</respType>
<respName>Department of Linguistics, Lancaster University</respName>
<respType>text collected by</respType>
<respName>Andrew Hardie</respName>
<respType>transferred into Unicode by</respType>
<respName>"Unicodify" software by Andrew Hardie</respName>
</respStmt>
</titleStmt>
<publicationStmt>
<distributor>UCREL</distributor>
<pubAddress>Department of Linguistics, Lancaster University, Lancaster, LA1 4YT, UK</pubAddress>
<availability region="WORLD"></availability>
<pubDate>03-08-24</pubDate>
</publicationStmt>
<sourceDesc>
<biblStruct>
<monogr>
<h.title>"Gujarat Samachar" internet news (www.gujaratsamachar.com), news stories collected on 01-07-17</h.title>
<h.author>Gujarat Samachar</h.author>
<imprint>
<pubPlace>Gujarat, India</pubPlace>
<publisher>Gujarat Samachar</publisher>
<pubDate>01-07-17</pubDate>
</imprint>
</monogr>
</biblStruct>
</sourceDesc>
</fileDesc>
<encodingDesc>
<projectDesc>Text collected for use in the EMILLE project.</projectDesc>
<samplingDesc>Simple written text only has been transcribed. Diagrams, pictures and tables have been omitted and their place marked with a gap element.
</samplingDesc>
<editorialDecl>
<conformance level="1"></conformance>
</editorialDecl>
</encodingDesc>
<profileDesc>
<creation>
<date>03-08-24</date>
</creation>
<langUsage>Gujarati</langUsage>
<wsdUsage>
<writingSystem id="ISO/IEC 10646">Universal Multiple-Octet Coded Character Set (UCS).</writingSystem>
</wsdUsage>
<textClass>
<channel mode="w">print</channel>
<constitution type="composite"></constitution>
<domain type="public"></domain>
<factuality type="fact"></factuality>
</textClass>
<translations></translations>
</profileDesc>
<revisionDesc></revisionDesc>
</cesHeader>

<text>
<body>




<p><head>ભારત-પાક. શિખર મંત્રણા નિષ્ફળ</head></p>

<p><head>પેચીદા વિવાદો અંગે સમજૂતી
સાધવામાં વાજપેયી-મુશર્રફને સરિયામ નિષ્ફળતા : પાકે. ભારતને જવાબદાર
ઠેરવ્યું</head></p>

<p><head>ઘોષણાપત્રને બદલે માત્ર નિવેદનથી
જ કામ ચલાવાયું</head></p>

<p>આગ્રા, તા. ૧૬</p>

<p>અંતે જેની સતત શંકા સેવાતી
હતી એ જ થઈને રહ્યું. ભારત તથા પાકિસ્તાન વચ્ચેની શિખર-મંત્રણાનો ફિયાસ્કો થયો છે.
અહીં બંને દેશો વચ્ચે યોજાયેલી શિખર મંત્રણામાં પેચીદા વિવાદો અંગે વડાપ્રધાન શ્રી
અટલ બિહારી વાજપેઈ તથા પાક. પ્રમુખ પરવેઝ મુશર્રફ કોઈ સમજૂતિ ઉપર આવવામાં સરિયામ
નિષ્ફળ ગયા છે. હવે કોઈ સંયુકત ઘોષણા પત્રની શકયતાનો પણ છેદ ઉડી ગયો છે. કદાચ
સંયુકત નિવેદન જારી કરીને કામ ચલાવી લેવાશે. વડાપ્રધાન શ્રી અટલ બિહારી વાજપેયીને
મળ્યા બાદ શ્રી મુશર્રફ આજે રાત્રે જ સ્વદેશ પરત થઈ રહ્યા છે. શિખર મંત્રણાનું સૂરસૂરિયું
થયું હોવાના અહેવાલો અંગે વિદેશ ખાતાના પ્રવકતાએ જો કે કોઈ ટીકા ટીપ્પણી કરવાની
ઇન્કાર કર્યો હતો.</p>

<p>એ અગાઉ આગ્રા
શિખર-મંત્રણાની ફળશ્રુતિ રૂપે બન્ને દેશોની સંમતિ સાથેનો એક દસ્તાવેજ કોઈ પણ રીતે
ઘડી કાઢવા માટે ભારત તથા પાકિસ્તાન વચ્ચે છેક મોડી રાત સુધી સઘન મંત્રણાઓ
ચાલુ રહી હતી. પાક પ્રમુખ શ્રી પરવેઝ મુશર્રફે આજે રાત્રે પાકિસ્તાન પરત થઈ જવાનું પણ
મુલતવી રાખ્યું હતું તથા આજના દિવસની પોતાની અજમેર મુલાકાત પણ તેમણે રદ કરી
દીધી હતી.</p>

<p>વિદેશ પ્રધાન શ્રી જશવંત
સિંહ તથા તેમના પાકિસ્તાન સમકક્શ શ્રી અબ્દુલ સત્તાર ચાવીરૂપ મુદ્દાઓ અંગે બન્ને દેશો
વચ્ચે પ્રવર્તતા મતભેદોનું નિરાકરણ કરવામાં સતત વ્યસ્ત રહ્યા હતા જેથી શિખરને અંતે
સંયુક્ત ઘોષણા પત્ર જારી કરવામાં સવલત રહે.</p>

<p>વડાપ્રધાન શ્રી અટલ બિહારી
વાજપેઈ જેમાં રોકાયેલા છે તે જેપી પેલેસ હોટલમાં આ ચર્ચાઓ યોજાઈ રહી છે. આ
હોટલથી થોડીક જ દૂર આવેલી અમર વિલાસ હોટલના સ્યુટમાં શ્રી મુશર્રફ રોકાયા છે.
આજે બપોરે બે ને ૩૫ મિનિટે શ્રી મુશર્રફ અજમેરની મુલાકાતે જવાના હતા પણ તેઓ વધુ
સાત કલાક માટે રોકાઈ ગયા હતા અને અજમેરની મુલાકાત રદ કરી હતી.</p>

<p>જાહેરનામાને આખરી સ્વરૂપ
આપવા બન્ને વિદેશ પ્રધાનો આજે રાત્રે સમય કાઢીને હોડમાં ઉતર્યા હતા તો
પાકિસ્તાની રાજદ્વારીએ બન્ને હોટલો વચ્ચે સતત અવરજવર કરતા દેખાયા હતા.</p>

<p>પાકિસ્તાન ડેલિગેશનનાં
વર્તુળોએ કહ્યું હતું કે શ્રી મુશર્રફ કદાચ આજે જ મોડી રાત્રે ઇસ્લામાબાદ પરત થઈ જશે
પણ કોઈ સમજૂતિ થઈ શકી ન હોવાથી કદાચ તેઓ રોકાઈ જવાનો પણ નિર્ણય કરે.</p>

<p>આજે સવારે જનરલ પરવેઝ
મુશર્રફે વરિષ્ઠ તંત્રીઓ સમક્શ એવી સ્પષ્ટતા કરી હતી કે પાકિસ્તાન કાશ્મીરને મુખ્ય મુદ્દો
ગણે છે અને તેના આધારે જ ભારત પણ કાશ્મીરને મુદ્દો ગણે એવી માગણી કરવામાં
આવી હતી અને આ મુદ્દાના ઉકેલ માટેની ભારત-પાકિસ્તાન મંત્રણામાં કાશ્મીરી લોકોની પણ
સામેલગીરીની માંગણી કરવામાં આવી હતી. મુશર્રફના આ વિસ્ફોટક નિવેદનના પગલે જ
સંયુક્ત કરાર નક્કી કરવામાં ગરમાગરમ ચર્ચાઓનો લંબાણપૂર્વક દોર ચાલ્યો હતો.</p>

<p>ભારતે વડાપ્રધાનની
લંબાણપૂર્વકની નોંધ પ્રસિદ્ધ કરી હતી જેમાં વાજપેયીએ ગઇકાલે મંત્રણાના આરંભે
કરેલાં એ નિવેદનનો પણ સમાવેશ થતો હતો જેમાં કહેવામાં આવ્યું હતું કે બંને
દેશો વચ્ચેના મતભેદો નિર્ધારીત સમય મર્યાદામાં ઉકેલવા માટેના માળખામાં સરહદ
પારથી મોકલવામાં આવતા ત્રાસવાદ અને હિંસાને પણ આવરી લેવાવા જોઇએ. ભારતની આ
જાહેરાતના પગલે જ મુશર્રફે વિસ્ફોટક નિવેદન કરી સમગ્ર મંત્રણાનું વાતાવરણ ડહોળી
નાખ્યું હતું.</p>

<p>ભારત ત્રાસવાદનો જડબાતોડ
જવાબ આપશે એમ દ્રઢતાપૂર્વક કહેતા વાજપેયીએ ઉમેર્યું હતું કે કોઇએસ એમ માની લેવાની
જરૂર નથી કે ભારત પાસે ત્રાસવાદને અટકાવવાની તાકાત કે ક્શમતા નથી.</p>




<p><head>શિખર મંત્રણામાં કાશ્મીર અને
ત્રાસવાદ અંગે ચર્ચા ચાલી રહી હતી ત્યારે જ</head></p>

<p><head>લશ્કરી છાવણીઓ પર ચાલુ રહેલા
ઉગ્રવાદી હુમલા: વધુ ૪૧નાં મોત</head></p>

<p>શ્રીનગર, તા. ૧૬</p>

<p>આજે એક બાજુ આગ્રામાંની ભારત-પાક
શિખર મંત્રણામાં કાશ્મીર અને સરહદ પરના ત્રાસવાદ અંગે ચર્ચા હાથ ધરાયેલી હતી તે જ
વખતે ઉગ્રવાદીઓએ લશ્કરી છાવણીઓ પર હુમલા કરી જમ્મૂ અને કાશ્મીરમાં ૨૫ ઉગ્રવાદીઓ
અને એક જ કુટુંબના ચાર સભ્યો સહિત વધુ ૪૧ માણસોને મારી નાખ્યા હતા.</p>

<p><head>કુપવાડા જિલ્લામાં આત્મઘાતી હુમલામાં
પાંચ સૈનિકો મરાયા : ડોડા જિલ્લામાં એક જ કુટુંબના ચારની હત્યા કરાઈ:
એકનું અપહરણ</head></p>

<p>પાકિસ્તાન સ્થિત લશ્કરે
તોઈબાના ઉગ્રવાદીઓ કુપવાડા જિલ્લામાંના માગમ લશ્કરી થાણાને ઘેરી વળ્યા હતા અને
આત્મઘાતી હુમલામાં પાંચ સૈનિકોને મારી નાખ્યા હતા અને આઠને ઈજા પહોંચાડી હતી એમ
સંરક્શણ સાધનો જણાવ્યું હતું. અદ્યતન શસ્ત્રોથી સજ્જ ઉગ્રવાદીઓએ મોડી રાત્રે
૨-૩૦ વાગે સૈનિકો પર મારો ચલાવતાં ઉપર મુજબ ખુવારી થઈ હતી. લશ્કરે તોઈબાએ આ
હુમલાની જવાબદારી લીધી હતી અને અબુ હમઝાહ નામનો એક ઉગ્રવાદી હુમલામાં સામેલ
હતો એમ જણાવ્યું હતું.</p>

<p>થોડી જ મિનિટો બાદ
ઉગ્રવાદીઓએ કુપવાડા જિલ્લામાંના જ બીજા એકક ઝાચાલદારા ખાતે આવેલા લશ્કરી થાણા પર
હુમલો કર્યો હતો. સૈનિકોએ ગોળીબારોનો વળતો જવાબ આપ્યો હતો અને સામસામા
ગોળીબારોમાં એક ઉગ્રવાદી પણ મરાયો હતો. સલામતી દળોએ છેલ્લા થોડા દિવસોમાં
ઉગ્રવાદીઓ પર હુમલા કરી તેઓ તરફે સારી એવી ખુવારી સર્જતાં સામે લશ્કરી મથકો પર
ઉગ્રવાદી હુમલા થવા પામ્યા હતા.ગઈરાત્રે પુંચ જિલ્લામાં લશ્કરની એક જ કામગીરીમાં ૨૦
ઉગ્રવાદીઓ માર્યા ગયા હતા.ઉગ્રવાદીઓએ ગઈરાત્રે ડોડા જિલ્લાના ભાટાટોટે ખાતે એક
જ કુટુંબના ચાર સભ્યોને ઠાર મારી દીધા હતા અને બીજી એક વ્યકિતનું અપહરણ કર્યું
હતું. મરનારાઓમાં મોહંમદ શફી. તેમની બીબી ફાતિમા, પુત્રી જાનુ અને ભાઈ મિયાંનો
સમાવેશ થતો હતો.પુંચના મંડી વિસ્તારમાં સલામતી દળોએ લશ્કરી તોઈબાના ત્રણ
ઉગ્રવાદીઓને મારી નાખ્યા હતા. આજે વહેલી સવારે જમ્મૂમાં બે ઉગ્રવાદીઓ માર્યા ગયા
હતા અને બે ઘવાયા હતા.</p>




<p><head>કાશ્મીરની સાથે ત્રાસવાદની ચર્ચા
પણ એટલી જ મહત્વની છે</head></p>

<p>આગ્રા, તા. ૧૬</p>

<p>જમ્મુ-કાશ્મીર સહિતના તમામ
વિવાદોની નિખાલસતાપૂર્વક ચર્ચા કરવાની ઓફ કરીને વડાપ્રધાન શ્રી અટલ બિહારી
વાજપેઇએ પાક.પ્રમુખ પરવેઝ મુશર્રફને કહ્યું છે કે બંને દેશો વચ્ચેના મતભેદોની ચર્ચા
કરવાના માળખામાં પાકિસ્તાન દ્વારા જમ્મુ કાશ્મીરમાં આચરાતા ત્રાસવાદ તથા હિંસાનો પણ
સમાવેશ કરવો પડશે.</p>

<p><head>વાજપેયીએ મુશર્રફ સાથે નિખાલસ
સ્પષ્ટતા કરેલી</head></p>

<p>જમ્મુ કાશ્મીરના મુદ્દે બંને
દેશો વચ્ચે પ્રવર્તતા પ્રચંડ મતભેદોનો એકરાર કરીને શ્રી વાજપેઇએ કહ્યું હતું કે પણ આ
માટે અનુકુળ વાતાવરણ પેદા કરવાનું મહત્વનું છે. ગઇકાલે શરૂ થયેલી શિખર મંત્રણા દરમ્યાન
શ્રી વાજપેઇએ શ્રી મુશર્રફને કહ્યું હતું કે પાકિસ્તાન દ્વારા આચરાતા ત્રાસવાદ તથા હિંસાને
કારણે આવું વાતાવરણ પેદા થતં નથી. અને ભારત આવા ત્રાસવાદનો મક્કમપણે સામનો
કરશે.શ્રી વાજપેઇએ શ્રી મુશર્રફને સ્પષ્ટ શબ્દોમાં કહ્યું હતું કે ત્રાસવાદ તથા હિંસાનો
સામનો કરવાનો નિર્ધાર, તાકાત કે શક્તિ ભારતમાં નથી એવું કોઇ ન વિચારે. પણ
આ બાબતો અર્થપૂર્ણ મંત્રણાને પ્રોત્સાહન નથી આપતી.</p>




<p><head>પાક. સરકારના રવિવારના મોડી
રાત્રિના નિવેદને મંત્રણાનો માહોલ ડહોળી નાંખ્યો</head></p>

<p>આગ્રા, તા. ૧૬</p>

<p>ગઈકાલે સાંજે વડાપ્રધાન
શ્રી અટલબિહારી વાજપેયી તથા પાક. પ્રમુખ શ્રી મુશર્રફ વચ્ચે યોજાયેલ શિખર મંત્રણાના પ્રારંભિક
તબક્કાઓ બાદ બંને પક્શોએ આ ચર્ચાને હકારાત્મક ગણાવતું જાહેર નિવેદન કર્યા પછી. મોડી
રાત્રે પાકિસ્તાને એવું નિવેદન કર્યું હતું કે કાશ્મીર વિવાદને ઉકેલ્યા વિના બંને દેશો
વચ્ચેના સંબંધો સામાન્ય બનાવવા શક્ય નથી એવું શ્રી મુશર્રફે શ્રી વાજપેયીને સાફ
શબ્દોમાં કહી દીધું છે. પાક સરકારના મોડી રાતના આ નિવેદનથી બન્ને દેશો વચ્ચેની
મંત્રણાઓનો માહોલ સંપૂર્ણપણે ડહોળાઈ ગયો છે.</p>

<p><head>ચર્ચામાં કાશ્મીર કેન્દ્ર સ્થાને
રહ્યું હોવાનો પાક. પ્રવક્તાનો દાવો</head></p>

<p>પાક. પ્રમુખ તથા ભારતના
વડાપ્રધાન વચ્ચે એકાંતમાં યોજાયેલી ૯૦ મિનિટની મંત્રણામાં ચર્ચાનું કેન્દ્રબિંદુ
કાશ્મીર હતું એવો પુનરોચ્ચાર કરીને પાક. સરકારના પ્રવક્તાએ એ બાબત ઉપર ભાર મૂક્યો
હતો કે કાશ્મીર વિવાદ અંગેની પ્રગતિ અન્ય વિવાદો અંગેની પ્રગતિ સાથે જ થવી જોઈએ. બન્ને
નેતાઓએ કાશ્મીર અંગેની સઘન ચર્ચા કરી હતી એવો ઉલ્લેખ કર્યા વિના જ ચાર મુદ્દાઓ
ઉપર ચર્ચા કરીહતી એવી ભારતના માહિતી અને પ્રસારણ પ્રધાન શ્રીમતી સુષ્મા સ્વરાજની
ટિપ્પણી અંગે પૂછાયેલા પ્રશ્નોના જવાબમાં સરકારી પ્રવક્તાએ આ વિધાનો કર્યા છે.
પોતાના વિધાનો વિશે વધુ સ્પષ્ટતા કરતાં પાકિસ્તાનના પ્રવક્તાએ કહ્યું હતું કે શ્રી
મુશર્રફે તેમના યજમાન દેશને સાફ સાફ શબ્દોમાં કહી દીધું છે કે કાશ્મીરના લોકોની
ઇચ્છાઓ અનુસાર કાશ્મીર વિવાદ ન ઉકેલવામાં આવે ત્યાં સુધી બન્ને દેશો વચ્ચેની
સંબંધો સમધારણ કરવાની દિશામાં કોઈ પ્રગતિ થઈ શકે તેમ નથી. શ્રી વાજપેયી
તેમના પ્રારંભિક વિધાનોમાં 'બીજા કેટલાક વિવાદો'નો ઉલ્લેખ કર્યો અને મુશર્રફે
કહ્યું હતું કે પાકિસ્તાન તે વિવાદ ચર્ચવા તૈયાર છે પણ જ્યાં સુધી મુખ્ય વિવાદ
ચર્ચીને તેનો નિવેડો ન લવાય ત્યાં સુધી અન્ય કોઈ વિવાદની ચર્ચા શક્ય નથી.</p>




<p><head>પાક.નો પ્રત્યાઘાત વધુ પડતો
છે: સુષ્મા સ્વરાજ</head></p>

<p>આગ્રા, તા.૧૬</p>

<p>પોતાના નિવેદનની પાકિસ્તાને
કરેલી ટીકાને 'ઓવર રીએકશન' ગણાવીને માહિતી તથા પ્રસારણ પ્રધાન શ્રીમતી સુષ્મા
સ્વરાજે આજે કહ્યું હતું કે શિખર મંત્રણામાં કાશ્મીરનો વિવાદ ચમક્યો હોવાનો મેં
ઇરાદાપૂર્વક ઉલ્લેખ નહોતો કર્યો એવી સમજ ખોટી છે.</p>

<p><head>કાશ્મીરનો ઉલ્લેખ કરવાનો
મારો કોઈ ઇરાદો ન હતો</head></p>

<p>પત્રકારો સાથેની વાતચીતમાં
ખુલાસો આપતાં શ્રીમતી સ્વરાજે કહ્યું હતું કે કાશ્મીર વિવાદની ચર્ચા થઈ હતી એનો
ઉલ્લેખ મેં ઇરાદાપૂર્વક ટાળ્યો છે એવું પાકિસ્તાનનું અર્થઘટન સાચું નથી. કાશ્મીરની
ચર્ચા થઈ રહી હતી એ વાત તો બિલકુલ સ્પષ્ટ છે પણ અન્ય મુદ્દાઓ વિશે પણ ચર્ચા થઈ હતી એ
હકીકત એક હકારાત્મક બાબત હતી અને મેં તેની ઉપર ધ્યાન કેન્દ્રિત કર્યું હતું. પોતાના
નિવેદન સામે પાકિસ્તાને ઉઠાવેલા વાંધાને તેમણે ઓવર-રીએકશન ગણાવ્યું
છે.માધ્યમો સાથે વાત કરીને પોતે વિશ્વાસઘાત કર્યો છે એવા પાકિસ્તાનના આક્શેપને
રદિયો આપતાં શ્રીમતી સ્વરાજે કહ્યું હતું કે જો મારે એમ કરવું હોત તો મેં
નકારાત્મક વિધાનો કર્યા હોત મેં એવું કર્યું નથી.</p>




<p><head>જન. મુશર્રફની અજમેર યાત્રા
અંતે રદ કરાઇ</head></p>

<p>જયપુર, તા. ૧૬</p>

<p>પાકિસ્તાનના પ્રમુખ પરવેઝ
મુશર્રફની અજમેરની મુલાકાત રદ કરાઇ હોવાનું સત્તાવાર રીતે જાહેર કરાયું હતું.
પ્રોટોકોલના વડા અને વહીવટીતંત્રના જનરલ સેક્રેટરી વિનોદ જુત્સીએ પીટીઆઇને જણાવ્યું
હતું કે પ્રમુખ મુશર્રફ આગ્રા ખાતેની શિખર મંત્રણામાં રોકાઇ ગયા છે. સત્તાવાળાઓ
તરફથી હમણાં જ સંદેશો મળ્યો છે કે તેમની અજમેરની મુલાકાત રદ કરાઇ છે</p>

<p>આગ્રામાં વડાપ્રધાન વાજપેયી
સાથેની લંબાવાયેલી શિખર મંત્રણામાં રોકાઇ જવાને કારણે જેની ખૂબ જ જાહેરાત કરાઇ હતી
તેવી અજમેરમાંની ખ્વાજા મોઇનુદ્દીન ચિશ્તીની જિયારત માટે પ્રમુખ મુશર્રફ આવવાના નથી તેવા
સમાચાર મળતાં જ આ યાત્રાધામ અજમેર પર નિરાશાનાં વાદળ ઘેરાઇ ગયાં હતાં.</p>

<p>છેલ્લા થોડા દિવસોથી મુશર્રફની
મુલાકાત માટે શહેરમાં ઉત્સાહ અને આતુરતાની જે લાગણી વ્યાપક બની હતી તે નિરાશા અને
નાસીપાસ થયાની ભાવનામાં પલ્ટાઇ ગઇ હતી. વિદેશ ખાતા તરફથી મુલાકાત રદ કરાયાની માહિતી
મળ્યાની થોડી જ મિનિટો બાદ દેખીતી રીતે આકુળ વ્યાકુળ થઇ ઉઠેલા ખ્વાજાના વંશજ સૈયદ
સરવર અંજુમને જણાવ્યું હતું કે, અમારો ભ્રમ ભાંગી જવા પામ્યો છે. પાકિસ્તાનના પ્રમુખ
માટે ખ્વાજાનું નિમંત્રણ હતું જ નહીં.</p>

<p>અંજુમન સૈયદ ઝદગન અને
સ્થાનિક વહીવટી તંત્રે મુશર્રફની મુલાકાત પહેલાં ૧૩મી સદીના ધાર્મિક સ્થળ અને
સર્કિટ હાઉસની સાફસૂફી સહિતની તમામ જેહમતભરી તૈયારીઓ કરી હતી. લોકલાગણીનો પડઘો
પાડતા હોય તે રીતે અંજુમનના પ્રમુખ ગુલામ કિદ્સિયાએ જણાવ્યું હતું કે, ઇરાદે લાખ
બનતે હૈં વો તૂટ જાતે હૈં, અજમેર વોહી આતે હૈ જિન્હેં ખ્વાજા બુલાતે હૈં.</p>

<p>સલામતીના કારણસર જેમના પર
કેટલાંક નિયંત્રણો આવી ગયા હતા પરંતુ પાકિસ્તાનના બીજા વડાની ઝાંખી મેળવવા ઝંખતા
લોકો નિરાશ થઇ ગયા હતા. સમાચાર ઝડપવા એકત્રિત થયેલા મિડિયાના માણસોની નિરાશાનો
પણ કોઇ પાર ન હતો.</p>




<p><head>મુશર્રફને નિમંત્રણ એ બાજપાઈની
'બીગેસ્ટ બ્લંડર'</head></p>

<p><head>આગ્રા શિખર મંત્રણામાં ભ્રમણા
સિવાય કોઈ જ સિદ્ધિ નહી : ભારત મૂર્ખ સાબિત થયું</head></p>

<p><head>બાજપાઈએ નાના માણસને એક
મોટો નેતા બનાવી દીધો</head></p>

<p>આગ્રાની શિખર મંત્રણા ભારતના
વડાપ્રધાન શ્રી અટલ બિહારી બાજપાઈ માટે એક ફિયાસ્કો છે.</p>

<p>બાજપાઈજીએ કારણ વગર
મુશર્રફને એક મોટા માનવી બનાવી દીધા. ભારતને ફાયદો થાય એવું કશું જ ફળદાયી
પામવાના બદલે પરવેઝ મુશર્રફ ઘણા મોટા માઈલેજ મેળવી ગયા છે.</p>

<p>પરવેઝને ભારત આવવાનું
નિમંત્રણ આપીને વડાપ્રધાને એક મોટી રાજકીય મૂર્ખામી કરી દીધી છે એ હવે
સ્પષ્ટ છે.</p>

<p>જે વ્યક્તિને ઇંગ્લેન્ડ કે
અમેરિકાએ હજી 'પ્રેસીડેન્ટ' તરીકેની માન્યતા આપી નથી તેને ભારતના વડાપ્રધાને
'મીસ્ટર પ્રેસીડેન્ટ' તરીકે સંબોધી પરવેઝને માન્યતા આપી દીધી.</p>

<p>ત્યારબાદ તેઓ ભારત આવીને
આતંકવાદ હટાવવાનો ચોક્કસ કાર્યક્રમ આપે તે પહેલાં વડાપ્રધાને ભારતની સરહદો
ખોલી દીધી. એ પછી પરવેઝને ભારતમાં ૨૧ તોપોની સલામી આપવામાં આવી.
આગ્રાની હોટલમાં ઊંચા માનપાન અને તાજમહાલની સહેલગાહ પછી છેવટે તો તંત્રીઓની
બેઠકમાં પરવેઝે પોતાનું અસલી કાર્ડ ઓપન કર્યું : ''પહેલાં કાશ્મીરની વાત પછી
બીજું બધું.''</p>

<p>ભારત સરકાર ઉંઘતી ઝડપાઈ.</p>

<p>પરવેઝે બહુ જ ચાલાકીપૂર્વક
કહ્યું કે, 'ભારતે મુકિતવાહિનીની મદદ કરીને પાકિસ્તાનના ટૂકડા કર્યા છે અને
બંગલાદેશનું સર્જન કર્યું છે. તે રીતે અમે પણ કાશ્મીરની આઝાદી ચાહીએ છીએ. કાશ્મીરમાં
તમે જેને આતંકવાદીઓ કહો છો તે કાશ્મીરના સ્વાતંત્ર્ય સેનાનીઓ છે.''</p>

<p>ટૂંકમાં પરવેઝે ભારતની જ
ભૂમિ પર આવીને આખી દુનિયા સમક્શ કાશ્મીરની વકિલાત કરી અને આડકતરી રીતે એમ પણ
કહ્યું કે તમે બંગલાદેશનું સર્જન કરી પાકિસ્તાનના ટૂકડા કરી શકો છો તો અમે પણ
ભારતના ટૂકડા કરી કાશ્મીરને આઝાદ કરાવીએ તો તેમાં ખોટું શું છે ?'</p>

<p>લાગે છે કે ભારતના
વડાપ્રધાનની મૂર્ખતાનો પરવેઝે બરાબરનો લાભ ઉઠાવી લીધો.</p>

<p>કરાંચીમાં કે પાકિસ્તાનમાં
દાઉદ ઇબ્રાહીમ છે જ નહીં કહીને પરવેઝ મુશર્રફ ભારતને એક વધુ વાર બેવકુફ બનાવ્યું અને
તેની સામે ભારત કોઈ જ મક્કમ વાત કહી શક્યું નહીં. ખરેખર તો કારગીલ કાંડનો જે
ગુનેગાર છે તેને રેડકાર્પેટ પર આમંત્રણ આપીને ભારતના વડાપ્રધાને ડિપ્લોમસીના
મેજ પર ભારતને વિશ્વ સમક્શ એક ગુનેગારના રૂપમાં ચીતરવાનો પરવેઝને ચાન્સ આપી
દીધો છે.</p>

<p>ભારતમાં બોંબ
ધડાકાઓ કરનાર દાઉદને સંઘરનાર, કારગિલમાં ઘુસણખોર કરી ભારત પર આક્રમણ કરનાર
અને કાશ્મીર માટે આતંકવાદીઓ તૈયાર કરનાર ટેરરીસ્ટ પાકિસ્તાનના પ્રેસીડેન્ટને
ગુનેગારના પાંજરામાં ઉભા રાખીને ખખડાવવાના બદલે બાજપાઈજીએ જે રીતે પરવેઝની
મહેમાનનવાજી કરી અને મુશર્રફે જે રીતે ભારતમાં જ આવીને ભારતનાં જ એક પ્રાંતની વકિલાત
કરી તેથી બાજપાઈજી માટે હવે નીચે જોવા સિવાય બીજું કાંઈ રહ્યું નથી.</p>

<p>આગ્રામાં શિખર મંત્રણાના
પહેલા દિવસે જે ઉષ્મા સર્જાઈ તેણે બીજા દિવસના પરિણામોને કોઈ કોંક્રીટ ફાયદો
કરાવ્યો નથી.</p>

<p>લાગે છે કે ભારત અને
પાકિસ્તાન એમ બેઉ દેશના વડાઓએ ખાસ નહીં મેળવેલી સિદ્ધિઓની ભ્રમણા પેદા કરી કાંઈક
મેળવ્યું છે તેવી ફેઇસ સેવિંગ ફોર્મ્યુલા જ બતાવવામાં ઝાઝો સમય વ્યતીત કરવામાં
આવ્યો છે.</p>

<p>લાગે છે કે બાજપાઈજી જેવા
એક મોટા નેતાએ પરવેઝ જેવા બહુ ઓછા જાણીતા નાના માણસને 'આંતરરાષ્ટ્રીય નેતા'
બનાવવાનું કામ કર્યું છે. પરવેઝને જે રીતે પબ્લીસીટી મળી છે તેનો યશ કે અપજશ અટલજીને
આપવો પડશે.</p>

<p>કાશ્મીરની સમસ્યા હલ કરવામાં
ભારત એક ઇંચ પ્રગતિ કરી શકયું નથી જયારે બીજી બાજુ પરવેઝ કડકાઈથી પોતાનો કેસ
દુનિયા સમક્શ અભિવ્યકત કરવામાં સફળ થયા છે.</p>

<p>લાગે છે કે પરવેઝને ભારત
બોલાવીને બાજપાઈ ફસાઈ ગયા છે.</p>

<p>ડીપ્લોમસીના ટેબલ પર ભારતના
નેતાઓ હંમેશાં છેતરાતા આવ્યા છે. સૈનિકો જે જીતે છે તે રાજકારણીઓ ટેબલ પર હારી
જાય છે.</p>

<p>બાજપાઈ લાહોર ગયા ત્યારે
ભારતની પીઠ પાછળ ખંજર ભોંકનાર કારગીલ કાંડના ડીઝાઈનરોના દિલમાં દેખાતો બદલાવ
ભારતના ડિફેન્સ સ્ટડીઝના નિષ્ણાતો હજી માનવા તૈયાર નથી. ઇલેકટ્રોનિક મિડિયા પરનું કવરેજ
પરવેઝને 'હીરો' તરીકે દર્શાવી રહ્યું છે. પરંતુ સંરક્શણ બાબતોના નિષ્ણાત પાર્થસારથી
માને છે કે, ભારતે પાકિસ્તાનથી છેતરાવું જોઈએ નહીં. પાકિસ્તાન ભારતના હજાર લોહિયાળ
ટૂકડા કરવા સુધીની દુશ્મનાવટ ધરાવે છે.</p>

<p>બીજી બાજુ કાશ્મીરના પ્રશ્નનો
કોઈ ઉકેલ આવશે એવી આશા બંધાઈ છે. કાશ્મીરનો પ્રશ્ન ઉકલે કે ના ઉકલે અને
ભારતને કોઈ કોંક્રીટ ફાયદો થાય કે ના થાય પરંતુ પરવેઝ મુશર્રફને તો સો ટકા
ફાયદો થવાનો છે. ભારત જેવા ઉપખંડે જે રીતે તેમને મહત્વ આપ્યું છે તે રીતે
પાકિસ્તાનમાં ઘર આંગણે તેમને માઇલેજ મળશે. પરવેઝ પાકિસ્તાન પાછા ફરશે ત્યારે તેમની
લોકપ્રિયતામાં વધારો થશે. તેમના વિરોધીઓ અને રાજકિય પક્શો થોડો સમય
મૌન થઈ જશે. ભારતે પરવેઝની લશ્કરી તો લશ્કરી પણ નેતાગીરને માન્ય કરી આપવાનું કામ
કરી આપ્યું છે.</p>

<p>કાશ્મીરના પ્રશ્નનો કોઈ ચોક્કસ
ઉકેલ ના આવે તો પણ પરવેઝે પાકિસ્તાનને બીજો એક ફાયદો એ કરી આપ્યો છે કે
કાશ્મીરનો પ્રશ્ન પાકિસ્તાનની મદદ વીના ઉકલી શકે તેમ નથી એવું ભારતે હવે સ્વીકારી લીધું
છે. ભારતના જ કાશ્મીર વિષે પાકિસ્તાન સાથે ચર્ચા કરવી પડે તે ભારતની મજબૂરી છે અને
બાજપાઈજીની પરવેઝ સાથેની મંત્રણાથી આ વાત સિદ્ધ થાય છે.</p>

<p>પાકિસ્તાનના લશ્કરી નેતા
સિવિલયન વસ્ત્રો પહેરવાથી બદલાઈ ગયા છે એમ સ્વીકારવા ભારતના ડિફેન્સ નિષ્ણાતો તૈયાર
નથી.</p>

<p>વળી અમેરિકામાં અમેરિકાના
પ્રેસીડેન્ટ જાણતા જ ના હોય અને તેની ગુપ્તચર સંસ્થા સીઆઈએ જુદા જુદાં કાવત્રા કરે છે
તેવી જ શરારતો પાકિસ્તાનની ગુપ્તચર સંસ્થા આઈએસઆઈ પણ કરે છે.</p>

<p>ભારતના વડાપ્રધાન અટલ
બિહારી બાજપાઈએ અચાનક પાક. પ્રમુખને કેમ ભારત બોલાવ્યા તેનું રહસ્ય હવે ધીમે
ધીમે પ્રગટ થવા માંડયું છે. રશિયા નબળું પડયા પછી ભારત ધીમે ધીમે
અમેરિકા તરફ ઢળવા માંડયું છે તેના અનુસંધાનમાં અમેરિકા એશિયામાં એક નવો જ
વર્લ્ડ ઓર્ડર સ્થાપવા માંગે છે. અમેરિકા અને ચીન વચ્ચે ભલે વ્યાપારીક સંબંધો છે
અને કિલન્ટનના સમયમાં અમેરિકાએ ચીનને 'મોસ્ટ ફેવર્ડ નેશન' તરીકેનો દરજ્જો આપ્યો
હતો પરંતુ ચીનની વિકસતી જતી તાકાતથી અમેરિકા ચિંતીત બને. એશિયામાં પાકિસ્તાનને તે
ચીન તરફે ઢળી જવા દેવા માંગતું નથી. ભારત એક અબજની વસ્તીવાળો એક મોટો લોક તાંત્રિક
દેશ છે અને તે સામ્યવાદી ચીન સાથે કદિ બેસશે નહીં એવી ધારણાથી ભારત અને
પાકિસ્તાનને તે એક રાખવા માંગે છે. અમેરિકાને ખબર છે કે પાકિસ્તાનમાં અમેરિકી લશ્કરી
થાણાં હોવા છતાં ભારત સાથેની દુશ્મનાવટ પાર પાડવા માટે પાકિસ્તાન ચીનના ખોળામાં
બેસી જાય છે. આ પરિસ્થિતિને ટાળવા માટે અમેરિકાએ ભારત-પાકિસ્તાનને મંત્રણાના ટેબલ પર
આવવા દબાણ કર્યું હોવાનું મનાય છે. અમેરિકા સમગ્ર વિશ્વમાં જે નવો વર્લ્ડ ઓર્ડર
સ્થાપવા માંગે છે તેનો આ એશિયાઈ એપિસોડ છે.</p>

<p>પરંતુ અમેરિકાની આ ચાલથી
ભારતને તો નુકશાન થયું છે.</p>

<p>એક બીજાના ભયથી એક માત્ર
સિયાચીન વિસ્તાર કે જે ભારતની સહુથી ઊંચી અને ગાત્રોને થીજવી દે તેવી બર્ફીલી સરહદ
છે ત્યાં લશ્કરને નિભાવવાનો રોજનો ખર્ચ રૂ. ૫ કરોડ આવે છે. સિયાચીન એક એવો
વિસ્તાર છે કે લશ્કરને રોજ ખાવાનું અને દારૂગોળો પહોંચાડવા હેલિકોપ્ટરની પાંચ
જેટલી ખેપ કરવી પડે છે. અને એક ખેપનું ખર્ચ રૂ. ૩૦ હજાર આવે છે. અહીં કાતીલ ઠંડી
હોવાથી લશ્કરી જવાનોને ચોકલેટ અને એવો બીજો હાઈ કેલેરીઝ ખોરાક આપવો પડે છે.
છેવટે સિયાચીનમાંથી માત્ર લશ્કર ઘટાડવાનો કે લશ્કર ખસેડી લેવા માટે બેઉ દેશો સંમત
થાય તો પણ ભારતના રોજના રૂ. ૫ કરોડ બચી શકે તેમ છે.</p>

<p>એવી જ રીતે જમ્મુ અને
કાશ્મીરમાં ભારતનું બે લાખ જવાનોનું સૈન્ય તૈનાત છે.</p>

<p>પાકિસ્તાનના મિડિયાનો એક
ભાગ એવો પણ છે કે જેણે મુખ્ય ખબરો કરતાં આડ વાતોને વધુ પ્રાધાન્ય આપ્યું છે.
દા.ત. ભારતના ચીફ એર માર્શલ એ. વાય. ટીપનીસે પાકિસ્તાનના પ્રેસીડેન્ટ પરવેઝ મુશર્રફને
સલામ ભરવાના બદલે માત્ર હસ્તધૂનન જ કર્યું હતું. દેખીતી રીતે જ આવો વ્યવહાર બાજપાઈજી
લાહોર ગયા ત્યારે પાકિસ્તાની લશ્કરે કર્યો હતો. આ વાતને પાક. મિડિયાએ મોટું સ્વરૂપ
આપ્યું છે. એવી રીતે ભારતમાં પાકિસ્તાનની હાઈ કમીશ્નરે યોજેલી ટી પાર્ટીને 'હીટ-ટી'
તરીકે વર્ણવી છે. પાકિસ્તાનના એક અખબારે લખ્યું છે કે ભારતની ઇચ્છા વિરૂદ્ધ જઈને પણ
પરવેઝ મુશર્રફ હુર્રિયતના નેતાઓને મળ્યા તે એક જબરદસ્ત સફળતા છે.</p>

<p>ભારતને ફળદાયી એવાં કોઇ
નક્કર પરિણામો આવે તેમ લાગતું નથી ત્યારે બેઉ નેતાઓ ગાલ પર લાફો મારીને રાતો
રાખી શકે તેવી ફેઇસ સેવીંગ ફોર્મ્યુલા શોધી રહ્યાં હોય એમ લાગે છે.</p>

<p>બાજપાઇજીએ હવે કવિતાઓ
લખવા માટે નિવૃત્ત થઇ જવાની જરૂર છે.</p>

<p><head>એક માતાનો મુશર્રફને ખુલ્લો
પત્ર</head></p>

<p><head>પરવેઝ, અમારા ઘેર આવો ને મારી
પૌત્રીની માફી માંગો</head></p>

<p>ડિયર જનરલ
મુશર્રફ,</p>

<p>અમારા દેશમાં
આપનું સ્વાગત છે. આ પત્ર એક દુ:ખીયારા માતા-પિતા તરફથી છે. મને સમજવા પ્રયત્ન
કરજો કારણ કે તમે અમને ગમે તેવી પરિસ્થિતિમાં અમે આવી શકીએ તેમ નથી. તમારા પ્રત્યે
ધિક્કારની લાગણી અનુભવતાં મને શરમ આવે છે. પરંતુ તમારા કારણે જેેેને પોતાનો
પુત્ર ગૂમાવવો પડયો હોય એવી કોઇપણ માને તમે નહીં ગમો.</p>

<p>કારગિલનું
યુદ્ધ તમે છેડયું હતું કે જેની જરૂર જ નહોતી. એ યુદ્ધના પરિણામે મેં મારો ૩૧ વર્ષનો
યુવાન પુત્ર ગૂમાવ્યો છે. તેની પાછળ અમે અને તેની પત્ની, તેની બહેનો અને એક દિકરી
એ બધાં અનાથ થઇ ગયાં છીએ.</p>

<p>તમે અમારી
આશાઓ અને અરમાનોનો વિનાશ કરી નાંખ્યો છે. તમારા દેશની કોઇ 'મા' રડતી હોય
તો તેને એક પુત્ર ગૂમાવનાર એવી મારી યાતનાઓની યાદ અપાવજો. એ વખતે એ માટે હું
એક માત્ર તમારી તરફ જ આંગળી કરીશ.</p>

<p>તમારા દેશની
કોઇ માનો પુત્ર યુદ્ધમાં માર્યો ગયો હશે તો એની હિંમત અને રાષ્ટ્રભક્તિ માટે એની
સાથે જ એ એની મર્દાનગીની અમે ઉજવણી કરીશું. એ બધું તમારી જ નેતાગીરીના કારણે હશે
એમ અમે સમજીશું.</p>

<p>યુદ્ધ પતી જાય
પછી હું મારા પુત્રને જોવા માંગતી હતી પરંતુ મને તો તેનો મૃતદેહ જ જોવા મળ્યો.</p>

<p>મારા
દિકરાઓમાંથી એક પુત્ર માર્યો ગયો છે પરંતુ એક ખાનગી વાત તમને હું કહી દઉં:
મારો બીજો એક દિકરો પણ છે તે અને તે ભારતીય આર્મીમાં છે. તે યુદ્ધ કરશે અને જરૂર
પડશે તો એના ભાઇની જેમ જ દેશ માટે બલિદાન આપશે.</p>

<p>મારે જો તમને
ફેઇસ-ટુ-ફેઇસ મળવાનું થશે તો હું તમને એક જ પ્રશ્ન પુછીશ કે ''તમે આટલા બધા
માણસોને શા માટે મારી નાંખ્યા? તમે તમારી મહત્વાકાંક્શા સંતોષવા માટે કેટલીય
માતાઓને પુત્રવિહોણા કરી નાંખ્યા છે, પત્નીઓને વિધવા બનાવી દીધી છે અને
બાળકોને અનાથ બનાવી દીધા છે.''</p>

<p>જો તમને જ
સાચે જ શાંતિ સ્થાપવામાં રસ હોય તો મારું એક નમ્ર સૂચન છે. આપ મારા ઘેર આવો
અને મારી નાનકડી પૌત્રી અપરાજિતાની માફી માંગો. તે હવે બે વર્ષની વયની છે. એણે
કદિયે એના પિતાને જોયા નથી.</p>

<p>ભારતમાં આપ
આવ્યા જ છો ત્યારે કારગિલ યુદ્ધમાં માર્યા ગયેલા એવા બીજા પરિવારોને પણ મળો કે
જેમના ભાઇઓ, પુત્રો, પતિઓ અને પિતાઓ એ યુદ્ધમાં મૃત્યુ પામ્યા છે.</p>

<p>આપ અમારી
યાતના સમજો એ જરૂરી છે. આપ ગમે તેટલી ઉત્કૃષ્ટ વ્યક્તિ હશો પણ મારા પુત્રના મોત માટે
પણ આપ જ જવાબદાર છો એ વાત હું કદિ નહીં ભૂલું. આપ મને ગમો એવી ફરજ પાડતા નહીં.
મારા પુત્રના મોતનો મને ખેદ નથી કે જેણે કારણ વગરના યુદ્ધમાં પોતાના જીવનનું બલિદાન
આપ્યું છે.</p>

<p>લિ. વિમલા
આચાર્ય</p>

<p>(મેજર પદ્મપાણી
આચાર્ય કારગિલ યુદ્ધમાં મૃત્યુ પામ્યા હતા તેમના માતા વિમલા આચાર્ય કે જેઓ હાલ
હૈદરાબાદમાં છે. તેમણે પરવેઝ મુશર્રફને લખેલો આ ખુલ્લો પત્ર છે.)</p>




<p><head>આગ્રા ફોર્ટથી પ્રભાવિત સેહબા
બોલી ઉઠ્યા : ''બહુત લાજવાબ''</head></p>

<p>આગ્રા, તા. ૧૬</p>

<p>પતિ મુશર્રફ શિખર મંત્રણામાં
વ્યસ્ત હતા ત્યારે પત્ની બેગમ સેહબા એક જમાનાના આ મોગલ પાટનગરની સ્થાપત્ય કળાના દર્શને
નીકળી પડ્યા હતા અને પોતાની આ નાનકડી સફર દરમ્યાન તેમણે આગ્રા ફોર્ટને જોઈને કહ્યું
હતું : 'બહુત લાજવાબ'</p>

<p>ફોર્ટના ખાસમહલમાથી
તાજમહલના સૌંદર્યનું પાન કરતાં કરતાં દંગ રહી ગયેલા બેગમે કહયું હતું કે કિલ્લા
બહુત લાજવાબ હૈ.</p>

<p>બેગમે સૌ પ્રથમ જહાંગીરી
મહેલની મુલાકાત લીધી હતી અને તેની કમાનો ઉપરના કોતરકામની જબરદસ્ત પ્રશંસા કરી
હતી. આ કોતરણીમાં રાજપૂતાના મોગલ કારીગરીનું પ્રતિબિંબ પડે છે. સમગ્ર દેશમાં માત્ર
આ ફોર્ટને જ વર્લ્ડ હેરિટેજની યાદીમાં સ્થાન મળેલું છે.</p>

<p>ખાસમહલના ઇસ્લામિક, પર્શિયન
આયામોથી બેગમ પ્રભાવિત થઈ ગયા હતા આખો મહેલ આરસનો બનાવેલો છે અને તેની બન્ને
તરફ સોનેરી મંડપો આવેલા છે.</p>

<p>લાઇટ કૉફી કલરના સલવાર
કમીઝમાં સજ્જ બેગમે તસ્વીર માટે પોઝ આપીને કેમેરામેનોને પણ ખુશ કર્યા હતા. બેગમ
શીશ મહલ, મચ્છી મહલ, દિવાને ખાસ, દિવાને આમની પણ બેગમે મુલાકાત લીધી હતી.
ગાઇડે આગ્રા ફોર્ટ તથા લાહોર ફોર્ટ વચ્ચેના સામ્ય તથા તફાવતની સમજૂતી પણ બેગમને
આપી હતી. </p>

<p>ફોર્ટમાં બેગમ અડધો
કલાક રોકાયા હતાં. તેમણે શહેનશાહ શાહજહાંને પોતાની દરબારી મહિલાઓ માટે બનાવેલી
અંગત મસ્જિદની મુલાકાત બેગમ લઈ શક્યા નહોતાં.</p>




<p><head>અયોધ્યા કેસમાં એસએલપી ફાઇલ
કરવા મંજૂરી મંગાઈ</head></p>

<p>નવી દિલ્હી, તા.૧૬</p>

<p>બાબરી મસ્જિદ ધ્વંસ કેસમાં
કેન્દ્રીય પ્રધાનો શ્રી એલ.કે. અડવાણી, મુરલી મનોહર જોશી, ઉમા ભારતી તથા બીજા
કેટલાકોને નિર્દોષ છોડી મુકતા અલ્હાબાદ હાઇકોર્ટની લખનૌ બેંચના હુકમને
પડકારવાની પરવાનગી માગતી અસલમ ભુટે નામની એક ખાનગી વ્યક્તિની અરજીને આધારે
સુપ્રિમ કોર્ટે આજે ઉત્તર પ્રદેશની સરકાર તથા સીબીઆઈને નોટીસો જારી કરી હતી.</p>

<p><head>ઉ.પ્ર. સરકાર તથા સીબીઆઈને
સુપ્રીમ કોર્ટની નોટીસ</head></p>

<p>જસ્ટીસ જી.બી. પટનાયક તથા
જસ્ટીસ રૂમા પાલની બનેલી ડિવિઝન બેંચે ઉત્તર પ્રદેશની સરકાર તથા સીબીઆઈ પાસેથી જવાબો
માંગ્યા છે કે હાઇકોર્ટના હુકમને પડકારનાર અસલમ ભુટેને વિશેષ રજા માગતી અરજી ફાઇલ
કરવાની પરવાનગી શા માટે ન આપવી જોઈએ.</p>

<p>શ્રી ભુટે આ કેસના પક્શકાર
નહોવાથી વિશેષ રજા માગતી અરજી ફાઇલ કરતાં પહેલાં પરવાનગી મેળવવી તેમના માટે
ફરજિયાત છે. શ્રી ભુટેના ધારાશાસ્ત્રી શ્રી ઓ.પી. શર્માએ આ અરજી ફાઇલ કરી છે.</p>




<p><head>અમરનાથ યાત્રીઓ પરના ઉગ્રવાદી
હુમલાને નિષ્ફળ બનાવાયો</head></p>

<p>શ્રીનગર, તા. ૧૬</p>

<p>સરહદ સલામતી દળે આજે ભારત
- પાક. શિખર મંત્રણાનો તખ્તો પલ્ટી નાંખવાના હેતુથી ઉગ્રવાદીઓ દ્વારા અમરનાથ યાત્રીઓ
પર હુમલો કરવા ઘડેલી યોજનાને નિષ્ફળ બનાવી હતી અને હરકત ઉલ અન્સારના બે
ઉગ્રવાદીઓની ધરપકડ કરી હતી. </p>

<p>બી.એસ.એફ.ના ડી.આઇ.જી.
બી.એન. કાબુએ પત્રકારોને જણાવ્યું હતું કે બે ઉગ્રવાદીઓ ભારત-પાક. શિખર મંત્રણાની
સમાપ્તિ થાય તે જ સમયે સિવિલ સેક્રેટરિયેટ ઉપર સ્કુટર બોંબથી હુમલો કરવાની અને
બી.એસ.એફ.ના વાડમથક સહિતના સલામતી મથકોને ઘેરી વળવાની યોજના ઘડી હતી. મિડીયાનું
ધ્યાન આકર્ષિત કરવા માટે ઉગ્રવાદીઓએ આ હુમલા કરવા વિચાર્યું હતું.</p>

<p>સલામતી દળોએ પાંચ કિલો
આર.ડી.એક્સ. ભરેલા એક સ્કુટર સહિત શસ્ત્રો અને દારૂગોળાનો એક જંગી જથ્થો પણ કબ્જે
કર્યો હતો. શ્રી કાબુએ કહ્યું હતું કે તાજમલ એહમદ રીશી ઉર્ફે તેજા અને મોહંમદ સલીમ
બેગ ઉર્ફે શોગા તરીકે ઓળખી કઢાયેલા આ ઉગ્રવાદીઓએ જણાવ્યું હતું કે, તેમના
સંગઠને હિઝબુલ મુજાહિદ્દીન અને લશ્કરે તોઇબા સાથે મળીને શ્રીનગરમાં નાના મોટા હુમલા
કરવા વિચાર્યું હતું.</p>

<p>તેઓએ છાનપોરા અને
રાવલપોરા વિસ્તારોમાં અને ખાસ કરીને સનતનગરમાં બી.એસ.એફ. વડામથક ઉપર આત્મઘાતી
હુમલા કરવાની યોજના પણ ઘડી હતી અને દાલ સરોવરના કાંઠા પરના બોલેવાર્ડ રોડ પર
સ્કુટર બોંબનો ધડાકો કરવાનું પણ વિચાર્યું હતું.</p>

<p>તેમણે જણાવ્યું હતું કે
બી.એસ.એફ.ના માણસોને એવી સ્પષ્ટ માહિતી મળી હતી કે ગઈકાલે શ્રીનગરના બુચવાડા
વિસ્તારમાં મળ્યા હતા ત્યારબાદ ઉગ્રવાદીઓના છુપાવાના સ્થળોએ પાડેલા દરોડા બાદ
ઉપરોક્ત ધરપકડો કરાઈ હતી.</p>




<p><head>પાક. માટે કાશ્મીર હંમેશા
'મુખ્ય મુદ્દો' હતો, છે અને રહેશે : મુશર્રફ</head></p>

<p><head>પાક.ની પ્રજાને ભારત સરકાર ઉપર સહેજ
પણ વિશ્વાસ નથી</head></p>

<p><head>વાજપેયીએ આમંત્રણ આપી પ્રથમ
પગલું ઉપાડયું છે, બીજા પગલાં તરીકે ભારતે કાશ્મીરનો 'મુદ્દો' છે એમ સ્વિકાર કરવો
રહ્યો અને ત્રીજા પગલા તરીકે રચનાત્મક ત્રિપક્શી મંત્રણા કરવી</head></p>

<p><head>ભારતીય યુદ્ધ કેદીઓ વિશે હું
અંગત રીતે તપાસ કરીશ</head></p>

<p><head>- તો મારે નહેરવાલી હવેલી
ખરીદી લઈ અહીં જ સ્થાયી થઈ જવું જોઈએ</head></p>

<p>આગ્રા, તા. ૧૬</p>

<p>વર્ષો જૂની મડાગાંઠને
ઉકેલવા આગ્રા ખાતેની શિખર મંત્રણામાં ભારત - પાકિસ્તાને ગઈકાલે આખી રાત ચર્ચાઓ અને
વાટાઘાટો કરી હતી અને આજે સવારે પાકિસ્તાનના પ્રમુખ પરવેઝ મુશર્રફે એવી સ્પષ્ટતા કરી
હતી કે આ મંત્રણામાં કાશ્મીર જ 'મુખ્ય મુદ્દો' છે જેની ઉપેક્શા થવાની પાકિસ્તાન અનુમતી
આપી શકે નહિ. જો કે તે સાથે તેમણે અન્ય મુદ્દાઓની સાથે સાથે આ મુદ્દાની પણ ચર્ચા
કરવાની ઇચ્છા વ્યક્ત કરી હતી.</p>

<p>આજે સવારે અહીંની અમરવિલાસ
હૉટલ ખાતેના તેમના તરફથી ભારતના તંત્રીઓ માટે યોજેલી નાસ્તા પાર્ટીમાં પાકિસ્તાનના
લશ્કરી શાસક ખૂબ જ અક્કડ અને પોતાના વલણમાં ખૂબ જ મક્કમ જણાતા હતાં તે સાથે તેમણે એમ
પણ કહ્યું હતું કે પાકિસ્તાને ભારત સાથે રાજદ્વારી વિકલ્પના દરવાજા ક્યારેય બંધ કર્યા
નહોતા અને તેમને તેમના રાજદ્વારી સલાહકારોએ પણ રાજદ્વારી વિકલ્પના દરવાજા ક્યારેય
બંધ ન કરવાની જ સલાહ આપી હતી.</p>

<p>મુશર્રફે સ્પષ્ટચા કરી હતી કે
પાકિસ્તાન ભવિષ્યની વાટાઘાટો માટે નિશ્ચિત સમયમર્યાદાવાળી રચનાત્મક મંત્રણા થાય એમ ઇચ્છી
રહ્યું છે અને જો કાશ્મીર મુખ્ય મુદદો છે એમ સ્વીકારવામાં આવે તો તે અન્ય મુદ્દાઓની
પણ ચર્ચા કરવા ઇચ્છે છે.</p>

<p>જનરલ મુશર્રફે કહ્યું હતું
કે, બંને દેશોના અધિકારીઓએ ગઈકાલે વહેલી પરોઢના ૪-૦૦ વાગ્યા સુધી
વાટાઘાટો કરી હતી જેમાં ઘણી બાબતો ઉપર નિર્ણય લેવાનો બાકી છે અને હું અને
વાજપેયી આ અંગે નિર્ણય લઈ શકીએ તેમ છીએ.</p>

<p>ગઈકાલે મધ્યરાત્રિએ
પાકિસ્તાને એવું નિવેદન કર્યુ હતું કે, જો કાશ્મીર મુદ્દાનો ઉકેલ ન લાવવામાં આવે તો
સંબંધો સામાન્ય કરવાની દિશામાં કંઈ પ્રગતિ થઈ શકે નહી. આ નિવેદનથી શિખર
મંત્રણાનું સમગ્ર વાતાવરણ ડહોળાઈ ગયું હતું. મુશર્રફનું નિવેદન વાજપેયી સાથેની મીટીંગ
પહેલાં આવ્યું હતું. આ નિવેદનના પગલે જ આજે કેટલાક પસંદ કરાયેલા તંત્રીઓ સાથે
બેઠક યોજવામાં આવી હતી. ગઈકાલે માહિતી અને પ્રસારણ મંત્રી સુષ્મા સ્વરાજે પત્રકાર
પરિષદને સંબોધતા એમ કહ્યું હતું હતું કે શિખર મંત્રણામાં પરમાણુ શસ્ત્રો,
સરહદ પારના ત્રાસવાદ, વેપાર અને યુદ્ધના કેદીઓ જેવા મુદ્દાઓ ઉપર ચર્ચા થઈ હતી. તેમણે
કાશ્મીરના મુદ્દા વિશે એક પણ શબ્દ ઉચ્ચાર્યો નહોતો જેથી ધુંધવાઈ ગયેલા
પાકિસ્તાને એક જબરદસ્ત તીખી પ્રતિક્રિયા આપવા આ સ્ફોટક નિવેદન કર્યું હતું.</p>

<p>સૂત્રોએ કહ્યું હતું કે,
બંને દેશો ઉપરના મતભેદો ચાલુ જ રહેવા પામ્યા હતા કેમ કે પાકિસ્તાનનો સતત એવો
આગ્રહ છે કે ભારત કાશ્મીરને એક 'વિવાદ' તરીકે સ્વીકારે જ્યારે ભારતનો આગ્રહ હતો કે
કાશ્મીર ભારતનો અખંડ હિસ્સો છે છતાં સરહદ પારના ત્રાસવાદ અને અન્ય મુદ્દાઓ ઉપર પણ
ચર્ચા થઈ શકે છે. એમ તેમણે ઉમેર્યું હતું.</p>

<p>મુશર્રફે કહ્યું હતું કે જો
ભારતને કાશ્મીરની માટે 'વિવાદ' શબ્દ ઉપયોગ કરવાની ચીઢ ચઢતી હોય તો કાશ્મીરને
'મુદ્દો' ગણવામાં આવે તો પણ તેમને કોઈ વાંધો નથી. મંત્રણા કોઈ ફળદાયી
પરિણામ લાવી શકશે એવી તમને આશા છે ? એવા પ્રશ્નનો સીધો ઉત્તર આપવાનો તેમણે
ઇન્કાર કર્યો હતો અને કહ્યું હતું કે કાંઈ પણ કહેવું કવેળાનું કહેવાશે છતાં તેમણે
આશા છોડી નથી.</p>

<p>એક તબક્કે તેમણે એમ પણ
કહ્યું હતું કે, વાજપેયી સાથેની તેમની વાટાઘાટો ફળદાયી રહી હતી અને તેથી જ તેમની
સાથે ભવિષ્યમાં પણ વાટાઘાટો ચાલુ રહે તેવી એમને આશા છે. તેમણે કહ્યું હતું કે જો
બંને દેશો પોતાનું જક્કી વલણ પકડી રાખશે તો એક ડગલું પણ આગળ વધી શકાય નહિ
તેમણે કહ્યું હતું કે કાશ્મીર સિવાય અન્ય મુદ્દાઓ ઉપર ચર્ચા નહિ કરવાનું અગાઉ ક્યારેય
કહ્યું નથી છતાં મારી તમને વિનંતી છે કે તમે સમજો કે આ મંત્રણામાં કાશ્મીર એ 'મુખ્ય
મુદ્દો' છે.</p>

<p>ભારત પાકિસ્તાન વચ્ચેના
સંબંધોમાં કડવાશ પેદા કરવામાં કાશ્મીર કોઈ પણ રીતે કારણભૂત નથી એમ વારંવાર
ભારપૂર્વક ઉલ્લેખ કરતા તેમણે કહ્યું હતું કે, આ સોનેરી તકને ઝડપી લેવાનો (નહિ કે
તેને વેેેડફી દેવાનો) સમય પાકી ગયો છે. જો કાશ્મીરના મુદ્દે ભારતની કેટલીક
મજબૂરીઓ છે તો પાકિસ્તાનને પણ આ મુદ્દે કેટલીક લાચારીઓ છે. જો ભારતની એવી
અપેક્શા હોય કે હું કાશ્મીર મુદ્દાની ઉપેક્શા કરૂં તો પછી મારે નહેરવાલી હવેલી ખરીદી
લઈ મારા બાપ-દાદાઓના મકાનમાં અહીં જ સ્થાયી થઈ જવું જોઈએ. મુશર્રફે કાશ્મીરના મુદ્દે
એક-એક ડગલું આગળ વધવાના અભિગમની તરફેણ કરી હતી. જે પૈકીનું પ્રથમ પગલું
અટલબિહારી વાજપેયીએ મને આમંત્રણ ઉપાડવાનું લીધું છે. </p>

<p>બીજા ડગલાં તરીકે ભારતે
કાશ્મીરને એક મુદ્દા તરીકે સ્વીકાર કરવો રહ્યો અને ત્યારબાદ ત્રીજા ડગલા તરીકે એક
નિશ્ચિત સમયમર્યાદાવાળી અને રચનાત્મક માળખું ધરાવતી મંત્રણાની પ્રક્રિયામાં જ આગળ
વધી શકાય જેમાં કાશ્મીરના લોકો (હુર્રિયત)ની સામેલગીરી જરૂરી છે.</p>

<p>કાશ્મીરની પરિસ્થિતિને
'સ્વતંત્રતાની સ્વદેશી ચળવળ' સાથે સરખાવતા પાકિસ્તાનના પ્રમુખે કહ્યું હતું કે, આ મુદ્દો
યુ.એન.ના એ ઠરાવ મુજબ ઉકેલાવો જોઈએ જેમાં કાશ્મીરના લોકોને આત્મનિર્ણય લેવાનો
અધિકાર આપવામાં આવ્યો છે.</p>

<p>ભારત - પાકિસ્તાન વચ્ચેની
મંત્રણામાં આ તબક્કે કાશ્મીરના લોકોને સામેલ કરવાની જરૂર નથી છતાં તેઓની સામેલગીરી
વિના આ મુદ્દો ઉકેલી શકાય પણ નહી. કાશ્મીરમાં હિંસા બંધ કરવાની પાકિસ્તાન કોઈ
ખાતરી આપી શકે છે એવા પ્રશ્નનો ઉત્તર તેમણે એમ કહી ઉડાવી દીધો હતો કે તેમાં
પાકિસ્તાનનો કોઈ હાથ નથી. પાકિસ્તાની જેલોમાં સબડતા ભારતના યુદ્ધ કેદીઓ અંગેના
પ્રશ્નના ઉત્તરમાં તેમણે કહ્યું હતું કે તેમણે વાજપેયીને અંગત રીતે એવી ખાતરી આપી હતી
કે તે વ્યક્તિગત રીતે આ બાબતમાં તપાસ કરશે અને છતાં કોઈ ભારતીય યુદ્ધ કેદી રહી ગયેલો
જણાશે તો તે ઘણું જ દુ:ખદ કહેવાશે.</p>

<p>માહિતી અને પ્રસારણ મંત્રી
સુષ્મા સ્વરાજના નિવેદનથી ઉશ્કેરાયેલા મુશર્રફે કહ્યું હતું કે મેં તેમને ટેલિવિઝન ઉપર
પત્રકાર પરિષદને સંબોધતા જોયા હતા. તેમણે બધા મુદ્દાની વાત કરી પરંતુ
કાશ્મીર વિશે હરફ પણ ઉચ્ચાર્યો નહોતો જ્યારે વાજપેયી સાથે યોજાયેલી મારી મીટીંગનો
મોટો ભાગ કાશ્મીર મુદ્દાની ચર્ચા ઉપર જ છવાઈ ગયો હતો.પાકિસ્તાનના લોકોને ભારત
સરકાર ઉપર સહેજ પણ વિશ્વાસ નથી એમ ભારપૂર્વક કહેતાં તેમણે ઉમેર્યું કે પાકિસ્તાનની પ્રજાને
એવી શંકા છે કે કાશ્મીરને મુખ્ય મુદ્દો ગણવાના નવી દિલ્હીના ઈન્કાર પાછળ ચોક્કસ કોઈ
યોજના હોવી જોઈએ. પાકિસ્તાનમાં હાલમાં એવી શંકા પ્રવર્તી રહી છે કે, ભારતે અમને
બીજા મુદ્દાઓ ઉપર વાળી દીધા છે.ભારતમાં તમને કારગિલ કાંડના ઘડવૈયા ગણવામાં
આવે છે એમ કહેતા તેમણે ખુલાસો કર્યો હતો કે ભારતનું એક વલણ છે કારગિલને આગળ
ધરી અટકી જવું પરંતુ ૧૯૭૧ના બાંગ્લાદેશના યુદ્ધ વખતે અને ભારતીય લશ્કરે
સિયાચીનમાં ઘૂસણખોરી કરી ત્યારે કેટલું લોહી વહ્યું તે તમે જાણો છો. ભૂતકાળ ભૂલી
જાવ અને આગળ વધો.</p>




<p><head>શિખર મંત્રણામાં કાશ્મીર પ્રશ્ને
ઉત્તેજક સમાચારના અભાવે</head></p>

<p><head>નવી લેવાલીની ગેરહાજરીમાં
ભાવાંકમાં ૫૦ પોઇન્ટની ટૂંકી વધઘટ</head></p>

<p>અમદાવાદ, સોમવાર</p>

<p>યુએસ-૬૪ સ્કીમમાંથી નાના
ઇન્વેસ્ટરોને ૧લી ઓગસ્ટથી મોકળા થવાનો માર્ગ કરી અપાયાની યોજનાની જાહેરાત થઈ
હોવા છતાં આજે બીએસઈ અને એનએસઈ શેરબજારમાં કોઈ ખાસ અસર વર્તાઈ નહોતી.</p>

<p><head>લિકવીડિટી- વોલ્યુમમાં
ઘટાડાએ દલાલો ચિંતિત : નેસ્લે- ટિસ્કો- એસીસીમાં સુધારો : નીટ રૂ.
૩૦૦ અંદર ગયો</head></p>

<p>બજાર ટકેલ ટોને ખુલ્યા બાદ
સંસ્થાઓની લેવાલી વધશે તેવા આશાવાદે ઓપરેટરોની થોડીક લેવાલી નીકળી હતી.
જૂની અને નવી ઇકોનોમીના શેરોમાં મીશ્ર પ્રકારની વધઘટ જોવા મળી હતી. શુક્રવારે
ઘટાડો જોવાયા બાદ આજે નેસ્લે, એસીસી, ભેલમાં સુધારો હતો.</p>

<p>જયારે રિલાયન્સ, રૈનબક્શી,
રિલાયન્સ પેટ્રો, ગ્લેકસો, મહિન્દ્રામાં નરમાઈ હતી.</p>

<p>ઇન્ડો-પાક શિખર મંત્રણામાં
આજે કાશ્મીર અંગે કોઈ ઉત્તેજક સમાચાર કે જાહેરાત નહિ આવતાં ખેલાડીઓને નવા
કામકાજમાં ખાસ રસ ન્હોતો.</p>

<p>બીજી બાજુ રોલિંગ સેટલમેન્ટ
દાખલ થયા બાદ લિકવીડીટી અને વોલ્યુમમાં મોટો ઘટાડો થવાથી શેરદલાલોની ચિંતામાં
વધારો થયો છે. આના કારણે બજારમાં નવા મોટા કામકાજનો અભાવ હતો.</p>

<p>બીએસઈ-૩૦ ભાવાંક આજે ૩૪૭૮
અને ૩૪૨૮ વચ્ચે ૫૦ પોઇન્ટની વધઘટમાં અથડાઇ છેલ્લે ૩૪૩૫ના મથાળે બંધ રહ્યો
હતો. જે આગલા બંધ ૩૪૫૪ની સરખામણીમાં ૧૯ પોઇન્ટનો ઘટાડો દર્શાવે છે.</p>

<p>જયારે નીફટી ભાવાંક ૧૧૧૦
ખુલી વધી ૧૧૧૯ થઈ છેલ્લે ૧૧૦૨ થવા બાદ પાંચ પોઇન્ટ ઘટીને ૧૧૧૭ના મથાળે
બંધ રહ્યો હતો.</p>

<p>બોલ્ટમાં ટર્નઓવર ઘટીને રૂ.
૮૨૬.૭૧ કરોડનું રહ્યું હતું. એનએસઈ ખાતે કુલ્લે રૂ. ૧૨૯૮.૭૧ કરોડનું ટર્ન ઓવર
હતું જેમાં ૪,૫૪,૮૯૬ ટ્રેડમાં ૫૯૮.૫૩ લાખ શેરોના કામકાજ થયા હતા. કુલ માર્કેટ
કેપીટાલાઈઝેશન રૂ. ૫,૯૨,૪૦૩ કરોડનું થયું હતું.</p>

<p>એનએસઈ ખાતે ૪૯૬ શેરોમાં
સુધારો હતો અને ૪૨૬ શેરોમાં ઘટાડો હતો. જયારે ૮૦ શેરો ફેરફાર વગર રહ્યા
હતા. ૨૩ શેરોમાં આજે પ્રાઈસ બેન્ડ લાગુ થયું હતું.</p>

<p>બીએસઈ ખાતે ૫૨૪ શેરોમાં
સુધારો હતો અને ૫૦૦ શેરોમાં ઘટાડો જોવા મળ્યો હતો.</p>




<p><head>અટલ ઇલેવન વિરૂદ્ધ પરવેઝ ઇલેવન</head></p>

<p><head>તાજમહેલના મેદાન ઉપર ખેલાયેલી
ભારત-પાક. વચ્ચેની ત્રણ દિવસીય મેચની હાઇલાઇટ્સ</head></p>

<p>મોટા ભાગે ત્રણ દિવસની
ફ્રેન્ડલી મેચોના પરિણામો આવતા નથી અને આવી મેચો ડ્રોમાં જ પરિણમે છે. બરાબર એ
જ રીતે કેપ્ટન અટલબિહારી વાજપેયીના નેતૃત્વ વાળી ભારતીય ટીમ હાલ પાકિસ્તાનની કેપ્ટન
જનરલ પરવેઝ મુશર્રફની કેપ્ટનશીપ હેઠળની ટીમ સાથે તાજમહેલના મેદાન ઉપર ખેલી રહી છે.
મેચ જે મહદ્અંશે ડ્રોમાં પરિણમે એવી શક્યતા જણાય છે. બંને ટીમોના કેપ્ટનો અને
૧૧-૧૧ ખેલાડીઓ આ મુજબ છે.</p>

<p><head>ભારતની ટીમ</head></p>

<p>* કેપ્ટન: અટલબિહારી
વાજપેયી ફીઝકલ ફીટનેશ અંગે શંકાસ્પદ અને જેમની સમક્શ હાલ કોઈ વિકલ્પ જણાતો નથી. ખૂબ
જ ઓછું બોલતા આ કેપ્ટન અન્ય ખેલાડીઓ જ અપીલ કરે એમ ઇચ્છે છે.</p>

<p>* વાઇસ કેપ્ટન: એલ.કે.
અડવાણી કાશ્મીર મુદ્દે જેમની આક્રમક રણનીતિનો કોઈ સ્વિકાર કરતા નથી.</p>

<p>* વિકેટકિપર-બેટસમેન:
જશવંતસિંઘ- જ્યારે નીતિની વાત આવે છે ત્યારે પ્રથમ ક્રમે બેટીંગ કરે છે પરંતુ ભાગ્યે જ
કોઈ વાર વધુ સ્કોર નોંધાવે છે.</p>

<p>* ફાસ્ટ બોલર બ્રજેશ
મિશ્રા: માથુ તોડી નાંખે એવા બાઉન્સર ફેંકતા આ ફાસ્ટ બોલર જો પાકિસ્તાન એક ઇંચ
જમીન માંગે તો તે સોદાબાજીમાં બે ઇંચ જમીન પડાવી લેવામાં માને છે. તે
વડાપ્રધાનના સલાહકારની ભૂમિકા ભજવે છે.</p>

<p>* ચોકીલા ઐયર: વિદેશ
સચિવ: હરિફ ટીમ માટે આશ્ચર્યમાં મૂકી દે એવા આ ખેલાડી હળવે રહીને શિકાર કરી
શકે છે.</p>

<p>* વિજય નાંબિયાર:
પાકિસ્તાન ખાતેના ભારતીય રાજદૂત: અત્યંત બુદ્ધિશાળી એવા અધિકારી ઠંડા પાણીએ
ખસ કાઢી નાંખવાની ક્શમતા ધરાવે છે.</p>

<p>* વિવેક કાત્જુ: સંયુક્ત
સચિવ: વારંવાર જેમને શકરાબાજ જેવા અધિકારી ગણવામાં આવે છે તે
વિરોધી ટીમના ખેલાડીઓનું વિશ્લેષણ કરવામાં માહિર છે.</p>

<p>* પી.એસ. રાઘવન:
પીએમઓમાં સંયુક્ત સચિવ: ઝડપથી નિર્ણય લેવાની ધરખમ ક્શમતા ધરાવતો આ
ખેલાડી ગમે ત્યારે ભારતની મદદે દોડી આવે એવો છે.</p>

<p>* યશવંત સિંહા:
નાણામંત્રી: આ મેચને કાશ્મીરથી પેલેપાર લઈ જવામાં કેપ્ટનના પ્રયાસોના એક ભાગરૂપ
ખેલાડી.</p>

<p>* મુરાસોલી મારન:
વાણિજ્ય મંત્રી: જ્યારે બેટીંગમાં સિંહા નિષ્ફળ જાય ત્યારે રમતને આગળ ધપાવી શકે
છે.</p>

<p>* નિરૂપમા રાવ: વિદેશ
મંત્રાલયના પ્રવક્તા હરિફ ટીમના બોલરોના મોટાભાગના ગુગલી બોલનો સામનો કરવાની
ક્શમતા ધરાવતો ખેલાડી.</p>

<p><head>પાકિસ્તાનની ટીમ</head></p>

<p>કેપ્ટન: જનરલ પરવેઝ
મુશર્રફ: શક્તિના ઘોડાપુરથી થનગનતા આ કેપ્ટનની ફીઝીકલ ફિટનેશની કોઈ ચિંતા નથી.
લશ્કરનું નેતૃત્વ કરી શકે છે પરંતુ તેમની ઇચ્છા પ્રમાણેના દેશભક્ત બની શકશે ખરા?</p>

<p>વાઇસ કેપ્ટન: અબ્દુલ
સત્તાર: વિદેશમંત્રી બ્રિજેશ મિશ્રા સમકક્શ પાકિસ્તાનના શકરાબાજ શિમલા કરાર થયા
ત્યારથી આજદિન સુધી બંને દેશો વચ્ચે થયેલા કરારમાં તેમની નિશ્ચિત ભૂમિકા રહી
છે.</p>

<p>વિકેટકિપર: ઇનામૂલ
હક: વિદેશ સચિવ: સત્તારના સાચા મદદનીશ. મીતભાષી જણાતા આ અધિકારી
કોઈથી પણ છેતરાય તેમ નથી. તેમના કેપ્ટન જેટલી મજબુતાઈથી બેટીંગ કરી શકે છે એટલી જ
મજબૂતાઈથી તે પણ બેટીંગ કરી શકે છે.</p>

<p>અસરફ જહાંગીર કાઝી:
ભારત ખાતેના પાક. એલચી: પઠાણી કારકિર્દી ધરાવતા આ અધિકારી વારંવાર
ટી.વી. સ્ટુડિયો અને સમાચારોમાં સતત પાકિસ્તાનનો બચાવ કરતા જોવા મળે છે.</p>

<p>જલાલ અબ્બાસ જીલાની: નાયબ
હાઇકમિશ્નર મગજ ઉપર બરફ મૂકીને બેટીંગ કરવામાં જાણીતા ખેલાડી. હરિફ ટીમના ડ્રેસીંગ રૂમમાં
પણ લોકપ્રિય ખેલાડી</p>

<p>રશીદ કુરેશી:
પ્રવકતા: ભારતને પછાડવામાં ભાગ્યે જ કોઈ તક ચૂકી જતો ખેલાડી</p>

<p>ગુલામ અહેમદ મલિક: ચીફ
ઓફ ધ સ્ટાફ ટીમ વતી હુમલો અને આક્રમણ કરવામાં જાણીતો ધૂંઆધાર ફટકાબાજ
ખેલાડી. આઈએસઆઈના ભૂતપૂર્વ વડા હોઈ ભારતની પ્રત્યેક ખાનગી બાબતોથી વાકેફ.</p>

<p>કામરાન નિયાઝ: એડીશનલ
સેક્રેટરી: જો તેમના બોસ ગબડી પડે તો તાત્કાલિક વ્હારે દોડી જતો ખેલાડી.</p>

<p>અનવર મહેમૂદ: માહિતી પ્રસારણ
સચિવ: ટીમનો સ્પિન ડૉક્ટર. પાકિસ્તાન બ્રોડકાસ્ટીંગ કોર્પોરેશનના એક વખતના
અધ્યક્શ</p>

<p>નદીમ તાજ: લશ્કરી
સચિવ:</p>

<p>મોહમંદ સાદિક:
ડાયરેક્ટર (કાશ્મીર) કાશ્મીર બાબતોના નિષ્ણાત આ બંને ખેલાડીઓ ગમે તેવો હાર્ડ બોલ
રમી શકે છે.</p>




<p><head>ભરત શાહનો એન્જિયોગ્રામ ટેસ્ટ
લીલાવતી હોસ્પિટલમાં કરાયો</head></p>

<p><head>હ્ય્દય રોગને લાગતી ફરિયાદ,
ઉપરાંત ઘુંટણના સાંધાનો દુખાવો તથા હાઇ બ્લડ પ્રેશરથી તેઓ પીડાય છે</head></p>

<p>મુંબઇ, તા. ૧૬</p>

<p>જંજીરોમાં ઝકડાયેલા ફિલ્મ
ફાઇનાન્સર ભરત શાહને આજે એન્જિયોગ્રામ ટેસ્ટ માટે અહીની લીલાવતી હોસ્પિટલમાં દાખલ
કરવામાં આવ્યા હતા જ્યારે એ સમયે મુંબઇ વડી અદાલત તેની જામીન અરજી અને કોર્ટ
રીસીવરને રૂ. ૪.૫ કરોડ ચુકવી દેવા તેને નીચલી અદાલતે કરેલા હુકમ સામેની અપીલ પરની
દલીલો સાંભળી હતી.અદાલતે આપેલા આદેશને અનુલક્શીને સલામતીના કડક બંદોબસ્ત વચ્ચે
તેને થાણે જેલમાંથી હોસ્પિટલ ખાતે લાવવામાં આવ્યા હતા.</p>

<p>શાહને આરોગ્યને લગતા ઘણા
પ્રશ્નો ઉભા થયા જેમાં હ્ય્દયરોગને લગતી ફરીયાદ, ઘૂંટણના સાંધાનો દુખાવાનો પણ
સમાવેશ થાય છે તે હાઇ બ્લડ પ્રેસર અને બેચેનીની લાગણી અનુભવાતી હોવાની ફરીયાદ છે,
એમ શાહની સારવાર કરતા કાર્ડીયોલોજીસ્ટ ડો. હેમંતકુમારે જણાવ્યું હતું.</p>

<p>તબીબોની એક ટુકડીએ શાહની
તપાસ કરી હતી. તબીબી પરીક્શણો આજે શરૂ થયા હતા અને તેના રીપોર્ટ આવતી કાલે
ઉપલબ્ધ કરાશે.</p>

<p>સરકારની માલિકીની જે.જે.
હોસ્પિટલ પુરતી સાધન સજ્જ નથી એવું કારણ આપીને આ પહેલાં શાહે એન્જિયોગ્રામ
ટેસ્ટ લેવા દેવાની ના પાડી હતી.</p>

<p>ખાનગી હોસ્પિટલમાં
એન્જિયોગ્રામ ટેસ્ટ લેવા દેવાની શાહની વિનંતી ખાસ અદાલતે માન્ય રાખી હતી. આમ છતાં
અદાલતે સરકારી ડોક્ટરોની પેનલને તેમની તબીબી ચકાસણી પર દેખરેખ રાખવા જણાવ્યું હતું
અને મહિનાના અંત સુધીમાં પોતાનો રીપોર્ટ સુપ્રત કરવા કહ્યું હતું.</p>

<p>ભૂગર્ભ માફીયા છોટા શકીલ
સાથેની તેની કહેવાતી સાઠગાંઠ માટે ભરત શાહની મકોકા હેઠળ અટકાયત કરવામાં આવી છે.
પોલીસે તેમની વચ્ચેની ફોન પરની વાતચીત રેકર્ડ કર્યાનો દાવો કર્યો છે જેના પરથી
એમ જાણવા મળ્યું કે, ફિલ્મ ચોરી ચોરી ચૂપકે ચૂપકે માટે ભૂગર્ભ ટોળકીએ નાણાં
ધીર્યા છે આમ છતાં શાહે દાવો કર્યો છે કે આ ફિલ્મના સર્જન માટે તેણે નાણાં
પુરાં પાડયાં છે.</p>

<p>આજે વડી અદાલતમાં શાહની
જામીન અરજી પરની દલીલો અધુરી રહી હતી તેના ધારાશાસ્ત્રી કપીલ સીબલે કહ્યું હતું
કે ફિલ્મી દુનિયાના કેટલાયે મહાનુભાવોએ પાકિસ્તાન સ્થીત ગેંગસ્ટર છોટા શકીલ સાથે
ફોન પર વાતચીત કરી છે પણ પોલીસે અગમ્ય કારણોસર ભરત શાહને અલગ તારવ્યો છે.</p>

<p>પોલીસે પુરી પાડેલી
ટેલીફોન પરની વાતચીતની ૫૮ નકલોનો ઉલ્લેખ કરતાં શાહના ધારાશાસ્ત્રીએ કહ્યું
હતું કે સંજય દત્ત, મહેશ માંજરેકર, સંજય ગુપ્તા, અને હરેશ સુગંધ સહીતના ફિલ્મી
દુનિયાના મહાનુભાવોએ છોટા શકીલ સાથે વાતચીત કરી છે છતાં પોલીસે ન તો તેમની
ધરપકડ કરી છે કે નતો તેમને બોલીવુડ- અંડર વર્લ્ડ વચ્ચેની સાઠગાંઠના કેસમાં
આરોપી બનાવ્યા છે.</p>

<p>પોલીસે જપ્ત કરેલી ફિલ્મ
ચોચોચુચુના વિતરકો પાસેથી પોતાને મળેલા રૂ. ૪.૭૫ કરોડ પરના નીચલી અદાલતના
હુકમથી સુધારવા માટે શાહે પોતાની અપીલમાં રજુઆત કરી છે.</p>

<p>શાહે સ્પેશ્યલ કોર્ટના એ
હુકમને અપીલમાં પડકાર્યો છે જે દ્વારા અદાલતે તેને રૂ. ૪.૭૫૫ કરોડ કોર્ટ રિસીવરને
આપી દેવાનો હુકમ કર્યો છે.</p>

<p>શાહના ધારાશાસ્ત્રી કપીલ
સીખલે કહ્યું હતું કે આ ફિલ્મનું જ્યારે સર્જન થઇ રહ્યું હતું ત્યારે શાહને આ નાણાં
મળ્યાં હતાં જેનો ઉપયોગ શાહે આ ફિલ્મ પુરી કરવા માટે કર્યો હતો અને આ રકમમાંથી
એક રૂપિયો પણ હાલમાં શાહ પાસે નથી એમ ધારાશાસ્ત્રીએ ન્યાય પાલકરને કહ્યું
હતું.</p>




<p><head>૨૫થી વધુ ફિલ્મી
હસ્તીઓને હાલમાં પોલીસ રક્શણ મળી રહ્યું છે</head></p>

<p><head>ગત વર્ષે આશરે ૭૫ ફિલ્મો
અંધોરી આલામનાં નાણાંથી બની હતી ?</head></p>

<p>મુંબઈ,તા.૧૬</p>

<p>મુંબઈની પોલીસ હાલમાં ૨૫થી
વધુ ફિલ્મી હસ્તીઓને પોલીસ રક્શણ આપી રહી છે. છેલ્લા થોડા અઠવાડિયાથી
અંધારી આલમ દ્વારા ફિલ્મી હસ્તિઓને અપાઈ રહેલી ધમકીઓ ધ્યાનમાં રાખીને
આગામી દિવસોમાં થોડા વધુ લોકોને પોલીસ રક્શણ મળવાની શક્યતા છે.</p>

<p>પોલીસ સૂત્રોના જણાવ્યા
મુજબ છેલ્લા ત્રણ ચાર મહિનાઓમાં ૫૦થી વધુ ફિલ્મી હસ્તિઓ પર અંધારી આલમ
દ્વારા ધમકીભર્યા ફોન કોલ આવ્યા હતા. તેમાંના મોેટાભાગના લોકોએ પોલીસના
રક્શણ કવચની માગણી કરી છે. હાલમાં જે ફિલ્મી વ્યકિતઓને પોલીસ રક્શણ મળેલું છે.
તેમાં ગોવિંદા, રાકેશ રોશન, રિતિક રોશન, મહેશ ભટ્ટ, પહલાજ નિહલાની, કરણ જોહર અને
અમરીશપુરીના નામો મુખ્ય છે. અમરીશપુરીને ગત અઠવાડિયે જ પોલીસ રક્શણ અપાયેલું છે.
અબુ સાલેમએ તેમની પાસે રૂ.એક કરોડના હપ્તાની માગણી કરી છે.</p>

<p>સૂત્રોના જણાવ્યા મુજબ
અંધારી આલમની સૌથી વધુ ફોન ધમકી નિર્માતાઓને મળી છે. પછીના ક્રમે
નાણાં ધીરનારાઓ, વિતરકો, નિર્દેશકો અને અભિનેતાઓનો સમાવેશ થાય છે.</p>

<p>બીજી મહત્વની બાબત એ બની છે
કે હવે રાજન ટોળકીએ પણ ફોન ધમકીઓ આપવાનું શરૂ કર્યું છે. રાજન ટોળકીએ
અત્યાર સુધી એક જ ફિલ્મનું નિર્માણ કર્યું છે. આ સિવાય બોલીવુડમાં તેની
વધુ ઘૂસણખોરી નથી. પરંતુ હવે અબુ સાલેમ અને છોટા શકીલ સાથે તેણે પણ
ઝંપલાવ્યું છે. આમ ફિલ્મવાળાઓની મુંઝવણ એ છે કે હવે કોને કોને હપ્તા આપવા અને
કોને ન આપવા. સૂત્રોના જણાવ્યા મુજબ ગત વર્ષે બોલીવુડમાં ૧૨૦ ફિલ્મોનું નિર્માણ
કરાયું હતું. તેમાંથી લગભગ ૩૫ ફિલ્મો અંધારી આલમ માટે કે તેના નાણાથી બનાવાઈ
હતી.</p>

<p>ભરત શાહ અને નાઝિમ રિઝવીની
ધરપકડ પછી ફિલ્મ ઉદ્યોગમાં અંધારી આલમનું રોકાણ ઘટયું છે. દરમિયાન ઘણાં
પોલીસ અધિકારીઓ માને છે કે ડો.શિવાનંદન મુંબઈ પોલીસની સીઆઈડીમાં બદલી
થવાથી ફિલ્મ ઉદ્યોગ અને અંધારી આલમની કડી પર પોલીસની ઝુંબેશ ઢીલી પડી ગઈ છે.
આ કારણે અંધારી આલમનું જોર વધ્યું છે.</p>

<p> </p>






</body></text></cesDoc>