<cesDoc id="guj-w-samachar-news-nat-01-07-04" lang="guj">
<cesHeader type="text">
<fileDesc>
<titleStmt>
<h.title>guj-w-samachar-news-nat-01-07-04.txt</h.title>
<respStmt>
<respType>Electronic file created by</respType>
<respName>Department of Linguistics, Lancaster University</respName>
<respType>text collected by</respType>
<respName>Andrew Hardie</respName>
<respType>transferred into Unicode by</respType>
<respName>"Unicodify" software by Andrew Hardie</respName>
</respStmt>
</titleStmt>
<publicationStmt>
<distributor>UCREL</distributor>
<pubAddress>Department of Linguistics, Lancaster University, Lancaster, LA1 4YT, UK</pubAddress>
<availability region="WORLD"></availability>
<pubDate>03-08-24</pubDate>
</publicationStmt>
<sourceDesc>
<biblStruct>
<monogr>
<h.title>"Gujarat Samachar" internet news (www.gujaratsamachar.com), news stories collected on 01-07-04</h.title>
<h.author>Gujarat Samachar</h.author>
<imprint>
<pubPlace>Gujarat, India</pubPlace>
<publisher>Gujarat Samachar</publisher>
<pubDate>01-07-04</pubDate>
</imprint>
</monogr>
</biblStruct>
</sourceDesc>
</fileDesc>
<encodingDesc>
<projectDesc>Text collected for use in the EMILLE project.</projectDesc>
<samplingDesc>Simple written text only has been transcribed. Diagrams, pictures and tables have been omitted and their place marked with a gap element.
</samplingDesc>
<editorialDecl>
<conformance level="1"></conformance>
</editorialDecl>
</encodingDesc>
<profileDesc>
<creation>
<date>03-08-24</date>
</creation>
<langUsage>Gujarati</langUsage>
<wsdUsage>
<writingSystem id="ISO/IEC 10646">Universal Multiple-Octet Coded Character Set (UCS).</writingSystem>
</wsdUsage>
<textClass>
<channel mode="w">print</channel>
<constitution type="composite"></constitution>
<domain type="public"></domain>
<factuality type="fact"></factuality>
</textClass>
<translations></translations>
</profileDesc>
<revisionDesc></revisionDesc>
</cesHeader>

<text>
<body>




<p><head>મુશર્રફ અમર વિલાસ હોટલમાં
જ્યારે વાજપેયી પેલેસ હોટલમાં</head></p>

<p><head>પાકિસ્તાની ટુકડી સાથે પરામર્શ
કર્યા બાદ વિદેશ મંત્રાલયે નિર્ણય જાહેર કર્યો</head></p>

<p>નવી દિલ્હી, તા.૩</p>

<p>અનેક દિવસોની અટકળો બાદ
એવું નક્કી થયું છે કે ભારત-પાકિસ્તાન વચ્ચે આગામી ૧૫મી જુલાઈએ આગ્રા ખાતે યોજાનારી
શીખર મંત્રણા દરમ્યાન પાકિસ્તાનના રાષ્ટ્રપતિ જનરલ પરવેઝ મુશર્રફ ઓબેરોય ગ્રુપની અમર
વિલાસ હોટલમાં રોકાશે જ્યારે વડાપ્રધાન અટલ બિહારી વાજપેયી પેલેસ હોટલમાં
રોકાશે એમ સત્તાવાર સૂત્રોએ આજે કહ્યું હતું.</p>

<p>પત્રકારો માટેની પરિષદ
મુઘલ શેરેટોન ખાતે યોજાશે એમ કહેતાં તેમણે ઉમેર્યું હતું કે વિદેશ મંત્રાલયે ભારતની
મુલાકાતે આવેલી પાકિસ્તાની ટીમ સાથે પરામર્શ કર્યા બાદ હોટલો નક્કી કરી છે. ઉલ્લેખનીય
છે કે આગામી ૧૪ થી ૧૬મી જુલાઈ વચ્ચે યોજાનારી વાજપેયી-મુશરફ મંત્રણાની વ્યુહાત્મક
વ્યવસ્થા ગોઠવવા પાકિસ્તાનના સિક્યુરિટી એન્ડ પ્રોટોકોલ વિભાગના બે સભ્યોની એક
એડવાન્સ ટીમ ગઈકાલે જ અહીં આવી પહોંચી હતી.</p>

<p>પાકિસ્તાનના પ્રોટોકોલ
વિભાગના મુખ્ય અધિકારી ખાલીદ હબીબ અને મુખ્ય સલામતિ અધિકારી ઇલ્યાસે
સંયુક્તપણે કહ્યું હતું કે તેઓ પ્રમુખ પરવેઝ મુશરફના કાર્યક્રમની શ્રેષ્ઠતમ વ્યવસ્થા ગોઠવવા
અહીં આવ્યા છે.</p>

<p>ત્રણે ત્રણ ફાઇવ સ્ટાર હોટલો
ઓબેરોય ગ્રુપની અમર વિલાસ, જય પી ગ્રુપની પેલેસ હોટલ અને વેલકમ ગ્રુપની મુઘલ
શેરેટોન ૧૭મી સદીના મોગલ બાદશાહ શાહજહાંના તેની બેગમ મુમતાઝ મહલના અમર પ્રેમના
પ્રતિક સમા ભવ્ય તાજ મહેલની આજુબાજુમાં આવેલી છે.</p>

<p>ત્રણે ત્રણ હોટલોના
મેનેજમેન્ટે કહ્યું હતું કે તેઓ પાસે એક એવી સ્પેશ્યલ યોજના છે જે હોટલો
અંગેનો નિર્ણય થયા બાદ જાહેર કરવામાં આવશે. જુદા જુદા સમયના સ્થાપત્યો ધરાવતી
ઓબેરોય ગ્રુપની નવી બંધાયેલી અમર વિલાસ હોટલમાં પ્રેસિડેન્શિયલ સ્યુટ છે અને
મહેમાનો માટે ૨૫ વિશિષ્ટ રૂમો છે એમ હોટલના મેનેજરે પીટીઆઈને કહ્યું હતું. ત્રણ
પૈકીની આ એક જ એવી હોટલ છે જેના રૂમની બારી ખોલતા તમારી દ્રષ્ટિ સીધી તાજ ઉપર
પડે છે એમ તેમણે ઉમેર્યું હતું.</p>




<p><head>કેન્દ્ર તામિલનાડુ સરકારને કડક
ચેતવણી આપશે: કેબિનેટનો નિર્ણય</head></p>

<p><head>કરૂણાનિધી અને બે
પ્રધાનોની ધરપકડમાં બળપ્રયોગ આચરનારા દોષિતો સામે પગલા લેવા જણાવાયું</head></p>

<p>નવી દિલ્હી, તા.૩</p>

<p>કેન્દ્રીય પ્રધાનમંડળે આજે
રાત્રે મળેલી બેઠકમાં બંધારણીય જવાબદારીઓના રક્શણના મુદ્દે તામિલનાડુ સરકારને
ચેતવણી જારી કરવાનો નિર્ણય લીધો હતો અને તામિલનાડુના ભૂતપુર્વ મુખ્યમંત્રી એમ
કરૂણાનિધીની અને બે કેન્દ્રીય પ્રધાનોની ધરપકડોને પગલે બળજબરી આચરનારા
દોષિત અધિકારીઓ સામે પગલા ભરવા જણાવ્યું હતું.</p>

<p>આ અગાઉ શનિવારે
તામિલનાડુના માજી મુખ્યપ્રધાન શ્રી એમ. કરૂણાનિધિની ધરપકડના
અનુસંધાનમાં તામિલનાડુમાં બનેલી ઘટનાઓની ચર્ચા કરવા આજે કેન્દ્રીય કેબિનેટની
બેઠક મળી હતી. આ સંદર્ભમાં કેન્દ્રનો ભાવિ પગલાં યોજના વિશે પણ વિચારણા થઈ હતી.</p>

<p>વિદેશ યાત્રાથી પરત આવેલા
ગૃહપ્રધાન શ્રી એલ.કે. અડવાણીએ પણ આ બેઠકમાં હાજરી આપી હતી. વડાપ્રધાન શ્રી
અટલ બિહારી વાજપેઈના નિવાસસ્થાને યોજાયેલી આ બેઠકનું પ્રમુખ સ્થાન પણ શ્રી વાજપેઈએ જ
સંભાળ્યું હતું.</p>

<p>લંડનની પોતાની મુલાકાત
ટૂંકાવીને એટર્ની જનરલ શ્રી સોલી સોરાબજી પણ વિશેષ આમંત્રિત તરીકે બેઠકમાં ઉપસ્થિત
હતા. એ અગાઉ તામિલનાડુમાં તૂટી પડેલી બંધારણીય સ્થિતિ સામે કામ પાડવા કાનૂન
તથા ન્યાય પ્રધાન શ્રી અરૂણ જેટલીએ કાયદા ખાતાના અધિકારીઓ તથા શ્રી સોરાબજી
સાથે શ્રેણીબદ્ધ બેઠકો યોજીને તેમના કાનૂની અભિપ્રાયો મેળવ્યા છે.</p>

<p>તામિલનાડુમાં સરકાર
બંધારણની જે વિવિધ જોગવાઈઓનો ઉપયોગ કરવા માગે છે તે વિશે શ્રી જેટલીએ
શ્રી સોરાબજી સાથે ચર્ચા કરી હતી.</p>

<p>સોમવારે સાંજે મળનારી
કેબિનેટની આ વિશેષ બેઠકો આ જ ઉપર મુલતવી રાખવામાં આવી હતી જેથી શ્રી અડવાણી
તેમાં ભાગ લઈ શકે.</p>

<p>દરમિયાનમાં તામિલનાડુનો
હવાલો સંભાળી રહેલા કોંગ્રેસના મહામંત્રી શ્રી ગુલાબ નબી આઝાદે પત્રકારો સાથેની
વાતચીતમાં કહ્યું હતું કે તામિલનાડુમાં રાષ્ટ્રપતિશાસન લાદવાની કોઈ પણ હિલચાલનો
કોંગ્રેસ વિરોધ કરે છે. કોંગ્રેસ રાજકીય નેતાઓ સામેના પોલિસ પગલાનો
૩૫૬મી કલમના ઉપયોગનો તથા ગવર્નર ફાતીમા બીબીને પાછા બોલાવી લેવાના નિર્ણયનો
વિરોધ કરે છે.એ અગાઉ તામિલનાડુના પ્રધાન તથા અન્ના ડીએમકેના સાંસદોનું
એક ડેલિગેશન શ્રી આઝાદને મળ્યું હતું અને તે શનિવારે ખરેખર શું બન્યું હતું એ વિશે
તેમને માહિતગાર કર્યા હતા.</p>

<p>શ્રી આઝાદે કહ્યું હતું કે
અમને આરોપોમાં રસ નથી. પોલિસ રાજકીય નેતાઓ સાથે જે રીતે કામ ચલાવ્યું છે તે
વિશે અમે વાત કરી રહ્યા છીએ.</p>




<p><head>કરૂણાનિધિના મુદ્દે
પોલીસનો ઉધડો લેતી ચેન્નાઈ સેશન્સ કોર્ટ</head></p>

<p>ચેન્નાઈ, તા.૩</p>

<p>અત્રેની સેશન્સ કોર્ટે
પોતાના હુકમનું પાલન નહીં કરવા બદલ પોલિસનો ભારે ઉધડો લઈ નાખ્યો હતો.
સેશન્સ કોર્ટે એવો આદેશ જારી કર્યો હતો કે ફલાય ઓવર કૌભાંડમાં શનિવારની
પરોઢે અટકમાં લેવાયેલા ભૂતપૂર્વ મુખ્યપ્રધાન શ્રી એમ. કરૂણાનિધિને જેલમાં
મોકલી આપતા પહેલાં સરકારી હોસ્પિટલમાં તબીબોની પેનલ દ્વારા તેમની તબીબી તપાસ
કરાવવામાં આવે.</p>

<p><head>જેલમાં મોકલતા પહેલા
કરૂણાનિધિની તબીબી તપાસનો આદેશ અપાયો હતો</head></p>

<p>આજે કરૂણાનિધિની જામીન
અરજી ઉપર વિચાર થવાનો હતો પણ અદાલતી કાર્યવાહીમાં આજે તેનો ઉલ્લેખ થયો નહોતો.
આ કેસમાં એક આરોપીને જામીન અપાયા હતા જ્યારે બીજાને આગોતરા જામીન મંજૂર કરાયા
હતા. પ્રિન્સિપલ સેશન્સ જજ શ્રી અશોક કુમારે ટ્રાફિક સુધારણા અંગેના કન્સલ્ટન્ટ ડૉ.
એમ.એમ. શ્રી નિવાસનના જામીન મંજૂર કર્યા હતા. પોલિસની ક્રાઇમ બ્રાંચે આ જામીન અરજીનો
વિરોધ ન કરતાં ન્યાયાલયે આ નિર્ણય આપ્યો હતો. શ્રીનિવાસને એવી દલીલ કરીને
જામીન માટે અરજી કરી હતી કે મને ચક્કરનું દર્દ છે જેને કારણે ઓચિંતો અંધારપટ
છવાઈ ગયો હતો અને હું દેશમાંથી ભાગી નહીં જાઉં.</p>

<p>તામિલનાડુના ભૂતપૂર્વ અગ્ર
સચિવ એ.પી. મુથ્થુસ્વામીએ પણ આગોતરા જામીન અપાયા હતા.</p>

<p>શહેરમાં ફલાય ઓવરો
બાંધવાની બાબતમાં ચાલતી ભ્રષ્ટ રસમો અંગે ચેન્નાઈ કોર્પોરેશનના કમિશનર શ્રી
જે.ટી. આયરિયાલુએ નોંધાવેલી ફરિયાદ રજીસ્ટર કરતી વખતે ક્રાઇમ બ્રાન્ચે જે રીતે
ધારાધોરણો તથા નિયમોનું પાલન નહોતું કર્યું તે અંગે પણ ન્યાયમૂર્તિએ
દુ:ખ વ્યક્ત કર્યું હતું.</p>

<p>આ ફરિયાદને આધારે જ
શ્રી કરૂણાનિધિ, તેમના પુત્ર તથા સીટી મેયર શ્રી એન.કે. સ્ટાલીન, ભૂતપૂર્વ અગ્ર સચિવ
કે.એમ. નાન્સિયાર તથા અન્ય ૧૦ની ધરપકડ કરવામાં આવી હતી.</p>

<p>ન્યાયમૂર્તિએ કહ્યું હતું કે
શ્રી કરૂણાનિધિની તબીબી તપાસ અધિકૃત તબીબી અધિકારીએ તથા તેમના ફેમીલી
ફિઝિશીયન દ્વારા કરાવવામાં આવે તેવા મારા ચોક્કસ હુકમ છતાં આખી દુનિયાએ જોયું છે
કે શ્રી કરૂણાનિધિ સેન્ટ્રલ જેલમાં તબીબી તપાસની ભીખ માગતા એક ભિખારીની જેમ બેઠા
છે. શું તેઓ સ્નાયુઓના બનેલા છે કે માટીના?</p>

<p>સ્ટાલિનને અત્રેની સેન્ટ્રલ
જેલમાં રાખવાને બદલે મદુરાઈની જેલમાં રાખવા માટે પણ ન્યાયમૂર્તિએ પોલિસ
અધિકારીને ખખડાવી નાખ્યા હતા.</p>




<p><head>મારન તથા બાલુ સામેના કેસો
પડતા મુકવા તામિલનાડુ સરકારનો નિર્ણય</head></p>

<p>ચેન્નાઈ, તા.૩</p>

<p>કેન્દ્ર સરકાર સાથે કોઈ
અથડામણ ટાળવાના એક પ્રયાસ તરીકે આજે સાંજે મળનારી કેન્દ્રિય કેબિનેટની બેઠક પહેલાં જ
તામિલનાડુની સરકારે થોડું કૂણું વલણ અખત્યાર કરીને બે કેન્દ્રીય પ્રધાનો શ્રી
મુરાસોલી મારન તથા ટી.આર. બાલુ સામેના કેસો પાછા ખેંચી લેવાનો નિર્ણય કર્યો
હતો.</p>

<p><head>કેન્દ્ર સરકારે કરેલી વિનંતીના
અનુસંધાનમાં જયલલિતાનો નિર્ણય</head></p>

<p>અત્રે જારી કરવામાં આવેલા
એક સત્તાવાર નિવેદનમાં એવું કહેવામાં આવ્યું હતું કે બે કેન્દ્રીય પ્રધાનોને
નજરે દેખાય એવા ગુનાઓસર પકડવામાં આવ્યા હતા તેમ છતાં કેન્દ્ર તથા રાજ્ય વચ્ચે
ઉષ્માભર્યા સંબંધો જાળવી રાખવા માટે આ બે પ્રધાનો સામેના કેસો પડતા
મુકવાનો સરકારે નિર્ણય કર્યો છે.</p>

<p>ગઈ કાલે બે પ્રધાનોને
મુક્ત કરવા માટે મેજીસ્ટ્રેટે હુકમ જારી કર્યો હતો તેમ છતાં પોતાની સાથે થયેલા કેસો
પાછા ખેંચી લેવાની માગણી સાથે પ્રધાનોએ જેલમાંથી છૂટવાનો ઇન્કાર કર્યો હતો.</p>

<p>નિવેદનમાં વધુમાં કહેવાયું
છે કે કેન્દ્ર સરકારે અનૌપચારિક રીતે એવું કહ્યું છે કે અમુક ચોક્કસ આરોપોસર પણ બે
કેન્દ્રીય પ્રધાનો સામે કેસો ફાઇલ કરીને તેમને અટકમાં લેવાથી સમવાય માળખા હેઠળ
કેન્દ્ર તથા રાજ્ય વચ્ચેના ઉષ્માભર્યા સંબંધોનું ધોવાણ થયું છે.</p>

<p>કેન્દ્ર તથા વડાપ્રધાન શ્રી
અટલ બિહારી વાજપેઈએ બે કેન્દ્રીય પ્રધાનો સામેના કેસો પડતા મુકવાનું વિચારી જોવાની
રાજ્ય સરકારને વિનંતી કરી હતી. કેન્દ્ર સાથે સારા સંબંધો જાળવવાની જરૂર તો વિચાર
કરીને તથા કેન્દ્ર તથા વડાપ્રધાનના અભિપ્રાયોને માન આપીને સરકારે આ કેસો પડતા
મુકવાનો નિર્ણય કર્યો છે.</p>

<p>સાથે સાથે રાજ્ય સરકારે
પોલિસને એવી બાંહેધરી આપી છે કે તેમના હિતોની રક્શા માટે યોગ્ય કાળજી
લેવામાં આવશે અને તેમને ભય કે અહેસાન વિના પોતાના અંતરાત્મા અનુસાર ફરજો બજાવવી
જોઈએ.</p>

<p>બે કેન્દ્રીય પ્રધાનો સામે
પોલિસ ઉપર હુમલો કરવાનો તથા ગાળો ભાંડવાનો આરોપ મુકવામાં આવેલો હતો એ
સંદર્ભમાં પોલિસની લાગણીઓ ન ઘવાય એ માટે સરકારે પોલિસને આવી ખાતરી આપી
હોવાનું મનાય છે.</p>

<p>ઘવાયેલા મારનને એપોલો
હોસ્પિટલમાં સારવાર માટે દાખલ કરાયા બાદ હોસ્પિટલમાં જ તેમને કસ્ટડી હેઠળ રખાયા હતા
જ્યારે બાલુને વેલ્લોરની સેન્ટ્રલ જેલમાં મોકલી આપવામાં આવેલા.</p>




<p><head>દેવા વસુલી કાયદામાં
સુધારો કરવા સરકારની વિચારણા</head></p>

<p>નવી દિલ્હી, તા. ૩</p>

<p>સરકાર દેવા વસુલાત
ટ્રિબ્યુનલમાં પેન્ડીંગમાં પડેલા રૂા. ૮૩૦૦૦ કરોડના દેવા વસુલીના ૪૭૦૦૦ કેસોના ઝડપી
નિકાલ માટે દેવા નાબુદી કાયદામાં સુધારો કરવા ગંભીરતાથી વિચારી રહી છે.</p>

<p><head>ટ્રિબ્યુનલમાં પેન્ડીંગ ૪૭૦૦૦
કેસોના ઝડપી નિકાલ માટે સરકારની હિલચાલ</head></p>

<p>આ કેસોના ઝડપી નિકાલની
આડે આવતાં કેટલાંક નિયમો અને નિયંત્રમોમાં સુધારો કરવાની જરૂર છે એમ
નાણાં રાજ્યમંત્રી બાલાસાહેબ વીખે પાટીલે બેન્કરો સાથેની મીટીંગ બાદ આજે અહીંયા
પત્રકારોને કહ્યું હતું.</p>

<p>લોનની વસુલાત ઝડપી બનવી
જોઈએ. દેવા વસુલીની રૂા. ૮૩૦૦૦ કરોડની રકમના કેસોની સંખ્યા ૪૭૦૦૦ ઉપર પહોંચી ગઈ
હોવાથી દેવા નાબુદી ટ્રિબ્યુનલના આંતર માળખાકીય અવરોધો પણ દૂર કરવાની જરૂર
છે કેમ કે બેંકોની બિનકાર્યક્શમ અસ્કયામતોની રકમ પણ રૂા. ૬૦૦૦ કરોડ ઉપર પહોંચી ગઈ
છે.</p>

<p>બેન્કીંગ વિભાગના સચિવ દેવી
દયાલે કહ્યું હતું કે સરકાર દેવા વસુલી ટ્રીબ્યુનલ ઉપર રચાયેલી સમિતિના અહેવાલના
આધારે દેવા વસુલી કાયદામાં સુધારો કરશે. આ સમિતિના અધ્યક્શ એસ. એન.
અગ્રવાલે કહ્યું હતું કે આ મહિનાના અંત સુધીમાં અહેવાલ તૈયાર થઈ જશે. </p>

<p>બેન્કરોએ એક એવું સૂચન
કર્યું હતું કે બેંકના અધિકારીઓને રિસિવર તરીકેની નિમણૂંક મેળવવાની છૂટ મળવી
જોઈએ. જેથી કેસોનો ઝડપી નિકાલ આવી શકે.</p>




<p><head>પાક. સુરક્શા અને પ્રોટોકોલ
ટીમના સભ્યો દિલ્હી આવ્યા</head></p>

<p>નવી દિલ્હી, તા. ૩</p>

<p>ભારતના વડાપ્રધાન
વાજપેયી અને પાકિસ્તાનના પ્રમુખ મુશર્રફ વચ્ચે ૧૪ થી ૧૬ જુલાઈના રોજ થનારી શિખર
મંત્રણાઓ માટેની વાહન વ્યવસ્થાઓને આખરી સ્વરૂપ આપવા સલામતી અને પ્રોટોકોલ
વિભાગના પાકિસ્તાની અધિકારીઓની બે સભ્યોની એક અગ્રીમ ટીમ આજે અત્રે આવી
પહોંચી હતી.</p>

<p><head>મુશર્રફ જે જે સ્થળે જવાના છે
તે દરેક સ્થળની મુલાકાત લેશે</head></p>

<p>પાકિસ્તાનના પ્રોટોકોલ વડા
ખાલિદ હબીબ અને મુખ્ય સલામતી અધિકારી ઈલિયાસે દિલ્હી વિમાનઘરે પત્રકારોને
જણાવ્યું હતું કે, તેઓ પ્રમુખ પરવેઝ મુશર્રફના કાર્યક્રમના સંકલન માટે આવ્યા છે. હબીબે
કહ્યું અમે બે દિવસ રોકાઈશું. કાર્યક્રમ ઘડાયો છે માત્ર વિગતો તૈયાર કરવાની છે
આવતીકાલ સુધીમાં તે પતી જવાની આશા છે.</p>

<p>દરિયાગંજમાંની મુશર્રફની
પૈતૃક હવેલીની આપ મુલાકાત લેશો ? એમ પૂછાતાં તેમણે કહ્યું હતું કે સમય મળશે તો
જઈશું. વિદેશ ખાતાના પ્રવકતાએ કહ્યું હતું કે, આવતીકાલે આ અધિકારીઓ તેમના
ભારતીય સમકક્શોની સાથે મસલત કરશે. તેઓ મુશર્રફની મુલાકાતના પ્રત્યેક સ્થળોની વાહન
વ્યવસ્થાઓનો પણ ક્યાસ કાઢશે. તેમાં ૧૪મીએ મુશર્રફ આવે ત્યારે તેમનું શાહી સન્માન
કરાનાર છે તે રાષ્ટ્રપતિભવન તેમજ મોડેથી રાષ્ટ્રપતિ નારાયણન દ્વારા ભોજનસમારંભ યોજાનાર
છે તે સ્થળનો પણ સમાવેશ થાય છે.</p>

<p>પાકિસ્તાનની આ ટીમ દિલ્હી
વિમાન ઘર, રાજઘાટ, હૈદરાબાદ હાઉસ, વડાપ્રધાન વાજપેયી દ્વારા યોજાનારા લંચના સ્થળ,
અને ૧૩મી સદીના સૂફી સંત હજરત નિઝામુદ્દીન ઑલિયાની દરગાહની પણ મુલાકાત લઈ સમીક્શા
કરશે.</p>

<p>અધિકારીઓ આગ્રાની
મુલાકાત લઈ શિખર મંત્રણાઓ માટે વિચારેલી અમરવિલાસ, જેપી પેલેસ અને મુગલ શેરેટોન
એમ ત્રણમાંથી એક હોટલ પસંદ કરશે. મુશર્રફના આવાસ તેમજ સત્તાવાર કાર્યક્રમો માટે આ
હોટલો એકબીજા કરતાં ચડિયાતી ગણાય છે. મુશર્રફ સંભવત: ૧૫મીના રોજ તાજમહાલની
મુલાકાત લેવાના છે ત્યાંની વ્યવસ્થાઓની પણ આ અધિકારીઓ સમીક્શા કરશે અને
જયપુર તથા અજમેર શરીફ પણ જશે.</p>




<p><head>અર્થતંત્રને વેગવંતુ બનાવવાના
સરકારે શરૂ કરેલા પ્રયાસો</head></p>

<p>નવી દિલ્હી, તા. ૩</p>

<p>હાલમાં મંદીમાં સપડાયેલ
દેશના અર્થતંત્રને ફરીથી ચેતનવંતુ બનાવવાના પ્રયાસમાં મૂડી રોકાણ વધારવા તેમજ
સરકારી ખર્ચ પર અંકુશ મેળવવા અંગેના પગલાંની વિચારણા માટે નાણાંપ્રધાન
યશવંતસિંહાએ આજે રિઝર્વ બેંક ઓફ ઇન્ડિયાના ગવર્નર બિમલ જાલન તેમજ મંત્રાલયના
નાણાંકીય સલાહકારો સાથે મસલત કરી હતી.</p>

<p><head>બિમલ જાલન અને વિવિધ
મંત્રાલયોના નાણાંકીય સલાહકારો સાથે યશવંતસિંહાએ શરૂ કરેલી મસલતો</head></p>

<p>બિમલ જાલન તેમજ એક્સપેન્ડીચર
સેક્રેટરી સી. એમ. વાસુદેવ સાથે ૨ કલાક સુધી ચાલેલી બેઠક બાદ સિંહાએ જણાવ્યું
હતું કે ''માંગવૃદ્ધિ તેમજ દેશની આર્થિક વૃદ્ધિ માટે બજેટમાં કેપીટલ એક્સપેન્ડીચર (મૂડી
ખર્ચ) માટે ફાળવવામાં આવેલા ભંડોળનો ઉપયોગ થાય તે જોવાની બાબતને અમે સૌ પ્રથમ
પ્રાથમિકતા આપીશું.''</p>

<p>''અમો દેશની આર્થિક વૃદ્ધિ
માટે ચિંતીત છીએ'' એવું જાલને દેશના અર્થતંત્રને વેગવાન બનાવવા સરકાર તેમજ આરબીઆઇ
દ્વારા કેવા પગલાં ભરવામાં આવશે તેની માહિતી આપ્યા વગર જણાવ્યું હતું.</p>

<p>આ અગાઉ સિંહાએ દેશના
અર્થતંત્રની કાયાપલટ માટે વિવિધ મંત્રાલયોના નાણાંકીય સલાહકારો સાથે બે કલાકની
લાંબી બેઠક યોજી હતી.</p>

<p>તમામ મંત્રાલયોએ મૂડી તેમજ
ઉત્પાદકીય ખર્ચને પ્રોત્સાહન આપવું જોઇએ તેમજ મહેસુલી ખર્ચ પર અંકુશ રાખવો જોઇએ
એવું તેઓ (સિંહા) ઇચ્છે છે.</p>

<p>કોઇ ચોક્કસ વિગતો આપ્યા
વગર તેમણે ઉમેર્યું હતું કે સરકારે મૂડી રોકાણ વધારવા અંગેના પ્રયાસો ક્યારનાય
શરૂ કરી દીધા છે. અને છેલ્લા કેટલાક દિવસોમાં અનેક બેઠકો યોજી છે.</p>




<p><head>તહેલકા પ્રકરણની તપાસ કરતાં</head></p>

<p><head>વેંકટ સ્વામી પંચની
અધિકૃતતાને પડકારતા લશ્કરી અધિકારીઓ</head></p>

<p>નવીદિલ્હી,તા.૩</p>

<p>તહેલકા પર્દાફાશને લગતી
બાબતો અંગે જે લશ્કરી અધિકારીઓ સામે હાલ ખાતાકીય તપાસ ચાલી રહી છે. તેઓએ
જસ્ટીસ વેંકટસ્વામી પંચ દ્વારા તેઓ સામે હાથ ધરાયેલી વધારાની તપાસની
અધિકૃતતા સામે પ્રશ્નાર્થ ખડો કર્યો હતો.</p>

<p><head>આરોપી જાહેર સેવકો સામે
માત્ર એક જ તપાસ જ્યારે લશ્કરી અધિકારીઓ સામે બે તપાસ કેમ?</head></p>

<p>લશ્કરના અધિકારીઓ
સામે આ પ્રકારનું ઓરમાયું વર્તન શા માટે કરવામાં આવે છે. જેઓ આરોપી છે તેવા
જાહેર સેવકો સામે એક જ પંચની તપાસ ચાલી રહી છે જ્યારે જે લશ્કરી અધિકારીઓ
સામે ક્યારનીય ખાતાકીય તપાસ થઇ રહી છે. તેઓને શા માટે બે તપાસમાંથી પસાર થવું પડે
એમ લશ્કરના એક આરોપી અધિકારીના વકિલ આર.પી. શર્માએ પંચને કહ્યું હતું.</p>

<p>લશ્કરી અધિકારીઓને બે
પૈકી એક તપાસમાંથી મુક્તિ મળવી જોઇએ એવી કેન્દ્ર સરકારને દરખાસ્ત કરવાની વિનંતી
કરતાં શર્માએ એવી એક પેટા કલમ ૨૦ (૩) અંતર્ગત રક્શણ માંગ્યું હતું જેની જોગવાઇમાં
સ્પષ્ટ કહ્યું છે કે કોઇપણ ગુનાના આરોપીને તેની પોતાની સામે જ સાક્શી બનવાની ફરજ
પાડી શકાય નહીં. જસ્ટીસ વેંકટસ્વામીએ તેમનો ચુકાદો શુક્રવાર સુધી અનામત રાખ્યો
હતો. તે આ મુદ્દે કેન્દ્રને કોઇ ભલામણ કરશે કે નહીં તેનો નિર્ણય પણ કરશે.</p>

<p>આ કેસના વિવિધ
પક્શકારોએ માગણી મૂકી હતી કે તેઓ સામે નોટીસ પાઠવવામાં આવે તે પહેલાં તેઓને
તહેલકાની એડીટ કર્યા વિનાની વિડિયો ટેપની નકલ મળવી જોઇએ.</p>




<p><head>પેન્શન ક્શેત્રમાં ખાનગી
કંપનીઓના પ્રવેશની તરફેણ કરતી સરકાર</head></p>

<p>નવી દિલ્હી, તા. ૩</p>

<p>પેન્શનના સુરક્શા કવચનો વ્યાપ
વધારવાના એક પ્રયાસ તરીકે સરકારે આજે કહ્યું હતું કે સંભવત: આ વર્ષના અંત
સુધીમાં નિયમો અને નિયમનો અમલમાં આવી ગયા બાદ પેન્શન ક્શેત્રમાં મ્યુચ્યુઅલ ફંડ
અને બેંકો સહિત ખાનગી કંપનીઓ પણ પ્રવેશે તે બાબતની તરફેણ કરવામાં આવે છે.</p>

<p><head>બેંકો તથા મ્યુચ્યુઅલ ફંડોને
પણ પ્રવેશ અપાય એવી શક્યતા</head></p>

<p>જીવન વીમા કંપનીઓ પણ
એન્યુઈટી સ્કિમ સાથે આગળ આવી શકે છે. જે અન્યનો વિચાર થઈ શકે તેમ છે તેમાં બેંકો
અને મ્યુચ્યુઅલ ફંડોનો સમાવેશ થાય છે એમ નાણાં મંત્રાલયના વીમા વિભાગના સંયુક્ત
સચિવ અજીત શરાને ફિક્કીની બેઠક બાદ પત્રકારોને કહ્યું હતું.</p>

<p>પેન્શન ક્શેત્રમાં બેંકો અને
મ્યુચ્યુઅલ ફંડોના પ્રવેશ આડે નિયમનનું પાસું આવી શકે તેમ છે. કેમકે બેંકોનો
વહિવટ રીઝર્વ બેંક કરે છે અને મ્યુચ્યુઅલ ફંડો ઉપર સેબીના કાયદા લાગુ પડે છે જ્યારે
પેન્શન ક્શેત્ર ઉપર ઈન્સ્યોરન્સ રેગ્યુલેટરી એન્ડ ડેવલોપમેન્ટ ઓથોરિટિ (ઈરડા)નો
અંકુશ રહેશે.</p>

<p>સમાન સૂર વ્યક્ત કરતાં ઈરડાના
ચેરમેન એન. રંગાચારીએ કહ્યું હતું કે ઈરડા આ ક્શેત્રમાં પ્રવેશતી કંપનીઓની સંખ્યા
ઉપર મર્યાદા મૂકવાની તરફેણમાં નથી કેમકે મારું માનવું છે કે જ્યારે પણ મર્યાદા
મૂકવામાં આવે છે ત્યારે વિકાસ રૂંધાય છે.</p>

<p>એમ કહેતાં તેમણે ઉમેર્યું
હતું કે ઈરડા આ પ્રક્રિયામાં લાયસંસ રાજ દાખલ કરવા પણ માંગતી નથી.</p>




<p><head>શ્રીનિવાસન, નાંબિયારની
ધરપકડને વખોડતા જ્યોર્જ</head></p>

<p>નવીદિલ્હી,તા.૩</p>

<p>સમતા પક્શના નેતા શ્રી જ્યોર્જ
ફર્નાન્ડિઝ આજે અત્રે એક નિવેદન જારી કરીને તામિલનાડુના ભૂતપૂર્વ અગ્રસચિવ શ્રી
કે.એ.નાંબિયાર તથા ટેકનોક્રેટ એમ.એસ.શ્રીનિવાસનની ધરપકડને અનૈતિક તથા સ્વચ્છંદી
તરીકે ગણાવીને વખોડી કાઢી હતી અને માગણી કરી હતી કે આ બે જાણીતા નિષ્ણાતોને
તાત્કાલિક મુક્ત કરી દેવામાં આવે.</p>

<p><head>તમિલનાડુમાં કાયદાના શાસનની
ઠેકડી ઉડાવાઇ છે</head></p>

<p>મુખ્યપ્રધાન કુ.જયલલિતાને
'મેગાલોમેનિયાક' તરીકે ઓળખાવીને શ્રી ફર્નાન્ડિઝે કહ્યું હતું કે જ્યાં કાયદાના
શાસનનું કોઇ અસ્તિત્વ નથી ત્યાં કોઇ અદાલતી સત્તા તામિલનાડુમાં કે નવીદિલ્હીમાં તમામ
સૌજન્ય તથા કાયદાના શાસનના થઇ રહેલા આ વસ્ત્રાહરણની નોંધ લઇને શ્રી નાંબિયાર
તથા શ્રી નિવાસનને તેમની આઝાદી પાછી અપાવશે?</p>

<p>શ્રી ફર્નાન્ડિઝે કહ્યું છે કે
સમગ્ર દેશનું ધ્યાન કેટલાક સિનિયર રાજકીય નેતાઓની ગેરકાનૂની તથા સ્વચ્છંદી
ધરપકડો ઉપર યોગ્ય રીતે જ કેન્દ્રિત થયું હતું પણ આ બે પ્રસિધ્ધ વ્યવસાયીઓની
ધરપકડમાં સમાવિષ્ટ થયેલી અનૈતિકતા તથા સ્વચ્છંદતા પ્રત્યે કોઇ ધ્યાન ખેંચાયું નથી કે
નથી તેને વખોડી કાઢવામાં આવી.</p>




<p><head>આગામી શિખર બેઠકમાં</head></p>

<p><head>ભારતની ખાંડની આયાત પર
પાક.ના પ્રતિબંધનો મુદ્દો ચર્ચાશે</head></p>

<p>બેંગ્લોર, તા. ૩</p>

<p>આગામી જુલાઈ માસની ૧૪થી ૧૬
તારીખ સુધી યોજાનારી ભારત-પાક. શિખર મંત્રણામાં ભારતની ખાંડની આયાત પર
પ્રતિબંધ ચાલુ રાખવાના ઈસ્લામાબાદના નિર્ણયનો મુદ્દો ચર્ચાશે એવું ગ્રાહકોની
બાબતો, અન્ન, જાહેર વિતરણ પ્રધાન શાંતાકુમારે આજે જણાવ્યું હતું.</p>

<p><head>પાક. માંગે તેવી ગુણવત્તા વાળી
ખાંડ પૂરી પાડવા અમો તૈયાર છીએ : શાંતાકુમાર</head></p>

<p>અમારા મંત્રાલયે શિખર
મંત્રણામાં મુશર્રફ સાથે આ મુદ્દો ચર્ચવા અંગે વડાપ્રધાન વાજપાયીને વિનંતી કરી છે
એમ તેમણે પાકિસ્તાને ભારતની ખાંડની આયાત પર પ્રતિબંધ ચાલુ રાખવા અંગે પ્રત્યાઘાત
આપતા પત્રકારોને જણાવ્યું હતું. ભારત પાકિસ્તાન ખાંડની જેવી ગુણવત્તા માંગે તેવી
ખાંડ પૂરી પાડવા તૈયાર છે. કરાંચીથી મળતા અહેવાલ મુજબ પાક.ના સ્થાનિક સુગર મિલના
માલિકોના દબાણને વશ થઈને આ નિર્ણય કરવામાં આવ્યો છે. ભારતની ખાંડ ખૂબ જ મીઠી છે
અને તે આપણા સંબંધોને મીઠા બનાવવામાં મદદરૂપ થશે એવું અમે તેમને જણાવશું એવું
તેમણે ઉમેર્યું હતું.</p>




<p><head>હોસ્પિટલમાં તપાસ કરાવવાની ના
પાડતાં ભરત શાહને ફરી જેલ ભેગા કરાયા</head></p>

<p><head>હોસ્પિટલમાં આધુનિક
સુવિધા હોવાની ડીને કોર્ટ સમક્શ રજૂઆત કરી હતી</head></p>

<p>મુંબઇ, તા. ૩</p>

<p>એન્જિયોગ્રામ ટેસ્ટ કરાવવાની
ના પાડનારા ફિલ્મ ધિરાણકાર ભરત શાહને ગઇકાલે સરકારી હોસ્પિટલમાંથી રજા આપીને
ફરીથી થાણેની જેલમાં લઇ જવાયા હતા, એમ આજે પોલીસે જણાવ્યું હતું.આઠમી
જાન્યુઆરીએ અંધારી આલમ સાથે સંબંધો ધરાવવાના આરોપ હેઠળ
હિરાસતમાં લેવાયેલા શાહને ૨૦મી જૂને તબિયત બગડવાની ફરિયાદ કરતાં હોસ્પિટલમાં દાખલ
કરવામાં આવ્યા હતા.</p>

<p>૨૨મી જૂને તેમણે વિશેષ અદાલતને
વિનંતી કરી હતી કે તેમને સરકારી હોસ્પિટલમાંથી ખાનગી હોસ્પિટલમાં તેના પોતાના
ખર્ચે સંપૂર્ણ શારીરિક તપાસ માટે દાખલ કરવા કારણ કે સરકારી હોસ્પિટલમાં પૂરતી
સુવિધા નથી.</p>

<p>નિયુક્ત જ્જ એ.પી. વિનગલેએ
જે. જે. હોસ્પિટલના ડીન પાસેથી શાહના અત્યાધુનિક મશીનો ન હોવાની ફરિયાદ અંગે
ટીપ્પણી મગાવી હતી. અદાલતે શાહની તપાસ કરવા માટે ડોકટરોની ટુકડી રચી હતી. જેમાં
શાહના ફેમિલી ડોકટરને પણ સામેલ કરાયા હતા.</p>

<p>હોસ્પિટલના ડીને એવો
અહેવાલ આપ્યો હતો કે હોસ્પિટલ આધુનિક સુવિધા સજ્જ છે અને પૂરતાં
સાધનો ધરાવે છે. તેમણે અદાલતને એવી પણ માહિતી આપી હતી કે શાહ ઉપર
કરાયેલા પરીક્શણોના પરિણામો સંતોષકારક છે. તેમણે એન્જિયોગ્રામ ટેસ્ટ કરાવવાની પણ
ભલામણ કરી હતી.</p>

<p>ભરત શાહે હોસ્પિટલ પાસે
યોગ્ય સાધન ન હોવાનું લાગતા એન્જીયોગ્રામ ટેસ્ટ કરવાની દેવાની ના પાડી
દીધી હતી.</p>

<p>આવતી કાલે ભરત શાહને
'ચોરી ચોરી'ના નિર્માતા નસીમ રિઝવી અને તેના આસિસ્ટન્ટ અબ્દુલ રહીમ અલ્લા બક્શ સાથે
ટ્રાયલ કોર્ટમાં રિમાન્ડ માટે લઇ જવાશે.</p>

<p>આ ત્રિપૂટીની પાકિસ્તાન સ્થિત
ડોન છોટા શકીલ સાથે સંબંધો ધરાવવા બદલ મહારાષ્ટ્ર કન્ટ્રોલ ઓફ
ઓર્ગેનાઇઝડ ક્રાઇમ એકટ (મકોકા) (સંગઠીત ગુનાખોરી પ્રતિબંધક કાયદા) હેઠળ અટક
કરાઇ હતી પોલીસે તેમની અને શકીલ વચ્ચેની વાતચીતની ટેપ પોતાની પાસે હોવાનો દાવો
કર્યો છે. જેનાથી એમ સિદ્ધ થાય છે કે ચોરી ચોરી... ફિલ્મમાં અંધારી આલમના
નાણાં હતાં.</p>




<p><head>શ્રી કૃષ્ણ પંચની ભલામણોના અમલ
સામે શિવસેના સુપ્રીમ કોર્ટના દ્વાર ખખડાવશે</head></p>

<p><head>પંચે કેટલીક બાબતો પડતો
મૂકીને અન્યાય કર્યો છે: બાળ ઠાકરે</head></p>

<p>મુંબઇ, તા. ૩</p>

<p>બાબરી મસ્જિદના ધ્વંસ બાદ
૯૨-૯૩માં શહેરમાં ફાટી નીકળેલાં રમખાણો અંગે શ્રીકૃષ્ણ પંચે કરેલી ભલામણના અમલ સામે
શિવસેના સર્વોચ્ચ અદાલતના દ્વાર ખખડાવશે. શિવસેના પ્રમુખ બાળ ઠાકરેએ 'સામના'માં આપેલી
મુલાકાતમાં જણાવ્યું છે કે શ્રીકૃષ્ણ કમિશને કેટલીક બાબતો પડતી મૂકીને અન્યાય કર્યો છે
અને અમને ૫૦થી ૧૦૦ સિનિયર વકીલો મદદ કરવા તૈયાર છે તેથી સર્વોચ્ચમાં ઘા નંખાશે.</p>

<p>ભૂતપૂર્વ સેના- ભાજપની
સરકારે શ્રી કૃષ્ણ પંચના અહેવાલને રદ કર્યો હતો પરંતુ વડાપ્રધાન અટલબિહારી
વાજપેયીએ પાછળથી તેને જીવંત કર્યો હોવાનો દાવો ઠાકરેએ કર્યો હતો.</p>

<p>અન્યો સાથે શિવસેના પ્રમુખ
બાળ ઠાકરેને પણ પંચની ભલામણોમાં સમાવી લેવામાં આવ્યા છે અને તેના અમલ માટે
લોકશાહી આઘાડી સરકારે સ્પેશ્યલ ટાસ્ક ફોર્સની રચના કરી છે.</p>

<p>રાષ્ટ્રવાદી કોંગ્રેસ સાથે
સમજૂતી કરી રાજ્યમાં સત્તા પર આવવાનાં પ્રયત્નો અંગે પૂછવામાં આવતાં બાળ ઠાકરેએ
જણાવ્યું હતું કે જ્યાં સુધી નાયબ મુખ્યપ્રધાન છગન ભુજબળ રાષ્ટ્રવાદી
કોંગ્રેસમાં છે ત્યાં સુધી તે શક્ય નથી.</p>

<p>ભૂતપૂર્વ મુખ્યપ્રધાન સ્વ.
સુધાકરરાવ નાઇક શિવસેનાના સમર્થક હોવાનું પણ તેમણે જણાવ્યું હતું.</p>

<p>તામિલનાડુના ભૂતપૂર્વ
મુખ્યપ્રધાન કરુણાનિધિ અને બે કેન્દ્રીય પ્રધાનોની કરાયેલી ધરપકડ
લોકશાહી પર કુમરાઘાત સમાન હોવાનું બાળ ઠાકરેએ જણાવ્યું હતું. અને કેન્દ્રે તાત્કાલિક
પગલાં ભરવા જોઇએ અન્યથા સમગ્ર દેશમાં આવી પરિસ્થિતિ સર્જાશે એમ તેમણે ઉમેર્યું હતું.</p>

<p>તામિલનાડુમાં રાષ્ટ્રપતિ
કે.આર. નારાયણને કોઇપણ પ્રકારના રાજકીય દબાણ વિના દરમિયાનગીરી કરવી જોઇએ એવી
માગમી પણ તેમણે કરતાં રાજ્યપાલના રાજીનામાં અંગે સંતોષ વ્યક્ત કર્યો હતો.</p>

<p>કેન્દ્રીય પ્રધાનમંડળમાં
શિવસેનાના કોઇપણ સભ્યનો ઉમેરો નહિ થાય એવો સંકેત આપતાં જણાવ્યું હતું કે પક્શના
નવ સાંસદો પ્રધાન બનવા ઉત્સુક છે.</p>

<p>શિવસેનામાં કોઇપણ પ્રકારની
જૂથબાજી નથી અને થશે પણ નહિ તેમ જણાવતાં સેનાપ્રમુખે ઉમેર્યું હતું કે ''મેં રાજ અને
ઉધ્ધવને તેમજ મનોહર જોશીને પણ તે માટે ચેતવણી આપી છે.''</p>




<p><head>દેવાણીની હત્યા સંબંધે
એક્ટર આફતાબ શિવદાસાની અને નિર્માતાની પૂછપરછ</head></p>

<p><head>મનિષાના સેક્રેટરીની હત્યા પાછળ
ગેંગવોર કારણભૂત</head></p>

<p>મુંબઇ, તા.૩</p>

<p>દેવાણીની હત્યા સંદર્ભે
ફિલ્મસૃષ્ટિ સાથે સંકળાયેલી કેટલીય વ્યકિતઓને પૂછપરછ માટે બોલાવી છે પરંતું હજી
સુધી કોઈની આ અંગે ધરપકડ કરવામાં આવી નથી એમ જોઈન્ટ પોલીસ કમિશનર
(ક્રાઈણ) ભુજંગરાવ મોહિતેએ જણાવ્યું હતું. અભિનેતા આફતાબ શિવદાસાનીને તથા નિર્માતા
રાજુ માવાણીને સોમવારનાં રોજ દેવાણીની હત્યા સંદર્ભે આશિવરા પોલીસ સ્ટેશનમાં
પૂછપરછ માટે બોલાવવામાં આવ્યાં હતાં. ઉપરાંત દેવાણીની હત્યા સંદર્ભે બોલીવુડની એક
ટોચની અભિનેત્રીને પણ પોલીસ પૂછપરછ માટે બોલાવશે એવી શક્યતા વ્યકત થઈ રહી છે.</p>

<p>જોકે શિવદાસાનીનાં
કૌટુંબિક સભ્યોએ આ બનાવમાં શિવદાસાનીએ કોઈ ભાગ ભજવ્યો ન હોવાનું જણાવ્યું
હતું. તથા સુરક્શાની પણ માંગણી કરી નથી.</p>

<p>આધારભૂતનાં સૂત્રોના
જણાવ્યા મુજબ અગાઉ અજીત દેવાણીને અબુ સાલેમ ગેંગ સાથે સંબંધો હતાં. અબુ સાલેમ
અને છોટા શકીલ વચ્ચે ધંધાકીય દુશ્મનાવટ હોવાથી દેવાણી શકીલ સાથે
સંબેધ રાખે તે અબુ સાલેમને ગમતું ન હતું. કહેવાય છે કે દેવાણીની હત્યા માટે
સાલેમે બહેરિન સ્થિત ગેંગસર અબી બુંદ્વેશની મદદ લીધી હતી. આથી અલી બુદ્વેશે તેનાં
મુંબઈમાંનાં ગેંગનાં સબ્યોને દેવાણીની હત્યાનું કામ સોંપ્યું હતું. અગાઉ દેવાણી
ફિલ્મ અભિનેત્રી ઉર્મિલા માતોંડકરનો સેક્રેટરી હતો અને તાજેતરમાં જ અંધેરી ખાતે
તેણે નવી ઓફિસ ખોલી હતી. અંધેરી (પશ્ચિમ)નાં ચાર બંગલા ટ્રાફિક સિગ્નલ નજીક
આરટીઓ રોડ પર હેમાંગી મહેશ્વરી બિલ્ડિંગનાં પહેલા માળે એડસ ક્રિએટીવ આર્ટિસ્ટ
એજન્સી નાખી ઓફિસ તાજેતરમાં શરૂ કરી હતી. હત્યારાઓએ દેવાણીના માથામાં એક ગોળી
મારી હતી. તેનું ઘટનાસ્થળે જ મોત નીપજયું હતું.</p>

<p>સૂત્રોના જણાવ્યા મુજબ અબુ
સાલેમ હિન્દી ફિલ્મ સૃષ્ટિ પર પોતાનું વર્ચસ્વ જમાવવા માંગે છે. આ માટે તેણે કેટલીય
ફિલ્મી હસ્તીઓને ખંડમી માટે ધમકીઓ આપી છે તેવા હરીફ છોટા શકીલ પણ કેટલીય
ફિલ્મ હસ્તીઓને ખંડણી માટે ધમકીઓ આપે છે.</p>




<p><head>પ.બંગાળમાં તૃણમૂલ કોંગ્રેસ
કોઇની સાથે જોડાણ નહિ કરે</head></p>

<p>કોલકત્તા,તા.૩</p>

<p>તૃણમૂલ કોંગ્રેસના પ્રમુખ
મમતા બેનર્જીએ પશ્ચિમ બંગાળમાં કોંગ્રેસ સાથેના જોડાણનો ઔપચારિકપણે અંત લાવતા
કહ્યું હતું કે તેમનો પક્શ રાજ્યમાં એકલો જ કાર્ય કરશે. અમે રાજ્યમાં એકલાં જ કાર્ય
કરીશું. કોંગ્રેસે જાતે જ કહ્યું છે કે જોડાણ તુટી ગયું છે એમ બેનર્જીએ એક પત્રકાર
પરિષદમાં આજે કહ્યું હતું.</p>

<p><head>મમતા બેનરજીએ કરેલી જાહેરાત</head></p>

<p>સી.પી.આઇ. (એમ) સાથેની
લડાઇમાં પ્રમાણિકતાપૂર્વક રસ ન લેવાનો કોંગ્રેસ પર આરોપ કરતાં બેનર્જીએ પહેલાંના
તેમનાં આરોપને દોહરાવતાં કહ્યું હતું કે કેટલાંક કોંગ્રેસી નેતાઓ
માર્કસવાદીઓને મજબુત બનાવવા માંગતા હતા.</p>

<p>આરોપોને આગળ
ધપાવતા બેનર્જીએ કહ્યું હતું કે સીપીઆઇ (એમ) સાથે લડાઇમાં ઉતરવા માંગતા
કોઇપણ પક્શ સાથે જોડાણ કરવા માંગતા હતા. પરંતુ જેઓ માર્કસવાદીઓ સાથે લડવા તૈયાર
નથી એવા લોકો સાથે અમે જોડાણ ચાલુ કઇ રીતે રાખી શકીએ? એમ તેમણે પૂછ્યું હતું.</p>

<p>ધારાસભાની
ચૂંટણીઓમાં સ્વતંત્રપણે કે શરદ પવારના નેશનાલીસ્ટ કોંગ્રેસ પક્શનાં ઉમેદવાર તરીકે
તૃણમુલનાં ઉમેદવારો સામે ચૂંટણી લડનાર બળવાખોર નેતાઓને પણ કોંગ્રેસે તેમના
જુથમાં સમાવી લીધાં હતાં એમ મમતા બેનર્જીએ કોંગ્રેસ પર વધુ એક આરોપ મુકતા
કહ્યું હતું.</p>

<p> </p>






</body></text></cesDoc>