<cesDoc id="guj-w-samachar-news-nat-01-07-05" lang="guj">
<cesHeader type="text">
<fileDesc>
<titleStmt>
<h.title>guj-w-samachar-news-nat-01-07-05.txt</h.title>
<respStmt>
<respType>Electronic file created by</respType>
<respName>Department of Linguistics, Lancaster University</respName>
<respType>text collected by</respType>
<respName>Andrew Hardie</respName>
<respType>transferred into Unicode by</respType>
<respName>"Unicodify" software by Andrew Hardie</respName>
</respStmt>
</titleStmt>
<publicationStmt>
<distributor>UCREL</distributor>
<pubAddress>Department of Linguistics, Lancaster University, Lancaster, LA1 4YT, UK</pubAddress>
<availability region="WORLD"></availability>
<pubDate>03-08-24</pubDate>
</publicationStmt>
<sourceDesc>
<biblStruct>
<monogr>
<h.title>"Gujarat Samachar" internet news (www.gujaratsamachar.com), news stories collected on 01-07-05</h.title>
<h.author>Gujarat Samachar</h.author>
<imprint>
<pubPlace>Gujarat, India</pubPlace>
<publisher>Gujarat Samachar</publisher>
<pubDate>01-07-05</pubDate>
</imprint>
</monogr>
</biblStruct>
</sourceDesc>
</fileDesc>
<encodingDesc>
<projectDesc>Text collected for use in the EMILLE project.</projectDesc>
<samplingDesc>Simple written text only has been transcribed. Diagrams, pictures and tables have been omitted and their place marked with a gap element.
</samplingDesc>
<editorialDecl>
<conformance level="1"></conformance>
</editorialDecl>
</encodingDesc>
<profileDesc>
<creation>
<date>03-08-24</date>
</creation>
<langUsage>Gujarati</langUsage>
<wsdUsage>
<writingSystem id="ISO/IEC 10646">Universal Multiple-Octet Coded Character Set (UCS).</writingSystem>
</wsdUsage>
<textClass>
<channel mode="w">print</channel>
<constitution type="composite"></constitution>
<domain type="public"></domain>
<factuality type="fact"></factuality>
</textClass>
<translations></translations>
</profileDesc>
<revisionDesc></revisionDesc>
</cesHeader>

<text>
<body>




<p><head>ચેન્નાઈ જેલમાંથી એમ.
કરૂણાનિધિનો છૂટકારો </head></p>

<p>ચેન્નાઈ, તા.૩</p>

<p>ડીએમકેના પ્રમુખ તથા
તામિલનાડુના ભૂતપૂર્વ મુખ્યપ્રધાન શ્રી કરૂણાનિધિની જૈફ ઉંમર ઉપર વિચાર કરીને
માનવતાવાદી ધોરણે જયલલિતાની સરકારે તેમને છોડી મુકવાનો હુકમ જારી કર્યા બાદ
શ્રી કરૂણાનિધિ આજે અત્રેની સેન્ટ્રલ જેલમાંથી બહાર આવ્યા હતા. તપાસ કરનાર
અધિકારીએ ફાઇલ કરેલા મેમોના સંદર્ભમાં પ્રિન્સીપાલ સેશન્સ જજ શ્રી એમ. અશોક
કુમારે શ્રી કરૂણાનિધિને મુક્ત કરવાનો હુકમ કર્યો હતો. અધિકારીએ એવી
રજૂઆત કરી હતી કે હવે તપાસ માટે શ્રી કરૂણાનિધિને અટકાયતમાં રાખવાની જરૂર નથી.</p>

<p>ડીએમકેના પ્રમુખની વયોવૃદ્ધ
ઉંમર જોતાં માનવતાના ધોરણે જયલલિતાએ લીધેલું પગલું : જયલલિતા મારી
તથા કરૂણાનીધિની હત્યા કરવા માંગે છે: મારન</p>

<p>ન્યાયમૂર્તિનો સમંસ મળે
એટલે અદાલતમાં હાજર થવાનો આદેશ પણ શ્રી કરૂણાનિધિને આપ્યો છે. ઉલ્લેખનીય છે
કે ચેન્નાઈમાં ફલાય ઓવરો બાંધવામાં રૂા. ૧૨ કરોડની થયેલી ગેરરીતિઓ અંગેના
એક કેસમાં શ્રી કરૂણાનિધિની ધરપકડ કરવામાં આવી હતી. એ અગાઉ
મુખ્યપ્રધાન કુ. જયલલિતાની કરૂણાનિધિની મુક્તિનો હુકમ જારી કરીને કહ્યું હતું
કે તેમ છતાં કરૂણાનિધિ સામેનો કેસ ચાલુ રહેશે. કેન્દ્રીય પ્રધાન શ્રી મુરાસોલી
મારન તથા ટી.આર. બાલુ સહિતના ડીએમકેના સિનિયર નેતાઓ શ્રી કરૂણાનિધિનું સ્વાગત
કરવા સેન્ટ્રલ જેલમાં ગયા હતા. દિવસ દરમિયાન શ્રી મારનને એપોલો હોસ્પિટલમાંથી રજા
આપવામાં આવી હતી. સાંજે પાંચને વીસ મિનિટે શ્રી કરૂણાનિધિ જેલમાંથી બહાર આવ્યા
હતા. ડીએમકેના ઘણા ટેકેદારોએ જયલલિતા વિરૂદ્ધ સૂત્રોચ્ચારો કરીને કરૂણાનિધિની
મુક્તિને વધાવી લીધી હતી. શ્રી કરૂણાનિધિને વ્હીલચેરમાં જેલમાંથી બહાર
લાવવામાં આવ્યા હતા. એ પછી તરત જ તેઓ ડીએમકેના વડામથક અન્ના અરીવલયમ્ ખાતે
હંકારી ગયા હતા.</p>

<p>દરમિયાનમાં હોસ્પિટલમાંથી
રજા આપ્યા બાદ શ્રી મારને પત્રકારો સાથેની વાતચીતમાં કહ્યું હતું કે કરૂણાનિધિની
ધરપકડની ઘટના તેમને તથા મને ખતમ કરી દેવાના કાવતરાનો એક ભાગ છે.
તામિલનાડુની આ અસાધારણ સ્થિતિથી ત્યાં રાષ્ટ્રપતિ શાસન લાદવાની જરૂર છે. શ્રી મારને
કહ્યું હતું કે ધરપકડની આ સમગ્ર ઘટના હું જોઉં તે તેમને પસંદ નહોતું એટલે
તેઓ મને પણ ખતમ કરી દેવા માગતા હતા.</p>

<p>પોતે પોલિસ ઉપર હુમલો
કર્યો હોવાના આક્શેપ અંગે શ્રી મારને કહ્યું હતું કે મેં કોઈની ઉપર હુમલો કર્યો
નથી હું તો મારો જીવ બચાવવાનો પ્રયાસ કરી રહ્યો હતો.</p>




<p><head>ખાનગીમાં યુએસ-૬૪ વેચીને
છૂટા થતાં નાના રોકાણકારો</head></p>

<p>મુંબઈ,તા.૪</p>

<p>યુનિટ ટ્રસ્ટ ઓફ ઇન્ડિયા
(યુ.ટી.આઇ.)એ યુએસ-૬૪ સ્કીમનું વેચાણ અને પુન:ખરીદી છ માસ માટે મોકૂફ
રાખવાથી અનેક નાના રોકાણકારો ખાનગીમાં તેમના યુનિટ દસ રૂપિયાનાં ભાવોભાવ વેચીને
છૂટા થઈ રહ્યા છે.</p>

<p>રૂા.૯ થી ૧૦ના ભાવે થઇ
રહેલા સોદા</p>

<p>જાણકાર વર્તુળોએ કહ્યું હતું
કે આજે ૯થી ૧૦ રૂપિયાના (કમ ડિવિડન્ડ) ભાવે કેટલાક યુનિટોના સોદા ખાનગીમાં પડયા
હતા. આનો અર્થ એ કે, મે માસમાં યુ.ટી.આઇ. છેલ્લા રૂ.૧૪.૨૫ ભાવે આ યુનિટની
પુન:ખરીદી કરતું હતું તેની સરખામણીએ નાના રોકાણકારો યુનિટ દીઠ ઓછામાં
ઓછા ચાર રૂપિયાની નુકસાની વેઠીને પણ યુનિટો વેચી રહ્યા છે. આ ભાવે યુનિટો વેંચવામાં
તેમણે એક રૂપિયાનું જાહેર કરેલું ડિવિડંડ પણ ગુમાવવું પડે છે.</p>

<p>''યુનિટ ટ્રસ્ટની નબળી
કામગીરી છતાં નાના રોકાણકારોએ ગભરાવા જેવું નથી.'' એવા નાણાંપ્રધાન યશવંત
સિંહાના નિવેદનની રોકાણકારો ઉપર મુદ્દલે અસર થઈ નથી. ઉલ્ટું, આવતા ડિસેમ્બરમાં
યુ.એસ-૬૪ સ્કીમ નેટ એસેટ વેલ્યુ (એન.એ.વી.) આધારીત બનશે ત્યારે આટલો ભાવ
પણ નહીં ઉપજે એવા અર્થઘટનો નીકળવાથી તેમનો ગભરાટ વધેલો જણાતો હતો. યુનિટ
ટ્રસ્ટના ભૂતપૂર્વ અધ્યક્શ પી.એસ.સુબ્રમણીયમે નવી દિલ્હીમાં કરેલા નિવેદનથી તેમને અત્યારે
યુનિટો વેચીને હળવા થવાનું કારણ મળ્યું છે. શ્રી સુબ્રમણ્યમે એવું કહ્યું હતું કે
યુ.એસ.-૬૪નું રિઝર્વ ભંડોળ ખતમ થઈ ગયું હોય તેવું શક્ય છે.</p>

<p>યુનિટ ટ્રસ્ટે વર્ષ ૨૦૦૦-૦૧
દરમિયાન યુ.એસ-૬૪ સ્કીમમાં રૂ.૩૩૦૧ કરોડનું રિડમ્પશન ચૂકવ્યું હતું. વિતેલા વર્ષમાં
ટ્રસ્ટે યુ.એસ.-૬૪માં રૂ.૨૬૬૧ કરોડના વેચાણની સામે રૂ,૫,૯૬૨ કરોડ પુન:ખરીદીમાં
ચૂકવ્યા હતા.</p>

<p>બજારના વર્તુળોએ કહ્યું હતું
કે યુનિટ ટ્રસ્ટે યુ.એસ.-૬૪ યુનિટની મૂળ દસ રૂપિયા કિંમતની સામે ૬૦ ટકા લોન
રોકાણકારોને આપવાની તૈયારી દર્શાવી હોવાના પણ અવળા સૂચિતાર્થો પડયા છે. સામાન્ય
રીતે બેંકો ૧૦થી ૧૫ એન.એસ.સી. અને યુનિટ-૬૪ની સામે લોન આપતી હોય છે. જો
યુ.ટી.આઇ. ૪૦ ટકા માર્જિન રાખતું હોય તો શક્ય છે કે તેની સંભવિત એન.એ.વી.
રૂ.૮.૫૦થી ૯ અથવા તેથી ય ઓછી હોય.</p>

<p>અત્યારે દસ રૂપિયાના નીચા
ભાવે ગરજાઉ રોકાણકારો પાસેથી યુનિટ પડાવી લેવાની કેટલાંક ડીલરોની પ્રવૃત્તિનો બચાવ
કરતા આ વર્તુળોએ કહ્યું હતું કે આ ભાવે યુનિટ લેનારા પણ જોખમ ઉઠાવી રહ્યા છે.
ડિસેમ્બરમાં આ યુનિટની એન.એ.વી. કંઈ જાહેર થાય છે તે મહત્વનું છે. જો ભાવ ૯
રૂપિયાથી નીચે જાહેર થયો તો શેર-નાણા બજારમાં વધુ ઘટાડો લાવવા માટે તેે
નિમિત્ત બનશે.</p>




<p><head>નાણા મંત્રાલય યુ.ટી.આઇ.ના
બોર્ડમાં તળીયાઝાટક ફેરફારો કરશે</head></p>

<p>મુંબઈ,તા.૪</p>

<p>યુનિટ ટ્રસ્ટ ઓફ ઇન્ડિયા
(યુટીઆઇ)ના અધ્યક્શ પી.એસ.સુબ્રમણ્યમનું રાજીનામું માંગી લીધા પછી નાણા મંત્રાલય
યુ.ટી.આઇ.ના બોર્ડ ઓફ ડિરેકટર્સમાં તળીયા ઝાટક ફેરફારો કરી રહ્યું છે.</p>

<p>નાણાં મંત્રાલયના
સાધનોએ ''ગુજરાત સમાચાર''ને આજે કહ્યું હતું કે ડિરેકટર બોર્ડની પુર્નરચના
કરવાના હેતુથી એક્ઝિકયુટીવ ડિરેકટરોને આજે તાત્કાલિક દિલ્હી બોલાવ્યા હતા. આમાંથી
ઘણા એક્ઝિકયુટીવ ડિરેકટરો તો રાબેતા મુજબ સવારે ઓફિસે આવ્યા બાદ નવી દિલ્હી
જવાનો તાકીદનો સંદેશો મળતા સીધા એરપોર્ટ જવા રવાના થઈ ગયા હતા.</p>

<p>આ સાધનોએ કહ્યું હતું
કે યુ.ટી.આઇ.ના આઠમાંથી પાંચ એક્ઝિક્યુટીવ ડિરેકટરો આજે દિલ્હી પહોંચ્યા હતા. આ
ડિરેકટરો છે: કે.જી.વાસલ, એમ.એમ.કપુર, એસ.કે.બાસુ, બી.જી.દાગા અને
ડી.એસ.આર.મૂર્તિ.</p>

<p>એક એક્ઝિકયુટીવ ડિરેકટર
વી.એસ.પંડિત મુંબઈ ઓફિસમાં હાજર હતા. જયારે તેમના સાથી ડિરેકટર શ્રી
એ.એન.પલવણકર વાશીમાં યુ.ટી.આઇ. ઇન્સ્ટીટયુટમાં કામગીરી બજાવતા હોવાથી તેમને દિલ્હી
જવાની જરૂર જણાઈ નહોતી.</p>

<p>આ સાધનોએ
વધુમાં કહ્યું હતું કે નાણાં મંત્રાલય સાથેની બેઠકમાં ડિરેકટરોના ખાતામાં
ફેરફારો કરવામાં આવશે.</p>

<p>વરિષ્ઠ એક્ઝિકયુટીવ ડિરેકટર
વાસલને યુ.ટી.આઇ. અધ્યક્શની જવાબદારી વચગાળાના સમય પૂરતી સોંપાઈ હોવાની શક્યતા આ
વર્તુળોએ વ્યકત કરતા કહ્યું હતું કે યુ.ટી.આઇ.ના ઈતિહાસમાં અધ્યક્શ તરીકે બહારની
વ્યકિતને જ લાવવામાં આવી છે, જેમ કે સુબ્રમણ્યમને આઇ.ડી.બી.આઇ.માંથી લાવવામાં
આવ્યા હતા.</p>

<p>અધ્યક્શપદેથી ગઈ રાતે
રાજીનામું આપી દીધા પછી સુબ્રમણ્યમે આજે યુ.ટી.આઇ.ની મરીન લાઈન્સ ઓફિસમાં પગ
નહોતો મૂક્યો. નાણાં પ્રધાન યશવંત સિંહાએ ગઈકાલે તેમનું રાજીનામું માગી
લીધા પછી ડિરેકટરોના બોર્ડમાં તળીયા ઝાટક ફેરફારો આવવાની સંભાવના વધી
ગઈ હતી.</p>

<p>નાણાંમંત્રાલયે યુ.ટી.આઇ.ની
કામગીરીની ઝીણવટભરી તપાસનો આદેશ આપ્યાના અહેવાલોના પગલે ટ્રસ્ટની ઓફિસમાં
વાતાવરણ તાણભર્યું હતું અને કોઈ અધિકારી વાત કરવા તત્પર નહોતા.</p>

<p>યુ.ટી.આઇ. સંયુક્ત સંસદીય
સમિતિની તપાસનો પણ સામનો કરી રહી છે. આ સમિતિ અંદાજપત્ર પછી માર્ચ-એપ્રિલમાં
શેરબજારમાં આવેલી મંદીમાં યુ.ટી.આઇ.ની કામગીરીની સમીક્શા કરશે. માર્ચ માસમાં
શેરબજારમાં મંદી ચાલુ હતી ત્યારે પણ ટ્રસ્ટે કેતન પારેખની જાતોમાં ચોખ્ખી ખરીદી કરી
હોવાના અહેવાલો પછી જેપીસીની તપાસ વેગીલી બનશે. આ ખરીદીમાં પણ ભ્રષ્ટાચાર થયો
હોવાનો આક્શેપ છે.</p>

<p>આ તપાસના પગલે અનેક
ડિરેકટરોને પાણીચું આપવામાં આવે એવી શક્યતા જાગી છે, એમ સાધનોએ કહ્યું
હતું.</p>




<p><head>જેસીકા લાલ હત્યા કેસને એક
મોટો ફટકો: ચોથો સાક્શી પણ ફરી ગયો</head></p>

<p>નવી દિલ્હી, તા.૪</p>

<p>જેસિકા લાલ હત્યા કેસમાં
આજે પરિક્શિત સાગર નામનો એક ચોથો સાક્શી પણ ફરી જતાં આ કેસમાં ફરિયાદીને એક
વધુ ધક્કો લાગ્યો છે. ગયા મહિનામાં ત્રણ મહત્ત્વના સાક્શીઓ શ્યામ મુન્શી, શિવદાસ
તથા કરણ રાજપુત તો પાઘડી ફેરવી ચૂક્યા છે. આજે પોતાના અગાઉના નિવેદનથી વિપરીત
બયાન રજૂ કરીને પરિક્શિત પણ ફરી ગયો હતો.</p>

<p>દિલ્હી સ્થિત પરિક્શિત
સાગરે અગાઉનું નિવેદન ફેરવી તોળ્યું</p>

<p>અગાઉ ૧૯૯૯ના મે માસમાં
પરિક્શિતે પોલિસ સમક્શ એવું નિવેદન કર્યું હતું કે ૧૯૯૯ના એપ્રિલની ૨૯-૩૦મીની રાત્રે
પાર્ટી દરમિયાન મેં મુખ્ય આરોપી મનુ શર્મા સહિત તમામ આરોપીઓને જોયા હતા. મનુ
શર્માએ મોડેલ લાલ ઉપર ગોળી ચલાવી હોવાનું મનાય છે. આજે વધારાના સેશન્સ જજ
શ્રી એચ.આર. મલ્હોત્રા સમક્શ જુબાની આપતાં પરિક્શિતે પોતાના આ નિવેદનમાંથી
પારોઠના પગલાં ભર્યાં હતાં. તેણે અદાલતને કહ્યું હતું કે એ કમનસીબ રાત્રે કુતુલ
કોમોનેડમાં રેમેરીન્ડ કાફે ખાતે મેં પાર્ટીમાં હાજરી આપી હતી પણ રાત્રે એક વાગે
હું ચાલ્યો ગયો હતો અને મારા ગયા પછી હત્યાની ઘટના બની હતી.</p>

<p>દિલ્હી સ્થિત વેપારી પરિક્શિત
સાગરે વધુમાં કહ્યું હતું કેસમાં જેના નામ આપ્યા છે તે તમામ આરોપીઓને હું જાણતો
હોવા છતાં મેં પાર્ટીમાં આ પૈકીના એક પણ આરોપીને જોયો નહોતો. અદાલતમાં તમામ
આરોપીઓને ઓળખી કાઢીને પરિક્શિતે કહ્યું હતું કે હું રાત્રે એક વાગ્યા સુધી
ત્યાં હતો અને સૌને દારૂ પિરસતી જેસિકા લાલને મેં જોઈ હતી પણ હું જ્યાં સુધી
ત્યાં હતો ત્યાં સુધી એક પણ આરોપીને મે જોયો નહોતો. મનુ શર્માને
સ્વચ્છતાનું પ્રમાણપત્ર આપતાં પરિક્શિતે કહ્યું હતું કે હું મનુને એક મિત્ર તરીકે
ઓળખતો હતો જે હોટલોનો માલિક હતો પણ મનુ પાસે ટાટા સફારી કાર છે કે નહીં
તેની મને ખબર નહોતી.</p>

<p>એવો આક્શેપ થયેલો છે કે
જેસિકા લાલનું ખૂન કર્યા બાદ મનુ શર્મા કાળી રંગની ટાટા સફારીમાં ફરાર થઈ ગયો હતો.</p>




<p><head>જયલલીથા-કરૂણાનિધિ-બાલુ-મારન
તમિલ ફિલ્મ - ખલનાયકો બધા, નાયક કોઇ જ નહીં</head></p>

<p><head>તામિલનાડુના રાજકિય તખ્તા પર
એક વરવો મેલોડ્રામા ભજવાઇ ગયો. </head></p>

<p>તામીલનાડુના વયોવૃધ્ધ
નેતા કરૂણાનિધિની ધરપકડના કિલપીંગ્સ ટીવી પર જોવા પાછા આખા દેશમાં
લોકોને જયલલીથા માટે તિરસ્કાર અને કરૂણાનિધિ માટે કરૂણા પેદા થયાં.
કરૂણાનિધિની ધરપકડ પછી જરાયે વિચલિત થયાં વગર જ જયલલીથા તેમની પ્રિય સખી
શશિકલા સાથે મંદિરમાં દર્શને ગયાં. હાથીની ભેટ આપી. હાથીની ભેટ આપવા માટેનું કારણ
તામીલનાડુમાં સત્તાની પ્રાપ્તી થઇ તે હતી.</p>

<p>વેરની વસૂલાતોથી ભરેલો
પોલિટિકલ મેલોડ્રામા</p>

<p>આ દેશના તમામ રાજ્યોની એક
આગવી ઓળખ છે તેમ તામીલનાડુની પણ એક આગવી ઓળખ છે. તામીલનાડુ શિક્શિત
લોકોનો પ્રાંત છે. દક્શિણનાં રાજ્યોમાં ઇન્ફર્મેશન ટેકનોલોજીના ક્શેત્રમાં તે સતત
સ્પર્ધામાં છે. ચેન્નાઇના સચિવાલયમાં પણ લોકો સફેદ લુંગી અને સફેદ બુશશર્ટ
પહેરીને નોકરી કરતા જોવા મળે છે. સ્વ.નેતા કામરાજની આ કર્મભૂમિ છે. સુખી લોકો
કેળાના પાન પર ભોજનની લુફ્ત માણે છે. સમગ્ર દેશની યુવતિઓને પંજાબી ડ્રેસની ભેટ જેમ
પંજાબે આપી છે તેમ આખા દેશમાં મદ્રાસી ઢોંસાને લોકપ્રિય બનાવનાર તામીલનાડુ છે.</p>

<p>હિન્દુ મંદિરો અને
ગોપુરમથી શોભતો આ પ્રાન્ત એવો છે કે જ્યાં લોકો રાવણની પૂજા પણ કરે છે. અહીંનું
રાજકારણ અનેક રહસ્યોથી ભરેલું છે. રાજીવ ગાંધીની હત્યાનું કાવતરૂં તામીલનાડુમાં
જ પાર પાડવામાં આવ્યું હતું. રાજીવના હત્યારાઓ આ પ્રાંતમાં જ પોતાનું ગજબનું
નેટવર્ક ધરાવતા હતા. રાજીવની હત્યા કરવા માટે શ્રીલંકાના એલટીટીઇ સાથે અહીંના
સ્થાનિક રાજકારણીઓ છૂપી સાંઠગાંઠ ધરાવતા હતા. કરોડો રૂપિયા ખર્ચવા છતાં
ચંદનચોર વીરપ્પન પકડાતો નથી તેનું એક કારણ તામીલનાડુના કેટલાક રાજકારણીઓની
વીરપ્પનને છૂપી મદદ છે.</p>

<p>તામિલનાડુની બીજી ઓળખ એ
છે કે અહીં રાજકારણ અને ફિલ્મ જગતની ભેળસેળ છે. તામીલનાડુના અત્યંત લોકપ્રિય પૂર્વ
મુખ્યમંત્રી એમ.જી.રામચંદ્રન કોઇ જમાનાના સ્ટંટ એક્ટર હતા. જયલલીથા તેમનાં અધિકૃત
પત્ની કરતાં વધુ નજીકના સાનિધ્યનો વિશેષાધિકાર ભોગવતાં હતાં. જેમની ધરપકડ
બાદ જબરો રાજકીય કોલાહલ મચ્યો હતો તેવા કરૂણાનિધિ ખુદ ફિલ્મોના સ્ક્રીન પ્લે
લેખક હતા. જયલલીથા ખુદ એક્ટ્રેસ હતાં.</p>

<p>ફિલ્મ જગતમાંથી આવેલા આ
બંને રાજકારણીઓએ કોઇ સ્ટંટ પિકચરનો ડ્રામા હજી રાજકીય તખ્તા પર પણ ચાલુ રાખ્યો છે.
હાલ બની ગયેલા બનાવોને બાજુમાં રાખીએ તો કોને નાયક કહેવા ને કોને ખલનાયક
કહેવાં તે મુશ્કેલ છે.</p>

<p>કરૂણાનિધિની
ધરપકડથી લોકોમાં ઉશ્કેરાટ ફેલાયો એ વાત સાચી પરંતુ કરૂણાનિધિ અને
જયલલીથા વચ્ચે એક વાત કોમન છે કે બેઉએ ભ્રષ્ટાચાર કર્યો છે. બંનેએ રાજ્યની તિજોરી
પર ધાપ મારેલી છે. જયલલીથા હાઇ પ્રોફાઇલ પર હોઇ તેમનો ભ્રષ્ટાચાર તેમના દેહ,
તેમની સાડીઓ, તેમનાં જૂતાં અને રહનસહન પરથી જોઇ શકાય છે. કાળાં ચશ્માં પહેરતા
કરૂણાનિધિ બહુ ઓછું ને ધીમું બોલતાં હોઇ કપડાં પણ સાદાં પહેરતાં હોઇ
તેમનો ભ્રષ્ટાચાર ઉડીને આંખે વળગતો નથી.</p>

<p>જ્યોર્જ ફર્નાન્ડિઝના કહેવા
પ્રમાણે કરૂણાનિધિને પંખા વગરની ૧૨ટ૧૨ની કોટડીમાં રખાયા છે. તો જયલલીથા કહે છે
કે ''મને કરૂણાનિધિએ જ્યારે જેલમાં પૂરી ત્યારે ૨૬ દિવસ સુધી
એલ્યુમિનિયમની ગંદી થાળીમાં ભોજન આપવામાં આવતું હતું.''</p>

<p>કરૂણાનિધિને એરકંડીશન
રૂમ કેમ નથી અપાયો તેની સામે ફર્નાન્ડિઝને વાંધો છે. સવાલ એ છે કે સચિવાલયનો
કર્મચારી ૫૦ રૂપિયાની લાંચના કેસમાં પકડાય તો સસ્પેન્ડ થઇ જાય છે અને સાયકલના ચોરને છ
મહિનાની જેલ થાય છે. અહીં કરૂણાનિધિ અને જયલલીથાએ બંનેએ કરોડોનો ભ્રષ્ટાચાર
કર્યો છે અને બેઉને ફાઇવસ્ટાર જેલ જોઇએ છે. એમની એવી સવલતો મળવી જોઇએ એવું
માનવાવાળા ભક્તો પણ તેમની પાસે છે.</p>

<p>સવાલ એ છે કે
કરૂણાનિધિની જે રીતે ધરપકડ કરાઇ તે રીત બરાબર હતી કે કેમ?</p>

<p>સન ટીવીએ બતાવેલાં દ્રશ્યો
સાચાં હોય તો પોલિસની એ પધ્ધતિ સારી નહોતી. આ દેશની પોલિસ આમેય જંગલી
જ છે, અસભ્ય છે. પોલિસ સ્ટેશનની અંદરનું વાતાવરણ જેટલું અસભ્ય અને ગંદુ હોય છે
તેટલું ભાગ્યે જ બીજે ક્યાંય હોય છે.</p>

<p>આવી પોલિસ જ્યારે
રાજકારણીઓના હાથમાં રમવા માંડે છે ત્યારે વધુ જંગલિયત આદરે છે. રાજકારણીઓ
વર્ષોથી પોલિસનો આવો દુરૂપયોગ કરતા જ આવ્યા છે. ભૂતકાળમાં માધવસિંહ
સોલંકીએ ગુજરાતમાં અને ખાસ કરીને અમદાવાદમાં પોલિસ દ્વારા જે જુલ્મો કરાવરાવ્યા
હતા તે ગુજરાતના ઇતિહાસનું એક કલંકિત પ્રકરણ છે. હવે એ જ કામ તામીલનાડુમાં થઇ
રહ્યું છે.</p>

<p>સવાલ સન ટીવીએ બતાવેલાં
દ્રશ્યોની અધિકૃતતાનો છે. સન ટીવીએ બતાવેલાં દ્રશ્યો સાચુકલાં હોય તો પોલિસનું
વર્તન અને વલણ ધૃણાસ્પદ છે પરંતુ તામીલનાડુમાં ચેનલ વોર ચાલે છે. સન ટીવી
કરૂણાનિધિના ભત્રીજા મુરાસોલી મારનનું છે જ્યારે તેની સામે જયલલીથાનું જયા ટીવી
બીજું જ કાંઇ કહે છે. સન ટીવીના દ્રશ્યોની સામે પોલિસે પોતાની પણ વિડિયોટેપ રિલિઝ
કરી છે. પોલિસની વિડિયોટેપમાં બતાવવામાં આવ્યું છે કે પોલિસ જ્યારે
કરૂણાનિધિની ધરપકડ કરવા ગઇ ત્યારે કરૂણાનિધિ હસતા હસતા પોલિસની સાથે
બહાર નીકળતાં જણાય છે. પરંતુ આ ધરપકડ થવાની છે તેવા અગાઉથી જેમને ખબર હતા
તેવા મારન ગુસ્સામાં આવતા જણાય છે અને પોલિસને ગાળો દે છે. મારન ખુદ પોલિસ સાથે
સંઘર્ષમાં ઉતરે છે અને મામલો બીચકે છે. જો આ દ્રશ્ય સાચું હોય તો પોલિસને
ઉશ્કેરવા માટે મારન ખુદ જવાબદાર છે. જયા ટીવીનું કહેવું છે કે કરૂણાનિધિને
ઉંચકીને લઇ જવાયા તે દ્રશ્યોમાં કરૂણાનિધિનો જે અવાજ છે તે ખરેખર
કરૂણાનિધિનો નથી પરંતુ પાછળથી એડીટીંગ રૂપમાં ડબ કરાયેલો અવાજ છે.</p>

<p>ટૂંકમાં જયલલીથા અને
કરૂણાનિધિ બેઉ એકબીજાને વગોવવા ઇલેક્ટ્રોનિક મિડિયાનો અને તેમાં રહેલી
કરામતોનો ઉપયોગ કરી રહ્યાં છે. બંને જણ ફિલ્મ ક્શેત્ર સાથે સંકળાયેલાં છે અને બંને
જણ સિનેમિટ્રિક ટ્રીક્સ જાણે છે.</p>

<p>જયલલીથા જે રીતે પોતાની
ધરપકડનું વેર કરૂણાનિધિ સાથે વસૂલ કરી રહ્યા છે તે રીતે બાજપાઇજીના નેતૃત્વ
હેઠળની સરકાર પણ તામિલનાડુના ગવર્નરપદેથી ફાતિમાબીવીની હકાલપટ્ટી કરીને હિસાબ સેટલ
કરી રહ્યાં છે. એનડીએના મતે ફાતિમાબીવીનો વાંક એ હતો કે તેમણે કેન્દ્રને પૂછ્યા
વગર જયલલીથાને મુખ્યમંત્રી તરીકેના શપથ લેવરાવી દીધા હતા. જયલલીથા પાસે સ્પષ્ટ
બહુમતી હતી જ પછી પૂછવાનો સવાલ જ ક્યાં હતો? હા, એક સવાલ હતો કે જયલલીથાનું
ઉમેદવારીપત્ર રદ થયું હોઇ તેમને મુખ્યમંત્રી તરીકે શપથ લેવરાવી શકાય ખરા? ફાતિમાબીવી
પોતે સુપ્રિમ કોર્ટના જજ રહી ચૂકેલાં છે. જયલલીથા મુખ્યમંત્રી બનવા માટે લાયક કે ગેરલાયક
તે નક્કી કરવાનું કામ ગવર્નરોનું નહીં પણ અદાલતનું છે. ગવર્નરે તો બહુમતી ધરાવતા
પક્શનો પત્ર આપ્યો હોય અને જેનું નામ નેતા તરીકે મૂકવામાં આવ્યું હોય તેને
આમંત્રણ આપવાનું જ હોય છે. એ દ્રષ્ટિએ ફાતિમા બીવીએ કશું જ ખોટું કર્યું નહોતું.
આ તો અમ્માની સાન ઠેકાણે લાવવા કેન્દ્ર સરકારે ફાતિમાબીવીને હલાલ કરી નાંખ્યા છે.</p>

<p>બીજા શબ્દોમાં એમ કહી શકાય
કે જયલલીથા જો વેરની વસૂલાતનો ખેલ ખેલે છે તો કેન્દ્ર સરકાર પણ વેરની વસૂલાતનો
એનો એ જ ખેલ ખેલી રહી છે. બંનેમાંથી એક પણ ન્યાયોચિત નથી. તામીલનાડુથી માંડીને
દિલ્હીના પોલિટિશ્યનો હિંદુસ્તાનની પ્રજાને મેલોડ્રામાથી ભરપૂર અને જોવાં ના ગમે તેવાં
દ્રશ્યોવાળી ફિલ્મ મફતમાં બતાડી રહ્યા છે. એમાં નાયક તો કોઇ છે જ નહીં. બધા જ
ખલનાયકો છે. ગેંગસ્ટરો છે અને વારાફરતી વાર કરે છે.</p>

<p>જયલલીથાએ કરૂણાનિધિની
ટાંગાટોળી કરાવતા ખીજાયેલી કેન્દ્ર સરકારે તામીલનાડુને ગંભીર ધમકી આપી છે અને
જયલલીથાને પણ પોતાની સરકાર જવાની બીકે કેન્દ્રના ઢીંચણીયે પડી જવાની ફરજ પડી છે. બાલુ
અને મારન એ બે કેન્દ્રીય નેતાઓ સામેના કેસો પડતા મૂકવાની અમ્માની જાહેરાત એ આ
પોલિટિકલ સ્ટંટ ફિલ્મનું છેલ્લું દ્રશ્ય છે.</p>

<p>જયલલીથા કરૂણાનિધિ
સાથેનો હિસાબ સમજે છે તો કેન્દ્ર ફાતિમા સાથે વેરની વસૂલાત કરે છે</p>




<p><head>લગ્નનું વચન આપીને મહિલાનું
શરીર ભોગવવું હવે ગુનો બનશે</head></p>

<p>નવી દિલ્હી, તા. ૪</p>

<p>શારીરીક ભૂખ સંતોષવા જ
યુવિતીઓને લગ્નની જાળમાં ફસાવતા યુવાનોએ હવે ચેતવા જેવું છે. આ રીતે એક મહિલા
સાથે છેતરપિંડી કરનાર ડિપ્લોમા ઇજનેરને ગુનેગાર ઠરાવીને અત્રેની સીટી કોર્ટે કહ્યું
છે કે લગ્નનું વચન આપીને યુવતિઓનું જાતીય શોષણ કરવાની ચેષ્ટા હવે ગુનો ગણાશે.</p>

<p>નવી દિલ્હી મ્યુનિસિપલ
કોર્પોરેશનમાં ડિપ્લોમા ઇજનેર તરીકે ફરજો બજાવતા ધરમસિંઘને છેતરપિંડીના
ગુનેગાર ગણાવીને તાજેતરમાં આપેલા એક ચુકાદામાં મેટ્રોપોલિટન મેજીસ્ટ્રેટ કામિની
લાઉએ કહ્યું હતું કે લગ્ન કરવાના પ્રસ્તાવનો ભંગ કરવો એટલે છેતરપિંડી અને આ ગુનો
સ્ત્રીઓ તથા પુરૂષોને બંનેને સરખી રીતે લાગુ પડે છે. આવી ઘટનાઓમાં મોટા ભાગે
યુવાન સ્ત્રી પુરુષો સાથે વધુ છેતરપિંડી થાય છે. એટલે આવા વચનભંગને ગુનાઇત સાબિત
કરવું. જાહેર હિતમાં પણ છે જેથી ભોગ બનેલી વ્યકિતઓનું રક્શણ કરી શકાય.</p>

<p>ઉકત કેસમાં જે મહિલા સાથે
છેતરપિંડી કરવામાં આવી છે તે પણ દિલ્હી મ્યુનિસિપિલ કોર્પોરેશનમાં જ નોકરી કરી
હતી. ૧૯૮૮માં તેણે ધરમસિંઘ સામે ફરિયાદ નોંધાવી હતી કે મારી સાથે લગ્ન
કરવાનું વચન આપીને ધરમસિંઘે મારા શરીરનો ભરપૂર ઉપયોગ કરીને મારું જાતીય
શોષણ કર્યું હતું. અને ઉચ્ચ અભ્યાસ કરવા માટે તેણે મારી પાસેથી રૂ. ૮૦૦૦ની રકમ પણ
પડાવી હતી.</p>

<p>ન્યાયમૂર્તિએ કહ્યું હતું કે
ઇજનેરે ફરિયાદીને એવું કૃત્ય કરવા માટે ઉત્તેજિત કરી હતી જે માટે સામાન્ય સંજોગોમાં
એ મહિલા તૈયાર ન થાત.</p>

<p>ઘરમાં ઘૂસણખોરી કરવાના,
ચોરી કરવાના તથા લલચાવવાના આરોપસર ધરમસિંઘે દોષિત ઠરાવીને કેટલી શિક્શા
કરવી તેનો નિર્ણય ૭મી જુલાઈ ઉપર મુલતવી રાખવામાં આવ્યો છે.</p>

<p>ધરમસિંઘે ઉકત મહિલાનો
બબ્બે વાર ગર્ભપાત પણ કરાવ્યો હતો. મહિલાએ એવી ફરિયાદ પણ કરી હતી કે આરોપી તેના
મિત્ર સાથે મારા ઘેર આવ્યો હતો અને મને ધમકી આપીને પૈસા તથા ચીજવસ્તુઓ લઈ
ફરાર થઈ ગયો હતો.</p>

<p>દિલ્હીના ડિપ્લોમા
એન્જિનીયરને દોષિત ઠરાવતી કોર્ટ</p>




<p><head>અમરનાથ યાત્રીઓની સંખ્યા પર
નિયંત્રણ કરી શકાય નહિ</head></p>

<p>નવી દિલ્હી, તા. ૪</p>

<p>દિલ્હીની વડીઅદાલતે ચાલુ
વર્ષે અમરનાથની પવિત્ર ગૂફામાં દર્શનાર્થે જવા ઈચ્છતા શ્રધ્ધાળુઓની સંખ્યા પર અંકુશ
મુકવા અંગે નાખુશી જાહેર કરતાં જમ્મુ-કાશ્મીર સરકારને કેટલા યાત્રીઓ નોંધાયા
છે તે અંગેનું રજીસ્ટર અને રેકોર્ડ રજૂ કરવાનો આદેશ આપ્યો છે.</p>

<p>અમરનાથની પવિત્ર ગૂફામાં
દર્શન કરવા ઈચ્છતા શ્રધ્ધાળુઓ માટેની આ એક ખૂબ જ મહત્વની ઘટના હોવાથી સુરક્શાના
નામે નિયંત્રણ લાદવું જોઈએ નહિ એ રાજ્ય તેની જવાબદારીમાંથી છટકી શકે નહિં એવું
ન્યાયમૂર્તિ વિજેન્દર જૈન, ન્યાયમૂર્તિ સંજયકીશન કૌલની બનેલી ખંડપીઠે જણાવ્યું હોવાનું
જમ્મુ-કાશ્મીર સરકારના વકીલ અનીશ સુહરવર્ડીએ જણાવ્યું હતું.</p>

<p>જમ્મુ જતા પહેલા દેશના સાત
નિર્ધારીત કેન્દ્રો પરથી યાત્રાળુઓ દ્વારા ફરજીયાત તેમના નામ નોંધાવવા
અંગેના જમ્મુ- કાશ્મીર સરકારના આદેશને પડકારતી પીટીશનની સૂનાવણી દરમિયાન વડીઅદાલતે
ઉપરોક્ત નોંધ કરી હતી.</p>

<p>૧૭ જુલાઈ સુધીમાં
જમ્મુથી દરરોજ કેટલા યાત્રીઓને અમરનાથ જવાની મંજૂરી આપવામાં આવે છે અને
સત્તાવાળાઓ પાસે કેટલા યાત્રીઓના નામ નોંધાયા છે તે અંગેની માહિતી આપતી
એફીડેવીટ રજૂ કરવાનો રાજ્યને નિર્દેશ આપતા અદાલતે સુનાવણીની આગામી તારીખે આ
અંગેના રેકોર્ડ રજૂ કરવાનો આદેશ આપ્યો હતો.</p>

<p> </p>




<p><head>બેંકની સહસ્વીકૃત થયેલી પોણા
બે કરોડની હુંડી બોગસ નીકળી!
ભરૂચની પંજાબ નેશનલ બેંકની શાખામાં કરોડોનો ગોટાળો બહાર આવ્યો</head></p>

<p>ભરૂચ, તા. ૪</p>

<p>ભરૂચના વામ સેલ્સ
કોર્પોરેશનને મુંબઇની એક શિવશકિત કોમ્પ્યુટર્સ નામની પેઢીએ તેના કહેવાતા માલિક
કેતન શાહ દ્વારા આપવામાં આવેલી રૂ।. ૧,૭૨,૨૦,૦૦૦/- (રૂપિયા એક કરોડ બોંતેર લાખ
વીસ હજાર)ની હુંડી બનાવટી નીકળતાં મુંબઇની ગુનાશોધક શાખામાં આપવામાં આવેલી
છેતરપીંડી અને ફોર્જરીની ફરિયાદમાં તપાસની કડી ભરૂચમાં સોનેરી મહેલ ખાતે આવેલી
પંજાબ નેશનલ બેંક સુધી પહોંચી હોઇ તાજેતરમાં પંજાબ નેશનલ બેંક, સોનેરી
મહેલના સીનીયર મેનેજર શ્રી એ.બી. ચૌહાણે પણ વામ સેલ્સ કોર્પોરેશન અને શિવશકિત
કોમ્પ્યુટર્સ સામે વળતી ફરિયાદ ભરૂચના 'એ' ડિવિ. પો. સ્ટેશનમાં નોંધાવી છે.</p>

<p>મુંબઇની ગુનાશોધક
શાખામાં નોંધાયેલી ફરિયાદનું પગેરૂં ભરૂચમાં શહેરમાં બેંકની વળતી ફરિયાદ :
મેનેજરના રોલ સામે શંકાની સોય</p>

<p>કરોડો રૂપિયાના કહેવાતા
વ્યાપારિક વ્યવહારમાં સંડોવાયેલા હુંડી, બેંકના લેટર ઓફ ક્રેડિટ અને બેંક ગેરંટીની
હકીકત એવી છે કે, પચાસ હજાર નંગ કોમ્પ્યુટર સીડી, ભરૂચના વામ સેલ્સ કોર્પોરેશને
મુંબઇની શિવશકિત કોમ્પ્યુટર્સને વેચવા માટેનો સોદો કર્યો અને મુંબઇના આ પેઢીના
કહેવાતા કોઇક કેતન શાહ નામના ઇસમે વામ સેલ્સ કોર્પો.ના બિલો અને હુંડી મુંબઇની જ
ઓપેરા હાઉસ ખાતેની પંજાબ નેશનલ બેંકના સહીસિક્કા સાથે, તેમણે બધું સ્વીકાર્યું છે, તે
રીતે ભરૂચના વામ સેલ્સમાં મોકલ્યું અને વામ સેલ્સે પોતાની સ્ટેટ બેંક ઓફ
સૌરાષ્ટ્રમાં આ રજૂ કરતાં સ્ટેટ બેંક ઓફ સૌરાષ્ટ્રએ આ બધી હુંડી બિલો સાચા
છે કે નહીં તેની ખરાઇ કરવા માટે ભરૂચની સોનેરી મહેલ ખાતે આવેલી પંજાબ નેશનલ બેંકમાં
મોકલ્યા અને પંજાબ નેશનલ બેંક, ભરૂચના સીનીયર મેનેજરે તેવા મુંબઇની ઓપેરા હાઉસની
પીએનબીના સહીસિક્કા સાચા હોવાની ખરાઇ કરી, પોતાના સહીસિક્કા પણ મારી આપ્યા અને પછી
ભરૂચના વામ સેલ્સે, રોશન ટ્રાન્સપોર્ટ દ્વારા મુંબઇની શિવશકિતને માલ મોકલ્યો. આ
હુંડી, બિલો વગેરે બધું બરાબર છે તેવો મુંબઇની ઓપેરા હાઉસની પી.એન.બી.એ.,
ભરૂચની સ્ટેટ બેંક ઓફ સૌરાષ્ટ્રને પત્ર પણ લખ્યો પરંતુ ૧૨૦ દિવસની હુંડી જે તારીખે
પાકતી હતી, તેના આગલા જ દિવસે મુંબઇની પીએનબીનો પત્ર આવ્યો કે, અમારા કસ્ટમરની
નાણાંકીય સ્થિતિ સારી નથી માટે હુંડીનું ૪૫ દિવસનું એકસટેન્શન આપો. આ પછી
વીસ-પચ્ચીસ દિવસ વીતી ગયા, દરમ્યાન સ્ટેટ બેંક ઓફ સૌરાષ્ટ્રને દાળમાં કંઇક કાળુ
લાગતાં તેના બ્રાંચ મેનેજરે મુંબઇ ખાતેની પી.એન.બી.માં જઇ રૂબરૂમાં તપાસ કરી તો ખબર
પડી કે મુંબઇની પંજાબ નેશનલ બેંકે તો આવી કોઇ હુંડી સ્વીકારી જ નથી અને તેના
લેટરપેડ, સહી-સિક્કા બધું જ બનાવટી છે.</p>

<p>એટલે સ્ટેટ બેંક ઓફ
સૌરાષ્ટ્રએ ભરૂચ આવીને વામ સેલ્સને જાણ કરતાં તેમણે પહેલાં ભરૂચ અને મુંબઇની પંજાબ
નેશનલ બેંકને નોટિસ આપી અને પછી ૨૫મી જૂને મુંબઇ ખાતે કેતન શાહ અને તેની શિવશકિત
કોમ્પ્યુટર્સ નામની પેઢી સામે ફરિયાદ નોંધાવાઇ અને જેમાં મુંબઇની પંજાબ નેશનલ
બેંકના સહી-સિક્કાની ખરાઇ કરી આપનાર ભરૂચની સોનેરી મહેલ ખાતેની પંજાબ નેશનલ બેંકના
સીનીયર મેનેજર સામે પણ શંકાની સોય તકાયેલી છે. કહેવાય છે કે, મુંબઇ ખાતેની તપાસ
શરૂ થઇ ગઇ હોવા છતાં આ જ ગુનાની બીજી ફરિયાદ ભરૂચના 'એ' ડિવિ.માં પંજાબ નેશનલ
બેંકના મેનેજર શ્રી એ.બી. ચૌહાણ દ્વારા કરવામાં આવી છે અને તેમાં વામ સેલ્સના
પ્રોપરાઇટરશ્રીને આરોપી તરીકે દર્શાવવામાં આવ્યા છે, પણ વામ સેલ્સે અગાઉ મુંબઇ ખાતે
ફરિયાદ કરી દીધી હોઇ તથા ગુનો મુંબઇ ખાતે બન્યો હોઇ, ભરૂચ પોલીસ આ
ગુંચવાડાભર્યા બેંક-કાંડની કઇ રીતે તપાસ કરે છે તે હવે જોવાનું રહ્યું.</p>




<p><head>એર ઈન્ડિયાના ડિસઈન્વેસ્ટમેન્ટ
અંગેનો નિર્ણય પુન: મોકૂફ</head></p>

<p>નવી દિલ્હી, તા. ૪</p>

<p>ડિસઈન્વેસ્ટમેન્ટ અંગેની
કેબિનેટ સમિતિ એર ઈન્ડિયાની વ્યૂહાત્મક વેચાણનો ઘણા લાંબા સમયથી પડતર નિર્ણય મોકુફ
રાખ્યો હતો. કારણકે બીડીંગમાં ખરડાયેલી કંપનીઓને ભાગ લેતા અટકાવવા માટેની જરૂરી
માર્ગદર્શિકાએ હજુ આખરી સ્વરૂપ આપવાની બાકી છે.</p>

<p>હજુ માર્ગદર્શિકાને આખરી
સ્વરૂપ અપાયું નથી : શૌરી</p>

<p>ડિસઈન્વેસ્ટમેન્ટ પ્રધાન શ્રી
અરૂણ શૌરીએ આજે અત્રે પત્રકારો સાથેની વાતચીતમાં કહ્યું હતું કે શુક્રવાર
સુધીમાં આ માર્ગદર્શિકા તૈયાર થઈ જવાની શક્યતા છે. એ પછી જ એર ઈન્ડીયાનું
ડિસઈન્વેસ્ટમેન્ટ હાથ ઉપર લેવાશે.</p>

<p>કેબિનેટની સમિતિની બેઠક
આજે અઢી કલાક માટે મળી હતી પણ કશો નિર્ણય લઈ શકાયો નહોતો.</p>

<p>શ્રી શૌરીએ કહ્યું હતું કે
સમિતિએ નવ પૈકીની છ ડિસ ઈન્વેસ્ટમેન્ટ દરખાસ્તોને આજે મંજૂરી આપી દીધી છે.
બાકીની ત્રણ દરખાસ્તો ઉપર પછીથી વિચાર થશે. જાહેર ક્શેત્રનાં કયાં છ સાહસોને મંજૂરી
અપાઈ છે તેવી વિગતો પ્રધાને આપી નહોતી. આજની વિચારણામાં ટેલિકોમ મેજર
વીએસએનએલ, તેલ કંપની, આઈબીપી, એચટીએમ તથા સીએનસીનો સમાવેશ થતો હતો.</p>

<p> </p>




<p><head>શિખર મંત્રણામાં ભારત-ઇરાન
પાઇપલાઇન પ્રોજેક્ટની ચર્ચા કરાશે</head></p>

<p>ઇસ્લામાબાદ, તા. ૪</p>

<p>અત્રેનાં માધ્યમોમાં પ્રગટ
થયેલા અહેવાલો અનુસાર વડાપ્રધાન શ્રી અટલ બિહારી વાજપેઈ તથા પાક. પ્રમુખ પરવેઝ
મુશર્રફ વચ્ચે યોજાનારી શિખર મંત્રણાના એજન્ડામાં પાકિસ્તાનમાં થઈને પસાર થનારી સૂચિત
ભારત ઇરાન ગેસ પાઇપ લાઇનના મુદ્દાનો પણ સમાવેશ કરવામાં આવશે.</p>

<p>આ પ્રોજેક્ટને કારણે
પાક.ને મબલખ કમાણી થશે</p>

<p>માધ્યમોએ પાકિસ્તાનના
પેટ્રોલિયમ પ્રધાન શ્રી ઉસ્માન અમીનુદ્દીને ગઈકાલે વોશિંગ્ટનમાં એવું કહેતા ટાંકયા
હતા કે પાકિસ્તાનના પેટ્રોલિયમ ખાતાએ આ પાઈપલાઈનના પ્રોજેક્ટને સર્વગ્રાહી રૂપરેખા શ્રી
મુશર્રફને અગાઉથી જ મોકલી આપી છે. શ્રી અમાનુદ્દીને કહ્યું હતું કે આવી રહેલી
ભારત-પાક. શિખરના એજન્ડામાં આ પ્રોજેક્ટને સ્થાન મળેલું જ છે. ઇસ્લામાબાદને આ
પ્રોજેક્ટમાં રસ છે. કારણ કે તેનાથી તેને ઘણો ફાયદો થવાનો છે. </p>

<p>પાકિસ્તાનને ૭૦ કરોડ
ડોલરનું વિદેશી હૂંડિયામણ તો મળશે જ અને એ ઉપરાંત જો પાકિસ્તાનમાં ગેસની અછત ઊભી
થાય તો ગેસ મળશે અને જો ગેસની પૂરાંત રહેશે તો તેની નિકાસ થઈ શકશે. પાકિસ્તાનમાં
હાલ ગેસની માંગ તથા પુરવઠા વચ્ચે .૨ અબજ કયુબીક ફીટનું અંતર છે.</p>

<p>જમીન ઉપર નાખવામાં આવનારી
૨૬૭૦ કિલોમીટર લાંબી આ ભારત-ઇરાન પાઇપ લાઈન પાકિસ્તાનમાંથી પસાર થવાની છે અને
તેનાથી ૮ અબજ ડોલરની પ્રચંડ રોયલ્ટી મળી શકે તેમ છે. આ રોયલ્ટી માટે ઇરાને
પાકિસ્તાનને વચન આપેલું છે.</p>

<p>પાકિસ્તાનને આ ગેસ હાલ
કરતાં સસ્તા દરે મળે તેમ હોવાથી બચતો રૂપે આ પ્રોજેકટથી પાકિસ્તાનને ૧ અબજ ડોલરના
કરવેરા તથા પાંચ અબજ ડોલરની બચતોનો પણ સંભવ છે.</p>

<p>૩૭ અબજ ડોલરના વિદેશી દેવા
હેઠળ કણસતા પાકિસ્તાનના અર્થતંત્રને આ પ્રોજેકટ રોકડમાં કરોડો ડોલર આપીને નવું
જીવન આપી શકે તેમ છે.</p>




<p><head>યુટીઆઇના સુબ્રમણ્યમનું
રાજીનામું સ્વીકારાયું : કાર્યકારી અધ્યક્શપદે વાસલ</head></p>

<p>નવી દિલ્હી, તા. ૪</p>

<p>યુનિટ ટ્રસ્ટ ઓફ ઇન્ડિયાના
અધ્યક્શ પી.એસ. સુબ્રમણ્યમે રૂા. ૬૦૦૦૦ કરોડના ટ્રસ્ટના ગેરવહીવટના આક્શેપના પગલે
રાજીનામું આપી દીધું હતું જેનો નાણાંમંત્રાલયે સ્વીકાર કર્યો હતો. અત્રે ઉલ્લેખનીય
છે કે તાજેતરના શેરકૌભાંડમાં કેતન પારેખની સ્ક્રીપ્સમાં યુટીઆઇના ભારે રોકાણને પગલે
સુબ્રમણ્ય શંકાના દાયરામાં આવ્યા હતા.</p>

<p>યુટીઆઇના મામલે સત્ય
બહાર લાવવાની ટૂંક સમયમાં કવાયત હાથ ધરાશે : બાલાસાહેબ વિખે પાટિલ</p>

<p>નાણાંપ્રધાન
યશવંતસિંહાએ યુટીઆઇના તેની ફલેગશીપ યુએસ-૬૪ સ્કીમનું વેચાણ તેમજ પુન: ખરીદ કાર્ય
ડિસેમ્બર એટલે કે ૬ માસ સુધી બંધ કરી દેવાના નિર્ણયને પગલે યુટીઆઇની
કામગીરી અંગે સમીક્શા કરવા જણાવ્યું હતું.</p>

<p>યુટીઆઇની ફલેગશીપ
યુએસ-૬૪ના કામકાજને ૬ માસ સુધી બંધ કરી દેવાના નિર્ણયથી આ યોજનાના ૨૦
મિલિયન રોકાણકારોને ભારે આઘાત લાગ્યો હતો અને તેને પરિણામે આખરે સુબ્રમણ્યમે
રાજીનામું આપવાની ફરજ પડી હતી.</p>

<p>''મેં સંસ્થાના લાંબાગાળાના
હિતને ધ્યાનમાં રાખીને રાજીનામું આપ્યું છે'' એવું તેમણે જણાવ્યું હતું.</p>

<p>દરમિયાન યુટીઆઇના મામલામાં
સરકાર ટૂંક સમયમાં સત્ય બહાર લાવવાની કવાયત હાથ ધરશે તેમજ દેશનું સૌથી મોટા
મ્યુચ્યુઅલ ફંડનું ખાનગીકરણ કરવા અંગેની શક્યતા તપાસશે.</p>

<p>''સત્ય શોધવાની અમુક
પ્રકારની કવાયતો શરૂ કરાશે અને ટૂંક સમયમાં જ આ અંગેનું ચિત્ર સ્પષ્ટ કરવામાં આવશે''
એવું નાણાંરાજ્યમંત્રી બાલાસાહેબ વિખે પાટિલે જણાવ્યું હતું.</p>

<p>દરમિયાન નાણાંપ્રધાન
યશવંતસિંહાએ આજે જણાવ્યું હતું કે દેશના સૌથી મોટા મ્યુચ્યુઅલ ફંડ યુટીઆઇના
અધ્યક્શપદેથી પી.એસ. સુબ્રમણ્યમે રાજીનામું આપતા કે.જી. વાસલની યુટીઆઇના કાર્યકારી
અધ્યક્શ તરીકે નિમણૂંક કરી છે.</p>

<p>''સુબ્રમણ્યમે રાજીનામું
આપ્યું છે અને અમે તે સ્વિકારી લીધું છે અને યુટીઆઇના મોસ્ટ એક્ઝિકયુટીવ્સ ડાયરેકટર
કે.જી. વાસલની કાર્યકારી અધ્યક્શના સ્થાને નિમણૂંક કરી છે.''</p>




<p><head>અમેરિકા, જાપાન, તૂર્કીના રબર
સામે એન્ટી ડમ્પીંગ ડયુટી</head></p>

<p>નવી દિલ્હી, તા. ૪</p>

<p>એન્ટી ડમ્પિંગ સત્તાવાળાઓએ
જાપાન, કોરિયા, યુએસએ, તુર્કી અને તાઈવાનથી આયાત થતાં રબર ઉપર અંતિમ ડયુટી
ઝીંકવાની ભલામણ કરી હતી.</p>

<p>સ્વદેશી કંપનીઓની
ફરિયાદના પગલે લેવાયેલો નિર્ણય</p>

<p>વાણિજ્ય મંત્રાલય હેઠળના
એન્ટી-ડમ્પીંગ એન્ડ એલાઈડ ડયુટીઝ વિભાગના ડાયરેકટર જનરલે ઓટોમોટિવ ટાયર્સ એન્ડ
મેન્યુફેકચરર્સ એસોસિયેશન (આત્મા) અને રીશીરૂપ પોલીમર્સ દ્વારા ફાઈલ કરાયેલી અરજીના
પગલે ૧૯૯૯ ઓગષ્ટથી મે-૨૦૦૦ વચ્ચેના સમયગાળા દરમ્યાન તપાસ હાથ ધરી હતી.</p>

<p>ડાયરેકટર જનરલે યુએસએથી
થતા તમામ રબરની નિકાસ ઉપર મેટ્રીક ટન દિઠ ૧૮૯.૮૯ અમેરિકી ડોલર, તાઈવાનના રબર સામે
૯૦ ડોલર, તૂર્કીના રબર સામે ૨૭૨.૯૯ ડોલર, કોરિયાના રબર સામે ૨૦૪ ડોલર અને
જાપાનના રબર સામે ૧૫૬.૯૩ ડોલરની ડયુટી ઝીંકવાની ભલામણ કરી હતી. આ પાંચ દેશોમાંથી
નિકાસ થતા ૧૯૦૦ શ્રેણીના તમામ ગ્રેડના રબરો સામે અંતિમ ડયુટીની ભલામણ કરાઈ હતી.
ડાયરેકટર જનરલે તેમના છેવટના તારણમાં નોંધ મૂકી હતી કે ૧૫૦૦ અને ૧૭૦૦ શ્રેણીના
રબરનું સ્વદેશમાં ઉત્પાદન થતુ નથી તેથી તપાસના સમયગાળા દરમ્યાન આ પ્રકારના સ્તરનું
ઉત્પાદન કરતાં સ્વદેશી ઉદ્યોગો પણ નહોતા.</p>

<p> </p>




<p><head>કેન્દ્ર મારી હત્યા કરાવવા માંગે
છે : કલ્યાણ સિંહ</head></p>

<p>લખનૌ, તા. ૪</p>

<p>રાષ્ટ્રીય ક્રાંતિ પાર્ટીના પ્રમુખ
અને રાજ્યના ભૂતપૂર્વ મુખ્યમંત્રી કલ્યાણસિંહે કેન્દ્ર અને રાજ્ય સરકાર પર બદલાની ભાવનાથી
તેમની હત્યાની સાજીશ કરાવવાનો આરોપ લગાવ્યો છે.</p>

<p>શ્રી સિંહે અહીં જણાવ્યું હતું
કે કેન્દ્ર અને રાજ્ય સરકાર તેમને આપવામાં આવતી સુરક્શા પાછી ખેંચી લઈ રહી છે. જ્યારે
આતંકવાદી સંગઠનો અને પાકિસ્તાની ગુપ્તચર એજન્સી આઈએસઆઈથી તેમની જાનનો ખતરો છે
તેમણે કહ્યું કે તેમના મુખ્યમંત્રી કાળમાં અયોધ્યામાં છ ડિસેમ્બર ૧૯૯૨ના રોજ વિવાદીત
ઢાંચો તોડવામા આવ્યો હતો જેના કારણે આતંકવાદીઓ અને આઈએસઆઈના લીસ્ટમાં હું
મુખ્ય છું. આ ઉપરાંત તેમના કાર્યકાળમાં અમુક નામી માફિયાઓ વિરૂધ્ધ કાર્યવાહી
કરી હતી. </p>

<p>પોલીસ સાથે થયેલ હુમલામાં
માર્યા ગયેલ શ્રી પ્રકાશ શુકલએ તેમની હત્યા માટે ૬ કરોડ રૂપિયાની સોપારી લીધી
હતી. શ્રી સિંહે જણાવ્યું કે તેમના અને પરિવારના લોકોના જીવન પર ખતરો જોતાં કેન્દ્ર
સરકારે ઝેડ પ્લસ સુરક્શા આપી હતી તથા તેવી જ રીતે એનએસજીની સુરક્શા કવચ પ્રદાન
કરવામાં આવ્યું હતું.</p>

<p> </p>

<p> </p>






</body></text></cesDoc>