<cesDoc id="ben-w-social-sick" lang="ben">
<cesHeader type="text">
<fileDesc>
<titleStmt>
<h.title>ben-w-social-sick.txt</h.title>
<respStmt>
<respType>Electronic file created by</respType>
<respName>Dept of Linguistics, Lancaster University</respName>
<respType>transcribed by</respType>
<respName>Sutapa Ghosh</respName>
</respStmt>
</titleStmt>
<publicationStmt>
<distributor>UCREL</distributor>
<pubAddress>Dept of Linguistics, Lancaster University, Lancaster, LA1 4YT, UK</pubAddress>
<availability region="WORLD"></availability>
<pubDate>02-03-19</pubDate>
</publicationStmt>
<sourceDesc>
<biblStruct>
<monogr>
<h.title>Sick or disabled SD1</h.title>
<h.author>Department of Social Security</h.author>
<imprint>
<pubPlace>UK</pubPlace>
<publisher>Department of Social Security</publisher>
<pubDate>April 2000</pubDate>
</imprint>
</monogr>
</biblStruct>
</sourceDesc>
</fileDesc>
<encodingDesc>
<projectDesc>Text collected for use in the EMILLE project, May 2000.</projectDesc>
<samplingDesc>Simple written text only has been transcribed. Diagrams, pictures and tables have been omitted and their place marked with a gap element.
</samplingDesc>
<editorialDecl>
<conformance level="1"></conformance>
</editorialDecl>
</encodingDesc>
<profileDesc>
<creation>
<date>02-02-12</date>
</creation>
<langUsage>Translated into Bengali from English</langUsage>
<wsdUsage>
<writingSystem id="ISO/IEC 10646">Universal Multiple-Octet Coded Character Set (UCS).</writingSystem>
</wsdUsage>
<textClass>
<channel mode="w">print</channel>
<constitution type="composite"></constitution>
<derivation type="translation"></derivation>
<domain type="public"></domain>
<factuality type="fact"></factuality> 
</textClass>
<translations>
<translation trans.loc="eng-w-social-sick.txt" lang="ENG" wsd="ISO8859-1" n="1"></translation>
</translations>
</profileDesc>
<revisionDesc>
</revisionDesc>
</cesHeader>

<text>
<body>

<p><head><s><foreign lang="eng">Sick or disabled</foreign></s></head></p> 

<p><head><s>অসুস্থ অথবা প্রতিবন্ধী</s></head></p> 

<p><head><s>শারীরিক বা মানসিক অসুস্থতা অথবা আছে প্রতিবন্ধকতা আছে এরকম সব বয়সের লোকের জন্য এবং তাদের যারা দেখাশোনা করেন তাদের জন্য -বেনিফিট ও ট্যাক্স ক্রেডিটের একটি নির্দেশিকা ।</s></head></p> 

<p><head><s>অসুস্থ অথবা প্রতিবন্ধী</s></head></p> 

<p><s>একজনের জীবনের যে কোন সময়েই অসুখ হতে পারে , আঘাত লাগতে পারে বা প্রতিবন্ধকতা ঘটতে পারে , এবং সেটা অনেক সময়ই খুব অপ্রত্যাশিত সময়ে ঘটে । </s> <s>অসুখের জন্য কিছুদিন হয়ত আপনি কাজ করতে পারবেন না ।</s> <s> অথবা গুরুতর অসুখ বা প্রতিবন্ধকতার জন্য হয়ত আপনি কাজ করতে পারবেন না ।</s></p> 

<p><s>অসুস্থতা বা প্রতিবন্ধকতার জন্য রোজকার জীবন যাপন করা যার পক্ষে কঠিন , সেরকম কাউকে আপনি যদি দেখাশোনা করেন   , তাহলে এই নির্দেশিকাটি আপনারও জন্য ।</s></p> 

<p><s>আপনি নিজেই অসুস্থ বা প্রতিবন্ধী হলে , অথবা অপনি কারুর দেখাশোনা করলে , আপনার নিজের জন্য ও আপনার পরিবারকে আর্থিক সাহায্য করার জন্য , আপনার হয়ত সোশাল সিকিওরিটি বেনিফিট বা ট্যাক্স ক্রেডিটের প্রয়োজন হতে পারে ।</s></p>

<p><s>আপনি যে যে বেনিফিট ও ট্যাক্স ক্রেডিট পেতে পারেন , সেগুলি সম্বন্ধে মূল তথ্যগুলি এই প্রচারপত্রে (লিফলেটে)দেওয়া হয়েছে । </s> <s>আমরা নিশ্চিত করতে চাই যে আপনি ও আপনার পরিবার যেন ঠিক সময়ে , ঠিক উপায়ে , ঠিক সাহায্য পান ।</s></p> 

<p><s>এই প্রচারপত্রে দেওয়া হয়নি আপনার সেরকম কোন প্রশ্ন থাকলে বা আপনি আরও উপদেশ চাইলে দয়া করে অপনার সোশাল সিকিওরিটি অফিসের সাথে যোগাযোগ করুন ।</s> <s> কোথায় সাহায্য ও উপদেশ পাওয়া যায় , সে সম্বন্ধে তথ্যের জন্য এই প্রচারপত্রের ষোল / সতের পৃষ্ঠা দেখুন ।</s></p>

<p><s>মনে রাখবেন যে এই প্রচারপত্রটি , বেনিফিট ও ট্যাক্স ক্রেডিট সম্বন্ধে একটি সাধারন নির্দেশিকা এবং আইনের সম্পূর্ণ ও চূড়ান্ত কোন বিবৃতি নয় । </s> <s>এই প্রচারপত্রে দেওয়া সব তথ্য যাতে প্রথম পৃষ্ঠায় দেওয়া তারিখে সঠিক হয় , তার জন্য আমরা যথাসাধ্য চেষ্টা করেছি । </s> <s>তবে , আইন বদল হলে এই প্রচারপত্রটির সঠিকতা ক্রমশঃ কমে আসতে পারে ।</s></p> 

<p><head><s>আপনি কি কি সাহায্য পেতে পারেন</s></head></p> 

<p><s>প্রথমে পরীক্ষা করে দেখুন যে কি কি বেনিফিট বা ট্যাক্স ক্রেডিট আপনি পেতে পারেন ।</s></p>

<p><s>আপনি যদি কোন নিযোগকারীর কাছে চাকরী করে থাকেন এবং আপনার রোজগার ন্যাশনাল ইনসিওরেন্স -এর (<foreign lang="eng">National Insurance-NI</foreign>)জন্য উপযুক্ত হওয়ার মত হয় (এই পরিমানটি ন্যাশনাল ইনসিওরেন্স বাবদ অর্থ দিতে শুরু করার পরিমানের চাইতে কম), তাহলে:</s>
 <s>স্ট্যাটুটরী সিক পে(<foreign lang="eng">Statuory Sick Pay-SSP</foreign>) সম্বন্ধে খোঁজ নিয়ে দেখুন ।</s> 
<s>পাঁচ নম্বর পৃষ্ঠা দেখুন ।</s> 
<s>আপনার রোজগার কত হলে আপনি ন্যাশনাল ইনসিওরেন্স এর জন্য উপযুক্ত হবেন তা জানতে চাইলে , আপনার সোশাল সিকিওরিটি অফিসের সাথে যোগাযোগ করুন ।</s></p>  

<p><s>অসুস্থ হয়ে পড়ার সময় আপনি যদি বেকার থাকেন বা নিজের হয়ে কাজ করে থাকেন , অথবা আপনি আঠাশ সপ্তাহের বেশী অসুস্থ থাকেন , তাহলে:</s>
<s>ইনক্যাপাসিটি বেনিফিট (<foreign lang="eng">Incapacity Benefit</foreign>)সম্বন্ধে খোঁজ নিয়ে দেখুন । 
পাঁচ/ছয় নম্বর পৃষ্ঠা দেখুন ।</s></p> 

<p><s>আপনার বয়স যদি ষোল বছরের বেশী ও পঁয়ষট্টি বছরের কম হয় ও আপনি অন্ততঃ আঠাশ সপ্তাহ কাজ করতে পারেননি এবং আপনি যদি ইনক্যাপাসিটি বেনিফিট পাওয়ার যোগ্য না হন , তাহলে:</s>
<s>সিভিয়ার ডিসেবেলমেন্ট অ্যালাওয়েন্স (<foreign lang="eng">Severe Disablement allowance-SDA</foreign>)সম্বন্ধে খোঁজ নিয়ে দেখুন ।</s> 
<s>ছয়/সাত নম্বর পৃষ্ঠা দেখুন ।</s></p>  

<p><s>আপনার বয়স পঁয়ষট্টি বছরের কম হলে এবং নিজের দেখাশোনা করতে সাহায্য দরকার হলে :</s>
<s>ডিসেবিলিটি লিভিং অ্যালাওয়েন্স (<foreign lang="eng">Disability Living Allowance-DLA</foreign>)সম্বন্ধে খোঁজ নিয়ে দেখুন ।</s> 
<s>সাত/আট নম্বর পৃষ্ঠা দেখুন ।</s> 
<s>আপনার  বয়স পঁয়ষট্টি বছরের বেশী হলে এবং নিজের দেখাশোনা করতে সাহায্য দরকরা হলে:</s>
<s>এ্যাটেনডেন্স অ্যালাওয়েন্স (<foreign lang="eng">Attendance Allowance-AA</foreign>)সম্বন্ধে খোঁজ নিয়ে দেখুন ।</s>
<s>আট নম্বর পৃষ্ঠা দেখুন ।</s></p>   

<p><s>আপনার বয়স যদি ষোল বছর বা তার বেশী হয় এবং আপনি প্রতিবন্ধী এবং সপ্তাহে ষোল ঘন্টা বা তার বেশি কাজ করেন , তাহলে ডিসেবেল্ড পার্সন্স ট্যাক্স ক্রেডিট(<foreign lang="eng">Disabled Person's tax Credit</foreign>) সম্বন্ধে খোঁজ নিয়ে দেখুন ।</s>
<s>আট নম্বর পৃষ্ঠা দেখুন ।</s></p>  

<p><s>টীকা দেওয়ার ফলে আপনার গুরুতর রকমের প্রতিবন্ধকতা হয়ে থাকলে:</s>
<s>ভ্যাকসিন্ ড্যামেজ্ পেমেন্ট(<foreign lang="eng">Vaccine Damage Payment</foreign>) সম্বন্ধে খোঁজ নিয়ে দেখুন ।</s> 
<s>নয় নম্বর পৃষ্ঠা দেখুন । </s></p>  

<p><s>কাজের জায়গায় দুর্ঘটনার ফলে আপনি প্রতিবন্ধী হয়ে পড়লে , অথবা আপনার কাজের জন্য কোন রকম অসুখ হলে বা বধির হয়ে গেলে :</s>
<s>ইনডাস্ট্রিয়াল ইনজ্যুরিস ডিসেবেলমেন্ট বেনিফিট (<foreign lang="eng">Industrial Injuries Disablement Benefit</foreign>)সম্বন্ধে খোঁজ নিয়ে দেখুন ।</s> 
<s>দশ নম্বর পৃষ্ঠা দেখুন ।</s></p> 

<p><s>উনিশশ নব্বই সালের পয়লা অক্টোবরের আগে , কাজের জন্য কোন রকম দুর্ঘটনা বা অসুখ হওয়ার ফলে আপনি সাধারণতঃ যে কাজ করেন সেই কাজে আর ফিরে যেতে না পারলে অথবা একই রকমের মাইনার কাজ আর না করতে পারলে :</s>
<s>রিডিউসড্ আর্নিংস অ্যালাওয়েন্স(<foreign lang="eng">Reduced Earnings Allowance-REA</foreign>) সম্বন্ধে খোঁজ নিয়ে দেখুন ।</s> 
<s>দশ নম্বর পৃষ্ঠা দেখুন ।</s></p>  

<p><s>উনিশশ আটচল্লিশ সালের পাঁচই জুলাইএর আগে শেষ করা কোন কাজের ফলে যদি আপনার অসুখ বা প্রতিবন্ধকতা হয়ে থাকে অথবা আপনি কর্মীদের ক্ষতিপূরণ -ওয়ার্কমেনস্ কম্পেনসেশন পাওয়ার উপযুক্ত হয়ে থাকেন , তাহলে আপনি হয়ত বেনিফিট পেতে পারেন ।</s> <s> আরও তথ্যের জন্য যোগাযোগ করুন:</s>
<s>(<foreign lang="eng">OSD BS (II)</foreign></s>
<s><foreign lang="eng">Room 7125</foreign></s>
<s><foreign lang="eng">Norcross</foreign></s>
<s><foreign lang="eng">Blackpool</foreign></s>
<s><foreign lang="eng">FY5 3TA</foreign>)</s> 
<s>ফোন: শুন্য এক দুই পাঁচ তিন তিন তিন দুই নয় চার চার (শুধুমাত্র ইংরেজীতে তথ্য দেওয়া হয়)</s></p>

<p><s>আপনার নিয়োগকারীর অবহেলার ফলে  আপনার কোন অসুখ হলে বা দুর্ঘটনা ঘটলে , আপনি হয়ত আদালতের মাধ্যমে ক্ষতিপূরণ পেতে পারেন । </s> <s>একজন সলিসিটারকে অথবা ট্রেড ইউনিয়ানকে জিজ্ঞেস করুন ।</s></p>

<p><s>আপনি কোন একজন অসুস্থ অথবা প্রতিবন্ধী লোকের দেখাশোনা করলে , তিনি নিচে দেওয়া বেনিফিটগুলির কোন একটি পাচ্ছেন কি না তা খোঁজ নিয়ে দেখুন:</s>
<s>ডিসেবিলিটি লিভিং অ্যালাওয়েন্স(<foreign lang="eng">Disability Living Allowance</foreign>)</s>
<s>এ্যাটেনডেন্স অ্যালাওয়েন্স(<foreign lang="eng">Attendance Allowance</foreign>)</s>
<s>ওয়ার পেনশন কনস্ট্যান্ট এ্যাটেনডেন্স অ্যালাওয়েন্স(<foreign lang="eng">War Pensions Constant Attendance Allowance</foreign>)</s>
<s>অথবা</s>
<s>ইনডাস্ট্রিয়াল ইনজ্যুরিস্ কনস্ট্যান্ট এ্যাটেনডেন্স অ্যালাওয়েন্স(<foreign lang="eng">Industrial Injuries Constant Attendance Allowance</foreign>)</s></p>   

<p><s>যদি তারা এই বেনিফিটগুলির কোনটা পেয়ে থাকেন এবং আপনি যদি ফুল-টাইম কেয়ারার হন , তাহলে , আপনি সাহায্য পেতে পারেন :</s>
<s>ইনভ্যালিড কেয়ার অ্যালাওয়েন্স (<foreign lang="eng">Invalid Care Allowance</foreign>)সম্বন্ধে খোঁজ নিয়ে দেখুন ।</s>     
<s>এগার/বার নম্বর পৃষ্ঠা দেখুন ।</s></p> 

<p><s>আপনি যদি কোন একজন শারীরিক বা মানসিক রোগে অসুস্থ অথবা প্রতিবন্ধী লোককে সপ্তাহে অন্ততঃ পঁয়ত্রিশ ঘন্টা দেখাশোনা করেন , তাহলে , আপনি একজন ফুল-টাইম কেয়ারার (পুরো সময় যিনি দেখাশোনা করেন) ।</s></p>

<p><s>কাউকে দেখাশোনা করার কারণে যদি আপনি ন্যাশনাল ইনসিওরেন্স বাবদ অর্থ না দিতে পারেন:
হোম রেস্পোন্সিবিলিটিস প্রোটেকশন (<foreign lang="eng">Home Responsibilities Protection-HRP</foreign>)সম্বন্ধে খোঁজ নিয়ে দেখুন ।</s>
<s>বার নম্বর পৃষ্ঠা দেখুন ।</s></p>  

<p><s>আপনার আয় কম হলে:</s>
<s> ইনকাম সাপোর্ট সম্বন্ধে(<foreign lang="eng">Income Support</foreign>) খোঁজ নিয়ে দেখুন ।</s> 
<s>তের নম্বর পৃষ্ঠা দেখুন ।</s></p>

<p><s>হার ম্যাজেস্টিস্ আর্মড্ ফোর্সেস-এ (এই দেশের সেনাবাহিনিতে) কাজ করার ফলে অথবা কোন যুদ্ধের ফলে আপনি আহত হলে বা প্রতিবন্ধী হয়ে পড়লে , আপনি যুদ্ধের অবসরভাতার প্রকল্প থেকে সাহায্য পেতে পারেন:</s>
<s>ওয়ার পেনশন এজেন্সীর সাথে যোগাযোগ করুন । </s>
<s>চিঠি লিখুন:</s>
<s>(<foreign lang="eng">The War Pensions Agency</foreign></s>
<s><foreign lang="eng">Norcross</foreign></s>
<s><foreign lang="eng">Blackpool</foreign></s>
<s><foreign lang="eng">FY5 3WP</foreign>)</s>
<s>আপনি শুন্য এক দুই পাঁচ তিন আট পাঁচ আট আট পাঁচ আট নম্বরে ওয়ার পেনশনের সাহায্যের লাইনে (হেল্পলাইনে) টেলিফোনও করতে পারেন (যিনি টেলিফোন ধরবেন , তিনি শুধুমাত্র ইংরেজীতে কথা বলতে পারেন) ।</s></p>

<p><head><s>অন্যান্য সাহায্য</s></head></p>

<p><s>দা সোশাল ফান্ড(<foreign lang="eng">The Social Fund</foreign>)</s>
<s>তের নম্বর পৃষ্ঠা দেখুন ।</s></p> 

<p><s>হাউজিং বেনিফিট ও কাউন্সিল ট্যাক্স বেনিফিট (<foreign lang="eng">Housing Benefit and Council Tax Benefit</foreign>)</s>
<s>চোদ্দ / পনের নম্বর পৃষ্ঠা দেখুন ।</s></p> 

<p><s>স্বাস্থ্য সংক্রান্ত খরচের জন্য সাহায্য (<foreign lang="eng">Help With Health Costs</foreign>)</s>
<s>পনের নম্বর পৃষ্ঠা দেখুন ।</s></p>  

<p><s>প্রতিবন্ধী শিশুদের জন্য বিনাপয়সায় দুধ (<foreign lang="eng">Free milk for disabled children</foreign>)</s>
<s>ষোল নম্বর পৃষ্ঠা দেখুন ।</s></p>

<p><s>কেমন করে দাবি জানাতে হয়</s>
<s>ষোল নম্বর পৃষ্ঠা দেখুন ।</s></p>

<p><s>কোথায় সাহায্য ও উপদেশ পাওয়া যায়</s>
<s>সতের নম্বর পৃষ্ঠা দেখুন ।</s></p>  

<p><head><s>ন্যাশনাল ইনসিওরেন্স (<foreign lang="eng">National Insurance-NI</foreign>)</s></head></p>

<p><s>কিছু বেনিফিট পেতে হলে , ন্যাশনাল ইনসিওরেন্স বাবদ অর্থ আপনাকে দিয়ে থাকতে হবে অথবা ধরে নেওয়া হতে হবে যে আপনি তা দিয়েছেন ।</s> <s>এ সম্বন্ধে আরো তথ্যের জন্য আপনার সোশাল সিকিওরিটি অফিসের সাথে যোগাযোগ করুন ।</s></p>    

<p><head><s>স্ট্যাটুটরী সিক পে (<foreign lang="eng">Statutory Sick Pay-SSP</foreign>)</s></head></p>

<p><s>আপনার নিয়োগকারীর থেকে পাবেন</s>
<s>আঠাশ সপ্তাহ পর্যন্ত দেওয়া হয়</s></p>

<p><s>আপনি কি:</s>
<s>ব্যাঙ্ক হলিডে ও শনি-রবিবার সমেত অন্ততঃ চার দিন একনাগাড়ে অসুস্থ ছিলেন ?</s>
<s>অসুস্থ হওয়ার সময় কি আপনি চাকরী করছিলেন ?</s>
<s>আপনার রোজগার কি ন্যাশনাল ইনসিওরেন্স-এর (<foreign lang="eng">National Insurance-NI</foreign>) জন্য উপযুক্ত হওয়ার মত ছিল (এই পরিমাণটি , ন্যাশনাল ইনসিওরেন্স বাবদ অর্থ দিতে শুরু করার পরিমানের চাইতে কম)</s>  
<s>আপনার রোজগার কত হলে আপনি ন্যাশনাল ইনসিওরেন্স-এর জন্য উপযুক্ত হবেন তা জানতে চাইলে , আপনার সোশাল সিকিওরিটি অফিসের সাথে যোগাযোগ করুন ।</s></p> 

<p><s>উপরের সবগুলি প্রশ্নের উত্তরই "হ্যাঁ" হলে স্ট্যাটুটরী সিক পে দাবি করুন ।</s> 
<s>একনাগাড়ে অসুস্থ থাকার জন্য আঠাশ সপ্তাহ পর্যন্ত আপনি স্ট্যাটুটরী সিক পে পেতে পারেন ।</s> 
<s>দুই বারের অসুস্থতার মধ্যে যদি আট সপ্তাহ বা তার কম ব্যবধান থাকে , তাহলে তাদের একবারের অসুস্থতা বলে ধরা হয় ।</s>  
<s>আপনি একটার বেশি চাকরী করলে , আপনি হয়ত প্রত্যেক নিয়োগকারীর কাছ থেকেই স্ট্যাটুটরী সিক পে দাবি করতে পারবেন ।</s> 
<s>যদি স্ট্যাটুটরী সিক পে-এর মেয়াদ শেষ হয়ে যায় , তাহলে ইনক্যাপাসিটি বেনিফিট দাবি করবেন ।</s></p> 

<p><s>কেমন করে দাবি করতে হয় ষোল নম্বর পৃষ্ঠা দেখুন ।</s></p>

<p><head><s>ইনক্যাপাসিটি বেনিফিট(<foreign lang="eng">Incapacity Benefit</foreign>)</s></head></p>   

<p><s>স্ট্যাটুটরী সিক পে-এর মেয়াদ যদি শেষ হয়ে যায় অথবা আপনি যদি স্ট্যাটুটরী সিক পে না পান</s>
<s>অসুস্থ হয়ে পড়ার সময় আপনার বয়স জাতীয় অবসরভাতা পাওয়ার বয়সের থেকে বেশী হলে স্ট্যাটুটরী সিক পে দেওয়া হয় না ।</s></p>

<p><s>আপনি কি:</s>
<s>ন্যাশনাল ইনসিওরেন্স বাবদ অর্থ দিয়েছেন ?</s>
<s>ব্যাঙ্ক হলিডে ও শনি-রবিবার সমেত অন্ততঃ চার দিন একনাগাড়ে অসুস্থ ছিলেন ?</s>
<s>ওপরের দুটি প্রশ্নের উত্তরই "হ্যাঁ" হলে ইনক্যাপাসিটি বেনিফিট দাবি করুন ।</s></p> 

<p><s>তিনটি আলাদা হারে ইনক্যাপাসিটি বেনিফিট দেওয়া হয় ।</s></p>

<p><s>অল্প দিনের জন্য নিচু হারের ইনক্যাপাসিটি বেনিফিট</s>
<s>ব্যাঙ্ক হলিডে ও শনি-রবিবার সমেত অন্ততঃ চার দিন একনাগাড়ে অসুস্থ  থাকলে এবং স্ট্যাটুটরী সিক পে না পেলে এটা দেওয়া হয় ।</s></p> 

<p><s>অল্প দিনের জন্য উঁচু হারের ইনক্যাপাসিটি বেনিফিট</s>
<s>আপনি আঠাশ সপ্তাহের বেশী কিন্তু বাহান্ন সপ্তাহের কম অসুস্থ থাকলে এটা দেওয়া হয় ।</s></p>

<p><s>দীর্ঘকালের জন্য ইনক্যাপাসিটি বেনিফিট</s>
<s>আপনি বাহান্ন সপ্তাহের বেশী অসুস্থ থাকলে এটা দেওয়া হয় ।</s></p> 

<p><s>বিশেষ পরিস্থিতি</s>
<s>জাতীয় অবসরভাতা পাওয়ার বয়স হওয়ার আগেই আপনি অসুস্থ হয়ে পড়লে , আপনি হয়ত জাতীয় অবসরভাতা পাওয়ার বয়স হওয়ার পরেও ইনক্যাপাসিটি বেনিফিট পেতে পারেন ।</s> <s> জাতীয় অবসরভাতার হারে এই বেনিফিটটি , অসুস্থ অবস্থার এক বছর পর্যন্ত দেওয়া যেতে পারে । </s>
<s>আপনি সবচেয়ে উঁচু হারে ডিসেবিলিটি লিভিং অ্যালাওয়েন্সের দেখাশোনা করার অংশটি(কেয়ার কম্পোনেন্ট)পেলে অথবা আপনার বাঁচার আশা না থাকলে , আঠাশ সপ্তাহ অসুস্থ থাকার পরেই আপনাকে দীর্ঘকালের হারে ইনক্যাপাসিটি বেনিফিট দেওয়া হবে ।</s>
<s>আপনি যদি দীর্ঘকালের হারে ইনক্যাপাসিটি বেনিফিট পান , তাহলে অসুস্থ হয়ে পড়ার সময় আপনার বয়সের ওপর নির্ভর করে আপনি অতিরিক্ত আর্থিক সাহায্য পাওয়ার উপযুক্ত হতে পারেন । </s>
<s>আপনার সন্তান থাকলে আপনি অতিরিক্ত আর্থিক সাহায্য পেতে পারেন । </s> <s>তবে , এই অতিরিক্ত অর্থ শুধুমাত্র উঁচু হারের বা অবসরভাতার হারের বা দীর্ঘকালের ইনক্যাপাসিটি বেনিফিট-এর সাথে দেওয়া হয় ।</s>
<s>আপনার স্বামী বা স্ত্রীর বয়স ষাট বছর বা তার বেশী হলে , অথবা অন্য একজনন প্রাপ্তবয়স্ক লোক আপনার সন্তানের দেখাশোনা করলে , আপনি হয়ত অতিরিক্ত অর্থ পেতে পারেন ।</s></p> 

<p><s>কেমন করে দাবি করতে হয় ষোল নম্বর পৃষ্ঠা দেখুন ।</s></p> 

<p><head><s>সিভিয়ার ডিসেবেলমেন্ট অ্যালাওয়েন্স-এস্ ডি এ</s></head></p>    

<p><head><s>(<foreign lang="eng">Severe Disablement Allowance</foreign>)</s></head></p>

<p><s>অসুখ অথবা প্রতিবন্ধকতার কারণে আপনি একনাগাড়ে আঠাশ সপ্তাহ পর্যন্ত কাজ করতে না পারলে 
আপনি কোনদিনও কাজ করতে না পারলে এটা দেওয়া যেতে পারে ।</s></p>

<p><s>আপনি কি:</s>
<s>ষোল বছর বা তার বেশী বয়স এবং পঁয়ষট্টি বছরের কম বয়সী ?</s>
<s>ন্যাশনাল ইনসিওরেন্স বাবদ যথেষ্ট পরিমাণ অর্থ না দেওয়ার জন্য আপনি ইনক্যাপাসিটি বেনিফিট পাওয়ার উপযুক্ত নন ?</s>
<s>ওপরের দুটি প্রশ্নের উত্তরই হ্যাঁ হলে সিভিয়ার ডিসেবেলমেন্ট অ্যালাওয়েন্স দাবি করুন ।</s></p> 

<p><s>আপনার কুড়ি বছরের জন্মদিনের পর আপনি কাজ করতে অক্ষম হয়ে পড়লে , একজন ডাক্তার আপনার প্রতিবন্ধকতা নির্ধারণ করবেন ।</s> 
<s>আপনি উনিশ বছরের কম বয়সী শিক্ষার্থী হলে এবং আপনি যদি সপ্তাহে একুশ ঘন্টা বা তার কম সময় কারুর তত্বাবধানে শিক্ষা পেয়ে থাকেন , তাহলে আপনি হয়ত সিভিয়ার ডিসেবেলমেন্ট অ্যালাওয়েন্স পেতে পারেন ।</s> 
<s>আপনার সন্তান থাকলে আপনি অতিরিক্ত আর্থিক সাহায্য পেতে পারেন ।</s>    
<s>আপনার স্বামী বা স্ত্রীর বয়স ষাট বছর বা তার বেশী হলে , অথবা অন্য একজন প্রাপ্তবয়স্ক লোক আপনার সন্তানদের দেখাশোনা করলে , আপনি হয়ত অতিরিক্ত অর্থ পেতে পারেন ।</s> 
<s>আপনার পঁয়ষট্টি বছর বয়স হওয়ার ঠিক আগেই যদি আপনি সিভিয়ার ডিসেবেলমেন্ট অ্যালাওয়েন্স পেতে শুরু করেন , তাহলে , পঁয়ষট্টি বছর বয়সের পরেও আপনি হয়ত সেটা পেয়ে যেতে পারেন ।</s></p> 

<p><s>কেমন করে দাবি করতে হয় ষোল নম্বর পৃষ্ঠা দেখুন ।</s></p>  

<p><head><s>ডিসেবিলিটি লিভিং অ্যালাওয়েন্স-ডি এল্ এ (<foreign lang="eng">Disability Living Allowance</foreign>)</s></head></p>

<p><s>নিজের দেখাশোনা করার জন্য যদি আপনার সাহায্যের দরকার হয়</s>
<s>আপনার পঁয়ষট্টি বছর বয়স হওয়ার আগেই যদি অপনি অসুস্থ বা প্রতিবন্ধী হয়ে পড়েন এবং পঁয়ষট্টি বছর বয়সের অগেই দাবি জানান </s>
<s>আপনার বয়স যদি পাঁচ বছর বা তার বেশী ও পঁয়ষট্টি বছরের কম হয় এবং আপনার হাঁটতে কষ্ট হয় অথবা চলাফেরা করতে সাহায্য দরকার হয়</s> 
<s>বিভিন্ন হারে দেওয়া হয় ।</s></p>

<p><s>আপনার কি:</s>
<s>তিন মাস ধরে সাহায্য দরকরা হয়েছে এবং সম্ভবতঃ কমপক্ষে আরো ছয় মাস তা দরকার আছে ?</s></p>

<p><s>আপনার উত্তর "হ্যাঁ" হলে , ডিসেবিলিটি লিভিং অ্যালাওয়েন্স দাবি করুন ।</s></p>    

<p><s>যাদের বাঁচার আশা নেই , তাদের জন্য বিশেষ নিয়মকানুন আছে যাতে তারা তাড়াতাড়ি ও সহজে বেনিফিট পেতে পারেন ।</s> 
<s>আপনার প্রয়োজনীয় সেবাযত্ন প্রকৃতপক্ষে কারুর কাছ থেকে না পেলেও আপনি ডিসেবিলিটি লিভিং অ্যালাওয়েন্স পেতে পারেন । </s>
<s>আপনি হাসপাতালে বা রেসিডেন্সিয়াল কেয়ার-এ থাকলে ডিসেবিলিটি লিভিং অ্যালাওয়েন্স নাও পেতে পারেন ।</s>   
<s>সঞ্চয়ের পরিমাণের ওপর ডিসেবিলিটি লিভিং অ্যালাওয়েন্স পাওয়া নির্ভর করে না ।</s>
<s>আপনার অন্য আয়ের ওপর  সাধারণতঃ ডিসেবিলিটি লিভিং অ্যালাওয়েন্স পাওয়া নির্ভর করে না ।</s>
<s>ইনকাম সাপোর্ট এবং জব সীকার্স অ্যালাওয়েন্স হিসাব করার সময় সাধারণতঃ ডিসেবিলিটি লিভিং অ্যালাওয়েন্সকে আয় বলে ধরা হয় না ।</s></p>

<p><s>ষোল বছরের কম বয়সী ছেলেমেয়েদের জন্য ডিসেবিলিটি লিভিং অ্যালাওয়েন্স:</s>
<s>একই বয়সী অন্যান্য ছেলেমেয়েদের তুলনায় যদি কোন একজন ছেলেমেয়েকে অসুস্থতা বা প্রতিবন্ধকতার জন্য বেশী রকমের দেখাশোনা করতে হয় , তাহলে , যে ছেলে বা মেয়ের শারীরিক বা মানসিক অসুখ আছে অথবা যে প্রতিবন্ধী , তার জন্য আপনি ডিসেবিলিটি লিভিং অ্যালাওয়েন্স দাবি করতে পারেন ।</s></p> 

<p><s>এই ছেলে বা মেয়েটির কি:</s>
<s>বয়স তিন মাস বা তার বেশী এবং সাধারণতঃ অতিরিক্ত সাহায্য বা বেশী দেখাশোনা করার দরকার হয় ?</s>
<s>বয়স পাঁচ বছর বা তার বেশী এবং তর হাঁটতে কষ্ট হয় অথবা চলাফেরা করতে সাহায্য দরকার হয় ?</s></p>

<p><s>ওপরের যে কোন একটি প্রশ্নের উত্তর "হ্যাঁ" হলে , ডিসেবিলিটি লিভিং অ্যালাওয়েন্স দাবি করুন ।</s>    
<s>শিশুটির তিন মাস বয়স হওয়ার আগেই আপনি আপনার দাবি জানাতে পারেন  , কিন্তু শুধুমাত্র যে সব ক্ষেত্রে বাঁচার আশা নেই সেই সব ক্ষেত্র ছাড়া , তিন মাস বয়স হওয়ার আগে ডিসেবিলিটি লিভিং অ্যালাওয়েন্স দেওয়া হবে না ।</s></p>

<p><s>কেমন করে দাবি করতে হয় ষোল নম্বর পৃষ্ঠা দেখুন ।</s></p> 

<p><head><s>এ্যাটেনডেন্স অ্যালাওয়েন্স-এ এ (<foreign lang="eng">Attendance Allowance</foreign>)</s></head></p>   

<p><s>নিজের দেখাশোনা করার জন্য আপনার যদি সাহায্যের দরকার হয়</s>
<s>আপনার পঁয়ষট্টি বছর বয়সে অথবা তার পরে যদি আপনি অসুস্থ বা প্রতিবন্ধী হয়ে পড়েন এবং পঁয়ষট্টি বছর বয়সে  বা তার পরে দাবি জানান</s>
<s>বিভিন্ন হারে দেওয়া হয় ।</s></p>

<p><s>আপনার কি:</s>
<s>অন্ততঃ ছয় মাস ধরে সাহায্য দরকার হয়েছে ?</s>
<s>আপনার উত্তর হ্যাঁ হলে এ্যাটেনডেন্স অ্যালাওয়েন্স দাবি করুন ।</s></p> 

<p><s>যাদের বাঁচার আশা নেই , তাদের জন্য বিশেষ নিয়মকানুন আছে যাতে তারা তাড়াতাড়ি ও সহজে বেনিফিট পেতে পারেন । </s>
<s>আপনার প্রয়োজনীয় সেবাযত্ন প্রকৃতপক্ষে কারুর কাছ থেকে না পেলেও আপনি এ্যাটেনডেন্স অ্যালাওয়েন্স পেতে পারেন । </s>
<s>আপনি হাসপাতালে বা রেসিডেন্সিয়াল কেয়ার-এ থাকলে এ্যাটেনডেন্স অ্যালাওয়েন্স নাও পেতে পারেন । </s>  
<s>সঞ্চয়ের পরিমাণের ওপর এ্যাটেনডেন্স অ্যালাওয়েন্স পাওয়া নির্ভর করে না ।</s>
<s>আপনার অন্য আয়ের ওপর  সাধারণতঃ এ্যাটেনডেন্স অ্যালাওয়েন্স পাওয়া নির্ভর করে না ।</s>
<s>ইনকাম সাপোর্ট এবং জব সীকার্স অ্যালাওয়েন্স হিসাব করার সময় সাধারণতঃ এ্যাটেনডেন্স অ্যালাওয়েন্সকে আয় বলে ধরা হয় না ।</s></p>

<p><s>কেমন করে দাবি করতে হয় ষোল নম্বর পৃষ্ঠা দেখুন ।</s></p> 

<p><head><s>ডিসেবেল্ড্ পার্সন্স ট্যাক্স ক্রেডিট (<foreign lang="eng">Disabled Person's Tax Credit</foreign>)</s></head></p>

<p><s>ষোল হাজার পাউন্ডের বেশী সঞ্চয় থাকলে সাধারণতঃ ডিসেবেল্ড্ পার্সন্স ট্যাক্স ক্রেডিট পাওয়া যায় না ।</s></p> 

<p><s>আপনি কি:</s>
<s>ষোল বছর বা তার বেশী বয়সী ?</s>
<s>সপ্তাহে গড়পড়তা রোল ঘন্টা বা তার বেশী কাজ করেন ?</s>
<s>অসুস্থতা বা প্রতিবন্ধকতা থাকার ফলে , আপনি কি ধরনের কাজ অথবা কত ঘন্টা কাজ করতে পারেন , তা সীমাবদ্ধ ?</s></p>  

<p><s>তাহলে , নিচের প্রশ্নগুলি পরীক্ষা করে দেখুন ।</s></p> 

<p><s>1.আপনি কি:</s>
<s>আপনার অসুস্থতা বা প্রতিবন্ধকতার জন্য গত একশ বিরাশি দিন ধরে নিচের দেওয়া বেনিফিটগুলি কোন একটা পাচ্ছেন ?</s>
<s>উঁচু হারে অল্প দিনের জন্য ইনক্যাপাসিটি বেনিফিট</s>
<s>দীর্ঘদিনের জন্য ইনক্যাপাসিটি বেনিফিট</s>
<s>সিভিয়ার ডিসেবেলমেন্ট অ্যালাওয়েন্স</s>
<s>ইনকাম সাপোর্ট , ইনকাম্-বেজড্ জব সীকার্স অ্যালাওয়েন্স, হাউজিং বেনিফিট অথবা কাউন্সিল ট্যাক্স বেনিফিটের সাথে দেওয়া ডিসেবিলিটি প্রিমিয়াম অথবা উঁচু হারে পেনশনার প্রিমিয়াম ।</s>
<s>এর মধ্যে কোনটার উত্তর হ্যাঁ হলে , ডিসেবেল্ড্ পার্সন্স ট্যাক্স ক্রেডিটের (<foreign lang="eng">Disabled Person's Tax Credit</foreign> দাবি জানিয়ে দরখাস্ত করুন । </s></p>

<p><s>2.অথবা আপনি কি:</s>
<s>আপনার অসুস্থতা বা প্রতিবন্ধকতার জন্য নিচে দেওয়া বেনিফিটগুলির কোন একটা পাচ্ছেন ?</s>
<s>ডিসেবিলিটি লিভিং অ্যালাওয়েন্স (<foreign lang="eng">Disability Living Allowance</foreign>)</s>
<s>এ্যাটেনডেন্স অ্যালাওয়েন্স (<foreign lang="eng">Attendance Allowance</foreign>)</s>
<s>কনস্ট্যান্ট এ্যাটেনডেন্স অ্যালাওয়েন্স (<foreign lang="eng">Constant Attendance Allowance</foreign>)</s> 
<s>সমেত ইনডাস্ট্রিয়াল ইনজ্যুরিস্ ডিসেবেলমেন্ট্ বেনিফিট (<foreign lang="eng">Industrial Injuries Disablement Benefit</foreign>)</s>
<s>ওয়ার পেনশনারস্ কনস্ট্যান্ট এ্যাটেনডেন্স অ্যালাওয়েন্স (<foreign lang="eng">War Pensions Constant Attendance Allowance</foreign>)</s>
<s>ডি এস্ এস্ (<foreign lang="eng">DSS</foreign>)-এর দেওয়া প্রতিবন্ধীদের উপযুক্ত তিন চাকার গাড়ি</s></p>    

<p><s>এর মধ্যে কোনটার উত্তর "হ্যাঁ" হলে , ডিসেবেল্ড্ পার্সন্স ট্যাক্স ক্রেডিট (<foreign lang="eng">Disabled Person's Tax Credit</foreign>)-এর দাবি জানিয়ে দরখাস্ত করুন ।</s></p>  

<p><s>তিন হাজার পাউন্ডের ওপর সঞ্চয় থাকলে সাধারণতঃ তার প্রভাব পড়ে আপনার ডিসেবেল্ড্ পার্সন্স ট্যাক্স ক্রেডিট-এর পরিমাণের ওপর ।</s>
<s>স্বেচ্ছাসেবক হিসাবে(ভলান্টারী) কাজ করলে সেটাকে ষোল ঘন্টার মধ্যে ধরা হয় না ।</s>   
<s>আপনি চাকরী করলে বা নিজের হয়ে কাজ করলেও ডিসেবেল্ড্ পার্সন্স ট্যাক্স ক্রেডিট পেতে পারেন ।</s>
<s>কাজের সময়ে আপনার সন্তানকে দেখাশোনার করার খরচের জন্য অপনি হয়ত সাহায্য পেতে পারেন । </s>
<s>আপনি এমপ্লয়মেন্ট সার্ভিস অথবা নিউ ডিল অ্যালাওয়েন্স পেলে ডিসেবেল্ড্ পার্সন্স ট্যাক্স ক্রেডিট পাবেন না ।</s> 
<s>আপনি সপ্তাহে তিরিশ ঘন্টা বা তার বেশি কাজ করলে আরও বেশী ডিসেবেল্ড্ পার্সন্স ট্যাক্স ক্রেডিট পেতে পারেন ।</s> 
<s>ডিসেবেল্ড্ পার্সন্স ট্যাক্স ক্রেডিট সম্বন্ধে আরও জানতে হলে , শুন্য আট চার পাঁচ ছয় শুন্য পাঁচ পাঁচ আট পাঁচ আট নম্বরে ইংরেজিতে তথ্য দিয়ে সাহায্য করার লাইনে(ইনফরমেশন হেল্পলাইন)ফোন করুন । </s> <s>আপনি টেক্সট্ ফোন ব্যবহার করলে , তার নম্বর হচ্ছে শুন্য আট চার পাঁচ ছয় শুন্য সাত ছয় শুন্য সাত আট (এই টেলিফোন লাইগুলিতে শুধুমাত্র ইংরেজীতে তথ্য দেওয়া হয়) ।</s></p> 

<p><s>কেমন করে দাবি করতে হয় ষোল নম্বর পৃষ্ঠা দেখুন । </s></p>

<p><head><s>ভ্যাকসিন্ ড্যামেজ্ পেমেন্ট-টীকার থেকে ক্ষতি হওয়ার জন্য আর্থিক সাহায্য (<foreign lang="eng">Vaccine Damage Payment</foreign>)</s></head></p>    

<p><s>টীকা দেওয়ার ফলে আপনি গুরুতর রকমের প্রতিবন্ধী হয়ে থাকলে</s>
<s>একবারই মাত্র এই আর্থিক সাহায্য দেওয়া হয়</s> 
<s>আরও তথ্য চাইলে আপনি আপনার সোশাল সিকিওরিটি অফিস থেকে এইচবি3 পেমেন্ট ফর পিপল্ সিভিয়ারলী ডিসেবেল্ড্ বাই এ ভ্যাকসিন্ (<foreign lang="eng">HB3 Payment for people severely disabled by a vaccine</foreign>-টীকার ফলে গুরুতর রকমের প্রতিবন্ধী হয়ে পড়া লোকদের জন্য দেওয়া আর্থিক সাহায্য সম্পর্কিত প্রচারপত্রটি শুধুমাত্র ইংরেজীতে পাওয়া যায়)নামের প্রচারপত্রটি আনিয়ে নিন অথবা চিঠি লিখুন</s></p>

<p><s>(<foreign lang="eng">The Vaccine Damage Payments Unit</foreign></s>
<s><foreign lang="eng">Palatine House</foreign></s>
<s><foreign lang="eng">Lancaster Road</foreign></s>
<s><foreign lang="eng">Preston PR1 1HB</foreign>)</s></p>

<p><head><s>ইনডাস্ট্রিয়াল ইনজ্যুরিস্ ডিসেবেলমেন্ট বেনিফিট</s></head></p>

<p><head><s>(<foreign lang="eng">Industrial Injuries Disablement Benefit</foreign>)</s></head></p>

<p><s>আপনাকে অবশ্যই কিছু বিশেষ ধরণের কাজ করে থাকতে হবে</s>
<s>যার ফলে আপনি অসুস্থ হয়ে পড়েছেন সেটা ঘটার সময় অথবা দুর্ঘটনা ঘটার সময় আপনি যদি নিজের হয়ে কাজ করে থাকেন , তাহলে , এটা দেওয়া হয় না </s>
<s>আপনার প্রতিবন্ধকতা কত গুরুতর , তার ওপর এই বেনিফিটের পরিমান নির্ভর করে ।</s></p> 

<p><s>আপনি কি:</s>
<s>কাজের জায়গায় কোন একটা দুর্ঘটনার ফলে কি আপনি প্রতিবন্ধী হয়ে পড়েছেন ?</s>
<s>আপনার কাজের জন্য , বধিরতা সমেত , কোন অসুখ হওয়ার ফলে আপনি প্রতিবন্ধী হয়ে পড়েছেন ?</s></p>

<p><s>এর মধ্যে কোনটার উত্তর হ্যাঁ হলে , ইনডাস্ট্রিয়াল ইনজ্যুরিস্ ডিসেবেলমেন্ট বেনিফিট (<foreign lang="eng">Industrial Injuries Disablement Benefit</foreign>) দাবি করুন ।</s></p>  

<p><s>আপনি যদি কোন অসুখের কারণে দাবি করেন , তাহলে শুধুমাত্র তালিকাভুক্ত শ্রমশিল্পগত অসুখের জন্য ইনডাস্ট্রিয়াল ইনজ্যুরিস্ ডিসেবেলমেন্ট বেনিফিট (<foreign lang="eng">Industrial Injuries Disablement Benefit</foreign>) পেতে পারেন-আপনার সোশাল সিকিরওটি অফিসে জিজ্ঞাসা করুন ।</s> 
<s>আপনি যদি ইনডাস্ট্রিয়াল ইনজ্যুরিস্ ডিসেবেলমেন্ট বেনিফিট পান , আপনার দৈনিক সেবাযত্ন ও দেখাশোনার দরকার হয় এবং আপনার প্রতিবন্ধকতাকে শতকরা একশ ভাগ বলে নির্ধারণ করা হয়ে থাকে তাহলে আপনি হয়ত কনস্ট্যান্ট এ্যাটেনডেন্স অ্যালাওয়েন্স (<foreign lang="eng">Constant Attendance Allowance-CAA</foreign>) পেতে পারেন </s> <s>এটা বিভিন্ন হারে দেওয়া হয় ।</s> 
<s>আপনি যদি অসাধারণ অথবা মধ্যবর্তী হারে কনস্ট্যান্ট এ্যাটেনডেন্স অ্যালাওয়েন্স পান এবং স্থায়ীভাবে আপনার সেবাযত্ন ও দেখাশোনা দরকার হয় , তাহলে আপনি এক্সেপশনালী সিভিয়ার ডিসেবেলমেন্ট অ্যালাওয়েন্স (<foreign lang="eng">Exceptionally Severe Disablement Allowance</foreign>) পেতে পারেন ।</s></p> 

<p><s>কেমন করে দাবি করতে হয় ষোল নম্বর পৃষ্ঠা দেখুন ।</s></p>    

<p><head><s>রিডিউসড্ আর্নিংস্ অ্যালাওয়েন্স-আর ই এ (<foreign lang="eng">Reduced Earnings Allowance-REA</foreign>)</s></head></p>

<p><s>কাজের জন্য ঘটা কোন অসুখ বা দুর্ঘটনার ফলে আপনার আয় করার ক্ষমতা কমে গেলে , তার জন্য সাহায্য ।</s></p>

<p><s>আপনি কি:</s>
<s>কোন রকম অসুখ বা দুর্ঘটনার ফলে কি আপনার স্বাভাবিক কাজ অথবা ঐ কাজের সমান মাইনার আর কোন কাজ কি আপনি করতে পারছেন না ?</s>
<s>পয়লা অক্টোবর উনিশশ নিরানব্বই -এর আগে কোন অসুখ হওয়া বা দুর্ঘটনা ঘটার ফলে কি অসুস্থতা ও প্রতিবন্ধকতায় ভুগছেন ?</s>
<s>ওপরের দুটি প্রশ্নের উত্তরই "হ্যাঁ" হলে , রিডিউসড্ আর্নিংস্ অ্যালাওয়েন্স দাবি করুন ।</s></p>   

<p><s>আপনার রিডিউসড্ আর্নিংস্ অ্যালাওয়েন্স দুশ পাউন্ডের বেশী হলে এবং আপনি নিয়মিত চাকরী না করলে , আপনার জাতীয় অবসরভাতা পাওয়ার বয়স হলে পরে রিডিউসড্ আর্নিংস্ অ্যালাওয়েন্স-এর বদলে রিটায়ারমেন্ট অ্যালাওয়েন্স (<foreign lang="eng">Retirement Allowance</foreign>) নামের অন্য একটি বেনিফিট দেওয়া হবে ।</s></p>

<p><s>কেমন করে দাবি করতে হয় ষোল নম্বর পৃষ্ঠা দেখুন ।</s></p> 

<p><head><s>ইনভ্যালিড কেয়ার অ্যালাওয়েন্স-আই সি এ (<foreign lang="eng">Invalid Allowance</foreign>)</s></head></p> 

<p><s>যারা পুরো সময়ের জন্য দেখাশোনা করেন(ফুল-টাইম কেয়ারার) তাদের দেওয়া হয়</s>
<s>আপনার অন্য বেনিফিটগুলি বাড়তে বা কমতে পারে</s>
<s>আপনি যার দেখাশোনা করেন তার কিছু বেনিফিট কোন কোন ক্ষেত্রে কমতে পারে ।</s></p>

<p><s>আপনি কি:</s>
<s>ষোল বছর বা তার বেশী এবং পঁয়ষট্টি বছরের কম বয়সী ?</s> 
<s>সপ্তাহে অন্ততঃ পঁয়ত্রিশ ঘন্টা এমন একজন লোকের দেখাশোনা করেন , যিনি নিচে দেওয়া বেনিফিটগুলির কোন একটা পান:</s>
<s>এ্যাটেনডেন্স অ্যালাওয়েন্স (<foreign lang="eng">Attendance Allowance</foreign>)</s>
<s>ব্যক্তিগত সেবা যত্নের জন্য মধ্যবর্তী বা উঁচু হারে ডিসেবিলিটি লিভিং অ্যালাওয়েন্স (<foreign lang="eng">Disability Living Allowance</foreign>) ?</s>
<s>ইনডাস্ট্রিয়াল ইনজ্যুরিস্ ডিসেবেলমেন্ট বেনিফিট কনস্ট্যান্ট এ্যাটেনডেন্স অ্যালাওয়েন্স (<foreign lang="eng">Industrial Injuries Disablement Benefit Constant Attendance Allowance</foreign>) অথবা ওয়ার পেনশনস্ কনস্ট্যান্ট এ্যাটেনডেন্স অ্যালাওয়েন্স (<foreign lang="eng">War Pensions Constant Attendance Allowance</foreign>) ?</s></p>

<p><s>ওপরের দুটি প্রশ্নের উত্তরই হ্যাঁ হলে , ইনভ্যালিড কেয়ার অ্যালাওয়েন্স দাবি করুন ।</s></p>    

<p><s>আপনি যার দেখাশোনা করছেন তিনি যদি ইনডাস্ট্রুয়াল প্রকল্পের মাধ্যমে কনস্ট্যান্ট এ্যাটেনডেন্স অ্যালাওয়েন্স পান , তাহলে সেটা সবচেয়ে বেশী স্বাভাবিক হারে বা তার থেকে বেশী হারে হতে হবে ।</s>
<s>আপনি পুরো সময়ের শিক্ষার্থী হলে ইনভ্যালিড কেয়ার অ্যালাওয়েন্স পাবেন না ।</s> 
<s>আপনার রোজগার একটা বিশেষ পরিমাণের বেশী হতে পারবে না ।</s> <s> কিছু জিনিষের জন্য আপনার যা খরচ হয় , তা আমরা ধরব না যেমন:</s>
<s>-ন্যাশনাল ইনসিওরেন্স বাবদ দেওয়া কিছু অর্থ</s>
<s>-ইনকাম ট্যাক্স</s>
<s>-ব্যক্তিগত বা আপনার পেশাগত কোন অবসরভাতার(পেনশনের) জন্য দেওয়া অর্থের অর্ধেক </s>  
<s>-আপনি যখন কাজে থাকেন , তখন একজন প্রতিবন্ধী লোককে দেখাশোনা করার জন্য , নিকট আত্মীয় নন এমন কাউকে রাখার খরচ(একটা বিশেষ পরিমাণ পর্যন্ত)</s>
<s>-অন্যান্য কিছু খরচ</s>
<s>আপনার পরিবারের জন্য আপনি কিছু অতিরিক্ত অর্থ পেতে পারেন ।</s> 
<s>আপনার পঁয়ষট্টি বছর বয়স হওয়ার ঠিক আগেই যদি আপনি ইনভ্যালিড কেয়ার অ্যালাওয়েন্স পাবার উপযুক্ত হন , তাহলে , আপনার পঁয়ষট্টি বছর বয়স হওয়ার পরেও আপনি সেটা পেতে থাকবেন ।</s> 
<s>আপনি ইনকাম সাপোর্ট , ইনকাম-বেজড্ জব সীকার্স অ্যালাওয়েন্স ,হাউজিং বেনিফিট এবং কাউন্সিল ট্যাক্স বেনিফিট-এর সাথে অতিরিক্ত অর্থ পেতে পারেন । ইনভ্যালিড কেয়ার অ্যালাওয়েন্স না পেলেও কোন কোন ক্ষেত্রে এই অতিরিক্ত অর্থ পাওয়া যায় । আপনার সোশাল সিকিওরিটি অফিসে জিজ্ঞাসা করুন ।</s>
<s>আপনি যার দেখাশোনা করেন , তার দেখাশোনা করার থেকে অল্প দিনের জন্য বিরতি নিলেও আপনি ইনভ্যালিড কেয়ার অ্যালাওয়েন্স পেয়ে যেতে পারেন ।</s> 
<s>যারা দেখাশোনা করেন তারা কি কি সাহায্য পেতে পারেন , সেই তথ্যের জন্য এসডি4 কেয়ারিং ফর সামওয়ান? (<foreign lang="eng">SD4 Caring for Someone ?</foreign>-আপনি কি কারুর দেখাশোনা করছেন ? নামের প্রচারপত্রটি শুধুমাত্র ইংরেজীতে পাওয়া যায়) প্রচারপত্রটি আপনার সোশাল সিকিওরিটি অফিস থেকে নিয়ে আসুন ।</s></p>

<p><s>কেমন করে দাবি করতে হয় ষোল নম্বর পৃষ্ঠা দেখুন ।</s></p> 

<p><head><s>হোম রেসপন্সিবিলিটিস প্রোটেকশন-এইচ আর পি (<foreign lang="eng">Home Responsibilities Protection-HRP</foreign>)</s></head></p>  

<p><s>হোম রেসপন্সিবিলিটিস্ প্রোটেকশন কোন বেনিফিট নয় । </s> <s>এটা হচ্ছে একটি প্রকল্প যেটি আপনার মৌলিক অবসরভাতাকে রক্ষা করে ।</s> 
<s>দেখাশোনা করার দায়িত্বের জন্য অপনি ন্যাসনাল ইনসিওরেন্স বাবদ কোন অর্থ দিতে না পারলে অথবা কোন এক বছর যথেষ্ট পরিমাণ না দিতে পারলে , আপনি হয়ত হোম রেসপন্সিবিলিটিস্ প্রোটেকশন পেতে পারেন ।</s>
<s>আপনি যদি ষোল বছরের কম বয়সী শিশুর জন্য নিজের নামে চাইল্ড বেনিফিট পান এবং আপনার ন্যাশনাল ইনসিওরেন্স নাম্বার আমাদের জানিয়ে থাকেন , তাহলে আপনি সরাসরি হোম রেসপন্সিবিলিটিস্ প্রোটেকশন পাবেন ।</s> 
<s>আপনি যদি সপ্তাহে অন্ততঃ পঁয়ত্রিশ ঘন্টা এমন একজন লোকের দেখাশোনা করেন , যিনি এ্যাটেনডেন্স অ্যালাওয়েন্স , ব্যক্তিগত সেবাযত্নের জন্য মধ্যবর্তী বা সবচেয়ে উঁচু হারে ডিসেবিলিটি লিভিং অ্যালাওয়েন্স অথবা কনস্ট্যান্ট এ্যাটেনডেন্স অ্যালাওয়েন্স পান , তাহলে আপনি হয়ত হোম রেসপন্সিবিলিটিস্ প্রোটেকশন পেতে পারেন ।</s> 
<s>আপনি কারুর দেখাসোনা করছেন বলে ইনকাম সাপোর্ট পেলে , আপনি ন্যাশনাল ইনসিওরেন্স ক্রেডিট(আপনার পাওনা দেওয়া হয়েছে বলে ধরে নেওয়া হবে) পাবেন এবং আপনার হোম রেসপন্সিবিলিটিস্ প্রোটেকশন দরকরা হবে না ।</s>    
<s>একজন পুরুষ মানুষের ক্ষেত্রে , হোম রেসপন্সিবিলিটিস্ প্রোটেকশন তার স্ত্রীর প্রাপ্য বৈধব্যে বেনিফিট রক্ষা করতে সাহায্য করে । </s>
<s>আপনি মহিলা হলে যে সব বছরে আপনি কম হারে ন্যাশনাল ইনসিওরেন্স বাবদ অর্থ দিয়েছেন , সেই সব বছরের জন্য আপনি হোম রেসপন্সিবিলিটিস্ প্রোটেকশন পাবেন না ।</s> 
<s>সিএফ্411 হাউ টু প্রোটেক্ট ইওর স্টেট রিটায়ারমেন্ট পেনশন ইফ্ ইউ আর লুকিং আফটার সামওয়ান এ্যাট হোম (<foreign lang="eng">CF411 How to protect your State Retirement Pension if you are looking after Someone at home</foreign>)প্রচারপত্রটি থেকে আপনি আরো তথ্য পাবেন । </s> <s>এটা আপনি আপনার সোশাল সিকিওরিটি অফিসে পাবেন । </s> <s>(বাড়িতে কারুর দেখাশোনা করলেও কি ভাবে জাতীয় অবসরভাতা রক্ষা করা যায় সে সম্বন্ধে প্রচারপত্রটি শুধুমাত্র ইংরেজীতে পাওয়া যায়)</s></p>

<p><head><s>ইনকাম সাপোর্ট</s></head></p>

<p><s>কম আয়ের লোকজনদের জন্য</s> 
<s>আট হাজার পাউন্ডের বেশী সঞ্চয় থাকার মানে সাধারণতঃ এই যে আপনি ইনকাম সাপোর্ট পাবেন না (রেসিডেন্সিয়াল হোমে বা নার্সিংহোমে থাকলে এর পরিমান ষোল হাজার পাউন্ড)</s>
<s>আপনাকে জব সেন্টারে সই করতে হলে আপনি ইনকাম সাপোর্ট পাবেন না ।</s></p>

<p><s>আপনি কি:</s>
<s>ষোল বছর বা তার কম বয়সী ?</s>
<s>আপনার আয় কম ?</s>
<s>বেকার অথবা সপ্তাহে ষোল ঘন্টার কম কাজ করেন এবং আপনার সঙ্গী চব্বিশ ঘন্টার কম কাজ করেন ?</s></p> 

<p><s>ওপরের সব প্রশ্নের উত্তরই হ্যাঁ হলে , ইনকাম সাপোর্ট দাবি করুন ।</s></p> 

<p><s>তিন হাজার পাউন্ডের বেশী সঞ্চয় থাকলে সাধারণতঃ তার প্রভাব পড়ে আপনি কত ইনকাম সাপোর্ট পাবেন তার উপরে ।</s>
<s>আপনি বাড়ি কিনছেন এরকম হলে , আপনি কিছু অতিরিক্ত সাহায্য পেতে পারেন এবং বাড়িঘরের অন্যান্য খরচের জন্যও সাহায্য পেতে পারেন ।</s> 
<s>আপনার পরিবারের জন্য আপনি সাধারণতঃ অতিরিক্ত অর্থিক সাহায্য পেতে পারেন ।</s>
<s>আপনি অসুস্থ হলে এবং স্ট্যাটুটরী সিক্ পে না পেলে ইনকাম সাপোর্ট -এর সাথে সাথে ইনক্যাপাসিটি বেনিফিটও দাবি করবেন ।</s> <s> আপনি স্ট্যাটুটরী সিক্ পে পেলে আপনাকে ইনক্যাপাসিটি বেনিফিট এবং তার সাথে ইনকাম সাপোর্ট দাবি করতে হবে না ।</s> 
<s>ইনকাম সাপোর্টের জন্য আপনার আয় যথেষ্ট কম কিনা , তা আপনার সোশাল সিকিওরিটি অফিসে জিজ্ঞাসা করুন ।</s></p> 

<p><s>কেমন করে দাবি করতে হয় ষোল নম্বর পৃষ্ঠা দেখুন ।</s></p> 

<p><head><s>অন্যান্য সাহায্য</s></head></p>

<p><head><s>দি সোশাল ফান্ড (<foreign lang="eng">The Social Fund</foreign>)</s></head></p>

<p><s>নিয়মিত আয় থেকে দেওয়া কঠিন সেই জাতীয় সাধারনের অতিরিক্ত খরচের জন্য সাহায্য
সংসারের জিনিষপত্র , কয়েক রকমের যাতায়াতের খরচ , অথবাব জরুরী অবস্থা বা বিপর্যয়ে সাহায্য করার জন্য আপনি হয়ত কমিউনিটি কেয়ার গ্রান্ট (<foreign lang="eng">Community care Grant</foreign>)   
 , বাজেটিং লোন (<foreign lang="eng">Budgeting Loans</foreign>)   
অথবা ক্রাইসিস লোন (<foreign lang="eng">Crisis Loans</foreign>) পেতে পারেন ।</s> 
<s>গ্রান্ট বা বাজেটিং লোন পেতে হলে আপনাকে অবশ্যই ইনকাম সাপোর্ট (<foreign lang="eng">Income Support</foreign>)বা ইনকাম বেজড্ জব সীকার্স অ্যালাওয়েন্স (<foreign lang="eng">Income Based Job Seeker's Allowance</foreign>) পেতে হবে । </s> <s>ক্রাইসিস লোনের জন্য কোন বেনিফিট পাওয়ার দরকার নেই ।</s>   
<s>ন্যাশনাল ইনসিওরেন্স বাবদ কোন অর্থ না দিয়ে থাকলেও সোশাল ফান্ড থেকে সাহায্য পাওয়া যায় ।</s>
<s>বাজেটিং লোন ও ক্রাইসিস লোন ফেরত দিতে হবে , কিন্তু এদের জন্য কোন সুদ দিতে হবে না । </s> <s> শেষকৃত্যের জন্য দেওয়া সাহায্য(ফিউনারাল পেমেন্টস্-<foreign lang="eng">Funeral Payments</foreign>)   
 সাধারণতঃ প্রয়াত ব্যক্তির সম্পত্তি থেকে ফেরত দিতে হয় । </s> <s>কমিউনিটি কেয়ার গ্রান্ট এবং সোশাল ফান্ড থেকে দেওয়া অন্যান্য সাহায্য ফেরত দিতে হয় না ।</s></p>    

<p><s>কিছু লোকের অন্যান্য কিছু খরচ মেটাতে সোশাল ফান্ড সাহায্য করতে পারে:</s></p>

<p><s>শিশুর জন্মের সাথে সাথেই যেসব জিনিষের দরকার হয় , ম্যাটারনিটি পেমেন্টস্ (<foreign lang="eng">Maternity payments</foreign>)এবং শিওর স্টার্ট ম্যাটারনিটি গ্রান্ট (<foreign lang="eng">Sure Start Maternity Grants</foreign>)তাতে সাহায্য করতে পারে ।</s> 
<s>শেষকৃত্য করার খরচ মেটাতে ফিউনারাল পেমেন্টস্ (<foreign lang="eng">Funeral Payments</foreign>) সাহায্য করতে পারে ।</s> 
<s>ঠান্ডা পড়লে বাড়ি গরম রাখার অতিরিক্ত খরচ মেটাতে কোল্ড ওয়েদার পেমেন্টস্ (<foreign lang="eng">Cold Weather Payments</foreign>) সাহায্য করতে পারে ।</s> 
<s>যে সব পরিবারে ষাট বছর বা তার বেশী বয়সী কেউ আছেন , তাদের জ্বালানীর খরচ মেটানোর জন্য উইন্টার ফুয়েল পেমেন্টস্ (<foreign lang="eng">Winter Fuel Payments</foreign>) দেওয়া হয় ।</s>
<s>দুহাজার/দুহাজার এক-এর শীতকালের আগে উইন্টার ফুয়েল পেমেন্টস্ (<foreign lang="eng">Winter Fuel Payments</foreign>)সম্বন্ধে আরো তথ্য জানতে পারবেন ।</s> <s> সোশাল ফান্ড সম্বন্ধে আরো তথ্য জানতে চাইলে জিএল্18 হেল্প ফ্রম দা সোশাল ফান্ড নামের প্রচারপত্রটি আপনার সোশাল সিকিওরিটি অফিসে পাবেন । </s> <s>(সোশাল ফান্ড থেকে সাহায্য সম্বন্ধে প্রচারপত্রটি বাংলায় পাওয়া যায়)</s></p>

<p><head><s>হাউজিং বেনিফিট (<foreign lang="eng">Housing Benefit</foreign>)এবং কাউন্সিল ট্যাক্স বেনিফিট(<foreign lang="eng">Council Tax Benefit</foreign>)</s></head></p> 

<p><s>স্থানীয় কাউন্সিল থেকে দেওয়া হয়</s>
<s>এর জন্য অন্য কোন বেনিফিট পাওয়ার দরকার নেই</s></p>

<p><s>আপনি কি:</s>
<s>কম আয় করেন ?</s>
<s>ভাড়া দেন?</s>
<s>ওপরের দুটি প্রশ্নের উত্তরই "হ্যাঁ" হলে , হাউজিং বেনিফিট (<foreign lang="eng">Housing Benefit</foreign>) দাবি করুন ।</s></p> 

<p><s>আপনি কি:</s>
<s>কম আয় করেন ?</s>
<s>কাউন্সিল ট্যাক্স দেন ?</s></p>

<p><s>ওপরের দুটি প্রশ্নের উত্তরই "হ্যাঁ" হলে , কাউন্সিল ট্যাক্স বেনিফিট (<foreign lang="eng">Council Tax Benefit</foreign>) দাবি করুন ।</s></p> 

<p><s>আপনি ইনকাম সাপোর্ট অথবা জব সীকার্স অ্যালাওয়েন্স দাবি করলে , আপনার দাবির কাগজপত্রের সাথে হাউজিং বেনিফিট এবং কাউন্সিল ট্যাক্স বেনিফিট দাবি করার দরখাস্ত ফর্ম পাবেন ।</s> 
<s>আপনি ইনকাম সাপোর্ট অথবা জব সীকার্স অ্যালাওয়েন্স দাবি না করলে , হাউজিং বেনিফিট এবং কাউন্সিল ট্যাক্স বেনিফিট দাবি করার দরখাস্ত ফর্ম আপনার স্থানীয় কাউন্সিলের কাছ থেকে পাবেন ।</s> 
<s>আপনি আরও তথ্য জানতে চাইলে জিএল্16 হেল্প উইথ ইওর রেন্ট (<foreign lang="eng">GL16 Help with your rent</foreign>) এবং জিএল্17 হেল্প উইথ ইওর কাউন্সিল ট্যাক্স (<foreign lang="eng">Gl17 Help with your council tax</foreign>) প্রচারপত্র দুটি নিয়ে আসুন ।</s> <s> এগুলি আপনার সোশাল সিকিওরিটি অফিসে পাবেন । </s> <s>(আপনার ভাড়ার জন্য সাহায্য এবং আপনার কাউন্সিল ট্যাক্সের জন্য সাহায্য , এই প্রচারপত্র দুটি বাংলায় পাওয়া যায়)</s></p>

<p><head><s>স্বাস্থ্য সংক্রান্ত খরচের জন্য সাহায্য</s></head></p>

<p><s>বিনাপয়সায় ন্যাশনাল হেল্থ সার্ভিসের প্রেশকৃপশন</s> 
<s>বিনাপয়সায় ন্যাশনাল হেল্থ সার্ভিসের দাঁতের চিকিত্সা</s>
<s>বিনাপয়সায় ন্যাশনাল হেল্থ সার্ভিসের চোখ পরীক্ষা</s>
<s>চশমা বা কনট্যাক্ট লেন্সের জন্য ভাউচার</s>
<s>বিনাপয়সায় ন্যাশনাল হেল্থ সার্ভিসের পরচুলা ও কাপড়ের তৈরীব্যান্ডেজ জাতীয় অবলম্বন</s>
<s>ন্যাশনাল হেল্থ সার্ভিসের চিকিত্সার জন্য হাসপাতালে যাতায়াতের প্রয়োজনীয় খরচ ফেরত দেওয়া</s></p> 

<p><s>আপনি বা আপনার সঙ্গী কি:</s>
<s>ইনকাম সাপোর্ট পান ?</s>
<s>ইনকাম বেজড জব সীকার্স অ্যালাওয়েন্স পান ?</s></p>

<p><s>ওপরের কোন একটা প্রশ্নের উত্তর "হ্যাঁ" হলে , স্বাস্থ্য সংক্রান্ত খরচের জন্য আপনি সাহায্য পাবেন ।</s> 
<s>উত্তর যদি "না" হয় , তাহলে আপনি হয়ত ন্যাশনাল হেল্থ সার্ভিসের লো ইনকাম স্কীমের (<foreign lang="eng">National Health Service Low Income scheme</foreign>-ন্যাশনাল হেল্থ সার্ভিসের কম আয়ের প্রকল্প) মাধ্যমে হেল্থ সংক্রান্ত খরচের জন্য সাহায্য পেতে পারেন ।</s></p>   

<p><s>আপনি আরও তথ্য জানতে চাইলে এইচসি11 আর ইউ এনটাইটেল্ড টু হেল্প উইথ হেল্থ কস্টস ? (<foreign lang="eng">HC11 Are you entitled to help with health costs</foreign>) প্রচারপত্রটি আনিয়ে নিন ।</s> <s> (আপনি কি স্বাস্থ্য সংক্রান্ত খরচে সাহায্য পাওয়ার উপযুক্ত ?-এই প্রচারপত্রটি বাংলায় পাওয়া যায়)</s></p>

<p><s>স্বাস্থ্য সংক্রান্ত বিভিন্ন বিষয়ে তথ্যের জন্য শুন্য আট শুন্য শুন্য ছয় ছয় পাঁচ পাঁচ চার চার নম্বরে হেল্থ ইনফরমেশন সার্ভিসকে (<foreign lang="eng">Health Information Service</foreign>-শুধুমাত্র ইংরেজীতে তথ্য দেওয়া হয়) ফোন করুন ।</s> <s> টেলিফোনের কথাবার্তা সব গোপন রাখা হবে ।</s></p> 

<p><head><s>প্রতিবন্ধী ছেলেমেয়েদের জন্য বিনাপয়সায় দুধ</s></head></p>

<p><s>পাঁচ থেকে ষোল বছর বয়সী আপনার কোন ছেলে বা মেয়ে শারীরিক বা মানসিক প্রতিবন্ধকতার জন্য স্কুলে যেতে</s> <s>না পারলে</s> 
<s>আপনার অন্য কোন বেনিফিট পাওয়ার দরকার নেই</s></p>

<p><s>দাবি করতে হলে নিচের ঠিকানা থেকে FW20 ফর্মটি আনিয়ে নিন:</s>
<s>(<foreign lang="eng">Disability Benefits Unit</foreign></s>
<s><foreign lang="eng">Room C122A</foreign></s>
<s><foreign lang="eng">Lobby D</foreign></s>
<s><foreign lang="eng">Warbreck House</foreign></s>
<s><foreign lang="eng">Warbreck Hill Road</foreign></s>
<s><foreign lang="eng">Blackpool</foreign></s>
<s><foreign lang="eng">FY2 0YE</foreign>)</s></p>

<p><head><s>কেমন করে দাবি জানাতে হয়</s></head></p>

<p><head><s><foreign lang="eng">1.</foreign> কখন দাবি করতে হয়</s></head></p>

<p><s>আপনার পঁয়ষট্টি বছর বয়স হওয়ার আগেই আপনাকে ডিসেবিলিটি লিভিং অ্যালাওয়েন্স(<foreign lang="eng">Disability Living Allowance</foreign>) দাবি করতে হবে ।</s></p> 

<p><s>দুর্ঘটনার জন্য আপনি যদি ইনডাস্ট্রিয়াল ইনজ্যুরিস্ ডিসেবেলমেন্ট বেনিফিট (<foreign lang="eng">Industrial Injuries Disablement Benefit</foreign>)দাবি করেন , তাহলে দুর্ঘটনার ফলে প্রতিবন্ধী হয়ে পড়ার দুই মাস পরে এটা দাবি করবেন ।</s> <s>এই প্রচারপত্রে দেওয়া আর সব বেনিফিটগুলিই তত্ক্ষণাত্ দাবি করবেন । দেরী করলে আপনার বেনিফিট খোয়া যেতে পারে ।</s></p>  

<p><head><s><foreign lang="eng">2.</foreign> দরখাস্ত ফর্ম</s></head></p> 

<p><s>আপনার নিয়োগকারিকে স্ট্যাটুটরী সিক্ পে (<foreign lang="eng">SSP</foreign>) সম্বন্ধে জিজ্ঞাসা করুন । </s></p>

<p><s>অন্যান্য বেনিফিটের দরখাস্ত ফর্মের জন্য আপনার সোশাল সিকিওরিটি অফিসের সাথে যোগাযোগ করুন ।</s>   <s> আপনার নিকটস্থ সোশাল সিকিওরিটি অফিসের জন্য আপনার টেলিফোন বইয়ের ব্যবসা-বাণিজ্যের নম্বরের অংশে দেওয়া বেনিফিট এজেন্সীর (<foreign lang="eng">Benefit Agency</foreign>) বিজ্ঞাপন দেখুন ।</s></p> 

<p><s>ডিসেবেল্ড্ পার্সন্স্ ট্যাক্স ক্রেডিটের (<foreign lang="eng">Disabled Person's Tax Credit</foreign>) জন্য দরখাস্ত করতে হলে , ইনল্যান্ড রেভেনিউ এনকোয়ারী সেন্টার , আপনার সোশাল সিকিওরিটি অফিস , জব সেন্টার অথবা পোষ্ট অফিস থেকে একটা দরখাস্তের প্যাক নিয়ে আসুন ।</s> <s> আপনার নিকটস্থ ইনল্যান্ড রেভেনিউ এনকোয়ারী সেন্টারের জন্য টেলিফোন বইয়ের ব্যবসা-বাণিজ্যের নম্বরের অংশে দেওয়া ইনল্যান্ড রেভেনিউর (<foreign lang="eng">Inland Revenue</foreign>) বিজ্ঞাপন দেখুন ।</s></p>

<p><head><s><foreign lang="eng">3.</foreign> ফর্ম ভর্তি করা</s></head></p>

<p><s>আপনার ফর্মটি ভর্তি করার আগে ভাল করে জেনে নেবন যে আপনি আপনার প্রাপ্য সবকিছুর জন্য দরখাস্ত করছেন কিনা ।</s> <s> এই প্রচারপত্রটিকে নির্দেশিকা হিসাবে ব্যবহার করুন ।</s></p> 

<p><head><s><foreign lang="eng">4.</foreign> পরিচয়ের প্রমাণ</s></head></p>

<p><s>দাবি জানানোর সময় আপনা পরিচয় সম্পর্কে আমাদের নিশ্চিত হতে পারা খুবই গুরুত্বপূর্ণ ।</s> <s> আমাদের হয়ত আপনাকে আপনার নিজের সম্বন্ধে প্রশ্ন করতে হতে পারে এবং আপনার দেওয়া তথ্যকে সমর্থন করে যে সব কাগজপত্র আপনি দাখিল করেছেন , তা দেখতে হতে পারে ।</s></p> 

<p><s>এ সম্বন্ধে আপনি নিশ্চিত না হলে , আপনার সোশাল সিকিওরিটি অফিস থেকে জিএল্25 হাউ টু প্রুভ ইওর আইডেন্টিটি ফর সোশাল সিকিওরিটি(<foreign lang="eng">GL25 How to prove your identity for social security</foreign>) নামের প্রচারপত্রটি নিয়ে আসুন ।</s> <s> (সোশাল সিকিওরিটির জন্য আপনার পরিচয় কি ভাবে প্রমাণ করবেন-এই প্রচারপত্রটি বাংলায় পাওয়া যায়)</s></p>  

<p><head><s>কোথায় সাহায্য ও উপদেশ পাওয়া যায়</s></head></p>

<p><s>অন্যান্য প্রচারপত্রগুলি সম্বন্ধে আরও তথ্য জানতে চাইলে আপনার সোসাল সিকিওরিটি অফিসের সাথে যোগাযোগ করুন ।</s> <s> আপনার নিকটস্থ সোশাল সিকিওরিটি অফিসের জন্য আপনার টেলিফোন বইয়ের ব্যবসা-বাণিজ্যের নম্বরের অংশে দেওয়া বেনিফিট এজেন্সীর(<foreign lang="eng">Benefit Agency</foreign>) বিজ্ঞাপন দেখুন ।</s></p> 

<p><s>বেনিফিট এজেন্সীর ওয়েবসাইট থেকে আপনি আরও তথ্য পেতে পারেন ।</s> 
<s>এর ঠিকানা হল:</s>
 <s>(<foreign lang="eng">http://www.dss.gov.co.uk/ba</foreign>)</s> 
<s>ইমেইলের ঠিকানা হল:</s>
<s>(<foreign lang="eng">baadmin baadmin.demon.co.uk</foreign>)</s></p>

<p><s>প্রতিবন্ধী লোকজন এবং তাদের যারা দেখাশোনা করেন , তাদের জন্য একটি গোপনীয় টেলিফোন সার্ভিস আছে ।</s> <s> শুন্য আট শুন্য শুন্য আট আট দুই দুই শুন্য শুন্য নম্বরে বেনিফিট এনকোয়ারী লাইনে (<foreign lang="eng">Benefit Enquiry Line-BEL</foreign>) ফোন করুন । </s> <s>যাদের কথা বলায় বা কানে শোনায় সমস্যা আছে এবং টেক্স্ট ফোন ব্যবহার করেন , তারা শুন্য আট শুন্য শুন্য দুই চার তিন তিন পাঁচ পাঁচ নম্বরেফোন করতে পারেন । </s> <s>(এই লাইনগুলিতে শুধুমাত্র ইংরেজীতে তথ্য দেওয়া হয়)</s></p>

<p><s>ফোনে আপনার সাথে যিনি কথা বলবেন , তার কাছে আপনার ব্যক্তগত কাগজপত্র থাকবে না , কিন্তু তিনি আপনাকে সাধারন উপদেশ দিতে পারবেন ।</s> <s> আপনি যে বিষয়ে জিজ্ঞাসা করবেন , সে বিষয়ে উপদেশকে সিদ্ধান্ত বলে ধরে নেবেন না ।</s></p> 

<p><s>আরো কিছু বেনিফিট আছে যেগুলি পাওয়ার জন্য আপনি উপযুক্ত হতে পারেন । অন্যান্য প্রচারপত্র থেকে আপনি সেগুলি সম্বন্ধে তথ্য পেতে পারেন :</s></p> 

<p><s>বিসি1 বেবিস্ এন্ড চিল্ডরেন (<foreign lang="eng">BC1 Babies and children</foreign>) - যাদের সন্তানের জন্ম আসন্ন বা যারা ছোট ছেলেমেয়েদের দেখাশোনা করছেন , তাদের জন্য বেনিফিট ও ট্যাক্স ক্রেডিটের নির্দেশিকা । </s> <s>(নবজাত শিশু ও ছোট ছেলেমেয়ে সম্বন্ধে প্রচারপত্রটি বাংলায় পাওয়া যায়)</s></p> 

<p><s>আরএম্1রিটায়ারমেন্ট (<foreign lang="eng">RM1 Retirement</foreign>) - যারা অবসর নিয়েচেন বা অবসর নেবেন , তাদের জন্য বেনিফিটের নির্দেশিকা ।</s> <s> (অবসর নেওয়া সম্বন্ধে প্রচারপত্রটি বাংলায় পাওয়া যায়)</s></p> 

<p><s>জিএল্<foreign lang="eng">21</foreign> এ হেল্পিং হ্যান্ড ফর বেনিফিটস(<foreign lang="eng">GL21 A helping hand for benefits</foreign>) - যারা অসুস্থ বা প্রতিবন্ধী তারা কি ভাবে সোশাল সিকিওরিটি বেনিফিট পাওয়ায় সাহায্য পেতে পারেন ।</s> <s>(বেনিফিট পাওয়ায় সাহায্য দেওয়া সম্বন্ধে প্রচারপত্রটি বাংলায় পাওয়া যায়)</s></p> 

<p><s>জিএল্<foreign lang="eng">12</foreign> গোয়িং ইনটু হসপিটাল? (<foreign lang="eng">GL12 Going into Hospital</foreign>) - (হাসপাতালে যাওয়া সম্বন্ধে প্রচারপত্রটি বাংলায় পাওয়া যায় )</s></p>  
      
<p><s>জিএল্<foreign lang="eng">23</foreign> সোশাল সিকিওরিটি বেনিফিট রেটস্ (<foreign lang="eng">GL23 social security benefit rates</foreign>) (সোশাল সিকিওরিটি বেনিফিটের হার সম্বন্ধে প্রচারপত্রটি বাংলায় পাওয়া যায়)</s></p>

<p><s>এইচবি6 এ প্র্যাকটিক্যাল গাইড ফর ডিসেবেল্ড পিপল্ (<foreign lang="eng">HB6 A practical guide for disabled people</foreign>) - প্রতিবন্ধী লোকজনদের জন্য বেনিফিট ছাড়া অন্যান্য সার্ভিস সম্বন্ধে নির্দেশিকা ।</s> <s> (প্রতিবন্ধী লোকজনদের জন্য ব্যবহারিক নির্দেশিকাটি বাংলায় পাওয়া যায়)এই প্রচারপত্রটির জন্য চিঠি লিখুন:</s></p>

<p><s>(<foreign lang="eng">Department of Health</foreign></s>
<s><foreign lang="eng">PO Box 410</foreign></s>
<s><foreign lang="eng">Wetherby</foreign></s>
<s><foreign lang="eng">LS23 7LN</foreign>)</s></p>

<p><head><s>অন্যান্য আকারে প্রচারপত্র</s></head></p>

<p><s>এই প্রচারপত্রটি বড় ছাপায় , ব্রেইল-এ , কানে শোনার ক্যাসেটে এবং নিচের ভাষাগুলিতে পাওয়া যায়</s>
<s>ইংরেজী</s>
<s>আরবী</s>
<s>পাঞ্জাবী</s>
<s>উর্দু</s>
<s>চাইনীজ</s>
<s>গুজরাটী</s>
<s>সোমালী</s>
<s>ভিয়েতনামিজ</s>
<s>এগুলি আপনার সোশাল সিকিওরিটি অফিসে পাবেন ।</s></p>

<p><s>এপ্রিল দুহাজার থেকে কার্যকরী প্রচারপত্র এসডি1 । এটা অক্টোবর উনিশশ নিরানব্বই এ প্রচারিত এসডি1-এর পরিবর্তে ।</s> 
<s>প্রকাশ করেছেন:বেনিফিট এজেন্সী কমিউনিকেশনস্ এন্ড কাস্টমার লিয়েইজন্ ব্রাঞ্চ ।</s></p> 

</body>
</text>
</cesDoc>
