<cesDoc id="sin-w-news-home-lankadipa-232" lang="sin">
<cesHeader type="text">
<fileDesc>
<titleStmt>
<h.title>sin-w-news-home-lankadipa-232.txt</h.title>
<respStmt>
<respType>Electronic file created by</respType>
<respName>Department of Linguistics, Lancaster University</respName>
<respType>text collected by</respType>
<respName>Vincent Halahakone</respName>
<respType>transferred into Unicode by</respType>
<respName>"Unicodify" software by Andrew Hardie</respName>
</respStmt>
</titleStmt>
<publicationStmt>
<distributor>UCREL</distributor>
<pubAddress>Department of Linguistics, Lancaster University, Lancaster, LA1 4YT, UK</pubAddress>
<availability region="WORLD"></availability>
<pubDate>03-08-26</pubDate>
</publicationStmt>
<sourceDesc>
<biblStruct>
<monogr>
<h.title>File from written Sinhala corpus collected by Vincent Halahakone, dated xx-xx-xx</h.title>
<h.author>unknown</h.author>
<imprint>
<pubPlace>Sri Lanka</pubPlace>
<publisher>unknown</publisher>
<pubDate>xx-xx-xx</pubDate>
</imprint>
</monogr>
</biblStruct>
</sourceDesc>
</fileDesc>
<encodingDesc>
<projectDesc>Text collected for use in the EMILLE project.</projectDesc>
<samplingDesc>Simple written text only has been transcribed. Diagrams, pictures and tables have been omitted and their place marked with a gap element.
</samplingDesc>
<editorialDecl>
<conformance level="1"></conformance>
</editorialDecl>
</encodingDesc>
<profileDesc>
<creation>
<date>03-08-26</date>
</creation>
<langUsage>Sinhala</langUsage>
<wsdUsage>
<writingSystem id="ISO/IEC 10646">Universal Multiple-Octet Coded Character Set (UCS).</writingSystem>
</wsdUsage>
<textClass>
<channel mode="w">print</channel>
<constitution type="composite"></constitution>
<domain type="public"></domain>
<factuality type="fact"></factuality>
</textClass>
<translations></translations>
</profileDesc>
<revisionDesc></revisionDesc>
</cesHeader>

<text>
<body>




<p> </p>

<p>දකුණු පළාතේ ප්රසිද්ධ නගරයක් වන දික්වැල්ල ප්රධාන බස්
නැවතුම්පොළේ මෑතක සිට පොදු වැසිකිළිය මරු කැඳවන ස්ථානයක් බවට පත්වී ඇත. </p>

<p>ප්රධාන පාර පළල්වී නගරයේ කඩ සාප්පු නවීකරණය වෙමින් තට්ටු නිවාස
ඉදිවෙමින් පවතින නමුත් බස් නැවතුම් පොළේ මගීන්ගේ ශරිර අවශ්යතා ඉටුකර ගැනීමට ඇති
පොදු වැසිකිළියේ කොන්කී්රට් ආවරණය කැඩී ඉතා අවදානම් තත්ත්වයක පවතී.</p>

<p>තවද බස් රථ ගමන් ආරම්භ කරන තෙක් එහි වාඩිවී සිටීමට පවා නොහැකි
සේ අධික දුගඳක් අවට පැතිරේ.</p>

<p>කතරගම, වැල්ලවාය, මොනරාගල, බදුල්ල, අම්පාර
වැනි නගර කරා ගමන් ගන්නා බස් රථ දික්වැල්ල නගරයේ නවතා තබා ගමන් කරයි. මෙහි ගමන්
ගන්නා මගීන්ගේ ශරීර අවශ්යතා ඉටුකර ගැනීමටද ඇත්තේ මෙම පොදු වැසිකිළිය පමණි. </p>

<p>මෙම අවදානම් පොදු වැසිකිළිය ජල මුද්රිතව, ආවරණ සහිතව තනා
දෙන මෙන් සියලූම මගීන් වෙනුවෙන් අදාළ බලධාරීන්ගෙන් කාරුණිකව ඉල්ලා සිටිමි. </p>

<p>ගාමිණි තිලකරත්න,</p>

<p>දෙද්දුවාවල ගම්පියසේ පිහිටි තංගල්ල අධ්යාපන කලාපයට අයත් කණිෂ්ඨ
විද්යාලය ගොඩනගා දීනට වසර 50ක් පමණ වේ. එදා ගොඩනගන ලද එක් ප්රධාන ගොඩනැගිල්ලක අදවන
තෙක්ම සෙවිලි කොට ඇත්තේ ටකරං තහඩුයි. මෙම ගොඩනැගිල්ලේ පමණක් 6 වන ශ්රේණියේ
සිට 11 වන ශ්රේණිය දක්වා පංති පවත්වාගෙන යනු ලැබේ. </p>

<p>දහවල් කාලයේදී ඇතිවන දීඩි සූර්ය රශ්මිය නිසා අධික ලෙස රත්වන ටකරං
වහලය උගන්වන ගුරුවරුනටද ඉගෙනීම ලබන සිසු දරුවන්ටද මහත් පීඩාවකි. මෙම ගැටලූව විසඡ් දෙන
ලෙස ගුරුවරුන් සහ සිසු පිරිස ඉල්ලා සිටින අතර ගුරුවරුන්ට පංති පාලනය කර ගැනමේදී මෙම
තත්ත්වය මහත් හිසරදයක් වී ඇත. </p>

<p>බොහෝමයක් සිසුන් පාසල් නොපැමිණීමට මෙන්ම පාසල හැරයාමටද මෙම
පීඩාකාරි තත්ත්වය මුල් කොට ගෙන ඇත. වගකිවයුතු දේශපාලනඥයින් කිහිප දෙනකුගේම
බැල්ම ලැබෙන දෙද්දුවාවල ගමට බලපවත්වන මෙම ප්රශ්නය විසඡ්දෙන ලෙස කිහිපවර මතක් කරදී ඇතත්
එවැන්නක් අමතක කොට සිටින්නේ ඇයි දීයි ගුරුවරුන් මෙන්ම ගම්වාසීහුද විමතිය පළ
කරති. </p>

<p>මෙම ප්රධාන ගොඩනැගිල්ලේ ඇති ටකරං තහඩුව ගලවා දමා උන්ථ සෙවිලි
කොට පිළිසකර කරදීමෙන් ගුරුවරුන්ටද, දෙමාපියන්ටද, සිසු දරුවන්ටද අප
පුංචි ගම්මානයටද කරනු ලබන්නේ ඉමහත් සේවයකි. එම නිසා රජයේ වගකිවයුතු නිලධාරීන්
මෙන්ම දේශපාලනඥයින්ද මේ පිළිබඳව සොයාබලා දෙද්දුවාවල කනිටු විදුහලට උද්ගතව ඇති
මෙම තාපකාරී ගැටන්ථව විසඡ්දෙන මෙන ඉල්ලමු. </p>

<p>වයි.වී.ඒ. අශෝක ප්රේම් කුමාර,</p>

<p>කටුවන ප්රදේශයට පානීය ජලය ලබා දෙන්නෙ උඩගොමඩිය ප්රදේශයේ ඉදිකර
ඇති ජල ටැංකි මගිනි. ඒ සඳහා ජල සම්පාදන මණ්ඩලයේ කාර්යාලයක්ද කනුවන පිහිටුවා ඇත.</p>

<p>එහෙත් මෙහි ජල සම්පාදනය කිසිම ක්රමවත් බවක් නම් නැත. දින දෙක තුනක්
වැසි නොලැබුණොත් පාරිභෝගිකයින්ට ජලය නොමැත. නළ මාර්ගයේ පිපිරීමක් සිදු
වුවහොත් දින ගණනක් අලූත් වැඩියා කිරීමට ගතවෙයි. ප්රමාණවත් කාර්ය මණ්ඩලයක්ද මෙහි සේවයට
සිටිති. මෙම තත්ත්වයන් යටතේ වුවද අලූතෙන් ඉල්ලූම් කරන්නන්ටද ජලය ලබාදීමේ සීමාවක්ද නැත.
</p>

<p>දහස් ගණන් මුදල් ගෙවා ලබා ගන්නා ජල සම්බන්ධය හිරු එළියත් සමග
වියළි යයි. මසකට රු 40/= අනිවාර්ය සේවා ගාස්තුවක් ගෙවීමට සිදුවී ඇත. </p>

<p>නිසි බලධාරීන්ගේ අවධානය මේ කෙරෙහි යොමු වී කටුවන අවට ජල
පාරිභෝගිකයින්ගේ ජල පිපාසය සංසිඳේවායි ප්රාර්ථනා කරමු. </p>

<p>ප්රසන්න සංජීව.</p>

<p>හිනිදුම ආසනයේ දෙල්ලව, පනංගල ගම්මානයේ ජීවත් වනුයේ
ඉතාමත් අසරණ ගම්වැසියන් පිරිසකි. දෙල්ලව සිට මෙම ගම්මානයට ඇතුළ්විය යුත්තේ ගංගා,
ඇළදොළ කිහිපයකින් එගොඩ වීමෙනි. </p>

<p>වර්ෂා කාලයට මෙම ගම්මානයේ වැසියන් හට ප්රධාන මාර්ග බාධකය වනුයේ
ආඡ්දොළ ගඟය. වර්ෂා කාලයට සති ගණනකට අවශ්ය ආහාර නිවෙස්වල ගබඩාකර නොගතහොත්
ගම්වැසියනට සිදුවන්නේ තම අසරණ දරුවන් හා නිරාහාරව මියැදීමටය. එසේම ප්රධාන ආදායම්
මාර්ගය වන අමු තේ දලූ ප්රවාහනයට ලබාදීමට නොහැකිවා මෙන්ම අසරණ දරුවන් පාසල් යෑමට
නොහැකිව සුසුම් හෙළන හඬ වර්ෂාව සමගින් මුසුව ගලා බසී. මැතිවරණ කාලය ළංවෙත්ම
නානාප්රකාර පක්ෂවලින් නියෝජනය වන බලධාරීතුමන්ලා අද හෙට සාදා දෙනවා කියන ආඳාදොළ
පාලම මැතිවරණ නිමාවත් සමගම පැදුරටවත් නොකියා පලා යයි. </p>

<p>පනංගල ගමේ අසරණ ගම්වැසියන් මෙන්ම හෙට මතු පරපුර රැකගැනීමට ඉන්නා
අසරණ දො පුතුන් ගැන රජයේ හෝ වෙනත් ආයතනවල කාරුණික බලධාරිතුමන්ලාගේ අවධානය
යොමුවී ඇඳාදොල ගමට වැල්පාලමක් හෝ ලබා දෙත්වායි ප්රාර්ථනා කරමි. ආඳාදොල ගඟට
පාලමක් වැටෙනතුරු අපි ඇඟිලි ගනිමින් සිටිමු. </p>

<p>කේ.ජී. සුමනාවතී,</p>

<p>බද්දෙගම ජන්දබල ප්රදේශයේ සන්දරවල පිහිටි පැරැණි
විද්යස්ථානයකි, රතනසාර විශ්වවිද්යාල විද්යායතන පිරිවෙණ. </p>

<p>මෙම ආයතනය තුළ අ.පො.ස. පෙළ සිට බාහිර උපාධි දක්වා ශිෂ්ය
ශිෂ්යාවෝ දෙසිය පනහකට අධික සංඛ්යාවක් ඉගෙනුම ලබති. නමුත් මේ සඳහා පහසුකම් ඉතා අල්පය.
ඉගෙනුම ලබන ශාලා ඉතා අබලන්ව පවතී. වැසි දිනවලදී ජලය දෝර ගලයි. </p>

<p>එම නිසා අපහට අනුකම්පා කොට මේ සඳහා පිළියමක් ලබාදෙන ලෙස ඉතා
බැගෑපත්ව ඉල්ලා සිටිමි. </p>

<p>හබරකඩ සුධම්ම හිමි,</p>

<p>මේ පෙනෙන්නේ ගාල්ලේ සමනල පාලමේ නටඹුන්ය. ධර්මපාල
උද්යානයත්, ගාලු පිට්ටනියත් යාවී තිබුණේ මෙම පාලමෙනි. ගාල්ලේ සුන්දරත්වය ඔපවත්
කළ දර්ශනීය සමනල පාලම දේශීය හා විදේශීකයින්ගේ සිත් ඇදගත් තැනකි. වසර කීපයකට
ඉහතදී සිට මෙම පාලම කැඩී ඇතත් මේ වනතුරු පිළිසකර කර නැත. මෙය ධර්මපාල උද්යානයට එන
කුඩාදරුවන් පි්රයකළ සමනලයකුගේ ආකෘතියට තැනූ එකකි. </p>

<p>මෙය යළි ඉදිකිරීමට බලධාරීන්ගේ අවධානය යොමුවේවා. </p>

<p>ගාලු නගරයේ තැනින් තැන එකතුවන කැළි කසළ ගාලු නගරය මධ්යයේ
පිහිටි මෙම ස්ථානය වෙත ගෙනවිත් දීමීමට ගාල්ල නගර සභාව පියවර ගෙන ඇත. මෙම ස්ථානයේ
දමනු ලබන කැළි කසළ සති කීපයක් යනතුරු ප්රදේශය පුරා දුර්ගන්ධය පතුරුවමින් පවතී.
කැළි කසළ විශාල ප්රමාණයක් ගොඩ ගැසුණු විට වෙනත් ස්ථානයක් වෙත ඒවා ගෙනගොස්
දීමීමට පියවර ගනිති. </p>

<p>මෙම ස්ථානයට නුදුරින් නිවාස ගණනාවක් පිහිටා ඇති අතර මින්
නිකුත්වන දීඩි දුර්ගන්ධය ඉවසා ගෙන සිටින්නට එම නිවාසවල පදිංචිකරුවන්ට සිදුව ඇත. ගාල්ල
පොලිසියටත්, මධ්යම බස් නැවතුම් පොළටත් නුදුරින් මෙම ස්ථානය පිහිටා තිබේ.
සුනඛයින් සහ කපුටන් කුණුගොඩ අවුස්සමින් කෑම සොයද්දී ඒ අසළ කුඩා දරුවන් පිරිසක්
සෙල්ලම් කරමින් සිටින අයරු එහි ගිය අපට දීකගත හැකිවිය. </p>

<p>ඇල්පිටිය-අන්ථත්ගම ප්රධාන මාර්ගයේ ධාවනය වන බස්රථ සවස 5.30න් පසුව
නිසි පරිදි ධාවනය නොවීම නිසා මගීහු මහත් දුෂ්කරතාවනට පත්වෙති. </p>

<p>රුහුණු බස් සමාගමේ ඇල්පිටිය ඩිපෝවට අයත් බස් රථ හා ඒ මගින්
පාලනය වන පෞද්ගලික බස් රථ පමණක් මෙම මාර්ගයේ ධාවනය වන අතර කන්ථතර බස් සමාගමට අයත්
අලූත්ගම ඩිපෝ්වේ බස්රථ මාර්ගයේ ධාවනය වන්නේ නැත. දිවා කාලයේදී පෞද්ගලික බස් රථ හා
ලංගම බස්රථ ධාවනය වුවද රාති්ර කාලයේදී මාර්ගයේ පෞද්ගලික බස් රථ ධාවනය නොවෙයි.
එසේම ඇල්පිටිය ඩිපෝවේ බස් රථද ධාවනය නොවෙයි. මේ තත්ත්වය මත ඇතැම් දිනවල 5.30ට
පමණ අලූත්ගම බලා ඇල්පිටියෙන් ධාවනය වන බස් රථය ධාවනයවූ පසු රාතී්ර 8.10ට පමණ
ඇල්පිටියෙන් ගමන් අරඹන අවසන් බස් රථය එන තෙක්ම ජනතාවට පැය ගණනාවක් බස් නැවතුමේ
රස්තියාදුවීමට සිදුවේ. </p>

<p>මෙවැනි දිනවල මගීන් ගැටකපන්නන්ගේ හා වෙනත් කරදරවලට මූණ පා ඇති
වාර අනන්තය. නමුත් මේ තත්ත්වයට පිළියම් යෙදීමට ඇල්පිටිය ඩිපෝ බලධාරීන් තවමත්
කටයුතු කර නොමැත. </p>

<p>එබැවින් රාතී්ර කාලයේද පෞද්ගලික බස් රථ හා ලංගම බස් රථ ක්රමවත්ව
ධාවනය කිරීම සඳහා අවශ්ය කඩිනම් පියවර ගන්නා ලෙසට ප්රවාහන අමාත්යතුමා ඇතුන්ථ ඉහළ
බලධාරීන්ගෙන් මගීහු ඉල්ලා සිටිති. </p>

<p> </p>

<p>ගාල්ල දිස්ති්රක්කයේ දීනට වසරක පමණ කාලයක සිට දුරකතන ව්යාපෘතියක්
කි්රයාත්මක කෙරේ. මේ දිස්ති්රක්කයේ කිසිම පෞද්ගලික දුරකතනයක් හෝ වැඩ නොකරන ප්රධාන
නගර කීපයක්ම ඇත. එයින් විශාලතම නගරය ඇල්පිටිය නගරයයි. ඇල්පිටිය හා ඒ ආශී්රත විශාල
ප්රදේශයක ජනතාව දුරකතන බලාපොරොත්තුවෙන් වසර 5කට වඩා කාලයක සිට ලියාපදිංචි වී බලාගෙන
සිටිති. </p>

<p>තත්ත්වය මෙසේ වුවත් ක්ෂණිකව නොයකුත් ක්රමවලට සමහරුන් දුරකතන
ලබාගෙන ඇත. නමුත් ලැයිස්තුවේ පිළිවෙලට දුරකතන බලාපොරොත්තුවෙන් සිටින සාමාන්ය
ජනතාව අධිකය. මේ අලූත සිට ටෙලිකොම් ආයතනය පවසන්නේ සාමාන්ය ක්රමයට දුරකතන ලබාදිය
නොහැකි බවත් අවශ්ය නම් දාහේ පැකේජ් ක්රමයට පමණක් දුරකතන ලබාදිය හැකිබවය. අවුරුදු
පහකටත් වඩා කාලයක් දුරකතන බලාපොරොත්තුවෙන් සිටි ජනතාව මේ නිසා ලොකු අමාරුවක වැටී
සිටිති. </p>

<p>දුරකතනය අත්යාවශ්ය බව ඇත්තකි. නමුත් මේසා විශාල මුදලක්, අධික
ජීවන බර පවතින මෙවන් අවධියක දුරකතනයක් සඳහා වැය කළ හැකිද?</p>

<p>පණිවුඩ හුවමාරු අතින් අති නවීන පහසුකම් ඇති මෙවන් යුගයක,
හම්බන්තොට දිස්ති්රක්කයේ වැලිගත්ත කුඩාගම් 10 ප්රදේශයට කිසිම පණිවුඩ හුවමාරු
පහසුකමක් නැත. 2000ක පමණ ජනතාවක් වෙසෙන මෙම ප්රදේශයේ අයට ජංගම දුරකතන පහසුකම් හෝ
පෞද්ගලික දුරකතන පහසුකම්ද ලබාගැනීමට හැකියවක් නැත.</p>

<p>එහෙයින් හදිසි දුරකතන පණිවුඩයක් දීමට කිලෝමීටර් 03 දුර පල්ලෙමල්ල
තැපැල් කාර්යාලයට යාමට සිදුවේ. එම දුරකතනයද අකී්රය වුවහොත්, කි.මී. 10ක් දුර
හම්බන්තොට නගරයටම යාමට සිදුවේ. </p>

<p>එය ඉතාමත් අපහසු, රාතී්රකාලයේදී කළ නොහැකි කි්රයාවකි.
එහෙයින් එම ප්රදේශවාසීන්, ටෙලිකොම් සමාගමෙන් හෝ වෙනත් පෞද්ගලික දුරකතන
සේවා සමාගමකින් ඉල්ලා සිටින්නේ වැලිගත්ත, කුඩාගම්මන 10 හන්දියට කාසි දුරකතනයන්
සවිකර දෙන ලෙසයි. එය විශාල සමාජ මෙහෙවරක් වේවි. </p>

<p>ගාල්ල මහ නගර සභා සීමාවට අයත් ලබුදුව-ගිංතොට ප්රධාන මාර්ගය ගාල්ල
මහ නගර සභාවේ අනුග්රහය ඇතිව නාගරික සංවර්ධන අධිකාරිය විසින් රුපියල් ලක්ෂ 935ක් යොදා
කාපට් දමා සකස්කර ඇත. </p>

<p>එහෙත් මෙම මාර්ගය කාපට් දමා සකස් කිරීමෙන් පසුව ජල සම්පත් හා
ජලපවහන මණ්ඩලය මගින් ජල නළ එළිම සඳහා එක් පසෙක විශාල කාණු හාරා ඇති අතර මෙම තත්ත්වය
නිසා එම මාර්ගයේ ගමන් කරන මගී ජනතාව සහ වාහන හිමියෝ නොයකුත් දුෂ්කරතාවන්ට
මුහුණපාති. </p>

<p>කලේගාන ලන්දෑව මංසන්ධියේදී මෙම කාණු හෑරීම නිසා රිය අනතුරු පවා
සිදුවී ඇත. ලංකාව වැනි රටවල සැලසුමකින් තොරව මෙවැනි සැලසුම් සකස් කිරීම නිසා විශාල
මුදල් නාස්තියක් සිදුවී අපේක්ෂිත ප්රතිඵලයද උදාකරගැනීමට නොහැකි වී ඇත. </p>

<p>මෙවැනි ව්යාපෘති කි්රයාත්මක කිරීමේදී මෙම ආයතන දෙකම මනා
සැලසුමකින් සහ මනා සම්බන්ධීකරණයකින් යුතුව කළා නම් විශාල මුදල් ප්රමාණයක් ඉතිරිකර
ගැනීමටත් මගී ජනතාවට සහ වාහන හිමියන්ට සිදුවන අපහසුතා අවමකර ගැනීමට ඉඩ තිබුණි. </p>

<p>ප්රදේශවාසී ජනතාව පවසන්නේ මෙම මාර්ගයට කාපට් දීමීමට පෙර ජලනළ
එළීම සිදුකළ යුතු බවයි. ඉදිරියේදීවත් 
fujeks jHdmD;s ls%hd;aul lsÍfï§ ukd ie,iqulska yd l</p>

<p>මෑතකදී වැලිගත්ත සිට බූන්දල හරහා කිරින්ද දක්වා ගමනාගමන පහසුකම්
සඳහා ඉඳිකළ මහා මාර්ගය දීන් ඉතා අබලන් වී ඇත. </p>

<p>මෙම මාර්ගය ඔස්සේ බුන්දල, සිරියාගම, තෙන්ථල්ල,
මාගම හා කිරින්ද ඇතුන්ථ ප්රදේශවාසීන් විශාල පිරිසක් ගමන් කරන අතර, ගුරුභවතුන්
විශාල පිරිසකටද මෙම මාර්ගය විශාල සහනයකි. </p>

<p>මෑතක සිට මෙම මාර්ගය ඉතා අබලන් තත්්ත්වයකට පත්වීම හේතුවෙන්
ගමනාගමනයටද විශාල බාධාවක් වී ඇත. මෙම මාර්ගයේ දිවෙන බස් රථද වරින් වර කි්රයා විරහිතවීම
නිසා විශාල මගී පිරිසක් අපහසුතා රැසකට මැදිවී සිටිති. විශේෂයෙන්ම ගුරුභවතුන්ට මෙය තදින්ම
බලපා ඇත. </p>

<p>මේ පිළිබඳව අදාළ බලධාරීන් වෙත දන්වා ඇති නමුත්, මේ
වනතුරු කිසිර් විසර්මක් නොමැත. තව බොහෝ දිනකින් මෙම මාර්ගයේ සමහර ස්ථානවල පයින්
ගමන් කිරීමද බැරි තරමටය. එබැවින් ඉතා විශාල පිරිසකගේ ගමනා ගමන අවශ්යතාවන් සපුරන මෙම
මාර්ගය ඉතා කඩිනමින් පිළිසකර කිරීම ඉතා කාලෝචිතය. </p>

<p>මේ පිළිබඳව අදාළ බලධාරීන්ගේ නෙත් යොමු වේවා. </p>

<p>හම්බන්තොට දිස්ති්රක්කයේ අම්බලන්තොට ප්රාදේශීය සභාවට අයත් බටඅත
උතුර ග්රාම නිලධාරී වසමේ ඓතිහාසික ගජමන්ගම නැගෙනහිර මාර්ගයේ පදිංචි අපට අම්බලන්තොට
ප්රාදේශීය සභාවෙන් ලැබෙන කුඩම්මාගේ සැලකිලි පිළිබඳව ඉතාමත් කනගාටුවෙන් යුතුව
මෙසේ ලියමි. </p>

<p>රටපුරා ලක්ෂ ගණන්, දශලක්ෂ ගණන්, කෝටි සිය දහස් ගණන්
වියදම් කරමින් නව මාර්ග, අධිවේගී මාර්ග බිහිවෙද්දී ගජමන්ගම නැගෙනහිර මාර්ගයේ අවට පදිංචි
ප්රදේශවාසී ජනතාවට පයින් ගමන් කිරීමටවත් නොහැකි තත්ත්වයට පත්ව තිබේ. මෙම මාර්ගය
බොරලූ ටිකක් දමා ප්රතිසංස්කරණය කරවා ගැනීමට නොහැකිව ඉතාම අසරණ තත්ත්වයට පත්ව සිටිති.
මෙම මාර්ගය වසර ගණනාවක් තිස්සේ අබලන් තත්ත්වයට පත්වෙමින් තිබේ. එය බොරලූ අතුරා
ප්රතිසංස්කරණය කර දෙන ලෙසට ප්රදේශවාසීන් විසින් දීර්ග කාලයක් තිස්සේ අම්බලන්තොට
ප්රාදේශීය සභාවේ සභාපතිතුමාට සහ හුංගම ප්රදේශය නියෝජනය කරන ප්රාදේශීය සභා
මන්තී්රවරයාට දන්වා සිටි නමුත් වැඩේ කෙරුණේ නැත. </p>

<p>තවදුරටත් කුඩම්මාගේ සැලකිලි නොදක්වා මෙම පාර ඉක්මනින් බොරලූ
අතුරා ප්රතිසංස්කරණය කරදෙන මෙන් අදාළ වගකිවයුත්තන්ට දන්වා සිටිමි. </p>

<p>පාලටුව-උනැල්ල දක්වා මාර්ගය අදික වළවල් හෑරී ඇති බැවින් බස්
ධාවනය පමණක් නොව අනිකුත් වාහන ධාවනය අඩපණ වී ඇත. මෙම ප්රදේශයෙන් මාතර මහ විදුහල්වල
අධ්යාපනය ලැබීමට යන එන දරු දීරියන්ගේ ගණන අති විශාලය. වෙනත් රැකියා කටයුතුවලට යන එන
ජනතාවද අඩුවක් නැත. නමුත් මාර්ගය අබලන් නිසා රථ වාහන ගමන අඩපන වී මොවුහු ඉතා අසීරු
තත්ත්වයකට පත්ව සිටිති. </p>

<p>මෙම මාර්ගය පසුගිය පළාත් සභා මැතිවරණ කාලය තුළ කඩිමුඩියේ
තාර ටිකක් දමා මාතර ඩිපෝව මගින් බස් රථයක් ධාවනයට යොදවන ලදී. ඇත්ත වශයෙන්ම එම
ප්රදේශවාසීන්ට ඉතා ප්රයෝජනවත් විය. දීනට මාර්ගයේ අබලන් තත්ත්වය උඩ එක ගමන් වාරයක්
ඉතා අපහසුවෙන් ධාවනය කර ඊළඟ ගමන් වාරය බස් රථය ආපදාවට ලක්වීම නිසා ඩිපෝවට ගෙන
යති. </p>

<p>මෙසේ වන විට ගමන් බිමන් යන මගීන්ට බස් රථය ගැන විශ්වාසයක් තැබීමට
නොහැකිව ප්රධාන මාර්ගයට සැතපුම් ගණනක් පා ගමනින් ඒමට සිදුවී තිබේ. </p>

<p>කරුණු මෙසේ හෙයින් මාර්ග සංවර්ධන අධිකාරිය මගින් මාර්ගය පිළිසකර
කර ක්රමවත් බස් ධාවනයක් පවත්වාගෙන යාමට කටයුතු කරන මෙන් ප්රදේශවාසීන් වන අපි
අදාළ බලධාරීන්ගෙන් කාරුණිකව ඉල්ලා සිටිමු. </p>






</body></text></cesDoc>