<cesDoc id="tam-w-dinakaran-other-01-12-28" lang="tam">
<cesHeader type="text">
<fileDesc>
<titleStmt>
<h.title>tam-w-dinakaran-other-01-12-28.txt</h.title>
<respStmt>
<respType>Electronic file created by</respType>
<respName>Department of Linguistics, Lancaster University</respName>
<respType>text collected by</respType>
<respName>Paul Baker and Celia Worth</respName>
<respType>transferred into Unicode by</respType>
<respName>"Unicodify" software by Andrew Hardie</respName>
</respStmt>
</titleStmt>
<publicationStmt>
<distributor>UCREL</distributor>
<pubAddress>Department of Linguistics, Lancaster University, Lancaster, LA1 4YT, UK</pubAddress>
<availability region="WORLD"></availability>
<pubDate>03-08-24</pubDate>
</publicationStmt>
<sourceDesc>
<biblStruct>
<monogr>
<h.title>"Dinakaran" internet news (www.dinakaran.com), news stories collected on 01-12-28</h.title>
<h.author>Dinakaran</h.author>
<imprint>
<pubPlace>Tamil Nadu, India</pubPlace>
<publisher>Dinakaran</publisher>
<pubDate>01-12-28</pubDate>
</imprint>
</monogr>
</biblStruct>
</sourceDesc>
</fileDesc>
<encodingDesc>
<projectDesc>Text collected for use in the EMILLE project.</projectDesc>
<samplingDesc>Simple written text only has been transcribed. Diagrams, pictures and tables have been omitted and their place marked with a gap element.
</samplingDesc>
<editorialDecl>
<conformance level="1"></conformance>
</editorialDecl>
</encodingDesc>
<profileDesc>
<creation>
<date>03-08-24</date>
</creation>
<langUsage>Tamil</langUsage>
<wsdUsage>
<writingSystem id="ISO/IEC 10646">Universal Multiple-Octet Coded Character Set (UCS).</writingSystem>
</wsdUsage>
<textClass>
<channel mode="w">print</channel>
<constitution type="composite"></constitution>
<domain type="public"></domain>
<factuality type="fact"></factuality>
</textClass>
<translations></translations>
</profileDesc>
<revisionDesc></revisionDesc>
</cesHeader>

<text>
<body>




<p>வணிக உலகில் சரிவு
உண்மையா?</p>

<p>இது அவசர யுகம். போட்டி மிகுந்த யுகம். மக்கள் தொகை பெருகினாலும், உலக
அளவில் வாணிபம் பெருகினாலும், வணிக உலகில் வர்த்தகம் சரிவைக்கண்டு வருவதாகவும்,
தேக்கத்தைச் சந்தித்து வருவதாகவும் கருதப்படுகிறது. இது உண்மையா? உண்மைதான். பொரு
ளாதாரக் கட்டுப்பாடுகளும் லஞ்ச லாவண்யங் களும், முறைகேடானவர்களின் குறுக்கீடுகளும் ஒரு
காரணம். அதே சமயம் வேறு பல கார ணங்களும் உள்ளன. </p>

<p>நிறுவனத்தின் நலன், தொழிலாளர் நலன், ஊழியர் நலன் என்பன ஒன்றுடன் ஒன்று
பிணைந்திருக்கும் விஷயம். நேற்றைய மனப்பூர்வ மான ஈடுபாடு என்பது இன்று காணப்பட
வில்லை. இன்று புதுமைகளும், புதுமைச் சாதனங்களும் நிரம்பியுள்ளன. படித்தவர்களும் ஏராளம்.
எனினும் நமக்கு என்ன நன்மை என்பதே இன்றைய வினாவாக உருவெடுத்து விட்டதால் உளப்பூர்வமான
ஈடுபாடு தளர்ந்து விட்டது. எங்கும் காணப்படும் நிலை இது. </p>

<p>வாடிக்கையாளர் தொடர்பு</p>

<p>வாடிக்கையாளர் தொடர்பு என்பதுதான் விற்பனை நிறுவனங்களின் அஸ்திவாரம்.
வாடிக்கையாளர்களில் சிலர் மலிவை எதிர்பார்க்கலாம். ஆனால் பலரும் தரத்தையே எதிர்
பார்க்கிறார்கள். மேலும் குறைகளை மட்டுமே உற்று கவனிப்பது வாடிக்கையாளர் இயல்பு. எனவே
தரமான பொருட்களை, குறைகள் இன்றி கவனித்து விற்பதும், பராமரிக்க உதவுவதும் நிறுவனங்களின்
கடமை. என்னதான் விளம் பரம், விழா, வேடிக்கை என்று நடத்தினாலும் வாடிக்கையாளரின்
தொடர்பு, வாடிக்கையாளரு டன் நட்புக்கொள்வதுதான் அடிப்படை யுக்தி. அதை மறந்துவிட்டு
தரிசு நிலத்தில் விதையே விதைக்காமல் விளைச்சல் இல்லையே என்று வருத்தப்பட்டு பயனில்லை.
</p>

<p>ஒரு நிறுவனம் வெற்றிபெற, நிறுவனம், அதிகாரிகள், ஊழியர்கள் ஆகிய அனைவரும்
ஒன்றுபட்டு, ஒரே குறிக்கோளுடன் செயல்பட வேண்டும். நடைமுறைக்கு ஏற்ப லாபம் என்பதன்
குறிக்கோளுடன் வேகமாகவும், விவேகமாகவும் ஒன்றுபட்டு செயல் படவேண்டும். இது கூட்டு முயற்சி.
தியரிடிக்கல் என்பது வேறு பிராக்டிகல் என்பது வேறு. நல்ல தயாரிப்பாளர் நல்லகதை, நல்ல
கலைஞர்களுடன் படம் தயாரிக்கிறார் நல்ல டைரக்டர், நல்ல ஒளிப்பதிவாளர் அதை நல்ல
முறையில் வடிவமைக்கிறார்கள். விநி யோகஸ்தர் அதை கணக்கிட்டு வாங்குகிறார். மக்களுக்கு
பிடித்தால் படம் வெற்றி பெறுகிறது. இதுதான் வாணிப உலகிலும் இன்றைய நிலைமை. </p>

<p>செலவினங்கள்</p>

<p>தேவையற்ற செலவினங்கள், ஆடம்பர ஒரு நிறுவனத்தை விழுங்கத்துடிக்கும் முதலைகள்.
விற்பனையை அதிகப்படுத்துவது இயலாத பட்சத்தில் செலவினங்களைக் குறைப்பது மிகவும் தேவை.
செலவினங்கள் என்பது விற்பனையை மையமிட்டதாக அதிகம் இருக்கவேண்டும். அதற்குப்பலன்
கிடைத்ததா என்னும் கேள்விக்குப் பதில் கிடைக்கவேண்டும். பட்ஜெட்டில் செல வினங்களை
அதிகம் சேர்த்துவிட்டு அதைக் காட்டி செலவினங்களைப் பெருக்குவது முட்டாள்தனம். அதேமாதிரி,
விற்பனையின் குறியீடுகளைத் தொட்டால் செலவினத்தின் நியாயத்தை ஏற்கலாம். இல்லாவிடில்
நிறுவனம் நிதி ஆதா ரத்திற்கு அல்லற்படும். </p>

<p>பணப்புழக்கம், நிதி ஆதாரம், பயன்படுத்தக் கூடிய செயல்முறை லாபம், அதிக அளவு
பண இருப்பு, கடன் குறைத்தல், அனாவசியமான வட்டிகள் கட்டுப்படுதல், வாடிக்கையாளர்களிடம்
பெற வேண்டிய தொகைகளை முப்பது நாட்களுக்குள் பெறுதல், தேவையற்ற புள்ளி விவரங் களைக்
கைவிடுதல், அனாவசியமான ஸ்டேட் மெண்ட்கள் காலத்தை வீணாக்குவதை உணர்ந்து அவற்றிற்கு முடிவு
கட்டுதல் முதலியன அடிப்படை அம்சங்கள். இம் முறைகள் ஒரு நிறுவனத்தில் லாப நோக்கினை
நிச்சயம் வெற்றி பெறச்செய்யும். நிறுவனம் ஈட்டும் லாபம் என்பது அதன் சொத்து
மதிப்பின் அடிப்படையில் அமையாது, விற்பனைசாதனை மூலம் எட்டப் பட்டால்தான் பெருமை. அது
கூட்டுப் பொறுப் பில்தான் உள்ளது. </p>

<p>திறமை</p>

<p>அனுபவம் ஒரு சொத்து. புதிதாக உள்ள இளைஞரிடமும் திறமை பளிச்சிடலாம்.
நன்கு படித்த தன்மை பெருமைதான். அதிகம் படிக்காதவரிடமும் விஷயம் இருக்கலாம். மாறுபட்ட
சிந்தனைகள், செயல்முறைத் திட்டங்கள் உள்ளவர்களைப் போற்றவேண்டும். இது தண்டனை தந்து
திருத்தும் யுகம் அல்ல. திறமைசாலிகளைத் தட்டிக்கொடுத்து அதைப்பயன் படுத்திக்கொள்ள
வேண்டிய யுகம். ஒரு நிறுவனத்தில் அதன் வளர்ச்சிக்கு, தன் கருத்தைச் சுதந்திரமாக
சொல்லக்கூடிய நிலை தென்படவேண்டும். நமக்கென்ன? என்பதோ, சொல்ல அஞ்சும் நிலை
இருப்பதோ இதனால் நமக்கென்ன லாபம்? என்னும் நினைப்போ இருந்தால் அவை தவறு.
</p>

<p>மனோபாவம்</p>

<p>ஒருவருக்கொருவர் புரிந்துகொள்தல், விட்டுக் கொடுத்தல், தவறுகளை
ஒப்புக்கொள்ளுதல், வீண்பழி வரும்பொழுது கலங்காமல் கடமையைச் செய்தல், உழைத்தல்,
நேர்மையான செயல்பாடு என்பன நல்ல மனோபாவங்கள். நிறுவன வளர்ச்சியில் இது முக்கியப்பங்கு
வகிக்கிறது. பெரும்பாலன நேரம் குடும்பத்தைவிட்டு, நிறுவனத்தில்தான் பலர் இருக்கிறார்கள்
அதனால் குடும்பம் என்னும் உணர்வு நிறுவனத்திலும், நிறுவனத்தைத் தாண்டியும் இருக்க வேண்டும்.
இதனால் நிறுவனத்தில் ஒன்றுபட்ட மனப்பாங்கு அதிகமாகும். குடும்பங்களிலும் நிறுவனம்
வளரவேண்டும் என்று கருதும் ஈடுபாடு அதிகமாகும். </p>

<p>எனவே நேர்மை, உழைப்பு, வாடிக்கையாளர் தொடர்பு, வாடிக்கையாளர் திருப்தி,
அதற்கான செயல்பாடுகள், லாபக்குறியீடு, கூட்டு முயற்சி, நல்ல பழக்கங்கள், அச்சம் தராத
ஒன்றுபட்ட உணர்வு நிறுவனங்களை செழிக்கவைப்பன. சரிவு என்னும் நிலையையும் நம்
முயற்சியால் வென்று வெற்றிபெற முடியும். </p><p>
  </p>

<p>எஸ்.திருமலை,
</p><p>
(அசிஸ்டெண்ட் மானேஜர்),
</p><p>
டி.வி.எஸ் சன்ஸ் லிட்,
(அக்கவுண்ட்ஸ்) </p><p>
கோவை 641 043.</p>

<p> </p>

<p>திருகு ஆணியின்
ஆச்சரியம் என்ன?</p>

<p> </p>

<p>திருகு ஆணி இயந்திர புரட்சியில் ஒரு வித்து என்றால் ஆச்சரியம்
தானே. சாதாரண ஆணிகள் மரத்தில் புதையும் போது போன வழியில் (அசையும் போது) திரும்பி
எகிற வாய்ப்புண்டு. ஆனால் திருகு ஆணியோ அதன் திருகு படிகளால் (Hellical Spiral) புதையும் போது சாதாரணமாக திரும்பி விடாது. இந்த
பிடிப்பு கப்பல், வாகனங்கள், போன்றவற்றில் உறுதியாக நிலைக்க உதவுகிறது. காரணம்
வாகனங்கள் போன்றவற்றில் உறுதியாக நிலைக்க உதவுகிறது. காரணம் வாகனங்கள் போன்றவை
அசைந்து கொண்டிருப்பதால் சாதாரண ஆணிகள் சுலபமாக எகிறிவிடும் அபாயம் உண்டு. ஆனால் திருகு ஆணியில்
இல்லை என்பது இதன் சிறப்பாகும். மேல்நோக்கி எழும் திருகு (Helix) என்பதை ஒட்டியே ''ஹெலிகாப்டர்'' பெயர் வந்தது. </p>

<p>திருகு ஆணியின் திருகுபடி உத்திதான் சுரங்கங்களில் கீழிலிருந்து மண்னை மேலே
சுலபமாக எடுத்து வரவும், சில இடங்களில் வயல்களுக்கு தண்ணீரை மேலேத்தவும்
பயன்படுத்தப்படுகிறது.</p>

<p> </p>

<p>இம்மையும்,
மறுமையும்...</p>

<p>  </p><p>
''எங்கள் இரட்சகனே,
எங்களுக்கு உலகிலும் நலனைக் கொடு; மறு உலகிலும் நலனைக் கொடு; நரக வேதனையிலிருந்து, நீ
எங்களைக் காப்பாற்று என்று கேட்பவர்களும் அவர்களில் இருக்கின்றார்கள்'' </p>

<p>- (அல்பக்ரா-201)</p>

<p>எல்லாம் வல்ல இறைவன் தன்னை வணங்குபவர்களை இரு பிரிவுகளாகப் பிரித்துக்
காட்டுகிறான். ஒரு பிரிவினர் இவ்வுலக நலன்களையே வேண்டுவர். இவர்கள் மறுமை
சிந்தனையையும், அதன் பயன்களையும் பொருட்படுத்த மாட்டார் கள். மற்றொரு பிரிவினர்
உண்மையான இறையச்சம் கொண்டவர்கள் ஆவர். இவர்கள் இம்மை, மறுமை இரண்டின் நன்மைகளை
இணைத்தே இறைவனிடம் வேண்டுவர். </p>

<p>எப்பொழுதுமே பிற ஒன்றின் மீது தேவையுள்ளவனாக இருக்கும் மனிதன், மிகவும் பல
-வீனன் ஆவான். இவ்வுலகின் கஷ்ட, நஷ்டங்களைத் தாங்கிக் கொள்ளும் வலிமை அவனுக்குக்
கிடையாது. எனவே இவற்றிலிருந்து தன்னைப்பாதுகாத்துக் கொள்வதற்கு இறைவனிடம் வேண்டிக்
கொள்வது அவனுக்கு அவசியமாகிறது. </p>

<p>அவனது உடலில் ஒரு நரம்பு கோளாறாகி விட்டால் அவனுடைய வாழ்வு இருண்டு
போனதோடல்லாமல், அவனால் இறைவனை முழுமையாக வணங்க முடியாது. தன்னிடமுள்ள திறமை, சக்தியைக்
கொண்டு தனது இன்னலைப் போக்கிக்கொள்ள முடியாது. அல்லாஹ்வின் அருள் இல்லாமல் எந்த நன்மை
யையும் மனிதன் அடைந்துவிட முடியாது. இதன் காரணமாக இவ்வுலகம் சம்பந்தப் பட்ட
நன்மைகளுக்கும், உதவிகளுக்கும் அவன் இறைவனைக் கெஞ்சவேண்டிய நிலையில் உள்ளான்.
</p>

<p>உலகில் நன்மை, தீமைகள் மாறி மாறி வரும் என்பதை உணர்ந்த இறையச்்சம் உள்ள
மனிதன் இவற்றிற்கெல்லாம் முக்கியத்துவம் கொடுக்காமல், நிலையான மறுமை சுகத்தையும், நரக
வேதனையிலிருந்து பாதுகாப்பையும் கோரி இறைவனை வேண்டுவான். இம்மை மறுமை ஈருலகிலும்
நன்மைகளைத் தருமாறும் நரக வேத னைகளிலிருந்து தங்களைக் காப்பாற்றுமாறும் இறைவனை வேண்டும்
இவர்களே, நற்பேறு பெற்றவர்கள் ஆவர். ஈருலகிலும் வெற்றி பெற்றவர்கள் ஆவர்.</p>

<p> </p>






</body></text></cesDoc>