<cesDoc id="tam-w-dinakaran-other-03-06-02" lang="tam">
<cesHeader type="text">
<fileDesc>
<titleStmt>
<h.title>tam-w-dinakaran-other-03-06-02.txt</h.title>
<respStmt>
<respType>Electronic file created by</respType>
<respName>Department of Linguistics, Lancaster University</respName>
<respType>text collected by</respType>
<respName>Paul Baker and Celia Worth</respName>
<respType>transferred into Unicode by</respType>
<respName>"Unicodify" software by Andrew Hardie</respName>
</respStmt>
</titleStmt>
<publicationStmt>
<distributor>UCREL</distributor>
<pubAddress>Department of Linguistics, Lancaster University, Lancaster, LA1 4YT, UK</pubAddress>
<availability region="WORLD"></availability>
<pubDate>03-08-24</pubDate>
</publicationStmt>
<sourceDesc>
<biblStruct>
<monogr>
<h.title>"Dinakaran" internet news (www.dinakaran.com), news stories collected on 03-06-02</h.title>
<h.author>Dinakaran</h.author>
<imprint>
<pubPlace>Tamil Nadu, India</pubPlace>
<publisher>Dinakaran</publisher>
<pubDate>03-06-02</pubDate>
</imprint>
</monogr>
</biblStruct>
</sourceDesc>
</fileDesc>
<encodingDesc>
<projectDesc>Text collected for use in the EMILLE project.</projectDesc>
<samplingDesc>Simple written text only has been transcribed. Diagrams, pictures and tables have been omitted and their place marked with a gap element.
</samplingDesc>
<editorialDecl>
<conformance level="1"></conformance>
</editorialDecl>
</encodingDesc>
<profileDesc>
<creation>
<date>03-08-24</date>
</creation>
<langUsage>Tamil</langUsage>
<wsdUsage>
<writingSystem id="ISO/IEC 10646">Universal Multiple-Octet Coded Character Set (UCS).</writingSystem>
</wsdUsage>
<textClass>
<channel mode="w">print</channel>
<constitution type="composite"></constitution>
<domain type="public"></domain>
<factuality type="fact"></factuality>
</textClass>
<translations></translations>
</profileDesc>
<revisionDesc></revisionDesc>
</cesHeader>

<text>
<body>




<p>கைது செய்வதில்
காவலர்களின் அதிகாரம்</p>

<p>சட்டப்படி அதிகாரம் பெற்ற அதிகாரிகள் ஒரு நபருடைய
முழுச்சுதந்திரத்தை பறித்து வரும்படியாக பிடித்து வைத்தலே கைது எனப்படும். நமது இந்திய
அரசியலமைப்பு சட்டத்தின் 21-வது பிரிவானது சட்டப்படி இன்றி எவரொ ருவரின் தனிப்பட்ட
சுதந்திரத்தை பறித்தலாகாது என்று கூறுகிறது. அதாவது, சட்டத்தின் துணை கொண்டு ஒரு
குற்றத்திற்காக ஒருவனை பிடித்து வைக்கிறார்கள் என்றால் அது கைது என்றும், அந்த செயல்
சட்டப்படியான கைது என்றும் அழைக்கப்படும். கைது செய்யப்பட்ட நபர்கள் கைது செய்யப்பட்ட
பின்பு நீதித்துறை நடுவரின் முன்பு 24 மணி நேரத்திற்குள் ஆஜர்படுத்த வேண்டும். மேலும் கைது
செய்யப்பட்ட நபர்களுக்கு தேவையான சட்ட உதவியை வழங்குவதில் காவலர்கள் உதவி வேண்டும்.
இதுபோன்றபல வகையான சட்ட விதிமுறைகளை உச்சநீதிமன்றம் கூறியுள்ளது. </p>

<p>கைது வகைகள்: 1) குற்றவியல் துறை நடுவர் பிறப்பித்த
பிடியாணையுடன் சட்டத்திற்குட்பட்டு கைது செய்தல் 2) பிடியாணையின்றி -சட்டத்திற்குட்பட்டு
கைது செய்தல் </p>

<p>கைதுசெய்வதற்குரிய சூழ்நிலைகள்: 1) ஒரு குற்றம் செய்ததன்
பொருட்டு அந்த குற்றத்தின் வழக்கு விசாரணை நீதிமன்றத்தில் நடை பெறும்போது-அந்த
நபர் 
 
 
  
  
  
  
  
  
  
  
  
  
  
  
 
 
 

 
 
<gap desc="illustration"></gap>நீதிமன்ற விசாரணைக்கு வரவில்லை என்ற நிலையில் அவரை கைது செய்யலாம். 2)
குற்றங்களை தடுப்பதற்காக முன்னெச்சரிக்கையாக கைது செய்யலாம் 3) ஒரு காவல் அதிகாரி சில
சூழ்நிலைகளில் ஒருவரின் பெயரையும் முகவரியையும் கேட்கும்போது அவர் தெரிவிக்கவேண்டிய
விவரத்தை தெரிவிக்க மறுத்தால் அவரை கைது செய்யலாம். 4) காவல் அதிகாரி ஒருவர் தன்
பணியை மேற்கொள்ளும்போது எவராவது தடுத்தால் அவரை கைது செய்யலாம். 5) தப்பித்து செல்லக்கூடியவரை
திருப்பி பிடிப்ப தற்காக கைதுசெய்ய முடியும். </p>

<p>கைது செய்யக்கூடியவரின் உரிமைகள்: 1) ஒருவரை கைது செய்யும்
காவலர்கள் அவர் எக்காரணத்திற்காக கைது செய்யப்பட்டுள்ளார் என்பதை உடனடியாக கூறவேண்டும்.
இதை அறிந்து கொள்வதற்கு கைது செய்யப்பட்ட வருக்கு முழு உரிமைஉண்டு. இது அடிப்படை உரிமையாகவும்
அளிக்கப் பட்டுள்ளது. 2) ஜாமீனில் செல்ல உரிமையுண்டு (சூழ்நிலைக்கேற்ப) என்பதை
காவலர்கள் கைது செய்யப்பட்ட வருக்கு கூறவேண்டும் 3) கைது செய்யப்பட்ட நபரை காலதாமதமின்றி
தகுந்த அதிகார வரம்புடைய குற்றவியல் துறை நடுவர் முன்பு கைது செய்த காவல் அலுவலர்
ஆஜர்படுத்த வேண்டும். 4) நீதிமன்றத்தின் கவனத்திற்கு வராமல் தம்மை 24 மணி நேரத்திற்கு
மேல் காவலில் வைக்ககூடாது என்பதும் ஒரு உரிமை 5) தனது வழக்கறிஞர் எவரேனும் இருப்பின்
அவரது உதவியை நாடும் உரிமை 6) மருத்துவர் ஒருவரால் மருத்துவ பரிசோதனை செய்யப்பட வேண்டும்
என்று கோரும் உரிமை போன்ற உரிமைகள் உண்டு. </p>

<p>கைது மற்றும் காவலில் வைக்கும் சூழ்நிலைகளில் அதற்கான
பாதுகாப்பு நடவடிக்கைகள்: நமது உச்சநீதிமன்றமானது 1997ம் ஆண்டு ஒரு வழக்கில் கைது மற்றும்
காவலில் வைக்கும் சூழ்நிலைகளில் மேற்கொள்ள வேண்டிய பாது காப்பு நடவடிக்கைகளை எடுத்து
உரைத்துள்ளது. கொடூரமாக மனிதாபிமானமற்ற நிலையில் அல்லது கேவலமாகக் காவல் துறையால்
நடத்தப்பட்டாலோ விசாரணை அல்லது புலன் விசாரணை நடக்கின்றபோது சித்ரவதை
நடந்திருந்தாலோ அது அரசியலமைப்பு சட்டம் ஷரத்து 21 வழங்குகின்ற உரிமையை மீறுவதாகும்.
இதுகுறித்து மேற்படி வழக்கில் உச்சநீதி மன்றம் முக்கியமான தீர்ப்பு ஒன்றை வழங்கியுள்ளது.
நீதிபதிகள் குல்தீப்சிங் மற்றும் டாக்டர் ஏ.எல்.ஆனந்த் ஆகியோர் வழங்கிய இத்தீர்ப்பு
குற்றவியல் நடைமுறைச்சட்ட வரலாற்றில் ஒரு மைல்கல் என்றால் அது மிகையாகாது. கைது மற்றும்
காவலில் வைக்கும் அனைத்து நேர்வு களிலும் அதற்கான பாதுகாப்பு நடவடிக்கைகள்
சட்டமாக்கப்படுகின்றவரை கீழ்க்கண்ட தேவைகள் பூர்த்தி செய்யப்படவேண்டும் என்று 11
கட்டளைகளை உச்ச நீதிமன்றம் மேற்படி வழக்கில் கூறி உள்ளது. </p>

<p>கைது செய்கின்ற அல்லது விசாரணை நடத்துகின்ற அதிகாரி தனது
பெயர், பதவி ஆகியன தௌிவாக தெரியும்படி அடையாள அட்டை பொருத்தியிருக்கவேண்டும்.
விசாரணை மேற்கொள்ளும் அனைத்து அதிகாரிகளைப் பற்றிய விவரங்களும் பதிவேட்டில் பதியப்பட
வேண்டும். </p>

<p>கைதானவர் அதுபற்றிய விவரத்தை நண்பர், உறவினருக்கு
தெரிவிக்க உரிமை உண்டு. கைது செய்ததிலிருந்து 8 மணி முதல் 12 மணி நேர அவகாசத்திற்குள்
கைது செய்யப்பட்ட நேரம், இடம், காவலில் வைக்கப்பட்டு உள்ள இடம் குறித்த விவரங்களை
தெரிவிக்க வேண்டும். </p>

<p>கைது செய்யப்பட்டவரை கேள்வி கேட்டு விசாரிக்கின்றபோது
விசாரணையின் முழு தும் இல்லாவிடினும் விசாரணையின்போது வழக்கறிஞரை சந்திக்கின்ற
வாய்ப்புத்தரப்பட வேண்டும். இவை உள்பட 11 உத்தரவுகளை உச்சநீதி மன்றம்
பிறப்பித்துள்ளது. </p>

<p>இ.இசக்கிமுத்துவேல்பி.எஸ்சி பி.எல்
</p><p>
54/33அ
ஆத்தியடித் தெரு </p><p>
கல்லிடைக்குறிச்சி-627416
</p>

<p>திருமண வரம் தரும்
திருத்தலங்கள்</p>

<p>திருமணஞ்சேரியைத் தவிர, வேறு சில திருத்தலங்களும்
திருமணத்தடை நீக்கும் திருத்தலங்களாக திகழ்கின்றன. அந்தத் தெய்வீகத் திருத்தலங்களை
நாமும் அறிந்து சிறப்போம். </p>

<p> வாஞ்சியம்: திருமகள், திருமாலை திருமணம் செய்து
கொண்ட இத்தலம் எல்லா தோஷத்துக்கும் பரிகாரத்தலம் ஆகும். </p>

<p>திருவீழிமிழலை: இறைவன் (ஈஸ்வரன்) இங்கு உமையவளை
திருமணம் செய்துகொண்டு அநேக ரிஷிகளுக்குக் காட்சித் தருவதாக ஐதீகம். திருமணத் தடை நீங்க
மிகச்சிறந்த தலம். மாயூ ரத்திற்கு அடுத்து நன்னிலம் அருகே இத்தலம் உள்ளது. </p>

<p>திருப்பாச்சேத்தி: மதுரையி லிருந்து 30 கி.மீ. தொலைவில்
உள்ள திருப்பாச்சேத்தியில் விஷ்ணு பிருந்தையின் நினைவால் சாம்பலில் புரண்டு
கொண்டிருந்ததாகவும், திருமகள் இங்கே தியானித்து மகா விஷ்ணுவை அவர் சுயரூபம் அடையச்செய்து,
பின்பு விவாஹம் செய்துகொண்டதாக புராணம் கூறுகிறது. இத்தல இறைவனை வணங்கினாலும்
திருமணத்தோஷம் நீங்கும். </p>

<p>திருவெண்காடு: மகிமைப்பெற்ற சிவத்தலமான இத்தலம் வந்து,
இங்கு உறையும் ஈசனை வழிபட்டு தோஷ பரிகாரம் செய்வது ஒரு மரபாகவே திகழ்கிறது.
</p>

<p>திருவேள்விக்குடி: இத்தலம் வந்திருந்து திருமணக் கோலத்தில்
தரிசனம் தரும் அருள்மிகு பரிமள சுகந்த நாயகி சமேத மணவா ளேஸ்வரரை வழிபட்டால், மணப்பேறு
கிடைக்கும் என்பது ஐதீகம். இத்தலம் மயிலாடுதுறை அருகிலிருக்கும் குத்தாலத்திலிருந்து
வடகிழக்கே 5 கி.மீ. தொலைவில் உள்ளது. </p>

<p>- கிருஷ்ண ரத்னம், </p>

<p> </p>






</body></text></cesDoc>