<cesDoc id="tam-w-dinakaran-other-03-06-12" lang="tam">
<cesHeader type="text">
<fileDesc>
<titleStmt>
<h.title>tam-w-dinakaran-other-03-06-12.txt</h.title>
<respStmt>
<respType>Electronic file created by</respType>
<respName>Department of Linguistics, Lancaster University</respName>
<respType>text collected by</respType>
<respName>Paul Baker and Celia Worth</respName>
<respType>transferred into Unicode by</respType>
<respName>"Unicodify" software by Andrew Hardie</respName>
</respStmt>
</titleStmt>
<publicationStmt>
<distributor>UCREL</distributor>
<pubAddress>Department of Linguistics, Lancaster University, Lancaster, LA1 4YT, UK</pubAddress>
<availability region="WORLD"></availability>
<pubDate>03-08-24</pubDate>
</publicationStmt>
<sourceDesc>
<biblStruct>
<monogr>
<h.title>"Dinakaran" internet news (www.dinakaran.com), news stories collected on 03-06-12</h.title>
<h.author>Dinakaran</h.author>
<imprint>
<pubPlace>Tamil Nadu, India</pubPlace>
<publisher>Dinakaran</publisher>
<pubDate>03-06-12</pubDate>
</imprint>
</monogr>
</biblStruct>
</sourceDesc>
</fileDesc>
<encodingDesc>
<projectDesc>Text collected for use in the EMILLE project.</projectDesc>
<samplingDesc>Simple written text only has been transcribed. Diagrams, pictures and tables have been omitted and their place marked with a gap element.
</samplingDesc>
<editorialDecl>
<conformance level="1"></conformance>
</editorialDecl>
</encodingDesc>
<profileDesc>
<creation>
<date>03-08-24</date>
</creation>
<langUsage>Tamil</langUsage>
<wsdUsage>
<writingSystem id="ISO/IEC 10646">Universal Multiple-Octet Coded Character Set (UCS).</writingSystem>
</wsdUsage>
<textClass>
<channel mode="w">print</channel>
<constitution type="composite"></constitution>
<domain type="public"></domain>
<factuality type="fact"></factuality>
</textClass>
<translations></translations>
</profileDesc>
<revisionDesc></revisionDesc>
</cesHeader>

<text>
<body>




<p>தூக்கம் கொண்டு துயரம்
மறப்போம்</p>

<p>என்றோ நடக்கப்போகும் நாடகத்திற்கு தினமும் நடக்கும்
ஒத்திகை- தூக்கம் என்கிறார் ஓர் ஆங்கில கவி. உடம்பையும் உயிரையும் பேண உணவு
எவ்வளவு அவசியமோ அதே அளவு உறக்கமும் அவசியம். தூக்கம் இல்லையேல் துக்கம் என்றுகூட
சொல்வார்கள். ஆறேழு மாதங்கள் உறங்கி கிடந்ததால் உருப்பெற்ற உடம்பு இது என
கும்பகர்ணனின் மித மிஞ்சிய உடம்பிற்கு காரணம்கூட அவனுடைய உறக்கம் தான் என்கிறது
ராமாயணம். </p>

<p>தூக்கம் அவசியம் </p>

<p>உடல் ஆரோக்கியத்திற்கு நார்மலான உறக்கம் அவசியம். ஒரு
நாள் நித்திரை முழிச்சா இரு நாள் பொழப்பு போகும் என்பார்கள் கிராமப்புறத்தில்.
தூக்கத்தில் கிடைக்கிற மயான அமைதி வேறெதிலும் கிடைப்பதில்லை. தூக்கம் கவலைகளை
மறைத்து வைக்கிறது. தலையணைக்கு கீழே துக்கங்களைப் புதைத்து வைக்கிறது. மருத்துவரிடம்
சென்றால்கூட அவர் கேட்கும் முதல் கேள்வி நல்லபடி தூக்கம் வருகிறதா? என்றுதான்.
தூக்கம் வரவில்லை எனில் உடலில் ஏதோ உபாதை இருக்கிறது என்று பொருள். ஒரு நாளைக்கு
குறைந்த பட்சம் ஆறுமணி நேரமாவது உறங்கவேண்டும். மாலை அல்லது இரவில் எவ்வளவு சீக்கிரம்
உறங்கப்போனாலும் அதிகாலையில் எழுந்துவிட வேண்டும். அதிகபட்சம் ஐந்து மணிக்காவது எழுந்துவிட
வேண்டும். அறுபது வருட ஆயுளில் இருபது வருடங்களை உறக்கத்திலேயே கழித்து விடுகிறோம் என்கிறது
ஆராய்ச்சி தகவலொன்று. தூக்கத்தையும் அமைதியையும் சம்பந்தப்படுத்தி ஷேக்ஸ்பியர்
எழுதிய ஆங்கில கவி தையைத்தான் தூக்கமும் கண்களைத் தழு வட்டுமே... அமைதி உன்
நெஞ்சில் நிலவட்டுமே என தமிழ்ப்படுத்தினார் கவிஞர் கண்ணதாசன். </p>

<p>எப்படி படுப்பது? </p>

<p>உறங்குவதில் இருக்கும் நல்லது கெட்டது நம்மில் பலருக்கும்
விளங்குவதில்லை. பெண்கள் ஒருபோதும் மல்லாந்து படுக்ககூடாது. ஒருக்களித்துத்தான்
படுக்கவேண்டும். ஆண்கள் கைகளை தலைக்கு கொடுத்தது போல் மல்லாந்து படுக்கவேண்டும்.
குப்புறப்படுப்பதிலும் தப்பில்லை. 
 
 
  
  
  
  
  
  
  
  
  
  
  
  
 
 
 

 
 
<gap desc="illustration"></gap>ஒருக்களித்துப் படுக்கும்போது இடது கையை தலைக்கு வைத்துக்கொள்வது தான் நல்லது.
அப்போதுதான் இதயத் தசைகள் சீராக இயங்கும். சுவாசமும் எளிதாகும். வீட்டில் பெட்,
மெத்தையில் படுப்பதைவிட பாயில் படுப்பதுதான் மிக நல்லது. கடம்ப மரக்கட்டிலில்
உறங்கினால் உடல் வலிகள் எல்லாம் பறந்தோடிவிடும் என்பார்கள். அமுங்கி எழும்
மெத்தைகளில் உறங்கினால் உடல் வலி எடுக்கும். உடம்பின் நடுப்பகுதி தாழ்ந்தும், தலை, கால்
பகுதி உயர்ந்தும் இருந்தால் புரண்டு படுக்க முடியாது. </p>

<p>சட்டை, பனியன் அணிந்து கொண்டு உறங்குவதைவிட மேலே சிறிய
துண்டைப் போர்த்திக்கொண்டு உறங்குவது நலம். போர்வையால் தலை முதல் கால் வரை
போர்த்திக்கொள்ளாமல் நல்ல காற்றை சுவாசிக்க ஏதுவாய் முகத்தை மூடாமல் இருப்பது நல்லது.
</p>

<p>சாப்பிட்ட உடனேயே உறங்கிவிடாமல் சிறிது தூரம்
நடந்துவிட்டு படுத்தால் தூக்கம் நன்றாக வரும். இரைப்பைக்கும் கொஞ்சம் ஓய்வு
கிடைக்கும். இரவு நேரங்களில் வாயு பதார்த்தங்களை அறவே தவிர்ப்பது நல்லது. இரவு உணவை
முடித்த பின் ஒரு டம்ளர் தேங்காய் பால் குடித்தால் தூக்கம் சுழற்றி அடிக்கும். பால்
குடிப்பதற்கு முன் இரண்டு மூன்று பூண்டு பற்கலை மென்று சாறு விழுங்கிவிட்டால் வாயு
கோளாறுகளுக்கு வழியே இருக்காது. </p>

<p>கனவில்லாத தூக்கம் மனதிற்கு ஆழ்ந்த நிம்மதியை
கொடுக்கிறது. நம்மில் பலரும் கனவு கண்டு திடுக்கிட்டு விழிக்கும் பழக்கம் உடையவர்கள்.
இரவு உறங்கும்போது கண்ட கண்ட எண்ணங்களையும் போட்டு மனதை குழப்பிக்கொள்ளாமல்
எதுவானாலும் விடிந்து பார்த்துக்கொள்ளலாம் என்னும் உறுதியோடு உறக்கத்திற்கு போக வேண்டும்.
மூளை நரம்புகளின் அலைபாயல்தான் கனவு என்கிறார்கள் அறிவியல் ரீதியில். வீட்டில்
மோட்டு வளையைப் பார்க்கும் படியாகவோ, உத்திரத்தின் கீழாகவோ உறங்குதல் கூடாது.
அதுபோன்ற இடங்களில் உறங்கினால் பயங்கரமான கனவுகள் வரக்கூடும். </p>

<p>நார்மலான உறக்கம் எந்த அளவுக்கு நல்லதோ அதுபோல்
மிதமிஞ்சிய உறக்கம் நம் பிணிக்கு பிடிவாரண்ட் போட்டு பிடித்து வரும். தூங்கிக்
கெடுப்பவர்கள் நாட்டை கெடுப்பதோடு தானும் கெடுகிறார்கள் என சொல்லி இருக்கிறார்
பட்டுக்கோட்டையார். அதிகாலையில் எழுந்தால்தான் காற்றின் கலந் திருக்கும் ஓசோனை நம்
உடல் அனுபவிக்க முடியும். எனவே தூங்கி தூங்கியே வாழ்க் கையை தொலைத்துவிடாமல் மிதமான உறக்கம்
கொண்டு உடல் பிணியற்று வாழ்வதே சிறப்பு. </p>

<p>இரா.பழனியப்பன், </p><p>
மெயின்ரோடு,புனல்வாசல்
- 614 803, </p><p>
பட்டுக்கோட்டை
வட்டம், </p><p>
தஞ்சை
மாவட்டம். </p>

<p>வளம் தரும் விசாகத்
திருநாள்</p>

<p>வைகாசி மாதத்தில் விசாக நட்சத்திரத்துடன்கூடிய பவுர்ணமி
நாளுக்கு தனிச்சிறப்பு உண்டு. சூரபத்மனை அழிக்க சிவனின் நெற்றிக்கண்ணிலிருந்து
தீப்பொறிகளாய் தோன்றி சரவணப் பொய்கையில் குழந்தையாய் முருகப் பெருமான் அவதரித்தது
இன்றைய நாளில்தான். </p>

<p>பக்தர்கள் இந்நாளை வைகாசி விசாகமாகக்
கொண்டாடுகிறார்கள். முருகன் எழுந்தருளியுள்ள திருக்கோயில்களில் எல்லாம் அன்று சிறப்பு
வழிபாடுகள் நடைபெறும். வைகாசி விசாக பூஜை புத்திர தோஷத்தைப் போக்கி குழந்தை வரம்
தரும் வல்லமையுடையது. விசாகத் திருநாளாகிய இன்று முருகனை வழிபடுவதன் மூலம் நாம்
மும்மூர்த்திகளையும் வழிபட்ட பலனைப் பெற்றுவிடுகிறோம். ஆம் முருக எனும் வழிபடும்
சொல்லில் 
 
 
<gap desc="illustration"></gap>மு-முகுந்தனையும், ரு-ருத்ரனையும், க-கமலமாகிய தாமரையில் வீற்றிருக்கும்
பிரம்மனையும் குறிக்கும். எனவேதான் முருகா என்று சொல்லி வழிபட்டால் மும்மூர்த்திகளின்
அருளையும் பெறலாம் என பெரியவர்கள் சொல்லி வைத்தார்கள். </p>

<p>மேலும் வைகாசி மாதம் சூரியன் ரிஷப ராசியிலிருக்கிறார்.
அங்கிருந்து ஏழாம் பார்வையாக விருச்சிக ராசியைப் பார்க்கிறார். விசாக நட்த்திரத்தின்
நான்காம் பாதம் விருச்சிகத்தில்தான் உள்ளது. விசாக நட்சத்திரத்தின் அதிபதி குரு. தேவதை
முருகன் இந்த முறையில் பார்த்தால் அன்று முருகனை சூரியன் வழிபடுகிறார். எனவே முருகனை
வழிபடும் நாம், குருவையும் சூரியனையும் சேர்த்து பூஜித்தவர்கள் ஆகிறோம். </p>

<p>- சக்தி விண்மணி, போடி நாயக்கனூர்.
</p>

<p> </p>






</body></text></cesDoc>