<cesDoc id="tam-w-dinakaran-other-00-10-22" lang="tam">
<cesHeader type="text">
<fileDesc>
<titleStmt>
<h.title>tam-w-dinakaran-other-00-10-22.txt</h.title>
<respStmt>
<respType>Electronic file created by</respType>
<respName>Department of Linguistics, Lancaster University</respName>
<respType>text collected by</respType>
<respName>Paul Baker and Celia Worth</respName>
<respType>transferred into Unicode by</respType>
<respName>"Unicodify" software by Andrew Hardie</respName>
</respStmt>
</titleStmt>
<publicationStmt>
<distributor>UCREL</distributor>
<pubAddress>Department of Linguistics, Lancaster University, Lancaster, LA1 4YT, UK</pubAddress>
<availability region="WORLD"></availability>
<pubDate>03-08-24</pubDate>
</publicationStmt>
<sourceDesc>
<biblStruct>
<monogr>
<h.title>"Dinakaran" internet news (www.dinakaran.com), news stories collected on 00-10-22</h.title>
<h.author>Dinakaran</h.author>
<imprint>
<pubPlace>Tamil Nadu, India</pubPlace>
<publisher>Dinakaran</publisher>
<pubDate>00-10-22</pubDate>
</imprint>
</monogr>
</biblStruct>
</sourceDesc>
</fileDesc>
<encodingDesc>
<projectDesc>Text collected for use in the EMILLE project.</projectDesc>
<samplingDesc>Simple written text only has been transcribed. Diagrams, pictures and tables have been omitted and their place marked with a gap element.
</samplingDesc>
<editorialDecl>
<conformance level="1"></conformance>
</editorialDecl>
</encodingDesc>
<profileDesc>
<creation>
<date>03-08-24</date>
</creation>
<langUsage>Tamil</langUsage>
<wsdUsage>
<writingSystem id="ISO/IEC 10646">Universal Multiple-Octet Coded Character Set (UCS).</writingSystem>
</wsdUsage>
<textClass>
<channel mode="w">print</channel>
<constitution type="composite"></constitution>
<domain type="public"></domain>
<factuality type="fact"></factuality>
</textClass>
<translations></translations>
</profileDesc>
<revisionDesc></revisionDesc>
</cesHeader>

<text>
<body>




<p>ஸ்டெதஸ்கோப் உருவானது
எப்படி?</p>

<p>   
எந்த ஒரு வியாதிக்காக நாம் மருத்துவரிடம் சென்றாலும் அவர் காதில் பொருத்தப்பட்ட ஒரு
உபகரணத்துடன் நம் மார்பில் அழுத்தி நம் இதயத் துடிப்பை அறிவார். அதன் மாற்றங்களை
கொண்டே இன்ன வியாதி என்பதை எளிதில் அறிவார். அக்கருவி ஸ்டெதஸ்கோப் என்பது நம்
அனைவருக்கும் தெரியும். ஆனால் இதை கண்டுபிடிக்க ஒரு மருத்துவ அறிஞர் தம் உயிரையே
தியாகம் செய்தார். </p>

<p>கருவி கண்டுபிடிக்க காரணமான காசநோய்</p>

<p>   
அக்காங்களில் காசநோய் என்பது சர்வ சாதாரணமாக இருந்தது லேன்னேக் என்னும் மருத்துவர் பாரீசில்
இருந்த நெக்கர் மருத்துவ மனையில் பணிபுரிந்தார். அப்போது பல மடங்கு காசநோயாளிகளை
பரிசோதிக்க வேண்டி இருந்தது. இதற்கு நெஞ்சக பகுதியில் உள்ள இதயத்துடிப்பை அறிந்து,
அதன் அடிப் படையில் மருத்துவம் அளிக்கப்பட்டது. அப்போ தெல்லாம் அவர் கைவிரல்களை
நெஞ்சகப் பகுதியில் அழுத்தி அதன் மூலம் எழும் பல்வேறு ஒலிகளை வைத்து வியாதிகளின்
தன்மையை கண்டறிந்தார். எனினும் அவர் ஆழமாக சிந்தித்தபோது நம் உடலில் நுரையீரல்,
தமணிகள், அடிவயிறு போன்ற பகுதிகளில் சேரும் சுரப்பி நீர்களின் தன்மையால் இதயத்துடிப்பை
கண்டறிவது கடினம் என்பதை உணர்ந்தார். </p>

<p>முதல் முதலில் இதயத்துடிப்பை கேட்டவர்</p>

<p>   
பழங்கால கிரேக்கர்கள் நோயாளியின் மார்பு பகுதியில் காதை அழுத்தி வலப்புறம்,
இடப்புறம் எழும் ஒலியினை கொண்டு மருத்துவர்கள் மருத்துவம் செய்தனர். இம்முறை ஆஸ்கல்டே
ஷன் முறை எனப்பட்டது. இம்முறையிலேயே லேன்னேக்கின் மருத்துவ ஆசிரியரான பைலே என்பவர்
பயிற்சி அளித்தார். ஆனால் இம்முறை மிகவும் கடினமாக இருந்தது. ஏனெனில் சில சமயங்களில்
நோயாளிகளின் இதயத் துடிப்பு சரிவர கேட்காமலும், சில சமயங்களில் அதி வேகமாகவும்
இருந்தது. மேலும் பல நோயாளி கள் மருத்துவரின் காதருகே தங்களுடைய நெஞ்சுப்பகுதியை
காண்பிக்க கூச்சப்படவும், வெட்கப்படவும் செய்தனர். </p>

<p>   
இச்சம்பவம் லேன்னேக்கை ஆழ்ந்து சிந்திக்க செய்தது. ஒருநாள் தன் வீட்டுத்தோட்டத்தில்
குழந்தை கள் உருளைக்குழாய்களை கொண்டு ஒரு முனையில் ஒருவன் சத்தமிட மறுமுனையில் அச்சப்தத்தை
மற்ற வன் எளிதாக காதில் கேட்க முடிந்ததை கண்டு வியப்படைந்தார். அச்சமயத் தில் இளவயது
பெண் நோயாளி இதயக் கோளாறு காரணமாக தன்னை தேடிவர உட னேயே காகிதத்தை உருளை வடிவில்
சுருட்டி ஒருமுனையை நோயாளியின் நெஞ்சிலும் மறுமுனையை தன் காதருகே வைத்துக்கேட்க என்ன
ஆச்சரியம் அவரால் இதயத்துடிப்பை தௌிவாக கேட்க முடிந்ததை உணர்ந்தார். லப்-டப் என்ற
மனித இதயத்தின் துல்லியமான துடிப்பை முதன்முதலில் கேட்ட பெருமை டாக்டர் லேன்னேக்
அவர்களையே சாரும். </p>

<p>   
அடுத்த சில ஆண்டுகளில் அவருக்கு காகித குழாயின் மூலம் நோயாளியை பரிசோதிப்பது அலுத்து
விட்டது. ஏதாவது முன்னேற்றம் செய்யவேண்டும் என்று எண்ணி மரத்தால் புனல் வடிவிலான குழாயை
செய்து சோதனை மேற்கொண்டார். இதன் பயனாக பல்வேறு தரப்பட்ட நுரையீரல் சம்பந்தமான
நோய்களை இனம் கண்டு கொள்ள முடிந்ததால் அவர் பிரான்ஸ் நாட்டுக்கல்லூரியின் மருத்துவப்
பேராசிரியர் ஆனார். இதன் மூலம் அவர் பல்வேறுப்பட்ட காசநோயாளிகளை ஆராய்ந்த தில்
மிகக்கொடுமையான காசநோய் அறி குறியினை 1819-ம் ஆண்டு உலகிற்கு தெரியப் படுத்தினார்.
</p>

<p>உயிரை பலிவாங்கிய ஆராய்ச்சி</p>

<p>   
1826-ம் ஆண்டு மே மாதம் இவரது மாண வர்களில் ஒருவன் இவர் கண்டுபிடித்த கருவி யின் மூலமே
இவரை சோதனை செய்ததின் மூலம் ஸ்டெதஸ்கோப் என்னும் அரிய உப கரணத்தை கண்டுபிடிக்க
காரணமாய் இருந்த இவருக்கே அந்த கொடிய காசநோய் இருப்பது தெரியவந்தது. இந்நோய் காரணமாக
ஆகஸ்டு 13-ந்தேதி 1826-ம் ஆண்டு 45-ம் வயதில் அவர் காலமானார். </p>

<p>   
இவர் கண்டுபிடித்த இக்கருவிக்கு ஸ்டெதஸ்கோப் என்ற பெயரை இவர்தான் வைத்தார். இவர்
கண்டுபிடித்த மரத்தால் ஆன புனல் வடிவ கருவியியே உலகின் முதல் ஸ்டெதஸ் கோப் ஆகும். இது
ஒன்பது அங்குல உயரமும் ஒன்றரை அங்குல விட்டமும் கொண்டது. இந்த முறையில் 1856-ம் ஆண்டு
வரையில் நோயாளி களை சோதனை செய்யப்பட்டது. அதன் பின்னர்தான் அமெரிக்க மருத்துவரான
டாக்டர் ஜார்க் கேம்மேன் என்பவர் இருகாதுக்கும் கேட் கின்ற அளவிலே இரப்பர் குழாயினை
பொருத்தி மாற்றி வடிவமைத்தார். அதுதான் தற்போது வழக்கில் உள்ள ஸ்டெதஸ்கோப் ஆகும்.
</p>

<p>   
டாக்டர் லேன்னேக்கின் இக்கண்டுபிடிப்பு இல்லாவிட்டால் இன்றைய மருத்துவ உலகில் அனைத்து
நோய்க்கும் ஆதாரமாக உள்ள இதயத்துடிப்பை அறிய கருவிகள் இல்லாமல் எவ்வளவு
கடினப்பட்டிருப்போம் என்பதை நினைத்தால் வியப்பாக உள்ளது. </p><p>
  </p>

<p>கே.ரவிக்குமார்
</p><p>
ஆசிரியர் டி.ஐ.ப ள்ளி
</p><p>
14/2 சண்முகம் தெரு,
</p><p>
அம்பத்தூர்,
சென்னை-600053. </p>

<p>சென்னை,
அக். 22- தமிழகத்தில் சில இடங்களில் நேற்று முன்தினம் மழை பெய்தது. மழை அளவு சென்டி
மீட்டரில் வருமாறு:- </p>

<p>சென்னை விமானநிலையம்
11. தாம்பரம் 9. திருப்பத்தூர் 8. வந்தவாசி, ஓசூர், சேந்தமங்கலம் 6. விழுப்புரம்,
புதுவை விமான நிலையம் 5. செஞ்சி, வேலூர் 4. காஞ்சிபுரம், ஜோலார்
பேட்டை3. சோழவரம் 2. கடலூர், ஆரணி, ஈரோடு 1. </p>

<p>முன்அறிவிப்பு:- தமிழகம்
மற்றும் புதுவையில் இடியுடன் கூடிய மழையோ ஒரு சில இடங்களில் லேசான மழையோ பெய்யக்கூடும்.
</p>

<p>சென்னை:- சென்னை மற்றும்
அதன் சுற்றுப்புறங்களில் வானம் மேகமூட்டத்துடன் காணப்படும். மழை அவ்வப்போது பெய்யக்கூடும்.
</p>

<p>வெப்பநிலை:-
நுங்கம்பாக்கம்:- அதிக அளவு 33.1 டிகிரி செல்சியஸ். குறைந்த அளவு 23.3 டிகிரி
செல்சியஸ். ஈரப்பதம் 75 சதவீதம். </p>

<p>மீனம்்பாக்கம்:- அதிக
அளவு 31.0 டிகிரி செல்சியஸ். குறைந்த அளவு 23.0 டிகிரி செல்சியஸ். ஈரப்பதம் 83
சதவீதம். </p>

<p>www.poverty.org</p>

<p>   
அமெரிக்காவில் வட கரோலினா பகுதியில் அமைந்துள்ளது தி கான்பரன்ஸ் ஆன் பாவர்டி எனும்
அமைப்பு. நோய், படிப்பறிவு இல்லாமை, தீய பழக்க வழக்கங்கள், பெற்றோரின்
திறமையின்மை போன்ற காரணங்களால் சமுதாயத்தில் வறுமை நிலவுகிறது. </p>

<p>   
இத்தகையை ஏழ்மையை விரட்ட பல வழிகளிலும் சீரிய சேவைகளை செய்யும் அமைப்பு இது. நவீன
தொழில்நுட்ப சாதனங்களை பயன்படுத்தி தகவல் பரிமாற்றங்களை இது செய்கிறது. இந்தப் பணிகள்
மூலமாகவும், நன்கொடைகள் ரீதியாகவும் வந்து சேரும் நிதியை இதற்காக செலவு செய்கிறது.
பெரிய செல்வந்தர்களை இந்த ஏழ்மை ஒழிப்பு பணியில் ஈடுபடுத்துவதும், சமுதாயத்தில்
கல்வியறிவு, விழிப்புணர்வு வளர ஆலோசனைகள் வழங்கி செயல்படுவதும் இதன் முக்கியப்
பணியாகும். </p>

<p>புதன் பகவான்</p>

<p>
 
 
  
  
  
  
  
  
  
  
  
  
  
  
 
 
 

 
 
<gap desc="illustration"></gap>செல்வத்துள் சிறந்தது கல்விச் செல்வம். அச்செல்வத்துக்கான பொறுப்பு புதன்
பகவானுடையது. பச்சை நிறத்தில் விருப்பமுடைய, இவருக்கான கல், மரகத மாகும். எனவே, கன்னி
மற்றும் மிதுன ராசிக்காரர்கள் மரகதக் கல் பதித்த மோதி ரத்தை அணிய வேண்டும். ஒருவருடைய
அம்மாவின் சகோதரர்களைக் காத்து நலம் தரும் பொறுப்பும் இவருடை யதே ஆகும். மிகுந்த அழகு
கொண்ட இவர், சுக்கிரன், குரு, ஆகிய நல்லவரோடு சேர்ந் தால், நல்ல இயல்புடைமை
அதிகரிக்கும். இயல்பில் மிகவும் நல்லவரான புதன், சனி, செவ்வாய் போன்ற கெட்டவரோடு
சேர்ந்தால், கெட்டவராகி விடுவார். னானாஒளவிதம்ை எனைப்படும் மூலிகை மருந்துகளின் காரகனும்
இவரே. எனவே, மருத்துவர்கள் புதன் வழிபாடு செய்வது மிகவும் பயனுள்ளதாய் இருக்கும்.
</p>

<p>கதை எழுதுவது, பேச்சுத்
திறமை, ஜோதிடப் புலமை, எல்லா வகை வித்தைகள் போன்றவற்றிற்கெல்லாம் பொறுப்பாளி
புதன். எனவேதான், ஜோதிடர்கள் புதனை மனத்துள் நினைத்து வழிபட்ட பின்னரே ஜாதகம்
பார்க்க வேண்டும் என்பதாக சாஸ்திரம் சொல்கிறது. </p>

<p>நரம்புகளுக்கான காரகன்
புதன் என்பதால் நரம்புத் தளச்சி, வாத நோய் போன்றவற்றிற்கு புதனை வழிபடு வது மிகவும்
பயனுள்ளது. ஒவ்வொரு புதன்கிழமையும், நவக்கிரக சன்னதியில் புதனை தீபமேற்றி வணங்கி
மகிழலாம். </p>

<p>மதுரை மீனாட்சி
கோவிலில் உள்ள சொக்கநாதரை வழிபடுவதும், புதனுக்கு சந்தோஷம் தரும். நீண்ட நாட்களாகக்
குழந்தை இல்லாதவர்களும், புதனை வழிபாடு செய்தால், அக்குறை நீங்கி, நன்மை பிறக்கும்.
</p>

<p>புதனுக்கான கோவில்
மயிலாடுதுறையிலிருந்து பூம்புகார் செல்லும் சாலையில் உள்ள திருவெண்காடு என்கிற இடத்தில்
உள்ளது. எல்லாவகை விளையாட்டுகளுக்கும் காரகன் புதன் என்பதால், விளையாட்டு வீரர்கள்
புதனை வணங்குவது, அவர் களின் ஆற்றலை மேம்பட வைக்கும். </p>

<p>-விருச்சிகன்.
</p>

<p> </p>






</body></text></cesDoc>