<cesDoc id="tam-w-dinakaran-other-02-02-13" lang="tam">
<cesHeader type="text">
<fileDesc>
<titleStmt>
<h.title>tam-w-dinakaran-other-02-02-13.txt</h.title>
<respStmt>
<respType>Electronic file created by</respType>
<respName>Department of Linguistics, Lancaster University</respName>
<respType>text collected by</respType>
<respName>Paul Baker and Celia Worth</respName>
<respType>transferred into Unicode by</respType>
<respName>"Unicodify" software by Andrew Hardie</respName>
</respStmt>
</titleStmt>
<publicationStmt>
<distributor>UCREL</distributor>
<pubAddress>Department of Linguistics, Lancaster University, Lancaster, LA1 4YT, UK</pubAddress>
<availability region="WORLD"></availability>
<pubDate>03-08-24</pubDate>
</publicationStmt>
<sourceDesc>
<biblStruct>
<monogr>
<h.title>"Dinakaran" internet news (www.dinakaran.com), news stories collected on 02-02-13</h.title>
<h.author>Dinakaran</h.author>
<imprint>
<pubPlace>Tamil Nadu, India</pubPlace>
<publisher>Dinakaran</publisher>
<pubDate>02-02-13</pubDate>
</imprint>
</monogr>
</biblStruct>
</sourceDesc>
</fileDesc>
<encodingDesc>
<projectDesc>Text collected for use in the EMILLE project.</projectDesc>
<samplingDesc>Simple written text only has been transcribed. Diagrams, pictures and tables have been omitted and their place marked with a gap element.
</samplingDesc>
<editorialDecl>
<conformance level="1"></conformance>
</editorialDecl>
</encodingDesc>
<profileDesc>
<creation>
<date>03-08-24</date>
</creation>
<langUsage>Tamil</langUsage>
<wsdUsage>
<writingSystem id="ISO/IEC 10646">Universal Multiple-Octet Coded Character Set (UCS).</writingSystem>
</wsdUsage>
<textClass>
<channel mode="w">print</channel>
<constitution type="composite"></constitution>
<domain type="public"></domain>
<factuality type="fact"></factuality>
</textClass>
<translations></translations>
</profileDesc>
<revisionDesc></revisionDesc>
</cesHeader>

<text>
<body>




<p>காதலர்கள் இலக்கியம்
படிக்கட்டும்</p>

<p>காதலையும் வீரத்தையும் மையமாக கொண்டே பண்டைத் தமிழ் இலக்கியங்கள்
மலர்ந்தன. காதலும் வீரமும் ஓட்டிப் பிறந்த இரட்டை பிள்ளைகள் என்று சேலத்தில் நடந்த
கவிதை பட்டிமன்றத்தில் தீர்ப்பு வழங்கினார் கலைஞர் கருணாநிதி. </p>

<p>உலகில் படைக்கப்பட்ட அனைத்து அமரகாவியங்களும் காதலைக் கருப்பொருளாக கொண்டு
தான் மலர்ந்தன. </p>

<p>திருமணநெறி </p>

<p>சங்க இலக்கியங்களில் கலித்தொகை முல்லைக்கலி பகுதியை நோக்கும்போது 'காளை
வெல்லும் காளைக்கே கன்னி உரியாள்' என்ற நிலையைக் காண்போம். அதாவது வீரத்தின்
அடிப்படையில் காதல் மலர்ந்தது சங்க இலக்கியம் எடுத்துக் காட்டும். காதல் திருமணமே சங்க
இலக்கியம் காட்டும் திருமண நெறி ஆகும். </p>

<p>மென்மையான காதல் உணர்வுகளை அய்யன் திருவள்ளுவரின் திருக்குறள் இன்பத்துப்பால்
(காமத்துப்பால்) நயம் ததும்ப அற்புதமாக புலப்படுத்தியுள்ளது. </p>

<p>காதலன் நெஞ்சத்திலேயே இருப்பதால் காதலி சூடான பதார்த்தங்களை உண்பதில்லையாம்.
சூடான பதார்த்தங்களை உண்டால் அவை காதலனை சுட்டு விடுமாம். </p>

<p>னாநெஞ்சத்தால் காத லவராக வெய்துண்டல் அஞ்சுதும் வேபாக்கு அறிந்து.
</p>

<p>என்பது குறள் மொழி. </p>

<p>காதல் சுவை </p>

<p>கண் விழிப் பாவையில் காதலன் இருப்பதால், காதலி கண்ணுக்கு மை இடுவதை
தவிர்த்தாளாம். கண்மை காதலனை மறைத்துவிடும் அல்லவா? </p>

<p>காதலியின் இதழ் எச்சில் பாலும் தேனும் கலந்தது போன்ற சுவை உடையதாம்.
</p>

<p>'பாலோடு தேன்கலந் தற்றே பணிமொழி வால் எயிறு ஊறிய நீர்' </p>

<p>என்று அய்யன் திருவள்ளுவன் குறிப்பிடுகின்றான். காதல் சுவையை அய்யன் திருவள்ளுவன்
மிகவும் ரசித்து வழங்கிய கவிதை இது. </p>

<p>நான் காதலியை நோக்கும்போது அவள் நிலத்தைப் பார்க்கின்றாள். நான்
பார்க்காத போது 'அவள்' என்னைப் பார்த்து மெல்ல சிரிக்கின்றாள் என்று காதலன் கூறுவதாக
அய்யன் திருவள்ளுவன் நயமாகக் குறிப்பிடுவார். </p>

<p>''யான்நோக்குங் காலை நிலன் நோக்கும் நோக்காக்கால் </p>

<p>தான்நோக்கி மெல்ல நகும்'' என்பது வள்ளுவம். </p>

<p>இத்திருக்குறளை கவியரசு கண்ணதாசனும் ஓர் திரைப்படத்தின் பாடலில் அழகாக
பயன்படுத்தியுள்ளார். </p>

<p>உன்னை நான் பார்க்கும்போது </p>

<p>மண்ணை நீ பார்க்கின்றாயே </p>

<p>மண்ணை நான் பார்க்கும் போது </p>

<p>விண்ணை நீ பார்க்கின்றாயே </p>

<p>நேரிலே பார்த்தால் என்ன? </p>

<p>நிலவென்ன தேய்ந்தா போகும்? </p>

<p>புன்னகை புரிந்தால் என்ன? </p>

<p>பூ முகம் சிவந்தா போகும்? </p>

<p>இது கண்ணதாசனின் சொல்லோவியம். </p>

<p>கவிஞன் வைரமுத்து </p>

<p>வள்ளுவர் குறளுக்கு எளிமையான வளமான விளக்கத்தைத் தந்துள்ள கண்ணதாசன்
பாராட்டுக்குரியவர். சமண மதத்துறவியாகிய இளங்கோ அடிகள் சமரச-சமத்துவ நோக்கம் உடையவர்.
இளங்கோ படைத்த நெஞ்சையள்ளும் சிலப்பதிகாரம் புகார்க் காண்ட பாடல்கள் காதல்
இலக்கியமாக மலர்ந்துள்ளன. </p>

<p>நண்பர் கவிஞர் வைரமுத்து, தான் திரைப்படத்துக்கு முதன் முதலாக பாடல் எழுதிய
கால கட்டத்தில் காதலியைப் பற்றி அற்புதமான கவிதையே படைத்தார். </p>

<p>னாஅந்தி மழை பொழிகிறது - அதன் </p>

<p>ஒவ்வொரு துளியிலும் </p>

<p>உன்முகம் தெரிகிறது'' </p>

<p>''என்னைப் பார்த்து ஒரு மேகம் </p>

<p>ஜன்னல் சார்த்திவிட்டுப் போகும்'' என்னும் வைரமுத்துவின் திரைப்பாடல் வரிகளை
வெகுவாக ரசித்துள்ளேன். </p>

<p>மகாகவி பாரதி </p>

<p>மகாகவி பாரதியோ கண்ணனையே காதலன் ஆக்கி மகிழ்ந்தான். காதலியாக மாறினான்
பாரதி. </p>

<p>காக்கைச் சிறகினிலே நந்தலாலா நின்றன் </p>

<p>கரிய நிறம் தோன்றுதடா நந்தலாலா </p>

<p>தீக்குள் விரலை வைத்தால் நந்தலாலா </p>

<p>நினனைத் தீண்டும் இன்பம் தோன்றுதடா நந்தலாலா பாரதியின் காதல் பார்வையிது.
</p>

<p>ஆண்டாள் நாச்சியாரோ கண்ணனையே காதலன் ஆக்கி அவனைத் திருமணம் செய்து
கொள்ளவே விரும்பினாள். </p>

<p>மாணிக்கவாசகர் திருவெம்பாவைப் பாடலிலும் திருப்பெருந்துறை உறை சிவபெருமான்
காதலனாகக் காட்சி தருகிறார். மாணிக்க வாசகர் காதலியாக மாறினார். </p>

<p>ஆன்மீக இலக்கியங்களிலும் காதலே சிறப்பிடம் பெறுவதை திருப்பாவை,
திருவெம்பாவைப் பாடல்கள் எடுத்துக் கூறும். </p>

<p>தூய்மையான காதல் சாதி, சமய வேறுபாடு இல்லாதது. </p>

<p>தமிழ் இலக்கியம் காதல் சொல்லோவியம் அதனைப் படித்து மகிழட்டும் காதலர்
தினத்தில் காதலர்கள் வாழ்க தூய காதல் வாழ்க காதல் இலக்கியச் சொல்லோவியம்.
</p><p>
  </p><p>
  </p>

<p>புலவர் முத்துவேங்கடேசன்
எம்.ஏ.பி.எட்,</p>

<p>(மேல்நிலை - தலைமை ஆசிரியர் ஓய்வு),</p>

<p>224/63, புதுக்கார் கானா, 6-வது வீதி,</p>

<p>திருவண்ணாமலை - 606 601.</p>

<p> </p>

<p> </p>

<p>திருக்காளத்தி
திருத்தலம்</p>

<p> </p>

<p>
 
 
  
  
  
  
  
  
  
  
  
  
  
  
 
 
 

 
 
<gap desc="illustration"></gap> -சிலந்தி; காளம்-பாம்பு; ஹஸ்தி-யானை ஆகிய மூன்றும் பூசித்து முத்தியடைந்த
தலம். பஞ்ச பூதத்தலங்களுள் இது வாயுத்தலம். மூலஸ் தானத்திலுள்ள விளக்குகள்
எப்போதும் காற்றில் அசைந்துகொண்டே இருக்கும். மூலத்திரு உருவில் சிலந்தி, பாம்பு, யானை
மூன்றும் உள்ளன. சுயம்பு லிங்கம், நீண்ட பல செங்குத்தான உட்குழிந்த குடைவுகள் நிரம்பிய
திருமேனி. பச்சைக் கற்பூரம் சேர்ந்த நீரால் அபிஷேகம் செய்து, திருநீற்றோடு இந்த
அபிஷேகத் தீர்த்தமும் பிரசாதமாக தரப்படுகிறது. </p>

<p>கர்ப்பக்கிரக வாயிற்படிக்கருகில் கண்ணப்ப நாயனார் காட்சியளிக்கிறார். மகா
சிவ ராத்திரியை 5- ஆம் திருநாளாகக் கொண்ட திருவிழா மாசி மாதத்தில் நடக்கிறது. இது
விராட் புருஷனுடைய விசுத்தி தலம். உருத்திரர், நக்கீரர், இந்திரன், இராமன், முசுகுந்தர்
ஆகியோர் வழிபட்ட தலம். </p>

<p>கோயிலுக்கு வடக்கில் துர்க்காம்பிகை மலை, தெற்கில் கண்ணப்பர் மலை.
கிழக்கில் குமாரஸ்வாமி மலைகள் உள்ளன. ஊர் மத்தியில் பிரஸந்த வரதப்பெருமாள் கோயில்
இருக்கிறது. மலை மேல் உச்சியிலிருந்த குடுமித்தேவர் வழிபாடு என்பது கண்ணப்ப நாயனார்
செய்தது என்பதும், மலைமேல் ஏறியே தேவார முதலிகள் மூவரும் வழிபட்டனர் என்பதும், பெரிய
புராணத்தால் அறியப்படும். மெய்யன்பையே திருவுருவமாகக் கொண்ட  கண்ணப்ப நாயனார்
வழிபட்டு ஆறு நாட்களில் முத்தி பெற்றது இத்தலமே. மேலும், பிரம்ம தேவருடைய அநாகத
ஸ்தானமென்றும், சிவஞானத்தை அளிக்க வல்ல காசி, சிதம்பரம், விருத்தாசலம், காளத்தி
எனும் ஸ்தலங்கள் நான்கினுள் ஒன்று என்றும், ஒரு நாளேனும் நியமத்துடன் வசிப்பவர்களுக்கு
கலியின் பீடையை மாற்றிப் பிறவித் துயரை நீக்கவல்ல காசி - காளத்தி என்றும் என்றென்றும்
பாராட்டப் பெறுவது இத்தலமே. </p>

<p>இத்தலத்திற்கு தட்சிண கைலாஸம் அல்லது தென் கயிலாயம் சிவநந்த கிரி,
சிவாநந்தைக நிலையம், விஞ்ஞான க்ஷேத்திரம், கண்ணப்பபுரம், மும்முடிச்
சோழபுரம் என்று வேறு காரணப் பெயர்களுமுண்டு.அகண்ட வில்வம், கல்லால் என இரண்டு தல
விருட்சங்கள் இங்கு இருக்கிறது.   </p>

<p>- அண்ணா அன்பழகன், அந்தணப்பேட்டை.  
</p>

<p> </p>






</body></text></cesDoc>