<cesDoc id="tam-w-dinakaran-other-01-06-10" lang="tam">
<cesHeader type="text">
<fileDesc>
<titleStmt>
<h.title>tam-w-dinakaran-other-01-06-10.txt</h.title>
<respStmt>
<respType>Electronic file created by</respType>
<respName>Department of Linguistics, Lancaster University</respName>
<respType>text collected by</respType>
<respName>Paul Baker and Celia Worth</respName>
<respType>transferred into Unicode by</respType>
<respName>"Unicodify" software by Andrew Hardie</respName>
</respStmt>
</titleStmt>
<publicationStmt>
<distributor>UCREL</distributor>
<pubAddress>Department of Linguistics, Lancaster University, Lancaster, LA1 4YT, UK</pubAddress>
<availability region="WORLD"></availability>
<pubDate>03-08-24</pubDate>
</publicationStmt>
<sourceDesc>
<biblStruct>
<monogr>
<h.title>"Dinakaran" internet news (www.dinakaran.com), news stories collected on 01-06-10</h.title>
<h.author>Dinakaran</h.author>
<imprint>
<pubPlace>Tamil Nadu, India</pubPlace>
<publisher>Dinakaran</publisher>
<pubDate>01-06-10</pubDate>
</imprint>
</monogr>
</biblStruct>
</sourceDesc>
</fileDesc>
<encodingDesc>
<projectDesc>Text collected for use in the EMILLE project.</projectDesc>
<samplingDesc>Simple written text only has been transcribed. Diagrams, pictures and tables have been omitted and their place marked with a gap element.
</samplingDesc>
<editorialDecl>
<conformance level="1"></conformance>
</editorialDecl>
</encodingDesc>
<profileDesc>
<creation>
<date>03-08-24</date>
</creation>
<langUsage>Tamil</langUsage>
<wsdUsage>
<writingSystem id="ISO/IEC 10646">Universal Multiple-Octet Coded Character Set (UCS).</writingSystem>
</wsdUsage>
<textClass>
<channel mode="w">print</channel>
<constitution type="composite"></constitution>
<domain type="public"></domain>
<factuality type="fact"></factuality>
</textClass>
<translations></translations>
</profileDesc>
<revisionDesc></revisionDesc>
</cesHeader>

<text>
<body>




<p>இந்திய தேர்தல்
வழக்குகளும், தேர்தல் ஆணையமும்</p>

<p>  </p>

<p>    நாடாளுமன்றம், மாநில சட்டமன்றங்கள், குடியரசு தலைவர்,
குடியரசு துணைத்தலைவர் பதவி ஆகிய அனைத்திற்கும் தேர்தல்களை நடத்த நெறிப்படுத்த,
கண்காணிக்க ஒரு தேர்தல் ஆணையம் இருப்பதற்கு நமது அரசியல் அமைப்பு சட்டம் பிரிவு 324
வழிவகை செய்துள்ளது. </p>

<p>தலைமை தேர்தல் ஆணையர்</p>

<p>    தலைமை தேர்தல் ஆணையர் மற்றும் பிற தேர்தல் ஆணையர்களும்,
இந்திய குடியரசு தலைவரால் நியமிக்கப்படுகின்றனர். பிற தேர்தல் ஆணையர்கள் எவரேனும்
நியமிக்கப்பட்டால் தலைமை தேர்தல் ஆணையர் தலைவராக செயல்படுவார். 1993-ம் ஆண்டு ஓர்
அவசர சட்டத்தின் மூலம் இரண்டு தேர்தல் ஆணையர்கள் நியமிக்கப்பட்டு அவர்கள் இருவரும்
தலைமை தேர்தல் ஆணையர் அந்தஸ்தில் செயல்படுவர் என்று அறிவிக்கப்பட்டது. மேலும் தேர்தல்
ஆணையர் ஓர் ஒட்டுமொத்த அமைப்பாக செயல்பட்டு ஒருமனதாகவோ, பெரும்பான்மை ஆதரவுடனோ
முடிவுகளை எடுக்க வேண்டும் என்று ஒரு அவசர சட்டத்தின் மூலம் கேட்டுக் கொள்ளப்பட்டது. அந்த
அவசரச்சட்டம் செல்லுபடியாகாது என்று தலைமை தேர்தல் ஆணையர் உயர்நீதிமன்றத்தில்
தொடர்ந்த வழக்கு தற்சமயத்தில் நிலுவையில் இருக்கிறது. பொதுத்தேர்தலின்போது தலைமை
தேர்தல் ஆணையரின் ஆலோசனையின்பேரில் மண்டல தேர்தல் ஆணையர்களை நியமிக்க பிரிவு 324
வழி செய்கிறது. </p>

<p>தேர்தல் ஆணையர் பதவி நீக்கம்</p>

<p>    உச்சநீதிமன்றத்தில் நீதிபதி ஒருவரை பதவி நீக்கம்
செய்யும்் காரணங்களின் பேரிலும் வழி முறையின் பேரிலும் மட்டுமே தலைமை தேர்தல் ஆணையரை
பதவி நீக்கம் செய்ய முடியும். அவரை பதவியில் நியமனம் செய்த பின்னர் அவருக்கு
பிரதிகூலமான வகையில் அப்பதவியின் பணிநிலைமைகளை மாற்றியமைக்க கூடாது. </p>

<p>தேர்தல் வழிமுறைகள்</p>

<p>    நாடாளுமன்றத்தின் எந்த ஓர் அவைக்கும் அல்லது மாநில
சட்டமன்றத்தின் எந்த ஓர் அவைக்கும் நடைபெறும் தேர்தல்களுக்கு ஒவ்வொரு தொகுதிக்கும்
பொதுவான ஒரு வாக்காளர் பட்டியல் மட்டுமே இருக்கும் என்று பிரிவு 325 கூறுகிறது. சாதிசமய இன
பால்வேறு பாடுகளின் காரணமாக எந்த நபரையும் வாக்காளர் பட்டியலில் சேர்க்கப்படுவதற்கு
தகுதியில்லை என்று கூற முடியாது. தேர்தல் நடத்துவது தொடர்பாக உதாரணம் வாக்காளர் புகைப்பட
அடையாள அட்டை வழங்குதல் மின்னணு எயந்திரத்தின் மூலம் வாக்குப்பதிவு நடத்துதல் போன்றவை
தேர்தல் ஆணையத்தின் அதிகார வரம்பிற்குட்பட்டது. இது தொடர்பாக உயர்நீதிமன்றத்தில்
நம்பகத்தன்மையை எதிர்த்து உயர்நீதிமன்றத்தில் தனி நபர் அரசியல் கட்சிகள் வழக்கு
தொடரலாம். மக்கள் பிரதிநிதித்துவ சட்டம் (8)-ல் 4 பிரிவுபடி வேட்பாளர் இரண்டு
ஆண்டுக்குமேல் குற்றவியல் தண்டனை பெற்று மேல்முறையீடு செய்திருந்தாலும் அவர் வேட்பு மனுவை
நிராகரிக்க தேர்தல் ஆணையத்திற்கு அதிகாரம் உண்டு. </p>

<p>தலையிடமுடியாது</p>

<p>    வேட்பாளர் சட்டமன்றம் அல்லது நாடாளுமன்றத்தின்
உறுப்பினராக இருந்திருந்தால் நிராகரிப்பு செல்லாது. நாடாளுமன்றத்தில் இரு அவைகளுக்கும்
மற்றும் மாநில சட்டமன்றத்தின் இரண்டு அவைகளுக்கும் தேர்தல் நடத்துவது தொடர்பான
வாக்காளர் பட்டியல் தயாரித்தல் தொகுதி வரையறை செய்தல் மற்றும் தேர்ந் தெடுக்கப்படும்
அவைகளை முறையாக உருவாக்குவதற்கு தேவையான அனைத்து விஷயங்கள் பற்றிய சட்டம் இயற்றும்
அதிகாரத்தை முறையே பிரிவு 327, நாடாளுமன்றத்திற்கும், பிரிவு 328, மாநிலசட்டமன்றத்திற்கும்
வழங்கி யுள்ளது. இடங்களை ஒதுக்கீடு செய்வது அல்லது தொகுதிகளை வரையறை செய்வது தொடர்பான
விஷயங்களில் நீதிமன்றங்கள் தலையிடுவதை பிரிவு 329 தடை செய்கிறது. </p>

<p>    தேர்தல்கள் பற்றிய வழக்குகளை நாடாளுமன்றம் அல்லது
சட்டமன்றம் சட்டம் இயற்றி குறிப்பிட்டுள்ள அமைப்புகளிடம் முறைப்படி தேர்தல் மனுவாக
தாக்கல் செய்ய வேண்டும். மக்கள் பிரதிநிதித்துவ சட்டத்தின்படி தேர்தல் சம்பந்தப் பட்ட
வழக்குகளை விசாரிக்கும் அதிகாரம் உயர்நீதிமன்றங்களுக்கே உள்ளது. உயர்நீதிமன்ற தீர்ப்பை
எதிர்த்து உச்சநீதிமன்றத்தில் மேல் முறையீடு செய்யலாம். ஆனால் குடியரசு தலைவர், குடியரசு
துணைத்தலைவர் பதவி களுக்கான தேர்தல் வழக்குகளை உச்சநீதி மன்றமே விசாரிக்க முடியும்.
நம்நாடு சுதந்திரம் பெற்றபின்னர் நாம் செய்த மிகப்பெரிய புரட்சி என்னவென்றால்
மக்களவை மற்றும் மாநில சட்டப்பேரவை தேர்தல்களில் வயதுவந்தோர் வாக்குரிமை வழங்கியது
தான். அச்சுறுத்துகின்ற பின்தங்கிய நிலைமையும் கலங்கவைக்கின்ற வறுமையும் எல்லை மீறிய
எழுத்தறிவின்மையும் இருந்த நிலையில் புதிதாக சுதந்திரம் பெற்ற ஒரு நாட்டில் 18 வயது
குறையாத அனைத்து குடிமக்களுக்கும் வாக்குரிமை அளித்த செயல் நமது அரசியலமைப்பை உருவாக்
கியவர்களின் நல்லெண்ணத்தை பிரதிபலிக்கிறது. இந்தியா வில் குடியிராதவா,் குடியுரிமை
பெறாதவர்கள், புத்திசுவாதீனம்மற்றவா,் குற்ற நடத்தையிலும் சட்டவிரோதமான
நடவடிக்கையிலும் ஈடுபட்டவர் என்ற காரணங்களுக்காக சட்டப்படி தகுதியிழக்கப்
பட்டவர்களுக்கு வாக்குரிமை பிரிவு 326-ன்படி மறுக்கப்படுகிறது. </p><p>
  </p>

<p>www.freefoto.com/</p>

<p>    வர்த்தக ரீதியில் அல்லாமல் இண்டர்நெட்டில்
மிக அதிக எண்ணிக்கையில் புகைப்படங்களை இலவசமாக வழங்கி சேவை செய்யும் மிக முக்கியமான
வெப் தளம் இது. </p>

<p>   
இதன் முதல் பக்கத்தில் நுழைந்தவுடன் புரவ்ஸ் பை கேட்டகரி என்ற தலைப்பு காணப்படுகிறது.
பகுதி வாரியாக கிளிக் செய்து புகைப்படங்களை பார்த்து பயன் பெறலாம் என்று
அறிவிக்கப்பட்டு உள்ளது. பிசினஸ் என்ற தலைப்பின் கீழ் வர்த்தகம், விவசாயம்,
தொழிற்சாலை போன்ற துறைகள் பற்றிய புகைப்படங்கள் சேகரிக்கப்பட்டு நம் பார்வைக்கு
தரப்படுகின்றன. அதுபோல ஐரோப்பா என்ற தலைப்பின்கீழ் ஆஸ்திரியா, பெல்ஜியம், பிரான்சு,
இத்தாலி, சுவிட்சர்லாந்து உள்பட நாடுகளின் புகைப்படங்கள் தொகுக்கப்பட்டுள்ளன. மற்றும்
நேச்சர், டிரான்ஸ்போர்ட் உள்பட பல்வேறு தலைப்புகளின் கீழ் புகைப்படங்கள்
இணைக்கப்பட்டுள்ளன.</p>

<p>விசுவாசமும்,
கிரியையும்்</p>

<p>
 
 
  
  
  
  
  
  
  
  
  
  
  
  
 
 
 

 
 
<gap desc="illustration"></gap>ஒருவன் தனக்கு விசுவாசமுண்டென்று சொல்லியும், கிரியைகள் இல்லாதவனானால் அவனுக்கு
பிரயோஜனம் ஒன்றுமில்லை. அந்த விசுவாசம் அவனை இரட்சிக்காது. ஒரு சகோதரன் அல்லது
சகோதரி அனுதினம் ஆகாரமில்லாமலும், உடுக்க வஸ்திரமில்லா மலும் இருக்கும்பொழுது நீங்கள்
அவர்களைப் பார்த்து சமாதானத்தோடே போங்கள். குளிர் காய்ந்து பசியாறுங்கள் என்று சொல்லியும்
சரீரத்திற்கு வேண்டியவைகள் அவர்களுக்கு கொடுத்து உதவாவிட்டால் பிரயோ ஜனம் ஒன்றுமில்லை.
ஒருவனுக்கு விசுவாசமுண்டு., இன்னொருவனுக்கு கிரியைகள் உண்டு என்று வைத்துக் கொள்வோம்.
விசுவாசமுள்ளவன் கிரியைகள் இல்லாமல் தன்னுடைய விசுவாசத்தை வௌிக்காட்ட முடியாது. ஆனால்
கிரியைகள் உள்ளவன் தன்னுடைய கிரியைகளினாலே தன்னுடைய விசுவாசத்தை வௌிக்காட்ட முடியும்.
கிரியைகள் இல்லாத விசுவாசம் வீணாயிருக்கும். நம்முடைய பிதாவாகிய ஆபிரகாம் தன் குமாரன்
ஈசாக்கைப் பலிபீடத்தின்மேல் செலுத்தினபோது கிரியைகளினால் நீதிமானாக்கப்பட்டான்.
விசுவாசம் அவனுடைய கிரியைகளோட கூட. முயற்சி செய்தது. கிரியைகளினாலே அவனுடைய விசுவாசம்
பூரணப்பட்டது என்றும் சொல்லலாம். நாம் தேவன் ஒருவர் உண்டு என்று விசுவாசிக்கலாம்.
அவருடைய ஒரே குமாரனாகிய இயேசு கிறிஸ்து நம்முடைய பாவங்களுக்காக சிலுவையில் அறையப்பட்டு
மரித்து அடக்கம் பண்ணப்பட்டு மூன்றாம் நாள் உயிர்த்தெழுந்தார் என்று விசுவாசிக்கலாம்.
அவர் நமக்காக பிதாவினிடத்தில் பரிந்து பேசுகிறார் என்று விசுவாசிக்கலாம். சீக்கிரமாக
இந்த உலகத்தை நியாயந்தீர்க்க வருவார் என்றும் விசுவாசிக்கலாம். ஆனால் தேவையில்
இருக்கும் உன் சகோதரன் அல்லது உன் நண்பன் அல்லது உன் அயலகத்தான் இவர்களுக்கு உன்னால்
இயன்ற உதவியை செய்யாமற்போனால் உன்னுடைய விசுவாசத்தினால் ஒரு நன்மையும் இல்லை.
ஆவியில்லாத சரீரம் செத்ததாயிருக் கிறதுபோல, கிரியைகளில்லாத விசுவாசமும்
செத்ததாயிருக்கும். நாம் நம்முடைய விசுவாசத்தை நம்முடைய கிரியையில் காண்்பிப்போம்.
</p>

<p>    பசியாயிருப்பவர்களுக்கு போஜனம் கொடுப்போம்.
தாகமாயிருப்பவர்களின் தாகத்தைத் தணிப்போம். வஸ்திரமில்லாதவர்களுக்கு வஸ்திரம்
கொடுப்போம். வியாதிப்பட்டவர்களுக்கு உதவி செய்வோம். அப்பொழுது நமது விசுவாசம்
பூரணப்படும். </p>

<p> </p>






</body></text></cesDoc>