<cesDoc id="tam-w-dinakaran-other-02-04-11" lang="tam">
<cesHeader type="text">
<fileDesc>
<titleStmt>
<h.title>tam-w-dinakaran-other-02-04-11.txt</h.title>
<respStmt>
<respType>Electronic file created by</respType>
<respName>Department of Linguistics, Lancaster University</respName>
<respType>text collected by</respType>
<respName>Paul Baker and Celia Worth</respName>
<respType>transferred into Unicode by</respType>
<respName>"Unicodify" software by Andrew Hardie</respName>
</respStmt>
</titleStmt>
<publicationStmt>
<distributor>UCREL</distributor>
<pubAddress>Department of Linguistics, Lancaster University, Lancaster, LA1 4YT, UK</pubAddress>
<availability region="WORLD"></availability>
<pubDate>03-08-24</pubDate>
</publicationStmt>
<sourceDesc>
<biblStruct>
<monogr>
<h.title>"Dinakaran" internet news (www.dinakaran.com), news stories collected on 02-04-11</h.title>
<h.author>Dinakaran</h.author>
<imprint>
<pubPlace>Tamil Nadu, India</pubPlace>
<publisher>Dinakaran</publisher>
<pubDate>02-04-11</pubDate>
</imprint>
</monogr>
</biblStruct>
</sourceDesc>
</fileDesc>
<encodingDesc>
<projectDesc>Text collected for use in the EMILLE project.</projectDesc>
<samplingDesc>Simple written text only has been transcribed. Diagrams, pictures and tables have been omitted and their place marked with a gap element.
</samplingDesc>
<editorialDecl>
<conformance level="1"></conformance>
</editorialDecl>
</encodingDesc>
<profileDesc>
<creation>
<date>03-08-24</date>
</creation>
<langUsage>Tamil</langUsage>
<wsdUsage>
<writingSystem id="ISO/IEC 10646">Universal Multiple-Octet Coded Character Set (UCS).</writingSystem>
</wsdUsage>
<textClass>
<channel mode="w">print</channel>
<constitution type="composite"></constitution>
<domain type="public"></domain>
<factuality type="fact"></factuality>
</textClass>
<translations></translations>
</profileDesc>
<revisionDesc></revisionDesc>
</cesHeader>

<text>
<body>




<p>லஞ்சம் ஒழிக்க
சபதம் ஏற்போம்</p>

<p>  </p><p>
உலகில் நீக்கமற நிறைந்தது
இறைவன் சக்தி என்பது முன்னோர் வாக்கு. ஆனால் இன்று நீக்க மற நிறைந்துள்ளது லஞ்சம்
மட்டுமே. மாநில அரசு அலுவலகமாயிருந் தாலும் சரி மத்தியஅரசு அலுவலகமாயிருந்தாலும் நகராட்சி
அலுவலக மாயிருந்தா லும் சரி லஞ்சமின்றி எந்த வேலையும் மக்களுக்கு நடப்பதில்லை என்ற
கருத்து நிலவுகின்றது. ஒரு அலுவலகத்தில் அனைத்து ஊழியர்களும், அதிகாரிகளும் லஞ்சம்
பெறு பவர்கள் அல்ல. அதில் லஞ்சம் வாங்காமல் கடமையைச்செய்யும் அதிகாரிகள் பலர்
இருக்கின்றார்கள். அப்படிப்பட்ட கடமை உணர்வுள்ள அதிகாரி யிடம் லஞ்சம் கேட்பவர்
பற்றி புகார் சொன்னால், உடனே அந்த நபர் மீது நட வடிக்கை எடுப்பதுடன் பொதுமக்களுக்கு
தேவை யான வேலை லஞ்சமில்லாமல் நடக்க துணை புரிவார்கள். </p>

<p>ஆகவே, ஒருவர் லஞ்சம் கேட்டார் என்பதற்காக அலுவலகத்தில் உள்ள அனை
வரையும் நாம்குற்றம் சொல்லக்கூடாது. அதிகாரிகள் லஞ்சம் கேட்காமல் இருக்க
நடவடிக்கை எடுப் பதை விட, நாம் கொடுக்காமல் இருப்பதே சாலச்சிறந்தது. ஒரு இந்து கோவிலுக்கு
நாம் சென்றால் அங்கே ஒரு அர்ச்சகர் இருப்பார். ஒரு கிறிஸ்துவ ஆலயத்துக்கு சென்றால் அங்கே
ஒரு பாதிரியார் இருப்பார். மசூதிக்கு சென்றால் அங்கே ஒரு இமாம் இருப்பார். இவர்கள்
எதற்காக இருக்கின்றார்கள் என்றால், ஆலயத்தைத் தேடிவரும் அபயதார்க்கு ஆறுதல் கூறுவதுடன்,
துன்பத்தி லிருந்து மீள்வதற்காக பிரார்த்தனையும் செய்வார்கள். </p>

<p>அதுபோல் கல்வி கற்க இயலாதவர்கள், அரசு அலுவலகத்திற்கு வரும்போது ''ஓரம்போ''
என்றும் ''வௌியே போ'' என்றும் நாகரிகமற்று பேசுவதை தவிர்த்து அவர்களுக்கு ஆதரவாகப்பேசி
எந்த அதிகாரியை வந்தவர்கள் சந்திக்க வேண்டுமோ அந்த அதிகாரிகளை சந்திக்க செய்து
அவர்கள் வந்த காரியம் பூர்த்தியாக உதவிகரமாக அரசு அதிகாரிகளும் ஊழியர்களும்
இருக்கவேண்டும். </p>

<p>ஏனென்றால் அரசு அதிகாரிகள் அமர்ந்திருக்கும் நாற்காலியும், மேஜையும், குளிர்
சாதன அறையும் சவாரி செய்யும் மோட்டார் வாகனமும் பொதுமக்களின் வரிப் பணத்தில்
வந்தவை என்பதனை நினைவில் கொள்ளவேண்டும். </p>

<p>லஞ்சம் வாங்காமல் எதையும் செய்யமாட்டேன் என்றுஅடம்பிடிக்கும்
அதிகாரிகளை அந்த துறையின் உயரதிகாரிகளுக்கு பொதுமக்கள் தெரியப்படுத்தவேண்டும். அப்படி
தெரியப்படுத்தினால்தான் லஞ்சம் கேட்கும் ஊழியர் மீது உயரதிகாரிகளால் நடவடிக்கை
எடுக்கமுடியும். உங்களால் உயரதிகாரியை சந்திக்க இயலவில்லை என்றால் தமிழ்நாடு
லஞ்சம் கொடாதோர் சங்க நிர்வாகிகளை தொடர்பு கொண்டு லஞ்சம் கேட்பவர்
பற்றி தெரியப்படுத்தினால் இச்சங்கம் உடனடியாக தலையிட்டு லஞ்சத்தை தவிர்க்க உதவி
செய்யும். </p>

<p>பாலமாக செயல்படுக </p>

<p>பிறப்பு சான்றிதழ், இறப்பு சான்றிதழ், வருமான சான்றிதழ் மற்றும் குடும்ப
அட்டை பெறுதல், நிலஅளவை, பட்டா வேண்டுதல் போன்ற அத்தியா வசிய தேவையை அரசுக்கு
வரிசெலுத்தும் ஒவ்வொரு குடிமகனும் அரசிடமிருந்து பெறலாம். அரசுக்கு வரி செலுத்த வேண்டியது நமது
கடமை. அதுபோல் மக்களின் தேவையைப்பூர்த்தி செய்ய வேண்டியது அரசின் கடமை. அரசுக்கும்
மக்களுக்கும் பாலமாக செயல்படு பவர்கள்தான் அரசு அதிகாரிகள் கோவிலுக்கும் பக்தருக்கும்
பாலமாக அர்ச்சகர் கடமையாற்றுவதுபோல் அரசு அதிகாரிகளும் அரசு ஊழியர்களும் பொதுமக்களுக்கு
குறிப்பாக ஏழை பாட்டாளி மக்களுக்கு பாலமாய் இருந்து உதவிட வேண்டும். </p>

<p>தேசிய மயமாக்கப்பட்ட வங்கிகள் கிராமப்புற மக்கள் சுயதொழில் தொடங்க
கடனுதவி வழங்கவேண்டும் என்று மத்திய அரசு ஆணையிட்டாலுங்கூட சில வங்கி அதிகாரிகள் அரசு
ஆணையை மதிப்பதில்லை. ஏழை மாணவன் ஒருவன் பிளஸ்2 படித்து விட்டு சுயதொழில் தொடங்குவதற்காக
கடனுதவி நாடி வங்கி அதிகாரியை அணுகினால் உனக்கு சொந்த பட்டா நிலம் உள்ளதா அல்லது
உங்கள் வீட்டில் தங்க நகை உள்ளதா இதில் ஏதாவது கொண்டு வந்தால்தான் கடனுதவி செய்வோம்
என்கின்றனர். </p>

<p>நினைவில் கொள்க </p>

<p>தங்க நகைகளும் பட்டா நிலங்களும் பணக்காரர்களிடம் தான் இருக்கும். ஏழை மக்களிடம்
''நா'' நயம் ஒன்றுதான் உள்ளது. ஆகவே தங்க நகைகளும், நிலப் பட்டாக்களும் வைத்துள்ள
பணக்காரர்களை மேலும், மேலும் பணக்காரர்களாக்கி வரும் வங்கி அதிகாரிகள், ஏழைகள் அரசுக்கு
வரி செலுத்துவதினால் அவர்களு க்கும் கடனுதவி அளித்து ஏழைகளும் முன்னுக்கு வர
ஒத்துழைக்கவேண்டும். லஞ்சத்தை வாங்குவோர்கள் மட்டும் வளர்ப்பதில்லை கொடுப்போரும்
லஞ்சத்தை வளர்க்க அதிக உறுதுணையாக இருக்கிறார்கள். ஆகவே லஞ்சம் தவிர்,
நெஞ்சம் நிமிர் என்கிற தாரக மந்திரத்தை பொதுமக்கள் அனைவரும் நினைவில் கொள்ள
வேண்டும். </p>

<p>வெப்பம் - எப்படி
பரவுகிறது?</p>

<p>வெப்பம் வெற்றிடங்களிலும் பரவும் என்பதால் சூரியனிடமிருந்து பூமி வரையுள்ள
பிரபஞ்ச வௌியில் சூரியக்கதிர்கள் வேகமாக பரவுகிறது. (இப்போதிருந்து ஆகஸ்ட் வரை
வெப்பம் தகிக்கும்) திட, திரவ, வாயு போன்றவற்றில் வெப்பம் பரவும். இரும்பு
போன்றவற்றிலும் கடக்கும். இதனல் கடத்தி (Conductors) எனப்படும். வாயு போன்றவற்றில்
மாற்றியாக (Convertion) செயல்படும். சூரியக்கதிர்களில் அலைகள் மூலம் பரவி கதிரேற்றம் (Radiation) என பெயர் பெறும். வெப்பம் பொதுவாக
ஏறி இறங்கும். (தட்ப (குளிர்) வெப்பம்) இதுதான் Temperature எனப்படும் இதை கொண்டு அளவிட முடியும்.
குளிரில் குறைந்த பட்சம் 00 அதிகபட்சமாக 2730 ஆகும். </p>

<p>273 டிகிரி என்று குறிப்பிடப்படும். அளவுகளில் K டிகிரி என்பது Kelvin Scale ஆகும். இது 00-க்கும் கீழே FREEZE நிலைகளை அளவிடப்பயன்படுவதாகும்.</p>

<p>அருள் தரும் அதிர்ஷ்ட
தேவதை </p>

<p> </p>

<p>திருமந்திரம் கண்ட திருமூலர் அன்னை பராசக்தியை நவாக்கரி என்றும்
நீக்கமற அவள் எங்கும் நிறைந்து இருக்கிறாள் என்றும் சொல்லி இருக்கிறார். வடதேசத்தில்
வளம் சேர்க்கின்ற லக்கி..மா என்னும் அதிர்ஷ்டதேவியும் அவளே. </p>

<p>லாக் என்னும் சொல் லக்கி என்னும் சொல்லிலிருந்து மருவி வந்ததுதான் இந்த
தேவியை வழிபடுவதன் மூலமாக நமக்கு அதிர்ஷ்டம் வந்து வாழ்க்கையில் முன்னேற்றத்தை
ஏற்படுத்தும் இந்தத் தேவியை அதிகாலை பிரம்ம முகூர்த்தத்தில் 41/2 முதல் 6 வரை வழிபடுவது
சாலச்சிறந்்தது. பிரம்ம முகூர்த்தத்தில் வரவேண் டும் என்று 108 முறை சொல்லி
எதிர்பார்க்கவேண்டும். ''ஓம் பங்கஜாட்சீம் சுவர்ணாபாம்'' என்ற விசேச தியானமும் ''ஓம்
ஹரீம் அதிர்ஷ்ட தேவதையை நமஹ'' என்ற மூலமந்திரமும் சொல்லவேண்டும். இந்த இன்டர்நெட்
யுகத்தில் விண்கோள் மூலமாக பல வழிபாட்டு உபாயங்கள் வந்துவிட்டன. சிறப்பான இந்த
அதிர்ஷ்ட தேவி படத்தை www.luckydevi.com என்ற இணையதளத்திலிருந்து கூட எடுத்துக் கொள்ளலாம். பூஜை
முறைகளும் இதில் தௌிவாக்கி உள்ளார்கள். நமது பெயரும் பிறந்த தேதியும் குறிப்பிட்டு ஒரு
தாமிரயந்த்ரா செய்து வைத்து வழிபடுங்கள். நமக்கு எந்த வகையில் அதிர்ஷ்டம் வரும்
தெரிந்துகொள்ள ''திடீர் அதிர்ஷ்ட பரிசுகள் கிடைத்தல், மகன்/மகள் திருமணத்்தடைகள்
நீங்்கல், லக்ஷ்மி அருள் கிட்டுதல், நோய் விலகுதல், தீயோர் அகல்தல், எதிர்பாராத
அதிசயம் நிகழ்தல், பிரிந்த கணவன் மனைவி சேருதல், உயர்தேர்வில் வெற்றி, வாகன யோகம்,
விபத்து வேடிக்கையாக மறைதல், நினைத்த செயல் வெற்றி, இந்த ''இனங்களில் நம் வாழ்க்கைச்
சாதனங்கள் லக்கியாக என்றும் அதிர்ஷ்டதேவியை வழிபடுவதால் ஏற்படும். எல்லோருக்கும்
அதிர்ஷ்ட வாழ்வு கிடைக்கட்டும். </p>

<p>தூமகேது கணபதி ஆலயச் செய்திக்குறிப்பிலிருந்து.</p>

<p> </p>






</body></text></cesDoc>