<cesDoc id="tam-w-dinakaran-other-00-12-13" lang="tam">
<cesHeader type="text">
<fileDesc>
<titleStmt>
<h.title>tam-w-dinakaran-other-00-12-13.txt</h.title>
<respStmt>
<respType>Electronic file created by</respType>
<respName>Department of Linguistics, Lancaster University</respName>
<respType>text collected by</respType>
<respName>Paul Baker and Celia Worth</respName>
<respType>transferred into Unicode by</respType>
<respName>"Unicodify" software by Andrew Hardie</respName>
</respStmt>
</titleStmt>
<publicationStmt>
<distributor>UCREL</distributor>
<pubAddress>Department of Linguistics, Lancaster University, Lancaster, LA1 4YT, UK</pubAddress>
<availability region="WORLD"></availability>
<pubDate>03-08-24</pubDate>
</publicationStmt>
<sourceDesc>
<biblStruct>
<monogr>
<h.title>"Dinakaran" internet news (www.dinakaran.com), news stories collected on 00-12-13</h.title>
<h.author>Dinakaran</h.author>
<imprint>
<pubPlace>Tamil Nadu, India</pubPlace>
<publisher>Dinakaran</publisher>
<pubDate>00-12-13</pubDate>
</imprint>
</monogr>
</biblStruct>
</sourceDesc>
</fileDesc>
<encodingDesc>
<projectDesc>Text collected for use in the EMILLE project.</projectDesc>
<samplingDesc>Simple written text only has been transcribed. Diagrams, pictures and tables have been omitted and their place marked with a gap element.
</samplingDesc>
<editorialDecl>
<conformance level="1"></conformance>
</editorialDecl>
</encodingDesc>
<profileDesc>
<creation>
<date>03-08-24</date>
</creation>
<langUsage>Tamil</langUsage>
<wsdUsage>
<writingSystem id="ISO/IEC 10646">Universal Multiple-Octet Coded Character Set (UCS).</writingSystem>
</wsdUsage>
<textClass>
<channel mode="w">print</channel>
<constitution type="composite"></constitution>
<domain type="public"></domain>
<factuality type="fact"></factuality>
</textClass>
<translations></translations>
</profileDesc>
<revisionDesc></revisionDesc>
</cesHeader>

<text>
<body>




<p>குழந்தை வளர்ப்பில்
பெற்றோர் திணறுவது ஏன்?</p>

<p>எழுபிறப்பும்
தீயவை தீண்டா பழிபிறங்காப் </p><p>
பண்புடை மக்கட் பெறின்
-குறள் </p>

<p>இன்றைய குழந்தைகளுக்கு
அனைத்து வகையான வசதிகளும் வாய்ப்புகளும் கிடைப்பதி னால் அவர்களது மனநிலைக்கு
ஈடுகொடுக்க முடியாமல் பெற்றோர்கள் திணறுகின்றனர் - தடுமாறுகின்றனர். அதனால்
குழந்தைகளுக்கு சரியான வழி காட்டுதல் கிட்டாமல் போய் விடு கிறது. மேலும் பெற்றோருக்கும்
குழந்தை களுக்குமிடையேயான இடைவௌி அதிகரிக்கிறது. </p>

<p>குழந்தைகளின்
வளர்ச்சிக்கும் அவர்களின் முன்னேற்றத்திற்கும் முழுப்பொறுப்பு பெற்றோ ரையே சாரும். ஆம்,
சிறு பிராயத்தில் மனதில் நம்பிக்கை கொள்ளவும், வெற்றி பெறவும், நல்ல பழக்க
வழக்கங்களை ஏற்படுத்தவும் பெற்றோர் களும், பெரியோர்களும் தவறி விடுகின்றனர் என்றே
சொல்லலாம். </p>

<p>குழந்தைகள் நம் மூலமாக
இந்த உலகிற்கு அறி முகப்படுத்தப்பட்டாலும் அவர்களது உரிமை களையும், சுதந்திரத்தையும் மதிக்க
வேண்டும். குழந்தைகளிடம் நாம் எதனை எதிர்பார்க் கிறோமோ, நாமும் அதனை அவர்களுக்கு
செய்து வழி காட்டியாக நடந்துகொள்ள வேண்டும். அவர்களின் குறைகளை மன்னிப்பதோடு
அக்குறைகளைக் களைய வழிமுறைகளையும் சொல்லித் தருவது அவசியம். தவிர கோபமும் வெறுப்பும்
ஏற்பட்டால் உடலும் மனமும்தான் பாதிக்கப்படும். </p>

<p>தான் என்ற அகந்தையில்
வருவது வெறுப்பு. இதனை போக்க உதவும் அருமருந்து மன்னிப்பு. மன்னிக்க இயலாதவர் வாழ்வில்
மகிழ்ச்சியையும் நிம்மதியையும் இழப்பர் என்பதை உணர வைத்தல் அவசியம். அவர்களின்
நல்ல செயல்களை பாராட்டுதல் மூலம் தன்னம்பிக்கையை ஊட்ட வேண்டும். இன்றைய குழந்தைகள் அடி,
உதை, மிரட்டல்களுக்கு பயப்படுபவர்களல்ல. எனவே வன்முறையைத் தவிர்த்து அன்பை வௌிக்
காட்டக் கற்றுக்கொடுத்தால் தன்னையே புரிந்து கொள்ளக்கூடிய நிலை உருவாகலாமல்லவா?
</p>

<p>குழந்தைகளோடு
பெற்றோர்கள் செலவிடு கின்ற நேரம் சிறிதேயானாலும் அதன் தன்மை முக்கியம் ஆகும்.
அவ்வேளையில் அவர்களது கோபதாபங்களை குழந்தைகளிடம் காட்டுதல் கூடாது. மேலும் அவர்களுடன்
சேர்ந்து சிறிது நேரம் விளையாடுவதால் அவர்களுக்கு தன்னம் பிக்கையும் மகிழ்ச்சியும்
தங்களை பெற்றோர்கள் மதிக்கிறார்கள் என்ற மேலோங்கிய உணர்வும் ஏற்படும். தவிர
விளையாட்டில் வெற்றி தோல்வி என்பது அனைவருக்கும் இயல்பாய் ஏற்படுவது தான் என்பதை
தௌிவுபடுத்த வேண்டும். மேலும் அவர்களுக்கு துணிச்சலுடன் ஆபத்து, தோல்வி ஆகியவற்றை
எதிர்நோக்கும் மனப்பக்குவத்தை ஏற்படுத்தி அதன் செயல்பாட்டினை ஆதரியுங்கள். இதன் மூலம்
ஒரு புதிய கோணத்தில் பிரச்சினை களை அணுக குழந்தைகள் முயலும். துணிச்சல் இல்லையேல்
வாழ்வில் உயர வெற்றிபெற இயலாமல் வாழ்வில் முடங்கி போக வேண்டியது தான். </p>

<p>பாராட்ட வேண்டும்
</p>

<p>பெற்றோரின் உதவியின்றி
எந்த அளவிற்கு தன்னையே நம்பி செயல்படுகிறார்களோ, அதனை நாமும் அனுமதித்து
ஊக்கப்படுத்துவோ மானால் அவர்களால் உறுதியாக அந்த அளவுக்கு வளர முடியும். பிறரிடமுள்ள நல்லவைகளை
நிறைகளைக் கண்டுகொள்ளவும், அதனைப் பாராட்டவும் பழக்கப்படுத்த வேண்டும். வாழ்வில்
வெற்றியடைந்தவர்கள் அனைவருமே மற்றவரை தாராளமாகப் பாராட்டியவர்களே. அது போன்று
வாழ்க்கையில் வெற்றிக்கு அறிவு ஒன்று மட்டுமே போதுமானதல்ல. நல்லவனாகவும் பண்புள்ளவ
னாகவும் இருப்பதுமே வாழ்வின் வெற்றிப்படிக் கட்டில் மேலேற உதவும். </p>

<p>கடுமையான விமர்சனங்களோடு
வளர்க்கப் படும் குழந்தை எதையும் மட்டம் தட்டி, ஒதுக்கக் கற்றுக்கொள்கிறான். நையாண்டி
செய்து வளர்க்கப்படும் குழந்தை எதையும் கண்டு வெட்கி ஒதுங்க ஆரம்பிக்கிறான். அவமான
உணர்ச்சி யோடு வளர்க்கப்படும் குழந்தை குற்ற உணர்வு களுக்கு அடிமையாகிப் போகிறான்.
பொறுப் போடு வளர்க்கப்படும் குழந்தை நிதானத்தோடு இருக்கிறான். சரியான தூண்டுதலோடு
வளர்க் கப்படும் குழந்தை தன்னம்பிக்கையோடு திகழ் கிறான். தக்க பாராட்டுகளோடு
வளர்க்கப்படும் குழந்தை நல்லவற்றை ரசிக்கக் கற்கிறான். நியாய உணர்வோடு வளர்க்கப்படும்
குழந்தை நேர்மையைக் கடைப்பிடிக்கிறான். பாதுகாப்போடு வளர்க்கப்படும் குழந்தை மற்ற
வர்களை நம்பப் பழகுகிறான். தட்டிக் கொடுத்து வளர்க்கப்படும் குழந்தை தன்னையே புரிந்து
கொண்டவனாக இருக்கிறான். அன்பு, நட்பின் அர்்த்தம் புரிந்து வளர்க்கப்படும் குழந்தை
நிஜமான அன்பைக் கொடுக்கவும், பதிலுக்கு அதைப் பெறவும் தெரிந்து கொள்வதால் ஆயுசுப்
பர்யந்தம் நிம்மதி யாக இருக்கும் வழிவகையை உணர்ந்து கொள் கிறான். </p>

<p>சின்னப் பயலே சின்னப்
பயலே சேதி கேளடா... என்ற பட்டுக்கோட்டையாரின் பாடல் எதிர்கால செல்வங்களான
குழந்தைகள் எவ்வாறு வளர வேண்டுமென்பதை உணர்த்துகிறதல்லவா? </p>

<p>பொதுவாகவே குழந்தைகளிடம்
எதிர்மறைச் செயல்களை செய்யவோ, எண்ணவோ இடம் கொடலாகாது. மேலும் தங்களது ஆசாபாசங்
களைக் குழந்தைகள் புரிந்து கொள்ள வேண்டும் என்ற எண்ணத்தைத் தவிர்த்து அவர்களது
ஆசாபாசங்களை புரிந்துகொள்ள வேண்டும். அதை விடுத்து குழந்தைகளின் தேவைகளை
அளவுக்கதிகமாய் பூர்த்தி செய்து விட்டோம். இனி என்ன கவலை என்றில்லாமல், குழந்தைக்கு
முக்கிய தேவையே பெற்றோரின் அன்பும் அரவணைப்பும் தான் என்பதை உணர்ந்து செயல்பட
வேண்டியது அவசியம். இதுவே இன்றைய தலைமுறைக்கு அவசியம். நாளைய தலைவர்களுக்கு வழிகோலும்.
மேலும், </p>

<p>ஈன்ற பொழுதிற்
பெரிதுவக்கும் தன் மகனைச் சான்றோன் எனக்கேட்ட தாய் என்ற குறளுக்கு இலக்கணமாக
திகழ்வார்கள் என்பது திண்ணம். </p>

<p>ஆ.இரா.மூர்த்தி,
</p><p>
16/190, மேற்கு மறவர் தெரு,
</p><p>
மண்டபம் - 623 518.
</p>

<p>தமிழகத்தில்
நேற்று வறண்ட வானிலை காணப்பட்டது. . </p>

<p>முன் அறிவிப்பு:-
தமிழகம் மற்றும் புதுவையில் வறண்ட வானிலை காணப்படும். </p>

<p>சென்னை:- சென்னையில்
வானம் தௌிவாக இருக்கும். குறைந்த பட்ச வெப்ப நிலை 20 டிகிரியாக இருக்கும். .
</p>

<p>வெப்பநிலை:-
நுங்கம்பாக்கம்:- அதிக அளவு 29.8 டிகிரி செல்சியஸ். குறைந்த அளவு 20.8 டிகிரி
செல்சியஸ். ஈரப்பதம் 69 சதவீதம். </p>

<p>மீனம்பாக்கம்:- அதிக
அளவு 29.6 டிகிரி செல்சியஸ். குறைந்த அளவு 19.4 டிகிரி செல்சியஸ். ஈரப்பதம் 82
சதவீதம். </p>

<p>www.kvsangathan.org</p>

<p>   
இந்தியா முழுவதும் 'கேந்ரிய வித்தியாலயா' என்ற பெயரில் 350 பள்ளிகளை நடத்தி வரும்
கேந்்திய வித்தியாலயா சங்கதன் என்ற அமைப்பிற்கு சொந்தமான தளம் இது. இந்த 850
பள்ளிகளில் மொத்தம் 7 லட்சத்து 42 ஆயிரம் மாணவ-மாணவிகள் பயின்று வருகின்றனர். பதிவு
செய்யப்பட்ட 47 ஆயிரம் அலுவலர்கள் பணிபுரிகிறார்கள். இந்தப் பள்ளிகள் 1965-ம் ஆண்டு
தொடங்கப்பட்டன. எதிர்கால இந்தியாவை உருவாக்கும் வகையில் , இந்திய உணர்வை ஊட்டும்
வகையில் செகன்டரி அளவில் கல்விப்பணியினை ஆற்றிவரும் பள்ளிகள் இவை. இந்தப் பள்ளிகள்
பற்றிய தகவல்களையும் தரும் பிரத்யோக வெப் தளம் இது.</p>

<p> </p>

<p>பெருங்காரையடி அய்யனார்</p>

<p>
 
 
  
  
  
  
  
  
  
  
  
  
  
  
 
 
 

 
<gap desc="illustration"></gap></p>

<p>   
குளமங்கலம் அருள்மிகு பெருங்காரையடி மீண்ட அய்யனார் என்றால், அது ஒரு பிரபலத் தெய்வம்,
தமிழகத்தின் பல்வேறு பகுதிகளிலிருந்து மாயூரம், மன்னார்குடி, திருநெல்வேலி, மதுரை,
திண்டுக்கல், சிவகங்கை, தஞ்சாவூர், திருச்சி, பெரம்பலூர், புதுக்கோட்டை,
பட்டுக்கோட்டை, பேராவூரணி மற்றும் பல்வேறு பகுதியிலிருந்தும் பல்லாயிரக்கணக்கில்
பக்தர்கள் திரண்டு வந்து ஆண்டு தோறும் அய்யனாரை வணங்கிச் செல்கிறார்கள். </p>

<p>   
அய்யனார் காட்சித் தோற்றம் பெற்ற காலம் அறுதியிடுவதற்கில்லை தொடக்கத்தில் ஒரு காரை
மரத்தடியில் அய்யனார் தோற்றம் பெற்ற நாள் முதல் அப்படியே வைத்து வணங்கி வந்து பிறகு
கோவில் கட்டியுள்ளார்கள். </p>

<p>   
சோழ மன்னர்கள் காலத்தில் கட்டிய கோவில்களில் தொலை விலிருந்து வௌ்ளை கற்களைக்
கொண்டுவந்து, வௌ்ளை கற்களாலேயேதான் கட்டப்பட்டுள்ளது. </p>

<p>   
அண்மை ஊர்களிலிருந்து கருங்கற்கள் கொணர்ந்து அவைகளாலேயே அடித்தளமிட்டு அக்காலச் சுட்டமண்
செங்கலால் கட்டப்பட்டுள்ளது. </p>

<p>   
ஸ்தல வரலாறு- ஒரு நாள் ஆடு, மாடு மேய்த்துக் கொண்டிருந்த சிறுவர்கள் கோவில் கட்டி விளையாட
விரும்பி, மண்ணில் கோவில் கட்டியுள்ளார்கள். அதற்கு பலி கொடுத்து விளையாட ஒரு ஆட்டைக்
கொண்டு வந்து நிறுத்தினார்கள். அந்த ஆட்டை வெட்ட களிமண்ணால் ஒரு அறிவாள் செய்தார்கள்.
ஒரு பையனுக்கு அருள் வந்து ஆடி களிமண் அரிவாளை எடுத்து ஓங்கி ஆட்டை வெட்டினான். </p>

<p>    ஆடு
துண்டாகி விழ, அளவிற்கு மீறிய ரத்தம் அதிலிருந்து கொட்டச் சிறுவர்கள் பயந்து ஊருக்குள்
ஓடி,அதைச் சொல்ல, ஊர்ப் பெரியவர்கள் வந்து பார்த்து அதிசயப்பட்டு அந்த இடத்தில்
மாபெரும் சக்தி இருப்பதைக் கண்டு அங்கு கோவில் கட்டினார்கள். காரை செடிகளுக்கு மத்தியில்
அவர்கள் கோவில் கட்டியதால் அந்தக் கோவில் பெருங்காரையடி அய்யனார் என்ற பெயர்
பெற்றது. அய்யனார் சுவாமி பொதுவாக எல்லா கிராமங்களிலும் காவல் தெய்வமாக இருந்து வரும்
கிராம தெய்வமாகும். அய்யனார் கோவிலை தாண்டி செல்பவர்கள் எவராயினும் - அய்யனாரை
வணங்காமல் சென்றால் போகும் காரியம் ஜெயிக்காது என்பதும் ஐதீகம். </p>

<p> </p>






</body></text></cesDoc>