<cesDoc id="tam-w-dinakaran-other-02-12-05" lang="tam">
<cesHeader type="text">
<fileDesc>
<titleStmt>
<h.title>tam-w-dinakaran-other-02-12-05.txt</h.title>
<respStmt>
<respType>Electronic file created by</respType>
<respName>Department of Linguistics, Lancaster University</respName>
<respType>text collected by</respType>
<respName>Paul Baker and Celia Worth</respName>
<respType>transferred into Unicode by</respType>
<respName>"Unicodify" software by Andrew Hardie</respName>
</respStmt>
</titleStmt>
<publicationStmt>
<distributor>UCREL</distributor>
<pubAddress>Department of Linguistics, Lancaster University, Lancaster, LA1 4YT, UK</pubAddress>
<availability region="WORLD"></availability>
<pubDate>03-08-24</pubDate>
</publicationStmt>
<sourceDesc>
<biblStruct>
<monogr>
<h.title>"Dinakaran" internet news (www.dinakaran.com), news stories collected on 02-12-05</h.title>
<h.author>Dinakaran</h.author>
<imprint>
<pubPlace>Tamil Nadu, India</pubPlace>
<publisher>Dinakaran</publisher>
<pubDate>02-12-05</pubDate>
</imprint>
</monogr>
</biblStruct>
</sourceDesc>
</fileDesc>
<encodingDesc>
<projectDesc>Text collected for use in the EMILLE project.</projectDesc>
<samplingDesc>Simple written text only has been transcribed. Diagrams, pictures and tables have been omitted and their place marked with a gap element.
</samplingDesc>
<editorialDecl>
<conformance level="1"></conformance>
</editorialDecl>
</encodingDesc>
<profileDesc>
<creation>
<date>03-08-24</date>
</creation>
<langUsage>Tamil</langUsage>
<wsdUsage>
<writingSystem id="ISO/IEC 10646">Universal Multiple-Octet Coded Character Set (UCS).</writingSystem>
</wsdUsage>
<textClass>
<channel mode="w">print</channel>
<constitution type="composite"></constitution>
<domain type="public"></domain>
<factuality type="fact"></factuality>
</textClass>
<translations></translations>
</profileDesc>
<revisionDesc></revisionDesc>
</cesHeader>

<text>
<body>




<p>சாதியற்றோருக்கு
இடஒதுக்கீடு தாரீர்</p>

<p>  </p><p>
தாழ்த்தப்பட்டோரை மணம்
புரியும் கலப்புத் திருமண தம்பதியர் குழந்தைகளுக்கு கல்வி மற்றும் வேலை வாய்ப்பில்
இடஒதுக்கீடு அளிக்கப்பட வேண்டுமென்று அரசியல் சட்ட மறு ஆய்வுக் கமிஷன் அரசுக்கு
பரிந்துரைத்துள்ளது. கலப்புத் திருமணத் தம்பதியர்களின் குழந்தைகளை சாதி இல்லாதவர் என்று
வகைப்படுத்தி அவர்களுக்கு 1/2 சதவீத இடஒதுக்கீடு அளிக்கப்பட வேண்டும் என்றும் கமிஷன்
பரிந்துரைத்துள்ளது. சாதியற்றவர்களுக்கு இட ஒதுக்கீடு நம் நாட்டில் வராதா? என
பன்்னெடுங்காலமாய் காத்திருப்போர் பலர். </p>

<p>
 
 
  
  
  
  
  
  
  
  
  
  
  
  
 
 
 

 
 
<gap desc="illustration"></gap>உலகில் முதன்முதலாக தோன்றிய மனிதனிடம் மதம், சாதி என்பது இல்லை. அவன்
இயற்கையை வணங்கினான். ஆம் சூரியனையும், நீரையும், காற்றையும் வணங்கினான். காரணம்
இம்மூன்றும்தான் மனிதன் வாழ்வதற்கு இயற்கையாக கிடைக்கும் இன்றியமையாதவைகள் என்று
எண்ணினான். ஆரம்பத்தில் கூட்டம் கூட்டமாக வாழ்ந்தான், ஊர் ஊராக திரிந்தான்,
காலப்போக்கில் உறவுகளை ஏற்படுத்திக் கொண்டான், வேட்டையாடினான். விவசாயம் செய்தான்,
வணிகனானான், அதே நேரத்தில் அவனிடம் தெய்வ வழிபாடும் ஏற்பட்டது. </p>

<p>வருணாசிரம கோட்பாட்டினால் மெல்லமெல்ல சாதியை புகுத்தினார்கள். மூட
நம்பிக்கைகளை வளர்த்தார்கள். மக்களை வேறுபடுத்தினார்கள். அடுத்து நான்கு வர்க்கமாக்கி
பிறகு நாலாயிரம் சாதி என்றாக்கி, சமுதாயத்தின் ஒருமை உணர்வை சிதைத்தார்கள்.
</p><p>
  </p>

<p>சாதி வெறி </p>

<p>இந்து மதம், கிறிஸ்தவ மதம், இஸ்லாமிய மதம், பவுத்த மதம் என நம் நாட்டில் பல
மதங்களை கொண்டோர் ஆட்சிபுரிந்ததால் பல்வேறு மதங்கள் நம்நாட்டில் வேரூன்றின.
சாதியின் கொடுமைகளாலும், மதவாத வெறியினாலும் மக்கள் மதம் மாற ஆரம்பித்தனர். அதனால்
மதச்சண்டைகளும் சாதிச்சண்டைகளும் நாௌாருமேனியும் பொழுதொரு வண்ணமாக வளர்ந்து, இந்தியா
முழுவதும் கொழுந்துவிட்டு எரிந்து, இன்று கொடிகட்டி பறக்கின்றது. சாதிவெறி இந்திய நாட்டில்
வேரூன்றி மனிதனையே தீண்டத்தகாதவன் என்று முத்திரை குத்தி சமுதாயத்தை பாழும் குழியில்
தள்ளி, தலைதூக்கவிடாமல் தடுத்து வருகின்றது. ஆனால் சாதிவெறி பிடித்தோரோ மதம் கொண்டு
ஆடுகின்றனர். </p><p>
  </p>

<p>அனைவரும் ஆதரிப்பர் </p>

<p>சுதந்திரம் பெற்று 50 ஆண்டுகளுக்கு பிறகாவது சாதி, தங்களை விட்டு வௌியேறி, மனித
நேயத்திற்கு மதிப்பளித்து, சாதி சமயமற்ற சமதர் மத்திற்கு வித்திட்டு கடந்த கால
கொடுமைகளை அகற்றி ஒற்றுமையாய், ஒருமித்த கருத்தோடு எதிர்காலம் எழில்மயமாய் உருவாக
காதல் திருமணங்கள் குறிப்பாக கலப்புத் திருமணங்கள் மூலம்தான் சாதியற்ற சமுதாயம் உருவாக்க
முடியும் என்பதை நாம் ஏற்றுக்கொள்ள வேண்டும். அப்படிப்பட்ட திருமணங்கள் தனிமனித உணர்வு
கொண்டவை என்று கருதாமல் அதில் மிகப்பெரிய சமூக நலனும் அடங்கியுள்ளது என்பது ஒரு பார்வை.
இதுபோன்ற திருமணங்களை ஊக்குவிக்கும் முறையில் கலப்புத் திருமணத் தம்பதியர்களின்
குழந்தைகளை சாதி இல்லாதவர் என்று வகைப் படுத்தி அவர்களுக்கு 1/2 சதவீத இடஒதுக்கீடு
அளிக்கப்பட வேண்டும் என அரசியல் சட்ட மறு ஆய்வு கமிஷன் அரசுக்கு பரிந்துரைத்துள்ளது.
பொதுநலத்திற்காக அரசியலில் உள்ளோர் அனைவரும் உடனடியாக இதனை ஏற்று மத்திய அரசை
வலியுறுத்தி அரசியல் சட்டத்தில் திருத்தம் கொண்டுவர முன்வர வேண்டும். </p>

<p>முடிந்தால் அரசியல் சட்ட மறு ஆய்வு கமிஷன் அரசுக்கு பரிந்துரைத்த 1/2 சதவீதம்
என்பதை 10 சதவீதமாக உயர்த்தி, 5 சதவீதம் தாழ்த்தப்பட்ட அல்லது பழங்குடியினர்
வகுப்பைச்சார்ந்த கலப்புத் திருமண தம்பதியர்களுக்கும், மீதமுள்ள 5 சதவீதம்
பிற்படுத்தப்பட்டோர் மற்றும் மிகவும் பிற்படுத்தப் பட்டோர் வகுப்பைச் சார்ந்த கலப்பு
மண தம்பதியர்களுக்கு என்று தீர்மானம் கொண்டு வந்தால் பாராளுமன்ற உறுப்பினர்கள் அனைவரும்
முழு ஆதரவு தருவார்கள் என்று நம்புகிறேன். </p>

<p>கலப்புத் திருமணத்தில் கல்வி மற்றும் வேலை வாய்ப்பில் (அரசு மற்றும் தனியார்)
இடஒதுக்கீடு உண்டு என்ற நிலை ஏற்பட்டால், இடஒதுக்கீட்டால் பயன்பெறுவோர் ஒருசிலராக
இருந்தாலும், </p>

<p>1) நாட்டில் கலப்பு திருமணத்தை எதிர்ப்போர் குறைவர். </p>

<p>2) சாதிவெறி பிடித்தோர் தன்னுடைய பிடிவாதத்தை தளர்த்திக்கொள்வர்.
</p>

<p>3) கலப்புத் திருமணங்களுக்கு தடைபோடுவதால் விஷம் அருந்தி மாய்வோர், தூக்குக்
கயிற்றில் தொங்குவோர், ரெயில் முன் பாய்வோர், தீக்குளித்து கருகுவோர் போன்ற
தினந்தோறும் நடைபெறும் காதல் தற்கொலைகள் முடிவுக்கு வரும். </p>

<p>4) பாரதி சொன்ன காதல் எனும் பயிர் மாய்க்காமல் பாதுகாக்கப்படும்.
</p>

<p>5) தந்தை பெரியார், அம்பேத்கர் போன்றோர் ஊக்குவித்த கலப்பு மணங்கள்
புத்துயிர் பெறும். </p>

<p>6) மெல்ல, மெல்ல சாதி இனி சாகும். </p>

<p>7) சமத்துவம் தோன்றும். </p>

<p>எனவே எது எதற்கோ தீர்மானங்கள் போடும் நாம் இதுபோன்ற சமுதாய மேம் பாட்டிற்கு
அனைத்து அரசியல் கட்சிகளும், அனைத்து மாநில சட்டமன்றங்களும், தீர்மானங்கள் நிறைவேற்றி
சாதியற்றவர் களுக்கு இடஒதுக்கீடு கிடைப்பதற்கு நாமும் காரணமாக இருந்தோம் என்று வரலாற்றில்
இடம் பெறுவோம்.   </p>

<p>மு.பாலன் எம்.ஏ., </p>

<p>தலைவர், மானுட உரிமைக்கழகம் </p>

<p>21, டாக்டர் ராம்தெரு, </p>

<p>சென்னை- 600 011.  </p>

<p>சோமவார விரதம்</p>

<p> </p>

<p>சோமவார விரதம் சிவனுக்கு உகந்தது. கார்த்திகை மாதம் வரும்
திங்கட்கிழமைதான் சோமவார விரதமாகக் கடைப்பிடிக்கப்படுகிறது. இந்த விரதத்தை
மேற்கொண்டுதான் சந்திரன் சிவன் முடியில் இடம் பெற்றான். இவ்விரதத்தை அனுஷ்டித்து
வசிஷ்டர் தன் மனைவியை அடைந்தார் என புராணங்கள் கூறுகின்றன. </p>

<p>ஒரு சமயம் சோமவார விரதத்தை எப்படிக் கடைப்பிடிப்பது? என்று பார்வதி தேவி
சிவபெருமானிடம் கேட்டார். அதற்கு சிவன் பார்வதி தேவியிடம் கீழ்க்கண்டவாறு சோமவார
விரத மகிமையை எடுத்துரைத்தார். </p>

<p>விரதம் இருப்பது எப்படி? </p>

<p>
 
 
<gap desc="illustration"></gap>அதிகாலையில் எழுந்து தினசரி கடன்களை முடித்துக் குளித்த பின்பு, சிவபூஜை
செய்யும் ஒரு வேதியர் தம்பதியினரை அழைத்து வர வேண்டும். </p>

<p>அவர்களை சிவ, பார்வதியாகப் பாவித்து அவர்களுக்குத் தானம் செய்ய வேண்டும்.
</p>

<p>விரதமிருக்கும் அன்று, பகல் முழுவதும் உண்ணாமல் இருந்து, முன் இரவு ஒருவேளை மட்டும்
உணவருந்த வேண்டும். </p>

<p>வீட்டில் பூஜை செய்ய வசதியில்லாதவர்கள் அருகிலுள்ள சிவாலயத்திற்குச் சென்று
அபிஷேக, ஆராதனை செய்து அடியவர்களுக்கு அன்னதானம் செய்து விரதத்தை நிறைவு செய்தல்
வேண்டும் என்று கூறினார். </p>

<p>சோமவாரத்தில் குற்றாலத்தில் நீராடி, குற்றால நாதரையும், குழல்வாய்மொழி
அம்மையையும் தரிசிப்பது நல்லது. சுசீந்திரம் தாணுமாலய சுவாமியை வழிபாடு செய்வதும்
சிறந்தது. பொதுவாக பெண்கள் கடைப்பிடிக்கும் இவ்விரதத்தை ஆண்களும் மேற்கொண்டு நல்ல
துணைவியை அடையலாம்.   </p>

<p>- சக்தி. விண்மணி, போடிநாயக்கனூர்.  </p>

<p> </p>






</body></text></cesDoc>