<cesDoc id="tel-w-literature-essay-abhi2" lang="tel">
<cesHeader type="text">
<fileDesc>
<titleStmt>
<h.title>tel-w-literature-essay-abhi2.txt</h.title>
<respStmt>
<respType>Electronic file created by</respType>
<respName>Central Institute for Indian Languages, Mysore</respName>
<respType>transferred into Unicode and CES format by</respType>
<respName>"Unicodify" software by Andrew Hardie</respName>
</respStmt></titleStmt>
<publicationStmt>
<distributor>UCREL (on behalf of CIIL)</distributor>
<pubAddress>Department of Linguistics, Lancaster University, Lancaster, LA1 4YT, UK</pubAddress>
<availability region="WORLD"></availability>
<pubDate>03-08-13</pubDate>
</publicationStmt>
<sourceDesc>
<biblStruct>
<monogr>
<h.title>అభినందన</h.title>
<h.author>ఆచార్య తూమాటి దొణప్ప షష్టిపూర్తి కానుక</h.author>
<imprint>
<pubPlace>India</pubPlace>
<publisher>Unknown - Book</publisher>
<pubDate>1987</pubDate>
</imprint>
<idno type="CIIL code">abhi2</idno>
</monogr></biblStruct></sourceDesc></fileDesc>
<encodingDesc>
<projectDesc>Text collected for the CIIL Corpus, subsequently integrated into the EMILLE/CIIL Monolingual Written Corpora.</projectDesc>
<samplingDesc>Simple written text only has been transcribed. Diagrams, pictures and tables have been omitted. Sampling begins at page 38.</samplingDesc>
<editorialDecl><conformance level="1"></conformance></editorialDecl>
</encodingDesc>
<profileDesc>
<creation><date>03-08-13</date></creation>
<langUsage>Telugu</langUsage>
<wsdUsage>
<writingSystem id="ISO/IEC 10646">Universal Multiple-Octet Coded Character Set (UCS).</writingSystem>
</wsdUsage>
<textClass>
<channel mode="w">print</channel>
<constitution type="composite"></constitution>
<domain type="public"></domain>
<factuality type="fact"></factuality>
</textClass>
<translations></translations>
</profileDesc>
<revisionDesc></revisionDesc>
</cesHeader>

<text><body>

<p> తెలుగు సంస్కృతి
 ఆచార్య కొత్త సచ్చిదానందమూర్తి
 విశ్వవిద్యాలయ అ఩ువాద ఆయోగ ఉపాధ్యక్షులు
 బహుదూర్ షా జాఫార్ మార్గ్,
 న్యూఢిల్లీ.
 ------------------------------------
పేజి 1
 "................................
 ....ఉపనిషత్తులు బోటులై యోలగింప
 బుండరీకాసనమున గూర్చుండి మదికి
 నించు వేడుక వీణ వాయించు చలువ
 నలువరాణి మదాత్మలో వెలయుగాత. "
 -పెద్దన
 మాననీయ విద్యాశాఖా మంత్రి
మహోదయా! శ్రీమాన్ కుపతి మహాశయా! మిత్రులారా!
తెలుగు విశ్వవిద్యాలయ ప్రథమ వ్యవస్థాపనోత్సవ
సందర్బంగా ఏర్పాటైన ఈ సమావేశంలో
ప్రసంగించమని ఆహ్వానించి గౌరవించిన
కులపతులకు, వారి సహచరులకు నా ధన్యవాదాలు.
 సంస్కృతాంద్రాలలోని వైజ్ఢానిక,
తాత్త్విక, కళా, సాహిత్య విషయాలపైన,
తెలుగువారి చరిత్ర నాగరికతలపైన గవేషణకు,
ఈజ్ఞానక్షేత్రాల విస్తారానికి, ఈ సంస్థను స్థాపించి,
దీనిక఼ధ్యక్షులనుగా భాషాశాస్త్ర, సాహిత్య
విమర్శలలో లబ్ధప్రతిష్ఠులైన ఆచార్య దొణప్ప గారిని
నియమించి, దీనికి అఁగబలం అర్థబలం చేకూర్చిన
ఆంధ్రప్రదేశ్ ముఖ్యమంత్రి, తెలుగు
విశ్వవిద్యాలయ కులాధిపతీ అయిన కళా ప్రపూర్ణ డాక్టర్
నందమూరి తారకరామారావుగారు
అభినందనీయులు. ప్రాచీనాంధ్రవేభవాన్ని ఇతోధికంగా
ప్రకాశపరుస్తూ, సర్వతోముఖమైన,
ఆంద్రసంస్కృతి వికాసానికి ఈ విశ్వవిద్యాలయం
మహత్కృషి చేస్తుందని ఆశిస్తున్నాను.
 సరిగ్గా ఆలోచిస్తే"మాతామే పార్వతీదేవి,
పితాదోవోమహేశ్వరః , భ్రాతరో మనుజాః, సర్వే,
స్వదేశో భువనత్రయమ్ ". నా తల్లిదండ్రులు
పార్వతీ పరమేశ్వరులు, మనుష్యులందరూ
సహోదరులు. త్రిలోకాలు నాకు స్వదేశమే. అయినా
కల్హణుడన్నుట్టు" స్వదేశో యంవిదేశో యమితి
బుద్ధేఃప్రవర్తక఼ఃఅన్వయవ్యతిరేకాభ్యాంస్థిత్యభ్యాసః
శరీరిణామ్". ఇది నా దేశం, ఇది విదేశం అనే
భావం మనుష్యుడికి కలగటానికి కారణం
అతడెక్కడుంటాడో దానిలో లగ్నం కావటం; ఎక఼్కడుండడో
పేజి 2
దానిలో లగ్నంకాక పోవటమున్ను.
అందుచేత ఏ దేశమూ పుణ్యభూమీ కాదు.
సర్వశ్రేష్ఠమూ కాదు; ఏ జాతిని కూడ అనన్యంగా
భగవంతుడు వరించనూ లేదు. విశ్వమానవుడు
వాస్తవిక పురుషుడు కాడు. వాస్తవిక పురుషుడు;
ఒకానొక సంస్కృతిచే సృష్టించబడి అందులో
అంతర్భావం చెందికూడా తదాత్మకుడు కానివాడు
ఒక వ్యక్తిలో మూర్తిమంతమైన సంస్కృతే
పరిణత మానవుడు; అది అనేక సహస్ర
సంవత్సరాల సామూహిక మానవసంచితమగు
ప్రయత్నపుపలితం. ఏగొప్ప సంస్కృతి కూడా
సర్వవిశిష్టమూ సమగ్రమూకాదు, అయినా
మనుష్యుడు స్వసంస్కృతినిష్ఠుడై స్వదేశానురాగియై
ఇతర సంస్కృతులతో సంసర్గం, ఇతర
దేశాలపట్ల గౌరవం కల్గినప్పుడే పూర్ణవికాసాన్ని
పొందుతాడు. * స్వస్థానవేష భాషాభిమానులు సజ్జనులని
నన్నయ చెప్బింది యథార్థం.
 భారతీయ రాజనైతిక సాంవైధానిక
సూత్రాన్ని శ్రీఅరవిందులు ఈ విదంగా
వివరించారు; అది ఉచ్చతమ సమన్విత ప్రాధికారంతో
కూడిన సాముదాయిక స్వాతంత్య్ర స్వయం
నిర్ణయాల మిశ్రమం; దానికి కార్యక్షమతకు
అనువైనశక్తులు, స్థానం, గౌరవం ఉంటయ్ కాని అవి
దాని సముచిత అధికారాలకు కృత్యాలకు లోబడి
ఉంటయ్; అది మిగతా వాటిచే నియంత్రితమై
వాటిని నియంత్రించుతూ ఉంటుంది, వాటిని తన
క్రియాశీలక సహభాగస్వాములనుగా
స్వీకరిస్తూంది; దాని అంతర్భాగాలైన సంఘటన
సముదాయాలు; అదికూడా ధర్మంచే నిగ్రహింపబడి
ధర్మాన్ని పోషిస్తయ్ రాష్ట్రానికి
ప్రాధికారమేగాని, నిరపేక్షమైన పూర్ణపరమాధికారం ఉండదు;
దాని లక్ష్యం ప్రాంతీయ సాముదాయిక
స్వాతంత్య్రాన్ని సమన్వితం చేయటం, యాంత్రిక
ఐక్యత కాదు. సంధానీయ గణరాజ్యం (కాన్
పెడరేటెడ్ రిపబ్లిక్) భిన్న స్వాయత్తతలను
సమీకరించి వాటిని ఒక స్వతంత్ర సావయవ
జివద్వ్యవస్థలో సమన్వయం చేయటానికి సాధనం
అని భారతీయ అవధారణ. ప్రాధికారం గల
కేంద్ర కేవలం ప్రశాసనీయ యంత్రమై తన
అధీనంలో ఉన్న స్వాయత్తతలను క్రమంగా
బలహీనపర఼చి నిర్వీర్యం చేయటం; బలహీన
కేంద్రీయ ప్రాధికారపు కృత్రిమ ఏకీయ
శాసనానికి ప్రతికూలంగా ప్రాంతీయతలు ఉపోద్బలనం
చెందటం - ఈ ద్వివిధ ప్రవృత్తుల వల్లనే
భారతజాతీయ రాజకీయ ఐక్యత పరిపుష్టం కాలేద఩ీ
కొన్నిసారులు కొంతవరకు అది సాధింపబడినా
విభిన్నమైందనీ ఇతిహాసం చూపిస్తుంది.
ఈవిధంగా శ్రీఅరవిందులు మన దేశంలోని
కేంద్రాపగ కేంద్రాభిగ శక్తుల్ని భారతీయ ఆదర్శానికి
అనుగుణఁగా ఎట్లా సంతులనం చేయాల్లో
ఉద్భోదించారు. (ఈ భావాలన్నిటికి ఆయన
వ్రాసిన "ది ఫౌండేషన్స్ ఆప్ ఇండియన్
కల్చర్", పాండిచెరి, 1975 చూడండి) `ప్రతి
పేజి 3
పౌరుడు తాను ముందు భారతీయుడననీ, ఆ
తరువాతనే తెలుగువాడననీ చెప్పుకో' వాలన్న
మన ముఖ్యమంత్రిగారు అభిప్రాయం దీనకి
అ఩ుగుణంగానే ఉంది (చూ:ఈనాడు, పుట2,
10-7-1983, విశాఖ పట్టణం) ఏరాష్ట్రానికి
చెందినా మనం భారతీయులమన్న విషయం
మరవవద్దు అని 19-11-86 నాడుకూడ వారు
చెప్పారు (చూ:ఈనాడు, పుట 1, 20-11-86,
విశాఖపట్టణం).
 తెలుగు సంస్కృతిని కొంత మననం చేసే
ముందు సంస్కృతిని గూర్చిన బారతీయ
ఆలోచనను కొంచెం అవలోకిద్దాం. యజుర్వేదంలోను
(VII. 14), శతపథబ్రాహ్మణంలోను (IV.
2.1.22-28) `సాప్రథమా సంస్క఼ృతిర్విశ్వవారా':
సమీచనమైన కృతి విశ్వమంతటిచే వరణీయ
మైంది. అంటే సరైన జనతా జీవితవిధానం
అందరిచేత స్వీకరింపబడటానికి యోగ్యం,-
అని ఉంది. విశ్వవరణీయమైన మూలసంస్కృతి
అందరికి ఆదర్శభూతమైన క్రియావిధానం, ఒకటే;
లౌలిక సాంస్క౉తిక నానాత్వానికి మూలలక్ష్యం
ఒకటే అని తాత్పర్యం. విద్యగ్రహణం చేసినాక
అర్థాలచే గార్ఙస్థ్యాన్ని అధిగమించి నాగరిక
వృత్తాన్ని వర్తించాలని వాత్య్సాయనుని ఉక్తి.
విదగ్ధజనుడు నాగరికుడని యశోధరుడు
వివరించగా, లోకశాస్త్రనిష్ణాతుడు విదగ్ధుడని
"సర్వతంత్ర సిద్ధాంత పదార్థలక్షణ సంగ్రహం"
చెప్పింది తత్త్వశాస్త్రం, కవిత్వం ఏ చరమ
సద్భుద్ధిని (అల్టిమేట్ గుడ్ సెన్స్)అభివ్యక్తం
చేయటానికి ప్రయత్నిస్తున్నయోదాన్ని
అలవర్చుకుని సాధ్యమైనంత ఉత్తమ జీవనాన్ని గడపటం
నాగరికత అని ఎ.ఎన్. హ్వైట్ హెడ్. సత్యం,
సౌందర్యం, ఉద్యంమం (=నూతన పరిపూర్ణతల
కన్వేషణ), కళ, శాంతి (=సౌందర్యపు
ప్రాముఖ్యాన్ని గమనించి, సౌందర్య జగత్తులో నైతిక
న్యాయమే జయిస్తుందని, అదే సామరస్యమనే
ప్రగాఢ అంతర్దృష్టి)ఇవి ప్రధానలక్షణాలుగాగల
మనుష్యునికి లేదా సంఘానికి నాగరికత ఉన్నట్టని
-హ్వైట్ హెడ్ వివరించాడు. ("ఎడ్వెన్ చెర్స్
ఆప్ ఐడియాస్ " కేంబ్రిడ్జి, 1933).
 ఇందాక ఉదాహరించిన ప్రాచీనవాక్యం,
వాత్య్సాయన యశోధరులు, ఈ పాశ్చాత్య
తత్త్వజ్ఞఢు చెప్పింది ఆదర్శ సంస్కృతి లేక
నాగరికతను గూర్చి. దాని ప్రకారం సంస్కృతి
-నాగరికతలకు పెద్దగా భేదం ఉండదు. ఛేంబర్స్
నిఘంటువు కూడా వీటిని (కల్చర్ - సివిలిజేషన్)
సమానార్థకాలుగా ఎంచి, అది కృషి లేక సాధన వలన
వచ్చిన పరిష్కారం (పిఫైన్ మెంట్) అ఩ి;
పరిష్కారం అంటే విశుద్ధీకరణం, స్పష్టీకరణం
లేక అశిష్టత, మోటుతనం ఩ుంచి ముక్తిచెందటం
అని చెప్పింది. ఆ ఆసక్తుల, అభిరుచుల
(ఇంటరెష్టెస్, టేష్ట్ స్ ) పరిష్కారం నాగరికత అని
ఛేంబర్స్ తాత్పర్యం. మానసిక లేక భశ్రౌతిక
శిక్షణచే వచ్చే అభివృద్ధి చిత్తవికాసం.-ఇవి
సంస్కృతికర్థాలని ఆక్స్ ఫర్డ్ నిఘంటువు అన్నది.
సమ్యగ్విచారం చేస్తే, పట్టణాల్లో ఉండేవారికి
మోక్షం అసాద్యమనే బోధాయనాదుల వాదం,
గ్రామాల్లో కొద్దికాలం నివసించినా ఇంద్రియ
సంవేదనశక్తికి చెరువు
వాటిల్లుతుందని,రసాస్వాదనాసామర్థ్యం, లుప్తమౌతుందనే ఈశ్వరదత్తా
దులవాదం అసత్యాలు.
 ఇంకో మార్మక ప్రాచీనవచనం ఉంది.
సంస్కృతిని గురించి . "ఆత్మసంస్కృతిర్వావ
శిల్పాని ...చందోమయం వా ఏతైర్యజమానః
పేజి 4
ఆత్మానం సంసురతే; అ఩ి ఐతరేయ బ్రాహ్మణం
శిల్పాలన్ని ఆత్మసంస్కృతే;ఛందోమయాలైన వీటి
ద్వారాకర్త తననుతాను సంస్కరించు కొంటాడు.
ఛందస్సంటే విశ్వ సృష్టి స్థితి గతుల వెనుకనున్న
నియమ వ్యవస఼్థ. దానికనుకూలమైన అనుశాసనం
ద్వారా జావితాన్ని గడవటంవలన జీవితంఛందితం
(=అనుశాసితం) అవుతుంది. జీవితంలో
విశ్వవ్యాప్తమైన నియమాన్ని
-ఋతాన్ని-అ఩ువర్తించటం దాన్ని ఛందోమయంచేసుకోవటం. ప్రకృతి
రచించిన పదార్థాలన్ని దేవశిల్పం; దాని అనుకృతి
మానవ శిల్పం లోహాలతోను, షాషాణాలతోను
చేసే నిర్మాణాలే శిల్పాలు కాదు. చేసేదంతా
శిల్పమే. అయితే ఆ కృతి దేవశిల్పానికి అనుకృతి
జీవితాన్ని శిల్పంగా మలచటం ఆత్మను
సంస్కరించుకోవటం. సంతాన ప్రజననాన్ని
ఐతరేయబ్రాహ్మణం ఒక శిల్పంగా పేర్కొని,
ఏజైవికక్రియ అయినా శిల్పం కావచ్చని సూచించింది.
తరువాత చాలా వందల సంవత్సరాలకు కర్మల్లో
కౌశలమే యోగమని నిర్ణయం.
 ఆత్మసంస్కరణాన్ని గురించి గొప్ప
అంతర్దృష్టితో చెప్పిన మహావాక్యాన్నొక దాన్ని
మొదటగా ఉదాహరించి ఒక ఉద్గ్రంథాన్ని
రచించాడు గుంటూరు జిల్లాలోని నెమలిగుడ్డు
పల్లిలో దాదాపు 1500 ఏండ్లనాడుండిన
బుద్ధఘోషుడు. మహాయాన బౌద్ధానికి అంటే భూటాన్,
టిబెట్, మంగోలియా, కొరియా, చైనా, జపాన్,
లను ప్రాభావితం చేసిన బౌద్ధానికి నాగార్జునుడెట్లా
పరమప్రామాణికుడో; థేరవాద బౌద్దానికి అంటే
సింహళం, బర్మా, థాయిలాండ్, కంపూచియాలకు
వ్యాపించిన బౌద్దానికి బుద్ధఘోషుడు అట్లాపరమ
ప్రామాణికుడు. వీరిద్దరూ ఆంధ్రులవటం మనకు
గర్వకారణం బుద్ధఘోషుని "విసుద్ధిమగ్గ " (=
విశుద్ధిమార్గ) మంతాశ్లోకటిప఼్పణ మనవచ్చు : ఈ
"శీలేపతిఠ్ఠాయ నరో సపన్నో, చిత్తన్ పన్నాన్
చ భావయన్ అతాపి నిపాకో భిక్కు, సో ఇమన్
విజటయే జటస్." ప్రజ్ఞావంతుడైన నరుడు
శీలంలో ప్రతిష్ఠితుడై, చిత్తాన్ని ప్రజ్ఞను భావించగా,
వివేకోత్సాహాలుకల్గి భిన్నక్లేశుడైక్లేశజాలాన్ని విడ
దీసి పారవేయగల్గుతాడు- అని దీని అర్థం.
చిత్తమంటే కుశలచిత్తైకాగ్రత; ప్రజ్ఞ అంటే కుశలచిత్త
సంప్రయుక్తమైన విపశ్యనాజ్ఞానం: భావన అటే
పర్యాలోచన, భావించేవాని భావనానుకూలమైన
వ్యాపారాది విశేషం. "భావించగా" అంటే
"అభివృద్ది చేయగా" (డెవలప్ స్ అ఩ి ఞ఼ణమోలి,
"బాగా శిక్షణ చేయగా" (ట్రెయ్ నెత్ వెల్) అని
వారెన్, ఆంగ్లంలోకి అనువదించారు. ఇంతకూ ఈ
శ్లోకం "సంయుత్త నికాయ" మనే బౌద్ధాగమం
లోనిది.
 భూమిని కర్షణ (=కల్టివేట్) చేస్తే,
అనుర్వరంగా ఉఁది ఉర్వరమైనట్టు, శీలవంతుడై
చిత్తభూమిని విపశ్వయనాజ్ఞానాన్ని అభివృద్ధి చేస్తే
నరుడు సంస్కృతుడౌతాడు. శీల, ఏకాగ్రతా,
విపశ్యనల సంవర్థనమే సంస్కృతి, - అని దీని
తాత్పర్యం.
 వైయక్తిక, సాంఘిక జీవతపు కర్మ,
జ్ఞానంఅంతటిని సంవర్థనం, పరిష్కారం
చేయటం సంస్కృతి అయినప్పుడు ఆచార-విచారాలు
విశ్వాస-వ్యవహారాలు అన్఩ీ సంస్కృతి
-నాగరికతా అవుతయ్. మార్స్కవాదులనే అధిసంరచనా
(సూపర్ష్ట్రక్చర్)ఉపసంరచనా (సబ్ష్ట్రక్చర్),
రెండూ సంస్కృత శబ్దంచే సూచింపబడుతాయ్.
కొరివికారం, గోంగూర పచ్చడులతో అన్నం
పేజి 5
తినటం, మేనమామ కూతురును పెళ్ళి
చేసుకోవటం, తాడిపత్రి రామలింగేశ్వరాలయ
గోపురనిర్మాణఁ, మూల మాద్యమిక కారికలు - ఇవన్నీ
సంస్కృతే -నాగరికతే.
 ఉదాహరణకు, ఆహారం తీసుకుందాం.
అది అనేక రకాలు: (1) రకరకాల ఆకుల్ని చింత
చిగుర్నిపొరంటి నూనెల్తోకట్టావి కుట్టారిగఓగిరాలు
మెక్కటం.(2) మోడల్లో నివసించే భోగులు
తారుణ్యాతిగ చూతనూత్నఫలయక్
తైలాభిఘారస్యనద్ధారా ధుపితశుష్యదంబుహృత మాత్స్య
చ్ఛేదపాకాన్ని మద్యాహ్నం తినగా, వస్తున్న, తేపులు
పోవటానికి సంధ్యావేళల్లో
కేళికాంతరాభ్యంతరవాలుకాస్థితి హిమాంతర్నారి కేళాంబువును
తాగటం. (3) పూట కూటింట్లో కప్పురపు
భోగివంటకం, కమ్మని గోధుమ పిండివంట, గుప్పెడు
పంచదార, కొత్తగాకాచిన ఆపునెయ్యితో
పెసరపప్పు, అరటి పండ఼్లు, నాల్గైదు నంజుళ్లు, అప్పలు,
కొత్తపెరుగు తినటం (4) ద్రాక్షాపానక
ఖండశర్కరలతో రంభాఫలశ్రేణితో
గోక్షీరంబులతోడ మండెగతో క్రొన్నేతితో పప్పుతో
నక్షయ్యంబగు నేరుబ్రాల కలహహారంబు తినటం గాని,
లేక ఇవికాక ఇంకోరకం ఆహారం తినటంగాని ,
తకి-నవాటి కంటే శ్రేష్ఠసంస్కృతి కాదు.
గరిటెలు, ముళ్లగరిటెలతో తి఩టం, పొడుగాటి
పుల్లలతో తినటం, చేతివ్రేళ్ళతో తినటం,
వట్టినేలమీదగాని పీటవేసుకొనిగాని తినటం, కుర్చీలలో
కూర్చుని ఎదురుగా ఉన్న బల్లపైనున్న పదార్థాల్ని
తీసుకుని తినటం; వీటిలో ఏ ఒకటి తక్కిన వాటి
కంటే ఎక్కువ నాగరికతాసూచకంకాదు. ఇవి
జీవిత పద్ధతులు, పరంపరాగతంగా
సంక్రమించి఩య్. సాథనవల్ల శీల సమాధులవల్ల వచ్చిన
పరిణామాలుకావు. అట్లాగే, ధోవతి లాల్చీ ఉత్తరీయం
ధరించటంలో, పొడవులాగు బుష్ చొక్కా
వేసుకోవటంలో కంటే ఆధిక్యమూలేదు.
న్యూనతాలేదు. ప్రాచీన తెలుగు శిల్పాలు చిత్రాలు చూస్తే
అన్నియుగాల్లోని అన్ని తరగతుల తెలుగువారు
ఒకే రకపు దుస్తులు ధరించలేదని ధృవపడుతుంది.
ఇకో ఉదాహరణ: బారతీయుల సౌందర్యం కంటే
ఐరోపియుల సౌందర్యం ఎక్కువనిగాని
తక్కువని గాని చెప్పటానికి ఆధారాలు లేవు. సౌందర్యం,
శుచి, శీలం ఒక జాతి లేక ఒక కులం యొక్క
సొత్తు కాదు. "ఇక్షుకోదండుండేర్చిన బాణమో
యనగ సౌందర్యంబు నిండారగ "కల "చండా
లాంగన" లున్నట్టు కవిసార్వభౌముడు వర్ణించాడు.
కొందరు అష్టావక్రులు, లంబోదరులు "అగ్ర;
వర్ణాల్లో" మనకు నిత్యం ప్రత్యక్షమౌతుంటారు.
ఏ భాష, ఏమతం, లేక ఏ నాగరికతగాని
సర్వోత్కృష్టం, పరిపూర్ణం అని తలచటం, వాదించడం
అవివేకం. నా తల్లితండ్రులపై నాకు తక్కిన అందరి
తల్లిదండ్రులపై కంటే ఆదరం. ప్రేమ ఉండటం
సహజం, ధర్మంకూడా; తక్కిన అందరి కంటే
వారు గొప్పవారు కానక్క఼రలేదు.
జనని,జన్మభూమిస్వర్గం కంటే ఎక్కువ అని అభియుక్తోక్తి.
నాదేశాన్ని,రాష్ట్రాన్ని, నాసంస్కృతిని
అభిమానించటం, ప్రేమించటం, వాటి సంరక్షణ, అభివృద్ది
చేతనైనంతగా చేయటం నా విధి, నా ధర్మం.
 ఆంధ్ర సంస్కృతి భారతీయ
సంస్కృతిలోని సంఘటకం, అంగం (కాంపొనెంట్);
అట్లాగే తమిళ, వంగాది సంస్కృతులున్ను
బారతదేశం పృథక్ సంలక్ష్యమగు సంస్కృతి
క్షేత్రం (ఎసవట్ అండ్ డిఫైనబుల్ కల్చర్
ఏరియా) భాషాక్షేత్రం; భారతీయ జనాభాకి కూడా
ప్రాంతీయ విభేధాలు కల ప్రత్యేక మూల ప్రకారం
పేజి 6
ఉంది. (ఇండియన్ పాప్యులేషన్ కాన్ ష్టిట్యూట్ న్
ఎస్సెన్ షియల్లీ ఎబేసిక్ టైప్) ఆర్యద్రావిడ
నిషాద కిరాత సంస్కృతులు, లోకప్రియ
విశ్వాసాలు గాథలు అనుశీలనాత్మక చింతనం,
ఇస్లామీయ పాశ్చాత్య నాగరికతలు - వీటన్నిటి
పారస్పరిక ప్రక్రియలచే పరిపుష్టమైంది భారతీయ
సంస్కృతి సంహితల్లోనే, ఉపనిషత్తుల్లోనో
శంకర భాష్యాలలోనో శుద్ధ ఆర్య లేక
ఔత్తరాహసంస్కృతి ఉందని, శైవసిద్ధాంతంలోనో,
తిరుక్కురల్ లోనో వేమన పద్యాల్లోనో శుద్ధ
ద్రావిడ లేక దక్షిణాత్య సంస్కృతి ఉందని
తలవటం భ్రమ; వాటిలో వీటిలో కూడ రెండూ
ఉన్నయ్, వేరేవి కూడా ఉన్నాయ్ .
 ఈ చెప్పిందానికి ఈ దేశంలో ప్రాంతీయ
ఉప సంస్కృతులు స్వాయత్తతలు (ఆటోనమీస్)
లేవని భావం అని ఎవరైన తలిస్తే అది వారి
పొరపాటు. ఆంధ్రత్వానికి ప్రత్యేకతలు ఉన్నవి.
ఆంధ్రప్రదేశ్ చుట్టూ అయిదు రాష్ట్రాలున్నాయి.
తమిళ, కర్నాటక, మహారాష్ట్ర, మధ్యప్రదేశ్,
ఉత్కళాలు. వాటి సంస్కృతులకు
ఆంధ్రసంస్కృతిక఼ి ఉన్న భేదాలివి, ఈ సంస్కృతికున్న
విలక్షణ ప్రత్యేకతలివి అని స్పష్టంగా
సాదికారికంగా ఎక్కడైనా చెప్పబడిందా? సాహితీవేత్తలు,
సాంస్కృతిక నరవిజ్ఞానసమాజవిజ్ఞానవేత్తలు.
సహకరించి పరిశోధించిచెప్పవలసిన విషయం ఇది.
 ఆంధ్రప్రదేశంలో ఒకసారి పర్యటించి
ఎక్కడా సంస్కృతం ప్రచారంలో లేదని
దుఃఖించి, "అయ్యే, చమరీమృగంవలె
అమరభాష (సంస్కృతం) ఎక్కడో అడవుల్లో ఉండగా,
ఈ పామర భాష (=తెలుగు) మాత్రం పందివలె
ఇంటింటా ఉందన్న "అప్పయ్య దీక్షితులు, తెలుగు
అక్షరాభ్యాసం పంచాక్షరితో ప్రారంభిమౌతుందని
తెలుసుకొని శివుడు ఆయనకిష్టదైవం కాబట్టి
"ఆంధ్రుత్వం, ఆంధ్రబాష, ఆంధ్రదేశం స్వజన్మ
భూమి అవటం, అందులోను యజుర్వేద శాఖకు
చెందటం, అనల్ప తపఃఫలం" అని సెలవిచ్చారు.
ఆంద్రత్వం తపఃఫలం "అ఩ి సెలవిచ్చారు.
ఆంద్రత్వం తపఃఫలం అని అఁగీకరించే వారు
యజుశ్శాఖకు చెందిన బ్రాహ్మణత్వం మరీ గొప్ప
తపఃఫలం అని ఒప్పుకొంటారా? అట్లాగే, ఒక
మహాకవి, ఒక మహాకవైన మహారాజు `దేశభాష
లందు తెలుగు లెస్స' అంటేదాన్ని, తెలుగునేర్చిన
కొందరు పాశ్చాత్యులు ఈ బాష ఇతర బాషా
శబ్దాలను ఎక్కువగా త్వరగా గ్రహింస్తుంది.
మధురమైంది, తూర్పు భాషలన్నిటిలోకి
సంగీతాత్మకంగా ఉంటుందంటే దాన్ని. ప్రమాణ
పత్రాలుగా తరచు పేర్కోవటం తేలికతనాన్ని,
ఔపనివేశిక మనస్తత్త్వాన్ని సూచిస్తయ్.
పరిపూర్ణమైన సర్వలక్షణ సంపన్నమైన భాష ఏది లేదు.
ఏది కూడ దేవభాషకాని ఈశ్వరుడుపయోగించిన
భాషకాని కాదు. కొన్ని బాషలకు కొన్఩ి
వైశిష్ట్యాలుంటయ్, మరికొన్ని కొరవడతయ్. వాడేవారి
కృషి వలన భాష సంపన్నమై వైజ్ఞానిక సాంకేతిక
పగతికి అ఩ువుగా ఉంటుంది.
 ఆంద్రసంస్కృతిలోని కొన్ని ప్రత్యేకతల్ని
స్మరిద్దాం. వీటిలో కొన్ని ఇతర బారతీయ
ఉపసంస్కృతుల్లోను, అన్యత్రాకూడా, ఇంతో అంతో
ఉంటే ఉన్నయ్యేమో:
 (1) భౌగోళికంగా ఆంధ్రప్రాంతం
బారతదేశం మద్య కీలక స్థానంలో
ఉండటానశాతవాహను లిక్కడ సామ్రాజ్యం స్థాపించి
దాదాపు 300 ఏళ్ళు పాలించిన కాలంలో, అది
ఔత్తరాహదాక్షిణాత్య సంస్కృతుల
సమ్మేళనానికి ప్రయోగశాలైంది. ఉత్తరాది నుంచి
పేజి 7
వచ్చే కొన్ని భావాలను ఆచారాలను
మార్పులతో స్వీకరించటం, జీర్ణించుకోవటం, వాటిని
దక్షిణాదికి పంపటం, దాక్షిణాత్య విచార
వ్యవహారాలను కొన్నిటిని గ్రహించి తనలో
ఇమిడ్చుకోవటం, ఉత్తరాదికి పంపటం నాటి
నుంచి మొదలై కొనసాగుతూ వచ్చింది. కొన్ని
సందర్భాల్లో వైదేశిక ప్రభావాల్ని దగ్గరకు
రానీయకుండా రాజకీయ, భావ కళారంగాల్లో
స్వాతంత్య్రాన్ని పరిరక్షించుకొని స్వీయ ప్రతిభను
వికసింపజేసుకుంది. ఈ ధోరణులు ఇప్పటిక఼ీ
ఉన్నాయ్. బహిఃప్రభావాలను, నవ్యతను
ఆహ్వానించటానికి సంసిద్ధత-వివృతద్వారనీతి (ఓపెన్
డోర్ పోలిసి).తన తత్త్వానికి తగినట్టుగా వాటిని
పరిణమింప జేయటం, సహీష్ణుత (టోలరెన్స్),
మన సంస్కృతిలో బాగా కన్పడతయ్.
 (1) మన భాషకి దక్షిణాత్య ద్రావిడ భాషా
ఉపకుటుంబ శాఖలు రెండిటిలో ఒకదానితో
జననిక (జెనెటిక్) సామీప్యం ఉంది మరో
దానితో సాంస్కృతిక సామీప్యం ఉంది. దానికి
ఉత్తరాన పొరుగున గల గోండి, కొండ,కోలామీ,
కువి, పెంగో మొదలైన గిరిజనుల భాషలతో
జననిక సామీప్యం; దక్షిణాన పొరుగు భాషలైన
తమిళ, కన్నడాలతో సాంస్కృతిక సామీప్యం,
అది క్రీ.పూ. 5వ లేక 6వ శతాబ్దం నాటికే
స్వతంత్ర భాషగా పరిణమించినా, క్రీ,పూ.
3వ శతాబ్దం నాటి నుంచి సంస్కృత ప్రాకృతాల
ప్రభావానికి, క్రీ.శ. 14 శతాబ్దం తర్వాత
ఉర్తూ, 19 శతాబ్దం తరువాత ఇంగ్లీషుల
ప్రభావానికి లోనైంది. ఇట్లా ఏర్పట఼్డ
"బహుళాంధ్రోక్తిమయ ప్రపంచంలో". డాక్టరు సి.
నారాయణరెడ్డిగారు సొగసుగా చెప్పినట్టు , "ఏ భాష చెణుకైన
ఏ యాస చినుకైన తనలోన కలుపుకుని తరలింది
తెలుగు".
 ఈ కారణంచే మన భాషలో వైజ్ఞానిక,
తాత్త్విక భావాలను వ్యక్తీకరించటానికి కష్టం
లేదు. కాగా, తెలుగుకు స్పష్టోచ్చారణ,
రసభావసమర్పణ శక్తి, జీవుల్లో ఉన్న చేవంతా
చమత్కారంగా చెప్పగల సామర్థ్యం. ఉన్నవని శ్రీ
విశ్వనాథ సత్యనారాయణగారు చేసిన ప్రశంస
ప్రసిద్ధం. అట్లాగే తలెగు పలుకు "వంశిన్
వంచి మృణాళమున్ మెలిచి పక్వద్రాక్ష నెండించి
వాగంశల్ మార్దవ మాధురీ సుభగ విన్యాసింబు"
చిలుకుతుందని శ్రీ రాయప్రోలు సుబ్బారావుగారి
ప్రస్తుతి సుప్రసిద్ధం.
 (3) ఆంధ్రుల ప్రధాన లక్షణాల్లో ఒకటి
వ్యవసాయ ప్రియత్వం. అందులో
నైపుణ్యమున్ను. "సేద్యమంటే సంబరపడు కాపుబిడ్డ
తెలుగు వాడు: చెట్టుకొట్టి, మెట్ట త్రవ్వి,
కంపపొదలు నరికి కాల్చి, పుడమిదున్ని పండించిన
మొదటివాడు తెలుగువాడు" అనే శ్రీ కాళోజీ
నారాయణరావుగారి పాటలో సత్యం ఉంది.
అందుకే ఆంధ్రావని అన్నపూర్ణ
నామాంకితమైంది.
 (4) వర్ణవ్యవస్థ, అస్పృశ్యత
ఆంధ్రభూభాగంలో ఎన్నడూ విపరీతంగా మరీ సబలంగా
లేవు. 1076-1200 క్రీ,శ, నాటి చోళ- చాళుక్య
యుగం నుంచి నేటివరకు ఇక్కడ పాలకవర్గం
ద్విజులు కారు; బ్రహ్మణేతర అగ్రవర్ణాలు.
ఆంధ్రదేశ స్వాతంత్య్రన్ని రక్షించింది, రాజకీయ
ఐక్యత కొన్ని మార్లు సాధించింది. దాన్ని విభిన్నం
చేసింది కూడా ఈ వర్గాలవారే. విజయనగర
యుగం నాటి చంద్రశేఖర శతకాదులలోనే
పేజి 8
ద్విజాధిక్యతను విమర్శించడం, శూద్రులు
బ్రాహ్మణులతో సమానమనే వాదం కన్పడతయ్.
16వ శతాబ్దంలో శూద్రులు పౌరోహిత్యం
జరిపినట్టు, 17వ శతాబ్దంలో వారిలో కొందరు
యజ్ఞోపవీతాలు ధరించటం జరిగినట్టు, శాసన, సాహిత్య
ఆధారాలున్నయ్. ఈ సాంఘిక పరిణామాలకు
కారణాలు కొంతవరకు జైనం, విశేషించి బౌద్ధం,
కొన్నివందల ఏండ్లు. వ్యాప్తిలో ఉండటం; మహా
భారత ఆంధ్రానువాదం అధికప్రచారంలో
ఉండటం కారణాలు కావచ్చు. హిందూమత
గ్రంథాల్లో మహాభారతంలోని కొన్ని ఘట్టాలలో
కంటే విప్లవ బావాలు కలవి లేవు. రామాలయాల
బాహుళ్యం, మహాబారత ప్రచుర ప్రచారం
ఆంధ్ర ప్రత్యేకత.
 (5) ఆంధ్రదేశాన్ని జయించి ఆక్రమించి
ప్రభువులుగా స్థిరపడ్ఢ వారు, ఆజీవికకై ఇతర
ప్రాంతాల నుంచి వచ్చి ఇక్క఼డ తరాలు తరబడి
ఉండిపోయినవారు. తెలుగు సంస్కృతి, భాష
లపై ప్రేమ పెంచుకుని వాటివృద్ధికి పాటుబడటం
ఒక విశేషం ఉదాహరణకు, తూర్పు చాళుక్యులు
తెలుగు సంస్కృతి పునాదుల్ని బలపరచారు.
రెండో విష్ణువర్థనుడు వేంగి మా స్వదేశమని
చాటుకున్నాడు. ఆ విధంగానే కుతుబ్ షాహి
పాదుషాలు "చివరికి తెలుగువారై "ఉభయజాతి
సంస్కృతి సామరస్యాన్ని పెంపొందించారు.
(చూ. శ్రీ మల్లంపల్లి సోమశేఖర శర్మగారి
"ఆంధ్రసంస్కృతి తరంగిణి",పుట 38,40,
హైదరాబాద్, 1976). ఈ సంస్కృతి సమ్మి
శ్రవణానికి నాంది ఆపస్తంబుని సూత్రాల్లోనే
కన్పడుతుంది. ఔత్తరాహులు ఘృణంచే దాక్షిణాత్య
ఆచారాలను కొన్నింటిని ఉపాదేయంగా ఆయన
అంగీకరించారు. అట్లాగే, కుమారిలుడు కొన్ని
ద్రావిడ శబ్దాలకు తన వార్తికాల్లో తావిచ్చాడు.
 (6) ఆదిమజాతుల, జానపదుల కళలను
సంస్కరించి ప్రతిష్ఠిత శాస్త్రీయరూపం ఇచ్చారు.
ఆంధ్రులు ఎరుకల నాట్యవిశేషమైన కురవంజిని,
శృంగార, వేదాంతభావాలు వ్యక్తీకరించటానికి
వీలుగా అభివృద్ధి చేయటం, తన
"నృత్తరత్నావళి" లో రకరకాల దేశినృత్తాలకు శాస్త్రీయత
జాయవ సేనాని లభింపజేయటం, యక్షగానాలు,
కూచిపూడి నాట్యసంప్రదాయం, క్షేత్రయ
పదకవితలు - ఇవన్నీ దీనికి ఉదహరణలు. నాగార్జున
కొండ రంగమంటపంలోను
రామప్పదేవాలయకుడ్యాలపైన కానవచ్చే నర్తకుల఼, వారి
సహాయకుల ఆహార్యాలలో, భంగిమలలో ఇక్కడి ప్రజలు
సృష్టించిన దేశీ సంప్రదాయరీతులు సురక్షితాలు.
 (7) ఆంధ్రుల సాహిత్యంలో, కళల్లో
శృంగార, వైరాగ్యాల సమన్యయ ప్రయత్నం
బాగా కన్పడుతుంది. అజంతా పదవ గుహలోని
కుడ్యంపై ఎడమప్రక్క బోధివృక్షారాధన, కుడి
ప్రక్క 15 మంది కలసి చేస్తున్న సామూహిక
నృత్యం చిత్రించబడినయ్. శ్రీనాథుడు, పోతన
ఇత్యాది అనేకుల రచనల్లో శృంగారం, భక్తి,
వైరాగ్యాలు ఇంచుమించు సమానంగా
కానవస్తయ్. "పరతత్త్వవేదనమహా నందానికి",
"పౌఢాలింగనచుంబనామిత సుఖానికి".
సమానమైన ప్రతిపత్తి నివ్వటం భారతీయ, అట్లాగే
ఆంధ్ర, సాహిత్య, కళల ప్రత్యేకత. `వింటే
బారతం వినాలి, తింటే గారెలు తినాలి' అనే
లోకోక్తి కూడా ఈ రెండు కార్యాల
సమానోపాదేయతను సూచిస్తుంది.
పేజి 9
త్రివర్గసారాన్ని జీర్ణించుకోవటం, మోక్షానికై
ప్రయత్నించటం: రెండిటిని వదలవద్దనే
మహాభారతం బోధించింది ఆ గ్రంథమే ఆంధ్రుల
కత్యంతాదరణీయ మని చెప్పాను కదా.
 (8) ఆత్మాభిమానం, స్వాతంత్య్ర
ప్రియత్వం, సాహసం-ఇవి ఆంద్రుల్లో హెచ్చుగా
ఉన్నయ్. శ్రీనాథ జగన్నాథాదులలో,
వేములవాడ భీమకవి, పాల్కురికి సోమనాథుడు,
వేమన-ఇత్యాదుల వ్యక్తిత్వాల్లో రచనల్లో ఈ
గుణాలు మెండు. స్వాతంత్య్ర సంగ్రామ
బీజాలు రేకపల్లి అడవుల్లో నాటుకుని,
ప్రోలయకాపయలచే పెంపొందించబడి, హరిహర
బుక్కలకు ప్రేరేపణ ఇచ్చినయ్, వీరందరి వీరగాథల
తరువాత శివాజీ ఇత్యాదులకు ప్రేరణ ఇచ్చినయ్.
ఆంధ్రరాష్ట్రం సాధించటానికి, ఆ మధ్య
ఆంధ్రప్రదేశ సమగ్రతను నాశనం చేయటానికి
జిరిగిందంతా చూస్తే; తెలుగవారు "సాహసము
మూర్తి గైకొన్న సరణివారు" అ఩ే
"క్రీడాభిరామం" లోని వాక్యం గుర్తుకొస్తుంది. అయితే,
ప్రతిసారి వారి సాహసం దూరాలోచనతో
లోకశాస్త్ర జ్ఞానంతో నిశ్చయింపబడిన లక్ష్య
సిద్ధికొరకే వినియోగింపబడలేదు.
 ఇట్లా సంస్కృతిని గూర్చి, ఆంద్ర
సంస్కృతిని గూర్చి, అవ్యవస్థితంగా ఏదో కొంత
మననం చేశాను. ఇది అ఩ష్ట్రక్ చర్డ్ థింకింగ్,
విశృంఖలంగా చేతనకు స్పురించిన కొన్ని
ఆలోచనల వ్యక్తీకరణ. మనల్ని గూర్చి మనం
తెలుసుకోవటానికి ఇలా చేయటం కొంత
ఉపకరిస్తుంది. ఈ విషయాన్ని గురించి వ్యవస్థితంగా,
బహుశాస్త్ర పద్ధతులను సమీకరించి (మల్టీ
డిసిప్లినరి) ఈ విశ్వవిద్యాలయం పరిశోధనను
పురికొల్పితే బాగుంటుంది.
 మన ప్రజలు మహాకవి శ్రీశ్రీ వర్ణించిన
"సంకెళ్ళు లేని నేల" పైన "సంతోష
చంద్రశాల" నిర్మించుకొంటారని ఆశిస్తాను.
 మీ అందరికి నా ధన్యవాదాలు.
(తెలుగు విశ్వవిద్యాలయం-ప్రధమ వ్యవస్థాపన దినోత్సవ భాషణం)
-------------------------------------------------------------------------
పేజి 13 ఆంధ్రనాట్యం
 డా. నటరాజ రామకృష్ణ
 హైదరాబాదు
 ----------------------------
ఆంధ్రుల నాట్య రీతిని - నట్టువ, మేళము, కేళిక,
కర్నాటకము, చిన్నమేళము, దర్బారు, ఆట,
కచ్చేరి ఆట, రాసిభరతము, మేజువాణి, తాపా,
పారిజాతము అని అనేక పేర్లతో పిలిచేవారు.
 నట్టువ మేళము:- భరత శాస్త్రము
సంగీతాభినయములయందు,
సంస్కృతాంధ్రములయందు, సంపూర్ణ పాండిత్యము గల్గిన నర్తకి
ఈనాట్యబృందానికి పెద్దగా ఉండేది. ఆమెను
నట్టువరాలు అ఩ే వారు. నర్తకినులు,
చర్మవాద్యములు, తంతివాద్యములు, గాలివాద్యములు,
లోహవాద్యములు వీటన్నింటి సమ్మేళనముతో
గూడిన కళాకారుల బృందమును మేళమని
పిలిచేవారు. బలి, జావ మొదలయిన తూర్పు
రేవులందు, తూర్పు దేశాలలో ఇట్టి బృందాలను
సమ్మేళనమందురు. నాట్య మేళము పురుష
నర్తకుల సమ్మేళనము. నట్టువమేళము ఏకపాత్ర
కేళిక. నాట్యమేళము బహుపాత్రనృత్యనాటకరీతి.
 కేళిక:- కేళిక అ఩గా వినోద క్రీడ. ఈ
రీతి ఆలయాల్లో కళ్యాణ మంటపం వద్ద స్వామి
కొలువైయున్నప్పుడు నర్తకినులు ప్రదర్శించే
నృత్యపద్ధతి. కేళిక నృత్యముతో ప్రారంభించబడి
నృత్యము అటుపై అభినయముతో ముగించబడేది.
 `కర్నాటకము':- కర్నాటక సంగీత
సంప్రదాయము ననుసరించి నర్తకినులు
స్వరపల్లవులు, సాహిత్యపల్వవులు, స్వరజతులు,
జాతిస్వరాలు, జతిస్వరాలు, పదవర్ణాలు, పెద్దవర్ణాలు,
పదములు, జావళీలు, శ్లోకాలు, తిల్లానాలు,
జక్కిణులు ఒక క్రమ పద్ధతిలో ప్రదర్శింప బడుటచే
ఈరీతిని `కర్ణాటకము' అని పిలుచుట ఆచారము఼నా
నుండెను.
 `చిన్న మేళము':- ఆలయాల్లో పూజా
సమయాల్లో వాయించే డోలు, సన్నాయి
మొదలయిన మంగళ వాద్యాలను పెద్ద మేళం అనియూ;
నర్తకి, మద్దెల, మహామద్దెల, ముఖవీణ,
నట్టువతాళములు నటితో కూడిన సమ్మేళనమును చిన్న
మేళమని(యు) పిలిచెడివారు.
 దర్బారు ఆట, కచ్చేరి ఆట:- రాజుల
దర్బారులందు, ప్రభువుల కొలుపుకూటాల్లో
పండితులు, విద్వాంసులు, కవులతో నిండిన సభలో
చేయబడేది ఈ లాస్యము. గనక పై పేర్లతో
పిలిచేవారు.
 `రాసిభరతము'- విద్యాంసురాండ్రయిన
దేవదాసీలు దైవపూజలో ఒక భాగంగా
ఆగమశాస్త్రాల ననుసరించి నాట్యమాడేవారు.
వైఖానసము, శైవము, పాంచ రాత్రము
తెనుగు ప్రచారము నందున్న ఆగమాలు
పేజి క14
 మేజువాణి:- ఇది పారశీక పదము
`మేజువాణి' అనగా విజ్ఞానపు వింది.
 తాపా:- రాయలసీమ ప్రాంతంలో
ముఖ్యంగా ఈరీతి కేళికలు చేసేవారు. ప్రస్తుతము
ఈ ఆట రీతి మరుగున పడిపోయింది. కొద్దిమంది
వృద్దులు మాత్రం మిగిలియున్నారు. ఈ ఆట
ఇంచుమించు టుమ్రి, దాద్రపద్ధతిని పోలి
ఉంటుంది. బసగానపల్లి నవాబులు, ధనికులైన
కళాపోషకులు ఈ రీతిని పోషించారు.
 పారిజాతములు :- సామాన్యప్రజల
కొరకు, వారిలో మన మతసంస్కృతి ప్రచారము
చేయుటకు గాను, ఆటపాటలతో కూడిన కేళికా
విధానము. ఇది ప్రబంధ పద్ధతికి చెందిన రీతి.
వీటినే కలాపములు, భాగవతములు అని కూడా
పిలుతురు. పై మూడు నర్తన రీతులు అనగా
దైవారాధననర్తనరీతి, ఆస్థానకేళికారీతి,
పారిజాతరీతి-ఈ మూడింటినీ చేర్చి ప్రదర్శింపబడు
నట్టిదే "ఆంధ్ర నాట్యము". తమిళ
ప్రాంతీయులు అక్కడ స్త్రీలచే ప్రదర్శింపబడే
కేళికారీతిదాసి ఆట, సాథిర్, చిన్నమేళమును నేటి కాలంలో
`భరతనాట్యం' అనే పేరుతో ప్రచారం
గావించుచున్నట్లు ; ఓడ్రులు ప్రహరీ నర్తనాన్ని `ఒడిస్సీ'
అని ప్రచారం గావించుచున్నట్లు; ఆంధ్రుల
లాస్యం "ఆంధ్రనాట్యం" అ఩ే పేరుతో ప్రచారం
చేయబడుతోంది.
 అభినయం ముఖ్యంగా సాత్వికాభినయం
బారతీయనృత్యానికి తలమానికం. ఆ అబినయం
ఆంధ్రుల సొత్తు.వివిధ నాయికలను
ఒప్పించుటగాని స్థాయిభావనిరూపణయందుగాని, సంచారుల
వికాసము నందుగాని చేష్టలు, వ్యాపారాల
ప్రదర్శనతీరులందుగాని ఆంధ్రనర్తకినులు
ప్రదర్శించినంత విన్యాసంగా ఇతర ప్రాంతాలలో
లేదనేచెప్పవచ్చును అర్థాభనయము, పదార్థాభినయము,
గుణాభినయము, విశేషాభినయము,
చిత్రాభినయమును ఆంధ్రులు ఎక్కువగా అభివృద్ధిపరచినారు.
గనుకనే తెనుగువారు అభినయించినంత
విశేషపద్ధతిలో గీతగోవిందము మరే ప్రాంతీయులు
చేయుట గాంచము. పూరీ జగన్నాథస్వామి
ఆలయంలో గీతగోవిందానికి ఒక విశిష్ట స్థానముంది.
ఆ నర్తకులు గూడా గీతగోవిందాన్ని ఆంగిక
ప్రాధాన్యంగల్గిన నృత్యంగా ప్రదర్శింతురు. కాని
సాత్విక ప్రాధాన్యంగల్గిన అభినయంగా
ప్రదర్శించుటలేదు. "ప్రబంధ పద్ధతి నర్తనం గూడా
ఆంధ్రులలోనే ఒక విశిష్టరూపంగా అభివృద్ధి
చెందినది." ఈ ప్రబంధ నర్తనాల్లో - దరువు
(ధ్రువాగానం), ద్విపద, ద్విపదార్థాలు, కందము,
కందార్థము, సీసము, సీసార్థము, ఏలలు,
హెచ్చరికలు, ధవళములు, అర్రథచంద్రకాలు, చందమామ
పదములు, తిపుటలు, సువ్వాలలు, మొ।।అనేక
విధములైన దేశి రచనా విశేషములతో నిండి
ఉంటవి. `దేశి' అనగానే నేటికాలంలో చాలమంది
పండితుల జానపదములు అ఩ి ఒక భావము
కల్గిఉండి అపోహపడుతున్నారు. దేశి వేరు,
జానపదములు వేరు. దేశి, ఛందోగానరీతులుఆయా
ప్రాంతీయుల అభిరుచులననుసరించి అభివృద్ధి
చెంది ప్రచారంలోకి వచ్చిన గానపద్ధతులు
నృత్యాభినయ రీతులు.
పేజి 15
 ఆంధ్ర నాట్యం, నాట్యదర్శి, లోకదర్శి,
మార్గదేశి అన్న పద్ధతుల కళారీతులను
అనుసరించి రూపొందించిన కళారూపము గనుక ఈ
రీతిలో లేని సంగీత పద్ధతులు, తాళ విన్యాసాలు
కర్నాటక సంగీతమునందు లేవనే చెప్పవచ్చును.
 తాళ గతి ప్రాస్తరాలు; జతి, జాతి, యతి
విన్యాసాలు, ఛందోరీతులు, బంధరచనా పద్ధతులు
సంపూర్ణంగా ఈ పధ్దతిలో వికాసం
చెందుచున్నవి.
 ఆంధ్రనాట్యం గురించి మనం
తెలుసుకునేముందు భౌగోళికంగా ఈ ప్రాంతం గురించి
కొద్దిగా మనం తెలుసుకోవాలి. ఉత్తరాన
చంద్రపురి, బస్తరు, సింగు వంచా సంస్థానాలేకాక,
చత్తాసుఘర్ (ముప్పది ఆరు రాజుల గోండు
సంస్థానములు) ఉన్నది. తూర్పున ఓడ్ర (ఓఢ్ర)
దేశము, దక్షిణమున తమిళదేశము, పడమట
కర్నాటక మహారాష్ట్ర ప్రదేశములతో చుట్టుముట్టి
ఇరువది రెండు భారతదేశపు నదులఒడ్డున ఆంధ్ర
విస్తరించి ఉంది. గనుక ఈ ప్రాంతాలన్నీ
సంస్కృతులకు కూడలియై అలరారుతూ ఇతరుల
లోని మంచిని గ్రహించి తన సాంస్కృతిక
వికాసాన్ని పెంపొందించు కొంది. గనుకనే
ఆంధ్రలో అనేకమైన నృత్యరీతులు వృద్ధి
చెందినవి. అందులో రాజగోండులది అతి
ప్రాచీనమైన సంస్కృతి. గోండుల ఆస్థానము
లందు వారి పోషణచే పెరిగి, ప్రచారము జరిగి
నట్టివే "గొండ్లి" నర్తకము. ఆ నర్తనము
జాయపసేనాని తన నృత్య రత్నావళిలో పేర్కొన్నాడు.
జాయప కాకతీయ గణపతి దేవుని బావమరది.
సేగజ నాపతి, నర్తకుడు, ఆ఩ాటి
మహావిద్వాంసుడు, పండితుడు, శాస్త్రవేత్త అయిన
కొండయామాత్యునివద్ద నృత్యం అభ్యసించాడు.
అంతేగాదు కత్తిపట్టినచేత కలముపట్టి
నాట్యశాస్త్రములను రచించెను. ఆయన రచించిన
గ్రంథాల ద్వారా వేయి సంవత్సరముల క్రిందట
తెనుగు నాట వెలసిన నర్తనములను గూర్చి
వివరంగా తెలుసికోగలము. `భాండ్' లేక భాండలి
మరొక విశిష్ట నర్తనము, నేటి కాలములో పూర్తిగా
అంతరించిపోయింది. ఇది హాస్యరస ప్రాధాన్యత
కల్గిన విశిష్ట నర్తనముగా పేర్కొనబడింది. నా
పరిశోధన పర్యటనలో కాశ్మీరులో ఒక
మారుమూల పల్లెలో ఇట్టి నృత్యం దర్శించాను. ఈ
నర్తనము ప్రదర్శించే వారిని భాండ్ లు అంటారు.
వారి నర్తనమును కూడా `భాండ్' అని
పిలువబడుతుంది. ఇది హాస్యరస
ప్రాధాన్యతతోగూడిన నృత్య నాటికగా ఉంది. ఈ బాండ్
నర్తనం ఆంధ్ర నుండి కాశ్మీర్ వెళ్ళిందో
కాశ్మీరునుండి ఆంధ్రకు వచ్చిందో చెప్పలేముగాని ఆ
రీతి నర్తననం నేటికి అక్కడ జీవించి ఉంది.
బోగిగాని కలాపము, సింగి-సింగ఼డు, సుందరి
కొండని కలాపము, భాండ్ పద్ధతికి, చెందినవయి
ఉండవచ఼్చును.
 ఆంధ్రనాట్యం అంతటితో ఆలయ ఆగమ
నర్తనరీతి అతిప్రాచీనమైనదేగాక అనాది ఩ుండి
నేటివరకూ ఎట్టి మార్పులకూ, చేర్పూలకూ,
లోనుకాక ప్రాచీన పద్ధతిలోనే
ప్రదర్శింపబడుతున్నది. ఇందుకు కారణం ఇది కేవలం
పూజానర్తనాలవడమే. ప్రజా రంజనము కొరకు
ప్రదర్శింపబడే కేళికలు, పాలించే ప్రభువుల
మరియు ప్రజల అభిమానాలను అనుసరించి
అనేక కొత్త పద్ధతులను అలంకరించుకొనుట
పేజి 1్6
అవసరం గనుక అందుమార్పులు జరుగుతూ
వచ్చినవి. గనుక వీటియొక్క పూర్వరూపం
తెలిసికోవలెనన్న కొంత పరిశోధన అవసరము కల్గుతుంది.
 భాగవత కలాపములందు అనేక పౌరాణిక
గాథలు ప్రదర్శించుటవల్ల రామాయణ మహాభారత
భాగవత కథలు విరివిరిగా ప్రజల భాషలో ప్రచారము
గాంచినవి.
 ఆలయాలు ఆంధ్రనాట్యము :- శ్రీకాకుళం
జిల్లాలోని ముఖలింగ క్షేత్రము మొదలుకొని,
శ్రీకూర్మము, అరసవిల్లి సూర్యనారాయణ
ఆలయము, రామతీర్థాలు, సింహాచలం, అన్నవరం,
కుంతిమాధవ ఆలయం, కుక్కుటేశ్వరఆలయం,
పలివెల కొప్పేశ్వర వీరేశ్వర, మోహినీకేశవ,
అంతర్వేది నరసింహ, దాక్షారామభీమేశ్వరుడు,
క్షీరారామం, ఆచంట చంటేశ్వర.
అమరలింగేశ్వర, నెల్లూరు రంగనాయక ఆలయం,
మన్నారు పోలూరిరంగని ఆలయం, శ్రీశైలము,
కాళహస్తి (కాళహస్తి), తిరుత్తని, పెంచలకోన
నరసింహస్వామి, జొన్నవాడ అమ్మణ్ణి ఇత్యాది
ఆలయములన్నింటిలో పూర్వము నృత్య పూజ
యుండెడిది. ఇందు కొన్ని శివాలయాలు, కొన్ని
విష్ణు ఆలయాలు, కొన్ని అఁబఆలయాలు
ఇఁదుశైవము, వైఖానసము , పాంచరాత్ర
ఆగమాలననుసరించి పూజలు జరుగుచున్నవి. శాక్తేయము,
ఆంధ్రలో ఉన్నట్లు కనిపించదు.
 ఈ ఆలయాలే గాక బౌద్ధము, జైనము మన
దేశంలో విరివిగాా ప్రచారమందున్నప్పుడు
బౌద్ధారామాలందు, జైన మందిరాలందు
నృత్యపూజలుండినవి. ప్రాచీన ఆంధ్రబొద్ధుల
నృత్యపూజ వివరణమనకు ఆంధ్రలో
లభ్యంకాకపోయినా జపాను మొదలైన దేశాల్లోని `షింటో'
మతారాధనలందు, బుద్ధుని ఆలయాలందు జరిగే
పూజలందు ప్రదర్శించే నృత్యాలు చూస్తే మనకు
తెలియగలవు.
 కాకతీయుల నాటి వరకూ జైనము ఆంధ్రలో
విరివిగా ప్రచారమందున్ననూ అటుతరువాత
మతకలహాలవల్ల జైనము పూర్తిగా రూపుమాపబడింది.
అట్లే అ఩ేక మత గ్రంథాలు అగ్నికి ఆహుతి
యైనవి. ఒకేఒక జైనమందిరము జైనులు
అతిపవిత్రంగా ఎంచి పూజించే ప్రాచీనాలయం
కొలనుపాకలోని మందిరం. కాని అక్కడకూడా
నేటికాలంలో నృత్య పూజలేదు. ప్రాచీన (హళ)
కన్నడ గ్రంథాలందు మిగిలి ఉంది. శైవము -వీర
శైవమునందు నృత్యకళ సంపూర్ణంగా
వికసించింది. శివుని పూజలందు ప్రాతఃకాలం
మొదలు సంధ్యపూజ వరకూ అ఩ేక నృత్యములు
చేసేవారు. ఈ నర్తనములు స్త్రీలచే ప్రత్యేకంగా
ప్రదర్శింపబడినవి కొన్ని, పురుష నర్తకులచే
ప్రత్యేకంగా ప్రదర్శించినవి కొన్ని. భుజంగ,
భుజంగ త్రాసి, భుజంగ రేచిత, పద్మనర్తనం
ఇత్యాదినర్తనలు శివునికి అత్యంతప్రీతికరమైనవి.
ఈ నాట్యములు స్త్రీలు ప్రదర్శించినట్టివి. శివ
రాత్రినాటి రాత్రిలింగోద్భవ, కాలమందు
ప్రదర్శింపబడు `నికుంబిత' ప్రేరణ శివప్రియ,
శివలీల ఇత్యాదులు పురుషులు
ప్రదర్శించునట్టివి. ఇవన్నియు అ఩ేక అపూర్వతాళముల
యందు నూట ఒక్క తాళముల పద్ధతుల
ననుసరించి నర్తనమాడేవారు.
 మద్దెల, మహామద్దెల, నడిమద్దెల, భేరి,
నగారాటక్కుటమారాలు, పంచముఖవాద్యములు, ద్విముఖ఼వాద్యం,
పేజి 17
త్రిముఖ వాద్యం, రుంజ,
సూర్యమండలం, చంద్రమండలం, ధవళశంభు(ంకు)
మొదలైన వాద్యాలపై తాళలయ గతి
విన్యాసాలు పలుకగా; పెద్దతాళములు, చిన్నతాళములు
గతులు నడువగా,;`వేణు,వీణ, ముఖ వీణ,
అల్గోజా' మొదలైన వాద్యాలు రాగాలాపనలు
చేయగా గాత్రజ్ఞులు శివుని స్తోత్ర గీతములు
పాడగా నృత్య పూజ జరిగేది.
 భేరి పూజయందు ముప్పది మూడుకోట్ల
ఆరాధన లందు 33రాగములు, 33 తాళాలు,
33 రకములైన నర్తనములు ప్రదర్శించేవారు.
ద్వజారోహణ-బలిహరణయందు దిక్పాలురు
ప్రత్యేక నర్తనము ఆడేవారు. పుష్పయాగము,
ప్రహరీనర్తనములు ప్రత్యేకంగా చేయబడేవి. ఈ
నర్తనము లన్నియూ నృత్య ప్రాధాన్యత
కల్గినట్టివి. ఇవన్నీ ఆగమాలననుసరించి
చేయబడినట్టివి. శైవ నర్తనరీతులు నృత్య ప్రాధాన్యత
కల్గినట్టివి.
 విష్ణుసంప్రదాయమునందు అభినయము
ప్రాధాన్యత కల్గియున్నది. కనుకనే
నర్తనప్రియుడు నటరాజు- అభినయ ప్రియుడు
మాధవుడు - అభిషేక ప్రియుడు శివుడు -
అలంకారప్రియుడు మహావిష్ణువు అనుట ఆచారమైనది.
మాధవుని ఆలయ అభినయరీతియే
స్వాతికాబినయానికి మూలము. ఈఅభినయము
ముద్రాబినయము, సాత్వికాభినయమని రెండురీతులు.
ముద్రాభినయములో పూర్వముద్రులు,
ఉత్తరముద్రలని రెండు తీరులముద్రలు
ప్రదర్శింపబడును. ఈ అభినయ పద్ధతి తీరు
నృత్యహస్తములతో కూడియుండి, ఆంగీక ప్రాధాన్యం గల్గినది.
నృత్యహస్తములతో కూడిన అభినయం ముఖ్యంగా
కేళికలందు ప్రదర్శింతురు. ముద్రలువేరు
నృత్యహస్తములు వేరు. దీనికి సంబంధించిన కొన్ని
ప్రత్యేక నర్తనములున్నవి. పార్వతి
పంచనర్తనములు ముఖ్యమైనట్టివి. జగన్మాత పార్వతి
అ఩ేక పేర్లతో పిలుపబడుతోంది.
ఒక్కొక్కనామము ఒక్కొక్క శక్తిస్వరూపము. ఆయా
ధ్యాన శ్లోకము లందు ఆదేవి యొక్క సంపూర్ణ
స్వరూపము వర్ణించబడింది. అంబ, హైమవ఼తి,
ఉమ, గౌరి, శంకరి, దుర్గ, కాళి, భవాని,
జోగులాంబ, మహంకాళి, మాణిక్యాంబ, మూగాంబిక,
భ్రమరాంబ ఇత్యాది పేర్లతో ఆ తల్లిని
పిలుపబడిననూ, గానం చేయబడిననూ
ఒక్కొక్కనామమునకు ఒక్కక్క విశిష్టత ఉన్నది.
ఆయా రూపాలను మనసున స్మరిస్తూ ప్రాచీనులు
ప్రగాఢ ప్రత్యక రాగములందు, తాళములందు
గానంచేస్తూ నర్తనమాడేవారు. జాబీక్షరములతో
గూడిన మద్దెల జతుల వాయించుటలో గూడ
ఆచారముగా ఉండినది. ఇదొక విశిష్ట ప్రాచీన
కళారూపము. ఈ నర్తనములన్నీ ఆలయమందు
మాత్రము ప్రదర్శింపబడేవి. ఆలయానికి
సంబంధించిన నాట్యాచార్యులు మరియు నర్తకీమణులకు
తప్ప ఇతరులకు ఈ నాట్యములను గురించి
తెలియదు. తెలుసుకోవలసిన అవస఼రమూ వారికి
లేదు. ఇతరులు కేళికలు, ప్రబంధాలు మాత్రము
వినోదము ద్వారా విజ్ఞానము పంచుటకు
ఆడేవారు కనుకనే పూర్వం ఆలయ సంప్రదాయం
తెలిసినవారు తప్ప ఇతరులకు గాలిగోపురం
దాటి లోపలికి వచ్చి గజ్జెలు ధరించి ఆడేహక్కు
ఉండేదికాదు.
పేజి 18
తెలుగు నాట వెలసిన
రాజవంశములు - ఆంధ్ర నాట్యము :
 శాతవాహనులు, ఇక్ష్వాకులు,
బృహత్పలాయనులు, విష్ణు కుండినులు, చోళులు,
పల్లవులు, కాకతీయులు,
విజయనగరసామ్రాజ్యాధిపతులు, తంజావూరు, నాయకరాజులు,
మధురనాయకరాజులు క్షత్రియ జమిందారులు,
వెలమదొరలు, రెడ్డిరాజులు, కమ్మ ప్రభువులు వీరందరి
ఆస్థానాల్లో ఆంద్రనాట్యం, కచ్చేరి ఆట, దర్బారు
ఆట వృద్ధి చెందినవి.
 ఆలయాల్లో కళ్యాణ మంటపంవద్ద
దేవతలు కొలువుతీరి ఉండగా చేసేకేళికకు ఈ
నర్తనానికి చాలా పోలికలున్నవి. ఆలయ కేళికలు
దైవపరమైన స్తోత్రాలతో ప్రారంభించబడును.
ఆస్థాన కచ్చేరిఆటలు ప్రభువుల సంబంధమైన
స్తోత్రగీతాలతోకూడియుండును. ఈ రెండు
రీతులందు నృత్యముతో ప్రారంభమై అఁదుగల తన
పాండిత్యాన్ని, ప్రతిభను ప్రదర్శించి
అబినయముతో ముగించెడివారు. కొందరి ఆస్థానములందు
టుమ్రీ (టుమ్రి), ట఼ప్పా, దాదరా చతురంగ
గీతాలను అబినయించుట గూడా ఉండినది.
ఆంధ్రదేశమును పాలించిన రాజుల్లో ముఖ్యంగా
క్షత్రియులు హిందూస్థానీ వారగుట ఇందుకు
కారణము. ఈ రాజమహారాజుల ఆస్థానము
లన్నింటిలో రాజనర్తకిను లుండేవారు. అట్టి
వారిలో ముఖ్యులు -కాకతీయుల కాలంనాటి
మాచల్ దేవి. ఈమె ప్రతాపరుద్రుని ఆస్థాననర్తకీ~m
మణి. తన వంశ చరిత్రను ఒక యక్షగానంగా
రచనచేయించి ప్రదర్శన చేయించి చూచి
ఆ఩ందించిన ప్రసిద్ధురాలు. లకుమ కొంవీటి ప్రభువు
కర్పూరవసంతరాయలు బిరుదాంకితులు,
కొమరగిరి ఆస్థాన నర్తకీమణి. ముద్దు చంద్రరేఖ
రఘునాథరాయల ఆస్థాన నర్తకీమణి. రంజకం
కుప్పాయి, విద్యస్సభారాయ రంజక రంజకం
శ్రీరంగరాజకుమార్తె `(శ్రీకృష్ణదేవరాయల ఆస్థా఩
నర్తకీమణి. భాగవతి బాగ్యవతి లేక భాగీరధి
గోల్కోండ పాదుషా ఆస్థాన కళాకారిణియై
బాగ఼్యనగరమే తనపేర నిర్మించుకొన్న
ప్రసిద్ధురాలు. తెనుగు జాతిజీవించినంత కాలం
తెనుగువారి కళా చరిత్రలో ఈమె పేరు శాశ్వతంగా
నిలచిపోతుంది. ఇలాంటి గొప్ప వారేకాక
ఇంకనూ వందలాది ప్రసిద్ధనర్తకీమణులున్నారు
(వారందరి పేర్లూ ఈ చిన్న వ్యాసంలో
పేర్కొనుట సాధ్యముగాదు).
 ఆలయ సంప్రదాయానికి చెందిన ఒక
ప్రసిద్ధ నర్తకీమణి మాణిక్యాంబ. సంచారములో
మొదటిది. దక్షవాటికగా ప్రసిద్ధిగాంచిన
యాత్రాస్థలము దాక్షారామము. ఇక్కడ శివుడు
భీమేశ్వరునిగా పూజలందు కొంటున్నాడు. అమ్మవారి
పేరు మాణిక్యాంబ. ఇక్కడ఼ ప్రాచీన కాలంలో
మాణిక్యాంబ అ఩ే పేరుతో కడ దేవదాసి ఉండేది.
ఆమె దైవపూజ కంకితమై అతిపవిత్ర జీవితం
గడిపి, స్వామిలో అంకితమైంది. ఆ
ప్రాంతీయులు ఆలయంలోని అంబయే ఆరూపంలో
వెలసినదని నమ్మి ఆమెనెంతో గౌరవించారు.
 వివిధ రాజవంశీయులు ఈ కళను
పోషించుటవల్ల తూర్పున కటక్, బొబ్బిలి మొదలు
దక్షిణాన కుంభకోణం వరకూ తెనుగు కర్నాటక
బాణీ అభివృద్ధిగాంచింది. ఆయా ప్రభువుల అభిరుచిననుసరించి
పేజి 19
విశాలమై వికసించి,
విరాజిల్లినది. తెలంగాణ ప్రాంతమునందలి
ఆస్థాననర్తకీమణులు సంస్కృతాంధ్రము లందలి రచనలే~r
గాక, హిందూస్థానీ, మరాఠీ, ఉర్దూ, పారశీక
బాషలందలి సంగీత రచనలు గూడా ఆడుట
కలదు.
పారిజాత పద్ధతి - భాగవత కలాప
సంప్రదాయము :
 స్త్రీ కళావేత్తలలో -జక్కుల వారనే ఒక
తెగవారున్నారు. వారి కథాగాన రీతియే జక్కుల
కథ-లేక యక్షగానము. దీని కథాగాన శైలి
పారిజాత పద్ధతికి మూలము. ఈ పద్ధతి ద్వారా
అ఩ేకములైన దేశిగాన సంగిత పద్ధతులు, సంగీత
రచనలు ప్రచారములోనికి వచ్చినవి. ఈ
సంప్రదాయములో ప్రసిద్ధిగాంచినవారు
పెండ్యేలలేక పెండేలనాగమణి, గంగారత్నం. వీరినే
మన పూర్వీకులు అయిన కవులు నాగి, గంగి అ఩ి
ముచ్చటగా పిలుచుకొనేవారు. ఈ
సంప్రదాయంలో శివపురాణ, విష్ణుపురాణ గాథలను
ప్రదర్శించేవారు. వీరి వంశానికి చెందిన ఆఖరి
నర్తకీమణియే పెండేల సత్యబామ. ఈమె
సుమారు (25) ఇరవై అయిదు సం।।ల క్రితం
కీర్తిశేషురాలైంది. భీమేశ్వర పురాణంలో
పర్వదినములందు, స్త్రీ కళాకారుణి పార్వతిగా
అలంకరించుకొని శివలీలలు ప్రదర్శించినట్లు
వర్ణించబడింది. వీరు శివకథలనే గాక,విష్ణుకథలము
ఆడేవారు. అట్టి కళారూపమే నవజనార్దన
పారిజాతము. ఈ పారిజాతాన్ని నాలుగువందల
సంవత్సరాలు పేఠికాపురా ధీశులు, రావు
వంశీయులు పోషించారు. ఈ రాజులు విష్ణుభక్తులు,
కుంతిమాధవుని ఆరాధకులు. కుంతి మాధవునికి
అంకితముగా ఈ ప్రదర్శన చేయబడేది.
పేఠికాపురము ప్రాచీన జమీందారియే ఒకటినయై
పురూహితకా పీఠం ఇక్కడ వెలసింది.
పంచమాధవుల్లో ఒకరు కుంతి మాధవుడు ఇక్కడ
వెలసినాడు. శివుడు కుక్కుటేశుని రూపంలో
ఇక్కడ భక్తుల పూజలనందు కొంటున్నాడు.
శిరోగయ నాభిగయ పాదగయల్లో పాదగయా
క్షేత్రము ఇక్కడఉంది. ఇన్ని విదాల ఈ
పట్టణము ప్రాముఖ్యత వహించుటవల్లనే -ఇక్కడ఼
మూడు రీతుల ఆంద్రనాట్యము అబివృద్ధి
గాంచినది. కుంతి మాధవుని సన్నిధిని ఆగమ
నర్తకులు ప్రదర్శించేవారు. రాజుగారి ఆస్థానంలో
కచ్చేరి, పుణ్యతిథులందు అక్కడకు వచ్చిన
భక్తులకు పారిజాతములు ఆడేవారు. ఈమూడు
రీతులు ఒకే చోట వెలసిన ప్రాంతములు అరుదు.
 నవజానార్దనపారిజాతము -ఇది
దృశ్యప్రబంధము. అలిగి వెళ్ళిన తనస్వామి కొరకు
తపించుసత్యభామ మనోవ్యధ ఈ పారిజాతము
కథావస్తువు. ఇంతియే యైననూ అదిప్రబంధ రీతిలో
వర్ణనలతో నిండియుండి తొమ్మిదిరోజులు
ప్రదర్శింప బడెది. కుంతి మాధవుని సేవలలో
పదవనాడు భాగవతంలోని దశమస్కంద
పారాయణులతో ముగించేవారు. ఇట్టి రచన
ఆంధ్రలోనేగాక బారతావనిలో మరెచ్చటనూ
గాంచము. ఈ ప్రబంధమును సంపూర్ణముగా
అభ్యసించిన వారికి దక్షిణాది సంగీతమునందు
గాని భరత శాస్త్రమునందుగాని తెలియని
విషయమంటూ ఉఁడదు గనుకనే ఈ కేళిక రీతిని
పండితులు, శాస్త్రవేత్తలు, కవులు ఎంతగానో
పేజి 20
గౌరవించేవారు, ఆదరించేవారు.
నవజనార్థనపారిజాతము, కృష్ణసత్యల ప్రణయకలహ వర్ణనమని
తెలిపియున్నారు.
 తొమ్మది రాత్రులు ఒకే నర్తకీమణి ఈ
దివ్యశృంగార ప్రబంధమును ప్రదర్శించుటచే
ఈ పారిజాతాన్ని నవజనార్దన పారిజాత మని
పిలిచేవారు.
 తొమ్మిదిమంది నర్తకినులు తొమ్మిది
సత్యబామ఼ల పాత్రలు ధరించి వారివారి
బృందములతో, (అంటే సామూహికంగా వందమంది
కళాకారులతో) ఒకే స్టేజి పై ఏకకాలమందు
నర్తనము చేయుట పవిత్రంగా ప్రాచీనులు తలచేవారు.
ఇట్టి ప్రదర్శనలు మూడు జరిపిన యజ్ఞము
చేసినంతటి పుణ్యంగా భావించేవారు. ఈ శతాబ్దంలో
రెండుసార్లు మాత్రం, ఇట్టి కేళికచేసి నారట.
తూర్పు గోదావరి జిల్లాలోని మండపేటలో
మూడవసారిఏర్పాటు చేయునంతలో ఆ
ప్రదర్శనాన్ని నిర్ణయించే సమర్థురాలైన సంగీత
సరస్వతి దుగ్గిరాల మాణిక్యమ్మ చనిపోవుటవల్ల
అసంపూర్ణంగా ఉండిపోయింది. తూర్పుగోదావరి
జిల్లాలో మండపేటకు సమీపంలో తొమ్మిది
జనార్దనస్వామిఆలయము లున్నవి. ఆ
ఆలయాలన్నింటిలో ఈ పారిజాతము ప్రదర్శించబడేది.
అందువల్ల నవజనార్రదన మనిపించేవారు. ఇక్కడ
నర్తక బృందాలందరూ నవజనార్దన మాడిననూ
పెండేలవారిది ప్రసిద్ధబాణియై విలసిల్లినది.
పెండేల వారు ప్రదర్శించిన గ్రంథము
మూలప్రతి - తాళపత్రగ్రంథం -నావద్ద ఉంది శ్రీమతి
సత్యభామగారు, ఆ గ్రంథము నేచే
నభ్యసింపజేసి నాకిచ్చినారు. ఆ గ్రంథము ననుసరించే
మేము ప్రస్తుతం నవజనార్దనం రూపొందించి
ప్రచారము చేయుచున్నాము.
 పారిజాతరీతిని కర్నాటకమున
ఆరాధించిన వారిలో ఈ శతాబ్దంలో కొందరు ముఖ్యుల
పేర్లు పేర్కొంటున్నాము. కోనే వేంకటరత్నం-
ఈమె పిఠాపురానికి చెందిన నర్తకీమణి. బర్మా
మొదలైన ప్రాంతాలకు వెళ్ళి కేళికలు చేసినది.
కాళీ వేంకట నారాయణ -ఈమె కాగడాలవారు
ముందు నడువగా ముత్యాలపల్లకిలో వెళ్ళి
ప్రదర్శన లిచ్చెడిది. చింతా వీరభద్రం - ఆభియ
శాస్త్రమునందు కలాపములఆటలో ప్రసిద్ధురాలు.
దుగ్గిరాల మాణిక్యం -ఈమెనే మండపేట
మాణిక్యం అని పిలిచేవారు. ఈమె యెంతటి
ప్రసిద్ధురాలనగా (ఆకాలంలో ) ఆ ఊరి వారు
ఎవరైనా బయట ప్రదేశాలకు వెళ్ళినపుడు మీదే
వూరని! యెవరైనా ప్రశ్నిస్తే `మాది మండపేట'
అ఩ి చెబితే మాణిక్యంగారి మండపేటయేనా?
అని అడిగేవారట.
మారంపల్లి సోదరీమణులు:
 చిత్తజల్లు పెదవేంకటరత్నం,
చనవేంకటరత్నం వారి కుమార్తెలు వైదేహిఇందువదనలు
సంస్కృతాంథ్రములందు, సంగీత భరత
శాస్త్రములందు సంపూర్ణ పాండిత్యముండిన
కళాకారిణులు. భరత కళాపపూర్ణ ఆ఩్నబత్తులబులి
వేంకటరత్నం - ఈమె క్రొద్ది సంవత్సరాల
క్రిందట వరకూ జీవించి ఉన్నారు. ఈమె
పాండిత్యాన్ని మెచ్చి సంగీత నాటకఅకాడమీ
వారు `భరతకళాప్రపూర్ణ'యను గొప్ప
బిరుదుతో ఘనంగా సన్మానించారు. కర్నాటక
అభినయ విద్య అత్యంత పేరుగాంచిన
నర్తకీమణి చాటపర్రు బాలత్రిపురసుందరి.
సుందరి అ఩ి ముచ్చటగా కళాభిమానులు
పేజి 21
పిలిచేవారు. మనిషి సుందరం, పాట సుందరం,
ఆమె ఆట సుందరం. ఆమె సౌందర్యమెంతటి
దనగా స్త్రీలు కూడా ఆమె సౌందర్యానికి
సమ్మోహితులయ్యేవారట.
 నాయుడుపేట రాజమ్మ- ఈమెనే కాళహస్తి
రాజమ్మ అ఩ి గూడా పిలిచేవారు. ఈమె అనేక
సంస్థానాలు పర్యటించి తనపాండిత్యం ప్రదర్శించి
వార్షికాలు పొందింది. అభినయశాస్త్రం, భరతము,
ఆగమ శాస్త్రాలను చక్కగా నెరిగిన
మహానర్తకీమణి. ఈమె శ్రీకాళహస్తీశ్వరుని
ఆలయములో నృత్య పూజలో పాల్గొనెడిది. ఈమె వద్ద
నేను అభినయ, ఆగమ , భరతరీతిశాస్త్ర
సంప్రదాయం అభ్యసించాను.
 బారతీయుల నృత్యకళ తాళ ప్రాధాన్యత
కల్గిన అడవుల, జతి తీరినలు కల్గిన పద్ధతి `ఆట'
గతి ప్రాధాన్యత గల్గిన ఆట ద్రువగాన పద్ధతిలో
`ఉబుకు' (దీనినే విదేశీయులు `స్వింగ్' అంటారు)
ఆట ముఖ్యము. ఈ రెండు పద్ధతుల ఆట క్రమము
ఆంధ్ర నాట్యంలో ఆభ్యసింప బడుతోంది.
ఆరాధన, కర్నాటకము `అడవు' ప్రాదాన్యత
కల్గినట్టిది. పారిజాతప్రబంధం అడుగు ప్రాధాన్యత
గల్గిన ఉబుకుపద్ధతి.
 ఆలయ సంప్రదాయాలు, ఆస్థాన
సంప్రదాయము, పారిజాత పద్ధతి ఈ మూడింటినీ చేర్చి
ప్రదర్శించే లాస్యనర్తనరీతియే `ఆంధ్ర నాట్యము'
ఆఁధ్రుల భరత - నాట్యము.
----------------------------------------------------------------------------
X
              0 
</p></body></text></cesDoc>