<cesDoc id="tel-w-science-fish-fishery" lang="tel">
<cesHeader type="text">
<fileDesc>
<titleStmt>
<h.title>tel-w-science-fish-fishery.txt</h.title>
<respStmt>
<respType>Electronic file created by</respType>
<respName>Central Institute for Indian Languages, Mysore</respName>
<respType>transferred into Unicode and CES format by</respType>
<respName>"Unicodify" software by Andrew Hardie</respName>
</respStmt></titleStmt>
<publicationStmt>
<distributor>UCREL (on behalf of CIIL)</distributor>
<pubAddress>Department of Linguistics, Lancaster University, Lancaster, LA1 4YT, UK</pubAddress>
<availability region="WORLD"></availability>
<pubDate>03-08-13</pubDate>
</publicationStmt>
<sourceDesc>
<biblStruct>
<monogr>
<h.title>మత్స్య పరిశ్రమ</h.title>
<h.author>శ్రీనివాస్్</h.author>
<imprint>
<pubPlace>India</pubPlace>
<publisher>Unknown - Book</publisher>
<pubDate>1990</pubDate>
</imprint>
<idno type="CIIL code">fishery</idno>
</monogr></biblStruct></sourceDesc></fileDesc>
<encodingDesc>
<projectDesc>Text collected for the CIIL Corpus, subsequently integrated into the EMILLE/CIIL Monolingual Written Corpora.</projectDesc>
<samplingDesc>Simple written text only has been transcribed. Diagrams, pictures and tables have been omitted. Sampling begins at page 32.</samplingDesc>
<editorialDecl><conformance level="1"></conformance></editorialDecl>
</encodingDesc>
<profileDesc>
<creation><date>03-08-13</date></creation>
<langUsage>Telugu</langUsage>
<wsdUsage>
<writingSystem id="ISO/IEC 10646">Universal Multiple-Octet Coded Character Set (UCS).</writingSystem>
</wsdUsage>
<textClass>
<channel mode="w">print</channel>
<constitution type="composite"></constitution>
<domain type="public"></domain>
<factuality type="fact"></factuality>
</textClass>
<translations></translations>
</profileDesc>
<revisionDesc></revisionDesc>
</cesHeader>

<text><body>

<p>3-
 మత్స్య పరిశ్రమ
 జనాభా రోజు రోజుకు పెరిగిపోతున్నది. అవసరాలు
కూడా అందుకు అనుగుణంగానే పెరిగిపోతున్నాయి.
ఆధునికత, లేదా అలంకార ప్రాయాలు, లేదా ఆడంబరాలు
అయినవి. అవసరాల విషయం అలావుంచి మనిషి ప్రాధమిక
అవసరాలు పెరిగిన జనాభాకు అనుగుణంగా పెరగవలసివుంది.
"ప్రాధమిక అవసరాలు"
 మనిషికి కొన్ని ప్రాధమిక అవసరాలు వున్నాయి.
ఆ అవసరాలు ఏమిటో అందరికీ తెలుసు - అయినా ప్రస్తుతం
చర్చకు వచ్చింది కనుక తెలుసుకుందాం.
 ఆహారం,
 వస్త్రం,
 వసతి.
 గూడు విషయం గుడ్డ విషయం ఎలావున్నాం. ముందు
తెలుసుకొనవలసినది ఆహారం గురించి - ఆహారం
ప్రధానమయినది - ఆహారం ప్రాణికి జీవనాధారం.
 ఆహారం గురించి మనిషి ఆరంభంనుంచి ఎన్నో బాధలు
పడ్డాడు - ఆకులు, అలాలు, కందమూలాలు. పచ్చిమాంసం
4-
పచనంచేసిన మాంసం, తన ఆహారంగా తీసికొన్నాడు - ఆ
తర్వాత ఈ ఆహారపు పంటలను వినియోగించుకొనడం
నేర్చుకున్నాడు. ఈ విధంగా, ఆదియుగంనుంచి అణుయుగం
వరకూ ఆహారాన్ని అన్వేషించడంలో మనిషి నిమగ్నమయ్యే
వున్నాడు అయితే ప్రస్తుతం మనిషికి అవసరమైన
ఆహారపదార్థాలు అన్నీ అందుబాటులోనే వున్నాయి.
 క్రీస్తు శకం 1000 సంవత్సరం నాడు ప్రపంచజనాభా
60 కోట్లు మాత్రమే - పెరుగుదలశాతం ఏ విధంగా వున్నా,
1981 జనాభా లెక్కల ప్రకారం ప్రపంచ జనాభా 660
కోట్లు - 2000 సంవత్సరం నాటికి జనాభా 700 కోట్లకు
చేర్చుకోవచ్చని అంచనా.
 ఈ విధంగా పెరిగిపోతున్న జనాభా అవసరాలు తీర్చ
వలసిన బాధ్యత ఆయాదేశాలపై వుంది - అయితే ప్రాధమిక
అవసరాలు తీర్చవలసిన బాధ్యత ప్రభుత్వాలపై మాత్రమే
వున్నదా - మరి ఎవ్వరికి యిందుకు సంబంధించిన బాధ్యత
లేదా అన్పించ వచ్చు -
 పెరిగిపోతున్న జనాభాకు కారణం ప్రధానంగా వ్యక్తి
అయితే మతపరమయిన విశ్వాసాల వలన కొందరు అనాసక్తి
బాధ్యతా రాహిత్యం, వలన కొందరూ తనువంతు బాధ్యతలను
గుర్తించక పోవడం వలన అదే విధంగా తమ వంతు
బాధ్యతలను నిర్వర్తించక పోవడంవలన యిట్టిపరిస్థితి దాపరించింది.
5-
ఇది వేరు విషయం - యిందుకు సంబంధించిన ఆలోచన
అవగాహన, పరిష్కారం ప్రభుత్వపరంగా గైకొనవలసివుంది.
 * * *
 యిక ప్రస్తుత విషయానికి వస్తే ఏ మనిషికిగాని
ప్రాధమిక అవసరాలు ముఖ్యమైనవి- ప్రాధమికంగా ఏమి అవసరమో
అందరికీ తెలిసిన విషయమే - అయినా ప్రస్తావన వచ్చింది
కనుక ఇక్కడ చెప్పడం జరిగింది. మనిషికిగల అవసరాలలో
అత్యంత ముఖ్యమయినవి.
 ఆహారం
 గుడ్డలు
 గృహవసతి
 * * *
 ఆహారం మనిషికి అవసరం - అత్యంత
ప్రధానమయినది. ఆహారం కోసమే మనిషి అన్వేషణ ప్రారంభించాడు -
పచ్చిమాంసం తిని బ్రతికాడు క్రమంగా పచనం చేసికోవడం
నేర్చుకున్నాడు. ప్రకృతిలోని చెట్లను వినియోగపరచుకోవడం
నేర్చాడు - ఈ విధంగా తన ఆహారాన్ని సమకూర్చుకోవడంలో
మనిషి ఎన్నో విషయాలను కనుగొన్నాడు - కూరగాయలు,
ఆకుకూరలు, వరి మొదలయిన తృణ ధాన్యాలను
వినియోగపరచుకొన్నాడు -
 అయితే మనకు గల వనరులు క్రమంగా తరిగి
పోతున్నాయి. మనిషి విచక్షణా రహితంగా ప్రవర్తించడమే
6-
అందుకు కారణం - చెట్లను నరికివేయడం, పంటపొలాలను,
పచ్చిక బయళ్ళను ఆక్రమించి ఇళ్ళు నిర్మించడం, ఫ్యాక్టరీలు
కట్టడం వలన క్రమంగా పంటపొలాలు అదృశ్యం
అవుతున్నాయి.
 ఈ దశలో పెరుగుతున్న అవసరాలకు అనుగుణంగా,
లేదా తీర్చే విధంగా పంటలు పెంపొందలేదు - జనాభా
పెరిగింది - పంటలు పెరగలేదు - పంటపొలాలు అదృశ్యం
అవుతున్నాయి. పంటలు పెరిగే అవకాశం తగ్గింది.
 ఈ దశలో ఆహారం విషయంలో ప్రత్యామ్నాయ
ఏర్పాట్లు అవసరం అయ్యాయి - ఈ సమయంలో ప్రధానంగా
రెండు విషయాలు పరిగణనలోనికి తీసికొనడం జరిగింది.
 ఆహారపు అవసరాలు తీర్చడం
 పౌష్టిక విలువలు గలిగివుండటం
 * * *
 ఈ దశలో కోడిగుడ్లు చేపలు ఆలోచనకు వచ్చాయి.
గుడ్డు మనిషి అవసరాలను పూర్తిగా తీర్చనందువలన చేపలు
ప్రధానమయిన అంశం అయింది-
 చేపల విషయంలో ఆలోచన రావడానికి కారణంకూడా
వుంది - ఎందువల్లనంటే చేప పైచర్మం తొలగించి బిస్మట్ల
తయారీలో వుపయోగించడం అన్న విషయం ఈ సందర్భంగా
గమనార్హం.
7-
 చేపలు మనకు మస్తుగా వున్నాయి. మనకు
జలవనరులు ఎక్కువ-
 చెరువులు
 నదులు
 కాలువలు
 సుదీర్ఘమయిన సముద్రతీరం
 కొన్ని ప్రాంతాలలో అన్ని వర్గాల వారూ, అన్ని
కులాలవారూ చేపలను ఆహారంగా వాడటం మనం
గమనించవలసివుంది - యిది కూడా ఆహారంగా చేపలు అన్న
నినాదానికి రూపునిచ్చింది.
జలపుష్పాలు
 చేపలు నీటితోటలలో వికసించి విహరిస్తాయి. అందుకే
జల పుష్పాలు అని వీటిని అంటారు.
 జల పుష్పాలు మానవుడి బలవర్ధక ఆహారం. చేప
తినడం ఖరీదైన అలవాటుగా మారిపోయిన ఈ రోజులలో
చేపల పెంపకం సమాజానికి ఒక అత్యవసర పరిశ్రమ
అయింది.
 ఆంధ్రప్రదేశ్్లో సహజ జలాశయాలకు, తీర
ప్రాంతానికి కొదువ లేదు. ప్రకృతి ప్రసాధించిన అవకాశాలను
వినియోగించుకొని చేపల పెంపకం పరిశ్రమను అభివృద్ధి పరచి,
చేపని నమ్ముకొని బతికే మత్స్యకారుల బతుకులను మరింత
బాగు పరచి మత్స్య పరిశ్రమకు స్వర్ణ యుగాన్ని ఆవిష్కరించాలని
8-
మన ముఖ్యమంత్రి శ్రీ నందమూరి తారక
రామారావుగారు ధృఢసంకల్పం వహించారు. చేపల పెంపకదార్లకు
అత్యాధునిక పరికరాలను సమకూర్చడం, పెంచిన చేపలకు
విక్రయ సదుపాయాలను మెరుగు పరచడం, చేపల
పెంపకాన్ని లాభసాటి వృత్తిగా ఉపాధి సాధనంగా చేపట్టడానికి
తగిన సాంకేతిక, ఆర్థిక సహాయం కల్పించడం మున్నగు కార్య
కలాపాలను రాష్ట్ర ప్రభుత్వ మత్స్యశాఖ చేపట్టింది.
 చేపల పెంపకంలో శిక్షణ
 ఎంపిక చేసిన చెరువును చేపల పెంపకం దారుపేర
వీలైనంత ఎక్కువ కాలం కొలుకు తీసుకోవడం, చేపలు
పెంచడానికి అనువుగా పూడిక తీయించడం, ఇతర మరమ్మతులు
చేపట్టడం అందుకోసం 25 శాతం సబ్సిడీతో కూడిన
రుణాలను పెంపకందార్లకు ఏర్పాటు చేయడం జరుగుతున్నది.
పెంపకందారు యోగ్యత. ఉత్సాహాలను పరిగణనలోనికి
తీసుకొని చేపల పెంపకంలో స్వల్పకాలిక, దీర్ఘకాలిక శిక్షణ పొందే
అభ్యర్థులకు నెలకు 135 రూపాయలు, స్వల్పకాలం శిక్షణ
పొందేవారికి రోజుకు 9 రూపాయలు ఉపకార వేతనంగా
చెల్లించి, శిక్షణ స్థలానికి వచ్చి వెళ్ళేందుకయ్యే ప్రయాణ
భత్యాన్ని కూడా సమకూర్చడం జరుగుతున్నది. పూడిక
తీయడానికి, ఇతర మరమ్మతులకు ఒక హెక్టారు
జలాశయానికి రూ, 7500/- రుణం కల్పించి రూ. 2500/- సబ్సిడీ
9-
ఇవ్వబడుతున్నది. గిరిజనులైన మత్స్యకారులకు హెక్టారుకు
10000/- వంతున అయ్యే ఖర్చులో సగం సబ్సిడీ కల్పించ
బడుతున్నది.
 మత్స్య వనాలలో అధికోత్పత్తి
 "మత్స్యవనాల" లో చేపల ఉత్పత్తి అధికంగా
జరగాలంటే మేలిరకం విత్తనాన్ని ఎంచుకోవాలి త్వరగాను, అధిక
ప్రమాణంలోను పెరిగే బొచ్చె, రోహు వంటి చేపల విత్తనాన్ని
పెంపకందార్లకు ఈ సంస్థలు అవసరమైన మేరకు సరఫరా
చేయడానికి వీలుగా ప్రతి ఒక్క మత్స్య కృషీవలుల అభివృద్ధి
సంస్థ సొంతంగా చేప పిల్లల పెంపకం కేంద్రాలను
నిర్వహిస్తున్నది. శిక్షణ కేంద్రాలలో శిక్షణ పూర్తి చేసుకొని వచ్చే
వారిలో ఏటా 20 మందికి చేపపిల్లల ఉత్పత్తికి కావలసిన
అన్ని రకాల పరికరాలు సరఫరా చేయడం జరుగుతున్నది.
అంటే చెరువులను కౌలుకు ఏర్పాటు చేసి, చేప పిల్లలను
సరఫరా చేయడం, ఎరువులు, కృత్రిమ ఆహారం అందజేసి,
రుణాల రూపంలో పెట్టుబడులు సమకూర్చబడుతున్నవి.
హెక్టారుకు 500 రూపాయలకు తగ్గకుండా ఈ పెట్టుబడులపై
సబ్సిడీలు ఇవ్వడం ఒక విశేషం. గిరిజన మత్స్యకారులకైతే
పెట్టుబడిలో సగ మొత్తాన్ని సబ్సిడీగా ఇస్తున్నారు మత్స్య
కృషీవలుల సంస్థల కృషి ఫలవంతమైనదనడానికి రాష్ట్రంలో
ఈ సంస్థల అధ్వర్యంలో శాస్త్రీయ పద్ధతులలో నిర్వహిస్తున్న
11-
"మత్స్య వనాల" నుండి జరుగుతున్న అపారమైన చేపల
ఉత్పత్తే నిదర్శనం. హెక్టారు జలాశయంలో ఒక టన్ను
చేపలను ఉత్పత్తి చేయాలన్న లక్ష్యాన్ని ఈ "మత్స్య వనాలు"
అవలీలగా చేరుకొన్నాయి. ఈ విజయాలను దృష్టిలో
వుంచుకొని 1986 అక్టోబరు 16వ తేదీన అదనంగా మరి నాలుగు
జిల్లాలలో (తూర్పు గోదావరి, పశ్చిమగోదావరి, నిజామాబాద్్
మహబూబ్్ నగర్్) మత్స్య కృషీవలుల అభివృద్ధి సంస్థలు
ప్రారంభించబడుతున్నవి మున్ముందు రాష్ట్రంలోని అన్ని
జిల్లాలలోను ఈ సంస్థలు నెలకొల్పి ఏడవ పంచవర్ష
ప్రణాళికాంతానికి రాష్ట్రాన్ని జలపుష్ప ఫలసాయంలో
ముంచెత్తడానికి సన్నాహాలు ముమ్మరంగా సాగుతున్నాయి. ఇప్పటికి
ఉన్న మత్స్య కృషీవలుల సంస్థలు 1984-85 సంవత్సరం
లో 1908 మంది అభ్యర్థులకు చేపల పెంపకంలో శిక్షణ
ఇచ్చి 1333 హెక్టార్ల వైశాల్యం గల జల వనరులలో చేపల
పెంపకాన్ని నిర్వహించాయి. నిరుపేద, మత్స్యకారులకు,
ఔత్సాహిక మత్స్య కృషీవలులకు శిక్షణ, ఆర్థిక, సాంకేతిక
సహాయాలను అందించి రాష్ట్రంలో వినీల మత్స్య విప్లవాన్ని
తీసుకు రావడం ధ్యేయంగా నిర్విరామ కృషి జరుగుతున్నది.
 బలవర్ధకమైన పోషకాహారంగా, చక్కని రుచికరమైన
దిగా విలువ గడించిన చేపకు ఆటపట్టు ఆంధ్రప్రదేశ్్. చేపల
పెంపకం ఊరూరా ఉపాధి సాధనంగా వర్ధిల్లుతుంది. జాతికి
పౌష్టికాహారాన్ని సమకూర్చడంలో మత్స్య కృషీవలలు
అభివృద్ధి సంస్థలు విశేషంగా కృషి సల్పుతున్నాయి.
12-
 మన ముఖ్యమంత్రి శ్రీ నందమూరి తారక రామారావు
గారి సారధ్యంలో నిరంతర పరిశ్రమతో అనేక రంగాలలో
లక్ష్యాలను అధిగమించడం జరుగుతున్నది. మత్స్య పరిశ్రమ
కూడా ముందడుగు వేస్తున్నది.
 మత్స్యకారులు చేయదగినవి
1. చేపల పెంపకానికి ఎన్ను~ 2. చెరువులో ఒండ్రు చేరి నీటి
కొనే చెరువుల్లో 9 నుండి మట్టము తగ్గకుండా నీరు
10 నెలల వరకు నీరు బురద కాకుండా
ఉండేంఉండేట్లు చూసుకోవాలి. దుకు వేసవిలోనేశికము
చెరువు గట్లు పటిష్టంగా లోతు చేసుకోవాలి. దీనికి
ఉండాలి. చెరువులు, కాలువల
తూముల వద్ధ జాలీలు మత్స్య కృషీవలుల
అభిఅమర్చుకోవాలి. వృద్ధి సంస్థలు ఋణము
 సమకూర్చడముతో పాటు
3. చేరువుల్లో మాంసాహార సబ్సిడీ కూడా ఇస్తాయి.
జీవులు లేకుండా, ఎక్కువగా
నీటి మొక్కలు లేకుండా 6. కనీసము ప్రతి 2 నెలల
ఉండేందుకు చర్యలు కొకసారి వలతో పట్టించి
తీసుకోవాలి. చేపపిల్లల పెరుగుదలను
 గమనించాలి. వీటి సత్వర
4. చెరువు సత్తువ చేయడానికి పెరుగుదలకు తవుడు.
హెక్టారుకు 10-12 టన్నుల నూనె పిండి కలిపిన
పేడ రెండు, మూడు ఆహారపు ముద్ధలను
 గంపలో వేయడం మంచిది.
13-
దఫాలుగా వేయాలి మరో 7. పట్టిన చేపలను వెంబడే
150 కిలోల సూపర్్ మంచులో నిలువ చేయాలి.
ఫాస్పేట్్ / అమ్మోనియా 8. ఈ సంస్థ చేపల పెంపకంలో
ఫాస్ఫోట్్/ యన్్.పి.కె. వంటి శిక్షణ, కావలసిన పెట్టు
రసాయనిక ఎరువులు, 50 బడులు, చేపపిల్లలు
కిలోల సున్నం వాడవచ్చును. ఎరువులు, సమకూర్చడమే
 కాక 25 శాతము
5. పెంపకానికి బాగా ఎదిగే సబ్సిడీ కూడా ఇస్తుంది వీరి
బొచ్చె రకాల చేపలను సేవలను సద్వినియోగము
హెక్టారుకు 5000 (కనీసం చేసుకోండి.
25 మి.మి. పరిమాణము)
వదలాలి.
 చేయకూడనివి
1. చిన్న చిన్న కుంటలు, చెరువులు త్వరగా ఎండిపోతాయి
ఇవి పెంపకానికి ఎన్నుకోకూడదు.
2. చెరువులోకి ఎక్కువగా మురుగు నీరు, ఫ్యాక్టరీ విసర్జిత
పదార్ధాలు రాకుండా చూడాలి. కలుషితమైన నీటిలో
ఆక్సిజను పరిమాణము తగ్గిపోతుంది.
3. నీటిలో కలిపిన జీవ సంబంధ రసాయనిక విషపదార్థాల
ప్రభావము తగ్గిన తర్వాతనే అంటే కనీసము 8-10
రోజుల తర్వాతనే చేపపిల్లలు వదలాలి.
4. చెరువులో నీటి మట్టము 4-5 అడుగులకు తక్కువ
ఉంచకూడదు. ఎక్కువ ఎరువులు వాడటము వల్ల నీరు
14-
కలుషితము అవ్వడం, ఆక్సిజను తగ్గిపోవడము
జరుగుతుంది.
5. అత్యాశపడి ఎక్కువ చేప పిల్లలను వదలరాదు.
దొరకదు. అంతేకాక వివిధ రకాల వ్యాధులు
సంక్రమింపవచ్చు రవాణాచేసి తెచ్చిన చేప పిల్లలను వెంబడే
చెరువుల్లో వదలరాదు. వీటిని ప్లాస్టిక్్ సంచులలోనికి
కొన్ని గంటలు నీటిలో ఉంచడము మంచిది.
6. పొడిగావున్న ఆహారాన్ని నీటిపైవెదజల్లితే ఎక్కువగా
వృధా అవుతుంది.
7. పట్టిన చేపలను తక్కువ ధరకే మధ్య దళారీలకు
అమ్మివేయవద్దు, సంస్థద్వారాకాని, సహకార సంఘాల
ద్వారా మార్కెటింగ్్ లాభదాయకము.
8. మీ పెట్టుబడి అవసరాలకు మధ్యదళారీల
నాశ్రయించకండి. మీ అవసరాలను సమకూర్చడానికి, అత్యధిక
పంటదిగుబడిని సాధించడానికి ఈ సంస్థ కృషిచేస్తుంది.
 అంతగా వినియోగంలో లేని చిన్న చిన్నచెరువులు.
కుంటలు వంటి మంచినీటి వనరులలో శాస్త్రీయ పద్ధతులను
అవలంభించి చేపలను పెంచడానికి, అందుకోసం చేపల
పెంపకందార్లకు ఆర్ధిక సాంకేతిక సహాయాన్ని అందించడానికి
ప్రత్యేకించి మత్స్య కృషివలలు (చేపల పెంపకందార్ల)
అభివృద్ధి సంస్శలను ప్రభుత్వం నెలకొల్పింది రెండు, మూడు
వందల కిలో గ్రాముల నుంచి ఒకటి, రెండు టన్నుల వరకు
చేపలను ఉత్పత్తి చేసే `మత్స్య వనాల' అభివృద్ధికి ఈ
15-
సంస్థలు అన్ని విధాలా సహాయం అందిస్తాయి. చేపలు
పెంచడంలో సాంకేతిక శిక్షణ ఇవ్వడం. రుణ సదుపాయం
కల్పించడం, చేప పిల్లలను, వాటికి మేతను సరఫరా చేయడం,
పెరిగిన చేపలను తగిన ధరకు అమ్ముకోవడంలో మార్కెటింగ్్
మార్గదర్శకత్వాన్ని వహించడం మున్నగు బాధ్యతలను ఈ
సంస్థలు నిర్వహిస్తున్నాయి. ఈ సంస్థలు ప్రస్తుతం మన
రాష్ట్రంలో కరీంనగర్్, కర్నూలు, మెదక్్, నల్గొండ, కృష్ణా
జిల్లాలలో నిర్వహించ బడుతున్నాయి. ఈ సంస్థలకు జిల్లా
కలెక్టరు అధ్యక్షులుగా వుంటారు. ముఖ్య
కార్యనిర్వహణాధికారి అజమయిషిలో ఈ సంస్థలు పని చేస్తాయి, జిల్లాలో జన
వనరుల సర్వే జరిపి ఏటా అదనంగా 100 హెక్టార్ల విస్తీర్ణం
గల జలాశయాలలో శాస్త్రీయ పద్ధతులలో చేపల పెంపకాన్ని
చేపట్టేటట్టు చూడడం ఈ సంస్థల విధి. పూర్వంనుంచి చేపలు
పట్టి పొట్ట పోషించు కోవడం వృత్తిగా గల మత్స్యకారులను,
మత్స్య సహకార సంఘాలలో సభ్యులైన వారికి, స్వయంగా
తమ చెరువులలో చేపల పెంపకాన్ని చేపట్టిన మత్స్య
కృషివలులను, చేపలు పెంపకం కోసం చెరువులను
కౌలుకుతీసుకొనే వారిని వర్గీకరించి ఈ వర్గాల నుంచి మొత్తం
వందమందిని ఎంపిక చేసి వారికి చేపల పెంపకంలో సకల విధ
సహాయాలను ఈ సంస్థలు అంద జేస్తాయి. ఒక్కొక్కరికి
ఒక హెక్టారు విస్తీర్ణం గల జల వనరును కేటా యించడం
జరుగుతుంది.
16-
 రొయ్యల పెంపకం
 భారతదేశంలో "క్రోమాబ్రాభియం" వుజాతికి చెందిన
34 జాతుల రొయ్యలున్నాయి. వీటిలో కాళ్ళరొయ్య అనేవి
మాత్రమే పెంచటానికి అనువైనవి ఇవి చాలా పెద్దవి వాటి
విత్తనం నదులలో దొరుకుతుంది.
 రొయ్యలకు విదేశాలలో మంచి గిలాకీఉంది. రొయ్యలు,
రొయ్యఉత్పత్తులద్వారా మనదేశానికి లభించే విదేశీమారక
ద్రవ్యం కొన్ని వందల కోట్ల లోఉంటుంది. దిగుమతి
ఉత్పత్తులలో శీతలీకరణంచేసి రొయ్యలు. ప్రాన్్ పౌడర్్, ప్రాన్్
మీల్్, ప్రాన్్ కర్రీ మొదలైనవి ఉన్నాయి.
 రొయ్యలు నదులు, మంచినీటి చెరువులు, సరస్సులు.
కుంటలు, కాలువలలో అడుగుభాగాన నివశిస్తాయి ఇవి
17-
పగలు అడుగుభాగాన విశ్రాంతితీసుకొని, రాత్రి పైకివచ్చి
ఆహారాన్ని వెదుకుతుంటాయి. రొయ్యిలు అన్ని రకాల ఆహారాన్ని
తీసుకుంటాయి. సహజ ఆహారంలో నాచు, శైవలాలు,
కలుపు మొక్కుల భాగాలు, చిన్నిచిన్ని కీటకాలు, కుళ్ళిపోతున్న
జంతు వృక్ష సంబంధ భాగాలు తింటాయి.
జీవితచక్రం
జీవితచక్రం:
 రొయ్య శరీరాన్ని ఖైటన్్, కాల్షియం కార్బనేట్్తో
చేసిన కవచం కప్పీఉంటుంది. ఫలదీకరణంచెందిన గుడ్లు
జిగురు పదార్థంతో ఆడరొయ్య ఈత ఉపాంగాలకు
అంటుకోని ఉంటాయి. ఇటువంటి ఆడరొయ్యను
పరిపక్వదశలోనున్న రొయ్య (బెర్సిడ్్) అంటారు. గుడ్లు పొదగటానికి,
లోర్వాలు పెరగటానికి రొయ్యలు ఉప్పునీటికి, (బ్రాకిష్్
వాటర్్) వలసవెళతాయి.
 గుడ్లు 17-24 రోజుంలోపొదిగి `జోయియా' దశలో
ఉండే లార్వాలు విడుదలవుతాయి. ఇది సాధారణంగా రాత్రి
పూట జరుగుతుంది. జోయి యాదశలో పలుమార్లు కవచ
విసర్జన జరుగుతుంది. జోయి యాదశలో పలుమార్లు కవచ
విసర్జన జరుగుతుంది. కవచ విసర్జన రొయ్యి జీవితాంతం
జరుగుతుంది. కవచ విసర్జన జరిగినప్పుడు మృదువైన శరీరం
నీరు పీల్చుకుని ఉబ్బటంవలన కొత్త కణజాలం పెరుగుదలకు
అవకాశం ఏర్పడుతుంది. నెమ్మదిగా కొత్త కవచం
ఏర్పడుతుంది. `జోయియా' పెరిగేటప్పుడు అనేకమార్పులు చెంది
18-
20-25 రోజులలో `పోస్టులార్వా' గా మారుతుంది దీనిలో
ఉపాంగాలు పూర్తిగా ఏర్పడి ఉండవు. 10 సార్లు కవచవిసర్జన
చేయడంద్వారా ఇది పిల్ల రొయ్యదశ తర్వాత పెరుగుదల
మంచినీటిలో జరుగుతుంది. కాబట్టి అవి ఉప్పు నీటిని వదిలి
నదుల లోనికివచ్చి ప్రవాహానికి ఎదురీదుతాయి. నదీప్రవాహానికి
ఆనకట్టులు ఉన్నచోట పిల్ల రొయ్యలు రాత్రిళ్ళు తేమగా వున్న
కాంక్రీట్్పై చీమల బారులుగా పాకుతుంమటాయి. ఇవి సుమారు
25-40 మి.మీ పొడవుంటాయి.
 పెంపకానికి అనువైన రొయ్యలను గుర్తించడం
 ప్రకృతిలో పెంపకానికి అనువైన రొయ్యలేకాకుండా
అనవసర జాతుల రొయ్య విత్తనంకూడా కలసిపోయి
ఉంటుంది. రొయ్య త్రొటి (రొస్ట్రం) పై ఉండే కంటకాల
సంఖ్య ఆకారంబట్టి వివిధ జాతులను గుర్తించవచ్చు. "నీల
కంఠ రొయ్య" కు త్రొటి చాలా పొడవుగా ఉండి, మధ్యలో
వంపు లోతుగా వుంటుంది. కంటకాలు పైవైపున 11-14,
కిందవైపు 10-12 వరకు ఉంటాయి. "కాళ్ళరొయ్య" కు
త్రొటి మధ్య వంపు తక్కువగాను, పొడవు తక్కువగానుండి,
కంటకాలుపైభాగాన 7-9, కిందవైపు 5-7 ఉంటాయి.
పెంపకానికి అనవసరమైన రొయ్యలలో త్రొటి పొడవుగానుండి పైన
6-7, కింద 2-5 కంటకాలు (లామెరై రొయ్య), త్రొటి
పొట్టిగాను, పైన 10-11, కింద 2-3 కంటకాలు
(స్క్రాబిక్కులమ్్ రొయ్య) ఉంటాయి.
19-
రొయ్య విత్తన సేకరణ:
రవాణా నిల్వ:
 పగటిపూట రొయ్యలు నీటి అడుగుభాగాన
అంటిపెట్టుకుని ఉంటాయి. రాత్రిపూట చురుకుగా తిరుగుతుంటాయి.
సరియైన సేకరణ స్థలాన్ని ఎంచుకుని దొమతెర "హపా"
లోనికి విత్తనాన్ని సేకరించుకోవాలి. కృష్ణాజిల్లాలోని ప్రకాశం
బ్యారేజి, తూర్పుగోదావరి జిల్లాలోని ధవళేశ్వరం బ్యారేజిల
వద్ద సంఖ్యలో రొయ్య విత్తనాన్ని సేకరించడానికి అనువైన
స్థలాలు. 10 లీటర్ల పరిమాణం కల్గిన పాలిథీన్్ సంచిలో
షుమారు మూడింట ఒక వంతు స్వచ్ఛమైన నీరుపోసి, ప్రాణ
వాయువును నింపి సుమారు 50-400 పిల్ల రొయ్యలను
కావలసిన చోటకు రవాణాచేయవచ్చు. విత్తనాన్ని నేరుగా
చెరువులోనికి వదిలివేయకుండా స్థానిక జలాలకు అలవాటు
పడేటట్లు సుమారు 10-12 గంటలు హపాలలో ఉంచాలి
తర్వాత అవసరమైన జాతి పిల్లలలో ఆరోగ్యంగా ఉన్నవాటిని
మాత్రమే హెక్టారుకు 30,000 చొప్పున వదలాలి.
సాధారణంగా సెప్టెంబరు నుండి నవంబరు మాసాంతంవరకు విత్తనం
ఎక్కువసాంద్రతలో దొరుకుతుంది.
రొయ్యలు పెంచు విధానం:
 చెరువు యాజమాన్యం: స్వతసిద్ధంగా ఏర్పడిన
చెరువులు లేక ప్రత్యేకంగా తవ్విన చెరువులలో రొయ్యలను
పెంచవచ్చు. చెరువు దాదాపు ఒక హెక్టారు విస్తీర్ణంలో దీర్ఘచతుర
స్రాకారంలో ఉండేవాటిలో యాజమాన్యం సులభం. నీరు
20-
లోనికి తీసుకోవటానికి, బయటకు వదలటానికి మార్గాలు
ఉండాలి. చెరువు సారవంతంగా ఉండి, రెండు పాళ్ళు ఒండ్రు
ఒకపాలు ఇసుక, నీటిని నిల్వచేసుకొనే శక్తికల్గిఉండాలి నీటి
ఉదజని సూచిక (పి. హెచ్్) 7 లేక అంతకు కొంచెం
ఎక్కువగాని ఉండవచ్చు. నీటిమట్టం ఎప్పుడూ ఒక మీటరుకు
తగ్గకుండా ఉండాలి. నీటి ఉదజని సూచికబట్టి హెక్టారుకు
250-400 కిలోల సున్నం వేయాలి. సూక్ష్మ వృక్ష జంతు
జాలాన్ని (ప్లాంక్టాన్్) సంవృద్ధిగా ఉత్పత్తి చేయటానికి
హెక్టారుకు 10-15 టన్నుల పశువుల ఎరువు, 500 కిలోల
రసాయనిక ఎరువులు వేయాలి. ఎప్పటికప్పుడు చెరువులో
21-
పెరిగే నీటిమొక్కలు, కలుపు చేపలు, మాంసాహార చేపలు,
తాబేళ్ళు, కప్పలు, పీతలు, నీటిపాములు, మొదలైనవాటిని
బయటకుతీసివేయాలి. ప్రతినెలా రొయ్యలను పట్టి, పెరుగుదల
అంచనావేసుకొని వాటికి అనుగుణంగా మనం ఇచ్చే
అ఩ుబంధాహారం పరిమాణాన్ని నిర్ణయించాలి వ్యాధులేమైనా
ఉన్నాయేమో చూసుకోవాలి.
 నీటియాజమాన్యం: చెరువునీరు నాణ్యమైనదిగా
ఉంచడం ఎంతో అవసరం. నీటిలో కరిగి ఉన్న ప్రాణ
వాయువు 5 పి.పి.యమ్్. ఉండేటట్లు చూడాలి. రెండు నెలల
కొకసారి సగంనీరు తీసివేసి కొత్తనీటితో చెరువు నింపాలి.
నీరు బాగా ఆకు పచ్చరంగు వచ్చినప్పుడు అనుబంధాహారం
ఇవ్వడం, ఎరువుల వాడకం నిలుపు చేయాలి. చెరువులో
కాలుష్య ప్రమాదం ఏర్పడినప్పుడు వెంటనే కొత్తనీరు పెట్టి,
సున్నం చెరువులో చల్లాలి.
 అనుబంధాహారం: అధిక సాంద్రతలో రొయ్యలను
పెంచుతున్నప్పుడు చెరువులోని సహజ సిద్ధమైన ఆహారం
మాత్రమే సరిపోదు. తక్కువ కాలంలో సాధ్యమైనంత
ఎక్కువ దిగుబడిని పొందటానికి రొయ్యలకు
అనుబంధాహారాన్ని ఇవ్వాలి. ముందు పిల్లలను వదలిన 5 రోజులవరకు
`బియ్యపునూక' ను ఆహారంగా ఇవ్వాలి కొవ్వలి మంచినీటి
రొయ్యల పెంపక కేంద్రంలో స్థానికంగా దొరికే నత్తమాంసం
వేరుశనగచెక్క, తౌడు. కర్రపెండలవంటి
అనుబంధాహారంతో ప్రయోగాలు జరిగాయి. ఈ కేంద్రంలో రూపొందించిన
22-
మిశ్రమాహారంతో సంతృప్తికరమైన రొయ్యల ఉత్పత్తి
సాధించారు ఈ ఆహారంలో నూనెతీసినతౌడు 40 శాతం,
వేరుసెనగచెక్క 20 శాతం, ఎండుచేపపొడి 20 శాతం,
మొక్కజొన్నపిండి 10 శాతం, మైదా 9 శాతం, మినరల్్
మిక్సర్్ 1 శాతం ఉండాలి. ఈ మిశ్రమ ఆహారాన్ని బిళ్ళల
రూపంలో (పెలెట్స్్) తయారుచేశారు. ఈ మిశ్రమహారంతో
సంతృప్తికరమైన రొయ్యల ఉత్పత్తి పొందారు.
అనుబంధాహారాన్ని చెరువులోని రొయ్యల బరువులో 2-5 శాతంవరకు
ఇవ్వాలి. ఆహారాన్ని నిర్ధీతస్థలాలలో మట్టిపాత్రంలో పెట్టడం
ద్వారా లేక చెరువులో సమానంగా చల్లడంద్వారా నియమిత
వేళలలో ఉదయం, సాయంత్రం ఇవ్వాలి.
 మిశ్రమ పెంపకం: రొయ్యలు చెరువు
అడుగుభాగంలో మాత్రమే నివశిస్తాయి. కాబట్టి చెరువు పైభాగంలో ఉండే
ఆహారపు జీవులు వ్యర్ధం కాకుండా రొయ్యలతో మనగలిగే
`శీలావలి' (రోహు) `బొచ్చె' (కట్ల) వంటి చేపలను
పెంచడంద్వారా అదనపు ఆదాయం పొందవచ్చు. కాని ఈ మిశ్రమ
పెంపకంలో `మోసు' (మృగలా), "గడ్డిచేప", "బంగారుతీగ"
వంటి చేపలు పనికిరావు "బంగారుతీగ","మోసు" చేపలు
చెరువు అడుగుభాగాన నివశిస్తాయిగాబట్టి ఆహారం కోసం,
స్థలంకోసం రొయ్యలతో పోటీపడతాయి. `గడ్డిచేప' సగం
జీర్ణమయిన ఆహారాన్ని చెరువులోనికి విసర్జిస్తుంది. కాబట్టి నీటిలో
ప్రాణవాయువు తగ్గిపోయే ప్రమాదముంది. మిశ్రమ
పెంపకంలో 1:1 నిష్పత్తిలో బొచ్చె శీలావలి చేపలను ప్రతి హెక్టారుకు
23-
3,000 చొప్పున రొయ్యలతోపాటు లాభదాయకంగా
పెంచవచ్చు.
 రొయ్యలు, చేపల పెరుగుదల: పెంపకం వ్యవధి
పూర్తయిన తర్వాత కూడా రొయ్యలలో కొన్ని మాత్రమే
`మార్కెట్్సైజు' (20 గ్రా. కన్నా ఎక్కువ) పెరుగుతాయి.
మిగిలినవి వేర్వేరు సైజులలో ఆగిపోతాయి. చెరువు అడుగు
భాగాన్నే రొయ్యలన్నీ కేంద్రీకృతమై ఉండటం దానికి
కారణం కావచ్చు. సంవత్సరానికి రెండుసార్లు రొయ్య పిల్లలను
వదలి, నాల్గవనెల తర్వాత ప్రతినెలా మార్కెట్్సైజు
రొయ్యలను తీసివేయడంద్వారా ఈ పోటీని తగ్గించవచ్చు. అటువంటి
అవకాశం లేనప్పుడు మొదటిపంట జనవరిలో మొదలు పెట్టి
మేలో పూర్తిచేసి, రెండవపంట జులై-నవంబరు ద్వారా
అధికాదాయం గడించవచ్చు.
 ఉత్పత్తి: ఏకజాతి పెంపకంలోను, మిశ్రమ
పెంపకంలోను అనుబంధాహారంతో సంతృప్తికరమైన రొయ్యలఉత్పత్తి
సాధించవచ్చు. ఏకజాతి పెంపకంలో రొయ్యల ఉత్పత్తి
హెక్టారుకు సంవత్సరానికి సగటున 700 కిలోలు; మిశ్రమ
పెంపకంలో రొయ్యల ఉత్పత్తి హెక్టారుకు సంవత్సరానికి
800 కిలోలు సాధించవచ్చు. అదేవిధంగా చేపల ఉత్పత్తి
సంవత్సరానికి 1500 కిలోలు సాధించవచ్చు. సాధారణంగా
మిశ్రమ పెంపకంలో ఉత్పత్తి ఏకజాతి పెంపకంకన్నా
ఎక్కువ వస్తుంది.,
24-
 వ్యాధులు రొయ్యలకు వ్యాధులు రావటం అరుదు.
ఒకటి లేక రెండు శాతం రొయ్యలకు మొప్పల గదులలో
క్రష్దేషియాకు చెందిన `బొపైరస్్' అనే పరాన్నజీవిని
గుర్తించడం "కొవ్వలి" పరిశోధనా కేంద్రంలో జరిగింది. ఈపరాన్న
జీవి పట్టిన రొయ్యకు మొప్పకుహరం ఒకవైపు ఉబ్బెత్తుగా
ఉంటుంది. ఇవి 10-15 గ్రాములకన్నా పెరగవు.
రొయ్యల పెంపకంలో తీసుకోవలసిన జాగ్రత్తలు:
 నీరు ఎల్లప్పుడు `మీటరు' లోతు ఉండేటట్లు చూడాలి.
నీటిలో కరిగిన ప్రాణవాయువు తక్కువగా ఉన్నప్పుడు
రొయ్యలు చెరువు అంచులకు వచ్చి నీరసంగా ఉన్నప్పుడు,
కవచాన్ని విడిచిన సమయంతోనూ పక్షులు మొదలైనవి తిని
వేయకుండా జాగ్రత్త తీసుకోవాలి.
 చెరువు అడుగుభాగాన రొయ్యల వత్తిడిని
తగ్గించడానికి, చెరువులో అదనంగా స్థలాన్ని పెంచడానికి, చెట్ల
కొమ్మలు, పెంకులు మొదలైనవి వాడాలి.
 మంచినీటి రొయ్యలను పెంచేటపుడు సంవృద్ధిగా
ఆహారం ఇవ్వాలి సరిపడినంత ఆహారం నియమిత వేళలలో
ఇవ్వక పోయినట్లయితే ఒకదానినొకటి తినివేస్తాయి.
 నీటిఉదజని సూచికను బట్టి సున్నం తప్పనిసరిగా
వాడాలి. సున్నం రొయ్యకవచ నిర్మాణానికి కూడా అవసరం
చెరువు పరిశుభ్రంగా ఉండటానికి కూడా సున్నం వాడాలి.
25-
 కలుపు మొక్కలు ఎక్కువగా వృద్ధిచెందుతున్నప్పుడు
పరిమిత సంఖ్యలో గడ్డి చేపలను వదలడం ద్వారా వాటిని
అరికట్టవచ్చు.
 చెరువు అడుగున మరీవదులుగా ఉండే మురుగు మట్టి
ఉండటంవల్ల రొయ్యల దిగుబడి తగ్గుతుంది. అందువలన
రొయ్యలను వదిలే ముందు మురుగు మట్టిని తీసివేసి చెరువు
ఎండబెట్టాలి.
 వేసవికాలంలో నీటిమట్టం తగ్గిపోయినపుడు, నీరు
వచ్చగా నూరినపుడు ఎరువులు, అనుబంధ ఆహారం వాడటం
తాత్కాలికంగా నిలుపు చేయాలి.
 వరుసగా 2,3 రోజులు మబ్బులు పట్టి
వానకురిసినపుడు నీటిలో కరగియున్న ప్రాణవాయువు తక్కువ అయ్యే
ప్రమాదమేకాక, రొయ్యలు పైకి ఎగబాకి పోయే ప్రమాదం
ఉంది దీనికి తగిన జాగ్రత్తలు తీసుకోవాలి.
27-
రొయ్యల పెంపకం
 సేద్యానికి అంటే వ్యవసాయానికి ప్రత్యామ్నాయ
పద్ధతులను వెదుర్కొంటున్న రైతులను `రొయ్యల సాగు'
విశేషంగా ఆకర్షిస్తోంది. నెల్లూరు జిల్లాలో తరచూ అతివృష్టి
అనావృష్టి తుపాన్లను ఎదుర్కొంటున్న రైతాంగం
వ్యవసాయానికి ప్రత్యామ్నాయ పద్ధతులను ఆలోచించక తప్పడంలేదు.
ఫలితంగా `రొయ్యల పెంపకాన్ని' ఆశ్రయించిన రైతులకు
కేంద్ర, రాష్ట్ర ప్రభుత్వాలు అందిస్తున్న ప్రోత్సాహం, ఆర్థిక
సాయంవల్ల మంచి దిగుబడులను సాధిస్తున్నారు. తీర
ప్రాంతాల్లో రొయ్యలు పెంపకాన్ని ప్రోత్సాహిస్తున్నారు.
 పాలిధిన్్ సంచులలో వుంచిన రొయ్యపిల్లలను
చెరువులలో వదులుతారు. దీనివల్ల సేకరణలో గాయపడ్డ
రొయ్యపిల్లలు ఏవైనా ఉంటే అవి చనిపోయి, పూర్తి
ఆరోగ్యవంత
28-
మైన పిల్లలు మాత్రం మిగులుతాయి. వీటిని 60 నుంచి వంద
సెంటీమీటర్ల లోతు నీరుండేలా సిద్ధం చేసుకొన్న మడ఼ుగుల్లో
వదులుతారు. ఆ మడుగులో సహజ సిద్ధంగా ఏర్పడ్డ
ఆహారాన్ని రొయ్యపిల్లలు 15 రోజులపాటు తింటాయి. తరువాత
నుంచి వీటికి కృతిమ ఆహారం ఇవ్వాల్సి ఉంటుంది. సోయా
బిన్్ చెక్క డ్రైఫిష్్ వేరుశనగ చెక్క తౌడు, సన్్ఫ్లవర్ చెక్క
ఇవ్వాలి.
 రొయ్యల పెంపకానికి ప్రభుత్వం ఎంతగానో
ప్రోత్సాహిస్తున్నది. రొయ్య పౌష్టిక ఆహారం కనుక సమీకృత
ఆహారం కనుక -
అనుభవం
 1986 వ సంవత్సరంలో రొయ్యల సాగును
ప్రారంభించిన మొదటి రెండు సంవత్సరాలు నష్టం వచ్చింది. అయినా
మనోధైర్యం వీడక రొయ్యల పెంపకాన్ని కొనసాగించానని,
తరువాత 1989 నుంచి మంచి లాభాలు వస్తున్నాయని
సురేష్్బాబు చెప్పారు. ప్రస్తుతం దేశంలో రొయ్యల సాగునకు
శాస్త్రీయ పద్ధతులతో కూడిన సాంకేతిక సహకారంలేదు.
శాస్త్రీయ సహకారం ఉంటే రొయ్యల పెంపకంలో మరిన్ని
లాభాలు సంపాదించ వచ్చునని ఆయన తెలిపారు.
 * * *
 చేపలన్ని జలచరములే అయినప్పటికీ, వాటి జీవిత
29-
పరిస్థితుల్లో చాలా భేదాలున్నాయి. కొన్ని చేపలు ఉప్పునీటి
సరస్సుల్లోనూ, సముద్రాల్లోనూ జీవించుతుంటాయి, కొన్ని
మంచినీటి సరస్సుల్లోనూ, నదుల్లోనూ జీవించుతుంటాయి.
కొన్నిటికి ఆక్సిజని పుష్కలంగా వుంటూ వడిగా ప్రవహించే
నీరు అవసరం, కొన్ని నిలకడగా వున్న చెరువులోనే బతక
గలవు. ఒకే చెరువులో కొన్ని చేపలు పైపైనే జీవించుతాయి.
కొన్ని చెరువు గర్భానికి సమీపంగా జీవించుతాయి చేపల
ఆహారంలో కూడా వ్యత్యాసం వుంది. నీటిలో వున్న
మొక్కలనూ నెమ్మదిగా చలించే చిన్న జంతువులను తింటూ కొన్ని
చేపలు బతుకుతుంటాయి. అతిత్వరగా ఈదే జంతువులను పట్టి
వాటిని భక్షించుతాయి- కొన్ని చేపలు ఈ రీతిగా వాటి జీవిత
పరిస్థితుల వైవిద్యాలనుబట్టి చేపల శరీర నిర్మాణమూ
ప్రవర్తనా వేర్వేరుగా వుంటాయి.
 * * *
 భారత దేశంలో స్థానిక ప్రజలు ఆహారంకోసం అనేక
రకాల చేపలను పడతారు. వీటిలో ఇది వరలో పేర్కొనబడిన
మహాసీర్్, బేడినమీను జీనస్్కు చెందిన అనేక ఇతర చేపలూ
వున్నాయి - మంచినీటి చేపల్లో కొర్ర కూడా వర్తకపు చేప.
 భారతదేశపు కోస్తాకు సమీపంలో వున్న వెచ్చని
హిందూ మహాసముద్రంలో గొప్ప మత్స్య సంపదవుంది
వర్తకపు చేపల్లో అగ్రస్థానాన్ని ఆక్రమిస్తూన్నది "బొంబాయి
బాతు" అని పిలువబడే "బుమ్మాలో" లేక "బొంబిలు" చేప.
ఏటా ఈ చేపను, లక్ష టన్నులకుపైగా పడతారు పెద్దపెద్ద
30-
గుంపుల్లో సంచరించేటటువంటి పార్టేను, అంచలనీ చిన్నరకం
చేపలను కూడా చాలా హెచ్చుగానే పడతారు- శఫరి అనే
ఎగిరే చేపకూడా వర్తకపు చేపే. ఈ చేప నీటిలో నుంచి పైకి
దుముకుతూ లేచి బాగా దూరంగా ఎగిరి మళ్ళీ సముద్రంలో
పడుతూంటుంది.
 * * *
 సయను, మాకరెల్్, టన్నీ చేపలు కూడా చాలా
ఉపయోగకరములైనవే, వీటన్నిటిలో టన్నీ చేపలు చాలా పెద్ద
చేపలు. బాగాఎదిగిన టన్నీచేప 3 లేక 4 మీటర్లు సహితమూ
వుండి, 300 కిలోగ్రాముల వరకూ తూగుతుంది. వీటిమాంసం
చాలా మృదువుగాను రుచిగాను వుంటుంది.
 పాముల్లాగుండే చేపలయొక్క, అందులోనూ ఇతర
చేపలను వేటాడితినే మోరే చేప మాంసం చాలా ప్రసిద్ధి.
మామూలు మోరే చేప శరీరానికి ఏ విధమైన పొలుసులుకాని
జంటరెక్కలుకాని లేకుండా, పొడుగ్గా, పాములా వుంటుంది.
శరీరం ముందు భాగం అడుగున గాఢమైన పసుప్పచ్చరంగూ
వీపు కమలిన రంగూ కలిగి, శరీరం పైభాగములూ చలువ
రాయిలాగా వుంటుంది. దాని నోటికి వాడైన పళ్ళువున్నాయి.
 * * *
 ఈనాటికి భారతదేశపు బెస్తలు సాలెపట్టు వలననే
వాడుతున్నారు- కన్నులున్నటువంటి పెద్ద అల్లిక వస్త్రాల్లాగే
వుంటాయి. ఈ వలలు, పెద్ద మోకుతో కట్టి సముద్రం
అడు
31-
గున ఈ వలలను వేస్తారు. నీళ్ళల్లో వుండే మోకు చివర
నాలుగు పొట్టి కర్రలను కడతారు. ఈ కర్రల కొనలు సాలె
పురుగు నాలుగు జతల కాళ్ళను పోలినట్లు వుంటాయి. ఈ
కర్రల కొనలను వలయొక్క కైవారం చుట్టూ కడతారు. ఇలా
కట్టడంవల్ల నీటిలో వున్న పెద్ద పళ్ళేన్ని కాని తట్టను కాని
పైకి ఎత్తినట్టు వలని పైకితీసేయవచ్చు. ఇలాగ పైకి
తీసినప్పుడు వలమీదనుండి ఈదుతున్న చేపలు వలలో చిక్కుకొని
పోతాయి.
 ఈ విధానం చాలా సముపాయమైనదే క్షేమకరమైనదే
అయినప్పటికీ, దీనితో కోస్తాకి సమీపంలో వున్న చేపలను
పట్టడానికి మాత్రమే వీలవుతుంది.
32-
 ఈ కారణంచేత నడిసముద్రంలో చేపల వేటకు వీలుగా
వుండేందుకు క్రియాశీలమైన విధానాలు క్రమక్రమంగా
అవలంబింపబడుతున్నాయి. సముద్రం అడుగున వేసే వలలూ,
సెయిన్్ వలలూ స్టీముబోట్లనుండి, మోటారు నావలకుండీ
వేయబడుతున్నాయి. ఇందువల్ల కోస్తా ప్రాంతాలనుండీ నడి
సముద్రంలోకి వెళ్ళి సాధారణంగా అక్కడ పెద్దపెద్ద గుంపుల్లో
చేపలు సంచరించే ప్రాంతాలలో చేపలు పట్టడానికి ఇప్పుడు
వీలుకలుగుతూంది.
 చేపలను పొదగించే క్షేత్రాల్లో పెంచిన జల్లలను
నదులలో వదలడమే కాకుండా, చెరువుల్లోనే చేపలను పెంచడం
అనేక దేశాల్లో జయప్రదంగా జరుగుతుంది. ఈ
విధానాన్ననుసరించి పెంచబడుతూన్న చేపలన్నిటిలో అద్దాల బేడినమీను
హెచ్చుగా పెంచబడుతూంది. ఈ చేపకు పొలుసులున్నప్పటికి
అవి దాని శరీరాన్నంతనూ కప్పకుండా, ఈవైపు ఆవైపూ
మూడేసి వరుసల్లో మాత్రమే వుంటున్నాయి. కడమ శరీరం
మీద పొలుసులుండవు - పొలుసులు పెద్దవిగా వుండి అద్దాల
లాగా వుంటాయి కాబట్టి ఈ బేడినమీదుకు అద్దాల బేడిసమీను
అని పేరొచ్చింది. ఇదే గాక, శరీరం నిండా పొలుసులను
కలిగిన పొలుసు బేడినమీను, అసలు పొలుసులే లేని దిసమొల
బేడిసమీనులు కూడా పెంచబడుతున్నాయి.
 * * *
 చేపల పెంపకాన్ని సంపూర్ణంగా సాగించే కేంద్రాలలో
నీరు ప్రవహించుతూన్న చెరువులు కొన్ని ఒక నిర్దిష్టమైన
33-
పద్ధతిలో పరస్పర సంబంధాన్ని కలిగివుంటాయి. వీటిలోకొన్ని
చెరువులను కేవలం చేపలు గ్రుడ్లు పెట్టే తటాకాలుగానే
వినియోగిస్తారు. ఇవి చిన్న చెరువులు, నీటిలో బాగా వెచ్చచేసిన
నీరు వుంటుంది. గ్రుడ్లు పెట్టే కాలంలోనూ గ్రుడ్లు పొదిగే
కాలంలోనూ ఈ చేపలను పొదిగించే తటాకాల్లో ఒక నెల
రోజుల పాటే నీరుంటుంది. ఆ తరువాత నీటిలోనుండి నీరు
తీసేస్తారు. దానితో చెరువు అడుగున గడ్డి పెరుగుతుంది.
గడ్డి పెరగకపోతే, వచ్చే సంవత్సరం మరి ఆ చెరువులో
బేడినమీను గ్రుడ్లు పెట్టదు. జల్లలను కొద్దిగా ఎదిగిన తరువాత
జల్లలను సంరక్షణ తటాకాల్లో వుంచుతారు. చలికాలంలో
జల్లలను చలికాలపు తటాకాల్లో వుంచుతారు. వీటిలో నీరు
చలికి గడ్డ కట్టకుండా వుండేటట్టు చూస్తారు. మీదటి వసంత
కాలంలో సంవత్సర నిండిన పిల్లచేపలను మేతపెట్టి
తటాకాల్లో వేస్తారు. ఇక్కడ వాటికి బలవర్ధకమైన ఆహారంఇస్తారు
అవి పెద్దవి అయిన తరువాత శరత్కాలంలో వాటిని
పట్టుతారు. ప్రజననానికి ఉపయోగించే పెద్ద బేడినమీనులు
గ్రుడ్లు పెట్టిన తరువాత వాటిని ప్రజనన తటాకాల్లో
వుంచుతారు.
 మేతపెట్టి తటాకాల్లో, మేతను కృత్రిమ విధానంలో
పెడతారు. బటాణీలు, మొక్కజొన్న గింజలు, గానుగ పిండి,
34-
చేపలపొడి, ఉడికించిన బంగాళదుంపలు, వగైరా
పదార్ధాలన్నీ కలిపిన ఆహారాన్ని బేడినమీనుకు మేతపెడతారు,
అదనంగా వేసే ఈమేత ఫలితంగా చేపలు త్వరగా ఎదిగి,
మామూలుగా సరస్సులోనూ, నదుల్లోనూ అవి తిని
ఎదిగినప్పటి బరువుకంటే అనేక రెట్లు అధికమైన బరువును
కలిగివుంటాయి.
 * * *
        0 
</p></body></text></cesDoc>