<cesDoc id="tel-w-literature-personal-rr2" lang="tel">
<cesHeader type="text">
<fileDesc>
<titleStmt>
<h.title>tel-w-literature-personal-rr2.txt</h.title>
<respStmt>
<respType>Electronic file created by</respType>
<respName>Central Institute for Indian Languages, Mysore</respName>
<respType>transferred into Unicode and CES format by</respType>
<respName>"Unicodify" software by Andrew Hardie</respName>
</respStmt></titleStmt>
<publicationStmt>
<distributor>UCREL (on behalf of CIIL)</distributor>
<pubAddress>Department of Linguistics, Lancaster University, Lancaster, LA1 4YT, UK</pubAddress>
<availability region="WORLD"></availability>
<pubDate>03-08-13</pubDate>
</publicationStmt>
<sourceDesc>
<biblStruct>
<monogr>
<h.title>రా.రా.లేఖలు</h.title>
<h.author>రాచమల్లు రామచంద్రారెడ్డి</h.author>
<imprint>
<pubPlace>India</pubPlace>
<publisher>Unknown - Book</publisher>
<pubDate>1990</pubDate>
</imprint>
<idno type="CIIL code">rr2</idno>
</monogr></biblStruct></sourceDesc></fileDesc>
<encodingDesc>
<projectDesc>Text collected for the CIIL Corpus, subsequently integrated into the EMILLE/CIIL Monolingual Written Corpora.</projectDesc>
<samplingDesc>Simple written text only has been transcribed. Diagrams, pictures and tables have been omitted. Sampling begins at page 42.</samplingDesc>
<editorialDecl><conformance level="1"></conformance></editorialDecl>
</encodingDesc>
<profileDesc>
<creation><date>03-08-13</date></creation>
<langUsage>Telugu</langUsage>
<wsdUsage>
<writingSystem id="ISO/IEC 10646">Universal Multiple-Octet Coded Character Set (UCS).</writingSystem>
</wsdUsage>
<textClass>
<channel mode="w">print</channel>
<constitution type="composite"></constitution>
<domain type="public"></domain>
<factuality type="fact"></factuality>
</textClass>
<translations></translations>
</profileDesc>
<revisionDesc></revisionDesc>
</cesHeader>

<text><body>

<p>-39- కడప,
 27-12-68
మిత్రుడు జయరాంకు,
 నీ కథ అందింది. `సంవేదన'లో వేయడానికి ప్రెస్సులో యిచ్చినాను.
పేజీలు రావచ్చు.
 `వాడిన మల్లెలు' సమీక్షకు పంపిన కాపీలు చేరలేదు. నాకు పంపిన
పర్సనల్ కాపీ చేరింది. సమీక్ష కాపీలుకూడా ఆ రోజే పంపి఩ట్లు
రాంమోహన్ అన్నాడు. కానీ చేరలేదు. ఒక కాపీ ఉన్నదిగదా చాలులెమ్మని
అనుకున్నాను. ౟యేమైనా యీ సంచికలో `స్వీకారం' మాత్రమే వేయగలము.
సమీక్షచేయడానికి వీలులేదు. యిప్పటికే అయిదు సమీక్షలు వేస్తున్నాము.
అందులో రెండు నేను రాసినవి. మరొక సమీక్ష నేను రాసినా, మరెవరు
రాసినా, పత్రిక Disproportionate గా వుంటుందని అనుకున్నాను. వచ్చే
సంచికలో నేనే సమీక్ష చేయవచ్చు ననుకుంటున్నాను.
 అభివాదాలు
 రా. రామచంద్రారెడ్డి.
-40-
 కడప,
 24-6-69
మిత్రుడు జయరాంకు,
 M.O. కు Thanks. కథకూడా అందింది. యీ సంచికలో అచ్చౌతుంది.
* కథ బాగుంది. Emotional content కథకు తగినంతగా, నిండుగావుంది.
కొన్నిచోట్ల చాలా touching గా వున్నది. కానీ Sentimental type గా
కనిపిస్తున్నది. సుబ్బులు malnutrition వల్ల మరణించింది కానీ చెల్లెలు
యెంతో ప్రేమపాత్రమైన చెల్లెలు, పోయిందనే భావం యెక్కువ Prominent గా
వున్నట్లు నేను ఫీలౌతున్నాను. అందువల్లనే నాకు కథ కొంతవరకు
Sentimental గా కనిపిస్తున్నది.
 మరొక విషయం. కథ నారాయణ భార్యతో మొదలౌతుంది. తరువాత
కథంతా సుబ్బులుది. యీ రెండు పాత్రలనూ ఒకటిగా చేస్తే యెలా
వుంటుంది? అనగా, సుబ్బులుకు బదులు కథంతా నారాయణ భార్యదే ఐతే
యెలా వుంటుంది? లేక మొదటి పేరగ్రాపులో సుబ్బులు మరణమూ,
తరువాత సుబ్బులు కథంతా వచ్చినా సరే.
 అభివాదాలు
 రా. రామచంద్రారెడ్డి.
-41-
 కడప.
 25-7-69
మిత్రుడు జయరాంకు,
 నీ ఉత్తరం అందింది. `కళాకేళి' విడిగా బుక్్పోస్టులో పంపుతున్నాను.
దానిలోని సమీక్షలో యేమీ లేదుగానీ, `సృజన' లో నీ కథలమీద నవీన్
చేసిన సమీక్ష పరమ ఛండాలంగావుంది. అతనికి కథా రచన గురించి ఒక
మాటకూడా తెలియనట్లుంది. కథ అంటే biography అనుకున్నాడో లేక
పోలీసులు రాసే case-history అనుకున్నాడో వ్యక్తుల (పాత్రల)
వివరాలన్నీ కావాలనుకుంటున్నాడు. నీ కథలకు పరిచయం రాస్తూ కె.కె.
అన్న మాటలుకూడా దాదాపు యీ ధోరణికి చెందినవే. `సంవేదన' మొదటి
సంచికలోకూడా ఆయన యీ విధంగానే అ఩్నాడు. కె.కె. అభిప్రాయాలే
యింకొంచెం సాగదీస్తే-లేదా extreme కు లాగితే-నవీన్ అబిప్రాయాలు
యేర్పడవచ్చు. గత సంచిక తర్వాత నీవు నాకు ఉత్తరం రాస్తూ నేను
చెప్పిందీ, కె.కె. చెప్పిందీ ఒకటేనన్నట్లు రాసినావు. ఆ మాటకు నేను
#బేజారై
నీకు సమాధానంకూడా రాయలందు. కె.కె. కోరే వివరాలు నేనెప్పుడూ
కథలో demand చేయను. పాఠకుని బుద్దికిగాక, హృదయానికి appeal
చేయాలనేదే నేను consistent గా కోరేది. పాత్రలనూ, సన్నివేశాలనూ,
మొత్తం plot నిర్మాణం అంతటినీ ఆ Cmotional appeal ను build up
చేసేటట్లుగా, strengthen చేసేటట్లుగా రూపొందించుకోవాలనేదే నేనుకోరేది.
 `సంవేదన' ఆగిపోలేదు. రమణారెడ్డి లాంటివాళ్లు దీన్ని ఆపడానికి
సుతరామూ ఒప్పుకోక పోవడంవలల్లా, R.V.R. సకల఼ బాధ్యతలూ
వహించడానికి పూనుకోవడంవల్లా, దీన్ని కొనసాగించడానికి నిర్ణయించినాము.
`యుగసాహితి' లో చర్చించడం అనే formality వల్ల జరిగేదేమీలేదని
ఆ formality ని పట్టించుకోలేదు. యిప్పుడైనా R.V.R. ఐచ్ఛికంగా
అన్నిటికీ బాద్యత వహిస్తున్నాడు గనుకనే ఆ పత్రికను కొనసాగించడం
సాధ్యమౌతున్నది. ఐనప్పటికీ matter కు సంబంధించిన భయంసందేహాలు ఆయనకూ
వున్నాయి. నాకూ వున్నాయి. డబ్బును గురించి కొన్ని అదనపు యేర్పాట్లు
చేసినాము. మీకు కూడా నెలకు 10 రూపాయలు బరువైతే, మూడు
నెలలకొకసారి మీకు వీలైనంత పంపండి.
-42-
 మీరు `విశాలాంధ్ర' కు పోవాలని ప్రయత్నించినట్లు తెలిసింది.
స్కూలు సరిగా జరుగలేదు కదూ? మరి యిక యేం చేస్తారు?
 గురజాడ మీద నా వ్యాసం బాగుందని కె.కె. అరుద్ర ఉత్తరాలు
రాసినారు.
 శుభాకాంక్షలతో
 రా. రామచంద్రారెడ్డి.
 ------
-43-
 కడప,
 31-10-69
మిత్రుడు జయరాంకు,
 నీ 29వ తేదీ ఉత్తరం అందింది. `ప్రణయమూ-పరిధి' రాతపత్రి
ప్రెస్్లో దొరికింది, కానీ చివరిపేజీ లేదు. ఎందుకు అడిగినావో అర్థం
కాలేదు. మద్రాసుకు పంపడానికే ఐతే అచ్చు ప్రతి పంపవచ్చుగదా?
అందుకని ఒక అచ్చుపత్రి కూడా పంపుతున్నాను.
 రామప్ప పట్ల నీవు అన్యాయంగా ప్రవర్తించినావనే విషయంలో యెట్టి
సందేహమూ లేదు. అసలు నీవు వివరాలు తెలుసుకోకుండా, Back ground
తెలుసుకోకుండా అంత తీవ్రమైన ఆరోపణలు చేయడమే అన్యాయం. ఆ
ఆరోపణలు చేయడంలో కూడా అవసరాన్ని మించిన దురుసుతనమూ,
కరుకుతనమూ వున్నాయి. ఆరోపణలు చేసేవాడు తన సహృద్భావాన్ని యెదుటి
వాడు శంకించకుండా ఆరోపణలు చేయవచ్చు. కానీ నీవా జాగ్రతలు
తీసుకోలేదు, సాంబుని వ్యాసంలో రామప్పా, వెంకటేశ్వరరావూ చేసిన కత఼్తరింపును
నేను పూర్తిగా ఆమోదించినానని నేను చెప్తూనే వున్నాను. ఐనా నీవు
"ఆయన్ను యెందుకు దిపుతారు యీ రొంపిలోకి?" అని అనడం, వాళ్లకే
కాదు, నాకుకూడా గౌరవప్రదం కాదుగదా?
 సాంబుని కాలేజి ఆఫీసులో రామప్ప డబ్బు అడగడంకూడా నీదృష్టిలో
ఒక నేరం అయింది. యిందులో కూడా నీకు back ground సరిగా
తెలియక నిందించడమే వుంది. లెక్చరర్లు అందరూ నెల పొడుగునా ఒకరితో
ఒకరుచేసిన అప్పులు ఒకటవ తేదీనాడు కాలేజీ ఆఫీసులోనూ, వరండాలోనూ
యిచ్చుకోవడమూ, పుచ్చుకోవడమూ పరిపాటే. స్టాఫ్ క్లబ్ , రుసుమూ,
వగైరాలు అక్కడే వసూలుచేయడంకూడా పరిపాటే. దీనికితోడు, సాంబునితో
వున్న చనువునుబట్టి రామప్ప ఆఫీసులోనే డబ్బు అడగడం అనేది జరిగింది.
దీనికి సాంబుడు నిరసన తెలిపిన తర్వాత, యిక అంత చనువు తీసుకోను
లెమ్మని రామప్ప అన్నాడు. మనసులో భేదభావం లేదు గనుకనే
రామప్ప అడిగి వుంటాడని మనమైనా సులభంగా ఊహించవచ్చు. సాంబుడు
నిరసన తెలుపడమే ఆనాడు విడ్డూరంగా కనపడింది. ఐనా రామప్పకు
హెచ్చరిక చేసినాను. యీ విషయాన్ని సాంబుడు తీసుకున్నంతకంటె
-44-
సీరియస్్గా నీవు తీసుకోవడం మరీ విడ్డూరంగావుంది. మొత్తంమీద క఼డపలో
మా అందరిమధ్యా వ్యక్తిగత సంబంధాలు యే స్థాయిలో వున్నదీ నీవు
గుర్తించినట్లు లేదు. ఒకరి నొకరు నూరు మాటలు అని, అనిపించుకొని కూడా,
పరస్పర సుహృద్భావానికి యేమాత్రం భంగంకలగకుండా వుండే సాన్నిహిత్యం
వుంది. దీన్ని నీవు కేవలం formal సంబంధాలుగా అర్థం చేసుకొని,
ఆఫీసులో డబ్బు అడగడం నేరంగా భావించినావు.
 మొత్తంమీద నీ జాబులో సుహృద్భావం లోపించింని, అప్పుడు
గుర్తించకపోయినా, యిప్పుడైనా గుర్తిస్తావని ఆశిస్తున్నాను. నీ జాబుకు
రామప్ప రాసిన జవాబు కూడా చూసినాను. నీవు యే తప్పు చేసినావో ఆ
తప్పే రెట్టింపుగా చేయగలనని రామప్ప నిరూపించుకున్నాడు. సంస్కార
రహితమైన మీ ఉత్తారాల యుద్దాన్ని అరికట్టే శక్తి నాకు లేకపోయినందుకు
లోలోపలనే సిగ్గుపడడం తప్ప నాకు మర్గాంతరం యేమైనా వుందా?
 అభినందనలు,
 రా. రామచంద్రారెడ్డి.
 ------
-45-
 మాస్కో బి-311.
 28-5-70
మిత్రుడు జయరాంకు,
 శుభాకాంక్షలు. నీ ఉత్తరం మొన్న అందింది. నిన్న
కుటుంబరావుగారికి ఉత్తరం రాసి, యీ దినం నీకు రాస్తున్నాను. కె.కె.కు రాద్దాం
రాద్దాం అనే ఆలస్యం జరిగింది. తీరిక లేనిమాట నిజమే గానీ, అంతకంటె
ముఖ్యంగా ఆయనకు రాయదగింది యేమీ లేకపోడం కూడా ఒక కారణమే.
ఇండియాలో వుండగా కూడా ఆయనా నేనూ రాసుకునే జాబులు యెంతసేపూ
business letters లాగే వుండేవి. మనం మనం రాసుకున్నట్లు intimate గా
వుండేవి కాదు; intimate గా వుండడం కూడా సాధ్యం కాదుగదా -
యెందుకంటే, యెంతైనా ఆయన్ను మనం కాస్త Respectful distance లోనే, లేదా
Respectful altitude లోనే చూస్తాము. అందుకని యెన్నిసార్లు రాయాలని
అనుకున్నా, యేమీతోచేదికాదు. యెలాగైతేనేం చివరకు నిన్న ఆయనకు
రాసినాను.
 నీవు బెజవాడలో వున్నట్లు తెలుకోడానికి నాకు ఆరు నెలలు పట్టింది.
నీవు మొట్టమొదట ప్రొద్దుటూరు నుండి progress publishers అడ్రసుకు
రాసిన జాబు అప్పుడే చేరింది. దానికి నేను వెంటనే జావాబు కూడా
రాసినాను. కానీ మీరు అప్పటికే ప్రొద్దుటూరు వదలిపెట్టినట్లుంది.
ఐ. సుబ్బారెడ్డికి యిప్పటికి మూడు (నాలుగా?) జాబులు రాసినాను. ప్రతి
జాబులోనూ మీ అడ్రసు అడుగుతున్నాను. కానీ యింతవరకు ఐ.యస్.
నుండి సమాధానమే లేదు. మల్లారెడ్డి అడ్రసు కూడా ఐ.యస్.ను
అడిగినాను. మల్లారెడ్డి అడ్రసుకూడా కచ్చితంగా నాకు యింతవరకు యెవరూ
తెలపలేదు. మీ అడ్రసూ, G.M. అడ్రసూ తెలపమని వై.సి.వి.కి
మార్చి ప్రారంభంలో రాసినాను; యింతవరకు సమాధాన఩ే లేదు. G.M.
అడ్రసు తెలపమని ఈశ్వరరెడ్డికి ఢిల్లీకి కూడా రాసినాను. ఆయన సుమారు
3 మాసాలు నాకు సమాధానమే రాయలేదు. చివరకు
`విశాలాంధ్ర'వారపత్రిక మీద మల్లారెడ్డి పేరు చూసి, తెలుసుకున్నాను.
 యివన్నీ యింత వివరంగా యెందుకు రాస్తున్నానంటే నా మనస్సులోని
బాధ కొంతైనా వ్యక్తం చేయడానికి. యీ గాడిద చాకిరీ, యీ నిప్పుల
-46-
కుంపటిలాంటి చలీ (చలి నిప్పుల కుంపటిలాగ వుండడం యెలాగో, యిక్కడికి
వస్తేగానీ తెలియదు), పలకరించేదిక్కు లేకపోవడమూ, చదువుకోడానికి
యేమీ లేకపోవడమూ- యీ అన్నిటికీ తోడు యిండియానుండి జాబులు సరిగా
రావు, మిత్రుల అడ్రసులు తెలుసుకోవడంకూడా గగనమైంది. యిదీ నా బాధ.
మామూలుగానే sensorship మూలంగా జాబులు పోవడానికి రెండువారాలూ,
రావడానికరి రెండువారాలూ పడుతుంది-Miss గాకుండా వస్తే, కొన్ని
జాబులు miss అవుతున్నాయి కూడా.
 `సంవేదన' యెప్పుడో ఆగిపోయింది. కానీ చివరి సంచిక-శ్రీశ్రీ
సంచిక-వేస్తామని ఆర్వియార్ నాకు ఉత్తరం రాసి నన్ను వ్యాసం
పంపమన్నాడు. నేను ఏప్రెల్ 1వ తేదీన శ్రీశ్రీమీద పంపినాను. మే ఆఖరుకు
సంచిక అచ్చు ఔతుందని మళ్లీ రాసినాడు. మరి కడపలో అది అచ్చౌతున్నదో
లేదో యిటీవలి వార్తలు నాకు తెలియవు.
 నీ కథలు వీలైతే cuttings పంపించు. రాంమోహన్్ యేమీ
రాయడంలేదా? మీ యిద్దరివీ సమీక్షలు ఆదివారం `విశాలాంధ్ర'లో రెండు
దఫాలు చూసినాను. వాటితో`విశాలాంధ్ర'కు నిజంగా కొత్తకళ వచ్చింది.
అక్కడివాళ్లు యేమన్నారో గాని, సాహిత్యాన్ని సాహిత్యంగా చూడడం అనేది
`విశాలాంధ్ర'లో మళ్లీ కనపడుతున్నది.
 శుభాకాంక్షలు
 రా.రామచంద్రారెడ్డి.
 ------
-47-
 Moscow B-311,
 26-1-71.
మిత్రుడు జయరాంకు,
 నీ ఉత్తరం నాలుగురోజుల క్రితం అందింది. నీవుకూడా విజయవాడలో
వుండలేకపోయినావన్నమాట! పత్రికల్లోపని అంతే. పరమ Monotonous గా
వుంటుంది. కానీ నీవు వారపత్రికలో గదా పనిచేస్తూ వుండింది. అది
కొంత నయనేమో అనుకున్నాను. విశాలాంధ్ర ఆఫీసులో, నాకు
తెలిసినంతవరకు, బొత్తిగా లభించనిది intellectnal compauy అంతా తాలూకాఫీసు
గుమాస్తాల బాపతు. ఒక నిజమైన ఆప్యాయత అనేది ఆశించడానికే వీలులేదు.
రబహుశా Political loyalty కొంతవరకు ఆశించవచ్చు. యేమైన నీ అనుభవం
వివరంగా జాబు రాస్తావుగదూ.
 `నీ క్లై మాక్సులేని కథ నేను చూడలేదు. విశాలాంధ్ర' పత్రికలు నాకు
అందుతున్నాయి గానీ, regular గా కాదు. నీ దగ్గర extra గా, cutting
వుంటే కనీసం ఆ కథ ఒకటైనా పంపు. "మునుపటి కథల్లోని చాలా
బలహీనతలు పరిహరించు" కున్నట్లు రాసినావు. మునుపటి కథల్లోని
బలహీనతలు గుర్తించినావన్నమాట. గుర్తిస్తే చాలు, పరిహరించు కోవడం
అంత కష్టం, కాదు. మరి యీ సారి యెవరితో పీఠిక రాయించుకుంటావు?
పీఠిక వుండి తీరాలనే పట్టుదల లేదు కదా?
 రామ్మోహన్ నుండి నా కింకీ జాబు రాలేదు. మరి రామ్మోహన్
విజయవాడలో ఒంటరిగా వుండడం కష్టం కాదా?ముఖ్యంగా ఆర్థికంగా?
యిద్దరు కలసివుంటే అదొక విధంగా వుండేదేమో. `సామాన్యుడి డైరీ'
రాస్తున్నది `యస్సార్' అంటే శివరామక్రిష్ణేమో అనుకున్నమాట నిజమే. కానీ,
యెప్పుడనుకున్నానో అదికూడా చెప్పనా? `౟యస్సార్' యెవరైందీ చాలా
రోజులు పట్టించుకోలేదు. అభ్యుదయ సాహిత్యానికి మార్క్సిజంతో పనిలేదని
రాసినప్పుడు పట్టించుకున్నాను. అప్పుడు బొల్లిముంతేమో అనుకున్నాను.
ఆ రాత నాకు చాలా కోపమూ, అసహ్యమూ కలిగించింది. మార్క్సిజం
తెలీకపోయినా వేమన అభ్యుదయ వాది కాదా, అని వాదించడం మరీ
అసహ్యంగా వుంది. తరువాత ఆర్వియార్ ద్వారా తెలిసింది, యిది రాసింది
మన రామ్మోహనే అని. `సామాన్యుడి డైరీ' మొత్తంమీద బాగానేవుంటున్నది
-48-
కానీ depth వుండడంలేదు. రామ్మోహన్ యెన్నాళ్లున్నా అంతేనేమో. అయినా
literary technique ను గురించి పదేపదే రాస్తున్నాడు యెందుకు? రాయడం
తప్పుకాదు గానీ, అది చాలా subtle subject, కనీసం రచయితలు
మెచ్చుకొనేటట్లు రాస్తే సార్థకం, లేకపోతే దండగ, సంక్రాంతి సంచికలో రచన
గురించి పెద్దవ్యాసం రాసినాడు. అదికూడా supercial గానే వుంది.
 నేను యిక్కడ యేమిచేస్తున్నది తెలియదా? అనువాదం పనితప్ప
మరేమీలేదు. యిదీ ఒక విధమైన గాడిద చాకిరియే. మనసుకేమీ హాయి
లేద. Spiritual satisfaction అసలులేదు.
 Yours
 R. Ramachandra reddy.
 -----
-49-
 Moscow B-311,
 28-2-71.
మిత్రుడు జయరాంకు.
 నీ ఉత్తరం అందింది. నీకు జవాబు రాయాలని అనుకుంటూ వుండగానే,
యింతలో మొన్నరామ్మోహన్్నుండి జాబు వచ్చింది. `సామాన్యుడు డైరీ' మీద
నా అభిప్రాయం తెలపమనికూడా అడిగినాడు. బహుశా యీ పాటికి నీ ద్వారా
రామ్మోహన్్కు నా అబిప్రాయం తెలిసివుంటుందను కుంటాను. అయినా నేనే
వివరంగా రాస్తానులే.
 మార్క్సిజంతో అభ్యుదయ సాహిత్యానికి పనిలేదనికదూ రామ్మోహన్
రాసింది? అంటే అభ్యుదయ రచయితకు మార్క్సిజం బొత్తిగా తెలియనక్కర
లేదనీ, మార్క్సిస్టు దృక్పథం వుండనక్కర లేదనీ అయితే నాకు అభ్యంతరమే.
అభ్యుదయ రచయితకు మార్క్సిజం లోతుగా, రాజకీయ పార్టీల నాయకులకు
తెలిసినంత సమగ్రంగా, తెలియనక్కర లేదంటే, నాకేమీ అభ్యంతరం లేదు.
మోటారు హనుమంతరావు రాసింది కూడా యింతే ననుకుంటాను-ఆయన
వ్యాసాలు నేనూ చదివినాను. శ్రీశ్రీ తనకు మార్క్సిజం తెలియదని
అ఩్నాడంటే, తనకుగానీ, తన రచనల్లోగానీ ఆ దృక్పథం లేదని అర్థం కాదుగదా!
తనకు సరిగా తెలియదని మాత్రమే దాని అర్థం. యీ వివరణతో బహుశా
నీవూ యేకీభవిస్తావని అనుకుంటాను. బహుశా రామ్మోహన్్కూడా
యేకీభవిస్తాడని అనుకుంటాను. రామ్మోహన్ మనసులో యేముందో కాని,
విశాలాంద్ర' లో రాసింది మాత్రం కేవలం తప్పు.
 Theoreitcal గా చెప్పాలంటే: మనదేశం యీ నాడు యింకా ఫ్యూడల్
దశలోలేదు, మనం పోరాడవలసింది. బూర్జువా డెమోక్రసీ కోసం కాదు.
కనుక మన ఆశయాలు బూర్జువా డెమోక్రటిక్ ఆశయాలు కాదు. మనం యీ
నాడు పెట్టుబడిదారీ దశలో వున్నాం-fedual relies యెన్ని వున్నప్పటికీ
మనది పెట్టిబడిదారీ సమాజమే. కనుక యీనాడు మనకుండవలసిన ఆశయాలు
సోషలిస్టు విప్లవానికి సంబంధించినవి. యిది రాజకీయాలకేకాదు, సాహిత్యానికి
కూడా వర్తస్తుంది. మ఼న సాహిత్య చరిత్రలో బావకవిత్వం బూర్జుడెమోక్రటిక్
విప్లవానికి సంబంధించినవి. ఆ కవిత్వం యీనాడు అడుగంటిందంటే అర్థం
ఆ చారిత్రక దశ గడిచిపోయిందని. 1940 లలో అభ్యుదయ రచయితల
-50-
సంఘం భావుకవులనూ, తదనుగుణమైన వచన రచయితలనూ కలుపుకున్న
మాట నిజమే. యెందుకు కలుపుకున్నారంటే ఆనాటి మన చారిత్రక దశ
బూర్జువా డెమోక్రటిక్ విప్లవ దశ గనుక. కమ్యూనిస్టు పార్టీ బూర్జువా
డెమోక్రటిక్ ఆశయాలకోసం పోరాడడం వెనుకబడిన దేశాలన్నిటిలోనూ
చారిత్రకంగా సహజమే. తెలంగాణా సాయుధ పోరాటం కమ్యూనిస్టు పార్టీ
నాయకత్వాన జరిగిన. అది కచ్చితంగా, అసంధిగ్ధంగా, Solely and
exclusively బూర్జువా డెమోక్రటిక్ విప్లవమే. అందులో Working-class
demands గానీ, సోషలిస్టు ఆశయాలుగానీ నామ మాత్రంగాకూడా లేవు.
కనుక ఆనాడు Anti-fedual, bourgeois-democratic భావాలు గల
సాహిత్యం అభ్యుదయ సాహిత్యం అయివుండవచ్చు. కానీ యీనాడు సోషలిస్టు
బావాలూ, కార్మికవర్గ డిమాండ్లూ ప్రతిబింబించని సాహిత్యం అభ్యుదయ
సాహిత్యం కాలేదు. యేమైనా, ప్రధానంగా జ్ఞాపకం పెట్టుకోవలసింది
యేమిటంటే, అభ్యుదయ సాహిత్యంలో యీనాడు పెట్టుబడిదారీ వ్యతిరేక దోరణి
 ---------------------
కచ్చితంగా వుండాలి. మరి యీ ధోరణి కచ్చితంగా ఉండాలంటే రచయితకు
మార్క్సిజంతో అంతో యింతో పరిచయం ఉండాలి, కనీసం ఒత స్తూలమైన
మార్క్సిస్టు అవగాహన వుండాలి. అది లేకపోతే, రచయితలో, రచనలోనూ
రాజీ ధోరణులూ, పెడధోరణులూ, అస్పష్ట మానవతా వాద భావాలూ
ప్రవేశిస్తాయి. మన రచనల్లో అడుగడుగునా కార్మికవర్గ డిమాండ్లు వుండాలని
కాదు నేనంటున్నది. తెలుగుదేశంలో వున్నది యీనాడు యింకా ప్రధానంగా
వ్యవసాయిక సమాజమే. కానీ యీ సమాజంలోని సమస్యలనుకూడా బూర్జువా
డెమోక్రటిక్ దృష్టితో కాక, మార్క్సిస్టు దృష్టితో చూడగలవాడే యీనాడు
అభ్యుదయ రచయిత కాగలడని నేను అంటున్నది. మార్క్సిజంను చదువు
కోకుండానే ఆ దృష్టి అలవడితే నాకేమీ అభ్యంతరం లేదు. కానీ ఆ దృష్టి
వుండడం మాత్రం అభ్యుదయ రచయితకు అత్యవసరమని నా విశ్వాసం.
ఫ్యుడల్ అవశేషాలతో పోరాటం కూడా మనం బూర్జువా డెమోక్రాట్లలాగ కాక,
మార్క్సిస్టులాగా చేయాలి.
 నా అభిప్రాయం స్పష్టంగా చెప్పగలిగినా ననుకుంటాను. యిందులో
నీకు అంగీకారయోగ్యం కాని దేమైనా వుంటే వివరంగా రాయి. యిక వేమనను
గురించి రాయడం అనవసపమనుకుంటాను. అన్నట్లు - యీ జాబు
-51-
రామ్మోహన్్కు పంపించు. యింత వివరంగా మళ్లీ రామ్మోహన్్కు రాయడం
నాకు బరువౌతుంది.
 అన్న యెలా వున్నాడు? అన్న వార్తలు తెలియక చాలా రోజులైంది.
ఆరోగ్యం యెలా వుంది? వీలైతే అన్నను నాలుగు ముక్కలు రాయమను.
 మరి, యిక వూర్లో యేమి చేస్తున్నావు? నవల రాస్తానన్నావు కదా,
యేమైంది? మహీధర నవల (`యీ దారి యెక్కడికి') మీద యేదో
రాయదలచుకున్నట్లుకూడా చెప్పినావు. రాసినావా
 ఆర్వియార్, విశ్వం ఉత్తరాలు రాస్తున్నారు. కడపనుండే యెవరూ
రాయడంలేదు. రమణారెడ్డిగారు అప్పుడప్పుడూ రాస్తున్నారు. ఆర్వియార్
`వసుధ'లో రాసింది విరసం కవితా సంకలనం `ఝం ఝ' మీద సమీక్షట.
అది చూసి రమణారెడ్డిగారు ఉగ్రుడై ఆర్వియార్్కు ఘూటుగా ఉత్తరం
రాసినారట. `వసుధ' నాకింకా రాలేదు. రమణారెడ్డిగారు `ఝం ఝ'
పంపినారు కానీ, నాకు అందలేగు.
 మాస్కోలో ఇండియన్స్ చాలా మందే వున్నారు. కానీ తెలుగువాళ్లు
రేడియోలో ఒకరూ, Indian Embassy లో ౟యిద్దరూ వున్నారు, అంతే,
విద్యార్థులు పాతికమంది దాకా వున్నారు. ఒకరినొకరు కలుసుకోడానిక యెవరికీ
పెద్దగా తీరికవుండదు. నాకు అంతకూ తీరిక వుండదు. తిండి, వాతావరణం
మొదలైన యిబ్బందులకు తోడు, పని చాలా బరువు. యేదో అవస్థలు
పడుతున్నాము.
 నీ కథల cuttings కోసం యెదురు చూస్తున్నాను.
 P.S. యిప్పుడే కొన్ని తెలుగు పత్రికలు ఒక మిత్రుని ద్వారా
అందినాయి. `ప్రగతి ' లో నీ కథ `అడవి' దొరికింది. బాగుంది. వివరంగా
మరొకసారి రాస్తాను. - రా.రా.
 శుభాకాంక్షలు
 రా. రామచంద్రారెడ్డి.
 ------
-52-
 మాస్కో బి-311.
 23-12-71
మిత్రుడు జయరాంకు,
 యీ సారి జాబు రాయడంలో ఆలస్యంనాది. నీ జాబుచేరి మూడు
నెలలైంది. పని యెప్పుడూ Heavy గా వుండడమేకాక, అర్జంటుగా
రాయవలసిందేమీ లేకపోవడంవల్ల యీ ఆలస్యం జరుగుతూ వుంటుంది.
 రచనా వ్యాసంగం పూర్తిగా ఆగిపోయిందా? నీలోని రచయిత
చచ్చిపోయినాడని రాసినావు. అంతపని యెందుకు జరిగిందో నాకు అర్థం
కావడంలేదు. జీవితంలో, కథా రచనా జీవితంలో యేదో పెద్ద Dis llusion-
ment కగిలినవాడు అనవలసిన మాట అది. నిజమే, బెజవాడలో నీరు
ఆశాభంగం లాంటిది కలిగివుండవచ్చు. కానీ రచయితను చంపేటంత
తీవ్రమౌతుంది. రచనకు కావలసిన అన్ని హంగులూ వున్నాయి. నీకు
రచనలో అనుభవంవుంది, జీవితానుభవం తగినంతవుంది. తెలుగుదేశంలో
వివిధ ప్రాంతాల జీవితం చూసినావు కదా. ౟ియిప్పుడు యింటిదగ్గర తీరిక
కూడా కావలసినంత వుంటుంది. కనుక నీవు మళ్లీ కలం పట్టాలని నా కోరిక.
నవల ప్రయత్నిస్తానన్నావు, అప్పుడొకసారి. యేదో ఒకటి మొదలుపెట్టు.
 యీ మధ్యలో మహీధర రామమోహనరావు గారు `యీ దారి
యెక్కడికి?' Press cuttings పంపించినాడు. చదివి నా అబిప్రాయంకూడా
రాసి పంపినాను. నవల రాజీయంగా చాలా బాగుంది. కానీ నవలగా
నా కేమీ నచ్చలేదు. బొంబాయినుండి తల్లీ కొడుకులు రావడంతో కథ
ఆరంభమౌతుంది. నవల పొడవునా వాళ్లే ప్రాముఖ్యం వహిస్తారు. కానీ
యితివృత్తం వాళ్లకు సంబంధించింది కాదు-మార్క్సిస్టులకు సంబంధించింది.
మార్క్సిస్టు నాయకులు ప్రాధాన్యం వహించవలసిన కథలో ప్రేక్షక
మాత్రులైన తల్లీ కొడుకులు ప్రాధాన్యం వహించడం నవలలో పెద్దలోపం.
యీ విషయమే ఆయనకు రాసినాను. ఆయన వద్దనుండి యింకా జవాబు
రాలేదు.
-54-
 విశ్వం కథకు బహుమతి వచ్చింది, తెలుసుకదూ? బహుమతి కథలు
ఆరూ విశ్వం పంపినాడు. యేదీ చెప్పుకోదగినట్లు లేదు. విశ్వం కథకూడా
టెక్నికల్్గా యేమంత బాగలేదు. కానీ కొన్ని aspects లో అదే అన్నిటికంటే
మంచిదేమో అనిపిస్తుంది.
 యుద్దం అయిపోయింది గదా. యిక యెన్నికల యుద్ధం
ప్రారంభమౌతుందనుకుంటాను. యెన్నికల విశేషాలేమైనా వుంటే రాయి. ఐ.యస్.
ప్రొద్దుటూరులో పోటీ చేస్తున్నాడు కదా?త్వరగా జవాబు రాయి.
 శుభాకాంక్షలు
 రా. రామచంద్రారెడ్డి.
 -----
-55-
 Moscow B-311,
 27-8-72.
మిత్రుడు జయరాంకు,
 క్షేమంగా మాస్కో చేరినాము. నీ కథల గురించే అర్జంటుగా ఉత్తరం
రాస్తున్నాను.
 కథలన్నీ చదివినాను. కథల వెంట లిస్టు వున్నది. లిస్టులో 15 పేర్లు
వున్నాయి. కానీ `సింహాద్రి స్వీట్ హోం' `అడవి' అనే కథలు రెండు
నాదగ్గరున్న కట్టలో లేవు. పొరపాటు యెక్కడ జరిగిందో తెలియదు. లిస్టులో
లేని కథ `ఉద్యోగాన్వేషణ' (నీవు కడపలో చేర్చింది) వుంది. ఆ రెండుకథలూ
నీవు మళ్లీ సంపాయించాలి.
 `సరిగమలు-1'లో మార్క్సిజం ప్రసక్తి వున్న దృష్ట్యా, అవసరమైతే
దాన్ని తొలగించుదామని నీవు చెప్పినావు. ఆ దృష్ట్యా దాన్ని
తొలగించనవసరం లేదని నేను అనుకుంటున్నాను.
 కానీ మొత్తం *`సరిగమలు' మూడూ చాలా తేలిక రచనలుగా
వున్నాయి. యీ దృష్ట్యా వాటిని తొలగించడం అవసరమేమో, ఆలోచించు.
పుస్తక రూపంలో వేసేటప్పుడు కాస్త జల్లెడ పట్టడం న్యాయమనుకుంటాను.
 `ఉద్యోగాన్వేషణ' కూడా నాకు అలాగే అనిపిస్తున్నది. పైవాటిలాగ
తేలికకాదు గానీ, యితివృత్తం మరీ నలిగిపోయింది.
 అన్నీ కలిపినా పుస్తకం వంద పేజీలు దాటేటట్లు లేదు, యిక, కొన్ని
తొలగిస్తే పుస్తకం మరీ చిన్నదౌతుంది. ఆలోచించు.
 ఉత్తరం అర్జంటుగా ముగించవలసి వచ్చింది. క్షమించు.
 అభినందనలు,
 ఆర్. రామచంద్రారెడ్డి.
 ------
-56-
 మాస్కో బి-311,
 9-9-72
మిత్రుడు జయరాంకు,
 శుభాకాంక్షలు, పరిచయం రాసినాను. మొత్తం కథలూ, పరిచయమూ
యెవరో మిత్రులు యిండియాకు వస్తుంటే వాళ్లతో పంపుతున్నాను. వాళ్లు
యిండియాలో Regd.Book Post ద్వారా నీకు పంపుతారు, యీ జాబు
కూడా వాళ్లతోనే పంపుతున్నాను. కథ఼లలో రెండు miss అవుతున్నాయని
యింతకుముందే రాసినాను. అందుకని అన్నీ నీకే పంపుతున్నాను.
ఆ రెండూ కూడా నీవు సంపాయించుకొని, తర్వాత బెజవాడకు పంపించు.
 *పరిచయం చాలా brief గా వుంది. నిజం చెప్పాలంటే, యింత
మాత్రం రాయడానికి కూడా కష్టపడవలసి వచ్చింది. యేమో తలకాయ పని
చేయడం లేదు. మూడేండ్లు అయింది కదా తలకాయకు యిలాంటి పనిలేక.
 హైద్రాబాదు పని యెలా జరిగింది? వివరంగా ఉత్తరం రాయి.
అన్నకు నా Greetings చెప్పు.
 అభివాదాలు
 రా. రామచంద్రారెడ్డి.
 -----
-57-
 మాస్కో బి-311
 21-10-72
మిత్రుడు జయరాంకు,
 నీవు 6-9-72న రాసిన జాబు, రెండు - కథలతో సహా చేరింది. చేరి
చాలా రోజులో అయింది.మళ్లీ నీ దగ్గరనుండి జాబు వస్తుందేమో అని
ఆగినాను.
 పోయిన నెల 12వ తేదీన యిక఼్కడి నుండి యెవరో యిండియాకు
పోతూవుంటే వాళ్లతో నీ కథలూ, పరిచయమూ, జాబూ పంపినాను. వాటిని
యిండియాలో పోస్టుచేసి వుంటారు. అవి నీకు పోయిన నెలలోనే చేరి
వుండాలి. నేను వాటిని అటు పంపగా, నీవు `సింహాద్రి స్వీట్ హోం', `అడవి'
నాకు యిటు పంపినావు. యివి రాకముందే నేను `పరిచయం' రాసి
పంపినాను. యీ కథలు మళ్లీ నీకు పంపుతున్నాను. చేరిన వెంటనే జవాబు
రాయి.
 విశేషాలు మరో ఉత్తరంలో రాస్తానన్నావు. కానీ యింతవరకు మళ్లీ
ఉత్తరం రాలేదు.
 నీవు Edit చేసిన `తెలంగాణా గాధలు' అచ్చయిందా? అన్న యెలా
వున్నాడు? త్వరగా వుత్తరం రాయి.
 శుభాకాంక్షలు
 రా. రామచంద్రారెడ్డి.
 ------
-58-
 Moscow B-311,
 12-3-73.
మిత్రుడు జయరాంకు,
 నీ ఉత్తరం అంది చాలా రోజులే అయింది. జవాబు ఆలస్యంగా
రాస్తున్నందుకు క్షమించాలి. యిటువైపునుండి నాకు రాయవలసిన
విశేషాలేమీ వుండవుగదా, అందుకని ఆలస్యం అవుతూంటుంది.
 ఆంధ్ర ప్రత్యేకవాదుల దౌర్జన్యం కడపలో యెక్కువగా వుండిందట
కదూ. యే ఉద్యమానిక఼ీ లేని తీవ్రత యీసారి క఼డపలో యెలా వచ్చిందో
అర్థం కావడం లేదు. వై.సి.వి. యింటిమీద దాడి జరిగిందని New Age లో
చూసినాను. యిటీవల ఉద్యమ తీవ్రత దేశమంతా తగ్గినట్లు విన్నాను. కడపలో
కూడా తగ్గిందా?
 యిక సాహిత్య రంగం విషయమేమిటి? కడప జిల్లా అరవం ఒక
Anthology వేయాలని నిర్ణయించినట్లు ఆ మధ్య `విశాలాంధ్ర'లో చూసినాను.
యేమైంది అది? ఆ నిర్ణయంలో నీవు బాగస్తునివేనా? జిల్లా జిల్లాకు ఒక
Anthology వేయవలసిన అవసర మేమిటో నాకు అర్థం కావడం లేదు.
 ఐ.యస్. యెలా వున్నాడు? అప్పుడప్పుడు ప్రొద్దుటూరికి వెళ్లి
చూస్తున్నావా? యీ ఆరు నెలలో నాకు రెండు ఉత్తరాలు రాసినాడు. నేనూ
జవాబులు రాసినాను. సాస్త reform అయినట్లు అర్థమౌతున్నది. కానీ,
యెంతవరకో నీవు వివరించాలి.
 నీ కథల పుస్తకం ప్రచురణ యేమైంది? `విశాలాంధ్ర ప్రచురణాలయం'
వాళ్లకు యింకా దయకలగలేదా?యిటీవల కొత్త కథలేమైనా రాసినావా?
 అన్న బాగున్నాడు కదూ.
 నీ కొక విషయం చెప్పాలి.యిక్కడి `ప్రగతి' ప్రచురాణాలయం వాళ్లకు
1975 నాటికి యింకా ఒకరిద్దరు తెలుగు అనువాదకులు కావలసి వుంటుందట.
నీకేమైనా అలాంటి వుద్దేశమంటే రాష్ట్రనాయకులను contact చేసి
ప్రయత్నించు. కానీ, యిక్కడికి రమ్మని నేను యెవరికి సలహా యివ్వను.
యీ జీవితంలో సుఖమేమీ లేదు. కొంతవరకు డబ్బు మిగులుతుంది, నిజమే-
కానీ పనిలో కూడా spiritual satisfaction యేమీ వుండదు.
 జవాబు రాయి.
 శుభాకాంక్షలు,
 రా. రామచంద్రారెడ్డి.
 -----
-59-
 మాస్కో బి-311
 18-7-73
మిత్రుడు జయరాంకు,
 శుబాకాంక్షలు, నీ ఉత్తరంచేరి ఆరువారాలు అయింది. నీ
`మర్యాదస్తులు' కాపీ పంపుతానన్నావుకదా, అది అందిన తర్వాత జవాబు
రాయవచ్చుననుకున్నా. కానీ యింతవరకు అది రాలేదు. మళ్లీ `విశాలాంధ్ర' వాళ఼్లు
వాయిదా వేసినట్లుంది కదూ? యీ మధ్య అన్న (గోవిందరెడ్డి) జాబు రాస్తూ,
Get-up కోసమని పుస్తకం ఆలస్యమౌతున్నట్లు రాసినాడు.
 విశ్వం కథలు చూస్తున్నాను. అచ్చయినవన్నీ నాకు పంపుతూనే
వున్నాడు. ప్రతిసారీ నా Critical opinion కోరుతూనే వున్నాడు. నీవన్నట్లు
అభివృద్ధి కనిపించడం లేదు. యే రచయిత అయినా అంతే అనుకుంటాను.
ఒక స్థాయివరకు అబివృద్ధి అవుతారు, ఆ తరువాత ఆగిపోతారు. ఆ
రచయిత స్థాయి అంతే అనుకోవాలి. విశ్వం యింకా
రాస్తున్నందుకు-రాయాలనే తపన వున్నందుకు-మనం సంతోషించాలి.
 మరి నీలో ఆ తపన కూడా ఆరిపోతున్నది కదా. యెందుకు
ఆరిపోతున్నదో నాకు అర్థం కావడం లేదు. నవల పూర్తిచేస్తే ప్రచురణ
కోసం మళ్లీ ఒక శ్రమ అని పూర్తి చేయలేదని ఉత్తరంలో రాసినావు. నవల
అంటూ రాస్తే యే వారపత్రికలోనైనా అచ్చుకావడం యేమంత కష్టంకాదు
గదా. పుస్తకరూపంలో ప్రచురణ అయ్యే సమస్యను తరువాత చూడవచ్చు.
నీవు నవల పూర్తి చేయకపోవడానికీ, కథలు రాయకపోవడానికీ కారణం
ప్రచురణ సమస్యకాదేమో, కనీసం అది ప్రధాన కారణంకాదేమో అని
నా అనుమానం. జీవితంపట్ల విరక్తిలాంటిదేమైనా కలిగిందా? లేక నీలోని
సృజనాత్మక శక్తి సన్నగిల్లుతున్నదేమో? జాగ్రత్త! సృజనాత్మక శక్తి అనేది
వాడుకుంటూవుంటూనే సజీవంగా వుంటుంది. లేకపోతే తుప్పుబట్టి పోతుంది.
 నీవు నవల రాస్తే యెలా వుంటుందో చూడాలనివుంది నాకు. యెందుకో
చెప్పనా? నీ కథలన్నీ నేను చూచినాను గనుక, నీకు నవల రాయడం
చేతకాదనే అబిప్రాయం నాకువుంది. నీ కథలనుబట్టే నాకాఅభిప్రాయం
యేర్పడింది. అంటే మరేమీకాదు-నవల తత్వానికి పూర్తి వ్యతిరేకంగా
వుంటాయి నీ కథలు. కనుక నీవు నవల రాస్తే చూడాలని వుంది.
-60-
 సరేగాని, "నామట్టుకు నాకు మంచి మూడ్్వుంటే మంచి ఉత్తరం
రాయవచ్చు ననిపిస్తుంది, అన్నావు. ఆ మాట ఒప్పుకుంటాను గానీ,
నీవెప్పుడైనా నాకు "మంచి ఉత్తరం" రాసినావా చెప్పు?.
 P.S. అరసం మహాసభ జరిగితే, విశేషాలు రాయి. -రా.రా.
 శుభాకాంక్షలు
 రా.రామచంద్రారెడ్డి.
 ------
-61-
 Moscow B-311
 25-10-73
మిత్రుడు జయరాంకు,
 శుభాకాంక్షలు. నీ కథల సంపుటి అంది చాలా రోజులైంది.దాని
వెంట జాబు వస్తుందేమో అని కొన్నాళ్లు యెదురు చూసినాను. జాబు
రాయలేదా నీవు? గోవిందరెడ్డి రాసిన జాబు చేరింది. మళ్లీ యెప్పుడైనా జవాబు
రాస్తానని చెప్పు.
 మల్లారెడ్డి యిక్కడేవున్నాడు. రేపు యిండియాకు బయలు దేరుతాడు.
యీ జాబు మల్లారెడ్డితోనే పంపుతున్నాను.
 నిన్న కృష్ణాజిల్లా అరసం ప్రచురించిన `సుడి' అందింది-Peace
congress కు వచ్చేవాళ్లు తెచ్చినారు. అందులో మొదటి కథే నీది కావడం
సంతోషకరం. ఆ జిల్లా వాళ్లలో నీవూ విశ్వమూ యెలా వున్నారో మరి?
అదేమైనా, నీ కథ చాలా బాగుంది, నాకు చాలా నచ్చింది. ఆ సంపుటంలోని
యితర కథల కంటే బాగుందని కాదు నేనంటున్నది-అది చెప్పనక్కరలేదు-
నీ కథలలోనే చాలా వాటికంటే యిది బాగుందని. నీ `వాడిన మల్లెలు' కథ
ఒక Sense లో దీనికంటే గొప్ప కథ; కానీ దీనిలో వున్న effect దానిలో
రాలేదు. నీకు అర్దమయిందో లేదో మరి.
 అది సరే. నీ మొత్తం కధలలో యెన్నింటిలో కథానాయకుడు కథలు
రాసేవాడుగా వున్నాడో చెప్పు. లెక్కవేసి మరీ చెప్పు, అయిదారు కథలైనా
వున్నాయా? అలా వుండడం తప్పు అని నే ననడంలేదు. అలా యెందుకు
తరుచుగా జరుగుతున్నదో ఆలోచించమని అడుగుతున్నాను. కె.కె.లో
యిది చాలా అరుదని గమనించినావా? కె.కె. కథ `కురూపి' లో వుందిగానీ,
అందులో ఆ పాత్ర కథకుడు కావడంతోపాటు కథాశిల్ప చర్చవుంది. ఆ శిల్ప
చర్చ కథలోని యితివృత్తంతో గాఢంగా లంకించబడీ వుంది. సరేలే-
ఆలోచించమని చెప్తున్నాను.
 `యుగసాహితి' ప్రచురణ `విరసం సాహిత్య బండారం' నాకు అందింది.
రామప్ప వ్యాసాలు రెండూ, ఆర్వీయర్ దొకటీ, మన రామ్మోహన్్దొకటీ
వున్నాయి అందులో. రామప్పకు రమణారెడ్డిమీద అంత కోపం రావడం
కూడా మేలే అయింది. రామప్ప వ్యాసాలు బాగున్నాయి. అర్వియార్్దీ,
-62-
రామ్మోహన్్దీ సిద్దాంత వ్యాసాలు గనుక, subject కు న్యాయం చేయడం
కష్టం. అయినా వ్యాసాలు పరవాలేదనిపించినాయి. యివి రెండూ మునుపు
`విశాలాంధ్ర'లో వచ్చినవేలే.
 విశ్వం కూడా యిప్పుడు కడపలోనే వున్నాడు. అప్పుడప్పుడు
కలుస్తుంటారు కదా? యెలావున్నాడో, నాకు జాబే రాయలేదు. ఐ. యస్.ను
గురించి మల్లారెడ్డి ద్వారా కొంత విన్నాను. పార్టీ బాధ్యతలన్నీ
మానుకున్నాడట.
 రాయడానికి యింకేమీ కనిపించలేదు. త్వరగా జవాబురాయి.
ఐ.స్.కనిపిస్తే జాబు రాయమని చెప్పు. నేనుకూడా రాయక చాలా
రోజులైంది కానీ, జవాబు రాయనివానికి యెన్నిసార్లని రాసేది. చెప్పు.
 శుభాకాంక్షలు,
 రా. రామచంద్రారెడ్డి.
 -----
-63-
 మాస్కో బి-311
 17-1-74
మిత్రుడు జయరాంకు,
 నేను రెండు జాబులు రాస్తేగాని నీవు ఒకటి రాయమని తేలిపోయింది.
గనుక మళ్లీ నేనే రాస్తున్నాను. మల్లారెడ్డి వచ్చినప్పుడు, అక్టోబర్
#ఆఖరులో,
నీకొక జాబు రాసినాను. దానికి జవాబు రానేలేదు.
 డిసెంబర్ 23 ఆదివారం `విశాలాంధ్ర'లో "సుడి" కథా సంకలనం
మీద సమీక్ష వచ్చింది. ఆ సంచిక 7,8 రోజులక్రిందట నా చేతికి
వచ్చింది. నీకు వెంటనే జాబు రాయాలని ఆరోజు అనుకున్నాను, కానీ
తొందరపని మూలంగా రాయలేకపోయినాను. యింతలో, డిసెంబర్ 30
`విశాలాంధ్ర' నిన్న అందింది. అందువలన పట్టుబట్టి యీదినం రాస఼్తున్నాను.
యీ సంచికలో నీ "సింహాద్రిస్వీట్ హోం"మీరద సమీక్ష వచ్చింది.
`విశాలాంధ్ర' చూస్తున్నావు గదా.
 "సుడి"మీది సమీక్షలో దాదాపు సగం నీ కథ "పుణ్యకాలం
మించిపోయింది" మీదనేవుంది. సమీక్షకుడెవరో బొ.సూ.అట. నీ కథ
మీద ఘాటైన దెబ్బలే కొట్టినాడు. "గంధ్రగోళం గజిబిజి"లాంటి
పదాలన్నీవాడి, చివరకు "మొత్తం కథ రసాభాస అయింది" అని తేల్చేసినాడు.
`విశాలాంధ్ర' సంస్థానంలో యింతకు మించిన సాహిత్య స్థాయి యెప్పుడూ
లేదు గనుక నాకు పెద్దగా ఆశ్చర్యం కలుగలేదు గానీ, నీవేమంటావో
తెలుసుకోవాలని వుంది. ఆ విమర్శకు నీ సమాధానమేమిటో, వీలైతే,
వివరంగా రాయి.
 "సింహాద్రి...."మీది సమీక్షలో విశేషాలేమీ లేవులే.
 యిక, నీవేం చేస్తున్నావో చెప్పు. ముఖ్యంగా ఐ.సు. యెలా వున్నడో
చెప్పు. యిటీవల కనిపించినాడా? నేను జాబు రాద్దామనుకుంటూనే వునున్నా.
కానీ యెప్పుడూ పడలేదు. త్వరలో రాస్తాలే.
 కడపలో పత్రికకు రుచుకుగా యేర్పాట్లు జరుగుతున్నట్లు వార్తాలేమో
వస్తున్నాయి. యింకా పుట్టలేదా? అందులో నీకేమైనా పాత్ర వుందా?
ఆ మధ్యన విశ్వం జాబు రాసినాడు. తన కథల సంపుటిని కడప అరసం
-64-
ప్రచురిస్తుందని రాసినాడు. దానికి నిన్ను పరిచయం రాయమన్నాడట.
రాసినావా? ఆ కథలమీద నేను ఉత్తరాలలో చేసిన కొన్ని comments
వున్నాయి. వాటిని కూడా కథలతోపాటు ప్రచురించే అబిప్రాయం నిశ్వం
వెలిబుచ్చినాడు. ఆ విషయం నీవు పరిశీలించి సరైన సలహా యిస్తావని
ఆశిస్తున్నాను. ఆ comments నాకు జ్ఞాపకం లేవుగదా, అందకు నేను
యదమిత్థంగా యేమీ చెప్పలేదు.
 విశేషాలు రాయి. అన్న బాగున్నాడు కదూ,
 శుభాకాంక్షలు,
 రా.రామచంద్రారెడ్డి.
 -----
-65-
 కడప.
 24-3-77.
మిత్రుడు జయరాంకు,
 హైదరాబాదు నుండి యీ ఉదయమే వచ్చినాను. రేపు 1వ తేదీ
నుండి `ఈనాడు'లో పనిచేయాలి. కనుక 30వ తేదీ రాత్రి బస్సుకు
హైదరాబాదుకు పోవాలనుకుంటున్నాను. యీ లోపల నీవు కడపకు
వస్తావని ఆశిస్తున్నాను. వీలైతే ఆదివారంనాడు రా. ఆ సాయంత్రం
నలుగురమూ కలవవచ్చు. విశ్వంకు కూడా ఆదివారంనాడు వీలైతే రమ్మని
రాసినాను. గోవిందరెడ్డి బాగున్నాడు కదూ.
 ఆదివారంనాడు వస్తే అంగడి వుండదు. కనుక నన్నుగానీ, రామప్పను
గానీ యింటిదగ్గర contact చెయ్యి.
 శుభాకాంక్షలు
 రా. రామచంద్రారెడ్డి.
 -----
-66-
 హైదరాబాద్,
 21-9-77
మిత్రుడు జయరాంకు.
 క్షేమం. నేను యిక్కడచేరి ఆరు నెలలు అవుతున్నది. అందరి
వార్తలూ తెలుస్తున్నాయి గానీ నీ వార్తలే తెలియడం లేదు. మీ కేసు
యింకా వాయిదాలు పడుతున్నదని తెలిసింది. రాజీ కుదరలేదని
ఇటీవల ఐ యస్్ ద్వారా విన్నాను. చాలా కాలంగా మల్లారెడ్డి నిన్ను`ఈనాడు'
లోకి ఆహ్వానిస్తున్నాడు. కానీ, కేసు తెగిందాకా రాలేవు గదా. మరి
యిప్పుడు రామ్మోహన్్ వస్తే తీసుకుంటామని అంటున్నారు. రామ్మోహన్్కు
ఉత్తరం రాయడం కంటె నీకు రాయడమే మంచిదని నీకే రాస్తున్నాను. నీవే
రామ్మోహన్్కు ఉత్తరం రాసి గానీ, స్వయంగా కలుసుకొని గానీ తన
అబిప్రాయం యేమిటో తెలుసుకో. తరువాత వీలైతే నీవు ఒకసారి
హైదరాబాదుకు వస్తే వివరాలు మాట్లాడుకోవచ్చు అవసరమైతే నేనైనా
కడపకు రాగలను.
 నాకిప్పుడు వెయ్యి రూపాయలు యిస్తున్నారు. వెయ్యి యిచ్చినా సంసారం
బరువుగానే వుంది-యింటి అద్దెకే 300 పోతున్నది. యిప్పుడు చిక్కడపల్లెలో
మల్లారెడ్డి యింటి పక్కనే వున్నాను. యిల్లు ఆఫీసుకు దగ్గరగా చూస్తున్నాను.
త్వరలోనే మారుతాను.
 నా పుస్తకం `సారస్వత వివేచన' యెట్టకేలకు విడుదల అయింది-
కొ.కు మీద రాసిన వ్యాసంతో సహా.
 అన్న బాగున్నాడు గదా? నీవు యేమిచేస్తున్నావు. ఆ నవల
అసంపూర్ణంగానే వుంది గదా! నీ కథలు రష్యన్్లకి అనువాద మౌతున్నాయని తెలిసింది.
సంతోషం.
 కడపలో విశేషాలేమిటి? పద్మనాభరెడ్డి అప్పుడప్పుడు హైదరాబాదుకు
వస్తూనేవున్నాడు. మిగతావాళ్లెవరూ కనిపించడంలేదు.
 త్వరగా జవాబు రాయి.
 అభినందనలు,
 ఆర్ రామచంద్రారెడ్డి.
 -----
-67-
 హైదరాబాద్,
 8-10-77
మిత్రుడు జయరాంకు,
 నీ జాబు చేరింది. నీవు రామ్మోహన్్కు రెండవ జాబు రాసిన వెంటనే
అతను నాకు రాసినాడు. మనిషికి ఓపిక తగ్గినట్లుంది. Nightduty
బొత్తిగా చేయలేనని షరతు పెట్టినాడు. Shift-in-charge పనికాక వేరే పని
అయితే బాగుంటుందని రాసినాడు. మరి యిక్కడేమో Shift-in-charge
పని కోసమే రామ్మోహన్్ కొరకు ప్రయత్నించడం. అందువలన ప్రస్తుతానికి
అతన్ని తీసుకోడానికి యిక్కడివాళ్లు యిష్టపడలేదు. యీ విషయం
రామ్మోహన్్కు తెలుపుతూ యిప్పుడ఼ే జాబు రాసినాను.
 వారపత్రికలోనే, మాసపత్రికలోనో పని అయితే బాగుంటుందని
రామ్మోహన్్ రాసినాడు. అవి యెప్పుడు వస్తాయో తెలియదు. అయిదారు
నెలలలో దినపత్రిక బెజవాడ ఎడిషన్ వస్తుంది. ఆ దృష్టితో staff ను
చేర్చుకుంటున్నాడు. అందులో బాగంగానే రామ్మోహన్్ కొరకు ప్రయత్నించడం,
(అంటే రామ్మోహన్్ను బెజవాడలో వుంచాలని కాదు.)
 గోవిందరెడ్డి బాగున్నాడు కదా.
 శుభాకాంక్షలు
 రా.రామచంద్రారెడ్డి.
 -----
-68-
 హైదరాబాదు,
 15-12-78
మిత్రుడు జయరాంకు,
 యెన్నాళ్లయిందో జాబులూ, జవాబులూ లేక. యెలా వున్నావు?
యోమి చేస్తున్నావు? యిప్పుడైనా వివరంగా రాయి.
 మీ కేసు కొట్టివేసినట్లు తెలిసిన తర్వాత నీవు యిక్కడ పని
చేయ#డానికి
వస్తావని మల్లారెడ్డి నీకు జాబు రాయాలి రాయాలి అని అంటూనే కొంతకాలం
గడచిన తర్వాత, నీవు జాబు రాయలేదు గనుక నీకు ఆసక్తి లేనట్లుందని
ఊహించి జాబు రాయడం మానుకున్నాడు. నీవు రావని నాకు సూచనగా
ముందే తెలిసినా నేనేమీ చెప్పలేదు. నీవు వస్తే మంచిదే అని కూడా నేను
అనుకున్నాను. అది పోనీలే. ఆ విషయం చెప్పడానికి కాదు నేనీజాబు
రాస్తున్నది.
 శుభలేక పంపుతూ. యీ సందర్భంగా఩ైనా జాబు రాద్దామని
అనిపించింది. నా చిన్నకొడుకు మధువర్థనరెడ్డిది పెండిలి. యే మాత్రం వీలున్నా
గుంటూరికి రా. చాలా రోజులైంది గదా నిన్ను చూడక. నేను యిక్కడికి
వచ్చి 20 నెలలు దాటింది. మళ్ళీ కడపకు పోనేలేదు.
 అన్న బాగున్నాడా? జవాబు రాస్తావు గదూ.
 శుభాకాంక్షలు,
 రా.రమచంద్రారెడ్డి.
 -----
-69-
 హైదరాబాద్
 16-1-79
మిత్రుడు జయరాంకు,
 నీవు `విపుల' కు పంపిన కథ మళ్లీ నీకు యీ పాటికి చేరి వుంటుంది.
చలసాని ప్రసాద్్ను నిన్న నీ కథను గురించి అడిగితే,నీకు వాపస్ పంపినట్లు
చెప్పినాడు. అతనికి నచ్చకపోవచ్చునని నేను ముందే అనుమానించినాను.
యేడాదినుండి అతని చేతికింది నడిచే `విపుల',`చతుర'(అన్ని సంచికలూ
చదవక పోయినా) చూస్తున్నాను గనుక, అతని అబిరుచులు నాకు అర్థమైనాయి.
 నామట్టుకు నాకు నీ కథ (సినిక్) బాగానే వుంది. మొదటి పారా
మాత్రం నాకు నచ్చలేదు. వ్యాసానికి వుండదగిన ప్రారంభంలా వుంది
అది. ఆ కథను యెలాగూ మరొక పత్రికకు పంపుతావు గనుక, ఆ మొదటి
పారాలోని బావాన్ని కథ అంతంలో (తగు మార్పులతో) పెట్టిచూడు. నేను
సూచించే సవరణ నీకు నచ్చితే సరే, లేకుంటే అలాగే పంపించు.
 యేమైనా, `సినిక్' కొంత డ్రైగాని వుంది. కథలోని యితి వృత్తమే
అలాంటిది. దీన్ని తిరస్కరించడానికి చలసానికి యిదీ ఒక కారణం-బహుశా
ముఖ్య కారణం-కావచ్చు.
 `సౌమ్య' లో *నీ కథ చదివినాను. నాకు బాగా నచ్చింది. `సినిక్'
కంటె బాగుంది. అది చదివినప్పుడే అనుకున్నాను, యీ నాలుగైదేండ్ల
విరామంలో నీ రచనా తత్వం యేమీ మారలేదని.
 పెండ్లి బాగాన జరిగింది. బెజవాడనుండి రామ్మోహన్ వచ్చినాడు,
తులసీ క్రిష్ణతో సహా. నీవూ, విశ్వం, రామప్పా తప్ప రావలసిన ఆప్తులందరూ
వచ్చినారు. రామప్పకు జ్వరం. విశ్వం భార్యకు యేదో జబ్బు అని రామప్ప
ద్వారానే తెలిసింది. విశ్వం జాబు రాయక నెలకు పైగా అయింది.
 నీ నవల యేమైంది? యింకా అసంపూర్ణంగానే వుందా?
 అన్న బాగున్నాడు కదూ.
 శుభాకాంక్షలు,
 రా. రామచంద్రారెడ్డి.
 -----
-70-
 కడప.
 21-1-61.
శ్రీ రమణారెడ్డిగారికి,
 నమస్కారాలు. మీ 18వ తేదీ జాబు చేరింది. మీరు కోరినట్లు
మీ 3వ తేది జాబుకు నకలు తీసి పంపుతున్నాను.
 * `ఇంద్రధనస్సు'ను గురించిమేము వేసుకొన్న కార్యక్రమం యింకా మొదలే
కాలేదు. అందువల్లనే దాన్ని గురించి మీకు వ్రాయడానికి సంకోచించినాను.
ముందు విరాళాలు సేకరించాలనీ, ఆ తరువాత ముఖ్య రచయితలను మీ
వంటివాళ్లను కలుసుకొని యితర రచయితలతో జాబుల ద్వారా సంబంధాలు
కల్పించుకొని రచనలకు సంబంధించిన యేర్పాట్లు చేసుకోవాలనీ అనుకున్నాను.
కానీ M.L.A. జబ్బుపడినందున కార్యక్రమం మొదలే కాలేదు. ఆయన
ఆరోగ్యం యిప్పుడు బాగున్నది. ఈ నెలాఖరులో విరాళాల సేకరణ మొదలు
పెడదామంటున్నాడు. ఉగాదికి మొదటిసంచిక తేవాలని మొదట
అనుకున్నాంగానీ, అది నెరవేరుతుందో లేదో అని యిప్పుడు అనుమానంగా వుంది.
 పోయిన జాబులో నేను sketch అనే పదం వాడినప్పుడు,నేనుకూడా
technical sense లోనే దానిని వాడినాను. కథానికలో Emotional content
సమృద్ధిగా వుంటుందనీ, Characterisation స్ఫుటంగా వుంటుందనీ, అని
రెండూ లోపిస్తే sketch ఔతుందనీ నేను చెప్పింది technical sense లోనే.
ఈ రెంటిలో కూడా Emotional content అనేదే Deciding factor అని
అనుకుంటాను. కథానికలో వుండవలసిన బలమైన అనుభూతులూ, స్ఫుటమైన
పాత్రలూ లేకుండా ఒక జీవిత సత్యాన్నో, ఒక సామాజిక ధర్మాన్నో, ఒక
నీతి సూత్రాన్నో నిరూపించడానికి మాత్రమే నన్నట్లు, కేవలం ఒక
Illustration మాదిరీ వుంటే అది sketch ఔతుందని నా అభిప్రాయం
కథానికలో అనుభూతి సంపదకు యెంత విలువవున్నా, కథానికకూ కవిత్వానికి
వున్న బేదం నీకు తెలియంది కాదు. నమస్కారాలు.
 భవదీయుడు
 ఆర్. రామచంద్రారెడ్డి.
 -----
-71-
 పైడిపాళెం
 4-5-62.
మిత్రులు రమణారెడ్డి గారికి,
 నమస్కారాలు. మీ ఉత్తరం అంది చాలా రోజులే ఐంది. కానీ
ఴవెంటనే జవాబు రాయవలసిన అవసరం యేమీ లేనందున రాయలేదు.
 ౟ియిప్పుడు యీజాబు రాయడం ముఖ్యంగా `అన్నపూర్ణ' ను గురించి. మీ
నాటకం రెండవసారి చాలా శ్రద్ధగా చదివినాను. పదిరోజులనుండి ఆలోచన
చేస్తున్నా, సమీక్ష యేవిధంగా రాయాల్సిందీ తేచనేలేదు. కడకు సమీక్ష
రాయడంకంటె మీకు క్షమాపణ చెప్పుకోడమే మేలని యీజాబు రాస్తున్నాను.
 యెన్నివిధాల చూసినా నాకు మీ నాటకం చాలా అసంతృప్తికరంగా
వుంది. బంజరు సమస్యను ఇతివృత్తంగా స్వీకరించడం తప్పక అభినందించ
దగిన విషయమే. కానీ ఆ సమస్యా చిత్రణ తృప్తికరంగా రాలేదు. మీరు
ఉద్దేశపూర్వకంగానే బంజరు సమస్యను అన్నపూర్ణ Personal tragedy తో
ముంచివేసినారు. ఆ రెండు సమస్యలూ కలిసి ఒక integrated tragic
effect కలిగిస్తున్నాయా అంటే అదీ లేదు. అసలు బంజరు సమస్యలో
tragic element లేదుకదా. అందువల్ల అన్నపూర్ణ వ్యక్తిగత సమస్యలోని
విషాదాన్ని బంజరు సమస్య Reinforce చేయడంలేదు.
 `Luckacs ను Quote చేయడం ద్వారా రాజకీయ సమస్యకంటె వ్యక్తి
సమస్యకే మీరు అదికతర ప్రాముఖ్యం యిచ్చినట్లు వ్యక్త మౌతున్నది. కానీ
మరొకవైపు మాభూమి....సంప్రదాయాన్ని నిలబెట్టడానికి సంకల్పించినట్లు
చెప్పుకున్నారు. Lukacs కూ మాభూమి సంప్రదాయానికీ వున్న వైరుధ్యాన్ని
మీరు గుర్తించినట్లు లేదు. `మాభూమి' వంటి నాటకాలు ట్రాజెడీలు కావడం
కానీ, వాటిలో Tragic undercurrent వుండడం కానీ వూహించరాని
విషయాలు.
 మీ పాత్ర చిత్రణకూడా చాలా అసంతృప్తికరంగా వుంది.
రామబ్రహ్మం, వెంకటప్పయ్య, నారప్ప, శివయ్య, జిల్లా కలెక్టరు వీళ్లందరూ ఊత
-72-
పదాల ద్వారానో మరొక విధంగానో హాస్యం కలిగిస్తున్నారు. ఐదవ
అంకంలో నారప్ప హాస్యం అసందర్భంగా వుందని సుంకర సత్యనారాయణ
 ----------------------
గారు కూడా అన్నారు. నాదృష్టిలో చాలాచోట్ల హాస్యం అసందర్భంగావుంది.
 నాకు మరొక అబిప్రాయాం కూడా కలుగుతున్నది. మీ నాటకంలో
వేణుగారి influence చాలా వున్నట్లు తోస్తుంది. అనగా అది ఒక రచయిత
రాసిన నాటకంగా కాక, ఒక నటుడు రాసిన నాటకంగా కనపడుతున్నది.
రచయిత యెప్పుడూ నాటకాన్నంతటినీ ఒక unit గా treat చేస్తాడు. కానీ
నటుని దృష్టివేరు. యే మాటను, యే చేష్టను, యే అబినయ విన్యాసాన్ని
ప్రేక్షకులు యేవిదంగా receive చేస్తారనేదానిమీదనే; ప్రేక్షకుల఼నుండి దేనకీ
Applause వస్తుందనే దానిమీదనే నటునికి శ్రద్ధ వుంటుంది. అనగా
సందర్భశుద్ధికంటె తాత్కాలికమైన effect కొరకే నటుడు పాటుపడతాడు.
Effect కొరకు అనౌచిత్యాలు ప్రవేశపెట్టినచోట్లు నాకు `అన్నపూర్ణ' లో చాలా
కనపడుతున్నాయి. యిది వేణుగారి influence కాకపోతే మీ యిద్దరిమీదా
third rate తెలుగు సినిమాల influence యెక్కువగా వుందని అనుకోవలసి
వస్తుంది.
 యీ జాబే ఒక సమీక్ష కాకుండా యింతటితో ముగిస్తున్నాను.
సమీక్ష రాయలేనందుకు నన్ను మీరు క్షమిస్తారని ఆశిస్తున్నాను.
 నమస్కారాలు.
 భవదీయుడు
 ఆర్. రామచంద్రారెడ్డి.
 -----
-73-
 కడప,
 11-10-65
మిత్రులు శ్రీ రమణారెడ్డిగారికి,
 నమస్కారాలు. పత్రికకు మొన్఩నే డిక్లరేషన్ వచ్చింది. `అభ్యుదయ'
అనే పేరుకు యే కారణంవల్లనో ప్రెస్ రిజిస్ట్రార్ అభ్యంతరం తెలిపినందున
పేరు మార్చుకోవలసి వచ్చింది. `ఆవాహన' అనే పేరు పెట్టినాము. మొన్ననే
డిక్లరేషన్ వచ్చింది. జనవరి 1వ తేదీనాటికి మొదటి సంచిక తేవాలని
అనుకుంటున్నాము.
 ఈ పత్రికను గురించి ఒక విషయం మీకు చెప్పవలసిన అవసరం
వుంది. పత్రిక మా పార్టీయిచ్చే డబ్బుతో నడవబోతున్నది. పత్రికకువచ్చే
నష్టాన్ని భరించేవాళ్లు యెవరూ లేనందున యీ పద్ధతి అవసరమైంది. విరాళాల
మీద ఆధారపడి పత్రిక బాద్యతను స్వీకరించడం నాకు యిష్టంలేదు. ఐనా
యీ పద్ధతికి మీకేమీ అభ్యంతరం వుండదని అనుకుంటున్నాను. పత్రిక
సాహిత్య ప్రధానంగా వుంటుంది కనుకనూ, వీలున్నంతవరకూ వివాదాస్పద
విషయాలకు అతీతంగా వుంటుంది గనుకనూ పత్రికకు మీ సంపూర్ణ
సహకారం వుంటుందని విశ్వసిస్తున్నాను. అవసరమైతే మీతో
మాట్లాడడానికి వస్తాను. జవాబు రాయండి.
 భవదీయుడు
 ఆర్. రామచంద్రారెడ్డి.
 -----
-74-
 కడప.
 1-11-65.
మిత్రులు రమణారెడ్డిగారికి,
 పత్రికకు డిక్టరేషన్ వచ్చిన వెంటనే మీకు జాబు రాసినాను. 20
రోజులైంది. ఆ జాబు మీకు చేరిందో లేదో మరి? అవసరమైతే మీతో
మాట్లాడడానికి కావలికి వస్తానని అందులో రాసినాను. మన మధ్య కొన్ని అభిప్రాయ
భేదాలు వుండినా సాహిత్యరంగంలో అందరమూ సమిష్టిగా కృషి చేయడం
కష్టం కాదనే నా నమ్మకం. కాబట్టి యీ పత్రికకు మీ సంపూర్ణ సహకారం
వుండగలదని విశ్వసిస్తున్నాను.
 పత్రిక జనవరి 1వ తేదీకి వెలువడుతుంది. డిశెంబర్ ఆరంభంనుండే
ప్రింటింగు వగైరా మొదలు పెట్టాల్సి వుంటుంది. కాబట్టి మీ రచన మే
నెలలోనే పంపుతారని ఆశిస్తున్నాను. మొదటి సంచికలో మీ రచన యేదో
ఒకటి వుండడం చాలా అవసరం.
 నమస్కారాలు. అబినందనలు
 రా.రామచంద్రారెడ్డి.
 -----
-75-
 కడప,
 24-2-66.
మిత్రులు రమణారెడ్డి గారికి,
 `భారతి' లో మీ `నవలా కుటుంబం' చదివినాను. దాని మీద
నా అభిప్రాయాలు తెలుపమని మీరు కోరినారు గనుక వివరంగా
రాస్తున్నాను. నిజానికి మీరు కోరకపోయినా నా అభిప్రాయాలు మీకు
తెలపవలసిన అవసరం కనిపిస్తున్నది.
 "కె.కె. బుద్దివాది" అనేది మీరు చేసిన ప్రధానమైన characterisa-
tion ఆ అభిప్రాయంతోనే నేను విబేదిస్తున్నాను. కనుక మనకు fundame-
ntal గానే అబిప్రాయాబేదాలు వున్నాయన్నమాట. దాని గురించి చెప్పే
ముందు కొన్ని యితర విషయాల గురించి చెప్పనివ్వండి. చిన్నవీ, పెద్దవీ
అన్నీ రాస్తున్నాను. మీరేమీ అనుకోకండి.
 1) 14వ, పేజీలో commonsense ను ర`లౌక్యం' అన్నారు.
Commonsense ను `లోకజ్ఞత' అనవచ్చు లేదా, `లోకజ్ఞానం' అనవచ్చు.
`లౌక్యం' అనడం బాగలేదు. Diplomacy ని `లౌక్యం' అంటాము.
Opportunism ను కూడా `లౌక్యం' అనవచ్చు. 32వ, పేజీలో "ఈతరం
వెనుకటికంటే ఎక్కువ లౌక్యం తెలిసినట్టిది. అది ఆదర్శ దారిద్ర్యం మాత్రమే
కాదు........" అ఩్నారు. అంటే యిక్కడ opportunism నే `లౌక్యం'
అంటున్నారు. పైన ఆ విధంగా యందుకన్నారో మరి?
 2) 32వ, పేజీలో అదే సందర్భంలోనే "ఈతరం మునుపటికంటె
పనితనం కలట్టిది" అన్నారు. `పనితనం' అంటే యేమిటి? నేర్పరిత఼నం
అనేనా?
 3) `కులంలేని మనిషి'ని గురించి రాస్తూ, 24వ, పేజీలో రెండు
చోట్ల `కులంలేనిపిల్ల' అన్నారు. ఇదే విధమైన slips మరి రెండుచోట్ల
చేసినారు. `పంచకళ్యాణి'ని గురించి రాస్తూ, 29వ, పేజీలో, "....స్త్రీ
సముడైన పురుషుణ్ణి బుట్టలో వేసుకొని గాఢంగా నిట్టూర్చింది జానకి" అన్నారు.
అక్కడ వుండవలసింది `జానకి'గాదు, లక్ష్మి. 30వ, పేజీలో "లక్ష్మి అన్న
శంకరం ఆడ సినిమాస్టార్ల..." అన్న వాక్యంలో `లక్ష్మి'కి బదులు `తాయారు'
వుండవలసింది.
-76-
 4) జర్నలీజ్ గురించి మీ అభిప్రాయంతో నేను ఏకీభవించలేను.
నేనేకాదు, యెవరూ ఏకీభవించలేరు. యెందుకంటే పత్రికా విలేఖరులు వారే
ఒక వికృతమైన బాషనే అందరూ జర్నలీజ్ అనేది. అట్లే ప్రభుత్వ
కార్యాలయాల్లో వాడే మరొక వికృతమైన బాషను officialese అంటారు. వకీళ్లు,
court documents లో వాడేది యింకో వికృతమైన భాష. ఉదాహరణకు
Allegedly, Supposedly, reportedly అనే పదాలు మనం రోజూ దిన
పత్రికల్లో చూస్తుంటాము. కానీ యీ పదాలు పత్రికల్లో తప్ప మరెక్కడా
కనపడవు. పత్రికల వాళ్లకు యీపదాలు చాలా Conbenient గా వున్నాయి.
గనుకనే వాటినీ వాడు తుంటారు.అదే విధంగా పత్రికల ,శైలిలోకూడా,
Convenience కోసమే, కొన్ని దుర్లక్షణాలు ప్రవేశించినాయి. ఈ
దుర్లక్షణాలనే జర్నలీజ్ అనేది. "మంచి దినపత్రికా శైలికీ నవలా శైలికీ
మౌలికమైన బేద" మేదీ లేదని అనుకున్నా, మంచి దినపత్రికా శైలిని యెవరూ
జర్నలీజ్ అనడంలేదు. పత్రికల భాషలో యేదైతే వికృతంగా వుంటుందో
దానినే జర్నలీజ్ అంటారు.
 "మంచి దినపత్రికా శైలికీ నవలా శైలికీ మౌలికమైనభేద"మేదీ
లేదనడం కూడా న్యాయంకాులు. తగినంత vocabulary వుంటే మంచి
జర్నలిస్టుకు చాలు. కానీ నవలా రచయితకు Style అనేది కూడా అవసరం.
Style కు తోడు, భాషలోవుండే Subtle power ను బాగా
వినియోగించుకోగలవాడే మంచి నవలా రచయిత కాగలడు. ఐనా నేను చెప్తున్నది మంచి
నవలల గురించే కాని, తెలుగు నవలల గురించికాదు లెండి.
 5) "వాస్తవాన్ని చిత్రించడమంటే దానికి ప్రతిరూపాన్ని కల్పించడం
కాకుండా, దానిని సౌందర్యంగా మార్చడమే. ఆ ఇంద్రజాలం కె.కె.కి
చేతకాదనడం కంటే రసరిపడదనడమే సబబైన మాట". (భారతి 12 పేజి)
దీనివెంట Foot-note లో Gerald gould quotation యిచ్చినారు. యిక్కడ
`సౌందర్యం' అంటే యేమిటీ? వాస్తవాన్ని సౌందర్యంగా మార్చడంమంటే అసలు
వస్తువులో లేని సౌందర్యాన్ని ప్రతిరూపానికి కల్పించడం అని కాదుగా
Gerald gould తో నాకు పరిచయములేదు గానీ, `సౌందర్యం' అంటే `కళ' అనే
నేను అర్థం చేసుకుంటున్నాను. ఒక కథగానీ, ఓ నాటకంగానీ Beautiful గా
వుందఃటె, అది మంచి కళాఖండం అనే అర్ధం చేసుకోవసి వుంటుంది. మరి
-77-
"ఆ ఇంద్రజాలం కె.కె.కు సరిపడ "దనే మీ సూత్రీకరణ యెక్కడికి దారి
తీస్తుంది? కె.కె. కు Artistic values అంటే సరిపడదంటారా?
 6) "The novel's success-lies in its own sensitiveness, not
in the success of its subject matter" అన్న ఫార్ట్సర్ కొటేషన్్
యిచ్చినారు. దాని తర్వాత "చిత్రింపబూనుకున్న జీవిత ఖండాన్ని ఎంత
విశ్వసనీయంగా, సౌకల్యంగా సూక్ష్మతతోటి చిత్రించాడనేదే గీటురాయి-" అన్నారు.
జీవిత చిత్రణ విశ్వసనీయంగా, సౌకల్యంగా, సూక్ష్మంగావుంటే ఆ నవలను
Sensitive అంటారా? నాకేమీ భోధపడడంలేదు. దయయుంచి వివరించండి.
 7) కె.కె. నవలల్లో చిరస్మరణీయమైన పాత్రలు లేవని నీ General
complaint ఒకటుంది. మీరనేది నిజమేగాని Realistic school; of literature లో
యీలోపం సహజంగా వుంటుందను కుంటాను. చిరస్మరణీయంగా
వుండాలంటే పాత్రలు Heroic proportions లో చిత్రింపబడి వుండాలి. లేదా,
కుంభకర్ణుడు, హరిశ్చంద్రుడు, Hamlet, iago ల లాగా కొన్ని గుణాలకు
symbols గానో, embodiments గానో వుండాలి. లేదా, Don, quixote,
fal staft. గిరీశంల లాగా Extravagant గా, Exotic గా వుండాలి.
సమాజంలో యిటువంటి వాళ్లు వుండరు గనుక, వున్నా సమాజానికి వాళ్లు True
representatives కాదు గనుక, వాస్తవిక చిత్రణలో అటువంటి పాత్రలకు
స్దానం లభించదు. పోతే, పాఠకకుని హృదయాన్ని తీవ్రంగా కలచివేసే
పాత్రలు చిరస్మరణీయంగా వుంటాయి. ఈ పద్ధతి కె.కె. తత్వంలోనే
లేదు.
 ఈ సమస్యను మరొక Angle నుండి కూడా చూడండి. Modern
literature లోనే చిరస్మరణీయమైన పాత్రలు వుండడంలేదు. బారత
రామాయణాల్లాగా ఒకే కావ్యాన్ని ప్రజలు పదే పదే చదవడంలేదు యీనాడు.
చాలా కొద్ది కావ్యాలువున్న పూర్వకాలంలో పాత్రలు చిరస్మరణీయం కావడం
సులభం. కేవలం సంఖ్యాబాహుళ్యం వల్లనే ఈనాటి పాత్రలకు
చిరస్మరణీయం అయ్యే అవకాశాలు తక్కువైనాయి. ఇదీ ఒక కారణం అని మాత్రమే
నేను అంటున్నది.
-78-
 పాఠకుని హృదయాన్ని తీవ్రంగా కలచి వేసే పాత్రలు చిరస్మరణీయంగా
వుంటాయని పైన అన్నాను. దీన్ని గురించి మరొకమాట చెప్పనివ్వండి.
దీన్ని కె.కె. Cheap trick అంటున్నారు. Cheap writers యెక్కువగా
దీనిమీద deperd అవుతుంటారు గనుక దీన్ని Cheap trick అనవచ్చు.
కానీ అంతమాత్రంచేత దీన్ని సర్వేసర్వత్రా Cheap trick అనడం న్యాయం
కాదు. వ్యాస వాల్మీకులు మొదలు Shakspeare, Tolstoy, Dostoyeusky ల
వరకు అందరూ దీన్ని వినియోగించుకున్నవాళ్లే. అసలు అనుభూతి అనేదే
సర్వసాహిత్యానికీ ప్రాణం. అనుభూతి లేకుంటే సాహిత్యమే లేదు. అనుభూతి
గాడత్వం అనేది మరీ మితిమీరి వుండకూడదుగానీ, ఒక మితిలో అనుభూతి
అనేది గాఢంగా వుండవచ్చు ననుకుంటాను. దీన్ని గురించి కె.కె.గారితో
యెప్పుడైనా చర్చించవలసివుంది.అసలు ఆయ఩లో మరొక contradiction
కూడా వుంది. గాఢానుభూతులను Cheap trick అంటూ, తన రచనలలో
వాటిని యెక్కడా ప్రవేశపెట్టకుండా వుంటున్నాడే గానీ, గాడానుభూతులు
వున్న రచనలను యెన్నిటినో ఆయన గాఢంగా మెచ్చుకోవడం మనకు తెలుసు.
ఉదాహరణకు రాచకొండ. మీరేమంటారు?
 8) ఇవన్నీ అయిన తర్వాత యిక ముఖ్యమైన అంశానికి వస్తాను.
చలంను, మొపాసాను హృదవాదులు అంటూ "కె.కె.బుద్దివాది" అని
మీరంటున్నారు. హృద౟య వాదమంటే Emotional approach or roman-
tic approach అనీ, బుద్ధి వాదమంటే Intellectual appraoch అని నేను
అర్థం చేసుకుంటున్నాను.. Human problems ను human angle నుండీ,
Emotional angle నుండీ చూడడం హృదయవాదం. ం. Scientific గానో,
moral గానో, cold intellect తో Analyse చేసి బేరీజు వేయడం
బుద్దివాదం. బుద్దివాదమూ హృదయవాదమూ Diagonally opposite things,
ఈ వివరణ సరైనదైతే, కె.కె. బుద్దివాది కానేకాదు. కె.కె. ను Romantic
గానే, in corrigible romantic గానే నేను అర్థం చేసుకుంటున్నాను.
 ఆయనకు కొన్ని Materialist convictions వున్నాయి. కొన్ని
literary principles వున్నాయి. వాటికి లోబడి, తన కథల్లోని పాత్రలనూ
సన్నివేశాలనూ ఆయన కథల్లో ప్రేమించే స్త్రీలూ, పురుషులూ,
-79-
అందరూ romantic గానే ప్రవర్తిస్తారు. ప్రేమ అనేది యెప్పుడూ హృదయ
వ్యాపారంగానే వుంటుందిగానీ, కేవలం biological urge గానో, physio-
logical necessity గానో, లేక temporary infautation గానో యెప్పుడూ
చిత్రించలేదు. రచయిత యొక్క protagonists అనదగిన పాత్రలన్నీ,
అంటే రచయిత సానుభూతి యే పాత్రలమీద కేంద్రీకృతమై వుంటుందో ఆ
పాత్రలన్నీ romantic గానే ప్రవర్తిస్తాయి. Heroes కాకపోవచ్చు. సాహసికులు
కాకపోవచ఼్చు. కానీ romantic element బలీయంగా వుంటుంది. పాత్రలు
యెంత silly గా ప్రవర్తించినా, యెంత stupid గా ప్రవర్తించినా, వాళ్లలోని
romantic elements ను కె.కె. యెంతో సానుభూతితో lovable గా చిత్రిస్తాడు.
దీన్ని కె.కె లోని romantic trait అనక యేమంటారు?
 కె.కె. యే స్వయంగా తాను బుద్ధివాదినని అనవచ్చు. అన్నాడనికూదా
విన్నాను కానీ అది సరికాదు. ఆయన కొంత objective గా detached గా
సమాజాన్నీ వ్యక్తులనూ చిత్రిస్తాడు. అంతేగాని ఆయన Intellectualist కాదు.
ఆయన రచనలను cold అనడం కూడా సరికాదు. Situations ను emotiona-
lse చేయడుగానీ ఆయన కథల్లో Emotional touches అనేకం వున్నాయి.
ఐతే light గా subtle గా వుంటాయి. పాఠకుడు sensitive గా లేకపోతే
వాటిని సులభంగా miss గావచ్చు.
 మొపాసాతోనూ, చలంతోనూ పోల్చిచూస్తే కె.కె. చాలా భిన్నంగా
కనిపిస్తాడు ఈయన romanticim లో realism గాఢంగా వుంది గనుక, కొంత
objective గా,detached గా వుంటాడు గనుక, యీ భేదం వచ్చింది. చలం
మరీ introvet- (అందుకే క్రమక్రమంగా కవిత్వంలోకీ, mysticism లోకీ
పోయినాడు.) కె.కె. చాలా మేరకు extrovert కాబట్టి కె.కె.ను చలంతో
పోల్చి బుద్దివాది అనడం న్యాయం కాదు. మీకు నిజమైన బుద్దివాదులు
కావాలంటే Bernard-haw చదవండి, Aldous huxley చదవండి, Many
Mccarthy చదవండి. తుదకు మన మహీధర రామమోహనరావును కూడా
బుద్ధివాది అనవచ్చు. ఆయన మొదటి నవల (రథ చక్రాలు)లో
హృదయవాదమే బలంగా ఉంది. తరువాత నవలలు (ఓనమాలు, మృత్యువు నీడల్లో) లో
యే వాదమూ కనిపించదు. దాన్ని transitional period అనవచ్చు. ఆ
తరువాత వచ్చిన (ఎవరికోసం, కత్తులవంతెన, మొదలైన) నవలల్లో
-80-
బుద్దివాదం స్పష్టంగా వుంతడమేగాదు క్రమక్రమంగా బలపడుతూవచ్చి తుదకు
didactism గా తయారైంది.
 కె.కె.దీ temperate heart కాదని మీరే అంటున్నారు. మరి ఆయన
బుద్దివాదే ఐతే ఆయనది temperate heart అనేకాదు cold heart అనవలసి
వుంటుంది.
 ఆయన బుద్దివాది అనే Wrong characterisation తో start
ఐనందువల్లనేమో కొన్ని నవలల గురించి మీరు చేసిన observations
అసంపూర్ణంగానూ కొన్నిచోట్ల superficial గానూ వున్నాయి. కె.కె. లోని
హృదయవాదం మీరు గమనించి వుండినట్లైతే ఆ నవలల్లోని విలువలను మీరు మరొక
విదంగా చెప్పగలిగివుండేవాళ్లు. `పచ్చ కాగితం' గురించి రాస్తూ అందులో
`పాప఼ పుణ్యాలను గురించిన సామాజిక భావన' మీద జరిగిన పరిశోధననే
మీరు పేర్కొన్నారుగానీ, అందులో హృదయానికి కె.కె.యిస్తున్న స్థానం
మీరు గమనించినట్లు లేదు. sex అనేది కేవలం శరీర వ్యపారం కాదని
sex లో హృదయానికి ప్రముఖ స్థానం వుండాలనీ, అలావున్఩ప్పుడే sex
లోని peal joy and pleasure సంపూర్ణంగా అందుబాటులోకి వస్తాయనీ
ఆ కథ చెప్తుంది.అంతేగాదు కె.కె. దృష్టిలో పాపపుణ్యాలకంటే ఆ joy
of sex యెన్నోరెట్లు విలువైంది. దీన్ని romantic approach కాక యే
మంటారు?
 `లేచి పోయిన మనిషి' లో వున్న ఆపేక్షాలను మీరు సక్రమంగానే
గుర్తించినారు. దక్షిణామూర్తికీ యశోధకూ ముందే వివాహ బంధం వుంది.
కథ ముగిసేటప్పటికి హృదయ బంధంకూడా యేర్పడింది. హృదయ బంధం
లేని వివాహ బందం యెంత rediculous గా వుండగలదో దక్షిణామూర్తి
లోని working-class out look ద్వారా వెల్లడౌతుంది. దక్షిణామూర్తిని
working-class అనవచ్చునో లేదోకానీ, middle-class morals నుండి
అతడు సంపూర్ణంగా బయట పడినాడనేది స్పష్టం.
 `కురూపి' ని గురించి రాస్తూ "కధలోనూ జీవిత కథలోనూ కురూపులకు
గూడా స్థానం వుందని మాత్రమే గాక, అందంగాలేని పాత్రలకుగూడా
ప్రాధాన్యం వుందని తేలింది" అన్నారు. నిజంగా ఆ కథలో వున్నది అంతే
నంటారా? కురూపిని గురించి నాకు చాలా గొప్ప అభిప్రాయం వుంది. దాన్ని
-81-
కె.కె. రచనల్లోకెల్లా గొప్పది అనికూడా అనవచ్చు. స్త్రీ పురుషుల
సంబందానికి ప్రేమ ముఖ్యం, ప్రేమకు దేహ సౌందర్యం కంటె హృద౟య
సౌందర్యం ముఖ్యం, హృదయ సౌందర్యం వుంటే దేహ సౌందర్యం లేకున్నా
నష్టం లేదు. హృదయ సౌందర్యం అంటే మరేమీ కాదు-సున్నితత్వమూ,
ప్రేమించే శక్తి -sensitivity and capacity for love- ఇది ఆ కథలోని
తత్వం. Romantic approach కాకపోతే దీన్ని యేమంటారు. ఆ కథలో
గొప్పతనం యెక్కడుందంటే హృద౟య సౌందర్యానికి ప్రతీకగా సరస్వతీ అనే
పాత్రను చిత్రించిన తీరులో వుంది. (కథా శిల్పం గురించి ఆ కథలో జరిగిన
చర్చ ఆ కథకు additional merit - అది వేరే విషయము అనుకోండి)
కె.కె. బుద్దివాదే ఐవుంటే `కురూపి'ని రాయనూలేడూ, ఊహించనూలేడు.
 భవదీయుడు
 ఆర్. రామచంద్రారెడ్డి.
 ---
  0 
</p></body></text></cesDoc>