<cesDoc id="tel-w-socsci-journo-journal3" lang="tel">
<cesHeader type="text">
<fileDesc>
<titleStmt>
<h.title>tel-w-socsci-journo-journal3.txt</h.title>
<respStmt>
<respType>Electronic file created by</respType>
<respName>Central Institute for Indian Languages, Mysore</respName>
<respType>transferred into Unicode and CES format by</respType>
<respName>"Unicodify" software by Andrew Hardie</respName>
</respStmt></titleStmt>
<publicationStmt>
<distributor>UCREL (on behalf of CIIL)</distributor>
<pubAddress>Department of Linguistics, Lancaster University, Lancaster, LA1 4YT, UK</pubAddress>
<availability region="WORLD"></availability>
<pubDate>03-08-13</pubDate>
</publicationStmt>
<sourceDesc>
<biblStruct>
<monogr>
<h.title>తెలుగు పత్రికలలో కొత్త ప్రయోగాలు - పరిణామాలు </h.title>
<h.author>****</h.author>
<imprint>
<pubPlace>India</pubPlace>
<publisher>Unknown - Magazine</publisher>
<pubDate>1991</pubDate>
</imprint>
<idno type="CIIL code">journal3</idno>
</monogr></biblStruct></sourceDesc></fileDesc>
<encodingDesc>
<projectDesc>Text collected for the CIIL Corpus, subsequently integrated into the EMILLE/CIIL Monolingual Written Corpora.</projectDesc>
<samplingDesc>Simple written text only has been transcribed. Diagrams, pictures and tables have been omitted. Sampling begins at page 32.</samplingDesc>
<editorialDecl><conformance level="1"></conformance></editorialDecl>
</encodingDesc>
<profileDesc>
<creation><date>03-08-13</date></creation>
<langUsage>Telugu</langUsage>
<wsdUsage>
<writingSystem id="ISO/IEC 10646">Universal Multiple-Octet Coded Character Set (UCS).</writingSystem>
</wsdUsage>
<textClass>
<channel mode="w">print</channel>
<constitution type="composite"></constitution>
<domain type="public"></domain>
<factuality type="fact"></factuality>
</textClass>
<translations></translations>
</profileDesc>
<revisionDesc></revisionDesc>
</cesHeader>

<text><body>

<p>56-
 అప్పట్లో "నవల" అనేది సమగ్ర చిత్రణకు ఆలంబనం గనుక, సైజును
బట్టి అనేక వారాల పాటు ప్రచురించటం అనేది జరుగుతుండేది. వారం వారం
సస్పెన్స్్ దగ్గరే ఆపుచేసి పాఠకులను ఆకట్టుకునే దృష్టి ఉన్నా, కేవలం
#అందు
కోసమే "నవలలు రాయించటం" అనేది అరుదు. అయినా ఆ నవలలు ఆనాటి
పాఠకుల్ని చదివింపజేసేవి. కొన్నయితే ఉర్రూతలూగించేవి ఈ నవలల్లో
సస్పెన్స్్ అయినా, మరే ఆకర్షణ అయినా నవలలో అత్యంత సహజమైన
భాగంగానే ఉండేది. అలాంటిది ఇన్నేళ్ళలోనూ వచ్చిన మార్పులతో అసలు
నవలా, దానిలోని పాత్రలూ, సంఘటనలూ సమస్తం సస్పెన్స్్, తప్పితే
సెన్సేషన్్ కోసమే అన్నట్లుగా తయారయింది.
 ఫలితంగా సహజంగానే ఈనాటి సీరియల్స్్లో ఉద్తమాదర్శాలు, పాఠకుల
సంక్షేమం, ప్రయోజనాలు లుప్తమై, పత్రికల వ్యాపారం మాత్రమే పరమ
ప్రయోజనంగా మిగిలిపోయింది. రచయితల పాత్ర తగలడుతున్న కొంపల్నుంచి
పల్లీలో, వెండి-బంగారాలో వారి సత్తాకొద్దీ సంపాదించుకునే స్థాయికి పడి
పోయింది. "మార్కెట్్' దృష్టితో తుప్పితే ఈనాటి మన "మ్యాగజైన్స్్" లో
వస్తున్న "సీరియల్స్్" గురించి చెప్పుకునేందుకు ఏమీలేనట్లే. ఎడిటర్లు,
రచయితలు, ప్రచురణ కర్తలు కలసి పాఠకుల్ని ఒక విషవలయంలో పరిభ్రమింప
జేస్తున్నారు.
 అయితే, ఈ సీరియల్్ "వేవ్్" మొదలయిన తొలి నాళ్ళంత జోరుగా
లేదీనాడు. పాఠకులు ఎగబడి చదివే "క్రేజ్్" కూడా గణనీయంగా తగ్గి
పోయింది.
 ఇంతకుమించి మన "మ్యాగజైన్స్్" లో ఇటీవలి కాలంలో వచ్చిన
పరిణామాలు-ప్రయోగాలు" చెప్పుకోదగ్గవి మరేం లేనట్లే. ఒక దశాబ్దకాలం పాటు
మన మ్యాగజైన్స్్ క్రొత్త పాఠకుల కోసం ఈ సీరియల్స్్ చిట్కాలతో తీవ్రంగా
ప్రయత్నించి సర్క్యులేషన్లను కొంతవరకూ పెంచుకోగలిగాయి. కానీ, లక్ష
కాపీల అమ్మకం అనేది మన తెలుగు వారపత్రికలకు ఘనంగానే కనిపిస్తున్నా,
మన పొరుగున ఉన్న కన్నడ, తమిళ మలయాళ పత్రికల్తో పోలిస్తే మాత్రం
తక్కవే. ఇటీవలి కాలంలో "రికార్డ్్" అనుకున్న ఆ లక్ష స్థిరంగా నిలబడలేదు.
57-
దీనిని బట్టి ఆ `సరుకు' నాణ్యత తెలిసిపోతోంది. బలుపుగా భ్రమించినట్లూ
తేలుతోంది.
 ఈ సర్క్యులేషన్ల పరుగుపందెంలో వార పత్రికలను చూసి, మాస
పత్రికలు అవేవాతలు పెట్టుకున్నా నిలువలేకపోయాయి. వార పత్రికలకు భిన్నమైన
రీతిలో తమ ప్రత్యేకతలను ప్రదర్శించి, వ్యక్తిత్వాలను నిలబెట్టుకోడానికి
#బదులు
వారపత్రికల మూసను అనుసరించబోయాయి. వారపత్రికల సైజులో సగం
ఉన్నా, ధరమాత్రం రెట్టింపు అనే భావం పాఠకుల్లో ప్రబలటం వలన కూడా
మాసపత్రికలు మరికొంత దెబ్బతిన్నాయి.
 అందుకే ఇది వారపత్రికల యుగం అనే మాట వచ్చింది. అయితే,
వారపత్హికలు కూడా ఇపుడో కొత్త పోటీని ఎదుర్కోవలసి వచ్చేట్లున్నది.
 గతంలో మన తెలుగు దినపత్రికల ఆదివారం అనుబంధాల్ని ప్రత్యేకించి
"సారస్వతానుబంధం" అనేవారు. నాలుగు పేజీలు నిండా సాహిత్యం,
సంస్కృతి, కళలు, సినిమాలు నాటకాలు గురించి ఉండేది. రాను రాను అవి
కూడా "మూస" గా తయారై ఆకర్షణను కోల్పోయి పాఠకుల నిరాసక్తతకు
గురికాసాగాయి.
 ఇలాంటి స్థితిలో పదిహేనేళ్ళ క్రితం "ఈనాడు ఆదివారం" ఆ "మూస"
ముట్టుకోకుండా, ఆసక్తికరమైన యదార్థసంఘటనలను ఆకర్షణీయంగా ప్రచురిస్తూ
పాఠకుల్లో సంచలనం రేకెత్తించింది. ఫలితంగా మిగతా దినపత్రికల అనుబంధాలు
కూడా క్రమంగా ఆ దారిలోకే వచ్చేశాయి. దీనికితోడు అమ్మకాలు నిలబెట్టుకునే,
పెంచుకునే పరుగు పందెంలో అనుబంధాల సంగతలా ఉంచి, ఏకంగా దిన
పత్రికల్లోనే రోజువారీ సీరియల్స్్ ప్రచురణ ఆరంభమయింది. ఆదివారం
అనుబంధాల సైజులు మారి రంగుల్లో ముద్రించటం సాధారణమైపోయింది.
 ఇవన్నీ కలిసి సహజంగానే "మ్యాగజైన్స్్" ఆకర్షణను కొంత తగ్గించాయి.
భవిష్యత్్లో ఈ పోటీని మన వార - మాస పత్రికలు జీవన్మరణ సమస్యగా
ఎదుర్కోవలసివచ్చినా ఆశ్చర్యంలేదు.
 ప్రస్తుతం మన వార - మాస పత్రికలకు రచనల విషయంలో ఒక నిర్ధిష్ట
దృక్పధం అంటూ ఏమీ ఉన్నట్లు కనుపించదు. ఏదో ఒక విధంగా పాఠకులను
58-
ఆకర్షించుకుని అమ్మకాలు పెంచుకోవటం, లేదా నిలబెట్టుకోవటం మాత్రమే
వాటి లక్ష్యం అన్నట్లుంది పరిస్థితి. ఈ పరుగుపందెంలో మాస పత్రికలు వెనుక
బడి పోయినట్లే. సంచికకు సంచికకు మధ్య ఉండే నాలుగు వారాల వ్యవధి, ఈ
లోగా వచ్చే వారపత్రిక తాలూకు నాలుగు సంచికలలో తమకు లభ్యంకాని దేనినీ
అదనంగా అందించలేని మాస పత్రికల "మూస", ధర ఆరేడు రూపాయల దాకా
పెరిగిపోవటం ఈ వెనుకబాటుకు ప్రధాన కారణాలు. వారపత్రికలు "సీరియల్స్్"
కూ, వాటి రచయితలకూ ఊదరగొట్టుడు-పద్ధతిలో "గ్లామర్్" ను విశేషంగా
పెంచుతూ వచ్చాయి. దీనికితోడు రచనల బాగోగులు ఎలా ఉన్నా, రచయితలు
కూడా మారిన పరిస్థితుల్లో పాఠకులను ఆకట్టుకోవటం కోసం కొంత
కష్టపడనారంభించారు. ఆసక్తికరమైన సమాచారంతో నిండి ఉండే "ఏర్్పోర్ట్్ర
"హోటల్్", "హాస్పిటల్్" వంటి ప్రఖ్యాతమైన ఆంగ్లనవలలను మోడల్్గా
తీసుకుని రకరకాల క్రొత్త సబ్జెక్ట్సుతో ఎంతోకొంత నూతన సమాచారంతో
పాఠకులను ఆకట్టుకునే ప్రయత్నాలు జరిగాయి. వాస్తవంలో పాశ్చాత్య
రచయితలంత కష్టపడి, లోతులకు వెళ్ళకపోయినా, "ఇన్వెస్టిగేటివ్్" నవలలని చెప్పి
ఊదరగొట్టసాగారు. "చెట్టులేని చోట ఆముదపు మొక్కే మహా వృక్షం"
సామెతగా పాఠకులను ఇవి కొంతకాలం ఆకట్టుకున్నాయి. ఈ ఊపులో
వారపత్రికల్తో సమానంగా పరుగెత్తలేక మాసపత్రికలు సహజంగానే వెనుకబడిపోయాయి.
 ఈ దృష్ట్యా చూసినపుడు మన "తెలుగు పీరియాడికల్స్్లో ప్రయోగాలు"
కేవలం సర్క్యులేషన్్ కోసం సీరియల్స్్ రూపంలోనూ "పరిణామాలు" యుక్తా
యుక్తా విచక్షణ లేని వాటి ఇతివృత్తాల్లోను మాత్రమే జరిగాయనుకోవాలి. శృతి
మించిన `అశ్లీలత' ఆరోపణతో కోర్టుకెక్కిన కారణంగా ఒక సీరియల్్ను ఒక
వార పత్రిక వారు ఆపుచేయవలసి వచ్చింది. "అసభ్యచిత్రణ" ఆరోపణతో
మరో సీరియల్్ను ఇంకో వార పత్రికవారు ఆపు చేయవలసి వచ్చింది. దీనిని
బట్టి ఇటు వచయితలూ, అటు పత్రికా సంపాదకులూ పాఠకుల పట్ల ఎంత
బాధ్యతగా వ్యవహరిస్తున్నదీ ఊహించుకోవచ్చు.
 ఇవి తప్ప మిగిలిన అంశాలన్నీ మన వార - మాసపత్రికలు కొద్దిపాటి
తేడాలు మినహా అవి పుట్టినప్పుడెలా ఉన్నాయో ఇప్పుడూ దాదాపు అలాగే
ఉన్నాయి. రచయితలకు తాత్కాలికంగా "గ్లామర్్" పెరగటం, పత్రికలకు
59-
గుమాస్తాలు, ఫ్రూఫ్్ రీడర్లుగాక ఎడిటర్లు కూడా అవసరమేననే స్ప్రహరావటం
జరిగినా మరేం జరగనట్లే.
 జరిగిందంటూ ఏమన్నాఉంటే, తెలుగు సినిమాల్లాగే కొన్ని తెలుగు
"పీరియాడికల్స్్" కూడా సకుటుంబంగా చదువుకోడానికి అనువుగా లేనంతగా
అభివృద్ధి చెందాయి. అంతే!
 ఇదంతా భారీ పెట్టుబడులతో, మంచి అమ్మకాలతో పోటీ పడుతున్న
తెలుగు మ్యాగజైన్ల సంగతి. ఇవిగాక వివిధ రంగాలకు చెందిన అనేక మాస
పత్రికలు ఉన్నాయి. కొన్ని సంవత్సరాల పాటు దిగ్విజయంగా నడచి ఆగిపోయిన
"రేపు" అలాంటి వాటిలో చెప్పుకోదగ్గది. మహిళలకోసం ప్రత్యేకించతిన వనిత,
వనితాజ్యోతి, కలువ బాల పత్రుకలు కేవలం గృహిణులుగా వారి అవసరాలకు
మెరుగు పెట్టేవిగానే ఉంటున్నాయి. "ఎంప్లాయిమెంట్్ న్యూస్్" పద్ధతిలో
"ఉద్యోగ విజయాలు" అనే "కాంపిటేషన్్ సక్సస్్" పద్ధతిలో ప్రజ్ఞ అనీ,
#గైడ్స్్కు
మారు రూపంగా "మాబడి" - "పాఠశాల" అనీ, వస్తున్న కొన్ని పత్రికలకు
పాప్యులర్్ మ్యాగజైన్్లా గుర్తింపు లేకపోయినా, ఆయా రంగాల వారికి
ప్రయోజనకరంగా ఉండి, తమ ప్రత్యేక స్వభావం వలన నిలద్రొక్కుకోగలిగాయి.
 ఇహ వివిధ కులాలు, వృత్తులు, ధార్మిక సంస్థలు వగైరాలు నడుపుకునే
"స్వంత" పత్రికలు తెలుగులో అనేకం ఉన్నాయి. న్యూస్్ పేపర్స్్ రిజిష్ట్రార్్
వారి చిఠ్ఠా ప్రకారం చూస్తే తెలుగులో "పీరియాడికల్స్్" అనేవి డజన్ల కొద్దీ
ఉన్నాయి. వస్తున్నవీ - రానివీ కలిపి వందల సంఖ్యలోనూ ఉన్నాయి. అయితే
వాటికి గల ప్రచారం దృష్ట్యా చూస్తే మాత్రం పదుగురికీ తెలిసినవి పైన
పేర్కొన్న కొద్దిపాటి పాప్యులర్్ పత్రికలే.
 ఈ కోవలో ఆఖరున వచ్చేవి సాహిత్య పత్రికలు. స్థాయి, అవసరం,
సాంఘిక ప్రయోజనాల దృష్ట్యా న్యాయంగా ఇవి ప్రథమ స్థానంలో ఉండాలి.
కానీ, అనేక కారణాలవలన సాహితీ పరుల్లో కూడా కొద్దిమంది వరకే వీటి
ప్రచారం పరిమితమై ఉంటున్న దుస్థితి నెలకొని ఉన్నది. దాదాపుగా ఇవన్నీ ఏదో
ఒక రాజకీయ పక్షానికి అనుబంధ పత్రికల్లా వెలువడుతున్నవే. ఆయా రాజకీయ
పక్షాలకు గల ఆర్గనైజేషనల్్ వ్యవస్థ దృష్ట్యా అయినా ఇవి కొన్ని వేల
#మందికి
60-
సరాసరి అందువలసి ఉన్నాయి. అయినా అలా జరగక వీటి సర్క్యులేషన్్
ఏనాడూ రెండువేలకు మించని దుస్థితి ఎదురవుతున్నది. గ్రూపు రాజకీయా
లెలా ఉన్నా, వాటితో నిమిత్తం లేకుండ఼ా కూడా సాహితీ పరులంతా చదువదగిన,
చదవవలసి ఉన్న ఉత్తమ రచనలు కొన్నయినా వీటిలో వస్తున్నాయి. అయినా
ఇలా ఎందుకు వెనుకబడి ఉంటున్నాయో ఆలోచించాలి.
 మన "వ్యాపార పత్రికలు" ఇన్నేళ్ళలోనూ రకరకాల ప్రయోగాలు చేసిన
మాట నిజమే. పాఠకుల సంఖ్యను పెంచి అమ్మకాలు గణనీయంగా
పెంచుకున్న మాటా నిజమే. కానీ, సాహితీ విలువలు, పాఠకుల శ్రేయస్సు దృష్ట్యా
చూస్తే సాధించింది ఏమీ లేనట్లే. తొలి నాళ్ళలో గల నిజాయితీని, బాధ్యతను
విస్మరించిన పత్రికలే ఎక్కువ. పిల్లవాడి ఏడుపుకు అసలు కారణం తెలుసు
కుని సరైన ఆహారం మందులు ఇవ్వటానికి బదులుగా, నల్లమందు తినిపించి
నిద్రపుచ్చటంలా ఉంది ఈనాటి పరిస్థితి. ఆ నల్లమందు ఎంత ఎక్కువ
మోతాదులో ఇచ్చి పిల్లవాడు చావకుండా నిద్దరోతుండేలా చూడగలవాడే సమర్థుడైన
సంపాదకుడు అన్నట్లుగానూ ఉంది పరిస్థితి.
 ఈ ధోరణులకు లొంగని వ్యాపారధోరణి "మ్యాగజైన్స్్" కొన్నయినా
మనకు ఉన్నాయి. అయితే ప్రస్తుతం అవి ఈ పరుగు పందాలకు దూరంగా ఉండి
వెనుకబడిపోవటం జరుగుతోంది.
 ఈ పరిస్థితి ఇలా ఇంకెంతకాలం? అనే ప్రశ్న సహజంగా వస్తుంది.
 కానీ, మార్పు లేకుండా ఏదీ అలాగే కలకాలం ఉండిపోదు. ఉంటే కుళ్ళి
కృశించిపోదా? మరి, ఆ మార్పు ఎప్పుడు? ....ఎలా?.... జరుగుతుందీ అనేది
మన రచయితలు, సంపాదకులు, ప్రచురణ కర్తల సంస్కారం మీదా,
నీజాయితీ మీదా ఆధారపడి ఉంటుంది. మనవారికి అది లేదని ఈనాటి
"పీరియాడికల్స్్" స్వరూప-స్వభావాలు రుజువు చేస్తున్నాయి.
 కనుక,
 వీరందరి఩ీ దారికి తీసుకురాగలది కేవలం పాఠకుల చైతన్యం
మాత్రమే.
61-
 ఆ చైతన్యాన్నివ్వగల రచయితలు, పత్రికలు ప్రచురణ సంస్థలు
కొన్నయినా లేకపోలేదు. వారికిది గుడ్డుకాలం. నిజమే! కానీ, ఏనాటికయినా మీరే
చరిత్ర నిర్మాతలు.
 (తెలుగు విశ్వవిద్యాలయం, జర్నలిజం శాఖ నిర్వహించిన "తెలుగు
పత్రికలలో కొత్త ప్రయోగాలు-పరిణామాలు" పై సెమినార్్లో చదివిన ప్రసంగ
వ్యాసం. ఏప్రిల్్ 12, 1989.)
62-
 పత్రికలు - రాజకీయాలు
 శ్రీ జి. కృష్ణ
 ఇప్పటికీ తిరస్కృత సాహిత్యలోకంలోనే పడివున్న ఒక ప్రచురణార్థ
రచన నాకు జ్ఞాపకం వస్తున్నది. సరిగా వస్తున్నదో లేదో చెప్పలేను. అది ఒక
దేశభక్తుని ఆత్మకధ. అతడు ఎక్కడో కళాశాలలో చదువుతూఉండగా, కొందరు
నాయకప్రముఖులు వచ్చి, ఈ బ్రిటిష్్ చదువులు మానుకుని, దేశాన్ని సేవించుకో
అని ఉపదేశం చేశారు. అతడు కళాశాలను వదిలి వేశాడు. అతడిని చదివిస్తే
అతడు ఏదోకొలువులో చేరి జీతం సంపాదించి తమను సుఖపెడ్తాడనే ఆశతో
నానా తంటాలూ పడి డబ్బులు పంపిస్తున్న తల్లిదండ్రులకు అతడ఼ు కళాశాల
విసర్జన చేయడం కొంత నచ్చలేదు. తీరా అతడు చెరసాలలో పడ్డాడు. కొంత
కాలం తర్వాత విడుదలైనాడు. విడుదల అయినా చేయవలసిన
నిర్మాణకార్యక్రమం ఉంది. ఎక్కడైనా ఒక ఉద్యోగం చూసుకుని, డబ్బులకోసం ఎవ్వరి
పైన ఆధారపడకుండా బతుకుతూ, ఓపిన దేశసేవ చేయాలని సంకల్పించాడు.
తనను కళాశాల వీడిరమ్మని ఒకనాడు ప్రబోధించిన నాయకులలో ఒకరు ఒక
దినపత్రిక యజమాని. ఆయన వద్దకువెళ్ళి తన గోడుచెప్పుకుని ఉద్యోగం
ప్రసాదించమన్నాడు. ఆయన "ఏమిచదువుకున్నావు?" అని నిష్కర్షగా
అడిగేసరికి, ఆ యువకునికి రోషం పొంగిపొరలింది. ఖాళీలులేవు అన్నా అంత రోషం
కలిగేది కాదు - బి.ఏ. పూర్తి చేయలేదేమి అంటే రోషమే! సరి - ఆ నాయకునిపై
కోపం కొద్దీ, ఆ యువకుడు మాత్రం తనదేశసేవను మానుకోలేదు.
 ఇది అరవైఏళ్ళనాటి మాట. మనుషులు అట్టే మారలేదు. కాకపోతే,
అప్పట్లో అదను దేశసేవ. ఆ పత్రికలో ఆ యువకుని చేర్చుకొనకపోయినా, అది
దేశసేవ మాత్రం చేసినదే.
 అప్పటి చిరాకులను గురించి ఇవ్వాళ న్యాయ నిర్ణయం చేయలేం. కానీ,
దేశానికి స్వాతంత్ర్యం వచ్చినప్పటి నుంచీ, ఆ మాటకు వస్తే, అంతకు కొంచెం
63-
ముందే పరిపాలన దేశీయం కావడం ప్రారంభం అయిననాటి నుంచీ పత్రికలు
పత్రికలవాళ్లు చేస్తున్న, చెయ్యని పనులను గురించి విమర్శించవచ్చు.
 1948లో ఖాసా సుబ్బారావుగారు తాను నడిపిస్తున్న స్వతంత్ర ఆంగ్ల
వారపత్రిక వార్షిక సంచికలో, స్వాతంత్ర్యం వచ్చిన తర్వాత పత్రికలవైఖరి
మారినదనీ, దేశ సేవకు మారుగా పెట్టుబడిదారీతనం వచ్చిపడినదనీ, పత్రికల
పైన సాంఘికమైన అదుపు ఉండాలనీ వ్రాశాడు. ఒక విశేషం - ఆ పత్రిక కేవలం
ఖాసా సుబ్బారావు గారిది. అంటే ఒక పత్రికారచయితది. పెట్టుబడిదార్ల పత్రిక
కాదు. ఒకవేళ విచక్షణా జ్ఞానం, న్యాయన్యాయ నిర్ణయ దక్షతో ఉన్న పత్రికా
రచయిత ఎవడైనా స్వయంగా పత్రిక స్థాపించుకున్నప్పటికీ, దానికి డబ్బు
కొరత తప్పనిసరి. అందువలన అది జనాలకు ఆకర్షణీయం కాదు. డబ్బుల
కోసం, అతడు, ఎవడో ఒక ధనికుని ఆశ్రయించక తప్పదు. ధనికునికి గల
పలుకుబడీ వ్యాపారాలను కేవలం మెచ్చకపోయినా, వాటి జోలికి ఎవ్వరూ
పోకుండా, అంటే వాటిపైన ప్రతికూల విమర్శలు తమ పత్రికైనా
ప్రచురించకుండా, జాగ్రత్త వహించక తప్పదు. లతా, వనితా, పత్రికా తగు ఆశ్రయం
సమకూర్చుకోవాలి.
 స్వాతంత్ర్య సంగ్రామకాలంలో ప్రజలను ఉత్తేజితులను చేసిన పత్రికలు
ఏవీ, కేవలం ధనికులప్రాపు పైన ఆధారపడి ఉండేవి కావు. వాటిల్లో వ్రాతలు
కూడా దేశభక్తి ప్రబోధకంగా ఉండేవి. వివిధ సమస్యలను గురించి తెలిసినంత
మేరకు విశ్లేషిస్తూ వ్రాసేవారు. దేశానికి ప్రయోజనం సమకూర్చే ఆశయంతోనే
వ్రాసేవారు - పెట్టుబడి దారుకుగానీ, ఏదో ఒక వర్గానికిగానీ ప్రయోజనం
#కల్పించాలని వ్రాయడం, బ్రిటిష్్ వాళ్ళ ఆదర పోషణలకింద నడిచే పత్రికలు మాత్రమే
చేసేవి. స్టేట్స్్మన్్, పయనీర్్, టైమ్స్్ ఆఫ్్ ఇండియా, మెయిల్్ వగైరా
#పత్రికలు ఇట్లాంటివి. ఇవికాక బ్రిటిష్్ ప్రభుత్వంతోనూ, స్వాతంత్ర్య
#ఉద్యమకారులతోనూ వీలైనంత చెలిమినెరపుతూ వ్యాపారం కొనసాగిస్తూ ఉండటానికి తెలివితో
వ్యవహరించిన పత్రికలూ ఉన్నాయి. దేశానికి స్వాతంత్ర్యం వచ్చిన తర్వాత ఈ
గోడమీద పిల్లి పత్రికల విలువ హెచ్చినట్లున్నది. వీటిని చూసి, చరిత్రలు
వ్రాయాలని అధికారులు పురమాయిస్తున్నారు.
 పాపం! మామిడిపూడి వెంకటరంగయ్య గారిని ఆంధ్రప్రదేశ్్లో
64-
స్వాతంత్ర్యోద్యమాన్ని గురించి వ్రాయమని ఒకపని ఒప్పగించి ఆయనకు కొన్ని
ప్రభుత్వ పత్రాలు, పాత హిందూ పత్రికలు ఇచ్చారు - వీటిలోంచి చరిత్రను
#పిండి
ఇవ్వండన్నారు. చరిత్ర రచనకు ఇవ్వతగు ఆధారాలు ఇవేనా అని కీర్తిశేషులైన
శాసన మండలికి చెందిన కొందరు ప్రశ్నలు వేయసాగారు. జవాబులు చెప్పే
వారిని బట్టి ప్రశ్నలలోని పస బయటపడ్తుంది. అటువంటి ఆధారాలు వెంకట
రంగయ్యగారు ఎన్నిక చేసుకున్నవే నన్నట్లు జవాబులు విదితం చేశాయి. ఒక్క
పత్రికారచయిత అయినా వెంకటరంగయ్యగారివద్దకు వెళ్ళి అసలు సంగతి ఏమిటి
అని అడిగాడా? ఎందువలన? పెట్టుబడిదారీ పత్రికలు ఒకపట్టాన,
విద్యావంతులతో గోష్ఠి జరపవు - జరిపినా, అవి విద్యాప్రేరకంగా ఉండవు.
మినహాయింపులు ఉంటాయి. ఇప్పుడు మీరు చూసే ఉంటారు - మన ఆధునిక విద్యా
వేత్తలు కూడా విజ్ఞాన వార్తలకంటే, రాజకీయాల పట్ల నేరాల పట్లా చాలా
కుతూహలం చూపుతూ ఉంటారు.
 స్వాతంత్ర్య సమర కాలంలోని రాజకీయాలు వేరు. ఇప్పటి రాజకీయం
భారతదేశంలో జొరపడిన దొంగలను వెళ్ళగొట్టడానికి పరిమితం. ఆ తర్వాత
భారతదేశంలోనే తయారై ఉన్న దొంగలపట్ల మోజుకు పరిమితం కాజొచ్చింది.
1937 ప్రాంతంలో శాసనసభలకు ఎన్నికైన పెద్దలు మంత్రులై కూర్చున్నారే.
వాళ్లు సరిగ్గా బ్రిటిష్్ ఐ.సి.ఎస్్ అధికార్లంత దిట్టంగా వ్యవహరించారా
#లేదా అని
విద్యావంతులు వెయ్యికళ్ళతో చూసేవారు. మనలో మాట - మంత్రులు కూడా
బ్రిటిష్్ ఐ.సి.యస్్. వాళ్ళపైన దాష్టీకం సహించగలిగామా లేదా అని
చూసుకున్నట్టుంది. పదవీరాజకీయాలు కూడా అప్పుడే తలఎత్తినాయి. దేశాభివృద్ధి
కంటే పదవీరాజకీయాలే లాభసాటి అయినాయి పత్రికలకు. పత్రికలకు ప్రజలను
ప్రబోధితులను చేసే బాధ్యత ఉన్నదని కొందర మాట. పదవీ రాజకీయ
తత్వాలలో, నేరాలలో ప్రబోధితులవుతున్నారు. దీనికీ మినహాయింపులున్నాయి.
కొందరు విద్యావంతులు ఏ పక్షానికి చెందుతే తమకులాభసాటో తేల్చుకుంటారు.
పత్రికలు అవే వ్రాస్తాయి. పొలిటికల్్ సర్వీస్్ కమీషన్్లు పత్రికలు)
 ప్రభుత్వానికి ఏవేవో శాసనాలు బలవర్థకాలుగా ఉన్నాయనీ, వాటిని
ఊతగా చేసుకుని, వాళ్ళ పత్రికల స్వాతంత్ర్యాన్ని హరిస్తూ ఉంటారనీ, కొందరు
విప్లవ మతానుయాయులు మధ్యను గొడవచేస్తూ ఉంటారు. పత్రికా రచయిత
నిర్వహించుకునే ఏ పత్రిక అయినా ఇందువలన బాధపడిందా? 1951లో జరిగిన
65-
ఒక ముచ్చట చెప్తాను. బ్లిట్జ్్ వారపత్రికలో ఏదో ఒక వార్త పడింది. ఆ
#వార్త
ప్రభుత్వం నడిపేవారి ప్రతిష్ఠకు భంగకరమని పలువురి నమ్మకం. నిజానికి
ఆ వార్తా ప్రకటనవలన దేశాభివృద్ధి కార్యక్రమాలకుగానీ, పాఠకులకు వికాసం
కల్పించడంలోగానీ, ఆ పత్రిక సాధించినదేదీ లేదు. అపవాదులను మాట్లాడుకునే
వారికి తప్పకుండా రుచిని కల్పించేదే.
 అప్పుడు కేంద్రప్రభుత్వం నిషిద్ధ సమాచార ప్రచురణ నిరోధకచట్టాన్ని
చేయపూనుకున్నది ప్రెస్్ (అబ్జక్షనబుల్్ మేటర్్) బిల్్ 1951. అప్పుడు
పార్లమెంటులో పత్రికలకు సంబంధించిన సభ్యులు ఇద్దరు - ఒకరు శ్రీ రాంనాధ్్
గోయెంకా, రెండు లాలా దేశ బంధుగుప్త. ఒక పత్రిక నిషిద్ధకరమైన
సమాచారం ప్రచురిస్తే, ఆ విషయాన్ని ఒక న్యాయస్థానం దృష్టికి తీసుకురావటం
ఆ బిల్లులక్ష్యం. దీనివలనన పత్రికా స్వాతంత్ర్యం దెబ్బతింటుందని ఆ
#ఇద్దరు
సభ్యులు వాదించారు. అయితే తప్పులు చేసే పత్రికలను, అఖిలభారత పత్రికా
సంపాదకుల మహాసభవారైనా మందలిస్తారా అని అప్పటి దేశీయాంగ మంత్రి
శ్రీ రాజగోపాలాచారి ఎదురు ప్రశ్నించారు. సంపాదకుల మహాసభ అట్లా
మందలింపు బాధ్యతలను నెత్తిన వేసుకోదు అన్నారు. ఆ ఇద్దరు సభ్యులు. శ్రీ రాజ
గోపాలాచారి అప్పట్లో కాంగ్రెసువాది. ఆతర్వాత కాంగ్రెసుకు వ్యతిరేకంగా
ఉండడమే ప్రతిపక్ష పరమావధి అనే వాదం చేపట్టాడు. ఏమైనా, అప్పట్లో
ఆయన చేసిన విమర్శ కనువిప్పుకలిగించేది. ఈ ఇద్దరు సభ్యులు ఏబాధ్యతా
వహించడానికి సంసిద్ధంగా లేరు. `వారికి కావలసింది పత్రికాస్వాతంత్ర్యం కాదు.
వారికి కావలసినది ముద్రాయంత్రస్వాతంత్ర్యం' అన్నాడు రాజాజీ. ఇప్పుడు
ముద్రణాయంత్రస్వాతంత్ర్యానికి మనం `పత్రికల కాగితం వగైరాలలో నిషిద్ధ
వ్యాపారం చేయడం' అనే హక్కును గూడా జోడించవచ్చు.
 పత్రికల వ్యాపార క్రమీకరణను గురించి ఏచట్టాన్ని సంకల్పించినా,
ఉన్నచట్టాలు చాలును అని పత్రికల యజమానుల తరపున ఆందోళన
కొనసాగుతుంది. అర్ధంకాదు ఈ వ్యవస్థ. ఉన్నచట్టాల ప్రకారం అన్యాయాలు
జరుగుతున్నవో, ఉన్నచట్టాల ప్రకారం అన్యాయాలను అరికట్టలేక పోతున్నారో అర్థం
కాదు. ఏ చట్టాన్ని చూసినా అది అటుఇటూ న్యాయాన్ని పొసంగించేదిగా
ఉంటుంది. మన చట్టాలు పాతవి. మన రాజ్యాంగం కొత్తది. గృహప్రవేశం
66-
నాడే గబ్బిలాల గడబిడలాగా ఉంటుంది న్యాయవ్యవస్థ. దేశాభివృద్ధికోసం,
దేశాభివృద్ధికృషిలో ప్రజలందరి ఇచ్ఛిక సహకారాన్ని పొందే నిమిత్తం
ప్రభుత్వం ఏవేవో చేస్తూ ఉంటుంది. వాటి అన్నింటికీ తగు ప్రచారం చేయాలని
ఉవ్విళ్ళూరే పత్రికారచయితకు కొన్ని అభ్యంతరాలు ఎదురవుతూ ఉంటాయి.
ఒకటి, ఆ కార్యక్రమాలను గురించి రాజకీయవాదుల ప్రకటనలు తప్ప వేరే
సమాచారం సేకరించుకునే అవకాశం తక్కువైపోవడం. రెండు ఆ
కార్యక్రమాలను గురించి పత్రికల స్వంతదారులకు ఎక్కువ ఆసక్తి లేకపోవడం. మూడు
ఆ కార్యక్రమాలను గురించి కొన్ని వర్గాలకు గల ఆసక్తినే పత్రికలస్వంత
దారులు అభిమానించజం. నాలుగు ఆ కొత్త కార్యక్రమాలను పరిపాలకులు
పాతచట్టాలప్రకారం అమలు చేయడం.
 1948 స్వతంత్ర వార్షిక సంచికలో, స్వాతంత్ర్య సమర కాలంలో చాలా
పత్రికలు దేశసేవకు అంకితమై ప్రజల మన్నన పొందినవనీ, కానీ స్వాతంత్ర్య
సముపార్జనానంతరం పెట్టుబడిదారుల పత్రికలై పోయినాయనీ, అందువలన
వాటిపైన ఒక విధమైన గట్టి అదుపు ఉండాలనీ ఆ పత్రిక సంపాదకుడు ఖాసా
సుబ్బారావు వ్రాశాడు.
 అప్పటికే పత్రికల యజమానులు రాజకీయవాదుల ముఠా
వ్యవహారాలలో బాగా తలలు మార్చడం, జరిగిపోయింది. ఏ ముఠావాడు, ఆ ముఠాకు
ప్రచారం చేసి పెట్టే పత్రికను అభిమానించడం మొదలైనది. ముఠా
రాజకీయాలలో గొప్పగా వ్రాసిన వ్రాతలను శోధనా వ్యాసంగాల కింద పరిగణించడం
అప్పటికే ప్రారంభమయింది. అంటే కరపత్రాలకు పోటీగా పత్రికలు తమ
సమాచార ప్రకటన సరళులను తీర్చి దిద్దుకొనసాగినవన్న మాట. ఇప్పుడు
కొత్తగా ఈ సరళి వచ్చి పడిందని చెప్పుకునే వారికి, పత్రికల ఇతిహాసం
తెలియదు.
 నాకు బాగా జ్ఞాపకం .... ప్రథమ పంచవర్ష ప్రణాళిక చూసి, విలేఖరులం
కొందరు ఇకనుంచి కొత్త రకం సమాచార వ్యక్తీకరణ ప్రారంభమవుతుంది
కాబోలును అనుకున్నాం. ఉత్తమోత్తమమైన రాజకీయం ప్రజాసేవ, ఆర్థికాభివృద్ధి
కదా. అటువంటి రాజకీయ వ్యవస్థ పరిపాలన ద్వారా వెల్లివిరుస్తుందని
#అప్పట్లో
ఆశ, కొన్నాళ్లు ఏదో అటువంటి కోలాహలం దేశమంతా కానవచ్చింది. ఇప్పుడు
67-
పంచవర్ష ప్రణాళికల ప్రభావం అనుకునే అభివృద్ధి ప్రసక్తంకావడంలేదు. ఏదో
జరుగుతున్నాయి. ఎవరో నాయకుడు తాను ఇవి చేస్తున్నానంటున్నాడు. అవే
పత్రికలు వ్రాస్తున్నాయి. వాస్తవానికి ఇరవైఏళ్ళ నుంచీ ప్రణాళికా
#ప్రాధాన్యం
వ్స్మృతి గహనాల పాలైనదనే చెప్పవచ్చు. పరిపాలకుడు ఈ కృషి ప్రణాళికా
భాగం అనడు....అతడి ప్రతి పక్షికూడా అంతే.
 నిత్యావసర వస్తుజాలాన్ని ప్రజలు ఎక్కడికక్కడ ఉత్పత్తి
చేసుకోవాలనీ, దేశ అవసర వస్తుజాలాన్ని ప్రభుత్వమే చేపట్టాలనీ, అయితే తెగ ఉత్పత్తి
చేసి విదేశీ విపణులు ఎక్కడెక్కడ దొరుకుతవా అని అక్రమ మార్గాలను
పట్టరాదనీ గాంధీజీయే ప్రబోధించారు. గాంధీజీ ప్రబోధాన్ని పాలకులు గానీ, ప్రతి
పక్షులు గానీ తలకెక్కించుకోలేదు. తాను మాట్లాడేది సోషలిజం అని గాంధీజీ
అనలేదు. మత, కుల పట్టుదలలున్నంత కాలం సోషలిజం లేదని చెప్పాడు.
ఈ పట్టుదల మూలాన్నే సోషలిజం సిద్ధించదు అని ఆయన ఈ విధంగా
హెచ్చరిక చేశాడు. పైగా గాంధీజీ అల్పసంఖ్యాకులు అనే శబ్ధం ఉపయోగించడం
తనకు ఇష్టం లేదనీ, విధిలేక ఉపయోగిస్తున్నాననీ అన్నారు. నేడు ఈ
పట్టుదలలే ప్రధానమైనవి.
 ఇవన్నీ పత్రికల వాళ్ళకు దేనికి అంటారేమో. మేము ఉత్తమోత్తమ
రాజకీయాలను గురించే వ్రాస్తున్నామని చెప్పడానికే ఇది చెప్తున్నాను. మేము
దేశసేవ చేయడం లేదు, మేము వ్రాసినది అచ్చు వేసుకోవాలంటే, పత్రికల
స్వంత దార్ల ప్రయోజనాలను దృష్టిలో పెట్టుకునే వ్రాయాలి. అదీ పత్రికా
స్వాతంత్ర్యం. దానికోసమే ఈ మధ్య యజమానులు నౌకర్లు కలసి ఊరరా
ఊరేగారు. అది చూసి ప్రభుత్వం హడలెత్తింది కూడాను. మనకు అదే విజయం
అనుకున్నాం.
 పరిపాలకులు కూడా ఈ రీత్యా పెట్టుబడిదారీవర్గాల మధ్య పడిపోయారు.
 పత్రికా స్వాతంత్ర్యం అనేది లాంఛనం అయిపోయింది. దానిని ఎవడైనా
స్వంతంగా పత్రిక పెట్టుకున్న పత్రికా రచయిత చవిచూశాడేమో కానీ, పెట్టు
బడిదారీ పత్రికలలో మాత్రం అదొక పెద్ద మాయ.
 ఈలోగా న్యాయనిర్ణేతలాంటి పత్రికా రచయిత దొరకడం అసాధ్యం.
అదృష్టవశాత్తు మాకు తగిన పాఠకులు విస్తృతంగా నెలకొని ఉన్నారు కాబట్టి
సరిపోతున్నది.
68-
 పత్రికలు సమకాలీన ఇతిహాసాలట. వీటినుంచి ఏ ధృక్పధంవారి
ఇతిహాసం లాగగలమో చెప్పండి.
 కొన్ని ఉదాహరణలు చెప్పిముగిస్తాను. చర్చకు అనువైనవి. ఎటు
చెప్పినా చెప్పవచ్చు. ఎవరి ఇష్టం వారిది.
 1947 లగాయతు నీలం సంజీవరెడ్డి నాయకత్వానికి ప్రోత్సాహం, మద్దతు
ఇవ్వనారంభించింది ఆంధ్ర పత్రిక - ఇతరుల నాయకత్వాన్ని దాదాపు కించ
పరచే విధంగా అదే బాణీ వ్రాతల వలన ఆంధ్రప్రదేశ్్లో తగు పోటాపోటీ
నాయకత్వం వర్ధిల్లడం లేదు.
 1977-78 నాటి జనతా పార్టీ నాయకులకు ప్రచారం ప్రారంభించింది
ఆంధ్రప్రభ, మిగతా ఎక్స్్ప్రెస్్ పత్రికలు. కడకు జనతా పార్టీ నాయకులు
అవివేకుల ముఠా అని వ్రాసుకున్నది. ఒక పక్షం పై అంధ ప్రాతికూల్యం వలన
ఇది జరిగింది.
 ఇటీవలి కాలంలో ఎన్్.టి. రామారావుగారిని గురించి అన్ని
భంగిమలలో ప్రచారంచేసింది ఈనాడు.
 ఈ పత్రికల విలేఖరులు, సంపాదక రచయితలు ఎంతటి పత్రికా
స్వాతంత్ర్యం అనుభవించి ఉంటారని, పత్రికల పాఠకులు ఊహిస్తున్నారో నాకు
తెలియదు. పాఠాలు ఎరుగని పాఠకులు ఉంటారనేది నిజం. అదీ ఈ కాల
ధోరణి.
 అంతకాలం ఉత్తమ రాజకీయమైన పరిపాలనగానీ, దేశ సేవగానీ ఉండవు.
అంటే రాజకీయ రచనలేవీ పత్రికలలో ఉండవు. ముఠాలకోసం కరపత్ర
రచనలే ఉంటాయి.
69-
 తెలుగు పత్రికలలో సంపాదకీయ
 పేజీలూ, వాటి తీరు తెన్నులూ
 శ్రీ వాకాటి పాండురంగారావు
 పొద్దున్నే సూర్యోదయం కాకపోయినా కాకపోవచ్చును కాని,
దినపత్రికోదయం కాకుండా వుండని యుగం ఇది. ఏ పండగోవచ్చి, కార్యాలయానికి
సెలవు అయి వుండి, ఒక రోజు దినపత్రిక రాకపోతే ఏదో వెలితిగా వుంటుంది.
అలవాటయిన పత్రికకు బదులుగా ఇంకోటి చదివినా పరాయింట్లో
భోంచేసినట్లుగా, అసంతృప్తిగా వుంటుంది.
 దినపత్రిక ప్రపంచానికి, మనకు మధ్య వుండే ఒక బాంధవ్యం లాంటిది.
ఆఫ్రికాలో ఆకలిచావు నుండి, ఆస్ట్రేలియాలో క్రికెట్్ పోటీదాక హుటా హుటిన
అన్ని వార్తలను మోసుకొచ్చి మనకళ్ల ఎదుట వుంచే నేస్తం దినపత్రిక.
 ఒక వ్యక్తిగా, ప్రజాస్వామ్య వ్యవస్థలో పౌరుడిగా, ఉద్యోగిగా మనల్ని
మన అభిప్రాయాల్ని తీర్చి దిద్దడంలో పెద్ద పాత్ర వహించే సఖుడు, గురువు
దినపత్రిక.
 అటువంటి దినపత్రికలోని సంపాదకీయపు పేజీ అన్నది తలలో
నాలుక వంటిది. ఆనాటి, లేదా ఆ వారపు వార్తలకు, సంఘటనలకు వ్యాఖ్యానం
చెప్పగల వ్యాసపీఠంవంటిది ఆ పేజీ. ఆ పేజీలో అతి ముఖ్యమైనది
సంపాదకీయం, ఆ తర్వాత ఒకటి రెండు ముఖ్యవిషయాల మీద వ్యాసాలు, అవిగాక
బాధ్యతగల పాఠకులు తమ ప్రతిస్పందనలను అందిస్తూ రాసిన లేఖలు, ఒక
వ్యంగ్య రచన కూడా అందులో చోటుచేసుకోవచ్చు.
 అంటే ఆ పేజీలో సంపాదకుడు, పేరుపొందిన వ్యాసరచయితలు,
పాఠకులు - వీరందరి అభిప్రాయాలు వుంటాయి కనుక ఆ పేజీని
`అభిప్రాయాల పేజీ' అని అంటారు. మిగతా పేజీలలో వార్తలే' తప్ప వ్యాఖ్యలు
70-
గాని అభిప్రాయాలు వుండకూడదనీ తద్భిన్నంగా ఈ పేజీలో వ్యాఖ్యలు,
అభిప్రాయాలు తప్ప మరోటివుండ కూడదన్న ఆరోగ్యదాయకమైన సంప్రదాయం
గీచిన గీతలు ఇవి.
 దిన పత్రికను, దాని స్వభావస్వరూపాలను ఆదిలో - అనగా సుమారు 100
సంవత్సరాలక్రింద ఇతర భారతీయ భాషల వలెనే మనం కూడా పాశ్చాత్య
దేశాలనుంచి స్వీకరించాము. అటు తర్వాత మన దేశకాల పరిస్థితులనుబట్టి అవ
సరాలను బట్టి మార్పులు చేర్పులు చేసుకుంటూ వచ్చాము. నాటి నుంచి నేటిదాక
మనజీవితాలలో వచ్చినన్ని మార్పులు అన్ని పత్రికల ఆకార వికారాలలో
ప్రతిబింబించాయి. మరి `దిన పత్రిక అంటే ఏనాటి కానాడు మనం మనగురించి
రాసుకునే చరిత్ర' కదా! మొటిమలతో సహా మన సమాజపు మొహం దినపత్రిక
అనే అద్దంలో కనపడక తప్పదు.
 అంచేత అతి ముఖ్యమైన అభిప్రాయాల పేజీలోని, వివిధ అంగాల్లో
ఎటువంటి మార్పులు వచ్చాయి అది స్థూలంగా చూచినట్లయితే ఈ కింది
విషయాలు గోచరిస్తాయి.
 సంపాదకీయం
 వార్తలు, ప్రకటనలు, ఆరోపణలు, మారేడు కాయలు, ఇట్లా దినపత్రిక
అంతా చాల గందర గోళంగా ఒక్కోసారి "ఏమవుతున్నాం మనం" అని
ఆందోళన చెందేటట్లుగా వుంటుంది. ఇంతటి ఆటుపోటుల మధ్య, నిబ్బరంగా
నిలిచి, నాటి వార్తలలో సంఘటనలలో ఒక దానిని కూలంకుషంగా పరిశీలించి
మంచి చెడ్డలవిగా తేల్చి, సమాజానికి మార్గం నిర్దేశించ గలగడం సత్్
సంపాదకీయపు మొదటి లక్షణం. ఎవరన్నా ఏమన్నా అనుకుంటారేమో, అనికాకుండా
"బహుజన హితాయ, బహుజన సుఖాయ" అన్న సూత్ర ప్రకారం నిక్కచ్చిగా
నిలవవలసిన త్రాసుముల్లు సంపాదకీయం.
 అది ఒక విషయాన్ని తీసుకున్నప్పుడు దాని పూర్వా పరాలను వివరించాలి.
అందులో ఒక ధోరణి ప్రజాహితానికి దోహదకారిణి కాదు అని చెప్పదలచుకుంటే
ఆ మాటను సకారణంగా శషభిషలు లేకుండా హుందాగా చెప్పగలగాలి.
భావవ్యక్తీకరణ స్పష్టంగా వుండాలి. భాష సరళంగా వుండాలి. కోర్టులో అతి
71-
నిపుణుడయిన న్యాయవాది చేసే వాదనలా వుండాలి. సత్యానికి సత్తా నివ్వాలి.
హేతువాది చేసేవాదనలా వుండాలి. పాఠకుడి కరదీపికగా వెలగాలి. తప్పు
దారి పట్టినది ప్రముఖుడయినా ప్రభుత్వం అయినా కొరడా ఝళిపింపులా
వుండాలి. సభ్యత, సంస్కారం ప్రతి పదంలో పలకాలి. అది చదివిన వారికి,
దానిని రాసిన వారి విద్యపట్ల, అవగాహనపట్ల, నిజాయితీపట్ల, గౌరవం ఏర్పడాలి.
అప్పుడు ఆ సంపాదకీయం శక్తిమంతమై, చైతన్యోద్దీపనమై, వ్యక్తికి సమాజానికి
మేలు చేస్తుంది.
 భారతదేశానికి స్వాతంత్ర్యం రాకముందు ఆ పోరాటమే పత్రికల
ముఖ్యవిషయం (అందుకు సంబంధించిన విషయాలే సంపాదకీయాలు.) ఆనాటి
పత్రికలకు కాశీనాధుని నాగేశ్వరరావు, ముట్నూరి కృష్ణారావు, ఎస్్.జి.
#ఆచార్య,
తాపీ ధర్మారావు, న్యాపతి నారాయణమూర్తి వంటి వారు సంపాదకులుగా వుండే
వారు. వ్యక్తులుగా, సంపాదకులుగా వారు మహోన్నతులు. వారి వారి వ్యక్తిత్వము,
శైలి వేర్వేరుగా వున్నా, తెలుగు పత్రికలు జనసామాన్యపు - అభిప్రాయాలను
దేశస్వాతంత్ర్య సాధనకు కావలసిన శక్తిగా రూపొందించడంలో మహత్తరమైన
పాత్రను నిర్వహించాయి.
 తెలుగు భాష గ్రాంథికంనుంచి వ్యావహారికంలోకి వికసించడంలో తెలుగు
పత్రికలు విశేషంగా కృషి చేసాయి. ఆ వ్యావహారిక భాషను సంపాదకీయాలలో
వాడకంలోనూ, సంపాదకీయ విషయవైవిధ్యంలోనూ, భాషకు ఒక కొత్త శక్తి
నివ్వడంలోనూ - నార్ల వెంకటేశ్వరరావు గారిది శ్లాఘనీయమైన కృషి - అని
చెప్పుకోవాలి. తెలుగు సంపాదకీయానికి కొత్తమెరుగులు దిద్దిన వారిలో గోరాశాస్త్రి,
నండూరి రామమోహనరావు, ఎ.బి.కె. ప్రసాద్్లను పేర్కొనాలి. అయితే
స్వాతంత్ర్యానంతరం దినపత్రిక ఒక పరిశ్రమగా మారింది. వ్యాపారంగా
విస్తరించింది. ఆ కారణంగా అంతకు ముందు దశలో పత్రిక అనే వృత్తానికి
సంపాదకుడు కేంద్ర బిందువుకాగా, ఇప్పుడు ఆ స్థానంలోకి పెట్టుబడి పెట్టిన
#యజమాని
వచ్చి కూర్చున్నాడు.
 స్వాతంత్ర్యాత్పూర్వయుగంలో దేశభక్తి ముఖ్యవిషయంకాగా,
తదనంతర దశలో రాజకీయాలు ప్రధానం అయ్యాయి. దాని ఫలితంగా పార్టీలు,
72-
పార్టీల దృక్పథాలు, వాటిని సమర్థించడం లేదా విమర్శించడం - ఇవి పత్రికా
సంపాదకీయాల భోజనమయింది.
 ప్రజాస్వామ్యం అని మనం మన రాజకీయ వ్యవస్థకు పేరు పెట్టుకున్నాం
కాని మనలో చాలమందిమి ఆ స్థాయికి ఇంకా ఎదగలేదు. ప్రజాస్వామ్యం అంటే
భిన్నాభిప్రాయాలు కలవారు ఎదురెదురుగా కూర్చుని స్నేహపూర్వకమైన
వాతావరణంలో తమ దృక్పథాన్ని వివరించాలి. అవతలివారి ప్రశ్నలకు సమాధానం
ఇవ్వాలి. వారిని తమ సత్యంతో గెలుచుకోవాలి. విజయం గర్వంగా మార
కూడదు. ఓటమి ద్వేషంగా పరివర్తనం చెందరాదు. అందరం కలిసి
దేశానికోసం పాటు పడడం ప్రధానం కాని, వ్యక్తుల, పార్టీల ప్రతిష్టకాదు అన్న విషయ
విచక్షణ వుండాలి. కాని స్వాతంత్ర్యం వచ్చిన 40 సంవత్సరాలకు, మనం
ఇంకా `ఫ్రీడమ్్ రన్్' అని అర్థంలేని అర్భకపు, ఆర్భాటపు పరుగులు పరుగెడు
తున్నామే కాని ప్రజాస్వామ్య వ్యవస్థను సుప్రతిష్ఠంచేయలేకపోయాము. ఇందు
మూలంగా దేశంకన్నా పార్టీ, పార్టీకన్నా నాయకుడు ముఖ్యం అయ్యారు.
 ఈ తారుమారయిన పరిస్థితులలో ఒక పత్రిక, దాని సంపాదకీయధోరణి
ఒక పార్టీని కాని, ప్రభుత్వాన్ని కాని, నాయకుణ్ణి కాని సకారణంగా
#విమర్శించినా
సరే, వారు తమ చేతిలోవున్న అధికారమంతా కూడదీసుకొని ఆ పత్రిక
పీకనొక్కేయడానికి గానీ, ఆ సంపాదకుడు లేదా యజమానిని అష్ట కష్టాలపాలు
చేయించడానికి గానీ - ఏ మాత్రం వెనుకాడని పరిస్థితి ఏర్పడడం.
 కోట్లాది రూపాయల పెట్టుబడి, విద్యుత్తు, న్యూస్్ప్రింట్్, టెలిఫోన్్,
టెలెక్స్్వంటి సౌకర్యాలనిమిత్తం ప్రభుత్వం మీద ఆధారపడవలసిన పరిస్థితి.
వీటికారణంగా ప్రభుత్వాన్ని విమర్శించడం అంటే కొరివితోతలగోక్కోడమేనని
పత్రికలు భయపడే పరిస్థితి ఏర్పడింది. అయినా సరే తమ
సర్వస్వమూపణంగా పెట్టి తానునమ్మిందాని కోసం పోరాడిన పత్రికలు తెలుగులో ఇంకా
ఉండడం నిజంగా మనమందరం గర్వించదగిన విషయం.
 కాని సంపాదకీయాల నిష్పాక్షికత, వాటి శక్తి బాగా తరిగిపోయిన మాట
వాస్తవం. ఈ హీనస్థితికి కారణాలు అనేకం - సంపాదకుడు ఒక ఉద్యోగిగా
మారడం, చాలా పత్రికలు ఇంకేదో పరిశ్రమకో పెట్టుబడికో ముడిపడివుండడం,
పాఠకుల సంఖ్య పెరిగినా వారి పఠనాసక్తి గాని, సత్యాసత్య విచక్షణగానీ
73-
తదనుగుణంగా పెరగకపోవడం, పత్రికయొక్క న్యాయసమ్మతమైన దృక్పథం
బట్టి కాక దాని అమ్ముడుపోయే సంఖ్యనుబట్టి దాని గొప్పదనాన్ని అంచనా
వేసే తప్పుడు తూకపు వ్యాపారపు మత్తుకు పాఠకులు బానిసలు కావడం, అనే
కానేక సమస్యలతో సతమతమవుతున్న పాఠకులకు సంపాదకీయాలు చదివి
ఆలోచించి, చర్చించే ధోరణి అంతగా లేకపోవడం - వంటి కారణాలు చాల
వున్నాయి.
 ఇకపోతే పదిలో తొమ్మిది సంపాదకీయాలు రాజకీయ విషయాలకు
సంబంధించినవై వుంటున్నాయి. విదేశ వ్యవహారాలు, వాణిజ్యం, పరిశ్రమలు,
విద్య సంస్కృతి, పర్యావరణం, విజ్ఞానం వంటి అనేకానేక విషయాలు నేటి
మన జీవనంతోముడివేసుకొని వున్నప్పటికీ తెలుగు పత్రికల సంపాదకీయాలలో
వీటికి వుండవలసినంత ప్రాధాన్యం వుండడంలేదు.
 భాష విషయానికి సుమారు ఈ నలభై యాభై ఏళ్లలో గ్రాంధికపు
వాసనలు వదిలించుకొని శిష్టవ్యావహారికంలోనికి అనువాదంతో సంపాదకీయాలు
సామాన్యుడికి అందుబాటులోకి వచ్చాయి. కాని ఈ శుభపరిణామాలు కూడా,
ఒక అపశ్రుతి లేకపోలేదు. వస్తు విషయంలో కాని, భాష విషయంలో కాని,
ఒకవైపు సామాన్య పాఠకునికి చేయి అందిస్తూ ఇంకోవైపు అతడిని పైకి తీసుక
రావడం పత్రికబాధ్యత. ఇది మరచి, గత పదిహేను సంవత్సరాలలో భాషకు
మరీ "బస్తీ మే సవాల్్" అన్న ధోరణిలో బజారున పడేయడం జరుగుతూంది.
ముఖ్యంగా రాజకీయంగా ప్రత్యుర్ధులయిన వారి విషయంలో ఈ చవకబారు,
"చొక్కా చేతులు వెనక్కుమలిచే" ధోరణిని జనసామాన్యపు భాషగా చలామణి
చేసే ప్రయత్నం జరుగుతుంది. ఇది అంత ఆరోగ్యం కాదు. వ్యంగ్యం,
చమత్కారం విద్యా వైదుష్యాలు - ఇవి వ్యక్తియొక్క సమాజపు యొక్క
ఎదుగుదలకు దోహదంచేసే విషయాలు. అసలే అవి రాజకీయాలు, ఆ కంపుకు
వాసి తగ్గిన "నాసి" భాషను చేర్చడం - హర్షించతగిన మార్పు కాదు.
సంపాదకీయాలలో భాషాపరమైన దోషాలు దొర్లడం క్షంతవ్యం కాదు. భాషనుగురించి
పట్టించుకొనే సమాజం వెనక్కేగానీ, ముందుకు నడవలేదు అన్న సత్యాన్ని
గుర్తుంచుకోవాలి. రాజకీయాలు ఇవ్వాళవున్఩ట్లుగా రేపుండవు. నిన్నతిట్టినవారిని
నేడు మెచ్చుకోవలసి రావచ్చు. అంచేత ఆ సంపాదకీయాల ఆయస్సు ఇరవై
74-
నాలుగ్గంటలే. కాని ఇరవైనాల్గేళ్ల తరువాత చదివినా ఆ భాషలో చైతన్యం,
హుందాతనం జీవం సంస్కారం వుండాలి.
ఇంక ఇతర మార్పులు:
 తెలుగు పత్రికలు సాధారణంగా రోజుకు ఒక్కు సంపాదకీయాన్ని
ఇస్తాయి. అక్కడకూడా రెండు ప్రచురించటం కద్దు. కనీసం వారంలో ఒక
రోజన్నా రాజకీయాలు రొచ్చుగుంట స్నానం మాని, హాస్యపు పన్నీట
సంపాదకీయం జలకాలాడే అలవాటు ఇంకా మంచి పరిణామం.
 సంపాదకీయ పేజీలో నిలువుగా కొందరు, అడ్డంగా కొందరు, ఎడమవైపు
పేజీలు కొందరు, కుడివైపు పేజీలు కొందరు, నెత్తిమీద ఏ భారతంలోని
పర్వంలోని కొందరు, పాదపీఠంవద్ద సూక్తికి కొందరు ఇట్లా అలంకరణ వైవిధ్యం
కన్పిస్తున్నది.
 ఏ పత్రిక "సత్యం" ఆ పత్రికది కనుక తాము చాలా ముఖ్యం అనుకున్న
విషయం మీద సంపాదకీయాన్ని దాని మొదటి పేజీలో ఎడమవైపు,
సంపాదకుడి సంతకంతో బాటు వేసే అసాధారణ పరిణామం కూడా తెలుగు పత్రికలలో
కనబడుతుంది.
 ఇతర అంగాలు
 అనేకానేక విషయాలలో నిష్ణాతులయిన వారిచే వివిధ విషయాలపై వ్యాసాలు
రాయించి ప్రచురించే ధోరణి స్థిరపడింది. కొన్ని పత్రికలయితే తమకంటూ
మాత్రమే రాసే "కాలమనిన్ని" అవే రోజుకొక్కడు చొప్పున రాయించి
ప్రచురిస్తున్నాయి. అందులో హాస్యం, వ్యంగ్యం చోటు చేసుకుంటున్నాయి. కాని
మొత్తంమీద తెలుగులో వివిధ విషయాలు రాసేవారి సంఖ్య పరిమితంగా
వుండడం వల్లనయితేనేమి, నిష్ణాతులయినవారు రాయడానికి సిద్ధంగా వున్నా, వారిని
ఆకర్షించే విధాన పారితోషికాలు లేనందువల్ల నయితేనేమి, ఆంగ్లంలో ఇటువంటి
వ్యాసాలు తెప్పించుకున్న సందర్భాలలో వాటి అనువాదం ఏదో మొక్కు
బడికోసం అన్నట్లుగా వుండడంవల్లనయితేనేమి, తెలుగులో "టైప్్ ఫేసెస్్"
(అక్షరాల అచ్చుల) లో వైవిధ్యంలేని కారణంగా "డిస్్ప్లే" అవకాశం పరిమితంగా
75-
వుండడంవల్ల నయితేనేమి సంపాదకీయం పేజీలోని ఈ వ్యాస శీర్షిక అంతగా
జనాదరణ పొందలేక పోతున్నది. పాఠకుల లేఖల స్థాయి కూడా ఇంకా ఎదగ
వలసివుంది. వాటికి చోటు కూడా ఎక్కువగా కేటాయించాలి.
 వైజ్ఞానిక విషయాల మీద శీర్షికలు తెలుగు సంపాదకీయ పేజీలో
సరికొత్త శుభపరిణామం, కార్టూనులు, కార్టూన్్ కథలు సీరియల్సు కూడా ఈ
పేజీలోకి రావటంవల్ల చూడడానికి, చదవడానికి కొంత హాయిగా ఉంటుంది.
 ప్రపంచములో ఇతర దేశాలనుంచి వచ్చే ఆసక్తిదాయకమైన వార్తలు
సంఘటనలు, ఫోటోలు, ఈ పేజీలో తాజా అలంకరణలు.
 మొత్తం మీద
 మార్పును ఆపడం ఎవరితరం కాదు. కాని ఆ మార్పును అందరికీ, అన్ని
విధాలా ప్రయోజనకారిగా మలచుకోవటంలోనే మన విచక్షణ, విజ్ఞత ద్యోతకం
అవుతాయి. ఆ దృష్ట్యాచూస్తే - తెలుగు పత్రికా రంగం, ఆ రంగానికి వెలుపల
వున్న కారణాల వలన చొచ్చుకువచ్చిన మార్పులు ఎక్కువ, పత్రికలు
తమంతట తాముగా నిర్ణయించుకొని తీసుకొచ్చిన మార్పులు తక్కువ అన్పిస్తుంది.
 విద్యకన్నా విత్తానికి
 పటిమకన్నా పటటోపానికి - రచించే వాడికన్నా "రాసేవాటికి - చిత్త
శుద్ధి కన్న పార్టీ రంగుకు, రూపంకన్న వేషానికి ప్రాధాన్యం ఎక్కువయిన నేటి
పరిస్థితులలో ఒక్క పత్రికలు మాత్రం సకల సద్గుణాలకు రాశులుగా వుండాలి.
అని కోరుకోవడఅ దుస్సాహసంఅవుతుంది. కాని రోజుకాదు. వ్యాపార ప్రభావాలు
ఒత్తిళ్లు అలావుండగా కూడా, పత్రికలు ఒక న్యాయస్థానం అన్న విశిష్టమైన
బాధ్యతాయతమైన స్థాయినుంచి దిగజారకుండా చూడటం ప్రజాస్వామ్యం పట్ల
శ్రద్ధవున్నవారందరూ వాంఛించి కృషిచేయదగిన ఆదర్శం.
 "ఒక విషయంలో నేను ఆధునిక పత్రికా రచనా వ్యాసంగాన్ని
మెచ్చుకుంటాను. చదువు రాని వారందరి అభిప్రాయాలను సేకరించి అందించడం
ద్వారా ఈ పత్రికలు మన సమాజపు అజ్ఞానం ఎంతో మనకు
తెలియజేస్తు
76-
న్నాయి". అన్న ఆస్కార వైల్డ్్ విసురు తెలుగు పత్రికల విషయాలలో నిజం
కాకూడదు అని కోరుకుందాము.
 "మేము ఈ పత్రికను సర్కారువారి కటాక్షవీక్షణాలను సంపాదించే
నిమిత్తం ప్రారంభించడం లేదు. దొరతనం వారు కన్నెర్ర చేస్తారేమోనని
మేము జంకడంలేదు. తత్ఫలితంగా రాబోయే పరిణామాలు మమ్మల్ని
ఆపలేవు" అన్న లోకమాన్య తిలక్్ ఆదర్శం. మన పత్రికల నొసటితిలకం కావాలని
ఆశిద్దాం.
 అలాగే "సమ్్ ఎమినెంట్్ ఇండియన్్ ఎడిటోరియల్స్్" అన్న పుస్తకంలో
అగ్రేసర సంపాదకుడయిన ఆంధ్రుడు సి.వై. చింతామణి గురించి రవీంద్ర
నాథ్్ వర్మ రాసినట్లుగా అతడు కొనుగోలుకు అతీతుడు అన్న వర్ణన ప్రతి తెలుగు
సంపాదకుడి చిరునామా కావాలి అని నమ్ముతాయి.
 తెలుగు పత్రికలు సర్వవిధాల శక్తిమంతాలు కావాలి. ఆ చైతన్య
రథాలకు సంపాదకీయాలకు కవిరాజు జెండా కావాలి.
77-
 గ్రామీణ వార్తల సేకరణ: కొన్ని
 సూచనలు
 శ్రీ వి. హనుమంతరావు
 ప్రాంతీయ వార్తల సేకరణలో, ప్రచురణలో తెలుగు పత్రికలు మొత్తం
దేశంలోనే అత్యున్నత స్థాయినందుకొన్నాయి. ఇంత పెద్ద ఎత్తున, ఇంత
విస్తృతంగా విలేకరుల నెట్్వర్కు బహుశ దేశంలో ఏ ఇతర ప్రాంతీయ భాషా
పత్రికకు కూడా వుండి వుండదు. సర్క్యులేషన్్ విషయంలో మన తెలుగు
పత్రికలు వెనుకబడేవున్నా, ఈ విషయంలో మనం అగ్రస్థానాన్ని
అలంకరిస్తున్నందుకు మనలకు మనమే అభినందించుకోవాలి. ఎందుచేతనంటే ఇతర
ప్రాంతాల వారికి ఈ విషయం తెలిసి వుండకపోవచ్చు.
 గత సంవత్సరంలో ఆంధ్రప్రదేశ్్ యూనియన్్ ఆఫ్్ వర్కింగు
జర్నలిస్ట్స్్ ఏర్పాటుచేసిన జిల్లా స్థాయి విలేకరుల వర్కుషాపులు, రిఫ్రెషర్్
#కోర్సుల్లో
కొన్ని క్లాసులు తీసుకొన్న సందర్భంలో ఆ సమావేశాలకు హాజరైన వారిని
చూచినపుడు, వారితో మాట్లాడినపుడు విలేకరుల నెట్్వర్క్్ గ్రామీణ
ప్రాంతాల్లోకి ఎంత లోతుగా చొచ్చుకు పోయిందో విదితమయింది. పత్రిక ఏజెంట్లే
విలేకరులుగా పనిచేసిన రోజులతో పోల్చిచూస్తే, అభివృద్ధి ఎంతో
#కొట్టోచ్చినట్లు
కనబడుతుంది. ఇది హర్షణఈయమైన పరిణామం.
 జిల్లా స్థాయిలో చాల పత్రికలు టెలిప్రింటర్లు ఏర్పాటు చేసుకొని
#పూర్తి
కాలం పనిచేసే విలేకరులను నియమించాయి. కొత్తగా వచ్చిన పత్రికలు అలాంటి
వారికి ముందే కొన్ని వారాల శిక్షణ ఇవ్వగా, మరికొన్ని పత్రికలు వారి
#విలేకరులకు రిఫ్రెషర్్ కోర్సు ఏర్పాటు చేసుకొన్నాయి. సంపాదకులు దగ్గరదగ్గరగా
వున఼్న జిల్లాల విలేకరులను ఒక కూడలి స్థానానికి రప్పించుకొని అక్కడ
వారికి సూచనలు ఇస్తూండటం మరో పద్ధతి. వారు పనిచేస్తున్న తీరును, వారు
పంపేవార్తలను పర్యవేక్షించటానికి, సలహాలు, సూచనలు, ఆదేశాలు
ఇవ్వటా
78-
నికి ఒక ప్రత్యేక వ్యక్తిని పత్రిక ప్రధాన కార్యాలయాలలో నియమించడం కొన్ని
పత్రికల్లో జరిగింది.
 జిల్లా స్థాయినుంచి ఇంకా కిందకు పోయి తాలూకాలు, మండలాల
స్థాయిలోకూడా విలేకరులను నియమించటం ప్రారంభమై ఇంకా కొనసాగుతూంది.
పత్రికల్లో ఈ స్థాయినుంచి వస్తూన్న వార్తలను పరిశీలిస్తే, వార్తలను
#పంపటానికి
ఎంత పొటెన్సియల్్ వుందో అర్థమవుతుంది. ప్రభుత్వం అమలు పరిచే
కార్యక్రమాలు ఎంతవరకూ ఫలితాలనిస్తున్నాయో, అందవలసిన వారికి ఎంతవరకూ
అందుతున్నాయో వారి ద్వారానే పాఠకులు తెలుసుకో గలుగుతున్నారు. ఇది
మన వార్తావ్యవస్థకు పునాది వంటిది.
 పత్రికలు ఒకే కేంద్రం నుంచి కాకుండా పలు కేంద్రాల నుంచి ఏక
కాలంలో ప్రచురించటం ప్రారంభించటంతో ఇటువంటి విలేకరుల నెట్్వర్క్్
అవసరమైంది. ఆ పలు కేంద్రాలనుంచి మళ్ళీ జిల్లాకొక ఎడిషన్్ను ప్రచురించటం
ప్రారంభించటంతో ఈ అవసరం మరింత ఎక్కువైంది. పూర్వం ఒక జిల్లా కేంద్రం
డేట్్లైన్్ ఒకరోజు పత్రికలో ఒకటో, రెండో వార్తలు పత్రికల్లో పడడం
గగనంగా వుండే పరిస్థితి మారిపోయి ఒక జిల్లా నుంచి ఒక కాలం నుంచి ఒక
పేజీవరకు వార్తలు ప్రచురించే అవకాశాలు పెరిగాయి, కనుపించాయి. వార్తలకు
సంబంధించినంత వరకు గ్రామీణ ప్రాంతాన్ని ఆవరించుకొన్న చీకట్లు
తొలిగాయి.
 జిల్లా నుంచి ఇంకా కిందిస్థాయినుంచి వస్తున్న, ప్రచురితమవుతున్న
వార్తల్లో పార్టీల రాజకీయాలకన్నా, రాజకీయేతర విషయాలకే ప్రాధాన్యత
కనుపించటం ఒక శుభపరిణామం. ఎప్పుడో రాజకీయాల చుట్టూ పరిభ్రమించే
విలేకరులు, వార్తా సేకరణకున్న ఈ అవకాశాన్ని గమనించాలి. దేశంలో రాజకీయాలే
కాదు, ఇతర విషయాలు కూడా వార్తలవుతాయి అనేది సిద్ధాంత రీత్యా
మనందరికీ తెలిసిన విషయమే, కాని గ్రామీణ విలేకరులు ఆచరణతో చూపిస్తున్నారు.
 అయితే ఈ వ్యాప్తిని పటిష్ఠం చేసుకోవాలి. పరిపుష్టత చేకూర్చాలి.
ఇందుకు కొన్ని సూచనలు.
 1. ప్రతి జిల్లాకు ఒక ఎడిషన్్ ప్రారంభించటంతో జిల్లా పరిణామాలు
79-
వార్తలు ఆ జిల్లావాసులకు పెద్ద ఎత్తున లభిస్తున్నా పక్క జిల్లావారికి ఈ
జిల్లాలో ఏమి జరుగుతుందో తెలియకుండా పోయే పరిస్థితిని రానీయకూడదు.
రాజధాని నగరంలో నివసించే వారికి జిల్లాలలో ఏమి జరుగుతుందో తెలియని
పరిస్థితి ఏర్పడకూడదు. ప్రతి పత్రికలో జిల్లాల కొక పేజీ కేటాయించి, అన్ని
జిల్లాల నుంచి వచ్చిన వార్తల్లో రాష్ట్ర వ్యాపితంగా ప్రచురణ కర్హమైన
#వాటిని
ఏరి ప్రచురించాలి. ఎడిట్్ పేజితో పాటు ఈ పేజీ కూడా అన్ని ఎడిషన్లలో
పడేటట్లు చూడాలి. ఇందుకొక అవసరమైన వ్యవస్థను పత్రికాధిపతులు ఏర్పాటు
చేయాలి.
 2. క్రిందిస్థాయినుంచి వార్తలు పుంఖాను పుంఖాలుగా వస్తున్నాయి.
కాని, గుణాత్మకంగా చూస్తే చెప్పుకోవటాని కేమీలేదు. ఒక ప్రత్యేక పేజీ,
ప్రత్యేక ఎడిషన్్ వేస్తున్నారు కాబట్టి, ఆ పేజి ఎలాగో నింపాలనే
#ఆతృతతో,
అవసరం వుండటంతో వార్త అయినదాన్ని కానిదాన్ని అన్నీ ప్రచురించడం
జరుగుతూందనిపిస్తుంది. 55 సంవత్సరాల ముసలమ్మ కళ్లు కనపడక బావిలో
పడివచ్చిపోయిందని పోలీసు కానిస్టేబులు చెప్పాడని వార్త. గ్రామీణ ప్రాంతాల్లో
పరిస్థితి ఏమిటని ప్రచురితమవుతున్న వార్త ద్వారా తెలుసుకోలేము. ఆ జిల్లా
ల్లోని గ్రామాల, పట్టణాల డేట్్లైన్లతో వార్తలు అవి అంతే. అర్ధికం,
#సామాజికం
శాంతి భద్రతలు ఇలా ఏవైనా పరిమితులు విధిస్తే బావుంటుందేమో సంపాదకులు
పరిశీలించాలి.
 3. విలేకరి బాధ్యతను విచక్షణారహితంగా అడిగిన వారందరికి ఇచ్చే
పరిస్థితికి దారితీయకూడదు.
 4. నియామకం చేసిన విలేకరులకు జర్నలిజంలో ఓనామాలైనా చెప్పాలి
కదా. చెప్పనంత కాలం ఇప్పుడొస్తున్న వార్తల లాంటివే వస్తుంటాయి. అలాంటి
వారికి, వారికి అందుబాటులో వుండే కేంద్రంలో శిక్షణా తరగతుల నేర్పాటుచేయాలి. ఇది చాలా అవసరం. టాలెంటును స్పాట్్ చేయటానికి కూడా ఇది
తోడ్పడుతుంది. ఏ పత్రికకు ఆ పత్రిక ఇలాంటి తరగతులు ఏర్పాటు
చేసుకోవటానికి అనేక ఇబ్బందుల నెదుర్కోవాల్సిరావచ్చు. వర్కింగ్్ జర్నలిస్టుల
యూనియన్్ ఇలాంటి పనిని చేపడుతుందేమో తెలుసుకోవాలి.
 5. వార్తలు ప్రచురించటంలో కొన్ని చోట్ల విలేకరులు ఇబ్బందుల్లో
పడు
80-
తున్నారు. వర్కింగ్్ జర్నలిస్టుల యూనియన్్ ఇలాంటి సందర్భాల్లో ఏదో
చేయటానికి ప్రయత్నిస్తూందిగాని, సంపాదకులు, యాజమాన్యం కూడా వారి
రక్షణకోసం కృషి చేయాలి.
 6. నియమించిన ప్రతి విలేకరికి ఒక మార్గదర్శక సూత్రాల పుస్తకాన్నొక
దానిని తయారు చేసి అందచేయాలి. ఇలాంటి సూత్రాల విషయంలో పత్రికకూ
పత్రికకూ తేడా వుండదు కాబట్టి బహుళ తెలుగు విశ్వవిద్యాలయం అలాంటి
పుస్తక రచనకు తోడ్పాటు పడవచ్చు. అలాగే జిల్లాకు సంబంధించి, మండల
స్థాయి వరకు గణాంక వివరాలను తెలియచేసే ఒక చిన్న పుస్తకాన్ని
రూపొందించి విలేకరులకు అందచేయాలి. ఇందువల్ల వార్తల గుణాత్మక స్థాయి
పెరుగుతుంది. ఇదేమీ పెద్ద ఖర్చు అయ్యే దేమీ కాదు. పత్రికా సంపాదక
కార్యాలయానికి విలేకరులకు మధ్య సత్సంబంధాలు ఏర్పడటానికి తోడ్పడుతుంది. గణాంక
వివరాలు ప్రతి సంవత్సరం మారుతుంటాయి. కాబట్టి ఈ పుస్తకాన్ని ప్రతి
సంవత్సరం అప్్డేట్్ చేయాలి.
81-
 దినపత్రికల శీర్షికల తీరుతెన్నలు
 శ్రీ ఆర్వీ రామారావు
 తెలుగు పత్రికారచనలోని అన్ని రంగాల్లో లాగే శీర్షికలలో కూడా బోల్డు
ప్రయోగాలు, పరిణామాలు వచ్చాయి. పాఠకుల సంఖ్యకు అనుగుణంగానే
తెలుగు పత్రికల సంఖ్య, ప్రచురణల సంఖ్య పెరిగింది. దీనికి తోడుగా పత్రికా
రచయితల రాశి పెరగడం సహజమే. పత్రికల మధ్య పోటీ అనివార్యంగా
పత్రికా రచన రీతుల్లో పోటీకీ కొత్త పోకడలకూ, నూతన ధోరణులకూ దారి
తీసింది.
 పత్రికా రచనా విధానం మారినప్పుడు దానితో పాటే శీర్షికల పద్ధతికూడా
మారింది. పత్రికల్లో అసలు శీర్షికలే లేని దశ ఒకప్పుడు ఉండేది. ఆ
#తర్వాత
కొంతకాలం సింగిల్్ కాలం శీర్షఇకలు మాత్రమే ఉండేవి. తర్వాత తర్వాత
పత్రికల్లో అలంకారానికి, లే అవుట్్కు ప్రాధాన్యం పెరగడంతో శీర్షికల విస్తరణ
వైవిధ్యం తప్పలేదు. సింగిల్్ కాలాల శీర్షికలు దాటి రెండు, మూడు, నాలుగు
కాలాల శీర్షికలు, ప్రధానమైన వార్తకు శీర్షికలు అవసరమయ్యాయి.
ఎనిమిది కాలాల పతాక శీర్షిక అనివార్యంగా వుండేది. కాని ఇప్పుడు ఎనిమిది
కాలాల శీర్షికలు చాలా అరుదు. హెడ్్లైన్లకు పైన ఒకటి రెండు కిక్కర్్
#లైన్లు,
కింద ఒకటో రెండో డెక్్లు ఉండేవి. వార్తలోని ప్రధాన అంశాన్ని పెద్ద
పాయింట్్లోనూ, ఆ తర్వాత ప్రాధాన్యంగల రెండు మూడు అంశాలకు
అంతకన్నా చిన్నపాయింట్్ ఇచ్చి డిస్్ప్లే చేయటం అలవాటుగా ఉండేది. ఈ
శీర్షికల్ని చదివితే వార్తలోని ముఖ్యమైన విషయాలన్నీ (ఎప్పుడు, ఎక్కడ, ఏమిటి
ఎందుకు, ఎవరు, ఎలాగ) బోధపడేవి. కాని ఆ తర్వాత రెండు కారణాల వల్ల
శీర్షికలు ఆక్రమించే స్థలంలో పొదుపు అలవాటయింది. ఒకటి: ప్రకటనలు ఎక్కువ
చోటు ఆక్రమిస్తుండడంతో ఉన్నచోటును పొదుపుగా పాడటం తప్పనిసరి
అయింది. రెండు: శీర్షికల్లోనే వార్తలోని ముఖ్యాంశాలన్నిటినీ వెల్లడిస్తే
#అసలు
వార్తమీద పాఠకుడికి ఆసక్తి తగ్గిపోతుంది కనుక పాఠకుడిలో ఆసక్తి
#రేకెత్తించే
82-
విధంగా శీర్షికలు రాయడం. వీటిని వార్తాంశాన్ని సూచనప్రాయంగా తెలిపే
శీర్షికలు అనొచ్చు. ఉన్నకొద్దిపాటి చోటును సద్వినియోగం చేసుకుని వీలైనంత
తక్కువమాటల్లో పాఠకుణ్ని ఆకట్టుకునే శీర్షికలను ఇవ్వడానికి నేర్పు,
#నైపుణ్యం
అవసరమైనాయి. ఈ కారణంగానే ప్రయోగాలు వచ్చాయి.
 పాఠకుల్లో దాదాపు సగం మంది శీర్షికలు మాత్రం చూసి, పైపైన చదివి
పత్రిక పక్కన పడేస్తారు. పత్రికను ఆమూలాగ్రం చదివేవారి సంఖ్య చాలా
తక్కువగా ఉంటుంది. సమయం తక్కువగా ఉన్న పాఠకులకు శీర్షికలు
విషయ సూచికల్లాగా ఉపకరిస్తాయి. విభిన్న పాఠకులు తమకు ఆసక్తిగల
వార్తల్ని మాత్రమే చదవడానికీ, మిగతా వాటిని వదిలివేయడానికీ శీర్షికలు
తోడ్పడతాయి. వార్తల ప్రాధాన్య క్రమాన్ని తెలియజేయడానికి కూడా శీర్షికలు
ఉపకరిస్తాయి. ఒక్కో శీర్షికకు వాడే టైప్్ కూడా వార్త సీరియస్్నెస్్ని
#తెలియ
జేయడానికి తోడ్పడుతుంది. పత్రిక తత్వాన్ని, వైఖరిని, శైలిని కూడా
#శీర్షికల్ని
బట్టి తెలుసుకోవచ్చు. అన్నిటికన్నా మించి శీర్షికలు అమ్మకాలకు
తోడ్పడుతాయి. అందుకే We don't sell news, we sell headings, అన్నది నానుడి
అయింది. టూకీగా చెప్పాలంటే శీర్షికలు పత్రికలకు అలంకారాల్లాంటివి.
 ఇన్ని లక్ష్యాలు ఏకకాలంలో సాధించాల్సిన శీర్షికలు వీలైనంత
#స్పష్టంగా
సూటిగా, అర్థవంతంగా ఉండాలి. వార్తలోని వాస్తవవిషయాల ఆధారంగా వార్త
సారాంశాన్ని తెలియజెప్పే రీతిలో ఉండాలి.
 పరిమితులు - పరిధులు
 అయితే శీర్షికల ప్రయోజనాలు అనేకం ఉన్నా శీర్షికల పరిధి, శీర్షికలు
రాసేవారి పరిమితులు అపారంగా ఉన్నాయి. శీర్షికలు అలంకారాల్లాంటివి కనక
వాటికి పరిధీ, పరిమితీ ఉండడం సహజం. ఒక వార్తకు కేటాయించే స్థలాన్ని
బట్టి, వాడే పాయింట్్ని బట్టి శీర్షికలోని అక్షరాల సంఖ్య పరిమితం
అవుతుంది. పాయింట్్ పెరిగేకొద్దీ అక్షరాల సంఖ్య తగ్గుతుంది. అంటే ఎంత
అతికినట్టున్న శీర్షిక అయినా నిర్ణీత అక్షరాల సంఖ్యకులోబడి ఉండాల్సిందే. అలాగే
శీర్షికకు కేటాయించిన చోటు ఎక్కువై అక్షరాలు మరీ తగ్గితే అలంకారం దెబ్బ
తింటుంది. ఉదాహరణకు మూడు కాలాలలో అమర్చిన వార్తకు శీర్షిక రెండు
83-
కాలాలలోపే ఉంటే అసహ్యంగా కనిపిస్తుంది. శీర్షికభావం వార్తాంశాన్ని దాటి
పోకూడదన్న పరిధీ ఎటూ ఉండనే ఉంది.
 అలాగే దినపత్రికల శీర్షికలకు, మాగజైన్ల శీర్షికలకు టాబ్లాయిడ్్ల
శీర్షికలకు కూడా తేడా ఉంటుంది. కాని దినపత్రికలు నెమ్మది నెమ్మదిగా
మాగజైన్లలాగా ముస్తాబు అవుతుండడంతో, టాబ్లాయిడ్్లకు పరిపాటి అయిన
సెన్సేషనలిజం ఒంటబట్టించుకోవడంతో ఈ తేడాలు అంతరిస్తున్నాయి. అన్నింటినీ
మించి కొత్త మోజుతో, ప్రయోగమే పరమావధి కావడంతో, ప్రాసకోసం పాకు
లాటలో వార్తాంశానికి విడాకులిస్తున్నారు. సూటిదనంపోయి శీర్షికల్ని సుళ్ళు
తిప్పుతున్నారు. అర్థాన్ని అధ్వాన్నపు అడవిలో వదిలేస్తున్నారు.
 శీర్షికల్లో వచ్చిన ప్రయోగాలు, పరిణామాలవల్ల అనవసరంగా చోటు
వృధా అయిపోతోందన్న బాధ తప్పిన మాట నిజమే. కాని ఈ ప్రయోగాల
వల్ల పోగుపడిన మేలుకన్నా తావే ఎక్కువేమోననిపిస్తోంది. పాఠకుడికి అర్థ
బాధ కలగ఼కుండా ఉన్నంతకాలం ఎన్ని ప్రయోగాలయినా ఆహ్వానించొచ్చు.
కాని పోటీలుపడి చేస్తున్న ప్రయోగాలు పాఠకుడికి పేజిల్స్్గా మారిపోతున్నాయి.
 సరదాగా చదువుకోవడానికి ఉద్దేశించిన వార్తలను ఆఫ్్బీట్్ వార్తలను,
ప్రత్యేకంగా తీర్చిదిద్దడం, వాటికి ఇటాలిక్స్్ టైప్్లో హెడ్్లైన్్ ఇవ్వడం #ఇది
వరకటి ఆచారం. ఆ టైప్్ని బట్టి ఆ వార్త సీరియస్్నెస్్ అర్థం అయ్యేది.
#బాక్స్్
ఐటమ్్కి కూడా ఇదే సూత్రం వర్తించేది. కాని ఇప్పుడు శీర్షికలకు
# ఇటాలిక్స్్
టైప్్ని విచ్చలవిడిగా వాడటంవల్ల వాడే టైప్్ని బట్టి వార్త లోతుపాతులు,
#తీరు
తెన్నులు తెలియడం లేదు. ఆఫ్్సెట్్ ముద్రణ సదుపాయాలు పెరిగిన తర్వాత
రివర్స్్ హెడ్్లైన్లు (అక్షరాలుతెలుపు, బాక్్ గ్రౌండ్్ నలుపు) హెడ్్లైన్లకు #స్క్రీన్లు
వాడడానికి వీలుచిక్కింది. కాని వీటిని కూడా యధేచ్చగా వాడడం వల్ల ఆ
శీర్షికలు చదవడానికి పాఠకులకు అదనపు శ్రమ తప్పడం లేదు. రివర్స్్లు,
స్క్రీన్లు వాడినప్పుడు అడ్డంగా ఉండే శీర్షికలకు బదులుగా మూడు నాలుగు
పంక్తుల్లో నిలుపుగా హెడ్్లైన్లు వాడడం కూడ కొత్త ప్రయోగమే. ఇవి లే
#అవుట్్కి
కొంత అందం తీసుకొస్తున్న మాట నిజమే గావచ్చు కాని, పలాస్త్రీ పట్టిల్లాగానే఼పిడకలు చరిచినట్లో ఉండే ఈ శీర్షికల సంఖ్య పెరిగి చికాకు కలిగించడం
కద్దు. నియమ నిబంధనల బందోబస్తుల్ని చట్్ఫట్్ మని తెంచేయవచ్చు. కాని
84-
ఆ తెంచడానికి ఓ ప్రయోజనం ఉండేది. ఇప్పుడు పత్రికల శీర్షికల్ని చూస్తే
ప్రధానమైన వార్త ఏదో, తక్కువ ప్రాధాన్యం కలిగిన వార్త ఏదో తెలియకుండా
పోతోంది.
 ఇప్పుడు దినపత్రికల్లోవచ్చే అనేక శీర్షికల్ని చూస్తుంటే ప్రయోగాల
#మీద
ఆసక్తి కన్నా అపరిపక్వత, తెలియని తనం, భాషాపరిజ్ఞానం కొరవడడం వల్లే
విచిత్రమైన శీర్షికలు వస్తున్నాయి.
 ఒకే లైనుగా ఉండే శీర్షికలు ఎంతగా వాడుతున్నా కికర్్లైన్లు తరచు
గానే కనిపిస్తున్నాయి. ఒకేలైనులో విషయం చెప్పలేక పోయినప్పుడు కికర్్
లైన్లను వాడుకుంటున్నారు. అది కికర్్లైన్్ అయినా ప్రతిలైను కొంత
అర్థాన్ని పూర్తిగా చెప్పాలి. లేకపోతే పేజీలో చోటు చాలకపోతే కికర్్లైను
#తొలిగిస్తే
అర్థం కాకుండా పోతోంది. ఉదాహరణకు: అణుశక్తి సంతరించుకుంటున్న అ఩ి
కికర్్లైన్్రాసి కింద దక్షిణాఫ్రికా అని ఎంత పెద్ద పాయింట్్లో రాసినా
#ప్రయోజనం ఉండదు. కేవలం దక్షిణాఫ్రికా అనే మాటలు ఏదృష్టితో చూసినా హెడ్్
లైన్్ అనిపించుకోవు.
 విద్యార్థి ఉద్యమాలను అని కికర్్లైన్్ రాసి ఉధృతం చేసి, పోరాట
పంథా అనుసరించాలి అని మెయిన్్ లైన్్ రాసిన ఇదే పరిస్థితి పాఠకుడి దృష్టి
ముందు పెద్దక్షరాల మీదికి పోతుంది. కనుక ఉధృతం చేసి, పోరాట పంధా
అనుసరించాలి అని చదివి ఏం ఉధృతం చేయాలో అంతుపట్టక జుట్టు పీక్కోవాల్సి
వస్తుంది. కికర్్లైన్్తో ప్రారంభించి మెయిన్్లైన్్ చదివే అలవాటు మనకులేదు.
కొన్ని ఇంగ్లీషు పత్రికలు ఈ రకం శీర్షికలు వాడుతుండొచ్చు గాక!
 శీర్షికలకు మీసాలు
 తెలుగుకి పంక్చుయేషన్్ మార్కులు దిగుమతి చేసుకున్నవే తప్ప
సహజమైనవి కావు. అర్థ వివరణకు ఇవి ఉపయోగించడంలో తప్పులేదు. `మనపత్రికల్లో
అనేక శీర్షికలకు మీసాలు' (ఇన్్వర్టెడ్్కామాలు) దర్శన మిస్తుంటాయి.
#శీర్షికలో
వాడిన విషయంతో మనం ఏకీభవించనప్పుడు, ఎవరైనా చెప్పిన మాటలను
యధాతథంగా శీర్షికగా వాడుకున్నప్పుడు, ప్రత్యేక అర్థాన్నో, శ్లేషనో
#స్ఫురింపచేయాలనుకున్నప్పుడు ఈ మీసాలు వాడాల్సి వస్తుంది. కాని హోళి మామూలు ఇవ్వలేదని
85-
`ఆలి' ని అపహరించారు. ఇక్కడ `ఆలి' కి సింగిల్్ కోట్స్్ వాడి ఏ
#అర్థభేదం
సాధించారో అంతుపట్టదు.
 `రామకృష్ణ' `నాచారం పై' చర్చకు అనుమతి నిరాకరణ
 `రామకృష్ణ, నాచారం అన్న పదాలకు ఎన్ని కొటేషన్్ మార్కులు
అతికించినా ఇవి స్టూడియోలని స్ఫురించదు.
 అన్న అన్న పదానికి కోట్స్్ పెట్టి ఎన్టీ ఆర్్ అని అర్థం
#అయ్యేట్టు
చూడడంలో తప్పలేదు. కాని (జానారెడ్డి), (ఎన్్.జి.రంగా) కు కోట్స్్ ఎందుకో
#అంతు
పట్టదు. `అనంత' రైతుపై వడగళ్లవాన అన్న శీర్షిక చూస్తే అనంతపురం అని
తట్టాలని అనుకోవడం పాఠకుణ్ని నిర్బంధ పెట్టడమే అవుతుంది.
 ఫోటో కంపోజింగ్్ వచ్చిన తర్వాత కంపోజింగ్్ స్పీడ్్ పెరిగిన మాట
నిజమేకాని కొన్ని తప్పుల్ని అనివార్యంగా అనుమతించాల్సి వస్తోంది. దీనికి
మరో ఉదాహరణ కొటేషన్్ మార్క్్ ఒకవైపు ఉండి రెండో వైపు లేకపోవడం.
అలాగే వార్తలో కొంతభాగాన్ని లోపలి పేజీల్లోకి పంపినప్పుడు అక్కడ వాడే
శీర్షికల పరిస్థితి మరీ అగమ్య గోచరంగా ఉంది. ఉన్నచోటును బట్టి
అర్థాంతరంగా శీర్షికలని కత్తిరిస్తున్నారు. గద్దర్్ గీతాలకు అన్న continuation head
line లో కనీసం మూడుచుక్కలైనా పెట్టకుండా వదిలేస్తే, పాఠకుని గతి ఏంగాను!
Hand Composing ఉన్నప్పుడు అప్పటికప్పుడు శీర్షికలు కంపోజ్్ చేయించే
వీలుండేది. ఇప్పుడు అలా వీలుకుదరక తప్పుల్ని చూసిచూడనట్టు వదిలేస్తున్నాం.
 వ్యాకరణ దోషాలు
 శీర్షికల్లో వ్యాకరణ దోషాలు కొల్లలుగా కనిపిస్తున్నాయి. రోడ్డు
#ప్రమాదంలో
ముగ్గురు మృతి, పెండేకంటి ఆకస్మిక రాక, నిందితుడు లొంగుబాటు, కార్మికుడు
హత్యలాంటివి ఏ రోజు ఏ పత్రికతీసినా తారసిల్లుతాయి. ముగ్గురు మృతి అనరు
ముగ్గురి మృతి అంటాం. ఆకస్మిక రాక అన్నది దుష్ట సమాసం అన్న మాట
అటుంచి సంస్కృత పదమైన ఆకస్మికకు, రాక అనే పదాలను కలిపినందు వల్ల
అర్ధం బోధపడొచ్చు కాని మాతృభాష వచ్చిన వారు చేయదగ్గ తప్పు కాదది.
రాక అన్న పదం అన్నది సంస్కృతం అని వాదించొచ్చు. కాని అప్పుడు అసలు
ఆ మాటలకు అర్ధమే లేకుండా పోతుంది. `రుద్రాళిక రేణుక నాలిక' అన్న
శీర్షిక చదివి డమడమకి మురిసిపోవచ్చు కాని కొద్దో గొప్పో చదువువచ్చిన
#వారికి
86-
అది ఎంత తన్నుకున్నా అర్ధం కాదు. రుద్రాళిక అన్న పదం ఏ బాషలోనూ
లేదు. రుద్రాలిక అంటే రుద్రుడి నుదురు అని విడమర్చినా ఒరిగేదేమీ లేదు.
రుద్రాలిక నయనం అన్నమాట లేకపోతే ఆమె నాలుక ఎంత తీవ్రమైందో బోధ
పడదు. పదస్వరూపం బొత్తిగా తెలియకపోవడం వల్లే ఈ చిక్కంతా. "మిత్రుడైన
శత్రుశత్రువు" శీర్షికలో చోటుచాలక మొదటి శత్రు పక్కన `వు' ను త్యాగం
చేసి ఉండొచ్చు కాని అర్థమయ్యే దారి కనిపించదు.
 ప్రాస, లయ, యమకం అందంగా ఉండొచ్చు కాని అర్థాలు, పదస్వరూపం
తెలియనప్పుడు ఇలాంటి తప్పులొస్తాయి. `ఎల్లమ్మ ఎల్లా మరణించింది', అంటే
కేవలం ప్రాస కోసం పాకులాడారనిపిస్తుంది.
 ఇంగ్లీషును ఎడాపెడా వాడడం కూడా ఫాషన్్ అయింది. తెలుగు మాట
లేనప్పుడు ఇంగ్లీషు మాట ప్రచలితంగా ఉందనుకున్నప్పుడు తెలుగుకోసం
తాపత్రయపడక్కర్లేదు. కాని రిస్కీ లైఫ్్లో వర్క్్ ఇన్సిపెక్టర్లు, థక్కర్్
రిపోర్టు కంప్లీటు, స్పీకర్్రూలింగ్్, సర్వే ఆఫ్్ ఇండియాలో సర్వేడే లాంటి
శీర్షికలు ఏ లెక్కన తెలుగో అర్ధం కాదు. ఉర్దూ మాటల్తో కూడా ఇలాగే
#అర్థంతో
నిమిత్తం లేకుండా వియ్యమందుతున్నారు. అంటే తెలుగు పత్రికల పాఠకుడికి
రెండు మూడు భాషలొస్తే తప్ప పత్రిక అర్థం కాదన్నమాట.
 కాగితం ప్రాజెక్టులతో తెలంగాణా దాహం తీరుతుందా! అంటే కాగితాలకే
పరిమితమైన ప్రాజెక్టు అని అర్థం చేసుకోవడానికి ఎన్నో తంటాలు పడాలి.
చటుక్కున చూస్తే మాత్రం కాగితం ప్రాజెక్టు దాహం ఎట్లా తీరుస్తుందో అంతు
చిక్కదు.
 ప్రతిభాషలో నుడికారాలు, నానుడులు, సామెతలు ఉంటాయి. వాటికాళ్లు,
కీళ్లు విరిస్తే భాష అవిటిదై పోతుంది. `వానగండం ఆగితే నేటినుంచి టెస్ట్్' #అని
రాయడం గండం ఆగదు తప్పుతుంది అన్న కనీస పరిజ్ఞానం లేకపోవడం వల్లే.
 `సియాచిన్్ మంచు ఊబిలో భారత పాక్్' శీర్షికలో ఊబి మాట ఎందుకు
దూరిందో తెలియదు. ముందు ఊబి మంచి imagery అనుకొనడానికి అది
కవితలో పాదం కాదాయె.
 `ఇన్సాట్్ కాస్తా చీదేసింది' అంటే చిరాకేస్తుంది. ఇన్సాట్్
#విఫలమైతే
87-
అయిఉండొచ్చు. కాని అది చీదేయడానికి ఏమన్నా సీమ టపాకాయా! అంతరిక్ష
రంగంలో వర్ధమాన దేశాల వైఫల్యాలు కూడా అభివృద్ధికి సోపానాలు అన్న
ఇంగితజ్ఞానం లేకపోవడం, ఇంతకష్టపడి ప్రయోగించిన ఇన్సాట్్ విఫలం
అయిందన్నచింత లేకపోవడంవల్లే చీదేసింది లాంటి చౌకబారుశీర్షికలు దర్శనమిస్తాయి.
 ఏ విషయం గురించి చెప్తున్నామో తెలియకుండా శీర్షికలు రాయడం
రివాజైపోయింది. `సాంస్కృతిక పోరాటాలకు వరం - వరవరరావు' అంటే
వరాలమీద ఏమాత్రం విశ్వాసం లేని వరవరరావును ఆ మాటవాడి కించపరచడం
కాకపోయినా అనౌచిత్యం అనిపించుకుంటుంది.
 సమాపక క్రియల్ని శీర్షికల్లో వాడడం ఇటీవలి అలవాటు. నల్లగొండకు
రైలొచ్చింది అని సమాపక క్రియతో శీర్షికను ముగించడం నిజానికి
అద్భుతమైన ఆలోచన. నల్లగొండకు రైలు రావడం నమ్మలేనంత నిజం అని చెప్పడానికి
ఇది పనికొచ్చింది - కాని అయినదానికీ కానిదానికీ సమాపక క్రియల్ని
ఆశ్రయించడం ఆలోచనా బద్ధకానికి మాత్రమే తార్కాణం.
 ఓ రాజకీయ నాయకురాలి మీద అయిదుగురు అభ్యర్ధులు పోటీ చేస్తే `అపర
ద్రౌపది' అని శీర్షిక పెడితే ఆ ఆడపడుచు ఎంత క్షోభిస్తుందో ఆలోచించక
పోవడం క్షమార్హం కాకపోగా బాధ్యతారాహిత్యం అవుతుంది.
 పని వత్తిడి, గడియారంతో పోటీ మొదలైనవి ఈ తప్పులు దొర్లడానికి
కారణం అని సర్దుకోవచ్చు. కాని అసలు విషయం అది కాదనిపిస్తోంది. కొత్త
దనం పేరుతో ఎలాగైనా చేసెయ్యొచ్చునన్న ధీమా, భాషా పరిజ్ఞానం కొరవడడం
తప్పు దిద్దుకోవడం నామోషిగా భావించడం దీనికి కారణం కావచ్చు.
 ప్రయోగాలు, మార్పులు అభివృద్ధికి ఆలంబనాలు. కాని ప్రయోగం
కోసమే ప్రయోగమైతే ఇలాంటి ఇబ్బందులు తప్పవు.
   0 
</p></body></text></cesDoc>