<cesDoc id="tel-w-literature-drama-natak2" lang="tel">
<cesHeader type="text">
<fileDesc>
<titleStmt>
<h.title>tel-w-literature-drama-natak2.txt</h.title>
<respStmt>
<respType>Electronic file created by</respType>
<respName>Central Institute for Indian Languages, Mysore</respName>
<respType>transferred into Unicode and CES format by</respType>
<respName>"Unicodify" software by Andrew Hardie</respName>
</respStmt></titleStmt>
<publicationStmt>
<distributor>UCREL (on behalf of CIIL)</distributor>
<pubAddress>Department of Linguistics, Lancaster University, Lancaster, LA1 4YT, UK</pubAddress>
<availability region="WORLD"></availability>
<pubDate>03-08-13</pubDate>
</publicationStmt>
<sourceDesc>
<biblStruct>
<monogr>
<h.title>ఆత్రేయసాహితి నాటకాలు-1</h.title>
<h.author>కొంగర జగ్గయ్య</h.author>
<imprint>
<pubPlace>India</pubPlace>
<publisher>Unknown - Book</publisher>
<pubDate>1990</pubDate>
</imprint>
<idno type="CIIL code">natak2</idno>
</monogr></biblStruct></sourceDesc></fileDesc>
<encodingDesc>
<projectDesc>Text collected for the CIIL Corpus, subsequently integrated into the EMILLE/CIIL Monolingual Written Corpora.</projectDesc>
<samplingDesc>Simple written text only has been transcribed. Diagrams, pictures and tables have been omitted. Sampling begins at page 49.</samplingDesc>
<editorialDecl><conformance level="1"></conformance></editorialDecl>
</encodingDesc>
<profileDesc>
<creation><date>03-08-13</date></creation>
<langUsage>Telugu</langUsage>
<wsdUsage>
<writingSystem id="ISO/IEC 10646">Universal Multiple-Octet Coded Character Set (UCS).</writingSystem>
</wsdUsage>
<textClass>
<channel mode="w">print</channel>
<constitution type="composite"></constitution>
<domain type="public"></domain>
<factuality type="fiction"></factuality>
</textClass>
<translations></translations>
</profileDesc>
<revisionDesc></revisionDesc>
</cesHeader>

<text><body>

<p>-11-
 మొదటి రంగం
 రంగస్థలమంతా చిమ్మచీకటి-ఎక్కడా ఏమాత్రం వెలుగూ గోచరించదు.
 కొందరు ప్రవేశం.
:అబ్బ!ఒకటే చీకటి:
:అవును, కళ్ళు అపజయంతో పనిమాని వూర్కున్నవి.
:ఇంతకూ భూమ్యాకాశాలు రెండూ ఏదో సంధిచేసుకొంటున్నట్లుంది.
ఇంతవరకూ జరిగిన మహాసంగ్రామం మీరు చూడలేదూ? అబ్బ! చాలా
విషాదకరం.
:నిజమే - అవిగో సంగ్రామంలో తెగిన యోధుల బంధుతతి ఏడ్పుల
లాగున్నవి ఆ రాళ్ళలో నుండి వచ్చే నిశ్శబ్ద శబ్దాలు.
:సూర్యుడు నిప్పులకణాలు కురిపించాడు. మేఘాలు పిడుగులు విసిరినవి.
:భూమి ఊర్కుందా?
:లేదు. తామరకన్నుల లోంచి తావిమంటల విసిరింది. నిడుపాటి నెమలి
 ఫించాల శూలాలతో పొడిచింది. శాంతిహోమం చేసింది.
: ఈ యిహపరాల యుద్ధమెన్నడు ఆగుతుందో -
: యుద్దం చూడకపోయినా మా మెదడుమూలలు చితికిపోయినవి. కంచం
 నిండుకు అన్నం, కడుపునిండుకు ఆకలి వుండినవే కానీ తినలేని చవట
 తనం తెలియకుండా తెచ్చిపెట్టుకున్నామనుకొంటాను. ఇంతకూ సంధి
 కుదిరేనా?
: ఏమో! అబ్బబ్బ! ఉక్కపెట్టేస్తుంది. చెమటలు కారిపోతున్నవి.
ఊపిరాడ టమేలేదు. వాయుదేవునికి కూడ మన గతే పట్టినట్లుంది. ఏదో
చెప్ప రాని మంట, ఆవేదన!
: ఆకలి!
: కాదు. ఆకలి కాదు. భూమి పంటలు పండేందుకు మనం పెట్టే బాధలన్నీ
 సహిస్తూనే వుంది. పూలు పండ్లు పండేందుకు రాలిపోతూనే వున్నవి.
 మనకు వాన నిచ్తేందుకు మబ్బులు దూర ప్రయాణాలు సాగిస్తూనే
 వున్నవి. ఇంతవుండీ ఏమిటో మంట - ఎందుకో ఆకలి
కాదను కొంటాను.
-12-
: అవునవును. అన్నీ అలాగే ఎప్పటిలాగే జరిగిపోతున్నవి. మనలో మాత్రం
 ఎందుకో ఆవేదన వుంది.
: కాదు కాదు. మునుపటిలా యిప్పుడు లేదట. మునుపంతా వెలుగే-అంతా
 ఆనందమేనట.
: ఎవరన్నారు?
: గ్రంథాల్లో వుంది.
: మా తాతా చెప్పేవాడు.
: నిజం. నిజం. మనకే యీ అవస్థ. మనం చాలా దౌర్భాగ్యులం.
: నా బట్టలెవరో చింపేస్తున్నారు.
: నా శరీరం నిమిష నిమిషానికి ఎందుకో ముడతలు పడుతూంది.
: నా కళ్ళు మూతలు పడుతున్నవి.
: నాకు చచ్చిపోదామనిస్తూంది.
: నా కెవరేన్నా పీక్కుతినేద్దామనిపిస్తూంది.
: నా కెవరో కత్తులతో పోట్లాడుతూన్న శబ్దంలా వినిపిస్తూంది.
: నా కాళ్ళక్రింద ఏదో తడి-తడి కాదు ప్రవాహం-నీళ్ళు కాదు రక్తం.
: నా చేతుల కేవో గట్టిగా ఎముకలు. పుఱ్ఱెలు, నరాలు తగుల్తున్నవి.
: ఎవరో ఏడుస్తున్నారు.
: ఏదో పెద్ద మంట. నక్షత్రాలతో మాటాడటానికి అవసరంగా పోతూంది.
: మనం దాన్ని వెంబడిద్దాం.
: నాకు భయమేస్తూంది.
: మబ్బు లడ్డుపడుతున్నవి.
: వాటిని దాటిపోదాం.
: ఎందుకు?
: అక్క఼డ దేవు డున్నాడట.
: అతడేం చేస్తా డిప్పుడు?
: నక్షత్రాల వెలుగులో కొంత కొంత తీసి చంద్రుణ్ణి చేసిస్తాడు.
: అవును, అప్పుడు వెలుగొస్తుంది.
: వెలుగొస్తే అన్నీ సర్దుకోగలవు.
-13-
: అప్పుడు హాయిగా ఉంటాం.
: మన కిప్పుడు కావాల్సింది వెలుగేనా?
: అవును, అదే ముఖ్యం.
: వెలుగు కంతదూరం పోవాలా?
: అవును, అది దేవుడివ్వాల్సిందే.
: ఎవరో నవ్వుతున్నారు. ఎందుకు?
: అది పిశాచాల నవ్వు.
: శ్!అదిగో - తార లేమో మాట్లాడుకొంటున్నవి.
: వాళ్ళ లోకమూ యిలాగే చీకటిగా వుంది.
: కానీ - వాళ్ళల్లోనే వెలుగుంది.
: నిజం. అదో, ఓ తార దిగివస్తూంది.
: ఎక్కడికి పోతుందో - చూడు - చూడు.
: రాచనగరులోకి పోయింది.
: రాండి, రాండి, పోయి చూద్దాం.
 అందరూ వెళ్తారు.
 రంగస్థలం అలాగే వుంటుంది. అయిదుగురు వికారస్వరూపులు, మృత్యువు,
 హింస, అసత్యం, స్వార్థం, దారిద్ర్యం ప్రవేశం.
: ఆ పక్షుల కిచకిచలు విన్నావా? ఏలా రెక్కలు కొట్టుకొంటున్నవో!
 ఎదటి పక్షిని మోసం చేసి తానే సుఖంగా వుండాలని ప్రతి
 పక్షి మనం పెట్టిన పంజరంలో తానుగా చేరింది. గొప్ప వింతగా
 లేదూ?
: వింతగానే వుంది. అన్ని పక్షులు చేరి పంజరాన్నెత్తుకుపోతాయేమో!
: నీ దెప్పుడూ పిరికితనమే - పంజరాన్నెత్తుకుపోవడం అంత సులభం కాదు.
 అదిగో చూడు - పంజరపు గోడల్లో ఏమున్నవో - రత్నాలు -
 బంగారు తీగెలు - పట్టుకుచ్చులు.
: ఇంతకూ నా ప్రతిభే కారణమని సమ్మతిస్తావా? `నీవు బ్రతకడమే నీ
పర మావధి-లేని కాలంలో ఎవరూ నిన్ను చూడరు' అని చెప్పి
లోకా న్నంతా నా వశం చేసుకున్నాను.
-14-
: స్వార్థం!నీవాలా ఒక జీవిచేత యింకొక జివిని అణచి పీల్చి
పిప్పి #చేస్తుంటే
 ఆ పిప్పిలో నే నావహించి యినుపగజ్జెలు కట్టుకొని నాట్యం
చేస్తు న్నాను.
: అంతేకదటోయ్, నే నీ యిరువురిలో వున్నాను. నాకు చాలినంత రక్త
 మాంసాలు దొరుకుతున్నవి. నా ప్రాతినిధ్యంలో కొన్ని శాస్త్రాలు,
 యంత్రాలు, ఆయుధాలు, అభివృద్ధి పొందినవి వాళ్ళు వీళ్ళూ తృప్తి
 పడుతున్నారు. ఏమిటోయ్, అసత్యం! ఆ వంక చూచి అలా
నవ్వు తున్నావు?
: ఆ వింత చూడండి ఏలాగుందో, నా విరోధి సత్యానివి ఏలా మెడబెట్టి
#గెంటు తున్నారో? ఏం చేశానో తెలుసా? సరిగ్గా అతనిలాగే తయారయ్యాను.
 ఇప్పుడు ఎవరు పోల్చుకోలేకున్నారు.
: మీరు ఎంత పనిచేస్తే అంతా నా గుట్టతెగుతూంది. చూచారా నా గ్రంథం
 ఎంత పెరిగిందో? ఒకని శవం సరిగా నా యిల్లు చేరకముందే
 యింకొకడక్కడ కాచుకున్నా డంటారు. ఒకని చితిలోని అగ్గి తీసి
 మరొకని కట్టెలకూర్పునకు పెడుతున్నారు.
: అవునుమరి. ఏనాటికో ఒకనాటికి తన శరీరం నీ వశమవుతుందనే భయంతో
 ఎదటివాని శరీరం ఎంత వీలుంటే అంత త్వరగా నీ వశం చేయ
 ప్రయత్నిస్తున్నాడు మానవుడు.
: ఆ మార్గాన భద్రత గడించాలనుకొంటాడు.
: వాడి మనసే గజిబిజి పడిపోయి వుంది.
: అన్ని వెలుగులూ ఆరిపోయినవి పూర్తిగా. అదిగో విను, చీకట్లో ఆ
#పక్షు లెలా కాట్లాడుకొంటున్నవో. పంజరపు కమ్ములలో తల లిరికించుకొని
 గిజగిజ లాడుతున్నవి.
: ఏలాగేతేనేం, దేవు డున్నాడనే నమ్మకంతోనే దేవుడికి కేవలం
వ్యతిరేక మైన కార్యాలు చేయిస్తున్నాం.
: అందరికీ ప్రాణాలంటే తీపి.
: అందుచేతే ఎదటివాడి ప్రాణం తీస్తారు.
: అందరికీ చావంటే భయముంది.
-15-
: అందుకే అంత త్వరగా నా దగ్గరకు వస్తారు.
: అందరూ అన్నిటికీ దేవుణ్ణి నమ్ముతున్నారు పూర్తిగా.
: అందుకే తమ్ము తాము నమ్మరు.
: అందరూ శాంతి లేదంటున్నారు.
: అందుకే అశాంతి కల్పించుకొంటారు. ఓరుస్తారు!
 ఒకడు రోజుకొంటూ ప్రవేశం.
: ఏం?
: రాచనగరులో ప్రవేశించిన తార -
: ఏమైంది?
: శిశువుగా జన్మించింది.
: పండితులు రాలేదూ?
: వచ్చారు?
: ఏమన్నారు?
: అదిగో - వినండి -
 `పరిత్రాణాయసాధూనాం వినాశాయచ దుష్కృతాం
 ధర్మసంస్థాపనార్ధాయ సంభవామి యుగే యుగే.'
 దేవుడన్నారు. మనల్నంతా జయిస్తాడట. అతని కళ్ళల్లో శాంతం.
 దయ వున్నవట. ముప్పైరెండు శుభలక్షణాలతో పుట్టాడట. మ్రోడైన
 మాకు చిగిరించిందట. దేవతలు పూలు కురిపించారట. మహర్షులందరూ
 జోహారు లర్పించారట.
: ఇంకా ఎన్ని `ఆట' లు -
: మన ఆట లింక సాగవట.
: సరే.
: అదిగో - బంగారు కాన్కలతో సూర్యుడు వస్తున్నాడు. ఆ పసికూన
 పాదాలవద్ద వదలిపోతున్నాడు. ఆ పాదాలు చిపునవ్వుతో
అందు కొంటున్నవి.
: పట్టణమంతా సంతోషంతో పొంగిపోతూంది. ఎక్కడ చూచినా సంగీతం,
 నాట్యం, అలంకారం, విందులు-అదిగో చెఱలో వున్నవారి నందరిని
-16-
: విడుదల చేయమని రాజాజ్ఞాపిస్తున్నాడు. రాజసౌధం వసంతశోభతో
 వెలుగుతూంది -
: ఇంతకూ పేరేమన్నారు?
: సిద్దార్థుడు.
: మాయనుండి వెలువడ్డ బిడ్డ!
: రాండి, ఏమాత్రం భయంలేదు. మన ఆటలు సాగకపోవు. అంతగా అయితే
 యీ ప్రపంచాన్ని వీడి దూరమైపోయి ఆచరణ కసాధ్యమైన
వేదాం తాన్ని సాధిస్తాడేమో, లేక తన ముక్తిని సాధించుకొంటాడు, అంతే.
 ఎటైనా రాండి, పంజరములో పక్షు లేలాగున్నవో చూద్దాం.
 అందరూ వెళ్తారు.
-17-
 రెండవ రంగం
 రాచనగురు: రాజు, మంత్రి.
: అంతా సిద్ధమైందా?
: చిత్తం.
: అందులో విషాదఘట్టా లేవీ లేవుకదా?
: చిత్తం.
: సిద్దార్థు డింకా రాలేదేం?
: మందిరంలో వున్నారు.
: ఏం చేస్తున్నాడు?
: నేను వెళ్ళేటప్పటికి కిటికీవద్ద కూర్చొని వుండినారు. ఆయన చూపులు
 అనంత విశ్వంలోకి జొరబడి దూరప్రయాణం సాగించినట్లుండినవి.
: తరువాత?
: వాతావరణ మతిప్రశాంతంగా వుండినది. చల్లని గాలి కూడా నిశ్శబ్దంగా
 మందిరంలోకి ప్రాకుతూండినది. ఆయనను పలుకరించలేకపోయాను.
: తరువాత?
: పలుకరించాను. తారాపథం తాకిన గాలిపటాన్ని త్రాటితో లాక్కొనేలాగు
 ఆయన తన చూపుల నెక్కడినుంచో బలవంతాన కనురెప్పలతో
 లాక్కున్నారు. పొంగివచ్చే వేడినిట్టూర్పు గాలిలో లీనమైంది. విషాద
 రేఖలు కనుకొనలలో పుట్టి నొసటి ముడుతలలో కలసిపోయినవి.
 అలాగే చూస్తూ వూర్కున్నారు. విషయం విన్నవించాను.
: కిటికీలోంచి అతని నంత ఆకర్షించిన దృశ్యమేదో గమనించావా?
: చిత్తం. నాకేమీ గోచరించలేదు. నీలి ఆకాశాన్నంతా రక్తకాంతులతో నింపి
 పడమటి కొండలలోకి సన్యసిస్తూన్న సూర్యుడు, కలకల అంటూ
 అతని సాగనంపిస్తూన్న పక్షులు, సరస్సులో ముడుచుకొంటూన్న
 కమలాలను చూచి విప్పారని ముసిముసి నవ్వు నవ్వుతూన్న కలువలు,
 తోటమాలి. అంతే.
: తోటమాలి ఏం చేస్తూండినాడు?
: బావిలోంచి నీరు తోడి చెట్లకు పోస్తూండినాడు.
-17-
: అతని వయసెంత?
: సుమారు అరవై వుంటుంది.
: అతన్ని సిద్దార్థుడు చూస్తూండగా నీరు పోయవద్దని చెప్పు.
: చిత్తం.
: సిద్దార్థునితో ఎప్పుడేనా కొంతకాలం మాట్లాడావా?
: చిత్తం ఆయన హృదయం కనుగోలేకున్నాను. వింత వింత ప్రశ్న
లడుగు తుంటారు. అలా కొంతసేపు ఆలోచించి `ఇంతేనా ప్రపంచం,
 ఇదేనా?'అంటారు. ఒకరోజు `మన సగరు దాటి ఏముంది?'
 అన్నారు.
: నిజం. ఆనాడు కూడా అలాగే. ఆనాడు క్రిములను పట్టుకోబోతున్న కప్పను
 వెంబడిస్తున్న నాగును తన్నుకుపోతుండే డేగను వేటగాడు
పడ గొట్టాడు. సిద్దార్థుడు ఉలికిపడ్డాడు. ఆనాటి సాయంకాలం వరకు
 ధ్యానంలో లీనమైన ముని లాగు కూర్చున్నాడు తోటలో.
: చిత్తం. దేవదత్తులవారు వేటాడిన పక్షి బాధకు కూడా ఆయన హృదయం
 కరిగి కన్నీరయింది. మొన్నటి మహోత్సవంలో కూడా ఆయనంతగా
 పాల్గొనలేదు. ఎప్పుడూ ప్రకృతిలో మహోత్సవంలో కూడా ఆయనంతగా
 పాల్గొనలేదు. ఎప్పుడూ ప్రకృతిలోకి ఆత్రంతో చూస్తుంటారు.
 పతంజలి ప్రభృతుల గ్రంథా లెప్పుడూ చదువుతూంటారు.
అప్పు డప్పుడు ఆయన కన్నులలో కన్నీటితెరలు కప్పివుంటవి.
: ఈ విషాద రేఖలను తుడిచేయగలిగితే ప్రపంచాన్నంతా పాలించే
ప్రభువవుతా డన్నారు పండితులు. నిజం. సిద్దార్థుడి కా లక్షణాలన్నీ వున్నవి.
 #కానీ -
 ఒక్క బిడ్డ. అతన్ని కాదని నాకేం కావాలి - కానీ - మంత్రీ -
 వుపాయం?
: ప్రభువులవారు కలవరపడకండి. యవ్వనంలో హృదయం పరిపరి విధాల
 పరువెత్తుతుంది. క్షణికాలైన పొంగు లెన్నో వస్తూండగలవు.
: సిద్దార్థుని రాచకార్యాలలో నియోగిస్తామనుకున్నాను. కానీ అది మరింత
 ప్రమాదకరంగా వుంది. సిద్దార్థుని హృదయం నవనీతం. సుకుమార
 హృదయం. రాచకార్యాలకు చుక్కెదురు.
: చిత్తం.
: పండితులవారిని పిలిపించు.
: తమ అభిప్రాయం?
-19-
: సిద్దార్థుని ఈ విరాగపథాన్నుంచి తప్పించే ఉపదేశాలేవేనా చేయిద్దాం.
: అవసరపడకండి. ప్రయోజనంకన్నా ప్రమాద మధికంగా వుంటుందేమో?
 పండితు లెటుతిరిగీ వైరాగ్యానికి వస్తారు.
: ఇక మార్గం?
: మనవి. ఎట్టి వైరాగ్యభావమేనా మానినీమందహాస శృంఖాలాలకు కట్టుబడి
 పోతుంది. పరిత్యాగసాగరమంతా వనితావీక్షణాలకు యింకిపోతుంది.
 ప్రపంచాన్ని చేతనంగా చేసి నడిపించే సహాశక్తి స్త్రీ.
: నీ అభిప్రాయం?
: వివాహం ఎందరి జీవిత గ్రంథాలలోనో క్రొత్తపోకడలు కల్పించింది.
: అవును. కానీ యీనాడు సిద్దార్థు డొక్కడే. నాడు సిద్దార్థునితో,
 #సిద్దార్థునిపై
 మరొక జీవితం అంటగట్టబడుతుంది.
: అది సుఖకరమే.
: నిజమే - అదిగో సిద్దార్థుడు వస్తున్నాడు. ఇక నాటకం మొదలిడతాం.
: చిత్తం.
: సిద్దార్థా!
: నాన్నా.
: రా, కూచో. క్రొత్త నటబృదం వచ్చింది. ఈ ప్రదర్శనం వారిదే.
 యవనిక కలదిపోతుంది. రంగస్థలం ఆవిష్కరింపబడుతుంది. వెన్నెల
 వెలుగు. పున్నమచంద్రుడు, తారలు, కలువలు, మల్లెలు మొదలైన పూలు
 ఎక్కడ చూచినా నవ్వుకొంటున్నవి. చిన్ననెల.
 విరికన్నె పాట
 శూన్యసుందరి నీలిచెరగులో విసరితిని
 తొలితేట నునుపారు చిఱునవ్వువాసనలు
 నీబాట వెలిగించెరా,
 తారలై
 నా గాధ లెరిగించురా//
-20-
 పురిటివెన్నెల దోమతెరచాటులోనుండి
 చివురుటాకులశయ్య పొగరుకన్నులనెత్తి
 నీ కొరకె యున్నానురా,
 నీ అడుగు
 నీడచలువను కోరిరా//
 వెలుగుమ్రోతల తేనె చినుకు మువ్వల తోడ
 కావిరంగురేకు భావరంగములోన
 ఆడుతూపాడేనురా,
 నీ కెదుట
 స్వాగతమ్మిచ్చేనురా//
 * * *
 తేటి పాట
 ఝం ఝం ఝం ఝం ఝం ఝం
 అందీవే మధుపాత్రా అందీవే ఆనందమధువు
 వెన్నెలజిగినా సన్ననితీవెల
 జిలుగువలుప పయ్యోదముసుగున
 ఆడుచునూ పాడుచునూ
 అదృశ్యమౌ నీ ఆనందామృతమందీవే
 జలజలపారే సెలరంగములో
 అలలతెరలలో ఆటాడుచునూ
 భావములో రాగములో
 పరవశత్వమున చిదిమిన మధువును అందీవే.
 * * *
 సెల పాట
 పారుచుండెద నెపుడు పరువెత్తుచుందు
 ఎంతెంతదూరమో చింతింపబోను
-21-
 చీలిపోయెద మరల చేరిపోయెదను
 రాళ్లుగుండ్లునుదాటి సాగిపోయెదను
 యవ్వనానంద నిర్ఘరిణి నేను
 ప్రకృతిపయ్యొదలోని ప్రణమామృతమును.
 * * *
 అందరు
 మాకున్నదానందమే మేమిచ్చుటానందమే
 తెలిసినది ఆనందమే తెలిపేది ఆనందమే //మా//
 మాసిపోతుంటాము మారిపోతుంటాము
 మరలివస్తుంటాము తరలిపోతుంటాము //మా//
 మా బ్రతుకు ఆనందమే మా లోక మానందమే
 మా కావి ఆనందమే మా తావి ఆనందమే //మా//
 రాధాకృష్ణ నృత్యం
 కృ: - రాధికా!
 రా: - ప్రేమికా!
 కృ: - రాధికా!
 కృ: - ప్రేమికా!
 కృ: - వలపులసరసికి పదవే పోదము
 ప్రణయమధువులను గ్రోలుదము
 రాధికా
 రా: - ప్రేమికా!
 కృ: - రాధికా!
 రా: - పరుగిడరా వడివడిగా
 కౌగిలివెన్నెల జిలుకుమురా
 ప్రేమికా!-ప్రేమికా!
-22-
 కృ: - ప్రేమసరసి అదో కసుచాయల
 పూవుబాన్పు లవిగో
 జిలిబిలినడలా చెలువము గులుకా
 రా: కిలకిలనుడులా వలపులు జిలుకా
 రావో
 కృ: - రావో రావో రావో రావో
 తెర
 **********
-23-
 మూడవ రంగం
 రాజోద్యానవనం. తోటమాలి, అతని మనుమరాలు
: ఈ పూలన్నీ ఏం చేస్తాం తాతా?
: మహారాజులవారి కర్పిస్తామమ్మా.
: ప్రతిరోజూ యిన్ని పూలూ మహారాజుల కివ్వాల తాతా?
: ఔను తల్లీ! కీ తోట వారిదేకదా అమ్మా.
: మరి - మరి, ఇన్ని పూలు ఏంచేస్తారు? ఇవన్నీ ఏమవుతవి?
: నడిచేదారంతా పూలే కదమ్మా వారికి. ఈ రోజు యిచ్చిన పూలు వాడిపోతవి.
 రేపు క్రొత్తపూలు.
: నగరిలో కూడా పూలు వాడిపోతాయా తాతా?
: పిచ్చితల్లీ! పూలు నగరిలోనైనా నడివీధిలోనైనా వాడిపోక తప్పదమ్మా.
: ఇంత బాగుందే యీ పువ్వు, ఎందుకు వాడిపోవాలి? వాడిపోకుండా అలాగే
 వుంటే ఎంత హాయిగా వుండదు?
: ఈ పువ్వేమిటమ్మా? ఈలా ఎన్ని పూలు రాలిపోయాయి, ఎన్ని మొగ్గలు
 #తేరి
 పూలుగా వికసించినవి. ఓ! నా కళ్ళముందే ఎన్నో లెక్కలేనన్ని
 అది కాలచక్రం తల్లీ - దాన్ని ఆపేవా ళ్ళెవరు?
: అదేంటి తాతా, నువ్వేమేమో అంటావు. నాకేమీ అర్థం కాలేదు.
: వెఱ్ఱితల఼్లీ, నీ కర్థంకాదులేమ్మా. పూలు కోయమ్మా త్వరగా-పొద్దయింది.
: నాకు ఏడుపొస్తూంది తాతా.
: ఎందుకమ్మా?
: మరి - మరి యీ పూలు?
: చిట్టితల్లీ, ఈలా చూడు. పాట పాడవూ? నేనూ పాడతా - నాతో
 పాడవూ?
: కానీ, పాడు తాతా, పాటలు వాడిపోవు కదూ?
: అవును తల్లీ -
 ఈ పసిలతలో యీ చిరువిరిలో
 ఈ కసుగాయలో ఆశలు నింపెదవేలా?
-24-
 ఆశలు నిండిన అరనిమిషానికే
 వాడిపొమ్మని శాసించెదవేలా?
 ఇన్ని లతలను ఇన్ని పూలను
 కన్నులముందే కాలరాచెదవే
 ఇదె నీ క్రీడా! ఇదె నీ లీలా!
 ఇదె నీ కానందముగా!
 రాజకుమారుల ప్రవేశం.
: ఆయనేనా తాతా?
: అవునమ్మా, పూలాయనకే. సమర్పించుకొందాంరా.
: ఈ పూలననీ ఎవరికీ?
: ప్రభువుల వారికే.
: ప్రతిరోజు చెట్లనుంచి యిన్ని పూలు కోసేస్తారా?
: చిత్తం, ప్రభువు ఆజ్ఞ.
: ఈలా రా.
: బుద్ధి!
: ఏందుకాలా దూరంగా నిలుస్తావు? దగ్గర రా.
: బుద్ది. ప్రభువులు.
: అయితే?
: నేను సేవకుణ్ణి.
: నువ్వు సేవకుడివా?
: చిత్తం.
: నువ్వేకదూ యీ తోటను పెంచింది? నువ్వేకదూ ప్రతిరోజూ యీ తోటకు
 నీళళు పోసేది? నువ్వేకదూ యీ తోటకు కాపలా వుండేది?
: చిత్తం, ప్రభువుల దయ.
: మరి, యీ పూలు నా కెందుకు?
: ప్రభువులవారి పాదపూజకు - నగరి నలంకరించటానికి - శయ్యలను
కూర్చ టానికి.
: నీకు నగరిలేదూ? నీ కలంకారం వద్దూ? నీవు తీసుకుపోరాదూ?
: ప్రభువుల పాదసేవకుణ్ణి.
-25-
: మాది చిన్నగుడిసె, ఎప్పుడూ కురుస్తూంటుంది.
: శ్! ఊర్కుండమ్మా - పసితనం, మన్నించాలి.
: ఈలా రామ్మా - రానీ ఫరవాలేదు. అయితే యీ నగరి కవతల ఏముంది?
: ఇళ్ళు.
: నగరులు లేవు?
: చిత్తం.
: ఆ కుప్ప ఏమిటి?
: ఎండుటాకులు.
: ఎందుకలా మూల తోసివున్నారు?
: అవి ఎండి రాలిపోయినవి. అవి మహారాజులవారి వుద్యానవనానికి అందం
 కాదు.
: ఏంచేస్తారు వాటిని?
: దూరంగా పారేస్తాం?
: నిజంగా?
: చిత్తం.
: అదిగో, ఓ పండు రాలిపోయిందే!
: చిత్తం.
: అలా ఎందుకు రాలిపోవాలి?
: బాగా పండితే రాలిపోతవి.
: అన్నీ అలాగేనా?
: కొన్ని పండి రాలిపోతవి. కొన్ని కుళ్ళిపోతవి. కొన్ని పక్షులు
 #కొట్టిపడేస్తవి.
 కొన్ని ప్రజలు కోసేస్తారు. కొనని పిందెలుగానే రాలిపోతవి.
: ఆ పండు నీలాతే.
: తల్లీ! నాయనా!.... .... ....
: తాత ఏమో అరుస్తున్నాడు - వణికిపోతున్నాడు - అదో కూలిపోయాడు.
: ఆ -
: తాతా - తాతా!
: ఎందుకు పలుకడు?
: పలుకడం లేదే - తాతా - తాతా!
: ఎవరు నువ్వు?
-26-
: మృత్యువును.
: ఎందుకొచ్చావు?
: ప్రపంచంలో ప్రతిజీవి నా వశం కావలసిందే. నా దగ్గర చేరటమే
మరణ మంటారు. ఈ ముసలిక్కలిగిన అవస్థ అదే. అతడిక యీ లోకాన
 లేడు, వట్టి శరీరమే మిగిలివుంది.
: ఇతని నేంచేస్తావు?
: అతని శరీరాన్ని కాల్చేస్తారు - మన్నుమంటిలో కలిసిపోతుంది.
: ఇతడు మరల బ్రతుకడా?
: ఇతడంటే యీ శరీరం కాదు. ఇతని ఆత్మ మరల వేరే రూపంతో
పుడు తుంది.
: నీ వెక్కడుంటావు?
: నా లోకముంది.
: నే఩ూ వస్తా, చూపెడతావా?
: అది అసాధ్యం.
: ఇంతసేపెవరితో మాటాడుతున్నారు? తాత ఏం పలకడు?
: నీ తాత మరణించాడట.
: నిజంగా, తాతా - తాతా!
: ఏడవకు! దేవదత్తా - దేవదత్తా!
: ఏం?
: ఈ తోటమాలి మరణించాడట.
: అవును - ఎవరక్కడ?
: ఎందుకు?
: ఇది యిక్కడుండకూడదు.
: `ఇది' అంటావేం.
: మరణించినవాని శరీరం శవం. దాన్ని వుంచరాదు.
: ఏం?
: దుర్వాసన.
: దుర్వాసనా? ఈతడు కోసియిచ్చిన పూలతో నగరంతా ఘమ ఘమ లాడింది.
 నా పడకమీద చల్లుకున్నాను. నేనూ యశోధర పడుకొని హాయిగా
 నిద్రించాం. ఇతడు పెంచిన చెట్లన్నీ ఎంతో ఆనందదాయకంగా జీవం
-27-
 వుట్టిపడుతూ మన జీవరక్తంలోకి ఏవో కలల కెరటాలు
పంపు తున్నవి.
: అవును. ఆ పూలు కూడా నీవు నిద్ర లేచిందే తీసిపారేస్తారు. వేరే
 #పూలు
 చల్లుతారు. అవి వాడితే వేరే పూలు....
: నిజంగా?
: అవును.
: నే చూడలేదే.
: అన్నీ అలాగే. కాలంతీరితే కర్మానుగుణంగా నశించాల్సినవే. వచ్చినచోటే
 చేరుకుంటవి.
: నేను?
: నీవూ!
: యశోధర?
: ఆమె కూడా!
: యశోధర కూడా???
: తీసికెళ్ళండి. అమ్మాయీ, వెళ్ళు - వెళ్ళమ్మా - సిద్దార్థా! ప్రపంచంలో
 అన్నీ నశించాల్సినవే. తప్పవు!
: అవేవో మూల్గులు వినబడుతున్నవి.
: అవును, కుష్ఠురోగి.
: అత డేలాగుంటాడు? రమ్మను.
: అతన్ని దగ్గర చేర్చరాదు.
: ఏం?
: దుర్వాసన.
: శవానిక఼ి దుర్వాసనే. అతనికీ దుర్వాసనే. అలాకాదు. అతన్ని పిలు -
: ఏయ్ - యిలా రా.
: `ఏయ్' అంటావేం? పేరు లేదూ?
: వాడు బిచ్చగాడు.
: అత డెందుకాలాగున్నాడు?
: అది ఒక భయంకర రోగం.
: ఎందుకతడి కా రోగం?
: కర్మ.
-28-
: నువ్వెవరు?
: బిచ్చగాణ్ణి బాబూ.
: అంటే మానవుడు కాదూ?
: అలాగేనండి. మొదట నేనూ బాగుండేవాణ్ణండి. కర్మవల్ల రోగం వచ్చి
 బ్రతకలేక యీలా బిచ్చమెత్తాల్సి వచ్చింది.
: అసలు నీ వెవరు?
: రైతుని బాబూ. దున్ని, పండించి, బాబుగారికి చాలారోజులు పన్ను కూడా
 కట్టి వున్నానండి.
: నాన్నకు నువ్వు తెలుసా?
: పన్ను కట్టనప్పు డొకసారి పిలిపించారండి. దర్శించుకొన్నానండి. అప్పుడు బావుణ్ణానండి.
: మధ్య వచ్చిందా?
: చిత్తం. అప్పుడు మారాజులమీద ఆళ్ళు దండెత్తి వచ్చారండి. పెద్ద
#యుద్ధ మైంది. మేమంతా జగడమేశామండి. ఆ యుద్ధంలో నా ఒకే కొడుకు
 పోయాడండి. ఆడుంటే -
: నీకీ రోగ మెందుకు వచ్చింది?
: కర్మ బాబూ.
: దేవదత్తా, అందరికీ యీ రోగం వస్తుందా?
: అవును. సరే, వెళ్ళవోయ్.
: ఴవెళ్ళమంటావేం? నాన్న దగ్గరకు పిల్చుకెళ్తాను.
: సిద్దార్థా, నీకు వెఱ్ఱెత్తింది. వాడు నగరులోకి రావీల్లేదు.
: ఏం?
: అది అలా, వాడి కర్మ.
: సరే, నువ్వెళ్ళు. నాన్నను రమ్మంటావా?
: నీకు మతిపోయింది.
: మారాజుల వారొస్తారు. ఎళ్తానండి.
: ఏం ఎందు కెళ్ళాలి?
: మారాజులవారి యెదటపడటమే! బుద్ది బాబూ బుద్ది.
: ఎందుకలా భయపడతావు? నాన్నగారొస్తున్నారు.
: సిద్దార్థా.
-29-
: నాన్నా. అతన్ని చూచారా నాన్నా?
: ఎఴవర్ని?
: ఆ కుష్ఠురోగిని.
: ఇక్కడి కెందుకు వచ్చాడు?
: నే రమ్మన్నాను. మీరు చూడలేదూ?
: అతనితో ఏం ప్రమేయం నాయనా? రా, పోదాం.
: అలాకాదు నాన్నా. అతన్ని మీ రెరుగరు? ఆ కుష్ఠురోగిని-
: ఎందరో కుష్ఠురోగులు.
: నిజంగా?- పోనీ, మీకు పననుకట్టే అతన్ని. పొలం దున్ని, పండించి-
: ఎందరో అలాంటివారు.
: యుద్ధంలో మీకోసం పోరాడిన అతణ్ణి?
: అలా పోరాడినవా రెందరో.
: యుద్దంలో తన కొడుకును పోగొట్టుకొన్న అతణ్ణి?
: మరణించినవా రెందరో.
: అదేంటి నాన్నా ఎందరో, ఎందరో అంటున్నారు? ఈ వూరికంతా నగరు
 యిదొకటే; ఈ రాజ్యానికంతా రాజు మీ రొక్కరే; ఈ పూలంతా
 మన నగరు కొక్కదానికే! ఈ పన్నంతా మీకే; కానీ, ఎందరో పన్ను
 కట్టేవారు. ఎందరో యోధులు, ఎందరో రోగులు, ఎందరో రైతులు,
 ఎందరో మరణించేవారు! ఏంటి నాన్నా యిది?
: ఊర్కే కలతపెట్టుకోకు. రా, నగరులోకి పోదాం, రా.
: ఇంకోటి నాన్నా. ఇంతకూ మీరూ, నేను, యశోధర. అందరూ
మరణించా లటగా! అదెంచేత?
: ఇవన్నీ ఎవరు చెప్పారు? రా నాయనా, పోదాం.
: అంతా కర్మట కర్మ! గాలిలో రొద పుట్టింది. మబ్బులలో నలుపు కమ్మింది.
 చెట్లు ఊగిపోతున్నవి. నగరులోకి పోతే యివేవీ తాకవు కదు?
: ఔను నాయనా! ఏదో గాలివాన చెలరేగుతూంది. ఆ దూరపుకొండల్లోంచి
 దాని అడుగుల చప్పుడు వినపడుతూంది. అంధకారం బాటతీరుస్తూ
 ముందు నడచి వస్తూంది. పోదాం, రా.
-30-
 నాలుగవ రంగం
 రాజు:మంత్రి.
: అంతా ధ్వంసమైంది దేవదత్తా, నా ముద్దుబిడ్డకు వైరాగ్యాన్ని కల్పించి
 వనాంతరాల్లోకి రాజ్యభ్రష్టుని చేసి తరిమేయాలని నీ ఆశా?
 #సిద్దార్థుడు
 నీకేం చేశాడు?
 మంత్రి ప్రవేశం.
: మంత్రీ!
: ప్రభూ!
: అంతా నిరుపయోగమైంది.
: ఏంటి ప్రభూ?
: సిద్దార్థుని జీవితంలో నూతన ప్రకరణం మొదలిడలేదు. వైరాగ్యం వేళ్ళు
 బారిపోతూంది. ప్రపంచజీవిత రహస్యాలకోసం వెతుకుతూ
తారాడు తూన్న సిద్దార్థుని కన్నులలోని విషాద తిమిరాలు నా గుండెలను
 బాకులలా చీలుస్తున్నవి. భూమ్యాకాశముల దవ్వు కొలతలేసి అలసి
 పోయి మూతపడ్డ అతని కన్నుల కొసల నుండి రాలే కన్నీటిచుక్కలు
 నా జీవరక్తాన్ని గడ్డకట్టించే కఠోర పాషాణగుళికలుగా ఉన్నవి.
 మంత్రీ!
: ప్రభూ!
: నా సర్వస్వం సమర్పిస్తా. నా ముద్దులబిడ్డను కాపాడుకోవాలి మంత్రీ!
 ఎందరు పండితులు, ఎందరు కవులు, ఎందరు కళాకోవిదులు-ఎందరు
 మంత్రవేత్తలు-పిలు, అందరినీ పిలు. నా ఏకైక పుత్రుని రక్షింప
 మార్గం చెబుతారేమో!
: ప్రభూ! వృధాకలవరపాటు! మన్నించాలి. రాకుమారులవారి జాతకం
 అమోఘం. ఎటైనా ప్రపంచ విఖ్యాతితో పూజ్యు లవుతారు.
: మంత్రీ! నారచీరలతో నా బిడ్డ వనాంతరాల్లోకి నడుస్తాడు.
శుద్దో దనుని హృదయం వ్రక్కలవుతుంది. నగరులో వెలుగు
ఆరి పోతుంది.
-31-
: హృదయం వ్రక్కలై ఆత్మ ఆవిష్కరింపబడుతుందేమో, నగరులోని
 వెలుగు ఆరి ప్రపంచానికంతా అఖండజ్యోతి ప్రకాశిస్తుందేమో!
: ఏమో, ఏమో, ఎవరు చూచారు? ఏం సాదిస్తాడో? కానీ...కానీ, ఇది
 మాత్రం నిజం -సిద్దార్థుడు ఎముకలగూడవుతాడు, ఆ
పసిడిబుగ్గల లోని పాలంతా యింకిపోయి, రక్తానికి రక్తిమ పోయి
నైల్యమబ్బు తుంది. యశోధర....మంత్రీ!
: ప్రభూ!
: ఆనాడు అరివీరులను కోటగోడలుదాటి రానీక నిలిపిన వీరులు, కొండలను
 దొర్లించి మహాసొధాలుగా తీర్చిన శిల్పులు, నిష్ఠురనిష్ఠాగరిష్ఠులై
 బ్రహ్మతేజోవిరాజితులై, కేవల అరుణావలోకాన మాత్రాన
ఇహపరా లను సైతం బూదిచేయ శక్తిగల్గిన ఆ బ్రాహ్మణులు, శిలలకు రూపమే
 కాక ప్రాణం కూడా పోసి స్థాపింప గలిగిన ఆ
పిండితులు-ఇప్పు డెక్కడ? ఎక్కడ? నా సిద్దార్థుని కాపాడటాని కెవరూ రారా? ఎవరి
 వలనా కాదా? మంత్రీ!
: కొంచం శాంతించండి.
: అలాకాదు. మంత్రీ! నా సిద్దార్థునికి ప్రత్యేక ప్రపంచం సృష్టించు.
#పొలి మేరలో ఎక్కడా నిట్టూర్పు. బాధ, ముదిమి, వ్యాధి మృత్యువు కనిపించ
 కూడదు. ప్రపంచంలో ఎక్కడెక్కడ సౌందర్యం, సౌకుమార్యం,
 యవ్వనం, సంగీతం వుందో అంతా ఆ ప్రపంచంలో తెచ్చి నింపు.
 నా సర్వస్వం యిచ్చేస్తా. లోకంలోని ఆనందాన్నంతా అక్కడే
తాండ వించేటట్లు చేయి. ఎండుటాకులు కనబడకూడదు-పూలు వాడిపోయే
 దృశ్యం సిద్దార్థుని కళ్ళ పడకూడదు - ఒక్క నెరసిన వెంట్రుక లోన
 ప్రవేశింపకూడదు. వానలు లేకపోనీ సెల లింకరాదు. ఎప్పుడూ
 సంగీతమే, ఎప్పుడూ నృత్యమే-ఎప్పుడూ ఆనందమే. లేళ్ళ
కన్ను లన్నీ అక్కడే వుండాలి. ఆ కన్నుల పోటీచేసే యవ్వనాంగనల
 వీక్షణచంద్రిక లక్కడే వెలగాలి. కానీ - త్వరగా - పో -
: చిత్తం.
: విఖ్యాతశిల్పులను, చిత్రకారులను పిలిపించు. వైరాగ్యవాసనలు చిమ్మే
 ఒక్క చిత్రంకూడా వుండకూడదు. అంతా సౌందర్యం, భోగం,
 ఆనందం.
-32-
: చిత్తం.
: ఆ సౌధానికొక కంచుద్వారాన్ని నిర్మించు. అందులో ఏడుద్వారాలు. అక్కడ యిద్దరు అప్రమత్తులయిన యోధులను కాపలా వుంచు.
: ఆజ్ఞ.
: సృష్టికి ప్రతిసృష్టి చేశాడు విశ్వామిత్రుడు. ఇది మాత్రం ఎందుకు
 కాకూడదు? అది తపోబలమైతే యిది ప్రేమబలం!
-33-
 అయిదవ రంగం
 నూతన భవనం, విశ్రామవనం. సిద్దార్ధుడు, యశోధర,
 వివిధ వాద్యాలలో అంగనలు.
 యశోధర సిద్దార్థుని కొనగోటితో తన పెదవి నొక్కుకుంటూ,
: ప్రియా! అవిగో చిలుక గోరువంకలు.
: యశోధర చెక్కిళ్ళపై ఎరుపు పండనుకొంటూవున్నవి కాబోలు.
: అవును. పండే - వాటి కందదు పాపం.
: అమ్మో.... .... ....
 రాజు ప్రవేశం.
 ఇరువురు వందనం చేశారు.
: శుభమస్తు - సిద్దార్థా - ఏలాగుందీ భవనం?
: చాలా అందంగా వుంది నాన్నా - హాయిగా వుంది యిక్కడుంటే - మీ
 కోడలి సంతోషం -
: అవునమ్మా -
: (సిగ్గు)
 సంతోషంతో వెళ్ళాడు రాజు.
: నళినీ - రావే -
యశోధర, నళిని, నాట్యం చేస్తున్నారు. నాట్యం మధ్య యశోధర సిద్దార్థుని
పక్కకు వచ్చి గిలిగింతలు పెట్టి అతని శిరం తన వక్షస్థలంపై ఆనించుకొన్నది.
నళిని మాత్రం నాట్యం చూస్తూంది. అలాగే చూస్తూ సిద్దార్థుడు యశోధర ఒడిలో
 విశ్రమించాడు.
: శ్!
నాట్యం, సంగీతం, ఆగిపోయింది. అందరూ వెళ్ళారు. సిద్దార్థునికి చెమటలు
పోస్తున్నవి. యశోధర విసురుతూ కూర్చుంది. ఒక్కనిమిషం నిశ్శబ్దం.
మరల -
జంత్రగాండ్రు లేరు గానీ వాద్యాలు మ్రోగుతున్నవి. కాళ్లు కనబడవు గానీ
నాట్యంలో గజ్జెల సడి వినపడుతూంది. ఎవరూ లేరుగానీ పాట వినపడుతూంది.
 మునుపటి రాగమే - తాళమే - నాట్యమే - కానీ పాట వేరు.
-34-
 కామినీ కాముకుడు కలిసీ
 పొరలిపోయే కెంపుదొన్నెను
 పెదవి పెదవికి చేర్చబోతే
 అంతలోగా దొన్నె ఎటకో
 ఎగిరిపోయిందీ!
 రిచ్చపడి శిరసెత్తి చూస్తే
 జేగురించిన నెల హసించీ
 ధూళిధూళిని గాలిగాలిని
 ఇంతలోగా ముద్దులేలని
 వెక్కిరించిందీ!
 సిద్దార్థు డులికిపడి లేచాడు.
: నళిని - నళిని - నళిని ఎక్కడ?
: ఏం ప్రియా? ఎందుకలా ఉలిక్కిపడ్డారు? ఏం? ఏమైంది?
: నళిని? అబ్బ, ఏం వికారం? ఎందుకలా జుట్టు విరబోసుకుంది!
 ఎందుకలా ఏడ్చింది? ఇన్నిరోజులుగా ఎప్పుడూ యింత భయంకర
 నృత్యం చేయలేదే నళిని? ఆ చూపులు - అడుగడుగునకు భూమి
 కంపించిపోయింది. అదిగో విను - యింకా వినపడుతుందా పాట.
: ఏ పాట?
: నళిని పాడిన పాట.
: ఏమని?
: జీవితమంతా కన్నీటి కెరటాలు - నిట్టూర్పు గాడ్పులు - క్షోభ - సుడి
 గుండాలు-తుపాను-వినాశనం-అంతేనట.
: నళిని పాడిన పాట అదికాదే-నే పాడి చూపుతా వినండి.
: పాడు, మరల వినాలనిపిస్తూంది. పాడు యశోధరా.
 చిరుచిరుమువ్వల నవ్వురువ్వులో
 పంజువెన్నెలల అలలో
 ముసుగుతీసి నిరంకుశకేళిలో
 విసుగువాసి వసంతపు కలలో
-35-
 కలసి ఆడుదమా
 ఆమని
 సొలసిపాడుదమా!
 అందము ఒకటే ఆనందము ఒకటే
 ఇదే జీవితమ్మీ నేడే
 ప్రపంచమిది ఆ స్వర్గమ్మేదో
 మన మమర్త్యుల మీనాడే
 కొగిలింతసొలసీ
 విడువని
 సొలింతలో మరచీ!
: అదికాదు యశోధరా, నళిని పాడిన పాట అదికాదు నే విన్నాను.
: ఎప్పుడు విన్నారు? కలలోనా?
: కల ఒక క్షణమైతే జీవితం మరొక క్షణం. అంతే. నళిని పాడిన పాటలో
 సత్యముంది. అదే సత్యం. నీవు పాడిన పాట కల్పితం, మాయ!
 అవును - యశోధరా! నన్ను మోసం చేస్తున్నావా?
: ప్రభూ!
: ఇదో వస్తున్నా. మీ పిలుపు విన్నాను. నళినీ! నీ సంజ్ఞ చూచాను,
 వస్తున్నా.
: ఎక్కడికి౟?
: నళిని ఎక్కడికో రమ్మని సంజ్ఞ చేసింది.
: నన్ను వదలి వెళ్తారా?
: యశోధరా!
: అదిగో చూడండి-ఆ మాలతీలత ఎలా విరబూచి వుందో-ఏలా పిల్ల
 గాలుల చక్కలిగింతలకు కిలకిల నవ్వుకొంటూందో, ఆ లేళ్ళ
 గుంపులు ఏలా రాగిణి హృదయంలా గంతులేస్తున్నాయో. చంద్రికల
 బాకులతో హృదయాన్ని చీల్చి ప్రేమరుధిరం సమర్పిస్తూన్న ఆ
 మావిచివుళ్ళు చూడండి. వాటిని లాలిస్తూ పాడుతూన్న కోకిల -
 వనానికంతా ప్రేమసందేశాన్ని, సౌందర్య సౌరభాన్ని, ఆనంద
 మాధురిని, అందిస్తూంది తన పాటలో. లతల ఆనందమేగా పూల
-36-
 ఎరుపులో పొంగేది? ఆ చివురుటాకుల ప్రేమేగా కోకిల కూతలో
 ప్రతిధ్వనించేది?
: ప్రియా! యీలా చూడు.
: అబ్బ వేడిగా వుంది. ఫాలభాగం కాలిపోతూంది. విశ్రాంతి తీసుకోండి.
: అదికాదు. శివుడు మూడవ కన్ను తెరచాడు. అందువల్లే ఆ వేడి.
: అదిగో ఆ మురళీలోలుడు. నేను వట్టి మురళి. అశక్తను. మీప్రేమ
 వాయువీచికలు నాలో వూదండి. మధురగానం వెలువడుతుంది.
 క్రొత్త క్రొత్త పాట లాలపిస్తాను. మీకీ ప్రకృతిని, సౌందర్యాన్ని,
 ఆనందాన్ని బానిస చేస్తాను.
: కన్నీరు యింకిపోతుందా? నిట్టూర్పు నిలిచిపోతుందా?
: కృష్ణుని సందేశమే అది.
: అలాగేతే నళిని సందేశం అబద్ధమేనా? ఈ ప్రపంచం నే నిప్పుడు
చూచే లాగే వుందా? అంతా ఆనందమయమేనా?
 యశోధర చేతులు తట్టింది. మరల నటీబృందం ప్రవేశం.
: ౟యశోధరా! ఏదో అగోచరమైన మాధుర్యంతో నింపిన గాజు
పాత్రలలా గున్నారు. నిజంగా యశోధరా. పూ తీవెలపై నుండి అవ్యక్త మధుర
 స్వర్గములతో ఒకరినొకరు పిలుచుకొంటూ ఎగిరిపోయే
ముద్దుపిట్టలలా గున్నారు. ఎంత సౌందర్యపిపాసి సృష్టికర్త! భయంకర
కాముకునిలా లలో ఎప్పుడూ రుధిర స్రవంతులు చిమ్ముతుంటాడు. కమలా-
 యిలా రా - లెళ్ళ కొమ్ముల రాపిడిపడ్డ పూలగుత్తులలాగు వీణా
 తంత్రులు మీటి నీ వేళ్ళు ఎర్రబారినవి - కాయలు కాచినవి కూడా.
 అయినా పూలు రాలి కాయలు కలిగితేనే లత కానందం. కానీ- ఏదీ
 పాడు.
 పాట, నృత్యం.
చాలు!-యశోధరా!ఆనాడు ఈలాగే చంద్రుని ముందు నడచిపోయే
మబ్బులలాగు, భూమాత కన్న స్వప్నాలలాగు. ప్రకృతి అల్లిన
సాలెగూండ్లలాగు. సముద్రం విసరిన తుంపలలాగు, ఎందరో
-37-
రాచకన్నెలు నా ముందు నాట్యంచేస్తూ పోయారు. ఎందుచేతనో నీవాలా
కదలివస్తుంటే నీ కళ్ళల్లోకి చూడలనిపించింది.
: ప్రియా! అది నా సుకృతం.
: ఆ విల్లును వంచింది నీ ప్రేమబలమే నని నీవు ఒకసారి చెప్పావు
 #కదూ?
 అవును. ఆ గుఱ్ఱాన్ని సాధించింది నీ చూపుల కళ్ళెమే. ప్రియా!
 చీకటిపడుతూంది.
: లేదు, వెన్నెల వస్తూంది.
-38-
 ఆరవ రంగం
 రాజు:మంత్రి
: కలలు కల్లలంటారు.
: పసిపిల్లల నోదార్చు అలా చెప్పి. ఆనాడు మాయ కన్నకలకు అర్థం
 చెప్పారు పండితులు. నిజమైంది. ఈనాడు నా కలకూ అర్థముండాలి.
 అది జరిగి తీరాలి. జరిగే మునుపే దాని అర్థం తెలుసుకోవాలి.
 పండితులను -
: పండితుల వాక్కుల విశ్వసనీయాలని చెప్ప ధైర్యం చాలదు. కానీ-
: కానీలేదు - ఏమీలేదు. నీ వలా చెప్పినా విశ్వసించటానికి నేను
 #సంసిద్ధుణ్ణి.
 పండితులపై నాకు పూర్ణవిశ్వాసముంది.
: కొన్ని కాకతాళీయాలను చూచి - సిద్దాంతాలు -
: మంత్రీ! కాకతాళీయమూ ఒక సిద్దాంతమే!
: చిత్తం.
: భయంకర స్వప్నాలు యీలా నన్ను వెన్నాడటం ఎందుకు? ప్రశాంత
 నిశాంతాలను విషవంతాలు చేస్తున్నవి. రేయి నా గుండె పొంగి
 పొంగి పగిలిపోతుందేమో అనిపించింది. ఏడు స్వప్నాలు, ఏడు
 పిడుగులు. పోనీ. యీ స్వప్నాల కాలమంతా యీలా నన్ను
 వెంటాడటంలోనే గడచిపోనీ. నా నిశివేళలు దుర్భరాలైనా ఫరవా
 లేదు. కార్యరూపం దాల్చటానికి మాత్ర మీ కలలకు కాలం
చిక్క కుంటే చాలు. నా సిద్దార్థుడు రక్షితు డవుతాడు.... .... ఏం?
: పండితులు వచ్చారు.
: రానీ.... ....
 దయచేయండి. రేయి ఏడు కలలు కన్నాను.
 వాటి యధార్థం తెలుసుకోవాలని.
 సెలవీండి.
: రేయి ఏ వేళకు?
-39-
: తెల్లవారుజామున.
: ఏ వా స్వప్నాలు?
: మొదటిది:సూర్యచిహ్నంతోటి ఇంద్ర పతాకం అఖండ జ్యోతిస్స్వరూపమై
 వెలుగుతూంది. గొప్ప గాలి వీచింది. పతాకం నేల తాకింది. ఇంతలో
 కొందరు వచ్చి ఆ పతాకాన్ని పునరుద్దరించి తూర్పునకు నడిచి
 పోయారు. రెండవది: వెండి దంతాలతో పది మదగజములు
వస్తు న్నవి. మున్ముందు వచ్చే ఏనుగుపై సిద్దార్థుడున్నాడు. మూడవ
 స్వప్నం: ధవళధూమ పుంజముల వెడలగ్రక్కుతూన్న నిగనిగలాడే
 నాలుగు గుఱ్ఱాలతోటి రథంతో సిద్దార్థు డూరేగి వస్తున్నాడు.
 నాల్గవది: ఒక పెద్ద చక్రం పసిడినేమితో, రత్నాలు చెక్కిన రేకులతో
 తిరుగుతూంది. పట్టణానికి, కొండకు మధ్య ఓ పెద్ద డంకా
మ్రోగి స్తున్నాడు రాకుమారుడు; ఇది అయిదవది. ఓ పెద్ద గోపురం
ఆకాశా న్నంటుతూంది. దానిపై నుండి సిద్దార్థుడిరుకేలతో అమూల్య రత్నాలు
 వెదజల్లుతూంటే ప్రజలందరూ మూగి ఏరుకొంటున్నారు; ఇది
 ఆరవది. ఇక ఏడవ కల: ఆర్గు రేడుస్తూ వెళ్తున్నారు. ఏమంటారు?
 మీరు?
: మహారాజా నా కేమీ గోచరించటంలేదు.
: సరి. మీరు?
: మహాప్రభూ?ఏమీ చెప్పలేకున్నాను.
: మరి, మీరు?
: నాకూ ఏమీ అర్థంకావటంలేదు.
: సరి. అందరూ వెళ్ళండి-వెళ్ళండి. ఏమీ తెలియటంలేదు; ఏమీ
చెప్ప లేకున్నాను. అందరూ పండితులే, శ్రేయోభిలాషులే, ఏం
వుప యోగం? కూలిపోనున్న శాక్యపతి కులాన్ని నిలబెట్టలేరు. మంత్రీ!
 మంత్రీ!
: ప్రభూ! మనవి.
: ఏం?
: ద్వారంవద్ద తమ దర్శనానికై ఒక తపస్వి కాచియున్నారు?
: రమ్మను.
: దయచేయండి.
-40-
: రాజా నీ కలల కర్థం చెబుతాను విను. ప్రథమం పాతమతాలన్నీ పోయి
 కొత్తమతం వెలుగబోతుందని సూచిస్తుంది. రెండవది దశవిధ
 జ్ఞానాలలో ప్రధానమైన సత్యాన్ని నీ కుమారుడు నడిపిస్తాడని
 మూడవది నిర్వివాదాలైన నాల్గు సత్పథాలతో నీ కుమారుడు చీకటి
 నుండి వెలువడివస్తాడని. నాల్గవది సద్దర్మచక్రం నీ సిద్దార్థుడు
#త్రిప్పుతా డని. ఐదవది నీ కుమారుడు ప్రపంచానికి చాటబోయే బోధ. ఆ
 గోపురం బుద్ధగీతి. అందుండి వెదజల్లబడ్డవి అమూల్య సూత్రాలు.
 ఏడవది ,షడ్గురువులు. వారిని నీ కుమారుడు జయిస్తాడు. తెలిసిందా?
: ఇంతకూ సిద్దార్థుడు విరాగికాక తప్పదా? ఉపాయం లేదా?
: లలాటలిఖితం తప్పించాలనుకోడం వెఱ్ఱికాదూ? సెలవు.
: వెఱ్ఱికాదూ? కాదు! నా ప్రేమంతా వెచ్చిస్తాను. మంత్రీ?
: ఆజ్ఞ
: సిద్దార్థుని మందిరంలో ఒకటే ఉత్సవాలు-నాట్యప్రదర఼్సనములు-
 విందులు-క్రొత్తక్రొత్తవారిని పిలిపించు. కానీ-స్వర్గం చేసే
 విశ్రామవనాన్ని.
: చిత్తం.
: ఇదిగో, ఆ కవాటం దగ్గర - ఆ కంచుద్వారం వద్ద ఎందరున్నారు కాపలా?
: ఇద్దరు.
: మరి యిద్దర్ని పంపు జాగ్రత్త అని చెప్పు. సిద్దార్థుడైనా సరే నాకు
#తెలి యక పోవీలులేదు. అజాగ్రత్త ప్రాణాలను తింటుంది.
: చిత్తం.
: లలాటలిఖితం తప్పించాలనుకోవటం వెఱ్ఱికాదూ? వెఱ్ఱి! వెఱ్ఱి! ప్రతిదీ
 లలాటలిఖితం అయితే, ప్రతిదీ తప్పించటానికి వీలులేకపేతే,
అన్ని టికీ దేవతలు `మేము మే'మని ముందు వచ్చేట్లయితే, మానవుడి కీ
 దౌర్భాగ్యపు మేధ ఎందుకివ్వాలి? అన్నీ ఎందుకు? మానవుడు
 కేవలం దేవుడిచేతి కీలుబొమ్మ అయిపోయాడా? ఎంత దౌర్భాగ్యపు
 బ్రతుకు!
 పురుష ప్రయత్నం కొంత వుండాలట. కొన్ి మన చేతుల్లో వున్నవి.
 చేతగానివన్ని కర్మ! ఇంతేనా?.... ...
-41-
 మానవుడు తన మేధాశక్తినంతా ఉపయోగించి దేవతలపై విప్లవం
 తేరాదూ? తెస్తాడు, తప్పక తెస్తాడు.
 ఎన్నాళ్ళీలా ఊర్కోగలడు? యెన్నాళ్ళీలా కర్మశృంఖలాలతో కట్టుబడి
 వుండగలడు? పశువుకన్నా అధమంగా తన్ను చూస్తుండే దేవతల్ని
 ఎన్ని దినాలు సహించగలడు? మేధనీ యుక్తాయుక్త విచక్షణనూ
 యిచ్చి యిలా బానిసగా వుంచుకోడం వచ్చి అవమానం!
 సిగ్గు!- .... ....
 ఏదో ధ్వని
: శుద్దోదనా!
: ఎవరు?
: శుద్దోధనా! సిద్దార్థుడు శాక్య సింహాసనాన్ని అధిష్ఠించేందుకు కాదు,
 ప్రపంచ మానవహృదయ సింహాసనాన్ని అధిష్ఠించటానికి. సిద్దార్థుడు
 నీ ఆనందమే కాదు, ప్రపంచానందం. అతని బోధామృతం నీ
 రాజ్యాన్నే కాదు, లోకాన్నంతా పాలిస్తుంది. ప్రపంచ విముక్తికోసం
 జనించినాడు. సంతోషించు.
: ఏమో! ఏమో అన్నాను - అనుకున్నాను.... .... సిద్దార్థా!
: శుద్దోదనా! ఎంత అజ్ఞానం? విశ్వమానవ సౌభ్రాత్రాన్ని. సకల ప్రపంచ
 శాంతికల్యాణాలను స్థాపించి, చరాచర ప్రపంచ మందంతటా
 ప్రేమామృతధారలు కురిపించి, త్రావించి, భారతవర్షానికే
అనిర్వాచ్య మైన యశస్సు గడింపబోయే పుత్రుని, ఆవగింజంత
సింహాసనా న్నధిష్ఠించి, చెదలుపుట్ట లాంటి జానెడు రాజ్యాన్ని పాలిస్తూ, కొలిమి లోంటి వెలువడే రవ్వలలాక్షణంలో ఆరిపోయే భోగాల ననుభవిస్తూంటే
 చూస్తూ సంతోషిస్తా నంటావు. నీ హృదయం ఎంత గొందిగా
 వుందో వూహించుకో.
: అవును, నిజమే. కానీ-సిద్దార్థుడు చేసేది, చేయాల్సింది, చేయగలది
 ఏముంది?నాల్గు వేదాలు, ఉపనిషత్తులు, బ్రాహ్మణమతం ఈ వరకే
 మానవ విజ్ఢాన సాగరాన్నంతా వెలికి గ్రక్కేసినవి.
: నిజమే-కానీ-కర్మకాండ అధికమైపోయింది. సామాన్య ప్రజల
 కందని సాహిత్యం ,అర్థంకాని సిద్దాంతాలు, ఆచరణకు అసాద్యాలైన
-42-
 సూత్రాలు, ఇహముకన్న పరమునే అధికం చేసి ఇహమును
విస్మ రింపజేసి, ఎదురుచూడని అవాంతరాలను తెచ్చిన తత్వం, స్వార్థం-
 అధికమైంది. మానవలోకం తహతహ లాడుతూంది. వెలుగవసరం.
 ఆ వెలుగే నీ సిద్దార్థుడు.
: నా సిద్దార్థుడు వెలుగు కావచ్చు, ప్రపంచరక్షకుడు కావచ్చు. కానీ నా
 పుత్రవాత్సల్యం, నా తండ్రి కన్నులు, అతన్ని రాజకీరీటంతో,
చీనాం బరాలతో చూడాలని ఉవ్విళ్ళూరుతున్నవి. అది ఆరని ఆశ-నెరవేరక
 పోతే మంట - దాంతోనే వినాశమేమో!
: ఆరకపోదు. సిద్దార్థుడే `సిద్దార్ధుడై' దా఩్ని ఆరుస్తాడు. అదిగో
 #దేవతలేలా
 సంకీర్తనం చేస్తున్నారో విను.
 `బుద్దదేవ సమోదేవో నభూతో నభవిష్యతి'
-43-
 ఏడవ రంగం
నడిరేయి: తారల వెలుగు గవాక్షలద్వారా సిద్దార్థుని శయ్యాగారంలోకి తొంగి
చూస్తూంది. ఆకాశపు రంగు దీపం వెలుగు శయ్యాగారంలో. శయ్యపై
యశోధర ఉయ్యాలలో పాపాయి. కొంతదూరంలో కిటికీవద్ద సిద్దార్థుడు. ప్రకృతి
నిద్రపోతూంది. ఆకాశంలోకి మబ్బులు మెల్లమెల్లగా ప్రాకుతూన్నవి.
గమనిక: రంగస్థలం రెండు భాగాలుగా విభజింపబడి వుంది. ముందు భాగం
కన్న వెనుక భాగం కొంచం చిన్నదిగా ఉంది. ముందుభాగంలో శయ్యాగారం.
వెనుకవైపు రంగస్థలంలో సిద్దార్థుని మానసిక చిత్రాలు ప్రదర్శింపబడగలవు.
వెనుకవైపు రంగస్థల ప్రధాన యవనిక నీలిరంగు. అది కదిలిపోతే తెల్లటితెర.
ఆ తెర వెనుకభాగం నుంచి గొప్ప వెలుగు తెరను దూసుకొని వచ్చి
రంగస్థలాన్ని ఆవరిస్తూంది కొద్దిగా. ఈ రంగస్థలానికి వెలుగు తప్ప వేరే
#దీపాలే
లేవు. ప్రదర్శింపబడే పాత్రలన్నీ వట్టి ఛాయలు.
 నిద్రబోతున్న యశోధర ఉలికిపడి లేచింది.
: ప్రభూ! ప్రభూ!
: ఏం? ఏంటి ప్రియా? ఎందుకాలా కలవరపడుతున్నావు? అబ్బ! చెమటలు
 పోసినవే? ఏమైంది?
: అదో మరల అదే స్వరం?
: ఏం స్వరం?
: మీకు వినపడలేదూ?
: ఏమిటీ?
: `సమయమైంది. బయటపడు. సమయమైంది' అని.
: అంతేనా యశోధరా? ఆ మాత్రానికే యంత ఆరాటమా?
: నా కెందుకో భయమేస్తూంది. ఈ పైకప్పు మెల్ల మెల్లగా క్రిందికి దిగి వస్తూన్నట్లుంది ప్రభూ!
: యశోధరా!
: వెళ్ళకండీ, కూచోండి-మీ వక్షస్థలంలో దాగివుంటే యీ శిరోభారం
 లేదు. వెళ్ళకండి.
-44-
: పిచ్చిదానా! సత్యానికి భయపడతా వెందుకు? నీ వీ ఒక్క నిమిషం
 #కన్నీరు
 కార్చటం కాదు, లోకమంతా అహోరాత్రము లీలా కన్నీరు
కారు స్తూంది. భూమి ఎప్పుడూ నిట్టూర్పులు వదలుతూంది.
 కలువలోని కావి ప్రేమ అంటావే-కాదు వెఱ్ఱిదానా! ఏడ్చి ఏడ్చి
 తేరిన ఎరుపు. సమయమైందేమో! లేకుంటే ఎందుకా వాణి? లోక
 శోకం ఆగేందుకు సమయమైందేమో!
: ప్రభూ!నన్ను -
: యశోధరా! నిన్ను - ప్రేమించాను - ప్రేమిస్తున్నాను - ప్రేమిస్తాను.
 కానీ-అదిగో, మానవప్రపంచం. జంతుజాలం-ఎలా ఎడతెరపిలేని
 కన్నీటి వరదలలో మూర్ఛిల్లి వున్నాయో! అదిగో. మంటలు-పొగలు.
 అవిగో మూల్గులు-వీరి కష్టాలన్నీ తనదనుకొని రాత్రింబవలు
 విముక్తి మార్గాన్ని వెదుకుతూంటే యీ హృదయం నిన్నేలా మరచి
 పోతుంది? భయపడకు - పడుకో -
: మీరు పడుకోరాదూ?
: అదిగో, అదేమిటో ఆ మంట చూడు. కాటిచితి!
: అబ్బ!
: అవును-నీవు భయపడతావు. పో - పడుకో. నేనూ యిప్పుడే -
 యశోధర పడుకొంది.
: ఆ జ్వాలలలో రగిలి, బూదిలో తృప్తిని పొందే ఆ మహాశక్తి ఏమిటో?
 తనలో లీనమైపోతూండే ఆ నిర్భాగ్యుని గాధను శూన్యంలో,
 అస్పష్టాక్షరాలతో, అగ్రాహ్యమైన భాషలో లిఖిస్తుందా మంట. ఆ
 భాష తెలుసుకున్నామా మానవు డిన్నాళ్ళుగా జీవన మృత్యువులతో
 జరుపుతూండే మహాసంగ్రామం అంతరిస్తుందేమో! ఏమిటా ఏడ్పులు?
 మానవజీవిత గ్రంథంలో ప్రథమవాక్యం దుఃఖమేమో? తల్లిగర్భం
 నుంచి అప్పుడే అవతరించిన చిన్నికూన ఎందు కేడవాలి? అందరూ
 ఎందుకు నవ్వుకోవాలి? త఼న పాత్ర నంతా నిర్వహించి రంగస్థలం
 నుండి విరమించే కాలంలో అందరూ ఎందు కేడవాలి? అతడు ఆ
 చితిలో ఎందుకు నవ్వుకోవాలి? నవ్వు పెట్టే హింస దుఃఖం! హింస
 యొక్క దుథమే నవ్వు! అంతేనా??
-45-
 పాపాయి నిద్రించాడు. అతని కన్నులలో ఏవో కలల కెరటాలు రేగి
 కన్నురెప్పల్ని ఆడిస్తున్నవి. ఎందుకా నవ్వు? నన్ను చూచి
నవ్వు తున్నావా? కాదు....నీలో హింస దుఃఖిస్తూంది. దాని కింకా కాళ్ళు,
 చేతులు, మాటలు, శక్తి, రాలేదు. నీ తల్లి వక్షస్థలం నుంచి, నా
 జీవితం నుంచి రావాలి ఆ శక్తి. ఔనా? అలాగైతే -
 వెనుకవైపు రంగస్థల ప్రధాన యవనిక కదలిపోయింది.
 అయితే - హింస -
: నేనే.
: ప్రపంచంలో నీవులేని చోటు లేదా?
: లేదు.
: ఇక రాదా?
: నన్నడిగితే రాదంటాను.
: ఎందుకిలా వేపిస్తావు? ఎందుకీలా లోకాన్నంతా కొలిమిలోపెట్టి వూదటం?
 ఎందుకిలా యీ ప్రకృతినంతా ఏడ్పులతో మూల్గులతో నింపుతావు?
 నీకేం లాభం?
: సిద్దార్థా! ఇదెవరో చూడు.
: ఎవరు?
: దారిద్ర్యం, స్వార్థం, అసత్యం, యిక యితడు -
: మృత్యువు.
: అవును.
: ఏమంటా విప్పుడు?
: మమ్మల్ని కాదని యీ లోక వ్యవహారం ఏదీ జరగదు. మేమన్యోధార
 జీవులం. ఇతడికి ఇనుపగజ్జెల సంగీతం అతిమనోహరం.
నెత్తు టేళ్ళల్లో స్నానం చేస్తేనే నేను బ్రతుకుతాను. ఇతడికి అమితమైన
 ఆకలి - అన్నీ భక్షించేయాలని ఎప్పుడూ కనిపెట్టి వుంటాడు.
 ఇతడు -
: ఇక చాలు.
-46-
: మేము లేకుంటే లోకం నిర్జీవమవుతుంది.
: అయితే అన్నీ యీలాగే జరిగిపోవాల్సిందేనా? ఈ యుద్దాలు, రక్తపాతం,
 క్షోభ, ఆకలి, ఆత్మహత్యలు - అన్నీ యీలాగే జరుగుతూ ఉండాల్సిన
 వేనా? దేవుడు యీ ప్రపంచాన్ని సృష్టించింది యీ హృదయవిదారక
 దృశ్యాలను చూస్తూ ఆనందించటానికేనా?
: కళ్ళు మూసుకుని కాలవాహినిలో పడి అందరిలా జీవితాన్ని గడుపు.
 లేదా-అదిగో చూడు మునులు, యోగులు, భక్తులు వారి దారి పట్టు.
: వారేం చేశారు? ఏం చేయదలచుకొన్నారు?
: వారూ నీలాగే లోకాన్ని చూచి ఏడ్చారు. నీలాగే శాంతికోసం తపించారు.
 మా ప్రాతినిద్యాన్ని తొలగించేందుకు ఎన్నో ప్రయత్నాలు చేసారు.
 నీలాగే యీ దృశ్యాలను చూడలేమంటూ వనంతారాల్లోకి నడిచారు.
: వారు సఫలులు కారా?
: అది నే చెప్పలేను. ప్రపంచం నుండి దూరమైపోయిన దానివలన ఏదో
 శాంతి ననుభవింపవచ్చు. తామనుభవించే శాంతి యితర సామాన్య
 ప్రజస గడపలకు తెచ్చేలోగా అందరూ అస్తమించారు-అస్తమిస్తారు.
: మిమ్మల్నెవరు సృష్టించారు?
: దేవుడు.
: ఎందుకు?
: తాను సృష్టించిన ప్రపంచాన్ని నడపటానికి.
: మీ రవసరమా?
: అవును.... .... .... వెళ్తున్నాం.
: నా సందేహా లింకా తీరలేదు.
: తీరవు.
 పెనుగాలి, ప్రకృతిలో రొద. వెళ్ళారు.
: అవేమి టా మంత్రాలు? `సర్వేజనా స్సుఖినోభవంతు' ఔనా? ప్రథమం,
 అంత్యం, అదేనా? ఎక్కడుంది సుఖం? బ్రాహ్మణులు యజ్ఢాలు
 చేస్తున్నారు, క్షత్రియులు బ్రాహ్మణులను పోషిస్తున్నారు, శద్రులు
 కాయకష్టంపడి ధనధాన్యరాశులు నింపుతున్నారు. కాని ఎవరికి శాంతి
 వుంది?
-47-
 బ్రాహ్మణులలో వైషమ్యాలు, క్షత్రియులలో యుద్దాలు,
 శూద్రులలో బాధ, దారిద్ర్యం.
 సూర్యుని, వరణుని, అగ్నిని, యింద్రుని-ఇందరినీ
పూజి స్తున్నారు. ఇందరి పేరిట యాగాలు-బలలు-ఏం ఫలం? ఎవరిని
 కాపాడగలిగారు యీ దేవతలు?
 ఎక్కడో పొరబాటుంది. ఎక్కడ?
 నేనీ ప్రరంచంలో పుట్టాను. ఈ ప్రపంచం చేత పెంచబడ్డాను.
 ఒక్కజీవి తన పని మానివుండినా నేను మరణించేవాణ్ణే. ఇంత
 ప్రేమతో నన్ను పెంచి పెద్దచేసిన ప్రపంచం ఏడుస్తూంది. కన్నీరు
 తుడవడం నా భారం. అవును.
: కుమారా!
: ఏం?
: ఈ ప్రపంచమంతా మాయ!
: అయితే?
: వెలికి రా.
: అప్పుడు?
: కలిమిలేములు, సుఖదుఃఖాలు, ప్రపంచ హింసలు నిన్ను తాకవు. శాంతి
 తప్పక చేకూరుతుంది.
: ఈ సృష్టి ఉద్దేశ఼ మేమిటి?
: అవన్నీ వలలు. వాటి తప్పించుకొన్నావా స్వర్గసీమలో దేవుని
పాద ధామంలో శాశ్వతశాంతిని గ్రోలుతుంటావు.
: తాను సృష్టించిన దానిచేత, తాను సృష్టించిన దాన్నే చులకనచేసి,
 #నీచమని
 నిరసింపచేయడమే సృష్టికర్త మహానందమా?
: అవును, నమ్ము. వెలికి రా. నీకేం కావాలి?
: శాంతి.
: ఈ ప్రపంచం నీ కేలాగుంది?
: దుర్భరంగా.
: అలాగైతే, రా,నన్ను వెంబడించు.
: ఎక్కడికి?
: ప్రశ్నించకు - త్వరగా -
-48-
వెనుకవైపు రంగ఼స్థల ప్రధాన యవనిక కదలివచ్చి ఆ నిడప్రక్కన నిల్చుంది.
: యశోధరా! అమాయకత్వం నిద్రబోతూంది. అబల -
: ప్రభూ!
: యశోధరా!
: సిద్దార్థా! కానీ - త్వరగా -
: ౟యశోధరా! నా ప్రేమ నీ కెల్లప్పుడూ ఉంది. సిద్దార్థుడు
#కాషాయాంబరా లతో దేశాటనం చేస్తూండిన భిక్షువని చరిత్రకారుడు సృష్టించినా
 యశోధరను ప్రేమించాడని, లోకంతోపాటు ప్రేమిస్తూండినాడని
 వ్రాయక తప్పదు. యశోధరా! ఈ లోకబాధను చూచి తపిస్తూండే
 నా హృదయం యిక యిక్కడుంటే భయంకరమైన వినాశనం
పొందు తుంది. విశాలప్రపంచంలోకి దాన్ని విసరు. నీ త్యాగం
సువర్ణాక్ష రాలతో లిఖింపబడుతుంది.
: ప్రభూ! నా జీవితం?
: నీ జీవితం నా పై ఆధారపడిందా?
: కుమారా! అదే మాయ!
: అవునా? కానీ.... ....ఈ ముద్దు ఎంత మధురంగా వుంది.
: కుమారా: అది విషం.
: ఈ పాపాయి చిన్నిచేతుల చల్లటి స్పర్శను యీ గాలి కూడా విడిపోలేక
 మోసుకుపోతూందే. ఎంత హాయి!
: సిద్దార్థా! అది నీ ఆత్మను కాల్చే అగ్గి చలువ.
: అబ్బ నమ్మలేను.
: కుమారా! పడిపోతున్నావు. అదిగో చూడు, ఆవైపు, దినానికి ఎందరు
 శిశువులు జన్మిస్తున్నారో-ఎందరు తమ సుఖజీవనానికై ఎందరిని
 దోపిడి చేస్తున్నారో-ఎన్ని మరణాలు. మానవజీవితంలో సుఖం
ఎక్క డైనా కనపడుతూందా? ఒకరినొకరు పీక్కుతినడం తప్ప వేరింకేమైనా
 వుందా? హంసతూలికల్లో పెరుగబోయే నీ ఒక్క పాపాయికోసం
 వెనుకంజవేశావా-ఈలాంటి అన్యాయ మానవ సాంఘీక వ్యవస్థను
 ఎందరు శిశువుల మెడ కంటగట్టి వారి జీవితాలను కూడా దుర్భరం
 చేస్తావో యోచన చేయి. భారతభూమికి త్యాగభూమి అని ప్రతిష్ఠ నీ
-49-
 వల్ల రావాలి. ఎందరు ఆత్మహత్యలు చేసుకొంటున్నారు? ఎఁదరు
 వురికంబా లెక్కుతున్నారు? రా-త్వరగా - రా.
: ఇదో వస్తున్నా.... .... ....
: మరల వెనుకడుగు వేస్తున్నావు.
: లేదు. యశోధరను కడపటిసారి చూచివస్తాను - పాపం! మూర్తీభవించిన
 సౌందర్యరాషి-నా తోడిదే లోకమని తన సర్వస్వం నా కర్పించింది.
 యశోధరా - తండ్రి యెవరనే ప్రశ్నకు తల్లి కన్నీటిలో బదులు
 తీసుకోబోయే పాపాయీ-లోకోపకారార్థం మిమ్మల్ని విజిచిపోతూన్న
 నన్ను చిరునవ్వుతో పంపండి.
: కుమారా - సమయమైంది - కానీ -
: వస్తున్నా -
 పోబోయేముందు అడ్డుగా ఒక నీడ
: ఎవరు నువ్వు?
: ద్వారపాలకుణ్ణి.
: ఎందు కడ్డునిలుస్తావు?
: నువ్వెక్కడికి పోతున్నావు?
: ఎక్కడికో - శాంతికి -
: పిరికిపందా!
: ఏం?
: మానవప్రపంచాన్ని వదలి అర్థంలేని అనంతశూన్యంలోకి పోయి, ఒంటరి
 పాటున నీ వలన నీకూ, యితరులకూ, నిన్నూ యీ ప్రపంచాన్నీ
 సృష్టించి ఆడిస్తూన్నాడనే దేవుడికీ, ఏలాంటి వుపయోగం లేక నీ
 జీవితాన్ని గడిపేయాలనుకొంటున్నావా? భీరువులాగు పిరుద
చూపు తున్నావా? నిలు.
: నిలచి?
: ఈ నీలాంటి మానవుల మధ్య - నీవారి మధ్య జీవితాన్ని గడుపు. నాకీ
 లోకం అసహ్యంగా వుంది. బాధాకరంగా వుంది. దారివిడు. నే
 పోవాలి.
-50-
: నీకొక్కడికేనా? నీలా గెందరు బ్రతకడంలేదు. వారందరూ యీ అసహ్య
 బాధాకర ప్రపంచాన్ని సహించి తమ చెమటోడ్చి నీకు జీవం, జీవితం
 యిచ్చారుకదా? వారినంతా వదలి నీ వరకు నీవే శాంతిని, సుఖాన్ని,
 ఏదో-చూడని మోక్షాన్ని అనుభవించాలంటావా?
: నా కోసం కాదు. వారి కోసమే. వారి బాధలు, వారి దుఃఖం
చూడలే కున్నాను.
: అందుకై వారిని వదలిపోవాలా?
: అవును. ఇక నన్ను ప్రశ్నించకు. నే పోవాలి తప్పదు.
: ఇది నీ తుది నిర్ణయమా?
: అవును.
: అదో చూడు, పాపాయి ఏడుస్తున్నాడు.
: పాపాయి కాదు ఏడ్చేది - అతన్ని భరించాల్సిన భూమి -
: కాదు. పాపాయి ఏమంటున్నాడో విను. `అహమస్మి, అహమస్మి'
అంటు న్నాడు. "నేను కోరివచ్చాను. ఏమాత్రం యోచన చేయలేదు. నా
 తొలి అరపులలో సకల చేతనాచేతనాలను పిలిచి సన్నిహితుల
చేసు కొని `మిమ్ము ప్రేమించి వచ్చాను' అన్నాను. నీ వెందుకు
విడిపోతా వీ లోకాన్ని. వద్దు" అంటున్నాడు. సిద్దార్థా, తిరుగు.
: కాదు!
: యశోధర కనుబొమలు నిన్ను చూచి ఏవేవో కలలుకని రమ్మని సంజ్ఞ
 చేస్తున్నవి. అదిగో, ఆమె అధరం. మధు వందిచ్చింది, త్రాగావు.
 ఇంకా అందిస్తూంది. నీ పంటి నొక్కులింకా మాయలేదు. ఆమె
 కనుకొసల నుంచి రెండు కన్నీటిచుక్కలు నీ పాదపీఠం మీద
 రాలినవి. సిద్దార్థా - చూడు.
: కాదు, చూడను....అవును, ఆమె కదలుతూంది. నే పోవాలి. అతడెక్కడ?
మునుపు సిద్దార్థుని రమ్మని సంజ్ఞ చేసిన నీడ కొంచం అస్పష్టంగా వుండి
 పలుకుతూంది.
: సిద్దార్థా! ఇప్పుడు చూడు నీ యశోధరను.
: ముదసలి!
: ఇప్పుడ?
-51-
: రోగి!!
: ఇప్పుడు?
: కళేబరం!!!
: ఇప్పుడు?
: బూది!
: మరి-రా - త్వరగా -
 ఒక్కసారి పెనుగాలి. పడకనుంచి ఓ పువ఼్వు గవాక్షంలోకి
కొట్టుకు #పోయింది.
: లే - నే పోవాలి - అడ్డు నిలువకు. పిశాచమా! నన్నాపకు.
: యశోధర కదలుతూంది.
: అవును, త్వరగా వెళ్ళాలి.
: వెళ్ళాలా? తప్పదా? వెళ్ళు - వెళ్ళు -
: ప్రియా - ప్రభూ - నాథా -
: పిరికిపందా! పో - పో -
: ప్రియా - వెళ్తున్నావా? వెళ్ళావా - ప్రభూ -
: సిద్దార్థుడు పిరికిపంద! ప్రపంచ మహాసంగ్రామంలో నిలువలేకపోయాడు.
 భీరువు!
: నా గతి -
 పాపాయి ఏడ్పు వినపడుతూనే వుంది.
 *****
: ఏం?
       0 
</p></body></text></cesDoc>