<cesDoc id="tel-w-science-eductext-bot2" lang="tel">
<cesHeader type="text">
<fileDesc>
<titleStmt>
<h.title>tel-w-science-eductext-bot2.txt</h.title>
<respStmt>
<respType>Electronic file created by</respType>
<respName>Central Institute for Indian Languages, Mysore</respName>
<respType>transferred into Unicode and CES format by</respType>
<respName>"Unicodify" software by Andrew Hardie</respName>
</respStmt></titleStmt>
<publicationStmt>
<distributor>UCREL (on behalf of CIIL)</distributor>
<pubAddress>Department of Linguistics, Lancaster University, Lancaster, LA1 4YT, UK</pubAddress>
<availability region="WORLD"></availability>
<pubDate>03-08-13</pubDate>
</publicationStmt>
<sourceDesc>
<biblStruct>
<monogr>
<h.title>జీవ శాస్త్రము భాగము-II తొమ్మిదవ తరగతి</h.title>
<h.author>****</h.author>
<imprint>
<pubPlace>India</pubPlace>
<publisher>Unknown - Book</publisher>
<pubDate>****</pubDate>
</imprint>
<idno type="CIIL code">bot2</idno>
</monogr></biblStruct></sourceDesc></fileDesc>
<encodingDesc>
<projectDesc>Text collected for the CIIL Corpus, subsequently integrated into the EMILLE/CIIL Monolingual Written Corpora.</projectDesc>
<samplingDesc>Simple written text only has been transcribed. Diagrams, pictures and tables have been omitted. Sampling begins at page 38.</samplingDesc>
<editorialDecl><conformance level="1"></conformance></editorialDecl>
</encodingDesc>
<profileDesc>
<creation><date>03-08-13</date></creation>
<langUsage>Telugu</langUsage>
<wsdUsage>
<writingSystem id="ISO/IEC 10646">Universal Multiple-Octet Coded Character Set (UCS).</writingSystem>
</wsdUsage>
<textClass>
<channel mode="w">print</channel>
<constitution type="composite"></constitution>
<domain type="public"></domain>
<factuality type="fact"></factuality>
</textClass>
<translations></translations>
</profileDesc>
<revisionDesc></revisionDesc>
</cesHeader>

<text><body>

<p>40-
 జీర్ణాశయ కండరముల చలనము వలనను, జఠర రసముల చర్యవలనను ఆహారము
మెత్తబడును. ఇట్లు అసంపూర్ణముగా జీర్ణమై మెత్తగానైన పదార్థమును అమాశయ
#పాకము
లేక కైము అని అందురు. జీర్ణాశయమునందు జీర్ణక్రియ ఒకటినుండి నాలుగు గంటల
వరకు పట్టును. ఇది ఆహార స్వభావమును బట్టి యుండును. మాంసకృత్తులు
#తక్కువగా
నున్న ఆహారముకంటె మాంసకృత్తులు హెచ్చుగా నున్న ఆహారము జీర్ణమగుటకు అధిక
సమయము పట్టును.
 జీర్ణాశయములో జీర్ణక్రియ పూర్తికాగానే కవాటము (స్ఫింక్టర్్) తెరువబడి కైము
చిన్నప్రేగు యొక్క ఉత్తరాంత్రము లోనికి చిన్న చిన్న మొత్తములలో
#చిమ్మబడును.
ప్రేగులోనున్న కైము కాలేయము మరియు క్లోమములను పైత్యరసము క్లోమ
రసములను స్రవించునట్లు ప్రేరేపించును. చిన్న ప్రేగుల గోడలలోని అంత్రగ్రంథులు
అంత్రరసమును స్రవించును.
 క్లోమరసములో అమిలేసు, లైపేసు, ట్రిప్సిన్్ మరియు కైమో ట్రిప్సిన్్
#అను
ఎంజైములు కలవు. ట్రిప్సిన్్ మరియు కైమోట్రిప్సినులు మాంసకృత్తులను జలవిశ్లేషణ
#చర్యచే
పెప్టెయిడులుగా విడదీయును. క్లోమముచే స్రవింపబడిన కార్బోక్సీ పెప్టిడేసు
#(కార్లోక్సీపెప్టిడేస్్) అను ఎంజైము పెప్టెయిడులను అమినో ఆమ్లములు (ఆమినో
#ఆసిడ్స్్) గా
విడదీయును. అమిలేసు పిండిపదార్థములను మాల్టోసుగా మార్చును. లైపేసు
క్రొవ్వూపదార్థములను క్రొవ్వు ఆమ్లములు (ఫాల్టి ఆసిడ్స్్) గను, మరియు గ్లిసరాల్్
#లేదా గ్లిసరిన్్గను
మార్చును.
 పైత్యరసమునందు జీర్ణము చేసెడి ఎంజైములు లేవు. అందు పైత్యరస
లవణములు కలవు. ఈ లవణములు ఆహారములోని క్రొవ్వుపదార్థములను చిన్న చిన్న
#ముక్కలుగా విడగొట్టును. క్రొవ్వుపదార్థములు లేదాతైలములు నీటితో కలయవని మీకు
#తెలియును.
కనుకనే తైలసంబంధమగు పదార్థములను తుడుచుటకు మీరు సబ్బును ఉపయోగింతురు.
పైత్యరస లవణము ఈ విధముగనే పనిచేయును. ఇవి క్రొవ్వుపదార్థములను నీటితో
కలిపి పయస్యము (ఎమల్్సియన్్) గా తయారుచేయును. ఇట్లు జిగురుగా నేర్పడిన
క్రొవ్వుపదార్థము లైపేసుచే సులభముగా జలవిశ్లేషణ మొనర్చబడును.
 అంత్రరసములో గల ఎంజైములు పెప్టెయిడులను అమినో ఆమ్లములుగను.
క్రొవ్వుపదార్థములను క్రొవ్వు ఆమ్లములు. గ్లిసరాలుగను మార్చును. అంతేకాక
డై#సక్కరైడులను(డైసక్్చారైడ్స్్) సరళ చక్కెరలుగా మార్చును. మాల్టేసు మాల్టోసును
#గ్లూకోసు
గాను, సుక్రేసు సుక్రోసును గ్లూకోసు మరియు ప్రుక్టోసుగను, లాక్టేసు
#లాక్టోసును
గ్లూకోసుగాను మార్చును జీర్ణక్రియలో అధిక భాగము చిన్నప్రేగులోనే కరుగును.
#సరళ
చక్కెరలు, అమినో ఆమ్లములు, క్రొవ్వుపదార్థములు మరియు గ్లిసరాల్్ వరుసగా
#పిండి
పదార్థములు, మాంసకృత్తులు, క్రొవ్వులనుండి తయారగును. ఇవియన్నియు అంత్ర
చూషకములచే పీల్చుకొనబడును. క్రొవ్వుఆమ్లములు మరియు పూర్తిగా జీర్ణముగాని
#క్రొవ్వు
పదార్థములు ఆంత్రచూషకములోని లింపు నాళము లోనికి తీసికొనబడును.
 జీర్ణముకాని ఆహారము పెద్దప్రేగులోనికి ప్రవేశించును. అచ్చట నీరు
#మరియు
కొన్ని లవణములు పీల్చుకొనబడును. మలము పాయువుద్వారా విసర్జింపబడును.
శ్వాసక్రియ:
 మానవుని శ్వాసక్రియా వ్యవస్థలో నాసికా, సప్తపథ, స్వరపేటిక,
#శ్వాసనాళము,
వాయునాళములు మరియు రెండు శ్వాసకోశములు ప్రధాన అవయవములు.
 నాసికమున రెండు భాగములు కలవు. అవి బాహ్యనాసికము (ఎక్స్్టర్్నల్్
#నోస్్
అంతర నాసికము (ఇంటర్్నల్్ నోస్) లేదా నాసికా కుహరము (నరల్్ క్వావిటి)
అనునవి, నాసికా కుహరపు గోడల శైలికలు (సిలియ) ధరించిన ఎపిథీలియల్్ కణములు
మరియు మ్యూకసును స్రవించెడి కణములతో కూడియుండును. మ్యూకగసు గాలిలోని
దుమ్ముకణములు, సూక్ష్మజీవులు నాసిక లోనికి ప్రవేశించుటను నివారించును.
#నాసికారంధ్రము ఉపరితలమున వాసనను గ్రహించెడి జ్ఞానకణములు (సెన్సరి సెల్స్్)
#కలవు.
 నాసికాకుహరమునుండి సప్తపథకు ప్రవేశము కలదు. సప్తపధలో వాయుమార్గము
మరియు ఆహారమార్గము రెండును అడ్డముగా పోవును. సప్తపథనుండి కంఠబిలముగుండా
స్వరపేటికకు ప్రవేశము కలదు. కంఠబిలము సాధారముగా తెరచియుండును. స్వరపేటిక
ఒక కక్ష్యవలెనుండి మృదులాస్థిపై ఆధార పడియుండును. గడ్డమునకు
క్రిందిభాగమునను, కంఠము పై భాగమునను మృదులాస్థియొక్క కొంతభాగము కన్పించును. మీరు
గమనింపవచ్చును. (కొంతమంది పురుషులలో మృదులాస్థి పైకి బాగుగా చొచ్చుకొని
#వచ్చి
42-
యుండుటను. గమనింపవచ్చును. దీనిని `ఆడమ్స్్ ఆపిల్్' అందురు). ఆహారము
#గైకొనునపుడు స్వరపేటిక కదలును, మరియు మూతవలెనుండు ఎపిగ్లాటిసు కంఠబిలమును
మూయును. స్వరపేటికలో స్వరతంత్రులు కలవు. గాలి స్వరతంత్రుల మీదుగా
#ప్రసరించినపుడు అవి కంపించి ధ్వని ఉత్పత్తియగును.
43-
 స్వరపేటిక శ్వాసనాళములోనికి ప్రవేశించును. ఇది రెండు వాయునాళములుగా
#చీలియుండును. ఒక్కొక్క వాయు నాళమును శ్వాసకోశము చేరును. శ్వాసకోశములు
మృదువుగా స్పాంజువలె నుండును. వీనికి స్థితి స్థాపక గుణము కలదు. ఇవి
#ఊరః
కుహరము (తోరాసిక్్ క్యావిటి) నకలవు. శ్వాసకోశములు మరియు దేహకుడ్యము మధ్య
భాగమున ప్లూరల్్ కుహరము (ప్లూరల్్ క్యావిటి) కలదు. ప్లూరల్్ కుహరములోని
#లోపలి
గోడలు, శ్వాసకోశపు బయటి ప్రదేశము ప్లూరల్్ పొరచే కప్పబడియున్నవి. ప్లూరల్్
కుహరమున ద్రవము కలదు. ఈ ద్రవము శ్వసక్రియా సమయమున శ్వాసకోశములు
మరియు దేహకుడ్యముల నడిమిభాగమున కలిగెడి రాపిడిని తగ్గించును.
 కుడిభాగపు శ్వాసకోశమున మూడు తమ్మెలు (లోబ్స్్) ఎడమభాగపు
శ్వాసకోశమున రెండు తమ్మెలు కలవు. ఒక్కొక్క శ్వాసకోశమును ప్రవేశించు వాయునాళము
#అనేక
శాఖలుగా చీలును. వీనిని సూక్ష్మవాయునాళము (బ్రాంచియోలెస్్) లందురు,
#ఒక్కొక్క
సూక్ష్మవాయునాళమును పలుచనిగోడ కలిగిన కోశములో అంతమొందును.
ప్రతికోశమును చిన్నచిన్న గాలితిత్తులు లేదా వాయుకోశము (ఆల్్వియోలి) లను
#కలిగియుండును.
వాయుకోశము రక్తకేశనాళికలచే ఆవరించిన కణపొరలతో కూడియుండును. వాయువిని
మయము వాయుకోశములలో జరుగును.
 శ్వాసకోశములు (మరియు హృదయము) కలిగిన హృదయ కుహరము ఉదర
వితానము (డయాఫ్రమ్్) చే ఉరః కుహరము (అబ్డోమినల్్ క్యావిటి) నుండి వేరు
#చేయబడును. ఉదారవితానము కండరముల కణజాల పొరచే కూడి దేహకుహరమునకు
అడ్డముగా నుండును. ఉదరవితానమందలి కండరములు వ్యోకోచించుట చేతును, ఉదర భాగ
మందలి అవయవములు పైకి త్రోయబడుట చేతను ఉదరవితానము పెద్దదగును. వాని
కండరములు సంకోచించుటచే ఉదరభాగపు అవయవములను క్రిందికి త్రోసి ఉదరవితానము
సమస్థితికి వచ్చును.
 శ్వాసకోశములలో గాలి లోనికి పోవుట బయటికి వచ్చుట అనునవి ,శ్వాస
#కదలి
కలిచే జరుగును. ఉచ్ఛ్వాస క్రియలో ఉరః కుహరము పెద్దదియగును. శ్వాసకోశముల
మృధువైన స్థితిస్థాపక గుణముకలిగిన గొడలు విశాలమగుటచే గాలి శ్వాసకోశములలోనికి
పోవును. నిశ్వాసక్రియలో ఉరః కురహము యొక్క పరిమాణము తగ్గును.
శ్వాసకోసములు సంకోచము చెంది గాలి బయటికి వచ్చును.
44-
 కంతరముల సంకోచముచే ఉదరవితానము సమతలముగా చేయబడుట చేతను,
ప్రక్కఎముకలు పైకిని క్రిందికిని కదలుటచేతను ఉరః కుహరము యొక్క పరిమాణము
హెచ్చును. ప్రక్కఎముకల మధ్యగల కండరములు సంకోచించుటచే ప్రక్క ఎముకలు
కదలును. ఈ కండరములను అనియంత్రిత కండరములు (ఇంటర్్కోష్టల్్ మస్కులర్్)
అందురు. అనియంత్రిత కండరములు మరియు ఉదరవితానపు కండరములు
వ్యాకోచించుటచే ఉర కుహర పరిమాణము తగ్గును. ఇప్పుడు ప్రక్కఎముకలు క్రిందికి
#దిగును.
మరియు ఉదరవితానము ఉదర భాహమందలి అవయవములచే తిరిగి పైకి నెట్టబడును.
 వయస్కునిలో సంపూర్ణ ఉచ్ఛ్వాస క్రియలో శ్వాసకోశములలో రమారమి 51/2
లీటరుల గాలి నింపబడగలదు నిశ్వాస క్రియలో 4 లీటర్లు మాత్రమే బయటికి విడువబడ
గలదు. శ్వాసాంగ నాళములలో మిగిలిన 11/2 లీటరుల గాలి నిలచి యుండును.
ప్రతి శ్వాసక్రియా వలయమున 500 మిల్లీ లీటరుల గాలి మాత్రమే వినిమయమగును.
నిమిషమునకు సుమారు 17 శ్వాస క్రియావలయములు (రెస్పిరేటరీ సైకిల్స్్) జరుగును.
పగటి వేశలలో జీవనచర్య (మెటబోలిక్్ ఆక్ట్్విటీ) అధికముగా నుండుటచే
#శ్వాసప్రమాణము (రెస్పిరేటరీ రేట్్) హెచ్చుగానుండును. రాత్రివిశ్రమించుట చేతను,
#నిద్రించుట
చేతను ఈ ప్రమాణము పగటి వేళల కంటె తక్కువగా నుండును.
 ఆమ్లజని శ్వాసకోసములనుండి రక్తకేశనాళికలు మరియు ఎర్రరక్తకణముల
మూలకముగా విస్తరింపబడును. అచ్చట, ఆమ్లజని హిమోగ్లోబిన్్తో సంయోగము
చెంది ఆక్సోహిమోగ్లోబిన్్ ఏర్పడును. శ్వాసకోశములలో ఆమ్లజనియొక్క పాక్షిక
ఒత్తిడి 100 మి మీటర్ల పాదరసమంత యుండును. కనుకనే హిమోగ్లోబిన్్
#ఆక్సీహిమోగ్లోబిన్్గా మారును రక్తకణజాలమునకు చేరగనే ఆమ్లజని పాక్షిక ఒత్తిడి
#పూర్తిగా
తగ్గి, ఆక్సీహిమోగ్లోబిన్్ హిమోగ్లోబిన్్ మరియు ఆమ్లజనిగా విడివడును. వీనిని కణములు
ఉపయోగించును. ఆక్సీహిమోగ్లోబిన్్ కార్లొనికామ్లముగా కరగిన
#కర్బనద్విఆమ్లజనిదము
సమక్షమున కణజాలములకు ఆమ్లజనిని వదలివేయును. శ్వాసకోశములకు తేబడిన
కర్బనద్విఆమ్లజనిదము శ్వాసకోశములలో గాలిలోనికి విస్తరింపబడును.
 శ్వాసపీల్చుకొను గాలిలో ఆమ్లజని 20 శాతమును, నిశ్వాసములో 16 శాతమును
కలదు. అట్లే కర్బనద్విఆమ్లజనిదము ఉచ్ఛ్వాసములో 0.03 శాతమును, నిశ్వాసములో 4
శాతమును కలదు.
45-
 అబ్యాసము 2
1. ప్రశ్నలు
1. జీర్ణక్రియ అనగా నేమి? వాని విధములను పేర్కొనునది.
2. శ్వాసక్రియ అనగా నేమి?
3. జఠర నాళికాకుహరము పని ఏమి?
4. వానపాము ఆహారనాళములోని వివిధ భాగములను పేర్కొనునది.
5. బొద్దింక జీర్ణాశయ భాగములను చిత్రించి, అందలి భాగములను పేర్కొనునది.
6. వానపాములో జీర్ణవ్యవస్థ హైడ్రాలో కంటె వ్యవస్థితమైనది ఈ వాక్యమును
 ఋజువుపరచుము.
7. బొద్దింక ఆహారనాళములోని మూడు భాగములెవ్వి?
8. అంతర జీవకణ మరియు జీవకణబాహ్య మరియు జీర్ణక్రియలకు గల భేదమేమి?
9. జీవకణబాహ్య జీర్ణక్రియవలన ప్రయోజనమేమి?
10. మొప్పలనగా నేమి? అవి శ్వాసక్రియకెట్లు ఉపయుక్తమగును?
11. కప్పలోగల మూడు విధములైన శ్వాసక్రియలను పేర్కొనునది.
12. విస్తరణమనగా నేమి? అది అమీబాలో శ్వాసక్రియకెట్లు సహకరించును.
13. ఎపిగ్లాటిస్్ అనగా నేమి? దాని పనులను పేర్క఼ొనునది.
14. జఠర రసములోని ఎంజైములను పేర్కొనునది. దాని పనులను వివరించునది.
15. హిమోగ్లోబిన్్ అనగా నేమి? శ్వాసక్రియలో దాని పాత్రను వివరించునది.
II ఖాళీలను పూర్తి చేయుడు.
1. అనేక ---------- చే జీర్ణక్రియ జరుగును.
2. --------- చే అమీబాలో వాయువినిమయము జరుగును.
3. ఆక్సిజన్్ హిమోగ్లోబిన్్తో చేరి -------- అగును.
4. నాసికాకుహరము మరియు ఆస్యకుహరములు -------- ను ప్రవేశించును.
5. క్లొమరసమును -------- స్రవించును.
46-
6. లైపేసు క్రొవ్వుపదార్థములను --------- మరియు ---------
గాను విడగొట్టును.
7. --------- కండరములు ప్రక్కఎముకల కదలికకు సహకరించును.
8. మానవుడు నిమిషమునకు ----------- సార్లు శ్వాసించును.
III ఈ క్రింది వానిని పేర్కొనుడు.
1. ఆహారమును పీల్చుకొనుటకు సహాయపడు వ్రేళ్ళవలెనుండెడి నిర్మాణములు.
2. పైత్యరసమును నిలువయుంచు అవయవము.
3. పిండిపదార్థమును మాల్టోసుగా మార్చెడ఼ి ఎంజైము
4. ఉరఃకుహరమునుండి హృదయకుహరమును వేరుపరచెడి పొర.
5. శ్వాసకోశములను ఆవరించిన పొర.
47-
 అధ్యాయము 3
 వృక్షములు మరియు జంతువులలో ప్రత్యుత్పత్తి
 మరియు అభివృద్ధి
 జీవ ప్రపంచమున జీవులు వైయక్తికముగా మరణించినను వాని సంతతి
ప్రత్యుత్పత్తిచే కొనసాగుచునే యుండును. ప్రత్యుత్పత్తి సర్వజీవుల పుట్టుగుణము.
 ప్రత్యుత్పత్తిలో రెండు విధములు కలవు. అలింగ ప్రత్యుత్పత్తి
#(అసెక్షుయల్్రీప్రొడక్షన్్) మరియు లింగ ప్రత్యుత్పత్తి (సెక్షుయల్్ రీప్రొడక్షన్్).
#క్రొత్త జీవి పుట్టుకలో
గల వైవిధ్యమే ఈ రెండింటికిని గల ముఖ్య బేధము. రెండు సంయోగబీజములు
(గమీటస్్) లేదా లైంగిక కణములు (సెక్స్్ సెల్స్్) కలయికచే క్రొత్తజీవి
#ఉద్భవించినచో అట్టిదానిని లింగ ప్రత్యుత్పత్తి అందురు. అట్టికణముల కలయిక లేకనే
#క్రొత్తజీవి
ఏర్పడినచో అట్టిదానిని అలింగ ప్రత్యుత్పత్తి అందురు.
 వృక్షములు మరియు జంతువుల కణములు సమవిభజన (మెటోసిస్్) మరియు
క్షయకరణ విభజన (మియోసిస్్) లచే విభజింపబడునని మీకు తెలియును. సమ
విభజనలో రెండు పిల్లకణములు, తల్లికణమునందెన్ని క్రోమోసోములుండెనో అన్నియే
#క్రోమోసోములను కలిగియుండును. అలింగప్రత్యుత్పత్తి సమయమువలన విభజనలచే ఉత్పత్తి
#యగును.
 లింగ ప్రత్యుత్పత్తి సమయముని సంయోగబీజము లేర్పడి ఆ రెండును కలిపి
సంయుక్తబీజముగా నేర్పడును. కనుక సంయుక్త బీజము ఒక్కొక్క సంయోగబీజము
రెండింతల క్రోమోసోములను కలిగియుండును. క్షయకరణము పద్ధతివలన పిల్లకణములు
క్రోమోసోముసంఖ్య సగమునకు తగ్గిపోయెనని మీరు తెలిసికొనియున్నారు.
సంయోగబీజమేర్పడుటకు పూర్వమే క్షయకరణ విభజన జరుగును. కనుక రెండు సంయోగ బీజములు
చేరి సంయుక్త బీజమేర్పడినప్పుడు. ద్వయస్థతిక క్రోమోసోముల సంఖ్య
#పూర్వపుస్థితినే
పొందును. లింగప్రత్యుత్పత్తి ప్రాణులకు తమ క్రోమోసోము సంఖ్యలను
తరతర#ములుగా నిశ్చలముగా నుంచుటకు క్షయకరణ విభజన అవసరము.
48-
ఉన్నత వృక్షములలో అలింగప్రత్యుత్పత్తి:
 ఉన్నతవృక్షములలో అలింగప్రత్యుత్పత్తి శాభీయ ప్రవర్థనము (వెజిటేషన్్
రీ ప్రొడక్షన్్) లేదా శాభీయోత్పత్తిచే (వెజిటేటివ్ ప్రొపగేషన్్) సంభవించును.
#స్వాభావికముగనో లేక ఆకస్మికముగనో లేక కృత్రిమముగనో (అనగా మానవునిచే) ఒక
మొక్కలోని భాగము అనుకూల పరిస్థితులలో స్వతంత్రమైన క్రొత్త మొక్కగా అభివృద్ధియగుట
శాభీయోత్పత్తు. ఒక మొక్క జీవించియున్నదో దానినుండి పెక్కు క్రొత్తమొక్కలు
ఉత్పత్తియగును.
 మొక్కలు శిఖరాగ్రమొగ్గలను (టిర్మినల్ బ్యాడ్స్్) పత్రకక్ష మొగ్గలను
#(అక్సిలరీ
బ్యాడ్స్్) కలిగియుండునని మీకు తెలియును కొన్ని మొక్కలలో మొగ్గలు ఇతర
#ప్రదేశములందును ఏర్పడును. వానిని అబ్బురపు మొగ్గలు (అడ్్వెంటీషన్్ బ్యాడ్స్్)
#అందురు.
శాభీయ మొగ్గ సంక్షేపింపబడిన అంకురము. పేర్లు అథోబాగమున
#నెలకొన్నచో క్రొత్త
మొక్క ఏర్పడును. కొన్ని సమయములలో ఉన్నపేర్లపై ఆకస్మికముగా శాభీయ మొగ్గలు఼ఏర్పడి క్రొత్తమొక్క ఉత్పత్తియగును ఇట్టిమొక్కలను శాభీయముగా ఉత్పత్తియైన
మొక్కలందురు. ఇవి ఫలదీకరణము తర్వాత విత్తనమునుండి జనింపవు కనుక వీని
పేరు వచ్చినది. శాభియోత్పత్తిచే ఏర్పడిన మొక్కలు తల్లి మొక్కకుకే అంటుకొని
యుండవచ్చును. లేదా దానినుండి వేర్పరుపబడవచ్చును.
 శాభీయముగా ప్రత్యుత్పత్తి చెందిన ఈ మొక్కల శీఘ్రపెరుగుదలకు ఆహారము
అవసరము (విత్తనములోని బీజదళములు మరియు ఎండోస్పెర్ము ఎంబ్రియో యాక్సిస్్
పెరుగుదలకు ఆహారమును సమకూర్చునట్లుగా) శాబీయోత్పత్తి చెందు పెక్కుమొక్కలు
నిలువయుంచెడి భాగములగు రూపాంతరము చెందిన కాండము (మోడిపైడ్్ స్టెం) వేరు,
పత్రములలో ఆహారమును నిలువయుంచును. చాలతరచుగా ఆహారమును నిలువచేసెడి.
భాగములు భూగర్భ అంగములుగా నుండును. అంతకుముందరి ఋతువులో
నిలువయించబడిన ఆహారము నుపయోగించుకొని, దాని ప్రకాండము (షూట్్) కిరణ జన్యసంయోగ
క్రియను పొందునంతవరకు క్రొత్తమొక్క పెరుగును. శాభీయోత్పత్తి పత్రమువంటి
గాలియందలి అంగమునుండి ఏర్పడునో, అప్పుడు మొక్క భాగము భూమిమీదికి పడి,
క్రొత్తమొక్క యొక్కవేర్లు భూమిలోనికి పెరిగి, నీటిని ఖనిజములను గ్రహించును.
49-
 మీరు చదివిన రూపాంతరము చెందిన కాండము, వేర్లు, పత్రము ఎట్లు
శాభీయోత్పత్తిలో సహకరించునో పరిశీలింతుము. అల్లము యొక్క మూలవేరు (రైసోము)
భూగర్బమందలి వేర్లతో ఏర్పడిన అడ్డముగా విస్తరించిన నిలువయున్న కాండము,
#పెరుగుగల కాలములలో ఆకుపచ్చని ఆకులతో కూడిన గాలియందలి ప్రకాండముగా (అరియల్్
షూట్్) (కాండాగ్ర లేదా పార్శ్వ) పెరుగును పత్రములలో ఉత్పత్తియైన ఆహారము
రైసోములో నిలువయుండి విడివియందును పరిమాణమునందును పెరిగి అధిక పత్రకక్ష
మొగ్గలను ఉత్పత్తిచేయును. రాబోవు ఋతుకాలమున క్రొత్త ప్రతకక్ష మొగ్గలు
#గాలియందలి ప్రకాండములుగా పెరిగి హెచ్చు రైసోమును పేర్లను ఉత్పత్తి చేయును. ఘ఩కందము (కోరమ్్) కూడ ఇట్లే పత్రకక్ష మొగ్గలను అంకురింపచేసి శాబీయముగా
#ప్రత్యుత్పత్తి చేయును.
 ఆలుగడ్డ-దుంప (టూబర్్ ఆఫ్ పొటాటో) దట్టమైన మొనగలిగిన కాండము
యొక్క భూగర్భ కాండశాఖ మచ్చవంటి కన్నుల ప్రత్యక్షమొగ్గను కలిగియుండును. ఈ
కంటిపై ఏర్పడిన పేర్లు క్రొత్తమొక్కను ఉత్పత్తి చేయును. ఒక బంగాళాదుంప
#(ఆలుగడ్డ) ను
50-
తీసికొని ప్రతి భాగము నందును కన్ను ఉండునట్లు అనేక భాగములుగా కోసి
పెక్కు క్రొత్త మొక్కలను పెరుగనట్లుగా చేయవచ్చును.
 ఉల్లిగడ్డ యొక్క లలశునము (బల్బ్్) పుష్టిగల ఆకుల క్రింది భాగమున #పత్రకక్ష
మొగ్గలను కలిగియుండును. ఆహారమును నిలువయంచు పత్రములలో నిలువయున్న
ఆహారమునుపయోగంచుకొని ఇవి పెరుగును. లశునము అడుగు భాగమున పేర్లు
ఏర్పడును. రాబోవు ఋతువులలో ఒక్కొక్క దుంప అనేక దుంపలను ఉత్పత్తి చేయును.
 గెణుసుగడ్డలో నిలువయుంచు పేర్లు అబ్బరపు మొగ్గలను వృద్ధిచేయును.
#ఇవి
క్రొత్తమొక్కలుగా పిమ్మట పెరుగును.
 రణపాల(బ్రాయోఫైలమ్్) వంటి మొక్కలలో ఆకులు దళసరిగాను, పుష్టిగాను
ఉండును. ఆకుల అంచులు అనేక గంట్లను (నాట్్చెస్్) కలిగియుండును. ఒక్కొక్క
గంటు మొగ్గను కలిగియుండును. ఈ మొగ్గలు అబ్బరపు వేర్లను (నేలపై ఆకులు
#పడు
సమయమున) ఉత్పత్తి చేయును. అవి క్రొత్త మొక్కలుగా పెరుగును. బెగోనియా
51-
ఏనుగు కర్ణసస్యము) లో ఆకుల ఈనెలణనలలో మొగ్గలు వేర్లు మొలకెత్తును. ఇవి
క్రొత్త మొక్కలుగా ఏర్పడును.
 అగేవ్్ వంటి కొన్ని మొక్కలలో శాభీయ మొగ్గలు లేదా పూ మొగ్గలు
#(ఫ్లోరల్్బడ్స్్) బల్బిల్్ లనబడు బహుకణ విత్తనము వంటి నిర్మాణములుగా ఏర్పడును
#వర్షా
కాలమున బల్బిల్్ క్రిందికి పడును. అవి తల్లిమొక్కనుండి వేరయి ప్రకాండములను
పేర్లను ఉత్పత్తి చేసి క్రొత్త మొక్కలుగా పెరుగును.
కృత్రిమ విధానములచే మొక్కల ప్రత్యుత్పత్తి
 మీరింతవరకు మొక్కల స్వాభావిక ప్రత్యుత్పత్తిని గమనించితిరి. మానవుడు
శాభీయముగా కొన్ని మొక్కలను ఉత్పత్తిచేయగలుగు చున్నాడు. ప్రకృతిలో
#ప్రత్యుత్పత్తిని
పొందలేని మొక్కలతోపాటు పెక్కు మొక్కలను మానవుడు శాభీయోత్పత్తి
చేయుచున్నాడు. లైంగికముగా అసాధ్యమగు మొక్కల ఉత్పత్తికి శాభీయోత్పత్తి మాత్రమే
మొక్కలను పెంచుటకు సాధనము అరటి, చెరకు మున్నగు పెక్కు విధములైన సాగుబడి
వృక్షములు విత్తనములను ఉత్పత్తి చేయవు. అవి శాఖీయ సాధనములచేతనే
ప్రత్యుత్పత్తి చెందును.
 శాభీయోత్పత్తి పెక్కు మొక్కలను త్వరితముగా వృద్ధిచచెందించును.
#కొన్నిసంవత్సరములలో కొన్ని మొక్కలనుండి అనేక వందల లేదా వేల మొక్కలను ఉత్పత్తి
#చేయవచ్చును. శాభీయోత్రత్తిచే మొక్కలను ఉత్పత్తి చేయుటలో మరియొక కారణమేమన
శాభీయోత్పత్తి వలన జనించిన మొక్కలన్నియు ఒకే గుణమును కలిగియుండును. అవి
కేవలము సమవిభజన పద్ధతి చేత మాత్రమే వృద్ధిచెందుటయే దీనికి కారణము.
సమవిభజనలో తల్లికణములో నున్నట్లుగనే పిల్లకణములలోను క్రోమోసోము పదార్థములు అదే
సంఖ్యలో నుండును. కనుక అవి సమారూపజన్య సమాచారము (ఐడెంటికల్్ జినిటిక్్
ఇన్్ఫర్్మేషన్్) ను కలిగియుండును. అందుచేతనే అవి సమానగుణములతో నుండును.
 శాభీయోత్పత్తి యొక్క రెండు సాధారణ పద్ధతు లేవన భేదనము (కటింగ్్)
మరియు నేలంటు (లెయరింగ్్) అనునవి. ఛేదనమనగా ఛేదింపబడిన మొక్క
శాభీయాంకురము గల ఒక భాగమును నేలలో పూడ్చుట. ఒక భాగము, సాధారణముగా నిద్రావస్థలో
నున్న అంకురముతో కూడిన కత్తిరించిన కాండపు క్రిందిభాగమును, తడినేలలో పూడ్చ
52-
వలెను. అబ్బురపు వేర్లు కత్తిరింపబడిన భాగమునుండి బయల్వెడలి నేలలోనికి
#చొచ్చుకొనిపోవును. ఇప్పుడు మొగ్గ ప్రకాండముగా పెరుగుటకు మొదలిడును. ఇట్లు
#మొత్తము
మొక్క ఏర్పడును. ద్రాక్షతీగలు, చెరుకు, నారింజ, గులాబి, క్రోటను మొదలగునవి
ఈ పద్ధతిచే ఉత్పత్తియగును.
 నేలంట్లలో అనుగుణమైన మొక్కకొమ్మ నొకదానిని ఎంపిక చేసికొని, అందు
1-2 సెం.మీ. చుట్టునుగల బెరడును ఉంగరమువలె తొలగించవలెను. బెరడు తీసివేసిన
కొమ్మను వంచి తడినేలలో పూడ్చవలెను. దాని పైభాగమును మట్టినుండి బయటికి వదలి
వేయవలెను. కొన్నివారముల తరువాత బెరడు తీసివేసిన భాగమునుండి వేర్లు
#పెరుగును.
క్రొత్తత వేర్లతోపాటు కొమ్మను తల్లి మొక్కనుండి వేరుచేసి వేరొక చోట
#నాటవలెను.
జాజి, జామ, జీడి, మామిడులకు ఈ పద్ధతి నవలంబింతురు.
కొమ్మంట్లు:
 రెండు వేర్వేరు మొక్కలకు సంబంధించిన కాండములను కలిపి, వానిని పెంచు఼పద్ధతిని కొమ్మంట్లు (గ్రాఫ్్టింగ్్) అందురని మీరు చదివియున్నారు.
#అపేక్షింపబడిన
లక్షణములుగల మొక్కలను కొమ్మంట్లు పద్ధతిద్వారా ఉత్పత్తి చేయవచ్చును.
 రెండు వేర్వేరు మొక్కల శాఖలను, వాని కణజాలము లేర్పడునంతవరకు
అతకు పద్ధతియే కొమ్మంట్లు. ఇట్లేర్పడిన అంటుమొక్కలోని అంటుగట్టిన శాఖను
సయాను (సైన్్) అనియు, వేర్ల వ్యవస్థను ఒదిగించు శాఖను స్టాక్్ అనియు
#అందురు.
సకుటుంబ మొక్కలను మాత్రమే అతికించి కొమ్మంటు తర్వాత పెంచుదురు. వర్ధకావళి
53-
(క్యాంబియమ్్) అను కణజాలమును ఉత్పత్తి చేసెడి మొక్కలే కొమ్మంట్లకు
అనుకూలములు (పెక్కు ద్విదళ బీజ మొక్కలలో వలె), వర్ధకావళి విభజింపబడి, పెరిగి,
#ఏకమగును. ఏకమైన కణములు వ్యాస్కులర్్ కణజాలముగా నేర్పడును. ఇట్లు సీయోన్్
మరియు స్టాకులమధ్య వ్యాస్కులర్్ కూడిక ఏర్పడును.
 సామాన్యముగా అవలంబించెడి కొమ్మంట్ల పద్ధతులు మూడు
విధములుగానుండును. అవి సామీప్య కొమ్మంట్లు (అప్రోచ్్ గ్రాఫ్టింగ్్), సయాన్్ లేదా
#కాండముల
కొమ్మంట్లు (సైన్్ ఆర్్ స్టిం గ్రాఫ్టింగ్్) మరియు మొగ్గుకొమ్మంట్లు లేదా
#అంకురోత్పత్తి (బడ్్ గ్రాఫ్టింగ్్ ఆర్్ బడ్డింగ్్)
 సామీప్య కొమ్మంట్లలో సయాను మరియు స్టాకులు రెండును వేర్లతో
కూడియుండును. మొక్కల కాండములను ఒకదాని ప్రక్కనొకటి యుంచవలెను.
కాండములను అతికించు ప్రదేశమునగల బెరడును తొలగించవలెను. పిమ్మట ఆరెండింటిని
#చేర్చి
గట్టిగా కట్టవలెను. ప్లాస్టిక్్ షీటునుకాని, మైనము కాగితమును కాని
అతికించిన ప్రదేశమున
కప్పవలెను, దీనివలన కత్తిరింపబడిన ప్రదేశములు ఎండిపోకుండునట్లు చూడవచ్చును.
రెండుమూడు నెలలలో కమజాలములు కలిపి మొక్కలు అతుకుకొనును. పిమ్మట స్టాక్్
కాండపు ప్రకాండ భాగమును, సయాన్్ కాండపు వేరుభాగమును కత్తిరించివేయుదురు.
ఇప్పుడు సయాన్్ కాండము స్టాక్్ కాండముపై పెరుగుటను కొనసాగించును.
ఉదా: జామ, క్రోటను.
54-
 సయాను కొమ్మంట్లలో, సయానుకాండపు క్రిందిభాగమును ఏటవాలుగా
కత్తిరించి, అట్లే కత్తిరించిన స్టాక్్ కాండమునకు అతికించి గట్టిగా బంధింతురు.
#పిమ్మట
ప్లాస్టిక్్ షీటునుకాని మైనము కాగితమునుకాని ఆభాగమున కట్టి, ఆభాగము
#ఎండిపోవుటను
నివారింతురు. రెండు కాండములను అతుకుకొనిన పిదప, నయాను స్టాకు కాండము మీద
పెరగనారంభించును.
ఉదా: సపోటా, మామిడి.
 మొగ్గకొమ్మంట్లలో సయాను కొంత బెరడుతో కూడిన ఒకే ఒక పత్రకత్రమొగ్గ.
స్టాక్్ కాండపు బెరడును `T' ఆకారముగా కత్తిరించెదురు. సయాను మొగ్గను
#ప్లాష్టిక్్
కాగితమున సేకరింతురు. దీనిని స్టాక్్ కాండపు `T' ఆకారమునకు అతికింతురు.
#అతికింపబడిన మొగ్గ స్టాకుపై కొమ్మగా పెరుగును. గులాబీ, నిమ్మ మున్నగు వానిని #మొగ్గ
కొమ్మంట్లద్వారా ఉత్పత్తి చేయవచ్చును.
 ఛేదనము, కొమ్మంట్లు మరియు అంకురోత్పత్తి వలన ప్రయోజనములు (1)
విత్తనము లీయని మొక్కలను పెంచవచ్చును. (2) పుష్టించుటను ఫలములనిచ్చుటను
త్వరితముగా చేయవచ్చును. (3) కొన్ని మొక్కలు ఉన్నత గుణము కల్గిన
ఫలములనుత్పత్తి చేయును. కాని అవి కొన్ని ప్రత్యేక పరిసరములలో పెరుగలేవు లేదా
#వానిలో
వేర్లవ్యవస్థ అంతగా అభివృద్ధి చెంది యుండదు ఇట్టిమొక్కలు
#కొమ్మంట్లద్వారాగాని,
అంకురోత్పత్తి ద్వారాకాని పెరిగి ఫలపుష్పములను అనేకముగా ఉత్పత్తి చేయును.
#శాభీయోత్పత్తిచే పెరిగెడు మొక్కలు, విత్తనములు మొలకెత్తి వృద్ధిచెందిన
#మొక్కలకంటెను
(లింగ ప్రత్యుత్పత్తి కంటెను) గుణములో భిన్నత్వమును కలిగియుండును.
55-
 నిమ్మజాతి మొక్కలు మరియు జంతువులు, ఫంగి,
ప్రోటిస్టులు మరియు బ్యాక్టీరియమ్్లలో అలింగ ప్రత్యుత్పత్తి:
స్పోరు మొలకెత్తుట:
 నిమ్మజాతి మొక్కలగు శైవలము, మాస్్పెర్న్్ మరియు కొన్ని ప్రోటీస్టులు
ప్రత్యేక కణములు అనగా సిద్ధబీజము (స్పోర్్)లను అభివృద్ధి చేయును.
#సిద్ధబీజములు ఏక
కణముతోనుండి గాలి లేదా నీటిద్వారా విస్తృతముగా వ్యాపించును. ఇవి తరచుగా
#దళసరిగోడలను కలిగియుండును. అననుకూల పరిస్థితులలో అనగా విపరీతమైన వేడిమి,
చలి లేదా తేమలేక పోవుట మొదలైన పరిస్థితులలో ఇవి నిద్రావస్థలో నుండును.
#అనుకూల పరిస్థితులు సంభవించినపుడు, సిద్ధబీజములు అంకురించి క్రొత్తమొక్కలుగా
#పెరుగును. నీటిలో ఉత్పత్తియయిన సిద్ధబీజములు చలన శక్తిని కలిగియుండవచ్చును.
#చలన
శక్తి కలిగిన సిద్ధ్బీజములను జూస్పోరు లందురు.
 కొన్ని బ్యాక్టీరియా కణములు కూడ అననుకూల పరిస్థితులలో దళసరిగోడలు
#కలిగిన సిద్ధబీజములను సృష్టించును. అవి చురుకుదనములేని సిద్ధబీజములుగా
#సంవత్సరముల
కొలది అట్లేయుండును. తాము నివసించెడి గుంటలలో నీరు ఇంకి పోగా, అమీబా
#వంటి
ప్రోటోజోవన్్లు స్పోరులను ఏర్పరచును. అమీబా కేంద్రకము (న్యూక్లియస్్)
#పలుమార్లు
విభజింపబడి, ఒక్కొక్క కేంద్రమును సైటోప్లాజమ్్తో ఆవరించి సిద్ధబీజము
#పరివర్తనమగును.
56-
ఒకే ఒక అమీబానుండి అనేక సిద్ధబీజములు ఏర్పడును. అనుకూల
పరిస్థితులేర్పడినపుడు సిద్ధబీజములు విడుదలయై అమీబాలు ఏర్పడును.
 స్పాంజులు గెమ్యూల్్లను సృష్టించును. ఆంతరికముగా మొగ్గ తొడుగుటచే
(ఇంటర్నల్్ బడ్డింగ్్) చే ఏర్పడెడి కణ సమూహమే గెమ్యూల్్. ఇది
#స్పిక్యూల్్ను
కలిగియుండి దళసరి రక్షక కవచముచే కప్పబడియుండును. తల్లి స్పాంజినుండి గెమ్యూలు
ప్రత్యేకింపబడి నిద్రావస్థలో నుండును. తగిన పరిస్థితులేర్పడినపుడు కణములు
#కవచమునుండి విడుదలయై క్రొత్త స్పాంజులుగా ఏర్పడును.
 బహుకణ సస్యములైన మాస్్, ఫెర్న్్ మరియు అనేక శిలీంధ్రములు
స్పొరాంజియా (స్పొరాంజియ - ఏకవచనము - స్పొరాంజియం) అనబడు ప్రత్యేక
నిర్మాణములలో సిద్ధబీజములను ఉత్పత్తి చేయును.
అంకురోత్పత్తి:
 ఈస్ట్్వంటి ఏకకణ జీవులు లింగరహితముగా మొగ్గతొడుగుటచే (బడ్డింగ్్)
వృద్ధియగును. గోడలో ఒక చిన్న బలహీనమైన ప్రదేశముద్వారా ఒక చిన్న అంకురము
వంటి బుడిపె ముందుకు త్రోయబడును. కేంద్రకము విభజింపబడి, ఒక కేంద్రకము
అంకురములోనికి ప్రవేశించును. పిమ్మట అంకురము గోడను ఏర్పాటు చేసికొని తల్లి
నుండి వేరగును. శీఘ్రపెరుగుదలలో అంకురము తనదే అయిన మొగ్గను, తల్లి
కణమునుండి వేరగుటకుముందే ఉత్పత్తి చేయును. ఇట్లు 3 నుండి 4 వరుసల మొగ్గలను
#చూడవచ్చును.
 మొగ్గతొడుగు విధానముచే స్పాంజులు మరియు సీలెంటిరేటాలు కూడ
ప్రత్యుత్పత్తి జరుపును. హైడ్రాలో మొగ్గలు దేహము క్రిందిభాగమున ఉత్పత్తియగును.
#పొడుచుకొని వచ్చునట్లుగా మొగ్గ హైడ్రా దేహకుడ్యముపై వృద్ధియగును. హైడ్రాలో జఠర
నాళికా కుహరము నిరంతరము మొగ్గుతో సంపర్కమును కలిగియుండును. మొగ్గక్రమ
క్రమముగా పెరుగనారంభించును. అది అనేక సంఖ్యలలో నోరుతోపాటు అనేక
స్పర్శకములను కూడ వృద్ధిచేయును. తల్లి హైడ్రానుండి క్రిందిభాగమున మొగ్గ
#ప్రత్యేకింపబడి పిల్ల హైడ్రా అభివృద్ధి చెందును.
57-
విదళనము:
 ప్రోటీస్టులు మరియు కొన్ని శైవలముల
వంటి ఏకకణజీవులలో కణవిభజన విదళనము
(ఫిషన్్) ద్వారా జరుగును. ఇచ్చట కేంద్రకము
రెండుగా విభజింపబడును పిమ్మట
కణద్రవ్యములో కుంచనము (కన్్స్ట్రక్స్్న్్) చే ప్రాణి
రెండుగా విభజింపబడును అమీబా,
పేరమీషియమ్్, యూగ్లీనా రెండుగా విభజింపబడును. ఇట్టి
విదళనము ద్విదళనము (భైనరి ఫిషన్్)
అందురు. కొన్ని సమయములలో పెక్కు
కేంద్రకము లేర్పడి చివరికి పెక్కు కణములలు
ఉత్పత్తియగును. దీనిని బహువిదళనము
(మల్టిపల్్ ఫిషన్్) అందురు. బ్యాక్టీరియా
విదళనముచే విభజింపబడును. వీనిలో ప్రత్యేకముగా
ఏర్పాటైన కేంద్రకము లేక పోవుటచే, కణము
రెండుగా విభజించుటకు ముందే డి ఎన్్ ఏ
రెండు ప్రతులుగా ఏర్పడును.
బహుకణ జంతువులలో శాఖీయ
ప్రత్యుత్పత్తి:
 పెక్కు నిమ్మజాతి బహుకణ జేతువుల
శరీరభాగములు ప్రత్యేకింపబడి క్రొత్త
ప్రాణులుగా అభివృద్ధి చెందును. స్పాంజులు,
సీలెంటిరేటాలు, బల్లపరుపు పురుగులు, ఎక్టోడెర్ములు
ఇట్టి ప్రత్యుత్పత్తిని ప్రదర్శించును. ఇది
ఉన్నతమైన మొక్కలలో గల శాఖీయోత్పత్తిని
పోలియున్నది. ఉదాహరణమునకు హైడ్రా లేదా
నక్షత్పచేప (స్టార్్ ఫిష్్) చాలముక్కులుగా
కత్తిరింపబడినపుడు, ఒక్కొక్క భాగమే లోపించిన
58-
భాగములతోపాటు క్రొత్తప్రాణిగా అభివృద్ధి చెందును. దీనిని పునరుత్పాదన
#(రెగెనెరేషన్్) అందురు పునరుత్పాదన ఉన్నత జంతువులలో జరిగినప్పటికిని దాని
#ఉత్పాదక శక్తి
పరిమితము మాత్రమే. లోపించిన తోకను బల్లులు పునరుద్ధరించుకొనునే కాని తోక
మొత్తము బల్లిగా పునరుద్ధరింపబడదు. జంతువులలో (మరియు మానవునిలో)
కణజాలములయొక్క పునరుద్ధరణచే గాయములు నయమగును.
పార్తెనో జెనిసిస్్:
 ఫలదీకరణము (పెర్టిలిజేసన్్) చెందకనే అండకణము నేరుగా పిండముగా
అభివృద్ధి చెందుటను పార్తనో జెనిసిస్్ అందురు. పెక్కు మొక్కలు పార్తెనో
#జెనిసిస్్ను
ప్రదర్శించును. ఇది స్పెయిరోగైరాలో (ఆకుపచ్చ శైవలము) సంభవించును.
జంతువులలో, కొన్ని రోటిఫెరలు మరియు కీటకములు పార్తెనోజెనిసిస్్ద్వారా అభివృద్ధి
చెందును. మగతేనెటీగలు ఫలదీకరణము చెందని అండములనుండి అభివృద్ధి చెందును.
ఇవి హెప్లాయిడు(హెప్లాయడ్్) కణములు.
లింగ ప్రత్యుత్పత్తి:
 లింగప్రత్యుత్పత్తి (సెక్స్యూల్్ రీప్రొడెక్సన్్)లో ఫలదీకరణమున
రెండ఼#సంయోగ బీజములు ఐక్యమై ఏకకణ సంయుక్త బీజముగా ఏర్పడును. సంయోగ బీజము ఏక
కణముతో నుండును. సాధారణముగా వీనిని సూక్ష్మదర్శినిచేతనే చూడగలము. సంయోగ
బీజములు చలింపవచ్చును. లేదా చలింపకను పోవచ్చును. సంయుక్త బీజము క్రొత్త
ప్రాణిగా డిప్లాయిడ్్ కణములతో అభివృద్ధి చెందును.
మొక్కల లింగ ప్రత్యుత్పత్తి:
59-
మొక్కల లింగ ప్రత్యుత్పత్తి:
 పెక్కు నిమ్మజాతి మొక్కలలో(పెక్కు శైవలములు) ఐక్యమగు సంయుక్త
బీజములు ఒకే విధముగా కన్పించును. వీని ఐక్యతను ఐసోగెమీ అందురు.
పరిమాణమునందును, నిర్మాణము నందును సంయోగ బీజములు భిన్నత్వమును కలిగియున్న
వాని ఐక్యతను అనైసోగెమీ లేదా హెటెరోగెమీ అందురు. దీనికంటె భిన్నమైనది
ఊగెమీ ఇచ్చట ఒక సంయోగబీజమును అండము లేదా స్త్రీ సంయోగబీజము (ఒయుం)
అందురు. అది ఆహారమును నింపుక఼ొని పెద్దదిగానుండును పురుష సంయోగబీజము
చిన్నదిగానుండి, ఒక్కొక్క మారు చలన శక్తిని కలిగి పురుషాంగముచే కాని మగ
ప్రాణిచే కాని ఉత్పత్తియగును. పురుష సంయోగ బీజమును శుక్రకణము (స్పెర్మ్్)
అందురు.
 ఒకే మాదిరిగల రెండు సంయోగ బీజముల సంయోగమును కాంజుగేషన్్ అందురు
ఇది ఐసోగెమీ రూపము స్పైరోగైరాలో కాంజుకేషన్్ సంభవించును. సంయుక్త బీజముగా
ఏర్పడిన జైగోటును జైగోస్పోరు అందురు. భిన్నరూపములు కలిగిన జైగోటుల
సంయోగమును ఫలదీకరమము అందురు. ఇది ఊస్పోరు నిర్మాణమునకు దారి తీయును.
 పుష్టించుమొక్కలలో, పుప్పొడి నాళములో
ఉత్పత్తియైన రెండు పురుష సంయోగ బీజములు
(రెండు ఏకస్థితిక కేంద్రకములు) అండకణము కలిగిన
అండము (ఒవియల్్) లోనికి ప్రవేశించును ఇచ్చట ఒక
పురుష సంయోగ బీజము ఒక అండ కేంద్రకముతో
ఐక్యమై సంయుక్త బీజము నుత్పత్తి చేయును. ఇది
పిమ్మట పిండము (ఎంబ్రాయో) అగును. మరియొక
పురుషసంయోగ బీజము ద్వితీయ కేంద్రకము (సెకండరీ
న్యూక్లియర్్) తో సంయోగము చెంది ఎండోస్పెర్మ్్
అగును ఫలదీకరణమైన అండము విత్తనముగా వృద్ధి
చెందును.
 అభివృద్ధి యగుచున్న ఒక నిర్దిష్టదశలో
విత్తనములోని పిండము పెరుగుదల నిలచి పోవును.
60-
ఈ దశలో విత్తనము యొక్క నీటి పరిమాణము కూడ
తగ్గిపోవును. ఇదియే మీకు తెలిసిన ఎండు విత్తనము
విత్తనములో నిద్రావస్థలోనున్న పిండము
జీవముతోనున్నను కొన్నిమానములు మొదలు పెక్కు
సంవత్సరములు అది సోమరిగానుండును. ఇట్టి విత్తనములు నీటి అనుకూలమేర్పడినప్పుడు
#మొలకెత్తుటకు సామర్థ్యమును కలిగియుండును. రెండు వేల సంవత్సరములనాటి కొన్నితామర
విత్తనములు మొలకెత్తుడట కనుగొనబడినది.
జంతువులలో లింగప్రత్యుత్పత్తి
 పెక్కు జంతువులు లింగప్రత్యుత్పత్తి ద్వారానే సంతతి నభివృద్ధి
#చేసికొనును.
పురుష సంయోగబీజము, స్త్రీ సంయోగ బీజములను రెండు విధములగు సంయోగ
బీజములు ప్రత్యేక లైంగికావయవములగు జననేంద్రియముల (గొనాడ్స్్) లో
ఉత్పత్తియగును. పురుష జననేంద్రియమును ముష్కము (టెస్టిస్్) అందురు. ఇది శుక్ర
కణములు (స్పెర్మ్స్్) లేదా పురుషసంయోగ బీజముల (మేల్్ గామెట్స్్) ను
#ఉత్పత్తి
చేయును. స్త్రీ జననేంద్రియమును అండాశయము (ఓవరీ) అందురు. ఇది అండములు
(ఓవ) లేదా స్త్రీ సంయోగబీజములు (ఫిమేల్్ గామెట్స్్) ను ఉత్పత్తి చేయును. #కొన్ని
నిమ్మజాతి జంతువులగు హైడ్రా మరియు వాన పాములు ద్విలింగ ప్రాణులు (బి
సెక్స్యూల్్) లేదా అండాశయము మరియు ముష్కము ఒకే ప్రాణియుందుండును. ఇట్టి
జంతువులను ఉభయలింగ ప్రాణులు (హెర్మ ఫరోడిటీస్్) అందురు. తక్కిన
జంతువులగు ఏకలింగ ప్రాణుల (యుని సెక్స్యూల్్) లో ముష్క఼ము మరియు అండాశయము
వేరువేరు జంతువులలో నుండును.
శుక్రకణము:
 శుక్రకణములు చలన శక్తిని కలిగియుండును. వీనిని సూక్ష్మదర్శిని
#ద్వారా
61-
చూడగలము. శుక్రకణము మూడు భాగములతో కూడుకొని యుండును. తల, మధ్య
ఖండము, తోక తలభాగము ఏకస్థితిక కేంద్రకమును కలిగియుండును. ఫలదీకరణ
సమయమున తలభాగము అండాశయములోనికి చొచ్చుకొని పోవును. మధ్య ఖండమున
మైటో కాండ్రియా గలవు. ఇవి శుక్రకణ చలనమునకు కావలసిన శక్తిని ఒదగించును
తోక తరచుగా (ప్లాగెళమ్్) యొక్్ కంపనము వంటి కదలికచే శుక్ర కణము చలించును.
అండము:
 భిన్న జంతువులలోని అండములు భిన్న పరిమాణములలోనుండును. ఇవి వాని
యందు గల ఆహారపదార్థము లేదా సొన(యోక్్) పై ఆధారపడి యుండును.
అండములు శుక్రకణముల కంటె పెద్దవి. ఇవి చలింపలేవు తక్కిన అండముల వలెనే
#పక్షుల
అండములు కూడజ ఏకకణముతో కూడియుండును. నిప్పుకోడి (ఓస్ట్రిచ్్) అండము
అన్నిటికంటెను పెద్ద కణము.
ఫలదీకరణము
 స్త్రీ పురుష సంయోగబీజముల సంపర్కము వలననే
ఫలదీకరణమందురు. ఇది బాహ్యముగాను లేదా
ఆంతరికముగాను ఉండవచ్చును.
 బాహ్య ఫలదీకరణము (ఎక్సటర్్నల్్ పెర్టిలిజేషన్్) న
అండము మరియు శుక్రకణము విడుదలయై నీటిలో
ప్రవేశించును. శుక్రకణములు నీటిమూలకముగా
అండమును సమీపించి దానితో సంయోగము చెందును. ఈ సంయోగము అనిశ్చితమగుటచే
సాధారణముగా అనేక సంయోగబీజములు ఉత్పత్తియగును. బాహ్యఫ్లదీకరణము నిమ్మ
జాతి నీటి ప్రాణులు లేదా తేమగల పరిసరములలో నివసించెడి అనెలిడ఼ులు, నీటి
#ఆర్త్రోపోడులు, మొలస్కలు, ఎకినోడర్ములు, చేపలు మరియు ఉభయ చరములలో చూడవచ్చును.
 ఆంతరిక ఫలదీకరణము (ఇన్్టర్్నల్్ పెర్టిలయిజేషన్్) భూమిని నివాసముగా
కలిగిన ఉన్నతప్రాణులలో జరుగును. సరీసృపములు, పక్షులు, క్షీరదములలో స్త్రీ
#దేహమునకు శుక్రకణములను చేర్చెడి అంగమును పురుష ప్రాణులు కలిగియుండును. శుక్ర
కణము బదిలీయగు క్రియను సంభోగము (కోపులేషన్్) అనియు, అంగమును సంభోగ
62-
అంగము (కోపులేటర్్ ఆర్గన్్) అనియు అందురు. ఇది స్త్రీ దేహమున శుక్ర
#కణము
మరియు అండముల సంయోజనమును చేకూర్చును.
 పెక్కు జంతువులు గ్రుడ్లుపెట్టును వీనిని ఓఐవిపేరసు లందురు.
#కీటకములు,
మొలస్కలు, చేపలు, ఉభ్యచరములు, సరాసృపములు, పక్షులు ఈ జాతికి చెందినవి.
కొన్ని జంతువులలో ఫలదీకరమైన అండము స్త్రీ శరీరముననే అభివృద్ధియగును కాని
స్త్రీ ప్రాణి పిల్లలను పోషింపలేవు వీని ఓవోవివిపేరసు జంతవులు (ఓవోవివి
#పేరస్్
అనిమల్స్్) అందురు. ఇవి కొన్ని చేపలు ఉభయచరములు మరియు సరీసృపములు
క్షీరదములు, షార్కులు మరియు కొన్ని అకశేరుకముల (ఇన్్వర్ట్్బ్రేట్స్్) లో
#ఫలదీకరణము
చెందిన అండములు తల్లిదేహమునందే అభివృద్ధిచెంది, దానిచేతనే పోషింపబడును.
అవి పిల్లలుగా తల్లిదేహమునుండి జనించును వీనిని వివిపేరసు అందురు.
కప్పలో పిండాభివృద్ధి:
 కప్పగ్రుడ్లు నీటిలో విడుదలయై మగకప్పచే, విడువబడిన శుక్ర కణములచే
బాహ్య ఫలదీకరణమగును ఫలదీకరణమైన గ్రుడ్లు జిగట పదార్థముచే ఆవరించి నురగల
సమూహమువలె నీటిపై తేలుచుండును. కప్పగ్రుడ్డు 3 మిమీ కంటే తక్కువ వ్యాసము
కలిగియుండును. ఇది ఆరంభము నుండి చిరుకప్ప (టాడ్్పోల్్) గా మారునంతవరకు
పోషణ కై తగినంత సొనను కలిగియుండును.
 గ్రుడ్డును చీల్చుకొని చిరుకప్ప స్వేచ్ఛగా ఈదుటయే కాక తనకు తానే
#ఆహారమును సంపాదించును. ఇది క్రమముగా పెరిగి పెద్దకప్ప (అడల్ట్్ ప్రాగ్్) గా
#మారును.
ఏకకణముతో కూడిన గ్రుడ్డునుండి చిరుకప్పగా మారుటను కప్పపిండాభివృద్ధి
#(ఎంబ్రాయో
నిక్్ (డెవలప్్మెంట్్ ఆఫ్్ ఫ్రాగ్్) అందురు.
 ఫలదీకరణము చెందిన గ్రుడ్డు గోళాకారముననుండును. దీని పైభాగము ముదురు
రంగుతో కూడిన జాంతవ ధ్రువము (అనిమల్్ పోల్్) ను క్రింది భాగము సొనచే
#నింప
బడ఼ిన శాకధ్రువము (వెజిటచల్్ పోల్్) నుకలిగియుండును. గ్రుడ్డు విభజనలచే
#విభజింపబడును. తల్లికణపు పరిమాణమునే పిల్ల కణములును కలిగియుండును. ఈ రెండు
కణములు విభజనచెంది నాలుగు కణములగును ఈ నాలుగు కణములు మూడువసారి
విభజింపబడి ఎనిమిది కణములగును తర్వాతి విభజనలచే ద్రవముచే నింపబడిన ఒక గుండ్రని
63-
బంతి ఆకారమేర్పడును. దీనిని పిండాభివృద్ధి ద్వితీయదశ (బ్లాస్ట్్లా)
అందురు.#కణములను సంయుక్త బీజఖండితములు (బ్లాస్టో మెరిస్్) అందురు. ఇవియన్నియు మధ్యన
గల ఒక కుహరము చుట్టును అమరియుండును. మధ్యనున్న ఈ కుహరికను
బీజకుహరిక (బ్లాస్టోకోల్్) అందురు.
 ఈ దశలో బ్లాస్టూలా యొక్క శాక పార్శ్వము (వెజిటల్్ సైడ్్) పై
#వంపుతిరిగిన
పల్లము ఏర్పడును తర్వాత జరిగెడి కణవిభజనలు మరియు కణపు నర్నిర్మాణముచే
#బయటి
64-
కణములు బీజకుహరికలోనికి పల్లముగుండా ప్రవేశించి రెట్టింపు కణపొరలతో కూడిన
కుహరికగా ఏర్పడును. దీనిని గ్యాస్ట్రులా అనియు, కుహరికను ఆర్కెంటిరాన్్
#అనియు
అందురు కణముల బాహ్యపొరను బహిస్త్వచము (ఎక్టోడెర్మ్్) అనియు, లోపలి పొరను
అంతస్త్వచము (ఎండోడెర్మ్్) అనియు మధ్యపొరను మధ్యత్వచము (మెసోడెర్మ్్)
అనియు అందురు.
 తర్వాత జరిగెడి అభివృద్ధిలో బహిస్త్వచము నుండి బాహ్య చర్మము, నాడీ
మండల మేర్పడును. మధ్యత్వచము నుండి కండరములు, అస్థిపంజరము(స్కెలిటన్్)
మూత్రపిండములు (కిడ్్నీస్్) రక్తప్రసరణ వ్యవస్థ (సర్కులేటరి సిస్టం), మరుయు
జననేంద్రియములు ఏర్పడును అంతస్త్వచము నుండి జీర్ణనాళపు లోపలి పొర
శ్వాసకోశములు, కాలేయము, క్లోమము ఏర్పడును. గ్రుడ్డు ఫలదీకరణ సమయము నుండి
ఆరుదినములలో పిల్ల చిరుకప్ప (ఎంగ్్ టాడ్్పోల్్) ఏర్పడును.
చిక్కుడు విత్తనము మొలకెత్తుట:
 చిక్కుడు విత్తనము నిర్మాణమును మీరు చదివియున్నారు. దానిని నీటిలో
#నానబెట్టినప్పుడు అది నీటిని పీల్చుకొనును. బీజ వివరము (మైక్రోపైల్్) గుండా
#నీటిలోని
కొంతభాగము ముందుకు సాగిపోవును. బీజదళములు (కోటిలెడన్స్్) మరియు ప్రధాన
అక్షము (సెంట్రల్్ ఆక్స్్స్్) ఉబ్బును. ప్రథమ మాలము (రాడికల్్)
#పెరుగుటచకు
మొదలిడును. ఈ కారణముగా బీజకవచము పగిలి ప్రథమ మూలము మట్టిలోనికి ప్రవేశించి
వేరుగా పెరుగును. ఇదే తల్లివేరు (టాప్్ రూట్్). ప్రథమ మూలము మరియు
#బీజదళముల మధ్యగల ప్రధాన అక్షభాగమును హైఫోకాటిల్్ అందురు. ఇది వంపుతిరిగిన
#నిర్మాణముతో నుండును. హైపోకాటిల్్ పెరిగి మట్టిలో చేరిన ప్రథమ కాండము
#(ప్లుమూల్్)
మరియు బీజదళములను బైటికిలాగును. బయటికి వచ్చిన పిమ్మట బీజదళములు వేరయి
రెండుపార్శ్వములలో వ్యాపించి ఆకుపచ్చని రంగుగా మారును. ప్రథమ కాండము బీజ
దళములనుండి ఆహారమును గ్రహించి పెరుగును. మరియు మొదటి జత పత్రములు
విశాలమై ఆకుపచ్చగా మారును. బీజదళములలో నిలువయున్న ఆహారము
హరించిపోవుటచే బీజదళములు క్షీణించి రాలిపోవును. ఈ సమయమున విశాలమైన మొదటి జత
పత్రములు కిరణజన్య సంయోగ క్రియను జరుపుకొనును. ఇప్పుడు మొక్క
స్వయంసంపూర్ణమగును. తల్లి వేరునుండి పిల్లవేరు ఏర్పడి మొక్క వ్యవస్థితరూపమునకు
#వచ్చును.
65-
 చిక్కుడు విత్తనము మొలకెత్తునపుడు బీజదళములు బీజకవచమునుండి లాగబడి,
నేలలో నుండి పైకివచ్చును. కనుక దీనినిభూమిపై మొలకెత్తువిధానము లేదా
#ఉపరిభౌమ
అంకురోత్పత్తి (ఎపిజి౟ల్్ జెర్మినేషన్్) అందురు. జొన్న విత్తనము
#మొలకెత్తునపుడు
 వాని ఎండోస్పెర్మ్్ మరియు బీజదళము భూమియందే నిలచిపోవును. దీనిని భూమిలోపల
మొలకెత్తు విధానము లేదా `అంతర్భౌమ అంకురోత్పత్తి' (హైజియల్్ జెర్మినేషన్్)
అందురు.
66-
 విత్తనములు మొలకెత్తుటకు నీరు, ఆమ్లజని మరియు తగినంత ఉష్ణము
అవసరము. మూడు విత్తనముల ప్రయోగముచే నీరు, ఆమ్లజని అవసరములను మనము
గుర్తింప వచ్చును.
 మూడు చిక్కుడు విత్తనములను తీసికొని వానిని ఒక దాని క్రిందనొకటిగా #చిన్న
చెక్క పలకపై గుండుసూదులతో బిగించుము. మధ్యవిత్తనము సగము నీటిలో
నుండునట్లు బీకరులోని నీటిలో నుంచుము. నీటి మట్టము తగ్గకుండునట్లు అప్పుడప్పుడు #నీటిని
పోయుచుండుము. క్రిందగల విత్తనమునకు నీరు లభించును కాని ఆమ్లజని లభింపదు.
కనుక మొలకెత్తుట సహజముగా నుండదు. ప్రథమమూలముబయటికి రావచ్చునే కాని
ఆమ్లజని లభింపకపోవుటచే తర్వాతి పెరుగుదల నిలచి
పోవును. పైభాగమునగల విత్తనమునకు
ఆమ్లజనిలభించునుకాని నీరు లభింపదు. కనుక అది
మొలకెత్తదు మధ్యభాగమునగల విత్తనమునకు నీరు
ఆమ్లజని రెండును లభించుటచే అది పెరుగనారంభించును.
ఈ ప్రయోగమువలన విత్తనములు మొలకెత్తుటకు
ఆమ్లజని నీరు అవసరమని తెలియుచున్నది.
జంతువులు మరియు వృక్షముల
పెరుగుదలలో హార్మోనులపాత్ర:
 ప్రత్యుత్పత్తి సమయమున ఒకే ఒక కణము
అనగా సంయుక్త బీజము (జైగోట్్) సంకీర్ణ
బహుకణ జీవిగా అభివృద్ధి యగును. అనేక కణజాలములు మరియు అంగములు ఏర్పడును.
అవి ఒక్కొక్కటియును ప్రత్యేక విధులను నిర్వర్తించును. కాని ఆ భాగములు
#స్వేచ్ఛగా
వేనికవే పనిచేయలేవు. అవి కలసి కట్టుగా పనిచేయును. సర్వావయవముల మధ్య
తప్పక `సందేశములు' (మెసేజస్్) పంపబడును. జంతువులలో రెండువిధములైన
`సందేశములు' కలవు అవి `విద్యుత్సంబంధ సందేశములు' (ఎలెక్్ట్రికల్్ మెసేజస్్)
#లేదా నాడీ
కణముల, ప్రబోధనము మరియు రసాయనిక `సందేశములు' (కెమికల్్ మెసేజస్్)
రసాయనిక సందేశములను తీసికొనిపోయెడి వానిగా వర్తించెడి మరియు రక్తములోనికి
#తీసికొని పోయెడి రసాయనములను హార్మోనులు అందురు. దేహములోని ఒక అవయవము
67-
లేదా నిర్మాణము ఒక రసాయనమును విడుదలచేయును. దీనికి మరొక నిర్మాణము లేదా
విధిపై నిర్దిష్టమైన పరిమాణ ముండును. దీనినే హార్మోను అని
#నిర్వచింపవచ్చును.
 సకశేరుకములలో హార్మోనులు రక్తములోనికి విడుదలయై అది పనిచేయవలసిన
దేహభాగమునకు మోసికొని పోబడును. పెక్కు హార్మోనుల ఉత్పత్తిని మెదడు
నియంత్రించును. కనుక నాడీ మండలము (నెర్్వస్్ సిస్టం) మరియు హార్మోనులు
కలసికట్టుగా పనిచేసి జంతు శరీర కార్యకలాపములలో సహకరించుకొనును. మీరు
మానవునిలో గల హార్మోనులను గురించి తర్వాత తెలిసికొందురు. ఇప్పుడు మనము
కీటకముల పెరుగుదలలో సంబంధం ఉన్న హార్మోనుల గురించి తెలిసికొందము.
కీటకముల పెరుగుదలలో హార్మోనులపాత్ర:
 బొద్దింకవంటి కొన్ని కీటకముల పెరుగుదల నేరుగా జరుగునని మీకు
#తెలియును.
అండమునుండి పొదిగిన బొద్దింక తల్లిని పోలును. కాని అది కొన్ని దశలలో
#పెరుగును.
ప్రతి దశలోను అంత్యమున బాహ్యాస్థి పంజరము (ఎక్సో స్కేలిటన్్) వదలివేయబడి
క్రొత్తది ఏర్పడును. దీనిని పొరవిడుచుట (మౌల్టింగ్్) అందురు. దీనివలన
#కీటకము
 పెద్దదిగా పెరుగుటకు అవకాశమేర్పడును. బాహ్యాస్థి పంజరము కఠినముగా నుండుటచే
అది పెరుగుటకు సాధ్యముకాదు చివరిసారిగా అది పొరవిడుచుటను పూర్తి చేసిన
#పిదపనే
లైంగికముగా పరిణతి చెందిన ప్రాణి ఏర్పడును.
 పొరవిడుచుటను ఏది నియంత్రించును? చివరిదశలోనే అది లైంగికముగా
పరిణతను ఎందుకు పొందవలెను? పొరవిడుచుట అనునది మౌల్టింగు హార్మోను లేదా
#ఎక్డీసోన్్ అనబజడు హార్మోనుచే నియంత్రింపబడును. ఎక్డీసోన్్ అనునది ఎక్డీసిస్్
#అను
పదము నుండి ఏర్పడినది. దీనికి చర్మమును రాల్చు అను అర్థము కలదు. రొమ్ము
భాగము (తోరాక్స్్ రీజన్్) న గల గ్రంథులచే మౌల్టింగు హార్మోను
#ఉత్పత్తియగును.
ఈ గ్రంథి మెదడుచే నియంత్రింప బడును. కీటకము పెరిగినకొలది ఎక్కువ
#హార్మోను
ఉత్పత్తియగును. అది బాహ్యాస్థి పంజరము పై ఒత్తిడి కలుగచేయును. ఎక్కువగా
ఉత్పత్తియైన హార్మోను పొరవిడుచుటను కలిగించును. పెరుగుదలలోని మొదటి దశలలో
మెదడు సమీపమున ఉత్పత్తియయ్యెడు మరియొక జువెనైల్్ బాప్మోనుచే
#లైంగికాభివృద్ధి
68-
అణవిచేయబడును. జువెనైల్్ అనగా యౌవనము ఈ హార్మోను ఉత్పత్తి నిలచజిపోగానే
కీటక఼ము ఎదగును.
 మౌల్టింగు హార్మోను మరియు జువెనైల్్ హార్మోను పట్టుపురుగులవంటి
కీటకముల పరోక్ష పెరుగుదలలో పాల్గొనును. లార్వా పట్టుపురుగుగా పెరుగుటకు అనేక఼
పర్యాయములు పొరవిడుచును. మౌల్టింగు హార్మోను లేదా ఎక్డీసోన్్ ఈ పొర
#విడుచుటను నియంత్రించును. మెదడు సమీపమునగల గ్రంథులచే ఉత్పత్తి అయ్యెడి జువెనైల఼్్చివరి లార్వా మౌల్టు తర్వాత, జువెనైల్్ హార్మోను ఉత్పత్తి నిలచి
#(లేదా తగ్గిపోయి)
పట్టుపురుగు పట్టుకాయ లేక పట్టుగూడు (సిల్క్్ కకూన్్) ను కట్టును.
#పట్టుకాయలోనే
ప్యూపాఏర్పడును. చివరిగా పట్టుకాయనుండి లైంగికముగా అభివృద్ధి చెందిన
#ఎదిగిన
పట్టు పురుగు బయటికి వచ్చును.
వృక్షముల పెరుగుదలలో హార్మోనుల పాత్ర:
 బాహ్యాంశము లైన ఉష్ణత గురుత్వాకర్షణశక్తి (గ్రావిటి ) వృక్షభాగములగు
కాండము మరియు వేర్లలో అసమానమైన పెరుగుదలకు కారణమై వానిని వంగునట్లుగా
చేయును. ఇవి కాంత్యనుచలనము (ఫోటో ట్రాపిజమ్్) మరియు బూ అనుచలనము
(జియో ట్రాపిజమ్్) అనునవి. వీనిని అధ్యయనము చేయునపుడు వృక్షముల
పెరుగుదలకు అవసరమగు రసాయనిక పదార్థము కనుగొనబడినది. ఈ పదార్థమును ఆక్సిసు
లేదా `పెరుగుదల హార్మోను' అందురు. వృక్షములలో కన్పించెడి సహజ ఆక్సినును
ఇండోలియాసిటిక్్ ఆమ్లము లేదా సంక్షిప్తముగా ఐ.ఏ.ఏ. అందురు. కాండపు
#కొన
భాగములలోను (మెరీస్టెమ్్), పెరుగుచున్న పత్రములు, ఫలములలోను ఆక్సిను
తయారగును. ఆక్సిను కణవిభజనకు మరియు కణవ్యాపనము (సెల్్ ఎలాంజేషన్్) నకు
అవసరము.
 వృక్షముల పెరుగుదలకు ఆక్సిను అనేక విధములుగా సహకరించును. వృక్ష
కాండముల కత్తిరింపులను వేర్లను ఉత్పత్తి చేయుటద్వారా శాఖీయోత్పత్తి
#చేయవచ్చునని
మీరు తెలిసికొని యున్నారు. క్రొత్త వేర్ల నిర్మాణమునకు ఆక్సినులు
#ప్రాధాన్యము
వహించును. తోటమాలి మొక్కల శిఖరాగ్ర మొగ్గలను (ముఖ్యముగా పొందవలెనున్న
69-
మొక్కలు) కత్తిరించుటను చూచియే యుందురు. ఇట్లు చేయుట వలన అవి పొదలుగా
తయారగును. శిఖరాగ్ర మొగ్గలు తొలగింపబడగానే ఆకుల పత్రకక్షలలోని
#పార్శ్వాంకురములు శాఖలుగా పెరిగి మొక్కను పొదవలెచేయును. శిఖరాగ్ర మొగ్గను తొలగించగనే
పార్శ్వాంకురము లెందుచేత పెరుగును? పార్శ్వాంకురముల పెరుగుదలకు శిఖరాగ్ర
మొగ్గ అడ్డువచ్చుట ఆక్సిను ఈ నియంత్రణలో పాల్గొనుట అనునవి దీనికి
#కారణములు
ఫలముల పెరుగుదలకూడ ఆక్సినుచే నియంత్రింపబడును.
 గిబ్బెరెల్లిన్్ అనబడు మరొక వర్గమైన హార్మోను
కూడ వృక్షముల పెరుగుదలలో పాల్గొనును. గిబ్బె రెల్లిను
జపాను దేశమున ఈ క్రింది విధముగా కనుగొనబడినది.
వర్గినారు (రైస్్ సీడ్్లింగ్్) గిబ్బెరెల్లా అనబడు ఫంగుసుచే
వ్యాధిసోకి బాలపొడవుగా పెరిగి, సాధారణముగా
బలహీనమైన కాండము కలదగుటచే క్రిందపడిపోయెడిది. `మూర్ఖ
నారు' (ఫూలిష్్ సీడ్్లింగ్్) అను ఈ వ్యాధికి కారణము
ఫంగసుచే ఉత్పత్తి అయ్యెడు రసాయనము దీనిని గిబ్బె
రెల్లిన్్ అందురు. సహజముగానే పెక్కు గిబ్బెరెల్లినులు
మొక్కలలో కలవు. ఆక్సినువలెనే ఇవికూడ మొక్కల
పెరుగుదలలో పాల్గొనును. కాండముల పెరుగుదల
పుష్పములు ఫలములు మరియు విత్తనముల పెరుగుదలలో ఇవి
పాల్గొనును. గిబ్బెరెల్లినులను కొన్ని మొక్కలకు
ప్రయోగించిన అవి ఎత్తుగా పెరుగును. (చిత్రము 3.20
చూడుము)
 మూడవవర్గమైన సైటోకైనినులు అనబడు
రసాయన మిశ్రణములు కగణవిభజనలో పాల్గొనును
సైటోకైనినులు అంకురోత్పత్తిని, తదితర నిర్మాణములను
అదుపులోనుంచును. ఆక్సినులు, గిబ్బెరెల్లినులు మరియు
సైటో కైనినులు అను ఈ మూడును మొక్కలలో
సహజ పెరుగుదల విరోధకములు (రెగులేటర్స్్)
70-
 ఎథిలీను అనబడు హైడ్రో కార్బను వాయువు నాలుగవ మొక్కని బంధకము ఇది
పక్వమైన ఫలములచే ఉత్పత్తియగును. ఇది పక్వమైన ఫలములను అతి త్వరితముగా
పక్వమొనర్చును. ఒక చిన్న ప్రయోగముద్వారా మీరు దీని ప్రభావమును చూపింప
వచ్చును. రెండు పెద్ద వెడల్పైన మూతిగల సీసాలను గాలి చొరనట్టి మూతలను
#తీసికొనుము. గ్రీసు లేదా వ్యాసలైనును ఆ సీసాలను గట్టిగా మూయుటకు
ఉపయోగింపవచ్చును. సీసాలో రెండు పక్యముకాని ఆకుపచ్చని అరటిపండ్లను (వంటకు పనికి
#వచ్చెడి
అరటిరకము) ఉంచుము. మరొక దానిలో రెండు అట్టివే అయిన ఆకుపచ్చని అరటి
పండ్లతో పాటు ఒకటి రెండు పక్వమైన ఆపిలుపండ్లనుంచుము. రెండు సీసాలను
#బాగుగా
మూసి రెండు నుండి మూడు రోజుల వరకు అట్లేయుంచి పిమ్మట పరీక్షింపుము.
#ఆపిలు
పండ్లతో కూడిన ఆకుపచ్చని అరటిపండ్లుగల సీసాలోని పండ్లు పసుపుపచ్చగను,
#ఆపిలు
పండ్లు లేని సీపాలోని ఫలములు ఆకు పచ్చగనే ఉండుటను గమనింపవచ్చును.
ఆపిలు పండ్లచేత ఉత్పత్తియైన ఎథిలీను అరటిపండ్లను త్వరితముగా పక్యమగుటకు
ప్రేరేపించును.
 ఆక్సిను వంటి లక్షణముతో కూడిన పెక్కు సింథెటిక్్ రసాయనములు తయారు
చేయబడి వ్యవసాయమున ఉపయోగింపబడినవి. ఎన్్.ఏ.ఏ (నాఫ్తలిను అసిటిక్్
#ఆసిడ్్)
ఐ.బి.ఎ (ఇండోల్్ బ్యూటరిక్్ ఆసిడ్్) మరియు 2,4-డి (డైక్లోరో ఫినాక్సీ#అసిటిక్్
యాసెడ్్) అనునవి ఈ రసాయనముల సంక్షింప్తనామములు.
పెరుగుదల నిరోధకముల క్రియాత్మక ప్రయోగములు
1. సింథెటికు ఆక్సినులగు ఐ.బి.ఏ మరియు ఎన్్.ఏ.ఏ ల లేపనముచే కాండ భాగములలో
పేర్లను పెంచవచ్చును. ఈ లేపనముచే పెక్కు వేర్లను త్వరితముగా ఉత్పత్తి
#చేయవచ్చును.
2. సింథెటికు ఆక్సినులను చల్లుట ద్వారా ఆపిలు మరియు నిమ్మజాతి ఫలములు
#పక్వము
కాకుండగనే రాలిపోవుటను నివారింపవచ్చును.
3. గిబ్బెరెల్లిన్్ లేదా కొన్ని ఆక్సినులను చల్లుటచే బీజరహిత ఫలములగు బీజ #రహిత
ద్రాక్ష పండ్లను ఉత్పత్తి చేయవచ్చును.
4. బంగాళా దుంపలను నిలువచేయు సమయములలో అవి మొలకలుగా ఏర్పడకుండునట్లు
సింథెటికు ఆక్సినులగు ఎన్్ ఏ.ఏ లను ఉపయోగింతురు.
71-
5. అనాస మొక్కలు ముందుగా పుష్టించుటను ప్రేరేపించుటకై ఎన్్.ఏ.ఏ
#ఆక్సినును
ఉపయోగింతురు.
6. 2,4-డి ని తృణధాన్య (మోనోకాట్స్్) క్షేత్రములలోని ద్విదళ కలపు మొక్కలను
(డైకాట్్ వీడ్స్్) నాశపరచుటకు ఉపయోగింతురు. ద్విదళ బీజమొక్కలు ఏకదళ బీజ
మొక్కల కంటె చాలసున్నితము కనుక అవిమాత్రమే నాశమగును.
7. ఎథిలీను వాయువుచే ఫలములను పక్వమొనర్ప వచ్చును.
 అభ్యాసము 3
1. ప్రశ్నలు
1. ప్రత్యుత్పత్తి అనగానేమి? ప్రధానమైన ప్రత్యుత్పత్తి విధానముల రెండింటిని
పేర్కొనునది.
2. మూలవేరు అనగానేమి? ఉదాహరణములనిమ్ము.
3. కొమ్మంట్లు అనగానేమి? ఏదేని ఒక కొమ్మంటు విధానమును వివరించుము.
4. గెమ్యూల్్ అనగానేమి? దానిని నీవు ఎక్కడ చూచెదవు?
5. ఐసోగామి మరియు అనైసోగామీలకు గల భేదమేమి?
6. శుక్రకణము యొక్క పటమును చిత్రించి అందలి భాగములను పేర్కొనుము.
7. చిక్కుడు విత్తనము మొలకెత్తు విధానములోని వివిధ దశలను చూపించెడి
చిత్రమును గీయునది.
8. చిక్కుడు విత్తనము మొలకెత్తుటకు నీరు, ఆమ్లజని, శీతోష్ణస్థితి అవసరము.
#ఈ
 ప్రయోగమును ఋజువుపరచుము.
9. ఆక్సినులనగానేమి? కొన్ని ఆక్సినులను పేర్కొనుము.
10. ఆక్సిను ఉపయోగముల మూడింటిని పేర్కొనుము.
2. ఖాళీలను పూర్తిచేయుడు.
1. ఉన్నత వృక్షములలో అలింగోత్పత్తి ------------ వలన జరుగును.
72-
2. ఆకులచే -------------- ఉత్పత్తియగును.
3. చలనశక్తి కలిగిన స్పోరులను ----------- అందురు.
4. సంయోగము (కాంజుగేషన్్) ------------- లో సంభవించును.
5. పురుష, స్త్రీ సంయోగ బీజముల సంయోజనమును ------------
అందురు.
6. బ్లాస్ట్యూల్్లో గల కుహరము ----------------
7. పొర విడుచుటను -------------- హార్మోను అదుపులో నుంచును.
8. ------------ హార్మోను పక్వముకాని ఫలములను పక్వము
చేయును.
3. ఈ క్రిందివానిని పేర్కొనుడు.
1. దుంప
2. కొమ్మంట్లలో ప్రకాండముగా పెరుగుటకు అనుమతించు మొక్క.
3. సిద్ధబీజమును ఉత్పత్తిచేయు ప్రత్యేక నిర్మాణము.
4. అనైసోగామికంటె భిన్నమైనది.
73-
 అధ్యాయము -4
 జీవ పరిణామము
 మనము అనేక విధములైన వృక్షములను, జంతువులను చూచుచున్నాము. ఇవి
#ఎట్లు
ఉత్పన్నము లైనవని మనకు మనమే ప్రశ్నించుకొందుము. నేడు మనము చూచుచున్నట్లు
గనే మనభూమి నిరంతరము మొక్కలు జంతువులతో విలసిల్లినదా? మానవుడు తక్కిన
ఇతర ప్రాణులతో మనగడ సాగించెనా? జీవితము ఎట్లు ఎప్పుడు సృష్టింపబడెను?
#ఇట్టి
ప్రశ్నలను మానవుడు వేలకొలది సంవత్సరములుగా వేసికొనివాడు. విభిన్న
సమూహములలోని జనుల విభిన్నమైన విశ్వాసములను కలిగియుండిరి. మానవుడు మొదలు
సర్వజీవులను నేడు అవి ఏ రూపములనున్నవో అదే రూపమున సృష్టింపబడిన వనుట ఆ
#విశ్వాసములలో `ఒకటి ఏ విత్తనము చల్లిన ఆ మొక్క పుట్టును'. అను మన భావన
#నుండి
ఈ విశ్వాసము ఉత్పన్నమయి యుండవచ్చును. ఉదాహరణమునకు పిల్లినుండి పిల్లులు,
కుక్కనుండి కుక్కలు మాత్రమే జనించును. కనుక తొలుత సృష్టింపబడిన పిల్లి
#ఇప్పటి
రూపముననే ఉండియుండునని చెప్పవచ్చును.
 ఏమైనను ఇట్టి విశ్వాసము సరికాదను విషయము మనకు తెలియును. పూర్వము
నివసించిన అనేక ప్రాణులు నేడు లేవు. అట్లే నేడు మానవునితోబాటు
#జీవించుచున్న
తక్కిన ప్రాణులు అతిపురాతన కాలమున జీవింపలేదు. ఈ విషయమును గురించిన
పరిజ్ఞానము మనకు శిలాజములు (ఫాసిల్స్్) అనే అతిపురాతన కాలపు అవశేషములను
#బట్టి
తెలియుచున్నది. ఇవి మరియు తక్కిన ఇతర నిదర్శనములు తొలుత భూమిపై
#నివసించిన
ప్రాణులు అతి సరళ జీవులని సూచించుచున్నవి. అనేక మిలియను సంవత్సరముల
#క్రితము
జనించిన కొన్ని వంశపారంపర్యమైన సరళజీవులు నేడు మనము చూచుచున్న అతిక్లిష్ట
రూపములుగా క్రమేణ అభివృద్ధి చెందినవి. ఇట్లు క్రమక్రమముగా జరిగిన మార్పు
#పద్ధతిని
జీవపరిణామము (ఆర్గానిక్్ ఎవల్యూషన్్) లేదా సాధారణముగా పరిణామము
#(ఎవల్యూషన్్)
అందురు.
జీవపరిణామ నిదర్శనములు:
 పరిణామ పద్ధతి అతిమందగతిలో నడచునది. క్రొత్తజీవులు ఇంకను
క్రమపరిణామము చెందుచుండగా, అత్యల్ప కాలములో వానిని గమనించుటకు సాధ్యముకాదు అంతే
74-
కాక తొలుత ప్రాణులు భూమిపై ఎట్టి పరిస్థితులలో క్రమపరిణామము చెందినవో
#తెలిపికొనుటకు ఆధారములు లేవు. కనుక మనము కేవలము అనేక నిదర్శనములద్వారా వాని
పరిణామమును ఊహింపవచ్చును. ఈ నిదర్శనము లేవి? ఈ నిదర్శనములు అనేకము
కలవు. కాని వానిలో ప్రధానమైనవి. (అ) శిలాజముల నిదర్శనము (ఫాసిల్్
#ఎవిడెన్స్్)
(ఆ) నిర్మాణ సామ్య మరియు క్రియాసామ్య అవయవముల నిదర్శనము (ఎవిడెన్స్్
ఫ్రమ్్ హోమోలోగస్్ అండ్్ అలోగనస్్ అర్్గన్స్్) మరియు (ఇ) పిండోత్పత్తి
శాస్త్ర నిదర్శనము. (ఎవిడెన్స్్ ఫ్రమ్్ ఎంబ్రాయోలజీ) ఇటీవలి కాలములో
#జీవరసాయన
శాస్త్రము, జీవనచర్య (మెటబాలిజమ్్) లేదా జీవవస్తువుల సమానతలను
జీవపరిణామమునకు మరికొన్ని నిదర్శనములుగా గ్రహింపవచ్చును.
శిలాజముల నిదర్శనము:
 పూర్వకాలమున ఒక ప్రాణి నివసించిన అవశేషము లేదా చిహ్నములే
#శిలాజములు.
సర్వప్రాణులను లేదా వానిభాగములను అనేక విధములుగా భద్రపరచవచ్చును. శిలాజములు
తక్కిన వస్తువులతో కలిసి మనకు లభించినను, అధికముగా సెడిమెంటరీ శిలలందు
దొరుకును.
శిలాజము లేర్పడుట:
 మీరు సెడిమెంటరీ శిలలు ఎట్లేర్పడునో తెలిసికొనియున్నారు. నదులు,
#ప్రవాహములచేత కొట్టుకురాబడిన మున్ను మరియు రాళ్ళ చెత్తకుప్పలు సాగర గర్భమున
#చేరును.
75-
నీటి అనుకూలతనుబట్టి మన్ను సాగరమునకు తీసికొనిరాబడును. అట్టి వస్తువులే
#సెడిమెంటరీ పొరలుగా ఏర్పడును. ఖనిజములతో బాటు వృక్షములు, జంతువుల అవశేషములు
కూడ సాగర గర్భమున నిక్షేపమగును. ఇవి సాగర గర్భమున నివసించిన నీటి
#ప్రాణులు
కావచ్చును. ఒకదాని తర్వాత ఒకపొర ఏర్పడుటచే క్రింది పొరలు శిలగా మారును.
#అనేక
కోట్ల సంవత్సరముల పర్యంతరము పైనఏర్పడిన పదార్థముల ఒత్తిడి అధికమగుటచే ఈ #శిల
ఏర్పడుటకు కారణమైనది. ఇట్టి శిలలు పొరలలో కాని, వరుసగా నుండు పొరలలో
#కాని
ఏర్పడును. ప్రతిపొరలోను శిలాజముల అవశేషములుండును. పురాతన కాలపు శిలలోని
శిలాజములు సరళముగాను, తరువాతి కాలమున నేర్పడిన పొరలు అతిక్లిష్టరూపములను
పొందినవి గాను, కనుగొనబడినవి.
 శిలాజములేర్పడు పద్ధతి పదార్థముయొక్క స్వభావము మీదను. అవి ఏర్పడెడి
పరిస్థితి మీదను అనేక విధములుగా ఆధారపడియుండును.
 వృక్షములు, జంతువుల భాగముల గట్టిపదార్థముల అంగార పదార్థములు అనగా
కలప, విత్తనములు, ఎముకలు, గుల్లలు ఖనిజములచేత ఆక్రమింపబడును. ఆ పద్ధతిని
పెట్రిఫికేషన్్ అందురు. అట్లే కార్బను మిశ్రణములు సిలికా లేదా ఇనుప
#మిశ్రణము
లచే తొలిగింపబడును. ఈ పద్ధతిని మినరలైజేషన్్ అందురు. అతి కఠినమైన శిలాజ
మేర్పడి సెడిమెంటరీ శిలలో అమరి యుండుటను కనుగొనవచ్చను. పెట్రిఫికేషన్్ అనగా
`శిలగా తయారగుట'.
 వాస్తవమైన అంగారావశేషములను సందర్భానుసారముగా భద్రపరుచవచ్చును.
చిన్నప్రాణులైన కీటకములు, పత్రములు, పుష్పములు ఆయా కాలముల కోనిపెరస్్
వృక్షములనుండి స్రవించు జిగురులలో పొదిగియుండును. ఈ జిగురు ప్రథమమున
మెత్తగానుండి, సులభముగా మొక్క లేదా జంతు శరీరమునకు అంటుకొనును. ఇది
పిమ్మట గట్టిగాను, స్వచ్ఛపదార్థముగాను తయారగును. దీనిని వృక్షముల శిలాజము
(అంబర్్) అందురు. కొన్ని సమయములలో అతి పెద్ద క్షీరదముల సంపూర్ణ శిలాజములు తారు, నేలబొగ్గు లేదా మంచుగడ్డలలో లభించును. ఉత్తర సైబీరియా,
#రష్యాదేశములలో
రాక్షసమృగము (మమ్మోత్స్్) లనబడు పురాతన కాలము నాటి ఏనుగులవంటి జంతువులు
ఖడ్గమృగములు చెక్కుచెదరక లభించినవి.
76-
 వృక్షములు, జంతువులు ఖనిజముగా ఏర్పడిన పిదప ఖనిజములు కరగిపోవుటచే
మౌల్డులు ఏర్పడును. ఇది చుట్టుప్రక్కలగల శిలలలో శిలాజపు మెత్తని
#మట్టిగుర్తులను
విడిచిపెట్టును. కొన్ని సమయములలో ఖాళీ మౌల్డ్్లు సెకండరీ ఖనిజములయిన నీటిలో
కరగిన సిలికాతో నింపబడును. నీరు ఖాళీ అయిన పిదప సిలికా పోత పోసిన
#శిలాజము
శిలలో కన్పించును.
 శిలాజపు గుర్తులను మెత్తని పదార్థముల బాహ్యరేఖలు అనగా పత్రముల
#వంటివి
శిలలు లేదా నేలబొగ్గులో విడిచిపెట్టబడును. ఇవి పిమ్మట కార్బను పొరగా
#నిలచిపోవును.
డైనో సారస్్ వంటి జంతువుల పాదపు గుర్తులు కొన్ని ప్రాంతములలో కనుగొన
బడినవి.
భూగర్భ శాస్త్ర యుగములు:
 సాధారణముగా శిలాజము యొక్క వయస్సు అది లభించిన సెడిమెంటరీ శిలల
పొరల వయస్సుతో సమానముగా నుండును. భూగర్భ శాస్త్రజ్ఞులు శిలల వయస్సును
అంచనా కట్టుటకు అనేక మార్గముల నవలంబించిరి.
 సెడిమెంటరీ శిలల విభిన్న పొరల యొక్క వయస్సు నుపయోగించి భూగర్భ
శాస్త్రజ్ఞులు ఒక భూగర్భ `కాలపట్టిక' (టైమ్్ టేబల్్) ను తయారు చేసిరి.
#ఈ పొరలలో
లభ్యమైన శిలాజముల సహాయముతో భూమియొక్క గత చరిత్ర క్యాలెండరులో
సన్నివేశములను గుర్తింపవచ్చును.
 భూమియొక్క సన్నివేశముల క్యాలెండరును నాలుగు మహాయుగములుగా
విభచింపవచ్చును. అవి 1 మూలజీవ మహాయుగము (ప్రొటిరోజాయిక్్ ఆర్్
#ప్రెకాంబ్రియన్్)
2 పురాజీవ మహా యుగము (ఫాలియోజాయిక్్) 3 మాధ్యమిక జీవ మహాయుగము
(మీసోజాయిక్్ ) 4 ఆధునిక జీవ మహా యుగము (కోఇనో జాయిక్్) మహాయుగములను
కాలములు (పీర్యిడ్స్్) గాను, కాలమును శకములు (ఎపోక్స్్) గాను తిరిగి
#విభజింపవచ్చును.
 భూమి వయస్సును సుమారు ఐదు బిలియను సంవత్సరములు (1 బిలియను-100
కోట్లు) గా నిర్ణయింపవచ్చును. 3.5 నుండి 3.1 బిలియను సంవత్సరముల నాటి రాతి
పొరలలో బ్యాక్టీరియా లేదా నీలి ఆకుపచ్చ శైవలముల (బ్లూ, గ్రీన్్, ఆల్గె) #వంటి అతి
77-
పురాతన జీవుల శిలాజములు లభించినవి. శిలలను ఎలెక్ట్రాన్్ సూక్ష్మ దర్శినితో#పరీక్షింపగా
ఇవి కనుగొనబడినవి. మూలజీవ మహాయుగము ఇప్పటినుండి సుమారు 600 మిలియను
సంవత్సరములవరకు అనగా పురాజ఼ీవ మహాయుగవు ప్రథమదశవరకును వ్యాపించును.
మూలజీవ మహాయుగమునకు ముందు ఏ ప్రాణియునులేదు. మూలజీవ మహాయుగ
అంత్యమున బ్యాక్టీరియా, నీలి ఆకుపచ్చ శైవలములతో పాటు, శైవలములు,
శిలీంధ్రములు (ఫంగి) ప్రోటోజోవన్్లు, పురాతన అకశేరుకములు ఏర్పడినవి.
పురాజీవ మహాయుగము:
 ఈ మహాయుగము `పురాతన జీవిత' మహాయుగమనబడును. ఇది సుమారు 37
కోట్ల సంవత్సరములపాటు జరిగినది. ఈ మహాయుగవు తొలిదశలో శైవలములు, గుల్ల
గల ప్రాణులు, మొదటి సకశేరుకములు (వర్టిబ్రేట్స్్) జీవించినవి. తర్వాతి దశలో
అకశేరుకములతోబాటు పెక్కు చేపలు వృద్ధి చెందినవి. మొట్టమొదటి మొక్కలు భూమిపై
చేరినవి. భూమిపై పెక్కు కీటకములు, నీటి యందు చేపలు, మొట్టమొదటి
#వ్యాస్కులర్్
మొక్కలు ఏర్పడినవి. ఉభయచరములు ఇప్పుడే కన్పించినవి. ఇవి భూమిమీద కొంత
కాలము, ప్రత్యుత్పత్తి కొరకు నీటిలో కొంతకాలము ఉండెడివి. తర్వాతిదశలో
#భూమిపైననే జీవించెడి సరీసృపములు (రెప్్టైల్స్్) గుర్తింపబడినవి. పెర్న్్,
#జిమ్నోస్పెర్ములు
(కోనిపెరస్్ మరియు సైకడులు) గొప్ప అరణ్యములను రూపొందించినవి. మనకిప్పుడు
లభించుచున్న నేలబొగ్గు ఈ అరణ్యముల శిలాజఅవశేషములే. కనుక ఈ కాలమును
కార్బొని ఫెరస్్ దశయందురు. ఈయుగాంత్యమున క్షీరదములవంటి సరీసృపములేర్పడినవి
పెర్న్్ మొక్కలు క్షీణించినవి.
మాధ్యమిక జీవమహాయుగము:
 ఇది `మాధ్యమిక జీవితము' గా ఏర్పడి సుమారు 170 మిలియను సంవత్సరముల
పాటు జరిగినది. భూమి, గాలి, మహా సముద్రములందంతటను సరీసృపములు వ్యాపించి
యుండుటచే దీనిని `సరీసృపముల మహాయుగము' అని కూడ అందురు. ఈ మహాయుగ
తొలిదశలో జిమ్నోస్పెర్ములు (సైకడలు మరియు కోని పెరస్్) అధికముగా నున్న
కాలముననే డైనో సారస్్లనబడు సరీసృపములు అధికముగా నుండెను. మొట్టమొదటి
పక్షి మరియు గ్రుడ్డుపెట్టు క్షీరదము ఈ కాలముననే కన్పించెను.
#అర్కియాప్టెరిక్స్్
అనబడు అతి పురాతన పక్షికి దంతములు మరియు అతుకుకొన్న తోక యుండెను.
78-
ఈ మహాయుగపు రెండవ దశలో పెద్దపెద్ద డైనోసారులు అధికముగా వ్యాపించెను
#వీనిలో
కొన్ని 100 అడుగుల పొడవు 1 అడుగుల ఎత్తుగలిగి 100 టన్నుల బరువుండెను.
అవి నేటి తిమింగలముల కంటెను చాలపెద్దవి. భూమిపై నేటివరకు లభించిన అన్ని
ప్రాణులకంటెను ఇవి పరిమాణమున పెద్దవి. బ్రాంటో సారస్్ మరియు
#డిప్లోడోకస్్లు
పొడవు మెడ, నిడివి తోకను గలిగి నాలుగు కాళ్ళతో నుండెడివి. అవి అధికముగా
#నీటి
లోనే సంచరించెడివి. నీటిలో మేడభాగము వరకును ఇవి యుండుటచే వాని శరీరము
తేలికగా నుండెడిది. ఇవి శాకాహారులు మరియు వీనికి అతి చిన్న మెదడుగలదు.
#స్చెగో
సారస్ అనునది `కవచముగలిగిన' శాకాహారి ఇది 10 టన్నుల బరువుండెను. టిర్రానో
సారస్్ అను మిక్కిలి శక్తివంతమైన డినో సారస్్ లేక డైనోసారస్్ భయంకరమైన
#జంతువు. ఇది మాంసాహారి. దీనికి పెద్ద దంతములు మరియు పెద్ద దవడపుండెను, అది
రెండు కాళ్ళతో సంచరించెడిది. అది 50 అడుగుల పొడవుండెను. దాని తలభూమిపై 20
అడుగుల ఎత్తులో నుండెను. ఈ మహాయుగాంత్యమున డినోసారస్్లు క్షీణించెను.
        0 
               0 
</p></body></text></cesDoc>