<cesDoc id="tel-w-socsci-education-ttc2" lang="tel">
<cesHeader type="text">
<fileDesc>
<titleStmt>
<h.title>tel-w-socsci-education-ttc2.txt</h.title>
<respStmt>
<respType>Electronic file created by</respType>
<respName>Central Institute for Indian Languages, Mysore</respName>
<respType>transferred into Unicode and CES format by</respType>
<respName>"Unicodify" software by Andrew Hardie</respName>
</respStmt></titleStmt>
<publicationStmt>
<distributor>UCREL (on behalf of CIIL)</distributor>
<pubAddress>Department of Linguistics, Lancaster University, Lancaster, LA1 4YT, UK</pubAddress>
<availability region="WORLD"></availability>
<pubDate>03-08-13</pubDate>
</publicationStmt>
<sourceDesc>
<biblStruct>
<monogr>
<h.title>తెలుగు-బోధన పద్ధతులు</h.title>
<h.author>శ్రీ ఇలపావులూరి శ్రీీ.కామేశ్వరరావు</h.author>
<imprint>
<pubPlace>India</pubPlace>
<publisher>Unknown - Book</publisher>
<pubDate>1984</pubDate>
</imprint>
<idno type="CIIL code">ttc2</idno>
</monogr></biblStruct></sourceDesc></fileDesc>
<encodingDesc>
<projectDesc>Text collected for the CIIL Corpus, subsequently integrated into the EMILLE/CIIL Monolingual Written Corpora.</projectDesc>
<samplingDesc>Simple written text only has been transcribed. Diagrams, pictures and tables have been omitted. Sampling begins at page 35.</samplingDesc>
<editorialDecl><conformance level="1"></conformance></editorialDecl>
</encodingDesc>
<profileDesc>
<creation><date>03-08-13</date></creation>
<langUsage>Telugu</langUsage>
<wsdUsage>
<writingSystem id="ISO/IEC 10646">Universal Multiple-Octet Coded Character Set (UCS).</writingSystem>
</wsdUsage>
<textClass>
<channel mode="w">print</channel>
<constitution type="composite"></constitution>
<domain type="public"></domain>
<factuality type="fact"></factuality>
</textClass>
<translations></translations>
</profileDesc>
<revisionDesc></revisionDesc>
</cesHeader>

<text><body>

<p> ప్రాజెక్ట్ పద్దతి
 `ప్రాజెక్ట్' పద్ధతికే `ఉద్యమ పద్ధతి' `సంకల్ప నిర్వహణ పద్ధతి
`ప్రకల్పన పద్ధతి' అనే పేర్లున్నవి. స్టీవెన్సన్ (Stevenson) అనే
శాస్త్రజ్ఞుడు `ప్రకల్పన' నిట్లా నిర్వచించినాడు:
 "సహజసిద్ధమైన పరిస్థితులలో ముగించవలసిన
సమస్యాయుతమైన కార్యమే ప్రకల్పన"
-29-
 నాగార్జునసాగర్ ప్రాజెక్ట్, శ్రీశైలం ప్రాజెక్ట్, సీలేర్ ప్రాజెక్ట్,
అనే పేర్లు అందరూ విన్నవే. సాధ్యమైనంత ఎక్కువగా ధాన్యాన్ని
ఉత్పత్తిచేయడానికి సరిపోయే నీటి వనరులు లేకపోవడమే వీటిలో
ఇమిడి ఉన్న సమస్య (Problem). వృథాగా సముద్రంలో కలిసిపోతున్న
నీటిని పొలాలలోకి మళ్ళించవలసిన అవసరం దీనివల్ల ఏర్పడుతుంది.
అందుకై ఆనకట్టలు భారీ ఎత్తున కట్టి నీటిని నిలవచేసి పొలాలకు సరఫరా
చేయడం పర్యవసానము. దీనివల్ల ఫలితం, అధికాహారోత్పత్తి.
 ఇదే విధంగా భాషను బోధించడంలోకూడా కొన్ని గమ్యాలు
(Targerts) ఉంటాయి. జీవితంలోని వివిధ రంగాలలో వ్యక్తికి భాషతో
పని కలుగుతుంది. అటువంటి భాషను సహజ పరిస్థితులలో చప్రయోజన
కరంగా నేర్చుకోవడం అవసరము ఒక `ఉద్యమం' లేదా `ప్రకల్పన'ను
ఆధారం చేసుకొని ఎంతో శబ్దజాలాన్ని, వాక్యరీతులను, వాచిక చర్యను,
రచనారీతులను విద్యార్థులకు నేర్పవచ్చు. ఒకటి నుండి ఐదు
తరగతులవరకు పండగల నిర్వహణ' అనే వ్యాసాంగం ద్వారా ఈ `ప్రాజెక్ట్'
పద్ధతిని అమలు జరపవచ్చు. `శ్రీకృష్ణజయంతి' పండగ఼లలో అతి
ముఖ్యమైనది . బాల బాలికలకు కృష్ణుడంటే అమిత ఉల్లాసంగా ఉంటుంది.
శ్రీకృష్ణజయంతికి తెలుగు దేశంలో అనేక జిల్లాలలో ఉట్లు కొట్టే ఆచారం
ఉంది. దీనిని ఉట్ల పండగ అని కూడా అంటారు. విద్యాలయంలో
ఉపాధ్యాయుని పర్యవేక్షణ కింద ఈ పండగ జరపడం ఒక `ప్రాజెక్ట్'గా
తీసుకోవచ్చు. ఈ పండగతో సంబద్ద పరచదగిన బాల సాహిత్యం ఎంతో
ఉంది.
 1. పోతన రచించిన భాగవతంలో అతి సరళమైన పద్యాలు
 కృష్ణవతార ఘట్టంలోవి ఎన్నో ఉన్నాయి. వాటిని పిల్లలకు
 ముందుగా చదివి వినిపించడం , ఆ పండగ వేడుక జరిపేటప్పుడు
 వారిచేత పాడించడంవల్ల బాలబాలికలకు ఆనందోత్సాహాలతో
 పాటు భాషా జ్ఞానం, సాహిత్యాభిలాష కలుగుతాయి.
 2. బొమ్మల భాగవతం వంటి బాల పుస్తకాలను చదివించడం,
 కథలను చెప్పడంలో పోటీలు నిర్వహించవచ్చు.
 3. `కృష్ణశతకం' లో చక్కని పద్యాలున్నవి, అన్నీ పిల్లల స్థాయిలో
 అర్థమయ్యేవే. అందులో నుంచి కొన్ని పద్యాలను ఎన్నుకొని
 వాటిని పిల్లలచే కంఠస్థం చేయించవచ్చు.
-30
 4. కృష్ణునిపై కోకొల్లాలుగా బాలగేయాలు దొరుకుతవి. వాటిని
 బృందగానంగా పాడించవచ్చు.
 5. కృష్ణ లీలలో కొన్ని ఘట్టాలను నాటికగా పిల్లలచే ప్రదర్శింప
 జేయవచ్చు.
 6. నృత్యం చేయడానికి పనికివచ్చే కొన్ని గేయాలు నేర్పి పండగ
 సందర్భంలో నృత్యప్రదర్శనం ఏర్పాటు చేయవచ్చు.
 పై అంశాలన్నీ చక్కని వాచిక఼ శక్తిని, పఠనశక్తిని కలిగిస్తవి.
ఇదేవిధంగా లిఖిత చర్యలో గూడా సామర్థ్యాన్ని వృద్ధిచేసే కథా రచన,
వ్యాసరచన చేయించవచ్చు. తాము జరుపుకొనే `శ్రీకృష్ణయంతి'
వేడుకకు తమ తల్లిదండ్రులను, ఊరిలోని పెద్దలను ఆహ్వానించవ్చ్చు. ఇందుకు
అవసరమైన ఆహ్వాన పత్రికలు వ్రాయడం కూడా నాలుగు, ఐదు తరగతుల
పిల్లలకు నేర్చవచ్చు.
 ఈ పండుగ వేడుక జరపడం ద్వారా సాధించదలచుకొన్న భాషా
సామర్థ్యాలను, కౌశలాలను, ముందుగా నిర్దేశించుకొని ఉపాధ్యాయుడు
`పండగ' ముగిసిన తరవాత ఆ ఉద్ధేశాలు ఎంతవరకు నెరవేరిందీ
మూల్యాంకనం చేసుకోవలె లేకుంటే ప్రయోజనం ఉండదు లక్ష్యాలను
నిర్దేశించుకోకుండా ఏ కార్యంకూడా తలపెట్టకూడదు. తలపెట్టిన కార్యం
ముగిసిన తరవాత ఫలితాలను ఉద్ధేశాలతో సరిపోల్చుకోవలె .లక్ష్యాలు
ఒకవేళ సిద్ధించకపోతే కారణాలను కనిపెట్టి భవిష్యంలో అటువంటి
లోపాలు రాకుండా చూసుకోవలె.
 సెకండరీ స్థాయిలో `కవిజయంతులు' `వార్షికకోత్సవాలు'
`సాంస్కృతిక వారోత్సవాలు' `అష్టావధానాలు' `పాఠశాల సంచిక'
(School magazine) మొదలై఩వి `ప్రాజెక్ట్'ల కింద చేపట్టవచ్చు.
ఈ దశలో కరపత్రాల రచన, స్వాగత పత్ర రచన, వందన సమర్పణ
రీతి, పత్రికా రచన, (Journalism) మొదలైన సామర్థ్యాలు, కౌశలాలు
విద్యార్థులకు కలిగించవచ్చు. నేటి పాఠశాలలోను, కళాశాలలలోను,
జరిగే వార్షికోత్సవాలలో విద్యార్థులు `వందన సమర్పణ' అనే చివరి
ఘట్టంలో పడే తికమకలు, శోచనీయంగా ఉన్నవి. జాతియగీతం పాడటం,
-31-
ప్రతిజ్ఞ (Pledge) చదవడంకూడా భాషకు సంబంధించిన వ్యాసంగాలలో
చేర్చవలసి ఉంది.
 అన్ని పాఠ్యాంశాలను, `ప్రాజెక్ట్' విధానం ద్వారా
బోధించవచ్చుననే ఆపోహ పనికిరాదు. వివిధ పాఠ్యాంశాలలో నేర్పిన విషయ పరిజ్ఞానం,
సామర్థ్యం, ఈ విధానం ద్వారా ఆచరణలోకి తేవడానికి వీలవుతుంది.
గడించిన భాషాజ్ఞానం బలపడుతుంది. విద్యలో పని అనుభవం (Work
Experience) అనే సూత్రానికి ఈ విధానం దోహదమిస్తుంది. పని
అనుభవాలను విద్యార్థులకు కలగ జేస్తుంది.
 డాల్టన్ పద్ధతి
 `వ్యష్ఠి పద్ధతి' `వ్యక్తి పద్ధతి' `నియోజన పద్ధతి' అని `డాల్టన్
పద్ధతి' కి మారు పేర్లున్నాయి. వ్యక్తిగతాలైన శక్తి సామర్థ్యాలకు,
అభిరుచులకు అనుగుణంగా విద్యాభివృద్ధి సాధించచడానికి అవకాశం కల్పించే
విధానం కాబట్టి "వ్యష్టి లేక వ్యక్తిపద్ధతి" అనవచ్చు. దీనిలో
నియోజనాలు (Assignments) ప్రధానమైన సాధనాలు కాబట్టి
`నియోజనపద్ధతి' అన్నారు. అమెరికాలో డాల్టన్ అనేది ఒక పట్టణము అక్కడ
మొట్టమొదట ఈ పద్ధతిలో ఒక ఉన్నత పాఠశాల నడపడం జరిగింది
కాబట్టి ఆ పట్టణం పేరుతో దీనిని `డాల్టన్' పద్ధతి అన్నారు. ఈ పద్ధతిని
రూపొందించినది `మిస్ హెలెన్ పార్క్ హర్స్ట్' (Miss Helen Park-
hurst) అనే విద్యా శాస్త్రజ్ఞురాలు. విద్యార్థులలో గోచరించే
అభిరుచులలో గల వైవిధ్యం (తేడా) దృష్టిలో ఉంచుకొని ఎవరి సామర్థ్యానికి,
అభిరుచికి తగినట్లుగా వృద్ధిలోకి రావడానికి వారికి అవకాశం కల్పించడమే
దీని లక్ష్యము సహజంగా అభిరుచిలేని విషయాన్ని తరగతిలో అందరితో
సమానంగా చదవమని బలవంతం చేయడంగాని, ఎక్కువ అభిరుచిగల
విషయంలో తరగతిలోని మిగిలినవారికోసమై ఒక విద్యార్థిని మరుసటి
సంవత్సరం వరకు ఆపి ఉంచడంకాని పనికిరాదని ఈ పద్ధతిలోని సూత్రము.
 భాషావిషయంలో విద్యార్థుల గ్రహణశక్తి, అభిరుచి అనేక
కారణాలవల్ల భిన్నంగా ఉండవచ్చు. గృహవాతావరణము, తల్లిదండ్రులు
తీసుకొనే శ్రద్ధ, పరిసర ప్రభావం వంటివి దీనికి కారణాలు కావచ్చు. `భాష'
అనేది నైపుణ్యము. ఇది అలవాటువల్ల పెరుగుతుంది. మాట్లాడే
అభ్యా-32-
సము చదివే అవకాశము, వ్రాసే శిక్షణ, ఎంత ఎక్కువగా లభిస్తే అంత
త్వరగా, ఎక్కువగా భాషాసామర్థ్యం కలుగుతుంది. విద్యాలయంలో చేరే
సరికి విద్యార్థికి ఉన్న పూర్వరంగం (Background) ఎంత బాగుంటే,
తరగతి గదిలో ఆ విద్యార్థి అభివృద్ధి అంత చురుకుగా జరుగుతుంది. అతడు
తనకిచ్చిన నియోజనాలు (Assignmengs) త్వరగా పూర్తిచేసినప్పుడు,
అతనిని తరగతిగదిలోని మిగతావారికోసం ఆపక పైతరగతి నియోజనాలు
కాని, ఆ తరగతిలోనివే మిగిలిన నియోజనాలు కాని పూర్తిచేయడానికి
అవకాశం ఇవ్వవలె భాషలో పురోగామిగా ఉంటూ గణితంలోగాని మరే
ఇతర విషయంలోగాని వెనకబడి ఉండవచ్చు. అటువంటి పరిస్థితులలో ఒక఼
విద్యార్థి, భాషలో 8వ తరగతి, గణితంలో 7వ తరగతి,
సాంఘీకశాస్త్రంలో 9వ తరగతిలో ఉన్నట్లుగా పరిగణించవలసి ఉంటుంది. ఈ
విధానంలో ఉండే చిక్కు ఇదే అందుచేత, ఉన్నత విద్యాస్థాయిలో
(Higher education) దీనిని అమలుచేయడం ఉచితమని పలువురి
అభిప్రాయము.
 ఈ విధానంలోని నియోజనాల స్వభావం, నిర్వహణ ఎట్లా
జరగవలెనో పరిశీలించడం అవసరము. ఒక్కొక్కతరగతికి కనిష్ఠ పాఠ్యప్రణాళిక
(Minimum syllabus) గరిష్ఠ పాఠ్యప్రణాఴిఴళిక (Maximum sylla
bus) సిద్ధం చేయబడి ఉంటాయి, సరాసరి ప్రజ్ఞ (Average intelli
gence) గల విద్యార్థులను దృష్టిలో ఉంచుకొని కనిష్ఠ ప్రణాళిక,
మేధావంతులను దృష్టిలో ఉంచుకొని గరిష్ఠ ప్రణాళిక తయారుచేస్తారు. సరాసరి
విద్యార్థుల఼కుద్దేశించిన ప్రణాళికను మేధావంతులు త్వరగా పూర్తిచేసి
తరవాత ఏమీ చేయవలెనో తోచక సోమరులై చదువులపై నిర్లక్ష్యవైఖరి
చూపకుండా వాళ్లకు పరిశ్రమ కల్పించడానికి గరిష్ఠప్రణాళిక ఉపయోగ
పడుతుంది.
 ప్రణాళికలో 1.ప్రధాన విషయాలు (Major subjects),
2.గౌణవిషయాలు (Minor subjects) అని విషయాలను వర్గీకరించడం
జరుగుతుంది. భాష, గణితము, చరిత్ర, శాస్త్రము, భూగోఴళము, అన్యభాష
ప్రధాన విష౟ాయాలలో చేరతవి. సంగీతము, చిత్రలేఖనము, చేతిపనులు,
గృహవిజ్ఞానశాస్త్రము (Home science), ఆటలు, తోటపని గౌణ
విషయాలలో చేరతవి. ప్రధాన విషయాలకు అధికకాలం వినియోగిస్తారు.
-33-
గౌణవిషయాలుగా వర్గీకరించినవాటిలో విద్యార్థులకు సహజంగా ఆసక్తి
ఉంటుంది. కాబట్టి తక్కువ కాలంలో సులభంగా వాటిని బోధించ఼వచ్చు. ఈ
కారణంగా వాటిని గౌణవిషయాలుగా పరిగణించడం జరిగిందేకాని అవి
నిజంగా నిష్ప్రయోజకరమైనవి కాదు.
 పై విషయాలలో విద్యార్థి సంవత్సరం అంతా సంపాదించవలసిన
జ్ఞానాన్ని, అందుకు సంబంధించిన పాఠాలను `నియోజనాలు'గా విభజించి
నెలవారిగా, వారాలప్రకారం, సంవత్సరారంభంలోనే నిర్ధారణ చేయడం
జరుగుతుంది. ఒక్కొక్క నియోజనానికి వినియోగించవలసిన కాలపరిమితి
కూడా సామాన్య విద్యార్థిని దృష్టిలో ఉంచుకొని నిర్ణయించడం
జరుగుతుంది. ఒక పిరియడ్ లో ఫలానా విషయమే అధ్యయనం చేయవలెననే
నిర్భంధం లేదు. తన ఉల్లాసాన్ని, కోరికనుబట్టి విద్యార్థి తనకు తోచిన
విషయం చదవవచ్చు. విషయానికొక గది నిర్ణయించబడి ఉంటుంది. ఆ
గదిలో ఆ విషయానికి సంబంధించిన గ్రంథాలయం ఉంటుంది. అధ్యయనం
చేసేముందుగా విద్యార్థి ఉపాధ్యాయుని కలుసుకొని సలహాలు, సూచనలు
తీసుకోవలె. సందేహాలు వచ్చినప్పుడు తీర్చడానికి ఉపాధ్యాయుడు సిద్ధంగా
ఉంటాడు. ఏ విద్యార్థి, ఏ విషయంలో, ఎంత అభివృద్ధి సాధించిందీ ఒక
రేఖాచిత్రంలో అధ్యాపకులు సూచిస్తారు. ఇది తరగతి గదిలో ఉంచుతారు.
ఈ రేఖాచిత్రం వ్యక్తిగతంగా ప్రత్యేక విద్యార్థికి ఒక్కొక్కటీ, తరగతి
అంతటికి సామూహికంగా మరొక్కటి తయారుచేసి విద్యార్థులందరూ
చూసేచోట ప్రదర్శిస్తారు, దీనిని చూసిన విద్యార్థులలో ఒకరకమైన
చైతన్యం, ఆత్మవిశ్వాసం, ఆత్మపరీక్ష కలగడానికి అవకాశం ఉంటుంది.
 నియోజనాలు తయారు చేసేటప్పుడు కొన్ని జాగ్రత్తలు
తీసుకోవలసి ఉంటుంది.
1. సామాన్య బాలుని ప్రమాణం (Standard) లో నియోజనాలు
 సిద్ధం చేయవలె.
2. నియోజనాలు లిఖితరూపంలోనే ఉండవలె. అస్పష్టత ఎక్కడా
 ఉండరాదు.
3. విద్యార్థులు సంప్రతించవలసిన పరామర్శ గ్రంథాలు (Refe-
 rence books) పుటల సంఖ్యతో సహా సూచించవలె.
-34-
4. ప్రణాళికలోని భిన్నవిషయాల పరస్పర సంబంధాన్ని (Corre-
 lation) దృష్టిలో ఉంచుకొని నియోజనాలను రూపొందించవలె.
నియోజనంలో ఉండవలసిన అంశాలు
 1. విషయసూచిక (Contents): అధ్యయనం చేయవలసిన
పాఠ్యాంశం స్పష్టంగా సూచించవలె. ఉదా-"`భరతుడు' అనే పద్య
భాగంలో 10 నుండి 30 పద్యాలవరకు"
 2. సమస్యలు: విద్యార్థి నిర్ణీత పాఠ్యభాగాన్ని చదివిన తరవాత
గ్రహణశక్తిని పరీక్షించే ప్రశ్నావళి.
 3. లిఖితచర్య(Written work): వ్రాతమూలకంగా విద్యార్థి
చేయవలసిన అభ్యాసాలు (Exercises).
 4. స్మృతిపఠనము (memorisation): కంఠస్థం చేయవలసిన
భాగాలు.
 5. సమావేశాలు(Meetings): విద్యార్థి సాధించిన ప్రగతిని
పరిశీలించడానికిగాని, కొత్తగా ఏవైనా సూచన లివ్వడానికిగాని
ఉపాధ్యాయుడు తేదీలను, సమయాన్ని, నియోజనంలో సూచించవలె.
 6. పరామర్శ గ్రంథాలు (Refference books): శబ్దకోశము,
మూలగ్రంథాలు (పేజీలతో సహా) సూచించవలె.
 7. సామ్యాలు (Similarities): చదివిన విషయానికి సరిపోయే
ఘట్టాలు వేరుచోట్లనుండిగాని, జీవితంనుండిగాని ఉదాహరించడం ఉదా:
గాంధీజీ-అబ్రహామ్ లింకన్-కాళిదాసు-షేక్స్పియర్.
 8. ప్రకటనలు (Announcements): విద్యార్థులందరికి
సంబంధించిన విషయాలు, నిర్ణీతస్థలంలో ప్రకటించడం. "పలానాతేదీ పాఠశాల
ప్రకటన ఫలకం (Bulletine board) చూడండి" అనే సూచన
నియోజనంలో ఉండవలె.
 9. మినహాయింపులు (Remission): ఒక విద్యార్థి అభివృద్ధిని
గమనించి అతడు సంతృప్తికరమైన స్థాయిని అందుకొన్నాడని
ఉపాధ్యాయుడు నిర్ణయానికి వచ్చినప్పుడు ఒక్కొక్క నియోజనంలో అతడు
చేయవలసిన కృషిలో కొన్ని అంశాలను మినహాయించవచ్చు. ఈ సూచన
నియోజనంలో ఉండవలె.
-35-
మూల్యాంకనము, లోపనివారణకృషి
 పై విధంగా నియోజనాలిచ్చే విద్యార్థులచే కృషి చేయిస్తూ నిర్ణీత
కాలానికి ఒకసారి వారి అభివృద్ధిని సమీక్షించవలె. ఎటువంటి
విషయాలలో ఎక్కువమంది విద్యార్థులు ప్రగతి చూపలేకపోతున్నారో
కనుక్కొనవలె. ఆ విషయాలలో వారికి ఉన్న సాధకబాధకాలను ఊహించి వాటిని
తొలగించడానికి ప్రయత్నం చేయవలె. సామూహికంగా చర్చించవలసిన
విషయాలను తరగతి సమావేశంలోను, వ్యక్తిగతమైన ఇబ్బందులను
వ్యక్తిగతమైన చర్చలద్వారాను తొలగించి నియోజన పద్ధతిలో ఏవైనా
లోటులుంటే తీర్చవలె ఈ పద్ధతిపై సాదకబాదకాలను. ఇచ్చిన
నియోజనాలు స్వయంకృషితోకాక ఇళ్లవద్ద పెద్దవాళ్ల సహాయంతో
పూర్తిచేస్తారనీ, అందువల్ల విద్యార్థుల స్థాయి పెరగదనీ, ఈ పద్ధతిమీద ఆధారపడి
చేసే మూల్యాంకనం (Evaluation) విశ్వసనీయం కాదని ఈ ఆక్షేపణ.
నేటి మామూలు విద్యాలయాలలో విద్యార్థులు తనకిచ్చే హోమ్ వర్క్
కూడా ఇంటిదగ్గర ప్రైవేటు టీచరుద్వారానో, తల్లిదండ్రులద్వారానో,
చేయించుకొని రావడం చూస్తున్నాంకదా! కాబట్టి ఈ ఆక్షేపణ నిలవదు.
ఎవిరిపాటికి వారు కృషిచేస్తునందున విద్యార్థులలో ఒంటరితనం (Loneli-
ness) పెరిగి సంఘంలో నడుచుకోవలసిన మర్యాద, సర్దుబాటు
అలవడనేది రెండవ ఆక్షేపణ. అప్పుడప్పుడు తరగతులను సమావేశపరచడానికి
అవకాశం ఈ పద్ధతిలోకూడా ఉందికాబట్టి ఈ ఆక్షేపణకూడా నిలవదు.
ఉపాధ్యాయుడు ప్రతి విద్యార్థిపట్ల వ్యక్తిగత అవధానం (Individual
attention) ఉంచడం అమిత శ్రమతో కూడిన పని. అసాధ్యం అనేది
మరొక ఆక్షేపణ విద్యాబోధన పూర్తిగా సఫలం కావలెనంటే వ్యక్తిగత
అవధానం ఉంచక తప్పదు. కాబట్టి ఇది ఆక్షేపణ కిందికి రాదు.
ఆవశ్౟఼శ్యకతగా పరిగణించవలె.
 ఏ పద్ధతిలోనైనా గుణాలతోపాటు లోపాలు, లోటుపాట్లు
ఉంటాయి. కాని వీటిలో కొన్ని అదిక శ్రమతో కృషిచేసి తొలగిపోతవి.
ఉపాధ్యాయ-విద్యార్థి నిష్పత్తి (Teacher-Pupil ratio)
మెరుగుపడవలెననడం సత్యము ఒక్కొక్కతరగతిలో ఉపాధ్యాయునికి నలభై యాభై
మంది విద్యార్థులున్నప్పుడు ఈ పద్ధతి ఎంతమాత్రం సాధ్యంకాదు. పది
-36-
మందికంటె ఎక్కువ విద్యార్థులను ఒక ఉపాధ్యాయుడు అభివృద్ధికి
తేవడం అసాధ్యము. ఇందువల్ల అపారంగా ఉపాధ్యాయుల సంఖ్య
పెంచవలసి ఉంటుంది. అభివృద్ధి చెందిన అనేక దేశాలలో ఈ విధానం ఏదో ఒక
రూపంలో అమలుపరుస్తూ ఉన్నారు. ఆ దేశాలలోని విద్యాప్రమాణాలు
చాలా ఉన్నతస్థాయిలో ఉన్నాయని తెలుస్తూ ఉన్నది. అమిత
ధనవ్యయమూలకం అనడం ఆక్షేపణకాదు; వాంఛనీయము (Desirable) అని
గ్రహించవలె.
 పర్యవేక్షిత అధ్యయనము
 తరగతి బోధనతో ఉపాధ్యాయుని బాధ్యత తీరిపోదు. విద్యార్థి
కృషి కూడా అంతటితో చాలదు. బడిగంటలుకాక అదనంగా కొంతకాలం
పనిచేస్తేగాని విద్యార్థి తరగతి బోధనవల్ల సత్ఫలితం పొందలేడు. ఇటువంటి
కృషి ఇంటివద్ద చేయడానికి అందరికీ అవకాశం ఉండదు. ఉన్నవాళ్లకు
కూడా క్రమశిక్షణతో ఈ పని కొనసాగడానికి సరియైన వాతావరణం
ఇంటివద్ద ఉండకపోవచ్చు. ఉపాధ్యాయుల పర్యవేక్షణకింద ఈ కృషి జరగడం
లాభదాయకంగా ఉంటుంది. విద్యార్థి ఏయే విషయాలలో సరియైన
అభివృద్ధి చూపడంలేదో కనిపెట్టి ఆ విషయాలలో తమ పర్యవేక్షణకింద఼కృషి
చేయించడమే ఈ అంశంలోని లక్ష్యము. కాబట్టి దీనిని పర్యవేక్షిత
అధ్యయనము (Supervised study) అన్నారు.
 ఈ అధ్యయానాన్ని నిర్వహించడానికి తరగతిలో ఉపయోగించే
బోధనపద్ధతి పనికిరాదు. ఇది అనుబంధ కృషి (supplementary effort)
కాబట్టి ఈ విధానంలో విద్యార్థులను వారివారి ప్రగతి (Progress) ని
బట్టి వర్గీకరించి వారిచే అందుకు అనువైన కృషి చేయించవలె. కొందరు
వర్ణక్రమ దోషాల నెక్కువగా చేయడం. కొందరు పద్యపఠనంలో
వెనుకబడి ఉండటం, మరికొందరు రచనా వ్యాసంగంలో వెనకబడి ఉండటం
జరగవచ్చు. వారికి లోటున్న విషయాలు కనిపెట్టి పర్యవేక్షిత అధ్యయన
కాలంలో అందుకవసరమైన కృషి చేయించవలె. అధ్యయన కాలంలో
విద్యార్థులకు నిఘంటువులు (dictionaries), మూలగ్రంథాలు(Source
books). పరామర్శ గ్రంథాలు (Reference books), శబ్ధకోశాలు
అందుబాటులో ఉంచవలె. సందేహాలు కలిగినవెంటనే తీర్చడానికి
ఉపాధ్యా-37-
యులు సిద్ధంగా ఉండవలె. విద్యార్థులు అధ్యయనం చేసే సమయంలో
ఉపాధ్యాయులు వారిమధ్య తిరుగుతూ మౌనంతో వారు చేస్తున్న కృషిని,
వారు వ్రాసుకొంటున్న నోట్సును గమనిస్తూ సూచనప్రాయంగా వారు
చేసే పొరపాట్లను దిద్దుతూ ఉండవలె. ఒకే విద్యార్థివద్ద చాలాసేపు
కూర్చొని చర్చించరాదు.
 విష౟ాయానికి ఒక్కొక్క గది, ఆ గదిలో అందుకు సంబంధంచిన
ఉపాధ్యాయుడు ఉండవలె. కావలసిన పుస్తకాలు కూడా తగిన సంఖ్యలో
ఉండేటట్లు చూడవలె. విద్యార్థులు పూర్తి మౌనం పాటించవలె. తెలుగు
అధ్యయనం చేసే గదిలో శబ్దరత్నాకరము, శబ్దార్థచంద్రిక, గురుబాల
ప్రబోధిక, విద్యార్థి కల్పతరువు, పూర్వగాథాలహరి మొదలైన
పుస్తకాలు విద్యార్థుల కందుబాటులో ఉండవలె. విద్యార్థులు ఈ కాలాన్ని
సద్వినియోగం చేసినట్లు విశ్వసించడానికి వాళ్లచేత చదివిన భాగాల
సారాంశాన్ని నోట్ పుస్తకాలలో తప్పనిసరిగా వ్రాయించవలె.
చదవడానికి పట్టిన కాలం, చదివిన పేజీల సంఖ్య, అంశము, సంప్రదించిన
గ్రంథాలు మొదలైన వివిరాలు ఆ నోట్సులో నమోదు కావలె. పరీక్షా
ఫలితాలు ఎక్కువగా సాధించడానికై కొన్ని పాఠశాలలో
ఉపాధ్యాయలకు అదనపు పని (Over timee work) చేసినందుకుగాను అదనపు
ప్రతిఫలం కూడా ఇవ్వడం జరుగుతుంది. అత్యవసర పరిస్థితి కాలంలో ప్రతి
ప్రాథమిక, ఉన్నత పాఠశాలలో ఈ పర్౟వేక్షిత అధ్యయనం నిర్భంధం
చేయబడింది. ప్రాథమిక దశలో 5వ తరగతి వరకు దీనిని మరల
సడలించడం జరిగింది. విద్యార్థులు హాయిగా ఆటపాటలతో గడిపే సమయం
ఇటువంటి అధ్యయనానికి వినియోగించరాదు. వారికి వచ్చే సెలవు దినాలలో
ఉచితమైన వేళలలో మాత్రం ఇటువంటి కృషి జరిపించ఼వచ్చు.
 ఉపాధ్యాయ వ్యాసక్తులు, విద్యార్థి వ్యాసక్తులు
 భాషాబోధనలో ఉపాధ్యాయుడు సాధించవలసినది విద్యార్థి
ప్రవర్తనలో మార్పు (Behavioural change). వాచిక చర్యలోను,
పఠనంలోను, లిఖితచర్యలోను, విద్యార్థి సాధించవలసిన కౌశలాలు, సామర్థ్యాలు
ప్రణాళికలో నిర్దేశింపబడతవి. వాటిని అందుకోవడానికి తరగతి బోధన
లోను, పర్యవేక్షిత అధ్యయనం ద్వారాను, విద్యార్థి ఇంటివద్ద చేయవలసిన
-38-
పని (Home work) ద్వారాను కృషి జరగవలె. ఈ కృషి
ఉపాధ్యాయుడు, విద్యార్థి ఇద్దరూ చేయవలసినది. కేవలం తరగతిలో
సాంప్రదాయిక పద్ధతిలో జరిగే బోధన విన్నంతమాత్రాన విద్యార్థికి ఈ సామార్థ్యాలు
అలవడవు. చేసి నేర్చుకోవడం (Learning by doing) అవసరం,
శాస్త్రయం, సహజము. విని నేర్చుకోవడంలో ఎక్కువ ప్రభావం (Effect)
ఉండదు. అందువల్ల నేటి మూల్యాంకనవిధానంలో, ఉపాధ్యాయ విధ్యార్థి
కార్యకలాపాలు (Teacher pupil Activities) అనే అంశాన్ని
ప్రధానంగా పేర్కొనడం జరుగుతున్నది. ఉత్తమ బోధనాపద్ధతికి నిదర్శనం
అనర్గళంగా తరగతిలో విద్యార్థులను తమ ఉపన్యాసంతో మంత్రముగ్దులను
చేయడం కాదు. విద్యార్థుల మనసులలో ఎంతవరకు నూతన విషయాలు
ప్రవేశిస్తున్నాయో కనిపెడుతూ క్రమక్రమంగా వారిలో మార్పు
తీసుకొనిరావలె.
 విద్యాక్థులను మధ్యమధ్యలో ప్రశ్నించడం, వాళ్లచే చదివించడం,
వాళ్లతో సంభాషించడం, చర్చలు జరపడం, సందేహాలు తీర్చడం,
క్లష్టమైన అంశాలను వివిరించడం- ఇటువంటి కృత్యాలు అనేకం,
సందర్భానుసారంగా జరగవలసి ఉన్నవి. విద్యార్థులు ఉపాధ్యాయు డడిగే ప్రశ్నలకు
సమాధానాలు ఇవ్వడమే విద్యార్థులకు తమ సందేహాలను ప్రశ్నలద్వరా
అడిగి తీర్చుకొనే అవకాశం కల్పించవలె. ఇటువంటి వాతావరణం
ఉపాధ్యాయుడు తరగతిలో సృష్టించవలె. ఈ దృష్టితో పరిశీలిస్తే
ఉపాధ్యాయుని కృత్యాలు స్థూలంగా ఇట్లా విభజించవచ్చు.
 1. విద్యార్థులతో సంభాష఼ణ జరపడం.
 2. వివిధ బోధన దశలలో ప్రశ్నలు అడగడం.
 3. అవసరమైన సందర్భాలలో ఉపన్యసించడం, కధాకథనం
 చేయడం.
 4. వివరణద్వారా క్లిష్టమైన విషయాలను విశదీకరించడం.
 5. ఆదర్శ పఠనం ద్వారా పద్య గద్య నాటకాదులను చదివే పద్ధతి
 ప్రదర్శించడం.
-39-
 6. నల్లబల్లపై లిఖితచర్య జరపడం, పాఠంలోని ముఖ్యాంశాలను
 బోర్డుపై వ్రాయడం ప్రతి బోధన దశలోను జరగవలె.
 7. బోధనోపకరణాలు తయారుచేయడం, ఉపయోగించడం.
 8. విహారయాత్రలకు (Excursions) విద్యార్థులను తీసుకొని
 వెళ్ళడం.
 9. నియోజనాలు(Assignments) ఇ఼ఇవ్వడం, చేసినవాటిని
పరిశీ లించడం.
 10. పరీక్షలు జరపడం (యూనిట్ పరీక్షా పత్రాలు తయారు
 చేయడం, పరీక్షలు నిర్వహించ఼డం).
 11. మూల్యాంకనం చేయడం.
 12. లోపనివారణ కృషి జరపడం (Remedial work).
 13. పర్యవేక్షిత అధ్యయనం (supervised study) జరిపించడం.
 ఇక విద్యార్థుల఼ కృత్యాలు (Pupuls activities) ఈ విధంగా
 ఉంటవి.
 1. ఉపాధ్యాయుడు తమ఼తో జరిపే సంభాషణలో పాల్గొనడం.
 2. బోధన సమయంలో అధ్యాపకుడడిగే ప్రశ్నలు
సమాధానా లీయడం.
 3. ఉపన్యాసాలు, బోధన వినడం.
 4. ఆదర్శ పఠనాన్ని (Model reading) విని, గమనించి తాము
 చదవడం.
 5. తమ సందేహాలను ప్రశనలద్వారా ఉపాధ్యాయుని అడగడం.
 6. తరగతి బోధన సమయంలో నోట్సు (Notes) వ్రాసుకోవడం.
 7. నియోజనాలు (Assignments) పూర్తి చేయడం.
 8. విహారయాత్రలకు వెళ్లి అక్కడి స్థలాల఼ను, విష఼యాలను శ్రద్ధతో
 పరీశీలించడం.
 9. తోడి విద్యార్థులలోని మంచిగుణాలను గ్రహించి అనుకరించడం.
 10. పర్యవేక్షిత అధ్యయనం చేయడం.
 పై కృత్యాలన్నీ ఉపాధ్యాయ, విద్యార్థుల ఉభయ ప్రమేయం
కలిగినవేకాని ప్రత్యేకించి ఒకరి పరంగా చెప్పడానికి వీలులేదు. బాహ్య
దృష్టితో ఎవరి కృత్యాలు వారివిగా విభజించడమైనది.
-40- బోధన సామగ్రి
 ఏపని చేయడానికైన ఒక లక్ష్యము. ఆ లక్ష్యాన్ని అందుకోవడానికి
ఒక పద్ధతి. అందుకవసరమైన సామాగ్రి (Material) ఆవశ్యకాలు. బోధన
జరిపే వ్యక్తి ఉపాధ్యాయుడు. లక్ష్యాలు వెనుకటి అధ్యాయాలలో
వివరించడం జరిగింది. వ్యక్తిగతంగాను సాంఘీకంగాను, సాంస్కృతికంగాను,
సమగ్రమైన అభివృద్ధిని సాధించడానికి కావలసిన భాషాసామర్థ్యం
విద్యార్థికి కలగజేయడమే లక్ష్యము. కాగా ఈ లక్ష్యాన్ని ఉపాధ్యాయుడు
సాధించడానికి కొంత సామాగ్రి కూడా తప్పనిసరిగా ఉండవలె.ఈ సామాగ్రిని
మూడు రకాలుగా విభజించవచ్చు.
 1. పుస్తకాలు: వాచకాలు (Text books), పరామర్శ
గ్రం ధాలు (Referene books).
 2. యాంత్రిక సాధనాలు (Mechanical aids).
 3. తరగతి సామగ్రి (Class-room equipment).
 బాషాబోధనలో అవసరమైన పాఠ్యపుస్తకాలు, మూలగ్రంథాలు,
శబ్దకోశాలు, పరామర్శ గ్రంథాలు (Reference books) మొదటి
రకానికి చెందినవి. రెడియో. టెలివిజన్, గ్రామఫోన్, టేప్ రికార్డర్,
మాజిక్ లాంతరు (Magic lantern), ఎపిడయాస్కోపు
(Epiidiascope) రెండవ శ్రేణికి చెందుతవి. నల్లబల్ల, డస్టర్, సుద్దముక్కలు,
పాయింటర్ (Pointer), గది కిటికీ వగైరాలు మూడవ రకానికి
చెందుతవి. ఇవిగాక చార్టులు (Charts), ఆల్బంలు (Albums), ఇతర
ఉపకరణాలు కొన్ని ఉపాధ్యాయుడు తయారుచేసుకొంటాడు. తాను
బోధించవలసిని పాఠ్యాంశాలనుబట్టి ఈ ఉపకరణాల స్వభావం మారుతూ
ఉంటుంది. గ్రంథాల఼కు సంబంధించినంతవరకు, బోధన సామాగ్రిని
`ఇన్స్ట్రక్షనల్ మెటిరియల్' (Instructional meterial) అనవచ్చు.
నూతన మూల్యాంకన విధానం (New evaluation policy) లో
ఈ పేరు ఎక్కువగా ప్రచారంలో ఉంది.
 కొన్నాళ్ళకిందట `అమెరికన్ పీస్ కొర్' (American peace
core) కార్యక్రమం కింద మన రాష్టంలో కొందరు అమెరికన్లు
ఉపాధ్యాయులుగా, పాఠశాలలలో `వర్క్ షాప్ అసిస్టెంట్్లు' (workshop
-41-
assistants)గా పనిచేసినారు. వాళ్లలో ఒక వర్గంవారు ఒక జిల్లాలో
18 నెలలు పనిచేసి పోతూపోతూ మన పాఠశాలలు పనిచేసే విధానాన్ని
గురించి ప్రస్తావిస్తూ తాము చూసిన పాఠశాలలలో ఒక్క ఉపాధ్యాయుడు
కూడా ఉపకరణాలు బోధనా సమయంలో వాడటంలేదని, అసలు అట్లా
ఉపకరణాలు వాడవలెననే ఇచ్ఛకూడా ఉన్నట్లు కనిపించడం
చెప్పినారు ఇది ఆ ఒక్క జిల్లాకే కాక మనరాష్టంలో అందరు
ఉపాధ్యాయులకు వర్తిస్తుంది. ఈరోజుకుకూడా నిజం చెప్పవలెనంటే పరికరాలను
(Aids) గురించి మన ఉపాధ్యాయులకు తగిన నమ్మకము ఏర్పడటంలేదు
ఎవరికోసమో చేస్తున్నట్లుగా ఉంటుంది వీళ్ళ ఉపకరణాలు వ్యవహారం
చూస్తుంటే.
-43- 5 వాచిక చర్య
 `భాష' అంటే భాషించడం, మాట్లాడటం, వచించడం, పలకడం
చెప్పడం-ఇవన్నీ వాచిక చర్య (Oral work) కిందికి వచ్చే సమానార్థక
పదాలే. `వాచక చర్య' `వచ్' అనే సంస్కృతధాతువునుంచి ఏర్పడింది.
వచనము, వాక్కు, వాక్యము, వాఙ్మయము-వీటిన్నింటికీ `వచ్' ధాతువే
మూలము. భాషాబోధన వాచికచర్యతో ప్రారంభమౌతుంది. అంటే
భాషకు మూలం వాక్కు. అయితే ఈ వాక్కులో నైపుణ్యం
సాధించడానికి ఒక హద్దు అనేది లేదు. వాక్చాతుర్యం ఎంత సాధించినా ఇంకా
సాధించవలసింది ఉంటుంది.
 భాషాభ్యసనంలోగాని, బోధనలోగాని ప్రథమ సోపానం వాచిక
చర్య, పఠనం రెండవది, లేఖనం చివిరిమెట్టు. భాష నేర్పడంలో ఈ క్రమం
సహజమైనది. ఎందువల్లనంటే ఇతరులను అనుకరించి శిశువు మాట్లాడటం
నేర్చుకొంటాడు. ఇది చదవడంకంటె సులభమైనది. చదవడం, వ్రాతకంటె
సులభము. దీనికి కారణం సులభంగా గ్రహించవచ్చు. భాషించడంలో ఒక
వాగింద్రియంమాత్రమే పనిచేస్తుంది. చదవడంలో కన్ను, వాక్కు,
రెండింద్రియాలు పని చేయవలసి ఉంది. వ్రాతలో వాక్కు, కన్ను, చేయి
(వ్రేళ్లుకండరాలు) మూడురకాల ఇంద్రియాల ప్రమేయంముంటుంది. సులభమైన
విషయం ద్వారా కష్టమైన విషయం నేర్చుకోవడమనేది విద్యాసూత్రాలలో
ప్రధానమైనది. ఈ దృష్టితో చూస్తే భాషావ్యాపారాలలో అన్నింటి కంటె
సులభమైన వ్యాపారం వాచికచర్య, కాబట్టి విద్యాలయంలో కొత్తగా
ప్రవేశించిన విద్యార్థికి మాతృభాషాబోధన వాచికచర్యతో ప్రారంభం
కావలె.
 పాఠశాలలో ప్రవేశించే సరికి విద్యార్థికి ఐదు సంవత్సరాల వయసు
-43-
ఉంటుంది. అప్పటికే ధారాళంగా మాట్లాడగలశక్తి అలవడి ఉంటుంది.
నిత్యవ్యవహారంలో ఆహారం, క్రీడలు, ఇల్లు, పరిసరాలు, పెంపుడు
జంతువులు మొదలైన వాటికి సంబంభించిన మాటలు, వాక్యాలు, ధారాళంగా
మాట్లాడగలిగి ఉంటాడు. ఈ వాచిక సామర్థ్యాన్ని ఆధారం చేసుకొని ఒక
ప్రణాళికప్రకారం, భాషాజ్ఞానం కలిగించవలె. జీవితంలో ఆదర్శపౌరుడుగా
తయారు కావడానికి అవసరమైన భాషాజ్ఞానం విద్యార్థికి కలిగించవలసి
ఉంటుంది. `వాచిక చర్య' అంటే ఒకవ్యక్తి తనతో తాను
మాట్లాడుకోవడం కాదు. ఎదుటి వారితో మాట్లాడటం అన్నమాట. ఇతరులతో
మాట్లాడటంలో శ్రవణం (Listening)అనే వ్యాపారం తప్పని సరి
అవుతుంది. ఇతరులు మాట్లాడేది వినకుండా తాను వాచిక చర్య చేయలేడు.
అందువల్ల శ్రవణం అనే ప్రక్రియ వాచికచర్యకంటె ముందుగా వ్యక్తికి
అలవడే సామర్థ్యము, శ్రవణ, భాషణ, పఠన లేఖన సామర్థ్యాలు
నాలుగింటిలో మొదటిదైన శ్రవణంలో తగిన శిక్షణ ఇంటివద్ద పొందిన తరవాతనే
శిశువు బడికి రావడం జరుగుతుంది. ఇందువల్ల, వాచికచర్యను భాషా
బోధనలో మొదటి సోపానంగా పరిగణించడం జరుగుతున్నది.
 ప్రారంభంలో మొదటి తరగతిలో విద్యార్థి ప్రవేశించగానే అతనికి
అక్షరాలు దిద్దపెట్టి నోరు తెరవకుండా అర్థంగాని అక్షరాలను దిద్దించే
ఆచారం సాంప్రదాయికంగా ఇదివరలో ఉండేది. ఇది అశాస్త్రీయం,
అసహజం అని అధ్యాపనశాస్త్రం చెబుతుంది. నూతన పద్ధతులలో
విద్యాబోధన వాచికచర్యతో ప్రారంభంవలెనని అంగీకరించడం జరిగింది.
అయినా, పల్లెల్లోనూ, పట్టణాలలోనూ, ప్రాథమికపాఠశాలలలో నేటికి
ఈ పద్ధతి పోలేదు. కారణాలు అనేకం ఉండవచ్చు. ఉపాధ్యాయునికి
శాస్త్రీయ దృష్టి, చిత్తశుద్ధి, పట్టుదల ఉంటే భాషాబోధన వాచికచర్యతో
ప్రారంభంచేయడం కష్టంకాదు. కాగా, తనపని సులభమై, శీఘ్రంగా
సత్ఫలితాలు పొందవచ్చు.
 వాచికచర్యకు తగిన అంశాలు
 ` తెలిసిన విషయం ద్వారా తెలియని విషయాన్ని పరిచయం
చేయవలె' అనే విద్యా సూత్రాన్నిబట్టి బాల బాలికలకు సుపరిచితాలైన
వస్తువులు, వ్యక్తులు, జంతువులు, పక్షులు, ఆహార పదార్థాలు, స్థలాలు,
-44-
రంగులు, రుచులు, వాసనలు, బంధుత్వం మొదలైన విషయాలు ఆధారంగా
చేసుకొని విద్యార్థులతో చనువుగా, ఆప్యాయంగా, సంతోషంగా,
సంభాషించవలె. సమవయస్కులతో ఆడుకొంటూ మాట్లాడేటంత చనువుగా
ఉపాధ్యాయునితో పిల్లలు సంభాషించలేరు. సిగ్గు, బిడియము, భయం,
సంకోచం వారిలో సహజంగా ఉంటవి. వీటిని తొలగించడానికి వారికి
సన్నిహితంగా మెలుగుతూ వారి అన్నలు, అక్కలు, స్నేహితులు ఏ విధంగా
వారితో కలసిపోతూ ఉంటారో అంత ఆత్మీయంగా ఉంటూ ప్రేమ,
వాత్సల్యం చూపిస్తూ వారితో వాచికచర్య జరపవలె. అప్పడు వాళ్లలో
ఇమిడి ఉన్న వాచిక సామర్థ్యం వెలువడుతుంది. దానిని ఆధారం
చేసుకొని ఒక క్రమపద్ధతిలో భాషణసామర్థ్యాన్ని అభివృద్ధి చేయవచ్చు.
వాచికచర్యలో శిక్షణ ఇచ్చేటప్పుడు నాలుగురకాల సామర్థ్యం వాళ్లలో
కలుగుతుంది.
 1. నూతన శబ్దపరిచయము
 2. విషయ పరిచయము
 3. ఉచ్చారణ దక్షత
 4. భావప్రకటనా కౌశలము
 పిల్లలకు తిండి, ఆటలు అంటే సహజంగా ఇష్టము, వాళ్లతో ఈ
విషయాలపై మొదట వాచికచర్య ప్రారంభం కావలె. తినుబండారాలకు
ఉపయోగించే వివిధ ధాన్యపుగింజలు, పప్పులు, కాయలు, నూనెగింజలు,
చమురులు. సుగంధద్రవ్యాలు -వీటినిగురించి సంభాషణ జరిపితే అనేక
నూతన పదాలు (నామవాచకాలు, క్రియలు, విభక్తులు), అనేక
వాక్యరీతులు సులభంగా పరిచయం చేయవచ్చు. శాకాహారం, మాంసాహారం
అనే విభజన తెలియజేయవచ్చు. అనేక కూరగాయల పేర్లు, ఆకుకూరల
పేర్లు, పండ్లచెట్ల పేర్లు పరిచయం చేయవచ్చు. దీనితో విద్యార్థి శబ్దజాలం
(vocabulary), వాక్సామర్థ్యం, విషయజ్ఞానం పెరుగుతాయి.
ఆటలాడించేడప్పుడు కూడా అనేక పదాలు ఉపయోగించడం జరుగుతుంది.
ఆట నియమాలకు సంబంధించి తరగతి పిల్లలతో సంభాషించి చిన్నచిన్న
వాక్యాలతో చక్కని వాచికచర్య జరప఼వచ్చు. కొన్నినెలలపాటు
వాచకము (Text book) వాడకుండా అందులోని విశయాలను అన్నింటిని
వాచిక చర్యలద్వారా విద్యార్థులకు పరిచయం చేయవచ్చు. క్రీడావిధానంలో
-45-
విద్యార్థుల భాషాజ్ఞానం, విషయజ్ఞానం, ఆత్మవిశ్వాసం పెంపొందించడానికి
భాషాపరమైన అంశాలను సాధనాలుగా చేసుకోవచ్చు. వీటిలో
ప్రధానమైనది కథాకథనము (story telling), అభినయ గీతాలు
(Actionsongs), బాలగేయాలు (Nursery rhymer), నాటకీకరణము
(Dramastisation) మూడవ తరగతివరకు ఎక్కువగా ఉపకర్తిస్తవి.
ఉక్తరచన (Oral composition), వక్తృత్వశిక్ణణ (Elocution-
training) మాత్రం నాలుగైదు తరగతిలో ప్రవేశపెట్టవచ్చు. తక్కిన
వన్నీ 1 నుండి 4వ తరగతివరకు సాధనాలుగా ఉపయోగించవచ్చు.
 కథాకథనము
 కథలంటే ఇష్టంలేనివారెరూ ఉండరు. ఆబాలగోపాలం కథలంటే
చెవికోసుకొంటారు. చిన్నపిల్లలు, పెద్దవాళ్ను కథలు చెప్పమని అడుగుతూ
ఉంటారు. ఎంత఼సేపు విన్నా కథలు వాళ్ళకు విసుగు కలిగించవు. వృద్ధులు
కూడా ఓపిక చేసుకొని హరికథా కాలక్షేపాల఼కు హాజరై వింటూ
ఉంటారు. ఇది మానవజీవితంలో ఒక సహజాతంవ఼లె కనిపిస్తుంది.
మహాకవులు కూడా కథాకథ఼న కౌశలాన్ని ప్రధానంగా భావించి, కావ్యాలను,
ఇతిహాసాలను రచించేటప్పుడు కథాగమనాన్ని ధారాళంగా అనర్గళంగా
నడిపించడానికి ప్రయత్నించినారు. చిన్నపిల్లలు కథలు వినేటప్పుడు
ఉత్సాహం, ఉల్లాసం, ధైర్యం, జాలి, ఆశ్చర్యం, పశ్చాత్తాపం, అసహ్యం,
ఆత్మవిశ్వాసం, భయం-వీటన్నంటికి సంబంధిచిన ఉద్వేగాలు(Emotions)
కలుగుతూ ఉంటాయి. ఇవి వారి భావిజీవితంలో కావలసిన శారీరక,
మానసిక, సాంస్కృతిక వికాసానికి పునాదులవుతవి. శరీరంలోను,
మెదడులోను వివిధ రసగ్రంథులు విడివిడి మూర్తిమత్వ వికాసం కలుగుతుంది.
ఉపాధ్యాయుడు కథ చెప్పేటప్పుడు, ఉత్సాహంతో చెప్పకపోయినట్లయితే
విద్యార్థులు నిరుత్సాహులై ఆశించిన మూర్తిమత్వ వికాసం పొందలేరు.
కాబట్టి ఉపాద్౟ాయుని సామర్థ్యం, చిత్తశుద్ధి ఇక్కడ చాలా ముఖ్యము.
కథాకథనం ఏకపాత్రాభినయం వంటిది. కథలోని పాత్రల
సంభాషణనన్నింటిని ఒక్క కథకుడే జరిపి, అభినయ పూర్వకంగా చెప్పవలె.
ఆదర్శప్రాయంగా వ్రాయబడిన కొన్ని కథలను చక్కగా చదివి ఉపాధ్యాయుడు
కథాకథనంలో దక్షత సంపాదించవలె.
-46-
 పిల్లలకు బాలవీరుల కథలు, బాలభక్తుల కథలపట్ల ప్రీతి ఎక్కువ.
ధ్రువుడు, మార్కండేయుడు, ప్రహ్లాదుడు మొదలైన బాలభక్తులనుగురించీ,
అభిమన్యుడు, వికర్ణుడు, బాలచంద్రుడు వంటి బాలవీరులను గురించీ కథలు
చెప్పవలె. మహాపురుషులైన లింకన్, గాంధీజి,
వివేకనంద,రవీంద్రనాథ్ఠాకూర్్ల వంటి మహాత్ముల బాల్యాన్నిగూర్చి కొన్ని ఘట్టాలు కథలుగా
వినిపించవలె. విటివల్ల వారిలో ధైర్యం, విషయం, నైతికబలం
బాల్యంలోనే అలవడి ఆదర్శ జీవితానికి దోహదమిస్తాయి.
 వాచికచర్యకు జీవితంలోగల ప్రాధాన్యాన్ని గమనించడం ఎంతైనా
అవసరము. సంఘజీవనంలోగాని, జీవనోపాధిరంగాలలోగాని, సాంస్కృతిక
రంగంలోగాని చక్కని బాషణకౌశలం లేనిదే రాణించడం కష్టము ఎంత
క్లిష్టమైన విషయాన్నైనా మాటనేర్పుకలిగినవారు. పండు ఒలచి చేతిలో
పెట్టినట్లు స్పష్టంగా వివిరించగలుగుతారు. దానితో పనిసాధించడం తేలిక
అవుతుంది. `వాగ్భూషణమే సుభూషణము' అనే సుభాషితం అందరికీ
పరిచయమైనదే. కార్యసాధకులకు ఈ వాక్సామర్థ్యం ఎంతైనా అవసరము.
`సంజయ రాయబారం' `కృష్ణ రాయబారం' `అంగద రాయబారం',
`హనుసత్సందేశం' మొదలైన పురాణ ఘట్టాలు ఈ వాచిక సామర్థ్యంలో
ఉండే మహత్వాన్ని నిరూపిస్తాయి. అనేకులు విద్యాధికులు ఎంతో
పాండిత్యం సంపాదించినా ఈ వాక్సామర్థ్యం లోపించినందువల్ల రాణించలేక
పోతుంటారు. కొందరు చిన్నపిల్లలలో సభాకంపము ఎక్కువగా కనిపిస్తుంది.
దీనికి అనేక కారణాలుండవచ్చు. జాన్ ఎర్ల్ (John Earle) అనే
విద్యావేత్త వాచికచర్యలో ఉండే క్లేశాన్ని ఈ విధంగా వివరించినాడు.
 "విద్యార్థికి నోటిమాట పలకవలెనంటే ఒక యజ్ఞంగా ఉంటుంది.
నాలుక తనను ఎక్కడ మోసం చేస్తుందో అని నోరు తెరవడానికి
సందేహిస్తుంటాడు".
-47-
 పై ప్రవచనం (Statement) లో ఎంతో సత్యముంది. చదవడం,
వ్రాయడం ఎంతైనా చేస్తారు. కాని సొంతంగా నాలుగు మాటలు
మాట్లాడమంటే విద్యార్థులు జంకుతారు. దీనికి కారణం, తరగతులలో
భావప్రకటనకు తగినంత అవకాశం కల్పించకపోవడమే, సామర్థ్యం తగినంతగా
సంపాదించినామని విద్యార్థులలో ఆత్మవిశ్వాసం ఉంటే ధైర్యంతో
మాట్లాడటానికి ముందుకు వస్తారు. తరగతిలో బోధించే సమయంలో పిల్లల పాత్ర
ఎక్కువగాను, ఉపాధ్యాయుని ప్రమేయం సూచనప్రాయంగానూ ఉంటే
విద్యార్థులలో ఈ చైతన్యం కలుగుతుంది. `మనం అనుకొన్న ఆలోచనకు
దానిని ప్రకటించడానికి వాడే మాటలు చాలునా, చాలవా అనే సందేహం
విద్యార్థిలో కలుగుతుంది. ఈ సందేహాలు, సంకోచాలు, తొలగించేటందుకు
ఉపాధ్యాయుడు, వారిని తరుచు మాట్లాడటానికి ప్రోత్సాహించవలె. ఎన్నో
కథలు విద్యార్థులు వింటూ ఉంటారు. వాటిని గురించిన ప్రశ్నలు
అడగవచ్చు. విద్యార్థులచో కథలుచెప్పించవచ్చు. కథలలోని నీతులను వారినుండి
రాబట్టవచ్చు. బాలబాలికల స్వభావాలను కథలలోని పాత్రలతో పోల్చి
చెప్పించవచ్చు. కథను మరొక విధంగా మార్పించవచ్చు. అసంపూర్ణంగా
ఉండే కథను పూర్తి చేయించవచ్చు. పిల్లలచేత సొంతంగా కథలు
చెప్పించవచ్చు. పొడుపుకథలు, హాస్య కథలు, యక్షిణికథలు, చారిత్రక కథలు,
అద్భుతకథలు, వీరగాథలు-ఎన్నో రకాలైన కథలను వినిపించి వారికి
తగినంత భాషాజ్ఞానాన్ని కలిగించి దానిని వాచికశక్తిగా మార్చవచ్చు.
 కథచెప్పేటప్పుడు ఉపాధ్యాయుడు అభినయ పూర్వకంగా చెప్పవలె.
విద్యార్థులలో వాచికాభినయం, ఆంగికాభినయం (అవయవాల కదలిక)
ద్వారా కథ, కథకు సంబంధించిన భాష, మనసులో చక్కగా
హత్తుకొనేటట్లు చేయవలె. కథకు సంబంధించిన చిత్రాలు, ఆల్బమ్్లు,
చూపించినట్లయితే విషయాలన్నీ గాఢంగా మనసులో నిలుస్తాయి. ధైర్యం,విషాదం
ఆశ్చర్యం, ఆనందం మొదలైన భావాలున్న కథా ఘట్టాలలో పదాలను,
వాక్యాలను, పలికే తీరులో కంఠస్విరంలో చేసే మార్పులను
`వాచికాభినయం' అంటారు ప్రశ్నించేటప్పుడు, ఆశ్చర్యం ప్రకటించేటప్పుడు,
సమాధానం చెప్పటప్పుడు, ఒకేవిధంగా కంఠస్వరం ఉపయోగించరుగదా!
 ఏ భావానికి తగిన వాచికవైఖరి ఆ భావానిక఼ి ఉండవలె. ఉపాధ్యాయుని
కథా కథనం విన్న విద్యార్థులచేత తరగతి గదిలో అందరు విద్యార్థుల
-48-
ఎదుట కథలు చెప్పించవలె. ఈ పనిలో వెనకంజవేసే విద్యార్థుల పట్ల
జాగ్రత్తతో వ్యవహరించ వలె. మొదట వారిని ప్రశ్నల ద్వారా కథా
వస్తువునంతటినీ చెప్పేటట్లు చేసి తరవాత కథగా చెప్పించవలె. అప్పుడు
వారికి కథచెప్పడం సులభమైన పనిగా తోస్తుంది. వారిలో ఆత్మవిశ్వాసం
కుదురుతుంది. వారిలో జంకు వదలకుండా ఉందని తెలిసినప్పుడు
ఉపాధ్యాయుడు వారిని తరగతిలో అందరిముందు నిలబెట్టి అసమర్థులుగా
నిరూపించరాదు. దీనివల్ల వారిలో శాశ్వతంగా పిరికితనం నిలిచిపోతుంది.
ప్రాథమిక విద్యాదశలోనే వాచిక చర్యా సామర్థ్యానికి, గట్టి పునాదులు
వేయవలె. బొమ్మల రామాయణం, భారతం, భాగవతం వంటి కథల
పుస్తకాలను ఈ దృష్టిలో వాడుకోవచ్చు. అందులోని బొమ్మలను
`ఎపిడియాస్కోప్' ద్వారా విద్యార్థులకు ప్రదర్శిస్తూ వివిధఘట్టాలను వివరిస్తూ కథా
కథనం సాగించ఼వచ్చు.
 కథలు, వాటి కథనము, విద్యాభ్యాసంలో ఒక్కొక్క స్థానం
ఆక్రమిస్తాయి.
 1. ప్రాథమిక దశలో కథలు ప్రణాళిక఼ాంతర్భాగాలుగా ఉంటాయి.
 2. మాధ్యమిక దశలో కథలు నీతి ప్రబోధకాలుగా ఉపయోగ
 పడతాయి.
 3. ఉన్నత ధశలో కథలు బోధనా విధానంలో ఒక టెక్నిక్
 (Technique) గా ఉపయోగపడతాయి. విద్యార్థులలో కథా
 శ్రవణము, పఠనము, సృజనాత్మక శక్తులకు దోహదం చేస్తాయి.
 నాటకీ కరణము
 కథలు చెప్పేటప్పుడు వివిధ పాత్రల సజీవ సంభాషణలను
ఉపాధ్యయుడు అభినయం ద్వారా ప్రదర్శిస్తాడు. అను సంధాన వాక్యాలు
(Linking sentences) తొలగించి చదివితే కథ ఒక సంభాషణ వలె
కనపడుతుంది. ఈ సంభాషణ ఒక్కరే చేయక ఒక్కొక్కపాత్ర ఒక్కొక్క
విద్యార్థి ధరించినట్లయితే అది `నాటకీకరణ' మవుతుంది. కాబట్టి కథలను
`నాటకాలుగా మార్చి విద్యార్థులచే ప్రదర్శింపజేయడం `వాచికచర్యకు'
మరొక చక్కని సాధనము.
-49-
 బాలబాలికలు నాటకాలు, చలనచిత్రాలు చూడటంలో
చూపించినంత ఉత్సాహం మరి దేనిలోనూ చూపరు. దీనికి కారణం ఇందులో అనేక
కళలు కలిసి ఉండటమే, సంగీతము, చిత్రలేఖనము, వేషధారణ, శిల్పం, నటన,
మాటలు-ఇత్యాది అంశాలు కలిసి భిన్నరుచులు గలవారందరికీ
మనోరంజ఼కంగా ప్రదర్శించబడుతుంది. కాని, తరగతిగదిలో ఈ కళలన్నింటికీ
అవకాశం ఉండదు. వాచికాభినయం, అంగీకాభినయం మాత్రం సాధ్యమౌతవి.
వాచక పుస్తాకాల (Text books) లో కొన్ని పాఠ్యభాగాలు
నాటకీకరణం చేయబడి ఉంటవి. అవేగాక కొన్ని ఇతర కథలను, ఘట్టాలను
నాటకీకరించి విద్యార్థులచేత పాఠశాల సమావేశాలోగాని, వార్షికోత్సవ
సందర్భాలలోగాని ప్రదర్శించవచ్చు. ఎక్కువగా చరిత్రకు, భాషకు
సంభంధించిన పాఠ్యాంశాలే నాటకీకరణానికి అనువుగా ఉంటవి. ఇతర
విషయాలు ఈ ప్రక్రియకు తగవు. మ఼హాపురుషుల జీవితాలలోనుండి కొన్ని
ఘట్టాలను, చరిత్రనుండి కొన్ని సందర్భాలను, పౌరాణిక కథలనుండి కొన్ని
ఉపాభ్యానాలను నాటకీకరింపజేయవిచ్చు. ఈ ప్రక్రియపట్ల అభిరుచి పెంచ
డానికి అప్పుడప్పుడు విద్యావిషయకాలైన చలనచిత్రాలు (Documenta-
ries) పాఠశాలలో ప్రదర్శించవచ్చు. నేర్పిన కథలను, విషయాలను,
చిన్న చిన్న సంభాషణల (diologues) రూపంలో పిల్లలచే
వ్రాయించవచ్చు; ప్రదర్శించవచ్చు. కేవలం వచనరూపంలోనే ఈ నాటకీకరణం
ఉండవలసిన అవసరం లేదు. పద్యరూపంలోగాని, గేయరూపంలోగాని
ఉండవచ్చు.
 ఉదాహరణకు ` లవకుశ' సినిమాలో ఒక పద్యముంది.
అశ్వమేథాశ్వాన్ని వదలిపెట్టవలసిందని శ్రీరాముడు లవకుశలను హెచ్చరించడమూ,
దీనికి లవకుశల సమాధానం ఈ కింది పద్యంలో చూడవచ్చు:
 "శ్రీరాముడు: స్త్రీబాలవృద్ధుల తెగవేయబూనుట
 పాడిగాదని పెనుకాడుచుంటి
 కుశుడు: తాటక జంపులో ఏటికి ధర్మంబు
 తలపలేదో చెప్పగలవటయ్యా
 శ్రీరాముడు: ముక్కుపచ్చలారని మునికుమారుల చంప
 కూడదటంచు నే కొంకుచుంటి
 లవుడు: రిపులపై ఎవరైన కృప విహింతురటయ్య
 కొంకు గాదది మీకు జంకుగాని
 శ్రీరాముడు: చిన్నిపాపలు కడసారి చెప్పుచుంటి
 తురగమును వీడి రణభూమి తొలగిపొండు
 లవకుశలు: వారునమొకాదు మిముకూడా వదలమయ్య
 రణమో, శరణమో కోరుమా రామచంద్ర!"
 లవకుశల కథ అంటే పిల్లలకెంతో ప్రీతి. పై పద్యం శ్రీరాముడు
లవకుశలు మొత్తం ముగ్గురు పాత్రధారులచేత నాటకీకరింపజేస్తే ఎంతో
మనోహరంగా ఉంటుంది.
 ఉదాహరణకు గేయరూపంలో ఉన్న సంభాషణ ఒకటి:
మొదటి పిల్లవాడు: ఎండలు కాసేదెందుకురా?
రెండవవాడు: వానలు కురిసేటందుకురా.
 మొదటి: వానలు కురిసేదెందుకురా?
 రండవ: చెరువులు నిండేటందుకురా.
 మొదటి: చెరువులు నిండేదెందుకురా?
 రెండవ: పంటలు పండేటందుకురా.
 మొదటి: పంటలు పండేదెందుకురా?
 రెండవ: ప్రజలు బ్రతికేటందుకురా.
 మొదటి: ప్రజలు బ్రతికేదెందుకురా?
 రెండవ: దేవుని కొలిచేటందుకురా
 పై గేయ సంభాషణలో ప్రకృతిసత్యం మొదలుకొని జీవిత
పరమార్థం వరకు ఇమిడిఉన్న వాస్తవాన్ని క్రీడామార్గంలో ఆడుతూపాడుతూ
పిల్లలు ఆకళింపు చేసుకొంటారు.
 గొలుసు మాటల రూపంలో ఉన్న మరొక సంభాషణ
గమనించవచ్చు:
 ఒకడు:నీవు తినేదేమిటి?
 రెండవవాడు: కోవా.
 ఒకడు: ఏమికోవా?
 రెండవ:పాలకోవా
-51-
 ఒకడు: ఏమి పాలు?
 రెండవ:బఱ్ఱెపాలు.
 ఒకడు: ఏమి బఱ్ఱె?
 రెండవ:ఢిల్లీ బఱ్రె.
 ఒకడు: ఏమి ఢిల్లీ?
 రెండవ: కొత్త ఢిల్లీ.
 ఒకడు: ఏమి కొత్త?
 రెండవ: సరికొత్త.
 ఒకడు: ఏమి సరి?
 రెండవ: సరాసరి.
 ఒకడు: ఏమి సరా?
 రెండవ: దసరా.
 పై విధంగా పిల్లల భాషాజ్ఞానాన్ని, వాచిక సామర్థ్యాన్ని తోడు
తోడుగా అభివృద్ధి చేస్తూ పోవలె.
 శిశు గేయాలు, అభినయ గేయాలు
 శబ్దలాలిత్యం, లయ గేయాల కుండవలసిన లక్షణాలు, శిశువులకు
జోలపాట విన్నప్పుడు త్వరగా నిద్రపడుతుంది. దీనితో వారికి హాయి
కలుగుతుంది. శ్రుతిమధురం గాను, లయబద్ధంగాను ఉన్న పాటలలో అర్థం
తెలియకపోయినా, ఆనందించే స్వభావం పసితనంలో ఎక్కువగా ఉంటుంది.
అందుకే తల్లులు పిల్లలకు జోలపాటలు పాడి నిద్రపుచ్చుతారు. అన్నం
పెట్టేటప్పుడు `చందమామరావే-జాబిల్లిరావే' వంటి పాటలు పాడుతూ
తినిపిస్తారు. ఇటువంటి శిశుగేయాలు (Nursery rhymes) రెండురకాలు.
 1. పెద్దవాళ్ళు చిన్నపిల్లలను ఆడించడానికి, లాలించడానికి పాడేవి.
 2. పిల్లలు ఆడుకుంటూ తమంత తామే సామూహికంగా
పాడుకొంటూ ఉండేవి. శిశువులను బుజ్జగించడానికి, నవ్వించడానికి,
ఆడించడానికి ఈ కింది పాటలు ఎక్కువగా వినిపిస్తూఉంటవి:
 1. అప్పచ్చి బెట్టి, ఆయం బెట్టి
 పప్పుబెట్టి పాశం బెట్టి
-52-
 నెయ్యేసి, చోరోసి
 అత్తాగారింటికి పంపించేదెట్లాగంటే"..................
అంటూ అరచేతినుండి చంకలో వరకు చేయి దువ్వుతూ పోతే పిల్లలు
పక్కున నవ్వుతారు.
 2. బూచివాడా రార బుట్టల్లుకోరా
 బుట్టలో అబ్బాయిని వేసుకాపోరా
 ... ... ... ... ... ... ...
 3. చిలకలాడేనమ్మ హంసలాడేమా
 పావురాళ్లాడేను పాపాయితోనూ ......................
 4. హాయి వారింటికి ఆడుకోబోతే
 ఆరింటి పండ్లా గంప నెత్తికెత్తారూ....................
 బాలబాలికలు ఆడుకొనేటప్పుడు తాము స్వయంగా పాడుకొనేవీ.
 1. చెమ్మచెక్కా చారేడేసి మొగ్గ
 అట్లుపోయంగా, ఆరగించంగా.........................
 2. కాళ్ళాగజ్జె-కంకాళమ్మా
 వేగులచుక్కా-వెలగాపండూ
 కాల్దీసి కడగా బెట్టూ
 కంచీ కామాక్షమ్మా (ఆడపిల్లలు పాడుకొనేవి)
 3. చేతిలో వెన్నముద్ద
 చెంగల్వ పూదండ
 బంగారు మొలతాడు
 పట్టుధట్టి
 సందిట తాయెత్తులూ
 సరిమువ్వగజ్జెలూ
 చిన్ని కృష్ణమ్మా, చేరికొలుతూ (మగపిల్లలు పాడుకొనేవి)
 అభినయం ప్రధానంగా పాడే గేయాలను అభినయ గేయాలు
(Action songs) అంటారు. ప్రాథమిక విద఼్యాలయాల ఇవి ఎంత
ఎక్కువగా నేర్పితే విద్యార్థులు అంత విజ్ఞానవంతులై, భాషాకొశలం,
-53-
వాక్చాతుర్యం కలిగిన వారవుతారు. ఆకాశవాణి కార్యక్రమాలలో వివిధ
విద్యాదశలో (ప్రాథమిక తరగతులు) ఉండే పిల్లలు అనేక బాలగేయాలు,
అభి఩య గేయాలు పాడుతూ ఉంటారు. గేయ నాటికలుగూడా ప్రసారం
అవుతూ ఉంటాయి. వీటిని శిశువులకు తరచు వినిపిస్తూ ఉండవలె. అభినయ
గేయాలకు కొన్ని ఉదాహరణలు వేళ్ళ పేర్లు, సంఖ్య తెలియజేసే గేయం
ఒకటి:
 చిన్నది ఇదుకో చిటికెనవ్రేల్
 ఉన్నది ప్రక్కన ఉంగ్రపు వ్రేల్
 నడిమిది ఈ వ్రేల్ నాణెముగా
 పడునో పడదో చూపుడు వ్రేల్
 బొద్దుగ ఉన్నది బొట్టన వ్రేల్
 అద్ధిర అన్నియు ఐదు గదా
 ఇవి యైదవి యైదన్నీ పదీ
 ప఼దియును పదియును ఇరువదిగా
 సతతము మము దీవించుటకై
 పది వందనములు పంతులకు"
 ఈ గేయంలో వేళ్ళపేర్లు, కూడిక, పాటలో లాలిత్వం, గురు
వందనం-ఇన్ని అంశాలు సాధించడానికి వీలవుతుంది.
 కి.శే. చింతా దీక్షితులుగారు, బాలసాహిత్యంలో విశేష కృషి
చేసినవారు. రెండు దశాబ్ధాలకు పూర్వం వారి "లీలా వాచకాలు" బహుళ
ప్రచారంలో ఉండేవి. వారు రచించిన ఒక పాట రాట్నం తిప్పుతూ
పాడేది):
 "గిరగిర రాటము తిరగవలెన్
 చకచక దారము తీయవలెన్
 గిరగిర రాటము తిరిగేటప్పుడు
 కమ్మని పాటలు పాడవలెన్"
 ప్రాథమిక పాఠశాలోపాధ్యాయులు అప్పుడప్పుడు వారపత్రికల
లోను, విద్యాపత్రికలలోను వెలువడే బాలసాహిత్యం. చదువుతూ చక్కని
-54-
గేయాలను సేకరించి ఉంచుకొని, అవకాశమున్నంతవరకు విద్యార్థులకు
నేర్పవలె.
 ఉక్త రచన
 లోగడ కథలు, నాటకాలు, అభినయ గీతాలు, శిశుగీతాల
ద్వారా విద్యార్థి గడించే వాక్సామర్థ్యాన్ని వివరించడం జరిగింది.
అది ఎక్కువగా అనుకరణ ద్వారా ఉపాధ్యాయుని వద్ద నుండి గడించినదే.
విద్యార్థి తన సొంత మాట఼లలో అభిప్రాయాన్ని ప్రకటించడానికి
అవకాశాలు కల్పించవలసి ఉంది. చిలుకపలుకులు వలె పునరుక్తం ( Repeat)
చేయడం మాని సరళము ,స్పష్టమైన భాషలో వాగ్రచన (Oral
composition) చేయడానికి విద్యార్థికి సామర్థ్యం కలిగించవలె. దీనికి గూడా
ఒక క్రమ పద్ధతిని ఉపాధ్యాయుడు అనుసరించవలె.
 ప్రారంభంలో విద్యార్థుల చేత వారికి తెలిసిన కథలను తరగతిలో
అందరి ఎదుట చెప్పించవలె. క్రమేణ, తాము చూసిన స్థలాలను,
ప్రదర్శనాలను నలుగురి ముందు వర్ణించే అభ్యాసం చేయవలె. కొన్ని చిత్రాలను
విద్యార్థుల ఎదుట ఉంచి వాటిని వివరించే అభ్యాసం చేయవలె. ఒక
పద్యానికి సొంత మాటలలో భావం వ్యక్తం చేయించవచ్చు. ఒక పాత్ర
గుణగుణాలను వివరింపజేయవచ్చు. ఈ ఉక్తరచనా సామర్థ్యం
పెరగడానికి సారస్వత సమావేశాలు ప్రదానంగా దోహదం చేస్తాయి. ఈ
సమావేశాలకు కొందరు విద్యాధికులను ఆహ్వానించి వారిచే ఉపన్యాసాలు
ఇప్పించవచ్చు. పిల్లలు వంతుల ప్రకారం ఒక్కొక్క సమావేశంలో పాల్గొనేటట్లు
చేయవలె. నిర్భంధం ఏమాత్రం చేయరాదు. అభిరుచి కలిగించి వక్తలుగా
తయారయ్యేటట్లు చూడవలె వక్తృత్వపు పోటీలు ,(Elocution
contests) అప్పుడప్పుడు జరిపించవలె. ఇతర విద్యాలయాలలో జరిగే
వక్తృత్వపు పోటీలను చూసే అవకాశం కల్పించవలె. ఆ విద్యాలయాలలలో
బహుమతులు పొందిన విద్యార్థి వ్యక్తలను ఆహ్వానించి తమ
విద్యాలయాలలో ఉపన్యసింపజేయవలె. సమవయష్కుల ప్రతిభను గమనించిన
విద్యార్థులలో ఆత్మపరీక్ష కలుగుతుంది. తమలో నిగూఢమైన శక్తులను
వెలువరించడానికి శాయశక్తులా కృషిచేస్తారు. ఈ విధంగా వాచికచర్యను
-55-
వక్తృత్వ శక్తి వరకు వికసించడానికి లోగడ పేర్కొన్న పద్ధతులలో
ఉపాధ్యాయుడు కృషి చేయవలె.
 వాచిక చర్యలోని సామాన్య దోషాలు
 వాచిక చర్యను అలవడజేయడానికి, అభివృద్ధి చేయడానికి,
సాధనాలను లోగడ వివిరించడమైనది. వాచిక చర్యలో ఉండవలసిన గుణాలు
అనేకం ఉన్నవి. నిర్దుష్టమైన ఉచ్చారణ, భాషకు సహజమైన విరామం.
వాచికాభినియం. ఊనిక, ధార (Flow) వాచిక చర్యలో సాధించవలె.
దాషాల఼నెప్పటికప్పుడే ఉపాధ్యాయుడు సవరిస్తూ ఉండకపోతే ఉచ్చారణ
దోషాలు విద్యార్థిలో స్థిరపడిపోతవి. నిర్దుష్టమైన పఠనం, లేఖనం
అలవడవలెనంటే నిర్దుష్టమైన వాచిక చర్య అలవాటు కావలె. వాచిక చర్యలో
ఉచ్చారణకు ప్రాధాన్యం ఇవ్వివలె. ఉచ్చారణ అంటే వర్ణక్రమం ప్రకారం
పలకడం. తెలుగు భాషలో ఈ సౌకర్యం ఉంది. ఆంగ్లభాషలో Walking
అనే పదాన్ని `వాకింగ్' అని పలకవలె, `థ' అనే అక్షరానికి ఉచ్చారణలో
స్థానం లేదు. తెలుగులో వర్ణ క్రమాన్ని గుణింతం అంటారు. దీన్ననుసరించి
ఉచ్చారణ చేయవలె. ఇందువల్ల ఉచ్చారణ సౌకర్యం ఎక్కువ. అనేక
సంవత్సరాలు ఆంగ్లం నేర్చుకొన్న వారికైనా ఉచ్చారణలో సందేహాలు
వస్తూనే ఉంటవి. కాని తెలుగులో ఈ సామర్థ్యం కొద్ది కాలంలోనే
సాధించవచ్చు. అయినా విద్యార్థి దశలో ఉచ్చారణ దోషాలు కనబడుతూ
ఉంటవి. దీనికి కారణాలు:
 1.వాగింద్రియంలోని అపరిపక్వత (Immaturity of vocal
system)
 2. అవయవ లోపాలు (Organic defects)
 3. పరిసర ప్రభావము (Influence of surroundings)
 4. అశ్రద్ధ (Indifference or negligence)
 అనుకరణచేత, అభ్యాసంచేత వాగింద్రియం పరిపక్వతను సాధిస్తుంది.
వయసు పెరిగే కొద్దీ, అనుకరణ సామర్థ్యం ఎక్కువై ఉచ్చారణ దక్షత
పెరుగుతుంది. శిక్షణ (Training) సరిగా లేనట్లయితే ప్రాథమిక దశలో
సామర్థ్యాలు చేసే దోషాలు వయసు పెరిగినా తొలగవు. దీనికి
ఉపాధ్యా-56-
యుడు తరగతి గదిలో కృషిచేస్తాడు. ఉపాద్౟ాయుని ఉచ్చారణనే
విద్యార్థులు ఎక్కువగా అనుకరిస్తారు. కాబట్టి ఉపాధ్యాయుడు తన ఉచ్చారణ
నిర్దుష్టంగా ఉండేటట్లు చూసుకోవలె. విస్తారంగా పద్యాలను, గేయాలను,
పిల్లలచేత పలికిస్తూ ఉంటే త్వరగా ఉచ్చారణ శక్తి చేకూరుతుంది. క్రమంగా
వాగింద్రియానికి పరిపక్వత కలుగుతుంది. కొందరు విద్యార్థులలో
పుట్టుకతోనే నత్తి, ముక్కు మాటలువంటి లోపాలు కనపడతవి. వాటికి
ఉపాధ్యాయుడు బాధ్యుడు కాడు. వైద్య చికిత్స చేత కొన్ని లోపాలు చక్కబడతవి.
లేకపోతే చేసేది ఏమీ లేదు. అటువంటి విద్యార్థులు జీవితంలో
వాక్చాతుర్యం , అవసరంలేని వృత్తి చేయవలసి ఉంటుంది. న్యాయవాదులుగాగాని,
ఉపాధ్యాయులుగాగాని, ప్రచారకులుగాగాని వీరు రాణించలేరు.
 పరిసర ప్రభావం పిల్లల ఉచ్చారణలో బలవత్తరంగా ఉంటుంది.
గృహవాతావరణంలో ఉచ్చారణ నిర్దుష్టంగా ఉంటే సహజంగా విద్యార్తి
నుంచి ఉచ్చారణకు అలవాటు పడతాడు. అయినా తన స్నేహితులవల్ల,
చుట్టుపక్కల ఇళ్ళలోని పిల్లల సాంగత్యంవల్ల ఉచ్చారణలో కొంత మార్పు
కలగవచ్చు. కాని గృహవాతావరణం ప్రధానశక్తిగా పనిజేస్తుంది. ఇది
సంభాషణకు సంబంధించి విషయము. దీని ప్రభావం పాఠశాలలో జరిగే
వాచికచర్య పఠనం, లేఖ఩ంపై కూడా ప్రవరిస్తుంది. దీనిని
చక్కదిద్దవలసిన బాధ్యత ఉపాధ్యాయునిపై ఉంది.
 నాలుగవ కారణం అశ్రద్ధ తల్లిదండ్రులు తమ పిల్లల చదువుపై
అశ్రద్ధ చేయడం, పట్టించుకోకపోవడం పిల్లల ఉచ్చారణ లోపాలకు కారణం
కావచ్చు. గృహవాతావరణం అనుకూలంగా లేకపోయినా ఉపాధ్యాయుడు
శ్రద్ధ తీసుకొంటే ఈ విషయంలో సత్ఫలితాలు సాధించవచ్చు.
ఉచ్చారణ దోషాల వర్గీకరణ
 ఒక పదం ఉచ్చరించేటప్పుడు అందులోని అక్షరాలలో ఇమిడిఉన్న
అచ్చులు, హల్లులు వాగ్యంత్రంలో ఎక్కడ ఉత్పత్తి అవుతవో ఆ చోటును
`స్థానం' అంటారు. నాలుక, దవడలు, దంతాలు మొదలైనవాటి
సంయోగాన్ని `కరణం' అంటారు. మొత్తంమీద ఈ `స్థానకరణ ప్రయత్నం'
తప్పుగా ఉంటే ఉచ్చారణ తప్పుగా ఉంటుంది. ఉచ్చారణ దోషాలు
చేస్తూన్నారంటే విద్యార్తులు `స్థానకరణ ప్రయత్నాలు' సరిగా చేయడంలేదని
-57-
అర్థము. ఇవి సరిగా చేయడానికి శిక్షణ, అనుకరణ, అభ్యాసం కావలె.
విద్యార్థులు చేసే దోషాలు ఈ కింది విధంగా వర్గీకరించవచ్చు:
 1. అచ్చులకు బదులు హల్లులు పలకడం, ఉదాహరణకు ఒకడు
 (వకడు), ఋషి (రుషి)
 2. హల్లు లోపం చేయడం, ఉదాహరణకు వెంకయ్య (ఎంకయ్య),
 వీరయ్య (ఈరయ్య) మొదలైనవి.
 3. అల్పప్రాణాలకు మహాప్రాణాలు వాడటం. ఉదాహరణకు
 బాధ( భాద), పెద్ద (పెద్ధ), కర్మ (ఖర్మ) మొదలైనవి.
 మహాప్రాణాలకు అల్పప్రాణాలు వాడటం, ఉదాహరణకు, కథ
 (కత), భేదం (బేధం) మొదలైనవి.
 4. అనునాసిక దోషాలు, ఉదాహరణకు, కారణం (కారనం),
 అన్న (అణ్ణ), జ్ఞానం (గ్యాణం), వీణ (వీన) మొదలైనవి.
 5. `చ,శ.ష.స' లలో ఒకదానికొకటి పలకడం, ఉదాహరణలు,
 శనగలు (చనగలు), చక్కెర (సక్కిర), చుక్క (సుక్క), శిక్ష
 (సిచ్చ) మొదలైనవి.
 6. దంత్యతాలవ్యదోషాలు, ఉదాహరణకు, పంచదార (పంచదార)
 చాప (చార), జిల్లెడ (జల్లెడ) మొదలైనవి.
 7. అక్షరాలను దాటవేయడం. ఉదాహరణకు, సహజంగా
 (సాజంగా) మహారాజు (మారాజు)
 8. తుదలు తుంచివేయడం, అంటే అజంతాలైన అక్షరాలను
హలం తాలుగా పలకడం, ఉదాహరణకు నీ పేరేమి (నీ పేరేం)
 వచ్చినాడు (వచ్చినాడ్)
 నివారణోపాయాలు: విద్యార్థులు చేసే దోషాలను
వ్యక్తిగతాలుగాను, సామూహికాలుగాను వర్గీకరించి, ఎవరి దోశాలకు తగిన నివారణ
కృషి వారిచే చేయించవలె. దీనికనుగుణమైన పద్యాలు, పాటలు,
శ్లోకాలు, తరచు చదివించవలె. ఉచ్చారణ లోపాలు సవరించడానికి
పదాలను విడివిడిగా ఎప్పుడూ అభ్యాసం చేయించరాదు. వాటిని చక్కని
వాక్యాలతో పొదిగి వాక్యరూపంలోనే నివారణ కృషి చేయించవలె.
పిల్లలు చేసే దోషాలను ఎప్పటికప్పుడు సవరిస్తూ ఉండవలె. సాధ్యమైనంత
-58-
వరకు తరగతిలో ఉండే తోటి విద్యార్థులచేత సవరింపజేయడం మేలు.
దీనివిల్ల పిల్లలలో తులనాత్మక దృష్టి (comparative outlook) ఏర్పడి
తమ సహపాఠుల స్థాయినందుకోవలెననే ప్రేరణ కలుగుతుంది.
ఉపాధ్యాయుడు స్వయంగా ఆదర్శమైన ఉచ్చారణశక్తి కలిగిఉండవలె. దీర్ఘకాలం
విద్యార్థులలో కనపడే దోషాలపట్ల ప్రత్యేక శ్రద్ధ వహించవలె.
-59- 6 పఠనము
 భాషాబోధన సోపానాలలో వాచికచర్య తరువాత పఠనం
నేర్పవలసి ఉంది. భాషాలక్షణాన్ని పఠ఩ం ద్వారానే విద్యార్థి ఎక్కువగా
గ్రహిస్తాడు. గద్యం కాని, పద్యం కాని, చక్కగా చదివితే కాని
అందులోని భావం ప్రస్ఫుటంకాదు. "కావ్యం చదవని నోరూ, కారం తినని
నాలుకా ఒకట్" అని తెలుగునాట ఒక సామెతఉంది. ఆంధ్రుల భోజనంలో
కారానికి ప్రాధన్యం ఉండటంవల్లనూ, కావ్యంలో భిన్నరుచులు (రసాలు)
ఉండటం చేతను ఈ సామెత సార్థకం అయింది. ఈ సందర్భంలో సుమతీ
శతకంలోని ఒక పద్యం గమనించదగి ఉంది:
 "ఇమ్మగ చదవని నోరును
 అమ్మాయని పిలిచి అన్నమడుగని నోరున్
 తమ్ముల పిలవని నోరును
 కుమ్మరి మను ద్రవ్విన్నట్టి గుంటర సుమతీ"
 పై పద్యంలో `నోరార' చదవడానికి ప్రాధాన్యం ఇవ్వబడింది.
`ఇమ్ముగ' అంటే సరియైన ఉచ్చారణతోను, మధురమైన కంఠస్వరంతోను
అని చెప్పవచ్చు. పోతన బాగవతంలో " శ్రీనాథు వర్ణించు జిహ్వా జిహ్వా"
"వైకుంఠుబొగడని వక్త్రమే" అనే ప్రహ్లాదుని మాటలు కూడా
గమనించవలె. సుమతీ శతక పద్యంవల్ల, పఠ఩మహత్వము, మాతృభక్తి,
వాత్సల్యం, భాతృప్రేమ, చిన్నపిల్లల హృదయాలలో
అతిమనోహరంగాను, బీజప్రాయంగాను ప్రవేశిస్తాయి. ఉపాధ్యాయుడు పై విషయాలను
చిన్నచిన్న మాటలలో వివరిస్తే విద్యార్థులు పైన చెప్పిన గుణాలను చక్కగా
అలవరచుకొని, చక్కని చదువరులుగాను, కలిసి
మెలసి ఉండే సోదరులుగాను, తయారౌతారు.
-60-
 జ్ఞానసంపాదనకు ప్రధానసాధనం పుస్తక పఠనమే. వినికిడివల్ల
జ్ఞానం ఎంత సంపాదించినా, గ్రంథపరిచయం వల్లగాని దానికి ఒక రూపం
స్థైర్యం ఏర్పడవు. అనాదినుండి మన పూర్వులు సంపాదించి, పదిలపరిచి,
పెంపొదిస్తూ వచ్చిన జ్ఞానం గ్రంథాల఼లో భద్రంగా ఉంది. దానినిఒక
క్రమంలో ఆకళింపు చేసుకోవలెనంటే గ్రంథపఠనం తప్పనిసరి ఔతుంది.
ప్రాథమిక విద్యాస్తాయి నుండి సరియైన శిక్ణణ లేనిదే ఈ పఠనం చ఼క్కగా
అలవడదు. ప్రాచీన గురుకుల విద్యాప఼ద్ధతిలో ఎక్కువగా వాచికరూపంలో
విద్యాబోధన జరుగుతూ ఉండేది. ఆ కాలంలో పుస్తకాల ప్రచురణకు
సౌకర్యాలు లేకపోవడమే ఇందుకు ప్రధానకారణము. నేటి ప్రపంచంలో
కొత్తవిషయాలు శరవేగంతో పుస్తకాలరూపంలో అందుతున్నవి. పఠనంలో
ఎంత కౌశలం ఉంటే అంతత్వరగా అధికంగా విజ్ఞానం పొందడానికి వీలుంది.
పఠనం నేర్చుక఼ొనేటప్పుడు బిగ్గరగా (ప్రకాశంగా) చదవడం అవసరం
అవుతుంది. ఎందుకంటే, భాషకు సహజమైన ఉచ్చారణ స్వరపద్ధతి, ఊనిక
మొదలైనవి గురుముఖం తెలుసుకోవలె. లేకుంటే విద్యార్థి
భాషాసామర్థ్యం లోపభూయిష్టంగా ఉంటుంది. తెలుగు భాషను నేర్చుకొన్న
ఆంగ్లేయుడు గాని, మహారాష్ట్రుడుగాని, తమిళునాడుగా తెలుగు చదివేటప్పుడు
గమనిస్తే ఈ విషయం స్పష్టమౌతుంది. వారు `భాషాబోదినుల' ద్వారా
నేర్చుకొని చదవడం మొదలుపెడితే అది తెలుగుగా తోచదు. సహజమైన
భాషా మర్యాద, పద్ధతులు వారికి క్రమశిక్షణద్వారా పరిచయం
కాకపోవడమే ఇందుకు కారణము. కాబట్టి తగినంత ప్రకాశ పఠనం (loud
reading) ప్రాథమికదశలో విద్యార్థి నేర్చుకోవలె. దీనికికూడా
అనుకరణమే ప్రధానసాధనము. ఉపాధ్యాయుని ఆదర్శపఠనాన్ని విద్యార్థులు
అనుకరిస్తారు. అతనిలో ఏవైనా లోపాలుంటే విద్యార్థి పఠనంలోఅవి
చోటు చేసుకొంటాయి. కాబట్టి నిర్దుష్టమైన, ధారాళమైన పఠనం
ఉపాధ్యాయుడు అలవరచుకోవలె. నాటకంలో పాత్రధారులు ఏ విధంగా
ఒద్దికలు (Rehearals) వేసుకొని తమ సంభాషణలను సాధనచేస్తారో, అట్లే
ఉపాధ్యాయుడు తన బాధ్యతను గుర్తించి విద్యార్థులకు ఆదర్శశిక్షణ
లభించేలాగున తన పఠనాన్ని ఆదర్శవంతంగా దిద్దుకోవలె.
-61- పఠన బోధన పద్ధతి
 ప్రాచీనపద్ధతిలో అక్షరాభ్యాసంతో భాషాశిక్షణ ప్రారంభమయ్యేది.
అక్షరాలు దిద్దుతూ నోట పలకడంకద్వారా వర్ణమాలను నేర్చుకొనేవారు.
అక్షరాలకు స్వయంగా ఏ అర్థమూ ఉండదు. కనీసం ఒక పదమన్నా అయితే
ఏదో ఒక అర్థం ఉండవచ్చు. అక్షరాలు ఎందుకు దిద్దాలో విద్యార్థికి
తెలియక బలవంతంగా భయంతో కుక్కిన పేనువలె దిద్దుతూ ఉండేవాడు.
ఆసక్తి లేనప్పుడు అభ్యసనం (Learning) జరగదు కదా! అందువల్ల చాలా
కాలానికి ఈ అక్ష్రరాలు, గుణింతాలు నేర్చుకోవడం జరిగేది. విసుగుతో
కొందరు బడి మానివేసే వారు. ఇంత లేతవయసులోనే శిశువులను,
అయిదారేండ్ల ప్రాయంగల బాలబాలికలను, ఆడుతూ పాడుతూ అనేక విషయాలను
నేర్చుకోగల లేతమనసులను అర్థంలేని అక్షరాలు దిద్దడం అనే దారుణ
శిక్షకు గురిచెయడం, మనోవైజ్ఞానికంగాను, అధ్యాపనశాస్త్ర రీత్యాను
అపరాధం అని విద్యావేత్తలు గుర్తించినారు. అందుచేత వ్రాతకంటే
ముందు పఠనం బోధించవలెనని సిద్ధాంతికరించినారు. వ్రాయడంకంటె
చదవడంలో క్లేశం తక్కువకదా! అందుచేత పఠనం ముందునేర్పవలె.
నేర్చుకోవడానికి విద్యార్థులకు ప్రేరణం కలిగించవలె. వారి మనసులో పఠనం
నేర్చుకోవలెననే ఆసక్తి కలగవలె. వారికి పరిచయంకల విషయాలు,
వ్యక్తులు, జంతువులు, స్థలాలు మొదలైన వాటిని గురించిన విషయాల
ద్వారా పఠనం నేర్పితే వారిలో నేర్చుకోవలెననే ఉత్సాహం ఉంటుంది.
ప్రారంభంలో కొన్ని బొమ్మల ద్వారా పదాలను చదవడం నేర్పే పద్ధతి
ప్రస్తుతం అమలులోకి వచ్చింది.
పద పద్ధతి
 నిత్యం బాలబాలికలు చూసే పక్షి, దీనిని తోలడం, ఎగురుతూ
ఉంటే చూసి సంతోషపడటం పిల్లలలో సహజము. ఆవు, కుక్క, పిల్లి
మొదలైన జంతువలు, పశువులు, పిల్లలుబాగా ఎరిగినవే, వీటి బొమ్మలు
చిత్రించి వాటి పేర్లను ఆ బొమ్మల కింద పెద్ద పెద్ద అక్షరాలలో
వ్రాసిచదివించడం ప్రారంభం చేయవలె, దీనిని `చూసి చెప్పే పద్ధతి
(Look and say method) అంటారు. మొదట్లో బొమ్మనుచూసి `కాకి'
-62-
అని పలుకుతారు. తరవాత ఒక పాయింటర్్తో పరిచయం
చేస్తూ కొన్నాళ్లు బోధిస్తే, ఆ అక్షరాలకు, బొమ్మలకు ఉండే సంబంధం
గట్టిపడి, బొమ్మల ఆధారం లేకుండానే పదాలను చదవగలరు. ఇటువంటి
శిక్షణ ఇవ్వడానికి మెరుపుటట్టలు (Flash cards) పనికి వస్తవి. ఇవి
సున్నితంగా, మెరుస్తూ, ఆకర్షణీయంగా ఉంటవి కాబట్టి వాటిపై ఉన్న
పదాలను చదవడానికి కూడా పిల్లలకు కుతూహలం కలుగుతుంది.ఈదశలో
వారికి వాచికంగా పరిచయంలో ఉన్న పదాలనే చదవడం నేర్పవలె. కాని
వారిఊహకు అందని పదాలను ప్రవేశ పెట్టరాదు. "తెలిసిన దానినుండి
తెలియని దానిని నేర్పవలె" అనే అభ్యసన ప్రాతిపదిక ఈ పఠనబోధనలో
అవలంబించవలె. తెలిసినవి ఆకారాలు, తెలియనివి అక్షరాలు. తెలిసిన
బొమ్మల ద్వారా తెలియని పదస్వరూపాలను నేర్చుకోవడం సులభంగా
ఉంటుంది. ఉదాహరణకు `అబక' `ఇంగితము' `ఈతగాడు' అనే పదాల఼ను
పూర్వం ప్రాథమికదశలో పఠనం నేర్పడంలో ఉపయోగించే వారు. వీటి
అర్థం ఆ వయసులోని పిల్లలకు ఎంత మాత్రం బోధపడదు. కాగా,
చిత్రీకరించినా బోధించడం కష్టమే. వారి అనుభవంలో ఈ వస్తువులు,
భావాలు, వ్యక్తులూ ఉండకపోవడమే ఇందుకు కారణము. మొత్తంపైన
పఠనం నేర్పడంలో మెరుపుటట్టల ఉపయోగంవల్ల ఫలితాలు
సంతృప్తికరంగానే ఉంటున్నవి.
వాక్యపద్ధతి
 చిన్న చిన్న పదాలతో ప్రారంభించి క్రమంగా చిన్నచిన్న వాక్యాలు
చదవడం నెర్పవలె. ఈ వాక్యాలు కూడా, సులభంగా, అర్థవంతంగా
ఉండి పిల్లల అనుభవాలకు అందుబాటులో ఉండవలె. గడ్డిమేస్తూ ఉన్న ఆవు
బొమ్మను ఒక అట్టపైన చిత్రించి "ఆవు గడ్డిమేస్తన్నది" అనేవాక్యం ఆ
బొమ్మకింద వ్రాయవచ్చు. పిల్లలచేత ఆవాక్యం చదివించడానికి ఒక
ప్రశ్నవేయవచ్చు. "ఆవు ఏమీ చేస్తున్నది?" పిల్లలు "ఆవుగడ్డిమేస్తున్నది"
అని జవాబిస్తారు. ఆవాక్యం ఆబొమ్మకింద వ్రాసి ఉండటం చేత ఆ
వాక్యాన్ని పాయింట఼ర్ తో క్రమంగా చూపిస్తూ ఒక్కొక్కపదం చదివిస్తూ
పోవలె. ఈ విధంగా బోధనకు అనువైన సన్నివేశాలు మాత్రమే ఎన్నుకొని
-63-
సహజపరిస్థితుల్లో వాక్యపఠనం నేర్పవలె. కొన్ని సహజమైన మన్నివేశాలు
ఈ కింద ఇవ్వబడినవి:
   0 
</p></body></text></cesDoc>