<cesDoc id="tel-w-literature-critic-lalita2" lang="tel">
<cesHeader type="text">
<fileDesc>
<titleStmt>
<h.title>tel-w-literature-critic-lalita2.txt</h.title>
<respStmt>
<respType>Electronic file created by</respType>
<respName>Central Institute for Indian Languages, Mysore</respName>
<respType>transferred into Unicode and CES format by</respType>
<respName>"Unicodify" software by Andrew Hardie</respName>
</respStmt></titleStmt>
<publicationStmt>
<distributor>UCREL (on behalf of CIIL)</distributor>
<pubAddress>Department of Linguistics, Lancaster University, Lancaster, LA1 4YT, UK</pubAddress>
<availability region="WORLD"></availability>
<pubDate>03-08-13</pubDate>
</publicationStmt>
<sourceDesc>
<biblStruct>
<monogr>
<h.title>లలిత కళలు సమీక్ష - వికసన చరిత్ర</h.title>
<h.author>శ్రీ సూర్యదేవర సంజీవదేవ్్ శ్రీ చీమకుర్తి శేషగిరిరావు</h.author>
<imprint>
<pubPlace>India</pubPlace>
<publisher>Unknown - Book</publisher>
<pubDate>****</pubDate>
</imprint>
<idno type="CIIL code">lalita2</idno>
</monogr></biblStruct></sourceDesc></fileDesc>
<encodingDesc>
<projectDesc>Text collected for the CIIL Corpus, subsequently integrated into the EMILLE/CIIL Monolingual Written Corpora.</projectDesc>
<samplingDesc>Simple written text only has been transcribed. Diagrams, pictures and tables have been omitted. Sampling begins at page 13.</samplingDesc>
<editorialDecl><conformance level="1"></conformance></editorialDecl>
</encodingDesc>
<profileDesc>
<creation><date>03-08-13</date></creation>
<langUsage>Telugu</langUsage>
<wsdUsage>
<writingSystem id="ISO/IEC 10646">Universal Multiple-Octet Coded Character Set (UCS).</writingSystem>
</wsdUsage>
<textClass>
<channel mode="w">print</channel>
<constitution type="composite"></constitution>
<domain type="public"></domain>
<factuality type="fact"></factuality>
</textClass>
<translations></translations>
</profileDesc>
<revisionDesc></revisionDesc>
</cesHeader>

<text><body>

<p> నిజమునకు ఏ కళాకారుడును ఇతరుల నిమిత్తము
కళాకృతులను సృష్టించడు; తన ఆనందము నిమిత్తమే వానిని
సృష్టించుకొనును. కాని తరువాత క్రమేణ తన కళాసృష్టిని
సహృదయులు పరికించి ఆనందించిన బాగుండునను అభిలాష
అతనియందు పెంపొందును. అందులకే మహాకవి కాళిదాసు
"అపరితోషాద్విదుషాం న సాధుమన్యే ప్రయోగవిజ్ఞానం" అని
నుడివెను. సహృదయులు తన కళా కౌశలమును మెచ్చుకొనని
యెడల ఆనందము జనింపనేరదని ఆయన అభిప్రాయము.
 కళాకృతిని మెచ్చుకొను సహృదయులు స్వయముగ కళా
సృష్టులు కావలసిన అవసరము లేదు, కళా పరిజ్ఞానమును
నిర్మాణ మర్మమును తెలిసికొని ఉన్నజాలును. పిండివంటల
రుచిని తెలిసికొనుటకు తినువారుసైతము వంటచేయగలవారుగ
ఉండు అవసరము లేదు. సహృదయులు సృష్టులు కానవసరము
లేదనునపుడు వారు సృష్టలు కాగూడదను నియమము ఏదియు
లేదు; ఆ సహృదయులు సృష్టలుకూడ అయి ఉండవచ్చును.
కవితను సమీక్షించు వారిలో కొందరు స్వయముగ కవులై
ఉండక పోవుటయు, కొందరు కవులై ఉండుటయుకూడ
జరుగుచుండును. స్వయముగ కవులై ఉన్న సమీక్షకులు చేసిన సమీక్షలు
ఎక్కువ బాగుగ ఉండిన ఉదాహరణములు పెక్కుకలవు.
చిత్ర, శిల్ప కళాసమీక్షలందును, ఇట్టి సంఘటనలు కననగును.
చిత్రకారులు కాని చిత్రసమీక్షకులును, శిల్పులుకాని
శిల్పసమీక్షకులను విరివిగ కలరు. ఆ సహృదయులలో కొందరి కళా
సమీక్షలు విశ్వ విఖ్యాతిని గడించినవి.
 ఈ విధముగ కళాకారుని చేతినుండి కళాకృతి
సహృదయుని చేతిలోనికి వచ్చినది. తొలుత భావమును రూపముగ
మార్చినవాడు న్రష్ట; కాని తిరిగి ఆ రూపమును భావముగ
మార్చగలిగినవాడు సహృదయుడు. కళాకృతిని సృష్టించక
ముందు ఆ ఆకృతి, కళాకారునిలో భాగముగ ఉండినది.
సృష్టించుట ఫలితముగ ఆ భావము రూపముగ రూపొందినది.
ఆ రూపము మూలమున జనించు ఆనందమువలన
సహృదయుడు ఆ రూపమును మరల భావములోనికి మార్చుకొనును.
ఈ విధముగ భావమునుండి రూపము, రూపమునుండి భావము
ఏర్పడును. కృతి ఆవిర్భవింపకముందు కళాకారునిలో ఏ
భావము ఉండి యుండెనో ఆ భావమును అందుకొనుటకు
సహృదయుడు, ఆ కృతిద్వారా, యత్నించును.
 అయినను సహృదయుడు కళాకృతిద్వారా కళాకారుని
మౌలిక భావమును అందుకొనుట అనునది కొన్ని
సందర్భములందు సాధ్యపడవచ్చును; మరికొన్ని సందర్భములందు సాధ్య
పడకపోవచ్చును. సాధ్యపడినయెడల మంచిదియే, కాని సాధ్య
పడకపోయినను వచ్చు చెరుపు ఏమియు లేదు. కళాకారుడు తన
కళాకృతిని ప్రకృతికి ప్రతిరూపముగ అనుకరించి నిర్మింప
లేదు; అతడు ఒక స్వతంత్ర రూపరచనను చేసెను. కళాస్పష్ట
స్వతంత్రించి కళాకృతిని నిర్మించినపుడు సహృదయునికి
మాత్రము ఆ కళాకృతిని స్వతంత్రించి అర్థము చేసికొను
అధికారము లేదా? న్రష్ట ఏ విధముగ అనుకరణకు పూనుకొనకుండ
ఆ కళాకృతికి నూతనభావమును కల్పించి నూతనవ్యాఖ్యను
ఎందుకు చే౟కూడదు?
 కళాకృతి విషయమున న్యాయనిర్ణయము చేయుట చాల
కష్టసాధ్యము, ఇందులకు వ్యక్తిగత ఆలోచనతో పాటుగ
వస్తు
13-
గత పరిజ్ఞానము బాగుగ ఉండవలయును. కొందరు న్యాయ
నిర్ణేతలు ప్రదర్శనములలో పనికి మాలినవని తీసివేసిన
కళాకృతులు ఇతర ప్రదర్శనలలో ఇతర న్యాయనిర్ణేతలచే ప్రథమ
బహుమతులను అందుకొనినవి. ఇటువంటి వ్యక్తిగత నిర్ణయ
పద్ధతి సరియైనది కాదు. సౌందర్య నిర్ణయమునకు కొన్ని వస్తూ
గత నియమాలను పాటించుట జరుగవలయును. ఏది ఉత్తమ
కళాకృతి? అని నిర్ణయించుటకు ఆ కళాకృతిలోని విషయ
వస్తువు మీద ఎక్కువగ ఆధారపడక నిర్మాణకౌశలముమీద
ఎక్కువగ ఆధారపడుట సముచితము. విషయవస్తువునకు
ప్రాధాన్యమొసగు సందర్భమున ఒక న్యాయ నిర్ణేతకు నచ్చిన
విషయవస్తువు మరొక న్యాయ నిర్ణేతకు నచ్చకపోవచ్చును.
నిర్మాణవిధాన విషయమందునను, ఇటువంటి అభిమానములు
ఉన్నప్పటికిని అది తక్కువ ప్రమాదకరము.
 రససిద్ధాంతము
 "సరతి ఇతి రసః" అని శాస్త్రోక్తి. ప్రవహించునది ఏదియో
అది రసము అని దీని భావము. నీరు ప్రవహించును; నూనె
ప్రవహించును; తేనె ప్రవహించును; ఏ ద్రవ పదార్థమైనను
ప్రవహించును. కనుక ఈ ప్రవహించునది అంతయు రసమా
అనిన అటుల కాదనియే అనవలయును. ఈ ద్రవపదార్థములు
అన్నియును ఎత్తునుండి పల్లమునకు ప్రవహించునవి. కాని
`రసము' అనునది మాత్రము పల్లమునుండి ఎత్తునకు
ప్రవహించినది. అనగా రసప్రవాహము క్రిందివైపు నుండి
హృదయములోనికి ప్రవహించునది, హృదయములో నుండి
శిరస్సులోనికి ప్రవహించునది. ప్రవహించు తక్కిన ద్రవములన్నియు
కంటికి కనుపించునవి; కాని రసము కంటికి కనిపింపదు, ఇది
అంతర్వాహిని.
 "రసము" అనునది భారతీయ సౌందర్యతత్త్వ చర్చలోని
ఒక విలక్షణ విషయము. దీనికి పర్యాయపదము పాశ్చాత్య
భాషలలో సరియైనది గోచరింపదు. "ఈ స్తటిక్్
ఎక్స్్పీరియన్స్్" అను ఆంగ్లపదము కొంతవరకు సరిపోవునేమో.
`రసము' అను పదమును `భావము' అను పదముతో పోల్చ
రాదు. రసము అనగ అనుభూతియే కాని ఆవేశము కాదు.
భావము అనునది ఆవేశము. `భవతి ఇతి భావః' ఏది
అగుచునుండునో అది భావము. ఇచట `అగుట' అనగ
కార్యరూపమును పొందుట అని అర్థము. కార్యరూపమును పొందుట అన
సూక్ష్మము అనబడునది స్థూలముగ మారుటయని తాత్పర్యము.
రసమున స్థూలమగునది సూక్ష్మముగ మారుటయే కాని
సూక్ష్మమగునది స్థూలముగ మార్పొందుటకాదు. కనుక భావమనునది
ఆవేశమే కాని రసము కాదు. ఆవేశము ఉన్నంతవరకు
రసానుభూతి ఏర్పడదు. ఆవేశము అణగిన తరువాతగాని రసము
ఉద్భవించదు. ఆవేశము సమసిపోయిన తరువాత తిరిగి తీరికగ
ఆ ఆవేశమును మృదువుగ స్మృతికి తెచ్చుకొనుట రసము
కాగలదు. అందులకే `ప్రణవనాదము' లో `భావస్మరణం రసః'
అని చెప్పబడినది. కనుక రసమున భావముకాదు; భావమును
జ్ఞాపకమునకు తెచ్చుకొనుటయే రసము. అందువలన రసము,
ఆవేశము వేర్వేరు విషయములనుట విస్పష్టము.
 ఆవేశము సుఖవంతమైనదియు కావచ్చును; లేదా
దుఃఖవంతమైనదియు కావచ్చును. అది ఆనందమును కలిగింప
వచ్చును; విషాదమును కలిగింపవచ్చును; కాని రసము
మాత్రము నిరంతరమును ఆనందకరమైనదే. శోకభావము
అనగా చింతకు సంబంధించిన ఆవేశము బాధాకరము. కాని
కరుణ రసము ఎల్లపుడును ఆనందమునే ప్రసాదించును. రతి
భావము లేక కామావేశముకూడ ఎల్లప్పుడును ఆనందమునే
ప్రసాదించదు. అదియు విచార, ఆందోళనా,
నిరుత్సాహములతో కూడుకొని ఉండును. శృంగారరసము మాత్రము ఆ
విధముగ ఉండక ఎల్లపుడును ఆనందమునే
ప్రసాదించగలుగును. ఉదాహరణకు, విషాదాంత నాటకమును చూచునపుడు
ప్రేక్షకులకు దుఃఖము కలుగుట నిజమే; కాని అది
దుఃఖావేశమే కాని రసము కాదు. ఆ దుఃఖముకూడ రసముగ
మారినంతట ఆనందమునే జనింపచేయును. కేవల దుఃఖమునే
కలిగించి బాధించునవి మాత్రమే అగునెడల విషాదాంత
నాటకములను ఎవరు వీక్షించరు. దుఃఖముకూడ ఆనందమును
కలిగించునది; కనుకనే విషాదాంత నాటకములను చూచుటకు
ప్రజలు వెనుకాడరు. వ్యావహారిక జగత్తులో ఏది కటువుగ
కన్పించునో రసజగత్తున అది మధురముగ కన్పించును.
అందులకే `కావ్యప్రకాశ' పై రచింపబడిన బాలబోధిని వ్యాఖ్య
ఇటుల నుడుపుచున్నది. `జీవితములోని సామాన్యపు
అనుభవమున మనము ఆనందమునుండి మాత్రమే ఆనందమును
పొందుదుము; కాని రసానుభవమున మాత్రము ప్రతి ఆవేశము
ఆనందముగ పరివర్తితము కాగలదు. వాస్తవిక జీవితమున
విచారమనునది బాధను కలిగించును. కాని అదే విచారమును
సంగీతమున వినినను, నాటకమున చూచినను, కావ్యమున
చదివినను అది బాధను కలిగింపక ఆనందమునే కలిగించును.
అదే రసములోని ప్రత్యేక విశిష్టత.
 ఎవరితోనైనను సంభాషింపవలసి ఉన్నపుడు మనము
మాటాడుదుము; అటులగాక మన అంతర్గత ఆనందమును
అభివ్యక్తము చేయవలసి ఉన్నపుడు మనము పాడుకొనెదుము. పని
మీద ఎచటికైనను పోవలసినపుడు నడుచుదుము; ఆనందమును
వెల్లడింపవలసి ఉన్నపుడు నర్తించుదుము. వ్యావహారిక
జగత్తులోని రక్తమాంసాస్థి చర్మమయ దేహము శృంగారక్షణములలో
మాధుర్యమయ ఆనంద రసఖండముగ మారిపోవును. రస
14-
సిద్ధాంతమున సాధారణీకరణకు అత్యంత ప్రాధాన్యము కలదు.
వ్యక్తిగత అనుభూతి సామూహిక అనుభూతిగ మారుటయే
సాధారణీకరణ. ఉత్తరరామచరితలోని సీత అనుభవించు
శోకము సీతలో మాత్రమే ఆగదు; దానిని మనము
అందరమును పంచుకొందుము. నిజముగ సీత ఆ శోకమును
అనుభవించిన రోజులలో ఆ శోకమును ఆమె ఒక్కతెయే
అనుభవించి ఉండవచ్చును. కాని భవభూతి రచించిన
ఉత్తరరామచరితలోని సీతాశోకము సాధారణీకరణచెంది అది ప్రతి
మానవుని శోకముగ పరిణమించినది. హృదయానుభూతిని
వైయక్తిక పరిధినుండి విశ్వజనీనతలోనికి విస్తరింపచేయుట
రసములోని ప్రత్యేకత. ఈ సాదారణీకరణ లేనపుడు
కావ్యముననైనను నాటకముననైనను మరి ఏ ఇతర
కళాకృతిలోనైనను మనకు లభించునది రసముకాదు; రసాభాస మాత్రమే.
 వైయక్తికానుభూతి అత్యంత సంకుచితము; పరిమితము.
పరిమితము అగునది అంతయు బంధనయే; అపరిమితత్త్వమే
స్వేచ్ఛ. బంధనలో బందీగా ఉన్నంతవరకు అనుభూతి
రసముగ రూపొందలేదు. అందులకే ఋషులు ఇటుల ఘోషించిరి
 "సాల్పే సుఖ మస్తి, భూమైన సుఖం, యూవై భూమా
 తదమృతం, అథ యదల్పం తన్మర్త్యం"
పరిమితమున సుఖములేదు; అపరిమితముననే సుఖము. ఏది
అపరిమితమో అది అమృతము; ఏది పరిమితమో అది
మృత్యువు.
 మానవుని శరీరము పరిమితము; అందువలననే అది
మృత్యువునకు బలియగును. మానవుని ఆత్మ అపరిమితము;
అందువలననే అది అమరము. రసానుభూతి పొందుటయన
తన సగజచేతననుండియు తన పరిసరాలనుండియు తాను
అలవాటుపడిన జీవితమునుండియు వేరగుటయే;
ఆనందములోన అడగిడుటయే. కనుకనే రసమును అలౌకికమనియు
లోకోత్తరమనియు అనెదురు. కావ్యమునకై పదములను
ఉపయోగింతురు; సంగీతమునకై శబ్దములను ఉపయోగింతురు;
చిత్రమునకై రంగులను ఉపయోగింతురు. ఇవి అన్నియును
ఇంద్రియగతములు; కాని రసము వీని అన్నింటికిని అతీతము;
అది ఇంద్రియాతీతము. రసానుభూతి యొక్క పరాకాష్ఠ
తన్మయీభావమని భరతనాట్య శాస్త్రముపైని వ్యాఖ్యలో అభినవ
గుప్తుడు వివరించెను. అటులయిన ఆ తన్మయీభావమున ఇది
వరలో తెలుపబడిన రీతిగ భోక్తృ-భోగ్యముల భేదము
నశించుట వలన తాను ఆనందించుచున్నట్లుగ భోక్త
గుర్తింపలేడేమో అను సందేహమునకు తావుకలదు. తాను ఆనందించు
చున్నట్లు అనుభూతి లేనపుడు ఆ ఆనందము సంపూర్ణము
కాదేమో!
 భరతుడు నవరసాలను ఈ విధముగ లెక్కించెను:-
 "శృంగార హాస్య కరుణ రౌద్ర వీర భయానకాః
 భీభత్సాద్భుత శాస్తశ్చ కావ్యే నవరసాః స్మృతాః"
 శృంగారము, హాస్యము, కరుణ, రౌద్రము, వీరము,
భయానకము, భీభత్సము, అద్భుతము, శాంతము - ఇవి
కావ్యములోని తొమ్మిది రసములు. అయితే కొందరు శాంతరసమును
నాట్యరసముగ అంగీకరింపక నాట్యమునకు ఎనిమిది మాత్రమే
రసములని అనిరి. నటునియందు శమము ఉండనేరదు; కనుక
శాంతరసము నటునికి సాధ్యపడదనియు, అందువలన
నాట్యమున శాంతరసము అవసరము లేదనియు, నాట్యమున ఎనిమిది
రసములే కలవనియు వాదించువారిని శార్జదేవుడు ఈ విధముగ
ఖండించెను.
 "అష్టావేవ రసాః నాట్యేష్వితికేచి దచూతుదన్్,
 తదచారు, యతః కంచిన్నరసం స్వదతే నటః"
 నాట్య రసములు ఎనిమిది మాత్రమే అని కొందరనెదురు;
అది సమంజసము కాదు. ఏలనన, నటుడు రసమును దేనిని
ఆస్వాదించడు.
 యథార్థమున నటుడు ఏ రసమును ఆస్వాదించడు. ఏ
రసమును ఆస్వాదించుట జరిగినను ఆ రసమున అతడు లీనమై
నిశ్చేష్టితుడగునే కాని నటించజాలడు. ఆ రసాస్వాదన
అంతయు ప్రేక్షకులదియే కాని నటునిది కాదు. ఎట్టి విధమగు
రసాస్వాదన నుండియు నటుడు నిర్లిప్తుడుగ ఉండకలిగిననే
ఉత్తమముగ నటింపగలడు. నటనలో తన విరోధిపాత్రను
హత్యచేయవలసినపుడు నటుడు నిజముగ హత్యచేయడు, హత్య
చేసినటులుగ మాత్రమే నటించును. తాను తన పాత్రనుండి
వేరుగ ఉండగలుగును కనుకనే అది సాధ్యపడుచున్నది.
అటులగాక తానే ఆ పాత్రననుకొని రసానుభూతిలో లీనమైన
యెడల రంగస్థలమున తన విరోధిపాత్రను హత్యచేసిననటుల
నటించుటకు మారుగ వాస్తవముగనే హత్యచేయుట జరుగును.
నటునిది నటన; నటించును కనుకనే నటుడు.
 ఇట్టి వాదవివాదముల ఫలితము ఎటులున్నను రసములు
తొమ్మిది అనుట సర్వత్రా అంగీకృతమైనది. అందు మొదటి
స్థానము శృంగార రసమునకు లభించినది. కామము స్త్రీ
పురుషులకు సహజవాంఛయు, సకల జనహృదయ రంజకమును,
సృష్టికార్యమునకు ప్రేరకమును, తక్కిన రసములకన్న
ఎక్కువగ సన్నిహితైక్యము కలదియు, శారీరకమును,
మానసికమును అగుట వలన శృంగార రసమునకు ప్రథమస్థానము
దొరికినది. శృంగార రసమున కేవల కామమాత్రమేకాక
శారీరకమగు కామమును మానసికమగు శృంగారములోనికి
పరిణమింపజేయునది. కాని శృంగార రసమునకు అంతమస్థాయి
మాత్రము స్త్రీ పురుషుల శారీరక మిలనమే. తొమ్మిది
రసముల
15-
కును తొమ్మిది స్థాయీభావములు కలవని శాస్త్రము
చెప్పుచున్నది.
 "రతిః శోకశ్చ నిర్వేద క్రోధోత్సాహశ్చ విస్మయః
 హాసో భయం జుగుప్సాచ స్థాయీ భావాః క్రమాదమీ"
 శృంగారానికి స్థాయీ భావము రతి, కరుణకు శోకము,
శాంతమునకు నిర్వేదము, రౌద్రమునకు క్రోధము, వీరానికి
ఉత్సాహము, అద్భుతమునకు విస్మయము, హాస్యమునకు
హాసము, భయానకమునకు భయము, భీభత్సమునకు జుగుప్స
ఈ విధముగ తొమ్మిది రసములకును తొమ్మిది స్థాయీ
భావములు కలవు.
 మనస్సునకు ఇష్టములగు విషయములలో సుఖానుభూతిగల
ఇచ్ఛయే రతి. ఈ విధముగ తొమ్మిది స్థాయీ భావములకును
తొమ్మిది విధముల వ్యాఖ్యాలు విపులీకరింపబడినవి. ఏయే
రసము ఏ యే సందర్భములలో సముచితమో, ఎక్కడ ఏది
అనుచితమో కళాకారులకు, ప్రత్యేకముగ కావ్యశిల్పులకు తెలిసి
ఉండుట ప్రయోజనకరము. భారతీయ సౌందర్యతత్త్వచర్చకు
అంతటికిని రసము ప్రాణము.
 పాశ్చాత్యుల సౌందర్యతత్త్వ చర్చ అంతయు మానవమనో
విజ్ఞానముతో ముడిపడినది. దానికి ప్రాచీనదశమాత్రమే గాక
నవీనదశయు కలదు. కాని భారతీయ సౌందర్యతత్త్వచర్చకు
ప్రాచీన దశయేకాని నవీనదశ లేదు. సౌందర్యతత్త్వ చర్చలో
నవీనదశకొరకు పాశ్చాత్య భావనపైననే ఆధారపడవలసి
ఉన్నది. విజ్ఞానమునకు దేశభేదములు లేవు; అది విశ్వ
జనీనము. నేటి సౌందర్౟తత్త్వ చర్చయు అట్టిదియే.
 ప్రాచీన యుగమున భారతీయుల సౌందర్యతత్త్వచర్చ
ఎక్కువ ఔన్నత్యమును అందుకౌనిన దనుటలో సందేహము
లేదు. క్రీ.శ. 500లో భరతునితో భారతీయ సౌందర్యతత్త్వ
చర్చ మొదలైనది. ఆ తరువాత రసశాస్త్రజ్ఞులు పలువురు
భరతుని గ్రంథముపై అనేక వ్యాఖ్యాలను రచించిరి. వారిలో
క్రీ.శ. 9వ శతాబ్దికి చెందిన భట్టలోల్లటుడు, శ్రీశంకుకడు,
భట్టనాయకుడు, పదవ శతాబ్దికి చెందిన అభినవగుప్తుడు
ప్రముఖులు. వీరిలో అభినవగుప్తుడు సౌందర్యతత్త్వమును గురించి
వెలువరించిన అభిప్రాయములు ప్రగతిమూలకములు. ఆయన
అభిప్రాయమును అనుసరించి కళాకృతి ఏదియును పూర్తిగ
అనుకరణము కాదు; పూర్తిగ కల్పనయు కాదు. కల్పనను
వదలినను, బాహ్యప్రకృతిని వదలినను కళాకృతి
అసంపూర్ణముగనే ఉండిపోగలదు. ఈ విధపు భావసమన్వయము కళలో
అత్యవసరము. ఇట్టి సమన్వయమును వేయి సంవత్సరముల
క్రిందటనే అభినవగుప్తుడు గుర్తించెనన అది ప్రశంసనీయ
విషయమే.
 భారతీయ సౌందర్యతత్త్వము నాట్యకళతో ఎక్కువగ ముడి
పడినది. రస శాస్త్రజ్ఞులలో ప్రథముడగు భరతుడు నాట్య
శాస్త్రమునే ప్రత్యేకముగ రచించెను. తరువాత శిల్పకళకును
వాస్తు కళకును సంబంధించిన వేర్వేరు గ్రంథములు కొన్ని
వెలుపడినవి. కాని చిత్రకళకు సంబంధించిన విపుల
గ్రంథములు మాత్రము అంతగ కన్పట్టవు. ఆ యుగమున సౌందర్య
తత్త్వచర్చయు తక్కిన శాస్త్రములవలెనే చాల ప్రాముఖ్యమును
గడించినది. సౌందర్యతత్త్వవిజ్ఞానము కళాకారునికి
అంతర్దృష్టిని, సామాన్యునకు కళాదృష్టిని కలిగించును.
 తూర్పు ఆసియాలో సౌందర్యభావన
 తూర్పు ఆసియాకు చెందిన చీనా, జపాను దేశముల జనులు
తక్కిన ప్రపంచవాసులతో పోల్చినపుడు, ఉరుతర
సౌందర్యానుభూతి కలవారుగ పరిగణింపదగుదురు. నిత్యజీవితములోని
ప్రతి చిన్నపనియందును వారి సౌందర్యభావన ప్రతిబింబించును.
చీనావారి సౌందర్యానుభూతి గంభీరము; అది ఒక మహా
కావ్యమువంటిది. జపానువారి సౌందర్యానుభూతి సుకుమారము;
అది ఒక ఖండకావ్యమువంటిది. చీనావారిది అఖండదృష్టి,
జపానువారిది ఖండదృష్టి. అరణ్యమును అంతటిని
సమగ్రముగ చూడవలెనని అనెదరు చీనావారు; అట్టిది అవసరములేదు,
అరణ్యములోని ఒక చెట్టును చూచినజాలును, అరణ్యమును
అంతటిని చూచినటులే అని అనెదురు జపానీయులు.
భారతీయుల లక్షణశాస్త్రదృష్టితో పరికించినపుడు చీనావారిది అభిధ;
జపానువారిది వ్యంజన.
 చీనాయుల సౌందర్యతత్త్వచర్చయందు చాలభాగము చిత్ర
కళను గురించియే ప్రసక్తించును. చిత్రకళకు అంత
ప్రత్యేకపు విలువను ఇచ్చి చిత్రకళను అంత ఉన్నతస్థాయికి కొని
పోయిన ఏకైక ప్రాచీనదేశము చీనాయే. ఆ ప్రాచీన
యుగముననే ప్రకృతి చిత్రములను విన్నాణముతో చీనీయులు చిత్రించిరి.
చిత్రించుటమాత్రమేకాదు; చిత్రకళకు సంబంధించిన విపులమగు
సౌందర్యతత్త్వచర్చను పెంపొందించిరి. నదులకును జీవిత
రంగమున ఎనలేని విలువను కల్పించిరి. అందులకే చీనీయ
భాషలో ప్రకృతి దృశ్యమును `షాన్్షుయి' అని
వ్యవహారింతురు. `షాన్్' అనగ పర్వతము, `షుయి' అనగ నీరు.
పర్వతమును నీరును కలసి ప్రకృతి దృశ్యముగ
పరిణమించునని దీని అర్థము. ప్రాచీన చీనీయ చిత్రకళలో ఎక్కువ
భాగము ప్రకృతి దృశ్యములకే అంకితమైనది. కొండలును,
కోనలను వారి హృదయములను సుందర బృందావనములుగ
మార్చెడివి; కావుననే వానిని చిత్రించుటయందును, చిత్రించిన
వానిని చూచి ఆనందించుటయందును వారి సంతోషము
ప్రక
16-
టితమయ్యెడిది. ప్రాచీన చీనీయ చిత్రకారులు అందరును గొప్ప
ఆధ్యాత్మిక సాధకులగుటవలన వారి సౌందర్యానుభూతి
ఆధ్యాత్మికానందముతో ఏకతను చెందెడిది. ప్రకృతిరాణీయకతకును
ఆధ్యాత్మికానుభూతికిని వారి దృష్టిలో విభేదము లేదు. వారి
కళాసాధన ఆధ్యాత్మికసాధనతో సమానమైనదియే.
సౌందర్యానుభూతితో తాదాత్మ్యము లేక తన్మయీభావన వారి
లక్ష్యము. అనంత ప్రకృతిని తిలకించుట మూలమున తామును
అనంతులు కావలయుననియే వారి ఆకాంక్ష. రూపసృష్టియే
వారి దివ్యదృష్టికి లక్ష్యము.
 ప్రకృతి అనుకరణను చీనీయులు ఉత్తమకళగ భావింపరు.
అయినను ప్రకృతిని విసర్జించిన కళను సైతము వారు
ఉత్తమకళగ పరిగణింపరు. వారి చిత్రములలో ప్రకృతికి
సానము కలదు; కాని అది అనుకరణగ మాత్రముకాదు. ఒక
ప్రాచీన చీనీయ చిత్రకారుడు ఈ విధముగ తన
అభిప్రాయమును వెలువరించెను. `ప్రకృతిలోని వాస్తవికప్రమాణములతో
చిత్రమును పోల్చి సమీక్షించునెడల వాస్తవిక దృశ్యముతో
చిత్రము సరితూగనేరదు. కాని చిత్రములోని
తూలికాకౌశలముతో వాస్తవికదృశ్యమును పోల్చినపుడు చిత్రముతో సరితూగ
నేరదు వాస్తవిక దృశ్యము.' ప్రకృతికిని కళకును మధ్య ఉన్న
ప్రధాన ప్రభేదమును ఎంతో స్పష్టముగను, సుందరముగను
ఆ ప్రాచీన చీనీయ చిత్రకారుడు ప్రత్యక్షము చేసెను.
యధార్థమున ప్రకృతిలోని వాస్తవికత చిత్రమున వ్యక్తము కానేరదు.
అదే విధముగ చిత్రములోని పనితనము లేక నిర్మాణ కౌశలము
ప్రకృతియందును ద్యోతకము కానేరదు.
 మరియొక చీనీయ చిత్రకారుడు ఈ విధముగ అనెను:
:పుస్తకములోని విషయములను పఠించినంతట వానిని మనసు
గ్రహింపగలదనుట యథార్థమే: కాని ప్రకృతిని కనుల
మూలమున దర్శించి ఆనందించు అనుభూతి అందు లభింపదు.
రూపములు రూపముల ద్వారానే నిర్మింపబడవలయును; రంగులు
రంగుల మూలముననే ప్రకటితములు కావలయును. అంతే
కాదు. కున్్లన్్ పర్వతశ్రేణి చాలపెద్దది; కాని నా కంటి
పాపలు చాల చిన్నవి. ఆ పర్వతశ్రేణి నాకండ్లకు సమీపమున
ఉండునెడల నేను దాని సమగ్ర రూపమును చూడజాలను;
అటులగాక ఆ శ్రేణికి కొన్ని మైళ్ళ దూరమున నేను ఉండు
నెడల అది నా కనుపాపలో ఇముడగలదు."
 పై అభిప్రాయమున తుది వాక్యములనుబట్టి చూడ ఆ నాటి
చీనీయ చిత్రకారులకు దృష్టి ప్రక్రమ (పెర్్స్పెక్టివ్్)
పరిజ్ఞానము కలదని తోచుచున్నది. ఇక రూపములను రంగులను
గురించి పై అభిప్రాయములు ఎంతో భావగర్భితములు.
రూపమును రూపముద్వారాకాక, మాటలద్వారా నిర్మించిన ఆ
రూపము స్పష్టముగ రూపొందురు. `వంపులు తిరిగి పారు
సెలయేరు' అను మాటల కన్నను అటువంటి సెలయేరును
చిత్రించి చూపినపుడు విషయము విపులతరముగ విశదమగును.
రంగుల విషయమును అట్టిదే. ఒకానొక పుష్పము ఊదా
రంగులో ఉన్నదని చెప్పుట కన్నను ఊదారంగున ఆపుష్పపు
రూపమును చిత్రించు నెడల భావము ఎక్కువగ స్పష్టము
కాగలదు.
 ప్రాచీన చీనీయుల సౌందర్యతత్త్వముపై `ఛాన్్' భౌద్ధపు
ప్రభావము చాల కలదు. క్రీ.శ. ఆరవ శతాబ్ది ప్రారంభమున
భారతదేశమునుండి బోధిధర్ముడను బౌధ్ధగురువు చీనా
దేశమునకు పోయి అచట `ధ్యాన' అనబడు బౌద్ధమత
సంప్రదాయమునకు వ్యాప్తిని కల్పించెను. ఈ `ధ్యాన' పదమే చీనీయ భాషలో
`చాన్్' గ వికృతిని పొందినది. అటనుండి ఈ మత
సంప్రదాయము జపానునకు వ్యాపించి అట `జెన్్' అను పేరును
పొందినది. ఈ `ఛాన్్' బౌద్ధము అత్యంత స్వేచ్ఛకు
పేరొందినది. ఎట్టి బాహ్యాచారములకును ఈ మతము కట్టుబడిఉండదు.
దీని అనుయాయులు ఎట్టి నమ్మకములకును బద్ధులుగ
వర్తింపరు. వీరి ధ్యానమునకు లక్ష్యము శూన్యభావనయే. వీరు
నిరవధిక స్వతంత్రులు. ఎట్టి స్వతంత్రులన, ఒక ఛాన్్ బౌద్ధుడు
శీతకాలమున చలిని పోగొట్టుకొనుటకై తన సమీపమున
ఉండిన బుద్ధవిగ్రహమును (కొయ్యతో చేయబడిన దానిని)
మండించి చలిమంట వేసికొనినాడట! మత విశ్వాసములకు
ఎంతటిదూరులో అంతగనే హేతువాదమునకు సైతము వీరు
దూరులు.
 ఈ ఛాన్్ బౌద్ధమున శూన్యతకు ప్రధాన స్థానము కలదు;
అందువలన శూన్యవాదపు ప్రభావము ఆనాటి చీనీయ చిత్ర
కళపై కూడ ప్రసరించినది. వారి చిత్రములలో ఎక్కువ
భాగము ఖాళీసలములగ ఉండెడివి. ఖాళీస్థలమున పాశ్చాత్య
చిత్రములలో రంగులువేసి ఆకాశముగ వదలి వేయబడు ఖాళీ
స్థలముకాదు; కుంచెతో తాకకుండ వలది వేయబడిన
ఖాళీస్థలమని చీనీయుల భావన. వారు చిత్రించుట పట్టుగుడ్డపై
జరిగినపుడు ఆ ఖాళీ స్థలమున పట్టుగుడ్డ ఖాళీగా ఉండెడిది.
పటమునందు ఎక్కడనో ఒకమూల ఏవియో రూపములన~ సిరాతో
చిత్రించి తక్కిన భాగమును శూన్యముగ వారు వదలెడివారు.
ఈ వదలుటలో ఎంతయో నిపుణత ఉన్నపుడు మాత్రమే
చిత్రమున రక్తి కన్పట్టనేర్చును. అట్టి సందర్భమున చిత్రిత
భాగము కన్నను అచిత్రిత భాగమే ఎక్కువ సుందరముగ
ఉండగలుగును.
 ఆ విధముగ ప్రాచీన చీనాదేశమున సౌందర్౟తత్త్వ
పరిజ్ఞానము పరిణతిని అందుకొనినది. ఇది ప్రముఖముగ చిత్ర
కళలో కన్పట్టినను, చీనీయకావ్యరచనయందును
నాట్యమునందునుకూడ ద్యోతకమైనది ఆ కాలపు జపానీయుల వివిధ
17-
జీవిత రంగములపై చీనీయ సంస్క఼ృతి తన ప్రభావమును
విరివిగ నెరపినది. తత్ఫలితముగ జపానీయుల జీవిత
విధానమును కళలను చీనీయుల సౌందర్యతత్త్వభావన లోగొనినది.
కాని జపానువారిలోని భావస్వాతంత్ర్యమును,
సృజనాస్వతంత్రతయు క్రమముగ జపానీయ కళాభావనకు ఒక ప్రత్యేకతను
కల్పించినవి.
 జపానీయుల నిత్యజీవితముననే ఎల్లెడల సౌందర్యానుభూతి
స్పందించుచుండును. వారు ఎంత సౌందర్యారాధకులో అంత
సాహసులు. ఒకవేళ, సాహసులలోనే సౌందర్యారాధనయు
నెలవు కల్పించుకొని ఉండునేమో! జపాన్్వారు జీవితమును ఏ
క్షణముననైన బలిదానము చేయుటకు సంసిద్ధులు;
శాశ్వతత్త్వముపై వారికి ప్రీతి తక్కువ; క్షణ భంగురతకు వారు
ఇష్టపడెదరు. ఇట్టి జీవితవైఖరియేవారి సౌందర్యతత్త్వమున
ప్రతిబింబించినది. అట్టి సౌందర్యతత్త్వమే తిరిగి వారి జీవితమున ప్రతి
ఫలించినది.
 ప్రగాఢ విష౟ములందుననేకాదు; సామాన్య
విషయములలో సైతము జపానీయులు మహత్త్వమును తిలకించుదురు;
సృష్టించుదురు. ఇందులకువారి `హైకూ' కవితయు, `సుమియీ'
చిత్రకళయు ముఖ్య తార్కాణములు. జపానీయుల మీద `జెన్్'
బౌద్ధపు ప్రభావము ఎక్కువగ కలదు. జెన్్ సిద్ధాంతమును
అనుసరించి ఏ పనిని ప్రయత్నించి చేయకూడదు. ఏ
కార్యమైనను మెరుపువలె దానియంతట అది త్రుటికాలమున
సంఘటిల్లవలయును. హైకూ కవితలోని గీతము మూడు పంక్తులు
కలిగిన పదునేడు మాత్రల త్రిపద. దీనిని ఒక్క త్రుటి
కాలమున ఆలోచన ఎట్టిదియు లేకుండ, మెరపు మెరసిన రీతిగ
కవి రచించును. ఇట్టిదే సుమియీ చిత్రము. సిరాతో కుంచెను
ఎచ్చటను ఆపకుండ ఒక్క క్షణమున ఈ చిత్రపు రచన
జరుగును. ఈ విధపు హైకూ కవితకును, సుమియీ చిత్రణకును
ఎంతయో మానసిక సాధన అంతకు పూర్వమే జరిగి
ఉండవలయును. జెన్్ బౌద్ధము తెచ్చిన సౌందర్యతత్త్వభావనలో ఇది
ఒక భాగము.
 ఇక జపానీయుల తేనీటిపండుగ కళాత్మతకు విశ్వ
విఖ్యాతిని గడించినది. తేనీటి పాత్రను అందుకొనుట, తేనీటిని
తయారూచేయురీతి, తయారైన తేనీటిని పొయ్యినుండి దించు
పద్ధతి, దానిని అతిథులకు సమలంకృత పాత్రలలో అంద
జేయుటలోని విన్నాణము మొదలగు కార్యకలాపము అంతయును
వారి సౌందర్యతత్త్వ సంభావనకు ప్రతీక. అది అంతయు ఒక
రసమయ కళాఖండముగ పరిగణనీయము.
 జపానీయుల సౌందర్య భావన ఏకతానము వంటిది.
బాహుళ్యమునుగాక, సరళతను మాత్రమే అది ఆశ్రయించినది.
వారి సౌందర్యారాధనలో ఏక వస్తువునకు ప్రాముఖ్యము చాలగ
కలదు. గోడమీద ఒకే ఒక చిత్రమును తగిలించుట, మేజా
మీద ఒకే ఒక పూవును ఉంచుట మొదలగు వానిలో
రసానందమును వారు పొందెదరు.
 తేనీటిగది అలంకరణలో పౌనఃపున్యమును జపానీయులు
గర్హింతురు. గదిని అలంకరించు వస్తువులలో రూపమునగాని
రంగునగాని సాదృశ్యము గోచరింపజేయునది ఏదియు ఉండ
రాదు. గదిలోని మేజామీద ఒక పుష్పమును ఉంచిన ఇక ఆ
గదిలో పుష్పపు చిత్రము ఉండగూడదు. అట్టిచిత్రము ఉన్న
యెడల నిజమగు పుష్పము ఆ గదిలో ఉండతగదు. తేనీటికై
గుండ్రని పాత్రను వాడినచో నీటికై పలకలపాత్రను
ఉపయోగింపవలయును. గిన్నె నల్లరంగులో ఉన్న గ్లాసు నల్లరంగులో
ఉండరాదు. పుష్పపాత్రను మేజామధ్౟న ఉంచతగదు. ఆవిధముగ
ఉంచిన మేజాబల్లరెండు సమభాగములుగ గోచరించగలదు.
మేజాను చేయుటకు వాడిన కొయ్యయు ముక్కాలిపీటకై వాడిన
కొయ్యయు ఒకే జాతికి చెందినవి కారాదు.
పాశ్చాత్యదేశములలో ఇంటిలోని గోడపై ఇంటి యజమాని రూపచిత్రము నిండు
ప్రమాణమున వేలాడగట్టబడి ఉండును. దానివద్దనే యజమాని
నిలిచి అతిథులతో ప్రసంగించును. అట్టి సంఘటనను
పరికించిన ఒక సుప్రసిద్ధ జపానీయకళావేత్త, ఒకాకురా కకూజో,
విస్తుపోయెను. `ఆ ప్రసంగమును నిర్వహించునది
ఇంటియజమానియా? లేక అతని చిత్రపటమా?' అని ఆ కళావేత్త
ఆశ్చర్యము ప్రకటించెను. ఇట్టి పౌనఃపున్యదోషాలను
జపానీయుల సౌందర్యభావన సహింపనేరదు.
 జపానువారి పుష్పాలంకరణ గొప్ప రససృష్టి.
అలంకరణలోని ఒక పుష్పము వాడిపోయిన దానిని తీసి నేలపై వేసి
కాళ్ళతో తొక్కరు. యజమాని ఆ పుష్పమును జాగ్రత్తగ తీసి
నదిలో కలుపుటయో, మట్టిక్రింద పూడ్చి పెట్టుటయో చేయును.
ఒక్కొక్కసారి అటువంటి పుష్పములకు స్మారక చిహ్నములు
నిర్మించుటకూడ జరుగుచుండును.
 ఇక జపానువారి చిత్రకళ లోక ప్రసిద్ధము. ప్రకృతిలోని
దృశ్యములను ఎన్నింటినో చిత్రించుటయందు వారు సిద్ధ
హస్తులు. కొండలు, కోనలు, ఆకులు, పుష్పములు, జంతువులు,
పక్షులు మొదలగువానిని చిత్రించుటలో వారు ప్రదర్శించు నేర్పు
ప్రశంసనీయము. జపానీయుల సౌందర్యభావనలో
బాహ్యపరిశీలనయు అంతర్వీక్షణయు సమప్రతిపత్తిని కలిగియున్నవి.
18-
 కళల వర్గీకరణ
 కళలు ఇంద్రియ గ్రాహ్యములు. ఈ ఇంద్రియములలో
ప్రధానములు రెండు: 1. కన్ను, 2. చెవి. కన్నునకు
సంబంధించిన కళలు దృశ్యకళలు; చెవికి సంబంధించినవి శ్రవ్య
కళలు; రెండింటికిని సంబంధించినవి మిశ్రమకళలు. దృశ్య,
శ్రవ్య, మిశ్రమములను ఈ మూడు విధముల కళల మొత్తపు
సంఖ్య అరువదినాలుగని ప్రాచీన భారతీయుల అభిప్రాయము.
కాని వీనిని తెలియజేయు పట్టికలు మాత్రము వివిధ
గ్రంథములందు వివిధరీతులుగ ఈయబడినవి. `గ్రంథ సంజ్ఞా దర్పణమ్్
అను ఒక ప్రామాణిక గ్రంథమున ఆ పట్టిక ఈ రీతిగ
ఉన్నది.
 ఈ కళల పట్టికను పరిశీలించిన జీవితమున కళకానిది
ఏమియు లేనటుల తేలుచున్నది. అందులకే కాబోలు
అన్నింటికన్నను జీవితమే ఒక బృహత్తర కళగ పెద్దలు భావించిరి.
తర్కశాస్త్రము, వైద్యశాస్త్రము మొదలు తంత్ర మంత్రముల
వరకు కళలక్రిందనే లెక్కింపబడినవి. నిజమునకు కౌశలముతో
చేయు ఏ పని అయిసను కళయే కాగలదు. ఈ కళలలో భూత
శిలాపాతమను కళకూడ పేర్కొనబడినది. దీని అర్థము
బహుశః భూతములచేత విరోధుల ఇండ్ల మీద రాళ్లు
రువ్వించుటయో, సొంత ఇంటిని నిర్మించుకొనుటకు భూతములచేత రాళ్లు
తెప్పించుకొనుటయో అయియుండును. భాషా విశేషము
(విలక్షణ భాషలనుమాటాడ నేర్చుట) కూడ ఒక కళగనే పరిగణింప
బడినది. భ్రమణము (పర్యటనచేయుట) కూడ కళలలో చేర్చ
బడినది. అగ్నిస్తంభన, జలస్తంభన మొదలగునవి మానవునకు
కొన్ని సమయములందు ఎంతో ఉపయోగపడు కళలు. పూర్వ
కాలమున ఈ అరువదినాలుగు కళలను అభ్యసించుట
విద్యావంతుల లక్ష్యముగ ఉండెడిది. కొందరు కొన్నింట మాత్రమే
నిపుణతను ఆర్జించెడివారు. కొలదిమంది మాత్రమే కళలు
అన్నింటితో పరిచితిని సంపాదించెడివారు. అందును ఏ ఒకరితో వీని
యందు నిపుణత లభించెడిది.
 పైన తెలుపబడిన అరువది నాలుగు కళలలో కొన్ని రస
ప్రధానములు, మరికొన్ని ఉపయోగితాప్రధానములు. రస
ప్రధానములు లలితకళలని, ఉపయోగితాప్రధానములు చేతి
పనులని వ్యవహరింపబడుచున్నవి. వాస్తుశిల్పము
ఉపయోగితాప్రధానము అయినను అది లలితకళలలోనే
చేర్చబడినది. చిత్రకళ, శిల్పకళ, వాస్తుశిల్పము, సంగీతము,
సాహిత్యము, నృత్యము, నాటకము మొదలగునవి లలితకళలుగ
పరిగణింపబడగ, కుమ్మరిపని, కమ్మరిపని, కంచరిపని,
వెండి-బంగారుపని, నేతపని, బుట్టల అల్లకము మొదలగునవి
చేతిపనులుగ లెక్కింపబడుచున్నవి. చేతిపనులయందును
ఎంతయో కళావిదగ్ధత కన్పట్టును. కౌశలము కలదు అంతయు
కళయే కాగలదు; కాని లలితకళ కాజాలదు. రసానుభూతి
ప్రధానమైనదియే లలితకళ. అటులని రసానుభూతిని ఇచ్చెడు
కళలు ఉపయోగకారులు కాగూడదను నియమము ఉన్నటుల
భావింపతగదు. నిత్యజీవితములో ప్రాకృతిక ఉపయోగానికి
19-
పనికివచ్చుటయే ప్రధాన ధర్మముగ కలిగినవి
చేతిపనులనియు, రసానందమును కల్పించుటయే ప్రధాన ధర్మముగ
కలిగినవి లలితకళలనియు చెప్పదగును. నగిషీచేసిన కొన్ని
ఇత్తడి పాత్రలును, తూర్పు ఆసియా దేశములందలి పింగాణి
పాత్రలును, ఇట్టివే మరికొన్ని వస్తువులును
నిత్యోపయోగమునకై రూపొందింపబడినవియే అయినను వానిని లలితకళలుగ
భావించి ఆనందించుటకును అవకాశము కలదు.
 ఒకరీతిగ పరికింపగ, లలితకళలను సైతము
నిత్యజీవితమున ఉపయోగము నిమిత్తమే వాడుకొనువారును కలరు.
సంగీతమును భక్తిభావోద్దీపనకై వాడుకొనువారును, శిల్పీలను
చిత్రాలను పూజార్థమై పనిగొనువారును ఇట్టివారలే. త్యాగరాజ
కృతులను, మీరాబాయి కీర్తనలను భక్తిభావ ప్రబోధమునకు
ఉపయోగింపగ, మొవ్వగోపాలపదములును ఇతర జావళీలును
శృంగారభావమునకు పదును పెట్టుటకై ఉపయుక్తమగుట
జరుగుచున్నది. ఇదే విధముగ తక్కిన లలితకళలను కూడ
నిత్యవ్యవహారములకొరకై వాడుకొనుట కనబడుచున్నది.
అటుల నిత్యజీవన వ్వవహారములకు ఉపయోగపడుతచున్నవను
కారణమున అవి లలితకళలు కాకుండునా?
 అన్ని దేశములందును, అన్ని కాలములందును
లలితకళలను సంఘ సంస్కార ప్రచారమునకును రాజకీయ
ప్రచారమునకును, మతవ్యాప్తికిని ఉపయోగించుట జరుగుచునే ఉన్నది.
అయితే ఇక్కడ `కళకొరకే కళ' అను సూత్రము చెల్లనేరదు.
జీవితము కొరకే కళ అనుట అపుడు సరిపోగలదు. ఇట్టి
సందర్భములందు కళ అనునది తన రంగును, తన రూపమును
ప్రదర్శించుకొనుట కేకాక తన రంగమూలమున, తన రూపము
మూలమున తన రంగుకానట్టిదియు తనరూపము కానట్టిదియు
అగు విషయమును ప్రదర్శించును. ఇచ్చట కళ అనునది
మరొకదానికి మార్గమేకాని గమ్యముకాదు. అయినను ఇట్టి
పాత్రను నిర్వహించునవియు లలితకళలు అను ప్రథను కలిగి
ఉండుటను ఎవరును కాదనుట లేదు.
 కొన్ని చేతిపనులలో అద్భుతమగు రూపశిల్పము కననగును.
కొన్ని ఇత్తడి దీపస్తంభములు, చూచుటకు, శిలాప్రతిమలవలె
ఎంతయో రూపసౌందర్యముతో కన్పట్టును. వానియందు
దీపమును వెలిగించి వాడుకొనుటకు మారుగ వానిని చూచుచునే,
శిల్పమునందు రీతిగ, ఆనందానుభూతిని పొందవచ్చును. ఇట్టిది
ఎటుల సాధ్యము కాగలదు? దీనిలో ఉపయోగిత కన్నను
రూపానందము ఎక్కువ ఉండుటయే ఇందులకు కారణము. తూర్పు
ఆసియా రాజ్యములలో `జేడ్్' శిలతో తయారగు కూజాలవంటి
వివిధాకృతుల పాత్రలును, పింగాణి పుష్పపాత్రలును
ఉపయోగముకన్న రసానుభూతినే ఎక్కువగ ప్రసాదింప సమర్థములు.
రసానందముకన్నను ఉపయోగానికే ఎక్కువగ అంకితము
లయిన లలితకళలును, ఉపయోగమునకన్న మిన్నగ
రసానుభూతికే ఎక్కువ అవకాశమును ఇచ్చు చేతిపనులును ఇటుల
కన్పట్టుచున్నవి. అయినను సాధారణ వ్యవహారమున అవి
రెండును లలితకళలు, చేతిపనులు అను వేర్వేరు వర్గములకు
చెందగలిగినవిగనే పరిగణింపబడుచున్నవి. లలితకళలు, చేతి
పనులు అను ఈ వర్గీకరణమున యంత్రయుగ ప్రభావమున
యాంత్రిక కళలు అను వేరొక వర్గముకూడ ఆధునిక
యుగమున తావు కల్పించుకొనినది. సినిమా, రేడియో
మొదలగునవి అట్టి యాంత్రిక కళలు. అందువలన లలితకళలను
చర్చించు పట్టున వానికి సన్నిహితములగు యాంత్రిక కళలను
గురించియు, చేతిపనులను గురించియు చర్చించుట సముచితము.
ఈ మూడు విధములగు వాని వివిధోపాంగములను గురించిన
సమగ్ర చర్చ అకారాదివర్గమున ఈయబడినను ఈ దిగువ
ఆయా వర్గములందు ప్రముఖములగు వానిని గురించి అతి
సంక్షిప్త కథనము పొందుపరుపబడినది.
 లలిత కళలు
 దృశ్య, శ్రవ్య, మిశ్రమములకు చెందిన లలితకళలలో వాస్తు
శిల్పము, శిల్పకళ, చిత్రకళ, సంగీతము, నర్తనకళ, నాటక
కళ, సాహిత్యము ప్రముఖములు (సాహిత్యమును గురించి
ఇందు వివరింపబడలేదు. విజ్ఞానసర్వస్వపు ఆరవ సంపుటమున
అయ్యది సమగ్రముగ చర్చితము; కావున ఇట వదలివేయ
 వాస్తుశిల్పము
 ఉపయోగితా ప్రధానపు కళలకును, రసాత్మక
కళలకును మధ్య సేతువుగ పరిగణింపదగినది వాస్తు శిల్పము.
భవన నిర్మాణప్రక్రియ యందలి ముఖ్యభావన
సౌందర్యసేవనమను కళాపిపాసయా? లేక నివసించుట అను
ప్రయోజనాపేక్షయా? అను సందియము పెక్కు సందర్భములందు
కలుగుటకు తావు కలదు. ప్రాచీన కాలమున భవన నిర్మాణ
ప్రక్రియయందు ప్రయోజనదృష్టి కన్నను సౌందర్యదృష్టియే
ఎక్కువగ ఉండెడిది. కావ్యరచనలో గద్యమున కన్నను, పద్యమునే
ఎక్కువగ అభిమానించిన ఆ కాలమున అట్టి దృష్టి ఉండుట
సహజమే. ఆధునిక యుగమున పద్యమున కన్న గద్యమునకే
ఎక్కువ గణనకలదు. అందువలన సౌందర్యదృష్టికన్నను
ప్రయోజనదృష్టికే ఎక్కువ ప్రాచుర్యము నేటి వాస్తు శిల్పమున
కన్పట్టు చున్నది. అయినను సౌందర్యభావనను విస్మరించుట
ఆ కళయందును సంభవించుటలేదు. నేటి భవన నిర్మాణము
ఒక విధముగ ప్రయోజన లక్ష్యమునకు సౌందర్యభావనతో
సమన్వయతను సాధించుచున్నదని చెప్పదగును. ఇట్టి
ప్రక్రియకు ఆకరము అగుట వలననే సకల విధ కళలకును వాస్తు
శిల్పము తల్లి అని పెద్దల సుభాషితము. ఔను, గృహము
ఉన్ననేకదా అందున శిల్పములను, చిత్రములను ఉంచుట.
 శరీరమున ఆత్మ నివసించును; అటులే గృహమున
శరీరము నివసించును. అట్టి గృహమును నిర్మించుటకు
ఉపకరించు వాస్తుశిల్పము తక్కిన కళలకు జననిగ భావితమగుట
సహజమే. ఆదిమ మానవునికి గుహ ఉన్నది; కాని గృహము
లేదు. ఒకవేళ `గుహ' అను పదమునుండియే `గృహము' అను
పదము ఉత్పన్నమైనదా అను విషయము భాషాతత్త్వవేత్తలు
నిర్ణయింపదగునది. వాతావరణ బాధలనుండి రక్షణ కొరకు
ఉద్దేశితమగు గృహనిర్మాణము కాలక్రమమున ఒక సుకుమార
శిల్పముగ పరిణమించినది. గంధప్రధానమగు భూమిని, శబ్ధ
ప్రధానమగు గగనమును ఐక్యపరచునదియే భవన నిర్మాణ
కళ. అది నిలువురేఖలకును, అడ్డరేఖలకును, సమన్వయమును
సమకూర్చు లయవిన్యాసము; ప్రయోజనమునకును
సౌందర్యమునకును సంగమమును కలిగింపనేర్చు విన్నాణము. భూమికి
ఆకాశము గొడుగుగ వర్తించును; భూమి మీద మానవునకు
గృహము గొడుగుగ ఉపకరించును. వాస్తుశిల్పమును గురించి
స్వర్గీయ ప్రొఫెసర్్ హెర్బర్ట్్రీడ్్ ఈ దిగువ రీతిగ వచించెను.
 "పదార్థరాశి అనునది ఘనీభవించిన శూన్యప్రదేశము;
పదార్థరాశికిని శూన్యప్రదేశమునకును మధ్య ఉండు సంబంధపు
ఫలితములే వెలుగు నీడలు; శూన్యప్రదేశపు విలోమభావనయే
పదార్థరాశి. భవన నిర్మాణ కళయందు ఈ భావన
ప్రముఖముగ స్పష్టమగును. ఆ భవనమును భావించుటలో
దానిని శూన్య ప్రదేశమును ఆవరించిన గోడలుగనైనను
భావింపవచ్చును; అట్టి సందర్భమున దానిని భవనములోనుండి
పరికించవలసి ఉండును. లేదా ఆ భవనమునే ఒక పదార్థ
రాశిగ పరిణమించిన కొన్ని బాహ్యతలములగను
భావింపదగును. అట్టి సందర్భమున ఆ భవనమును వెలువలనుండి
పరికింపవలసిఉండును. ఇందు తొలుతదానికి గోతిక్్
సంప్రదాయమున నిర్మితమగు చర్చియు, రెండ఼వదానికి గ్రీకుల
దేవాలయమును స్పష్ట నిదర్శనములు. అనావృత ప్రదేశపు భావనను
అరికట్టుటకు గ్రీకు స్థపతి యత్నింపగ వస్తురహిత
శూన్యప్రదేశమును వాయు విరళతను భావితములుగ చేయుటకై గోతిక్్
స్థపతి కృషిచేసెను."
 భవన నిర్మాణమున ఒక విచిత్రము కననగును. భవనము
లోపలను, వెలుపలను ఉండునది అంతరిక్షమే. భవనపు
వెలుపలి భాగమును పరికించినపుడు శూన్య ప్రదేశముచే
పరివృతములగు గోడలు కన్పించును. లోపలి భాగమును పరికింప
గోడలచే ఆవరింపబడిన శూన్య ప్రదేశము గోచరించును. ఇటుల
బయటి శూన్య ప్రదేశమునకును లోపలి శూన్య
ప్రదేశమునకును మధ్యన గోడలు ఉండును. అంతరిక్షమును లోనిదని
వెలువలిదని విభజించునదియే భవన నిర్మాణము.
 శిల్పకళ
 క్రమ పరిగణనలో దృశ్యకళలందు వాస్తుకళ తరువాత
లెక్కకు వచ్చునది శిల్పకళ. వాస్తుకళ ఎక్కువగ వస్తుగత
నిర్మాణమే; అది ఏ భావమును వ్యక్తపరచని శుద్ధరూపము.
వాస్తు నిర్మాణములలో వైవిధ్యము తక్కువ. ఒక్కొక్క నిర్మా`
ణమున ఒక్కొక్క విశిష్టత ఉండుట సాధ్యమే అయినను
మొత్తముమీద భవనముల నిర్మాణమున సాదృశ్యమే విరివిగ
కన్పట్టును. భవనమునకు వెలుపల మనము సంచరింపగలము;
లోపలివైపునను సంచరింపగలము. ఇక శిల్పకళ అట్టిది
కాదు. ఒక శిల్పముచుట్టును మనము సంచరింపనేర్తుము; కాని
శిల్పములోపల చరింపజాలము. వాస్తునిర్మాణమువలెకాక శిల్ప
నిర్మాణము ఏదైన భావమును అభివ్యక్తము చేయును. వాస్తు
నిర్మాణమును స్థపతి స్వయముగ తన చేతులతో నిర్మింపడు
పలువురిచేత నిర్మింపజేయును. శిల్ప నిర్మాణమును శిల్పి
స్వయముగ తన చేతులతో రూపొందించును. కనుక ఇది వ్యక్తికృత
సృష్టి. వాస్తు నిర్మాణపు సమగ్ర రూపమును అర్థము చేసికొని
వలయుననిన దానిని కొంత దూరమునుండి చూడవలయును
అంతకన్న తక్కువ దూరముననుండి చూచిననే శిల్ప విశిష్టత
విశదము కానేర్చును. వాస్తు నిర్మాణములోని లోపములు
సామాన్యులకు త్వరితముగ అవగాహనకు రావు. కాని శిల్ప
నిర్మాణములోని లోపములు పలువురకు సులభముగ అవగాహన
కానేర్చును. దృశ్య జగత్తులోని ఏ ఇతర వస్తు రూపమునకును
సారూప్యమును వాస్తు నిర్మాణము కలిగి ఉండదు. శిల్పములందు
పెక్కింట మానవాది రూపముల సాదృశ్యము ఎక్కువగ
కననగును.
 మూడు ఆయతనము (డైమెన్్షన్్) లను కలిగి ఉండుట
అనునది శిల్పమున కన్పట్టు ప్రధాన లక్షణము. శిల్పమూర్తి
లోని ప్రతి అవయవమునుకూడ మనము చేతితో స్పర్శింప
వచ్చును. శిల్పములోని మెరక పల్లములపై వెలుగు ఎంతయో
ప్రభావమును నెరపు చున్నది. తీక్ష్ణమగు వెలుగులో ఒక
శిల్పమును చూచినపుడు అందలి మెరక పల్లములు విశదముగ
నిర్మాణమును శిల్ప సందర్శనమును లలితకాంతిలో
జరుగవలయును శిల్పమున పెక్కు చిన్న చిన్న తలములు (ప్లేన్సు)
ఉండును. వానిని సందర్శింపనేరకున్న శిల్ప సౌందర్యభావన
అసమగ్రముగ ఉండిపోవును. శిల్పముమీద ప్రసరించు
మృదు
21-
వగుకాంతి వెలుగు నీడలను స్పష్టముగ గోచరింప చేయునదిగ
ఉండవలయును.
 శిల, మట్టి, కొయ్య, దంతము, లోహము ఇంకను ఇట్టివియే
అగు ఇతర పదార్థములు శిల్పమునకు ఉపకరించును. శిలలో
కాని, వేరొక పదార్థమునగాని తమ కల్పనానుసారముగ దాగి
ఉండిన రూపమును క్రమరీతిలో వెలుపలికి తెచ్చు పనితనపు
ఫలితమే శిల్ప నిర్మాణము. ఒక గుండ్రని చెట్టుకొమ్మను కొట్టి
దానిని నాలుగు పలకల స్తంభముగ చెక్కుట, లేదా నాలుగు
పలకల రాతిని గుండ్రముగ స్తంభాకృతిగనో లింగాకృతిగనో
మలచుట అనునవి సులభములగు శిల్పకార్యములు. ఆదిమ
శిల్పులు రాతియందైనను, కొయ్యయందైనను ఏదియో ఒక
జంతురూపముగాని, మానవరూపముగాని, తమకు వేద్యమగు
వేరొక రూపముగాని ఆభాస మాత్రమున తమకు గోచరితమైన
యెడల దానిని చెక్కియో మలచియో ఆ ఆకృతికి స్ఫుట
రూపమును కల్పించెడివారు. చరిత్ర పూర్వ యుగమున ఆనాటి
శిల్పులు జంతువుల ఎముకలను చెక్కి అనేక విధముల
మూర్తులను తయారు చేసెడివారు. దాదాపు 25,000 సంవత్సరముల
నాడు ఆదిమ శిల్పులు ఎముకతో తయారుచేసిన జంతుమూర్తిని
పురాతాత్వికులు స్పెయిన్్లోని పిరనీజ్్ పర్వత గుహలనుండి
వెలికి తీసిరి.
 శిల్ప నిర్మాణము సాధారణముగ మనము అన్ని వైపుల
నుండియు చూచి సంభావించుటకు అనువుగ ఉండును. కాని
ముందువైపునుండి మాత్రమే చూచుటకు వీలయిన శఇల్పములును
కలవు. వీనిని ఉల్బణ (రిలీఫ్్) శిల్పములని వ్యవహరింతురు.
ప్రపంచమునందు అంతటను దేవమందిరముల గోడలపయినను
ప్రాచీన గ్రీసుదేశపు సమాధులమీదను కొన్ని శవపేటికలపైనను
ఇట్టి ఉల్బణ శిల్పములు కననగును. యూరపున తొలుతటి
క్రైస్తవ శిల్పములలో ఇట్టివి ఎక్కువగ కనబడుచున్నవి.
 ఈ ఉల్బణ శిల్పములు మూడు విధములుగ ఉన్నవి. ఇవి:
1. అల్పోల్బణ శిల్పము (బాస్్ రిలీఫ్్, లో రిలీఫ్్) 2.
అధికోల్బణ శిల్పము (అల్టో-రిలీవో, హై రిలీఫ్్), 3. కర్షితరేఖా
శిల్పము( ఇన్్సైజ్్డ్్ డ్రాయింగు) అనునవి. మొదటి
దానియందలి శిల్పము ఆధారభూమికపైన కొలది ఎత్తున మాత్రమే
ఉబ్బెత్తుగ ఉండి గోచరించును. రెండవదానియందు ఆ
ఉబ్బెత్తురీతి కొంత ఎక్కువ ఉన్నతముగ కన్పట్టును. మూడవ
దానిలోని ఆకృతులలో ఉబ్బెత్తురీతి కన్పట్టదు; కాని ఆకృతిని
తెలియజేయు రేఖలు లోతుగ ఆధారముపై గీయబడి ఉండును.
ఈ మూడవ విధపు వానిని శిల్పరేఖాచిత్రాలుగ భావింపవచ్చును.
ప్రాచీన ఏతెన్స్్ నగరములోని పార్తినాన్్ దేవళమునుండి వెలికి
తీయబడిన ఒక అధికోల్బణ శిల్పము రమణీయతకు
పేరొందినది. అందు ఇద్దరు నగ్నవ్యక్తులు గుర్రములను ఎక్కి
పోవుచుండుట కననగును. గుర్రాల గతిశీలత అద్భుతముగ అందు
వేద్యము చేయబడినది. గుర్రపు రౌతుల శిల్పవైఖరి
భావగర్భితముగ కన్పట్టును. గ్రీకు శిల్పములలోని మూర్తులు చాలవరకు
దిగంబరములగనే ఉండును. శారీరక సౌష్టవమునకు గ్రీకులు
ఎక్కువ విలువను ఇచ్చెడివారు. అందువలన శరీర సౌష్టవ
సౌందర్యములను సమగ్రరీతిలో తీర్చెడివారు. ప్రాచీన భారతీయ
శిల్పమునందును ఉల్బణ శిల్పములును, వర్తులరీతిలో
పూర్ణశిల్పములును బహుళముగ కననగుచున్నవి.
 నేటికాలపు మూర్తి శిల్పమున రంగులువేయు పద్ధతిలేదు.
కాని ప్రాచీనకాలమున గ్రీసునందును, రోమనను మూర్తులకు
రంగువేసెడి పద్ధతి ఉండెడిది. భారతదేశమున మట్టితే చేసిన
దేవతావిగ్రహములకు రంగువేయు ఆచారము ఇప్పుడును కలదు.
కాని ప్రాచీన దేవాలయములలో ఆరాధింపబడు దేవవిగ్రహము
లకు రంగువేయు ఆచారములేదు. శిల్పమూర్తులకు రంగువేయు
ఆచారము అంతరించినప్పటినుండి శిల్పమూర్తుల అవయవాలకు
ఒక స్పర్శనీయత (టెక్్శ్చర్్) ను పెంపొందింపజేయుట అను
సంప్రదాయము ఏర్పడసాగినది. మూర్తియందు కొన్ని
తావులను నున్నగను, మరికొన్ని తావులను గరుకుగను
మలచుటవలన ఈ స్పర్శనీయతను రూపొందింతురు. శిలను కొన్ని
భాగములందు నున్నగ పాలీషుచేసి వాని దగ్గరలోనే కొన్ని
భాగములను గరుకు-గరుకుగ వదలివేయుటవలన ఈ రెండు
స్పర్శనీయతల మధ్య వ్యత్యస్తరమ్యత (కాన్్ట్రాస్ట్్) ఏర్పడి
రసానందము ఉత్పన్నము కాగలుగును. ఇట్టి
వ్యత్యస్తరమ్యతను విఖ్యాత ఫ్రెంచి శిల్పి ఆగస్ట్్రోడిన్్ తన శిల్పములందు
చక్కగ ప్రదర్శించెను. వర్ణలేపనమును విరమించిన తరువాత
మూర్తిశిల్పణమున రేఖను, కాంతిపాతమును ప్రదర్శించుటలో
శిల్పులు ఎక్కువనేర్పును చూపసాగిరి. అందులకు తోడుగ
లయ విన్యాసమునకును ప్రాధాన్యము హెచ్చినది.
 శిల్పకళయందు స్థిర రసము, లేక శాంతరసమునకు
ప్రాధాన్యము ఎక్కువ. నానారేఖల గతి చాంచల్యములమధ్య, వివిధ
పదార్థరాసులమధ్య, విభిన్న భౌరతౌల్యముల మధ్య, ఇట్టి
స్థిరమగు శాంతరసము లోకోత్తరముగ కన్పట్టును. గతిని
అతిక్రమించిన స్థితి ఎంతయో శాంతిని సృజింపనేర్చును. ఇట్టి శాంత
రసము ప్రాచీన గ్రీకు శిల్పమునకు, దాని అనుకృతియగు
ఇటలీదేశము మూర్తి శిల్పమునను గోచరించును. భేరతదేశపు
అనేక దేవప్రతిమలందును. గోతిక్్ క్రైస్తవ మూర్తులందును
ఇది వేద్యమగుచున్నది. భారతీయుల `ధ్యానబద్ధ'
ప్రజ్ఞాపారమిత' మొదలగు మూర్తులలో ఈ సాత్త్విక శాంతరసము
ప్రస్ఫుటముగ కన్పట్టును. భారతీయ శిల్పధారనే అనుసరించిన
ప్రాచీన చీనాలోని కొన్ని దేవమూర్తులందును ఈ శాంతరసము
22-
కననగును. ఇట్టి శాంతమూర్తినే "నిర్వాత నిష్కంప ఇవ
ప్రదీపమ్్"గాలి విసరని చోటున ఉన్న చలించని దీపశిఖగ కవులు
వర్ణించిరి.
 పైన తెలుపబడిన ప్రశాంతస్థితిని రాతియందుగాని,
కొయ్యయందుగాని అట్టి ఏ ఇతర పదార్థమునందుగాని రూపొందించుట
కొంత సులభమే కావచ్చును. కాని గతిశీలతను ప్రదర్శించుట
అంతగ సులభము కాదు. అయినను అన్నికాలములందును
అటనట సిద్ధహస్తులగు శిల్పులు అచేతనమగు శిలమీద కల్పిత
మూర్తుల మూలమున గతిశీలతా లయవిన్యాసములను సృజింప
గలిగిరి. ఇదివరలో ఉల్లేఖితమగు పార్తినాన్్లోని గుర్రముల
శిల్పము ఇందులకు ఒక తార్కాణము. ఇక భారతీయ శిల్ప
సంప్రదాయమున దక్షిణ భారతపు నటరాజవిగ్రహము గతిశీల
తను ప్రదర్శించుటలో విశిష్టతను ఆర్జించినది. అందు
ప్రదర్శితములగు అఖండ నృత్యమును అనంతగతిని, విశ్వవ్యాప్తలయ
విన్యాసములను పరికించినపుడు ఆ నటరాజవిగ్రహము దానికి
అదియే సాటి అని చెప్పదగినది. అచట అభివ్యక్తము శివ
తాండవముకాదు, విశ్వతాండవము.
 విశ్వశిల్ప సంపదకు భారతదేశము రెండు అమూల్య శిల్ప
కళాఖండములను సమర్పించినది. అందొకటి ఉత్తర భారతము
రూపొందించిన `ధ్యానబుద్ధ' మూర్తి. రెండవది దక్షిణభారతము
రూపు తీర్చిన నటరాజ విగ్రహము. వీనిలో తొలుతటిది
ప్రశాంతికి స్థిరభావమునకు ప్రతీక; రెండవది గతిశీలతకు,
జీవవంతమగు లయవిన్యాసమునకు మారురూపము. ఇటుల స్థితియు
గతియు సమన్వయతను సాధించినపుడు ప్రాణస్పందనమున
ఒక భారతౌల్యము ఏర్పడును. జడచేతనములకు ఒకరీతి
ఐక్యము చేకూరును.
 అధిశారీరము (అనాటమీ) ను గురించి పరిజ్ఞానము శిల్పికి
అవసరమని ఒకప్పుడు భావింపబడుట వలన ఆనాటి శిల్పులు
ఆ శాస్త్రమున పరిచితిని ఆర్జించెడివారు. మానవదేహమునకు
సంబంధించిన పరిజ్ఞానము కలిగిన శిల్పి మానవమూర్తి
శిల్పములను నిపుణతతో సృజించుననుట కొంతవరకు మాత్రమే
యథార్థము. వ్యాకరణమును కంఠస్థము చేయుట కవితాచాతురికి
ఆవశ్యకము కాదు. అటుల కంఠస్థము చేయుటలో తప్పు
ఎట్టిదియు లేదు; కాని కవికి అది ఒక విధి మాత్రము కాదు. ఒక
వేళ వ్యాకరణమును నేర్చుకొనినను, దానిని కవి
మరచిపోవుటయే మంచిది. అదేవిధముగ శిల్పియు అధిశారీరమును
(అనాటమీని) తెలిసికొని దానిని మరచిపోవుట సముచితము.
అధిశారీరమును దృష్టిలో ఉంచుకొని నిర్మించిన శిల్పము
వైజ్ఞానిక శిల్పము కాగలదు; కాని రసశిల్పము కానేరదు. ప్రాచీన
యుగపు గ్రీకులకు అధిశారీరవిషయమున పరిజ్ఞానము
శూన్యమని అనెదరు. కాని తరువాతి కాలపు శిల్పులు, అధిశారీర
విజ్ఞులగువారలు, నిర్మించిన శిల్పములకన్నను ఆ ప్రాచీన
గ్రీకులు, అధిశారీర విజ్ఞాన శూన్యులు, నిర్మించిన శిల్పు
మూర్తులే ఎక్కువ రసస్ఫూర్తి కలిగి ఉన్నవని కళా మర్మజ్ఞుల
అభిప్రాయము.
 అటులని శిల్పులకు అధిశారీరపరిచితి ఉండుట మంచిది
కాదని ఎవరును అనరు. కాని రససృష్టిలో ఆ
అధిశారీరమునకు ప్రధానతను కల్పింపరాదు. అధిశారీర పరిచితి వలన
అవయవముల పరిమాణ నిష్పత్తులు ఏ విధముగ
ఉండవలయుననుట తెలియగలదు. ఇట్టిది తెలిసి ఉండుటవలన నష్టము
ఏదియు కలుగదు. భారతీయ శిల్ప శాస్త్రజ్ఞులు ఈ నిష్పత్తి
పరిజ్ఞానమునే `తాలమానము' అని వ్యవహరించిరి. ఇట్టి తాల
మానము శిల్పికి చాల ఆవశ్యకము. ఆరోగ్యవంతుడగు
సాధారణ మానవుని శారీరక ప్రమాణమును కొలబద్దగ తీసికొని
మూర్తి నిర్మాణము పూర్వమున జరిగెడిదని విజ్ఞులు చెప్పెదరు.
ఇటలీ దేశవాసి విట్రూవియస్్ ఈ విధపు కొలతను
ప్రమాణముగ గ్రహించి మానవదేహపు అంగప్రత్యంగములకు కొన్ని
కొలతలను నిర్ణయించెను. వీనినే "నిష్పత్తిసూత్రములు" అని
వ్యవహరింతురు. భారతీయుల తాలమానమును ఇట్టిదియే. డోరి
ఫోరస్్ అను శిల్పశాస్త్రవేత్త మానవులలో పలువురి అంగ
ప్రత్యంగముల కొలతలను గ్రహించి, పరిశీలించి మానవ
విగ్రహమున ముఖపు పొడవునకు ఎనిమిదిరెట్లుగ దేహపు
మొత్తపు పొడవు ఉండవలయునని నిర్ధారించెను. దీనినే `అష్ట
శిరోనియమము' అను అర్ధమొసగు పేరుతో పాశ్చాత్యులు
వ్యవహరింతురు. ఈ స్వాభావికమగు పరిమాణమును
ఆధారముగ గ్రహించి భారతీయ శిల్పులు మహామానవుల శరీరముల
పొడవును తగు నిష్పత్తిలో తమ నిర్మాణములందు ఏర్పరచిరి.
దేవమూర్తుల పొడవు `దశ తాల పరిమాణము' అని వారు
నియమించిరి. అనగా ముఖపు పొడవుతో కొలిచిన యెడల దేవ
మూర్తుల శరీరము పదింతలుగ ఉండవలయును.
 మధ్యయుగములోని ఇటలీదేశపుశిల్పాచార్యుడు మైకేలేంజిలో
వ్యవచ్ఛేదన (డిసెక్షన్్) సాయమున మానవదేహములోని
ఎముకలు, కండరములు మొదలగువాని ఏర్పాటులను, వాని
కొలతలను విశ్లేషించి ఆ పరిజ్ఞానమును ఆధారముగ గ్రహించి అనేక
కళాఖండములను నిర్మించెను. ప్రాచ్యదేశముల శిల్పులు
మాత్రము ఇట్టి అధిశారీరక నియమములకు లోబడక
స్వతంత్రముగ మూర్తికల్పనను నిర్వహించిరి. సహజరూపములకు
వికృతులను భావించి మనుష్యునకు ఏనుగుతలను, సింహపు
తలను కల్పించి క్రమముగ గణేశ, నరసింహమూర్తులను,
అట్టివేయగు మరికొన్ని అలౌకిక మూర్తులను
రూపొందించు
23-
టలో వారు ముందంజ వేసిరి. ఇట్టి శిల్ప సృష్టి౟ే ప్రాచీన
ఈజిప్టునను జరిగినది. భారతదేశములోని నరసింహమూర్తిని
పోలిన శిల్పమును ప్రాచీన ఈజిప్టు శిల్పులును రూపొందించిరి.
గ్రీసులోని శిల్పమున రూపొందిన `గార్గన్్' మూర్తి భారతీయ
శిల్ప సంప్రదాయములోని `కీర్తిముఖ' మునకు సదృశము.
ప్రాచీన అస్సీరియాలోని శిల్పులు రెక్కలు కలిగిన మానవ
మూర్తులను నిర్మించిరి. చీనాలోని మహానాగ (డ్రాగన్్) రూప
కల్పనయు సృష్టిలో కన్పింపని ఊహాజనిత జంతుమూర్తియే.
భారతదేశమున గణేశ, నరసింహమూర్తులుకాక గరుడ, కిన్నర,
కామధేను, గజసింహాదులగు వింతమూర్తుల రూపకల్పనయు
విరివిగ జరిగినది. దక్షిణ భారతమున మధ్యయుగపు శిల్పులు
`శరభ' మను అద్భుత జంతు రూపమును కల్పించిరి. దీని
నాలుగు కాళ్ళలో ఒకకాలు ఏనుగుకాలుగను, వేరొకటి పులి
కాలుగను, మరియొకటి సింహపు కాలుగను, నాలుగవది పక్షి
కాలుగను నిర్మితములు. ఈ విధముగ భారతీయ శిల్పులేకాక
తక్కిన దేశములందును పెక్కింట శిల్పులు ఇట్టి ఊహాజనిత
అసహజ రూపములను సృజించిరి. ఇట్టి శిల్పములు వాస్తవ
జగత్తును అధిగమించిన కల్పనా జగత్తునందలి వింత
సంతానములు.
 శిలను మలచుటలో శిలయందలి ముక్కలను చెక్కి తీసి
వేయుచు శిల్పి తన దృష్టిలోని మూర్తిని కల్పించును. మట్టితో
మూర్తి నిర్మాణము చేయునపుడు మట్టిమీద మట్టిని వేయుచు
కల్పనను నిర్వహించును. తీసివేత మూలమున తొలుతటిది
నిర్మింపబడగ, కూడిక వలన రెండవది నిర్మితమగును. మొదటి
దానిలో అనవసరములగు భాగములను తొలగించుట
మూలమున శిలలో దాగి ఉండిన మూర్తి ప్రత్యక్షము కాగలుగును;
రెండవ దానియందు అవసరములగు భాగములను వెలుపలి
నుండి చేర్చుట వలన మూర్తి రూపొందును. మొదటిది
అవిష్కారము; రెండవది సృజనము.
 ఆధునిక శిల్పము, ఈకాలపు తక్కిన కళలవలెనే, నైరూప్య
(ఆబ్్స్ట్రాక్ట్్) భావనను ఆశ్రయించినది. అట్టి శిల్పములలోని
రూప రహస్యము సామాన్య ప్రేక్షకులకు అవగతము కానేరదు.
నేడు చాల దేశములలోని శిల్పకళకు వాస్తుకళతో పోలికలు
ఏర్పడుచున్నవి. రూపముననే కాదు; శిల్ప నిర్మాణమునకు
ఉపయోగించు పదార్థములందును వాస్తుకళ ప్రతిబింబితము
అగుచున్నది. సౌధ నిర్మాణమున వాడినటులనే శిల్ప
నిర్మాణమున సైతము కంకర, సిమెంటు, ఉక్కుతీగలు మొదలగు
వానిని వాడుచున్నారు. ఈ శిల్ప నిర్మాణముల రూపములును
సౌధముల రీతిగనే గోచరించును. ఈ నవ్య శిల్పముల
ఆకృతులు లయ ప్రధానములై చూచుటకు ఎంతో మనోహరముగ
కన్పట్టును. ఇట్టి శిల్పకళ దృశ్యకళలలోని ఘనీభూతదశ.
 చిత్రకళ
 ఒక వాస్తు నిర్మాణము చుట్టును మనము తిరిగి చూడగలము
అంతేకాదు; ఆ నిర్మాణము లోపలికిని ప్రవేశించగలము. ఒక
శిల్ప నిర్మాణము చుట్టును మాత్రమే తిరిగి చూడగలము; కాని
దానిలో ప్రవేశింపజాలము. ఇక ఈ రెంటికన్న విభిన్నమైనది
చిత్రనిర్మాణము. దానిని ముందువైపునుండి మాత్రమే చూడ
గలము. అందువలన చిత్రమును ఏకదిక్్ సౌలభ్యము కలది
అని చెప్పవచ్చును. అయినను నిపుణులగు చిత్రకారులు ఒక
చిత్రముననే బహుదిక్కుల ఇంద్రజాలమును
సృష్టింపగలుగుదురు. క్రమ పరిగణనలో దృశ్యకళలందు మూడవది చిత్ర
కళ. కాని వాస్తుకళకన్నను, శిల్పకళకన్నను అది
సున్నితమైనది. వాస్తుశిల్పము దృశ్యజగత్తులోని వస్తురూపములను
చూపజాలదు. శిల్పకళలో ఏ వస్తురూపమును అయినను చూప
వచ్చును; కాని వాతావరణశోభను చూపజాలము. చిత్రకళలో
వాతావరణశోభనుకూడ చూపవచ్చును.
 చిత్రములను రేఖాచిత్ర, వర్ణచిత్రములని ద్వివిధములుగ
విభజింపనగును. దృశ్య జగత్తును, కండలేని అస్థిపంజరము
వలె, ప్రతీకరూపమున చూపునవి రేఖా చిత్రములు. సమగ్ర
రూపమును సుందర ఆచ్ఛాదనలో చూపునవి వర్ణచిత్రములు.
రేఖలు రెండు విధములు: 1. సరళరేఖ 2. వక్రరేఖ. రేఖా
చిత్రాలలో ఈ రెండు విధాలలోని రేఖలలో ఏ ఒకదాని
ప్రాధాన్యమో కన్పట్టుచుండును. వక్రరేఖను చూచుచున్నప్పుడు
కంటికి రెండు పార్శ్వములందున్న కండరముల సాయమున
కంటిపాపను రేఖవంపులను అనుసరించి కదలించుచుందుము.
అందువలన కంటికి విసుగు జనించక ఒకవిధమైన హాయి
కలుగును. కాని సరళరేఖను చూచుచున్నపుడు కంటి
కొలుకుల కండరములు కంటిపాపను కదలింపక పోవుట వలన
కంటికి ఒక విధమగు విసుగు జనించును. అందులకే
నిపుణులగు చిత్రకారులు తమ చిత్రములలో సాధ్యమగునంతవరకు
వక్రరేఖలను ప్రవేశపెట్టుటకు యత్నింతురు. ఇందులకుతోడుగ
వక్రరేఖ దగ్గర సరళరేఖను ప్రవేశపెట్టిన ఆ రెండింటిమధ్య
నుండు విభిన్నత వలన వ్త్యస్తరమ్యత ఉద్భవించును. అందు
వలన కంటికిని, కన్నుమూలమున మనసునకును ఆనందము
ప్రాప్తించును. ఒక రేఖా చిత్రమును అచ్చముగ వక్రరేఖలతో
గాని, అచ్చముగ సరళరేఖలతోగాని నిర్మింపవచ్చును. పూర్తిగ
సరళరేఖలతో నిర్మితమగు చిత్రమున వంపులన్నియు
కోణములుగ గోచరించును. వక్రరేఖలచే నిర్మితమగు దానియందు అవి
వర్తులములుగ కన్పట్టును. సరళరేఖలలోని సరళత
వక్రరేఖలలోని అలంకారములో సమన్వయతను పొందినపుడు రమణీయత
ఇనుమడింపగలదు.
 అవి అనుసరించు దిక్కులనుబట్టి రేఖలను 1. నిలువు
24-
రేఖలు, 2. అడ్డరేఖలు, 3. మూలరేఖలు - అని మూడు
విధములుగ వింగడింపవచ్చును. అలంకారికరీతిలో నిలువురేఖలు
పురుష గుణాత్మకములనియు, అడ్డరేఖలు స్త్రీ
గుణాత్మకములనియు, మూలరేఖలు ఉభయ గుణాత్మకములనియు
చెప్పబడుచున్నవి. గతికిని బలమునకును ప్రతీక నిలువురేఖ; శాంతికిని
సాత్త్వికతకును సంకేతము అడ్డరేఖ. మూలరేఖయో అటు
పూర్తిగ నిలువు రేఖయును కాదు; పూర్తిగ అడ్డురేఖయను
కాదు. దానిలో నిలువును,అడ్డమును కూడియున్నవి. అందు
వలన మూలరేఖలో నిలువురేఖ యందలి పటత్వము, అడ్డురేఖ
యందలి లాలిత్యము చేరియున్నవి. కావుననే చిత్రమున మూల
రేఖల రచనను కూర్చుట అవసరమని భావింపబడుచున్నది.
 వర్ణచిత్రమున రేఖల ప్రాధాన్యమునకు మారుగ రంగుల
ప్రాధాన్యము ఎక్కువ. రంగులేని చిత్రము ఒక సాధారణ
పద్యము వంటిది. రంగు కలిగిన చిత్రము శ్రావ్య
సంగీతముతో పాడిన పద్యమును పోలును. రంగు అనునది కాంతి
సంజాతము; కనుక రంగు లేనపుడు కాంతియు లేనటులే.
సంగీతమున సప్తస్వరములవలె వర్ణజాలమున ఏడురంగులు కలవు.
ఈ ఏడు రంగులును మనకు ఇంద్రధనుస్సున
గోచరించుచున్నవి. ఊదా, నీలి, నీలము, ఆకుపచ్చ, పసుపుపచ్చ,
నారింజ, ఎరుపు - ఇవి సప్తవర్ణములు. సప్తస్వరములును వివిధ
రీతులలో మేళవించి అసంఖ్యాక రాగములను ఉత్పన్నములు
చేయురీతిగ సప్తవర్ణములును వివిధ రీతులలో కలయిక చెంది
అసంఖ్యాక వర్ణములను కలిగించును. యదార్థమున
ప్రాథమిక వర్ణముల నిర్ణయమున ఒక మార్పు సంఘటిల్లినది.
అందువలన అప్పటినుండియు ఎరుపు, నీలము, ఆకుపచ్చ రంగులు
ప్రాధమిక వర్ణములుగ లెక్కింపబడుచున్నవి. ఆకుపచ్చయు
ఎరుపును కలసిన పసుపుపచ్చ ఏర్పడును. రంగు అనునది
ఒక విధమగు దృశ్య సంగీతము. కాంతివర్ణమున కన్పట్టు
నిర్మలతయు, ధాళధళ్యమును పదార్థవర్ణములకు ఉండదు.
కాంతి మూలమున రంగు వ్యక్తమైనచో అది చాల విశుద్ధముగ
ఉండును. కాని అదే రంగుపదార్థము ద్వారా వ్యక్తమైనపుడు
అంత విశుద్ధముగ ఉండదు. నేటి పరిశ్రమలలో, అందును
దుస్తుల నిర్మాణమున, ఉపయోగించు రంగుల సంఖ్య లక్షల
మేరకు ఉన్నటుల తెలియుచున్నది. పరిశ్రమలలో వాడెడు
రంగులను అన్నింటిని చిత్రరచనలో వాడరు.
    0 
</p></body></text></cesDoc>