<cesDoc id="tel-w-commerce-industry-4plas1" lang="tel">
<cesHeader type="text">
<fileDesc>
<titleStmt>
<h.title>tel-w-commerce-industry-4plas1.txt</h.title>
<respStmt>
<respType>Electronic file created by</respType>
<respName>Central Institute for Indian Languages, Mysore</respName>
<respType>transferred into Unicode and CES format by</respType>
<respName>"Unicodify" software by Andrew Hardie</respName>
</respStmt></titleStmt>
<publicationStmt>
<distributor>UCREL (on behalf of CIIL)</distributor>
<pubAddress>Department of Linguistics, Lancaster University, Lancaster, LA1 4YT, UK</pubAddress>
<availability region="WORLD"></availability>
<pubDate>03-08-13</pubDate>
</publicationStmt>
<sourceDesc>
<biblStruct>
<monogr>
<h.title>ప్లాస్టిక్స్్</h.title>
<h.author>వి. కృష్ణమూర్తి,డి. మధుసూదన్్రావు</h.author>
<imprint>
<pubPlace>India</pubPlace>
<publisher>Unknown - Book</publisher>
<pubDate>1985</pubDate>
</imprint>
<idno type="CIIL code">4plas1</idno>
</monogr></biblStruct></sourceDesc></fileDesc>
<encodingDesc>
<projectDesc>Text collected for the CIIL Corpus, subsequently integrated into the EMILLE/CIIL Monolingual Written Corpora.</projectDesc>
<samplingDesc>Simple written text only has been transcribed. Diagrams, pictures and tables have been omitted. Sampling begins at page 33.</samplingDesc>
<editorialDecl><conformance level="1"></conformance></editorialDecl>
</encodingDesc>
<profileDesc>
<creation><date>03-08-13</date></creation>
<langUsage>Telugu</langUsage>
<wsdUsage>
<writingSystem id="ISO/IEC 10646">Universal Multiple-Octet Coded Character Set (UCS).</writingSystem>
</wsdUsage>
<textClass>
<channel mode="w">print</channel>
<constitution type="composite"></constitution>
<domain type="public"></domain>
<factuality type="fact"></factuality>
</textClass>
<translations></translations>
</profileDesc>
<revisionDesc></revisionDesc>
</cesHeader>

<text><body>

<p>----------------------------------------------------------------------------
1-
 పరిచయము
 ఆదిమ మానవుడు తన జీవన వ్యాపార సౌకర్యంకోసం పరికరాల అవశ్యకత
గుర్తెరిగిననాటినుండి వాటి నిర్మాణానికి ప్రకృతిలో స్వయం సిద్ధంగా
లభించే శిల, కొయ్య, ఎముక మొదలయిన ద్రవ్యాల తో
మొదలుపెట్టి అతి వ్యయ ప్రయాసలతో నేటి ఆధునిక జగత్తులో ఆవశ్యకాలైన
అసంఖ్యాక భిన్న వస్తు నిర్మాణానికి బహువిధాలయిన సాంప్రదాయక సహజ
పదార్థాలను కృత్రిమ పదార్థాలను
ఉపయోగంలోకి తెచ్చినాడు. ఈ ప్రగతి ప్రధమ దశలలో వేల
కొద్ది సంవత్సరాలకాలం పట్టినప్పటికీ, ఇటీవలి కాలంలో అత్యంత వేగాన్ని
#పుంజుకుంటోంది. శిలాయుగంనుంచి లోహ యుగం చేరటానికి మానవునికి వేలకొద్దీ
సంవత్సరాలకాలం పట్టింది. మన వెనకటి తరంలోని ఇత్తడి, రాగి,
ప్రాధాన్యతలను మనతరంలో అల్యూమినియం, స్టెయిన్్లెస్్ స్టీల్
కైవసం చేసుకొన్నాయి. నూతనంగా ప్రవేశించిన ప్లాస్టిక్్లు కొంతమేరకు
వీటి స్థానాన్ని కొన్ని వస్తువుల తయారీలో ఆక్రమించినాయి. సామాన్యంగా
ఇటువంటి ప్రగతి ఆ శకంలోని పరిస్థితుల ప్రాబల్యాన్ని దానికి సాటి అయిన
మానవ మేధస్సు దాని సృజనాత్మక శక్తిని ప్రతిఫలిస్తాయి.
 ఈ నూతన కల్పనలను సృజించటానికి జనబాహుళ్యంలో వాడటానికి
అంగీకారం సంతరించటానికి అనేక సందర్భాలలో ఎంతో ధనము, కాలము వెచ్చించ
వలసి ఉంటుంది. ఏమైనప్పటికీ గతకొన్ని దశాబ్దాలుగా అనేక విధాలయిన
సౌకర్యాలు మన నాగరిక జీవనాన్ని పరిణితలోకి తెచ్చినాయి. ఈ సందర్భంలో
సామాన్య మానవుని జీవనంలో సైతం వేళ్లూనిన పారిశ్రామిక రసాయనశాస్త్ర
పరిశోధన నూతన ఫలితాలైన ప్లాస్టిక్్లు
2-
మార్దవత కల పదార్థాలు పేర్కొనదగినవి. ఈ ప్లాస్టిక్్లను అతి
సులభంగా మన దైనందిన వాడకపు వస్తువులుగా రూపొందించవచ్చు. అంతేగాక
ప్లాస్టిక్్లతో చేసిన పరికరాలకు సాంప్రదాయక పదార్థాలతో చేసిన వాటికన్న వెల
తక్కువేకాక చాల సందర్భాలలో ఉపయోగ సౌలభ్యము, మన్నిక ఎక్కువ. ఈ
కారణం వల్లనే ఇవి సామాన్యుని దైనందిన జీవితంలో సహితం సన్నిహిత
సాన్నిధ్యం సంతరించుకొన్నాయి. నిస్సంశయంగా మనమిప్పుడు ప్లాస్టిక్్ల
యుగంలో ఉన్నాము. ఈ సమయంలో మనమందరం ప్లాస్టిక్్
సామగ్రిని సమర్ధవంతంగా వాడటానికి స్థూలంగానైనా దాని భౌతిక, రసాయనిక
గుణ విశేషాలను, పారిశ్రామిక పద్ధతులను తెలుసుకోవటం సముచితము.
 ప్లాస్టిక్్లు రసాయనికంగా ఉన్నత అణుపుంజాల శాఖకు చెందిన రసాయన
ద్రవ్యాలు విధిగా వీటి అణుభారము
వేలకొద్దీ ఉంటుంది. మనం భుజించే ఆహారంలో కల పిండిపదార్థాలు,
ప్రోటీన్్లు, ధరించే వస్త్రాలలోని దూది అన్నీ అణు
పుంజాలే. జీవకణ ప్రధానాంగమైన DNA కూడ బహు అణుపుంజమే.
 సరళ రచన నిర్మాణము అల్ప పరిమాణం కల ఏకాణువు లు
శృంఖలాలవలె సంఘటితమై బహ్వణుకాలు గా మారతాయి. ఈ
సంయోగ కరణాన్ని రసాయనికంగా అణుపుంజీకరణము లేదా పాలీమరైజేషన్
అంటారు. ఈ అణుపుంజాల రసాయన భౌతిక స్వభావాలు
వాటి ఏకాణువులకంటె పూర్తి భిన్నంగా ఉంటాయి.
 అణఉపుంజీకరణము ఈ ప్రక్రియలో
భిన్న ఏకాణువులు వాటి రచన నిర్మాణంలో ఎటువంటి మార్పులేక వాటి ఉత్తేజిత
ప్రదేశాల వద్ద బంధించబడి శృంఖలాలుగా వృద్ధి చెంది
బహ్వాణుకాలేర్పడతాయి. రెండవ ప్రధానమైన ప్రక్రియ సంఘటన విధానము
ఇందులో ఏకాణువులు వాటి మధ్యస్థాయి బహ్వణుకాలు
అంచెలవారి సంయోగం చెంది సంఘటన రసాయన క్రియ వల్ల నీరువంటి సూక్ష్మ
అణువులను వెలువరిస్తాయి. ఈ కారణంవల్ల సంఘనన విధానంలోఏర్పడిన
బహ్వణుకాలు వాటి మూలాలయిన ఏకాణువుల నిర్మాణంనుండి కొంత భిన్నంగా ఉంటాయి.
 సహపుంజీకరణ విధానాన్ని మూడవ ప్రక్రియగా
పేర్కొనవచ్చు, ఈ క్రియలో సరిపడే రెండు జాతుల భిన్న ఏకాణువులు
#ప్రోత్సహించబడతాయి.
3-
ఈ విధంగా ఏర్పడిన బహ్వణుక రసాయనము ఆ రెండు స్వజాతి
బహ్వణుకాలకు పూర్తి భిన్నంగా ఉంటుంది.
 పుంజీకరణంలో నిశ్శాభాయుత శృంఖలాలుగా ఏర్పడిన బహ్వణుకాలను రుజు
బహ్వణుకము అంటారు. ప్రకృతి సిద్ధంగా లభించే పత్తి
పోగలు రబ్బరు ఇటువంటివే. పుంజీకరణంలో పాల్గొనే
ఏకాణు ఘటకాలు కొన్నింటికైనా రెంటికన్న ఎక్కువ ఉత్తేజిత ప్రదేశాలుంటే
ఏర్పడే బహ్వణుకంలో ఘటకాలు శాఖాయుత శృంఖలాలుగా ఏర్పడతాయి.
సంయోగంలో పాల్గొనే ఘటకాల ఉత్తేజిత ప్రదేశాల సాంద్రత పెరిగేకొద్దీ శృంఖలాలశాఖల
వ్యత్యస్త బంధనాలు ఎక్కువవుతాయి.
 వ్యత్యస్త బంధనాలు విస్తారంగాలేని ప్లాస్టిక్్లు అనేకాలు ఉన్నాయి.
#వీటిని
వేడిచేస్తే మృదువుగా అవుతాయి. చల్లారిన తరవాత గట్టిగా అవుతాయి. వీటి రచన
విసంఘట్టనము విధ్వంసము కానంతవరకు అనేక పర్యాయాలు ఈ విధంగా
చేయవచ్చు. వీటిని థర్మో ప్లాస్టిక్్లు అంటారు. వ్యత్యస్త
బంధాలు విస్తారమై బంధనాలు అన్ని దశలలో త్రిమితీయ బంధనాలు జరిగి
సంకీర్ణమైన శృంఖలాలు ఏర్పడితే మార్దవ గుణము పూర్తిగా నశించి కాఠిన్యంగల
దృఢమైన పదార్థం ఏర్పడుతుంది. వేడి చేయటంచేత ఇట్లా మారేవాటిని థర్మోసెట్టింగ్
ప్లాస్టిక్్లు అంటారు.
 ప్లాస్టిక్్లను వాటి ఉత్పత్తి మూలాన్నిబట్టి మూడు విధాలుగా
#విభజించవచ్చు.
మొదటివి ప్రాకృతికాలు లక్క, పైన్ జాతి వృక్షాల
జిగురు సంబంధమైన రాల, వృక్షాలలోని నార లేదా తంతువుల
ను బిగించి ఉంచే లిగ్నిన్ అనే పదార్థాలు ఈ కోవకు చెందినవి. అర్థ
సంయోజనాలు రెండవ కోవకు చెందినవి. ప్రాకృతిక
పదార్థాలను రసాయన చర్యలకు గురిచేయటంవల్ల వీటిని పొందవచ్చు. సెల్యులోస్
నుండి, పాలలోని కేసిన్ నుండి తయారయ్యే ప్లాస్టిక్్లు ఈ
తరగతిలోనివే. మూడవ కోవకు చెందినవి కేవల సంయోజనాలు లేదా
కృత్రిమాలు.
 ఇప్పుడు మనకు ప్రధానమైనవి రెండు కోవలకు చెందిన ప్లాస్టిక్్లు.
#పారిశ్రామిక రంగంలో అతి ముఖ్యమైన కొన్ని ప్లాస్టిక్్ల గురించి ముందు కొంత విశదంగా
పరిశీలిద్దాము.
4-
ప్రకృతిసిద్ధ ప్లాస్టిక్్లు
 ఇదివరకే చెప్పినట్లు కొన్ని బహ్వణుకాలు సహజంగా లభిస్తాయి. వీటిలో
కొన్నింటిని కొద్దిపాటి రసాయన చర్యకు గురిచేసిగాని ఏమాత్రం రసాయనిక చర్యకు
గురిచేయకుండగాని వాడతారు. వీటిని వేరుపరచి స్వచ్ఛపరచటంమాత్రమే చేస్తారు.
ఈ విధంగా ఎక్కువ మార్పు లేకుండా ప్రకృతి సిద్ధంగా లభించే బహ్వణుకాలు
ఈ అధ్యాయంలో తెలుసుకొందాము.
 ఉపయోగించటానికి ముందు రసాయనిక చర్యకు గురిచేసి మొదటి పదార్థాలకు
భిన్నంగా తయారయిన అర్థ సంయోజన ప్లాస్టిక్్లను గురించి
తరవాత అధ్యాయంలో తెలుసుకొందాము.
 ప్రకృతి సిద్ధంగా లభించే ప్లాస్టిక్్లలో చెప్పుకోదగ్గవి బిట్యుమెన్
లక్క, రోజిన్, లిగ్నిన్ మొదలయినవి.
 బిట్యుమెన్: బిట్యుమెన్ 1770 లో అమెరికాలోని ఉటా లో
కనుక్కొన్నప్పటికీ చాలా కాలంవరకు దీనిని ఉపయోగించలేదు. 19 వ దశాబ్దం
ఆఖరులో గాలితో నింపే మోటారు వాహనాల డైర్లవల్ల ఆస్్పాల్ట్్ కు
రోడ్ల నిర్మాణంలో గిరాకి హెచ్చింది.
 బిట్యుమెన్ ప్లాస్టిక్్లు కృత్రిమ ప్లాస్టిక్్ల కంటె చవక
#కావటంవల్ల నీటి
ట్యాంక్్లు, బ్యాటరీ పెట్టెల తయారీలో వాడవచ్చు. బిట్యుమెన్్తోపాటు అవిసెనూనె
మైనము మెత్తనిపిచ్, అస్బెస్టాస్ పోగులు,
సుద్ద పౌడర్్ వంటి వాటిని మానవ సమ్మేళనాలకోసం వాడతారు. ఈ సమ్మేళనాన్ని
150 నుండి 200 డ఼ిగ్రి C వరకు ఉంచి మిక్సర్్లో వేడిచేస్తారు.
 శీతల మూస విధానంలో మూసుకు 100 డిగ్రీ C వరకు వేడిచేసి ఆ తరవాత
#50 డిగ్రి C
వరకు చల్లార్చి తీస్తారు.
5-
రసాయనచర్యలను నిరోధించుకొనే శక్తి దీనికి చాలా ఎక్కువ. వివిధ భౌతిక
ధర్మాలు కల పదార్థాలను ఇందులో ఎన్నుకోవచ్చు. వీటి రంగులు చాలా గాఢంగా
ఉంటాయి. దీనికి పెళుసుదనం ఎక్కువ. కాని రబ్బరు, ఇగిరిపోయే తైల పదార్థము
ఆస్బెస్టాస్ మొదలయినవి కలిసినప్పుడు పెళుసుదనం తగ్గించవచ్చు.
 రోడ్లు వేయడంలో అస్పాల్ట్ ఉపయోగం అందరికీ తెలిసినదే. శీతలీకరణంలో
ఉష్ణనిరోధకంగా నామినేట్్లతో బాష్ప నిరోధకంగా వాడవచ్చు. నీటిని
నిరోధించటానికి ఇంటికప్పులో వాడవచ్చు.
 లక్క:- ఇది చాలా పూర్వకాలం నుంచి తెలిసి ఉన్న ప్లాస్టిక్్
#పదార్థము.
భారతదేశంలో బర్మాలో లభించటంచేత దీని ఉపయోగం చాలాకాలం వరకు ప్రార్
దేశాలకే పరిమితమైంది. కర్రపనిలో మంచి వాకర్్గా ఇది పనికి వస్తుంది. ఆ
తరవాత దీనిని గ్రాంఫోన్ రికార్డ్్లు తయారుచేయటానికి వాడినారు.
 లక్కపురుగు మృదువైన కలప చెట్లపైన ఉండి రక్షక పొరగా
పుట్టించుకొన్నదే లక్క. కలప రసాన్ని పిల్చి జిగురువంటి లక్క పదార్థాన్ని బైటికి
వెడల గక్కుతుంది. ఈ జిగురు పదార్థాన్ని దీని గడ్లపైన, దానిపైన
కప్పుకొంటుంది. ఇది గట్టిపడి లక్కపురుగును చంపి వేస్తుంది. కాని గుడ్లపైన మంచి
రక్షక పొరగా తయారవుతుంది. ఆరునెలల తరవాత చిన్న లక్క పురుగులు
అందులోనుంచి బైటికి వస్తాయి.
 లక్కను కత్తితో చెట్లపై నుంచి తీసి పొడిగా దంచుతారు. ఈ పొడి
#నీటితో
గాని అందులో కొద్దిగా సోడా కలిపిగాని నిష్కర్షించి రంగుపదార్థాన్ని
#తీసివేస్తారు
మిగిలిన దానిని ఎండబెట్టి సంచీలో పోసి నిప్పు కుంపటిపై కట్టి
#కరిగిస్తారు. ఆ
తరవాత దానిని పిండి లక్కను కావలసిన రూపంలో చేస్తారు. పెద్ద షీట్్లుగాచేసి
పగులుకొట్టిగాని గుండ్రని మూసలో పోసిగాని తయారుచేస్తారు. కలపపై మంచి
పూతగా పూయటానికి రంగులేని లక్కకావలె కాబట్టి లక్కను విరంజనం చేయటానికి
దీనిని వేడి సోడా నీటిలో కరిగించి క్లోరిన్ లేదా సల్ఫ్యూరస్ ఆమ్లంతో
#విరంజనం
చేసి అపక్షేపం చేస్తారు. ఈ విరంజనం చేసిన లక్కను కడిగి కడ్డీల
రూపంలో లాగుతారు.
 లక్కలో సుమారు 70 నుండి 80 శాతం వరకు రెసిన్ పదార్థం ఉంటుంది.
ఇది ఎక్కువ అణుభారం కల సహజమైన రెసిన్ కాబట్టి కొంత ధృడత్వాన్ని సాగే
గుణాన్ని కలిగిఉంది. లక్క 75 నుండి 85 డిగ్రి C వద్ద మెత్తబడుతుంది.
#ఆల్కహాల్
6-
లో కరిగి ఆల్కహాల్్తో మంచి అతుకుడు గుణం కలిగి ఉంటుంది. ఎస్టర్్లో,
గ్లిసరాల్్లో, కీటోన్్లలో ఇది కరగదు కార్బొనేట్ ద్రావణిలో కరిగి
#ఆమ్లంచేత
తిరిగి అవక్షేపిత మవుతుంది. అభ్రకము, ఆస్్బెస్టాస్్లతో కలిపి విద్యుత్
#బంధకంగా వాడుతున్నారు.
 ధృఢమైన, కాంతివంతమైన దీని పొరవల్ల కర్రపై విశిష్టమైన వాకర్్గా
పనికివస్తుంది. లక్క వార్నిష్్లు నిధానంగా ఆరుతాయి. కాని సెల్యులోస్
#నైట్రేట్
ను కలిపి ఆరబెట్టే సమయం తగ్గించవచ్చు. లక్కతో సంపీడన మూస
విధానములో గ్రాంఫోన్ రికార్డ్్లు తయారుచేసేవారు. దీనిపైన చేసిన మార్క్్లను
చక్కగా ఏర్పరచుకొని గట్టితనము కలిగిఉండి స్థిరంగా ఉండటంవల్ల గ్రాంఫోన్
రికార్డ్్ల తయారీలో దీనిని ఎన్నుకొన్నారు.
 రోసిన్: పైన వృక్షాలనుండి వెలువడిన ఓలియోరెసిన్్లలోని ఒక ఘటకము
రోసిన్. ఈ ఓలియోరెసిన్ నుండి టర్పంటైన్ తయారుచెయవచ్చు.
 ఎక్కువ ఓలియోరొసిస్్ను ఉత్పత్తి చేయటానికి పైన్్ చెట్టులో
#ఒకగాడి చెక్కి
మట్టి కప్పులుగాని, లోహపు కప్పులునుగాని ఈ గాడి కింద ఉంచుతారు.
#రెసిన్్ను
ఒక దొన్నె సహాయంతో కప్పులో పడేటట్లు చేస్తారు.
 ముడి ఓలియోరెసిన్్ను ఆవిరితో స్వేదనం చేసినప్పుడు టర్పంటైన్
#స్వేద
ద్రవంగా వస్తుంది. కరిగిన రెసిన్ నుండి జల్లెడ పట్టటంద్వారా చెక్కముక్కలు
ఇతర పదార్థాలు తీసివేస్తారు.
 రొసిన్్ ఓలియోరెసిన్్నుండి లభ్యమైనప్పుడు రూబీ ఎరువులో ఉంటుంది.
#దీనిని
స్వచ్ఛ పరచటం వల్ల లేదా పుల్లర్స్్అర్త్్ వంటి వాటితో చర్య
జరిపినప్పుడు గాఢమైన రంగునుండి తెల్లని రంగువరకు ఈ పదార్థము
లభ్యమవుతుంది. ఇది పెళుసైనది, పొడి చేయటానికి వీలైనది. 100 డిగ్రి C వద్ద ఇది
#కరుగుతుంది. ఎక్కువ ఉష్ణోగ్రత వద్ద మండుతుంది. ఇది నీటిలోకరగదు. ఆల్కహాల్్,
బెంజీన్, ఈధర్, కార్బన్్డై సల్ఫైడ్్లలో కరుగుతుంది.
 కాగితము తయారీలో రోసిన్ పెద్ద ఎత్తున సైజింగ్ ఏజంట్్గా
#వాడబడుతుంది.
బట్టలు ఉతికే పసుపుపచ్చని సబ్బు తయారీలో రోసిన్
ఎక్కువగా వాడతారు. రోసిన్్యొక్క కోబాల్ట్్, మాంగనీస్్ సాల్ట్్ను ఆయిల్
#పెయింట్్లలో త్వరితంగా ఆరబెట్టటానికి వాడతారు. గ్రీస్్ తయారీలోకూడ దీనిని
#వాడవచ్చు.
7-
రోసిన్్ను ఇగురు తైలాల తో పాటు లినోలియమ్
సోల్డరింగ్ ప్లక్స్్ తయారీలో కూడ వాడతారు.
 లిగ్నిన్: కర్రలో 25 నుండి 35 శాతం వరకు లిగ్నిన్ ఉంది. ఈ
#లిగ్నిన్
పదార్థము సెల్యులోస్్కు అతుకుడు పదార్థంగా పని చేస్తుంది. సెల్యులోస్్ను,
లిగ్నిస్్ను వేరుపరచి లిగ్నిస్్ను ప్లాస్టిక్్గా వాడటానికి చాలా
#ప్రయత్నాలు
జరిగినాయి. ఈ ప్రయత్నాలు ఫలించలేదు.
 ఆటో క్లెవ్్లలో ఎక్కువ పీడనంతో కలపనుండి లిగ్నిస్ ఎక్కువగల
పదార్థాన్ని తీస్తారు. ఈ లిగ్నిన్్ను ఎక్కువ పీడన, ఉష్ణోగ్రతలలో
#ఒత్తబడిన
బోర్డ్్లుగా తయారు చేస్తారు.
 పౌడర్్గా తయారుచేసిన లిగ్నిన్్ను ఫినాలిక్ రెసిన్్లలో వాడతారు.
#అతికె
పదార్థాలుగా, టానింగ్్ కు లిగ్నిన్్ వాడుతున్నారు.
8-
అర్థ సంయోజిత ప్లాస్టిక్్లు
సెల్యులోస్ ప్లాస్టిక్్లు
 విస్తృతంగా లభించే సెల్యులోస్ మూల పదార్థంతో ప్లాస్టిక్్లు తయారు
చేస్తారు. సెల్యులోస్ వృక్షాలన్నిటిలో విరివిగా లభించే పదార్థము.
#అయినప్పటికి
సెల్యులోస్్ను పత్తిలింటర్్లనుండి, కొయ్య గుజ్జునుండి తయారుచేస్తారు.
#లింటర్్లు
పత్తిగింజలపైన పత్తిని తీసివేసిన తరవాత మిగిలిన చిన్నపోగులు. కాస్టిక్్
#సోడాతో
చర్య జరిపి విరంజనం చేసి నప్పుడు స్వచ్ఛమైన సెల్యులోస్ లభిస్తుంది.
#సల్ఫేట్
విధానంలో కట్టెనుండి సెల్యులోస్్ను తయారుచేసి, కాస్టిక్్ సోడాతొ చర్య జరిపి
మరింత స్వచ్ఛ పరిచి తయారైన సెల్యులోస్్ను ప్లాస్టిక్్ల తయారీలో వాడతారు.
 సెల్యులోస్్ నైట్రేట్:- సెల్యులోస్్ను ప్లాస్టిక్్ల తయారీలో వాడతారు.
ఒక విశిష్ట స్థానం ఉంది. ఇది మొదటి కృత్రిమ పాలీమర్. 1832 లో
#ఫ్రాన్స్్లో
సెల్యులోస్్ను నత్రీకరించి బ్రెకొనాట్ సెల్యులోస్ నైట్రేట్్ను
తయారుచేసినాడు. అలెగ్జాండర్్పార్క్స్్ గొప్ప ప్రదర్శనలో సెల్యులోస్
నైట్రేట్్ను ఆముదము నూనెలో ఉంచిన నమూనాను చూపించినాడు. ప్రొఫెసర్
"పోన్్చిన్" కాగితాన్ని నైట్రిక్్ సల్ఫ్యూరిక్్ ఆమ్లాల మిశ్రమంతో రసాయనిక
చర్య నొందించి పొందగలిగినాడు. కొలోడియన్్ అనే పదార్థాన్ని
సెల్యులోస్ నైట్రేట్్ల నుండి తయారుచేసి ద్రవప్లాస్టర్్గా గాయానికి వాడతారు.
పార్క్్ 1865 లో కర్పూరాన్ని ప్లాస్టిసైజర్్గా సెల్యులొస్
నైట్రేట్్కు వాడటానికి పేటెంట్్గా పొందినాడు. అంతేకాక దీనికి వివిధ
#ఉపయోగాలున్నాయని తెలిపినాడు. హ్యాట్ సోదరులు సెల్యులాయిడ్
కంపెనీ సెల్యులోస్ నైట్రేట్్ తయారుచేయటానికి స్థాపించినారు. అందుచేతనే
సెల్యులాయిడ్ అని దీనికి ప్రచారం వచ్చింది.
9-
 తయారీ విధానము: సుమారుగా 25 శాతం నైట్రిక్ ఆమ్లం, 55 శాతం
సల్ఫ్యూరిక్ ఆమ్లం మిగతా 20 శాతం నీరు గల మిశ్రమాన్ని తయారుచేస్తారు.
శుభ్రపరచి విరంజనం చేసిన లింటర్్లను బాగా ఆరబెడతారు. 1200 పౌన్ల
ఆసిడ్్కు 30 పౌన్ల లింటర్్లను ఉపయోగిస్తారు. ఈ మిశ్రమాన్ని
#స్టెయిన్్లెస్్స్టీల్
టాంక్్లో 100 డిగ్రి F కు మించకుండా నియంత్రిస్తారు. నైట్రేషన్ జరిగిన
#తరవాత
సెంట్రిప్యూజ్్లోకి దీనిని విడిచి ఉపయోగించిన ఆమ్లాన్ని తీసివేస్తారు,
#సెల్యూలోస్
నైట్రేట్్ను ఒక టాంక్్లో పూర్తిగా ముంచివేసి నైట్రేషన్్ ఆపుతారు. తరవాత
బ్లెండింగ్్ టాంక్్లో రిఫ్లక్స్్చేసి సెల్యులోస్ సల్ఫేట్్ను తీసివేస్తారు.
#సజల ఆమ్లాన్ని
తీసివేసిన తరవాత సెల్యులోస్ నైట్రేట్్ను కడిగి ఆరబెడతారు.
 ధర్మాలు: సహజంగా సెల్యులాయిడ్్ కొద్దిగా పసుపుపచ్చ రంగుగల
ధృఢమైన కఠినమైన ఘనపదార్థము. సెల్యులాయిడ్్ను చాలా రంగులలో
పొందవచ్చు. ఉష్ణొగ్రత పెంచినప్పుడల్లా దీని మెత్తబడే ఉష్ణొగ్రత పెరుగుతుంది.
#సజల
ఆమ్లక్షారాలను ఇది తట్టుకోగలుగుతుంది. ఇది తెల్లని రంగు మంటతో
కాలుతుంది. కాని పేలదు. పొడిగా ఉన్నప్పుడే పేలుతుంది. కొంతకాలమైన తరవాత
కర్పూరము ఇందులో ఉండిపోవటంవల్ల రంగు పోయి పెళసుగా తయారవుతుంది.
మిథనాల్, ఈథర్, ఆల్కహాల్ మిశ్రమంలో, ఎస్టర్్లలో, హైడ్రోకార్బన్్లలో
కరుగుతుంది. క్లోరోఫాం వంటి ద్రావణాలు దీనిలోని కర్పూరాన్ని మాత్రమే
కరిగించుకోవటంవల్ల దీని ధర్మాలను చెరచివేస్తాయి.
 ఉపయోగాలు: సెల్యులాయిడ్్కుగల విశేషమైన ధర్మాలవల్ల తక్కువ
ధరకు లభ్యం కావటంవల్ల కొత్త ప్లాస్టిక్్లు మార్కెట్్లోకి వచ్చినప్పటికీ
#ఇది
ఇంకా విరివిగా ఉపయోగపడుతున్నది. ఇది మండుతుంది కాబట్టి పెద్ద ఎత్తున
దీనిని నిలువ ఉంచలేరు. కాని ఇంటిలో వాడుకునే మోతాదులోనైతే
నిలువచేయవచ్చు. కత్తిపిడులుగా, దువ్వెనలుగా, అద్దాల చేతిసంచుల ఫ్రేమ్్గా,
#టూత్్బ్రష్్
హ్యాండిల్్గా, ఫోటోగ్రాఫిక్్ ఫిల్మ్్లుగా దీనిని ఉపయోగిస్తున్నారు.
#బ్లోమోల్డింగ్్
చేసిన సెల్యులాయిడ్్ షీట్్లను బొమ్మల పరిశ్రమలో ఎక్కువగా వాడుతున్నారు.
టేబుల్ టెన్నిస్, బిలియర్డ్్ బాల్స్్గా, సైకిల్్ మడ్్గార్డ్్లో కూడ
#సెల్యులాయిడ్
పనికివస్తుంది. మోటారు వాహనాల పేయింటింగ్ పరిశ్రమలో దీని ఉపయోగంవల్ల
చాలా ఖర్చు తగ్గింది.
10-
 సెల్యులోస్ అసిటేట్: సెల్యులోస్ అసిటేట్్ను ప్రయోగశాలలో
1864 లో ఘట్్జన్ బర్గర్్ తయారుచేసినట్లు తెలిసినప్పటికీ 1894 లో క్రాస్,
బ్రేవన్ పారిశ్రామికంగా తయారుచేయటం అభివృద్ధి చేసినారు.
సెల్యులోస్ అసిటేట్ క్లోరోఫాం వంటి ఎక్కువ ధరగల ద్రావణాలలో తప్ప
కరగకపోవటంవల్ల దీని అభివృద్ధికి నిరోధం కలిగింది. కొద్ది ఆమ్ల
#హైడ్రాలిసిస్్వల్ల
తయారయిన సెల్యులోస్ అసిటేట్ క్లోరోఫాంలో కరగక అసిటోన్్లో కరుగుతుందని మైల్స్్
అనే అతడు కనుక్కొన్నాడు. అప్పటినుండి దీని అభివృద్ధి కొనసాగింది.
#సేఫ్టిఫిల్మ్్
గా మండని డోప్్లు గా ఎయిర్్ప్లేన్ రెక్కల కొరకు మొదటి ప్రపంచ
యుద్ధంలో ఇది ఉపయోగించబడినది. ప్రపంచ యుద్ధం తరవాత ఎసిటేట్్ రెయాన్
గా, ఫిల్మ్్గా, షీట్్గా ఉపయోగింపబడినది.
 తయారుచేసే విధానం: పత్తిలింటర్్లుగాని, సల్ఫైట్్గజ్జుగాని గ్లేసియల్
అసిటిక్్ ఆమ్లంతో ముందు చర్య జరిపి సెల్యులోస్్ వరసను విప్పుతారు.
#దీనివల్ల
ఎసిటిలేటింగ్ ఏజెంట్్లు పోగులను చొచ్చుకుని పోయి ఒకేమాదిరిగా అంతటా
#చర్య
జరపడానికి తోడ్పడుతుంది. ఆతర్వాత ఎసిటలైజర్్లో ఒక పాలు సల్ఫ్యూరిక్్
ఆమ్లం, 300 పాళ్ళు ఎసిటిక్ ఎన్్హైడ్రైడ్, 400 పాళ్ళు మెథిలీన్ క్లోరైడ్
#ప్రత్తి
100 పాళ్ళ సెల్యులోస్్కు వాడతారు. ఈ మిశ్రమం ఉష్ణోగ్రతను చల్లని నీరు
బయటి జాకెట్్ద్వారా పంపి 50 డిగ్రి C వద్ద ఉంచుతారు. ఆరు గంటల తరవాత
#రైపనింగ్ అవక్షేపిత పాత్రలకు పంపుతారు. ఆతరవాత నీరు సల్ఫ్యూరిక్ ఆమ్లం తగు
పాళ్ళలో కలిపి హైడ్రాలిసిస్ జరుపుతారు. మెథిలీన్ క్లోరైడ్్ను నిస్వేదన
#జరిపి
మిగిలిన పదార్థాలను 80 డిగ్రి c వద్ద ద్రవపదార్థం నుంచి ఎసిటిక్ ఆమ్లం
#ద్రావణాన్ని
తగు రీతిలో దీనితో మిళితం చేస్తారు. తయారయిన దీనిని కట్టర్ ద్వారా పంపి
ఉండలు లేకుండా చేస్తారు. ఆ తరవాత సెల్యులోస్ అసిటేట్్ను కడిగిఆరబెడతారు.
 ధర్మాలు: సెల్యులోస్ అసిటేట్ 240 డిగ్రి C వద్ద విచ్ఛిత్తి
#చెందుతుంది.
కాలినప్పుడు దీనికి ఎసిటిక్ ఆమ్లం వాసన వస్తుంది. నీటిని పీల్చుకునే
#గుణంలో
దీనికంటె ట్రై అసిటేట్ ఉత్తమమైంది. ఇది ధృఢమైన కఠినమైన మంచి విద్యుత్్
గుణాలుకల పదార్థము. నీటిని పీల్చుకోవటంవల్ల యాంత్రిక ధర్మాలు
బలహీనమవుతాయి. సూర్యరశ్మివల్లగాని, నిలువ ఉంచటంవల్లగాని దీనిపై ప్రభావం
ఉండదు. సజల ఆమ్లక్షారాలకు దీనిపైన ప్రభావంలేదు. సెల్యులోస్ అసిటేట్్
అసిటోస్, అసిటోన్ నీటి మిశ్రమంలో కరుగుతుంది. దీనికి నిర్జ్వలనశీలత ఉంది.
11-
సెల్యులోస్్ అసిటేట్్ఫిల్మ్్ రూపంలో పారగమ్యత ఉండి నీటి ఆవిరిని,
#గాస్్లకు
పోనిస్తుంది. దారం రూపంలో ఇది బట్టలకు మంచి మెత్తదనము కల్పించి ఇస్త్రీ
పోకుండా ఉంచుతుంది. ఊలు, సిల్కు కంటె తక్కువ నీటిని పీల్చుకొనే
#గుణంఉంది.
 ఉపయోగాలు: కాఠిన్యము, ధృఢత్వము మూస పోయటానికి వీలైన
వివిధ గుణాలతో కావలసినట్లు అంతఃస్థాపనకు కావలసిన పదార్థాన్ని వివిధ
పదార్థాల సమ్మేళనాల ద్వారా చేయటానికి అనువైనది. సెల్యులోస్ అసిటేట్్ అణు
భారాన్నిబట్టి అసిటలేషన్ చర్యను బట్టి ప్లాస్టిసైజర్ దాని వాడకం బట్టి
#కావలసిన
పదార్థం లభిస్తుంది. దువ్వెనలు, బొమ్మలు, గిన్నెల హ్యాండిల్్లు, అద్దాల
#ఫ్రేమ్్లు
మోటారు పరిశ్రమలో, విద్యుత్ పరికరాలలో దీనిని వాడుతున్నారు. ఎక్స్్ట్రూడెడ్
సెల్యులోస్ అసిటేట్ ట్యూబ్్ను ఫౌంటెన్ పెన్్లలో, సైకిల్ పంప్్లలో వాడతారు.
పండ్లు కూరలు ఉంచటానికి గాలి రావటానికి వీలైన సెల్యులోస్ అసిటేట్ సంచులు
ప్యాకింగ్ కొరకు ఉపయోగపడతాయి. గ్లేజింగ్ పదార్థంగా కూడా ఇది పనికి
వస్తుంది. సెల్యులోస్ ట్రై అసిటేట్ ఫిల్మ్్, సినిమాటోగ్రఫీ, ఎక్స్్రే
#ఫిల్మ్్లలో
కూడ ఇప్పటికీ ఉపయోగిస్తున్నారు. మందమైన అసిటేట్్ గులాబీలు వగైరా
పెట్టటానికి కావలసిన పాత్రలు చేయటానికి పనికివస్తుంది.
 గ్రీటింగ్్ కార్డులకు, మేగజైన్ కవర్లకు లామినేషన్్గా ఇది
#ఉపయోగపడుతుంది. సెల్యులోస్ అసిటేట్్ షీట్ ఎలక్ట్రిక్్ టేప్్లలో, కెపాసిటర్్ల
#తయారీలోనే
కాక టైప్్రైటర్్ రిబ్బన్, లాంప్ షేడ్్లలో కూడ వాడుతున్నారు.
 సెల్యులోస్్ అసిటేట్్ దారాలు బట్టల పరిశ్రమలో వాడకం గురించి
#విశదీకరించపనిలేదు.
 కేసిన్ ప్లాస్టిక్్లు: కేసిన్్ (పాలవిరుగుడు) ను జిగట
పదార్థం చేయటం కోసం అనేక శతాబ్దాలనుండి వాడినారు. స్పిట్టలర్
అనే జర్మన్ రసాయనిక శాస్త్రజ్ఞుడు 1899 లో ఫార్మాల్డిహైడ్్తో
#సంఘటిత పరచి
కేసిన్ ప్లాస్టిక్్ను తయారు చేసినాడు. పొరుగునగల కేసిన్్ అణుశృంఖలాలలోని
అమైడ్ గణాలను ఫార్మాల్డిహైడ్ సంఘటన విధానంలో సంఘటితం చేస్తే నీటి
అణువులు వెలువడతాయి. ఈ ప్లాస్టిక్్ కరగని గట్టి ఘనపదార్థము. దీని
#విద్యుత్
విషయక గుణాలు హీనమైనవి. అంతేకాక ఇది గాలిలోని తేమ, అత్యంత స్థితులను
తట్టుకోలేదు. దీనికి గాలలలిత్ ఎరినాయిడ్ అనే వ్యాపార
ఉన్నాయి.
12-
ఫినాలిక్ పాలిమర్్లు
 ఫినాల్, ఫార్మాల్డిహైడ్ ఏకాణువుల సంఘటనంవల్ల ఏర్పడిన కృత్రిమ
ప్లాస్టిక్్లను ఫినోప్లాస్ట్్లని లేదా ఫినాలిక్్లని అంటారు. సంఘనన
అణుపుంజాలన్నింటిలోను ఇవి చాలా ముఖ్యమైనవి.
 ప్రతిభాశాలి బాకలాండ్ ఉపయోగార్హంగా ఈ ప్లాస్టిక్ ను
చేయటానికి నిర్దిష్టమైన ఉష్ణోగ్రతల, ఉత్ప్రేరికాల రసాయనాంశాల నిష్పత్తుల
తారతమ్యాలను గుర్తించినాడు. దీనితో ప్లాస్టిక్్ల
చరిత్రలో నూతనాధ్యాయం ఆరంభమయింది. వీటిపై ఆయనకు లభించిన
శతాధిక పేటెంట్ పరంపరలలో మొదటిది 1907 లో వచ్చింది. ఈ రెసిన్్కు
బేకలైట్ అనే వ్యవహార నామం ఇచ్చినాడు. 1910 సంవత్సరంలో
అతను అమెరికన్ జనరల్్ బేకలైట్ కంపెనీ అనే సొంత సంస్థను స్థాపించినాడు.
 ఫినాల్్తో ఫార్మాల్డిహైడ్్ సంలీనమయ్యెటప్పుడు ఫార్మాల్డిహైడ్్లోని
#కర్భనము, ఆక్సిజన్్ల ద్విబంధనాలలో ఒకటి విచ్ఛిన్నమై, ఫినాల్్లోని హైడ్రొజన్
పరమాణువును ఆక్సిజన్్ స్వీకరించగా (దీనిని మిథైల్ పరమాణు
కూటము అంటారు) లభ్యమైన ఉత్తేజ స్థానాలలో రెండూ బంధితమై పలురకాల
ఫినాల్్ ఆల్కహాల్్లు ఉత్పన్నమవుతాయి. ఈ క్రియ లంబ స్థానాలలొను, ఋజు
స్థానాలలోను జరుగుతుంది. ఒకే ఫార్మాల్డిహైడ్ అణువు, ఫినాల్ అణువుతో
కలిస్తే రెండు రకాల మోనోమిథైల్ ఉత్పన్నాలు వస్తాయి. రెండు ఫార్మాల్డిహైడ్
అణువులు పాల్గొంటే రెండు రకాల డైమిథైల్ ఫినాల్్లు వస్తాయి. ఇవి అభిముఖ
స్థానంలో మిథైల్్గ్రూప్ చేరటం చేరకపోవటంమీద ఆధారపడుతున్నాయి. మూడు
13-
ఫార్మాల్డిహైడ్ అణువులు పాల్గొంటే ఉన్న రెండు లంబస్థానాలు, ఒక్క అభిముఖ
స్థానమ. వ్యయమై ఒకేఒక రకం ట్రైమిథైల్ ఉత్పన్నం ఏర్పడుతుంది.
సంయోగంలో పాల్గొనే ఫార్మాల్డిహైడ్్ అణువుల సంఖ్యాధిక్యత మీద ఫినాల్్లో
#ఉత్తేజిత
స్థానాలు నిండటం ఆధారపడుతుందని తెలుస్తున్నది. ఫార్మాల్డిహైడ్్ను తక్కువ
వాడిన కొద్దీ మోనోమిథైల్ ఉత్పన్నం ఎక్కువగా వస్తుంది. ఈ పరిస్థితిని
#క్షార
గుణం గల ఉత్ప్రేరకాలవద్ద కలిగిస్తే ఫినాల్ ఆల్కహాల్ ఏకాణువులు సంఘనన
మొంది పొడవు లేని శృంఖలాలు ఏర్పడి రిసాల్ రెసిన్ తయారవుతుంది. ఈ
స్థితిలో ఇది థర్మోప్లాస్టిక్ గా ఉంటుంది. ఇది ఆల్కహాల్్ వంటి
#ద్రావణులలో
కరుగుతుంది. సంఘనన క్రియలో ఫినాల్్ ఆల్కహాల్్ అణువులోని మిథిలాల్్
గణంలో గల హైడ్రాక్సిల్్ గణము విడివడి వేరొక అణువులోని ఫినాల్ గణంలోగల
లంబస్థానంలోగాని అభిముఖ స్థానంలోగాని గల హైడ్రొజన్ పరమాణువుతో కలిసి
నీరు ఏర్పడుతుంది. ఇట్లా ఏర్పడిన ఉత్తేజ స్థానాల వద్ద బంధనాలు
#ఏర్పడి
పుంజీకరణం ముందుకు సాగుతుంది. మరొక విధంగా ఫినాల్ ఆల్కహాల్ అణువులు
రెండూ మిథిలాల్ గణము వద్దనె సంధించబడి హైడ్రాక్సిల్ గణాలనుండి
విడివడుతుంది. మిగిలిన ఆక్సిజన్్ పరమాణువుకు గల రెండు ఉత్తేజిత స్థానాలవద్ద
#అణువుల సంధానం జరుగుతుంది.
 ఇంకా కొంతసేపు తేలిక వేడిమిలో ఉంచితే, శృంఖలాలు పొడుగెదిగి
రెసిటాల్ రెసిన్్గా మారుతాయి. ఇది ద్రావణులలో కరగదు.
 ఫినాల్్ త్రయ ఉత్తేజిత స్థానాలు గలది గదా! అందువల్ల ఇంకా వేడి
చేస్తే శాఖాయుత శృంఖలాలధిక మైత్రిమితీయ బంధనాలు
ఏర్పడి ద్రవీభవించని ద్రావణులలో కరగని కఠినమైన రెసిట్ అనే రెసిన్్గా
మారుతుంది.
 ఫార్మాల్డిహైడ్్ అణువులను తగ్గించి ఆమ్ల ఉత్పేరకాలను వాడితే,
#సుమారు
పది మాత్రం పుంజీకరణమైన ఏకాణు శృంఖలాలు ఏర్పడుతాయి. ఈ చర్యలో
మిథిలాల్ గణాలన్ని వ్యయం కావటం వల్ల శాఖాశృంఖలాలకు తరవాత తావు
ఉండదు, అందుచేత ఇది శాశ్వత థర్మోసెట్టింగ్్గా ఉంటుంది. దీన్ని
#`నోవోలాక్'
అంటారు.
14-
 ఉత్పాదన విధానం: ఫినాల్, ఫార్మాల్డిహైడ్ రసాయనిక చర్య సంఘనన
ప్రక్రియ కాబట్టి శూన్యప్రేష స్వేదనము అమర్చిన
రెసిన్ పాత్రలలో ఈ రసాయనిక చర్య కావిస్తారు. ఈ రెసిన్ పాత్రలను తయారు
చేయటానికి వివిధ లోహాలను ఉపయోగిస్తారు. మైల్డ్్ స్టీల్ బహుళ
ప్రచారంలో ఉంది. స్టెయిన్్లెస్్ స్టీల్, రాగి, ఇనుము, నికల్ కూడ
#ఇందుకై
వాడినారు. నోవోలాక్ వంటి పదార్థాల తయారీలో రంగు ముఖ్యంకావటంవల్ల స్టెయిన్్
లెస్్స్టీల్ లేదా నికల్ వాడవలసి ఉంటుంది. రిసాల్్వంటి పదార్థాల తయారీలో
రంగు అంత ముఖ్యం కాకపోవటం వల్ల మైల్డ్్ స్టీల్, ఇనుము, రాగి వాడవచ్చు.
 రసాయనిక చర్యగతిని మిగిలిన ఫార్మాల్డిహైడ్్ను లేదా స్నిగ్ధత
ను కొలిచి తెలుసుకోవచ్చు. తగిన పరీక్షలు చేసి సంఘనన ప్రక్రియ
పూర్తయినట్లు తెలుసుకొన్నప్పుడు రెసిన్ తీసివేయటానికిగాని ఇతర వస్తువులతో
సమ్మిళితం చేయటానికి గాని సిద్ధంగా ఉంటుంది.
 మౌల్డింగ్ పౌడర్: నోవోలాక్ తయారుచేసినపుడు
రెసిన్్ను వేడిగా ఉన్నప్పుడే లోతుగాఉన్న పెద్ద పళ్ళేలలో పోసి
#చల్లారుస్తుంది.
చల్లారిన రెసిన్్ను మెత్తటి పొడిగాదంచి వివిధ వస్తువులతో కలుపుతారు.
#క్యూరింగ్్కోసం
హైక్సామైన్, పూరకము గా చెక్కపొడి, స్టియరేట్్ను
మౌల్డ్్లూబ్రికెంట్్గాను, కొన్ని రంగు పదార్థాలను ఉపయోగిస్తారు. మౌల్డింగ్్
పౌడర్్ ధర్మాలు వాటిని కలపటానికి వాడిన పూరకంపైన ఆధారపడి ఉంటాయి.
ఈ ఫిల్లర్ 50 శాతం వరకు ఉండవచ్చు. చెక్క పొడిని సాధారణంగా
పూరకంగా ఉపయోగించినా, కత్తిరించిన గుడ్డ ముక్కలు షాక్
తట్టుకోటానికి, అభ్రకము విద్యుత్ గుణాలు పెంచటానికి, సిలికా
అభ్రకము నీటిని నిరోధించటానికి, పూరకంగా వాడుతారు. ఈ పదార్థాలను
ముందే బాగా కలిపి మిల్్ పైనగాని రోల్స్్ పైనగాని
కాంపౌండింగ్్ చేస్తారు. కాంపౌండింగ్్ జరిగేటప్పుడు ఆవిరితో వేడిచేయటంచేత
వెలువడే పదార్థము కొంతవరకు క఼్యూరింగ్ చెందగలదు. మౌల్డింగ్్ చేసేటప్పుడు
పూర్తిగా క్యూరింగ్ జరుగుతుంది. ఆ తరవాత సరిఅయిన పరిమాణానికి పొడి
చేసి సమ్మిళితం చేసి పరీక్షిస్తారు.
 ఫినాల్ ఫార్మాల్డిహైడ్ మౌల్డింగ్ పౌడర్్లను సంపీడన మౌల్డింగ్ విధానం
మార్పిడి మౌల్డింగ్ విధానాలలో
15-
తయారీ చేస్తారు. 150 నుండి 180 డిగ్రి c ఉష్ణోగ్రత, ఒక
టన్ను/చదరపు అంగుళము లేదా ఇంకా ఎక్కువ పీడనము ఉపయోగిస్తారు.
 అలకే జిగురు వస్తువులు: ఫీనాలిక్ రెసిన్్లు ప్లయిఉడ్
తయారిలో బహుళంగా వాడుకలో ఉన్నాయి. దీనితో తయారుచేసిన ప్లైఉడ్
దృఢంగాను, మందంనాను ఉంటుంది. ఆల్కహాల్ ద్రావణంలో ఉన్న రిసాల్్ను
కాగితాలకు గుడ్డలకు ఎక్కించి లామినేటెడ్ బోర్డులుగా తయారు చేయవచ్చు.
#దీనికై
ముంచటం, ముందే కలపటం, పూత పూయటం, పరచటం
మొదలైన పద్ధతులను అనుసరిస్తారు.
 ధర్మాలు: ఫినాలిక్ రెసిన్్లు, వాటి తయారీలో వాడిన రసాయనాల
#నిష్పత్తి
16-
ఉత్ప్రేరకాలనుబట్టి ఘన రూపంలోగాని ద్రవ రూపంలో గాని లేత పగడపు
రంగునుండి ముదురు కపిల వర్ణం వరకు వివిధ
పారదర్శకత గుణాలు కలిగిఉంటాయి. నోవోలాక్్ను మెత్తని పొడిగా దంచి మౌల్డింగ్
లో వాడటానికి కర్బన ద్రావణులలో కరిగించి అతకటానికి ఉపయోగించవచ్చు.
క్యూరింగ్్ చేసిన రెసిన్్లు సామాన్య ద్రావణులలో వేడి నూనెలలో, ఆమ్లాలలో
కరగవు. రెసిన్్లను వివిధ ఆకారాలలో పోత పోయవచ్చు.
 ఉపయోగాలు: ఫినాలిక్ ప్లాస్టిక్్లు తక్కువ ధరగల సాధారణ
ఉపయోగంలో ఉన్న ప్లాస్టిక్్లు. టెలిఫోన్్ రిసీవర్్లు, స్టీరింగ్్ చక్రాలలో
#ఇవి ఉపయోగ
పడుతున్నాయి. దీని విశేష గుణంవల్ల పంప్్ ఇంపెల్లర్ లలో,
వాషింగ్్ మిషన్్లలో, ఎలక్ట్రిక్్ స్విచ్్లలో దీనిని వాడవచ్చు. ఉష్ణ
#నిరోధక
తరగతిలోని రాతి పీచు తో పూరించిన ప్లాస్టిక్్లు విమానాలలో
మిస్ఫైల్స్్లో ఉపయోగపడుతున్నాయి.
17-
 ఫినాలిక్ రెసిన్్లను కాగితము, కట్టె, గుడ్డ పైన ఎక్కించటంవల్ల
#తయారయ్యే లామినేట్్లు అందం కొరకే కాకుండ పారిశ్రామికంగా చాలా వాడుకలోకి
వచ్చినాయి. కాస్టింగ్ చేసిన రెసిన్్లు ఇప్పటికీ బిలియర్డ్్ బంతులుగాను,
#గొడుగు
పిడులుగాను, ఫర్నిచర్్, వంటసామగ్రి హ్యాండిల్స్్గాను ఉపయోగిస్తున్నారు. ఫోమ్
ఫినాలిక్్లు ఈమధ్యనే వెలసినవి. ఫోమ్ ఫినాలిక్్లు ఇప్పుడు ప్రచారంలో ఉన్న
ఇతర ఫోమ్ ప్లాస్టిక్్ల స్థానాన్ని పొందలేక పోతున్నాయి.
18-
అమినో ప్లాస్ట్్లు
 యూరియా, ఫార్మాల్డిహైడ్్ల మధ్య రసాయనికచర్య, హోల్జర్
మెథిలీన్ యూరియాను 1884 లో తయారుచేసినప్పటినుంచి తెలిసింది. హాన్స్్జాన్
1918లో యూరియా, ఫార్మ।కల్డిహైడ్్ల రసాయనిక చర్యలకై
పేటెంట్్ పొందినాడు. ఆ తరువాత గోల్డ్్స్మిత్, న్యూస్
రిప్పర్, పోలాక్ లు కూడ పేటెంట్్లు
పొందినారు. హెంకెల్్ 1935 లో మేలమైన్ రసాయనాన్ని ఫార్మాల్డిహైడ్
తో సంఘననపరచటం గురించి పేటెంట్్ పొందినాడు. మేలమైన్ ఫార్మాల్డిహైడ్్తో
రసాయనచర్య పొందినప్పుడు లభ్యమయ్యే రెసిన్ యూరియాతో
తయారయిన రెసిన్్ వలె కనపడినప్పటికీ నీటిని నిరోధించే శక్తి దీనికి ఎక్కువ.
 1938 నుండి అమినో ప్లాస్టిక్్ల ప్రాముఖ్యం పెరిగి పెద్దఎత్తున
#యూరియా
ఫార్మాల్డిహైడ్్ మౌల్డింగ్్ పౌడర్ తయారీ మొదలైంది. ఇప్పుడు ఈ రెసిన్
మౌల్డింగ్ పౌడర్్గా, జిగురు గా, పై పూతగా
గా విరివిగా వాడుకలో ఉంది.
 ఉత్పాదన విధానము: తటస్థ యానకం లోను,
అల్ప క్షార యానకంలోను యూరియా, ఫార్మాల్డిహైడ్్ల ఏకాణువులు మోనో
డైమిథైల్ యూరియాలుగా ఏర్పడతాయి,
సమాన మోల్్ల నిష్పత్తిలో యూరియాను, ఫార్మాల్డిహైడ్్ను
కలిపినప్పుడు మోనోమిథైల్ యూరియా లభ్యమవుతుంది. ఇదేవిధంగా ప్రతి యూరియా
మోల్్కు, రెండు మోల్్ల ఫార్మాల్డిహైడ్్ వాడినప్పుడు డైమిథైల్ యూరియా
19-
తయారవుతుంది. పెద్ద ఎత్తున తయారు చేసేటప్పుడు ఫార్మలీన్ PH ను
సోడియం లేదా పొటాసియం హైడ్రాక్సైడ్్ను ఉపయోగించి 7.5 వద్ద ఉంచుతారు.
ఈ మిథైల్ సమ్మేళనాలు ఉత్ప్రేరకాల వల్ల వేడిచేయటంవల్ల సంఘననమై మిథిలీన్
ఉత్పన్నం గా మారుతాయి. ఈ ఉత్పన్నాలు అడ్డు
బంధనాలు ఏర్పరచుకొని రెసిన్్ గా తయారవుతాయి.
 మెలమైన్్ ఫార్మాల్డిహైడ్్ల సంఘనన రసాయనికక్రియ యూరియాతో
పోలిఉన్నప్పటికీ ఒక మోల్ మేలమైన్ ఒకటినుంచి ఆరు మోల్్ల ఫార్మాల్డిహైడ్్తో
సమ్మేళనం చెందుతుంది. ఫినాల్ ఫార్మాల్డిహైడ్ రెసిన్ తయారుచేసి రసాయనిక
చర్యా పాత్రలవంటి వాటిలో అమినో ప్లాస్టిక్్ల మూల రెసిన్్కూడ తయారుచేస్తారు.
 మోల్డింగ్్ పౌడర్్లు: యూరియా ఫార్మాల్డిహైడ్్
లేదా మేలమైన్ ఫార్మాల్డిహైడ్్ను అల్పక్షార స్థితిలో PH ను జాగ్రత్తగా
#నియంత్రించి
రెసిన్్ను తయారుచేస్తారు. ఈ రెసిన్్ను మోల్డింగ్్ పౌడర్్గా మార్చటానికి
#రెండు
పద్ధతులు ఉన్నాయి. తడి పద్ధతిలోని రెసిన్్ను పూరకంతో బాగా కలిపి
పూరకాన్ని రెసిన్్ పైకి ఎక్కిస్తారు. తయారైన మిశ్రమాన్ని ముక్కలుగా పగలగొట్టి
కావలసిన మార్ధవ గుణము వచ్చేవరకు ఆరబెడతాడు. ఆ తరవాత
ఉత్ప్రేరకాన్ని రంగు మొదలైనవాటితో కలిపి బాల్్మిల్్ లో మెత్తని
పౌడర్్గా చేస్తారు.
 ధర్మాలు: అమినో ప్లాస్టిక్్ల మూల రెసిన్్లు నీరువంటి ద్రవంగానో
తెల్లవి పొడిగానో ఉంటాయి. చక్కగా క్యూరింగ్ చేసిన మోల్డింగ్్లకు రుచి,
#వాసన
ఉండవు. కాబట్టి ఇంటి సామగ్రి కొరకు ఇవి బాగా పనికివస్తాయి. యూరియా
ఫార్మాల్డిహైడ్ రెసిన్్లు అత్యంత పారదర్శకత ఉండటంచేత వీటిని మొదట కృత్రిమ
గాజువలె వాడవలెనని ప్రయత్నించినారు, యూరియా రెసిన్్లు తేమను గ్రహిస్తాయి.
అందుచేత పారదర్శకత, దృఢత్వం కోల్పోవటంవల్ల వీటి వాడకం అంతరించింది.
తరవాత అర్థ్రా కర్షకాలయిన కొయ్యగుజ్జువంటి పూరకాలను, తగిన స్నేహకాలను,
మృదుత్వాపాదకాలను వాడి స్థిరమైన గుణాలుగల థర్మోసెట్టింగ్ రెసిన్్ను తయారు
చేసినారు. వీటి కలయికవల్ల పారదర్శకత లేకపోయినా ఆకర్షణీయమైన అనేక
20-
రంగులతో ద్రవీభవించని ప్లాస్టిక్ ఉపయోగంలోకి వచ్చింది. యూరియా
ఫార్మాల్డిహైడ్్ రెసిన్్లకు మేలమైన్, ఫినాల్ రెసిన్్లంత నీటి నిరోధకశక్తిలేదు.
 అమినో ప్లాస్టిక్్లపైన సామాన్య కర్బన ద్రావణులకు, నూనెలకు, అల్ప
ఆమ్లక్షారాలకు చర్యలేదు. నీటివల్ల యూరియా రెసిన్్లు ఉబ్బుతాయి కాని
మేలమైన్్లు ఏమి కావు. ఈ రెండు రెసిన్్లుకూడా ఆమ్ల క్షారాలను నిరోధించలేవు.
 ఉపయోగాలు: యూరియా ఫార్మాల్డిహైడ్ రెసిన్్లను మొదట మౌల్డింగ్్
పౌడర్్గానే వాడినప్పటికీ ఇప్పుడు అందుకు దీనిని అంతగా ఉపయోగించటంలేదు.
ఒకప్పుడు యూరియా ఫార్మాల్డిహైడ్్తో తయారయిన వస్తువుల తయారీకి ఇప్పుడు
థర్మో ప్లాస్టిక్్లను విరివిగా వాడుతున్నారు. థర్మో ప్లాస్టిక్్లను
#ఇంజక్షన్్ మౌల్డింగ్్
పద్ధతి ద్వారా ఎక్కువ రేటున తయారుచేయగలగడమే దీనికి ముఖ్య కారణం.
అయినప్పటికీ తగిన యాంత్రిక బలము, ధారుడ్యము
ఉండటమేగాక లోహం దిగవేసిన భాగాల చుట్టూ
అచ్చు పోయడానికి వీలుగా ఉండటంవల్ల యూరియా ఫార్మాల్డిహైడ్్ విద్యుత్
పరికరాలకు విరివిగా వాడుతున్నారు. ఇప్పుడు లభ్యమయ్యే మౌల్డింగ్ పౌడర్్లలో
యూరియా ఫార్మాల్డిహైడ్్ మౌల్డింగ్ నిర్జ్వలన గుణము అతి
తక్కువ ధరగల వాటిలో ఒకటి. యూరియా ఫార్మాల్డిహైడ్ మౌల్డింగ్ పౌడర్్లు
మేలమైన్ కంటె కూడా చవక కావటం వల్ల అన్ని విద్యుత్ పరికరాలకు కూడ
అనువైనది. కాని ల్యాంప్ హోల్డర్ కు మాత్రం ఎక్కువ
ఉష్ణోగ్రత వద్ద చాలాకాలంవరకు మున్నగల మేలమైన్్నే వాడతారు.
 యూరియా ఫార్మాల్డిహైడ్్ ద్రావణులకు, గ్రీస్్లకు, నూనెలకు నిరోధకశక్తి
ఉండి ఉపరితల గట్టితనంతో వివిధ రంగులలో లభ్యం కావటం వల్ల దేహాలంకరణ
సామగ్రి లో కేశవర్ణకాల లో మిక్సర్ పాత్రలో, గడి
యూరపు పెట్టెలలో, గుండీల తయారీలో విరివిగా వాడతారు.
 మేలమైనా ఫార్మాల్డిహైడ్్ను ఎక్కువగా ఉత్తమమైన టేబుల్ పాత్రలు, వంట
సామగ్రి పిడులు, వంట సామగ్రి పెట్టుకొనే సాధనాలు చేయడానికి వాడతారు.
ఈ మౌల్డింగ్్లు రుచి, వాసన లేకుండా కాఫీ, టీ, పండ్ల రసాల మరకలను అంట
నీయవు. ఎమినో రెసిన్్లు కర్రసామాను ఫర్నిచర్ మొదలయిన పరిశ్రమలలో
చాలా మెప్పును పొందినాయి. ఫ్లైఉడ్, చిప్ బోర్డ్్
ఇతర కట్టడపు పనులలో చాలావరకు ఉపయోగపడుతున్నాయి. నీటి నిరోధకశక్తి
21-
ఎక్కువ కాలము కావలసిన చోట్ల మేలమైన్్ను ఎన్నుకొంటారు.
 అందమైన కాగితపు లామినేట్్లను తయారుచేయటానికి ఈ రెసిన్్లు
వాడుతున్నారు. చెక్కపైన, ప్లాస్టిక్్ పైన హార్డ్్బోర్డ్్ పైన విరివిగా
వాడుతున్నారు. మేలమైన్్కు ఉష్ణ, విద్యుత్ నిరోధకశక్తి ఉండటంచేత విద్యుత్
స్విచ్ గేర్్లలో. ప్రింటెడ్ సర్క్యూట్ పానల్
లలో వాడకానికి పనికి వస్తుంది. డ్రిప్్ డ్రై
బట్టలు దీనివల్లనే వ్యాప్తిలోకి వచ్చినాయి. ఇస్త్రీ మడత నలగకుండా
#ఉంచటానికి
నూలు బట్టలపై దీనిని వాడతారు. ఖర్చు ఎక్కువైనప్పటికీ కాగితం తడిసినప్పుడు
భారం తక్కువ కావటాన్ని నిరోధించి ఎక్కువ కాలం మన్నేటట్లు మేలమైన్్తో
చేయవచ్చు. వంట ఇంటిలో రెఫ్రిజిరేటర్్లలో కోటింగ్్గాను, వాహనాల
ఫినిషింగ్లోను దీనిని ఆల్కైడ్స్్తో వాడతారు. ఉష్ణనిరోధక శక్తి గల ఫోమ్్ ను
యూరియా ఫార్మాల్డిహైడ్్తో తయారుచేయవచ్చు.
22-
ఓలిఫిన్ అణుపుంజాలు
 కొన్ని అసంతృప్త హైడ్రోకార్బన్్లు అణుపుంజీకరణ
చెందటం వల్ల ఓలిఫిన్ అణుపుంజాలుగా మారుతాయి. ఇవి చాల ముఖ్యమైన
#ప్లాస్టిక్్లు,
అల్ప సాంద్రత అధిక సాంద్రతగల పాలీఎధిలీన్్లు, పాలీప్రొపిలీన్్, మరికొన్ని
కోపాలిమర్్లు వీటిలో ముఖ్యమైనవి.
 పాలీఎథిలీన్: రెండు నిర్దిష్టమైన పాలిఎథిలీన్్లు
వాడుకలో ఉన్నాయి. వీటిలో ముఖ్యమైన భేదము సాంద్రత కావటంవల్ల ఇవి అల్ప
సాంద్రత అధిక సాంద్రత పాలీఎథిలీన్్లు
గా వాడుకలో ఉన్నాయి. వీటిని తయారుచేసే పద్ధతులు కూడ
వేరుగా ఉంటాయి. అధిక పీడన విధానంలో అల్ప
సాంద్రత పాలీఎథిలీన్, అల్ప పీడన విధానంలో అధిక సాంద్రత పాలీఎథిలీన్
తయారవుతాయి. అధిక సాంద్రత పాలీఎథిలీన్్ అణువులు సరళ శృంఖలాలు
అల్ప సాంద్రత పాలీఎథిలీన్్లు శాఖయుత శృంఖలాలుగల అణువులు.
 అల్ప సాంద్రత అణుపుంజాలను 1900 కు పూర్వమే తయారు చేసినా అధిక
సాంద్రత పదార్థాన్ని ఇంపీరియల్ కెలికల్ ఇండస్ట్రీవారు 1933 లో వారి
#పరిశోధనలో పొందగలిగినారు. ఎథిలీన్్ను 170 డిగ్రీ c ఉష్ణోప్రత వద్ద అత్యధిక
#పీడనకు గురి
చేయటంవల్ల తెల్లని మైనంవంటి ముద్ద లభించింది. 1935 లో ఈ పదార్థం విశేష
విద్యుత్ ధర్మాలశల్ల ఇది ముఖ్యంగా నీటిలో ఉండే కేబుల్స్్ కు
విద్యుద్బంధనంగా ఉపయోగపడుతుందని తెలుసుకున్నాీరు.
23-
1939 లో దీనిని పెద్ద ఎత్తున తయారుచేసి, రాడార్్ పరికరంలో
ప్రపంచ యుద్ధంలో వాడినారు. ప్రపంచ యుద్ధం తర్వాత దీనిని పాకేజింగ్
వ్యవసాయము, ఇండ్లు కట్టటానికి, ఫిల్స్్లుగాను, సీసాలు,
బొమ్మలు, ఇంటి సామగ్రి, నీరు పంపించటానికి నాళాలుగాను వాడటానికి తయారు
చేసినారు. 1953 సంవత్సరంలో జిగ్లరు శాస్త్రవేత్త ఉత్ప్రేరకాల
సహాయంతో కేవలం వాతావరణ పీడనం వద్దనే ఎథిలీన్ పుంజీకరణ
చేయగలిగినాడు. సుమారు అదే సమయంలో అమెరికాలో రెండు అల్పపీడన
విధానాలలో దీని తయారీ కనుక్కొన్నారు. ఇందులో తయారైన అణుపుంజానికి
అంతకుముందు వ్యాప్తిలో ఉన్న అణుపుంజానికి భిన్నమైన ధర్మాలు ఉండటంవల్ల
ఈ పద్ధతులు చాలా ప్రాముఖ్యానికి వచ్చినాయి. అన్నిటికంటే ముఖ్యంగా సాంద్రత
లోగల భేదము ఈ రెంటిని నిర్దిష్టంగా వేరుచేస్తుంది.
 ఉత్పాదన విధానము: ఇదివరకే తెలిపినట్లు పాలీఎథిలీన్్ను రెండు
#విధానాలలో ఉత్పత్తి చేస్తారు.
 అధిక పీడన ఉత్పాదన విధానము: ఎథిలీన్
ను వివిధపీడన, ఉష్ణోగ్రతలలో అణఉపుంజీకరణ చేయవచ్చు. 1000 నుండి 3000
వాతావరణ పీడనాలు, 100 నుండి 300 డిగ్రి c ఉష్ణోగ్రతలను అధిక పీడనవిధానంలో
ఉత్పాదనకు ఉపయోగిస్తారు. 37గ0 డిగ్రి c కంటె ఎక్కువ ఉష్ణోగ్రత
#అణుపుంజాలను హీనపరుస్తుంది. ఉత్ప్రేరకాలు, వాటి నిష్పత్తి ఇందులో చాలా
ముఖ్యాంశాలు. ఆక్సిజన్, ఆల్కైల్ లోహాలు, అజో సమ్మేళనాలు
ఆర్గానిక్ పెరాక్సైడ్్లు
ఉత్ప్రేరకాలుగా వాడినారు. ఈ రసాయనిక చర్యలో చాల ఉష్ణము వెలువడుతుంది.
 అత్యంత స్వచ్ఛమైన ఎథిలీన్్ను మొదట రాగి
ఉత్ప్రేరకం మీదుగా పంపి ఆక్సిజన్ తీసివేస్తారు. ఆతరవాత కచ్చితంగా అవసరమైన
ఆక్సిజన్్ను కలిపి ఈ వాయువులను మల్టీ స్టేజ్ కంప్రెస్సర్్
లలో అధిక పీడనానికి గురిచేస్తారు. వీటిని ఆటో క్లేవ్ లేదా ట్యూబులర్
రసాయనిక చర్యా పాత్లకు పంపుతారు. తగు
ఉష్ణోగ్రతలను, పీడనాలను ఉత్ప్రేరక నిష్పత్తిని ఉంచుతారు. తయారైన
అణుపుంజాలను రిబ్బనుగా సాగదీయటంగాని, చల్లార్చిన గడ్డను పలుకులు గా
24-
కోయటంగాని చేస్తారు. ఫీల్మ్్లు ఇతర సజాతీయ పదార్థాల ఉత్పత్తి కొరకు
రిఫైనర్లు, స్క్రూ ఎక్స్్ట్రూడర్్లు వాడుతారు పటము-2
లో ఉత్పాదన విధానము చిత్రీకరించినాము.
 అల్పపీడన ఉత్పాదన విధానము: అధిక పీడన
విధానానికి, అల్ప పీడన విధానానికి మధ్య ముఖ్యభేదము ఎథిలీన్ అణుపుంజీకరణ
లో వాడే ఉత్ప్రేరకాలే. జిగ్లర్్ కనుక్కొన్న ఉత్ప్రేరకాలు సామాన్య
#వాతావరణ
ఈ పద్ధతిలో వాడిన ఉత్ప్రేరకాలు అల్యూమినియం ట్రై ఈథైల్
ట్రైటానియమ్ ఉత్పన్నాలు. కాని ఈ రెంటి రసాయనిక చర్య
ఫలితమైన పదార్థమే నిజమైన ఉత్ప్రేరకము.
25-
 ఫిలిమ్స్ ఉత్పాదన విధానంలో వాడే ఉత్ప్రేరకము ఆవిరిచేత
#ఉత్తేజితం చేయ
బడిన సిలికా లేదా అల్యూమినా పైన నిలిపిన క్రోమియమ్ ఆక్సైడ్. చార్్కొల్
పైన నికల్ ఆక్సైడ్్ను స్టాండర్డ్్ ఆయిల్ వారు తయారుచేసే పద్ధతిలో
#వాడతారు.
 జిగ్లర్ పద్ధతిలో పీడనాన్ని సూమారు వాతావరణ ప్రాంతం వద్ద ఉంచి
#ఉష్ణోగ్రత
50 నుండి 75 డిగ్రి C వరకు ఉంచుతారు. ఈ మిశ్రమాన్ని ఉత్ప్రేరకాలను
#తీసివేయటం
ద్రావణిని తిరిగి తెచ్చుకోవటం, తడి లేకుండా చేయటం, గుళికలు చేయటం
మొదలయిన వివిధ చర్యలకు గురిచేస్తారు.
 ఫిలిమ్స్్ విధానంలో 100 నుండి 175 డిగ్రి C ఉష్ణోగ్రత వరకు, 26
#నుండి 35
వాతావరణ పీడనం వద్ద తయారుచేస్తారు. సైక్లోహెక్సేన్ యానకంలో ఈ ఉష్ణోగ్రత
వద్ద పాలీఎథిలీన్ కరిగిఉంటుంది. ఇది పది శాతం ఉండేటట్లు తీస్తారు.
#దీనిని
చల్లార్చి పేర్చుకోవటం, వడియగట్టటం, ఆరబెట్టటం ద్వారా పాలీఎథిలీన్
లభిస్తుంది.
28-
 సమ్మేళనము: కొన్ని ప్రత్యేక ఉపయోగాలకు వర్ణదాలు,
కార్బన్్ బ్లాక్, ఆంటీ ఆక్సిడెంట్్లు, ఆడిటివ్్లు
అణుపుంజంలో మిళితం చేయవలసిఉంటుంది. కాబట్టి సమ్మేళనం చేయవలసిన
ఘటకాలను ముందే టంబుల్్ బ్లెండర్్ లేదా రిబ్బన్ బ్లెండర్్లో బాగా కలిపి
#కరిగిన
పాలీఎథిలీన్్ గల సమ్మేళన పరికరంలోకి
పంపుతారు. బాస్్బరీ మిక్సర్్, ఎక్స్్ట్రాడర్్లను ఈ సమ్మేళనకోసం పెద్ద
#ఎత్తు తయారీ
తో వాడతారు.
 ధర్మాలు: పాలీఎథిలీన్ ధర్మాలు దాని రసాయన సంఘననపైన, అణు
భారం పైన, సాంద్రతపైన ఆధారపడి ఉంటాయి. అణుభార వితరణ
కూడ అణుపుంజం ధర్మాలను మార్పు చేస్తుంది.
ఇరుకైన అణుభార వితరణ గల పాలీఎథిలీన్్లు తక్కువ ఉష్ణోగ్రతవద్ద
పెళునుతనము పరిసర ప్రతిబలంవల్ల పగలడాన్ని
27-
ఎక్కువగా నిరోధించగలవు. అల్ప
సాంద్రతగల పాలీఎథిలీన్్ కొద్దిగా పారదర్శకతగల మైనంవంటి గట్టి ఘనపదార్థము.
సాంద్రత పెరిగినకొద్దీ గట్టిదనము ఎక్కువై దెబ్బలు తట్టుకోగలశక్త
తక్కువవుతుంది. అధిక సాంద్రతగల వస్తువులలో మైనవు గుణము
తక్కువగా కనబడుతుంది. మెత్తబడే ఉష్ణోగ్రత నీటి
బాష్పీ భవన ఉష్ణోగ్రతకన్న అధికంగా ఉండటంవల్ల, ఆవిరితో స్టెరిలైస్్
#చేయటానికి వీలుగా ఉండటంవల్ల పాలీఎథిలీన్్ వివిధ కొత్త ఉపయోగాలకు
#పనికివస్తుంది.
ఇప్పుడు చాలాచోట్ల అల్ప, అధిక సాంద్రతగల పాలీఎథిలీన్్లకు మధ్యస్థ సాంద్రత
గల పాలీఎథిలీన్్లను వాడుతున్నారు.
 పాలీఎథిలీన్్ నీటిలో తడవదు. నీటిలో సంవత్సరకాలం ఉంచినా 0.2 శాతం
నీటిని గూడ ఇముడ్చుకోలేదు. నీటి ఆవిరి పారగమ్యత
చాలా తక్కువ గాని అల్పసాంద్రత కంటె అధిక సాంద్రతగల
వస్తువులలో ఈ గుణము మిన్న. పాలీఎథిలీన్్లు సామాన్యంగా అన్ని
రసాయనాలను తట్టుకోగలవు. కాని విడిగా ఉన్న హాలోజిన్్లను
ఆక్సీకరణ చెందిన ఆమ్లాలను కొన్ని కీటోన్్లను తట్టుకోలేవు.
గది ఉష్ణోగ్రతవద్ద పాలీఎథిలీన్్ ద్రావణులలో కరగదు. కాని ఉష్ణోగ్రత
#పెరిగిన
కొద్దీ హైడ్రోకార్బన్, క్లోరినేటెడ్ హైడ్రోకార్బన్్లలో ద్రావణీయత
#పెరుగుతుంది.
అధిక సాంద్రత పాలీఎథిలీన్్లకు తక్కువ ద్రావణీయత ఉంటుంది. నూనెలను
గ్రీస్్లను అల్పసాంద్రత పాలీఎథిలీన్్లు నిరోధించలేవు. అతినీల కాంతి కిరణాల
వల్ల ఆక్సీకరణ చెందుతాయి. వేడివల్ల ఆక్సీకరణ చెంది విద్యుత్,
#యాంత్రికలోహిత
ధర్మాలు చెడిపోతాయి. ఈథర్్లు సువాసన తైలాలు దీనిలోకి చొచ్చుకొనిపోతాయి.
కాబట్టి ఈ ప్రాంతంలో నీటిని నిలువ చేయకూడదు.
 ఉపయోగాలు: పాలీఎథిలీన్, ప్లాస్టిక్్లన్నిటికన్న చాలా విస్తృతంగా
వివిధ ఉపయోగాలకోసం వాడబడుతున్నది. దీని అత్యంత అణువైన ధర్మాలవల్ల
వివిధ వస్తువులను దీనితో చేయవచ్చు. కాబట్టి ఆధునిక ప్రపంచంలో ప్రతి
#ఇంటిలోను
ఈ వాడకం వస్తువులు సర్వసాధారణమైపోయింది. పాలీఎథిలీన్్ ఫిల్మ్్లు
#పాకేజింగ్
పరిశ్రమలో చాలా వాడుకలో ఉన్నాయి. అధిక సాంద్రతగల పాలీఎథిలీన్్తో ఉష్ణ
నిరోధకశక్తి కలిగిన పాకెట్్లు తయారు చేయవచ్చు. నీటి ఆవిరి నిరోధించే
#గుణము
ఉండటంవల్ల తాజాపండ్లు, కూరలు దీనిలో ఉంచడం వీలుకావడమేకాక అందంగా
28-
లోపల వస్తువులుకూడా కనపడతాయి. ఎరువులను నింపటానికి, చేతిసంచులుగాను
కాగితము గొనెసంచుల స్థానాన్ని కొంతవరకు ఇవి ఆక్రమించుకున్నాయి. ఇండ్లు
కట్టటంలో, వ్యవసాయంలో కూడా పాలీఎథిలీన్్ షీట్్లు ఉపయోగపడుతున్నాయి.
 ఎక్స్్ట్రూజన్ పద్ధతిలో పాలీఎథిలీన్్తో ట్యూబ్్లు, పైప్్లు
#చేయవచ్చు.
బ్లోయింగ్్ పద్ధతిలో ఫిల్మ్్లుగామార్చి సంచులుగాను, షీట్్లుగాను
#తయారుచేస్తారు.
వీటితో వివిధ రకాలైన వస్తువులు తయారుచేయవచ్చు. ఎక్స్్ట్రూజన్ పద్ధతిలో
బ్లోమోల్డింగ్ పద్ధతిలో పాత్రలను తయారుచేయవచ్చు.
 ఎలక్ట్రిక్ తీగలకు, కేబుల్్లకు పూతపూయటానికి అల్పసాంద్రతగల
#పాలీఎథిలీన్్ను సాధారణంగా ఉపయోగిస్తారు. పాలీఎథిలీన్్ పాత్రలను, సీసాలను మందులు
నింపటానికి, రసాయనాలు ఉంచటానికి వాడుతున్నారు. పాలీఎథిలీన్్ వత్తుడు
#సీసాలు
షాంపూ మొదలైనవాటికి వాడవచ్చు. చెత్త
బుట్టలుగా, బకెట్లుగాను, బొమ్మలుగాను, ధాన్యాన్ని వర్షంనుంచి
#రక్షించటానికి,
రిఫ్రిజరేటర్, ఎయిర్్ కండిషనర్, మోటారు వాహనాలలో చిన్న చిన్న భాగాలుగా
పాలిఎథిలీన్ బహు విధాల దైనందిన జీవితంలో ఉపయోగపడుతున్నది.
29-
 పాలీ ప్రొపిలీన్: ప్రొపిలీన్ అణువుల పుంజీకరణవల్ల
పాలీప్రొపిలీన్్ ప్రాప్తమవుతుంది. స్థూలంగా ప్రొపిలీన్ అణుపుంజీకరణ అధిక
సాంద్రతగల పాలీఎథిలీన్ తయారీలో వాడే జిగ్లర్ విధానాన్ని పోలిఉంటుంది.
 పాలీ ప్రొపిలీన్, రంగు, వాసనలేని అతి తేలికైన ప్లాస్టిక్. దీని
#ధర్మాలు
అధిక సాంద్రతగల పాలి ఎథిలీన్్ను పోలి ఉంటాయి. దీని ప్రత్యేకత అనేకసార్లు
ముడిచినా తట్టుకునే గుణము. కాబట్టి దానితో చేసిన
హింజ్్లు బాగా ఉపయోగిస్తారు. అధిక సాంద్రతగల పాలీఎథిలీన్్
కంటె ఎక్కువ ఉష్ణోగ్రతవద్ద దీనిని ఉపయోగించవచ్చు. నూనెలు, గ్రీస్్లను
#ఇవి
వాటికంటె ఎక్కువగా తట్టుకోగలవు.
 దీని విశేష గుణాలవల్ల చాలా ప్రత్యేకమైన వస్తువుల తయారీలో దీనిని
#వాడవచ్చు. వాషింగ్ మెషిన్, మూతలు, ఇంటిలోని పాత్రలు, బొమ్మలు, మోటారు
వాహనాలలో వివిధ భాగాల తయారీలో వైద్యశాలలో దీనిని ఉపయోగిస్తున్నారు.
నాళాలుగా, టాంక్్లైనింగ్్గా, రసాయనిక కర్మాగారంలో పైప్్లుగా ఎక్కువ
ఉష్ణోగ్రతలలో కూడ దీనిని వాడవచ్చు. పాలీప్రొపిలీన్్తో తయారుచేసిన తాళ్ళు
నీటిలో మునగవు. వత్తుడు సీసాలు, బ్లోమోల్డింగ్ పద్ధతిలో దీనితో తయారు
చేయవచ్చు.
30-
ఫ్లోరోకార్బన్ బహ్వణుకాలు
 ఫ్లోరోకార్బన్ బహ్వాణుకాలను డ్యూపాంట్్ కంపెనీవారు
తమపరిశోధనలో కదాచిత్తుగా కనుక్కొన్నారు. ఈ ప్లాస్టిక్్ను మొదట టెట్రాఫ్లోరో
#ఎథిలీన్్ నుంచి పొందినారు. అయినా టెట్రాఫ్లోరో ఎథిలీన్ తయారీ రెండవ ప్రపంచ
యుద్ధం వరకు జరుగలేదు. రెండవ ప్రపంచయుద్ధంలో యురేనియం 235 తయారీ
లో రసాయనిక చర్యను తట్టుకోటానికి పాలీటెట్రా ఫ్లోరో ఎథిలీన్
అవసరమైంది. యుద్ధకాలంలో ఉపయోగించిన పి.టి.యఫ్.యి. ని ఆ తరవాత
పారిశ్రామికంగా ఉపయోగించడమైంది.
 టెట్రాఫ్లోరో ఎథిలీన్్ నుండి పి.టి.యఫ్్.యి. యేకాక
#పాలీట్రైఫ్లోరో క్లోరో
ఎథిలీన్, పాలీవినైల్ ఫ్లోరైడ్, ఫ్లోరినేటెడ్ ఎథిలీన్
ప్రోపిలీన్లను ఉత్పన్నాలుగా తయారుచేసినారు, కాని వీటిలో ముఖ్యమైన పి.టి.యఫ్.యు.ని
గురించి మాత్రమే తెలుసుకొందాము.
 ఉత్పత్తి విధానము: టెట్రాఫ్లోరో ఎథిలీన్ ఎక్కువృనీటి సమక్షంలో
#సంపీడన
క్రియవల్ల అణుపుంజీకరణ చెందుతుంది. చాలా త్వరితగతిని జరిగే ఈ
అణుపుంజీకరణలో పుట్టిన ఉష్ణాన్ని తీసివేయటానికి నీరు యానకంగా పనిచేస్తుంది.
పెరైక్సైడ్్ల వంటి నీటిలో కరిగే ఉత్ప్రేరకాలవల్ల అణుపుంజీకరణాన్ని మొదలు
పెడతారు. అణుపుంజీకరణ అవస్థలనుబట్టి తెల్లని పలుకుల పొడిగా నీటిలో
విక్షేపణగా దీనిని పొందుతారు. ఈ పొడిని కడిగి, ఆరబెట్టి వేడిచేసి పొడిగా
#దంచుతారు.
విక్షేపణను స్కందితం చేసి ఆరబెట్టటం కాని సర్్ఫేస్్ యాక్టివ్
ఏజెంట్్ చేత స్థిరీకరణం చేస్తారు.
 పాలీటెట్రాఫ్లోర్్ ఎథిలీన్్తో వస్తువులు తయారుచేయటానికి సామాన్యంగా
ప్లాస్టిక్్లలో వాడే విధానాలు పనికిరావు. పి.టి.యఫ్్.యి.
#థర్మోప్లాస్టిక్్ కాని
అంతః
31-
స్థాపక విధానంలో కాని ఎక్స్్ట్రూజన్్ విధానంలో కాని
దీనిని వస్తువులుగా మార్చటం వీలుకాదు. దీనిని కరిగించినప్పుడు దీని
#స్నిగ్ధత
చాలా ఎక్కువ కావటంచేత ప్రవహించలేకపోవటమేకాక ప్లాస్టిసైజ్ చేయటానికి
కూడ వీలుకాకపోవటం ఇందుకు కారణము. థర్మోసెట్టింగ్ పద్ధతిలో పొడిని
తయారీలో ఉపయోగించరాదు. కాని మొదటనే కావలసిన రూపంలోకి కాని బిళ్ళల
రూపంలో కాని ఒత్తుకోవాలి. చల్లగా ఉన్నప్పుడు ఇట్లాచేసి ఆ తరవాత 325
#డిగ్రి c
వరకు పీడనంలో కాని, పీడనం లేకుండాకాని వేడి చేసినప్పుడు కణాలు కలిసి
పోతాయి. ఈ పద్ధతిని సింటరింగ్ అంటారు. ఈ విధంగా కావలసిన
రూపంలో తయారైన మూసలను తగిన పరిమాణానికి మెషీన్ చేస్తారు.
 ధర్మాలు: పి.టి.యఫ్.యి నునుపైన మైనము వంటి పదార్థము. తయారు
చేసిన పద్ధతిని బట్టి ఇది తెలుపు నుండి బూడిద రంగును కలిగిఉంటుంది.
#ఈ
పాలీమర్ విశేషమైన విద్యుత్ రసాయన ధర్మాలు ప్రశంసనీయమైనవి.
 ఉపయోగాలు: పి.టి.యఫ్్.యి.ని - 100 నుండి + 300 డిగ్రి c వరకు
#ఉపయోగించవచ్చు. కాబట్టి ఇది వివిధ పరిశ్రమలలో వేరువేరు ఉపయోగాలకోసం
ఆకర్షితమైంది. రసాయనాల చర్యకు, వాతావరణానికి తట్టుకోగలగటంచే ఇది ప్లాస్టిక్
లన్నింటిలోకి విశిష్టమైనది. విద్యుత్ రసాయన ఇంజనీరింగ్ పరిశ్రమలలో ఇది
చాలా ఉపయోగకరమైనది.
 జిగురు పదార్థాలను ఉపయోగించినప్పుడు పి.టి.యఫ్్.యి,ని
#వాడవచ్చు. పాలీ
టెట్రూప్లొరో ఎథిలీన్ వల్ల ప్లాస్టిక్్ల ఉపయోగం అనేకరంగాలలో
#ఇనుమడించింది.
కర్బన ద్రావణులను చాలాకాలంవరకు ఉంచటానికి ప్లాస్టిక్్లను ఇంజనీరింగ్్
రసాయన పరిశ్రమలలో వాడటానికి ఇది చాలా దోహదకారి అయింది. పి.టి.యఫ్్.యి.
లు ధర ఎక్కువైనా దీని ప్రత్యేక ధర్మాలు కొన్ని విశేషమైన ఉపయోగాలకోసం
అమూల్యమైనవి. విద్యుత్ పరిశ్రమలో వాల్వ్్బేస్్లుగా, ప్లగ్్లు, సాకెట్్లుగా
కేబుల్, వైర్ కవరింగ్్లుగా, కేబుల్ స్పేసర్్ మొదలైనవాటిలో పి.టి.యఫ్్,యి,
వాడబడుతుంది. విద్యుత్ నిరోధకంగా ఇది పింగాణి వస్తువులకంటె
మేలైనది. రసాయనచర్యను నిరోధించగలగటం వల్ల రసాయన పరిశ్రమలో
గాస్కెట్్లుగా, వాల్వ్్సీట్్లు, వాషర్్లు, సీల్్లు మొదలయిన వివిధ
#వస్తువులుగా
ఇది ఉపయోగపడుతున్నది. అంటుకోకుండా ఉండే పరిశ్రమలలో ఇది విరివిగా
ఉపయోగపడుతున్నది. రోలర్్లుగా, పిస్టన్్ రింగ్్లుగా, హాపర్్ లైనింగ్్లుగా,
గ్రిడ్్లుగా ఇది ఉపయోగపడుతుంది.
32-
పాలీవీనైల్ క్లోరైడ్, కోపాలీమర్్లు
 వీనైల్ క్లొరైడ్్పై ఆధారపడే పాలీమర్్లను వినైల్ పాలిమర్్లు అంటారు.
పాలీవినైల్ క్లోరైడ్, కోపాలీమర్్లు ఈ కుటుంబానికి చెందినవి. వినైల్
#పాలీమర్్లలో పాలీవినైల్్ క్లోరైడ్్, పాలీవినైల్ అసిటేట్్, పాలీవినిలిడీన్ క్లోరైడ్
#కోపాలీ
మర్్లు ముఖ్యమైనవి.
 రెగ్నాల్డ్్ 1938 లో ఎథిలీన్్ డైక్లోరైడ్్ నుండి వినైల్ క్లోరైడ్
#మోనోమర్్ను
మొట్టమొదటిసారిగా తయారుచేసినాడు. 1872 లో బామన్ వినైల్ క్లోరైడ్ సూర్య
రశ్మివల్ల తెల్లని పదార్థముగా మారుతుందని తెలిపినాడు. కాని
#అస్ట్రోమిస్్లెన్్స్కీ
అనే రష్యన్ శాస్త్రజ్ఞుడు వినైల్ హేలైడ్ సూర్యరశ్మి చేత అణుపుంజీకరణ
#చెంది
రెసిన్్వంటి పదార్థం తయారవుతుందని తెలిపేవరకు ఎటువంటి ప్రగతి జరగలేదు.
సుమారు ఇదే సమయంలో హైడ్రోజన్్ క్లోరైడ్్ గాస్్ను ఎసిటలీన్్తో 180
#డిగ్రి C వద్ద
మెటల్్క్లోరైడ్ ఉత్ప్రేరకంగా వాడి రసాయనికచర్య జరపటంవల్ల వినైల్ ఫ్లోరైడ్
మోనోమర్ తయారవుతుందని తెలిసింది. అయినా 1933 వరకు దీనిని
ఉపయోగించలేకపోయినారు. సామాన్య ద్రావణిలో కరగనందువల్ల 1930 వరకు దీనిని
ఉపయోగించడం వీలుపడలేదు. ఆ తరవాత అది మరుగుతున్న ద్రావణిలో
కరుగుతుందని తెలిసినప్పటినుండి ఇది ఉపయోగంలోకి వచ్చింది. రెండవ ప్రపంచ
యుద్ధంకాలంనాటికి పి.వి.సి. ఉపయోగం తెలిసివచ్చింది. అప్పుడే రబ్బర్్కు
బదులుగా వాడవచ్చునని తెలిసి దీని ప్రాముఖ్యము పెరిగింది. ఇప్పుడు ఈ
#పాలీమర్్
థర్మోప్లాస్టిక్్లలో ప్రాముఖ్యం వహించింది.
 ఉత్పత్తి విధానము: అణుపుంజీకరణము; నాలుగు పద్ధతులలో వినైల్
క్లోరైడ్ మోనోమర్్ను అణుపుంజీకరణ జరుపుతారు. అవి బల్క్్, ద్రావణి,
33-
ఎమల్షన్, అవలంబన విధానాలు. ఆఖరి పద్ధతిలో ఈ పాలిమర్్ను ఎక్కువగా
ఉత్పత్తి చేస్తారుష
 బల్క్్ అణుపుంజీకరణలో మోనోమర్్ ఘనరూపంలోగాని, అర్ధ ఘన
#రూపం
లో గాని లభ్యమవుతుంది. ఈ విధానంలో మోనోమర్్ను
ద్రవంలో ఉంచి ఆరంభపు పదార్థాన్ని కరిగించి అణుపుంజీకరణ జరుపుతారు.
తయారైన పాలీమర్్ మోనోమర్్లో కరగదు. కాబట్టి దీనిని వేరు చేస్తారు. ఈ
పాలీమర్ స్వచ్ఛమైనదై తక్కువ యాంత్రిక బలము కలిగి ఉంటుంది. ఈ
విధానము అంత సంతృప్తికరమైన పద్ధతి కాదు. లభ్యమయ్యే పాలీమర్్లు తక్కువ
అణుభారం కలిగి ఉండి ఉష్ణప్రసారం కష్టం కావటంవల్ల ఈ విధానము ఆకర్షింప
లేకపోయింది. వినైల్ క్లోరైడ్్ అణుపుంజీకరణ ముఖ్యంగా రెండు పద్ధతులలో
జరుపుతారు.
 1. అవలంబన విధానం, 2. ఎమల్షన్్ విధానం
 అవలంబన విధానం: పి.వి.సి తయారీకై ఈ విధానాన్నే ఎక్కువగా
పాటిస్తారు. మోనోమర్్ను నీటిలో అవలంబనం చేసి బిందువులుగా ఉంచుతారు.
ఇందుకోసం జలటిన్, ఈథైల్ మీథైల్ సెల్యులోస్, పాలీవినైల్
ఆల్కహాల్్ వంటి అవలంబన కారకాలను ఉపయోగిస్తారు. ఈ అవలంబనంవల్ల అణు
పుంజీకరణ రసాయనచర్య నొందినప్పుడు పుట్టిన ఉష్ణాన్ని నియంత్రించటానికి
సహాయకారి అవుతుంది. సల్ఫోనేటెడ్్కాస్టర్్ ఆయిల్
ను తడి చేయటానికిగాను, బెంజాయిల్ లేదా లారిల్్
పెరాక్సైడ్్ను ఉత్ప్రేరకంగా వాడతారు. రసాయనాలను అవలంబనస్థితిలో
ఉంచటానికి హెచ్చుగా కలుపుతూ ఉండవలె. ఈ కలిపే వేగం ఒక ముఖ్యాంశము.
దీనిని బట్టి క్రమాల పరిమాణము నియంత్రించబడుతుంది. కలిపే వేగం
ఎక్కువైన కొద్దీ కణం పరిమాణం ఎక్కువవుతుంది. అణుపుంజీకరణ ప్రతి మోనోమర్్
బిందువుల సమక్షంలో జరుగుతుంది. అణుపుంజీకరణానికి 12-24 గంటలవరకు
పడుతుంది. స్లరీ రూపంలో ఉన్న పాలీమర్్ను ఆ తరవాత రసాయన
చర్యలో పాల్గొనని వినైల్ ప్లోరైడ్్ను తీసివేయటానికి స్ట్రిప్పింగ్
టాంక్ ద్వారా పంపిస్తారు. ఆ తరవాత పడబొసి ఆరబెడతారు. ఆరబెట్టటానికి
అవిరళంగా పనిచేసే రోటరీ డ్రైయర్్లో వేడిచేసి ప్లాష్ డ్రైయర్్లో పూర్తిగా
#ఆర
బెట్టబడుతుంది.
34-
ఎమల్షన్ విధానం: ఈ విధానంలో కూడ వీటిని అవలంబన యానకంగా
వాడి అణుపుంజీకరణ రసాయనిక చర్యలో జనించే ఉష్ణాన్ని నియంత్రిస్తారు. కాని
చర్యావిధానం అవలంబన విధానానికి భిన్నంగాఉండి భిన్నమైన ధర్మాలుగల అణు
పుంజాలు తయారవుతాయి. మోనోమర్్ను మొదట ఫాటీఆసిడ్్లో ఎమల్షనీకరణ
జరిపించి ఆరంభకారకాలుగా పొటాషియం, అమ్మోనియం పర్ సల్ఫేట్ వాడతారు.
అవలంబన విధానంలోవలెకాక ఈ ఆరంభ కారకాలు నీటి ప్రావస్థలో కరుగుతాయి.
 అణుపుంజీకరణ పూర్తి అయిన తరవాత ఎమల్షన్్ను స్ప్రేడ్రైయింగ్
#పద్ధతిలో
లేదా ఎలెక్ట్రొలైట్్లో స్కంధానం చేసి వడబోసి ఆతరవాత ఫ్లాష్
డ్రైయింగ్ చేస్తారు. స్వచ్ఛమైన పాలీమర్్లు కావలసినప్పుడు సబ్బును
తీసివేయటానికి చాలాసార్లు కడగ వలసి ఉంటుంది.
఼
               0 
</p></body></text></cesDoc>