<cesDoc id="ben-w-bengalnet-news-01-11-01" lang="ben">
<cesHeader type="text">
<fileDesc>
<titleStmt>
<h.title>ben-w-bengalnet-news-01-11-01.txt</h.title>
<respStmt>
<respType>Electronic file created by</respType>
<respName>Department of Linguistics, Lancaster University</respName>
<respType>text collected by</respType>
<respName>Paul Baker</respName>
<respType>transferred into Unicode by</respType>
<respName>"Unicodify" software by Andrew Hardie</respName>
</respStmt>
</titleStmt>
<publicationStmt>
<distributor>UCREL</distributor>
<pubAddress>Department of Linguistics, Lancaster University, Lancaster, LA1 4YT, UK</pubAddress>
<availability region="WORLD"></availability>
<pubDate>03-08-24</pubDate>
</publicationStmt>
<sourceDesc>
<biblStruct>
<monogr>
<h.title>"Bengalnet" internet news (www.bengalnet.com), news stories collected on 01-11-01</h.title>
<h.author>Bengalnet</h.author>
<imprint>
<pubPlace>West Bengal, India</pubPlace>
<publisher>Bengalnet</publisher>
<pubDate>01-11-01</pubDate>
</imprint>
</monogr>
</biblStruct>
</sourceDesc>
</fileDesc>
<encodingDesc>
<projectDesc>Text collected for use in the EMILLE project.</projectDesc>
<samplingDesc>Simple written text only has been transcribed. Diagrams, pictures and tables have been omitted and their place marked with a gap element.
</samplingDesc>
<editorialDecl>
<conformance level="1"></conformance>
</editorialDecl>
</encodingDesc>
<profileDesc>
<creation>
<date>03-08-24</date>
</creation>
<langUsage>Bengali</langUsage>
<wsdUsage>
<writingSystem id="ISO/IEC 10646">Universal Multiple-Octet Coded Character Set (UCS).</writingSystem>
</wsdUsage>
<textClass>
<channel mode="w">print</channel>
<constitution type="composite"></constitution>
<domain type="public"></domain>
<factuality type="fact"></factuality>
</textClass>
<translations></translations>
</profileDesc>
<revisionDesc></revisionDesc>
</cesHeader>

<text>
<body>




<p>তীক্ষ্ন
রসিকতায় মুশারফর কটাক্ষর জবাব দিলন বাজপয়ী</p>

<p>সীমান্ত ভারত-পাক সনাদর
সংঘর্ষর পাশাপাশি দুই রাষ্ট্রপ্রধানর মধ্য বিবৃতির লড়াইও শুরু হয় গল। সীমান্ত সনা
সমাবশ কর ভারত উত্তজনা ছড়াত চাইছ, এই অভিযাগ কর কয়কদিন আগ মুশারফ বলছিলন-
পাকিস্তানি ফৗজও হাত চুড়ি পর বস নই। রসিকতার ঢঙ পাক প্রসিডন্টর মন্তব্যর তীব্র
সমালাচনা করলন বাজপয়ী। তিনি বলন- কথাবার্তা য চুড়ি পর্যন্ত পৗঁছ যাব সটা
তিনি ভাবননি, কারণ আর যাই হাক, এগুলি আদৗ পুরুষালি নয়। পাশাপাশি প্রধানমন্ত্রী মন
করিয় দিয়ছন- ভারতীয় মহিলা চুড়ি পরত ভালাবাসন ঠিকই, কিন্তু পাঞ্জাব পুরুষরাও হাত
লাহার 'কড়া' (বালা) পরন। চুড়ি পরা হাতর প্রতি মুশারফর বিদ্র©পক বাজপয়ী লাহার
'কড়া' পরা পুরুষালি হাত দিয় আঘাত করত চয়ছন। পাল্টা বিদ্র©প কর সুষমা স্বরাজ
বলছন, মুশারফর ভুল যাওয়া উচিত নয় ১৯৭১-এর যুদ্ধ পাকিস্তান একজন চুড়ি পরা মহিলার
(ইন্দিরা গান্ধী) হাতই পরাজিত হয়ছিল। </p>

<p>নিরপক্ষ দৃষ্টিভঙ্গিত দখত
গল বাজপয়ী ও মুশারফ দুজনর উক্তিই নিছক সস্তা জনপ্রিয়তা পাওয়ার চষ্টা করা। অথচ আমরিকা
বারবার সংযম দখানার জন্য দুই দশক অনুরাধ করছ। 
</p>

<p>
 
 
  
  
  
  
  
  
  
  
  
  
  
  
 
 
 

 
<gap desc="illustration"></gap></p>

<p>ডানলপ
হামলা হতাশা, ক্ষোভ থেকই</p>

<p>কারখানা বন্ধ থাকার
হতাশা থকই মঙ্গলবার ডানলপর শ্রমিকরা সিটুর অফিস পুড়িয়ছ বল প্রাথমিকভাব তদন্তকারী
অফিসারদর ধারণা। দীর্ঘ তিন বছর কারখানা বন্ধ থাকায় একদা সচ্ছল বহু পরিবারই চরম অভাব
অনটন দিন কাটাচ্ছন। রাজ্য সরকার প্রতিশ্রুতি দিলও ডানলপ খালনি। এই হতাশাই মঙ্গলবার ক্রাধর
আকার নয়। সিটু যহতু শাসক দলর শ্রমিক সংগঠন, তাই আক্রমণর লক্ষ্য ছিলন তাঁদর নতারাই।
</p>

<p>সিটুর অফিস হামলা
ও সিটু নতাদর মারধরর ঘটনায় বুধবার পুলিস ৪৬ জনক গ্রপ্তার করছ। এর মধ্য নয়জন
সিটুর সক্রিয় কর্মী বা সমর্থক। ইতামধ্যই অবশ্য অভিযাগ উঠছ- মূল অভিযুক্তদর ধরত না
পর পুলিস নিরীহ ব্যক্তিদর গ্রপ্তার করত শুরু করছ। শ্রমিক আবাসন থক যাদর গ্রপ্তার
করা হয়ছ তাদর মধ্য অনকই ডানলপর কর্মী নন। এমনকী, চাকরির পরীক্ষা দিত আসা কয়কজনকও
গ্রপ্তার করা হয়ছ। </p>

<p>পুলিসি ধরপাকড় গাটা
এলাকায় তীব্র আতঙ্ক ছড়িয় পড়ছ। সিটুর পক্ষ থক সকাল একটি মিছিল বর করা হলও তারপর
সারাদিন কানও নতার খাঁজ মলনি। ধারকাছ ছিলন না আই এন টি ইউ সি-র নতারা।
তার মধ্যই অবশ্য চলছ পারস্পরিক দাষারাপ। আহত সিটু নতা দীপঙ্কর রায় সরাসরি আঙুল
তুলছন তৃণমূলর দিক। অন্যদিক, তৃণমূলর সাংসদ আকবর আলি খান্দকার বলছন-
ঘটনাটি সিটুর অভ্যন্তরীণ বিবাদর ফল। 
</p>

<p>
 
<gap desc="illustration"></gap></p>

<p>কালীপুজায়
রাত ১০টার পর ফুলঝুরি, রঙমশালও নিষিদ্ধ</p>

<p>শব্দবাজি তা নিষিদ্ধ
ছিলই, এবার কাপ পড়ত চলছ ফুলঝুরি, রঙমশালর মতা আলার বাজির ওপরও। কালীপুজার
সময় রাত ১০টার পর ফুলঝুরি, রঙমশলা এবার আর জ্বালানা যাব না। সুপ্রিম কার্টর
সাম্প্রতিক নির্দশর পরিপ্রক্ষিত এই ব্যবস্হা নিচ্ছ দূষণ নিয়ন্ত্রণ পর্ষদ। পুলিস-কর্তাদর ডক
এই নির্দশ জানিয়ও দওয়া হয়ছ। </p>

<p>বাজি নিয় সুপ্রিম কার্ট
এক নির্দশ জানিয়ছ- শুধু সন্ধ্যা ৬টা থক রাত ১০টা পর্যন্ত বাজি পাড়ানা যাব। যুক্তি
হিসব বলা হয়ছ- য কানও বাজিতই বায়ুদূষণ বাড়। এত স্বাস্হ্যর মারাত্মক ক্ষতি হয়।
দূষণ নিয়ন্ত্রণ পর্ষদ সুপ্রিম কার্টর এই নির্দশ কঠারভাব প্রয়াগ করত চায়। </p>

<p>শব্দবাজির ক্ষত্র ৯০ ডসিবলর
সীমা অপরিবর্তিত থাকছ। সুতরাং, ক্যাপ ছাড়া য কানও শব্দবাজিই নিষিদ্ধ। কালীপটকা, দাদমা,
চকলট বাম, রকট বাম প্রভৃতি বাজির শব্দ ৯০-১২৫ ডসিবলর মধ্য। শব্দসীমা বাড়িয় ১২৫ ডসিবল
করার জন্য বাজি প্রস্তুতকারক সংস্হাগুলির পক্ষ থক দূষণ নিয়ন্ত্রণ পর্ষদ য আর্জি জানানা হয়ছিল
তাও খারিজ হয় গছ। </p>

<p>রমজান যুদ্ধ
চলল ক্ষমতাচু্যত হবন মুশারফ : সৌদি যুবরাজ</p>

<p>আমরিকা রমজান মাসও
আফগানিস্তান আক্রমণ চালিয় গল পাকিস্তানর প্রসিডন্ট পরভজ মুশারফ ক্ষমতাচু্যত হত
পারন বল আশঙ্কা প্রকাশ করছন সৗদি আরবর যুবরাজ। যুবরাজর মত, আক্রমণ অব্যাহত
থাকল মুসলিম দুনিয়ার পক্ষ আফগানিস্তানর পাশ দাঁড়ানা ছাড়া উপায় থাকব না। ফল
মুশারফর ওপর য প্রচণ্ড চাপ আসব তা মাকাবিলা করা রীতিমত কঠিন হয় পড়ব। </p>

<p>যুবরাজ সুদাইরি বলছন-
'রমজান মাসটা অত্যন্ত গুরুত্বপূর্ণ। এই সময় মুসলিমরা বড্ড আবগপ্রবণ হয় পড়ন। এই
সময় আফগানিস্তান জিহাদিদর প্রতি সমর্থন আরও বাড়ব। মার্কিন যুক্তরাষ্ট্রর পাশ দাঁড়ানা
একাধিক সরকার পড়ও যত পার।' পর যুবরাজ নির্দিষ্টভাব পাকিস্তান ও ইন্দানশিয়ার নাম
করন। তাঁর কথায়: এই দশগুলিত প্রথম গৃহযুদ্ধ বঁধ যাব। তার মাকাবিলা করা সরকারর
পক্ষ সম্ভব হব না। 
</p>

<p>
 
<gap desc="illustration"></gap></p>

<p>ভারত-বিরাধিতায়
নেম পড়লন হাসিনাও!</p>

<p>শখ হাসিনার হল কী!
নির্বাচন পরাজয়র জন্য তিনি এবার দিল্লিক দায়ী করছন। প্রধানমন্ত্রী থাকাকালীন এই
হাসিনাই ভারতর সঙ্গ সুসম্পর্ক গড়ত রীতিমত তত্পর ছিলন। বিরাধী পক্ষ বসতই বাংলাদশর
নিয়মমত তিনি ভারত-জুজু দখাত শুরু করছন। বগম খালদার কাছ বাজপয়ী পাঠিয়ছিলন
তাঁর জাতীয় নিরাপত্তা উপদষ্টা ব্রজশ মিশ্রক। তব লাভ খুব একটা হয়ছ বল মন হয় না।
খালদার দল ও জাটর ভিত্তিই ছিল ভারত-বিরাধিতা। এবার বাংলাদশর প্রধান বিরাধী দলও
সই পথ নম পড়ল। ফয়দা তুলত পরভজ মুশারফ তাঁর আইনমন্ত্রী শাহজাদা জমিলক পাঠিয়ছিলন
ঢাকায়। </p>

<p>এই মুহূর্ত হাসিনার
অবস্হান বদলই রীতিমত বিস্ময়কর। ভারতক প্রাকৃতিক গ্যাস বিক্রি করত চাননি বলই তাঁক ভাট
হারত হয়ছ বল প্রকাশ্য জনসভায় ঘাষণা করন হাসিনা। তাঁর অভিযাগ, সিলটর
বিবিয়ানা থক গ্যাস পাচারর জন্য বগম খালদা তলতল বিদশি কাম্পানির সঙ্গ রফা করছন।
তাই নির্বাচন কারচুপি কর নিশ্চিত করা হয়ছ আওয়ামি লিগর পরাজয়। আসল ক্ষমতায়
থাকাকালীন হাসিনার বিরুদ্ধ ভারতর প্রতি পক্ষপাতর অভিযাগ উঠছিল। সই ভাবমূর্তি ভাঙতই
হাসিনা এখন তত্পর। তাঁক হিন্দু-নিগ্রহর প্রতিবাদ করতও দখা যাচ্ছ না আর। 
</p>

<p>
 
<gap desc="illustration"></gap></p>

<p> </p>

<p>বিরাধীদর
সাফ কথা : আলাচনা চালাতই হব</p>

<p>নিউইয়র্ক গিয়
পাকিস্তানর প্রসিডন্ট পরভজ মুশারফর সঙ্গ আলাচনার প্রয়াজন নই- প্রধানমন্ত্রীর এই
বক্তব্য মন নিলও বিরাধী দলগুলি পরিষ্কার জানিয় দিয়ছ, আলাচনার পথ বন্ধ কর দওয়া
উচিত হব না। কারণ, ভারত বরাবরই দ্বিপাক্ষিক আলাচনার মাধ্যম কাশ্মীর-সহ সব সমস্যা মটাত
চয়ছ। এখন হঠাত্ অবস্হান বদল করল সমালাচনার মুখ পড়ত হব। </p>

<p>বাজপয়ীর ডাকা
সর্বদল বৈঠক সানিয়া গান্ধী বলন- আলাচনার দরজা কখনওই বন্ধ কর দওয়া উচিত নয়। দশর
স্বার্থর কথাই আমাদর সবচয় আগ ভাবত হব। পাশাপাশি আমরিকা যাত কাশ্মীর
সন্ত্রাসবাদ বন্ধ উদ্যাগ নয় সই ব্যাপারও সরকারক চষ্টা চালাত হব। </p>

<p>সিপিএম সাংসদ সামনাথ
চ্যাটার্জির প্রশ্ন- মুশারফর সঙ্গ কথা না বলল প্রধানমন্ত্রী সমস্যা মটাবন কী কর? কাজই
আলাচনা চাই-ই। তব নিউইয়র্ক মুশারফর সঙ্গ বৈঠক না করার সিদ্ধান্ত সঠিক। দুটি প্রতিবশী
রাষ্ট্রর প্রধানরা কন তৃতীয় একটি রাষ্ট্র গিয় কথাবার্তা বলবন। </p>

<p>এদিক, বাজপয়ীর
মন্তব্যর প্রতিক্রিয়ায় মুশারফ জানিয়ছন- পাকিস্তান আলাচনা চায় ঠিকই, কিন্তু সজন্য
ভারতর কাছ আবদন জানানার প্রশ্ন ওঠ না। যখান দুই দশর স্বার্থই জড়িত, সখান উদ্যাগটাও
দুজনক দখাত হব। 'বাজপয়ী যদি আমার সঙ্গ কথা বলত না চান, আমারও কানও
আগ্রহ নই।' 
</p>

<p>
 
<gap desc="illustration"></gap></p>

<p>নাশকতা :
অধ্যাদশর বদল বিল রাজ্যর</p>

<p>নাশকতা অপহরণ-সহ সব
ধরনর সংগঠিত অপরাধ রাধ অর্ডিন্যান্স বা অধ্যাদশ জারি করার সিদ্ধান্ত নিলও সিপিএমর কন্দ্রীয়
কমিটির চাপ তা থক পিছিয় এল রাজ্য সরকার। এর পরিবর্ত বিধানসভার পরবর্তী অধিবশন
পূর্ণাঙ্গ বিল পশ করা হব। পলিটবু্যরা সদস্য প্রকাশ কারাত বলছন- রাজ্য নতৃত্ব
প্রস্তাবিত বিলর খসড়া চূড়ান্ত করবন। তব তার আগ তাঁরা কন্দ্রর অর্ডিন্যান্সটিও দখ
নিত চান। দুটি আইনর মধ্য যাত সদৃশ্য না থাক সজন্যই এই সতর্কতা। মুখ্যমন্ত্রী বুদ্ধদব
ভট্টাচার্য পলিটবু্যরাক জানিয়ছন- রাজ্যর আইন কন্দ্রীয় অর্ডিন্যান্সর দানবীয় ধারাগুলি
থাকব না। </p>

<p>অধ্যাদশ জারির
সিদ্ধান্ত নিয়ও তা থক পিছিয় আসার পিছন সিপিএম নতৃত্ব বিধানসভাক এড়িয় আইন না
করত চাওয়ার কথা বললও প্রকৃত কারণ হল- অধ্যাদশটির অনক বিষয়ই নতৃত্ব মানত পারননি।
এত পুলিসর হাত অতিরিক্ত ক্ষমতা দওয়া ছাড়াও মানবাধিকার ল্ঙঘনর আশঙ্কা থাকব বল
সিপিএমর কন্দ্রীয় নতৃত্ব মন করন। এই অবস্হায় অর্ডিন্যান্সটি মন্ত্রিসভায় অনুমাদিত হলও
রাজ্যপালর অনুমাদনর জন্য পাঠানা হচ্ছ না। </p>

<p>পলিটবু্যরার সিদ্ধান্ত
মুখ্যমন্ত্রী বুদ্ধদব ভট্টাচার্যর কাছ একটি বড় ধাক্কা। সিপিএমর রাজ্য সম্পাদক অনিল বিশ্বাস
অবশ্য এটা মানত রাজি নন। তিনি বলছন- অধ্যাদশর বদল পূর্ণাঙ্গ আইন করা নিয় পলিটবু্যরা
বা কন্দ্রীয় কমিটিত আলাচনাই হয়নি। 
</p>

<p>
 
<gap desc="illustration"></gap></p>

<p> </p>

<p>সতর্ক
সিপিএম</p>

<p>প্রাথমিক এজাহার
নাম থাকায় তৃণমূলর কাউন্সিলর মন্টু সান্যালক গ্রপ্তার করা হল কিন্তু বিধানসভায় সিপিএমর
মুখ্যসচতক লক্ষ্মী দে-র বলায় ছাড় কন? এই মাক্ষম প্রশ্নটি তুলছন বিরাধী দলনত্রী মমতা
ব্যানার্জি। সরল প্রশ্ন, সহজ উত্তর। তৃণমূল আর সিপিএমর চরিত্রই য আলাদা। তৃণমূলরই
একটি গাষ্ঠী ধরিয় দিয়ছ মন্টুক, আর সিপিএমর সব গাষ্ঠী এককাট্টা হয় ঝাঁপিয় পড়ছ
লক্ষ্মীবাবুর পৃষ্ঠরক্ষায়। তব বহু বিতর্কর নায়ক লক্ষ্মী সমাজর একটি উপকার করছন অজান্তই। মডিকলর
সুপারক নিগ্রহ করত গিয় তিনি চতুর্দিক ঢি ঢি ফল দিয়ছন। বাধ্য হয় নড়চড় বসত
হয়ছ সিপিএম-কেও। সিদ্ধান্ত হয়ছ দলর অনুমতি ছাড়া সিপিএমর কউ হাসপাতাল বা স্কুল-কলজ
বিক্ষাভ দখাত পারব না। ডপুটশন দিত গল সংশ্লিষ্ট জলা কমিটির কাছ আগাম অনুমতি
নিত হব। তব প্রয়াজন ছাত্র সংগঠন শিক্ষা প্রতিষ্ঠান কর্তৃপক্ষর কাছ দাবি-দাওয়া পশ করত
পারব। কিন্তু কানও পার্টি সদস্য থাকত পারবন না।  </p>

<p>লক্ষ্মীবাবু এবং
কলকাতা জলা সম্পাদকমণ্ডলীর নতা অলাক মজুমদার দলক রীতিমত বকায়দায় ফল দিয়ছন।
বাধ্য হয় রাজ্য সম্পাদক অনিল বিশ্বাসক বলত হয়ছ, 'বাড়িওয়ালা-ভাড়াটিয়া বিরাধ
বা প্রতিবশীর সঙ্গ সমস্যা নিষ্পত্তির উদ্যাগ এমনভাব নিত হব যা উভয়পক্ষর কাছই ন্যায়সঙ্গত
মন হয়। সবথক ভাল, দু পক্ষর আলাপ-আলাচনায় বিরাধ মটাবার চষ্টা। কানও একপক্ষর হয়
মতামত দওয়া বা তা চাপিয় দওয়া আমাদর মৗলিক অবস্হানর সঙ্গ মল না।' তাত্পর্যপূর্ণ
অনিলবাবুর বক্তব্যর এই শষ অংশটাই। এতদিন বিভিন্ন বিরাধ সিপিএম য একপশ অবস্হান নিয়ছ
কার্যত সটাই স্বীকার করত বাধ্য হলন রাজ্য সম্পাদক। একপশ অবস্হান নরম কথা, বিভিন্ন বিরাধ
শাসক পার্টি রীতিমত জুলুমবাজি করছ। সামন পঞ্চায়ত নির্বাচন। তাই আপাতত সিপিএম একটু
সামল চলব, কৗশল কর চলব। অনিলবাবুর এই বক্তব্যক চৈতন্যাদয় ভাবল ভুল হব।
সিপিএম যখান ছিল সখানই থাকব। তারা তৃণমূলর মত কাছাখালা নয়। বিপদ বুঝলই সামল
নিত পার, এই যা। </p>

<p>
</p>

<p>
 
<gap desc="illustration"></gap></p>

<p>ডানলপর
সিটু অফিস হামলা, নেতারা প্রহৃত</p>

<p>মঙ্গলবার দুপুর
সাহাগঞ্জর বন্ধ ডানলপ কারখানার সিটু অফিস হামলা চালায় একদল সশস্ত্র ব্যক্তি। এঁদর মধ্য কয়কজন
মহিলাও ছিলন। হামলাকারীরা সিটু অফিসর দুটি ঘর যথচ্ছ ভাঙচুর চালায়। বশ কিছু
আসবাবপত্র, নথিপত্র, ঝাণ্ডা ও ৮-১০টি সাইকল অফিসর বাইর এন পট্রাল ঢল আগুন ধরিয় দয়।
তাদর আক্রমণ ডানলপ কারখানার সিটু ইউনিয়নর সাধারণ সম্পাদক দীপঙ্কর রায়, সহ সভাপতি
দীপক মজুমদার-সহ ১০ জন আহত হয়ছন। দীপঙ্করবাবু ও দীপকবাবুক চুঁচুড়া ইমামবাড়া
হাসপাতাল ভর্তি করা হয়ছ। </p>

<p>হামলা চলাকালীন ওই
অফিস সিটু ইউনিয়নর কর্মসমিতির বৈঠক চলছিল। সিটুর অভিযাগ: 'তৃণমূল কংগ্রসর
মদতপুষ্ট নাগরিক মঞ্চর সমর্থকরা এই হামলা চালিয়ছ। এই হামলার পছন মদত রয়ছ ডানলপ
কর্তৃপক্ষরও। তাঁদর একমাত্র উদ্দশ্য ছিল কারখানার সম্পত্তি বিক্রির ক্ষত্র প্রধান অন্তরায় সিটু নতা
দীপঙ্কর রায়ক খুন করা। জলা
তৃণমূল কংগ্রস সভাপতি তথা সংসদ সদস্য আকবর আলি খন্দকরর বক্তব্য, নতাদর ভূমিকায়
ক্ষুব্ধ সিটু সমর্থক এবং তাদর বাড়ির লাকজনই এই হামলা চালিয়ছ। </p>

<p>মঙ্গলবার বলা ১২টা
নাগাদ ডানলপ কারখানা চত্বর সিটু অফিস এই হামলা চল। অফিস তখন গত ১৯ অক্টাবর বি
আই এফ আর ডানলপ সংক্রান্ত বৈঠকর রিপার্ট নিয় আলাচনা চলছিল। ওই সময়ই মহিলা ও
পুরুষ সমত ৫০-৬০ জনর একটি দল অফিস এস কারখানা চালুর বিষয় সিটুর ভূমিকা ও বি
আই এফ আরর বৈঠকর বিষয় জানত চায়। সিটুর বিরুদ্ধ নানারকম স্লাগানও দওয়া হয়। লাকজন
এই বিষয়টি নিয় প্রতিবাদ করল উত্তজিত একদল লাক অফিসর কালাপসিবল গট ভঙ ভতর
ঢুক পড় ভাঙচুর শুরু কর। অন্য আর একটি দল শুরু কর সিটু নতাদর মারধর। </p>

<p>গালমালর মাঝ
সিটুর সাধারণ সম্পাদক দীপঙ্কর রায় কানওক্রম অফিস থক বরিয় অন্য একটি কায়ার্টাস
আশ্রয় নন। সখান থক তাঁক টন বর কর শুরু হয় মারধর। রড দিয় তাঁর মাথা ফাটিয়
দওয়া হয়। লাথি মারা হয় বুকর পাঁজর। ভাজালির কাপ লাগ তাঁর হাত। রডর আঘাত
মাথা ফাট ইউনিয়নর সহ-সভাপতি দীপক মজুমদাররও। প্রায় আধ ঘণ্টা তাণ্ডব চালিয়
হামলাকারীরা চল যায়। 
</p>

<p>
 
<gap desc="illustration"></gap></p>

<p> </p>

<p>'ভাঁড়তীর্থ'
বোসপুকুর এখনও দর্শনার্থীর স্রোত</p>

<p>'ভাঁড়তীর্থ' হয়
উঠছ বাসপুকুর শীতলা মন্দিরর মণ্ডপপ্রাঙ্গণ। সদ্য দুর্গাত্সব শষ কর ভঙ ফলা হচ্ছিল
ভাঁড় নির্মিত মণ্ডপ এবং তারণদ্বার। কিন্তু অজস্র মানুষ ২৮ তারিখ থকই ভাঁড় সংগ্রহ করা
শুরু করছিলন- স্মৃতিচিহ্ণ হিসব। কিন্তু গত মঙ্গলবার যুক্ত হল অনন্যমাত্রা। বাসপুকুরর
মণ্ডপ থকই ভাঁড় কিনত চায় দক্ষিণ চব্বিশ পরগনার নাজিরাবাদ কালীপুজা কমিটি। তারা ৫০
হাজার ভাঁড় নিয় এবারর কালীপুজার মণ্ডপ বানাব। দমদমর জগদীশ স্পার্টিং ক্লাব সরস্বতী
পুজার মণ্ডপ অলংকরণর কাজও হব বাসপুকুরর ভাঁড়। এছাড়া আরও কত ক্লাব-সংস্হা য আসছ
তার সংখ্যা গানা যায় না। কউ দিয় যাচ্ছন অগ্রিম টাকা। ধানবাদর একটি কলজর
অধ্যাপিকা ড: স্বাতী সরকার মার্কিন মুলুকর প্রবাসী তাঁর দুই পুত্রর জন্য নিয় গছন ভাঁড়র
তৈরি কুলা। বিনিময় দিয় গছন ৫০০ টাকা। দাম নয়-পুরস্কার। অভিনত্রী মুনমুন সন তা
ভাঁড়র তৈরি ঝাড়বাতির জন্য যকানও মূল্য দিত প্রস্তুত বল জানিয়ছন। শুধু তাই নয়
মাটির অতি সাধারণ ভাঁড় দিয় এমন অসাধারণ শিল্পকর্মর স্রষ্টা হিসব বিখ্যাত বন্দন রাহাকও
আমন্ত্রণ জানিয়ছন মুনমুন। বলছন, তাঁর বাড়ির ছাদটাও বন্দনক দিয়ই তিনি সাজাত
চান। শীতলা মন্দির পুজা কমিটির সঙ্গ গত মঙ্গলবার বিকল বন্দনও গিয়ছিলন কালীঘাট।
তৃণমূল সুপ্রিমা মমতা বন্দ্যাপাধ্যায় আলাপ করত চয়ছিলন বন্দনর সঙ্গ। গত মঙ্গলবারও
মণ্ডপটি সম্পূর্ণ ভাঙা না হলও রাত ছিল না আলার বন্দাবস্ত। অন্ধকার ভাঙাচারা, হল
পড়া মণ্ডপর সামনও দখা গছ অজস্র দর্শনার্থীক- এ যন সদ্য জন্ম নওয়া এক তীর্থক্ষত্র।

</p>

<p>
 
<gap desc="illustration"></gap></p>

<p> </p>

<p>পার্কাম্যাট-এর
উদ্বাধন বুদ্ধ, মমতাক এন চমক দিত চান মেয়র</p>

<p>আগামী সপ্তাহ দশর
সর্বপ্রথম কম্পিউটার নিয়ন্ত্রিত পার্কিং লট পার্কাম্যাট-এর উদ্বাধন। উদ্বাধনী অনুষ্ঠান একই
মঞ্চ মুখ্যমন্ত্রী বুদ্ধদব ভট্টাচার্য এবং তৃণমূল নত্রী মমতা বন্দ্যাপাধ্যায়ক এন বিরাট চমক
দিত চান ময়র সুব্রত মুখার্জি। এখন দুজনর যা সম্পর্ক তাত বুদ্ধদব এবং মমতাক এক
অনুষ্ঠান আনা কার্যত অসম্ভব। এটাই সম্ভব কর দখাত চান সুব্রত। মমতা মোটামুটি রাজিও হয়
গছন। মুখ্যমন্ত্রীর সচিবালয়র সঙ্গ নিয়মিত যাগাযাগ রখ চলছন ময়র। তাঁর আশা:
দুই-তিনদিনর মধ্যই প্রয়াজনীয় অনুমতি পাওয়া যাব। </p>

<p>৮.৫ কাটি টাকায় রডন স্ট্রিট তৈরি হয়ছ অত্যাধুনিক পার্কাম্যাট।
তৈরি করছ সিমপ্লক্স নাম একটি সংস্হা। আর্থিক সহায়তা দিয়ছ কলকাতা পুরসভা এবং ব্যাঙ্ক
অফ বরাদা। পার্কাম্যাট-এ এল প্রথম একটি লিফটর মাধ্যম পার্কিং ফ্লার নিয় যাওয়া হব।
সখান বিশষ ক্রনর মাধ্যম গাড়িটিক সঠিক জায়গায় বসিয় দওয়া হব। গাড়ি রাখার
ভাড়া ঘণ্টায় ১০ টাকা, ৮ ঘণ্টায় ৫০ টাকা। সারারাত গাড়ি রাখা যাব ৩০ টাকার বিনিময়।
এখান মাট ২১৯টি গাড়ি পার্কিংয়র ব্যবস্হা আছ। </p>

<p>লিণ্ডস স্ট্রিট আরও
বড় একটি পার্কিং লট তৈরির পরিকল্পনা আছ পুরসভার। সবকিছু ঠিকঠাক চলল আগামী পুজার
আগই সটা তৈরি হয় যাব। লিণ্ডস-নিউ মার্কট-গ্লাব সিনমা চত্বর গাড়ি ঢাকা বন্ধ কর
'পিডাস্ট্রিয়ান জান' তৈরি করা হব। 
</p>

<p>
 
<gap desc="illustration"></gap></p>

<p> </p>

<p>হাসপাতাল
স্পেশাল অ্যাটনডন্ট বাতিল হচ্ছ</p>

<p>বৃহস্পতিবার থক
সরকারি হাসপাতাল রাগীর পরিচর্যায় আয়া বা স্পশাল অ্যাটনডন্ট রাখার ব্যবস্হা বাতিল হয়
যাচ্ছ। সরকারি সিদ্ধান্ত হল, আয়া পরিচয় দিয় পয়সার বিনিময় আর কউ হাসপাতাল রাগীর
পরিচর্যা করত পারবন না। পরিবর্ত মুমূর্ষু রাগীদর বাড়ির একজনক ২৪ ঘণ্টা হাসপাতাল
থাকার অনুমতি দওয়া হব। তিনি ওয়ার্ডর ভতরও যত পারবন। </p>

<p>স্পশাল অ্যাটনডন্টদর
ওয়ার্ড থক বর কর দওয়া হব। ওই সিদ্ধান্ত প্রত্যাহারর দাবিত মঙ্গলবার থক স্পশাল
অ্যাটনডন্টরা বিভিন্ন হাসপাতাল লাগাতার অনশন শুরু করছন। সমস্ত হাসপাতাল সকাল থক
বিশাল পুলিসবাহিনী মাতায়ন করছ রাজ্য সরকার। স্বাস্হ্যমন্ত্রী ডাঃ সূর্যকান্ত মিশ্র দায়িত্ব নওয়ার
পর হাসপাতাল শৃ্ঙখলা ফরাত য সব পদক্ষপ নিয়ছন তার মধ্য আয়া ব্যবস্হা তুল দওয়ার
সিদ্ধান্তক ঘির সিপিএমর ভতরও প্রশ্ন উঠছ। তাঁদর প্রশ্ন, আয়ার কাজ কর কয়ক হাজার
মানুষর রুটি-রুজির সংস্হান হচ্ছিল। অথচ এর জন্য সরকারর এক পয়সাও খরচ নই। রাগীর
পরিচর্যার বিনিময় তাঁরা পশন্ট পার্টির কাছ থক পারিশ্রমিক নন। তাহল, আয়া রাখার
ব্যবস্হা তুল দওয়া হচ্ছ কন? </p>

<p>স্বাস্হ্য দপ্তরর কর্তাদর
বক্তব্য, আয়া বা স্পশাল অ্যাটনডন্টদর ব্যাপার সরকার কানও দায় নব না। সই কারণই
এই সিদ্ধান্ত। প্রথমত, হাসপাতালর গ্রুপ ডি পদ কাটা দাবি কর স্পশাল অ্যাটনডন্টরা
দীর্ঘদিন ধরই আন্দালন চালিয় যাচ্ছন। অতীত কয়কজনক গ্রুপ ডি পদ চাকরি দওয়া হলও
সরকার আর ওই দাবি মানত রাজি নয়। দ্বিতীয়ত, স্পশাল অ্যাটনডন্টরা রাগীর পরিচর্যার
দায়িত্ব নিয়ও কাজ ফাঁকি দওয়ায় বদনাম হচ্ছিল। 
</p>

<p>
 
<gap desc="illustration"></gap></p>

<p> </p>

<p>কালী পুজার
পর পুরসভার সবুজর অভিযান</p>

<p>কালীপুজার পর
কলকাতার পথ-বিভাজিকায় সবুজর সমারাহ আনত চাইছন মহানাগরিক সুব্রত মুখাপাধ্যায়।
প্রাথমিকভাব তিনি ভবছন জওহরলাল নহরু রাড, চিত্তরঞ্জন অ্যাভিনিউ এবং আশুতাষ
মুখার্জি রাডর কথা। আলিপুর রাড তাজবঙ্গল হাটল থক জাতীয় গ্রন্হাগার পর্যন্ত পথর
মাঝখান গাছ বসানা হয়ছ। পুরসভার তরফ পার্ক-এর ভারপ্রাপ্ত ময়র পারিষদ হৃদয়ানন্দ গুপ্তা
বসিয়ছন বুগনভিলিয়া। তব এই বুগনভিলিয়ার ঝাপ রীতিমত ঘনঘন ছাঁটত হয়। অথচ লাকজনর
খুবই অভাব। তবু গাছ বসাতই হব। কারণ কলকাতার মাট আয়তনর মাত্র ৫ শতাংশ সবুজ। কিন্তু
যকানও নগর অন্তত ১৩ শতাংশ গাছপালা থাকা রীতিমত জরুরি। বিশষ কর কলকাতার মত ঘন
বসতিপূর্ণ শহর, যখান প্রতি বর্গকিলামিটার গড় ২৪,৭৬০ মানুষর বাস। কলকাতায় পাখির
সংখ্যাও কম যাচ্ছ। এমনকি চড়ুই পাখিও দখত পাওয়া যায় না। 
</p>

<p>
 
<gap desc="illustration"></gap></p>

<p> </p>

<p>আজ থেক
শুরু ববি-কন্যার মোমবাতি শিল্প প্রদর্শনী</p>

<p>আজ থক 'ববি
গার্ল-এর অভিনব মামবাতি প্রদর্শনীর উদ্বাধনী-পর্দা উঠছ পার্ক হাটল। আজ-কাল-পরশু'র গল্প
ঠাঁই কর নব শুধুই ডিম্পল কাপাডিয়ার ননফিল্মি শিল্পর নানা চমকর কথা। দীপাবলীর
প্রদীপ প্রজ্বলনর প্রাক্কাল নয়ন মনাহর ডিজাইন হরকরকম বাতির বিশাল সম্ভার নিয় প্রদর্শনী
উপলক্ষ্য কলকাতায় এসছন এককালর আলাড়ন তালা চিত্রতারকা 'রুদালি' ডিম্পল।
সম্প্রতি এই নায়িকা মামবাতির ব্যবসায় অপ্রতিদ্বন্দ্বী হয় উঠছন এবং প্রতিষ্ঠাও পয়ছন।
শুধু ডিজাইনই নয়, প্রকৃতিগতভাব জল ডাবা বাতি, সুরভিত বাতির একাধিক সৃষ্টি চাখভর দখত
এবং খুশিমত কনার জন্য পার্ক হাটল ১ থক ৩ নভম্বর প্রদর্শনীত মামবাতির বিশাল পসরা
সাজানা হয়ছ। অবশ্য সমস্ত সংগৃহীত অর্থই তিনি দান কর যাবন পশু সংরক্ষণর কাজ নিয়াজিত
সংস্হাগুলির আগামী দিনর বিভিন্ন পরিকল্পনার জন্য। </p>

<p>সানা এবং রৗপ্যখচিত
কিংবা অলংকৃত মামবাতি এই প্রথম কলকাতায় চাখর সামন এল। আকর্ষণ বড় দ্বিগুণ হয়ছ
তার কারণ, এর নির্মাতা বলিউডর এক মাহময়ী অভিনত্রী। মুক্তার দানা ছড়ানা, ঝিনুক
পরিবৃত রঙিন কাচর মধ্য স্হাপিত হয়ও অদ্ভুত সুন্দর গন্ধ মাত কর দব কানও কানও বাতি
তারই জ্বলনকাল। এগুলা নিঃসন্দহ যমনই অদৃশ্যপূর্ব, তমনই অপূর্ব। কলকাতার হৃদয় জতা বাধহয়
অসম্ভব হব না। এর সঙ্গ সঙ্গ কলকাতার দীপান্বিতা উত্সব ডিম্পল একাই একশা হয় উঠলন বলই
আন্দাজ করা হচ্ছ। 'পিপলস ফর অ্যানিমাল' নাম একটি সংস্হা এর মূল আয়াজক হলও পছন
এস দাঁড়িয়ছ অনক বিখ্যাত প্রতিষ্ঠানই। 
</p>

<p>
 
<gap desc="illustration"></gap></p>

<p> </p>

<p>রাহুল দ্রাবিড়র
কাঁধ গুরুতর চোট</p>

<p>ক্রিকট বার্ড প্রসিডন্ট
জগমাহন ডালমিয়া ঠারঠার একাধিকবার ভারতীয় দলর ফিজিও থরাপিস্ট অ্যাণ্ড্রু লিপাসর
প্রজ্ঞা নিয় সন্দহ প্রকাশ করছিলন। খলায়াড়দর চাট আঘাত নিয় তিনি কমন পরামর্শ দন?
কন এত চাট আঘাত? ডালমিয়ার সন্দহ আরও বাড়লা রাহুল দ্রাবিড়র চাট ধরা পড়ার পর।
ডালমিয়ার প্রশ্ন: রাহুলর চাট আঘাত লিপাস কী বুঝত পারননি? প্রশ্ন আরও- যদি পুরান চাট
হয় রাহুল কন তা চপ রখছিলন? </p>

<p>ভারতীয় দলর
সহ-অধিনায়কর কাঁধর যা ব্যথা 'অস্ত্রাপচার ছাড়া উপায় নই', বলছন কপটাউনর
বিশিষ্ট  শল্যচিকিত্সক ডাঃ জন ডি বিয়ার। মঙ্গলবার রাহুলর এই অবস্হা জন ভারতীয় শিবির
হতাশা দখা দিয়ছ। তব ডাঃ বিয়ার জানিয়ছন, রাহুল টস্ট খলত পারব। 'দ্রাবিড় মাটই
সুস্হ নন'- জানিয়ছন এই চিকিত্সক। স্ক্যান দখা গিয়ছ তাঁর ডান কাঁধ চাট রয়ছ।
আর চাটটি বশ পুরান। এই 'স্ল্যাপ লসলন'-এ ব্যাট করত তমন অসুবিধা না হলও
বল ছুঁড়ত গলই কাঁধ যন্ত্রণা হব। তাঁক ফিল্ডিং-এর সময় সতর্ক থাকত হব। ভারত-দক্ষিণ
আফ্রিকা প্রথম টস্ট শনিবার থক। </p>

<p>চিকিত্সক তাঁক যত
তাড়াতাড়ি সম্ভব অস্ত্রাপচারর পরামর্শ দিয়ছন। কাচ জন রাইট এ নিয় শুধু বলছন, ওঁর
সম্পর্ক যা জানা গল তা মাটই আশার কথা নয়। জগমাহন ডালমিয়া সব শুন বশ ক্ষুব্ধ। তিনি
ব্যাটসওয়ার্থ ভারতর টিম ম্যানজমন্টর সঙ্গ আলাচনাও করছন। </p>

<p>এবার
'নতুন গুগলি' দেব : কুম্বল</p>

<p>আসন্ন টস্ট সিরিজ
অনিল কুম্বল 'নতুন ধরনর গুগলি' দবন পালকদর ঘায়ল করত। প্রায় একবছর
আন্তর্জাতিক ক্রিকট ও টস্ট থক দূর সর থাকলও কুম্বল নতুন ধরনর গুগলি আবিষ্কার করছন।
তিনি জানিয়ছন, 'গত এক বছর ধর এই নতুন অস্ত্র আয়ত্ত করছি। দক্ষিণ আফ্রিকায় টস্ট
ওই অস্ত্র প্রয়াগ করবা। বিপক্ষ ব্যাটসম্যানরা এই ডলিভারি-রহস্য ধর ফলবন। আগর তুলনায়
এই বল বশি ঘুরব, যা ওদর বিপদর কারণ হব।' </p>

<p>দীর্ঘ একবছর পর মাঠ
নম কুম্বল য পুরা ফিট তা দখা গল দক্ষিণ আফ্রিকায় একদিনর ম্যাচগুলিত। তাঁর
বিশ্বাস- টস্ট তিনি আরও কার্যকরী হবন। 
</p>

<p>
 
<gap desc="illustration"></gap></p>

<p> </p>

<p>'নিরাপত্তার
অভাব' আসবন না ক্যাডিক ও ক্রফট 
ইংল্যান্ড
দলর ১৪ জনর নাম ঘোষণা</p>

<p>ভারতর ক্রিকট কন্ট্রাল
বার্ড প্রসিডন্ট জগমাহন ডালমিয়ার হুমকিত কাজ হয়ছ। নির্দিষ্ট সময়র এক সপ্তাহ আগই
ইংলিশ ও ওয়লস ক্রিকট বার্ড (ই সি বি) জানিয় দিয়ছ তাদর ১৪ জন ক্রিকটারর নাম।
নিয়মিত দলর বাকি ২ জন অ্যাণ্ড্রু ক্যাডিক ও রবার্ট ক্রফট ভারত সফর আসবন না। ওঁরা আসবন
না 'নিরাপত্তার অভাবই'। </p>

<p>ডালমিয়া বলছিলন,
৫ নভম্বরর মধ্য ইংল্যান্ড দলর নাম জানাত হব। দরকার আরও একদিন বাড়তি সময় দওয়া হব।
ই সি বি মঙ্গলবারই আসন্ন ভারত সফরর জন্য দল ঘাষণা কর। ক্যাডিক ও ক্রফট-এর বদল নতুন
দুজনক নওয়া হব জানিয়ছ ই সি বি। </p>

<p>ঘাষিত দল: নাসির হুসন
(অধিনায়ক), ট্রেসকাথিক, মার্ক বুচার, গ্রাহাম থর্প, মার্ক রামপ্রকাশ, ইউ আফজল, মাইকল
ভগন, ডব্লিউ হেগ (উইকট রক্ষক), ফস্টার, ক্রেগ হোয়াইট, অ্যাসল গাইলস, আর ডসন, জে অরম্যান্ড
এবং এম হোগার্ড। </p>

<p>আফগানিস্তান
মার্কিন-ব্রিটিশ আক্রমণ, সন্ত্রাস ইত্যাদি নিয় ই সি বি ধন্ধ ছিল। ক্রিকটারও নানা চিন্তায়
ছিলন। কিন্তু ভারত সরকার ও ভারতর ক্রিকট বার্ডর নিরাপত্তা নিশ্চিত করায় ইংল্যান্ড দল
নির্দিষ্ট দিনই ১৪ নভম্বর ভারত আসত রাজি হয়ছ। ক্যাডিক ও ক্রফট ঝুঁকি নননি। তাছাড়া
মানসিক চিন্তায় থাকল ঠিক ঠিক খলত পারবন না। তাই আসবন না জানান। </p>

<p>ইংল্যান্ড ১১ জনর নাম
আগই জানিয়ছিল। তখন পাঁচজন আসব না জানালও পরিবারর লাকজনর সঙ্গ কথা বল ট্রেসকাথিক,
হোয়াইট ও গাইলস ভারত সফর আসত রাজি হন। ওঁদর এই সিদ্ধান্তক ই সি বি-র নির্বাচন
কমিটির চয়ারম্যান ডেভিড গ্রেভনি সন্তাষ প্রকাশ করছন। উল্লসিত অধিনায়ক নাসিরও।
'ক্যাডিক ও ক্রফট না থাকায় দল একটু দুর্বল হব'- জানান অধিনায়ক নাসির। </p>

<p>ওরা ভারত এস প্রথম
পর্ব ৫টি আন্তর্জাতিক ম্যাচ খলব। দ্বিতীয় পর্ব জানুয়ারির মাঝামাঝি আবার এস ৩টি টস্ট
খলব। 
</p>

<p>
 
<gap desc="illustration"></gap></p>

<p> </p>

<p>কুঞ্জরানির
জরিমানা অর্থ দেওয়া হয়নি 
ভারত
বিশ্বভারাত্তালন যেত পারছ না</p>

<p>বিশ্ব ভারাত্তালনর
জন্য দল নির্বাচিত হওয়া সত্ত্বও ভারত অংশ নিত পারছ না জরিমানা অর্থ না দওয়ায়। তুরস্ক
৪ নভম্বর ওই প্রতিযাগিতা শুরু হব। </p>

<p>কয়মাস আগ ভারতর
অন্যতম সরা মহিলা ভারাত্তালক এন কুঞ্জরানি দবী ডাপ কর ধরা পড়ন। এজন্য আন্তর্জাতিক ফডারশন
১২০০ ডলার জরিমানা কর। কিন্তু কুঞ্জরানি বা ভারতর জাতীয় ভারাত্তালন ফডারশন
জরিমানা অর্থ পাঠায়নি। </p>

<p>ব্যাপারটি কন্দ্রীয়
ক্রীড়ামন্ত্রকর গাচর আনা হয়। বলা হয়ছ ভারত প্রতিবার অংশ নিলও এবার যত পারছ না
জরিমানা না মটানায়। ক্রীড়ামন্ত্রকও এ নিয় আগ্রহ দখায়নি। জাতীয় ফডারশনর অর্থ নই।
লক্ষ লক্ষ টাকা তছরূপর দায় ফডারশনর অন্যতম কর্মকর্তা বাংলার গাপাল খাঁড়া অভিযুক্ত হয়ছিলন।
তারপর ফডারশন ডামাডাল। দুজনর অ্যাড-হক কমিটির ফডারশন চালাচ্ছ। </p>

<p>তবুও বিশ্ব ভারাত্তালনর
জন্য দল নির্বাচন করা হয়। আন্তর্জাতিক প্রতিযাগিতার জন্য সরকারই অর্থ দয়। এবারও ভারাত্তালকরা
বঞ্চিত হতন না। কিন্তু আসল সমস্যা দখা দয় জরিমানার অর্থ। আন্তর্জাতিক ফডারশন স্পষ্ট বল
দিয়ছ আগ জরিমানা মটাও তারপর প্রতিযাগিতার অনুমতি মিলব। 
</p>

<p>
 
<gap desc="illustration"></gap></p>

<p> </p>

<p>কপিলদব
এবার বোমা ফাটাবন!</p>

<p>প্রাক্তন অধিনায়ক ও
ভারতর সর্বকালর অন্যতম সরা অল রাউণ্ডার ক্রিকটার কপিলদব নিখাঞ্জ আস্ত আস্ত মুখ খুলছন
বকসুর খালাস হওয়ায়। ম্যাচ গড়াপটা সম্পর্ক- কে মাধবন কমিশন তাঁক নির্দাষ ঘাষণা
করার পর কপিলদব মাঠ ফির এসছন। অনকক অনুশীলন সাহায্য করছন। পরামর্শ দিচ্ছন।
মঙ্গলবার কাউক কাউক তিনি বলছন, তাঁক যাঁরা গড়াপটা, ঘুষ ইত্যাদিত জড়িয়ছিলন,
তাঁদর বিরুদ্ধ এমন বামা ফাটাবন য সংবাদ মাধ্যমগুলি পাঁচ/ছ'দিন ধর তাঁর বক্তব্য নিয়
শিরানাম করত বাধ্য হব। </p>

<p>কপিলর বিরুদ্ধ গড়াপটার
অভিযাগ করছিলন সতীর্থ মনাজ প্রভাকর। তাঁর অভিযাগ ধাপ টকনি। কপিল বলছন,
এবার তাঁর বক্তব্য শত্রুপক্ষ চমক যাব। </p>

<p>সাংবাদিকদর সঙ্গ আলাচনা
প্রসঙ্গ ভারতীয় দলর বর্তমান অবস্হা সম্পর্ক বলন, ভারত তা ভালই খলছ। প্রতিবারই ফাইনাল
উঠছ। এদর ওপর ভরসা রাখতই হব। চাট আঘাত সম্পর্ক জানান, অত্যধিক খলার চাপই এটা
হচ্ছ। তাঁর পরামর্শ বিশ্রামর সময়ও অনুশীলন করা উচিত। তা হল ম্যাচর সময় চাট আঘাত
লাগব না। এটা অভ্যাস পরিণত করা উচিত। এই দখুন না কব খলা ছড়ছি, কিন্তু এখনও
প্রতিদিন চারঘণ্টা শরীরচর্চা করি। </p>

<p> </p>






</body></text></cesDoc>