<cesDoc id="ben-w-bengalnet-news2-01-03-08" lang="ben">
<cesHeader type="text">
<fileDesc>
<titleStmt>
<h.title>ben-w-bengalnet-news2-01-03-08.txt</h.title>
<respStmt>
<respType>Electronic file created by</respType>
<respName>Department of Linguistics, Lancaster University</respName>
<respType>text collected by</respType>
<respName>Paul Baker</respName>
<respType>transferred into Unicode by</respType>
<respName>"Unicodify" software by Andrew Hardie</respName>
</respStmt>
</titleStmt>
<publicationStmt>
<distributor>UCREL</distributor>
<pubAddress>Department of Linguistics, Lancaster University, Lancaster, LA1 4YT, UK</pubAddress>
<availability region="WORLD"></availability>
<pubDate>03-08-24</pubDate>
</publicationStmt>
<sourceDesc>
<biblStruct>
<monogr>
<h.title>"Bengalnet" internet news (www.bengalnet.com), news stories collected on 01-03-08</h.title>
<h.author>Bengalnet</h.author>
<imprint>
<pubPlace>West Bengal, India</pubPlace>
<publisher>Bengalnet</publisher>
<pubDate>01-03-08</pubDate>
</imprint>
</monogr>
</biblStruct>
</sourceDesc>
</fileDesc>
<encodingDesc>
<projectDesc>Text collected for use in the EMILLE project.</projectDesc>
<samplingDesc>Simple written text only has been transcribed. Diagrams, pictures and tables have been omitted and their place marked with a gap element.
</samplingDesc>
<editorialDecl>
<conformance level="1"></conformance>
</editorialDecl>
</encodingDesc>
<profileDesc>
<creation>
<date>03-08-24</date>
</creation>
<langUsage>Bengali</langUsage>
<wsdUsage>
<writingSystem id="ISO/IEC 10646">Universal Multiple-Octet Coded Character Set (UCS).</writingSystem>
</wsdUsage>
<textClass>
<channel mode="w">print</channel>
<constitution type="composite"></constitution>
<domain type="public"></domain>
<factuality type="fact"></factuality>
</textClass>
<translations></translations>
</profileDesc>
<revisionDesc></revisionDesc>
</cesHeader>

<text>
<body>




<p>প্রথম দফায়
প্রার্থীতালিকা প্রকাশ মমতার</p>

<p>
 
 
  
  
  
  
  
  
  
  
  
  
  
  
 
 
 

 
 
<gap desc="illustration"></gap>অনক টালবাহানার পর বুধবার
তৃণমূল কংগ্রসর প্রার্থীতালিকা প্রকাশ করছন মমতা বন্দ্যাপাধ্যায়। প্রথম পর্যায় ২২৭ জন
প্রার্থীর নাম ঘাষণা করা হয়ছ। আরও সাতটি আসন মমতা নিজর হাত রখছন। তার
সবকটিত প্রার্থী দিল ২৯৪টি বিধানসভা আসনর মধ্য তৃণমূলর প্রার্থী হবন ২৩৪। বিজপি-সহ
অন্য শরিকদর জন্য ছাড়া হয়ছ ৫৫টি আসন- বিজপি ৩৯, ঝাড়খণ্ড মুক্তি মার্চা ৮, কামতাপুর
পিপলস পার্টি ৬, সমতা পার্টি ও বিপ্লবী বাংলা কংগ্রস ১টি কর। মালদহ গনিখানর ভাই ও বানর
বিরুদ্ধ প্রার্থী না দওয়া ছাড়াও পাহাড় জি এন এল এফ-এর তিন প্রার্থীক সমর্থন করব
তৃণমূল। মহাজাটপন্হী দুই কংগ্রস বিধায়ক আবদুল মান্নান ও শঙ্কর সিংহর কন্দ্র চাঁপদানি
এবং রানাঘাট-পূর্ব আসনও আপাতত প্রার্থী দননি মমতা। </p>

<p>প্রার্থীতালিকা প্রকাশর
পরই তৃণমূল ক্ষাভর সঞ্চার হয়ছ। ক্ষাভর আঁচ পয় প্রাথমিকভাব মমতা ঠিক করছিলন,
নিজ প্রার্থীতালিকা প্রকাশ করবন না। শষ সুদীপ বন্দ্যাপাধ্যায়, সুব্রত মুখাপাধ্যায়
প্রমুখর হস্তক্ষপ প্রার্থীতালিকা প্রকাশ সম্মত হন মমতা। তৃণমূলর প্রার্থীতালিকায়
প্রাধান্য পয়ছন রাজনীতি জগতর বাইরর বিশিষ্ট ব্যক্তিরা। এর মধ্য উল্লখযাগ্য হলন-
মাধবী মুখার্জি, তাপস পাল, প্রসূন ব্যানার্জি ও অমল দত্ত। দলছুট আট কংগ্রস বিধায়কদর মধ্য
সাতজনকই টিকিট দওয়া হয়ছ। তব সৗগত রায় ও তাপস রায়র কন্দ্র বদলছ। সৗগত লড়বন
ঢাকুরিয়ায়। শিয়ালদহ সামন মিত্রর বিরুদ্ধ দাঁড়াচ্ছন তাপস রায়। 
</p>

<p>
 
<gap desc="illustration"></gap></p>

<p> </p>

<p>ইডন টেস্ট
দল রাজু, শরণদীপ, প্রসাদ ও নেহরা</p>

<p>
 
 
<gap desc="illustration"></gap>সমস্যা বড় গল অধিনায়ক সৗরভ
গঙ্গাপাধ্যায়র। শ্রীনাথ এবং আগরকার আনফিট। খলত পারবন না ইডন টস্ট। অনিল কুম্বল
তা নই-ই। বিপর্যস্ত ভারতর ক্রিকট নির্বাচকমণ্ডলী। তাই ডাকলন বঙ্কটশ প্রসাদ ও বঙ্কটপতি
রাজুক। নবাগত হিসাব সুযাগ পলন শরণদীপ সিং ও আশিস নহরা। টানা আড়াইঘন্টা বৈঠকর
পর নির্বাচকরা আগামী রবিবার থক অনুষ্ঠয় ইডন টস্টর দল ঘাষণা করন। </p>

<p>দলর ১৪ জন : সৗরভ
গঙ্গাপাধ্যায় (অধিনায়ক), রাহুল দ্রাবিড়, সদগাপন রমশ, শিবসুন্দর দাস, শচীন তন্ডুলকর, ভি
এস লক্ষ্মণ, হমাঙ্গ বাদানী, নয়ন মাঙ্গিয়া, জাহির খান, আশিস নহরা, বঙ্কটশ প্রসাদ, হরভজন
সিং, শরণদীপ সিং ও বঙ্কটপতি রাজু। </p>

<p>নির্বাচক কমিটির চয়ারম্যান
চাঁদু বারদ বলন, শ্রীনাথ ও আগরকরর অভাব প্রসাদ ও রাজুক দল নওয়া হয়ছ। প্রসাদর
বয়স ৩২ বছর। দুই মরসুম পর তাঁক টস্ট দল নওয়া হল। রাজুও শষ টস্ট খলন ১৯৯৮-এ।
এতদিন পর ওরা কমন খলবন? </p>

<p>বারদ বশ হতাশার
সুর বলন, ভারত স্পিনার গড়ার দশ। অথচ এই ভারতই স্পিনারর অভাব। দল ঢাকার ব্যাপার
জারালা দাবি ছিল সাইরাজ বাহুতুল, নীলশ কুলকার্নীও সুনীল যাশীর। ওদর নামও উঠছিল
নির্বাচকদর সামন। 

</p>

<p>
 
<gap desc="illustration"></gap></p>

<p> </p>

<p>দলছুট কর্মীদর
ফির আসত বলল সি পি এম</p>

<p>
 
 
<gap desc="illustration"></gap>সৈফুদ্দিন চৗধুরিদর পি ডি এস
দল চল যাওয়া প্রাক্তন সিপিএম কর্মীদর পুরনা দল ফির আসার জন্য আবদন জানানা
হল। সিপিএম দলর রাজ্য সম্পাদক অনিল বিশ্বাস বুধবার জানান, সিপিএমর য সব কর্মী ভুল
বুঝ পি ডি এস যাগ দিয়ছন, তাঁদর ফিরিয় আনার ব্যাপার দলীয় রীতি কিছুটা শিথিল
করা হচ্ছ। তব পি ডি এস নতাদর জন্য তাঁরা কানও রকম শিথিলতা দখাবন না। স্পষ্টতই
সৈফুদ্দিন চৗধুরি, সমীর পুততুন্ডদর মতা নতাদর দল ছাড়ায় রাজ্য সিপিএম নতৃত্ব যথষ্ট
উদ্বিগ্ন। এদিন আলিমুদ্দিন স্ট্রিট দলর রাজ্য দপ্তর সিপিএম রাজ্য সম্পাদক তৃণমূলর বিরুদ্ধ
একটি শ্বতপত্র প্রকাশ করন। 'হিংসা আর বর্বরতার পথ বয় মূল থক তৃণমূল' শিরানামর
এই শ্বতপত্র ৬০-এর দশক থক এখন পর্যন্ত কংগ্রস ও তৃণমূলর 'হিংস্রতা, বর্বরতা,
ভণ্ডামি প্রভৃতির বিবরণ রয়ছ বল অনিলবাবু জানান। ওই শ্বতপত্র প্রকাশ উপলক্ষ সাংবাদিক
বৈঠক সিপিএম রাজ্য সম্পাদক দাবি করন, আসন্ন বিধানসভা নির্বাচন পি ডি এস বামপন্হী ভাটারদর
মধ্য কানও প্রভাবই ফলত পারব না। দলছুট কর্মীদর কতজন ইতিমধ্য সিপিএম ফিরছন
তারও একটি পরিসংখ্যান দন অনিল বিশ্বাস। 

</p>

<p>
 
<gap desc="illustration"></gap></p>

<p> </p>

<p>স্টারর
নতুন ভবনর শিলান্যাস</p>

<p>বুধবার সাড়ম্বর
শতাব্দীপ্রাচীন স্টার থিয়টারর নতুন ভবনর শিলান্যাস করলন তৃণমূল নত্রী মমতা বন্দ্যাপাধ্যায়।
ময়র সুব্রত মুখাপাধ্যায় ঘাষণা করছন, শুভবুদ্ধি সম্পন্ন, সংস্কৃতিমনস্ক মানুষর সহযাগিতায়
এই প্রক্ষাগৃহ আগামী ২ বছরর মধ্যই ফর গড় তালা হব। উল্লখ্য, দশ বছর আগ এক বিধ্বংসী
আগুন পুড় যায় স্টার। এতদিন ধর এই প্রক্ষাগৃহ পুনর্নির্মাণর জন্য রাজ্য সরকারর কাছ
বহু আবদন নিবদন করা হয়ছিল। অবশষ গত বছর জুলাই মাস কলকাতা পুরসভার নতুন পুরবার্ড
এস সিদ্ধান্ত নয় স্টার পুনর্গঠনর। তব শিলান্যাস হলও স্টারর পুনর্নির্মাণর জন্য প্রয়াজনীয়
অর্থ কাথা থক আসব, স বিষয় স্পষ্ট কর কিছু জানায়নি পুরসভা। ময়র বলন, ইচ্ছা ও
আন্তরিকতা থাকল টাকার জন্য কাজ আটকাব না। মমতা নিজ তাঁর ব্যাঙ্ক ব্যালন্সর অবশিষ্ট
২৫ হাজার টাকা স্টারর পুনর্নির্মাণ দওয়ার প্রতিশ্রুতি দিয়ছন। এদিন আরতি বারিক নাম
এক মহিলা তাঁর সারা জীবনর সঞ্চয় থক ৭ হাজার টাকা স্টার পুনর্নির্মাণর কাজ মমতার হাত
তুল দন। প্রয়াজন একটি বিশষ তহবিল গঠন কর পুরসভা য সাধারণ মানুষর আর্থিক
সাহায্যও নিত পার, তার ইঙ্গিতও দিয়ছন তৃণমূল নত্রী। ময়র জানিয়ছন, স্টার
পুনর্নির্মাণর খরচ হব ১৩ কাটি টাকা। এর মধ্য সাড় পাঁচ কাটি ইতিমধ্যই জাগাড় করা
হয়ছ। এদিক স্টারর জমি, বাড়ি, যন্ত্রপাতি সবই এলাহাবাদ ব্যাঙ্কর কাছ বন্ধক রয়ছ। এ
ব্যাপার সম্প্রতি ব্যাঙ্ক কর্তৃপক্ষ স্টার থিয়টারর জমির মালিকর বকয়া প্রায় ৬ কাটি টাকা
ঋণ সুদ-সহ মিটিয় দিত অনুরাধ করছ।
</p>

<p> </p>






</body></text></cesDoc>