<cesDoc id="ben-w-bengalnet-news2-01-01-01" lang="ben">
<cesHeader type="text">
<fileDesc>
<titleStmt>
<h.title>ben-w-bengalnet-news2-01-01-01.txt</h.title>
<respStmt>
<respType>Electronic file created by</respType>
<respName>Department of Linguistics, Lancaster University</respName>
<respType>text collected by</respType>
<respName>Paul Baker</respName>
<respType>transferred into Unicode by</respType>
<respName>"Unicodify" software by Andrew Hardie</respName>
</respStmt>
</titleStmt>
<publicationStmt>
<distributor>UCREL</distributor>
<pubAddress>Department of Linguistics, Lancaster University, Lancaster, LA1 4YT, UK</pubAddress>
<availability region="WORLD"></availability>
<pubDate>03-08-24</pubDate>
</publicationStmt>
<sourceDesc>
<biblStruct>
<monogr>
<h.title>"Bengalnet" internet news (www.bengalnet.com), news stories collected on 01-01-01</h.title>
<h.author>Bengalnet</h.author>
<imprint>
<pubPlace>West Bengal, India</pubPlace>
<publisher>Bengalnet</publisher>
<pubDate>01-01-01</pubDate>
</imprint>
</monogr>
</biblStruct>
</sourceDesc>
</fileDesc>
<encodingDesc>
<projectDesc>Text collected for use in the EMILLE project.</projectDesc>
<samplingDesc>Simple written text only has been transcribed. Diagrams, pictures and tables have been omitted and their place marked with a gap element.
</samplingDesc>
<editorialDecl>
<conformance level="1"></conformance>
</editorialDecl>
</encodingDesc>
<profileDesc>
<creation>
<date>03-08-24</date>
</creation>
<langUsage>Bengali</langUsage>
<wsdUsage>
<writingSystem id="ISO/IEC 10646">Universal Multiple-Octet Coded Character Set (UCS).</writingSystem>
</wsdUsage>
<textClass>
<channel mode="w">print</channel>
<constitution type="composite"></constitution>
<domain type="public"></domain>
<factuality type="fact"></factuality>
</textClass>
<translations></translations>
</profileDesc>
<revisionDesc></revisionDesc>
</cesHeader>

<text>
<body>




<p>দিল্লির ব্যাঙ্ক
আমানত লস্কর-ই-তৈবার!</p>

<p>লস্কর-ই-তৈবার
অ্যাকাউন্ট আছ রাজধানী দিল্লির বাণিজ্যিক হৃদপিণ্ড কনট প্লসর গ্রিন্ডলজ ব্যাঙ্ক। লালকল্লায়
হানাদারির চাঁই আশফাক আহমদ পুলিসক এই তথ্য দিয়ছ। অ্যাকাউন্ট তার নামই। নম্বর
৩২২৬৩৯৬২। পুরনা দিল্লির জামা মসজিদ এলাকার কিছু হাওলা কারবারির মাধ্যম পাকিস্তান
এবং ওসামা বিন লাডনর দশ সৗদি আরব থক ওই অ্যাকাউন্ট গত ৪-৫ মাস বশ কয়ক লাখ
টাকা জমা পড়ছ। এখন জমা আছ ৩৫ লাখ টাকা। এর মধ্য ২১ লাখ টাকা এসছ নভম্বর মাস।
পাকিস্তানি নাগরিক আশফাক নিজর নাম রশন কার্ড তৈরি কর ফলছ। উত্তরপ্রদশর
গাজিয়াবাদ ইন্দিরাপুরম ১৬ লাখ টাকার ৩ কামরার একটি ফ্ল্যাটও বুক কর ফলছ।
ইন্দিরাপুরম দিল্লির পটপরগঞ্জর ঠিক লাগায়া। ওই এলাকার এক মহিলা রহমানাক গত ৮ ডিসম্বর
বিয়ও করছ আশফাক। দিল্লি পুরসভার কাউন্সিল আসিফ মহম্মদ খান আশফাকক রশন কার্ড পাইয়
দন বল জানা গছ। 'নলজ প্লাস' নাম কম্পিউটার শিক্ষার একটি কন্দ্রও খুল বসছিল
আশফাক। লস্কর-ই-তৈবার শ্রীনগরর এরিয়া কমান্ডার আবু হায়দার হাওলা কারবারি মুখতারর সঙ্গ
আশফাকর আলাপ করিয় দয়। 

</p>

<p>
 
 
  
  
  
  
  
  
  
  
  
  
  
  
 
 
 

 
<gap desc="illustration"></gap></p>

<p> </p>

<p>দায়ী
ইয়াহিয়াই : পাক রিপার্ট</p>

<p>
 
 
<gap desc="illustration"></gap>১৯৭১ সাল বাংলাদশর
মুক্তিযুদ্ধ পাক সনার পরাজয়র তদন্ত নিযুক্ত হামদুর রহমান কমিশনর প্রতিবদনক সাধারণর
সামন প্রকাশ করল পাকিস্তান সরকার। উল্লখ্য, প্রায় দীর্ঘ ২৯ বছর আগ ১৯৭২ সাল বিচারপতি
হামদুর রহমানর নতৃত্বাধীন কমিশন পাক সরকারর কাছ এই রিপার্ট পশ করছিল। তাত
পরাজয়র জন্য সনাকর্তাদর দায়ী করার পাশাপাশি দুর্নীতি ও নিপীড়নর অভিযাগ তাঁদর
বিচারর জন্য বিশষ আদালত গঠনর সুপারিশও করা হয়ছিল। তব এতদিন এই রিপার্ট ছিল গাপন
তালিকাভুক্ত। শনিবার এক সরকারি বিবৃতিত জানানা হয়ছ, এদিন থক ৭১-এর যুদ্ধ
সম্পর্কিত তদন্ত কমিশনর প্রতিবদনক আর গাপনীয় বল গণ্য করা হব না। হামদুর কমিশন রিপার্ট
কান পরিস্হিতিত পাকিস্তানি ইস্টার্ন কম্যান্ড ভারত ও বাংলাদশর যৗথ সনাবাহিনীর কাছ
আত্মসমর্পণ করছিল তার বিস্তৃত বিশ্লষণ আছ। বলা হয়ছ, পাক সনাবাহিনীর মধ্য
দুর্নীতি ঘুন পাকার মত বাসা বঁধছিল। হামদুর কমিশন উল্লখ করছ, ৭১-এর যুদ্ধর সময় সনাবাহিনীর
উচ্চপদস্হ কর্তাব্যক্তিরা দুর্নীতিত এতটাই ডুবছিলন য যুদ্ধজতা তা দূরস্হান পশাগত দক্ষতাও
নষ্ট হয় গিয়ছিল। ১৯৭১-এ পূর্ব পাকিস্তান হিংসাত্মক আন্দালন শুরু করার জন্য আওয়ামি লিগর
নতা ও কর্মীদর দায়ী করও ওই কমিশন স্বীকার করছ, যুদ্ধ চলাকালীন পাক সনাবাহিনীও যথচ্ছ
বাড়াবাড়ি করছ।  
</p>

<p>
 
<gap desc="illustration"></gap></p>

<p>কর্মসংস্কৃতি
: সুভাষর আবার বিতর্কিত মন্তব্য</p>

<p>
 
 
<gap desc="illustration"></gap>আবার বিতর্ক তৈরি করলন
সুভাষ চক্রবর্তী। ই-টিভিক এক সাক্ষাত্কার সুভাষ বলছন, 'জ্যাতিবাবুর সরকারক হয়
করতই কর্মসংস্কৃতি নিয় মাতামাতি করা হচ্ছ।' সুভাষর এই মন্তব্যর খাঁচা নতুন
মুখ্যমন্ত্রী বুদ্ধদবর দিকই। সরকারি কর্মীদর ওপর নজরদারিরও তীব্র বিরাধিতা করন তিনি।
স্বভাবতই সুভাষ চক্রবর্তীক নিয় উদ্বগ বাড়ছ সিপিএমর। তাই শুরু হয়ছ ঘরগাছানা। শানা
যাচ্ছ, গতবার বাদ পড়লও এবার বিধানসভা নির্বাচন প্রার্থী হবন প্রাক্তন পরিবহনমন্ত্রী
শ্যামল চক্রবর্তী ও প্রাক্তন মুখ্য সচতক লক্ষ্মী দ। ১০ জানুয়ারি সিপিএমর রাজ্য কমিটি এ
ব্যাপার চূড়ান্ত সিদ্ধান্ত নব। কলকাতা, উত্তর ও দক্ষিণ ২৪ পরগণা, হাওড়া ও হুগলিত আসন
বাড়াত সিপিএম মরিয়া। পাড়খাওয়া, অভিজ্ঞ নতাদর ফিরিয় আনা হচ্ছ। উল্লখ্য, ১০ তারিখই
সৈফুদ্দিন চৗধুরীরা সল্টলক গাপন বৈঠক বসছন। সুভাষ চক্রবর্তীর মতিগতি সম্পর্ক সিপিএমর
রাজ্য নতৃত্ব এখনও ষাল আনা নিশ্চিত নয়। হায়দরাবাদ সিটুর সর্বভারতীয় সম্মলনও যাননি
সুভাষবাবু। স্বভাবতই বস যাওয়া প্রবীণ নতাদর ফিরিয় আনছ সিপিএম। প্রাক্তন
স্বাস্হ্যমন্ত্রী প্রশান্ত শূরও আবার প্রার্থী হত পারন। সুভাষ চক্রবর্তীক নানাভাব
'সম্মান' দওয়ার চষ্টা চলছ। হয়ত তাঁক কন্দ্রীয় কমিটিতও আনা হব। 

</p>

<p>
 
<gap desc="illustration"></gap></p>

<p> </p>

<p> </p>

<p> </p>

<p>কাঠমাণ্ডুর
কেলঙ্কারি</p>

<p>তিনদিন টানা
হাঙ্গামার পর নপাল শান্তি ফির এসছ। নপালর রাজনীতিকরা সহসা উপলব্ধি করছন ভারতীয়
পর্যটকরা মুখ ফিরিয় নিল তাদর অর্থনীতিও মুখ থুবড় পড়ব। স্বভাবতই যাঁরা এই ঘটনা নিয়
রাজনীতি করত চাইছিলন তাঁরাও কিছুটা সংযত হয়ছন। কিন্তু অশান্তির কারণটি গালমল,
সর্বাপরি এর পছন রয়ছ একটি জঘন্য ষড়যন্ত্র। কাঠমাণ্ডু থক ২৫০ কিমি দূর একটি গ্রাম
কিছু কিশার হঠাত্ রাস্তায় বরিয় বলত থাক ঋত্বিক রাশন নপালক ঘৃণা করন বল স্টার
টিভিত সাক্ষাত্কার দিয়ছন। সঙ্গ সঙ্গ এলাকার একটি সংবাদপত্র ওদর বক্তব্য হুবহু ছপ দয়।
সম্পাদক কিছুই যাচাই করননি। ওই খবরটি লুফ নিয় নপালর টিভিত ব্যাপক প্রচার শুরু
হয়। সই প্রচার চলতই থাক গাটা নপাল তত না ওঠা পর্যন্ত। প্রথম ঋত্বিকর ছবি দখানা
বন্ধ হয়, তারপর ভারতীয় ছবিও। এরপর শুরু হয় ভারতীয়দর ওপর আক্রমণ। ভারত থক যাঁরা বড়াত
গিয়ছিলন তাঁরা প্রাণভয় পালিয় আসন। যাঁদর বড়াত যাওয়ার কথা ছিল তাঁদর বাতিল
করত হয় সফর। পুলিসক দাঙ্গা থামাত গুলি চালাত হয়। মৃতু্য হয়ছ অন্তত পাঁচজনর। উত্তজনা
প্রশমন কিন্তু ঋত্বিক রাশন ও স্টার টিভির বক্তব্য প্রচার করত দওয়া হয়নি। </p>

<p>সব মিলিয় ঘটনার
ঘনঘটা অত্যন্ত সুপরিকল্পিত। এখন জানা গছ 'চিতবন গাস্ট' নাম য কাগজটি প্রথম ওই
ভুয়া খবরটি ছপছিল তার নিয়ন্ত্রণ কুখ্যাত মাফিয়া দাউদ ইব্রাহিমর হাত। নপালর কব্ল
টিভি ব্যবসার একচ্ছত্র মালিক জামিল শাহ নপাল দাউদর প্রধান দালাল। স খবরর কাগজও বর
করছ। একথা সকলরই জানা, মুম্বইয় একমাত্র রাশন পরিবারই দাউদর লাক ছাটা শাকিলর
ছবিত বিনা পারিশ্রমিক কাজ করত চায়নি। শাস্তি দিত রাকশ রাশনর ওপর গুলিও চালিয়ছিল
ছাটা শাকিলর গুণ্ডারা। তবু নপালর টিভিত ভারতর খবর ব্ল্যাকআউট করা স দশর শাসক
মহলর প্রচ্ছন্ন প্রশ্রয় ছাড়া সম্ভব হত না।  </p>

<p>ঋত্বিক রাশনর ওপর
গায়র ঝাল ঝাড়ার সঙ্গ সঙ্গ নপাল ভারতবিদ্বষ ছড়িয় দিয় এক ঢিল দুটি পাখি মারত চয়ছিল
দাউদর লাকজন। দাউদর প্রশ্রয়দাতা পাকিস্তানর ইন্টার সার্ভিসস ইন্টলিজন্স। তারা ভারতর
সঙ্গ নপালর মায় প্রতিবশী দশর সম্পর্ক নষ্ট করত উঠপড় লগছ। শুধু তাই নয়, নপালর
কিছু অংশ হঠাত্ মুসলিম জনসংখ্যা বড়ছ বিপুলভাব। মুসলিম বল দাষ নয়, এঁদর একটা
অংশক কাজ লাগাচ্ছ আই এস আই, অশান্তি সৃষ্টির জন্যই। আশার কথা, ভারতর প্রধানমন্ত্রী নপালর
প্রধানমন্ত্রীর সঙ্গ অত্যন্ত কঠারভাষায় কথা বলছন। ভারতীয় ব্যবসায়ীরাও নপাল থক ব্যবসা
গুটিয় নওয়ার হুমকি দিয়ছন। এখন নপাল সরকারকই বছ নিত হব তাঁরা কী চান। </p>

<p>
</p>

<p>
 
<gap desc="illustration"></gap></p>

<p> </p>

<p>
ঋত্বিক
কাণ্ডর ধাক্কা 'নেপালি' মনীষার ওপর</p>

<p>
 
 
<gap desc="illustration"></gap>ঋত্বিকর 'নপালবিরাধী'
মন্তব্যর গুজবক কন্দ্র কর নপালিদর ভারতবিরাধী বিক্ষাভ এখন অনকটাই শান্ত। নপালর কব্ল
টিভির পরিচালকরা ভারতীয় টিভি চ্যানলগুলির সম্প্রচার আবার শুরু করছন। কিন্তু এদিক, নপালিদর
ভারতবিদ্বষর প্রতিক্রিয়া স্পর্শ করছ ভারতর বিভিন্ন জায়গা। গতকাল, শনিবার ইন্দার
বিক্ষুব্ধ ন্যাশনাল স্টুডন্টস ইউনিয়ন অফ ইন্ডিয়ার সদস্যরা হামলা চালিয় বন্ধ কর দিয়ছ সদ্য
মুক্তিপ্রাপ্ত হিন্দি ছবি চ্যাম্পিয়ন-এর প্রদর্শন। কারণ ওই ছবিত অভিনয় করছন জনপ্রিয়
চলচ্চিত্রাভিনত্রী মনীষা কৈরালা। মনীষা জন্মসূত্র য শুধু নপালি তাই নন, তিনি নপালর
প্রধানমন্ত্রী গিরিজাপ্রসাদ কৈরালার নাতনি। ওই বিক্ষুব্ধ ছাত্র সংগঠনর নতা বিনীত ঠাকুর জানিয়ছন,
'নপাল ঋত্বিকর ছবি দখানা বন্ধ হয়ছ। ভারতও আমরা মনীষার ছবি দখাত দব
না। যতদিন নপালিরা তাঁদর ভারতবিদ্বষ দখাবন, ততদিন ভারত মনীষা অভিনীত কানও
ছবি আমরা চলত দব না'। ইন্দারর প্রশাসন কর্তৃপক্ষ জানিয়ছন, সিনমা হল হামলাকারীদর
বিরুদ্ধ আইনি ব্যবস্হা নওয়া হব। </p>

<p>
</p>

<p>
 
<gap desc="illustration"></gap></p>

<p> </p>

<p>সীমাহীন
প্রাকৃতিক সৌন্দর্য চলছ তিস্তা উত্সব</p>

<p>কঠিন কালা পাথরর
বুক সবুজর অকৃপণ সৗন্দর্যর ছড়াছড়ি। পশ্চিম নপাল থক পূর্ব অরুণাচল প্রদশ, উত্তর
তিব্বত থক দক্ষিণ তরাই- এই বিস্তৃত অঞ্চলর অহঙ্কার মঘ-কুয়াশায় আচ্ছন্ন পর্বত, জলপ্রপাত,
গিরিখাত এবং অবশ্যই তুষারর বুক জগ থাকা শ্যামল বনানী। দার্জিলিং, কার্শিয়াং,
কালিম্পং, মিরিক, সান্দাকফু, ডুয়ার্স সবকিছুর সঙ্গই অঙ্গাঙ্গীভাব যুক্ত তিস্তা। প্রবাহ-প্রাখর্য
এই অঞ্চলর আর্থ-সামাজিক প্রক্ষাপট এই নদীই যন নিয়ন্তা-নিয়তি। এর তীর গড় ওঠা পণ্য
আর পর্যটন কন্দ্রর পসরা সাজিয় য উত্সব শুরু হয়ছ ১৯৯৮ সাল থক তার নামই তিস্তা
উত্সব। তিস্তাপারর বড়া ভঙ পর্যটনর বিকাশ ত্বরাণ্বিত করতই এই প্রচষ্টা। সিকিম সরকার
এবং কন্দ্রীয় সরকারর আর্থিক সাহায্যর সঙ্গ যুক্ত হয়ছ পশ্চিমবঙ্গর পর্যটন বিভাগ তথা
স্বশাসিত দার্জিলিং হিল কাউন্সিলর উদ্যাগ। আগামী বছর থক যুক্ত করত চলছ অরুণাচল
প্রদশ আর ভুটানক সঙ্গ নওয়ার তাড়জাড়। </p>

<p>২৪ তারিখ উত্সব শুরু
হয়ছ। প্রকৃতিদত্ত অরণ্য আর চা-বাগিচার ল্যান্সস্কপ উত্সব চলব ১৭ জানুয়ারি পর্যন্ত। মূল
আকর্ষণ গ্যাংটক-সহ সারা সিকিমর অসংখ্য মঠ 'ক্যাগইয়ড নৃত্য'। সঙ্গ থাকছ খরস্রাতা
তিস্তার বুক র্যাফট ও কায়াক চালানা প্রতিযাগিতা। ট্রকিং এবং প্যাকজ টু্যরর সুযাগও
থাকছ। ডুয়ার্স পর্বর অনুষ্ঠান চলব ১১ থক ১৩ জানুয়ারি। কাঞ্চনজ্ঙঘা স্টডিয়াম বসছ লাকগীতি,
লাকনৃত্য, চিত্র প্রদর্শনী, তীরন্দাজ প্রতিযাগিতা। ১২ জানুয়ারি অভয়ারণ্যর মধ্য দিয় হব ট্রন
'আনন্দভ্রমণ'। ১২ থক ১৭ জানুয়ারি দার্জিলিং পর্ব থাকছ মাটর র্যালি। আয়াজিত
হব খাদ্য উত্সব, লাকনৃত্য, হস্তশিল্প প্রদর্শনী, ঘুড়িত চড় আকাশ ওড়া, সর্বাপরি
'ওয়র্ল্ড হরিটজ' টয় ট্রন প্রমাদভ্রমণ।  
</p>

<p>
 
<gap desc="illustration"></gap></p>

<p> </p>

<p>বাজার
বাহার</p>

<p>বাঙালির পার্বণও
আছ কেক-পেস্ট্রি</p>

<p>
 
 
<gap desc="illustration"></gap>ক্রিসমাস
বাঙালি এবং বাংলার উত্সব তালিকায় জায়গা কর নিয়ছ বহুদিনই। প্রভু যিশু ছিলন
মানবদরদী, তাঁর জীবন ও চিন্তা জুড় ছিল মানুষ। তাই ডিসম্বরর ২৫ ক্রিসমাস ট্রি,
ক্যারল-এর অর্গান-পিয়ানার সুর আর সান্তাক্লজ নিয় শুধু আনন্দ ভাসব বাংলার জনজীবন।
এই মনাহর পার্বণর প্রতি ভগ্নাংশই দারুণ অর্থপূর্ণ অনুষঙ্গী-কক এবং পস্ট্রি। শীতর
হাওয়া আবহাওয়া-প্রকৃতিত তমন নাচন না আনলও বড়দিন থক 'নিউইয়ার্স ড' কক-পস্ট্রি
ছাড়া জমনি কানওদিন, এবারও তাই তাদর অমলিন উপস্হিতি। </p>

<p>
 
 
<gap desc="illustration"></gap>ক্রিসমাস উপলক্ষ
বিখ্যাত বিখ্যাত কনফকশনার্সই বানিয়ছ সুস্বাদু কক-পস্ট্রি। মনজিনির স্পশাল ২০০১ ককটি
বাজার এসছ ৬০০ গ্রাম ওজন, দাম মাত্র ১০০ টাকা। এরসঙ্গ সাড়া তুলছ ডান্ডি কক- ১
পাউন্ড বা ৪৫০ গ্রামর দাম পড়ছ ১০০ টাকা। প্রিমিয়াম ফ্রুট কক বা প্লাম ককর চাহিদা
এখনও বশিই। মনজিনির ৪৫০ গ্রামর দাম যথাক্রম ৭৫ টাকা এবং ৫৫ টাকা। জলযাগর ককও
বাজার আন দারুণ আলাড়ন-চাহিদা। জলযাগর ফ্রুট কক, বাটার কক, চকালট ফ্রুট কক,
ক্রিসমাস স্পশাল ওয়াইন কক পাওয়া যাচ্ছ ৫৫ টাকা থক ৮৫ টাকার মধ্যই। জলযাগর
সুলতানা কক ৪০০ গ্রামর দাম ৮৫ টাকা। সুগার এ্যান্ড স্পাইস-এর বাটার কাজু কক-এর দাম
৫০ টাকা। বিশুদ্ধ ক্রিম তৈরি ব্ল্যাক ফরস্ট, পাইনঅ্যাপল, স্ট্রবরি, পিচ- নানা স্বাদ দাম
পড়ছ ১০০ টাকাই। </p>

<p>পস্ট্রিতও
বৈচিত্র্য চাখ পড়ার মতই। নববর্ষর জন্যই শুধু নয় এমনিতও পস্ট্রির চাহিদা বশ ভালই। চকালট
পস্ট্রির মধ্য সুগার অ্যান্ড স্পাইসর চকা ক্যারামল, চকা বাইট, চকালট ক্র্যাম্বল,
অ্যামন্ড চকালটর দাম পড় ১৫ টাকা কর। জলযাগর চকা ফ্যান্সি, বিস্কিট ফ্যান্সি, চকা-জ্যাম-রাল,
বিগ ডিলাইট-এর দাম ১০ টাকা প্রতি পিস। ডসার্টর মধ্যও আছ নানা রকম কফি মাউস, স্ট্রবরি
মাউস ১০ টাকা করই। ক্রিসমাস এবং নববর্ষর জন্য করিনির ফস্টিও কক-এর দাম ৫৫ টাকা থক
শুরু। সলিব্রিশন কক এবং বিচ ফ্রুট কক-এর দাম পড় ৮০ টাকা। এছাড়া টপার বাইট, জাম্বা,
টুইন-উইন তা আছ ১০ টাকার মধ্যই। আরও যমন আছ নানা কনফকশনার্স, আছ আরও
বৈচিত্র্য, আলা আর রাংতা জরিত দাকানর পসরার চারপাশ শুধু কক-ক্রতার উত্সাহ উজ্জ্বল
হাসিমুখ। </p>

<p>
</p>

<p>
 
<gap desc="illustration"></gap></p>

<p>কল্পতরু
উত্সব : কোথায় কী হচ্ছ</p>

<p>কাশীপুর রাডর ওপর
রানী কাত্যায়নীর জামাই গাপালচন্দ্র ঘাষর বিশাল বাগানবাড়ি। কণ্ঠক্ষতর চিকিত্সা এবং খালামলা
জায়গায় রাখার জন্য রামকৃষ্ণক নিয় আসা হয়ছিল এই বাগানবাড়িত। ১৮৮৬ সালর
জানুয়ারির সকাল অসুস্হতাক নস্যাত্ করন রামকৃষ্ণ। বিকল উদ্যান ভক্তদর বল ওঠন,
'আমি আর তামাদর কী বলব, আশীর্বাদ করি তামাদর চৈতন্য হাক'। কল্পতরু রামকৃষ্ণর
পদধূলি নওয়ার জন্য ভক্তদর হুড়াহুড়ি পড় যায়। এই ঘটনা উপলক্ষই পালিত হয় কল্পতরু উত্সব।
১ জানুয়ারি ভার থকই সূচনা হয় উত্সবর। ভক্তদর বিশ্বাস এদিন তাঁদর আরাধ্য
শ্রীরামকৃষ্ণ ভক্তমনাবাঞ্ছা পূরণ করবন। </p>

<p>কাশীপুর উদ্যানবাটী:
ভার ৪টয় বজ উঠ সানাই। সূচনা হয় উত্সবর। চল মঙ্গলরতি, হাম, ভাগ নিবদন। ভক্তদর
দওয়া হয় খিচুড়ি প্রসাদ ও বাঁদ। প্রথম দিন রামকুমার চট্টাপাধ্যায়, শ্রীকুমার চট্টাপাধ্যায়
গান শানালন। ৩ জানুয়ারি পর্যন্ত গান, পাঠ ইত্যাদি নানা কর্মকাণ্ড জমজমাট থাকব
উদ্যানবাটী। </p>

<p>কাশীপুর মহাশ্মশান:
কাশীপুর গঙ্গার ধারর এই শ্মশানই দাহ করা হয়ছিল রামকৃষ্ণক। তাই কল্পতরু উত্সব নানা
অনুষ্ঠান হয় এই মহাশ্মশান। মঙ্গলরতি, চণ্ডীপাঠ, গান চলব তিনদিন। শষদিন দখান হব
চলচ্চিত্র 'ভগবান শ্রী শ্রী রামকৃষ্ণ'। </p>

<p>রামকৃষ্ণ মহামণ্ডল:
দক্ষিণশ্বরর মন্দির ঢাকার আগই যদু মল্লিকর বাগানবাড়ি। রামকৃষ্ণ মহামণ্ডল প্রতি বছর
এখান কল্পতরু উত্সব পালন কর। সারাদিন ধর নানা ধর্মীয় অনুষ্ঠান, গানবাজনা, ধর্মসভা চলব।
</p>

<p>দক্ষিণশ্বর
কালীমন্দির: রামকৃষ্ণর জীবন অনকটা ভাগ কটছ এইখান। কানও সাংস্কৃতিক অনুষ্ঠান না
হলও বিশষ পূজা ও হাম হয়। ভক্তর ঢল নাম মন্দির চত্বর। রামকৃষ্ণর প্রিয় খাদ্য
জিলিপি বিতরণ করা হয় ভক্তদর মধ্য। কিনত পাওয়া যাব ক্যালণ্ডার। </p>

<p>যোগাদ্যান মঠ:
বৈদিক প্রার্থনা ও ভজন ভারই শুরু হল উত্সব। রামকৃষ্ণ কথামৃত পাঠ আলাচনা, কালীকীর্তন
ছাড়াও রামকৃষ্ণক নিয় লখা গীতি আলখ্য পরিবশিত হব। 
নাগভবন: বিডন স্ট্রিটর
নাগভবনও হব চণ্ডীপাঠ, গান, আলাচনা। 

</p>

<p>
 
<gap desc="illustration"></gap></p>

<p>ফরিদর
সংগ্রহ হরক অমূল্য কোরান</p>

<p>সারা জীবন ধর শখ গাল
শরফুদ্দিন ফরিদর ধ্যানজ্ঞান হয় দাঁড়িয়ছ কারান সংগ্রহ। হরক দশর নানা মাপর প্রাচীন
কারানর অন্তত ৪০টি সংগ্রহ আছ ৭৩ বছর বয়সী এই মানুষটির। কলকাতার বাসিন্দা শরফুদ্দিন
ছিলন এশিয়াটিক সাসাইটির প্রাক্তন সাম্মানিক গ্রন্হাগারিক, ইরান সাসাইটিরও
গ্রন্হাগারিক। তাঁর কাছ সবচয় প্রাচীন কারানখানি ৩০০ বছর আগর। সবচয় অমূল্য মিনিয়চার
কারানটি লম্বায় ২ সমি, চওড়ায় ১.৭ সমি,
পুরু ১ সমি। সানার পাত বাঁধাই, এর রহল বা স্ট্যাণ্ডটিও খুদ, দখত দারুণ। কলকাতায়
প্রাচীন বইয়র এক ডিলারর কাছ পয়ছিলন। ফরিদ কারান সংগ্রহ করছন সারা ভারত তা
বটই, সৗদি আরব, জর্ডন, ইরান, পাকিস্তান, মিসার, তুরস্ক হরক দশ থক। সবচয়
প্রাচীন ৩০০ বছর আগর কারানটি হাত লখা, প্রতিটি পাতায় সানার কারুকাজ। ফরিদ
একটিই বই লিখছন, তা অবশ্য বাংলার সুলতানি আমলর মুদ্রা সংগ্রহ বিষয় 'এ কলক্টর
গাইড টু দি স্টাডি অফ দ্য কয়নস অফ দি সুলতানস অফ বেঙ্গল।' কারান সংগ্রহ ফরিদক
সাহায্য করন হংকংবাসী ছল মহমুদ ইমরান। ছলর সখ অবশ্য ঘড়ি ও ভিউ কার্ড
সংগ্রহ।  
</p>

<p>
 
<gap desc="illustration"></gap></p>

<p> </p>

<p>বাউলর গান, খ্রিষ্টাত্সব জমজমাট পৌষমলা 
শীতর শুকনা হাওয়া
আমলকির ডাল ডাল নচ ওঠ, কুয়াশার আস্তরণ ভদ কর স-ই পথ কর দয় উত্সব-সুরর
প্রবাহর। লালমাটি রাঙানা বাতাস পৗষমলার নির্যাস। খ্রিষ্টাত্সব এবং শান্তিনিকতনর পৗষমলার
মলবন্ধন বরাবরর মত এবারও রকর্ডভাঙা ভিড়, উত্সাহ আর উদ্দীপনা। শান্তিনিকতনর
উপাসনাগৃহক যুগাবতার যিশুর জন্মাত্সব সাজানা হয়ছ নয়নমনাহর কর। এই উত্সবর
সভাপতিত্ব করন বিশ্বভারতী বিশ্ববিদ্যালয়র উপাচার্য দিলীপ সিংহ। শান্তিনিকতনর পৗষমলায়
বড়দিনর সকাল অনুষ্ঠিত হল প্রয়াত আশ্রমবন্ধুদর স্মরণসভা।  আম্রকুঞ্জ অনুষ্ঠিত হল
আশ্রম সম্মিলনীর বার্ষিক সভা। মলা প্রাঙ্গণ মাতায়ারা ছিল বাউল গানর সুর। ছিল ফকিরদর
গান, রামায়ণ গানও। মলার আঙ্গিনায় বীরভূমর সাঁওতালদর নানারকম খলাধূলা এবং রনপা
নৃত্য প্রদর্শিত হয়। এবার শান্তিনিকতনর অন্যতম এবং নবতম আকর্ষণ বাজির বাহার। 
উদয়শঙ্কর
জন্মাত্সব তাসর দেশ 
পূর্বাঞ্চল সংস্কৃতি কন্দ্রর
সঙ্গ যৗথ উদ্যাগ নৃত্যাঙ্গন নিবদন করল গুরু প্রণাম। রবীন্দ্রসদন উদয়শঙ্কর জন্মশতবার্ষিকী
উত্সব তারা তাঁদর শ্রদ্ধার্ঘ নিবদন করল নৃত্যর মাধ্যমই। গুরু উদয়শঙ্করর সঙ্গ বহুদিন যুক্ত
ছিলন এক শিষ্য শান্তি বসু। প্রথম তাঁরই পরিচালনায় হল গুরু প্রণাম, তত্পর নিবদিত হল
রবীন্দ্রনাথ ঠাকুরর 'তাসর দশ'। পুরাতন জীর্ণ ব্যবস্হাক ভঙ্গ নূতনর আহ্বানই হল
এই নৃত্যনাট্যর মূল কথা। এই নৃত্যনাট্যটি রচনা কর মহাকবি তাই তুল দিয়ছিলন
স্বাধীনতার আমৃতু্যযাদ্ধা সুভাষচন্দ্রর হাত। এই নৃত্যানুষ্ঠানর নৃত্য পরিকল্পনা দর্শকদর মন
টান। এরপর ছিল নৃতাঙ্গনর ছাত্রছাত্রীদর অংশগ্রহণ বিভিন্ন প্রদশর লাকনৃত্যর অনুষ্ঠান।
রবীন্দ্রসদন দখা গল ডান্সারস গিল্ডকও। মঞ্জুশ্রী চাকী সরকারর আদর্শ অনুপ্রাণিত এবং
রঞ্জাবতীর সাহাগস্পর্শ উজ্জীবিত নৃত্যশিল্পীরা তাঁদর নৃত্যকলায় মাহিত কর দর্শকদর। নিবদন
করল জগত্সৃষ্টির ভাষ্যনৃত্য। এই সঙ্গই পাওয়া গল ডানা গাঙ্গুলির ওড়িশিও। পূর্বিতা মল্লিক,
পলি গুহঠাকুরতার নৃত্যপ্রদর্শনও মন মাতায়। মমতাশঙ্কর ব্যাল ট্রুপ এ আয়াজনর অন্যতম
আকর্ষণ ছিল। মমতার অংশগ্রহণ এবং পরিচালনায় তাদর নৃত্যশৈলিও মনাহর হয় ওঠ। </p>

<p>
</p>

<p>
 
<gap desc="illustration"></gap></p>

<p>বাঙালি
খানার বন্দাবস্ত হচ্ছ না টাউন হল</p>

<p>ইলিশ মাছর পাতুরি,
লুচি-মাংসর ঝাল, ফুলকপির সিঙারা, রসগাল্লা, পায়স, পিঠ-পুলি। জিভ জল আসছ?
কলকাতা টাউন হল বাংলার ঐতিহ্যবাহী একটি রস্তারাঁ গড়ার কথা ভবছিলন ময়র সুব্রত
মুখাপাধ্যায়। দুশা বছরর ঐতিহ্যবাহী টাউন হল বাংলার ঐতিহ্য জাদুঘরর দর্শকদর মনারঞ্জনর
পাশাপাশি তাঁদর রসনার বাসনা মটাত এই পরিকল্পনা নিয়ছিলন সুব্রত। কিন্তু শষপর্যন্ত
তা সম্ভব হচ্ছ না। স্রফ একটি স্ন্যাক্স বারই হয়ত সিন্ধুর স্বাদ বিন্দুতই মটাত হব, তাও স
বার মিলব বিজাতীয় চাউমিন, এগরাল ইত্যাদি। সুব্রত তাঁর স্বপ্নর রস্তারাঁটির জন্য
টাউন হলর বসমন্ট চয়ছিলন ৬০০০ বর্গফুট এলাকা। কিন্তু কলকাতা জাদুঘরর উপদষ্টা সরাজ
ঘাষ বল দিয়ছন, বসমন্ট অতটা এলাকা পাওয়া সম্ভব নয়। একটা স্ন্যাক্স বার করা যত পার,
তাছাড়া আছ টয়লট, বাকি এলাকা শীতাতপ নিয়ন্ত্রিত, তাই রস্তারাঁ গড়া সম্ভব নয়। ময়রর
সাধ তাই স্বপ্নই থক যাচ্ছ।  
</p>

<p>
 
<gap desc="illustration"></gap></p>

<p> </p>

<p>বাংলা ছবির
কদর বাড়াত ভিনরাজ্যর অ্যাকশন</p>

<p>ছবির
নাম- প্রেম প্রতিজ্ঞা 
পরিচালক-
সুজিত গুহ 
প্রযাজনা-
সুনীল শর্মা 
গীতিকার-
গৌতম সুস্মিত 
সুরকার-
বাবুল বসু 
চিত্রগ্রহণ-
বি প্রভাকর </p>

<p>কৈলাসগিরি রঞ্জর কাছ
সমুদ্র আর পাহাড়র মলামশার শহর বিশাখাপত্তনম চলছিল 'প্রম-প্রতিজ্ঞা'র শু্যটিং।
বাংলা ছবিত লজন্স-হিরাদর আতুপুতু মারামারিত য আর ধুমধাড়াক্কা হিন্দি মারপিট দখত
অভ্যস্ত দর্শকদর মন পাওয়া যাচ্ছ না- তা বুঝই দুরন্ত অ্যাকশন, গাড়ি জাম্প, বাইক জাম্প,
বিস্ফারণ, আগুনর সঙ্গ মারাত্মক মারামারির দৃশ্য হিন্দি বা তলুগু-তামিল ছবিকই এবার মন
করাব। চন্নাইয়র অ্যাকশন কিং জুডা রামুর হাত ধর বাংলা ছবির মজাজ বদলাত চলছ।
</p>

<p>ছবিটা অবশ্যই
ঋতুপর্ণা আর প্রসনজিতর তালপাড় প্রমর ছবি। কিন্তু দশ বাঁচানার একটা কঠিন
প্রতিজ্ঞাও আছ। দশভক্ত নায়কর সঙ্গ জুটি বঁধছ চিরঞ্জিতও। আছন আর্মি অফিসারর চরিত্র
তাপস পাল। আছন আগকার নায়িকা এখনকার প্রৗঢ়া-অভিনত্রী সন্ধ্যা রায়। খলনায়ক বিপ্লব
সাংঘাতিক চক্রান্তর নায়ক। তাঁক শষ মুহূর্ত পিস্তল ঠকিয় নিরস্ত করার বিপজ্জনক খলায়
নামত হয়ছ অনামিকা সাহাকও। আছন এক নবাগতা সহনায়িকা রশমী ভট্টাচার্য। কুরুক্ষত্রর
রণাঙ্গন বধড়ক মারামারি দৃশ্যর শু্যটিং শষ। গানর দৃশ্যায়নও হয়ছ। কুমার শানু, উদিত
নারায়ণ, বাবুল সুপ্রিয়, সাধনা সরগমর মত গায়ক-গায়িকার সঙ্গ গাইবন জলি মুখাপাধ্যায়,
জসপিন্দর নুরুলা প্রমুখ।</p>

<p>
</p>

<p>
 
<gap desc="illustration"></gap></p>

<p>ছড়ায় ছড়ায়
সংবাদ</p>

<p>রাত
ফুরালই নতুন বছর 
পয়লা জানুয়ারি 
মন মনই তোমায় পাঠাই

রসগাল্লার হাঁড়ি।

নাই বা থাকুক পয়সাকড়ি

আজক আমার টঁ্যাক

খুশির ভেলায় পৌঁছ যাবাই

ওই দু'হাজার এক।

বেঙ্গলনট পাঠক এবং

পাঠিকাদর প্রীতি

সুখশান্তির শুভচ্ছাত

ছড়ায় টানি ইতি।</p>

<p> </p>






</body></text></cesDoc>