<cesDoc id="ben-w-bengalnet-news-00-08-14" lang="ben">
<cesHeader type="text">
<fileDesc>
<titleStmt>
<h.title>ben-w-bengalnet-news-00-08-14.txt</h.title>
<respStmt>
<respType>Electronic file created by</respType>
<respName>Department of Linguistics, Lancaster University</respName>
<respType>text collected by</respType>
<respName>Paul Baker</respName>
<respType>transferred into Unicode by</respType>
<respName>"Unicodify" software by Andrew Hardie</respName>
</respStmt>
</titleStmt>
<publicationStmt>
<distributor>UCREL</distributor>
<pubAddress>Department of Linguistics, Lancaster University, Lancaster, LA1 4YT, UK</pubAddress>
<availability region="WORLD"></availability>
<pubDate>03-08-24</pubDate>
</publicationStmt>
<sourceDesc>
<biblStruct>
<monogr>
<h.title>"Bengalnet" internet news (www.bengalnet.com), news stories collected on 00-08-14</h.title>
<h.author>Bengalnet</h.author>
<imprint>
<pubPlace>West Bengal, India</pubPlace>
<publisher>Bengalnet</publisher>
<pubDate>00-08-14</pubDate>
</imprint>
</monogr>
</biblStruct>
</sourceDesc>
</fileDesc>
<encodingDesc>
<projectDesc>Text collected for use in the EMILLE project.</projectDesc>
<samplingDesc>Simple written text only has been transcribed. Diagrams, pictures and tables have been omitted and their place marked with a gap element.
</samplingDesc>
<editorialDecl>
<conformance level="1"></conformance>
</editorialDecl>
</encodingDesc>
<profileDesc>
<creation>
<date>03-08-24</date>
</creation>
<langUsage>Bengali</langUsage>
<wsdUsage>
<writingSystem id="ISO/IEC 10646">Universal Multiple-Octet Coded Character Set (UCS).</writingSystem>
</wsdUsage>
<textClass>
<channel mode="w">print</channel>
<constitution type="composite"></constitution>
<domain type="public"></domain>
<factuality type="fact"></factuality>
</textClass>
<translations></translations>
</profileDesc>
<revisionDesc></revisionDesc>
</cesHeader>

<text>
<body>




<p>কলকাতায়
ধিক্কার দিবস ১৬ আগস্ট 
ফর
সাংবাদিক নিগ্রহ সি পি এম-এর</p>

<p>ক্রমাগত
সাংবাদিক নিগ্রহর ঘটনার প্রতিবাদ আন্দালন নামছন সাংবাদিকরা। কলকাতা প্রস ক্লাবর
সম্পাদক ও সভাপতি জানিয়ছন, আগামী ১৬ আগস্ট বুধবার সাংবাদিকরা ধিক্কার দিবস পালন করবন।
বলা একটায় সুবাধ মল্লিক স্কায়্যার থক তাঁরা মিছিল কর যাবন প্রস ক্লাব। সখান
আয়াজিত সমাবশ থক স্মারকলিপি দওয়া হব রাজ্যর পুলিশমন্ত্রী বুদ্ধদব ভট্টাচার্যক।
হুগলি জলার সাংবাদিকরা আজ ধিক্কার দিবসর ডাক দিয়ছন। তাঁরা আজ কালা ব্যাজ পর
কাজ করবন।</p>

<p> </p>

<p>
 
 
  
  
  
  
  
  
  
  
  
  
  
  
 
 
 

 
 
<gap desc="illustration"></gap>উত্তরপাড়া কাতরং পুরসভা
নির্বাচন ব্যাপক ছাপ্পা ভাট দিচ্ছিল সি পি এম সমর্থকরা। চলছিল বুথ জ্যামও। তারই খবর
সংগ্রহ করত গিয়ছিলন সাংবাদিকরা। ছিলন চিত্র সাংবাদিকরাও। তাঁদর দখই অস্ত্রশস্ত্র নিয়
চড়াও হন সি পি এম কর্মীরা। সামন পুলিশ থাকা সত্ত্বও কানও প্রতিরাধ করা হয়নি। সি পি
এম-এর হামলায় গুরুতরভাব আহত হন এক বসরকারি টলিভিশন চ্যানলর সাংবাদিক অভিজিত্
বসু। প্রথম তাঁক উত্তরপাড়া স্টট জনারল হাসপাতাল ভর্তি করা হয়। সখানও চড়াও হয় সি
পি এম সমর্থকরা। পর তাঁক শ্রীরামপুর ওয়ালশ হাসপাতাল স্হানান্তরিত করা হয়। সি পি এম
সমর্থকদর আক্রমণ এদিন আহত হন প্রিন্ট ও টলিভিশন মাধ্যমর আরও কিছু সাংবাদিক। সি
পি এম ছাড়া পশ্চিমবঙ্গর সমস্ত রাজনৈতিক দলই এই ঘটনার তীব্র নিন্দা করছ। সি পি এম-এর জলা
কমিটি অবশ্য এই বিষয় মুখ কুলুপ এঁটছ। উত্তরপাড়া-ভদ্রকালী আঞ্চলিক কমিটি অবশ্য জানিয়ছ,
নির্বাচন অবাধ ও শান্তিপূর্ণভাব শষ হয়ছ। </p>

<p>সকাল থকই সি পি
এম কর্মীরা সাংবাদিকদর প্রতি ছিলন আক্রমণাত্মক। ছাপ্পা ভাটর ছবি তাঁরা তুলত শুরু
করা মাত্রই আট-ন'টি মাটর সাইকল চপ আসা দুষ্কৃতীরা তাঁদর বুক রিভলভার ঠকিয়
বালির দিক নিয় যাওয়ার চষ্টা কর। রাস্তায় সি পি এম বিধায়ক শান্তশ্রী চট্টাপাধ্যায়র
হস্তক্ষপ কানওক্রম তাঁরা রক্ষা পান। 
</p>

<p> </p>

<p> </p>

<p>মাশারফ খালাখুলি
জানালন- জঙ্গীদর ভারত বিরাধী জহাদক সমর্থন করন তিনি 
আবার
জঙ্গী হানা, বি এস এফ কনভয় বিস্ফারণ, হত ৬</p>

<p>রবিবার জম্মু-শ্রীনগরর
জাতীয় সড়কর উপর একটি মাইন বিস্ফারণ ঘটিয় বি এস এফ কনভয়র একটি গাড়ি উড়িয় দয়
পাক জঙ্গীরা। ঘটনাস্হলই মারা গছন ৪ বি এস এফ জওয়ান। আহত হয়ছন প্রায় ৪০ জন। আহতদর
মধ্য ১৩ জনর অবস্হা আশঙ্কাজনক। পুলিশ সূত্রর খবর অনুযায়ী- ১৫টি গাড়ির এক বি এস এফ
কনভয় জম্মু থক শ্রীনগর যাচ্ছিল। পথ সকাল সাড় আটটা নাগাদ উধমপুর থক ৯০ কিমি দূর
জম্মু-শ্রীনগর জাতীয় সড়ক তামাটার মাড় একটি বাঁকর মুখ জঙ্গীরা বিস্ফারণটি ঘটায়। বিস্ফারণ
১৪টি গাড়ি রক্ষা পলও ১টি গাড়ি উড় যায়। আগর বিস্ফারণ স্হলর মাত্র ১ কিলামিটার দূরই
এদিন বিকল ৩টয় জঙ্গীরা আরও একটি বিস্ফারণ ঘটায়। সখানও প্রাণ হারিয়ছন দুজন বি
এস এফ জওয়ান ও আহত হয়ছন ১৩ জন। এই দুটি আক্রমণরই দায় স্বীকার করছ হিজবুল
মুজাহিদিন জঙ্গী গাষ্ঠী। রাওয়ালপিত্তি থক হিজবুলর মুখপাত্র সালিম হাসমি ফান রয়টারক
জানিয়ছ, হিজবুল কমান্ডার সালিম জাভদ এই আক্রমণর নতৃত্ব দিয়ছ। স্বাধীনতা দিবসর
প্রাক্কাল হিজবুল মুজাহিদিন ও লস্কর-ই-তৈবা জঙ্গী গাষ্ঠীদুটি তাদর তত্পরতা বাড়িয়ই চলছ।
এদিক সরকারি সূত্র জানা গছ, উধমপুর জলায় নিরাপত্তা বাহিনীর গুলিত ১০ জঙ্গীও মারা গছ।
</p>

<p>অন্যদিক, কাশ্মীর
ভারতর বিরুদ্ধ জঙ্গীদর এই জহাদক তিনি সমর্থন করন জানিয় পাকিস্তানর ফৗজি শাসক
পারভজ মাশারফ বলছন, পাকিস্তান তার প্রতিবশী দশগুলির সঙ্গ শান্তির সম্পর্কই গড় তুলত
চায়। পাকিস্তানর ৫৩ তম স্বাধীনতাদিবসর প্রাক্কাল জাতির উদ্দশ্য ভাষণ তিনি প্রতিশ্রুতি দন-
কাশ্মীরর স্বাধীনতা সংগ্রামীদর তাঁর সরকার রাজনৈতিক, কূটনৈতিক এবং নীতিগতভাব যা যা
সমর্থন প্রয়াজন- সব দব। আবার একই সঙ্গ ভারতীয় স্বাধীনতা দিবস অভিনন্দন জানিয় ভারতর
নাগরিক ও সংবাদমাধ্যমর উদ্দশ্য এই ফৗজি শাসকর প্রস্তাব- তাঁরা যন কাশ্মীর সমস্যা
সমাধান ইসলামাবাদর সঙ্গ আলাচনায় বসার জন্য নতুন দিল্লিক রাজি করান। 
</p>

<p> </p>

<p> </p>

<p> </p>

<p>বসরকারি
হাত গল এস টি ডি পরিষবা</p>

<p>রবিবার, টলিকম ক্ষত্র
বসরকারি পুঁজির প্রবশর দরজা খুল দিল কন্দ্রীয় সরকার। ঘরায়া দূরপাল্লার পরিষবা বা
এস টি ডি ত বসকারি সংস্হার অংশগ্রহণর নির্দশিকা এদিন ঘাষণা করন, যাগাযাগ মন্ত্রী
রামবিলাস পাসায়ান। নির্দশিকা অনুযায়ী, কবলমাত্র ভারতীয় সংস্হাগুলিই এই পরিষবা দওয়ার
জন্য আবদন করত পারব। তব সই সংস্হায় ৪৯ শতাংশ পর্যন্ত বিদশি মালিকানার অংশ থাকত
পারব। এর জন্য উক্ত সংস্হাক এন্ট্রি ফি বা প্রবশ মাসুল হিসব এককালীন ১০০ কাটি টাকা
দিত হব। এই সংস্হাগুলি পাশাপাশি স্হানীয় পরিষবাও দিত পারব। য বসরকারি সংস্হা
লাইসন্স নব তার বিনিয়াগকৃত মূলধনর পরিমাণ হব ২৫০ কাটি টাকা এবং মাট সম্পদর
পরিমাণ হত হব ২৫০০ কাটি টাকা। এ ছাড়াও ৪০০ কাটি টাকা ব্যাঙ্ক গারান্টি দিত হব।
যা পরবর্তীকাল ফরত দওয়া হব। সরকারর এই শর্তগুলি পূরণ করল য কানও বসরকারি
সংস্হাই ঘরায়া দূরপাল্লা পরিষবায় অংশ নিত পারব। প্রথম ২০ বছরর লাইসন্স দওয়া হব।
পর তা আরও ১০ বছর জন্য বাড়ানা হব। 
সরকার মন করছ, বসরকারি
সংস্হাগুলি এস টি ডি পরিষবা দিত শুরু করল এর মাসুলও অনক কমব। কারণ, বশি বাণিজ্যর
লক্ষ্য অংশগ্রহণকারী সংস্হাগুলির মধ্য গ্রাহকদর কম দাম পরিষবা দওয়ার প্রতিযাগিতা থাকব।

</p>

<p> </p>

<p> </p>

<p> </p>

<p>সব মিলিয়</p>

<p>...গলায় দড়ি ঢর ভাল: মমতা 
তৃণমূল নত্রী মমতা বন্দ্যাপাধ্যায়ক
দশদ্রাহী বলছিলন মুখ্যমন্ত্রী জ্যাতি বসু। রবিবার কলকাতায় তৃণমূলর এক মহামিছিল
সিপিএম- কই দশদ্রাহিতার অভিযাগ আসামীর কাঠগড়ায় দাঁড় করালন মমতা বন্দ্যাপাধ্যায়।
বললন, '৪২ সাল কারা স্বাধীনতা সংগ্রামীদর ব্রিটিশ পুলিশর হাত তুল দিয়ছিল?
কারা নতাজীক তাজার কুকুর বলছিল? জ্যাতি বসুক তীব্র আক্রমণ কর মমতা এক পথসভায়
বললন, 'ওঁদর কাছ থক দশপ্রমিকর সার্টিফিকট নওয়ার চাইত গলায় দড়ি দওয়া ঢর
ভাল।' 


শিল্পপতিরা
অস্ত্র কনার টাকা জাগান মমতাক: অনিল 
বড় বড় ব্যবসায়ী,
শিল্পপতিরাই নাকি মমতা বন্দ্যাপাধ্যায়ক সন্ত্রাস সৃষ্টির জন্য প্রয়াজনীয় অস্ত্রশস্ত্র কনার টাকা
জাগাচ্ছন। সি পি এম-এর কন্দ্রীয় মুখপত্র পিপলস ডমাক্রসির নবতম সংখ্যায় একটি নিবন্ধ এই
অভিযাগ করছন সি পি এম-এর সাধারণ সম্পাদক অনিল বিশ্বাস। সংবাদপত্র এবং রাজ্য পুলিশর
একাংশর বিরুদ্ধও বিষাদগার করছন অনিল। বলছন, পুলিশর একাংশ রাজনৈতিক পক্ষপাতদুষ্ট।
তৃণমূল বিজপি-র হাত তামাক খায়।


আলফা
জঙ্গীদর একাংশর আত্মসমর্পণ আজ 
আলফা জঙ্গিদর একটি বড়
দল আজ আসাম আত্মসমর্পণ করব। ওই আত্মসমর্পণ অনুষ্ঠান হাজির থাকবন আসামর
মুখ্যমন্ত্রী প্রফুল্ল কুমার মহন্ত, এবং প্রশাসন ও পুলিশর হর্তাকর্তারা। প্রায় ২০০ জঙ্গীর
আত্মসমর্পণ করার কথা। অন্যদিক স্বাধীনতা দিবস ২৪ ঘন্টা বনধর ডাক দিয়ছ আলফা এবং
অন্য একটি নিষিদ্ধ জঙ্গী সংগঠন এন ভি এফ বি। আসামবাসীদর স্বাধীনতা দিবস বয়কট করত একটি
বিবৃতিও জারি করছ ওই দুই সংগঠন। সবমিলিয় ১৫ আগস্ট আসাম আতঙ্কর পরিবশই বজায়
থাকছ।</p>

<p>
</p>

<p> </p>

<p> </p>

<p> </p>

<p>আজকাল</p>


 হিজবুল হানা ফর হত ৫ সীমান্তরক্ষী 
 বস যাওয়া এবং বিতাড়িতরা স্বচ্ছ হলই ফরাব
     সি পি এম 
 '৩১ আগস্ট মহা-মহা-মহামিছিল' 
     বসুর কাছ দশপ্রমর
     সার্টিফিকট নওয়ার থক গলায় দড়ি দব! মমতা 
 ৭ জঙ্গিক মর মৃত বীর বাঙালী ফৗজি
     
 আদবানির হাত ক্ষমতা যাব বলই ৩৫৬ চান না
     প্রণব 
 ছপও
     গজট প্রকাশ বন্ধ রাখা হল 
     আজ স্কুল সার্ভিস পরীক্ষার ফল, কাল কাগজ তালিকা


<p>আনন্দবাজার 
পত্রিকা</p>


 সন্ত্রাস লুকাত সাংবাদিকদর পটাল সিপিএম
     
     পুর-ভাটর নাম
     প্রহসন উত্তরপাড়ায় 
 সিপিএম ছাড়া সব দলই নিন্দায় সরব
     
     সত্যগাপনর বাধা
     বলই সংবাদমাধ্যম আক্রান্ত 
 দশপ্রম নিয় বসু সার্টিফিকট দিল গলায়
     দড়ি ভাল: মমতা 
 কশপুর-কথা সাংসদরা জানাবন কমিশনকও
     
 বিএসএফর
     গাড়ি ওড়াল হিজবুল, জঙ্গিদর পাক-কর্তৃত্ব থক বরাত আর্জি বাজপয়ীর 


<p>গণশক্তি</p>


 আই এস ডি-র দরজাও খালার ইঙ্গিত কন্দ্রর
     
     এস টি ডি বসরকারী
     হাত, ৪৯% বিদশী বিনিয়াগর অনুমতি 
 তৃণমূল এত টাকা কাথা থক পাচ্ছ তার
     তদন্ত হওয়া দরকার: বসু 
 উত্তরপাড়া-কাতরং 
     পৗরসভায় ভাট
     শান্তিত 
 আজ কমরড নরন সনর শষকৃত্য 
 নিজর কাজও জানন না পাঁজা: দাশগুপ্ত
     
 ফ্রজারগঞ্জ
     বায়ু-বিদু্যত্ প্রকল্প চালু ডিসম্বরই 


<p>প্রতিদিন</p>


 বিএসএফ কনভয় পরপর বিস্ফারণ, হত ৫, জখম
     ৪৬ 
 বসুর কাছ দশপ্রমর সার্টিফিকট? তার আগই
     গলায় দড়ি! মমতা 
 উত্তরপাড়ায় ভাট ব্যাপক ছাপ্পা, প্রহৃত
     সাংবাদিকরা 
 কাশ্মীর পাঁচ জঙ্গিক খতম কর হত বাঙালি
     ক্যাপ্টন 
 রাজ্যর মন্ত্রীর বিরুদ্ধ তদন্তর অনুমতি কিছুতই
     দব না: বসু 
 দমদম
     পুলিশর সঙ্গ একঘন্টা গুলির লড়াই, উদ্ধার বিদশী অস্ত্র 


<p>বর্তমান</p>

<p>·  বসুই দশদ্রাহী:
মমতা </p>

<p>·  ফর
সাংবাদিকদর ওপর উন্মত্ত হামলা সি পি এমর </p>

<p>·  সাংবাদিকদর
ধিক্কার দিবস ১৬ই </p>

<p>·  ভিড় দখ
ফর ৩১ তারিখ মহামিছিল ডাকলন মমতা </p>

<p>·  মমতাক
অস্ত্র কনার টাকা দিচ্ছন ব্যবসায়ীরা: অনিল </p>

<p>·  রাজ্য
সতর্কতা স্বাধীনতা দিবস </p>

<p> </p>






</body></text></cesDoc>