<cesDoc id="sin-w-fiction-story-silumina-158" lang="sin">
<cesHeader type="text">
<fileDesc>
<titleStmt>
<h.title>sin-w-fiction-story-silumina-158.txt</h.title>
<respStmt>
<respType>Electronic file created by</respType>
<respName>Department of Linguistics, Lancaster University</respName>
<respType>text collected by</respType>
<respName>Vincent Halahakone</respName>
<respType>transferred into Unicode by</respType>
<respName>"Unicodify" software by Andrew Hardie</respName>
</respStmt>
</titleStmt>
<publicationStmt>
<distributor>UCREL</distributor>
<pubAddress>Department of Linguistics, Lancaster University, Lancaster, LA1 4YT, UK</pubAddress>
<availability region="WORLD"></availability>
<pubDate>03-08-26</pubDate>
</publicationStmt>
<sourceDesc>
<biblStruct>
<monogr>
<h.title>File from written Sinhala corpus collected by Vincent Halahakone, dated xx-xx-xx</h.title>
<h.author>unknown</h.author>
<imprint>
<pubPlace>Sri Lanka</pubPlace>
<publisher>unknown</publisher>
<pubDate>xx-xx-xx</pubDate>
</imprint>
</monogr>
</biblStruct>
</sourceDesc>
</fileDesc>
<encodingDesc>
<projectDesc>Text collected for use in the EMILLE project.</projectDesc>
<samplingDesc>Simple written text only has been transcribed. Diagrams, pictures and tables have been omitted and their place marked with a gap element.
</samplingDesc>
<editorialDecl>
<conformance level="1"></conformance>
</editorialDecl>
</encodingDesc>
<profileDesc>
<creation>
<date>03-08-26</date>
</creation>
<langUsage>Sinhala</langUsage>
<wsdUsage>
<writingSystem id="ISO/IEC 10646">Universal Multiple-Octet Coded Character Set (UCS).</writingSystem>
</wsdUsage>
<textClass>
<channel mode="w">print</channel>
<constitution type="composite"></constitution>
<domain type="public"></domain>
<factuality type="fact"></factuality>
</textClass>
<translations></translations>
</profileDesc>
<revisionDesc></revisionDesc>
</cesHeader>

<text>
<body>




<p>ඵ</p>

<p> </p>

<p>හොරකම</p>

<p> </p>

<p>මියන්මාර් (බුරුම) කෙටිකතාවකි.</p>

<p>කෙයින් පී. මින්ට් විසිනි.</p>

<p> </p>

<p>1914 ජුලි 10 වන දින ආදායම් බදු නිලධාරියකුගේ පුතෙකු ලෙස
උපත ලැබූූ කොයින් පී. මින්ට් 'යුඛා' නගරයේ පාසලකින් මූූලික අධ්යාපනය ලා 1934 දී විශ්ව
විද්යාලයට ඇතුළත් විය. එහි දී බුරුම නිදහස් ව්යාපාරයට සම්බන්ධ වී කටයුතුු කළ හෙතෙම බුරුම
විප්ලවීය පක්ෂයේ සාමාජිකයෙක් ලෙස ද කටයුතු කළේය. බොහෝ රටවල සංචාරය කර ඇති මින්ට්
එමගින් ලබා ගත් අත්දැකීම් තම නිර්මාණවලට පාදක කොට ගත්තේය. වසර හැට හතරක් ජීවත් වූ හේ
1978 ජනවාරියේ දී අභාවප්රාප්ත විය.</p>

<p>සිංහල අනුවාදය බොබී ජී. බොතේජු</p>

<p> </p>

<p>අහසේ විසිරී ගිය වලාකුන්ථ අතරින් තරු එබී බලන්නට විය. ඈත
කම්හල පිහිටි ප්රදේශය දීප්තිමත් විදුලි ආලෝකයෙන්් බැබළෙයි. (තෙල් බිම් සහිත උතුරු
බුරුමයේ යෙනාගියන් දිස්ති්රක්කයේ කම්හල පිහිටා තිබිණ.) රුපියල් හැත්තෑවක වැටුප් ලබන
වඩු කාර්මිකයින්ගේ නිවාස සහ ගම් ප්රධානීන්ගේ නිවාස හැරෙන්නට අන් සියලු පෙදෙස් දැඩි අඳුරේ
ගිලී ඇත.</p>

<p>කුලීකරුවන් ජීවත් වූ නිවාස පේලි අතරින් අඳුරේම ගීත රාවයක්
පැතිර ගියේය. අපේ කරුණාවන්ත රජතුමා ව දෙවියන් වහන්සේ රැක දෙන සේක්වා! එතුමාට
ජයග්රහණය, සතුට හා කරුණාව ලබා දී අපට දිගු කලක් පාලනය කිරීමට ශක්තිය හා වරම් ලබා
දෙත්වා! දෙවියන් වහන්සේ අපේ රජතුමාව ආරක්ෂා කරත්වා... බි්රතාන්ය ජාතික ගීය..."</p>

<p>"හෙයි... කියාම් යින්, උඹේ ගීත නාදය නම් හරිම අපූරුයි.
ඒත් අපට ඒක තේරෙන්නේ නැහැ. ඒකේ තේරුම මොකක්ද?" කො ලූ ටොකේ් බිත්තියට
හේත්තු වී ගීතය ගයන තම නව හැවරිදි පුතා වූ කියාවේ යින්ගෙන් විමසුවේය.</p>

<p>බුරුම තෙල් සමාගම් පාසලේ දී ඉගෙන ගන්නා සියලුම දේ ශබ්ද
නගා කීම එම දරුවාගේ පුරුද්දක් විය.</p>

<p>"උඹගේ සින්දුවේ තේරුම කියපන් මගේ පුතේ...?"
ඔහුගේ පියා නැවතත් විමසුවේය. "ඒකේ තේරුම මොකක්ද?"</p>

<p>"මේක සින්දුවක් නෙවෙයි තාත්තේ - යාඥාවක්. අපේ
ගුරුතුමා අපට උගන්වපු එකක්." අඳුරේ තම පියා දෙස රවා බලමින් දරුවා පැවැසුවේය.</p>

<p>"මම මේ වගේ යාඥාවක් ගැන අහල නැහැ. ඒකේ් තේරුම
කියන්න." පියා තම ප්රශ්නය නැවතත් මතු කළේය.</p>

<p>"මගේ දෙවියනේ මේ මකුණන්ගෙන් තියෙන කරදරේ"</p>

<p>එසේ පවසමින් නැගීී සිටි සැමියා සහ බිරිඳ ගිනිකූරක් දල්වා
තමන්ගේ මටේටයේ නැවී ගිය තැන්වල මකුණන් සිටී දැයි පරීක්ෂා කර බැලූහ.</p>

<p>"හොඳයි, තාත්තේ මම දන්නේ නැහැ ඒක කොහොම කියනවද
කියල. ඒකේ තේරුම මෙහෙමයි. අපේ රජ්ජුරුවන් ශ්රේෂ්ඨයි. අපේ ශ්රේෂ්ඨ රජතුමාට ඉඩම් සහ
ජලය ලැබේවා! අපේ රජතුමාට දේවාශිර්වාද ලැබේවා! එසේ පවසමින් කියාවේ යින් තමා අසලින්
නිදා සිටි තම සොයුරියට වැලමිටෙන් ඇන්නේය. කෝපයට පත් මියා කියන්ට් කෑගෑවාය. "හේයි.
මම නිදාගන්න උත්සාහ කරනවා. ඔයා හයියෙන් කෑගහනවා. මට කරදර කරන්න එපා."</p>

<p>ඔහුගේ පියා නැවතත් කතාව ඇරඹුවේය.</p>

<p>"පොඩ්ඩක් හිටපන් පුතේ. උඹගේ සින්දුවෙ නැවත නැවතත්
කියනවා අපේ රජ්ජුරුවෝ ගැන. ඒත් අපට රජ කෙනෙක් නැහැනේ. කියාවූ, පුතේ අපේ
රජ්ජුරුවෝ හුඟ කාලෙකට ඉස්සරයි අරගෙන ගියේ."</p>

<p>"ඔක්කොම වැරදියි. තාත්තේ අපිට රජ කෙනෙක් ඉන්නවා.
එයා තාමත් ජීවත් වෙනවා."</p>

<p>"එහෙනම් ඒ කවුද?"</p>

<p>"එතුමාගේ නම ජෝර්ජ් රජ්ජුරුවෝ තාත්තේ එයා ඉන්නේ
විලායන්වල (බි්රතාන්යය) ඒ රට මෙහෙ ඉඳල හුඟක් දුරයි."</p>

<p>"කවුද උඹට මේව කියලා දුන්නේ?"</p>

<p>"අපේ ගුරුතුමා"</p>

<p>"ඒ ඔක්කොම වැරදියි. මා ළඟ පොතක් තියෙනවා උඹ ඒක
කියවල බලපන්. ඒක නෙමෙයි මම දැකල නැහැ උඹ වන්දනා ගාථා කියනවා."</p>

<p>"අර සින්දුව තමයි මගේ යාඥාව තාත්තේ"</p>

<p>"ඒක සින්දුවක්. මම කියන්නේ බෞද්ධ වන්දනා ගාථා. උඹ
ඒව දන්නේ නැද්ද?" පියා විමසුවේය.</p>

<p>"නැහැ"</p>

<p>"බොහොම හොඳයි, උඹ මින් පස්සේ බෞද්ධ වන්දනා ගාථා
ඉගෙන ගන්න ඕනේ." එසේ පවසමින් හේ තම පුත්රයාගේ නළල සෙනෙහසින් සිප ගත්තේය.</p>

<p>"හොඳයි මම ඒවා ඉගෙන ගන්නම්. ඒ පොත කෝ?" කියාව්
යින් විමසුවේය.</p>

<p>පියා ලාම්පුව දල්වන ලෙස තම බිරිඳට උපදෙස් දුන්නේය.</p>

<p>"ලාම්පුවට භූමිතෙල් නැහැ?" ඔහුගේ බිරිඳ මා සින්ට්
පැවැසුවාය.</p>

<p>"අපේ අවට ඕනැ තරම් තෙල් තියෙන්නේ."</p>

<p>"ඒත් අපි ඒවා සල්ලිවලට ගන්න ඕනේ. කවුරුවත් අපිට
නිකම් දෙන්නේ නැහැ. දැන් ඔක්කොමල ගිහින් නිදාගන්න" ඔහුගේ් බිරිඳ කීවාය.</p>

<p>"අපිට ඉස්සර නම් තෙල් නිකන් ලැබුණා. මතකද?"</p>

<p>"හොඳයි අපි පඩි හම්බුවුනහම තෙල් සල්ලිවලට
ගනිමු."</p>

<p>"නැහැ. එතකොටත් අපිට තෙල් සල්ලිවලට ගන්න බැහැ.
අපි ගත්තු ණය ගෙවන්න ඕනේ. හාල් ටිකක්් මිලට ගන්නත් ඕනේ. අපේ දුවට හැට්ටයක් අවශ්යයි.
අපේ පඩිය ඒකට මදි." මේ සියලු වියදම් පිළිබඳ විස්තර ඔහුගේ බිරිඳ පැවසූූ විට කෝ ලූ
ටොකේට කීමට කිසිත් නැති විය. හේ නිහඬවම සුසුමක්් හෙලුවේය.</p>

<p>තම පියාගේ පිළිතුරු සහ තම ගුරුවරයාගේ ඉගැන්වීම් පරස්පර
විරෝධි බැවින් කියාව් යින් අවුලකට මැදි විය. </p>

<p>"තාත්තා කියන්නේ ඇත්තද?" හේ විමසුවේඩ.</p>

<p>"පුතේ මම උඹට බොරු කියන්නේ නැහැ. අපිට බුරුම රජ
කෙනෙක් නැහැ. මා ළඟ පොතක් තියෙනවා උඹට ඇත්ත දැනගන්න මම ඒක කියවන්න දෙන්නම්."</p>

<p>"භූමිතෙල් කුප්පිය නැතිව අමාරුයි තාත්තේ"</p>

<p>ඔවුන්ගේ් නිවාස පේලියේ පවුල් පහක් පදිංචිව සිටී. සෑම
පවුලක්ම එකිනෙකට යාබද කාමරවල වාසය කරති. යාබද කාමරයේ පදිංචිව සිටින්නේ මෑතදි විවාහ වූ
යුවළකි. ඔව්හු නව යුවළක් මෙන්් තමන් සතුටින් හා සිනාවෙන් සිටින බව පිටතට නොපෙන්වූහ.
තම අසල්වැසියන්ට ඇසෙතැයි ඔවුහු බියෙන් හා ලැජ්ජාවෙන් පසුවූහ. "කරුණාකරල හිමින්
කතා කරන්න" බිරිඳ සැමියාගෙන් ඉල්ලා සිටියාය.</p>

<p>"මම උඹට පොත්පත් කියවන්න භූූමිතෙල් ටිකක් හොයාගෙන
එන්නම්. කොහොම වුණත් උඹ පොත්පත් කියවන්න ඉගෙන ගන්න ඕනේ. කම්මැලි වෙන්න නම්
එපා." ඔහු ශබ්ද නගා කතා කළ අතර ඔහුගේ හඬ යාබද කාමරයේ ද දෝංකාර දුන්නේය.</p>

<p>යාබද කාමරයේ සිටි සැමියා බිරිඳට මෙසේ කීවේය. "අපි
ගිහින් නිදා ගනිමු."</p>

<p>"අල්ලපු කාමරේ අය තාම නින්දට ගිහින් නැහැ. තව
පොඩ්ඩක් ඉඳිමු." ඕ පිළිතුරු දුන්නාය. දිගු සුසුමක් හෙලූ සැමියා හඬ නැගෙන්නට
මෙසේ පැවැසුවේය.</p>

<p>"හායි... කෝ ලූ ටෝකේ. දැන්් හොඳටම රෑ වෙලා නේද?
දැන් වෙලාව කීයද?"</p>

<p>"ආ... ඔව්." කෝ ලූ ටෝකේ පිළිතුරු දුන්නේය.
අනතුරුව ඔව්හු නිහඬ වූහ.</p>

<p>කෝ ලූ ටෝකේට නිදා ගැනීම දුෂ්කර විය. "මගේ් පුතා ඉගෙන
ගන්නේ ඇත්ත නොවෙයි. මේ වයසේදිත් එයා බෞෟද්ධ වන්දනා ගාථා කියවල නැහැ. එයාට පොත්
කියවන්න පුලුවන්. ඒත් ඇත්ත නොවන දේවල් කියවන එක හොඳ නැහැ." කුලීකරුවන්ගේ්
ගමේ නිහඬතාවය බිඳිමින් කම්හලේ යන්ත්රවලින් නැගෙන ඝෝෂාව ඔහුට ඇසිණ. "මම කොයිතරම්
වෙහෙසවෙලා වැඩ කළත් මට තාම ණය ගෙවා ගන්න බැරිවෙලා තියෙනවා. භූමිතෙල් ගන්න සල්ලි නැහැ.
මේ තත්ත්වයෙන් ගැලවෙන්නෙ කවදද?" හේ තමාටම මුමුණා ගත්තේය. යාබද කාමරයේ සිටින
නව යුවළ හඬ නොනැගෙන්නට සිනාසෙන හඬ ඔහුට ඇසිණ.</p>

<p>ඒ හඬින් ඔහුගේ සිතිවිලි එක වරම බිඳී ගියේය. එහෙත් හේ
දිගටම කල්පනා කරමින් තමාටම කතා කර ගත්තේය. "මම මගේ පුතාට භූමිතෙල් ගෙනත්
දෙන්නේ කොහොමද? සාගරය මැද්දේ ඉන්න කෙනෙකුට පිපාසය දැනුණ වගේ් තත්වයකයි මම
ඉන්නේ." </p>

<p>බුරුම තෙල් සමාගමේ ගබඩාවේ භූමිතෙල් ටින් ගොඩ ගසා ඇති
අයුරු ඔහු ඉදිරියේ මැවී පෙනෙන්නට විය. ඔහුට නිතරම කම්හලේ ගබඩාවට යාමට සිදුවේ. ගබඩාව
ඉදිරියේ ලොරිය නතර කරන අතර ඔහුට තනිවම ගබඩා කාමරයට ඇතුලුවීම දුෂ්කර නොවේ. ඔහුව සැක
නොකළ ගබඩා භාරකරු තෙල් ටින් බාද්දි කිසි විටක ඔහු දෙස නොබැලුවේය. මෙය හොඳ අවස්ථාවකි.
ලොරිය පිටුපස තෙල් ටින්් එකක් සැඟවීම මේ නිසා පහසුවෙන් කළ හැකිය. මෙය හොරකමක් බව ඔහුට
එකවරම හැඟීී ගියේය. හොරකම මහා පාප කර්මයක් බව ද ඔහුගේ සිහියට නැගිණ. එහෙත් හේ
තනිවම තමාටම කතා කර ගත්තේය.</p>

<p>"මේ තෙල් ලැබෙන්නේ අපේ මහන්සියෙන් පොළොව
හාරලා. ඒ නිසා ඒ තෙල් අපේ. මේ බිම ඉතිහාසේ මුල පටන්ම අයිති අපටයි. ඒ නිසා අපේ පොළවෙන්
හම්බවෙන තෙල් අයිතිත්් අපටයි. එතකොට ඒක පාප කර්මයක් වෙන්නේ කොහොමද? ඒව අපේ. අපේම
තෙල්. මම ඒක හොරකම් කරනවා. ඔව්. මම හොරකම් කරනවා." මෙම තීරණය ගත් පසු ඔහුට තමා
හුස්ම ගන්නා හඬ ඇසිණ.</p>

<p>දින කීපයකට පසු කො ලූ ටෝකෝ ගේ කාමරයේ ආලෝකයක්
දක්නට ලැබිණ. කියාම් යින් හඬ නගා පාඩම් කියවන අයුරු කෙනෙකුට අසන්නට ලැබිණ. නිවාස පේලියේ
කෙළවර නිවසේ නිවැසියන්ට පවා කියාම් යින්ගේ කටහඬ ඇසිණ. හේ් දරුවාට නිහඬව ආශිර්වාද
කළේය. එහෙත් යාබද නිවසේ නව යුවළට වේලාසනින් නින්දට යා නොහැකි විය. ඔවුනට එම ගී හඬ
ඇසුනේ ශෝක ගීීත ලෙසයි. ළමයාගේ පාඩම් කරන හඬ හා ආලෝකය දැකීමෙන් අසල්වැසියෝ ඊර්ෂ්යා
කරන්නට වූහ.</p>

<p>තම පුත්රයා හඬ නගා වන්දනා ගාථා කියනු අසා පියා අධික සතුටට
පත්විය. "දැන් මගේ පුතාට හොඳයි. එයා දැන් හොඳ මිනිහෙක් වේවි. අප අතර ඉන්න හොඳම
ළමයා එයයි." තම පුතා පිළිබඳව ඔහු තුළ ආඩම්බරයක් ඇති විය.</p>

<p>දින කීපයකට පසු කො ලූ ටෝකේ ගෙදර පඩිය මත කකුලක් පිට
කකුලක් දමාගෙන තම පුතා පිළිබඳව සිතමින්් සතුටින් පසුවනු දක්නට ලැබිණ. ආලෝකය නිසා
කාමරයේ අභ්යන්තරය පැහැදිලිව දක්නට ලැබිණ. අඩි දහය, දහය ප්රමාණයේ හතරැස් කාමරයේ වූ
එහි සිවිලිම එතරම් උස් නොවීය. ඔවුන් නිදාගත්ත මටේටවල හිස පැත්තේ සෙරෙප්පු පෙළට තබා
තිබිණ. ආහාර පිසින උපකරණ හා පිඟන් පිළිවෙළට අසුරා ඇත. මටේටයේ පහළ පැත්තේ ඔහුගේ
බිරිඳගේ ලුංජියක් මත හාල් මල්ල තබා ඇත. ඔහුගේ බිරිඳ මා සින්ට් සුරුට්ටුවක් දල්වාගෙන
සතුටින් පසුවන්නීය.</p>

<p>"ආරංචිය හම්බ වුණා ද කො ලූ ටෝකේ...?" ඕ
විමසුවාය.</p>

<p>"මොකක්ද?" ඇගේ් සැමියා ආපසු හැරී විමසුවේය.</p>

<p>"ගබඩා බාරකරු යූූ මෝනේට දඩ ගහලා"</p>

<p>ආරංචිය පිළිබඳව දැඩි උනන්දුවක් දැක්වූ කෝ ලූ ටෝකේ
"මොකක්?" යනුවෙන් විමසුවේය.</p>

<p>"ආ... ගබඩාවෙන් භූමිතෙල් ටින්් එකක් අතුරුදහන්
වෙලාලු."</p>

<p>"මොන තරම් ලැජ්ජාවක් ද?" කෝ ලූ ටෝකේ බිඳුණු
හඬින් පිළිතුරු දුන්නේය. </p>

<p>කම්හලේ විදුලි ආලෝකයෙන් බැබළෙන වීදිය දෙස හේ බලා
සිටියේය. යූූ මොනේගේ මුහුණ සහ ලොරියේ සැඟවූ භූමිතෙල් ටින්් එක ඔහුගේ දෑස්
ඉදිරියේ රඟ දෙන්නට විය. ඔහුගේ හදවත වේගයෙන් ස්පන්ධනය වන්නට පටන් ගත්තේය.</p>

<p>"මම තමයි ටින්් එක හොරකම් කළේ, ඒක මගේ වරද මගේ්
හොරකම යූ මෝනේට දඩ ගහල" හේ තමාටම ද්වේශ කර ගත්තේය. "මා නිසා තවත්
කෙනෙකු කරදරයට පත්වෙලා. යූූ මොනේ උඹ දන්නේ නැහැ උඹගේ දඬුවමට හේතුව මමයි. දොස්
ලැබිය යුතු වල් ඌරා මමයි."</p>

<p>නැගීී සිටි හේ පඩි පෙළින් පහළට බැස්සේය. ඔහුට තව දුරටත්
හිස ඔසවාගෙන සිටිය නොහැක.</p>

<p>''දැන් රෑ වෙලා කොහාටද යන්නේ?" මා සින්ට් සුරුට්ටුව
පහත හෙළමින් පැවැසුවාය.</p>

<p>"ආ... නැ මේ කිට්ටුවට" කො ලූ ටෝකේ නිවස
ඉදිරිපිට පාරේ එහා මෙහා ගියේය. ඔහු බර කල්පනාවක නිමග්නව සිටී. ඔහු කළ යුත්තේ කුමක්
ද? "ඒක මගේ් වරද. මම මගේ් ජීවිතයේ කවරදාවත් හොරකම් කරල නැහැ. ඒ වගේ කාලකණ්ණි
වැඩක් කවරදාවත් කරල නැහැ. මගේ වරද නිසා තවත් කෙනෙක්් අමාරුවේ වැටිලා. මම මිනිහෙක් වගේ
වැඩ කරල නැහැ. මම බල්ලෙක්. මම මිනිහෙක් වගේ ජීවත්වෙන්න වටින්නේ නැහැ. මේ පොහොසත්
මිනිස්සුන්ට මේ වගේ් සුන්ථ හොරකමක්වත් ගණන් නොගෙන ඉන්න බැහැ. උන් දඬුවම් කරල
තියෙන්නේ අහිංසකයාට. සැමදාම තෙල් ටොන් දශ ලක්ෂ ගණන් ගන්න උන්ට භූූමිතෙල් බෝතල් 10 ක
ටින්් එකක්් හොරකම් කරපු මිනිහෙකුට දඬුවම් කරන්නේ කොහොමද? දුප්පත් අපි වගේ අය ගැන
කිසිම අනුකම්පාවක් නැද්ද? මේ තෙල් අපේ. අපේ මව්බිමේ. තෙල් බෝතල් කීපයක් නැතිවුණයි කියල
අපිට දඬුවම් කරන්න උන්ට තියෙන අයිතිය මොකක් ද? උන්් දඬුවම් කරන්නේ කොහොමද?"</p>

<p>හේ් තම කාමරය දෙස බැලුවේය. ඔහුගේ් බිරිඳ මටේටය මත දිග
ඇදී සිටින්නීය. කුඩා කුප්පි ලාම්පුව ඔවුන්ගේ කාමරයේ දීප්තියෙන් බැබළෙයි. තමාගේ වරද
නිසා යූූ මොනේට දඬුවම් ලැබී ඇති බව ඔහුට වැටහිණ. එම දඩ මුදල ගෙවිය යුත්තේ තමා බව
ඔහුට සිහි විය. ඒ සඳහා මුදල් හොයා ගත යුතුය. ඔහු කාමරය අවට බැලුවේය. හදිසියේම ඔහුට
තම දියණියගේ ඇඟිල්ලේ දිළිසෙන මුද්ද දක්නට ලැබිණ. "මේක හදල තියෙන්නේ්
රත්තරන්් ටිකක් මිශ්ර කරපු තඹවලින්. මට අදහසක් ආවා" හේ තමාටම කියා ගත්තේය.</p>

<p>"මම මේ මුද්ද යූූ මොනේට යවනවා. ඒත් මේ මුද්ද එව්වේ
කව්ද කියල එයාට දැනගන්න ඉඩක්් තියන්නේ නැහැ. එතකොට එයාට පුලුවන් මුද්ද රුපියල් කීයකට
හරි විකුණල දඩයෙන් කොටසක් ගෙවන්න."</p>

<p>එසේ සිතමින් හේ තද නින්දේ පසුවන තම දියණිය වෙත හෙමිහිට
ළං වූවේය. දියණියගේ මෘදු ඇඟිල්ලෙන් මුද්ද ඉවතට ඇද ගැනීම එතරම් පහසු නොවීය. ඇගේ
ඇඟිල්ලේ මුද්ද කදිමට බැබළෙමින් ඇත. එය ඉවතට ගැනීට ඔහුගේ සිත ඉඩ නොදෙයි. හේ් ටික
වේලාවක්් ඒ දෙස බලා සිටියේය.</p>

<p>පසු දින උදෑසන ඔහුගේ දියණිය මායා කියන්ට් අවදි වූවාය. ඇයට
තම පියා දක්නට නොලැබිණ. මුහුණ සෝදා පිසදා ගත්් ඇයට තම මුද්ද නොමැති බව වැටහිණ. ඇය
මටේටය වෙත ගොස් පොරෝනය හා මටේටය පෙරළමින් කනස්සල්ලෙන් යුතුව මුද්ද සවේවාය.</p>

<p>අනතුරුව ඕ තම මව අවදි කළාය. "අම්මෙ කරුණාකරල
නැගිටින්න. මගේ් මුද්ද නැතිවෙලා?" </p>

<p>"ඔව්" මායා කියෙන්ට් මැතිරුවාය.</p>

<p>මව තම පුතාව අවදි කර මුද්ද ගැන විමසුවාය.</p>

<p>"මගේ මුද්ද නැතිවෙලා ඔයා ඒක ගත්තද?" මායා
කියාන්ට් තම සොහොයුරාගෙන් විමසුවාය.</p>

<p>"ආ... මම ඔයාගේ මුද්දෙන් මොනව කරන්නද?"
සොහොයුරා ගේ පිළිතුර විය.</p>

<p>"නැහැ, ඔයා හොරකම් කරන්න ඇති ඕ චෝදනා කළාය. ඔව්හු
සණ්ඩු වීමට පටන් ගත්හ. "බලන්න ලාම්පුව නිසා කෙනෙකුට මුද්ද හොඳට පේනවා. ඒක නිසා
ඒත හොරකම් කරලා" සොයුරිය කීවාය.</p>

<p>මේ අතර ඔවුන්ගේ පියා කො ලූ ටෝකේ පැමිණියේය. කාරණය
කුමක් දැයි විමසමින් හේ දිව ආවේය. මුද්ද නැති වූ බව සියල්ලන් වෙනුවෙන්් මව පැවැසුවාය.</p>

<p>"සණ්ඩුව නවත්තපල්ලා දෙන්නම. එහෙම නැත්නම් මම
දෙන්නටම ගහනවා. නවත්තපල්ලා" පියා දෙදෙනාටම කෑගැසුවේය. හේ තම දියණියගේ දුක්බර
මුහුණ දෙස බලමින් භූමිතෙල් ටින්් එක පිළිබඳව පිළිකුලෙන් කල්පනා කළේය.</p>

<p>මොහොතකට පසු හේ භූමිතෙල් ටින්් එක ගෙන එය පොළව මත
හැලුවේය.</p>

<p>"මේ තෙල් අපේ ගෙදර කරදර ඇති කළා. මගේ ළමයි දෙන්න
සණ්ඩු වුණා. මගේ් මිත්රයාට කරදර කළා. මාව නීච මිනිහෙක් බවට පත්්කළා. දැන්්මේ පව්කාර තෙල්
ගියාවේ" හේ මුමුණමින් අන්තිම භූමිතෙල් බිංදුව දක්වා පොළව මත හැලුවේය. </p>






</body></text></cesDoc>