<cesDoc id="sin-w-fiction-novel-14" lang="sin">
<cesHeader type="text">
<fileDesc>
<titleStmt>
<h.title>sin-w-fiction-novel-14.txt</h.title>
<respStmt>
<respType>Electronic file created by</respType>
<respName>Department of Linguistics, Lancaster University</respName>
<respType>text collected by</respType>
<respName>Vincent Halahakone</respName>
<respType>transferred into Unicode by</respType>
<respName>"Unicodify" software by Andrew Hardie</respName>
</respStmt>
</titleStmt>
<publicationStmt>
<distributor>UCREL</distributor>
<pubAddress>Department of Linguistics, Lancaster University, Lancaster, LA1 4YT, UK</pubAddress>
<availability region="WORLD"></availability>
<pubDate>03-08-26</pubDate>
</publicationStmt>
<sourceDesc>
<biblStruct>
<monogr>
<h.title>File from written Sinhala corpus collected by Vincent Halahakone, dated xx-xx-xx</h.title>
<h.author>unknown</h.author>
<imprint>
<pubPlace>Sri Lanka</pubPlace>
<publisher>unknown</publisher>
<pubDate>xx-xx-xx</pubDate>
</imprint>
</monogr>
</biblStruct>
</sourceDesc>
</fileDesc>
<encodingDesc>
<projectDesc>Text collected for use in the EMILLE project.</projectDesc>
<samplingDesc>Simple written text only has been transcribed. Diagrams, pictures and tables have been omitted and their place marked with a gap element.
</samplingDesc>
<editorialDecl>
<conformance level="1"></conformance>
</editorialDecl>
</encodingDesc>
<profileDesc>
<creation>
<date>03-08-26</date>
</creation>
<langUsage>Sinhala</langUsage>
<wsdUsage>
<writingSystem id="ISO/IEC 10646">Universal Multiple-Octet Coded Character Set (UCS).</writingSystem>
</wsdUsage>
<textClass>
<channel mode="w">print</channel>
<constitution type="composite"></constitution>
<domain type="public"></domain>
<factuality type="fact"></factuality>
</textClass>
<translations></translations>
</profileDesc>
<revisionDesc></revisionDesc>
</cesHeader>

<text>
<body>




<p> </p>

<p>විදෙස්
කෙටිකතාව</p>

<p> </p>

<p>බෙසී හඩේ</p>

<p>දකුණු
අප්රිකානු ජාතික බෙසී හඩේ (Bessie
Head) නමැති ලේඛිකාවගේ .ඛදදනසබට දෙර ් ඍ්සබ ඨදා. නමැති කෙටිකතාවේ පරිවර්තනයයි.</p>

<p> </p>

<p>බෙසී හඩේ 1937 දී
දකුණු අප්රිකාවෙ උපත ලැබුවද මවු රටින් පිටවූ ඇය වාසය කළේ බොට්ස්වානා වලය. මේ
නිසා ඇගේ සාර්ථක නවකතා බොහොමයකට පසුබිම වී ඇත්තේ බොට්ස්වානා සමාජයයි.</p>

<p> </p>

<p>නවකතා ලිවීමේදී මෙන්ම
කෙටිකතාවේදී ඇය දක්වා ඇත්තේ එක හා සමාන දක්ෂතාවයකි.</p>

<p> </p>

<p> </p>

<p>වැස්ස වලාහක දෙවියනි</p>

<p> </p>

<p>ගොවි බිම පිහිටා
තිබුණේ පාන්ථ ප්රදේශයකය. මේවා කැලෑව එලිකොට සකස් කරන ලද විශාල ගොවි බිම්ය. කැලෑව
තුළ ඇත්තේ ද පාන්ථ බවකි. සියලුම ගොවි බිම් ගම්මානයේ සිට පයින් යා හැකි දුරකින්
පිහිටියේ ය.</p>

<p> </p>

<p>කැලෑවෙහි සමහර
පෙදෙස් වල පොළොව යට ජල මට්ටම ඉතා ළඟින්ම තිබු අතර ගොවීහු මෙම පෙදෙස්වල පුංචි
පැල්පත් තනා ගත්හ. පිපාසය සංසිඳවා ගැනීම සඳහා ළිං හාරා ජලය ලබාගත් ඔවුහු ගොවි
බිම් වෙත යන අතරමග මෙම පැල්පත් වල නැවතී වෙහෙස නිවා ගත්හ.</p>

<p> </p>

<p>ගමෙන් පිටව ගිය පසු
ඔවුහු විවිධ අත්දීකීම්වලට මුහුණ දුන්හ. මනරම් සිසිල් සෙවනැලි යටට වී ඔවුහු ගිමන් හැරියහ.
රන්වන් හා දම්පාට මලින් පිරි එකිනෙකට යාව වැඩී උස්ව නැගී ඇති රුප්පා වලට වී විවේකයෙන්
පසු වූහ. ළමෝ වල් ඌරන් දඩයමේ ගියහ. පලතුරු කාලය නම් කැලෑ පලතුරු සොයමින්
වනරොද පීරූහ.</p>

<p> </p>

<p>මේ සියල්ල,
1958 දී ඇති වූ නියඟය නිසා වෙනස් විය. දිය පිරි බිම් කටු පඳුරු වලින් ගහණ වියලි බිම් බවට
පත්ව අසරණ විය. ගස්වල කොළ වියලී මැල වී ගියේ ය. එක යායට වැඩී ගස් යට තිබූ දිය
සෙවෙල වියලී ගණ බවට පත් විය. දොවිල්ලෙන් පිරුන පොළොව කන්ථ සුදු පැහැ ගත්තේය.</p>

<p> </p>

<p>මේ සියලු විපර්යාසයන්
වර්ෂාව නොමැති නිසාය. කෝප්පයකට වැසි වතුර එකතු කර ගැනීමට උත්සාහ කළහොත්
එකතුකර ගත හැක්කේ පුංචි තේ හැන්දක් පමණක් බව ගම්මු කතාවට කීහ.</p>

<p> </p>

<p>නියඟයෙහි හත්වන
අවුරුද්ද උදාවත් සමඟම ශ්රීස්ම සෘතුව ගෙන දුන්නේ ඉවසිය නොහැකි වේදනාවකි. වාතයෙහි
උණුසුම කෙතෙක් දීඩි වීද යත් ඇඟෙහි හම පිච්චී ගියේය. උණුසුමින් ගැලවීම සඳහා කුමක් කළ
යුතු දීයි කිසිවෙක් නොදත්හ. සියල්ල එකම ඛෙදවාචකයක් බවට පත් විය.</p>

<p> </p>

<p>ශ්රීෂ්ම සෘතුව මුලදී
තම ගෙවල් වලින් පිටව ගිය මිනිස්සු කීප දෙනෙක් ගෙල වැල්ලාගෙන සිය දිවි වසා ගත්හ.</p>

<p> </p>

<p>වැඩි දෙනෙකු ගොවි බිම්
අතහැර ගිය අතර නියඟ පටන් ගෙන දෙවසක් යත්ම සියලු දෙනාම ආපසු ගියේ උයන පිහන මෙවලම්
ටිකත්, නිදියන පැදුරු කබල් කීපයත් සමඟ රැලි වැටුන ඇඟ පතද පමණක් ඉතිිරි කර ගෙනය.</p>

<p> </p>

<p>ගොඩ වෙද්දු,
මන්තරකාරයේ සහ යකැදුරෝ මේ කාලයේ දී යහමින් මුදල් ඉපැයූහ. කරකියා ගත හැකි කිසිවක්
නොමැතිව අසරණ වූ මිනිසුන් නිතර ඔවුන් වෙත ගියේ වැස්ස හා ධාන්ය ලබා ගැනීම සඳහා
ගුරුකමක් හෝ වෙනත් කිසියම් පිළියමක් කරවා ගැනීමටය.</p>

<p> </p>

<p>එම අවුරුද්දේ ද
වැසි නොලැබුණි. එහෙත් නොවැම්බර් මාසය වන විට අහසේ මන්දාරමක් ඇති විය. එය මහා
වැස්සක පෙර නිමිත්තක් යයි ගම්මුන් සිතුවද ලැබුණේ තැනින් තැන ඇද හැන්ථන මඳ වැස්සක්
පමණි. ඉන් පොලොව මෙලෙක් වූ අතර සතුන්ට උලා කෑ හැකි නිල්ල හැම තැනම මතු විය.</p>

<p> </p>

<p>ගම්මානය වෙත මිනිසුන්
කැඳවන ලද්දේ ධාන්ය වගා කළ හැකි කාලය පටන් ගත් බව දීනුම් දීමට ය. සියලුම පවුල් ආපසු
ගොවි බිම් වෙත ඇදුනේ ගොවිතැන් කටයුතු සඳහා බිම් සකස් කිරීමටය.</p>

<p> </p>

<p>මොකොබ්ජා මහල්ලාගේ
පවුලද මෙසේ ගොවි බිම් වෙත ආපසු ගිය පවුල් අතරින් එකකි. බූරුවකු බැඳි කරත්තයට ඔවුන්
විසින් සියලු දේම පටවා ගන්නා ලදී. මොකොබ්ජා වයස හැත්තෑවද ඉක්ම වූවෙකි. ඒ පවුලේ
නියෝ සහ බෙසියොං නමින් පුංචි ගැහැණු දරුවන් දෙදෙනෙකි. අම්මාගේ නම ටීරෝ ය. ඇගේ
අවිවාහක සොවුරිය නෙස්ටා ය. පියා රටාච් පවුලෙහි බර කරට ගත් තැනැත්තාය. රමාඩ් කරත්තය
දීක්කුවේය.</p>

<p> </p>

<p>පළමු වැස්සෙන්
පසු ඔවුහු එක්ව කටු පඳුරු වලින් පිරී තිබූ බිම ශුද්ධ කළහ. ඉක්බිති තම විශාල ගොවි බිම
අවුරා වැට බඳින ලද්දේ. කිරි ලබා ගැනීම සඳහා ගෙන ආ එන්ථවන් ගෙන් ධාන්ය ආරක්ෂා කර
ගැනීමේ බලාපොරොත්තු වෙනි. පරණ ළිඳෙහි මඩ ඉවත් කොට යළි පිළිසකර කරන ලදී.
තවමත් මහවැසි නොලැබුනද රමාඩ් විසින් ගොනුන් දෙදෙනෙකු යොදා භූමිය හාන ලදී.</p>

<p> </p>

<p>ඉක්බිති බීජ වැපිරූ
ඔවුහු අස්වැන්න පිළිබඳ බලාපොරොත්තු ඇති කර ගත්හ. ගොදුරු සොයා යන පුංචි කෘමි
සතුන්ගේ හඬින් රාත්රී කාලය ප්රාණවත් බවක් ඉසිලුවේ ය. </p>

<p> </p>

<p>එහෙත් හදිසියේම
නොවැම්බර් මාසයේ මැද භාගය වන විට වැස්ස යලි නෙඑන ලෙස පැන ගියේය. අහස හිස්ව තුබුණි.
පෙර නොවූ විරූ අයුරින් දිලිසුන හිරු අහසෙහි රැඟුම් පෑවේය. හැම දිනකම මුන්ථ ප්රදේශයම මිහිඳුම්
පටලය කින් වැසී ගිය අතර පොළොවෙහි ඉතිරිව තිබූ අන්තිම තෙතමනය ද හිරු විසින්
උරාගන්නා ලදී.</p>

<p> </p>

<p>මොකොබ්ජාගේ
පවුලෙහි අය බලාපොරොත්තු ශුන්ය වී යළිත් වැහි එනතෙක් බලා සිටියහ. ඔවුන්ගේ බලාපොරොත්තු
උත්සන්න වී තුබුණි. එන්ථ කිරි සමග තලප අනා කෑමට පුරුදුවී සිටි ඔවුහු දීන් කිරි නොමැතිවම
තලප කෑහ. වියලී ගිය බිමෙහි ධාන්ය. වට්ටක්කා හෝ පැණි කොමඩු වගාව කිසිසේත් කළ
නොහැකි විය. මුන්ථ දවසම ගෙතුළට වී නිහඬව ගත කළ ඔවුහු යමක් සිතීම පවා අත්හැර
දීමූහ.</p>

<p> </p>

<p>වර්ෂාව සම්පූර්ණයෙන් ම පලා
ගොසිනි. පුංචි දීරිවියන් දෙදෙනා වූ නියෝ සහ බෙසියොං පමණක් ඔවුනට සීමා වූ ළමා
ලෝකය තුළ සතුටින් පසු වූහ. ඔවූහු සෙල්ලම් ගෙවල් හදමින් එකිනෙකාට සුරතල් බසින්
කතාකර ගත්හ. කෝටු කෑලි වලින් බෝනික්කන් සදා ඒවාට රෙදි කැලි ඇන්ද වූහ. සමහර
විටෙක බෝනික්කන්ට සැර වැර කළේ තම මව වගේමය. ඔවුන්ගේ ඒ සුරතල් කටහඬ මුන්ථ දවස
පුරාම ඇසුණි.</p>

<p> </p>

<p>''මෝඩි.... ඔයා
වතුර බාල්දි යෙන් බාගයක්ම හලාගෙන ඇවිත්'' ඉක්බිති ඔව්හු තම බෝනික්කන්ගේ තට්ටම්
පෙදෙසට දඬුවම් කළහ.</p>

<p> </p>

<p>පවුලේ වැඩිහිටියෝ
මේ පිළිබඳව කිසි අවධානයක් යොමු නොකළහ. දීරියන්ගේ හුරතල් කටහඬ පවා ඔවුන්ට
නොඇසුණි. අහසින් වැටෙන දිය බිඳක් බලාපොරොත්තු වෙන් ඔවුන් තුළ වූ හැඟීම් පුපුරා
යන තරම් ඉහළට ඇදී ගොසිනි. ඉන් බාහිර කිසිවක් ඔවුනට වැදගත් නැත.</p>

<p> </p>

<p>ආහාර මිලදී ගැනීම
පිණිස ඔවුන් තමන් සතුව සිටි සියලුම සතුන් මේ වනවිට විකුණා දමා තුබුණි. ඉතිරිව සිටියේ
එන්ථවන් දෙදෙනෙකු පමණි.</p>

<p> </p>

<p>අන්තිමේ දී නියඟයෙහි
සාපයෙන් දීඩි ලෙස පීඩාවට පත් වූයේ පවුලෙහි ගැහැණුන් ය. ඇත්තෙන් ම පුංචි දැරිවියන්
දෙදෙනාගේ මරණය සිදු කළේ ද ගැහැණුන් දෙදෙනා ය. හැම රැයකදී ම ඔව්හු බිහිසුණු
උද්වේගකර වැලපීමක් සෙමෙන් සෙමෙන් පටන් ගෙන අන්තිමේදී දුක්මුසු වියරු හඬකින් නිම
කළහ. ඉක්බිති තම පා පොළොවෙහි හප්පමින් උමතුවෙන් මෙන් කෑ ගැසූහ.</p>

<p> </p>

<p>මිනිස්සු නිහඬව ආත්ම
සංයමයකින් යුතුව හිඳගෙන සිටියහ. ඔවුන්හට තම ආත්ම සංයමය පවත්වා ගැනීම නිතරම අවශ්ය
විය. එහෙත් ඔවුන්ගේ ද හැඟීම් බිඳී දෙදරා ගොස් තුබුණි. ඊලඟ වසරෙහි ද මුහුණ පෑමට සිදුවන
සාගින්නෙහි බිහිසුණු බව විසින් ගැහැණුන් උමතු භාවයට හෙළා ඇති බව ඔව්හු දීන සිටියහ.</p>

<p> </p>

<p>මොකොබ්ජාගේ මනසට
ඉපැරණි මතකයක් හදිසියේම නැගි ආවේ මේ අවස්ථාවේදීය. තමා කුඩා කාලයේදී තම
මුතුන්මිත්තන් අනුගමනය කළ චාරිත්ර විධි විසින් දේශය පාලනය කළ අවධියේදී, වැසි
ලබා ගැනීම සඳහා කරන ලද එක්තරා පූජාවක් මොකොබ්ජා විසින් දීන තිබුණි.</p>

<p> </p>

<p>ඔහුගේ සිත ප්රාණවත්
විය. අවුරුදු බොහෝ ගණනකට පෙර සිදුවූ, කාලයේ වැලිතලා වෙන් වැසී ගිය එම සිදුවීම්
මතක් කර ගැනීමට ඔහු උත්සාහ ගත්තේය. සිද්ධිය ටිකින් ටික පැහැදිළිවත් ම ඔහු තම පුතු
රමාඩ් සමග කිසිවක් රහසේ සාකච්ඡා කළේ ය. කුඩා දරුවන් පමණක් බිලි ගන්නා එක්තරා වැස්ස
වලාහක දෙවිකෙනෙකු ගැන තමා දන්නා බවත්, බිලි පූජාවෙන් පසු වැහි ලැබී ධන ධාන්ය
සරුවන බවත් ඔහු විස්තර කළේ ය. බිලි පූජාව පැවැත්විය යුතු ආකාරය ද ඔහු විසින්
විස්තර කරන ලදී. ඔහුගේ මතකය ස්ථිර විශ්වාසයක් බවට පත්වූ අතර, ඔහු කතාකළේ
නොසැලෙන ශක්තියකින් යුතුව ය.</p>

<p> </p>

<p>රාත්රී කාලයේදී
ගැහැණුන් විසින් නගනු ලබන බිහිසුණු විලාපය නිසා මේ වන විට රාමාඩ් ද වියරු වැටී සිටියේ ය.</p>

<p> </p>

<p>ඉක්බිති මිනිස්සු
දෙදෙනා එක්ව ගැහැණුන් දෙදෙනා සමග රහස් සාකච්ඡාවක් කළහ. මේ කිසිත් නොදත් කුඩා
දීරියන් දෙදෙනා කාලය ගත කළේ පුරුදු පරිදි සෙල්ලම් කරමින් ය.</p>

<p> </p>

<p>''මෝඩි... ඔයා
සල්ලි සේරම නැති කරගෙන.... සෙල්ලම් කරන්න ඇති....''</p>

<p> </p>

<p>සියල්ල නිමා විය.
කුඩා දීරියන් දෙදෙනාගේ බිලිඳු මළ සිරුරු ගොවි බිම මත අතුරා තුබුණි.</p>

<p> </p>

<p>එහෙත් වැසි නො
වැස්සේය. ඒ වෙනුවට දහවල් කාලය පුරා පුපුරු ගසන උණුසුමකුත් රාත්රිය මුන්ථල්ලේ
බිහිසුණු නිහඬතාවයකුත් රජ කළේය. අතිශයින් ගැඹුරු භීෂණත්වයක් විසින් මුන්ථ පවුලම
වෙලා ගන්නා ලදී. නිදියන පැදුර හා හැලි වළං ආදිය අහුරාගත් ඔවුහු ගම්මානය බලා වහා
ආපසු පිටත්ව ගියහ.</p>

<p> </p>

<p>කුඩා දීරියන්
දෙදෙනාගේ නොපැමිණීම ඉතා ඉක්මනින්ම ගම්වාසීන්ගේ උකුසු ඇසට ලක් විය.</p>

<p> </p>

<p>දීරියන් දෙදෙනා ගොවි
බිමේදී මියගිය බවත්, එහිදීම භූමදාන කළ බවත් පවුලේ අය කීහ. එතේ ඔවුන්ගේ
බියෙන් හැකිලුණු, අඳුරු මුහුණු ගම්වාසීන් තුළ ඇති කළේ කුතුහලයකි.</p>

<p> </p>

<p>ගම්වාසීහු තැනින් තැන
රහසේ සාකච්ඡා කළහ. දීරියන් මියගියේ කුමන හේතුවක් නිසා දීයි දීන ගැනීමට ඔවුන්ට
උවමනා විය. දරුවන් නිකම්ම මියගිය බව පවුලේ අය කීහ.</p>

<p> </p>

<p>මරණ දෙකම එක් වරම
සිදුවීම පුදුමයක් යයි ගම්මු කතා වූහ. පවුලේ අයගේ අස්වාභාවික හැසිරීම මේ වන විට කිසියම්
අසහනකාරී තත්ත්වයක් උදාකර තුබුණි.</p>

<p> </p>

<p>අවසානයේදී කෙසේ
හෝ මෙම සිද්ධිය හා සම්බන්ධවීමට පොලීසියට සිදුවිය. පවුලේ අය පොලීසිය සමග පැවසුවේද
ගම්මුන් හට පැවසූ පරිදි දීරියන් දෙදෙනා ගොවිබිමේදී මියගිය බවත් එහිම වළ දමන ලද බවත්ය.
ඔවුන් මියගියේ කුමන හේතුවකින්දීයි තමන් නොදන්නා බව ඔවුහූ පැවසුහ.  දරුවන් වළ දීමු ස්ථානය බැලීමට පොලිස්
නිලධාරීන් හට උවමනා විය.</p>

<p> </p>

<p>බිහිසුණු ශ්රීස්ම
සෘතුවේ මුන්ථ කාලය තුළම කුඩා දීරියන් පිළිබඳ මෙම ඛෙදවාචකය, දුක්මුසු කන්ථ
වලාවක් මෙන් මුන්ථ ගම්මානයම වසා ගත්තේය.</p>

<p> </p>

<p>බිලි පූජා සඳහා මිණී
මැරීමේ චෝදනා උඩ මහල්ලාට සහ රමාඩ්ට මරණ දඬුවම පැමිණ වූවද මෙම දුක්බර කතාන්තරයෙහි
අඳෝනාව ගම්මානය තුළින් පලා නොගියේය.</p>

<p> </p>

<p>අධිකරණ ලේඛනවල
ලියැවුනේ බිලිපූජා සඳහා මිනී මැරීම තහනම් බවත් එය මරණ දඬුවම හිමි අපරාධයක් බවත් ය.
සාගින්නෙහි හා අනාථභාවයේ කුරිරුකම පිළිබඳ දුක්මුසු, හැඟුම්බර කතාව උසාවියට
වැදගත් නොවීය.</p>

<p> </p>

<p>එහෙත්
නියඟයෙන් පීඩා විඳි සියලුම ගම්වාසීහු මොකොබ්ජා පවුලට අයත් වූ ඉරණමෙන් තම පවුල්
ගැලැවුනේ අනූනමයෙන් බව දීන සිටියහ.</p>

<p> </p>

<p>වර්ෂාව වෙනුවෙන්
ඔවුනට කවුරුන් හේ මරා දීමිය හැකිව තිබුණි.</p>

<p> </p>

<p>පරිවර්තනය ජේ.කේ.
කුමාරදාස</p>

<p> </p>

<p>විවරණ  - කෙá;dj</p>

<p>1993 අප්රේල් - අංක 71</p>




<p> </p>






</body></text></cesDoc>