<cesDoc id="tam-w-dinakaran-politics-03-03-12" lang="tam">
<cesHeader type="text">
<fileDesc>
<titleStmt>
<h.title>tam-w-dinakaran-politics-03-03-12.txt</h.title>
<respStmt>
<respType>Electronic file created by</respType>
<respName>Department of Linguistics, Lancaster University</respName>
<respType>text collected by</respType>
<respName>Paul Baker and Celia Worth</respName>
<respType>transferred into Unicode by</respType>
<respName>"Unicodify" software by Andrew Hardie</respName>
</respStmt>
</titleStmt>
<publicationStmt>
<distributor>UCREL</distributor>
<pubAddress>Department of Linguistics, Lancaster University, Lancaster, LA1 4YT, UK</pubAddress>
<availability region="WORLD"></availability>
<pubDate>03-08-24</pubDate>
</publicationStmt>
<sourceDesc>
<biblStruct>
<monogr>
<h.title>"Dinakaran" internet news (www.dinakaran.com), news stories collected on 03-03-12</h.title>
<h.author>Dinakaran</h.author>
<imprint>
<pubPlace>Tamil Nadu, India</pubPlace>
<publisher>Dinakaran</publisher>
<pubDate>03-03-12</pubDate>
</imprint>
</monogr>
</biblStruct>
</sourceDesc>
</fileDesc>
<encodingDesc>
<projectDesc>Text collected for use in the EMILLE project.</projectDesc>
<samplingDesc>Simple written text only has been transcribed. Diagrams, pictures and tables have been omitted and their place marked with a gap element.
</samplingDesc>
<editorialDecl>
<conformance level="1"></conformance>
</editorialDecl>
</encodingDesc>
<profileDesc>
<creation>
<date>03-08-24</date>
</creation>
<langUsage>Tamil</langUsage>
<wsdUsage>
<writingSystem id="ISO/IEC 10646">Universal Multiple-Octet Coded Character Set (UCS).</writingSystem>
</wsdUsage>
<textClass>
<channel mode="w">print</channel>
<constitution type="composite"></constitution>
<domain type="public"></domain>
<factuality type="fact"></factuality>
</textClass>
<translations></translations>
</profileDesc>
<revisionDesc></revisionDesc>
</cesHeader>

<text>
<body>




<p>எதிர்க்கட்சி
எம்.பி.க்கள் அமளி எதிரொலி, ஈராக் விவகாரம்: பாராளுமன்றத்தில் பிரதமர் இன்று
அறிக்கை தாக்கல் </p>

<p> </p>

<p>புதுடெல்லி, மார்ச் 12- ஈராக் விவகாரம் தொடர்பாக
பாராளுமன்றத்தில் பிரதமர் வாஜ்பாய் இன்று அறிக்கை தாக்கல் செய்கிறார். </p><p>
</p><p>
ஈராக் விவகாரம் குறித்து பிரதமர் வாஜ்பாய் நேற்று முன்தினம் கூட்டிய அனைத்துக் கட்சி
கூட்டத்தில் பொது கருத்து ஏற்படவில்லை. ஈராக் மீது போர் தொடுக்க அமெரிக்கா
தன்னிச்சையாக எடுக்கும் நடவடிக்கையை கண்டித்து பாராளுமன்றத்தில் தீர்மானம் நிறைவேற்ற
வேண்டும் என்பதில் கருத்து வேறுபாடு ஏற்பட்டது. </p><p>
</p><p>
இந்த நிலையில் மாநிலங் களவையில் நேற்று கேள்வி நேரம் முடிந்ததும் காங்கிரஸ் உறுப்பினர்
பிரணாப் முகர்ஜி ஈராக் பிரச்சினையை எழுப்பி னார். ஈராக் விவகாரம் குறித்து
விவாதிக்க அனைத்துக் கட்சி கூட்டத்தை கூட்டினால் போதாது. அரசு எடுக்கும் நடவடிக்கைகள்
குறித்து அவையிலும் தெரிவிக்க வேண்டும். ஈராக் விவகாரம் தொடர்பாக பிரதமர் எப் போது
மாநிலங்களவை யில் அறிக்கை தாக்கல் செய்வார் என்று பிரணாப் முகர்ஜி கேட்டார். </p><p>
</p><p>
சுஷ்மா பதில் </p><p>
</p><p>
இதையடுத்து பாராளு மன்ற விவகாரத்துறை அமைச் சர் சுஷ்மா சுவராஜ் பேசுகை யில், பிரதமர்
அல்லது வௌி யுறவுத் துறை அமைச்சர் அவை யில் அறிக்கை தாக்கல் செய்ய வேண்டும் என்று
மாநிலங் களவை தலைவர் கூறி உள்ளார். இதன்படி வௌி யுறவுத் துறை அமைச்சர் யஷ் வந்த்
சின்கா அறிக்கை தாக்கல் செய்ய தயாராக உள்ளார் என் றார். இதை கேட்டதும் எதிர்க்
கட்சி உறுப்பினர்கள் அனைவரும் எழுந்து நின்று வௌியுறவு அமைச்சர் அறிக்கை தேவையில்லை.
பிரதமர் வாஜ்பாய் வந்து விளக்கம் தர வேண்டும் என்று கோஷம் போட்டனர். காங் கிரஸ்
உறுப்பினர்கள் பலர் ஒரே நேரத்தில் பேசியதால் அவையில் கூச்சல்- குழப்பம் நிலவியது. </p><p>
</p><p>
30 நிமிடம் அமளி </p><p>
</p><p>
காங்கிரஸ் உறுப்பினர்கள் தொடர்ந்து தங்கள் கோரிக் கையை வலியுறுத்தியதால் அவையில் 30
நிமிடங்கள் கூச்சல் குழப்பம் நிலவியது. இதை தொடர்ந்து அமைச்சர் சுஷ்மா பேசுகையில்,
ஈராக் விவகாரம் தொடர்பாக பிரத மர் வாஜ்பாய் தான் அறிக்கை தாக்கல் செய்ய
வேண்டும் என்று உறுப்பினர்கள் விரும்பு கிறார்கள். எனவே பிரதமர் தக்க நேரத்தில்
அவையில் அறிக்கையை படிப்பார் என்றார். இதையடுத்து அவை யில் அமைதி திரும்பியது. </p><p>
</p><p>
இன்று பேசுகிறார் </p><p>
</p><p>
பிறகு அமைச்சர் சுஷ்மா நிருபர்களிடம் கூறுகையில், பிரதமர் வாஜ்பாய் புதன்கிழமை(இன்று)
பாராளுமன்றத்தின் இரு அவைகளிலும் ஈராக் விவகாரம் தொடர்பாக அறிக்கை தாக்கல் செய்து
பேசு வார். மக்களவையில் மதியம் 12 மணிக்கும், மாநிலங்களவையில் மதியம் 12.45 மணிக்கும்
பிரதமர் அறிக்கை தாக்கல் செய்வார் என்றார். </p><p>
</p><p>
போருக்கு எதிர்ப்பு </p><p>
</p><p>
இதற்கிடையே டெல்லியில் நேற்று நடந்த பா.ஜ. எம்.பி.க் கள் கூட்டத்தில் பிரதமர்
வாஜ்பாய் பேசுகையில், ஈராக் மீது அமெரிக்கா தன்னிச்சையாக போர் தொடுப்பதை இந்தியா
எதிர்க்கிறது. அதே நேரத்தில் ஒரு வேளை போர் தொடுக்கப் பட்டால் நாட்டின் நலனை காக்க
அனைத்து நடவடிக்கை களையும் எடுப்போம் என்றார். </p>

<p> </p>

<p> </p>

<p>நேரு பிறந்த நாளை
குழந்தைகள் தினமாக கொண்டாடும் போது என் பிறந்த நாளை அரசு விழாவாக
கொண்டாடக்கூடாதா? மாயாவதி கேட்கிறார் </p>

<p> </p>

<p>புதுடெல்லி, மார்ச்.12- நேரு பிறந்தநாளை குழந்தைகள் தினமாக
கொண்டாடும்போது என் பிறந்தநாளை அரசு விழாவாக கொண்டாடக்கூடாதா என்று மாயாவதி கேள்வி
எழுப்பி உள்ளார். </p><p>
</p><p>
உத்தரபிரதேச முதல்வர் மாயாவதி ஊழல் புகாரில் சிக்கிக் கொண்டுள்ளார். அதற்கான வீடியோ
ஆதாரங்களை எல்லாம் வௌியிட்டு மாயாவதியை சமாஜ்வாதி கட்சி கதி கலங்கச் செய்து வருகிறது.
</p><p>
</p><p>
இதற்கு முன்பே மாயாவதி ஒரு சர்ச்சையில் சிக்கினார். கடந்த ஜனவரி மாதம் 15-ந்தேதி
மாயாவதி தன் பிறந்த நாளை கொண்டாடினார். அவரது பிறந்த நாள் மாநில அரசால் சுய கவுரவ
தினமாக கொண்டாடப்பட்டது. இதற்காக கோடி கோடியாக அரசு பணம் செலவழிக்கப்பட்டதாக
குற்றச்சாட்டு எழுந்தது. </p><p>
</p><p>
இதுகுறித்து டெல்லியில் நேற்று நிருபர்களிடம் பேசிய மாயாவதி விளக்கினார். </p><p>
</p><p>
அவர் கூறியதாவது:- </p><p>
</p><p>
நேருவின் பிறந்த நாள் குழந்தைகள் தினமாகவும், டாக்டர் ராதாகிருஷ்ணனின் பிறந்த நாள்
ஆசிரியர் தினமாகவும், சரண்சிங் பிறந்த நாள் விவசாயிகள் தினமாகவும்
கொண்டாடப்படும்போது, என் பிறந்த நாளை மாநில அரசு ஏன் சுயகவுரவ தினமாக
கொண்டாடக்கூடாதா? அந்த தலைவர்கள் எல்லாம் உயர் வகுப்பினர். நான் தலித். அதனால்
தான் என் பிறந்த நாளை கொண்டாடுவதை எதிர்க்கிறார்கள். </p><p>
</p><p>
அந்த விழாவுக்கு அரசு பணம் செலவழிக்கப்பட்டது உண்மை தான். ஆனால் அது என் பிறந்த
நாளுக்காக அல்ல; சுயகவுரவ தினத்திற்காகத் தான் செலவழிக்கப்பட்டது. தலித்,
பிற்பட்டோர், சிறுபான்மையினர் சமுதாய மக்களுக்கு நலத்திட்ட உதவிகள் செய்வதற்காக
சுயகவுரவ தினத்தில் மாநில அரசால் செலவு செய்யப்பட்டது. இந்த விஷயத்தை
எதிர்க்கட்சிகள் குறிப்பாக சமாஜ்வாதி கட்சிதான் தேவையில்லாமல் பெரிதாக்கி அரசு மீது
அவதூறு சொல்கிறது. </p><p>
</p><p>
மேலும் சுயகவுரவ தின விழாவுக்கு கணக்கற்ற பணம் செலவழிக்கப்பட்டதாக கூறுவது தவறு. அந்த விழா
வுக்கும், உ.பி. சட்டசபை நூற்றாண்டு விழாவுக்கும் சேர்த்து மொத்தம் ரூ.76 லட்சம் தான்
செலவழிக்கப்பட்டது. என் பிறந்த நாளை உயர்வகுப்பினர் மனோபாவத்துடன் ஆடம்பரமாக
கொண்டாடியதாக பத்திரிகைகள் எழுதின. அவை நான் அணிந்திருந்த வைர நகைகளை படம்பிடித்துக்
காட்டு வதில் தான் முழுகவனத்தையும் செலுத்தின. தலித் பெண்ணான நான் அந்த நகைகளை
அணிந்திருப்பதை பத்திரிகைகள் ஏற்றுக்கொள்வது கஷ்டம் என்று எனக்குத் தெரியும். </p><p>
</p><p>
முலாயம்சிங் யாதவ் அரசியல் விரோதத்தால் என்னை குறிவைத்து தாக்கி வருகிறார். அவர்
கட்சி அழிவை நோக்கி சென்று கொண்டு இருப்பதை அவரால் ஏற்றுக் கொள்ள முடியவில்லை.
என்னையும், என் அரசையும் குறி வைத்திருப்பவர்களுக்கு நாளை (இன்று) லட்சுமணபுரியில்
முக்கிய அறிவிப்பு வௌியிடுவேன். </p><p>
</p><p>
இவ்வாறு கூறினார். </p>

<p> </p>

<p> </p>

<p>பசுவதை தடை தீர்மானம்
எதிர்த்து எதிர்க்கட்சிகள் ரகளை; மக்களவை ஒத்திவைப்பு </p>

<p> </p>

<p>புதுடெல்லி, மார்ச் 12- பசுவதை தடை தீர்மானம் எதிர்த்து
எதிர்க்கட்சிகள் ரகளையில் ஈடுபட்டனர். </p><p>
</p><p>
மக்களவையில் நேற்று மாலை பா.ஜ. உறுப்பினர் பிரகலாத் சிங் தாக்கல் செய்த பசுவதை
தடுப்புக்கான தனி நபர் தீர்மானம் வாக்கெடுப்புக்கு விடப்படுவதாக சபாநாயகர் இருக்கையில்
இருந்த ரகுவன்ஸ் பிரசாத்சிங் கூறினார். </p><p>
</p><p>
அதிகாரம் இல்லை </p><p>
</p><p>
இதற்கு எதிர்க்கட்சி எம்.பி.க் கள் கடும் எதிர்ப்பு தெரிவித் தனர். குறிப்பாக
காங்கிரஸ் மற்றும் இடது சாரி கட்சிகளை சேர்ந்தவர்கள் கடுமையாக எதிர்த்தனர். காங்கிரஸ்
தலைவர் சிவராஜ்பட்டீல் பேசுகையில், பசுவதை தடுப்பு தொடர்பாக சட்டம் இயற்ற மாநில
சட்டசபைகளுக்கு தான் அதிகாரம் உள்ளது. பாராளுமன் றத்துக்கு அந்த அதிகாரம் இல்லை. எனவே
இந்த மசோதா மீது இங்கு ஓட்டெடுப்பு நடத்த கூடாது என்று கூறினார். </p><p>
</p><p>
சுஷ்மா பதில் </p><p>
</p><p>
இதற்கு பதில் அளித்த பாராளுமன்ற விவகாரத் துறை அமைச்சர் சுஷ்மா சுவராஜ், இது மசோதா
அல்ல. தனிநபர் தீர்மானம் தான். எனவே கட்டாயம் வாக் கெடுப்பு நடத்த வேண்டும் என்றார்.
</p><p>
</p><p>
வாபஸ் பெற மறுப்பு </p><p>
</p><p>
இந்த தீர்மானத்தை வாபஸ் பெற வேண்டும் என்று பா.ஜ. உறுப்பினரை எதிர்க்கட்சி யினர்
வற்புறுத்தினர். ஆனால் அதற்கு அவர் மறுத்து விட்டார். தன்னுடைய தீர்மானத்தில், நாடு
முழுவதும் பசுவதையை தடை செய்து சட்டம் இயற்ற வேண்டும் என்று இந்த அவை கருதுகிறது என
தீர்மானத்தில் குறிப்பிட்டுள்ளேன். அதை வாபஸ் பெற முடியாது என்று அவர் கூறினார்.
காங்கிரஸ் ஆளும் மத்திய பிரதேசத்தில் கூட பசு வதை தடை சட்டம் அமுலில் இருப்பதை பா.ஜ.
உறுப்பினர்கள் எடுத்து கூறினர். பிரதமர் வாஜ்பாய் மாட்டுக்கறி சாப்பிட்டதாக காங்கிரசார்
குற்றம் சாட்டினர். இதையடுத்து கடுமையான வாக்குவாதம் நடந்தது. </p><p>
</p><p>
30 நிமிடம் அமளி </p><p>
</p><p>
இதையடுத்து இந்த தீர்மானம் மீது மக்களவையில் வாக்கெடுப்பு நடத்த கூடாது என்று கோஷமிட்டபடி
காங்கிரஸ்- இடது சாரி கட்சிகளின் உறுப்பினர்கள் அவையின் மத்தி பகுதிக்கு ஓடிவந்தனர்.
பா.ஜ.வின் சர்வாதிகார போக்கு ஒழிக, அரசியல்சட்டம் படுகொலை செய்யப்படுகிறது என்று
கோஷம் போட்டனர். இதனால் அவையில் அமளி நிலவியது. தொடர்ந்து 30 நிமடங்கள் அவையில்
கூச்சல் குழப்பம் நிலவியது. இதையடுத்த அவையை நாள் முழுவதும் ஒத்திப்போடுவதாக ரகுவன்ஸ்
பிரசாத் சிங் அறிவித்தார். </p><p>
</p><p>
ஏப்ரலில் வாக்கெடுப்பு </p><p>
</p><p>
பிறகு அமைச்சர் சுஷ்மா சுவராஜ் நிருபர்களிடம் கூறுகையில், பசுவதை தடை தீர்மானம் மீது அடுத்த
மாதம் 18-ந்தேதி மக்களவையில் வாக்கெடுப்பு நடக்கும் என்றார். </p>

<p> </p>

<p> </p>

<p>ம.தி.மு.க. எம்.பி.க்கள்
புகார்: சிறையில் வைகோவை சந்திக்க கட்டுப்பாடா? வாஜ்பாய் வேதனை </p>

<p> </p>

<p>புதுடெல்லி, மார்ச் 12- மத்திய மந்திரி செஞ்சி
ராமச்சந்திரன் தலைமையில் ம.தி.மு.க. எம்.பி.க்கள் நேற்று டெல்லியில் பிரதமர்
வாஜ்பாயை சந்தித்து புகார் மனு கொடுத்தனர். அதில், தமிழகத் தில் பொடா சட்டம் தவறாக
பயன்படுத்தப்படுகிறது. </p><p>
</p><p>
மேலும் பொடா சட்டத்தின் கீழ் கைது செய்யப்பட்டு வேலூர் சிறையில் அடைக் கப்பட்டுள்ள
ம.தி.மு.க. தலைவர் வைகோவை வாரத்தில் 3 நாட்கள் மட்டும்தான் வௌி ஆட்கள்
சந்திக்கலாம் என்றும் நாள் ஒன்றுக்கு 3 பேர் மட்டும் பார்க்க அனுமதிக்க முடியும் என்றும்
ஒவ்வொரு பேரும் சுமார் 30 நிமிடம் மட்டும்தான் அவரை சந்தித்து பேச முடியும் என்றும் தமிழக
அரசு புது நிபந்தனை விதித்துள்ளதாக புகார் கூறியிருந்தனர். </p><p>
</p><p>
இதனால் பிரதமர் மிகவும் கவலை அடைந்துள்ளதாகவும் இதுகுறித்து பிரதமர் தமிழக முதல்வருடன்
தொடர்பு கொண்டு இப்பிரச்சினையை தீர்க்க உள்ளதாக பிரதமர் வட்டாரத்தில் இருந்து தெரிய
வருகிறது. </p><p>
</p><p>
உச்சநீதிமன்றத்தில் பொடா சட்டத்தின் ஒரு சில சட்ட பிரிவுகளை எதிர்த்து வைகோ மனு
செய்துள்ளார். இந்த மனு வருகிற 25-ந்தேதி விசாரணைக்கு வருகிறது. இந்த சூழ் நிலையில்
ம.தி.மு.க. எம்.பி.க்கள் பிரதமரை சந்தித்தது முக்கியத்துவம் வாய்ந்ததாக கருதப்படுகிறது. </p>

<p> </p>

<p> </p>

<p> </p>

<p> </p>

<p> </p>

<p> </p>

<p>முயல் - செயல் - புயல் என
கேலி: முதல்வர் நாற்காலிக்கு ஜெ. இழுக்கு; இளங்கோவன் பதிலடி </p>

<p> </p>

<p>சென்னை, மார்ச் 12- முயல், செயல், புயல் என கேலி பேசியதன்
மூலம் ஜெயலலிதா முதல்வர் நாற்காலிக்கு இழுக்கு ஏற்படுத்தி விட்டார் என்று இளங்கோவன்
பதிலடி கொடுத் துள்ளார். </p><p>
</p><p>
இளங்கோவன் அறிக்கை </p><p>
</p><p>
தமிழ்நாடு காங்கிரஸ் செயல் தலைவர் ஈ.வி.கே. எஸ்.இளங்கோவன் விடுத்துள்ள
அறிக்கையில் கூறி இருப்பதாவது:- </p><p>
</p><p>
தமிழக முதல்வர் ஜெயலலிதா கடந்த ஒருவார காலமாக மாவட்ட தலைநகரங் களில் தமிழக அரசு
நல்வாழ்வு திட்டங்கள் என்ற பெயரால் கிட்டத்தட்ட ரூ.25 கோடி செலவில் தன்னை விளம்பரப்
படுத்திக்கொள்வதற்காகவும், அரசாங்கத்தின் தவறுகளை யும், தோல்விகளையும் மூடி மறைத்து
மக்களை திசை திருப்பும் முயற்சியாகவும் ஊதாரித் தனமான விழாக்களை நடத்தி விட்டு சென்னை
திரும்பியுள்ளார். </p><p>
</p><p>
கதாகாலட்சேபம் </p><p>
</p><p>
எல்லா இடங்களிலும் அரசு விழாவிற்கான மேடையை கதாகாலட்சேபம் செய்யும் மேடையாக
மாற்றியிருக்கிறார். யாருக்கும் புரியாத சிறுகதை களை சொல்லி வந்திருக்கிறார். தன்னை
பஞ்ச பாண்டவர்களுக்கு ஒப்பிட்டு தனக்குத் தானே மகுடம் சூட்டிக் கொண்டு
மகிழ்ச்சியில் திளைத் திருக்கிறார். பொறுப்பான நாற்காலியில் உட்கார்ந்து கொண்டு
ஆட்சி நடத்தும் தமிழக முதல்வர் தாம் ஒரு முதல்வர் என்பதையே மறந்து விட்டு எதிர்க்கட்சி
தலைவர்களை ஏக வசனத்தில் பேசி யிருக்கிறார். என்னை முயல், செயல், புயல் என்று கேலி
பேசியிருக்கிறார். </p><p>
</p><p>
சிம்மாசனத்துக்கு விடுதலை </p><p>
</p><p>
முள்கிரீடம் அணிந்து கொண்டு ஆணிகள் அடிக்கப்பட்ட சிம்மாசனத்தில் அமர்ந் திருப்பதாக சொல்லியிருக்கிறார்.
நான் அவரை கேட்டுக் கொள்வதெல்லாம் தங்க ளுடைய கனம் (மக்கள் விரோதப் போக்கு)
தாங்காமல் தடுமாறும் சிம்மாசனத் துக்கு தாங்கள் விடுதலை கொடுத்துவிட்டு தமிழக மக்களை ஏன்
காப்பாற்றக் கூடாது. அப்படி செய்தால் உங்களுக்கு கஷ்டம் இல்லை. தமிழக மக்களும் வேதனை
யிலிருந்து விடுபடுவார்கள். </p><p>
</p><p>
நாற்காலிக்கு களங்கம் </p><p>
</p><p>
தமிழக முதல்வர் கடந்த ஒரு வார காலத்திற்கு மேலாக தமிழக அரசு விழாக்களில் முதல்வர் என்ற
தகுதியோடு பேசிவரும் பேச்சுக்கள் முதல்வர் நாற்காலிக்கு இழுக்கு ஏற் படுத்துவதாக இருக்கிறது.
ஜனநாயகத்தில் எதிர்க்கட்சிகளை மதிக்கும் பண்பு ஒரு முதல்வருக்கு இருக்க வேண்டும். இந்த
அடிப்படை பண்பு கூட இல்லாமல் எதிர்க்கட்சி தலைவர்களை நாலாந்தர பேச்சாளர் போல
ஜெயலலிதா பேசி வருகிறார். பெரியார் வழி, அண்ணா வழி, புரட்சி தலைவர் வழி என்று
சொல்லி வரும் தமிழக முதல்வர் ஜெயலலிதா தடம் புரண்டு அந்த முதல்வர் நாற்காலிக்கே
களங்கம் கற்பித்து வருகிறார். </p><p>
</p><p>
இவ்வாறு கூறி உள்ளார். </p>

<p> </p>

<p> </p>

<p>சட்டப்பேரவை குறிப்பில்
இருந்து நீக்கப்பட்ட வார்த்தையை வௌியே சொன்னால் உரிமைமீறல் பிரச்சினை; சபாநாயகர்
காளிமுத்து எச்சரிக்கை </p>

<p> </p>

<p>சென்னை, மார்ச் 12- சட்டப்பேரவை அவைக் குறிப்பில் இருந்து
நீக்கப்பட்ட வார்த்தைகளை வௌியே சொன்னால் உரிமை மீறல் பிரச்சினை கொண்டு வரப்படும்
என்று சபாநாயகர் காளிமுத்து கூறி உள்ளார். </p><p>
</p><p>
காளிமுத்து பேட்டி </p><p>
</p><p>
தமிழக சட்டமன்ற சபாநாயகர் காளிமுத்து சென்னை கோட்டையில் நேற்று நிருபர் களுக்கு பேட்டி
அளித்தார். </p><p>
</p><p>
அப்போது அவர் கூறியதாவது:- </p><p>
</p><p>
தமிழக அரசின் நிதிநிலை அறிக்கை (பட்ஜெட்) வருகிற 21-ந்தேதி காலை 10 மணிக்கு
சட்டசபையில் தாக்கல் செய்யப்படுகிறது. அதன்பிறகு சட்டசபை நிகழ்ச்சிகள் குறித்து அலுவல்
ஆய்வுக்குழு கூடி முடிவு செய்யும். மே மாதம் 2-ம் வாரம் வரை சட்டசபை கூட்டத்தொடர்
நடைபெறலாம். </p><p>
</p><p>
மாற்றம் இல்லை </p><p>
</p><p>
கேள்வி:- பரிதி இளம்வழுதி மீதான நடவடிக்கையில் மாற்றம் இருக்குமா? </p><p>
</p><p>
பதில்:- பரிதி மீதான நடவடிக்கையில் எந்த மாற்றமும் இல்லை. தனிப்பட்ட முறையில் நான்
இந்த நடவடிக்கை எடுக்கவில்லை. சட்டசபை தீர்மானத்தின்படி நடவடிக்கை எடுக்கப்பட்டு உள்ளது.
எனவே அதை மாற்ற வேண்டுமானால் மீண் டும் தீர்மானம் கொண்டு வர வேண்டும். </p><p>
</p><p>
கேள்வி:- சட்டசபையில் உங்களுக்கு எதிர்க்கட்சிகள் எந்த அளவு ஒத்துழைப்பு தரு
கின்றன? </p><p>
</p><p>
பதில்:- சட்டசபையில் எல்லா கட்சிகளும் எனக்கு ஒத்துழைப்பு தருகின்றன. எந்த
பிரச்சினையும் இல்லை. தி.மு.க. முன்வரிசை தலைவர்களான பேராசிரியர் அன்பழகன், துரைமுருகன்
போன்றவர்களால் எந்த பிரச்சினையும் இல்லை. பின் வரிசையில் இருக்கும் பொன்முடி, பரிதி,
அசோகன், பரணிகுமார், பன்னீர்செல்வம் போன்றவர் களால்தான் பிரச்சினை. முன்வரிசை
தலைவர்கள் வௌிநடப்பு செய்தால் இவர்கள் வௌியேறாமல் உள்ளே இருந்து குழப்பம்
விளைவிப்பதுதான் பிரச்சினையாக இருக்கிறது. </p><p>
</p><p>
உரிமை மீறல் </p><p>
</p><p>
ஆளும் கட்சியினர் நல்ல ஒத்துழைப்பு தருகிறார்கள். முதல்வர் திரும்பி பார்த்தாலே
எல்லோரும் அமர்ந்து விடுகின்றனர். ஆனால் தி.மு.க. உறுப்பினர்கள் தலைமைக்கு கட்டுப் பட
மறுக்கிறார்கள். அவர்களை கட்டுப்படுத்த வேண்டும். </p><p>
</p><p>
சபை குறிப்பில் இருந்து நீக் கப்பட்ட வார்த்தைகளை வௌியில் சென்று சொல்லி
தொலைக்காட்சியில் ஒளி பரப்புகின்றனர். இனி இது போல் செயல்பட வேண்டாம் என்று
கேட்டுக் கொள்கிறேன். மீறி செயல்பட்டால் உரிமை மீறல் பிரச்சினை கொண்டு வரும் நிலை
ஏற்படும். சபாநாயகர் என்ற முறையில் நானே கூட கொண்டு வரலாம். </p><p>
</p><p>
இவ்வாறு அவர் கூறினார். </p>

<p> </p>

<p> </p>

<p>மின் கட்டணத்தை உயர்த்தி
மக்களை கசக்கி பிழிவதா? டாக்டர் ராமதாஸ் கண்டனம் </p>

<p> </p>

<p>சென்னை, மார்ச். 12- மின்கட்டணத்தை உயர்த்தி மக்களை கசக்கி
பிழிவதா? என்று டாக்டர் ராமதாஸ் கண்டனம் தெரிவித்து உள்ளார். </p><p>
</p><p>
பச்சைக் கொடி </p><p>
</p><p>
இதுகுறித்து பா.ம.க.நிறுவனர் டாக்டர் ராமதாஸ் வௌியிட்டுள்ள அறிக்கை வருமாறு:- </p><p>
</p><p>
ஆண்டிப்பட்டி இடைத்தேர்தல் முடிந்ததும் ரேஷன் அரசியின் விலை உயர்த்தப்பட்டது. இப்போது
சாத்தான்குளம் இடைத்தேர்தல் முடிந்து விட்டது. மின் கட்டணம் உயர்த்தப்பட போகிறது என்ற
பரபரப்பான செய்தி வௌிவந்திருக்கிறது. </p><p>
</p><p>
இலவச மின்சாரம் தொடர வேண்டும் என்று விருப்பம் தெரிவித்துள்ள அரசு, அதற் காகும்
சிறிதளவு செலவைக் கூட ஏற்க முடியாது என்று சொல்லுவது வியப்பாக இருக்கிறது. இந்த செலவை
ஈடுகட்ட மாற்று ஏற்பாடுகளை செய்து கொள்ள வேண்டும் என்று அரசின் சார்பில் யோசனைக்கூறி
இருப்பது, அனைத்து பயனீட்டாளருக்கும் மின் கட்டணத்தை உயர்த்தி கொள்வதற்கு அரசாங்கம்
பச்சைக்கொடி காட்டி விட்ட தற்கு ஒப்பாகும். </p><p>
</p><p>
மின்சார கொள்ளை </p><p>
</p><p>
மின் வாரியம் நிதி பற்றாக்குறையில் சிக்கி இருப்பதற்கு, இலவச மின்சாரமும், தற் போதைய
கட்டண விகிதங்களும் மட்டுமே காரணம் என்று கருதுவது தவறானதாகும். மூடி மறைக் கப்படும்
மின்சாரக் கொள்ளை தான் மின் இழைப்புக்கு முக்கிய காரணமாகும். மின்சாரக் கொள்ளையை
தடுத்து நிறுத்தி, மின் இழப்பின் அளவை குறைத்தால் வாரியத்தில் நஷ்ட நிலை நீங்கும், நிதி
நெருக்கடி குறையும். </p><p>
</p><p>
அடுத்து மிக முக்கியமாக, கடந்த சில ஆண்டுகளாக பொதுத்துறை மின் உற்பத்தி யில் கவனம் செலுத்தாமல்,
லாபத்தை மட்டுமே குறிக்கோளாகக் கொண்டுள்ள தனியாரிடம் அதிக அளவில், அதிக விலைகொடுத்து
மின்சாரத்தை கொள்முதல் செய்யும் போக்கு அதிகரித்துக் கொண்டே வந்திருக்கிறது.
பொதுத்துறை மின்சார விலையைவிட தனியார் மின்சாரத்தின் விலை இரண்டு, மூன்று மடங்்கு
அதிகம் என்பதை கவனத்தில் எடுத்துக் கொள்ள வேண்டும். </p><p>
</p><p>
இந்த மாற்று ஏற்பாடுகளில் கவனம் செலுத்தாமல் கட்டணத்தை சகட்டுமேனிக்கு உயர்த்துவதுதான்
எளிதான வழி என்று மக்களை கசக்கிப் பிழியக் கூடாது. இதனை மக்கள் ஏற்றுக்கொள்ளவும்
மாட்டார்கள். </p><p>
</p><p>
இவ்வாறு கூறி உள்ளார். </p>

<p> </p>

<p> </p>

<p>பொடா சட்டத்துக்கு
எதிர்ப்பு: தி.மு.க. கூட்ட முடிவை ஏற்போம் - திருமாவளவன் </p>

<p> </p>

<p>புதுச்சேரி, மார்ச் 12- தி.மு..க. கூட்டத்தில் பொடா பற்றி
எடுக்கும் முடிவை ஏற்போம் என்று திருமாவளவன் கூறினார். </p><p>
</p><p>
பேட்டி </p><p>
</p><p>
விடுதலை சிறுத்தைகள் இயக்க அமைப்பாளர் திருமாவளவன் எம்.எல்.ஏ. நேற்று புதுவையில்
நிருபர்களுக்கு பேட்டி அளித்தார். </p><p>
</p><p>
அப்போது அவர் கூறியதாவது:- </p><p>
</p><p>
பொடா சட்டத்தை எதிர்க்கும் வகையில் தி.மு.க. அனைத்து கட்சி கூட்டத்தை கூட்டியுள்ளது.
விடுதலை சிறுத்தை அமைப்புக்கும் இதற்கான அழைப்பு அனுப்பப்பட்டு உள்ளது. இந்த சட்டம்
கொண்டு வந்தது முதல் விடுதலை சிறுத்தை அமைப்பு பல்வேறு ஜனநாயக அமைப்புகளுடன் இணைந்து
எதிர்ப்பு நடவடிக்கைகளை நடத்தி வருகிறது. ஏற்கனவே இதை எதிர்த்து எங்கள் அமைப்பு
களத்தில் இருப்பதால் தி.மு.க. கூட்டியுள்ள இந்த கூட்டத்தில் நாங்கள் பங்கேற்க வேண்டிய
அவசியம் இல்லை என்று கருதுகிறோம். தேசிய ஜனநாயக கூட்டணியில் இருந்து கொண்டு பொடா
சட்டத்தை எதிர்ப்பதை எங்களால் நம்ப முடியவில்லை. இருந்தாலும் தி.மு.க. தலைமையில்
கட்சிகள் கூடி எடுக்கும் பொடா எதிர்ப்பு நடவடிக்கைகளுக்கு எங்களின் ஆதரவு உண்டு. </p><p>
</p><p>
ஆதரவு </p><p>
</p><p>
தேசிய ஜனநாயக கூட்டணியை எதிர்த்து தி.மு.க. முடிவு எடுத்தால் அவர்களோடு கைகோர்த்து
களத்தில் நிற்கவும் நாங்கள் தயாராக இருக்கிறோம். இந்த கூட்டத்தில் பங்கேற்காததால்
அவர்களது நடவடிக்கையை புறக்கணிப்பதாக அர்த்தம் இல்லை. வைகோவையும், பழ.நெடுமாறனையும்
விடுதலை செய்ய வேண்டும் என்று நாங்கள் தொடர்ந்து குரல் கொடுத்து வருகிறோம். </p><p>
</p><p>
சாத்தான்குளம் தேர்தல் முடிவு அ.தி.மு.க.வுக்கு வெற்றி இல்லை. விலைக்கு வாங்கப் பட்ட
கடைச் சரக்கு. அதுவும் அச்சுறுத்தி பெறப்பட்டது. அது ஒரு தேர்தல் வெற்றியே அல்ல. தேர்தல்
எதிர்த்து வழக்கு போட எங்களிடம் பணம் இல்லை. இளங்கோவன் வழக்கு தொடுக்கலாம். அப்படி
வழக்கு தொடுத்தால் நாங்கள் ஆதரிப்போம். </p><p>
</p><p>
இவ்வாறு கூறினார். </p><p>
</p><p>
மார்க்சிஸ்டு </p><p>
</p><p>
மார்க்சிய கம்யூனிஸ்டு மாநில செயலாளர் என்.வரதராஜன் வௌியிட்டுள்ள அறிக்கை:- </p><p>
</p><p>
தி.மு.க. பாராளுமன்றத்தில் பொடா சட்டம் நிறைவேற ஆதரவு தந்தது. இப்போதும் ஆதரவு
தெரிவித்துக் கொண்டே, தமிழகத்தில் இச் சட்டத்தை எதிர்த்து நிலை யெடுப்பது முரண்பாடாக
உள்ளது. </p><p>
</p><p>
இந்த சூழ்நிலையில் 12-ந் தேதி தாங்கள் தி.மு.க. கூட்டியுள்ள கூட்டத்தில் நாங்கள்
பங்கேற்க இயலவில்லை என்பதை வருத்தத்துடன் தெரிவித்துக் கொள்கிறோம். </p><p>
</p><p>
இவ்வாறு கூறி உள்ளார். </p>

<p> </p>

<p> </p>

<p>உள்ளாட்சி பதவிகளுக்கு
போட்டியிட்டு செலவு கணக்கு காட்டாத 1465 பேர் தேர்தலில் நிற்க தடை - மாநில ஆணையர்
அறிவிப்பு </p>

<p> </p>

<p>தேனி, மார்ச்.12- செலவு கணக்கு காட்டாததால் உள்ளாட்சி
தேர்தலில் போட்டியிட்ட 1465 பேருக்கு தடை விதிக்கப்பட்டு உள்ளதாக ஆணையாளர் பழனிச்சாமி
கூறி உள்ளார். </p><p>
</p><p>
கருத்தாய்வு கூட்டம் </p><p>
</p><p>
தேனி மாவட்டத்தில் தொகுதி வழி முறையை மாற்றி அமைப்பது பற்றிய கருத்தாய்வுக் கூட்டம்
தேனி மாவட்ட ஆட்சி தலைவர் அலுவலகத்தில் நடைபெற்றது. இக்கூட்டத்திற்கு மாநில தேர்தல்
ஆணையாளர் வீ.பழனிச்சாமி தலைமை தாங்கினார். முதன்மை தேர்தல் அலுவலர் எம். பரமேஸ்வரன்,
மாவட்ட ஆட்சி தலைவர் (பொறுப்பு) சந்திரசேகரன், செய்தி மக்கள் தொடர்பு அலுவலர்
ரவீந்தி ரன், உதவி செய்தி மக்கள் தொடர்பு அலுவலர்கள் செல்வராஜ், அண்ணா மற்றும்
பஞ்சாயத்து யூனியன் ஆணையாளர்கள், நகராட்சி ஆணை யாளர்கள் உள்பட பலர் கலந்து
கொண்டனர். </p><p>
</p><p>
பேட்டி </p><p>
</p><p>
அதன் பின் நிருபர்களுக்கு மாநில தலைமை ஆணையாளர் வீ.பழனிச்சாமி கூறுகை யில், </p><p>
</p><p>
கடந்த கிராம உள்ளாட்சி அமைப்புகளில் தேர்தல்களில் 74 ஆயிரத்து 637 பேர்கள்
போட்டியிட்டனர். இதில் 59 ஆயிரத்து 959 பேர்கள் தேர்தல் செலவுகளை தாக்கல் செய்துள்ளனர்.
14 ஆயிரத்து 672 பேர்கள் இதுவரை தேர்தல் செலவு கணக்குகளை தாக்கல் செய்யவில்லை. இது
குறித்து தேர்தல் ஆணையத்தில் இருந்து நோட்டீஸ் அனுப்பப்பட்டு மாவட்ட ஆட்சி தலைவரின் இறுதி
அறிக்கை யின்படி 1465 பேருக்கு தகுதி நீக்கம் செய்யப்பட்டு 3 ஆண்டு காலம் தேர்தலில்
நிற்க தடை செய்யப்பட்டு உள்ளது. </p><p>
</p><p>
மதுரை </p><p>
</p><p>
இதில் மதுரை மாவட்டத்தில் 68 பேர்கள், புதுக்கோட் டை மாவட்டத்தில் 213 பேர் கள்,
கரூர் மாவட்டத்தில் 49 பேர்கள், திருநெல்வேலி ாவட்டத்தில் 91 பேர்கள்,
தஞ்சையில் 212 பேர்கள், அரியலூர் மாவட்டத்தில் 488 பேர்கள், பெரம்பலூர்
மாவட்டத் தில் 344 பேர்கள் தகுதி நீக்கம் செய்யப்பட்டு உள்ளனர். </p><p>
</p><p>
தேனி மாவட்டம் காஞ்சிபுரம், கன்னியாகுமரி, திருச்சி திருவள்ளுவர், விழுப்புரம்
உள்பட 9 மாவட்டங்களில் முழுமையாக வேட்பாளர்கள் தேர்தல் செலவுகளை பற்றிய கணக்குகளை
சமர்ப்பித்து உள்ளனர். </p><p>
</p><p>
ஏப்ரல் மாதம் தேர்தல் </p><p>
</p><p>
உள்ளாட்சி அமைப்புகளில் ஏற்பட்ட காலி இடங்களுக்கு 6 மாதத்திற்கு ஒரு தடவை தேர்தல்
நடைபெறும். அதன் படி வரும் ஏப்ரல் மாதம் உள்ளாட்சி அமைப்புகளில் ஏற்பட்ட 368 காலி
இடங்களுக்கு தேர்தல் நடைபெறும். நகர்புற உள்ளாட்சி அமைப்புகளுக்கான 25 காலி
இடங்களுக்கும் அப்போது தேர்தல் நடைபெறும். </p><p>
</p><p>
தேனி மாவட்டத்தில் ஆண்டிப்பட்டி ஒன்றியத்திலும் போடிதாசன்பட்டி, ஒக்கரைப் பட்டி மற்றும்
பெரியகுளம் ஒன்றியம், எருமலை நாயக்கன் பட்டி, சின்னமனூர் ஒன்றியத்தில் உள்ள
பொட்டிபுரத்துக் கும் தேர்தல் நடைபெற உள்ளது. டவுன் பஞ்சாயத்தில் குச்சனூர்
பேரூராட்சிக்கான தேர்தல் தேதி பின்னர் அறிவிக்கப்படும். </p><p>
</p><p>
இவ்வாறு அவர் கூறினார். </p>

<p> </p>

<p> </p>

<p>சாத்தான்குளம்
இடைத்தேர்தலில் வெற்றிபெற 17 ஆயிரம் ஓட்டு வித்தியாசத்திற்கு ரூ.17 கோடி,
அ.தி.மு.க.செலவு; சங்கராபுரம் கூட்டத்தில் நடிகர் நெப்போலியன் பேச்சு </p>

<p> </p>

<p>சங்கராபுரம், மார்ச்.12- சாத்தான்குளம் இடைத்தேர்தலில்
வெற்றிபெற அ.தி.மு.க.வினர் 17 ஆயிரம் ஓட்டு வித்தியாசத்திற்கு ரூ.17 கோடி செலவு
செய்துள்ளனர் என்று சங்கராபுரம் பொதுக்கூட் டத்தில் நடிகர் நெப்போலியன் கூறினார். </p><p>
</p><p>
ஸ்டாலின் பிறந்தநாள் </p><p>
</p><p>
விழுப்புரம் மாவட்டம் சங்கராபுரத்தில் ஒன்றிய, நகர தி.மு.க. இளைஞர் அணி
சார்பில் மு.க.ஸ்டாலின் பிறந்த நாள் விழா பொதுக்கூட்டம் நடந்தது. முன்னாள் நகர
செயலாளர் எம்.வீராசாமி தலைமை தாங்கினார். ஆசிம், பஷீர் அகமது, பெரியசாமி, சேகர்,
டாக்டர் நெடுஞ்செழி யன் ஆகியோர் முன்னிலை வகித்தனர். ஒன்றிய இளைஞர் அணி
அமைப்பாளர் பா.அண்ணாமலை வரவேற்றார். </p><p>
</p><p>
நெப்போலியன் </p><p>
</p><p>
இதில் நடிகரும், சட்டமன்ற உறுப்பினருமான நெப்போலியன் பேசியதாவது:- </p><p>
</p><p>
கடந்த 91-ம் ஆண்டு ராஜீவ் காந்தி மரணத்திற்கு தி.மு.க. வினர்தான் காரணம் என்று
அபாண்டமாக பழி சுமத்தி, அதனால் ஏற்பட்ட அனுதாப அலையால் ஆட்சிக்கு வந்தவர் தான்
ஜெயலலிதா. ஆட்சிக்கு வந்த ஜெயலலிதா தனது தோழி சசியுடன் சேர்ந்து மக்கள் வரிப்பணத்தை
கோடி கோடியாக கொள்ளையடித்து பல்வேறு சொத்துக்களை வாங்கி குவித்தார். </p><p>
</p><p>
கலைஞர் ஆட்சி </p><p>
</p><p>
5 ஆண்டு ஆட்சியில் தமிழக மக்களுக்கு அவர் உருப்படியாக எதையும் செய்யவில்லை. மீண்டும்
96-ம் ஆண்டு தேர்தலில் ஜெயலலிதாவை மக்கள் தூக்கி எறிந்தனர். தி.மு.க. மீண்டும்
ஆட்சிக்கு வந்தது. 5 ஆண்டு ஆட்சியை தமிழகத்தின் பொற்காலம் என்று சொல்லக் கூடிய அளவில்
உழவர் சந்தை, நமக்கு நாமே திட்டம், அண்ணா மறுமலர்ச்சி திட்டம், இலவச திருமண உதவி
திட்டம், கால்நடை பாதுகாப்பு திட்டம், மேம்பால வசதி, பள்ளி மாணவர்களுக்கு இலவச பஸ்
பாஸ் இப்படி பல்வேறு வகையான திட்டங்கள் தீட்டப்பட்டு செயல்படுத்தப்பட்டது. இப்படி தமிழக
மக்களுக்காகவே அல்லும் பகலும் அயராது பாடுபட்ட கலைஞர் அரசு 2001 ம் ஆண்டு தேர்தலில்
தோல்வியை தழுவியது. </p><p>
</p><p>
பட்டினி சாவுகள் </p><p>
</p><p>
ஜெயலலிதா மீண்டும் ஆட்சிக்கு வந்தார். கடந்த 2 ஆண்டு அ.தி.மு.க. ஆட்சியில் எந்த
திட்டமும் சரியாக தீட்டி செய்யவில்லை. தமிழ்நாட்டில் பஸ் தொழிலாளர்கள் போராட்டம்,
ஆசிரியர்கள், அரசு ஊழியர்கள் போராட்டம், எங்கும் வறட்சி, பட்டினி சாவுகள்
இப்படிப்பட்ட அவல நிலைதான் தொடர்கிறது. மக்களைப்பற்றி ஜெ. சிந்திப்பதில்லை. </p><p>
</p><p>
ரூ.17 கோடி செலவு </p><p>
</p><p>
நடந்து முடிந்த சாத்தான்குளம் இடைத்தேர்தலுக்காக முதல்வர் அவரது அமைச் சரவை சகாக்கள், 20
எம்.பி.க்கள், 60 எம்.எல்.ஏ.க்கள் தொகுதியில் நாள் கணக்கில் முகாமிட்டு தேர்தல்
விதிமுறைகளை மீறி அரசு எந்திரத்தை தவறாக பயன்படுத்தி பண பலம், படை பலம் இவற்றின்
உதவியோடு ரூ.17 கோடி செலவு செய்து ஒரு இடைத்தேர்தலில் அ.தி.மு.க. வெற்றி பெற்றுள்ளது. 17
ஆயிரம் ஓட்டு வித்தியாசத்தில் காங்கிரஸ் தோற்கிறது. </p><p>
</p><p>
ஆடம்பர விழா </p><p>
</p><p>
நிதி நெருக்கடி என்று கூறும் ஜெயலலிதா தமிழகம் கடந்த சில நாட்களாக சுற்றுப்பயணம் செய்து
வருகிறார். ஹெலிகாப்டரில்தான் அம்மா பயணம் செய்கிறார். அதனால் மக்கள் வரிப்பணம் பல
கோடி ரூபாய் வீணடிக்கப்படுகிறது. நிதி பற்றாக்குறை என்று சொல்லும் தமிழக அரசை
உயர்நீதிமன்ற தலைமை நீதிபதி கண்டனம் தெரிவித்து உள்ளார். </p><p>
</p><p>
ஜெ.க்கு அருகதையில்லை </p><p>
</p><p>
11 முறை தொடர்ந்து எம்.எல்.ஏ.வாக இருந்து 45 ஆண்டு காலமாக அரசியலில் தனி முத்திரை
பதித்து வரும் கலைஞரைப்பற்றி பேச ஜெயலலிதாவுக்கு அருகதை கிடையாது. பல்வேறு
போராட்டங்கள் நடத்தி, தமிழுக்காக, தமிழ் மக்களுக்காக பலமுறை சிறை சென்றவர்
கலைஞர். </p><p>
</p><p>
ஆட்சி மாற்றம் </p><p>
</p><p>
ஆனால் ஊழல் செய்து அதனால் தண்டிக்கப்பட்டு சிறை சென்றவர்தான் ஜெயல லிதா. இப்படிப்பட்ட
ஜெயலலிதா கலைஞரைப்பற்றி பேசக்கூடாது. தமிழகத்தில் மீண்டும் ஆட்சி மாற்றம்
விரைவில் வரும். நீங்கள் எல்லாம் மீண்டும் தமிழகத்தில் கழக ஆட்சி மலர்ந்திட ஆதரவு
அளிக்கும் படி கேட்டுக்கொள்கிறேன். </p><p>
</p><p>
இவ்வாறு நெப்போலியன் பேசினார். </p>

<p> </p>

<p> </p>

<p>மாணவிகள் பாலியல்
பலாத்காரம் எதிர்த்து ஜெயந்தி நடராஜன் தலைமையில் மகளிர் காங். ஆர்ப்பாட்டம்:
உருவபொம்மைக்கு செருப்படி </p>

<p> </p>

<p>சென்னை,மார்ச்.12- மாணவிகள் மீது நடந்த பாலியல் பலாத்காரத்தை
கண்டித்து ஜெயந்தி நடராஜன் தலைமையில் மகளிர் காங்கிரசார் ஆர்ப்பாட்டம் நடத்தினர். </p><p>
</p><p>
சத்தியமூர்த்தி பவனில்... </p><p>
</p><p>
தர்மபுரி,பழனி, பொள்ளாச்சியில் கல்லூரி மாணவிகள் சமீப காலமாக பாலியல் பலாத்
காரங்களுக்கு ஆளாக்கப்பட்ட னர். அதை கண்டித்து மகளிர் காங்கிரஸ் சார்பில் நேற்று சென்னை
சத்தியமூர்த்தி பவ னில் கண்டன ஆர்ப்பாட்டம் நடந்தது. முன்னாள் மத்திய அமைச்சர்
ஜெயந்தி நடராஜன் தலைமை தாங்கினார். </p><p>
</p><p>
தர்மபுரி,பழனி,பொள்ளாச்சி பாலியல் பலாத்காரத்தில் ஈடுபட்ட பாவிகள் என்று ஒரு
அட்டையில் எழுதி ஒரு ஆண் உருவ பொம்மையில் அணி வித்து இருந்தனர். அந்த உருவ பொம்மையை
செருப்பாலும், கம்பாலும் பெண்கள் சரமாரியாக அடித்தார்கள். </p><p>
</p><p>
பெண்கள் கோஷம் </p><p>
</p><p>
இழிவு படுத்தாதே, இழிவுபடுத்தாதே பெண்களை இழிவு படுத்தாதே </p><p>
</p><p>
அழிக்காதே, அழிக்காதே பெண் இனத்தை அழிக்காதே, பெண்கள் கொதித்து எழுந் தால் பூமி
தாங்காது </p><p>
</p><p>
என்பது போன்ற கோஷங்களை அவர்கள் முழங்கினர். </p><p>
</p><p>
அரசுக்கு எச்சரிக்கை </p><p>
</p><p>
ஆர்ப்பாட்டத்தில் ஜெயந்தி நடராஜன் பேசியதாவது:- </p><p>
</p><p>
பாலியல் பலாத்காரத்துக்கு பெண்களை ஆளாக்கிய விவகாரத்தை இத்துடன் விட மாட்டோம்.
தமிழ்நாடு முழுவதும் விழிப்புணர்வு ஏற்படுத்துவோம். இதற்கான முதல் அடையாளமாகத்தான் இந்த
கண்டன ஆர்ப்பாட்டம் நடக்கிறது. அரசு நடவடிக்கை எடுக்கிறதா என்று பார்ப்போம். அப்படி
எடுக்கவில்லை என்றால் தமிழகம் முழுவதும் போராட்டம் நடத்துவோம். </p><p>
</p><p>
சாக்குபோக்கு சொல்வதா? </p><p>
</p><p>
மகளிருக்கான 33 சதவீத இட ஒதுக்கீடு பிரச்சினையில் பிரதமர் வாஜ்பாயும், துணை பிரதமர்
அத்வானியும் ஒருமித்த கருத்து ஏற்பட வில்லை என்று சாக்குபோக்கு சொல்வது ஏற்கத்தக்கது
அல்ல. பொடா சட்டத்தை ஒருமித்த கருத்து ஏற்பட்டா நிறைவேற்றினார்கள்? எனவே பெண்கள்
இட ஒதுக்கீடு மசோதாவை நடப்பு பாராளுமன்றக் கூட்டத் தொடரிலேயே நிறைவேற்ற வேண்டும். </p><p>
</p><p>
இவ்வாறு கூறினார். </p><p>
</p><p>
முக்தா சீனிவாசன் </p><p>
</p><p>
முக்தா சீனிவாசன், கோபண்ணா, மாநில பொதுச்செயலாளர் ஆர்.ஏகாம்பரம், சாந்தி
பன்னீர்செல்வம், சுசீலா கோபால கிருஷ்ணன், சரஸ்வதி நாலடியார், ஜானகி கன்னியப்பன், கனி
பாண்டியன்,சண்முகவள்ளி, ஆர்.டி. தயாளன் உள்பட பலர் பங்கேற்றனர். </p>

<p> </p>

<p> </p>

<p>சிறுத்தைகள் முயற்சியால்
மேற்கொள்ளப்பட்ட பொடா எதிர்ப்பு முன்னணிக்கு கலைஞர் தலைமை தாங்க வேண்டும்;
புதுவையில் திருமாவளவன் பேச்சு </p>

<p> </p>

<p>புதுச்சேரி, மார்ச் 12- சிறுத்தைகள் முயற்சியால்
மேற்கொள்ளப்பட்ட பொடா எதிர்ப்பு முன்னணிக்கு கலைஞர் தலைமை தாங்க வேண்டும் என்று
புதுவையில் திருமாவளவன் பேசினார். </p><p>
</p><p>
நெடுமாறன் பிறந்த நாள் </p><p>
</p><p>
தமிழர் தேசிய இயக்க தலைவர் பழ.நெடுமாறனின் 71-வது பிறந்த நாள் விழா தமிழர் தேசிய
திருவிழாவாக நேற்று முன்தினம் புதுவையில் தமிழர் தேசிய இயக்கம் சார்பில்
கொண்டாடப்பட்டது. புதுவை மாநில தலைவர் இரா.அழகிரி விழாவுக்கு தலைமை தாங்கினார்.
நாகலிங்கம் வரவேற்றார். அரி கிருட்டிணன், காண் டீபன், இளங்கோபாண்டியன முன்னிலை
வகித்தனர். திருச்சி சவுந்தரராஜன், புலவர் கி.த.பச்சையப்பன், நா.வை.சொக்கலிங்கம்,
துரை மதிவாணன், பேராசிரியர் கல்யாணி, கவிஞர் இன்குலாப், வக்கீல் தேவநாதன்
சிறப்புரையாற்றினர். </p><p>
</p><p>
விடுதலை சிறுத்தைகள் அமைப்பாளர் தொல். திருமாவளவன் கலந்து கொண்டு பேசினார். பிறந்த
நாளையொட்டி யாதும் ஊரே மாத இதழின் சார்பில் சிறப்பு மலர் வௌியிடப்பட்டது. இதனை
தமிழ்வளர்ச்சி நடவடிக்கை குழு தலைவர் லெனின் தங்கப்பா வௌியிட திருமாவளவன் பெற்றுக்
கொண்டார். </p><p>
</p><p>
விழாவில் வணங்காமுடி, நந்திவர்மன், சுகுமாறன், ராதா, சஞ்சீவி, மங்கையர் செல்வன்,
உள்பட பலர் கலந்துகொண்டனர். முடிவில் தமிழர் தேசிய இயக்கம் வேல்முருகன் நன்றி கூறினார்.
</p><p>
</p><p>
திருமாவளவன் </p><p>
</p><p>
விழாவில் திருமாவளவன் பேசியதாவது:- </p><p>
</p><p>
பழ.நெடுமாறன் பிறந்த தினத்தை அவரது விருப்பத்திற்கு மாறாக தமிழருக்கு தேவை யானது என்று
கொண்டாடுவதை விடுதலை சிறுத்தைகள் பாராட்டுகிறது. </p><p>
</p><p>
தமிழருக்கும், தமிழுக்கும் அரசியல் அரங்கிலே குரல் கொடுப்பவர். இதனால் தமிழர்கள்
விழிப்பு பெற்று விடக்கூடாது என்று கருதி தான் ஜெயலலிதா, நெடு மாறனை சிறையில்
அடைத்துள்ளார். உலகத் தமிழர்கள் ஒருங் கிணைப்பு பேரவை ஆரம் பித்ததன் மூலம் உலகத்
தமிழர்களின் நம்பிக்கை ஒளியாக நெடு மாறன் திகழ்ந்தார்.ஆனால் தமிழ்நாட்டை ஆளும்
கட்சியின் தமிழரல்லாத தலைவி அவரை சிறைபிடித்துள்ளார். </p><p>
</p><p>
வைகோவும், அவரது சகாக்களும் கைதானதற்கு பொடா மட்டுமே காரணமல்ல. எல்.கே. அத்வானியின்
கருத்துக்களை ஏற்காதது ஒரு காரணம் என்று இப்போது கூறப்படுகிறது. </p><p>
</p><p>
பிரச்சினை கிடையாது </p><p>
</p><p>
ஆனால் நெடுமாறனுக்கும், வாஜ்பாய்- அத்வானிக்கும் எந்தவித அரசியல் பிரச் சினையும்
கிடையாது. ஜெயலலிதாவை எதிர்த்து எந்த மேடையிலும் பேசியது கிடையாது. </p><p>
</p><p>
தமிழனுக்கு சொரணை யில்லாததால் இந்த கைது நடவடிக்கை நடத்தப்பட்டுள்ளது. சொரணை இல்லை
என்பதை சாத்தான் குளம் தேர்தலும் நிரூபித்து காட்டியுள்ளது. </p><p>
</p><p>
விடுதலைப்புலிகள் ஆதரவு செயல்பாடு என்பது இந்த கைதுக்கு காரணமல்ல. புலிகளுக்கு ஆதரவு
என்பது கொள்கை ரீதியான தார்மீக கருத்து. இதில் ஜெயலலிதா ஆத்திரப்பட அவசியமில்லை. </p><p>
</p><p>
தமிழ் மறத்து விட்டது </p><p>
</p><p>
தமிழகத்தில் தமிழர்களை தார்க்குச்சி கொண்டு குத்தினால் கூட எழுந்து கொள்ளாத அளவுக்கு
தோல் மறத்து மோச மானவனாக மாறிவிட்டனர். ஆனால் தமிழுணர்வு எனும் அக்னி குஞ்சை
அணையாமல் அணை போட்டு தடுத்து வருகிறார் பழ.நெடுமாறன். தமிழ் தேசிய உணர்வு எனும் நெருப்பை
ஊட்டி விடுகிறார். இதனாலேயே அவர் கைது செய்யப்பட்டுள்ளார். ஜெயலலிதா தமிழ் மண்ணுக் கும்,
தமிழருக்கும் எதிரானவர். </p><p>
</p><p>
எல்லை தாண்டிய பயங்கரவாதத்தை தடுக்க கொண்டவந்த பொடாவை தமிழகத்தில் பயன்படுத்த
வேண்டிய அவசியமில்லை. ஆனால் அதை தவறாக பயன்படுத்தி நெடுமாறனை கைது செய்து சிறை வைத்
துள்ளனர். பொடாவை எதிர்த்து விடுதலை சிறுத்தைகளால் அனைத்துகட்சியை கூட்டி பொடா
எதிர்ப்பு முன்னணி உருவாக்கப் பட்டுள்ளது. </p><p>
</p><p>
தி.மு.க. தலைமை </p><p>
</p><p>
பொடாவை எதிர்த்து தி.மு.க. தலைவர் கருணாநிதி அனைத் துக்கட்சி கூட்டம் கூட்டுவதற்கு பதிலாக
இந்த பொடா எதிர்ப்பு முன்னணியின் தலைவராக இருந்து செயல்படுத்தலாம். </p><p>
</p><p>
அடக்குமுறை சட்டங்களை எதிர்ப்பதில் விடுதலை சிறுத்தைகள் என்றும் சளைத்த தில்லை. தமிழ்
ஆளும். தமிழன் ஆளுவான். தமிழ் மண்ணை தமிழன் மீட்பான். </p><p>
</p><p>
இவ்வாறு அவர் பேசினார். </p>

<p> </p>

<p> </p>

<p>ஜெ. விழா அழைப்பிதழில்
வைகோ பெயர் </p><p>

 
 
  
  
  
  
  
  
  
  
  
  
  
  
 
 
 

 
<gap desc="illustration"></gap></p>

<p>  </p>

<p>நெல்லை, மார்ச். 12- ஜெயலலிதா விழா அழைப்பிதழில் வைகோ பெயர்
இடம் பெற்றுள்ளது. </p>

<p>ம.தி.மு.க. பொதுச்செயலாளர் வைகோவை ஜெ. அரசு பொடா சட்டத்தில் கைது செய்து
சிறையில் அடைத்துள்ளது அல்லவா? கடந்த ஆண்டு (2002) ஜூலை 11-ந்தேதி கைதான அவர் 8
மாதமாக சிறைவாசம் அனுபவித்து வருகிறார். சிறையில் அவரை தொண்டர்கள் சந்திக்க கூட புதிய
கட்டுப்பாட்டை அ.தி.மு.க. அரசு விதித்து உள்ளது. </p>

<p>இந்த நிலையில் முதல்வர் ஜெயலலிதா நெல்லையில் நாளை (13-ந்தேதி) கலந்து
கொள்ளும் அரசு நிகழ்ச்சிக்கான அழைப்பிதழில் வாழ்த்துரை வழங்குவோர் பட்டியலில் வைகோ
பெயரும் இடம் பெற்று உள்ளது. எனவே அவர் சிறையில் இருந்து விடுதலையாகி நெல்லையில் நடக்கும்
விழாவில் கலந்து கொள்வாரா? என்பது அந்தக் கட்சித்தொண்டர்களிடையே பெரும்
எதிர்பார்ப்பை ஏற்படுத்தி உள்ளது. </p>

<p>மேலும் இந்த அழைப்பிதழ் அம்மாவுக்கு மிகவும் பிடித்த பச்சை மயமாக காட்சி
அளிக்கிறது. அழைப்பிதழின் கடைசி பக்கத்தில் குற்றாலம் மெயின் அருவியில் தண்ணீர்
கொட்டுவது போன்ற படமும், அடவிநயினார் அணை படமும் போட்டுள்ளனர். ஆனால் குற்றாலம் அருவி
தண்ணீரும் பச்சை நிறத்தில் கொட்டுவது போல அச்சடித்து இருப்பது குறிப்பிடத்தக்கது.
</p>

<p> </p>






</body></text></cesDoc>