<cesDoc id="tam-w-dinakaran-politics-03-02-05" lang="tam">
<cesHeader type="text">
<fileDesc>
<titleStmt>
<h.title>tam-w-dinakaran-politics-03-02-05.txt</h.title>
<respStmt>
<respType>Electronic file created by</respType>
<respName>Department of Linguistics, Lancaster University</respName>
<respType>text collected by</respType>
<respName>Paul Baker and Celia Worth</respName>
<respType>transferred into Unicode by</respType>
<respName>"Unicodify" software by Andrew Hardie</respName>
</respStmt>
</titleStmt>
<publicationStmt>
<distributor>UCREL</distributor>
<pubAddress>Department of Linguistics, Lancaster University, Lancaster, LA1 4YT, UK</pubAddress>
<availability region="WORLD"></availability>
<pubDate>03-08-24</pubDate>
</publicationStmt>
<sourceDesc>
<biblStruct>
<monogr>
<h.title>"Dinakaran" internet news (www.dinakaran.com), news stories collected on 03-02-05</h.title>
<h.author>Dinakaran</h.author>
<imprint>
<pubPlace>Tamil Nadu, India</pubPlace>
<publisher>Dinakaran</publisher>
<pubDate>03-02-05</pubDate>
</imprint>
</monogr>
</biblStruct>
</sourceDesc>
</fileDesc>
<encodingDesc>
<projectDesc>Text collected for use in the EMILLE project.</projectDesc>
<samplingDesc>Simple written text only has been transcribed. Diagrams, pictures and tables have been omitted and their place marked with a gap element.
</samplingDesc>
<editorialDecl>
<conformance level="1"></conformance>
</editorialDecl>
</encodingDesc>
<profileDesc>
<creation>
<date>03-08-24</date>
</creation>
<langUsage>Tamil</langUsage>
<wsdUsage>
<writingSystem id="ISO/IEC 10646">Universal Multiple-Octet Coded Character Set (UCS).</writingSystem>
</wsdUsage>
<textClass>
<channel mode="w">print</channel>
<constitution type="composite"></constitution>
<domain type="public"></domain>
<factuality type="fact"></factuality>
</textClass>
<translations></translations>
</profileDesc>
<revisionDesc></revisionDesc>
</cesHeader>

<text>
<body>




<p>உத்தர பிரதேசத்தில்
கட்சிதாவி வந்த காங். எம்.எல்.ஏ. 4 பேருக்கு மந்திரி பதவி: மாயாவதி தாராளம்</p>

<p> </p>

<p>லட்சுமணபுரி, பிப்.5- உத்தரபிரதேசத்தில் மாயாவதி அவரது
மந்திரிசபையை நேற்று விரிவுபடுத்தினார். காங்கிரசில் இருந்து கட்சி மாறி வந்த 4
எம்.எல்.ஏ.க்களுக்கு அவர் மந்திரி பதவி அளித்தார். </p><p>
</p><p>
மாயாவதி அரசு </p><p>
</p><p>
உத்தரபிரதேச மாநிலத்தில் பா.ஜ. ஆதரவுடன் கடந்த ஆண்டு மே மாதம் 3-ந்தேதி மாயாவதி அரசு
பதவியேற் றது. கடந்த அக்டோபர் 11-ந் தேதி அவர் மந்திரி சபையை மாற்றியமைத்தார். 13
மந்திரிகள் மாயாவதி மந்திரி சபையில் இருந்தனர். </p><p>
</p><p>
இதனிடையே காங்கிரஸ் கட்சியைச் சேர்ந்த அதிருப்தி எம்.எல்.ஏ.க்கள் 8 பேர் தனி யாகப்
பிரிந்து அகில பாரதிய காங்கிரஸ் என்ற புதிய கட்சியை நடத்தி வந்தனர். இந்த புதிய
கட்சியைச்சேர்ந்த 4 எம்.எல்.ஏ.க்கள் நேற்றுமுன்தினம் அந்த கட்சியை விட்டு விலகி
மாயாவதியின் பகுஜன் சமாஜ்வாடி கட்சியில் இணைந்தனர். </p><p>
</p><p>
மந்திரிசபை மாற்றம் </p><p>
</p><p>
இந்தநிலையில் மாயாவதி நேற்று அவரது மந்திரி சபையை மீண்டும் மாற்றி யமைக்க
தீர்மானித்தார். இதையொட்டி 13 மந்திரிகளும் அவர்களது ராஜினாமா கடிதத்தை மாயாவதியிடம்
கொடுத்தார்கள். இதைத்தொடர்ந்து நேற்று நண்பகல் புதிய மந்திரிகளின் பதவியேற்பு விழா
நடந்தது. மாநில கவர்னர் விஷ்ணுகாந்த் சாஸ்திரி, புதிய மந்திரிகளுக்கு பதவி பிரமாணம்
செய்து வைத்தார். </p><p>
</p><p>
காங். எம்.எல்.ஏ.க்கள் </p><p>
</p><p>
13 மந்திரிகளில் 9 மந்திரிகளுக்கு மீண்டும் மந்திரிபதவி தரப்படவில்லை. ஏற்கனவே
மந்திரியாக இருந்த 4 பேர் மட்டுமே புதிய மந்திரிசபையில் நீடித்தனர். </p><p>
</p><p>
காங்கிரசை விட்டு விலகி மாயாவதியின் கட்சியில் இணைந்த எம்.எல்.ஏ.க்கள் 4 பேரும்
நேற்று புதியமந்திரி சபையில் மந்திரிகளாக பொறுப்பேற்றனர். </p><p>
</p><p>
இணை மந்திரிகள் </p><p>
</p><p>
காசிமி அலிகான், சியாம் நாராயண் திவாரி, கமலேஷ்வர் உபாத்தியாயா, வீரேந்திர சிங்
புண்டேலா என்ற அந்த 4 பேருக்கும் இணை மந்திரி பதவி மற்றும் தனிப் பொறுப்புகள்
அவர்களுக்குத் தரப்பட்டன. </p><p>
</p><p>
இந்த மந்திரிசபை மாற்றியமைப்பு மூலம் உ.பி. மந்திரிகளின் எண்ணிக்கை 79-ல் இருந்து 74
ஆக குறைந்துள்ளது. இதற்கிடையே தங்கள் கட்சியைச்சேர்ந்த 4 பேர் மாயாவதி மந்திரிசபையில்
சேர்ந்தாலும் கூட தொடர்ந்து மாயாவதி அரசை ஆதரிப்போம் என்று அகில பாரதிய காங். கட்சி
நேற்று அறிவித்துள்ளது. </p>

<p> </p>

<p> </p>

<p>இந்துத்வா மூலம் மக்களை
பிரிக்க பா.ஜ. முயற்சிக்கிறது - சோனியாகாந்தி பேச்சு</p>

<p>  </p>

<p>கர்வார், பிப்.5- இந்துத்வா மூலம் மக்களை பிரிக்க பா.ஜ.
முயற்சிக்கிறது என்று சோனியாகாந்தி பேசினார். </p>

<p>
 
 
  
  
  
  
  
  
  
  
  
  
  
  
 
 
 

 
 
<gap desc="illustration"></gap>கர்நாடக மாநிலம் கர்வாரில் மாநில காங்கிரஸ் அரசின் ரூ.280 கோடி திட்ட
தொடக்க விழா நேற்று நடந்தது. காங்கிரஸ் தலைவர் சோனியா காந்தி இந்த திட்டங்களை
தொடங்கி வைத்துப் பேசியதாவது:- </p>

<p>பாரதிய ஜனதா மற்றும் சங்பரிவார் அமைப்புகள் மத அடிப்படையில் சமுதாயத்தை
பிரிக்க இந்துத்வா கொள்கையை தொடர்ந்து பயன்படுத்தி வருகின்றன. மக்கள் விழிப்புடன்
இருந்து பா.ஜ.வின் இந்த முயற்சியை முறியடிக்க வேண்டும். </p>

<p>நாம் அனைவரும் இதயத்தால் ஒன்று சேர்ந்துள்ளோமே தவிர மதத்தால் அல்ல. மக்களை
இணைக்கும் ஊடகமாக மதம் இருக்க வேண்டும். ஆனால் நாட்டின் மதசார்பற்ற தன்மைக்கு இடையூறு
விளைவிப்பதற்காக மதம் சில சக்தி களால் தவறாக பயன்படுத்தப்படுகிறது. </p>

<p>மறைந்த பிரதமர் ராஜீவ்காந்தி அறிமுகப்படுத்திய பஞ்சாயத்து ராஜ் திட்டம்
மேலும் வலுப்பட வேண்டும். அதிகாரங்களை பகிர்ந்தளித்து மக்களை எளிய வகையில் சென்றடைய
வேண்டும். </p>

<p>கர்நாடக மாநிலத்தில் வறட்சியால் பாதிக்கப்பட்ட மக்களின் நிவாரண உதவிக்காக
மத்திய அரசு நிதி உதவியை மேலும் அதிகமாக வழங்க வேண்டும். </p>

<p>இவ்வாறு பேசினார். </p>

<p>முதல்வர் எஸ்.எம்.கிருஷ்ணாவும் விழாவில் கலந்து கொண்டு பேசினார்.
</p>

<p> </p>

<p>சாத்தான்குளம் அ.தி.மு.க.
வேட்பாளர் கோர்ட்டில் ஆஜர்: கிரிமினல் வழக்கை தள்ளுபடி செய்ய முடியாது - நீதிபதி கண்டிப்பு</p>

<p> </p>

<p>சாத்தான்குளம், பிப். 5- சாத்தான்குளம் தொகுதி அ.தி.மு.க.
வேட்பாளர் நீல மேகவர்ணம் கிரிமினல் வழக்கு தொடர்பாக நேற்று நீதிமன்றத்தில்
ஆஜரானார். முன்னதாக இந்த வழக்கு மீதான சமாதான உடன் படிக்கையை ஏற்க நீதிபதி மறுத்து
விட்டார். </p><p>
</p><p>
அ.தி.மு.க. வேட்பாளர் </p><p>
</p><p>
சாத்தான்குளம் தொகுதி இடைத்தேர்தலில் அ.தி.மு.க. வேட்பாளராக நீலமேகவர் ணம்
நிறுத்தப்பட்டுள்ளார். இவர் சாத்தான்குளம் ஒன்றிய அ.தி.மு.க. செயலாளராகவும் உள்ளார்.
கடந்த சில ஆண்டுகளுக்கு முன்பு நடந்த கட்சித் தேர்தலின் போது வேலு என்பவருடன் சேர்ந்து
முன்னாள் ஒன்றிய அ.தி.மு.க. செயலாளர் அரிதாஸ் தாக்கப் பட்டது சம்பந்தமாக நீலமேக
வர்ணம் உள்பட 20 பேர் மீது கிரிமினல் வழக்கு சாத்தான் குளம் கோர்ட்டில் நடந்து வருகிறது.
இந்த வழக்கில் நேற்று ஆஜராகும்படி நீதிபதி நாராயணன் உத்தர விட்டிருந்தார். </p><p>
</p><p>
வேட்பாளர் அறிவித்தபோது நீலமேகவர்ணம் மீது உள்ள கிரிமினல் வழக்கு பற்றி தெரியாமல்
இருந்த ஜெயலலிதா இதுபற்றி தெரிந்ததும் அதிர்ச்சி அடைந்தார். இதையடுத்து அப்பகுதி
மந்திரியை அழைத்து வழக்கை எப்படியாவது வாபஸ் பெற வைக்க வேண்டும் என்று உத்தரவிட்டார். </p><p>
</p><p>
உடன்படிக்கை மனு </p><p>
</p><p>
இதையடுத்து மந்திரி அனிதா ராதாகிருஷ்ணன் வழக்கு போட்டவர்களையும், அரசு மருத்துவமனை
டாக்டரையும் சந்தித்து சமாதானம் பேசினார். இதைத் தொடர்ந்து இந்த வழக்கில் கடந்த
28-1-03 அன்றே சமாதானம் செய்து கொள்வதாக கோர்ட்டில் உடன்படிக்கை மனு தாக்கல்
செய்யப்பட்டு உள்ளது. </p><p>
</p><p>
இந்நிலையில் நேற்று மதியம் 2.45 மணிக்கு வேட்பாளர் நீலமேகவர்ணம் மற்றும் புகார்
தெரிவித்த முன்னாள் ஒன்றிய செயலாளர் அரிதாஸ் ஆகியோர் ஒன்றாக இணைந்து ஒரே காரில்
கோர்ட்டுக்கு வந்தனர். அவர்களுடன் வழக்கில் சம்பந்தப் பட்ட 18 பேரும் வந்தனர். 2 பேர்
மட்டும் வரவில்லை. </p><p>
</p><p>
சமாதானம் </p><p>
</p><p>
பின்னர் 3.30 மணிக்கு புகார் தெரிவித்த அரிதாஸ் கோர்ட்டுக்குள் சென்று சாட்சியம்
அளித்தார். அப்போது அவர், இந்த வழக்கில் நாங்கள் சமாதானம் செய்து விட்டோம். ஆகவே
மேல் விசாரணை செய்ய வேண்டாம் என்று கூறினார். </p><p>
</p><p>
அதன்பிறகு கட்சித்தேர் தலை நடத்திய மதுரை முன்னாள் துணை மேயர் முனிய சாமி சாட்சி
அளித்தார். அப்போது அவர், தேர்தல் நடந்த சமயத்தில் அப்படி ஒரு சம்பவமே நடக்கவில்லை
என்று கூறினார். </p><p>
</p><p>
இந்த வழக்கில் நேற்று சாட்சி சொன்ன அரிதாஸ் ஏற்கனவே கோர்ட்டில் ஆஜராகி தன்னை
வேட்பாளர் நீலமேகவர்ணம் உள்பட சிலர் தாக்கியதை ஒப்புக் கொண்டு சாட்சியம்
அளித்துள்ளார். இந்த நிலையில் தற்போது 2-வது முறையாக சாட்சி சொன்ன போது முதலில்
சொன்னதை மறுத்து சாட்சியளித்தார் என்பது குறிப்பிடத்தக்கது. </p><p>
</p><p>
நீதிபதி கண்டிப்பு </p><p>
</p><p>
இதை நீதிபதி கண்டித்தார். பின்னர் இந்த வழக்கை தள்ளுபடி செய்ய முடியாது. சம்பந்தப்பட்ட
அரசு டாக்டர், மற்றும் அப்போதைய சப்- இன்ஸ்பெக்டர் குமரகுரு பரன் சாட்சியளிக்க வேண்டி
இருக்கிறது. எனவே 6-ந்தேதி (நாளை) மீண்டும் விசா ரணை நடக்கும். அப்போது மேற்படி
டாக்டர், சப்-இன்ஸ்பெக்டர் சாட்சியம் அளிக்க வேண்டும் என்று கூறினார். </p><p>
</p><p>
மிரட்டல் </p><p>
</p><p>
இது பற்றி மூத்த வழக்கறிஞர்கள் கூறும்போது, ஒரு வழக்கில் சாட்சி அளித்தவர் கள்,
அடுத்த சில நாட்களில் 2-வது தடவையாக சாட்சி அளிக்கும்போது மாற்றி சொன்னால், அது
செல்லாது, அது குறுக்கீடு, மிரட்டல் காரணமாக மாற்றி சொன்னதாகி விடும். எனவே முதலில்
அளித்த சாட்சியம் தான் ஏற்றுக்கொள்ளப் படும் என்று தெரிவித்தனர். </p><p>
</p><p>
மாற்று வேட்பாளர் மீதும் கிரிமினல் வழக்கு </p><p>
</p><p>
நீலமேகவர்ணத்தின் மீதான வழக்கை சுமுகமாக முடிக்க அ.தி.மு.க. மேலிடம் தீவிர முயற்சியில்
ஈடுபட்டு வருகிறது. ஆனாலும் தேர்தல் கமிஷன் நீலமேகவர்ணத்தின் மனுவை ஏற்க மறுத்தால்
மாற்று வேட்பாளராக யாரை நிறுத்தலாம் என ஆலோசித்து, இறுதியில் நீலமேகவர்ணத்தின் மகன்
கதிரவன் ஆதித்த னையே அ.தி.மு.க.மாற்று வேட்பாளராக போட முடிவு செய்யப்பட்டது. அவரும்
கடந்த 2-ந்தேதி மாற்று வேட்பாளராக மனுத்தாக்கல் செய்தார். ஆனால் கதிரவன் ஆதித்தன்
மீதும் கிரிமினல் வழக்கு நிலுவையில் உள்ளது என்பது குறிப்பிடத்தக்கது. </p><p>
</p><p>
கடந்த 1994-ம் ஆண்டு படுக்கப்பத்து வெயிலுகந்தம்மன் கோவில் கொடை விழா வின் போது
இலங்கையில் கல்யாணி கவரிங் கடை நடத்தி வரும் செல்லத்துரை என்ப வரை அ.தி.மு.க. மாற்று
வேட்பாளர் கதிரவன் உள்பட 14 பேர் சேர்ந்து தாக்கியது தொடர்பாக தட்டார்மடம்
போலீசில் 147, 148, 328, 323, 324, 326, 506ஈலீலீ 107 போன்ற பிரிவின் கீழ்
வழக்கு உள்ளது. எனவே இந்த வழக்குகளில் இருந்து மாற்று வேட்பாளரை விடுவிக்கவும் பகீரத
முயற்சி நடந்து வருகிறது. </p>

<p> </p>

<p> </p>

<p>அரசு எதைச் செய்தாலும்
எதிர்க்கட்சிகள் எதிர்ப்பதா? வேலூர் விழாவில் ஜெ. தாக்கு</p>

<p> </p>

<p>வேலூர், பிப். 5- அரசு எதைச்செய்தாலும் எதிர்க்கட்சிகள்
எதிர்ப்பதா? என்று ஜெயலலிதா தாக்கிப் பேசினார். </p><p>
</p><p>
அரசியல் கண் </p><p>
</p><p>
வேலூரில் நேற்று அரசு சார்பிலான ரூ.134 கோடி திட்டப்பணிகளை முதல்வர் ஜெயலலிதா தொடங்கி
வைத்தார். </p><p>
</p><p>
இந்த விழாவில் ஜெயலலிதா பேசியதாவது:- </p><p>
</p><p>
நம்மை அன்னியர் தோற்கடித்ததற்கும், அடிமைப்படுத்தியதற்கும், நம்முடைய ஒற்றுமை
இல்லாமைதான் காரணம். </p><p>
</p><p>
அந்த நிலைமைதான் இன்றைய தமிழகத்திலும் நீடிக்கிறது. மக்களின் பொது நலம் குறித்த
பிரச்சினைகளில் கூட, நம்மால் ஒற்றுமையாக செயல்பட முடியவில்லை என்றால் நாம் எதைத்தான்
சாதிக்கப் போகிறோம்? </p><p>
</p><p>
எதிர்க்கட்சிகள் எதையும் அரசியல் கண் கொண்டு பார்ப்பதையே, வழக்கமாகக் கொண்டு
இருக்கின்றனர். அரசு எதை செய்தாலும், அதை எதிர்ப்பதையே எதிர்க்கட்சிகள் வழக்கமாக
கொண்டிருந்தால் மக்களுக்கு எப்படி நன்மை செய்ய முடியும்? இருப்பினும், இத்தகைய இடர்பாடுகளை
எல்லாம் மீறி, நிதிப் பற்றாக்குறை போன்ற சிக்கல்களை எல்லாம் மக்கள் சக்தியோடு,
திறமையாகக் கையாண்டு எனது தலைமையிலான அரசு மக்கள் பணியில் தன்னை முழுமையாக
ஈடுபடுத்திக் கொண்டு வருகிறது. </p><p>
</p><p>
தலைகீழாக மாறியது </p><p>
</p><p>
இன்னும் அதிக அளவில் பெண்கள் இத்தகைய சுய
cjtpf;FGf;fis mikf;f Kd;tuntz:Lk; vd;gnj vdJ nguth. </p><p>
</p><p>
Mz:fnshL bgz:fs; rhpepfh; rkkhf cau ntz:Lkhdhy;/ mth;fs; bghUshjhu hPjpapy;
mjpfhuk; bgw;W jkJ brhe;jf; fhy;fspy; epw;Fk; typikiaa[k;/ jd;dk;gpf;if iaa[k;
bgw ntz:Lk;. mj;jifa yl;rpaj;ij mila ntz:Lk; vd;gjw;fhfj;jhd;. ,j;jifa kfsph; Ra
cjtpf;FGf;fs; cUthf; fg;gl;L ,Uf;fpd;wd. </p><p>
</p><p>
,e;j kfsph; Ra cjtpf; FGf;fis Kjd; Kjyhf ehd; 1992-y; bjhl';fpa nghJ
Muk;gj;jpy; me;jf; FGf;fspy; cs;s kfspUf;F fld; tH';f t';fpfs; bghpJk; jaf;fk;
fhl;od. Mdhy;/ ,d;iwa jpdk; ,e;jr; r{H;epiy jiyfPHhf khwpa[s;sJ. jkpHfbk';Fk;
cs;s ,e;j kfsph; Ra cjtpf;FGf;fsplk;/ gy nfho +gha; nrkpg;g[ epjpahf ,Ug;gij
ghh;j;J/ ,d;iwf;F t';fpfns j';fsplk; me;j nrkpg;g[ epjpia itg;g[ epjpahf
brYj;jp itf;FkhW nfhUtjw;fhf ,e;j kfspiu njor; bry;Yk; epiyik ,d;iwf;F cUthfp
,Uf;fpwJ. </p><p>
</p><p>
,e;jj; jpl;lk; jkpH;ehl;oy; kfsph; thH;tpy; xU kWkyh;r;rpia Vw;gLj;jp cs;sJ.
,e;jg; g[ul;rpfukhd jpl;lj;jpy; nru bkd;nkYk; bgz:fs; mjpf mstpy; Kd; tuntz:Lk;
vd;gnj vdJ nguth. </p><p>
</p><p>
vjph;g;ig kPwp... </p><p>
</p><p>
nuhkhg[hp jPg;gw;wp vhpa[k; nghJ gpoy; thrpj;Jf; bfhz:oUe;jhdhk; ePnuh kd;dd;.
,d;iwa jpdk;/ j";irj; juzpa[k;/ jkpHfKk;/ jz:zPh; ,y;yhky; fha;e;J
bfhz:oUf;fpw nghJ/ vd; g[j;jfj;ij tpiyf;F th';F';fs; vd;W tpsk;guf; fojk;
vGjpf; bfhz:oUf;fpw ,yf;fpa tpahghhp/ fUzhepjp xUtuhfj;jhd; ,Uf;f Koa[k;. </p><p>
</p><p>
,g;gog;gl;l r\f mf;fiwapy;yhj/ jkpHfj;jpd; eyidg; gw;wp bfh";rKk; vz:zpg;
ghuhj/ jdJ rl;lkd;wf; flikiaf; Tl epiwntw;wj; Jg;gpy;yhj kdpjh;fspd;
vjph;g;iga[k; kPwpj; jhd;/ ehd; ,e;jpah tpnyna ,izaw;w khepy khf jkpHfj;ij
cUthf;f cWjp g{z:L/ flikahw;wp tUfpnwd;. </p><p>
</p><p>
,t;thW mth; ngrpdhh;. </p>

<p> </p>

<p> </p>

<p>அ.தி.மு.க. பணப்பலத்தை
நம்பி உள்ளது: நாங்கள் மக்கள் சக்தியை நம்பி உள்ளோம்; காங்கிரஸ் வேட்பாளர்
மகேந்திரன் பேட்டி</p>

<p>  </p>

<p>நெல்லை, பிப். 5- அ.தி.மு.க. பணப்பலம் மற்றும் அதிகாரப்பலத்தை
நம்பி களம் இறங்கி உள்ளது. நாங்கள் மக்கள் சக்தியை நம்பி இருக்கிறோம் என்று
சாத்தான்குளம் தொகுதி காங்கிரஸ் வேட்பாளர் வக்கீல் மகேந்திரன் கூறினார். </p>

<p>நம்பிக்கை </p>

<p>
 
 
<gap desc="illustration"></gap>சாத்தான்குளம் காங்கிரஸ் வேட்பாளர் வழக்கறிஞர் மகேந்திரன் நேற்று
நெல்லையில் நிருபர்களுக்கு பேட்டி அளித்தார். </p>

<p>அப்போது கூறியதாவது:- </p>

<p>கேள்வி:- காங்கிரஸ் போட்டியிட விருப்பம் தெரிவித்து மனு செய்த போது,
வேட்பாளராக அறிவிக்கப்படுவீர்கள் என்ற நம்பிக்கை இருந்ததா? </p>

<p>பதில்:- மொத்தம் 23 பேர் மனு செய்திருந்தோம். வேட்பு மனு பரிசீலனைக்கு முதல்
நாள் 18 பேர் வந்திருந்தனர். அவர்களி டம், உங்களுக்கு சீட் கிடைக்க வில்லை என்றால்,
நீங்கள் யாரை பரிசீலிக்கிறீர் கள்? என்று கேட்ட போது, பெரும்பான்மையோர் என்னை
குறிப்பிட்டு கூறியுள்ளனர். இதனால் எனக்கு சீட் கிடைக் கும் என்ற நம்பிக்கை இருந்தது.
</p>

<p>என்னை தேர்வு செய்த அன்னை சோனியா காந்தி, ஜி.கே.வாசன், சோ.பாலகிருஷ்
ணன், இளங்கோவன் உள்ளிட்ட அனைத்து காங்கிரஸ் தலைவர்களுக்கு எனது நன்றியை தெரி வித்துக்
கொள்கிறேன். </p>

<p>வேட்பாளராக நான் அறிவிக்கப்பட்டதும் மிக்க மகிழ்ச்சியடைந்தேன்.
</p>

<p>பிரசாரம் </p>

<p>கேள்வி:- அ.தி.மு.க.விற்கு எதிராக எதை முன் வைத்து பிரசாரம் செய்ய
திட்டமிட்டுள்ளீர்கள்? </p>

<p>பதில்:- அ.தி.மு.க. பணபலம் மற்றும் அதிகார பலத்தை நம்பியுள்ளது. நாங்கள்
மக்கள் சக்தியை நம்பியுள்ளோம். </p>

<p>கேள்வி:- பணபலம், அதிகார பலத்திற்கு இடையே உங்களால் வெற்றி பெற முடியுமா?
</p>

<p>பதில்:- அ.தி.மு.க.வினர் பணத்தை கொட்ட, கொட்ட எங்களுக்கு மிகவும் நல்லது.
அளவுக்கு மீறி போனால் அமிர்தமும் நஞ்சாகும் என்ற பழமொழியும் உண்டு. அது போல்
அவர்கள் எவ்வளவு பணத்தை வேண்டு மானாலும் கொட்டட்டும். அவை மக்களுக்குத் தானே போகிறது.
</p>

<p>தேர்தல் விதிமுறைகளை மீறி சாலைகள் உள்ளிட்ட பல்வேறு அடிப்படை வசதிகள் சாத்தை
தொகுதியில் செய்யப்பட்டு வருகிறது. இதை அவர்கள் செய்யட்டும் என்று தான் நினைத்திருக்
கிறோம். </p>

<p>அவர்கள் பணத்தையா கொடுக்கிறார்கள்? கொள்ளை யடித்த பணத்தை தான்
கொடுக்கிறார்கள். இதையெல் லாம் மக்கள் உன்னிப்பாக கவனித்துக் கொண்டு தான்
இருக்கின்றனர். மக்களுக்கு எங்கள் மீது நிச்சயம் அனு தாபம் ஏற்படும். </p>

<p>தொழில் வாய்ப்பு </p>

<p>கேள்வி:- நீங்கள் வெற்றி பெற்றால் சாத்தை தொகுதிக்கு என்ன செய்வதாக
திட்டம் வைத் துள்ளீர்கள்? </p>

<p>பதில்:- சாத்தை தொகுதி வறட்சியான தொகுதி. அங்கு குடிநீர் பிரச்சினை உள்ளது.
நிலத்தடி நீர் உப்பாக உள்ளது. இவற்றை சீர் செய்வதற்கான நடவடிக்கைகளை எடுப்பேன்.
</p>

<p>குறிப்பாக சாத்தை தொகுதியில் இருந்து ஏராளமானோர் வௌியூர் சென்று விட்டனர்.
அங்கு தொழில் வாய்ப்புகளை வழங்கும் தொழிற்சாலைகள் ஏதும் இல்லாதது தான் அவர்கள் ஊரை
விட்டு வௌியேற முக்கிய காரணமாகும். எனவே அங்கு தொழில் வாய்ப்புகளை ஏற்படுத்தும்
வகையில் தொழிற்சாலை அமைப்பேன். </p>

<p>மேலும் சாத்தான்குளத்தில் அரசு கல்லூரி கிடையாது. இந்த குறையையும் நிவர்த்தி
செய்வேன். </p>

<p>தி.மு.க. ஆதரவு கேட்போம் </p>

<p>கேள்வி:- தி.மு.க. மற்றும் அனைத்து தோழமை கட்சி களுடனும் ஆதரவு கேட்பீர்
களா? </p>

<p>பதில்:- நிச்சயம் கேட்பேன். அனைத்து தோழமை கட்சி தலைவர்களையும், தொண்டர்
களை சந்தித்து ஆதரவு கேட்பேன். தி.மு.க. தலைவர் கலைஞர் நள்ளிர வில் கைது
செய்யப்பட்டது, போலீசாரால் தாக்கப்பட்டதில் மத்திய அமைச்சர் முரசொலி மாற னின் உடல்
நிலை பாதிப்பு, பரிதி இளம்வழுதி கைது செய்யப்பட்டது, ம.தி.மு.க. பொதுச் செயலாளர் பொடா
சட்டத்தில் தவறான முறையில் கைது செய்யப்பட்டது போன்ற வற்றை தி.மு.க. மற்றும் ம.தி.மு.க.
தொண்டர்கள் மறக்கவில்லை. </p>

<p>பா.ஜ. ஓட்டு </p>

<p>கேள்வி:- பா.ஜ. ஓட்டுகள் உங்களுக்கு கிடைக்குமா? </p>

<p>பதில்:- பா.ஜ.வின் தலைவர்கள் தான் அ.தி.மு.க.வை ஆதரிக்கிறார்கள்.
தொண்டர்கள் அதை விரும்பவில்லை. அத்வானியை செலக்டிவ் அம்னீஷியா என்று ஜெயலலிதா
கூறியதையும், குஷாபாவ் தாக்கரேயை தனது போயஸ் கார்டனில் ஜெயலலிதா காத்திருக்க
வைத்ததையும் தொண்டர்கள் மறக்க வில்லை. ஆகையால் பா.ஜ. தொண்டர்கள் காங்கிரசுக்குத்
தான் வாக்களிப்பார்கள். </p>

<p>முறியடிப்போம் </p>

<p>கேள்வி:- நீங்கள் இந்து என்பதால் கிறிஸ்தவ ஓட்டு உங்களுக்கு கிடைக்குமா?
</p>

<p>பதில்:- சாத்தை தொகுதியை பொறுத்தவரையில் இந்து, கிறிஸ்தவர் பாகுபாடு
கிடையாது. சிறுபான்மை மக்கள் என்றுமே காங்கிரஸ்காரர்கள் தான். அவர்கள் ஆதரவு எங்களுக்கு
தொடரும் என்பதில் எந்தவித சந்தேகமும் இல்லை. </p>

<p>கேள்வி:- தேர்தல் களத்தில் அ.தி.மு.க.வை எப்படி சமாளிப் பீர்கள்?
</p>

<p>பதில்:- அ.தி.மு.க.வினர் வெற்றி பெற வாக்குசாவடியை கைப்பற்றி கள்ள ஓட்டுகளை
போடலாம் என நினைத்துக் கொண்டிருக்கின்றனர். அது நடக்காது. அனைத்து காங் கிரஸ்
தலைவர்களும், தொண்டர்களும் இதை முறியடிப்போம். </p>

<p>கேள்வி:- எவ்வளவு வாக்கு வித்தியாசத்தில் வெற்றி பெறுவீர்கள்?
</p>

<p>பதில்:- பிறரை போன்று 40 மற்றும் 50 ஆயிரம் ஓட்டுகள் வித்தியாசத்தில்
வெற்றி பெறுவேன் என்று கூற மாட்டேன். குறைந்தது 15 ஆயிரம் ஓட்டுகள் வித்தியா சத்தில்
வெற்றி பெறுவேன். </p>

<p>நாகர்கோவிலில் பெருந் தலைவர் காமராஜர் நின்றபோது இருந்த எழுச்சி இப்போது
காணப்படுகிறது. மேலும் சாத்தை தொகுதியில் காங்கிரசாரின் சுவர் விளம்பரங்களை
அ.தி.மு.க.வினர் அழித்து வருகின்றனர். இவற்றை பார்த்து மக்கள் கொதித்துள்ளனர்.
</p>

<p>இவ்வாறு கூறினார். </p>

<p>வேட்பு மனுதாக்கல் </p>

<p>காங்கிரஸ் வேட்பாளர் மகேந்திரன் வருகிற 6-ந்தேதி வேட்பு மனுதாக்கல்
செய்கிறார். மனுதாக்கல் நிகழ்ச்சியில் காங்கிரஸ் செயல்தலைவர் இளங் கோவன் மற்றும்
மாவட்ட நிர்வாகிகள் கலந்து கொள்கிறார்கள். </p>

<p> </p>

<p>சாத்தான்குளம் காங்.
தேர்தல் பணிக்குழு; சோ.பா. - இளங்கோவன் உள்பட 25 பேர் நியமனம்</p>

<p> </p>

<p>சென்னை, பிப். 5- சாத்தான்குளம் தொகுதிக்கு காங்கிரஸ் சார்பில்
சோ.பா., இளங்கோவன் உள்பட 25 பேர் கொண்ட தேர்தல் பணிக்குழு அமைக்கப்பட்டுள்ளது. </p><p>
</p><p>
நேரடி போட்டி </p><p>
</p><p>
சாத்தான்குளம் தொகுதி இடைத்தேர்தலில் அ.தி.மு.க., காங்கிரஸ் இடையே நேரடி போட்டி
ஏற்பட்டுள்ளது. அ.தி.மு.க. சார்பில் நீலமேக வர்ணம் போட்டியிடுகிறார். அவரை எதிர்த்து
காங்கிரஸ் வேட்பாளராக வழக்கறிஞர் மகேந்திரன் நிறுத்தப்பட்டுள் ளார். அ.தி.மு.க.
சார்பில் 10 மந்திரிகள் கொண்ட தேர்தல் பணிக்குழு அமைக்கப்பட்டு மும்முரமாக வேலை செய்து
வருகிறது. </p><p>
</p><p>
25 பேர் விவரம் </p><p>
</p><p>
அவர்களுக்கு போட்டியாக காங்கிரஸ் தேர்தல் பிரசாரத்தை கவனிக்க 25 பேர் கொண்ட தேர்தல்
பணிக்குழுவை சோனியா ஒப்புதலுடன் அகில இந்திய செயலாளர் ரமேஷ் சென்னிதலா நேற்று
வௌியிட்டார். </p><p>
</p><p>
அவர்கள் பெயர் விவரம் வருமாறு:- </p><p>
</p><p>
1) சோ.பாலகிருஷ்ணன் (தலைவர்) </p><p>
</p><p>
2) இளங்கோவன் (செயல் தலைவர்) </p><p>
</p><p>
3) தனுஷ்கோடி ஆதித்தன் </p><p>
</p><p>
4) பீட்டர் அல்போன்ஸ் </p><p>
</p><p>
5) அருணாச்சலம் </p><p>
</p><p>
6) என்.எஸ்.வி.சித்தன் </p><p>
</p><p>
7) பாரமலை </p><p>
</p><p>
8) என்.அப்துல்காதர் </p><p>
</p><p>
9) வி.ராஜசேகரன் </p><p>
</p><p>
10) பொன்.விஜயராகவன் </p><p>
</p><p>
11) ஓ.எஸ்.வேலுச்சாமி </p><p>
</p><p>
12) எஸ்.டேனியல்ராஜ் </p><p>
</p><p>
13) ராணி வெங்கடேசன் </p><p>
</p><p>
14) எச்.வசந்தகுமார் </p><p>
</p><p>
15) ஜஸ்டின் </p><p>
</p><p>
16) பி.கதிர்வேலு </p><p>
</p><p>
17) ஏ.பி.சி.வி.சண்முகம் </p><p>
</p><p>
18) டி.ஜெயசிங் </p><p>
</p><p>
19) ஹென்றி </p><p>
</p><p>
20) சுடலையாண்டி </p><p>
</p><p>
21) கே.வேல்துரை </p><p>
</p><p>
22) சேம்பர் செல்வராஜ் </p><p>
</p><p>
23) பி.வடிவேலு </p><p>
</p><p>
24) ஆர்.எஸ்.ஏ.தங்கசாமி </p><p>
</p><p>
25) ஆவடி சங்கரய்யா </p><p>
</p><p>
இந்த குழுவினர் சாத்தான்குளம் தொகுதிக்கு சென்று முகாமிட்டு காங்கிரஸ் வேட்பாளருக்கு தீவிர
தேர்தல் பணியாற்றுவார்கள் என்று அறிவிக்கப்பட்டுள்ளது. </p>

<p> </p>

<p> </p>

<p>சாத்தையில் காங்கிரஸ்
வென்று காமராஜர் ஆட்சிக்கு வழிவகுக்கும் - சோ.பா. பேச்சு</p>

<p> </p>

<p>பார்த்திபனூர், பிப்.5- சாத்தாங்குளம் சட்டமன்ற தொகுதி
இடைத்தேர்தலில் காங்கிரஸ் வெற்றி பெற்று தமிழ்நாட்டில் காமராஜர் ஆட்சிக்கு அடித்தளம்
அமைக்கும் என்று தமிழ்நாடு காங்கி ரஸ் தலைவர் சோ.பாலகிருஷ்ணன் கூறினார். </p><p>
</p><p>
கூட்டம் </p><p>
</p><p>
பார்த்திபனூரில் காங்கிரஸ் பொதுக்கூட்டம் வட்டாரத் தலைவரும், தலைமைப் பேச் சாளருமான
வி.பி.வீரபத்திரன் தலைமையில் நடைபெற்றது. மாநில பொதுக்குழு உறுப் பினர் நா.ஆர்ட்
கணேசன், வட்டார நிர்வாகிகள் பாலசுப்பிரமணியன், வேல்ச்சாமி, கருணாகரன் ஆகியோர்
முன்னிலையில் நடைபெற்றது. கண்ணன் வரவேற்று பேசினார். கூட்டத்தில் தமிழ்நாடு காங்கிரஸ்
தலைவர் சோ. பாலகிருஷ்ணன் பேசியதா வது:- </p><p>
</p><p>
முதல் எதிர்ப்பு </p><p>
</p><p>
தமிழ்நாட்டில் ஏழை விவசாயிகளுக்கு தமிழக அரசு இலவச மதிய உணவு வழங்கும் திட்டத்தை
காங்கிரஸ் கட்சி தான் முதலில் எதர்ப்பு தெரிவித்து மதிய உணவிற்குப் பதிலாக இலவச அரிசி
வழங்க வேண்டும் என்று மாநில செயற்குழு கூட்டம் கூட்டி தீர் மானம் நிறைவேற்றப்பட்டது. </p><p>
</p><p>
மக்கள் ஆசை </p><p>
</p><p>
தமிழ்நாட்டில் திராவிட கட்சிகளின் ஆட்சி ஊழல் களால் நொந்துபோன மக்கள், காங்கிரஸ்
ஆட்சி மீண்டும் அமைய ஆசையாய் உள்ளனர். தமிழ்நாட்டில் மாறி, மாறி ஊழல் ஆட்சியா? என்று
மக்கள் வெறுத்துப் போய் விட்டார்கள். </p><p>
</p><p>
காமராஜர் ஆட்சி </p><p>
</p><p>
சாத்தான்குளம் தொகுதி இடைத்தேர்தலில் காங்கிரஸ் நிச்சயம் வெற்றிபெறும். இதன் மூலம்
தமிழ்நாட்டில் காமராஜர் ஆட்சி அமைய அடித்தளம் அமைக்கப்படும். சாத்தான் குளம்
தொகுதியில் வெற்றி பெற அ.தி.மு.க. ஆட்சி 2கோடி ரூபாய் செலவு செய்து தற்போது மேலும்
ரூ.20கோடி ரூபாய் செலவு செய்யதயாராகி வருகிறது. ஆனாலும் இதை யெல்லாம் காங்கிரஸ் முறி
யடித்து வெற்றி பெறும். </p><p>
</p><p>
இவ்வாறு அவர் பேசினார். </p><p>
</p><p>
பேசியோர் </p><p>
</p><p>
கூட்டத்தில் கே.வி.ஆர்.ஆர். ராம்பிரபு எம்.எல்.ஏ., ராமநாத புரம் மாவட்ட தலைவர்
ஏ.ரவிச்சந்திரராமவன்னி, மாநில பொதுக்குழு உறுப்பினர் ஆர்ட்.கணேசன், சிறப்பு பேச்சாளர்
ஏ.ஜே.ஆலம், தவ சீலன், மகாதேவன் உள்பட பலரும் பேசினார்கள். </p><p>
</p><p>
கூட்டத்தில் இருளன், எம்.கே.முருகேசன், அசோகன், தேவனேரி சுப்பிரமணியன், அபுபக்கர்,
காமராஜ், புகழ், உசேன், கருப்பையா, தங்கச் சாமி, இ.க.சுப்பிரமணியன் உள்பட வட்டார,
நகர நிர்வாகிகள் பலரும் கலந்து கொண்டனர். ஏ.கார்த்திகேயன் நன்றி கூறினார். </p>

<p> </p>

<p> </p>

<p>பழ.நெடுமாறன் உடல்நலம்
பாதிப்புக்கு ஜெ. பொறுப்பு - வைகோ கண்டனம்</p>

<p> </p>

<p>சென்னை, பிப்.5- பழ.நெடுமாறன் உடல் நலம் பாதிப்புக்கு
ஜெயலலிதாவே பொறுப்பு என்று வைகோ கூறி உள்ளார். </p><p>
</p><p>
அலைக்கழிப்பு </p><p>
</p><p>
ம.தி.மு.க. செய்தி தொடர்பாளர் வழக்கறிஞர் கோ.நன்மாறன் வேலூர் சிறையில்
வைகோவை சந்தித்தபோது அவர் தன்னிடம் கூறியதாக ஒரு அறிக்கையை வௌியிட்டுள்ளார். </p><p>
</p><p>
அதில் வைகோ கூறி இருப்பதாவது:- </p><p>
</p><p>
கடலூர் சிறையில் அடைக்கப்பட்டிருக்கும் பழ.நெடுமாறன் பல பொய் வழக்கு களுக்காக
திண்டுக்கல், திருச்செந்தூர், பூந்தமல்லி என்று தொடர்ச்சியாக அலைக்கழிக்கப்பட்டு
இன்னலுக்கு ஆளாகி வருகிறார். 24-1-2003 அன்று கடலூரில் இருந்து பூந்தமல்லிக்கு
பழ.நெடுமாறன் அழைத்து வரப்பட்டார். அந்த வாகனம் தொழுதூர் அருகே கவிழ்ந்து விட்டது என்ற
செய்தி கேட்டு நான் அதிர்ச்சிக்குள்ளா னேன். </p><p>
</p><p>
ஜெ. முழு பொறுப்பு </p><p>
</p><p>
பழ.நெடுமாறன் உடல் நலம் குன்றியதற்கு யார் காரணம்? யார் பொறுப் பாளி? தமிழக
முதல்வர் ஜெயலலிதாதான். அவர் உடல் நலனுக்கு ஊறு ஏற்படின் ஜெயலலிதாதான் முழுப்பொறுப்பு
ஏற்க வேண்டும் என எச்சரிக்கிறேன். தனது உடல் நலம் கருதியே பழ.நெடுமாறன் தன்னை சென்னை
சிறையில் தங்க வைக்குமாறு கேட்டுக் கொண்டார். அவரது உடல் நலம் ஓரளவு குணமானதும்
சென்னைக்கு மாற்றம் செய்து சென்னை அரசு மருத்துவ மனையில் சிறப்பு சிகிச்சை பிரிவில்
சிகிச்சைக்கு ஏற்பாடு செய்ய அரசு உடனடி நடவடிக்கை மேற்கொள்ள வேண்டும். கருணை சிறிதும்
இல்லாமல் கொடுங்கோலாட்சி புரியும் ஜெயலலிதா னாவடலூர் வள்ளலார் பெயரை கடலூரில்
உச்சரித்த போது, வள்ளலார் காலடி பட்ட புனித மண்ணும்கூட அவமானத்தில் வெட்கித்
துடித்திருக்கும். </p><p>
</p><p>
இவ்வாறு வைகோ தெரிவித்ததாக நன்மாறன் அறிக்கையில் குறிப்பிட்டுள்ளார். </p>

<p> </p>

<p> </p>

<p>சாத்தான்குளம்
இடைதேர்தலில் அ.தி.மு.க.வுக்கு மக்கள் வாக்களிக்க மாட்டார்கள்; டாக்டர் ராமதாஸ்
பேட்டி</p>

<p> </p>

<p>திண்டிவனம், பிப். 5- சாத்தான்குளம் இடைத்தேர்தலில்
அ.தி.மு.க.வுக்கு மக்கள் வாக்களிக்க மாட்டார்கள் என்று பா.ம.க. நிறுவனர் டாக்டர்
ராமதாஸ் கூறினார். </p><p>
</p><p>
நிர்வாக குழு </p><p>
</p><p>
பாட்டாளி மக்கள் கட்சியின் தலைமை நிர்வாககுழு கூட்டம் திண்டிவனத்தை அடுத்த தைலாபுரம்
தோட்டத்தில் நேற்று காலை 11 மணி அளவில் நடந்தது. கட்சி தலைவர் ஜி.கே.மணி எம்.எல்.ஏ.
தலைமை தாங்கினார். கட்சியின் நிறுவனர் டாக்டர் ராமதாஸ் முன்னிலை வகித்தார். பொது
செயலாளர் எ.பொன்னுசாமி வரவேற்று பேசினார். </p><p>
</p><p>
பேட்டி </p><p>
</p><p>
பின்னர் டாக்டர் ராமதாஸ் நிருபர்களுக்கு பேட்டி அளித்தார். </p><p>
</p><p>
அவர் கூறியதாவது:- </p><p>
</p><p>
சாத்தான்குளத்தில் நேர்மையாக தேர்தல் நடந்தால் அ.தி.மு.க. வெற்றி பெற முடியாது.
நேர்மையாக தேர்தல் நடக்க தேர்தல் கமிஷனும் எந்தவித நடவடிக்கையும் எடுக்க வில்லை.
அ.தி.மு.க.வுக்கு மக்கள் ஓட்டுப்போட மாட்டார்கள். நிலைமைக்கு ஏற்ப மக்களே அதை முடிவு
செய்வார்கள். </p><p>
</p><p>
நல்ல உறவு </p><p>
</p><p>
அ.தி.மு.க. தோற்க வேண்டும் என்பதே எங்கள் நோக்கம். யாருக்கு ஆதரவு அளிக்க வேண்டும்
என்பது முக்கிய மல்ல. தேசிய ஜனநாயக கூட்டணியில் நாங்கள் அங்கம் வகிக்கிறோம். அதிலும்
குறிப்பாக தமிழ்நாட்டில் தேசிய ஜனநாயக கூட்டணியில் நல்ல உறவு வைத்திருக்கிறோம்.
பிரச்சினையின் அடிப்படையில் அ.தி.மு.கவுக்கு எதிராக அனைத்து கட்சிகளும் ஒன்றிணைந்து பேச
வேண்டும். கம்யூ னிஸ்டு, தே.ஜ. கூட்டணியில் இருந்து எங்களை வௌியே வரவேண்டும்
என்கிறார்கள். அது தவறு. அதை சொல்லும் உரிமை அவர்களுக்கு இல்லை. </p><p>
</p><p>
இவ்வாறு அவர் கூறினார். </p><p>
</p><p>
தீர்மானங்கள் </p><p>
</p><p>
முன்னதாக நிர்வாக குழுவில் நிறைவேற்றப்பட்ட தீர்மானங்கள் வருமாறு:- </p><p>
</p><p>
தமிழ்நாட்டில் வறட்சியால் உயிரிழந்த 16 பேர் குடும்பங்களுக்கு தலா ரூ.5 லட்சம் நஷ்டஈடு
வழங்க வேண்டும். குடிநீர் பஞ்த்தை தீர்க்க போர்க்கால அடிப்படையில் நடவடிக்கை
மேற்கொள்ள வேண்டும். நிலத்தடி நீர் இல்லாத கிராமங்களுக்கு லாரிகள் மூலம் குடிநீர் வழங்க
முன்னுரிமை வழங்க வேண்டும். </p><p>
</p><p>
இலவச அரிசி </p><p>
</p><p>
வறட்சியின் காரணமாக இனி எந்த இடத்திலும் பட்டினி சாவுகள் நடக்க அரசு இடம் தரக்கூடாது.
இதற்காக அரசு அறிவித்துள்ள இலவச அரிசி திட்டத்தை விரிவுபடுத்தி தேவையுள்ள அனைத்து
குடும்பங்களுக்கும் இலவச அரிசி வழங்க வேண்டும். மேலும் வேலைக்கு உணவு திட்டத்தை முழு
வீச்சில் அமல்படுத்தி வேலைவாய்ப்பை அளிக்கவும் அரசு நடவடிக்கை எடுக்க வேண்டும். </p><p>
</p><p>
வௌ்ளை அறிக்கை </p><p>
</p><p>
வறட்சியால் பயிர்செய்து காய்ந்து கருகிப்போன விவசாயிகளுக்கு ஏக்கருக்கு ரூ.5 ஆயிரம்
வீதமும், கிணறு, வாய்க்கால் வறண்டு பயிர் செய்ய முடியாத விவசாயி களுக்கு ஏக்கருக்கு ரூ.3
ஆயிரம் வீதமும் நஷ்டஈடு வழங்க வேண்டும். வறட்சியின் முழு விவரத்தையும் ஆய்வு செய்து
ஒவ்வொரு மாவட்டத்திலும் மாவட்ட நிர்வாகமே வௌ்ளை அறிக்கை வௌியிட வேண்டும். சென்னை நீங்கலாக
அனைத்து மாவட்டங்களிலும் நிலவரி முதலான அனைத்து வரிகளையும் ரத்து செய்ய வேண்டும்.
விவசாயிகளின் கூட்டுறவு கடன் முதலான அனைத்து கடன்களையும் தள்ளுபடி செய்ய வேண்டும். </p><p>
</p><p>
இடைத்தேர்தல் </p><p>
</p><p>
இம்மாதம் 26-ந்தேதி நடக்க இருக்கும் சாத்தான்குளம் இடைத்தேர்தலில் பா.ம.க.
போட்டியிடுவதில்லை என்று ஏற்கனவே முடிவு செய்து அறிவிக்கப்பட்டு இருக்கிறது. கட்சி
போட்டியிடுவதில்லை என்று ஏற்கனவே முடிவு செய்து அறிவித்து உள்ளது. கட்சி போட்டியிடாத
நிலையில் தேசிய ஜனநாயக கூட்டணியில் அங்கம் வகிக்கும் கட்சிகளில் ஒன்று வேட்பாளரை
நிறுத்தினால் அவரை ஆதரிக்க முடிவு செய்திருந்தது. ஆனால் தேசிய ஜனநாயக கூட்டணியில் அங்கம்
வகிக்கும் கட்சியினர் இடைதேர்தலில் போட்டியிடுவதில்லை என்று முடிவு எடுத்துள்ளன. </p><p>
</p><p>
தகுந்த தீர்ப்பு </p><p>
</p><p>
இந்த நிலையில் பா.ம.க. முடிவு குறித்து விவாதிக்கப்பட்டது. இந்த இடைத்தேர்தல் மாநில
அரசின் நடவடிக்கைகள் மற்றும் செயல்பாடுகள் குறித்து தீர்மானிக்கும் தேர்தல். எனவே
சாத்தான்குளம் வாக்காளர்கள் இது தொடர்பாக தங்களது தீர்ப்பை வழங்கும் வகையில்
வாக்களிக்க வேண்டும். மாநில அரசு தனது இரண்டு ஆண்டு மக்கள் விரோத நடவடிக்கைகளை, தவறுகளை
திருத்திக்கொள்ள முற்படும் வகையில் இந்த இடைத்தேர்தலில் வாக்காளர்கள் தீர்ப்பு
அளிக்க வேண்டும் என்று கட்சி விரும்புகிறது. </p><p>
</p><p>
முன் எச்சரிக்கை </p><p>
</p><p>
சாத்தான்குளம் இடை தேர்தல் நியாயமாகவும், நேர்மையாகவும், நடுநிலையாகவும் நடைபெற
தலைமை தேர்தல் கமிஷன் அனைத்து நடவடிக்கைகளையும் எடுக்க வேண்டும். ஏற்கனவே நடந்த
ஆண்டிப்பட்டி, அச்சிறுபாக்கம், வாணி யம்பாடி ஆகிய இடைத்தேர்தல்களும், சென்னை மாநகராட்சி
தேர்தலும் நடத்தப்பட்டது போல் ஒருதலைப்பட்சமாக நடைபெற இடம் கொடுக்காமல் தேர்தல்
கமிஷன் விழிப்புடன் முன் எச்சரிக்கை நடவடிக்கைகளை மேற்கொள்ள வேண்டும் என்று நிர்வாக
குழு வற்புறுத்துகிறது. </p><p>
</p><p>
விடுதலை செய்க </p><p>
</p><p>
சட்டமன்றத்தில் நடந்ததாக கூறப்படும் ஒரு உரையாடல் நிகழ்வுக்காக தி.மு.க. உறுப் பினர்
பரிதி இளம்வழுதி மீது மேற்கொள்ளப்பட்டுள்ள கிரிமினல் நடவடிக்கை முன் மாதிரி
இல்லாததாகும். எனவே அவர் மீதான கிரிமினல் நடவடிக்கைகளை கைவிட்டு அவரை விடுதலை செய்ய
வேண்டும். அவருக்கு வழங்கப்பட்டுள்ள தண்டனைகளை ரத்து செய்ய வேண்டும். </p><p>
</p><p>
இட ஒதுக்கீடு </p><p>
</p><p>
நீதிமன்றங்களின் தலையீட்டினால் கல்வியில் குறிப்பாக உயர்கல்வியில் இட ஒதுக் கீட்டை
அமுல்படுத்த முடியாத நிலைமையும், அதனால் பொறியியல் போன்ற தொழிற்கல்வியில் நலிந்த
பிரிவினரின் பங்களிப்பை மறுக்கும் சூழ்நிலையும் உருவாகி இருப்பது குறித்து நிர்வாககுழு கவலை
தெரிவிக்கிறது. </p><p>
</p><p>
உறுதியான நடவடிக்கை </p><p>
</p><p>
இந்த இடர்பாட்டை போக்க தமிழக அரசு உறுதியான நடவடிக்கைகளை மேற் கொள்ள வேண்டும். 50
சதவீத இடங்களை ஒற்றைச்சாளர முறைக்கும், மீதி 50 சதவீத இடங்களை இஷ்டம் போல் விலைக்கு
விற்றுக்கொள்ளவும் அனுமதிக்க வேண்டும் என்ற தனியார் கல்லூரிகளின் யோசனையை அரசு
புறக்கணிக்க வேண்டும். குறைந்தது 80 சதவீத இடங்களை அரசு இடஒதுக்கீட்டு சலுகையாக அமுல்படுத்த
வசதியாக ஒற்றைச் சாளர முறைக்கு எடுத்துக்கொள்ள வேண்டும். இதில் மாநில அரசு உறுதியான
நடவடிக்கை மேற்கொள்ள வேண்டும். </p><p>
</p><p>
அத்தகளை நடவடிக்கைகளுக்கு சமூக நீதியில் அக்கறையுள்ள அனைத்து கட்சி களின் துணையோடு இந்த
அநீதியை எதிர்த்து இறுதி வரையில் போராடும். </p><p>
</p><p>
ஆக்கிரமிப்பு </p><p>
</p><p>
தமிழ்நாடு முழுவதும் மழைநீர் சேகரிக்க மக்கள் மத்தியில் விழிப்புணர்வு ஏற்படுத்த
முயற்சிக்கும் இந்த வேளையில் பொக்கிஷமாக நினைத்திருந்த ஏரிகள், குளங்கள், கண்மாய்கள்,
வரத்து வாய்க்கால்கள் ஆகியவற்றை ஆக்கிரமிப்பு செய்து பயன் படுத்தி வருவது பேராபத்தான
செயலாகும். எனவே இவ்வாறு ஆக்கிரமிப்பு செய்பவர்கள் மீது கடும் நடவடிக்கை எடுக்க வேண்டும்.
ஏழை, எளிய, நடுத்தர, தாழ்த்தப்பட்ட, பழங் குடியின, மிகவும் பிற்படுத்தப்பட்ட மற்றும்
பிற்படுத்தப்பட்ட மாணவ-மாணவிகள் நலன் கருதி கல்வி கட்டணத் தையும், தேர்வு
கட்டணத்தையும் உயர்த்தக்கூடாது என்று தமிழக அரசு கேட்டுக்கொள்கிறது. </p><p>
</p><p>
இவ்வாறு தீர்மானங்கள் நிறைவேற்றப்பட்டன. </p>

<p> </p>

<p> </p>

<p>பி.டி.ஓ. - தாசில்தார்
அலுவலகத்தில் இருப்பதே இல்லை: மந்திரிகள் சொன்னால் அதிகாரிகள் கேட்பதில்லை -
ஏ.கே.மூர்த்தி குற்றச்சாட்டு</p>

<p> </p>

<p>காஞ்சிபுரம், பிப்.5- மந்திரிகள் சொன்னால் அதிகாரிகள்
கேட்பதில்லை என்று கட்டிட திறப்பு விழா கூட்டத்தில் ஏ.கே.மூர்த்தி பேசினார். </p><p>
</p><p>
கட்டிட திறப்பு விழா </p><p>
</p><p>
திருக்கழுக்குன்றம் அடுத்த தண்டரையில் உள்ள ஆதி வாசி ஆராய்ச்சி மையத்தில் இருளர்
மேம்பாட்டு பயிற்சி கூட கட்டிட திறப்பு விழா நடந் தது. திட்ட இயக்குநர் கே.கிருஷ் ணன் தலைமை
தாங்கினார். கன்னியம்மா இருளர் இயக்க தலைவர்கள் லட்சுமி, இந்தி ராணி, ரேணுகா ஆகியோர்
முன்னிலை வகித்தனர். </p><p>
</p><p>
மந்திரி பேச்சு </p><p>
</p><p>
மத்திய ரெயில்வே இணை மந்திரி ஏ.கே.மூர்த்தி புதிய கட்டிடத்தை திறந்து வைத்து
பேசியதாவது:- </p><p>
</p><p>
பின் தங்கிய சமுதாயத்தில் பிறந்து வௌி உலகமே தெரியாத நிலையில் உள்ளார்கள் இருளர்
சமூகத்தினர். இவர்கள் வாழ்வு முன்னேற நாம் அனைவரும் பாடுபட வேண்டும். இங்கு இருளர்
பிள்ளைகளுக்காக உணவுடன் தங்கி பயிலும் படிப்பகம் வேண்டும் எனவும் வீட்டு வசதி வேண்டும்
என் றும் கோரினார்கள். இதற்காக மத்திய அரசு மூலம் என் னென்ன முடியுமோ அதை பெற்றுத்தர முயல்வேன்.
</p><p>
</p><p>
தேர்தல் நேரத்தில் வாக்கு களை வாங்கி விட்டு செல்வ தோடு சரி அரசியல்வாதிகள் நான்
உள்படதான். இதனால் தான் டாக்டர். ஐயா எங்களை கிராமம் தோறும் நேரில் சென்று
கோரிக்கை மனுக் களை மக்களிடம் பெறுமாறு உத்தரவிட்டார். அதன்படிநாங்கள் செய்து
வருகிறோம். </p><p>
</p><p>
அதிகாரி இருப்பதில்லை </p><p>
</p><p>
அதே போல அதிகாரிகளும் மாதத்திற்கு ஒரு நாளாவது கிராமங்களுக்கு செல்ல வேண் டும். அப்படி
சென்று மக்களின்் குறைகளை களைய வேண்டும். ஆனால் அதிகாரிகள் கிராமங் களுக்கு
செல்வதில்லை. சரி அதிகாரிகள் இருக்கும் அலுவல கம் நோக்கி சென்றால் பி.டி.ஓ. ஆபிசில்
பி.டி.ஓ. இருக்க மாட்டார். தாலுகா ஆபீசில் தாசில் தார்் இருக்க மாட்டார். </p><p>
</p><p>
அமைச்சர்கள் சொன்னா லாவது அதிகாரிகள் செயல்பட வேண்டும். ஆனால் அதிகாரிகள்
செயல்படுவதில்லை. இது தான் நடந்து கொண்டு இருக்கிறது. </p><p>
</p><p>
பரிதாப நிலை </p><p>
</p><p>
காஞ்சிபுரம்் மாவட்டத்தில் 28 ஆயிரம் இருளர்கள் இருப்ப தாக கூறப்படுகிறது. இங்கு
உள்ள உங்களை பார்க்கிறேன.் தலையில் எண்ணெய் கூட இல்லாத பரிதாப நிலையை பார்க்கிறேன்.
பாம்பு என்றால்் படையும்் நடுங்கும். நம் வீட்டில்் பாம்பு வந்து விட்டால் அதை பிடிக்க
இருளர்களை தேடிப் போகிறோம் இவர்களுக்கு பட்டா வசதி செய்து தரவேண்டும். அரசு இடம்
தந்தால் இங்கு மூலிகை ஆராய்ச்சிக்கு கட்டிடம் கட்டித்தர தொகுதி மேம் பாட்டு திட்டத்தில்்
நீதி ஒதுக்க ஏற்பாடு செய்கிறேன். </p><p>
</p><p>
இவ்வாறு அவர் பேசினார். </p><p>
</p><p>
திருக்கச்சூர் ஆறுமுகம் எம்.எல்.ஏ., ஒன்றியக்குழு தலை வர்கள் திருப்போரூர் லட்சுமி பதி,
காட்டாங்கொளத்தூர் பொன்னுசாமி, திருக்கழுக்குன்றம் வாசு, தண்டரை ஊராட்சி மன்ற தலைவர்
பாஸ்கரன் ஆகியோர் வாழ்த்தி பேசினார்கள். செல்வி, ராணி ஆகி யோர் வரவேற்பு பாடல்
பாடினார்கள். ராஜேஸ்வரி வரவேற்றார். நவநீதம் நன்றி கூறினார். </p><p>
</p><p>
சென்னை கில்டு அமைப்பாளர் பாலாஜி தங்கவேல், பா.ம.க. மாவட்ட துணை செய லர்
காத்திகேயன், வெங்கடேசன், அருள்தாஸ், குகநாதன் ஆகியோர்் கலந்து கொண்ட னர். </p>

<p> </p>

<p> </p>

<p>தி.மு.க. ஆட்சி திட்டங்களை
நிறைவேற்றாதது நியாயமா? அ.தி.மு.க. அரசுக்கு, மத்திய மந்திரி கண்ணப்பன் கேள்வி</p>

<p> </p>

<p>பள்ளிபாளையம், பிப்.5- மக்களுக்கு தேவையான திட்டங்களை
புறக்கணித்திட கூடாது. தி.மு.க. ஆட்சி திட்டம் என்பதால் அவற்றை நிறைவேற்றாதது
நியாயமா? என்று அ.தி.மு.க. அரசுக்கு மத்திய மந்திரி கண்ணப்பன் கேள்வி எழுப்பி
உள்ளார். </p><p>
</p><p>
குடிநீர் தொட்டி </p><p>
</p><p>
நாமக்கல் மாவட்டம் ஆலாம்பாளையம் பேரூராட்சி அலமேட்டில் ரூ.6.5 லட்சம் செலவில் குடிநீர்
மேல்நிலைத் தொட்டி அமைக்கப்பட்டு உள்ளது. பாராளுமன்ற உறுப் பினர் தொகுதி வளர்ச்சி
திட்டத்தின்கீழ் அமைக்கப்பட்டுள்ள இந்த குடிநீர் தொட்டி அமைக்க மத்திய மரபுசாரா
எரிசக்தி துறை இணை மந்திரி மு.கண்ணப்பன் தனது தொகுதி வளர்ச்சி நிதியில் இருந்து 5
லட்சம் ரூபாய் ஒதுக்கி இருந்தார். </p><p>
</p><p>
திறப்பு விழா </p><p>
</p><p>
1 லட்சம் லிட்டர் கொள்ள ளவு கொண்ட இந்த குடிநீர் தொட்டி திறப்பு விழா மாவட்ட
கலெக்டர் டி.ராஜேந்திரன் தலைமையில் நடந்தது. பேரூராட்சி தலைவர் பி.டி.தன கோபால்
வரவேற்றார். மாவட்ட ஊரக வளர்ச்சி முகமை திட்ட அலுவலர் ராஜ, பேரூராட்சிகளின் உதவி
இயக்குனர் வெ.திருவேங்கடம் ஆகியோர் கலந்து கொண்டு பேசினார்கள். </p><p>
</p><p>
மந்திரி கண்ணப்பன் </p><p>
</p><p>
விழாவில் ரிப்பன் வெட்டி குடிநீர் மேல்நிலைத்தொட்டியை திறந்து வைத்த மத்திய மந்திரி
மு.கண்ணப்பன் அதற்கான கல்வெட்டையும் திறந்து வைத்து பேசினார். அவர் பேசியதாவது:- </p><p>
</p><p>
நாடு முழுவதும் இன்று மழை பொய்த்து வருகிறது. பள்ளிபாளையம் காவிரி கரை யில் இருந்தபோதிலும்
இங்கு 500 அடி போர்வெல் போட்டால் தான் தண்ணீர் கிடைக்கிறது. கோவை, பொள்ளாட்சியில்
இது 1000 அடியை தாண்டியாக வேண்டும். </p><p>
</p><p>
பட்டினிசாவு </p><p>
</p><p>
இனிவரும் நாட்களில் வறட்சியை சமாளிப்பது எப்படி என்பதே கேள்விக்குறியாகி வருகிறது. நானும்
எனக்கு ஒதுக்கப்பட்ட நிதியில் பெரும் பங்கை நிரந்தர குடிநீர் தீர்வுக்காக பயன்படுத்தி
வருகிறேன். நாடு முழுவதும் கடும் வறட்சி ஏற்பட்டு வருகிறது. நாட்டு மக்களுக்கு சோறு போட்ட
தஞ்சை விவசாயிகள் இன்று பட்டினியால் சாகின்றனர். தண்ணீர் இல்லாததால்
ராஜஸ்தானில் லட்சக்கணக்கான கால்நடைகள் சாகின்றன. இந்நிலையில் மக்களை காப்பாற்றும்
முயற்சிகளில் பிரதமர் தீவிரமாக ஈடுபட்டு வருகிறார். </p><p>
</p><p>
நதிநீர் இணைப்பு </p><p>
</p><p>
கங்கை முதல் காவிரி வரை நதிகளை இணைக்க மத்திய மந்திரி சுரேஷ்பாபு தலைமை யில் ஒரு குழு
அமைக்கப்பட்டு உள்ளது. ரூ.5 லட்சத்து 20 ஆயிரம் கோடியில் இத்திட்டத்தை செயல்படுத்த
ஆராய்ச்சிகள் மேற்கொள்ளப்பட்டு வருகிறது. இத்திட்டம் நிறைவேற 20 ஆண்டுகள் வரைகூட
ஆகலாம். ஆனால் தண்ணீர் பிரச்சினை நிரந்தரமாக தீர்க்கப்பட்டு விடும். </p><p>
</p><p>
ரெயில்வே மேம்பாலம் </p><p>
</p><p>
காகித ஆலை காலனி அருகே உள்ள ரெயில்பாதை மேம்பாலமாக்கிட வேண்டு மென தனகோபால்
கேட்டார். காகித ஆலை பாலம், மகுடஞ் சாவடி, மொடக்குறிச்சி மற்றும் ஈரோட்டில்
இரு இடங்களிலும் மேம்பாலம் அமைக்கும் திட்டம் உள்ளது. இதுகுறித்து ரெயில்வே அமைச்சருடன்
கலந்து பேசி நடவடிக்கை எடுப்பேன். </p><p>
</p><p>
லக்காபுரம் பாலம் </p><p>
</p><p>
நாமக்கல் மாவட்ட ஆட்சித் தலைவர் அலுவலக திறப்பு விழாவின்போது காவிரியின் குறுக்கே
கொக்கராயன் பேட்டையில் இருந்து ஈரோடு மாவட்டம் லக்காபுரம் பரிசல் துறைக்கும்,
மோகனூரில் இருந்து கரூர் வாங்கல் நகரத்திற்கும் பாலங்களை அமைத் தால் அப்பகுதிகள்
வளமடையும் என கோரிக்கை வைத்தேன். அப்போதைய முதல்வர் கலைஞர் அதை ஏற்றுக்கொண்டு
அப்போதே பாலம் அமைக்க அறிவிப்பு செய்தார். </p><p>
</p><p>
ஆட்சி மாற்றம் </p><p>
</p><p>
அதுபோலவே இடைக்கால பட்ஜெட்டிலும் பாலம் அமைக்க திட்டம் வௌியிடப்பட்டது. அதன்பின்
அரசியல் சூழல் மாறி ஆட்சி மாற்றம் ஏற்பட்டது. புதிய அரசு பொறுப்பேற்றதும் அமைச்சர்
பொன்னையனை சந்தித்து பாலம் அமைக்கும் திட்டத்தை அமுல்படுத்த கேட்டேன். அவரும்
நிச்சயமாக செய்வதாக கூறினார். ஆனால் கடந்த ஆண்டிலும், இந்த ஆண்டிலும் அதற்கான முயற்சிகள்
இல்லை. ஒரு வேலை நிதி நெருக்கடி காரணமாக இருக்கலாம். </p><p>
</p><p>
கோரிக்கை மனு </p><p>
</p><p>
இந்த விழாவிற்கு நிதி அமைச்சர் வந்தால் மீண்டும் இதுகுறித்து வலியுறுத்திட கோரிக்கை
மனுவுடன் வந்தேன். விழாவில் அவர் பங்கேற்கும் வாய்ப்பு இல்லாத சூழலால் இக்கோரிக்கை
பத்திரிகை வாயிலாக சென்றடையட்டும் என்பதற்காக இதை சொன்னேன். </p><p>
</p><p>
நியாயம் இல்லை </p><p>
</p><p>
ஆட்சியும், அரசும் மாறலாம். ஆனால் அரசின் நிர்வாக எந்திரம் ஒன்றே. முந்தைய (தி.மு.க.)
ஆட்சி கொண்டுவந்த திட்டத்தை அடுத்துவரும் அரசு நிறை வேற்றக்கூடாது என்பதில் நியாயம்
இல்லை. அப்பகுதி மக்களுக்கு பாலம் அமைப்பது அவசியம். மக்களுக்கு தேவையான ஒன்றை ஒருபோதும்
புறக்கணித்திடகூடாது. இந்த கோரிக்கையை அரசு நிச்சயம் நிறைவேற்றி வைக்க வேண்டும். </p><p>
</p><p>
இவ்வாறு அவர் பேசினார். </p><p>
</p><p>
கலந்து கொண்டோர் </p><p>
</p><p>
விழாவில் உதவி செயற் பொறியாளர் ஜி.ராஜேந்திரன் மாவட்ட வருவாய் அலுவலர் மகரபூசணம்,
திருச்செங்கோடு கோட்டாட்சித்தலைவர் ஆசியா மரியம், ம.தி.மு.க. மாவட்ட செயலாளர்
டி.என்.குருசாமி, பி.எஸ்.சுந்தரம், பூலக்காட்டூர் சுப்பிரமணி, பி.ஆர்.மனோ கரன்,
கவுன்சிலர் சரவணன், காடச்சநல்லூர் ஊராட்சி மன்ற தலைவர் முனியப்பன், ஆலாம் பாளையம்
பேரூராட்சி மன்ற துணைத்தலைவர் டி.சண்முகம் மற்றும் பேரூராட்சி உறுப்பி னர்கள் கலந்து
கொண்டனர். </p><p>
</p><p>
அ.தி.மு.க. புறக்கணிப்பு </p><p>
</p><p>
மத்திய அமைச்சரான போதிலும் மு.கண்ணப்பன் ம.தி.மு.க.வை சேர்ந்தவர் என்பதால்
ஒட்டுமொத்தமாகவே அ.தி.மு.க.வினர் அனைவரும் விழாவை புறக்கணித்தனர். ஊராட்சி ஒன்றிய
அலுவலக வாசலில் நடைபெற்ற விழாவாக இருந்தபோதிலும் அ.தி.மு.க. ஊராட்சிக்குழு தலைவர்
பி.தங்கமணி, துணைத்தலைவர் ராஜ் இருவருமே அமைச்சர் நிகழ்ச்சியில் பங்கேற்கவில்லை. </p><p>
</p><p>
கண்ணனூர் மாரியம்மன் கோவில் அருகே பள்ளிபாளையம் பேரூராட்சி பகுதியில் பாராளுமன்ற
உறுப்பினர் நிதியில் கட்டப்பட்டுவரும் கழிப்பறை பணியை அமைச்சர் பார்வையிட்டார்.
விதிவிலக்காக அ.தி.மு.க. நகர செயலாளரான பள்ளிபாளையம் பேரூராட்சி தலைவர் இ.மணி
இந்நிகழ்ச்சியில் கலந்து கொண்டார். </p>

<p> </p>

<p> </p>

<p>தியேட்டர் போல மேடையில்
குளு குளு வசதி: கடலூர் ஆடம்பர விழாவில் ஜெ. மீது மக்கள் கடும் வெறுப்பு; இள.புகழேந்தி
எம்.எல்.ஏ. அறிக்கை</p>

<p> </p>

<p>சென்னை, பிப்.5- கடலூர் விழாவில் தியேட்டர் போல மேடையில் குளு
குளு வசதி போன்ற ஆடம்பரங்களால் ஜெயலலிதா மீது மக்கள் கடும் வெறுப்பு அடைந் துள்ளனர்
என்று இள.புகழேந்தி எம்.எல்.ஏ. கூறியுள்ளார். </p><p>
</p><p>
கடலூர் தொகுதி தி.மு.க. எம்.எல்.ஏ. இள.புகழேந்தி வௌியிட்டுள்ள அறிக்கையில்
கூறியிருப்பதாவது:- </p><p>
</p><p>
ரூ.1 கோடி செலவு </p><p>
</p><p>
கடலூர் நகருக்கு ஹெலிகாப்டரில் வந்த முதலமைச்சரின் ஆடம்பரவிழாச் செலவு சுமார் ஒரு
கோடியை கடந்தது. மஞ்ச மைதானத்தில் இருக்கின்ற மேடையை விட்டு புதிதாக மேடை அமைத்து
7.5டன் சக்தியுள்ள குளிர்சாதன வசதி (ஒரு சினிமா திரையங்குக்கு செய்யப்படும் அளவு)யுடன்
ஜெயலலிதா கலந்து கொண்ட விழாவால் மக்கள் வெறுப்பு பன்மடங்காகியிருக்கிறது. </p><p>
</p><p>
மாவட்ட ஆட்சித்தலைவருக்கு ஒரு நாற்காலிகூட போடாத அரசு விழா, அரசு அலுவலகத்தில் (மாவட்ட
ஆட்சியர் அலுவலகம்) பிரமாண்டமாக பல ஆயிரம் செல வில் அமைக்கப்பட்ட அ.தி.மு.க.
கட்சியின் பேனர் விளம்பரம். காலை 8 மணிக்கே கிராமப்புற மகளிரை வாகனங்களில் கொண்டு
வந்து பந்தலில் அமர வைத்தனர் அதிகாரிகள். எல்லாம் பச்சையாய் இருக்க அதிகாரிகள்
மின்கம்பத்தில் கூட பச்சை வர்ணம் தீட்டி தங்கள் விசுவாசத்தை காட்டிக்கொண்டனர்.
நல்லவேளை காய்ந்து கிடந்த புல்லை விட்டு விட்டார்கள் என மக்கள் பேசி இன்றும்
சிரித்துக் கொண்டுள் ளார்கள். கூட்டத்தை சேர்க்க சாப்பாடு பொட்டலமும் ரூ.50, 100 என
தாராளமாக வினி யோகிக்கப்பட்டது. </p><p>
</p><p>
விழா, காலையிலோ அல்லது மாலையிலோ வைக்கலாம், பிற்பகல் 1.30 மணிக்கு நடந்ததே
ஜெயலலிதா தனது வசதியை தவிர மக்கள் நிலையைப் பற்றி கவலைப் படாதவர் என்பதை கூறும்
விதமாக இருந்தது. </p><p>
</p><p>
பரிதாபமான மந்திரிகள் </p><p>
</p><p>
ஜெயலலிதா, எழுதிவைத்ததை....... அரசு விழா என்பதை மறந்து தலைவர் கலைஞர் பற்றி
பொய் பேசி மகிழ்ந்து தனது சேடிஸ்ட் மனப்பான்மையை ஜெயலலிதா காட்டிக் கொண்டார். </p><p>
</p><p>
சட்டமன்றத்தைப் போலவே விழாவை எல்லா எதிர்கட்சி களும் புறக்கணித்தன. பேரவை தலைவர்
காளிமுத்துவும், அமைச்சர்களும் நாற்காலியின் நுனியில் உட்கார்ந்து கொண்டு தங்களது பதவியை
காப்பாற்றி கொள்ள பயந்து நடுங்கிக் கொண்டிருந்ததை தொலைக் காட்சியில் பார்த்தபோது
மிக வும் பரிதாபமாக இருந்தது. ஜெயலலிதா படித்ததில் ஆணவமும் அகம்பாவமும் போட்டி
போட்்டன. </p><p>
</p><p>
இதில் அறிவுரை வேறு கூறி தனது மேதாவிலாசத்தைக் காட்டி அனைவருக்கும் எரிச்சலூட்டி
மகிழ்ந்தார். செய்து முடித்த திட்டங்கள், போடப்பட்ட சாலைகள், கட்டப்பட்ட கட்டிடங்கள்,
தி.மு.கழக. ஆட்சியில் நிறைவேற்றப் பட்டவைகளுக்கு அடிக்கல் நாட்டி மக்களை ஏமாற்றினார்.
கடலூர் தொகுதியில் தலைவர் கலைஞர் ஆட்சியில் தொடங்கப்பட்ட திட்டங்களுக்கு நிதிகூட
ஒதுக்காமல் கடலூரில் விழா நடத்தியுள்ளார். தேவனாம் பட்டினம் பாலம் தி.மு.க. ஆட்சியில்
பணம் ஒதுக்கப்பட்டு பணி செய்யாமல் இதுவரை இருந்த அ.தி.மு.க. அரசு, மக்களுடன், சேர்ந்து
போராடுவேர் என்று நாங்கள் ஒரு மாதத்துக்கு எச்சரிக்கை செய்ததால் அந்த ஒரு பாலத்தை
மட்டும் கட்டுவதாக அறிவித்துள்ளார்கள். ஆனால், ரெயில்வே மேம்பாலத்திற்காக
தொடர்நிதிப் பற்றியும், சிங்கார தோப்பு பாலத்திற்கான, கெடிலம் தரைப்பாலத்
திற்கான, கடலூர் நகர குடிநீர் திட்டத்திற்கான நிதிகள்குறித்து ஜெயலலிதா வாயை
திறக்கவில்லை. </p><p>
</p><p>
அறிவிலித்தனம் </p><p>
</p><p>
சுமார் ரூ.850 கோடியில் திட்டங்கள் நல உதவிகள் என அறிவித்துவிட்டு,தனது சொந்த அரசியல்
பேசி தலைவர் கலைஞரை குறை கூறியது தவிர, டான்சி ஊழல் குற்றவாளி ஜெயலலிதா ஒன்றும்
செய்யவில்லை. புதிய வீராணம் திட்டம் என்றும், பிறகு சென்னை பெருநகர குடிநீர் வழங்கல்
திட்டம்-1 எனவும் விழாவுக்கு மாற்றி மாற்றி தலைப்பு வைத்து உளறி கொட்டினார்.
தேவையில்லா மல் விவசாயிகளுக்கு பதில் சொல்வதாக நினைத்துக் கொண்டு காவிரிப்
பிரச்சினையை வீராணத்துடன் இணைத்துப்பேசி தனது அறிவிலித்தனத்தை காட்டிக் கொண்டார். </p><p>
</p><p>
பொற்கால ஆட்சி நடத்திய தலைவர் கலைஞர் இதே மஞ்சைநகர் மைதானத்தில்
முதல்வராக அரசு விழாவில் காரில் வந்து கலந்து கொண்டு பல நலத்திட்டங்கள் அறிவித்து
பல்லாயிரக்கணக்கான மக்கள் பாராட்ட ஏற்றமிகு எளிமையுடன் நடந்த விழாவையும், இன்று
தேவையில்லாத வகையில் கடலூர் மக்கள் பாதிக்கப்படும் பாதுகாப்பு ஏற்பாடுகள் சுமார் ஒரு
லட்சம் குழல் விளக்குகள்-ஹைமாஸ் விளக்குகள் பல என பகல்நேர விழாவிற்கு இருநாட்களாக
எரிந்து அரசின் ஊதாரித்தனத்தை வௌிச்சமிட்டுகாட்டின. இரு நாட்களாக ஹெலிகாப்டர் ஒத்திகை
பயணம், நிதியில்லை என்று கூறும் ஜெயலலிதாவின் பந்தா காட்டும் பகட்டும் விழாவையும்
நடுநிலையாளர் கள், பொதுமக்கள் ஒப்பிட்டு பார்த்து தலைவர் கலைஞரை இமயம் அளவிற்கு
புகழ்ந்து பேசுவதை கேட்கும்போது எங்கள் இதயம் பெருமிதத்தால் மகிழ்கிறது. </p><p>
</p><p>
ரூ.60 கோடி ஊழல் </p><p>
</p><p>
நிபுணர்களின் இருமாறு பட்ட கருத்துக்களை கொண்ட வீராணம் திட்டத்தை ஜெயல லிதா நிறைவேற்ற
காட்டும் பிடிவாதம். மக்களின் சந்தேகத்தை அதிகப்படுத்துகிறது. ஏற் கனவே நான்குப் பிரிவு
டெண்டர் விட்டதில் சுமார் 60 கோடி ஊழல் என இந்து பத்திரிகை ஆதாரத்துடன் கூறியுள்ளது. பல
நூறு கோடிகளை கபளீகரம் செய்ய ஜெயலலிதா இந்த திட்டத்தை பிடித்துக் கொண்டுள்ளார் மன
மக்கள் குறிப்பாக விவசாயிகள் குற்றம் சாட்டுகின்றனர். </p><p>
</p><p>
நிர்வாக புத்திசாலித்தனமும் இல்லை, நேர்மையாக நடத்திட எண்ணமும் இல்லை, ஊதாரித்தனமாக
மக்கள் பணத்தை செலவழித்து தனக்குத்தானே மாலைப் போட்டுக் கொண்ட ஜெயலலிதாவின் பகட்டை
தவிர,இந்த விழாவால் ஒரு நன்மையும் இல்லை. வரவிருக்கின்ற நிதிநிலை அறிக்கை கூட்டத்தில்
சட்டப்பேரவையில் கடலூரின் நிலையை மீண்டும் எடுத்து வைப்பேன். கவலைப்பட வேண்டாம்.
தமிழகத்தில் மீண்டும் கலைஞராட்சி மலரும் நாள் நெருங்கிக் கொண்டிருக்கிறது.
ஜெயலலிதாவின் மீதுள்ள வெறுப்புக்களை சேமித்து வையுங்கள். தேர்தலில் ஒட்டுமொத்தமாக
மவுனப் புரட்சி வெல்ல உதவும் என பொதுமக்களை கேட்டுக் கொள்கிறேன். </p><p>
</p><p>
இவ்வாறு அவர் கூறியுள்ளார். </p>

<p> </p>

<p> </p>

<p>பா.ஜ.க. செயலாளர்
இல.கணேசன் பேட்டி: ஜெயலலிதா அடிக்கல் நாட்டிய புதிய வீராணம் திட்டம் பயனளிக்காது</p>

<p> </p>

<p>ஈரோடு, பிப்்.5- ஜெயலலிதா அடிக்கல் நாட்டிய புதிய வீராணம்்
திட்டம் மக்களுக்கு பயனளிக்காது என ஈரோட்்டில் இல.கணேசன் கூறினார். </p><p>
</p><p>
பேட்டி </p><p>
</p><p>
பாரதிய ஜனதா கட்சியின் அகில இந்திய செயலாளர் இல.கணேசன் ஈரோட்டில் நேற்று
நிருபர்களுக்கு பேட்டியளித்தார். </p><p>
</p><p>
அப்போது அவர் கூறியதாவது:- </p><p>
</p><p>
தமிழக முதல்வர் ஜெயலலிதா ரூ.720 கோடி செலவிலான புதிய வீராணம் திட்்டத்திற்கு சில
தினங்களுக்கு முன்்பு அடிக்கல் நாட்டினார். இந்த திட்டத்தினால் எந்தவித பயனும் கிடைக்காது
என்று நடுநிலையாளர்கள் கருதுகின்றனர். அப்படியே பலன் தந்்தாலும் அது செய்யப்படும்
செலவுடன்் ஒப்பிட்்டுப்்பார்த்தால் மிகக்குறைந்த பலன்தான் கிடைக்கும். வீராணம் ஏரி
நீரை பயன்படுத்தி சாகுபடி செய்யும் விவசாயிகளுக்்கு இந்்த திட்்டம் பாதிப்்பை
ஏற்்படுத்தும்். எனவே இந்்த திட்டத்தை மேற்்கொள்வதை அரசு தவிர்த்து இருக்்கலாம்்.
வீராணம் ஏரியின் பரப்பளவு 45 ஆயிரம் ஏக்கராகும்். ஏரியின் கொள்ளளவு 1.44 டி.எம்.சி.
</p><p>
</p><p>
வண்டல்்மண் </p><p>
</p><p>
இந்த ஏரியில்் 6 ஆழத்திற்்கு வண்்டல் மண் படிந்து உள்்ளது. இதனால் புள்ளி விவரப்படி
உள்ள ஏரியின் முழுகொள்ளளவிற்கு எப்போதும் தண்ணீர் நிரம்பியது இல்லை, மாறாக 0.96
டி.எம்்.சி. தண்ணீர்தான் நிரம்புகிறது. அடுத்து இந்்த ஏரிக்கு தண்்ணீர் வரும்் வழி
கர்நாடகம், மேட்டூர், கல்்லணை வழியாகத் தான் வீராணத்திற்கு தண்ணீர் கிடைக்கவேண்டும்.
ஏற்கனவே காவிரி பிரச்சினையில் கர்நாடகத்திற்கும் தமிழகத்திற்கும் இடையே மோதல் இருந்து
வருகிறது. எனவே இயற்்கை கருணையால் மட்்டும் போதாது கிருஷ்ணாவும் (கர்நாடக முதல்வர்) கருணை
காட்்டவேண்டும். காவிரியை நம்பி உள்்ள விவசாயிகள்் எடுத்தது போக எஞ்சி உள்ள
நீர்தான் வீராணத்திற்்கு கிடைக்கும். சென்்்னை மக்களின் குடிநீர் தேவைக்காக செயல்
படுத்துகிறோம் எனக்கூறும் அரசின்் செயல்பாட்டினை ஆட்்்சேபனை செய்யவில்லை. ஆனால்
எதிர்பார்த்தபடி வீராணம் திட்டம் உரியபயன்் அளிக்குமா? சந்தேகம்் தான். </p><p>
</p><p>
தூர் எடுக்கவில்லை </p><p>
</p><p>
வீராணம் ஏரியில் தூர் எடுக்க ஏற்பாடு செய்்யப்பட வில்லை. இதுபற்றி குறைந்்த செலவில்
நிறைந்த பலன் தரக்்கூடிய, கோவையை சேர்ந்்த கிருஷ்்ணசாமி கவுண் ்்டர் சொல்லும்
திட்டத்தினை அரசு பரிசீலனை செய்ய வேண்டும்். மேலும் சென்னை நகருடன் ஒப்்பிடும்போது
வீராணம் பகுதி தாழ்்வான பகுதி. எனவே பம்புசெய்து தான் சென்னைக்கு தண்ணீர் கொண்டு
செல்லமுடியும்.கோ டைகாலத்தில் மட்டுமே சென்னையில் குடிநீர் தட்டுப்பாடு ஏற்படும்.
அப்்போது வீராணம் ஏரியில் தேவையான அளவு தண்ணீர் இருக்குமா? என்பது சந்தேகம்.மழைகாலத்்தில்
ஏரி நிரம்பி இருக்கும். எனவே இந்த திட்டத்தால் நஷ்டம் ஏற்படும். விவசாயிகள்்
பாதிக்கப்படு வார்கள். ஆகவே புதிய வீராணம் திட்டம் குறித்து அரசு மறுபரிசீலனை செய்ய
வேண்டும். இந்்த கோரிக்கையை வலியுறுத்தி தமிழகத்தில் உள்ள மாவட்டத்தலை நகரங்களில்
இந்த மாதம் 10-ந் தேதி ஆர்ப்பாட்டம் நடத்தப்் படவுள்ளது. பா.ஜ.க.விவசாயிகள்் அணி
சார்பில் நடைபெறும் இந்்த ஆர்ப்பாட்டத்தில் கட்சியின்் நிர்வாகிகள்் அனை வரும்
தவறாமல் கலந்து கொள்ளவேண்டும். பவானி ஆற்றின் குறுக்்கே கேரள அரசு அணைகட்டுவது என்பது
ஏற்்புடையதல்ல. தமிழக முதல்வர் கேரள முதல்வரை சந்தித்து பேசவேண்்டும். பேச்சு
வார்த்தையில் தீர்வுகள் ஏற்்படும். எனவே மத்்திய அரசின் கவனத்தை ஈர்க்கும்
பொருட்டும், மாநிலத்தலைவர் கிருபாநிதி தலைமையில் கோரிக்கை வைப்போம்். சாத்தன் குளம்
தேர்தலைபொறுத்த மட்்டில் தி.மு.கழகம் என்ன செய்ததோ அதையேதான்் நாங்்களும்்
பின்்பற்றுகிறோம். காவிரி நிதிநீர் பிரச்சினை தொடர் பாக ஆணையக்கூட்டத்தில்
காங்கிரஸ்் கட்சி ஆளும்் மாநில முதல்வர்கள் தவறாமல் கலந்துகொள்ளவேண்டும்் என
காங்கிரஸ் கட்சியின் தலைவி சோனியாகாந்தி உத்தரவிடவேண்டும். </p><p>
</p><p>
இவ்வாறு அவர் கூறினார் </p><p>
</p><p>
உடனிருந்தோர் </p><p>
</p><p>
பேட்்டியின்்போது பா.ஜ.க. நிர்வாகிகள் இமயம்் சந்்திரசேகரன், ஏ.காந்தி, சரவணன்
ரமேஷ் உள்பட பலர்் உடன் இருந்தனர். </p>

<p> </p>

<p> </p>

<p>வேலூர் பயணத்தால் கோட்டை
காலி: ஜெ.வுக்காக விமான நிலையத்தில் காத்து கிடந்து ஏமாந்த மந்திரிகள்</p>

<p> </p>

<p>சென்னை, பிப்.5- முதல்மந்திரி ஜெயலலிதா வேலூருக்கு
ஹெலிகாப்டரில் புறப்பட்டு செல்லும் இடத்தை திடீரென்று மாற்றியதால் வழியனுப்ப வந்த
மந்திரிகள் ஏமாற்றம் அடைந்தனர். கோட்டை காலியானதால் பொதுமக்கள்
அவதிக்குள்ளானார்கள். </p><p>
</p><p>
விமான நிலையத்தில் காத்திருந்த மந்திரிகள் </p><p>
</p><p>
முதல்மந்திரி ஜெயலலிதா அரசு நல திட்ட உதவிகளை வழங்குவதற்காக நேற்று வேலூர் சென்றார்.
பகல் 12.40 மணிக்கு வீட்டிலிருந்து புறப்பட்டு அவர் கோட்டை அருகே உள்ள கடலோர காவல் படை
மைதானம் வந்தார். 12.50 மணிக்கு ஹெலிகாப்டர் மூலம் வேலூர் புறப்பட்டு சென்றார்.
முன்னதாக ஜெயலலிதா அண்ணா பல்கலைக்கழக மைதானத்திலிருந்து ஹெலி காப்டரிலிருந்து புறப்பட்டு
செல்வார் என்று கூறப்பட்டது. </p><p>
</p><p>
ஜெயலலிதா விமானம் வருவார் என்று கேள்விப்பட்டு வழியனுப்புவதற்காக மந்திரி கள் பலர்
சென்னை விமான நிலையத்தில் காலை 10 மணி முதல் காத்து கிடந்தனர். போலீசாரும் விமான
நிலையம் வரை வழிநெடுக குவிக்கப்பட்டு இருந்தனர். பகல் 12 மணிக்கு தான் ஜெயலலிதா அங்கு
வரவில்லை என்பது மந்திரிகளுக்கு தெரிந்தது. இதனால் மந்திரிகள் பெருத்த ஏமாற்றம்
அடைந்தனர். </p><p>
</p><p>
மாலை 4.15 மணிக்கு ஜெயலலிதா வேலூர் நிகழ்ச்சி முடிந்து சென்னை கடலோரக் காவல் படை
மைதானத்தில் ஹெலிகாப்டரில் வந்து இறங்கி வீடு திரும்பினார். </p><p>
</p><p>
ரூ.5 லட்சம் செலவு </p><p>
</p><p>
ஏற்கனவே 10 மந்திரிகள் சாத்தான் குளம் தொகுதியில் முகாமிட்டு இருக்கிறார்கள்.
மீதியுள்ள மந்திரிகள் ஜெயலலிதாவை வழியனுப்ப காத்து கிடந்ததால் கோட்டைக்கு யாரும்
வரவில்லை. மந்திரிகள் வராததால் பணிகள் பாதிப்படைந்தன. பொது மக்கள் பெரும்
அவதிக்குள்ளானார்கள். ஜெயலலிதாவின் ஹெலிகாப்டர் பயணத்திற்கு மட்டும் ஒரு நாளில் ரூ.5
லட்சம் செலவாகும் என்று அதிகாரி ஒருவர் கூறினார். </p>

<p> </p>

<p> </p>

<p>மார்க்சிய கம்யூனிஸ்டு
20,000 கி.மீ நடைபயணம்: மாநில அரசின் அவலங்களை மக்களிடம் எடுத்துரைத்தனர்</p>

<p> </p>

<p>சென்னை, பிப். 5- மார்க்சிய கம்யூனிஸ்டு கட்சியினர் நேற்று
தமிழ்நாடு முழுவதும் பிரசார நடைபயணம் மேற்கொண்டு அ.தி.மு.க. அரசின் அவலங்களை மக்களிடம்
எடுத்துரைத்தனர். </p><p>
</p><p>
தமிழ்நாடு முழுவதும் </p><p>
</p><p>
வறட்சியால் பாதிக்கப்பட்டு உள்ள தமிழக மக்களுக்கு உரிய நிவாரணம் வழங்க கோரி
மார்க்சிய கம்யூனிஸ்டு கட்சியினர் நேற்று தமிழ்நாடு முழுவதும் ஆயிரம் குழுக்களாக பிரிந்து
20 ஆயிரம் கி.மீட்டர் தூரம் நடந்து மக்களை சந்தித்து அ.தி.மு.க. அரசின் அவலங்களை
எடுத்துரைத்தனர். </p><p>
</p><p>
மேலும், வறட்சியால் பாதிக்கப்பட்டு உள்ள விவசாயிகளுக்கு 30 கிலோ அரிசியுடன் ரூ.25
பணமும் வழங்க வேண்டும். உணவுக்கான வேலை திட்டத்தை தொடங்க வேண்டும் என்று அரசை
வலியுறுத்தினர். </p><p>
</p><p>
இதன் ஒரு பகுதியாக சென்னையில் நேற்று காலை பூங்கா நகர் தொகுதி கே.பி. பார்க்கில்
பிரசார நடைபயணத்தை அந்த கட்சியின் மாநில செயலாளர் என்.வரதராஜன் தொடங்கி வைத்தார்.
இந்த நடைபயணம் இரவு 7 மணி அளவில் பெரியமேடு கால்நடை மருத்துவமனையில் முடிவடைந்தது. </p><p>
</p><p>
கண்துடைப்பு நடவடிக்கை </p><p>
</p><p>
பிரசார பயணத்தின்போது அக்கட்சியினர் பொதுமக்களிடம் செய்த பிரசாரம் வருமாறு:- </p><p>
</p><p>
தமிழகம் வரலாறு காணாத வறட்சியில் சிக்கி தவிக்கிறது. காவிரி பாசனப் பகுதியில் குறுவை
சாகுபடி பொய்த்து போனது. சம்பா சாகுபடியும் காய்ந்து போனது. மக்களுக்கு குடிநீர் கிடைப்பது
கூடஅரிதாகி விட்டது. ஆனால் தமிழகத்தை ஆளும் அ.தி.மு.க அரசு வறட்சி நிலைமையை கண்டு
கொள்ளவே இல்லை. கடைசியில் ஆளுநர் உரையில் தான் தமிழகத்தை வறட்சி பகுதியாக
அறிவித்துள்ளது. அதுவும், வறட்சி நிவாரண பணிகளை உரிய காலத்தில் மேற்கொள்ளாமல்
கண்துடைப்பு நடவடிக்கையாக கிராமத்தில் 50 பேருக்கு மட்டுமே உணவு தரும் மதிய உணவு
திட்டத்தை கொண்டு வந்துள்ளது. </p><p>
</p><p>
வெந்த புண்ணில் வேல் பாய்ச்சுவது போல ஆளும் அ.தி.மு.க. அரசு ரேசன் அரிசி உள்ளிட்ட
அனைத்து பொருட்களின் விலையையும் உயர்த்துகிறது. குடிநீருக்கு புதிய வரி விதிக்கிறது.
விலை-வரி-கட்டண உயர்வு அதிகாரிக்கும் என்று ஆளுர் உரையில் மிரட்டுகிறது. </p><p>
</p><p>
இவ்வாறு கூறினர். </p>

<p> </p>

<p> </p>

<p>சாத்தான்குளம் தேர்தல்
முடிவு, ஜெ. ஆட்சிக்கு கடிவாளமாகும் - டாக்டர் கிருஷ்ணசாமி</p>

<p> </p>

<p>மதுரை, பிப்.5- சாத்தான்குளம் இடைத்தேர்தல் முடிவு ஜெ. ஆட்சிக்கு
கடிவாளமாகும் என டாக்டர் கிருஷ்ணசாமி கூறினார். </p><p>
</p><p>
புதிய தமிழகம் கட்சி தலைவர் டாக்டர் கிருஷ்ணசாமி நேற்று மாலை மதுரையில் நிருபர்களுக்கு
பேட்டி அளித்தார். </p><p>
</p><p>
அது வருமாறு:- </p><p>
</p><p>
சாத்தான்குளம் தேர்தலை பொறுத்தவரை அங்கு இருமுனை போட்டி என்பது முடிவாகிவிட்டது. ஆளும்
ஆட்சிக்கு எதிராக எதிர்க்கட்சியினர் எல்லாம் இணைந்து பேட்டியிடுவதால் 3-வது அணிக்கு இடம்
இல்லை என்பது தெரிகிறது. இதைப் பார்க்கும் போது ஒன்றரை ஆண்டு நடக்கும் மக்கள் விரோத
ஆட்சிக்கு கடிவாளம் போடக்கூடியதாக அமையும் என்று நம்புகிறேன். இடைத்தேர்தல் என்றாலே
ஆளும் கட்சி வெற்றிபெற வேண்டும் என்பதற்காக ஒருசில முறைகேடுகள் செய்வது வழக்கம். ஆனால்
இப்போது முறைகேடே அ.தி.மு.க. வாக இருக்கிறது. அந்த முறைகேட்டை மக்கள் சக்தி தான்
முறியடிக்க வேண்டும். காங்கிரஸ்கட்சி சாத்தான்குளம் தேர்தலில் போட்டி போடுகிறது. அந்த
கட்சி எதிர்க்கட்சிகளுக்கு ஆதரவு கேட்டு கடிதம் எழுதி உள்ளது எதிர்க்கட்சிகளின் ஆதரவை
மட்டும் பெற்று விட்டு சும்மா இருக்க கூடாது. எதிர்க்கட்சியினரையும் களத்தில் இறக்கும்
பணியை காங்கிரஸ் கட்சி செய்ய வேண்டும். இன்னும் 3 1/2 ஆண்டு காலம் மக்கள் நிம்மதியாக
வாழ வேண்டும் என்றால் சாத்தான்குளம் தேர்தலில் அ.தி.மு.க. தோற்கடிக்கப்பட வேண்டும். </p><p>
</p><p>
தமிழ்நாட்டில் உள்ள 239 சுயநிதி பொறியியல் கல்லூரிகளில் மாணவர்கள் சேர்ப்பதில்
எடுத்திருக்கும் முடிவு கண்டிக் கத்தக்கது. அரசு அழைத்து பேச்சுவார்த்தை நடத்தியதில் கல்லூரி
பிரதிநிதிகள் சில வரைமுறைகளை சொல்லி உள்ளனர். அதற்கு அரசு ஒப்புக்கொள்ளக்கூடாது.
வருகிற 10-ந்தேதி சென்னையில் அனைத்து கல்லூரி மாணவர்கள், பெற்றோர்களை அழைத்து பேச
இருக்கிறேன். மாணவர்களுக்கு மானியம் கொடுக்காமல் மீண்டும் கல்விக்கடன் தொகை வழங்க
வேண்டும். இவ்வாறு கூறினார். </p>

<p> </p>






</body></text></cesDoc>