<cesDoc id="tam-w-dinakaran-politics-02-04-17" lang="tam">
<cesHeader type="text">
<fileDesc>
<titleStmt>
<h.title>tam-w-dinakaran-politics-02-04-17.txt</h.title>
<respStmt>
<respType>Electronic file created by</respType>
<respName>Department of Linguistics, Lancaster University</respName>
<respType>text collected by</respType>
<respName>Paul Baker and Celia Worth</respName>
<respType>transferred into Unicode by</respType>
<respName>"Unicodify" software by Andrew Hardie</respName>
</respStmt>
</titleStmt>
<publicationStmt>
<distributor>UCREL</distributor>
<pubAddress>Department of Linguistics, Lancaster University, Lancaster, LA1 4YT, UK</pubAddress>
<availability region="WORLD"></availability>
<pubDate>03-08-24</pubDate>
</publicationStmt>
<sourceDesc>
<biblStruct>
<monogr>
<h.title>"Dinakaran" internet news (www.dinakaran.com), news stories collected on 02-04-17</h.title>
<h.author>Dinakaran</h.author>
<imprint>
<pubPlace>Tamil Nadu, India</pubPlace>
<publisher>Dinakaran</publisher>
<pubDate>02-04-17</pubDate>
</imprint>
</monogr>
</biblStruct>
</sourceDesc>
</fileDesc>
<encodingDesc>
<projectDesc>Text collected for use in the EMILLE project.</projectDesc>
<samplingDesc>Simple written text only has been transcribed. Diagrams, pictures and tables have been omitted and their place marked with a gap element.
</samplingDesc>
<editorialDecl>
<conformance level="1"></conformance>
</editorialDecl>
</encodingDesc>
<profileDesc>
<creation>
<date>03-08-24</date>
</creation>
<langUsage>Tamil</langUsage>
<wsdUsage>
<writingSystem id="ISO/IEC 10646">Universal Multiple-Octet Coded Character Set (UCS).</writingSystem>
</wsdUsage>
<textClass>
<channel mode="w">print</channel>
<constitution type="composite"></constitution>
<domain type="public"></domain>
<factuality type="fact"></factuality>
</textClass>
<translations></translations>
</profileDesc>
<revisionDesc></revisionDesc>
</cesHeader>

<text>
<body>




<p>குஜராத் விவகாரம், சோனியா
மன்னிப்பு கேட்க கோரிக்கை: பாராளுமன்ற இரு சபை களிலும் 2-வது நாள் கூச்சல்-குழப்பம்,
ஆரம்பம் முதல் அமளி-நாள் முழுவதும் தள்ளிவைப்பு</p>

<p> </p>

<p>புதுடெல்லி,ஏப்.17- பாராளுமன்ற இரு சபைகளிலும் குஜராத் பிரச்சினை
காரணமாக நேற்று 2-வது நாளாக கூச்சல்- குழப்பம் நீடித்தது. ஆரம்பம் முதல் அமளி நிலவியதால்
நாள் முழுவதும் அலுவல் எதுவும் நடக்காமல் சபை தள்ளிவைக்கப்பட்டது </p><p>
</p><p>
குஜராத்தில் வகுப்பு கலவரத்தால் 800 பேருக்கு மேல் இறந்து உள்ளனர். ஒரு மாதத்துக்கு மேல்
ஆகியும் கலவர தீ எரிகிறது. </p><p>
</p><p>
அதனால் வன்முறையை கட்டுப்படுத்த முடியாத முதலமைச்சர் நரேந்திர மோடியை நீக்க வேண்டும்என்று
எதிர்க்கட்சிகள் பாராளுமன்ற இரு சபைகளிலும் வற்புறுத்தி வருகின்றன.நேற்று 2-வது நாளாக இரு
சபைகளிலும் அமளி ஏற்பட்டது. </p><p>
</p><p>
சோனியா ஒழிக கோஷம் </p><p>
</p><p>
மக்களவை நேற்று காலையில் கூடியதும் காங்கிரஸ் தலைமை யில் எதிர்க்கட்சி உறுப்பினர்கள்
கோஷங்களை முழங்கினர். அவர்கள் சபாநாயகர் இருக்கை அருகே சென்று குஜராத் முதலமைச்சர்
மோடியை நீக்க வேண்டும் என்று கோஷ மிட்டனர். அதற்கான ஒத்திவைப்பு தீர்மானத்தை
அனுமதிக்க வேண்டும் என்று வற்புறுத்தினர். </p><p>
</p><p>
அதே நேரத்தில், பிரதமர் வாஜ்பாய் புத்தி தடுமாறி விட்டார் என்று பேசிய சோனியா
காந்தி மன்னிப்பு கேட்க வேண்டும் என்று பாரதிய ஜனதா கட்சியினர் கோஷம்
போட்டனர்.சோனியா ஒழிக என்று முழங்கினா.் </p><p>
</p><p>
வாஜ்பாய் மன்னிப்பு </p><p>
</p><p>
அதைத் தொடர்ந்து கோவாவில் நடந்த பாரதிய ஜனதா நிர்வாக குழுவில் வாஜ்பாய் பேசியது ஒரு
சமூகத்தினர் மனதை புண்படுத்தி உள்ளது.அதற்கு வாஜ்பாய் மன்னிப்பு கேட்க வேண்டும் என்று
வற்புறுத்தினர். </p><p>
</p><p>
அப்போது சோனியா சபையில் இருந்தார்.வாஜ்பாய் வரவில்லை. அத்வானி உள்பட மூத்த
மந்திரிகள் சபையில் இருந்தனர். </p><p>
</p><p>
சபை தள்ளிவைப்பு </p><p>
</p><p>
மக்களவை தெலுங்கு தேசம் தலைவர் எர்ரன் நாயுடு எழுந்து குஜராத் பிரச்சினையை சபையில் எழுப்ப
முயன்றார். ஆனால் கூச்சலாக இருந்ததால் அவர் முயற்சி எடுபடவில்லை. </p><p>
</p><p>
உறுப்பினர்களை இருக்கையில் அமரும்படி துணை சபாநாயகர் பி.எம் சையது விடுத்த வேண்டுகோளை
உறுப்பினர்கள் ஏற்கவில்லை. அதனால் சபையை பகல் 12.15 மணிவரை துணை சபாநாயகர்
தள்ளிவைத்தார். </p><p>
</p><p>
மீண்டும் சபை கூடியதும் உறுப்பினர்கள் போட்டி போட்டு கோஷம் போட்டனர். அதனால் சபையை
நாளை (இன்று)வரை ஒத்தி வைப்பதாக துணை சபாநாயகர் அறிவித்தார். </p><p>
</p><p>
நேற்று சபையில் தொடக்கத்தில் கேள்வி நேரம்கூட நடக்கவில்லை. </p><p>
</p><p>
மாநிலங்களவையில் </p><p>
</p><p>
நேற்று மாநிலங்களவை கூடியதும்,காங்கிரஸ் தலைமையில் எதிர்க்கட்சி உறுப்பினர்கள்
கோஷம்போட தொடங்கினர்.அவர்களுடன் சேர்ந்து தேசிய ஜனநாயக கூட்டணியில் உள்ள தெலுங்கு
தேசம் உறுப்பினர்களும் முதல்வர் நரேந்திர மோடியை நீக்க வேண்டும் என்று கோஷம்
போட்டனர். </p><p>
</p><p>
அதனால் சபை தலைவர் கிருஷ்ணகாந்த் சபையை நாள் முழுவதற்கும் தள்ளி வைத்தார் </p><p>
</p><p>
குஜராத் வன்முறை: சபாநாயகரிடம் </p><p>
</p><p>
எதிர்க்கட்சிகள் நோட்டீசு </p><p>
</p><p>
புதுடெல்லி, ஏப்.17- குஜராத் கலவரம் தொடர்பாக மக்களவையில் காங்கிரஸ் ஒத்திவைப்பு
தீர்மானம் கொண்டு வந்தது. ஆனால் அதன் மீது விவாதம் நடத்த அனுமதி வழங்கப்பட வில்லை.
இந்த நிலையில் கலவரம் தொடர்பாக மக்களவையில் உடனடியாக ஓட்டெடுப்புடன் விவாதம் நடத்த
வேண்டும் என்று கம்யூனிஸ்டு, சமாஜ் வாதி கட்சி, தேசியவாத காங்., ராஷ்டிரிய ஜனதாதளம்,
கேரள காங்கிரஸ் மற்றும் இந்திய யூனியன் முஸ்லிம் லீக் கட்சிகள் துணை சபாநாயகரிடம்
நோட்டீசு கொடுத்து உள்ளன. இதை மார்க்.கம்யூ. தலைவர் சோம்நாத் சட்டர்ஜி
தெரிவித்தார். </p><p>
</p><p>
தெலுங்கு தேசம் கட்சியும் இதை வலியுறுத்தி உள்ளது. பாராளுமன்ற தெ.தேச கட்சித் தலைவர்
எர்ரன்நாயுடு இது தொடர்பாக மக்களவை துணை சபாநாயகருக்கு கடிதம் எழுதியுள்ளார். ஆனால்
தெ.தேசம் கட்சியிடம் இருந்து அப்படி எந்த தகவலும் வரவில்லை என்று மக்களவை செயலக
வட்டாரங்கள் தெரிவித்தன. </p>

<p> </p>

<p> </p>

<p>தே.ஜ. கூட்டணி ஆட்சியை
கவிழ்த்து விட்டு, மாற்று ஆட்சி அமைக்க சோனியா முயற்சியா? காங்கிரஸ் பதில்</p>

<p> </p>

<p>புதுடெல்லி, ஏப். 17- குஜராத் விவகாரத்தில் தேசிய ஜனநாயக
கூட்டணி அரசை கவிழ்த்து விட்டு மாற்று அரசு அமைக்க சோனியா முயற்சி செய்கிறாரா?
என்பதற்கு காங்கிரஸ் கட்சி விளக்கம் அளித்து உள்ளது. </p><p>
</p><p>
காங்கிரஸ் செய்தி தொடர்பாளர் ஜெய்பால்ரெட்டி நேற்று டெல்லியில் நிருபர்களிடம்
கூறியதாவது:- </p><p>
</p><p>
குஜராத் முதன் மந்திரி நரேந்திர மோடியை நீக்குவது தொடர்பான ஒத்திவைப்பு தீர்
மானத்தில் காங்கிரஸ் விட்டுக் கொடுக்க மறுக்கிறது என்பதால் தே.ஜ. கூட்டணி ஆட்சியை கவிழ்த்து
விட்டு மாற்று ஆட்சி அமைக்க முயற்சி செய்கிறோம் என்பது சரியல்ல. தே.ஜ. கூட்டணியில்
என்ன நடக்கிறது என்பதை பிறரைப் போலவே காங்கிரசும் ஒரு பார்வையாளராக இருந்து பார்த்துக்
கொண்டு இருக்கிறது. அரசை கவிழ்க்க நாங்கள் முயற்சிக்க வில்லை. </p><p>
</p><p>
சோனியா சொன்னது என்ன? </p><p>
</p><p>
கேள்வி:- தே.ஜ. கூட்டணியில் உள்ள மதசார்பற்ற சக்திகளுடன் காங்கிரஸ் பேச்சு நடத்தும்
என்று சோனியா கூறி உள்ளாரே? </p><p>
</p><p>
பதில்:- சோனியா கவுகாத் தியில் பேட்டியளித்த போது மதசார்பற்ற கட்சிகளுடன் பேச தயங்க
மாட்டேன் என்று தான் கூறினார். அவரே அதற்கான முயற்சியில் ஈடுபடப்போவதாக
சொல்லவில்லை. </p><p>
</p><p>
தெ.தே.வுடன் தொடர்பா? </p><p>
</p><p>
கேள்வி:- தெலுங்குதேசம் கட்சியுடன் காங்கிரஸ் தொடர்பு கொண்டு வருகிறதா? </p><p>
</p><p>
பதில்:- அப்படி எந்த தொடர்பும் இல்லை. </p><p>
</p><p>
கேள்வி:-சிறுபான்மையோர் பிரச்சினைகளை மட்டும் முன் வைத்து காங்கிரஸ் கட்சி முஸ்லிம்
லீக் போல் செயல்படுகிறது என்று பா.ஜனதா குற்றம் சாட்டி உள்ளதே? </p><p>
</p><p>
பதில்:- இந்த விஷயத்தில் அவர்கள் மட்டத்துக்கு செல்ல நாங்கள் விரும்பவில்லை. </p><p>
</p><p>
இவ்வாறு அவர் கூறினார். </p><p>
</p><p>
காங்கிரசா, மு.லீக்கா? </p><p>
</p><p>
பா.ஜ. செய்தி தொடர்பாளர் மல்கோத்ரா நேற்று டெல்லியில் நிருபர்களிடம் கூறுகையில்,
கோத்ரா ரெயில் தீவைப்பு சம்பவத்துக்காக காங்கிரஸ் கட்சி எந்த போராட்டமும் நடத்த
வில்லை. ஆனால் முதன் மந்திரி நரேந்திரமோடியை நீக்க வேண்டும் என்பதற்காக மட்டும்
ராஜ்காட்டில் தனது கட்சி எம்.பி.க்களுடன் சோனியா உண்ணாவிரதம் இருந்து உள்ளார். இது
காங்கிரஸ் கட்சி முஸ்லிம் லீக் போல் செயல்படுகிறது என்பதைத் தான் காட்டுகிறது. </p><p>
</p><p>
எதிர்க்கட்சிகள் அலுவலா? </p><p>
</p><p>
பாராளுமன்றம் என்பது அரசின் அலுவல்களை செயல் படுத்துவதற்காக உள்ள அமைப்பு தான். ஆனால்
எதிர்க்கட்சிகள் அதை உணராமல் தங்களது அலுவல்களுக்காக அதை பயன்படுத்துகிறார்கள் என்றார்.
</p>

<p> </p>

<p> </p>

<p>மக்களவையில் தொடர்ந்து
அமளி: தே.ஜ. கூட்டணிக்கு விடப்பட்ட சவாலை சமாளியுங்கள், எம்.பி.க்களுக்கு வாஜ்பாய்
கட்டளை</p>

<p> </p>

<p>புதுடெல்லி,ஏப்.17- குஜராத் விவகாரத்தை குறிப்பிட்டு
பாராளுமன்றத்தில் எதிர்க்கட்சிகள் அமளியில் ஈடுபடுவது தேசிய ஜனநாயக கூட்டணிக்கு
விடப்பட்ட சவால் ஆகும். அதை முறியடிக்க வேண்டும் என்று கூட்டணி கட்சி எம்.பிக்களுக்கு
பிரதமர் வாஜ்பாய் கட்டளையிட்டார்.. </p><p>
</p><p>
டெல்லியில் நேற்று பாரதிய ஜனதா எம்.பி.க்கள் கூட்டம் நடந்தது. அதில் பிரதமர் வாஜ்பாய்
பேசியதாவது:- </p><p>
</p><p>
பாராளுமன்ற இரு சபைகளையும் நடத்தவிடாது காங்கிரஸ் தலைமையில் எதிர்க் கட்சியினர்
குழப்பம் விளை விக்கிறார்கள். சபையை நடத்த விடாது சபாநாயகர் இருக்கை அருகே சென்று
கோஷம் போடுகிறார்கள். </p><p>
</p><p>
இது ஆளும் தேசிய ஜனநாயக கூட்டணிக்கு விடப்பட்ட சவால் ஆகும். அதை கூட்டணி கட்சி
எம்.பிக்கள் ஏற்று உறுதியுடன் சமாளிக்க வேண்டும் என்று கேட்டுக் கொள்கிறேன். </p><p>
</p><p>
பலப்பரீட்சைக்கு தயார் </p><p>
</p><p>
பாராளுமன்றத்தில் பலப்பரீட்சை நடத்த எதிர்க்கட்சிகளுக்கு விருப்பம் இல்லை. அதனால்
குட்டையை குழப்பி மீன்பிடிக்க பார்க்கிறார்கள். </p><p>
</p><p>
நிலமையை மோசமாக்க -அமைதியை கெடுக்க ஆசைப்படுகிறார்கள். </p><p>
</p><p>
இவ்வாறு வாஜ்பாய் பேசினார். </p><p>
</p><p>
அத்வானி பேச்சு </p><p>
</p><p>
கூட்டத்தில் மந்திரி அத்வானி பேசுகையில் குஜராத்தில் கலவரத்தை வேகமாக கட்டுப் படுத்தியது
அனைவருக்கும் திருப்தி அளிக்க வேண்டும். குஜராத்தில் இருந்து சென்ற ஹஜ் பயணிகள் 6 ஆயிரம்
பேர் பத்திரமாக திரும்பி உள்ளனர். என்றார். </p><p>
</p><p>
நரேந்திர மோடி நீடிப்பார் </p><p>
</p><p>
கூட்டத்தில் நிறை வேற்றப்பட்ட தீர்மானங்கள் வருமாறு:- </p><p>
</p><p>
குஜராத் முதலமைச்சராக நரேந்திர மோடி நீடிப்பார் என்பது உள்பட குஜராத் பிரச்சினை பற்றி
கோவாவில் நடந்த பா.ஜ. தேசிய நிர்வாக குழு நிறைவேற்றிய தீர்மானங்களை வரவேற்று
பாராட்டுவது. </p><p>
</p><p>
வாஜ்பாய்க்கு புத்தி தடுமாறி விட்டது என்று பேசிய காங்கிரஸ் தலைவர் சோனியா மன்னிப்பு
கேட்க வேண்டும். பொடா சட்டத்தில் வாஜ்பாயை கைது செய்ய வேண்டும் என்று பேசிய காஷ்மீர்
பிரதேச காங்கிரஸ் தலைவர் குலாம் நபி ஆசாத் மன்னிப்பு கேட்க வேண்டும். </p><p>
</p><p>
இவ்வாறு பல தீர்மானங்கள் நிறைவேற்றப்பட்டன. கூட்டத்தில் பா.ஜ. தலைவர் ஜனா.கிருஷ்ண
மூர்த்தி கலந்து கொண்டார். </p><p>
</p><p>
இந்த தகவலை நிருபர்களிடம் கட்சி தகவல் தொடர்பாளர் வி.கே. மல்கோத்ரா தெரிவித்தார்.
</p>

<p> </p>

<p> </p>

<p>பா.ஜ.வுடன் மோதல்
எதிரொலி: மக்களவை சபாநாயகர் பதவி ஏற்க தெலுங்குதேசம் மறுப்பு</p>

<p> </p>

<p>ஐதராபாத், ஏப். 17- குஜராத் விவகாரத்தில் பா.ஜ.வுடன்
ஏற்பட்டுள்ள மோதலை தொடர்ந்து மக்களவை சபாநாயகர் பதவியை ஏற்க தெலுங்குதேசம் மறுத்து
விட்டது. </p><p>
</p><p>
மக்களவை சபாநாயகராக இருந்த பாலயோகி ஹெலிகாப்டர் விபத்தில் பலியானார் அல்லவா?
இதையடுத்து அந்த பதவி காலியாக உள்ளது. துணை சபாநாயகர் பி.எம். சயீது தான் மக்களவையை
நடத்தி வருகிறார். பாலயோகி தெலுங்கு தேசம் கட்சியை சேர்ந்தவர். அந்த கட்சி வாஜ்பாய்
தலைமையிலான தேசிய ஜனநாயக கூட்டணி அரசுக்கு வௌியில் இருந்து ஆதரவு அளித்து வருகிறது.
தெலுங்கு தேசம் கட்சிக்கே சபாநாயகர் பதவி வழங்கப்படும் என்று பா.ஜ. அறிவித்துள்ளது. அதை
தெலுங்கு தேசமும் ஏற்றுக் கொண்டது. </p><p>
</p><p>
மோதல் </p><p>
</p><p>
இந்த நிலையில் குஜராத் விவகாரம் தொடர்பாக பா.ஜ.வுக்கும் தெலுங்கு தேசம் கட்சிக்கும்
இடையே கருத்து வேறுபாடு ஏற்பட்டது. குஜராத் முதல்வர் நரேந்திர மோடியை நீக்கியே தீரவேண்டும்
என்று தெலுங்கு தேசம் கட்சி பிடிவாதம் பிடிக்கிறது. ஆனால் அந்த கோரிக்கையை பா.ஜ.வும்,
தேசிய ஜனநாயக கூட்டணியும் நிராகரித்துவிட்டன. </p><p>
</p><p>
இதையடுத்து தெலுங்கு தேசம்- பா.ஜ. இடையே மோதல் வலுத்துள்ளது. வாஜ்பாய் அரசுக்கு அளிக்கும்
ஆதரவையே தெலுங்கு தேசம் கட்சி வாபஸ் பெறலாம் என்று கூறப்படுகிறது. மக்களவையிலும்
பா.ஜ.வுடன் தெலுங்குதேசம் மோதுகிறது. </p><p>
</p><p>
ஏற்க மறுப்பு </p><p>
</p><p>
இந்த நிலையில் மக்களவை சபாநாயகர் பதவிக்கான தேர்தல் விரைவில் நடைபெற உள்ளது.
பா.ஜ.வுடன் மோதல் ஏற்பட்டுள்ள நிலையில் சபா நாயகர் பதவியை ஏற்க தெலுங்குதேசம்
தயங்குகிறது. அந்த பதவியை ஏற்றால் குஜராத் விவகாரத்தில் தங்கள் கோரிக்கையை கைவிட
வேண்டி இருக்கும் என்று தெலுங்குதேசம் தலைவர்கள் கருதுகிறார்கள். சபாநாயகர் பதவியை
ஏற்கவேண்டாம் என்று கட்சி தலைவர்கள் முடிவு செய்துள்ளதாக தெரிகிறது. </p>

<p> </p>

<p> </p>

<p>பாராளுமன்ற ஓட்டெடுப்பில்
வாஜ்பாய்க்கு ஆதரவு, மம்தா அறிவிப்பு</p>

<p> </p>

<p>கொல்கத்தா, ஏப். 17- பாராளுமன்றத்தில் வாஜ்பாய் நம்பிக்கை
ஓட்டு கோர வேண்டிய நிலைமை வந்தால் அதில் அரசை ஆதரித்து திரிணாமுல் காங்கிரஸ் உறுப்பினர்கள்
வாக்களிப்பார்கள் என்று மம்தா அறிவித்தார். </p><p>
</p><p>
திரிணாமுல் காங்கிரஸ் தலைவர் மம்தா பானர்ஜி கொல்கத்தாவில் நேற்று நிருபர் களிடம்
கூறியதாவது:- </p><p>
</p><p>
குஜராத் முதன்மந்திரி பதவி யில் இருந்து நரேந்திரமோடி நீக்கப்பட வேண்டும். இந்த
கோரிக்கையை திரிணாமுல் காங்கிரஸ் கைவிடாது. இப்போ துள்ள சூழ்நிலையில் குஜராத்தில்
தேர்தல் நடத்த கூடாது. மக்களவையில் குஜராத் விவகாரம் தொடர்பாக ஓட்டெடுப்புடன் கூடிய
விவாதம் நடத்த வேண்டும் என்ற கோரிக்கையில் எங்கள் கட்சியின் நிலை குறித்து விரைவில்
முடிவு எடுப்போம். </p><p>
</p><p>
அரசுக்கு ஆதரவு </p><p>
</p><p>
மக்களவையில் பிரதமர் வாஜ்பாய் நம்பிக்கை ஓட்டு கோர வேண்டிய நிலைமை உருவானால் அவரை
ஆதரித்து திரிணாமுல் காங்கிரஸ் எம்.பி.க்கள் ஓட்டு போடுவார்கள். ஒவ் வொரு ஆண்டும்
தேர்தல் நடப்பதை மக்கள் விரும்ப வில்லை. வாஜ்பாய் அரசை கவிழ்த்த எதிர்க்கட்சிகள்
மாற்று அரசை அமைக்கவில்லை. இப்போது மீண்டும் வாஜ்பாய் அரசை கவிழ்க்க அவர்கள்
முயல்கிறார்கள். அவர்களுக்கு திரிணாமுல் காங்கிரஸ் உதவி செய்யாது. </p><p>
</p><p>
இவ்வாறு அவர் கூறினார். </p>

<p> </p>

<p> </p>

<p> </p>

<p> </p>

<p> </p>

<p>ஜெ. ஆட்சியில் கொள்ளை
போன அரசு பணம்: ரூ.500 கோடியை மீட்க ரூ.57 கோடி செலவு செய்வது தவறல்ல, கருணாநிதி பதில்</p>

<p> </p>

<p>சென்னை, ஏப். 17- கொள்ளை போன ரூ.500 கோடியை மீட்பதற்காக
ரூ.57 கோடி செலவழிக்கப்பட்டிருந்தால் தவறல்ல என்று கருணாநிதி கூறியுள்ளார். </p><p>
</p><p>
தி.மு.க. தலைவர் கருணாநிதி சென்னையில் நேற்று நிருபர்களுக்கு பேட்டி அளித்தார். அப்போது
அவர் கூறியதாவது:- </p><p>
</p><p>
கேள்வி:- ஜெயலலிதா மீது வழக்குகளை போடுவதற்காக அரசு நிதி 57 கோடி ரூபாய் செலவு
செய்யப்பட்டதாக நேற்று அரசு விழாவில் அந்த அம்மையார் உங்கள் மீது
குற்றஞ்சாட்டியிருக்கிறாரே? </p><p>
</p><p>
பதில்:-அது சரியான கணக்கா என்று எனக்கு தெரிய வில்லை. எதெதற்காக அந்த தொகை
செலவழிக்கப்பட்டது என்பதற்கான விளக்கமான விவரங்கள் தரப்பட்டால் நல்லது. தனி நீதிமன்ற
நீதிபதிகள் சம்பளத்தையெல்லாம் சேர்த்து கணக்கிட முடியாது. ஏனென்றால் அவர்கள் இந்த
பணியிலே இல்லாவிட்டாலும் வேறு இடத்தில் நீதிபதியாக இருந்து சம்பளம் பெற்றிருப்பார்கள்.
அப்படியே 57 கோடி ரூபாய் செலவழிக்கப்பட்டிருந்தால் கூட 500 கோடி ரூபாய்க்கு மேல் அரசு பணம்
கொள்ளை போயிருக்கின்ற போது அதை திரும்ப கொண்டு வருவதற்காக 57 கோடி ரூபாய் செலவு
செய்வது தவறல்ல. </p><p>
</p><p>
பொய் வழக்கு அல்ல </p><p>
</p><p>
இன்னும் சொல்ல வேண்டு மேயானால் போடப்பட்டவை யெல்லாம் பொய் வழக்குகள் அல்ல.
அவைகளிலே பூர்வாங்க ஆதாரங்கள் இருக்கின்றன என்று நீதிமன்றங்கள் சொன்ன பிறகுதான் அந்த
வழக்குகள் தொடரப்பட்டிருக்கின்றன. கல்வி அமைச்சராக இருந்த பொன்னுசாமி மீதான வழக்கு
உச்சநீதிமன்றம் வரை சென்று தண்டனை ஊர்ஜிதப்படுத்தப் பட்டுள்ளது. புவனகிரி தொகுதியின்
சட்டமன்ற உறுப்பினராக இருந்த மல்லிகா மீதான குற்றம் நிரூபிக்கப்பட்டு அவர் ஏழாண்டுகள்
தண்டனை பெற்றிருக்கிறார். போக்குவரத்து அமைச்சராக இருந்த செங் கோட்டையன் இரண்டு
வழக்குகளில் நான்காண்டுகள் என்றும், ஐந்தாண்டுகள் என்றும் தண்டிக்கப்பட்டிருக்கின்றார். </p><p>
</p><p>
உச்சநீதிமன்றத்தில் எல்லா வழக்குகளும் முடிவதற்கு முன்பு அந்த வழக்குகளையெல் லாம் பொய்
வழக்குகள் என்று சொல்லிவிட முடியாது. </p><p>
</p><p>
கண்டிக்கத்தக்கது </p><p>
</p><p>
ஆண்டிப்பட்டியிலே போய் அரசு விழா என்ற பெயரால் மக்கள் வரிப்பணத்தையெல் லாம்
அவர்களுடைய கட்சி பிரச்சாரத்திற்காக பயன் படுத்திக் கொண்டிருக்கின்றார் கள்.
இதிலிருந்தே மக்களின் வரிப்பணத்தை கட்சியின் ஆதாயத்திற்காக செலவு செய் வது யார்
என்பதை நீங்கள் தெரிந்து கொள்ளலாம். அர சுக்கு சொந்தமான தனி விமானத்திலும்,
ஹெலிகாப்டரிலும் செல்வதற்காக அரசு விழா என்று போலித்தனமாக விளம்பரம் செய்து கொண்டு
அங்கே போய் கட்சி பிரசாரம் செய்தி ருக்கின்ற ஜெயலலிதாவின் போக்கு வன்மையாக
கண்டிக்கத்தக்கது. </p><p>
</p><p>
ரகசிய சந்திப்பு </p><p>
</p><p>
கேள்வி:- மத்தியிலே அணிகள் மாறக்கூடிய சூழ்நிலை வருவதாக ஜனா கிருஷ்ண மூர்த்தி
சொல்லியிருக்கிறாரே? </p><p>
</p><p>
பதில்:- சொன்னவர் ஜனா கிருஷ்ணமூர்த்தி. விவரங்கள் அவருக்குத்தான் தெரியும். அவரிடமே
இந்த கேள்வியை கேளுங்கள். </p><p>
</p><p>
கேள்வி:- சோனியாகாந்தியை முரசொலி மாறன் ரகசியமாக சந்தித்தார் என்று
சட்டப்பேரவையில் முதல்வர் ஜெயலலிதா கூறியது பற்றி? </p><p>
</p><p>
பதில்:- அப்படி சந்தித்த விஷயத்தை முரசொலிமாறன் ரகசியமாக ஜெயலலிதாவிடம் சொன்னதாக
எனக்கு கேள்வி. அதைத்தான் அந்த அம்மையார் சொல்லியிருக்கிறார். </p><p>
</p><p>
இவ்வாறு அவர் கூறினார். </p>

<p> </p>

<p> </p>

<p>4 தொகுதியில் வேட்பு மனு
தாக்கல்: ஜெ. மீது நடவடிக்கை எடுக்க கோரி தேர்தல் கமிஷன் மீது வழக்கு, குப்புசாமி எம்.பி.
தொடர்ந்தார்</p>

<p> </p>

<p>சென்னை,ஏப்.17- 4 தொகுதிகளில் ஜெயலலிதா போட்டியிட்டது சட்ட
விரோதமாதமானது எனவே அவர் மீது தேர்தல் கமிஷன் நடவடிக்கை எடுக்க கோரி சென்னை ஐகோர்ட்டில்
குப்புசாமி எம்.பி வழக்கு தாக்கல் செய்தார். </p><p>
</p><p>
தி.மு.க. எம்.பி.குப்புசாமி சார்பாக முன்னாள் அரசு சிறப்பு வக்கீல் நசூரூதீன் சென்னை
ஐகோர்ட்டில் தேர்தல் கமிஷன் மீது ஒரு வழக்கு தாக்கல் செய்தார். அந்த வழக்கில் கூறி
இருப்பதாவது:- </p><p>
</p><p>
மக்கள் பிரதிநிதித்துவ சட்டப்படி ஒருவர் இரண்டு தொகுதிக்கு மேல் போட்டியிடக் கூடாது. இந்த
சட்டவிதி தெரிந்தும் ஜெயலலிதா கடந்த சட்டமன்ற தேர்தலில் 4 தொகுதிகளில்
போட்டியிட்டார். அவர் புவனகிரி, கிருஷ்ணகிரி, ஆண்டிப்பட்டி, புதுக்கோட்டை ஆகிய 4
தொகுதிகளில் போட்டியிட வேட்பு மனு தாக்கல் செய்தார். இது மக்கள் பிரதிநிதித்துவ
சட்டத்திற்கு எதிரானது. </p><p>
</p><p>
தள்ளுபடி </p><p>
</p><p>
ஜெயலலிதா புதுக் கோட்டை தொகுதியில் தாக்கல் செய்த மனுவில், தான் 2 தொகுதிக்கு மேல்
போட்டியிட வில்லை என்று பொய்யான தகவலை வேட்பு மனுவில் குறிப்பிட்டு உள்ளார். இது
தவறானது. ஜெயலலிதா 4 தொகுதியில் போட்டியிட மனு தாக்கல் செய்து விட்டு 2 தொகுதிக்கு மேல்
போட்டியிட வில்லை என்று கூறியதால் புதுக்கோட்டையில் ஜெயலலி தா தாக்கல் செய்த மனுவை
புதுக்கோட்டை தேர்தல் அதிகாரி தள்ளுபடி செய்தார். இதனால் ஜெயலலிதாவுக்கு இந்திய
தண்டனை சட்டம் பிரிவு 177-ன் கீழ் தண்டனை வழங்க வேண்டும். இதுகுறித்து குப்புசாமி
எம்.பி இந்திய தலைமை தேர்தல் கமிஷனுக்கு மனு அனுப்பினார். இந்த மனுவை பரிசீலனை செய்து
அதன் மீது நடவடிக்கை எடுக்க தமிழக தலைமை தேர்தல் அதிகாரிக்கு இந்திய தலைமை தேர்தல்
அதிகாரி உத்தரவிட்டார். இதை தொடர்ந்தும் தமிழக தேர்தல் அதிகாரி எந்த நடவடிக்கையும்
எடுக்கவில்லை. ஆகவே ஜெயலலிதா மீது மக்கள் பிரநிதித்துவ சட்டம் பிரிவு 33(7) (பி)-ன்
கீழ் கோர்ட்டு உரிய நடவடிக்கை எடுக்க வேண்டும். </p><p>
</p><p>
இவ்வாறு அவர் வழக்கில் கூறி இருந்தார். </p><p>
</p><p>
இந்த வழக்கு விரைவில் நீதிபதி பத்மநாபன் முன்பு விசாரணைக்கு வருகிறது. இந்த வழக்கில்
குப்புசாமி சார்பாக மூத்த வக்கீல் டி.ஆர். ராஜகோபாலன் ஆஜராகி வாதாடுகிறார். </p>

<p> </p>

<p> </p>

<p>ஜெ. ஆண்டிப்பட்டி விழாவுக்கு
ரூ.1 கோடி செலவிடுவதா? இளங்கோவன் கண்டனம்</p>

<p> </p>

<p>சென்னை, ஏப். 17- ஜெயலலிதா சென்ற ஆண்டிப் பட்டி விழாவுக்கு ரூ.1
கோடி செலவிடுவதா? என்று இளங் கோவன் கண்டனம் தெரிவித்துள்ளார். </p><p>
</p><p>
தமிழ்நாடு காங்கிரஸ் கலை இலக்கியப் பேரவை செயற்குழு நேற்று சென்னையில் கூடியது. அதன்
தலைவர் த.தனசேகரன் தலைமை வகித்தார். தமிழ்நாடு காங்கிரஸ் தலைவர் ஈ.வி.கே.
எஸ்.இளங்கோவன் இதில் கலந்து கொண்டு பேசியதாவது:- </p><p>
</p><p>
ஆண்டிப்பட்டியில் சில திட்டங்களை நிறைவேற்றி வைக்கும் திட்ட விழாவுக்காக முதல்வர்
ஜெயலலிதா சென் றுள்ளார். இதற்கு விளம் பரத்துக்கு மட்டும் ரூ.1 கோடி செலவு
செய்திருக்கிறார்கள். இது கண்டிக்கத்தக்கது. இந்த ஆட்சியை வீட்டுக்கு அனுப்ப நாமும்
கொஞ்சம் அவர்கள் பாணியில் இறங்க வேண்டும். ராஜீவ் ஆட்சியில் நிறைவேற்றப்பட்ட
திட்டங்களை மக்களிடம் எடுத்துக்கூற வேண்டும். </p><p>
</p><p>
முன்பெல்லாம் காங்கிரஸ் கூட்டத்தில் காலி மைதானத்தை எடுத்து பத்திரிகையில்
போடுவார்கள். இப்போது அந்த நிலை மாறி உள்ளது. எனவே 7 எம்.எல்.ஏ. என்பது 70 ஆக, 170
ஆக விரைவில் மாறும். </p><p>
</p><p>
இவ்வாறு அவர் பேசினார். </p><p>
</p><p>
போராட்டம் </p><p>
</p><p>
புலவர் கதிரவன், குமரி மகாதேவன், கே.பாலசுப்பிரமணியம், கே.ராஜன், ஜவஹர், செஞ்சி
ராஜேந்திரன் உள்பட பலர் பேசினார்கள். </p><p>
</p><p>
மாணவ, மாணவியர் அனைவரையும் என்.சி.சி.யில் சேர்க்க வேண்டும், கல்வியை
வியாபாரமாக்கும் மாநில அரசை கண்டித்து போராட்டம் நடத்துவது உள்பட பல்வேறு தீர்மானங்கள்
நிறைவேற்றப்பட்டன. </p>

<p> </p>

<p> </p>

<p>ஜெ.ஜெ. போக்குவரத்து கழகத்தில்
ரூ.11/2 கோடி ஊழல்: செங்கோட்டையன் வழக்கில் 26-ந்தேதி தீர்ப்பு, தனிநீதிபதி
அன்பழகன் அறிவிப்பு</p>

<p> </p>

<p>சென்னை, ஏப். 17- ஜெ.ஜெ. போக்குவரத்து கழகத்தில் ரூ.11/2 கோடி
ஊழல் செய்ததாக முன்னாள் மந்திரி செங்கோட்டையன் மீது தொடரப்பட்ட வழக்கில் வருகிற 26-ந்தேதி
தீர்ப்பு கூறப்படும் என்று தனி நீதிபதி அன்பழகன் அறிவித்தார். </p><p>
</p><p>
ஜெ.ஜெ. போக்குவரத்து கழகத்துக்கு உதிரிபாகங்கள் வாங்கியது, சொகுசு பஸ் வாங்கியது
ஆகியவற்றில் ஊழல் செய்து அரசுக்கு ரூ.1 கோடியே 57 லட்சத்து 93 ஆயிரத்து 527 இழப்பு
ஏற்படுத் தியதாக சி.பி.சி.ஐ.டி. போலீசார் 3-வது தனிக்கோர்ட்டில் வழக்கு
தொடர்ந்தனர்.் </p><p>
</p><p>
இந்த வழக்கில் முன்னாள் நிர்வாக இயக்குநர் சேதுராமன், முன்னாள் போக்குவரத்து மந்திரி
செங்கோட்டையன், அவரது பி.ஏ.வாக இருந்த எழில், கோபி நடராஜன் ஆகியோர் மீது கடந்த
3-3-97-ல் குற்றப்பத்திரிகை தாக்கல் செய்யப்பட்டது. 20-4-98-ல் குற்றச்சாட்டு பதிவானது.
சாட்சிகள் விசாரணை கடந்த 11-2-99-ல் தொடங்கி கடந்த மாதம் முடிந்தது. மொத்தம் உள்ள
78 அரசு தரப்பு சாட்சிகளில் 45 பேர் மட்டும் விசாரிக்கப்பட்டனர். </p><p>
</p><p>
எதிர்தரப்பு சாட்சிகள் இல்லாததால் கடந்த 8-ந்தேதி வக்கீல்கள் வாதம் தொடங்கி யது.
நேற்று இறுதிக்கட்டமாக முன்னாள் நிர்வாக இயக்குநர் சேதுராமனின் வக்கீல் மணி மாறன் மாலை
3 மணி முதல் 5.30 மணி வரை வாதிட்டார். </p><p>
</p><p>
ஆட்சி மாறியதும் </p><p>
</p><p>
சாட்சி மாறியது </p><p>
</p><p>
அவர் கூறியதாவது:- </p><p>
</p><p>
பெரும்பாலான சாட்சிகள் முன்விசாரணையில் கூறியதை ஆட்சி மாறியதும் மறுத்திருக்கி றார்கள்.
அவ்வாறு அவர்கள் கூறிய சாட்சியத்தை நீதிமன்றத் தில் உள்ள ஆவணங்கள் உறுதிப்படுத்துகிறது.
ஆவணங் களின் அடிப்படையில் பார்த்தால் எதிரிகள் 4 பேர் மீதும் உள்ள குற்றச்சாட்டுகள்
நிரூபிக்கப்படவில்லை. ஜெயலலிதா பெயரில் உள்ள போக்குவரத்து கழகம் என்பதால் பழிவாங்க
வழக்கு போடப்பட்டது என்று 4 எதிரிகள் தரப்பிலும் இதுவரை வாதிடப்பட்டது. </p><p>
</p><p>
இப்போது திடீரென அரசு வழக்கறிஞர் மற்ற 3 எதிரிகள் மீதும் குற்றம் இல்லை முதல்
எதிரியான சேதுராமன்தான் குற்றம் செய்துள்ளார் என்று புதுவழக்கிற்காக வாதிடுகிறார். </p><p>
</p><p>
குற்றச்சாட்டு நிரூபிக்கப் படவில்லை என்றால் அதன் பலனை அனைத்து எதிரி களுக்கும் வழங்க
வேண்டும். எனவே 4 பேரையும் விடுதலை செய்ய வேண்டும். </p><p>
</p><p>
இவ்வாறு அவர் கூறினார். </p><p>
</p><p>
தீர்்ப்பு தேதி </p><p>
</p><p>
இதற்கு அரசு வக்கீல் கிருஷ்ணமூர்த்தி எதிர்ப்பு தெரிவித்தார். அவர் கூறியதாவது:- </p><p>
</p><p>
செங்கோட்டையன், எழில், நடராஜன் ஆகியோர் பெயரை சேதுராமன்தான் பயன்படுத்தி உள்ளார்.
முந்தைய ஆட்சி காலத்தில் சாட்சிகள் அளித்த சாட்சியத்தின் அடிப்படையில் அவர் மீதுள்ள
குற்றச்சாட்டு நிரூபிக்கப்பட்டுள்ளது. அதன் அடிப்படையில் தீர்ப்பு கூற வேண்டும். </p><p>
</p><p>
இவ்வாறு அவர் வாதிட்டார். </p><p>
</p><p>
இதையடுத்து வருகிற 26-ந் தேதி இந்த வழக்கில் தீர்ப்பு கூறப்படும் என்று நீதிபதி
பி.அன்பழகன் அறிவித்தார். அப்போது செங்கோட்டையன் உள்பட குற்றம் சாட்டப்பட்ட
அனைவரும் நேரில் ஆஜராகவும் அவர் உத்தரவிட்டார். </p><p>
</p><p>
21-வது தீர்ப்பு </p><p>
</p><p>
தனிக்கோர்ட்டு தொடங்கியதில் இருந்து இதுவரை 20 தீர்ப்புகள் கூறப்பட்டுள்ளன. வருகிற
26-ந்தேதி 21-வது தீர்ப்பு கூறப்படும். மீண்டும் அ.தி.மு.க. ஆட்சி வந்த பிறகு
வழங்கப்படும் 3-வது தீர்ப்பு இது. ஏற்கனவே வழங்கப்பட்ட 2 தீர்ப்புகளில் குற்றம்
சாட்டப்பட்ட அனைவரும் விடுதலை செய்யப்பட்டது குறிப்பிடத் தக்கது. </p>

<p> </p>

<p> </p>

<p>த.மா.கா.-காங். இணைப்பு:
மூப்பனாருக்கு அவரது மகனே துரோகம் செய்து விட்டார், வாசன் மீது குமாரதாஸ் எம்.எல்.ஏ. கடும்
தாக்கு</p>

<p> </p>

<p>நாகர்கோவில், ஏப்.16- த.மா.கா.வில் இருந்து நீக்கப்பட்ட
டாக்டர்.குமாரதாஸ் எம்.எல்.ஏ. நாகர்கோவில் பயணியர் விடுதியில் நேற்று பிற்பகல்
நிருபர்களுக்கு பேட்டி அளித்தார். அப்போது அவர் கூறியதாவது:- </p><p>
</p><p>
த.மா.கா.-காங்கிரஸ் இணை வதால் த.மா.கா.தொண்டர்கள் கடும் அதிருப்தியில் உள்ளனர். மூப்பனார்
கண்ட கனவை வாசன் கைவிட்டுவிட்டார். </p><p>
</p><p>
வாசனுக்கு அல்வா </p><p>
</p><p>
வாசன் ராஜ்யசபா உறுப்பினர் பதவிக்காக வாய்பொத்தி மவுனமாக இருந்தார். அப்போது
கம்யூனிஸ்ட் கட்சியை சேர்ந்த 11 உறுப்பினர்களின் ஓட்டுகளை பெறுவதற்காக அவர் மவுனமாக
இருந்தார். தொடர்ந்து ராஜ்யசபா உறுப்பினர் ஆனதும் கம்யூனிஸ்ட் உறுப்பினருக்கு அல்வா
கொடுத்து விட்டார். </p><p>
</p><p>
இதுபோல் த.மா.கா.தொண்டர்கள் மற்றும் கூட்டணி கட்சி யினருக்கும் அவர் அல்வா
கொடுத்துவிட்டார். த.மா.கா. காங்கிரசில் இணைந்ததும் சோனியாகாந்தி இவருக்கு (வாசனுக்கு)
அல்வா கொடுத்து விடுவார். </p><p>
</p><p>
15 எம்.எல்.ஏ-க்கள் </p><p>
</p><p>
த.மா.கா. காங்கிரசில் இணைவதற்கு முன்னாள் மத்திய அமைச்சர்களும், எம்.பி.-க்களாக உள்ள
ஒரு சிலரும்தான் காரணம். இவர்களது வேண்டுகோளை ஏற்று தான் காங்கிரசில் இணைய உள்ளனர். </p><p>
</p><p>
த.மா.கா.வில் எனது தலைமையில் 15 எம்.எல்.ஏ-க் கள் உள்ளனர். இவர்களுடன் இணைந்து
நாங்கள் கட்சியை காப்பாற்றுவோம். கட்சியை காப்பாற்ற குரல் கொடுத்த என்னை கட்சியில்
இருந்து நீக்கிவிட்டனர். தொண்டர் களின் எண்ணத்தையும் உதாசீனப் படுத்திவிட்டனர். </p><p>
</p><p>
தொடர்ந்து செயல்படும் </p><p>
</p><p>
த.மா.கா.என்ற கட்சியை விட்டு செல்லும் வாசனின் பின்னால் த.மா.கா. தொண்டர்கள் செல்ல
மாட்டார்கள். வாசன் தலைமையில் காங்கிரசில் இவர்கள் இணைந்தாலும் த.மா.கா. என்ற கட்சி
தொடர்ந்து செயல்படும். </p><p>
</p><p>
சட்ட மன்றத்தில் பெரும்பான்மையை காண்பித்து த.மா.கா. தொடர்ந்து எதிர்கட்சியாக
செயல்படும். த.மா.கா.வை நாங்கள் காப்பாற்றுவோம். மூப்பனார் கனவை நிறைவேற்ற
பாடுபடுவோம். </p><p>
</p><p>
மூப்பனாருக்கு துரோகம் </p><p>
</p><p>
மூப்பனாருக்கு அவரது மகனே துரோகம் செய்து விட்டார். நாங்கள் எந்த காலத்திலும் துரோகம்
செய்ய மாட்டோம். அவர் தொடங்கி நடத்திய கட்சியை தொடர்ந்து நடத்துவோம். </p><p>
</p><p>
வாசன் இப்படி செய்வார் என்று நினைத்துதான் நாங்கௌல்லாம் வாசன் இருக்கும் போது அவருக்கு
எம்.பி.பதவி கொடுக்க வற்புறுத்தியபோது மூப்பனார் மறுத்துவிட்டார். வாசன் இப்படி
செய்வார் என்று முன்கூட்டியே தெரிந்ததால் தான் அவர் மறுத்ததாக தெரிகிறது. </p><p>
</p><p>
இவ்வாறு அவர் கூறினார். </p>

<p> </p>






</body></text></cesDoc>