<cesDoc id="tam-w-dinakaran-politics-01-12-06" lang="tam">
<cesHeader type="text">
<fileDesc>
<titleStmt>
<h.title>tam-w-dinakaran-politics-01-12-06.txt</h.title>
<respStmt>
<respType>Electronic file created by</respType>
<respName>Department of Linguistics, Lancaster University</respName>
<respType>text collected by</respType>
<respName>Paul Baker and Celia Worth</respName>
<respType>transferred into Unicode by</respType>
<respName>"Unicodify" software by Andrew Hardie</respName>
</respStmt>
</titleStmt>
<publicationStmt>
<distributor>UCREL</distributor>
<pubAddress>Department of Linguistics, Lancaster University, Lancaster, LA1 4YT, UK</pubAddress>
<availability region="WORLD"></availability>
<pubDate>03-08-24</pubDate>
</publicationStmt>
<sourceDesc>
<biblStruct>
<monogr>
<h.title>"Dinakaran" internet news (www.dinakaran.com), news stories collected on 01-12-06</h.title>
<h.author>Dinakaran</h.author>
<imprint>
<pubPlace>Tamil Nadu, India</pubPlace>
<publisher>Dinakaran</publisher>
<pubDate>01-12-06</pubDate>
</imprint>
</monogr>
</biblStruct>
</sourceDesc>
</fileDesc>
<encodingDesc>
<projectDesc>Text collected for use in the EMILLE project.</projectDesc>
<samplingDesc>Simple written text only has been transcribed. Diagrams, pictures and tables have been omitted and their place marked with a gap element.
</samplingDesc>
<editorialDecl>
<conformance level="1"></conformance>
</editorialDecl>
</encodingDesc>
<profileDesc>
<creation>
<date>03-08-24</date>
</creation>
<langUsage>Tamil</langUsage>
<wsdUsage>
<writingSystem id="ISO/IEC 10646">Universal Multiple-Octet Coded Character Set (UCS).</writingSystem>
</wsdUsage>
<textClass>
<channel mode="w">print</channel>
<constitution type="composite"></constitution>
<domain type="public"></domain>
<factuality type="fact"></factuality>
</textClass>
<translations></translations>
</profileDesc>
<revisionDesc></revisionDesc>
</cesHeader>

<text>
<body>




<p>முதல்வராக ஜெயலலிதா பதவி
ஏற்பதில் தாமதம் ஏன்? பன்னீர் செல்வம் பேட்டி</p>

<p> </p>

<p>சென்னை, டிச.6- முதல்வராக ஜெயலலிதா பதவி ஏற்பதில் தாமதம்
ஏற்படுவது ஏன்? என்ற கேள்விக்கு பன்னீர் செல்வம் பதில் அளித்தார். </p><p>
</p><p>
தமிழக மந்திரிசபைக் கூட்டம் நேற்று கோட்டையில் நடந்தது. மாலை 4.30 மணி முதல் 5.30 மணி
வரை நடந்த இந்த கூட்டத்திற்கு முதல்மந்திரி பன்னீர் செல்வம் தலைமை தாங்கினார். </p><p>
</p><p>
கூட்டம் முடிந்த பிறகு பன்னீர்செல்வம் நிருபர்களுக்கு பேட்டி அளித்தார். அதன் விவரம்
வருமாறு:- </p><p>
</p><p>
கேள்வி:- பல்வேறு பொருள் விலை, கட்டணங்களை உயர்த்தியதன் மூலம் ரூ.3070 கோடி வருவாய்
கிடைக்கும் என்றீர்கள். இப்போது விலைகளை குறைப்பதால் பாதிக்கப்படும் வருவாய்
எவ்வளவு? </p><p>
</p><p>
பதில்:- போக்குவரத்து துறையில் ரூ.1038.76 கோடிக்கு கட்டணம் உயர்த்தப்பட்டது. இப்போது
அதில் ரூ.337.39 கோடி அளவுக்கு கட்டணம் குறைக்கப்பட்டுள்ளது. ரேஷன் அரிசி விலையை
உயர்த்தியதன் மூலம் ரூ.600 கோடி கிடைக்க இருந்தது. அது அப்போது ரத்து செய்யப்பட்டுள்ளது. </p><p>
</p><p>
மின்கட்டண உயர்வு மூலம் ரூ.585.45 கோடி கிடைக்க இருந்தது. அதில் ரூ.225 கோடிக்கு கட்டணம்
குறைக்கப்பட்டுள்ளது. மொத்தம் ரூ.1162.39 கோடிக்கு சலுகைகள் வழங்கப்பட்டுள்ளன. அம்மாவின்
ஆலோசனைப்படி இந்த சலுகை வழங்கப்பட்டு இருக்கிறது. </p><p>
</p><p>
மலிவு விலை மது </p><p>
</p><p>
கேள்வி:- மலிவு விலை மது எப்படி வழங்குவீர்கள்? </p><p>
</p><p>
பதில்:- தற்போது அயல் நாட்டு மது வகை 100 மில்லி விலை ரூ.27 ஆகும். அந்த விலையில்
தீர்வை, வரி சலுகைகளை கழித்து 100 மில்லி ரூ.15க்கு வழங்கப்படும். அதே சமயம் மதுவின்
தரம் குறையாது. </p><p>
</p><p>
இடைத் தேர்தல் </p><p>
</p><p>
கேள்வி- வர இருக்கும் இடைத்தேர்தலை மனதில் வைத்து விலை குறைப்பு, கட்டண சலுகை
வழங்கப்பட்டுள்ளதா? அல்லது நீதி மன்ற தீர்ப்பிற்காகவா? </p><p>
</p><p>
மந்திரி பொன்னையன்:- ஒட்டு மொத்த மக்களின் நலன் கருதி அம்மா ஆலோசனைப்படி
அறிவிக்கப்பட்டுள்ளது. </p><p>
</p><p>
கேள்வி:- அப்படியானால் இது நீதி மன்ற தீர்ப்பிற்கு முன் எடுத்த முடிவா? </p><p>
</p><p>
பன்னீர் செல்வம்:- புதிய விலை உயர்வு கடந்த 1-ந்தேதி முதல் அமுலுக்கு வந்துள்ளது. பல்வேறு
மக்களின் கோரிக்கை, வேண்டுகோளை ஏற்று எங்கள் தலைவி 2, 3 நாளாக ஆய்வு செய்து இன்று
நடைமுறைப் படுத்துமாறு கூறினார். </p><p>
</p><p>
மக்கள் ஆதரவு </p><p>
</p><p>
கேள்வி:- இதன் மூலம் பந்த்திற்கு ஆதரவு கிடைக்காது என்று கருதுகிறீர்களா? </p><p>
</p><p>
பதில்:- ஏழைகளை பாதிக்காத அளவுக்கு சலுகைகள் அறிவிக்கப்பட்டுள்ளது. இதை ஏற்று
பந்த்திற்கு மக்கள் ஆதரவு தர மாட்டார்கள். எங்கள் தோழமை கட்சிகள் அரசின் நியாயமான
உணர்வை, சலுகைகளை ஏற்று அரசுக்கு ஆதரவு தர வேண்டும். </p><p>
</p><p>
கேள்வி:- மலிவு விலையில் மது விற்பதன் மூலம் வருவாய் கூடுமா? </p><p>
</p><p>
பதில்:- தற்போது ரூ.27 விலையில் 1.65 லட்சம் பெட்டிகள் விற்பனையாகின்றன. இனி அது 6
லட்சம் பெட்டிகளாக உயர்ந்து ரூ.350 கோடி அதிக வருவாய் கிடைக்கும் என்று
எதிர்பார்க்கிறோம். </p><p>
</p><p>
பல்டி ஏன்? </p><p>
</p><p>
கேள்வி:- ஜெயலலிதா மீது நீதிமன்றத்தில் உள்ள 5 வழக்குகள் வாபஸ் பெறப்படுமா? </p><p>
</p><p>
மந்திரி பொன்னையன்:- நீதி மன்றத்தில் வழக்கு இருக்கும் போது இந்த கேள்வி கேட்பது
உகந்தது ஆகாது. </p><p>
</p><p>
கேள்வி:- விலை குறைக்க மாட்டோம் என்று கூறிவிட்டு இப்போது குறைப்பது பல்டியடிப்பது
ஆகாதா? </p><p>
</p><p>
பொன்னையன்:- பல்டி அல்ல. மக்கள் நலனுக்காக எங்கள் தலைவி அறிவுரைப்படி இந்த முடிவு எடுக்கப்பட்டுள்ளது.
</p><p>
</p><p>
கவர்னர் சந்திப்பா? </p><p>
</p><p>
கேள்வி:- ஜெயலலிதா மீண்டும் முதல்வராக பதவி ஏற்பதில் ஏன் தாமதம் ஏற்படுகிறது? </p><p>
</p><p>
பதில்:- தக்க சமயத்தில் தக்க முடிவு எடுப்பேன் என்று அவரே பதில் அளித்து இருக்கிறார். </p><p>
</p><p>
கேள்வி:- நீங்கள் கவர்னரை சந்திப்பீர்களா? </p><p>
</p><p>
பதில்:- இல்லை. </p><p>
</p><p>
பிரச்சினையா? </p><p>
</p><p>
கேள்வி:- நீங்கள் ராஜினாமா செய்வதில் பிரச்சினை உள்ளதா? </p><p>
</p><p>
(இதற்கு பதில் அளிக்காமல் பன்னீர் செல்வமும், மற்றவர்களும் எழுந்து சென்று விட்டனர்) </p><p>
</p><p>
பேட்டியின் போது மந்திரிகள் பொன்னையன், ஜெயகுமார், தனபால், நயினார் நாகேந்திரன்,
தலைமைச் செயலாளர் சங்கர் மற்றும் அதிகாரிகள் உடன் இருந்தனர். </p>

<p> </p>

<p> </p>

<p> </p>

<p>பல ஊழல் வழக்கில்
குற்றப்பத்திரிகை தாக்கல்: ஜெயலலிதா முதல்வராக பதவி ஏற்க கூடாது, சட்ட நிபுணர்கள்
கருத்து</p>

<p> </p>

<p>சென்னை, டிச.6- ஜெயலலிதா உடனே முதல்வராக பதவி ஏற்க கூடாது என்று
சட்ட நிபுணர்கள் கருத்து தெரிவித்து உள்ளனர். </p><p>
</p><p>
எம்.எல்.ஏ.வாக இல்லாத ஒருவர் சட்டமன்றத்தின் 5 ஆண்டு ஆயுள் காலத்தில் ஒரு முறைக்கு மேல்
அமைச்சர் அல்லது முதல்வர் பதவி வகிக்க முடியாது என்று சுப்ரீம் கோர்ட்டு தலைமை நீதிபதி
ஏ.எஸ்.ஆனந்த் தலைமையிலான அரசியல் சாசன பெஞ்சு தீர்ப்பு கூறி உள்ளது. </p><p>
</p><p>
ஜெயலலிதா உடனே முதல்வராக முடியுமா? என்பது பற்றி சட்ட நிபுணர்கள் முரண்பட்ட
கருத்துக்களை வௌியிட்டு உள்ளனர். அது வருமாறு:- </p><p>
</p><p>
சென்னை ஐகோர்ட்டு வக்கீல் சங்கரசுப்பு கூறியதாவது:- </p><p>
</p><p>
பீகார் முன்னாள் முதல்வர் லல்லுபிரசாத்யாதவ் மீது கால்நடை தீவன ஊழல் வழக்கு
தொடரப்பட்டது. இந்த வழக்கில் லல்லு பிரசாத் யாதவ் மீது குற்றப்பத்திரிகை தாக்கல்
செய்து உள்ளதால் அவர் முதல்வர் பதவியில் இருக்க கூடாது என்று எதிர்க்கட்சிகள் கோரிக்கை
வைத்தது. அதை ஏற்று அவர் பதவியில் இருந்து விலகி விட்டார். அவர் தானாக முன் வந்து
நீதியின் நலனை கருதி பதவியில் இருந்து விலகிவிட்டார். அதுபோல ஜெயலலிதா முதல்வராக பதவி
ஏற்க கூடாது. அவர் நீதியின் நலனையும் பொதுநலனையும் கருத்தில் கொண்டு முதல்வராக பதவி
ஏற்க கூடாது. </p><p>
</p><p>
நிலக்கரி வழக்கு </p><p>
</p><p>
ஜெயலலிதா மீது நிலக்கரி ஊழல் வழக்கு, சொத்து குவிப்பு வழக்கு, லண்டன் வழக்கு உள்பட பல
வழக்குகள் தனிக்கோர்ட்டில் விசாரணையின் உள்ளது. இந்த வழக்குகளில் ஜெயலலிதா மீது
குற்றப்பத்திரிகை தாக்கல் செய்யப்பட்டு உள்ளது. இப்படி குற்றப்பத்திரிகை தாக்கல்
செய்யப்பட்ட வழக்கில் அரசு தரப்பு வாதம் முடிந்து வழக்கில் விரைவில் தீர்ப்பு கூறப்பட
கூடிய நிலையில் உள்ளது. இந்த வழக்கில் ஜெயலலிதாவுக்கு தண்டனை நிச்சயமாக கிடைக்க
வாய்ப்பு உள்ளது.இதுபோல ரூ.66 கோடி சொத்து குவிப்பு வழக்கிலும் ஜெயலலிதாவுக்கு 100 சதவீதம்
தண்டனை கிடைக்க வாய்ப்பு உள்ளது. எனவே இந்த நிலையில் அவர் முதல்வராக பதவி ஏற்றால்
தனிக்கோர்ட்டில் விசாரணை பாதிக்கப்படும். விசாரணை சரியாக நடக்காது. எல்லா வழக்குகளில்
இருந்தும் ஜெயலலிதா விடுதலை பெற்ற பிறகு தான் அவர் முதல்வராக பதவி ஏற்க வேண்டும். அதுவரை
முதல்வராக பதவி ஏற்காமல் இருக்க வேண்டும். இதுதவிர சுப்ரீம்கோர்ட்டு தீர்ப்பின் படி அவர்
மீண்டும் முதல்வராக முடியாது.. </p><p>
</p><p>
வெங்கடபதி </p><p>
</p><p>
அப்பீல் மனு விசாரணையில் தமிழக அரசின் சிறப்பு வழக்கறிஞராக ஆஜரான வெங்கடபதி
கூறியதாவது:- </p><p>
</p><p>
சட்டமன்ற உறுப்பினராக இல்லாத ஒருவரை- ஒருமுறை மட்டுமே அமைச்சராகவோ, முதல்வராகவோ தேர்வு
செய்ய முடியும் என்று சுப்ரீம் கோர்ட்டு தீர்ப்பு உள்ளது. எனவே தேர்தலில் போட்டியிட்டு
வென்ற பின்னரே ஜெயலலிதா மீண்டும் முதல்வராக முடியும்.. </p><p>
</p><p>
ஆர்.கே.கபூர் </p><p>
</p><p>
ஜெயலலிதாவின் அமைச்சர் பதவியை பறிப்பதற்கு காரண மான வழக்கை சுப்ரீம் கோர்ட்டில்
தொடர்ந்தவர் சட்ட நிபுணர் ஆர்.கே.கபூர் ஆவார். அவர் கூறியதாவது:- </p><p>
</p><p>
சட்டமன்ற உறுப்பினர் அல்லாத ஒருவர், அந்த சட்ட மன்றத்தில் 5 ஆண்டுகாலத்தில் ஒருமுறைதான்
அமைச்சரவை யில் 6 மாதம் இடம்பெற முடியும் என்பது ஜெயலலிதாவுக்கு பொருந்தும்.
சட்டமன்றத்துக்கு தேர்ந்து எடுக்கப்படாமல் அவர் மீண்டும் முதல்வராக முடியாது. பழைய கவர்னரை
போல தவறாக அவரை பதவி ஏற்க வைத்தால் நான் மீண்டும் நீதிமன்றத்தை அணுகுவேன். </p><p>
</p><p>
கபில்சிபல் </p><p>
</p><p>
காங்கிரஸ் எம்.பி.யான பிரபல வழக்கறிஞர் கபில்சிபல் கூறியதாவது:- </p><p>
</p><p>
இந்திய குற்றவியல் சட்டம் 120-பி-ன் கீழ் அரசியல்வாதிகளை நீதிமன்றத்துக்கு இழுப்பது
இப்போது பேஷனாகிவிட்டது. இந்த பிரிவின் கீழ் ஒருவரை தண்டிக்கும் போது நீதிமன்றங்கள்
கவனமுடன் சீர்தூக்கிப் பார்க்க வேண்டும். </p><p>
</p><p>
இவ்வாறு அவர்கள் கூறினர். </p>

<p> </p>

<p> </p>

<p>கொடைக்கானல் ஓட்டல்
வழக்கில், ஜெ. விடுதலை எதிர்த்து அரசு வக்கீல் அப்பீல், தனிக்கோர்ட்டில் ஆஜராகி
தண்டனை பெற்று தந்தவர்</p>

<p> </p>

<p>சென்னை,டிச.6- கொடைக்கானல் ஓட்டல் வழக்கில் ஜெயலலிதா விடுதலை
எதிர்த்து முன்னாள் அரசு வக்கீல் ராமசாமி சுப்ரீம் கோர்ட்டில் அப்பீல் செய்ய உள்ளார்.
இவர் தனிக் கோர்ட்டில் ஜெயலலிதாவுக்கு எதிராக வாதாடி தண்டனை பெற்று தந்தவர். </p><p>
</p><p>
கொடைக்கானல் ஓட்டல் வழக்கில் இருந்து ஜெயலலிதா, செல்வகணபதி, எச்.எம். பாண்டே,
ராகேஷ்மிட்டல் ஆகியோரை சென்னை ஐகோர்ட்டு நீதிபதி என். தினகர் விடுதலை செய்து
தீர்ப்பு கூறினார். இந்த தீர்ப்பை எதிர்த்து சுப்ரீம் கோர்ட்டில் வக்கீல் எஸ்.
ராமசாமி அப்பீல் செய்கிறார்.இந்த அப்பீல் வழக்கு தாக்கல் செய்ய சென்னை ஐகோர்ட்டு
தீர்ப்பு நகல் தர கோரி சென்னை ஐகோர்ட்டில் நேற்று புதிய மனு தாக்கல் செய்து உள்ளார்.
இந்த மனுவை ஜெயலலிதா மீதும் லஞ்ச ஒழிப்பு போலீஸ் டி.எஸ்.பி. மீதும் தாக்கல்
செய்து உள்ளார். </p><p>
</p><p>
அதில் அவர் கூறி இருப்பதாவது:- </p><p>
</p><p>
கொடைக்கானலில் 7 மாடி ஓட்டல் கட்ட விதிவிலக்கு அளித்ததில் ஊழல் நடந்து உள்ளதாக
லஞ்ச ஒழிப்பு போலீசார் ஜெயலலிதா, செல்வகணபதி, எச்.எம். பாண்டே,
ராகேஷ்மிட்டல் ஆகியோர் மீது சென்னை தனிக்கோர்ட்டில் வழக்கு தாக்கல் செய்தனர். </p><p>
</p><p>
தண்டனை </p><p>
</p><p>
இந்த வழக்கு நீதிபதி ராதாகிருஷ்ணன் முன்பு விசாரணைக்கு வந்தது. இந்த வழக்கில் நான்
தனிக்கோர்்ட்டில் சிறப்பு அரசு சிறப்பு வக்கீலாக ஆஜராகி வாதாடினேன். எனது தரப்பு
வாதத்தை கேட்ட தனிக்கோர்ட்டு நீதிபதி 2.2.2000 அன்று ஜெயலலிதா உள்பட 4 பேருக்கும்
ஓராண்டு சிறை தண்டனை விதித்து தீர்ப்பு கூறினார். இவர்களுக்கு ரூ. ஆயிரம் அபராதம்
விதித்து தீர்ப்பு கூறினார். தனிக்கோர்ட்டில் லஞ்ச ஒழிப்பு போலீசார் வழக்கை
சிறப்பாக நடத்த எனக்கு முழு ஒத்துழைப்பு கொடுத்தனர். இதனால் நான் தனிக்கோர்ட்டில்
ஏராளமான ஆதாரங்களை தாக்கல் செய்து சிறப்பாக வாதாடி ஜெயலலிதா உள்பட 4 பேருக்கு தண்டனை
பெற்று கொடுத்தேன். வழக்கை நான் நடத்தும் போது வழக்கு தொடர்பான ஏராளமான
கோப்புகளையும் ஆதாரங் களையும் நேரில் பார்க்க கூடிய வாய்ப்பு ஏற்பட்டது. இந்த
வழக்கில் புலன்விசாரணை அதிகாரி விசாரணை நடத்திய தில் எனக்கு முழு திருப்தி ஏற்பட்டு
உள்ளது. இந்த வழக்கில் நான் கஷ்டப்பட்டு வாதாடி குற்றம் சாட்டப்பட்டவர்களுக்கு தண்டனை
பெற்று கொடுத்தேன். ஆனால் சென்னை ஐகோர்ட்டு இந்த வழக்கில் இருந்து ஜெயலலிதா உள்பட 4
பேரை விடுதலை செய்து தீர்ப்பு கூறி உள்ளது. </p><p>
</p><p>
அப்பீல் </p><p>
</p><p>
இந்த தீர்ப்பை எதிர்த்து நான் சுப்ரீம் கோர்ட்டில் அப்பீல் செய்ய உள்ளேன். இந்த
வழக்கு முக்கியமான வழக்கு. இதில் பல விவகாரங்கள் உள்ளடக்கி உள்ளது. இந்த வழக்கில்
அப்பீல் செய்தால் இது தமிழக அரசை பாதிக்கும். இதுதவிர தமிழக அரசை ஆட்சி செய்பவர்களை
பாதிக்கும். தற்போதைய அரசு ஜெயலலிதாவின் கட்டுப்பாட்டிற்குள் இருக்கிறது. இதனால்
ஜெயலலிதா மீது சுப்ரீம் கோர்ட்டில் அப்பீல் செய்ய முடியாது. அரசு தரப்பில் அப்பீல் செய்ய
சிறப்பு வக்கீலுக்கு அனுமதி தரமாட்டார்கள். இதுதவிர அப்படியே தமிழக அரசு அப்பீல்
செய்தாலும் அதை சுப்ரீம் கோர்ட்டில் சரியாக நடத்தமாட்டார்கள். எனவே பொதுநலனுடன்
சுப்ரீம்கோர்ட்டில் அப்பீல் செய்ய அனுமதி தர வேண்டும். இதற்காக சென்னை ஐகோர்ட்டு
தீர்ப்பு நகலை தர வேண்டும். </p><p>
</p><p>
இவ்வாறு அவர் மனுவில் கூறி உள்ளார். </p><p>
</p><p>
இன்று விசாரணை </p><p>
</p><p>
இந்த மனு கூடுதல் பதிவாளர் முன்பு இன்று விசாரணைக்கு வருகிறது. எனவே அப்பீல் நகலை வக்கீல்
ராமசாமிக்கு தருவார்களா இல்லையா என்பது விரைவில் தெரிந்து விடும். </p><p>
</p><p>
டான்சி வழக்கு தீர்ப்பு நகல் சுவாமிக்கு தர மறுப்பு </p><p>
</p><p>
சென்னை,டிச.6- டான்சி வழக்கில் அரசு வக்கீல் வெங்கடபதிக்கு ஜனதா கட்சி தலைவர்
சுப்பிரமணியசுவாமி உதவி செய்தார். இதுதவிர அவர் தனது சார்பாக எழுத்துபூர்வமான வாதத்தை
ஐகோர்ட்டில் தாக்கல் செய்தார். இந்த வழக்கில் ஜெயலலிதா உள்பட அனைவரையும் விடுதலை
செய்து சென்னை ஐகோர்ட்டு தீர்ப்பு கூறியது. இந்த தீர்ப்பு நகல் கேட்டு சுப்பிரமணியசுவாமி
தரப்பில் வக்கீல் ரவி சென்னை ஐகோர்ட்டில் ஒரு மனு தாக்கல் செய்தார். இதுபோல அரசு
தரப்பில் ஆஜராகி வாதாடிய வக்கீல் வெங்கடபதி சார்பாக வக்கீல் பி.வில்சன் தீர்ப்பு
நகல் கேட்டு ஒரு மனு தாக்கல் செய்தார். இந்த இரண்டு மனுக்களையும் விசாரித்த ஐகோர்ட்டு
அதிகாரி அரசு வக்கீல் வெங்கடபதிக்கு வழக்கமான முறையில் தீர்ப்பு நகல் தரப்படும்,
சுவாமிக்கு தீர்ப்பு நகல் தர முடியாது என்று உத்தரவிட்டார். இதனால் சுவாமி சென்னை
ஐகோர்்ட்டில் தீர்ப்பு நகல் கேட்டு தனியாக மனு தாக்கல் செய்கிறார். அவர் டெல்லியில்
இருந்து வந்ததும் இந்த மனுவை தாக்கல் செய்கிறார். இதுபற்றி அரசு வக்கீல் வில்சன் பதில்
கூறும் போது தீர்ப்பு நகல் சுவாமிக்கு தர வேண்டும். அவர் வழக்கில் உதவி செய்ய ஐகோர்ட்டு
அனுமதி வழங்கி உள்ளது என்று கூறினார். </p>

<p> </p>

<p> </p>

<p> </p>

<p> </p>

<p> </p>

<p>பாபர் மசூதி இடிக்கப்பட்ட
11-வது ஆண்டு தினம் இன்று அனுசரிப்பு: பாராளுமன்றத்தில் இன்று ஒத்திவைப்பு தீர்மானம்,
எதிர்க்கட்சிகள் முடிவு</p>

<p> </p>

<p>புதுடெல்லி, டிச. 6- பாபர் மசூதி இடிக்கப்பட்ட 11-வது ஆண்டு
தினமான இன்று எதிர்க்கட்சிகள் அனைத்தும் ஒன்று சேர்ந்து பாராளுமன்றத்தில் ஒத்திவைப்பு
தீர்மானம் கொண்டு வர தீர்மானித்துள்ளன. </p><p>
</p><p>
பாராளுமன்றத்தில் எதிர்க் கட்சிகள் ஒருங்கிணைந்து செயல்படுவது பற்றி ஆலோசிப் பதற்காக
டெல்லியில் நேற்று மார்க்சிய கம்யூனிஸ்டு தலைவர் சோம்நாத் சாட்டர்ஜி இல்லத்தில்
காலை சிற்றுண்டி கூட்டம் நடைபெற்றது. </p><p>
</p><p>
இதில் பல்வேறு எதிர்க்கட்சி தலைவர்கள் கலந்து கொண்டார்கள். இதில் பாபர் மசூதி
இடிக்கப்பட்டு 11 ஆண்டுகள் ஆகியும் இன்னும் குற்றவாளிகளை கண்டுபிடித்து தண் டிக்காதது பற்றி
விவாதிப் பதற்காக இன்று பாராளுமன்றத்தில் ஒத்திவைப்பு தீர்மானம் கொண்டு வருவது என்று
முடிவு செய்யப்பட்டது. </p><p>
</p><p>
கறுப்பு நாள் </p><p>
</p><p>
மேலும் பாபர் மசூதி இடிக்கப்பட்ட தினமான இன்று கறுப்பு தினம் கடைப்பிடிப்பது எனவும்
தீர்மானிக்கப்பட்டது. </p><p>
</p><p>
இந்த தகவலை சோம்நாத் சாட்டர்ஜி, தேசியவாத காங்கிரஸ் தலைவர் பிரபுல் பட்டேல்
ஆகியோர் தெரிவித்தனர். </p><p>
</p><p>
தோற்கடிப்போம் </p><p>
</p><p>
பொடோ சட்ட விவகாரத்தில் எதிர்க்கட்சிகள் இடையே ஒற்றுமை இல்லையே என்று கேட்டதற்கு,
பொடோ சட்டம் மாநிலங்களவையில் தோற்கடிக்கப்படும் என்று உறுதியாக நம்புகிறேன் என்று
தேசியவாத காங்கிரஸ் தலைவர் பட்டேல் கூறினார். மாநிலங்களவையில் தோற்கடிக்கப்பட்ட
பிறகு பாராளுமன்ற கூட்டுக் கூட்டம் நடத்துவதற்கு மற்ற எதிர்க்கட்சிகளை போலவே தேசியவாத
காங்கிரசும் ஆட்சேபம் தெரிவிக்கும் என்று பட்டேல் மேலும் தெரிவித்தார். </p>

<p> </p>

<p> </p>

<p>ஜனநாயகத்தின் முக்கிய
ஆயுதம் பத்திரிகை சுதந்திரம்-வாஜ்பாய்</p>

<p> </p>

<p>புதுடெல்லி, டிச. 6- ஜனநாயகத்தின் முக்கிய ஆயுதம் பத்திரிகை
சுதந்திரம் தான் என்று பிரதமர் வாஜ்பாய் கூறினார். </p><p>
</p><p>
தலைநகர் டெல்லியின் இதயம் போல் விளங்கும் செவன்ரைசிங் ரோட்டில் தேசிய பத்திரிகை
மையத்துக்கு அடிக்கல் நாட்டு விழா நேற்று நடந்தது. பிரதமர் வாஜ்பாய் அடிக்கல் நாட்டி
பேசியதாவது:- </p><p>
</p><p>
பத்திரிகைகள் சரியான தகவலை உரிய நேரத்தில் மக்களுக்கு தெரிவிக்க வேண்டும். ஆனால் அந்த
தகவல் தவறானதாக இருக்க கூடாது. ஜனநாய கத்தில் பத்திரிகை சுதந்திரம் தான் முக்கிய
ஆயுதம். இந்த கட்டுமான பணியை அதிகாரிகள் குறிப்பிட்ட கால வரம்புக்குள் முடித்து விட
வேண்டும். இல்லாவிட்டால் செலவினங்கள் அதிகரித்து விடும். </p><p>
</p><p>
இவ்வாறு அவர் பேசினார். </p><p>
</p><p>
அத்வானி உறுதி </p><p>
</p><p>
விழாவில் உள்துறை மந்திரி அத்வானி கலந்து கொண்டு பாரம்பரிய முறைப்படி தேங் காய் உடைத்து
பூஜை செய்தார். அவர் பேசும்போது பொடோ சட்டத்தை பார்த்து பத்திரிகைகள் பயப்படத்
தேவையில்லை. பத்திரிகை சுதந்திரத்தை பாதுகாக்க தேவையான அனைத்தும் செய்யப்படும்
என்றார். </p><p>
</p><p>
முன்னதாக தகவல் ஒளி பரப்பு துறை மந்திரி சுஷ்மா சுவராஜ், இணை மந்திரி ரமேஷ் பயாஸ்
ஆகியேர் பூமி பூஜை செய்தார்கள். </p>

<p> </p>

<p> </p>

<p> </p>

<p> </p>

<p> </p>

<p>மாநிலங்களவையில் மத்திய
மந்திரி மீது உரிமைப் பிரச்சினை, சபையில் 20 நிமிடம் அமளி</p>

<p> </p>

<p>புதுடெல்லி, டிச. 6- மாநிலங்களவையில் நேற்று மத்திய பங்குகள்
விற்பனைத் துறை மந்திரி அருண்ஷோரி மீது ஜிபான் ராய் (மார்க்சிய கம்யூ) ஒரு உரிமைப்
பிரச்சினை கொண்டு வந்தார். </p><p>
</p><p>
டிசம்பர் 3-ந்தேதி டெல்லியில் நடைபெற்ற பொருளாதார மாநாட்டில் பேசிய மத்திய மந்திரி
அருண்ஷோரி, தனியார் மயத்தை எதிர்ப்பதன் மூலம் எம்.பி.க்கள் பணம் சம் பாதிக்க
நினைக்கிறார்கள் என்று பேசியுள்ளார். இது எம்.பி.க்களை அவமதிக்கும் செயல் என்று அந்த
உரிமைப் பிரச்சினையில் ராய் கூறினார். </p><p>
</p><p>
மந்திரியின் இந்த பேச்சை பிசினஸ் ஸ்டாண்டர்டு பத்திரிகை வௌியிட்டுள்ளது. மந்திரி இதை
மறுக்கட்டும். அந்த பத்திரிகை மீது உரிமை பிரச்சினை கொண்டு வருகிறேன் என்று உறுப்பினர்
ராய் மேலும் கூறினார். </p><p>
</p><p>
20 நிமிடம் அமளி </p><p>
</p><p>
உறுப்பினர்கள் வெட்கம், வெட்கம் என்று கோஷம் போட்டார்கள். இந்த பிரச்சி னையை நான்
கவனிக்கிறேன் என்று சபைத் தலைவர் கிருஷ்ணகாந்த் கூறியதையும் பொருட்படுத்தாமல்
தொடர்ந்து கோஷம் எழுப்பிக் கொண்டே இருந்தார்கள். இதனால் சபையில் 20 நிமிட நேரம்
அமளியாக இருந்தது. </p><p>
</p><p>
இதையடுத்து சபையை ஒத்திவைக்கப் போவதாக சபைத் தலைவர் கூறினார். பின்னர் அமைதி
ஏற்பட்டது. </p>

<p> </p>

<p> </p>

<p>விலை உயர்வால் மக்கள்
பெரும் அவதி: சர்வாதிகார அரசை இடித்துரைக்கும் போர் முழக்கமே, முழு அடைப்பு, இளங்கோவன்
அறிக்கை</p>

<p> </p>

<p>சென்னை, டிச.6- சர்வாதிகார அரசை இடித்துரைக்கும் போர் முழக்கமே,
முழு அடைப்பு என்று இளங்கோவன் கூறி உள்ளார். </p><p>
</p><p>
தமிழ்நாடு காங்கிரஸ் தலைவர் இளங்கோவன் வௌியிட்டுள்ள அறிக்கை வருமாறு:- </p><p>
</p><p>
மக்களின் அத்தியாவசிய பொருட்கள் அத்தனையிலும் அளவுக்கதிகமான விலை ஏற்றத்தை
அ.தி.மு.க. அரசு ஒரே நாளில் அறிவித்ததன் மூலம் தமிழக வரலாற்றில் ஓர் இருண்ட
அத்தியாயத்திற்கு முன்னுரை எழுதப்பட்டுள்ளது. </p><p>
</p><p>
அ.தி.மு.க. அரசின் ஆறுமாத கால சாதனைகளாக சர்வாதி காரத்தனமாய் அனைத்து பிரிவு மக்களின்
தலைகளிலும் விலை உயர்வு ஏற்றப்பட்டுள்ளன. </p><p>
</p><p>
வறுமைப்பிடியிலுள்ள ஏழை நோயாளிகளின் மடியிலுள்ள சில்லரையையும் பிடுங்குகிற அ.தி.மு.க.
அரசின் கொடுங்கோலாட்சிக்கு கண்டனம் தெரிவிக்கும் நட வடிக்கைதான் 7-ந்தேதி முழு
அடைப்பும், வேலை நிறுத்தமும் ஆகும். இந்த பந்த் எந்த அரசியல் கட்சியின் ஆதாயத்திற்
காகவும் நடத்தப்படுவதல்ல. இன்றைக்கு பேரவதிக்குள்ளாக்கப்பட்ட மக்களின் அவல நிலைக்கு
குரல் கொடுக்கும் அமைதி போராட்டம் இது. விலை ஏற்றத்தை உடனே குறைப்பீர் என்று அரசுக்கு
இடித்துரைக்கும் போர் முழக்கமான இப்பந்த் போராட்டம் வெற்றிபெற அனைவரும் ஒத்துழைப்பீர்
என்று தமிழ்நாடு காங்கிரஸ் சார்பில் பெரிதும் வேண்டுகிறேன். </p><p>
</p><p>
ஜி.கே.வாசன் </p><p>
</p><p>
த.மா.கா. தலைவர் ஜி.கே. வாசன் கூறியிருப்பதாவது:- </p><p>
</p><p>
தமிழக அரசு அறிவித்துள்ள அத்தியாவசிய பொருட்களின் விலையேற்றம் மற்றும் கட்டண
உயர்வுகளை எதிர்த்து ஒரு பொது வேலை நிறுத்தத்தினை வருகின்ற 7-ந்தேதி நடத்தி பொதுமக்களது
உணர்வுகளை தமிழக அரசுக்கு தெரிவிக்க மதச்சார்பற்ற அரசியல் கட்சி கள் முடிவு செய்துள்ளன.
அதன்படி 7-12-2001 வௌ்ளிக் கிழமை காலை 6 மணி முதல் மாலை 6 மணி வரை நடைபெற இருக்கும்
பொதுவேலை நிறுத் தத்திற்கு சமூகத்தின் அனைத்து தரப்பினரும் ஒருமித்த ஆதர வினை தரவேண்டும்
என்று கேட்டுக்கொள்கிறேன். </p><p>
</p><p>
பொது வேலை நிறுத்தத்தின் போது அரசியல் கட்சிகளை சேர்ந்த தொண்டர்கள் கவன மாக இருந்து
சமூக அமை திக்கும், சட்ட ஒழுங்கிற்கும் ஊறு விளைவிக்காமல் பார்த்து கொள்ள வேண்டும்
என்றும் கேட்டுக்கொள்கிறேன். </p><p>
</p><p>
நல்லக்கண்ணு-சங்கரய்யா </p><p>
</p><p>
இந்திய கம்யூனிஸ்டு தலைவர் ஆர்.நல்லக்கண்ணு, மார்க்சிய கம்யூனிஸ்டு தலைவர்
என்.சங்கரய்யா வௌியிட்டுள்ள அறிக்கை:- </p><p>
</p><p>
கடந்த வாரம் தமிழக அரசு பேருந்து கட்டணம், மின் கட்டணம், ரேசன் அரிசி விலை, பால் விலை
ஆகியவற்றை உயர்த்தியதோடு பல அத்தி யாவசிய பொருட்களின் மீது வரியையும் போட்டு ஒரு
மினி பட்ஜெட்டையே அறிவித்தது. </p><p>
</p><p>
மக்கள் தலையில் சுமார் ரூ.4500 கோடி சுமையை சுமத்தி யது. இதனை கண்டித்து சி.பி.எம்.,
சி.பி.ஐ., த.மா.கா., காங்கிரஸ், பார்வர்டு பிளாக், விடுதலை சிறுத்தைகள், மக்கள்
தமிழ்தேசம், ஜனநாயக பேரவை, முஸ்லிம் மனித உரி மைக்கழகம் ஆகிய கட்சிகள் கூட்டாக
டிசம்பர் 7-ந்தேதி முழு அடைப்புக்கு அறைகூவல் விடுத் துள்ளன. பல்வேறு கட்சியினரும்
தொழிற்சங்கங்களும், அரசு ஊழியர், ஆசிரியர், மத்தியதர ஊழியர் சங்கங்கள், வர்த்தக
அமைப்புகள் மற்றும் வேறு பல அமைப்புகளும் முழு அடைப்புக்கு ஆதரவு தெரி வித்துள்ளன.
தாறுமாறாக கட்டணத்தையும், வரியையும் உயர்த்தியுள்ளதை எதிர்த்து டிசம்பர் 7-ந்தேதிய முழு
அடைப்பு போராட்டத்தை வெற்றிபெற செய்ய வேண்டு மென சி.பி.எம்., சி.பி.ஐ.
கேட்டுக்கொள்கின்றன. </p><p>
</p><p>
இவ்வாறு கூறி உள்ளனர். </p>

<p> </p>

<p> </p>

<p> </p>

<p> </p>

<p>ஜெ. சொத்து குவிப்பு
வழக்கு: அரசு தரப்பு சாட்சிகள் வௌியூர் ஓட்டம்? யாரும் ஆஜராகவில்லை</p>

<p> </p>

<p>சென்னை, டிச.6- ஜெயலலிதா மீதான சொத்து குவிப்பு ஊழல் வழக்கு
விசாரணைக்கு அரசு தரப்பு சாட்சிகள் யாரும் வரவில்லை. அவர்கள் வௌியூருக்கு ஓட்டம்
பிடித்ததாக கூறப்படுகிறது. </p><p>
</p><p>
ஜெயலலிதா, சசிகலா, சுதாகரன், இளவரசி மீதான ரூ.66.65 கோடி சொத்துகுவிப்பு வழக்கு நேற்று
1-வது தனிக் கோர்ட்டில் விசாரணைக்கு வந்தது. இந்த வழக்கில் அரசு தரப்பு சாட்சிகளிடம்
குறுக்கு விசாரணை நடந்து வருகிறது. </p><p>
</p><p>
மேலும் 58 சாட்சிகளிடம் குறுக்கு விசாரணை செய்ய ஜெயலலிதா தரப்பில் மனு செய்யப்பட்டது.
அதில் 22 பேரிடம் குறுக்கு விசாரணைக்கு நீதிபதி ஆறுமுகப் பெருமாள் ஆதித்தன் அனுமதித்தார்.
நேற்று மட்டும் 5 பேர் சாட்சி அளிக்க சம்மன் அனுப்பப்பட்டு இருந்தது. </p><p>
</p><p>
இன்று வருவார்களா? </p><p>
</p><p>
ஆனால் 5 பேரும் கோர்ட்டுக்கு வரவில்லை. 4 பேர் வௌியூர் போய்விட்டனர். ஒருவர் அந்த
விலாசத்தில் இல்லை என்று லஞ்ச ஒழிப்பு போலீசார் தெரிவித்தனர். இதனால்
விசாரணையை நாளைக்கு (இன்றைக்கு) நீதிபதி தள்ளி வைத்தார். இன்றும் 5 சாட்சிகள் ஆஜராக
சம்மன் அனுப்பப்பட்டுள்ளது. அவர்களும் ஆஜராவார்களா என்பது தெரியவில்லை. </p><p>
</p><p>
சுதாகரன் ஆஜர் </p><p>
</p><p>
வழக்கில் குற்றம் சாட்டப்பட்டுள்ள சுதாகரன் மட்டும் வழக்கம் போல் நேற்று கோர்ட்டில்
தனது ஆதரவாளர்களுடன் ஆஜராகி இருந்தார். </p>

<p> </p>

<p> </p>

<p> </p>

<p> </p>

<p> </p>

<p>பஸ்- மின்
கட்டணம்-பால்விலை உயர்வு: தமிழக மக்களின் வயிற்றெரிச்சல் ஆட்சி மாற்றத்தை
உருவாக்கும், சுதர்சன் எம்.பி. எச்சரிக்கை</p>

<p> </p>

<p>சிவகங்கை, டிச.6- பஸ், மின் கட்டண உயர்வு, பால் விலை உயர்வு
போன்றவற்றால் தமிழக மக்களுக்கு வயிற்றெரிச்சல் ஏற்பட்டு உள்ளது அது நிச்சயமாக
அ.தி.மு.க. ஆட்சி மாற்றத்தை உருவாக்கும் என்று சுதர்சன் எம்.பி. கூறினார். </p><p>
</p><p>
சிவகங்கை தொகுதி இ.காங்கிரஸ் எம்.பி. இ.எம்.சுதர்சன நாச்சியப்பன் சிவகங்கையில்
தினகரன் நிருபருக்கு அளித்த பேட்டியில் கூறியதாவது:- </p><p>
</p><p>
அரசு, பஸ் கட்டணம், மின் கட்டணம் பால்விலை ரேசன் கடை அரிசி போன்ற அத்தியா வசிய
பொருட்களின் விலை யை 50 சதவீதத்திற்கு மேல் உயர்த்தி உள்ளது. கடந்த மாதம் 17 நாட்கள்
பஸ் தொழி லாளர்கள் போனஸ் கேட்டு வேலை நிறுத்தம் செய்த போது தனியார் பஸ்கள் எவ்வித
கட்டுப்பாடின்றி தாராளமாக இயக்கப்பட்டது. தனியார் பஸ் உரிமையாளர்கள் யாரும் அரசிடம்
பஸ் கட்டணத்தை உயர்த்துங்கள் என்று கேட்கவில்லை. அரசு போக்குவரத்து கழகத்தில் நிதி
நிலைமையை காரணம் கூறி அரசு பஸ் கட்டணத்தை உயர்த்தி உள்ளது. இப்பயன் முழுமையாக அரசிற்கு
கிடைக்காது. இந்த பஸ் கட்டண உயர்விற்காக பல கோடிக்கணக்கான ரூபாய் கைமாறி உள்ளதாக
மக்கள் சந்தேகப்படுகிறார்கள். </p><p>
</p><p>
ஏழைகளும் நடுத்தர மக்களும் நன்மை பெறும் வகையில் அப்போதைய முதல்வர் எம்.ஜி.ஆர். ஆட்சி
நடத்தினார். ஆனால் இன்றைய அ.தி.மு.க. அரசு எம்.ஜி. ஆர். ஆட்சியை நடத்துவதாக கூறிக்
கொண்டு கட்டண உயர்வினை அறிவித்து உள்ளது. ரூ.3.50 விலை உள்ள அரிசி ரூ.9 ஆக உயர்த்தி
விற்பனை செய்யப்படுகிறது. எனவே ஏழை எளிய மக்கள் ஒரு வேளை கூட வயிறார சாப்பிட முடியாத
சூழ்நிலையை இந்த அரசு ஏற்படுத்தி உள்ளது. இது தான் எம்.ஜி.ஆரின் கொள்கையா? </p><p>
</p><p>
மினி பட்ஜெட் </p><p>
</p><p>
அதிகாரிகள் கூறியதை அப்படியே ஏற்றுக் கொண்டு விலைவாசி உயர்வை மக்கள் மீது திணிப்பது
மக்கள் ஆட்சிக்கு உகந்தது அல்ல. எனவே இந்த மினி பட்ஜெட்டை உடனடியாக ரத்து செய்ய
வேண்டும். இன்றைய சூழ்நிலையில் மக்கள் ரோட்டிற்கு வந்து போராடுகிறார்களா என்பதை விட
அவர்களது நெஞ்ச கொதிப்பும், வயிற் றெரிச்சலும் ஆட்சி மாற்றத்தை உருவாக்கும். </p><p>
</p><p>
பா.ஜ.க. கொண்டு வந்து உள்ள பொடோ சட்டத்தை ஆதரித்து பேசுகிறார். தலித் மக்கள்
சிறுபான்மையினர் இந்த பொடோ சட்டத்தால் பாதிக்கப்படுகிறார்கள். இனி மேல் வருகின்ற
தேர்தல்களில் காங்கிரஸ் கட்சி எக்காரணம் கொண்டும் அ.தி.மு.க.- தி.மு.க.வுடன் தேர்தல்
உடன்பாடு வைத்துக் கொள்ளாது. அதன் மூலமாகவே தமிழகத்தை ஒரு வளர்ச்சி மிக்க மாநிலமாக
மாற்ற முடியும். </p><p>
</p><p>
இவ்வாறு கூறினார். </p><p>
</p><p>
பேட்டியின்போது வக்கீல் அ.தேவராஜ் உடன் இருந்தார். </p>

<p> </p>

<p> </p>

<p>டெல்லி யூனியன், மந்திரி
சபை இன்று பதவியேற்பு</p>

<p> </p>

<p>புதுடெல்லி, டிச.6- டெல்லி யூனியன் பிரதேசத்தில் காங்கிரஸ்
கட்சி ஆட்சியில் உள்ளது. அங்கு, முதல்வர் ஷீலா தீட்சத், தனது மந்திரி சபையில் மாற்றம்
செய்வதற்காக கடந்த 28-ந்தேதி 6 பேர் கொண்ட மந்திரி சபையை கூண்டோடு ராஜினாமா செய்ய
செய்தார். இந்நிலையில் புதிய மந்திரிகள் இன்று பதவி பிரமாணம் எடுத்து கொள்கின்றனர்.
இதில் பழைய மந்திரிகள் எம்.எஸ்.சாதி (நிதிதுறை) மற்றும் ஏ.கே.வாலியா (சுகாதாரம்) ஆகிய
இருவர் மட்டும் மீண்டும் மந்திரி சபையில் சேர்க்கப்பட்டு உள்ளனர். காங்கிரஸ் தலைவி
சோனியா காந்தி, டெல்லி முதல்வர் ஷீலா தீட்சத், கட்சி பொது செயலாளர் கமல்நாத்
ஆகியோர் கடந்த 3 நாட்களாக கலந்தாலோசித்து புதிய மந்திரிகளை தேர்வு செய்து உள்ளனர்.
</p>

<p> </p>

<p> </p>

<p> </p>

<p> </p>

<p>இலவச வேட்டி - சேலை ஊழல்:
நீதிபதி சாட்சியம்</p>

<p> </p>

<p>சென்னை, டிச. 6- முன்னாள் மந்திரி இந்திரகுமாரி மீதான இலவச
வேட்டி- சேலை ஊழல் வழக்கில் நீதிபதி சாட்சியம் அளித்தார். </p><p>
</p><p>
முந்தைய அ.தி.மு.க. ஆட்சியில் ஏழைகளுக்கு இலவச வேட்டி-சேலை வழங்கியதில் நடந்த ஊழல்
தொடர்பாக முன்னாள் மந்திரி இந்திரகுமாரி உள்பட 6 பேர் மீது 3-வது தனிக்கோர்ட்டில்
சி.பி.சி.ஐ.டி. போலீசார் தொடர்ந்த வழக்கு விசாரணை நடந்து வருகிறது. </p><p>
</p><p>
நேற்று இந்த வழக்கு நீதிபதி அன்பழகன் முன்னிலையில் விசாரணைக்கு வந்தது. அப்போது மதுரை
மாவட்ட உரிமையியல் கோர்ட்டு நீதிபதி சி.பால்ராஜ் ஆஜராகி அரசு தரப்பில் சாட்சியம்
அளித்தார். அப்போது அவர் கூறியதாவது:- </p><p>
</p><p>
நான் சென்னை 15-வது மெட்ரோபாலிடன் மாஜிஸ்தி ரேட்டு கோர்ட்டில் மாஜிஸ்தி ரேட்டாக
இருந்தபோது 22-8-96-ல் ஜெகதீசன் என்பவர் என்னிடம் வாக்குமூலம் தருவதற்காக ஆஜரானார். </p><p>
</p><p>
மனசாட்சி உறுத்தியதால்... </p><p>
</p><p>
பிற்பகல் 3 மணிக்கு அவர் ஆஜராகி இந்த வழக்கு சம்பந்தமான உண்மைகளை தானே முன்வந்து
கூறுவதாக அவர் தெரிவித்தார். உடனே நான் இந்த வாக்குமூலம் உங்களுக்கு எதிராகவே மாறக்
கூடும், எனவே 1 நாள் யோசித்து வரும்படி கால அவகாசம் வழங்கினேன். </p><p>
</p><p>
மறுநாள் பிற்பகல் 3 மணிக்கு மீண்டும் அவர் ஆஜராகி வாக்குமூலம் கொடுத்தார். யாராவது
உங்களை துன்புறுத்தினார்களா என்று கேட்டதற்கு அவர் இல்லை என்று கூறிவிட்டார். யாருடைய
தூண்டுதலும் இன்றி மனசாட்சி உறுத்தியதால் தானே மனமுவந்து வாக்குமூலம் தருவதாக அவர்
கூறினார். அதனால் அவரது வாக்கு மூலத்தை பதிவு செய்தேன். </p><p>
</p><p>
இவ்வாறு அவர் கூறினார். </p><p>
</p><p>
(ஜெகதீசன்தான் இந்த வழக்கின் முக்கிய சாட்சி, அப்ரூவராக மாறியவர் என்பது
குறிப்பிடத்தக்கது.) </p><p>
</p><p>
குறுக்குவிசாரணை </p><p>
</p><p>
பிறகு அவரிடம் இந்திரகுமாரி வக்கீல் குறுக்கு விசாரணை செய்தார். இதையடுத்து விசாரணை வருகிற
13-ந்தேதிக்கு தள்ளி வைக்கப்பட்டது. </p>

<p> </p>

<p> </p>






</body></text></cesDoc>