<cesDoc id="tam-w-dinakaran-politics-01-03-11" lang="tam">
<cesHeader type="text">
<fileDesc>
<titleStmt>
<h.title>tam-w-dinakaran-politics-01-03-11.txt</h.title>
<respStmt>
<respType>Electronic file created by</respType>
<respName>Department of Linguistics, Lancaster University</respName>
<respType>text collected by</respType>
<respName>Paul Baker and Celia Worth</respName>
<respType>transferred into Unicode by</respType>
<respName>"Unicodify" software by Andrew Hardie</respName>
</respStmt>
</titleStmt>
<publicationStmt>
<distributor>UCREL</distributor>
<pubAddress>Department of Linguistics, Lancaster University, Lancaster, LA1 4YT, UK</pubAddress>
<availability region="WORLD"></availability>
<pubDate>03-08-24</pubDate>
</publicationStmt>
<sourceDesc>
<biblStruct>
<monogr>
<h.title>"Dinakaran" internet news (www.dinakaran.com), news stories collected on 01-03-11</h.title>
<h.author>Dinakaran</h.author>
<imprint>
<pubPlace>Tamil Nadu, India</pubPlace>
<publisher>Dinakaran</publisher>
<pubDate>01-03-11</pubDate>
</imprint>
</monogr>
</biblStruct>
</sourceDesc>
</fileDesc>
<encodingDesc>
<projectDesc>Text collected for use in the EMILLE project.</projectDesc>
<samplingDesc>Simple written text only has been transcribed. Diagrams, pictures and tables have been omitted and their place marked with a gap element.
</samplingDesc>
<editorialDecl>
<conformance level="1"></conformance>
</editorialDecl>
</encodingDesc>
<profileDesc>
<creation>
<date>03-08-24</date>
</creation>
<langUsage>Tamil</langUsage>
<wsdUsage>
<writingSystem id="ISO/IEC 10646">Universal Multiple-Octet Coded Character Set (UCS).</writingSystem>
</wsdUsage>
<textClass>
<channel mode="w">print</channel>
<constitution type="composite"></constitution>
<domain type="public"></domain>
<factuality type="fact"></factuality>
</textClass>
<translations></translations>
</profileDesc>
<revisionDesc></revisionDesc>
</cesHeader>

<text>
<body>




<p>பா.ம.க.வுடன் ஆட்சியில்
பங்கு போட முடியாது: புதுவையில் அ.தி.மு.க.வுடன் கூட்டணி இல்லை, காங்கிரஸ் அறிவிப்பு,
அ.தி.மு.க.-பா.ம.க.வை எதிர்த்து காங். வேட்பாளரை நிறுத்துவோம்</p>

<p> </p>

<p>புதுடெல்லி, மார்ச் 11- அ.தி.மு.க. கூட்டணியில்
த.மா.கா.-காங்கிரஸ் சேர்ந்தது அல்லவா? இது தமிழகத்துக்கு மட்டும்தான். புதுவைக்கு அல்ல
என்று காங்கிரஸ் மேலிடம் அறிவித்து உள்ளது. புதுவையில் பா.ம.க.வுடன் ஆட்சியை பங்குபோட
முடியாது. அ.தி.மு.க.-பா.ம.க.வை எதிர்த்து காங்கிரஸ் வேட்பாளர்களை நிறுத்தும் என்று
குலாம்நபி ஆசாத் கூறி உள்ளார். </p><p>
</p><p>
அ.தி.மு.க. கூட்டணியில் த.மா.கா.வும், காங்கிரசும் சேருமா சேராதா என்று தமிழக அரசியலை
கலக்கி கொண்டிருந்த கேள்விக்கு நேற்று பதில் கிடைத்துவிட்டது. </p><p>
</p><p>
மூப்பனார் தௌிவு </p><p>
</p><p>
இந்த விஷயத்தில் முடிவெடுக்க முடியாமல் ஒரு மாதத்துக்கும் மேலாக திணறிக் கொண்டிருந்த அல்லது
குழம்பிக்கொண்டிருந்த மூப்பனார் தனது நிலையை தௌிவு படுத்திவிட்டார். </p><p>
</p><p>
அ.தி.மு.க.வுடன் தொகுதி பங்கீடு பேச்சுவார்த்தையை மூப்பனார் த.மா.கா.-காங்கிரஸ் இரு
கட்சிகளுக்கும் சேர்த்தே நடத்தி வந்தார். எந்த முடிவானாலும் அதை த.மா.கா.- காங்கிரஸ்
இணைந்தே எடுக்கும் என்று சோனியா கைகாட்டிய படி மூப்பனார் செயல்பட்டார். </p><p>
</p><p>
ஜெயலலிதா பேரம் </p><p>
</p><p>
ஜெயலலிதாவுடன் இவர்களுடைய பேச்சுவார்த்தை நடந்து கொண்டிருந்தபோதே பா.ம.க. திடீரென வந்து
அ.தி.மு.க. கூட்டணியில் சேர்ந்து கொண்டது. இதனால் த.மா.கா.- காங்கிரசுக்கு சீட்
எண்ணிக்கையை குறைக்க ஜெயலலிதா திட்டமிட்டார். </p><p>
</p><p>
முதலில் த.மா.கா.- காங்கிரசுக்கு மொத்தமே 35 சீட்தான் என்று ஜெயலலிதா பேரத்தை
ஆரம்பித்தார். இது மூப்பனாருக்கும், சோனியாவுக்கும் தர்ம சங்கடத்தை ஏற் படுத்தியது. </p><p>
</p><p>
புதுவை காங். போர்க்கொடி </p><p>
</p><p>
இதற்கிடையே ஜெயலலிதா வும், ராமதாசும், அவசர அவசரமாக தொகுதி பங்கீடு ஒப்பந்தம்
செய்துகொண்டார்கள். புதுவையில் முதலாம் 21/2 ஆண்டு பா.ம.க. ஆட்சி, பிற்பாதி 21/2 ஆண்டு
அ.தி.மு.க. ஆட்சி என்று அறிவித்தார்கள். </p><p>
</p><p>
இந்த சங்கதி, இப்போது புதுவையில் முதல்வர் பதவியோடு ஆட்சியை அனுபவித்து கொண்டிருக்கும்
காங்கிரசுக்கு பேரிடியாக விழுந்தது. புதுவை காங்கிரசார் போர்க்கொடி தூக்கினார்கள். எந்த
நிலையிலும் புதுவையில் ஆட்சியை விட்டுத்தர சம்மதிக்கமாட்டோம் என்று முதல்வர் சண்முகம்
திட்டவட்டமாக அறி வித்தார். </p><p>
</p><p>
உடன்பாடு வந்தது </p><p>
</p><p>
தமிழ்நாட்டில் எப்படி வேண்டுமானாலும் கூட்டணி வைத்து கொள்ளுங்கள், புதுவையில் அ.தி.மு.க.
கூட்டணி வேண்டாம், காங்கிரசும்-த.மா.கா.வும் தனி அணியாக நின்று போட்டியிடலாம் என்று
புதுவை காங்கிரசார் வலியுறுத்தினர். டெல்லி காங்கிரஸ் மேலிடமும் இதையே மூப்பனாருக்கு
சொன்னது. </p><p>
</p><p>
இந்த பிரச்சினையை புரிந்து கொண்ட ஜெயலலிதாவும் புதுவையில் தனித்தனி அணி யாக நின்று
கொள்வோம் என்று இறங்கி வந்தார். அதன் பிறகு ஜெயலலிதாவும், மூப்பனாரும் பேசி
தமிழகத்துக்கு மட்டும் தொகுதி பங்கீட்டில் உடன்பாடு கண்டுள்ளனர். இங்கு
த.மா.கா.-காங்கிரசுக்கு சேர்த்து 47 சீட் என்று முடிவாகி இருக்கிறது. </p><p>
</p><p>
போர் பிரகடனம் </p><p>
</p><p>
எனவே புதுவையில் த.மா.கா.வும், காங்கிரசும் தனியாக கூட்டணி அமைத்து போட்டியிடும் என்று
மூப்பனார் நேற்று நிருபர்களிடம் அறிவித்துவிட்டார். இன்னொரு கூட்டணி தி.மு.க.-கண்ணன் அணி
என்றும் மற்றொரு கூட்டணி அ.தி.மு.க.-பா.ம.க. என்றும் ஆகிவிட்டது. </p><p>
</p><p>
இந்த நிலையில் நேற்று அகில இந்திய காங்கிரஸ் பொதுச்செயலாளரும், தமிழ்நாடு-புதுவை மாநில
பொறுப்பாளருமான குலாம்நபி ஆசாத் ஒரு முக்கிய அறிவிப்பை வௌி யிட்டிருக்கிறார்.
அ.தி.மு.க.- பா.ம.க. கூட்டணிக்கு எதிரான போர்ப்பிரகடனம் செய்திருக்கிறார். </p><p>
</p><p>
வேட்பாளர் நிறுத்துவோம் </p><p>
</p><p>
இதுகுறித்து குலாம்நபி ஆசாத் டெல்லியில் நேற்று அளித்த பேட்டி வருமாறு:- </p><p>
</p><p>
தமிழ்நாட்டில் அ.தி.மு.க. கூட்டணியில் 47 சீட் த.மா.கா.- காங்கிரசுக்கு மொத்தமாக
ஒதுக்கப்பட்டிருக்கிறது. இதில் 15 இடங்களில் காங்கிரஸ் போட்டியிடும். </p><p>
</p><p>
தமிழகத்துக்கு ஏற்பட்டிருக்கும் தேர்தல் கூட்டணி புதுவைக்கு பொருந்தாது. புதுவையில்
த.மா.கா.-காங்கிரஸ் தனிக்கூட்டணியாக செயல்படும். அங்கு இன்னொரு கூட்டணியாக அமைத்து
போட்டியிடும் அ.தி.மு.க.- பா.ம.க. வேட்பாளர்களை எதிர்த்து த.மா.கா.-காங்கிரஸ் சார்பாக
வேட்பாளர்களை நிறுத்துவோம். </p><p>
</p><p>
எப்படி சமாளிப்பீர்கள்? </p><p>
</p><p>
கேள்வி:- தேர்தல் பிரசாரத்தில் மக்களிடம் உங்கள் கட்சியின் இந்த நிலையை எப்படி
நியாயப்படுத்த போகிறீர்கள்? </p><p>
</p><p>
பதில்:- த.மா.கா.வும், காங்கிரசும் ஒரணியாகத்தான் நிற்கப்போகின்றன. இது ஒரு விஷயம்.
அடுத்தது புதுவையில் பா.ம.க.வுடன் ஆட்சியை பகிர்ந்துகொள்ள எங்களால் முடியாது. இது ஒரு
விஷயம். இந்த 2 கருத்துக்களையும் காங்கிரஸ் கொண்டிருக்கிறது. </p><p>
</p><p>
ஆட்சி பங்கு </p><p>
</p><p>
கேள்வி:- தமிழகத்தில் அதிகார பங்கீடு கேட்பீர்களா? </p><p>
</p><p>
பதில்:- ஜெயலலிதா ஏற்கனவே இதை தௌிவுபடுத்தி விட்டார். எங்கள் கூட்டணி
வெற்றிபெற்றாலும் யாருடனும் ஆட்சியை பகிர்ந்து கொள்ள மாட்டோம் என்று ஜெயலலிதா உறுதியாக
சொல்லியிருக்கிறாரே. </p><p>
</p><p>
இவ்வாறு அவர் கூறினார். </p>

<p> </p>

<p>அ.தி.மு.க. கூட்டணியில்,
த.மா.கா.-காங். சேர்த்து 47 தொகுதியில் போட்டி, மூப்பனார் அறிவிப்பு</p>

<p> </p>

<p>
 
 
  
  
  
  
  
  
  
  
  
  
  
  
 
 
 

 
<gap desc="illustration"></gap></p>




 
  
  <p>அ.தி.மு.க. கூட்டணியில்
  த.மா.கா. -காங். சேர்ந்த செய்தியை நேற்று மூப்பனார் நிருபர்களிடம் கூறியபோது
  எடுத்தபடம். </p>
  
 




<p>சென்னை,மார்ச்11- அ.தி.மு.க. கூட்டணியில் த.மா.கா-காங்கிரசுக்கு
சேர்த்து 47 தொகுதி ஒதுக்கப்பட்டுள்ளது என்று மூப்பனார் கூறினார். </p><p>
</p><p>
இது பற்றி த.மா.கா. தலைவர் மூப்பனார் சத்தியமூர்த்தி பவனில் நேற்று (சனிக்கிழமை) பேட்டி
அளித்தார். அப்போது அவர் கூறியதாவது:- </p><p>
</p><p>
நேற்று அ.தி.மு.க. பொதுச் செயலாளர் ஜெயலலிதாவுடன் கூட்டணி குறித்து ஆலோசனை
நடத்துவதற்காக சென்றேன். பேச்சுவார்த்தை சுமுகமாக முடிந்தது. தமிழகத்தில் அ.தி.மு.க.வுடன்
த.மா.கா.வும், காங்கிரசும் கூட்டணி அமைத்து போட்டியிடுவது என முடிவு எடுக்கப்பட்டது. </p><p>
</p><p>
கேள்வி:- கூட்டணி தமிழகம், புதுவைக்கும் சேர்த்தா? </p><p>
</p><p>
பதில்:- நாங்கள் பேசியது தமிழக தேர்தல் பற்றி மட்டும் தான். புதுவை வேறு மாநிலம். அது
பற்றி பேசி வருகிறோம். </p><p>
</p><p>
47 தொகுதிகள் </p><p>
</p><p>
கேள்வி:- இரு கட்சிகளுக்கும் எத்தனை சீட் ஒப்பந்தம் ஆகி இருக்கிறது? </p><p>
</p><p>
மூப்பனார்:- 47 சீட் உடன்பாடு ஏற்பட்டு உள்ளது. </p><p>
</p><p>
கேள்வி:- 50 சீட் வேண்டும் என்று காங்கிரஸ் கட்சி கேட்டு இருந்ததே? </p><p>
</p><p>
பதில்:- நாங்களும் இதை விடகூடத்தான் கேட்டோம். </p><p>
</p><p>
கேள்வி:- கூட்டணிக்கு இவ்வளவு தாமதம் ஆனதற்கு காரணம் என்ன? </p><p>
</p><p>
பதில்:- இதை நான் கால தாமதம் என்று கருதவில்லை. </p><p>
</p><p>
கேள்வி:- கூட்டணி குறித்து உடன்பாடு ஆகிவிட்டதா? </p><p>
</p><p>
பதில்:- கையெழுத்தாகி விட்டது. </p><p>
</p><p>
காங்கிரசுக்கு ஆதரவு </p><p>
</p><p>
கேள்வி:- புதுவை கூட்டணி...? </p><p>
</p><p>
பதில்:- புதுவை கூட்டணி பிறகு முடியும். பேச்சு நடந்து வருகிறது. </p><p>
</p><p>
கேள்வி:- புதுவையில் காங்கிரஸ் ஆட்சி வருமா? </p><p>
</p><p>
பதில்:- புதுவையில் காங்கிரஸ் ஆட்சி அமைக்க நான் ஆதரவு தருவேன். </p><p>
</p><p>
கேள்வி:- கூட்டணி முடிவா னது பற்றி தமிழக காங்கிரசுக்கு தகவல் தெரியுமா? </p><p>
</p><p>
பதில்:- தமிழக காங்கிரஸ் தலைவர் இளங்கோவன் இன்று காலை என்னை சந்தித்து பேசி னார்.
அவரிடம் கூட்டணி விவரம் பற்றி சொன்னேன். </p><p>
</p><p>
கேள்வி:- 1996-ல் ஊழல் அ.தி.மு.க.வுடன் கூட்டு சேர்ந்ததை எதிர்த்துதான் த.மா.கா.வை
தொடங்கினீர்கள். இப்போது அதே காங்கிரசுடன் சேர்ந்து அ.தி.மு.க.வுடன் கூட்டு சேர்ந்து
இருக்கிறீர்களே? </p><p>
</p><p>
புதிய சூழல் </p><p>
</p><p>
பதில்:- 96 தேர்தல் ஒரு சூழல், 98 தேர்தல் வேறு ஒரு சூழல், 99 இன்னொரு சூழல், 2001
தேர்தலில் புதிய சூழல் உருவாகி இருக்கிறது. </p><p>
</p><p>
கேள்வி:- முன்பு ஜெ. ஆட்சி, பேயாட்சி என்று சொல்லும் அளவுக்கு ஆட்சி நடத்தினார்.
இப்போது அவரையே ஆட்சியில் அமர்த்த எப்படி முன்வந் தீர்கள்? </p><p>
</p><p>
பதில்:- நாங்கள் முன்பு தி.மு.க.வுடன் எந்த அடிப்படையில் கூட்டு சேர்ந்தோமோ, அதன்
அடிப்படையிலேயே மதச்சார்பற்ற அணியில் ஒன்று சேர்ந்து கூட்டணி அமைத்து இருக்கிறோம். </p><p>
</p><p>
யார் முதல்வர்? </p><p>
</p><p>
கேள்வி:- உங்கள் கூட்டணிக்கு முதல்வர் யார் என்று பிரசாரம் செய்வீர்களா? </p><p>
</p><p>
பதில்:- கூட்டணியில் எது பெரிய கட்சியோ அதுதான் முதல்வர் யார் என்று முடிவு செய்யும். </p><p>
</p><p>
கேள்வி:- ஜெயலலிதா மீண்டும் தவறு செய்யமாட்டார் என்று நம்புகிறீர்களா? </p><p>
</p><p>
பதில்:- இதுபோல ஏற்கனவே தவறு செய்தவர்களை தவறு செய்ய மாட்டார்கள் என்று நம்பி
ஆட்சியில் அமர வைக்க வில்லையா? </p><p>
</p><p>
தி.மு.க.மதவாதமா? </p><p>
</p><p>
கேள்வி:- தமிழ்நாட்டில் தி.மு.க. தலைமையில்தான் தேசிய ஜனநாயக கூட்டணி உள்ளது, பா.ஜ.
தலைமையில் அல்ல. எனவே அந்த அணி மதவாத அணி அல்ல என்று கருணாநிதி கூறி இருக்கிறாரே? </p><p>
</p><p>
பதில்:- எது மதச்சார்புடையது? மதச்சார்பற்றது? என்பது வௌிப்படையான விஷயம்.
மதவாதம் என்றால் என்ன? என்று கருணாநிதி சொன்னதையும், எழுதியதையும் நான் தொகுத்து
சொன்னால் போதும். மதவாதம் பற்றி நான் விவரமாக சொல்லும் நேரம் வரும். </p><p>
</p><p>
எதிர்ப்பு </p><p>
</p><p>
கேள்வி:- இந்த கூட்டணிக்கு உங்கள் கட்சிக்குள்ளேயே எதிர்ப்பு இருப்பதாக
கூறப்படுகிறதே? </p><p>
</p><p>
பதில்:- யாராவது எதிர்ப்பதாக சொன்னார்களா? </p><p>
</p><p>
கேள்வி:- தி.மு.க. நிலையான ஆட்சி என்று பிரசாரம் செய்யும் என கருணாநிதி சொல்லி
இருக்கிறார். உங்கள் அணி எதை பிரதானமாக வைத்து பிரசாரம் செய்யும்? </p><p>
</p><p>
பதில்:- கூட்டணி தலைவர்களுடன் பேசி முடிவு செய்வோம். </p><p>
</p><p>
போட்டி </p><p>
</p><p>
கேள்வி:- நீங்கள் எந்த தொகுதியில் போட்டியிடுவீர்கள்? </p><p>
</p><p>
பதில்:- நான் ராஜ்யசபை உறுப்பினராக இருக்கிறேன். 2004 வரை எனக்கு பதவி இருக்கிறது.
அதன்பிறகு வரும் தேர்தலில் நான் போட்டியிடுவேன். </p><p>
</p><p>
ஜாதிக்கட்சி </p><p>
</p><p>
கேள்வி:- பா.ம.க. ஜாதிக் கட்சி. அதை எப்படி ஏற்றுக் கொள்கிறீர்கள்? </p><p>
</p><p>
பதில்:- ஜாதிக்கட்சி என்றால் தடை செய்திருக்க வேண்டியது தானே? அதுவும் அரசியல்
கட்சி என்பதால் ஏற்றுக்கொண்டோம். </p><p>
</p><p>
புதுமுகங்களா? </p><p>
</p><p>
கேள்வி:- புதுமுகங்களுக்கு வாய்ப்பு தரப்படும் என்று கருணாநிதி அறிவித்து இருக்கிறார்.
த.மா.கா.வில் புதுமுகங்களுக்கு வாய்ப்பு தரப்படுமா? </p><p>
</p><p>
பதில்:- பார்ப்போம். </p><p>
</p><p>
கேள்வி:- கடந்த தேர்தலில் ஊழல் எதிர்ப்பு, மதவாத எதிர்ப்பு கோஷத்தை
வைத்தீர்களே? </p><p>
</p><p>
பதில்:- இப்போதும் அதில் மாற்றம் இல்லை. </p><p>
</p><p>
கேள்வி:- ஜெயலலிதா ஊழல் வழக்குகள் பற்றி உங்கள் கருத்து என்ன? </p><p>
</p><p>
பதில்:- அது நீதிமன்றம் முடிவுசெய்ய வேண்டிய விஷயம். </p><p>
</p><p>
கேள்வி:- 3-வது அணி தோல்வி அடையும் என்பதால் அ.தி.மு.க.வுடன் கூட்டு
சேர்ந்தீர்களா? </p><p>
</p><p>
பதில்:- எப்படி தோற்கும் என்று சொல்கிறீர்கள்? </p><p>
</p><p>
எது மதச்சார்பற்ற அணி? </p><p>
</p><p>
கேள்வி:- முஸ்லிம் லீக்கை உங்கள் அணியில் வைத்துக் கொண்டு மதச்சார்பற்ற அணி என்று
எப்படி சொல்ல முடியும்? </p><p>
</p><p>
பதில்:- அது சிறுபான்மையினர் கட்சி, மதவாத கட்சி அல்ல. </p><p>
</p><p>
திருச்சி அ.தி.மு.க. முடிவு </p><p>
</p><p>
கேள்வி:- திருச்சி எம்.பி. தொகுதி யாருக்கு? </p><p>
</p><p>
பதில்:- அதுபற்றி அ.தி.மு.க. முடிவு செய்யும். </p><p>
</p><p>
கேள்வி:- தி.மு.க. த.மா.கா.வுக்கு மட்டும் 40 சீட் தரும் என்று கூறியதே? </p><p>
</p><p>
பதில்:- ஜெயலலிதா 47 சீட் கொடுத்து இருக்கிறார். </p><p>
</p><p>
கேள்வி:- காங்கிரசுக்கும் சேர்த்துதானே? </p><p>
</p><p>
பதில்:- நாங்களும் காங்கிரஸ் தான். </p><p>
</p><p>
காமராஜர் ஆட்சி கைவிடவில்லை </p><p>
</p><p>
கேள்வி:- புதுவையில் வன்னியர் ஆட்சி அமைப்போம் என்று ராமதாஸ் சொல்லி வந்தார். அதை
ஜெயலலிதா ஏற்று உடன்பாடு செய்துள்ளார். ஆனால் காமராஜர் ஆட்சி என்ற உங்களது கருத்தை
ஜெயலலிதா சட்டை செய்யவில்லையே? </p><p>
</p><p>
பதில்:- நான் காமராஜர் ஆட்சியை கைவிட வில்லை. நேரம், சூழ்நிலை வரும் வரை
காத்திருப்போம். </p><p>
</p><p>
சிதம்பரம் ஏற்றாரா? </p><p>
</p><p>
கேள்வி:- அ.தி.மு.க.வுடன் கூட்டணி வைத்துக் கொண்டதை .சிதம்பரம் ஏற்றுக் கொண்டாரா?
</p><p>
</p><p>
பதில்:- அவரிடமே கேளுங்கள். </p><p>
</p><p>
ஊழல் பிரச்சினை இல்லையா? </p><p>
</p><p>
கேள்வி:- ஊழல் உங்களுக்கு பிரச்சினை இல் லையா? </p><p>
</p><p>
பதில்:- ஊழல் பிரச்சினை இல்லை என்று நான் ஒருபோதும் சொல்லவில்லை. </p><p>
</p><p>
காங்-த.மா.கா. இணைப்பா? </p><p>
</p><p>
கேள்வி:- தேர்தலுக்குப் பிறகு காங்கிரஸ்- த.மா.கா. இணைந்து விடுமா? </p><p>
</p><p>
பதில்:- தேர்தல் முடியட்டும், பார்க்கலாம். </p><p>
</p><p>
இவ்வாறு அவர் கூறினார். </p><p>
</p><p>
பேட்டியின்போது, எஸ்.ஆர். பாலசுப்பிரமணியம், ஜெயந்தி நடராஜன், தனுஷ்கோடி ஆதித்தன்,
பீட்டர் அல்போன்ஸ், ஞானதேசிகன், கோபண்ணா, செல்லக்குமார், பாரமலை,
எஸ்.ஜி.விநாயகமூர்த்தி, கார்வேந்தன் ஆகியோர் உடன் இருந்தனர். </p>

<p> </p>

<p>ஊழல்-மதவாதத்துடன் சமரசம்
இல்லை ஜெ.வுடன் சேர்ந்த பிறகு மூப்பனார் பேட்டி</p>

<p> </p>

<p>சென்னை, மார்ச்.11- த.மா.கா. தலைவர் மூப்பனார் சென்னையில்
நிருபர்களுக்கு அளித்த பேட்டி வருமாறு:- </p><p>
</p><p>
கேள்வி:- மதவாத எதிர்ப்பு, ஊழல் எதிர்ப்புதான் உங்கள் லட்சியமாக இருந்தது. இப் போது
ஊழலுடன் எப்படி சமரசம் ஆனீர்கள்? </p><p>
</p><p>
பதில்:- ஆட்சியில் இருப்பவர்கள் தான் ஊழல் செய்ய முடியும். ஜெயலலிதா ஆட்சி யில் செய்த
ஊழலுக்கு 96-ல் தண்டனை வழங்கப்பட்டு விட்டது. </p><p>
</p><p>
கேள்வி:- ஊழல் வழக்கில் தண்டனை பெற்ற ஜெயலலிதா தேர்தலில் நிற்க முடியாது என்று
கூறப்படுகிறது. ஆனால் ஜெயலலிதா தேர்தலில் போட்டியிடுவேன் என்று கூறி வருகிறாரே? </p><p>
</p><p>
பதில்:- இது வேட்புமனு தாக்கல் செய்யும்போது தெரியும். </p><p>
</p><p>
கேள்வி:- ஜெயலலிதா தேர்தலில் நிற்க முடியுமா? </p><p>
</p><p>
பதில்:- நான் வக்கீல் அல்ல </p><p>
</p><p>
இவ்வாறு அவர் கூறினார். </p>

<p> </p>

<p>அ.தி.மு.க.வுடன் கூட்டணிக்கு
எதிர்ப்பு: த.மா.கா. எம்.எல்.ஏ. ஆரூண் திடீர் விலகல், தி.மு.க. அணியில் சேர்ந்தார்</p>

<p> </p>

<p>
 
<gap desc="illustration"></gap></p>




 
  
  <p>அ.தி.மு.க.வுடன்
  கூட்டணிக்கு எதிர்ப்பு தெரிவித்து த.மா.கா. எம்.எல்.ஏ. ஜே.எம்.ஆரூண் முதல்வர்
  கருணாநிதி முன்னிலையில் தி.மு.க.வில் இணைந்த போது எடுத்த படம். </p>
  
 




<p>சென்னை, மார்ச் 11- த.மா.கா. எம்.எல்.ஏ. ஜே.எம்.ஆரூண் அந்த
கட்சியில் இருந்து விலகி தி.மு.க. கூட்டணியில் சேர்ந்தார். </p><p>
</p><p>
த.மா.கா. எம்.எல்.ஏ.வும், தமிழக முஸ்லிம் ஐக்கிய ஜமாத் தலைவருமான ஜே.எம். ஆரூண்
த.மா.கா.விலிருந்து விலகி நேற்று மாலை 7.45 மணிக்கு அறிவாலயம் வந்து முதலமைச்சர்
கருணாநிதிக்கு பொன்னாடை அணிவித்து தி.மு.க. கூட்டணிக்கு ஆதரவு தெரிவித்தார். அவருடன்
தமிழக முஸ்லிம் ஐக்கிய ஜமாத் நிர்வாகிகள் அப்துல் காதர், காதர் மொய்தீன்,
கொடிக்கால் ஷேக் அப்துல்லா, அமானுல்லா, அப்துல் அஜீஸ், கலீல் ரகுமான் ஆகி யோர்
வந்திருந்தனர். </p><p>
</p><p>
அமைச்சர்கள் </p><p>
</p><p>
இந்த நிகழ்ச்சியின்போது அமைச்சர்கள் அன்பழகன், ஆற்காடு வீராசாமி, மேயர் ஸ்டாலின்
ஆகியோர் உடன் இருந்தனர். </p><p>
</p><p>
தன்மானமிழந்து </p><p>
</p><p>
இதன்பிறகு ஆரூண் நிருபர்களிடம் கூறியதாவது:- </p><p>
</p><p>
த.மா.கா. எந்த நோக்கத் துக்காக உருவானதோ அதை விட்டுவிட்டு தன்மானத்தை இழந்து
அ.தி.மு.க.வுடன் சேர்ந்து குறைந்த சீட்டுக்களை பெற்றிருப்பது வருந்தத்தக்கது. மேலும் இந்திய
யூனியன் முஸ்லிம் லீக்குக்கு ஒரு இடம் மட்டுமே ஒதுக் கியது கண்டிக்கத்தக்கது. திராவிட
பாரம்பரியத்துடன் இஸ்லாம் மக்களுக்கு நீண்ட நெடிய உறவு உண்டு. தி.மு.க. கூட்டணியில் முன்பு
லத்தீப்புக்கு என்ன மரியாதை தரப்பட்டதோ அதே மரியாதையை எங்களுக்கு தருவதாக முதல்வர்
உறுதி கூறியுள்ளார். </p><p>
</p><p>
வெற்றிக்கு பாடுபடுவோம் </p><p>
</p><p>
தி.மு.க.வுடன் இஸ்லாம் சமு தாயத்துடன் உறவை வலுப்படுத்தும் வகையில் ஐக்கிய ஜமாத் முழு
ஆதரவை தி.மு.க. அணிக்கு தந்து தமிழகம் முழுவதும் சென்று பிரசாரம் செய்து இந்த அணியின்
வெற்றிக்காக பாடுபடுவோம். </p><p>
</p><p>
விலகல் கடிதம் </p><p>
</p><p>
கேள்வி:- நீங்கள் த.மா. கா.விலிருந்து விலகி விட்டீர்களா? </p><p>
</p><p>
பதில்:-விலகல் கடிதத்தை மூப்பனாருக்கு அனுப்பி இருக்கிறேன். அவர் சிறந்த அரசியல்வாதி,
பண்பாளர். த.மா.கா. விலிருந்து வருத்தத்துடன் விலகுகிறேன். எங்கள் அமைப்பில் 5 லட்சம்
உறுப்பினர்கள் இருக் கிறார்கள். அவர்கள் தி.மு.க. வின் வெற்றிக்காக முழு மூச்சுடன்
தேர்தல் பணியாற்று வார்கள். </p><p>
</p><p>
மதச்சார்பற்ற அணி </p><p>
</p><p>
கேள்வி:-அ.தி.மு.க. அணி மதச்சார்பற்ற அணி என்று கூறுகிறார்கள். அப்படி இருக்கும்போது
நீங்கள் எப்படி இந்த அணிக்கு வந்தீர்கள்? </p><p>
</p><p>
பதில்:-அவர்கள் கூறும் மதச்சார்பு அமைப்பு தமிழகத்தில் முதல்முதலாக வளர காரணமாக இருந்தது
தி.மு.க.தான். </p><p>
</p><p>
இவ்வாறு அவர் கூறினார். </p>

<p> </p>

<p>அ.தி.மு.க.-காங். கூட்டணி:
சொல்ல வேண்டியதை சொல்லிவிட்டேன், இளங்கோவன் வேதனை</p>

<p> </p>

<p>சென்னை, மார்ச் 11- அ.தி.மு.க. - காங்கிரஸ் கூட்டணி பற்றி
சொல்ல வேண்டியதை எல்லாம் சொல்லிவிட்டேன், இப்போது மேலிடம் முடிவு எடுத்துவிட்டதால்
அதை ஏற்கிறேன் என்று இளங்கோவன் கூறினார். </p><p>
</p><p>
தமிழ்நாடு காங்கிரஸ் தலைவர் ஈ.விகே.எஸ்.இளங் கோவன் நேற்று மாலை நிருபர்களிடம்
கூறியதாவது:- </p><p>
</p><p>
கேள்வி:- காங்கிரசுக்கு 15 சீட் முடிவை நீங்கள் ஏற்கிறீர்களா? </p><p>
</p><p>
பதில்:- த.மா.கா.வுக்கும் காங்கிரசுக்கும் சேர்த்து மூப்பனார் முடிவு எடுப்பார் என்று
ஏற்கனவே எங்கள் கட்சி மேலிடம் அறிவித்து இருந்தது. அதன்படி இப்போது முடிவு
அறிவிக்கப்பட்டுள்ளது. மேலிடம் முடிவு எடுப்பதற்கு முன் நான் சொல்ல வேண்டியதை எல்லாம்
சொல்லிவிட்டேன். இப்போது சோனியா முடிவு எடுத்து விட்டதால் அவருக்கு உண்மையாக இருந்து
காங்கிரஸ், த.மா.கா. மற்றும் கூட்டணி கட்சி வெற்றிக்கு பாடுபடுவேன். </p><p>
</p><p>
தொண்டர்கள் விருப்பம் </p><p>
</p><p>
கேள்வி:- 65 சீட் 110 சீட் என்றெல்லாம் பேசி வந்தீர்களே? </p><p>
</p><p>
பதில்:- கடந்த 2 மாதமாகவே எல்லோரும் இப்படித்தான் பேசி வந்தோம். தொண்டர்கள்
விருப்பத்தை சொல்லிவந்தோம். இப்போது மேலிடம் முடிவு எடுத்துவிட்டதால் சோனியா
விருப்பத்துக்கு ஏற்ப நடப்பது தான் எனக்கும் தமிழ்நாடு காங்கிரசுக்கும் உகந்தது ஆகும். </p><p>
</p><p>
கேள்வி:- 15 சீட் என்பது உங்களுக்கு திருப்தி அளிக்கிறதா? </p><p>
</p><p>
பதில்:- எண்ணிக்கை பற்றி நான் கவலைப்படவில்லை. மேலிடம் முடிவு எடுத்த பிறகு மேலும்
விவாதிக்க விரும்பவில்லை. </p><p>
</p><p>
திருச்சி யாருக்கு? </p><p>
</p><p>
கேள்வி:- இது உங்களை விமர்சித்தவர்களுக்கு கிடைத்த வெற்றியா? </p><p>
</p><p>
பதில்:- 2, 3 தலைவர்கள் தான் என்னை எதிர்த்து கருத்து கூறினார்கள். காங்கிரசில் உள்ள
லட்சக்கணக்கான தொண்டர்கள் எனது கருத்தைத்தான் (தனித்து போட்டி) எதிரொலித்தார்கள். </p><p>
</p><p>
கேள்வி:- திருச்சி பாராளுமன்ற தொகுதி மார்க்சிய கம்யூனிஸ்டுக்கு என்று கூறப்படுகிறதே? </p><p>
</p><p>
பதில்:- அந்த தொகுதி கடந்த தேர்தலில் அ.தி.மு.க. கூட்டணியில் எங்களுக்கு ஒதுக்கப்பட்டது
ஆகும். இந்த தேர்தலில் அது எங்களுக்கு ஒதுக்கப்படுமா இல்லையா என்று தெரிய வில்லை. கடந்த
தேர்தலில் தி.மு.க. கூட்டணியில் அந்த தொகுதி பா.ஜ.வுக்கு தரப்பட்டது. இப்போதும்
தி.மு.க. அதை அவர்களுக்கே ஒதுக்கி உள்ளது. இங்கு நிலைமை தெரியவில்லை. </p><p>
</p><p>
ஜெ. வை சந்திக்காதது </p><p>
</p><p>
வருத்தம் இல்லை </p><p>
</p><p>
இளங்கோவன் அளித்த பேட்டி வருமாறு:- </p><p>
</p><p>
கேள்வி:- காங்கிரஸ் தலைவர் என்ற முறையில் நீங்கள் தொகுதி பங்கீடு குறித்து
ஜெயலலிதாவுடன் பேசாதது குறைதானே? </p><p>
</p><p>
பதில்:- குலாம்நபி ஆசாத்தும், பிரணாப் முகர்ஜியும் ஜெயலலிதாவுடன் ஏற்கனவே பேசி
இருக்கிறார்கள். மூப்பனாருக்கு அதிகாரம் தரப் பட்டதால் நான் தனியாக பேச வேண்டிய அவசியம்
ஏற்படவில்லை. </p><p>
</p><p>
கேள்வி:- சிறு சிறு கட்சிகள் எல்லாம் ஜெயலலிதாவை சந்திக்கும்போது நீங்கள்
சந்திக்காதது..? </p><p>
</p><p>
பதில்:- அவரை சந்திக்காதது எனக்கு ஒன்றும் பெரிய வருத்தம் கிடையாது. மூப்பனார் பேசியதை
எங்கள் மேலிடம் ஏற்றிருப்பதால் நானும் அதை முழுமையாக ஏற்கிறேன். </p><p>
</p><p>
ஜெ. வுடன் கருத்து வேறுபாடு </p><p>
</p><p>
கேள்வி:- நீண்டகாலம் கூட்டணி அமைவதில் சிக்கல் நீடித்ததால் தேர்தல் பணி சுமுகமாக
இருக்குமா? </p><p>
</p><p>
பதில்:- தேர்தலில் கூட்டணி அமைவதற்கு முன் கருத்துவேறுபாடு என்பது சகஜம்தான். கடந்த 91
தேர்தலில் அ.தி.மு.க.வுடன் உடன்பாடு பிரச்சினையில்தான் த.மா.கா.வே தோன்றியது.
இப்படித்தான் கூட்டணி இருக்கும் என்று மேலிடம் முடிவு எடுத்த பிறகு சொந்த கருத்தை
விட்டுவிட்டு கட்சி நலன், நாட்டுநலன் கருதி அந்த முடிவை ஏற்பதுதான் எங்களைப்போன்றவர்கள்
நிலை. </p><p>
</p><p>
பா.ம.க. வுடன் சேர்ந்து பிரசாரம்: இக்கட்டானது </p><p>
</p><p>
இளங்கோவன் பேட்டி வருமாறு:- </p><p>
</p><p>
கேள்வி:- ஜெயலலிதாவுடன் இணைந்து பிரசாரம் செய்வீர்களா? </p><p>
</p><p>
பதில்:- எனக்கும் ஜெயலலிதாவுக்கும் தனிப்பட்ட விரோதம் கிடையாது. கட்சி பற்றிய
பேச்சில்தான் இருவருக்கும் சில கருத்து வேறுபாடுகள் இருந்தன. மேலிடம் சொன்னால் பேசுவேன். </p><p>
</p><p>
கேள்வி:- பா.ம.க.வுடன் இணைந்து பிரசாரம் செய்வீர்களா? </p><p>
</p><p>
பதில்:- இது இக்கட்டான பிரச்சினைதான். இதற்கு மேலிடம்தான் பதில் சொல்ல வேண்டும். </p><p>
</p><p>
3-வது அணி நிலை </p><p>
</p><p>
கேள்வி:- 3-வது அணி என்ன ஆகும்? </p><p>
</p><p>
பதில்:- அதைப்பற்றி பேசுவதால் இனி என்ன பயன்? </p><p>
</p><p>
கேள்வி:- புதுவையில் ஒரு நிலை, தமிழகத்தில் ஒரு நிலை என்பது சரியாக இருக்குமா? </p><p>
</p><p>
பதில்:- இந்திய அரசியலில் இது சகஜம்தான். கேரளாவிலும், மேற்கு வங்கத்திலும்
கம்யூனிஸ்டை எதிர்க்கிறோம். இங்கு கம்யூனிஸ்டுகளுடன் சேர்ந்திருக்கும் நிலை உள்ளது.
ஆனால் புதுவையை பொருத்த வரை அது யூனியன் பிரதேசமாக இருந்தாலும் தமிழகத்தின் அங்கமாக
இருப்பதால் அங்கு அ.தி.மு.க.வை எதிர்த்து பிரசாரம் செய்வது இங்கு சிரமத்தை
ஏற்படுத்துவதாகத்தான் இருக்கும். </p><p>
</p><p>
பா.ம.க.தான் பிரச்சினை </p><p>
</p><p>
கேள்வி:- பா.ம.க.வும் புதுவையும்தான் கூட்டணி பிரச்சினை என்று முன்பு கூறினீர்களே? </p><p>
</p><p>
பதில்:- அதே கருத்தைதான் குலாம்நபி ஆசாத்தும் சொன்னார். இப்போது இந்த முடிவை மேலிடம்
எடுத்து விட்டது. </p><p>
</p><p>
இவ்வாறு அவர் கூறினார். </p><p>
</p><p>
இளங்கோவன் ஆதரவாளர்கள் வருத்தம் </p><p>
</p><p>
நேற்று காலை முதல் மாலை வரை காங்கிரஸ் நிர்வாகிகள் பலர் தேனாம் பேட்டையில் உள்ள
கட்சி அலுவலகத்தில் இளங் கோவன் வருவார் என்று காத்திருந்தனர். ஆனால் அவர் வரவே இல்லை.
அ.தி.மு.க. கூட்டணி ஏற்பட்டதை எங்களால் ஜீரணிக்கவே முடியவில்லை என்று இளங் கோவன்
ஆதரவாளர்கள் வருத்தத்துடன் கூறினர். டி.செல்வம், முகமது சித்தீக், மனோகரன்,
சிரஞ்சீவி போன்றவர்கள் இளங்கோவன் வீட்டுக்கு சென்று ஆலோசனை நடத்தினர். </p>

<p> </p>

<p>தனி மெஜாரிட்டி கிடைக்கவே
கிடைக்காது, ஜெயலலிதா தொகுதி உடன்பாடு: அ.தி.மு.க.வினர் சோர்வு, கட்சி வரலாற்றிலேயே
குறைந்த இடங்களில் போட்டியிடும் தேர்தல்</p>

<p> </p>

<p>சென்னை, மார்ச் 11- அ.தி.மு.க.வின் அரசியல் வரலாற்றிலேயே
தேர்தலில் மிக குறைந்த அளவு தொகுதிகளில் போட்டியிடும் தேர்தல் இது தான். </p><p>
</p><p>
இதனால் அ.தி.மு.க.வினர் குறிப்பாக கட்சி டிக்கெட் கிடைக்கும் என்று தலா 10 ஆயிரம் ரூபாய்
பணம் கட்டி காத்துக் கொண்டிருப்பவர்கள் ஏமாற்றமும், அதிர்ச்சியும்
அடைந்திருக்கிறார்கள். </p><p>
</p><p>
கடந்த தேர்தல்கள் </p><p>
</p><p>
1977-ம் ஆண்டு தேர்தலில் தான் அ.தி.மு.க. முதன்முதலாக போட்டியிட்டது. அந்த தேர்தலில்
200 தொகுதிகளில் அ.தி.மு.க. வேட்பாளர்களை நிறுத்தி வைத்தது. 1980 தேர்தலில் 177
தொகுதிகளில் அ.தி.மு.க. போட்டியிட்டது. 1984 தேர்தலில் 155 தொகுதிகளில்
போட்டியிட்டது. 1989 தேர்தலில் அ.தி.மு.க. இரண்டு அணிகளாக பிரிந்து தேர்தலை சந்தித்தன.
ஜா, ஜெ. என்ற இரண்டு அணிகளுமே 200 தொகுதிகளில் வேட்பாளர்களை நிறுத்தி வைத்தன. 1991
தேர்தலில் 168 தொகுதி களிலும், 1996 தேர்தலில் 168 தொகுதிகளிலும் அ.தி.மு.க.
போட்டியிட்டது. </p><p>
</p><p>
தொகுதி ஒதுக்கீடு </p><p>
</p><p>
இப்போது வருகிற சட்டசபை தேர்தலில் இதுவரையில் காங்கிரஸ்-த.மா.கா.வுக்கு 47
தொகுதிகளில், பா.ம.க.வுக்கு 27 தொகுதிகள் என்று உடன்பாடு ஏற்பட்டிருக்கிறது. இரண்டு
கம்யூனிஸ்டு கட்சிகளுக்கும் எத்தனை தொகுதிகள் என்று இன்று முடிவு செய்யப்படுகிறது. இந்திய
கம்யூனிஸ்டு கட்சி 1977 முதல் 1996-ம் ஆண்டு தேர்தல் வரையில் அதிகபட்சமாக 32
தொகுதிகளிலும் (1977 தேர்தலில்) குறைந்தபட்சமாக 10 தொகுதிகளிலும் (1991) கூட்டணியில்
போட்டியிட்டிருக்கிறது. </p><p>
</p><p>
மார்க்சிய கம்யூனிஸ்டு கட்சியும் அதிகபட்சமாக 40 தொகுதிகளிலும் (1996),
குறைந்தபட்சமாக 16 தொகுதிகளிலும் (1980) கூட்டணியில் போட்டியிட்டு வந்திருக்கிறது. </p><p>
</p><p>
135 தொகுதி </p><p>
</p><p>
இப்போது இந்திய கம்யூனிஸ்டு கட்சி 15 தொகுதிகளுக்கு குறையாமலும், மார்க்சிய கம்யூனிஸ்டு
கட்சி 25 தொகுதிகளுக்கு குறையாமலும் வேண்டு மென்று வற்புறுத்தி வருகின்றன. ஆனால், தலா 6
தொகுதிகள் தான் என்று ஜெயலலிதா கூறி வருவதால் உடன்பாடு ஏற்படாமல் இருந்து வருகிறது. தலா 10
தொகுதிகள் ஒதுக்கி தந்தால் ஏற்றுக்கொள்ளலாம் என்ற எண்ணத்தில் இரண்டு கம்யூனிஸ்டு கட்சிகளும்
உள்ளன. </p><p>
</p><p>
இரண்டு கம்யூனிஸ்டு கட்சிகளுக்கும் சேர்த்து அவர்கள் விரும்புகிறபடி 20 தொகுதி களை
ஒதுக்குவதற்கு ஜெயலலிதா முன்வர மாட்டார். ஆனாலும் 15 தொகுதிகளுக்கு குறையாமல் ஒதுக்குவதற்கு
முன்வருவார் என்று எதிர்பார்க்கப்படுகிறது. இப்படி பா.ம.க., த.மா.கா., காங்கிரஸ் மற்றும்
கம்யூனிஸ்டு கட்சிகளுக்கு 89 தொகுதிகளை ஒதுக்கி விட்டு, மீதமுள்ள 145 தொகுதி களிலிருந்து
தேசிய முஸ்லிம் லீக், ஜனதாதளம், பார்வர்டு பிளாக் மற்றும் உதிரி கட்சிகளுக்கு ஜெயலலிதா
தொகுதி களை வழங்கியாக வேண்டும். எனவே கடைசியில் அ.தி.மு.க. போட்டியிடும் தொகுதி 135
என்ற அளவில் இருக்கும். இது அ.தி.மு.க.வின் அரசியல் வரலாற்றில் மிக குறைந்த அளவு
தொகுதிகளில் வேட்பாளர்களை நிறுத்தும் தேர்தல் என்ற நிலைமையை உருவாக்கி இருக்கிறது. </p><p>
</p><p>
3 ஆயிரம் பேர் ஏமாற்றம் </p><p>
</p><p>
இப்படி தோழமை கட்சிகளுக்கு 100 தொகுதிகள் வரையில் ஒதுக்கித்தர வேண்டிய நிலைமை
அ.தி.மு.க.வுக்கு இப்போதுதான் முதல் தடவையாக ஏற்பட்டுள்ளது. ஆனால், 234 தொகுதிகளுக்குமாக
கட்சி காரர்களிடம் இருந்து தலா 10 ஆயிரம் ரூபாய் வசூலித்து மனுக்களை வாங்கி
வைத்திருக்கிறார்கள். தோழமை கட்சிகளுக்கு பிரித்து கொடுக்கும் இந்த 100 தொகுதிகளில்
சுமார் 3 ஆயிரம் பேர் தலா 10 ஆயிரம் ரூபாய் கட்டி மனு செய்துள்ளனர். இவர்களுக்கெல்லாம்
டிக்கெட் கிடைக்கவில்லை என்பது ஒருபுறமிருக்க, கையிலிருந்த பணமும் போய் விட்டதே என்ற
ஏமாற்றத்திற்கும் இலக்காகி சோர்வடைந்து நிற்கிறார்கள். </p><p>
</p><p>
முதுகெலும்பு முறிய வளைந்து விட்டார் </p><p>
</p><p>
ஓரளவுக்குத்தான் வளைந்து கொடுக்க முடியும், முது கெலும்பு முறிய வளைந்து கொடுக்க முடியாதென்று
சொன்னாலும், கூட்டணி கட்சிகள் குறிப்பாக த.மா.கா. அணியினர் முதுகெலும்பை ஒடித்து
விட்டார்கள் என்று அ.தி.மு.க.வினர் குமுறிக் கொண்டிருக்கிறார்கள். இவர்களுக்கு தேர்தலில்
பாடம் புகட்டுவது என்றும், ஏமாற்றம் அடைந்த அ.தி.மு.க.வினர் குமுறிக்
கொண்டிருக்கிறார்கள். </p><p>
</p><p>
மறைமுகத்திட்டம் </p><p>
</p><p>
இப்படி தோழமை கட்சிகளுக்கு சுமார் 100 தொகுதிகள் வரையில் ஒதுக்கி கொடுத்தது அ.தி.மு.க.
வரலாற்றில் இதுவரையில் நடந்ததில்லை என்பதுடன் மூப்பனாரின் மறைமுக திட்டத்திற்கு
பலியாகும் நிலைமையை ஜெயலலிதாவின் தூதர்கள் ஏற்படுத்தி விட்டனர் என்று நடிகர் சோ
மீதும், தி.க.வின் வீரமணி மீதும், அ.தி.மு.க.வினர் கொதிப்படைந்து போய்
இருக்கிறார்கள். </p><p>
</p><p>
எம்.ஜி.ஆர். கட்சியை தொடங்கி சந்தித்த முதலாவது தேர்தலில் 200 தொகுதியில்
போட்டியிட்டு 130தொகுதிகளில்தான் ஜெயிக்க முடிந்தது. அதற்கடுத்த தேர்தலில் 177
தொகுதிகளில் போட்டியிட்டு 129 தொகுதிகளில் தான் வெற்றி பெற முடிந்தது. 1984 தேர்தலில்
எம்.ஜி.ஆர். நோய்வாய்பட்டிருந்தார், இந்திரா மரணம் அடைந்திருந்தார், அந்த அனுதாப
அலையில் கூட 155 தொகுதிகளில் போட்டியிட்டு 131 தொகுதிகளில் வெற்றி பெற முடிந்தது. </p><p>
</p><p>
1991-ம் ஆண்டு தேர்தல் ராஜீவ்காந்தியின் படு கொலைக்கு பிறகு நடந்த தேர்தல் என்பதால்
அதனை ஒரு அளவுகோளாக எடுத்துக் கொள்ளமுடியாது. 1996-ம் ஆண்டு தேர்தலில் அ.தி.மு.க. 168
தொகுதிகளில் போட்டியிட்டு 4 தொகுதிகளில் மட்டுமே வெற்றி பெற்றது. </p><p>
</p><p>
சோர்ந்தனர் </p><p>
</p><p>
இந்த பின்னணியில் இப் போது இந்த தேர்தலில் அ.தி.மு.க. போட்டியிடும் தொகுதிகள் 135
என்ற அளவுக்கு சுருங்கி விட்ட நிலையில் இந்த கூட்டணிக்கு சாதகமான நிலையிருப்பதாக வைத்துக்
கொண்டாலும் கூட அ.தி.மு.க. அதன் கடந்தகால வெற்றி விகிதத்தை வைத்துப் பார்க்கும்போது 85
தொகுதிகளுக்கு மேல் கண்டிப்பாக ஜெயிக்க முடியாது. அதுவும் ஆதரவு அமோகமாகயிருக்கும்
சூழ்நிலையில்தான் இது சாத்தியம். எனவே அமோக ஆதரவு இருக்கிறது என்று வாதத்திற்கு வைத்துக்
கொண்டால் கூட அ.தி.மு.க.வுக்கு தனி மெஜாரிட்டி கிடைக்க இந்த உடன்பாடு வழி செய்யவில்லை
என்று அ.தி.மு.க.வினர் இப்போது சோர்வடைய தொடங்கி விட்டார்கள். </p>

<p> </p>

<p>மதச்சார்பற்ற தன்மையில்
இந்தியா-மொரீசியஸ் உறுதி, கே.ஆர்.நாராயணன் பேச்சு</p>

<p> </p>

<p>போர்ட் லூயிஸ், மார்ச் 11- இந்தியா, மொரீசியஸ் ஆகிய 2
நாடுகளும் ஜனநாயகம், மதச் சார்பின்மை ஆகியவற்றில் தொடர்ந்து நம்பிக்கை வைத்து
செயல்படும் என்று ஜனாதிபதி கே.ஆர்.நாராயணன் பேசினார். </p><p>
</p><p>
இந்திய பெருங்கடலில் உள்ள மொரீசியஸ் நாட்டில் இந்திய ஜனாதிபதி கே.ஆர். நாராயணன்
சுற்றுப்பயணம் மேற்கொண்டிருப்பது தெரிந்ததே. மொரீசியஸ் நாட்டின் அழைப்பின் பேரில் அரசு
முறை விருந்தாளியாக நாராயணன் அங்கே சென்றுள்ளார். மார்ச் 12-ந்தேதி (நாளை) நடை பெற
இருக்கும் மொரீசியஸ் தேசிய தின விழாவில் அவர் பங்கேற்க இருக்கிறார். </p><p>
</p><p>
விருந்து உபசாரம் </p><p>
</p><p>
இந்தநிலையில் மொரீசியஸ் நாட்டின் தலைநகரம் போர்ட் லூயிசில் கே.ஆர்.நாராயணனுக்கு
நேற்று இரவு விருந்து அளிக்கப்பட்டது. மொரீசியஸ் நாட்டு ஜனாதிபதி காசம் உத் தீம் இந்த
விருந்தை அளித்தார். </p><p>
</p><p>
இந்த விருந்து வைபவத்தில் ஜனாதிபதி கே.ஆர்.நாராயணன் பேசியதாவது:- </p><p>
</p><p>
இந்தியா-மொரீசியஸ் ஆகிய 2 நாடுகளுமே பல்தேசிய, பல மொழி பேசும் மக்களை கொண்ட நாடுகள்.
இரண்டுமே ஜனநாயகம், மதச்சார்பற்ற தன்மையில் உறுதியுள்ள நாடுகள். இரண்டு நாடுகளும் மிக
நெருக்கமான நட்புநாடுகள். இரு நாடுகளுக்குமே பொதுவான வரலாறு உள்ளது. </p><p>
</p><p>
வருங்காலத்திலும் நமது 2 நாடுகள் ஜனநாயகம், மதச் சார்பின்மையில் உறுதியாக இருக்கும்.
மதம், மொழி, கலாச் சாரத்தின் பெயரால் பிரிவினை ஏற்படுத்தும் சக்திகளிடம் நாம்
கவனமாக இருக்க வேண்டும். நமது இரு நாடுகளுக்கும் இடையில் இந்தியப் பெருங்கடல் இருந்தாலும் அது
நம்மை பிரித்துவைக்கவில்லை. சேர்த்து வைத்திருக்கிறது. </p><p>
</p><p>
நல்ல நண்பர்கள் </p><p>
</p><p>
மொரீசியஸ்் நாட்டின் சிற்பிகளான முன்னாள் ஜனாதிபதிகள் ராம்கூலம், வீராசாமி ரிங்டோ
ஆகியோர் எனது நண்பர்கள். மொரீசியஸ் நாட்டை நவீனமயப் படுத்துவதற்காக அடிக்கல்
நாட்டியவர்கள் அவர்கள். </p><p>
</p><p>
மகாத்மா வருகை </p><p>
</p><p>
ஒரு நூற்றாண்டுக்கு முன் மகாத்மா காந்தி மொரீசியஸ் நாட்டுக்கு சுற்றுப்பயணம்
மேற்கொண்டார். அப்போது அவர் ஏற்றி வைத்த அரசியல் விழிப்புணர்ச்சி என்ற தீபம் நமது
இரு நாடுகளையும் இப்போதும் வழி நடத்துகிறது. </p><p>
</p><p>
இவ்வாறு அவர் பேசினார். </p><p>
</p><p>
மொரீசியஸ் நாட்டில் கடந்த புத்தாயிரம் ஆண்டு தேசிய விழாவில் பிரதமர் வாஜ்பாய்
பங்கேற்றது குறிப்பிடத்தக்கது. </p>

<p> </p>

<p>மக்கள் எங்கள் பக்கம்
இருக்கிறார்கள்: 1971 தேர்தல் போல தி.மு.க. அணி வெற்றி பெறும், கருணாநிதி பேட்டி</p>

<p> </p>

<p>சென்னை, மார்் 11- மக்கள் எங்கள் பக்கம் இருக்கிறார்கள்.
1971-ல் நடந்த தேர்தல் போல இந்த தேர்தலில் தி.மு.க. அணி அமோக வெற்றி பெறும் என்று
முதலமைச்சர் கருணாநிதி கூறினார். </p><p>
</p><p>
முதலமைச்சர் கருணா நிதியை அண்ணா அறிவாலயத் தில் நேற்று த.மா.கா. எம்.எல். ஏ.வும்,
தமிழக முஸ்லிம் ஐக்கிய ஜமாத் தலைவருமான ஜே.எம். ஆரூண் சந்தித்து தி.மு.க. கூட் டணிக்கு
ஆதரவு தெரிவித்தார். அதன்பிறகு நிருபர்களிடம் முதலமைச்சர் கருணாநிதி கூறியதாவது:- </p><p>
</p><p>
தமிழக முஸ்லிம் ஐக்கிய ஜமாத் கட்சியினுடைய தலை வர் ஜெ.எம்.ஆரூண் எம்.எல்.ஏ. இன்று
(நேற்று) மாலை என் னையும், பொதுச்செயலாளர் பேராசிரியரையும் சந்தித்து திராவிட
முன்னேற்றக்கழக கூட்டணிக்கு இந்த தேர்தலில் ஆதரவு தருவதாக உறுதி மொழி அளித்தார். அதை
வர வேற்று மகிழ்ச்சி தெரிவித் திருக்கிறோம். த.மா.கா.வி லிருந்து அவர் விலகி விட்ட
தாக கூறினார். </p><p>
</p><p>
கேள்வி:- ஒன்றரை மாதக் குழப்பத்திற்கு பிறகு அ.தி.மு.க., த.மா.கா. மற்றும் காங்கிரசை
சேர்த்து 47 இடங்கள் கொடுத் திருப்பதைப்பற்றி? </p><p>
</p><p>
பதில்:- நான் அதைப்பற்றி எதுவும் சொல்வதற்கில்லை. ஏற் கனவே திராவிட முன்னேற்றக்
கழகம் 1996-ம் ஆண்டு தேர்த லில் 40 இடங்களை சட்டமன்ற தேர்தலில் த.மா.கா. தனித்துப்
போட்டியிடுவதற்காக பகிர்ந்து கொண்டது. இப்போது த.மா.கா.விற்கு 32 இடங்கள் என்றும்
அதிலும் 2 இடங்கள் அவர்களுடைய தோழமைக் கட்சிகளுக்கென்றும் சொல்லப் படுகின்றது. எனக்கு விவரங்
கள் தெரியாது. </p><p>
</p><p>
யான் அறியேன் </p><p>
</p><p>
கேள்வி:- நீங்கள் த.மா.கா. விற்கு மரியாதை தந்து ஏற் கனவே 40 இடங்கள் தருவதாக
வாக்களித்த பிறகும், இவ்வளவு குழப்பத்திற்கு பிறகு இவ்வளவு குறைந்த இடங்களைப் பெற்றுக்
கொண்டு த.மா.கா. அங்கே போய்ச் சேர்ந்ததற்கு என்ன காரணம்? </p><p>
</p><p>
பதில்:- யான் அறியேன் பராபரமே </p><p>
</p><p>
கேள்வி:- கடந்த தேர்தலிலே மதவாதத்தையும் ஊழலையும் எதிர்ப்பதாக த.மா.கா. சொன்னது.
இப்போது ஊழலைப் பொறுத்துக்கொண்டு த.மா.கா. அங்கே செல்ல என்ன காரணம்? </p><p>
</p><p>
பதில்:- எங்கேயோ கேட்க வேண்டிய கேள்விகளை என்னைக்கேட்டால் நான் என்ன செய்வது? </p><p>
</p><p>
கேள்வி:- காமாட்சி நாயுடு உங்கள் அணியிலே இருக் கிறாரா? </p><p>
</p><p>
பதில்:- அணியிலே போட்டியிடுகின்ற உறுப்பினராக அந்த கட்சி இல்லை. தொலைவிலி ருந்து
ஆதரிப்பவர்களில் ஒரு கட்சியாக உள்ளனர். </p><p>
</p><p>
கேள்வி:- எதிரணியிலே பா.ம.க., த.மா.கா., காங்கிரஸ் சேர்ந்திருப்பதால் போட்டி பலமாக
இருக்குமென்று கருது கிறீர்களா? அங்கே அதிகமாக கட்சிகள் அடங்கியிருக்கிறார் களே? </p><p>
</p><p>
பதில்:- எங்கள் அணியிலும் ஏறத்தாழ 16 கட்சிகள் இருக்கின் றன. எங்களுடைய அணி வலு வான
அணியா இல்லையா என்பதை தேர்தல் முடிவு உங் களுக்கு அறிவிக்கும். </p><p>
</p><p>
கேள்வி:- 1996 தேர்தலில் பெற்ற வெற்றி அளவிற்கு இப் போது வெற்றி பெற முடியுமா? </p><p>
</p><p>
பதில்:- ஏன் 96-ம் ஆண்டு தேர்தலை சொல்கிறீர்கள். அதற்கு முன்பு 1971-ம் ஆண்டு திராவிட
முன்னேற்றக் கழகம் தமிழக சட்டமன்ற வரலாற்றி லேயே இல்லாத அளவிற்கு 184 இடங்களை பெற்று
புதிய சரித் திரத்தை படைத்தது. எனவே 71-ம் ஆண்டையே ஒப்பிடலாம். நான் இதையெல்லாம்
ஆணவத் தோடு சொல்லவில்லை. அகம் பாவத்தோடு சொல்லவில்லை. பொதுமக்கள் நிச்சயமாக எங்
கள் பக்கம் இருப்பார்கள். ஏனென்றால் தமிழக மக்க ளுக்கு தேவையான ஆட்சி இந்த ஆட்சிதான்.
இந்த அணிதான் நல்ல ஆட்சியைக் கொடுக்கும் என்ற நம்பிக்கை மக்களுக்கு இருக்கின்றது. அந்த
அடிப்படை யில்தான் இதனை தெரிவிக் கின்றேன். </p><p>
</p><p>
கேள்வி:- தேர்தல் கமிஷன் தேதி குறித்து எப்போது வைத் துக்கொள்ளலாம் என்று உங் களை
கேட்டிருக்கிறார்களா? </p><p>
</p><p>
பதில்:- அவர்கள் கேட்க வில்லை. </p><p>
</p><p>
புதிய நீதிக்கட்சி-மக்கள் தமிழ் தேசம் சேருமா? </p><p>
</p><p>
கேள்வி:- புதிய நீதிக்கட்சி, மக்கள் தமிழ் தேசம் ஆகிய கட்சிகளிலிருந்து யாராவது
தொடர்பு கொண்டார்களா? </p><p>
</p><p>
முதலமைச்சர் கருணாநிதி:- புதிய நீதிக்கட்சி, மக்கள் தமிழ் தேசம் ஆகிய கட்சிகள்
எங்கள் அணியிலே இருக்க வேண்டு மென்ற நல்லெண்ணம் படைத்த சிலர் இடையிலிருந்து அதற்காக
முயற்சித்துக்கொண் டிருக்கிறார்கள். அவர்களுடைய முடிவு என்னவென்று தெரி யாது. அது அவர்களைப்
பொறுத்தது. </p><p>
</p><p>
கேள்வி:- பாண்டிச்சேரி பா.ஜ.க.விலிருந்து வந்து உங்களை சந்தித்தார்கள். இன்று தி.மு.க.
சார்பில் ஜானகி ராமனும் மற்றவர்களும் வந்து உங்களை சந்தித்தார்கள். ஏதாவது
முக்கியத்துவம் உண்டா? </p><p>
</p><p>
பதில்: பாண்டிச்சேரியில் கண்ணனின் தலைமையில் இயங்கும் புதுவை மக்கள் காங்கிரஸ் கட்சியிலிருந்து
சில சட்ட மன்ற உறுப்பினர்கள் விலக்கப் பட்டார்கள். அவர்களை விலக் கியது தவறு என்று
நீதிமன்றம் அறிவித்து அவர்கள் சட்டமன்ற நிகழ்ச்சிகளில் கலந்து கொள்ள லாம் என்றும்,
வாக்களிக்கின்ற உரிமை மட்டும் இல்லை என் றும் சொல்லியிருந்தது. இருப் பினும்
வரவிருக்கின்ற கவர் னர் உரை, பட்ஜெட் உரை என்ற இந்த கூட்டத் தொடருக்கு அவர்கள்
அழைக்கப்பட வில்லை. அதற்கு தி.மு.க. சட்ட மன்ற கட்சி என்ன நிலை மேற் கொள்ளலாம் என்று
தெரிந்து கொள்வதற்காக எங்களை சந்திக்க அறிவாலயத்திற்கு வந்தி ருந்தார்கள். அமைதியான
முறையில் நம்முடைய எதிர்ப்பைக் காட்ட வேண்டுமென்று அவர்களுக்கு தலைமைக்கழககம் அறிவுரை
வழங்கியிருக்கின்றது. </p><p>
</p><p>
இவ்வாறு அவர் கூறினார். </p>

<p> </p>

<p>தி.மு.க. குழுவுடன்
எம்.ஜி.ஆர். அ.தி.மு.க.- விடுதலை சிறுத்தைகள் பேச்சு</p>

<p> </p>

<p>சென்னை, மார்ச் 11- தி.மு.க. குழுவுடன் தொகுதி பங்கீடு பற்றி
எம்.ஜி.ஆர். அ.தி.மு.க., விடுதலை சிறுத்தை அமைப்பு நிர்வாகிகள் பேச்சு வார்த்தை
நடத்தினார்கள். </p><p>
</p><p>
விடுதலை சிறுத்தைகள் அமைப்பின் தலைவர் திரு மாவளவன், பொதுச்செயலா ளர் தடா பெரியசாமி,
அரசியல் குழு தலைவர் திருவள்ளுவன், இணைப்பொதுச்செயலாளர் சிந்தனை செல்வன், துணைப்
பொதுச்செயலாளர் சக்திவேல், புதுவை அமைப்பாளர் வடி வேல், புதுவை முதன்மை செய லாளர்
தலையாரி ஆகியோர் நேற்று மதியம் 12.15 மணிக்கு அண்ணா அறிவாலயம் சென்ற னர். அங்கு
தி.மு.க. தேர்தல்் பணி குழுவினரான அமைச்சர்கள் ஆற்காடுவீராசாமி, கோ.சி.மணி, துரைமுருகன்
ஆகியோரை சந்தித்து பேசினார்கள். பிற்பகல் 1 மணி வரை தொகுதிப்பங்கீடு பற்றி ஆலோசனை
நடத்தினார்கள். </p><p>
</p><p>
ஆற்காடு வீராசாமி பேட்டி </p><p>
</p><p>
பிறகு அமைச்சர் ஆற்காடு வீராசாமி நிருபர்களிடம் கூறிய தாவது:- </p><p>
</p><p>
விடுதலை சிறுத்தைகள் தலைவர் திருமாவளவன் தலைமையிலான குழுவினர் எங்களை சந்தித்து
பேசினார்கள். இந்த தேர்தலில் தேசிய ஜனநாயக கூட்டணி தலைவர் கலைஞர் தலைமையிலான
அணி எப்படியும் வெற்றி பெற வேண்டும், எந்த காரணம் கொண்டும் தமிழ் நாட்டிலும்,
புதுவையிலும் அ.தி.மு.க.- பா.ம.க. வெற்றி பெற்று விடக் கூடாது. அதற்காக தங்கள் முழு
சக்தியை செலவழிப்போம் என்று உறுதி கூறினார்கள். எத்தனை தொகுதி, எந்தெந்த தொகுதி
என்பது பற்றி கலைஞருடன் பேசி இறுதி முடிவு எடுக்கப்படும். </p><p>
</p><p>
கேள்வி:- தொகுதி பங்கீடு எப்போது முடியும்? </p><p>
</p><p>
பதில்:- அடுத்த வாரத்துக்குள் எல்லா தோழமை கட்சிகளுக்கும் தொகுதி பங்கீடு முடிந்து விடும். </p><p>
</p><p>
திருமாவளவன் </p><p>
</p><p>
திருமாவளவன் கூறியதாவது:- </p><p>
</p><p>
இந்த தேர்தலில் தி.மு.க. கூட்டணி மகத்தான வெற்றி பெறும் வகையில் கலைஞர் வகுக்கும்
வியூகங்களை ஏற்று விடுதலைச் சிறுத்தைகள் பணியாற்றுவார்கள். கலைஞருக்கும், தலித்
மக்களுக்கும் புது சம்பந்தம் இல்லை. ஏற்கனவே சம்பந்தி ஆனவர். எங்களை எப்படி அரவணைப்பது
என்பது அவருக்கு தெரியும். உரிய மரியாதையோடு அரவணைத்துக்கொள்வார். </p><p>
</p><p>
கேள்வி:- மற்ற கட்சி களோடு எப்போது பேசு வீர்கள்? </p><p>
</p><p>
ஆற்காடுவீராசாமி:- வருகிற 13-ந்தேதி காலை 10.30 மணி முதல் மாலை 5 மணி வரை மற்ற தோழமை
கட்சிகளுடன் பேச்சு நடத்துவோம். அதன் பிறகு இரண்டொரு நாளில் எந்தெந்த கட்சிகளுக்கு
எத்தனை இடங்கள் என்பதை கலைஞர் அறிவிப்பார். </p><p>
</p><p>
கேள்வி:- கடந்த தேர்தலில் 167 தி.மு.க. எம்.எல்.ஏ.க்கள் வெற்றி பெற்றார்கள். இந்த
முறை எத்தனை தொகுதிகளில் தி.மு.க. போட்டியிடும்? </p><p>
</p><p>
ஆற்காடுவீராசாமி:- எத்தனை தொகுதிகளில் தி.மு.க. போட்டியிடும் என்பதை கலைஞர் முடிவு
செய்வார். </p><p>
</p><p>
குமரி மருத்துவ கல்லூரி </p><p>
</p><p>
அமைச்சர் ஆற்காடு வீராசாமி மேலும் கூறியதாவது:- </p><p>
</p><p>
கன்னியாகுமரி மாவட்டத்தில் மருத்துவகல்லூரி வேண்டும் என்ற கோரிக்கையை ஏற்று அரசு சார்பில்
மருத்துவ கல்லூரி தொடங்கப்படும் என்று காமராஜர் மணிமண்டப திறப்பு விழாவில்
கலைஞர் அறிவித்தார். அதன்படி 2 மாதத்துக்கு முன் தனிஅதிகாரி நியமிக்கப்பட்டு
ஏற்பாடுகள் நடந்து வருகின்றன. வருகிற 12-ந்தேதி காலை 8.30 மணிக்கு கன்னியா குமரியில்
அமைச்சர் சுரேஷ் ராஜன் தலைமையில் மத்திய அமைச்சர் பொன்.ராதா கிருஷ்ணன் முன்னி லையில்
நான் (ஆற்காடு வீராசாமி) அடிக்கல் நாட்டுகிறேன். மாவட்ட எம்.பி.க்கள், எம்.எல்.
ஏ.க்கள் பங்கேற்பார்கள். அங்கு இந்த ஆண்டே மருத்துவ கல்லூரி செயல்படும். </p><p>
</p><p>
இவ்வாறு கூறினார். </p><p>
</p><p>
திருநாவுக்கரசின் எம்.ஜி.ஆர். அ.தி.மு.க அவைத்தலைவர் முனு ஆதி, பொருளாளர் ஆஸ்டின்,
கொள்கைபரப்பு செயலாளர் நாசே.ராமச்சந்திரன் ஆகியோர் நேற்று காலை 11 மணிக்கு சென்னை
அண்ணா அறிவாலயம் சென்றனர். அங்கு தி.மு.க. தேர்தல் பணிக்குழு உறுப்பினர்கள் அமைச்சர்கள்
ஆற்காடு வீரா சாமி, கோ.சி.மணி, துரை முருகன் ஆகியோரை சந்தித்து பேசினார்கள். தொகுதி
பங்கீடு பற்றி ஆலோசனை நடத்தினார்கள். 11.45 மணி வரை இந்த ஆலோசனை நடந்தது. </p><p>
</p><p>
அதன்பிறகு அமைச்சர் ஆற் காடு வீராசாமி நிருபர்களிடம் கூறியதாவது:- </p><p>
</p><p>
தொகுதி பங்கீடு பற்றி எம்.ஜி.ஆர். அ.தி.மு.க.வுடன் பேச்சு நடத்தினோம். தமிழ்நாட்டில்
கலைஞர் தலைமையில் மீண்டும் தி.மு.க. ஆட்சி வர வேண்டும் என்பதை அவர்கள் ஏற்றுக்
கொண்டு இருக்கிறார் கள். தி.மு.க. ஏற்கனவே 167 இடங்களில் வெற்றிபெற்று இருக் கிறது.
அதற்கு ஏற்றதுபோல மற்ற கட்சிகளுக்கு தொகுதி களை பிரித்து தருவோம். இந்த
பேச்சுவார்த்தையை தொடர்ந்து கலைஞரும் அவர்கள் கட்சி பொதுச்செயலாளரும் பேசி நல்ல
முடிவு எடுப்பார்கள். </p><p>
</p><p>
முனுஆதி </p><p>
</p><p>
முனுஆதி கூறியதாவது:- </p><p>
</p><p>
எம்.ஜி.ஆர். அ.தி.மு.க. சார்பில் எங்கள் கோரிக்கைகளை வைத்து உள்ளோம். கலை
ஞரிடம் பேசி முடிவு செய்வதாக கூறினார்கள். கலைஞர் மீண்டும் முதல்வராக வேண்டும்
என்ற முடிவின் கீழ் நாங்கள் அவர்கள்பின் நிற்போம். </p><p>
</p><p>
துரைமுருகன் </p><p>
</p><p>
அமைச்சர் துரைமுருகன் கூறியதாவது:- </p><p>
</p><p>
பேச்சுவார்த்தை சுமுகமாக இருந்தது. </p><p>
</p><p>
இவ்வாறு அவர்கள் கூறினார்கள். </p>

<p> </p>

<p>விடுதலைப்புலிகளை
ஆதரிக்கும் பா.ம.க.வுடன் கூட்டா? ராஜீவ் ஆத்மாவுக்கு துரோகம் இழைத்து விட்டார்,
சோனியா, சுப்பிரமணியசுவாமி கண்டனம்</p>

<p> </p>

<p>சென்னை, மார்ச் 11- விடுதலைப்புலிகளை ஆதரிக்கும் பா.ம.க.வுடன்
கூட்டணி வைத்ததின் மூலம் ராஜீவ் ஆத்மாவுக்கு துரோகம் இழைத்து விட்டார் சோனியா என்று
சுப்பிரமணியசுவாமி கண்டனம் தெரிவித்து உள்ளார். </p><p>
</p><p>
ஜனதா கட்சி தலைவர் சுப்பிரமணியசுவாமி வௌியிட்டுள்ள ஒரு அறிக்கையில் கூறி யிருப்பதாவது:- </p><p>
</p><p>
ராஜீவ் காந்தி கொலைக்கு காரணமான விடுதலைப்புலி கள் இயக்கத்தை ஆதரிக்கிற கட்சி
பா.ம.க. அந்த பா.ம.க. உள்ள அ.தி.மு.க. அணியில் தமிழக சட்டசபை தேர்தலுக் காக
காங்கிரஸ் கூட்டணி சேர்ந்து இருக்கிறது. </p><p>
</p><p>
ராஜீவை கொன்றவர்களு டன் சோனியா நட்பாக போக தொடங்கி விட்டார் என்று நான் ஏற்கனவே
சொன்னதற்கு இப்போது அமைக்கப்பட்டுள்ள கூட்டணி கூடுதல் ஆதாரம் ஆகும். </p><p>
</p><p>
துரோகம் </p><p>
</p><p>
பா.ம.க.வுடன் கூட்டணி ஏற் படுத்தியதின் மூலம் ராஜீவ் ஆத்மாவுக்கு சோனியா துரோகம்
இழைத்து விட்டார். </p><p>
</p><p>
ஏற்கனவே விடுதலைப்புலிகளின் ஆதரவு இயக்கமான திராவிட கழகத்துடனும், அதன் தலைவர்
கி.வீரமணியுடனும் காங்கிரசை உறவாட வைத்தவர் சோனியா. ஜெயின் கமிஷன் இறுதி
அறிக்கையில் குற்றம்சாட்டப்பட்ட இயக்கம் திராவிட கழகம். இதை சோனியா மறந்தது ஏன்
என்று தெரியவில்லை. </p><p>
</p><p>
அருகதையற்றவர் </p><p>
</p><p>
சோனியா இப்போது நேரு குடும்பத்துக்கு வாரிசாகி உள்ளார். நேரு குடும்பத்து சொத்தையெல்லாம்
அனுபவித்து வருகிறார். ராஜீவ் புகழை வைத்து எதிர்க்கட்சி தலைவராக விளங்குகிறார். ஆனால்
பா.ம.க.வுடன் கூட்டு சேர்ந்ததின் மூலம் ராஜீவை நினைத்து பார்க்கவே அருகதை யற்றவராகி
விட்டார் சோனியா. </p><p>
</p><p>
இவ்வாறு சுப்பிரமணிய சுவாமி கூறி உள்ளார். </p>

<p> </p>

<p>கூட்டமே இல்லாத
பொதுக்கூட்டம், 'தினகரன்' செய்திக்கு வௌிநாட்டு அ.தி.மு.க. தொண்டர் பாராட்டு</p>

<p> </p>

<p>கொடைக்கானல், மார்ச்.11- கொடைக்கானல் நகர அ.தி.மு.க.வின்
கோஷ்டி பூசலை கூட்டமே இல்லாத பொதுக் கூட்டத்தை நடத்தும் திறமை நகர அ.தி.மு.க.விற்கே
உண்டு என்ற தலைப்பில் செய்தி வௌியிட்டு கட்சியின் வளர்ச்சியின் தற்போதை நிலையை
வௌி உலகுக்குக் காட்டிய தினகரன் நாளிதழ் செய்தியை அமெரிக்காவில் இன்டர்நெட்டில் படித்த
அ.தி.மு.க.வின் உண்மையான விசுவாச தொண்டர் தொலைபேசி மூலம் பாராட்டி உள்ளார். </p><p>
</p><p>
3 கோஷ்டி </p><p>
</p><p>
கொடைக்கானலில் நகர அ.தி.மு.க.வினை நிர்வாகித்து வரும் அ.தி.மு.க.வினர் ஆரம்ப கால
தொண்டர்களை மதிக்காமல் தன்னிச்சையாக செயல்பட்டு வருகின்றனர் என்ற ஆதங்கத்தில்
3க்கும் மேற்பட்ட கோஷ்டிகளாக செயல்பட்டு வருகின்றனர். இதன் காரணமாக கட்சியின்
உண்மையான விசுவாசிகள் கட்சிப் பணியில் ஈடுபடாமல் ஒதுங்கி விட்டனர். தேர்தல் என்று
வந்தால் மட்டும் தனது விசுவாசத்தைக் காட்டி வருகின்றனர். </p><p>
</p><p>
ஜெ.ஆணவம் </p><p>
</p><p>
தன்னை வளர்த்து விட்ட கட்சியின் முன்னோடிகளான கருப்பசாமி பாண்டியன், சாத்தூர்
ராமச்சந்திரன், சேலம் கண்ணன் போன்றோர்களை ஒதுக்கி விட்டு மேலும் பலரை உயர்த்தி
விட்டு சில காலங்களில் அவர்களையும் கட்சியில் ஓரங்கட்டி மமதையுடன் கட்சியை நடத்தி
வரும் ஜெயலலிதாவைப் போல் அவரால் பதவியில் நியமிக்கப்பட்ட நிர்வாகிகளும் தனது செல்
வாக்கை கட்சியில் உயர்த்திக் கொள்வதற்காக கட்சியில் அனுபவ மிகுந்த உண்மையான விசுவாச
தொண்டர்களை கட்சியில் இருந்து ஓரங்கட்டி வருகிறார்கள். </p><p>
</p><p>
கொடைக்கானல் </p><p>
</p><p>
இதே போல் கொடைக் கானல் நகர அ.தி.மு.க.வில் கட்சிக்காக எம்.ஜி.ஆர். காலத்தில்
இருந்தே உண்மையுடன் உழைத்து வரும் அனுபவ மிகுந்த தொண்டர்களுக்கு மரி யாதை கொடுக்காமல்
ஓரங்கட்டி விட்டு, சமீப காலத்தில் தனது சுயநலத்துக்காக கட்சியில் சேர்ந்தவர்களுக்கு
பதவிகளை கொடுத்து கட்சியின் பொருளாளர் திண்டுக்கல் சீனிவாசன் மரியாதை செய்து
வருகிறார். இதனால் உண்மை யான தொண்டர்கள் மனம் வெதும்பி போய் உள்ளனர். இதனால்
கட்சிக் கூட்டம் நடந்தால் ஆர்வத்துடன் சென்று கலந்து கொள்வது கிடையாது. எங்கோ நின்று
சிறப்பு பேச்சாளர்கள் பேசும் பேச்சை கேட்டும் மனபக்குவத்துக்கு வந்துள்ளனர். </p><p>
</p><p>
அ.தி.மு.க. பொதுக்கூட்டம் </p><p>
</p><p>
இதன் காரணமாக சமீப காலமாக கொடைக்கானல் நகரில் நடைபெறும் அ.தி.மு.க. பொதுக்கூட்டத்தில்
தொண்டர்கள் யாரும் கலந்து கொள்வது கிடையாது. இதைக் கண்ட பொது மக்களும் கட்சிக்காரனுக்கு
இல்லாத அக்கறை நமக்கு எதுக்கு என்று கூட்டத்திற்கு சென்று அவர்கள் பேசும் கருத்தை கேட்க
விரும்பாமல் ஒதுங்கி நிற்கும் சூழ்நிலைக்கு தள்ளப்பட்டனர். </p><p>
</p><p>
மக்கள் இல்லை </p><p>
</p><p>
இதன்காரணமாக பொது மக்களோ தொண்டர்களோ இல்லா பொதுக்கூட்டத்தை நடத்த வேண்டிய நிலைக்கு
அ.தி.மு.க.வினர் தள்ளப்பட்டனர் இந்நிலை ஏற்பட்டதற்கு காரணமே கட்சியில் கோஷ்டி
பூசல்தான். </p><p>
</p><p>
இந்தக கட்சியின் கோஷ்டி பூசலினால் சமீபத்தில் பொது மக்களோ, தொண்டர்களோ கலந்து
கொள்ளாத ஜெ.பிறந்த நாள் விழா பொதுக்கூட்டத்தை நகர அ.தி.மு.க.வினர் நடத்தினார்கள். </p><p>
</p><p>
தினகரன் செய்தி </p><p>
</p><p>
இதனை கடந்த 8-ந்தேதி தினகரன் நாளிதழில் கூட்டமே இல்லாத பொது கூட்டத்தை நடத்தும் திறமை
கொடைக்கானல் நகர அ.தி.மு.க.விற்கே உண்டு என்ற தலைப்பில் செய்தி வௌியிட்டு தற்போதைய
கொடைக்கானல் நகர அ.தி.மு.க.வின் நிர்வாகிகளின் ஆணவத்தை வௌி காட்டியது. </p><p>
</p><p>
அ.தி.மு.க.வின் நகர நிர்வாகிகளின் ஆணவத்தையும் அதனால் கட்சி படிப்படியாக அழிந்து
வருவதையும் வெட்ட வௌிச்சமாக பொது மக்களுக்கு எடுத்துக் காட்டிய தினகரன் நாளிதழை
அ.தி.மு.க.வின் உண்மையான விசுவாசமான தொண்டர்கள் நகரில் ஆங் காங்கே பாராட்டி பேசி
வருகின்றனர். </p><p>
</p><p>
அமெரிக்க தொண்டர் </p><p>
</p><p>
அமெரிக்காவில் உள்ள ஒரு தொண்டர் இன்டர்நெட்டில் இந்த செய்தியை பார்த்து படித்து விட்டு
தினகரன் நாளிதழை பாராட்டி தொலை பேசியில் கொடைக்கானலில் உள்ள தனது நண்பருக்கு
பேசினார். இதை கட்சியின் பிடிப்புள்ள உண்மையான தொண்டர் ஒருவர் பெருமையாக கூறினார். </p>

<p> </p>

<p>தார்ப்பாய் வாங்கியதில்
முறைகேடு: 37 அ.தி.மு.க.-கூட்டணி கட்சி ஊராட்சி தலைவர்கள் ஊழல், ஜெயலலிதா புகாருக்கு
கோ.சி.மணி காட்டமான பதில்</p>

<p> </p>

<p>சென்னை, மார்ச் 11- தார்ப்பாய் வாங்கியதில் அ.தி.மு.க.,
கூட்டணி கட்சிகளை சேர்ந்த 37 ஊராட்சி தலைவர்கள் ஊழல் செய்துள்ளனர் என்று ஜெயலலிதா
புகாருக்கு அமைச்சர் கோ.சி.மணி காட்டமாக பதிலளித்துள்ளார். </p><p>
</p><p>
இதுகுறித்து தமிழக உள்ளாட்சித்துறை அமைச்சர் கோ.சி.மணி வௌியிட்டுள்ள ஒரு அறிக்கையில்
கூறியிருப்ப தாவது:- </p><p>
</p><p>
ஊராட்சி மன்றங்களில் தார்ப்பாய் வாங்கியதில் ரூ.10 கோடி முறைகேடு நடந்துள்ளது என
ஜெயலலிதா அறிக்கை வௌியிட்டுள்ளது உண்மைக்கு புறம்பானது. ஏதோ பெரிய தவறு
நடந்துவிட்டதுபோல் பொது மக்கள் மத்தியில் ஒரு பொய்யான தோற்றத்தை ஏற் படுத்த
ஜெயலலிதா முனைந் துள்ளார். </p><p>
</p><p>
மூன்றடுக்கு உள்ளாட்சி அமைப்புகள் பொறுப்பேற்ற பிறகு கிராம ஊராட்சிகளுக்கு அவர்களின்
பொது நிதியில் இருந்து நிர்வாகம், அடிப்படை வசதிகள் பராமரிப்பு, தளவாட பொருட்கள்
போன்றவற்றுக்கு போக நிகரமாக உள்ள உபரி நிதியில் ஊராட்சிகளுக்கு தேவைப்படும் மூலதன பணி
களை செய்துகொள்ள முழுமை யான சுதந்திரம் வழங்்கப்பட் டுள்ளது. கிராம ஊராட்சிகள் அடிப்படை
வசதி பராமரிப்பு போன்ற தேவைகளுக்கு இன் னின்ன பொருட்களைத்தான் வாங்க வேண்டுமென்றோ
இந்த இந்த நிறுவனம் அல்லது நபர் களிடமிருந்துதான் வாங்க வேண்டும் என்றோ ஜெய லலிதா
ஆட்சியில் இருந்ததை போன்ற நிர்ப்பந்தம் எதுவும் இப்போது இல்லை. </p><p>
</p><p>
தரமான பொருட்களை சுதந்திரமான முறையில் விதி முறைப்படி ஒப்பந்தப்புள்ளி பெற்று ஊராட்சி
மன்றத்தின் அனுமதியோடு கிராம ஊராட்சிகள் வாங்க இந்த அரசு முழுஅதிகாரம் வழங்கி யுள்ளது.
இதில் யாருடைய தலையீடும் இந்த 5 ஆண்டு களில் இல்லை என்பதை பொது மக்கள் நன்கு அறிவர். </p><p>
</p><p>
பாகுபாடின்றி நடவடிக்கை </p><p>
</p><p>
ராமநாதபுரம் மாவட்டத்தில் உள்ள ஊராட்சிகளை சென்னை இயக்குனர் அலுவல கத்திலிருந்து
அலுவலர்கள் என்னுடைய உத்தரவின்பேரில் ஆய்வு செய்த போது ஒரு சில ஊராட்சிகளில்
தார்ப்பாய்கள் வாங்கி இருப்பதாக தகவல் கிடைத்து, அதன் அடிப்படையில் அந்த மாவட்டத்தில்
உள்ள அனைத்து ஊராட்்சிகளின் கணக்குகள் ஆய்வு செய்யப்பட்டது. இதில் அந்த மாவட்
டத்திலுள்ள 429 ஊராட்சிகளில் 17 ஊராட்சிகளில் மட்டும் ரூ.2,22,359 மதிப்பிற்கான 17
தார்ப்பாய்கள் வாங்கப்பட்டு இருப்பது கண்டுபிடிக்கப் பட்டது. அடிப்படை வசதிகள் பராமரிப்
பதற்கு முக்கியத்துவம் தராமல் தார்ப்பாய்கள் வாங்குவதற்கு அவசியம் என்ன என்பதுபற்றி
ஆய்வு செய்த போது சந்தை மதிப்பிற்கு கூடுத லாக பொருட்களை பெற்றி ருப்பது விசாரணையில் தெரிய
வந்தது. இந்த விசாரணையின் அடிப்படை யில் இதை கவனிக்க தவறிய உதவி இயக்குனர் மற்றும் இதர
அலுவலர்கள் தற்காலிக பணி நீக்கம் செய்யப் பட்டு, நடவடிக்கைக்கு உள் ளாக்கப்பட்டுள்ளனர்.
இதற் கான பணம் பட்டுவாடாவும் நிறுத்த உத்தரவிடப்பட்டது. இந்த நடவடிக்கைகள் அனைத் தும்
எனக்கு அவ்வப்போது தெரிவிக்கப்பட்டு, என்னுடைய அறிவுரையின்பேரில் பிற மாவட்டங்களிலும்
இதுபோன்ற நிகழ்வுகள் உள்ளதா என ஆய்வு செய்ய உத்தரவிட்டதன் அடிப் படையில் பல்வேறு
மாவட்டங்களில் ஆய்வுகள் செய்யப் பட்டது. </p><p>
</p><p>
எனினும் தமிழ்நாட்டி லுள்ள பல்வேறு மாவட்டங்களில் ஆய்வு செய்தபோது ராமநாதபுரம், பெரம்பலூர்,
சிவகங்கை போன்ற மாவட்டங்களில் மட்டுமே மொத்தம் 243 ஊராட்்சிகளில் 292
தார்ப்பாய்கள் வாங்கி இருப்பது கண்டு பிடிக்கப்பட்டு அலுவலர்கள் மீது நடவடிக்கை
எடுக்கப்பட்டு வருகிறது. இந்த நிகழ்வுகளுக்கு முக்கிய காரணம் ஊராட்சி மன்ற தலைவர்கள்
என்பதால் அவர்கள் மீதும் கட்சி பாகுபாடின்றி நடவடிக்கை எடுக்கப்பட்டு வருகிறது. இவ்வாறு
தார்ப்பாய்களை வாங்கிய தலைவர்களில் அனைத்து கட்சியினரும் உள்ளனர் என்பதும், அதிக
அளவில் உள்ளவர்கள் பிறகட்சி தலைவர்கள்தான் என்பதும் குறிப்பிடத்தக்கது. </p><p>
</p><p>
தேர்தல் ஆதாயம் </p><p>
</p><p>
ஜெயலலிதா அறிக்கையில் குறிப்பிட்டுள்ளதுபோல் அரசு ஆணை எண்.195, நிதித்துறை, நாள்
4-5-98 தார்ப்பாய்கள் வாங்குவதற்காக வௌியிடப் பட்ட அரசாணை இல்லை. இவை அரசு துறைகள்,
குழுமங்கள், கூட்டுறவு அமைப்புகள், உள்ளாட்சிகள் போன்றவை தளவாட பொருட்களை வாங்கும்
போது சிறுதொழில் நிறுவனங்கள் தயாரிக்கும் பொருட்களை முன்னுரிமையில் வாங்கலாம் என்ற
பொதுவான நிதித்துறையின் அரசாணை என்பதையும், இது ஏற்கனவே 1979-ம் ஆண்டு முதலே தொடர்ந்து
நடைமுறை யில் இருந்துவரும் அரசாணை தான் என்பதையும் மறைத்து, இந்த அரசாணை தார்ப்பாய்கள்
வாங்குவதற்காக வழங்கிய அரசாணையாக, திரித்து கூறி இருப்பதிலிருந்து அவருடைய உள்நோக்கம்
புரியும். மேலும் இவர் குறிப்பிட்டுள்ள குளோபல் இண்டஸ்ட்ரீஸ் நிறுவனங்களுக்கு பொருட்கள்
சப்ளை செய்ய தமிழக அரசு எந்தவிதமான அங்கீகாரமும் வழங்கவில்லை. இந்த நிறு
வனங்களிலிருந்து பொருட்கள் வாங்க வேண்டும் என்றோ அல்லது இந்த நிறுவனத்திற்கு முன்னுரிமை
வழங்க வேண்டு மென்றோ இந்த துறை அல்லது அரசு சார்பாக எந்தவிதமான அறிவுரைகளும் வழங்கப்பட
வில்லை. </p><p>
</p><p>
ஜெயலலிதா கற்பனை செய்து கொண்டதுபோல இந்த கம்பெனிகளுக்கும் யாருக்கும் எந்தவிதமான
தொடர்பும் இல்லை. இந்த அரசு தவறு செய்த அலுவலர்கள் மற்றும் மக்கள் பிரதிநிதிகள் மீது
நட வடிக்கை எடுத்துள்ள நிலையில் ஏதோ அமைச்சர்கள் சம்பந்தப் பட்டுள்ளதாக குற்றச்சாட்டை
கூறும் ஜெயலலிதா யார் யார் இந்த அமைச்சர்கள் என்பதை குறிப்பிட்டு ஏன் கூறவில்லை?
தேர்தல் நேரத்தில் தேர்தல் ஆதாயத்திற்கு இவர் செய்யும் ஒரு பொய்யான வதந்தி பிர
சாரம் இது. இந்த கம்பெனி களிலிருந்து ஊராட்சிகள் பொருட்களை வாங்கி இருந் தால், அந்த
ஊராட்சிமன்ற தீர்மானத்தின்படி அந்த ஊராட்சிகளின் முழு பொறுப் பிலேயே அவைகள் வாங்கப்
பட்டுள்ளன என்பது தான் உண்மை. </p><p>
</p><p>
37 பேர் அ.தி.மு.க. </p><p>
</p><p>
ராமநாதபுரம், பெரம்பலூர் போன்ற மாவட்டங்களில் ஊரக வளர்ச்சித்றை இயக்குனர்
அலுவலகத்திலிருந்து சென்ற அலுவலர்கள் ஆய்வு செய்ய ஆரம்பித்தவுடன் சிவகங்கை
மாவட்டத்தில் மாவட்ட நிர்வாகமே ஆய்வு செய்து இது போல் தார்ப்பாய்கள் வாங்கியுள்ள 53
ஊராட்சிகளில் 61 தார்ப்பாய்கள் வாங்கியிருப்பது கண்டுபிடிக்கப்பட்டு, அந்த ஊராட்சி
தலைவர்களிட மிருந்து ஊராட்சிகளுக்கு இழப்பு ஏற்படுத்திய தொகையை வசூலிக்கவும்,
சம்பந்தப்பட்ட அலுவலர்கள் மற்றும் தலைவர் கள் மீது நடவடிக்கை எடுக்க வும், மாவட்ட
நிர்வாகம் முயற்சி மேற்கொண்டுள்ளது. இந்த 53 ஊராட்சி தலைவர்களில் 37 தலைவர்கள்
அ.தி.மு.க. உள்ளிட்ட அந்த கட்சியை சார்ந் துள்ள பிறகட்சியை சார்ந்தவர் கள்தான்
என்பதை ஜெயலலிதா அறிந்து கொண்டதால்தான் இதுபோன்ற பெரிய ஊழல் செய்த ஊராட்சி தலைவர்களை
அப்பாவிகள் என்று வக்காலத்து வாங்கியுள்ளார். அரசின் இந்த நடவடிக்கையால் இதுபோன்ற
தலைவர்கள் செய்ய இருந்த தவறுகள் சிறிய அளவில் முளைவிட்டபோதே கிள்ளி எறியப்பட்டுள்ளது
என்பதை பாராட்டாமல் இந்த நட வடிக்கைக்கு உள்நோக்கம் கற்பிப்பது விந்தையாக உள்ளது.
இந்த அரசு தவறு செய்த வர்கள் மீது கடுமையான நடவடிக்கை எடுக்க ஒருபோதும் தயங்கியது இல்லை
என்பதற்கு சம்பந்தப்பட்ட மேல்அலுவலர் களைக்கூட தயக்கமின்றி தற்காலிக பணி நீக்கம் செய்
யப்பட்டுள்ளதே சான்று. </p><p>
</p><p>
இதுபோன்ற விஷயங்களை மூடி மறைக்கவோ அல்லது இது போன்ற நபர்களை காப்பாற் றவோ இந்த
அரசுக்கு அவசியம் இல்லை. எனவே 12,618 ஊராட்சிகளில் ஒருசில ஊராட்சிகளில் நடந்த தவறு களை
தமிழகம் எங்கும் நடந்து விட்டதாக கற்பனை செய்து கொண்டு ரூ.10 கோடிக்கு முறைகேடு என
ஆதாரமற்ற பொய்யான தகவலை ஜெய லலிதா கூறுவது இவர் மக்களை ஏமாற்றுவதற்கு எடுத்துள்ள பல்வேறு
முயற்சி களில் இதுவும் ஒன்று, ஒருசில ஊராட்சிகளில் தவறு நடந்தாலும், அதையும் கண்டுபிடித்து
நடவடிக்கை எடுத்து முறைகேடுகளை தடுத்து நிறுத்தி சிறப்பாக செயல்பட்டுவரும் இந்த அரசின் மீது
மக்கள் கொண்டுள்ள நல்ல எண்ணத்தை இதுபோன்ற அவதூறு பிரசாரங்களால் கொஞ்சம்கூட
மாற்றிவிட முடியாது என ஜெயலலிதா உணர வேண்டும். </p><p>
</p><p>
மக்கள் அறிவர் </p><p>
</p><p>
இவ்வாறு தவறு செய்த உள்ளாட்சி தலைவர்களை அப்பாவிகள் என்றும் அவர்களை அரசு
பழிவாங்குவதாகவும், தவறு செய்த தலைவர்களை காப்பாற்றுவதற்காக ஜெயலலிதா பரிதாபப்படுவது
ஏன் என்பதை மக்கள் தௌிவாக உணர்ந்து கொண்டுள்ளார்கள். </p><p>
</p><p>
இவ்வாறு அவர் கூறி உள்ளார். </p>

<p> </p>

<p>மண்ணின் மைந்தருக்கே சீட்
தர வேண்டும், மம்தா கட்சி வேட்பாளர் தாக்கப்பட்டார், சொந்த கட்சியினரே அடித்து
உதைத்தனர்</p>

<p> </p>

<p>மிட்னாபூர், மார்ச் 11- மண்ணின் மைந்தருக்கே சீட் தர வேண்டும்
என்று கோரி திரிணாமுல் காங்கிரஸ் கட்சி வேட்பாளரை அந்த கட்சித் தொண்டர்களே அடித்து
உதைத்தனர். </p><p>
</p><p>
மேற்கு வங்க மாநிலம் மகிசாதல் சட்டமன்ற தொகுதி வேட்பாளராக தீபக் கோஷ்
அறிவிக்கப்பட்டார். இவர் மிட்னாபூர் மாவட்ட கலெக்டராக இருந்தவர். பதவியை ராஜினாமா
செய்து விட்டு அரசியலுக்கு வந்தவர். </p><p>
</p><p>
இவர் வேட்பாளராக அறி விக்கப்பட்டதற்கு திரிணாமுல் காங்கிரசார் எதிர்ப்பு தெரி
வித்தனர். மண்ணின் மைந் தருக்கே இந்த முறை சீட் தர வேண்டும் என்று கோஷமிட்டனர். கட்சி
அலுவலகம் வந்த கோஷை முற்றுகையிட்டு தாக்கினர். அவர் மீது சரமாரி கற்கள் வீசினர்.
அவருடன் வந்தவர்களையும் அடித்து உதைத்தனர். </p><p>
</p><p>
போலீஸ் தடியடி </p><p>
</p><p>
இதனால் போலீசார் விரைந்து வந்து தடியடி நடத்தி கும்பலை கலைத்து வேட்பாளரை மீட்டனர்.
மம்தா கட்டளைப் படி நான் வேட்பு மனு தாக்கல் செய்வேன் என்று அசோக் கோஷ் கூறினார். </p><p>
</p><p>
இந்த ரகளையில் திரிணாமுல் காங்கிரஸ் தொண்டர்களுடன் பாரதிய ஜனதா, காங்கிரஸ்
தொண்டர்களும் சேர்்ந்து கொண்டனர். </p>

<p> </p>

<p>புதுவையில் யார் ஆட்சி என
மக்கள் சொல்லவேண்டும்: அ.தி.மு.க.-பா.ம.க. திட்டம்ஜனநாயக மோசடி, வைகோ பேட்டி</p>

<p> </p>

<p>புதுச்சேரி, மார்ச் 11- புதுவை மாநில ம.தி.மு.க. முதல்
திறந்தவௌி மாநாட்டில் கலந்து கொள்வதற்காக வைகோ நேற்று காலை புதுவை வந்தார். அவர்
ராம் இண்டர் நேஷனல் ஓட்டலில் நிருபர்களுக்கு பேட்டி அளித்தார். அப்போது நிருபர்கள்
கேட்ட கேள்விகளும், அதற்கு அவர் அளித்த பதில்களும் வருமாறு:- </p><p>
</p><p>
கேள்வி:- ம.தி.மு.க.வுக்கு தமிழகத்தில் எத்தனை தொகுதிகள் ஒதுக்கப்படும்? </p><p>
</p><p>
பதில்:- ம.தி.மு.க. சார்பில் நியமிக்கப்பட்ட குழுவினர் தி.மு.க. சார்பில்
நியமிக்கப்பட்ட குழுவினரோடு முதல் கட்ட பேச்சுவார்த்தை நடத்தி இருக்கி றார்கள். அதில்
போட்டியிட விரும்பும் தொகுதிகள் பற்றிய குறிப்புகளை தெரிவித்து இருக் கிறோம்.
அடுத்தக்கட்ட பேச்சு வார்த்தை எப்போது வேண்டு மானாலும் நடக்கலாம். மத்திய மந்திரிகள்
கண்ணப்பன், செஞ்சியார் ஆகியோருக்கு தொடர்ந்து பல நிகழ்ச்சிகள் இருக்கிறது.
இன்னும் 3 நாட் களுக்கு முக்கிய நிகழ்ச்சிகள் இருக்கிறது. கூடிய விரைவில் தி.மு.க. குழுவின
ரோடு பேசி முடிவு எடுக்க இருக்கிறோம். </p><p>
</p><p>
கேள்வி:- பாரதிய ஜனதா வுக்கு 23 தொகுதிகள் ஒதுக்கப் பட்டு இருக்கிறது. உங்களுக்கு அதை விட
அதிகமாக கிடைக் குமா? குறைவாக கிடைக்குமா? </p><p>
</p><p>
பகிரங்க ஆதரவு </p><p>
</p><p>
பதில்:- பாரதிய ஜனதாவுக்கும், ம.தி.மு.க.வுக்கும் நெருடல் எதுவுமில்லாத, நேச மனப் பான்மையுடன்
கூடிய தோழமை உணர்வு 98-ம் ஆண்டு தொடங்கி அந்த உணர்வு மென்மேலும் வளர் பிறையாக
வளர்ந்து வந்திருக் கிறது. 98-ல் வாஜ்பாய் அரசு அமைய முதல் ஆதரவு கடிதம் கொடுத்்த கட்சி
ம.தி.மு.க.தான். அதன் பிறகு ஜெயலலிதா வாஜ்பாய்க்கு இடைவிடாத தொல்லை, தலைவலி கொடுத்த
போதும் கூட வாஜ்பாய் அரசு நீடிக்க எங்கள் ஆதரவை பகிரங்கமாக தெரிவித்து உள்ளோம். </p><p>
</p><p>
யார் பெரியவர்? </p><p>
</p><p>
99-ல் வாஜ்பாய் அரசு மீண்டும் ஏற்பட தி.மு.க.வுடன் நாங்களும் தேசிய ஜனநாயக கூட்டணியில்
இடம்பெற்றிருக்கிறோம். 99 எம்.பி. தேர்தலில் பாரதிய ஜனதாவுக்கு 6தொகுதி யும்,
ம.தி.மு.க.வுக்கு 5 தொகுதியும் என்று தி.மு.க. தலைமை தெரிவித்த நேரத்தில் வாஜ்பாயும்,
அத்வானியும் எங்களுக்காக அவர்களுக்கு ஒதுக்கப்பட்ட தொகுதியை தர முன் வந்தார்கள்.
அவர்களின் நல்லெண்ணத்திற்கு நன்றி கூறி நாங்கள் 5 இடத்திலேயே போட்டியிட்டோம்.
பாரதிய ஜனதாவுடன் அந்த நல்ல உறவு இன்றும் இருக்கிறது. யார் பெரியவர் என்ற பிரச்சினையே
கிடையாது. எங்களுக்கு எத்தனை இடம் தேவைப்படு கிறதோ? அந்த இடத்தை கேட்கிறோம். </p><p>
</p><p>
ஏலப்பொருளா? </p><p>
</p><p>
கேள்வி:- அ.தி.மு.க., காங் கிரஸ், த.மா.கா. கூட்டணியில் குழப்பம் ஏற்பட்டு வருகிறதே?
</p><p>
</p><p>
பதில்:- அவர்கள் 21/2 ஆண்டு பா.ம.க. ஆட்சி, 21/2 ஆண்டு அ.தி.மு.க. ஆட்சி என்ற
நிலையில் பேச்சுவார்த்தை நடத்து கிறார்கள். யார் ஆட்சி என் பதை மக்கள் தான் சொல்ல
வேண்டும். ஆட்சியை இவர் கள்கையில் ஒப்படைத்து விட்டது போல் 21/2 ஆண்டு பா.ம.க., 21/2
ஆண்டு அ.தி.மு.க. ஆட்சி என்று சொல்வது வாக் காளர்களை ஏலப் பொருளாக கருதி சொல்லப்படும்
கண்டனத்திற்குரிய கருத்தாகும். இது ஒரு ஜனநாயக மோசடி ஆகும். 4 கிலோ மீட்டர் அருகே உள்ள
தமிழகத்தில் ஒரு கூட்டணி, இங்கே புதுவையில் வேறு ஒரு கூட்டணி. வாக்காளர்களை எவ்வளவு
அவமானப்படுத்தும் நிலையில் அ.தி.மு.க. தலைமை கருத்து சொல்லி யிருக்கிறது. </p><p>
</p><p>
இதற்கு மூப்பனாரும் கோரஸ் பாடுகிறார். காங்கிரஸ் இந்த கருத்தை சொல்லவில்லை. ஆனால்
அவர்கள் ஏற்றுக் கொண்டால் இவர்களும் ஜனநாயக மோசடிக்கு உள்ளா வார்கள். இப்பொழுது
மூப்பனார் வந்து முதல் ரவுண்டு காங்கிரஸ் ஆட்சிக்கும், 2-வது ரவுண்டை வேறு ஒரு கட்சிக்கும்
விட்டுக் கொடுக்க பேச்சு நடத்துவதன் மூலம் மூப்பனாரின் மதிப்பை அவரே குறைத்துக் கொண்டார்.
</p><p>
</p><p>
கேள்வி:- தி.மு.க. தலை மையிலான கூட்டணி ஆட்சி அமையும் நிலை ஏற்பட்டால் அதில்
பங்கேற்பீர்களா? </p><p>
</p><p>
பதில்:- தமிழகம், புதுவையில் தேசியஜனநாயக கூட்டணி மகத்தான வெற்றி பெறும். தி.மு.க.வே
தனி மெஜாரிட்டியில் தமிழகம், புதுவையில் ஆட்சி அமைக்கும் என்று எனக்கு நம்பிக்கை
இருக்கிறது. </p><p>
</p><p>
கேள்வி:- புதுவை மக்கள் காங்கிரஸ் தி.மு.க.வில் இணைந்ததை ஆதரிக்கிறீர்களா? </p><p>
</p><p>
பதில்:- கூட்டணி தலைவரான கலைஞரே முடிவு எடுத்துவிட்டார். கலைஞர் முடிவை நாங்கள்
ஏற்றுக் கொள்கிறோம். </p><p>
</p><p>
இவ்வாறு அவர் கூறினார். </p>

<p> </p>






</body></text></cesDoc>