<cesDoc id="tam-w-dinakaran-politics-03-07-04" lang="tam">
<cesHeader type="text">
<fileDesc>
<titleStmt>
<h.title>tam-w-dinakaran-politics-03-07-04.txt</h.title>
<respStmt>
<respType>Electronic file created by</respType>
<respName>Department of Linguistics, Lancaster University</respName>
<respType>text collected by</respType>
<respName>Paul Baker and Celia Worth</respName>
<respType>transferred into Unicode by</respType>
<respName>"Unicodify" software by Andrew Hardie</respName>
</respStmt>
</titleStmt>
<publicationStmt>
<distributor>UCREL</distributor>
<pubAddress>Department of Linguistics, Lancaster University, Lancaster, LA1 4YT, UK</pubAddress>
<availability region="WORLD"></availability>
<pubDate>03-08-24</pubDate>
</publicationStmt>
<sourceDesc>
<biblStruct>
<monogr>
<h.title>"Dinakaran" internet news (www.dinakaran.com), news stories collected on 03-07-04</h.title>
<h.author>Dinakaran</h.author>
<imprint>
<pubPlace>Tamil Nadu, India</pubPlace>
<publisher>Dinakaran</publisher>
<pubDate>03-07-04</pubDate>
</imprint>
</monogr>
</biblStruct>
</sourceDesc>
</fileDesc>
<encodingDesc>
<projectDesc>Text collected for use in the EMILLE project.</projectDesc>
<samplingDesc>Simple written text only has been transcribed. Diagrams, pictures and tables have been omitted and their place marked with a gap element.
</samplingDesc>
<editorialDecl>
<conformance level="1"></conformance>
</editorialDecl>
</encodingDesc>
<profileDesc>
<creation>
<date>03-08-24</date>
</creation>
<langUsage>Tamil</langUsage>
<wsdUsage>
<writingSystem id="ISO/IEC 10646">Universal Multiple-Octet Coded Character Set (UCS).</writingSystem>
</wsdUsage>
<textClass>
<channel mode="w">print</channel>
<constitution type="composite"></constitution>
<domain type="public"></domain>
<factuality type="fact"></factuality>
</textClass>
<translations></translations>
</profileDesc>
<revisionDesc></revisionDesc>
</cesHeader>

<text>
<body>




<p>மக்களவைத் தேர்தலில்
காங். புதிய கூட்டணி: சோனியா ஆலோசனை: சிம்லாவில் 7-ந்தேதி மூத்த தலைவர்கள்
கூடுகிறார்கள் </p>

<p> </p>

<p>புதுடெல்லி, ஜூலை 4- மக்களவைத் தேர்தலில் காங். புதிய கூட்டணி
அமைப்பது குறித்து சோனியா சிம்லாவில் 7-ந்தேதி மூத்த தலைவர்களுடன் ஆலோசனை
நடத்துகிறார். </p><p>
</p><p>
மக்களவைக்கு 2004-ல் திட்டமிட்டபடி தான் தேர்தல் நடைபெறும். இதில் ஒரு நாள் முன்னதாக கூட
தேர்தல் நடக்காது என்று பா.ஜ. தலைவர்கள் திரும்ப, திரும்ப கூறி வந்தாலும் அதை நம்புவதற்கு
எதிர்க்கட்சிகள் தயாராக இல்லை. </p><p>
</p><p>
அயோத்தி பிரச்சினைக்கு தீர்வு காண்பதில் காட்டும் அவசரம், பருவமழையில் ஏற்பட்டுள்ள
முன்னேற்றத்தால் அடைந்துள்ள மகிழ்ச்சி ஆகியவற்றை வைத்துப் பார்க்கும்போது தேர்தல்
முன்கூட்டியே வருவது நிச்சயம் என்று கருதப்படுகிறது. </p><p>
</p><p>
கடந்த ஒரு மாதத்துக்கு முன்பு மும்பை புறநகரில் நடைபெற்ற பா.ஜ.வின் சிந்தனை சங்கம
நிகழ்ச்சியில் பெரும்பாலும் மக்களவை தேர்தல் குறித்தே ஆலோசிக்கப்பட்டுள்ளது. </p><p>
</p><p>
இந்த நிலையில் முக்கிய எதிர்க்கட்சியான காங்கிரஸ் இந்த தடவை எப்படியாவது மத்தியில்
ஆட்சியை பிடித்துவிடவேண்டும் என்பதில் குறியாக உள்ளது. காங்கிரஸ் தலைவர்சோனியா, திடீர்
தேர்தல் வரும் என்பதை நிராகரிப்பதற்கில்லை என்று கூறியுள்ளார். </p><p>
</p><p>
காங்கிரஸ் கட்சி மத்தியில் கடந்த 7 ஆண்டுகளாக தொடர்ந்து ஆட்சியில் இல்லை. 1996,
1998 மற்றும் 1999-ல் நடைபெற்ற தேர்தல்களில் காங்கிரஸ் தொடர் தோல்வியை தழுவியது. 99
தேர்தலில் 110 தொகுதிகளில் தான் வெற்றி பெற்றது. </p><p>
</p><p>
எனவே மத்தியில் இதுவரை ஆட்சியை பங்கு போடாத காங்கிரஸ் இந்த தடவை ஆட்சியை பகிர்ந்துகொள்ளும்
வகையில் கூட்டணி அமைக்க முன்வந்து உள்ளது. வகுப்புவாத கட்சிகளை தோற்கடிப்பதற்காக
மாநிலங்களில் தேர்தலுக்கு முந்திய கூட்டணி அமைக்கவும் காங்கிரஸ் முன்வந்து உள்ளது. </p><p>
</p><p>
இந்த சூழ்நிலைகள் குறித்து விவாதிப்பதற்காக காங்கிரஸ் கட்சிக்கு மூளையாக விளங்கும் மூத்த
தலைவர்கள் கூட்டத்தை சிம்லாவில் வருகிற 7-ந்தேதி சோனியா கூட்டியுள்ளார். இந்த
கூட்டத்தில் மத்தியில் ஆட்சியை பிடிப்பதற்கான திட்டம் வகுக்கப்படும். </p><p>
</p><p>
தி.மு.க.வுடன் கூட்டா? </p><p>
</p><p>
காங்கிரஸ் மூத்த தலைவர் பிரணாப் முகர்ஜியிடம், டெல்லியில் ஆட்சியை பகிர்ந்து கொள்வது
காங்கிரசுக்கு வசதியாக இருக்குமா? என்று கேட்டதற்கு, வசதி வசதியின்மை என்ற பேச்சுக்கே
இடமில்லை. சூழ்நிலையை ஒப்பிட்டுப்பார்த்து தான் முடிவு எடுக்கப்படும் என்றார். </p><p>
</p><p>
கேள்வி ஒன்றுக்கு பதிலளித்த முகர்ஜி, பாராளுமன்ற தேர்தலில் தமிழ்நாடு, பீகாரில் மாநில
அளவில் கூட்டணி வைப்பது பற்றி காங்கிரஸ் யோசித்து வருகிறது. நான் தி.மு.க.வுடன் மேற்கு
வங்காளத்திலும் முலாயம்சிங்குடன் அசாமிலுமா? கூட்டணி வைத்துக்கொள்ள முடியும்? என்று
சாதுரியமாக கேட்டார். </p><p>
</p><p>
இன்னொரு கேள்விக்கு பதில் அளித்த அவர், தேசிய அளவில் காங்கிரஸ், பா.ஜ. ஆகிய இரு
கட்சிகளே இருப்பதால் மாநில அளவில்தான் கூட்டணி வைக்கவேண்டி உள்ளது. காங்கிரசை எதிர்க்காத
மதசார்பற்ற கட்சிகளுடன் கூட்டணி வைத்துக் கொள்வோம் என்றார். </p><p>
</p><p>
பாராளுமன்ற தேர்தல்: அனைத்து தொகுதிகளிலும் எந்திர ஓட்டுப்பதிவு தேர்தல் கமிஷனர் பேட்டி
</p><p>
</p><p>
சிம்லாவில் நேற்று தேர்தல் கமிஷனர் பி.பி.டாண்டன் நிருபர்களிடம் கூறியதாவது:- அடுத்த
ஆண்டு மக்களவைக்கு நடைபெறும் பொதுத்தேர்தலில் அனைத்து தொகுதிகளிலும் மின்னணு
வாக்குப்பதிவு எந்திரங்களை பயன்படுத்த தேர்தல் கமிஷன் முடிவு செய்துள்ளது. அனைத்து
தொகுதிகளிலும் மின்னணு எந்திரங்களை பயன்படுத்துவது என் றால் மொத்தம் 10 லட்சம்
எந்திரங்கள் தேவை. தேர்தல் கமிஷனிடம் தற்போது 6 லட்சம் மின்னணு வாக்குப்பதிவு
எந்திரங்கள் கையிருப்பில் உள்ளன. மீதமுள்ள 4 லட் சம் எந்திரங்களுக்கு ஆர்டர்
கொடுக்கப்படும். அடுத்த ஆண்டு மக்களவைக்கு தேர்தல் நடந்தால் அனைத்து தொகுதிகளிலும்
மின்னணு எந்திரங்களை பயன்படுத்தி ஓட்டுப்பதிவு நடைபெறும். முன்கூட்டியே தேர்தல் நடை
பெற்றால் தான் அனைத்து தொகுதிகளிலும் எந்திர வாக்குப்பதிவு நடத்த முடியாது. </p><p>
</p><p>
இவ்வாறு அவர் கூறினார். </p>

<p> </p>

<p> </p>

<p>வாசன் உள்பட 30 பேர்
ஆஜர்: காங். கோஷ்டிகள் இணைந்தன: மோதல் இல்லை- கோஷம் இல்லை; காமராஜர் விழா
கொண்டாட தீர்மானம் </p>

<p> </p>

<p>சென்னை, ஜூலை 4- வாசன் உள்பட 30 பேர் ஆஜரானார்கள். காங்கிரஸ்
கோஷ்டிகள் இணைந்தன. </p><p>
</p><p>
காமராஜர் நூற்றாண்டு விழா கமிட்டி கூட்டம் சென்னை சத்தியமூர்த்தி பவனில் நேற்று காலை
9.30 மணிக்கு தொடங்கி 10.30 மணி வரை நடந்தது. இதில் தமிழ்நாடு காங்கிரஸ் தலைவர்
சோ.பாலகிருஷ்ணன், செயல் தலைவர் இளங்கோவன், அகில இந்திய செயலாளர் ஜி.கே.வாசன்,
முன்னாள் மாநில காங்கிரஸ் தலைவர்கள் தங்க பாலு, குமரிஅனந்தன், எம்.பி. சுப்பிரமணியன்,
திண்டிவனம் ராமமூர்த்தி, மற்றும் சுதர்சன நாச்சியப்பன் எம்.பி., ஞானதேசிகன்
எம்.பி., ஜெயந்தி நடராஜன், தனுஷ்கோடி ஆதித்தன், பீட்டர் அல்போன்ஸ், ராஜசேகரன்,
அழகிரி உள்பட 30 பேர் கலந்துகொண்டனர். </p><p>
</p><p>
மணிசங்கர அய்யர் எம்.பி. மட்டும் வரவில்லை. அவர் டெல்லியில் இருப்பதால் வரமுடியவில்லை.
விருதுநகர் விழாவில் பங்கேற்பேன் என்று தலைவர் சோ.பா.விடம் போனில் தெரிவித்தார். </p><p>
</p><p>
இந்த கூட்டத்தில் நிறைவேற்றப்பட்ட தீர்மானங்கள் வருமாறு:- </p><p>
</p><p>
வருகிற ஜூலை 15-ந்தேதி காமராஜர் நூற்றாண்டு விழா அவர் பிறந்த ஊரான விருது நகரில் அகில
இந்திய காங்கிரஸ் பொதுச்செயலாளர் கமல்நாத் தலைமையில் நடை பெறும். சென்னையில்
காமராஜர் வாழ்ந்த வீட்டிலும் விழா நடக்கும். காமராஜர் காட்டிய வழிநின்று காமராஜர் ஆட்சி
அமைப்போம் என்று தமிழக காங்கிரசார் உறுதி மொழி எடுத்துக்கொள்வார்கள். </p><p>
</p><p>
சென்னை மெரினா கடற்கரையில் நடக்க இருக்கும் பிரமாண்டமான நூற்றாண்டு விழா நிகழ்ச்சிக்கு
அகில இந்திய காங்கிரஸ் கட்சி தலைவர் சோனியா காந்தி வருகை தர வேண்டும் என்று இந்த குழு
கேட்டுக்கொள்கிறது. </p><p>
</p><p>
வேலை நிறுத்தம் செய்துவரும் அரசு ஊழியர் மீது தமிழக அரசு எடுத்துவரும் அடக்கு முறை
நடவடிக்கைகளை தமிழக காங்கிரஸ் வன்மையாக கண்டிக்கிறது. அரசு ஊழியர்களை குறிப்பாக பெண்
ஊழியர்களை கைது செய்வதும், சிறையில் அடைப்பதும், வேலை நீக்கம் செய்வதும், அவர்கள் மீது
எஸ்மா சட்டத் தினை பிரயோகிப்பதும் ஒரு பாசிச அணுகு முறை என்று தமிழ்நாடு காங்கிரஸ்
கமிட்டி சுட்டிக்காட்ட விரும்புகிறது. கைது செய்யப்பட்ட அரசு ஊழியர்களையும், அவர்களது
தலைவர்களையும் உடனடியாக விடுதலை செய்ய வேண்டும் என்றும், போராடும் ஊழியர்களை
பேச்சுவார்த்தைக்கு அழைத்து சுமுக தீர்வு காண தமிழக அரசு முயற்சிக்க வேண்டும் என்று தமிழக
காங்கிரஸ் கேட்டுக்கொள்கிறது. </p><p>
</p><p>
இவ்வாறு தீர்மானம் நிறைவேற்றப்பட்டது. </p><p>
</p><p>
பின்னர் தமிழ்நாடு காங்கிரஸ் தலைவர் சோ.பாலகிருஷ்ணன் நிருபர்களிடம் கூறிய தாவது:- </p><p>
</p><p>
விழா கமிட்டி உறுப்பினர்களிடம் எந்த பிரச்சினையும் இல்லை. எல்லா மனச்சங்கட மும்
தீர்ந்து விட்டது. நாங்கள் ஒற்றுமையோடு இருக்கிறோம். காமராஜர் நூற்றாண்டு விழாவை
சிறப்பாக கொண்டாடுவோம். விருதுநகர் காமராஜர் இல்லத்தில் நாங்கள் எல்லாம் ஒன்று கூடி
காமராஜர் ஆட்சியை தமிழகத்தில் கொண்டு வர உறுதிமொழி ஏற்போம். </p><p>
</p><p>
பீட்டர் அல்போன்சிடம் தகராறு செய்த நியூ.மகாலிங்கம் போன்றோர் வருத்தம் தெரி வித்து
கடிதம் தந்திருப்பதால் அவர்கள் மீது எந்த நடவடிக்கையும் எடுக்கப்போவ தில்லை. </p><p>
</p><p>
இவ்வாறு கூறினார். </p><p>
</p><p>
வழக்கமாக இதுபோன்ற கூட்டங்களில் ஜி.கே.வாசன் வாழ்க என்று ஒரு கோஷ்டியும், இளங்கோவன்
வாழ்க என்று இன்னொரு கோஷ்டியும் கோஷங்களை முழங்குவார்கள். அடி தடி மோதலும் இருக்கும்.
ஆனால் நேற்று வாசன் வரும்போது அவரது ஆதரவாளர்களான ராயபுரம் மனோ, கோவிந்தசாமி,
நியூ.மகாலிங்கம், கஜநாதன்,கத்திப்பாரா ஜனார்த்தனம், தாம்பரம் நாராயணன், கபாலி என
ஒரு கூட்டமே வந்தது, அதே போல இளங்கோவன் வந்தபோது முகமது சித்திக், பிராங்க்ளின்
பிரகாஷ், கிருஷ்ணமூர்த்தி, செங்கை பத்மனாபன், எம்.எஸ். காமராஜ், திரவியம்,
நாஞ்சில் பிரசாத், பாடி எம்.அபுபக்கர் என ஏராளமானோர் வந்தும் எந்த மோதலும்,
அடிதடியும், போட்டி கோஷமும் இல்லாதது அனைவரையும் ஆச்சரியத்தில் ஆழ்த்தியது. </p><p>
</p><p>
சோனியா வருகை எப்போது? இன்னும் முடிவாகவில்லை </p><p>
</p><p>
தமிழ்நாடு காங்கிரஸ் சார்பில் காமராஜர் நூற்றாண்டு நிறைவு விழாவை சென்னை மெரினா
கடற்கரையில் மிக பிரமாண்டமாக நடத்த திட்டமிட்டுள்ளனர். இதில் சோனியா பங்கேற்க
உள்ளார். </p><p>
</p><p>
இது பற்றி சோ.பா. கூறியதாவது:- </p><p>
</p><p>
வருகிற 21-ந்தேதி பாராளுமன்ற கூட்டம் தொடங்க உள்ளது. சோனியாவை சந்தித்து தேதி கேட்க
உள்ளோம். அவர் விழாவில் பங்கேற்க ஆர்வமாக உள்ளார். நிச்சயம் வருவார். தேதி இன்னும்
முடிவு செய்யப்படவில்லை. </p><p>
</p><p>
இவ்வாறு அவர் கூறினார். </p><p>
</p><p>
இளங்கோவன் மீது வழக்கு: சோ.பா. - வாசன் கண்டனம் </p><p>
</p><p>
தமிழ்நாடு காங்கிரஸ் செயல் தலைவர் இளங்கோவன் மீது தொடரப்பட்டுள்ள வழக்கு குறித்து
தமிழ்நாடு காங்கிரஸ் தலைவர் சோ.பாலகிருஷ்ணன் கடும் கண்டனம் தெரிவித்தார். </p><p>
</p><p>
அவர் கூறியதாவது:- </p><p>
</p><p>
செயல் தலைவர் மீது ஜெ. அரசு 3 அவதூறு வழக்குகளை போட்டுள்ளது. முக்கியமான எதிர்க்கட்சி
தலைவர்கள் மீது இப்படி வேண்டுமென்றே வழக்கு போடுவது வன்மையாக கண்டிக்கத்தக்கது. காங்கிரஸ்
என்பது வௌ்ளையரையே வௌியேற்றிய கட்சி. இந்த அடக்குமுறைக்கு அஞ்ச மாட்டோம். </p><p>
</p><p>
அகில இந்திய செயலாளர் ஜி.கே.வாசன் கூறியதாவது:- </p><p>
</p><p>
காங்கிரஸ் இயக்கம் பெரிய குடும்பம். இதில் சிறுசிறு பிரச்சினைகள் இருந்தாலும் காமராஜர்
விழாவை நாங்கள் இணைந்து கொண்டாடுவோம். செயல் தலைவர் இளங்கோவன் மீது வழக்கு
தொடர்ந்திருப்பது எதிர்க்கட்சிகளை அச்சுறுத்தும் செயல். இது தவறானது. வருங்காலத்தில் இது
போன்ற நடவடிக்கைகளை அரசு கைவிட வேண்டும். </p><p>
</p><p>
இவ்வாறு அவர்கள் கூறினர். </p><p>
</p><p>
முன்னதாக சோ.பா. வாசன் வீட்டுக்கு வந்து அவருடன் தனியாக 30 நிமிடம் ஆலோ சனை
நடத்தினார். </p>

<p> </p>

<p> </p>

<p>ஜெ.வை கூண்டில் ஏற்றி நானே
குறுக்கு விசாரணை செய்வேன்; அவதூறு வழக்கில் ஆஜரான இளங்கோவன் பேட்டி </p>

<p> </p>

<p>சென்னை,ஜூலை.4- ஜெயலலிதாவை கூண்டில் ஏற்றி நானே குறுக்கு விசாரணை
செய்வேன் என்ற அவதூறு வழக்கில் ஆஜரான இளங்கோவன் பேட்டி அளித்தார். </p><p>
</p><p>
தமிழ்நாடு காங்கிரஸ் கட்சி செயல் தலைவர் ஈ.வி.கே.எஸ். இளங்கோவன் வௌ்ள நிவாரண
பணிகள் மக்களுக்கு சரியாக சென்று சேரவில்லை என்று பத்திரிகைகளுக்கு பேட்டி அளித்தார்.
இதனால் அவர் மீது தமிழக அரசு சென்னை செசன்சு கோர்ட்டில் அவதூறு வழக்கை தாக்கல் செய்தது.
இந்த வழக்கை நீதிபதி ஜெயபாலன் விசாரித்து இதில் ஈ.வி.கே.எஸ். இளங்கோவன் நேரில்
ஆஜராக சம்மன் அனுப்பினார். இந்த சம்மனை பெற்ற இளங்கோவன் சென்னை செசன்சு கோர்்ட்டில்
காலை 11 மணிக்கு தொண்டர்களுடன் வந்து ஆஜரானார். காலை 10.45 மணிக்கு சென்னை எஸ்பிளனேடு
அருகே உள்ள கோர்ட்டு நுழைவு வாயில் முன்பு காரில் வந்து இறங்கி தொண்டர்களுடன்
கோர்ட்டுக்கு நடந்து ஊர்வலமாக வந்து ஆஜரானார். </p><p>
</p><p>
கோர்ட்டில் நீதிபதி ஜெயபாலன் முன்பு ஆஜரான இளங்கோவன் நீதிபதியிடம் ஒரு மனு
கொடுத்தார். பின்னர் அவர் சார்பாக வக்கீல் சூரியபிரகாசம் ஆஜராகி கூறியதாவது:- </p><p>
</p><p>
காங்கிரஸ் செயல் தலைவர் ஈ.வி.கே.எஸ். இளங்கோவன் மீது தமிழக அரசு வேண்டுமென்று
அரசியல் உள்நோக்கத்துடன் அவதூறு வழக்கை தாக்கல் செய்து உள்ளது.. அரசியல் தலைவர்களை
பழிவாங்க வேண்டும் என்ற நோக்கத்தில் இப்படி வழக்குகளை தாக்கல் செய்து உள்ளனர்.
இதுகுறித்து நான் தலைமை செயலாளருக்கு விளக்கமாக கடிதம் எழுதி உள்ளேன். கோர்ட்டு அனுப்பிய
சம்மனை ஏற்றுக்கொண்டு கோர்்ட்டுக்கு மதிப்பு கொடுத்து தற்போது இளங்கோவன் கோர்ட்டில்
ஆஜராகி உள்ளார். இந்த அவதூறு வழக்கை பொய்யாக தாக்கல் செய்து உள்ளனர். இளங்கோவனை
துன்புறுத்த வேண்டும் என்றும் அ.தி.மு.க. அரசுக்கு எதிராக பொதுக்கூட்டத்தில் மக்கள்
மத்தியில் பேசுவதை தடுக்க வேண்டும் என்றும் தான் இப்படி அவதூறு வழக்கை தாக்கல் செய்து
உள்ளனர். ஆளுங் கட்சியினரின் தவறுகளை சுட்டிக்காட்டி பேசுவது ஜனநாயக நாட்டில் அடிப்படை
உரிமை . இதை பறிக்கும் வகையில் இந்த வழக்கு உள்ளது. எனவே அடுத்த முறையில் இருந்து
வழக்கில் ஆஜராக விலக்கு அளிக்க வேண்டும். </p><p>
</p><p>
இவ்வாறு அவர் கூறினார். </p><p>
</p><p>
அரசு தரப்பில் அரசு வக்கீல் டி.வி.கணேஷ் , அரசு உதவி வக்கீல் வரலட்சுமி ஆகியோர்
ஆஜரானர்கள். அரசு வக்கீல் டி.வி.கணேஷ் கடும் எதிர்ப்பு தெரிவித்து பேசும்போது இந்த
வழக்கில் இளங்கோவன் தாக்கல் செய்த மனுவிற்கு பதில் மனு தாக்கல் செய்ய அவகாசம் தர
வேண்டும் என்று கூறினார். இதைகேட்ட நீதிபதி வழக்கு விசாரணையை 5-9-2003 அன்றைக்கு
தள்ளிவைத்தார். </p><p>
</p><p>
இதை தொடர்ந்து இளங்கோவன் கோர்ட்டை விட்டு வௌியே வந்து நிருபர்களுக்கு பேட்டி
அளித்தார். </p><p>
</p><p>
அப்போது அவர் கூறியதாவது:- </p><p>
</p><p>
அரசியல் உள்நோக்கத்தோடு என் மீது தற்போது தமிழக அரசு வழக்கு தாக்கல் செய்து உள்ளது.
இதற்காக அரசு பணம் அதிக அளவில் செலவிடப்படுகிறது. இந்த வழக்கில் ஜெயலலிதா சாட்சியாக
சேர்க்கப்பட்டு உள்ளார். இதனால் ஜெயலலிதா கோர்ட்டுக்கு வர வேண்டும். அவர் வருவார் என்று
கருதுகிறேன். அவர் கண்டிப்பாக வர வேண்டும். அவர் கூண்டில் ஏறி சாட்சி கூற வேண்டும்.
அப்போது எனது வழக்கறிஞர்் அனுமதியுடன் ஜெயலலிதாவிடம் நானே குறுக்கு விசாரணை
நடத்துவேன். </p><p>
</p><p>
என் மீது அரசு வேண்டுமென்று இப்படி பொய் வழக்கை தாக்கல் செய்து உள்ளது.. இதுவரை என் மீது 7
வழக்குகள் தாக்கல் செய்து உள்ளனர். என் மீது மட்டும் அல்ல தி.மு.க. தலைவர் கலைஞர்
மற்றும் கம்யூனிஸ்டு கட்சி தலைவர் நல்லக்கண்ணு ஆகியோர் மீதும் வழக்கு தாக்கல் செய்து
உள்ளனர். அரசு செய்யும் தவறுகளை மக்களிடம் எடுத்து கூறுவது ஜனநாயக நாட்டில் ஒவ்வொரு
எதிர்க்கட்சியின் கடமை. இதை தடுப்பது தவறானது. காங்கிரஸ் கட்சிகாரர்கள்
வௌ்ளைக்காரர்களின் கொடுமைகளை எல்லாம் சந்தித்தவர்கள் இந்த வழக்குகளுக்கு எல்லாம்
கவலை படமாட்டோம். இதை சந்திக்க தயாராக உள்ளேன். ஜனநாயக கடமை செய்யவிடாமல் தடுக்க
நினைக்கிறார்கள். </p><p>
</p><p>
பத்திரிகைகள் சுதந்திரமாக செயல்பட முடியவில்லை. செய்திகளை நியாயமாக வௌியிடும்
தினகரன், இந்து பத்திரிகைகள் மீது ஏராளமான அவதூறு வழக்குகளை தமிழக அரசு தாக்கல் செய்து
உள்ளது. அரசியல் தலைவர்கள் மட்டும் அல்ல பத்திரிகைகளின் பணிகளை தடுக்கவே இப்படி பொய்
வழக்குகளை தாக்கல் செய்துவருகிறார்கள். </p><p>
</p><p>
இவ்வாறு அவர் கூறினார். </p><p>
</p><p>
இளங்கோவன் கோர்ட்டுக்கு வந்ததால் கோர்ட்டில் அரை மணிநேரம் பரபரப்பு ஏற்பட் டது.
இவருடன் ஏராளமான காங்கிரஸ் தொண்டர்கள் கோர்ட்டுக்கு வந்தனர். அப்போது இளங்கோவன்
வாழ்க, போடாதே போடாதே பொய் வழக்கு போடாதே என்று கோஷமிட்டனர். </p><p>
</p><p>
கோர்ட்டில் பரபரப்பு </p><p>
</p><p>
அவதூறு வழக்கில் சென்னை செசன்சு கோர்ட்டுக்கு இளங்கோவன் நேற்று காலை நீண்ட தூரம்
தொண்டர்களுடன் ஊர்வலமாக வந்தார். அப்போது தொண்டர்கள் ஜெயலலிதாவுக்கு எதிராக
கோஷமிட்டதால் பரபரப்பு ஏற்பட்டது. கோர்ட்டுக்கு அருகே சென்றதும் தொண்டர்கள் வௌியே இருந்தனர்.
இளங்கோவன் மட்டும் நீதிபதி ஜெயபாலன் முன்பு ஆஜரானார். அவருடன் ஏராளமான காங்கிரஸ்
வக்கீல்கள் ஆஜராகி கையெழுத்திட்டனர். அப்போது இளங்கோவன் ஒரு மனுவில்
கையெழுத்திட்டார். அந்தமனுவில் வக்கீல் ராஜசேகரனிடம் கையெழுத்து போட கூறினார்கள் உடனே
அவர் தலைவருக்காக உயிரை கொடுக்க தயாராக இருக்கிறேன் கையெழுத்து தானே போடுகிறேன் என்று
கூறினார். </p><p>
</p><p>
இதனால் கோர்்ட்டுக்குள் பரபரப்பு ஏற்பட்டது. அப்போது இளங்கோவனுக்கு காற்று இல்லை என்று
கருதி ஒரு தொண்டர் அங்கு இருந்த மின்விசிறியை போட்டார் . அந்த மின்விசிறி பலத்த
சப்தத்தை ஏற்படுத்தியது. இதனால் நீதிபதி கடும் கோபமடைந்து மின்விசிறியை நிறுத்துங்கள்
என்று கூறினார். கோர்ட்டில் பரபரப்பு அதிகமானதால் நீதிபதி ஜெயபாலன் அவதூறு வழக்கை
உடனே விசாரித்து விசாரணையை தள்ளிவைத்தார். பின்னர் கோர்ட்டை விட்டு இளங்கோவன்
வௌியே வரும் போது வாழ்்க என்று தொண்டர்கள் கடுமையாக கோஷமிட்டனர். உடனே நீதிபதி
கோர்ட்டு ஊழியர்களை அழைத்து அமைதி படுத்தும்படி உத்தரவிட்டார். இதை தொடர்ந்து
அ.தி.மு.க. வக்கீல் ஆனையூர் மோகன்தாஸ் உள்பட பல அ.தி.மு.க. வக்கீல்கள் அரசுக்கு
எதிராகவும் ஜெயலலிதாவுக்கு எதிராகவும் கோஷமிட்டவர்கள் மீது நடவடிக்கை எடுக்க வேண்டும்
என்று கோர்ட்டு பதிவாளரிடம் முறையிட்டனர். இதனால் மேலும் பரபரப்பு ஏற்பட்டது. </p>

<p> </p>

<p> </p>

<p> </p>

<p>வாஜ்பாய் பதவி விலக
வி.எச்.பி. கோரிக்கை </p>

<p> </p>

<p>திருவனந்தபுரம், ஜூலை 4- வாஜ்பாய் அரசு ராஜினாமா செய்யக்கோரி
வி.எச்.பி கோரிக்கை விடுத்துள்ளது. </p><p>
</p><p>
கன்னியாகுமரியில் நடைபெறும் ஆர்.எஸ்.எஸ். செயற்குழுக் கூட்டத்தில் கலந்து கொள்வதற்காக
வந்துள்ள வி.எச்.பி.தலைவர் அசோக் சிங்கால் திருவனந்தபுரம் விமானநிலையத்தில்
நிருபர்களிடம் கூறியதாவது:- </p><p>
</p><p>
அயோத்தியில் ராமர் கோவில் கட்ட சட்டம் கொண்டு வருவோம் என்று பா.ஜ. மக்களிடம்
கூறியது. இப்போது சட்டம் கொண்டு வருவதற்கு எங்களிடம் பெரும்பான்மை இல்லை என்கிறார்கள்.
எனவே வாஜ்பாய் அரசு ராஜினாமா செய்துவிட்டு புதிதாக மக்கள் தீர்ப்பை பெற வேண்டும். </p><p>
</p><p>
ராமஜென்மபூமி இயக்கத்துக்கு வாஜ்பாய் எப்போதுமே ஆதரவாக இருந்த தில்லை. ராமஜென்மபூமி
இயக்கத்தை பா.ஜ.வில் எதிர்க்கும் ஒரே நபர் வாஜ்பாய் தான். </p><p>
</p><p>
ராமஜென்மபூமி முழுவதும் இந்துக்களுக்குத் தான் சொந்தம். இந்த விஷயத்தில் காஞ்சி
மடாதிபதியிடம் எந்த திட்டமும் கிடையாது. சட்டத்தின் ஆட்சியிலும், அரசியல் சட்டத்திலும்
நம்பிக்கையற்ற அகில இந்திய முஸ்லிம் தனி நபர் சட்டவாரியத்திடம் பேச்சு நடத்துவது சரியல்ல.
எங்களது ஒரே போராட்டம் ராமர் கோவிலுக்காகத் தான். </p><p>
</p><p>
இவ்வாறு அவர் கூறினார். </p>

<p> </p>

<p> </p>

<p>அ.தி.மு.க. அரசு தி.மு.க.வை
பழிவாங்குவதை அனுமதிக்க மாட்டோம் - பா.ஜ.க. </p>

<p> </p>

<p>சென்னை, ஜூலை 4- அ.தி.மு.க. அரசு தி.மு.க.வை பழிவாங்குவதை
அனுமதிக்க மாட்டோம் என்று பா.ஜ.க. கூறியது. </p><p>
</p><p>
டெல்லியில் நேற்று துணைப்பிரதமர் அத்வானியை அகாலிதளம் தலைவர் விஜய்குமார் மல்கோத்ரா,
பா.ஜ. தலைவர் மதன்லால் குரானா ஆகியோர் சந்தித்து பேசினர். </p><p>
</p><p>
பஞ்சாபில் உள்ள அம்ரிந்தர்சிங் அரசு எதிர்க்கட்சிகளை பழிவாங்குகிறது என்றும்,
முன்னாள் முதல்வர் பாதல் குடும்பத்தினரை துன்புறுத்துகிறது என்றும் அத்வானியிடம் அவர்கள்
புகார் செய்தனர். </p><p>
</p><p>
பஞ்சாப் முதல்வரின் பழிவாங்கும் போக்குக்கு அப்போது அத்வானி தனது கண்டனத்தை
தெரிவித்தார். உண்மை நிலவரம் அறிய 3 பேர் கொண்ட குழு மத்திய அரசு சார்பாக 16-ந்தேதி
பஞ்சாபுக்கு அனுப்பி வைக்கப்படும் எனவும் அத்வானி உறுதியளித்தார். </p><p>
</p><p>
இந்த தகவல்களை நிருபர்களிடம் பா.ஜ. செய்தி தொடர்பாளர் தெரிவித்தபோது, ஒரு நிருபர்
தமிழகத்தில் தேசிய ஜனநாயக கூட்டணி அரசில் அங்கம் வகிக்கும் தி.மு.க. மற்றும் அதன்
தலைவர் கலைஞர் கருணாநிதிக்கு எதிராகவும் தமிழகத்தின் முதல்வர் ஜெயலலிதா அரசு
பழிவாங்கும் நடவடிக்கையில் இறங்கி உள்ளதை சுட்டி காட்டியபோது பா.ஜ.க.வின் செய்தி
தொடர்பாளர், பா.ஜ.க. நாட்டில் எந்த மாநிலத்திலும் பழிவாங்கும் நடவடிக்கையை அனுமதிக்காது
என்று தெரிவித்தார். </p>

<p> </p>

<p> </p>

<p> </p>

<p> </p>

<p> </p>

<p>காமராஜர் பெயரை சொல்ல
காங்கிரசாருக்கு தகுதி இல்லை: மந்திரி அனிதா ராதாகிருஷ்ணன் </p>

<p> </p>

<p>சென்னை,ஜூலை4- காமராஜர் பெயரை சொல்ல காங்கிரசாருக்கு தகுதி
இல்லை என்று மந்திரி அனிதா ராதாகிருஷ்ணன் கூறினார். </p><p>
</p><p>
தென் சென்னை மாவட்டம் சைதை பகுதி ஜெ. பேரவை சார்பில் 1000 பேருக்கு இல வச குடம்,
இலவசஅரிசிவழங்கும் விழா சைதாப்பேட்டை காவேரி நகரில் நடந்தது. விழாவுக்கு கவுன்சிலர் ஏ.சந்தோஷ்
தலைமை வகித்தார். இதில் மந்திரி அனிதா ஆர். ராதாகிருஷ்ணன், கொள்கை பரப்பு செயலாளர்
ஓ.எஸ்.மணியன், துணைமேயர் கராத்தே தியாகராஜன், ஆதி ராஜாராம் ஆகியோர் இலவச உதவி
வழங்கி சிறப்புரை ஆற்றினர். </p><p>
</p><p>
இதில் அனிதா ராதாகிருஷ்ணன் பேசியதாவது:- </p><p>
</p><p>
தமிழகத்தில் காமராஜர் ஆட்சி அமைப்போம் என்று காங்கிரசார் கூறிவருகிறார்கள். காமராஜர்
பிறந்த நாள் விழாவை ஆண்டு முழுவதும் கொண்டாடுவோம் என்று கூறினார்கள். எத்தனை இடத்தில்
விழா நடத்தினார்கள் என்று கூறமுடியுமா. சமீபத் தில் கன்னியாகுமரியில் காமராஜர் விழா
நடத்தினார்கள். அதில் மாவட்டத்தலைவரே கலந்துகொள்ளவில்லை. </p><p>
</p><p>
காமராஜர் நூற்றாண்டு விழா நடத்த ஒரு குழுஅமைத்தார்கள். அதில் 20 பேர் கலந்து கொண்டால்
18 பேர் சட்டையை கிழித்துக் கொண்டு வௌியே வருகிறார்கள். கூட்டத்தை ஒரு குழு
புறக்கணிக்கிறது. இன்னும் சிலர் கலந்து கொள்கிறார்கள். காமராஜர் நூற்றாண்டு விழாவை
எப்படி கொண்டாடுவது என்று நடந்த ஆலோசனை கூட்டத்தில்அது குறித்து எந்த முடிவும்
எடுக்கவில்லை. அதற்கு பதில் சட்டையை கிழித்துக் கொண்டது தான் தான்மிச்சம். காமராஜர்
விழாவுக்குசோனியாவை அழைப்போம் என்றார்கள். இப்போது சோனியா காந்தி வரவில்லை. பிறகு
நடக்கும் கூட்டத்துக்கு வருவார் என்கிறார்கள். எனவே காமராஜர் நூற்றாண்டு விழா நடத்த
முடியாதவர்கள் காமராஜர் ஆட்சி அமைப்போம் என்று பேசுவது கேலிக்கூத்து. தற் போது உள்ள
காங்கிரஸ் காரர்களுக்கு காமராஜர் பெயரை சொல்லகூட தகுதி இல்லை. </p><p>
</p><p>
இவ்வாறு அவர் பேசினார். </p><p>
</p><p>
இந்த கூட்டத்தில் சைதை தமிழ்ச்செல்வன், தாமல் கண்ணா,சொ.கடும்பாடி உள்பட பலர் கலந்து
கொண்டனர். </p>

<p> </p>

<p> </p>

<p>புதுவை அரசியலில் மீண்டும்
பரபரப்பு: காங். மேலிட தலைவர் கமல்நாத்துடன் அமைச்சர் லட்சுமி நாராயணன் சந்திப்பு </p>

<p> </p>

<p>புதுச்சேரி, ஜூலை 4- டெல்லியில் காங்கிரஸ் மேலிட தலைவர்
கமல்நாத்தை அமைச்சர் லட்சுமி நாராயணன் சந்தித்து பேசினார். இதற்கு பதிலடியாக முதல்வர்
ரங்கசாமி அதிரடி நடவடிக்கையில் இறங்க வேண்டும் என்று அவரது ஆதரவாளர்கள்
எதிர்பார்க்கிறார்கள். </p><p>
</p><p>
புதுவை முன்னாள் அமைச்சர் கண்ணன் கடந்த 3 நாட்களுக்கு முன் முதல்வர் ரங்கசாமியையும்,
அமைச்சர் நமச்சிவாயத்தையும் கடுமையாக குற்றம் சாட்டி பேட்டி அளித்தார். ரங்கசாமி மீது
மேலிடத்தில் புகார் செய்து அவரை மாற்றியே தீருவேன் என்று கூறினார். இந்த பேட்டி
புதுவையில் பெரும் பரபரப்பை ஏற்படுத்தியது. கட்சி பிரச்சினைகளை உள்ளுக்குள் பேசி தீர்க்க
வேண்டுமே தவிர வௌியில் பேசக்கூடாது என்று சோனியா கட்டளை யிட்டும் அதை மீறி கண்ணன்
பேட்டி கொடுத்தது காங்கிரசார் மத்தியில் பெரும் அதிருப்தியை ஏற்படுத்தி உள்ளது. </p><p>
</p><p>
இந்த நிலையில் கண்ணன் தனது வலது கரமாக விளங்கும் அமைச்சர் லட்சுமி நாராயணனை முதல்
கட்டமாக டெல்லிக்கு அனுப்பி வைத்துள்ளார். டெல்லிக்கு நேற்று முன்தினம் அமைச்சர் லட்சுமி
நாராயணன் புறப்பட்டு சென்றார். அங்கு நேற்று அகில இந்திய காங்கிரஸ் செயலாளரும்,
தமிழகம், புதுவை பொறுப்பாளருமான கமல்நாத்தை சந்தித்து பேசினார். </p><p>
</p><p>
கண்ணன் அறிவுரைப்படி முதல்வர் ரங்கசாமி மீதும், அமைச்சர் நமச்சிவாயம் மீதும்
கமல்நாத்திடம் அமைச்சர் லட்சுமி நாராயணன் சில புகார்களை கூறியதாக தெரி கிறது. அது
மட்டுமல்லாமல் கண்ணனை எம்.பி.யாக நியமிக்கக்கோரி காங்கிரஸ் எம்.எல்.ஏ.க்கள் கையெழுத்திட்ட
கடிதத்தையும் அவர் கமல்நாத்திடம் கொடுத் ததாக கூறப்படுகிறது. அதில் கண்ணனின் மக்கள்
காங்கிரஸ் சார்பில் போட்டி யிட்டு வெற்றி பெற்றவர்களில் ஒருவரான ராதாகிருஷ்ணன்
கையெழுத்து போடவில்லை என்று தெரிகிறது. அவருக்கு பதிலாக தாழ்த்தப்பட்ட சமூகத்தை சேர்ந்த
மற்றொரு எம்்.எல்.ஏ. கையெழுத்து போட்டிருப்பதாக கூறப்படு கிறது. மேலும் சோனியாவை
சந்திக்க அமைச்சர் லட்சுமி நாராயணன் நேரம் கேட்டதாக கூறப்படுகிறது. </p><p>
</p><p>
அமைச்சர் லட்சுமி நாராயணனின் டெல்லி பயணத்தால் புதுவை அரசியலில் மேலும் பரபரப்பு
ஏற்பட்டுள்ளது. இதனால் முதல்வர் ரங்கசாமி கண்ணன் தரப்பு மீது மேலும் வெறுப்படைந்து
இருப்பதாக கூறப்படுகிறது. </p>

<p> </p>

<p> </p>

<p>சோனியா வழிகாட்டுதலின்
பேரில் புதுவையில் நல்லாட்சி நடக்கிறது: நாராயணசாமி முன்னிலையில் அமைச்சர் ஏழுமலை
பேச்சு </p>

<p> </p>

<p>புதுச்சேரி, ஜூலை 4- சோனியா வழிகாட்டுதலின் பேரில் புதுவையில்
நல்லாட்சி நடக்கிறது என்று நாராயணசாமி முன்னிலையில் அமைச்சர் ஏழுமலை பேசினார். </p><p>
</p><p>
புதுவை காங்கிரஸ் அரசுக்கு முன்னாள் முதல்வர் வைத்திலிங்கம் முக்கிய யோசனை கூறியுள்ளார்.
தான் சொல்லும் 3 குறைகளையும் அரசு நிவர்த்தி செய்தால் புதுவையில் எதிர்க்கட்சிகள்
இருக்காது என்று அவர் கூறியுள்ளார். </p><p>
</p><p>
பயிற்சி முகாம் </p><p>
</p><p>
புதுவை தெற்கு மாவட்ட காங்கிரஸ் பயிற்சி முகாம் மதகடிப்பட்டு ஆனந்த செல் லம்மாள் திருமண
நிலையத்தில் நேற்று நடைபெற்றது. முகாமிற்கு தெற்கு மாவட்ட காங்கிரஸ் தலைவர் மணவாளன்
தலைமை தாங்கினார். ராஜலிங்கம் வரவேற்றார். நிகழ்ச்சியில் காங்கிரஸ் தலைவர்
நாராயணசாமி, முன்னாள் முதல்வர் வைத்திலிங்கம், உள்ளாட்சித்துறை அமைச்சர் ஏழுமலை,
முன்னாள் எம்.எல்.ஏ. பாலாஜி, எம்.எல்.ஏ.க்கள் நீல.கங்காதரன், ராஜவேலு, அங்காளன்,
உள்பட பலர் கலந்து கொண்டனர். </p><p>
</p><p>
அமைச்சர் ஏழுமலை </p><p>
</p><p>
பயிற்சி முகாமை தொடங்கி வைத்து அமைச்சர் ஏழுமலை பேசியதாவது:- </p><p>
</p><p>
புதுவையில் சோனியா காந்தியின் வழி காட்டுதலில் நல்ல ஆட்சி நடைபெற்று வருகிறது.
அமைச்சர்களும் நல்ல திட்டங்களை மக்களுக்காக செயல்படுத்தி வருகிறார்கள். </p><p>
</p><p>
நேரு பிரதமராக இருந்தபோது தாழ்த்தப்பட்ட மக்களுக்காக பல நல்ல திட்டங்களை கொண்டு
வந்தார். இந்திராகாந்தி பிரதமராக இருந்த போது வங்கிகளை தேசிய மயமாக்கி ஏழைகளுக்கு
கடனுதவி வழங்கினார். ராஜீவ்காந்தி பிரதமராக இருந்த போது நுகர்வோர் சங்கங்களை கொண்டு
வந்தார். </p><p>
</p><p>
ஆனாலும்அரசு செயல்படுத்தும் அனைத்து திட்டங்களும் மக்களை சென்றடைவதற் கான வழியாக
பஞ்சாயத்து ராஜ் என்ற அமைப்பை கொண்டு வந்தார். இதன் மூலம் மக் களுக்கு அடிப்படை
வசதியும், கிராமங்களில் அடிப்படை வசதியும் இதன் மூலம் ஏற்படுத்தி தந்தார்கள். </p><p>
</p><p>
ஆனால் இன்றோ பாரதிய ஜனதா ஆட்சியில் மதத்தின் பெயராலும், சாதியின் பெய ராலும்
ஒருவரையொருவர் வெட்டிசாகும் நிலையை ஏற்படுத்தி உள்ளனர். இதனை மாற்றி நல்லாட்சியை
கொண்டுவர காங்கிரசால் மட்டும்தான் முடியும். சோனியா காங்கிரஸ் ஆளும் மாநில முதல்வர்களை
அழைத்து நல்ல திட்டங்களை செயல்படுத்த ஆலோசனை வழங்கியுள்ளார். புதுவையிலும் அவை செயல்
படுத்தப்பட்டு வருகிறது. சோனியாவை பிரதமராக ஆக்க வேண்டும். இதனை யாராலும் தடுக்க முடியாது. </p><p>
</p><p>
புதுவையில் மாவட்ட மற்றும் தொகுதி அளவில் நிர்வாகிகள் கூட்டம் நடத்தி காங்கிரஸ்
ஆட்சியின் சாதனைகளை சொல்லி வருகிறோம். நாம் சோனியா ஆலோசனையில் நாராயணசாமி
வழிகாட்டு தலில் தொடர்ந்து சேவை செய்ய வேண்டும். </p><p>
</p><p>
இவ்வாறு அவர் பேசினார். </p>

<p> </p>

<p> </p>

<p> </p>

<p>ஜெயந்தி நடராஜன் பேட்டி:
அரசு ஊழியர் - ஆசிரியர்கள் போராட்ட பிரச்சினை: தமிழக அரசின் அணுகுமுறை கண்டிக்கதக்கது </p>

<p> </p>

<p>திருச்சி,ஜூலை.4- அரசு ஊழியர்கள் - ஆசிரியர்கள் போராட்ட
பிரச்சினையில் தமிழக அரசின் அணுகுமுறை கண்டிக்கத்தக்கது என திருச்சியில் ஜெயந்தி நடராஜன்
கூறினார். </p><p>
</p><p>
முன்னாள் மத்திய அமைச்சர் ஜெயந்தி நடராஜன் நேற்று(வியாழன்) மாலை திருச்சி சங்கம்
ஓட்டலில் நிருபர்களுக்கு பேட்டி அளித்தார். </p><p>
</p><p>
அப்போது அவர் கூறியதாவது:- </p><p>
</p><p>
இன்று (நேற்று) சென்னையில் நடந்த கட்சியின் கூட்டத்தில் காமராஜர் நூற்றாண்டு விழாவை
முதலில் வருகிற 15-ந்தேதி விருதுநகரில் கொண்டாடுவது என்றும்,அங்கு காங்கிரஸ் கட்சி
தலைவர்கள் மற்றும் நிர்வாகிகள் சென்று தமிழகத்தில் மீண்டும் காமராஜர் ஆட்சியை
ஏற்படுத்த வேண்டும் என்ற உறுதியை எடுத்துக்கொள்வது என முடிவு செய்யப்பட்டது. </p><p>
</p><p>
காமராஜர் நூற்றாண்டு விழாவை வெறும் சடங்குக்காக கொண்டாடவில்லை. தமிழகத்தில் மீண்டும்
காமராஜர் ஆட்சியை கொண்டு வருவோம் என்பதை வெறும் அரசியல் சுலோகமாக இல்லாமல் காமராஜர்
ஆட்சி தான் மக்கள் அரசை கொடுக்க முடியும். அதுவும் காங்கிரசால் தான் முடியும் என்ற
உணர்வோடு இந்த நூற்றாண்டு விழாவை கொண்டாட இருக்கி றோம்.இந்த விழாவில்
சோனியாகாந்தி கலந்து கொள்ள வில்லை. அதற்கு பதிலாக தமிழ்நாடு செயலாளர் கமல்நாத்
கலந்து கொள் கிறார். இந்த விழாவுக்கு பஞ்சாப் முதல்வரையும் அழைக்க இருக்கிறோம்.
</p><p>
</p><p>
தொழில்துறை, வேளாண் துறை, அணைக்கட்டு போன்ற எந்த துறையை எடுத்துக் கொண்டாலும்
காங்கிரஸ் ஆட்சிக்கு இணையாக எந்த அரசும் செய்யவில்லை.நாட்டு மக்கள் வளர்ச்சியை
காங்கிரஸ் மட்டும்தான் கொண்டுவர முடியும். இன்றைய சென்னை கூட்டத்தில் எடுக்கப்பட்ட முடிவை
திருச்சியில் உள்ள நண்பர்களிடம் எடுத்துச் சொல்ல இருக்கிறேன். </p><p>
</p><p>
வர இருக்கிற பாராளுமன்ற தேர்தல்,சட்டமன்ற தேர்தல் ஆகியவற்றில் காங்கிரஸ் கட்சி
புத்துணர்ச்சியோடு நிற்கும். மிகப்பெரிய வெற்றியையும் பெற முடியும் என்ற நம்பிக்கையும்
உள்ளது. எனவே நாங்கள் இணைந்து செயல்பட்டு மத்தியில் உள்ள மக்கள் விரோத ஆட்சிக்கு
எதிராக குரல் கொடுப்போம்.தமிழகத் தில் அரசு ஊழியர்கள், ஆசிரியர் சங்கங்களைச்
சேர்ந்தவர்கள் போராட்டத்தில் ஈடுபட்டு வருகின்றனர். இந்த பிரச்சினையில் தமிழக
அரசின் அணுகுமுறை கண்டிக்கத்தக்கதாக உள்ளது. அதற்கு கண்டனம் தெரிவிக்கிறேன். நியாயமான
அவர்களது கோரிக்கைகளுக்கு அந்த சங்கத்தின் பிரதிநிதிகளை பேச்சுவார்த் தைக்கு அழைத்து
அடக்கு முறையை கையாளாமல் சுமூகமான தீர்வை காண வேண்டும்.இந்த பிரச்சினைக் காக புதிய
பணியாளர்களை பணியில் சேர்ப்பதன் மூலம் எந்த ஒரு முடிவும் இந்த பிரச்சினைக்கு ஏற்படாது. </p><p>
</p><p>
எனவே தமிழக அரசு மோதல் போக்கை விட்டுவிட்டு அரசு ஊழியர் கோரிக்கை களுக்கு பேச்சு
வார்த்தை மூலம் முடிவுக்கு கொண்டுவர வேண்டும். இந்த போராட்டத்தில் ஈடுபட்ட
பெண்களையும் அரசு சிறையில் அடைத்துள்ளது. இது மிகவும் கொடூரமான செயல். அதனால் இந்த
போராட்டத்தில் கைது செய்யப்பட்டு சிறையில் அடைக்கப்பட்டவர்களை விடுதலை செய்து
பிரச்சினைக்கு சுமூக தீர்வு காணவேண்டும். </p><p>
</p><p>
மத்திய அரசைப்பொறுத்த வரையில் ஏறக்குறைய தமிழகத்தைச் சேர்ந்த 10அமைச்சர்கள்
உள்ளனர். தமிழகத்தில் உள்ள முக்கிய பிரச்சினைகளில் எதிலும் கவனம் செலுத்தாமல் இருப்பது
வருந்தத்தக்க செயல். அயோத்தி பிரச்சினைக்காக காஞ்சிபுரத்தில் பேச்சுவார்த்தை
நடத்த மத்திய அமைச்சர்கள் வந்தார்களோ என்னவோ தெரியவில்லை. ஆனால் தமிழ்நாட்டு
பிரச்சினை எதிலும் கவனம் செலுத்தாமல் இருக்கிறார்கள். வைகோ சிறையில் இருப்பதாலோ
என்னவோ மத்திய அமைச்சர்கள் தமிழ் நாட்டுக்கு வருவது இல்லை. காவிரியில் மழை
பெய்துள்ளதால் கபினி அணையில் இருந்து தண்ணீர் திறந்து விடப்பட்டுள்ளது. இதில் நிலையான
தீர்வை மத்திய அரசுதான் காண முடியும். </p><p>
</p><p>
வருகிற 21-ந்தேதி பாராளுமன்ற மழைக்கால கூட்டத்தொடர் தொடங்க உள்ளது. அதிலாவது பெண்கள்
மசோதா நிறைவேற்ற வேண்டும். மற்ற எந்த பிரச்சினையிலும் மத்திய அரசு ஒருமித்த கருத்தை
உருவாக்க நினைக்கவில்லை. குறிப்பாக நான்கைந்து இயக்கத்தினர் எதிர்ப்பு தெரிவிப்பதால்
பெண்கள் மசோதாவை நிறைவேற்றாமல் ஒருமித்த கருத்தை உருவாக்க முயலுகிறார்கள். இது தவறான
அணுகுமுறை. வெங்கய்யா நாயுடு வேறுவடிவில் பெண்கள் மசோதாவை நிறைவேற்றப் போவதாக
கூறுகிறார். வேறு எந்த வடிவத்தில் வந்தாலும் இந்த மசோதா பெண்களுக்கு உபயோகமாக இருக்காது. </p><p>
</p><p>
தமிழக காங்கிரஸ் கட்சியில் இரட்டை தலைவர்கள் இருப்பது ஒருசிலருக்கு வேண்டு மானால்
கற்பனையாக பிரச்சினையாக இருக்கலாம். காங்கிரஸ் கட்சி ஏகாதிபத்திய கட்சி அல்ல.
காங்கிரஸ்- த.மா.கா. இணைந்த சூழ்நிலையில் இரட்டை தலைவர் முறை கொண்டுவரு வது என்ற
அணுகுமுறையை கடைபிடித்துள்ளார்கள். தலைவராக இருக்கும் சோ.பால கிருஷ்ணனும்,செயல் தலைவராக
இருக்கும் இளங்கோவனும் நன்றாக ஒற்றுமையோடுதான் இருக்கிறார்கள். அவர்களுக்குள் எந்த
பிரச்சினையும் இல்லை. </p><p>
</p><p>
காவிரி பிரச்சினை ஒரு நதிநீர் பிரச்சினை.2மாநிலங் களுக்கிடையே உள்ள பிரச்சினை.இதை
2மாநிலங் களுக்கிடையே உள்ள பிரச்சினையாக பார்க்க வேண்டுமே தவிர 2கட்சிகளுக் கிடையே
உள்ள பிரச்சினையா கவும்,2முதல்வர்களுக்கிடையே உள்ள பிரச்சினையாகவும்
பார்க்கக்கூடாது.தமிழ்நாட்டில் அனைத்துக்கட்சிகளும் ஒரு நிலையை கடைபிடிப்பதுபோல் தான்
கர்நாடக மாநிலத்திலும் உள்ள அனைத்துக்கட்சிகளும் ஒரு நிலையை கடைபிடிக்கின் றன. இதில்
காங்கிரஸ் கட்சியோ, சோனியாகாந்தியோ தலையிடவேண்டும் என்பது தவறான அணுகுமுறை.இதில்
சுமூகமான தீர்வை மத்திய அரசுதான் ஏற்படுத்த முடியும். ஆனால் மத்திய அரசு இந்த
பிரச்சினையில் தவறி விட்டது. </p><p>
</p><p>
இவ்வாறு அவர் கூறினார். </p><p>
</p><p>
பேட்டியின் போது காங்கிரஸ் கட்சியின் திருச்சி மாநகர் மாவட்ட தலைவர் ஜெரோம்
ஆரோக்கிய ராஜ்,முன்னாள் எம்.எல்.ஏ. வெங்கடாசலம், துணைத்தலைவர் சந்தான
கிருஷ்ணன்,பொருளாளர் மரக்கடை என்.பாரி,மாநகர் மாவட்ட மாணவர் அணி தலைவர்
வழக்கறிஞர் சரவணன்,ஆபரணமாளிகை பாலு,மார்க்கெட் விஸ்வம், காளீஸ்வரன்,பிரகலாதன்,
மேலப்புதூர் சக்திநாதன்,அரிய மங்கலம் சக்தி,கள்ளத்தெரு குமார்,செயலாளர் வில்ஸ்
முத்துக்குமார்,பாலக்கரை பிரெடி, கே.சி.ஆறுமுகம், பொன்மலை கோட்டத்தலைவர்
சத்தியமூர்த்தி,கரர்தே கென்னடி மற்றும் பலர் உடனிருந்தனர். </p>

<p> </p>

<p> </p>

<p> </p>

<p>3 எம்.பி தொகுதியிலும்
வெற்றிக்கனி பறிக்க வேண்டும்: திருப்பத்தூர் செயல்வீரர் கூட்டத்தில் துரைமுருகன் பேச்சு </p>

<p> </p>

<p>திருப்பத்தூர்,ஜூலை. 4- வருகிற பாராளுமன்ற தேர்தலில் வேலூர்
மாவட்டத்தில் உள்ள 3 எம்.பி தொகுதி களிலும் வெற்றி கனியை பறிக்க வேண்டும் என்று
திருப்பத்தூர் நகர தி.மு.க செயல்வீரர் கூட்டத்தில் முன்னாள் அமைச்சர் துரைமுருகன் கூறினார்
</p><p>
</p><p>
நகர தி.மு.க கூட்டம் </p><p>
</p><p>
திருப்பத்தூர் நகர தி.மு.க செயல்வீரர் கூட்டம் வி.பிசிங் திருமண மண்டபத்தில் நடந்தது.
நகர அவைத்தலைவர் ராஜேந்திரன் தலைமை தாங்கினார். த.வேணு கோபால் எம்பி, நகர
பொருளாளர் முருகேசன், துணை செயலாளர் செல்வம், மாவட்ட பிரதிநிதி ஜோதி ராஜன், மாவட்ட
இளைஞரணி செயலாளர் சம்பத்குமார், நகர இளைஞரணி அமைப்பாளர் சங்கர் முன்னிலை
வகித்தனர். </p><p>
</p><p>
நகர செயலாளர் எஸ்.ராஜேந்திரன் வரவேற்று பேசினார். </p><p>
</p><p>
துரைமுருகன் </p><p>
</p><p>
கூட்டத்தில் தி.மு.க தலைமை கழக முதன்மை செயலாளர் துரைமுருகன் கலந்து கொண்டு பேசினார். </p><p>
</p><p>
அவர் பேசியதாவது:- </p><p>
</p><p>
மக்கள் அடுத்த தேர்தல் எப்போது வரும் என்று காத்து உள்ளனர். அ.தி.மு.க ஆட்சியில் எல்லா
தரப்பு மக்களும் வெறுத்துபோய் உள்ளனர். வரும் பாராளுமன்ற தேர்தலில் இந்த மக்களை
கட்டுகோப்பாக அணைத்து செல்ல வேண்டும். </p><p>
</p><p>
எதிரொலிக்கும் </p><p>
</p><p>
மக்களின் அதிருப்தி பாராளுமன்ற தேர்தலில் எதிரொலிக்கும். இந்த தேர்த லில் டெல்லியில்
எல்லா கட்சிகளும் இடம் மாறும். கூட்டணி மாறும். டெல்லி வெகு தொவைில் உள்ளது. ஆனால் நீதி
கூடிய சீக்கிரம் வரும். </p><p>
</p><p>
பாராளுமன்ற தேர்தலுக்கு தலைவர் கலைஞர் மாவட்டத்திற்கு ஒரு கோடி என்று நிர்ணயம்
செய்து உள்ளார். வேலூர் மாவட்டம் வறட்சியின் கோர பிடியில் சிக்கி உள்ளது. </p><p>
</p><p>
வெற்றி கனி </p><p>
</p><p>
நாம் செய்ய வேண்டியது திருப்்பத்தூர், வேலூர், அரக்கோணம் ஆகிய 3 எம்.பி. தொகுதியிலும்
வெற்றி கனியை பறித்து கலைஞரிடம் கொண்டு செல்ல வேண்டும். </p><p>
</p><p>
இதற்கு பணம் தேவை. திருப்பத்தூர் நகர தி.மு.க ரூ.2 1/2 லட்சம் முதல் ரூ.5 லட்சம் வரை
வழங்கும் கந்திலி ஒன்றியம் ரூ.2 லட்சம் தருவதாக கூறி உள்ளனர். இந்த நிதியை பெற்று
கொள்ள கழக துணை பொது செயலாளர் மு.க.ஸ்டாலின் வருவார். </p><p>
</p><p>
வறட்சி </p><p>
</p><p>
தற்போது மக்களுக்கு குடிநீர் வழங்க கூட இந்த ஆட்சியால் முடியவில்லை. மக்கள் தண்ணீருக்காக
அலைகிறார் தமிழ கத்தின் வறட்சியை போக்க ஜெயலலிதா அரசு தவறி விட்டது. இதை பற்றியும்
ஜெயலலிதா அரசு கவலைப்பட்டதாக தெரியவில்லை. இதை மக்கள் உணர்ந்து விட்டார்கள். அதை
சிந்தாமல் சிதறாமல் பார்த்து கொள்ள வேண்டும். </p><p>
</p><p>
இவ்வாறு அவர் பேசினார். </p><p>
</p><p>
மற்றும் சொத்து பாதுகாப்பு குழுசெயலாளர் காந்தி, மாவட்்ட செயலாளர் சண்முகம், மாவட்ட
அவைத்தலைவர் முகமது சகி, முன்னாள் எம்.எல்.ஏ மகேந்திரன், மாவட்ட பொருளாளர் சீவூர்
துரைசாமி, மாவட்ட இளைஞரணி அமைப்பாளர் சுந்தரமூர்த்தி, மாவட்்ட மாணவர் அணி
செயலாளர் சாதிக், கமலக்கண்ணன், சந்திரசேகரன், ஒன்றிய செயலாளர்கள் அண்ணாதுரை,
சூரியகுமார் மற்றும் ஞானசேகரன் கலந்து கொண்டனர். </p>

<p> </p>






</body></text></cesDoc>