<cesDoc id="tam-w-dinakaran-politics-02-02-09" lang="tam">
<cesHeader type="text">
<fileDesc>
<titleStmt>
<h.title>tam-w-dinakaran-politics-02-02-09.txt</h.title>
<respStmt>
<respType>Electronic file created by</respType>
<respName>Department of Linguistics, Lancaster University</respName>
<respType>text collected by</respType>
<respName>Paul Baker and Celia Worth</respName>
<respType>transferred into Unicode by</respType>
<respName>"Unicodify" software by Andrew Hardie</respName>
</respStmt>
</titleStmt>
<publicationStmt>
<distributor>UCREL</distributor>
<pubAddress>Department of Linguistics, Lancaster University, Lancaster, LA1 4YT, UK</pubAddress>
<availability region="WORLD"></availability>
<pubDate>03-08-24</pubDate>
</publicationStmt>
<sourceDesc>
<biblStruct>
<monogr>
<h.title>"Dinakaran" internet news (www.dinakaran.com), news stories collected on 02-02-09</h.title>
<h.author>Dinakaran</h.author>
<imprint>
<pubPlace>Tamil Nadu, India</pubPlace>
<publisher>Dinakaran</publisher>
<pubDate>02-02-09</pubDate>
</imprint>
</monogr>
</biblStruct>
</sourceDesc>
</fileDesc>
<encodingDesc>
<projectDesc>Text collected for use in the EMILLE project.</projectDesc>
<samplingDesc>Simple written text only has been transcribed. Diagrams, pictures and tables have been omitted and their place marked with a gap element.
</samplingDesc>
<editorialDecl>
<conformance level="1"></conformance>
</editorialDecl>
</encodingDesc>
<profileDesc>
<creation>
<date>03-08-24</date>
</creation>
<langUsage>Tamil</langUsage>
<wsdUsage>
<writingSystem id="ISO/IEC 10646">Universal Multiple-Octet Coded Character Set (UCS).</writingSystem>
</wsdUsage>
<textClass>
<channel mode="w">print</channel>
<constitution type="composite"></constitution>
<domain type="public"></domain>
<factuality type="fact"></factuality>
</textClass>
<translations></translations>
</profileDesc>
<revisionDesc></revisionDesc>
</cesHeader>

<text>
<body>




<p>வாஜ்பாய் மன்னிப்பு கேட்க
தேவைஇல்லை: 16 ஆண்டு தாமதமாக இந்திய குடியுரிமை பெற்றது ஏன்? சோனியாவுக்கு பா.ஜ.
கேள்வி</p>

<p> </p>

<p>
 
 
  
  
  
  
  
  
  
  
  
  
  
  
 
 
 

 
<gap desc="illustration"></gap></p>

<p>மணிப்பூர் தலைநகர்
இம்பாலில் பா.ஜனதா அகில இந்திய தலைவர் ஜனா.கிருஷ்ணமூர்த்தி பிரசாரம் செய்த காட்சி.
ஜனா.வுக்கு முன்பாக புத்தம் புதிய காய்கறிகள் உள்ளன. மணிப்பூர் சம்பிரதாயப்படி தமது
விருந்தினர்களை காய்கறிகள் வழங்கி வரவேற்பார்கள். </p>

<p>புதுடெல்லி, பிப். 9- சோனியாவை வௌிநாட்டு பெண் என்று
கூறியதற்காக பிரதமர் வாஜ்பாய் மன்னிப்பு கேட்க வேண்டிய அவசியம் இல்லை. இந்தியாவில்
வசித்தும் கூட 16 ஆண்டுகள் தாமதமாக இந்திய குடியுரிமை பெற்றது ஏன் என்பதற்கு சோனியா
விளக்கம் அளிக்க வேண்டும் என்று பா.ஜ. கட்சி கூறி உள்ளது. </p><p>
</p><p>
உத்தரபிரதேச தேர்தல் பிரசாரத்தின் போது சோனியாவை பிரதமர் வாஜ்பாய் வௌிநாட்டு பெண்
என்று வர்ணித்தார். இது அநாகரீகமான பேச்சு. இதற்காக வாஜ்பாய் மன்னிப்பு கேட்க வேண்டும்
என்று காங்கிரஸ் கட்சி கேட்டுக் கொண்டது. </p><p>
</p><p>
இதற்கு பதில் அளித்த பிரதமர் வாஜ்பாய், சோனியாவை நான் தனிப்பட்ட முறையில்
மதிக்கிறேன். அவரை அவமதிக்கும் நோக்கத்தில் இப்படி பேசவில்லை என்று விளக்கம்
அளித்தார். ஆனாலும் காங்கிரஸ் சமாதானம் அடையவில்லை. </p><p>
</p><p>
பா.ஜ. கேள்வி </p><p>
</p><p>
ஆனாலும் இந்த பிரச்சினை இத்துடன் ஓய்ந்தபாடில்லை. இது தொடர்பாக பா.ஜ. செய்தி
தொடர்பாளர் விஜயகுமார் மல்கோத்ரா நேற்று டெல்லியில் நிருபர்களிடம் கூறியதாவது:- </p><p>
</p><p>
காங்கிரஸ் தலைவர் சோனியாவின் தேசியத்தை தேர்தல் பிரச்சினையாக்க பா.ஜ. ஒரு போதும்
விரும்பியதில்லை. இது குறித்து பிரதமர் வாஜ்பாய் விளக்கம் அளித்த பிறகும் கூட காங்கிரஸ்
கட்சி இதை பிரச்சினையாக்குகிறது. இதற்காக அவர் மன்னிப்பு கேட்க தேவையில்லை. </p><p>
</p><p>
சோனியா மன்னிப்பு </p><p>
</p><p>
1984-ல் சீக்கியருக்கு எதிரான கலவரத்துக்காகவும், பொடோ சட்டத்தை எதிர்த்ததற்
காகவும், மதரசாக்களை ஆதரித்ததற்காகவும் சோனியா தான் மன்னிப்பு கேட்க வேண்டும்.
அவரது இந்த போக்கால் நாட்டின் பாதுகாப்புக்கு ஆபத்து ஏற்பட்டுள்ளது. தனது பிரசாரத்தில் ஒரு
தடவை யாவது, பாராளுமன்றம் மீது நடந்த தாக்குதல் குறித்தோ தீவிரவாதம் பற்றியோ சோனியா
பேசியது உண்டா? </p><p>
</p><p>
தாமதம் ஏன்? </p><p>
</p><p>
விதேசி (வௌிநாட்டு பிறப்பு) என்றதும் கோபப்படும் சோனியா, இந்தியாவில் 34 ஆண்டுகள்
வசித்தும் கூட தாமத மாக 16 ஆண்டுகள் கழித்து தான் இந்திய குடியுரிமை பெற்றார். இதற்கு
காரணம் என்ன என்பதை அவர் நாட்டுக்கு விளக்குவாரா? </p><p>
</p><p>
இது வரை இந்திய மொழிகளில் ஒன்றில் அவரால் தானாக பேச முடிகிறதா? எழுதி வைத்து தானே
பாராளுமன்றத்திலும் படிக்கிறார். விதி முறைப்படி எழுதி வைத்து படிக்க கூடாது என்ற போதிலும்
இந்த பிரச்சினையை பா.ஜ. எம்.பிக்கள் எழுப்பக் கூடாது என்று பெருந்தன்மை காரணமாக
வாஜ்பாய் தடை விதித்தார். </p><p>
</p><p>
இவ்வாறு அவர் கூறினார். </p><p>
</p><p>
ஜனா. பேட்டி </p><p>
</p><p>
பா.ஜ. கட்சியின் தேசிய தலைவர் ஜனா. கிருஷ்ணமூர்த்தி நேற்று கொல்கத்தாவில்
நிருபர்களிடம் கூறுகையில், காங்கிரஸ் கட்சி பொறுபான எதிர்க்கட்சியாக செயல்பட வேண்டும்.
பிரதமர் வாஜ்பாய் விளக்கம் அளித்த பிறகும் கூட மன்னிப்பு கேட்க வேண்டும் என்று சொல்வது
சரியல்ல என்றார். </p><p>
</p><p>
மேலும் காங்கிரஸ் மாலுமி இல்லாத கப்பல். மோட்டார் கார் டிரைவிங் லைசென்சு வைத் துள்ள
ஒருவரை வைத்து கப்பலை ஓட்ட முயற்சிக்கிறது. 4 மாநில தேர்தலில் தோல்வி நிச்சயம்
என்பதால் இந்த கட்சி இப்படிப்பட்ட சர்ச்சையை கிளப்புகிறது என்று ஜனா. கிருஷ்ண மூர்த்தி
குற்றம் சாட்டினார். </p><p>
</p><p>
மன்னிப்பு விவகாரம்: </p><p>
</p><p>
காங். பணிந்தது </p><p>
</p><p>
காங்கிரஸ் செய்தி தொடர்பாளர் ஆனந்த் சர்மா நேற்று டெல்லியில் நிருபர்களிடம்
கூறுகையில், சோனியாவின் வௌிநாட்டு பிறப்பு பற்றி பேசியதற்கு பிரதமர் வாஜ்பாய் அளித்த
விளக்கத்தில் காங்கிரஸ் திருப்தி அடைகிறது. இனி இந்த பிரச்சினையை காங்கிரஸ் பெரிது
படுத்தாது என்றார். </p>

<p> </p>

<p> </p>

<p>திண்டுக்கல் குடகனாறு
இல்லத்தில் அனுமதி மறுப்பு: கருணாநிதி பிரசாரம் தடுக்க சதி, அரசு விடுதியில் தங்க திடீர்
தடை</p>

<p> </p>

<p>திண்டுக்கல், பிப்.9- ஆண்டிப்பட்டி இடைத்தேர் தலுக்காக தி.மு.க.
வேட்பாளரை ஆதரித்து தேர்தல் பிரசாரத்திற்காக வரும் தி.மு.க. தலைவர் கருணாநிதிக்கு
திண்டுக்கல்லில் உள்ள பொதுப் பணித்துறைக்கு சொந்தமான அரசு விருந்தினர் இல்லத்தில்
தங்குவதற்கு அனுமதி அளிக்கப்பட்டது. பின்னர்அ.தி.மு.க. அரசு திடீரென அந்த அனுமதியை ரத்து
செய்து விட்டது. </p><p>
</p><p>
ஜெயலலிதா ஆண்டிப்பட்டி தொகுதியில் போட்டியிடு வதால், அரசு எந்திரங்கள் மற்றும் அரசு
அதிகாரிகள் முடுக்கி விடப்பட்டுள்ளனர். அ.தி.மு.க. மந்திரிகள் ஏற்பாட்டில்
ஆண்டிப்பட்டியில் அதிகார த்தை பயன்படுத்தி தேர்தல் விளம்பரங்கள் மற்றும் பிரசாரங்கள்
செய்து வருகின்றனர். </p><p>
</p><p>
கருணாநிதி அறிவிப்பு </p><p>
</p><p>
இந்த நிலையில் தி.மு.க. தலைவர் கருணாநிதி என்னுடைய உடல்நிலையை பொறுத்து தேர்தல்
பிரசாரத்திற்காக ஆண்டிப்பட்டி போவதா, இல்லையா என்று யோசித்துக் கொண்டிருந்தேன். அந்த
அம்மையாரின் (ஜெயலலிதா) இன்றைய அறிக்கையை பார்த்த பிறகு நான் போகாவிட்டால் அவர்
தன்னை அலட்சியப்படுத்தி விட்டதாக கருதிக் கொள்வார் என்பதால் அந்த கடமையையும் ஆற்றி
விடலாம் என்று இருக்கிறேன் என்று கூறி உள்ளார். </p><p>
</p><p>
16-ந் தேதி பிரசாரம் </p><p>
</p><p>
மேலும் தி.மு.க.வினர் மீதான ஜெயலலிதாவின் பொய் புகாருக்கு பதில் அடி கொடுக்கும் வகையில்
ஆண்டிப்பட்டி தொகுதியில் தேர்தல் பிரசாரம் செய்ய வருவதாகவும் கருணாநிதி அறிவித்து
இருந்தார். அவரது உடல்நிலையை கருத்தில் கொண்டு ஆண்டிப் பட்டி தொகுதியில் வருகிற 16-ந்
தேதி (சனிக்கிழமை) ஒரு நாள் மட்டும் தேர்தல் பிரசாரம் செய்ய உள்ளார். அதற்கான
ஏற்பாடுகளை திண்டுக்கல் தேனி மாவட்ட மண்டல தி.மு.க. பொறுப்பாளரும், முன்னாள் அமைச்சருமான
இ.பெரியசாமி செய்து இருந்தார். </p><p>
</p><p>
திண்டுக்கல்லில் தங்க ஏற்பாடு </p><p>
</p><p>
வருகிற பிப்ரவரி 15-ந்தேதி திருச்சியில் முன்னாள் அமைச்சர் நேருவின் இல்ல திருமண விழா
நடைபெற உள்ளது. அதில் தி.மு.க. தலைவர் கருணாநிதி கலந்து கொண்டு விட்டு பின்னர்
திண்டுக்கல் வர முடிவு செய்து இருந்தார். திண்டுக்கல்லில் 15-ந் தேதி இரவு தங்கி விட்டு
16-ந் தேதி காலை ஆண்டிப்பட்டி தொகுதிக்கு சென்று தேர்தல் பிரசாரம் செய்து விட்டு சென்னை
திரும்ப திட்டமிட்டு இருந்தார். </p><p>
</p><p>
அதையொட்டி திண்டுக்கல் தேனி மாவட்ட மண்டல தி.மு.க பொறுப்பாளரும், முன்னாள் அமைச்சருமான
இ.பெரியசாமி உத்தரவுப்படி, திண்டுக்கல் நகர தி.மு.க. செயலாளரும், நகர் மன்ற தலைவருமான
எம்.பசீர் அகமது, திண்டுக்கல்லில் நத்தம் ரோட்டில் பொதுப்பணித் துறைக்கு சொந்தமாக
உள்ள குடகனாறு இல்லத்தில் தி.மு.க. தலைவர் கருணாநிதி வரும் 15 மற்றும் 16 ஆகிய 2
தேதிகளில் தங்குவதற்காக அனுமதி கோரி திண்டுக்கல் பொதுப்பணித் துறை அலுவலகத்தில்
விண்ணப்பம் கொடுத்தார். அதை பெற்றுக் கொண்ட பொதுப் பணித்துறை எக்சிகியூடிவ்
என்ஜினீயர் போஸ் என்பவர் கருணாநிதி 2 நாட்கள் திண்டுக்கல் குடகனாறு இல்லத்தில்
தங்குவதற்கான உரிமத்தை கடந்த 5-ந் தேதி வழங்கினார். தி.மு.க.வினர் சார்பில் குடகனாறு
இல்லத்தில் கருணாநிதி மற்றும் கழகத்தினர் தங்குவதற்காக 3 அறைகள் முன்பதிவு
செய்யப்பட்டது. </p><p>
</p><p>
ஜெ. சதி திட்டம் </p><p>
</p><p>
கருணாநிதி தேர்தல் பிரசாரத்திற்கு ஆண்டிப்பட்டி சென்றால், மக்களிடம் தனக் குள்ள
செல்வாக்கு குறைந்து விடுமோ என்று அஞ்சிய ஜெயலலிதா, கருணாநிதியின் தேர்தல் பிரசார
சுற்றுப் பயணத்திற்கு தடை விதிக்க சதி திட்டம் தீட்டியுள்ளதாக தெரிகிறது. அதன்
எதிரொலியாக திண்டுக்கல்லில் பொதுப்பணித்துறைக்கு சொந்தமான குடகனாறு இல்லத்தில் கருணாநிதி
தங்குவதற்காக வழங்கப்பட்டு இருந்த உரிமத்தை ரத்து செய்ய அதிகாரிகளுக்கு ரகசிய
உத்தரவிட்டதாக தெரிகிறது. </p><p>
</p><p>
ரத்து ஏற்பாடு </p><p>
</p><p>
இதனால் பொதுப்பணித் துறை என்ஜினீயர் போஸ், கடந்த 6-ந்தேதி மதுரை வந்த ஸ்டாலினை
வரவேற்க சென்ற முன்னாள் அமைச்சர் இ.பெரியசாமியை பார்ப்பதற்காக மதுரை சென்றார். அங்கு
இ.பெரியசாமியை சந்தித்து கருணாநிதி தங்குவதற்காக உரிமம் வழங்கியதை ரத்து செய்யப்
போகிறோம் என்று தெரிவித்து விட்டு திரும்பினார். </p><p>
</p><p>
அதை தொடர்ந்து நேற்று மேலிட உத்தரவுப் படி திண்டுக்கல்லில் கருணாநிதி தங்குவதற்காக முன்
பதிவு செய்யப்பட்டு ரசீது பெறப்பட்ட அனுமதியை பொதுப்பணித் துறை அதிகாரிகள் ரத்து செய்து
விட்டனர். </p><p>
</p><p>
தி.மு.க.வினர் குமுறல் </p><p>
</p><p>
இதனால் தென் மாவட்டத்தில் உள்ள ஒட்டு மொத்த தி.மு.க.வினரும் மன வருத்தம் அடைந்து
உள்ளனர். இது குறித்து மற்ற அதிகாரிகள், அர சியல் பிரமுகர்கள் தரப் பில் ஒரு முதிர்ந்த
அரசியல் தலைவரும், முன்னாள் முதல் அமைச்சரும், தற்போதய எம்.எல்.ஏ.வுமான கருணா நிதிக்கே
இந்த பொம்பளை இவ்வளவு தீங்கு விளைவித்து அவரை நிம்மதியாக ஒரு இடத்தில் தங்ககூட
அனுமதியில்லாமல் செய்து விட்டாரே, ஒரு தலைவருக்கே இந்த நிலைமை என்றால் நம்மை போன்ற
அப்பாவி மக்களுக்கு எல்லாம் இந்த பொம்பளயால என்ன நேர போகுதோ என்று கூறி புலம்பு
கின்றனர். </p><p>
</p><p>
கருணாநிதி தங்கும் உரிமத்தை ரத்து செய்ததற்கான உரிமத்தை நேற்று (வௌ்ளி) மதியம் வரை
முறையாக முன் பதிவு செய்த தி.மு.க. நிர்வாகிகளிடம் அதிகாரிகள் கொடுக்க வில்லை என்பது
குறிப்பிடத்தக்கது. </p><p>
</p><p>
கருணாநிதிக்கு அனுமதி மறுப்பு: ஜெ. அரசின் பொய் காரணம் </p><p>
</p><p>
திண்டுக்கல், பிப்.9- திண்டுக்கல் குடகனாறு இல்லத்தில் முன்னாள் முதல்வர் கருணாநிதி தங்க
முதலில் அனுமதி தந்து விட்டு பிறகு ரத்து செய்து உள்ளது. இதற்கு அதிகாரிகள் கூறும் காரணம்,
அன்றைய தினம் தமிழக மந்திரி ஒருவர் தங்க இருப்பதாகவும், அதனால் தான் கருணாநிதிக்கு
அனுமதி மறுக்கப்பட்டதாகவும் அதிகாரிகள் கூறுகிறார்கள். </p><p>
</p><p>
ஆனால் உண்மையான காரணம் அதுவல்ல என விவரம் அறிந்தவர்கள் கூறுகிறார்கள். ஜெயலலிதா வருகிற
13-ந்தேதி முதல் ஒரு வாரம் ஆண்டிப்பட்டி தொகுதியில் பிரசாரம் செய்ய முடிவு செய்து
உள்ளார். அந்த அளவுக்கு அங்கு அவர் வெற்றிக்கு கடுமையாக போராட வேண்டி இருப்பதாக
கருதுகிறார். இதை மேயர் மு.க.ஸ்டாலின் சுற்றுப்பயணத்திற்கு மக்கள் தந்த வரவேற்பு
நிரூபித்தது. </p><p>
</p><p>
இந்த நிலையில் தி.மு.க. தலைவரும், ஆண்டிப்பட்டி தொகுதிக்கு பல கோடிக்கணக்கான வளர்ச்சித்
திட்டங்களை நிறைவேற்றி தந்தவருமான கருணாநிதி அங்கு பிரசாரம் செய்தால் தனது வெற்றிக்கு
மேலும் ஜெயலலிதா போராட வேண்டியது இருக்கும் என கருதுகிறார். இதனால் கருணாநிதி யின் ஒரு
நாள் சுற்றுப்பயணத்திற்கு எப்படியாவது இடையூறு செய்ய வேண்டும் என ஜெயலலிதா கருதுகிறார்.
அதற்காகத் தான் சீப்பை ஒளித்து வைத்து விட்டால் திருமணத்தை நிறுத்தி விடலாம் என்ற
கதையாக கருணாநிதி திண்டுக்கல் குடகனாறு இல்லத்தில் தங்க கொடுத்திருந்த அனுமதியை திடீரென
ரத்து செய்து உத்தரவிட செய்து உள்ளார். </p><p>
</p><p>
இதற்கு அதிகாரிகள் கூறும் காரணம் அங்கு தமிழக மந்திரி அந்த தேதியில் தங்க உள்ளார்
என்பதாகும். ஆனால் நேற்று வரை எந்த மந்திரியும் அங்கு தங்க அனுமதி கேட்டு விண்ணப்பம்
செய்யவில்லை என்பது குறிப்பிடத்தக்கது. இனி மேல் தான் அங்கு எந்த மந்திரி பெயரை
போட்டாவது அங்கு தங்க இடம் ஒதுக்க ஏற்பாடு செய்யப்பட்டு வருகிறது. </p><p>
</p><p>
மேலும் ஆண்டிப்பட்டி தொகுதியில் மேயர் மு.க.ஸ்டாலின் பிரசாரம் செய்த போது கிராமப்
பகுதிகளில் போலீசார் துணையுடன் வாகனங்களை ஆங்காங்கே நிறுத்தி பிரசாரம் செய்ய விடாமல்
தடுத்தது போல கருணாநிதி பிரசாரத்திற்கு வரும் போது அதிகாரிகள் மற்றும் ரவுடிகள் துணையுடன்
சட்டம்-ஒழுங்கு பிரச்சினை ஏற்படுத்தி கருணாநிதியின் பிரசாரத் திற்கு தடை ஏற்படுத்தவும்
ஜெயலலிதா திட்டமிட்டு உள்ளதாக வும் கூறப்படுகிறது. </p>

<p> </p>

<p> </p>

<p>மைசூர் சாமுண்டீஸ்வரி
கோவிலில் சசி விசேஷ பூஜை, ஜெ. வெற்றிக்காக 1 மணி நேரம் பிரார்த்தனை</p>

<p> </p>

<p>பெங்களூர், பிப்.9- ஜெயலலிதா தேர்தலில் வென்று நல்லபடியாக
கரைசேர வேண்டும் என்று சசிகலா மைசூர் சென்று அங்குள்ள சாமுண்டீஸ்வரி கோவிலில் விசேஷ
பூஜை நடத்தினார். </p><p>
</p><p>
அ.தி.மு.க. பொதுச்செயலாளர் ஜெயலலிதாவின் தோழி சசிகலா நேற்று சென்னை யிலிருந்து
விமானம் மூலம் திடீரென பெங்களூர் வந்தார். பகல் 12.45 மணிக்கு சசிகலாவும், உதவியாளர்
ஒருவரும் விமானத்திலிருந்து இறங்கினார்கள். </p><p>
</p><p>
விமானநிலைய வாசலில் தயாராக ஒரு கார் காத்திருந்தது. அதில் சசிகலா ஏறி கிளம்பினார்.
நேராக மைசூர் அருகே உள்ள சாமுண்டீஸ்வரி கோவிலுக்கு வந்தார். </p><p>
</p><p>
விசேஷ பூஜை </p><p>
</p><p>
அங்கு கோவில் அதிகாரிகள் சசிகலாவை வரவேற்று அம்மன் சன்னதிக்கு அழைத்து சென்றார்கள்.
அங்கு பூஜை நடத்தி சசிகலா சாமுண்டீஸ்வரி அம்மனை வழிபட்டார். அவருக்கு கோவில் பிரசாதம்
வழங்கப்பட்டது. </p><p>
</p><p>
கோவில் பிரகாரத்தையும் சசிகலா சுற்றி வலம் வந்தார். ஜெயலலிதா சார்பில் விலை
உயர்ந்த பட்டுச்சேலையை அம்மனுக்கு அணிவித்து சசிகலா வழிபட்டார். </p><p>
</p><p>
ஜெ. பெயரில் அர்ச்சனை </p><p>
</p><p>
ஜெயலலிதா பெயரில் அர்ச்சனை நடத்தி தரும்படி சசிகலா கேட்டுக்கொண்டார். கோவில்
குருக்கள் அதன்படி அர்ச்சனை செய்து மாலை, பழம், தேங்காய், விபூதி ஆகியவற்றை வழங்க
சசிகலா பயபக்தியுடன் பெற்றுக்கொண்டார். நெற்றியில் விபூதி-குங்குமம்
பூசிக்கொண்டார். </p><p>
</p><p>
சுமார் 30 நிமிடம் கோவிலில் சசிகலா இருந்தார். சிறிது நேரம் கண்களை மூடி அமைதியாக
தியானத்தில் ஈடுபட்டார். இந்த விசேஷ பூஜையை முடித்துக்கொண்டு மீண்டும் காரில்
பெங்களூர் வந்து நேற்று மாலையே சசிகலா சென்னை திரும்பினார். </p><p>
</p><p>
வெற்றியில் சந்தேகம் </p><p>
</p><p>
ஆண்டிப்பட்டி இடைத்தேர்தலில் போட்டியிடும் ஜெயலலிதா இன்னும் 5 நாளில் பிரசாரத்துக்கு
செல்ல இருக்கிறார். இந்த சூழ்நிலையில் சசிகலா மைசூர் சாமுண்டீஸ்வரி கோவிலுக்கு வந்து
விசேஷ பூஜை நடத்தியிருப்பது முக்கியத்துவம் வாய்ந்ததாக கருதப்படுகிறது. </p><p>
</p><p>
தற்போது ஆண்டிப்பட்டியில் போட்டி கடுமையாக உள்ளது. அ.தி.மு.க.வினரின் தில்லுமுல்லுகள் மீது
முழுகவனம் செலுத்தி தி.மு.க.வினர் செயல்படுகிறார்கள். நியாயமான தேர்தல் நடந்தால்
தி.மு.க.தான் வெற்றி பெறும் என தி.மு.க. தலைவர் கருணாநிதி கூறியிருக்கிறார். எனவே
ஜெயலலிதாவுக்கு வெற்றி மீது சந்தேகம் வந்திருப்பதாக கூறப்படுகிறது. </p><p>
</p><p>
தொங்கும் கத்தி </p><p>
</p><p>
அதோடு ஆண்டிப்பட்டி தேர்தலை நிறுத்தவேண்டும் என்று தி.மு.க. தொடர்ந்த வழக்கு டெல்லி
ஐகோர்ட்டு விசாரணையில் உள்ளது. இதுவும் தன் தலைக்குமேல் தொங்கும் கத்தி என ஜெயலலிதா
கருதி அஞ்சிக்கொண்டிருக்கிறார். </p><p>
</p><p>
எனவே இதுபோன்ற இடையூறுகௌல்லாம் நீங்கி நல்லபடியாக தேர்தலில் வெற்றி பெற வேண்டும்
என்பதற்காக சக்தி மிகுந்த சாமுண்டீஸ்வரி அருளைப்பெற வேண்டும் என்று ஜெயலலிதா நினைத்தார்;
அதனாலேயே தன் சார்பாக சசிகலாவை மைசூருக்கு அனுப்பி சாமுண்டீஸ்வரி கோவிலில் விசேஷ பூஜை
நடத்தப்பட்டது என்று சொல்கிறார்கள் </p><p>
</p><p>
மீண்டும் விஜயம் </p><p>
</p><p>
கடந்த 2001-ம் ஆண்டு பிப்ரவரி மாதம் முதல் வாரத்தில் ஜெயலலிதாவும், சசிகலாவும் இந்த
மைசூர் சாமுண்டீஸ்வரி கோவிலுக்கு வந்து வழிபட்டு சென்றார்கள். அதன் பிறகு நேற்று மீண்டும்
சசிகலா மட்டும் வந்து விசேஷ பூஜை நடத்தி உள்ளார். </p><p>
</p><p>
சாமுண்டீஸ்வரி அம்மன் மைசூர் மகாராஜா குடும்பத்து குலதெய்வம் என்கிறார்கள். மைசூரில்
இருந்து 6 கி.மீ. தூரத்தில் மலை மீது அமைந்துள்ள இக்கோவில் புராண பிரசித்தி பெற்றது. </p><p>
</p><p>
அசுரன் வதம் </p><p>
</p><p>
மகிசாசூரன் என்கிற கொடிய அரக்கனை வதம் செய்து சாமுண்டீஸ்வரி அழித்த இடத்தில்தான் இந்த
கோவில் உருவாக்கப்பட்டிருப்பதாக பக்தர்கள் நம்புகிறார்கள். </p><p>
</p><p>
மைசூரில் தசரா பண்டிகை மிகவும் பிரபலமானது. அவ்விழாவுக்கு 1 வாரம் முன்பு இந்த
சாமுண்டீஸ்வரி அம்மன் கோவிலில்தான் ஆரம்ப கொண்டாட்டங்கள் நடைபெறும். </p><p>
</p><p>
நடிகர் ராஜ்குமார் குடும்பம் </p><p>
</p><p>
இதில் மைசூர் மகாராஜா குடும்பத்தினர், மாநில அமைச்சர்கள், சினிமா நடிகர்- நடிகைகள்
கலந்து கொள்வார்கள். இங்கு வழிபட்டு மனதில் நினைப்பது நிறைவேறும் என்கிற ஐதீகம் உள்ளது </p><p>
</p><p>
சந்தன வீரப்பனால் நடிகர் ராஜ்குமார் கடத்தி சிறை வைக்கப்பட்டிருந்தபோது, அவருடைய
குடும்பத்தினர் வந்து இந்த சாமுண்டீஸ்வரி கோவிலில் சிறப்பு பூஜை நடத்தி வழிபட்டனர்
என்பதும் குறிப்பிடத்தக்கது. </p>

<p> </p>

<p> </p>

<p>3-வது அணி குழப்பம்
நீடிப்பு: காங்கிரசுடன் ஒருபோதும் கூட்டு சேர மாட்டோம்- சங்கரய்யா, மார்க்சிய கம்யூ.
உறவு தேவையில்லை- இளங்கோவன்</p>

<p> </p>

<p>சென்னை, பிப். 9- காங்கிரசுடன் ஒருபோதும் கூட்டு சேர மாட்டோம்
என்று சங்கரய்யா கூறினார். மார்க்சிய கம்யூனிஸ்டு உறவு எங்களுக்கு தேவை இல்லை என்று
இளங்கோவன் பதிலடி கொடுத்துள்ளார். இதனால் 3-வது அணி குழப்பம் நீடிக்கிறது. </p><p>
</p><p>
மார்க்சிய கம்யூனிஸ்டு கட்சி மாநில செயலாளர் சங்கரய்யா நேற்று சென்னையில் அளித்த
பேட்டி வருமாறு:- </p><p>
</p><p>
கேள்வி:- ஆண்டிப்பட்டி தொகுதியில் மார்க்சிய கம்யூனிஸ்டு கட்சி தொண்டர்கள் யாருக்கு
ஓட்டு போடுவார்கள்? </p><p>
</p><p>
பதில்:- கம்யூனிஸ்டு கட்சி களும், த.மா.கா.வும் தேர்தலில் பங்கேற்பதில்லை என்று முடிவு
எடுத்தோம். தேர்தல் சம்பந்தமான எந்த நடவடிக்கைகளிலும் பங்கேற்க மாட்டோம். </p><p>
</p><p>
யாருக்கும் ஓட்டு இல்லை </p><p>
</p><p>
கேள்வி:- புதிய தமிழகம் வேட்பாளர் டாக்டர் கிருஷ்ண சாமியை ஆதரிப்பீர்களா? </p><p>
</p><p>
பதில்:- நாங்கள் யாரையும் ஆதரிக்க மாட்டோம். பங்கேற்கவும் மாட்டோம். </p><p>
</p><p>
கேள்வி:- இனி நடக்கும் வாணியம்பாடி, சைதாப் பேட்டை, அச்சிரப்பாக்கம் இடைத்தேர்தலில்
காங்கிரஸ், த.மா.கா., கம்யூனிஸ்டு கட்சிகள் சேர்ந்து 3-வது அணி அமைக்குமா? </p><p>
</p><p>
பதில்:- பா.ஜ. மற்றும் அதன் கூட்டணி கட்சிகளை எதிர்ப்பதிலும், மதசார்பற்ற கட்சிகள் மற்றும்
தேச ஒற்றுமைக்கு பாடுபடுகின்ற கட்சிகளை ஆதரிப்பதிலும் மார்க்சிய கம்யூனிஸ்டு கட்சி
உறுதியாக இருக்கிறது. </p><p>
</p><p>
இனியும் கெடுப்போம் </p><p>
</p><p>
கேள்வி:- 3-வது அணி அமையவிடாமல் கெடுத்தது மார்க்சிய கம்யூனிஸ்டுதான் என்கிறார்களே?
</p><p>
</p><p>
பதில்:- இனியும் அமைய விடாமல் கெடுப்போம். எங்களைப் பொறுத்தவரை காங்கிரசுடன்
ஒருபோதும் கூட்டு சேர மாட்டோம். கடந்த சட்டமன்ற தேர்தலில் அ.தி.மு.க.வுடன் நாங்கள்
தொகுதி உடன்பாடு வைத்திருந்தோம். அ.தி.மு.க. அணியில் காங்கிரஸ் இருந்தது. நாங்கள் எந்த
சமயத்திலும் காங்கிரசுடன் கூட்டு வைத்தது கிடையாது. </p><p>
</p><p>
இவ்வாறு கூறினார். </p><p>
</p><p>
இளங்கோவன் பதிலடி </p><p>
</p><p>
தமிழ்நாடு காங்கிரஸ் தலைவர் ஈ.வி.கே.எஸ்.இளங்கோவனிடம் இது பற்றி கேட்டதற்கு அவர்
கூறியதாவது:- </p><p>
</p><p>
மார்க்சிய கம்யூனிஸ்டு எங்கள் கூட்டணியில் சேர வேண்டும் என்று எந்த சூழ்நிலையிலும்
நாங்கள் பேச்சுவார்த்தை நடத்தவில்லை. த.மா.கா., இந்திய கம்யூனிஸ்டு கட்சிகளுடன்தான்
நாங்கள் பேசி வருகிறோம். எங்களது மாற்று அணிக்கு (3-வது அணி) மார்க்சிய கம்யூனிஸ்டு
வந்தால் லாபமும் இல்லை, வராவிட்டால் நஷ்டமும் இல்லை. அவர்கள் உறவு எங்களுக்கு தேவையும்
இல்லை. </p><p>
</p><p>
இவ்வாறு அவர் கூறினார். </p><p>
</p><p>
இப்படி இரு கட்சிகளும் உறுதியாக இருப்பதால் 3-வது அணி அமைவதில் தொடர்ந்து குழப்பம்
நீடிக்கிறது. </p><p>
</p><p>
கள்ளச்சாராய சாவுக்கு ரூ.50 ஆயிரம்: மழையில் பலியானால் ரூ.25 ஆயிரமா? இளங்கோவன்
கேள்வி </p><p>
</p><p>
தமிழ்நாடு காங்கிரஸ் தலைவர் இளங்கோவன் அளித்த பேட்டி வருமாறு:- </p><p>
</p><p>
கள்ளச்சாராயம் குடித்து இறந்தவர்கள் குடும்பத்துக்கு ரூ.50 ஆயிரம், மழையால் பாதித்து
இறந்தவர்களுக்கு ரூ.25 ஆயிரம் என்பது எப்படி நியாயமாக இருக்கும்? தஞ்சை,
திருவாரூர், நாகை மாவட்டத்தில் மழையால் ரூ.400 கோடி பயிர்கள் நாசமாகி உள்ளது. அந்த
ரூ.400 கோடியையும் அரசே வழங்க வேண்டும். </p><p>
</p><p>
முதல்வர் பன்னீர்செல்வம் ஆண்டிப்பட்டியில் இருந்து கொண்டு, அமைச்சர் களையும்,
அதிகாரிகளையும் பாதிக்கப்பட்ட பகுதிக்கு அனுப்பி, அவர்கள் தகவல் தந்ததும் நிவாரண பணியை
செய்வதாக கூறி இருக்கிறார். இது எப்படி இருக்கிறது என்றால், அரண்மனைக்குள்
உட்கார்ந்துகொண்டு மாதம் மும்மாரி பொழிகிறதா? என்று கேட்ட பொறுப்பற்ற மன்னனின்
போக்குபோலத் தான் உள்ளது. </p><p>
</p><p>
ஆண்டிப்பட்டியில் எல்லா முறைகேட்டையும் மீறி தி.மு.க. வெற்றிபெறும் என்று கருணாநிதி கூறி
இருப்பது அவரது தன்னம் பிக்கையை காட்டுகிறது. </p><p>
</p><p>
ஜெயலலிதாவால் அறிவிக்கப்பட்டு, அவரே போட்டியிட்டு, அவரே வாக்குகளை போட்டு, அவரே வாக்கு
எண்ணி, அவரே வெற்றி பெற்றதாக அறிவிக்கும் தேர்தல் இது. எனவே இதில் காங்கிரஸ்
போட்டியிடுவதில் எந்த பலனும் இல்லை என்பது எங்களுக்கு தெரியும். </p><p>
</p><p>
இவ்வாறு அவர் கூறினார். </p><p>
</p><p>
ராணி வெங்கடேசன், லதா பிரியகுமார் சிரஞ்சீவி, பிராஙக்ளின் பிரகாஷ் உடன்
இருந்தனர். </p>

<p> </p>

<p> </p>

<p>தி.மு.க. கூட்டணி பேரூராட்சி
தலைவருக்கு முதல்வர் பன்னீர் நேரில் மிரட்டல், அ.தி.மு.க.வை ஆதரிக்காவிடில் அதன் பலன்
உங்களுக்கு கிடைக்கும்</p>

<p> </p>

<p>பெரியகுளம், பிப். 9- வடுகப்பட்டி பேரூராட்சி தலைவரை முதல்வர்
பன்னீர் நள்ளிரவில் சந்தித்து அ.தி.மு.க.வுக்கு ஆதரவு தராவிட்டால் அதன் பலன் உங்களுக்கு
கிடைக்கும் என மிரட்டினார். இதை கண்டித்து போராட்டம் நடத்த தி.மு.க.வினர் முடிவு செய்து
உள்ளனர். </p><p>
</p><p>
ஆண்டிப்பட்டி சட்டமன்றத் தொகுதியில் வடுகபட்டி இருக்கிறது. நடந்து முடிந்த உள்ளாட்சி மன்றத்
தேர்தலில் தி.மு.க. கூட்டணி சார்பில் எம்.ஜி.ஆர். கழக மாநில பொதுக்குழு உறுப்பினர்
கே.பி.துரைராஜ் உதயசூரியன் சின்னத்தில் போட்டியிட்டு அ.தி.மு.க. வேட் பாளரை தோல்வி
அடைய செய்தார். அந்த தேர்தலில் தற்போதைய முதல்வர் பன்னீர் செல்வம் நகரின் முக்கிய
பிரமுகர்களை எல்லாம் அழைத்து பேசியும் அ.தி.மு.க. தோல்வியை தழுவியது. இதனால் ஜெயலலி
தா-பன்னீர் அரசு கடந்த 3 மாத காலமாக வடுகபட்டியை புறக்கணிக்க ஆரம்பித்து உள்ளது.
தி.மு.க. ஆட்சியின் போது சுமார் 1 கோடி ரூபாய் செலவில் பாலம் கட்டும் பணி வடுகபட்டி வராக
நதியின் குறுக்கே நடந்து வந்தது. பேரூராட்சி தேர்தலில் வடுகபட்டி மக்கள் அ.தி.மு.க.வை
தோல்வி அடைய செய்ததால் பாலம் கட்டும் பணி தற்போது நிறுத்தப்பட்டு உள்ளது. </p><p>
</p><p>
குமுறல் </p><p>
</p><p>
மேலும் சட்டமன்ற இடைத்தேர்தலுக்காக எம்.பி மற்றும் எம்.எல்.ஏ.வின் தொகுதி வளர்ச்சி
மேம்பாட்டு நிதியில் இருந்து சுமார் 21 லட்ச ரூபாயை வடுக பட்டிக்கு ஒதுக்கிய அ.தி.மு.க. ஆளும்
கட்சியினர் அந்நிதியை வடுகபட்டியில் அ.தி.மு.க. வார்டுகளாக பார்த்து அடிப்படை பணிகளை
செய்ய ஒதுக்கியது. இதனால் வடுகபட்டியின் பிறபகுதிகளில்் இருப்பவர்கள் அ.தி.மு.க.வை விட்டு
தி.மு.க. கூட்டணி வேட்பாளரை வெற்றி பெற வைத்ததால் அ.தி.மு.க. அரசு நம்மை பழிவாங்குகிறது
என குமுறலுடன் பேசி வந்தனர். </p><p>
</p><p>
அ.தி.மு.க. மந்திரி </p><p>
</p><p>
வடுகப்பட்டி பேரூராட்சியில் சுமார் 11 ஆயிரத்து 500 ஓட்டுக்கள் இருக்கிறது. பேரூராட்சி
தேர்தலுக்கு பின்னர் அ.தி.மு.க. அரசு வடுகப்பட்டியை புறக்கணித்ததால் வடுகபட்டி பொது மக்கள்
ஆண்டிப்பட்டி சட்டமன்ற தேர்தலில் அ.தி.மு.க.வுக்கு எதிராக வாக்களிக்க முடிவு செய்தனர்.
இதனால் வடுகபட்டியை தனி கவனத்தில் எடுத்துக் கொண்ட அ.தி.மு.க. அமைச்சர் சண்முக வேலு தலைமையில்
அ.தி.மு.க. முக்கிய பிரமுகர்கள் வடுகபட்டியில் தங்கி தேர்தல் பணி செய்து வருகின்றனர். </p><p>
</p><p>
அமைச்சர் சண்முகவேல வடுகபட்டி சேர்மன் கே.பி.துரைராஜ் வீட்டிற்கு நள்ளிரவு நேரத்தில்
சென்று அ.தி.மு.க.வில் சேரும்படி பல முறை வற்புறுத்தியதாகவும் அதற்கு சேர்மன் துரைராஜ்
மறுத்து விட்டதாக கூறப்படுகிறது. </p><p>
</p><p>
முதல்வர் பேச்சுவார்த்தை </p><p>
</p><p>
இந்நிலையில் நேற்று முன்தினம் (வியாழக்கிழமை) பெரியகுளம் ஒன்றியத்தில் ஜெயலலி தாவுக்கு
ஆதரவு திரட்ட பிரச்சார சுற்றுப்பயணத்தை முதன் மந்திரி பன்னீர்செல்வம் மேற் கொண்டார்.
சுற்றுப்பயணத்தின் போது வடுகபட்டியில் அ.தி.மு.க.வுக்கு ஆதரவு இல்லை என்பது
தெரிவிக்கப்பட்டதாக கூறப்படுகிறது. இதனை தொடர்ந்து சுற்றுப்பயணத்தை முடித்து விட்டு
வடுகபட்டியில் சேர்மன் துரைராஜிடம் போட்டியிட்டு தோல்வி பெற்ற அ.தி.மு.க. பேரூர் செயலர்
ராஜ குரு வீட்டிற்கு முதல்வர் பன்னீர் செல்வம் சென்றார். அங்கிருந்து வடுகபட்டி சேர்மன்
துரைரா ஜின் அண்ணன் முன்னாள் சேர்மன் கே.பி.மணிமாறனை அழைத்து முதல்வர் பன்னீர் செல்வம்
உங்கள் தம்பி வீட்டிற்கு வருகிறேன். உங்கள் தம்பியை சந்திக்க வேண்டும் என சொல்லி
விட்டு நள்ளிரவு சுமார் 1 மணிக்கு முதல்வர் பன்னீர் செல்வம் வடுகபட்டி சேர்மன்
கே.பி.துரைராஜ் வீட்டிற்கு நடந்து சென்றதாக கூறப்படுகிறது. </p><p>
</p><p>
மிரட்டல் </p><p>
</p><p>
தூக்க கலக்கத்தில் எழுந்து வந்த கே.பி.துரைராஜ் முதல்வர் பன்னீர்செல்வம் வீட்டிற்கு
வந்ததை பார்த்ததும் வீட்டில் இருந்த சால்வையை முதல்வருக்கு அணிவித்தாராம். பிறகு முதல்வர்
பன்னீர்செல்வம் சேர்மன் துரைராஜீடம் தி.மு.க. கூட்டணியான எம்.ஜி.ஆர். கழகத்தில்
இருப்பதால் என்ன பயன். நீங்கள் அ.தி.மு.க.வுக்கு வந்தால் உங்களுக்கு என்ன தேவையோ அதை
நிறைவேற்றி தருவோம். இல்லாவிட்டால் அதற்கான பலன் உங்களுக்கு கிடைக்கும் என மிரட்டியதாக
கூறப்படுகிறது.பின்னர் முதல்வர் பன்னீர்செல்வம் ஒரு சால்வையை கொண்டு வர சொல்லி சேர்மன்
கே.பி.துரைராஜுவுக்கு அணிவித்து விட்டு நள்ளிரவு 1.30 மணிக்கு சேர்மன் வீட்டில் இருந்து
புறப்பட்டு சென்றதாக கூறப்படுகிறது. </p><p>
</p><p>
மறுப்பு </p><p>
</p><p>
முதல்வர் பன்னீர்செல்வம், சேர்மன் துரைராஜ் வீட்டிற்கு நள்ளிரவு நேரத்தில் சென்று
சந்தித்த விஷயத்தை கே.பி. துரைராஜ் அ.தி.மு.க.வில் சேர்ந்து விட்டதாக நேற்று
காலையிலேயே வதந்தி வடுகபட்டியில் பரவியது. இதனால் கே.பி.துரைராஜின்் வெற்றிக்காக
அ.தி.மு.க.வை எதிர்த்து தேர்தல் பணி செய்த தொண்டர்கள் கே.பி.துரைராஜை சந்தித்து கேட்ட
போது அவர் அ.தி.மு.க.வில் சேரவில்லை என தொண்டர்களிடம் சமாதானம் கூறினாராம். </p><p>
</p><p>
குடும்பத்தினர் பேட்டி </p><p>
</p><p>
இது குறித்து கேள்வி பட்டதும் நமது நிருபர் வடுகபட்டி சேர்மன் கே.பி.துரைராஜை அவரது வீட்டில்
சந்தித்த போது சேர்மன் துரைராஜ், அவரது மனைவி மற்றும் குடும் பத்தினர் மிகுந்த பயத்தில்
நிருபரிடம் பேசினர். அவர்கள் கூறியதாவது:- </p><p>
</p><p>
பத்திரிக்கை செய்தியில் முதல்வர் எங்கள் வீட்டிற்கு வந்து எங்களை சந்தித்தார் என
செய்தி வௌியிட வேண்டாம். அவர் பெரிய பதவியில் இருக்கிறார். நாங்கள் ஏதாவது
சொன்னால் விபரீதமாகி விடும். நான் முதல்வரை சந்தித்தேன் என்று வேண்டுமானால் எழுதிக்
கொள்ளுங்கள் என அ.தி.மு.க.வினர் மீதுள்ள பயத்தில் கூறி னார். அப்போது அவர்கள்
குடும்பத்தினரும் அவர் நேற்று நள்ளிரவு எங்கள் வீட்டிற்கு முதல்வர் வந்தார்.
அ.தி.மு.க.வில் சேர வற்புறுத்தினார் என்று செய்தி வந்தால் எங்களுக்கு ஆபத்து வரும் என
நடுக்கத்துடன் கூறினர். சேர்மன் துரைராஜ் நான் தொழில் செய்கிறேன். என்னுடைய தொழிலுக்கு
இடைஞ்சல் ஏதும் வந்து விட கூடாது எனவே முதல்வர் நேற்று எங்கள் வீட்டிற்கு வந்ததை
செய்தியில் வௌியிட்டு விடாதீர்கள் என கேட்டுக் கொண்டார். </p><p>
</p><p>
மேலும் எம்.ஜி.ஆர். கழகத்தை சேர்ந்த கே.பி.துரைராஜ் தினகரன் நாளிதழுக்கு கொடுத்துள்ள
கடிதத்தில் கூறியிருப்பதாவது:- </p><p>
</p><p>
முதல்வரை மரியாதை நிமித்தமாக சந்தித்து வடுகபட்டி வளம் பெற மக்கள் அடிப்படைகள் செய்ய
அதிக நிதி ஒதுக்கும் படி கேட்டுக் கொண்டேன். நான் எம்.ஜி.ஆரின் விசுவாசி. எம்.ஜி.ஆர்.
கழகத்தில் (ஆர்.எம். வீரப்பன் கட்சி) தான் செயல்பட்டுக் கொண்டிருக்கிறேன். </p><p>
</p><p>
இவ்வாறு அவர் கடிதத்தில் எழுதியுள்ளார். </p><p>
</p><p>
முதல்வர் பன்னீர்செல்வமே வீடு தேடி வந்து சேர்மன் துரைராஜை அ.தி.மு.க.வில் சேரும் படி
வற்புறுத்தியால் எந்த நேரத்தில் என்ன நடக்குமோ என்ற பயத்தில் சேர்மன் துரைராஜ்
குடும்பத்தினர் இருந்து வருகின்றனர். </p><p>
</p><p>
தி.மு.க.. போராட்டம் </p><p>
</p><p>
வடுகபட்டியில் அ.தி.மு.க.வினர் தி.மு.க.வினரை விலைக்கு வாங்கும் முயற்சியில் ஈடு பட்டு
அதன் உச்ச கட்டமாக தி.மு.க. கூட்டணி கட்சி சேர்மன் துரைராஜை அ.தி.மு.க.வுக்கு இழுக்க
அ.தி.மு.க. செய்யும் முயற்சிகளுக்கு எதிராக போராட்டம் நடத்த வடுகபட்டி பேரூர் தி.மு.க.
முடிவு செய்து உள்ளது. இது குறித்து வடுகபட்டி பேரூர் கிளை தி.மு.க. செயலர் க.வைரமுத்து
வௌியிட்டுள்ள அறிக்கையில் கூறி இருப்பதாவது:- </p><p>
</p><p>
வடுகபட்டியில் கடந்த மூன்று மாதங்களுக்கு முன்பு நடந்த உள்ளாட்சி மன்ற தேர்தலில் தி.மு.க.
கூட்டணி சார்பில் எம்.ஜி.ஆர். கழக வேட்பாளராக உதயசூரியன் சின்னத்தில் போட்டியிட்டு
பேரூராட்சி தலைவராக தேர்ந்தெடுக்கப்பட்ட கே.பி.துரைராஜ் அவர்களை ஆண்டிபட்டி சட்டமன்ற
இடைத்தேர்தலில் ஜெயலலிதா வுக்கு ஆதரவு அதிகரிக்க வேண்டும் என கடந்த ஒரு வார காலமாக
வடுகபட்டியில் தங்கி இருந்்த அ.தி.மு.க. மந்திரி சண்முகவேலு மற்றும் அ.தி.மு.கவினர்
சேர்மனை அ.தி.மு.க.வில் சேரும்படி நள்ளிரவு நேரங்களில் சேர்மன் வீட்டிற்கு சென்று அவருக்கு
தொல்லை கொடுத்து வந்தனர். ஆனால் அவர் அ.தி.மு.க.வில் சேர விரும்பவில்லை. இதை
என்னிடம் சொல்லி சேர்மன் வருத்தப்பட்டார். </p><p>
</p><p>
நள்ளிரவில் சென்றார் </p><p>
</p><p>
இதன் உச்சகட்டமாக நேற்று முன்தினம் வியாழக்கிழமை முதல்வர் பன்னீர் செல்வம்
ஜெயலலிதாவுக்கு பிரச்சாரம் செய்து விட்டு நள்ளிரவு 12.30 மணிக்கு வடுகபட்டியில் உள்ள
முன்னாள் சேர்மன் கே.பி.மணி மாறன் வீட்டிற்கு வந்திருக்கிறார். பின்னர் மணிமாறனின்
தம்பியும் பேரூராட்சி சேர்மனு மான கே.பி.துரைராஜ் வீட்டிற்கு நள்ளிரவு 1 மணிக்கு சென்று
கே.பி.துரைராஜை அ.தி.மு.க.வில் சேரும்படி வற்புறுத்தி உள்ளார். அ.தி.மு.க. விற்கு
வரவில்லை என்றால் பல தொல்லைகளுக்கு ஆளாக நேரிடும் என மிரட்டி உள்ளார். வடுகபட்டியில்
இந்த நிலை நீடித்தால் தி.மு.க. தலைமை கழக அனுமதியுடன் வடுகபட்டி பேரூர் தி.மு.கழகம்
மாபெரும் போராட்டத்தை அ.தி.மு.க.விற்கு எதிராக நடத்தும். </p><p>
</p><p>
இவ்வாறு வடுகபட்டி பேரூர் தி.மு.க. செயலாளர் வைரமுத்து அறிக்கையில் கூறி உள்ளார். </p><p>
</p><p>
எம்.ஜி.ஆர். கழகம் கண்டனம் </p><p>
</p><p>
தி.மு.க. கூட்டணியில் இருக்கும் கே.பி.துரைராஜை நள்ளிரவு நேரத்தில் அவரது வீட்டிற்கு
முதல்வர் பன்னீர் செல்வம் சென்று சந்தித்து அ.தி.மு.க.வில் சேர வற்புறுத்தியதற்கு
பெரியகுளம் ஒன்றிய மற்றும் வடுகபட்டி பேரூர் கிளை எம்.ஜி.ஆர்.கழக செயலாளர்கள்
பி.சென்றாய பெருமாள் மற்றும் ஆர்.பெத்துராஜ் ஆகி யோர் கண்டன அறிக்கை
வௌியிட்டுள்ளனர். அவர்களது அறிக்கையில் கூறியிருப்ப தாவது:- </p><p>
</p><p>
வடுகபட்டியில் சேர்மனாக இருக்கும் எங்கள் எம்.ஜி.ஆர். கழகத்தை சேர்ந்த கே.பி.துரை ராஜ்
அவர்களை அ.தி.மு. க.வினர். கெட்ட எண்ணத் தோடு அ.தி.மு.க.வில் இணைந்து விட்டார் என
விஷம பிரச்சாரம் செய்து எங்கள் கட்சியை சேர்ந்த வடுகபட்டி சேர்மனை அ.தி.மு.க.வினர்
வேண்டும் என்றே அவமானப்படுத்து கின்றனர். ஆனால் சேர்மன் துரை ராஜ் அ.தி.மு.க.வில்
சேரவில்லை அவர் தொடர்ந்து எம்.ஜி.ஆர். கழக மாநில பொதுக்குழு உறுப்பினராக செயல்பட்டு
வருகிறார். </p><p>
</p><p>
பொய் பிரசாரம் </p><p>
</p><p>
ஆனால் அ.தி.மு.க.வினர் உள்ளூரில் பிரச்சனை உருவாக்க வேண்டும் என்று பொய் பிரச்சாரம்
செய்து வருகிறார்கள். அவர்களின் சதி வேலையை யாரும் நம்ப வேண்டாம் என கேட்டுக் கொள்
கிறோம். </p><p>
</p><p>
இவ்வாறு ஒன்றிய செயலாளர் பெத்துராஜ் மற்றும் பேரூர் செயலர் சென்றாய பெருமாள் ஆகியோர்
அறிக்கையில் கூறி யுள்ளனர். தமிழக முதல்வராக இருக்கும் ஒருவர் நள்ளிரவு நேரத்தில் மாற்று
கட்சியினரை அவர்களது வீட்டில் சந்தித்து அ.தி.மு.க.வில் சேரும்படி வற்புறுத்தி
சென்றிருப்பது ஆண்டிப்பட்டி தொகுதியில் உள்ள பெரியகுளம் ஒன்றியத்தில் பெரும் பரபரப்பாக
பேசப்பட்டு வருகிறது. </p>

<p> </p>

<p> </p>

<p>ஆண்டிப்பட்டி தொகுதியில்,
ஸ்டாலின்-அழகிரி சூறாவளி பிரசாரம், வைகை சேகரைவெற்றி பெற செய்வீர்</p>

<p> </p>

<p>ஆண்டிப்பட்டி, பிப்.9- ஆண்டிப்பட்டி தொகுதியில் தி.மு.க.
வேட்பாளர் வைகை சேகரை ஆதரித்து மு.க. ஸ்டாலின்- மு.க.அழகிரி ஆகியோர் கிராமம்,
கிராமமாக சென்று சூறாவளி பிரசாரம் செய்து வைகைசேகரை வெற்றி பெற செய்வீர் என கேட்டுக்
கொண்டார். </p><p>
</p><p>
ஆண்டிப்பட்டி தொகுதியில் தி.மு.க. வேட்பாளர் வைகை சேகரை வெற்றி பெறச் செய்ய தி.மு.க.
தலைவர்கள் முழு வீச்சில் பிரசாரம் செய்து வருகின்றனர். சென்னை மேயர் மு.க.ஸ்டாலின்
ஆண்டிப்பட்டி தொகுதியில் 2நாட்கள் கிராமம் கிராமமாக சென்று வீதிவீதியாக வாக்கு
சேகரித்தார். பல இடங்களில் திறந்த ஜீப்பில் நின்று வைகை சேகருக்கு ஆதரவாக ஓட்டு
சேகரித்து பேசினார். அவர் பேசியதாவது:- </p><p>
</p><p>
சமீபத்தில் அ.தி.மு.க. அரசு கஜானா காலி என்று கூறி மினி பட்ஜெட் என்ற பெயரில் ரூ.4
ஆயிரம் கோடிக்கு கட்டண உயர்வுகளையும், வரி உயர்வு களையும் அறிவித்தது. மின்
கட்டணத்தில் தொடங்கி பஸ் கட்டணம் வரையில் மக்களை பாதிக்கும் வகையில் அனைத்து
கட்டணங்களையும் உயர்த்தியது. வீண் செலவுகளை குறைக்க போவதாக கூறி அரசு ஊழியர் களின்
சலுகைகளையும் பறித் தது. </p><p>
</p><p>
ஆனால் அரசுக்கு கோடிக்கணக்கான செலவை ஏற்படுத்தக்கூடிய விதத்தில் இங்கு இடைத்தேர்தலை
நடத்துகிறார்கள். இதற்கு ஏற்ற வகையில் அரசு பதில் கூறப்போகிறது. இக் கேள்விக்கு பதில் கூறும்
வகையில் இந்த தேர்தலில் தி.மு.க. வேட்பாளரை வெற்றிபெறச் செய்ய வேண்டும். </p><p>
</p><p>
எந்த அரசும் செய்யாத சாதனைகளை தி.மு.க. அரசு புரிந்தது. ஆனால் தவறான பிரசாரத்தில் 2001
சட்டப் பேரவை தேர்தலில் தி.மு.க. தோற்றது. அரசின் தவறுகளை சுட்டிக்காட்டவும் தட்டிக்
கேட்க வும் தி.மு.க.வையே வெற்றி பெறச் செய்ய வேண்டும். </p><p>
</p><p>
இவ்வாறு அவர் பேசினார். </p><p>
</p><p>
மு.க.அழகிரி </p><p>
</p><p>
இதேபோல் மு.க.அழகிரியும் மதுரையில் இருந்து தினமும் ஆண்டிப்பட்டி தொகுதிக்கு சென்று வீடு
வீடாக வாக்காளர் களைசந்தித்து வைகைசேகருக்கு ஆதரவு திரட்டி ஓட்டு சேகரித்து வருகிறார்.
அவர் ஆண்டிப் பட்டி தொகுதியில் மறவர்பட்டி, மணியக்காரம்பட்டி ஆகிய ஊர் களில் புதுமையான
பிரசாரத்தில் ஈடுபட்டு வாக்காளர்களை உற்சாகப்படுத்தினார். </p><p>
</p><p>
அவர் நடத்திய பிரசார கூட்டங்களில் கூடியிருந்த மக்களை பார்த்து கேள்விகளை கேட்டு
பிரசாரம் செய்தார். அவர் அரசு மருத்துவமனைகளில் தற்போது எவ்வளவு கட்டணம்
வாங்குகிறார்கள், இலவச வேட்டி, சேலை இந்த ஆண்டு உங்களுக்கு தரப்பட்டதா? என்பது போன்ற
கேள்விகளை கேட்டார். இதற்கு அங்கு கூடியிருந்த வாக்காளர்கள் அ.தி.மு.க. அரசுக்கு எதிராக
பதில்களை கூறினர். இதன்பின் அழகிரி பேசியதாவது:- </p><p>
</p><p>
தி.மு.க. ஆட்சிக்காலத்தில் அரசு மருத்துவமனைகளில் எந்தவிதமான கட்டணங்களும் வசூலிக்கப்படவில்லை.
இலவச வேட்டி, சேலை முறையாக தொடர்ந்து வழங்கப்பட்டது. இந்த நிலையில் ஜெயலலிதா
இத்தொகுதியில் வெற்றி பெற்று விட்டதால் இதர நலத்திட்டங்களையும் அ.தி.மு.க. அரசு ரத்து
செய்து விடும். </p><p>
</p><p>
எனவே நீங்கள் வைகை சேகரை வெற்றி பெறச்செய்ய உதயசூரியனுக்கு வாக்களியுங்கள். </p><p>
</p><p>
இவ்வாறு அழகிரி பிரசாரம் செய்தார். </p><p>
</p><p>
இந்த பிரசாரம் ஆண்டிப்பட்டி தொகுதியில் அனல்பறக்கும் அளவுக்கு விறு விறுப்பாக அமைந்தது. </p>

<p> </p>

<p> </p>

<p>தேர்தல் விதிமுறை மீறி
நடக்கும், தார்சாலை அமைக்கும் பணி: முதல்வர் பன்னீர் ஒப்புதல், வளர்ச்சி பணிகள்
நடக்கிறதாம்</p>

<p> </p>

<p>மதுரை, பிப்.9- ஆண்டிப்பட்டி தொகுதியில் வளர்ச்சி பணிகள் நடந்து
கொண்டு தான் இருக்கிறது என்று முதல்வர் பன்னீர் செல்வம் பேட்டியில் தெரிவித்துள்ளார். </p><p>
</p><p>
முதல்வர் பன்னீர் செல்வம் ஆண்டிப்பட்டி தொகுதியில் 3 நாட்கள் தேர்தல் பிரசாரம் முடித்து
கொண்டு நேற்று (வௌ்ளி) மதியம் மதுரை வந்து இங்கிருந்து விமானத்தில் சென் னைக்கு புறப்பட்டு
சென்றார். மதுரை விமான நிலையத்தில் நிருபர்களுக்கு பேட்டி அளித் தார். அதன் விவரம்
வருமாறு:- </p><p>
</p><p>
கேள்வி:- ஆண்டிப்பட்டி தொகுதி நிலைமை எப்படி உள்ளது? </p><p>
</p><p>
பதில்:- ஆண்டிப்பட்டி தொகுதி அம்மா கோட்டை. என்னுடைய பிரசாரத்தின் போது அம்மா
(ஜெயலலிதா) எப்போது வருவார் என்று மக்கள் மிகுந்த ஆர்வத்துடன் எதிர்பார்த்து இருப்பதை
கண்டேன். ஜெயலலிதா வெற்றி என்பது முடிவு செய்யப்பட்டது தான். ஒரு லட்சம் ஓட்டு
வித்தியாசத்தில் ஜெயிப்பார். </p><p>
</p><p>
தேர்தல் விதி மீறலா? </p><p>
</p><p>
கேள்வி:- ஆண்டிப்பட்டி தொகுதியில் தேர்தல் விதிமுறைகளை அ.தி.மு.க. மீறி வருவதாக புகார்
கூறப்படுகிறதே? </p><p>
</p><p>
பதில்:- தேர்தல் விதிமுறை களை நான் உள்பட அ.தி.மு.க. பொறுப்பாளர்கள் யாரும்
மீறவில்லை. தேர்தல் விதிமுறை களை மதித்து நடக்கிறோம். என்னுடைய பிரசாரத்தில் எனது
காருடன் பாதுகாப்புக்கு வந்த கார்கள் தவிர வேறு வாகனங்கள் வரவில்லை. ஆனால் தி.மு.க.
பிரசாரத்தில் தான் ஐம்பது, அறுபது கார்கள் வந்தன. இது பற்றி தி.மு.க.வினரிடம் கேட்டால்
அப்படித்தான் தேர்தல் விதிமுறைகளை மீறுவோம் என்று கூறுகிறார்கள். இதன் மூலம் தேர்தல்
நடைபெறாமல் ரத்து செய்யட்டும் என்று நினைக்கிறார்கள். சட்டம் ஒழுங்கு பிரச்சினையை
உருவாக்கி தேர்தலை தடுத்து நிறுத்த தி.மு.க. சதி செய்கிறது. </p><p>
</p><p>
ஸ்டாலின் பிரசாரத்தை </p><p>
</p><p>
தடுத்தேனா? </p><p>
</p><p>
கேள்வி:- மு.க.ஸ்டாலின் பிரசாரத்திற்கு முன்கூட்டி அதே கிராமங்களுக்கு நீங்கள் சென்று
காலதாமதம் செய்து போலீஸ் மூலம் தி.மு.க. பிர சாரத்தை தடுத்ததாக கூறப்படுகிறதே? </p><p>
</p><p>
பதில்:- அது எந்த வகையிலும் உண்மை இல்லை. </p><p>
</p><p>
ஒப்புதல் </p><p>
</p><p>
கேள்வி:- தேர்தலுக்கு இன்னும் 12 நாட்களே உள்ள நிலையிலும் தேர்தல் விதிகளை மீறி
ஆண்டிப்பட்டி தொகுதியில் அரசு செலவில் தார்சாலைகள் இன்னும் அமைக்கப்பட்டு வருகிறதே? </p><p>
</p><p>
பதில்:- ஏற்கனவே ஜெயலலிதா முதலமைச்சராக இருக்கும் போதே அடிப்படை வசதி களுக்காக
ஒதுக்கப்பட்ட நிதியில் இருந்து அந்த வேலைகள் நடை பெறுகிறது. தேர்தலுக்காக எந்த பணியும்
மேற்கௌ்ளவில்லை. </p><p>
</p><p>
வீட்டுக்கு வீடு அரிசியா? </p><p>
</p><p>
கேள்வி:- ஆண்டிப்பட்டி தொகுதியில் ஜெயலலிதாவுக்கு ஓட்டு வாங்குவதற்காக வீட்டுக்கு வீடு ஒரு
மூட்டை அரிசி வழங்கப்படுவதாக வைகோ புகார் கூறி உள்ளாரா? </p><p>
</p><p>
பதில்:- அது நடைமுறைக்கு சாத்தியமானதா? வீட்டுக்கு ஒரு மூட்டை அரிசி கொடுக்க முடியுமா?
அது பொய்யான குற்றச் சாட்டு. யாருக்கு எங்கே ஒரு மூட்டை அரிசி கொடுக்கப்பட்டது என்று
வைகோவிடமே கேட்டு தெரிவிக்கும்படி தேர்தல் பார்வையாளரிடம் கூறி உள்ளோம். </p><p>
</p><p>
கேள்வி:- தேர்தல் பிரசாரத்திற்கு தி.மு.க.வினர் அதிக கார்களில் வந்ததாக கூறுகிறீர்கள்.
இது பற்றி தேர்்தல் கமிஷனிடம் புகார் கூறுவீர்களா? </p><p>
</p><p>
பதில்:- காவல்துறையினரும் தேர்தல் கமிஷன் அதிகாரிகளும் பார்த்து நடவடிக்கை எடுக்க கேட்டு
உள்ளோம். </p><p>
</p><p>
அரசியல் மாற்றமா? </p><p>
</p><p>
கேள்வி:- ஆண்டிப்பட்டி தேர்தல் முடிந்ததும் அரசியல் மாற்றம் ஏற்படும் என்கிறார் களே? </p><p>
</p><p>
பதில்:- அரசியல் மாற்றம் எதுவும் இல்லை. தமிழகத்தில் 9 மாதத்திற்கு முன் தேர்தல்
நடைபெற்ற போது ஜெயலலிதா முதல்வராக வேண்டும் என்பதற்காகதான் மக்கள் வாக்களித்தார்கள்.
ஆண்டிப்பட்டி தேர்தல் முடிவு மீண்டும் அதை நிரூபிக்கும் வகையில் இருக்கும். </p><p>
</p><p>
இலவச மின்சாரம் ரத்தா? </p><p>
</p><p>
கேள்வி:- ஆண்டிப்பட்டி தேர்தல் முடிந்ததும் விவசாயிகளின் பம்பு செட்டுக்கு இலவச மின்சாரம்
ரத்து செய்யப்படும். அதற்கு முன் ஏற்பாடாக இப்போதே மீட்டர் பொருத்தப்படுகிறது என்று
கூறுகிறார்களே? </p><p>
</p><p>
பதில்:- தற்சமயம் எந்த நடவடிக்கையும் இல்லை. </p><p>
</p><p>
வௌ்ளப் பகுதி </p><p>
</p><p>
கேள்வி:- தஞ்சை பகுதியில் வௌ்ளம் பாதித்து நெற்பயிர் மூழ்கி கிடக்கும் போது அதை
பார்வையிட முதலமைச்சர் போகாமல் ஆண்டிப்பட்டி தொகுதி தேர்தல் பிரசாரத் துக்கு போய்
விட்டதாக தி.மு.க. தலைவர் கருணாநிதி கூறி உள்ளாரா? </p><p>
</p><p>
பதில்:- வௌ்ளம் பாதித்த பகுதிகளுக்கு அரசு சார்பாக அமைச்சர்கள் வைத்தியலிங்கம்
ஜீவானந்தம் சென்று பார்வையிட்டு இருக்கிறார்கள். அந்த மாவட்டங்களின் கலெக்டர்கள்
வௌ்ள பாதிப்பு குறித்து அரசுக்கு அறிக்கை கொடுப்பார்கள். அதை அரசு பரிசீலித்து நிவாரணம்
வழங்கப்படும். </p><p>
</p><p>
இவ்வாறு பதில் அளித்தார். </p><p>
</p><p>
மு.க.ஸ்டாலின்-முதல்வர் பன்னீர் ஒரே விமானத்தில் பயணம் </p><p>
</p><p>
மதுரை, பிப்.9- ஆண்டிப்பட்டி தொகுதியில் தி.மு.க. இளைஞர் அணி செயலாளரும், சென்னை
மேயருமான மு.க.ஸ்டாலின் 2 நாட்கள் பிரசாரம் மேற்கொண்டார். முதல்வர் பன்னீர்செல்வம் 2
நாட்கள் மு.க.ஸ்டாலின் பிரசாரம் செய்த கிராமங்களிலேயே அவருக்கு முன்கூட்டி சென்று
பிரசாரம் செய்தார். ஊருக்கு ஊர் ஸ்டாலின் பிரசாரத்தை தாமதப்படுத்தி முடக்கும் வகையில்
முதல்வர் பன்னீர் பிரசாரம் செய்து போலீஸ் மூலம் தடை உருவாக்கியது 2 நாட்களாக பரபரப்பாக
இருந்தது. பிரசாரம் முடிந்து முதல் வர் பன்னீர் நேற்று மதியம் ஆண்டிப்பட்டி தொகுதியில்
இருந்து மதுரை விமான நிலையத்திற்கு வந்து விமானத்தில் சென் னைக்கு புறப்பட்டு சென்றார்.
மு.க.ஸ்டாலின் ஆண்டிப்பட்டி பிரசாரம் முடிந்து அதே விமானத்தில் மதுரையில் இருந்து சென்னை
சென்றார். அவரை விமான நிலையத்தில் மதுரை மேயர் செ.ராமச்சந்திரன், மாவட்ட தி.மு.க.
செயலாளர்கள் வ.வேலுச்சாமி, கோ.தளபதி, சாத்தூர் ராமச்சந்திரன், பெரியகருப்பன், மண்டல
தலைவர் சுப.தங்கவேலன், மாநகர் மாவட்ட இளைஞர் அணி அமைப்பாளர் ஒச்சுபாலு மற்றும்
பெரும் திரளான தி.மு.க.வினர் வழியனுப்பி வைத்தனர். </p><p>
</p><p>
முதல்வர் பன்னீரை வழியனுப்பி வைக்க மதுரை விமான நிலையத்தில் மந்திரிகள், அதி.மு.க.
நிர்வாகிகள் யாரும் வரவில்லை. ஆண்டிப்பட்டியில் இருந்து காரில் தன்னந்தனியாக வந்தார்.
பாதுகாப்பு அதிகாரிகள் மட்டுமே வந்தார்கள். விமான நிலையத்தில் முன்னாள் எம்.எல்.ஏ.
முத்துராமலிங்கம் மட்டும் ஒரு சால்வையுடன் நின்றார். முதல்வர் கார் நேராக விமான
தளத்திற்கு சென்று விட்டது. அங்கிருந்து ஓய்வு அறைக்கு வந்தார். மதியம் சாப்பாடு
சாப்பிட்டார். பிறகு வழியனுப்ப வந்த முத்துராமலிங்கத்தை உள்ளே போலீசார் அனுமதித்தனர்.
அப்போது 2 பேர் ஓடி வந்து நாங்களும் வழியனுப்ப வந்து இருக்கிறோம். சால்வை இல்லை
என்றனர். வேறு யாரும் இருக்கிறார்களா? என்று போலீஸ் அதிகாரிகள் கேட்டனர். 2 பேர்
மட்டும்தான் என்று பதில் வந்தது. அவர்களில் ஒருவரை மட்டும் உள்ளே போலீசார்
அனுமதித்தனர். இன்னொருவரை அனுமதிக்கவில்லை. </p>

<p> </p>

<p> </p>

<p>ஒரே விமானத்தில் சென்னை
திரும்பினர்: பன்னீர் செல்வம் புகாருக்கு ஸ்டாலின் பதில், தேர்தலை தள்ளிப்போடும்
எண்ணம் தி.மு.க.வுக்கு இல்லை</p>

<p> </p>

<p>மீனம்பாக்கம், பிப். 9- ஆண்டிப்பட்டி தேர்தல் பிரசாரத்தில்
பங்கேற்று விட்டு பன்னீர்செல்வமும், மு.க.ஸ்டாலினும் ஒரே விமானத்தில் நேற்று சென்னை
வந்தனர். தேர்தலை தள்ளிப்போடும் எண்ணம் தி.மு.க.வுக்கு ஒரு போதும் கிடையாது என
ஸ்டாலின் கூறினார். </p><p>
</p><p>
ஆண்டிப்பட்டியில் தேர்தல் பிரசாரத்தில் பங்கேற்று விட்டு முதல்வர் பன்னீர் செல்வமும்,
சென்னை மேயர் மு.க.ஸ்டாலினும் ஒரே விமானத்தில் நேற்று மதியம் 2.45 மணிக்கு சென்னை
வந்தனர். </p><p>
</p><p>
விமான நிலைய சிறப்பு வழியில் வௌியே வந்த முதலமைச்சர் பன்னீர் செல்வம் நிருபர்களிடம்
கூறியதாவது:- </p><p>
</p><p>
ஆண்டிப்பட்டி மக்கள் ஜெயலலிதாவை முதலவர் ஆக்கியே தீருவோம் என்ற உறுதியுடன்
இருக்கிறார்கள். ஒரு லட்சத்துக்கு மேல் அதிக வாக்குகள் பெற்று ஜெயலலிதா வெற்றி பெறுவார்.
தி.மு.க.வினர் எந்த வகையிலாவது தேர்தல் நிறுத்த பார்க்கின்றனர். </p><p>
</p><p>
இவ்வாறு அவர் கூறினார். </p><p>
</p><p>
ஸ்டாலின் பதில் </p><p>
</p><p>
பொது வழியாக வௌியே வந்த மேயர் மு.க.ஸ்டாலின் அளித்த பேட்டி வருமாறு:- </p><p>
</p><p>
ஆண்டிப்பட்டி தொகுதி தேர்தலை பொறுத்த வரை தேர்தல் விதிகளுக்கு உட்பட்டு, தேர்தல்
நடந்தால் தி.மு.க. மாபெரும் வெற்றி பெறும். தேர்தலை கண்டு பயப்படும் இயக்கம் தி.மு.க.
அல்ல. </p><p>
</p><p>
அங்கு நியாயமான முறையில் தேர்தல் நடைபெற வேண்டும் என்பதற்காக தி.மு.க. சட்டப்பூர்வமான
நடவடிக்கை எடுத்து வருகிறது. மற்றபடி தேர்தலை தள்ளிப்போட வேண்டும் என்ற எண்ணம்
தி.மு.க.வுக்கு ஒருபோதும் கிடையாது. </p><p>
</p><p>
இவ்வாறு அவர் கூறினார். </p>

<p> </p>

<p> </p>

<p>பர்கூரை போல், ஆண்டிப்பட்டிக்கு
ஜெ. எதுவும் செய்ய மாட்டார், வைகோ பிரசாரம்</p>

<p> </p>

<p>ஆண்டிப்பட்டி, பிப்.9- பர்கூரில் ஜெயித்த பின்பு ஜெயலலிதா அந்த
தொகுதிக்கு என்ன செய்தார்? அது போல் ஆண்டிப்பட்டி தொகுதியில் வெற்றி பெற்ற பின்னர்
எதுவும் செய்ய மாட்டார் என வைகோ கூறி உள்ளார். </p><p>
</p><p>
ஆண்டிப்பட்டி தொகுதியில் உள்ள புள்ளிமான் கோம்பையில் ம.தி.மு.க. வேட்பாளர்
ஜெயச்சந்திரனை ஆதரித்து ம.தி.மு.க. பொதுச் செயலாளர் வைகோ பேசினார். அப்போது அவர்
பேசியதாவது:- </p><p>
</p><p>
புள்ளிமான் கோம்பைக்கு ஊராட்சி தலைவராக இருந்த தவசி என்பவர் சிறப்பாக பணியாற்றி
வளர்ச்சி திட்டப் பணிகளை செய்தவர். அவருக்கு ஒரு சோதனை வந்தால் ம.தி.மு.க.வே பின்னால்
நிற்கும். மிரட்டலுக்கு அஞ்ச மாட்டோம். இன்று ஆண்டிப்பட்டி தேர்த லில் நாங்கள்
நிராயுதபாணியாக நிற்கிறோம். பணபலம், அதிகார பலம் மிகுந்த கட்சிகள்
போட்டியிடுகின்றது. எம்.ஜி. ஆரின் வழியில் நீதியும் நேர்மையும் கொண்டு கட்சி நடத்துகிறோம்.
எல்லா தரப்பினர் ஆதரவும் எங்களுக்கு உண்டு. </p><p>
</p><p>
ஆண்டிப்பட்டியை அரசியல் தலைவர்கள் முற்றுகையிட்டு வருகின்றனர். முதல்வர் வருகிறார்.
இனிமேல் முதல்வராகப் போற அம்மையார் வருகிறார். தி.மு.க. அமைச்சர்கள், தலைவர்கள்
வருகிறார்கள். ஆண்டிப்பட்டி தொகுதி முக்கியத்துவம் வாய்ந்த தொகுதியாக உள்ளது. </p><p>
</p><p>
இன்று போட்டியிடும் ஜெயலலிதா பர்கூரில் போட்டியிட்டார். அங்கு வெற்றி பெற்ற பின்னர்
அந்த தொகுதிக்கு ஏதும் செய்தாரா? இல்லையே. இன்றைக்கு ஏழை எளிய மக்கள் மனதில்
எம்.ஜி.ஆர். என்கிற தீபம் எரிந்து கொண்டு இருக்கிறது. கடை ஏழு வள்ளல்களில் ஒருவர்
போன்றவர் எம்.ஜி.ஆர். அதைப் போல் அ.தி.மு.க.வில் உள்ள தொண்டர்கள் நல்ல
தொண்டர்கள் உள்ளனர். </p><p>
</p><p>
கட்டண உயர்வு </p><p>
</p><p>
ஆனால் 8 மாத அரசு பஸ் கட்டணத்தை உயர்த்தி உள்ளது. டீசல் விலை உயர்ந்து உள்ளதா?
இல்லையே. மின் கட்டணத்தை உயர்த்தி ஏழைகளின் வயிற்றில் அடித்து உள்ளார்கள். இலவச
வேட்டி - சேலைகள் வழங்கப்பட வில்லை. யூரியா விலை ஏற்றி விவசாயிகள் வயிற்றில் அடித்து
உள்ளனர். </p><p>
</p><p>
நோயாளிகளுக்கு இலவசமாக சிகிச்சை கிடைப்பதே அரிது. இந்த நிலையில் நோயாளிகளை
பார்க்கச் செல்லும் உறவினர்களுக்கு கட்டணம். இதெல்லாம் நியாயமா? எம்.ஜி.ஆர்.
இருந்தால் இது நடக்குமா? </p><p>
</p><p>
திருப்பு முனை </p><p>
</p><p>
தி.மு.க.விற்கு 28 எம்.எல்.ஏ. சட்டசபையில் உள்ளனர். ம.தி.மு.க.வுக்கு ஒரு பிரதிநிதி கூட
இல்லை. தவசி எப்படி இந்த பகுதியில் உங்களுக்கு திட்டப் பணிகள் செய்தாரோ அதைப் போல்
குமரிமுனையில் இருந்து சென்னை வரை உள்ள தொண்டர்கள் ஆண்டிப்பட்டி தொகுதிக்காக
செய்வார்கள். எம்.ஜி.ஆருக்கு திண்டுக்கல் தொகுதி எப்படி திருப்புமுனையாக இருந்ததோ அதைப்
போல் ஆண்டிப்பட்டியில் ம.தி.மு.க.வுக்கு திருப்பு முனை ஏற்படுத்தி தாருங்கள். </p><p>
</p><p>
ஊழலாட்சி </p><p>
</p><p>
91 முதல் 96 வரை ஊழலாட்சி நடைபெற்றது. தி.மு.க. - அ.தி.மு.க. இரண்டு கட்சிகளும் மாறி,
மாறி ஆட்சி செய்து வருகின்றன. எனவே எங்களுக்கு ஒரு வாய்ப்பு தாருங்கள். ஜெயச்சந்திரனுக்கு
பம்பரம் சின்னத்தில் வாக்களியுங்கள். </p><p>
</p><p>
இவ்வாறு அவர் பேசினார். </p><p>
</p><p>
வைகோவுடன் வேட்பாளர் ஜெயச்சந்திரன், மாவட்ட செயலாளர் கம்பம் ராமகிருஷ்ணன்,
மாப்பிள்ளை நாயக்கர், தேர்தல் பணிக்குழு செயலாளர் நாமக்கல் பழனிச்சாமி, டி.கே.
சுப்பிரமணியன், சின்னச்சாமி, தவசி ஆகியோர் சென்றனர். </p>

<p> </p>

<p> </p>

<p>அமிதாப்பச்சன்-
ஹேமமாலினிக்கு போட்டியாக, பிரபல இந்தி நடிகர் கோவிந்தாதேர்தல் களத்தில் குதித்தார்,
காங்கிரசை ஆதரித்து பிரசாரம்</p>

<p> </p>

<p>மும்பை,பிப்.9- பிரபல இந்தி நடிகர் கோவிந்தா தேர்தல் களத்தில்
குதித்தார். அமிதாப்பச்சன், ஹேமமாலினி ஆகியோருக்கு போட்டியாக கோவிந்தா காங்கிரசை
ஆதரித்து பிரசாரம் செய்தார். </p><p>
</p><p>
வடக்கே 4 மாநிலங்களில் தேர்தல் நடைபெற்றாலும் உத்திரபிரதேசத்தில்தான் தேர்தல்
பிரசாரம் பரபரப்பாக நடந்து கொண்டிருக்கிறது. ஏற்கனவே முலாயம்சிங்கினுடைய சமாஜ்வாடி
கட்சியை ஆதரித்து இந்தி சினிமா சூப்பர்ஸ்டார் அமிதாப்பச்சன் பிரசாரம் செய்து
வருகிறார். அவருடைய மனைவி முன்னாள் நடிகை ஜெயபாதுரியும் அமிதாப் பச்சனுடன் சென்று
பிரசாரத் தில் ஈடுபட்டுள்ளார். </p><p>
</p><p>
இந்த தேர்தலில் இந்தி சினிமா பட்டாளமே ஒரு கலக்கு கலக்க இருக்கிறார்கள். பாரதிய
ஜனதாவுக்கு ஆதரவாக விரைவில் நடிகை ஹேமமாலினி, நடிகர்கள் சத்ருகன்சின்ஹா, வினோத்கன்னா
ஆகியோர் பிரசாரத்துக்கு வர இருப்பதாக அறிவிக்கப்பட்டிருக்கிறது. இந்த
நடிகர்-நடிகையெல்லாம் ரிடையர்டு ஆனவர்கள். அதாவது முந்தின தலைமுறை நட்சத்திரங்கள். </p><p>
</p><p>
ஹீரோ கோவிந்தா </p><p>
</p><p>
ஆனால் இவர்களை யெல்லாம் தூக்கி சாப்பிடக் கூடிய வகையில் காங்கிரஸ் இன்றைய முன்னணி
ஹீரோக்களில் ஒருவரான நடிகர் கோவிந்தாவை தேர்தல் களத்தில் இறக்கி விட்டிருக்கிறது.
அவர் மாதுரிதீட்சித், கரீனாகபூர் போன்ற இளம் கதாநாயகிகளுடன் ஜோடி சேர்ந்து
நடித்துக்கொண்டிருக்கும் ஹீரோ என்பதால் கோவிந்தா வின் பிரசாரத்தில் கூட்டம்
அலைமோதியது. </p><p>
</p><p>
நேற்று நடிகர் கோவிந்தா முதல்கட்டமாக மும்பை மாநகராட்சி தேர்தலில் தனது பிரசாரத்தை
தொடங்கினார். அவர் திறந்த ஜீப்பில் சென்று காங்கிரசை ஆதரித்து ஓட்டு வேட்டையாடினார்.
மும்பை நகரின் முக்கிய பகுதிகளுக்கு அவர் சென்று 2 மணி நேரம் பிரசாரம் செய்தார். அப்போது
பொதுமக்களுடன் நடிகர் கோவிந்தா கைகுலுக்கினார். ஆட்டோகிராபில் கையெழுத்து போட்டு
கொடுத்தார். ரசிகர்களுக்கு பறக்கும் முத்தம் (பிளையிங்கிஸ்) அள்ளி வழங்கினார். </p><p>
</p><p>
சூடு பிடித்தது </p><p>
</p><p>
அடுத்தகட்டமாக நடிகர் கோவிந்தா உத்திரப்பிரதேச மாநில தேர்தலில் பிரசாரம் செய்ய உள்ளார்.
இதுவரை அங்கே நடிகர் அமிதாப்பச்சன் பிரசாரத்தில் இறங்கி விட்டார். அவருக்கு போட்டியாக
இப்போது கோவிந்தாவும் களத்தில் குதிக்கிறார். சபாஷ் சரியான போட்டிஎன்று அம்மாநில
மக்கள் ரசித்து கொண்டிருக்கிறார்கள். </p><p>
</p><p>
நடிகர் கோவிந்தாவை வைத்து உ.பி. மாநிலத்தின் முக்கிய நகரங்களில் காங்கிரஸ் சார்பாக
பல கட்சி பிரசார கலைநிகழ்ச்சிகள் நடத்தப்பட உள்ளன. இதற்காக அவருடன் காண்டிராக்ட்
போட்டி ருக்கிறோம் என்று காங்கிரஸ் தலைவர் ஒருவர் கூறினார். </p><p>
</p><p>
சோனியாவை கவர்ந்தார் </p><p>
</p><p>
நடிகர் கோவிந்தா எப்படி காங்கிரஸ் தலைவி சோனி யாவை கவர்ந்தார் என்பது சுவாரஸ்யமானது.
கடந்த ஆண்டு மும்பையில் ராஜீவ்காந்தி சிலைதிறப்பு விழா நடைபெற்றது. சிலையை
சோனியாகாந்தி திறந்து வைத்தார். இந்நிகழ்ச்சியில் கோவிந்தாவும்கலந்து கொண்டார்.
மேடையில் காமெடியாக பேசி கூட்டத் தினரிடம் கலகலப்பூட்டினார். அவர் சினிமாவில் தமாஷாக
நடிப்பார். அதேபோல மேடையிலும் செய்து காட்டி அனைவரையும் சிரிக்க வைத்தார். அப்போதே
கோவிந் தாவை காங்கிரஸ் மேடையில் பயன்படுத்திக்கொள்ள சோனியா முடிவெடுத்து விட்டார்
என்று சொல்லப் படுகிறது. </p><p>
</p><p>
எப்படியோ உ.பி. தேர்தல்களம் சினிமா நட்சத்திரங்களால் ஆக்கிரமிக்கப்பட்டுள்ளது. நடிகர்
கோவிந்தா மீது காங்கிரஸ்காரர்கள் ரொம்ப நம்பிக்கை வைத்திருக்கிறார்கள்.
அமிதாப்பச்சன் ஏற்படுத்தி உள்ள சினிமா கவர்ச்சி அலையை நிச்சயம் கோவிந்தா
சமாளிப்பார் என்று அடித்து சொல்்லுகிறார்கள். </p>

<p> </p>

<p> </p>

<p>சட்லஜ்-யமுனை விவகாரம்:
பஞ்சாப் முதல்வருக்கு நோட்டீசு அனுப்ப சுப்ரீம் கோர்ட்டு மறுப்பு</p>

<p> </p>

<p>புதுடெல்லி, பிப்.9- பஞ்சாப் மாநிலத்தில் ஆளும் அகாலி தள்
கட்சி முதல்வர் பிரகாஷ் சிங் பாதல் சில தினங்களுக்கு முன் தேர்தல் பிரசாரம் செய்த
போது, சட்லஜ் நதியை யமுனை நதியுடன் இணைக்க விட மாட்டோம், இந்த விவகாரத்தில்
சுப்ரீம் கோர்ட்டு உத்தரவையும் அவசியம் ஏற்பட்டால் மீறுவோம் என்று அறிவித்திருந்தார்.
இது நீதிமன்ற அவமதிப்பு என்றும், அவரிடம் விளக்கம் கேட்டு நோட்டீசு அனுப்ப வேண்டும்
என்றும் சுப்ரீம் கோர்ட்டில் 2 மனுக்கள் தாக்கல் செய்யப்பட்டது. இந்த 2 மனுக்களையும்
நீதிபதிகள் நிராகரித்து விட்டனர். பஞ்சாப் முதல்வருக்கு எதிராக மனு தாக்கல் செய்
தவர்களில் ஒருவர் முன்னாள் தேர்தல் கமிஷனர் சேஷன் ஆவார். மற்றொருவர் அரியானா மாநில
முதல்வர் ஓம் பிரகாஷ் சவுதாலாவின் சகோதரர் பிரதாப் சிங் சவுதாலா ஆவார். </p>

<p> </p>

<p> </p>

<p> </p>

<p>இலங்கை அரசுக்கு திடீர்
நெருக்கடி: 2 தமிழ் மந்திரிகள் ராஜினாமா</p>

<p> </p>

<p>கொழும்பு, பிப். 9- இலங்கை அமைச்சரவையில் இருந்து 2 தமிழ்
அமைச்சர்கள் ராஜினாமா செய்தனர். இதையடுத்து ரனில் விக்ரமசிங்கே அரசுக்கு பெரும் நெருக்கடி
ஏற்பட்டுள்ளது. </p><p>
</p><p>
இலங்கையில் கடந்த ஆண்டு நடந்த தேர்தலில் ஐக்கிய தேசிய கட்சி தலைமை யிலான கூட்டணி
வெற்றி பெற்றது. இதையடுத்து 2 மாதத்துக்கு முன் ரனில் விக்ரமசிங்கே தலைமையில் புதிய அரசு
பதவி ஏற்றது. இதில் தமிழர் கட்சியான இலங்கை தொழிலாளர் காங்கிரஸ் கட்சியும் இடம்
பெற்றது. இந்த கட்சியை சேர்ந்த ஆறுமுகம் தொண்டமான் காபினட் அமைச்சராகவும்,
முத்துசிவலிங்கம் துணை அமைச்சராகவும் பதவி ஏற்றனர். </p><p>
</p><p>
ராஜினாமா </p><p>
</p><p>
அடுத்த மாதம் இலங்கையில் உள்ளாட்சி தேர்தல் நடைபெற உள்ளது. இதில் இலங்கை தொழிலாளர்
காங்கிரசுக்கு அதிக இடங்களை ஒதுக்குவதாக பிரதமர் ரனில் விக்ரமசிங்கே வாக்குறுதி அளித்து
இருந்தார். ஆனால் அந்த கட்சிக்கு கூடுதல் இடங்கள் ஒதுக்கப்படவில்லை. இதையடுத்து
அமைச்சரவையில் இருந்து இலங்கை தொழிலாளர் காங்கிரசை சேர்ந்த 2 அமைச்சர்களும் ராஜினாமா
செய்தனர். இதை யடுத்து ரனில் விக்ரம சிங்கே தலைமையிலான அரசுக்கு நெருக்கடி ஏற்பட்டுள்ளது </p>

<p> </p>






</body></text></cesDoc>