<cesDoc id="tam-w-dinakaran-politics-02-08-22" lang="tam">
<cesHeader type="text">
<fileDesc>
<titleStmt>
<h.title>tam-w-dinakaran-politics-02-08-22.txt</h.title>
<respStmt>
<respType>Electronic file created by</respType>
<respName>Department of Linguistics, Lancaster University</respName>
<respType>text collected by</respType>
<respName>Paul Baker and Celia Worth</respName>
<respType>transferred into Unicode by</respType>
<respName>"Unicodify" software by Andrew Hardie</respName>
</respStmt>
</titleStmt>
<publicationStmt>
<distributor>UCREL</distributor>
<pubAddress>Department of Linguistics, Lancaster University, Lancaster, LA1 4YT, UK</pubAddress>
<availability region="WORLD"></availability>
<pubDate>03-08-24</pubDate>
</publicationStmt>
<sourceDesc>
<biblStruct>
<monogr>
<h.title>"Dinakaran" internet news (www.dinakaran.com), news stories collected on 02-08-22</h.title>
<h.author>Dinakaran</h.author>
<imprint>
<pubPlace>Tamil Nadu, India</pubPlace>
<publisher>Dinakaran</publisher>
<pubDate>02-08-22</pubDate>
</imprint>
</monogr>
</biblStruct>
</sourceDesc>
</fileDesc>
<encodingDesc>
<projectDesc>Text collected for use in the EMILLE project.</projectDesc>
<samplingDesc>Simple written text only has been transcribed. Diagrams, pictures and tables have been omitted and their place marked with a gap element.
</samplingDesc>
<editorialDecl>
<conformance level="1"></conformance>
</editorialDecl>
</encodingDesc>
<profileDesc>
<creation>
<date>03-08-24</date>
</creation>
<langUsage>Tamil</langUsage>
<wsdUsage>
<writingSystem id="ISO/IEC 10646">Universal Multiple-Octet Coded Character Set (UCS).</writingSystem>
</wsdUsage>
<textClass>
<channel mode="w">print</channel>
<constitution type="composite"></constitution>
<domain type="public"></domain>
<factuality type="fact"></factuality>
</textClass>
<translations></translations>
</profileDesc>
<revisionDesc></revisionDesc>
</cesHeader>

<text>
<body>




<p>தமிழகத்தில் காங்கிரஸ்
ஆட்சி: சோனியா கனவு காண்கிறார்: ஜெ. கடும் தாக்கு</p>

<p> </p>

<p>
 
 
  
  
  
  
  
  
  
  
  
  
  
  
 
 
 

 
<gap desc="illustration"></gap></p>

<p>ஜெயலலிதா</p>

<p> </p>

<p>சென்னை, ஆக.22- தமிழகத்தில் காங்கிரஸ் ஆட்சி அமைப்போம் என்று
சோனியா கனவு காண்கிறார் என ஜெயலலிதா கூறினார். </p><p>
</p><p>
சென்னை கோட்டையில் முதல்வர் ஜெயலலிதா அளித்த பேட்டி வருமாறு:- </p><p>
</p><p>
காவிரி ஆணைய கூட்டம் </p><p>
</p><p>
கேள்வி:- காவிரி ஆணைய கூட்டத்தில் கலந்து கொள்வீர்களா? </p><p>
</p><p>
பதில்:- இது உச்சநீதி மன்றத்தின் கட்டளை. எனவே வேறு வழி இல்லை. கூட்டத் தில்
கலந்துகொண்டு நிலை மையை விளக்குவேன். கர்நாடகம் நடுவர்மன்ற தீர்ப்பை அமுல்படுத்த
மறுக்கிறது. தனது அணைகளை நிரப்பிக் கொண்டு உபரி நீரை மட்டுமே திறந்து விடுகிறது. அதையும்
சேமித்து வைக்க முடிந்தால் சேமித்து வைத்துக் கொள்வார்கள். காவிரியை டிரைனேஜ்
(கழிவுநீர் கால்வாய்) போல கர்நாடகம் பயன் படுத்துகிறது. </p><p>
</p><p>
கேள்வி:- காவிரி டெல்டா பகுதிக்கு தண்ணீர் திறந்து விடப்படுமா? </p><p>
</p><p>
பதில்:- நிலைமையை ஆராய்ந்து முடிவு எடுக்கப்படும். </p><p>
</p><p>
கேள்வி:- காவிரி பிரச்சினைக்கு நிரந்தர தீர்வு என்ன? </p><p>
</p><p>
பதில்:- கர்நாடகத்தை சம்மதிக்க செய்து உச்சநீதிமன்றம் தான் நிரந்தர தீர்ப்பு காண
வேண்டும். </p><p>
</p><p>
அழைப்பு வந்தது </p><p>
</p><p>
கேள்வி:- துணை ஜனாதிபதி பதவி ஏற்பு விழாவுக்கு உங்களுக்கு முறைப்படி அழைப்பு
அனுப்பப்பட்டதா? </p><p>
</p><p>
பதில்:- மத்திய அரசின் அணுகுமுறை மாறியிருக்கிறதா? என்பது தெரியவில்லை. செகாவத்
என்னை அன்புடன் அழைத்ததால் சென்றிருந்தேன். எல்லா முதல்வர்களையும் அழைத்தார்களா
என்பதும் தெரியவில்லை. ஜனாதிபதி மாளிகையிலிருந்து முறையான அழைப்பு வந்தது. </p><p>
</p><p>
கேள்வி:- இந்த விசயத்தில் உங்கள் கருத்தை தி.மு.க. தலைவர் ஆதரித்தாரே? </p><p>
</p><p>
பதில்:- இதுவரை அவர்கள் ஆதரித்த ஒரே விசயம் இது தான். இதே போல எல்லாவற்றையும்
ஆதரித்தால் நல்லது. </p><p>
</p><p>
கேள்வி:- எதிர்க்கட்சிகள் எவ்வாறு செயல்பட வேண்டும் என்று கருதுகிறீர்கள்? </p><p>
</p><p>
பதில்:- அரசியல் காரணங்களுக்காக எல்லாவற்றையும் எதிர்க்கக்கூடாது. ஆக்கபூர்வ மான
திட்டங்களை ஆதரிக்க வேண்டும். </p><p>
</p><p>
கேள்வி:- கம்யூனிஸ்டு கட்சிகளும் ஆக்கபூர்வமான திட்டங்களை எதிர்க்கின்றனவா? </p><p>
</p><p>
பதில்:- கம்யூனிஸ்டுகள் மட்டுமல்ல. </p><p>
</p><p>
(கேள்வி கேட்ட ஆங்கில பத்திரிகை நிருபரை பார்த்து நீங்களும் தான் என்றார் ஜெ.) </p><p>
</p><p>
கேள்வி:- பொது விசயங்கள் பற்றி எதிர்க்கட்சிகளை கலந்து ஆலோசிக்கலாம் அல்லவா? </p><p>
</p><p>
பதில்:- எல்லா விசயங்களுக்கும் ஆலோசனை நடத்த முடியாது. </p><p>
</p><p>
சோனியா கனவு </p><p>
</p><p>
கேள்வி:- தமிழ்நாட்டில் திராவிட கட்சிகள் அல்லாத காங்கிரஸ் அரசு அமையும் என்று
சோனியா காந்தி கூறி இருக்கிறாரே? </p><p>
</p><p>
பதில்:- விருப்பமான கனவு காண அவரவருக்கு உரிமை உண்டு. ஜனநாயகத்தில் கனவு காண்பதை யாரும்
தடுக்க முடியாது. </p><p>
</p><p>
கேள்வி:- பாராளுமன்றத் தேர்தலில் அ.தி.மு.க. காங்கிரசுடன் கூட்டு சேருமா? பாரதிய
ஜனதாவுடன் கூட்டு சேருமா? </p><p>
</p><p>
பதில்:- உரிய நேரத்தில் தக்க முடிவு எடுப்பேன். </p><p>
</p><p>
கேள்வி:- ஏற்கனவே ஒரு முறை நீங்கள் கூறும்போது காங்கிரஸ்-பா.ஜ. இடையே சம தூரத்தில்
இருக்கிறோம் என்றீர்களே? </p><p>
</p><p>
பதில்:- இப்போதும் அப்படித்தான் இருக்கிறோம். </p><p>
</p><p>
கேள்வி:- பா.ஜ.க.வுடன் நெருக்கம் அதிகரித்திருக்கிறதா? </p><p>
</p><p>
பதில்:- இல்லை. </p><p>
</p><p>
கேள்வி:- மத்திய மந்திரி பிரமோத் மகாஜன் மீதான புகார் குறித்து உங்கள் கருத்து
என்ன? </p><p>
</p><p>
பதில்:- விசாரணை தொடர்ந்து நடைபெற்று வருகிறதே? </p><p>
</p><p>
கண்ணப்பன் விவகாரம் </p><p>
</p><p>
கேள்வி:- மத்திய மந்திரி கண்ணப்பனை பதவி நீக்கம் செய்யவேண்டும் என்று நீங்கள்
அனுப்பிய கடிதம் என்ன ஆயிற்று? </p><p>
</p><p>
பதில்:- அந்தக் கடிதம் கிடைத்ததாக பிரதமரிடம் இருந்து பதில் வந்தது. </p><p>
</p><p>
கேள்வி:- தமிழக வறட்சியை பார்வையிட மத்தியக்குழு வருமா? </p><p>
</p><p>
பதில்:- அனுப்புவதாக எங்கள் கட்சி எம்.பி.க்களிடம் கூறியிருக்கிறார்கள். </p><p>
</p><p>
கேள்வி:- ம.தி.மு.க.வை தடை செய்யும் திட்டம் எந்த நிலையில் உள்ளது? </p><p>
</p><p>
பதில்:- அடுத்த சந்திப்பின்போது கூறுகிறேன். </p><p>
</p><p>
அரசு ஊழியர்களை அழைத்து பேச முடியாது </p><p>
</p><p>
கேள்வி:- போலீசாரை அழைத்துப் பேசியது போல அரசு ஊழியர்களை அழைத்து பேசுவீர்களா? </p><p>
</p><p>
பதில்:- காவல்துறையினருக்கு சங்கம் கிடையாது. கோரிக்கைகளை எடுத் துரைக்க அமைப்பு இல்லை.
எனவே அழைத்துப் பேசினேன். ஆனால் அரசு ஊழியர்களுக்கு சங்க அமைப்பு இருக்கிறது. </p><p>
</p><p>
கேள்வி:- கடந்த ஒன்றரை ஆண்டுகளாக நிதி நெருக்கடி சமாளிக்க நீங்கள் எடுத்து வரும்
நடவடிக்கைகள் எந்த அளவுக்கு பலன் அளித்து உள்ளது. </p><p>
</p><p>
பதில்:- அதை இப்போது விளக்க முடியாது. </p><p>
</p><p>
இவ்வாறு கூறினார். </p><p>
</p><p>
தேர்தல் கமிஷன் அத்துமீறல் ஜெ. கடும் பாய்ச்சல் </p><p>
</p><p>
கேள்வி:- தேர்தல் கமிஷனுக்கு எதிராக மத்திய அரசு எடுத்த முடிவு சரியா? </p><p>
</p><p>
பதில்:- சரிதான். மக்கள் அனுமதியோடு இயங்கும் அமைப்பு அரசு. அந்த அரசு நியமிக்கும் ஒரு
அமைப்புதான் தேர்தல் கமிஷன். அரசு பணி வேறு. தேர்தல் கமிஷன் பணி வேறு. தேர்தல் கமிஷன்
தன் பணியை செய்யவேண்டுமே தவிர அரசு பணியில் தலையிடக்கூடாது. இதற்கு சுப்ரீம் கோர்ட்டு
சரியான முடிவு எடுக்க வேண்டும். தேர்தல் நடத்துவது மட்டுமே தேர்தல் கமிஷன் பணி ஆகும். </p><p>
</p><p>
அரசுக்கு தேர்தல் கமிஷன் உத்தரவிடும் நிலையை நிறுத்தவேண்டும். சேஷன் தலைமை தேர்தல் ஆணையாளராக
வந்த பிறகு தான் இந்த நிலை ஆரம்பித்தது. அதற்கு முன் சுதந்திரம் அடைந்ததில் இருந்து
எத்தனையோ தேர்தல்கள் அமைதியாக நடந்தன. ஜனநாயகம் ஒழுங்காக இருந்தது. சேஷன் வந்த பிறகு
தான் மோதல் ஏற்பட்டது. அவருக்குப் பிறகு வந்தவர்கள் அதையே பின்பற்றினார்கள். தேர்தல்
கமிஷனின் அத்துமீறல் ஜனநாயகத்திற்கு நல்லதல்ல. </p><p>
</p><p>
கேள்வி:- தேர்தல் கமிஷன் போக்குக்கு அரசியல் கட்சிகளும் ஒரு காரணமா? </p><p>
</p><p>
பதில்:- இதற்கு நாடு தழுவிய விவாதம் தேவை. இந்த பிரச்சினைக்கு முற்றுப்புள்ளி வைக்க
சுப்ரீம் கோர்ட்டு முன்வர வேண்டும். </p><p>
</p><p>
பாபா-பா.ம.க. போராட்டம் முடிந்து போன பிரச்சினை </p><p>
</p><p>
கேள்வி:-பாபா படத்துக்கு எதிராக பா.ம.க. நடத்திய போராட்டம் குறித்து உங்கள் கருத்து
என்ன? </p><p>
</p><p>
பதில்:- இது முடிந்துபோன பிரச்சினை. முதலமைச்சர் கருத்து கூறும் அளவுக்கு பெரிய விசயம்
அல்ல. </p><p>
</p><p>
கேள்வி:- ராமதாஸ் தொடர்ந்து ஏதாவது ஒன்றை கூறுகிறார். முதலில் மாநிலத்தை பிரிக்க
வேண்டும் என்றார். இப்போது இந்த பிரச்சினை...? </p><p>
</p><p>
பதில்:- அவர் கூறுவதை யாரும் பெரிதாக எடுத்துக்கொள்வது இல்லை. </p><p>
</p><p>
கேள்வி:- பா.ம.க.வால் வன்முறை சம்பவங்கள் நடந்து உள்ளனவே? </p><p>
</p><p>
பதில்:- அதற்கு போலீசார் உரிய நடவடிக்கை எடுத்து உள்ளனர். </p>

<p> </p>

<p> </p>

<p>அரசியலுக்கு முழுக்குப்
போடமாட்டேன் பால்தாக்கரே அறிவிப்பு</p>

<p> </p>

<p>
 
<gap desc="illustration"></gap></p>

<p>சிவசேனை கட்சித்தலைவர்
பால்தாக்கரே தன் வீட்டுக்கு வௌியே கூடி நின்ற ஆதரவாளர்களை பார்த்து கையசைத்த காட்சி. </p>

<p> </p>

<p>மும்பை, ஆக.22- அரசியலை விட்டு விலகி சிவசேனை தொண்டர்களை
கைவிட மாட்டேன் என்று பால்தாக்கரே உறுதி அளித்துள்ளார். </p><p>
</p><p>
அரசியலுக்கு முழுக்கு </p><p>
</p><p>
மும்பையில் நடந்தவிழா ஒன்றில் சிவசேனை தலைவர் பால் தாக்கரே அரசியலை விட்டு விலகப்போவதாக
சூசக மாக கூறியிருந்தார். கட்சிப் பத்திரிகையான சம்னா விலும் இதேப்போன்ற கருத்தை அவர்
பிரதிபலித்தார். இன்றைய கட்சி அரசியல் மிகவும் சீர்குலைந்து போய்விட்டது. இந்த
மக்கள் விரோத முறை எனக்கு பிடிக்கவில்லை. இதன் மூலம் மக்களுக்கு எந்த நன்மையும் செய்ய
முடியாது என்று அவர் கூறியிருந்தார். இதையடுத்து பால் தாக்கரே அரசியலுக்கு முழுக்குப்
போட்டுவிடப் போவதாக வதந்தி பரவியது. </p><p>
</p><p>
தொண்டர்கள் முற்றுகை </p><p>
</p><p>
இதையடுத்து வடமேற்கு மும்பையில் பாந்த்ரா பகுதியில் உள்ள பால் தாக்கரேயின் வீட்டை
தொண்டர்கள் நேற்று முற்றுகையிட்டனர். தாக்கரே அரசியலை விட்டு விலகக் கூடாது என்று
அவர்கள் கோஷம் போட்டார்கள். </p><p>
</p><p>
அப்போது வீட்டைவிட்டு வௌியே வந்த பால் தாக்கரே, தொண்டர்கள் மத்தியில் பேசியதாவது:-
</p><p>
</p><p>
கைவிட மாட்டேன் </p><p>
</p><p>
யாரும் கலவரம் அடைய வேண்டாம். உங்களை ஒரு போதும் நான் கைவிட்டுவிட மாட்டேன். உங்களின்
ஆலோசகராக இருக்க வேண்டும் என்பதே எனது ஆசை. ஆனால் அதற்கு இன்னும் கொஞ்சம்
நாளாகும். </p><p>
</p><p>
இப்படி சொல்லிவிட்டு பால்தாக்கரே மீண்டும் வீட்டுக்குள் போய்விட்டார். இனி அரசியல்
ரீதியாக சிவசேனைக்கு தலைமை தாங்காமல் வெறும் ஆலோசகராக மட்டுமே இருக்க பால்தாக்கரே
முடிவு செய்திருப்பதாகத் தெரிகிறது. </p><p>
</p><p>
நீடிப்பார் </p><p>
</p><p>
அதன்பின் பால்தாக்கரே மருமகன் ராஜ்தாக்கரே வௌியில் வந்து சிவசேனை தலை வராக
பால்தாக்கரே தொடர்ந்து நீடிப்பார் என்று அறிவித்தார். அதையடுத்து தொண்டர்கள்
அமைதியடைந்தனர். </p><p>
</p><p>
நேற்றைய அறிவிப்பின் மூலம், அரசியலை விட்டு விலகப்போவதாக ஏற்பட்டுள்ள வதந்திக்கு பால்
தாக்கரே முற்றுப்புள்ளி வைத்துள்ளார். </p>

<p> </p>

<p> </p>

<p>சொத்துக்கு ஆசைப்பட்டு
வீட்டை விட்டு என்னை சோனியா விரட்டினார் மேனகா காந்தி உருக்கமான பேட்டி</p>

<p> </p>

<p>
 
<gap desc="illustration"></gap></p>

<p>மேனகாகாந்தி </p>

<p> </p>

<p>மும்பை,
ஆக. 22- என்னுடைய கணவர் சஞ்சய் காந்தி இறந்ததும் என்னை வீட்டை விட்டு சோனியா
காந்தி விரட்டினார் என்று மேனகா காந்தி உருக்கமான பேட்டி அளித்துள்ளார். </p><p>
</p><p>
மேனகா பேட்டி </p><p>
</p><p>
முன்னாள் மத்திய மந்திரி மேனகா காந்தி ஸ்டார் டி.வி.க்கு பரபரப்பு பேட்டி அளித்தார்.
அப்போது அவர் பல தகவல்களை வௌியிட்டார். அவர் கூறியதாவது:- </p><p>
</p><p>
ராஜீவ் காந்தி- சோனியா காந்தி காதல் திருமணம் நடந்தது. வீட்டில் நானும் சோனியாவும்
நீண்ட நேரம் பேசிக்கொண்டிருப்போம். எனக்கும் அவருக்கும் கருத்து வேறுபாடு ஏற்படும்.
சோனியா என்னைவிட வயதானவர். அவரை என்னுடைய தோழி என்று கூறமுடியாது. </p><p>
</p><p>
ராஜீவும், சோனியாவும் வௌிநாட்டினரை போல தான் வாழ்ந்தனர். இந்திய பழக்க
வழக்கங்கள் அவர்களிடம் இல்லை. அதே நேரத்தில் சஞ்சய் இந்தியனாக இருந்தார்.
இதனாலேயே எனக்கும்- சோனியாவுக்கும் இடையே நெருக்கம் இல்லை. சஞ்சய் காந்தியை
தான் தன்னுடைய அரசியல் வாரிசாக்க இந்திரா அனைத்து முயற்சிகளையும் செய்தார். ராஜீவ்
காந்தி இந்தியன் ஏர்லைன்ஸ் விமானியாக இருந்தார். </p><p>
</p><p>
அழுதபடி இருப்பேன் </p><p>
</p><p>
சஞ்சய்காந்தி உயிரிழப்பதற்கு ஒரு மாதத்துக்கு முன்பே அவரது உயிருக்கு ஆபத்து ஏற்படும்
என்று எனது உள்ளுணர்வு கூறியது. எனது மாமியார் இந்திரா காந்திக்கும் இதே போன்ற எண்ணம்
வந்தது. இப்படிபட்ட எண்ணம் வரும் போதெல்லாம் நான் அழுதபடியே இருப்பேன். உண்மையை
சொல்லப் போனால் 1980-ல் சஞ்சய் விமான விபத்தில் பலியாவதற்கு ஒரு மாதத்துக்கு
முன்பு இருந்தே நான் நாள் முழுவதும் அழுதபடியே இருந்தேன். </p><p>
</p><p>
சஞ்சய் காந்தி விபத்தில் பலியானதும் நான் இடிந்து போய்விட்டேன். அப்போது என்
மகன் வருண் 3 மாத குழந்தை. எனக்கு ஆறுதல் கூறக்கூட வீட்டில் யாருமே இல்லை. </p><p>
</p><p>
கைப்பாவையான இந்திரா </p><p>
</p><p>
அதே நேரத்தில் இந்திரா காந்தியை தங்கள் கைப்பாவையாக ராஜீவும், சோனியாவும்
மாற்றிவிட்டனர். அவர் இந்திரா காந்தியாகவே இல்லை. ராஜீவ்- சோனியா பேச்சை கேட்டு
வழக்கத்துக்கு மாறாக இந்திரா நடக்க தொடங்கினார். நாட்டின் சக்தி வாய்ந்த
அரசியல்வாதியாக திகழ்ந்த இந்திரா காந்தி இப்படி மாறி யதை கண்டு அதிர்ச்சி அடைந்தேன்.
</p><p>
</p><p>
விரட்டினார் </p><p>
</p><p>
சொத்துக்கு ஆசைப்பட்டு என்னை வீட்டை விட்டு விரட்ட சோனியா திட்டமிட்டார். சொத்தில்
எனக்கு பங்கு எதுவும் தரக்கூடாது என்று இந்திரா காந்தியிடம் ராஜீவும், சோனியாவும்
கூறினர். மேலும் குடும்பத்தில் இருந்தே என்னை வௌியேற்ற வேண்டும் என்று அவர்கள் இந்திராவை
வலியுறுத்த தொடங்கினர். சொத்தில் பங்கு கேட்கமாட்டேன் என்று எழுதி கொடுத்தேன்.
இந்திய வீடுகளில் விதவைகளுக்கு இடம் இல்லை. சோனியாவின் திட்டப்படி ஒரு நாள் வீட்டை
விட்டு நான் வௌியேற்றப்பட்டேன். </p><p>
</p><p>
இவ்வாறு அவர் கூறினார். </p>

<p> </p>

<p>கட்சி ஒற்றுமையாக இருந்தால்
விலகுவேன் பழனிவேல்ராஜன் சொல்வது வேடிக்கையாக உள்ளது கருணாநிதி பேட்டி</p>

<p> </p>

<p>
 
<gap desc="illustration"></gap></p>

<p>கருணாநிதி </p>

<p> </p>

<p>சென்னை, ஆக. 22- கட்சி ஒற்றுமையாக இருந்தால் விலகிவிடுவேன் என்று
பழனி வேல்ராஜன் சொல்வது வேடிக்கையாக இருப்பதாக கருணாநிதி கருத்து தெரிவித்துள்ளார். </p><p>
</p><p>
கருணாநிதி பேட்டி </p><p>
</p><p>
தி.மு.க. தலைவர் கருணா நிதி சென்னை அண்ணா அறிவாலயத்தில் நேற்று நிருபர் களுக்கு பேட்டி
அளித்தார். அதன் விவரம் வருமாறு:- </p><p>
</p><p>
கேள்வி:- தேனியில் பழனி வேல்ராஜன் செய்தியாளர்களிடம் பேசும்போது கட்சிப் பிரச்சினை
குறித்து வௌிப்படையாக கருத்து தெரிவித்திருக்கிறாரே? </p><p>
</p><p>
பதில்:- அவர் கழகத்திலே மூத்த தலைவர்களில் ஒருவர். கட்சி ஒற்றுமையாக இருந்தால்
விலகிவிடுவேன் என்று சொல்வது வேடிக்கையாக இருக்கிறது. இதைத்தவிர நான் வேறு ஒன்றும்
சொல்வதற்கில்லை. </p><p>
</p><p>
கேள்வி:- அங்கே ஒற்றுமையை ஏற்படுத்த கட்சித்தலைமை முயற்சிக்குமா? </p><p>
</p><p>
பதில்:- ஒன்றுபடுத்தினால் தான் அவர் போய்விடுவேன் என்று சொல்கிறாரே </p><p>
</p><p>
தானாக தீர்ந்துவிடும் </p><p>
</p><p>
கேள்வி:- மதுரை உள்கட்சி பிரச்சினை என்னவாகும்? என்ன செய்யப்போகிறீர்கள்? </p><p>
</p><p>
பதில்:- தானாக தீர்ந்து விடும். </p><p>
</p><p>
கேள்வி:- உங்கள் அரசியல் எதிரிகளுக்கு இதுபோன்ற பிரச்சினைகளால் வாய்ப்பு ஏற்பட்டு
விடாதா? கட்சியை பலவீனப்படுத்துகின்ற முயற்சியாக இது அமைந்து விடாதா? </p><p>
</p><p>
பதில்:- நோ கமெண்ட்ஸ். </p><p>
</p><p>
கேள்வி:- கட்சி விசயங்களை இவ்வாறு வௌியே பேசுவது கட்சிக்கட்டுப்பாட்டை மீறுகிற காரியம்
என்று தி.மு.க.வில் நீண்ட நாட்களாக கடை பிடித்து வருகிறீர்கள். இப்போது அது வளர்வது போல்
இருக்கிறதே? </p><p>
</p><p>
பதில்:- கட்டுப்பாட்டை மீறுகிற காரியம் திராவிட முன்னேற்ற கழகத்தில் சில நேரங் களில்
நடைபெற்று, அதற்குப் பிறகும் தி.மு.கழகம் வலிவோடு தான் இருக்கிறது. </p><p>
</p><p>
பிளவு ஏற்படுத்த முயற்சி </p><p>
</p><p>
கேள்வி:- உங்களுக்குள் பிளவு ஏற்படுத்த ஆளுங்கட்சி ஏதாவது முயற்சிக்கிறதா? </p><p>
</p><p>
பதில்:- நான்தான் புத்தியில்லாமல் நடந்து கொள்கிறேன் என்றால் இன்னொரு வரை குறை
சொல்ல வேண்டிய அவசியம் எனக்கு இல்லை. </p><p>
</p><p>
கேள்வி:- தமிழ்நாட்டை பிரிப்பதைப் பற்றி ராமதாஸ் மீண்டும் கூறியிருக்கிறாரே? </p><p>
</p><p>
பதில்:- அதற்கு நான் மீண்டும் பதில் கூற விரும்பவில்லை. </p><p>
</p><p>
கேள்வி:- கட்சித் தேர்தல்கள் ஆரம்பித்துள்ளதே, எப்படி நடக்கிறது? </p><p>
</p><p>
பதில்:- கிளைக்கழக தேர்தல்கள் எல்லா இடங்களிலும் சுமூகமாக நடந்து கொண்டுள் ளது. </p><p>
</p><p>
இளைஞர் கரங்களில்... </p><p>
</p><p>
கேள்வி:- 19-ந்தேதி சென்னையில் நடைபெற்ற பொதுக் கூட்டத்தில் நீங்கள் பேசும் போது
இளைஞர்களின் கரங்களில் பொறுப்பை ஒப்படைப்பதைப் போல பேசினீர்களே, ஏதாவது
முக்கியத்துவம் உண்டா? </p><p>
</p><p>
பதில்:- நீண்ட நாட்களுக்கு கழகத்தின் தலைமைப் பொறுப்பை நான் ஏற்க முடி யாது. நிரந்தர
தலைவர் என்று அங்கே சொல்லிக் கொண்டிருந்தார்கள். நான் நிரந்தரமாக இருக்க முடியாது என்று
சொன்னேன். மற்றபடி நான் அப்போது பேசியதற்கு குறிப்பாக காரணம் எதுவும் கிடையாது. </p><p>
</p><p>
கேள்வி:- நீங்கள் விலகிட நினைத்தாலும் தொண்டர்கள் உங்களை விட மாட்டார்களே? </p><p>
</p><p>
பதில்:- கம்யூனிஸ்டு கட்சியில் செயலாளராக இருந்த சங்கரய்யா ஒதுங்கிக் கொண்டு வரதராஜன்
தற்போது அந்த கட்சியின் செயலாளராக ஆகவில்லையா? அதற்காக சங்கரய்யா கட்சியை விட்டு
போய்விடவில்லையே? </p><p>
</p><p>
தீக்குளிப்பு </p><p>
</p><p>
கேள்வி:- கம்யூனிஸ்டு கட்சிக்கும், உங்கள் கட்சிக்கும் வேறுபாடு உண்டல்லவா? உங்கள்
கட்சியில் விலக விடமாட்டார்களே, ஏற்கனவே ஒரு முறை நீங்கள் விலகியபோது தீக்குளிக்கின்ற
அளவிற்கு வந்ததே? </p><p>
</p><p>
பதில்:- அறவே விலகுவதாக அர்த்தம் இல்லை. ஏற்கனவே நடந்தது வேறு விசயம். </p><p>
</p><p>
கேள்வி:- மதுரை சம்பவத்தில் கட்சிக்கு விரோதமாக கட்டுப்பாட்டை மீறி செயல்
படுகிறவர்கள் மீது நடவடிக்கை எடுப்பதைப் பற்றி யோசிப்பீர்களா? </p><p>
</p><p>
பதில்:- யோசிப்போம். </p><p>
</p><p>
இவ்வாறு அவர் கூறினார். பல்கலை.யுடன் அரசு கல்லூரிகள் இணைப்பு: பாதிப்பு
இருப்பதால்தான் ஆசிரியர்-மாணவர் ஸ்டிரைக் </p><p>
</p><p>
அரசுக்கல்லூரி ஆசிரியர்கள், மாணவ-மாணவிகள் ஸ்டிரைக் குறித்து கருணாநிதி கூறியதாவது:- </p><p>
</p><p>
கேள்வி:- அரசு கல்லூரிகளை பல்கலைக்கழகத்தோடு இணைப்பதின் காரணமாக கல்வித்தரம்
உயருமென்று முதல்வர் ஜெயலலிதா கூறுகிறாரே? </p><p>
</p><p>
பதில்:- ஆனால் அந்த கல்லூரிகளில் பணியாற்றும் ஆசிரியர் களும், பயிலும் மாணவர்களும் அதை
ஏற்றுக் கொள்ளவில்லையே. அதனால் வரக்கூடிய பாதிப்புகளை தெரிவித்து போராட்டம்
நடத்துகிறார்களே </p><p>
</p><p>
கேள்வி:- இதிலே உங்கள் கருத்து? </p><p>
</p><p>
பதில்:- ஆசிரியர்கள், மாணவர்களுடைய கருத்துதான் என்னுடைய கருத்து. </p><p>
</p><p>
இவ்வாறு அவர் கூறினார். </p>

<p> </p>

<p> </p>

<p>ரஜினி பிரச்சினைக்கு திடீர்
முற்றுப்புள்ளி ஏன்? டாக்டர் ராமதாஸ் பதில்</p>

<p> </p>

<p>
 
<gap desc="illustration"></gap></p>

<p>ராம்தாஸ் </p>

<p> </p>

<p>சென்னை, ஆக.22- பா.ம.க.வில் நடிகர்களை சேர்க்க மாட்டோம் என்று
டாக்டர் ராமதாஸ் கூறினார். </p><p>
</p><p>
பா.ம.க. நிறுவனர் டாக்டர் ராமதாஸ் குமுதம் ரிப்போர்ட்டர் இதழுக்கு அளித்த பேட்டி
வருமாறு:- </p><p>
</p><p>
ரசிகர் மன்றம் கூடாது </p><p>
</p><p>
கேள்வி:- பல இடங்களில் வன்முறை தலைதூக்கும் அளவுக்கு உங்கள் பேச்சு அமைந்து விட்டது.
ரஜினி மேல் அப்படி என்னதான் கோபம் உங்களுக்கு? </p><p>
</p><p>
பதில்:- நடந்த ஒரு நிகழ்ச்சியை சொல்லி ஆரம்பிக்கிறேன். நண்பரின் குழந்தை ஒரு சீரியலை
பார்த்துவிட்டு சிகரெட் மாதிரி பேப்பரை சுற்றி வாயில் வைத்துக் கொள்ளுமாம். ஒருநாள்
வீட்டுக்கு வந்த விருந்தினர்கள், உனக்கு என்ன வேணும்? என்று கேட்க, ஒண்ணும் வேண்டாம்.
இரண்டு சிகரெட் வாங்கிட்டு வாங்க என்ற சொன்னதாம். எப்படியிருக்கு? எம்.ஜி.ஆர்.
சிகரெட்டே பிடித்ததில்லை. அவர் படம் ஓடவில்லையா? அவரை இளைஞர்கள் பின்
பற்றவில்லையா? நம்ம சினிமாவில் வன்முறை, சிகரெட், குடி இல்லாமல் படம் எடுக்க
முடியாதா? </p><p>
</p><p>
அப்புறம் இவர்கள் ரசிகர் மன்ற போர்டு வைக்கச் சொல்றது நியாயமா? அப்படியே
ரசிகர்களே வைத்தாலும் வேண்டாம் என்றல்லவா சொல்ல வேண்டும்? உதாரணமாக கமல்ஹாசன்,
ரசிகர் மன்றங்கள் எல்லாம் வேண்டாம் என்று சொல்லிவிட்டார். நற்பணி இயக்கம் மாதிரி
பண்ணுங்க என்று பதினாறு வருடங்களுக்கு முன்பே சொல்லிவிட்டார். அதில் தப்பு கிடையாது. கமல்
எவ்வளவோ தேவலை. </p><p>
</p><p>
கோபம் ஏன்? </p><p>
</p><p>
கேள்வி:- அதற்காக படப்பெட்டியை தூக்கிக்கொண்டு ஓடுவது, போனில் மிரட்டுவது, தியேட்டருக்கு
தீவைப்பது இதெல்லாம் சரியா? </p><p>
</p><p>
பதில்:- இதையெல்லாம் பாட்டாளி மக்கள் கட்சி செய்தார்கள் என்று எப்படி சொல்ல
முடியும்? </p><p>
</p><p>
கேள்வி:- கைதானவர்கள் எல்லோரும் உங்கள் கட்சியின் பகுதி, கிளை செயலாளர்கள் என்று
பெயர் போட்டு எல்லா பத்திரிகைகளிலும் வந்துள்ளது. அதெல்லாம் பொய்யா? </p><p>
</p><p>
பதில்:-பாபா படத்தின் சி.டி.யை தயாரிக்க யார் வேண்டுமானாலும் செய்திருக் கலாம். பழியை
எங்கள் மேல் போடலாம். எங்கள் ஆள் எப்போது கோபப்பட்டான் என்றால், ஜெயா டி.வி.யில்
சினிமா ரசிகன் என்ற பெயரில் பீடி குடிப்பவன், கஞ்சா கேஸ், பிளாட்பாரத்தில்
தூங்கறவனையெல்லாம் பிடித்து, ராமதாசைப் பற்றி நீ என்ன சொல்ற? என்று கேட்டார்கள்.
பத்திரிகைகள் தங்கள் பங்கிற்கு ஒண்ணும் தெரியாத பசங்களிடம் பேட்டி வாங்கி போட்டு
பெரிசு பண்ணினார்கள். அந்த ரசிகர்கள் என்னை விமர்சனம் செய்தார்கள். அதனால் தான்
எங்கள் இளைஞர்கள் கோபப்பட்டார்கள். </p><p>
</p><p>
அடக்கி வைத்திருக்கிறேன் </p><p>
</p><p>
கேள்வி:- அதற்காக தியேட்டரில் நுழைந்து கலாட்டா பண்ண முடியுமா? </p><p>
</p><p>
பதில்:- இல்லை. இல்லை. அப்படி நினைச்சிருந்தா ஒரு தியேட்டரில் கூட படம் ஓடாம
பண்ணியிருக்க முடியும் - எவ் வளவு போலீஸ் இருந்தாலும் எங்கள் இளைஞர்களை அடக்கி
வைத்திருக்கிறேன். </p><p>
</p><p>
கேள்வி:- உங்கள் எம்.எல்.ஏ.க்களே தியேட்டர் உரிமையாளர்களை மிரட்டி
யிருக்கிறார்களே? </p><p>
</p><p>
பதில்:- பொய். அவர்களுக்கு வேற வேலை இல்லையா? </p><p>
</p><p>
கேள்வி:- ஏற்கனவே ஜெயலலிதாவுக்கும் ரஜினிக்கும் இருந்த விரோதத்தை ஆளுங் கட்சி உங்கள்
மூலம் பழி தீர்த்து கொண்டு விட்டதா? </p><p>
</p><p>
பதில்:- விரோதம் மாதிரி தெரியவில்லையே. அவர்கள் நடவடிக்கைகளை பார்க்கும் போது இரண்டு
பேரும் ஒண்ணா ஆயிட்ட மாதிரிதான் தெரியுது. எங்கள் தொண்டர்கள் நிறைய பேரை
சந்தேகத்தின் பேரில் கைது செய்திருக்கிறார்கள். ஆனால் ரஜினி ரசிகர்கள் எங்களை
கடுமையாக பேசியதையோ, என் கொடும்பாவியை எரிச்சதையோ எதிர்த்து, எந்த நடவடிக்கையும்
எடுக்க வில்லை. இதிலிருந்து உங்களுக்கு புரியவில்லையா? </p><p>
</p><p>
நடிகர்கள் பிரசாரம் </p><p>
</p><p>
கேள்வி:- சினிமா காரர்களை இவ்வளவு தூரம் விமர்சிக்கும் நீங்கள், தேர்தல் நேரத்தில்
மட்டும் உங்கள் தொகுதிகளில் அவர்கள் பிரசாரம் செய்ய மேடை போட்டு
கொடுக்கவில்லையா? டி.ராஜேந்தர், சரத்குமார் போன்றவர்கள் உங்கள் வேட் பாளர்களுக்கு
ஆதரவாக பிரசாரம் செய்திருக்கிறார்களே? </p><p>
</p><p>
பதில்:- தேர்தல் நேரத்தில் கூட்டணி சார்பில் அனுப்பும் போது நாங்கள் வேண்டாம் என்று
சொல்ல முடியாது. நாங்களாக கூப்பிடுவதில்லை. எங்கள் கட்சியில் நடிகர்களை சேர்க்கறதில்லை.
நடுவுல ஒருத்தன் வந்து அவனே போய்ட்டான். சினிமா நடிகர்கள் எங்களுக்கு தேவையில்லை
என்பதில் உறுதியாக இருக்கிறோம், எந்த காலத்திலும். </p><p>
</p><p>
முற்றுப்புள்ளி ஏன்? </p><p>
</p><p>
கேள்வி:- ரஜினி பிரச்சினைக்கு ஏன் திடீர் முற்றுப்புள்ளி? திரை மறைவில்
ஏதாவது...? </p><p>
</p><p>
பதில்:- எங்களுக்கு ஆயிரத் தெட்டு வேலை இருக்கு. இந்த பிரச்சினையை கொண்டு போகவா கட்சி
நடத்தறோம்? தமிழ்நாடே வறட்சியின் பிடியில் உள்ளது. அதைப்பற்றி கவலைப்பட
வேண்டாமா? சட்டப்படி பார்ப்போம் என்றார் ரஜினி. சரி சந்திப்போம் என்று சொல்லி
விட்டோம். தவிர, அந்த படமும் ஒண்்ணும் இல்லாம போயிடுச்சே. நீங்கள்தான் (பத்திரிகைகள்)
அவரை தூக்கிட்டு ஆடுகிறீர்கள். </p><p>
</p><p>
இவ்வாறு கூறியுள்ளார். </p>

<p> </p>

<p> </p>

<p>மு.க.அழகிரி மீது பி.டி.ஆர்.
குற்றம் சாட்டுவது சரியா? தி.மு.க.வில் ஒற்றுமை ஏற்பட தலைமை கழகம் தலையிட வேண்டும்
பொன்முத்துராமலிங்கம் அறிக்கை</p>

<p> </p>

<p>மதுரை,
ஆக.22- மதுரை மு.க.அழகிரி மீது பி.டி.ஆர்.பழனிவேல்ராஜன் கூறியுள்ள குற்றச்சாட்டுக்கு பதில்
கூறியும், தி.மு.க.வில் ஒற்றுமை ஏற்பட தலைமைக் கழகம் தலையிட்டு தீர்க்கும் என்றும்
பொன்முத்துராம லிங்கம் அறிக்கையில் கூறியுள்ளார். </p><p>
</p><p>
முன்னாள் அமைச்சர் பொன்.முத்துராமலிங்கம் விடுத்துள்ள அறிக்கையில் கூறியிருப்பதாவது:- </p><p>
</p><p>
உண்மை நிலை </p><p>
</p><p>
நேற்றைய (புதன்) ஒரு நாளிதழில் உச்சக்கட்டத்தில் தி.மு.க. கோஷ்டி பூசல், அழகிரி
யுடன் சமரசம் செய்வதைவிட திமு.க.விலிருந்து விலகுவேன் பி.டி.ஆர். (தென் மாவட்டங்களில்
கட்சிக்கு பாதிப்பு) என்ற தலைப்பிட்டு பி.டி.ஆர். பழனி வேல்ராஜனின் பேட்டியை
வௌியிட்டுள்ளது. அந்தப் பேட்டியில் என்னுடைய பெயரும் தம்பி மு.க.அழகிரியின் பெயரும்
பயன்படுத்தப்பட்டு இருப்பதோடு நடைபெற்று முடிந்த நிகழ்ச்சியின் நடை முறைகளையும்,
உண்மைகளையும் மறைத்தும், திரித்தும் கூறப்பட்டுள்ளமையால் உண்மை நிலைமைகளை கழகத்தொண்
டர்களுக்கும், பொதுமக்களுக்கும் விளக்கும் அடிப்படையில் இந்த அறிக்கையினை கொடுத்
துள்ளேன். </p><p>
</p><p>
விளம்பரத்தில் பெயர் இல்லை </p><p>
</p><p>
கடந்த 9-ந் தேதி மதுரை செல்லூர் பகுதியில் நடைபெற்ற நெசவாளர்களுக்கு கஞ்சி
வார்க்கும் நிகழ்ச்சியில் என்னுடைய பெயரோ அல்லது தம்பி மு.க. அழகிரியின் பெயரோ
விளம்பரப்படுத்தப்படவில்லை. மேலும் அந்த விளம்பரங்கள் குழு மனப்பான்மையுடன்
வௌியிடப்பட்டமையால் நானோ அல்லது தம்பி மு.க.அழகிரியோ அல்லது மற்ற கழக முன்னோடிகளோ
அந்த நிகழ்ச்சியில் கலந்துகொள்ள இயலவில்லை. நான் 9-ந் தேதி சென்னையில் இருந்தேன்.
அன்று மதியம் சன் செய்தியின் மூலம் மதுரையில் நடைபெற்ற நிகழ்ச்சிகளை அறிந்து உடன்
மதியம் சென்னையில் இருந்து புறப் பட்டு இரவு 10மணியளவில் மதுரை வந்து சேர்ந்தேன். </p><p>
</p><p>
ஆனால் பி.டி.ஆர். பழனி வேல்ராஜன் உள்ளிட்டு கைது செய்யப்பட்ட 105 தி.மு.க.வினரும்,
சிறைக்கு அனுப்பி வைக்கப்பட்டனர் என்ற செய்தியும், இதற்கு இடைப்பட்ட நேரத்தில்
தி.மு.க.வின் இளைஞர் அணிச்செயலாளர் தளபதி மு.க. ஸ்டாலினும், மற்றவர்களும் கைது
செய்யப்பட்டவர்களை பார்த்து விட்டு சென்றனர் என்ற செய்தியும் தெரிவிக்கப்பட்டது. எனவே
தான் இரவு 10 மணிக்கு மேல் சிறையில் சென்று பார்க்க இயலாத சூழ்நிலையில் அவர்களை
பார்க்க வில்லையே அல்லாமல் வேறு எந்த நோக்கமும் இல்லை. </p><p>
</p><p>
ஆறுதல் </p><p>
</p><p>
மறுநாள் 10-ந் தேதி நானும் தம்பி மு.க.அழகிரியும் மற்றும் சிறைக்கு வௌியில் இருந்து 3
மாவட்டங்களை சேர்ந்த கழக நிர்வாகிகள், மற்றும் கழக முன்னணியினருடன் கலந்து பேசி
3மாவட்ட கழகங்களின் நிர்வாகிகள் மூலம் 3 மாவட்ட கழகங்களின் பிரதிநிதிகள் கூட்டங்களை
கூட்டுவதென்றும், மேல் நடவடிக்கை குறித்து ஆலோசிப்பதென்றும் 10-ந் தேதி (சனிக்கிழமை)
காலையில் சிறைக்கு சென்று சிறையில் அடைக்கப்பட்டவர்களையும், மருத்துவமனையில் சிகிச்சை
பெற்று கொண்டிருப்பவர்களையும் பார்த்து ஆறுதல் கூறுவதென முடிவு எடுத்து சிறைக்கு சென்றோம்.
சிறை அதிகாரிகள் சனிக்கிழமை என்ற காரணத்தினால் அனுமதி மறுத்துவிட்டனர். </p><p>
</p><p>
பின்னர் ஜவஹர் மருத்துவமனைக்கு சென்று சிகிச்சை பெற்றுக்கொண்டு இருந்த முன்னாள் அமைச்சர்
தா.கிருஷ்ணன், மு.தர்மலிங்கம், ஒச்சு பாலு, சலீம், ராமமூர்த்தி ஆகியவர்களை சந்தித்து
ஆறுதல் கூறினோம். </p><p>
</p><p>
குழு மனப்பான்மை </p><p>
</p><p>
இதனைத்தொடர்ந்து சிறைக்கு வௌியில் இருந்த மாவட்டக்கழக நிர்வாகிகள் மூலம் 3 (மதுரை
மாநகர், மதுரை தெற்கு, மதுரை வடக்கு) மாவட்டக்கழகங்களின் கூட்டங்கள் கூட்டப்பட்டு தலைமைக்
கழகம் அறிவித்த 19-ந் தேதிய கண்டன பொதுக்கூட்டத்தையும் பேரணியையும் சிறப்பாக
நடத்துவதென தீர்மானிக்கப்பட்டது. ஆனால் இந்த மரபுகளையும், நடைமுறைகளையும் மீறி குழு
மனப்பான்மையுடன் நாடாளு மன்ற உறுப்பினர் எஸ்.அக்கினி ராஜ் எம்.பி., 15.8.2002-ந்
தேதி மாலை 4மணிக்கு 3 மாவட்ட கழகங்களின் கூட்டம் மதுரை முத்து-ஜானகி திருமண மண்ட பத்தில்
நடைறெுமன அறிவிக்கிறார். கட்சியின் நடைமுறைகளுக்கு முரணாக மாவட்டக் கழகங்களின்
கூட்டங்களை அக்கினிராஜ் கூட்டியது கட்சிக்காரர்கள் மத்தியில் குழப்பம் ஏற்படுத்துமென
தலைமைக்கு தெரிவிக்கப்பட்டது. தலைமைக் கழகத்தில் தலைவர், பொதுச் செயலாளர், அமைப்பு
செயலாளர் ஆகியவர்கள் இது குறித்து ஆலோசித்து தொலைபேசி மூலம் அக்கினிராஜ் எம்.பி.யிடம்
மாவட்டக்கழக கூட்டங்களை அவர் கூட்டி நடத்தக் கூடாது என அறிவுறுத்தப்பட்டது. </p><p>
</p><p>
மேலும் 15-ந் தேதி காலையில் தலைமைக்கழகத்தின் சார்பாக மாவட்டக்கழக கூட்டங் களை
அக்கினிராஜ் ரத்து செய்ய வேண்டுமென தந்தி மூலம் தெரிவிக்கப்பட்டது. இவ்வளையும் மீறி
அக்கினிராஜ் மாலைமுரசு பத்திரிகையில் 15-ந் தேதி அறிக்கை கொடுத்து விட்டு
அறிவிக்கப்பட்ட முத்து ஜானகி திருமண மண்டபத்தில் மாவட்டக் கழகங்களின் கூட்டங்கள்
கூட்டினார் என்பதுதான் அனைவரும் அறிந்த உண்மை. ஆனால் இந்த உண்மைகளை எல்லாம்
மறைத்துவிட்டு பி.டி.ஆர்.பழனிவேல்ராஜன், அக்கினிராஜ் கூட்டிய கூட்டத்தில் தம்பி
மு.க.அழகிரிக்கு வேண்டியவர்கள் கலவரம் செய்தார்கள் என சுட்டிக்காட்டி இருப்பது அவரின்
ஒருதலைப்பட்சமான போக்கையும், குழு மனப்பான்மையை வளர்க்கும் சுபாவத்தையே
வௌிப்படுத்துகிறது என்பதை இங்கே சுட்டிக் காட்ட விரும்புகிறேன். </p><p>
</p><p>
பார்க்க மறுப்பு </p><p>
</p><p>
பி.டி.ஆர்.பழனிவேல்ராஜன் சகோதரர் இறந்தபொழுது நான் வரவில்லையென சுட்டிக் காட்டி
உள்ளார். அப்படியானால் என்னுடைய தாயார் இறந்தபொழுது பி.டி.ஆர். பழனிவேல்ராஜன் வரவில்லை
என்பதை சுட்டிக்காட்ட முடியும். இவைகள் எல்லாம் தனிப்பட்ட நடவடிக்கைகள், இதனை அரசியல்
கட்சிப் பிரச்சினைகளில் வலியத்திணித்து அரசியலாக்க முற்படுவது அவரது பாரபட்சமான
மனநிலையைத்தான் படம் பிடித்து காட்டுவதாக அமைந்துள்ளது. எனக்கு தனிப்பட்ட முறையில் பி.டி.ஆர்.பழனி
வேல்ராஜன் மீதும் மற்றவர்கள் மீதும் வருத்தம் இருக்குமேயானால் எப்படி மீண்டும் 14.8.2002
ம்தேதி சிறைக்கு சென்று அவர்களை சந்திக்க மனுச் செய்திருப்பேன்? சிறையில் இருக்கும்
பொழுது அவர்களை பார்க்க சென்ற எங்களை பார்க்க முடியாது என அவமானப்படுத்தினார்கள். என்ன
தான் தனிப்பட்ட முறையில் வருத்தங்கள் இருந்தாலும் கட்சியின் நலன் கருதி பி.டி.ஆர்.
பழனிவேல்ராஜனையும், மற்றவர்களையும் பார்க்க சென்ற பொழுது பார்க்க வருவது தானே
மனிதாபிமானம், கட்சி நலன் கருதிய நடவடிக்கை. </p><p>
</p><p>
ஆனால் எங்களை பார்க்காமல் திருப்பி அனுப்பியதை பத்திரிகை செய்தி ஆக்கியது எந்தவகையில்
நியாயம். பெரிய குடும்பத்தில் இருந்து வந்தவர் என்று சொல்லுகின்ற பி.டி.ஆர்.
பழனிவேல்ராஜனுக்கு இது பொருத்தமான செயலா? என்பதை இயக்கத் தொண்டர்களும், பொது
மக்களும் எடைபோட்டு பார்க்க வேண்டுமென கேட்டுக்கொள்கிறேன். </p><p>
</p><p>
சட்டப்பேரவை தேர்தல் பற்றி கருத்து தெரிவிக்கிற பி.டி.ஆர்.பழனிவேல்ராஜன் அதற்கு முன்னர்
நடைபெற்ற நிகழ்ச்சிகளை வேண்டுமென்றே மறைக்கிறார். சட்டப்பேரவை தேர்தல் நடைபெறுவதற்கு
முன்னரே தம்பி மு.க.அழகிரி இயக்கத்தின் உறுப்பினர் இல்லை என்றும், இயக்கத் தோழர்கள்
யாரும் அவருடன் தொடர்பு கொள்ள வேண்டாமென தலைமைக்கழகம் அறிவித்தது. அதனையும் தாங்கி கொண்டு
அமைதியாகத்தான் அவர் இருந்தார். அவரை இயக்கத்தில் இருந்தும் வௌியேற்றி விட்டு, அவர்
எனக்கு எதிராக செயல்பட்டார் என பி.டி.ஆர். பழனிவேல்ராஜன் வாதாடுவது பொருத்தமில்லா
பிதற்றல் என்பதோடு அவர் இயக்கத்தில் தனக்கு வேண்டாதவர்களை கொச்சைபடுத்தும்
முயற்சியில் ஈடுபட்டுள்ளார் என்பதைத் தான் வௌிப்படுத்துகிறது. இதேபோன்று
தம்பிமு.க.அழகிரி சட்டப்பேரவை தேர்தலின் </p><p>
</p><p>
பொழுதும், உள்ளாட்சி தேர்தலின் பொழுதும் தம்பி மு.க. அழகிரி சட்டப்பேரவைத் தேர்தலின்
பொழுதும், உள்ளாட்சி தேர்தலின் பொழுதும் கட்சி வேட்பாளர்களை தோற்கடிக்க பணம் செலவு
செய்தார் என்ற குற்றச்சாட்டுடன் அந்தப் பணம் எங்கிருந்து வந்தது எனக் கேள்விகேட்கிறார்.
</p><p>
</p><p>
அச்சுறுத்துகிறார் </p><p>
</p><p>
தம்பி மு.க.அழகிரியையும், அவரை சார்ந்தவர்களையும் பழிவாங்க வேண்டும் என்ற
நோக்கத்துடனும், சுயநலத்துக் காகவும் எத்தகைய மோசமான, கீழ்த்தரமான
குற்றச்சாட்டுக்களையும் சொல்லத்துணிந்தவர் தான் பி.டி.ஆர்.பழனிவேல் ராஜன்
என்பதைத்தான் அந்தப் பேட்டியின் கருத்து தௌிவாக்குகிறது. எந்த நிலையிலும் அழகிரியுடனோ,
அழகிரி அணியுடனோ சமரசம் செய்து கொள்ள மாட்டோம் அந்த நிலை ஏற்பட்டால் கட்சியில்
இருந்து விலகிவிடுவேன் என்றும், மேயர் உள்ளிட்டோ ரும் இதே எண்ணத்தில் உள்ள னர் என்றும்
பி.டி.ஆர்.பழனி வேல்ராஜன் பேட்டி அளித்து உள்ளார். இவரது இந்தப் பேட்டி தி.மு.க.வின்
தலைமைக்கழகத் தை அச்சுறுத்தும் வகையிலும், அணி சேர்க்கும் வகையிலும் அமைந்துள்ளது. எனக்கு
கடந்த முறை நாடாளுமன்ற தேர்தலில் மதுரை நாடாளுமன்ற தொகுதியில் போட்டியிடுவதற்கான
வாய்ப்பினை தலைமைக்கழகம் வழங்கியபொழுது தான் கட்சி யில் இருந்து விலகிவிடுவேன் என்று
அச்சுறுத்தியதோடு மரியாதை நிமித்தம் பார்க்க நான் சென்றபொழுது பார்க்க மறுத்தார். </p><p>
</p><p>
துணைமேயர் தேர்தல் </p><p>
</p><p>
மதுரை மாநகராட்சி தேர்தல் முடிந்த பின்னர் துணைமேயர் பொறுப்பினை தி.மு.க. கைப்பற்ற
வேண்டுமெனில் தம்பி மு.க.அழகிரியின் தயவு வேண்டுமென்று தலை வரிடம் கோரினார். பின்னர்
வெற்றிகரமாக தம்பி மு.க. அழகிரி மாநகராட்சி தேர்தலை நடத்தி முடித்த பின்னர் இந்த
ஏற்பாடுகள் எனக்குப்பிடிக்க வில்லை. நான் கட்சியை விட்டு விலகுகிறேன் என்று
அச்சுறுத்தினார். இப்பொழுதும் நிபந் தனை ஜாமீன்ங நிலுவையில் இருக்கும் பொழுது கட்சியில்
இருந்து விலகி விடுவதாக காலத்தை தேர்ந்தெடுத்து அறிவித்த அணி சேர்க்கும் முயற்சியில்
ஈடுபட்டிருக்கும் அதிசயப் பண்பாளர் தான் பி.டி.ஆர்.பழனிவேல்ராஜன் என்பதை நாட்டு
மக்களுக்கு தெரியப்படுத்த விரும்புகிறேன். </p><p>
</p><p>
மூக்கையா </p><p>
</p><p>
மேலும் பத்திரிகை பேட்டியில் தேனி மாவட்டச் செயலாளர் எல்.மூக்கையாவிற்காக வாதாடுவதாக
காண்பித்து கொள்கிறார். அவரும் ஓரிரு தினங்களில் விலக உள்ளதாக இவரிடம் கூறியதாக
கூறுகிறார். கடந்த 20 ஆண்டுகள் ஒன்றுபட்ட மாவட்டத்திற்கு மாவட்ட செயலாளராக இருந்த எனக்கு
தெரியும் பி.டி.ஆர்.பழனிவேல் ராஜனும், மூக்கையாவும் எப்படிப்பட்ட நண்பர்கள் என்று மூக்கையா
அந்தப்பகுதியில் அரசியல் அமைதியாக நடத்த முடியாமல் சங்கடங்களுக்கு ஆளானதுயாரால் என்பது
மூக்கையாவிற்கு தெரியும், அங்குள்ள இயக்கத் தொண்டர்களுக்கும் நன்கு தெரியும். தன்னுடைய
பேட்டியில் ஒரு கட்டத்தில் வேலுச்சாமி மிக்காகவும், மற்றொரு கூட்டத் தில் மதுரை
மேயருக்காகவும், தேனி மூக்கையாவிற்காகவும் வாதாடுகிறார். பி.டி.ஆர்.பழனி வேல்ராஜனுக்கு
இவர்கள் மீது நல்லெண்ணம் இருக்குமாயின் முறையாக தலைமைக்கழகத்திற்கு சென்று
வாதாடியிருக்கலாம். ஆனால் பி.டி.ஆர்.பழனி வேல்ராஜன் அவர்களையும் கட்சியின்
கட்டுப்பாட்டு வளை யத்தில் இருந்து வௌியில் கொண்டுவரும் முயற்சியில் ஈடுபட்டிருப்பது
அவர்களுக்கு நன்மை செய்வதற்கா? அல்லது அவர்களை அணி சேர்ப்பதற்கா? என்பதை
கட்சித் தொண்டர்களும், பொதுமக்களும் புரிந்து கொள்ள வேண்டும். </p><p>
</p><p>
ஆண்டிப்பட்டி தேர்தல் </p><p>
</p><p>
ஆண்டிப்பட்டி இடைத் தேர்தலில் முதலமைச்சர் ஜெயலலிதா போட்டியிட்ட பொழுது தம்பி
மு.க.அழகிரியும், அவரைச் சார்ந்தவர்களும் எந்தளவு உழைத்தார்கள், சங்கடங்களை
சந்தித்தார்கள் என்பது யாராலும் மறுக்க முடியாத உண்மைகளாகும். அப்பொழுது
பி.டி.ஆர்.பழனிவேல்ராஜன் எந்தளவுக்கு உழைத்தார் என்பதை எல்லாம் இங்கு நான் விளக்க
தேவையில்லை. இயக்கத்தில் ஏற்படுகின்ற பிரச்சினைகள் குறித்து 2நாட்களுக்கு முன்பு கூட ஒரு
நிருபர் தம்பி மு.க.அழகிரியிடம் கேட்டபோது மிகுந்த பொறுப்புடன் எல்லாக் கட்சியிலும்
பிரச்சினை இருக்கத் தான் செய்யும். பொதுப்பிரச்சினை என்று வரும்பொழுது நாங்கள்
மனமாச்சரியங்களை மறந்துவிட்டு ஒன்றுபடுவோம் என்று கூறியுள்ளார். ஆண்டிப்பட்டி
இடைத்தேர்தலுக்கு பின்னர் அமைதியாக ஒதுங்கி இருந்த தம்பி மு.க.அழகிரியை
கட்சித்தொண்டர்கள் தான் அவர் மீண்டும் தீவிரப்பணியாற்ற வேண்டும் என கேட்டுக்
கொண்டனர். </p><p>
</p><p>
ஆனால் பண்பாளர் பி.டி.ஆர்.பழனிவேல்ராஜனோ கட்சியில் பிரச்சினைகள் தீர்க் கப்பட்டு,
ஒற்றுமை ஏற்படு மானால் கட்சியில் இருந்து விலகிக் கொள்கிறேன் என்று பகீரங்கமாக அறிக்கை
விடுகிறார். இப்படி ஒற்றுமை ஏற்பட்டால் பிரச்சினை தீர்க்கப் பட்டால் விலகிக்கொள்வேன்
என்று அறிக்கைவிடும் வரலாற்றை தி.மு.க. சரித்திரத் தில் பி.டி.ஆர்.பழனிவேல் ராஜன் தான்
தொடங்கி வைத்து உள்ளார். இது தொடரும் என எதிர்பார்க்கிறார். இதில் தலைமைக்கழகம்
தலையீட்டு முடித்து வைக்கும் என நம்புகிறேன். </p><p>
</p><p>
இவ்வாறு அவர் அதில் கூறியுள்ளார். </p>

<p> </p>

<p> </p>

<p>சமரசம் செய்வதை விட
கட்சியை விட்டு விலகுவேன் பி.டி.ஆர். பேட்டி</p>

<p> </p>

<p>மதுரை, ஆக. 22- சமரசம் செய்வதை விட கட்சியை விட்டு விலகுவேன்
என்று பி.டி.ஆர்.பழனிவேல் ராஜன் கூறினார். </p><p>
</p><p>
பழனிவேல்ராஜன் பேட்டி </p><p>
</p><p>
முன்னாள் சபாநாயகர் பி.டி.ஆர்.பழனிவேல்ராஜன் நிருபர்களிடம் கூறியதாவது:- </p><p>
</p><p>
கஞ்சித்தொட்டி சம்பவத்தையடுத்து கைதான எங்களை பார்க்க முதலில் ஸ்டாலின் வந்தார்.
சிறைக்கு முன்னாள் அமைச்சர் ஆலடிஅருணா, மத்திய அமைச்சர் மு.கண்ணப்பன், ம.தி.மு.க.,
த.மா.கா., இந்திய கம்யூனிஸ்டு நிர்வாகிகளும் வந்தனர். ஸ்டாலின் வந்தபோதுகூட முன்னாள்
அமைச்சர் பொன் முத்துராம லிங்கம் வரவில்லை. </p><p>
</p><p>
கஞ்சித்தொட்டி விழாவுக்கும் இவர்கள் வரவில்லை. கைதாகி திருமண மண்டபத் தில்
இருந்தபோதும் வர வில்லை. வேலுச்சாமியின் தாயார் இறந்தபோதும், எனது மூத்த சகோதரர்
இறந்த போதும் துக்கம் விசாரிக்க வரவில்லை. இவர்கௌல்லாம் அழகிரியின் தலைமையில்
இயங்குபவர்கள். </p><p>
</p><p>
பகிரங்க அறிக்கை </p><p>
</p><p>
பொதுத்தேர்தலிலும், உள்ளாட்சித்தேர்தலிலும் பகிரங்கமாக அறிக்கை விடுத்து 15
தொகுதிகளில் தி.மு.க.வினரை தோற்கடிக்க அழகிரியும், அவரது ஆதரவாளர்களும் செயல்பட்டனர்.
வேட்பாளர்களை நிறுத்தி எங்களை தோற்கடித்தனர். மாநகராட்சி தேர்தலிலும் அவ்வாறே
செயல்பட்டனர். ஆகவே சிறைக்கு பொன். முத்துராமலிங்கத்தை பார்க்க விரும்பவில்லை. </p><p>
</p><p>
மதுரையில் உள்ள 3 மாவட்ட செயலாளர்களின் சார்பில் அக்கினிராஜ் எம்.பி. தலைமையில்
கூட்டம் நடக்கும் என்று அறிவிக்கப்பட்டது. கூட்டத்தை நடத்தக்கூடாது என தலைமைக்கழகம்
உத்தரவிட் டுள்ளதாகவும், அதன் காரணமாக அழகிரி அணியை சேர்ந்த சிலர் கூட்டம்
நடத்தக்கூடாது என மண்டபத்தில் ரகளை செய்ததாகவும் அறிந்தோம். பின்னர் கட்சி
தொண்டர்கள் அக்கினிராஜ் அலுவலகத்துக்கு சென்றதாகவும், அங்கேயும் அழகிரி ஆதரவாளர்கள்
சென்று தகராறு செய்து காரை சேதப்படுத்தியதாகவும் கேள்விப்பட்டோம். </p><p>
</p><p>
பொறுப்புக்குழு </p><p>
</p><p>
அதுபோல 3 மாவட்ட செயலாளர்களும் எந்த கட்சி நடவடிக்கைகளையும் மேற்கொள்ள கூடாது என
தலைமை உத்தரவிட்டுள்ளதாக நாங்கள் அறிந்தோம். 3 மாவட்ட செயலாளர்களை நீக்கிவிட்டு ஒரு
பொறுப்புக்குழு அமைக்கலாம் என கேள்விப்பட்டேன். அதை ஏற்க முடியாது. </p><p>
</p><p>
எந்த நிலையிலும் அழகிரி யுடனோ, அழகிரி அணியுயுடனோ சமரசம் செய்து கொள்ள மாட்டோம்.
அந்த நிலை ஏற்பட்டால் கட்சியை விட்டு விலகி விடுவேன். மேயர் உள்ளிட்டோரும் இதே
எண்ணத்தில் உள்ளனர். அதன் பிறகு கட்சி யாரிடம் செல்லும் என்பதைப் பற்றி கவலை இல்லை.
அதே நேரத்தில் நான் வேறு கட்சிக்கும் செல்ல மாட்டேன். இதேபோன்ற சூழ்நிலை தென்
மாவட்டங்கள் அனைத்திலும் உள்ளது. </p><p>
</p><p>
மிரட்டல் </p><p>
</p><p>
தேனி மாவட்ட செயலர் மூக்கையா என்னை வந்து சந்தித்தார். கட்சியின் அடிப்படை தேர்தலுக்கு
வரும் பார்வையாளர்களை அழகிரி ஆதரவாளர்கள் மிரட்டுகின்றனர் என அவர் கூறினார். ஓரிரு
தினங்களில் விலக உள்ளதாகவும் என்னிடம் தெரிவித்தார். </p><p>
</p><p>
நான் மட்டுமல்ல; தென் மாவட்டங்களிலுள்ள பலர் ஸ்டாலின் தலைமையை ஏற்றுக் கொள்ள தயாராக
உள்ளனர். ஆனால் அழகிரியை ஏற்க மாட்டார்கள். ஸ்டாலின்தான் அடுத்த தலைவர் என
கட்சியின் மூத்த தலைவர்களே பேசுகின்றனர். கட்சி தலைமை என்னை நீக்கினால் நான்
பொறுப்பல்ல. அந்த நிலைமை ஏற்பட்டால் ஆதரவாளர்களு டன் விலகுவேன். </p><p>
</p><p>
இவ்வாறு அவர் கூறினார். </p>

<p> </p>

<p> </p>

<p>மாணவர் போராட்டத்தால்
மிகப்பெரிய விளைவுகள் ஏற்படும் இளங்கோவன் எச்சரிக்கை</p>

<p> </p>

<p>
 
<gap desc="illustration"></gap></p>

<p>இளங்கோவன் </p>

<p> </p>

<p>சென்னை, ஆக. 22- மாணவர் போராட்டத்தால் மிகப்பெரிய விளைவுகள்
ஏற்படும் என்று அரசுக்கு இளங்கோவன் எச்சரிக்கை விடுத்துள்ளார். </p><p>
</p><p>
அரசு அலட்சியம் </p><p>
</p><p>
தமிழ்நாடு காங்கிரஸ் தலைவர் ஈ.வி.கே.எஸ்.இளங்கோவன் நேற்று விடுத்துள்ள அறிக்கையில்
கூறியிருப்பதாவது:- </p><p>
</p><p>
அரசு கல்லூரிகளை பல்கலைக்கழகத்துடன் இணைக்கும் அரசின் நடவடிக்கையை எதிர்த்து கல்லூரி
ஆசிரியர், மாணவர் போராட்டம் பூதாகரமாக வெடித்திருக்கிறது. கடந்த பல மாதமாகவே
இப்பிரச்சினை நீறுபூத்த நெருப்பாய் புகைந்து கொண்டி ருந்தது. வழக்கம்போல அ.தி.மு.க. அரசு
இதையும் கண்டு கொள்ளாமல் அலட்சி யப்படுத்தியதன் விளைவாக இப்போராட்டம் தீயாகப்பற்றி
தீவிரமடைந்துள்ளது. </p><p>
</p><p>
பிரச்சினை இவ்வளவு தீவிரம் அடைந்த பிறகு, முதல்வர் ஜெயலலிதா ஆற அமர அது பற்றி
பேசலாம், போராட்டத்தை நிறுத்துங்கள் என்று கூறி இருக்கிறார். அதிலும் ஆசிரியர், மாணவரை
பாதிக்கும் வகையில் எந்த சலுகையும் நீக்கப்படாது என்ற உறுதிமொழியை முதல்வர் அறுதியிட்டு
தெரிவிக்கவில்லை. அதன் விளைவாக அதிருப்தியடைந்த ஆசிரியர், மாணவர் போராட்டம்
தொடரும் என அறிவித்துள் ளனர். </p><p>
</p><p>
உடனடி தீர்வு </p><p>
</p><p>
குறிப்பாக மாணவர் போராட்டத்தில் இறங்குவது மிகப்பெரும் பின்விளைவை ஏற்படுத்தும்.
ஆளுகின்ற அரசு, மாணவர்களுக்கு எதிராக விடுக்கும் சவாலாகவும் மாறி விடும். எனவே அரசு
கல்லூரி ஆசிரியர், மாணவர்களின் இன்றைய பிரச்சினைக்கு தமிழக அரசு உடனடியாக தீர்வு காண
வேண்டும். </p><p>
</p><p>
இவ்வாறு அவர் கூறி உள்ளார். </p>

<p> </p>






</body></text></cesDoc>