<cesDoc id="tam-w-dinakaran-politics-03-04-08" lang="tam">
<cesHeader type="text">
<fileDesc>
<titleStmt>
<h.title>tam-w-dinakaran-politics-03-04-08.txt</h.title>
<respStmt>
<respType>Electronic file created by</respType>
<respName>Department of Linguistics, Lancaster University</respName>
<respType>text collected by</respType>
<respName>Paul Baker and Celia Worth</respName>
<respType>transferred into Unicode by</respType>
<respName>"Unicodify" software by Andrew Hardie</respName>
</respStmt>
</titleStmt>
<publicationStmt>
<distributor>UCREL</distributor>
<pubAddress>Department of Linguistics, Lancaster University, Lancaster, LA1 4YT, UK</pubAddress>
<availability region="WORLD"></availability>
<pubDate>03-08-24</pubDate>
</publicationStmt>
<sourceDesc>
<biblStruct>
<monogr>
<h.title>"Dinakaran" internet news (www.dinakaran.com), news stories collected on 03-04-08</h.title>
<h.author>Dinakaran</h.author>
<imprint>
<pubPlace>Tamil Nadu, India</pubPlace>
<publisher>Dinakaran</publisher>
<pubDate>03-04-08</pubDate>
</imprint>
</monogr>
</biblStruct>
</sourceDesc>
</fileDesc>
<encodingDesc>
<projectDesc>Text collected for use in the EMILLE project.</projectDesc>
<samplingDesc>Simple written text only has been transcribed. Diagrams, pictures and tables have been omitted and their place marked with a gap element.
</samplingDesc>
<editorialDecl>
<conformance level="1"></conformance>
</editorialDecl>
</encodingDesc>
<profileDesc>
<creation>
<date>03-08-24</date>
</creation>
<langUsage>Tamil</langUsage>
<wsdUsage>
<writingSystem id="ISO/IEC 10646">Universal Multiple-Octet Coded Character Set (UCS).</writingSystem>
</wsdUsage>
<textClass>
<channel mode="w">print</channel>
<constitution type="composite"></constitution>
<domain type="public"></domain>
<factuality type="fact"></factuality>
</textClass>
<translations></translations>
</profileDesc>
<revisionDesc></revisionDesc>
</cesHeader>

<text>
<body>




<p>அமெரிக்காவை கண்டித்து
தீர்மானம் நிறைவேற்ற கோரி பாராளுமன்றத்தில் எதிர்க்கட்சிகள் ரகளை: இரு அவைகளும்
ஒத்திவைப்பு </p>

<p> </p>

<p>புதுடெல்லி, ஏப். 8- பாராளுமன்றத்தின் இரு அவைகளும் 3 வார கால
இடைவௌிக்கு பிறகு நேற்று மீண்டும் கூடின. மக்களவை நேற்று காலை கூடியதும் எதிர்க்கட்சி
உறுப்பினர்கள் ஈராக் விவகாரம் குறித்து விவாதிக்க மக்களவையை ஒத்திவைக்க வேண்டும் இது
தொடர்பாக தாங்கள் கொடுத்த ஒத்திவைப்பு தீர்மானத்தை ஏற்றுக்கொள்ள வேண்டும் என்று
வலியுறுத்தினர். </p><p>
</p><p>
குறிப்பாக காங்கிரஸ், சமாஜ்வாடி, இடது சாரிகட்சி உறுப்பினர்கள் இந்த கோரிக்கையை
வலியுறுத்தி உரத்த குரலில் பேச தொடங்கினர். ஈராக் மீது போர் தொடுத்ததற்காக
அமெரிக் காவை கண்டித்து மக்களவையில் தீர்மானம் நிறைவேற்ற வேண்டும் என்று எதிர்க்கட்சி
உறுப்பினர்கள் கோஷம் போட்டனர். </p><p>
</p><p>
ஈராக் விவகாரம் தொடர் பாக வௌியுறவுத்துறை அமைச்சர் யஷ்வந்த் சின்கா அறிக்கை
தாக்கல் செய்வார் என்று சபாநாயகர் மனோகர் ஜோஷி அறிவித்தார். ஆனால் மந்திரி
அறிக்கை தாக்கல் செய்ய எதிர்க்கட்சி உறுப்பினர்கள் அனுமதிக்கவில்லை. அரசுக்கு எதிராக
கோஷம் போட்டபடி அவர்கள் சபாநாயகர் இருக்கையை முற்றுகையிட்டனர். இதனால் அவையில்
கூச்சல்- குழப்பம் ஏற்பட்டது. இதையடுத்து அவையை மதியம் 2 மணி வரை ஒத்திப்போடுவதாக
சபாநாயகர் அறிவித்தார். </p><p>
</p><p>
மதியம் 2 மணிக்கு மக்களவை மீண்டும் கூடியது. அப்போதும் எதிர்க்கட்சி எம்.பி.க்கள்
அமளியில் ஈடுபட்டனர். ஈராக் விவகாரத்தில் அனைத்து கட்சிகளிடையே ஒருமித்த கருத்தை
உருவாக்க அவையில் விவாதம் நடத்த வேண்டும் என்று அவர்கள் கோரினர். </p><p>
</p><p>
இந்த பிரச்சினைக்கு தீர்வு காண மாலை 5 மணிக்கு அனைத் துக்கட்சி தலைவர்கள் கூட்டம்
நடைபெறும் என்று சபாநாயகர் அறிவித்தார். அதில் ஈராக் போர் தொடர்பான
தீர்மானத்தின் நகல் இறுதி செய்யப்படும் என்று அவர் சொன்னார். ஆனால் தொடர்ந்து
எதிர்க்கட்சியினர் கோஷமிட்டபடி இருந்தனர். அவர்களை எதிர்த்து ஆளும் பா.ஜ.
உறுப்பினர்கள் முழக்கங்களை எழுப்பினர். இதனால் அவையில் கூச்சல்-குழப்பமாக இருந்தது.
இதையடுத்து அவையை மாலை 5 மணி வரை ஒத்திப்போடுவதாக சபாநாயகர் அறிவித்தார். </p><p>
</p><p>
மாலை 5 மணிக்கு அவை மீண்டும் கூடியது. அப்போதும் எதிர்க்கட்சி உறுப்பினர்கள் தொடர்ந்து
கோஷம் போட்டனர். இதையடுத்து அவையை நாள் முழுவதும் ஒத்திவைப்பதாக சபாநாயகர் இருக்கையில்
இருந்த பி.எச்.பாண்டியன் அறிவித்தார். மாநிலங்களவையிலும் ஈராக் விவகாரம்
எதிர்க்கட்சி உறுப்பினர்களால் எழுப்பப்பட்டது. அவை கூடியதும் நட்வர் சிங் (காங்கிரஸ்),
நிலோட்பால் பாசு(மார்க்சிய கம்யூ.) ஆகியோர் உள்பட பல எதிர்க்கட்சி எம்.பி.க்கள்
கேள்வி நேரத்தை ஒத்திவைத்துவிட்டு ஈராக் விவகாரம் குறித்து விவாதிக்க வேண்டும் என்று
உரத்த குரலில் கோரிக்கை வைத்தனர். </p><p>
</p><p>
அவை முன்னவரும் நிதி அமைச்சருமான ஜஸ்வந்த் சிங் பேசுகையில் ஈராக் விவகாரம் குறித்து
விவாதிக்க அரசு தயாராக இருக்கிறது. ஆனால் இந்த விவகாரம் தொடர்பாக தீர்மானம்
நிறைவேற்றுவது குறித்து விவாதம் நடக்கும்போது முடிவு செய்யலாம். இந்த விவகாரத்தில் வௌி
யுறவுத் துறை அமைச்சர் யஸ்வந்த் சின்கா அறிக்கை தாக்கல் செய்ய உள்ளார். அது வரை
எதிர்க்கட்சியினர் பொறுமையாக இருக்க வேண்டும் என்றார். </p><p>
</p><p>
ஆனால் எதிர்க்கட்சி உறுப்பினர்கள் அமெரிக்காவை கண்டித்து தீர்மானம் கொண்டு வந்தே தீர
வேண்டும் என்று கோஷம் போட்டனர். இதையடுத்து அவையை ஒரு மணி நேரம் ஒத்திவைப்பதாக துணை
ஜனாதிபதியும், மாநிலங்களவை தலைவருமான பைரோன் சிங் செகாவத் அறிவித்தார். </p><p>
</p><p>
மீண்டும் அவை கூடிய போதும் அவையில் அமளி நிலவியது. துணைத் தலைவர் நஜ்மா ஹெப்துல்லா
கூறுகையில் ஈராக் விவகாரம் தொடர்பாக விவாதம் மட்டும் நடத்தினால் போதுமா? அல்லது
தீர்மானம் நிறைவேற்ற வேண்டுமா? என்பது குறித்து அவை அலுவல் ஆய்வு குழு விவாதம் நடத்தி
வருகிறது. எனவே அவையை மதியம் 2 மணிவரை ஒத்திவைக்கிறேன் என்றார். </p><p>
</p><p>
மீண்டும் அவை கூடிய போதும் எதிர்க்கட்சி எம்.பி.க்கள் கோஷம் போட்டபடி இருந்ததால்
பிற்பகல் 3 மணி வரை மாநிலங்களவை ஒத்திப்போடப்பட்டது. 3 மணிக்கு அவை கூடிய போதும்
கூச்சல்-குழப்பம் நிலவியதால் மாலை 4.30 மணி வரை ஒத்திவைக்கப்பட்டது. ஆனால் மீண்டும்
அவை கூடியபோதும் அமைதி ஏற்படாததால் அவை நாள் முழுவதும் ஒத்திப்போடப்பட்டது. </p>

<p> </p>

<p> </p>

<p>மாநிலங்களவை தேர்தல்:
கருணாகரன் வேட்பாளருக்கு வெற்றி வாய்ப்பு; அந்தோணி ஆட்சிக்கு ஆபத்தா? </p>

<p> </p>

<p>திருவனந்தபுரம், ஏப்.8- மாநிலங்களவை தேர்தலில் கருணாகரன்
வேட்பாளருக்கு வெற்றி வாய்ப்பு அதிகமாக உள்ளது. </p><p>
</p><p>
கேரள மாநிலத்தில் இருந்து பாராளுமன்ற மாநிலங்கள வைக்கு 3 உறுப்பினர்களை
தேர்ந்தெடுப்பதற்காக வருகிற 14-ந்தேதி தேர்தல் நடைபெறுகிறது. காங்கிரஸ் சார்பில்
வயலார் ரவி, தென்னல பால கிருஷ்ணபிள்ளை ஆகிய 2 பேர் வேட்பாளராக அறிவிக்கப்பட்டனர்.
இவர்களை எதிர்த்து போட்டி வேட்பாளராக கோவிந்தன் நாயர் என்பவரை முன்னாள் முதல்வர்
கருணாகரன் நிறுத்தியுள்ளார். இதனால் கருணாகரன், முதல்வர் ஏ.கே.அந்தோணி இடையிலான
மோதல் முற்றியுள்ளது. </p><p>
</p><p>
கோவிந்தன் நாயர் எப்படியும் தன் வேட்பு மனுவை வாபஸ் பெற்றுவிடுவார் என்று அந்தோணி
எதிர்பார்த்தார். ஆனால் வேட்பு மனு வாபஸ் பெற கடைசி நாளான நேற்று வரை கோவிந்தன்
மனுவை வாபஸ்வாங்கவில்லை. </p><p>
</p><p>
148 உறுப்பினர்கள் கொண்ட கேரள சட்டசபையில் காங்கிரஸ் தலைமையிலான ஐக்கிய ஜனநாயக
முன்னணிக்கு 100 எம்.எல்.ஏ.க்கள் உள்ளனர். மார்க்சிய கம்யூ. தலைமையிலான இடதுசாரி
ஜனநாயக முன்னணிக்கு 40 உறுப்பினர்கள் உள்ளனர். உறுப்பினர்கள் பலத்தை வைத்து காங்கிரஸ்
மாநிலங்களவையில் 2 இடங்களைப் பெற முடியும். இடது சாரி முன்னணி நிறுத்தியுள்ள
சந்திரன்பிள்ளை வெற்றி பெற 36 ஓட்டுகளே போதும். எனவே மீதி உள்ள 4 ஓட்டுகளை கருணா கரன்
நிறுத்தியுள்ள கோவிந் தன் நாயருக்கு போட இடது சாரி முன்னணி முடிவு செய்து உள்ளது. ஏற்கனவே
கோவிந் தன் நாயர் வேட்புமனுவில் 20 காங்கிரஸ் எம்.எல்.ஏ.க்கள் கையெழுத்திட்டுள்ளனர்.
27 காங். எம்.எல்.ஏ.க்களின் ஆதரவு தனக்கு இருப்பதாக கோவிந்தன் நாயர் கூறியுள்ளார். </p><p>
</p><p>
27 காங். எம்.எல்.ஏ.க்கள், 4 இடதுசாரி முன்னணி எம்.எல்.ஏ.க்கள் ஓட்டுகளை சேர்த்தால்
மொத்தம் 31. எனவே கோவிந்தன் நாயர் வெற்றி பெற மேலும் 5 ஓட்டுகளே தேவை. இந்த
ஓட்டுகளை காங். கூட்டணி கட்சிகளிடம் இருந்து பெற கருணாகரன் வட்டாரம் தீவிர முயற்சியில்
இறங்கியுள்ளது. எனவே கோவிந்தன் நாயர் வெற்றி பெறும் வாய்ப்பு பிரகாசமாக உள்ளது. </p><p>
</p><p>
கட்சி கொறடா உத்தரவை மீறி காங்கிரஸ் எம்.எல்.ஏ.க்கள் கோவிந்தன் நாயருக்கு ஓட்டு
போடுவார்களா? என்று ஒரு கேள்வி எழுந்துள்ளது. ஆனால் கட்சி கொறடா பி.பி.ஜார்ஜ்
கோவிந்தன் நாயர் வேட்பு மனுவில் கையெழுத்து போட்டுள்ளார் என்பது குறிப் பிடத்தக்கது. 27
காங்கிரஸ் எம்.எல்.ஏ.க்களும் கட்சி உத்தரவை மீறி கோவிந்தன் நாயருக்கு ஓட்டு போட்டால்
அவர்கள் அனைவரின் மீதும் காங். மேலிடம் நடவடிக்கை எடுப்பது சிக்கலான காரியம். அப்படி நடவடிக்கை
எடுக்கப் பட்டால் முதல்வர் அந்தோணி ஆட்சிக்கே அது ஆபத்தாக முடியும். </p><p>
</p><p>
மூத்த அரசியல்வாதியான கருணாகரனுக்கு தற்போது 84 வயது ஆகிறது. முதன்முறை யாக அவர் இப்போது
தான் காங். மேலிட கட்டளையை வௌிப்படையாக மீறியுள்ளார். கோவிந்தன் நாயர் வெற்றி
பெற்றால் கருணாகரன் மீண்டும் பலமான சக்தியாக உருவெடுப்பார். அதிகாரபூர்வ வேட்பாளர்
தோற்றால் அது முதல்வர் அந்தோணிக்கு பெரும் பின்னடைவாகும் என்று அரசியல் நோக்கர்கள்
கருதுகிறார்கள். இந்த சிக்கலான சூழ்நிலையில் மாநில காங்கிரஸ் தலைவர் முரளிதரன்
சோனியாவை சந்திக்க இன்று டெல்லி செல்கிறார். </p>

<p> </p>

<p> </p>

<p>கிருஷ்ணாநீர் சென்னைக்கு
வரவில்லையா? உங்களால் முடியாததை நான் முடித்து காட்டுகிறேன்; ஜெ.க்கு துரைமுருகன் நேரடி
சவால் </p>

<p> </p>

<p>சென்னை, ஏப். 8- கிருஷ்ணா நீர் சென்னைக்கு வர, உங்களால்
முடியாததை நான் முடித்துக்காட்டுகிறேன் என்று ஜெயலலிதாவிடம் துரைமுருகன் நேரடி சவால்
விட்டார். </p><p>
</p><p>
ஜெ. கேள்வி </p><p>
</p><p>
சட்டசபையில் நேற்று பொதுப்பணித்துறை மானிய விவாதத்தில் கலந்து கொண்டு சக்ரபாணி
(தி.மு.க.) பேசினார். அப்போது நடைபெற்ற வாக்குவாதம் வருமாறு:- </p><p>
</p><p>
சக்கரபாணி:- கிருஷ்ணா நீர் திட்டத்தை முடித்து சென்னை நகர மக்களுக்கு பெற்று தந்தவர்
எங்கள் தலைவர் கலைஞர். </p><p>
</p><p>
முதல்வர் ஜெயலலிதா:- உங்கள் தலைவர் கிருஷ்ணா நீர் கொண்டு வந்தார் என்றால் எங்கே அந்த
நீர்? </p><p>
</p><p>
துரைமுருகன்:- இன்று கிருஷ்ணா கால்வாயில் வந்து கொண்டு இருக்கிறதே அது தான் கிருஷ்ணா
தண்ணீர். </p><p>
</p><p>
ஜெயலலிதா:- அந்த தண்ணீர் வரவில்லை. கால்வாய் வறண்டு கிடக்கிறது. மீண்டும் கேட்கிறேன்,
எங்கே அந்த தண்ணீர்? </p><p>
</p><p>
முடித்து காட்டுகிறேன் </p><p>
</p><p>
துரைமுருகன்:- அப்படியா? எங்களுக்கு பிறகு நீங்கள் எந்த முயற்சியும் எடுக்க வில்லையா?
உங்கள் சார்பாக என்னை அங்கே அனுப்புங்கள் தண்ணீரை கொண்டு வருகிறேன். </p><p>
</p><p>
காளிமுத்து:- ஆளும் கட்சியில் சேருவதாக துரைமுருகன் உத்தேசமா? (சிரிப்பு) </p><p>
</p><p>
துரைமுருகன்:- கட்சியில் சேர அல்ல. இந்த ஆட்சியால் முடியாததை முடித்து காட்டு வதற்காகத்தான்
அப்படி சொன்னேன். (தி.மு.க. மேஜையை தட்டி ஆரவாரம்) </p><p>
</p><p>
சக்கரபாணி:- கிருஷ்ணா தண்ணீர் வரவில்லை என்கிறீர்கள். தண்ணீர் வந்ததாக கொள்கை
விளக்க குறிப்பில் இருக்கிறது. </p><p>
</p><p>
சேதுசமுத்திர திட்டம் </p><p>
</p><p>
எங்கள் தலைவர் கலைஞர் முயற்சியால் சேது சமுத்திர திட்டத்தை மத்திய அரசு நிறைவேற்ற
முன்வந்துள்ளது. </p><p>
</p><p>
ஜெயலலிதா:- 1998-ல் அ.தி.மு.க. பா.ஜ. மத்திய ஆட்சியில் பங்கேற்றது. தேசிய செயல்
திட்டத்தில் சேது சமுத்திர திட்டத்தை சேர்க்க பிரதமருடன் வாதாடி கோரிக்கை வைத்தேன். </p><p>
</p><p>
துரைமுருகன்:- அண்ணா ஆட்சிக்கு வந்ததும் சேது சமுத்திர திட்டத்திற்காக எழுச்சி நாள்
கொண்டாடினார். தி.மு.க. மேடைகளில் இத்திட்டம் குறித்து பலமுறை பேசி உள்ளோம். </p><p>
</p><p>
ஜெயலலிதா:- நான் மறுக்கவில்லை. முதலில் குரல் கொடுத்தவர் அண்ணா. ஆனால் அதை மத்திய
அரசின் செயல் திட்டத்தில் சேர்க்க வைத்தது நான்தான். </p><p>
</p><p>
(பொன்முடி குறுக்கிட முயன்றார்). </p><p>
</p><p>
சபாநாயகர்:-நீங்கள் (பொன்முடி) அப்போது தி.மு.க.விலேயே இல்லை. உட்காருங்கள். </p><p>
</p><p>
துரைமுருகன்:- இப்படி பொன்முடியை கொச்சைப்படுத்துவது போல சபாநாயகர் பேசலாமா? </p><p>
</p><p>
பொன்முடி தி.மு.க. மாணவர் அணியில் அண்ணா மலைபல்கலைக்கழகத்தில் படித்தபோதே
பணியாற்றியவர். நான் மாணவரணி தேர்தலில் போட்டியிட்டபோது எனக்கு பொன்முடி வாக்களித்து
இருக்கிறார். இதெல்லாம் உங்களுக்கு தெரியாது என்றால் தெரிந்து கொள்ளுங்கள். </p><p>
</p><p>
இவ்வாறு விவாதம் நடந்தது. </p>

<p> </p>

<p> </p>

<p>ஜெயலலிதாவுக்கு
வேண்டியவர்களால் வாஜ்பாய்க்கு தெரியாமல் நடந்த நாடகம்: மத்திய அரசு மனு பற்றி வைகோ
குற்றச்சாட்டு </p>

<p> </p>

<p>சென்னைள, ஏப். 8- ஜெயலலிதாவுக்கு வேண்டியவர்களால் பிரதமர்
வாஜ்பாய்க்கு தெரியாமல் நடத்தப் பட்ட நாடகமே மத்திய அரசின் பிரச்சினைக்குரிய மனு என்று
வைகோ குற்றம் சாட்டி உள்ளார். </p><p>
</p><p>
வைகோ தந்த அறிக்கை </p><p>
</p><p>
ம.தி.மு.க. பொதுச் செயலாளர் வைகோ நேற்று காலை பூந்தமல்லி பொடா நீதிமன்றத்தில்
ஆஜர்படுத்தப்பட்டார். அப்போது அவர் நிருபர்களிடம் ஒரு அறிக்கை வௌியிட்டார். அதில்
அவர் கூறி இருப்பதாவது:- </p><p>
</p><p>
கடந்த ஆண்டு ஜூலை மாதம் 3-ந்தேதி நான் அமெரிக்காவில் சிகாகோ நகரை அடைந்தேன். தமிழக
முதல்வர் ஜெயலலிதா என்னை பொடா சட்டத்தின் கீழ் கைது செய்ய நடவடிக்கை எடுத்துள்ளதாக
செய்தி கிடைத்தது. அடுத்த 48 மணி நேரத்துக்குள் மத்திய சட்ட அமைச்சர் அருண்ஜெட்லி
என்னோடு தொலைபேசியில் தொடர்பு கொண்டு திருமங்கலம் பொதுக்கூட்டத்தில் நான் ஆற்றிய
உரை பொடா சட்டத்தின் பிரிவுகளுக்கு உட்படாது- பொடாவைப் பயன்படுத்த முடியாது என்று
கூறினார். </p><p>
</p><p>
வெங்கய்யாநாயுடு </p><p>
</p><p>
அதனையே ஏடுகளுக்கும், தொலைக்காட்சிகளுக்கும் அவர் தெரிவித்தார். தேசிய ஜனநாயக
கூட்டணியின் அமைப்பாளரான ஜார்ஜ் பெர்னாண்டஸ் தமிழ்நாடு அரசு எனக்கு எதிராக பொடா
சட்டத்தை தவறாகப் பயன்படுத்தியுள்ளது என்று மிகவும் அழுத்தமாக வலியுறுத்திக் கூறினார்.
பாரதிய ஜனதாக் கட்சியின் தலைவர் வெங்கய்யாநாயுடுவும் இதே கருத்தினையே தொடர்ந்து 9
மாதங்களாக கூறி வருகிறார். </p><p>
</p><p>
அத்வானி சொன்னது </p><p>
</p><p>
கடந்த பிப்ரவரி 16-ந்தேதியன்று பிரதமர் வீட்டில் நடைபெற்ற தேசிய ஜனநாயக கூட்டணி கூட்டத்தில்
தி.மு.க. அமைச்சர் டி.ஆர்.பாலு என் சிறைவாசம் குறித்து எழுப்பிய கேள்விகளுக்குப் பதில்
சொன்ன துணை பிரதமர் அத்வானி னானாபொடா சட்டம் வைகோ மீது தவறாக ஏவப்பட்டிருக்கிறது என்று
உச்சநீதிமன்றத்தில் மத்திய அரசு தெரிவிக்கும் என்றார். இத்தனை வாக்குமூலங்கள்,
அறிக்கைகளுக்குப் பிறகு உச்ச நீதிமன்றத்தில் எனது ரிட் மனு மீது மத்திய அரசு தாக்கல்
செய்த பிரமாண வாக்கு மூலத்தில் எனது பேச்சுக்களே பயங்கரவாதம் தான் என்று
தெரிவித்துள்ளனர். </p><p>
</p><p>
பொருட்டாக கருதவில்லை </p><p>
</p><p>
இதில் ஏளனத்துக்குரிய விசித்திரம் என்னவென்றால், நாடாளுமன்றத்தில் குஜராத் பிரச்சினை
குறித்த விவாதத்தில் நான் பேசியதைத்தான் திருமங்கலம் பொதுக் கூட்டத் தில் மேற்கோள்
காட்டினேன். மத்திய சர்க்கார் தாக்கல் செய்த பிரமாண வாக்கு மூலத்தைப் பற்றி நான்
கிஞ்சிற்றும் கவலைப்படவில்லை. அதை ஒரு பொருட்டாக எடுத்துக் கொள்ளவும் இல்லை.
உச்ச நீதிமன்றத்தில் நான் தாக்கல் செய்துள்ள ரிட் மனு மீதான வழக்கில் தமிழ்நாடு
அரசின் சார்பில் டெல்லியில் உள்ள கூடுதல் சொலிசிட்டர் ஜெனரல் ஆஜராகப் போகிறார்
என்று தமிழக சட்டமன்றத்தில் முதல் வர் ஜெயலலிதா கூறியுள்ளார். </p><p>
</p><p>
விறுவிறுப்பான நாடகம் </p><p>
</p><p>
தமிழக முதல்வர் குறிப்பிட்ட கூடுதல் சொலிசிட்டர் ஜெனரல் அல்டாப் என்பவர் தான் சென்னை
உயர்நீதி மன்றத்தில் தமிழர் தேசிய இயக்கத் தலைவர் பழ.நெடு மாறன் தாக்கல் செய்த பிணை
விடுப்பு மனுவுக்கு எதிராக வாதாடியவர் என்பது முக்கிய மாகக் கவனத்தி் கொள்ள
வேண்டியதாகும். இதில் குரூர மான நகைப்புக்கிடமானது என்னவென்றால் தமிழக முதல மைச்சர்
இப்பிரச்சினையில் நம்பிக் கொண்டிருக்கும் நபர்கள்தான் என் வழக்கில் உச்சநீதி
மன்றத்தில் தாக்கல் செய்யப்பட்ட தற்போது சர்ச்சைக்குள்ளாகியிருக்கும் பிரமாண
வாக்குமூலத்தைத் தயாரித்தவர்கள் என்பதாகும். இந்த விறுவிறுப்பான நாடகத் தின்
கதாபாத்திரங்களின் பெயர்களை நான் அவசரப்பட்டுக் கூற விரும்பவில்லை. பிரதமருக்கும், துணை
பிரத மருக்கும் தெரியாமலே இந்த விவகாரம் நடை பெற்றிருக்கிறது என்பதைத்தான்
இப்பிரச்சினையில் நான் கூற விரும்புகிறேன். </p><p>
</p><p>
அலட்சிய மனப்பான்மை </p><p>
</p><p>
மிகவும் பொறுப்பற்ற முறை யிலும், அலட்சிய மனப்பான்மையுடனும், அக்கறை உணர்வு அறவே
அற்றுப்போன வகையிலும் இந்த விவகாரத்தை மத்திய அரசு கையாண்டது என்ற விமர்சனத்துக்குப்
பதிலளிக்க வேண்டிய பல வீனத்துக்கு மைய அரசு ஆளாகியிருக்கிறது என்பதைத் தவிர்க்க இயலாமல்
நான் கூற வேண்டியுள்ளது. </p><p>
</p><p>
மின்னல் வேக நடவடிக்கை </p><p>
</p><p>
மத்திய அரசு உச்சநீதி மன்றத்தில் தாக்கல் செய்த பிரமாண வாக்கு மூலம் குறித்து நான்
அறிந்தவுடன் அது குறித்து மறுபரிசீலனை செய்யுமாறு மத்திய அரசை கேட்கவே கூடாது என்றும்
நீதிமன்றத்தில் எனது நியாயத்துக்கான போராட்டத்தை தொடர்வது என்றும் உறுதி யாகத்
தீர்மானித்தேன். இதற் கிடையில் தி.மு.க. தலைவர் டாக்டர் கலைஞர் மின்னல்
வேகத்தில் நடவடிக்கைகளை மேற்கொண்டதாலும், மத்திய அமைச்சர் டி.ஆர்.பாலு மூல மாக மத்திய
அரசிடம் இப்பிரச்சினையை எழுப்பிய தாலும் மத்திய சர்க்கார் உச்சநீதிமன்றத்தில்
ஏற்கனவே தாக்கல் செய்திருந்த பிரமாண வாக்கு மூலத்தை திரும்பப் பெற்றுக்கொண்டு
திருத்தப்பட்ட ஒரு பிரமாண வாக்கு மூலத்தை தாக்கல் செய்வதென்றும் முடிவு செய்தது. </p><p>
</p><p>
கலைஞரின் சகோதரபாசம் </p><p>
</p><p>
ஆனால் இந்த விவகாரத்தில் மத்திய அரசின் பிரமாண வாக்கு மூலத்தைப் பற்றி
கிஞ்சிற்றும் கவலைப்படாமல் பொடா சட்டத்தின் 21-வது பிரிவு அரசியல் சட்டத்துக்கு
எதிரானது என்ற வாதத்தினை வலுவாக உச்சநீதிமன்றத்தில் எனது தரப்பில் எடுத்து வைப்போம்
என்பதுதான் இந்த விவகாரத்தில் இயல்பாக எனக்கு ஏற்பட்ட எண்ணமாகும். என்னுடைய இயல்பான
உணர்வின் அடிப்படையில் உச்சநீதிமன்றத்தில் ஏற்கனவே தாக்கல் செய்யப்பட்ட பிரமாண
வாக்குமூலத்தை மாற்றி இரண்டாவது ஒரு வாக்கு மூலத்தை தாக்கல் செய்வதற்கு எனது ஒப்புதலைத்
தந்திருக்கவே மாட்டேன். ஆனால் என் நலனில் மிகுந்த கவலை கொண்டு சகோதர பாசத்துடன்
டாக்டர் கலைஞர் மேற் கொண்ட முயற்சிகளை எண்ணித்தான் ஒப்புதல் தர நேரிட்டது. </p><p>
</p><p>
நீதிக்காக போராடுகிறேன் </p><p>
</p><p>
எனது மனசாட்சி மிகத்தௌிவாக இருக்கிறது. இந்தியாவில் பயங்கரவாதத்தை ஊக்கு விக்கும்
வகையில் பேசவோ, செயல்படவோ நான் ஒருக்காலும் எண்ணியது கிடை யாது. இலங்கைத் தீவில் உள்ள
ஈழத்தமிழர்களின் துன்ப துயரத்தைக் குறித்துத்தான் எனது வேதனைக்குரலை
எழுப்பியிருக்கிறேன். இந்திய நீதிமன்றங்களில் நீதிக்காகப் போராடுகிறேன். இறுதியில்
நீதியே மேலோங்கும் என நம்புகிறேன். </p><p>
</p><p>
இவ்வாறு கூறி உள்ளார். </p>

<p> </p>

<p> </p>

<p>புதிய வீராணம் திட்டம்
என்று சொல்லி எம்.ஜி.ஆரின் கிருஷ்ணா </p>

<p>திட்டத்தை கிடப்பில்
போடுவதா? ஐ.கணேசன் (பா.ம.க.) கண்டனம் </p>

<p> </p>

<p>சென்னை, ஏப். 8- எம்.ஜி.ஆர். தொடங்கிய கிருஷ்ணா நீர்
திட்டத்தை கிடப்பில் போடுவதா? என்று ஐ.கணேசன் (பா.ம.க.) கண்டனம் தெரிவித்தார். </p><p>
</p><p>
அரசு ஊழியர் பிரச்சினை </p><p>
</p><p>
சட்டசபையில் நேற்று பொதுப்பணித்துறை, பணியாளர் நிர்வாக சீர்திருத்த துறை மான்ய
விவாதத்தில் கலந்து கொண்டு ஐ.கணேசன் (பா.ம.க.) பேசியதாவது:- </p><p>
</p><p>
அரசு ஊழியர்கள் வாங்குகிற சம்பளத்தை அப்படியே செலவு செய்துவிடக் கூடியவர் கள். அவர்கள்
கறுப்பு பணமாக பதுக்கி வைப்பதும் இல்லை. ஹவாலா பணமாக மாற்றுவதும் இல்லை. </p><p>
</p><p>
அப்படிப்பட்ட அரசு ஊழி யர்கள், ஆசிரியர்களின் சலுகைகளை இந்த அரசு தொடர்ந்து பறித்து
வருகிறது. அவர்கள் ஒன்றாம் தேதி சம்பளம் வாங்கினால் 20ந்தேதி வரைதான் கையில்
இருக்கும். பிறகு திண்டாட்டமாகத்தான் மீதி 10 நாளை ஓட்டுவார்கள். இதை கலைவாணர் என்.எஸ்.கே.
முதல்தேதி படத்தில் அழகாக ஒரு பாடல் மூலம் சொல்லியிருக்கிறார். </p><p>
</p><p>
இது நியாயமா? </p><p>
</p><p>
தேதி ஒன்றிலிருந்து இரு பது வரைக்கும் கொண்டாட்டம். பிறகு திண்டாட்டம் என்று பாடுவார்.
இப்போது அரசு ஊழியர்கள் நிலைமை இருபதாம் தேதி வரை கூட தாக்குப்பிடிக்க முடியவில்லை.
15ந்தேதிக்கு மேலே திண்டாட்டம் ஆரம்பித்து விடுகிறது. </p><p>
</p><p>
அப்படிப்பட்ட அரசு ஊழியர்கள் ஓய்வு பெறும்போது ஏதாவது பணம் கிடைக்கும்... பொண்ணு
திருமணத்தை நடத்தலாம்... கடன்களை அடைக்கலாம் என்று மனக் கோட்டை கட்டி
கொண்டிருந்தார்கள். அதை கெடுக்கிற மாதிரி ஓய்வு பெறும்போது ஒரு சேமிப்பு பத்திரத்தை,
ஒரு பேப்பரை கையில் கொடுத்து அனுப்புவது நியாயமா? </p><p>
</p><p>
உடம்பு சிலிர்த்தது </p><p>
</p><p>
ஒரு கதை சொல்வார்கள். அரசு ஊழியர் ஒருவரின் குழந்தை ரூபாய் நாணயத்தை விழுங்கி
விட்டதாம். அது மாத தொடக்கம். அப்போது குழந்தைக்கு பிரச்சினை இல்லை. டாக்டரிடம்
கொண்டு போக வில்லை. 20ந்தேதிக்கு மேல் குழந்தை விழுங்கிய நாணயத்தை வௌியே எடுக்க
முயற்சி மேற்கொண்டார் அந்த அரசு ஊழியர். அதுவும் குழந்தைக்காக அல்ல. அந்த நாணயம்
அப்போது அவருக்கு தேவைப்பட்டது- அதனால் என்று ஒரு கதை சொல்வார்கள். அப்படி சிரம நிலை
யில் வாழுகிற அரசு ஊழியர்களை மேலும் வதைக்காதீர்கள். </p><p>
</p><p>
சபாநாயகர் காளிமுத்து:- நீங்கள் சொன்ன கதையை கேட்டு உடம்பு சிலிர்க்கிறது.
(சிரிப்பு). </p><p>
</p><p>
ஏரிக்குள் மாடி வீடு </p><p>
</p><p>
ஐ.கணேசன்:- எங்கள் இதய தெய்வம் டாக்டர் அய்யா வும், சின்ன டாக்டர் அய்யாவும் ஏரி,
குளங்களை தூர்வாரும் நல்ல பணியை செய்து வருகிறார்கள். ஆனால் இன்னொரு பக்கம் ஏரி
குளங்கள் பட்டா போடப்படுகின்றன. அதிகாரிகள் லஞ்சம் பெற்று கொண்டு துணை
போகிறார்கள். இதனால் ஏரி, குளம் இருந்த இடத்தில் மாடி வீடுகள், மெத்தை வீடுகள் எழுந்து
உள்ளன. </p><p>
</p><p>
வானம் சுருங்கினால் தானம் சுருங்கும் என்பார்கள். வானில் இருந்து பெய்கிற மழையை சேமிக்கிற
ஏரி, குளங்கள் இப்படி கொள்ளையிடப்பட்டு சுருங்கினால் நாடு எப்படி செழிக்கும்? வறண்டு
தான் போகும். </p><p>
</p><p>
சிவன் தலையில் கங்கை </p><p>
</p><p>
இன்றைக்கு நம்மைவிட்டு ஒவ்வொரு நீர் ஆதாரமாக போய்கொண்டிருக்கின்றன. ஆந்திராவில்
இருந்து கிருஷ்ணாநீர் கிடைப்பதில் பிரச்சினை. கர்நாடகாவில் இருந்து காவிரி நீர்
கிடைப்பதில் பிரச்சினை. கேரளா அரசால் பவானி தண்ணீருக்கு பிரச்சினை. </p><p>
</p><p>
அதனால்தானோ என் னவோ ஒருவேளை கங்கைக்கும் பிரச்சினை ஏற்படுத்தி விடப் போகிறார்கள்
என்று சிவபெருமான் கங்கையை தன் தலையிலேயே பாதுகாப்பாக வைத்து கொண்டார்போலும். </p><p>
</p><p>
எம்.ஜி.ஆர். வழியா? </p><p>
</p><p>
எம்.ஜி.ஆர். வழியில் ஆட்சி செய்வதாக சொல்கிறீர்கள். ஆனால் எம்.ஜி.ஆர். தொடங்கிய
கிருஷ்ணாநீர் திட்டத்தை கிடப்பில் போட்டு இருக்கிறீர்கள். வீராணம் திட்டம்
எம்.ஜி.ஆர். மனதில் சிந்திக் காதது. அதை நிறைவேற்று வேன் என்று பிடிவாதம்
பிடிக்கிறீர்கள். புதிய வீராணம் திட்டத்தை கைவிட்டு விடுங்கள். </p><p>
</p><p>
இது உயர்வான அரசு என்று ஆளும் கட்சியினர் பாராட்டினார்கள். ஆம் இது உயர்வான அரசுதான்.
மின் கட்டண உயர்வு, பஸ் கட்டண உயர்வு என்று பல உயர்வுகளை செய்துள்ள அரசை அப்படி
சொல்வது பொருத்தமே. </p><p>
</p><p>
இவ்வாறு அவர் பேசினார். </p>

<p> </p>

<p> </p>

<p>ஹிட்லர் - துக்ளக் போல
ஜெ. ஆட்சி செய்கிறார்; இளங்கோவன் தாக்கு </p>

<p> </p>

<p>சென்னை, ஏப். 8- ஹிட்லரையும், துக்ளக்கையும் ஒருசேர நினைவு
கூறத்தக்க வகையில் ஜெ. ஆட்சி செய்கிறார் என்று இளங்கோவன் கூறி உள்ளார். </p><p>
</p><p>
அறிக்கை </p><p>
</p><p>
தமிழ்நாடு காங்கிரஸ் செயல் தலைவர் இளங்கோவன் விடுத்துள்ள அறிக்கையில் கூறி
இருப்பதாவது:- </p><p>
</p><p>
ஜெயலலிதா தலைமையில் தமிழகத்தில் ஜனநாயகம் படுகுழிக்கு தள்ளப்பட்டு நிர்வாகத்தின் மேல்மட்டம்
முதல் அடி மட்டம் வரை சீர்கேடு அடைந்துள்ளது. அதை முறைப்படுத்த வேண்டிய ஜெ.
எதிர்க்கட்சிகளை பலவீனப்ளபடுத்துவதிலும், ஒழித்துக்கட்டுவதிலும் மும்முரமாய் செயல்பட்டு
வருகிறார். </p><p>
</p><p>
துக்ளக் போல... </p><p>
</p><p>
தலைமைச் செயலகம் கட்ட ராணி மேரி கல்லூரியை இடித்துத் தள்ளப்போவதாக ஜெ. கூறி உள்ளார்.
இதற்கு மாணவிகள், கல்லூரி ஆசிரியைகள், பெற்றோர், பொதுமக்களிட மிருந்து கடும்
எதிர்ப்பு ஏற்பட்டபோதும் போலி கவுரவம் காரணமாக முடிவை மாற்றாமல் பிடிவாதம்
பிடிக்கிறார். முதலில் மகாபலிபுரம் என்றார், பின்னர் சென்னை கடற்கரை என்றார்.
இப்போது ராணி மேரி கல்லூரிக்கு வந்துள்ளார். கடந்த முறை ஆண்டபோது தொட்டில் குழந்தை
திட்டம் முதல் சுடுகாட்டு கொட்டகை வரை ஊழல் செய்து புரட்சி செய்த ஜெ. இந்த ஆட்சியில்
ஹிட்லரையும், துக்ளக்கையும் ஒரு சேர நினைவு கூர்ந்து ஆட்சி புரிந்து சாதனை
படைத்துள்ளார். </p><p>
</p><p>
இவ்வாறு அவர் கூறினார். </p>

<p> </p>

<p> </p>

<p>கங்கை-காவிரி இணைப்பு
திட்டத்துக்கு முதல் வித்திட்டவர், கலைஞர்; சக்கரபாணி (தி.மு.க.) பாராட்டு:
அ.தி.மு.க. மந்திரிகள் மோதல் </p>

<p> </p>

<p>சென்னை, ஏப்.8- கங்கை-காவிரி இணைப்பு திட்டத்துக்கு முதல்
வித்திட்டவர் கலைஞரே என்று சக்கரபாணி (தி.மு.க.) பாராட்டினார். அவருக்கும்,
மந்திரிகளுக்கும் மோதல் ஏற்பட்டது. </p><p>
</p><p>
அணை கட்டுவது எப்படி? </p><p>
</p><p>
சட்டசபையில் நேற்று பொதுப்பணித்துறை மானிய விவாதத்தில் கலந்துகொண்டு தி.மு.க.
உறுப்பினர் சக்கரபாணி பேசியதாவது:- </p><p>
</p><p>
பெரிய அணைக்கட்டு எதற்கும் நிதி ஒதுக்காதது வேதனை அளிக்கிறது. இதில் உள்ள பெரும்பாலான
திட்டங்கள் தி.மு.க. அரசு அறிவித்து செயல்படுத்திய திட்டங்கள் ஆகும். புதிய
திட்டங்களுக்கு தலா ரூ.1000 ஒதுக்கியிருக்கிறீர்கள். இதில் எப்படி அணை கட்டுவீர்கள். ஒரு
புறம் கூடுதல் வரி போடுகிறீர்கள். </p><p>
</p><p>
மந்திரி ஓ.பன்னீர்செல்வம்:- தி.மு.க. ஆட்சியில் எந்த திட்டமும் அரசு வருவாயிலிருந்து
செயல்படுத்தவில்லை. அ.தி.மு.க. ஆட்சியில் 1995-ல் உலக வங்கி ஒப்புதலுடன் 1090 கோடிக்கு
பணிகளுக்கு ஒப்புதல் அளிக்கப்பட்டது. அதில் தான் தி.மு.க. ஆட்சியில் பல்வேறு திட்டங்கள்
செயல்படுத்தப்பட்டன. </p><p>
</p><p>
துரைமுருகன்:- உலக வங்கியிலிருந்து வாங்கி செய்கிறீர்கள். மாநில நிதியிலிருந்து
செய்யவில்லை என்றுதான் உறுப்பினர் கூறுகிறார். தி.மு.க. ஆட்சியில் மாநில நிதி யிலிருந்து
சில திட்டங்களை செயல்படுத்தினோம். </p><p>
</p><p>
மந்திரி பொன்னையன்:- தி.மு.க. ஆட்சியில் 94 சதவீதம் ஊதியம் போன்றவற்றிற்காக
செலவிட்டீர்கள். அதில் எப்படி திட்டங்களுக்கு நிதி ஒதுக்க முடியும். </p><p>
</p><p>
நிதி ஒதுக்கவில்லை </p><p>
</p><p>
சக்கரபாணி:- தி.மு.க. ஆட்சி அறிவித்த சோற்றுப்பாறை, மலட்டாறு, பச்சையாறு போன்ற
திட்டங்களுக்கு போதிய நிதி ஒதுக்கவில்லை. </p><p>
</p><p>
ஓ.பன்னீர்செல்வம்:- 345 லட்சம் ஒதுக்கியிருக்கிறோம். விரைவில் பணி முடியும். </p><p>
</p><p>
சக்கரபாணி:- இந்த ஆண்டுக்குள் நிறைவேற்ற வேண்டும் என்று கேட்டுக் கொள்கிறேன். </p><p>
</p><p>
முதல் வித்திட்டவர் </p><p>
</p><p>
தமிழ்நாட்டில் நதிகள் வறண்டு விவசாயிகள் கடுமையாக பாதிக்கப்பட்டுள்ளனர். கங்கை காவிரி
போன்ற நதிகளை இணைக்க மத்திய அரசு கொண்டு வந்த திட்டத்திற்கு முதல் வித்திட்டவர்
கலைஞர். </p><p>
</p><p>
ஒ.பன்னீர்செல்வம்:- 1984-ல் பாராளுமன்றத்தில் எங்கள் தலைவி நதிகள் இணைப்பு அவசியம்
பற்றி வலியுறுத்தினார். </p><p>
</p><p>
10 ஆயிரம் பேர் நீக்கம் </p><p>
</p><p>
சக்கரபாணி:- சாலைகள் மிகமோசமான நிலையில் உள்ளன. இந்த ஆட்சியில் சாலைப்பணியாளர்கள்
10 ஆயிரம் பேரை நீக்கினீர்கள். பலர் பட்டினியால் உயிர்விட் டார்கள்.
சாலைப்பணியாளர்களுக்கு மீண்டும் வேலை கொடுங்கள். அரசு ஊழியர் சலுகைகளை பறிக்காதீர்கள்.
அவர்களை போராட்டத்துக்கு தள்ளாதீர்கள். </p><p>
</p><p>
இவ்வாறு கூறினார். </p>

<p> </p>

<p> </p>

<p>கள்-சாராயக்கடை திறக்கவே
மாட்டோம் - மந்திரி பன்னீர் </p>

<p> </p>

<p>சென்னை, ஏப். 8- கள்-சாராயக்கடைகளை திறக்கவே மாட்டோம் என்று
மந்திரி ஒ.பன்னீர்செல்வம் அறிவித்தார். </p><p>
</p><p>
காவிரி இறுதி தீர்ப்பு </p><p>
</p><p>
சட்டசபையில் நேற்று பொதுப்பணித்துறை, மது விலக்கு துறை, நிர்வாக சீர்திருத்த துறை மானிய
விவாதம் நடந்தது. அதில் கலந்து கொண்டு சிவபுண்ணியம் (இந்திய கம்யூ.) பேசியதாவது:- </p><p>
</p><p>
காவிரி நீர் பிரச்சினையில் தமிழகத்துக்கு நியாயம் கிடைக்க செய்யுங்கள். சுப்ரீம்
கோர்ட்டில் அதற்கான இறுதி தீர்ப்பை பெற முயற்சி எடுங்கள். </p><p>
</p><p>
தமிழகத்தில் சாலைகள் சரியில்லை. இதனால் நிறைய விபத்துக்கள் தினமும் நடக் கின்றன.
எனவே சாலைகளை சீரமைக்க வேண்டும். </p><p>
</p><p>
வேலை-கடன் காலி </p><p>
</p><p>
சாலைப்பணியாளர்கள் அனைவரும் வேலை நீக்கம் செய்யப்பட்டு விட்டனர். அவர் கள் வாங்கிய
கடன் ரூ.30 ஆயிரத்துக்காக நோட்டீசு அனுப்புவார்கள். வேலையே இல்லை. கடனை எப்படி செலுத்த
முடியும்? வேலையை காலி செய்தது போல கடனையும் காலி செய்து விடுங்கள். </p><p>
</p><p>
இன்னும் 1 கோடியே 64 லட்சம் பேருக்கு வாக்காளர் அடையாள அட்டை வழங்க வேண்டி உள்ளது. அதை
சீக்கிரம் வழங்க ஏற்பாடு செய்யுங்கள். இல்லாவிட்டால் முறைகேடுகள் நடந்துவிடும். </p><p>
</p><p>
முதல்வர் பேச்சு </p><p>
</p><p>
அரசு ஊழியர், ஆசிரியர்கள் தங்களின் நியாயமான கோரிக்கைகளுக்காக மீண்டும்
போராட்டத்தில் குதிக்க தீர்மானித்து இருக்கிறார்கள். அவர்களை அழைத்து முதல் அமைச்சர்
பேச்சு நடத்தி, பிரச்சினைகளை தீர்க்க வேண்டும். </p><p>
</p><p>
அந்த காலத்தில் மன்னர் ஆட்சியின்போது அடிமைகள் இருந்ததாக சொல்வார்கள். இன்று அரசு
மாதச் சம்பளம் கொடுத்து அரசு ஊழியர்களை அடிமைகள்போல நடத்துவதாகத்தான் தெரிகிறது. </p><p>
</p><p>
கள்-சாராயக்கடை </p><p>
</p><p>
பனை ஏறும் தொழிலாளர்கள் மீது பொய் வழக்குகளை போலீசார் போடுகிறார்கள். எனவே பேசாமல்
கள்ளுக்கடைகளை திறந்து விடுங்கள். </p><p>
</p><p>
மந்திரி ஓ.பன்னீர்செல்வம்:- கள், சாராயக் கடைகளை திறந்தால் கிராம மக்கள் மிகவும்
பாதிக்கப்படுவார்கள். எனவே அவற்றை திறக்க முடியாது. கள்ளுக்கடைகளை திறக்கும்போது, கள்
இறக்கும் பனை மரங்களை ஒழுங்கு படுத்துவதில் சிரமம் உள்ளது. </p><p>
</p><p>
ஆந்திராவில் கள் இறக்கி பிறகு அதில் போதைக்காக எதையோ கலக்க போய் பெரிய பிரச்சினை
ஆகிவிட்டது. அது உடல்நலத்துக்கு தீங்கு விளைவித்தது. இதுபோன்ற பிரச் சினைகள் இருப்பதால்
தமிழகத்தில் கள்-சாராயக் கடைகளை திறப்பதில்லை என்று அரசு கொள்கை முடிவு
எடுத்திருக்கிறது. </p><p>
</p><p>
ஆயுள் தண்டனை </p><p>
</p><p>
சிவபுண்ணியம்:- கள் உடல் நலத்துக்கு தீங்கு ஏற்படுத்தும் என்பது சரியல்ல. இப்போது நீங்கள்
விற்பனை செய்கிற விஸ்கி, பிராந்திதான் உடல் நலத்தை கெடுக்கும். கள் உடலுக்கு நல்லது
என்கிறார்கள். எனவே கள்ளுக்கடைகளை திறப்பது பற்றி அரசு பரிசீலிக்க வேண்டும். </p><p>
</p><p>
ஆயுள் தண்டனை கைதிகள் 10 ஆண்டு, 14 ஆண்டுகள் தமிழகத்தில் சிறையில்
வைக்கப்படுகிறார்கள். சில மாநிலங்களில் 5 அல்லது 6 ஆண்டிலேயே விடுதலை செய்து
விடுகிறார்கள். அதுபோல தமிழகத்திலும் விட்டு விட வேண்டும். </p><p>
</p><p>
இவ்வாறு அவர் கூறினார். </p>

<p> </p>

<p> </p>

<p>நிதிப்பற்றாக்குறை என கூறும்
ஜெயலலிதா தலைமைசெயலகம் எப்படி கட்டமுடியும்? காரிமங்கலம் திருமண விழாவில்
மு.க.ஸ்டாலின் பேச்சு </p>

<p> </p>

<p>கிருஷ்ணகிரி,ஏப்.8- 3ஆயிரம் பெண்கள் படிக்கும் ராணி மேரி
கல்லூரியை இடிக்க திட்டமிட்டுள்ள ஜெயலலிதா நிதிப்பற்றாக்குறை என கூறிக்கொண்டு தலைமை
செயலகம் எப்படி கட்ட முடியும் என காரிமங்கலம் திருமண விழாவில் ஸ்டாலின் கேள்வி
எழுப்பினார். </p><p>
</p><p>
சுற்றுப்பயணம் </p><p>
</p><p>
தர்மபுரி மாவட்டத்தில் பல்வேறு நிகழ்ச்சிகளில் கலந்துகொள்ள தி.மு.க. இளைஞரணி
செயலாளரும், சன்னை மாநகர முன்னாள் மேயருமான மு.க.ஸ்டாலின் நேற்று முன்தினம்(ஞாயிறு)
கிருஷ்ணகிரிக்கு வந்தார். அப்போது மாவட்ட எல்லை யான ஒப்பதவாடியில் தி.மு.க.வினர்
மாவட்ட செய லாளர்கள் டி.செங்குட்டுவன், எம்.கோவிந்தராசன் ஆகியோர் தலைமையில்
பிரமாண்டமான வரவேற்பு அளிக்கப்பட்டது. </p><p>
</p><p>
திருமணம் </p><p>
</p><p>
நேற்று(திங்கள்) காலை 8.40 மணிக்கு கிருஷ்ணகிரி யில் உள்ள தமிழ்நாடு ஓட் டலில் இருந்து
புறப்பட்ட மு.க.ஸ்டாலின் பாலக்கோடு வட்டம் வௌ்ளிச்சந்தைக்கு 9.20 மணிகு
சென்றடைந்தார். பின்னர் அங்குள்ள ராஜம் திருமண மண்டபத்தில் நடந்த தர்மபுரி தெற்கு
மாவட்ட தி.மு.க. பொருளாளர் தனகோடியின் மகன் தென் னரசு-மீனா ஆகியோரது திருமணத்தை
நடத்தி வைத்து மணமக்களை வாழ்த்தி பேசினார். </p><p>
</p><p>
வாழ்த்து </p><p>
</p><p>
அங்கிருந்து காரிமங்கலத்திற்கு 1.30 மணியளவில் வந்தடைந்த மு.க.ஸ்டாலின் துளசியம்மன்
திருமண மண்டபத்தில் நடந்த காவேரிப் பட்டணம் ஒன்றிய தி.மு.க. இளைஞரணி அமைப்பாளர்
முருகுமணியரசு-ஜாஸ்மின் ஆகியோரது திருமணத்தை நடத்தி வைத்தார். </p><p>
</p><p>
பின்னர் மணமக்களை வாழ்த்தி பேசியதாவது:- </p><p>
</p><p>
இந்த மணவிழா நிகழ்ச் சிக்கு தலைமை ஏற்று நடத்தி கொடுக்கும் வாய்ப்பை பெற் றதற்கு
பெருமையடைகிறேன். இது ஒரு சீர்திருத்த திருமணம் ஏன்றும் சொல்லலாம் சுயமரியாதை திருமணம்
என்றும் சொல்லலாம். 1967-க்கு முன்பே இதுபோன்ற திருமணம் நடத்திருக்குமேயானால் அப்போது
அதற்கு அங்கீகாரம் இல்லை. 1967-ல் அண்ணா சீர்திருத்த திருமண சட்டப்படி செல்லும்
என்றார். வைதீக முறையில் இத்திருமணம் நடந்திருந்தால் சென்னையில் இருந்து நான் வரும்
வாய்ப்பை பெற்றிருக்க மாட்டேன். வைதீக முறையில் நடைபெறும் திருமணம் புகையிட்டு
மணமக்களின் கண்களில் இருந்தும், திருமணத்திற்கு வந்துள்ளவர்கள் கண்களில் இருந்தும்
கண்ணீரை வர வழைத்து விடுகின்றனர். ஒதுவார் எந்த மொழியில என்ன மந்திரம் ஓதுகிறார்
என்பது யாருக்கு தெரியும். </p><p>
</p><p>
தாய்மொழி </p><p>
</p><p>
ஆனால், இன்று நடை பெற்ற திருமண விழாவில், வரவேற்புரையாற்றியதில் இருந்து வாழ்த்துரை
வழங்கியது வரை அனைவருகுகும் புரிகிறது. நம் தாய்மொழியாம் அழகு தமிழ் மொழியில் நடைபெற்ற
திரும். திருமண விழாவில் அரசியல் பேசக் கூடாது என சிலர் நினைப்பார்கள். மக்கள்
வரிப்பணத்தில் நடைபெறும் அரசு விழாவில் அரசியல் பேசும் போது, நான் நம் வீட்டு
கல்யாணத்தில அரசியல் பேசுவது தவறில்லை. தற்போது முதலமைச்சராக இருக்க கூடிய ஜெயலலிதா
ஆட்சி இரண் டாண்டுகளாக நடந்து வருகிறது. மக்கள் பிரச்சினை தீர்க்க கூடிய நிலை உள்ளதா.
இவர்கள் ஆட்சிக்கு வந்த பின் மூன்று நிதிநிலை அறிக்கை தாக்கல் செய்யப் பட்டுள்ளது.
இவைகளில ஏதேனும் வரிச்சலுகை, திட்டம், சாதனை உண்டா? என்றால் இல்லை. தி.மு.க.
ஆட்சியில் நிறைவேற்றப்பட்ட திட்டத்திற்கு மூடுவிழா நடத்தி வருகிறார். </p><p>
</p><p>
எம்.ஜி.ஆர். திட்டம் </p><p>
</p><p>
வறட்சியின் கொடுமையால் 20-க்கும் மேற்பட்டோர் தற்கொலை செய்து கொண்டு உள்ளனர்.
எம்.ஜி.ஆர். ஆட்சி காலத்தில் ஏழை மக்கள் பயன்பெறும் வகையில இலவச வேட்டி-சேலை
திட்டத்தை கொண்டு வந்தார். இந்த திட்டத்தை அதன் பின் வந்த தி.மு.க. ஆட்சியில்
நிறுத்திவிட்டதா. தலைவர் கலைஞர் அதை மேலும் சிறப்பாக நடத்தினார். ஜெயலலிதாவோ
இந்த திட்டத்தை நிறுத்திவிட்டார். இதனால் ஏழைகளுக்கு வேட்டி-சேலை கிடைக்க வில்லை. அதை
தயாரிப் பவர்களோ யாராவது கஞ்சி ஊற்றுவார்களா என எதிர்பார்க்கும் நிலைக்கு
தள்ளப்பட்டுள்ளனர். </p><p>
</p><p>
இலவச மின்சாரம் </p><p>
</p><p>
விவசாயிகளுக்கு இலவச மின்சாரம், உழவர்சந்தை திட்டம் போன்ற முக்கிய திட்டங்ள்
கிடப்பில் போடப்பட்டுவிட்டது. இலவச மின்சார திட்டத்தை ரத்து செய்துள்ளார். தி.மு.க.
ஆட்சியின்போது மத்திய அரசு, மானியத்தை நிறுத்தி விடுவோம் என்றனர். ஆனால் கலைஞர்
இலவச மினாசரத்தை நிறுத்த மாட்டோம் என்றார். ஆண்டிப்பட்டியில ஜெயலலிதா போட்டியிட்ட
போது நான் இலவச மின்சார திட்டத்தை நிறுத்திவேடுவேன் என கலைஞர் பிரச்சாரம் செய்து
வருகிறார். அதை நம்ப வேண்டாம் என்று வாக்குறுதி அளித்தார். அந்த வாக்குறுதியை
நிறைவேற்றினரா? ஆசிரியர்கள், அரசு ஊழி யர்கள் உள்பட பல துறைகளை சேர்ந்தவர்கள்
போராட்த்தில் ஈடுபட்டு வருகின்றனர். பெண்களுக்கு தி.மு.க. ஆட்சியில் பல்வேறு நல
திட்டங்க்ள செயல்படுத்தப்பட்டு வந்தது. ஏழை பெண்களுக்கு திருமணம் என்றால் ரூ.10 ஆயிரம்
வழங்கப்பட்டது. இதுவும் நிறுத்தப்பட்டுள்ளது. </p><p>
</p><p>
ஊனமுற்ற மாணவியர் </p><p>
</p><p>
ஒரு பெண்ணாக இருக்கும் முதல்வர், பழம்பெரும் பெண்கள் கல்லூரி ராணி மேரி கல்லூரி. அதை
இடிக்க போகிறோம் அந்த இடத்தில் தலைமை செயலகத்தை கட்டப்போகிறோம் என
சட்டமன்றத்தில் திடீர் என அறிவிக்கிறார். முன்பு, மகாபலிபுரம் அருகே 3 ஆயிரம் கோடி
ரூபாயில தலைமை செயலகம் கட்டப் படுவதாக அறிவித்தார். தற்போது சட்டமன்றத்தில் ராணிமேரி
கல்லூரியை இடித்து கட்டுவதாக அறி விக்கிறார். இக்கல்லூரியில் தாழ்த்தப்பட்ட,
பிற்படுத்தப் பட்ட, உடல் ஊனமுற்ற சுமார் 3 ஆயிரம் பெண்கள் பயிலும் கல்லூரி தற்போது கட்டப்
படும் தலைமை செயலகத்தில் ஹெலிகாப்டர் வந்திறங்கும் வசதியுடன் கட்டப்படும் என
தெரிகிறது. பத்திரிகைகளிலும், அறிக்கைகளிலும் நிதிப் பற்றாக்குறை என சொல்லி வரும் இவர்
300 முதல் 500 கோடி செலவில் எப்படி தலைமை செயலகத்தை கட்ட முடியும். இனிவரும் காலங்களில்
நல்லாட்சியை யார் கொடுப்பார்கள் என அறிந்து செயல்படுங்கள். </p><p>
</p><p>
முதல் அணி </p><p>
</p><p>
தி.மு.க.வில் எத்தனையோ துணை அமைப்புகள் உள்ளன. அந்த அமைப்புகளில் இளை ஞரணியும்
ஒன்று. இதில் முதல் அணி இளைஞரணி தான். இது நான் உள்ள அணி என்பதற்காக அல்ல. இன்று
திருமணமாகியுள்ள முருகு மணியரசு போன்ற தொண் டர்கள்தான் காரணம். </p><p>
</p><p>
இவ்வாறு அவர் பேசினார். </p>

<p> </p>

<p> </p>

<p> </p>

<p> </p>

<p> </p>

<p>மாநகராட்சி கூட்டத்தில்
பரபரப்பு சம்பவம்: மொட்டை அடித்த கவுன்சிலர் கைது </p>

<p> </p>

<p>கோவை,ஏப்.8- மாநகராட்சி கூட்டத்தில், மொட்டை அடித்த
கவுன்சிலர் கைது செய்யப்பட்டார். </p><p>
</p><p>
கோவை மாநகராட்சி கூட்டம் நடந்து கொண்டு இருந்தபோது அதன் வளாகத ்தில் கவுன்சிலர்்
மொட்டை அடித்து மீண்டும் அவைக்குள் சென்றார். இந்த் செயலுக்கு அனைத்து கட்சி
கவுன்சிலர்களும் கடும் எதிர்ப்பு தெரிவித ்தனர். இதை தொடர்ந்து மன்ற வளாகத்தில்
மொட்டை அடித்த சுயேட்சை கவுன்சிலரை கைது செய்ய மேயர் உத்தரவிட்டார். அவரை போலீசார்
இழுத்து சென்று கைது செய்து வேனில் ஏற்றி சென்றனர். </p><p>
</p><p>
மாநகராட்சி கூட்டம் </p><p>
</p><p>
கோவை மாநகராட்சி கூட்டம் நேற்று) காலை நடந்தது .இதற்கு மேயர் தா.மலரவன் தலைமை
தாங்கினார்,துணை மேயர்கே. ரகுபதி, கமிஷனர் கார்த்திகேயன் ஆகியோர் முன்னிலை
வகித்தனர். </p><p>
</p><p>
கூட்டம் தொடங்கி யவுடன் ஆளும் கட்சி தலைவி தாமரை செல்வி, ஒரு தீர்மானத்தை
வாசித்தார். </p><p>
</p><p>
ஈராக் மீது அமெரிக்காவின் கண்மூடித்தனமான தாக்குதல் நடத்தி வருகிறது. அமெரிக் காவின்
இந்த செயலை கோவை மாநகராட்சி வன்மையாக கண்டிக்கிறது. இந்த தாக்குதலுக்கு பலியாகி உள்ள
அப்பாவி மக்களுக்கு அஞ்சலி செலுத்தும் வகையில் அனைவரும் 2 நிமிடம் அஞ்சலி செலுத்த
வேண்டும் என்று கூறினார். </p><p>
</p><p>
மவுள அஞ்சலி </p><p>
</p><p>
அதை தொடர்ந்து மேயர் தா.மலரவன், துணைமேயர் கே.ரகுபதி், கமிஷனர் கார்த்தி கேயன்
மற்றும் கவுன்சிலர்கள் உள்பட அனைவரும் 2 நிமிடம் அஞ்சலி செலுத்தினர். அதன்
பின்னர் கவுன்சிலர்கள் அனைவரும் இருக்கையில் அமர்ந்தனர். அப்போது் 52 வது வார்டு
சுயேட்சை கவுன்சிலர் ஆமி என்ற மருதாசலம், கறுப்பு பேண்ட்,கறுப்பு சட்டை,கறுப்பு கண்ணாடி
அணிந்து மாமன்றத்திற்குள் நுழைந்தார். நுழைந்தவுடன் மேயர் மற்றும் கமிஷனரைபார்த்து
பேசியதாவது:, </p><p>
</p><p>
கமிஷனரிடம் வாக்குவாதம் </p><p>
</p><p>
எனது 52-வது வார்டில் துப்புரவு பணியாளர்கள் குறைவாக உள்ளனர்.குப்பைகள் பெருகி கிடப்பதால்
சுமார் 50 ஆயிரம் மக்கள் மிக பாதிக்கப்படுகின்றனர்.வார்டு முழுவதும் குப்கைள் தேங்கி
கிடக்கிறது. வார்டில் வைக்கப்பட்டு இருந்த குப்பை கொட்டும் கண்டெய்னர் திருட்டு போய்
உள்ளது. போதிய சுகாதார பணியாளர்கள் இல்லாததால் சுகாதார சீர்கேடு ஏற்பட்டு உள்ளது. எனவே
இதை கண்டித்து கறுப்பு தினமாக கடை பிடித்து மொட்டை அடித்து கொள்ள போகிறேன். </p><p>
</p><p>
வௌிநடப்பு </p><p>
</p><p>
இந்த கோரிக்கையை நிறைவேற்ற தவறிய மாநகராட்சி கமிஷனர் தனது பதவியை ராஜினாமா செய்ய
வேண்டும் என்று கூறியபடி கமிஷனரை நோக்கி வந்து மனு கொடுத்து விட்டு அவரிடம் வாக்குவாதம்
செய்தார். இதற்கு அதிமுக ,திமுக கவுன்சிலர்கள் கடும் எதிர்ப்பு தெரிவித்தனர். உடனே ஆமி
என்ற மருதாசலம் மன்றத்தை விட்டு வௌிநடப்பு செய்தார். </p><p>
</p><p>
கண்டனம் </p><p>
</p><p>
மேயர்தா.மலரவன்: மன்றத்தில் உறுப்பினர்கள் முறையாக செயல்படுவதை கடை பிடிக்க வேண்டும்.
குறைகளை என்னிடமோ,கமிஷனரிடமோ மருதாசலம் தெரி வித்து இருக்க வேண்டும் .அப்படி செய்யாமல்
தன்னை விளம்பர படுத்தி கொள்ள இது போன்ற செயல்களில் ஈடுபடுகிறார். அவருக்கு வார்டு
மக்கள் மீது அக்கறை இருப்பதாக தெரிய வில்லை. இதை வன்மையாக கண்டிக்கிறேன். </p><p>
</p><p>
அலுவல் ஆய்வு குழு </p><p>
</p><p>
தேவராஜ் (இந்திய கம்யூ):- </p><p>
</p><p>
இது போன்ற செயல்களை தடுக்க அலுவல் ஆய்வுகுழு ஏற்படுத்த வேண்டும். </p><p>
</p><p>
மேயாதா.மலரவன்்:-விரைவில் அலுவல் ஆய்வு குழு அமைக்கப்படும். </p><p>
</p><p>
மொட்டை அடித்தார் </p><p>
</p><p>
(இதற்கிடையில் வௌியே சென்ற கவுன்சிலர் ஆமி மாநகராட்சி மன்றம் வளாகம் முன்
(விக்டோரியா ஹால்) நுழை வாயில் முன் தரையில் அமர்ந்தார். அவர் ஏற்கனவே அழைத்து வந்து
இருந்த சவர தொழிலாளியை கூப்பிட்டு தனது தலையில் மொட்டை போடுமாறு கூறினார். அவர் சவர
கத்தியை எடுத்து கவுன்சிலர் அமீ தலையில் சிறிது நேரத்தில் மொட்டை போட்டார். மொட்டை
தலையுடன் கறுப்பு கண்ணாடி அணிந்தபடி மீண்டும் மன்றத்துக்குள் வந்து நேராக தனது இருக்கையில்
போய் அமர்ந்தார்.) </p><p>
</p><p>
இதற்கு அனைத்துகட்சி கவுன்சிலர்கள எழுந்து கடும்் ஆட்சேபம் தெரிவித்தனர். அதையும் மீறி
ஆமி,மன்றத்திற்குள் நின்று கூச்சல் போட்டார்.மற்ற கவுன்சி லர்களிடம் வாக்குவாதம்
செய்தார். பின்னர் திடீரென எழுந்து சென்று கமிஷனரிடம் வாக்கு வாதம் செய்தார். </p><p>
</p><p>
உடனே திமுக,அதிமுக, காங்கிரஸ், கம்யூனிஸ்ட் கவுன் சிலர்கள் ஆத்திரம் அடைந் தனர்.
மேயர் இருக்கைக்கு அனைவரும் சென்று,இது போன்ற செயல்களை அனு மதிக்க கூடாது.அவர் மீது ஒழுங்கு
நடவடிக்கை எடுக்க வேண்டும்என்று கூறினர்.மன்ற மரபை மீறிய கவுன்சிலர் மருதாசலத்தை
வௌியேற்றும் படி கோஷங்கள் எழுப்பினர். அப்போது கவுன்சிலர் ஆமி, மீண்டும் தனது இருக்கையில்
அமர்ந்தார். </p><p>
</p><p>
முகமது ரபீக்(முஸ்லிம் லீக்) மன்ற உறுப்பினர்,ஆமி என்ற மருதாசலம் மீது உரிய நட வடிக்கை
எடுக்க வேண்டும். </p><p>
</p><p>
கவுன்சிலர் கைது </p><p>
</p><p>
மேயர்:- ஆமி என்ற மருதாசலத்தை கைது செய்ய பாதுகாப்புக்கு பணிக்காக நின்ற போலீசுக்கு
உத்தர விட்டார் </p><p>
</p><p>
.இதை யடுத்து வௌியே பாதுகாப்பு பணிக்காக நின்று கொண்டு இருந்த உக்கடம் போலீஸ்
இன்ஸ்பெக்டர் மனோகரன் மற்றும் போலீசார் மன்றத்திற்குள் வந்தனர். இருக் கையில்
அமர்ந்து இருந்த மருதாசலத்தை வௌியே வரும்படி கூறினர். அதற்கு அவர் மறுத்தார்.உடனே அவரை
வௌியே வலுக் கட்டாயமாக இழுத்து வந்தனர்.காங் கிரஸ் கவுன்சிலர் வௌ்ளிங்கிரி,அவரை
வௌியே விடாமல் தடுத்்தாா ்.அப்போது காங்கிரஸ் தலைவர் காலணி வெங்கடாசலம், உங்கள்
செயல் காங்கிரஸ் கட்சிக்கு கெட்ட பெயர் ஏற்படும். உங்கள் இடத்திற்கு செல்லுங்்கள் என்று
கூறினார்.உடனே வௌ்ளிங்கிரி தனது இருக்கைக்கு சென்றார். கவுன்சிலர் ஆமியை இழுத்துவந்த
போலீ சார் அவரை கைது செய்து அங்கு நின்ற போலீஸ் வேனில் ஏற்றி சென்றனர். அப்போது
அவர் கமிஷனர் அராஜகம் ஒழிக என்று முழக்கமிட்டபடியே சென்றார். </p><p>
</p><p>
சலூன் கடை </p><p>
</p><p>
மேயர்்:- கவுன்சிலர்கள் குறைகளை பிரச்சினைகளை சொன்னால் தவறு இல்லை. ஆனால் ஒவ்வொரு
முறையும் அந்த கவுன்சிலர் என்ன செய்கிறார் என்று உங்கள் அனைவருக்கும் தெரியும்.
மொட்டை அடிக்கிறேன் என்று கூறி விட்டு பாபர்ஷாப்பில் அடித்தால் பரவாயில்லை. மாநகராட்சி
வளாகத்திற்குள்ளேயே மொட்டை அடித்து மாநகராட்சி அலுவலகத்தை சலூன் கடையாக மாற்றி
உள்ளார். </p><p>
</p><p>
சஸ்பெண்டு </p><p>
</p><p>
காந்தி பார்க் பகுதியில் மாநகராட்சி இடத்தை ஆக்கிரமிப்பு செய்து கடை கட்டி உள்
ளார்.மாநகராட்சி சார்பில் அந்த பகுதியில் ஆக்கிரமிப்பை அகற்றும்போது அதில் இவரது
ஆக்கிரமிப்பு கடையும் அகற்றப்பட்டது.அதை மறைக்க தான் இப்படி உத்தமன் போல
நடிக்கிறார். மக்கள் மத்தியில் நல்லவன் போல காட்டி கொள்ள இது போன்ற செயலில்
ஈடுபட்டு உள்ளார். எனவே அவரது ஒழுங்கீன செயலுக்காக தான் கைது செய்யப்பட்டு உள்ளார்.
அவரை 3 மன்ற கூட்டத்திற்கு சஸ்பெண்டு செய்து உத்தரவிடுகிறேன். </p><p>
</p><p>
ஆரவாரம் </p><p>
</p><p>
இவ்வாறு மேயர் கூறியதும் அனைத்து கவுன்சிலர்களும் மேஜை தட்டி ஆரவாரம் செய்து இதனை
வரவேற்றனர். </p><p>
</p><p>
ஹேமா ஜெயசீலன்:-ஒரு கவுன்சிலரை 3 கூட்டத்திற்கு தொடர்ந்து சஸ்பெண்டு செய்ய சட்டத்தில்
இடம் இல்லை.2 கூட்டத்திற்கு வேண்டுமானால் சஸ்பெண்டு செய்யலாம். </p><p>
</p><p>
சந்திக்கலாம் </p><p>
</p><p>
பத்மநாபன்(மார்க்சிய கம்யூ):-மன்ற உறுப்பினர் மன்ற மரபை காப்பாற்ற வில்லை. எனவே
அவரை 3 கூட்டத்திற்கு சஸ்பெண்டு செய்யலாம். இதனால் ஏற்படும் சட்ட பிரச் சினைகளை பார்த்து
கொள்ளலாம். </p><p>
</p><p>
மேயர்:-இந்த கூட்டத்தையும் சேர்த்து ஆமி என்ற மருதாசலம் தொடர்ந்து 3 கூட்டத்திற்கு
சஸ்பெண்டு செய்யப்படுகிறார். </p><p>
</p><p>
அதன் பின்னர் மன்றத்தில் அமைதி ஏற்பட்டது. </p><p>
</p><p>
முற்றுகை போர் </p><p>
</p><p>
மாலையில் கோவை மாநகராட்சி அலுவலகம் முன்பு கைது செய்யப்பட்ட கவுன்சிலர் ஆமியை விடுதலை
செய்ய கோரி வார்டு பொது மக்கள் முற்றுகை போராட்டம் நடத்தினர். இதில் 200க்கும்
மேற்பட்டோர் கலந்து கொண்டனர். </p>

<p> </p>






</body></text></cesDoc>