<cesDoc id="ori-w-literature-bio-obr71" lang="ori">
<cesHeader type="text">
<fileDesc>
<titleStmt>
<h.title>ori-w-literature-bio-obr71.txt</h.title>
<respStmt>
<respType>Electronic file created by</respType>
<respName>Central Institute for Indian Languages, Mysore</respName>
<respType>transferred into Unicode and CES format by</respType>
<respName>"Unicodify" software by Andrew Hardie</respName>
</respStmt></titleStmt>
<publicationStmt>
<distributor>UCREL (on behalf of CIIL)</distributor>
<pubAddress>Department of Linguistics, Lancaster University, Lancaster, LA1 4YT, UK</pubAddress>
<availability region="WORLD"></availability>
<pubDate>03-08-12</pubDate>
</publicationStmt>
<sourceDesc>
<biblStruct>
<monogr>
<h.title>କୁମ୍ଭାର.</h.title>
<h.author>କାଳିଚରଣ.</h.author>
<imprint>
<pubPlace>India</pubPlace>
<publisher>Unknown - book.</publisher>
<pubDate>1990</pubDate>
</imprint>
<idno type="CIIL code">obr71</idno>
</monogr></biblStruct></sourceDesc></fileDesc>
<encodingDesc>
<projectDesc>Text collected for the CIIL Corpus, subsequently integrated into the EMILLE/CIIL Monolingual Written Corpora.</projectDesc>
<samplingDesc>Simple written text only has been transcribed. Diagrams, pictures and tables have been omitted. Sampling begins at page 10228.</samplingDesc>
<editorialDecl><conformance level="1"></conformance></editorialDecl>
</encodingDesc>
<profileDesc>
<creation><date>03-08-12</date></creation>
<langUsage>Oriya</langUsage>
<wsdUsage>
<writingSystem id="ISO/IEC 10646">Universal Multiple-Octet Coded Character Set (UCS).</writingSystem>
</wsdUsage>
<textClass>
<channel mode="w">print</channel>
<constitution type="composite"></constitution>
<domain type="public"></domain>
<factuality type="fact"></factuality>
</textClass>
<translations></translations>
</profileDesc>
<revisionDesc></revisionDesc>
</cesHeader>

<text><body>

<p>&lt;ଶିକ୍ଷାଯତନରେ ଛାତ୍ର ଜଣକେତେ ଅଧିକାଂଶ ସେବକ
ଦଳରୁ । ଓଡିଶୀ ଗୀତ ଶିଖା ଚାଲିଲା । ଠ ' ଠା ଠି ' କରି ୟାହା ବା ଚଳାଇ ଥାଆନ୍ତି ,
କଥାରେ ତ ଅଛି - ` ମଣିଷ ବିଚାରେ ଆନ , ଦଇବ ବିଚାରେ ଆନ , ତା ' ନୋହିବ
କେମିତି ? ଦଇବ ମଙ୍ଗ ୟୋଡି ଦେଲା । ବନ୍ଦ କରି ଦେଲି , ବାଧ୍ଧହୋଇ ଅର୍ଥାଭାବରୁ ।</p>

<p>ସଂସ୍କୃତ ମୃଚ୍ଛକଟୀକ ନାଟକ :
ଏତିକିବେଳେ ମୋର ସାଥୀ-ପଢୁଆ କରୁଣାକର ବାବୁ ( ଡା : କରୁଣାକର କର )
ପୁରୀ ସଂସ୍କୃତ କଲେଜର ପ୍ରିନ୍ସିପାଲ ଥାଆନ୍ତି । ବରାବର ଦେଖାଚାହାଁ ହୁଏ । କବିରାଜ
ହରମୋହନ କର , ବୀର ହନୁମାନ ଶାସ୍ତ୍ରୀ ଓ ଅନ୍ଯାନ୍ଯ କେତେଜଣ ସେତେବେଳେ
ସଂସ୍କୃତ ମହାବିଦ୍ଯାଳଯର ଛାତ୍ର । ଏମାନଙ୍କ ଛଡା ଅନେକ ଛାତ୍ରଙ୍କ ସହିତ ପରେ
ମୋର ଜଣାଶୁଣା ହେଲା । ସବୁରି ନାଆଁ ଏବେ ମନେପଡୁ ନାହିଁ ।</p>

<p>ଥରେ କରୁଣାକର ବାବୁଙ୍କ ସଙ୍ଗେ କଥା ହେଉ ହେଉ ଗୋଟିଏ ସଂସ୍କୃତ ନାଟକ
ମଞ୍ଚସ୍ଥ କରିବାର ପ୍ରସ୍ତାବ ପଡିଲା । ୟୋଗଜନ୍ମା ପଣ୍ଡିତ ବାସୁଦେବ ମିଶ୍ରଙ୍କ ସହିତ ପରାମର୍ଶ
ଚାଲିଲା । ବାସୁଦେବ ପଣ୍ଡିତଙ୍କ ଭଳି ରସଜ୍ଞ କବି ପଣ୍ଡିତ ବିରଳ କହିଲେ ଚଳେ ।
ମୁହଁରେ ତାଙ୍କର ଦରହସଟା ସତେ ୟେମିତି ବସା ବାନ୍ଧିଥାଏ । ଖଣ୍ଡପଡାର ବାଣୀଭୂଷଣ
ପଣ୍ଡିତଙ୍କ ସ୍ମୃତି ଚେଇଁ ଉଠିଲା ମନରେ ମୋର , ବାସୁଦେବ ପଣ୍ଡିତଙ୍କୁ ଦେଖି ।
ବାଣୀଭୂଷଣ ରସଜ୍ଞ , ବାସୁଦେବ ପଣ୍ଡିତେ କିନ୍ତୁ କବି । ଅନର୍ଗଳ ସଂସ୍କୃତ ଭାଷାରେ
ପାଣ୍ଡିତ୍ଯପୂର୍ଣ୍ଣ ବକ୍ତୃତା ଦେବା , ସଂସ୍କୃତ ଭାଷାରେ ଗୀତ ଲେଖିବା ଇତ୍ଯାଦି ସହିତ
ତାଙ୍କର ସରଳତା , ସରସତା , ତାଙ୍କୁ ଲୋକପ୍ରିଯ କରାଇଥାଏ ।</p>

<p>ମୃଚ୍ଛକଟୀକ ନାଟକ ଧରାଗଲା । ଆମେ ସଭିଏଁ ଏକ ମନ ହୋଇ ଲାଗି ପଡିଲୁଁ ।
ମୁଁ ମଞ୍ଚ ଉପୟୋଗୀ ହେଲା ଭଳି ଦୃଶ୍ଯ ଟିକିଏ ଏପଟ ସେପଟ କରିଦେଲି । ସଂସ୍କୃତ
ଗୀତ 5\6 ଟି ଲେଖି ଦେଲେ ବାସୁଦେବ ପଣ୍ଡିତେ , ମୋ ଗାଇବା ସ୍ବର ଅନୁସାରେ ।
ଆହା ! କେଡେ ସରଳ , ମଧୁର ସେ ରଚନା । ସୁବିଧା ଥିଲାବେଳେ ଲୋକ ସତରେ
ଜିନିଷର ମହତ୍ବ ବୁଝେ ନାଇଁ । ଏବେ କେତେ ସେ ଗୀତକୁ ଝୁରୁଛି । ଭଲା ପଦେ ଅଧେ
ମନେ ଥାଆନ୍ତା କି ! ଛାଡ ।</p>

<p>ଜଗନ୍ନାଥ କ୍ଳବ ( ରାମଚଣ୍ଡୀଙ୍କ ପାଖ ) ରେ ଦି ରାତି " ମୃଚ୍ଛକଟୀକ " ନାଟକ
ଅଭିନୀତ ହେଲା । ଦେଖଣାହାରୀଏ ବଡ ପସନ୍ଦ କଲେ । ମୋର ମନେହୁଏ , ଏ କାଳକୁ
ଓଡିଶାରେ ପ୍ରଥମବାର ସଂସ୍କୃତ ନାଟକ ଏଇ ମୃଚ୍ଛକଟୀକ , ପୁରୀରେ ମଞ୍ଚସ୍ଥ କରାୟାଇଛି ।</p>

<p>` ସଙ୍ଗୀତ ପ୍ରଭା ' ବାହାରୁଥାଏ । ସ୍ବର୍ଗତ ଦଯାନିଧି ତ୍ରିପାଠୀ ସେତେବେଳେ
ରଣପୁର ରାଜଦରବାରରେ ସଙ୍ଗୀତଜ୍ଞ ଭାବେ ରହିଥାଆନ୍ତି । ରଣପୁରର ରାଜା ବଜ୍ରଧର
ନରେନ୍ଦ୍ର ଜଣେ କଳାପ୍ରେମୀ ରାଜା । ସେ ଗୋଟିଏ ରଙ୍ଗମଞ୍ଚ ତୋଳାଇ କେତେକ ନାଟକ
ମ଼ଞ୍ଚସ୍ଥ କରାଉଥାଆନ୍ତି । କଟକରେ ନାଟୁ ସର୍କାର , ବାଲେଶ୍ବରର - ବୃନ୍ଦାବନ ବିହାରୀ ପଣ୍ଡା
ଓ ଦଯାନିଧି ତ୍ରିପାଠୀ ପ୍ରଭୃତି କେତେକ ଗୁଣୀ ବ୍ଯକ୍ତି ରାଜାଙ୍କଠାରୁ ବର୍ତ୍ତନ ପାଇ
ସେଠାରେ ରହୁଥିଲେ । ତାଙ୍କ ପାଖକୁ ସଙ୍ଗୀତ ପ୍ରଭା ଖଣ୍ଡିଏ ପଠାଇଲି । ସେ ବଡ
ପ୍ରଶଂସା କଲେ ଏ ଉଦ୍ଯମକୁ । ଦଯାନିଧି ତ୍ରୀପାଠୀ , କ୍ଷେତ୍ରମୋହନ କର , ରାଧାରମଣ
ରାଯ ପ୍ରଭୃତି ଲେଖା ଦେଉ ଥାଆନ୍ତି । ବ୍ରହ୍ମପୁରରୁ ମୋର ଶୁଭେଚ୍ଛୁ ଶଶୀ ଭାଇନା ( ଆଶା
ପତ୍ରିକାର ସଂପାଦକ ) ତାଙ୍କ ପତ୍ରିକାର ବିଜ୍ଞାପନ ଦେଉଥାଆନ୍ତି । ଉତ୍ସାହ , ପ୍ରଂଶସା ଓ
ବାଚିକ ସହାନୁଭୂତି ଢେର ପାଉଥାଏ ; କିନ୍ତୁ ଏ ସବୁ ଥେଲେ କଅଣ ହେବ ? " ଆଲୋ
ମଉସା - ଜଡ ପଇସା " ପତ୍ରିକାଟି ୟତ୍ରକତ୍ର ହୋଇ ବର୍ଷେ ଉପରେ ଚଳିଲା । ତା ପରେ
ବନ୍ଦ । ସଞ୍ଜବେଳେ ସଙ୍ଗୀତ ବୈଠକ କିନ୍ତୁ ନିତିଦିନିଆ ଖଞ୍ଜାପରି ଚାଲିଥାଏ ।</p>

<p>ଶ୍ରୀ ରାଧାରମଣ ରାସୋତ୍ସବ :
ଦିନେ ଆମ ସଙ୍ଗୀତ ବୈଠକକୁ ଆଉ ଆଉ ଶ୍ରୋତା , ଗାଯକ ଓ ଗ୍ରାହକମାନଙ୍କ
ସହିତ ଗୋପାଳ ଗୋସାଇଁ ( ସ୍ବର୍ଗତ ରଙ୍ଗନାଥ ଦେବ ଗୋସ୍ବାମୀ ) ଆସିଲେ । ମୋର
ତାଙ୍କର ଆଗରୁ ଚିହ୍ନାଜଣା ଥିଲା । ତାଙ୍କ ପିତା ସ୍ବର୍ଗତ ରଘୁନାଥ ଦେବ ଗୋସ୍ବାମୀ
ପୁରୀର ଜଣେ ବିଖ୍ଯାତ ସଂଙ୍ଗୀତଜ୍ଞ ଥିଲେ । ଗୋପାଳ ଗୋସାଇଁ ମଧ୍ଧ ବଂଶାନୁକ୍ରମେ ଭଲ
ତବଲା ବାଦକ । ସେ ଭାରି ଧୀର , କଥା ବଡ ମଧୁର । ମୋହନ ଗୋସାଇଁଙ୍କ ରାସ ଦଳର
ପ୍ରସିଦ୍ଧ ଦେଖି , ଶୁଣି ତାଙ୍କ ଘରକୁ ଡାକିଲେ । ୟାଇ ଦେଖିଲି ସେ ଓ ଆଉଜଣେ
ପ୍ରାଯ ତାଙ୍କରି ସମବଯସ୍କ ବ୍ରାହ୍ମଣ ସେଠି ଅଛନ୍ତି । ନାମ ବାବାଜୀ ମହାପାତ୍ର , ଘର ସୁଆର
ସାହୀରେ । କଥାବାର୍ତ୍ତା ହେଉ ହେଉ ରାସ ଦଳଟିଏ ଗଢିବା ଲାଗି ଗୋପାଳ ଗୋସ୍ବାମୀ
ପ୍ରସ୍ତାବ ବାଢିଲେ । ତିନି ଭାଗୁଆଳୀରେ ଦଳଗଢା ହେବ । କଥାହେଲା - ଗୋସେଇଁଙ୍କ
ଘରେ ଦଳର ପିଲାଏ ରହିବେ । ସେ ଓ ବାବାଜୀ ମହାପାତ୍ରେ ସବୁ ଖର୍ଚ୍ଚ ତୁଲାଇବେ ।
ମୁଁ ବହି ଲେଖିବି ଓ ଶିକ୍ଷା ଦେବି ।</p>

<p>ଏଇ ପ୍ରସ୍ତାବରେ ମୁଁ ରାଜି ହେଲି । ମଫସଲରୁ ପିଲାଏ ଆସିଲେ । ଦୁର୍ଲ୍ଲଭ ,
ଦୀନବନ୍ଧୁ ( ଟୀମ ) ବାଉରିଆ , ବାସୁଆ , ୟମୁନା , ପୁନା ଓ ଗୋବିନ୍ଦ ଇତ୍ଯାଦି ଦଶ ବାରଜଣ
ପିଲା ଆସି ପହଞ୍ଚିଲେ । ରୀତିମତ ରିହର୍ସେଲ ଚାଲିଲା ଦି ଓଳି । ସକାଳେ ଗଳା ସିଧା , ନାଚ
ଶିଖା ଇତ୍ଯାଦି , ଉପର ଓଳି ପାର୍ଟଘୋଷା ଓ ଅଭିନଯ ଶିକ୍ଷା ହୁଏ । ନାଆଁ ଦିଆଗଲା
" ଶ୍ରୀ ରାଧାରମଣ ରାସୋତ୍ସବ " । ମୋଠାରୁ ଶିଖିବୁଝି ଜଗନ୍ନାଥ ଋଣା ହାର୍ମୋନିଯମ
ବଜାଇ ପିଲାଙ୍କୁ ଗୀତ ଶିଖାଇଲା । //
ଜଣେ ବଡ ସଙ୍ଗୀତ ରସିକ । ତାବଲା ଓ ପଖବାଜ ବଜାନ୍ତି ସେ । ମୋର ସେ ଥିଲେ
ଅକୃତମ ବନ୍ଧୁ ଓ ପ୍ରାଯ ମୋ ସହିତ ରହୁଥିଲେ । ମନେ ପଡୁଛି ରାମ ( ରାମଚନ୍ଦ୍ର ମାଣିଆ )
ଆମ ବସାକୁ ବରାବର ୟା ଆସ କରନ୍ତି । ସେ ମୋର ପ୍ରିଯ ଛାତ୍ର ଦୁଲୁ ( ଦୁର୍ଲ୍ଲଭ ଚନ୍ଦ୍ର ସିଂ )
କୁ ଫଗୁଆ ମେଘେ ଖେଳେଇ ସୁନା ଥାଳିଟି - କିଶୋରୀ ଚମ୍ପୁର ଗୀତ ସହିତ
ନୃତ୍ଯ ଶିଖାଉଥିଲେ ।</p>

<p>ୟାଜପୁର :
ମାଘ ମାସ । ୟାଜପୁରରେ ସେତେବେଳେ ସବ୍୍ଡିଭିଜନାଲ ଅଫିସର ଥିଲେ
ସ୍ବର୍ଗତ କାର୍ତ୍ତିକଚନ୍ଦ୍ର । ସେ ଦଳକୁ ୟାଜପୁରର ସରସ୍ବତୀ ପୂଜାରେ
ଅଭିନଯ କରିବାକୁ ଡାକିଲେ । ଦଳ ସେଠାକୁ ୟିବା ଅବସରରେ ବନମାଳୀ ଆର୍ଟ
ଥିଏଟର ପାର୍ଟି ଆମ ବାଙ୍କାବଜାର ମଞ୍ଚରେ କେତେକ ରାତି ଅଭିନଯ ଦେବାଲାଗି
ଅନୁରୋଧ କଲେ । ନାଟକ ପ୍ରଦର୍ଶନ କରାଗଲା । ଲୋକେ ସେବେଳରେ ଚମ୍ପୁ ଇତ୍ଯାଦି
ନାଟକ ଦେଖି ଥାଆନ୍ତି ଏଇ ମଞ୍ଚରେ । ବନମାଳୀ ଆର୍ଟ ଦଳ ବିଶେଷ ଧନ ଅର୍ଜ୍ଜି
ପାରିଲେ ନାହିଁ ।</p>

<p>ୟାଜପୁରରେ ମୋ ଦଳ ଭାରି ଆଦର ପାଇଲା । ସେଠାରେ ସେତେବେଳେ
ସ୍ବର୍ଗତ କ୍ଷେତ୍ରମୋହନ ବାବୁ ( ଦାସ ) ଥିଲେ ପୋଲିସ ଇନ୍୍ସପେକଟର । ବହୁ ସାହାୟ୍ଯ
ପାଇଛି ତାଙ୍କଠାରୁ । କେନ୍ଦ୍ରାପଡାର ମୋର ଜଣେ ପିଉସୀପୁଅ ଭାଇ ଗୋପାଳ ମହାନ୍ତି
ୟାଜପୁରରେ ଓଭରିସିଅର ଥିଲେ । ମୁଁ ୟାଜପୁରରେ ଥିବା ଦିନୟାକ ତାଙ୍କର ସଙ୍ଖୋଳା
ଭୁଲି ପାରିବି ନାହିଁ ।</p>

<p>ବଡ ମନେହେଲା ସ୍ବର୍ଗତ କାମପାଳ ମିଶ୍ର , ନାଟ୍ଯରଥୀଙ୍କ ଆସ୍ଥାନ ଦେଖିବାକୁ ।
ପଣ୍ଡିତ ନୀଳମଣି ମିଶ୍ରଙ୍କ ସାକ୍ଷାତ କଲି । କେଡେ ଗୁଣୀ , କେଡେ ପଣ୍ଡିତ , କେଡେ
ସ୍ନେହୀ ସେ ସତେ ! ତାଙ୍କ ସଙ୍ଗସୁଖ ଛାଡି ଆସିବାକୁ ମନ ବଳୁ ନଥାଏ । ଭାବିଲି - ହଁ ,
ବଂଶର ଅଙ୍କୁର ତ ! କାହିଁକି ସେ ଏପରି ନିରାଡମ୍ବର , ନିରହଙ୍କାରୀ ଓ ଗୁଣବାନ ବ୍ଯକ୍ତି
ହେବେ ? କଥାରେ ପରା ଅଛି - ` ଚାଟ ଘର ପୁଅ ଚାଟ ' ।</p>

<p>ଭଦ୍ରଖ ଲକ୍ଷ୍ମୀଭାର :
ୟାଜପୁରରୁ ଫେରି ଆମେ ଭଦ୍ରଖ ଗଲୁଁ । ବାରିପଦାଠାରୁ କାନ୍ତକବି ଲକ୍ଷ୍ମୀକାନ୍ତ
ମହାପାତ୍ର ( ମୋ ଲକ୍ଷ୍ମୀଭାଇ ) ଙ୍କ ସହିତ ମୋର ଅତି ଆତ୍ମୀଯତା ଜମି ୟାଇଥାଏ ବାରିପଦା~
ଠାରୁ , ତାଙ୍କ କୋଠର ବାଁଆ ପଟରେ ଗୋଟିଏ ଆମ୍ବ ବଗିଚା ଭିତରେ ତାଙ୍କର କେତେ
ବଖରା ଚାଳ ଘର ଥିଲା । ଆମେ ସେଇଠି ବସା କଲୁଁ । ଲକ୍ଷ୍ମୀ ଭାଇଙ୍କ ସାନ ଭାଇ ଓ ସାନ
ଭଉଣୀ ସତୀକାନ୍ତ ଓ କନକ ( କନ ) ସେତେବେଳକୁ ଜୀବିତ । ଭାଇ ବୋଲି କନ ସେତେ କି
ଆଦର କରେ ମୋତେ ! ତା କଥା ଏବେ ବି ଅପାଶୋରା ।</p>

<p>ଆଉ ଜଣେ ଥିଲେ , ଫାରୁ ମିଆଁ । ସେ ଲକ୍ଷ୍ମୀ ଭାଇଙ୍କର ପରମଭକ୍ତ । ଲୋକେ
ସନା ତାଙ୍କୁ ଫାରୁ ମିଆଁ ବୋଲି ଡାକନ୍ତି , ହେଲେ ତାଙ୍କ ଅସଲ ନାଆଁ ହେଲା - ହକିମ୍୍
ମହମ୍ମଦ ଫାରୁକ୍୍ । ସେ ଟିକିଏ ଔଷଧ ମଉଷଧି ଦିଆନିଆ କରନ୍ତି । ତେଣୁ ହାକିମ୍୍
ବୋଲାନ୍ତି । ଭାରି ସରଳ ଲୋକ ସେ । ବଡ ପରୋପକାରୀ , ସ୍ନେହୀ ଓ ସଙ୍ଗୀତ ପ୍ରେମୀ ।</p>

<p>କନକ ( କକ ) ବଡ ସ୍ନେହଶୀଳା । ମୋତେ ସେ ଭାଇଠୁଁ ବଳି ଆଦର କରେ ।
ଏତେ ଗୁଣର ଝିଅଟିକୁ ଦଇବ ବେଗେ ପାଖକୁ ନେଇଗଲା । ଆମେ ଲକ୍ଷ୍ମୀଭାଇଙ୍କ ଆମ୍ବ ବଗିଚା
ଭିତର ଘରରେ ଥିଲା ଦିନତକ , ଦିନେ ହେଲେ ସେ ଆମ ପାଖକୁ ଆସି ଭଲମନ୍ଦ
ବୁଝିବାକୁ ପାଶୋରି ନାହିଁ । ଖଣ୍ଡେ ଚିଠି ତାର ଏବେ ମୁଁ ସାଇତି ରଖିଛି ; ସ୍ମୃତିର
ସେ ସାଥୀ ।</p>

<p>ପାଖରେ ଶାଳନ୍ଦୀ ନଈ । ଖରାଦିନେ ଶିରିଶିରି ପାଣି ବହୁଥାଏ । କୋଉଠି
କେମିତି ମାତ୍ର ପାଣି ଆଣ୍ଠୁଏ ମାତ୍ର । ନିତି ଗାଧୂଆବେଳେ କାନି ଖିଅରେ ଟିକିଟିକି ମୀନ
ଧରା ହୁଏ ଧାରରୁ ।</p>

<p>ଭଦ୍ରଖ ଗୋଶାଳାର ବାହାର ହତାକୁ ଭଡା ନେଇ ଆମର ପେଣ୍ଡାଲ ବନ୍ଧା ହେଲା ।
ସେତେବେଳେ ଭଦ୍ରଖର ସବ୍୍ଡିଭିଜିନାଲ ମାଜିଷ୍ଟ୍ରେଟ ଥାଆନ୍ତି ଦୁର୍ଗାବାବୁ ( ସ୍ବର୍ଗତ
ଦୁର୍ଗାଚରଣ ଦାସ ) । ଏକଦା ସେ ଥିଲେ ରେଭେନ୍୍ସା କଲେଜର ଇଂରାଜୀ ଅଧ୍ଧାପକ ,
ମୋର ଗୁରୁ ।</p>

<p>ପ୍ରଥମ ରାତିର ନାଟକ ସେ ଉଦ୍୍ଘାଟନ କଲେ । ମୁଖ୍ଯ ଅତିଥି ହେଲେ ଲକ୍ଷ୍ମୀଭାଇ ।
ସେତେବେଳକୁ ତାଙ୍କୁ ଧରାଧରି କରି ଉଠାଇ ନିଅଆଣ କରାହେଉଥାଏ । ଭାଉଜ ତାଙ୍କ
ସେବାରେ ଲାଗିଥାଆନ୍ତି । ଏତେ ଦୁଃଖରେ ମଧ୍ଧ ଲକ୍ଷ୍ମୀଭାଇ ବଡ ରହସିଆ । ସବୁ କଥାରେ
ତାଙ୍କର ହସ କୌତୁକ । ଛାପାଖାନାଟିଏ କରିଥାଆନ୍ତି ସେ । ଆମ ହାଣ୍ଡବିଲ୍୍ ସେଇଠି
ଛାପାୟାଏ । ଡଗର , ପରିକଳ୍ପନା ତାଙ୍କ ମନ ଭିତରେ ଥାଏ । ଲକ୍ଷ୍ମୀଭାଇ ପକା ଉପର
ମହଲାର ଗୋଟିଏ ଘରେ ରହବସ କରନ୍ତି । ତା ଆଗରେ ଅଳ୍ପ ଉଚ୍ଚ କାନ୍ଥଦିଆ ଖୋଲା
ଛାତ । ଆମର ଦିନେ ଛାଡି ଦିନେ ପ୍ଳେ ହୁଏ । ଫାଙ୍କା ଦିନଟି ସଞ୍ଜରୁ ଏଇଠି ଗାଉଣା
ବାଜଣା ଚାଲେ । ଅନୁକୂଳ କରନ୍ତି ଏକାଚାରା ବଜାଇ ଲକ୍ଷ୍ମୀଭାଇ - ` ଦେ ' ମୋତେ
ବାଯା କରି । ତା ସାଥୀରେ ତାଙ୍କ ଛଳ ଛଳ ଆଖିର ଲୁହ ଜକେଇ ଆସେ । ତେବେକେ
ମଧ୍ଧ ମୁହଁରେ ହସ ଲାଖିଥାଏ ତାଙ୍କର । ବୈଠକର ବିଶିଷ୍ଟ ସଙ୍ଗୀତଜ୍ଞ ହେଲେ ସ୍ବର୍ଗତ
ମନମୋହନ ସାବତ । ବେହେଲା ବଜାନ୍ତି ଜଗବନ୍ଧୁ ସାହୁ , ବେଳେବେଳେ ତାବଲା ମଧ୍ଧ
କର । " " ମୋତେ ଆପଣଙ୍କର ଆଦେଶ ଲେଖିକରି ଦେଲେ , ମୁଁ ୟାହା ହେବ କରିବି ।
ଲାଇସେନସଟା ମୋତେ ଫେରି ଦେବେ ନାହିଁ ବୋଲି କହୁଛନ୍ତି ୟେବେ , ରଖନ୍ତୁ
ତାକୁ " - ଏତିକି କହି ଚାଲିଆସି ସବୁକଥା ଉମାଚରଣ ବାବାଙ୍କୁ କହିଲି । ଉମା ବାବୁ
ଜଣେ କିରାନୀଙ୍କ ଦ୍ବାରା ଥାନା ବାବୁଙ୍କୁ ଡକାଇ ପଠାଇ ମୋତେ ବସିବାକୁ କହିଲେ । //
କିଛି ସମଯ ପରେ ଥାନା ବାବୁ ଆସନ୍ତେ ତାଙ୍କୁ ସବୁ କଥା ଶୁଣାଇ ତାଙ୍କ କଥାର ପ୍ରତିକାର
କରିବେ ବୋଲି କହିଲେ । ସବ୍୍ଇନ୍୍ସପେକ୍ଟର ବାବୁ ସଙ୍ଗେ ସଙ୍ଗେ ୟାଇ ଲାଇଲେନ୍୍ସଟି
ଫେରାଇ ଦେଲେ । ମୁଁ ଆନନ୍ଦରେ ଫେରିଲି ବସାକୁ । ପରେ ବୁଝିଲି ୟେ ସବ୍୍ଇନିସ~
ପେକ୍ଟରଟି ନୂଆ ହୋଇ କଟକ ମାଟି ଛୁଇଁଛନ୍ତି - ଘର ପଶ୍ଚିମ ଓଡିଶା । ୟେତେ ଦୂର
ମନେପଡୁଛି ବୋଧହୁଏ ତାଙ୍କ ନାଆଁ ସନାତନ ବାବୁ ।</p>

<p>ଏ ଘଟଣାର ପରଦିନ ସଞ୍ଜରେ ସେଇବାବୁ ପୁଣି ଶ୍ରୀରାମଚନ୍ଦ୍ର ଭବନକୁ ଆସିଲେ ।
ୟୋଗକୁ ପଦ କକେଇ ଗେଟ୍୍ ପାଖେ ଥିଲେ । ତାଙ୍କ ଦ୍ବାରା ମୋତେ ଖବର ଦେଲେ ।
ଫକିରକୁ ଆଉ ଗେଟ ଛାଡି ଆସିବାକୁ ପଡିଲା ନାହିଁ । ମୁଁ ତାଙ୍କୁ ପେଣ୍ଡାଲକୁ ଡାକି ଆଣିବାକୁ
କହିଲି - ବସିଲେ , ପ୍ଳେ ଦେଖିଲେ । ପ୍ଳେ ଶେଷରେ ଦେଖା ହେଲା । ଭାରି ନରମ ଏତେ~
ବେଳେ ସେ । ଫକୀର ଆସି ତାଙ୍କୁ ଦେଖା ଦେଲେ । ନିଜର ଭୁଲଟା ସଳଖରେ ନ ମାନି
ହ୍ଯାଣ୍ଡ ସେକ୍୍ କରି , ହସି କଥା କହି , ମାନେ ମାନେ ବିଦାଯ ନେଲେ । ଯା ପରଠାରୁ ମଝି
ମଝିରେ ଆସି ଟିକିଏ ସହାନୁଭୂତି ଦେଖାଇ ଥାଆନ୍ତି ।</p>

<p>ଅନେକ ବନ୍ଧୁ ମୋର ଏ ସବୁ କଥା ଶୁଣି ତାଙ୍କୁ ଦେଖିଲେ ମୁରୁକି ହସା ମାରନ୍ତି ।
ଫକିରରାମ ; କିନ୍ତୁ କଟମଟ କରି ଚାହେଁ । ହାତ ବି ଟେକେ ନାଇଁ ତାଙ୍କୁ । କେବଳ
ଆମମାନଙ୍କ କଥାରେ ଗେଟରେ ପ୍ରବେଶ କରିବାକୁ ଛାଡିଦିଏ ।</p>

<p>ଏ ପ୍ରାଯ 1937 ସାଲରେ କଥା ଗୋଟେ ନୂଆ ଭିଆଣ କରିବାକୁ ମନବଳିଲା ।
ଶ୍ରୀରାମଚନ୍ଦ୍ର ଭବନରେ ଲକ୍ଷ୍ମୀ , ତା ବାପା ସହିତ ରହୁଥାଏ । ପିଲାଟି ଦେଖିବାକୁ ଭାରି
ସୁନ୍ଦର । କଥା , ବ୍ଯବହାର , ଢଙ୍ଗରଙ୍ଗ ବଡ ସୁଖ ଲାଗେ । ହଠାତ୍୍ ମନ ହେଲା ରାସ ଦଳରେ
ଝିଅ ପିଲା ନେଲେ ତ ମନ୍ଦ ହୁଅନ୍ତା ନାଇଁ । ଚେଷ୍ଟା ଚାଲିଲା । ଫକୀରକୁ କହିଲି । ସେ ମଧ୍ଧ
ମୋ କଥାରେ ରାଜି ହେଲା । ମସଜିଦ୍୍ଗଳି ଧଉଣ୍ଡା ହେଲା । ତିଳ ଝିଅ ବିଲ ( ନ଼ତ୍ଯଗୁରୁ
କେଳୁଚରଣଙ୍କର ସ୍ତ୍ରୀ , ଆଜିର ଲକ୍ଷ୍ମୀ ) ଋକୁଣୀ , ବଢେଇ ସାଲ ଆଡର ଓ ଜଗନ୍ନାଥ~
ପାର୍ଟ ଦିଆଗଲା । ଏତିକିବେଳେ ତେଲେଙ୍ଗା ବଜାରର ବେଶ୍ଯା ` ବୁଢୀ ' ର ଝିଅ ଉମା ମଧ୍ଧ
ଆସି ୟୋଗ ଦେଲା । ରିହର୍ସେଲ ଚାଲିଲା ।</p>

<p>ନାଟ୍ଯ ଦଳରେ ଝିଅମାନଙ୍କୁ ନେଇ ପ୍ଳେ ଦେବା ଓଡିଶାରେ ମୋର ପ୍ରଥମ
ଆଯୋଜନ ବୋଲି କହିବାକୁ ହେବ । କଟକରେ ଏଭଳି ସବୁ ବ୍ଯବସ୍ଥା ପରେ ଆଉ
ମୋହନ ଗୋସ୍ବାମୀ ପ୍ରାଯ ଦଳନେଇ ଆସି ନାହାନ୍ତି ।</p>

<p>ନୂଆ ଭିଆଣ ଦେଖି ପେଣ୍ଡାଲରେ ଲୋକ ଭିଡି ହେଉଥାଏ , ଦିନକୁ ଦିନ ।
ଶ୍ରୀ ରାମଚନ୍ଦ୍ର ଭବନରେ ଆଉ ପ୍ଳେ ଦେବା ସମ୍ଭବ ହେଲା ନାହିଁ । ବ୍ଯବସ୍ଥା କରି ବାଙ୍କା
ବଜାର ସୁଶୀଳ ପାଲିତିଙ୍କ ଖୋଲା ପେଣ୍ଡାଲ ତିଆରି କଲି ।</p>

<p>ଓଡିଆ ପେଣ୍ଡାଲ - ବ୍ରହ୍ମପୁର :
ବାଙ୍କା ବଜାରରେ କେତେକ କାଳ ଅଭିନଯ ଚାଲିଲା ପରେ ଦଳ ବ୍ରହ୍ମପୁର ଗଲା ।
ସେତେବେଳେ ବଡ ବଜାରରେ ସାରଥୀ ସାହୁ ଓଡିଆ ପେଣ୍ଡାଲ ନାମରେ ଗୋଟିଏ ମଞ୍ଚ
ତୋଳାଇ ଦଳଗଢି ଥାନ୍ତି । ନାଟ୍ଯକାର ସ୍ବର୍ଗତ କୃଷ୍ଣ ପ୍ରସାଦ ବସୁ ସେମାନଙ୍କୁ କିଛିକାଳ
ଏଠାରେ ନିର୍ଦ୍ଦେଶନା ଦେଇଥିଲେ । ମୁଁ ଦଳନେଇ ଗଲାବେଳକୁ ସେ ଦଳ ନ ଥିଲା । ଶଶୀ
ଭାଇନା ( ଶଶିଭୂଷଣ ରଥ , ସମ୍ପାଦକ ` ଆଶା ' ) ଜୀବିତ ଥାଆନ୍ତି । ଆଶା ପତ୍ରିକା ଖୁବ୍୍
ନାଆଁ କମାଇଁ ଚଳୁଥାଏ । ମୋର ତ ସିଏ ପୂର୍ବ ପରିଚିତ ମଙ୍ଗଳାକାଙ୍୍କ୍ଷୀ ବନ୍ଧୁ । ଶଶୀ
ଭାଇନାଙ୍କ ଭାଇ ଶରତ , ଦିବାକର ପଟ୍ଟନାଯକେ ଓ ସ୍ବର୍ଗତ ଉମାଚରଣ ପଟ୍ଟନାଯକେ
ମୋତେ ନାନା ସାହାୟ୍ଯ ଦେଉ ଥାଆନ୍ତି ।</p>

<p>ଥରେ ସେତେବେଳର ` ନବୀର ' କାଗଜ ସମ୍ପାଦକ ମହୁରୀ ୟୁବରାଜ ତାଙ୍କ
ସାଙ୍ଗମାନଙ୍କୁ ଘେନି ବିନା ଟିକେଟରେ ପ୍ରବେଶ କରିବାକୁ ଗେଟକୁ ଆସିଲେ । ଗେଟକିପର
ତାଙ୍କୁ ଭିତରକୁ ଛାଡିଲା ନାହିଁ , ଫେରିଗଲେ । ରାଗିୟାଇ ଗୁଡାଏ ଅପପ୍ରଚାର କଲେ । ତହିଁ
ପରଦିନ ପ୍ଳେ ବେଳେ ପେଣ୍ଡାଲ ଉପରେ ଟେକା ପଥର ପଡିଲା । ମୁଁ ବିଚାରିଲି , ତାଙ୍କର
କାଗଜଟିଏ ଅଛି , ମୋର ତ ମଞ୍ଚ ଅଛି , କଲମ ଅଛି ; ସାହାୟ୍ଯକାରୀ ବନ୍ଧୁ ମଧ୍ଧ ଅଛନ୍ତି ।
ଦେଖାୟାଉ କଅଣ କରିହେବ । ଏଇ ବିଚାରରେ ଖଣ୍ଡିଏ ପ୍ରହସନ ଛାପା ହେଲା । ଦାମ ମଧ୍ଧ
ପଇସାଟିଏ । ପିଲାଙ୍କୁ ତାଲିମ ଦେଇ , ପ୍ଳେ ପରେ ପ୍ରହସନଟି ମଞ୍ଚସ୍ଥ ହେଲା । ଶଶୀ ଭାଇନା ,
ଦାମ ରଥେ ଓ ଦିବାକର ବାବୁ ଇତ୍ଯାଦି ସମସ୍ତଙ୍କୁ ଡାକିଲି । ଚହଳ ପଡିଗଲା ,
ବ୍ରହ୍ମପୁର ଟାଉନରେ । ଦିନାକେତେ ଗଲା । ପୁଣି ସବୁ ମିଳାମିଶା ହୋଇ ପଛ କଥା
ମନରୁ ପୋଛି ଦେଲୁଁ । //
ପୂର୍ବକଥିତ ଗୀତ ବହୁଳ ଗୀତିନାଟ୍ଯ ଚାଲୁଥିବାବେଳେ ହଠାତ୍୍ ମୁଁ ଲେଖି ବସିଲି
` ଲକ୍ଷ୍ମୀ ' ନାଟକ । ଏଥିରେ ପୂର୍ବର ଗୀତ ବହୁଳ ନାଟକର ରୀତି ଏକାବେଳେ ବଦଳିଗଲା ।
ବ୍ଯବସାଯୀ ନାଟ୍ଯସଂଘ ଗଢିବା ଆଗରୁ ମୁଁ ଅବଶ୍ଯ ଧ୍ରୁବ , ହରିଶ୍ଚନ୍ଦ୍ର , ଶକୁନ୍ତଳା , ମୃଗଯା
ପ୍ରଭୃତି ନାଟକମାନ ଲେଖିଛି । ସେ ଧାରା ରାସଦଳ ଗଢାବେଳକୁ ବଦଳି ୟାଇଥିଲା ।
ମୃଗଯା ନାଟକଟି ଅପୂର୍ଣ୍ଣ ଅମିତ୍ରାକ୍ଷର ଛନ୍ଦରେ ରଚିତ । ଅର୍ଥାଚ ପ୍ରତି ଧାଡିରେ ଆଠ
ଅକ୍ଷର ଓ ଛଅ ଅକ୍ଷରରେ ୟତି ( ବିରାମ ସ୍ଥଳ ) ରଖି ପୂର୍ଣ୍ଣ ଅମିତ୍ରାକ୍ଷର ଛନ୍ଦରେ ଲେଖାଧାରା
ଛାଡି , ଭାବ ଓ ରସ ପ୍ରକାଶନକୁ ଜଗି ପ୍ରତି ଧାଡିରେ ଅକ୍ଷର ସଂଖ୍ଯା ଉଣା ଅଧିକେ ୟୋଗାଡି
ଅପୂର୍ଣ୍ଣ ଅମିତ୍ରାକ୍ଷର ଛନ୍ଦ ରଚନା କରି ନାଟକ ଲେଖିଲି । ମୃଗଯା ନାଟକ ଅପେକ୍ଷା
ସ୍ଥଳାନୁସାରୀ ଅଳ୍ପଗୀତ ଖଞ୍ଜା ହେଲା ।</p>

<p>ଏହାପରେ ` ପ୍ରତିଶୋଧ ' ଓ ` ଆହୁତି ' ନାମକ ଦୁଇଖଣ୍ଡି ସାମାଜିକ ନାଟକ
ପରୀକ୍ଷାମୂଳକ ଭାବେ ଲେଖିଲେ ଓ ଏହା ଲୋକର ରୁଚିକର ହେଲା - ତେଣୁ ମୋର
ଉତ୍ସାହ ବଢିଲା ।</p>

<p>ସବୁବେଳେ କିଛି ଗୋଟାଏ ନୂଆ ଭିଆଣ କରିବାକୁ ମୋର ମନହୁଏ । ଏହା
ସେଇ ଅଦୃଶ୍ଯ ପ୍ରେରଣା ଛଡା ଆଉ କିଛି ନୁହେଁ ବୋଲି ମୋର ଚିରଦିନ ବିଶ୍ବାସ ।</p>

<p>ନାଟ୍ଯ ଜୀବନରେ ଆସିଲା ଏକ ପରିବର୍ତ୍ତନ । ଏଇ ଅଦୃଶ୍ଯ ପ୍ରେରଣା ମୋତେ
ସାମାଜିକ ନାଟକ ଲେଖାଇବା ଓ ବ୍ଯବସାଯୀ ଦଳରେ ପ୍ରଥମ କରି ନାରୀ ଅଭିନେତ୍ରୀ
ୟୋଗାଡି ଅଭିନଯ ପ୍ରଦର୍ଶନ କରାଇବାକୁ ସୁୟୋଗ ଦେଲା ।</p>

<p>ଆରମ୍ଭ ହେଲା ଓଡିଶା ଥିଏଟର୍ସ । ଏହି ବ୍ଯବସାଯୀ ରଙ୍ଗମଞ୍ଚର ପ୍ରଥମ ସାମାଜିକ
ନାଟକ - ` ଗାର୍ଲସ୍କୁଲ ' ପରେ ପରେ ଆହୂତି , ଚୁମ୍ବନ , ଚକ୍ରୀ , ପରିବର୍ତ୍ତନ , ଜଯଦେବ ,
ବନମାଳୀ , ଅତିବଡୀ ଜଗନ୍ନାଥ ଦାଶ , ରକ୍ତମାଟି , ଦଶଭୂଜା , କମଳା , ହରମଚାଶ ଓ
ଫଟାଭୂଇଁ ଇତ୍ଯାଦି ଇତ୍ଯାଦି ବହୁ ନାଟକ 1949 ଶେଷ ପର୍ୟ୍ଯନ୍ତ ଓଡିଶା ଥିଏଟର୍ସ ଦଳ
ଦ୍ବାରା ଉପେନ୍ଦ୍ର ଭଞ୍ଜ ଏବଂ ଶ୍ରୀ ନବକୁମାର ଦାସଙ୍କ ଲେଖା ହା ' ଅନ୍ନ ନାଟକ ମଧ୍ଧ ମଞ୍ଚସ୍ଥ
କରାଇଥିଲି । ଗୀତଗୁଡିକ ଲେଖିଥିଲି ମୁଁ ।</p>

<p>ଅଭ୍ଯାସ :
ନାଟକ ମୁଁ ଲେଖେଁ ସତ - ମାତ୍ର ସବୁବେଳେ କେତେକଙ୍କର ମତାମତ , ସମାଲୋଚନା ,
ପରାମର୍ଶ ଓ ଉପଦେଶକୁ ଆଗ୍ରହ ସହିତ ଗ୍ରହଣ କରେଁ । ଜଣେ କେହି ସବୁଥିରେ
ପଣ୍ଡିତ ବା ଜ୍ଞାନୀ ବୋଲି ଆଦୌ ମୋର ବିଶ୍ବାସ ବା ଧାରଣା ନ ଥାଏ କି ନାହିଁ ।</p>

<p>ନାଟକର ପ୍ରଥମ ଦୃଶ୍ଯକୁ ଦର୍ଶକଙ୍କ ମନରେ ଅନ୍ତତଃ ଷୋଳଅଣାରୁ ଚାରି ଛଅ ଅଣା
ହେଲେ ଆଗ୍ରହ ଓ ଉତ୍କଣ୍ଠା ସୃଷ୍ଟି କରାଇବାକୁ ମୁଁ ସବୁବେଳେ ସଜାଗ , ସାବଧାନ ଓ
ଚେଷ୍ଟିତ ଥାଏଁ । ମୋ ମତରେ ନାଟ୍ଯାଭିନଯରେ ଏହା ଉଚିତ୍୍ ବିଚାର ।</p>

<p>ଗୋଟିଏ ଦୃଶ୍ଯରେ ପରଦା ( ସ୍କ୍ରିନ୍୍ ) ପକାଇ ଅନ୍ତରାଳରେ ଘଡିଏ କାଳ ବାଜା
ବଜାଇବା ( ଆବହ ସଙ୍ଗୀତ ) ଦ୍ବାରା ଦର୍ଶନ ଆନମତା ହୋଇ ୟାଆନ୍ତି ଓ ନାଟ୍ଯ ବିଷଯର
ଧାରା ( chain ) ରହେ ନାହିଁ ବୋଲି ମୋର ବିଶ୍ବାସ ।</p>

<p>ଏଥିପାଇଁ cover ଓ discover ସିନ୍୍ର ବ୍ଯବସ୍ଥା ପ୍ରଚଳନ ମୁଁ କଲି , ଏବଂ
cover ସିନ୍୍ରେ ନାଟ୍ଯ ଉପସ୍ଥାପିତ ବିଷଯର ଧାରା ୟେପରି ପଥଚ୍ଯୁତ ନ ହୁଏ , ତହିଁ ପ୍ରତି
ବିଶେଷ ଧ୍ଧାନ ଦେଲି । ସ୍ବର୍ଗତଃ ଓ ଜନାନ୍ତିକେ ପ୍ରଥାକୁ ମୁଁ ଆଦୌ ସମୁଚିତ ମଣିଲି ନାହିଁ ।
ଏହି ରୀତି ଅନୁସରଣରେ ମୋର ନାଟକଗୁଡିକ ରଚିତ ।</p>

<p>ଜାତୀଯତାଭାବ , ଲୋକସେବା , ଦେଶାତ୍ମବୋଧ , ସମଯର ରୁଚି ଓ ଦେଶଜାତିର
ଅବସ୍ଥାକୁ ଜନତା ଆଗରେ ଉପସ୍ଥାପିତ କରିବାଟା ହେଲା ମୋର ନାଟ୍ଯକାର ଜୀବନର ବଡ
ଲକ୍ଷ୍ଯ । ଭାତ , ବେକାର , ରକ୍ତମାଟି , ଫଟାଭୂଇଁ ପ୍ରଭୃତି ନାଟକମାନଙ୍କ ପ୍ରତି ଟିକିଏ ଦୃଷ୍ଟି
ଦେଲେ ଏକଥା ସହଜେ ବାରିହେବ ।</p>

<p>ନାଟକାଭିନଯ କେବଳ ମନୋରଞ୍ଜନ ବା ରଙ୍ଗରହସ୍ଯ ଉଦ୍ଦେଶ୍ଯରେ ନୁହେଁ ,
ଲୋକ-ଶିକ୍ଷା ଓ ସଂସ୍କୃତି ସଂରକ୍ଷଣ ଇତ୍ଯାଦିର ଏହା ପ୍ରକୃଷ୍ଟ ପ୍ରଚାର ଏବଂ ପ୍ରସାର ମାଧ୍ଧମ ।
ନାଟ୍ଯଗୁରୁ ଭରତଙ୍କର ଏହି ମତକୁ ଅନୁସରଣ କରିବା ଲାଗି ମୁଁ ୟଥାସାଧ୍ଧ ଚେଷ୍ଟାକରି
ନାଟକମାନ ରଚନା ଓ ଉପସ୍ଥାପନା କରିବାପ୍ରତି ସଜାଗ ଦୃଷ୍ଟି ଦେବା ସମୁଚିତ ବିଚାରିଲି ।</p>

<p>ରଙ୍ଗମଞ୍ଚ ପ୍ରେକ୍ଷା-ଗୃହରେ ଦର୍ଶକ ସଂଖ୍ଯା ୟେତେ ଊଣା ଅବା ଅଧିକ ହୁଅନ୍ତୁ ମୁଁ
ସେମାନଙ୍କ ମଧ୍ଧରେ ଦୁଇ ସଙ୍ଗାତଙ୍କର ଉପସ୍ଥିତି ଓ ମତାମତ ପ୍ରତି ସବୁବେଳେ ସମ୍ମାନ
ଦେଇଥାଏଁ । ନାଟକର ମଞ୍ଚ ସଫଳତା ଏଇ ଦୁଇ ସଙ୍ଗାତଙ୍କର ମତାମତ ଉପରେ ନିର୍ଭର
କରେ ବୋଲି ସବୁବେଳେ ମୁଁ ବିଚାର କରେ ।</p>

<p>ଏ ଦୁଇ ସଙ୍ଗାତଙ୍କର ମଧ୍ଧରୁ ଜଣେ ଅନ୍ଧ ଓ ଅନ୍ଯ ଜଣକ କାଲ । ଅନ୍ଧ-ନାଟକର
ବଚନିକା ଓ ଗୀତ ଇତ୍ଯାଦି ଶୁଣି ଏବଂ କାଲ ଦୃଶ୍ଯସଜ୍ଜା , ଅଭିନଯ ଓ ଭୂମିକା ଅନୁରୂପ
ବେଶ ଇତ୍ଯାଦି ଦେଖି ଦୁହିଁଙ୍କ ମଧ୍ଧରେ ଆଲୋଚନା କରୁଥିବେ ଏବଂ ସେମାନେ ୟଦି ନାଟକ
ଦେଖି ତୃପ୍ତି ହେବେ , ତେବେ ତାହା ସଫଳ ନାଟକ ବୋଲାଇବ । ନାଟକ ଶ୍ରବ୍ଯ ଏବଂ
ଦୃଶ୍ଯକାବ୍ଯ - ଏହା ମୋର ଦୃଢ ଧାରଣା ।</p>

<p>ଦେଶ-କାଳ-ପାତ୍ରକୁ ଚାହିଁ ମୁଁ ରାସଦଳ ପରେ ଓଡିଶା ଥିଏଟର୍ସ ସଂସ୍ଥା ଆରମ୍ଭ
କଲି 1939 ରେ ଅର୍ଥାତ୍୍ ରାସଦଳର ଦଶନ୍ଧି ପରେ । //
ଶ୍ରୀ ରାମଚନ୍ଦ୍ର ମିଶ୍ରଙ୍କର ` ଅଭିମାନ ' ନାଟକ ସେମାନେ ମଞ୍ଚସ୍ଥ କଲେ । ନୂଆ ଗଢା ଭାରତୀ
ଥିଏଟର୍ସ ମଞ୍ଚସ୍ଥରେ ଏଇ ନାଟକ ମଞ୍ଚସ୍ଥ ହେବାର ଦିନ 4\6 ପରେ ଚୁମ୍ବନ ଅଭିନୀତ
ହେଲା ଓଡିଶା ଥିଏଟର୍ସ ମଞ୍ଚରେ । ଭାରତୀ ଥିଏଟର୍ସ ମଧ୍ଧ ଦଳରେ କେତେଜଣ ଅଭିନେତ୍ରୀଙ୍କୁ
ଗ୍ରହଣ କରିଥିଲେ ।</p>

<p>ସେତେବେଳେ ଗୋଟିକିଆ ବଳଦ ଗାଡିରେ ବାଜା ବଜାଇ ହାଣ୍ଡବିଲ୍୍ ବଣ୍ଟା
ପ୍ରଚାରର ରୀତି ଥିଲା । ମୁଁ ମୋର ହାଣ୍ଡବିଲ୍୍ରେ ଲେଖି ଛଡାଇଲି ` ଅଭିମାନର ଶ୍ରେଷ୍ଠ
ମହୌଷଧି ଚୁମ୍ବନ ' । ଲୋକେ କଥାଟିକୁ ଭାରି ମନଘେନା କରି ହସିଲେ । ଏବେ ସେକଥା
ମନେ ପକାଇ ମୁଁ ଓ ରାମ ମିଶ୍ରେ ବହୁତ ହସୁଁ ।</p>

<p>ଚୁମ୍ବନ ନାଟକ ନାଆଁଟା ଶୁଣି ଶୋକେ ପହିଲେ ନାକ ସିଟକାଉଥିଲେ ।
କିନ୍ତୁ ନାଟକର ଅଭିନଯ ଦେଖିବା ପରେ ଜନ ଗହଳି ଭିତରେ ଶତାଧିକ ରାତି ଚୁମ୍ବନ
ଚାଲିଲା ।</p>

<p>ଗୋଟିଏ ବିଶେଷ ଘଟଣା ଘଟିଲା ଏହି ନାଟକର ନାଆଁ ଘେନି । ସେତେବେଳେ
ବାଙ୍କାବଜାରରେ ` ନବ ଭାରତ ' ପ୍ରେସ ସ୍ଥାପିତ ହୋଇଥାଏ । ସ୍ଥାପଯୀତା ପୂଜ୍ଯ ପଣ୍ଡିତ
ନୀଳକଣ୍ଠ ଦାଶେ । ପ୍ରାଯ ଦେଢଶତ ରାତି ଅଭିନଯ ଚାଲିଲା ପରେ ତାଙ୍କ ଦ୍ବାରା ସମ୍ପାଦିତ
` ନବଭାରତ ' ପତ୍ରିକାରେ ଚୁମ୍ବନ ବିରୋଧୀ ଏକ ଦୀର୍ଘ ମନ୍ତବ୍ଯ ପ୍ରକାଶ ପାଇଲା । ମୁଁ ବହୁ
ବିନଯ କରି ତାଙ୍କୁ ମୋ ମଞ୍ଚକୁ ଡାକିଲି । ଅନେକ କଷ୍ଟରେ ଥରେ ସେ ଚୁମ୍ବନର ଅଭିନଯ
ଲେଖିବାକୁ ଆସିଲେ । ନାଟକ ଶେଷ ହେବାକୁ ପ୍ରାଯ ଦୁଇ ତିନୋଟି ଦୃଶ୍ଯ ବାକିଥାଏ ,
ମୋତେ ପ୍ରେକ୍ଷାଳଯକୁ ଡାକି କହିଲେ - " ହଇହୋ କାଳୀଚରଣ ବାବୁ , ଏଥିରେ ତ
କୌଣସି ଅପ୍ରାସଙ୍ଗିକ ବିଷଯର ଚିତ୍ରଣ ନାହିଁ । ଲୋକେ ମୋତେ କହିବାରୁ ମୁଁ କାଗଜରେ
ଲେଖିଦେଲି । କିଛି ମନେ କରିବ ନାହିଁ । " ମୁଁ ଗୋଡଧୂଳି ନେଇ ପେଣ୍ଡାଲ ଉପରକୁ
ଗଲି । ସ୍କ୍ରିନ ପକାଇ ମଞ୍ଚ ଉପରକୁ ଆସି ହାତ ୟୋଡି କହିଲି - " ସହୃଦଯ କଟକବାସୀ
ଶତାଧିକ ରାତ୍ରି ମୋର ଚୁମ୍ବନ ନାଟକ ଉପଭୋଗ କରି ଧନ୍ଯ କରିଛନ୍ତି । ମାତ୍ର ମୋର
ଗୁରୁ ପ୍ରତିମ ଜଣେ ପୂଜ୍ଯବ୍ଯକ୍ତି ତାହା ଗ୍ରହଣ କରିପାରି ନାହାନ୍ତି , କାରଣ ତାଙ୍କର ଦାଢି
ଅଛି " । ପ୍ରେକ୍ଷାଳଯ ହସ ଓ ତାଳିରେ ପୂରିଗଲା । ମୁଁ ପ୍ରଣାମ କରି ବିଦାଯ ନେଲି ମଞ୍ଚରୁ ।
ପୁଣି ପ୍ଳେ ଚାଲିଲା । ଆଉ ମୁଁ ଡରରେ ପଣ୍ଡିତ ମହାଶଯଙ୍କ ପାଖରୁ ବିଦାଯ ନେବାକୁ ୟାଇ
ନାହିଁ ।
 +&gt;*
               0 
</p></body></text></cesDoc>