<cesDoc id="ori-w-socsci-cater-ohf03" lang="ori">
<cesHeader type="text">
<fileDesc>
<titleStmt>
<h.title>ori-w-socsci-cater-ohf03.txt</h.title>
<respStmt>
<respType>Electronic file created by</respType>
<respName>Central Institute for Indian Languages, Mysore</respName>
<respType>transferred into Unicode and CES format by</respType>
<respName>"Unicodify" software by Andrew Hardie</respName>
</respStmt></titleStmt>
<publicationStmt>
<distributor>UCREL (on behalf of CIIL)</distributor>
<pubAddress>Department of Linguistics, Lancaster University, Lancaster, LA1 4YT, UK</pubAddress>
<availability region="WORLD"></availability>
<pubDate>03-08-12</pubDate>
</publicationStmt>
<sourceDesc>
<biblStruct>
<monogr>
<h.title>ପାଟିସୁଆଦ</h.title>
<h.author>ଅନୀତା...</h.author>
<imprint>
<pubPlace>India</pubPlace>
<publisher>Unknown - Book.</publisher>
<pubDate>1985</pubDate>
</imprint>
<idno type="CIIL code">ohf03</idno>
</monogr></biblStruct></sourceDesc></fileDesc>
<encodingDesc>
<projectDesc>Text collected for the CIIL Corpus, subsequently integrated into the EMILLE/CIIL Monolingual Written Corpora.</projectDesc>
<samplingDesc>Simple written text only has been transcribed. Diagrams, pictures and tables have been omitted. Sampling begins at page 1277.</samplingDesc>
<editorialDecl><conformance level="1"></conformance></editorialDecl>
</encodingDesc>
<profileDesc>
<creation><date>03-08-12</date></creation>
<langUsage>Oriya</langUsage>
<wsdUsage>
<writingSystem id="ISO/IEC 10646">Universal Multiple-Octet Coded Character Set (UCS).</writingSystem>
</wsdUsage>
<textClass>
<channel mode="w">print</channel>
<constitution type="composite"></constitution>
<domain type="public"></domain>
<factuality type="fact"></factuality>
</textClass>
<translations></translations>
</profileDesc>
<revisionDesc></revisionDesc>
</cesHeader>

<text><body>

<p>&lt;ନଡିଆ କବାବ
ନଡିଆକୁ କୋରି ଦିଅ । ବେସନ ବ୍ଯତୀତ ସେଥିରେ ସବୁ ଜିନିଷ
ମିଶାଇ ଖଦଡା କରି ବାଟିଦିଅ । ତାପରେ ବେସନ ମିଶାଇ ଭଲଭାବେ ଚକଟି
ଦିଅ । କବାବ ପରି ତିଆରି କରି ତେଲରେ ଛାଣିନିଅ । ଚଟଣୀ ସହ
ଖାଇବାକୁ ଦିଅ ।</p>

<p>ପପେଯା ସାଣ୍ଡଵିଚ୍
ଅଧା କିଲୋ କଞ୍ଚା ପପେଯା , ଅଧା କପ୍ ବେସନ , 5 ଟି ଅଣ୍ଡା , ଫାଳେ ଲେମ୍ବୁ
1 ବଡ ଚାମଚ ଗରମ ମସଲା , 1 ବିଡା ଧଣିଆପତ୍ର , ଅଧ ଇଞ୍ଚ ଲମ୍ବ ଅଦା ,
ଅଧା କପ୍ ନଡିଆ କୋରା , 5 ଟି କଞ୍ଚାଲଙ୍କା ଓ ଲୁଣ ।</p>

<p>1 ଟି ଅଣ୍ଡା ଫେଣ୍ଟି ସେଥିରେ ବେସନ , ଗରମ ମସଲା ଲୁଣ ମିଶାଇ
ରଖ । ପପେଯା କାଟି ସିଝାଅ । ଥଣ୍ଡା ହେଲେ ଚକଟି ରଖ । ଘିଅ ଗରମ କରି
ପପେଯା , ଅଦା , କଞ୍ଚାଲଙ୍କା ବଟା , ନଡିଆ ମିଶାଇ ସାମାନ୍ଯ ଗୋଲାପୀ
ହେବା ୟାଏଁ ଭାଜ । ବେସନ ମିଶ୍ରଣ ମିଶାଇ ମୋଟା ହେଲେ ଓହ୍ଲାଅ ।
ଲେମ୍ବୁରସ ମିଶାଅ । ଥଣ୍ଡା ହେଲେ ପାଉଁରୁଟି ସାଇଜର ଟିକିଆ ଗଢି ରଖ । ପ୍ରତି
ଟିକିଆକୁ ଅଳ୍ପ ଅଳ୍ପ ଭାଜି କାଢି ରଖ ।</p>

<p>4 ଟି ଅଣ୍ଡା ଭାଙ୍ଗି ସେଥିରେ ଲୁଣ , ଗରମ ମସଲା ଗୁଣ୍ଡ , ଧଣିଆ ପତ୍ର ,
ପକାଇ ଫେଣ୍ଟି ରଖ । ତାଵାରେ ଗୋଟିଏ ଟିକିଆ ଦେଇ ତା ଉପରେ କିଛି
ଅଣ୍ଡାଫେଣ୍ଟା ରଖି ତା ଉପରେ ଆଉ ଗୋଟିଏ ଟିକିଆ ରଖ । ଘିଅ ଦେଇ
ଦୁଇପଟ ୟାକ ଲାଲକରି ଭାଜି କାଢି ନିଅ ।</p>

<p>ପୁରଦିଆ କଲରା
500 ଗ୍ରାମ ସାନ କଲରା , 250 ଗ୍ରାମ ଆଳୁ , ଅଧା ଚା ଚାମଚ ଲଙ୍କାଗୁଣ୍ଡ ,
ଅଧା ଚା ଚାମଚ ଗରମ ମସଲାଗୁଣ୍ଡ 1 ଟି ଟମାଟୋ , 1 ଟି ପିଆଜ , ଧନିଆପତ୍ର
କିଛି , 1 ଟି ଲେମ୍ବୁ , ଲୁଣ ଓ ତେଲ ଲାଗିବ ।</p>

<p>କଲରାର ଉପର ଚୋପାକୁ ସାମାନ୍ଯ ଚାଞ୍ଛି ଦିଅ । ଲମ୍ବା ଭାବରେ କାଟ
ୟେପରିକି ଛିଣ୍ଡି ନ ୟାଏ । କିଛି ଲୁଣ ଭିତରେ ଦେଇ ରଖ । ଆଳୁକୁ ସିଝାଇ
ଦିଅ । ଟମାଟୋ , ପିଆଜ , ଧନିଆପତ୍ରକୁ ଚୁନି ଚୁନି କାଟ । ଆଳୁ ସହ
ଏ ସମସ୍ତ ଜିନିଷ ମିଶାଇ ଭଲଭାବେ ଚକଟି ରଖ । ଲେମ୍ବୁର ରସ ଚିପୁଡି
ସେଥିରେ ମିଶାଅ । ଲୁଣ ଦିଅ ।</p>

<p>1 ଘଣ୍ଟା ପରେ ଆସ୍ତେ କଲରାକୁ ଚିପୁଡି ଦିଅ । ଆଉ ଧୋଇବ
ନାହିଁ । ତା ଭିତରେ ଆଳୁ ଚକଟାକୁ ପୁର ଦେଇ ତେଲ ଗରମ କରି ଛାଣିନିଅ ।</p>

<p>ପ୍ରତିଟି କଲରାକୁ ସୂତା ଖଣ୍ଡେ ବାନ୍ଧିଦେଲେ ଆଉ ପୁର ବାହାରି
ପଡିବାର ସମ୍ଭାବନା ନ ଥାଏ । ଖାଇବାକୁ ଦେବା ପୂର୍ବରୁ ସୂତାଟିକୁ କାଢିଦେବ ।
ସାଧାରଣତଃ ମହାରାଷ୍ଟ୍ରରେ କଲରାକୁ ଏହି ପ୍ରକାର ରାନ୍ଧିଥାନ୍ତି ।</p>

<p>ଚୁଡା ଆଳୁ ବଡା
ଏ ବଡାଟି ଗୁଜୁରାଟରେ ବେଶି ଲୋକପ୍ରିଯ ।
250 ଗ୍ରାମ ଆଳୁ , 250 ଗ୍ରାମ ସରୁ ଚୁଡା , 100 ଗ୍ରାମ ବେସନ , 1 ବିଡା
ଧଣିଆପତ୍ର , 4 ଟି କଞ୍ଚାଲଙ୍କା , ଅଧା ଚା ଚାମଚ ହଳଦୀ ଗୁଣ୍ଡ , ଅଦା , 1 ଚା
ଚାମଚ ଜୀରା ଗୁଣ୍ଡ , 1 ଚା ଚାମଚ ଚିନି , ସାମାନ୍ଯ ସୋଢା , କିଛି ଲେମ୍ବୁ ରସ ,
କିଛି ଲୁଣ , ଲଙ୍କାଗୁଣ୍ଡ ଓ ତେଲ ଦରକାର ।</p>

<p>ଆଳୁକୁ ସିଝାଇ ରଖ । ଚୁଡା ଧୋଇ ପାଣି ନିଗାଡି ଦିଅ । ଅଦା ,
ଲଙ୍କା , ଧଣିଆପତ୍ର ବାଟି ସେଥିରେ ମିଶାଅ । ଆଳୁ , ଚିନି , ଲୁଣ , ଲେମ୍ବୁରସ ,
ଲଙ୍କାଗୁଣ୍ଡ ମିଶାଇ ଚକଟି ଦିଅ । ଏ ସମସ୍ତ ଜିନିଷକୁ ଭଲ ଭାବେ ମିଶାଅ । ଛୋଟ
ଛୋଟ ଗୋଲା କର ।</p>

<p>ବେସନ , ସୋଡା , ଲୁଣ , ହଳଦୀଗୁଣ୍ଡ , ଜୀରାଗୁଣ୍ଡ ଏ ସମସ୍ତ ଜିନିଷକୁ
ସାମାନ୍ଯ ପାଣି ଦେଇ ମିଶ୍ରଣ ତିଆରି କର । ଆଳୁ ଗୋଲାଗୁଡିକୁ ଏହି
ମିଶ୍ରଣରେ ବୁଡାଇ ତେଲରେ ଛାଣି ନିଅ ।
ଗରମ ଗରମ ଚଟଣୀ ସହ ଖାଅ । //
ପାଣି ସିଙ୍ଗଡା ଟିକିଆ
ଆଳୁ ଓ ପାଣି ସିଙ୍ଗଡା ସିଝାଇ ନିଅ । ସିଙ୍ଗଡାରେ ସବୁ ମସଲାରୁ
ଅଧା ଓ ଲୁଣ ମିଶାଇ ସାମାନ୍ଯ ଚକଟି ଦିଅ । ଆଳୁରେ ବାକି ଅଧା ମସଲା ଓ
ଲୁଣ ମିଶାଇ ଭଲ ଭାବେ ଚକଟି ନିଅ । କର୍ଣ୍ଣଫ୍ଲୋର ବି ମିଶାଅ । ଦୁଇ ଚକଟାକୁ
ସମାନ ଭାଗ କର । ଆଳୁ ଗୋଲା ଭିତରେ ସିଙ୍ଗଡା ଗୋଲା ରଖି ସାମାନ୍ଯ
ଚେପ୍୍ଟା କରି ଲାଲ ଲାଲ କରି ଭାଜିରଖ ତାଵାରେ ।</p>

<p>ନିରାମିଷ ଶାମୀ କବାବ
ଚଣାକୁ ରାତିରୁ ବତୁରାଇ ସକାଳୁ ସିଝାଅ । ଭଲଭାବେ ପାଣି ନିଗାଡି
ବାଟିଦିଅ । ପିଆଜ , ଅଦା , କଞ୍ଚାଲଙ୍କା , ଧଣିଆ ପତ୍ର କାଟି ଚଣାରେ ମିଶାଅ ।
ଛେନା ଓ ଲୁଣ ମିଶାଅ । ଆମଚୁର , ଜୀରା ଓ ଧଣିଆ ଗୁଣ୍ଡ ମିଶାଇ ଗୋଲ ଗୋଲ
କବାବ୍ ଗଢି ଛାଣି ରଖ ।</p>

<p>ଛେନା ପକୋଡା
ଦୁଧକୁ ଗରମ କର । ଉତୁରି ଆସିଲା ବେଳକୁ ଧଣିଆପତ୍ର ,
ଗରମ ମସଲା ଗୁଣ୍ଡ ଓ ଦହି ପକାଅ । ଛେନା ହୋଇଗଲେ କନାରେ ବାନ୍ଧି
ଟାଙ୍ଗିଦିଅ । ପାଣି ନିଗାଡି ଗଲେ ଓହ୍ଲାଇ ଦିଅ । କିଛି ଭାରି ଜିନିଷ ଚାପା ଦେଇ
ରଖ । କିଛି ସମଯ ପରେ ଖଣ୍ଡ ଖଣ୍ଡ କରି କାଟିଦିଅ ।
ବେସନରେ ବାକି ସମସ୍ତ ଜିନିଷ ମିଶାଇ ଦିଅ । କିଛି ପାଣି ଦେଇ
ମୋଟା ମିଶ୍ରଣ ତିଆରି କର । ଏହି ଛେନା ଖଣ୍ଡଗୁଡିକୁ ସେଥିରେ ବୁଡାଇ କଡା
କରି ଛାଣି ରଖ ।</p>

<p>ଶାମୀ କବାବ
କିମା ମାଂସ , ବୁଟଡାଲି , ଓ ସବୁ ମସଲା ମିଶାଇ ଶୁଖିଲା କରି ରାନ୍ଧ ।
ଲୁଣ ଦିଅ । ଥଣ୍ଡା ହେବାପରେ ଅଦା , କଞ୍ଚାଲଙ୍କା ଧଣିଆ ପତ୍ର ମିଶାଇ ବାଟି ଦିଅ ।
ଅଣ୍ଡା ଫେଣ୍ଟି ସେଥିରେ ମିଶାଅ । କବାବ ପରି ଗଢି ସେଥିରେ ପୁରରୁ କିଛି
ଦେଇ ସବୁତକ ଗଢି ରଖ ।</p>

<p>ତାଵାରେ ତେଲ ଦେଇ ମୃଦୁ ଜାଳରେ ଛାଣିନିଅ । କଞ୍ଚା ପିଆଜ ଓ
ଲେମ୍ବୁ ଖଣ୍ଡ ସହ ଖାଇବାକୁ ଦିଅ ।
ଏହା ହାଇଦ୍ରାବାଦରେ ପ୍ରସ୍ତୁତ କରାୟାଏ ।</p>

<p>କଞ୍ଚା କବାବ
କିମାରେ ସବୁ ମସଲାଗୁଣ୍ଡ , ଦହି , ପିଆଜ , କଞ୍ଚାଲଙ୍କା , ( ମଂଜି କାଢି )
ମିଶାଇ ବାଟି ଦିଅ । କିମାର ପାଣିରେ ହିଁ ବାଟିବ । ଘଣ୍ଟାଏ ଦେଢ ଘଣ୍ଟା ପରେ
ଅଣ୍ଡା଱ ଧଳାଅଂଶ ମିଶାଇ କବାବ ଗଢି ରଖ । ତାଵାରେ ଅଳ୍ପ
ଅଳ୍ପ ଘିଅ ଦେଇ ଲାଲ କରି ଭାଜି ରଖ । ତା ପରେ ସାମାନ୍ଯ ପାଣି ଦେଇ
ଘୋଡଣୀ ଘୋଡାଇ ଦିଅ । ମଝିରେ ମଝିରେ ସାବଧାନରେ ଓଲଟାଇ ଦିଅ ।
ପୁରା ସିଝିଗଲେ ପିଆଜ ଓ ଟମାଟୋ ଗୋଲ ଗୋଲ କାଟି କବାବ୍ ସହ
ଖାଇବାକୁ ଦିଅ ।</p>

<p>ମାଛ କଟଲେଟ
ମାଛ ସିଝାଇ କଣ୍ଟା ବାହାର କରି ଚକଟି ନିଅ । ପାଉଁରୁଟିକୁ
10 ମିନିଟ ପାଣିରେ ଭିଜାଇ ଚିପୁଡି ସେଥିରେ ମିଶାଅ । ଜୀରା , ଲୁଣ , ଲଙ୍କାଗୁଣ୍ଢ ,
ମିଶାଇ ଦିଅ ।</p>

<p>ପିଆଜ , କଞ୍ଚାଲଙ୍କା , ଅଦା , ଧଣିଆ ପତ୍ର ଓ ପୋଦିନାପତ୍ରକୁ କାଟି
ରଖ । ସେଥିରେ ମସଲାଗୁଣ୍ଡ ମିଶାଇ ଦିଅ । ମାଛ ଓ ପୁରକୁ ସମାନ ଭାଗ କରି
ଦିଅ । ପ୍ରତିଟି ଗୋଲାରେ ପୁର ଦେଇ କଟ୍୍ଲେଟ୍ ପରି ଗଢି ରଖ । ପାଉଁରୁଟି
ଗୁଣ୍ଡରେ ଗଡାଇ ତାଵାରେ ତେଲ ଦେଇ ଭାଜି ନିଅ । ଟମାଟୋ ଶସ୍
ସହ ଖାଇବାକୁ ଦିଅ ।
ସିନ୍ଦରେ ଏହିପରି କରିଥାନ୍ତି । //
ୟେ କୌଣସି ପୂଜା ପାର୍ବଣରେ ଖିରି , ମିଠା ପ୍ରଭୃତି ପ୍ରସ୍ତୁତ କରାୟାଇ
ପୂଜା କରାୟାଏ । କେରଳରେ ଓଣମ୍ ବୋଲି ଗୋଟିଏ ପର୍ବ ହୁଏ ।
ତାହା ସେମାନଙ୍କର ନୂଆ ବର୍ଷ । ଏହି ଆମ୍ବ ପ୍ରଦାମନଟି ସେମାନେ
ତିଆରି କରିଥାନ୍ତି ।</p>

<p>ଗୁଡରେ ପାଣି ମିଶାଇ ଶିରା ତିଆରି କର ୟେପରିକି ଦୁଇ ଆଙ୍ଗୁଠି
ମଧ୍ଧରେ ରଖି ଟାଣିଲେ ଗୋଟିଏ ସୂତା ବାହାରିବ । ସାମାନ୍ଯ ଗରମ ପାଣି
ମିଶାଇ ନଡିଆର ଦୁଧ ବାହାର କର । ଆମ୍ବ ଚିପୁଡି ରସ ବାହାର କରି ଅଳ୍ପ
ପାଣି ଦେଇ ଚୁଲୀରେ ବସାଅ । ତା ପରେ ଗୁଡ ପକାଅ । ମୋଟା ହୋଇ
ଆସିଲେ ନଡିଆ ଦୁଧ ପକାଅ ।
କିସମିସ୍ ଘିଅରେ ଭାଜି ଓ ଅଳେଇଚ ଗୁଣ୍ଡ କରି ସେଥିରେ ପକାଅ ।</p>

<p>ଗାଜର ଖିରି
ଗାଜରକୁ ସରୁ ସରୁ କୋରି ନିଅ । ଘିଅ ଗରମ କରି ଭାଜି ନିଅ ।
ପାଣି ଦେଇ ନରମ ଓ ଶୁଖିଲା ହେବା ୟାଏ ରାନ୍ଧ । ଚିନି ପକାଅ ।
କାଜୁକୁ ସାମାନ୍ଯ ଘିଅରେ ଭାଜି ନିଅ । କଷ୍ଟାର୍ଡ ପାଉଡରକୁ ସାମାନ୍ଯ
ଥଣ୍ଡା ଦୁଧରେ ମିଶାଇ ରଖ । ବାକି ଦୁଧକୁ ଗାଜରରେ ମିଶାଇ ଚୁଲୀରେ
ବସାଅ । ଫୁଟି ଆସିଲେ କଷ୍ଟାର୍ଡ ଢାଳି ଦିଅ । ଅନବରତ ଘାଣ୍ଟୁଥିବ ।
କାଜୁ ଓ ଅଳେଇଚ ତା ଉପରେ ପକାଅ ।</p>

<p>ପୋସ୍ତ ରୋଲ୍
ମିଲ୍୍କ୍ ପାଉଡରରେ ସାମାନ୍ଯ ପାଣି ଦେଇ ବହୁତ ଗାଡା ମିଶ୍ରଣ
ତିଆରି କର । କରେଇରେ ଘିଅ ଦେଇ ବହୁତ କମ୍ ଜାଳରେ ଏହି ମିଶ୍ରଣକୁ ଘାଣ୍ଟ ।
ଏହା ଖୁଆ ପରି ହୋଇୟିବ । ଶୁଖିଲା ହେଲେ ଚିନି ଓ ଛେନା ପକାଅ ।
ଗୋଟାଳିଆ ହେଲେ ଗୁଜୁରାତି ଗୁଣ୍ଡ ଦେଇ ଓହ୍ଲାଅ । ପୋସ୍ତକୁ ଶୁଖିଲାରେ ଭାଜି
ଥାଳୀରେ ବିଛାଅ । ମିଶ୍ରଣରୁ ଅଳ୍ପ ଅଳ୍ପ ନେଇ ରୋଲ୍ ପରି କରି ପୋସ୍ତରେ
ଗଡାଇ ରଖ ।</p>

<p>ଗଜାମୁଗ ଖିରି
ଗଜାମୁଗକୁ ଖଣ୍ଡଖଣ୍ଡିଆ କରି ବାଟି ନିଅ । ଘିଅରେ ସାମାନ୍ଯ ଭାଜି
ଅଳ୍ପ ପାଣି ଦେଇ ସିଝାଅ । ସାମାନ୍ଯ ସିଝିଗଲେ ଦୁଧ ପକାଅ । ଭଲଭାବେ
ସିଝି ମୋଟା ହୋଇ ଆସିଲେ ଗୁଜୁରାତି ଗୁଣ୍ଡ , କାଜୁ , କିସମିସ୍ ପକାଇ ଓହ୍ଲାଅ ।</p>

<p>କରାଚୀ ହାଲୁଆ
ଚିନିରେ ପାଣି ମିଶାଇ ଫୁଟାଅ । ମଇଦା ଓ କର୍ଣ୍ଣଫ୍ଲୋରକୁ ଚଲାଇ
ଦିଅ । ଅଳ୍ପ ପାଣିରେ ମିଶ୍ରଣ ତିଆରି କରି ଚିନି ସିରାରେ ପକାଅ । ଜାଳ କମ୍
କରି ମିଶାଇବ । ନ ହେଲେ ଗୁଳା ହୋଇୟିବ । ଅନବରତ ଘାଣ୍ଟି ଘାଣ୍ଟି
ୟେତେବେଳେ ସାମାନ୍ଯ ମୋଟା ହୋଇୟିବ , ରଙ୍ଗ ଓ ଲେମ୍ବୁରସ ପକାଅ ।
ଅଳ୍ପ ଅଳ୍ପ ଘିଅ ପକାଇ ଘାଣ୍ଟୁଥାଅ । କରେଇରୁ ଛାଡି ଛାଡି ଆସିଲେ କାଜୁ ,
କିସମିସ୍ , ଗୁଜୁରାତି ଗୁଣ୍ଡ ପକାଇ ଓହ୍ଲାଅ । ଘିଅ ଲଗା ଥାଳିରେ ଢାଳି ଥଣ୍ଡା
ହେଲେ ନିଜ ଇଚ୍ଛାନୁୟାଯୀ କାଟ ।</p>

<p>ଛେନା ପାଯସ
ଚିନିରେ ପାଣି ଦେଇ ସିରା ତିଆରି କର । ଗରମ ଥିବା
ଅବସ୍ଥାରେ ହିଁ ଛେନାତକ ପକାଇ ଘୋଡାଇ ରଖ । ଦୁଧକୁ ଚୁଲୀରେ ବସାଅ ।
ସିଝି ସିଝି ଅଧା ହେଲେ ଅଳ୍ପ ଅଳ୍ପ କରି ଛେନାରେ ଢାଳିଦିଅ । ଦୁଧରେ ଚେନା
ମିଶାଇବା ପରେ ଆଉ ଚୁଲୀରେ ବସାଇବ ନାହିଁ । ନ ହେଲେ ସବୁ ଦୁଧ ଛେନା
ଛିଣ୍ଡିୟିବ । ତେଣୁ ଦୁଧ ସିଝି ସାରିବା ପରେ ତଳକୁ ଓହ୍ଲାଇ ଛେନାରେ ପକାଇବ। //
କନ୍ଦମୂଳ ବରଫି
କନ୍ଦମୂଳ ସିଝାଇ ଚକଟି ନିଅ । ଘିଅ ଗରମ କରି ଏହି କନ୍ଦମୂଳ
ଚକଟା ଓ ଖୁଆକୁ ବାଦାମୀ ବର୍ଣ୍ଣ ହେବାୟାଏ ଭାଜ । ଦୁଧ ଓ ଚିନି
ମିଶାଇ ଫୁଟାଅ । ମୋଟା ହୋଇ ଆସିଲେ ଭଜା ହୋଇଥିବା
କନ୍ଦମୂଳ ପକାଅ ।</p>

<p>ଘିଅରେ କାଜୁ , କିସମିସ୍ ଭାଜି ରଖ । ପୁରା ଶୁଖିଲା ହୋଇ
ଆସିଲେ କାଜୁ , କିସମିସ୍ ଓ ଭାନିଲା ପକାଇ ଓହ୍ଲାଇ ଦିଅ ।
ଘିଅଲଗା ଥାଳିରେ ଢାଳି ଥଣ୍ଡା ହେଲେ ନିଜ ଇଚ୍ଛାନୁୟାଯୀ କାଟ ।</p>

<p>ପୋପାଟଜି
ସୁଜି , ମଇଦା , ଦୁଧ ଓ ଦହି ମିଶାଇ ଘୋଡାଇ ଗୋଟିଏ ଉଷୁମ
ସ୍ଥାନରେ ତିନି ଚାରି ଘଣ୍ଟା ରଖିଦିଅ । ଏହା ଫୁଲି ଉଠିବ । ବେକିଂ
ପାଉଡର ବ୍ଯତୀତ ଆଉ ସବୁ ଜିନିଷ ମିଶାଅ । ମିଶ୍ରଣ ବେଶୀ ମୋଟା କିମ୍ବା
ପତଳା କରିବନି । ୟଦି ଆବଶ୍ଯକ ହୁଏ ଆଉ କିଛି ଦୁଧ ମିଶାଅ ।
1 ଚାମଚ ଘିଅ ତରଳାଇ ବେକିଂ ପାଉଡର ସେଥିରେ ମିଶାଇ ମିଶ୍ରଣରେ
ପକାଅ ।</p>

<p>ଚିନିର ସିରା ତିଆରି କର । କିଛି ଘିଅ ଗରମ କରି ଡଙ୍କାଏ
ମିଶ୍ରଣ ପକାଅ । ନାଲି ହେଲେ ଓଲଟାଇ ଦିଅ । ଏହିପରି ସବୁ
ଗୁଡିକ ତିଆରି କରି ରଖ ।
15 ମିନିଟ ଚିନି ସିରାରେ ପକାଇ କାଢି ନିଅ ।</p>

<p>ଡଫନଟ୍
ଚିନିକୁ ଗୁଣ୍ଡ କରି ଘିଅ ସହିତ ଫେଣ୍ଟ । ଅଣ୍ଡା ଭାଙ୍ଗି ଭଲଭାବେ
ଫେଣ୍ଟି ସେଥିରେ ମିଶାଅ ।
ମଇଦା ଓ ବେକିଂ ପାଉଡରକୁ ମିଶାଇ ଚଲେଇ ନିଅ । ଏ
ସମସ୍ତ ଜିନିଷ ମିଶାଇ ଖୁବ୍ ନରମ କରି ଚକଟି ନିଅ । ଆବଶ୍ଯକ
ହେଲେ ଦୁଧ ଛିଞ୍ଚି ଛିଞ୍ଚି ଚକଟ । ଛୋଟ ଛୋଟ ଗୋଲା କରି ମଝିରେ
ଆଙ୍ଗୁଠିରେ କଣା କରି ଦିଅ । ଏହାର ଛାଞ୍ଚ ମଧ୍ଧ ମିଳେ । ଛାଞ୍ଚରେ
କଲେ ଆହୁରି ଭଲ ।
ଘିଅ ଗରମ କରି କଡା ଭାବେ ଛାଣି ରଖ ।</p>

<p>ଗୁଡ ଲଡୁ
ଗରମ ପାଣି ବା ଦୁଧ ଦେଇ ଅଟା ଓ ସୁଜିକୁ ଚକଟ । 5\6 ଟା
ଅଣ୍ଡାକୃତି ବଲ୍ ତିଆରି କରି ମୃଦୁ ଜାଳରେ କଡା କରି ଭାଜି ନିଅ ।
ବାଦାମୀ ବର୍ଣ୍ଣ ହେଲେ ଓହ୍ଲାଇ ଗୁଣ୍ଡ କରି ଦିଅ । ବଡ କଣା ଥିବା
ଚାଲୁଣୀରେ ଚଲାଇ ଦିଅ ।</p>

<p>1 ଚାମଚ ଘିଅ ଗରମ କରି ରାଶି ଓ ନଡିଆକୁ ଭାଜି ଦିଅ ।
3 ଚାମଚ ଘିଅ ଗରମ କରି ଗୁଡ ଗୁଣ୍ଡ କରି ପକାଅ । 2 - 3 ମିନିଟ
ପରେ ସେ ଅଟା , ସୁଜି ଗୁଣ୍ଡରେ ଏହି ଚିନି ଶିରାକୁ ଢାଳି ଦିଅ ।
ବାକି ସମସ୍ତ ଜିନିଷ ପକାଇ ଭଲଭାବେ ମିଶାଇ ଦିଅ ।
ଛୋଟ ଛୋଟ ଲଡୁ ତିଆରି କର । //
ବେସନ ବରଫି
ଘିଅକୁ ଖୁବ୍ ଗରମ କରି ଜାଳ କମାଇ ଦିଅ । ବେସନ ପକାଇ
ବାଦାମୀ ରଙ୍ଗ ହେବା ୟାଏ ଭାଜ । ପୋସ୍ତକୁ ଶୁଖିଲାରେ ଭାଜି ଓ କାଜୁକୁ
ସାମାନ୍ଯ ଘିଅରେ ଭାଜି ସେଥିରେ ପକାଅ । ଅଳେଇଚ ମଞ୍ଜି ପକାଅ ।</p>

<p>ଚିନିର ସିରା ତିଆରି କରି ସେଥିରେ ଖୁଆ ମିଶାଅ । ଚୁଲୀରୁ ଓହ୍ଲାଇ
ଭଜା ବେସନ ପକାଅ । ଭଲଭାବେ ମିଶାଇ ଦିଅ ।
ଗୋଟିଏ ଥାଳିରେ ଘିଅ ଲଗାଇ ସେଥିରେ ବେସନ ତକ ଢାଳି
ସିଲଭର ପେପର ଉପରେ ପକାଅ । ଥଣ୍ଡା ହେଲେ କାଟ ।</p>

<p>ମିଲ୍କ ଖିରା
ଦୁଧକୁ ଫୁଟାଇ ଅଧା କରି ଦିଅ । କାଜୁକୁ ବେଶୀ ଚିକ୍୍କଣ ନ କରି
ବାଟିଦିଅ । ମଇଦା ଓ ବେକିଂ ପାଉଡର ମିଶାଇ ଚଲାଇ ଦିଅ । ଦୁଧରେ
ମଇଦା , କାଜୁବଟା ଓ ଅଲେଇଚ ଗୁଣ୍ଡ ମିଶାଅ । ଘିଅ ଗରମ କରି ବଡ
ଚାମଚେ ମିଶ୍ରଣ ପକାଇ ଛାଣି ରଖ ।</p>

<p>ଚିନିର ପତଳା ସିରା କରି ରଖ । ସେଥିରେ ଏହି ମିଲ୍କ ଖିରାକୁ
ଉଷୁମ ଥିବା ଅବସ୍ଥାରେ ପକାଅ । ପ୍ରାଯ ଅଧଘଣ୍ଟାଏ ଭିଜିବା ପରେ
ଖାଇବାକୁ ଦିଅ ।</p>

<p>ଦୁଧ ଗରମ କରି ବାକି ଚିନି ମିଶାଅ । ସାମାନ୍ଯ ମୋଟା ହେଲେ
ଖୁଆ ଓ ଜାଫ୍ରାନ୍ ଗୁଣ୍ଡ କରି ମିଶାଅ । ରୁଟି ଖଣ୍ଡଗୁଡିକୁ ଆସ୍ତେ ଆସ୍ତେ
ସେଥିରେ ପକାଅ । ବାଦାମ ପକାଅ । ଗୋଟିଏ ଚଉଡା ଥାଳୀରେ
ଢାଳି ସିଲ୍୍ଭର ପେପର ଉପରେ ଦେଇ ସଜାଅ ।</p>

<p>ଖେଜୁର୍
ମଇଦା , ସୁଜି , ସୋଡାକୁ ମିଶାଅ । ଅଧା କପ୍ ଘିଅ ମଯାନ୍
ଦିଅ । ଲୁଣ ପକାଅ । ସାମାନ୍ଯ ପାଣିରେ ଚିନିତକ ଭଲ ରୂପେ
ମିଶାଇ ଦିଅ । ସେହି ପାଣିରେ ମଇଦାକୁ ଖୁବ୍ ନରମ କରି ଚକଟ ।
ଖଜୁରୀ ପରି ବା ଅନ୍ଯ ୟେ କୌଣସି ଆକାରରେ ସବୁତକ ଗଢି ରଖ ।</p>

<p>ଘିଅ ଗରମ କରି କଡା କରି ଛାଣିନିଅ । ଡବାରେ ଠିପି ବନ୍ଦ
କରି ରଖିଲେ ବେଶ୍ କିଛିଦିନ ରହିପାରେ ।</p>

<p>ଖଜୁରୀ ଚକଲେଟ
ଚିନି , ଘିଅ , ଦୁଧ , ପାଣି , ସୋଡା ମିଶାଇ ମୃଦୁ ଜାଳରେ ଚୁଲୀରେ
ବସାଅ । ମଝିରେ ମଝିରେ ଘାଣ୍ଟୁଥିବ । ନ ହେଲେ ତଳୁ ଲାଗିୟିବ ।
କିଛି ସମଯ ପରେ ଟୋପାଏ ନେଇ ଥଣ୍ଡା ପାଣିରେ ପକାଅ । ଦୁଇ
ଆଙ୍ଗୁଠି ମଝିରେ ନେଇ ବଲ୍୍ ପରି କର । ୟଦି ବଲ୍ ପରି ହୁଏ ,
ଓହ୍ଲାଇ ଦିଅ । କାରଣ , ଟିକେ କଡା ହୋଇଗଲେ ଆଉ ଚକଲେଟ
ହୋଇ ପାରିବନି ।</p>

<p>ସେଥିରେ ଏସେନ୍୍ସ୍ ଓ ଖଜୁରୂ କଟା ପକାଇ 5 ମିନିଟ ପର୍ୟ୍ଯନ୍ତ
ଫେଣ୍ଟ । ଘିଅ ଲଗା ଥାଳିରେ ଢାଳି ଦିଅ । ଛୁରୀରେ କଟା ଚିହ୍ନ
ଦିଅ । ଥଣ୍ଡା ହେଲେ ଖଣ୍ଡ ଖଣ୍ଡ କରି କାଢି ଚକଲେଟ କାଗଜରେ
ଗୁଡାଅ । //
ଫୁଲକୋବି ପରଟା
ଫୁଲକୋବିର ଫୁଲକୁ କେବଳ ଖୁବ୍ ସରୁ ସରୁ କରି କୋରେଇ
ନିଅ । ଲୁଣ ଛିଞ୍ଚି ଅଧଘଣ୍ଟାଏ ରଖିବା ପରେ ଭଲଭାବେ ଚିପୁଡି ରଖ ।
ଅଦା , ପିଆଜ , କଞ୍ଚାଲଙ୍କାକୁ ଖୁବ୍ ଛୋଟ ଛୋଟ କାଟି ସେଥିରେ ମିଶାଅ ।
ଧଣିଆପତ୍ର , ମସଲା ଗୁଣ୍ଡ ମଧ୍ଧ ମିଶାଅ ।</p>

<p>ଅଟାରେ 2 ଚାମଚ ଘିଅ ମିଶାଇ ଲୁଣ , ପାଣି ଦେଇ ଚକଟି ନିଅ ।
ଦଶ ମିନିଟ ରଖିବା ପରେ ଗୋଲା କରି ତା ଭିତରେ ପୁରରୁ କିଛି
ମୁହଁ ବନ୍ଦ କରି ବେଲିଦିଅ । ପୁର ୟେପରି ବାହାରି ନ ପଡେ ।
ଘିଅ ଦେଇ ଭାଜିଦିଅ ।</p>

<p>ଆଳୁ ପୁର ଦେଇ ସାଧାରଣତଃ ସମସ୍ତେ ପରଟା କରିଥାନ୍ତି । କିନ୍ତୁ
ଏହା ବ୍ଯତୀତ ମୂଳା , କଞ୍ଚା କଦଳୀ , କନ୍ଦମୂଳ ମେଥି ଶାଗ ପ୍ରଭୃତିରୁ ମଧ୍ଧ
ଅତି ସୁସ୍ବାଦୁ ପରଟା ହୋଇଥାଏ ।</p>

<p>ମେଥି ରୋଟୀ
ପିଆଜ , ରସୁଣକୁ ଖୁବ୍ ଛୋଟ ଛୋଟ କରି କାଟି ନିଅ । ଅଟା ଓ ଶାଗ
ସହିତ ସବୁ ଜିନିଷ ମିଶାଇଦିଅ । ପାଣି ଦେଇ ଅଟା ଚକଟିଲା ପରି ଚକଟି ନିଅ ।ବେଶୀ ପତଳା ନ କରି ରୋଟି ପରି ବେଲି ନିଅ । ତାଵାରେ ତେଲ ଦେଇ ଭାଜି
ନିଅ । ଘିଅ ଏଥିରେ ଭଲ ଲାଗେନି ।</p>

<p>ଉତ୍ତର ଭାରତରେ ଏହି ରୋଟୀର ପ୍ରଚଳନ ବେଶୀ । କେତେକ ଲୋକ 1
କପ୍ ଅଟା ଓ 1 କପ୍ ବେସନ ବ୍ଯବହାର କରିଥାନ୍ତି ।</p>

<p>ଚାଉଳଚୁନା ଦେଇ ମଧ୍ଧ ଏହି ରୋଟି ହୁଏ । କିନ୍ତୁ ସେଥିରେ ଜିରା , ଅଦା ,
ରସୁଣକୁ ବାଟି ମିଶେଇ ଚକଟା ହୁଏ ଏବଂ ହାତରେ ଚାପି ଚାପି ରୋଟି ପରି କରି
ଭଜାହୁଏ । କାରଣ ଏହାକୁ ବେଲି ହୁଏନି ।</p>

<p>ନଡିଆ ଦୋଷା
2 ଟି ନଡିଆକୁ କୋରି ଦିଅ । ପିଆଜ , ଅଦା , କଞ୍ଚାଲଙ୍କା କାଟ । ରାତିରୁ ଚାଉଳ
ବତୁରାଇ ସକାଳୁ ବାଟି ନିଅ । ଅଦା , କଞ୍ଚାଲଙ୍କା , ନଡିଆ ମିଶାଇ ପୁଣି ବାଟ ।
ସାମାନ୍ଯ ଘିଅରେ ପିଆଜକୁ ବଘାରି ବଟାରେ ମିଶାଅ । ଲୁଣ , ଧଣିଆପତ୍ର ଓ
ଭୃସୁଙ୍ଗପତ୍ର ମିଶାଇ ଭଲଭାବେ ଫେଣ୍ଟି ଦିଅ । 4 ଘଣ୍ଟା ରଖି ଦିଅ ।</p>

<p>ତାଵାରେ ତେଲ ଲଗାଇ ଡଙ୍କାଏ ପିଠଉ ପକାଅ । ଘୋଡେଇ ଦିଅ ।
2\3 ସେକେଣ୍ଡ ପରେ ଘୋଡଣୀ କାଢି ଓଲଟାଇ ଦିଅ । ସାମାନ୍ଯ ଘିଅ ପକାଇ
କାଢିଦିଅ । ଏହିପରି ସବୁତକ କର ।</p>

<p>ଗ୍ରୀନ୍ ଚକୁଳି
ଅଦା , ପିଆଜ ଓ ରସୁଣକୁ ବାଟି ଦିଅ । ପାଳଙ୍ଗ ସିଝାଇ ବାଟ । ଅଟାରେ
ଦୁଧ ଓ ଅଣ୍ଡା ଫେଣ୍ଟି ମିଶାଅ । ପାଳଙ୍ଗ ବଟା , ମସଲା ବଟା ଓ ଲୁଣ ମିଶାଇ
15/20 ମିନିଟ ରଖ । ତାଵାରେ ତେଲ ଦେଇ ଗୋଟିଏ ଚକୁଳି ଭାଜି ରଖ ।
ମଟର ସିଝାଇ ଖରଡିଆ କରି ବାଟିଦିଅ ସେଥିରେ ପୁର ପାଇଁ ଥିବା
ସବୁତକ ଜିନିଷକୁ ମିଶାଅ । ପ୍ରତ୍ଯେକ ଚକୁଳିରେ କିଛି କିଛି ପୁର
ଦେଇ ଖାଇବାକୁ ଦିଅ ।
 +&gt;*
               0 
</p></body></text></cesDoc>