<cesDoc id="ori-w-literature-juvenile-ocl65" lang="ori">
<cesHeader type="text">
<fileDesc>
<titleStmt>
<h.title>ori-w-literature-juvenile-ocl65.txt</h.title>
<respStmt>
<respType>Electronic file created by</respType>
<respName>Central Institute for Indian Languages, Mysore</respName>
<respType>transferred into Unicode and CES format by</respType>
<respName>"Unicodify" software by Andrew Hardie</respName>
</respStmt></titleStmt>
<publicationStmt>
<distributor>UCREL (on behalf of CIIL)</distributor>
<pubAddress>Department of Linguistics, Lancaster University, Lancaster, LA1 4YT, UK</pubAddress>
<availability region="WORLD"></availability>
<pubDate>03-08-12</pubDate>
</publicationStmt>
<sourceDesc>
<biblStruct>
<monogr>
<h.title>ଜହ୍ନମାମୁ</h.title>
<h.author>ଚକ୍ରପାଣି</h.author>
<imprint>
<pubPlace>India</pubPlace>
<publisher>Unknown - Magaz</publisher>
<pubDate>1988</pubDate>
</imprint>
<idno type="CIIL code">ocl65</idno>
</monogr></biblStruct></sourceDesc></fileDesc>
<encodingDesc>
<projectDesc>Text collected for the CIIL Corpus, subsequently integrated into the EMILLE/CIIL Monolingual Written Corpora.</projectDesc>
<samplingDesc>Simple written text only has been transcribed. Diagrams, pictures and tables have been omitted. Sampling begins at page 0836.</samplingDesc>
<editorialDecl><conformance level="1"></conformance></editorialDecl>
</encodingDesc>
<profileDesc>
<creation><date>03-08-12</date></creation>
<langUsage>Oriya</langUsage>
<wsdUsage>
<writingSystem id="ISO/IEC 10646">Universal Multiple-Octet Coded Character Set (UCS).</writingSystem>
</wsdUsage>
<textClass>
<channel mode="w">print</channel>
<constitution type="composite"></constitution>
<domain type="public"></domain>
<factuality type="fiction"></factuality>
</textClass>
<translations></translations>
</profileDesc>
<revisionDesc></revisionDesc>
</cesHeader>

<text><body>

<p>&lt;ମୁଦ୍ରା ରାକ୍ଷସ
( କାହାଣୀ ଏୟାବତ୍ ) : ମଗଧର ନନ୍ଦ
ରାଜା ତାଙ୍କ ବୈମାତୃକ ଭାଇ
ଚନ୍ଦ୍ରଗୁପ୍ତଙ୍କୁ ଦିନକ ପାଇଁ ମୁକ୍ତ କଲେ ।
ଚନ୍ଦ୍ରଗୁପ୍ତ ନଗରବାସୀଙ୍କ ଠାରୁ ଏଡେ
ଉଚ୍ଛ୍ବସିତ ସମ୍ବର୍ଦ୍ଧନା ପାଇଲେ ୟେ
ରାଜା ଆଉ ତାଙ୍କୁ ବନ୍ଦୀ କରିବାକୁ
ସାହସ କଲେ ନାହିଁ ।</p>

<p>ମାସିଡନର ରାଜା ଆଲେକଜାଣ୍ଡାର
ସେତେବେଳେ ଦିଗ୍୍ବିଜଯ କରିବାକୁ
ବାହାରି ଭାରତରେ ଛାଉଣୀ ପକାଇ
ରହିଥାନ୍ତି । ଚନ୍ଦ୍ରଗୁପ୍ତ ତାଙ୍କ ସୈନ୍ଯ~
ବାହିନୀରେ ୟୋଗଦେଲେ ଓ ସାମରିକ
କୌଶଳ ଶିଖିଲେ । କିନ୍ତୁ ଆଲେକ~
ଜାଣ୍ଡାରଙ୍କ ସହାଯତା କରିବା ତାଙ୍କର
ଉଦ୍ଦେଶ୍ଯ ନ ଥିଲା ।</p>

<p>ଦିନେ ଚନ୍ଦ୍ରଗୁପ୍ତ ଆଲେକଜାଣ୍ଡାରଙ୍କ
ସେନାପତିଙ୍କ ସହ କଳି କରି ତାଙ୍କୁ
ଧରିବାକୁ ଚେଷ୍ଟା କରି ପାରିଲେ ନାହିଁ ।
ଗ୍ରୀକ୍ ସୈନ୍ଯମାନେ ତାଙ୍କ ପଛରେ
ଗୋଡାଇଲେ , କିନ୍ତୁ ଚନ୍ଦ୍ରଗୁପ୍ତ
ଖସିଗଲେ ।</p>

<p>ତେଣେ ନଅରରେ ଗୋଟିଏ ଧର୍ମା~
ନୁଷ୍ଠାନ ହେଉଥିବା ବେଳେ ନନ୍ଦ ରାଜା
ବିଷ୍ଣୁଗୁପ୍ତ ନାମକ ଜଣେ ନିର୍ଦ୍ଦୋଷ
ବ୍ରାହ୍ମଣ ପୁରୋହିତଙ୍କୁ ଅପମାନ
ଦେଇଥାନ୍ତି । ବ୍ରାହ୍ମଣଙ୍କର ଏକମାତ୍ର
ଅପରାଧ ହେଲା , ସେ ରାଜକୀଯ
ପୁରୋହିତ ଭଳି ନ ଦିଶି ଅତି ସାଧାରଣ
ଦିଶୁଥିଲେ । ଏହି ବ୍ରାହ୍ମଣଙ୍କର
ଜନପ୍ରିଯ ନାମ ହେଲା ଚାଣକ୍ଯ ।</p>

<p>ଚନ୍ଦ୍ରଗୁପ୍ତ ଓ ଚାଣକ୍ଯଙ୍କର ହଠାତ୍
ଭେଟ ହୋଇଗଲା । ସେମାନଙ୍କର ଏହି
ସାକ୍ଷାତ୍ ଭବିଷ୍ଯତରେ ଇତିହାସର ଧାରା
ବଦଳାଇ ଦେଲା । ଚନ୍ଦ୍ରଗୁପ୍ତ ୟେପରି
ସାହସୀ ଓ ବଳବାନ୍ ଥିଲେ , ଚାଣକ୍ଯ
ଥିଲେ ସେହିପରି ବୁଦ୍ଧିମାନ ଓ ଦୃଢ~
ପ୍ରତିଜ୍ଞ । ନନ୍ଦ ରାଜାଙ୍କ ଉପରେ
ପ୍ରତିଶୋଧ ନେବା ନିମନ୍ତେ ଉଭଯେ
ଥିଲେ ଦୃଢ ପରିକର ।</p>

<p>ମଗଧ ସୀମାନ୍ତରେ ପର୍ବତକ ନାମକ
ଜଣେ ସାମନ୍ତ ରାଜା ଥିଲେ । ସେ
ଥିଲେ ବନବାସୀମାନଙ୍କ ଉପରେ
ସର୍ଦ୍ଦାର । ଚାଣକ୍ଯ ତାଙ୍କୁ ମଗଧ
ରାଜ୍ଯର ଅର୍ଦ୍ଧେକ ଦାନ କରିବାର
ଲୋଭ ଦେଖାଇଲେ । ପର୍ବତକ ତାଙ୍କୁ
ସୈନ୍ଯ ସାହାୟ୍ଯ ଦେବାକୁ ପ୍ରତିଶ୍ରୁତି
ଦେଲେ ।</p>

<p>ପର୍ବତକଙ୍କ ସୈନ୍ଯବାହିନୀ ଧରି
ଚନ୍ଦ୍ରଗୁପ୍ତ ନନ୍ଦ ରାଜାଙ୍କ ରାଜଧାନୀ
ଆକ୍ରମଣ କଲେ । ଚାଣକ୍ଯ ଓ
ଚନ୍ଦ୍ରଗୁପ୍ତ ଆକ୍ରମଣ ପରିଚାଳନା
କରୁଥାନ୍ତି । ଭୀଷଣ ୟୁଦ୍ଧ ଲାଗିଗଲା ।
ନନ୍ଦ ରାଜା ଏଥିପାଇଁ ପ୍ରସ୍ତୁତ ନ ଥିଲେ ।
ତାଙ୍କ ସୈନ୍ଯଦଳ ପରାଜିତ ହେଲେ ।</p>

<p>ରାଜା ମହାନନ୍ଦଙ୍କୁ ତାଙ୍କ ପ୍ରବୀଣ ମନ୍ତ୍ରୀ
ରାକ୍ଷସ ଗୋଟିଏ ସୁଢଙ୍ଗ ଭିତରକୁ
ନେଇଗଲେ । କିନ୍ତୁ ଚାଣକ୍ଯଙ୍କ
ଚରମାନେ ଆଗରୁ ପ୍ରସ୍ତୁତ ଥିଲେ ।
ସେମାନେ ମହାନନ୍ଦଙ୍କୁ ହତ୍ଯା କଲେ ।
ମହାନନ୍ଦଙ୍କର ଅତ୍ଯନ୍ତ ବିଶ୍ବସ୍ତ ମନ୍ତ୍ରୀ
ରାକ୍ଷସ ଏଥିରେ ମର୍ମାହତ ହେଲେ ।</p>

<p>ଚନ୍ଦ୍ରଗୁପ୍ତ ମଗଧର ରାଜସିଂହାସନ
ଆରୋହଣ କଲେ । ଜନସାଧାରଣ
ଆନନ୍ଦିତ ହେଲେ । କାରଣ
ଚନ୍ଦ୍ରଗୁପ୍ତଙ୍କ ପରିବାରର ଲୋକଙ୍କୁ
ନନ୍ଦମାନେ କିପରି କଲବଲ କରି
ହତ୍ଯା କରିଥିଲେ , ଏକଥା ସମସ୍ତେ
ଜାଣିଥିଲେ । ଚନ୍ଦ୍ରଗୁପ୍ତଙ୍କ ବୁଦ୍ଧି ଓ
ଶକ୍ତି ସମ୍ପର୍କରେ ମଧ୍ଧ କାହାରି ସନ୍ଦେହ
ନ ଥିଲା ।</p>

<p>ତେଣେ ମନ୍ତ୍ରୀ ରାକ୍ଷସ ତାଙ୍କ ପ୍ରିଯ ରାଜା
ଓ ରାଜପରିବାରର ଲୋକଙ୍କ ହତ୍ଯାର
ପ୍ରତିଶୋଧ ନେବାକୁ ନିଶ୍ଚଯ କଲେ ।
ସେ ଚନ୍ଦ୍ରଗୁପ୍ତଙ୍କ ଉଆସରେ ଗୋଟିଏ
ସୁନ୍ଦରୀ କନ୍ଯାକୁ ପ୍ରବେଶ କରାଇଲେ ।
ସେ କନ୍ଯା ସୁୟୋଗ ଉଣ୍ଡି ଚନ୍ଦ୍ରଗୁପ୍ତଙ୍କୁ
ବିଷ ଦେବ , ଏହାହିଁ ହେଲା ୟୋଜନା ।</p>

<p>କିନ୍ତୁ ଚାଣକ୍ଯଙ୍କ ପ୍ରଖର ଦୃଷ୍ଟିରେ ସେ
କନ୍ଯାର ସ୍ବରୂପ ଧରାପଡିଗଲା । କନ୍ଯା
ଚନ୍ଦ୍ରଗୁପ୍ତଙ୍କୁ ବିଷପାତ୍ର ପରଶି ଦେଉଥିଲା
ବୋଲି ଜଣା ପଡିଗଲା । କନ୍ଯା
ମୃତ୍ଯୁଦଣ୍ଡ ପାଇବା କଥା । କିନ୍ତୁ ତାକୁ
ନ ମାରି ଚାଣକ୍ଯ ତାକୁ ପର୍ବତକଙ୍କ
ନଅରରେ ରଖାଇ ଦେଲେ ।</p>

<p>ସେତେବେଳକୁ ପର୍ବତକ ମଗଧର
ଅର୍ଦ୍ଧେକ ଦାବୀ କରୁଥିଲେ । ଏ
କନ୍ଯା ୟାଇ ତାଙ୍କୁ ନାଚ ଗୀତରେ
ମୁଗ୍୍ଧ କରି ଦିନେ ବିଷ ମିଶ୍ରିତ ପାନୀଯ
ପିଆଇ ଦେଲା । ପର୍ବତକ ମଲେ । //
କୃଷ୍ଣାବତାର
ସେଦିନ ରାତିରେ କୃଷ୍ଣ , ବଳରାମ ଓ ଅକ୍ରୁର
ଏକାଠି ବସି ଖାଇଲେ ଓ ନାନା ଗଳ୍ପ
କରୁ କରୁ ପ୍ରାଯ ଅର୍ଦ୍ଧରାତ୍ରି ହୋଇଗଲା ।
ଅକ୍ରୁର କଥା ଛଳରେ କୃଷ୍ଣଙ୍କୁ ବୁଝାଇଲେ ,
" ବତ୍ସ ତମେ ନିଜ ମା'ଙ୍କୁ ଛାଡି ଏଠାରେ
ରହିଛ ଓ ଅନେକ ଅଲୌକିକ କାର୍ୟ୍ଯ କରିଛ ।
ଏବେ ସମଯ ଆସିଛି ନିଜ ବଂଶର ପ୍ରତିଷ୍ଠା
କର । ତୁମ ମାତା ପିତା ଦୁହେଁ ଅତ୍ଯନ୍ତ ମହାନ୍
ବ୍ଯକ୍ତି । ସେମାନେ ତୁମର ବିଚ୍ଛେଦରେ ଓ
ଦୁଷ୍ଟ କଂସର ଅତ୍ଯାଚାରରେ ଜୀବନ୍୍ମୃତ ହୋଇ
ରହିଛନ୍ତି । ତୁମ ପିତା ଓ ଅନ୍ଯାନ୍ଯ ସାଧୁ
ବ୍ଯକ୍ତିଙ୍କୁ କଂସ ୟେତେବେଳେ ଅପମାନ ଦିଏ
ଆମେମାନେ ଭଯରେ ନୀରବ ହୋଇ ଓ
ଅନ୍ତରରେ ଗଭୀର ଦୁଃଖ ନେଇ ସବୁ ସହ୍ଯ
କରିଥାଉ । କଂସର କଥାକୁ ବିରୋଧ କରିବା
ଅର୍ଥ ସାକ୍ଷାତ୍ ମୃତ୍ଯୁକୁ ବରଣ କରିବା । ତୁମର
ମା' ମଧ୍ଧ ତୁମକୁ ଝୁରି ଝୁରି ଥରେ ମାତ୍ର ଦେଖିବା
ଆଶାରେ ବଞ୍ଚି ରହିଛନ୍ତି । ଛ' ପୁଅଙ୍କର ହତ୍ଯା
ସହି ସହି ତାଙ୍କର ହୃଦଯ ପଥର ହୋଇ
ୟାଇଛି । ଏବେ ସବୁ ଦୁଃଖ କଷ୍ଟର ଅବସାନ
କରିବାର ଦାଯିତ୍ବ ତୁମରି ହିଁ । ତୁମ ପରି ପୁତ୍ରକୁ
ଜନ୍ମଦେଇ ବି ତୁମର ମାତାପିତା ଅସହନୀଯ
କଷ୍ଟ ଭୋଗ କରୁଛନ୍ତି ; ଏବେ ସେମାନଙ୍କୁ ଉଦ୍ଧାର
କରିବା ସଙ୍ଗେ ସଙ୍ଗେ ସଂସାରକୁ କଂସ କବଳରୁ
ଉଦ୍ଧାର କର । ଏହାହିଁ ତୁମର ବର୍ତ୍ତମାନର
କର୍ତ୍ତବ୍ଯ । "</p>

<p>କୃଷ୍ଣ ସବୁ ବୁଝି କେବଳ ମୃଦୁ ହାସ୍ଯ
କରୁଥିଲେ । ରାତି ପାହି ସକାଳ ହେବା ମାତ୍ରେ
ମଥୁରା ୟିବା ଉଦ୍ଦେଶ୍ଯରେ ରଥ ସଜ କରାହେଲା ।
ସେତେବେଳୟାଏ ଗୋକୂଳ ଭିତରେ କୃଷ୍ଣଙ୍କ
ମଥୁରା ୟାତ୍ରା ବିଷଯରେ ବିଶେଷ ପ୍ରଚାର ହୋଇ
ନ ଥିଲା । କୃଷ୍ଣ ବଳରାମ ଗୋକୂଳର କିଶୋର ;
ସେହିଠାରେ ସେମାନେ ବଡ ହେବେ । ଗୋପ
ଗୋପୀମାନଙ୍କ ଆଶା ଓ ଆନନ୍ଦର କାରଣ ହୋଇ
ସେମାନଙ୍କ ଭିତରେ ରହିଥିବେ । କୃଷ୍ଣଙ୍କ
ବଂଶୀଧ୍ବନି ସବୁଦିନେ ଗୋଧୁଳିବେଳେ , ପୁଣି
ସମଯ ଅସମଯରେ ଶୁଣିବାକୁ ମିଳୁଥିବ ; ସେ
ବଂଶୀଧ୍ବନିରେ କେବେ କେବେ ଗଛଲତା ଫୁଲ
କୁସୁମିତ ହୋଇ ଉଠୁଥିବେ ତ କେତେବେଳେ
ୟମୁନା ଜଳରେ ସେ ଧ୍ବନି ତରଙ୍ଗ ତୋଳୁଥିବ ,
କେତେବେଳେ ସେ ଧ୍ବନିରେ ଆକାଶରେ ମେଘ
ଘୋଟି ଆସୁଥିବ ଓ ମଯୁରମାନେ ପୁଚ୍ଛ ତୋଳି
ନାଚୁଥିବେ ତ କେତେବେଳେ ସେ ଧ୍ବନି ଶୁଣି
ଗୋପପୁରବାସୀମାନେ ଧ୍ଧାନ ମଗ୍ନ ହୋଇୟାଉ~
ଥିବେ , ଏଭଳି ଅପୂର୍ବ ସୁୟୋଗ ଓ ସୁଖ ସବୁଦିନ
ସେମାନଙ୍କୁ ମିଳିବ ବୋଲି ସେମାନେ ଧରି
ନେଇଥିଲେ । କୃଷ୍ଣ ବଳରାମ ମଥୁରା ୟିବାକୁ
ବାହାରିଛନ୍ତି , ଏକଥା ଶୁଣି ମଧ୍ଧ ପ୍ରଥମେ କେହି
କେହି ତାକୁ ବିଶ୍ବାସ କଲେ ନାହିଁ । କିନ୍ତୁ
ବେଳ ଘଡିଏ ହେବା ବେଳକୁ ଏ ବିଷଯରେ
ଆଉ କାହାରି ମନରେ କୌଣସି ସନ୍ଦେହ
ନ ଥିଲା । କୃଷ୍ଣ ଓ ବଳରାମ , ୟଶୋଦା , ରୋହିଣୀ
ଓ ନନ୍ଦଙ୍କ ଠାରୁ ବିଦାଯ ନେଇ ଅକ୍ରୁରଙ୍କ ସହିତ
ରଥରେ ବସି ମଥୁରା ଗଲେ । ଗୋପୀମାନେ
ଓ ଗୋପବାଳକମାନେ ଅନେକ ଦୂର ପର୍ୟ୍ଯନ୍ତ
କାନ୍ଦି କାନ୍ଦି ରଥ ପଛରେ ଦୌଡୁଥିଲେ ।
ସେମାନେ ନିଜ ନିଜ ଭିତରେ କୁହାକୁହି
ହେଉଥିଲେ କି ଅନେକ ବିପଦରୁ କୃଷ୍ଣ
ଗୋକୂଳକୁ ରକ୍ଷା କରିଛନ୍ତି । ଏବେ ତାଙ୍କର
ପ୍ରିଯ କୃଷ୍ଣ ମଥୁରାକୁ ଚାଲିୟିବାରୁ ସେମାନେ
ଅନାଥ ଓ ଅସହାଯ ହୋଇ କାଳ ୟାପନ
କରିବେ ।</p>

<p>ରଥର ଗତି ବୃଦ୍ଧି ପାଇବାରୁ ସେମାନେ
ଆଉ ରଥକୁ ଅଧିକ ଅନୁସରଣ କରି ନ ପାରି
କାନ୍ଦି କାନ୍ଦି ପଛରେ ରହିଗଲେ । କୃଷ୍ଣବିହୀନ
ଗୋକୂଳ ଶ୍ରୀହୀନ ଦିଶିଲା । ସମସ୍ତ ଗୋକୂଳବାସୀ
କୃଷ୍ଣଙ୍କୁ ଝୁରି ଝୁରି ଖାଲି କାନ୍ଦୁଥିଲେ ।</p>

<p>ଏଣେ ଅକ୍ରୁର କୃଷ୍ଣ , ବଳରାମଙ୍କୁ ନେଇ
ମଥୁରା ସୀମାରେ ପହଞ୍ଚିଲେ । କ୍ଳାନ୍ତ ଅକ୍ରୁର
ରଥର ଗତି ବନ୍ଦ କଲେ । ଗୋଟିଏ ବୃକ୍ଷଛାଯାରେ
ରଥ ରହିଲା । ଅକ୍ରୁର କହିଲେ , " ମୁଁ ଖୁବ୍
କ୍ଳାନ୍ତ । ତମେ ଦୁହେଁ ରଥ ଉପରେ ବସିଥାଅ ।
ମୁଁ ଟିକିଏ ନଦୀରେ ସ୍ନାନ କରି ଆସେ ।
ଘୋଡାମାନେ ମଧ୍ଧ କିଛି ସମଯ ଘାସ ଚରିବେ । "
ଘୋଡାମାନଙ୍କୁ ଫିଟାଇ ଦେଇ ଅକ୍ରୁର ସ୍ନାନ
କରିବାକୁ ଗଲେ । ଥଣ୍ଡା ୟମୁନା ଜଳରେ
ବୁଡି ବୁଡି ମନ ସନ୍ତୋଷରେ ସ୍ନାନ କରୁଥାନ୍ତି
ଅକ୍ରୁର । କିନ୍ତୁ ଏ କ'ଣ ? କି ଆଲୌକିକ
କଥା ! ଜଳ ଭିତରେ ହିଁ ସେ ବୁଡିରହି
ଦେଖିଲେ ରସାତଳ । ସେଠାରେ କର୍କୋଟକ ,
ବାସୁକୀ ଆଦି ଶ୍ରେଷ୍ଠ ନାଗମାନେ ଆତୟାତ
ହେଉଛନ୍ତି । ଅତ୍ଯନ୍ତ ସୁନ୍ଦର ରତ୍ନମଣ୍ଡପ ଉପରେ
ବିରାଜିତ ସହସ୍ର ଫଣାଧାରୀ ଶେଷନାଗ । ତାଙ୍କର
ଦେହ ରଜତ ପରି ଧବଳ । ସେ କୁଣ୍ଡଳୀ କରି
ଫଣା ଟେକି ରହିଛନ୍ତି । ତାଙ୍କର ସହସ୍ର ଫଣାରୁ
ସହସ୍ର ଜିହ୍ବା ବିଜୁଳି ଖେଳିଲା ପରି ଦେଖା
ୟାଉଛନ୍ତି । ତାଙ୍କର ଦୁଇ ପାର୍ଶ୍ବରେ ମୂଷଳ ,
ହଳ ଓ ତାଡବୃକ୍ଷର ପତାକା ଶୋଭା ପାଉଥିଲା ।
ଶେଷନାଗଙ୍କ କୁଣ୍ଡଳୀ ମଧ୍ଧରେ କମଳନେତ୍ର ,
ଶ୍ଯାମବର୍ଣ୍ଣ କୃଷ୍ଣ ପୀତବସନ ପରିଧାନ କରି
ବିରାଜମାନ କରୁଥିଲେ ।</p>

<p>ପ୍ରଥମେ ଅକ୍ରୁର କିଛି ବୁଝି ପାରିଲେ ନାହିଁ ।
ସେ କେଉଁଠାରେ ଅଛନ୍ତି ? ଏହା ସ୍ବପ୍ନ ନା
ବାସ୍ତବ ? ଜଳରାଶି ଭିତରେ କ'ଣ ହଠାତ୍
ସ୍ବପ୍ନ ଦେଖିବା ସମ୍ଭବପର ? ତାଙ୍କର କ'ଣ ଭ୍ରମ
ହେଉଛି ? ସେ ବାସ୍ତବରେ ତାଙ୍କ ଘରେ ଶୋଇ
ରହି ସ୍ବପ୍ନ ଦେଖୁନାହାଁନ୍ତି ତ ? ଅଥବା ଧ୍ଧାନରେ
ବସି ଏଭଳି ଅପୂର୍ବ ଦୃଶ୍ଯ ଦେଖୁ ନାହାଁ଩୍ତି ତ ?
ତେବେ ଅଳ୍ପ ସମଯ ଭିତରେ ସେ ବୁଝିଗଲେ
କି ତାଙ୍କୁ ଭଗବାନ୍ କରୁଣା କରି ଏ ଦୃଶ୍ଯ
ଦେଖାଉଛନ୍ତି ।</p>

<p>ଭଗବାନ୍ ଶ୍ରୀକୃଷ୍ଣଙ୍କର ଏହି ଅଲୌକିକ ରୂପ
ଦେଖି ଅକ୍ରୁର ସ୍ତବ କରିବାକୁ ଲାଗିଲେ ଓ
ମାନସ ପୂଜା ଦ୍ବାରା ନାନାବିଧ ଅର୍ଚ୍ଚନା କରିବାକୁ
ଲାଗିଲେ । ତା ପରେ ସେ ପାଣିରୁ ବାହାରି
ଆସି ଦେଖିଲେ କୃଷ୍ଣ ବଳରାମଙ୍କ ଦେହରେ
ତାଙ୍କରି ଅର୍ଚ୍ଚନାର ଚିହ୍ନସବୁ । ଅକ୍ରୁର କୃଷ୍ଣ~
ଭାବରେ ଗଦ୍୍ଗଦ୍ ହୋଇ ପଡିଲେ । ଚକ୍ଷୁରୁ
ତାଙ୍କର ବହିଗଲା ଅଜସ୍ର ଅଶ୍ରୁଧାର । ଆହା ,
ଆଜି ଭଗବାନ୍ କେଡେ ବଡ କୃପା ନ କଲେ
ତାଙ୍କୁ ! ସେ ହୃଦଯରେ ଭଗବାନଙ୍କୁ କୃତଜ୍ଞତା
ଜଣାଇଲେ , ତାଙ୍କର ଜନ୍ମ ଜୀବନ ସାର୍ଥକ
ହେଲା । କୃପାମଯ , ଭାବଗ୍ରାହୀ କୃଷ୍ଣଙ୍କୁ ଚାହିଁ
ଚାହିଁ ସେ ଜଳରୁ ନିର୍ଗତ ହେଲେ । କିନ୍ତୁ ତାଙ୍କ
ଆଖିରୁ ଅଶ୍ରୁଧାରା ବନ୍ଦ ହେଉ ନ ଥାଏ । ଜଳରୁ
ଉଠୁ ଉଠୁ ପୁଣି ଥରେ ଭଗବାନ୍ କୃଷ୍ଣଙ୍କର
ସେହି ଅପରୂପ ଦେଖିବାକୁ ତାଙ୍କର ମନ ହେଲା ।
ପୁଣି ସେ ଜଳରେ ବୁଡିଲେ ଓ ସେହି ଅଦ୍ଭୂତପୂର୍ବ
ଦୃଶ୍ଯ ଅବଲୋକନ କଲେ । ସେ ବାରମ୍ବାର
ଜଳରେ ବୁଡୁଥାନ୍ତି ଓ ସେ ଅଦ୍ଭୁତ ଦୃଶ୍ଯ
ଦେଖୁଥାନ୍ତି । କିଛି ସମଯ ପରେ ଦୃଶ୍ଯ ଧୀରେ
ଧୀରେ ଅନ୍ତର୍ହିତ ହୁଅନ୍ତେ ସେ ସ୍ନାନ ସାରି
କୂଳକୁ ଆସିଲେ । ତାଙ୍କ ମୁହଁର ଭାବ ଅନ୍ଯ
ପ୍ରକାର । ଆଖି ଦୁଇଟି ପ୍ରଭୁଙ୍କ ପ୍ରେମରେ ଢଳ
ଢଳ । ଅକ୍ରୁରଙ୍କର ଏପରି ଭାବ ଗଦ୍୍ଗଦ୍ ରୂପ
ଦେଖି ଚତୁର କୃଷ୍ଣ ପଚାରିଲେ , " ଆପଣ
ଏତେ ଡେରି କଲେ କାହିଁକି ? ଆପଣଙ୍କ
ମୁହଁର ଭାବ ତ ସଂପୂର୍ଣ୍ଣ ଭିନ୍ନ । କ'ଣ କିଛି
ଘଟିଲା କି ? "</p>

<p>ଅକ୍ରୁର ଭାବପୂର୍ଣ୍ଣ କଣ୍ଠରେ କହିଲେ , " ପ୍ରଭୁ ,
ତୁମର ଏତେ ନିକଟରେ ୟେ ମୁଁ ଅଛି , ତା ଠାରୁ
ବଳି ଅଧିକ ସୌଭାଗ୍ଯ ଆଉ କ'ଣ ଥାଇପାରେ ?
ହେ କୃପାନିଧି , ବ୍ରହ୍ମା , ଇନ୍ଦ୍ର ୟେଉଁ ରୂପ
ଦେଖିବାକୁ ଅସମର୍ଥ ସେହି ଅଲୌକିକ ତୁମର
ଓ ବଳରାମଙ୍କର ରୂପ ମୁଁ ଜଳ ମଧ୍ଧରେ
ଅବଲୋକନ କରି ଆଜି ଧନ୍ଯ ହେଲି । କିନ୍ତୁ
ୟେଉଁ ରୂପକୁ ବର୍ଣ୍ଣନା କରିବାକୁ ବ୍ରହ୍ମାଙ୍କର
ମଧ୍ଧ ସାଧ୍ଧ ନାହିଁ , ତାକୁ ମୁଁ ଛାର ଅଧମ
ବ୍ଯକ୍ତି ବା ବର୍ଣ୍ଣନା କରିବି କିପରି ? ଏବେ ଏତିକି
ମାତ୍ର ପ୍ରାର୍ଥନା ୟେ ଏହିପରି ମୋ ଉପରେ ସଦା
ଅନୁଗ୍ରହ ରଖିଥିବେ । ଏବେ ସୂର୍ୟ୍ଯାସ୍ତ ଆଗତ
ପ୍ରାଯ । କଂସର ଆଦେଶ , ତା' ପୂର୍ବରୁ ଆମେ
ୟେପରି ମଥୁରାରେ ପହଞ୍ଚିବା । ନ ହେଲେ ତା'ର
ପ୍ରବଳ କ୍ରୋଧ ସହ୍ଯ କରିବା କଠିନ ହୋଇ
ପଡିବ । " //
ଭୂତଣୀ
ଗୋଟିଏ ଗ୍ରାମରେ ରାଜେଶ ନାମକ
ବ୍ଯବସାଯୀଟିଏ ରହୁଥାଏ । ତା'
ଘରଟି ଗ୍ରାମର ଶେଷ ପ୍ରାନ୍ତରେ । ଘରେ ସ୍ତ୍ରୀ
ଓ ପୁଅଝିଅ ଦୁଇଟି । ବ୍ଯବସାଯ ଛଡା ଘରେ
କିଛି କୁକୁଡା ପାଳିଥାଏ ଓ ଗାଈ ସବୁ
ରଖିଥାଏ । ସେଥିରୁ ମଧ୍ଧ କିଛି ପଇସା ପତ୍ର
ମିଳିୟାଏ । ଏମିତି ହୋଇ କୌଣସି ମତେ
ସୁଖେ ଦୁଃଖେ ପରିବାରଟି ଚଳି ୟାଉଥାଏ ।</p>

<p>ରାଜେଶ ଚୁଡି ବିକ୍ରି କରେ । ତାର ଧରାବନ୍ଧା
କେତେକ ଗ୍ରାହକ ଥାନ୍ତି । ତା' ଛଡା ନାନା
ରଙ୍ଗର ଚୁଡି ସବୁ ବୁଲି ଗଣ୍ଠିଲିରେ ରଖି
ଗ୍ରାମରୁ ଗ୍ରାମାନ୍ତର ବୁଲେ ।</p>

<p>ରାଜେଶ ପ୍ରତ୍ଯେହ ସକାଳୁ ଉଠି ଗାଇ ଦୁହେଁ ,
ଗାଇମାନଙ୍କୁ ଖାଇବାକୁ ଦେଇ ଚରିବାକୁ ଛାଡି
ଦିଏ । ନିଜେ କିଛି ଖାଇନିଏ ଆଉ ମଧ୍ଧାହ୍ନ
ଖାଦ୍ଯପୁଡାଟିଏ ସଙ୍ଗରେ ନେଇ ଚୁଡି ବିକ୍ରି
କରିବାକୁ ବାହାରିୟାଏ ; ସନ୍ଧ୍ଯାକୁ ଫେରିଆସେ ।
ସେ ସାଧାରଣ ଦାମରେ ଚୁଡି ବିକ୍ରି କରିବାରୁ
ସମସ୍ତଙ୍କର ପ୍ରିଯ ହୋଇଥାଏ ।</p>

<p>ଦିନେ ରାଜେଶ ଖରାବେଳେ ବୁଲି ବୁଲି
ଗ୍ରାମ ଶେଷରେ ଥିବା ଗୋଟିଏ ବରଗଛ
ପାଖରେ ଆସି ପହଞ୍ଚିଲା । ନିକଟରେ ଥାଏ
କୂଅଟିଏ । ସେ କୂଅରୁ ପାଣି ଆଣି ବରଗଛ
ଛାଇରେ ବସି ଆରାମ କରି ପେଟ ଭରି
ଖାଇଲା । ବଳକା ଖାଦ୍ଯ ସେଇଠି ଛାଡି ଆସିଲା
ବୁଲା କୁକୁର ଖାଇ ସଫା କରିଦେବ ଭାବି ।</p>

<p>ରାଜେଶ ୟିବା ପରେ ପରେହିଁ ବ୍ରହ୍ମରାକ୍ଷସୀ~
ଟିଏ ଆସି ସେଠାରେ ପହଞ୍ଚିଲା । ରାଜେଶର
ବଳକା ଖାଦ୍ଯ ସବୁ ସେଠାରେ ପଡିଥିବାର
ଦେଖିଲା । ସେତେବେଳେ ତାକୁ ବହୁତ
ଭୋକ ଲାଗୁଥାଏ । ସେ ଖୁସିରେ ସେଗୁଡିକ
ଖାଇ ପକାଇଲା । ଏ ପର୍ୟ୍ଯନ୍ତ ସେ କଞ୍ଚା ମାଂସ
ଖାଉଥାଏ । ରନ୍ଧା ହୋଇଥିବା ସ୍ବାଦିଷ୍ଟ ଖାଦ୍ଯ
ସବୁ ଖାଇ ଭାବିଲା - ଆହା , ମଣିଷଙ୍କ ଖାଦ୍ଯର
କି ସ୍ବାଦ ! ବରଂ ଏବେ ଠାରୁ ମୁଁ ମଣିଷ ରୂପ
ନେଇ ମଣିଷଙ୍କ ସହିତ ରହିବି ।</p>

<p>ତା' ପରେ ସେହି ବରଗଛ ମୂଳରେ
ରାଜେଶକୁ ପ୍ରତୀକ୍ଷା କରି ବସିଥାଏ ।
ସନ୍ଧ୍ଯା ସମଯକୁ ରାଜେଶ ସେଇ ବାଟ ଦେଇ
ଫେରିଲା । ବରଗଛ ନିକଟରେ ଥିବା କୂଅ
ମୂଳକୁ ୟାଇ ପାଣି ପିଇଲା । ହଠାତ୍ ଦେଖିଲା
ସ୍ତ୍ରୀ ଲୋକଟିଏ ବରଗଛ ତଳେ ବସି କାନ୍ଦୁଛି ।
ତା'ର ମନ ବହୁତ ବ୍ଯଥିତ ହେଲା । ସେ
ପଚାରିଲା , " ଭଉଣୀ ! ତୁମେ କିଏ ? ଏପରି
କାନ୍ଦୁଛ କାହିଁକି ? "</p>

<p>" ବାବୁ , ବହୁ ଦୂର ଦେଶରେ ମୋର ଘର ।
ମୋ ସ୍ବାମୀ କୁଆଡେ ଘର ଛାଡି ପଳାଇଛି ।
ଖାଇବାକୁ ନାହିଁ । ଭାଗ୍ଯକୁ ନିନ୍ଦା କରି
କାନ୍ଦୁଛି । " ସ୍ତ୍ରୀ ଲୋକଟି କହିଲା ।</p>

<p>" ଓହୋ , ତେବେ ତ ବଡ ଦୁଃଖର
କଥା । ଠିକ୍ ଅଛି , ତମେ ଆମ ଘରକୁ
ଆସ । ମୋ ସ୍ତ୍ରୀକୁ କାମଧନ୍ଦାରେ ସାହାୟ୍ଯ
କରିବ । ଦରମା ତ ମୁଁ ଦେଇ ପାରିବି ନାହିଁ ।
ଅନ୍ତତଃ ପେଟଭରି ଖାଇବାକୁ ଦେବି ।
ଇତିମଧ୍ଧରେ ତମ ସ୍ବାମୀ ଫେରି ଆସିଲେ ପୁଣି
ତୁମ ଘରକୁ ଫେରିୟିବ । " ରାଜେଶ ଦଯା
ଦେଖାଇ କହିଲା ।</p>

<p>ସ୍ତ୍ରୀ ଲୋକଟି କହିଲା , " ବାବୁ ! ଆପଣ
ମୋତେ ଏତେ ସାହାୟ୍ଯ କଲେ ; ଧନ୍ଯବାଦ ।
କିନ୍ତୁ ଗୋଟିଏ କଥା ମନେ ରଖିବେ । କରି
ପାରୁ ନ ଥିବା କାମ ମୋତେ ୟେଉଁଦିନ
ଦେବେ ସେଦିନ ମୁଁ ଘର ଛାଡି ପଳାଇବି । "
ରାଜେଶ ତାର ସର୍ତ୍ତ ସ୍ବୀକାର କରି ତାକୁ
ସଙ୍ଗରେ ନେଇ ଘରକୁ ଗଲା । ସେଠାରେ
ସବୁ ଘଟଣା ନିଜ ସ୍ତ୍ରୀକୁ କହିଲା । ତା'ର ସ୍ତ୍ରୀ
ପଚାରିଲା , " ଭଉଣୀ , ତୁମ ନାମ କ'ଣ ? "
" ମୋ ନାମ ଦାନବୀ , " ସେ କିଛି ନ ଭାବି
କହି ପକାଇଲା ।</p>

<p>ତା' ପର ଦିନଠାରୁ ରାଜେଶର ସ୍ତ୍ରୀକୁ ଘର
କାମରେ ବହୁତ ସାହାୟ୍ଯ କଲା । ପ୍ରାଯ
ଘର ଗୋଟାକର କାମ ଦାନବୀ କରୁଥାଏ ।</p>

<p>ଦିନେ ବହୁତ ରାତିରେ ରାଜେଶ ଘରକୁ
ଫେରିଲା । ଶୀତ ଦିନ । ଖଟ ଉପରେ ରେଜେଇ
ଘୋଡିହୋଇ ତା ସ୍ତ୍ରୀ ଛୁଆମାନଙ୍କୁ ଧରି
ଶୋଇଥାଏ । ତଳେ ଚଟାଣରେ ଦାନବୀ ମଧ୍ଧ
ଘୋଡିହୋଇ ଶୋଇଥାଏ । ଘର ଭିତର
ପଟରୁ ବନ୍ଦ । ରାଜେଶ କବାଟ ବାଡେଇବାରୁ
ତା ସ୍ତ୍ରୀ ଦାନବୀକୁ କହିଲା କବାଟ
ଖୋଲିବାକୁ । କିନ୍ତୁ ଏ କ'ଣ ? ରାଜେଶର
ସ୍ତ୍ରୀ ଦେଖିଲା ଶୋଇବା ସ୍ଥାନରୁ ଶୋଇରହି
ମଧ୍ଧ ଦାନବୀ ହାତ ବଢାଇ କବାଟ ଖୋଲିଲା ।
ହଠାତ୍ ହାତଟା ଦଶହାତ ଲମ୍ବା ହୋଇଗଲା ।
ଏସବୁ ଦେଖି ରାଜେଶର ସ୍ତ୍ରୀ ଛାନିଆରେ
କମ୍ପୁଛି , କିନ୍ତୁ ନ ଦେଖିଲା ପରି ନୀରବ
ରହିଲା । ପରଦିନ ସେ ନିଦରୁ ଉଠି ରାଜେଶକୁ
ସବୁ କଥା କହିଲା । ସେ କହିଲା , " କାମ
ସୁନ୍ଦର କରୁଛି , ହେଲେ ତାର ନାମ
ଅନୁସାରେ ସେ ଦାନବୀ ହେବ ବୋଧହୁଏ ।
ମାନବୀ ନୁହେଁ । "</p>

<p>ରାଜେଶ ମଧ୍ଧ ଭାବି ଦେଖିଲା ୟେ ଗତ
କାଲି କବାଟ ଖୋଲିବା ପରେ ସେ ଘର
ଭିତରକୁ ପଶି ଆସି ଦେଖିଲା ୟେ ଦାନବୀ
ସପ ଉପରେ ଘୋଡି ହୋଇ ଶୋଇଛି ।
କବାଟ ଖୋଲିବା ପରେ ଜଣେ ନିଜ ବିଛଣାକୁ
ଆସିବାକୁ କିଛି ସମଯ ତ ଲାଗିବ । ଏତେ
ଶିଘ୍ର କିପରି ବିଛଣାକୁ ଗଲା ? ଏବେ ସେ
ନିଜ ସ୍ତ୍ରୀ କଥା ଭଲ ଭାବରେ ଉପଲବ୍୍ଧି
କରି ପାରିଲା । କିନ୍ତୁ ତାକୁ ନିର୍ଦ୍ଦଯ ଭାବରେ
ବାହାର କରି ଦେଇ ହେବ ନାହିଁ । ଏବେ
ସେ ଗୋଟାଏ ଉପାଯ ପାଞ୍ଚିଲା । ତାର ମନେ
ପଡିଲା ଦାନବୀର ସର୍ତ୍ତ କଥା ।
 +&gt;*
               0 
</p></body></text></cesDoc>