<cesDoc id="ori-w-media-opa48" lang="ori">
<cesHeader type="text">
<fileDesc>
<titleStmt>
<h.title>ori-w-media-opa48.txt</h.title>
<respStmt>
<respType>Electronic file created by</respType>
<respName>Central Institute for Indian Languages, Mysore</respName>
<respType>transferred into Unicode and CES format by</respType>
<respName>"Unicodify" software by Andrew Hardie</respName>
</respStmt></titleStmt>
<publicationStmt>
<distributor>UCREL (on behalf of CIIL)</distributor>
<pubAddress>Department of Linguistics, Lancaster University, Lancaster, LA1 4YT, UK</pubAddress>
<availability region="WORLD"></availability>
<pubDate>03-08-12</pubDate>
</publicationStmt>
<sourceDesc>
<biblStruct>
<monogr>
<h.title>ପ୍ରଗତିବା</h.title>
<h.author>ପ୍ରଦ୍ଯୁମ</h.author>
<imprint>
<pubPlace>India</pubPlace>
<publisher>Unknown - Paper</publisher>
<pubDate>1988</pubDate>
</imprint>
<idno type="CIIL code">opa48</idno>
</monogr></biblStruct></sourceDesc></fileDesc>
<encodingDesc>
<projectDesc>Text collected for the CIIL Corpus, subsequently integrated into the EMILLE/CIIL Monolingual Written Corpora.</projectDesc>
<samplingDesc>Simple written text only has been transcribed. Diagrams, pictures and tables have been omitted. Sampling begins at page 0800.</samplingDesc>
<editorialDecl><conformance level="1"></conformance></editorialDecl>
</encodingDesc>
<profileDesc>
<creation><date>03-08-12</date></creation>
<langUsage>Oriya</langUsage>
<wsdUsage>
<writingSystem id="ISO/IEC 10646">Universal Multiple-Octet Coded Character Set (UCS).</writingSystem>
</wsdUsage>
<textClass>
<channel mode="w">print</channel>
<constitution type="composite"></constitution>
<domain type="public"></domain>
<factuality type="fact"></factuality>
</textClass>
<translations></translations>
</profileDesc>
<revisionDesc></revisionDesc>
</cesHeader>

<text><body>

<p>&lt;ଗଙ୍ଗା ନଦୀରେ ଲଞ୍ଚ ବୁଡି ବହୁ
ଲୋକଙ୍କ ମୃତ୍ଯୁ ଆଶଙ୍କା
ପାଟନା - ପ୍ରାଯ
3 ଶହରୁ ଉର୍ଦ୍ଧ୍ବ ତୀର୍ଥୟାତ୍ରୀଙ୍କୁ ନେଇ
ୟାଉଥିବା ଏକ ଷ୍ଟିମର ଗତକାଲି
କତିହାରଠାରୁ ପ୍ରାଯ 20 କିଲୋ~
ମିଟର ଦୂର ଗଙ୍ଗାନଦୀର ମାନିହାରୀ
ଘାଟ ନିକଟରେ ଡୁବି ୟିବାରୁ ବହୁ
ସଂଖ୍ଯକ ତୀର୍ଥୟାତ୍ରୀ ମୃତ୍ଯୁବରଣ
କରିଥିବା ଆଶଙ୍କା କରାୟାଉଛି ।
ଏ ପର୍ୟ୍ଯନ୍ତ ମାତ୍ର 100 ଜଣ ୟାତ୍ରୀଙ୍କୁ
ଉଦ୍ଧାର କରାୟାଇଛି । ମାତ୍ର 10 ଟି
ମୃତଦେହ ଉଦ୍ଧାର ହୋଇଛି
ବୋଲି ଏକ ସରକାରୀ ବିଜ୍ଞପ୍ତିରୁ
ଜଣାୟାଇଛି ।</p>

<p>ଶ୍ରୀ ମଙ୍ଗନ ଇନସାନ ନାମକ
ଜଣେ କଂଗ୍ରେସ (ଇ) ବିଧାଯକ
କହିଛନ୍ତି ୟେ , ଏହି ଷ୍ଟିମରରେ
ୟାତ୍ରା କରିବା ପାଇଁ ମୋଟରେ
565 ଟି ଟିକେଟ ବିକ୍ରି ହୋଇଥିଲା ।
ୟାତ୍ରୀମାନଙ୍କ ମଧ୍ଧରୁ ଅଧିକାଂଶ
ତୀର୍ଥୟାତ୍ରୀ ଶ୍ରାବଣ ମାସରେ ପାର~
ମ୍ପରିକ ପୂଜା ପାଇଁ ଦେଓଘର
ୟାଉଥିଲେ । ଶ୍ରାବଣ ମାସରେ
ଶିବଙ୍କ ଉପରେ ପାଣି ଢାଳିବା
ପାଇଁ ପୂର୍ବାଞ୍ଚଳର ବହୁୟାତ୍ରୀ
କାନ୍ଧରେ ପାଣିଭାର ଧରି ଦେଓ~
ଘରୟାଇଥାନ୍ତି ।</p>

<p>ଷ୍ଟିମର ଲଞ୍ଚ ବୁଡିବା ଖବର
ପାଇ ଜିଲ୍ଲାର ସବୁ ବରିଷ୍ଠ ବେସାମ~
ରିକ ଓ ପୋଲିସ କର୍ତ୍ତୃପକ୍ଷ ଏବଂ
ରେଳବାଇ କର୍ତ୍ତୃପକ୍ଷ ଦୁର୍ଘଟଣା
ଘଟିଥିବା ସ୍ଥାନକୁ ୟାଇଥିଲେ ଓ
ଉଦ୍ଧାର କାର୍ୟ୍ଯ କରିଥିଲେ । ଏହି
ଷ୍ଟିମରଟି ଏକ ଘରୋଇ ଫାର୍ମର
ବୋଲି ଜଣାୟାଇଛି । ଏହି
ଷ୍ଟିମରରେ ୟାଉଥିବା ୟାତ୍ରୀଙ୍କ
ମଧ୍ଧରୁ ଅଧିକାଂଶ ପାଣିଭାର କାନ୍ଧରେ
ଧରି ୟାଉଥିଲେ । ଗତକାଲି
ରାତିରେ ଆଲୋକ ଅଭାବରୁ ଉଦ୍ଧାର
କାର୍ୟ୍ଯ ବାଧାପ୍ରାପ୍ତ ହୋଇଥିଲା ।
ଡୁବି ୟାଇଥିବା ଷ୍ଟିମରକୁ ଠାବ
କରିବାକୁ ପ୍ରଶାସନିକ କର୍ତ୍ତୃପକ୍ଷ ଅନ୍ଯ
ଏକ ଲଞ୍ଚଦ୍ବାରା ଉଦ୍ଯମ କରୁଥିଲେ ।</p>

<p>ସାତଦଳୀଯ ଜାତୀଯ ସାମ୍ମୁଖ୍ଯ ଗଠନ
ଭି.ପି. ଓ ରାମାରାଓ ଏହାର ନେତୃତ୍ବ ନେବେ
ନୂଆଦିଲ୍ଲୀ - କଂଗ୍ରେସ
(ଇ) ର ଏକ ଜାତୀଯ ବିକଳ୍ପ ସ୍ବରୂପ
ଗତକାଲି ଏଠାରେ 7 ଟି ବିରୋଧ
ଦଳକୁ ନେଇ ରାଷ୍ଟ୍ରୀଯ ସାମ୍ମୁଖ୍ଯରେ
ଆନ୍ଧ୍ରପ୍ରଦେଶ ମୁଖ୍ଯମନ୍ତ୍ରୀ
ଶ୍ରୀ ଏନ.ଟି ରାମାରାଓ ଅଧ୍ଧକ୍ଷ ଓ
ଜନମୋର୍ଚ୍ଚା ନେତା ଶ୍ରୀ ବିଶ୍ବନାଥ
ପ୍ରତାପ ସିଂହ ଆବାହକ ହୋଇ
ପାରନ୍ତି । ଅନ୍ଯ ଏକ ବିଶ୍ବସ୍ତ ସୂତ୍ରରୁ
ପ୍ରକାଶ ୟେ , ବିକଳ୍ପ ବ୍ଯବସ୍ଥା ସ୍ବରୂପ
ଶ୍ରୀ ବିଶ୍ବନାଥ ପ୍ରତାପ ସିଂହଙ୍କୁ
ସାମ୍ମୁଖ୍ଯର ଅଧ୍ଧକ୍ଷ ଓ ଏନ.ଟି.
ରାମାରାଓଙ୍କୁ ଆବାହକ କରାୟାଇ
ପାରେ । ସାମୁଖ୍ଯର ନେତୃତ୍ବ
ସମ୍ପର୍କରେ ଆଜି ଚୂଡାନ୍ତ ନିଷ୍ପତ୍ତି
ଗ୍ରହଣ କରାୟିବ ବୋଲି ଗତକାଲି
3 ଘଣ୍ଟା ଧରି ଚାଲିଥିବା ବୈଠକ
ପରେ ଶ୍ରୀ ରାମାରାଓ ସାମ୍ବାଦିକ~
ମାନଙ୍କୁ କହିଥିଲେ ।</p>

<p>ଗତକାଲି ବୈଠକରେ
ସାମ୍ମୁଖ୍ଯର ସାଙ୍ଗଠନିକ ଓ ସଂସଦୀଯ
ଗୋଷ୍ଠୀ ଗଠନ ବ୍ଯବସ୍ଥା ଗୃହୀତ
ହୋଇଥିଲା । ବୈଠକ ଆରମ୍ଭ
ହେବା ପୂର୍ବରୁ କେତେକ ୟୁବ~
କଂଗ୍ରେସ (ଇ) କର୍ମୀ ବିକ୍ଷୋଭ
ପ୍ରଦର୍ଶନ କରିଥିଲେ । ଏହି ୟୁବ~
କଂଗ୍ରେସ (ଇ) କର୍ମୀଙ୍କୁ ମଧ୍ଧରୁ
ଅଧିକାଂଶ କର୍ଣ୍ଣାଟକରୁ ଆସିଥିଲେ ।
ବିକ୍ଷୋଭକାରୀମାନେ କର୍ଣ୍ଣାଟକ
ମୁଖ୍ଯମନ୍ତ୍ରୀ ଶ୍ରୀ ରାମକୃଷ୍ଣ ହେଗଡେ ,
ବିରୋଧିଦଳ ନେତୃବୃନ୍ଦ ଓ
ସେମାନଙ୍କ ଏକତା ଉଦ୍ଯମ
ବିରୁଦ୍ଧରେ ପ୍ରତିବାଦ କରିଥିଲେ ।</p>

<p>ଗତକାଲିର ବୈଠକରେ
ସାମ୍ମୁଖ୍ଯର ନାମ ରାଷ୍ଟ୍ରୀଯ ଜନ~
ମୋର୍ଚ୍ଚା ପରିବର୍ତ୍ତେ ଖାଲି ` ରାଷ୍ଟ୍ରୀଯ
ସାମ୍ମୁଖ୍ଯ ' ରଖାୟିବ ବୋଲି ସ୍ଥିର
କରାୟାଇଛି । ଏହି ବୈଠକରେ
ଜନତା , ଲୋକଦଳ , କଂଗ୍ରେସ
(ଏସ) ପ୍ରଭୃତି ଦଳର ନେତାମାନେ
ୟୋଗ ଦେଇଥିଲେ ।</p>

<p>ୟଶବୀର ସିଂହ ରୋଡେ ପ୍ରମୁଖ ଖଲାସ
ହେବା ପରେ ପୁନର୍ବାର ଗିରଫ
ଅମୃତସର -
ଶ୍ରୀ ୟଶବୀର ସିଂହ ରୋଡେଙ୍କ
ସମେତ ବହିଷ୍କୃତ 4 ଜଣ ଶିଖ
ମୁଖ୍ଯ ପୁରୋହିତ ଓ ଜଣେ ପୂର୍ବତନ
ମୁଖ୍ଯ ପୁରୋହିତଙ୍କୁ ଗତକାଲି
ସେଣ୍ଟ୍ରାଲ ଜେଲରେ ଖଲାସ
ନିର୍ଦ୍ଦେଶ ଦିଆୟିବା ପରେ ପରେ
ପୁନର୍ବାର ଗିରଫ କରାୟାଇଛି ।
ଜଣେ ମାଜିଷ୍ଟ୍ରେଟ ଏହି ମୁଖ୍ଯ
ପୁରୋହିତମାନଙ୍କୁ ଖଲାସ ନିର୍ଦ୍ଦେଶ
ଦେଇଥିଲେ । ସେଣ୍ଟ୍ରାଲ ଜେଲରେ
ସେମାନେ ଖଲାସ ଅର୍ଡର ପାଇବା
କ୍ଷଣି ଭାରତୀଯ ପିଙ୍ଗଳ କୋର୍ଡର
107 ଓ 151 ଧାରା ଅନୁୟାଯୀ
ଶାନ୍ତିଭଙ୍ଗ ଆଶଙ୍କାରେ ପୁନର୍ବାର
ସେମାନଙ୍କୁ ଗିରଫ କରାୟାଇଥିଲା ।</p>

<p>ଓଡିଶା ପାଇଁ ଚାଉଳ କୋଟା
ବୃଦ୍ଧି କରିବାକୁ ଦାବି
ଆଗାମୀ
3 ମାସ ପାଇଁ ଭାରତୀଯ ଖାଦ୍ଯ
ନିଗମ ଓଡିଶା ପାଇଁ ଚାଉଳ କୋଟା
ବୃଦ୍ଧି କରିବାକୁ ପାର୍ଲାମେଣ୍ଟ ସଭ୍ଯ
ଶ୍ରୀ ସୋମନାଥ ରଥ ଦାବି କରି~
ଛନ୍ତି । ଖାଦ୍ଯ ନିଗମ ସଂଶୋଧନ
ବିଲ୍୍ ସଂକ୍ରାନ୍ତ ଆଲୋଚନାରେ ଅଂଶ
ଗ୍ରହଣ କରି ଶ୍ରୀ ରଥ ଏହି ଦାବି
କରିଛନ୍ତି ।</p>

<p>ଓଡିଶା ମୁଖ୍ଯମନ୍ତ୍ରୀ ଓ
ପାର୍ଲାମେଣ୍ଟ ସଭ୍ଯବୃନ୍ଦ
ଓଡିଶା ଚାଉଳ କୋଟା ବୃଦ୍ଧି
କରିବାକୁ ମଧ୍ଧ ଦାବି କରିଛନ୍ତି ।
ଓଡିଶା ପାଇଁ ମାତ୍ର 5 ହଜାର ଟନ
ଚାଉଳ ଦିଆୟାଇଛି । ସେମାନଙ୍କ
ଦାବି ପ୍ରତି ୟଥାୟଥ ଦୃଷ୍ଟି
ନେବା ସହ ଆଗାମୀ 3 ମାସ ପାଇଁ
ଅଧିକ ଚାଉଳ ଆବଶ୍ଯକ ପଡୁ~
ଥିବାରୁ ଓଡିଶାକୁ ଏଫ.ସି.ଆଇ.
ପ୍ରତ୍ଯେକ ମାସରେ 40 ରୁ 50 ହଜାର
ଟନ ଚାଉଳ ୟୋଗାଇ ଦେବାକୁ
ଶ୍ରୀ ରଥ ଦାବି କରିଛନ୍ତି । ଅତୀତରେ
ଏଫ.ସି.ଆଇ. ଓଡିଶାରୁ ଚାଉଳ
ସଂଗ୍ରହ କରି ଅନ୍ଯ ରାଜ୍ଯମାନଙ୍କୁ
ୟୋଗାଉଥିଲା । ତେଣୁ ଓଡିଶାର
ଜନସାଧାରଣ ୟେତେବେଳେ
ଅଭାବ ଅନଟନରେ ପଡିଛନ୍ତି ,
ସେତେବେଳେ ସେମାନଙ୍କ ଚାହିଦା
ମୁତାବକ ଚାଉଳ ୟୋଗାଇଦେବା
ଆବଶ୍ଯକ । //
ଇନ୍ଦିରା ଗାନ୍ଧୀ ହତ୍ଯା ମାମଲା
ଦୀର୍ଘ ଚାରିବର୍ଷ ହେଲା ଚାଲିଥିବା ଇନ୍ଦିରା ଗାନ୍ଧୀ ହତ୍ଯା
ମାମଲାରେ ସୁପ୍ରିମକୋର୍ଟ ଗତ ସପ୍ତାହରେ ଦେଇଥିବା ରାଯରେ ନିମ୍ନ
ଅଦାଲତରେ ଓ ହାଇକୋର୍ଟରେ ମୃତ୍ଯୁଦଣ୍ଡ ଆଦେଶ ପାଇଥିବା 3 ଜଣ
ଆସାମୀଙ୍କ ମଧ୍ଧରୁ ଶ୍ରୀ ବଲବୀର ସିଂହଙ୍କୁ ପୂରାପୁରି ଖଲାସ କରିଦେଇଛନ୍ତି ।
ଅନ୍ଯ ଦୁଇଜଣ ଆସାମୀ ଶ୍ରୀ ସତ୍୍ଵନ୍ତ ସିଂହ ଓ ଶୀ କେହର ସିଂହଙ୍କ
ଉପରେ ଫାଶୀଦଣ୍ଡ ଆଦେଶ କାଏମ ରହିଥିଲେ ମଧ୍ଧ ଶ୍ରୀ ବଲବୀର
ସିଂହ ପୂରାପୂରି ଖଲାସ ହେବା ଫଳରେ ଭାରତୀଯ ବିଚାର ପଦ୍ଧତି ଓ
ବିଚାରାଳଯର ସ୍ବାଧୀନତା , ନିରପେକ୍ଷତା ଓ ନ୍ଯାଯ ପ୍ରଦାନର
ପରାକାଷ୍ଠା ପ୍ରମାଣିତ ହୋଇଛି ।</p>

<p>ଭାରତର ପ୍ରଧାନମନ୍ତ୍ରୀ ଓ ଦେଶର ସବୁଠାରୁ ଜନପ୍ରିଯ ନେତ୍ରୀ
ଭାବରେ ଖ୍ଯାତି ଅର୍ଜନ କରିଥିବା ଶ୍ରୀମତୀ ଇନ୍ଦିରା ଗାନ୍ଧୀଙ୍କୁ ତାଙ୍କର
ଦେହରକ୍ଷୀମାନେ ୟେପରି ଜଘନ୍ଯ ଭାବେ ଗୁଳିମାରି ହତ୍ଯା କରିଥିଲେ
ସେଥିରେ ଆସାମୀମାନଙ୍କ ପ୍ରତି ସାମାନ୍ଯତମ ଦଯା ପ୍ରଦର୍ଶନ କଥା ଚିନ୍ତା
କରାୟାଇ ନପାରେ । କିନ୍ତୁ ଇନ୍ଦିରା ଗାନ୍ଧୀଙ୍କ ହତ୍ଯା ପଛରେ ଏକ
ବିରାଟ ଷଡୟନ୍ତ୍ର ଥିଲା ବୋଲି ପ୍ରମାଣ କରିବାକୁ ୟାଇ ସି.ବି.ଆଇ. ପରି
ଏକ ଦକ୍ଷ ଅନୁସନ୍ଧାନକାରୀ ସଂସ୍ଥା ମିଥ୍ଯା ସାକ୍ଷ୍ଯ ଓ ଦଲିଲ ସଂଗ୍ରହ
କରି ଶ୍ରୀ ବଲବୀର ସିଂହଙ୍କ ପରି ଜଣେ ନିରୀହ ଲୋକଙ୍କୁ ଫାଶୀ
ଖୁଣ୍ଟକୁ ପଠାଇ ଦେଇଥିଲେ । ସୁପ୍ରିମକୋର୍ଟ ୟଦି ସମୁଦାଯ ଘଟଣାର
ଆମୂଳଚୂଳ ପରୀକ୍ଷା କରିନଥାନ୍ତେ ଓ ନିମ୍ନ ଅଦାଲତ ଏବଂ ହାଇକୋର୍ଟର
ରାଯକୁ କାଏମ ରଖିଥାନ୍ତେ ତାହାହେଲେ ଶ୍ରୀ ବଲବୀର ସିଂହଙ୍କପରି
ଜଣେ ନିରୀହ ବ୍ଯକ୍ତି ଫାଶୀ ଖୁଣ୍ଟକୁ ୟାଇଥାନ୍ତା , ସମୁଦାଯ ଶିଖ୍୍
ସମ୍ପ୍ରଦାଯ ଏହାକୁ ସେମାନଙ୍କ ବିରୁଦ୍ଧରେ ଏକ ଷଡୟନ୍ତ୍ର ବୋଲି
ଭାବିଥାନ୍ତେ । ଏଣୁ ସୁପ୍ରିମକୋର୍ଟର 3 ଜଣ ମାନ୍ଯବର ବିଚାରପତି
ଇନ୍ଦିରା ଗାନ୍ଧୀ ମାମଲାରେ ୟେଉଁ ରାଯ ଦେଇଛନ୍ତି ତାହା ପରୋକ୍ଷରେ
ପଞ୍ଜାବରେ ଶାନ୍ତି ପ୍ରତିଷ୍ଠା ଦିଗରେ ସହାଯକ ହେବ । ଶ୍ରୀ ବଲବୀର
ସିଂହ ୟଥାର୍ଥରେ କହିଛନ୍ତି , " ଭାରତରେ ନ୍ଯାଯର ମୃତ୍ଯୁ ହୋଇନାହିଁ ,
ନ୍ଯାଯ ବଞ୍ଚିଛି । " ଆଉ ଏକ ଦୃଷ୍ଟିରେ ଦେଖିଲେ ସୁପ୍ରିମକୋର୍ଟର ରାଯ
ସି.ବି.ଆଇ. ପରି ତଦନ୍ତକାରୀ ସଂସ୍ଥାର ଦକ୍ଷତା ଓ ଅନୁସନ୍ଧାନ ପଦ୍ଧତି
ଉପରେ ଗୁରୁତର ସନ୍ଦେହ ସୁଷ୍ଟି କରିଛି ।</p>

<p>ବଲବୀର ସିଂହ ଓ କେହର ସିଂହଙ୍କ ଓକିଲ ଶ୍ରୀ ରାମଜେଠାମାଲାନୀ
ସୁପ୍ରିମକୋର୍ଟ ରାଯରେ ଆନନ୍ଦ ପ୍ରକାଶ କରିଥିଲେ ମଧ୍ଧ କେହର ସିଂହଙ୍କ
ପାଇଁ ସୁପ୍ରିମକୋର୍ଟରେ ଆଉ ଏକ ` ରି-ଭିଉ ' ପିଟିସନ ଦାଏର କରିବେ
ବୋଲି ସୂଚନା ଦେଇଛନ୍ତି । ରି-ଭିଉ ପିଟିସନରେ ୟଦି ସତ୍୍ଵନ୍ତ ଓ
କେହର ସିଂହଙ୍କ ମୃତ୍ଯୁ ଦଣ୍ଡ ଆଦେଶ କାଏମ ରହେ ତାହାହେଲେ
ସେମାନେ କ୍ଷମା ପାଇଁ ରାଷ୍ଟ୍ରପତିଙ୍କୁ ଆବେଦନ କରିପାରନ୍ତି । କିନ୍ତୁ
ରାଷ୍ଟ୍ରପତି ୟେ , ଏମାନଙ୍କ ପ୍ରତି କ୍ଷମା ପ୍ରଦର୍ଶନ କରିବେ ନାହିଁ ତାହା
ବେଶ୍୍ ଜଣାଶୁଣା । ଏଣୁ ସତ୍୍ଵନ୍ତ ସିଂହ ଓ କେହର ସିଂହ ଫାଶୀ
ପାଇବା ନିଶ୍ଚିତ ଜଣାପଡୁଛି । କିନ୍ତୁ ଇନ୍ଦିରା ଗାନ୍ଧୀଙ୍କ ହତ୍ଯାପଛରେ
ଏକ ବିରାଟ ଷଡୟନ୍ତ୍ର ଥିଲା ବୋଲି ଏ ପର୍ୟ୍ଯନ୍ତ ପ୍ରମାଣିତ ହୋଇପାରି~
ନାହିଁ । ଇନ୍ଦିରା ଗାନ୍ଧୀଙ୍କ ହତ୍ଯାକାଣ୍ଡ ସଂକ୍ରାନ୍ତରେ ସେତେବେଳେ
ବସିଥିବା ଠକ୍୍କର କମିଶନ ରିପୋର୍ଟ ସରକାର ପ୍ରକାଶ ନକରିବା
ଫଳରେ ଭାରତ ଇତିହାସରେ ଏକ ଗୁରୁତ୍ବପୂର୍ଣ୍ଣ ଘଟଣା ପଛରେ ଥିବା
ସର୍ବଶେଷ ତଥ୍ଯ ଦେଶବାସୀ ଜାଣିପାରିଲେ ନାହିଁ ।</p>

<p>ମହାତ୍ମା ଗାନ୍ଧୀଙ୍କ ସ୍ଥାନ କେଉଁଠି ?
ରାଜ୍ଯ ସରକାର ରାଜଧାନୀର କେନ୍ଦ୍ରସ୍ଥଳରେ ସଚିବାଳଯର
ସମ୍ମୁଖରେ ଥିବା ପ୍ଯାରେଡ ପଡିଆକୁ ସମସ୍ତ ପ୍ରକାର ବିରୋଧ ଓ
ସମାଲୋଚନା ସତ୍ତ୍ବେ ଇନ୍ଦିରା ଗାନ୍ଧୀ ପାର୍କରେ ପରିଣତ କରିବାରେ
ସଫଳ ହୋଇଥିବାରୁ ଉତ୍ସାହିତ ହୋଇ ପି.ଏମ.ଜି. ଛକଠାରୁ ମାଷ୍ଟର
କାଣ୍ଟିନ ଛକ ଦେଇ ୟାଇଥିବା ମହାତ୍ମା ଗାନ୍ଧୀ ମାର୍ଗକୁ ନାମ
ବଦଳାଇ ଇନ୍ଦିରା ଗାନ୍ଧୀ ମାର୍ଗ ନାମରେ ନାମିତ କରିଛନ୍ତି । ଜାତିର
ଜନକ ମହାତ୍ମା ଗାନ୍ଧୀଙ୍କ ନାମକୁ ଜନସାଧାରଣଙ୍କ ମନରୁ ଲିଭାଇଦେଇ
ସେହି ସ୍ଥାନରେ ଇନ୍ଦିରା ଗାନ୍ଧୀ ଓ ନେହେରୁ ପରିବାରର ବ୍ଯକ୍ତି ବିଶେଷଙ୍କ
ନାମ ଲିପିବଦ୍ଧ କରିବାକୁ ଚାଲିଥିବା ବିଧିବଦ୍ଧ ଷଡୟନ୍ତ୍ରର ଏକ ଅଂଶ
ବିଶେଷ ସ୍ବରୂପ ଓଡିଶାର କଂଗ୍ରେସ (ଇ) ଶାସକମାନେ ଭୁବନେଶ୍ବର
ରାସ୍ତା ଗୁଡିକର ଓ ପାର୍କର ନାମକରଣ କରୁଥିବା ଜଣାପଡୁଛି ।
କାରଣ ପ୍ଯାରେଡ ପଡିଆକୁ ଲାଗି ସଚିବାଳଯ ସମାନାଦେଇ ଆଚାର୍ୟ୍ଯ
ବିହାର ଆଡକୁ ୟାଇଥିବା ମୁଖ୍ଯ ରାସ୍ତାର ନାମ ମଧ୍ଧ ପରିବର୍ତ୍ତନ
କରାୟାଇ ପଣ୍ଡିତ ଜବାହରଲାଲ ନେହରୁ ମାର୍ଗ କରାୟାଇଛି ।</p>

<p>ରାଜ୍ଯ ସଚିବାଳଯ ଓ ବିଧାନସଭା ସମ୍ମୁଖ ଭାଗରେ
ଥିବା ରାସ୍ତାଗୁଡିକୁ ଇନ୍ଦିରା ଗାନ୍ଧୀ ଓ ପଣ୍ଡିତ ନେହରୁଙ୍କ
ନାମରେ ନାମିତ କରାୟାଉଥିବା ସମଯରେ ସଚିବାଳଯ ଓ ବିଧାନ~
ସଭାର ବହୁ ପଛରେ ଥିବା ରାଜଭବନରୁ ଶାସ୍ତ୍ରୀନଗର ଦେଇ ୟାଇ~
ଥିବା ରାସ୍ତାକୁ ମହାତ୍ମା ଗାନ୍ଧୀଙ୍କ ନାମରେ ନାମିତ କରାୟିବା ଦ୍ବାରା
ରାଜ୍ଯ ସରକାର ମହାତ୍ମା ଗାନ୍ଧୀଙ୍କୁ କେଉଁ ଦୃଷ୍ଟିରୁ ଦେଖୁଛନ୍ତି
ତାହା ସ୍ପଷ୍ଟ ହୋଇୟାଇଛି ।</p>

<p>କ୍ଷମତାରେ ରହିବା ପାଇଁ ଇନ୍ଦିରା ଗାନ୍ଧୀ ଓ ନେହରୁ
ପରିବାରର ପ୍ରତି ଆନୁଗତ୍ଯ ପ୍ରକାଶ କରିବା ଏକମାତ୍ର ପନ୍ଥା ବୋଲି
ବୋଧ ହୁଏ ରାଜ୍ଯ ନେତୃତ୍ବ ଭାବୁଛନ୍ତି । କିନ୍ତୁ ଏହା କରିବାକୁ
ୟାଇ ଜାତିର ଜନକ ମହାତ୍ମା ଗାନ୍ଧୀଙ୍କୁ ନ୍ଯୁନ କରିବାର ୟେଉଁ
ଚେଷ୍ଟା ହେଉଛି ତାହା ବିପଜ୍ଜନକ ପରିଣତି ସୃଷ୍ଟି କରିବ । ବର୍ତ୍ତମାନର
ସରକାର ଆଉ କିଛି ଦିନ କ୍ଷମତାରେ ରହିଲେ ରାଜ୍ଯରେ ଥିବା ସବୁ
ଅନୁଷ୍ଠାନ ଓ ମୁଖ୍ଯ ସ୍ଥାନଗୁଡିକ ରାଜୀବ ଗାନ୍ଧୀ , ତାଙ୍କ ପତ୍ନୀ ଓ ପିଲା
ମାନଙ୍କ ନାମରେ ନାମିତ କରି ଦେଇପାରନ୍ତି । //
ଟ୍ରେନରେ ସ୍ଥାନ ସଂରକ୍ଷଣ
କରିବାରେ ୟାତ୍ରୀମାନେ ହଟହଟା
ଭୁବନେଶ୍ବରଠାରୁ ବିଭିନ୍ନ ଟ୍ରେନରେ
ସ୍ଥାନ ସଂରକ୍ଷଣ କରିବାରେ ୟାତ୍ରୀ~
ମାନେ ଖୁବ୍୍ ଅସୁବିଧାର ସମ୍ମୁଖୀନ
ହେଉଛନ୍ତି । ସ୍ଥାନ ସଂରକ୍ଷଣ ପାଇଁ
ୟଥେଷ୍ଟ କାଉଣ୍ଟର ଓ ୟଥେଷ୍ଟ
କର୍ମଚାରୀ ନଥିବା ଏହାର କାରଣ
ବୋଲି ଜଣାୟାଇଛି ।</p>

<p>ଭୁବନେଶ୍ବର ଷ୍ଟେସନରେ ସ୍ଥାନ
ସଂରକ୍ଷଣ ପାଇଁ ମାତ୍ର 5 ଟି କାଉଣ୍ଟର
ଅଛି । ହୀରାଖଣ୍ଡ ଏକ୍୍ସପ୍ରେସ
ଚଳାଚଳ ଶୁଭାରମ୍ଭ ଦିନ ଖୋଲା
ୟାଇଥିବା 6 ଷ୍ଠ କାଉଣ୍ଟରଟି ମାତ୍ର
ଦିନକ ପରେ ବନ୍ଦ କରି ଦିଆ~
ୟାଇଛି । ଏହାଛଡା ପ୍ରେସ ମାଇ~
ଲେଜ କୁପନ କିମ୍ବା ସ୍ବତନ୍ତ୍ର କାଉଣ୍ଟର
ବ୍ଯବସ୍ଥା ନାହିଁ ।</p>

<p>ଇତି ମଧ୍ଧରେ କରମଣ୍ଡଳ
ଏକ୍୍ସପ୍ରେସ , ହାବଡା ବାଙ୍ଗାଲୋର
ଏକ୍୍ସପ୍ରେସ ଓ ହୀରାଖଣ୍ଡ ଏକ୍୍ସ~
ପ୍ରେସରେ ଭୁବନେଶ୍ବରଠାରୁ ସିଟ୍୍
କୋଟା ବୃଦ୍ଧି କରାୟାଇଥିଲେ ହେଁ
ତାକୁ ଚାହିଁ କାଉଣ୍ଟର ସଂଖ୍ଯା ବୃଦ୍ଧି
ପାଇ ନାହିଁ । 1961-62 ମସିହାରେ
କରାୟାଇଥିବା ` କାର୍ୟ୍ଯ ସମୀକ୍ଷା '
ଅନୁୟାଯୀ 5 ଟି ରିଜର୍ଭେସନ
କାଉଣ୍ଟର ଖୋଲାୟାଇଥିଲା ।
ତତ୍୍ପରେ ଆଉ କାର୍ୟ୍ଯ ସମୀକ୍ଷା
କରାୟାଇ ନାହିଁ।</p>

<p>5 ଟି ରିଜର୍ଭେସନ କାଉଣ୍ଟର
ପାଇଁ ମାତ୍ର 5 ଜଣ କିରାଣି ମୁତଯନ
କରାୟାଇଛି । ସେମାନଙ୍କ ମଧ୍ଧରୁ
କେହି କୌଣସି କାରଣରୁ ଅନୁପସ୍ଥିତ
ରହିଲେ ତାଙ୍କ ଦାଯିତ୍ବରେ ଥିବା
କାଉଣ୍ଟରଟି ବନ୍ଦ କରି ଦିଆୟାଉଛି
ଓ ସେହି କାଉଣ୍ଟରର କାର୍ୟ୍ଯ ଅନ୍ଯ
କାଉଣ୍ଟରରେ କରାୟାଉଛି ।
ଫଳରେ ସ୍ଥାନ ସଂରକ୍ଷଣ କରିବାକୁ
ଆସୁଥିବା ୟାତ୍ରୀମାନଙ୍କୁ ଘଣ୍ଟା ଘଣ୍ଟା
ଧରି ଅପେକ୍ଷା କରି ରହିବାକୁ
ପଡୁଛି । ଅନେକ ସମଯରେ
କର୍ମଚାରୀ ଅଭାବରୁ କାଉଣ୍ଟର ମାନଙ୍କର
କାର୍ୟ୍ଯ ପଡି ରହୁଛି । ଏ ସମ୍ପର୍କରେ
ରେଳବାଇ ଉଚ୍ଚ କର୍ତ୍ତୃପକ୍ଷଙ୍କ
ନିକଟରେ ବାରମ୍ବାର ଅଭିୟୋଗ
କରାୟାଉଥିଲେ ମଧ୍ଧ କୈଣସି
ପଦକ୍ଷେପ ନିଆୟାଉ ନାହିଁ ।</p>

<p>ଅଚିହ୍ନା ୟୁବକର ଆତ୍ମହତ୍ଯା
ଭବାନୀପାଟଣା -
ଗତମାସ 26 ତାରିଖ ଦିନ ରାଜ୍ଯ
ପରିବହନ ସଂସ୍ଥାର ଭବାନୀପାଟଣା
ମହିଳା ବିଶ୍ରାମାଗାରରେ ଜନୈକ
25।26 ବର୍ଷ ବଯସ୍କ ୟୁବକ ବିଷ
ପିଇ ଆତ୍ମହତ୍ଯା କରିଥିବା ଜଣା~
ୟାଇଛି । 25 ତାରିଖ ରାତିରେ
ଉକ୍ତ ୟୁବକ ମହିଳା ବିଶ୍ରାମା~
ଗାରରେ କିଭଳି ଲୁଚି ରହିଥିଲା
ତାହା ପରିବହନ ସଂସ୍ଥାର
କୌଣସି ବ୍ଯକ୍ତି ଜାଣିପାରି ନଥିଲେ ।
26 ତାରିଖ ସକାଳେ ସୁଇପର
ବିଶ୍ରାମାଗାର ସଫା କରିବାକୁ ୟିବା
ବେଳେ ଉକ୍ତ ୟୁବକ ମରି ପଡି~
ଥିବାର ଦେଖିଥିଲା ଓ ସଙ୍ଗେ ସଙ୍ଗେ
ଟାଉନ ପୋଲିସକୁ ଖବର ଦିଆ~
ୟାଇଥିଲା । ଏ.ଏସ.ଆଈ. ଶ୍ରୀ ଟି.ଡି.
ବୁଦ୍ଧିଆଙ୍କ ନେତୃତ୍ବରେ ପୋଲିସ
ଫଟୋଗ୍ରାଫର ଓ ଅନ୍ଯମାନେ
ଘଟଣାର ତଦନ୍ତକରି ୟୁବକ
ନିକଟରୁ ଏକ ବିଷ ଶିଶି ପାଇଥିଲେ । //
5 ମ ଟେଷ୍ଟରେ ମଧ୍ଧ ଵେଷ୍ଟଇଣ଼୍ଡିଜ
ବିଜଯ ହାସଲ କରିବା ସମ୍ଭାବନା
ଲଣ୍ଡନ - ଏଠାରେ
ଚାଲିଥିବା ପଞ୍ଚମ ତଥା ଚୂଡାନ୍ତ
କ୍ରିକେଟ ଟେଷ୍ଟରେ ଗତକାଲି
ତୃତୀଯ ଦିନ ଖେଳ ଶେଷସୁଦ୍ଧା
ଇଂଲଣ୍ଡ ଦଳ ତାର ଦ୍ବିତୀଯ
ଇନିଙ୍ଗସ୍୍ରେ 202 ରନ୍୍ କରି
ଅଲ୍୍ ଆଉଟ୍୍ ହୋଇୟିବା ପରେ
ଵେଷ୍ଟଇଣ୍ଡିଜ ଦଳ ତାର ଦ୍ବିତୀଯ
ଇନିଙ୍ଗସ୍୍ରେ କୌଣସି ଉଇକେଟ
ନ ହରାଇ କରିଛି 71 ରନ୍୍ ।
ଫଳରେ ଉକ୍ତ ଟେଷ୍ଟରେ ଜିତିବା
ଲାଗି ଵେଷ୍ଟଇଣ୍ଡିଜ୍୍ ଆଉ 154
ରନ୍୍ ଆବଶ୍ଯକ କରୁଛି ।</p>

<p>ଦ୍ବିତୀଯ ଇନିଙ୍ଗସ୍୍ରେ ଇଂଲ~
ଣ୍ଡର ସ୍କୋର 64 ଥିବାବେଳେ
ଗତକାଲିର ଖେଳ ଆରମ୍ଭ ହେବା
ବେଳକୁ ଇଂଲଣ୍ଡ ଦଳ ପୂର୍ବରୁ 3 ଟି
ଉଇକେଟ ହରାଇ ସାରିଥିଲା ଏବଂ
ଗୁଚ୍୍ 38 ରନ୍୍ ଓ ଫୋଷ୍ଟର 1
ରନ୍୍ରେ ଥାଇ ବ୍ଯାଟିଙ୍ଗ ଆରମ୍ଭ
କରିଥିଲେ । ଇଂଲଣ୍ଡ ପକ୍ଷରୁ ଗୁଚ୍୍
84 ରନ୍୍ ଓ ଫୋଷ୍ଟର 34 ରନ୍୍
ସଂଗ୍ରହ କରିଥିଲେ ମଧ୍ଧ ଅନ୍ଯ
କୌଣସି ଖେଳାଳି ଇଂଲଣ୍ଡର
ସ୍କୋର ବୃଦ୍ଧି କରାଇବାରେ ସହାଯକ
ହୋଇନଥିଲେ ।</p>

<p>ଗ୍ରାହାମ ଗୁଚ୍୍ ଦୀର୍ଘ 423
ମିନିଟ୍୍ କାଳ ପିଚ୍୍ରେ ରହି
ଗୋଟିଏ ଛକା ଓ 8 ଟି ଚୌକା
ସହାଯତାରେ 84 ରନ୍୍ ସଂଗ୍ରହ
କରିଥିଲେ । ଶେଷରେ ଫାଷ୍ଟ~
ବୋଲର ଆମ୍ବ୍ରାଜ୍୍ଙ୍କ ବଲ୍୍ରେ
ଗ୍ରୀନିଚିଙ୍କ ଦ୍ବାରା କଟ୍୍ଆଉଟ ହୋଇ
ୟାଇଥିଲେ । ସେହିଭଳି ଫୋଷ୍ଟର
ବେଞ୍ଜାମିନ୍୍ଙ୍କ ବଲ୍୍ରେ ଲୋଗିଙ୍କ
ଦ୍ବାରା କଟ୍୍ଆଉଟ ହୋଇଥିଲେ ।
ଅନ୍ଯମାନଙ୍କ ମଧ୍ଧରେ ଟି.କଟିସ୍୍
15 ରନ୍୍ କରି ମାର୍ଶାଲଙ୍କ ଦ୍ବାରା
ଏଲ.ବି.ଡବ୍ଯୁଲ. ଆଉଟ କଲେ 3
ରନ୍୍ରେ ବେଞ୍ଜାମିନଙ୍କ ଦ୍ବାରା
ବୋଲ୍୍ଡ ଓ ସ୍ମିଥ କୌଣସି ରନ୍୍
ନକରି ବେଞ୍ଜାମିନଙ୍କ ଦ୍ବାରା ଏଲ.ବି.
ଡବ୍ଳ୍ଯୁ ହୋଇଥିଲେ । ମେନାର୍ଡ 10 ,
କାପେଲ 12 , ରିଚାର୍ଡସ 3 ,
ପ୍ରିଙ୍ଗଲ 8 , ଡେଫ୍ରେଟାସ କୌଣସି
ରନ୍୍ ନକରି ଆଉଟ ହୋଇଥିବା
ବେଳେ ଚିଲ୍୍ଡସ୍୍ କୌଣସି ରନ୍୍
ନ କରି ଅପରାଜିତ ଥିଲେ ।</p>

<p>ଇଂଲଣ୍ଡର ଦ୍ବିତୀଯ ଇନିଙ୍ଗ୍୍ସ
202 ରନ୍୍ରେ ସମାପ୍ତ ହୋଇ~
ୟିବା ପରେ ଜିତିବାଲାଗି 225
ରନ୍୍ ଆବଶ୍ଯକ କରି ଵେଷ୍ଟଇଣ୍ଡିଜ
ଦଳ ବ୍ଯାଟିଙ୍ଗ ଆରମ୍ଭ କରିଥିଲେ ।
ଗତକାଲି ଵେଷ୍ଟଇଣ୍ଡିଜ ଦଳ
ଖେଳ ଶେଷସୁଦ୍ଧା କୌଣସି ଉଇ~
କେଟ ନ ହରାଇ ଗ୍ରିନିଜଙ୍କର 53
ରନ୍୍ ଓ ହେନସ୍୍ଙ୍କର 15 ରନ୍୍
ସହାଯତାରେ 71 ରନ ସଂଗ୍ରହ
କରିଛି ।</p>

<p>ଆର୍କିଟେକ୍୍ଚରାଲ ଆସୋସିଏସନ
ପକ୍ଷରୁ ଧାରଣା ଓ ଅନଶନ
ଓଡିଶା ଆର୍କିଟେକଚରାଲ ଆସି~
ଷ୍ଟାଣ୍ଟସ୍୍ ଆସୋସିଏସନର ଶତାଧିକ
ସଦସ୍ଯ ସେମାନଙ୍କର ପାଞ୍ଚଦଫା
ଦାବି ଉପରେ ଗତ ଦୁଇଦିନ କାଳ
ସ୍ଥାନୀଯ ପି.ଏମ.ଜି. ଛକରେ
ଧାରଣା ଓ ଅନଶନରେ ୟୋଗ
ଦେଇଥିଲେ ।</p>

<p>ସେମାନଙ୍କର ଦାବିଗୁଡିକ
ହେଲା , ମହିଳା ପଲିଟେକ୍୍ନିକ୍୍ରୁ
ଆର୍କିଟେକ୍୍ଚର ଡିପ୍ଳୋମା ହାସଲ
କରିଥିବା 120 ଜଣ ୟୁବତୀଙ୍କୁ
ତୁରନ୍ତ ଜୁନିଅର ଆର୍କିଟେକ୍୍ଟ ଭାବେ
ନିୟୁକ୍ତି ପ୍ରଦାନ , ଆର୍କିଟେକ୍୍ଚର
ଡିପ୍ଳୋମାଧାରୀଙ୍କ ପାଇଁ ଜୁନିଅର
ଇଞ୍ଜିନିଅରଙ୍କ ସମକକ୍ଷ କ୍ଯାଡର
ନିଯମ ପ୍ରଣଯନ , ସେମାନଙ୍କ ପାଇଁ
ଜୁନିଅର ଇଞ୍ଜିନିଅରଙ୍କ ସହ ସମାନ
ପଦୋନ୍ନତି ବ୍ଯବସ୍ଥାର ପ୍ରବର୍ତ୍ତନ ଓ
ଶତକଡା 30 ଭାଗ ଉଚ୍ଚପଦବୀ
ଡିପ୍ଳୋମାଧାରୀଙ୍କ ପାଇଁ ସଂରକ୍ଷିତ
ରଖାୟିବା , ସିନିଏରଟି ତଥା
ମେରିଟ ଭିତ୍ତିରେ ଚାକିରି ପ୍ରଦାନ ,
ଜୁନିଅର ଆର୍କିଟେକ୍୍ଟ ପଦବୀକୁ
ଗେଜେଟେଡ ପାହ୍ଯା ଦିଆୟିବ ।</p>

<p>ଭୂବନେଶ୍ବରରେ ଥିବା ମହିଳା
ପଲିଟେକ୍୍ନିକ୍୍ର ଛାତ୍ରମାନେ ଏହି
ଦାବିଗୁଡିକୁ ସମର୍ଥନ କରି ଏବଂ
ଭବିଷ୍ଯତରେ ସେମାନେ ପାସ୍୍
କରିବାକୁ ୟାଉଥିବାରୁ ସେମାନଙ୍କ
ନିୟୁକ୍ତି ଲାଗି ସରକାର ଆବଶ୍ଯକ
ବ୍ଯବସ୍ଥା ଗ୍ରହଣ କରିବାକୁ ଦାବିକରି
ଏହି ଧାରଣାରେ ୟୋଗ ଦେଇଥିଲେ
ବୋଲି ଛାତ୍ରୀନେତ୍ରୀ ମିସ୍୍ ପଦ୍ମାଳଯା
ମହାପାତ୍ର ମଧ୍ଧ ଜଣାଇଛନ୍ତି ।
 +&gt;*
               0 
</p></body></text></cesDoc>