<cesDoc id="ori-w-science-geography-ogo04" lang="ori">
<cesHeader type="text">
<fileDesc>
<titleStmt>
<h.title>ori-w-science-geography-ogo04.txt</h.title>
<respStmt>
<respType>Electronic file created by</respType>
<respName>Central Institute for Indian Languages, Mysore</respName>
<respType>transferred into Unicode and CES format by</respType>
<respName>"Unicodify" software by Andrew Hardie</respName>
</respStmt></titleStmt>
<publicationStmt>
<distributor>UCREL (on behalf of CIIL)</distributor>
<pubAddress>Department of Linguistics, Lancaster University, Lancaster, LA1 4YT, UK</pubAddress>
<availability region="WORLD"></availability>
<pubDate>03-08-12</pubDate>
</publicationStmt>
<sourceDesc>
<biblStruct>
<monogr>
<h.title>ପୃଥିବୀ..</h.title>
<h.author>ଶରତକୁମାର</h.author>
<imprint>
<pubPlace>India</pubPlace>
<publisher>Unknown - Book.</publisher>
<pubDate>1989</pubDate>
</imprint>
<idno type="CIIL code">ogo04</idno>
</monogr></biblStruct></sourceDesc></fileDesc>
<encodingDesc>
<projectDesc>Text collected for the CIIL Corpus, subsequently integrated into the EMILLE/CIIL Monolingual Written Corpora.</projectDesc>
<samplingDesc>Simple written text only has been transcribed. Diagrams, pictures and tables have been omitted. Sampling begins at page 1201.</samplingDesc>
<editorialDecl><conformance level="1"></conformance></editorialDecl>
</encodingDesc>
<profileDesc>
<creation><date>03-08-12</date></creation>
<langUsage>Oriya</langUsage>
<wsdUsage>
<writingSystem id="ISO/IEC 10646">Universal Multiple-Octet Coded Character Set (UCS).</writingSystem>
</wsdUsage>
<textClass>
<channel mode="w">print</channel>
<constitution type="composite"></constitution>
<domain type="public"></domain>
<factuality type="fact"></factuality>
</textClass>
<translations></translations>
</profileDesc>
<revisionDesc></revisionDesc>
</cesHeader>

<text><body>

<p>&lt;ଆକାର , ବସ୍ତୁତ୍ବ ଓ ଉତ୍ତାପ ଦୃଷ୍ଟିରୁ ସୂର୍ୟ୍ଯ ପ୍ରାଯ ସର୍ବସମ
ଅସଂଖ୍ଯ କୋଟି ନକ୍ଷତ୍ର ବିଶ୍ବ ବ୍ରହ୍ମାଣ୍ଡରେ ଅଛନ୍ତି । ଏମାନଙ୍କ ମଧ୍ଧରୁ କେତେ
ଲକ୍ଷ କୋଟିଙ୍କର ଗ୍ରହଜଗତ ଥିବା ନିଶ୍ଚିତ । ତେଣୁ ଅବିକଳ ପୃଥିବୀ ପରି
ଗ୍ରହଙ୍କର ସଂଖ୍ଯା ବିଶ୍ବବ୍ରହ୍ମାଣ୍ଡରେ ଅନ୍ତତଃ କିଛି କୋଟି ବୋଲି ନିରାପଦରେ
କୁହାୟାଇପାରେ । ଆକାର , ତାପମାତ୍ରା ଓ ବାଯୁମଣ୍ଡଳର ଗଠନ ଦୃଷ୍ଟିରୁ
ପୃଥିବୀ ସହିତ ଘନିଷ୍ଠ ମେଳ ଥିବା ଏତେ ସଂଖ୍ଯକ ଗ୍ରହଙ୍କ ମଧ୍ଧରୁ କେଉଁଠି କ'ଣ
ଜୀବନ ଩ଥିବ ? ପରିସଂଖ୍ଯାନ ଦୃଷ୍ଟିରୁ କେବଳ ବିଚାର କଲେ ଜୀବନରେ
ଅସ୍ତିତ୍ବ ଅସଂଖ୍ଯ ଗ୍ରହରେ ରହିଥିବା ସମ୍ଭବ । ସେମାନଙ୍କ ମଧ୍ଧରୁ ହଜାର
ହଜାର ସଂଖ୍ଯକ ଗ୍ରହରେ ମନୁଷ୍ଯ , ଏପରିକି ମନୁଷ୍ଯ ଠାରୁ ଅଧିକ ଉନ୍ନତ
ପ୍ରାଣୀ ନିଶ୍ଚଯ ଥିବେ । ଆମେ ଏପରି ଭାଷାର ଆଶ୍ରଯ ନେବାକୁ ବାଧ୍ଧ ।
କାରଣ ଏ ପର୍ୟ୍ଯନ୍ତ ସୌରଜଗତ ବାହାରେ ଗୋଟିଏ ଗ୍ରହକୁ ଠାବ କରିବା
ସମ୍ଭବ ହୋଇନାହିଁ ।</p>

<p>ଉନ୍ନତ ଜୀବଙ୍କୁ କୋଳରେ ଧରିଥିବା ଗ୍ରହଙ୍କର ସଂଖ୍ଯା ଅନେକ -
ଏ ମତ ସପକ୍ଷରେ ୟୁକ୍ତି ଆପାତତଃ ଅକାଟ୍ଯ । ମାତ୍ର ଏହାର ବିପକ୍ଷରେ ଥିବା
ୟୁକ୍ତି ଦୁର୍ବଳ ନୁହେଁ ! ସଂସାରରେ କୋଟି କୋଟି ମଣିଷ , କିନ୍ତୁ ଅବିକଳ
ସମାନ ଦି ଜଣ ବ୍ଯକ୍ତି ମିଳନ୍ତି ନାହିଁ । ଜାଆଁଳା ଭାଇଙ୍କ ମଧ୍ଧରେ ଘନିଷ୍ଠ
ସାମଞ୍ଜସ୍ଯ ଅଛି , ଗ୍ରହଙ୍କର କିନ୍ତୁ ଜାଆଁଳା ଭାଇ ନଥାଏ ! ସମତା ବିଶ୍ବର
ନିଯମ ନୁହେଁ । ତେଣୁ ମନୁଷ୍ଯ ବା ସେହି ପର୍ୟ୍ଯାଯର ପ୍ରାଣୀଯ ପ୍ରାଣୀକୁ କୋଳରେ
ଧରିଥିବା ପର୍ୟ୍ଯନ୍ତ ସାମଞ୍ଜସ୍ଯ ଥିବା ହଜାର ହଜାର ଗ୍ରହ ଅଛନ୍ତି ବୋଲି କିପରି
ନିଶ୍ଚିତ ହେବା ? ବରଂ ଅବିକଳ ପୃଥିବୀ ପରି ଦ୍ବିତୀଯ ଗ୍ରହଟିଏ ଅଛି ବୋଲି
ଦମ୍ଭର ସହିତ କହିଦେବ ନାହିଁ ।</p>

<p>ସୌରଜଗତର ଩ଅଟି ଗ୍ରହ ମଧ୍ଧରୁ ପୃଥିବୀ ବ୍ଯତୀତ କେଉଁଠି
ଜୀବନ ନାହିଁ । ପୃଥିବୀର ଦୁଇଟି ପଡୋଶୀ ଗ୍ରହ ମଙ୍ଗଳ ଓ ଶୁକ୍ରରେ ଜୀବନ~
ଅଛି ବୋଲି ନିକଟ ଅତୀତ ପର୍ୟ୍ଯନ୍ତ ମନେ କରାୟାଉଥିଲା । ମଙ୍ଗଳରେ କେବଳ
ଇତର ପ୍ରାଣୀ ନୁହଁନ୍ତି , ମନୁଷ୍ଯ ପରି ବୁଦ୍ଧିମାନ ପ୍ରାଣୀ ଅଛନ୍ତି ବୋଲି
ଊନବିଂଶ ଶତାବ୍ଦୀର ଶେଷ ଭାଗ ପର୍ୟ୍ଯନ୍ତ ଥିବା ଦୃଢ ବିଶ୍ବାସ କ୍ରମଶଃ ଶିଥିଳ
ହୋଇ ବିଂଶ ଶତାବ୍ଦୀର ମଧ୍ଧ ଭାଗରେ ଲୋପ ପାଇଲା । ବିଂଶ ଶତାବ୍ଦୀର
ସପ୍ତମ ଦଶକରେ ରୁଷିଆ ଓ ଆମେରିକା ଦ୍ବାରା ପ୍ରେରିତ ଅନେକ ମହାକାଶୟାନ
ମଙ୍ଗଳର ଫଟୋ ଉଠାଇଛନ୍ତି । ଏ ସବୁ ଫଟୋଚିତ୍ରରୁ ମଙ୍ଗଳରେ ଜୀବନର
ଅସ୍ତିତ୍ବ ସମ୍ପର୍କରେ କୌଣସି ସୂତ୍ର ମିଳେନାହିଁ । ଖ୍ରୀଷ୍ଟାବ୍ଦ 1975 ଅଗଷ୍ଟ
ମାସରେ ଆମେରିକା ପ୍ରେରିତ ଭିକିଙ୍ଗୟାନ ମଙ୍ଗଳ ପୃଷ୍ଠରେ ଓହ୍ଲାଇଥିଲା ।
ମଙ୍ଗଳର ମାଟିକୁ ପରୀକ୍ଷା କରି ଭିକିଙ୍ଗ ୟେଉଁ ରିପୋର୍ଟ ପୃଥିବୀକୁ ପଠାଇଛି
ସେଥିରୁ ଜଣାୟାଏ , ୟେ ମଙ୍ଗଳରେ ସାମାନ୍ଯ ବ୍ଯାକ୍ଟିରିଯା ମଧ୍ଧ ନାହିଁ ।
ତେଣୁ ଅନ୍ଯ ଜୀବ ଅସ୍ତିତ୍ବ ପ୍ରଶ୍ନ ଉଠୁନାହିଁ ।</p>

<p>ଅଷ୍ଟାଦଶ , ଉନବିଂଶ ଶତାବ୍ଦୀର ଯୁରୋପୀଯମାନେ ମଙ୍ଗଳରେ
ଜୀବଜଗତର ଅସ୍ତିତ୍ବ ସମ୍ପର୍କରେ ଅତ୍ଯାଧିକ ଆଶାବାଦୀ ହୋଇପଡିବା ମୂଳରେ
ବିଶେଷ ୟୁକ୍ତି ନଥିଲା । ଥିଲା ପ୍ରଚୁର ସ୍ବାଦିଷ୍ଟ ବିଶ୍ବାସ ଓ ତଦ୍୍ଜନିତ ମୋହ ।
ସ୍ବଳ୍ପ ଶକ୍ତିଶାଳୀ ଟେଲିସ୍କୋପରେ ମଙ୍ଗଳର କେତୋଟି କଳାଦାଗ ମଣିଷକୁ
ମେଘପରି ଦିଶିଲା । କଳାରେଖାମାନ ଦେଖାଗଲେ କେନାଲ ପରି ! କେନାଲ
ଦେଖିଲାପରି ବୁଦ୍ଧିମାନ ପ୍ରାଣୀର ଅସ୍ତିତ୍ବ ଆପେ ପ୍ରମାଣିତ ହୋଇଗଲା ।
ବାସ୍ତବ ସତ୍ଯ କିନ୍ତୁ ବଡ କଠୋର । ପୃଥିବୀର ଦୁଇପଟେ ଥିବା ମଙ୍ଗଳ ଓ ଶୁକ୍ର
ତା'ର ଏତେ ନିକଟ , ଅଥଚ ଜୀବନରେ ସହାଯକ ହେବା ଦୃଷ୍ଟିରୁ ପୃଥିବୀ ଠାରୁ
ଅନେକ ଭିନ୍ନ ! ପ୍ରଥମ କଥା ଏ ଦୁଇ ଗ୍ରହରେ ଜଳ ତରଳ ଅବସ୍ଥାରେ
ରହିବାକୁ ଅକ୍ଷମ । ଶୁକ୍ରରେ ଜଳ ବାଷ୍ପ ଓ ମଙ୍ଗଳରେ ବରଫ ହୋଇୟିବ ।
ତେବେ ଅଢେଇଶହ କୋଟି ବର୍ଷ ପୂର୍ବେ ମଙ୍ଗଳରେ ଜଳ ଥିଲା । ଏକଦା ଥିବା
ମଙ୍ଗଳରେ ନଦୀକୁ ଆବିଷ୍କାର କରାୟାଇଛି । ବର୍ତ୍ତମାନ ମଙ୍ଗଳରେ ୟେ କେବଳ
ଜଳ ନାହିଁ ସେତିକି ନୁହେଁ , ଅମ୍ଳଜାନ ମଧ୍ଧ ନାହିଁ କହିଲେ ଚଳେ । ଅମ୍ଳଜାନର
ପରିମାଣ ଶତକଡା 0.1 ଓ ଅଙ୍ଗାରକାମ୍ଳର ପରିମାଣ ଶତକଡା 95 ଅଟେ ।
ଶୁକ୍ରର ବାଯୁମଣ୍ଡଳ ମଧ୍ଧ ଜୀବନ ପ୍ରତି ବଡ ପ୍ରତିକୂଳ । ଶୁକ୍ର ପୃଷ୍ଠ ଏତେ ଉତ୍ତପ୍ତ
ୟେ ସେଠି କେବଳ ତରଳ ସୀସାରେ ପୁଷ୍କରିଣୀ ରହିଛି । //
ପୃଥିବୀର ଗଠନ ବିନ୍ଯାସ
ପୃଥିବୀ ସୌରଜଗତର ଏକ ମଧ୍ଧମ ଆକାରର ଗ୍ରହ । ପୃଥିବୀ ବର୍ତ୍ତୁ~
ଳାକାର କିନ୍ତୁ ଗୋଟିଏ ନିଖୁଣ ଗୋଲକ ନୁହେଁ । କେନ୍ଦ୍ର ମଧ୍ଧ ଦେଇ ଦୁଇ
ମେରୁକୁ ୟୋଗ କରୁଥିବା ବ୍ଯାସ ଠାରୁ ବିଷୁବ ରେଖା ଉପରିସ୍ଥ ଗୋଟିଏ
ବିନ୍ଦୁରୁ କେନ୍ଦ୍ର ମଧ୍ଧ ଦେଇ ୟାଇଥିବା ବ୍ଯାସର ଦୈର୍ଘ୍ଯ ପ୍ରାଯ ଚାଳିଶ କିଲୋ~
ମିଟର ବଡ । ପୃଥିବୀର ହାରାହାରି ବ୍ଯାସାର୍ଦ୍ଧ 6370 କିଲୋମିଟର । ବସ୍ତୁତ୍ବ
6595 ନିଯୁତ ନିଯୁତ ଟନ । ହାରାହାରି ସାନ୍ଧ୍ରତା ଘନସେଣ୍ଟିମିଟର
ପ୍ରତି 5.522 ଗ୍ରାମ୍୍ ।</p>

<p>ଏୟାବତ୍୍ ମଣିଷ ଏଗାର କିଲୋମିଟର ଗଭୀରତା ପର୍ୟ୍ଯନ୍ତ ଖୋଳି~
ପାରିଛି । ଚାରି କିଲୋମିଟର ଗଭୀରକୁ ୟାଇପାରିଛି । ତେଣୁ କହିବା ବାହୁଲ୍ଯ ,
ପୃଥିବୀର ଆଭ୍ଯନ୍ତରୀଣ ଗଠନ କିପରି ତାହା ଖୋଳି କରି ଦେଖିବା ସମ୍ଭବ
ନୁହେଁ । ପୃଥିବୀର ଭିତର ଅପେକ୍ଷା ବାହାରେ ଥିବା ଅନନ୍ତ ମହାକାଶ ସମ୍ବନ୍ଧରେ
ବରଂ ମଣିଷର ଜ୍ଞାନ ଅଧିକ । ଶିଳାମାନଙ୍କ ମଧ୍ଧରେ ସଞ୍ଚାରିତ ହେଉଥିବା ଭୂ-~
କମ୍ପନ ତରଙ୍ଗ ଓ ଭୂ-ଗର୍ଭରୁ ଉଦ୍୍ଗାର ହେଉଥିବା ଲାଭା ଅଭ୍ଯନ୍ତର ସମ୍ପର୍କରେ
ତଥ୍ଯ ୟୋଗାନ୍ତି । ଏହାବ୍ଯତୀତ ପୃଥିବୀର ମାଧ୍ଧାକର୍ଷଣ କ୍ଷେତ୍ର , ଚୁମ୍ବକୀଯ କ୍ଷେତ୍ର
ଓ ତାପଜ କ୍ଷେତ୍ରରେ ଅଧ୍ଧଯନରୁ ତାର ଅଭ୍ଯନ୍ତର ସମ୍ପର୍କରେ ତଥ୍ଯ ମିଳେ ।</p>

<p>ଭୂବିଜ୍ଞାନୀମାନେ ପୃଥିବୀକୁ ତିନୋଟି ଅଂଶରେ ବିଭକ୍ତ କରିଛନ୍ତି ।
ବକଳ , ମାଣ୍ଟଲ ଓ କୋର । ବକଳ
ପୃଥିବୀର ଚମ ପରି । ସମୁଦ୍ର ତଳ ବକଳର ହାରାହାରି ମୋଟେଇ ସାତ କିଲୋ~
ମିଟର । ଅଧିକାଂଶ ସ୍ଥାନରେ ଏହା ପାଞ୍ଚରୁ ଏଗାର କିଲୋମିଟର ଭିତରେ ।
ସ୍ଥଳ ଭାଗ ବକଳର ମୋଟେଇ ହାରାହାରି 35 ରୁ 40 କିଲୋମିଟର ।
ଉପତ୍ଯକା ଅଞ୍ଚଳର ବକଳ ମୋଟେଇ କମ୍୍ । ହିମାଳଯ ପାଖରେ ବକଳ
ମୋଟେଇ ନବେ କିଲୋମିଟର । ପୃଥିବୀର ବକଳର ବସ୍ତୁତ୍ବ ସମୁଦାଯ ପୃଥିବୀ
ବସ୍ତୁତ୍ବର ଶତକଡା 0.4 ଭାଗ ।</p>

<p>ବକଳ ତଳକୁ ଗୋଟିଏ ମୋଟା ସ୍ତର ଅଛି ଓ ତାହା ମାଣ୍ଟଲ
ନାମରେ ପରିଚିତ । ମାଣ୍ଟଲ ସମୁଦାଯ ପୃଥିବୀର ଘନଫଳର ଶତକଡା 82
ଭାଗ ଓ ବସ୍ତୁତ୍ବ ଶତକଡା 67 ଭାଗ । ବକଳର ସୀମା ସରି ମାଣ୍ଟଲର ସୀମା
ଆରମ୍ଭ ହେଲେ ଗୋଟାଏ ନୂଆ ଓ ଭିନ୍ନ ଇଲାକା ଆରମ୍ଭ ହେଲା ବୋଲି ଧରା~
ପଡିୟାଏ । ଏଇ କଥା ପ୍ରଥମେ ଆବିଷ୍କାର କରିଥିଲେ ୟୁଗୋସ୍ଳୋଭିଆର ବିଜ୍ଞାନୀ
ମୋହୋରୋଭିସିସି 1909 ଖ୍ରୀଷ୍ଟାବ୍ଦରେ । ସେ ଲକ୍ଷ୍ଯ କରିଥିଲେ ୟେ , ସାଇଜ~
ମୋଗ୍ରାଫ ନାମକ ୟନ୍ତ୍ରରେ ମପାୟାଉଥିବା ଭୂକମ୍ପନ ତରଙ୍ଗର ବେଗ ଓ ଦିଗ
ହଠାତ୍୍ ଗୋଟିଏ ଗଭୀରତାରେ ବଦଳିୟାଉଛି । ଅଳ୍ପ ଗଭୀରତାରେ ଭୂ-ପୃଷ୍ଠ
ଟାଣ । ତେଣୁ ଭୂକମ୍ପନ ତରଙ୍ଗର ବେଗ ଧୀର । ଗୋଟିଏ ସୀମା ଟପିଗଲେ
ଭୂକମ୍ପନ ତରଙ୍ଗର ବେଗ ବଢିୟାଉଛି ଳକ୍ଷ୍ଯ କରି ମୋହୋରୋଭିସିସି ସିଦ୍ଧାନ୍ତ
କରିଥିଲେ ୟେ ସେହିଠାରୁ ଗୋଟିଏ ନୁଆ ଭୂସ୍ତର ଆରମ୍ଭ ହୋଇୟାଉଛି ।
ଆବିଷ୍କାରକଙ୍କ ନାମାନୁସାରେ ବକଳ ଓ ମାଣ୍ଟଲକୁ ପୃଥକ କରୁଥିବା ସୀମା
ମୋହୋ ବିଚ୍ଛିନ୍ନତା ନାମରେ ପରିଚିତ ।</p>

<p>ବକଳର ଶେଷ ସୀମାରୁ 2250 କିଲୋମିଟର ଗଭୀରତା ପର୍ୟ୍ଯନ୍ତ
ମାଣ୍ଟଲ ବ୍ଯାପ୍ତ । ଅନ୍ଯ ଭାଷାରେ , ବକଳର ମୋଟେଇକୁ ଚାଳିଶ କିଲୋମିଟର
ଧରିଲେ ମାଣ୍ଟଲର ମୋଟେଇ 250 କିଲୋମିଟର । ମାଣ୍ଟଲର ସ୍ତର ସରିଗଲେ
ଆଉ ଏକ ନୂତନ ସ୍ତର ଆରମ୍ଭ ହୋଇୟାଏ । ୟାହାକି କୋର ନାମରେ
ପରିଚିତ । ଏକଥା କିପରି ଜଣାଗଲା ? ଦେଖାୟାଇଛି ୟେ ଅନେକ ଗଭୀରତାରେ
ଭୂକମ୍ପନ ତରଙ୍ଗର ବେଗ ଓ ଦିଗରେ ପୁଣି ହଠାତ୍୍ ପରିବର୍ତ୍ତନ ହେଉଛି ।
ୟେଉଁ ଗଭୀରତାରୁ ଏହା ହେଉଛି ସେଇଠାରୁ ଏକ ନୂତନ ସ୍ତର ଆରମ୍ଭ ବୋଲି
ଧରାୟିବା ସ୍ବାଭାବିକ । ଅଧିକ ଗଭୀରତାରେ ୟେଉଁଠି ଭୂକମ୍ପନର ହଠାତ୍୍
ପରିବର୍ତ୍ତନ ହୁଏ , ତାହା ଆବିଷ୍କାରକଙ୍କ ନାମାନୁସାରେ ଗଟେନବର୍ଗ ବିଚ୍ଛିନ୍ନତା
ନାମରେ ପରିଚିତ । ଭୂପୃଷ୍ଠରୁ 2290 କିଲୋମିଟର ଗଭୀରତା ଟପିବା ପରେ
କୋର ଆରମ୍ଭ । ଏହି ଗଭୀରତାରୁ କେନ୍ଦ୍ର ପର୍ୟ୍ଯନ୍ତ କୋର ବ୍ଯାପ୍ତ । କୋରର
ସମୁଦାଯ ମୋଟେଇ 3420 କିଲୋମିଟର । କୋର ପୁଣି ଦୁଇ ଭାଗରେ ବିଭକ୍ତ ।
ଉପର କୋର ଓ ତଳ କୋର । ଉପର କୋରର ମୋଟେଇ 1820 କିଲୋ~
ମିଟର । ତଳ କୋର କେନ୍ଦ୍ର ଠାରୁ 1600 କିଲୋମିଟର ପର୍ୟ୍ଯନ୍ତ ବ୍ଯାପ୍ତ । //
ଗୋଟିଏ ନିର୍ଦ୍ଦିଷ୍ଟ ତାପରେ କେତେକ ବସ୍ତୁ
କଠିନ ଓ କେତେକ ତରଳ ଅବସ୍ଥାରେ ରହନ୍ତି । ଓଜନିଆ ବସ୍ତୁ ତରଳ
ହେଲେ ଉପରକୁ ଉଠିୟାଏ , ଅପେକ୍ଷାକୃତ ହାଲୁକା ବସ୍ତୁ ତରଳ ରହିୟାଏ ।
ମୋଟ ଉପରେ ନାନା ପ୍ରକାର ମିଶାମିଶି ଓ ଓଲଟପାଲଟ ହେବାପରେ
ପୃଥିବୀ ଗୋଟିଏ ସ୍ଥିର ରୂପ ନେଇଛି । ପୃଥିବୀର ଶତକଡା 35 ଭାଗ ଲୁହା ।
କୋର ଲୌହଗଠିତ । ଲୁହା ଓଜନିଆ ସତ ମାତ୍ର ତା' ଠାରୁ ଓଜନିଆ
ଧାତୁ ଭୂପୃଷ୍ଠରେ ବା ଅଳ୍ପ ଗଭୀରତାରେ ଅଛି । ଯୁରାନିଯମ୍୍ ଓ ଥୋରିଯମ୍୍
ପରି ତେଜସ୍କ୍ରିଯ ମୌଳିକ ସବୁଠାରୁ ଓଜନିଆ ବସ୍ତୁ କିନ୍ତୁ ଭୂପୃଷ୍ଠରେ ମିଳନ୍ତି ।
ମୁକ୍ତ ଅବସ୍ଥାରେ ନୁହେଁ ଅବଶ୍ଯ । ଯୁରାନିଯମ ଓ ଥୋରିଯମ୍୍ ଅମ୍ଳଜାନ
ସହିତ ମିଶି ଅପେକ୍ଷାକୃତ ହାଲୁକା ଅକ୍୍ସାଇଡ୍୍ ରୂପେ ପୃଷ୍ଠ ଦେଶରେ
ବିଦ୍ଯମାନ । ତେଜସ୍କ୍ରିଯ ପଦାର୍ଥ ପୃଷ୍ଠ ପାଖାପାଖି ଥିବାରୁ କିଛି ଉତ୍ତାପ ସୃଷ୍ଟି
ହେଉଥାଏ । ଏହି କାରଣରୁ ଗୋଟିଏ ସୀମା ପର୍ୟ୍ଯନ୍ତ ଭୂପୃଷ୍ଠରୁ ଗଭୀରତା
ଶହେ ମିଟର ବଢିବା ସହିତ ତାପମାତ୍ରା ଏକଡିଗ୍ରୀ ବଢୁଥାଏ ।</p>

<p>ସୂର୍ୟ୍ଯ ଓ ପୃଥିବୀ ଗୋଟିଏ ନେବୁଲାରୁ ସୃଷ୍ଟି ହୋଇଛନ୍ତି ।
ତେବେ ଦୁହିଁଙ୍କ ମଧ୍ଧରେ ଏତେ ଅସାମଞ୍ଜସ୍ଯ କିପରି ? ଉଦ୍୍ଜାନ ଓ ହିଲିଯମ୍୍
ମିଶି ସୂର୍ୟ୍ଯର ଶତକଡା 98 ଭାଗ । ପୃଥିବୀରେ ଏ ଦୁଇଟି ଗ୍ଯାସ ପ୍ରାଯ
ନାହିଁ । ସେମାନେ ପ୍ରଥମରୁ ଥିଲେ ମାତ୍ର ପୃଥିବୀର ମାଧ୍ଯାକର୍ଷଣ ସେମାନଙ୍କୁ
ଧରି ପାରିଲା ନାହିଁ କିମ୍ବା ସେମାନେ ପୃଥିବୀର ଜନ୍ମକାଳରୁ ଅନୁପସ୍ଥିତ ,
ସେ ବିଷଯ ନେଇ ମନାନ୍ତର ରହିଛି । ତେବେ ଗୋଟିଏ କଥା ବିସ୍ମଯଜନକ ।
ଉଦ୍୍ଜାନ ଓ ହିଲିଅମ୍୍କୁ ବାଦ୍୍ଦେଲେ ବାକି ସୂର୍ୟ୍ଯର ଶତକଡା ଦୁଇ
ଅଂଶର ଉପାଦାନମାନେ ୟେଉଁ ଅନୁପାତରେ ଅଛନ୍ତି , ପୃଥିବୀରେ ସେହି
ଉପାଦାନ ସବୁ ଅଛନ୍ତି ଓ ପ୍ରାଯ ସେହି ଅନୁପାତରେ ଅଛନ୍ତି !</p>

<p>ଜନ୍ମ ବୃତ୍ତାନ୍ତ
ପୃଥିବୀ କେବେ ଓ କିପରି ସୃଷ୍ଟି ହେଲା ଏ ପ୍ରଶ୍ନ ଅତୀତ ୟୁଗର
ମଣିଷଙ୍କ ପାଇଁ ଏତେ ବଡ ୟେ ଏହାର ଉତ୍ତର ଦେବାକୁ ୟାଇ ସେମାନେ
ୟାହା ସବୁ କହିଛନ୍ତି ସେ ସବୁ ଆମକୁ ଆମୋଦିତ କରେ , କୌତୁକ ଲାଗେ ।
ଆଧୁନିକ ବିଜ୍ଞାନ ୟୁଗ ଆରମ୍ଭ ହେଲା ପରେ ୟାଇ ମଣିଷ ଏ ପ୍ରକାର ପ୍ରଶ୍ନର
ମୁକାବିଲା କରିବାକୁ ସମର୍ଥ ହୋଇଛି । ଅଷ୍ଟାଦଶ ଓ ଊନବିଂଶ ଶତାବ୍ଦୀରେ
ଗ୍ରହମାନଙ୍କ ସୃଷ୍ଟି ସମ୍ବନ୍ଧରେ ଦୁଇ ପ୍ରକାର ମତବାଦ ପ୍ରଭାବଶାଳୀ ହୋଇଥିଲା ।
ଗୋଟିଏ ହେଉଛି , ଏକ ଭଯଙ୍କର ମହାଜାଗତିକ ଘଟଣା ଫଳରେ ଗ୍ରହମାନେ
ଅପ୍ରତ୍ଯାଶିତ ଭାବେ ହଠାତ୍୍ ସୃଷ୍ଟି ହୋଇଛନ୍ତି । ଫରାସୀ ବିଜ୍ଞାନୀ ବୁଫନ୍୍
( 1707 - 88 ) ଏହି ଜାତୀଯ ମତବାଦର ପ୍ରଥମ ବିଶିଷ୍ଟ ପ୍ରବକ୍ତା । ସେ
କହିଥିଲେ , ସୂର୍ୟ୍ଯ ସହିତ ଗୋଟିଏ ଧୂମକେତୁର ଧକ୍୍କା ହେବା ଫଳ଱େ
ତାହା ଭାଙ୍ଗିୟାଇ ଗ୍ରହମାନଙ୍କୁ ସୃଷ୍ଟି କରିଛି । ଧୂମକେତୁ ଅତି ପତଳା ଧୂଳିରେ
ଗଢା ବୋଲି ଜଣାପଡିବା ପରେ ଏହି ମତଟି କଟିଗଲା । ତେବେ ବୁଫନ୍୍ଙ୍କ
ମତକୁ ସଂଶୋଧନ କରି କୁହାଗଲା ୟେ , ସୂର୍ୟ୍ଯ ସହିତ ଆଉ ଗୋଟିଏ ନକ୍ଷତ୍ରର
ଧକ୍୍କା ହୋଇ ଗ୍ରହମାନେ ସୃଷ୍ଟି ହୋଇଛନ୍ତି ।</p>

<p>ନିଉଟନ୍୍ ଦ୍ବିତୀଯ ପ୍ରକାର ମତବାଦର ନେତା । ତାଙ୍କ ମତରେ
ଗୋଟିଏ ଗ୍ଯାସୀଯ ବାଦଲଖଣ୍ଡ ଘନୀଭୂତ ହୋଇ ଗ୍ରହମାନଙ୍କୁ ସୃଷ୍ଟି କରିଛି ।
ଏ ବିଚାର ବିବର୍ତ୍ତନମୂଳକ । ପ୍ରଖ୍ଯାତ ଜର୍ମାନ ଦାର୍ଶନିକ ଇମାନୁଏଲ କାଣ୍ଟ
( 1724 - 1804 ) ଗୋଟିଏ ଏହି ପ୍ରକାର ତତ୍ତ୍ବ ପରିବେଷଣ କରିଥିଲେ ।
ତାଙ୍କ ମତରେ ଗୋଟିଏ ନେବୁଲାରୁ ସୌରଜଗତର ସୃଷ୍ଟି । ଖ୍ରୀଷ୍ଟାବ୍ଦ 1796
ରେ ବିଖ୍ଯାତ ଫରାସୀ ଗଣିତଜ୍ଞ ଲାପ୍ଳାସେ ୟୁକ୍ତି ପ୍ରମାଣ ସହ ଗ୍ରହଙ୍କର
ନେବୁଲାର ସୃଷ୍ଟି ତତ୍ତ୍ବ ପରିବେଷଣ କଲେ । ଏଇଟି କାଣ୍ଟ-ଲାପ୍ଳାସେ ନେବୁଲାର
ତତ୍ତ୍ବ ନାମରେ ସୁପରିଚିତ । //
ଅଜାଗାରେ ମିଳୁଥିବା ଉଦ୍ଭିଦ ବା ପ୍ରାଣୀଙ୍କ ଫସିଲ୍୍ ଚଳମାନ
ମହାଦେଶ ସପକ୍ଷରେ ୟେଉଁ ପ୍ରମାଣ ଧରି ଉଭା ହୁଅନ୍ତି , ତା'ଠାରୁ ଅଧିକ
ବଳିଷ୍ଠ ପ୍ରମାଣ ଚୁମ୍ବକ ଫସିଲ୍୍ ୟୋଗାଇଛନ୍ତି । ଚୁମ୍ବକ ଫସିଲ୍୍ ଜିନିଷଟି
କ'ଣ ? ଅଧିକାଂଶ ଶିଳାରେ ଅତି କ୍ଷୁଦ୍ର ଚୁମ୍ବକ କଣିକା ଅଛି । ଏହି ଚୁମ୍ବକ
କଣିକା ହେଉଛି ଲୌହ ଟିଟାନିଯମ୍୍ ଅକ୍୍ସାଇଡ୍୍ । ଗୋଟିଏ କ୍ଯାମ୍ପସ୍୍ ୟେପରି
ଚୁମ୍ବକୀଯ ଉତ୍ତର ଦକ୍ଷିଣ ଦିଗରେ ସଜାଡି ହୋଇୟାଆନ୍ତି । କଥାହେଉଛି
ଚୁମ୍ବକୀଯ ମେରୁଦ୍ବଯ ସ୍ଥିର ନାହାନ୍ତି । ଅତୀତର ଚୁମ୍ବକୀଯ ମେରୁ ବର୍ତ୍ତମାନର
ଚୁମ୍ବକୀଯ ମେରୁଠାରୁ ଭିନ୍ନବିନ୍ଦୁରେ ଅବସ୍ଥିତ ଥିଲେ । ତେଣୁ ଗୋଟିଏ ଶିଳାର
ଗଠନ କାଳରେ ଚୁମ୍ବକୀଯ ମେରୁ ୟେପରି ଥିଲେ ତଦନୁୟାଯୀ ଶିଳାସ୍ଥ ଚୁମ୍ବକ
କଣିକା ସଜାଡି ହୋଇଥାଆନ୍ତି । ଗୋଟିଏ ଅକ୍ଷାଂଶରେ ଚୁମ୍ବକ କଣିକା ନିର୍ଦ୍ଦେଶ
କରୁଥିବା ଦିଗରୁ ଶିଳାର ବଯସ ଗଣନା କରାୟାଇଥାଏ । ଚୁମ୍ବକ କଣିକାଙ୍କ
ଚୁମ୍ବକତ୍ବ ଦୀର୍ଘକାଳ ସ୍ଥାଯୀ । ଏପରିକି ଶହେକୋଟି ବର୍ଷ ପୂର୍ବର ଶିଳାରେ
ଚୁମ୍ବକ କଣିକାଙ୍କ ଚୁମ୍ବକତ୍ବ ମପାୟାଇ ପାରିଛି । ଅତି ପ୍ରାଚୀନ ହୋଇଥିବାରୁ
ଚୁମ୍ବକ କଣିକା ଚୁମ୍ବକ ଫସିଲ୍୍ ନାମରେ ପରିଚିତ ।</p>

<p>ବିଂଶ ଶତାବ୍ଦୀର ପଞ୍ଚମ ଦଶକରେ ଅତି ସୂକ୍ଷ୍ମ ଚୁମ୍ବକତ୍ବକୁ ମାପିବା ପରି
ୟନ୍ତ୍ର ଆବିଷ୍କୃତ ହୋଇଛି । ବିଜ୍ଞାନୀମାନେ ବହୁ ଶିଳାକୁ ପରୀକ୍ଷାକରି ଦେଖିଛନ୍ତି ୟେ ,
ଗୋଟିଏ ଅକ୍ଷାଂଶରେ ଅତୀତର ଗୋଟିଏ ୟୁଗର ଶିଳାର ଚୁମ୍ବକ ଫସିଲ୍୍
ୟେଉଁ ଚୁମ୍ବକୀଯ ଉତ୍ତର ଦକ୍ଷିଣ ଦିଗ ଦେଖାଇବା କଥା , ତାହା ଦେଖାଉ
ନାହାନ୍ତି । ତାର କାରଣ , ସେମାନେ ଜାଣିପାରନ୍ତି ୟେ , ଶିଳାଟି ତାର ସୃଷ୍ଟି~
କାଳର ଅକ୍ଷାଂଶରେ ସ୍ଥିର ରହିଥିଲେ ଚୁମ୍ବକ ଫସିଲସବୁ ସେ କାଳର
ସେହି ଅକ୍ଷାଂଶର ଚୁମ୍ବକୀଯ ଉତ୍ତର ଦକ୍ଷିଣ ଦିଗ ଦେଖାନ୍ତେ । ଚଳନ୍ତି ଭୂପୃଷ୍ଠ
ଶିଳାଙ୍କୁ ସେମାନଙ୍କ ସୃଷ୍ଟି ସ୍ଥାନରେ ବାନ୍ଧି ରଖିନାହିଁ ।</p>

<p>ଚଳମାନ ମହାଦେଶ
ବର୍ତ୍ତମାନର ସମସ୍ତ ମହାଦେଶ ମିଶିକରି ପାନ୍୍ଗିଆ ଗଠନ
କରିଥିଲେ । ସେତେବେଳେ ଗୋଟିଏ ବିଶାଳ ଭୂଖଣ୍ଡ ପରି ଗୋଟାଏ ବିଶାଳ
ସମୁଦ୍ର ଥିଲା । ତାକୁ ପାନ୍ଥାଲାସା କୁହାୟାଏ । ପାନ୍ଥାଲାସା ପାନ୍୍ଗିଆକୁ ଘେରି
ରହିଥିଲା । ଅନେକ ନିଯୁତ ବର୍ଷ ଅଖଣ୍ଡ ରହିବା ପରେ ପାନ୍୍ଗିଆ
ଦିଖଣ୍ଡ ହୋଇଥିଲା । ଏହା ପ୍ରାଯ ଦୁଇଶହ ନିଯୁତ ବର୍ଷ ପୂର୍ବର କଥା ।
ପାନ୍୍ଗିଆର ଏକ ସଂକୀର୍ଣ୍ଣ ଅଂଶକୁ ଟେଥିସ୍୍ ସମୁଦ୍ର ନାମରେ ପାନ୍ଥାଲାସାର ଏକ
ତ୍ରିଭୂଜାକାର ବାହୁ ବୁଡାଇଦେଇ ପାନ୍୍ଗିଆକୁ ଦୁଇଖଣ୍ଡ କରିଥିଲା । ଏହି ଦୁଇ
ଆଦି ବିଶାଳ ମହାଦେଶଙ୍କର ନାମ ଲାରେସିଆ ଓ ଗୋଣ୍ଡଵାନା । ବର୍ତ୍ତମାନର
ଉତ୍ତର ଆମେରିକା , ଯୁରୋପ ଓ ଏସିଆର ଅଧିକାଂଶ ଭାଗ ଗୋଣ୍ଡଵାନାର
ଅନ୍ତର୍ଭୁକ୍ତ ଥିଲେ । ଦକ୍ଷିଣ ଗୋଲାର୍ଦ୍ଧରେ ଦକ୍ଷିଣ ଆମେରିକା , ଆଫ୍ରିକା ,
ଅଷ୍ଟ୍ରେଲିଆ , ଆଣ୍ଟାର୍କଟିକା ଓ ଭାରତକୁ ନେଇ ଲାରେସିଆ ଗଠିତ ହୋଇଥିଲା ।</p>

<p>ପ୍ରାଯ 180 ନିଯୁତ ବର୍ଷ ପୂର୍ବେ ଗୋଣ୍ଡଵାନା ତିନିଖଣ୍ଡରେ ବିଭକ୍ତ
ହେଲା । ଗୋଟିଏ ଖଣ୍ଡ ଦକ୍ଷିଣ ଆମେରିକା , ଆଫ୍ରିକା , ଆଉ ଗୋଟିଏ
ଅଷ୍ଟ୍ରେଲିଆ , ଆଣ୍ଟାର୍କଟିକା ଓ ତୃତୀଯଟି ଭାରତବର୍ଷ । ଖ୍ରୀଷ୍ଟପୂର୍ବ 135 ନିଯୁତ
ବର୍ଷ ବେଳକୁ ଦକ୍ଷିଣ ଆଟ୍୍ଲାଣ୍ଟିକ୍୍ ସୃଷ୍ଟି ହୋଇ ମଝିରେ ମାଗ୍୍ମା ନିର୍ଗତ ହେଉଛି
ଓ ଏହାରି ଦକ୍ଷିଣ ଆମେରିକା ଓ ଆଫ୍ରିକା ଭିତରେ ପଶି ଦୁଇଟି
ମହାଦେଶ ସୃଷ୍ଟି କଲା । ଭୂଖଣ୍ଡମାନେ ୟେଉଁ ବେଗରେ ଗତିକରନ୍ତି , ତାଠାରୁ
ଅସାଧାରଣ ବେଗରେ ଭାରତବର୍ଷ ଏସିଆ ଆଡକୁ ଧାଇଁଲା ଏବଂ ଖ୍ରୀଷ୍ଟପୂର୍ବ
30 ନିଯୁତ ବର୍ଷବେଳକୁ ଏସିଆ ସହିତ ଧକ୍୍କା କରି ତାର ଅଙ୍ଗୀଭୂତ ହେଲା
ଅଷ୍ଟ୍ରେଲିଆ ଓ ଆଣ୍ଟାର୍କଟିକା ବିଚ୍ଛିନ୍ନ ହୋଇୟିବା 45 ନିଯୁତ ବର୍ଷ ପୂର୍ବର
ଘଟଣା । ଏହାପରେ ଉତ୍ତର ଆମେରିକା ଓ ଯୁରୋପ ଦିଖଣ୍ଡ ହୋଇୟାଇଥିଲେ ।
ପାନ୍୍ଗିଆ ଭାଗଭାଗ ହୋଇ ସୃଷ୍ଟି ହୋଇଥିବା ମହାଦେଶମାନେ ଅତି ମନ୍ଥର
ଭାବେ ପରସ୍ପର ଠାରୁ ଦୂରେଇ ୟାଇ ବର୍ତ୍ତମାନର ପୃଥିବୀକୁ ଗଢିଛନ୍ତି ।
ପାନ୍୍ଗିଆରୁ ଖସି ଆସିବା ପରେ ଆଣ୍ଟାର୍କଟିକା ବ୍ଯତୀତ ପ୍ରତ୍ଯେକ ଭୂଖଣ୍ଡର ଗତି
ଦକ୍ଷିଣମୁହାଁ ହୋଇଛି । ଗତି କରିବା ସହିତ ସେମାନେ ଘୂରିଛନ୍ତି ମଧ୍ଧ । //
ଫୁଲନ୍ତା ପୃଥିବୀ
ଜଗତ କିପରି ଅହରହ ବଦଳି ଚାଲିଛି ତାର ଦୃଷ୍ଟାନ୍ତ ହିସାବରେ
ପ୍ରାଚୀନ ଗ୍ରୀସର ଜଣେ ବିଶିଷ୍ଟ ଦାର୍ଶନିକ ହେରୋକ୍ଳିଟସ୍୍ କହିଥିଲେ ୟେ ସମାନ
ନଦୀ ଭିତରେ ପଶି ଜଣେ ଲୋକ ଦୁଇଥର ନଦୀ ପାର ହୋଇପାରିବ ନାହିଁ ।
ବହନ୍ତା ନଦୀ ପ୍ରତି ମୁହୁର୍ତ୍ତରେ ଭିନ୍ନ । ହେରୋକ୍ଳିଟସ୍୍ଙ୍କ ଦୃଷ୍ଟାନ୍ତକୁ ବଦଳେଇ
ଆଧୁନିକ ବିଜ୍ଞାନ ସଚେତନ ମଣିଷ କହିପାରେ , ସମାନ ସମୁଦ୍ରକୁ ଜଣେ
ବ୍ଯକ୍ତି ଜାହାଜରେ ବସି ଦୁଇଥର ପାରି ହେଉନାହିଁ । କାରଣ ସମୁଦ୍ରର
ଓସାର ପ୍ରତିବର୍ଷ କେଇ ସେଣ୍ଟିମିଟର ବଢୁଛି ବା କମୁଛି !</p>

<p>ଭୂପୃଷ୍ଠ ନାନା ଭାବେ ବଦଳି ଚାଲିଛି । ସ୍ଥଳଭାଗର ଶିଳାସବୁ ଧୋଇ
ହୋଇ ସମୁଦ୍ରରେ ପଡୁଛନ୍ତି । ସାମୁଦ୍ରିକ ଲିଥୋସ୍ପିଇର ଟ୍ରେଞ୍ଚରେ ପାତାଳ~
ଗାମୀ ହୋଇ ପୃଥିବୀର ମାଣ୍ଟଲ୍୍ରେ ମିଶୁଛି । ପୁଣି ମାଗ୍୍ମା ଆକାରରେ ଆଗ୍ନେ~
ଯଗିରି ମୁହଁରୁ ନିର୍ଗତ ହୋଇ ଭୂପୃଷ୍ଠକୁ ଆଗ୍ନେଯଶିଳା ରୂପରେ ଆସୁଛି ।
ପୃଥିବୀର ଉପରିଭାଗ ଚକ୍ରବତ ଉପରତଳ ହେଉଛି । ଭୂଖଣ୍ଡମାନେ ବଢୁଛନ୍ତି
ଛିଡୁଛନ୍ତି । ମିଶୁଛନ୍ତି , ଭାଙ୍ଗୁଛନ୍ତି । କେବଳ ଆକାରଟି ବୋଧେ ସ୍ଥିର ଅଛି ।
ଆମେମାନେ ଏହିପରି ଭାବିବା ସ୍ବାଭାବିକ । ଏହି ପ୍ରସାରମାନ ବିଶ୍ବବ୍ରହ୍ମାଣ୍ଡରେ
ୟାହାହେଉ ପୃଥିବୀର ଆକାରଟି ସ୍ଥିର ଅଛି । ଅଛି କି ? ବ୍ରହ୍ମାଣ୍ଡ ପ୍ରସାରମାନ
ବୋଲି ମଣିଷ ଅର୍ଦ୍ଧଶତାବ୍ଦୀ ହେବ ଜାଣିଲେଣି । ବ୍ରହ୍ମାଣ୍ଡର ଆକାର ବଢିଚାଲିଛି ।
ନକ୍ଷତ୍ରମାନଙ୍କ ମଧ୍ଧରେ ଦୂରତ୍ବ ବଢିଚାଲିଛି । ପ୍ରତ୍ଯେକ ମହାଜାଗତିକ ପିଣ୍ଡ
ପରସ୍ପର ଠାରୁ ଦୂରେଇ ୟାଉଛନ୍ତି । ବ୍ରାହ୍ମାଣ୍ଡ ୟେ ସୀମାହୀନ ଭାବେ ଫୁଲିଥିବ
ତା ନୁହେଁ । ଗୋଟିଏ ସୀମାରେ ପହଞ୍ଚିବା ପରେ ବ୍ରହ୍ମାଣ୍ଡ ସଙ୍କୁଚିତ ହେବାକୁ
ଆରମ୍ଭ କରିବ । ପର୍ୟ୍ଯାଯକ୍ରମେ ବ୍ରହ୍ମାଣ୍ଡର ପ୍ରସାରଣ ଓ ସଙ୍କୋଚନ ଚାଲିଛି ।
ବ୍ରହ୍ମାଣ୍ଡର ବ୍ଯାପାର ଏହିପରି । ଆଉ ପୃଥିବୀ ?</p>

<p>ସକଳ ପରିବର୍ତ୍ତନ ଭିତରେ ପୃଥିବୀର ଆକାର ସ୍ଥିର ରହିଛି ବୋଲି
ସାଧାରଣ ଦୃଷ୍ଟିକୁ ୟାହା ଦେଖାୟାଏ ମଣିଷର ସୀମିତ ଜୀବନକାଳ ଓ ଦୃଷ୍ଟିଶକ୍ତି
ତାହାର କାରଣ । ବାସ୍ତବରେ ପୃଥିବୀ ଗୋଟିଏ ବେଲୁନ୍୍ପରି ଫୁଲିଚାଲିଛି ।
ବର୍ତ୍ତମାନ ପୃଥିବୀର ଜଳଭାଗ ସ୍ଥଳଭାଗର ପ୍ରାଯ ଦୁଇଗୁଣ । ସୁଦୂର ଅତୀତରେ
ଜଳଭାଗର ପରିମାଣ ଏତେ ନଥିଲା । ଏଇଠି ଗୋଟିଏ ପ୍ରଶ୍ନ ଉଠେ । ୟଦି
ମହାଦେଶମାନ ୟୋଡିହୋଇ ପାନ୍୍ଗିଆ ଗଠନ କରନ୍ତି ଏବଂ ସମୁଦ୍ର ବିହୀନ
ପୃଥିବୀର ସମଗ୍ର ପୃଷ୍ଠତଳକୁ ପାନ୍୍ଗିଆ ଅଧିକାର କରେ , ତେବେ ପୃଥିବୀର
ଆକାର କେଡେ ହେବ ? ଏହି କାଳ୍ପନିକ ପୃଥିବୀଟି ବାସ୍ତବରେ ଅତୀତରେ
କେବେ ଥିଲା କିମ୍ବା ଥିବାର ସମ୍ଭାବନା ରହିଛି ।</p>

<p>ବିଶିଷ୍ଟ ଭୂବିଜ୍ଞାନୀ ଵାରେନକାରେ ପ୍ରସାରମାନ ପୃଥିବୀ ତତ୍ତ୍ବକୁ
ପ୍ରଧାନ ପ୍ରବକ୍ତା । ବିଭିନ୍ନ ଦିଗରୁ ନାନା ଜଟିଳ ତଥ୍ଯ ଓ ୟୁକ୍ତି ସହିତ 1970
ଖ୍ରୀଷ୍ଟାବ୍ଦରେ ପ୍ରକାଶିତ ତାଙ୍କର ଗୋଟିଏ ବଡ ଗ୍ରନ୍ଥରେ ` କାରେ ' ପ୍ରମାଣ
କରିବାକୁ ଚେଷ୍ଟା କରିଥିଲେ ୟେ ପୃଥିବୀ ପ୍ରସାରମାନ । ସେତିକି ନୁହେଁ
ପୃଥିବୀର ପ୍ରସାରଣ ତତ୍ତ୍ବକୁ ` କାରେ ' ଗୋଟିଏ ଚରମ ସୀମାକୁ ନେଇଥିଲେ ।
ତାଙ୍କର ମତ ପୃଥିବୀର ଜନ୍ମ ସମଯରେ , ଅର୍ଥାତ୍୍ 460 କୋଟି ବର୍ଷ ପୂର୍ବେ
ପୃଥିବୀର ବ୍ଯାସାର୍ଦ୍ଧ 3300 କିଲୋମିଟର ଥିଲା । ଏହା ବର୍ତ୍ତମାନ ବ୍ଯାସାର୍ଦ୍ଧର
ପ୍ରାଯ ଅର୍ଦ୍ଧେକ । ଆରମ୍ଭରୁ ମହାଦେଶୀଯ ବକଳ ପୃଥିବୀକୁ ଆଚ୍ଛାଦିତ କରି
ରଖିଥିଲା । ପୃଥିବୀ ସ୍ଫୀତ ହେବା ଫଳରେ ଅଖଣ୍ଡ ବକଳ ଫାଟିଲା ଓ ମହା~
ଦେଶମାନ ସୃଷ୍ଟି ହେଲେ ।</p>

<p>ୟେଉଁ ଘଟଣାମାନଙ୍କୁ ପ୍ରସାରଣ ତତ୍ତ୍ବ ସପକ୍ଷରେ ବିଜ୍ଞାନୀମାନେ ଉପ~
ସ୍ଥାପିତ କରନ୍ତି ସେମାନଙ୍କ ମଧ୍ଧରେ ଆଫ୍ରିକା ଆଣ୍ଟାର୍କଟିକା ପ୍ରହେଳିକାଟି ଗୁରୁତ୍ବ
ପୂର୍ଣ୍ଣ । ଆଣ୍ଟାର୍କଟିକା ମହାଦେଶଟି ପ୍ରାଯ ସମ୍ପୂର୍ଣ୍ଣ ଭାବେ ମହାସାଗରୀଯ ରିକ୍୍
ଦ୍ବାରା ପରିବେଷ୍ଟିତ । ତେଣୁ ନବଗଠିତ ବକଳ ( ପ୍ରକୃତରେ ଲିଥୋସ୍ପିଅର )
ଆଣ୍ଟାର୍କଟିକା ଆଡକୁ ନିରବଚ୍ଛିନ୍ନ ଭାବେ ମାଡି ଚାଲିଛି । ମାତ୍ର ଏ ନୂଆ ଭୂପୃଷ୍ଠ
ୟାଉଛି କୁଆଡେ ? ଆଣ୍ଟାର୍କଟିକାକୁ ପରିବେଷ୍ଟନ କରି ଲିଥୋସ୍ପିଅର
ପାତାଳଗାମୀ ହେଉଥିବା ସବ୍୍ଜକ୍୍ସନ ଜୋନ୍୍ ନଥିବାରୁ ଏ ପ୍ରଶ୍ନ ତାତ୍ପର୍ୟ୍ଯପୂର୍ଣ୍ଣ ।
ପୃଥିବୀର ଆକାରକୁ ଅପରିବର୍ତ୍ତିତ ଧରିଲେ ଉତ୍୍ଥାପିତ ପ୍ରଶ୍ନର କୌଣସି
ସମାଧାନ କରିହୁଏନା । //
ଟେଞ୍ଜ ବା ଧ୍ବଂସାତ୍ମକ ପ୍ଳେଟ ଧାରରେ ଦୁଇଟି ଲିଥୋସ୍ପେରିକ୍୍ ପ୍ଳେଟ ହାବୁଡା ହୁଅନ୍ତି ଓ
ଗୋଟିଏ ଲିଥୋସ୍ପେରିକ୍୍ ପ୍ଳେଟ୍୍ ଭୂତଳଗାମୀ ହୋଇଥାଏ । ଏହି
ଭୂତଳଗାମୀ ଲିଥୋସ୍ପେରିକ୍୍ ଅଭ୍ଯନ୍ତରରେ ତରଳି ଅନ୍ଯବାଟେ ଭୂଇଁ ଫୁଟାଇ
ବାହାରିଲେ ଆଗ୍ନେଯଗିରି ଜନ୍ମହୁଏ । ପ୍ରଶାନ୍ତ ମହାସାଗର ଉପକୂଳ
ଇଣ୍ଡୋନେସିଆର ଦ୍ବୀପମାଳ , ଜାପାନ , ଵେଷ୍ଟଇଣ୍ଡିଜ୍ ଅଞ୍ଚଳରେ ଆଗ୍ନେଯଗିରି~
ମାନେ ଏହିପରି ଭାବେ ସୃଷ୍ଟି । ଧ୍ବଂସାତ୍ମକ ହେଉ , ବା ଗଠନାତ୍ମକ ହେଉ ,
କେବଳ ୟେ ଲିଥୋସ୍ପେରିକ୍୍ ପ୍ଳେଟ ଧାରରେ ଆଗ୍ନେଯଗିରି ଦେଖାୟାଏ ତା
ନୁହେଁ । ପ୍ଳେଟ ମଝିରେ ମଧ୍ଧ ଆଗ୍ନେଯଗିରି ରହିଛି । ୟେପରିକି ହାଵାଇର
ଆଗ୍ନେଯଗିରି । ହାଵାଇ ପ୍ରଶାନ୍ତ ମହାସାଗରୀଯ ପ୍ଳେଟର ମଝିରେ ଅବସ୍ଥିତ ।
ପ୍ଳେଟ ମଝିରେ ଆଗ୍ନେଯଗିରିଙ୍କ ଅବସ୍ଥିତି ଅବଶ୍ଯ ବିରଳ ।</p>

<p>ପୃଥିବୀରେ ବର୍ତ୍ତମାନ ପ୍ରାଯ ପାଞ୍ଚସହ ସକ୍ରିଯ ଆଗ୍ନେଯଗିରି ଅଛନ୍ତି ।
ସକ୍ରିଯ ଆଗ୍ନେଯଗିରିରୁ ସର୍ବଦା ଅଗ୍ନ୍ଯୁଦ୍୍ଗାର ହେଉ ନ ଥାଏ । ୟେଉଁ
ଆଗ୍ନେଯଗିରିରୁ ଅଗ୍ନ୍ଯୁଦ୍୍ଗାର ଦୀର୍ଘ କାଳ ବନ୍ଦ ହୋଇୟାଇଛି ଓ ଆଉ ସେ
ସମ୍ଭାବନା ନାହିଁ ବୋଲି ଜଣାୟାଏ ସେ ଆଗ୍ନେଯଗିରି ମୃତ । ଗୋଟିଏ
ଆଗ୍ନେଯଗିରିର ଆଯୁଷ କେତେ ମାସରୁ କିଛି ହଜାର ବର୍ଷ ପର୍ୟ୍ଯନ୍ତ
ହୋଇପାରେ । ସକ୍ରିଯ ଆଗ୍ନେଯଗିରିଙ୍କ ମଧ୍ଧରୁ ଅଳ୍ପ କେତେକଙ୍କର
ପ୍ରତିବର୍ଷ ଅଗ୍ନ୍ଯୁଦ୍୍ଗାର ହୁଏ । ଅଧିକାଂଶ ଆଗ୍ନେଯଗିରିରୁ ଅନେକ ବର୍ଷ
ବ୍ଯବଧାନରେ ଅନିଯମିତ ଭାବେ ଅଗ୍ନ୍ଯୁଦ୍୍ଗାର ହୁଏ । ଇଟାଲିର ଷ୍ଟ୍ରମ୍୍
ବୋଲି ଆଗ୍ନେଯଗିରି ଏକ ବିରଳ ବ୍ଯତିକ୍ରମ । ଏଥିରୁ ଅବିରାମ ଭାବେ
ଅଗ୍ନ୍ଯୁଦ୍୍ଗାର ହେଉଥାଏ । ଆସ୍ଥେନୋସ୍ପିଅରରୁ ଭୂପୃଷ୍ଠମୁଖୀ ମାଗ୍୍ମାର
ଖୁବ୍୍ ଅଳ୍ପ ଅଂଶ ଆଗ୍ନେଯଗିରି ବାଟେ ବାହାରିଥାଏ । ଅଧିକାଂଶ ମାଗ୍୍ମା
ଲିଥୋସ୍ପେରିକ ପ୍ଳେଟଧାରର ଫାଙ୍କରେ ଭୂପୃଷ୍ଠ ପର୍ୟ୍ଯନ୍ତ ଆସିଥାଏ ।
ଆସ୍ଥେନୋସ୍ପିଅର ବା ମାଣ୍ଟଲର ଉପରସ୍ତର ପରିବର୍ତ୍ତେ ମାଣ୍ଟଲର ନିମ୍ନସ୍ତରରୁ
ନଳୀବାଟରେ ଆଗ୍ନେଯଗିରି ମଧ୍ଧ ଦେଇ ମାଗ୍୍ମା ନିର୍ଗତ ହୁଏ ବୋଲି
ଅନେକ ବୈଜ୍ଞାନିକଙ୍କର ବିଶ୍ବାସ । ଏହି ନଳୀର ବ୍ଯାସ ଶହେ କିଲୋମିଟର
ପାଖାପାଖି ।</p>

<p>ଅନେକ ଜାଣନ୍ତି ୟେ ଆଗ୍ନେଯଗିରିରୁ ଲାଭା ନିର୍ଗତ ହୁଏ । ମାଗ୍୍ମା
ଓ ଲାଭା ମଧ୍ଧରେ ପାର୍ଥକ୍ଯ କଣ ?</p>

<p>ଆଗ୍ନେଯଗିରିରୁ କଠିନ ତରଳ ଓ ଗ୍ଯାସୀଯ ସବୁ ପ୍ରକାର ବସ୍ତୁ
ନିର୍ଗତ ହୋଇଥାଏ । ସବୁଗୁଡିକ ତରଳ ମାଗ୍୍ମାରି ଜାତ । ଆଗ୍ନେଯଗିରିରୁ
ୟେଉଁ ତରଳ ପଦାର୍ଥ ନିର୍ଗତ ହୁଏ ତାହା ଲାଭା ନାମରେ ପରିଚିତ । ନିର୍ଗତ
ହେବା ସମଯରେ ଲାଭାର ତାପମାତ୍ରା 800 - 1200 ଡିଗ୍ରୀ ସେଣ୍ଟିଗ୍ରେଡ୍୍ ।
ଭୂପୃଷ୍ଠ ଉପରକୁ ଲାଭା ସାଧାରଣତଃ ପଚାଶ ମିଟର ଉପରକୁ ଉଠିଥାଏ ।
ଆଗ୍ନେଯଗିରି ଠାରୁ କୋଡିଏ ତିରିଶ ମାଇଲ ପର୍ୟ୍ଯନ୍ତ ଲାଭା ବହିୟାଏ ।</p>

<p>ଗଡାଣିଆ ପୃଷ୍ଠରେ ଲାଭା ଦ୍ରୁତବେଗରେ ବହିୟିବା ସ୍ବାଭାବିକ୍୍ ।
ହାଵାଇ ଅଞ୍ଚଳର ଆଗ୍ନେଯଗିରିରୁ ନିର୍ଗତ ଲାଭା ଘଣ୍ଟାକୁ ଦଶରୁ ପଚିଶ
ମାଇଲ ବେଗରେ ବହିୟିବାର ଦୃଷ୍ଟାନ୍ତ ରହିଛି । ଆଉ କେତେକ ସ୍ଥାନରେ
ଲାଭା ଦିନକୁ ମାତ୍ର ଅଳ୍ପ କେତେ ଫୁଟ ଗତି କରିଥାଏ । ଶୀତଳ ହୋଇଗଲେ
ଲାଭା ଆଗ୍ନେଯଶିଳାରେ ପରିଣତ ହୁଏ । ସମୁଦ୍ର ଭିତରେ ଆଗ୍ନେଯଗିରିରୁ
ଲାଭା ନିର୍ଗତ ହେଲେ ଚମତ୍କାର କଥା ଘଟେ । ଲାଭାର ତକିଆସବୁ ତିଆରି
ହୋଇୟାଆନ୍ତି । ପଚିକି ବାହାରୁଥିବା ଉତ୍ତପ୍ତ ଲାଭା ହଠାତ୍୍ ଶୀତଳ
ହେଉଥିବାରୁ ଔଷଧ କ୍ଯାପସୁଲ ପରି ଲାଭାର କ୍ଯାପସୁଲମାନ ଗଢି
ହୋଇୟାଏ । ଉପରେ ନରମ କଠିନ ଆବରଣ ଓ ଭିତରେ ତରଳ ଲାଭା ।
ଏହାର ନାମ ଅବଶ୍ଯ ଲାଭା କ୍ଯାପସୁଲ ନୁହେଁ , ଲାଭା ତକିଆ । ଲାଭା ତକିଆର
ବ୍ଯାସ ଏକ ମିଟର । ସବେଗେ ଭୂଗର୍ଭରୁ ନିର୍ଗତ ହୋଇଥିବା ଲାଭା ତକିଆର
ବ୍ଯାସ ଏକ ମିଟର । ସବେଗେ ଭୂଗର୍ଭରୁ ନିର୍ଗତ ହୋଇଥିବା ଲାଭା ତକିଆ
ମାନଙ୍କରେ ପରିଣତ ହୁଅନ୍ତି ଓ ସମୁଦ୍ର ଶୟ୍ଯାରେ ଗଡି ଗଡି ୟାଇ ଗୋଟିଏ
ସ୍ଥାନରେ ଜମନ୍ତି ।
 +&gt;*
               0 
</p></body></text></cesDoc>