<cesDoc id="ori-w-media-opb33" lang="ori">
<cesHeader type="text">
<fileDesc>
<titleStmt>
<h.title>ori-w-media-opb33.txt</h.title>
<respStmt>
<respType>Electronic file created by</respType>
<respName>Central Institute for Indian Languages, Mysore</respName>
<respType>transferred into Unicode and CES format by</respType>
<respName>"Unicodify" software by Andrew Hardie</respName>
</respStmt></titleStmt>
<publicationStmt>
<distributor>UCREL (on behalf of CIIL)</distributor>
<pubAddress>Department of Linguistics, Lancaster University, Lancaster, LA1 4YT, UK</pubAddress>
<availability region="WORLD"></availability>
<pubDate>03-08-12</pubDate>
</publicationStmt>
<sourceDesc>
<biblStruct>
<monogr>
<h.title>ପ୍ରଗତିବା</h.title>
<h.author>ପ୍ରଦ୍ଯୁମ</h.author>
<imprint>
<pubPlace>India</pubPlace>
<publisher>Unknown - Paper</publisher>
<pubDate>1990</pubDate>
</imprint>
<idno type="CIIL code">opb33</idno>
</monogr></biblStruct></sourceDesc></fileDesc>
<encodingDesc>
<projectDesc>Text collected for the CIIL Corpus, subsequently integrated into the EMILLE/CIIL Monolingual Written Corpora.</projectDesc>
<samplingDesc>Simple written text only has been transcribed. Diagrams, pictures and tables have been omitted. Sampling begins at page 0801.</samplingDesc>
<editorialDecl><conformance level="1"></conformance></editorialDecl>
</encodingDesc>
<profileDesc>
<creation><date>03-08-12</date></creation>
<langUsage>Oriya</langUsage>
<wsdUsage>
<writingSystem id="ISO/IEC 10646">Universal Multiple-Octet Coded Character Set (UCS).</writingSystem>
</wsdUsage>
<textClass>
<channel mode="w">print</channel>
<constitution type="composite"></constitution>
<domain type="public"></domain>
<factuality type="fact"></factuality>
</textClass>
<translations></translations>
</profileDesc>
<revisionDesc></revisionDesc>
</cesHeader>

<text><body>

<p>&lt;ଡାଲିକିଣା ବ୍ଯାପାରରେ ବିଗତ ସରକାର
ସମଯରେ କୋଟି କୋଟି ଟଙ୍କା ଲୁଟ୍
10 ବର୍ଷ ମଧ୍ଧରେ ରାଜ୍ଯ ଗ୍ରାମ୍ଯ ଗୋଷ୍ଠୀ
ଉନ୍ନଯନ ଓ ଗ୍ରାମ୍ଯ ପୁନର୍ଗଠନ
ବିଭାଗ ପୁଷ୍ଟିସାର ଖାଦ୍ଯ ୟୋଗାଣ
କାର୍ୟ୍ଯକ୍ରମରେ ୟେଉଁ ଡାଲି ଖର୍ଦ୍ଦି
କରୁଥିଲେ , ସେଥିରେ ଦୁର୍ନୀତି
ସରକାରୀ ତଦନ୍ତରୁ ପ୍ରମାଣିତ ହେବା
ପରେ ମଧ୍ଧ ୟେ କିପରି ରାଜନୈତିକ
ପ୍ରୋତ୍ସାହନରେ ଦୁର୍ନୀତି ଅବ୍ଯାହତ
ରହିଥିଲା ତାହା ଏବେ ଜଣା ପଡୁଛି ।</p>

<p>ଏଠାରେ ଉଲ୍ଲେଖ କରାୟାଇ
ପାରେ ୟେ 1981-82 ଓ 1982-
83 ରେ କିପରି ବଜାର ଦରଠାରୁ
ୟଥେଷ୍ଟ ଅଧିକ ଦରରେ ବିଭାଗ
ବ୍ଯବସାଯୀଙ୍କ ଠାରୁ ମୁଗ ଓ ବୁଟ
ଡାଲି ଖର୍ଦ୍ଦି କରିଥିଲେ , ତାହା ସେ
ସମଯରେ ସମ୍ବାଦପତ୍ରରେ ପ୍ରକାଶ
ପାଇବା ପରେ ତତ୍୍କାଳୀନ ମୁଖ୍ଯ
ସଚିବ ଶ୍ରୀ ଜ୍ଞାନଚାନ୍ଦଙ୍କୁ ଏ ବିଷଯ
ତଦନ୍ତ କରିବାକୁ ସରକାର ନିର୍ଦ୍ଦେଶ
ଦେଇଥିଲେ । ତଦନ୍ତରୁ ଜଣାପଡି
ଥିଲା ୟେ ଏଥିରେ ସରକାର 59
ଲକ୍ଷ ଟଙ୍କା କ୍ଷତି ସହିଥିଲେ ।
ଘଟଣାରେ ଅଫିସରମାନଙ୍କୁ ଦାଯୀ
କରାୟାଇ ସେମାନଙ୍କ ବିରୁଦ୍ଧରେ
ବିଭାଗୀଯ ପ୍ରୋସିଡିଂ ଲାଗି ନିର୍ଦ୍ଦେଶ
ଦିଆୟାଇଥିଲା ।</p>

<p>କିନ୍ତୁ ତା ପରେ ଦୁର୍ନୀତି ବନ୍ଦ
କରିବା ନାମରେ ତତ୍୍କାଳୀନ
ମୁଖ୍ଯମନ୍ତ୍ରୀ ମାନଙ୍କ ନିର୍ଦ୍ଦେଶରେ ଗ୍ରାମ
ଗୋଷ୍ଠୀ ବିଭାଗ ରାଜ୍ଯ ଖାଉଟି
ସମବାଯ ମହାସଂଘକୁ ପ୍ରତିବର୍ଷ
ଡାଲି ଅର୍ଡର ଦେଇଥିଲେ । କିନ୍ତୁ
ଅର୍ଡର ବଜାର ଦରଠାରୁ ଅଧିକ
ଦରରେ ଦିଆଗଲା । ବାସ୍ତବରେ
ମହାସଂଘ ପୁଣି ଓଡିଶାର ଓ ଓଡିଶା
ବାହାରର ବ୍ଯବସାଯୀମାନଙ୍କ
ଜରିଆରେ ଡାଲି ଗ୍ରାମଗୋଷ୍ଠୀ
ବିଭାଗକୁ ୟୋଗାଉ ଥିଲେ । ବ୍ଯବ~
ସାଯୀଙ୍କ ଠାରୁ ଖର୍ଦ୍ଦି କରାୟାଇଥିବା
ଡାଲିର ମୂଲ୍ଯ ମଧ୍ଧ ବଜାର ଦର ଠାରୁ
ଅଧିକ ରହୁଥିଲା । ଏ ବାବଦରେ
ଆଠବର୍ଷ ମଧ୍ଧରେ ସରକାର ପ୍ରଭୁତ
କ୍ଷତି ସହିଛନ୍ତି । ଏଥିରେ ଉପକୃତ
ବ୍ଯବସାଯୀମାନେ ରାଜନୈତିକ
ପ୍ରୋତ୍ସାହନରେ ଫାଇଦା ଉଠାଇ
ଥିଲେ । କିନ୍ତୁ ବାହାରକୁ ଧାରଣା
ଦିଆଗଲା ୟେ ସମବାଯ ସଂସ୍ଥାରୁ
ଖର୍ଦ୍ଦି କରାୟାଉଛି ।</p>

<p>ସରକାର ବଦଳିବା ପରେ ଏ
ବର୍ଷ ଖୋଲା ଟେଣ୍ଡର କରିବାକୁ
ନିର୍ଦ୍ଦେଶ ଦିଆଗଲା । ଟେଣ୍ଡରରୁ
ଜଣାପଡିଲା ୟେ ଏହାଦ୍ବାରା ପୂର୍ବା~
ପେକ୍ଷା ଖର୍ଚ୍ଚ କମ୍ ହେଉଛି ।</p>

<p>ରାସାଯନିକ ସାର ଓ ବିଷାକ୍ତ ଔଷଧର
ଅତିରିକ୍ତ ପ୍ରଯୋଗ ନେଇ ଉଦ୍୍ବେଗ</p>

<p>ବର୍ତ୍ତମାନ ପନିପରିବା ବିଶେଷ କରି
ମୂଳ ଜାତୀଯ ଫସଲ ଉତ୍ପାଦନ
କ୍ଷେତ୍ରରେ ୟେଭଳି ଅତିରିକ୍ତ ରାସା~
ଯନିକ ସାର ଓ ବିଷାକ୍ତ ଔଷଧ
ପ୍ରଯୋଗ କରାୟାଇ ସାଧାରଣ
ସ୍ବାସ୍ଥ୍ଯକୁ ନିମ୍ନଗାମୀ କରାୟାଉଛି
ସେଥିରୁ କୃଷି ବୈଜ୍ଞାନିକମାନେ
ଘୋର ଉଦ୍୍ବେଗ ପ୍ରକାଶ
କରିଛନ୍ତି ।</p>

<p>ବିଷାକ୍ତ ଔଷଧ ପ୍ରଯୋଗ ଦ୍ବାରା
ରୋଗ ନିଯନ୍ତ୍ରଣ କରା ନ ୟାଇ
ସ୍ବତନ୍ତ୍ର ଭାବେ ରୋଗ ପୋକକୁ
ନିଯନ୍ତ୍ରଣ କରିବା ସକାଶେ ଏଠାରେ
ଆଯୋଜିତ ହେବାକୁ ଥିବା 5
ଦିନିଆ ଆନ୍ତର୍ଜାତୀଯ କର୍ମଶାଳା
ଅବ୍ଯବହିତ ପୂର୍ବରୁ ଏକ ସାମ୍ବାଦିକ
ସମ୍ମିଳନୀରେ କୃଷି ବିଶେଷଜ୍ଞମାନେ
ଏହି ଉଦ୍୍ବେଗ ପ୍ରକାଶ କରିଛନ୍ତି ।
ସେମାନେ କହିଛନ୍ତି ୟେ ୟେଉଁସବୁ
ମାରାତ୍ମକ ଔଷଧ ବହୁ ବର୍ଷ ପୂର୍ବରୁ
ନିଷିଦ୍ଧ କରାୟାଇଛି ତାହା ବର୍ତ୍ତମାନ
ସୁଦ୍ଧା ଭାରତରେ ବ୍ଯବହୃତ
ହେଉଛି । ସେଥି ମଧ୍ଧରୁ ଡି.ଡି.ଟି.
ଓ ଗାମାକ୍୍ସିନ୍ ଅନ୍ଯତମ ।
ଭାରତରେ ବର୍ତ୍ତମାନ ଏହାର ବହୁଳ
ବ୍ଯବହାର ହେଉଛି । ଆମେରିକା
ତଥା ଯୁରୋପୀଯ ରାଷ୍ଟ୍ରମାନଙ୍କରେ
ଏହାକୁ ବ୍ଯବହାର କରାୟିବା
କ୍ଷେତ୍ରରେ କଡାକଡି କଟକଣା
ଲାଗୁ କରାୟାଇଛି ।</p>

<p>ଭାରତୀଯ କୃଷି ଗବେଷଣା
ପରିଷଦର ସହକାରୀ ମହାନିର୍ଦ୍ଦେଶକ
ଡଃ ରାମଫଲ୍ ଏହି ସାମ୍ବାଦିକ
ସମ୍ମିଳନୀରେ ପ୍ରକାଶ କରି କହିଛନ୍ତି
ୟେ ମୂଳ ଜାତୀଯ ଫସଲ ମଧ୍ଧରେ
ଆଳୁ , କନ୍ଦମୂଳ ଉତ୍ପାଦନର ବିଶେଷ
ସୁୟୋଗ ରହିଛି । ବିଶେଷ କରି
କାଶାଭା ଉତ୍ପାଦନ ବିଶ୍ବରେ ଏକ
ମୁଖ୍ଯ ଖାଦ୍ଯ ସାମଗ୍ରୀ ଭାବେ ଗୃହୀତ
ହୋଇଛି । ବର୍ତ୍ତମାନ ଭାରତରେ
ପ୍ରାଯ 12 ଲକ୍ଷ ହେକ୍ଟର ଜମିରେ
178 ଲକ୍ଷ ଟନ୍ ମୂଳ ଜାତୀଯ
ଖାଦ୍ଯ ସାମଗ୍ରୀ ଉତ୍ପାଦନ ହେଉଛି ।
ଭାରତରେ ଏହାର ଉତ୍ପାଦନର
ସୁୟୋଗ ଆହୁରି ଅଧିକ ରହିଛି ।
ଭାରତରେ ଦୁଇ ଲକ୍ଷ ହେକ୍ଟର
ଜମିରେ କାଶାଭା ଉତ୍ପାଦନ
ହେଉଛି । ଏଥିରୁ ଶାଗୁ ଉତ୍ପାଦନ
କରାୟାଇ ପ୍ରଚୁର ଭାବେ ବ୍ଯବହାର
କରାୟାଉଛି ।</p>

<p>ସେ କହିଛନ୍ତି ୟେ କାଶାଭାରୁ
ଷ୍ଟାର୍ଟ ଉତ୍ପାଦନ ନିମନ୍ତେ ଶିଳ୍ପ
ପ୍ରତିଷ୍ଠା କ୍ଷେତ୍ରରେ ବିଶେଷ ସୁୟୋଗ
ରହିଥିଲେ ହେଁ ଓଡିଶାରେ ଏହି
ସୁୟୋଗର ବିନିୟୋଗ କରାୟାଉ
ନାହିଁ । //
ରାମ ରଥର ଚକ ବନ୍ଦ ହେବ
ଅୟୋଧ୍ଧାର ବିବାଦୀଯ ବାବରୀ ମସଜିଦ୍ ପରିସରକୁ କେନ୍ଦ୍ର ସର~
କାର ଏକ ଅର୍ଡିନାନସ୍ ବଳରେ ନିଜ ହାତକୁ ନେଇଛନ୍ତି । କେନ୍ଦ୍ର
ସରକାରଙ୍କ ପ୍ରସ୍ତାବ ଅନୁୟାଯୀ ଏହି ଜମିର ସତ୍ତ୍ବାସତ୍ତ୍ବ ନେଇ ୟେଉଁ
ମକଦ୍ଦମା ଆହ୍ଲାବାଦ ହାଇକୋର୍ଟରେ ବିଚାରାଧୀନ ଅଛି ତାହା ସୁପ୍ରିମ୍~
କୋର୍ଟକୁ ଉଠାଇ ନେଇ ଶୀଘ୍ର ଶୁଣାଣି କରାୟିବ । ସୁପ୍ରିମକୋର୍ଟ
ୟାହା ଫଇସଲା ଦେବେ ତାହାହିଁ କାର୍ୟ୍ଯକାରୀ କରାୟିବ । ସୁପ୍ରିମକୋର୍ଟ
ଫଇସଲା ପର୍ୟ୍ଯନ୍ତ ବାବ୍୍ରୀ ମସଜିଦ୍ ପରିସର କେନ୍ଦ୍ର ସରକାର ନିଜ
ତତ୍ତ୍ବାବଧାନରେ ଱ଖିବେ ।</p>

<p>ଅପର ପକ୍ଷରେ ବାବ୍୍ରୀ ମସଜିଦ୍ ସମ୍ବନ୍ଧିତ ବିବାଦୀଯ ଅଞ୍ଚଳ
ବାହାରେ ୟେଉଁସବୁ ଜମି ରହିଛି ତାହା ସରକାର ରାମ ଜନ୍ମଭୂମି ସମିତି
କିମ୍ବା ରାମ ମନ୍ଦିର ନିର୍ମାଣ ପାଇଁ ୟେଉଁ ଟ୍ରଷ୍ଟ ଗଢାୟାଇଛି ତା ହାତରେ
ଦେଇଦେବାକୁ ସମ୍ମତି ପ୍ରକାଶ କରିଛନ୍ତି । ଅର୍ଥାତ୍ ବିଶ୍ବହିନ୍ଦୁ ପରିଷଦ ,
ଭାରତୀଯ ଜନତା ପାର୍ଟି , ରାଷ୍ଟ୍ରୀଯ ସ୍ବଯଂ ସେବକ ସଂଘ , ବଜରଙ୍ଗ ଦଳ
କିମ୍ବା ଅନ୍ଯ କେଉଁ ହିନ୍ଦୁ ସଂଗଠନମାନେ ରାମ ମନ୍ଦିର ନିର୍ମାଣ ପାଇଁ ଇଚ୍ଛା
କରୁଛନ୍ତି ସେମାନେ ବାବରି ମସଜିଦ୍ ପରିସର ବାହାରେ ସରକାରଙ୍କ
ପ୍ରଦତ୍ତ ଜମିରେ ମନ୍ଦିର ନିର୍ମାଣ ଆରମ୍ଭ କରି ପାରନ୍ତି ।</p>

<p>ମୁସଲମାନ ଗୋଷ୍ଠୀ ଏହି ବିବାଦରେ କୋର୍ଟର ରାଯ ମାନିନେବାକୁ
ସମ୍ମତ ହେଲେଣି । କିନ୍ତୁ ହିନ୍ଦୁ ସଂଗଠନ , ବିଶେଷ କରି ସେମାନଙ୍କର
ରାଜନୈତିକ ସାମ୍ମୁଖ୍ଯ ଭାରତୀଯ ଜନତା ପାର୍ଟି କୋର୍ଟ ରାଯକୁ ଏହି
ବ୍ଯାପାରରେ ମାନି ନେବାକୁ ପ୍ରସ୍ତୁତ ନୁହଁନ୍ତି । ସେମାନେ ଜିଦ୍ କରୁଛନ୍ତି
ୟେ ବାବ୍୍ରୀ ମସଜିଦ୍ ପରିସରକୁ ଅନ୍ତର୍ଭୁକ୍ତ କରି ରାମ ମନ୍ଦିର ନିର୍ମାଣ
କରାୟିବ । ଏହା ଧର୍ମ ଉପାସନା ପାଇଁ ଉଦ୍ଦିଷ୍ଟ ନୁହେଁ ବୋଲି ମନେ ହୁଏ ।
ଏହା ମୁସଲମାନ୍ ସମ୍ପ୍ରଦାଯକୁ ଆଘାତ କରିବା ଓ ଏଥିରୁ ସର୍ବ ଭାରତୀଯ
ସ୍ତରରେ ରାଜନୈତିକ ଭୋଟ ଆଦାଯ କରିବା ହିଁ ମୁଖ୍ଯ ଉଦ୍ଦେଶ୍ଯ ।</p>

<p>ବି.ଜେ.ପି. ର ସଭାପତି ରାମ ରଥ ଚଳାଇବା ପଛରେ ଭୋଟ ବିଚାରର
ଦୁଇଟି ଦିଗ ନିହିତ । ପ୍ରଥମ ଦିଗଟି ହେଲା ମଣ୍ଡଳ କମିଶନ ସୁପାରିଶକୁ
ଗ୍ରହଣ କରି ଭି.ପି. ସିଂହଙ୍କ ସରକାର ବି.ଜେ.ପି.ର ସାଂଗଠନିକ ଓ
ଲୋକମତ ଭିତ୍ତିକୁ ଦୋହଲାଇ ଦେଇଛନ୍ତି । ବି.ଜେ.ପି ଓ ଏହାର ପୃଷ୍ଠ~
ପୋଷକ ସମସ୍ତ ହିନ୍ଦୁ ସଂଗଠନର ଉଚ୍ଚ ଜାତିଆଣ ଗୋଷ୍ଠୀ ବିଶେଷ କରି
ବ୍ରାହ୍ମଣମାନଙ୍କର ଆଧିପତ୍ଯ ଓ ପ୍ରାଧାନ୍ଯ ରହିଛି । କେନ୍ଦ୍ର ସରକାରଙ୍କର
ସଂରକ୍ଷଣ ନୀତି ଘୋଷିତ ହେଲା । ବି.ଜେ.ପି. ର ସାଂଗଠନିକ ସ୍ତରରେ
ପଛୁଆ ଜାତିର ଗୋଷ୍ଠୀ ଏହି ନିଷ୍ପତ୍ତିକୁ ସ୍ବାଗତ ଜଣାଇଲେ । ପୁଣି
ଲୋକମତ ସ୍ତରରେ ମଧ୍ଧ ବି.ଜେ.ପି. କୁ ସମର୍ଥନ କରି ଆସୁଥିବା ପଛୁଆ
ଜାତିର ଲୋକେ ଭି.ପି. ସିଂହଙ୍କ ଆଡକୁ ଢଳିବାର ସମ୍ଭାବନା ଉଜ୍ଜଳ
ହୋଇଛି ।</p>

<p>ଦ୍ବିତୀଯ ଦିଗଟି ହେଲା ମଣ୍ଡଳ କମିଶନ୍ ସୁପାରିଶକୁ ଗ୍ରହଣ କରିବାକୁ
କିମ୍ବା ନ କରିବାକୁ ବି.ଜେ.ପି.ର ନେତୃତ୍ବ ସିଧାସଳଖ ସମର୍ଥ କିମ୍ବା ପ୍ରସ୍ତୁତ
ହୋଇ ପାରୁ ନାହାଁନ୍ତି । ଏଣେ ସବୁ ହିନ୍ଦୁ ସଂଗଠନଗୁଡିକରେ ଲୋକଙ୍କ
ସ୍ତରରେ ମଧ୍ଧ ମଣ୍ଡଳ କମିଶନ ସୁପାରିଶ୍ ବିରକ୍ତି ସୃଷ୍ଟି କରିଛି । ଅର୍ଥାତ୍
ଆର.ଏସ୍.ଏସ୍.ରେ ତଥାକଥିତ ଉଚ୍ଚକୂଳ ସମ୍ଭୁତ ବ୍ରାହ୍ମଣମାନଙ୍କର
ପ୍ରାଧାନ୍ଯ ଓ ନେତୃତ୍ବ କ୍ରମେ ତଳ ଜାତିର ସଭ୍ଯମାନଙ୍କଠାରୁ ଆହ୍ବାନର
ସମ୍ମୁଖୀନ ହେବା ନିଶ୍ଚିତ । ଏହି ପରିସ୍ଥିତି ହିନ୍ଦୁ ସଂଗଠନମାନଙ୍କରେ
ନେତୃତ୍ବ ଏଡାଇବାକୁ ଚାହାଁନ୍ତି ।</p>

<p>ତେଣୁ ହଠାତ୍ ରାମରଥ ବାହାର କରି ହିନ୍ଦୁ ସଂଗଠନଗୁଡିକ
ଏବଂ ଏମାନଙ୍କର ରାଜନୈତିକ ସାମ୍ମୁଖ୍ଯ ବି.ଜେ.ପି. ସେମାନଙ୍କର ସଂଗ~
ଠନରେ ଦେଖା ଦେଇଥିବା ଫାଟ ଓ ସାମ୍ଭବ୍ଯ ବିଭାଜନଗୁଡିକ ୟୋଡିବା
ପାଇଁ ଏକ ଚମତ୍କାର ପଦକ୍ଷେପ ନିଆୟାଇଛି । ରାମରଥ ପରିଚାଳନାରୁ
ହିନ୍ଦୁ ଭାବପ୍ରବଣତାର ଉଲ୍ଲେଖ କରି ନିର୍ବାଚନରେ ହିନ୍ଦୁ ଭୋଟ ସମର୍ଥନକୁ
ବଞ୍ଚାଇ ରଖିବା ହିଁ ମୂଳ ଉଦ୍ଦେଶ୍ଯ । ଗୁଜୁରାଟର ସୋମନାଥ ମନ୍ଦିରଠାରୁ
ରାମରଥ ବାହାର କରି ଗୁଜୁରାଟ ଭିତରେ ସବୁ ସ୍ଥାନରେ ସର୍ଦ୍ଦାର
ପଟେଲଙ୍କର କାମୋଦ୍ଧାର କରି ଆଡଭାନୀ ଲୋକଙ୍କ ସ୍ତରରେ ପଟେଲଙ୍କ
ସ୍ମୃତି-ସମର୍ଥନରୁ ଫାଇଦା ନେବାକୁ ଚେଷ୍ଟା କରୁଛନ୍ତି । ତାଙ୍କ ରଥ ୟେଉଁ
ଅଞ୍ଚଳକୁ ୟାଉଛି ସେଠାରେ ଲୋକାରଣ୍ଯ ହେଉଛି ଏବଂ ବିପୁଳ ସମ୍ବର୍ଦ୍ଧନା
ମିଳୁଛି । ଏ ସବୁ ଲୋକାରଣ୍ଯ ବି.ଜେ.ପି. ପାଇଁ ଭୋଟ ସମର୍ଥନରେ ପରି~
ଣତ ହେଉଛି ବୋଲି ଆଡଭାନୀ ଧାରଣା କରିଛନ୍ତି । ଏହି ଲୋକାରଣ୍ଯ
ଆଡଭାନୀଙ୍କ ନେତୃତ୍ବ ପ୍ରତି ସମର୍ଥନ ବୋଲି ବୋଧହୁଏ ତାଙ୍କର ଧାରଣା
ହେଉଛି । ଏହାକୁ ଭାରତ ବର୍ଷରେ ତାଙ୍କ ପାଇଁ ଓ ବି.ଜେ.ପି. ପାଇଁ ଅମାପ
ସମର୍ଥନ ବୋଲି ଭାବିନେଇ ଆଡଭାନୀଙ୍କର ଗର୍ବ ଓ ଦାମ୍ଭିକତା ବଢି~
ୟାଇଛି । ତାଙ୍କ ପରି ଜଣେ ନରମ ସ୍ବଭାବର ନେତା ଅତି ଉଗ୍ର ଭାଷଣ
ଦେଇ ହିନ୍ଦୁ ଭାବପ୍ରବଣତାକୁ ସାମ୍ପ୍ରଦାଯିକ ମନସ୍ତତ୍ତ୍ବରେ ପରିଣତ
କରିବାକୁ ଚେଷ୍ଟା କରିବା ବଡ ଅସ୍ବାଭାବିକ୍ ମନେ ହେଉଛି । ସେ
ଆଲୋଚନା , ସାଲିସ୍ କିମ୍ବା କୌଣସି ବିକଳ୍ପ ପନ୍ଥା ବିଚାର କରିବାକୁ
ପ୍ରସ୍ତୁତ ନୁହଁନ୍ତି । ୟେପରିକି ସେ ନିଜେ ରାମ ଏବଂ ଭାରତବର୍ଷର ହିନ୍ଦୁ
ରାମରାଜ୍ଯ ପ୍ରତିଷ୍ଠା କରିବାର ଐତିହାସିକ ଅଧିକାର ଓ ଦାଯିତ୍ବ ତାଙ୍କ
ଉପରେ ହିଁ ନ୍ଯସ୍ତ ହୋଇଛି ।</p>

<p>ଆଡଭାନୀ ରାମଙ୍କର ପ୍ରକୃତ ଭକ୍ତ ହୋଇଥିଲେ ରାମମନ୍ଦିର ପ୍ରତିଷ୍ଠା
ପାଇଁ ରାମ ବର୍ଣ୍ଣିତ ଆଦର୍ଶ ଗ୍ରହଣ କରୁଥାନ୍ତେ । ସେ ଏକ ୟୁଦ୍ଧ
ବା ସଂଘର୍ଷର ବାତାବରଣ ସୃଷ୍ଟି କରୁ ନ ଥାନ୍ତେ । ରାମରଥକୁ ୟଦି
ସରକାର ପ୍ରତିରୋଧ କରନ୍ତି ତେବେ ବି.ଜେ.ପି. , ଜାତୀଯ ସାମ୍ମୁଖ୍ଯ
ସରକାରରୁ ସମର୍ଥନ ପ୍ରତ୍ଯାହାର କରିନେବ ବୋଲି ପ୍ରତ୍ଯକ୍ଷ ଧମକ
ଜଣାଇ ଦେଲାଣି । ତେଣୁ କେନ୍ଦ୍ରର ଭି.ପି. ସିଂହ ସରକାର ନିଜର
ପତ୍ତନ ପାଇଁ ପ୍ରସ୍ତୁତ ହେବା ଛଡା ଅନ୍ଯ ପନ୍ଥା ନାହିଁ । ଶ</p>

<p>ବାବରୀ ମସଜିଦ୍ ପରିସରରେ ରାମ ମନ୍ଦିର ନିର୍ମାଣ ପାଇଁ କେନ୍ଦ୍ର କିମ୍ବା
ଉତ୍ତରପ୍ରଦେଶ ସରକାର କୌଣସି ଭାବରେ ସମର୍ଥ ହେବେ ନାହିଁ । ତେଣୁ
ରାମରଥକୁ ରୋକାୟିବ ଏବଂ ଆଡଭାନୀଙ୍କୁ ଗିରଫ କରାୟିବ । ବାବ୍୍ରୀ ମସ~
ଜିଦ୍ ଭାଙ୍ଗିବାକୁ ମଧ୍ଧ ଦିଆୟିବ ନାହିଁ । ବି.ଜେ.ପି.ର ସମର୍ଥନ ପ୍ରତ୍ଯାହାର
ପରେ ୟଦି ଭି.ପି.ସିଂହଙ୍କ ପରିବର୍ତ୍ତେ ଅନ୍ଯ କେହି ଜନତା ଦଳର
ନେତା ଭାବରେ ପ୍ରଧାନମନ୍ତ୍ରୀ ହେବାକୁ ସମର୍ଥ ହୁଅନ୍ତି ତେବେ ସେ ସରକାର
ମଧ୍ଧ ବାବ୍୍ରୀ ମସଜିଦ୍ ପରିସରରେ ରାମ ମନ୍ଦିର ନିର୍ମାଣ ହେବାକୁ
ଦେଇ ପାରିବେ ନାହିଁ । ତେଣୁ ଆଡଭାନୀ ଅନ୍ଯ କୌଣସି ସମା~
ଧାନରେ ଆଗ୍ରହୀ ହେବା ବିଜ୍ଞତା ହେବ । //
ସମ୍ବାଦପତ୍ର ମାନଙ୍କରେ
ପ୍ରକାଶ ୟେ ଉତ୍ତର ପ୍ରଦେଶର
କେତେକ ଅଞ୍ଚଳରେ ଶରୀରରେ
ଆଇଯୋଡିନ୍ ଅଭାବରୁ ଗଳଗଣ୍ଡ ରୋଗ
ସୃଷ୍ଟି ହେଉଥିବା ଆଶଙ୍କାରୁ ତାହାର
ପ୍ରତିଷେଧକ ବ୍ଯବସ୍ଥା ସ୍ବରୂପ ଖାଇବା ଶ
ଲୁଣରେ " ଆଯୋଡିନ୍ " ମିଶାୟାଇ
ଲୋକଙ୍କୁ ଖାଇବାକୁ ଦିଆୟାଉଛି ।
ବର୍ତ୍ତମାନ ଦେଖାୟାଉଛି ୟେ ଉକ୍ତ
ଆଇଯୋଡିନ୍ ମିଶା ଲୁଣ ଦେଶର
ସର୍ବତ୍ର ବିକ୍ରି କରାୟାଉଅଛି ଏବଂ
ସାଧାରଣ ଲୋକେ ତାକୁ ଖାଇବା
ଲୁଣ ମନେ କରି ନିର୍ବିକାରରେ
ବ୍ଯବହାର କରୁଛନ୍ତି । ଏହି ଲୁଣ
ବିଷଯରେ ଲୋକଙ୍କୁ ସଚେତନ
କରାୟିବା ପାଇଁ ସରକାରଙ୍କ ତରଫରୁ
କୌଣସି ବ୍ଯାପକ ପ୍ରଚାର
କରାୟାଉଥିବାର ଜଣାୟାଏ ନାହିଁ ।
ଉକ୍ତ ଆଯୋଡିନ୍ ମିଶା ଲୁଣର
ଉପକାରିତା କିମ୍ବା ଅପକାରିତା
ବିଷଯରେ ଏହାକୁ ବ୍ଯବହାର କରିବା
ପୂର୍ବରୁ ଆମ୍ଭେମାନେ ଅବଗତ ହେବା
ଉଚିତ୍ ।</p>

<p>ଗଳଗ୍ରନ୍ଥି ( Thyroid
Gland ) ରେ ଆଇଯୋଡିନ୍ ଅଭାବ
ହେଲେ ଗଳଗଣ୍ଡ ରୋଗ ସୃଷ୍ଟି ହୁଏ
ବୋଲି ୟେଉଁ ଧାରଣା ଆମ୍ଭମାନଙ୍କୁ
ଦିଆୟାଇଛି ତାହା ଆମ ଦେଶରେ
ପ୍ରଚଳିତ ସମସ୍ତ ଚିକିତ୍ସା ବିଜ୍ଞାନ
ମାନଙ୍କର ସର୍ବସମ୍ମତ ମତବାଦ ନୁହେଁ ।
କେତେକଙ୍କ ମତରେ ଗଳଗଣ୍ଡର
କାରଣ ଅସ୍ପଷ୍ଟ । ଭୌଗଳିକ କାରଣ
ୟୋଗୁଁ କେତେକ ନିର୍ଦ୍ଦିଷ୍ଟ ପାର୍ବତ୍ଯ
ଅଞ୍ଚଳରେ ପାନୀଯ ଜଳରେ କୌଣସି
ଖଣିଜ ଲବଣର ଅଭାବ କିମ୍ବା
ବୃଦ୍ଧି ୟୋଗୁଁ ଏହା ସୃଷ୍ଟି ହୋଇ ପାରୁଥାଏ
ବୋଲି ଅ଩୍ଯ କେତେକଙ୍କ ମତ , କିମ୍ବା
ଏ ପର୍ୟ୍ଯନ୍ତ ଚିହ୍ନିତ ନ ହୋଇ ପାରିଥିବା
କୌଣସି ସୂକ୍ଷ୍ମ ଜୀବାଣୁ
ମାନଙ୍କ ଦ୍ବାରା ମଧ୍ଧ
ଏହା ସୃଷ୍ଟି ହୋଇ ପାରୁଥାଏ । ଆହୁରି
କେତେକଙ୍କ ମତରେ ୟେଉଁସବୁ
ଅଞ୍ଚଳରେ ଚୂନ ଅଂଶ ଅଧିକା ଥାଏ ,
ସେହିଭଳି ଜଳକୁ ରୋଷେଇରେ କିମ୍ବା
ପାନୀଯ ଜଳ ରୂପେ ବ୍ଯବହାର କଲେ ,
ଗଳଗଣ୍ଡ ସୃଷ୍ଟି ହୋଇଥାଏ । ଏହା
ବ୍ଯତିତ , ଏହି ରୋଗ କୌଣସି
ସହଜାତ ଶାରୀରିକ ଦୋଷରୁ
ହେଉଥିବାର କେତେକଙ୍କ ମତ । କେହି
କେହି ଏହି ରୋଗ ବଂଶଗତ ଦୋଷରୁ
ହୋଇଥାଏ ବୋଲି କହିଥାନ୍ତି ।
କେତେକଙ୍କ ମତରେ ଚୂନ ଓ
ମାଗ୍ନେସିଆ ମିଶ୍ରିତ କେତେକ ନିର୍ଦ୍ଦିଷ୍ଟ
ଝରଣା ଜଳ ପାନୀଯ ରୂପେ
ବ୍ଯବହାର କଲେ ଗଳଗଣ୍ଡ ସୃଷ୍ଟି
ହୋଇଥାଏ । ଅନ୍ଯ କେତେକଙ୍କ
ମତରେ ଅନେକ ସମଯରେ ସ୍ତ୍ରୀ
ଲୋକମାନଙ୍କର ଜରାଯୁ ଜନିତ
ଦୋଷରୁ ମଧ୍ଧ ଏହା ହୋଇଥାଏ ।
ଏହା ବ୍ଯତୀତ କେତେକ ପ୍ରକାରର
କାଶ ଓ ଶ୍ବାସ ଔଷଧରେ ଅତିରିକ୍ତ
ଆଯୋଡିନ୍ ମିଶ୍ରିତ ହୋଇଥିବା ୟୋଗୁଁ
ଏହାର ବ୍ଯବହାରରେ ଶରୀର ମଧ୍ଧରେ
ପ୍ରାକୃତ୍ରିକ ଆଯୋଡିନ୍ ସୃଷ୍ଟି ହେବାରେ
ବ୍ଯାଘାତ ଘଟିବାରୁ ଗଳଗଣ୍ଡ
ସୃଷ୍ଟିହେବା ସହିତ ଶରୀରରେ ଶୋଥ
ରୋଗ ସୃଷ୍ଟି ହୋଇଥାଏ ବୋଲି ଅ଩୍ଯ
କେତେକଙ୍କ ମତ । ନୀଳ ରୋଗ ,
ଶୋଥ ରୋଗ ଏବଂ କେତେକ
ମାନସିକ କାରଣରୁ ଏହା ସମ୍ଭବ
ବୋଲି ମଧ୍ଧ କେତେକ କହନ୍ତି ।
ଅନ୍ଯମାନଙ୍କ ମତରେ ଏହି ରୋଗ
ଆଘାତ , ସାଂଘାତିକ ମାନସିକ
ଉତ୍ତେଜନା , ଅତିରିକ୍ତ ଭଯ , ପ୍ରଭୃତି
କାରଣରୁ ମଧ୍ଧ ସୃଷ୍ଟି ହୋଇ ପାରୁଥାଏ ।
ଶୋଥ ରୋଗ ଭୋଗୁଥିବା ଓ ସ୍ତ୍ରୀ
ଲୋକମାନଙ୍କ ପକ୍ଷରେ ସାଂଘାତିକ
ମାନସିକ ଉତ୍ତେଜନାର ଅଳ୍ପ କେତେକ
ସପ୍ତାହ ମଧ୍ଧରେ ଏହି ରୋଗ
ହୋଇଥାଏ ବୋଲି ଅନେକଙ୍କ ମତ ।
ଅନ୍ଯମାନଙ୍କ ମତରେ ଆଯୋଡିନ୍ ,
କାଲି ଆଇଓଡ୍ ଓ ସ୍ପଞ୍ଜିଆ ଦ୍ବାରା
ଗଳଗଣ୍ଡ ଆରୋଗ୍ଯ ହୋଇଥିବାରୁ
ବୁଝାୟାଏ ୟେ ଶରୀରରେ
ଆଯୋଡିନ୍ ଗ୍ରହଣକାରୀ କ୍ଷମତା ହ୍ରାସ
ୟୋଗୁଁ କିମ୍ବା ଆଯୋଡିନ୍୍ର ଅଭାବ
ୟୋଗୁଁ ( ସମ୍ଭାବନା କମ୍ ) ଗଳଗଣ୍ଡର
ସୃଷ୍ଟି ହୋଇଥାଏ । ଏହିସବୁ କାରଣରୁ
ଗଳଗଣ୍ଡ ରୋଗର କାରଣ ଚିକିତ୍ସା
ଜ୍ଞାନରେ ଏକ ବିବାଦୀଯ ବିଷଯ
ହୋଇ ରହିଛି । //
ଆକାଶ କ୍ଷେପଣାସ୍ତ୍ର
ଆକାଶ ହେଉଛି ପୃଥିବୀ
ପୃଷ୍ଠରୁ ଆକାଶକୁ କ୍ଷେପଣ କରାୟାଇ
ପାରୁଥିବା ମଧ୍ଧମ ଧରଣର
କ୍ଷେପଣାସ୍ତ୍ର । ଏହି କ୍ଷେପଣାସ୍ତ୍ରର ପ୍ରଥମ
ପରୀକ୍ଷଣ ଓଡିଶାର ବାଲେଶ୍ବର
ଜିଲ୍ଲାସ୍ଥିତ ଚାନ୍ଦିପୁର ଇଣ୍ଟର ମିଡିଏଟ୍
ଟେଷ୍ଟ ରେଞ୍ଜଠାରେ ହୋଇଥିଲା ।
ପ୍ରତିରକ୍ଷା ଗବେଷଣା ଓ ଉନ୍ନଯନ
ସଙ୍ଗଠନର ସମନ୍ବିତ ଗାଇଡେଡ୍
କ୍ଷେପଣାସ୍ତ୍ର କାର୍ୟ୍ଯକ୍ରମ ଅତ୍ଯାଧୁନିକ ଓ
ଶକ୍ତିଶାଳୀ କ୍ଷେପଣ ବ୍ଯବସ୍ଥା ଓ ଱୍ଯାମ୍
ରକେଟ୍ ବ୍ଯବସ୍ଥା ପ୍ରଚଳିତ ବ୍ଯବସ୍ଥା
ଠାରୁ ବାଯୁ ମଣ୍ଡଳର ଅମ୍ଳୟାନ ଓ
ଇନ୍ଧନ ଭାବେ କିରୋସିନି ବ୍ଯବହାର
କରାୟାଏ ।</p>

<p>ଆକାଶର ସିଲଡ୍ ଟେଷ୍ଟ
ବୁଷ୍ଟର ବ୍ଯବସ୍ଥା ଅଗଷ୍ଟ 14 ତାରିଖ
ଦିନ ସଫଳତାର ସହ ପରୀକ୍ଷା
କରାୟାଇଥିଲା । ଲକ୍ଷ୍ଯସ୍ଥଳରେ
ଆକ୍ରମଣ କରିବା ପୂର୍ବରୁ ତାହାକୁ ଚିହ୍ନଟ
କରିବା ଲାଗି ଆକାଶରେ ଏକ
` ଚକ୍ଷୁ ' ର ବ୍ଯବସ୍ଥା ରହିଛି । ଏହାକୁ
ଟର୍ମିନାଲ୍ ହୋମିଂ ବୋଲି କୁହାୟାଏ ।
ସେହିଭଳି ପ୍ରବେଶ କରୁଥିବା ଶତ୍ରୁ
ବିମାନ ଠାବ କରିବା ପାଇଁ ପ୍ରତ୍ଯେକ
ପୃଥିବୀ ପୃଷ୍ଠରୁ ଆକାଶଗାମୀ
କ୍ଷେପଣାସ୍ତ୍ରରେ ଱୍ଯାଡରର ବ୍ଯବସ୍ଥା
ଥାଏ । ଆକାଶରେ ଏଥିପାଇଁ ଖୁବ୍
ଅତ୍ଯାଧୁନିକ ବ୍ଯବସ୍ଥା ଖଞ୍ଜା ୟାଇଛି ।
ଏଥିରେ ୟେଉଁ ଫେଜଡ୍ରେ ଱୍ଯାଡାର
ଦ୍ବାରା ଏକ ସଙ୍ଗେ ପ୍ରାଯ ଡଜନ୍ ଶତ୍ରୁ
ବିମାନ ଠାବ କରାୟାଇ ପାରିବ ।
ସେହିଭଳି ଆକାଶ ଏକ ସଙ୍ଗେ ଏକ
ଡଜନ୍ କ୍ଷେପଣାସ୍ତ୍ର ଉପରେ ମଧ୍ଧ ଗୁଳି
ବର୍ଷଣ କରି ପାରିବ । ଏହି ଱୍ଯାଡାର
ବ୍ଯବସ୍ଥାରେ 4 ହଜାରରୁ ଉର୍ଦ୍ଧ୍ବ ରାଡାର
ଟ୍ରାନସ୍୍ମିଟର ରହିଛି । ଏଥିରୁ ନିର୍ଗତ
ରଶ୍ମିଦ୍ବାରା ଲକ୍ଷସ୍ଥଳ ଠିକ୍୍ ଭାବେ
ନିରୂପଣ କରାୟାଇ ପାରିବ । ଏହି
଱୍ଯାଡାର୍ ବର୍ତ୍ତମାନ୍ ବାଙ୍ଗାଲୋରସ୍ଥିତ
ଇଲେକ୍୍ଟ୍ରୋନିକ୍ ଓ ଱୍ଯାଡାର ଉନ୍ନଯନ
ସଂସ୍ଥାଦ୍ବାରା ପ୍ରସ୍ତୁତ ହେଉଛି । ଆକାଶ
ହେଉଛି ପ୍ରତିରକ୍ଷା ଗବେଷଣା ଓ
ଉନ୍ନଯନ ସଂଗଠନର ଗାଇଡେଡ୍
କ୍ଷେପଣାସ୍ତ୍ର କାର୍ୟ୍ଯକ୍ରମ ଅଧୀନରେ
ପ୍ରସ୍ତୁତ ଶେଷ କ୍ଷେପଣାସ୍ତ୍ର ।
 +&gt;*
               0 
</p></body></text></cesDoc>