<cesDoc id="ori-w-literature-juvenile-ocl33" lang="ori">
<cesHeader type="text">
<fileDesc>
<titleStmt>
<h.title>ori-w-literature-juvenile-ocl33.txt</h.title>
<respStmt>
<respType>Electronic file created by</respType>
<respName>Central Institute for Indian Languages, Mysore</respName>
<respType>transferred into Unicode and CES format by</respType>
<respName>"Unicodify" software by Andrew Hardie</respName>
</respStmt></titleStmt>
<publicationStmt>
<distributor>UCREL (on behalf of CIIL)</distributor>
<pubAddress>Department of Linguistics, Lancaster University, Lancaster, LA1 4YT, UK</pubAddress>
<availability region="WORLD"></availability>
<pubDate>03-08-12</pubDate>
</publicationStmt>
<sourceDesc>
<biblStruct>
<monogr>
<h.title>ଶିଶୁଲେଖା</h.title>
<h.author>ଶିଶୁସାହି</h.author>
<imprint>
<pubPlace>India</pubPlace>
<publisher>Unknown - Magaz</publisher>
<pubDate>1984</pubDate>
</imprint>
<idno type="CIIL code">ocl33</idno>
</monogr></biblStruct></sourceDesc></fileDesc>
<encodingDesc>
<projectDesc>Text collected for the CIIL Corpus, subsequently integrated into the EMILLE/CIIL Monolingual Written Corpora.</projectDesc>
<samplingDesc>Simple written text only has been transcribed. Diagrams, pictures and tables have been omitted. Sampling begins at page 0402.</samplingDesc>
<editorialDecl><conformance level="1"></conformance></editorialDecl>
</encodingDesc>
<profileDesc>
<creation><date>03-08-12</date></creation>
<langUsage>Oriya</langUsage>
<wsdUsage>
<writingSystem id="ISO/IEC 10646">Universal Multiple-Octet Coded Character Set (UCS).</writingSystem>
</wsdUsage>
<textClass>
<channel mode="w">print</channel>
<constitution type="composite"></constitution>
<domain type="public"></domain>
<factuality type="fiction"></factuality>
</textClass>
<translations></translations>
</profileDesc>
<revisionDesc></revisionDesc>
</cesHeader>

<text><body>

<p>&lt;ଅଜବ କଖାରୁ , ଲେ - ଦାଶ ବେନହୁ଱୍
ଗୋଟିଏ ରାଜ୍ଯରେ ଥାଆନ୍ତି ଦୁଇଟି ଲୋକ ।
ଜଣେ ଅତି ଗରିବ ଓ ଆଉ ଜଣେ ଅତି ଧନୀ ।</p>

<p>ଗରିବ ଲୋକନାଥର ମାତ୍ର ଖଣ୍ଡିଏ ବୋଲି ଚାଷ
ଜମି । ସେଥିରେ ସେ ଧାନ ଫସଲ କରି ଅତି
କଷ୍ଟରେ ବର୍ଷକ ଚଳିୟାଏ ।</p>

<p>ଧନୀ ହରିନାଥ କିନ୍ତୁ ବିରାଟ ବେପାରୀ ।
ଡାଲି , ଚାଉଳ , ଭୂଷାମାଲ୍ ବେପାର କରିବା ପାଇଁ ସେ
ରାଜାଙ୍କ ପାଖରୁ ଅନୁମତି ପାଇଥାଏ । ଧନ କମେଇ ଥାଏ
ଅନେକ । ତଥାପି ତା'ର ବଡ ଲୋଭ । ତା'ର
ଇଚ୍ଛା , ଆଉ କେଉଁ ବାଟେ କିଛି ଅଧିକ ଧନ ସମ୍ପତ୍ତି
ତାକୁ ମିଳିୟାଆନ୍ତା କି ?</p>

<p>ବେପାରୀ ବିରାଟ ଘର ତୋଳିଥାଏ । ତାକୁ
ଚାହିଁ ସେମିତି ବାଡି ବଗିଚା । ପ୍ରକୃତରେ ତା'ର
କେଉଁଥିରେ ଅଭାବ ନ ଥାଏ ।</p>

<p>ବେପାରୀ ହରିନାଥର ବାରିପଛକୁ ଚାଷୀର ଘର ।
ଦିନେ ସକାଳୁ ଚାଷୀ ତା' ଜମି ଆଡକୁ ୟାଉ
ୟାଉ ଦେଖିଲା , ହରିନାଥର ଖତଗଦା ପାଖରେ ଗୋଟିଏ
ଛୋଟ କଖାରୁ ଗଛ ଉଠିଛି । ଖତଗଦା ପାଖରେ
ଏମିତି ଅନେକ ଅନାବନା ଗଛ ଉଠେ , ପୁଣି
ଗୋବର ବେଶୀ ଜମା ହେଲେ ମରିୟାଏ । ଚାଷୀ
କ'ଣ ଭାବିଲା କେଜାଣି , ସେଇ କୁନି କଖାରୁ ଗଛଟିକୁ
ଆଦର କରି ଉଠେଇ ଆଣିଲା , ନିଜ ବାଡିରେ
ଲଗେଇ ଦେଲା ।</p>

<p>ସେଇଦିନୁ ସେ ଅନ୍ଯ ଗଛମାନଙ୍କ ସହିତ କଖାରୁ
ଗଛଟିରେ ମଧ୍ଧ କିଛି ପାଣି ଏବଂ ଖତସାର ଦେଉଥାଏ ।
ଚାହୁଁ ଚାହୁଁ କଖାରୁ ଗଛଟି ବିରାଟ ବିରାଟ ପତର
ମେଲେଇ ଉପରକୁ ଉଠିଲା । ସେଥିପାଇଁ ଚାଷୀ
ଗୋଟାଏ ଭାଡି ତିଆରି କଲା । ତଥାପି କଖାରୁ ଗଛକୁ
ତାହା ଅଣ୍ଟିଲାନି । ସେ ପୁଣି ଆଉଗୋଟେ ଭାଡି
କଲା । ସାମାନ୍ଯ କଖାରୁ ଗଛଟା ଏତେ ବଡ
ହେବାର ସେ କେବେ ଜାଣି ନ ଥିଲା । କୌଣସି
କଖାରୁ ଗଛର ଏତେ ବଡ ବଡ ପତ୍ର ସେ ଦେଖି
ନ ଥିଲା କେବେ ।</p>

<p>ଚାହୁଁ ଚାହୁଁ ସେଥିରେ ଫୁଲ ଫୁଟିଲା , ଫଳ
ଧରିଲା । ଏତେ ବଡ କଖାରୁ ଗଛ ଦେଖି ଚାଷୀ
ମନଖୁସି କରିଥିଲା ୟେତିକି ; ଏବେ ମନଦୁଃଖ କଲା
ମଧ୍ଧ ସେତିକି । କାରଣ କଷି ଅବସ୍ଥାରୁ ହିଁ ଫୟଳଗୁଡିକ
ପଚି ଝଡି ପଡୁଥାଏ ।</p>

<p>ଶେଷକୁ ଗୋଟିଏ ମାତ୍ର ଫଳ ଗଛରେ ରହିଲା ।
ଦିନକୁ ଦିନ ସେଇଟି ବଡ ହେବାକୁ ଲାଗିଲା ।
ଲେମ୍ବୁ ପରି କଷିଟି ଆସ୍ତେ ଆସ୍ତେ ବେଲ ପରି ହେଲା ।
ତା'ପରେ ଆଉ ଟିକିଏ ଆଉ ଟିକିଏ ବଢି ମାସକ
ଭିତରେ କଖାରୁଟା ଏତେ ବଡ ହୋଇଗଲା ୟେ
ଗୋଟିଏ ଶଗଡରେ ତା' ପାଇଁ ମଧ୍ଧ ଜାଗା ଅଣ୍ଟିବା
କଷ୍ଟକର ।</p>

<p>ଚାଷୀ ଲୋକନାଥ ଭାବିଲା , ଏତେ ବଡ କଖାରୁ
ନେଇ ମୁଁ କରିବି କଣ ? କିଏ ବା ଏତେ ବଡ
କଖାରୁ କିଣିବ ? ତେଣୁ ସେ ଠିକ୍ କଲା , ଏ
କଖାରୁଟି ନେଇ ରାଜାଙ୍କୁ ଉପହାର ଦେବ ।</p>

<p>ୟେତେବେଳେ ରାଜାଙ୍କ ପାଖରେ ପହଞ୍ଚିଲା ,
ସମସ୍ତେ କଖାରୁ ଦେଖି ଧନ୍ଯ ଧନ୍ଯ କଲେ । ରାଜା
ମଧ୍ଧ ଖୁବ୍ ଖୁସି ହୋଇଗଲେ । ଏଭଳି ଗୋଟାଏ
ଫଳ ଫଳାଇ ପାରିଥିବାରୁ ରାଜା ଲୋକନାଥକୁ ଅନେକ
ଧନରତ୍ନ ପୁରସ୍କାର ଦେଲେ । ସେ ଚାଷୀକୁ ପଚାରିଲେ -
" ଏ କଖାରୁ ଗଛ ପାଇଁ ମଞ୍ଜି ତୁମେ କୋଉଠୁ ପାଇଲ ? "
ଲୋକନାଥ କହିଲା - " ହଜୁର , ମୋ ପଡୋଶୀ
ହରିନାଥଙ୍କ ଖତଗଦା ପାଖରେ ଟିକି ଗଛଟିଏ ଉଠିଥିଲା ।
ସେଇଟିକୁ ନେଇ ମୁଁ ବଢେଇ କୁଢେଇ ଏ ଫଳ
ଫଳେଇଛି । "</p>

<p>ତା'ପରଦିନ ରାଜାଙ୍କ ସଭାରେ ବେପାରୀ
ହରିନାଥ ଆସି ହାଜର । ସେ ହାତୟୋଡି କହିଲା -
ହଜୁର ଲୋକନାଥ ୟେଉଁ ପୁରସ୍କାର ପାଇଲା , ସେ
ପୁରସ୍କାର ମୋର । କାରଣ ସେ କଖାରୁ ଗଛଟି ମୁଁ
ମୋ ଖତଗଦା ପାଖରେ ଲଗାଇଥିଲି । ଲୋକନାଥ
ସେ ଗଛଟା ମୋତେ ନ କହି ନେଇ ୟାଇଛି । ତେଣୁ
ତାକୁ ଦଣ୍ଡ ମିଳୁ । "</p>

<p>ରାଜା ଜାଣିପାରିଲେ ହରିନାଥ ପୁରସ୍କାର
ଲୋଭରେ ପଡି ଏ କଥା କହିଛି । ତାଙ୍କ ରାଜ୍ଯରେ
ୟେଉଁଠି ୟେତେ ଖତଗଦା ଥିଲା ସବୁ ରାଜାଙ୍କ ଜମିରେ ।
ତେଣୁ ହରିନାଥ ତା ଜାଗାରେ ଗଛ ଲଗାଇ
ନ ଥିଲା ।</p>

<p>ରାଜା ପଚାରିଲେ - " ଆଚ୍ଛା , ଏ କଖାରୁ ଗଛର
ମଞ୍ଜି ତୁମେ କେଉଁଠାରୁ ପାଇଲ ? "
ହରିନାଥ କହିଲା - " ମହାରାଜ , ମୁଁ ବଣିଜ
କରିବାଲାଗି ବିଦେଶ ୟାଇଥିଲାବେଳେ ଜଣେ ଚାଷୀଠାରୁ
ଏଇଟି କିଣି ଆଣିଥିଲି । ଖତଗଦା ପାଖରେ ହିଁ ସେଇଟି
ପୋତିବା ଲାଗି ସେ ମୋତେ କହିଥିଲା । ଗଜାଟି ଦି'
ପତ୍ର ହେବାବେଳକୁ ଲୋକନାଥ ସେଇଟି ନେଇୟାଇଛି । "</p>

<p>ରାଜା ଏଥର ତାଙ୍କ ଘୋଷଣା ଜଣାଇଦେଲେ -
" ହରିନାଥକୁ ବ୍ଯବସାଯ କରିବା ପାଇଁ ଆଉ ଅନୁମତି
ମିଳିବ ନାହିଁ । ସେ ଏଣିକି କେବଳ କଖାରୁ ଚାଷ
କରିବ । ବର୍ଷକ ଭିତରେ ସେ ଏଭଳି ବଡ ଆକାରର
କଖାରୁ ଫଳାଇ ନ ପାରିଲେ ତାକୁ ରାଜ୍ଯରୁ ବାହାର
କରିଦିଆୟିବ । ତା'ର ସବୁ ସମ୍ପତ୍ତି ଗରିବ
ଲୋକଙ୍କ ଭିତରେ ବାଣ୍ଟି ଦିଆୟିବ । "</p>

<p>ହରିନାଥ ଏଥର ଆଉ କରେ କ'ଣ ? ତାକୁ
ଦଶଦିଗ ଅନ୍ଧାର ଦିଶିଲା । ରାଜାଙ୍କ ଆଗରେ କାନ୍ଦ
କାନ୍ଦ ହୋଇ ସେ କହିଲା - " ହଜୁର , ଲୋଭରେ ପଡି
ଏପରି କହିଥିଲି । ପ୍ରକୃତରେ କଖାରୁ ମଞ୍ଜି ମୁଁ
ଲଗାଇ ନ ଥିଲି । ମୋତେ କ୍ଷମା କରି ଦିଅନ୍ତୁ । ଏପରି
ଭୁଲ୍ ଆଉ ମୁଁ କେବେ କରିବି ନାହିଁ । "</p>

<p>ରାଜା ହରିନାଥକୁ କ୍ଷମା କରିଦେଲେ ସତ ;
ମାତ୍ର ତାଙ୍କ ରାଜ୍ଯରେ ବ୍ଯବସାଯ କରିବା ପାଇଁ ତାକୁ
ଆଉ ଅନୁମତି ମିଳିଲା ନାହିଁ । ନିଜ ସମ୍ପତ୍ତିର ଅଧେ
ଗରିବ ଲୋକଙ୍କୁ ବଣ୍ଟା ହେଲା । //
ଏ କଥା ଶୁଣି ରାଣୀ କହିଲା - " ମୋର ବିନା
ଅନୁମତିରେ ସେ ଆମ ରାଇଜକୁ ଆସିଲା କେମିତି ? "</p>

<p>ରାଣୀ ପିମ୍ପୁଡି ସାଙ୍ଗେ ସାଙ୍ଗେ ତା ସୈନ୍ଯବାହିନୀକୁ
ତିଆରି ହୋଇୟିବା ପାଇଁ ହୁକୁମ୍ ଦେଲା । କହିଲା -
" ୟାଅ , ସେଇ ଜାପାନୀ ଜାହାଜିଆ ପିମ୍ପୁଡିକୁ ବାନ୍ଧି
ଆଣ । ମୁଁ ତାକୁ ଠିକଣା ପାଠ ପଢାଇ ଦେବି । "</p>

<p>ଫୌଜୀ ପିମ୍ପୁଡିମାନେ ସାଙ୍ଗେ ସାଙ୍ଗେ ଧାଡି ବାନ୍ଧି
ଠିଆ ହୋଇଗଲେ । ରାଣୀ ପିମ୍ପୁଡି ଫୌଜୀମାନଙ୍କ
କରାମତି ସମ୍ପର୍କରେ ଗୋଟିଏ ଭାଷଣ ଦେଲା ।</p>

<p>ସେ କହିଲା - " ବାହାଦୂର ସୈନିକମାନେ , ତୁମ
ବଳ ତୁମେ ନିଜେ ମଧ୍ଧ ଜାଣ ନାହିଁ । ସୈନିକ
ପିମ୍ପୁଡିମାନଙ୍କୁ ସିଂହ ପରି ଜନ୍ତୁ ମଧ୍ଧ ଡରେ । ଛାର
ଛିକର ମଣିଷକୁ କିଏ ପଚାରେ ? ଆଫ୍ରିକାରେ ଦଳେ
ସୈନିକ ପିମ୍ପୁଡି ଅଛନ୍ତି , ସେମାନଙ୍କ କଥା ଶୁଣିଲେ
ତୁମକୁ ଆଶ୍ଚର୍ୟ୍ଯ ଲାଗିବ ।</p>

<p>ଥରେ ଗୋଟିଏ ଅରଣା ମଇଁଷି ପଡିଆରେ
ଘାସ ଚରୁ ଚରୁ ପିମ୍ପୁଡି ଗାତ ଉପରେ ତାର ପାଦ
ପଡିଗଲା । ଦେଖୁ ଦେଖୁ ସେଇ ସବୁଜ ପଡିଆର
ଗୋଟିଏ ଦିଗ ନାଲି ହୋଇଗଲା । ତା' ପରେ
ପଡିଆର ଚାରି ଦିଗରେ ଦିଶିଲା ସେଇ ନାଲି ରଙ୍ଗ ।
ସେ ରଙ୍ଗ କ୍ରମେ କ୍ରମେ ମଇଁଷି ଆଡକୁ ମାଡି ଆସିଲା ।
ମଇଁଷିର ପାଖାପାଖି ହୋଇଗଲା । ଶେଷରେ ମଇଁଷିକୁ
ବେଢିଗଲା । ଏ ନାଲି ରଙ୍ଗ ଆଉ କିଛି ନୁହେଁ ।
ଏମାନେ ତୁମରି ପରି ଫୌଜୀ ନାଲି ପିମ୍ପୁଡି । କିଛି
ସମଯ ପରେ ଦେଖିଲା ବେଳକୁ ମଇଁଷି ନାହିଁ ,
କେବଳ ତା'ର ହାଡ କଙ୍କାଳ ପଡି ରହିଛି । "</p>

<p>ରାଣୀ ପିମ୍ପୁଡି ପୁଣି କହିଲା - " ତୁମର ବଳ
ଅଛି , ତୁମେ ଚାହିଁଲେ ଶତ୍ରୁକୁ ନିପାତ କରି ଦେଇ~
ପାରିବ । କିନ୍ତୁ ମୁଁ ଚାହେଁ , ତୁମେ ତାକୁ ଜୀଅନ୍ତା
ଧରି ଆଣ । "</p>

<p>ସୈନ୍ଯମାନେ ଡେରି ନ କରି ଅଭିୟାନରେ
ବାହାରି ପଡିଲେ । ଆଣ୍ଟା ୟେଉଁବାଟେ ଫେରିବ
ଆଗରୁ ୟାଇ ସେମାନେ ସେଇ ବାଟ ଜଗିବେ
ବୋଲି ଠିକ୍ ହେଲା । ଇଞ୍ଜିନିଅର ପିମ୍ପୁଡି ଦଳ
ଆଗେ ବାହାରି ପଡିଲେ ରାସ୍ତା ଭଲ ଅଛି କି
ନାହିଁ ଦେଖିବେ ବୋଲି । ବାଟରେ ପଡିଲା ଗୋଟିଏ
ଛୋଟ ନଳା । ସେଥିରେ ହୋଟେଲ୍ ପାଣି ୟାଉଥାଏ ।
ଇଞ୍ଜିନିଅରମାନେ ସେଠାରେ ମାଟି ପକାଇ ରାସ୍ତାଟିଏ
କରିଦେଲେ । ପିମ୍ପୁଡି ଫୌଜ ସେଇ ରାସ୍ତାରେ ନଳା
ପାରି ହୋଇଗଲେ ।</p>

<p>କିନ୍ତୁ ଏହା ପରେ ୟେଉଁ ବଡ ନଳାଟି ପଡିଲା
ସେଥିରେ ଥିଲା ବହୁତ ପାଣି ଓ ସୁଅ । ସେଠାରେ
ରାସ୍ତା ହେବା କଷ୍ଟକର । ଇଞ୍ଜିନିଅରମାନେ ଗୋଟାଏ
ବୁଦ୍ଧି ବାହାର କଲେ । ଡେରି ନ କରି ସେମାନେ
ଗୋଟିକ ପରେ ଗୋଟିଏ ନଳାରେ ପଶିଲେ ।
ଜଣକ ଗୋଡରେ ଅନ୍ଯର ଗୋଡ ଛନ୍ଦାଛନ୍ଦି ହୋଇ
ନଳା ପାଣିରେ ଭସା ପିମ୍ପୁଡି ପୋଲଟିଏ ତିଆରି
ହୋଇଗଲା । ପିମ୍ପୁଡିଙ୍କ ପିଠି ଉପରେ ଚଢି ପୁରା
ଫୌଜ ଆରପାରିକୁ ଚାଲିଗଲେ । ତା' ପରେ ପରେ
ପୋଲ ଉଭାନ୍ ହୋଇଗଲା ।</p>

<p>ଏହି ସୈନିକ ପିମ୍ପୁଡିଙ୍କୁ ସାହାୟ୍ଯ କରିବା
ପାଇଁ ରାଣୀ ପିମ୍ପୁଡି ଦଳେ ଉଡନ୍ତା ପିମ୍ପୁଡିଙ୍କୁ ମଧ୍ଧ
ପଠାଇଦେଲା । ଏମାନେ ଆକାଶଛତା ବାହିନୀ ପରି
ଶୂନ୍ଯରୁ ଖପ୍ ଥାପ୍ ହୋଇ ତଳକୁ ଡେଇଁ ପଡିଲେ ।
ଅଧାବାଟରେ ଦୁଇପଟେ ଦୁଇଟି ଧାଡି କରି ସୈନିକ
ପିମ୍ପୁଡିମାନେ ଲୁଚି ଛପି ରହିଗଲେ । ଅପେକ୍ଷା
କଲେ , କେତେବେଳେ ଜାହାଜିଆ ପିମ୍ପୁଡି ଆସିବ ,
ସେମାନେ ତାକୁ ଧରି ନେବେ ।</p>

<p>ଖାଇସାରିବା ପରେ ଆଣ୍ଟାର ପେଟ ଗରୁ ହୋଇ
ୟାଇଥାଏ । ତେଣୁ ସେ ଧୀମେଇଁ ଧୀମେଇଁ ଚାଲୁଥାଏ ।
ୟେମିତି ସେ ଫୌଜୀ ପିମ୍ପୁଡିମାନଙ୍କ ପାଖକୁ ଆସିଛି ,
ସେମାନେ ତାକୁ ଘେରିଗଲେ । ଏତେ ପିମ୍ପୁଡିଙ୍କ
ପାଖରେ ସେ ଏକୁଟିଆ କ'ଣ ବା କରିବ ? ତଥାପି
ପାରୁପର୍ୟ୍ଯନ୍ତ ଲଢିଲା । ଶେଷରେ ହାରିଗଲା ।
ଫୌଜୀ ପିମ୍ପୁଡିମାନେ ତାକୁ ବାନ୍ଧି ରାଣୀ ପାଖକୁ
ଟାଣି ନେଇଗଲେ ।</p>

<p>ଆଣ୍ଟାକୁ ରାଣୀ ପିମ୍ପୁଡି ପଚାରିଲା - " କିରେ
ଜାହାଜିଆ , କାହା ଅନୁମତି ନେଇ ତୁ ମୋ ରାଇଜକୁ
ଆସିଲୁ ? "</p>

<p>ଆଣ୍ଟା କହିଲା - " ମହାରାଣୀ , ଜାହାଜରେ ଜଣେ
ୟାତ୍ରୀର ଗଣ୍ଠିଲି ଭିତରେ ଲୁଚିଥିଲି । ବଡ ଆରାମରେ
କେକ୍ ବିସ୍କୁଟ୍ ଖାଉଥିଲି । ୟାତ୍ରୀଜଣକ ଏହି
ବନ୍ଦରରେ ଓହ୍ଲାଇବ ବୋଲି ମୋତେ ଜଣା ନ ଥିଲା ।
ସେ ମୋତେ ତା ଗଣ୍ଠିଲିରେ ନେଇ ଆସିଲା । ମୁଁ
ନିଜ ଇଚ୍ଛାରେ ଆସି ନାହିଁ ।</p>

<p>ଆଣ୍ଟା ପୁଣି କାକୁତି ମିନତି ହୋଇ କହିଲା -
" ମୋର ବଡ ଭୁଲ୍ ହୋଇଛି । ମୁଁ ପ୍ରଥମେ ଆସି
ଆପଣଙ୍କୁ ଦେଖା କରି ପାରି ନାହିଁ । ମୋତେ କ୍ଷମା
କରନ୍ତୁ । "</p>

<p>ରାଣୀ ପିମ୍ପୁଡିର ତା' ପ୍ରତି ଦଯା ହେଲା ।
ସେ ତାକୁ ଖଲାସ୍ କରିଦେଇ ସୈନିକ ପିମ୍ପୁଡିଙ୍କୁ
କହିଲା - " ଏ ଆମର ଅତିଥି । ୟେତେଦିନୟାଏ
ତାଙ୍କ ଜାହାଜ ପାରାଦୀପ ବନ୍ଦରରେ ଥିବ , ସେତେ
ଦିନ ପର୍ୟ୍ଯନ୍ତ ଇଏ ଏଠାରେ ରହିବ । ନିଅ ,
ଏହାଙ୍କୁ ଆଦର ୟତ୍ନ କରି ଅତିଥି ଭବନରେ
ରଖାଇ ଦିଅ । "
 +&gt;*
               0 
</p></body></text></cesDoc>