<cesDoc id="hin-w-socsci-education-lot9p" lang="hin">
<cesHeader type="text">
<fileDesc>
<titleStmt>
<h.title>hin-w-socsci-education-lot9p.txt</h.title>
<respStmt>
<respType>Electronic file created by</respType>
<respName>Central Institute for Indian Languages, Mysore</respName>
<respType>transferred into Unicode and CES format by</respType>
<respName>"Unicodify" software by Andrew Hardie</respName>
</respStmt></titleStmt>
<publicationStmt>
<distributor>UCREL (on behalf of CIIL)</distributor>
<pubAddress>Department of Linguistics, Lancaster University, Lancaster, LA1 4YT, UK</pubAddress>
<availability region="WORLD"></availability>
<pubDate>03-07-27</pubDate>
</publicationStmt>
<sourceDesc>
<biblStruct>
<monogr>
<h.title>Shiksha darshan</h.title>
<h.author>Ramshakal Pandey</h.author>
<imprint>
<pubPlace>India</pubPlace>
<publisher>Unknown - V.P.M. - Agara</publisher>
<pubDate>1990</pubDate>
</imprint>
<idno type="CIIL code">lot9p</idno>
</monogr></biblStruct></sourceDesc></fileDesc>
<encodingDesc>
<projectDesc>Text collected for the CIIL Corpus, subsequently integrated into the EMILLE/CIIL Monolingual Written Corpora.</projectDesc>
<samplingDesc>Simple written text only has been transcribed. Diagrams, pictures and tables have been omitted. Sampling begins at page 108 to 113.</samplingDesc>
<editorialDecl><conformance level="1"></conformance></editorialDecl>
</encodingDesc>
<profileDesc>
<creation><date>03-07-27</date></creation>
<langUsage>Hindi</langUsage>
<wsdUsage>
<writingSystem id="ISO/IEC 10646">Universal Multiple-Octet Coded Character Set (UCS).</writingSystem>
</wsdUsage>
<textClass>
<channel mode="w">print</channel>
<constitution type="composite"></constitution>
<domain type="public"></domain>
<factuality type="fact"></factuality>
</textClass>
<translations></translations>
</profileDesc>
<revisionDesc></revisionDesc>
</cesHeader>

<text><body>

<p>&lt;2700&gt;&lt;Pandey-Shiksha Darshan&gt;&lt;Dhananjay kumar&gt;&lt;आदर्शवाद के विपक्ष में कुछ तर्क</p>

<p>आदर्शवाद का प्रबल समर्थक बर्कले था। बर्कले ने गुणों का आधार नहीं माना।
ये गुण किसके? इस प्रश्नों का उत्तर बर्कले के मत से नहीं मिलता।
वास्त-~विक जगत और स्वप्न के पदार्थो में क्या अन्तर है? बर्कलेवाद इसे
समझा नहीं पाता। बर्कले ने ईश्वर के विषय में कोई प्रमाण नहीं दिया है।</p>

<p>प्लेटों ने जिस प्रत्ययवाद को जन्म दिया था, उसमें तो प्रत्यय और
प्रत्यक्ष-~ज्ञान के बीच में ही खाई थी और उसे वह पाट नहीं पाया था।
प्लेटो ने जड़-पदार्थ को सामान्य प्रत्ययों की नकल के रूप में स्वीकार
किया है, किन्तु दृश्य-जगत और प्रत्यय के सम्बन्ध को प्लेटों ने स्पष्ट
नहीं किया। प्लेटों ने यह भी नही कहा कि प्राकृतिक जगत आध्यात्मिक है,
अत: वे एक प्रकार से जड़-जगत की सत्ता को स्वीकार कर रहे थे।</p>

<p>कॉन्ट ने यह कहा है कि हम मूल सत्ता को जान ही नहीं सकते। तत्त्व दर्शन
में तो तत्त्व ही जाना जाता है और कॉन्ट उसी के विषय में कहता है कि वह
जाना नहीं जा सकता। कैसी विचित्र स्थिति है। कॉन्ट ने मूलतत्त्व की
वस्तुनिष्ठ भत्ता मानी है। किन्तु उनका विचार आदर्शवाद की व्याख्या नहीं
कर पाता। उनके मत में प्रतीति और मूल सत्ता में भेद है, अत: वे एक प्रकार
से द्वैतवाद का समर्थन कर देते हैं।</p>

<p>तत्त्व-दर्शन में व्यावहारिकतावाद</p>

<p>व्यावहारिकतावाद का उदय आदर्शवाद के विरोध में हुआ। आदर्शवाद जगत को तथा
मनुष्य के कार्यो को पूर्वनिश्चित बताता है। इससे सृष्टि का स्वरूप
निर्धारित हो जाता है और व्यक्ति के प्रयास के लिए इसमें कुछ लोगों के
अनुसार स्थान नहीं रह जाता है। इस स्थिति का विरोध करते हुए
व्यावहारिकतावादी बताता है कि जगत परिवर्तनशील है, अत: इसमें किसी
पूर्व-नियोजित सत्य को ढूँढना व्यर्थ है। सत्य का निर्माण स्वयं मनुष्य
करता चलता है। मनुष्य अपने कर्मो से तथा जीवन-प्रारब्ध से संचालित नहीं
होता। वह कर्म करने में स्वतन्त्र है।</p>

<p>व्चावहारिकतावाद पूर्णत: व्यावहारिक दर्शन है। इसका दृष्टिकोण नैमित्तिक
तथा प्रयोगात्मक है। यह सिद्धान्तों को व्यवहार के आधार पर निर्मित मानता
है, अप: इसमें सिद्धान्तों की विशेष गुंजाइश नहीं होती। तत्व-दर्शन में
सिद्धान्तों पर ही सर्वाधिक विचार होता है, अत: यह कहा जा सकता है कि
व्यावहारिकतावाद की रुचि तत्त्व-दर्शन में नहीं है। जॉन डीवी ने तो
स्पष्ट रूप से कहा था कि प्रकृति, मनुष्य, स्वर्ग, नरक, आत्मा, परमात्मा
आदि के विषय में निर्णय देना दर्शन का काम ही नहीं है। हम गत अध्यायों
में देख चुके हैं कि वह दर्शन के स्वरूप को ही अन्यथा समझता था और
तत्त्व-दर्शन को केवल काल्पनिक उड़ाने भरने वाला बताता था। डीवी के पहले
जेम्स तथा पीयसं ने इस वाद की ओर रुचि दिखायी थी। पीयर्स की मंशा वह नहीं
थी जो जेम्स ने बाद में व्यावहारिकतावाद के रूप में प्रदर्शित की थी। इस
वाद को प्रारम्भ करने का श्रेय पीयर्स को दिया जाता है, किन्तु विलियम
जेम्स ने ही सर्वप्रथम इस पर विस्तृत विचार किया था।</p>

<p>विलियम जेम्स के अनुसार सत्ता अनुभव में है। शिलर ने भी विलियम जेम्स के
विचार का ही समर्थन किया है। जॉन डीवी ने भी इसी प्रकार की धारणा व्यक्त
की है।</p>

<p>उपयुक्त तीनों विचारकों के विचारकों के विचारों में भी कुछ भेद है।
विलियम जेम्स मूलरूप से व्यावहारिकतावादी था, शिलर मानवतावादी तथा डीवी
नैमित्तिकवादी एवं प्रयोगवादी था।</p>

<p>व्यावहारिकतावाद एक दार्शिनिक पद्धति है, न कि स्वयंमेव कोई दर्शन हैं।
अत: इसने तत्त्व इसने तत्त्व-दर्शन पर ठीक से विचार नहीं किया।</p>

<p>तत्त्व-दर्शन में यथार्थवाद</p>

<p>आदर्शवाद पर विचार करते समय हम बकले के दर्शन पर विचार कर चुके हैं।
बर्कले ने ब्राह्य पदार्थ का अस्तित्व द्रष्टा के मन पर निर्भर माना है।
उसके अनुसार जब हम यह कहते हैं कि कोई पदार्थ है, तो प्रकारान्तर से हम
यही कहते हैं कि वह पदार्थ किसी न किसी इन्द्रिय का विषय है। भौतिक
पदार्थ का अस्तित्व हमारे अनुभव में है। बर्कले अनुभववादी था। वह किसी भी
ऐसे पदार्थ का अस्तित्व मानने को तैयार नहीं था जो अनुभव में न आये;
किन्तु अनुभवकर्ता का तथा परमात्मा का अस्तित्व उसने स्वीकार किया था। इस
प्रकार ज्ञान-शास्त्र की दृष्टि से वह आदर्शवादी था। जो दार्शनिक
ज्ञान-शास्त्र की दृष्टि से आदर्शवादी होता है, वह सताशास्त्र की दृष्टि
से अवश्यमेव आदर्शवादी हो जाता है। सत्ता-शास्त्र में आदर्शवादी केवल
विचारों की ही अन्तिम सत्ता मानता है।</p>

<p>आदर्शवाद के सत्ता-शस्त्र में प्रबल दोष है कि यह मनुष्य के सामान्य
अनुभव को तिरस्कृत करता है। जब मैं किसी काम से इस कमरे से बाहर जाता हूँ
तो यह मानकर जाता हूँ कि यहाँ पर रखी हुई सभी वस्तुएँ मेरी अनुपस्थिति
में भी विद्यमान रहेंगी। साधारण अनुभव यह बताता है कि चाहे हम किसी
पदार्थ को देखे या न देखें, उसके अस्तित्व पर कोई प्रभाव नहीं पड़ता।
बर्कले वस्तुओं का अस्तित्व केवल द्रष्टा पर निर्भर मानता था और वह
दृष्टि ही सृष्टि है कहकर द्रष्टा की अनुपस्थिति में पदार्थों का
अस्तित्व भी समाप्त हो जाने की बात करता था।</p>

<p>इस प्रकार की धारणा के विरुद्ध दर्शन म यथार्थवाद का उदय हुआ। यथार्थवाद
वस्तुओं के अस्तित्व को यथार्थ बताता है, इसलिए इसे यथार्थवाद कहा जाता
है। यह वस्तुओं को मानसिक न मानकर, मन से स्वतन्त्र मानता है।</p>

<p>वस्तुओं के स्वतन्त्र अस्तित्व के विषय में यथार्थवादी अनेक प्रमाण देता
है। पहला प्रमाण तो यही है कि प्रत्येक प्राणी का विश्वास है कि वह
वास्तव में बाह्य वस्तुओं से सम्पर्क स्थापित करता है। इसी स्पष्टता के
आधार पर डॉ. जॉनसन ने जोर से जोर से पत्थर पर पैर पटक कर कहा था कि
बर्कले का मनस्वाद भ्रामक है। दूसरा प्रमाण यह है कि प्रत्येक व्यक्ति
में एक नैतिक विश्वास रहता है और वह यह सोचकर काम करता है कि जो कुछ वह
कर रहा है वह यथार्थ संसार में काम कर रहा है, न कि स्वप्न में। तीसरा
प्रमाण विज्ञान, मनोविज्ञान आदि विद्याओं के सम्बन्ध के कारण जो बौद्धिक
विश्वास उत्पन्न होता है, वह बताता है कि जगत् यथार्थ है चतुर्थ प्रमाण
तार्किकता है। तार्किक निश्चय भी इसी बात को प्रमाणित करता है--क्योंकि
जब सृष्टि ही नहीं होगी तो उसका विचार कैसे होगा।</p>

<p>प्लटो का यथार्थवाद--आधुनिक यथार्थवाद ज्ञानशास्त्रीय दर्शन है।
तत्त्व-~दर्शन की दृष्टि से यथार्थवाद अत्यन्त प्राचीन है। तत्त्व-दर्शन
में तो प्लेटों को यथार्थ-~वादी कहा जाता है। इसका क्या तात्पर्य है?
प्लेटों का तत्व-दर्शन प्रत्ययों की व्याख्या करता है। ये प्रत्यय क्या
हैं? सामान्य प्रत्यय यथार्थ हैं? जब हम `अश्व' कहते हैं तो हमारे मन में
`अश्व' को एक सामान्य विद्यमान रहता है। आधुनिक मनोविज्ञान बताता है कि
ये सामान्य प्रत्यय विशेष प्रत्ययों के आधार पर बन गये है और ये केवल
प्रत्यय ही है। कुछ इसे केवल `नाम' की संज्ञा देते हैं। जो लोग केवल नाम
कहते हैं, उन्हें `नामावादी' कहा जाता था। जो केवल प्रत्यय बताते हैं,
उन्हें प्रत्ययवादी कहा जाता था। किन्तु प्लेटों के लिए ये प्रत्यय केवल
`नाम' या `सामान्य' प्रत्यय नहीं है, वरन् ये यथार्थ हैं। उसने प्रत्ययों
की दुनिया की बात कहीं है, जिसमें ये प्रत्यय यथार्थ सत्ता रखते हैं,
इसीलिए तत्त्व-दर्शन की दृष्टि से प्लेटो को यथार्थवादी कहा जाता है।</p>

<p>ज्ञान-शास्त्र में प्रकृतिवाद</p>

<p>ज्ञान-शास्त्र में जिन प्रश्नों का उत्तर दिया जाता है, उनमें से एक
प्रश्न ज्ञान के अर्थ से सम्बन्धित है। इस दृष्टि से ज्ञान `सत्य-ज्ञान'
तथा `मिथ्या-ज्ञान' दो प्रकार के होते हैं। दूसरा प्रश्न उठता है--क्या
ज्ञान प्राप्त किया जा सकता है? इस प्रश्न के उत्तर में यथार्थवाद भिन्न
मत देता है जिसका वर्णन आगे किया जायगा। सन्देहवाद ज्ञान की प्रगति की
सम्भावना में सन्देह व्यक्त करता है, और कहता है--ज्ञान व्यक्ति की
सम्मति के सिवा कुछ नहीं। तीसरा प्रश्न ज्ञान के मौलिक रूप से सम्बन्धित
होता है। इस दृष्टि से ज्ञान के दो रूप हैं--प्रत्यक्ष और अप्रत्यक्ष एक
प्रश्न सत्य के विषय में भी किया जाता है। इसके उत्तर में `सत्य
सार्वजनिक है' प्राय: कहा जाता है या इसका विरोध किया जाता है। एक प्रश्न
ज्ञान की सीमा के सम्बन्ध में उठाया जाता है। उत्तर में प्राय: कहा जाता
है कि सम्पूर्ण का ज्ञान हमारी पहुंच में नहीं है किन्तु इस आदर्श की ओर
हम बढ़ सकते हैं।</p>

<p>ज्ञान-शास्त्र में एक महत्वपूर्ण प्रश्न--ज्ञान प्राप्त करने की विधि से
सम्बन्धित है। हम ज्ञान कैसे प्राप्त करते हैं? इसका उत्तर विवादास्पद
है। यह विवाद प्रारम्भ से ही इन्द्रिय और विवेक या बुद्धि में है। कुछ
व्यक्ति कहते हैं कि इन्द्रिया ही ज्ञान की जड़ है। हमारा सारा ज्ञान
इन्द्रियों पर आधारित है। इन्द्रियों की ही क्रिया के फलस्वरूप हमारा
बाह्य वस्तुओं के सम्पर्क में आता है। हमारा बोध इन्हीं इन्द्रियों पर
आधारित है। जो इन्द्रियग्राह्य नहीं, वह ज्ञान कैसा? जो विचार परीक्षण की
कसौटी पर खड़ा नहीं उतरता; उसका कोई मूल्य नहीं है। यह विचार अनुभववाद
है। लॉक, बर्कले, ह्युम प्रसिद्ध अनुभववादी थे। कुछ अन्य व्यक्ति बुद्धि
को महत्वपूर्ण मानते हैं और कहते हैं कि बिना बुद्धि के प्रयोग के सत्य
ज्ञान सम्भव नहीं है। संवेदना अपने आप में निर्थक है और उसके योग से
ज्ञान सम्भव नहीं है। हमारा प्रत्यक्षीकरण संवेदना का योग नहीं है वरन्
एक पूर्ण इकाई है और इसमें विवेक योगदान है। इन्हें बुद्धिवादी या
विवेकवादी कहा जाता है। डेकार्ट, स्पिनोजा और लाइबनिज प्रसिद्ध विवेकवादी
थे। इन दोनों धारणाओं में सत्य तो है किन्तु इनमें असत्य का अंश भी है।
प्रसिद्ध दार्शनिक कॉन्ट ने इन दोनों विचार-~धाराओं में समन्वय स्थापित
किया और कहा कि ज्ञान की सामग्री तो बाहर से ही प्राप्त होती है, किन्तु
हमारा मन उस सामग्री की विशेष आकार प्रदान करने ज्ञान बना देता है। इस
प्रकार ज्ञान में इन्द्रियों एवं मन-दोनों का योगदान है। इन्द्रियाँ
सामग्री देती है, मन उन्हें आकृति प्रदान करता है। कॉन्ट के मत को
`आलोचनावाद' या `परीक्षावाद' कहा जाता है। बेकन के शब्दों में, अनुभववादी
चींटी के समान है जो अपने लिए बाहर से ही सामग्री एकत्र करते रहते हैं,
विवेकवादी मकड़ी के समान है जो अन्दर से ही सामग्री निकाल कर जाला बुनते
है। आलोचनावादी मधुमक्खी के समान है जो बाहर से पुष्प-रस एकत्र करके उसे
अपनी क्रिया से मधु का रूप दे देते हैं।</p>

<p>जहाँ तक ज्ञान से मौलिक रूप का प्रश्न है, प्रकृतिवादी प्रत्यक्ष ज्ञान
का समर्थन करते है; और जहाँ तक ज्ञान की विधि का प्रश्न है, वे अनुभववाद
की ओर झुकते हैं। प्रकृतिवादी सत्य को भी अनुभव में ही प्राप्त करना
चाहते हैं। प्रसिद्ध प्रकृतिवादी हरबर्ट स्पेन्सर ने कहा है कि हमारा
ज्ञान तीन प्रकार का होता है। पहला ज्ञान तो असंगठित अंशों का पुँज है और
यह नीचे स्तर का ज्ञान है। विज्ञान का स्तर इस ज्ञान से ऊंचा है। विज्ञान
में तथ्यों को संगठित किया जाता है। तत्त्वज्ञान समस्त ज्ञान को
व्यवस्थित करना चाहता है, अत: वह सर्वोच्चय ज्ञान है। साधारण ज्ञान
`असं-~गठित ज्ञान', विज्ञान तथा तत्त्वज्ञान `पूर्णरूपेण संगठित ज्ञान
है। रूसों ने प्रत्यक्ष ज्ञान पर अत्यधिक बल दिया है और उसने कहा है कि
शिक्षा में सभी स्तरों पर प्रत्यक्ष ज्ञान को ही महत्व दिया जाना चाहिए।</p>

<p>ज्ञान-शास्त्र में आदर्शवाद</p>

<p>ज्ञानशास्त्रीय आदर्शवाद केवल मनस् की सत्ता मानता है। बाह्य वस्तुओं को
ज्ञान मनस पर निर्भर है। यदि मनस् न हो तो बाह्य वस्तुओं का ज्ञान
प्राप्त नहीं हो सकता। हम अनेक पदार्थ देखते हैं। ये पदार्थ ज्ञेय है। हम
ज्ञाता हैं। क्या ज्ञेय की स्वतन्त्र अस्तित्व है? इसका उत्तर आदर्शवादी
नकार में देता है। ज्ञेय ज्ञाता पर ही निर्भर है। यदि ज्ञाता मनस् नहीं
है तो ज्ञेय का क्या अस्तित्व? इस मत का प्रबल समर्थक बर्कले रहा है।
उसने `दृष्टि की सृष्टि है' कहकर केवल मनस् की सत्ता को स्वीकार किया।</p>

<p>भारतीय दर्शन में बौद्ध-दर्शन की एक शाखा `योगाचार विज्ञानवाद' है।
योगाचार विज्ञानवाद भी ज्ञानशास्त्रीय आदर्शवाद का अच्छा उदाहरण है।
बर्कले ने तो आत्मा एवं परमात्मा का अस्तित्व माना था, योगाचार दर्शन ने
तो उसे भी अस्वीकार कर दिया। योगाचार दर्शन के अनुसार मन से बाहर संवेदना
का कोई स्रोत नहीं है। ज्ञान, ज्ञाता, ज्ञेय--सब एक ही हैं। ज्ञान, ज्ञान
को देखता है। बर्कले कहता था कि आत्मा प्रत्यय को देखता है। योगाचार
दार्शनिकों का कथन है कि ज्ञान ही ज्ञान को देखता है। उपर्युक्त
आदर्शवादी भी इतना तो मानते ही थे कि पदार्थ का वस्तुगत अस्तित्व न होते
हुए भी वास्तविक एवं काल्पनिक में भेद है और वास्तविक सन्तरा काल्पनिक
सन्तरे से भिन्न है।</p>

<p>यह आवश्यक नहीं है कि जो व्यक्ति तत्त्वज्ञान में आदर्शवादी हो, वह
ज्ञान-~शास्त्र में आदर्शवादी हो। हाँ, यह आवश्यक है कि जो व्यक्ति
ज्ञान-शास्त्र में आदर्श-~वादी होता है, वह तत्त्वज्ञान में अवश्यमेव
आदर्शवादी हो जाता है। प्रथम धारणा के उदाहरणस्वरूप हम प्लेटो एवं कुछ
आधुनिक यथार्थवादियों का नाम ले सकते है। द्वितीय धारणा के उदाहरण में
बर्कले सर्वप्रसिद्ध है। ज्ञान-शास्त्र में अधिकतर आदर्श-~वादी विवेकवादी
है और वे ज्ञान का आधार बुद्धि को मानते है।</p>

<p>ज्ञान-शास्त्र में व्यावहारिकतावाद</p>

<p>आदर्शवादियों में अधिकतर व्यक्तियों ने इन्द्रियों को महत्त्व नहीं दिया
और बाह्यजगत को गौण समझा। इस स्थिति का विरोध व्यावहारिकतावाद ने किया।
व्यावहारिकतावाद मूल रूप से ज्ञान-शास्त्र का ही दर्शन है। क्या ज्ञान
हमारी पहुँच में है? इस प्रश्न के उत्तर में कुछ लोगों ने बड़े विश्वास
से `हाँ' कहा था और कुछ ने सन्देह प्रकट करके सन्देहवाद को जन्म दिया था।
व्यावहारिकतावाद ने इन दोनों अतिवादों के बीच का मार्ग पकड़ा।</p>

<p>ज्ञान-शास्त्र की समस्याओं का समाधान करने के लिए व्यावहारिकतावाद में
मानवकतावाद का समर्थन किया और मनुष्य के अनुभवों को महत्वपूर्ण बताया।</p>

<p>साधारणतया हम ज्ञेय एवं माता--दो ही पदार्थों को स्वीकार करते है। तीसरा
पदार्थ है, वह है `चिन्ह' या `संकेत'। प्रसिद्ध दार्शनिक पीयर्स के
अनुसार ज्ञान-शास्त्र काम चिन्हों की व्याख्या करता है। ये चिन्ह
कारण-कार्य के सम्बन्ध को दिखाते हैं, यथा--लताओं के हिलने-डुलने को
देखकर हम वायु की गति एवं दिशा जान लेते है। कुछ चिन्ह समानता के द्योतक
है। `अश्व' का चित्र देखकर अश्व का ध्यान आ जाता है। कुछ चिन्ह किन्हीं
पदार्थों के चिन्ह सार्वजनिक रूप से स्वीकार कर लिये गये हैं। शब्द ऐसे
ही चिन्ह हैं।</p>

<p>ज्ञान-शास्त्र में हम प्राय: सत्य के स्वरूप के विषय में प्रश्न करते
हैं। पदार्थ के स्वरूप का निर्णय करने के लिए जेम्स कहता है कि हमें यह
देखना चाहिए कि वह पदार्थ हम पर क्या क्रिया करता है और हम उसके प्रति
क्या प्रतिक्रिया करते है। व्यवहारवाद के अनुसार सत्य वह है जो व्यवहार
में उतरता है। जो व्यवहार में नहीं आता है, वह असत्य है। बुद्धिवाद ने
बुद्धि पर अत्यधिक बल दिया था। कुछ धारणाएं ऐसी है, जिनके विषय में
बुद्धि कुछ बता ही नहीं सकती। डेकार्ट जैसे दार्शनिकों ने उस धारणा को
अमान्य ठहराया था जो बुद्धि द्वारा अग्राह्य हो। जेम्स कहता है--ऐसी दशा
में हमें भाव की ओर देखना चाहिए। यदि हमारा विश्वास हमें सन्तोष देता है
तो उसे ही मान लेना चाहिए और संकल्प की सहायता से अपनी भावना को दृढ़ कर
लेना चाहिए। पीयर्स वैज्ञानिक और दार्शनिक था, जेम्स मनो-~वैज्ञानिक था,
डीवी शिक्षा-शास्त्री था। तीनों के दर्शन को हम `व्यावहारिकतावाद' की
संज्ञा दे रहे है।</p>

<p>ज्ञान-शास्त्र में व्यवहारिकतावाद उपयोगितावाद का समर्थन करता है। जो
विचार लाभदायक है, वह सत्य है। इस प्रकार सत्य कहीं पर पूर्वनियोजित या
पूर्व-~निश्चित नहीं है, वरन् ज्ञान की प्रक्रिया में बन जाता है।</p>

<p>व्यावहारिकतावाद ज्ञाता और ज्ञेय के द्वैत को नहीं मानता। इस प्रकार एक
ओर तो वह निरपेक्ष विचारवाद का खण्डन करता है और दूसरी ओर यथार्थ-~वाद
का।</p>

<p>ज्ञान-शास्त्र में यथार्थवाद</p>

<p>आधुनिक यथार्थवाद मूलरूप में ज्ञान-शास्त्रीय यथार्थवाद ही है। यथार्थवाद
का मुख्य सिद्धान्त यह है कि ज्ञेय पदार्थ ज्ञाता से भिन्न है और उसकी
यथार्थ सत्ता है। आधुनिक यथार्थवाद की मुख्यत: दो शाखाएँ हैं--</p>

<p>1. नव्य यथार्थवाद, और</p>

<p>2. वैज्ञानिक यथार्थवाद।</p>

<p>नीचे इन दोनों पर अत्यन्त संक्षेप में विचार किया जा रहा है।
+&gt;
</p></body></text></cesDoc>