<cesDoc id="hin-w-administration-lot14c" lang="hin">
<cesHeader type="text">
<fileDesc>
<titleStmt>
<h.title>hin-w-administration-lot14c.txt</h.title>
<respStmt>
<respType>Electronic file created by</respType>
<respName>Central Institute for Indian Languages, Mysore</respName>
<respType>transferred into Unicode and CES format by</respType>
<respName>"Unicodify" software by Andrew Hardie</respName>
</respStmt></titleStmt>
<publicationStmt>
<distributor>UCREL (on behalf of CIIL)</distributor>
<pubAddress>Department of Linguistics, Lancaster University, Lancaster, LA1 4YT, UK</pubAddress>
<availability region="WORLD"></availability>
<pubDate>03-07-27</pubDate>
</publicationStmt>
<sourceDesc>
<biblStruct>
<monogr>
<h.title>A.R. 87-88 Dep. of P.G.&amp; Pension</h.title>
<h.author>Anon</h.author>
<imprint>
<pubPlace>India</pubPlace>
<publisher>Unknown - Min. of Works Public Grie. &amp; Pens. - New Delhi</publisher>
<pubDate>1988</pubDate>
</imprint>
<idno type="CIIL code">lot14c</idno>
</monogr></biblStruct></sourceDesc></fileDesc>
<encodingDesc>
<projectDesc>Text collected for the CIIL Corpus, subsequently integrated into the EMILLE/CIIL Monolingual Written Corpora.</projectDesc>
<samplingDesc>Simple written text only has been transcribed. Diagrams, pictures and tables have been omitted. Sampling begins at page 33 to 36.</samplingDesc>
<editorialDecl><conformance level="1"></conformance></editorialDecl>
</encodingDesc>
<profileDesc>
<creation><date>03-07-27</date></creation>
<langUsage>Hindi</langUsage>
<wsdUsage>
<writingSystem id="ISO/IEC 10646">Universal Multiple-Octet Coded Character Set (UCS).</writingSystem>
</wsdUsage>
<textClass>
<channel mode="w">print</channel>
<constitution type="composite"></constitution>
<domain type="public"></domain>
<factuality type="fact"></factuality>
</textClass>
<translations></translations>
</profileDesc>
<revisionDesc></revisionDesc>
</cesHeader>

<text><body>

<p>&lt;2600&gt;&lt;Anon - A.R. 87-88 Dep. of W.P.G. &amp; P.&gt;&lt;Dhananjay Kumar&gt;</p>

<p>&lt; पेंशन तथा पेंशनभोगी कल्याण
12.1 मौजूदा और भावी दोनों ही वर्गों के पेंशनभोगियों के पेंशन ढ़ांचे के संबंध
में चौथे वेतन आयोग की सभी मुख्य-मुख्य सिफारिशों को स्वीकार करते हुए एक सरकारी
संकल्प 18 मार्च 1987 को जारी कर दिया गया था। इस वर्ष के दौरान सरकार के
निर्णंयों का कार्यान्वन करने के प्रोयजन से पेन्शन और पेन्शन~भोगी कल्याण, विभाग
द्वारा आवश्यक अनुवर्ती कार्रवाई की गई थी। यह बात सुनिश्चित करने के प्रयोजन
से विशेष कदम उठाए गए थे, कि लाभ ग्रहियाँ को ये प्रसुविधाएं शीघ्रातिशीघ्र
प्राप्त हो जाए। इस उद्देश्य की पूर्ति के लिए सार्वजनिक क्षेत्रों के बैंकों तथा
भुगतान प्राधिकारियों को, इस विभाग द्वारा आदेशों के एक एकीकृत अंग के रुप में
जारी किए गए डेरी रेक्नरों के आधार पर, भुगतान करने के लिए प्राधिकृत कर दिया
गया।
सार्वजनिक क्षेत्रों के बैंकों के साथ बैठकें
12.2 वित्त मंत्रालय के बैकिंग प्रभाग के सहयोग से सार्व~जनिक क्षेत्रों के
बैंकों के साथ, 1 मई, 1987 को सरकारी स्तर पर बैठक बुलाई गई थी। इस बैठक में
सरकार द्वारा जारी किए गए विभिन्न आदेशों के वित्तीय प्रभाव बैंकरो को स्पष्ट
किए गए थे और ये प्रसुविधाएं वरिष्ठ नागरिकों तक पहुंचाने में, सार्वजनिक क्षेत्र
के बैंकों की महत्वपूर्ण भूमिका पर बल दिया गया था।
इसके बाद मंत्री जी ने पेंशन का संवितरण करने वाले सार्वजनिक
क्षेत्र के बैंको के मुख्य कार्यकारी अधिकारियों की 14-7-1987 को एक बैठक
बुलाई। मंत्री जी ने उन्हें 1986 से पहले के पेंशनभोगियों/परिवार पेंशन~भोगियों
को मंजूर की गई अतिरिक्त राहत की बकाया का शीघ्र भुगतान करने की आवश्यकता पर बल
दिया। इसके अतिरिक्त इस बात पर भी बल दिया गया कि न्यूनतम पेंशन के रुपए 375/-
प्रति माह तक बढ़ाए जाने के कारण जो बकाया देय हुई है। उसका भुगतान सभी पात्र
अधिकारियों को 31-7-1987 तक कर दिया जाना चाहिए। इस बैठक के निष्कर्षों की
महत्वपूर्ण बातें निम्न प्रकार हैं :-
(क) सभी बैंक पेंशन के संशोधन कार्य तथा बकाया का भुगतान 31-1-1987 तक सुनिश्चित
करने का प्रयास करेगें। एसे मामले में जहां पेंशनभोगी की बकाया को आदायगी नहीं
की जाती है, तो उसे अपनी शिकायत सीधे ही बैंक के कार्यकारी अधिकारी को सम्बोंधित
करनी चाहिए।
(ख) पेंशन पर मंहगाई राहत मंजूर करने से संबंधित आदेशों के भेजे जाने में होने
वाले विलम्ब से बचने के लिए, सार्वजनिक क्षेत्रों के बैकों की संयुक्त प्रचार
समिति संशोधित दरें तथा रेडी रेकनरों को देश के सभी प्रमुख समाचार पत्रों में
प्रकाशित करेगी जिसमें इन विज्ञापनों पर आधारित संशोधित मंहगाई राहत का भुगतान
करने के लिए बैंक की शाखाओं को भी प्राधिकृत किया जाएगा।
(ग) बैंक पेंशन कार्य का कम्प्यूटरीकरण आरम्भ करेंगे, ताकि काउण्टर क्लर्क को
पेंशन की देय बकाया की हाथ से गणना करने मे समय न लगाना पड़े।
यह प्रसन्ननाता की बात है कि सार्वजनिक क्षेत्रों के बैंकों ने 1986 से पहले के
पेंशनभोगियों/परिवार पेंशनभोगियों की बकाया का भुगतान करने का कार्य रिकार्ड समय
में पूरा कर दिया है।
12.3 सार्वजनिक क्षेत्रो के अधिकांश बैकों ने क्षेत्रीय/जोनल स्तर पर पेंशन
संवितरण कार्य का कम्प्यूटरीकरण भी कर दिया है। अन्य बैंकों ने भी इस दिशा में
कार्रवाई आरम्भ कर दी है।
12.4 जुलाई 1987 की चर्चा के परिणामस्वरुप, पेंशन~भोगियों को महंगाई राहत से
संबधित घोषणाएं भी अब सार्व~जनिक क्षेत्रों के बैकों की संयुक्त प्रचार समिति
द्वारा देश भर के प्रमुख समाचार पत्रों के माध्यम से की जा रही है और साथ ही
भुगतान करने के प्रयोजन से भुगतान करने वाली शाखाओं को प्राधिकृत कर दिया जाता
है और इस तरह उस विलंब को दूर कर दिया गया है दो सरकारी आदेशों को निम्नतम स्तर
पर भेजे जाने में पहले हो जाया करता था।
पेंशन के शीघ्र निपटान के लिए अभियान
12.5 सरकारी  कर्मचारियों की सेवानिवृति के दिन ही पेंशन के दावों का निपटान
करने के उद्देश्य से एक अभियान चलाया गया था। 23-1-1957 को निवेश जारी किए गए
थे जिनमें कार्यालयों/विभागों के अध्यक्षों के उपर सेवा निवृत्ति की तारीख को
ही उपदान तथा अन्य देय राशियों के भुगतान तथा पेंशन (अस्थायी अथवा अन्तिम पेंशन)
भुगतान आदेश दिए जाने की जिम्मेदारी सौंपी गयी थी। इसके अतिरिक्त इसी उद्देश्य
पूर्ति के लिए वर्ष के दौरान तीन ऐसे पोस्टर जारी किए गए थे जिनमें पेंशन के
कागजात तैयार करने वाले कार्मिकों तथा साथ-साथ सेवानिवृति कार्मचारियों को
नियमों के अन्तर्गत अपने-अपने दायित्वों की यादे दिलाई गई थी। ऐसे सेवानिवृत
कर्मचारी जो सेवानिवृत्ति के दिन अपनी उपदान कथा पेंशन भुगतान आदेश प्राप्त
पेंशनभोगी कल्याण विभाग को भेजें 15-3-1988 तक ऐसे 22 अभ्यावेदन प्राप्त हुए थे
जिनमें से 18 अभ्यावेदनों का निपटान कर दिया गया था।
12.6 उपरोक्त अनुदेश सभी राज्य सरकारों तथा संघ शासित क्षेत्रों के ध्यान में भी
लाए गये थे ताकि वे इन पर विचार करके, इन्हें लागू कर सकें। इसकी प्रतिक्रिया
उत्साहवर्धक रही है।
12.7 पेंशन तथा पेंशनभोगी कल्याण विभाग के कार्यकरण की कुछेक अन्य महत्वपूर्ण
बातें नीचे दी गई हैं :-
12.8 ऐसे अस्थायी/स्थायीवत् सरकारी कर्मचारी जो अधिवर्षिता पर सेवानिवृत्त होते
है अथवा अशक्त हो जाते हैं, उन्हें 20 साल के बजाय, 10 साल की अर्हक सेवा पूरा
करने के बाद पेंशन तथा सेवानिवृत्ति उपदान का पात्र बना दिया गया है।
अशक्तता पेंशन तथा विशेष परिवार पेंशन मे बढ़ोतरी
12.9 केन्द्रीय सिविल सेवा (असाधारण पेंशन)नियमावली के अन्तर्गत अशक्तता पेंशन
तथा विशेष परिवार पेंशन की दरों में पर्याप्त सुधार कर दिया गया है। संक्षेप
में ये सुधार इस प्रकार हैं :-
(क) विधवा को परिवार पेंशन तथा पात्र बच्चों को बाल पेंशन अलग-अलग से मंजूर करने
की पुरानी पद्धति समाप्त कर दी गई है। इसकी बजाए, अब, वरिष्ठतम लाभग्राही को, एक
ही बार, समेकित असाधारण परिवार पेंशन उसी तरह देय हो जाती है जिस तरह सामान्य
पेंशन नियमों के अन्तर्गत परिवार पेंशन का भुगतान किया जाता है। इस संबंध में,
इस बात को देखते हुए कि क्या सरकारी कर्म~चारी पेंशन योग्य पद पर और क्या विधवा
सन्तानहीन है अथवा उसके कोई बच्चा/बच्चे हैं, अलग-अलग दरें निर्धारित की गई
हैं।
(ख) आंतकवादियों/समान विरोधी तत्वों के हमले अथवा उनके खिलाफ कार्रवाई के दौरान
हुए हमलें तथा अन्तर्राष्ट्रीय युद्ध में दुश्मन के खिलाफ लड़ाई के परिणामस्वरुप
मृत्यु हो जाने के मामलों मे विधवाओं को, दिवंगत कर्मचारी द्वारा प्राप्त अंतिम
वेतन दर से, उनके जीवन पर्यन्त अथवा दोबारा विवाह करने तक, जो भी पहले हो, विशेष
परिवार पेंशन का हकदार बना दिया गया है। ऐसे मामलों में जहां सरकारी कर्मचारी
के पीछे कोई विधवा न हो, और इसका कोई बच्चा/बच्चे हों, तो ऐसी स्थिति मे ऐसे
सभी बच्चों को सामान्य पेंशन नियमों के अन्तर्गत परिवार पेंशन की बढ़ाई गई दरों
के बराबर परिवार पेंशन के लिए पात्र बना दिया गया है। इसके अतिरिक्त बच्चे,
मौजूदा बाल भत्ते तथा बाल शैक्षिक भत्ते के स्थान पर उच्चतर दरों पर समेकित बाल
भत्ते के पात्र भी होंगे।
(ग) केन्द्रीय सिविल सेवा (असाधारण पेंशन) नियमावली के अन्तर्गत, उन सरकारी
कर्मचारियों के परिवारों को जिनकी हवाई जहाज में सफर करते हुए मृत्यु हो जाती
है, नियमों के अन्तर्गत अनुज्ञेय प्रसुविधाओं के अतिरिक्त एक लाख रुपये की, एक
समानदर पर अनुग्रहपूर्वक राशि को भुगतान किया जाता है। अब, ऐसे मामलों में, एक
लाख की अनुग्रहपूर्वक राशि को बढ़ाकर 2 लाख किए जाने का निर्णय किया गया है।
(घ) 30-12-1987 को यह निर्णय किया गया कि उदारीकृत पेंशन संबंधी प्रसुविधाएं
केन्द्रीय सरकार के उन सिविल कर्मचारियों को भी मंजूर की जाएं जो श्रीलंका में
भारतीय शान्ति सेना की सहायता करते समय हताहत हो जाते हैं।
पेंशन संवितरण करने के लिए छ: और बैंक
12.10 अभी तक पेंशन का संवितरण भारतीय स्टेट बैंक तथा सात सहायक बैंक तथा 1969
में राष्ट्रीयकृत 14 बैंक करते आ रहे हैं। 1980 में राष्ट्रीयकृत छ: बैंकों,
आर्थात्
(1) भारतीय न्यू बैंक,
(2) कारपोरेशन बैंक,
(3) विजया बैंक आफ कामर्स,
(4) ऑरिएण्टल बैंक आफ कामर्स,
(5) पंजाब एण्ड सिंध बैंक
(6) आंध्र बैंक
को भी 1-4-1988 से पेंशन संवितरण का कार्य सौंपा गया है। भारतीय रिजर्व बैंक
द्वारा अपेक्षित अधिसूचना पहले ही जारी कर दी गई है। महालेखा नियन्त्रक, रक्षा
मंत्रालय तथा रेल मंत्रालय को अनुरोध किया गया है कि वे पेंशन के भुगतान से
संबंधित अपनी योजनाओं को तदनुसार संशोधित करें।
सार्वजनिक क्षेत्र के बैकों के माध्यम से पेंशन के भुगतान की व्यवस्था की
प्रसुविधाएं उन 15 राज्य सरकारों संघ शासित क्षेत्र प्रशासनों के ध्यान में फिर
से लाई गई है जिन्होनें कि सार्वजनिक क्षेत्र के बैंको के माध्मय से पेंशन के
संवितरण की केन्द्रीय योजना को अभी तक नहीं अपनाया है और ऐसा विशेष रुप से इस
कारण किया गया है क्योंकि इससे पेंशनभोगियों द्वारा प्रति माह पेंशन भुगतान करने
वाली एजेंसियों में व्यक्तिगत रुप से जाने की जरुरत समाप्त हो जाती है। राज्य
सरकारें, सार्वजनिक क्षेत्रों के बैंकों से माध्यम से पेंशन के भुगतान संबंधी
केन्द्रीय योजना को अपनाए जाने के पक्ष में विचार कर रही है।
इसी बीच, दिल्ली/नई दिल्ली में रह रहे अखिल भारतीय सेवाओं के सेवानिवृत्त
अधिकारियों को सार्वजनिक क्षेत्र के बैकों के माध्यम से पेंशन का भुगतान किए
जाने संबंधी योजना को, एक मार्गदर्शी योजना के रुप में, इस योजना में भाग न
लेनें वाले राज्यों के परामर्श से पहले ही कार्यन्वित कर दिया गया है।</p>

<p>पाण्डेचेरी और गोआ के पेंशनभोगियों को प्रसुविधाएं
12.11.1 1-1-1986 से संशोधित पेंशन की प्रसुविधाएं पाण्डेचेरी के उन
पेंशनभोगियों/परिवार पेंशनभोगियों को भी मन्जूर कर दी गई जो भूतपूर्व फ्रांसीसी
नियमों के अन्तर्गत पेंशन ले रहे थे।
12.11.2 इसी तरह की प्रसुविधाएं गोआ के कम पेंशन पाने वाले पेंशनभोगियों को दी
गई है जो अब तक पुर्तगाली ई. एफ.यू. नियमों के अधीन पेंशन प्राप्त कर रहे थे।</p>

<p>1-4-1960 से पहले सेवानिवृत हुए पेंशनभोगियों को जोड़े गए सेवा वर्षों की
प्रसुविधा दिया जाना
12.12 केन्द्रीय सिविल सेवा (पेंशन) नियमावली के नियम 30 के मौजूदा रुप में 30
मार्च, 1960 के बाद नियुक्त किसी सरकारी कर्मचारी के मामले मे उसकी अर्हक सेवा
में पांच साल तक की सेवा जोड़ देने की व्यवस्था विद्यमान है। सामान्यत: पेंशन
संबंधी प्रसुविधाओं के दावों को सेवानिवृत्ति के समय लागू नियमों के प्रावधानों
द्वारा विनियमित किया जाता है। इस विंसगति को दूर करने के लिए यह निर्णय किया
गया है कि नियम 30 के अंन्तर्गत, सेवा में जोड़े गए वर्षों की प्रसुविधा उन सभी
कर्मचारियों के लिए अनुज्ञेय हीगी जो 30 मार्च, 1960 के बाद सेवानिवृत्त हुये थे
तथा जो इस प्रसुविधा के लिए अन्यथा पात्र हैं।</p>

<p>पुत्रों तथा अविवाहित पुत्रियों के संबंध में परिवार पेंशन के लिए आयु सीमा का
युक्तियुक्तकरण
12.13 इसके पहले किसी सरकारी कर्मचारी/ पेंशनभोगी के पुत्र/पुत्रियां क्रमश: 21
वर्ष/30 वर्ष की आयु तक परिवार पेंशन के लिए पात्र होते थे। अब यह निर्णय किया
गया है कि पुत्र तथा अविवाहित पुत्रियों दोनों के लिए ही परिवार पेंशन मन्जूर
करने के लिए 25 वर्ष की एक समान आयु निर्धारित कर दी जाए।
सेवानिवृत्त हुए अस्थायी/स्थायीवत् सरकारी कर्मचारियों के परिवारों को कुटुम्ब
पेंशन की मंजूरी
12.14 इस समय, ऐसे सरकारी कर्मचारियों के परिवारों को कुटुम्ब पेंसन अनुज्ञेय है
जो अधिवर्षता पर सेवानिवृत हुए हों अथवा जिन्हें कम से कम 10 वर्ष की अस्थायी
सेवा पूरी कर लेने के बाद और आगे सरकारी सेवा के लिए स्थायी रुप से असमर्थ घोषित
किया गया है। ये आदेश केवल पहली जनवरी, 1986 को अथवा उसके बाद होने वाली
सेवानिवृत्तियों, आदि पर लागू थे। अब इस प्रसुविधा को ऐसे कर्मचारियों पर भी
लागू करने का निर्णय लिया गया है जो कम से कम 10 वर्ष की अस्थायी/स्थायी~वत्
सेवा पूरी कर लेने के बाद पहली जनवरी, 1986 से पहले अधिवर्षता आदि पर सेवानिवृत
हो चुके हैं।
बर्मा/पाकिस्तानी (बंगलादेश सहित) पेंशन भोगियों को तदर्थ अनुग्रह भत्ते में
वृद्धि/मंजूरी
12.15 तदर्थ अनुग्रह भत्ते को रुपए 375/- प्रति माह के न्यूनतम स्तर पर लाए जाने
के लिए, जैसा कि केन्द्रीय सरकार के कर्मचारियों के पेंशन के मामले में किया गया
है ठोस गदम उठाए गए थे। इस निर्णय के लाभान्वित होने वालों मे भूतपूर्व सैनिक
तथा सिविलियन बर्मा पेंशनभोगी/कुटुम्ब पेंशन~भोगी और पेंशनपोगियों/पाकिस्तान से
विस्थापित सरकारी पेंशनभोगियों के परिवार शामिल हैं।
पेंशनभोगियों के पेंशन भुगतान आदेश में कुटुम्ब पेंशन की हकदारी का पृष्ठांकन
12.16 ऐसे पेंशनभोगियों के पेंशन भुगतान आदेशों में, जो पहली जनवरी, 1964 के
पूर्व सेवानिवृत हुए और जिन्होंने 1964 की कुटुम्ब पेशन योजना में शामिल न होने
का विकल्प दिया था, पेंशनभोगीयों की मृत्यु हो जाने की दशा में परिवार के मात्र
सदस्य को देय कटम्ब पेशन की राशि के बारे में कोई प्रविष्ट नहीं होती थी।
पेंसन प्राधिकृत करने वाले प्राधिकारियों को इस आश्य के अनुदेश जारी कर दिए गए
हैं कि वे पेंशन संवितरण प्राधिकारियों को अलग से प्राधिकार प्त्र भेज कर देय
कुटुम्ब पेंशन की राशि पेंशन भुगतान आदेश ने नोट किए जाने के लिए सूचित कर दें।
स्वायत्त निकायों और सार्वजनिक क्षेत्रों के उपक्रमों मे संविलियन की शर्तों मे
एकरुपकता लाया जाना
12.17 केन्द्रीय स्वायत निकायों मे केन्द्रीय सरकारी कर्म~चारियों के स्थायी
संविलयन की शर्तों केन्द्रीय सार्वजनिक क्षेत्र के उपक्रमों में खपाए जाने वाले
सरकारी कर्मचारियों पर लागू होने वाली शर्तों से भिन्न थी। इस विसंगति को दूर
करने के प्रयोजन से, दोनों ही मामलों में संविलयन की शर्तो में पूरी तरह से
समानता लाए जाने संबंधी आदेश 31 मार्च, 1987 को जारी कर दिए गए थे।
केन्द्रीय सरकार विभागों और स्वायत निकायों के बीच कार्मिकों की आवाजाही-पेंशन के
लिए सेवा की गणना
12.18 29-8-1984 को इस आशय जारी कर दिये गये थे जिनमें केन्द्रीय सरकार में
विलयन हो जाने पर पेंशन के प्रयोजन के लिए केन्द्रीय स्वायत निकायों में की गई
सेवा को जोड़ने और इसी प्रकार केन्द्रीय स्वायत्त निकायों में विलयन हो जाने पर
पेंशन के प्रयोजन के लिए केन्द्रीय सरकार मे की गई सेवा की गणना किए जाने की
अनुमति दी गई थी। तथापि यह अनुदेश केवल उन्हीं कर्मचारियों के मामले में लागू थे
जो कि उक्त आदेशों के जारी किये जाने की तारीख को या इसके बाद सरकारी/स्वायत्त
निकायों की सेवा से सेवानिवृत्त हुए थे। अब यह निर्णय लिया गया है कि इस
प्रसुविधा का लाभ 29-8-1984 से पहले से सभी पेंशन भोगियों को दिया जाए किन्तु
ऐसा लाभ 29-8-1984 से ही दिया जाएगा।
पेंशनभोगियों को महंगाई राहत
12.19 चतुर्थ वेतन आयोग की सिफारिशों के अनुसरण में सेवारत कार्मिकों को महंगाई
भत्ता मंजूर करने संबंधी प्रणाली की तरह ही, पेंशनभोगियों को मंहगाई राहत मंजूर
करने की एक नईं पद्धति पहली जुलाई, 1986 से ला की गई है। अब महंगाई राहत
निम्नलिखित दरों पर अनुमत है :-
(1) वे जो 1750/- रुपए तक         शत प्रतिशत
    पेंशन प्राप्त करते रहे हैं।  निष्प्रभावीकरण।
(2) वे जो रुपये 1751 से          75 प्रतिशत         आंशिक
    रुपये 3000 तक के बीच         निष्प्रभावीकरण    समायोजन
    पेंशन प्राप्त कर रहे हैं।                       के अध्यधीन
(3) वे जो रुपये 3000 से         65 प्रतिशत
    अधिक की पेंशन प्राप्त कर    निष्प्रभावीकरण
    रहे हैं।
महंगाई राहत एक वर्ष मे दो बार-पबली जुलाई और पहली जनवरी को, क्रमश: 30 जून ौर
31 दिसम्बर को औसत उपभोक्ता मूल्य सूचकांक में उससे पहले हुई वृद्दि के संदर्भ
में मंजूर किया जाना होता है।
पेंशनभोगियों को पहली जुलाई, 1986 और पहली जनवरी, 1987 से देय महंगाई राहत की
दो किश्तें मंजूर किए जाने संबंधी आदेश 22 अप्रैल, 1987 को जारी किए गए थे। एक
और किश्त दिनांक 23 नवम्बर, 1987 के आदेशों द्वारा पहली जुलाई, 1987 से मंजूर
की गई थी।
पेंशन भुगतान आदेश का प्रेषण
12.30 रेल पेंशनभोगियों के पेंशन भुगतान आदेश के सरकारी क्षेत्र के बैंकों को
प्रेषण की कार्यविधी सरल बना दी गई है।व रेलवे के सभी वित्तीय सलाहकारों तथा सी.
ए.ओ. को पेंशन भुगतान आदेशों की विद्यमान की तरह पद नामित वित्तिय सलाहकार तथा
सी.ए.ओ. के माध्यम से भेजने के बजाय सीधे ही सरकारी क्षेत्र के बैंकों की
सम्पर्क (लिंक) शाखाओं को भेजने कि लिए प्राधिकृत कर दिया गया है। संशोधित
व्यवस्था 1-7-1988 से लागू होगी।
डाक मनिआर्डर के माध्यम से पेंशन
12.21 चौथे केन्द्रीय वेतन आयोग की सिफारिशों के कार्यान्वयन के फलस्वरुप पेंशन
में वृद्धि हो जाने के बाद मासिक पेंशन की जो रकम सरकारी खर्च पर डाक मनिआर्डर
द्वारा भेजी जा सकती है अब ऐसी पेंशन की रकम बढ़ा कर समय-समय पर देय मंहगाई राहत
सहित 500/-रुपये कर दी गई है।
पेंशन अदालतें
12.22 मौजूदा नियमों की सीमाओं के भीतर पेंशनभोगियों की शिकायतों की निपटान के
उद्देश्य से प्रशासन और पेंशन~भोगियों को रुबरु लाने के प्रयोजन से पेंशन
अदालतों का नया प्रयोग भारतीय रेलवे में 1986 में शुरु किया गया था। क्योंकि इस
नये प्रयोग की प्रतिक्रिया अत्यधिक उत्साहवर्धक रही इसलिए रेल मंत्रालय ने प्रति
वर्ष 15 अक्तूबर को सभी क्षेत्रीय रेलों में पेंशन अदालतें आयोजित करने का
निर्णय लिया है। 15 अक्तूबर 1987 को आयोजित पेंशन अदालतों के दूसरे दौर में 4752
मामलों मे से 2809 मामले वरिष्ठ नागरिकों के पक्ष में तय किये गये।
प्राप्त परिणामों को ध्यान मे रखते हुए रक्षा मंत्रालय, डाक विभाग और दूर संचार
विभाग को भी ऐसी ही पेंशन अदालतें आयोजित करने की सलाह दी गई जिससे कि
पेंशन~भोगियों की शिकायतें तत्काल निपटायी जा सकें। तदनुसार वर्ष 1987 के दौरान
रक्षा मंत्रालय द्वारा जालंधर, मद्रास, हैदराबाद, सिकन्दराबाद तथा जम्मू में
पेंशन अदालतें आयोजित की गई जिनमें दर्ज किए गए 788 मामलों में से 440 मामलों का
निपटान कर दिया गया। बाकी बचे मामलों में से भी अधिकांश मामले अब निपचा दिये
जाएंगे क्योंकि वे इस कारण लम्बित थे कि दो पेंशन लेने वाले व्यक्तियों के मामले
मे सरकारी आदेश मौजूद नहीं थे। इस प्रकार के मामलों के विनियमन के आदेश 8 मार्च,
1988 को जारी कर दिए गए हैं। इस प्रकार डाक विभाग और दूर संचार विभाग ने उनके
द्वारा आयोजित पेंशन अदालतों के दौरान प्राप्त हुए 578 अभ्यावेदनों म से 451
मामलों का निपटान कर दिया।
पेशन के मामलों के शीघ्र निपटान के लिए दो तरफा कार्रवाई की गई :(1) पेंशन
अदालतें आयोजित करना; और (2) ऐसे उपाय करना जिससे कि यह सुनिशिचत हो सके कि
सेवा~निवृत होने वाले विद्यमान कर्मचारियों के मामले में पेंशन भुगतान आदेश,
उपदान आदेश आदि सेवानिवृत्ति की तारीख को ही दे दिये जाएं।
पेंशन अदालतों की अवधारणा की सिफारिश राज्य सरकारों से भी की गई है जिससे कि वे
इस पर विचार करें और मौजूदा परिस्थितियों के अनुसार यथा आवश्यक फेर-बदल के साथ
उन्हें अपना लें। तमिलनाडू, मध्य प्रदेश तथा हिमाचल प्रदेश जैसे कतिपय राज्यों
ने इस योजना को पहले ही अपना लिया है।
स्वैच्छिक एजेंसियों की स्थायी समिति (स्कोवा)
12.23 पेंशन तथा पेंशनभोगी कल्याण विभाग की स्वैच्छिक एजेंसियों की पहली स्थायी
समिति जिसमें पेंशनभोगियों के विख्यात और सक्रिय संगठनों के प्रतिनिधि शामिल थे,
की स्थापना जुलाई,1986 में एक वर्ष की अवधि के लिए की गई थी। इस समिति के
उद्देश्य इस प्रकार हैं :- (क) कार्यक्रम कार्यान्वयन के लिए फीड बेक जुटाना;
(ख)नीति गत नयी पहल पर विचार-विमर्श करना और उसकी बारीकी से जांच करना; तथा (ग)
सरकारी प्रयासों की मदद के लिए स्वैच्छिक प्रयास जुटाना। इस समिति के कार्यकाल
में हुई तीन बैठकों के दौरान स्वैच्छिक एंजियों के साथ विचारों का जो
आदान-प्रदान हुआ वह उपयोगी पाया गया। उब विभिन्न हितों के परामर्श के बाद
स्वैच्छिक संगठनों की स्थायी समिति को 10-2-1988 से पुनर्गठित कर दिया गया है और
इस पुनर्गठित समिति की पहली बैठक 19-2-1988 को हुई।
प्रकाशन
सरकारी और स्वायत्त निकायों के बीच कार्मिकों की आवाजाही से संबंधित विवरणिका
12.24 "केन्द्रीय सरकार और केन्द्रीय स्वायत्त निकायों, राज्य सरकारों और
केन्द्रीय स्वायत निकायों, केन्द्रीय सरकार और राज्य स्वायत्त निकायों और
विलोमत:, के बीच कार्मिकों की आवाजाही" संबंधी एक विवरणिका प्रकाशन नियंत्रक के
मध्यम से समूल्य प्रकाशन के रुप में प्रकाशित कराई गई थी।
अंशदायी भविष्य निधि नियमों का द्विभाषिक संस्करण
12.25 अंशदायी भविष्य निधि नियमों का एक अद्यतन द्विवभाषिक संस्करण प्रकाशित
कराया गया है।
सेवानिवृत्ति प्रसुविधाओँ संबंधी पुस्तिका
12.26 सेवानिवृत्त होने वाले कर्मचारियों के फायदे के लिए सामान्य पेंशन/
सेवानिवृत्ति नियमों के अधीन पेंशन और अन्य हकदारियों की मोटी रुप रेखा देने
वाली "आपकी सेवानिवृत्ति प्रसुविधाएं" नामक एक पुस्तिका प्रकाशित की गई है।
+&gt;
</p></body></text></cesDoc>