<cesDoc id="sin-w-editorial-silumina-49" lang="sin">
<cesHeader type="text">
<fileDesc>
<titleStmt>
<h.title>sin-w-editorial-silumina-49.txt</h.title>
<respStmt>
<respType>Electronic file created by</respType>
<respName>Department of Linguistics, Lancaster University</respName>
<respType>text collected by</respType>
<respName>Vincent Halahakone</respName>
<respType>transferred into Unicode by</respType>
<respName>"Unicodify" software by Andrew Hardie</respName>
</respStmt>
</titleStmt>
<publicationStmt>
<distributor>UCREL</distributor>
<pubAddress>Department of Linguistics, Lancaster University, Lancaster, LA1 4YT, UK</pubAddress>
<availability region="WORLD"></availability>
<pubDate>03-08-26</pubDate>
</publicationStmt>
<sourceDesc>
<biblStruct>
<monogr>
<h.title>File from written Sinhala corpus collected by Vincent Halahakone, dated xx-xx-xx</h.title>
<h.author>unknown</h.author>
<imprint>
<pubPlace>Sri Lanka</pubPlace>
<publisher>unknown</publisher>
<pubDate>xx-xx-xx</pubDate>
</imprint>
</monogr>
</biblStruct>
</sourceDesc>
</fileDesc>
<encodingDesc>
<projectDesc>Text collected for use in the EMILLE project.</projectDesc>
<samplingDesc>Simple written text only has been transcribed. Diagrams, pictures and tables have been omitted and their place marked with a gap element.
</samplingDesc>
<editorialDecl>
<conformance level="1"></conformance>
</editorialDecl>
</encodingDesc>
<profileDesc>
<creation>
<date>03-08-26</date>
</creation>
<langUsage>Sinhala</langUsage>
<wsdUsage>
<writingSystem id="ISO/IEC 10646">Universal Multiple-Octet Coded Character Set (UCS).</writingSystem>
</wsdUsage>
<textClass>
<channel mode="w">print</channel>
<constitution type="composite"></constitution>
<domain type="public"></domain>
<factuality type="fact"></factuality>
</textClass>
<translations></translations>
</profileDesc>
<revisionDesc></revisionDesc>
</cesHeader>

<text>
<body>




<p> </p>

<p> </p>

<p>  වැකිය</p>

<p>  </p>

<p>  දෙ]#138;ශද්රෝ]#131;]#155;න]#137;
පසු බස]#136;වා ලැබූූ ජයග්ර]#131;ණයක]#137;</p>

<p>  </p>

<p>  ප්රංශයෙ]#136; පැරිස]#136;
නුවර ලෝක බැංකු ගොඩනැග]#140;ල]#136;ලෙ]#136; පැවැති ශ]#155;්ර ලංකාවට ආධාර සලසන </p>

<p>සංවර්ධන සංසදයෙ]#136; දෙ ද]#153;න සාකච්ඡාව
ශ]#155;්ර ලංකාවට පලදායක අපෙ]#136;ක]#137;ෂා මුඳුන]#137; පත]#137; කැරවමින]#137;
අවසන]#137; විය. ඉන]#137;ධන වැනි අත්යවශ්ය භාණ]#137;ඩයන]#137; ]#131;]#140; මිල ලෝක
වෙ]#133;ඳෙ පො]#133;]#136; අධෙික ලෙස </p>

<p>ඉ]#131;]#133; නැග]#155;මේ ස]#131; අති
දැවැන]#137;ත යුධ වියදම් මධ්යයෙ]#136; වුව ද ශ]#155;්ර ලංකාව දරන සංවර්ධන </p>

<p>ප්රයත]#137;නය ශ]#155;්ර ලංකාවට ආධාර සලසන
ප්රජාව ඉ]#131;]#133;]#139;න]#137; ම අගය කැර ඇත. ශ]#155;්ර ලංකාවේ මුල්ය </p>

<p>ක]#133;මනාකරණ ප්රතිපත]#137;ති ඔවුන]#137;
ගෙ]#137; පැසැසුමට ලක]#137; විය. ජන වාර්ග]#140;ක ගැටලුව විසැඳ]#159;ම සඳ]#131;ා රජය
දරන ප්රයත]#137;නය ද ඔවුන]#137; ගෙ]#137; ඇගැයීමට ස]#131; විශ]#137;වාසයට බඳුන]#137;
විය. මෙම සංසදයට </p>

<p>චන]#137;ද්රිකා බණ]#137;ඩාරනායක කුමාරතුංග
ජනාධිපතිනිය ගෙ]#137; ස]#131;භාග]#140;ත]#137;වය ඔවුන]#137; ගෙ]#137; පැසැසුමට </p>

<p>ලක]#137; වූයෙ]#136; ජනාධිපතිනිය ගෙ]#137;
දෙ]#138;ශනය අගය කරමිනි. බො]#131;ෝ දෙ]#138;ශද්රෝ]#131;]#155;න]#137; කෙ]#133;සො
දමන]#137;නටතැත]#137; ක]#133; ශ]#155;්ර ලංකාවේ කීර්ත]#140; නාමය රැක ගන]#137;නට
පැරිස]#136; සමු]#134;වට ස]#131;භාග]#140; වූ අපෙ]#136; නියෝජිතප]#139;රිස සමත]#137; වූ]#131;.</p>

<p> </p>

<p>  ශ]#155;්ර ලංකාවට ආධාර
සලසන සංවර්ධන සංසදයෙ]#136; සාකච්ඡාව ඇරැඹෙන]#137;නට පෙර එක]#137;සත]#137;</p>

<p>ජාතික පක]#137;ෂය ඇතු]#134; ඇතැම්
දෙ]#138;ශපාලන කණ]#137;ඩායම් ද ඇතැම් රාජ්ය නොවන සංවිධාන ද</p>

<p>ගෙන ග]#140;ය කු]#131;ක දුෂ]#136;ට ප්රචාර
පැරිස]#136; සාකච්ඡාවෙන]#137; පසු පුස]#136;ස බින]#137;දා වැනි විය. මෙම </p>

<p>සාකච්ඡාවට උඩද]#159; කාලයක ස]#139;ට ම
ශ]#140;ෂ]#136;ට දෙ]#138;ශපාලන සංස]#136;කෘතියෙන]#137; ඉවත]#137; ව ඔවුන]#137; ගෙන</p>

<p>ග]#140;ය ප්රචාර අතිශයින]#137; ම
දෙ]#138;ශද්රෝ]#131;]#155;]#155; ය. ඔවුන]#137; ගෙ]#137; දුෂ]#136;ට ප්රයත]#137;නය
වූයෙ]#136; ශ]#155;්ර ලංකාවට සලසන </p>

<p>ආධාර නතර කොට ]#131;ෝ අඩාල කොට
]#131;ෝ එ මග]#140;න]#137; පොඑපෙ රජය අස]#154;රුවට පත]#137; කොට </p>

<p>පටු දෙ]#138;ශපාලන වාස]#139; ලබා ගැනීම ය.
මේ සඳ]#131;ා එක]#137;සත]#137; ජාතික පක]#137;ෂයෙ]#136; කණ]#137;ඩායමක]#137; </p>

<p>වෙන ම විදෙ]#138;ශ ගත ප්රචාරයක]#137; ගෙන
ග]#140;ය බව ර]#131;සක]#137; නො වේ. ම]#131;ජන මතය ද]#153;නා ගෙන</p>

<p>මැතිවරවල]#139;න]#137; රජය පරාජයට පත]#137;
ක]#133; නො ]#131;ැකිවූ එජාපය විදෙ]#138;ශ]#155;]#155;ය ආධාර ]#131;ා ]#131;ොඳ
]#131;]#140;ත</p>

<p>බිඳ දැමීමෙන]#137; පටු දෙ]#138;ශපාලන
වාස]#139; සෙවීමේ නිවට උත]#137;සා]#131;යෙන]#137; පෙනී යන]#137;නෙ]#137; ඔවුන]#137;
ගෙ]#137; </p>

<p>දෙ]#138;ශපාලන බංකොලොත]#137;කමේ නිරුවත
මිස අනෙකක]#137; නො වේ. එ]#131;තෙ]#137; දැවැන]#137;ත යුද වියදම් </p>

<p>මැද කැරෙන සංවර්ධන ප්රයත]#137;නය ශ]#155;්ර
ලංකාවට ආධාර දෙන කණ]#137;ඩායම් අගය කිරීමෙන]#137; අපෙ]#136;</p>

<p>දෙ]#138;ශද්රෝ]#131;]#155;න]#137; ගෙ]#137;
නිවටකම වඩාත]#137; ]#131;ොඳ]#153;න]#137; ]#131;]#133;]#139;දෙරව් කෙරිණි.</p>

<p> </p>

<p> </p>

<p> </p>

<p> </p>

<p> </p>

<p> </p>

<p> </p>

<p> ඇතැම්
දෙ]#138;ශපාලන කණ]#137;ඩායම් ද, ඇතැම් රාජ්ය නො වන සංවිධාන ද වැටී
ස]#139;ටින]#137;නෙ]#137; එම </p>

<p>දෙ]#138;ශද්රෝ]#131;]#155;න]#137; ගෙ]#137;
ගොඩටම ය. ශ]#155;්ර ලංකාවේ ඇතැම් දෙ]#138;ශපාලන කණ]#137;ඩායම් පෝෂණය
වන]#137;නෙ]#137; </p>

<p>විදෙ]#138;ශයන]#137;]#131;]#140; වෙසෙන
ඔවුන]#137; ගෙ]#137; නියෝජිතයන]#137; මග]#140;න]#137; ලබන ආධාරවල]#139;නි. ඇතැම්
රාජ්ය </p>

<p>නො වන සංවිධානවලට මෙම විදෙ]#138;ශ ආධාර
ලබා ගැනීම සරු ජාවාරමෙකි. මෙ රට </p>

<p>ඔවුන]#137; ගෙ]#137; දරු පවුල]#136;
ප]#139;ටින]#137; යැපෙන]#137;නෙ]#137;ත]#137;, සුඛිත මුද]#153;ත ජීවිත ගත
කරන]#137;නෙ]#137;ත]#137; මෙම විදෙ]#138;ශ </p>

<p>ආධාරවල]#139;නි. විදෙ]#138;ශ ආධාර ලබා
ගන]#137;නට නම්, ඔවුන]#137; මෙ රට මානව ]#131;]#140;තවාද]#159; කටයුතු කරන</p>

<p>බවට සෑ]#131;නෙ ප්රචාරයක]#137; විදෙස]#136;
රටවල ගෙන යා යුතු ය. නැතිනම් ඩොලර් මලුවල කට</p>

<p>ඇරෙන]#137;නෙ]#137; නැත. මේ සන්ඳ]#131;ා
බො]#131;ෝ සංවිධාන උපයෝග]#155;]#155; කොට ගන]#137;නෙ]#137; මානව අයිතිවාස]#139;කම්
ය. ආධාර ලබා ගැනීම සඳ]#131;ා මානව අයිතිවාස]#139;කම් වෙනුවෙන]#137; පෙනී ස]#139;ටීම
]#131;ොඳ ඉල]#136;ලමකි.</p>

<p> </p>

<p>  ඒ සඳ]#131;ා තඩි
බාන]#137;නෙ]#137; ශ]#155;්ර ලංකාවේ ආණ]#137;ඩුවට ය. ආණ]#137;ඩුව මානව
අයිතිවාස]#139;කම් උල]#136;ලංඝනය කරන බවට බොරු බේගල]#136; ස]#131;]#140;ත පති්රකා ඒ ඒ
රටවල බෙදා ]#131;ැරීමත]#137;, මානව ]#131;]#140;මිකම් ගරු </p>

<p>කරමින]#137; ඒ සඳ]#131;ා ආධාර කරන
දානපතියන]#137; රැස]#136; කොට ඔවුනට ශ]#155;්ර ලංකාවේ මානව ]#131;]#140;මිකම් </p>

<p>කඩ කරන අයුරු මවා පෑමත]#137; මොවුන]#137;
ගෙ]#137; ප්රචාරක කටයුතු ය. මෙම පච ප්රචාරයෙන]#137; </p>

<p>ශ]#155;්ර ලංකාවේ කීර්තිනාමය විනාශ වුවත]#137;,
ආණ]#137;ඩුව කෙරෙ]#131;]#140; වැරැද]#153; අවබෝධයක]#137; අන]#137;තර් ජාතික ප්රජාව
තු]#133; ඇති වුවත]#137; ඔවුනට එයින]#137; කාරි නැත. ඔවුන]#137; සලකන]#137;නෙ]#137;
තමන]#137; ගෙ]#137; සාක]#137;කුවට</p>

<p>වැටෙන ඩොලර් ප්රමාණය ගැන ය.</p>

<p> </p>

<p>  ශ]#155;්ර ලංකාවට ආධාර
සලසන අන]#137;තර් ජාතික ප්රජාව නො මග යෑමේ භයානකකම ගැන තඹ </p>

<p>දොයිතුවක සැලැකිල]#136;ලක]#137;
දෙ]#138;ශපාලන වාස]#139; ස]#131; මුදල]#136; වාස]#139; සොයන මෙම
දෙ]#138;ශද්රෝ]#131;]#155;]#155;න]#137; තු]#133; නැත.ශ]#155;්ර ලංකාවේ කීර්තිනාමයට
විදෙ]#138;ශයන]#137; තු]#133; ]#131;ානි කරන කොටි නියෝජිතයන]#137; අතරත]#137;, මේ </p>

<p>දෙ]#138;ශද්රෝ]#131;]#155;]#155;න]#137;
අතරත]#137; ඇති වෙනස කවරේ ද? ශ]#155;්ර ලංකාවට ලැබෙන අන]#137;තර් ජාතික ප්රජාව
ගෙ]#137; ස]#131;යෝගය ව]#133;ක]#137; වන]#137;නට උත]#137;සා]#131; දැරීමේ අනිවාර්ය
ප්රතිඵලය වන]#137;නෙ]#137; මෙ රට සංවර්ධන </p>

<p>කටයුතු කඩාකප]#136;පල]#136; කැර දැමීම
පමණක]#137; නොව යුද කටයුතුවල සාර්ථකත]#137;වයට ද අකුල]#136; </p>

<p>]#131;]#133;]#139;මෙය. මෙසෙ]#136; එතෙර
රටවල නරුම ප්රචාර ගෙන යන දෙ]#138;ශද්රෝ]#131;]#155;]#155;න]#137; ගෙ]#137;
ප්රයත]#137;නයන]#137; </p>

<p>අසාර්ථක කැරවමින]#137; පැරිස]#136;
සමු]#134;වේ ද]#153; සාර්ථක ප්රතිඵල ලබා ගන]#137;නට ශ]#155;්ර ලංකා නියෝජිත </p>

<p>කණ]#137;ඩායම සමත]#137;වීම
විශ]#140;ෂ]#136;ට ජයග්ර]#131;ණයෙකි.</p>

<p> </p>

<p> </p>

<p> </p>






</body></text></cesDoc>