<cesDoc id="sin-w-editorial-vivarana-27" lang="sin">
<cesHeader type="text">
<fileDesc>
<titleStmt>
<h.title>sin-w-editorial-vivarana-27.txt</h.title>
<respStmt>
<respType>Electronic file created by</respType>
<respName>Department of Linguistics, Lancaster University</respName>
<respType>text collected by</respType>
<respName>Vincent Halahakone</respName>
<respType>transferred into Unicode by</respType>
<respName>"Unicodify" software by Andrew Hardie</respName>
</respStmt>
</titleStmt>
<publicationStmt>
<distributor>UCREL</distributor>
<pubAddress>Department of Linguistics, Lancaster University, Lancaster, LA1 4YT, UK</pubAddress>
<availability region="WORLD"></availability>
<pubDate>03-08-26</pubDate>
</publicationStmt>
<sourceDesc>
<biblStruct>
<monogr>
<h.title>File from written Sinhala corpus collected by Vincent Halahakone, dated xx-xx-xx</h.title>
<h.author>unknown</h.author>
<imprint>
<pubPlace>Sri Lanka</pubPlace>
<publisher>unknown</publisher>
<pubDate>xx-xx-xx</pubDate>
</imprint>
</monogr>
</biblStruct>
</sourceDesc>
</fileDesc>
<encodingDesc>
<projectDesc>Text collected for use in the EMILLE project.</projectDesc>
<samplingDesc>Simple written text only has been transcribed. Diagrams, pictures and tables have been omitted and their place marked with a gap element.
</samplingDesc>
<editorialDecl>
<conformance level="1"></conformance>
</editorialDecl>
</encodingDesc>
<profileDesc>
<creation>
<date>03-08-26</date>
</creation>
<langUsage>Sinhala</langUsage>
<wsdUsage>
<writingSystem id="ISO/IEC 10646">Universal Multiple-Octet Coded Character Set (UCS).</writingSystem>
</wsdUsage>
<textClass>
<channel mode="w">print</channel>
<constitution type="composite"></constitution>
<domain type="public"></domain>
<factuality type="fact"></factuality>
</textClass>
<translations></translations>
</profileDesc>
<revisionDesc></revisionDesc>
</cesHeader>

<text>
<body>




<p> </p>

<p>පොරොන්දු දේශපාලනයට </p>

<p>විරාමයක් දිය හැක්කේ කවදා ද? </p>

<p> </p>

<p>දේශපාලකයන් තරම් පොරොන්දු දෙන කොටසක් මිහිකත මත නොමැති
තරම්ය. බලයට ඒමට ද බලයට ආපසු බලය රැක ගැනීමට ද කෙළවරක් නැතිව පොරොන්දු දෙන
ඔවුහු ඒවා ඉටු කිරිමට නම් එතරම් අවධානයක් නො යොදති. ඔවුන්ට පොරොන්දු යනු ඉටු
කළ යුතු වගකීම් ගොන්නක් නොව හුදෙක් ජනතා ඇසට වැලිගසා සිය අරමුණු සාධනයෙහි ලා
වන රැවටිල්ලක් පමණි.</p>

<p> </p>

<p>මෙම දේශපාලනයේ ඉදිරි පෙරමුණේම සිටිනුයේ ධනපති
දේශපාලකයන්ය. හැම ධනපති පක්ෂයක්ම මෙහිදී එකකට එකක් දෙවැනි නොවේ. එහෙත් එය ධනපති
දේශපාලකයන්ට සිමා වූවක් නොවේ. කටින් සමාජවාදීන් වන එහෙත් භාවිතයේදී සැබැවින්ම නිර්
සමාජවාදීන් වන දෙශපාලකයෝ ද පොරොන්දු දේශපාලනය අවියක් කර ගෙන සිටිති. මෙහිදී වඩාත්ම
කැපී පෙනෙන්නේ ප්රදර්ශනවාදී ''රතුම රතු'' සාමජවාදීන්ය. ඔවුහු ද ධනපති දේශපාලකයන්ට
දෙවෙනි නොවෙමින් පොරොන්දු පොදියක්ම ජනතාව හමුවේ ඉදිරිපත් කර තිබෙන දීකිය හැකිය.</p>

<p> </p>

<p>පොරොන්දු දේශපාලනයට ඇත්තේ දිගු ඉතිහාසයකි. එහි ඉතිහාසය
නම් බලයට ඒමට ද බලයට ආවුන් බලය රැක ගැනිමට ද ඔවුන්ට ඉටු කළ නොහැක්කා වූ
පොරොන්දු දීමේ හා එකී පොරොන්දු අමතක කරලීමේ යළි යළිත් සිදුවූ රැවටිල්ලේ හා
වංචාවේ කථාන්තරයයි.</p>

<p> </p>

<p>නිදසුන් කිහිපයක් පමණක් ගෙන බලමු. 1953 එවකට ආණ්ඩු කළ
යූඇන්පිය කියා සිටියේ ඉරහඳ පවතින තාක් හාල් මිළ වැඩි නොකරන බවය. මේ පොරොන්දුව
දුන්නේ හාල් ඇතුලු අත්යවශ්ය භාණ්ඩ වල මිල ඉහළ දීමීමේ තත්ත්වයක් විද්යාමාන වෙමින් පැවති
හා එවැන්නකට ජනතා විරෝධය මතු වීමේ තත්ත්වයක් උද්ගත වෙමින් පැවති පසුබිමක් තුළය.
එකී පොරොන්දුවට සිදු වූයේ කුමක්  ද? සත
25 ට තිබූ හාල් සේරුවක මිල සත 70 දක්වා ඉහළ නැංවීමය. මෙය 1953 මහා හර්තාලයට
ආසන්න හේතුවක් වූ බව නොරහසකි.</p>

<p> </p>

<p>1970 සමගි පෙරමුණු ආණ්ඩුව බලයට පැමිණියේ එහි නායිකා
සිරිමාවෝ බණ්ඩාරනායක හඳෙන් හෝ හාල් ගෙනවිත් දෙන බවට දුන් අන්දමේ පොරොන්දු
මාලාවකිනි. එහෙත් හඳෙන් හාල් වෙනුවට වැටුණේ හාල් පොලුය. ඇතැම් දිනවල හෝටල් වල
බත් සැපයිම පවා තහනම් විය. පුද්ගලයකුට ගෙන යා හැකි වූයේ හාල් සේරු දෙකක උපරිමයකි.
ඊට වඩා ගෙන ගියහොත් සිදුවූයේ දඩ කන්නටය.</p>

<p> </p>

<p>පොරොන්දු දේශපාලනයේ ඉතාමත් ම ආකර්ෂණිය පොරොන්දු
මාලාවක් දෙන ලද්දේ 1977 මැතිවරණයේ දී ජේ.ආර්.ගේ නායකත්වයෙන් යුත් යූඇන්පීයයි.
එය
හිමාලයේ මුදුන් ගිරි හිසටත් උඩින් ගොස් ඇති බඩු මිල පහත හෙළන බවට, සතියකට
ධාන්ය ඇට රාත්තල් අටක් සහිත පෝෂ්ය ආහාර මල්ලක් සපයන බවට, විරැකියාව විසඳන
බවට, දෙමළ ජනයාගේ ප්රශ්නය සාධාරණව විසදන බවට, දොෂණ මර්දනය පිටු දීකින
බවට, රට නිදහස් ජනතාගේ ක්ෂේම භූමියක් කරන බවට, ධර්මිෂ්ට සමාජයක් ගොඩ නගන
බවට, ආදී වශයෙන් වූ පොරොන්දු රාශියකින් පිරී තිබිණ. සමගි පෙරමුණ පාලනය යටතේ
හමේබත්ව සිටි ජනයා යුඇන්පීය බලයට පත් කළේ සමගි පෙරමුණට අයත් වූ පක්ෂ මැතිවරණ
බිමෙන් අතුගා දමමිනි. පෙරමුණට අයත් වූ පක්ෂ වලින් ශී්ර ලනිපය පමණක් ආසන හතක් දිනාගත්
අතර දිනාගත් ආසන හතෙන් හතරක්ම බහු ආසන නිසා දිනාගනු ලැබූ ඒවාය.</p>

<p> </p>

<p>ජේ.ආර්ලා පොරොන්දු ඉටු කළේ කෙසේ ද යන්න,
අමුතුවෙන් විස්තර කළ යුතු නොවේ. 17 වසරක් පුරා අත්තනෝමතික පාලනයක් ගෙන ගිය එය
කි්රයාවට නැංවුයේ වචනයේ පරිසමාප්ත අර්ථයෙන්ම අධම, භීෂණ පාලනයකි. අති
බහුතරයකගේ සියලු මානව හිමිකම් ප්රජාතන්තී්රය අයිතීන් පයට පාගා දැමිණ. උතුර දකුණ දෙකම
වධක භූමියක් බවට පත් කෙරිණ. මානුෂිකභාවයේ සියලු ගුණාංගයන් මිහිදන් කෙරිණ. රට දොෂණයේ
වංචාවේ අගතැන් පත් දේශයක් බවට පත් කෙරිණ. සමාජය පාදඩ දේශපාලනය මැර බලයකින් විලංගු
ගත කෙරිණ.</p>

<p> </p>

<p>1994 පොඑපෙ බලයට පැමිණියේ මේ අධම පාලනය නිමා කරන්නට,
නිදහස් යුගයක් අභිෂේක කරන්නට, යුද්ධයේ ගිනි දීල් නිවා දමා සාමයේ සිසිලස
පතුවරුවන්නට දොෂණය, වංචාව පිටු දකින්නට ආර්ථිකයට මානුෂික මුහුණ වරක් දෙන්නට ආදී
වශයෙන් වූ පොරොන්දු රැසක් ජනතාව හමුවේ තබමිනි.</p>

<p> </p>

<p>පොඑපෙ බලයට පැමිණ වසර තුනක් ඉක්ම ගොස් ඇත. දුන් පොරොන්දු
වලට අත්වී ඇත්තේ කුමන ඉරණමක් ද? පොඒපෙ යටතේ යූඇන්පී භීෂණයෙන් තාවකාලික හැරීමක්
සිදුවී බව ඇත්තය. එහෙත් ඒ කොතරම් කලකට ද? දීන් පොඑපෙ යටතේ ද භීෂණයේ මර්දනයේ
සෙවණැලි හොල්මන් කරයි. දොෂණය ඉහ වහා යමින් පවතියි. යුද්ධය පෙර නොදුටු විරූ
විශාලත්වයකින් කෙරී ගෙන යයි. මානව හා ප්රජාතන්තී්රය අයිතීන් ක්රම ක්රමයෙන් පහත දීමෙයි.
යූඇන්පියට සාපේක්ෂව මේ බොහෝ ක්ෂේත්රවලදී පොඑපෙ පාලනය තවමත් පිටු පසින් බව
ඇත්තය. එහෙත් ඒවා දීවැන්ත අඩි තබා වර්ධනය වන බව නම් ප්රතික්ෂේප කළ නොහැකිය.</p>

<p> </p>

<p>දීන් යළි පොරොන්දු දේශපාලනයට පිවිසෙන්නට විපක්ෂයට,
ඊළඟ බලය සඳහා සිහින මවන පක්ෂයට කාලයයි. පරාජයෙන් කලකට පසු පොරොන්දු දේශපාලනය
රට විනාශය කරා ගෙන යන බවත් මින් පසු යූඇන්පි පොරොන්දු දේශපාලනයෙහි නොයෙදන බවත්
ප්රකාශ කළ යූඇන්පී නායකයා දැන් ඒවා ගැන කිසිත් නොදොඩා පොරොන්දු පිට
පොරොන්දු දෙමින් තමන් බලයට යළි පැමිණි පසු කරන දේ පිළිබඳව ජනතාව හමුවේ දිවුරා
කියා සිටියි.</p>

<p> </p>

<p>මාධ්ය නිදහස ආරක්ෂා කරන බවට දොෂණය වංචාව පිටු දකින බවට යන
යන තැන දිවුරන  ඔහු යූඇන්පි ආණ්ඩුවක්
පැමිණි වහාම පොඑපෙ අත්සන් කරන එප්පාවල පොස්පේට් ගිවිසුම වැනි ඒවා අහෝසි කරන බවද
කියා සිටියි.  පොඑපෙ බලයට ඒමට පෙර එවැනි
දේ කියා සිටියේය. එහෙත් කරමින් සිටින්නේ යුඇන්පිය කළ බොහෝ දේ ඉදිරියට ගෙන
යාමය. පොස්පේට් ගිවිසුම අවලංගු කරන බව යූඇන්පී නායකයා එප්පාවලට ගොස් එහි ජනතාවට
කියන විට පොඑපෙ කියන්නේ එප්පාවල පවරාදීමට මුලින්ම සැළසුම් කළේ යූඇන්පිය
බවයි. එය ඇත්තය. දෙගොල්ලොම එකිනෙකාට දොස් පරොස් කියා ගත්තත් කරන්නේ එකම වැඩේය.
විශේෂයෙකට ඇත්තේ දෙගොල්ලන්ම තම තමන්ගේ අයට වැඩි වැඩියෙන් බෙදා ගැනීම පමණි.
දෙගොල්ල අතර ඇති ගැටුමට විරසකයට  වැඩි
යමක් දක්නට නොවේ.</p>

<p> </p>

<p>මින් කියැවෙන්නේ ධනපති පාලකයන් කුමන කණ්ඩායමක් වුව කුමන
පොරොන්දුවක් හෝ ඉටු නොකරනවාය යන්න නොවේ. සමහර පොරොන්දු කෙටි කලකට ඉටු කළ
අවස්ථා එමට ඇත. සෑම කොටසක්ම බලයට පැමිණි වහාම බඩු මිල අඩු කිරීමක යෙදෙති.  එහෙත් වැඩිකල් යාමට මත්තෙන් භාණ්ඩ මිල ඉහළ
යන්නේ කිසිදා නොවූ විරූ වේගයකින්. මෙය හැම පාලක කණ්ඩායමක් යටතේම සිදුවන්නකි. මෑතම
හොඳම නිදසුන පාන් මිල 3.50 දක්වා අඩු කිරීමය. එහෙත් අද පාන් මිල මෙතෙක් තිබූ ඉහළම
මිලය.</p>

<p> </p>

<p>පාලකයන් ඉටු කරන තවත් පොරොන්දු නැතුවා නොවේ. ඒවා නම්
රටට, ජනතාවට හෙණ ගැහුණත් පටු වාසියක් තකා දෙන ලද ඇතැම් පෙරොන්දුය. මෙයට හොඳම
නිදසු්න සිංහලය පැය 24 න් රාජ්ය භාෂාව කිරීමේ එස්. ඩබ්.ආර්.ඩී.බණ්ඩාරනායකගේ
පොරොන්දුවය. පැය 24න් කෙසේ වෙතත් බණ්ඩාරනායක ආණ්ඩුව සිංහලය රාජ්ය භාෂාව
කළේය. සිංහල පමණක් නම් වූ මෙම ප්රතිපත්ති, පොරොන්දුව පසු කළෙක රටේ
ප්රධානම ප්රශ්නය බවට පත්වූ ජනවාර්ගික අර්බුදයට හා ඒ තුළින් පැන නැගී අද කෙරීගෙන යන
විනාශකාරී යුද්ධයට ද පදනම දෑමූ එක් සංසිද්ධියක් වූයේය.</p>

<p> </p>

<p>පාලකයෝ කැපවීමෙන් ඉටු කරන පොරොන්දු රාශියකි. ඒ හොර
රහසේම ධනපතීන්ට
අධිරාජ්යවාදීන්ට දෙන පොරොන්දුය. ඒවා ඉටු කිරීමට නම් පාලකයන් දක්වන්නේ පුදුම එලවන
උද්යෝගයකි, උනන්දුවකි. එහෙත් අප මෙහි කතා කරන්නේ එම පොරොන්දු ගැන නොවේ.
ජනතාව හමුවේ දෙන පොරොන්දු ගැනය.</p>

<p> </p>

<p>පොරොන්දු දේශපාලනයෙහි යෙදෙන්නේ ධනපති දේශපාලකයන් පමණක්
නොවේ. සමාජවාදීන් යැයි කියා ගන්නෝ ද බොහොමයක් පෙර කී ලෙසට පොරොන්දු
දේශපාලනයෙහි යෙදෙති. අප බලයට පත් කරන්න, පත් කළහොත් මේ මේ දේ කරන්නෙමු
යි ඔහුහු ද ජනතාවට පොරොන්දු දෙති.</p>

<p> </p>

<p>උනුත් හොරු, මුනුත් හොරු, වරක් අපටත් දී බලන්න.
යයි කියමින් ඔවුහු ධනපති දේශපාලකයින් පවා පරදන පොරොන්දු දෙති මේ පොරොන්දු
දේශපාලනයට කදිම නිදසුනක් සපයන්නේ ජවිපෙ ප්රතිපත්ති ප්රකාශයයි. එය මැතිවරණයන්හිදී
පොරොන්දු ප්රකාශයනයක් ද වෙයි.</p>

<p> </p>

<p>එය දී ඇති පොරොන්දු රාශිය අතර මෙවැනි පොරොන්දු ගණනාවක් ද
වේ. එහි පසුගිය භාවිතය සමඟ මෙම පොරොන්දු කොතරම් අවංක ඒවා ද යනු කෙනෙකුට පසක් කර
ගැනීම දුෂ්කර නොවනු ඇත.</p>

<p> </p>

<p>''හුදු මතවාදී හා දේශපාලන වෙනස්කම් උඩ පමණක් කිසිම පුද්ගලයකු
හෝ දේශපාලන සංවිධානයක් හෝ ආයතනයක් හෝ කවරාකාර හෝ දේශපාලන මර්දනයකට ලක්
කරනු නොලැබේ.''</p>

<p> </p>

<p>''හෘද සාක්ෂියේ ආගමික විශ්වාසයේ, ඇදහීමේ කතා කිරීමේ
ප්රකාශනයේ, රැස්වීමේ, වැඩ කිරීමේ, සංවිධානය වීමේ සංචරණයේ සහ රැකියාවේ
නිදහස සහතික කරනු ඇත.''</p>

<p> </p>

<p>සියලුම පුරවැසියනට රැකියාව පිළිබඳ කිසිදු විශේෂත්වයකින්
තොර  පූර්ණ දේශපාලනය නිදහස සහතික කරනු
ඇත.''</p>

<p> </p>

<p> </p>

<p>පොරොන්දු දේශපාලනය කුමන පැත්තකින් පැමිණියද දකුණේ වුව
වමෙන් වුව වංචාවකි, රැවටිල්ලකි, බොරුවකි. මෙම දේශපාලනය කරන්නේ ජනතාව
ගොනාට ඇන්දවිමකි. පොරොන්දු දේශපාලනයේ යෙදෙන වුන් කුමක් කිවද ඔවුන්ගේ විශ්වාසය
වන්නේ ජනතාව කෙසේ හෝ රවටා ගත හැකි බවය. පොරොන්දු කඩ කළ වූන් ජනතාව විසින්ම
යළි යළිත් බලයට පත් කරනු ලැබ ඇත්තේය, යන සත්ය කාරණය තරයේ ග්රහණය කර
ගෙන ඇති මෙම දේශපලකයන් එසේ සිතීම, එසේ කටයුතු කිරිම එක් අතකින් පුදුමයක් ද
නොවේ.</p>

<p> </p>

<p>පොරොන්දු දේශපාලනය ලෙහෙසියෙන් පැරදවිය හැක්කක් ද නොවේ.
එය කිසියම් රටක ජනතාවගේ දේශපාලන සවිඥානක බවේ මට්ටම අනුව තීරණය වන්නකි. ජනතාවගේ
දේශපාලන සවිඥානක බව අඩු නම් එය පොරොන්දු දේශපාලනයට කදිම තෝතැන්නකි. ජනතාවගේ
දේශපාන සවිඥානක බව ඉහළ නම් පොරොන්දු දේශපාලනයට එතරම් ආයුෂක් නැත.</p>

<p> </p>

<p>පොරොන්දු දේශාපාලනය නම් රැවටිල්ලෙන් ගැලවීමට නම් ගැලවුම්
කරුවන් පිළිබඳ විඥානය ජනතාවගෙන් තුරන් විය යුතුය. තමන්ගේ ගැලවීම තමන් අත මිස අන්
කවරෙක් වත් අත නොවේ යන විඥානය සැබැවින්ම ග්රහණය කර ගන්නා තාක් ජනතාව පොරොන්දු
දේශපාලනයේ ගොදුරු බවට පත්වීම වැළකිය නොහැකිය.</p>

<p> </p>

<p>ජනතාව උදෙසා සැබෑ දේශපාලකයන් වන්නේ ජනතාවගේ උක්ත
දේශපාලන විඥානය නඟාලමින් ඔවුන් කි්රයාකාරීත්වයට 
m;a lsÍu i|yd igka jÈk foaYmd,lhka ñi fmdfrdkaÿ foaYmd,lhka fkdfõ' wo
wjYH tjka foaYmd,khls' tfy;a  fkdue;af;a
o thhs'</p>

<p> </p>

<p> </p>






</body></text></cesDoc>