<cesDoc id="sin-w-webnews-divaina-01-03-12" lang="sin">
<cesHeader type="text">
<fileDesc>
<titleStmt>
<h.title>sin-w-webnews-divaina-01-03-12.txt</h.title>
<respStmt>
<respType>Electronic file created by</respType>
<respName>Department of Linguistics, Lancaster University</respName>
<respType>text collected by</respType>
<respName>Paul Baker</respName>
<respType>transferred into Unicode by</respType>
<respName>"Unicodify" software by Andrew Hardie</respName>
</respStmt>
</titleStmt>
<publicationStmt>
<distributor>UCREL</distributor>
<pubAddress>Department of Linguistics, Lancaster University, Lancaster, LA1 4YT, UK</pubAddress>
<availability region="WORLD"></availability>
<pubDate>03-08-26</pubDate>
</publicationStmt>
<sourceDesc>
<biblStruct>
<monogr>
<h.title>File from written Sinhala corpus, dated01-03-12</h.title>
<h.author>unknown</h.author>
<imprint>
<pubPlace>Sri Lanka</pubPlace>
<publisher>unknown</publisher>
<pubDate>01-03-12</pubDate>
</imprint>
</monogr>
</biblStruct>
</sourceDesc>
</fileDesc>
<encodingDesc>
<projectDesc>Text collected for use in the EMILLE project.</projectDesc>
<samplingDesc>Simple written text only has been transcribed. Diagrams, pictures and tables have been omitted and their place marked with a gap element.
</samplingDesc>
<editorialDecl>
<conformance level="1"></conformance>
</editorialDecl>
</encodingDesc>
<profileDesc>
<creation>
<date>03-08-26</date>
</creation>
<langUsage>Sinhala</langUsage>
<wsdUsage>
<writingSystem id="ISO/IEC 10646">Universal Multiple-Octet Coded Character Set (UCS).</writingSystem>
</wsdUsage>
<textClass>
<channel mode="w">print</channel>
<constitution type="composite"></constitution>
<domain type="public"></domain>
<factuality type="fact"></factuality>
</textClass>
<translations></translations>
</profileDesc>
<revisionDesc></revisionDesc>
</cesHeader>

<text>
<body>




<p>හෙටට පෙර 400 වැඩි නොකළොත් </p>

<p>හොඳින්
නැත්නම් නරකින් ගන්නවා</p>

<p>තොණ්ඩමන්
කියයි</p>

<p>වතු
කම්කරැවන් ඉල්ලා සිටින රැපියල් 400 ක වැටූප් වැඩිවීම හෙට (13) ට පෙර ලබා
නොදුන්නහොත් එය හොඳින් හෝ නරකින් හෝ වතු හාම්පූතුන්ගෙන් ලබා ගන්නා බවත් වතු
හාම්පූතුන්ට එරෙහිව වතුකරය පූරා මහා වැඩවර්ජන ඇතුඦ උද්ඝෝෂණ ව්යාපාරයක්
පවත්වන බවත් ලංකා කම්කරැ කොංග්රසයේ නායක හා වතු යටිතල පහසූකම් ඇමැති ආරැමූගම්
තොණ්ඩමන් මහතා ඊයේ (11) බණ්ඩාරවෙලදී පැවසීය.</p>

<p> මේ
සියලුම දේ නීතිමය ගැටඦ මතු නොවන ආකාරයෙන් සිදුකිරම සඳහා වතු හාම්පූතුන් සමග
අත්සන් කරන ලද සාමූහික ගිවිසූම හෙට (13) ඉල්ලා අස්කර ගැනීමට තම පක්ෂය තීරණය කර
ඇති බවත් හෙතෙම කීවේය.</p>

<p>රැපියල්
400 වැටූප් වැඩිවීම ඉල්ලා ඊයේ බණ්ඩාරවෙල නායබැද්ද වතු යායේ මහා උද්ඝෝෂණ
ව්යාපාරයක් ඌව පළාත් සභා ඇමැති එම්. සචිචිතානන්දන් මහතාගේ සංවිධානයෙන්
පැවැත්විණ.</p>

<p>මෙම
උද්ඝෝෂණය හේතුවෙන් බණ්ඩාරවෙල, හපූතලේ පූනාගල, නායබැද්ද ඇතුඦ වතු රැසක
කලුකොඩි දමා තිබිණි.</p>

<p>පූනාගල
සහ හපූතලේ වතු කම්කරැවන් දහස් ගණනක් පෙළපාලි මගින් නායබැද්ද වතුයායට පැමිණෙමින්
සිටි අතර එම පෙළපාලිය පොලිසිය මැදිහත්වී වැළැක්වීම නිසා කම්කරැවෝ ලොරි,
ට්රැක්ටර් මගින් නායබැද්ද වතුයායට පැමිණියහ.</p>

<p>මෙහිදී
තවදුරටත් කථා කළ ආරැමූගම් තොණ්ඩමන් මහතා මෙම සාමූහික ගිවිසූම ඉල්ලා අස්කර
ගැනීමෙන් පසූ රැපියල් 400 ක දීමනාවට අමතරව තවත් ඉල්ලීම </p>

<p>රැසක්
වතු හාම්පූතුන්ට ඉදිරිපත් කර උද්ඝෝෂණ හා වැඩවර්ජන ආරම්භ කිරීමට සිදුවන බවත්
කීවේය.</p>

<p>"කැලණිය" අද යළි විවෘතවේ </p>

<p> කැලණිය
විශ්වවිද්යාලය අද (12) නැවත විවෘත වේ.</p>

<p>කැලණිය
විශ්වවිද්යාලයේ සිසූන් අතර ඇති වූ ගැටූම් නිසා ඉකුත් ජනවාරි 21 දා කැලණිය
විශ්වවිද්යාලය නැවත දෑනූම් දෙනතුරැ වසා දෑමිණි.</p>

<p>පසූව
මාර්තු 5 දා එය නැවතත් විවෘත කිරමට විශ්වවිද්යාල බලධාරන් තීරණය කළද නැවතත් එය
මාර්තු 12 දක්වා කල් තැබිණි.</p>

<p>කැලණිය
විශ්වවිද්යාලයේ ශිෂ්ය සංගම් නිලවරණය ලබන 15 දා පැවැත්වීමට විශ්වවිද්යාල
පරිපාලනය තීරණය කොට ඇත.</p>

<p>විශ්වවිද්යාලය
නැවත විවෘත කළද කැලණි විශ්වවිද්යාල සිසූන්ගේ ආරකෂාව සම්බන්ධයෙන් බරපතල ගැටලු
මතුව ඇතැයි අන්තර් විශ්වවිද්යාලයීය ශිෂ්ය බලමණ්ඩලයේ කැඳවූම්කරැ චමීර
කොස්වත්ත මහතා කැලණිය විශ්වවිද්යාලය විවෘත කිරම පිළිබඳ සිය අදහස් දක්වමින්
පැවැසීය.</p>

<p>400 වර්ජනයට මන්ත්රීවරැත් එති </p>

<p>වතු
කම්කරැ වැටූපට රැපියල් 400 ක් ලබාදෙන ලෙස ඉල්ලා සිටිමින් ලංකා කම්කරැ කොන්ග්රසය
ආරම්භ කළ සත්යග්රහයට පෙරේදා (10) උතුරැ හා නැගෙනහිර පළාත්වල පාර්ලිමේන්තු
මන්ත්රීවරැ හා හිටපූ මන්ත්රීවරැ කිහිප දෙදෙනක්ද එක් වූහ.</p>

<p>ද්රවිඩ
එක්සත් විමූක්ති පෙරමූණේ මාවෙයි සේනාධිරාජා, ටෙලෝ සංවිධානයේ සූරේෂ්
ප්රේමචන්ද්රන්, වයි. බාලචන්ද්රන්, ප්ලොටි සංවිධානයේ ධර්මලිංගම් සිද්ධාර්ථන්, සමස්ථ
ලංකා ද්රවිඩ කොන්ග්රසයේ කුමාර කුරැබරන්, අප්පාදොරේ විනාග මූර්ති යන
පාර්ලිමේන්තු මන්ත්රීවරැ ද යාපනය නගරාධිපති නඩරාජන් රවිරාජ් මහතාද පෙරේදා මෙසේ
සත්රගහයට එක් වූහ.</p>

<p>ලංකා
කම්කරැ කොන්ග්රසය හැටන් පි්රන්සස් මංසන්ධියේදී ඉකුත් 19 දා ආරම්භ කළ මෙම
සත්යග්රහය අද (12) දක්වා පැවැත්වේ.</p>

<p>හෙට (13)
වන විට මෙම කම්කරැ වැටූප් වැඩි කිරම සම්බන්ධයෙන් සතුටූදායක ආරංචියක් ලැබෙනූ
ඇතැයි ලංකා කම්කරැ කොංග්රසයේ බලධාරහූ පවසති.</p>

<p>කෙසේ වූවද
වැටූප් වැඩි කිරම කරන තෙක් මෙම සත්යග්රහය ඉදිරියට ගෙන යන බව ඕවූහූ තවදුරටත්
පවසති.</p>

<p>සත්යග්රහය
ආරම්භක අවස්ථාවේ සිටම විටින් විට හැටන් කොළඹ, නූවර නූවරඑළිය ප්රධාන මාර්ග අවහිර
වූ අතර එම නිසා එම මාර්ග වල වාහන ධාවනය පැය කිහිපයකටම ඇනහිටි අවස්ථා විය.</p>

<p>එසේම
ඊයේ (11) වන විටත් වතුකම්කරැ කණ්ඩායම් වශයෙන් මෙම සත්යග්රහයට එක්වීම සඳහා විශාල
ලෙස පැමිණෙමින් සිටියහ.</p>

<p>කොටි යළිත් ගසතිි </p>

<p>සටන්
විරාමය තවදුරටත්් කඩකරමින් එල්. ටී. ටී. ඊ. යාපනය අරියාලෙයි නැගෙනහිර ආරක්ෂක
කලාපයට පෙරේදා (10) කාලතුවක්කු ප්රහාර එල්ලකර ඇත.</p>

<p>මි. මී.
1.20 කාලතුවක්කු ප්රහාර කීපයක් ආරක්ෂක හමූදා වෙත එල්ල කර ඇති අතර, හමූදාවේ
කිසිවෙකුටත් ඉන් හානි සිදුවී නැත.</p>

<p>මේ අතර
මඩූවිල් දකුණ ප්රදේශයේ සෝදිසි මෙහෙයූමක නිරතවූ ඉංජිනේරැ භට පිරිස් විසින්
පූද්ගල නාශක බෝම්බ 16 ක් සහ මෝටර් බෝම්බ 03 ක් පෙරේදා (10) සොයාගෙන ඇත.</p>

<p>හමූදාව
විසින් මූදාගෙන තිබූණද මෙතෙක් බිම් බෝම්බ හා මර උගුල් ඉවත්් නොකළ
චාවාකච්චේරියට ආසන්න ප්රදේශයකට ගිය අලවෙඩ්ඩි ප්රදේශයේ පදිංචිකරැවකු පෙරේදා
(10) පූද්ගල නාශක බෝම්බයකට අසූවී ඇත. එහිදී බරපතල තුවාල ලැබූ මොහූ යාපනය
රෝහලට ඇතුළත් කර ඇත.</p>

<p>මේ අතර
වන්නි හමූදා බූද්ධි අංශයට ලැබූණ තොරතුරැ අනූව වවූනියාව පාවන්කුලම් ප්රදේශයේ එල්.
ටී. ටී. ඊ. ලැගුම් ස්ථානයක් විනාශ කිරමට හමූදාව සමත්වී ඇත. පූද්ගලනාශක බෝම්බ 03
ක් සහ ආහාර ද්රව්ය රැසක් එහි තිබී හමූවී ඇත.</p>

<p>වවූනියාව
පූන්තොටිටම් සරණාගත කඳවූරේ සිටි පූද්ගලයකු අත් බෝම්බ 02 ක් සමඟ පෙරේදා (10)
හමූදාවට අසූවී ඇත. හමූදාව විසින් වැඩිදුර පරකෂණ සඳහා එම පූද්ගලයා වවූනියාව
පොලිසියට භාරදී ඇත.</p>

<p>ඌරගහ නැන්දා මැරීමට ලේලියගෙන් ලකෂයක කොන්ත්රාත්තුවක් </p>

<p>ඌරගහ
පොලිස් වසමේ නිවෙසක කුස්සියක් ඇතුළේ අභිරහස් අන්දමින් මරා දමා තිබියදී ඉකුත් 5
දා පොලිසිය විසින් සොයාගත් කාන්තාවකගේ ඝාතනයට සම්බන්ධව මිය ගිය කාන්තාවගේ
ලේලිය සමග පූද්ගලයින් දෙනෙකු පොලිසිය විසින් සැකපිට අත්අඩංගුවට ගෙන ඇත.</p>

<p>තම
නැන්දනිය මරා දමන සේ ඕවූන්ගේ කුරැඳු ඉඩම්වල රස්සාවට පැමිණි තරැණයින් දෙදෙනකුට
සැකකාර ලේලිය රැපියල් ලකෂයක කොන්තරාත්තුවක් දී ඇති බැව් පොලිස් පරකෂණවලදී
හෙළිවී තිබේ.</p>

<p>මෙම
ඝාතනය සඳහා උපයෝගී කර ගත් බවට සැක කෙරෙන අලවංගුවක් හා පිහියක් ද පොලිසිය විසින්
සොයා ගෙන තිබේ.</p>

<p>ඝාතනයෙන්
පසූ ප්රදේශයෙන් පැනගිය සැකකරැවන් නෙලුව ප්රදේශයේ සැඟවී සිටියදී අත්අඩංගුවට ගැනීමට
හැකි වූයේ යැයි ඌරගහ පොලිස් ස්ථානාධිපති එල්. ඊ. ද සිල්වා මහතා පැවසීය.</p>

<p>මේ
පිළිබඳ මහෙස්ත්රාත් පරකෂණය ඇල්පිටිය මහෙස්ත්රාත් හර්ෂ සේතුංග මහතා විසින් පවත්වන
ලද අතර සැකකරැවන් ලබන 14 වැනිදා දක්වා රකෂිත බන්ධනාගාර ගතකර ඇත.</p>

<p>මිය ගිය
කාන්තාවගේ ගෙල සිරකර මෙම මරණය සිදුකර ඇතැයිද පරකෂණවලින් හෙළිවී තිබේ.</p>

<p>මරාගෙන මැරෙන කොටින් රැකගත් බාබර් පොලිස් අත්අඩංගුවට </p>

<p>කොළඹට
පැමිණෙන මරාගෙන මැරෙන කොටි ත්රස්තයන්ට නවාතැන් සපයමින් මූදල් ලබා දුන් "කිලි"
නමැති කරණවෑමියකු (බාබර්) විශේෂ පොලිස් විමර්ශන කණ්ඩායමක් විසින් උතුරැ කොළඹ
ප්රදේශයේදී අත්අඩංගුවට ගෙන ඇත.</p>

<p>මොහූ
උසස් පොලිස් නිලධාරන් කිහිපදෙනකුම සමග සම්බන්ධකම් පැවැත්වූ පූද්ගලයකු බව ද
පරකෂණවලදී අනාවරණය වී තිබේ. එම පොලිස් නිලධාරන් සියලු දෙනාම පාහේ උතුරැ කොළඹ
ප්රදේශයේ පිහිටි ඕහූගේ බාබර් සාප්පූවට නිතර යන එන අය බව කියති.</p>

<p>යාපනයේ
අච්චූවේලි ප්රදේශයේ පදිංචිකරැවකු වන මොහූ කොළඹට පැමිණ ඇත්තේ දෑනට කලකට පෙරය.
සැකකරැ කොළඹට පැමිණ ඇත්තේ කොටි ත්රස්තවාදීන්ගේ අනූදෑනූම මතදෑයි සොයා බැලීම
සඳහා දෑන් වෙනමම පරකෂණ පවත්වන බව පොලිස් ආරංචි මාර්ග කියයි.</p>

<p>කෙසේ
වූවද කොළඹට පැමිණෙන සමහර මරාගෙන මැරෙන කොටි ත්රස්තයන්ට සැකකරැ මූදල් දී ඇති බවට
අනාවරණය වී තිබේ. මෙම ඇතැම් මූදල් ගෙන්වාගෙන ඇත්තේ ඉතාලියෙනි.</p>

<p>දෑනට මාස
දෙකකට පමණ පෙර කොටහේන ජම්පටා වීදියේදී අත්අඩංගුවට ගත් "සීලන්" නමැති
මරාගෙන මැරෙන කොටි ත්රස්තවාදියාට ද මූදල් දී ඇත්තේ "කිලී" විසින් බවට
ද හෙළි වී ඇත.</p>

<p>"සීලන්"
වරින්වර මරාගෙන මැරෙන කොටි ත්රස්තවාදීන් දොළොස් දෙනකුම කොළඹට රැගෙනවිත් ඇති
අතර මොවූන් දොළොස් දෙනාම දෑනට පොලිස් අත්අඩංගුවේ පසූවේ. මොවූන්ගෙන් දෙදෙනකු
කොළඹට පැමිණ ඇත්තේ ගාලු මූවදොර හමූදා මූලස්ථානයට හා අරලියගහ මන්දිරයට ප්රහාර
එල්ල කිරමට බව කළ ප්රශ්න කිරම්වලදී හෙළි විණි.</p>

<p>ඌව පළාතෙන් බඳවා ගත් </p>

<p>සහන
සොයූරියෝ සහන පතා මාරාන්තික උපවාසයක</p>

<p>ඌව
පළාතේ සහන සොයූරියන්ගේ පත්වීම් ස්ථිරකර ඕවූන්ට සිය රාජකාරි කිරමට ස්ථානයක්
ලබාදෙන ලෙස ඉල්ලා රජයට බලකරමින් එම සහන සොහොයූරියන් විසින් පෙරේදා (10) සිට
කොළඹ කොටූව දුම්රියපොළ ඉදිරිපිට මාරාන්තික උපවාසයක් ආරම්භකර ඇත.</p>

<p>වනිතා
කටයූතු අමාත්යංශය මගින් පසූගිය වසරේදී ඌව පළාතෙන් බඳවාගත් සහන සොයූරියන්
එකසිය පනහක් පමණ පිරිසකගේ සේවය ස්ථිර කරන ලෙස ඉල්ලා ඕවූන් මෙම මාරාන්තික උපවාසය
ආරම්භ කර තිබේ.</p>

<p>සහනසේවා
සොයූරියන් වශයෙන් දිවයිනේ විවිධ ප්රදේශවලින් බඳවාගන්නා ලද සෙසූ සියලු
සේවිකාවන්ට මේ වනවිට ස්ථිර පත්වීම් ලබාදී ඇතත් ඌව පළාතෙන් බඳවා ගත් සේවිකාවන්
සම්බන්ධව කිසිදු කි්රයා මාර්ගයක් ගෙන නොමැති බව උපවාසයේ යෙදී සිටින සහන
සොහොයූරියෝ කියති.</p>

<p>මායිම්
ගම්මානවල රණවිරැ පවූල් සහ කාන්තා කටයූතු පිළිබඳව සොයා බැලීම සඳහා මෙම සහන
සොහොයූරියෝ කොන්ත්රාත් පදනමින් බඳවා ගනූ ලැබ ඇති බව වනිතා කටයූතු
අමාත්යාංශය මඟින් ඕවූන්ට නිකුත් කර ඇති පත්වීම් ලිපියේ සඳහන්ය. පසූගිය
මැතිවරණයෙන් පසූ හිටිහැටියේම එම රැකියාවලින් සහන සේවිකාවන් ඉවත් කර තිබෙන බව සහන
සොයූරියන්ගේ සංගමයේ බදුල්ල ශාඛාවේ උපලේකම් සූසන්තා චන්ද්රකාන්ති මහත්මිය
"දිවයින" ට පැවසූවාය.</p>

<p>අධ්යයන
පොදු සහතික පත්ර උසස් පෙළ සමත්වීම සූදුසූකම ලෙස සලකා මෙම පත්වීම් ලබාදී තිබේ.</p>

<p>හිටපූ
වනිතා කටයූතු ඇමැතිනී හේමා රත්නායක මහත්මිය ඌව පළාතේ ශී්ර ලංකා නිදහස් පකෂ
සංවිධානවලට අයත් දකෂ කාන්තාවන් මෙසේ බඳවාගත්තද වත්මන් වනිතා කටයූතු ඇමැතිනිය සිය
ධූරයේ පත්වීම ලැබීමෙන් පසූ එම රැකියා ස්ථිර කිරමට හෝ ඕවූන් රැකියා ස්ථානවලට
අනූයූක්ත කිරමට හෝ පියවර ගෙන නොමැති බවද ඇය පැවැසූවාය.</p>

<p>තම
දුක්ගැනවිලි පිළිබඳව ජනාධිපතිනියටත් අදාළ මැති ඇමැතිවරැන්ටත් කිහිප වතාවක්ම
දැනූම්දී ඇතත් එයට යහපත් ප්රතිචාරයක් නොලැබීම නිසා මෙසේ මාරාන්තික උපවාසයක්
ආරම්භ කිරමට තීරණය කළ බව ඇය වැඩිදුරටත් කීවාය.</p>

<p>දොස්තරලාගෙන් සංකේත වර්ජන </p>

<p> ප්රථම
වර්ජනය අද මහනූවර</p>

<p>ඉල්ලීම්
ගණනාවක් මූල්කරගෙන සංකේත වැඩවර්ජන කිහිපයක් පැවැත්වීමට රජයේ වෛද්ය
නිලධාරන්ගේ සංගමය තීරණය කර තිබේ.</p>

<p>මෙම
තීරණය ගෙන ඇත්තේ පෙරේදා (10 දා) පැවැති රජයේ වෛද්ය නිලධාරන්ගේ සංගමයේ
හදිසි විධායක කමිටූ රැස්වීමේදීය.</p>

<p>මේ
අතරින් අද (12) මහනූවර ශිකෂණ රෝහලේ වෛද්යවරැන් ඇතුඦ සියලුම සෞඛ්ය
සේවකයන් ප්රථමයෙන් එක් දින සංකේත වැඩ වර්ජනයක නිරත වීමට නියමිතය. කරැණාකර 4 වැනි
පිටූව බලන්න</p>

<p>රෝහල්
සේවකයන්ට හිමි ආපදා ණය මෙතෙක් නොගෙවීමට එරෙහිව මෙම සංකේත වර්ජනය පැවැත්වෙනූ
ඇත. මීට මහනූවර ශිකෂණ රෝහලේ වෛද්යවරැ, රෝහල් කාර්ය මණ්ඩලය සහ සියලුම
සෞඛ්ය සේවකයෝ සහභාගි වීම අපේකෂිත බව රෝහල් ප්රකාශකයකු "දිවයින"
ට ඊයේ (11) පැවැසීය.</p>

<p>මීට
අමතරව හෙට (13) උතුරැ හා නැගෙනහිර පළාත් හි රෝහල්වල සේවය කරන සියලුම
වෛද්යවරැන්ට විශේෂ කාර්ය දීමනාව ඉල්ලා සිටීම මෙම සංකේත වර්ජනයේ අරමූණයි.</p>

<p>ඉහත
ඉල්ලීම්වලට අමතරව දීර්ඝ කාලයක් මූඦල්ලේ නොවිසඳී පවතින වෛද්ය සේවා ඉල්ලීම්
12 ක් මූල්කරගෙන ලබන 20 දා සියලුම රජයේ වෛද්යවරැන්ගේ දීප ව්යාප්ත සංකේත
වැඩවර්ජනයක් පැවැත්වීමට ද රජයේ වෛද්ය නිලධාරන්ගේ සංගමය තීරණය කර ඇතැයි එම
සංගමයේ ලේකම් වෛද්ය අනූරැද්ධ පාදෙනිය මහතා පවසයි.</p>

<p>කෙසේ
වූවද ඉහත ඉල්ලීම් සම්බන්ධයෙන් අනිද්දා (14) සෞඛ්ය ඇමැති ජෝන් සෙනෙවිරත්න
මහතා සමග සාකච්ඡාවක් පැවැත්වෙන බව සඳහන් කළ වෛද්ය සංගම් ලේකම්වරයා 20 වැනිදා
සංකේත වැඩවර්ජනය දියත් කරන්නේ එම සාකච්ඡා අසාර්ථක වූවහොත් පමණකැයි ද යන්න සඳහන්
කළේය.</p>

<p>දෑනට
පූරප්පාඩූව පවතින පළාත් සෞඛ්ය පරිපාලන තනතුරැවලට සූදුස්සන් කඩිනමින් පත්කිරම,
අවූරැද්දක පමණ කාලයක සිට ඇනහිට තිබෙන විශේෂඥ වෛද්යවරැන්ගේ ස්ථාන මාරැ
කඩිනමින් ක්රියාත්මක කිරම, රජයේ වෛද්ය සේවාව දීප ව්යාප්ත සේවාවක් බවට
පත්කිරම ඇතුඦ කරැණූ 12 ක් ලබන 20 වැනිදා පැවැත්වීමට නියමිත සංකේත වැඩ වර්ජනයට
මූලික වනූ ඇතැයි පැවැසේ.</p>

<p>ජනපතිනිය යූරෝපා සංචාරය අද අරඹයි </p>

<p> ජනාධිපතිනි
චන්ද්රිකා බණ්ඩාරනායක කුමාරතුංග මහත්මිය සිය යූරෝපා සංචාරය අද (12) ආරම්භ කිරීමට
නියමිතය.</p>

<p>ජනාධිපතිනිය
මෙම සංචාරයේදී ජර්මනිය, නෙදර්ලන්තය, බෙල්ජියම, සහ එංගලන්තය යන රටවල සංචාරය කිරමට
නියමිත අතර සති දෙකකට අධික සංචාරයේදී ඉහත රටවල රාජ්ය නායකයින් හමූවී
ද්විපාර්ශ්වික සාකච්ඡා පැවැත්වීමට ද නියමිතව තිබේ.</p>

<p>මෙම
සංචාරය සඳහා ජනාධිපතිනිය සමග විදේශ ඇමැති ලකෂ්මන් කදිරගාමර් මහතාද සහභාගිවේ.
මීට අමතරව මෙරට වානිජ මණ්ඩලවල සභාපතිවරැ ඇතුලු මෙරට ව්යාපාරිකයින් විසි දෙනෙක්
පමණ ජනාධිපතිනිය යූරෝපා හවූල සමග පැවැත්වීමට නියමිත සාකච්ඡාවලට සහභාගි වෙති.</p>

<p>බූදු පිළිම වනසා දැමීම </p>

<p>දහම්
සක්මන හා සත්යක්රියාව හෙට</p>

<p>ඇෆ්ගනිස්ථානයේ
තලේබාන්වරැ බූද්ධ ප්රතිමා විනාශ කිරමට එරෙහිව ත්රෛනිකායික මහා නාහිමිවරැන් ප්රමූඛ
5000 කට අධික මහා සංඝරත්නයද, ගිහි ජනතාවද සහභාගිවන මහා දහම් සක්මන හා සත්ය ක්රියාව
හෙට (13) සවස 2 ට කොළඹ බෞද්ධාලෝක මාවතේ සමස්ත ලංකා බෞද්ධ මහා සම්මේලන ශාලාව
අසලින් ආරම්භ වේ. </p>

<p>හෙට (13)
පස්වරැ 2 ට සමස්ත ලංකා බෞද්ධ මහා සම්මේලනය අසලින් ආරම්භ වන මෙම දහම් සක්මන
බූලර්ස් පාර, කනත්ත වට රවූම, ඩඩ්ලි සේනානායක වටරවූම, බොරැල්ල මන්සන්ධිය,
වෝ්්ඩ් පෙදෙස නගර සභා වටරවූම ඕස්සේ විහාරමහා දේවි උද්යානයට පිවිසෙනූ ඇත.</p>

<p>කිසිදු
ආගම් භේදයකින් තොරව ඔනෑම කෙනෙකුට මේ සඳහා සහභාගිවීමට හැකි අතර මෙයට සහභාගිවන
සියලු දෙනාම සූදු ඇඳුමින් සැරසී සහභාගිවන ලෙස සංවිධායකයෝ ඉල්ලා සිටිති.</p>

<p>ඇෆ්ගනිස්ථානයේ
සිදුවන මෙම ම්ලේච්ඡ ක්රියාවට එරෙහිව සමස්ත ලෝකයේම අවධානය යොමූ කරවා ගැනීම සඳහා
මෙම දහම් සක්මන හා සත්යක්රියාව සංවිධානය කරන බව ජාතික සංඝ සභාවේ සභාපති
මාදුඦවාවේ සෝභිත හිමියෝ පැවසූහ.</p>

<p>මෙම දහම්
සක්මන සංවිධානය කරන්නේ සමස්ථ ලංකා බෞද්ධ මහා සම්මේලනය මගිනි.</p>

<p>මහියංගන බසය පෙරළී 23 දෙනෙක් තුවාල ලබති </p>

<p>පදියතලාවේ
සිට මහියංගනය බලා ධාවනය වූ පෞද්ගලික බස් රථයක් දෙහිගොල්ල ප්රදේශයේදී පෙරළී
යෑමෙන් එහි ගමන් කළ මගීන් විසිතුන්දෙනෙකු තුවාල ලබා රෝහල්ගත කර තිබේ.</p>

<p>මෙම
අනතුර සිදු වී ඇත්තේ ඊයේ (11 දා) උදේ 9.00 ට පමණය. මෙම අනතුරින් බරපතල තුවාල
ලැබූවන් හයදෙනකු බදුල්ල රෝහලට ඇතුළත් කර ඇති අතර සෙසූ අය මහියංගනය රෝහලේ
ප්රතිකාර ලබමින් සිටිති.</p>

<p>මහියංගනය
පොලිස් ස්ථානාධිපති පොලිස් පරකෂක සමන්ත වෙදගේ මහතාගේ උපදෙස් මත (2355)
මදුරසිංහ, (29852) කුුමාර නිලධාරහූ පරකෂණ පවත්වති.</p>

<p>පැමිණීම සියයට අසූවක් නැති නම් උසස් පෙළට පෙනී සිටින්න බැහැ.... </p>

<p>2001
අ.පො.ස. උසස් පෙළ සිසූන් විභාගයට පෙනී සිටීමට නම් සිසූන්ගේ පාසල් පැමිණීම 80% ක්
වීම අනිවාර්ය බවත් සෑම සිසූවෙක්ම තම ව්යාපෘති නිම කළ යූතු බවත් දෙසති ඇගයීම්
සඳහා 80% ක සහභාගිත්වයක් තිබිය යූතු බවත් එම සූදුසූකම් සපූරා ලීමට අසමත් වන කිසිම
ශිෂ්යයකුට විභාගය සඳහා අයදුම් පත් ඉදිරිපත් කිරමට අවසර නොදෙන ලෙසත් අධ්යාපන
අමාත්යාංශයේ ලේකම් තාරාද මැල් මහත්මිය විසින් සියලුම විදුහල්පතිවරැන්ට චක්ර
ලේඛයක් මගින් දන්වා ඇත.</p>

<p>පෞද්ගලික
පන්තිවලට උගන්වන විශ්වවිද්යාල කථිකාචාර්යවරැන් යැයි කියා ගන්නා බොහෝ ඇඳුරන්
මෙම 80% පැමිණීම අනිවාර්ය නොවන බව පැවසීම නිසා හඟුරන්කෙත කලාපයේ බොහෝ පාසල්වල
උසස් පෙළ සිසූන්ගේ පාසල් පැමිණීම මෙම පාසල් වාරයේදී ඉතාමත් දුර්වල වූ බැව් එම
පාසල්වල උසස් පෙළ ගුරැවරැ පැවසූහ.</p>

<p>කොටින්ගේ අධිබල පූපූරණ ද්රව්ය කිලෝ 10 ක් වවූනියාවෙන් අල්ලයි </p>

<p>කොටි
ත්රස්තවාදීන් විසින් වවූනියාවේ සඟවා තිබූ අධිබලැති පූපූරණ ද්රව්ය කිලෝ ග්රෑම්
10.5 ක් වවූනියාව පොලිසියේ විශේෂ පොලිස් කණ්ඩායමක් විසින් සොයාගෙන තිබේ.</p>

<p>කොටි
සංවිධානයේ මරාගෙන මැරෙන කොටි ත්රස්තවාදියකු විසින් මෙම පූපූරණ ද්රව්ය ප්රභූ
ඝාතනයන් සඳහා සඟවා තිබී ඇත.</p>

<p>වවූනියාව
ජ්යෙෂ්ඨ පොලිස් අධිකාරි එච්. එම්. ඩී. හේරත් මහතාගේ උපදෙස් මත වවූනියාව
පොලිසියේ විශේෂ පොලිස් කණ්ඩායමක් විසින් පූණ්යමූර්ති රංජිත් කුමාර හෙවත්
"සෙංකදීර්" නමැති මරාගෙන මැරෙන කොටි සාමාජිකයා අත්අඩංගුවට ගැනීමෙන්
පසූව ඕහූගෙන් ලැබූණූ තොරතුරැ මත මෙම පූපූරණ ද්රව්ය තොගය අත්අඩංගුවට ගැනීමට
හැකි වී තිබේ.</p>

<p>අත්අඩංගුවට
ගත් මරාගෙන මැරෙන කොටි සාමාජිකයා මීට පෙර කොටි සංවිධානයෙන් මන්නාරමේ සිට
වවූනියාවට එවා ඇති අතර ඕහූ වවූනියාවේදී නතර වී ඇත්තේ පූපූරණ ද්රව්ය සොයාගත්
නිවසේය. පසූව ඕහූට කොළඹට යන ලෙස එල්.ටී.ටී.ඊ. සංවිධානයෙන් නියෝග ලැබී ඇත. එම
උපදෙස් අනූව කොළඹ ගොස් සිටියදී වවූනියාවේ විශේෂ පොලිස් කණ්ඩායමක් ඕහූව
ගල්කිස්සේදී අත්අඩංගුවට ගෙන තිබේ.</p>

<p>කොළඹට
යැවූ මරාගෙන මැරෙන කොටි සාමාජිකයාට වැඩක් පවරනතුරැ කොළඹ සිටින ලෙස එල්.ටී.ටී.ඊ.
සංවිධානයෙන් උපදෙස් ලැබී තිබූණූ බවද වවූනියාව පොලිසිය කියයි.</p>

<p>හමූදාව හා කොටි අතර ගැටූමෙන් </p>

<p>කොටි
ත්රස්තයෝ හත්දෙනෙක් මරැට</p>

<p>යාපනය
කිලාලි ප්රදේශයේදී පසූගිය 8 දා ආරකෂක හමූදාව සහ කොටි ත්රස්තවාදීන් අතර ඇතිවූ
ගැටූම්වලින් ත්රස්්තවාදීන් හත්දෙනකු පමණ මරැමූවට පත්ව ඇතැයි විශේෂ මාධ්ය
තොරතුරැ මධ්යස්ථානය නිකුත් කළ නිවේදනයක දැක්වේ.</p>

<p>ආරකෂක
හමූදා විසින් කොලොම්බූතුරෙයි හා මාඩූවිල් ප්රදේශයේ සිදුකළ සෝදිසි මෙහෙයූමකදී
පූද්ගල නාශක අවි 87 ක්, යූද ටැංකි නාශක අවියක් සහ මිලිමීටර් 81 මෝටාර් අවි 5 ක්
සොයාගෙන තිබෙන අතර, චාවකච්චේරි ප්රදේශයේ පදිංචිකරැවකු වූ එස්. නගරත්නම් යන
අයගේ ගෙවත්තේ වළලා තිබූ රැපියල් ලකෂයක් පමණ වටිනා රත්රං තොගයක් ද සොයාගෙන
තිබේ.</p>

<p>මේ අතර
වන්නි නෙඦම්කුලම් ප්රදේශයේදී ආරකෂක හමූදා විසින් සිදුකළ සෝදිසි මෙහෙයූමකදී
පිපිරවීම් සඳහා පාවිච්චි කරනූ ලබන වයර් කිලෝ 2 ක් පමණ ද, මරාගෙන මැරෙන
ත්රස්තවාදීන් භාවිතා කරන ඇඳුම් කටිටලයක් ඇතුඦ භාණ්ඩ කිහිපයක් සොයාගෙන ඇතැයි එම
නිවේදනයේ වැඩිදුරටත් සඳහන් වේ.</p>

<p>මතුගමදී පැහැරගත් ව්යාපාරිකයා දින තුනකට පසූ ගාල්ලේ දමා ගිහින් </p>

<p>රැ.
අසූඑක් දහසක මූදල් පැහැරගෙන</p>

<p>ව්යාපාරිකයන්
පිරිසකගේ වැඩක් දැයි සැකයක්...</p>

<p>යක්කල
ව්යාපාරිකයකු මතුගම නගරයේදී පැහැරගත් කොල්ල කණ්ඩායමක් ඕහූව දින තුනක් තිස්සේ
රහසේ රඳවා තබාගෙන සිට ඕහූ ළඟ තිබූ රැපියල් 81,000 ක මූදලක් ද පැහැරගෙන ගාල්ල
නගරයේ අතරමං කර පලාගොස් ඇතැයි මතුගම පොලිසිය පවසයි.</p>

<p>මෙම
ව්යාපාරිකයා පැහැර ගෙන ගොස් ඇත්තේ තවත් ව්යාපාරිකයින් පිරිසක් බවට සැකයක්
මතුවී ඇතැයිද ඕහූගෙන් කොල්ල කණ්ඩායම හිස් කොලයකට අත්සන් පවා ගෙන ඇතැයිද මතුගම
මූලස්ථාන පොලිස් පරක්ෂක කේ. එච්. ජේ. කොඩිතුවක්කු මහතා "දිවයින"ට
කීය. </p>

<p>මොහූ
ඉකුත් 26 වැනිදා ව්යාපාරික කටයූතු සඳහා වාහනයකින් මතුගම නගරයට පැමිණ ඇති අතර
එහිදී තමන් අසලට පැමිණි අයකු රැපියල් 1000 ක් මාරැ කිරමට හැකිදැයි අසා තමන් සමග
කතාබහ කර එකවරට වෙනත් වාහනයකට තමාව ඇදගෙන ගොස් දමාගත් බවත් පසූව වාහනය වේගයෙන්
ධාවනය කළ බවත් පැමිණිලිකාර ඇම්. ඩබ්ලිව්. ඒ. ගුණවර්ධන නමැත්තා පොලිසියට කළ
පැමිණිල්ලේ සඳහන් වෙයි.</p>

<p>වාහනය
තුළදී මූහූණ වසාගෙන තමාව රැගෙන ගිය අතර දින තුනක් නිවසක රඳවාගෙන සිට ඇතැයිද
මූදල්ගෙන හිස් කොලයකට අත්සන් ගත් බවද ඕහූ පොලිසියට ප්රකාශ කර ඇත.</p>

<p>පසූව
මූහූණ බැඳ වාහනයකින් රැගෙන ගිය බවත් අතරමගදී වාහනය නවතා මහ මඟ දමා ගිය අතර තමන්ව
දමා ගියේ ගාල්ල නගරයේ බව දැනගත් බවත් පැමිණිල්ලේ වැඩිදුරටත් සඳහන් වෙයි.</p>

<p>මෙම
පැහැර ගැනීම ගැන පැමිණිලිකරැගේ රියැදුරැ හා බිරිඳ පොලිසියට පැමිණිලි දෙකක් කර
තිබූ බවද පැවසීය.</p>

<p>පූරාවස්තු කොල්ලය ගැන සැකපිට සිටි පොලිස් කරාටෙි මාස්ටර්
පොලිසියේදීම වෙඩි තබා ගනී </p>

<p>පොලොන්නරැව
මින්නේරිය දේවාලයේ රජ හත් කටිටූව ඇතුඦ බෞද්ධ පෞරාණික වස්තු කොල්ලකෑමේ
සිද්ධීන් ගණනාවක් සම්බන්ධයෙන් සැකපිට අත්අඩංගුවට ගෙන සිටි පොලිස් කරාටෙි මාස්ටර්
කෙනෙකු නාවූල පොලිසියේදී තමා විසින්ම වෙඩි තබා ගැනීමෙන් බරපතල තුවාල ලබා 09 දා
මාතලේ මූලික රෝහලට ඇතුළත් කර ඇත.</p>

<p>තුවාලකරැ
පොලිස් "කරාටෙි මාස්ටර්" බවට හඳුනා ගෙන තිබේ. නාවූල මේල්පිටිය රජමහ
විහාරස්ථානයේ ඓතිහාසික පූස්කොල පොතක් අතුරැදන්වීමේ සිද්ධිය පිළිබඳව පරක්ෂණ
පැවැත්වීමේදී ඇන්ටික් රාජා නමැති අය අත්අඩංගුවට ගෙන ප්රශ්න කිරමේදී කරාටෙි
මාස්ටර් පිළිබඳව තොරතුරැ හෙළිවී තිබේ. ඒ අනූව නාවූල පොලිසිය විසින් අත්අඩංගුවට
ගත් සැකකරැ නාවූල පොලිසියේදී ග්රාමාරක්ෂක භටයෙකු අත තිබූ ගිනි අවියක් උදුරාගෙන
වෙඩි තබා ගෙන ඇතැයි වාර්තා වේ. ග්රාමාරක්ෂක භටයාගේ ගිනිඅවිය උදුරා ගත් සැකකරැ
පොලිස් ස්ථානාධිපතිවරයාගේ නිල නිවස අසලට දුවගොස් වෙඩි තබා ගෙන ඇති අතර එම
අවස්ථාවේදී රාජකාරියේ යෙදී සිටි පොලිස් නිලධාරන් ද අහසට වෙඩි තබා සැකකරැ
මෙල්ලකර ගැනීමට සමත්ව ඇතැයි උසස් පොලිස් නිලධාරියෙකු කීය.</p>

<p>ඇන්ටික්
රාජා සමග සැකකරැ සහ තවත් දෙදෙනකු දොරමඩලාව, කලු කැලේ, ඇලහැර, කොහොන් විහාරය,
තිබ්බමූල්ල ප්රදේශවල පන්සල් කඩා බූදු පිළිම, පූස්කොළ පොත්, දේව ප්රතිමා,
කොල්ලකෑම වැනි සිද්ධීන් 12 කට සම්බන්ධ බවට තොරතුරැ හෙළිකර ගැනීමට පොලිසිය සමත්ව
ඇත.</p>

<p>රැපියල්
කෝටි ගණනක පෞරාණික වටිනාකමක් ඇති බූදුපිළිම 04 ක් සහ ඓතිහාසික පූස්කොළ
පොත්වල කොටස් කීපයක්ද නාවූල පොලිසිය විසින් සැකකරැගෙන් ලැබූණූ තොරතුරැ අනූව
සොයා ගෙන තිබේ.</p>

<p>වැසිකිළි
වළක සඟවා තිබූ පෙටිටගමක කොටස්ද හමූව තිබේ. මෙම කොල්ලකරැවන් විසින් පැහැර ගන්නා
ලද රන්මූවා තාරාදේවි පිළිරැවක් සහ ලී බූදුපිළිම දෙකක් සොයා ගැනීම සඳහා ද දැන්
පූඦල් පරක්ෂණ ආරම්භකර ඇති බව පොලිසිය කියයි. "ඇන්ටික් රාජා",
"කරාටෙි මාස්්ටර්" සමග නිධන් කොල්ල කෑ තවත් සැකකරැවකු හිඟුරක්ගොඩ
පොලිසිය මගින් අත්අඩංගුවට ගෙන ඇත.</p>

<p>සිදධීන්
පිළිබඳව නියෝජ්ය පොලිස්පති (මධ්යම) මහින්ද බාලසූරිය මහතා, මාතලේ
ජ්යෙෂ්ඨ පොලිස් අධිකාරි බර්ටි ගොපල්ලව මහතාගේ උපදෙස් මත නාවූල පොලිස්
ස්ථානාධිපති පො. ප. සූදත් අස්මඩල මහතා සහ උ. පො. ප. කුමාරසිංහ මහතා පරක්ෂණ
පවත්වති.</p>

<p>ආණමඩූව විදුහල්පතිවරයෙක් ගුරැවරියකට පහර දෙයි </p>

<p>ආණමඩූව
කොටිඨාශ අධ්යාපන කාර්යාලයට අයත් පාසලක විදුහල්පතිවරයකු විසින් පසූගියදා සිය
විද්යාලයේ සේවය කරන ගුරැවරියකට පහරදී තිබේ.</p>

<p>පූද්ගලික
හේතුවක් මත ගුරැවරියට තමන් සිටින නේවාසිකාගාරයෙන් ඉවත් වන ලෙස ඉල්ලා ඇති අතර
මේ සම්බන්ධව කථා කිරම සඳහා විදුහල්පති කාර්යාලයට ගිය අවස්ථාවේ මෙම සිදුවීම
ඇතිවී තිබේ.</p>

<p>පහරකෑමට
ලක්වූ ගුරැවරිය මේ සම්බන්ධව ආණමඩූව පොලිසියට හා ආණමඩූව කොටිඨාශ අධ්යාපන කාර්යාලයට
පැමිණිලි කර ඇත.</p>

<p>රජය මගින් ලබාදුන් අති නවීන ප්රහාරක ගුවන් යානාවල සාර්ථක ප්රතිඵල දැන්
අපට පෙනෙන්නට තිබෙනවා </p>

<p> ගුවන්
හමූදාවේ ස්වර්ණ ජයන්ති උළෙලේ දී ජනාධිපතිනිය කියයි</p>

<p>අපේ රජය
විසින් ගුවන් හමූදාවට ලබා දුන් අති නවීන ප්රහාරක ගුවන් යානාවල සාර්ථක ප්රතිඵල අපට
පෙනෙන්නට තිබෙන බව ජනාධිපතිනි චන්ද්රිකා බණ්ඩාරනායක කුමාරතුංග මහත්මිය පැවැසූවාය.</p>

<p>අතීතයේදී
උත්සවවලට පමණක් සහභාගි වන හමූදාවක් ලෙස තිබී පසූව සටන් වදින හමූදාවක් බවට පත්වූ
ගුවන් හමූදාව මෙම සාර්ථක තත්ත්වය දිගටම පවත්වාගනූ ඇතැයි තමා විශ්වාස කරන බව ද
ජනාධිපතිනිය කීවාය.</p>

<p>ජනාධිපතිනි
කුමාරතුංග මහත්මිය එසේ කීවේ ශී්ර ලංකා ගුවන් හමූදාවට පනස් වසරක් පිරමේ ස්වර්ණ
ජයන්ති උළෙලේ ප්රධාන ආරාධිත අමූත්තිය ලෙස සහභාගි වෙමිනි.</p>

<p>සිකුරාදා
(09) උදේ රත්මලාන ගුවන් හමූදා කඳවූරේදී මෙම උළෙල අති උත්කර්ෂවත් සහ අභිමානවත්
අයූරින් පැවැත්විණි.</p>

<p>"රජය
විසින් ලබා දුන් ප්රහාරක යානා ඇතුඦ යූද උපකරණ භාවිත කරමින් ගුවන් හමූදාව ඉතා
සාර්ථකව සටනෙහි නිරතව සිටිනවා. එහි සාර්ථක ප්රතිඵල අපට පෙනෙන්නට තිබෙනවා. මමත්
රජයත් රටෙි ජනතාවත් ගුවන් හමූදාව පිළිබඳව ආඩම්බර වෙනවා. ත්රස්තවාදය තුරන් කිරම
සඳහා ගුවන් හමූදාව මේ අන්දමින් දිගටම සාර්ථකව කටයූතු කරන බව අපට විශ්වාස
යැයි"ද ජනාධිපතිනිය වැඩිදුරටත් පැවැසූවාය.</p>

<p>ගුවන්
මෙහෙයූම් අධ්යකෂ ගුවන් කොමදෝරැ ජේ. එල්. සී. සල්ගාදුගේ නායකත්වය යටතේ
දහසක් පමණ ගුවන් හමූදා නිලධාරින් සහ භටයන් විසින් ජනාධිපති උත්තමාචාරය පූදා
පැවැත්වූ සරඹ පෙළපාලිය අතරේ ජනාධිපතිනිය විසින් ගුවන් හමූදා ඒකක දෙකකට වර්ණ
ප්රදානය කරන ලදී. කටූනායක ගුවන් හමූදා කඳවූර සහ අනූරාධපූර පළමූවැනි පියසර පූහූණූ
පකෂාංගය මෙම ජනාධිපති වර්ණ හිමිකර ගත්හ.</p>

<p>ගුවන්
හමූදා 50 වැනි ස්වර්ණ ජයන්ති පදක්කම් පිරිනැමීම ද ජනාධිපතිනිය අතින් සිදු වූ අතර
ගුවන් හමූදාපති එයාර් මාර්ෂල් ජයලත් වීරක්කොඩි, මාණ්ඩලික ප්රධානි එයාර් වයිස්
මාර්ෂල් ඩොනල්ඩ් පෙරේරා, ගුවන් කොමදෝරැ ලකෂමන් සල්ගාදු, ගෲප් කපිතාන් අසෝක
සමරබන්දු ඇතුඦ ජ්යෙෂ්ඨ සහ කනිෂ්ඨ නිලධාරිහූ රැසක් මෙහිදී මෙම පදක්කම හිමිකර
ගත්හ.</p>

<p>මින් පෙර
පැවැති යූද සහ නාවික හමූදා ස්වර්ණ ජයන්ති උත්සවවලට වඩා උත්කර්ෂවත්, මෙන්ම
අභිමානවත් මෙන්ම මනා සංවිධානාත්මක අයූරින් පැවැති මෙම ගුවන් හමූදා ස්වර්ණ ජයන්ති
උත්සවය ආරම්භයේ සිට අවසානය දක්වා පූරා පැය 4 කට ආසන්න කාලයක් ජනාධිපතිනිය මහත්
උද්යෝගයකින් යූතුව රැඳී සිටීම විශේෂත්වයකි.</p>

<p>ශ්රී ලංකා
ගුවන් හමූදාවේ සහ ඉන්දීය ගුවන් හමූදාවේ නියමූවෝ සහ පැරෂූටි භටයන් ඉදිරිපත් කළ
දර්ශනීය ගුවන් සංදර්ශන මහත් උනන්දුවකින් යූතුව නැරඹූ ජනාධිපතිනිය ශී්ර ලංකා ගුවන්
හමූදා ප්රහාරක යානා නියමූවන්ගේ ගුවන් කරණම් පිළිබඳව ගුවන් හමූදාපතිවරයාගෙන් විමසා සිටියාය.</p>

<p>එම ගුවන්
සංදර්ශනවලින් අනතුරැව ගුවන් හමූදා ස්වර්ණ ජයන්තිය සැමරමේ මූද්දරයක් නිකුත් කරනූ
ලැබීය. 3.50 ක් වටිනා එම මූද්දරය සහිත මූල් දින මූද්දර කවරය තැපැල් හා විදුලි
සංදේශ ඇමැති නිමල් සිරිපාල ද සිල්වා මහතා විසින් ජනාධිපතිනි කුමාරතුංග මහත්මිය
වෙත පිළිගැන්වීය. ගුවන් හමූදා ස්වර්ණ ජයන්ති රැපියලේ කාසිය නිකුත් කිරම මහ බැංකු
අධිපති ඒ. එස්. ජයවර්ධන මහතා අතින් සිදු විය.</p>

<p>ඉන්
අනතුරැව ජනාධිපතිනිය විසින් ගුවන් හමූදා ප්රදර්ශනය සහ සැනකෙළිය විවෘත කළාය.</p>

<p>මෙම
ප්රදර්ශනය සහ සැනකෙළිය මෙම මස 13 දා වන තෙක් ප. ව. 2.00 සිට රාත්රි 11.00 දක්වා
පැවැත්වේ.</p>

<p>ආරකෂක
නියෝජ්ය ඇමැති ජනරාල් අනූරැද්ධ රත්වත්ත, ආරකෂක ලේකම් චන්ද්රානන්ද සිල්වා,
ජනාධිපති ලේකම් කේ. බාලපටබැඳි, ඒකාබද්ධ මෙහෙයූම් ආඥාපති ජනරාල් රොහාන්
දඦවත්ත, යූද හමූදාපති ලුතිනන් ජනරාල් ලයනල් බලගල්ල, නාවික හමූදාපති වයිස් අද්මිරාල්
දයා සඳගිරි සහ පොලිස්පති ලකී කොඩිතුවක්කු ඇතුඦ විශාල පිරිසක් මෙම අවස්ථාවට
සහභාගි වූහ.</p>

<p>ශී්ර. ල. නි. ප. මහ සමූඦවට මගීන් රැගෙන ගිය ජනතා සන්තකයකට බෝගසක්
කඩා වැටෙි </p>

<p> කොළඹ
පැවැති ශී්ර ලංකා නිදහස් පකෂ සම්මේලනයට සහභාගි වීම සඳහා මගීන් රැගෙන යමින් තිබූ
ජනතා සන්තක මගී බස් රථයකට කොළඹ - කුරැණෑගල මාගර්යේ මැද්දලන්ද ප්රදේශයේදී
බෝගසක් කඩාවැටීමෙන් එහි ගමන්ගත් තිදෙනකු බරපතල තුවාල ලබා රෝහල්ගත කර ඇත.</p>

<p>මෙම
අනතුරින් බස් රථයටද විශාල වශයෙන් අලාභ හානි සිදුවී ඇත.</p>

<p>මේ අතර
අනතුර හේතුවෙන් මාර්ගයේ ඇතිවූ වාහන තදබදය නිසා මාගර්යේ නවතා තිබූ ජනතා සන්තක
මගී බස් රථයක පොලිස් දෙපාර්තමේන්තුවට අයත් පොලිස් නිලධාරන් රැගත් බස් රථයක්
ගැටීමෙන් එහි ගමන්ගත් දෙදෙනකුද බරපතල තුවාල ලබා කුරැණෑගල හා පොල්ගහවෙල රෝහල්වලට
ඇතුළත් කර ඇත.</p>

<p>පොල්ගහවෙල
පොලිසියේ ස්ථානාධිපති පො. ප. නූර්දීන් මහතාගේ උපදෙස් මත පොලිස් රථවාහන අංශය
වැඩිදුර පරකෂණ පවත්වයි.</p>

<p>"අම්මත් මරලා මාත් මැරෙන්න තීරණය කළා" </p>

<p>කිහිලිකරැ
වාරැවෙන් ඉහළට නැග පස්දරැ පියා ගෙල වැලලා ගනී</p>

<p>රෝගී
බිරිඳට සත්කාර කිරමට නොහැකිව සිත් තැවූලෙන් කල් ගෙවූ පාදයක් අහිමි පියකු නිවසේදී
ගෙල වැළලා ගෙන සියදිවි හානිකර ගෙන ඇත.</p>

<p>වැඩිමල්
දරැවන් නිවසින් දුරස්ව ජීවත්වීම නිසා දූ දරැවන්ගේ සැලකිළි නොලැබීමද සියදිවි
හානියට හේතුවී ඇතැයි පැවසේ.</p>

<p>මාතලේ
උඩසිය උතුර හසිදි මරණ පරකෂක ජී. ජී. ගුණදාස මහතා හමූවේ පැවැති හේවූඩ් ජනපදයේ
පදිංචි 73 හැවිරිදි අයකුගේ මරණය පිළිබඳ පරකෂණයේදී මෙම තොරතුරැ අනාවරණය කෙරැණි.</p>

<p>"පූතේ
අම්ම දුක් විඳිනවා බලාගෙන ඉන්න මට බැහැ. අම්මත් මරලා මාත් මැරෙන්න තීරණය කළා. ඒත්
අම්ම මරන්න කියලා ළඟට යන සෑම මොහොතකම මට දුක හිතෙනවා" මෙවැනි ලිපියක්
දරැවන්ට ලියා තබා ගෙල වැළලාගෙන ඇති බව මරණ පරකෂණයේදී හෙළි විය.</p>

<p>රෝගයට
ගොදුරැව පාදයක් අහිමිව සිටි මිය ගිය අය කිහිලිකරැ වාරැවෙන් උඩට නැග ගෙල වැළලා
ගැනීම සිදුකර ගෙන තිබේ.</p>

<p>සිරැර
අප්රාණිකව රෝගීව සිටි බිරිඳ රැකබලා ගැනීමට නොහැකිවීම සිත් තැවූලට හේතුවී ඇති
බව සාකෂි වලින් අනාවරණය විය.</p>

<p>මරණය
සිත් තැවූලක් නිසා ගෙල වැළලා ගැනීමෙන් සිදුකර ගත් සියදිවි හානියක් බවට තීන්දු කරන
ලද හදිසි මරණ පරකෂක ගුණදාස මහතා දරැවන් සහ රැස්ව සිටි අය අමතා මෙසේ ප්රකාශ කළේය.</p>

<p>"බොහෝ
දරැවන් බත් පිඟානක් දීලා දෙමවූපියන්ට සක්විති සැප ලබා දුන්න කියල හිතනවා. දරැ
සෙනෙහස අවශ්ය බව දන්නේ නැහැ. දූ දරැවන් වෙනූවෙන් දහඩිය කඳුඦ හෙලූ මවූපියන්
කණගාටූවට කරැණක්."</p>

<p>මාතලේ මූලස්ථාන
පොලිසියේ හෙටිටිආරච්චි මහතා සාකෂි මෙහෙයවීය.</p>

<p>මන්නාරම සංවර්ධනයට රජයෙන් රැ. මිලියන 365.8 ක් </p>

<p>මන්නාරම
දිස්ත්රික්කයේ සංවර්ධන කටයූතු වෙනූවෙන් රජය 1996 වර්ෂයේ සිට රැපියල් මිලියන 365.8
ක් වැයකොට ඇතැයි මන්නාරම දිසාපති වී. විශ්වලිංගම් මහතා පැවැසීය.</p>

<p>අනාථයන්
පිළිබඳ වූ එක්සත් ජාතීන්ගේ මහකොමසාරිස් කාර්යාලය විසින් මෙම මූදල රජය වෙත ලබා දී
ඇති අතර මේ වසරේ මන්නාරමේ සංවර්ධන කටයූතු වෙනූවෙන් රජය රැපියල් මිලියන 157 ක්
වෙන්කොට තිබේ. පූනරැත්ථාපන සංවර්ධන අධිකාරියේ ද සහය ඇතිව මන්නාරමේ කෙරෙන
සංවර්ධන කටයූතුවලදී යූද්ධය හේතුවෙන් විපතට පත් පූද්ගලයන් නැවත පදිංචි කිරම සඳහා
මූල් තැන ලබා දෙන බව ද දිසාපතිවරයා පැවැසීය.</p>

<p>නොකළ වරදකට   පොලිසියේ පරිප්පූ කෑ සමීර </p>

<p>"තෝනේ
සිරිමෙවන්ට උදව් කරන්නේ යමන්කෝ ස්ටෑන්ඩ් එකට... තොට ගහන්නේ බලාගෙන ඉන්න
එවූන්ට උණ ගන්න"</p>

<p>පොලිස් ප්රහාරයට
ලක්ව කුලියාපිටිය රෝහලේ ප්රතිකාර ලබන සමීර වික්රමනායක ශිෂ්යයා</p>

<p>දඬූවම්
පැමිණවිය යූත්තේ වැරදිකරැවන්ටය. වැරදිකරැවන් විය යූත්තේ උසාවිය මගින්ය. එහෙත්
පොලිසිය වධකයින් ලෙස කටයූතු කරන්නේ නම් රටෙි නිරායූධ අසරණ ජනතාවට කාගේ පිහිටක්
වේද?</p>

<p>පොලිසියේ
නිලධාරන් යයි කියපූ දෙදෙනෙක් පසූගිය 26 වැනි දින ම්ලේච්ඡ ලෙස ළාබාල තරැණයකුට පහර
දුන්හ. මෙම ම්ලේච්ඡ ප්රහාරයට ලක් වූයේ හොරතෑපොල පදිංචි 16 හැවිරිදි වික්රමනායක
පතිරන් නැහැලාගේ සමීර වික්රමනායකය. ඕහූ කුලියාපිටිය සාරානාත් මහ විදුහලේ 11 වසර
ඉගෙනූම ලබන්නෙකි.</p>

<p>සිරිමෙවන්
ඕහූගේ මිතුරෙකි. පසූගිය 26 වැනි දින පෙරවරැවේ පූද්ගලික පංතියකට ආ ගමන් ඕහූ
සිරිමෙවන්ගේ නිවසට ගියේය.</p>

<p>සිරිමෙවන්ගේ
ප්රේම සම්බන්ධයක් පැවතුණි. එහෙත් පසූගිය දිනක එම පෙම්වතිය වෙනත් අයකු සමග මිත්ර වී
ඇත. මෙයින් උපන් කේන්තිය නිසා සිරිමෙවන් බසයක් තුළදී පෙම්වතියට පහර දී තිබේ.
මෙම සිදුවීම සමීර දෑන සිටියේය. කුලියාපිටිය පොලිසියට පෙම්වතිය කළ පැමිණිල්ලක්
අනූව පොලිසිය සිරිමෙවන් සොයමින් සිටියේය.</p>

<p>එදින
පොලිසියේ යැයි කියන පිරිස සිරිමෙවන්ගේ නිවසට කඩාපැන්නේ සමීර එහි සිටින විටය.
පොලිසිය එනූ දුටූ සිරිමෙවන් පැන දුවන්නට විය. කලබල වූණූ සමීරද ගේ පිටූපසට පැන
දිව්වේය. එහෙත් මගක් ගිය ඕහූ නැවතුණේය. කාකි කලිසමක් හැඳ ලා නිල් කමිසයක් දමාගෙන
සිටි පොලිස් නිලධාරියා ඕහූව අල්ලා ගත්තේය. එවිටම නිල ඇඳුමෙන් සිටි පොලිස්
නිලධාරියා ද සමීර වෙතට කඩා පැන්නේය. නිල් කමිසය හැඳ සිටින තැනැත්තා අත තිබූ දිගු
බටයක් වැනි තද දණ්ඩකින් ඕහූගේ පිටට දිගටම පහර දෙන්නට විය. නිල ඇඳුමෙන් සිටි
පොලිස් නිලධාරියා අතින් ඕහූගේ මූහූණටත් පපූවටත් පහර දෙන්නට විය. පිට පූපූරා ලේ
පැන්නේය. නාස් දණ්ඩ බිඳී නාසයෙන් ලේ වැක්කෙරෙන්නට විය. බිම වැටූණූ සමීරව ඇදගෙනවිත්
ජීප් රිය තුළට දෑම්මෝය. ජීප් රියේ රියැදුරාත් අලුත් පෙම්වතාගේ අයියා වන සංජයත්
සිටියෝය. ජීප් රියේ එන විට ද ඕහූට පහර දුන්නෝය. ලා නිල් කමිසය හැඳගත්
නිලධාරියා මෙසේ කීවේය.</p>

<p>"තෝනෙ
සිරිමෙවන්ට උදව් කරන්නෙ. යමන්කො ස්ටෑන්ඩ් එකට. තොට ගහන්නෙ බලාගෙන ඉන්න එවූන්ට උණ
ගැනෙන්ඩ."</p>

<p>ජීප් රිය
බස් නැවතුමට ඇතුල් වෙන තැන නතර විය. ජිප් රියෙන් බිමට ඇදගත් සමීරට දිගටම පහර
දෙමින් බස් නැවතුම මැදට ඇදගෙනවිත් තිබේ.</p>

<p>මෙම
පහරදීම දෙස බස් නැවතුමේ සිටි දෙනෝදාහක් ජනයා බලා සිටියෝය. ඒ අතර සමීරගේ
අයියා වන චමින්ද ප්රදීප් වික්රමනායක ද සිටියේය. ඕහූ එම පහරදීම ගැන කුලියාපිටිය
රෝහලේදී මෙසේ කීවේය.</p>

<p>"මල්ලිට
ගහන්ඩ එපා" කියල මම ඉස්සරහට ආවා. තෝ පල යන්ඩ. තොටත් දෙනවා" කියල ඒ
අය මට තර්ජනය කළා. මං දෑක්කා මල්ලී නිල ඇඳුමෙන් හිටිය කෙනාගෙ අතේ එල්ලුණා අයියට
ගහන්ඩ එපා කියල. බස් නැවතුමේ ආරකෂක පිරිසක් ඇවිත් කිව්වා ගහන්ඩ එපා කියලා. ඒත්
ඇහැව්වෙ නෑ. කිරින්දව බස් නවත්තන තැනට ජීප් එක ආවා. මල්ලිව එතැනින් ජීප් එකට
දාගෙන බස් නැවතුම වටෙි රවූම් දෙකක් කැරකිලා යන්ඩ ගියා.</p>

<p>කුලියාපිටිය
රෝහලේදී සමීර වික්රමනායක අපට මෙසේ කීවේය. මාව පොලිසියට ගෙනිච්චා. සූඦ
පැමිණිලි අංශයේ කාමරය වෙන්න ඇති. මාව ඒකට ගෙනිච්චා. ලා නිල් කමිසය ඇඳල හිටිය
කෙනා මගෙන් ඇහැව්වා උඹ කුඩූ ගහනවද කියලා. මම නැහැයි කිව්වා. කලිසමේ තිබූණූ එයාගෙ
පර්ස් එක එළියට අරන් ඒකෙ ඇතුළෙ තිබූණූ කුඩූ පැකටි එකක් මට පෙන්නූවා මේවා දෑකල
තියෙනවද කියල. මම නැහැයි කිව්වා. හැන්දෑවේ 6.30 ට විතර මාව එළියට දෑම්මා. ඊට
කලින් සංජයට ගහන්ඩ ගියා කියල මට අත්සන් කරන්ඩ කිව්වා. මං බයට අත්සන් කළා.
පොලිසියට බයේ මං දවසක් ගෙදර හිටියා. මගෙ ඇස් ඉදිමිලා පිට පූපූරල අත පය තැලිලා
වේදනාව වැඩිකමට කුලියාපිටිය ඉස්පිරිතාලෙට 1 වැනිදා මම ඇතුල් වූණා.</p>

<p>මිනිස්සූන්ට
පහර දීමට බලයක් පොලිසියට නැත. මෙවන් ම්ලේච්ඡ පහරදීම් සිදු වනූයේ විවිධ හේතූන්
මතය. මේ සම්බන්ධව ජනතාවගේ විරෝධය පා පෙත්සමක් පොලිස්ප තිවරයාට ඉදිරිපත් කිරමට
කටයූතු කෙරෙමින් පවතී.</p>

<p>මොරවක් කෝරලයම හැඬවූ එක්දරැ පියාගේ ඛේදවාචකය </p>

<p>මැර
දේශපාලනය තවත් අහිංසකයකු බිලිගනී</p>

<p>
 
 
  
  
  
  
  
  
  
  
  
  
  
  
 
 
 

 
<gap desc="illustration"></gap></p>

<p>සරත්
විවාහ වූදා</p>

<p>පූර අටවක
පොහෝදා පායපූ පූර හඳ තවමත් වියැකිලා නැහැ.</p>

<p>ගම්මානය
පූරා සඳ රැස් පැතිරිලා, එක සීරැවට. </p>

<p>සංදර්ශන
භූමියත් ඒ සඳරැසින් එළිය වැටිලා. සඳ එළිය අතරින් ගලා එන සංදර්ශන භූමියේ සංගීත
නාදය සීතල සූළං රැළි එක්ක අපූරැවට මූහූවෙලා.</p>

<p>සරත්ගේ
අවසන් කෙඳිරිලිහඬ සංගීත නාදයට යටපත් වෙලා ගියේ කාටත් හොර රහසේ.</p>

<p>දේශපාලකයන්ගේ
ලේ තවැරනූ හස්තයේ රැකවරණයෙන් තවත් අහිංසක ජීවිතයක් බිලිගත් ඒ කඳුඦ කතාවයි මේ.</p>

<p>ඕහූ
ඊදඬූකිත නැගෙන පාර පදිංචිව සිටි එම්. කේ. ජී. සරත් නොහොත් චූටි මහත්තයා නමැති
35 වියැති එක් දරැ පියෙකි.</p>

<p>"අක්කේ
මම ඉඩමට යනව අද වැඩකරන අයට සල්ලි දෙන්නත් ඔන හෙට පොළනේ.." මූදල් ටිකකුත්
අතට ගත් ඕහූ සූරතල් දියණියගේ මූහූණද සිඹීමට අමතක නොකළේ සූපූරැදු පරිදිමය.</p>

<p>ඈත
නොපෙනී යන තුරැම දෑතින්ම "ට... ටා..." කියන දුව දෙස පසූ පස හැරි හැර
ඕහූද විටින් විට සූරතල් දුවට ආචාර කළේ වෙනදා පූරැද්දටමය. එහෙත් ඒ තම පියාගේ
අවසන් ආචාරය බව පියා මෙන්ම ඒ අහිංසක දියණියද නොදැන සිටියාය.</p>

<p>පසූගියදා
කුරිරැ වෙස්ගත් රැදුරැ මිනිසූන් විසින් ආයූධ හා පොලුවලින් පහරදී දරැණූ ලෙස ඝාතනය
කරනූ ලැබූ එක් දරැ පියකුගේ මරණය පිළිබඳව නෙඦව ප්රදේශය පූරා පමණක් නොව මූඦ
මොරවක් කෝරළයම තවමත් හඬා වැළපේ.</p>

<p>ඕහූ
පදිංචිව සිටි ඉතා දුෂ්කර ගම්මානයක් වූ ඊදඬූකිත නිවසට අප යන විට දේහය ඕහූගේ
මවූපියන්ගේ නිවහනට රැගෙන ගොස් තිබිණි.</p>

<p>මියගිය
සරත්ගේ මාමා වන එම්. වී. ඇඩ්වින් මහතා (75) අප වෙත මෙසේ පැවසූවේය.</p>

<p>අපි
සරත්ට සැලකුවේ බෑන කෙනකුට විදිහට නෙමෙයි දරැවකු විදියටයි. එයත් අපේ ගෙදර අයට
සැලකුවේ එයාගේම පවූලේ උදවියට වගේ. සරත්ට දීල ඉන්නෙ මගේ තෙවන දුව. එම්. වී.
ලලිතා (35). එයාට දුවකුත් ඉන්නව සඳුනි ලහිරැකා (3). මේ දරැවගෙ මනූස්කම නිසා මම
ගේ දීලා නවත්ත ගත්තා. මෙහේ පදිංචියට ඇවිත් අවූරැදු තුනක් වූණා විතරයි.</p>

<p>සරත්ගේ
ලොකු නෑනා වන එම්. වී. සිරියාවතී - "චූටි මහත්තයා බැන්දෙ මගේ නංගී. ඕහූ
අපිට සහෝදරයෙක් වගේ හිටියේ. කිසිම වෙනසක් අප අතරෙ තිබූණෙ නැහැ. 2 වැනිදා රාත්රි
සංදර්ශන භූමියෙන් දෙන්නෙක් ඇවිත් මට කිව්ව අන්න චූටි මහත්තයට කටිටියක් පහර දීල
හෝල් එකක් ඇතුලෙ වැටිල ඉන්නව කියලා. ඒ සැනෙන්ම මම නංගී (එයාගෙ බිරිඳ) අඬගහගෙන
බලන්න ගියත් අප එහි යන විට එයා අවසන් හූස්මත් හෙලල අවසන් කරල ඉද්දර පාමූල පහන්ද
දල්වල තිබූණා. මේ මරණයට සරත්ගෙ වරදක් නොතිබූණත් කුමන්ත්රණකාරි වැඩපිළිවෙළක් එතන
කරල තිබූණා. </p>

<p>මියගිය
සරත්ගේ දේහය තැන්පත් කර තිබූණූ කඦබෝවිටියන නිවසට අප යන විට පහූවදා අලුයම </p>

<p>7.30 ට
පමණ වී තිබිණි.</p>

<p>එහි සිටි
අප දුටූ තරැණ පිරිස. සැකයකින් යූතුව අප පිළිබඳව සෝදිසි කරන්නට වූහ.</p>

<p>ඕවූන්
සරත්ගේම සොහොයූරන් බව දැන ගත් පසූ අප පැමිණි කාරණයද ඕවූන්ට කීමෙන් අනතුරැව
ඕවූන් අපට අවැසි විස්තර ලබා ගැනීමට සහය විණි.</p>

<p>මේ
මියගිය මල්ලී කිසිම කෙනකුට වරදක් කරල නැහැ. එයා හරිම අහිංසකයි. </p>

<p>මල්ලීගේ
මරණය සිදුකරපූ කෙනා මල්ලී මියගියාට පස්සෙ කියල තියෙනව මමයි චූටියව මැරැවෙ මම අසවල්
දේශපාලනඥයගේ මිනිහෙක්. උඹල ඔන එකක් කරපන් කියල. අපි කියන්නෙ මේ වගේ මිනිස්
ඝාතනවල අපරාධකරැවන්ට නිදැල්ලේ ඉන්න උදව් නොකර නීතියට හසූකර දෙන්න කියලා.</p>

<p>මිල්ලව
ප්රදේශයේ පාතාල කණ්ඩායමක් ඉන්නව කියල අපට කලිනූත් දැන ගන්න ලැබූණා. මේ වගේ මරණ
පසූ ගිය ටිකට කොපමණ කළාද? ඒත් උන් බේරිලා සතියෙන් එනවා" යැයිද සරත්ගේ
සොහොයූරන් "දිවයින"ට කියා සිටියේ ඉතා දුක්මූසූවය.</p>

<p>මෙම මරණය
ගැන සැකපිට දැනට එක අයකු අත්අඩංගුවට ගෙන රක්ෂිත බන්ධනාගාර ගතකර ඇති අතර තවත්
සැකකරැවන් අත්අඩංගුවට ගැනීම සඳහා පරක්ෂණ කටයූතු ආරම්භකර ඇතැයි නෙඦව පොලිසිය
පවසයි.</p>

<p>ගැටූමේදී
සරත්ව බේරා ගැනීමට ගිය කඦබෝවිටියන පොඩිරාළහාමි නමැත්තකුද තුවාල ලබා කරාපිටිය රෝහලේ
නේවාසිකව ප්රතිකාර ලබයි. සරත්ගේ මරණය පිළිබඳ පශ්චාත් මරණ පරක්ෂණය පැවැත් වූ
බද්දේගම උඩූගම කොටිඨාශයේ වැඩබලන මහෙස්ත්රාත් වීරසිරි ඩයස් මහතා විසින් සැකකරැවන්
අත්අඩංගුවට ගෙන අධිකරණය හමූවට ඉදිරිපත් කරන ලෙස පොලිසියට නියෝග කර ඇති අතර මේ
සඳහා නෙඦව පොලිස් ස්ථානාධිපති පො. පරක්ෂක ගාමිණී අල්විස්, උ. පො. ප. ඩී. ජී.
පනාවල යන මහත්වරැ පරක්ෂණ මෙහෙයවති.</p>

<p>මගමරැවාට බිළිවූ තවත් පූංචි කැකුළක් </p>

<p>පොලිසිය
සජිත්ගේ සිරැරේ මස්කැබලි එකතු කළේ කකුලෙන්...</p>

<p>මග
මරැවා සජිත් යටකර මරා දැම්මේ මල් කැකුළක් චප්ප කරනව වගේ...</p>

<p>ගාල්ලෙ
අලුත් පාරෙ, සපූමල් පෙදෙසෙ, ගොඩේගෙදර වත්තෙ පදිංචි ඇම්. ජී. චන්ද්රා හේමපාලත්,
කේ. එස්. සමන්ති ප්රියදර්ශනිත් අතිනත් ගත්තෙ අදින් අවූරැදු දහයකට කලින් අවූරැදු
දෙකකට පසූව චන්ද්රාටත් සමන්තිටත් කුඦදුලේ උපන්නෙ පිරිමි දරැවෙක්. මේ කොඦ පැංචට
සජිත් දේශාන් කියල නම තැබූවෙ සමන්තිගෙම කැමැත්තට. එයා උපන්නෙ 1993 ජූනි 10
වැනිදා.</p>

<p>පූංචි
සජිත් හරිම හූරතල් කොඦ පැංචෙක්. දකින දකින කවූරැත් ආදරෙන් වඩාගෙන හූරතල් කරනවා.
හරිම අහිංසක දෑසක්, ඒ වගේම අපූරැ හූරතල් සිනහවකුත් නිතරම එයාගෙ මූවේ රැඳිල.</p>

<p>අහළ පහළ
අයියල සූදු කමිස ඇඳන් නිල් පාට කලිසන් ඇඳන් ඉස්කෝලෙ යන විට සජිත් ආශාවෙන්
ඕවූන් දිහා බලා ඉන්නව. යාන්තම් අවූරැදු තුන පිරෙන විට සජිත් "අ" යනූ
"ආ" යනූ කීව.</p>

<p>සජිත්
ඉස්කෝලෙ ගමන ඇරඹූවෙ අහළ පහළ අයියල ගිය රිච්මන්ඩ් විද්යාලයට නොවෙයි. </p>

<p>සජිත්ලගෙ
ගෙදරට රිච්මන්ඩ් විද්යාලයේ සීනූව "ටාං ටාං" හඬින් නාද කරනකොට කන
ළඟම වගෙයි ඇහෙන්නෙ. ඒ ඉස්කෝ්ලෙ අයියල කෑගහන හඬත් පූංචි සජිත්ට ඇහෙනව.</p>

<p>සජිත්
තාත්තත් එක්කල රිච්මන්ඩ් විද්යාලයේ "හෝඩියේ" පන්තියට යන්න
රිච්මන්ඩ් කන්ද නැග්ග. ඒත් කඳු මූදුනෙ හිටිය විදුහල්පති ඇතුඦ සම්මූඛ පරකෂණ මාමල
පූංචි සජිත්ට කන්ද නගින්න ඉඩ දුන්නේ නෑ. පා පහර ගහල පල්ලෙහට දැම්ම. ඊට පස්සේ
චන්ද්රා හේමපාල තමන්ගෙ පූතාට විදුහලින් සිදුවූ අසාධාරණය ගැන කියන්න අභියාචනා
මණ්ඩලයටත් ගියා. ඒත් ඒ අයත්... කළේ රිච්මන්ඩ් කන්ද පාමූල හිට ඉස්කෝලෙ දිහා
බලා හිටින මේ අහිංසක කිරි සප්පයට රිච්මන්ඩ් ගේටිටූව වසා දැමීමයි. </p>

<p>පූංචි
සජිත්ලගෙ ගෙදර ළඟ හිට සෘජූව බලන විට ඉස්කෝලෙවත්තෙ වැටී ඇති නේකාකාරයේ
ගස්වැල්වල කොළ හූළඟට වැනෙන හැටි මේ හූරතලා බලන්හිටියේ ඒ ගමේ අහළ පහළ
අයියලා... මල්ලිල.. හරි අපූරැවට "රිච්මන්ඩ් පොඩ්ඩෝ" වී යන ගමන දිහා.</p>

<p>කෝමහරි
අන්තිමට තමන්ගෙ ගේ ළඟ ඉස්කෝලෙට යාගන්න වරම් නොමැතිවූණූ සජිත් පැංචා ගාල්ල
නගරයෙ 6 වැනි නාවික කොටූ පවූර තුළ පිහිටි ඔල්සෙන්ටිස් විද්යාලයට අකුරැ කරන්න
ගියා. එයාලගෙ ගෙදර හිට ඕල්සෙන්ටි විද්යාලයට කිලෝමීටර තුනහමාරකටත් වැඩියි.</p>

<p>දේශාන්
ඉස්කෝලෙ ගියේ ආවෙ තාත්තත් එක්ක. තාත්ත චන්ද්ර හේමපාල. රස්සාව කළේ කෝන්ගහ
හන්දියේ වැඩපලක. එයාගෙ රැකියාව වෑල්ඩින් වැඩ. හේමපාල පූතත් එක්ක ඉස්කෝලෙ යන්න
ගෙයින් එළියට බහින්නෙ උදේ හතහමාරට. ඒක එයාගෙ පූරැද්ද.</p>

<p>පූතා
බයිසිකලේ තබාගෙන හෙමි හෙමිහිට බොහොම පරිස්සමෙන් චන්ද්රා පාපැදිය පදිනව. පූතාව
"පාසල් සේවා" වෑන් රියකට භාරදෙන්න පූඦවන්කම තිබූණත් එහෙම නොකළේ වැඩි
පරිස්සමට. හැමදාම උදේට පාපැදියෙන් දරැවාව අරන් ඉස්කෝලට යන චන්ද්රා ඉස්කෝලෙ
ඇරෙන්න කලින් ගිහින් ගේටිටූව ළඟ ඉන්නව.</p>

<p>පෙරේදත්
වෙනද වගේම චන්ද්රා, සජිත් පූතාව පාපැදියේ තියන් ඉස්කෝලෙ යන්න පිටත් වූණේ උදේ
හතයි තිහට. ගේ ළඟ තියෙන පල්ලම බැහැල, සපූමල් පෙදෙස දිගේ විත් වමට හැර අලුත් පාරට
වැටිල එතැනින් වක්වැල්ල - ගාල්ල පාරදිගේ ටවූමට ආවා.</p>

<p>පූරැදු
විදියටම චන්ද්ර ගාල්ල පොලිසිය ළඟින් ආපහූ වමට හරවල මාතර පාරට පිළිපන්නෙ වටරවූමෙන්
දකුණට හැර ඉස්කෝලෙ දිහාට බයිසිකලේ පදවන්න.</p>

<p>ඔන්න ඕය
අතරෙ තමයි පූංචි සජිත්ගෙ මාරයා දත් විළිස්සමින් එයා දිහා බලා හිට පසූපසින් ආවෙ.
සජිත් පූතාගෙ මාරයා මඟ මරැවෙක්. පෞද්ගලික බස් කාරයෙක්. ගාල්ල බස් නැවතුම්පොළේ
හැංගි හිටි මේ මග මරැව කරාපිටිය බස් එකේ නැගල පූංචි සජිතුයි එයාගෙ තාත්තයි
පස්සෙන් ආවෙ බස් රේස් එකක යන්නද කොහෙද?</p>

<p>දැන්
සජිතුයි තාත්තයි ගාල්ල පොලිසිය ඉස්සරහ මාතර පාරෙ... සජිත් ඩැහැගන්න මාන බලමින්
කාලයක් තිස්සෙම දත් විලිස්සාගෙන උන්නූ ඒ මග මරැව චන්ද්රා පැද්ද බයිසිකලේ පස්ස
රෝදෙ හැප්පූවෙ සජිත්ව බිම දාන්නම. චන්ද්රා පොලිසිය පැත්තට වැටෙත්දී පූංචි සජිත්
ඉස්සරහටයි වැටූණෙ. ඒත් එක්කම "මගෙ තාත්තෙ" කියාගෙන අහිංසක කොඦ පැංච
නැගිටිට. ඒත්.. අර මගමරැව නතර වූණේ නෑ. ඉස්සරහට ගියේ සජිත්ව උගේ තුරැළට
ගන්නයි. දෙවි හාමූදුරැවනේ.. පූංචි සජිත්ගෙ ඕඦව.. අම්බලන්වත්ත හරහා කරාපිටියට දුවන
මාරයා කෝටියක්, කෝටි ප්රකෝටියක් වටිනා පූංචි සජිත්ගෙ හිස උගේ පස්ස රෝදෙට
චප්ප කළා.</p>

<p>මගේ
බූදු පූතේ කියාගෙන චන්ද්රා බෝම අමාරැවෙන් බඩගාගෙන එතැනින් මෑත් වී බැලුවා.
පූතා.. චන්ද්රාගෙන් සමන්තිගෙන් ආදරබර පූතා.. සපූමල් පෙදෙසේ හූරතලා.. පාර මැද..
අනේ දෙවියනේ.. ඒ අහිංසක පැටියගෙ මොළේ කෑළි කෑළි විසිරිල..</p>

<p>කරාපිටියට
යන්න පිටත්වූණූ ඒ මග මරැවා සජිත්ව යටකරල මරල දැම්මෙ හරියට සූවඳ හමන පූංචි මල්
කැකුළක් චප්ප කර දැම්ම වගේ..</p>

<p>ඒ
වෙලාවෙ පාරෙ යමින් එමින් සිටි මිනිසූන් කෑගැහූවා. බස් එකතුළ හිටිය මගීන් කෑගැහූවා.
අර නරැමයාට කිසිම ගාණක් නෑ. මිනිසූන්ට කේන්තියි. ඕවූන් අතට අහූවෙන අහූවෙන දෙයින්
දමල ගැහූව.</p>

<p>සජිත්
නිහඬව වැතිර සිටින පාර ළඟම පොලිසියේ මහත්තුරැ අප්රමාදව එතැනට ආවා. සජිත්ගෙ මග
මරැව අල්ලගත්ත.</p>

<p>"මොකද...
යාපනේට යන්න ඔනෑද?"</p>

<p>සජිත්ව
චප්ප කරල දාපූ මේ නරැමය කාගේදෝ ලොකු හයියක් අරන් පොලිස් මහත්වරැන්ටත් පාටි
එක දැම්ම. ඒ උගේ ලොකුකම.."</p>

<p>විනාඩියක්
දෙකක් ගියේ නෑ. එතැනට සජිත්ගෙ ලොකු අයියල දුවල ආවා. ඒ අයියලට හරිම කේන්තියි.
පූංචි සජිත් පාර මැද.. එයාගෙ පොඩි පටිටම් වූණූ හිසෙන් ගලා යන ලේ.. මස් වැදලි
පාරෙ තැන තැන විසිරිල.</p>

<p>ඔල්සෙන්ටිස්
එකේ අයියලත් ගල් මූල් අරන් සජිත් මල්ලිගෙ මාරයා වූණූ බස් එකට ගහන්න පටන් ගෙත්තෙ
බෝම කෝපයෙන්. වේදනාවෙන්.</p>

<p>පොලිසිය
කළේ සජිත්ගෙ සිරැරෙන් ගලා ගිය ලේ.. එතැන කුඩූ වූ හිසෙහි මස් කැබලියි වතුර දමා
සෝදා දැමීම. ඒ මස් කැබළි එකතු කළේ කකුලෙන්.</p>

<p>ඔල්සෙන්ටිස්
සිසූන් එයින් තව තවත් වියරැ වැටූණා. බල්ලෙක් බළලෙකුගෙවත් මළ කුණකට එහෙම කරනවද?</p>

<p>"එපා...
එපා.. අපේ ඉස්කෝලෙ මල්ලිගෙ කෑලි පයින් එකතු කරන්න."</p>

<p>ඕය අතරෙ
පාරෙ ගිය ගෑණූ කෙනෙකුට සෙලෝපේන් බෑගයක් ගෙනවිත් අර මස් කැබලි එකතු කර දමන්න
කියල පොලිසියෙ මහත්තයෙක් කීවෙ "ඕහෙටත් ළමයි ඉන්නව නේද" කියමින්"</p>

<p>රතු
ඉරෙනූත් එහාට ඔල්සෙන්ටිස් ළමයින්ගෙ කෝප කටූව පැන්නෙ ඒ නිසාමයි. ඕවූන් තැන
නොතැන බලන්නෙ නැතිව ගල්මූල්වලින් පහර දී බස් එක කුඩූකරන්න පටන් ගත්තම පොලිසිය
කළේ ඒක පොලිස් භූමියට දමා ගැනීම.</p>

<p>ඊට පස්සෙ
ළමයිනූයි මහජනයයි දිගට හරහට පොලිසියටත් ගල්මූල් එල්ල කළා.</p>

<p>පොලිසිය
කළේ බස් එක අරන් දැඩි ආරකෂාව ඇතිව බූස්ස කෑම්ප් එකට එය ගෙනයෑමයි. එයින් තවත්
ප්රකෝප වූ ජනතාවත්, ළමයිනූත් බලහත්කාරයෙන් බස්වලට නැගී අර මගමරැවා පසූපස හඹා යන්න
වූණා.</p>

<p>ඔල්සෙන්ටිස්
සිසූන්ට, විද්යාලෝක විද්යාලයෙත් ඇලවිෂියස් විද්යාලයෙත් ළමයින් ද
එක්වූණේ මේ කතාව ආරංචිවීමෙන්.</p>

<p>දැන්
ඕවූන් හරියටම බඹරැන්, දෙබරැන් වගේ...</p>

<p>දහවල්
දොළහ වනවිට මූඦ ගාල්ලම උණූසූම්. අවට ගම් දනව්වලත් ජනතාව මේ ආරංචියට ගාල්ලට ඇදී
ආවා.</p>

<p>හැමදෙනාම
තමන්ට අහූවෙන අහූවෙන දෙයින් ඉවක් බවක් නැතිව පෞද්ගලික බස්වලටත්, ජනතා සන්තක බස්රථ
වලටත් පහර දෙන්න වූණේ ඕක්කොම බස් රියැදුරන් එකම මල්ලකට දමල. එක අතකින් ඒ
කතාවෙත් වැරැද්දක් නෑ. පෞද්ගලික බස්වල හූඟාක් ඩ්රැයිවර් මහත්වරැ කොට කොට ගාට ගාට
ගිහින් එකපාරටම උකුස්සන් වගේ ඉගිලෙනනෙ ඊළඟ එකා පස්සෙන් එනව දැක්කමනේ. ඒ වෙලාවට
ඒ ඩ්රැයිවර් මහත්තුරැන්ට බස් එකේ ඉන්න මගීන් ගැන අබමල් රේණූවකවත් ආදරයක් නෑ. </p>

<p>පූංචි
සජිත් නිසා මූඦ ගාල්ලම කඳුඦ හලනව. අහන අහන කොයි කවූරැත් අනේ අපොයි කියනව.
"මූන්ට හෙණ ගහන්න ඔනෑ." හැම දෙනාම කියන කතාව.</p>

<p>ළමයින්ගෙත්,
මිනිසූන්ගෙත් ප්රකෝපකාර වැඩ වැඩිවීමත් එක්කම පොලිසියත් නිකං හිටියේ නෑ. ඒ
කටිටියත් ඒ කටිටියගෙ ගෞරවයත්, අභිමානයත්, සාමයත් රකින්න පටන් ගත්තෙ කඳුඦ ගෑස්
ගහමින්. රබර් උණ්ඩ වලින් වෙඩි තබන ගමන් තුන හතර වෙනකොට මූඦ නගරයම යකා නැටූ
පිටිටනියක් වගේ වූණා. අන්තිමට තත්ත්වය පාලනය කරගන්න බැරිවෙලා යූද හමූදාවත් කැඳවූ
පොලිසිය හවස පහේ සිට ඊයේ අලුයම පහ දක්වා ඇඳිරි නීතියත් ගාලු නගර සීමාවට
පැණවූවා.</p>

<p>සජිත්ගෙ
අම්මා කාමරේ ඇඳක් මත මූණිතලා වැටිල.</p>

<p>"මං
ඉස්කෝලෙ ඇරිච්ච ගමන් තාත්තත් එක්කල ටක් ගාල එනව.. අම්මෙ.. පන්ති යන්න" ඒ
සජිත් තම මෑණියන් සමඟ අන්තිමට කියා ඇති වචන තුන හතරයි</p>

<p>ආරක්ෂක නිලධාරියා නිලධාරිනියට හදි කරලා </p>

<p>කඩවත
පොලිස් වසමට අයත් බියන්විල මංකඩ පාරේ කාර්මික ආයතනයක ආරක්ෂක සේවයේ නියැලී
සිටි තරැණ නිලධාරිනියක එම ආයතනයේම තරැණ ආරක්්ෂක නිලධාරියකු විසින් පාන්දර 1.45
ට පමණ පාලු ස්ථානයකට රැගෙන ගොස් බලහත්කාරයෙන් අතවර කර ඇත.</p>

<p>මේ
පිළිබඳ පරක්ෂණ පවත්වන කඩවත පොලිසිය සැකකරැ අත්අඩංගුවට ගැනීමට ගිය අවස්ථාවේ ඕහූ
ආයතනයෙන් හා ප්රදේශයෙන් පලාගොස් ඇති බව අනාවරණය වී තිබේ.</p>

<p>අතවරයට
ලක්වූ 18 හැවිරිදි ආරක්ෂක නිලධාරිනිය රෝහලට ඇතුළත් කර ඇති අතර කඩවත
පොලිසියත් අපරාධ අංශයේ ස්ථානාධිපති පොලිස් පරක්ෂක වෙත්තසිංහ සහ පො. සැ. 16972
දිසානායක යන මහත්වරැ වැඩිදුර පරක්ෂණ පවත්වති</p>

<p>දඟකාර සංගක්කාරට ටෙස්ටි ශතකය අහිමි වෙයි </p>

<p>ධර්මසේනගේ
"උනන්දුව" අපතේ යයි</p>

<p>තරගයේ
වීරයා ඩැරන්</p>

<p>එංගලන්තයට
කඩූලූූ 3 ක ජයක්</p>

<p>ශ්රී
ලංකාව හා එංගලන්තය අතර තරග 3 කින් සමන්විත ටෙස්ටි තරගාවලියේ මහනූවර අස්ගිරිය
ක්රීඩාංගණයේදී ඊයේ (11 දා) අවසන්වූ දෙවැනි ටෙස්ටි තරගයෙන් කඩූලු 3 ක ජයක් ලැබූ
එංගලන්තය තරග 1 -1 ලෙස ටෙස්ටි තරගාවලිය සම කිරමට සමත් විය.</p>

<p>ගාල්ලේ
පැවැති ප්රථම ටෙස්ටි තරගයෙන් ශ්රී ලංකාවට ඉනිමක ජයක් අත්වූ අතර අවසන් සහ තීරණාත්මක
ටෙස්ටි තරගය ලබන 15 දා කොළඹ එස්. එස්. සී. ක්රීඩාංගණයේදී පැවැත්වීමට නියමිතව ඇත.</p>

<p>එංගලන්තය
මෙතෙක් පවත්වා ඇති ටෙස්ටි තරග අතුරින් ශ්රී ලංකාවට එරෙහිව ලැබූ සිව්වැනි ටෙස්ටි ජය
වන අතර ශ්රී ලංකාවේදී ලැබූ දෙවැනි ටෙස්ටි ජයග්රහණයයි.</p>

<p>ශ්රී
ලංකාව අස්ගිරියේදී ලැබූ 6 වැනි ටෙස්ටි පරාජය ලෙස මෙම පරාජය සටහන් වෙයි.</p>

<p>ප්රථම
ඉනිමේදී කඩූලු 4 ක් ද දෙවැනි ඉනිමේදී ශ්රී ලංකා පෙර පෙළ බිඳ දමමින් කඩූලු 4 ක්ද
සහිතව කඩූලු 8 ක් බිඳ දැමූ ඩැරන් ගෆ් තරගයේ වීරයා ලෙස නම් කරනූ ලැබීය.</p>

<p>තරගයේ
තෙවැනි දිනය අවසන් වන විට කඩූලු 6 ට ලකණූ 98 ක් ලෙස ලකුණූ පූවරැව සටහන් වූ අතර
සිව්වැනි දිනයේ දිවා ආහාරයට පෙර තරගය නිමවන ලකුණූ පහළව තිබූණි.</p>

<p>එහෙත්
කුමාර් සංගක්කාර සහ කුමාර ධර්මසේන එකතුව 7 වැනි කඩූල්ල වෙනූවෙන් ලකුණූ 93 ක
වාර්තාගත සම්බන්ධතාවයක් තැබීමත් සමගම තරගය යළි ජීවමාන තත්ත්වයකට පත්විය.</p>

<p>ලකුණූ 95
ක් ලබා සිටියදී අනවශ්ය පහරකට යෑමෙන් සංගක්කාර් දැවී යෑමෙන් පසූ ධර්මසේනට එක්වූ
චමින්ද වාස් 8 වැනි කඩූල්ල වෙනූවෙන් ලකුණූ 53 ක සම්බන්ධයක් තැබීම නිසා ශ්රී ලංකාවට
ලකුණූ 160 ක් ඉදිරියෙන් සිටීමට හැකි විය.</p>

<p>සංගක්කාර
සිය ලකුණූ 95 ලබා ගැනීමට මිනිත්තු 255 ක් කඩූල්ලේ රැඳී සිටිමින් පන්දු 184 කට
මූහූණ දුන් අතර එයට හතරේ පහර 13 ක් ඇතුළත් විය.</p>

<p>පන්දු
යවන්නෙකු ලෙස ක්රීඩා කර පන්දුවෙන් දස්කම් දැක්වීමට අපොහොසත්වූ කුමාර ධර්මසේන මෙම
ඉනිමේදී සිය තෙවැනි ටෙස්ටි අර්ධ ශතකය වාර්තා කරමින් ලකුණූ 54 ක් රැස් කළේය.</p>

<p>ඕහූ
මිනිත්තු 224 ක් කඩූල්ලේ රැඳී සිටිමින් හතරේ පහර 8 ක් එල්ල කර තිබූණි.</p>

<p>ගෆ්
කඩූලු 4 ක් බිඳ හෙලූ අතර රොබටි ක්රොෆ්ටි කඩූලු 2 ක්ද ක්රේග් වයිටි කඩූලු 2 ක්ද
බිඳ හෙළීය.</p>

<p>ලකුණූ
161 ක ඉලක්කයක් හඹා යාමට පිටියට පිවිසි එංගලන්ත පිලට තර්ජනයක් එල්ල කරමින්
ඇතර්ටන් හා ට්රෙස්කොතික් ක්රීඩා ගාරයට යැවීමට චමින්ද වාස් සමත් විය.</p>

<p>ඉන්පසූ
පිටියේ එක්වූ ග්රැහැම් තෝප් හා නසාර් හූසේන් ක්රම ක්රමයෙන් ලකුණූ තත්ත්වය ඉහළ
නැංවූ අතර සාර්ථක ඉනිමක නිරත වූ තෝප් ලකුණූ 46 කට දවාලීමට මූරලිදරන් සමත්වීමත්
සමගම ශ්රී ලංකාව යළි තරගයට අවතීර්ණ විය.</p>

<p>සිව්වැනි
දිනයේ අවසානයට පෙර නසාර් හූසේන් ක්රීඩාගාරයට යැවීමට චමින්ද වාස් සමත්වූ අතර දිනය
අවසානයේ ලකුණූ තත්ත්වය 91·4 ක් ලෙස සටහන් විය.</p>

<p>ඊයේ
පෙරවරැවේ මූඦ ලකුණූ සංඛ්යාව 97 ක්ව තිබියදී ස්ටූවර්ටි ලකුණූ 07 කට දවාලීමට
චමින්ද වාස් සමත්වීමත් සමඟ ශ්රී ලංකාව යළි ප්රබල තත්ත්වයකට පත් විය.</p>

<p>එහෙත්
ඉන්පසූ පැමිණි හික් ලකුණූ 04 ක් ලබා සිටියදී වාස්ගේ පන්දුවකට කුමාර් සංගක්කාර අතට
පැමිණි උඩ පන්දුව ගිලිහීයෑමෙන් පසූ හික් හා ක්රොෆ්ටි ලකුණූ 25 ක සම්බන්ධයක් තැබීය.</p>

<p>නායක
සනත් ජයසූරිය හික් ලකුණූ 16 කට දවාලීමෙන් පසූ ක්රොෆ්ටි හා වයිටි එක් විය.</p>

<p>7 වැනි
කඩූල්ලේ සම්බන්ධතාවය ලකුණූ 20 දක්වා ඉහළ යෑමෙන් පසූ ක්රොෆ්ටිගේ කඩූල්ල දවාලීමට
ධර්මසේන සමත්වූ අතර වයිටි හා ගයිල්ස් එක්ව ඉලක්කය සම්පූර්ණ කිරමට සමත් විය.</p>

<p>මූඦ
ලකුණූ සංඛ්යාව 152 ක්ව තිබියදී වයිටි ලබා දුන් උඩ පන්දුවක් කඩූලු රකින්නා හා
ස්ලිප් ක්රීඩකයා අතරින් ඇදී යෑම ශ්රී ලංකාවට හිමිවූ අවසන් අවස්ථාව විය.</p>

<p>මෙම
ඉනිමේදී ද කුමාර් සංගක්කාරගේ කඩූලු රැකීම දුර්වල මටිටමක විය. නූවන් සොයිසා ද
මෙම තරගයේ බලාපොරොත්තු සූන් කළ අතර මූරලිදරන් ගෙන්ද දෙවැනි ඉනිමේදී
බලාපොරොත්තු වූ සේවය ඉටූ නොවීය. දක්ෂ පන්දු යැවීමක නිරත වූ චමින්ද වාස් කඩූලු
4 ක් බිඳ හෙළීය.</p>

<p>ශ්රී
ලංකාව මෙතෙක් අස්ගිරිය ක්රීඩාංගණයේදී පවත්වා ඇති 11 වැනි ටෙස්ටි තරගය මෙය වන අතර
මෙම පරාජය 6 වැනි පරාජය ලෙස සටහන් වෙයි.</p>

<p>අස්ගිරිය
ක්රීඩාංගණයේදී අවසන් වරට පැවැති දකුණූ අප්රිකාවට එරෙහි ටෙස්ටි තරගයෙන්ද ශ්රී ලංකාවට
පරාජය අත්විය.</p>

<p> ලකුණූ පූවරැව</p>

<p>ශ්රී
ලංකාව මූල් ඉනිම ලකුණූ 297 යි</p>

<p>එංගලන්තය
මූල් ඉනිම ලකුණූ 387 යි</p>

<p>ශ්රී
ලංකාව දෙවැනි ඉනිම.</p>

<p>මාවන්
අතපත්තු ඇ. ස්ටූවර්ටි ප. ගෆ්
                
02</p>

<p>සනත්
ජයසූරිය ඇ. තෝප් ප. කැඩික්
                 
00</p>

<p>කුමාර්
සංගක්කාර ස්ටප්. ස්ටූවර්ටි. ප. ක්රොෆ්ටි
        95</p>

<p>අරවින්ද
ද සිල්වා ඇ. වයිටි ප. ගෆ්
                  
01</p>

<p>මහේල
ජයවර්ධන ප. වයිටි
                            
18</p>

<p>රසල්
ආනල්ඩ් කඩූල්ල මූවා කළා ප. ක්රොෆ්ටි
           22</p>

<p>ටී. එම්.
ඩිල්ෂාන් ඇ. හික් ප. ක්රොෆ්ටි
                 
00</p>

<p>කුමාර
ධර්මසේන ඇ. හික් ප. ගෆ්
                     
54</p>

<p>චමින්ද
වාස් ඇ. ක්රොෆ්ටි ප. වයිටි
                     
36</p>

<p>නූවන්
සොයිසා ඇ. හික් ප. ගෆ්
                       
00</p>

<p>මූරලිදරන්
නොදැවී                                      
06</p>

<p>අතිරේක
                                                
16</p>

<p>පන්දු
වාර 89.1 සියල්ල දැවී ලකුණූ
                   
250</p>

<p>කඩූලු
වැටීම  1 - 2, 2 - 2, 3 - 3, 4 - 42, 5 - 81, 6 - 8,  7 - 181,  8
- 234, 9 - 242</p>

<p>පන්දු
යැවීම</p>

<p>ගෆ් 22 -
6 - 50 - 4        කැඩික් 18 - 5 - 55 - 1</p>

<p>වයිටි
12.1 - 3 - 42 - 2    ක්රොෆ්ටි 22 - 11 - 40 - 3</p>

<p>ගයිල්ස්
15 - 3 - 58 - 0</p>

<p>එංගලන්තය
දෙවැනි ඉනිම</p>

<p>මයිකල්
ඇතර්ටන් ඇ. සංගක්කාර ප. වාස්
             11</p>

<p>මාක්
ට්රෙස්කොතික් කඩූල්ල මූවා කළා ප. වාස්
           13</p>

<p>නසාර් හූසේන්
ඇ. සංගක්කාර ප. වාස්
                
15</p>

<p>ග්රැහැම්
තෝප් ඇ. සංගක්කාර ප. මූරලිදරන්
           46</p>

<p>ඇලෙක්
ස්ටූවර්ටි කඩූල්ල මූවා කළා ප. වාස්
            07</p>

<p>රොබටි
ක්රොෆ්ටි කඩූල්ල මූවා කළා ප. ධර්මසේන        
17</p>

<p>ග්රැහැම්
හික් ප. ජයසූරිය
                                 
16</p>

<p>ක්රේග්්
වයිටි නොදැවී
                                      
21</p>

<p>ඈෂ්ලි
ගයිල්ස් නොදැවී
                                   
04</p>

<p>අතිරේක
                                                   
11</p>

<p>පන්දු
වාර 71.1 කදී කඩූලු 7 ට ලකුණූ
                    
161</p>

<p>කඩූලු
වැටීම 1 - 24, 2 - 25, 3 - 86, 4 - 89, 5 - 97, 6 - 122, 7 - 142</p>

<p>පන්දු
යැවීම</p>

<p>වාස් 18
- 4 - 39 - 4සොයිසා 2 - 0 - 16 - 0</p>

<p>ධර්මසේන
8 - 0 - 25 - 1        මූරලිදරන් 27 - 7 - 50
- 1</p>

<p>ජයසූරිය
- 16.1 - 5 - 22 - 1</p>

<p>එංගලන්තයට
කඩූලූ 3 ක ජයක්</p>

<p>තරගයේ
වීරයා ඩැරන් ගෆ් (එංගලන්තය)</p>

<p>එක්දින තරගාවලියෙන් බී. සී. කුරේ ඉවතට මැනූවෙල්ට නිවාඩූ </p>

<p>ශ්රී
ලංකාව හා එංගලන්තය අතර ලබන 23 දා ඇරඹෙන තරග 3 කින් සමන්විත එක්දින තරගාවලිය සඳහා
නම්කර ඇති විනිසූරැ මඩූල්ලෙන් බී. සී. කුරේ විනිසූරැවරයා ඉවත් කර ඇත.</p>

<p>දෙවැනි
ටෙස්ටි තරගයේදී දැක්වූ දුර්වල විනිශ්චය හේතුවෙන් ඕහූ මෙම තරගාවලියෙන් ඉවත් කර
ඇති අතර පකිස්තානයේ පැවැත්වෙන පාඨමාලාවකට සහභාගිවන බැවින් පීටර් මැනූවෙල්
විනිසූරැවරයාද එම තරගාවලියට එක් නොවේ.</p>

<p>එක්දින
තරගාවලියට නම් කර ඇති විනිසූරැවන් මෙසේයි.</p>

<p>අශෝක ද
සිල්වා, ගාමිණී සිල්වා, ටිරෝන් වි-වෙර්ධන, ලලිත් ජයසූන්දර, ඩි.එෆ්.. පතිරණ, ටී.
එම්. සමරසිංහ.</p>

<p>එෆ්. ඒ. කුසලාන මූහූණූවර වෙනස් වෙයි - ව්යාපෘතියට මිලියන 3 ක් </p>

<p>තරග
විනිසූරැවන් ගැන විශේෂ අවධානයක්</p>

<p> ප්රිමියර්
ලීග් පාපන්දු තරගාවලියේ තරග විනිශ්චය සම්බන්ධව මත භේදයකට තුඩූ දී ඇති කිසිදු
පාපන්දු තරග විනිසූරැවරයකු දැන් ආරම්භ වී ඇති "ෂාප් එෆ්. ඒ. කුසලාන"
පාපන්දු තරගාවලියේ තරග විනිශ්චයට නොයොදවිීමට ශ්රී ලංකා පාපන්දු සම්මේලනය තීරණය
කොට තිබේ.</p>

<p>ප්රිමියර්
ලීග් පාපන්දු තරග විනිශ්චය සම්බන්ධව පාපන්දු විනිසූරැවරැන් 10 දෙනකුට පමණ චෝදනා
එල්ල වී ඇති බව පවසන ශ්රී ලංකා පාපන්දු සම්මේලනය ඕවූනට එල්ල වී ඇති චෝදනා
විමර්ශනය කොට දඬූවම් (මූදලින් දඩ) පමූණූවන බව පවසයි.</p>

<p>චෝදනාලාභී
තරග විනිසූරැවන් කිහිප දෙනෙකුට දැනටමත් රැපියල් 2000 බැගින් ශ්රී ලංකා පාපන්දු
සම්මේලනය විසින් දඩ නියම කර ලැබ ඇතැයි ද වාර්තා වෙයි.</p>

<p>මේ අතර
ෂාප් එෆ්. ඒ. කුසලාන පාපන්දු තරගාවලිය සඳහා කණ්ඩායම් 116 ක් ඉදිරිපත් වී ඇත. තරග
114 ක් එම කණ්ඩායම් අතර පැවැත්වෙන අතර තරගාවලියේ මූලික වටයේ තරග ඉකුත් 3 දා
ආරම්භ වූ බව පාපන්දු බලධාරහූ පවසති. දිවයින පූරා ක්රියාත්මක වන මෙම තරගාවලිය ස්ථාන
30 කදී පැවැත්වෙයි.</p>

<p>වසර 10
කට වැඩි කාලයක් අඛණ්ඩව අනූග්රහය දෑක්වූ ලංකා දුම්කොළ සමාගම වෙනූවට මෙවර බ්රවූන්ස්
සමාගම එෆ්. ඒ. කුසලාන තරගාවලියට අනූග්රහය දැක්වීමට ඉදිරිපත් වී ඇත. මෙවර තරගාවලිය
සඳහා බ්රවූන්ස් සමාගම වැය කරන මූදල රැපියල් ලකෂ 30 කි. තරගයේ ජයග්රාහක කණ්ඩායමට
පිරිනමන මූදල මෙතෙක් ප්රකාශ කොට නැති අතර එය පෙර වසරවලට වඩා වැඩි විය හැකි යයි
පාපන්දු සම්මේලනය කියයි.</p>

<p>තරගාවලියේ
පළමූ වටයේ තරග ලබන 24, 25 සහ 31 යන දිනවල පැවැත්වෙනූ ඇත. තරග සංඛ්යාව 30 කි.</p>

<p>දෙවන
වටයේ තරග ලබන අප්රේල් 21 සහ 22 යන දිනවල ද තුන්වන වටයේ තරග ලබන මැයි 5 සහ 6 යන
දිනවල ද පූර්ව අර්ධ අවසන් වටයේ තරග ලබන මැයි 19 සහ 20 යන දිනවල ද අර්ධ අවසන් තරග
ලබන ජූනි 2 සහ 3 යන දිනවල ද පැවැත්වීමට නියමිතය.</p>

<p>අවසන්
පූර්ව තරග සහ අවසන් තරගය පවත්වන දිනය මෙතෙක් තීරණය කොට නැත.</p>

<p>මේ අතර
දැනට ක්රියාත්මක වන ප්රිමියර් ලීග් පාපන්දු තරගාවලිය නියෝජනය කරන කණ්ඩායම් 22 ක්
මූල් වටයේ සිට තරග වදින බව පාපන්දු සම්මේලනය කියයි.</p>

<p>එෆ්. ඒ.
කුසලාන පාපන්දු තරගාවලිය යටතේ ගියවර ශූරතාව දිනා ගන්නා ලද්දේ රත්නම් කණ්ඩායම
විසිනි.</p>

<p>එෆ්. ඒ.
කුසලාන පාපන්දු තරගාවලියට ෂාප් නිල අනූග්රහය ලබා දීමේ නිල උත්සවය ගත වූ සති
අන්තයේ කොළඹ ට්රාන්ස් ඒෂියා හෝටලයේදී පැවැත්විණි.</p>

<p>මලල ක්රීඩක ක්රීඩිකාවන් 800 කට නිල අනූග්රහය අද </p>

<p>ලබන 2002
වසරේ ශ්රී ලංකාවේ පැවැත්වීමට නියමිත ආසියානූ ශූරතා ජවන හා පිටිය මලල ක්රීඩා
තරගාවලිය ඉලක්ක කොටගෙන දිස්ත්රික් මටිටමින් පිහිටූවා ඇති මලල ක්රීඩා සංචචිතවල ක්රීඩක
ක්රීඩිකාවන්ට සහ පූහූණූකරැවන්ට අනූග්රහය පිරිනැමීමේ නිල උත්සවය අද (12 දා) ප. ව.
6.00 ට කොළඹ බණ්ඩාරනායක අනූස්මරණ ජාත්යන්තර සම්මන්ත්රණ ශාලාවේදී පැවැත්වෙයි.</p>

<p>ශ්රී ලංකා
ආධූනික මලල ක්රීඩා සංගමය මගින් මේ සඳහා ක්රීඩක ක්රීඩිකාවන් සහ පූහූණූකරැවන් 800 ක්
පමණ දෙනා තෝරා ගෙන ඇත.</p>

<p>ක්රීඩා
ඇමැති ලකෂ්මන් කිරිඇල්ල මහතාගේ ප්රධානත්වයෙන් මෙම නිල උත්සවය පැවැත්වෙනූ ඇත.</p>

<p>වයඹ පළාත් කරාතේ  ශූරතාව 31 දා </p>

<p>2001
වසරේ වයඹ පළාත් කරාටෙි ශූරතා තරගාවලිය මාර්තු මස 31 වැනි දින පස්වරැවේ නාරම්මල
නගර ශාලාවේදී යෞවන කටයූතු පිළිබඳ අමාත්ය ජීවන් කුමාරතුංග මහතාගේ
ප්රධානත්වයෙන් පැවැත්වේ.</p>

<p>ශ්රී ලංකා
කරාටෙි දෝ සම්මේලනයේ (ක්රීඩා අමාත්යාංශය) ශ්රී ලංකා පාසල් කරාටෙි දෝ
සංගමයේ (අධ්යාපන අමාත්යාංශයේත්) අනූමැතිය ලත් ජපන් කරාටෙි දෝ
මරැයෝෂිකායි සංවිධානයේ වයඹ ප්රධාන උපදේශක සෙන්සේ කේ. ඩබ්ලිව්. ශාන්ත බණ්ඩාර
මහතා විසින් මෙම කරාටෙි ශූරතාවලිය සංවිධානය කර ඇත.</p>

<p> </p>






</body></text></cesDoc>