<cesDoc id="pun-w-education-sentribunal" lang="pun">
<cesHeader type="text">
<fileDesc>
<titleStmt>
<h.title>pun-w-education-sentribunal.txt</h.title>
<respStmt> 
<respType>Electronic file created by</respType>
<respName>Dept of Linguistics, Lancaster University</respName>
<respType>transcribed by</respType>
<respName>Winfocus Pvt Ltd (Miss Ranjeet Kaur)</respName>
</respStmt>
</titleStmt>
<publicationStmt>
<distributor>UCREL</distributor>
<pubAddress>Dept of Linguistics, Lancaster University, Lancaster, LA1 4YT, UK</pubAddress>
<availability region="WORLD"></availability>
<pubDate>02-12-16</pubDate>
</publicationStmt>
<sourceDesc>
<biblStruct>
<monogr>
<h.title>SEN tribunal: How to appeal</h.title>
<h.author>Department for Education and Skills</h.author>
<imprint>
<pubPlace>UK</pubPlace>
<publisher>Department for Education and Skills</publisher>
<pubDate>2001</pubDate>
</imprint>
</monogr>
</biblStruct>
</sourceDesc>
</fileDesc>
<encodingDesc>
<projectDesc>Text collected for use in the EMILLE project, May 2000.</projectDesc>
<samplingDesc>Simple written text only has been transcribed. Diagrams, pictures and tables have been omitted and their place marked with a gap element.
</samplingDesc>
<editorialDecl>
<conformance level="1"></conformance>
</editorialDecl>
</encodingDesc>
<profileDesc>
<creation>
<date>02-11-27</date>
</creation>
<langUsage>Translated into Punjabi from English</langUsage>
<wsdUsage>
<writingSystem id="ISO/IEC 10646">Universal Multiple-Octet Coded Character Set (UCS).</writingSystem>
</wsdUsage>
<textClass>
<channel mode="w">print</channel>
<constitution type="composite"></constitution>
<derivation type="translation"></derivation>
<domain type="public"></domain>
<factuality type="fact"></factuality>
</textClass>
<translations>
<translation trans.loc="eng-w-education-sentribunal.txt" lang="ENG" wsd="ISO8859-1" n="1"></translation>
</translations>
</profileDesc>
<revisionDesc>
</revisionDesc>
</cesHeader>

<text>
<body>

<p><head><s>ਖ਼ਾਸ</s>
<s>ਵੱਿਦਿਅਕ</s>
<s>ਲੋੜਾਂ</s></head></p>

<p><head><s>ਅਪੀਲ ਕਿਵੇਂ ਕਰੀਏ</s></head></p>

<p><s>ਵਿਸ਼ੇ ਸੂਚੀ</s> <s>ਸਫ਼ਾ</s>
<s>ਖ਼ਾਸ ਵਿੱਦਿਅਕ ਲੋੜਾਂ ਦਾ ਟ੍ਰਿਬਿਊਨਲ: ਤੁਹਾਡੇ ਸਵਾਲਾਂ ਦੇ ਜਵਾਬ</s> <s><foreign lang="eng">2</foreign></s>
<s>ਪਰਿਭਾਸ਼ਾਵਾਂ</s> <s><foreign lang="eng">23</foreign></s>
<s>ਟ੍ਰਿਬਿਊਨਲ ਦਾ ਫ਼ੈਸਲਾ ਲੈਣ ਲਈ ਅਪੀਲ ਕਰਨ ਬਾਰੇ ਟਾਈਮਟੇਬਲ</s> <s><foreign lang="eng">25</foreign></s>
<s>ਹੋਰ ਪ੍ਰਕਾਸ਼ਨ</s> <s><foreign lang="eng">26</foreign></s>
<s>ਲਾਭਦਾਇਕ ਪਤਿਆਂ ਦੀ ਲਿਸਟ</s> <s><foreign lang="eng">27</foreign></s>
<s>ਅਪੀਲ ਦਾ ਨੋਟਿਸ ਫ਼ਾਰਮ</s> <s><foreign lang="eng">33</foreign></s></p>

<p><head><s>ਖ਼ਾਸ ਵਿੱਦਿਅਕ ਲੋੜਾਂ ਦੇ ਟ੍ਰਿਬਿਊਨਲ ਬਾਰੇ ਜਾਣਕਾਰੀ</s></head></p>

<p><s>ਇਹ ਕਿਤਾਬਚਾ ਤੁਹਾਨੂੰ ਦੱਸਦਾ ਹੈ ਕਿ ਤੁਸੀਂ ਕਿਹੜੀਆਂ ਹਾਲਤਾ ਵਿਚ ਖ਼ਾਸ ਵਿੱਦਿਅਕ ਲੋੜਾਂ ਦੇ ਟ੍ਰਿਬਿਊਨਲ ਕੋਲ ਅਪੀਲ ਕਰ ਸਕਦੇ ਹੋ, ਅਤੇ ਜੇ ਤੁਸੀਂ ਅਪੀਲ ਕਰੋ ਤਾਂ ਕੀ ਹੋਏਗਾ ।</s> <s>ਜੇ ਤੁਸੀਂ ਇਹਨੂੰ ਪੜ੍ਹਨ ਮਗਰਂੋ ਟ੍ਰਿਬਿਊਨਲ ਕੋਲ ਅਪੀਲ ਕਰਨਾ ਚਾਹੁੰਦੇ ਹੋ ਤਾਂ ਤੁਸੀਂ ਪਿਛਲੇ ਵਰਕੇ ਦੇ ਅੰਦਰਲੇ ਪਾਸੇ ਲੱਗੇ ਫ਼ਾਰਮ ਦੀ ਵਰਤੋਂ ਕਰ ਸਕਦੇ ਹੋ ।</s></p>

<p><head><s>ਟ੍ਰਿਬਿਊਨਲ</s></head></p>

<p><head><s>ਖ਼ਾਸ <corr sic="ਵਿੰਦਿਅਕ">ਵਿੱਦਿਅਕ</corr> ਲੋੜਾਂ ਦਾ ਟ੍ਰਿਬਿਊਨਲ ਕੀ ਹੈ?</s></head></p>

<p><s>ਖ਼ਾਸ <corr sic="ਵਿੰਦਿਅਕ">ਵਿੱਦਿਅਕ</corr> ਲੋੜਾਂ ਦੇ ਟ੍ਰਿਬਿਊਨਲ ਦੀ ਸਥਾਪਨਾ <foreign lang="eng">1993</foreign> ਦੇ ਐਜੂਕੇਸ਼ਨ ਐਕਟ ਦੇ ਤਹਿਤ ਹੋਈ ।</s> <s>ਇਹ ਟ੍ਰਿਬਿਊਨਲ ਬੱਚਿਆਂ ਦੀਆਂ ਖ਼ਾਸ ਵਿੱਦਿਅਕ ਲੋੜਾਂ ਬਾਰੇ ਲੋਕਲ ਐਜੂਕੇਸ਼ਨ ਅਥਾਰਿਟੀਆਂ (ਕਾਉਂਸਿਲ ਦੇ ਸਿੱਖਿਆ ਵਿਭਾਗ ਜਾਂ ਐਲ-ਈ-ਏ) ਦੇ ਫ਼ੈਸਲਿਆਂ ਦੇ ਵਿਰੁੱਧ ਮਾਪਿਆਂ ਦੀਆਂ ਅਪੀਲਾਂ ਨੂੰ ਸੁਣਦਾ ਹੈ-ਜੇ ਮਾਪੇ ਐਲ-ਈ-ਏ ਦੇ ਫ਼ੈਸਲਿਆਂ ਨਾਲ ਸਹਮਤ ਨਾ ਹੋਣ ।</s></p>

<p><head><s>ਕੀ ਟ੍ਰਿਬਿਊਨਲ ਸੁਤੰਤਰ ਹੈ?</s></head></p>

<p><s>ਟ੍ਰਿਬਿਊਨਲ ਸੁਤੰਤਰ ਹੈ ।</s> <s>ਇਹਦੇ ਪ੍ਰਧਾਨ ਅਤੇ ਚੇਅਰਮੈਨਾਂ ਦੀ ਨਿਯੁਕਤੀ ਲਾਰਡ ਚਾਂਸਲਰ ਕਰਦਾ ਹੈ ।</s> <s>ਬਾਕੀ ਦੇ ਮੈਂਬਰਾਂ ਦੀ ਨਿਯੁਕਤੀ ਸੈਕ੍ਰੇਟਰੀ ਆੱਫ਼ ਸਟੇਟ ਫ਼ਾੱਰ ਐਜੂਕੇਸ਼ਨ ਐਂਡ ਐਂਪਲਾਇਮੈਂਟ (ਵਿੱਦਿਆ ਅਤੇ ਰੁਜ਼ਗਾਰ ਮੰਤ੍ਰੀ) ਅਤੇ ਸੈਕ੍ਰੇਟਰੀ ਆੱਫ਼ ਸਟੇਟ ਫ਼ਾੱਰ ਵੇਲਜ਼ (ਵੇਲਜ਼ ਮੰਤ੍ਰੀ) ਕਰਦੇ ਹਨ ।</s> <s>ਪਰ ਸਰਕਾਰ ਇਸ ਟ੍ਰਿਬਿਊਨਲ ਦੇ ਫ਼ੈਸਲਿਆਂ 'ਤੇ ਕੋਈ ਅਸਰ ਨਹੀਂ ਪਾ ਸਕਦੀ, ਅਤੇ ਟ੍ਰਿਬਿਊਨਲ ਦਾ ਐਲ-ਈ-ਏ ਨਾਲ ਕੋਈ ਵੀ ਸੰਬੰਧ ਨਹੀਂ ਹੁੰਦਾ ।</s></p>

<p><head><s>ਅਪੀਲ ਕਿਵੇਂ ਕਰੀਏ</s></head></p>

<p><head><s>ਅਪੀਲ ਦੀ ਲੋੜ ਕਿਉਂ ਪੈ ਸਕਦੀ ਹੈ?</s></head></p>

<p><s>ਜੇ ਤੁਹਾਡੇ ਬੱਚੇ ਦੀਆਂ ਖ਼ਾਸ ਵਿੱਦਿਅਕ ਲੋੜਾਂ ਪੂਰੀਆਂ ਕਰਨ ਦੇ ਐਲ-ਈ-ਏ ਦੇ ਫ਼ੈਸਲੇ ਨਾਲ ਤੁਸੀਂ ਸਹਮਤ ਨਹੀਂ, ਤਾਂ ਸਭ ਤਂੋ ਪਹਿਲਾਂ ਤੁਹਾਨੂੰ ਐਲ-ਈ-ਏ ਦੇ ਨਾਲ ਮਿਲਕੇ ਇਸ ਮਸਲੇ ਨੂੰ ਸੁਲਝਾਉਣਾ ਚਾਹੀਦਾ ਹੈ ।</s> <s>ਪਰ ਜੇ ਤੁਸੀਂ ਐਲ-ਈ-ਏ ਦੇ ਨਾਲ ਸਹਮਤ ਨਹੀਂ ਹੋ ਸਕਦੇ, ਅਤੇ ਤੁਸੀਂ ਹਾਲੇ ਵੀ ਉਹਨਾਂ ਦੇ ਫ਼ੈਸਲੇ ਤੋਂ ਖ਼ੁਸ਼ ਨਹੀਂ, ਤਾਂ ਤੁਸੀਂ ਉਹਨਾਂ ਦੇ ਫ਼ੈਸਲੇ ਦੇ ਵਿਰੱੁਧ ਟ੍ਰਿਬਿਊਨਲ ਕੋਲ ਅਪੀਲ ਕਰ ਸਕਦੇ ਹੋ ।</s> <s>ਅਪੀਲ ਕਰਨ ਲਈ ਆਖ਼ਿਰੀ ਤਾਰੀਖ਼ ਹੁੰਦੀ ਹੈ (ਦੇਖੋ ਸਫ਼ਾ <foreign lang="eng">7</foreign>) ।</s> <s>ਇਸ ਲਈ ਤੁਹਾਨੂੰ ਇਹ ਕੰਮ ਛੇਤੀ ਕਰਨਾ ਚਾਹੀਦਾ ਹੈ ।</s> <s>ਤੁਸੀਂ ਅਪੀਲ ਭੇਜਣ ਤਂੋ ਮਗਰਂੋ ਵੀ ਐਲ-ਈ-ਏ ਦੇ ਨਾਲ ਗੱਲ ਬਾਤ ਚਾਲੂ ਰੱਖ ਕੇ ਮਸਲੇ ਨੂੰ ਸੁਲਝਾਉਣ ਦੀ ਕੋਸ਼ਿਸ਼ ਕਰ ਸਕਦੇ ਹੋ ।</s></p>

<p><head><s>ਮੈਂ ਟ੍ਰਿਬਿਊਨਲ ਕੋਲ ਕਦ ਅਪੀਲ ਕਰ ਸਕਦਾ ਜਾਂ ਸਕਦੀ ਹਂਾ?</s></head></p>

<p><s>ਤੁਸੀਂ ਟ੍ਰਿਬਿਊਨਲ ਕੋਲ ਅਪੀਲ ਕਰ ਸਕਦੇ ਹੋ, ਜੇ</s>
<s>ਐਲ-ਈ-ਏ ਤੁਹਾਡੇ ਬੱਚੇ ਦੀਆਂ ਖ਼ਾਸ ਵਿੱਦਿਅਕ ਲੋੜਾਂ ਦਾ ਰਸਮੀ ਤੌਰ ਤੇ ਲੇਖਾ ਜੋਖਾ ਕਰਨੋਂ ਨਾਂਹ ਕਰ ਦੇਵੇ, ਪਰ ਉਸੇ ਹਾਲਤ ਵਿਚ ਜੇ ਇਸ ਲੇਖੇ ਜੋਖੇ ਲਈ ਤੁਸੀਂ ਕਿਹਾ ਹੋਵੇ, ਸਕੂਲ ਨੇ ਨਹੀਂ; ਜਾਂ</s>
<s>ਐਲ-ਈ-ਏ ਰਸਮੀ ਤੌਰ ਤੇ ਲੇਖਾ ਜੋਖਾ ਕਰਨ ਮਗਰੋਂ ਤੁਹਾਡੇ ਬੱਚੇ ਦੀਆਂ ਖ਼ਾਸ ਵਿੱਦਿਅਕ ਲੋੜਾਂ ਦਾ ਸਟੇਟਮੈਂਟ (ਬਿਆਨ) ਜਾਰੀ ਕਰਨੋਂ ਨਾਂਹ ਕਰ ਦੇਵੇ ।</s></p>

<p><s>ਜੇ ਐਲ-ਈ-ਏ ਨੇ ਤੁਹਾਡੇ ਬੱਚੇ ਦੀਆਂ ਖ਼ਾਸ ਵਿੱਦਿਅਕ ਲੋੜਾਂ ਬਾਰੇ ਬਿਆਨ ਜਾਰੀ ਕੀਤਾ ਹੈ ਜਾਂ ਕੋਈ ਪਿਛਲਾ ਬਿਆਨ ਬਦਲ ਦਿੱਤਾ ਹੈ, ਤਾਂ ਤੁਸੀਂ ਹੇਠ ਲਿਖੀਆਂ ਗੱਲਾਂ ਦੇ ਵਿਰੁੱਧ ਅਪੀਲ ਕਰ ਸਕਦੇ ਹੋ:</s>
<s>ਤੁਹਾਡੇ ਬੱਚੇ ਦੀਆਂ ਖ਼ਾਸ ਵਿੱਦਿਅਕ ਲੋੜਾਂ ਦੀ ਸਟੇਟਮੈਂਟ ਦੇ ਹਿੱਸਾ <foreign lang="eng">2</foreign> ਵਿਚਲਾ ਵੇਰਵਾ;</s>
<s>ਐਲ-ਈ-ਏ ਦੇ ਖ਼ਿਆਲ ਵਿਚ ਜਿਹੜੀ ਖ਼ਾਸ ਵਿੱਦਿਅਕ ਮਦਦ ਬੱਚੇ ਨੂੰ ਮਿਲਣੀ ਚਾਹੀਦੀ ਹੈ ਉਹਦੇ ਬਾਰੇ ਹਿੱਸਾ <foreign lang="eng">3</foreign> ਵਿਚਲਾ ਵੇਰਵਾ;</s>
<s>ਜਿਸ ਸਕੂਲ ਦਾ ਨਾਂ ਬਿਆਨ ਦੇ ਹਿੱਸਾ <foreign lang="eng">4</foreign> ਵਿਚ ਦਿੱਤਾ ਹੋਇਆ ਹੈ ਉਹਦੇ ਬਾਰੇ; ਜਾਂ</s>
<s>ਬਿਆਨ ਦੇ ਹਿੱਸਾ <foreign lang="eng">4</foreign> ਵਿਚ ਸਕੂਲ ਦਾ ਨਾਂ ਨਾ ਦੱਸਣ ਦੇ ਐਲ-ਈ-ਏ ਦੇ ਫ਼ੈਸਲੇ ਬਾਰੇ ।</s></p>

<p><s>ਜੇ ਹੇਠ ਲਿਖੀਆਂ ਗੱਲਾਂ ਲਾਗੂ ਹੋਣ ਤਦ ਵੀ ਤੁਸੀਂ ਅਪੀਲ ਕਰ ਸਕਦੇ ਹੋ ।</s>
<s>ਜੇ ਐਲ-ਈ-ਏ ਤੁਹਾਡੇ ਬੱਚੇ ਬਾਰੇ ਸਟੇਟਮੈਂਟ ਵਿਚ ਦਿੱਤੇ ਸਕੂਲ ਨੂੰ ਬਦਲਣ ਤੋਂ ਇਨਕਾਰ ਕਰ ਦੇਵੇ ।</s> <s>ਤੁਸੀਂ ਸਿਰਫ਼ ਐਲ-ਈ-ਏ ਮੇਨਟੇਂਨਡ ਜਾਂ ਗਰਾਂਟ-ਮੇਨਟੇਂਡ ਸਕੂਲ ਦੀ ਹੀ ਮੰਗ ਕਰ ਸਕਦੇ ਹੋ, ਅਤੇ ਤੁਹਾਡੇ ਬੱਚੇ ਦੇ ਬਾਰੇ ਜਾਰੀ ਕੀਤੀ ਸਟੇਟਮੈਂਟ ਘੱਟੋ ਘੱਟ ਇਕ ਸਾਲ ਪਹਿਲਾਂ ਜਾਰੀ ਹੋਈ ਹੋਣੀ ਚਾਹੀਦੀ ਹੈ ।</s>
<s>ਜੇ ਐਲ-ਈ-ਏ ਨੇ ਪਿਛਲੇ ਛੇ ਮਹੀਨਿਆਂ ਵਿਚ ਘੱਟੋ ਘੱਟ ਇਕ ਵਾਰੀ ਤੁਹਾਡੇ ਬੱਚੇ ਦੀਆਂ ਖ਼ਾਸ ਲੋੜਾਂ ਦਾ ਨਵੇਂ ਸਿਰਿੳਂ ਲੇਖਾ ਜੋਖਾ ਨਹੀਂ ਕੀਤਾ (ਪਰ ਤਦ ਹੀ ਜੇ ਤੁਸੀਂ ਇਸ ਲੇਖੇ ਜੋਖੇ ਦੀ ਮੰਗ ਕੀਤੀ ਹੋਵੇ) ਅਤੇ ਐਲ-ਈ-ਏ ਇਹ ਲੇਖਾ ਜੋਖਾ ਦੁਬਾਰਾ ਕਰਨੋਂ ਇਨਕਾਰ ਕਰੇ ।</s>
<s>ਐਲ-ਈ-ਏ ਸਟੇਟਮੈਂਟ ਨੂੰ ਕਾਇਮ ਨਾ ਰੱਖਣ ਦਾ ਫ਼ੈਸਲਾ ਕਰੇ ।</s>
<s>ਤੁਹਾਡੇ ਬੱਚੇ ਦੀਆਂ ਲੋੜਾਂ ਦਾ ਲੇਖਾ ਜੋਖਾ ਕਰਨ ਮਗਰੋਂ ਐਲ ਈ ਏ ਸਟੇਟਮੈਂਟ ਵਿਚ ਸੋਧ ਨਾ ਕਰੇ ।</s></p>

<p><head><s>ਕੀ ਕੋਈ ਅਜਿਹੇ ਮਸਲੇ ਵੀ ਹਨ ਜਿਹਨਾਂ ਨਾਲ ਟ੍ਰਿਬਿਊਨਲ ਨਹੀਂ ਨਿਪਟ ਸਕਦਾ?</s></head></p>

<p><s>ਤੁਸੀਂ ਇਹਨਾਂ ਗੱਲਾਂ ਦੇ ਵਿਰੁੱਧ ਟ੍ਰਿਬਿਊਨਲ ਕੋਲ ਅਪੀਲ ਨਹੀਂ  ਕਰ ਸਕਦੇ:</s>
<s>ਜੇ ਤੁਸੀਂ ਖ਼ੁਦ ਬੱਚੇ ਦੀਆਂ ਲੋੜਾਂ ਦਾ ਲੇਖਾ ਜੋਖਾ ਕਰਨ ਲਈ ਨਹੀਂ ਕਿਹਾ, ਅਤੇ ਐਲ-ਈ-ਏ ਇਹ ਕੰਮ ਕਰਨੋਂ ਇਨਕਾਰ ਕਰ ਦੇਵੇ;</s>
<s>ਜੇ ਐਲ ਈ ਏ ਨੇ ਕੋਈ ਨਵੀਂ ਜਾਂ ਸੋਧੀ ਹੋਈ ਸਟੇਟਮੈਂਟ ਜਾਰੀ ਨਹੀਂ ਕੀਤੀ ਅਤੇ ਉਹ ਕਿਸੇ ਨਵੇਂ ਇੰਡੀਪੈਂਡੈਂਟ ਜਾਂ ਗ਼ੈਰ-ਮੇਨਟੇਂਨਡ ਸਕੂਲ ਦਾ ਨਾਂ ਦੇਣਂੋ ਇਨਕਾਰ ਕਰੇ</s>
<s>ਜਿਸ ਢੰਗ ਨਾਲ ਐਲ-ਈ-ਏ ਨੇ ਲੇਖਾ ਜੋਖਾ ਕੀਤਾ, ਜਾਂ ਇਹ ਕੰਮ ਕਰਨ ਨੂੰ ਜਿੰਨਾਂ ਸਮਾਂ ਲਗਿਆ;</s>
<s>ਜਿਸ ਢੰਗ ਨਾਲ ਐਲ-ਈ-ਏ ਮਦਦ ਕਰਨ ਦਾ ਪ੍ਰਬੰਧ ਕਰ ਰਹੀ ਹੈ, ਜਿਵੇਂ ਕਿ ਤੁਹਾਡੇ ਬੱਚੇ ਬਾਰੇ ਸਟੇਟਮੈਂਟ ਵਿਚ ਨਿਸ਼ਚਿਤ ਕਰਕੇ ਉਹ ਕਿੰਨੇ ਪੈਸੇ ਦੇ ਰਹੀ ਹੈ;</s>
<s>ਸਕੂਲ ਜਿਸ ਢੰਗ ਨਾਲ ਤੁਹਾਡੇ ਬੱਚੇ ਦੀਆਂ ਲੋੜਾਂ ਪੂਰੀਆਂ ਕਰਦਾ ਹੈ;</s>
<s>ਹਿੱਸਾ <foreign lang="eng">5</foreign> ਅਤੇ <foreign lang="eng">6</foreign> ਵਿਚਲਾ ਵੇਰਵਾ (ਜਿਵੇਂ, ਆਉਣ ਜਾਣ ਦਾ ਖ਼ਰਚ), ਬੱਚੇ ਦੀਆਂ ਗ਼ੇਰ-ਵਿੱਦਿਅਕ ਲੋੜਾਂ, ਜਾਂ ਐਲ-ਈ-ਏ ਉਹਨਂਾ ਲੋੜਾਂ ਨੂੰ ਕਿਵੇਂ ਪੂਰੀਆਂ ਕਰੇਗੀ; ਜਾਂ</s>
<s>ਜੇ ਸਾਲਾਨਾ ਮੁੜ-ਵਿਚਾਰ ਮਗਰਂੋ ਐਲ-ਈ-ਏ <corr sic="ਸਟੇਮੈਂਟ">ਸਟੇਟਮੈਂਟ</corr> ਵਿਚ ਸੋਧ ਨਾ ਕਰੇ ।</s></p>

<p><head><s>ਜੇ ਇਹਨਾਂ ਵਿਚੋਂ ਕਿਸੇ ਗੱਲ ਬਾਰੇ ਮੈਂ ਖ਼ੁਸ਼ ਨਾ ਹੋਵਂਾ ਤਾਂ ਮੈਂ ਕੀ ਕਰ ਸਕਦਾ ਜਾਂ ਸਕਦੀ ਹਾਂ?</s></head></p>

<p><s>ਜੇ ਤੁਸੀਂ ਖ਼ੁਸ਼ ਨਹੀਂ ਹੋ ਤਾਂ ਤੁਸੀਂ ਆਪਣੀਆਂ ਚਿੰਤਾਵਾਂ ਬਾਰੇ ਬੱਚੇ ਦੇ ਸਕੂਲ, ਐਲ-ਈ-ਏ, ਜਾਂ ਦੋਹਾਂ ਨਾਲ ਗੱਲ ਬਾਤ ਕਰ ਸਕਦੇ ਹੋ ।</s> <s>ਜੇ ਤੁਸੀਂ ਫਿਰ ਵੀ ਖ਼ੁਸ਼ ਨਾ ਹੋਵੋ ਤਾਂ ਤੁਸੀਂ ਸੈਕ੍ਰੇਟਰੀ ਆਫ਼ ਸਟੇਟ ਕੋਲ ਸ਼ਿਕਾਇਤ ਕਰ ਸਕਦੇ ਹੋ ਕਿ ਐਲ-ਈ-ਏ ਜਾਂ ਸਕੂਲ ਗ਼ਲਤ ਕੰਮ ਕਰ ਰਹੇ ਹਨ ਜਾਂ ਆਪਣਾ ਫ਼ਰਜ਼ ਨਿਭਾਉਣ ਵਿਚ ਕੁਤਾਹੀ ਕਰ ਰਹੇ ਹਨ ।</s> <s>ਜੇ ਸੈਕ੍ਰੇਟਰੀ ਆਫ਼ ਸਟੇਟ ਤੁਹਾਡੇ ਨਾਲ ਸਹਿਮਤ ਹੋਵੇ ਤਾਂ ਉਹਦੇ ਵਲਂੋ ਐਲ-ਈ-ਏ ਜਾਂ ਸਕੂਲ ਨੂੰ ਹੁਕਮ ਜਾ ਸਕਦਾ ਹੈ ਕਿ ਉਹ ਆਪਣਾ ਕੰਮ ਸੁਧਾਰਨ ।</s> <s>ਜੇ ਤੁਸੀਂ ਇੰਗਲੈਂਡ ਵਿਚ ਸਕੂਲ ਜਾਂ ਐਲ-ਈ-ਏ ਦੇ ਬਾਰੇ ਸ਼ਿਕਾਇਤ ਕਰ ਰਹੇ ਹੋ, ਤਾਂ ਤੁਸੀਂ <foreign lang="eng">Secretary of State for Education and Employment</foreign> (ਵਿਦਿਆ ਅਤੇ ਰੁਜ਼ਗਾਰ ਮੰਤ੍ਰੀ) ਨੂੰ ਖ਼ਤ ਸਿਖੋ ।</s> <s>ਪਤਾ ਇਹ ਹੈ:</s>
<s><foreign lang="eng">Department for Education and Employment</foreign></s>
<s><foreign lang="eng">Sanctuary Buildings</foreign></s>
<s><foreign lang="eng">Great Smith Street</foreign></s> 
<s><foreign lang="eng">London SW1P 3BT.</foreign></s></p> 

<p><s>ਜੇ ਤੁਸੀਂ ਵੇਲਜ਼ ਵਿਚ ਸਕੂਲ ਜਾਂ ਐਲ-ਈ-ਏ ਦੇ ਬਾਰੇ ਸ਼ਿਕਾਇਤ ਕਰ ਰਹੇ ਹੋ, ਤਾਂ ਤੁਸੀਂ <foreign lang="eng">Secretary of State for Wales</foreign> (ਵੇਲਜ਼ ਮੰਤ੍ਰੀ) ਨੂੰ ਖ਼ਤ ਲਿਖੋ ।</s> <s>ਪਤਾ ਇਹ ਹੈ:</s>
<s><foreign lang="eng">Welsh Office Education Department</foreign></s>
<s><foreign lang="eng">Crown Buildings</foreign></s>
<s><foreign lang="eng">Cathays Park</foreign></s> 
<s><foreign lang="eng">Cardiff</foreign></s>
<s><foreign lang="eng">CF1 3NQ.</foreign></s></p>

<p><head><s>ਕੀ ਮੈਂ ਲੋਕਲ ਗਵਰਨਮੈਂਟ ੳਮਬਡਜ਼ਮਨ (ਲੋਕਪਾਲ) ਕੋਲ ਸ਼ਿਕਾਇਤ ਕਰ ਸਕਦਾ ਜਾਂ ਸਕਦੀ ਹਾਂ?</s></head></p>

<p><s>ਜੇ ਤੁਹਾਡੀ ਸ਼ਿਕਾਇਤ ਉਹਨਾਂ ਗੱਲਾਂ ਬਾਰੇ ਹੈ ਜਿਹਨਾਂ ਬਾਰੇ ਸ਼ਿਕਾਇਤ ਟ੍ਰਿਬਿਊਨਲ ਨਹੀਂ ਸੁਣ ਸਕਦਾ, ਤਾਂ ਹੋ ਸਕਦਾ ਹੈ ਕਿ ਤੁਸੀਂ ਲੋਕਲ ਗਵਰਨਮੈਂਟ ੳਮਬਡਜ਼ਮਨ ਕੋਲ ਸ਼ਿਕਾਇਤ ਕਰ ਸਕੋ ।</s> <s>ਸਫ਼ਾ <foreign lang="eng">26</foreign> 'ਤੇ ਉਹ ਪਤਾ ਦਿੱਤਾ ਹੋਇਆ ਹੈ ਜਿਥਂੋ ਤੁਹਾਨੂੰ ਉਹ ਕਿਤਾਬਚਾ ਮਿਲ ਸਕਦਾ ਹੈ ਜਿਸ ਵਿਚ ਇਹ ਸ਼ਿਕਾਇਤ ਕਰਨ ਦਾ ਢੰਗ ਸਮਝਾਇਆ ਗਿਆ ਹੈ ।</s> <s>ਤੁਸੀਂ ਇਹ ਕਿਤਾਬਚਾ ਐਲ-ਈ-ਏ ਤੋਂ ਵੀ ਲੈ ਸਕਦੇ ਹੋ ।</s></p>

<p><head><s>ਮੈਨੂੰ ਇਹ ਸਲਾਹ ਕਿੱਥਂੋ ਮਿਲ ਸਕਦੀ ਹੈ ਕਿ ਮੈਂ ਅਪੀਲ ਕਰ ਸਕਦਾ/ਸਕਦੀ ਹਾਂ ਜਾਂ ਨਹੀਂ?</s></head></p>

<p><s>ਤੁਹਾਨੂੰ ਇਹਨਾਂ ਥਾਵਾਂ ਤੋਂ ਮਦਦ ਮਿਲ ਸਕਦੀ ਹੈ:</s>
<s>ਖ਼ਾਸ ਲੋੜਾਂ ਵਾਲੇ ਲੋਕਾਂ ਦੀ ਮਦਦ ਕਰਨ ਵਾਲੀ ਕਿਸੇ ਵਾਲੰਟਰੀ ਸੰਸਥਾ ਤੋਂ;</s>
<s>ਕਿਸੇ ਪੇਰੈਂਟਸ (ਮਾਪਿਆਂ ਦੇ) ਗਰੁਪ ਤੋਂ; ਜਾਂ</s>
<s>ਕਿਸੇ ਪੇਰੈਂਟ ਪਾਰਟਨਰਸ਼ਿਪ ਐਡਵਾਈਜ਼ਰ (ਸਲਾਹਕਾਰ) ਤੋਂ ।</s></p>

<p><s>ਐਲ-ਈ-ਏ ਨੇ ਤੁਹਾਨੂੰ ਇਹ ਸਭ ਗੱਲਾਂ ਸਮਝਾ ਹੀ ਦਿੱਤੀਆਂ ਹੋਣਗੀਆਂ ।</s> <s>ਇਸ ਪਰਚੇ ਦੇ ਅਖ਼ੀਰ ਵਿਚ ਤੁਹਾਨੂੰ ਨਾਵਾਂ ਅਤੇ ਪਤਿਆਂ ਦੀ ਲਿਸਟ ਮਿਲੇਗੀ ।</s> <s>ਐਲ-ਈ-ਏ ਨੇ ਤੁਹਾਨੂੰ ਇਹ ਵੀ ਪੁੱਛਿਆ ਹੋਏਗਾ ਕਿ ਕੀ ਤੁਹਾਨੂੰ ਸਲਾਹ ਅਤੇ ਮਦਦ ਲੈਣ ਲਈ ਕਿਸੇ ਨਾਮਜ਼ਦ ਬੰਦੇ (ਨੇਮਡ ਪਰਸਨ) ਦੀ ਲੋੜ ਹੈ? (ਇਹਦੇ ਬਾਰੇ ਵੇਰਵਾ ਸਫ਼ਾ <foreign lang="eng">24</foreign> 'ਤੇ ਦੇਖੋ) ।</s> <s>ਵਿਅਕਤੀ, ਦੋਸਤ ਜਾਂ ਰਿਸ਼ਤੇਦਾਰ, ਜਾਂ ਕਿਸੇ ਵਾਲੰਟਰੀ ਸੰਸਥਾ ਜਾਂ ਮਾਪਿਆਂ ਦੀ ਮਦਦ ਕਰਨ ਵਾਲੇ ਗਰੁਪ 'ਚੋਂ ਹੋ ਸਕਦਾ ਹੈ ।</s> <s>ਜੇ ਐਲ-ਈ-ਏ ਨੇ ਤੁਹਾਡੇ ਬੱਚੇ ਦੀਆਂ ਖ਼ਾਸ ਵਿੱਦਿਅਕ ਲੋੜਾਂ ਦੀ ਸਟੇਟਮੈਂਟ ਬਣਾ ਲਈ ਹੈ, ਤਾਂ ਉਹਨਾਂ ਨੇ ਤੁਹਾਡੇ ਨਾਮਜ਼ਦ ਬੰਦੇ ਦਾ ਨਾਂ ਤੁਹਾਨੂੰ ਲਿਖ ਕੇ ਦੱਸਿਆ ਹੋਏਗਾ ।</s></p>

<p><head><s>ਜੇ ਮੈਂ ਅਪੀਲ ਕਰਨ ਦਾ ਫ਼ੈਸਲਾ ਕਰਾਂ, ਤਾਂ ਮੈਨੂੰ ਕਿੱਥੋਂ ਮਦਦ ਮਿਲ ਸਕਦੀ ਹੈ?</s></head></p>

<p><s>ਜੇ ਤੁਸੀਂ ਅਪੀਲ ਕਰਨ ਦਾ ਫ਼ੈਸਲਾ ਕਰ ਲੳ ਤਾਂ ਵਾਲੰਟਰੀ ਸੰਸਥਾਵਾਂ, ਮਾਪਿਆਂ ਦੇ ਗਰੁਪ ਜਾਂ ਤੁਹਾਡਾ ਨਾਮਜ਼ਦ ਬੰਦਾ (ਜੇ ਕੋਈ ਹੈ) ਤਾਂ ਉਹ ਤੁਹਾਡੀ ਮਦਦ ਕਰ ਸਕਦੇ ਹਨ ।</s> <s>ਤੁਹਾਨੂੰ ਜਿੰਨੀ ਵੀ ਮਦਦ ਦੀ ਲੋੜ ਹੈ ਇਹ ਲੋਕ ਆਮ ਤੌਰ ਤੇ ਇਹ ਮਦਦ ਤੁਹਾਨੂੰ ਦੇ ਸਕਦੇ ਹਨ ।</s> <s>ਹੋ ਸਕਦਾ ਹੈ ਕਿ ਤੁਹਾਨੂੰ ਲੀਗਲ ਏਡ (ਕਾਨੂੰਨੀ ਕੰਮ ਕਰਨ ਲਈ ਮਦਦ) ਵੀ ਮਿਲ ਸਕੇ ।</s> <s>ਇਸ ਲਈ ਤੁਸੀਂ ਕਿਸੇ ਸੋਲਿਸਟਰ (ਵਕੀਲ) ਨਾਲ ਮੀਟਿੰਗ ਕਰਕੇ ਆਪਣਾ ਕੇਸ ਤਿਆਰ ਕਰਨ ਬਾਰੇ ਵੀ ਸਲਾਹ ਲੈ ਸਕਦੇ ਹੋ ।</s> <s>ਇਸ ਹਾਲਤ ਵਿਚ ਤੁਹਾਨੂੰ 'ਗਰੀਨ ਫ਼ਾਰਮ' ਲੀਗਲ ਏਡ ਲਈ ਅਰਜ਼ੀ ਦੇਣ ਦੀ ਲੋੜ ਪਏਗੀ ।</s> <s>ਕੋਈ ਵੀ ਸੋਲਿਸਟਰ ਤੁਹਾਨੂੰ ਦੱਸ ਸਕਦਾ ਹੈ ਕਿ ਤੁਹਾਨੂੰ ਇਹ ਮਿਲ ਸਕਦਾ ਹੈ ਜਾਂ ਨਹੀਂ, ਅਤੇ ਤੁਹਾਡੇ ਇਲਾਕੇ ਦਾ ਸਿਟੀਜ਼ਨਜ਼ ਐਡਵਾਈਸ ਬਿਊਰੋ ਤੁਹਾਨੂੰ ਉਹਨਾਂ ਸੋਲਿਸਟਰਾਂ ਦੇ ਨਾਂ ਦੇ ਸਕਦਾ ਹੈ ਜਿਹੜੇ 'ਗਰੀਨ ਫ਼ਾਰਮ' ਸਕੀਮਾਂ ਚਲਾਉਂਦੇ ਹਨ ਅਤੇ ਜਿਹੜੇ ਵਿੱਦਿਅਕ ਮਾਮਲਿਆਂ ਦੇ ਮਾਹਰ ਹੋ ਸਕਦੇ ਹਨ ।</s> <s>ਸਿਟੀਜ਼ਨਜ਼ ਐਡਵਾਈਸ ਬਿਊਰੋਆਂ ਅਤੇ ਸੋਲਿਸਟਰਾਂ ਦੇ ਫ਼ੋਨ ਨੰਬਰ ਤੁਹਾਨੂੰ ਆਪਣੀ ਫ਼ੋਨ ਬੁਕ, ਟਾਮਸਨ ਡਾਇਰੈਕਟਰੀ ਜਾਂ ਯੈਲੋ ਪੇਜਿਜ਼ ਵਿਚ ਮਿਲ ਜਾਣਗੇ ।</s></p>

<p><head><s>ਕੀ ਅਪੀਲ ਕਰਨ ਲਈ ਕੋਈ ਸਮੇਂ ਦੀ ਮਿਆਦ ਵੀ ਹੁੰਦੀ ਹੈ?</s></head></p>

<p><s>ਜੇ ਤੁਸੀਂ ਅਪੀਲ ਕਰਨ ਦਾ ਫ਼ੈਸਲਾ ਕਰੋ ਤਾਂ ਤੁਹਾਡੇ ਕੋਲ ਇਹ ਕੰਮ ਕਰਨ ਲਈ ਦੋ ਮਹੀਨਿਆਂ ਦਾ ਸਮਾਂ ਹੁੰਦਾ ਹੈ ।</s> <s>ਜਦ ਤੁਹਾਨੂੰ ਐਲ-ਈ-ਏ ਲਿਖ ਕੇ ਦੱਸੇ ਕਿ ਤੁਸੀਂ ਅਪੀਲ ਕਰ ਸਕਦੇ ਹੋ, ਉਸ ਤਾਰੀਖ਼ ਤੋਂ ਦੋ ਮਹੀਨੇ ਮਗਰੋਂ ਆਉਣ ਵਾਲੇ ਕੰਮ ਕਾਜ ਦੇ ਪਹਿਲੇ ਦਿਨ ਤੋਂ ਪਹਿਲਾਂ ਹੀ ਤੁਹਾਡੀ ਅਪੀਲ ਟ੍ਰਿਬਿਊਨਲ ਕੋਲ ਪਹੁੰਚ ਜਾਣੀ ਚਾਹੀਦੀ ਹੈ ।</s> <s>ਜੇ ਦੋ ਮਹੀਨੇ ਅਗਸਤ ਵਿਚ ਪੂਰੇ ਹੁੰਦੇ ਹੋਣ ਤਾਂ ਤੁਹਾਨੂੰ ਸਤੰਬਰ ਮਹੀਨੇ ਦੇ ਪਹਿਲੇ ਕੰਮ ਕਾਜ ਦੇ ਦਿਨ ਤਕ ਦਾ ਸਮਾਂ ਮਿਲ ਜਾਂਦਾ ਹੈ ।</s></p>

<p><head><s>ਮੈਂ ਅਪੀਲ ਕਿਵੇਂ ਕਰਾਂ?</s></head></p>

<p><s>ਜੇ ਤੁਸੀਂ ਅਪੀਲ ਕਰਨਾ ਚਾਹੁੰਦੇ ਹੋ ਤਾਂ ਤੁਹਾਨੂੰ ਇਸ ਪਰਚੇ ਦੇ ਪਿਛਲੇ ਵਰਕੇ ਦੇ ਅੰਦਰਲੇ ਪਾਸੇ ਦਿੱਤਾ ਹੋਇਆ ਨੋਟਿਸ ਆੱਵ ਅਪੀਲ ਫ਼ਾਰਮ (ਅਪੀਲ ਦਾ ਨੋਟਿਸ ਫ਼ਾਰਮ) ਭਰਕੇ ਫ਼ਾਰਮ 'ਤੇ ਦਿੱਤੇ ਪਤੇ ਤੇ ਭੇਜਣਾ ਚਾਹੀਦਾ ਹੈ ।</s> <s>ਅਪੀਲ ਕਰਨ ਦੇ ਕਾਰਨ ਵੀ ਤੁਹਾਨੂੰ ਦੰਸਣੇ ਚਾਹੀਦੇ ਹਨ ਅਤੇ ਕੁਝ ਦਸਤਾਵੇਜ਼ਾਂ ਦੀਆਂ ਕਾਪੀਆਂ ਵੀ ਭੇਜਣੀਆਂ ਚਾਹੀਦੀਆਂ ਹਨ ।</s></p>

<p><head><s>ਮੈਨੂੰ ਆਪਣੇ ਨੋਟਿਸ ਆੱਵ ਅਪੀਲ ਦੇ ਨਾਲ ਕਿਹੜੇ ਦਸਤਾਵੇਜ਼ ਭੇਜਣੇ ਚਾਹੀਦੇ ਹਨ?</s></head></p>

<p><s>ਨੋਟਿਸ ਆੱਵ ਅਪੀਲ ਫ਼ਾਰਮ ਭੇਜਣ ਅਤੇ ਅਪੀਲ ਦਾ ਕਾਰਨ ਦੱਸਣ ਵੇਲੇ ਤੁਹਾਨੂੰ ਹੇਠ ਲਿਖੇ ਦਸਤਾਵੇਜ਼ ਵੀ ਨਾਲ ਭੇਜਣੇ ਚਾਹੀਦੇ ਹਨ:</s>
<s>ਐਲ-ਈ-ਏ ਦੇ ਉਸ ਖ਼ਤ ਦੀ ਕਾਪੀ ਜਿਸ ਵਿਚ ਉਹ ਫ਼ੈਸਲਾ ਲਿਖਿਆ ਹੋਵੇ ਜਿਹਦੇ ਵਿਰੁੱਧ ਤੁਸੀਂ ਅਪੀਲ ਕਰ ਰਹੇ ਹੋ;</s>
<s>ਜੇ ਤੁਹਾਡੇ ਬੱਚੇ ਦੀਆਂ ਖ਼ਾਸ ਵਿੱਦਿਅਕ ਲੋੜਾਂ ਦੀ ਸਟੇਟਮੈਂਟ ਬਣੀ ਹੋਈ ਹੈ ਤਾਂ ਉਹਦੀ ਕਾਪੀ;</s>
<s>ਸਟੇਟਮੈਂਟ ਨਾਲ ਲਾਏ ਸਾਰੇ ਕਾਗਜ਼ਾਤ ਦੀ ਕਾਪੀ; (ਦੇਖੋ ਅੰਤਰਾ) ।</s></p>

<p><s>ਜੇ ਤੁਸੀਂ ਇਹ ਸਾਰੇ ਦਸਤਾਵੇਜ਼ ਦੋ ਮਹੀਨਿਆਂ ਦੇ ਸਮੇਂ ਦੀ ਮਿਆਦ ਦੇ ਅੰਤਰ ਨਹੀਂ ਭੇਜੋਗੇ ਤਾਂ ਅਸੀਂ ਤੁਹਾਡੀ ਅਪੀਲ ਨਹੀਂ ਸੁਣ ਸਕਾਂਗੇ ।</s></p>

<p><s>ਜੇ ਤੁਸੀਂ ਬੱਚੇ ਦੀਆਂ ਲੋੜਾਂ ਦਾ ਲੇਖਾ ਜੋਖਾ ਕਰਨੋਂ ਜਾਂ ਦੁਬਾਰਾ ਲੇਖਾ ਜੋਖਾ ਕਰਨੋਂ ਐਲ-ਈ-ਏ ਦੇ ਇਨਕਾਰ ਦੇ ਵਿਰੁੱਧ ਅਪੀਲ ਕਰ ਰਹੇ ਹੋ, ਤਾਂ ਤੁਸੀਂ ਐਲ-ਈ-ਏ ਨੂੰ ਲੇਖਾ ਜੋਖਾ ਕਰਵਾਉਣ ਲਈ ਲਿਖੇ ਆਪਣੇ ਖ਼ਤ ਦੀ ਕਾਪੀ ਵੀ ਨਾਲ ਲਾੳ ।</s></p>

<p><s>ਅਮਲ ਖ਼ਤ ਅਤੇ ਦਸਤਾਵੇਜ਼ ਤੁਸੀਂ ਆਪਣੇ ਕੋਲ ਰੱਖੋ ਅਤੇ ਸਾਨੂੰ ਸਿਰਫ਼ ਉਹਨਾਂ ਦੀਆਂ ਕਾਪੀਆਂ ਹੀ ਭੇਜੋ ।</s> <s>ਜੋ ਕੋਈ ਹੋਰ ਦਸਤਾਵੇਜ਼ ਵੀ ਤੁਹਾਡੇ ਖ਼ਿਆਲ ਵਿਚ ਮਦਦਗਾਰ ਹੋ ਸਕਦੇ ਹਨ ਤਾਂ ਉਹਨਾਂ ਦੀਆਂ ਕਾਪੀਆਂ ਵੀ ਭੇਜੋ ।</s></p>

<p><s>ਜੇ ਤੁਸੀਂ ਸਟੇਟਮੈਂਟ ਵਿਚ ਦੱਸੇ ਸਕੂਲ ਦੇ ਵਿਰੁੱਧ ਅਪੀਲ ਕਰ ਰਹੇ ਹੋ ਤਾਂ ਤੁਸੀਂ ਉਸ ਸਕੂਲ ਦਾ ਨਾਂ ਅਤੇ ਪਤਾ ਦੱਸੋ ਜਿੱਥੇ ਤੁਸੀਂ ਆਪਣੇ ਬੱਚੇ ਨੂੰ ਭੇਜਣਾ ਚਾਹੁੰਦੇ ਹੋ ।</s> <s>ਜੇ ਇਹ ਕੋਈ ਇੰਡੀਪੈਂਡੈਂਟ (ਸੁਤੰਤਰ) ਸਕੂਲ ਹੈ, ਤਾਂ ਆਪਣੇ ਬੱਚੇ ਨੂੰ ਉੱਥੇ ਭੇਜਣ ਲਈ ਤੁਹਾਨੂੰ ਸੈਕ੍ਰੇਟਰੀ ਆਫ਼ ਸਟੇਟ ਤੋਂ ਇਜਾਜ਼ਤ ਲੈਣ ਦੀ ਲੋੜ ਪੈ ਸਕਦੀ ਹੈ ।</s> <s>ਤੁਹਾਨੂੰ ਇਹ ਗੱਲ ਸਾਬਤ ਕਰਨੀ ਪਏਗੀ ਕਿ ਤੁਹਾਡੇ ਬੱਚੇ ਲਈ ਉਸ ਸਕੂਲ ਵਿਚ ਥਾਂ ਹੈ ।</s> <s>ਜੇ ਤੁਸੀਂ ਕਿਸੇ ਗ਼ੈਰ-ਮੇਨਟੇਂਨਡ ਸਕੂਲ ਦਾ ਨਾਂ ਪੇਸ਼ ਕਰ ਰਹੇ ਹੋ ਤਦ ਵੀ ਤੁਹਾਨੂੰ ਇਹ ਸਾਬਤ ਕਰਨਾ ਪਏਗਾ ਕਿ ਉਹ ਸਕੂਲ ਤੁਹਾਡੇ ਬੱਚੇ ਨੂੰ ਥਾਂ ਦੇਵੇਗਾ ।</s> <s>ਅਸੀਂ ਤੁਹਾਨੂੰ ਦੱਸਾਂਗੇ ਕਿ ਇਹਨਾਂ ਹਾਲਤਾਂ ਵਿਚ ਤੁਹਾਨੂੰ ਕੀ ਕਰਨਾ ਚਾਹੀਦਾ ਹੈ ।</s></p>

<p><head><s>ਕੀ ਅਪੀਲ ਮੈਨੂੰ ਖ਼ੁਦ ਭੇਜਣੀ ਪਏਗੀ?</s></head></p>

<p><s>ਤੁਹਾਨੂੰ ਨੋਟਿਸ ਆਫ਼ ਅਪੀਲ ਦੇ ਫ਼ਾਰਮ 'ਤੇ ਖ਼ੁਦ ਆਪਣੇ ਦਸਤਖ਼ਤ ਕਰਨੇ ਪੈਣਗੇ ।</s> <s>ਜੇ ਤੁਸੀਂ ਕਿਸੇ ਹੋਰ ਦੇ ਨਾਲ ਮਿਲਕੇ ਸਾਂਝੀ ਅਪੀਲ ਕਰ ਰਹੇ ਹੋ ਤਾਂ ਤੁਹਾਨੂੰ ਦੋਹਾਂ ਨੂੰ ਦਸਤਖ਼ਤ ਕਰਨੇ ਪੈਣਗੇ ।</s> <s>ਜੇ ਤੁਹਾਡਾ ਕੋਈ ਨੁਮਾਇੰਦਾ ਤੁਹਾਡੀ ਮਦਦ ਕਰ ਰਿਹਾ ਹੈ ਤਾਂ ਉਹਦਾ ਨਾਂ ਅਤੇ ਪਤਾ ਨੋਟਿਸ ਆਫ਼ ਅਪੀਲ ਫ਼ਾਰਮ 'ਤੇ ਲਿਖੋ (ਸੈਕਸ਼ਨ <foreign lang="eng">3</foreign>) ।</s> <s>ਤਦ ਅਸੀਂ ਸਾਰੇ ਖ਼ਤ ਅਤੇ ਕਾਗਜ਼ਾਤ ਉਸ ਬੰਦੇ ਨੂੰ ਭੇਜਾਂਗੇ, ਪਰ ਤਦ ਨਹੀਂ ਜੇ ਤੁਸੀਂ ਸਾਨੂੰ ਇਹ ਕਹੋ ਕਿ ਕਾਗਜ਼ਾਤ ਤੁਹਾਨੂੰ ਭੇਜੇ ਜਾਣ ।</s> <s>ਟ੍ਰਿਬਿਊਨਲ ਇਹ ਕਾਗਜ਼ਾਤ ਤੁਹਾਨੂੰ ਅਤੇ ਨੁਮਾਇੰਦੇ ਦੋਹਾਂ ਨੂੰ ਨਹੀਂ ਭੇਜੇਗਾ ।</s> <s>ਜੇ ਤੁਸੀਂ ਚਾਹੁੰਦੇ ਹੋ ਕਿ ਨੁਮਾਇੰਦਾ ਤੁਹਾਡੀ ਅਪੀਲ ਦੇ ਕੰਮ ਨੂੰ ਸੰਭਾਲੇ ਤਾਂ ਇਹ ਗੱਲ ਪੱਕੀ ਕਰ ਲੳ ਕਿ ਤੁਸੀਂ ਇਹਦੇ ਬਾਰੇ ਰਜ਼ਾਮੰਦ ਹੋ ਗਏ ਹੋਵੋ ।</s> <s>ਜੇ ਤੁਸੀਂ ਬਾਅਦ ਵਿਚ ਨੁਮਾਇੰਦੇ ਦੇ ਬਾਰੇ ਆਪਣਾ ਇਰਾਦਾ ਬਦਲ ਲੳ ਜਾਂ ਨੁਮਾਇੰਦਾ ਬਦਲ ਲੳ ਤਾਂ ਸਾਨੂੰ ਜ਼ਰੂਰ ਦੱਸੋ ।</s></p>

<p><head><s>ਕੀ ਮੈਨੂੰ ਅਪੀਲ ਅੰਗਰੇਜ਼ੀ ਵਿਚ ਕਰਨੀ ਪਏਗੀ ?</s></head></p>

<p><s>ਜੇ <corr sic="ਅੰਰੇਜ਼ੀ">ਅੰਗਰੇਜ਼ੀ</corr> ਤੁਹਾਡੀ ਪਹਿਲੀ ਭਾਸ਼ਾ ਨਹੀਂ ਹੈ ਤਾਂ ਤੁਸੀਂ ਆਪਣੀ ਭਾਸ਼ਾ ਵਿਚ ਅਪੀਲ ਕਰ ਸਕਦੇ ਹੋ, ਅਤੇ ਟ੍ਰਿਬਿਊਨਲ ਤੁਹਾਡੇ ਦਸਤਾਵੇਜ਼ਾਂ ਦਾ ਅੰਗਰੇਜ਼ੀ ਵਿਚ ਤਰਜਮਾ ਕਰਵਾਏਗਾ ।</s> <s>ਸੁਣਵਾਈ ਅੰਗਰੇਜ਼ੀ ਵਿਚ ਹੋਏਗੀ ਪਰ ਅਸੀਂ ਗੱਲ ਸਮਝਣ ਸਮਝਾਉਣ ਲਈ ਦੁਭਾਸ਼ੀਏ ਦਾ ਪ੍ਰਬੰਧ ਕਰ ਸਕਦੇ ਹਾਂ ।</s> <s>ਇਹਦੀ ਮੰਗ ਤੁਹਾਨੂੰ ਸੁਣਵਾਈ ਤੋਂ ਕਾਫ਼ੀ ਸਮਾਂ ਪਹਿਲਾਂ ਕਰਨੀ ਚਾਹੀਦੀ ਹੈ ।</s></p>

<p><s>ਜੇ ਤੁਸੀਂ ਵੇਲਜ਼ ਵਿਚ ਰਹਿੰਦੇ ਹੋ ਤਾਂ ਤੁਸੀਂ <corr sic="ਵੈਲਸ਼">ਵੈਲਜ਼</corr> ਵਿਚ ਅਪੀਲ ਕਰ ਸਕਦੇ ਹੋ ।</s> <s>ਤੁਸੀਂ ਜਾਂ ਐਲ-ਈ-ਏ ਸਾਨੂੰ <corr sic="ਵੈਲਸ਼">ਵੈਲਜ਼</corr> ਵਿਚ ਲਿਖ ਸਕਦੇ ਹਨ, ਅਤੇ ਅਸੀਂ ਅਪੀਲ ਵੀ <corr sic="ਵੈਲਸ਼">ਵੈਲਜ਼</corr> ਵਿਚ ਸੁਣਨ ਲਈ ਆਖਾਂਗੇ ।</s> <s>ਅਸੀਂ ਲੋੜੀਂਦਾ ਪ੍ਰੰਬਧ ਕਰਾਂਗੇ, ਪਰ ਜਿੰਨਹ ਵੀ ਛੇਤੀ ਹੋ ਸਕੇ ਤੁਸੀਂ ਸਾਨੂੰ <corr sic="ਵੈਲਸ਼">ਵੈਲਜ਼</corr> ਭਾਸ਼ਾ ਵਰਤਣ ਬਾਰੇ ਦੱਸ ਦਿੳ ।</s></p>

<p><head><s>ਮੇਰੀ ਅਪੀਲ ਨੂੰ ਕੁਲ ਕਿੰਨਾਂ ਸਮਾਂ ਲਗੇਗਾ?</s></head></p>

<p><s>ਟ੍ਰਿਬਿਊਨਲ ਦੇ ਕੋਲ ਤੁਹਾਡੀ ਅਪੀਲ ਪਹੁੰਚਣ ਦੇ ਪਹਿਲੇ ਦਿਨ ਤਂੋ ਬਾਅਦ ਟ੍ਰਿਬਿਊਨਲ ਦਾ ਫ਼ੈਸਲਾ ਤੁਹਾਨੂੰ ਚਾਰ ਜਾਂ ਪੰਜ ਮਹੀਨਿਆਂ ਦੇ ਅੰਦਰ ਮਿਲ ਜਾਏਗਾ (ਜੇ ਵਿਚ ਅਗਸਤ ਦਾ ਮਹੀਨਾ ਵੀ ਆ <corr sic="ਜਏ">ਜਾਏ</corr> ਤਾਂ ਪੰਜ ਜਾਂ ਛੇ ਮਹੀਨਿਆਂ ਵਿਚ) ।</s> <s>(ਸਫ਼ਾ <foreign lang="eng">25</foreign> 'ਤੇ ਟਾਈਮਟੇਬਲ ਦੇਖੋ) ।</s></p>

<p><head><s>ਇਹਤਂੋ ਬਾਅਦ ਕੀ ਹੋਏਗਾ?</s></head></p>

<p><head><s>ਮੇਰੇ ਵਲੋਂ ਅਪੀਲ ਜਾਣ ਤੇ ਕੀ ਹੁੰਦਾ ਹੇ?</s></head></p>

<p><s>ਜਦ ਤੁਹਾਡਾ ਨੋਟਿਸ ਆਵ ਅਪੀਲ ਸਾਨੂੰ ਮਿਲੇਗਾ, ਤਾਂ ਸਭ ਤਂੋ ਪਹਿਲਾਂ ਅਸੀਂ ਇਹ ਫ਼ੈਸਲਾ ਕਰਾਂਗੇ ਕਿ ਕੀ ਇਸ ਅਪੀਲ ਨੂੰ ਟ੍ਰਿਬਿਊਨਲ ਸੁਣ ਵੀ ਸਕਦਾ ਹੈ</s></p>

<p><s>ਜੇ ਅਸੀਂ ਅਪੀਲ ਨਹੀਂ ਸੁਣ ਸਕਦੇ ਤਾਂ ਅਸੀਂ ਤੁਹਾਨੂੰ ਲਿਖ ਕੇ ਦੱਸਾਂਗੇ ।</s></p>

<p><s>ਜੇ ਅਸੀਂ ਸੁਣ ਸਕਦੇ ਹਾਂ, ਤਾਂ ਅਸੀਂ ਤੁਹਾਨੂੰ ਦੱਸਾਂਗੇ ਕਿ ਅਸੀਂ ਤੁਹਾਡੀ ਅਪੀਲ ਰਜਿਸਟਰ ਕਰ ਲਈ ਹੈ ਅਤੇ ਤੁਹਾਡੇ ਵਲੋਂ ਆਏ ਸਾਰੇ ਦਸਤਾਵੇਜ਼ਾਂ ਦੀਆਂ ਕਾਪੀਆਂ ਅਸੀਂ ਐਲ-ਈ-ਏ ਨੂੰ ਭੇਜਾਂਗੇ ।</s> <s>ਅਸੀਂ ਤੁਹਾਨੂੰ ਇਹ ਵੀ ਦੱਸਾਂਗੇ ਕਿ ਸੁਣਵਾਈ ਕਦ ਕੁ ਹੋ ਸਕਦੀ ਹੈ ਅਤੇ ਅਸੀਂ ਤੁਹਾਨੂੰ ਪੁੱਛਾਂਗੇ ਕਿ ਤੁਸੀਂ ਕਿਹੜੀਆਂ ਤਰੀਖ਼ਾਂ ਨੂੰ ਸੁਣਵਾਈ 'ਤੇ ਨਹੀਂ ਆ ਸਕਦੇ ।</s></p>

<p><head><s>ਮੇਰੀ ਅਪੀਲ ਦੇ ਬਾਰੇ ਐਲ-ਈ-ਏ ਕੀ ਕਰੇਗੀ ?</s></head></p>

<p><s>ਐਲ-ਈ-ਏ ਨੂੰ ਤੁਹਾਡੇ ਨੋਟਿਸ ਆਵ ਅਪੀਲ ਅਤੇ ਹੋਰ ਦਸਤਾਵੇਜ਼ਾਂ ਦੀਆਂ ਕਾਪੀਆਂ ਮਿਲਣ ਤਂੋ ਮਗਰੋਂ <foreign lang="eng">20</foreign> ਦਿਨਾਂ ਦੇ ਅੰਦਰ ਆਪਣਾ ਜਵਾਬ <corr sic="ਜਾਡੇ">ਸਾਡੇ</corr> ਤਕ ਪਹੁੰਚਾਉਣਾ ਪੈਂਦਾ ਹੈ ।</s> <s>ਜਵਾਬ ਵਿਚ ਉਹ ਸਾਨੂੰ ਦੱਸਣਗੇ ਕਿ ਕੀ ਉਹ ਤੁਹਾਡੀ ਅਪੀਲ ਦਾ ਵਿਰੋਧ ਕਰਨਗੇ ਜਾਂ ਨਹੀਂ ।</s> <s>ਜੇ ਉਹਨਾਂ ਨੇ ਵਿਰੋਧ ਕਰਨਾ ਹੋਵੇ ਤਾਂ ਉਹਨਾਂ ਨੂੰ ਇਹਦਾ ਕਾਰਨ ਦੱਸਣਾ ਪਏਗਾ ।</s> <s>ਅਸੀਂ ਐਲ-ਈ-ਏ ਦੇ ਜਵਾਬ ਦੀ ਕਾਪੀ ਤੁਹਾਨੂੰ ਭੇਜਾਂਗੇ, ਅਤੇ ਹੇਠ ਲਿਖੀਆਂ ਗੱਲਾਂ ਲਾਗੂ ਹੋਣਗੀਆਂ:</s>
<s>ਜੇ ਉਹ ਤੁਹਾਡੀ ਅਪੀਲ ਦਾ ਵਿਰੋਧ ਕਰ ਰਹੇ ਹਨ ਤਾਂ ਅਸੀਂ ਤੁਹਾਨੂੰ ਭਰਨ ਲਈ ਇਕ ਫ਼ਾਰਮ ਭੇਜਾਂਗੇ (ਅਟੈਂਡੈਂਸ ਫ਼ਾਰਮ, ਯਾਨਿ ਹਾਜ਼ਰ ਹੋਣ ਦਾ ਫ਼ਾਰਮ) ਜਿਹਦੇ ਵਿਚ ਦੱਸਿਆ ਹੋਏਗਾ ਕਿ ਸੁਣਵਾਈ 'ਤੇ ਕੌਣ ਆ ਰਿਹਾ ਅਤੇ ਇਸ ਗੱਲ ਬਾਰੇ ਜਾਣਕਾਰੀ ਕਿ ਸੁਣਵਾਈ ਕਿਹੋ ਜਿਹੀ ਹੋਏਗੀ ।</s>
<s>ਜੇ ਉਹ ਤੁਹਾਡੀ ਅਪੀਲ ਦਾ ਵਿਰੋਧ ਨਹੀਂ ਕਰਨਗੇ, ਤਾਂ ਅਸੀਂ ਤੁਹਾਨੂੰ ਲਿਖ ਕੇ ਪੁੱਛਾਂਗੇ ਕਿ ਕੀ ਤੁਸੀਂ ਅਪੀਲ ਵਾਪਸ ਲੈਣਾ ਚਾਹੁੰਦੇ ਹੋ?</s> <s>ਅਸੀਂ ਅਪੀਲ ਵਾਪਸ ਲੈਣ ਵਾਲਾ ਫ਼ਾਰਮ ਭੇਜਾਂਗੇ ਜਿਹਦੇ 'ਤੇ ਜੇ ਤੁਸੀਂ ਚਾਹੋ ਤਾਂ ਦਸਤਖ਼ਤ ਕਰਕੇ ਸਾਨੂੰ ਭੇਜ ਸਕਦੇ ਹੋ ।</s> <s>ਫਿਰ ਟ੍ਰਿਬਿਊਨਲ ਹੋਰ ਕੋਈ ਕਾਰਵਾਈ ਨਹੀਂ ਕਰੇਗਾ ।</s> <s>ਜੇ ਤੁਸੀਂ ਅਪੀਲ ਵਾਪਸ ਨਹੀਂ ਲੈਨਾ ਚਾਹੁੰਦੇ ਤਾਂ ਅਸੀਂ ਇਹ ਅਪੀਲ ਟ੍ਰਿਬਿਊਨਲ ਕੋਲ ਫ਼ੈਸਲਾ ਕਰਨ ਲਈ ਭੇਜ ਦਿਆਂਗੇ ਕਿ ਕੀ ਉਹ ਭੇਜੇ ਗਏ ਕਾਗਜ਼ਾਤ ਦੇ ਆਧਾਰ ਤੇ ਹੀ ਤੁਹਾਡੀ ਅਪੀਲ ਦਾ ਫ਼ੈਸਲਾ ਕਰੇ ਜਾਂ ਸੁਣਵਾਈ ਦੀ ਲੋੜ ਪਏਗੀ ।</s> <s>ਜੇ ਉਹ ਸੁਣਵਾਈ ਦੀ ਲੋੜ ਸਮਝੇ ਤਾਂ ਸੁਣਵਾਈ 'ਤੇ ਸਿਰਫ਼ ਤੁਸੀਂ ਆੳਗੇ, ਐਲ-ਈ-ਏ ਨਹੀਂ ।</s>
<s>ਜੇ ਐਲ ਈ ਏ ਸਮਝੇ ਕਿ ਤੁਹਾਡੀ ਅਪੀਲ ਜਾਇਜ਼ ਨਹੀਂ ਹੈ ਤਾਂ ਉਹ ਵੀ ਇਸ ਅਪੀਲ ਨੂੰ ਖ਼ਾਰਜ ਕਰਨ ਲਈ ਅਰਜ਼ੀ ਦੇ ਸਕਦੀ ਹੈ ।</s> <s>ਜੇ ਇਹ ਗੱਲ ਹੋਵੇ ਤਾਂ ਅਸੀਂ ਉਹਦੀ ਅਰਜ਼ੀ ਦੀ ਕਾਪੀ ਤੁਹਾਨੂੰ ਭੇਜਾਂਗੇ, ਜਿਹਦੇ ਬਾਰੇ ਤੁਸੀਂ ਆਪਣੇ ਵਿਚਾਰ ਦੇ ਸਕਦੇ ਹੋ ।</s></p>

<p><head><s>ਕੀ ਮੈਂ ਐਲ-ਈ-ਏ ਦੇ ਜਵਾਬ ਦੇ ਬਾਰੇ ਆਪਣੇ ਵਿਚਾਰ ਪੇਸ਼ ਕਰ ਸਕਦਾ ਜਾਂ ਸਕਦੀ ਹਾਂ?</s></head></p>

<p><s>ਜੇ ਐਲ-ਈ-ਏ ਤੁਹਾਡੀ ਅਪੀਲ ਦਾ ਵਿਰੋਧ ਕਰੇ ਤਾਂ ਐਲ-ਈ-ਏ ਦੇ ਜਵਾਬ ਦੇ ਬਾਰੇ ਤੁਸੀਂ ਆਪਣੇ ਵਿਚਾਰ ਪੇਸ਼ ਕਰ ਸਕਦੇ ਹੋ ।</s> <s>ਪਰ ਇਹ ਵਿਚਾਰ ਸਾਡੇ ਵਲੋਂ ਐਲ-ਈ-ਏ ਦਾ ਜਵਾਬ ਨੂੰ ਤੁਹਾਨੂੰ ਭੇਜੇ ਜਾਣ ਮਗਰੋਂ ਕੰਮ ਕਾਜ ਦੇ <foreign lang="eng">15</foreign> ਦਿਨਾਂ ਦੇ ਅੰਦਰ ਸਾਡੇ ਕੋਲ ਜ਼ਰੂਰ ਪਹੁੰਚ ਜਾਣੇ ਚਾਹੀਦੇ ਹਨ ।</s> <s>ਅਸੀਂ ਤੁਹਾਨੂੰ ਦੱਸਾਂਗੇ ਕਿ ਕਿਸ ਤਾਰੀਖ਼ ਤਕ ਇਹ ਸਾਡੇ ਕੋਲ ਪਹੁੰਚਣੇ ਜ਼ਰੂਰੀ ਹਨ ।</s></p>

<p><head><s>ਕੀ ਮੈਂ ਆਪਣੇ ਕੇਸ ਨੂੰ ਮਜ਼ਬੂਤ ਕਰਨ ਲਈ ਕੋਈ ਹੋਰ ਦਸਤਾਵੇਜ਼ ਵੀ ਭੇਜ ਸਕਦਾ ਜਾਂ ਸਕਦੀ ਹਾਂ ?</s></head></p>

<p><s>ਤੁਸੀਂ ਸਿਰਫ਼ ਆਪਣੇ ਨੋਟਿਸ ਆਵ ਅਪੀਲ ਜਾਂ ਐਲ-ਈ-ਏ ਦੇ ਜਵਾਬ ਵਾਲੇ ਖ਼ਤ ਦੇ ਨਾਲ ਹੀ ਕੋਈ ਦਸਤਾਵੇਜ਼ ਭੇਜ ਸਕਦੇ ਹੋ ।</s> <s>ਜੇ ਸਾਡੇ ਵਲੋਂ ਦਿੱਤੀ ਆਖ਼ਰੀ ਤਾਰੀਖ਼ ਤੋਂ ਪਹਿਲਾਂ ਤੁਸੀਂ ਸਾਨੂੰ ਆਪਣਾ ਜਵਾਬ ਭੇਜੋਗੇ ਅਤੇ ਇਹਤੋਂ ਮਗਰੋਂ ਤੁਸੀਂ ਦਸਤਾਵੇਜ਼ ਭੇਜਣਾ ਚਾਹੋ ਤਾਂ ਦਸਤਾਵੇਜ਼ ਤੁਸੀਂ ਆਖ਼ਿਰੀ ਤਾਰੀਖ਼ ਤੋਂ ਪਹਿਲਾਂ ਹੀ  ਭੇਜ ਸਕਦੇ ਹੋ ।</s> <s>ਪਰ ਟ੍ਰਿਬਿਊਨਲ ਦੇ ਪ੍ਰਧਾਨ ਕੋਲੋਂ ਤੁਹਾਨੂੰ ਇਹਦੀ ਇਜਾਜ਼ਤ ਮੰਗਣੀ ਪਏਗੀ ।</s> <s>ਪ੍ਰਧਾਨ ਸਿਰਫ਼ ਖ਼ਾਸ ਹਾਲਤਾਂ ਵਿਚ ਹੀ ਵਾਧੂ ਸਬੂਤ ਦੇਣ ਦੀ ਇਜਾਜ਼ਤ ਦੇ ਸਕਦਾ ਹੈ ।</s> <s>ਤੁਹਾਨੂੰ ਲਿਖ ਕੇ ਸਮਝਾਉਣਾ ਪਏਗਾ ਕਿ ਤੁਸੀਂ ਜਵਾਬ ਦੇ ਨਾਲ ਹੀ ਇਹ ਸਬੂਤ ਕਿਊਂ ਨਹੀਂ ਭੇਜਿਆ ।</s></p>

<p><s>ਤੁਹਾਡੇ ਜਵਾਬ ਦੀ ਆਖ਼ਿਰੀ ਤਾਰੀਖ਼ ਗੁਜ਼ਰ ਜਾਣ ਮਗਰੋਂ ਤੁਸੀਂ ਸਿਰਫ਼ ਸੁਣਵਾਈ ਵੇਲੇ ਹੀ ਟ੍ਰਿਬਿਊਨਲ ਨੂੰ ਹੋਰ ਸਬੂਤ ਸਵੀਕਾਰ ਕਰਨ ਲਈ ਕਹਿ ਸਕਦੇ ਹੋ ।</s> <s>ਜੇ ਤੁਸੀਂ ਸੁਣਵਾਈ ਵੇਲੇ ਸਬੂਤ ਦੀਆਂ ਛੇ ਕਾਪੀਆਂ ਨਾਲ ਲਿਆੳ ਤਾਂ ਇਹਦੇ ਨਾਲ ਟ੍ਰਿਬਿਊਨਲ ਦੇ ਕੰਮ ਵਿਚ ਮਦਦ ਹੋ ਸਕਦੀ ਹੈ, ਪਰ ਟ੍ਰਿਬਿਊਨਲ ਸਿਰਫ਼ ਖ਼ਾਸ ਹਾਲਤਾਂ ਵਿਚ ਹੀ ਹੋਰ ਸਬੂਤ ਸਵੀਕਾਰ ਕਰੇਗਾ ।</s></p>

<p><s>ਬਾਅਦ ਵਿਚ ਸਬੂਤ ਭੇਜਣ ਦੇ ਇਹੋ ਜਿਹੇ ਨਿਯਮ ਐਲ-ਈ-ਏ ਤੇ ਵੀ ਲਾਗੂ ਹੁੰਦੇ ਹਨ ।</s> <s>ਜੇ ਤੁਹਾਡੇ ਵਿਚਾਰ ਮਿਲਣ ਤੋਂ ਪਹਿਲਾਂ ਐਲ-ਈ-ਏ ਵਲੋਂ ਕੋਈ ਸਬੂਤ ਦੇਰ ਨਾਲ ਆਏ ਤਾਂ ਅਸੀਂ ਉਹਦੀ ਕਾਪੀ ਤੁਹਾਨੂੰ ਭੇਜਾਂਗੇ ।</s></p>

<p><head><s>ਜੇ ਮੈਨੂੰ ਆਪਣੇ ਕੇਸ ਲਈ ਮਦਦਕਾਰੀ ਕੋਈ ਦਸਤਾਵੇਜ਼ ਲੱਭਣ ਵਿਚ ਮੁਸ਼ਕਿਲ ਆ ਰਹੀ ਹੋਵੇ, ਤਾਂ?</s></head></p>

<p><s>ਜੇ ਤੁਸੀਂ ਸੁਣਵਾਈ ਤੋਂ ਕਾਫ਼ੀ ਸਮਾਂ ਪਹਿਲਾਂ ਸਾਨੂੰ ਦੱਸ ਦਿੳ ਕਿ ਇਹ ਦਸਤਾਵੇਜ਼ ਕਿਹੜਾ ਹੈ, ਤਾਂ ਹੋ ਸਕਦਾ ਹੈ ਟ੍ਰਿਬਿਊਨਲ ਦਾ ਪ੍ਰਧਾਨ ਐਲ-ਈ-ਏ ਨੂੰ ਇਹ ਦਸਤਾਵੇਜ਼ ਪੇਸ਼ ਕਰਨ ਲਈ ਕਹੇ ।</s> <s>ਪਹਿਲਾਂ ਤਾਂ ਉਹ ਐਲ-ਈ-ਏ ਨੂੰ ਪੁੱਛੇਗਾ ਕਿ ਉਹਨਾਂ ਨੂੰ ਇਹ ਦਸਤਾਵੇਜ਼ ਪੇਸ਼ ਕਰਨ ਵਿਚ ਕੋਈ ਇਤਰਾਜ਼ ਤਾਂ ਨਹੀਂ ।</s> <s>ਜੇ ਉਹਨਾਂ ਨੂੰ ਇਤਰਾਜ਼ ਹੋਵੇ ਤਾਂ ਉਹ ਐਲ-ਈ-ਏ ਨੂੰ ਇਹ ਦਸਤਾਵੇਜ਼ ਪੇਸ਼ ਕਰਨ ਲਈ ਕਹਿਣ ਦਾ ਫ਼ੈਸਲਾ ਕਰਨ ਤੋਂ ਪਹਿਲਾਂ ਇਸ ਇਤਰਾਜ਼ ਨੂੰ ਵੀ ਧਿਆਨ ਵਿਚ ਰੱਖੇਗਾ ।</s></p>

<p><s>ਇਕ ਕੰਮ ਨੂੰ ਪ੍ਰਧਾਨ ਵਲੋਂ ਆਦੇਸ਼ ਜਾਰੀ ਕਰਨਾ (ਇਸੂਇੰਗ ਏ ਪ੍ਰੈਜ਼ੀਡੈਂਟ'ਸ ਡਾਇਰੈਕਸ਼ਨ) ਆਖਿਆ ਜਾਂਦਾ ਹੈ ।</s></p>

<p><head><s>ਕੀ ਮੈਂ ਆਪਣੀ ਆਪੀਲ ਵਪਸ ਲੈ ਸਕਦਾ ਜਾਂ ਸਕਦੀ ਹਾਂ?</s></head></p>

<p><s>ਤੁਸੀਂ ਸੁਣਵਾਈ ਤਂੋ ਪਹਿਲਾਂ ਕਿਸੇ ਵੇਲੇ ਵੀ ਟ੍ਰਿਬਿਊਨਲ ਦੇ ਦਫ਼ਤਰ ਸਾਨੂੰ ਖ਼ਤ ਲਿਖ ਕੇ ਅਪੀਲ ਵਾਪਸ ਲੈ ਸਕਦੇ ਹੋ ।</s> <s>ਜਾਂ ਇਹਦੀ ਥਾਂ ਤੇ ਅਸੀਂ ਵੀ ਤੁਹਾਨੂੰ ਅਪੀਲ ਵਾਪਸ ਲੈਣ ਵਾਲਾ ਫ਼ਾਰਮ ਭੇਜ ਸਕਦੇ ਹਾਂ ।</s> <s>ਨੋਟਿਸ ਆੱਵ ਅਪੀਲ ਦੇ ਫ਼ਾਰਮ 'ਤੇ ਦਸਤਖ਼ਤ ਕਰਨ ਵਾਲੇ ਨੂੰ ਹੀ ਅਪੀਲ ਵਾਪਸ ਲੈਣ ਵਾਲੇ ਫ਼ਾਰਮ 'ਤੇ ਦਸਤਖ਼ਤ ਕਰਨੇ ਪੈਣਗੇ ।</s> <s>ਤੁਸੀਂ ਸੁਣਵਾਈ ਵੇਲੇ ਵੀ ਚੇਅਰਮੈਨ ਨੂੰ ਦੱਸ ਕੇ ਅਪੀਲ ਵਾਪਸ ਲੈ ਸਕਦੇ ਹੋ ।</s></p>

<p><head><s>ਸੁਣਵਾਈ</s></head></p>

<p><head><s>ਸੁਣਵਾਈ ਤੋਂ ਪਹਿਲਾਂ ਮੈਨੂੰ ਕਿੰਨੀ ਦੇਰ ਪਹਿਲਾਂ ਇਹਦਾ ਨੋਟਿਸ ਮਿਲੇਗਾ?</s></head></p>

<p><s>ਜਦ ਅਸੀਂ ਤੁਹਾਨੂੰ ਲਿਖਾਂਗੇ ਕਿ ਤੁਹਾਡੀ ਅਪੀਲ ਮਨਜ਼ੂਰ ਹੋ ਗਈ ਹੈ, ਤਾਂ ਅਸੀਂ ਤੁਹਾਨੂੰ ਅਤੇ ਐਲ-ਈ-ਏ ਨੂੰ ਪੁੱਛਾਂਗੇ ਕਿ ਤੁਸੀਂ ਅਤੇ ਉਹ ਕਿਹੜੀਆਂ ਤਾਰੀਖ਼ਾਂ ਨੂੰ ਸੁਣਵਾਈ ਲਈ ਨਹੀਂ ਆ ਸਕਦੇ ।</s> <s>ਫਿਰ ਟ੍ਰਿਬਿਊਨਲ ਕੋਈ ਤਾਰੀਖ਼ ਨਿਸ਼ਚਿਤ ਕਰੇਗਾ ।</s> <s>ਜੇ ਸਾਨੂੰ ਤੁਹਾਡਾ ਜਵਾਬ ਨਾ ਮਿਲੇ ਤਾਂ ਟ੍ਰਿਬਿਊਨਲ ਆਪਣੇ ਆਪ ਹੀ ਕੋਈ ਤਾਰੀਖ਼ ਨਿਸ਼ਚਿਤ ਕਰ ਦੇਵੇਗਾ ।</s> <s>ਤਾਰੀਖ਼ ਨਿਸ਼ਚਿਤ ਹੋਣ ਮਗਰੇਂ ਜਿੰਨੀ ਵੀ ਛੇਤੀ ਹੋ ਸਕੇ ਅਸੀਂ ਤੁਹਾਨੂੰ ਦੱਸ ਦੇਵਾਂਗੇ ।</s> <s>ਸੁਣਵਾਈ ਤੋਂ ਕੰਮ ਕਾਜ ਦੇ ਘੱਟੋ ਘੱਟ <foreign lang="eng">10</foreign> ਦਿਨ ਪਹਿਲਾਂ ਅਸੀਂ ਤੁਹਾਨੂੰ ਫਿਰ ਖ਼ਤ ਲਿਖਕੇ ਸੁਣਵਾਈ ਦੀ ਤਾਰੀਖ਼, ਸਮਾਂ, ਥਾਂ ਅਤੇ ਆਉਣ ਵਾਲੇ ਲੋਕਾਂ ਦੇ ਨਾਂ ਪੱਕੇ ਕਰਾਂਗੇ ।</s></p>

<p><head><s>ਸੁਣਵਾਈ ਕਿੱਥੇ ਹੋਏਗੀ?</s></head></p>

<p><s>ਟ੍ਰਿਬਿਊਨਲ ਇਲਾਕਾਈ ਕੇਂਦਰਾਂ ਵਿਚ ਸੁਣਵਾਈ ਕਰਦਾ ਹੈ <corr sic="ਜਿੱਬੇ">ਜਿੱਥੇ </corr> ਪਹੁੰਚਣਾ ਸੌਖਾ ਹੁੰਦਾ ਹੈ ।</s> <s>ਲੰਡਨ ਅਤੇ ਇੰਗਲੈਂਡ ਦੇ ਦੱਖਣ-ਪੂਰਬੀ ਹਿੱਸਿਆਂ ਤੋਂ ਅਪੀਲਾਂ ਟ੍ਰਿਬਿਊਨਲ ਦੇ ਲੰਡਨ ਹੈੱਡਆਫ਼ਿਸ ਵਿਚ ਸੁਣੀਆਂ ਜਾਂਦੀਆਂ ਹਨ ।</s></p>

<p><head><s>ਸੁਣਵਾਈ ਕਿਸ ਵੇਲੇ ਸ਼ੁਰੂ ਹੋਏਗੀ ?</s></head></p>

<p><s>ਟ੍ਰਿਬਿਊਨਲ ਵਲੋਂ ਸੁਣਵਾਈਆਂ ਆਮ ਤੌਰ ਤੇ ਦਫ਼ਤਰੀ ਕੰਮ ਕਾਜ ਦੇ ਸਮਂੇ ਵਿਚ ਹੀ ਕੀਤੀਆਂ ਜਾਂਦੀਆਂ ਹਨ ।</s> <s>ਤੁਹਾਡੀ ਸੁਣਵਾਈ ਲਈ ਕੋਈ ਸਮਾਂ ਨਿਸ਼ਚਿਤ ਕੀਤਾ ਜਾਏਗਾ ।</s> <s>ਇਹ ਸਮਾਂ ਆਮ ਤੌਰ ਤੇ ਅੱਧਾ ਦਿਨ ਹੋਏਗਾ ।</s> <s>ਅਸੀਂ ਪੂਰੀ ਕੋਸ਼ਿਸ਼ ਕਰਾਂਗੇ ਕਿ ਸੁਣਵਾਈ ਸਮੇਂ ਸਿਰ ਸ਼ੁਰੂ ਹੋ ਜਾਏ, ਪਰ ਕਈ ਵਾਰੀ ਕੁਝ ਦੇਰ ਵੀ ਹੋ ਸਕਦੀ ਹੈ ।</s> <s>ਜਿਵੇਂ ਕਿ, ਪਿਛਲਾ ਕੇਸ ਆਸ ਤੋਂ ਵੱਧ ਲਮਕ ਜਾਏ ਤਾਂ ਅਜਿਹਾ ਹੋ ਸਕਦਾ ਹੈ ।</s></p>

<p><head><s>ਮੇਰਾ ਕੇਸ ਕੌਣ ਸੁਣੇਗਾ?</s></head></p>

<p><s>ਟ੍ਰਿਬਿਊਨਲ ਦੇ ਪੈਨਲ ਵਿਚ ਤਿੰਨ ਬੰਦੇ ਹੁੰਦੇ ਹਨ ।</s> <s>ਪੈਨਲ ਦਾ ਚੇਅਰਮੈਨ ਕਾਨੂੰਨ ਦਾ ਮਾਹਿਰ ਹੁੰਦਾ ਹੈ ।</s> <s>ਬਾਕੀ ਦੋ ਮੈਂਬਰਾਂ ਨੂੰ ਖ਼ਾਸ ਵਿੱਦਿਅਕ ਲੋੜਾਂ ਦਾ ਲੋਕਲ ਗਵਰਨਮੈਂਟ ਜਾਂ ਦੋਹਾਂ ਦਾ ਤਜਰਬਾ ਹੁੰਦਾ ਹੈ ।</s></p>

<p><head><s>ਕੀ ਸੁਣਵਾਈ ਪ੍ਰਾਈਵੇਟ ਹੋਏਗੀ?</s></head></p>

<p><s>ਸੁਣਵਾਈ ਆਮ ਤੌਰ ਤੇ ਪ੍ਰਾਈਵੇਟ ਹੀ ਹੁੰਦੀ ਹੈ, ਪਰ ਤੁਸੀਂ ਅਟੈਂਡੈਂਸ (ਹਾਜ਼ਰ ਹੋਣ ਦੇ) ਫ਼ਾਰਮ 'ਤੇ ਕਾਰਨ ਦੱਸ ਸਕਦੇ ਹੋ ਕਿ ਤੁਸੀਂ ਸੁਣਵਾਈ ਪਬਲਿਕ ਵਿਚ ਕਿਉਂ ਕਰਵਾਉਣਾ ਚਾਹੋਗੇ ।</s> <s>ਆਮ ਤੌਰ ਤੇ ਪਬਲਿਕ ਵਿਚ ਸੁਣਵਾਈ ਤਾਂ ਹੀ ਹੋ ਸਕਦੀ ਹੈ ਜੇ ਤੁਸੀਂ ਅਤੇ ਐਲ-ਈ-ਏ ਦੋਵੇਂ ਇਸ ਗੱਲ ਦੀ ਮੰਗ ਕਰੋ ।</s></p>

<p><head><s>ਕੀ ਸੁਣਵਾਈ 'ਤੇ ਮੈਨੂੰ ਆਉਣਾ ਪਏਗਾ?</s></head></p>

<p><s>ਜੇ ਤੁਸੀਂ ਸੁਣਵਾਈ ਤੇ ਨਾ ਅਉਣਾ ਚਾਹੋ ਤਾਂ ਤੁਹਾਡੇ ਲਈ ਆਉਣਾ ਜ਼ਰੂਰੀ ਨਹੀਂ ।</s> <s>ਪਰ ਆਮ ਤੌਰ ਤੇ ਟ੍ਰਿਬਿਊਨਲ ਉਹ ਸਭ ਗੱਲਾਂ ਸੁਣਨਾ ਚਾਹੇਗਾ ਜਿਹੜੀਆਂ ਤੁਸੀਂ ਦੱਸਣਾ ਚਾਹੁੰਦੇ ਹੋ, ਅਤੇ ਜੇ ਤੁਹਾਡੇ ਵਲੋਂ ਭੇਜੇ ਗਏ ਦਸਤਾਵੇਜ਼ਾਂ ਵਿਚ ਕੋਈ ਗੱਲ ਸਪਸ਼ਟ ਨਹੀਂ ਹੈ ਤਾਂ ਉਹ ਤੁਹਾਨੂੰ ਉਹਦੇ ਬਾਰੇ ਸਵਾਲ ਪੁੱਛਣਾ ਚਾਹੇਗਾ ।</s> <s>ਹੋ ਸਕਦਾ ਹੈ ਕਿ ਤੁਸੀਂ ਵੀ ਸਵਾਲ ਪੁੱਛਣਾ ਚਾਹੋ ।</s> <s>ਜਿਹੜੀਆਂ ਗੱਲਾਂ ਤੁਸੀਂ ਕਹਿਣਾ ਚਾਹੁੰਦੇ ਹੋ ਉਹਨਾਂ ਨੂੰ ਲਿਖ ਕੇ ਉਸ ਦਿਨ ਨਾਲ ਲੈ ਆਉਣ ਨਾਲ ਤੁਹਾਨੂੰ ਫ਼ਾਇਦਾ ਹੋ ਸਕਦਾ ਹੈ ।</s></p>

<p><s>ਜੇ ਤੁਸੀਂ ਸੁਣਵਾਈ 'ਤੇ ਨਾ ਅਉਣ ਦਾ ਅਤੇ ਨੁਮਾਇੰਦਾ ਨਾ ਭੇਜਣ ਦਾ ਫ਼ੈਸਲਾ ਕਰ <corr sic="ਨੳ">ਲੳ</corr> ਤਾਂ ਇਹ ਗੱਲ ਤੁਹਾਨੂੰ ਅਟੈਂਡੈਂਸ ਫ਼ਾਰਮ ਤੇ ਲਿਖ ਕੇ ਸਾਨੂੰ ਜ਼ਰੂਰ ਦੱਸ ਦੇਣੀ ਚਾਹੀਦੀ ਹੈ ।</s> <s>ਅਜਿਹੀ ਹਾਲਤ ਵਿਚ ਤੁਸੀਂ ਆਪਣੀ ਅਪੀਲ ਦੀ ਹਿਮਾਇਤ ਵਿਚ ਖ਼ਤ ਭੇਜ ਸਕਦੇ ਹੋ, ਪਰ ਇਹ ਖ਼ਤ ਸੁਣਵਾਈ ਤੋਂ ਘੱਟੋ ਘੱਟ ਪੰਜ ਦਿਨ ਪਹਿਲਾਂ ਟ੍ਰਿਬਿਊਨਲ ਦੇ ਦਫ਼ਤਰ ਵਿਚ ਪਹੁੰਚ ਜਾਣਾ ਚਾਹੀਦਾ ਹੈ ।</s></p>

<p><head><s>ਕੀ ਮੈਂ ਸੁਣਵਾਈ ਵੇਲੇ ਕਿਸੇ ਨੁਮਾਇੰਦੇ ਨੂੰ ਭੇਜ ਸਕਦਾ ਹਾਂ?</s></head></p>

<p><s>ਭਾਵੇਂ ਤੁਸੀਂ ਆਉਣਾ ਹੋਵੇ ਜਾਂ ਨਾ, ਤੁਸੀਂ ਆਪਣੀ ਨੁਮਾਇੰਦਗੀ ਕਰਨ ਲਈ ਕਿਸੇ ਨੂੰ ਸੁਣਵਾਈ ਵੇਲੇ ਹਾਜ਼ਰ ਹੋਣ ਲਈ ਆਖ ਸਕਦੇ ਹੋ ।</s> <s>ਜੇ ਤੁਸੀਂ ਕਿਸੇ ਨੁਮਾਇੰਦੇ ਨੂੰ ਲਿਅਉਣਾ ਹੋਵੇ ਤਾਂ ਸਾਡੇ ਵਲੋਂ ਭੇਜੇ ਅਟੈਂਡੈਂਸ ਫ਼ਾਰਮ ਤੇ ਤੁਹਾਨੂੰ ਉਹਦਾ ਨਾਂ ਅਤੇ ਪਤਾ ਜ਼ਰੂਰ ਲਿਖਣਾ ਚਾਹੀਦਾ ਹੈ ।</s> <s>ਜ਼ਰੂਰੀ ਨਹੀਂ ਇਹ ਨੁਮਾਇੰਦਾ ਉਹੀ ਬੰਦਾ ਹੋਵੇ ਜਿਹੜਾ ਹੁਣ ਤਕ ਅਪੀਲ ਕਰਨ ਦੇ ਕੰਮ ਵਿਚ ਤੁਹਾਡੀ ਮਦਦ ਕਰਦਾ ਰਿਹਾ ਹੈ ।</s> <s>ਜੇ ਤੁਸੀਂ ਅਟੈਂਡੈਂਸ ਫ਼ਾਰਮ ਭੇਜਣ ਤੋਂ ਬਾਅਦ ਨੁਮਾਇੰਦਾ ਭੇਜਣ ਦਾ ਫ਼ੈਸਲਾ ਕਰੋ ਤਾਂ ਤੁਹਾਨੂੰ ਵੱਖਰਾ ਖ਼ਤ ਲਿਖ ਕੇ ਇਹ ਗੱਲ ਸਾਨੂੰ ਦੱਸ ਦੇਣੀ ਚਾਹੀਦੀ ਹੈ ।</s></p>           
<p><head><s>ਕੀ ਇਹ ਜ਼ਰੂਰੀ ਹੈ ਕਿ ਮੇਰਾ ਨੁਮਾਇੰਦਾ ਕੋਈ ਵਕੀਲ ਹੋਵੇ?</s></head></p>

<p><s>ਤੁਸੀਂ ਆਪਣੀ ਨੁਮਾਇੰਦਗੀ ਕਰਨ ਲਈ ਕਿਸੇ ਸੋਲਿਸਟਰ ਜਾਂ ਬੈਰਿਸਟਰ ਨੂੰ ਲਿਆ ਸਕਦੇ ਹੋ, ਪਰ ਤੁਹਾਨੂੰ ਇਹਦੇ ਲਈ ਲੀਗਲ ਏਡ ਨਹੀਂ ਮਿਲੇਗੀ ।</s></p>

<p><head><s>ਕੀ ਸੁਣਵਾਈ ਵੇਲੇ ਸਵਾਲਾਂ ਦੇ ਜਵਾਬ ਮੈਨੂੰ ਖ਼ੁਦ ਦੇਣੇ ਪੈਣਗੇ?</s></head></p>

<p><s>ਭਾਵੇਂ ਤੁਸੀਂ ਆਪਣੇ ਵਲੋਂ ਅਪੀਲ ਕਰਨ ਦਾ ਕਾਰਨ ਦੱਸਣ ਲਈ ਅਤੇ ਅਪਣੇ ਵਿਚਾਰ ਪੇਸ਼ ਕਰਨ ਵਿਚ ਮਦਦ ਦੇਣ ਲਈ ਕਿਸੇ ਨੁਮਾਇੰਦੇ ਨੂੰ ਵੀ ਨਾਲ ਲਿਆੳ, ਤਦ ਵੀ ਟ੍ਰਿਬਿਊਨਲ ਦੇ ਮੈਂਬਰ ਤੁਹਾਨੂੰ ਕੁਝ ਸਵਾਲ ਪੁੱਛਣਾ ਚਾਹੁਣਗੇ ।</s> <s>ਮਿਸਾਲ ਵਜੋਂ, ਹੋ ਸਕਦਾ ਹੈ ਕਿ ਉਹ ਘਰ ਵਿਚ ਤੁਹਾਡੇ ਬੱਚੇ ਦੀਆਂ ਲੋੜਾਂ ਬਾਰੇ ਤੁਹਾਨੂੰ ਪੱੁਛਣਾ ਚਾਹੁਣ ।</s> <s>ਜੇ ਤੁਸੀਂ ਇਹਨਾਂ ਸਵਾਲਾਂ ਦੇ ਜਵਾਬ ਨਾ ਦੇਣਾ ਚਾਹੋ ਤਾਂ ਜਵਾਬ ਦੇਣਾ ਤੁਹਾਡੇ ਲਈ ਜ਼ਰੂਰੀ ਨਹੀਂ ਹੈ ।</s></p>

<p><head><s>ਜੇ ਮੈਨੂੰ ਗੱਲ ਸਮਝਣ ਸਮਝਾਉਣ ਲਈ ਕਿਸੇ ਦੁਭਾਸ਼ੀਏ ਜਾਂ ਇਸ਼ਾਰੇ ਨਾਲ ਗੱਲ ਸਮਝਾਉਣ ਵਾਲੇ ਦੀ ਲੋੜ ਪਏ ਤਾਂ ਮੈਨੂੰ ਕੀ ਕਰਨਾ ਚਾਹੀਦਾ ਹੈ?</s></head></p>

<p><s>ਜੇ ਤੁਹਾਨੂੰ ਦੁਭਾਸ਼ੀਏ ਜਾਂ ਇਸ਼ਾਰੇ ਵਾਲੇ ਦੀ ਲੋੜ ਹੈ ਤਾਂ ਜਿੰਨੀ ਵੀ ਛੇਤੀ ਹੋ ਸਕੇ ਸਾਨੂੰ ਦੱਸੋ ।</s> <s>ਅਸੀਂ ਸੁਣਵਾਈ ਵੇਲੇ ਕਿਸੇ ਅਜਿਹੇ ਬੰਦੇ ਨੂੰ ਲਿਆਉਣ ਦਾ ਪ੍ਰਬੰਧ ਕਰਾਂਗੇ ।</s></p>

<p><head><s>ਕੀ ਮਾਂ ਅਤੇ ਬਾਪ ਦੋਵੇਂ ਸੁਣਵਾਈ 'ਤੇ ਆ ਸਕਦੇ ਹਨ?</s></head></p>

<p><s>ਮਾਂ ਅਤੇ ਬਾਪ ਜਿਹੜਾ ਵੀ ਚਾਹੇ ਸੁਣਵਾਈ 'ਤੇ ਆ ਸਕਦਾ ਜਾਂ ਸਕਦੀ ਹੈ ।</s></p>

<p><head><s>ਕੀ ਮੇਰਾ ਬੱਚਾ ਵੀ ਸੁਣਵਾਈ 'ਤੇ ਆ ਸਕਦਾ ਹੈ?</s></head></p>

<p><s>ਤੁਹਾਡਾ ਬੱਚਾ ਵੀ ਆਪਣੇ ਵਿਚਾਰ ਦੱਸਣ ਲਈ ਸੁਣਵਾਈ 'ਤੇ ਆ ਸਕਦਾ ਹੈ ।</s> <s>ਪਰ ਇਸ ਗੱਲ ਦੀ ਘੱਟ ਸੰਭਾਵਨਾ ਹੈ ਕਿ ਚੇਅਰਮੈਨ ਪੂਰੀ ਸੁਣਵਾਈ ਦਾ ਸਮਾਂ ਬੱਚੇ ਨੂੰ ਹਾਜ਼ਰ ਹੋਣ ਲਈ ਮੰਨ ਜਾਏ ।</s> <s>ਜੇ ਤੁਸੀਂ ਬੱਚੇ ਨੂੰ ਨਾਲ ਲਿਆਉਣ ਦਾ ਫ਼ੈਸਲਾ ਕਰੋ ਤਾਂ ਤੁਸੀਂ ਕਿਸੇ ਦੋਸਤ ਜਾਂ ਰਿਸ਼ਤੇਦਾਰ ਨੂੰ ਵੀ ਨਾਲ ਲੈ ਆੳ ਜਿਹੜਾ ਉਂਨਾਂ ਸਮਾਂ ਬੱਚੇ ਦਾ ਖ਼ਿਆਲ ਰੱਖੇ ਜਿੰਨੀ ਦੇਰ ਤੁਹਾਡੀ ਸੁਣਵਾਈ ਹੋ ਰਹੀ ਹੋਵੇ ।</s></p>

<p><head><s>ਕੀ ਮੈਂ ਆਪਣੇ ਕੇਸ ਦੀ ਹਿਮਾਇਤ ਕਰਨ ਲਈ ਕਿਸੇ ਹੋਰ ਨੂੰ ਵੀ ਨਾਲ ਲਿਆ ਸਕਦਾ ਜਾਂ ਸਕਦੀ ਹਾਂ?</s></head></p>

<p><s>ਤੁਸੀਂ ਵੱਧ ਤਂੋ ਵੱਧ ਦੋ ਗਵਾਹ ਲਿਆ ਸਕਦੇ ਹੋ ।</s> <s>ਉਹਨਾਂ ਦੇ ਬਾਰੇ ਜਾਣਕਾਰੀ ਤੁਹਾਨੂੰ ਅਟੈਂਡੈਂਸ ਫ਼ਾਰਮ 'ਤੇ ਦੇਣੀ ਪਏਗੀ ।</s> <s>ਖ਼ਾਸ ਹਾਲਤਾਂ ਵਿਚ ਟ੍ਰਿਬਿਊਨਲ ਦਾ ਪ੍ਰਧਾਨ ਤੁਹਾਨੂੰ (ਅਤੇ ਐਲ-ਈ-ਏ) ਨੂੰ ਦੋ ਤੋਂ ਵੱਧ ਗਵਾਹ ਲਿਆਉਣ ਦੀ ਵੀ ਇਜਾਜ਼ਤ ਦੇ ਸਕਦਾ ਹੈ ।</s> <s>ਇਹ ਇਜਾਜ਼ਤ ਤੁਹਾਨੂੰ ਸੁਣਵਾਈ ਦੀ ਤਾਰੀਖ਼ ਤੋਂ ਕਾਫ਼ੀ ਪਹਿਲਾਂ ਖ਼ਤ ਲਿਖ ਕੇ ਜਾਂ ਅਟੈਂਡੈਂਸ ਫ਼ਾਰਮ 'ਤੇ ਮੰਗਣੀ ਚਾਹੀਦੀ ਹੈ ਅਤੇ ਦੱਸਣਾ ਚਾਹੀਦਾ ਹੈ ਕਿ ਤੁਹਾਨੂੰ ਦੋ ਤਂੋ ਵੱਧ ਗਵਾਹ ਪੇਸ਼ ਕਰਨ ਦੀ ਲੋੜ ਕਿਉਂ ਹੈ ।</s> <s>ਜੇ ਤੁਹਾਡੇ ਲਈ ਸੁਣਵਾਈ ਦੀ ਤਾਰੀਖ਼ ਤੋਂ ਲਿਖ ਕੇ ਦੱਸਣਾ ਮੁਮਕਿਨ ਨਹੀਂ ਤਾਂ ਤੁਸੀਂ ਸੁਣਵਾਈ ਤੋਂ ਪਹਿਲਾਂ ਟ੍ਰਿਬਿਊਨਲ ਦੇ ਚੇਅਰਮੈਨ ਨੂੰ ਆਖ ਸਕਦੇ ਹੋ ।</s> <s>ਐਲ-ਈ-ਏ ਨੂੰ ਵੀ ਅਜਿਹਾ ਕਰਨ ਦੀ ਇਜਾਜ਼ਤ ਹੋਏਗੀ ।</s> <s>ਚੇਅਰਮੈਨ ਸਿਰਫ਼ ਖ਼ਾਸ ਹਾਲਾਤ ਵਿਚ ਹੀ ਤੀਸਰਾ ਗਵਾਹ ਪੇਸ਼ ਕਰਨ ਦੀ ਇਜਾਜ਼ਤ ਦੇਵੇਗਾ ।</s></p>

<p><s>ਤੁਸੀਂ ਆਪਣੀ ਹਿਮਾਇਤ ਕਰਨ ਲਈ ਦੋ ਹੋਰ ਬੰਦਿਆਂ ਨੂੰ ਨਾਲ ਲਿਆ ਸਕਦੇ ਹੋ, ਪਰ ਉਹਨਾਂ ਨੂੰ ਸੁਣਵਾਈ ਵਿਚ ਹਿੱਸਾ ਲੈਣ ਦੀ ਇਜਾਜ਼ਤ ਨਹੀਂ ਮਿਲੇਗੀ ।</s> <s>ਪ੍ਰਧਾਨ ਇਹ ਵੀ ਫ਼ੈਸਲਾ ਕਰ ਸਕਦਾ ਹੈ ਕਿ ਜਿਹਨਾਂ ਦੇ ਨਾਂ ਤੁਸੀਂ ਦਿੱਤੇ ਹਨ ਉਹਨਾਂ ਵਿਚੋਂ ਕਿਸੇ ਬੰਦੇ ਨੂੰ ਸੁਣਵਾਈ 'ਤੇ ਆਉਣ ਦੀ ਇਜਾਜ਼ਤ ਨਾ ਦਿੱਤੀ ਜਾਏ ।</s></p>

<p><head><s>ਜੇ ਕੋਈ ਗਵਾਹ ਸੁਣਵਾਈ 'ਤੇ ਆਉਣੋਂ ਇਨਕਾਰ ਕਰ ਦੇਵੇ ਤਾਂ? 
</s></head></p>

<p><s>ਜੇ ਕੋਈ ਐਸਾ ਬੰਦਾ ਜਿਹਦਾ ਤੁਸੀਂ ਨਾਂ ਦਿੱਤਾ ਹੈ ਉਹ ਸੁਣਵਾਈ 'ਤੇ ਆਉਣਂੋ ਤਿੜ ਫਿੜ ਕਰਦਾ ਹੋਵੇ ਤਾਂ ਤੁਸੀਂ ਟ੍ਰਿਬਿਊਨਲ ਦੇ ਪ੍ਰਧਾਨ ਨੂੰ ਖ਼ਤ ਲਿਖ ਕੇ ਦੱਸ ਸਕਦੇ ਹੋ ਕਿ ਤੁਹਾਡੇ ਖ਼ਿਆਲ ਵਿਚ ਸੁਣਵਾਈ 'ਤੇ ਉਹਦਾ ਆਉਣਾ ਕਿਉਂ ਜ਼ਰੂਰੀ ਹੈ ।</s> <s>ਜੇ ਪ੍ਰਧਾਨ ਸਹਮਤ ਹੋਵੇ ਤਾਂ ਅਸੀਂ ਤੁਹਾਨੂੰ ਗਵਾਹ ਦੇ ਸੰਮਨਜ਼ ਭੇਜ ਸਕਦੇ ਹਾਂ ਜਿਹੜੇ ਤੁਸੀਂ ਉਸ ਬੰਦੇ ਨੂੰ ਦੇਵੋ ।</s> <s>ਫਿਰ ਉਸ ਬੰਦੇ ਨੂੰ ਜ਼ਰੂਰ ਆਉਨਾ ਪਏਗਾ ।</s></p>

<p><head><s>ਸੁਣਵਾਈ 'ਤੇ ਕੌਣ ਕੌਣ ਹੋਏਗਾ?</s></head></p>

<p><s>ਹੇਠ ਲਿਖੇ ਲੋਕ ਹੋਣਗੇ:</s>
<s>ਟ੍ਰਿਬਿਊਨਲ ਦੇ ਤਿੰਨ ਮੈਂਬਰ</s>
<s>ਤੁਸੀਂ</s>
<s>ਜੇ ਤੁਹਾਡਾ ਕੋਈ ਨੁਮਾਇੰਦਾ ਹੈ ਤਾਂ ਉਹ</s>
<s>ਜੇ ਤੁਹਾਡਾ ਬੱਚਾ ਨਾਲ ਆਏ ਤਾਂ ਉਹ</s>
<s>ਜੇ ਤੁਹਾਡੇ ਕੋਈ ਗਵਾਹ ਹਨ ਤਾਂ ਉਹ</s>
<s>ਦੋ ਤਕ ਕੋਈ ਹੋਰ ਬੰਦੇ ਜੇ ਤੁਸੀਂ ਲਿਆਉਣਾ ਚਾਹੋ, ਪਰ ਉਹ ਸੁਣਵਾਈ ਵਿਚ ਹਿੱਸਾ ਨਹੀਂ ਲੈ ਸਕਣਗੇ</s>
<s>ਐਲ-ਈ-ਏ ਦਾ ਨੁਮਾਇੰਦਾ</s>
<s>ਜੇ ਐਲ-ਈ-ਏ ਦੇ ਕੋਈ ਗਵਾਹ ਹਨ ਤਾਂ ਉਹ</s>
<s>ਟ੍ਰਿਬਿਊਨਲ ਦਾ ਕਲਰਕ-ਜਿਹੜਾ ਤੁਹਾਨੂੰ ਦੱਸੇਗਾ ਕਿ ਤੁਸੀਂ ਕਿੱਥੇ ਜਾਣਾ ਹੈ, ਅਤੇ ਜੇ ਤੁਹਾਨੂੰ ਹੋਰ ਕਿਸੇ ਮਦਦ ਦੀ ਲੋੜ ਹੋਵੇ ਤਾਂ ਤੁਹਾਡੀ ਮਦਦ ਕਰੇਗਾ</s></p>

<p><s>ਉਥੇ ਕਈ ਇਹ ਦੇਖਣ ਲਈ ਵੀ ਹੋ ਸਕਦਾ ਹੈ ਕਿ ਟ੍ਰਿਬਿਊਨਲ ਦਾ ਕੰਮ ਕਿਵੇਂ ਚਲਦਾ ਹੈ, ਜਾਂ ਟ੍ਰਿਬਿਊਨਲ ਦਾ ਕੰਮ ਸਿੱਖਣ ਵਾਲਾ ਵੀ ਕੋਈ ਹੋ ਸਕਦਾ ਹੈ ।</s></p>

<p><head><s>ਮੇਰੇ ਸੁਣਵਾਈ 'ਤੇ ਪਹੁੰਚਣ 'ਤੇ ਕੀ ਹੋਏਗਾ?</s></head></p>

<p><s>ਜਦ ਤੁਸੀਂ ਸੁਣਵਾਈ 'ਤੇ ਪਹੁੰਚੋਗੇ ਤਾਂ ਕਲਰਕ ਤੁਹਾਨੂੰ ਉਡੀਕ ਕਰਨ ਵਾਲੀ ਥਾਂ ਦਿਖਾਏਗਾ ।</s> <s>ਪੈਨਲ ਦੇ ਤਿਆਰ ਹੋ ਜਾਣ ਤੇ ਕਲਰਕ ਤੁਹਾਨੂੰ ਟ੍ਰਿਬਿਊਨਲ ਦੇ ਕਮਰੇ ਵਿਚ ਲੈ ਜਾਏਗਾ ।</s> <s>ਆਮ ਤੌਰ ਤੇ ਸੁਣਵਾਈ ਵਿਚ ਹਿੱਸਾ ਲੈਣ ਵਾਲੇ ਸਾਰੇ ਲੋਕ ਇਕ ਮੇਜ਼ ਦੇ ਦੁਆਲੇ ਬੈਠਦੇ ਹਨ ।</s> <s>ਸੁਣਵਾਈ ਸ਼ੁਰੂ ਹੋਣ ਤੋਂ ਪਹਿਲਾਂ ਚੇਅਰਮੈਨ ਕਾਰਵਾਈ ਦਾ ਢੰਗ ਤੁਹਾਨੂੰ ਸਮਝਾਏਗਾ ।</s></p>

<p><head><s>ਸੁਣਵਾਈ ਦੇ ਦੌਰਾਨ ਕੀ ਹੋਏਗਾ?</s></head></p>

<p><s>ਪੈਨਲ ਦੇ ਮੈਂਬਰ ਤੁਹਾਡੇ ਕੋਲਂੋ ਅਤੇ ਐਲ-ਈ-ਏ ਕੋਲੋਂ ਹੇਠ ਲਿਖੀ ਜਾਣਕਾਰੀ ਲੈਣਾ ਚਾਹੁਣਗੇ:</s>
<s>ਤੁਹਾਡੇ ਖ਼ਿਆਲ ਵਿਚ ਕਿਹੜੀਆਂ ਗੱਲਾਂ ਦਾ ਸੰਬੰਧ ਕੇਸ ਦੇ ਨਾਲ ਹੈ?</s>
<s>ਤੁਹਾਡੇ ਖ਼ਿਆਲ ਵਿਚ ਟ੍ਰਿਬਿਊਨਲ ਨੂੰ ਨਤੀਜੇ ਤੇ ਪਹੁੰਚਣਾ ਚਾਹੀਦਾ ਹੈ?</s>
<s>ਤੁਹਾਡੇ ਖ਼ਿਆਲ ਵਿਚ ਤੁਹਾਡੇ ਬੱਚੇ ਲਈ ਹੁਣ ਕੀ ਕੁਝ ਕੀਤਾ ਜਾਣਾ ਚਾਹੀਦਾ ਹੈ?</s></p>

<p><s>ਟ੍ਰਿਬਿਊਨਲ ਦਾ ਚੇਅਰਮੈਨ ਇਸ ਕੰਮ ਨੂੰ ਜਿੰਨਾ ਵੀ ਹੋ ਸਕੇ ਸੌਖਾ ਬਣਾਉਣ ਦੀ ਕੋਸ਼ਿਸ ਕਰੇਗਾ, ਤਾਕਿ ਹਰ ਬੰਦਾ ਆਪਣੇ ਵਿਚਾਰ ਪੇਸ਼ ਕਰ ਸਕੇ ।</s> <s>ਟ੍ਰਿਬਿਊਨਲ ਦੇ ਮੈਂਬਰ ਕਾਨੂੰਨ ਅਤੇ ਸਿੱਖਿਆ ਬਾਰੇ ਖ਼ਾਸ ਔਖੇ ਸ਼ਬਦ ਵਰਤੇ ਬਿਨਾਂ ਸਵਾਲ ਪੁੱਛਣਗੇ ।</s> <s>ਜੇ ਉਹਨਾਂ ਦੇ ਸਵਾਲ ਸਮਝ ਨਾ ਆਉਣ ਤਾਂ ਤੁਸੀਂ ਜਵਾਬ ਦੇਣ ਤੋਂ ਪਹਿਲਾਂ ਪੱੁਛ ਸਕਦੇ ਹੋ ਕਿ ਉਹ ਕੀ ਪੁੱਛ ਰਹੇ ਹਨ ।</s> <s>ਚੇਅਰਮੈਨ ਇਹ ਸੁਝਾਓ ਦੇਵੇਗਾ ਕਿ ਕੇਸ ਦੇ ਵੱਖ ਵੱਖ ਹਿੱਸਿਆਂ ਨੂੰ ਇਕ ਇਕ ਕਰਕੇ ਵਿਚਾਰਿਆ ਜਾਏ ।</s> <s>ਤੁਹਾਨੂੰ ਪੂਰੇ ਕੇਸ ਬਾਰੇ ਕੋਈ ਬਿਆਨ ਦੇਣ ਦੀ ਲੋੜ ਨਹੀਂ ।</s> <s>ਇਹਦੇ ਨਾਲ, ਜਿਉਂ ਜਿਉਂ ਗੱਲਾਂ ਸਾਹਮਣੇ ਆਉਂਦੀਆਂ ਜਾਣਗੀਆਂ ਉਹਨਾਂ ਬਾਰੇ ਹਰ ਇਕ ਨੂੰ ਸੋਚਣ ਦਾ ਮੌਕਾ ਮਿਲੇਗਾ ।</s></p>

<p><s>ਹਰ ਗੱਲ ਬਾਰੇ ਗਵਾਹ ਵੀ ਆਪਣੀ ਗਵਾਹੀ ਦੇ ਸਕਦੇ ਹਨ ।</s> <s>ਤੁਸੀਂ ਅਤੇ ਐਲ-ਈ-ਏ ਦੋਵੇਂ ਹੀ ਉਹਨਾਂ ਨੂੰ ਸਵਾਲ ਪੁੱਛ ਸਕੋਗੇ ।</s> <s>ਗਵਾਹ ਆਮ ਤੌਰ ਤੇ ਪੂਰੀ ਸੁਣਵਾਈ ਦੇ ਦੌਰਾਨ ਉੱਥੇ ਠਹਿਰਦੇ ਹਨ ।</s> </p>

<p><s>ਸੁਣਵਾਈ ਵੇਲੇ ਇਹ ਜ਼ਰੂਰੀ ਨਹੀਂ ਕਿ ਵਿਚਾਰ ਵਟਾਂਦਰਾ ਸਿਰਫ਼ ਚੇਅਰਮੈਨ ਵਲਂੋ ਉਠਾਏ ਗਏ ਮੁੱਦਿਆਂ ਬਾਰੇ ਹੋਵੇ ।</s> <s>ਉਹ ਤੁਹਾਨੂੰ ਮੌਕਾ ਦੇਵੇਗਾ ਜਾਂ ਦੇਵੇਗੀ ਕਿ ਤੁਸੀਂ ਜੇ ਕੋਈ ਅਹਿਮ ਗੱਲ ਪਹਿਲਾਂ ਨਹੀਂ ਦੱਸੀ ਤਾਂ ਉਹ ਵੀ ਦੱਸ ਦਿੳ ।</s> <s>ਜੇ ਤੁਸੀਂ ਟ੍ਰਿਬਿਊਨਲ ਦੇ ਵਿਚਾਰਨ ਲਈ ਪੇਸ਼ ਕਰਨ ਵਾਲੀਆਂ ਗੱਲਾਂ ਦੀ ਲਿਸਟ ਪਹਿਲਾਂ ਹੀ ਬਣਾ ਰੱਖੋ ਤਾਂ ਜਿਵੇਂ ਜਿਵੇਂ ਉਹਨਾਂ ਬਾਰੇ ਵਿਚਾਰ ਹੁੰਦਾ ਜਾਏ ਤੁਸੀਂ ਉਹਨਾਂ 'ਤੇ ਨਿਸ਼ਾਨ ਲਾ ਸਕਦੇ ਹੋ ।</s> <s>ਜਿਹੜੀ ਗੱਲ ਵਿਚਾਰਨੋਂ ਰਹਿ ਗਈ ਹੋਵੇ ਉਹ ਤੁਸੀਂ ਸੁਣਵਾਈ ਖ਼ਤਮ ਹੋਣ ਵੇਲੇ ਕਹਿ ਸਕਦੇ ਹੋ ।</s></p>

<p><s>ਸੁਣਵਾਈ ਦੇ ਅਖ਼ੀਰ ਵਿਚ ਚੇਅਰਮੈਨ ਤੁਹਾਨੂੰ ਦੱਸੇਗਾ ਕਿ ਟ੍ਰਿਬਿਊਨਲ ਦਾ ਫ਼ੈਸਲਾ ਤੁਹਾਨੂੰ ਡਾਕ ਰਾਹੀਂ ਭੇਜਿਆ ਜਾਏਗਾ ।</s></p>

<p><head><s>ਸੁਣਵਾਈ ਕਿੰਨੀ ਦੇਰ ਚਲੇਗੀ?</s></head></p>

<p><s>ਸੁਣਵਾਈ ਆਮ ਤੌਰ ਤੇ ਅੱਧਾ ਦਿਨ ਚਲਦੀ ਹੈ, ਪਰ ਆਮ ਤੌਰ ਤੇ ਵਿਚਾਲੇ ਛੋਟੀ ਜਿਹੀ ਹੁੰਦੀ ਹੈ ।</s> <s>ਜੇ ਤੁਹਾਨੂੰ ਵੱਧ ਲੋਕਾਂ ਦੀ ਲੋੜ ਹੋਵੇ ਤਾਂ ਤੁਸੀਂ ਚੇਅਰਮੈਨ ਨੂੰ ਕਹਿ ਸਕਦੇ ਹੋ ।</s> <s>ਕਦੇ ਕਦੇ ਸੁਣਵਾਈ ਇਹਤਂੋ ਵੱਧ ਸਮਾਂ ਵੀ ਚਲ ਸਕਦੀ ਹੈ, ਪਰ ਅਜਿਹਾ ਬਹੁਤ ਹੀ ਘੱਟ ਹੁੰਦਾ ਹੈ ।</s></p>

<p><s>ਕਦੇ ਕਦਾਈਂ ਮੈਂਬਰਾਂ ਨੂੰ ਹੋਰ ਸਬੂਤ ਦੀ ਲੋੜ ਪੈਂਦੀ ਹੈ ।</s> <s>ਜੇ ਇਹ ਗੱਲ ਹੋਵੇ ਤਾਂ ਚੇਅਰਮੈਨ ਸਮਝਾ ਦੇਵੇਗਾ ਕਿ ਟ੍ਰਿਬਿਊਨਲ ਨੂੰ ਕਿਸ ਚੀਜ਼ ਦੀ ਲੋੜ ਹੈ, ਅਤੇ ਤੁਹਾਨੂੰ ਕਿਸੇ ਹੋਰ ਦਿਨ ਆਉਣ ਲਈ ਕਹੇਗਾ ।</s> <s>ਇਹਦੇ ਨਾਲ ਤੁਹਾਨੂੰ ਅਤੇ ਐਲ-ਈ-ਏ ਨੂੰ ਇਹ ਸਬੂਤ ਪੇਸ਼ ਕਰਨ ਦਾ ਮੌਕਾ ਮਿਲ ਜਾਏਗਾ ।</s></p>

<p><head><s>ਮੈਂ ਕਿਹੜਾ ਕਿਹੜਾ ਖ਼ਰਚ ਮੰਗ ਸਕਦਾ ਜਾਂ ਸਕਦੀ ਹਾਂ?</s></head></p>

<p><s>ਤੁਹਾਨੂੰ ਆਪਣਾ ਅਤੇ ਜੇ ਤੁਹਾਡਾ ਬੱਚਾ ਸੁਣਵਾਈ ਤੇ ਆਏ ਤਾਂ ਉਹਦਾ ਆਉਣ ਜਾਣ ਦਾ ਖ਼ਰਚ ਮਿਲ ਸਕਦਾ ਹੈ ।</s> <s>ਜਿੱਥੇ ਵੀ ਹੋ ਸਕੇ ਤੁਹਾਨੂੰ ਪਬਲਿਕ ਗੱਡੀਆਂ ਦੀ ਵਰਤੋਂ ਕਰਨੀ ਚਾਹੀਦੀ ਹੈ ।</s> <s>ਅਸੀਂ ਟੈਕਸੀ ਦਾ ਭਾੜਾ ਤਦ ਹੀ ਦੇ ਸਕਦੇ ਹਾਂ ਜੇ ਪਬਲਿਕ ਗੱਡੀਆਂ ਨਾ ਮਿਲਦੀਆਂ ਹੋਣ ਜਾਂ ਤੁਹਾਡੀਆਂ ਖ਼ਾਸ ਲੋੜਾਂ ਹੋਣ ਜਿਹਨਾਂ ਦੇ ਬਾਰੇ ਖ਼ਰਚ ਦੇ ਪੈਸੇ ਮੰਗਣ ਵੇਲੇ ਤੁਸੀਂ ਸਾਨੂੰ ਜ਼ਰੂਰ ਦੱਸੋ ।</s> <s>ਅਸੀਂ ਹੋਰ ਖ਼ਰਚ ਜਿਵੇਂ ਕਾਰ ਪਾਰਕ ਕਰਨ ਦਾ ਟੌਲ ਦਾ ਖ਼ਰਚ ਨਹੀਂ ਦੇ ਸਕਦੇ ।</s></p>

<p><head><s>ਮੇਰਾ ਗਵਾਹ ਕਿਹੜਾ ਖ਼ਰਚ ਮੰਗ ਸਕਦਾ ਹੈ?</s></head></p>

<p><s>ਤੁਹਾਡੇ ਦੋ ਮੁਖ ਗਵਾਹ ਵੀ ਆਉਣ ਜਾਣ ਦਾ ਖ਼ਰਚ ਕਲੇਮ ਕਰ ਸਕਣਗੇ, ਅਤੇ ਜਿੱਥੇ ਵੀ ਹੋ ਸਕੇ ਉਹਨਾਂ ਨੂੰ ਪਬਲਿਕ ਟ੍ਰਾਂਸਪੋਰਟ ਦੀ ਵਰਤੋਂ ਕਰਨੀ ਚਾਹੀਦੀ ਹੈ ।</s> <s>ਟ੍ਰਿਬਿਊਨਲ ਸਿਰਫ਼ ਸਟੈਂਡਰਡ ਕਲਾਸ ਦਾ ਰੇਲ ਭਾੜਾ ਹੀ ਦੇਵੇਗਾ ।</s> <s>ਜਾਂ ਜੇ ਤੁਹਾਡਾ ਗਵਾਹ ਕਾਰ ਵਿਚ ਆਏ ਤਾਂ ਨਿਸ਼ਚਿਤ ਦਰ ਤੇ ਹਰ ਮੀਲ ਸਫ਼ਰ ਦਾ ਖ਼ਰਚ ਦਿੱਤਾ ਜਾਏਗਾ ।</s> <s>ਕਮਾਈ ਵਿਚ ਘਾਟਾ ਪੈਣ ਦੇ ਬਦਲੇ ਖਾਸ ਰਕਮ ਦਿੱਤੀ ਜਾਂਦੀ ਹੈ ।</s> <s>ਇਹ ਪੈਸੇ ਜੂਰੀ ਸੇਵਾ ਲਈ ਦਿੱਤੇ ਜਾਂਦੇ ਪੈਸਿਆਂ ਵਰਗੇ ਹੀ ਹੁੰਦੇ ਹਨ ।</s></p>

<p><s>ਜੇ ਤੁਹਾਡਾ ਕੋਈ ਨੁਮਾਇੰਦਾ ਹੈ ਤਾਂ ਉਹ ਸਾਡੇ ਕੋਲੋਂ ਪੈਸੇ ਨਹੀਂ ਮੰਗ ਸਕਦਾ ।</s></p>

<p><head><s>ਮੈਂ ਆਪਣੇ ਖ਼ਰਚ ਦੇ ਪੈਸੇ ਕਿਵੇਂ ਮੰਗਾਂ?</s></head></p>

<p><s>ਜਦ ਅਸੀਂ ਸੁਣਵਾਈ ਦੇ ਪ੍ਰਬੰਧ ਬਾਰੇ ਤੁਹਾਨੂੰ ਲਿਖਾਂਗੇ ਤਾਂ ਅਸੀਂ ਖ਼ਰਚ ਮੰਗਣ ਬਾਰੇ ਜਾਣਕਾਰੀ ਵੀ ਭੇਜਾਂਗੇ ।</s> <s>ਜਦ ਤੁਸੀਂ ਸੁਣਵਾਈ ਤੇ ਆੳਗੇ ਤਾਂ ਕਲਰਕ ਤੁਹਾਨੂੰ ਭਰਨ ਲਈ ਫ਼ਾਰਮ ਦੇਵੇਗਾ ।</s> <s>ਖ਼ਰਚ ਦੇ ਪੈਸੇ ਬਾਅਦ ਵਿਚ ਅਸੀਂ ਤੁਹਾਨੂੰ ਡਾਕ ਰਾਹੀਂ ਭੇਜਾਂਗੇ ਜਾਂ ਸਿੱਧੇ ਤੁਹਾਡੇ ਬੈਂਕ ਆਕਊਂਟ ਵਿਚ ਜਮ੍ਹਾਂ ਕਰ ਦੇਵਾਂਗੇ ।</s> <s>ਜੇ ਪੈਸਿਆਂ ਦੀ ਉਡੀਕ ਕਰਨ ਨਾਲ ਤੁਹਾਨੂੰ ਕੋਈ ਮੁਸ਼ਕਿਲ ਆ ਸਕਦੀ ਹੋਵੇ ਤਾਂ ਤੁਸੀਂ ਸੁਣਵਾਈ ਤੋਂ ਘੱਟੋ ਘੱਟ <foreign lang="eng">10</foreign> ਦਿਨ ਪਹਿਲਾਂ ਟ੍ਰਿਬਿਊਨਲ ਦੇ ਦਫ਼ਤਰ ਨੂੰ ਦੱਸ ਦਿੳ ।</s> <s>ਹੋ ਸਕਦਾ ਹੈ ਕਿ ਅਸੀਂ ਤੁਹਾਡੇ ਕੁਝ ਖ਼ਰਚੀਆਂ ਲਈ ਉਸੇ ਦਿਨ ਚੈਕ ਦੇ ਸਕੀਏ ।</s></p>

<p><head><s>ਫ਼ੈਸਲਾ</s></head></p>

<p><head><s>ਟ੍ਰਿਬਿਊਨਲ ਆਪਣਾ ਫ਼ੈਸਲਾ ਕਿਵੇਂ ਕਰੇਗਾ?</s></head></p>

<p><s>ਟ੍ਰਿਬਿਊਨਲ ਸਾਰੇ ਸਬੂਤਾਂ ਨੂੰ ਵਿਚਾਰਨ ਮਗਰੋਂ ਆਪਣਾ ਫ਼ੈਸਲਾ ਦਿੰਦਾ ਹੈ ।</s> <s>ਇਹਦੇ ਵਿਚ ਸੁਣਵਾਈ ਤੋਂ ਪਹਿਲਾਂ ਤੁਹਾਡੇ ਅਤੇ ਐਲ-ਈ-ਏ ਵਲੋਂ ਆਏ ਦਸਤਾਵੇਜ਼ ਵੀ ਸ਼ਾਮਿਲ ਹੁੰਦੇ ਹਨ ਅਤੇ ਸੁਣਵਾਈ ਵੇਲੇ ਕਹੀਆਂ ਗੱਲਾਂ ਵੀ ।</s> <s>ਟ੍ਰਿਬਿਊਨਲ ਦਾ ਕੋਈ ਵੀ ਫ਼ੈਸਲਾ ਹੋਵੇ, ਇਹ ਤੁਹਾਨੂੰ ਅਤੇ ਐਲ-ਈ-ਏ ਨੂੰ ਮੰਨਣਾ ਪਏਗਾ ।</s></p>

<p><head><s>ਮੈਨੂੰ ਟ੍ਰਿਬਿਊਨਲ ਦਾ ਫ਼ੈਸਲਾ ਕਦ ਮਿਲੇਗਾ?</s></head></p>

<p><s>ਸਾਡੀ ਕੋਸ਼ਿਸ਼ ਇਹ ਹੁੰਦੀ ਹੈ ਕਿ ਸੁਣਵਾਈ ਤੋਂ ਬਾਅਦ ਕੰਮ ਕਾਜ ਦੇ <foreign lang="eng">10</foreign> ਦਿਨਾਂ ਦੇ ਅੰਦਰ ਟ੍ਰਿਬਿਊਨਲ ਦਾ ਫ਼ੈਸਲਾ ਤੁਹਾਨੂੰ ਅਤੇ ਐਲ-ਈ-ਏ ਨੂੰ ਮਿਲ ਜਾਏ ।</s> <s>ਪਰ ਕੁਝ ਕੇਸਾਂ ਦਾ ਫ਼ੈਸਲਾ ਭੇਜਣ ਨੂੰ ਕੁਝ ਵੱਧ ਸਮਾਂ ਲਗਦਾ ਹੈ ।</s> <s>ਅਸੀਂ ਟ੍ਰਿਬਿਊਨਲ ਦਾ ਫ਼ੈਸਲਾ ਤੁਹਾਨੂੰ (ਜਾਂ ਐਲ ਈ ਏ ਨੂੰ) ਫ਼ੋਨ 'ਤੇ ਨਹੀਂ ਦੱਸਾਂਗੇ ।</s></p>

<p><head><s>ਕੀ ਮੈਂ ਟ੍ਰਿਬਿਊਨਲ ਦੇ ਫ਼ੈਸਲੇ ਵਿਰੁੱਧ ਅਪੀਲ ਕਰ ਸਕਦਾ ਜਾਂ ਸਕਦੀ ਹਾਂ?</s></head></p>

<p><s>ਜਿੱਥੋਂ ਤਕ ਕੇਸ ਨਾਲ ਸਬੰਧਤ ਗੱਲਾਂ ਦਾ ਸਵਾਲ ਹੈ, ਟ੍ਰਿਬਿਊਨਲ ਦਾ ਫ਼ੈਸਲਾ ਆਖ਼ਿਰੀ ਹੁੰਦਾ ਹੈ ।</s> <s>ਤੁਸੀਂ ਅਤੇ ਐਲ-ਈ-ਏ ਦੋਵੇਂ ਟ੍ਰਿਬਿਊਨਲ ਦੇ ਫ਼ੈਸਲੇ ਵਿਰੱੁਧ ਹਾਈ ਕੋਰਟ ਵਿਚ ਅਪੀਲ ਕਰ ਸਕਦੇ ਹੋ, ਪਰ ਸਿਰਫ਼ ਕਾਨੂੰਨ ਨਾਲ ਸੰਬੰਧਤ ਗੱਲਾਂ ਬਾਰੇ ਹੀ ।</s> <s>ਤੁਸੀਂ ਸਿਰਫ਼ ਇਸੇ ਕਰਕੇ ਅਪੀਲ ਨਹੀਂ ਕਰ ਸਕਦੇ ਕਿ ਫ਼ੈਸਲਾ ਤੁਹਾਨੂੰ ਚੰਗਾ ਨਹੀਂ ਲਗਿਆ ।</s> <s>ਜੇ ਤੁਹਾਨੂੰ ਅਪੀਲ ਕਰਨ ਬਾਰੇ ਸਲਾਹ ਦੀ ਲੋੜ ਹੈ, ਤਾਂ ਤੁਸੀਂ ਕਿਸੇ ਸੋਲਿਸਟਰ ਨਾਲ ਗੱਲ ਕਰੋ ।</s> <s>ਹਾਈ ਕੋਰਟ ਕੋਲ ਅਪੀਲ ਕਰਨ ਲਈ ਤੁਹਾਡੇ ਕੋਲ ਸਿਰਫ਼ ਕੈਲੰਡਰ ਦੇ ਦਸ ਦਿਨ ਹੁੰਦੇ ਹਨ ।</s></p>

<p><s>ਜੇ ਤੁਸੀਂ ਜਾਂ ਐਲ-ਈ-ਏ ਇਹ ਸਮਝਦੇ ਹੋ ਕਿ ਫ਼ੈਸਲੇ ਵਿਚ ਜਾਂ ਫ਼ੈਸਲਾ ਕਰਨ ਦੇ ਢੰਗ ਵਿਚ ਕੋਈ ਟੈਕਨੀਕਲ ਨੁਕਸ ਹੈ, ਤਾਂ ਤੁਸੀਂ ਟ੍ਰਿਬਿਊਨਲ ਨੂੰ ਇਹਦੇ ਬਾਰੇ ਮੁੜ-ਵਿਚਾਰ ਕਰਨ ਲਈ ਕਹਿ ਸਕਦੇ ਹੋ ।</s> <s>ਫ਼ੈਸਲਾ ਮਿਲਣ ਤੋਂ ਬਾਅਦ ਕੰਮ ਕਾਜ ਦੇ <foreign lang="eng">10</foreign> ਦਿਨਾਂ ਦੇ ਅੰਦਰ ਤੁਹਾਡੀ ਇਹ ਬੇਨਤੀ ਟ੍ਰਿਬਿਊਨਲ ਕੋਲ ਜ਼ਰੂਰ ਪਹੁੰਚ ਜਾਣੀ ਚਾਹੀਦੀ ਹੈ ।</s> <s>ਮੁੜ-ਵਿਚਾਰ (ਰਿਵਿਊ) ਹਾਈ ਕੋਰਟ ਕੋਲ ਕੀਤੀ ਅਪੀਲ ਦੀ ਥਾਂ ਨਹੀਂ ਲੈ ਸਕਦਾ ।</s></p>

<p><head><s>ਜੇ ਐਲ-ਈ-ਏ ਟ੍ਰਿਬਿਊਨਲ ਦੇ ਫ਼ੈਸਲੇ ਤੇ ਅਮਲ ਨਾ ਕਰੇ ਤਾਂ?</s></head></p>

<p><s>ਐਲ-ਈ-ਏ ਨੂੰ ਕਾਨੂੰਨੀ ਤੌਰ ਤੇ ਟ੍ਰਿਬਿਊਨਲ ਦੇ ਫ਼ੈਸਲੇ ਤੇ ਅਮਲ ਕਰਨਾ ਪਏਗਾ ।</s> <s>ਜੇ ਐਲ-ਈ-ਏ ਜਾਇਜ਼ ਸਮੇਂ ਵਿਚ ਫ਼ੈਸਲੇ ਤੇ ਅਮਲ ਨਾ ਕਰੇ ਤਾਂ ਤੁਸੀਂ ਸੈਕ੍ਰੇਟਰੀ ਆਫ਼ ਸਟੇਟ ਫ਼ਾਰ ਐਜੂਕੇਸ਼ਨ ਐਂਡ ਐਂਮਪਲਾਇਮੈਂਟ (ਜੇ ਇਹ ਐਲ-ਈ-ਏ ਇੰਗਲੈਂਡ ਵਿਚ ਹੈ) ਨੂੰ ਖ਼ਤ ਲਿਖ ਸਕਦੇ ਹੋ, ਜਾਂ (ਜੇ ਇਹ ਐਲ-ਈ-ਏ ਵੇਲਜ਼ ਵਿਚ ਹੈ) ਤਾਂ ਸੈਕ੍ਰੇਟਰੀ ਆਫ਼ ਸਟੇਟ ਫ਼ਾਰ ਵੇਲਜ਼ ਨੂੰ ਲਿਖ ਸਕਦੇ ਹੋ ।</s> <s>ਇਹਨਾਂ ਦੇ ਪਤੇ ਸਫ਼ਾ <foreign lang="eng">5-6</foreign> ਤੇ ਹਨ ।</s></p>

<p><head><s>ਜੇ ਮੈਂ ਅਪੀਲ ਹਾਰ ਜਾਵਾਂ ਤਾਂ ਕੀ ਮੈਨੂੰ ਪੈਸੇ ਦੇਣੇ ਪੈਣਗੇ?</s></head></p>

<p><s>ਤੁਹਾਨੂੰ ਅਤੇ ਐਲ-ਈ-ਏ ਨੂੰ ਆਮ ਤੌਰ ਤੇ ਦੂਸਰੀ ਧਿਰ ਦਾ ਖ਼ਰਚਾ ਨਹੀਂ ਦੇਣਾ ਪੈਂਦਾ ।</s> <s>ਬਹੁਤ ਘੱਟ ਕੇਸਾਂ ਵਿਚ ਜੇ ਟ੍ਰਿਬਿਊਨਲ ਇਹ ਸਮਝੇ ਕਿ ਤੁਸੀਂ ਜਾਂ ਐਲ-ਈ-ਏ ਨੇ ਗ਼ਲਤ ਕੰਮ ਕੀਤਾ ਹੈ, ਜਾਂ ਜਾਣ ਬੁੱਝ ਕੇ ਟ੍ਰਿਬਿਊਨਲ ਦਾ ਸਮਾਂ ਬਰਬਾਦ ਕੀਤਾ ਹੈ, ਤਾਂ ਐਲ-ਈ-ਏ ਨੂੰ ਤੁਹਾਡਾ ਖ਼ਰਚਾ ਪੂਰਾ ਕਰਨ ਲਈ ਜਾਂ ਤੁਹਾਨੂੰ ਐਲ-ਈ-ਏ ਦਾ ਖ਼ਰਚਾ ਪੂਰਾ ਕਰਨ ਲਈ ਕਿਹਾ ਜਾ ਸਕਦਾ ਹੈ ।</s></p>

<p><head><s>ਪਰਿਭਾਸ਼ਾਵਾਂ</s></head></p>

<p><head><s>ਲੇਖਾ ਜੋਖਾ (ਅਸੈੱਸਮੈਂਟ)</s> <s><foreign lang="eng">(Assessment)</foreign></s></head></p>

<p><s>ਬੱਚੇ ਦੀਆਂ ਖ਼ਾਸ ਵਿੱਦਿਅਕ ਲੋੜਾਂ ਬਾਰੇ ਪੂਰੇ ਵੇਰਵੇ ਸਹਿਤ ਛਾਣ ਬੀਣ ।</s> <s>ਇਹਦੇ ਸਿੱਟੇ ਵਲੋਂ ਖ਼ਾਸ ਵਿੱਦਿਅਕ ਲੋੜਾਂ ਬਾਰੇ ਸਟੇਟਮੈਂਟ (ਬਿਆਨ) ਵੀ ਤਿਆਰ ਕੀਤਾ ਜਾ ਸਕਦਾ ਹੈ ।</s></p>

<p><head><s>ਅੰਤਕਾ (ਅਪੈਂਡਿਸਿਜ਼)</s> <s><foreign lang="eng">(Appendices)</foreign></s></head></p>

<p><s>ਬੱਚੇ ਦੀਆਂ ਲੋੜਾਂ ਦਾ ਲੇਖਾ ਜੋਖਾ ਹੋਣ ਮਗਰੋਂ ਤੁਹਾਨੂੰ ਅਤੇ ਐਲ-ਈ-ਏ ਨੂੰ ਦਿੱਤੀ ਗਈ ਸਲਾਹ ।</s> <s>ਐਲ-ਈ-ਏ ਨੂੰ ਇਹ ਸਲਾਹ ਆਖ਼ਰੀ ਸਟੇਟਮੈਂਟ ਦੇ ਨਾਲ ਲਾਉਣੀ ਚਾਹੀਦੀ ਹੈ ।</s></p>

<p><head><s>ਆਦੇਸ਼ (ਡਾਇਰੈਕਸ਼ਨ)</s> <s><foreign lang="eng">(Direction)</foreign></s></head></p>

<p><s>ਪ੍ਰਧਾਨ (ਪ੍ਰੈਜ਼ੀਡੈਂਟ) ਦਾ ਹੁਕਮ ਜਿਹਦਾ ਜਵਾਬ ਤੁਹਾਨੂੰ ਜਾਂ ਐਲ-ਈ-ਏ ਨੂੰ ਲਾਜ਼ਮੀ ਤੌਰ ਤੇ ਦੇਣਾ ਪੈਂਦਾ ਹੈ ।</s></p>

<p><head><s>ਦਸਤਾਵੇਜ਼ (ਡਾਕਿਊਮੈਂਟਸ)</s> <s><foreign lang="eng">(Documents)</foreign></s></head></p>

<p><s>ਖ਼ਤ ਜਾਂ ਰਿਪੋਰਟਾਂ ਜਿਹਨਾਂ ਵਿਚ ਖ਼ਾਸ ਵਿੱਦਿਅਕ ਲੋੜਾਂ ਬਾਰੇ ਸਟੇਟਮੈਂਟ ਵੀ ਸ਼ਾਮਿਲ ਹੈ ।</s></p>

<p><head><s>ਗਰਾਂਟ-ਮੇਨਟੇਂਨਡ ਸਕੂਲ</s> <s><foreign lang="eng">(Grant-maintained school)</foreign></s></head></p>

<p><s>ਉਹ ਸਕੂਲ ਜਿਹਨੂੰ ਕੇਂਦਰੀ ਸਰਕਾਰ ਪੈਸੇ ਦਿੰਦੀ ਹੋਵੇ ।</s></p>

<p><head><s>ਇੰਡੀਪੈਂਡੈਂਟ ਸਕੂਲ</s> <s><foreign lang="eng">(Independent school)</foreign></s></head></p>

<p><s>ਉਹ ਸਕੂਲ ਜਿਹਨੂੰ ਆਮ ਤੌਰ ਤੇ ਲੋਕਲ ਜਾਂ ਕੇਂਦਰੀ ਸਰਕਾਰ ਪੈਸੇ ਨਹੀਂ ਦਿੰਦੀ ਅਤੇ ਜਿਹੜਾ ਫ਼ੀਸ ਲੈਂਦਾ ਹੈ ।</s></p>

<p><head><s>ਐਲ-ਈ-ਏ <foreign lang="eng">(LEA)</foreign></s></head></p>

<p><s>ਲੋਕਲ ਐਜੂਕੇਸ਼ਨ ਅਥਾਰਿਟੀ - ਲੋਕਲ ਗਵਰਨਮੈਂਟ (ਕਾਉਂਸਿਲ) ਦੀ ਵਿੱਦਿਆ ਮੁਹੱਈਆ ਕਰਨ ਵਾਲੀ ਸੰਸਥਾ ਜਿਹਦੀ ਜ਼ਿੰਮੇਦਾਰੀ ਲੇਖਾ ਜੋਖਾ ਕਰਨਾ ਅਤੇ ਸਟੇਟਮੈਂਟਾਂ ਤਿਆਰ ਕਰਕੇ ਰੱਖਣਾ ਹੈ ।</s></p>

<p><head><s>ਐਲ-ਈ-ਏ ਮੇਨਟੇਂਨਡ ਸਕੂਲ</s> 
<s><foreign lang="eng">(LEA maintained school)</foreign></s></head></p>

<p><s>ਉਹ ਸਕੂਲ ਜਿਹਨੰੂ ਲੋਕਲ ਐਜੂਕੇਸ਼ਨ ਅਥਾਰਿਟੀ ਪੈਸੇ ਦੇਵੇ ।</s></p>

<p><head><s>ਨਾਮਜ਼ਦ ਬੰਦਾ (ਨੇਮਡ ਪਰਸਨ)</s> 
<s><foreign lang="eng">(Named Person)</foreign></s></head></p>

<p><s>ਐਲ-ਈ-ਏ ਵਲੋਂ ਤੁਹਾਡੀ ਮਦਦ ਨਾਲ ਚੁਣਿਆ ਉਹ ਵਿਅਕਤੀ ਜਿਹਦਾ ਕੰਮ ਤੁਹਾਡੇ ਬੱਚੇ ਦੀਆਂ ਖ਼ਾਸ ਵਿੱਦਿਅਕ ਲੋੜਾਂ ਬਾਰੇ ਤੁਹਾਨੂੰ ਜਾਣਕਾਰੀ ਅਤੇ ਸਲਾਹ ਦੇਣਾ ਹੈ ।</s> <s>ਨਾਮਜ਼ਦ ਬੰਦਾ ਕੋਈ ਦੋਸਤ, ਰਿਸ਼ਤੇਦਾਰ ਜਾਂ ਵਾਲੰਟਰੀ ਸੰਸਥਾ ਦਾ ਮੈਂਬਰ ਵੀ ਹੋ ਸਕਦਾ ਹੈ ।</s></p>

<p><head><s>ਨਾਨ-ਮੇਂਨਟੇਂਨਡ ਸਪੈਸ਼ਲ ਸਕੂਲ </s> 
<s><foreign lang="eng">(Non maintained special school)</foreign></s></head></p>

<p><s>ਉਹ ਖ਼ਾਸ ਸਕੂਲ ਜਿਹਨੂੰ ਲੋਕਲ ਐਜੂਕੇਸ਼ਨ ਅਥਾਰਿਟੀ ਪੈਸੇ ਨਹੀਂ ਦਿੰਦੀ ।</s></p>

<p><head><s>ਹੁਕਮ (ਆਰਡਰ)</s> <s><foreign lang="eng">(Order)</foreign></s></head></p>

<p><s>ਸੁਣਵਾਈ ਤੋਂ ਮਗਰੋਂ ਤੁਹਾਡੀ ਅਪੀਲ ਬਾਰੇ ਟ੍ਰਿਬਿਊਨਲ ਦਾ ਫ਼ੈਸਲਾ</s></p>

<p><head><s>ਖ਼ਾਸ ਵਿੱਦਿਅਕ ਲੋੜਾਂ (ਸਪੈਸ਼ਲ ਐਜੂਕੇਸ਼ਨਲ ਨੀਡਜ਼ ਜਾਂ ਐੱਸ ਈ ਐੱਨ)</s> <s><foreign lang="eng">(Special educational needs (SEN))</foreign></s></head></p>

<p><s>ਜਿਸ ਬੱਚੇ ਨੂੰ ਸਿੱਖਣ ਵਿਚ ਮੁਸ਼ਕਿਲਾਂ ਆਉਣ ਅਤੇ ਜਿਹਨੂੰ ਪੜ੍ਹਾਈ ਵਿਚ ਖ਼ਾਸ ਮਦਦ ਦੀ ਲੋੜ ਪਏ ਉਹਦੀਆਂ ਖ਼ਾਸ ਵਿੱਦਿਅਕ ਲੋੜਾਂ ਹੁੰਦੀਆ ਹਨ ।</s></p>

<p><head><s>ਖ਼ਾਸ ਵਿੱਦਿਅਕ ਲੋੜਾਂ ਦੀ ਸਟੇਟਮੈਂਟ (ਸਟੇਟਮੈਂਟ ਆਫ਼ ਐੱਸ ਈ ਐੱਨ)</s> <s><foreign lang="eng">(Statement of SEN)</foreign></s></head></p>

<p><s>ਜਿਸ ਦਸਤਾਵੇਜ਼ ਵਿਚ ਬੱਚੇ ਦੀਆਂ ਖ਼ਾਸ ਵਿੱਦਿਅਕ ਲੋੜਾਂ ਦਾ ਅਤੇ ਜਿਹੜੀ ਮਦਦ ਉਹਨੂੰ ਮਿਲਣੀ ਚਾਹੀਦਾ ਹੈ ਉਹਦਾ ਵੇਰਵਾ ਦਿੱਤਾ ਹੋਇਆ ਹੋਵੇ ।</s></p>

<p><head><s>ਸੰਮਨਜ਼</s> 
<s><foreign lang="eng">(Summons)</foreign></s></head></p>

<p><s>ਕਿਸੇ ਗਵਾਹ ਨੂੰ ਸੁਣਵਾਈ ਵੇਲੇ ਹਾਜ਼ਰ ਹੋਣ ਦਾ ਹੁਕਮ ਦੇਣ ਵਾਲਾ ਦਸਤਾਵੇਜ਼</s></p>

<p><head><s>ਟ੍ਰਿਬਿਊਨਲ ਦਾ ਫ਼ੈਸਲਾ ਲੈਣ ਲਈ ਅਪੀਲ ਕਰਨ ਦਾ ਟਾਈਮਟੇਬਲ</s></head></p>

<p><s>ਹੇਠਾਂ ਦਿੱਤੇ <corr sic="ਟਈਮਟੇਬਲ">ਟਾਈਮਟੇਬਲ</corr> ਵਿਚ ਦੱਸਿਆ ਗਿਆ ਹੈ ਕਿ ਕਿਸ ਕੰਮ ਲਈ ਕੰਮ ਕਾਜ ਦੇ ਕਿੰਨੇ ਦਿਨ ਲਗਦੇ ਹਨ ।</s> <s>ਕੰਮ ਕਾਜ ਦੇ ਦਿਨਾਂ ਵਿਚ ਸਨਿੱਚਰਵਾਰ, ਐਤਵਾਰ, ਬੈਂਕ ਹੌਲੀਡੇਅ ਅਤੇ ਅਗਸਤ ਮਹੀਨੇ ਦੇ ਦਿਨ ਸ਼ਾਮਿਲ ਨਹੀਂ ਹੁੰਦੇ ।</s></p>

<p><s>ਤੁਸੀਂ ਅਪੀਲ ਕਰਦੇ ਹੋ ਅਤੇ ਟ੍ਰਿਬਿਊਨਲ ਦਾ ਦਫ਼ਤਰ ਫ਼ੈਸਲਾ ਕਰਦਾ ਹੈ ਕਿ ਉਹ ਅਪੀਲ ਨੂੰ ਨਿਪਟਾ ਸਕਦਾ ਹੈ ਜਾਂ ਨਹੀਂ</s> 
<s>ਜੇ ਟ੍ਰਿਬਿਊਨਲ ਅਪੀਲ ਨੂੰ ਨਿਪਟਾ ਸਕਦਾ ਤਾਂ ਟ੍ਰਿਬਿਊਨਲ ਦੇ ਦਫ਼ਤਰ ਦੀ ਕੋਸ਼ਿਸ਼ ਹੁੰਦੀ ਹੈ ਕਿ ਉਹ ਤੁਹਾਨੂੰ ਕੰਮ ਕਾਜ ਦੇ <foreign lang="eng">10</foreign> ਦਿਨਾਂ ਵਿਚ ਇਹਦੇ ਬਾਰੇ ਦੱਸੇ ।</s> 
<s>ਜੇ ਟ੍ਰਿਬਿਊਨਲ ਅਪੀਲ ਨੂੰ ਨਿਪਟਾ ਸਕਦਾ ਹੈ, ਤਾਂ ਟ੍ਰਿਬਿਊਨਲ ਦਾ ਦਫ਼ਤਰ ਅਪੀਲ ਨੂੰ ਰਜਿਸਟਰ ਕਰਦਾ ਹੈ ਅਤੇ ਅਪੀਲ ਦੀ ਕਾਪੀ ਕੰਮ ਕਾਜ ਦੇ <foreign lang="eng">10</foreign> ਦਿਨਾਂ ਵਿਚ ਐਲ-ਈ-ਏ ਨੂੰ ਭੇਜਦਾ ਹੈ, ਅਤੇ ਉਸੇ ਵੇਲੇ ਤੁਹਾਨੂੰ ਵੀ ਦੱਸਦਾ ਹੈ ।</s> 
<s>ਐਲ-ਈ-ਏ ਕੰਮ ਕਾਜ ਦੇ <foreign lang="eng">20</foreign> ਦਿਨਾਂ ਦੇ ਅੰਦਰ ਜਵਾਬ ਦਿੰਦੀ ਹੈ ।</s> 
<s>ਟ੍ਰਿਬਿਊਨਲ ਦਾ ਦਫ਼ਤਰ ਕੰਮ ਕਾਜ ਦੇ <foreign lang="eng">10</foreign> ਦਿਨਾਂ ਵਿਚ ਐਲ-ਈ-ਏ ਜਵਾਬ ਦੀ ਕਾਪੀ ਮਾਪਿਆਂ ਨੂੰ ਭੇਜਦਾ ਹੈ ।</s> 
<s>ਜੇ ਤੁਸੀਂ ਐਲ-ਈ-ਏ ਦੇ ਜਵਾਬ ਦੇ ਬਾਰੇ ਆਪਣੇ ਵਿਚਾਰ ਦੱਸਣਾ ਚਾਹੋ ਤਾਂ ਤੁਸੀਂ ਹੋਰ ਸਬੂਤ ਨਾਲ ਲਾ ਕੇ ਕੰਮ ਕਾਜ ਦੇ <foreign lang="eng">15</foreign> ਦਿਨਾਂ ਦੇ ਅੰਦਰ ਭੇਜ ਸਕਦੇ ਹੋ ।</s> <s>ਉਸੇ ਤਾਰੀਖ਼ ਤਕ ਮਾਪਿਆਂ ਅਤੇ ਐਲ-ਈ-ਏ ਨੂੰ ਅਟੈਂਡੈਂਸ (ਹਾਜ਼ਰ ਹੋਣ ਦਾ) ਫ਼ਾਰਮ ਭੇਜਣਾ ਚਾਹੀਦਾ ਹੈ ।</s> 
<s>ਟ੍ਰਿਬਿਊਨਲ ਦਾ ਦਫ਼ਤਰ ਸੁਣਵਾਈ ਦੀ ਤਾਰੀਖ਼ ਅਤੇ ਥਾਂ ਕੰਮ ਕਾਜ ਦੇ ਘੱਟੋ ਘੱਟ <foreign lang="eng">10</foreign> ਦਿਨ ਪਹਿਲਾਂ ਪੱਕੀ ਕਰਦਾ ਹੈ ।</s> 
<s>ਟ੍ਰਿਬਿਊਨਲ ਦਾ ਦਫ਼ਤਰ ਆਮ ਤੌਰ ਤੇ ਮਾਪਿਆਂ ਅਤੇ ਐਲ-ਈ-ਏ ਨੂੰ ਲਿਖਤੀ ਫ਼ੈਸਲਾ ਸੁਣਵਾਈ ਤੋਂ ਬਾਅਦ ਕੰਮ ਕਾਜ ਦੇ <foreign lang="eng">10</foreign> ਦਿਨਾਂ ਵਿਚ ਭੇਜਦਾ ਹੈ ।</s></p>                

</body>
</text>
</cesDoc>