<cesDoc id="guj-w-misc-pl00s003" lang="guj">
<cesHeader type="text">
<fileDesc>
<titleStmt>
<h.title>guj-w-misc-pl00s003.txt</h.title>
<respStmt>
<respType>Electronic file created by</respType>
<respName>Central Institute for Indian Languages, Mysore</respName>
<respType>transferred into Unicode and CES format by</respType>
<respName>"Unicodify" software by Andrew Hardie</respName>
</respStmt></titleStmt>
<publicationStmt>
<distributor>UCREL (on behalf of CIIL)</distributor>
<pubAddress>Department of Linguistics, Lancaster University, Lancaster, LA1 4YT, UK</pubAddress>
<availability region="WORLD"></availability>
<pubDate>03-08-17</pubDate>
</publicationStmt>
<sourceDesc>
<biblStruct>
<monogr>
<h.title>unknown</h.title>
<h.author>unknown</h.author>
<imprint>
<pubPlace>India</pubPlace>
<publisher>Unknown - unknown</publisher>
<pubDate>unknown</pubDate>
</imprint>
<idno type="CIIL code">pl00s003</idno>
</monogr></biblStruct></sourceDesc></fileDesc>
<encodingDesc>
<projectDesc>Text collected for the CIIL Corpus, subsequently integrated into the EMILLE/CIIL Monolingual Written Corpora.</projectDesc>
<samplingDesc>Simple written text only has been transcribed. Diagrams, pictures and tables have been omitted. Sampling begins at page unknown.</samplingDesc>
<editorialDecl><conformance level="1"></conformance></editorialDecl>
</encodingDesc>
<profileDesc>
<creation><date>03-08-17</date></creation>
<langUsage>Gujarati</langUsage>
<wsdUsage>
<writingSystem id="ISO/IEC 10646">Universal Multiple-Octet Coded Character Set (UCS).</writingSystem>
</wsdUsage>
<textClass>
<channel mode="w">print</channel>
<constitution type="composite"></constitution>
<domain type="public"></domain>
<factuality type="fact"></factuality>
</textClass>
<translations></translations>
</profileDesc>
<revisionDesc></revisionDesc>
</cesHeader>

<text><body>

<p>+ 
 7મિયાં ફુસકી 
 8મિયાં ફુસકી 
 7ચકડોળમાં 
 8ચકડોળમાં 
 લેખક - જીવરામ જોષી 
 પાન નં 5 
 	 મોટો મેળો ભરાયો હતો . 
 	 દલા શેઠ  પહેલેથી પહોંચી ગયા હતા . 
 	 તભા ભટ અને ફુસકી મિયાં  પણ ગયા હતા . 
 	 મેળામાં ભારે  ધમાલ હતી . લોકોનો પાર  નહિ . 
 	 મેળો ખરેખરો જામેલો . અકડોળ જોઇને તો મિયાં  છક થઇ ગયા . 
 	 ભટજી  આગળ  આગળ ચાલે છે . મિયાં  પાછળ આવે છે . ચકડોળ જોવામાં મિયાં તલ્લીન થઇ ગયા . 
 ચાલે છે ખરા  પણ ધ્યાન છે ચકડોળમાં . આવા ઊંચાં અને મોટાં ચકડોળ મિયાંએ  કદી જોયેલાં  નહિ . ઊંચેથી 
  નીચે આવે અને  નીચેથી ઊંચે જાય . 
 	 મિયાં  આમ ચકડોળ જોવામાં રહ્યા અને ભટજી  આગળ નીકળી ગયા . માણસોની ભીડ ખરેખરી . મિયાંને 
 ધ્યાન રહ્યું  નહિ . ધડામ કરતા એક  માણસ  જોડે અથડાયા .  આગળ જુઓ તો ભટજી દેખાયા  નહિ . 
 	 ભટજી ! ઓ ભટજી ! તભા ભટ હો  આમ બૂમો પાડી . 
 	 ભટજી સાંભળે શાના ! આવી ધમાલમાં સંભળાય 
 
 પાન નં 6 
  પણ  નહિ . ભટજી  ક્યાંક નીકળી ગયા . મિયાંએ  આમ  તેમ તપાસ કરી . ઉતાવ઴ા ઉતાવળા  આગળ ગયા . 
 ભટજી દેખાયા  નહિ . 
 	 ફુસકી મિયાં ચિંતામાં પડી ગયા . ભટજી વિના બધું  નકામું .  હવે  શું કરવું ? ભટજીને શોધવા  કેમ ? 
 આ ભીડમાં પત્તો લાગે  નહિ . 
 	 મિયાં  ત્યાં જ ઊભા રહી ગયા . વિચાર કરે છે કે  હવે  શું કરવું ?  એમને  એમ ઘણી વાર સુધી મિયાં 
 ઊભા રહ્યા . ઊભા ય  ક્યાં સુધી રહેવું ? પગ થાકી ગયા . મિયાં બેસી પડયા .  સામે ચકડોળ ફરે છે . મિયાં 
 બેઠા બેઠા જુઓ છે . વિચાર કરે છે કે જોરથી બૂમો પાડું .  કદાચ સાંભળે તો !  પણ આ ઘોંઘાટમાં બૂમ 
 સંભળાય  નહિ . 
 	 ચકડોળમાં કોઇ બેઠેલું .  તેના બીજા માણસો ઊભા રહેલા . ચકડોળ ફરે છે .  તે માણસે ચકડોળમાંથી 
 બૂમ  મારી .  એની સાથેના માણસે  તેને કહ્યું : `  અમે  અહીં જ ઊભા છીએ . ' 
 	 મિયાંને ઉપાય સૂઝયો . મિયાં વિચાર કરે છે કે , ચકડોળમાં બેસશું .  કયારે ય ચકડોળમાં બેઠા નથી . 
 જરા  લહેર  પણ થશે . ચકડોળની ફીરકી  ઉપર ઊંચે 
 
 પાન નં 7 
 જાય એટલે મોટી બૂમ પાડું . ભટજીને બોલાવું . ઊંચેથી બૂમ પાડીએ તો નીચેવાળાને  ઝટ સંભળાય . ભટજી 
  આટલામાં હશે  તે બૂમ સંભળાશે . લહેરની લહેર અને કામનું કામ . પોતો આવો  સરસ ઉપાય શોધી કાઢયો 
  એ વાત  ઉપર મિયાં ફુસકી રાજી  થયા . 
 
 	 આ ઉપાય  સરસ છે .  તરત જ મિયાં ઊઠયા . જઇને ચકડોળમાં બેઠા . ચકડોળ માંડયું ફરવા . 
  પહેલાં તો ધીમું ધીમું ફરે .  એમ કરતાં જોરજોરથી ફરવા માંડે . પહેલો ફેરો થયો કે મિયાં ઊંચે ગયા . 
 જોયું તો ચારેકોર બધું દેખાતું હતું .  દૂર  દૂર સુધી માણસો દેખાતા હતા . મિયાં  હજી તો જુએ કે પાછા 
  નીચે આવી ગયા . ચકડોળ કંઇ ઊંચું ને ઊંચું રહે  નહિ . જેવું ઊંચે ચડે તેવું જ  નીચે આવે . 
 
 	  ત્યાં મિયાંને બીજી વાત સૂઝી . મિયાંએ વિચાર્યું કે ચકડોળમાં ઊભો થઇ જાઉં .  પછી ભટજીના નામની 
 બૂમો પાડું . ભટજી બૂમો સાંભળશે ને  મને ચકડોળમાં ઊભેલો જોઇ લેશે .  દૂર  દૂર સુધી બધાને જોવાય છે . 
  નીચે ઊભા ઊભા બૂમો પાડીશું  એ  નકામું જશે . ભટજી બૂમો તો સાંભળશે  પણ  હું  ક્યાં છું  એ સમજશે 
  નહિ .  પણ ચકડોળમાં ઊભો હોઇશ એટલે 
 
 પાન નં 17 
 	 તભા ભટ કહે : ઓ ભાઇ ચકડોળવાળા ! ઊભું રાખી દે . આ મિયાં કચડાઇ મરશે .  હમણાં ભોંય 
  સાથે અથડાશે . 
 	 ચકડોળવાળો કહે :  પણ  હું  શું કરું ? ગમે તેટલું ઊભું રાખું તો ય બે  ફેરા ફરશે . 
 	 ભટજી કહે : તો તો  મારા ફુસકી મિયાંનો દાટ   વળી જાય . ગમે  તેમ કર  પણ ઊભું રાખ . 
 	 આમાં વાત કરવાનોય સમય નહોતો . ચકડોળવાળા મંડી પડયા . બધું બળ એકઠું કરીને ચકડોળ ઊભું 
 રાખવા લાગ્યા . તભા ભટ  પણ વળગી પડયા . ચકડોળ ઊભું રાખવા ભટજી જોર કરવા લાગ્યા .  સાથે 
 પડકારા  પણ કરતા જાય . 
 ખરા ભાઇ ખરા ! 
 લગાવો જોર ! 
 હાં  મારા ભાઇલા ! 
 હંબો હંબો ! 
 ભાઇ ભા ઇ ! 
 	  આમ મોટી મોટી બૂમો પાડી અને બધાએ જોર કર્યું . ચકડોળ ઊભું રાખવા ભારે  બળ લગાવ્યું .  એમ 
  એકાએક ચકડોળ ઊભું રહે  નહિ .  પણ જરા  ધીરું પડી ગયું . 
 
 પાન નં 18 
 	 ભટજી કહે : હાં  મારા ભાઇ ! જરા   વધારે બળ લગાવો .  હમણાં ઊભું રહેશે . 
 	 લોકોની હસાહસ . 
 	 તાળીઓની રમઝટ . 
 	 ધક્કામુક્કીનો પાર  નહિ . 
 	 ભીડ તો ખરેખરી . 
 	  એમાં પડાપડી અને મારામારી જોવા જેવી થઇ . એક  ખેલ થઇ ગયો . 
 	  પણ  હવે રંગ બદલાઇ ગયો . અત્યાર સુધી લોકો હસતા હતા . મિયાં ફુસકીનો રંગઢંગ જોઇને ઠેકડી 
 કરતા હતા . મિયાં ગાંડિયો છે  એમ માનતા હતા . એક  ગમ્મત સમજીને મઝા કરતા હતા .  પણ  હવે સૌનું 
 હસવું ઊડી ગયું . તાલીઓ બંધ  થઇ ગઇ . સૌ ચકડોળ  સામે જોઇ રહ્યા . મિયાંનુ ખાનું  નીચે આવે તો મિયાં 
 ભોંય  સાથે અથડાય .  કાં પડે  નીચે અને  કાં જાય ઊંચે ,  પણ ભોંય અને ખાના વચ્યે  વધારે છેટું નહોતું . મિયાં 
 લટકતા હોય , ખાનું  નીચે આવે તો તો મિ૟ાંને વાગે જ . વાગે અને પીડા થાય  એમાં હસવા જેવું  ન હોય  એમાં 
 ઠ્ઠ્ઠો  પણ નથી . કોઇને હાનિ થાય અને બીજાને હસવાનું 
 
 પાન નં 19 
 સૂઝે ,  એ તો ખોટું જ . એવું કોઇને ગમે  નહિ એટલે બધા લોકો જોઇ રહ્યા . 
 	 મિયાંનુ ખાનું  નીચે ઊતરવા માંડયું .  હવે ભોંય આવી પહોંચવાને થોડી વાર હતી . એક  ખાનું જ બાકી  
 હતું . ચકડોળ જરા  ધીમું પડી ગયું હતું . ચકડોળવાળા અને તભા ભટ પૂરેપૂરા બળથી અટકાવવા મંડી 
 પડયા . 
 	 તભા ભટે બૂમ પાડી : ઓ ભાઇઓ ! જુઓ છો  શું ? આવો આવો અને ચકડોળ ઊભું રખાવો . 
 
 આ સાંભળતા જ લોકો દોડયા .  ત્યાં એક  બે  માણસો તો નહોતા . હજારો માણસો છે . તભા ભટની વાત 
 સાંભળી કે એક  ટોળું છૂટયું . એક   જાણે કે  હું ચકડોળ રોકવામાં પહેલો થાઉં . બીજો  જાણે કે  હું .  એમ સૌ 
 દોડી પડયા . ચકડોળ ફેરવવાનો દાંડો ટૂંકો હતો . પકડવા લોકો પડાપડી કરવા લાગ્યા .  એમાં ધક્કા  પણ વાગે . 
 એકને બીજાનો ધક્કો વાગ્યો . તેણે ત્રીજાને ધક્કો માર્યો , ત્રીજાએ  વળી ચોથાને ઠોંસો લગાવી દીધો . કોઇ જોતું 
 નથી કે કોને કોણે માર્યું . 
 	 તેણે ગુસ્સે થઇને કહ્યું :  એય પાજી  ! જોતો નથી ? આંખો છે કે  નહિ ?  મારે છે કોને ? 
 
 પાન નં 29 
 	 ચકડોળવાળા કહે : સાહેબ , આ બામણે જ ધાંધલ કરી અને  એનો ભાઇબંધ ફુસકી તો ખરેખરો . 
 	 ભટજી કહે ! મિયાંએ ધમાલ કરી હોય તો ભલે .  હું ધમાલ બમાલ કરતો જ નથી , અને  એ વાતમાં 
 જાણતો ય નથી . 
 	 ચકડોળવાળા કહે : હા , સાહેબ , એણે બૂમો પાડીને લોકોને બોલાવ્યા હતા .  પોતે તો  વળી મોટા રાગ 
  તાણીને કકળાટ કરતા હતા . 
 	 ભટજી કહે :  એ તો બોલાવવા જ પડે ને ! બિચારા મિયાં લટકી પડયા હતા . ચકડોળ હતું . 
  પછી  શું કરવું ? બૂમો પાડવી પડે . 
 	 ફોજદાર કહે : હાં તો  તમે બૂમો પાડેલી  એ વાત તો સાચી જ . 
 	 ચકડોળવા઴ા કહે : સાહેબ , આ બામણે બૂમો પાડી એટલે લોકો દોડી આવ્યા  તેને લીધે મારામારી 
 થઇ .  અમે તો  સાવ  નિર્દોષ છીએ . 
 	 ફોજદાર કહે :  એ બધું  અમે જાણીએ છીએ . લુચ્યા લોકો જાણી જોઇને આવી ધમાલ મચાવે છે . 
 ધમાલ મચે એટલે જેનો તેનો માલ ઉઠાવી જાય .  તે 
 
 પાન નં 30 
 વિના આવા બામણા અને મિયાંને ભાઇબંધી શાની હોય ? 
 	 ભટજી કહે : સાહેબ ,  મારી તો પાઘડી ગઇ . મિયાંનો તો પત્તો જ નથી .  કોણ  જાણે  ક્યાં ગયા ! 
 	 ફોજદાર કહે : ચાલો , બેસી જાઓ એક   બાજુ .  મારે  તમારી વાત સાંભળવી નથી . 
 	 ભટજી કહે :  કાં ? 
 	 ફોજદાર કહે :  કાં  શું ? આ ધમાલ મચાવવા માટે  તમને સજા થશે . કેટલું બધું નુકસાન થયું ? 
 	 ભટજી કહે :  પણ સાહેબ ! 
 	 ફોજદારને ચડી રીસ . ભટજીની ફાંદ પર  એક  સોટી ચમચમાવી દીધી અને કહ્યું : ચૂપચાપ બેસી જા . 
 તારી એક   પણ વાત નથી સાંભળવી . 
 	 બિચારા ભટજી એક   બાજુ બેસી ગયા . ભારે  ચિંતામાં પડી ગયા . ધમાલ તો  એની મે઴ે મચેલી . 
 	 ભટજી હસી ગયા . ફોજદારને ભટજી  ઉપર ઘણો ગુસ્સો ચડી ગયો . 
 	 ભટજી કહે : સાહેબ ! 
 
 પાન નં 31 
 	 ફોજદારે સાંભ઴્યું તો ખરું  પણ  કશું બોલ્યા  નહિ . 
 	  વળી પાછા . જોરથી ભટજી બોલ્યા : સાહેબ ,  મારી વાત સાંભળશો ? 
 	 ફોજદાર  વળી કંઇ  ન બોલ્યા . 
 	 તભા ભટે ફોજદારને હાથ જોડીને કહ્યું : સાહેબ ,  મારો કશો વાંક નથી . 
 	 ફોજદાર કહે : ચૂપ બેસી રહો .  તમારા જેવા ગઠિયાને  અમે ઓળખીએ છીએ . આવી રીતે ધમાલ 
 મચાવે .  પછી લૂંટ ચલાવે . 
 	 તભા ભટને ભારે  નવાઇ લાગી .  પોતે ગઠિયા  પણ નથી .  અમે લૂંટફાટ  પણ નથી કરી અને ધમાલ તો 
 લોકોએ જ મચાવી હતી . 
 	 ભટજી બોલ્યા : સાહેબ  હું તો રાંક  બ્રાહ્મણ છું . ગઠિયો બઠિયો નથી . 
 	 ફોજદાર કહે : ભલે  તમે તો  જાણે રાંક  બ્રાહ્મણ છો .  તમારો સાથી  કોણ હતો ? 
 	 ભટજી કહે :  એ તો મિયાં ફુસકી હતા . 
 	 ફોજદાર કહે :  એ  ક્યાં ગયા ? 
 
 પાન નં 41 
 ભટને રાત રોકયા . જમાડયા અને દસ  રૂપિયા ઇનામ આપ્યું . ફુસકી મિયાંના આનંદનો પાર  ન રહ્યો . 
 
 	 મિયાં ફુસકી અને તભા ભટ ઘેર જવા ઊપડયા . 
 
 	 મિયાં ફુસકીના રૂબાબનો પાર નથી . મોં હસું હસું થાય છે અને ખરેખરી મોજમાં આવી ગયા છે . 
 	 તભા ભટ બિચારા થાકી ગયા હતા . ફોજદીરની સોટીઓ  પણ ખાવી પડેલી . પાઘડી  પણ ખોવાઇ ગઇ . 
  એમને  બહુ આનંદ નહોતો .  આગળ  આગળ , મૂંગા મૂંગા ચાલતા હતા .  પાછળ  પાછળ ફુસકી મિયાં  દૂર ગયા 
 હશે કે ખડખડાટ કરતા મિયાં હસ્યા . તભા ભટે પાછું મોં વાળીને જોયું . તાળી પાડે છે અને મિયાં  હસે છે . 
 તભા ભટે  સામે જોયું . એટલે ફુસકી મિયાં ઊભા રહી ગયા .  વળી પાછા જોરથી હસ્યા . 
 	 ભટજી કહે : ગાંડા થયા છો ? 
 	 મિયાં બોલ્યા : અરે ભારે  ગમ્મત થઇ . 
 	 ભટજી કહે : ગમ્મત ને ફમ્મત .  ઝટ  ઝટ ચાલવા માંડો . 
 	 મિયાં બોલ્યા :  પણ સાંભળો તો ખરા ભટજી ! ભારે  મઝા થયેલી . 
 	 મિયાં બોલ્યા :  મારા સમ , ઊભા રહો , 
 	 સમ દીધા એટલે તો ઊભું જ રહેવું પડે . 
 
 પાન નં 42 
 ભટજીને મિયાં ફુસકી  ઉપર સગા ભાઇ જેવું હેત છે . ભલા  એમના સમ તો પાળવા જ પડે . ભટજી ઊભા 
 રહ્યા . 
 	 ભટજી કહે :  ઝટ કહી દો . 
 	 મિયાં બોલ્યા : પેલા ચોરને બંદાએ પછાડેલો  એ જાણો છો ? પાછો  હું તો  એની  ઉપર ચડી બેઠો . 
  એની તો  મને ખબર જ નહોતી . તાનમાં ને તાનમાં હુ ભાગવા ગયો .  એવામાં  કોણ  જાણે  શું સૂઝયું કે 
 ભાગવાને બદલે ચોરને માથે કૂદી પડયો .  પછી બંદા ડરે  શાને ? ઐં 
 	 ભટજી કહે : ઓ ઐં ને ફેં 
 	 મિયાં કહે :  કાં ? 
 	 ભટજી કહે :  કાં  કાં કરતાં  ઝટ ચાલો .  હજી શહેરમાં જવું છે .  ત્યાં  હજી તો ઘણું કામ છે . 
 	 મિયાં કહે :  આપણે  હવે શહેરમાં કંઇ નથી .  સીધેસીધા ચાલ્યા જઇશું . 
 	 ભટજી કહે : પાઘડી વિના જવાશે  નહિ .  તમે તો મળ્યા  પણ અમારી પાઘડી ગઇ . 
 	 મિયાં કહે :  કાં ? 
 	 ભટજી કહે :  તમને જરા  ય અક્કલ નથી . 
 	 મિયાં કહેં : જાઓ , જાઓ , અમને તો  શું  અમારા 
 
 પાન નં 43 
 બાપદાદાને ય અક્કલ નો પાર નહોતો . હા ,  અમે સિપાઇ બચ્ચા ! 
 	 ભટજી કહે : તો  આમ ઉઘાડે માથે ઘેર જવાતું હશે કે ? 
 	 મિયાં કહે : જવું ય પડે , પાઘડી ખોવાઇ ગઇ તો માથું ઉઘાડું જ રહે ને ? 
 	 ભટજી કહે :  અમારાથી ઉઘાડે માથે  ના જવાય . 
 	 મિયાં બોલ્યા : તો  મારી ટોપી ઓઢી લેજો .  અમે ઉઘાડે માથે જઇશું . 
 	 ભટજી કહે : એક  કોડી જેટલી ય બુદ્ધિ  તમારામાં નથી . 
 	 મિયાં કહે :  કાં ? 
 	 ભટજી કહે : હીંડો હીંડો ,  કાં ને ફાં  પછી . 
 	  ત્યાં ભટજીએ  પોતાનાં ધોતિયાની ભેટમાં ટટોળી જોયું . રૂપિયાની નાનકડી થેલી ધોતિયાની કોરે અને 
  પોતાની કેડમાં ખોસેલી .  તે થેલી  ન મળે થેલી મળી  નહિ એટલે ભટજી  આમ કેડે હાથ ફેરવે . 
 	 મિયાં બોલ્યા : નાચો  કાં ભટજી ? 
 	 મોં બગાડીને ભટજી બોલ્યા : રૂપિયાની થેલી પડી ગઇ . . . 
 
 પાન નં 53 
  ત્યાં ભટજી પાછા આવ્યા . દાતણપાણી કરીને  પાછળથી દલા શેઠ આવ્યા .  પોતે આજ લહેરમાં છે . ફુસકી 
 મિયાંને  પોતે ખરેખરા બનાવ્યા . ખરેખરી મઝા કરી . આથી જરા  જરા  મલકાય છે . 
 	 તાલી પાડી અને ફુસકી મિયાંએ ભટજીને કહ્યું : ભટજી ! ભારે  નવાઇની વાત થઇ . 
 	 ભટજી કહે :  શું ? 
 	 મિયાં કહે : દલાશેઠની વાત સાચી . 
 	 દલા શેઠ હસ્યા . 
 	 ફુસકી મિયાં બોલ્યા : શેઠજી !  તમારી વાત સાચી હો . સપનું તો એવું  મને ય આવેલું .  પણ  મને 
  એમ કે ખોટાં સપનાં તો રોજ આવે છે . તેવું આ ય સપનું ખોટું હશે  પણ  તમારા સપના જેવું જ  મારું 
 સપનું સાચું છે હો . . . . . . . ! 
 	 ભટજી બોલ્યા :  તમને ય સાચું સપનું આવ્યું ? 
 	 મિયાં બોલ્યા : ત્યારે  તદ્દન સાચું , 
 	 ભટજી કહે : કહો તો ખરા . 
 	 મિયાં બોલ્યા :  હું તો સપનાની વાત સાંભળીને દંગ જ થઇ ગયો . માળાં સપનાં , ય  હવે 
 સાચાં આવવા લાગ્યાં . 
 	 ભટજી કહે :  શું સપનાની વાત ? 
 
 પાન નં 54 
 	 મિયાં કહે : શેઠને  જેમ સાચું સપનું આવ્યું  એમ  મને  પણ સાચું સપનું આવેલું . 
 	 ભટજી કહે : કેવું સપનું ? 
 	 મિયાં કહે : જુઓ ,  હું માંડયો ઊંઘવા એટલે સપનું આવ્યું . ખુદા આવીને ઊબા રહ્યા . ખુદાએ  મને 
 જગાડયો .  મને કહે કે  એ . . . . . . ૟ નસકોરાં શાના બોલાવે છે ? 
 	  મને તો ચડી ગઇ રીસ કે ફટાક કરતો એક  તમાચો ચોડી દઉં .  એમ થયું  પણ મોઢા  સામે જોતાં જ 
  હું તો  છક થઇ ગયો , આ ત્રણ  હાથની દાઢીવા઴ો  કોણ હશે ? 
 	  મેં કહ્યું :  આપ  કોણ છો ? 
 	 ખુદા કહે : બેટા ,  હું  તારો ખુદા છું . 
 	 એટલે  મેં ખુદાના પગમાં માથું મૂક્યું , અસલી ખુદા જોઇને  મને ઘણો આનંદ થયો . 
 	 ખુદા  મને કહે :  હું  કેમ આવ્યો છું .  તું  જાણે છે ? 
 	  મેં કહ્યું :  ના જી . 
 	 ખુદા કહે : જો ,  તારા ભાઇબંધ  સાથે  બીજું  કોણ છે ? 
 	  મેં કહ્યું ભાઇબંધ તો પાકા છે ભટજી અને 
 
 પાન નં 55 
 	 બીજા છે દલા શેઠ . 
 	 ખુદા કહે :  હું કહું કે  એની ભાઇબંધી છોડી દે તો ? અને દલા શેઠની ભાઇબંધી કરી લે તો ? 
 	  મેં કહ્યું :  એ વાત  નહિ બને .  આપ ખુદા હો તો મોજ કરો . અમારે આપની વાત  માનવી નથી . તભા 
 ભટની ભાઇબંધી  ના છૂટે .  બીજું  જે કહો  તે કરું . કહો તો ઘરબાર છોડી દઉં  પણ દલા શેઠની  સાથે અમારે 
  નહિ બને . 
 	 ખુદા કહે : તારે  પણ દલા શેઠ જેવી પાઘડી પહેરવી જોઇએ . જેવા ભાઇબંધ તેવા  આપણે . એક  
 સરખો વેશ કરીએ તો સરખી ભાઇબંધી થાય . 
 	  મેં કહ્યું :  તમે ય  શું મારાભાઇ , ખુદા થયા છો અને આવી વાતો કરો છો ? એવા લોકોની પાઘડી 
  આપણાથી પહેરાય કે ? 
 	 ખુદા કહે : એવા  કેમ ! 
 	  મેં કહ્યું :  કેમ  શું ,  એ તો વાણિયાની પાઘડી  આપણાથી મિયાંભઇથી એવી પાઘડી પહેરાય ? 
 	 ખુદા બોલ્યા : વાણિયાના અને મિયાંના એવા ભેદ  મારે  ત્યાં નથી .  મારે મન તો વાણિયા  પણ સરખા 
 અને મિયાં  પણ સરખા .  મારે તો માણસ  માત્ર  મારાં છોકરાં છે . 
 
 પાન નં 65 
 	 ચોકીદાર બોલ્યો : ગુડાંનો પત્તો મળી ગયો . 
 	 બધા કહે :  ક્યાંથી ? 
 	 ચોકીદાર બોલ્યો : ગુંડો જાડો હતો ને ?  મેં  તેને જોયો હતો એટલે  એને ઓળખી પાડયો અને પાછો 
 આવ્યો . 
 	 ગોરધન ઠક્કર કહે : હા હા .  ક્યાં છે  એ ? 
 	 ચોકીદાર કહે :  તે એકલો નથી  એની  જોડે એક  દુબળોપાતળો મિયાં  પણ છે .  તે  મારી  સામે હાંસી 
 કરતો આવ્યો અને પેલો ગુંડો વેશ બદલીને બામણ બની વડ  નીચે બેઠો હતો . 
 	 બધા કહે : હોય  નહિ  પણ હા . ગુંડા બદમાશો  એમ જ કરે .  તેને પકડવા  હું  પાછળ દોડેલો . . . .  તે 
  મારી  આગળ  આગળ ભાગતો જતો હતો .  લગભગ પેલો વડ  પાસે જ  તે પહોંચ્યો હશે  પણ વચમાં થોરની 
 ઘટાદાર વાડ આવી ગઇ એટલે  તે દેખાણો  નહિ .  અમે તો વાડના છીંડામાં થઇને મારગ પર  ગયા કે વડ 
  પાસેથી એક  મિયાંને અમારી  સામે આવતા જોયા . એટલી વારમાં ચોર જાય  ક્યાં ?  આજુબાજુ ચોર દેખાયો 
  નહિ . પેલા મિયાંએ અમને રોક્યા  પણ  અમે  આગળ ગયા તો વડ  નીચે ચોરને જોયો . 
 	 બધા કહે : તો પકડી લેવો હતો ને ! 
 
 પાન નં 66 
 	 ચોકીદાર કહે :  હું એકલો હતો . પકડવા જાઉં તો છટકી જાય .  એને  એમ કે  મેં  તેને ઓળખ્યો નથી . 
  હવે  આપણે ચાર  ટુકડી પાડો . ચારે  બાજુથી જઇએ . લપાતા જવું અને ઘેરી લેવા . 
 	 રાણો વાણંદ બોલ્યો : હા ,  એ વાત સાચી .  એમ જ કરીએ . 
 	 ગામ લોકોએ ચાર  ટુકડી પાડી . ચારે દિશામાં ચાલી નીકળ્યા . લાઠી , ધારિયાં અને ભાલાં લઇને 
 ઊપડયા . 
 	 ફુસકી મિયાં અને તભા ભટ આરામ કરીને તાજા થયા .  હવે ચાલવાની તૈયારી કરી . થોડે  દૂર ભાલાં 
 અને લાઠીઓના છેડા જોયા . એટલે એક  ટોળી લપાતીછુપાતી સામેથી આવતી હતી . મિયાં જોઇ ગયા અને 
 ભટજીને વાત કરી . 
 	 ભટજી ગભરાયા અને બોલ્યા : ફુસકી મિયાં ! ભાગો .  નક્કી આ જોઇ ચોરટા ગુંડાઓની ટોળી હશે . 
 પેલા ચોકીદારની વાત સાચી . 
 	 ફુસકી મિયાં કહે : તો  આપણે  આજુબાજુ ભાગવા માંડીએ . 
 	 ભટજી કહે : આ જગા ચોરટા અને ગુડાંની લાગે છે . જુઓ  સામે ડાબી  બાજુ .  ત્યાં  પણ છે . 
 
 પાન નં 67 
 જુઓ  સામે કોઇ લપાતા છુપાતા આવે છે . આપણને બે   બાજુથી ઘેરી લેવાનો દાવ ગોઠવીને આવતા લાગે છે . 
 	 ફુસકી મિયાંએ જોયું . 
 	 મિયાં બોલ્યા : હા ભટજી . ભાગો  ઝટ . પાછલી  બાજુથી . 
 	 ભટજી અને ફુસકી મિયાં ભાગ્યા ,  પણ દોડયા  નહિ . ઉતાવળા ઉતાવળા પાછલી  બાજુ ચાલવા 
 માંડયા . 
 	 ચોકીદાર બોલ્યો : જુઓ ભાઇઓ !  મારી વાત સાચી ને ? ધઆપણને આવતા જોયા કે બંને  ભાગ્યા . 
 	 બધા કહે : ` હા , હા , ચોરટો હોય તો ભાગે ને ! ' 
 	 ભટજી અને મિયાં ભાગ્યા તો ખરા ,  પણ  એ  બાજુ ય બીજી ટોળી હતી . ચોકીદારે બૂમ પાડી દીધી 
 કે : ` ભાગ્યા છે . . . . . . . ઘેરી લેજો . . . . ' આ બૂમ સાંભળી કે બીજી ટોળી નીકળી પડી . ફુસકી મિયાં અને 
 ભટજી અટકી ગયા . 
 	 મિયાં બોલ્યા : ભટજી ! આ  બાજુ ય ચોરટાની બીજી ટોળી છે .  હવે દોડવું પડશે . 
 	 ભટજી કહે : વાતો કરો મા . માંડો દોડવા . 
 	 ભટજી અને મિયાં ફુસકી દોડી પડયા . 
 
 * 
 - - - - - - - - - - - - - - - - - - - - - - - - - - - - - - - - - - - - - - - - - - - - - - - - - - - - - - - - - - - - - - - - 
 
 
 
 
 </p></body></text></cesDoc>