<cesDoc id="guj-w-literature-story-ss00g003" lang="guj">
<cesHeader type="text">
<fileDesc>
<titleStmt>
<h.title>guj-w-literature-story-ss00g003.txt</h.title>
<respStmt>
<respType>Electronic file created by</respType>
<respName>Central Institute for Indian Languages, Mysore</respName>
<respType>transferred into Unicode and CES format by</respType>
<respName>"Unicodify" software by Andrew Hardie</respName>
</respStmt></titleStmt>
<publicationStmt>
<distributor>UCREL (on behalf of CIIL)</distributor>
<pubAddress>Department of Linguistics, Lancaster University, Lancaster, LA1 4YT, UK</pubAddress>
<availability region="WORLD"></availability>
<pubDate>03-08-17</pubDate>
</publicationStmt>
<sourceDesc>
<biblStruct>
<monogr>
<h.title>unknown</h.title>
<h.author>unknown</h.author>
<imprint>
<pubPlace>India</pubPlace>
<publisher>Unknown - unknown</publisher>
<pubDate>unknown</pubDate>
</imprint>
<idno type="CIIL code">ss00g003</idno>
</monogr></biblStruct></sourceDesc></fileDesc>
<encodingDesc>
<projectDesc>Text collected for the CIIL Corpus, subsequently integrated into the EMILLE/CIIL Monolingual Written Corpora.</projectDesc>
<samplingDesc>Simple written text only has been transcribed. Diagrams, pictures and tables have been omitted. Sampling begins at page unknown.</samplingDesc>
<editorialDecl><conformance level="1"></conformance></editorialDecl>
</encodingDesc>
<profileDesc>
<creation><date>03-08-17</date></creation>
<langUsage>Gujarati</langUsage>
<wsdUsage>
<writingSystem id="ISO/IEC 10646">Universal Multiple-Octet Coded Character Set (UCS).</writingSystem>
</wsdUsage>
<textClass>
<channel mode="w">print</channel>
<constitution type="composite"></constitution>
<domain type="public"></domain>
<factuality type="fiction"></factuality>
</textClass>
<translations></translations>
</profileDesc>
<revisionDesc></revisionDesc>
</cesHeader>

<text><body>

<p>
 0ફાઈલનું નામ - SS000003 . Gal 
 0પુસ્તકનું નામ - પન્નાલાલની શ્રેષ્ઠ વાર્તાઓ 
 0લેખક - પન્નાલાલા પટેલ . 
 0આવૃત્તિ - પહેલી આવૃત્તિ 1982 
 0પ્રકાશક - સાધના પ્રકાશન વતી , અમાદાવાદ 380001 . 
 0મળવાનું ઠેકાણું - D . O . E . 
 0વિભાગ - Aesthetics - Literature 
 0ઉપવિભાગ - Short story 
 0કિંમત - રૂપિયા 28 - 00 . 
 0શબ્દ - 
 - - - - - - - - - - - - - - - - - - - - - - - - - - - - - - - - - - - - - - - - - - - - - - - - - - - - - - - - - - - - - - - - - 
 + 
 પાન નં 50 
 
 0 3સુખદુઃખનાં સાથી 
 
 `  કોઈ આંધળીને પાઈ પૈસો  આપો , માબાપ ! ' ફૂટપાથની ધાર 
 પર  બેસી એક  બાઈ પોકારી રહી હતી . 
 
 ` માબાપ ,  કોઈ લૂલાલંગડા પર  દિયા કરો , બાપ ! ' બાજુમાંથી 
 એક  , બેઉ  પગે લંગડાનો અવાજ આવ્યો . 
 
 ` કુણ  જાણે નખ્ખોદિયાં  ક્યાંથી ટળે છે ?  જ્યાં જઉં છું  ત્યાં 
 કેડે ને કેડે . . . . . ' બડબડતી બડબડતી પેલી આંધળી બાઈ ઊઠી  અને 
 દીવાલને ભોમિયો બતાવી ચાલવા લાગી . 
 
 `  એ બેસ બેસ ,  હું જઉં છું . ' પેલા અપંગે ઢસેડાતાં કહ્યું . 
 
 `  તારા બાપનો રસ્તો છે ? ' . . . .  એને બદલે આવું કહેનાર આ 
  પહેલું જ માણસ સાંભળતાં ,  તે બાઈને મશ્કરી લાગી . આસ્તે આસ્તે 
 ચાલતાં તેણે કહ્યું : ` જવું '  તું  ત્યારે તારું મૂળ  જવા  અહીં  પાસે 
 ઘલાણો ' તો ? ' 
 
 `  ના ,  ના , ખરું કહું છું , બેસ . ' લંગડાએ કહ્યું .  અને  પછી 
 હસતાં હસતાં ઉમેર્યું : ` અમથું ગયેલા મૂળ   શું કામ કાઢે 
 છે ? '  એટલામાં જતા એક  ધાર્મિક માણસને દેખતાં  એનો 
 અન્નપૂર્ણા જેવો વાડકો ધરતાં બોલી પડ્યો : ` લંગડાને  કોઈ 
 આલો , માબાપ ! ' 
 
 પાન નં 51 
 ` આંધળીને પાઈ પૈસો આલો , માબાપ ! ' કહી બાઈએ 
 પણ  ઝટ પીઠ ફેરવતાં વાડકો ધર્યો . પેલા શેઠે લંગડાના વાડકામાં 
 પાઈ નાખી . ખણખણાટ સાંભળતા પાછી પેલી બાઈ આર્જવી રહી . 
 શેઠેને ચાલી જતા જોઈ લંગડાએ ભલામણ કરી , ` આ આંધળીને 
 આલતા જાઓ , શેઠ ! ' 
 
 શેઠને દયા આવી ,  અને પાછા ખીસામાંથી પાઈ કાઢતાં કાઢતાં 
 પૂછ્યું : ` અલ્યા , તારી બૈરી છે ? ' 
 
 ` હઆં માબાપ ! ' લંગડાથી બોલી જવાયું ,  અને પેલી બાઈ 
 કાંઈ કહેવા જાય  તે  પહેલાં વાડકામાં  કશુંક ખખડ્યું . શબ્દો જીભ 
 પર  જ રહ્યાં . ગુસ્સો વાયરે ભળ્યો . 
 
 શેઠને ગયા કેડે ,  દૂર  દૂર નજર દોડાવી લઈ લંગડાએ  હજુ ઊભી 
 રહેલી  એ બાઈને  વળી કહ્યું : ` લે બસ , જઉં છું  હું . ' 
 
 બાઈ બેઠી ,  અને લંગડાના ખસવાનો અવાજ આવતાં 
 બોલી : ` બેસને ,  તુંય . કાંઈ  મારા કરમમાંથી થોડું લઈ લેવાનો છે ? ' 
 
 ` પણ માછી મૂળ  કાઢે તો ? ' 
 
 `  તું તો  કે ' તો ' તો ને મૂળ  રે ' વા સરખું તો  કોઈ નથી ? ' 
  સહેજ મોં મલકાવતાં બાઈ બોલી ,  અને  પછી પેલા શેઠે કહેલું 
 યાદ આવતાં મોં ચઢાવી ઉમેર્યું : `  જો પાછો પેલા શેઠને કહ્યું એવું 
  ફરી  કે ' તો ! ' 
 
 ` અરે ગાંડી ,  એમ કહ્યું ને પાઈ મળી .  એમાં તારું  શું થયું ? ' 
 
 બાઈએ  તેના તરફ ફક્્ત ડોકું ફેરવ્યું . લંગડાએ  એની નાચતી 
 પાંપણો પરથી પારખ્યું  કે  એ બંધ  આંખોમાં મોહિની છે . 
 
  પછી પેલીએ  એનું કામ શરૂ કર્યું : ` આંધળીની  કોઈ દિયા 
 કરો માબાપ .  કોઈ પાઈ પૈસો . . . . . ' 
 
 પાન નં 52 
 `  શું કામ મોઢું દેખાડે છે ?  કોઈ આવતું હશે તો  હું કાંઈ 
  નહિ બોલું ?  એટલે  તુંય બોલજે . ' 
 
 બાઈને પણ આ વાત ગમી . છતાંય રોજની ટેવ પ્રમાણે બોલી 
 જવાતું હતું .  અને  જ્યારે પેલો લંગડો બોલતો  ત્યારે  વળી બમણા 
 વેગે બોલતી . 
 
  એમ કરતાં અંધારું પડ્યું . પેલી બાઈ ઊઠી ચાલવા લાગી . 
 
 `  ક્યાં જઈશ ? તારે ક્યાંય ઠામઠેકાણું છે ? ' લંગડાએ 
 પૂછ્યું . 
 
 ` તારે શી પંચાત ? જઈશ  મારે  જ્યાં જતી હોઈશ  ત્યાં . 
 ભિખારીને  વળી ઠામઠેકાણાં શાં ! ' ચાલતાં ચાલતાં  તે બોલી . 
 જવાબની આશા હતી પણ વ્યર્થ ગઈ . 
 
 લંગડો  કંઈ  ન બોલ્યો . તેણે પણ  હમણાં બેચાર દિવસથી 
 ગણેલા નવા ઘ઱ તરફ સરકવા માંડ્યું . 
 
 બીજે દિવસે સૂર્યના આવતાં  પહેલાં લંગડો ઠેકાણે 
 આવી બેઠો  અને પેલી બાઈની પ્રતીક્ષા કરવા લાગ્યો . થોડી 
 વાર કેડે  દૂરથી  તે બાઈ આવતી દેખાઈ . લંગડાએ બમણા વેગે 
 ઘાંટો પાડ્યો : `  કોઈ દિયા કરો રે શેઠ !  કોઈ લંગડાને પાઈ - 
 પૈસો . . . ' 
 
 પેલી બાઈ પણ  તેનાથી થોડે છેટે બેસી દયાળુઓને આર્જવી 
 રહી . 
 
 બપોર ચડ્યે , ઘરાકોની અવરજવર ઓછી થતાં , લંગડાએ 
 બાઈ તરફ સરકતાં પૂછ્યું : ` કેટલા પૈસા આવ્યા ? ' 
 
 ` એક  આનો ને બે  પાઈ . તારે કેટલા થયા ? ' બાઈએ 
 પૂછ્યું . 
 
 પાન નં 53 
 `  મારે તો એક  આનામાંય બે  પાઈ ઘટે છે . '  એટલામાં તો 
 લંગડો  છેક  પાસે આવી લાગ્યો હતો . 
 
 થોડી વાર ચુપકીદી છવાઈ . 
 
 ` તારું નામ  શું ? ' લંગડાએ પૂછ્યું . 
 
 ` તારે  શું કામ છે ? તારું નામ કેહ ને ! ' 
 
 `  મારું નામ તો ચમનો . ' 
 
 `  ત્યારે  મારું નામ જમની . ' કહી જમનીએ  તેના તરફ મોં 
 ફેરવ્યું . 
 
 ચમને જમનીના મોં પર  હાસ્ય જોઈ હિંમત કરી કહ્યું : 
 ` જમની કરતાં ચમની નામ રાખ . ' 
 
 ` તારું જ જમનો રાખ ને ! ' 
 
  એટલામાં ચમને બેચાર ઘરાક જેવા આવતા ભાળી બોલવા 
 માંડ્યું : ` લંગડાને  કોઈ . . . ' 
 
 ` આંધળીને  કોઈ . . . . ! ' જમનીએ પણ બોલવા માંડ્યું . 
 
 બપોર નમતાં બેઉ  જણે  બબ્બે પૈસાના ચણા લઈ લારી - 
 વાળાને ખટાવ્યો . 
 
 સાંજ પડતાં પાછો હિસાબકિતાબ કર્યો  અને જવાની તૈયારી 
 કરી . જતાં જતાં ચમને પૂછ્યું : `  કાલે અગ્યારસ છે . ભાદરકાળી 
 માતાએ આવીશ ? ' 
 
 `  હું શી રીતે આવું ? ક્યાંય ભૂલી પડું તો ? ' 
 
 `  તું  અહીં આવજે ,  પછી  આપણે બેય જઈશું . ' 
 
 ` સારું . ' કહી જમનીએ ચાલવા માંડ્યું . 
 
 પાન નં 54 
 બેઉ   ઉપર કાળનો કુહાડો તો  બહુ નહોતો ફર્યો , હશે 
  અઠ્ઠાવીસ ત્રીસની  આજુબાજુ . પણ ભૂખના કુહાડાએ અંગને વેરણ  
 છેરણ કરી નાખ્યું હતું . 
 
 પાછો દિવસ ઊગ્યો , ને લંગડો  તે રસ્તા  ઉપર આવી જમનીની 
 રાહ જોતો બેઠો . થોડી વાર કેડે જમની પણ આવી લાગી . 
 
 `  જો  મારી  પાછળ આવ્યા કર . ' કહી ચમન ખસવા 
 લાગ્યો . રોજ  જે રસ્તો કાપતાં ઘણી વાર થતી ,  તે આજ  તેનાથી 
  ઝટ  ઝટ કપાઈ જતો હતો - આજે  એને ચાલ પર  કાબૂ રાખવો 
 પડ્યો . રસ્તામાં ઊતરવાનું  કે ચડવાનું આવતું તો ચમન જમનીને 
 ચેતવતો : ` જોજે ઢાળ છે , ' `  એ  અહીં ચડવાનું છે . '  વળી  કોઈ 
 મોટર  કે ઘોડાગાડી રસ્તો ઓળંગતા દેખાતી તોપણ બોલી ઊઠતો : 
 ` જમની ઊભી રે ' , મોટર આવે છે . '  અને  એમ કરતાં કરતાં બેઉ  
 જણે ધારેલે ઠેકાણે આવી , માતાને આંગણે ધૂણી ધખાવી : 
 ` માબાપ !  કોઈ . . . . ! ' 
 
 સાંજ પડવા આવતાં , બેઉ  જણ ઊઠ્યાં . આજ  એમનામાં સારી 
 કમાણીનો ઉલ્લાસ હતો  અને તેમાંય જમનીને  વધારે . 
 
 ` પેલી જગા આવતાં  કે '  જે પાછો હોં ! ' જમનીએ કહ્યું . 
 
 વીજળીના ગોળા ,  પોતાનાં અંતર બાળી બાળી રસ્તાઓને 
 ઝળહળાવી રહ્યા . ચમને રસ્તાની  આજુબાજુ ઘૂઘવતા અંધારાને 
 જોઈ રાત પડતી જાણી ; જમનીએ વાતાવરણને બોલતું સાંભળી રાત 
 પડતી માની . 
 
 જમનીના અંતરમાં આછી આછી ફડક હતી : ` ચમનો  ક્યાંક 
 અવળી  ન દોરી જતો હોય !  અને સવારના કાપેલા રસ્તાનું માપ 
 
 પાન નં 55 
 કાઢતાં ઘડી ઘડી હાથને ભીંત તરફ લંબાવી ખાતરી કરી જોતી : 
 ` પેલી ભીંત આવી  કે  નહિ ? ' 
 
 ` આ તારી હદ આવી જમની !  તું નિત આ મેરથી જ 
 આવતી ' તી . ' 
 
 ` હઆં ,  બરોબર આ જ . ' જમનીએ ઊભી રહી દીવાલને 
 આંગળીઓથી જ જોઈ કહ્યું .  અને મગજમાંના  એના નિતના 
 રસ્તાનો નકશો પણ  વિચારી રહી .  વળી આ માતાના રસ્તાનો 
 નકશો પણ ચીતરી લેવાનો ઓછોવત્તો પ્રયત્ન કરવા લાગી .  એટલામાં 
 ચમનનો અવાજ આવ્યો : ` જમની !  તું  ક્યાં પડી રે ' છે ? 
 સારી જગા  ન હોય તો  મેં એક  સારું ઠેકાણું ખોળી કાઢ્યું છે . 
  ત્યાં નથી  કોઈ  ભિખારી વિતાડે એવું  કે નથી પોલીસવાળા 
 છેડે એવું . '  અને જમનીને ચૂપ રહેલી જોઈ પાછું પૂછ્યું : ` લે હીંડ , 
 આવે છે ? ' 
 
 જમનીએ ફૂટપાથની એક  દિવાલ સોડે ઝાડનાં બે  જબરાં 
 થડિયાં ,  એની  વચ્ચે  એ સૂઈ રહે એટલી જગ્યા , થોડે છેટે પાણીનો 
 નળ ,  એમ  પોતાના ઘ઱  તથા લત્તાનું સ્મરણ કર્યું .  વળી અખંડ  
 રાત જાગતાની સાક્ષી પૂરતાં ભસ્યાં કરતાં બે  કૂતરાં યાદ કર્યા .  તેને 
 જવું  ન ગમ્યું . `  ના ,  મારે તો  મારી સારી જગા છે . ' 
 
 ` તો  તું  જાણે , બાકી  આ જગા સારી હતી . ' ચમન ઉદાસ  
 થતાં બોલ્યો .  અને  પછી ઘસડાવા માંડતાં કહ્યું : ` જા તો . ' 
 
 જમની ચમનની ઉદાસી સમજી ગઈ .  તેને પણ બેઉ  પગે 
 લુલો જાણેલો  અને અવાજથી કલ્પેલો ચમન છોડી જવો આજ નહોતો 
 ગમતો .  આખરે  પોતાને પંથે પડતાં જમનીએ પૂછ્યું : ` કાલ 
 આવીશ ને ? ' 
 
 પાન નં 56 
 ` પાછી  તું ભાંડશે તો ? ' 
 
 ` એવું  ના બોલતો હોય તો !  મેં  ક્યારે તને ભાંડ્યો છે ? ' મોં 
 પર   બનાવટી રોષ હતો . 
 
 ` સારું , જા ' ચમને હસતાં હસતાં કહ્યું  અને  પછી વૃક્ષની નીચેના 
  પોતાના ઘરને ગળે  કોઈ  ન પડી ગયું હોય  એ ફિકરે હાથની ફંગોળો 
 ભરતો સરકવા માંડ્યો . 
 
 ઉનાળાનો સમય હતો  એટલે બિસ્તારાની પીડા ઓછી હતી . 
 
  પછી તો રોજ જમની  તથા ચમન  એ રસ્તા પર  બેસતાં  અને 
 નવરાશની ઘડીએ વાતચીત પણ કરતાં . 
 
 એક  દિવસ જમની પોકારી રહી હતી : ` માબાપ !  કોઈ . . . ' 
  એટલામાં વાડકામાં કંઈક  ખખડ્યું . જમનીએ હાથ ફેરવી જોતાં  અને 
 પાઈ પૈસાને બદલે કાંકરી હાથમાં આવતાં બાજુમાં બેઠેલા ચમનને છૂટી 
 મારતાં કહ્યું : ` ચાળાનો ભરેલો  ન દીઠો હોય તો ! '  અને અવળી 
 દિશામાં ચમનને ખડખડાટ હસતો સાંભળી બોલી : ` આવજે  મારી  પાસે 
  હવે ! ' ચમન તો હસતો જ હતો . 
 
 આજે જમનીનું અક્ષયપાત્ર રૂઠ્યું હતું . સાંજ પડતાં ફક્્ત ચાર  
 પાઈ મળી હતી . સાલ્લાની પાલવતિજોરીએ બાંધેલા ચાર  આનામાંથી 
 ખાવું પડશે  એ વિચારે  તે ઉદાસ  હતી . ચમનને પણ આજ પૈસો જ 
 મળ્યો હતો . પણ તેની  પાસે અકબંધ  પડેલા બે  રૂપિયાનો  તેને તો 
 ગરમાવો હતો . 
 
 ` લે ચાલ , વેળા થઈ . જવું નથી ? ' ચમને પૂછ્યું . 
 
 ` બેસને !  કોઈ દિયાળુ આવે તો . ' જમની બોલી . 
 
 ચમન જમનીની ઉદાસીનું કારણ કળી ગયો . 
 
 પાન નં 57 
  એવામાં કાનોએ બૂટનો ખડખડાટ સાંભળ્યો . `  કોઈ 
 આંધળીને  આપો , માબાપ ! છાલામાં કંઈક  પડતું સાંભળી ` જીવતા 
 રો ' શેઠ , ભગવાન  તમારો વેલો વધારો . '  અને છાલામાંથી પૈસો હાથ 
 આવતાં મોં પર  આનંદ નાચી રહ્યો . 
 
 ` જમની ! વેલો તો શેં વધે ,  મૂળમાં બૈરુ જ  ન હોય  પછી ? 
 ભગવાન બૈરુ આલે  એમ  કે . ' કહી ચમન હસવા લાગ્યો . 
 
 જમની સમજી ગઈ . પેલા બૂટ તો સીધા જતા સાંભળ્યા હતા . 
 માન  ન માન , પણ આ કારસ્તાન ચમનનાં જ છે ,  વિચારી બોલી : 
 ` લે આ  તારો પૈસો . ' 
 
 ` પૈસાને  શું કરું ?  મારે તો બૈરુ મળે એવો આશરવાદ 
 જોઈએ છે . ' 
 
 `  એય મળશે , લે . ' ચમન તરફ પૈસો ધ઱ેલો હાથ  એમ ને  એમ 
 રાખી જમની બોલી . 
 
 ` દાનમાં દીધેલું પાછું  ન લેવાય . ' 
 
 ` ઊહું . તારે લેવો જ પડશે . ' 
 
 ` એક  શરતે કબૂલે તો લઉં . ' ચમને  સહેજ  પાસે આવતાં કહ્યું . 
 
 આલમને આંગણે અંધારા ઘૂઘવતાં હતાં . પણ બેમાંથી એકેને 
 ભાન નહોતું . 
 
 `  શું ? ' જમનીએ ઇતેજારી દર્શાવતા અવાજે પૂછ્યું . 
 
 `  તું આજ  મારે ઘેર પરૂણી થાય તો . ' ચમને છાતી પર  હાથ 
 રાખી કહ્યું . 
 
 જમની વિચારમાં પડી  અને થોડી વાર  પછી બોલી : ` તો  તું 
 જ  મારી હારે હીંડ ને ! ' 
 
 પાન નં 58 
 ` આવી જગા  ત્યાં  નહિ હોય , જમની !  અહીંથી ઘણું છેટું 
 નથી . આ હવેલીઓથી થોડે વેગળે ઉઘાડામાં એક  લીમડો છે .  કોઈયે 
 નામ લે એવું નથી  ત્યાં . '  અને થોડી વાર છાના રહી પાછું ચલાવ્યું : 
 ` આજ  ન ગોઠે તો કાલ  ન આવતી . ' 
 
 ` લે હીંડ  ત્યારે . ' કહી જમની ઊઠી . 
 
 ચમનનું હૈયું થનગની ઊઠ્યું - - ભક્્તોને ઘેર  જાણે ભગવાન આવતા 
 હોય  એમ . 
 
 ` ઊભી રે ' , થોડાં ભજિયાં લઈએ .  તું  અહીં ઊભી રે '  જે .  હું 
 તો  આમ આવ્યો . ' હાથોના ઠેકડા ભરતો ચમન બોલ્યો ,  અને નજીકની 
 હોટેલમાંથી શેર ભજિયાં લઈ , ખભે વીંટાળેલા કપડાએ ગાંઠ  મારી , 
 ઘડીકમાં પાછો ફર્યો . 
 
 ` લે ચાલ , ' ચમન  આગળ થતાં બોલ્યો .  પાછળ અવાજની 
 લાકડીએ જમની દોરાઈ . 
 
 ચમનનું ઘ઱ આવી પહોંચ્યું . તેનું ઘ઱ , ધરતી માતાએ 
 અંતરનાં અમી પાઈ ઉછેર્યું હતું . કુદરતે આછી આછી પાંદડીએ 
 છાયું હતું , અનિલ સદાય  જેને હસાડ્યા રમાડ્યા કરતો હતો , 
  અને રોગ  જેનાથી તોબા પોકારતો હતો - - એવા  એ લીમડા  નીચે 
 હતું . ચારે  બાજુ મેદાનનું ખુલ્લું આંગણું હતું .  નીચે સદાય 
 પડી ને પાથરી રહેતી ધૂળની પથારી પર  ઢળતાં ચમને જમનીને 
 કહ્યું : ` બેસ . ' 
 
  પછી ભજિયાં છોડી બેઉ  જણ ખાવા લાગ્યાં . જમનીની ભૂખ 
 આજ  ક્યાંક મૂઠીઓ વાળી ગઈ હતી . પણ ભજિયાંના સ્વાદે થોડી 
 
 પાન નં 59 
 તાજી કરી . તેણે હાથ ફેરવાતાં પૂછ્યું : `  તું તો ખાય છે  કે 
 નથી ખાતો ? ' 
 
 ` ખઉં છું ને ? ' ચમને જમનીના હાથને અડે  એમ ભજિયું લેતાં 
 કહ્યું .  એને તો આજ  જાણે જીવતરની ભૂખ ભાગી હોય એવું હતું . 
 
 થોડી વાર  પછી જમની બોલી : ` લુચ્ચો ! ભજિયાં તો 
 એટલાં ને એટલાં લાગે છે . '  અને ચમનને `  ના ,  ના , ખાઉં છું ને ? ' 
 કહેતાં સાંભળી પૂછ્યું , ` ખા  જો  મારા સમ ? ' પણ  જ્યારે ચમન 
 કાંઈ  ન બોલ્યો  ત્યારે , `  એમ  નહિ ,  અડધોઅડધ ભાગ પાડીએ . ' 
 કહી બેઉ   હાથે ભાગ પાડી  પોતાનાં ભજિયાં પર  એક  હાથ મૂકી 
 ખાવા લાગી . 
 
 ` તેં તો ઓછા લીધાં ? ' 
 
 `  મારે  વધારે નથી ખાવાં . ' જમનીએ કહ્યું . 
 
 ખાઈ પરવાર્યા કેડે ચમન , જમનીને થોડેક  દૂર આવેલા નળે દોરી 
 ગયો . બેઉ  જણ પાણી પી પાછાં ફર્યા .  અને આડાં પડી મોડી રાત 
 સુધી વાતો કરતાં કરતાં ઊઁઘી ગયાં . 
 
  પછી તો જમની  તથા ચમન  સાથે જ માગવા જતાં ,  સાથે જ 
 ખાતાં  અને  સાથે જ રહેવા લાગ્યાં . 
 
 ચોમાસું શરૂ થઈ ગયું હતું . ચમનને ઘર બદલવાની  જરૂર 
 જણાઈ . `  તું બેસ ,  હું જરા   કોઈ સારું ઠેકાણું જોઈ આવું . ' કહી 
 ચમન બેઉ  હાથ  વચ્ચે શરીર ઝૂલાવવતો નીકળ્યો . 
 
 `  જો ક્યાંય  બહુ છેટે  ન જતો . પાછો થાકી જઈશ . ને  ઝટ 
 પાછો વળજે . ' જમનીએ કહ્યું  અને પાછી ઘરાકોની દયા યાચી રહી . 
 
 ચમન મોડેથી , ઘ઱ ખોળી આવી લાગ્યો .  અને થોડી વાર  પછી 
 ગગનનો આગગોળો ક્ષિતિજના જડબામાં અદ્રશ્ય થતાં બેઉ  ઊઠ્યાં . 
 
 પાન નં 60 
 થોડેક ગયા કેડે  દૂરથી લ૊જ જોઈ ચમનમાં મોંમાં પાણી વળ્યું . 
 ` જમની ! બે  પૈસા  મારી  પાસે છે .  જો એક  આનો આલે તો દાળભાત 
 લાવત . ઘણા દન થયા , આજ સ્વાદ થયો ' તો . ' 
 
 ભેગાં રહ્યાં કેડે બેઉની લક્ષ્મી જમનીના સાલ્લાને છેડે રહેતી . 
 
 `  તે લે ને ,  ના કોણે કહી ? પણ લાવીશ શામાં ? ' 
 
 ` એક  શકોરું  મેં સંતાડી રાખ્યું છે ,  એ વીશીની  પાસે , ગટરના 
 બકોરમાં .  તું  ન ' તી  ત્યારે  કોક દન  ત્યાં ખાઈ આવતો . ' 
 
 ` પણ તને લાવતાં શી રીતે ફાવશે ? લે હીંડ ,  હુંય આવું . ' 
 જમની બોલી . 
 
 વીશી  પાસે જતાં ચમને ફૂટપાથની કિનારી  નીચે પાણી જવાના 
 બકોરામાંથી શકોરું કાઢી એક  છોકરાને કહ્યું : ` ભાઈ , એક  છ  
 પૈસાનો દાળભાત  આપો ને ! ' 
 
 થોડી વાર  પછી છોકરો દાળભાત નાખવા આવ્યો . 
 
 ` શાક નથી લાવ્યા , ભાઈસા ' બ ? ' ચમને ખાલી  દાળભાત 
 જોઈ પૂછ્યું . 
 
 ` લેવા હોય તો લે  નહિ તો ચાલતો થા . સાલી ભિખારીની 
 જાત ને સ્વાદ તો જુઓ ? ' થડે બેઠેલા શેઠ બોલ્યા . 
 
 ચમને વાટલું ધર્યું . 
 
 ` અલ્યા , પૈસા લીધા ? ' શેઠે પૂછ્યું . 
 
 છોકરાએ  પહેલાં પૈસા મુકાવ્યા ,  અને  પછી દાળભાત વાટલામાં 
 નાખી , પૈસા લઈ ચાલતો થયો . ચમન - જમનીનું રગસિયું ગાડું પણ 
 ચાલવા માંડ્યું . 
 
 પાન નં 61 
 ચમને વરસાદનાં ફોરાંને ટાળવા શકોરા પર  પાલવ ઢાંકતી 
 જમનીને કહ્યું : `  હવે પડવા દે ને ? દાળભાતમાં ઉમેરો થશે .  ક્યાંક 
 પડી - બડી જઈશ . ' 
 
 એક  દિવાલ પર  નાગની ફેણ માફક  ઝૂકેલા ઝાડ  નીચે ઠરતાં ચમન 
 બોલ્યો : ` બેસ .  જો અહીંય છાંટોય પડે છે ! ' 
 
 ` સારું ખોળી કાઢ્યું છે ! કોરું કટ છે . ' જમનીએ બેસતાં કહ્યું . 
 
 `  મેં તો ગયે વર્ષેય  અહીં ચોમાસું ગાળ્યું '  તું . ' ચમને કહ્યું . 
  અને જમનીનો ખભો હલાવતાં ઉમેર્યું : ` પણ  એ વેળાએ જમની  ન ' તી . 
 રાત તો  જાણે કરડવા દોડતી . '  પછી બેઉ  જણ ,  વચ્ચે વાટલું રાખી , 
 ખાવા વળ્યાં . 
 
 `  તું ભીંત  બાજુ સૂઈ રહે . ' જમનીએ ફૂટપાથની કિનાર તરફ 
 ખસતા ચમનને કહ્યું . 
 
 `  ના , એણી પા   તું સૂઈ રહે . ' ચમને કહ્યું . 
 
  અને  એમ કેટલીય રકઝક  પછી જમની દીવાલ તરફ સૂતી . સોડમાં 
 ચમન સૂતો . 
 
  એમ કરતાં દિવાળીના દિવસો આવ્યા . જમનીને ચમન પેલા 
 રોજના ઠેકાણે મૂકી , બેઉ  હાથના ઘોડા પર  ચડી અલકમલકને 
 મંદિરે ઘૂમી આવી , સુખિયા લોકોની દયાથી પાઈપૈસો મેળવી 
  એની મીઠાઈ લઈ  સાંજે મુકામ પર  જમનીને તેડી જઈ  એની 
  આગળ મૂકતો . 
 
 `  તું ખા ને ! ' જમની કહેતી . 
 
 `  મેં તો ખાધું છે ;  તું ખા . ' કહી ચમન  ના પાડતો . 
 
 પાન નં 62 
 `  ના , ખાધુ હોય તોય ,  ફરી વાર ખા . પણ  એમ તો  હું 
 એકલી  નહિ ખાઉં . '  અને  આમ  જ્યારે ચમનને ખાવું જ પડતું , 
  ત્યારે જમની પાંપણો નચાવી કહેતી : `  હું તને  ન ઓળખતી હોઉં 
  ત્યારે ને ? પણ કાલથી  તું  ન જતો . ક્યાંય ફરવામાં ને ફરવામાં 
 મોટર  નીચે આવી જઈશ બળ્યું  એ ખાવું . જીભને તો જેટલા સ્વાદ 
 કરીએ તેટલા ઓછા . ' 
 
 ` આ બે  દન .  પછી  ક્યાંથી આવા ચચાર  આના મળવાનાય 
 છે , ને આવું ખાવાનાંય છીએ ? ' 
 
 ` મૂવું  નહિ મળે તો ! ' થોડું મળશે તો સોંઘું ખાઈશું . ' 
 
 દિવાળીય પસાર  થઈ ગઈ . 
 
 એક  દિવસ રાતના ઠંડીનો ચમકારો જોઈ ચમને સોડમાં સૂતેલી 
 જમનીને પૂછ્યું : ` જમની ! કેટલા પૈસા છે ? ' 
 
 ` બે  રૂપિયા ને એક  આઠ  આની બંધક છે . બીજી થોડીક 
 પાઈઓ છે .  કેમ પૂછવું પડ્યું ? ' 
 
 `  કાલે શક્કવારીમાંથી એક  સાલ્લો ને ઘાઘરો લઈ આવું . ' 
  અને  પછી જમનીના અંગ પર  નજર દોડવતાં ઉમેર્યું : `  જો ને 
 તારાં લૂગડાં ! કાઢ્યું હોય તો એક  ગયણુંય સાબત  ન નીકળે . ' 
 
 `  ત્યારે તારે  ક્યાં સાજાં છે ? '  અને આડા પડેલા ચમનના 
 શરીર હાથ ફેરવતાં ` આ . . . . આ , જેમતેમ ગાંઠો મારીને તો 
 વેંઢારી રાખ્યાં છે . ' 
 
 `  મારી વાત તો ઠીક છે . ' 
 
 `  ના , લાવે તો બેયને સારુ લાવજે ,  નહિ તો  હું  નહિ પહેરું , 
 હા ! ' જમનીએ કહ્યું . 
 
 જમની  તથા ચમન ઠંડીના ચમકારામાં દિવસ ઊગતા  પહેલાં 
 રોજના  સ્થાને આવી બેઠાં હતાં . માતા ચડી હોય  એમ શરીર 
 
 પાન નં 63 
 કાંપતું હતું . મોં પોકારી રહ્યું હતું : `  કોઈ દિયાળુ દિયા કરો રે , 
 શેઠ ! ' પણ દિયાળુનાય શા ભોગ લાગ્યા હોય  તે આવા  વખતે 
 ખીસામાંથી હાથ  બહાર કાઢે ? 
 
 પેપરવાળા ઝડપી  ચાલથી ઠંડીને હંફાવતા પોકારી રહ્યા હતા : 
 ` ઠેર ઠેર પડેલા હિમ ! હિમે તારાજ  થયેલો પાક ! . . . . . . ' 
 
 ` આજ તો  બહુ ટાઢ છે જમની ! ગોદડી વીંટી છે તોય 
 કાળજું કાંપે છે ! ' ચમને  કડકડતી દાઢીએ વાત કરી . 
 
 `  તે  અહીં  મારે  પડખે દબાઈ ને બેસ ! ' 
 
 `  ના રે  ના ,  કોઈ પાઈ - પૈસો આપતું હોય તોય  ન  આપે . ' 
 ચમને ભેગું હાસ્યને ભેળવ્યું . 
 
 ` તો ક્યાંય તાપમાં જઈને બેસ .  હવે તો તાપ નીકળ્યો હશે ! ' 
 જમનીએ કહ્યું .  અને  પોતે ઓઢેલી ચારશેરેક ગાભાની ગોદડી 
 કાઢતાં બોલી : ` લે , આ ગોદડી લેતો જા . ' 
 
 ` અરે  ના ,  તું રે ' વા દે . પેલા તાપમાં જઈને બેસું છું . ' 
 કહી ચમન સરકવા લાગ્યો ,  ધીમે  ધીમે આજ હાથ ઊભા રહે  તેમ 
 નહોતું . 
 
 બપોર થવા આવ્યા તોય ચમનની ટાઢ ઊડી નહોતી . જમનીને 
 વહેમ પડ્યો . `  કે  પછી તાવ - બાવ આવ્યો છે ? ' કહી ચમનના 
 શરીરને હાથ અડાડતામાં બોલી પડી : ` હાય હાય !  શું ટાઢ ટાઢ 
 કરે છે ? ડિલ તો તાવે ધીખે છે ! ' 
 
 `  એ તો અમથું . ' ચમને જમનીના મોં પરથી ઊડી જતું 
 લોહી જોતાં કહ્યું . 
 
 ` અમથું  શું તારું કપાળ ! લે આ ગોદડી ને સૂઈ જા ઓઢીને . ' 
 
 પાન નં 64 
 ચમનથી આ  વખતે  ના  ન પાડી શકાઈ .  ના પાડવી  તેને 
 યોગ્ય  ન લાગી ;  અને બેઉ  ગોદડીઓ ઓઢી ભીંત સોડે ધ્રૂજતો 
 લાંબો થયો . 
 
 જમની  વચ્ચે બેત્રણ વાર , ` પાણી - બાણી પીવું છે ? ' ` સોડા 
 લાવી આપું ? '  વગેરે પૂછી જોયું ,  અને રોજની વેળા થતાં  પહેલાં 
 ચમનને  આગળ કરી મુકામ પર  આવી . 
 
 ચમનના શરીર પર  તલ મૂકો તો તતડી જાય એવો તાવ 
 હતો . જમનીએ  તેને ભીંત સોડે સૂવડાવી બેઉ  ગોદડીઓ ઓઢાડી 
  અને બીજી બાજુએ  પોતે આખી રાત જાગતી પડી રહી  તેને હૂંફ 
 આપ્યા કરી . 
 
 ` જમની , વેળા થઈ ,  તું જા . ' સવાર પડતાં ચમને કહ્યું . 
 
 ` તને આવો  મેલીને ? ' જમનીએ કહ્યું . 
 
 `  તું જા , જમની !  હું તો  અહીં સૂઈ રહીશ  .  મને તો કાંઈ નથી 
 થવાનું .  મારું તો ઠીક છે , પણ  તું  શું ખાઈશ ? અધૂરામાં પૂરી 
 કાલની ભૂખી છે . ઊઠ . ' કહી ચમને  તેને ધકેલી . 
 
  જો ગોદડીઓ  અને કપડામાં પૈસા  ન ખર્ચી નાખ્યા હોત , 
 તો જમની  ન જાત ;  અને પેટને કાંઈ ઓછી લાજ - શરમ છે ? 
  વળી  તે બેસી રહે તોય  શું ? થોડો  કંઈ દવા - દારૂ  કે શેક કરવાનો 
 હતો ? પણ તોય  તેને ખસવાનું દિલ નહોતું .  આખરે  જ્યારે 
 ચમને મોંમાં જીભ  ન ઘાલી  ત્યારે , `  જો માથેમોઢે ઓઢીને સૂઈ 
 રે '  જે . ને પાણી પીવું પડે તો વાડકો ઓશીકા તરફ ભ઱ી મેલ્યો 
 છે . ' કહી જમની ઊઠી  અને રોજની જગ્યાએ જઈ ભિક્ષાની 
 નોકરીએ ચઢી ગઈ . જીવ ચમનમાં હતો . જીભ રોજને પંથે 
 ચાલતી હતી : ` આંધળીની  કોઈ દિયા કરો માબાપ ! - ' પણ મન 
 નહોતું કોઈની ચાલ સાંભળવામાં  કે વાતચીત પારખવામાં . 
 
 પાન નં 65 
 થોડીક વાર થઈ હશે  એટલામાં કાને અવાજ આવ્યો , `  એ 
 અંધી , ઉઠ ઇધરસે . ' જમની સમજી  નહિ  કે કોને  કોણ કહે છે . 
 તેણે તો બોલવું ચાલુ  જ રાખ્યું : ` દિયાળુ  કોઈ . . . . . ' પણ આ 
 વખત વાક્ય પૂરું  ન થઈ શક્યું . ` સાલી માનતી  નહિ હૈ ? ઉઠ 
 ઇધરસે . ' મોં આગળથી જ અવાજ આવ્યો . જમની સમજી ગઈ 
  કે પોલીસદાદા છે . ` સા ' બ ! આંધળી છું ! માગી ખાઉં છું 
  શું કામ . . . . . . . ' 
 
 ` અરે ઉઠ , જા દૂસરી જગા બૈઠના . ગવર્નર સા ' બ ઇધરસે 
 નિકલનેકા હૈ , વો માલૂમ  નહિ ? ઉઠ ,  નહિ તો અભી દેતા હૂં . ' 
 
 જમની ઊઠી ,  અને  પોતાના ઘ઱ તરફ મોં ફેરવ્યું  ત્યાં તો 
 પાછો પેલો અવાજ આવ્યો : `  એ ઉધર કહાં જાતી હૈ , ઉસ તરફ જા . ' 
 
 ` સા ' બ . . . . ! ' 
 
 ` સુનતી  નહિ ઔર સા ' બ સા ' બ કરતી હૈ ? ' જમાદાર ઊખડ્યા 
  અને બાવડે ઝાલી મોં અવળી દિશામાં ફેરવતાં બોલ્યા : ` જા , ઇસ 
 તરફ હો કર જલદી નિકલ જા . ' 
 
 જમનીને  ના છૂટકે અવળી દિશાએ માપવું પડ્યું . થોડેક ગઈ 
 હશે ને બીજો અવાજ આવ્યો , `  એ નીકળ જલદી . ' જમનીનો 
 જીવ ચમનમાં હતો . આંધળા પગ અજાણ્યા રસ્તે  આગળ ને  આગળ 
 માપતા હતા . ઘડી ઘડી જુદા અવાજ , પણ  એનાં  એ વાક્ય 
 અથડતાં હતાં - - `  એ ચલ  જલદી નિકલ . '  વળી એક  બીજો અવાજ , 
 ` બિચારી અંધી હૈ . કહાં જાયેગી ? ' આવો અવાજ સાંભળતાં કાળજે 
 પૂરી ટાઢક વળે  ન વળે  ત્યાં તો સાંભળ્યું , ` અરે મિયાં , ગવર્નર 
 સા ' બકા આનેકા વખ્ત હોને આયા હે ! '  અને પાછો  પોતાને જ 
 ઉદ્દેશતો અવાજ લાગ્યો , ` ચલ  , ચલ  , જલદી ચલ  ! ' 
 
 પાન નં 66 
 જમની ક્યાંય ભરાઈ બેસવાનો વિચાર કરી હાથની ઓથે 
 ભીંતને જોવા લાગી ,  એટલામાં એક  ખાંચા જેવું લાગતા જમની 
 સીધી  અંદર ચાલી .  ત્યાં તો સાંભળ્યું : `  એ  ક્યાં જાય છે  અહીં ? 
  બહાર જા . '  લાચાર બની પાછી તૂટેલી દિવાલનો છેડો ખોળી 
 કાઢ્યો  અને ચાલવા લાગી . અવાજ તો આવતા જ હતા : ` ચલ  , 
 જલદી ચલ  . ' જમનીને સમજ  ન પડી  કે ગવંડર એવું  તે કેવું મનેખ 
 હશે ,  કે ઠેર ઠેર પોલીસદાદા ઊભા છે ! ને  પોતે  એમને  શું કરવાની 
 હતી ?  વળી  જેમ  જેમ પગલું  આગળ માંડતી  તેમ  તેમ ચમનની યાદ 
 આવતી હતી . મનમાં ફિકર ઘ઱ કરી બેઠી હતી :  એનીય આવી દશા 
 હશે , તો  એ  ક્યાં જશે ! !  કેમ કરીને જશે ? !  એટલામાં દીવાલે 
 દગો દીધો . જમનીને ખાતરી હતી  કે ધરતી દગો દેવાની નથી  અને 
  આશરે સીઘું માપવા લાગી  ત્યાં તો અવાજ , `  એ ઉધર જમણે 
 હાથપે ખાંચોકો વળ જા ! ' ખાંચો આવતાં ખાંચામાં  વળી .  અને  છેક 
  દૂર ગઈ  ત્યાં સુધી અવાજ આવ્યા કર્યો : ` ઉધર મત બૈઠના . ઔર 
  આગે જા . '  અને  એમ જમની  કોઈ ઊંડી ઊંડી ગુફામાં જતી હોય 
  એમ જવા લાગી . થોડી વાર  કંઈ અવાજ  ન સંભળાતા છુટકારાનો 
 દમ લઈ બેસી પડી  અને ચમનની પોતા જેવી દશા કલ્પી આંસુ 
 નિતરવા લાગી . સારું હતુ  કે જોવાનો રસ્તો બંધ  હતો , આંસુ 
 વહાવવાનો રસ્તો બંધ  નોહોતો ! 
 
 જમનીની કલ્પના ખોટી હતી .  તેના ગયા કેડે થોડી જ વારમાં 
 ચમનને  કોઈ રાક્ષશી  હાથે ઢંઢોળતું  અને કહેતું લાગ્યું : ` ઉઠ ,  એ 
 ઉલ્લૂ , અભી તક સોતા હૈ ? ' 
 
 ચમને આંખ ઉઘાડી જોયું તો પોલીસદાદા જ પગ ઢંઢોળતા હતા , 
 ઊઠતા ઊઠતા તો પાછો તેમનો પગ ઉપડ્યો . ` ચલ  , ઉઠ ,  ક્યાં 
 દેખતા હૈ ? ઉઠા યહ સબ . ' 
 
 પાન નં 67 
 ` સા ' બ ! તાવ આવ્યો છે !  અહીં બેસી તો રે ' વા . . . ' 
 
 ` અરે ચલ  , બેસી રે ' વાકી  બહુ . બુખાર આયા હૈ તો જા 
 હ૊સ્પિટલમેં . ચલ  , ઉઠ જલ્દી . ' 
 
 ચમને પોલીસદાદાની એડીઓના સ્વાદ ઘણી વાર ચાખ્યા હતા . 
 તેણે જવાની તૈયારી કરી .  તે ટાઢે ધ્રૂજતો હતો . તાવની સગડી 
 રોમેરોમ ધીખતી હતી . હાથના પંજામાં સળી ઉપાડવા જેટલી પણ 
 તાકાત નહોતી . મિલકતમાં મિલકત ગોદડીઓ ને છાલું  તેને મૂકી 
 જવાનું મન થયું , પણ પોલીસદાદા  એ શોભાનેય રહેવા દે ખરા 
  કે ? ` ચલ  કિતની દેર , ઉઠા લે સબ . ' 
 
 ચમને ખભાની પીઠ  ઉપર ગોદડીઓ લાદી  અને ` હે રામ ! ' 
 કહી , લાવ જમનીના તરફ જાઉં , થોડે છેટેથી બોલાવી કહીશ ,  વિચારી 
  તે તરફ  તે ખસવા મંડ્યો .  ત્યાં તો પોલીસદાદા બોલ્યા : `  એ 
 ઉધર કહાં જાતા હૈ ? યહ રસ્તે પર  તો અભી ગવર્નર સા ' બ નિકલને 
  કે હૈં . ઇધર જા , ઔર વો ખાંચેમેં વળ જાના . ' 
 
 ચમન પાછો ફર્યો  અને કીડીની પેઠે જવા લાગ્યો . ઘડી ઘડી 
 પેલા જમાદારનો અવાજ ધકેલતો હતો : ` ચલ  , જલદી નિકલ જા . ' 
  આખરે ખાંચામાં વળતાં એક  પાણીના નળની દેરીનું ઓથું જોઈને 
 તેની સોડમાં લપાયો . હાંફ એવી ચઢી હતી  કે પૂરો શ્વાસ પણ લઈ 
 શકાતો નહોતો . તાવ ઘોડે ચડીને આવ્યો હોય  એમ લાગ્યું . અંગેઅંગ 
 ઝાડની પત્તીઓ પેઠે કાંપતાં હતાં . આંખોનાં તેજ ઊંડા ઊતરવા લાગ્યાં . 
 જીવ જમનીમાં જઈ ભરાયો . જીભને બદલે હૈયું રટવા લાગ્યું : 
 ` જમની જમની ! ' થોડી વાર  પછી ટાઢ ઓછી થઈ . હૈયાએ એકબે 
 પછાડો  મારી : ` જમની જમની ! '  અને તાવ ચેતન લઈ પલાયન 
 થઈ ગયો ! અંગ લાકડા જેવું થઈ પડ્યું રહ્યું . 
 
 પાન નં 68 
 દિવસ માથા પર  આવવા થયો હશે  તેવામાં જમનીએ બૂટના 
 અવાજ કરનારને પૂછ્યું : ` શેઠ , ગવંડર સા ' બ ગયા ? ' પેલાને  સહેજ 
 નવાઈ લાગી પણ પૂછવાની ફુરસદ નહોતી : ` હા નીકળી ગયા . ' 
 
 જમની ઝટપટ ઊઠી  અને મગજને પૂછતી પૂછતી પડતી 
 આખડતી ચાલવા લાગી , આવી હતી  એ રસ્તે . ઠેકાણે આવી 
 પહોચતાં  તેના  મને  નિરાંતે શ્વાસ લેતાં કહ્યું : ` ફકર નથી . 
  હવે તો જઈ પહોંચીશ . '  અને થડકતે હૈયે પગની ફંગાળો ભરતી 
 ઘર તરફ  આગળ વધી . હૈયું ઘડી ઘડી વહેમ ખાયા કરતું હતું : 
 ` ચમનો  ત્યાં હશે  કે  નહિ ? ' મન સાંત્વન દેતું : `  નહિ 
 હોય તો  ક્યાં ગયો હશે ? એવા તાવવાળા મનેખને તો કાંઈ 
  નહિ કાઢી મૂક્યો હોય ?  અને કાઢી મૂક્યો હશે તોયે  ક્યાંક 
  એટલામાં હશે . '  એમ કરતાં કરતાં ઘ઱ - - સૂવાનું ઠેકાણું - - આવી 
 પહોંચ્યું . જમનાએ બોલાવ્યો : ` ચમના !  એ ચમના ! '  વળી હાથ 
 વડે દસ  દસ  હાથ ધરતી ખૂંદી  વળી . પણ હોય તો ને ! એણે 
 જોરથી બૂમ પાડી : ` ચમના !  એ ચમના ! ' જવાબ  ન મળતાં 
 જીવ અકાળાઈ ઊઠ્યો . આજ  તેને આંખોની ખોટ સાલી તેટલી 
  કદાચ કદીય  નહિ સાલી હોય . ગળામાં ડચૂરો બંધાયો . આંખો 
 ઊભરવા લાગી . તેણે થોડેક  આગળ જઈ  વળી માંડ માંડ બૂમ 
 પાડી : ` ચમના ! ' રસ્તે ચાલતાં એકબે જણનો અવાજ સાંભળ્યો : 
 ` ગાંડી લાગે છે . ' જમનીએ  તેમને પૂછ્યું : ` શેઠ ,  આટલામાં ક્યાંય 
 ચમનો ભાળ્યો ? પગે ટૂંટો છે  એ , શેઠ ? ! ' ચાલ્યા જતા શેઠનો 
 જવાબ આવ્યો : `  ના . ' જમનીનું હૈયું લૂલું પડ્યું . તેણે ચાલવું 
 ચાલુ  રાખી નર્યા રુદનભીના અવાજે  વળી બૂમ  મારી : ` ચમના ! 
  ક્યાં ગયો ?  એ ચમના ! ' 
 
 ` અરે કયા ચિલ્લાતી હૈ કભી સે ? કિસકું ઢૂંઢતી હૈ ? ' એક  
 નારંગી વેચવા બેઠેલા મુસલમાને પૂછ્યું . 
 
 પાન નં 69 
 `  તમે બે  પગે ટૂંટો છે  એને ભાળ્યો ક્યાંઈ ? !  એને તાવ 
 આવતો ' તો . કુણ  જાણે  ક્યાં . . . . ' 
 
 ` અરે હા , પાસમે દો ગોદડી થી  ના ? ઔર એક  છાલિયા , 
 ઔર દોનું પગસે ટૂં . . . . ' 
 
 ` હાં હાં શેઠ !  એ જ ;  એ  ક્યાં છે , શેઠ ?  મને 
 આંધળીને . . . . ! ' 
 
 ` અરે ઉસકું તો અભી મ્યુનિસિપાલિટીકી ગાડીમેં ડાલ કર લે 
 ગયે . ફોજદાર સા ' બ ભી અભી ગયે . ઉધર નલકી પાસ મરા હુઆ 
 પડા થા . ' પેલા મુસલમાને કહ્યું . 
 
 ` હેં ! ચમનો મરી ગયો ! હેં શેઠ , ખરી વાત ? ' જમની બેસી 
 પડતાં ફાટે મોંએ પૂછી  વળી ,  અને  પછી પાંપણની પાળ  નીચેથી 
 પૂરપાટ વહેતાં આંસુ  સાથે પાછા પડતા અવાજે ` ચમના !  તું . . . . મરી 
 . . . . . ગ . . . . ! ! ' બોલતાં બોલતાં ઢળી પડી . 
 
 મિયાએ ખભે નારંગીની ટોપલી મૂકી : `  યે સાલી બલાકું મૈંને 
 કહાં કીયા ? મર જાયેગી તો ભોગ મિલેંગે !  ન લેના  ન દેના 
 ખામખા - - - ' બબડતાં ચાલતી પકડી . 
 
 * * * 
 3 ( શબ્દ = 6654 ) 
 - - - - - - - - - - - - - - - - - - - - - - - - - - - - - - - - - - - - - - - - - - - - - - - - - - - - - - - - - - - - - - - - - 
 
 પાન નં 122 
 
 0 3વાતવાતમાં 
 
 રવિવારની સાંજ હતી . સામી દિવાલે આવેલી એક  આરામ - 
 ખુરશીમાં પડ્યો વસંત કંઈક  વાંચી રહ્યો હતો . બારણા આગળની 
 ખુરશીમાં બેઠેલી સુરબાળા - - વસંતની પત્ની - - પણ એક  માસિક વાંચી 
 રહી હતી . બાર  ફૂટ લાંબી  અને એટલી જ પહોળી રૂમમાં ચોપડીઓનાં 
 બદલાતાં પાનાનાં અવાજ સિવાય બધું શાંત હતું . 
 
 વસંતે બેત્રણ વાર પત્ની તરફ આડી નજરે જોયું ;  છેવટે હિંમત 
 કરીને બોલતો હોય  તેમ પૂછ્યું : ` સિનેમા જોવા જઈશું સુરુ ! ' 
 
 સુરબાળાએ ચોપડીમાં મોં રાખીને જ કહ્યું : `  મારી  કંઈ 
 ઇચ્છા નથી .  તમે જોઈ આવો . ' 
 
 મિનિટેકની  પછી  વળી વસંત બોલ્યો : ` છ  માસ થવા 
 છતાંય  તારો રોષ ઓછો થયો નથી , સુરુ ! ' 
 
 સુરબાળાએ હસવાનો પ્રયત્ન કરતાં વસંત  સામે જોઈ કહ્યું : 
 ` આમાં રોષ  ક્યાં છે ? - - ને  તમારો આગ્રહ જ હોય તો ચાલો ,  હું 
 આવીશ . ' વસંતને હોઠ ચાવતો જોઈ પૂછ્યું : ` કયા ` શો ' માં જવું છે ? ' 
 
 સુરબાળા  સામે એક  નજર નાખતાં વસંત બબડ્યો : ` આનો 
  કંઈ અર્થ નથી , સુરુ ! '  અને ચોપડીનાં પાનાં ફેરવી રહ્યો . 
 
  એની તરફ જોતી સુરબાળાની આંખોમાં દયા હતી , પણ  જ્યારે 
  એ નજર વસંતના મોં  ઉપરથી પાછી  વળી  ત્યારે તો  એમાં કંઈક  
 બેદરકારી ભળી હતી , જેવી તારી મરજી . ' કહી  એ પણ વાંચવા  વળી . . . . 
 
 પાન નં 123 
 બેઉ  જણ રાબેતા મુજબ વાંચતાં હતાં .  એટલામાં દૂધવાળો 
 આવ્યો . સુરબાળા ઊઠી . દૂધ લીધું . ચા બનાવી એક  કપ ` ટિપોય ' 
 પર  મૂકી ગઈ .  પોતે રસોડામાં જ ચા પીધી , વાસણ માંજી રસોઈ 
 કરવામાં ગૂંથાઈ . 
 
 વસંત છ  માસ ઉપરના પેલા ` ગોઝારા ' દિવસને યાદ કરતો 
  અને  પોતાની  વહેમી જાતને ફિટકારતો બેસી રહ્યો . 
 
 એક  આબરૂદાર ગણાતા કુટુંબમાં  એ જનમ્યો હતો . જાહોજલા - 
 લીમાં ઊછર્યો હતો . સુરબાળાનું કુટુંબ  એના બંગલાના ` આઉટ હાઉ - 
 સ ' માં વર્ષોથી ભાડે રહેતું હતું . મિલમાં નોકરી કરી  પોણોસો રૂપિયા 
 લાવતા સુરબાળાના પિતાને ચાર  બાળકો  અને બે  ધણીધણિયાણી  એમ 
 છ  જણનું પોષણ કરવાનું હતું . આડોશપાડોશમાં  એમની ગરીબી 
 ઢાંકી ઢંકાય  એમ  ન હતી . 
 
 નાનપણમાં ભેગાં રમેલાં વસંત  અને સુરબાળા મોટાં થયાં . વસં 
 તનાં માતાપિતાને  એ બેની ગોઠડી  માટે વહેમ પડ્યો . સુરબાળાના 
 પિતા  પાસે ઘર ખાલી  કરાવી  એ ચેત્યા તો ખરા - - પણ ઘણા મોડા . 
  બલકે આટલા જૂના ભાડૂઆતને , ` અમારે ભીડ પડે છે , ' કહી ખાલી  
 કરાવવાના પિતાના મૂળ  કારણને સમજી જતાં વસંતનું દિલ  એમના 
 તરફ ખાટું થઈ ગયું . મકાન ખાલી  કરી જતી સુરબાળાને એણે હિંમત 
  અને વચન બેઉ  આપ્યાં : ` તારે  ત્યાં આવતો જતો રહીશ  -  અને એક  
 વર્ષ  પછી  આપણે  જરૂર પરણીશું . ' 
 
 સુરબાળાને વસંતના શબ્દો કરતાંય  એ  વખતે જોયેલી  એની 
 આંખોનો  વધારે વિશ્વાસ હતો . 
 
 બીજે વર્ષે વસંત બી .  એ . માં પાસ થયો . મહિનામાં એણે મિત્રો 
 મારફતે નોકરી ઊભી કરી . દીવાનખાનામાં બેઠેલાં માબાપ  અને 
 મોટાભાઈ  પાસેથી એણે  છડેચોક રજા લીધી : `  હું કાલથી નોકરીએ 
 ચઢવાનો છું , ને રહીશ  પણ જુદો . ' 
 
 પાન નં 124 
 ` કારણ ? ' મોટાભાઈ બોલી ઊઠ્યા . 
 
 ` કારણ  કે  હું સુરબાળા  સાથે પરણવાનો છું . ' 
 
 ત્રણે જણ વસંતની ` નફટાઈ '  સામે તાકી રહ્યા .  એમનાથી બને 
 તેટલી ગાળો ભાંડી , બને તેટલી ધમકી આપી ; ને છતાંય વસંતને 
  મક્કમ જોઈ પિતાએ છેવટનું શસ્ત્ર અજમાવ્યું : `  તારા મનથી તો આ 
 રમત વાત હશે . પણ  હું તને એક  કોડીય  નહિ આપું . ' 
 
 `  તમે કહેતા હો તો  હું  પોતે લખી આપું  કે  મારે  તમારી કોડીય 
 નથી જોઈતી . ' વસંતે કહ્યું . 
 
 વસંતની માતા રોષ  અને મમતાથી  એની  સામે તાકી રહી . 
  એમણે પણ એક   બાજુ લઈ જઈને  એમના અમોઘ  શસ્ત્ર - - પ્રેમથી - - 
 વસંતને સમજાવ્યો : `  તું  મારું કહ્યુંય  નહિ માને , વસંત !  મને છોડીનેય 
 જઈશ ? ' 
 
 વસંત  પોતે જ  નહિ  બલકે સગાંસંબંધી સૌ  કોઈ જાણતાં હતાં 
  કે ત્રણે પુત્રોમાં સૌથી નાનો વસંત  એમને ઘણો વહાલો હતો . પણ 
 એણે તો  એ જ મક્કમતાથી હસીને કહ્યું : `  હું  તમને નથી છોડી 
 જતો , બા !  તમે  મને છોડી દો છો . આબરૂ કરતાં પુત્ર વહાલો હશે 
 તો  તમે  મારે ગરીબ  ઘેર - - કાયમ  ખાતે  નહિ તો  અવારનવાર તો  જરૂર 
 આવી શકશો . ' 
 
 માતા શો જવાબ  આપે ? એમાંય  વધારે દુઃખની વાત તો  એ 
 હતી  કે  એમને  પોતાને પણ સુરબાળા ગમતી હતી .  પરંતુ બંગલાના 
 ઝાંપામાં બેસતા પેલા દાઢીધારી પહેરેદાર પેઠે હૈયાનાં બારણાંમાં બેઠેલો 
 આબરૂનો હાઉ આ સત્ય  બાબતને મગજ સુધી નહોતો પહોંચવા દેતો . 
  અને  તેથી જ તેમણે વસંત  ઉપર , ` નામલજામણો ' , ` કુળ બોળનારો ' 
  વગેરે શબ્દોનો  મારો ચલાવ્યો ને ? 
 
 પણ વસંત તો ગયો જ ; સુરબાળા  સાથે પરણ્યો  અને સાઠની 
 નોકરી પર  પણ ચઢી ગયો . 
 - - - - - - - - - - - - - - - - - - - - - - - - - - - - - - - - - - - - - - - - - - - - - - - - - - - - - - - - - - - - - - - - - 
 
 </p></body></text></cesDoc>