<cesDoc id="guj-w-socsci-law-ba00g002" lang="guj">
<cesHeader type="text">
<fileDesc>
<titleStmt>
<h.title>guj-w-socsci-law-ba00g002.txt</h.title>
<respStmt>
<respType>Electronic file created by</respType>
<respName>Central Institute for Indian Languages, Mysore</respName>
<respType>transferred into Unicode and CES format by</respType>
<respName>"Unicodify" software by Andrew Hardie</respName>
</respStmt></titleStmt>
<publicationStmt>
<distributor>UCREL (on behalf of CIIL)</distributor>
<pubAddress>Department of Linguistics, Lancaster University, Lancaster, LA1 4YT, UK</pubAddress>
<availability region="WORLD"></availability>
<pubDate>03-08-17</pubDate>
</publicationStmt>
<sourceDesc>
<biblStruct>
<monogr>
<h.title>unknown</h.title>
<h.author>unknown</h.author>
<imprint>
<pubPlace>India</pubPlace>
<publisher>Unknown - unknown</publisher>
<pubDate>unknown</pubDate>
</imprint>
<idno type="CIIL code">ba00g002</idno>
</monogr></biblStruct></sourceDesc></fileDesc>
<encodingDesc>
<projectDesc>Text collected for the CIIL Corpus, subsequently integrated into the EMILLE/CIIL Monolingual Written Corpora.</projectDesc>
<samplingDesc>Simple written text only has been transcribed. Diagrams, pictures and tables have been omitted. Sampling begins at page unknown.</samplingDesc>
<editorialDecl><conformance level="1"></conformance></editorialDecl>
</encodingDesc>
<profileDesc>
<creation><date>03-08-17</date></creation>
<langUsage>Gujarati</langUsage>
<wsdUsage>
<writingSystem id="ISO/IEC 10646">Universal Multiple-Octet Coded Character Set (UCS).</writingSystem>
</wsdUsage>
<textClass>
<channel mode="w">print</channel>
<constitution type="composite"></constitution>
<domain type="public"></domain>
<factuality type="fact"></factuality>
</textClass>
<translations></translations>
</profileDesc>
<revisionDesc></revisionDesc>
</cesHeader>

<text><body>

<p>+ 
 3ફાઈલનું નામ - LA00g002 . GSS 
 3પુસ્તકનું નામ - ભારતીય ઉત્તરાધિકાર અધિનિયમ 
 3લેખક - નૌશીરવાન જાબવાલા 
 3પ્રથમ આવૃત્તિ - આઠમી આવૃત્તિ 1989 - 90 
 3પ્રકાશક - સી . જમનાદાસની કંપની 
 3મળવાનું ઠેકાણું - D . O . E . 
 3વિભાગ - SOCIAL SCIENCE 
 3ઉપવિભાગ - LAW 
 3કિંમત - રૂપિયા 16 = 00 
 3શબ્દ - 
 
 - - - - - - - - - - - - - - - - - - - - - - - - - - - - - - - - 
 
 3વિભાગ - 6 વસિયતી ઉત્તરાધિકાર 
 
 પાન નં 22 
 
 3 3 . 3 3વિલનું નિષ્પાદન 
 ( Execution of will ) [ ક . 63 - 66 ] 
 
 0વિલના નિષ્પાદનના નિયમો - 
 2 
 
 વિશેષાધિકૃત ( Previleged ) વિલના નિષ્પાદન  સામાન્ય ( Unprevileged ) વિલના નિષ્પાદન 
 માટેનો નિયમો ( ક . 64 - 66 ) માટેના નિયમો ( 63 - 64 ) 
 ( હિંદુ , બૌદ્ધો , શીખો અને જૈનોને લાગુ  પડશે  નહિ ) 
 2 
 
  ખરેખર યુદ્ધમાં રોકાયેલ સૈનિક અથવા વિશેષાધિકૃત વિલ સિવાયનાં આ  સામાન્ય 
 વૈમાનિક ( airman ) અથવા સમુદ્રમાં  કોઈ નાવિક વિલ છે . 
 દ્વારા બનાવવામાં આવેલ આ વિલ છે . ક . 65 
 તેણે 18 વર્ષની ઉંમર પૂરી કરી હોવી જોઈએ . 
  તે મૌખિક અથવા  લેખિત હોઈ  શકે ક . 66 ( 1 ) 
 
 0દૃષ્ટાંતો : 0 ( 1 )  લશ્કરી એકમ  સાથે સંલગ્ન 
 અને આક્રમણમાં  ખરેખર રોકાયેલ વૈદ્યકીય 
 અધિકારી ; 
 
 ( 2 ) સમુદ્રમાં હોય તેવા વેપારી વહાણનો 
 હિસાબી અધિકારી ( Purser ) ; 
 
 ( 3 ) બળવાખોરોની  સામે મેદાનમાં સેવા 
 આપતો સૈનિક ; 
 
 ( 4 ) મુસાફરીમાંનું વહાણ , કે  જે કામચલાઉ 
 કાંઠા  ઉપર હોય  તે ઉપરનો સૈનિક ; - 
 
  એ તમામ  વિશેષાધિકૃત વિલ કરવાને અધિ - 
 કૃત  છે . 
 
 પાન નં 23 
 
 ( 5 )  પણ નોકાદળનો ઉપરી કે  જે કાંઠા 
  ઉપર રહેતો હોય  પણ પ્રસંગોપાત્ત  તેના વહાણ 
  ઉપર જજતો હોય , અથવા નાવિક કે  જે દરિયા 
  ઉપર હોય  તે વિશેષાધિકૃત વિલ કરી શકતો નથી . 
 
 ( 6 )  પણ  એ નોંધપાત્ર છે કે  કોઈ નાવિક 
 કે  જે  લશ્કરી કામગીરીમાં સેવા આપતો હોય 
  પણ દરિયા  ઉપર  ન હોય  તેને સૈનિક તરીકે 
 ગણવામાં આવે છે : [ ક . 65 નાં દૃષ્ટાંતો ( 1 ) 
 થી ( 6 ) ] 
 
 0કેવી રીતે નિષ્પાદિત કરવામાં આવે છે ? 
 ( How excecuted ) : 
 
 1 . જો  તે વિલ કરનારા દ્વારા  પોતાની  જાતે 1 .  લેખિત -  તે લખાણમાં હોવું જોઈએ . 
 સંપૂર્ણપણે લખવામાં આવ્યું હોય તો , તેમાં સહી 
 કરવાની અથવા સાખની  જરૂર નથી . 
 
 2 . જો  તે  કોઈ બીજા દ્વારા લખવામાં આવ્યું 2 . સહી ( Signature ) કરનારે સહી કરી 
 હોય , તો જો કે સાખ કરવાનું જરૂરી  નથી ,  પણ આપવી જોઈએ , અથવા  તે તેની નિશાની ધરાવી 
 તેમાં વિલ કરનારે સહી કરવી જોઈએ .  વળી , જો  શકે , અથવા વિલ કરનારની હાજરીમાં અને  તેના 
  તે  તેના આદેશો  હેઠળ લખાયું હોવાનું બતાવવામાં આદેશ મુજબ  કોઈ બીજી વ્યક્્તિ દ્વારા સહી 
 આવ્યું હોય , અથવા  તેના વડે  તેના વિલ તરીકે કરવામાં આવી હોવી જોઈએ કે જેથી  તે લખાણને 
  માન્ય રાખવામાં આવ્યું હોય તો તેમાં સહી કરી  તેના વિલ તરીકે અસર આપવાને  તે કરવામાં 
 હોવાની  જરૂર રહેતી નથી આવી હોવાનું  તેના  ઉપરથી દેખાય : ક . 63 
 (  એ ) અને ( બી ) 
 
 ( 3 ) એવું વિલ કરવાની સૂચનાઓ  પણ વિલ ( 3 ) સાંક્ષ્યાંકન અથવા સાખ ( attesta 
 ગણાશે , જો - - tion ) - 
 
 ( અ )  તેઓ લખાણમાં હોય અને ( અ ) ઓછામાં ઓછા બે  સાક્ષીઓ દ્વારા 
 ( બ ) સૈનિક અથવા નાવિક  વગેરે તેમાં સાખ કરવામાં આવી હોવી જોઈએ કે  જેઓ 
  એ વિલ તૈયાર  કરવામાં આવે  તે  પહેલાં મરણ દરેક ( 1 ) વિલ કરનારને વિલ  ઉપર તેની 
 પામેલ હોય સહી અથવા નિશાની કરતાં જોયો હોય , અથવા 
 
 ( 4 )  વળી , મૌખિક સૂચનાઓ  પણ ચાલી ( 2 ) વિલ કરનારની  પાસેથી  તે અંગેની 
 શકશે , જો - સ્વીકૃતિ મેળવી હોય . 
 ( અ )  તે બે  સાક્ષીઓની હાજરીમાં આપવામાં ( બ ) દરેક સાખ કરનાર સાક્ષીએ વિલ 
 આવી હોય , અને કરનારની હાજરીમાં વિલ અને તેમાં તેણે સહી 
 ( બ ) તેની હયાતી દરમિયાન લખાણમાં મૂક - કર્યા  પછી ( એટલે કે લખી આપ્યા  પછી ) વિલ 
 વામાં આવી હોય .  ઉપર સહી કરવી જોઈએ . સાખ કરવા માટેના 
  કોઈ  ચોક્કસ નમૂનાની  જરૂર નથી , અથવા  એ 
 ( 5 )  વળી એક  જ સમયે હાજર  હોય તેવા  પણ જરૂરી  નથી કે તમામ  સાક્ષીઓ એક  જ 
 બે  સાક્ષીઓની  સમક્ષ તેમની ઇચ્છાઓને  જાહેર સમયે હાજર  હોવા જોઈએ : ક 63 ( સી ) 
 વિલ કરનાર વિશેષાધિકૃત વિલ કરવાને  અધિકૃત 
 મટી જાય  તે  પછી એક  મહિનો પૂરાં થતાં (  તે 
 હયાત હોઈને ) આવું મૌખિક વિલ નિરર્થક બને 
 છે : ક 66 . 
 
 પાન નં 24 
 
 પ્રશ્ન 1 . અ એક  વહાણને ખલાસી ,  લશ્કરી ચડાઈમાં નોકરીમાં છે , પરંતુ વહામમાં મધગરિયે નથી બ વિશેષા 
 ધિકારયુક્્ત કરી  શકે ? 
 
 જવાબ : હા જુઓ ક . 65 દૃષ્ટાંત ( 6 ) 
 
 પ્રશ્ન 2 . અ નૌકાસૈન્યના એક  કાફલાનો  લશ્કરી વડો , પરંતુ કાંઠા  ઉપર રહે છે અને ફક્્ત  કોઈ  કોઈ વાર 
 જ # 
  પોતાના તાબામાં વહાણ  ઉપર જાય છે . અ વિશેષાધિકારયુક્્ત વિલ કરી  શકે ? 
 
 જવાબ :  ના . જુઓ ક . 65 ( 5 ) 
 
 પ્રશ્ન 3 . વિલ કરનાર સખસ  જે  પોતાની સહી કરી  શકે છે  તે એક  વિલ કરે છે . પરંતુ તેમાં સહી 
 કરવાને # 
 બદલે અંગૂઠાનું નિશાન કરે છે . આ વિલ યથાર્થ વિલ ગણી શકાય ? 
 
 જવાબ : હા .  સામાન્ય રીતે સહી કરી  શકે એવી વ્યક્્તિ  પાસે તેની સહીની આશા રાખી શકાય .  આમ 
 છતાં એવી વ્યક્્તિએ સહી કરવી જ જોઈએ એવી  કોઈ શરત નથી . આથી તેણે કરેલું 
 અંગૂઠાનું નિશાન : ક . 62 (  એ ) ની શરત પૂરી કરતું હોવાનું કહી શકાય . 
 
 પ્રશ્ન 4 . એક  ભારતીય સૈનિક  જ્યારે  તે હિમાલયમાં ચાઈનીઝો  સાથે  ખરેખર યુદ્ધમાં રોકાયેલ હતો ત્યારે 
 એક  # 
 પોસ્ટકાર્ડ  ઉપર  તેના  પોતાના હસ્તાક્ષરમાં  પણ તેની સહી કર્યા વગર અને સાખ કરનાર સાક્ષીઓની 
 સહીઓ મેળવ્યા વગર એક  વિલ કરે છે .  તે સૈનિક  એ યુદ્ધમાં જિવિત રહે છે અને  તેના  પોતાના 
 ગામમાં  સલામત પાછો ફરે છે  પણ હૃદય બંધ  પડવાથી મરણ પામે છે .  શું  તેના વિલનો અમક કરી 
 શકાશે ? 
 
 જવાબ : હા .  માત્ર મૌખિક વિલ જ વિશેષાધિકૃત વિલ કરવાનો અધિકાર  ન રહ્યાથી એક  મહિના 
  પછી નિરર્થક બને છે , પરંતુ આ વિલ  લેખિત હોઈ  તે નિરર્થક  નહિ બને . 
 
 0ઉલ્લેખ કરીને કાગળો સમાવિષ્ટ કરવાનું 
 ( Incorporation of Papers by Reference ) [ ક . 64 ] : 
 
 જો  કોઈ વિલ કરનાર યોગ્ય રીતે સાખ કરેલ વિલ અથવા કોડિસિલમાં  કોઈ બીજા દસ્તાવેજનો 
 ઉલ્લેખ # 
 કરે કે ,  જે  તેના ઇરાદાઓનો  કોઈ ભાગ વ્યક્્ત કરવાને  તે સમયે  ખરેખર લખાયેલ હોય તો  તે દસ્તાવેજ 
  એ # 
 વિલ અથવા કોડિસિલનો , કે જેમાં તેનો ઉલ્લેખ કરવામાં આવ્યો હોય , ભાગ બનતો હોવાનું માનવામાં 
 આવશે : ક . 64 
 
 0સાખ કરનાર સાક્ષીઓને ભક્ષિસ આપવાનું પરિણામ 
 ( Effect of gift to Attesting Witness ) [ ક . 67 ] : 
 
  જ્યારે  કોઈ વિલ કરનાર  કોઈ સાખ કરનાર સાક્ષીને અથવા તેની પત્ની અથવા તેણીના પતિને કાંઈ 
 બક્ષિસ  આપે તો  તે બક્ષિસ નિરર્થક ગણાશે ,  પણ વિલ યોગ્ય રીતે સાખ કરેલ હોવાનુ માનવામાં 
 આવશે : ક . 67 
 
 પ્રશ્ન : અ એક  વિલ કરે છે કે જેમાં બ અને ક દ્વારા સાખ કરવામાં આવી હતી . કના પુત્રી ડને વિલ 
 દ્વારા # 
 2000 / - નો વસિવતી વારસો આપવામાં આવ્યો હતો .  શું  તે વસિયતી બક્ષિસ  કાયદેસર છે ? 
 
 જવાબ : હા . 
 
  કોઈ વિલ  હેઠળ વારસો મેળવનાર  એ વિલને  મંજૂર રાખતા  કોઈ કોડિસિલમાં સાખ કરવાથી તેનો 
 વસિયતી વારસો ગુમાવશે  નહિ : ક . 67 
 
  વળી , એક  અ કે  જે હિંદુ છે  તે  પોતાના વિલથી બ ને રૂ . 10 , 000 / -  આપે છે . વિલમાં બએ 
 સાક્ષી # 
 તરીકે સહી કરેલ છે . પ્રશ્ન થાય છે કે  શું બને આ વસિયત મળી  શકે ? આ કેસની હકીકતનો ક 67ના 
 અપ - # 
 વાદમાં સમાવેશ થતો હોઈને બને આ વસિયત મળી  શકે , કારણ કે ક . 67 હિંદુઓના સંબંધમાં લાગુ  પડતી 
 નથી . # 
 
 પાન નં 25 
 
 0એક્ઝીક્યુટર સાક્ષી બનવાને ગેરલાયક નથી [ ક . 68 ] : 
 
  કોઈ એક્ઝીક્યુટર વિલનું કાયદેસરપણું અથવા ગેરકાયદેસરતા , અથવા લખી આપ્યાનું સાબિત કરવા 
 માટે ગેરલાયક ગણાતો નથી : ક . 68 
 - - - - - - - - - - - - - - - - - - - - - - - - - - - - - - - - - - 
 
 34 . વિલ રદ કરવાનું યાને પ્રતિસંહરણ 
 ( Revocation of wills ) [ ક . 62 , 69 - 70 અને 72 ] 
 
 વિલ કરનાર દ્વારા  કોઈ  પણ સમયે , કે  જ્યારે  તે વિલ દ્વારા તેની મિલકતનો નિકાલ કરવાને 
  સમર્થ હોય # 
 ત્યારે , વિલ રદ થવાને અથવા ફેરફાર થાવને  પાત્ર છે : ક . 62 . 
 
 0પ્રતિસંહરણ કરવાની રીતો ( Modes of revoking ) - 
 
  સામાન્ય વિલ ( ક . 69 - 70 ) વિશેષાધિકૃત વિલ ( ક . 69 અને 72 ) 
 
 ( હિંદુ , બૌદ્ધ , શીખ અને જૈનોને લાગુ  
 પડતી નથી . ) 
 
  તે રદ થાય છે - -  તે રદ થાય છે - 
 
 1 . વિલ કરનારના લગ્ન દ્વારા ( હિંદુ , બૌદ્ધ , 1 . વિલ કરનાર લગ્ન દ્વારા ( ક . 69 ) ; 
 જેન અને શીખને લાગુ  પડતું નથી , અથવા અથવા 
 
 2 . બીજા વિલ અથવા કોડિસિલ દ્વારા : 2 .  કોઈ  સામાન્ય વિલ અથવા કોડિસિલ 
 ક . 70 ; અથવા દ્વારા અથવા 
 
 3 .  તેને રદ કરવાના ઇરાદાની જાહેરાત કરતાં 3 .  તેને રદ કરવાના ઇરાદાની જાહેરાત 
 ( animus revocandi )  કોઈક લખાણ દ્વાર કરતા , વિશેષાધિકૃત વિલ માટે જરૂરી  
 અને  જે રીતે વિલ કરવાનું હોય છે  તે રીતે તેનું ઔપચારિકતાઓ સહિતના  કોઈક કૃત્ય દ્વારા ; 
 નિષ્પાદન કરવામાં આવતાં ; અથવા પરંતુ  એ કૃત્ય કરતી  વખતે વિલ કરનાર 
 એવી પરિસ્થિતિમાં હોવાનું જરૂરી  નથી કે  જે 
  તેને વિશેષાધિકૃત વિલ બનાવવાને 
  હકદાર બનાવતી હોય ; અથવા 
 
 ( 4 ) વિલ કરનારા દ્વારા ( અથવા  કોઈક ( 4 ) વિલ કરનાર દ્વારા ( અથવા  કોઈક 
 વ્યક્્તિ દ્વારા તેની હાજરીમાં  તેના આદેશ વડે )  તેને વ્યક્્તિ દ્વારા તેની હાજરીમાં અને  તેના 
 રદ કરવાના ઇરાદાસહિત બાળી નાખવાનું , ફાડી આદેશ વડે )  તેના રદ કરવાના ઇરાદા - 
 નાખવાનું અથવા બીજી રીતે નાશ કરવાનું થતાં : સહિત બાળી નાખવાનું ફાડી નાખવાનું , 
 ક . 70 . અથવા બીજી રીતે નાશ કરવાનું થતાં : 
 ક . 72 . 
 
 વસિયત કરનારના લગ્નથી વિલ રદ થાય છે એવા નિયમના બે  અપવાદો છે .  તે છે - - 
 
 ( 1 )  જ્યારે વિલ કરવાની સત્તાનો અમલ કરવામાં આવ્યું હોય , અને 
 
 ( 2 )  જ્યારે બે  વ્યક્્તિઓ પારસ્પરિક ( અરસપરસ ) વિલ કરે ત્યારે  તેઓ પૈકી એકનું લગ્ન 
 થવાથી # 
 બીજાનું વિલ રદ થતું નથી . 
 
 દૃષ્ટાંતો : ( 1 ) અએ  સામાન્ય વિલ કર્યું હતું પછીથી અ પ્રથમના વિલને રદ કરતું હોવાનું 
 જણાતું # 
  બીજું  સામાન્ય વિલ બનાવે છે . આ રદ કરવાનું છે . 
 
 ( 2 ) અએ  સામાન્ય વિલ કર્યું હતું . ત્યાર  પછી અ વિશેષાધિકૃત વિલ કરવાને  હકદાર બનતો 
 હોઈને # 
 વિશેષાધિકૃત વિલ બનાવે છે કે  જે  તેના  સામાન્ય વિલને રદ કરતું હોવાનું જણાય છે . આ રદ કરવાનું છે 
 
 પાન નં 26 
 
  પરાધીન સાપેક્ષ પ્રતિસંહરણનો સિદ્ધાંત ( Doctrine of dependent Relative 
 Revocation ) :  જ્યારે વસિયત કરનાર  તેના વડે કરવામાં આવેલ અગાઉના વિલ અથવા કોડિસિલને 
 પુનર્જીવિત કરવાના ઇરાદાથી પછીના વિલ અથવા કોડિસિલનો નાશ કરે ત્યારે  એ રદ કરવાનો ઇરાદો શરતી  
 હોય છે . - અર્થાત્ , પુનર્જીવિત કરવાના દસ્તાવેજોની કાયદેસરતા બાબતની શરત હોય છે .  તેથી જો 
 પુનર્જીવિત # 
 કરવાનો દસ્તાવેજ  કાયદેસર હોય  નહિ , દા . ત . , જો  તે  કાયદેસર રીતે કરવામાં આવ્યો  ન હોય - તો 
 પછીનું # 
 વિલ રદ થતું નથી . આ  સામાન્ય રીતે  પરાધીન સાપેક્ષ પ્રતિસંહરણ સિદ્ધાંત તરીકે ઓળખાય છે . આ 
 સિદ્ધાંત # 
 લાગુ  પાડવામાં ઇરાદાનો સવાલ છે . આ બાબત વસિયત કરનારની  તેના વિલમાં જણાતી ભાષા  ઉપરથી  નક્કી 
 કરવામાં આવે છે .  જ્યાં સુધી પ્રથમનો દસ્તાવેજ અથવા લખાણ અસરકારક રીતે પુનર્જીવિત કરવામાં આવે 
  નહિ  ત્યાં સુધી પછીનું વિલ રદ થતું નથી ,  પરાધીન સાપેક્ષ રદ કરવાનો સિદ્ધાંત લાગુ  પડે  તે માટે નાશ 
 કરવાનું કૃત્ય  કોઈ બીજો વસિયતી દસ્તાવેજ પુનર્જીવિત કરવાનો સંપૂર્ણપણે અને એક   માત્ર ઇરાદાથી 
 થયું # 
 હોવું જોઈએ અને  તે વસિયતી દસ્તાવેજ અસરકારક રીતે પુનર્જીવિત થતો હોવો જોઈએ . દા . ત . , જો વિલ 
 કરનારે ઘણા કાગળો  ઉપર  પોતાનું વિલ કર્યું હોય ત્યારે  પછી  તે પૈકીનો એક  કાગળ લઈ લે અને  તેના 
  સ્થાને બીજા કાગળ મૂકે , કે જેમાં સહી અને સાખ કરવામાં આવેલ  ન હોયતો આ સિદ્ધાંત લાગુ  પડશે  નહિ 
 અને  તે આખાયે વિલના સંબંધમાં પ્રોબોટ આપવા માટે ઇન્કાર કરવામાં આવશે . 
 
 પ્રશ્ન અ નામનો માણસ નવું વિલ બનાવવાના ઇરાદાથી અગાઉનું વિલ રદ કરે છે , પરંતુ નવું 
 વિલ કર્યા વગર  તે અવસાન પામે છે . અએ  જે વિલ રદ કરેલ છે  તે વિલ  સંપૂર્ણ રીતે રદ થયેલ છે 
  તેમ # 
 કહી શકાય ? 
 
 જ . :  અહીં વિલ રદ કરવાનો ઇરાદો નવું વિલ બનાવવાનો હોઈ  તે શરતી  છે . આથી , નવું વિલ 
  ન બનાવી શકાયું હોય તો અગાઉનું વિલ રદ થયું ગણાતું નથી .  અહીં પારાધીન સાપેક્ષ પ્રતિસંહરણનો 
 સિદ્ધાંત લાગુ  પડશે . 
 
 0નિયુક્્ત કરવાની સત્તા ( Power of Appointment ) [ ક . 69 સમજૂતી ] : 
 
 નિયુક્્ત કરવાની સત્તા  શું છે તેની ક . 69 ની સમજૂતી દ્વારા વ્યાખ્યા આપવામાં આવેલ છે .  જ્યારે 
  કોઈ માણસમાં  પોતે જેનો માલિક  ન હોય તેવી  કોઈ મિલકતનો નિકાલ કરવાની સત્તા સ્થાપિત કરવામાં 
 આવી હોય ત્યારે  પાસે એવી મિલકત માટે નિયુક્્ત કરવાની સત્તા હોવાનું કહેવામાં આવે છે : 
 ક . 69 ની સમજૂતી . 
 
 0સામાન્ય અને  વિશિષ્ટ સત્તા ( General And Special Power ) : 0આ સત્તાઓ બે  
 પ્રકારની # 
 છે એટલે કે  સામાન્ય અને  વિશિષ્ટ .  જ્યારે અ ને , અ  કોઈ લેખ અથવા વિલ દ્વાર  નક્કી કરે તેવા ભાગ 
 અથવા ભાગોમાં  કોઈ વ્યક્્તિ અથવા વ્યક્્તિઓ માટે ટ્રસ્ટ તરીકે , અને નિયુક્્ત કરવામાં કસૂર કરવામાં 
 આવે # 
 તો બ ને  એ રીતે  કોઈ મિલકત વસિયત દ્વારા આપવામાં આવી હોય ત્યારે તેવી નિયુક્્ત કરવાની સત્તા 
  સામાન્ય # 
 હોવાનું કહેવામાં આવે છે . પરંતુ  જ્યારે અને , અ  કોઈ લેખ અથવા વિલ દ્વારા નિયુક્્ત કરે તેવા ભાગ 
 અથવા # 
 ભાગોમાં બના  કોઈ સંતાન અથવા સંતાનો માટે ટ્રસ્ટ તરીકે અને નિયુક્્ત કરવામાં કસૂર કરવામાં આવે  તે 
 રીતે # 
 બનાં તમામ  સંતાનોને સરખે ભાગે  એ તો  કોઈ મિલકત વસિયત દ્વારા આપવામાં આવી હોય ત્યારે તેવી 
 નિયુક્્તી # 
 કરવાની સત્તાને  વિશિષ્ટ અથવા મર્યાદિત હોવાનું કહેવામાં આવે છે .  સામાન્ય સત્તાના કેસમાં કે અ જો 
 મિલકતનો # 
 હિતયુક્્ત માલિક હોતો નથી  તેમ છતાં  તેને પસંદ  પડે  એ રીતે  કોઈ  પણ સમયે મિલકતનો નિકાલ કરવાની 
  તેને # 
 સત્તા હોય છે , અને  તેને  પોતાને  પણ  એ મિલકત આપી  શકે છે . આવી નનિયુક્્તી કરવાની સત્તા  લગભગ 
 મિલકતની માલિકીના જેવી જ છે ,  જ્યારે  વિશિષ્ટ સત્તાના કેસમાં મિલકત જો કે નિકાલ થવા માટે અ ની 
  પાસે # 
 રહે છે ,  પણ  તે તેની  પોતાના ઉપયોગ માટે  તેને ફેરવી શકતા નથી . તેની  પાસે ફક્્ત તેનો નિકાલ કરવાનો 
 અધિકાર # 
 રહે છે .  આગળ ક . 91 માં વિલ અન્વયેની  સામાન્ય નિયુક્્ત કરવાની સત્તા અંગે અને ક . 92 માં  વિશિષ્ટ 
 અથવા મર્યાદિત સત્તા વિષે કહેવામાં આવ્યું છે . 
 
 પાન નં 27 
 
 3 5 . વિલમાં છેકછાક , ફે઱ફારો વગેરેનું પરિણામ 
 ( Effect of Obliterations , Altertationer etc . in a will ) [ ક . 71 ] 
 
 આપણને ઘણી વાર વિલમાં છેકછાક અથવા ઉમેરો કર્યો હોવાનું જણાતું હોય છે .  તે પ્રમાણે  કાં તો 
 વિલ કરતાં  પહેલાં અથવા  તે કર્યા પછીથી કરવાનું બની  શકે . જો વિલ કરતાં  તે પ્રમાણે કરવામાં આવ્યું 
 હોય # 
 તો  કંઈ જ મુશ્કેલી ઊભી થતી નથી .  પણ જો વિલ કરવામાં આવ્યા પછીથી એવા ફેરફારો કરવામાં આવ્યા 
 હોય # 
 તો ક . 71 માં  નિર્દિષ્ટ કરવામાં આવેલ નિયમો અનુસાર  તે કરવામાં આવ્યા હોવા જોઈએ . અર્થાત્ - 
 
 ફે઱ફારો અને છેકછાક  વગેરે  કાયદેસર ગણાય  તે માટે  ત્યાં - - 
 
 (  એ ) એવા ફે઱ફારની  નજીક , અથવા હાંસિયામાં અથવા છેડે યાદીની  નજીક અને એવા ફે઱ફારનો 
 ઉલ્લેખ # 
 કરીને વિલ કરનારની સહી અને સાક્ષીઓ હોવી જોઈએ . 
 
 ( બી ) ફેરફારો  વગેરે  કાયદેસર બને - જો વિલ કરવા માટે  નિર્દિષ્ટ કરવામાં આવેલ રીત મુજબ 
 કરવામાં # 
 આવ્યા હોય : ક . 71 . 
 
 0ઉદાહરણો : 0અ  તેના વિલ  અન્વયે બને રૂ . 1 , 000નું ઉત્તરદાન  આપે છે . પખી અ રૂ . 1 , 000 
 રદ # 
 કરે છે અને  તેના  ઉપર રૂ . 500 લખે છે . આ રદ કરવાની  ઉપર અની સહી અથવા સાખ કરવામાં 
 આવેલ નથી # 
  તેથી આ ફે઱ફાર નિરર્થક છે અને મૂળ  ઉત્તરદાન ચાલુ  રહે છે એટલે કે બ રૂ . 1 , 000 મેળવશે . 
 - - - - - - - - - - - - - - - - - - - - - - - - - - - - - - - - - - 
 
 37 . વિલ અર્થઘટન અંગે 
 
 ( Of the Construction of Will ) [ પ્રકરણ - 6 : ક . 74 - 101 ] : 
 
 આ પ્રકરણ છટ્ઠાની ક . 74 - 101નું આ રીતે વર્ગીકરણ કરી શકાય : 
 
 1 . વિલના શબ્દોનો કેવી રીતે અર્થ કરવો : ક . 74 - 75 , 83 , 86 - 87 , 95 , 99 - 100 
 
 2 . ભૂલો : ક 76 - 79 
 
 પાન નં 28 
 
 3 . સંદિગ્ધતા : ક . 80 - 81 . 
 
 4 . વિલના અસંગત  ખંડો : ક . 82 , 84 - 85 , 88 
 
 5 . ઉત્તરદાનોનો અર્થ કરવા માટે નિયમો : ક . 90 - 98 
 
 0 વિલનું અર્થઘટન કરવા માટેના  સામાન્ય નિયમો : 0અર્થઘટન કરવા માટેનો એક  અગત્યનો 
  સામાન્ય નિયમ છે .  તે આ પ્રમાણે છે - ` વિલ ' નો અર્થ કરતી  વખતે અદાલતે વિલ કરનારાના 
 ઇરાદાઓને અસર # 
 કારક રહે છે . વસિયત કરનારે  જે લખ્યું હોય  તેના વ્યાકરણીય અર્થઘટન અનુસાર અને ઉપયોગમાં 
 લેવાયેલ # 
 શબ્દોની  સામાન્ય સ્વીકૃત મુજબ  તેના દરેક ભાગને વિચારણામાં લઈને  તે દ્વારા અને આજુબાજુમના 
 સંજોગોમાં # 
 મૌખિક પુરાવની સહાય સહિત , કે  જે અદાલત વિલ કરનારની સ્થિરતામાં મૂકવા માટે ગ્રાહ્ય હોય - તેનો 
 અર્થ # 
 કરવાનો રહે છે . જો કે વિલ કરનારના મૃત્યુ સમયેથી ` વિલ ' બોલે છે ,  તેમ છતાં અદાલતે  તેના વિલમાં 
 વાપરવામાં # 
 આવેલ શબ્દોને અમલ મૂકવાના હેતુ માટે આજુબાજુના સંજોગો , વિલ કરનારની સ્થિતિ ,  તેના કૌટુંબિક 
 સંબંધો કે તેણે અમુક અર્થમાં શબ્દોનો ઉપયોગ કર્યા બાબતની સંભવિતતા , તેની જાતિ , તેમજ વિલ કરતી 
  વખતે  તેના ધાર્મિક અભિપ્રાયો  વગેરે વિચારણામાં લેવા જોઈએ . એવી હકીકતો અને સંજોગોનો પુરાવો લીધા 
 વગર # 
 વિલ કરનારના શબ્દોનો અર્થ  તેને લાગુ  પાડવા બાબત સમજી શકાય  નહિ . આ રીતે વિલનું અર્થઘટન 
 કરતાં # 
 દરમિયાન અદાલતે  પોતાની જાતને ,  તે મૂકી  શકે  ત્યાં સુધી  એ વિલ કરવાની સ્થિતિમાં મૂકવાનું જરૂરી  છે 
 અને # 
 વ્યક્્તિઓ અને વસ્તુઓના સંબંધમાં  તેના શબ્દોનો ,  એ વિલ કરનાર એવી વ્યક્્તિઓ અને વસ્તુઓ અંગે 
 જેટલા પ્રમાણમાં જ્ઞાન ધરાવતો હોય  તેના સંદર્ભમાં અને  તે  જેટલે અંશે  તે શોધી  શકે  તેના પ્રમામમાં અર્થ 
 કરવો જોઈએ . વિલ કરનારે  પોતાનું વિલ બનાવ્યુ હોય  તે સમયે વિદ્યમાન હોય તેવા આજુબાજુના સંજોગો 
 તરફ અદાલત જોઈ  શકે . " અદાલત  પોતાની જાતને વિલ કરનારની આરામશુરશીમાં મૂકવાને અને તેણે 
  જ્યારે # 
 વિલ બતાવ્યું હોય ત્યારે  તે  જે સંજોગોથી વીંટળાયેલો હોય  તે સંજોગોને વિચારણમાં લેવાના  અધિકૃત છે . 
  તેના # 
 ઇરાદાઓને  નક્કી કરવામાં આ બાબત  અવશ્ય અદાલતને સહાય કરશે . " 
 
 01 . શબ્દોનું અર્થઘટન : 
 ( Construction of Words ) [ ક . 74 - 75 , 83 , 86 - 87 , 90 , 95 , 99 - 100 ] : 
 
 ( 1 ) પારિભાષિક શબ્દોનો ઉપયોગ કરવાની  જરૂર રહેતી નથી ; જો  તેઓ વિલ કરનારા ઇરાદાનો 
 નિર્દેશ # 
 કરતા હોય તો  તે પૂરતું છે : ક . 74 . 
 
 ( 2 ) વિલમાં વાપરવામાં આવેલ શબ્દો દ્વારા કઈ વ્યક્્તિ અથવા કઈ મિલકત વ્યક્્ત થાય છે  તે 
  નક્કી કરવાના 
 હેતુ માટે અદાલત  એ વિલ  હેઠળ ધરાવતા હોવાનો હકદાવો કરતી વ્યક્્તિઓ ;  જે મિલકત અંગે હકદાવો 
 કરવામાં આવ્યો હોય  તેને લગતી , તેમજ વિલ કરનારા અને  તેના કુટુંબના સંજોગોને લગતી દરકે મહત્ત્વની 
 હકીકત અંગે વિલ કરનારે વાપરેલ શબ્દોને યોગ્ય રીતે લાગુ  પાડવાને માટે જેમનું જ્ઞાન  સહાયભૂત બની 
  શકે  તેમ હોય તેવી પ્રત્યેક હકીકત પરાત્વે તપાસ કરશે : ક . 75 
 
 0દૃષ્ટાંતો : 0 ( 1 ) અ  તેના વિલ દ્વારા રૂ . 1 , 000 નું  તેના સૌથી મોટા પુત્રને , અથવા  તેના સૌથી 
 નાના પૌત્રનો અથવા તેની પિતરાઈ બહેન મેરીને  આપે છે . વિલમાંનું વર્ણન કઈ વ્યક્્તિને લાગુ  પડે છે  તે 
  નક્કી # 
 કરવાના હેતુ માટે અદાલત તપાસ કરી  શકે . 
 
 ( 2 ) અ  તેના વિલ દ્વારા "  મારી બ્લેક એકરર તરીકે ઓળખાતી એસ્ટેટ " બ માટે મૂકી જાય 
 છે .  એ વસિયતની # 
 વિષય - વસ્તુ  શું છે  તે  નક્કી કરવાના હેતુ માટે એટલે કહેવાનું કે વિલ કરવાની કઈ એસ્ટેટ બ્લેક 
 એકર કહેવામાં # 
 આવે છે  તે માટે પુરાવો લેવાની  જરૂર હોઈ  શકે . 
 
 ( 3 ) અ  તેના વિલ દ્વારા " ક  પાસેથી  જે એસ્ટેટ ખરીદી હતી " , માટે મૂકી જાય છે . વિલ 
 કરનારે # 
 ક  પાસેથી કઈ એસ્ટેટ ખરીદી કરી હતી  તે  નક્કી કરવાના હેતુ માટે પુરાવા લેવાની  જરૂર હોવાનું બની 
  શકે : 
 ક . 75 . 
 
 પાન નં 29 
 
 ( 3 ) જો વિલમાંના શબ્દો દર્શાવતા હોય કે વિલ કરનારાનો ઇરાદો આ પ્રમાણેનો હતો તો  સામાન્ય 
 શબ્દોને # 
 મર્યાદિત અર્થમાં સમજી શકાય અને  તે પ્રમાણે વિરુદ્ધમાં  પણ ( એટલે કે મર્યાદિત શબ્દોને  સામાન્ય 
 શબ્દોના # 
 અર્થમાં ) સમજી શકાય ( ક . 83 ) ; અને વિલ કરનારના ઇરાદાને સંપૂર્ણપણે અમલમાં મૂકી શકાય  તેમ 
  નહિ હોવાના # 
  કારણસર  તેને બાજુએ મૂકવો જોઈએ  નહિ ,  પણ શક્ય  હોય  ત્યાં સુધી  તેને અમલમાં મૂકવો જોઈએ : ક . 
 87 . # 
 * 
 - - - - - - - - - - - - - - - - - - - - - - - - - - - - - - - - - - 
 
 </p></body></text></cesDoc>