<cesDoc id="hin-w-indiainfo-news-01-05-04" lang="hin">
<cesHeader type="text">
<fileDesc>
<titleStmt>
<h.title>hin-w-indiainfo-news-01-05-04.txt</h.title>
<respStmt>
<respType>Electronic file created by</respType>
<respName>Department of Linguistics, Lancaster University</respName>
<respType>text collected by</respType>
<respName>Paul Baker</respName>
<respType>transferred into Unicode by</respType>
<respName>"Unicodify" software by Andrew Hardie</respName>
</respStmt>
</titleStmt>
<publicationStmt>
<distributor>UCREL</distributor>
<pubAddress>Department of Linguistics, Lancaster University, Lancaster, LA1 4YT, UK</pubAddress>
<availability region="WORLD"></availability>
<pubDate>03-08-23</pubDate>
</publicationStmt>
<sourceDesc>
<biblStruct>
<monogr>
<h.title>"Indiainfo" internet news (www.indiainfo.com), news stories collected on 01-05-04</h.title>
<h.author>Indiainfo.com Ltd.</h.author>
<imprint>
<pubPlace>India (Mumbai, Hyderabad, Bangalore)</pubPlace>
<publisher>Indiainfo.com Ltd.</publisher>
<pubDate>01-05-04</pubDate>
</imprint>
</monogr>
</biblStruct>
</sourceDesc>
</fileDesc>
<encodingDesc>
<projectDesc>Text collected for use in the EMILLE project.</projectDesc>
<samplingDesc>Simple written text only has been transcribed. Diagrams, pictures and tables have been omitted and their place marked with a gap element.
</samplingDesc>
<editorialDecl>
<conformance level="1"></conformance>
</editorialDecl>
</encodingDesc>
<profileDesc>
<creation>
<date>03-08-23</date>
</creation>
<langUsage>Hindi</langUsage>
<wsdUsage>
<writingSystem id="ISO/IEC 10646">Universal Multiple-Octet Coded Character Set (UCS).</writingSystem>
</wsdUsage>
<textClass>
<channel mode="w">print</channel>
<constitution type="composite"></constitution>
<domain type="public"></domain>
<factuality type="fact"></factuality>
</textClass>
<translations></translations>
</profileDesc>
<revisionDesc></revisionDesc>
</cesHeader>

<text>
<body>




<p>गुलशन
कांड में शाहरुख, पौडवाल की गवाही </p>

<p>मुंबई ।
पार्श्व गायिका अनुराधा पौडवाल और फिल्म अभिनेता शाहरुख खान व चंक ी
पांडे की गुलशन कुमार हत्या कांड के मुकदमें में गवाही ली जाएगी ।
इस मामले में कुल २२६ गवाह हैं, इनमें ये तीनों भी शामिल हैं । यह मुकदमा आगामी
१८ जून से शुरू हो रहा है । </p><p>
</p><p>
एक विशेष अदालत ने शुक्रवार को इस मामले की गवाही आगामी १८ जून से
रिकॉर्ड करने का फैसला किया है । विशेष सरकारी वकील उज्वल निकम ने
प्रस्तावित गवाहों की सूची भी सौंप दी है । </p><p>
</p><p>
इस मुकदमे की शुरुआत ४ साल बाद हो रही है । उल्लेखनीय है कि १२ अगस्त १९९७
को जुहू के एक मंदिर के बाहर कैसेट किंग गुलशन कुमार की गोली मारकर
हत्या कर दी गई थी । </p><p>
</p><p>
सरकार द्वारा इस मामले में प्रथम आरोपी संगीतकार नदीम सैफी के खिलाफ
इंग्लैंड में प्रत्यर्पण का मामला दायर करने के कारण इसका मुकदमा चलने में देरी
हुई  । उल्लेखनीय है कि लंदन की दि हाऊस ऑफ लॉर्डस अदालत ने हाल ही
में नदीम को प्रत्यार्पण मामले में बरी कर दिया है । </p><p>
</p><p>
नदीम फिलहाल लंदन में ही रह रहा है और अभियोजन ने इस मुकदमे में उसे फरार
बताया है । जबकि १७वें अभियुक्त पर मुकदमा चलाया जा रहा है । अभियोजन ने
इस मुकदमे से संबंधित सभी दस्तावेज अदालत को सौंप दिए हंै, जबकि बचाव पक्ष के
वकीलों आदिक शिरोड़कर,सतीश मानशिंदेे, अब्बास काजमी और परवेज मेमन ने
दस्तावेज दाखिल नहीं किए हैं । </p>

<p>लश्कर
के बयान की बुखारी ने निंदा की </p>

<p>नई
दिल्ली । पाकिस्तान की लश्कर -ए - तोएबा (लेट) की भारत पर की गई
टिप्पणी पर जामा मस्जिद के शाही इमाम सैय्यद अहमद बुखारी ने तीव्र प्रतिक्रिया
व्यक्त करते हुए कहा कि देश की एकता और अखंडता के लिए किसी के साथ
किसी भी कीमत पर समझौता नहीं हो सकता और हम अपनी मातृभूमि की एकता और
अखंडता के लिए जान देने में भी नहीं हिचकिचाएंगें । </p><p>
</p><p>
बुखारी ने लेट के बयान को बचकानापूर्ण बताया है । उल्लेखनीय है कि
लेट ने अपने बयान कहा था कि कुछ शक्तियां भारत के सांप्रदायिक सौहार्द
को बाधा पहुंचाकर इसे हिंदू राष्ट्र में बदलने का सपना देख रही हैं । </p>

<p>खाड़ी
के मलयाली मतदान के इच्छुक </p>

<p>नई
दिल्ली  । खाड़ी देशों के अप्रवासी भारतीयों ने मताधिकार की मनाही पर
नाराजगी व्यक्त करते हुए इस मामले में प्रधानमंत्री अटल बिहारी वाजपेयी से हस्तक्षेप
की मांग की है । </p><p>
</p><p>
पूरे मध्य पूर्वी देशों में करीब २५ लाख भारतीय बसे हुए हैं  । इनमें से अधिकतर
केरल के हैं । पिछले सप्ताह मस्कत के इंडियन सोशल क्लब के मलयाली
विभाग ने अपने मतदान की मांग को लेकर प्रधानमंत्री अटल बिहारी वाजपेयी से
मुलाकात की । </p><p>
</p><p>
इस समय ओमान में करीब ५ लाख भारतीय हैं, जिनमें से लगभग ३ लाख मलयाली हैं । </p><p>
</p><p>
वहीं सउदी में भी करीब १५ लाख भारतीयों का विशाल जन समुदाय है  । यहां भी
करीब ८ लाख केरल के हैं । क्लब के सीएनपी विभाग के अध्यक्ष नंबूदरी ने कहा
कि भारत सरकार ने इस मांग के प्रति शिथिल रवैया अपनाया है ,जबकि इसके लिए
संविधान में संशोधन किया जाना था  । लेकिन पिछली सरकारों ने इस मामले
में कोई भी कदम नहीं उठाया  । </p><p>
</p><p>
उल्लेखनीय है कि पिछले कई सालों से मलयाली एसोसिएशन द्वारा केंद्र और राज्य
सरकारों के पास काफी ज्ञापन भेजे जाते रहे हैं । </p><p>
</p><p>
केरलवासी प्रकोष्ठ के अध्यक्ष अब्राहम मैथ्यू के मुताबिक अमरीका, फिलीपिंस और
सूडान के नागरिक जो खाड़ी देशों में कार्य कर रहे हैं, उन्हें भी अपने
देशों में मतदान का अधिकार प्राप्त है । </p><p>
</p><p>
इस प्रतिनिधि मंडल ने एयर इंडिया भारत के मुख्य हवाई अड्डों पर मस्कत से
आने पर यात्रा किराए में भी २५ प्रतिशत कटौती की भी मांग की है । इसके
लिए एक हस्ताक्षरयुक्त ज्ञापन भी उसने दिया है । </p>

<p>भरत
शाह को जमानत नहीं </p>

<p>मंुबई ।
मंुबई उच्च न्यायालय ने हीरा व्यापारी और फिल्म फाइनेंसर भरत शाह की जमानत
याचिका को एक बार फिर से ठुकरा दिया है । </p><p>
</p><p>
गौरतलब है कि भरत शाह को मंुबई पुलिस ने महाराष्ट्र संगठित अपराध
नियंत्रण अधिनियम (मोका ) के तहत आठ जनवरी को गिरफ्तार किया था । उन
पर कराची स्थित माफिया सरगना छोटा शकील के साथ संबंध रखने का आरोप
है । </p>

<p>शिवसेना
एआईएडीएमके को समर्थन देगी </p>

<p>चेन्नई
 । तमिलनाडु की शिवसेना इकाई ने शुक्रवार को फैसला किया है कि वह
इस विधानसभा चुनाव में हिंदू विरोधी पार्टी द्रविण मुनेत्र कषगम (डीएमके) को
सबक सिखाने के लिए एआईएडीएमके को समर्थन देगी । </p><p>
</p><p>
पार्टी राज्य इकाई के महासचिव एस. थेनमारवन ने कहा कि यह फैसला डीएमके
को सबक सिखाने के लिए किया गया है । उन्होंने इस पार्टी पर आरोप भी
लगाया है कि वह एनडीए के संविधान का सम्मान करने में असफल रही है । </p><p>
</p><p>
थेनमारवन के मुताबिक जहां एआईएडीएमके का उम्मीदवार नहीं होगा,वहां सेना
एमडीएमके को समर्थन देगी । </p><p>
</p><p>
पार्टी महासचिव ने पिछले दिनों मुख्यमंत्री करुणानिधि और चेन्नई के महापौर
स्टालिन द्वारा दिए बयानों का जिक्र करते हुए उन पर हिंदू धर्म को नीचा
दिखाने का आरोप लगाया । </p><p>
</p><p>
थेनमारवन ने अपील की है कि भाजपा के सच्चे कार्यकर्ता डीएमके के खिलाफ
काम करें ।उन्होंने बताया कि इस फैसले से एआईएडीएमके प्रमुख जयललिता
को अवगत करा दिया गया है । </p>

<p>असम
में आठ मरे </p>

<p>गुवाहाटी ।
असम में चुनाव पूर्व जारी हिंसा में शुक्रवार को कम से कम छह राजनीतिक
कार्यकर्ता और दो अलगाववादी विद्रोही मारे गए । </p><p>
</p><p>
पुलिस का कहना है कि मारे गए छह राजनीतिक कार्यकर्ता शासक पार्टी असम
गण परिषद के हैं । ये कार्यकर्ता प्रतिबंधित चरमपंथी संगठन उल्फा द्धारा
पार्टी के गुवाहाटी से ८० किलोमीटर दूर बोगरिहाटी स्थित एक
कार्यालय पर किए गए हमले मंे मारे गए । </p><p>
</p><p>
पुलिस का कहना है कि उल्फा आतंकियों का एक दल हथियारों से लैस होकर चुनाव
कार्यालय में घुसा और उसने स्वचालित हथियारों से अंधाधुंध गोलियां बरसानी शुरु
की जिससे छह कार्यकर्ता मारे गए जबकि अनेक घायल हुए । </p><p>
</p><p>
एक अलग वारदात में भारतीय सेना ने बोंगईगांव जिले में उल्फा के दो आतंकियों
को मुठभेड़ में मार गिराया । </p><p>
</p><p>
चुनाव विश्लेषकों का कहना है कि उल्फा ने असम गण परिषद और भाजपा को अपना
निशाना बना रखा है । गत माह चुनावी हिंसा में कम से कम ४६ लोग मारे गए ।
मरने वालों में भाजपा का एक उम्मीदवार भी शामिल है । इसके अलावा १५० से ज्यादा
राजनीतिक कार्यकर्ता घायल हुए हैं । </p><p>
</p><p>
गौरतलब है कि स्वतंत्र राज्य की मांग कर रहे उल्फा के पिछले दो साल में लगभग
३०० आतंकी सुरक्षा दलों के साथ हुए संघर्ष में मारे गए हैं । गत दो दशक में
तकरीबन दस हजार लोगों को भी अपने जीवन से हाथ धोना पड़ा है । </p>

<p>बांग्लादेश
बातचीत के लिए उत्सुक </p>

<p>ढाका ।
बांग्लादेश ने कहा है कि वह सीमा विवाद को निपटाने के लिए भारतीय पहल की
कद्र करता है । और वह मई के अंत तक इस संबंध में बातचीत के लिए समय तय
कर देगा । </p><p>
</p><p>
बांग्लादेश के विदेश मंत्री ने सरकारी समाचार एजेंसी के माध्यम से कहा है कि
दोनों देशों के उच्चस्तरीय अधिकारियों की बैठक जल्दी से जल्दी होनी
चाहिए । </p><p>
</p><p>
इस बैठक के लिए भारत ने जो तारीख भेजी थी वह बांग्लादेश नामंजूर कर चुका
है । </p><p>
</p><p>
भारत-बांग्लादेश सीमा पर हुए दुर्घटनापूर्ण वारदात के बाद दोनों देशों के नेता
स्थिति को सुलझाने में लगे हैं- पर बात बयानबाजी से आगे नहीं बढ़ रही है । </p><p>
</p><p>
दोनों देशों के बीच जल, जमीन, कानून और विदेशी मामलों संबंधी कई विवाद
हैं । बांग्लादेश ने इनको निपटाने के लिए उत्सुकता जताने का संकेत
दिया । </p>

<p>गुजरात
के लिए रॉक बैंड धमाका </p>

<p>नई
दिल्ली । भारत, बांग्लादेश और पाकिस्तान के लोकप्रिय रॉक बैंड १३ मई
को नई दिल्ली के जवाहर लाल नेहरू स्टेडियम में गुजरात भूकंप
पीड़ितों के सहायतार्थ एक धमाकेदार संगीत कार्यक्रम पेश करेंगे । </p><p>
</p><p>
ये रॉक बैंड हैं- जुनून (पाकिस्तान), यूफोरिया (भारत), सिल्क रूट (भारत)
और माइल्स (बांग्लादेश) । </p><p>
</p><p>
रॉक बैंडों का दक्षिण एशिया में यह सबसे बड़ा आयोजन होगा । इसका
आयोजन यूनाइटेड मीडिया एंटरप्राइज ने किया है । </p><p>
</p><p>
ये सारे रॉक बैंड अपने देशों के बाहर भी खूब लोकप्रिय हैं । कलाकारों
का मानना है कि भारत, बांग्लादेश और पाकिस्तान की सांस्कृतिक विरासत में
समानता है । हम कलाकार ही लोगों को करीब लाने का काम कर सकते
हैं । </p><p>
</p><p>
गुजरात में आए भूकंप पीड़ितों की सहायता एक मानव सेवा का कार्य है ।
ऐसे में हम कलाकार एक साथ मिलकर यह नेक कार्य कर रहे हैं । (इंडिया
अब्रॉड) </p>

<p>नवंबर
में वाजपेयी जाएंगे रूस </p>

<p>नई
दिल्ली । नवंबर २००१ में प्रधानमंत्री अटल बिहारी वाजपेयी रूस की सरकारी यात्रा
पर जाएंगे । </p><p>
</p><p>
वाजपेयी की इस यात्रा को रूस सरकार काफी महत्व दे रही है । यात्रा की तैयारी
के लिए रूस के विदेश मंत्री इगोर इवानोव तीन दिन की यात्रा पर भारत आए हैं । </p><p>
</p><p>
इन तीन दिनों में वे विदेशी मामलों के मंत्री जसवंत सिंह, वित्त मंत्री यशवंत सिन्हा और
राष्ट्रीय सुरक्षा सलाहकार ब्रजेश मिश्र से मुलाकात करेंगे । </p><p>
</p><p>
इसके साथ ही इगोर इवानोव भारत के राष्ट्रपति के.आर. नारायणन से भी मुलाकात
करेंगे । </p><p>
</p><p>
रूस के विदेश मंत्री की इस यात्रा को राजनीतिक दृष्टि से काफी महत्वपूर्ण माना
जा रहा है । पांच साल पहले मार्च १९९६ में रूस के विदेश योवजेने प्रिमाकोव
भारत आए थे । </p>

<p>अयोध्या
केस की कार्यवाही रुकी </p>

<p>लखनऊ ।
सीबीआई की विशेष अदालत ने शुक्रवार को अयोध्या कांड की कार्यवाही को
रोकने का आदेश दिया है । इस मामले में २१ अभियुक्त हैं जिसमें तीन मंत्री भी
हैं । </p><p>
</p><p>
अदालत ने कहा है कि इसमें कुछ कानूनी खामियां हैं । इसकी जांच के बाद
ही अदालत की कार्यवाही आगे चल सकेगी । </p><p>
</p><p>
अयोध्या के मस्जिद गिराए जाने के मामले में जो तीन केंद्रीय मंत्री शामिल हैं- उनके
नाम एल.के. आडवाणी, मुरली मनोहर जोशी और उमा भारती हैं । </p>

<p>आडवाणी
गुर्जर रत्न से सम्मानित होंगे </p>

<p>गांधीनगर
 । गृहमंत्री लालकृष्ण आडवाणी, फिल्ड मार्शल मानेकशॉ और नासकॉम
के अध्यक्ष स्वर्गीय देवांग मेहता सहित १२ लोगों का वार्षिक गुर्जर रत्न पुरस्कार के
लिए चयन किया गया है । </p><p>
</p><p>
पुरस्कार के लिए चयनित अन्य लोगों में साहित्यकार मनुभाई पंचोली, उद्योगपति अरविंद
मफतलाल, सामाजिक कार्यकर्ता अबुबेन ठक्कर, शिक्षाविद् अजय देसाई, पूर्व मुख्य
न्यायाधीश पी. एन. भगवती, रिजर्व बैंक ऑफ इंडिया के पूर्व गवर्नर डॉ.
आई. जी. पटेल, वकील नानी पालखीवाला, फिल्म अभिनेत्री डिंपल कापड़िया
और राष्ट्रीय डेयरी विकास बोर्ड के पूर्व अध्यक्ष डॉ. वी. कुरियन
भी शामिल हैं । </p>

<p>तानाशाह
का संगीत प्रेम </p>

<p>दुबई ।
अब हमारे मुम्बईया फिल्म संगीतकारों के सावधान होने का वक्त आ गया है ।
हमारे पड़ोसी पाकिस्तान के मिलेट्री रूलर जनरल परवेज मुशर्रफ ने दुबई
के प्रमुख समाचार पत्र 'खलीज टाइम्स' को दिए गए इंटरव्यू में कहा है कि
उन्हें भारतीय फिल्मों के नए फिल्मी गीत बिल्कुल पसंद नहीं आते । वे फूहड़
और बकवास होते हैं और कविता तो उसमें होती ही नहीं । लेकिन पुराने
हिन्दी गाने उन्हें बेहद पसंद हैं । </p><p>
</p><p>
भले ही जनरल परवेज मुशर्रफ ने गोली-बंदूकों के साथ ज्यादा समय गुजारा हो- पर अब
वे एक संगीत प्रेमी शासक होने का छद्म वेष धारण करना चाहते हैं । संगीत
की चर्चा करते हुए उन्होंने कहा कि 'संगीत मुझे बेहद प्रिय है । लेकिन
अंग्रेजी संगीत मुझे बिल्कुल पसंद नहीं । मुझे पाकिस्तानी गाने भी पसंद हैं- पर
वही जो वाकई अच्छे हों । बकवास गाने मुझे ज्यादा बकवास लगते हैं ।
इसकी तुलना में मुझे गजल ज्यादा पसंद हैं- वैसे आधी गजल मुझे समझ में ही नहीं
आती । पॉप संगीत भी मुझे पसंद नहीं ।' </p><p>
</p><p>
मुशर्रफ को सूफी संगीत बचपन से ही प्रिय है । यह पसंद उन्हें अपनी मां से
विरासत में मिली थी । उनकी मां अच्छा गाती थीं और साथ में हारमोनियम भी
बजाती थी । जबकि पिता तबले पर साथ देते थे । उनके यहां पारिवारिक
आयोजन संगीत महफिलों में बदल जाते थे । </p><p>
</p><p>
ऐसे कला प्रेमी परिवार में पल बढ़कर इस मुकाम तक पहुंचे हैं जनरल परवेज
मुशर्रफ । </p>

<p>भारत
करेगा अन्तरद्वीप मिसाइल परीक्षण </p>

<p>वाशिंगटन ।
भारत अपने पहले अन्तरद्वीप बैलेस्टिक मिसाइल का टेस्ट लांच करेगा ।
इस मिसाइल का नाम 'सूर्य' या 'अग्नि-४' होगा । </p><p>
</p><p>
इसका पहला परीक्षण अगले वर्ष जनवरी में किया जाएगा । इसकी मारक क्षमता ५०००
किलोमीटर होगी । इसके बाद सन् २००३ में इसका अगला परीक्षण होगा ।
'सूर्य-२' नामक अगली मिसाइल की क्षमता १२००० किलोमीटर तक मार करने की
होगी । यह जानकारी डिफेंस रिसर्च और डेवलपमेंट आर्गनाइजेशन
(डीआरडीओ) के मुखपत्र 'डिफेंस न्यूज' ने दी है । </p><p>
</p><p>
एक वैज्ञानिक ने अपना नाम न बताने की शर्त पर कहा है कि 'सूर्य-२' की क्षमता
२०,००० किलोमीटर तक बढ़ाई जा सकती है । </p><p>
</p><p>
'सूर्य' का विकास 'लिक्विड-फ्यूल राकेट' की तकनीक से किया
जा रहा है- इसे क्रियोजेनिक इंजिन से चलाया जाएगा  । </p><p>
</p><p>
रूस से हुए एक सौदे के अनुसार रूस भारत को सन् १९९८ से सन् २००२ के बीच सात
क्रियोजेनिक इंजिन देगा । सैटलाइट बूस्टर के रूप में इस्तेमाल
करने के लिए पहला क्रियोजेनिक इंजिन दिसंबर'९८ में भारत को मिला था  । </p><p>
</p><p>
ध्यान रहे कि 'अग्नि-१' और 'अग्नि-२' मिसाइलों का सफल परीक्षण हो चुका
है और इस्तेमाल के लिए इनको बनाने का काम पहले ही शुरू हो चुका है । </p>

<p>असम
: महिला प्रत्याशियों की संख्या कम </p>

<p>गुवाहाटी ।
असम में ५०% मतदाता महिलाएं हैं । इसके बावजूद सन् १९५२ तक असम राज्य में चुनाव
लड़ने वाली महिलाओं की संख्या नगण्य थीं । </p><p>
</p><p>
सन् १९५२ से अब तक ११७ महिला प्रत्याशियों में से सिर्फ ४१ को विधानसभा तक पहुंचने
का मौका मिला था । आंकड़ों के अनुसार १२६ सीटों पर लड़ने
वाली अधिकतर महिलाएं निर्दलीय उम्मीदवार ही थीं । राजनीतिक दलों ने उन्हें
टिकट नहीं दिया था । </p><p>
</p><p>
सन् १९५२ तक ४१ महिलाओं में से ३४ महिलाएं अकेले कांग्रेस की थी । </p><p>
</p><p>
महिला प्रत्याशियों की संख्या बढ़ी १९७२ के चुनाव में । तब ८ कांग्रेसी
महिलाएं एक साथ चुनाव जीत कर आई थीं । पर १९८३ और १९८५ तक आते-आते यह
संख्या ४ ही रह गई थी । </p><p>
</p><p>
असम गण परिषद के गठन के बाद से ६ वर्षों तक असम में घुस आए विदेशियों के
खिलाफ आंदोलन चला । यह एक बड़ा सामाजिक परिवर्तन था । तभी
महिलाओं की राजनीति में भागेदारी बढ़ी । </p><p>
</p><p>
असम में महिलाएं पहले से ही पुरुषों के साथ कंधे से कंधा मिलाकर जीती रही
हैं । ऑल असम स्टूडेंट यूनियन ने प्रफुल्ल कुमार महंत के नेतृत्व में
आंदोलन किया तब घरेलू स्त्रियां और छात्राएं भी उनका साथ देने के लिए मोर्चे
में शामिल हो गई थी । </p><p>
</p><p>
सन् १९८१ में सक्रिय राजनीति में महिलाओं की संख्या बढ़ी । ३२ महिलाओं ने
चुनाव में भाग लिया । यह बात ध्यान देने की है क्योंकि सन् १९५२ से १९८५ के
बीच ३३ वर्षों की राजनीति में सिर्फ ८ महिलाओं ने चुनाव में भाग लिया था । सन्
१९९१ में पांच महिलाएं चुनाव जीत गई थी । </p><p>
</p><p>
वर्तमान चुनाव में स्थिति बिल्कुल अलग है । इस बार ९१५ उम्मीदवार चुनाव मैदान में
हैं । इनमें ५५ महिलाएं हैं । १४ महिलाएं कांग्रेस के टिकट पर
खड़ी हैं, शेष निर्दलीय है । </p><p>
</p><p>
फिर भी महिला प्रत्याशियों की संख्या बहुत कम है । सभी राजनीतिक पार्टियों
का मानना है- ऐसी महिलाओं की संख्या कम है जिन्हें उम्मीदवार बनने की वास्तविक
योग्यता हो । </p>

<p>मुजीब
के हत्यारों को अदालत में 'स्टे' </p>

<p>ढाका ।
बांग्लादेश हाई कोर्ट ने पूर्व राष्ट्रपति शेख मुजीब के हत्यारों को अस्थाई
'स्टे' देने का निर्देश दिया है । बांग्लादेश के प्रथम राष्ट्रपति शेख
मुजीब को उनके १५ रिश्तेदारों सहित सन् १९७५ में मार डाला गया था । इस
संबंध में ११ सैन्य अधिकारियों और एक जवान पर अदालत में मुकदमा चलाया गया
था । तीन अभियुक्त उचित प्रमाण न होने के कारण संदेह के आधार पर
छोड़ दिए गए थे । </p><p>
</p><p>
चार सजा पाए मुजरिम ढाका के सेंट्रल जेल में बंद हैं, जबकि आठ अन्य
कहीं विदेश में पनाह पा चुके हैं । इन पर उनकी अनुपस्थिति में ही मुकदमा चलता
रहा । बांग्लादेश को पता है कि दो फरार अभियुक्त अमरीका में हैं ।
उन्होंने अमरीकी सरकार से उन्हें वापस लौटाने का अनुरोध किया है । </p><p>
</p><p>
साधारण तौर पर सजा सुनाए जाने के बाद अपील के लिए ३० दिन का ही समय दिया जाता
है । </p>

<p>अब
भी रोमैन्टिक हैं किडमैन </p>

<p>लंदन ।
निकोले किडमैन हॉलीवुड की अभिनेत्री हैं । उन्होंने अभिनेता टॉम
क्रूज से विवाह किया था । दोनों महत्वाकांक्षी कलाकारों ने एक दूसरे का
साथ देने का भरसक प्रयत्न किया । उन्होंने दो बच्चे गोद लिए । पर बात नहीं
बनी । उन्हें अपने विवाहित जीवन को गुडबाय कहना पड़ा । चार महीने
पहले उनका तलाक हो गया । दोनों बच्चे किडमैन के पास हैं । </p><p>
</p><p>
'डेली मिरर' को दिए अपने इंटरव्यू में किडमैन ने कहा है कि
''मुझे पूरा विश्वास है कि हर किसी के लिए ऊपर वाले ने एक
'सोलमेट' बनाया है । मुझे अपने उस प्रिय जीवन साथी की तलाश है ।
अभी मेरी उम्र मात्र ३३ वर्ष है और मैं अभी भी रोमैन्टिक हूं ।'' </p><p>
</p><p>
किडमैन टॉम क्रूज के साथ बिताए अपने दिनों पर वे एक किताब लिखने में
लगी हैं । पिछले चार महीनों में इनके जीवन में इतना कुछ घट चुका
है जिसे वे अब भी पूरी तरह स्वीकार नहीं कर पाई हैं । उनका मानना है दु:ख से
गुजर कर मनुष्य और ज्यादा बुद्धिमान हो जाता है । </p><p>
</p><p>
किडमैन ने कहा कि जीवन एक रहस्यमय यात्रा है । मैंने अपने जीवन के बारे
में कोई प्लान नहीं बनाया है । मैं हर दिन को पूरी शिद्दत के साथ जीती
हूं । </p><p>
</p><p>
किडमैन अपनी नई फिल्म 'मौलिन रूज' के रिलीज का इंतजार कर रही
हैं । </p>

<p>'महान
थी लक्ष्मण के साथ मैराथन पारी' </p>

<p>मुंबई ।
कोलकाता टेस्ट में ऑस्ट्रेलिया के खिलाफ लक्ष्मण के साथ खेली गई
मैराथन पारी में वीवीएस लक्ष्मण का सहभागी होने को भारतीय क्रिेकेट टीम
के उप-कप्तान राहुल द्रविड़ ने महान बताया । इन दोनों बल्लेबाजों ने मिलकर
ऑस्ट्रेलिया को न सिर्फ लगातार दूसरा टेस्ट जीतने से वंचित किया
बल्कि अपनी टीम को जीत दिलकार शृंखला का परिणाम भी बराबर कर दिया 
था । </p><p>
</p><p>
राहुल द्रविड़ ने कहा कि कोलकाता टेस्ट जीतने के बाद टीम का
मनोबल बढ़ गया और आखिरकार टेस्ट शृंखला जीत लेने के बाद बहुत
आनंद आया । </p><p>
</p><p>
ऑस्ट्रेलियाई गेंदबाजों की भूरि-भूरि प्रशंसा करते हुए द्रविड़ ने कहा,
'सभी ऑस्ट्रेलियाई गेंदबाज अंत तक संघर्ष करने की कोशिश करते
हैं । वे आसानी से एक रन भी नहीं देते ।' </p><p>
</p><p>
उन्होंने शेन वार्न के बारे में कहा, 'वे एक महान गेंदबाज हैं । मैं उन्हें
उच्चतम श्रेणी में रखता हूं । इंग्लिश काउंटी क्रिकेट में भी मैंने शेन की
गेंदों को खेला है । हम कभी-कभी उन पर पूरी तरह हावी हो जाते हैं ।
उनकी गेंदों को खेलना हमेशा ही रोचक होता है ।' </p><p>
</p><p>
राहुल ने भारत के आगामी दौरोें के बारे में कहा, 'जिम्बाब्वे और श्रीलंका
के साथ टेस्ट शृंखला आसान नहीं होगी  और घर पर इंग्लैंड के विरूद्ध
खेली जाने वाली शृंखला भी कठिन होगी ।'</p>

<p> </p>

<p>अकादमी
ने गुरशरण को हटाया </p>

<p>मुंबई ।
दिल्ली के फिरोजशाह कोटला मैदान पर शुरू किए गए उत्तरी क्षेत्र क्रिकेट
अकादमी के प्रशिक्षकों की सूची से पूर्व टेस्ट क्रिकेटर गुरशरण ंसिंह
को हटा दिया गया है । </p><p>
</p><p>
राष्ट्रीय क्रिकेट अकादमी के अध्यक्ष राजसिंह डूंगरपुर ने कहा कि
अकादमी की समिति सर्वसम्मति से इस निर्णय पर पहुंची कि पांचवें कोच की कोई
जरूरत नहीं । दिल्ली एंड डिस्ट्रीक्ट क्रिकेट एसोसिएशन
(डीडीसीए) ने बिना कोई अधिकार के पांचवेें कोच की नियुक्ति की थी ।
</p><p>
</p><p>
डूंगरपुर ने कहा कि समिति के सदस्य पूर्व क्रिकेटर एस. वेंकेटराघवन,
पॉली उम्रीगर, ब्रिजेश पटेल और सुनील गावस्कर ने महसूस किया कि एक
अच्छे पूर्व क्रिकेटर को सर्वश्रेष्ठ योगदान देने से वंचित किया जा रहा
है और उन्हें उनकी किसी गलती के बिना सजा दी जा रही है । </p><p>
</p><p>
लेकिन राजसिंह ने साथ में यह भी कहा कि अनुशासन को अनदेखा नहीं किया जा
सकता । इसी अनुशासन की कमी के कारण हरभजन सिंह और मुरली कार्तिक को
अकादमी से बाहर कर दिया गया था । </p><p>
</p><p>
गुरशरण सिंह को पांचवां कोच नियुक्त करने के लिए समिति ने डीडीसीए
और भारतीय क्रिकेट बोर्ड के उपाध्यक्ष सी. के. खन्ना को दोष दिया ।
अकादमी के लिए आधिकारिक रूप से चेतन शर्मा, सुरिंदर खन्ना, यशपाल शर्मा और
राजिंदर अमरनाथ को कोच नियुक्त किया गया है । </p><p>
</p><p>
इससे पहले खन्ना ने दो मई को कहा था, 'गुरशरण को पांचवां कोच नियुक्त
किए जाने के संदर्भ में कोई परेशानी नहीं क्योंकि यह नियुक्ति डूंगरपुर की
स्वीकृति से की गई है ।'</p>

<p> </p>

<p>अंतर
अकादमी टूर्नामेंट पुणे में </p>

<p>मुंबई ।
राष्ट्रीय क्रिकेट अकादमी ने विजडेन की उस पेशकश को ठुकरा
दिया जिसमें उसने अंतर-अकादमी टूर्नामेंट के आयोजन की इच्छा जताई
थी । यह टूर्नामेंट इस वर्ष के उत्तरार्ध में पुणे में आयोजित की
जाएगी । इस टूर्नामेंट का नाम एक जानेमाने कोच की याद में रखा
जाएगा  । </p><p>
</p><p>
राष्ट्रीय क्रिकेट अकादमी के अध्यक्ष राज सिंह डूंगरपुर ने कहा कि इस
टूर्नामेंट के आयोजन में खर्च होने वाली राशि १५ से २० लाख रूपए होगी
और इसे अकादमी या बोर्ड से आसानी से हासिल किया जा सकता है । </p><p>
</p><p>
टूर्नामेंट के नामकरण के संदर्भ में एम. भंडारकर, स्व. ए. जी. रामसिंह
और दत्तु गायकवाड़ ने नामों पर विचार किया जा रहा है । </p><p>
</p><p>
डूंगरपुर ने कहा कि जूनियर अंडर -१९ विश्व कप के लिए टीम का चयन
देश की भिन्न-भिन्न अकादमियों से किया जाएगा । पुणे में होने वाली स्पर्धा में
एकदिवसीय मैच खेले जाएंगे । मुकाबला बैंगलोर में स्थित राष्ट्रीय अकादमी
और जोनल अकादमियों से चुनी गई टीमों के बीच होगा । </p><p>
</p><p>
जूनियर विश्व कप का आयोजन जनवरी में न्यू जीलैंड में होगा । न्यू जीलैंड
के लिए रवाना होने से पूर्व चुनी गई भारतीय टीम तीन सप्ताह के शिविर में अभ्यास
करेगी और फिर तीन अभ्यास मैच भी खेलेगी ।</p>

<p> </p>

<p>डेविस
कप:भारत-अमरीका मैच नॉर्थ कैरोलिना में </p>

<p>लंदन ।
भारत और अमरीका के बीच डेविस कप विश्व ग्रुप क्वालीफाइंग चक्र के तहत
मुकाबला नॉर्थ कैरोलिना के विंस्टन-सलेम नामक स्थान पर होगा । </p><p>
</p><p>
यूएसए टेनिस एसोसिएशन के अनुसार २१ से २३ सितम्बर के दरम्यान होने वाले
मुकाबले में भारत की तरफ से लियेंडर पेस और महेश भूपति भी खेलेंगे  जबकि
अमरीकी टीम की घोषणा की जानी बाकी है । </p><p>
</p><p>
इस साल की शुरुआत में २००१ के डेविस कप के पहले ही चक्र में बसेल में अमरीका
को स्वीटजरलैंड ने ३-२ हराया । दूसरी तरफ भारत ने एशिया-ओसेनिया
जोन के दूसरे चक्र में टोक्यो में हुए मुकाबले में जापान को ३-२ से
हराया । डेविस कप वर्ल्ड ग्रुप २००२ में बने रहने के लिए अब अमरीका
को भारत को हराना जरूरी हो गया है । </p><p>
</p><p>
इस मुकाबले में हारने वाली टीम को २००२ के जोनल स्पर्धाओें में खेलने के
लिए मजबूर होना पड़ेगा । </p><p>
</p><p>
गत ११ अप्रैल को हुए ड्रॉ में अमरीकी डेविस कप टीम के कप्तान
पैट्रिक मैकेन्रो ने कहा, 'डेविस कप में भारत पारंपरिक शक्तिओं में
से एक है और अमरीका के मार्ग में वह एक कठिन बाधा है ।' भारत के
विरूद्ध डेविस कप के तहत हुए अब तक सभी छह मुकाबले अमरीका ने जीते
हैं । </p><p>
</p><p>
अमरीका ने पिछली बार भारत को १९९४ में नई दिल्ली में ५-० से हराया था ।</p>

<p> </p>

<p>'समुद्र
पार शृंखला जीतनी है' </p>

<p>मुंबई ।
भारतीय क्रिकेट के दो नये स्टार खिलाड़ी वीवीएस लक्ष्मण और हरभजन सिंह
समुद्र पार भारत के जिम्बाब्वे दौरे पर टेस्ट शृंखला जीतने के प्रति उत्सुक
हैं । भारत का जिम्बाब्वे दौरा २८ मई से शुरू हो रहा है । </p><p>
</p><p>
स्पोर्टिंग फ्रंटियर्स इंडिया लिमिटेड के साथ तीन वर्षों का
अनुबंध करने वाले लक्ष्मण ने कहा, 'हम समुद्र पार दौरे पर टेस्ट शृंखला
जीतने के प्रति उत्सुक हैं । ऑस्ट्रेलिया को घर पर टेस्ट शृंखला
में हराने के बाद टीम का हौसला बढ़ा हुआ है और खिलाड़ियों की मनोदशा
सही है ।' </p><p>
</p><p>
लक्ष्मण ने अफसोस जताते हुए कहा, 'अगर हम ऑस्ट्रेलिया के खिलाफ
एकदिवसीय शृंखला भी जीत लेते तो बहुत अच्छा होता । लेकिन हम बहुत कम
अंतर से ऐसा नहीं कर पाए ।' </p><p>
</p><p>
लक्ष्मण ने कहा कि उन्हें इस बात की बहुत खुशी है कि उन्होंने खुद को भारतीय
टेस्ट और एकदिवसीय टीम में स्थापित कर लिया । लक्ष्मण ने गर्वान्वित
महसूस करते हुए आगे कहा कि उन्हें इस बात का फख्र है कि अब उनका एक ऐसी
कंपनी के साथ अनुबंध हो गया है जिसकी सूची में स्टीव वॉ जैसे खिलाड़ी
भी हैं । </p><p>
</p><p>
भारत की तरफ से टेस्ट क्रिकेट में एक मात्र हैट-ट्रिक
विकेट लेने वाले हरभजन सिंह ने कहा कि वे कड़ी मेहनत कर रहे हैं ।
उन्होंने कहा , 'हमारी इच्छा है कि हम भारत से बाहर टेस्ट शृंखला
जीतें ।' </p><p>
</p><p>
स्पोर्टिंग फ्रंटियर्स के साथ हुए अनुबंध पर खुशी जाहिर करते हुए हरभजन ने
कहा कि मैदान पर हमें देखने के लिए कोच और मैनेजर हैं जबकि मैदान से बाहर
हमें अब स्पोर्टिंग फ्रंटियर्स देखेगा ।</p>

<p> </p>

<p>कर्स्टन
रिकॉर्ड रचने से १२ रन पीछे </p>

<p>जोहन्सबर्ग ।
ग्रेनाडा में वेस्ट इंडीज के विरूद्ध खेले जाने वाले तीसरे एकदिवसीय मैच
में गैरी कर्स्टन दक्षिण अफ्रीका के लिए एक नया रिकॉर्ड बना सकते
हैं । </p><p>
</p><p>
मैच फिक्स करने के कारण आजीवन प्रतिबंध की सजा भुगत रहे दक्षिण अफ्रीका के पूर्व
कप्तान हंसी क्रोन्ये ने अपने देश की तरफ से एकदिवसीय क्रिकेट में सर्वाधिक
५,५६५ रन बनाए हैं । क्रोन्ये ने यह रिकॉर्ड १८८ एकदिवसीय मैच खेलकर
३८.६४ के औसत से दो शतकों की मदद से बनाया । कर्स्टन क्रोन्ये के इस
रिकॉर्ड से मात्र १२ रन पीछे हैं । </p><p>
</p><p>
हालांकि हाल में कर्स्टन का प्रदर्शन उम्दा नहीं रहा है और इस कारण उनकी
आलोचना हुई है । फिर भी कर्स्टन का प्रदर्शन कुल मिलाकर क्रोन्ये से
बेहतर है । </p><p>
</p><p>
कर्स्टन ने १५० एकदिवसीय मैच खेेलकर ५,५५४ रन बनाए हैं । उनका औसत
४०.८३ का है और उनके नाम दस शतक दर्ज हैं ।</p>

<p> </p>

<p>इंग्लैंड
पर हावी होने के प्रति वार्न विश्वस्त </p>

<p>लंदन ।
लेग स्पिनर शेन वार्न ने कहा कि हाल में इंग्लैंड टीम के अच्छे फॉर्म
के बावजूद आगामी ऐशेश शृंखला में ऑस्ट्रेलियाई टीम उन्हें रौंद
देगी । </p><p>
</p><p>
इस बात को - भारत से टेस्ट शृंखला हार जाने के बाद इंग्लैंड दौरे से
पूर्व उनकी टीम घबरा रही है - दरकिनार करते हुए वार्न ने कहा कि वे भारत में
अपने खराब प्रदर्शन को अपने पुराने प्रतिद्वंद्वी इंग्लैंड पर झाड़ देंगे । वार्न
ने कहा कि इंग्लैंड के अच्छे फॉर्म का मतलब है कि ऑस्ट्रेलिया की
जीत उतनी ही ज्यादा मीठी होगी । </p><p>
</p><p>
वार्न ने ब्रिटिश न्यूजपेपर 'द मिरर' से कहा, 'मुझे खुशी है कि
इंग्लैंड की टीम इतना अच्छा प्रदर्शन कर रही है । एक कमजोर टीम
को हराने से ज्यादा एक सफल टीम को हराने का मतलब हमेशा ही ज्यादा
महत्त्वपूर्ण होता है ।' </p><p>
</p><p>
उन्होंने आगे कहा, 'नासिर की मौजूदगी में इंग्लैंड की टीम में जान
आ गई है और हालीया सफलताओं से उनका सिना चौड़ा हो गया है ।
इंग्लिश क्रिकेट के लिए यह अच्छा लग रहा है । लेकिन उन पर हावी होने
के लिए हमारे पास खिलाड़ी हैं और रणनीति भी । हम यह सब पहले भी कर
चुके हैं ।' </p><p>
</p><p>
वार्न ने कहा कि भारत से टेस्ट शृंखला हारने के बावजूद हमेशा की तरह
ऑस्ट्रेलियाई टीम के हौसले बुलंद हैं । ऑस्ट्रेलियाई टीम
का लगातार सातवीं बार ऐशेश शृंखला जीतने का लक्ष्य है । </p><p>
</p><p>
वार्न ने कहा, 'इंग्लैंड की टीम पुरे आत्मविश्वास के साथ खेल रही
है । यह आत्मविश्वास उनमें कुछ वर्षाें से नदारद थी । इस बार ऐशेश
शृंखला आकर्षक होनी चाहिए ।' </p><p>
</p><p>
वार्न ने आगे कहा, 'पुराने प्रतिद्वंद्वी के विरूद्ध उनके ही मैदानों में खेलते
हुए उन्हें हराने जैसा कुछ भी नहीं । वाकई यह बहुत अच्छा रहेगा ।'</p>

<p> </p>

<p>उसने
लगातार २४ घंटे बल्लेबाजी की </p>

<p>सन
फ्रांसिस्को । दक्षिण कैलिफोर्निया निवासी स्टीफन स्पीक ने लगातार २४
घंटे तक की बल्लेबाजी में १२,३५३ गेंदों का सामना किया । स्टीफन
स्पीक ने यह सब चैरिटी के अलावा निश्चय ही क्रिकेट इतिहास रचने के लिए
किया ! </p><p>
</p><p>
इस रिकॉर्ड के बल पर स्पीक को गिनिज बुक ऑफ वर्ल्ड रिकॉर्ड्स
में अपना नाम दर्ज कराने का मौका मिला है  । स्पीक का कहना है कि इस समय
इस तरह का कोई भी रिकॉर्ड गिनिज बुक में मौजूद नहीं है । </p><p>
</p><p>
स्पीक ने इस तरह का रिकॉर्ड पिछले वर्ष ही बनाने की कोशिश की थी,
लेकिन तब वे केवल १२घंटे तक ही बल्लेबाजी कर पाए थे । </p><p>
</p><p>
स्पीक द्वितीय श्रेणी के अध्यापक हैं और दक्षिण कैलिफोर्निया के डॉउनी नामक
शहर में सेंट मार्क्स एलीमेंट्री स्कूल में पढ़ाते हैं । उन्होंने यहीं २४
घंटे तक लगातार बल्लेबाजी की । संयुक्त राष्ट्र जूनियर क्रिकेट
संगठन ने इस अद्वितीय रिकॉर्ड के प्रायोजन में सहयोग किया । </p><p>
</p><p>
स्पीक ने शनिवार को आठ बजे सुबह बल्लेबाजी शुरू की और अगले दिन रविवार
को ८:३० बजे सुबह तक बल्लेबाजी करते रहे । २४ घंटे की बल्लेबाजी के
दौरान उन्हें केवल दो बार अलग-अलग १५ मिनट के ब्रेक मिले । </p><p>
</p><p>
स्पीक को गेंद डालने का अवसर हर कोई को मिला । डाउनी के मेयर
ने स्पीक को पहली गेंद डाली । और जब स्पीक को गेंद डालने के लिए
कोई नहीं था तब यह काम बॉलिंग मशीन ने किया । स्पीक ने २४ घंटे तक
लगातार बल्लेबाजी करने के लिए हर तरह से खुद को तैयार कर लिया था । प्यास
के समय पीठ पर लदे वाटर बॉटल में लगे स्ट्रॉ के जरिए वे पानी पी
रहे थे । </p><p>
</p><p>
इस तरह से बल्लेबाजी कर स्पीक ने यूएस जूनियर क्रिकेट, सेंट मार्क्स स्कूल
और लॉर्ड्स टैवेनर्स के लिए करीब ३००० अमरीकी डॉलर उगाहे ।
लॉर्ड्स टैवेनर्स इंग्लैंड में कमजोर वर्ग के बच्चों का एक ग्रुप
है  । स्पीक की बल्लेबाजी के दौरान कांगा क्रिकेट की प्रदर्शनी के
साथ-साथ साइलेंेट ऑक्शन भी हुआ । नीलामी में पुरस्कार स्वरूप सुनील गावस्कर
और सचिन तेंदुलकर द्वारा हस्ताक्षरित बल्ले थे । </p><p>
</p><p>
स्पीक ने कहा कि वे यह जानने के इंतजार में हैं कि उनके इस प्रदर्शन की गिनती
विश्व रिकॉर्ड में होगी या नहीं । </p><p>
</p><p>
(इंडिया अब्रॉड)</p>

<p> </p>

<p> </p>






</body></text></cesDoc>