<cesDoc id="hin-w-indiainfo-news-01-05-24" lang="hin">
<cesHeader type="text">
<fileDesc>
<titleStmt>
<h.title>hin-w-indiainfo-news-01-05-24.txt</h.title>
<respStmt>
<respType>Electronic file created by</respType>
<respName>Department of Linguistics, Lancaster University</respName>
<respType>text collected by</respType>
<respName>Paul Baker</respName>
<respType>transferred into Unicode by</respType>
<respName>"Unicodify" software by Andrew Hardie</respName>
</respStmt>
</titleStmt>
<publicationStmt>
<distributor>UCREL</distributor>
<pubAddress>Department of Linguistics, Lancaster University, Lancaster, LA1 4YT, UK</pubAddress>
<availability region="WORLD"></availability>
<pubDate>03-08-23</pubDate>
</publicationStmt>
<sourceDesc>
<biblStruct>
<monogr>
<h.title>"Indiainfo" internet news (www.indiainfo.com), news stories collected on 01-05-24</h.title>
<h.author>Indiainfo.com Ltd.</h.author>
<imprint>
<pubPlace>India (Mumbai, Hyderabad, Bangalore)</pubPlace>
<publisher>Indiainfo.com Ltd.</publisher>
<pubDate>01-05-24</pubDate>
</imprint>
</monogr>
</biblStruct>
</sourceDesc>
</fileDesc>
<encodingDesc>
<projectDesc>Text collected for use in the EMILLE project.</projectDesc>
<samplingDesc>Simple written text only has been transcribed. Diagrams, pictures and tables have been omitted and their place marked with a gap element.
</samplingDesc>
<editorialDecl>
<conformance level="1"></conformance>
</editorialDecl>
</encodingDesc>
<profileDesc>
<creation>
<date>03-08-23</date>
</creation>
<langUsage>Hindi</langUsage>
<wsdUsage>
<writingSystem id="ISO/IEC 10646">Universal Multiple-Octet Coded Character Set (UCS).</writingSystem>
</wsdUsage>
<textClass>
<channel mode="w">print</channel>
<constitution type="composite"></constitution>
<domain type="public"></domain>
<factuality type="fact"></factuality>
</textClass>
<translations></translations>
</profileDesc>
<revisionDesc></revisionDesc>
</cesHeader>

<text>
<body>




<p>वाजपेयी-मुशर्रफ
मिलन जून अंत में संभव </p>

<p>नई
दिल्ली । भारतीय प्रधानमंत्री अटल बिहारी वाजपेयी एवं पाकिस्तान के सैन्य शासक
जनरल परवेज मुशर्रफ की मुलाकात संभवत: जून के अंत में होगी । </p><p>
</p><p>
भारत-पाक संबंधों में सुधार लाने एवं कश्मीर में शांति व्यवस्था बहाल करने के मुद्दे
पर विचार विमर्श करने के लिए प्रधानमंत्री वाजपेयी ने परवेज मुशर्रफ को नई दिल्ली
आमंत्रित किया है । </p><p>
</p><p>
विदेश मंत्रालय के प्रवक्ता रमिंद्र सिंह जसल ने बताया कि प्रधानमंत्री वाजपेयी का यह आमंत्रण
पत्र जल्द ही मुशर्रफ को भेजा जाएगा , लेकिन उन्होंने इसके लिए कोई समय नहीं
बताया  । लेकिन सूत्रों का मानना है कि वाजपेयी व मुशर्रफ का मिलन जून के
अंत में होगा । </p><p>
</p><p>
प्रधानमंत्री वाजपेयी गुरुवार को एक सप्ताह के अवकाश पर मनाली गए हैं । इसके
बाद जून के प्रथम सप्ताह में वे मुंबई में घुटने का ऑपरेशन कराएंगे ।
ऑपरेशन के बाद वे एक सप्ताह तक आराम करेंगे । इसलिए संभव है कि
वाजपेयी-मुशर्रफ की मुलाकात या तो जून के अंत में या फिर जुलाई के प्रथम सप्ताह
में होगी । </p><p>
</p><p>
कश्मीर में युद्ध विराम के बावजूद पाकिस्तान द्वारा आतंकी गतिविधियों को अंजाम
देने के प्रश्न के जवाब में उन्होंने कहा कि भारत हमेशा शांति चाहता है ।
उन्होंने कहा कि यह कौन नहीं जान नहीं जानता कि पाकिस्तान भारत में आतंक फैला
रहा है । (इंडिया अब्रॉड) </p>

<p>तालिबानी
आदेश पर अमरीकी हस्तक्षेप की मांग </p>

<p>वांशिंगटन ।
अफगानिस्तान में तालिबान सरकार द्वारा हिंदुओं को लाल रंग के वस्त्र धारण करने के
कड़े आदेश के खिलाफ विश्व के सभी भागों से विरोध के स्वर उभरने लगे
हैं । इस संबंध में अमरीका के १०० से भी अधिक कानून विद्वानों ने राष्ट्रपति
जॉर्ज डब्ल्यू बुश को पत्र लिखा है । </p><p>
</p><p>
पत्र में बुश से यह आग्रह किया गया है कि अमरीकी प्रशासन तालिबान सरकार के इस
आदेश के विरूद्ध हस्तक्षेप करे । अमरीकी संसद की दोनों पार्टियों
रिपब्लिकन एवं डेमोक्रेट्स ने तालिबान सरकार के उस आदेश पर खेद व्यक्त किया
है जिसमें कहा गया है कि अफगानिस्तान के सभी हिंदू दो मीटर पीले कपड़े
का वस्त्र धारण करे ताकि उन्हें पहचानने में परेशानी न हो । </p><p>
</p><p>
डेमोक्रेट पार्टी के रेप जेन शाकोस्काई ने अपने पत्र में कहा है कि
विश्व का नेता होने के नाते अमरीका की यह जिम्मेदारी बनती है कि तालिबान
सरकार को ऐसे आदेश लागू करने से रोका जाए और हिंदुओं को बचाया
जाए । पत्र में इस बात पर जोर दिया गया है कि इस कार्य में अधिक देरी न की
जाए । </p><p>
</p><p>
कानूनविदों ने अपने पत्र में कहा है 'हम लोग यह पत्र सिर्फ इसलिए लिख रहे हैं कि
अफगानिस्तान के हिंदुओं को तालिबान सरकार द्वारा जबरन शरियत पर चलने का आदेश
दिया गया है  तथा पीले वस्त्र धारण करने का फतवा जारी किया गया है ।' </p><p>
</p><p>
पत्र में यह भी कहा गया है कि अमरीका जल्द से जल्द तालिबान से इस प्रस्ताव को वापस
लेने के लिए दबाव डाले । पत्र में कहा गया है कि अफगानिस्तानी महिलाओं
को भी तालिबान सरकार प्रताड़ित कर रही है । </p>

<p>गुजरात
में नौ सौ मछुआरे लापता </p>

<p>वेरावल
जूनागढ़ गुजरात के अरब सागर में १२० नौकाआंंे सहित नौ सौ मछुआरों
के लापता होने की खबर है । </p><p>
</p><p>
गुजरात के अधिकारियों के अनुसार २०० मछुआरों के वेरावल से लापता होने
की खबर है । ये मछुआरे ४० नौकाओं में सवार थे । जबकि ७००
मछुआरों के ८० नौकाओं में दक्षिण गुजरात के वलसाड़ से लापता होने की
खबर है । </p><p>
</p><p>
सूत्रों का कहना है कि तटीय रक्षकों को सावधान कर दिया गया है । सूत्रों
ने बताया कि जूनागढ़ जिले में लगभग १६०० मछुआरे नवा बंदर से २००
नौकाओं में मछली पकड़ने गए थे जिनमें से गुरुवार दोपहर तक १६० नौकाएं
लौट आई थी । </p><p>
</p><p>
वेरावल के उप जिलाधिकारी भाविन पंड्या का कहना है कि तूफान की आशंका
को देखते हुए वेरावल के २५ निचले गांवों में बसे तकरीबन १२ हजार लोगों को
गांव खाली करने को कह दिया गया है । ये लोग अपने गांव गुरुवार रात या
शुक्रवार सुबह तक छोड़ देंगे । </p><p>
</p><p>
इस समय तूफान वेरावल के दक्षिण में ४५० किलोमीटर की दूरी पर है  और यह
उत्तर की ओर ३० किलोमीटर प्रति घंटे की गति से आगे बढ़ रहा
है । इस तूफान की वायु रफ्तार १४० किलोमीटर प्रति घंटा बताई जा रही
है । </p>

<p>जया
के खिलाफ सुनवाई ४ जून को </p>

<p>नई
दिल्ली । सुप्रीम कोर्ट द्वारा तमिलनाडु की मुख्यमंत्री जयललिता के खिलाफ
दायर दो जनहित याचिकाओं की सुनवाई ४ जून को होगी । जनहित याचिका में
कहा गया है कि क्या जिस व्यक्ति को विधानसभा चुनाव लड़ने के अयोग्य ठहराया
गया हो, वह तमिलनाडु की मुख्यमंत्री बन सकती हैं? </p><p>
</p><p>
न्यायालय द्वारा जयललिता को अयोग्य घोषित करने के बावजूद मुख्यमंत्री बनने के
खिलाफ एडवोकेट बी.आर.कपूर एवं मनोहर लाल शर्मा ने हाल ही में सर्वोच्च
न्यायालय में दो जनहित याचिकाएं दायर की हंै । </p><p>
</p><p>
इस याचिका में दो महत्वपूर्ण मुद्दों को उठाया गया है । पहला यह कि क्या
किसी भी दोषी व्यक्ति को किसी महत्वपूर्ण पदों पर या सरकारी ओहदों पर
बिठाया जा सकता है? एवं क्या किसी अयोग्य व्यक्ति को प्रधानमंत्री या मुख्यमंत्री
बनाना संवैधानिक है? </p><p>
</p><p>
याचिका में यह भी कहा गया है कि राज्यपाल ने जयललिता को अवैध ढंग से सरकार
नियुक्त किया है । </p>

<p>सबसे
कम उम्र का छात्र माउंट एवरेस्ट पर पहुंचा </p>

<p>काठमांडु ।
नेपाल का एक १५ वर्षीय स्कूली छात्र अंतत: विश्व के सबसे उंचे पर्वत माउंट
एवरेस्ट के सबसे उंचे शिखर पर चढ़ने वाला सबसे कम उम्र का छात्र बन
गया है । पिछले वर्ष वह छात्र अपने मिशन में असफल रहा था तथा अपनी तीन
अंगुलियों को खो बैठा था । </p><p>
</p><p>
इस होनहार छात्र का नाम है तेंबा तशेरी । तेंबा नेपाली हाईस्कूल का एक
छात्र है । थामशेरकू ट्रेकिंग के प्रबंध निदेशक सोनम शेरपा के अनुसार
तेंबा बुधवार सुबह माउंट एवरेस्ट पर ८,८४८ मीटर की उंची शिखर पर
चढ़ने में सफल हो गया । पिछले वर्ष मार्च में वह इस उंचे शिखर से मात्र २२
मीटर ही दूर था लेकिन घने कोहरे के कारण उसे वापस आना पड़ा था ।
</p><p>
</p><p>
सोनम शेरपा के मुताबिक तेंबा के आदर्श फ्रेंच निवासी पेर्टरेंड रोचे हैं,
जिन्होंने १९९० में मात्र १७ वर्ष की उम्र में माउंट एवरेस्ट पर चढ़ने का
रिकार्ड बनाया था । उन्होने बताया कि तेंबा सबसे कम उम्र में ही विश्व के
सबसे उंचे पर्वत शिखर पर चढ़ने में सफल हो गया । </p><p>
</p><p>
शेरपा ने बताया कि हालांकि तंेबा पिछले वर्ष अपने मिशन में असफल हो गया था,
लेकिन उसने अपनी आकांक्षाएं नहीं छोड़ी थी । तंेबा ने यह ठान
लिया था कि जो काम बड़े लोग कर सकते हैं, वह काम कम उम्र का छात्र भी
कर सकता है । </p><p>
</p><p>
इससे पहले सबसे कम उम्र में माउंट एवरेस्ट पर चढ़ने वाला छात्र भी
नेपाल का ही है । १६ वर्षीय नेपाली छात्र शंभू तमंग १९७३ में पर्वत के सबसे
उंचे शिखर पर चढ़ने में सफल हुआ था । लेकिन तेंबा उससे भी आगे निकल
गया । </p>

<p>मणिपुर
पर निर्णय २८ से पहले : जॉर्ज </p>

<p>नवी
मुंबई । समता पार्टी अध्यक्ष जॉर्ज फर्नांडिस ने गुरुवार को कहा कि
मणिपुर समस्या का हल शीघ्र ही निकाल लिया जाएगा । समता पार्टी समर्थित
लोकदल सरकार के गिरने के प्रश्न के जवाब में फर्नांडिस ने कहा कि मणिपुर में
राष्ट्रपति शासन के अलावा और भी कई तरीके हैं  । </p><p>
</p><p>
फर्नांडिस ने कहा कि मणिपुर में वैकल्पिक सरकार बनाई जा सकती है या फिर
समता सरकार को भी वापस लाया जा सकता है । बहरहाल, यह खेल एक दो दिनों में
समाप्त हो जाएगा  क्योंकि वे २८ मई तक का इंतजार नहीं कर सकते । </p><p>
</p><p>
उन्होंने कहा कि भाजपा नेताओं के साथ उनकी बातचीत जारी है और एक-दो दिनों
में इस समस्या का हल निकल जाएगा । उन्होंने कहा कि वे मणिपुर की जनता की
रूचि के अनुसार शीघ्र ही निर्णय करेंगे । </p><p>
</p><p>
फर्नांडिस ने कहा कि मणिपुर की घटना एक दु:खद घटना है लेकिन इस
प्रकार की यह पहली घटना नहीं है । उन्होंने कहा कि भाजपा ने यह स्वीकार
कर लिया है कि मणिपुर के विधायकों ने मनमाने ढंग से सरकार को गिराने में
भूमिका निभाई है । </p><p>
</p><p>
केंद्र में भाजपा गठबंधन सरकार के साथ संबंध के बारे में पूछे गए एक प्रश्न
के जवाब में फर्नांडिस ने कहा कि केंद्र सरकार अपना ५ वर्षों का कार्यकाल
पूरा करेगी । </p>

<p>आयुध
भंडार में फिर आग लगी </p>

<p>नई
दिल्ली । राजस्थान में सूरतगढ शहर से २० किलो मीटर दूर बर्धवाल के
आयुध भंडार के सामने अचानक हुए एक भीषण विस्फोट के बाद आग लग
गई । गुरुवार को दोपहर हुए इस अग्निकांड में भारी मात्रा में रॉकेट,
मिसाइल व अन्य गोला-बारूद जलकर नष्ट हो गए । </p><p>
</p><p>
सैनिक सूत्रों के मुताबिक इस अग्निकांड में कोई हताहत नहीं हुआ है  जबकि
सैनिकों का ऑपरेशन अभियान जारी है । पिछले एक वर्ष के दौरान
अग्निकांड की यह तीसरी घटना है । </p><p>
</p><p>
पिछले वर्ष भरतपुर के मध्य आयुध डिपो में भयंकर आग लग गई थी जिसमें १२००
करोड़ रूपए मूल्य का ९०० टन गोला बारूद जलकर नष्ट हो गया था ।
जबकि हाल ही में पठानकोट के पास आयुध भंडार में हुई दूसरी
घटना में ४२७ टन गोला बारूद जलकर नष्ट हो गया  था । </p><p>
</p><p>
गुरुवार को हुई अग्निकांड की तीसरी घटना है । इस बीच सैनिकों ने
दोनों अग्निकांडों की जांच के लिए एक जांच समिति गठित की है । </p>

<p>मुशर्रफ
को बुलावा प्रशंसनीय ः चीन </p>

<p>बीजिंग ।
भारतीय प्रधानमंत्री अटल बिहारी वाजपेयी द्वारा पाकिस्तानी सैनिक शासक जनरल परवेज
मुशर्रफ को नई दिल्ली आने का आमंत्रण देने के प्रस्ताव का चीन ने स्वागत किया
है । </p><p>
</p><p>
चीन ने कहा है कि वाजपेयी के इस कदम से भारत-पाक संंबंधों में सुधार आएगा
और दोनों देशों के बीच शांति स्थापना में मदद मिलेगी । भारत-पाक संबंधों
को सुधारने तथा शांति स्थापित करने के लिए बुधवार को प्रधानमंत्री अटल बिहारी
वाजपेयी ने मुशर्रफ को भारत आने का न्यौता दिया है । </p><p>
</p><p>
चीन के विदेश मंत्रालय के प्रवक्ता ने कहा कि हम भारत के इस प्रस्ताव का स्वागत करते
हैं  । उन्होंने कहा कि इससे दोनों देशों के बीच संबंधों में सुधार
आएगा । उन्होंने कहा कि दक्षिण एशिया में भारत एवं पाकिस्तान दोनों प्रमुख देश
हैं । उन्होंने कहा कि इस पहल से दक्षिण एशिया में शांति का संदेश जाएगा । </p><p>
</p><p>
भारत में चीन के राजदूत चेंग रूईशंेग ने भी भारत के इस प्रस्ताव का स्वागत किया है
और कहा है कि यह एक स्वागत योगय प्रस्ताव है । </p>

<p>...तो
नेपाल हिंदू राष्ट्र नहीं कहला पाएगा </p>

<p>काठमांडू ।
नेपाल में जारी जनगणना की सूची में यदि सभी जनजातियों या अल्पसंख्यक समुदायों ने
स्वयं को हिंदू दर्ज नहीं कराया तो नेपाल स्वयं को हिंदू राष्ट्र कहलाने का
हकदार नहीं रहेगा । </p><p>
</p><p>
दरअसल, तीन शताब्दी तक हिंदू राष्ट्र के नाम से विख्यात नेपाल की जनजातियोंें या
अल्पसंख्यक समुदायों एवं पिछड़ी जातियों ने स्वयं को सिर्फ हिंदू कहलाने
से इनकार कर दिया है तथा वे स्वयं को अलग संस्कृति देने की मांग पर अड़े
हुए हैं । इन लोगों की मांग की है कि जनगणना की सूची में उनके नाम के साथ
संबंधित भाषा व धर्म भी जोड़ा जाए । </p><p>
</p><p>
गौरतलब है कि नेपाल में हर दस वर्षों पर जनगणना का कार्य होता है । इससे
पहले यहां १९९१ में जनगणना का कार्य हुआ था । उस समय यहां के अधिकांश
जनजातियों ने स्वयं को हिंदू के रूप में दर्ज कराया था तथा अपनी मातृभाषा केवल
नेपाली बताया था । </p><p>
</p><p>
लेकिन इस बार की जनगणना में इसके विपरीत हो रहा है । सूत्रों के मुताबिक
थाकलिस, गुरंग्स, तमंग्स, धिमल्स एवं अन्य जनजाति स्वयं को हिंदू के बदले बुद्ध के
रूप में दर्ज करा रहे हैं । इसके परिणामस्वरूप, बुद्ध जनजातियों की संख्या कुल
आबादी की १.७ प्रतिशत हो जाएगी । </p><p>
</p><p>
जबकि स्थानीय जनजाति महासंघ के सूत्रों के मुताबिक १९९१ के जनगणना में ४९ प्रतिशत
लिंबस, ६५ प्रतिशत रईस, ५७ प्रतिशत थाकलिस एवं ९६.५ प्रतिशत सनुवर्स ने स्वयं को
हिंदू के रूप में अपना नाम दर्ज कराया था । इसके परिणामस्वरूप, ५०-७५ प्रतिशत
जनजाति हिंदू सूची में दर्ज की गई थी । </p><p>
</p><p>
सूत्रों का मानना है कि यदि जनजाति महासंघ अपने मकसद में कामयाब हो गया तो हिंदू
की संख्या ५०-५० या ६०-४० पहुंच जाएगी । सबसे महत्वपूर्ण बात यह है कि यदि
नेपाली हिंदुओं की संख्या घट गई तो यह जनगणना नेपाल की मातृभाषा भी बदल
सकती है । आंकड़ों के मुताबिक नेपाल में इस समय ६९ भाषाएं बोली जाती
हैं । इनमें से ६२ जनजातियों की भाषाएं हैं । </p><p>
</p><p>
बता दें कि नेपाल में जनगणना का कार्य गत १४ मई से चल रहा है । इसका पहला
दौर २८ मई को समाप्त होगा जबकि दूसरे दौर का जनगणना कार्य ११ जून से प्रारंभ
होगा । इस कार्य के लिए राष्ट्र स्तर पर लगभग ५,००० सुपरवाइजरों को लगाया
गया है । (इंडिया अब्रॉड) </p>

<p>तूफान
गुजरात की तरफ मुड़ा, सेना सतर्क </p>

<p>गांधीनगर ।
तीव्र चक्रवाती तूफान ने अब गुजरात के समुद्री तट वेरावल एवं सूरत के मध्य अपना
रूख मोड़ लिया है । तूफान के मद्देनजर राज्य सरकार ने सभी सैनिकों,
नागरिकों एवं बंदरगाहों को सतर्क कर दिया है । जबकि निचले क्षेत्रों में बसे
हजारों लोगों को वहां से हटने का आदेश दिया है । </p><p>
</p><p>
बता दें कि पिछली रात, चक्रवाती तूफान वेरावल के दक्षिण पश्चिम क्षेत्र से ५५०
किलो मीटर दूर था । उस समय मौसम विभाग ने बताया था कि यह चक्रवाती
तूफान उत्तर की ओर बढ़ रहा है । </p><p>
</p><p>
इस बीच, मौसम विभाग, गुजरात ने राज्य के सभी लोगों को इस भयंकर चक्रवाती
तूफान की चेतावनी दे दी है और कहा है कि इस तूफान से काफी नुकसान हो
सकता है । विभाग के मुताबिक यह तूफान कैंबे की खाड़ी तथा दक्षिण गुजरात
के सूरत-वेरावल के मध्य से २५ मई की शाम को गुजरेगा । </p><p>
</p><p>
विभाग के निदेशक आर.के. कंकाणे के मुताबिक तूफान की गति १४० से १६०
किलो मीटर प्रति घंटा रहेगी  । उन्होंने बताया कि जिस क्षेत्र में तीव्र
तूफान आने की संभावना अधिक है, उस क्षेत्र को खाली करना बहुत जरूरी है । </p><p>
</p><p>
इस बीच, मुख्यमंत्री केशुभाई पटेल ने किसी भी आपात स्थिति से निपटने के
लिए गुरूवार को आपातकालीन बैठक बुलाई और विचार विमर्श किया ।
बैठक के बाद मुख्यमंत्री ने सभी सैनिकों व नागरिकों को सतर्क रहने की
हिदायत दी है । </p>

<p>भारत-बांग्लादेश
: नया वीजा समझौता </p>

<p>नई
दिल्ली । भारत और बांग्लादेश ने नए वीजा समझौते पर हस्ताक्षर कर दिए हैं ।
इसमें दोनों देशों के यात्रियों को तीर्थ स्थानों, व्यापार या अन्य कार्यों के लिए
दोनों देशों में आने-जाने पर सुविधाओं का विचार किया गया है । </p><p>
</p><p>
नए समझौते पर हस्ताक्षर ढाका में बांग्लादेश के गृहसचिव एम.एम. रजा तथा भारत के
उच्चायुक्त एम.एल. त्रिपाठी ने किए । पूर्व में १९७२ में हुए समझौते को अब
तक जारी रखा गया था । नए समझौते में यात्रियों को कई सुविधाएं उपलब्ध कराई
गई हैं । समझौते की हर पांच साल में समीक्षा/संशोधन होगा, आवश्यकता पर इसे
पहले भी किया जा सकता है । </p>

<p>मुशर्रफ
को आमंत्रण उचित : हुर्रियत </p>

<p>नई
दिल्ली । ऑल पार्टी हुर्रियत कांफ्रेंस ने केंद्र सरकार द्वारा कश्मीर मुद्दे पर
वार्ता के लिए पाक के मुख्य कार्यकारी परवेज मुशर्रफ को भारत आमंत्रित किए
जाने का स्वागत किया है । </p><p>
</p><p>
हुर्रियत के पूर्व अध्यक्ष मीरवाइज उमर फारुख ने कहा कि इससे दोनों देशों के बीच
कश्मीर सहित कई मुद्दों तथा व्यापारिक संबंधों पर भी बात आगे बढ़ेगी ।
उमर ने कहा कि बातचीत के मुद्दों का अभी इंतजार है । </p><p>
</p><p>
हुर्रियत ने हमेशा पाकिस्तान को भी वार्ता में शामिल करने की मांग की है ।
हुर्रियत का मानना है कि बातचीत में भारत-पाक व कश्मीरी तीनों पक्ष शामिल रहें ।
</p><p>
</p><p>
उमर मानते हैं कि इससे समस्या के समाधान में मदद मिल सकती है । उमर ने कहा
कि पाक ने पहले भी कहा है कि विवाद के हल में कश्मीरियों की राय महत्वपूर्ण
है । </p><p>
</p><p>
उमर ने कहा कि दोनों देशों को एक मेज पर आकर कश्मीर तथा अन्य विवादित मुद्दों
पर बात करनी चाहिए । </p><p>
</p><p>
हुर्रियत के एक अन्य नेता अब्दुल माजिद बेंडे के मुताबिक- 'मुशर्रफ को
आमंत्रण भारत का एक सकारात्मक कदम है । इससे कश्मीर समस्या के स्थाई समाधान
का मार्ग प्रशस्त हो सकता है । कश्मीर में युद्धविराम की वापसी पर बेंडे ने
कहा कि इससे जमीनी हकीकत पर फर्क नहीं पड़ता । वहां युद्धविराम था ही
कहां ?' </p>

<p>भारत
के रुख को अमरीका ने सराहा </p>

<p>वाशिंगटन ।
अमरीका के विदेश विभाग ने भारत द्वारा पाकिस्तान को विवादित कश्मीर मुद्दे पर
बातचीत हेतु आमंत्रित करने की सराहना की है । उल्लेखनीय है कि बुधवार को
प्रधानमंत्री अटलबिहारी वाजपेयी ने पाकिस्तान के मुख्य कार्यकारी परवेज मुशर्रफ
को वार्ता के लिए आमंत्रित किया था । </p><p>
</p><p>
अमरीकी विदेश विभाग के प्रवक्ता फिलिप रीकर ने कहा कि 'हम भारत द्वारा पाक
के मुख्य कार्यकारी को वार्ता के लिए आमंत्रित किएजाने की सराहना करते
हैं ।' </p><p>
</p><p>
उन्होंने कहा कि हम दोनों देशों को वार्ता के प्रति उत्साहित करेंगे तथा हमें
उम्मीद है बातचीत से तनाव घटाने तथा रास्ता निकालने में मदद मिलेगी । दोनों
पक्षों के लिए यह महत्वपूर्ण अवसर है । </p>

<p>आतंककारियों
से निपटने सेना की तैयारी </p>

<p>नई
दिल्ली । केंद्र द्वारा कश्मीर में युद्धविराम को वापस लेने के बाद अब भारतीय सुरक्षा
बल फिर से आतंकवादियों के खिलाफ अभियान की तैयारियों में जुट गए हैं ।
६ माह पूर्व केंद्र सरकार ने युद्धविराम घोषित किया था । </p><p>
</p><p>
रक्षामंत्रालय के एक उच्चाधिकारी के मुताबिक सरकार ने रक्षा बलों से कहा कि वे
आतंककारी संगठनों व आतंककारियों के खिलाफ उचित कार्रवाई करें ।
युद्धविराम माह के अंत तक प्रभावी रहेगा लेकिन आतंककारियों के खिलाफ अभियान
चलाने के लिए आदेश जल्द ही जारी हो जाएगा । </p><p>
</p><p>
सुरक्षा बलों ने प्रधानमंत्री द्वारा गत वर्ष युद्धविराम घोषित करने के बाद आपरेशन बंद
कर दिए थे । इस दौरान सुरक्षा बल हमला तभी करते थे जब आतंककारी उन पर पहले
वार करें । </p><p>
</p><p>
युद्धविराम की अवधि के दौरान सुरक्षा बलों व उनके शिविर पर हमले काफी बढ़ गए
थे । इस अवधि में जवानों व आम नागरिकों को लेकर ६०० लोग मारे गए थे ।
</p>

<p>कश्मीर
में ६ आतंककारी मारे गए </p>

<p>श्रीनगर ।
छह माह पुराने युद्धविराम की अवधि खत्म होते ही सेना ने राज्य में हुई पहली
मुठभेड़ में ६ आतंककारियों को मार गिराया । </p><p>
</p><p>
कुपवाड़ा जिले में हुई इस मुठभेड़ बीती शाम सर्च आपरेशन के दौरान
यह कार्रवाई की  । मारे गए आतंकवादियों के पास से काफी गोला-बारूद व
हथियार मिले हैं । सुरक्षा बलों को इस घटना में कोई नुकसान नहीं पहुंचा
है । </p><p>
</p><p>
बुधवार को प्रधानमंत्री अटलबिहारी वाजपेयी ने राज्य को युद्धविराम समाप्त कर पाक
को वार्ता के लिए आमंत्रित किया था । </p>

<p>दक्षिण-पश्चिम
चीन में भूकंप, २७ घायल </p>

<p>बीजिंग ।
गुुरुवार सुबह दक्षिण-पश्चिम चीन में आए भूकंप में १८५ घर नष्ट हो गए २७ लोग घायल
हुए । भूकंप की तीव्रता रिक्टर स्केल पर ५.८ मापी गई । </p><p>
</p><p>
बर्मा की सीमा पर स्थित युनान क्षेत्र के निंगलंग में यह भूकंप प्रात: ५.१० बजे आया ।
घटना में ६०० जानवर गुम हो गए हैं तथा १४.५ मिलियन डॉलर का नुकसान हुआ
है । स्थानीय सरकारी एजेंसियों ने राहत व सेवा का काम संभाल लिया है ।
चीन के अर्थक्वेक ब्यूरो के मुताबिक वे दुर्घटना के पूरे विवरण की प्रतीक्षा
कर रहे हैं । </p>

<p>पंजाब
के पूर्व मुख्यमंत्री के खिलाफ मामला दर्ज </p>

<p>चंडीगढ़ ।
पंजाब की पूर्व मुख्यमंत्री एवं कांग्रेस नेता राजिंदर कौर भट्टल के खिलाफ पंजाब
विजिलेंस ब्यूरो ने भ्रष्टाचार के एक मामले में मामला दर्ज कर लिया है । उन
पर मुख्यमंत्री राहत कोष से २० लाख रुपए निकालने तथा उसका हिसाब न देने का आरोप
है । </p><p>
</p><p>
ब्यूरो ने भट्टल के खिलाफ भारतीय दंड संहिता के तहत ४०९ तथा सेक्शन १३
(भ्रष्टाचार निरोधक कानून) के तहत मामला दर्ज किया है । मामला फिरोजपुर
पुलिस स्टेशन में दर्ज किया गया है । </p><p>
</p><p>
ब्यूरो ने भट्टल के मुख्यमंत्रित्व काल के दौरान ऊपर २० लाख रुपए अपने नाम से
मुख्यमंत्री राहत कोष से निकाल कर उसका कोई हिसाब न देने का मामला दर्ज किया
है । भटिंडा की एक अदालत द्वारा दिए गए आदेश के बाद ब्यूरो ने जांच
की कार्रवाई शुरू की थी । </p><p>
</p><p>
पूर्व मुख्यमंत्री इस मामले पर टिप्पणी के लिए उपलब्ध नहीं हो सकीं । </p>

<p>कालीमुथु
तमिलनाडु विधानसभा के अध्यक्ष </p>

<p>चेन्नई ।
एआईएडीएमके के के. कालीमुथु और ए. अरुणाचलम् को तमिलनाडु
विधानसभा का क्रमशः अध्यक्ष एवं उपाध्यक्ष चुन लिया गया । </p><p>
</p><p>
आज ज्योंहि विधानसभा का कामकाज आरंभ हुआ अस्थाई अध्यक्ष एम.के. लतीफ ने
कालीमुथु को अध्यक्ष एवं अरुणाचलम् को उपाध्यक्ष चुने जाने की घोषणा की । इन
दोनों पदों के लिए विपक्ष ने कोई उम्मीदवार खड़ा नहीं किया था । </p><p>
</p><p>
सदन के नेता और वित्त मंत्री सी. पोन्नियान और विपक्ष के नेता के . अनबाजहगन
डीएमके कालीमुथु को विधानसभा अध्यक्ष पद तक लेकर गए । </p>

<p>कीर्ति
आजाद गिरफ्तार, फिर रिहा </p>

<p>पटना ।
भाजपा के लोकसभा सदस्य कीर्ति आजाद और उनके समर्थकों को गुरुवार को प्रदेश
के बिजली बोर्ड कार्यालय पर प्रदर्शन करते समय गिरफ्तार कर लिया गया ।
आजाद व उनके समर्थक दरभंगा जिले के बदहाल बिजली आपूर्ति के खिलाफ प्रदर्शन कर
रहे थे । </p><p>
</p><p>
बाद में आजाद सहित सभी प्रदर्शनकारियों को निजी मुचलके पर रिहा कर दिया
गया । आजाद, दरभंगा से सांसद तथा बिहार के पूर्व मुख्यमंत्री भागवत झा आजाद के
पुत्र हैं । एक क्रिकेटर के नाते उनकी अलग पहचान है । उन्होंने अपने
जिले में विद्युत सप्लाई न ठीक करने की तीखी निंदा की । </p>

<p>भारत-बांग्लादेश
वार्ता की तिथि तय नहीं </p>

<p>नई
दिल्ली । भारत-बांग्लादेश के बीच पैदा हुए तनाव को दूर करने के लिए प्रस्तावित
दोनों देशों के बीच वार्ता की तिथि तय नहीं हो सकी । पिछले दिनों
भारत-बांग्लादेश सीमा पर १६ बीएसएफ जवानों तथा २ बांग्लादेशी जवानों की मौत के
बाद दोनों देशें के बीच तनाव काफी बढ़ गया था । </p><p>
</p><p>
अब बांग्लादेश ने बैठक २८ मई के बाद रखने का प्रस्ताव रखा है तथा भारत अभी इस
पर फैसला नहीं ले सका है । सीमा विवाद के इतना गहरा जाने के बावजूद दोनों
देशों में बातचीत की सूरत नहीं बन पा रही है । </p><p>
</p><p>
माना जाता है कि शेख हसीना की सरकार बांग्लादेशी विपक्षी पार्टियों के दबाव में
इस वार्ता को टालना चाहती है, अक्टूबर में प्रस्तावित चुनावों को लेकर
सरकार कभी पशोपेस में हैं । </p>

<p>मुशर्रफ
को आमंत्रण का स्वागत </p>

<p>इस्लामाबाद ।
पाकिस्तान के कूटनीतिक व राजनीतिक क्षेत्रों में भारत द्वारा कश्मीर मुद्दे पर
वार्ता के लिए पाक के मुख्य कार्यकारी परवेज मुशर्रफ के आमंत्रण को सराहा जा
रहा है । दो वर्षों से भारत-पाक के बीच खासा तनाव रहा तथा संवादहीनता की
स्थिति बनी रही । </p><p>
</p><p>
पाक के पूर्व विदेश सचिव नियाज ए. नाईक के मुताबिक 'यह तो होना ही था
पर इसमें आश्चर्यचकित होने जैसा कुछ नहीं है ।' उल्लेखनीय है कि बुधवार
को भारत ने ५० साल पुराने कश्मीर विवाद को हल करने के लिए परवेज मुशर्रफ
को बातचीत के लिए भारत आने का न्यौता दिया है । </p><p>
</p><p>
भारत मे मुताबिक यह आमंत्रण उसी शांति बहाली की प्रक्रिया का हिस्सा है जिसके तहत
प्रधानमंत्री वाजपेयी बस लेकर लाहौर गए थे । पाक के पूर्व विदेश सचिव नाईक
कहते हैं यह आमंत्रण देर से मिला है । हमें उम्मीद थी कि यह शुरुआत जनवरी में
होगी । फिर भी यह बहुत विलंब नहीं है । </p><p>
</p><p>
उन्होंने भारत द्वारा कश्मीर में युद्धविराम वापस लेने के फैसले की आलोचना करते
हुए कहा कि फिर भी अब दिल्ली को कुछ मौका और देना चाहिए । </p><p>
</p><p>
पाकिस्तान मुस्लिम लीग के नेता व विदेशी मामलों के जानकार मुशाहिद हुसैन कहते
हैं कि वाजपेयी की लाहौर यात्रा के बाद यह बहुत महत्वपूर्ण कूटनीतिक आमंत्रण
है । हुसैन कहते हैं कि यह बात समझ में नहीं आती कि वाजपेयी एक तरफ तो
कश्मीर में कड़े कदम उठा रहे हैं तथा पाकिस्तान के प्रति नरमी दिखाने जा
रहे हैं । उन्होंने कहा कि यह आमंत्रण पाक के सैनिक शासन को मान्यता देने
जैसा ही है । </p><p>
</p><p>
पाक के विदेश सचिव इलामुल हक कहते हैं यदि पाकिस्तान को आधिकारिक तौर पर
आमंत्रण मिलता है तो हम सकारात्मक कदम उठाएंगे । यदि मुशर्रफ यह आमंत्रण
स्वीकारते हैं तो वे जियाउल हक के बाद पहले पाकिस्तानी शासक होंगे जो भारत आएंगे ।
जियाउल हक १९८७ में भारत आए थे । </p>

<p>षणमुगम
ने शपथ ली </p>

<p>पांडिचेरी ।
वरिष्ठ कांग्रेसी नेता पी. षणमुगम ने आज केंद्र शासित प्रदेश पांडिचेरी के
मुख्यमंत्री पद की शपथ ली । </p><p>
</p><p>
षणमुगम को लेफ्टिनेंट गवर्नर डॉ. रजनी राय ने पद और गोपनीयता की
शपथ दिलाई । षणमुगम ने आज अकेले शपथ ली । उनके मंत्रिमंडल के सदस्य
बाद में शपथ लंेगे । </p><p>
</p><p>
षणमुगम ने इस बार पांडिचेरी विधानसभा का चुनाव नहीं लड़ा है अतः उन्हें
छह माह में विधानसभा का चुनाव लड़ना होगा । </p>

<p>शशिकिरण
यंग मास्टर्स चेस के सेमीफाइनल में </p>

<p>लुसाने ।
भारत के ग्रैंड मास्टर कृष्णन शशिकिरण ओलंपिक कैपिटल यंग
मास्टर्स चेस टूर्नामेंट के सेमीफाइनल में पहुंच गए हैं । उन्होंने
क्वार्टरफाइनल में अपने ही देश के पी. हरिकृष्ण को टाई ब्रेकर में
हराया । </p><p>
</p><p>
एक अन्य मैच में शीर्ष वरीयता प्राप्त उक्रेन के ग्रैंड मास्टर पोनोमारिओ
को इंटरनेशनल मास्टर आंद्रेई वोलोकितिन के हाथों हार का सामना करना
पड़ा  । </p><p>
</p><p>
शशिकिरण ने हरिकृष्णन को टाईब्रेकर में हराया । शुरुआत में दोनों ही
खिलाड़ियों ने आपस दो मैच ड्रॉ खेले । मुकाबला के टाई ब्रेकर
में प्रवेश कर जाने के बाद शशिकिरण जीत दर्ज करने के प्रति दृढ़ हो गए । </p><p>
</p><p>
टाईब्रेकर के तहत खेला गया पहला गेम भी ड्रॉ रहा । दूसरे गेम में
शशिकिरण का खेल आक्रामक रहा । उन्होंने अपनी रानी के बदले हरिकृष्ण के
दो हाथियों की बलि ली । इसके बाद जीत दर्ज करना उनके लिए आसान हो
गया । शशिकिरण के १.५ जबकि हरिकृष्णन के ०.५ अंक रहे ।</p>

<p> </p>

<p>असंगत
एकदिवसीय मैचों के खिलाफ हैं क्रोन्ये </p>

<p>जोहन्सबर्ग ।
दक्षिण अफ्रीका क्रिकेट बोर्ड द्वारा आजीवन क्रिकेट नहीं खेल पाने का
प्रतिबंध झेल रहे हंसी क्रोन्ये ने कहा है कि अगर क्रिकेट से मैच फिक्सिंग
हटाना है तो सबसे पहले बिना कोई खास उद्देश्य से खेले जाने वाले एकदिवसीय
मैचों को समाप्त कर दिया जाना चाहिए । </p><p>
</p><p>
हंसी क्रोन्ये ने यह प्रतिक्रिया आईसीसी द्वारा जारी मैच फिक्सिंग की जांच
रिपोर्ट के सार्वजनिक किए जाने के बाद व्यक्त की । </p><p>
</p><p>
क्रोन्ये ने कहा कि दक्षिण अफ्रीका के खिला़डियों को दक्षिण अफ्रीकी
क्रिकेट बोर्ड की कार्यकारी समिति और अनुशासनात्मक समिति का भाग बना
लिया जाना चाहिए । </p><p>
</p><p>
क्रोन्ये ने आगे कहा, 'कम-से-कम दो खिलाड़ियों को बोर्ड की
कार्यकारी समिति में सेवा करने का मौका दिया जाना चाहिए । अनुशासनात्मक
समिति में भी खिलाड़ियों को शामिल किया जाना चाहिए क्योंकि अपनी टीम के
खिलाड़ियों के विरूद्ध प्राय: वे दृढ़ हुआ करते हैं ।'</p>

<p> </p>

<p>सीबीआई-आईसीसी
मिलकर जांच करेंगे </p>

<p>नई
दिल्ली । केंद्रीय जांच ब्यूरो (सीबीआई) ने अंतरराष्ट्रीय क्रिकेट परिषद
(आईसीसी) के भ्रष्टाचार-विरोधी इकाई के साथ मिलकर देश में खेले गए मैचों
को लेकर टीवी को दिए गए प्रसारण अधिकारों के विवादों और मैच फिक्सिंग
की जांच करने की इच्छा जताई । सीबीआई को आईसीसी से इसका आश्वासन
भी मिल गया  है । </p><p>
</p><p>
सीबीआई के एक अधिकारी ने कहा, 'मैच फिक्सिंग, सट्टेबाजी और प्रसारण
अधिकारों की जांच में आईसीसी के सहयोग देने के निर्णय का हम स्वागत करते
हैं ।' </p><p>
</p><p>
सीबीआई के अधिकारी ने यह भी कहा कि जांच में आईसीसी की
भ्रष्टाचार-विरोधी इकाई को जब-जब जरूरत होगी एजेंसी हर संभव सहायता
करेगी । </p><p>
</p><p>
आईसीसी की रिपोर्ट पर सीबीआई अधिकारियों ने कहा, 'आईसीसी की
रिपोर्ट से मैच फिक्सिंग पर सीबीआई की रिपोर्ट की सच्चाई को बल मिला
है । सीबीआई ने रिपोर्ट में लिखा है कि अंतरराष्ट्रीय स्तर पर मैच
फिक्सिंग व्यापक रूप से किए जाते हैं ।'</p>

<p> </p>

<p>टीम
गेम में मैच फिक्सिंग संभव नहीं : डूंगरपुर </p>

<p>लंदन ।
भारतीय क्रिकेट नियंत्रण बोर्ड के पूर्व अध्यक्ष राजसिंह डूंगरपुर ने कहा
कि उन्हें अभी भी विश्वास नहीं हो रहा है कि टीम गेम में मैच फिक्सिंग जैसे चीज
हो सकते हैं । </p><p>
</p><p>
'बीबीसी वर्ल्ड' के एशिया टूडे कार्यक्रम में यह पूछे जाने पर
कि मैच फिक्सिंग किस हद तक फैला हुआ है, डूंगरपुर ने कहा, '
सट्टेबाजी पूरी तरह फैला हुआ है । मैच फिक्सिंग के बारे में मैं कुछ
नहीं कह सकता । मुझे अभी भी विश्वास नहीं होता कि टीम गेम में मैच
फिक्सिंग जैसे चीज भी हो सकते हैं ।' </p><p>
</p><p>
जब डूंगरपुर से यह पूछा गया कि उन्हें इस मामले में कितना विश्वास है कि
आज भारत में मैच फिक्सिंग नहीं किए जा रहे । जवाब में उन्होंने कहा, 'अगर
कभी मैच फिक्सिंग किए जाते थे तो मुझे पूरा विश्वास है कि मैच फिक्सिंग का
अस्तित्व अब खत्म हो गया है ।' </p><p>
</p><p>
डूंगरपुर का मानना है कि अधिकतर क्रिकेट बोर्डोें ने सीबीआई की
तरह गहन जांच नहीं किए । उन्होंने कहा, 'प्रत्येक बोर्ड ने ऐसे मामले
को दबाने की कोशिश की । मुझे लगता है पहली बार सट्टेबाजी १९८१ में की
गई जब डेनिस लिली और रॉडनी मार्श ने १०० पर १ या १५० पर १ का दांव
लगाया था । लेकिन आखिर में वे हार गए । मुझे लगता है कि अगर उसकी जांच
की गई होती तो आज शायद क्रिकेट का भविष्य ज्यादा उम्दा होता ।' </p><p>
</p><p>
जब डूंगरपुर से कहा गया कि कोंडोन की रिपोर्ट के अनुसार मैच
फिक्सिंग आज भी जारी है तो डूंगरपुर ने कहा कि उन्हें विश्वास नहीं
होता । उन्होंने कहा, 'अगर कोई मैच फिक्सिंग से दूर से भी जुड़ा
हुआ होगा तो अब वह इससे १०० मील दूर भाग जाएगा ।' </p><p>
</p><p>
यह पूछे जाने पर कि सट्टेबाजों पर अंकुश क्यों नहीं लगाया जा सका ? इसका
जवाब देते हुए डूंगरपुर ने कहा, 'सट्टेबाजी पूरी तरह से गैरकानूनी
है । मुझे लगता है कि इस पर किसी भी तरह की कार्रवाई संभव नहीं । मुझे
तो लगता है कि किसी स्तर कानून के अधिकारी इसमें स्वयं लिप्त हैं । अगर ऐसा
नहीं होता तब सट्टेबाजी का अस्तित्व उस तरह नहीं रह पाता जैसा की अभी है ।'</p>

<p> </p>

<p>आईसीसी
कर रहा है खिलाड़ियों की उपेक्षा </p>

<p>लंदन ।
आईसीसी की भ्रष्टाचार विरोधी इकाई की रिपोर्ट में कोंडोन ने
आईसीसी पर आरोप लगाया है कि वह खिलाड़ियों के बार-बार कहने के बावजूद
उन्हंे क्रिकेट के संचालन में ज्यादा जिम्मेदारी नहीं दे रहा है । </p><p>
</p><p>
अंतरराष्ट्रीय क्रिकेटर्स एसोसिएशन संघ ने आईसीसी की तीखी आलोचना
करते हुए आरोप लगाया है कि वह कोंडोन द्वारा किए गए सिफारिशों में से एक
सिफारिश को कोई महत्त्व नहीं दे रहा है । कोंडोन ने अपनी रिपोर्ट
में एक सिफारिश यह भी की है कि क्रिकेटरों को क्रिकेट के संचालन
में ज्यादा जिम्मेदारी सौंपी जाए । लेकिन आईसीसी ने कोंडोन की इस
सिफारिश को कोई महत्त्व न देते हुए इस सप्ताह खेलने की शर्त्तोंं को लेकर होने
वाली बैठक में खिलाड़ियों के प्रतिनिधि को निमंत्रित करने की परवाह नहीं की ।
</p><p>
</p><p>
अंतरराष्ट्रीय क्रिकेटर्स एसोसिएशन संघ द्वारा जारी एक वक्तव्य के अनुसार,
'कोंडोन की सिफारिश का ज्ञान होते हुए भी आईसीसी के अधिकारियों
ने आईसीसी क्रिकेट समिति की बैठक से अंतरराष्ट्रीय क्रिकेटर्स
एसोसिएशन संघ के प्रतिनिधि को बाहर रखने का निर्णय लिया ।' </p><p>
</p><p>
आईसीसी क्रिकेट समिति की बैठक का मुख्य उद्देश्य अंतरराष्ट्रीय स्तर पर
खेलने की शर्त्तों में संशोधन करना है । बैठक में किए जाने वाले संशोधन
अगले तीन वर्षों तक लागू रहेंगे । </p><p>
</p><p>
लेकिन इस बैठक में खिलाड़ियों के विचारों को नहीं जानने की कोशिश
का अर्थ है कि आईसीसी के अधिकारी परिवर्तन नहीं चाहते । उनके इस रवैये
के कारण क्रिकेट के खेल की अच्छाई को खतरा है ।' </p><p>
</p><p>
अंतरराष्ट्रीय क्रिकेटर्स एसोसिएशन संघ के सह प्रमुख कार्यकारी
डेविड ग्रेविनी ने कहा, 'यह बैठक महत्त्वपूर्ण है क्योंकि अगले तीन
वर्षों तक क्रिेकेट में क्या होगा के संदर्भ में निर्णय किए जाएंगे । इसके
बावजूद खिलाड़ियों को इस बैठक में शामिल होने का निमंत्रण नहीं दिया
गया ।'</p>






</body></text></cesDoc>