<cesDoc id="kan-w-arts-drawing-kidart1" lang="kan">
<cesHeader type="text">
<fileDesc>
<titleStmt>
<h.title>kan-w-arts-drawing-kidart1.txt</h.title>
<respStmt>
<respType>Electronic file created by</respType>
<respName>Central Institute for Indian Languages, Mysore</respName>
<respType>transferred into Unicode and CES format by</respType>
<respName>"Unicodify" software by Andrew Hardie</respName>
</respStmt></titleStmt>
<publicationStmt>
<distributor>UCREL (on behalf of CIIL)</distributor>
<pubAddress>Department of Linguistics, Lancaster University, Lancaster, LA1 4YT, UK</pubAddress>
<availability region="WORLD"></availability>
<pubDate>03-05-21</pubDate>
</publicationStmt>
<sourceDesc>
<biblStruct>
<monogr>
<h.title>ಚಿಕ್ಕಮಕ್ಕಳ ಚಿತ್ರಕಲೆ</h.title>
<h.author>ಬಿ.ಪಿ. ಬಾಯಿರಿ</h.author>
<imprint>
<pubPlace>India</pubPlace>
<publisher>Unknown - Book</publisher>
<pubDate>1989</pubDate>
</imprint>
<idno type="CIIL code">kidart1</idno>
</monogr></biblStruct></sourceDesc></fileDesc>
<encodingDesc>
<projectDesc>Text collected for the CIIL Corpus, subsequently integrated into the EMILLE/CIIL Monolingual Written Corpora.</projectDesc>
<samplingDesc>Simple written text only has been transcribed. Diagrams, pictures and tables have been omitted. Sampling begins at page 12.</samplingDesc>
<editorialDecl><conformance level="1"></conformance></editorialDecl>
</encodingDesc>
<profileDesc>
<creation><date>03-05-21</date></creation>
<langUsage>Kannada</langUsage>
<wsdUsage>
<writingSystem id="ISO/IEC 10646">Universal Multiple-Octet Coded Character Set (UCS).</writingSystem>
</wsdUsage>
<textClass>
<channel mode="w">print</channel>
<constitution type="composite"></constitution>
<domain type="public"></domain>
<factuality type="fact"></factuality>
</textClass>
<translations></translations>
</profileDesc>
<revisionDesc></revisionDesc>
</cesHeader>

<text><body>

<p>
			ಮುನ್ನುಡಿ</p>

<p>`ಚಿಕ್ಕಮಕ್ಕಳ ಚಿತ್ರಕಲೆ' ಎಂಬ ಹೆಸರನ್ನು ನೋಡಿ `ಇದು ಕಲಾ
ಶಿಕ್ಷಕರಿಗೆ ಮತ್ತು ಚಿತ್ರಕಲಾ ವಿದ್ಯಾರ್ಥಿಗಳಿಗೆ ಅಗತ್ಯವಾದುದು. ನಮಗೆ
ಬೇಕಾದುದಲ್ಲ' ಎಂದು ಭಾವಿಸಬೇಡಿರಿ. ಈ ಶಿಶು ಚಿತ್ರಕಲೆಯ ಶಿಕ್ಷಕ~
ರಿಗೂ ರಕ್ಷಕರಿಗೂ ಎಲ್ಲರಿಗೂ ಅವಶ್ಯ ತಿಳಿದಿರಬೇಕಾದ ವಿಚಾರವಾಗಿದೆ.
ಆದರೆ ಜನರ ಅಭಿಪ್ರಾಯವು ಬೇರೆ ಆಗಿದೆ. `ಇದು ಮಕ್ಕಳನ್ನು ಚಿತ್ರ
ಕಲಾವಿದರನ್ನಾಗಿ ಮಾಡುವಂತಹುದಾಗಿರಬೇಕು. ಆ ಶಿಕ್ಷಣವು ನಮಗೆ
ಬೇಡ. ಕಲಾವಿದರಿಗೆ ಅಧಿಕಾರ, ಆದಾಯ ಇರುವುದಿಲ್ಲ. ನಮಗೆ ನಮ್ಮ
ಮಕ್ಕಳು ದೇಶವನ್ನು ಆಳುವ ಅಧಿಕಾರ ಉಳ್ಳವರಾದರೆ ಭಾರೀ ಇಷ್ಟ.
ಅಂತಹ ಶಿಕ್ಷಣ ಬೇಕು. ಅದಿಲ್ಲವಾದರೆ ಸ್ಥಳೀಯ ಆಡಳಿತಗಾರರು ಅಥವಾ
ಡಾಕ್ಟರರು, ಇಂಜಿನಿಯರುಗಳು, ಪ್ರೊಫೆಸರರು ಮುಂತಾದವರಾಗಬೇಕು.'
ಅವರು ಭಾವಿಸುವಂತೆ ಈ ಕಲಾಶಿಕ್ಷಣವು ಮಕ್ಕಳನ್ನು ಕಲಾವಿದರನ್ನಾಗಿ
ತರಬೇತುಗೊಳಿಸುವುದಕ್ಕಾಗಿ ಅಲ್ಲ. ಇದು ಶಿಶುಗಳ ರಚನಾಸಾಮರ್ಥ್ಯಗಳ
ಬೆಳವಣಿಗೆಗೆ, ಭಾವಾಭಿವ್ಯಕ್ತಿಗೆ, ಕಲ್ಪನಾಶಕ್ತಿ ವರ್ಧಿಸುವುದಕ್ಕೆ ಅವಕಾಶ
ನೀಡುತ್ತದೆ. ಇದರಿಂದ ಆತನು ತನ್ನ ಭವಿಷ್ಯ ಜೀವನದಲ್ಲಿ ಹಳ್ಳಿಯವ~
ರಾಗಲಿ, ಡಿಲ್ಲಿಯವರಾಗಲಿ, ಗೋಪಾಲನಾಗಲಿ, ಭೂಪಾಲನಾಗಲಿ, ಎಲ್ಲಿ
ಯಾವುದೇ ವೃತ್ತಿಯನ್ನು ಹಿಡಿದವನಾಗಲಿ, ಅಲ್ಲಿ ತನ್ನದೇ ಆದ ರಚನಾ
ವೈಶಿಷ್ಟ್ಯವನ್ನು ಬಳಸಿ, ಅದನ್ನು ಇತರರಿಗಿಂತ ಹೆಚ್ಚು ಉತ್ತಮವಾಗಿ
ನಿರ್ವಹಿಸಲು ಶಕ್ತನಾಗುವನು ; ಇದಿರು ಬಂದ ಸಮಸ್ಯೆಗಳನ್ನು ಬಗೆಹರಿಸ~
ಬಲ್ಲ ಬುದ್ಧಿಕೌಶಲ್ಯವನ್ನು ಪಡೆಯುವನು. ಹೀಗೆ ಉತ್ತಮವಾದ ವ್ಯಕ್ತಿ
ತ್ವವು ರೂಪುಗೊಳ್ಳಲು ಈ ಕಲಾಶಿಕ್ಷಣವು ನೆರವಾಗುವುದು. ಇದು ತಜ್ಞರ
ಸಿದ್ಧಾಂತವಾಗಿದೆ. ಇಂತರ ಶಿಶುಚಿತ್ರಕಲಾ ಶಿಕ್ಷಣದ ಇತಿಹಾಸ, ವಿಧಾನ,
ಉದ್ದೇಶ, ಉಪಯೋಗಗಳನ್ನು ತಿಳಿಸುವುದು ಈ ಪುಸ್ತಕದ ಗುರಿಯಾಗಿದೆ.
Page 4
ಇದನ್ನು ತಿಳಿದು ರಕ್ಷಕರು, ಮಕ್ಕಳು ಮನೆಯಲ್ಲಿ ತಮ್ಮ ಭಾವಾಭಿವ್ಯಕ್ತಿ~
ಗೊಳಿಸುವ ಕಲಾರಚನೆ ಮಾಡುತ್ತಿರುವ ಬಗ್ಗೆ ಆಕ್ಷೇಪಿಸಬಾರದು.</p>

<p>ಹಿಂದೆ ಈ ಪುಸ್ತಕವು ಮೈಸೂರು ವಿಶ್ವವಿದ್ಯಾನಿಲಯದ ಪ್ರಸಾರಾಂಗದ
ಪ್ರಚಾರ ಪುಸ್ತಕ ಮಾಲೆಯಲ್ಲಿ ಪ್ರಕಟವಾಗಿತ್ತು. ಪುನರ್ಮುದ್ರಣಗಳನ್ನು
ಕಂಡಿತ್ತು. ಈಗ ಅಲಭ್ಯವಾದ ಕಾರಣ, ಇನ್ನು ಬೇಡಿಕೆಗಳಿರುವುದರಿಂದ,
ಅದನ್ನು ಪರಿಷ್ಕರಿಸಿ ಹಲವು ಚಿತ್ರಗಳನ್ನು ಸೇರಿಸಿ ಪ್ರಕಟಿಸಿದುದಾಗಿದೆ.</p>

<p>ಈ ಪುಸ್ತಕವನ್ನು ಪ್ರಕಾಶನಗೊಳಿಸಿದ ಶ್ರೀ ಮನೋಹರ ಘಾಣೇಕರ~
ರಿಗೂ ಮುದ್ರಣ ಮಾಡಿದ ರವೀಂದ್ರ ಘಾಣೇಕರರಿಗೂ ನನ್ನ ಕೃತಜ್ಞತೆ~
ಗಳು.</p>

<p>ಚಿತ್ರಕುಟೀರ
ಉಡುಪಿ - 576 101			ಬಿ.ಪಿ. ಬಾಯಿರಿ
ದಿನಾಂಕ 1-4-1989</p>

<p>
Page 1</p>

<p>	   ಚಿಕ್ಕಮಕ್ಕಳ ಚಿತ್ರಕಲೆ</p>

<p>ಪ್ರವೇಶ :</p>

<p>ಚಿಕ್ಕಮಕ್ಕಳದ್ದೂ ಚಿತ್ರಕಲೆಯೇ ? ಅವರು ಕೂಡ ಚಿತ್ರ
ಮಾಡಬಲ್ಲರೇ ?</p>

<p>ಹೌದು. ಪ್ರತಿ ಮಗುವೂ ಒಬ್ಬ ಕಲಾವಿದ. ಚಿತ್ರಗಳು
ಶಿಶುಗಳ ಭಾಷೆ. ಅವರಿಗೆ ಮೊದಲು ಬರುವುದು ಚಿತ್ರಕಲೆ; ಅನಂತರ
ಬರೆಹ. ಚಿತ್ರ ಮಾಡುವುದೆಂದರೆ ಅವರಿಗೆ ಆನಂದ.</p>

<p>ಮಕ್ಕಳ ಚಿತ್ರಕಲೆ ಎಂದರೇನು ?</p>

<p>ಮಕ್ಕಳು ತಮಗೆ ಸಹಜ ಸ್ವಭಾವದ ಗುರುತುಗಳಿಂದ, ತಮ್ಮ
ಭಾವನೆಗಳನ್ನು ತೋಡಿಕೊಳ್ಳುವ ರಚನೆಯು ಮಕ್ಕಳ ಚಿತ್ರಕಲೆ~
ಯಾಗಿದೆ. ಅದನ್ನು ಮಕ್ಕಳು ಮಾತ್ರ ರಚಿಸಬಲ್ಲರು. ಅದರ ಮೇಲೆ
ಇತರರ ಪ್ರಭಾವ ಬಿದ್ದರೆ ಅದು ಶಿಶುಚಿತ್ರಕಲೆಯಲ್ಲ. ಅದು ಆಗ
ಕೃತಕ, ನಕಲಿ ಆಗುತ್ತದೆ.</p>

<p>ಚಿಕ್ಕಮಕ್ಕಳ ಚಿತ್ರಕಲೆಯ ವೈಶಿಷ್ಟ್ಯಗಳೇನು ? ಅದನ್ನು ಏಕೆ
ಮೆಚ್ಚಬೇಕು ?</p>

<p>ಚಿಕ್ಕಮಕ್ಕಳು ಚಿತ್ರಗಳನ್ನು ಸುಲಭರೂಪಕ್ಕೆ ತಂದು ತೋರಿಸು~
ತ್ತಾರೆ. ಈ ನಿಯಮವು ಎಲ್ಲಾ ಕಾಲದ ಮತ್ತು ಎಲ್ಲಾ ಜನಾಂಗಗಳ
Page 2
ಮಕ್ಕಳಲ್ಲೂ ತೋರುತ್ತದೆ. ಮಗುವಿನ ತೊದಲ್ನುಡಿಯನ್ನು ನಾವು
ಬಹಳವಾಗಿ ಮೆಚ್ಚುತ್ತೇವೆ. ಅದು ಎಲ್ಲರಿಗೂ ಅರ್ಥವಾಗದಿರಬಹುದು,
ಹೆತ್ತವರಿಗೆ ಮಾತ್ರ ಅರ್ಥವಾಗಬಹುದು. ಅದರಲ್ಲಿ ವ್ಯಾಕರಣ ಇಲ್ಲ;
ಶುದ್ಧ ಉಚ್ಚಾರವಿಲ್ಲ. ಆದರೂ ಹಾಗೆ ಮಾತಾಡಲು ನಾವು ಮತ್ತಷ್ಟು
ಉತ್ತೇಜನ ನೀಡುತ್ತೇವೆ. """"""""ಚೀಂ ಪಾಚ ಬೋಕು"""""""" ಎಂದರೆ ಸಿಹಿ
ಪಾಯಸ ಕೇಳುತ್ತಾನೆಂದು ಅರ್ಥಮಾಡಿ ಹರುಷಗೊಳ್ಳುತ್ತೇವೆ.
ಮಕ್ಕಳು """"""""ದೊಡ್ಡಮ್ಮಾ ! ಅಲ್ಲಿ ಏನು ಮಾಡುತ್ತೀ"""""""" ಎನ್ನುವುದಕ್ಕೆ
""""""""ದದ್ದಮ್ಮ ಅಯ್ಯಿ, ಅಂತ ಮಾತೇ ?"""""""" ಅನ್ನುತ್ತಾರೆ. ಶಿಶುಗಳನ್ನು
""""""""ಹುಶ್ಯಾರ್ ! ಇಷ್ಟು ಕುಶಾಲು ಮಾಡುತ್ತೀಯಾ ?"""""""" ಎಂದು ಕೇಳು~
ವುದಿಲ್ಲ. """"""""ಹುಚ್ಚಾರ್ ! ಇಟ್ಟು ಕುಚಾಲು ಮಾತೀಯಾ ?"""""""" ಎಂದು
ಅವುಗಳಂತೆಯೇ ತೊದಲ್ನುಡಿ ಆಡುತ್ತೇವೆ. """"""""ಇಲ್ಲಿ ನೋಡು""""""""
ಅನ್ನುವ ಬದಲಿಗೆ """"""""ಇಯ್ಯಿ ನೋಯ್"""""""" ಅನ್ನುತ್ತಾರೆ. ರಾಮಕೃಷ್ಣ~
ನನ್ನು ಮಾಕಿಟ್ನ ಎಂದು ಕರೆಯುತ್ತಾರೆ. ಅವರ ಆ ಅಸ್ಪಷ್ಟ ಮಾತು~
ಗಳಿಗಾಗಿ ಹಿಗ್ಗಿ ಹರುಷಗೊಳ್ಳುತ್ತೇವೆ. ಆ ಸಹೃದಯತೆಯನ್ನು
ತ್ಯಜಿಸಿ ಏನೇನೋ ಗೊಜಗುಟ್ಟುತ್ತದೆಂದು ಗದರಿಸಬಹುದೇ ? ಹಾಗೆ
ಮಾಡುವುದು ಹಾನಿಕರ. ಸ್ಪಷ್ಟ ಉಚ್ಚಾರವು ಆಮೇಲೆ ಬರುತ್ತದೆ.
ಮಾತನಾಡುವುದು ಮೊದಲು ; ಭಾಷಾನಿಯಮ, ವ್ಯಾಕರಣಾದಿಗಳನ್ನು
ಕಲಿಯುವುದು ಅನಂತರ. ಮಕ್ಕಳ ಚಿತ್ರಕಲೆಯಲ್ಲೂ ಅದೇ ನೀತಿ.
ಚಿತ್ರಗಳೆಂದರೆ ಮನದಲ್ಲಿ ಮೂಡಿದ್ದುದನ್ನು ಫಲಕಗಳ ಮೇಲೆ ಗುರುತಿ~
ಸುವುದು. ಹಾಗೆ ಭಾವಪ್ರದರ್ಶನ ಮಾಡಿ ಆತ್ಮತೃಪ್ತಿಪಟ್ಟು ಅವರು
ಹಿಗ್ಗುತ್ತಾರೆ. ಅವುಗಳನ್ನು ಅರ್ಥಮಾಡಿಕೊಳ್ಳುವುದು ಹಿರಿಯರ
ಕರ್ತವ್ಯ. ಆ ರಚನಾಸ್ಫೂರ್ತಿಯನ್ನು ಹತ್ತಿಕ್ಕಬಾರದು. ಚಿತ್ರ
ಮಾಡುತ್ತಿದ್ದರೆ ಆತನೇನೋ ತಪ್ಪು ಕೆಲಸ ಮಾಡುತ್ತಿದ್ದಾನೆಂದು
ತಿಳಿಯಬಾರದು. ಆತನ ರಚನೆಯನ್ನು ಅರ್ಥಮಾಡಿ ಮೆಚ್ಚಲಾರದವರದ್ದೇ
Page 3
ತಪ್ಪು. ಅದಕ್ಕಾಗಿ ಗದರಿಸಿದರೆ, ಅಂಥವರ ದೆಸೆಯಿಂದ
ಮಗುವು ಭವಿಷ್ಯದಲ್ಲಿ ಯಾವ ಪ್ರಗತಿಪರ ರಚನಾಕಾಱ್ಯಕ್ಕೂ ಮನಸ್ಸು
ಹಾಕದ ಸ್ವಭಾವದವನಾಗಬಹುದು. ಚಿತ್ರರಚನೆಯ ದೆಸೆಯಿಂದ
ಅದಕ್ಕೆ ಪ್ರೇರಕವಾದ ರಸಭಾವವು ಮಗುವಿನಲ್ಲಿ ಪುಷ್ಟಿಗೊಳ್ಳುತ್ತದೆ.
ಆದುದರಿಂದ ಶಿಶು - ಚಿತ್ರಕಲೆಯು ಮಗುವಿನ ಮಾನಸಿಕ ಬೆಳವಣಿಗೆಗೆ
ಸ್ವಾಭಾವಿಕ ಸಾಧನವಾಗಿದೆ.</p>

<p>ಮಗುವು ಚಿತ್ರಿಸುವಾಗ ತನ್ನದೇ ಆದ ಒಂದು ಮಾಯಾ
ಪ್ರಪಂಚವನ್ನೇ ನಿರ್ಮಿಸುತ್ತದೆ. ಮುಖ್ಯಾಂಶಗಳನ್ನು ಗ್ರಹಿಸಿ ಅವು~
ಗಳನ್ನು ನೇರವಾಗಿ ಚಿತ್ರಿಸುತ್ತದೆ. ಸಾದಾ ಸರಳ ಸಂಕೇತಗಳಿಂದ
ಚಿತ್ರಿಸಿ, ಅಂತಃಸ್ಫುರಿತ ಬಣ್ಣಗಳನ್ನು ಕೊಡುತ್ತದೆ. ಅದು ಯಾವುದೇ
ಇತರ ಶೈಲಿ, ಸಂಪ್ರದಾಯ ಅಥವಾ ನಿಯಮಗಳಿಗೆ ಒಳಗಾದುದಲ್ಲ.
ಮಗುವು ಚಿಕ್ಕದಾಗಿದ್ದಷ್ಟೂ ಅಂತಹ ಗುಣಗಳು ಜಾಸ್ತಿ ಇರುತ್ತವೆ.
ಯಾವ ಕಟ್ಟುಪಾಡಿಗೂ ಒಳಗಾಗದ ಈ ನೇರವಾದ ಅಂತಃಸ್ಫುರಣ
ಗುಣದ ದೆಸೆಯಿಂದಲೇ ವಿದ್ಯಾತಜ್ಞರು, ಮನಃಶಾಸ್ತ್ರಜ್ಞರು ಮುಂತಾ~
ದವರು ಶಿಶುಚಿತ್ರಗಳ ಕಡೆಗೆ ಆಕರ್ಷಿತರಾದರು. ಮಕ್ಕಳಲ್ಲಿರುವ ಈ
ಅಮೂಲ್ಯ ಗುಣಗಳನ್ನು ಬೆಳೆಯಿಸಬೇಕು. ಹಿರಿಯರ ಹಸ್ತಕ್ಷೇಪದಿಂದ 
ಹಾಳಾಗದ ಹಸುಳೆಗಳ ಕೃತಿಗಳನ್ನು ಕಲಾದೃಷ್ಟಿಯಿಂದ ಈಗ ಜಗತ್ತೇ
ಮನ್ನಿಸುತ್ತದೆ. ಆದರೆ ಈಗಿನ ಶಿಶುಗಳು ಸುತ್ತುಮುತ್ತಲಿನ ಪರಿಸ್ಥಿತಿ,
ಎಲ್ಲೆಲ್ಲೂ ತೋರುವ ದೊಡ್ಡ ಚಿತ್ರಗಳ ದೆಸೆಯಿಂದ ಶಿಶುಚಿತ್ರ ಕಲಾ~
ತ್ಮಕತೆಯನ್ನು ಬೇಗನೆ ಕಳೆದುಕೊಂಡು ಶಿಶುಚಿತ್ರ ಕಲಾತ್ಮಕತೆಯೆಂಬ
ಕಾಲವೇ ಕಡಿಮೆಯಾಗುತ್ತಿದೆ.</p>

<p>ಹಿರಿಯರ ಹಸ್ತಕ್ಷೇಪಗಳಿಂದ ಮಕ್ಕಳು ವಯಸ್ಕರಂತೆ ಚಿತ್ರಿಸಿ~
ದರೆ, ಅವರ ಅಂತಹ ಕೃತಿಗಳು ನಿಸ್ತೇಜವಾಗುತ್ತವೆ. ಹಾಗೆಯೇ
Page 4
ವಯಸ್ಕರು ಮಕ್ಕಳಂತೆ ಚಿತ್ರ ಮಾಡಲು ಯತ್ನಿಸಿದರೆ, ಅದು ಕೂಡ
ತೇಜೋಹೀನವಾಗುತ್ತದೆ. ಶಿಶುತನದ ಆತ್ಮಗಳಾದ ಸರಳ ಮನಸ್ಸು,
ನಿಷ್ಕಪಟ ಸ್ವಭಾವ, ಚೇತನಗಳು ಇತರರಿಗೆ ಬರಲಾರವು. ಆದಿ
ಮಾನವ ಚಿತ್ರಕಲೆಯನ್ನು ಅನುಕರಿಸಿ ಮಾಡಿದ ಎಷ್ಟೋ ನವ್ಯಚಿತ್ರ~
ಗಳು ಕೃತ್ರಿಮವಾಗಿ ಕಾಣುತ್ತವೆ. ಮಾನವ ಲೋಕದ ಗುಣಕ್ಕಿಂತಲೂ
ಹೆಚ್ಚಾಗಿ, ದೇವತಾಂಶ ಗುಣವುಳ್ಳದೆಂದು ಹೇಳಿಸಿಕೊಳ್ಳುವ ಶಿಶುವು
ಎಲ್ಲಾ ಕಾಲದಲ್ಲೂ ತುಸುತುಸುವಾಗಿ ವಯಸ್ಕರ ಪ್ರಪಂಚಕ್ಕೆ
ಕಾಲಿಡುತ್ತದೆ.</p>

<p>ಮಕ್ಕಳ ಕೈಗೆ ಕುಂಚ ಅಥವಾ ಬಳಪ ದೊರೆತರೆ ಬಂಧಮುಕ್ತರು
ಪಡುವಂತೆ ಆನಂದಪಡುತ್ತಾರೆ. ಏಕೆ ? ಪ್ರತಿ ಮಗುವಿನಲ್ಲೂ
ಆತ್ಮಾಭಿವ್ಯಕ್ತಿ ಎಂದರೆ, ತನ್ನ ಭಾವನೆಗಳನ್ನು ತಿಳಿಯಪಡಿಸಲು ಸಹಜ~
ವಾದ ಆಶೆ ಇರುವುದೇ ಅದಕ್ಕೆ ಕಾರಣ.</p>

<p>ಒಂದು ಮುಖವನ್ನು ಚಿತ್ರಿಸಲು ಹೇಳಿದರೆ, ಮಗುವು ಒಂದು
ವೃತ್ತಮಾಡಿ, ಅದರೊಳಗೆ ಕಣ್ಣು-ಬಾಯಿಗಳನ್ನು ಗುರುತಿಸಿ ಬಿಡು~
ತ್ತದೆ. ಆದರೆ ಒಬ್ಬ ಕುರುಡನನ್ನು ಚಿತ್ರಿಸಲು ಹೇಳಿದರೆ, ಮಗುವು
ಮೇಲೆ ಕೆಳಗೆ ನೋಡತೊಡಗುತ್ತದೆ. ಕೈಕಾಲು ಸರಿಯಾಗಿ ಇರುವ~
ವರನ್ನು ಸಾಮಾನ್ಯವಾಗಿ ನಿಂತುಕೊಂಡಿರುವಂತೆ ಚಿತ್ರಿಸುತ್ತದೆ. ಆದರೆ
ಕಾಲಿಲ್ಲದ ಹೆಳವನನ್ನು ಚಿತ್ರಿಸಲೊಲ್ಲದು. ಆದಿಮಾನವನಂತೆ
(Primitive) ಮಗುವು ಕೂಡ ತನ್ನ ಜ್ಞಾಪಕದಲ್ಲಿ ತುಂಬಿದುದನ್ನು
ಚಿತ್ರಿಸುವುದರಲ್ಲಿ ಸಂತೋಷಪಡುತ್ತದೆ. ಆಗ ಮಗುವಿನಲ್ಲಿ ರಚನಾ~
ಶೀಲತೆಯೂ ಆತ್ಮವಿಶ್ವಾಸವೂ ಅಭಿವೃದ್ಧಿಯಾಗುತ್ತವೆ. ಹೀಗೆ ಶಿಶು
ಚಿತ್ರಕಲೆಯು ಮಗುವಿನ ಮನೋಲ್ಲಾಸ ಮತ್ತು ಶೈಕ್ಷಣಿಕ ಪ್ರಗತಿಗೆ
ಕಾರಣವಾಗುತ್ತದೆ.</p>

<p>ಮಕ್ಕಳಿಗೆ ಕೌಶಲ್ಯ ಕಲಾತಂತ್ರ ಹೇಗೆ ಗೊತ್ತು ? ಹಾಗೇನೂ
ಇಲ್ಲದಿರುವುದನ್ನು ಕಲೆ ಎಂದು ಹೇಳುವುದು ಹೇಗೆ ?</p>

<p>ಕಲೆಯನ್ನು ಕುರಿತು ಹೇಳುವಾಗ ಒಂದು ವಿಶಿಷ್ಟ ರಚನೆಯಲ್ಲಿ
ಹೀಗೆ ನಿಯಮಪಾಲನೆ, ಕೌಶಲ್ಯ, ಕಲಾತಂತ್ರ ಇರುತ್ತವೆ ಎಂದು
ತೋರಿಸುವುದೊಂದು ವಿಧಾನ. ಆದರೆ ಅಂತಹುದು ಮಾತ್ರ ಕಲೆ
ಎಂಬ ಮಾತು ಸಲ್ಲದು. ಕಲೆಯಲ್ಲಿ ಕ್ರಮ, ನಿಯಮ ತಂತ್ರಜ್ಞಾನ~
ಗಳಿಗೆ ತರುವಾಯದ ಪ್ರಾಮುಖ಼್ಯತೆ ನೀಡತಕ್ಕದ್ದು. ಒಬ್ಬನಲ್ಲಿ
ಸೃಜನಾತ್ಮಕ ಪ್ರೇರಣೆ ಎಂದರೆ ಹೊಸರಚನೆ ಮಾಡುವ ಆತ್ಮಪ್ರೇರಣೆ
ಇದ್ದರೆ, ಅವನಲ್ಲಿ ಕಲಾತಂತ್ರಜ್ಞಾನದ ಕೊರತೆ ಇದ್ದರೂ ಅವನು
ಕ಼ಲಾವಿದನು. ಹೃದಯದಲ್ಲಿ ಮೂಡಿದುದನ್ನು ತೋಡಿಕೊಳ್ಳುವ
ಕಾತರತೆಯೇ ಕಲಾರಚನೆಗೆ ಪ್ರೇರಕ ಶಕ್ತಿ. ಶಿಶುಚಿತ್ರಕಲೆಗೂ
ಆದಿಮಾನವ ಚಿತ್ರಕಲೆಗೂ ಮಹತ್ವ ದೊರೆಯಲು ಇದೇ ಕಾರಣ.
ಶಿಶುಚಿತ್ರಗಳೆಂದರೆ ಮಕ್ಕಳ ಮನಸ್ಸಿನ ದಾಖಲೆಗಳಾಗಿವೆ. ಪಾವುಲ್
ಕ್ಲೀ, ಮ್ಯಾತಿಸ್ಸೀ ಮೊದಲಾದ ಆಧುನಿಕ ಕಲಾವಿದರು ಕೂಡ, ಮಕ್ಕ~
ಳಂತೆ ಚಿತ್ರ ಮಾಡಲು ಆಶಿಸಿದ್ದರು. ಪಾಬ್ಬೋ ಪಿಕಾಸೋ (1881-
1973) ಎಂಬಾತ 20 ನೆಯ ಶತಮಾನದಲ್ಲಿ ಪ್ರಪಂಚದ ಒಬ್ಬ
ಮಹಾನ್ ಕಲಾವಿದ. ಆತ `ನಾನು ಚಿಕ್ಕಮಕ್ಕಳ ಹಾಗೆ ಚಿತ್ರಿಸ~
ಬೇಕು. ಇದು ನನ್ನ ಆಕಾಂಕ್ಷೆ' ಅನ್ನುತ್ತಿದ್ದ.</p>

<p>ಚಿಕ್ಕಮಕ್ಕಳ ಚಿತ್ರಕಲೆಯ ಮುಖ್ಯ ಲಕ್ಷಣಗಳಾವುವು ?</p>

<p>ಮಕ್ಕಳ ಚಿತ್ರಗಳಲ್ಲಿ ಅಂತಃಸ್ಫುರಣೆಯಿಂದ ಅಯತ್ನಪೂರ್ವಕ~
ವಾಗಿ, ನೇರವಾಗಿ ವಿಷಯಕ್ಕೆ ಹೋಗುವ ಗುಣಗಳಿರುತ್ತವೆ.
Directness and Spontaniety). ಅವರ ಕೃತಿಗಳಲ್ಲಿ
Page 6
ಕಲಾತಂತ್ರವನ್ನು ಪರಿಶೀಲಿಸಿದರೆ ಸುಲಭದ, ಸರಳವಾದ ರೇಖೆಗಳು,
ಆನಂದದ ಮತ್ತು ಶೋಭಾಯಮಾನ ವರ್ಣಗಳ ಪ್ರಯೋಗ; ಅವು~
ಗಳನ್ನು ನಿರೂಪಿಸುವುದರಲ್ಲಿ ಕಾವ್ಯ ಸೌಂದಱ್ಯವು ಕಂಡುಬರುತ್ತದೆ.</p>

<p>ಮಗುವು ರಚಿಸುವ ಕೃತಿಯು ಪ್ರಕೃತಿಯ ಪ್ರತಿಬಿಂಬವಲ್ಲ.
ಅದು ಆತನ ಕಲ್ಪನೆಗೆ ಕೊಟ್ಟ ರೂಪ. ಶಿಶುಚಿತ್ರಗಳಲ್ಲಿ ಕಲ್ಪನೆಯೇ
ಪ್ರಧಾನವಾದುದು. ಚಿತ್ರ ವಸ್ತುವು ಸಂಕೇತ ಮಾತ್ರ. ಹಿರಿಯರು
ಕೂಡ ಇತರರಿಗೆ ಅರುಹಲು ಗುರುತುಗಳನ್ನು ಉಪಯೋಗಿಸುವು~
ದಿಲ್ಲವೇ ? ಶಿವಲಿಂಗವು ಈಶ್ವರನ ಯಥಾರೂಪವೇ ? ಕಟ್ಟಡದ
ತುದಿಯಲ್ಲಿ ಶಿಖರ, ಶಿಲುಬೆ ಅಥವಾ ಗುಮ್ಮಟ ಇರುವುದನ್ನು ನೋಡಿ
ದೂರದಿಂದಲೇ ಅದು ದೇವಸ್ಥಾನ, ಅದು ಇಗರ್ಜಿ, ಅದು ಮಶೀದಿ
ಅನ್ನುತ್ತೇವೆ. ಆ ಗುರುತಿಗೆ ಆ ಅರ್ಥವೆಂಬುದು ತಿಳುವಳಿಕೆ.
ಹಾಗೆಯೇ ಮಕ್ಕಳು ತಮ್ಮ ಭಾವನೆಗಳನ್ನು ತಿಳಿಯಪಡಿಸಲು ಉಪ~
ಯೋಗಿಸುವ ಗುರುತುಗಳನ್ನು ನಾವು ಅರಿತುಕೊಂಡು ಅವರ ಚಿತ್ರ~
ಗಳನ್ನು ಓದಬೇಕು.</p>

<p>ಮಕ್ಕಳ ಚಿತ್ರಗಳಲ್ಲಿ ಏನೇನನ್ನು ಕಾಣಬಹುದು ?</p>

<p>ಚಿತ್ರ-ವಿಚಿತ್ರ ಕಲ್ಪನೆಗಳು, ಊಹೆಗಳು, ವಿಚಿತ್ರ ಆಕಾರ
ಹಾಗೂ ವರ್ಣಗಳಲ್ಲಿ ಸಂಕೇತಗಳಾಗಿ ಗೋಚರಿಸುತ್ತವೆ. ಉದ್ಯಾನ~
ದಲ್ಲಿರುವ ಹೂವುಗಳಂತೆ ಅವು ಮೋಹಕವಾಗಿರುತ್ತವೆ. ಹಿರಿಯ
ಕಲಾವಿದ ಭಗವಂತನು ಸೃಷ್ಟಿಸಿದ ಈ ವಿಶಾಲ ಪ್ರಪಂಚದಲ್ಲಿ, ಮಕ್ಕಳು
ಚಿತ್ರಗಳಿಂದ ಕಿರಿಯ ಪ್ರಪಂಚವನ್ನೇ ನಿರ್ಮಿಸುತ್ತಾರೆ. ಚಿತ್ರಗಳನ್ನು
ವೇಗವಾಗಿ ರಚಿಸುತ್ತಾರೆ; ನೋಡಿದರೆ ಆಶ್ಚಱ್ಯವಾಗುತ್ತದೆ. ಚಿತ್ರಿಸುವಾಗ
Page 7
ಬಾಹ್ಯ ಪ್ರಪಂಚವನ್ನೇ ಮರೆಯುತ್ತಾರೆ. ಚಿತ್ರಿಸಲಾರದ,
ಚಿತ್ರಿಸಲೊಲ್ಲೆ ಎನ್ನುವ ಚಿಕ್ಕಮಕ್ಕಳು ಯಾರೂ ಇಲ್ಲ.</p>

<p>ಮಗುವು ಏಕೆ ಚಿತ್ರಿಸುತ್ತದೆ ?</p>

<p>ಮಗುವಿನದು ಕುತೂಹಲ ಸ್ವಭಾವ. ಎಲ್ಲದರಲ್ಲೂ ಆಸಕ್ತಿ.
ಎಲ್ಲವನ್ನೂ ಅರಿಯುವ ಆತುರ. ಪರಿಶೀಲಿಸುವುದು, ಕಲ್ಪನೆ ಮಾಡು~
ವುದು ಮತ್ತು ಗುರುತುಗಳಿಂದ ವ್ಯಕ್ತಗೊಳಿಸುವುದು ಮಗುವಿನ
ಸಹಜ ಸ್ವಭಾವ. ಆರಂಭದಲ್ಲಿ ಮಗುವಿಗೆ ತನ್ನ ತಾಯಿಯೇ ಜಗತ್ತು.
ಅಳುವಿಕೆ ಮತ್ತು ಕೈಕಾಲುಗಳ ಚಲನೆಯಿಂದ ತನ್ನ ಇಂಗಿತವನ್ನು
ಅದು ಸೂಚಿಸುತ್ತದೆ. ಅದು ಮಗುವಿನ ಮೊತ್ತಮೊದಲಿನ ಭಾಷೆ.
ಪ್ರಥಮದಲ್ಲಿ ಕೆಲವು ವಾರ ಹಸಿವೆಯನ್ನು ನಿವಾರಣೆ ಮಾಡಿಕೊಳ್ಳಲು
ಅಳು ; ತೃಪ್ತಿಯಾದೊಡನೆ ನಗು. ಈ ಸುದ್ದಿ ಸಂಪರ್ಕವು ಹೆಚ್ಚು
ಕಾಲ ಇಷ್ಟಕ್ಕೆ ಸೀಮಿತವಾಗಿರುವುದಿಲ್ಲ. ಹಿರಿಯರಂತೆ ಮಕ್ಕಳಿಗೆ
ಕೂಡ ಸಮಾಧಾನ, ಅಸಮಾಧಾನ, ನಲಿವು, ನೋವು ಮೊದಲಾದ
ಭಾವನೆಗಳೂ, ಅವುಗಳನ್ನು ತಿಳಿಯಪಡಿಸುವ ಅಪೇಕ್ಷೆಗಳೂ ಇರುತ್ತವೆ.
ಅವರು ನಿರ್ಬಂಧವನ್ನು ಅಪೇಕ್ಷಿಸರು. ಆಟವು ಅನಿರ್ಬಂಧಿತ ಚಟು~
ವಟಿಕೆಯಾದುದರಿಂದ ಅದರಲ್ಲಿ ಅವರಿಗೆ ಆಶೆ. ಈ ಚಿತ್ರರಚನೆಯು
ಅವರಿಗೆ ಒಂದು ಆಟವಾಗಿದೆ. ಮಾತ್ರವಲ್ಲ, ಅದರಿಂದ ಅವರಲ್ಲಿ
ಆಲೋಚನಾಶಕ್ತಿಯು ವೃದ್ಧಿಯಾಗುತ್ತದೆ. ನಿರ್ಬಂಧರಹಿತ ಭಾವಾಭಿ~
ವ್ಯಕ್ತಿಗೆ ಎಡೆಗೊಡುವ ಕಲಾಪಾಠವು ಮಕ್ಕಳ ಮುಂದಿನ ಜೀವ~
ಮಾನದ ಏಳಿಗೆಗೆ ಸಾಧನವಾಗುತ್ತದೆ.</p>

<p>ವಯಸ್ಸಾದಂತೆ ಮಕ್ಕಳ ಕಲ್ಪನಾಸಾಮರ್ಥ್ಯವು ನಶಿಸತೊಡಗು~
ತ್ತದೆ. ಯಥಾರೂಪ (realistic) ಚಿತ್ರಣಕ್ಕಾಗಿ ಅವರು ಬಯಸಲು
Page 8
ತೊಡಗುತ್ತಾರೆ. ಅದಕ್ಕಿಂತ ಮೊದಲೇ ಮಕ್ಕಳಿಂದ ತದ್ರೂಪ ಚಿತ್ರ
ಮಾಡಿಸುವುದು ಅವರ ಸ್ವಭಾವಕ್ಕೆ ವಿರುದ್ಧವಾಗಿದೆ. ನಿಸರ್ಗ ನಿಯಮ~
ಗಳನ್ನು ತಿಳಿದು ಅವುಗಳಿಗನುಗುಣವಾಗಿ ವರ್ತಿಸಿ ಗೆಲ್ಲಬೇಕು.
ಉದಾಹರಣೆಗಾಗಿ ನಾವು ವಿದ್ಯುತ್, ಉಗಿ (steam) ಮೊದಲಾದ~
ವುಗಳ ಮೇಲೆ ಪ್ರಭುತ್ವ ಗಳಿಸಿ, ಅವುಗಳನ್ನು ನಮ್ಮ ಸೇವಕರಂತೆ
ಅನೇಕ ಕೆಲಸಗಳಿಗಾಗಿ ಉಪಯೋಗ ಮಾಡಿಕೊಳ್ಳುತ್ತೇವೆ. ಇದು
ಹೇಗೆ ಸಾಧ್ಯವಾಯಿತು ? ಅವುಗಳ ನಿಸರ್ಗನಿಯಮಗಳನ್ನರಿತೆವು.
ಆ ನಿಯಮಗಳಿಗೆ ವಿರೋಧವಾಗಿ ವರ್ತಿಸದೆ ಅನುಗುಣವಾಗಿಯೇ
ನಡೆದು, ಅವುಗಳನ್ನು ನಮಗೆ ಬೇಕಾದಂತೆ ಬಳಸಿಕೊಳ್ಳಲು ಸಮರ್ಥ~
ರಾದೆವು. ಹಾಗೆಯೇ ಮಕ್ಕಳ ಚಿತ್ರಕಲಾ - ಶಿಕ್ಷಣ ವಿಷಯದಲ್ಲೂ
ನಿಸರ್ಗ ನಿಯಮಾನುಸಾರ ವರ್ತಿಸಿ, ಅವರನ್ನು ಉತ್ತಮ ಮಾನವ~
ರನ್ನಾಗಿ ರೂಪಿಸಬೇಕು.</p>

<p>ಚಿತ್ರಕಲಾ ಪಾಠಗಳು, ಅಂದು-ಇಂದು :</p>

<p>ಅಂದು ಎಂದರೆ ?</p>

<p>""""""""ಇಂದಿನ ಬೋಧಕರೂ ಪಾಲಕರೂ ಬಾಲಕರಾಗಿದ್ದ ಕಾಲ""""""""
ಅನ್ನಬಹುದು. ಇತಿಹಾಸದಲ್ಲಿ ಇದು ಅತ್ಯಲ್ಪ ಕಾಲ. ಆದರೆ ಈ
ಅವಧಿಯಲ್ಲಿ ಕಲಾ ಶಿಕ್ಷಣದಲ್ಲಿ ಒಂದು ಕ್ರಾಂತಿಯಾಗಿದೆ.</p>

<p>ಅಂದು ವಸ್ತು ಚಿತ್ರ, ತದ್ರೂಪ ಚಿತ್ರಗಳನ್ನು ಮೊದಲು ಮಾಡಿ~
ಸುತ್ತಿದ್ದರು. ಅನಂತರ ಕಲಾಪ್ರತಿಭೆಯುಳ್ಳ ದೊಡ್ಡ ಮಕ್ಕಳಿಗೆ ಕಥಾ
ಸಂದರ್ಭ ಚಿತ್ರ, ಕಲ್ಪನಾಚಿತ್ರಗಳನ್ನು ರಚಿಸಲು ಹೇಳುತ್ತಿದ್ದರು
ಕಲಿಸುತ್ತಿದ್ದರು. ಈಗ ಕಲ್ಪನಾ ಚಿತ್ರ, ಕಥಾಸಂದರ್ಭ ಚಿತ್ರಗಳನ್ನೇ
ಆರಂಭದಲ್ಲಿ, ತದ್ರೂಪ ಚಿತ್ರಗಳನ್ನು ವಸ್ತುಚಿತ್ರಗಳನ್ನು ಅನಂತರ
ಕಲಿಸಬಹುದೆಂಬುದಾಗಿ ಸಿದ್ಧಾಂತವಾಗಿದೆ.</p>

<p>ಚಿತ್ರಪಾಠದ ಉದ್ದೇಶ - ಹಿಂದೆ</p>

<p>ಪ್ರಾಥಮಿಕ ಹಾಗೂ ಪ್ರೌಢಶಾಲೆಗಳ ಅಭ್ಯಾಸ ಪತ್ರಿಕೆಯಲ್ಲಿ ಚಿತ್ರ
ಪಾಠವನ್ನು ಹಿಂದಿನಿಂದಲೂ ಸೇರಿಸಿದ್ದರು. ಆದರೆ ಅದು ಪರೀಕ್ಷಾ
ಪಾಠವಾಗಿರಲಿಲ್ಲ. ಮೇಲ್ತರಗತಿಗೆ ತೇರ್ಗಡೆಯಾಗಿ ಹೋಗಲು ಚಿತ್ರ
ಪಾಠದ ಅಂಕಗಳನ್ನು ಗಣಿಸುತ್ತಿರಲಿಲ್ಲ. ಆದಕಾರಣ ಆ ಪಾಠದ ಬಗ್ಗೆ
ಶ್ರದ್ಧೆ ಕಮ್ಮಿ. ಚಿತ್ರಪಾಠ ಮಾಡುವುದಾದರೂ ಅಧ್ಯಾಪಕರು ಕರಿ
ಹಲಗೆ ಮೇಲೆ ಒಂದು ವಸ್ತು, ತರಕಾರಿ, ಪಕ್ಷಿ, ಪ್ರಾಣಿ, ಹಣ್ಣು
ಏನನ್ನಾದರೂ ಚಿತ್ರಿಸಿ, """"""""ಮಕ್ಕಳೇ, ನಿಮ್ಮ ಸ್ಲೇಟು ಅಥವಾ ಕಾಗದದ
ಮೇಲೆ ಈ ಚಿತ್ರವನ್ನು ಬಿಡಿಸಿ ತೋರಿಸಿರಿ"""""""" ಎಂದು ಹೇಳಿ ಕುಳಿತು
ಬಿಡುತ್ತಿದ್ದರು. ಅಧ್ಯಾಪಕರಿಗೆ ಅದೊಂದು ವಿಶ್ರಾಂತಿ ಪಾಠವೆಂದು
ಹಲವರ ಭಾವನೆಯಾಗಿತ್ತು. ಕೆಲವರು ತಮ್ಮ ಪಾಲಿಗೆ ಬಂದ
ಮುಖ್ಯವಾದುವುಗಳೆಂದು ಎಣಿಸಲ್ಪಡುವ ಇತರ ಪರೀಕ್ಷಾಪಾಠಗಳನ್ನು
ಮಾಡಲು, ಈ ಚಿತ್ರಪಾಠದ ಅವಧಿಗಳನ್ನು ಉಪಯೋಗಿಸಿಕೊಳ್ಳು~
ತ್ತಿದ್ದುದುಂಟು. ಹಿಂದೆ ಪಾಠಪಟ್ಟಿಯಲ್ಲಿ ಚಿತ್ರಪಾಠವನ್ನು ಸೇರಿಸಿ~
ದವರ ಉದ್ದೇಶವು, """"""""ಪುಸ್ತಕ ಪಾಂಡಿತ್ಯ, ಗಣಿತ ಹಾಗು ವಿಜ್ಞಾನ
ಸೂತ್ರಗಳ ಜ್ಞಾನ ಮಾತ್ರ ಇದ್ದರೆ ಸಾಲದು; ಮಾನವನ ಸ್ವಾಭಾವಿಕ
ಚಟುವಟಿಕೆಗಳಿಗಾಗಿ ಹಸ್ತಕೌಶಲ್ಯಾನುಭವವೂ ಬೇಕು."""""""" ಕೈಕಸುಬಿನಲ್ಲಿ,
ಕೈಗಾರಿಕಾವಸ್ತುಗಳಲ್ಲಿ ಶ್ರೇಷ್ಠತೆಯನ್ನು ಕಾಣಿಸಲು ಚಿತ್ರಕಲೆಯನ್ನು
ಅರಿತಿರಬೇಕು. ಚಿತ್ರಕಲಿತವನು ಕಲಾವಿದನಾಗಿ ಜೀವನ ನಿರ್ವಹಿಸ~
ಬಹುದು. ವೈದ್ಯಕೀಯ, ಎಂಜಿನಿಯರಿಂಗ್, ಅಧ್ಯಾಪನವೃತ್ತಿ,
ಔದ್ಯೋಗಿಕ ವಿದ್ಯೆ, ತಾಂತ್ರಿಕ ಶಿಕ್ಷಣ, ವಿಜ್ಞಾನ ಮೊದಲಾದವುಗಳ
ಅಭ್ಯಾಸಗಳಿಗೆ ಚಿತ್ರಜ್ಞಾನವು ಸಹಕಾರಿಯಾಗುತ್ತದೆ. ಈ ಕಲೆಯು
ಸೂಕ್ಷ್ಮ ನಿರೀಕ್ಷಣಾಶಕ್ತಿ, ಸ್ವಚ್ಛತೆ, ಅಚ್ಚುಕಟ್ಟುತನ, ಮೊದಲಾದ
Page 10
ಗುಣಗಳನ್ನು ಕಲಿಸುತ್ತದೆ. ಇತರ ಚಿತ್ರ ಹಾಗು ಪ್ರಕೃತಿ ಸೌಂದಱ್ಯ~
ಗಳನ್ನು ನೋಡಿ, ಸಂತೋಷ ಅನುಭವಿಸಲು ಚಿತ್ರಜ್ಞಾನವು ಬೇಕು
ಎಂಬುದಾಗಿ ಅಂದಿನವರ ಭಾವನೆಗಳಾಗಿದ್ದವು.</p>

<p>ಕಲಾಪಾಠದ ಉದ್ದೇಶ - ಇಂದು</p>

<p>ಚಿತ್ರಕಲಾ ಪಾಠವನ್ನು ಕುರಿತು ಇಂದು ವಿದ್ಯಾತಜ್ಞರ ಯೋಚ~
ನೆಯೇ ಬೇರೆ. ಅದು ಹಿಂದಿನಂತೆ ಬರೇ ಚಿತ್ರಪಾಠವಲ್ಲ. ಇಂದು
ಅದು ಕಲೆ ಮತ್ತು ಸೃಜನಾತ್ಮಕ ಅಭಿವೃದ್ಧಿ ಪಾಠವಾಗಿದೆ. ಅಭಿ~
ಪ್ರಾಯವನ್ನು ಅರುಹಲು, ಯೋಚನಾಶಕ್ತಿ ಹೆಚ್ಚಿಸಲು ಜನರಿಗೆ
ಭಾಷೆಯು ಮಾಧ್ಯಮವಾಗಿರುತ್ತದೆ. ಚಿತ್ರರಚನೆಯು ಶಿಶುಗಳ ಸಹಜ
ಭಾಷೆ. ಮಗುವಿನಲ್ಲಿ ಹುದುಗಿರುವ ರಚನಾತ್ಮಕ ಮನೋವೃತ್ತಿ~
ಯನ್ನು ಬೆಳೆಯಿಸುವುದು, ಸೂಕ್ಷ್ಮಬುದ್ಧಿ, ಆಲೋಚನಾಶಕ್ತಿಗಳನ್ನು
ಹೆಚ್ಚಿಸುವುದು ಆವಶ್ಯಕ ವಿಚಾರಗಳಾಗಿವೆ. ಅವುಗಳನ್ನು ಈ ಚಿತ್ರ
ಕಲಾಪಾಠವು ಸಾಧಿಸಬಲ್ಲುದು ಎಂಬುದಾಗಿ, ಕಲಾಶಿಕ್ಷಣವನ್ನು ಕುರಿತು
ಈಗಿನವರ ಸಿದ್ಧಾಂತ; ಅಲ್ಲದೆ ಚಿತ್ರಕಲಾ ಜ್ಞಾನವು ಮತ್ತು
ಸುಸಂಸ್ಕೃತಿಯ ಅಭಿರುಚಿಯು ನಾಗರಿಕತೆಗೆ ಆವಶ್ಯಕ. ಆದುದರಿಂದ
ಈಗಿನದು ಕಲಾಪಾಠವಾಗಿದೆ. ಹಿಂದಿನದು ಹಸ್ತಕೌಶಲ್ಯವನ್ನುಂಟು
ಮಾಡುವ, ವಸ್ತುಗಳ ಹೋಲಿಕೆಯನ್ನು ಪ್ರತಿ ತೆಗೆಯುವ (copy)
ಪಾಠವಾಗಿತ್ತು.</p>

<p>ಚಿತ್ರಬೋಧನಾ ಕ್ರಮ - ಅಂದು</p>

<p>ತದ್ರೂಪ ರಚನಾಶಕ್ತಿಯನ್ನು ಉಂಟುಮಾಡುವುದೇ ಅಂದಿನ
ಚಿತ್ರಪಾಠದ ಗುರಿಯಾಗಿತ್ತು. ಆದುದರಿಂದ ಪೆನ್ಸಿಲ್ಲನ್ನು ಹಿಡಿಯುವ
ರೀತಿ, ವೃತ್ತ, ಅಡ್ಡ, ನೀಟ, ಓರೆ ಮೊದಲಾದ ರೇಖೆಗಳನ್ನು ಎಳೆಯುವುದನ್ನು
Page 11
ಕಲಿಸುತ್ತಿದ್ದರು. ಚಿಕ್ಕಮಕ್ಕಳಿಗೆ ಪರಿಚಿತವಾದ ಸ್ಲೇಟು,
ಚೆಂಡು, ಬಾಲ್ದಿ, ಹರಿವಾಣ, ಬೀಸಣಿಗೆ, ಲೋಟ ಮುಂತಾದ
ಸುಲಭಾಕಾರದ ಹಾಗೂ ನಿತ್ಯ ಬಳಕೆಯ ವಸ್ತುಗಳನ್ನೂ, ಮನಸ್ಸನ್ನು
ಆಕರ್ಷಿಸುವಂತಹ ಪತಂಗ, ಹೂ-ಹಣ್ಣು ಮೊದಲಾದವುಗಳನ್ನೂ
ಕರಿಹಲಗೆಯ ಮೇಲೆ ಚಿತ್ರಿಸಿ, ಮಕ್ಕಳಿಂದ ನಕಲು ತೆಗೆಯಿಸುತ್ತಿದ್ದರು.
ಅವುಗಳನ್ನು ಚಿತ್ರಿಸಲು ಆರಂಭಿಸುವ, ಮುಂದುವರಿಸುವ ಮತ್ತು
ಮುಗಿಸುವ ವಿಧಾನಗಳನ್ನು ಬೋಧಿಸುತ್ತಿದ್ದರು. ಪುರಾತನ ಶಿಲ್ಪ~
ಗಳಿಂದ ಆಯ್ದ ಸಮಾನ ಬದಿಗಳುಳ್ಳ ಬಿಡುಗೈ ಚಿತ್ರಗಳನ್ನು ನೋಡಿ
ಚಿತ್ರಿಸಲು ಹೇಳುತ್ತಿದ್ದರು. ವಿದೇಶಗಳಲ್ಲಿ ಕೂಡ ಕಳೆದ ಶತಮಾನದಲ್ಲಿ
ಇದೇ ಚಿತ್ರಪಾಠಕ್ರಮವು ಬಳಕೆಯಲ್ಲಿತ್ತು. ಹಸ್ತಕೌಶಲ್ಯವು ವೃದ್ಧಿ~
ಯಾಗಬೇಕೆಂಬುದು ಅವರ ಉದ್ದೇಶವಾಗಿತ್ತು. ಅವರಿಗೆ ಆಗ ಹೆಚ್ಚು
ಮಂದಿ ಕುಶಲ ಕೆಲಸಗಾರರು ಬೇಕಾಗಿದ್ದರು. ಏಕೆಂದರೆ ಅಂದವಾದ
ಕೈಗಾರಿಕಾವಸ್ತುಗಳಿಗೆ ದೊಡ್ಡ ಮಾರುಕಟ್ಟೆಗಳು ಇರುತ್ತಿದ್ದವು.
ಆದುದರಿಂದ ಎಲ್ಲರೂ ಕಲಾದೃಷ್ಟಿಯುಳ್ಳವರಾಗುವುದು ಅಗತ್ಯವೆನಿ~
ಸಿತ್ತು. ಆದ್ದರಿಂದ ದೇಶದ ಕೈಗಾರಿಕೆ, ವ್ಯಾಪಾರ ಅಭಿವೃದ್ಧಿಯಾ~
ಗುವುವು ಎಂಬ ನಂಬುಗೆಯಿತ್ತು; ಮಾತ್ರವಲ್ಲ, ಸಂಗೀತವನ್ನು ಕೇಳಿ
ಹೃದಯದಲ್ಲಿ ರಸಭಾವವು ಮೂಡುವಂತೆ ಆ ಬಿಡುಗೈಯ ಆಲಂಕಾರಿಕಾ
ನಮೂನಾ ಚಿತ್ರಗಳಲ್ಲಿರುವ (Freehand Ornamental
design) ಸೌಂದಱ್ಯವು ಹೃದಯದಲ್ಲಿ ರಸಭಾವವನ್ನು ಮೂಡಿಸು~
ವುದೆಂದು ಅಂತಹ ಚಿತ್ರಪಾಠವನ್ನು ಸಮರ್ಥಿಸುತ್ತಿದ್ದರು. ಕಲಾಭಿ~
ರುಚಿಯುಳ್ಳ ಮಕ್ಕಳಿಗೆ ಶಾಲೆ ಬಿಟ್ಟೊಡನೆ, ಕಾರ್ಖಾನೆಗಳಲ್ಲಿ ಕೆಲಸ
ದೊರೆಯುತ್ತಿತ್ತು. ಆದಕಾರಣ ವಸ್ತುಗ಼ಳಿಗೆ ಆಕರ್ಷಕ ರೂಪ ಮತ್ತು
ಬಣ್ಣಗಳನ್ನು ಕೊಡುವ ಶಿಕ್ಷಣಕ್ಕೆ ಪ್ರಾಧಾನ್ಯತೆ ಇತ್ತು.</p>

<p>Page 12</p>

<p>ತೋರ ಮತ್ತು ಸಪೂರ ಗೆರೆಗಳ ಪ್ರಯೋಗ, ವಸ್ತುಗಳ ಬೆಳಕು
ನೆರಳುಗಳನ್ನು (light and shade) ತೋರಿಸುವಿಕೆ, ಅಕ್ಷರ
ಚಿತ್ರಣ (lettering), ಮನುಷ್ಯರ, ಪ್ರಾಣಿ-ಪಕ್ಷಿಗಳ ಚಿತ್ರ ರಚಿಸಲು
ಸುಲಭ ವಿಧಾನಗಳನ್ನು ಅಂಗಾಂಗ ಪ್ರಮಾಣಗಳನ್ನು ಕಲಿಸುತ್ತಿದ್ದರು.
ಉತ್ಸಾಹೀ ಶಿಕ್ಷಕರು ವಸ್ತು, ಪಾತ್ರೆಗಳನ್ನು ಇದಿರಿನಲ್ಲಿ ಇಟ್ಟು, ತದ್ರೂಪ
ಚಿತ್ರಿಸಲು ಅಥವಾ ಬಾಲಕರನ್ನು ಹೊರ ಪರಿಸರಕ್ಕೆ ಕರೆದುಕೊಂಡು
ಹೋಗಿ, ಇದಿರಿನ ಪ್ರಕೃತಿದೃಶ್ಯವನ್ನು ರಚಿಸಲು ಕಲಿಸುತ್ತಿದ್ದರು.
ಮಕ್ಕಳು ಚಿತ್ರಗಳಲ್ಲಿ ಏನೆಲ್ಲಾ ತಪ್ಪುಗಳನ್ನು ಮಾಡಬಹುದೆಂಬು~
ದನ್ನು ಅಧ್ಯಾಪಕರು ಮುಂದಾಗಿ ಯೋಚಿಸಿ, ಅವುಗಳ ನಿವಾರಣೆಗಾಗಿ
ಎಚ್ಚರಿಕೆ ನೀಡುತ್ತಿದ್ದರು. ಅನಂತರ ವಿದ್ಯಾರ್ಥಿಗಳಿಗೆ ಚಿತ್ರಮಾಡಲು
ಹೇಳುತ್ತಿದ್ದರು. ಅಧ್ಯಾಪಕರದ್ದೇ ವಿಶೇಷ ಕೆಲಸ. ಮಕ್ಕಳಿಗೆ ಎಲ್ಲ
ಸಿದ್ಧತೆ ಮಾಡಿಕೊಡುತ್ತಿದ್ದರು. ನಕಲು ಪ್ರತಿ ತೆಗೆಯುವುದೊಂದೇ
ಮಕ್ಕಳ ಕೆಲಸ. ಕಲ್ಪನಾಶಕ್ತಿಗೆ ಏನೂ ಕೆಲಸವಿಲ್ಲ. ತರಗತಿಯ~
ಲ್ಲೇನೋ ಒಂದು ಶಿಸ್ತು, ವ್ಯವಸ್ಥೆ ತೋರಬಹುದು. ಕಾರ್ಖಾನೆ~
ಯಲ್ಲಿ ತಯಾರಾದ ಎಲ್ಲ ವಸ್ತುಗಳೂ ಒಂದೇ ತರಹದವುಗಳಾಗಿರು~
ವಂತೆ, ಇಡೀ ತರಗತಿಯ ಎಲ್ಲಾ ಮಕ್ಕಳಿಂದಲೂ ಕಾಗದಗಳ ಮೇಲೆ
ಏಕರೂಪದ ಚಿತ್ರ ತಯಾರಿಕೆಯು ನಡೆಯುತ್ತಿತ್ತು.  ಆ ಪಾಠಕ್ರಮ~
ವನ್ನು ಬೆಂಬಲಿಸುವವರು, 16 ನೆಯ ಶತಮಾನದ ಪ್ರತಿಭಾಶಾಲಿ
ಕಲಾವಿದನಾದ ಲಿಯೊನಾರ್ಡೊ ಡಾ ವಿಂಚಿಯ ಈ ಕೆಳಗಿನ ಮಾತು~
ಗಳನ್ನು ಉಲ್ಲೇಖಿಸಿ ಸಮರ್ಥಿಸುತ್ತಾರೆ :</p>

<p>",0
</p></body></text></cesDoc>