<cesDoc id="kan-w-socsci-admin-educatn3" lang="kan">
<cesHeader type="text">
<fileDesc>
<titleStmt>
<h.title>kan-w-socsci-admin-educatn3.txt</h.title>
<respStmt>
<respType>Electronic file created by</respType>
<respName>Central Institute for Indian Languages, Mysore</respName>
<respType>transferred into Unicode and CES format by</respType>
<respName>"Unicodify" software by Andrew Hardie</respName>
</respStmt></titleStmt>
<publicationStmt>
<distributor>UCREL (on behalf of CIIL)</distributor>
<pubAddress>Department of Linguistics, Lancaster University, Lancaster, LA1 4YT, UK</pubAddress>
<availability region="WORLD"></availability>
<pubDate>03-05-21</pubDate>
</publicationStmt>
<sourceDesc>
<biblStruct>
<monogr>
<h.title>ಶೈಕ್ಷಣಿಕ ಸಂಘಟನೆ ಆಡಳಿತ ಮತ್ತು ಸಮಸ್ಯೆಗಳು</h.title>
<h.author>ಪ್ರಾ. ಎ.ಎಸ್. ನಂಜುಂಡಸ್ವಾಮಿ</h.author>
<imprint>
<pubPlace>India</pubPlace>
<publisher>Unknown - Book</publisher>
<pubDate>1984</pubDate>
</imprint>
<idno type="CIIL code">educatn3</idno>
</monogr></biblStruct></sourceDesc></fileDesc>
<encodingDesc>
<projectDesc>Text collected for the CIIL Corpus, subsequently integrated into the EMILLE/CIIL Monolingual Written Corpora.</projectDesc>
<samplingDesc>Simple written text only has been transcribed. Diagrams, pictures and tables have been omitted. Sampling begins at page 30.</samplingDesc>
<editorialDecl><conformance level="1"></conformance></editorialDecl>
</encodingDesc>
<profileDesc>
<creation><date>03-05-21</date></creation>
<langUsage>Kannada</langUsage>
<wsdUsage>
<writingSystem id="ISO/IEC 10646">Universal Multiple-Octet Coded Character Set (UCS).</writingSystem>
</wsdUsage>
<textClass>
<channel mode="w">print</channel>
<constitution type="composite"></constitution>
<domain type="public"></domain>
<factuality type="fact"></factuality>
</textClass>
<translations></translations>
</profileDesc>
<revisionDesc></revisionDesc>
</cesHeader>

<text><body>

<p>
Page 85
ಅಂದಿನ ಸಂಜೆಯ ಮುಕ್ತಾಯದ ಬಾಕಿಯನ್ನೂ ಸೂಚಿಸಬೇಕು. ಹಣದ ಪುಸ್ತಕದಲ್ಲಿ
ತೋರಿಸುವ ಮೊತ್ತವು, ಇತರ ದಪ್ತರುಗಳಲ್ಲಿ ತೋರಿಸುವ ಮೊತ್ತಕ್ಕೆ
ಸಮಾನವಾಗಿರಬೇಕು.</p>

<p>ಆಯಾ ದಿನದ ಆಯ-ವ್ಯಯಗಳಿಗಾಗಿ ಮತ್ತೊಂದು ಹಣದ ಪುಸ್ತಕ~
ವನ್ನು ಪ್ರತ್ಯೇಕವಾಗಿಟ್ಟು, ಒಟ್ಟು ಮೊತ್ತವನ್ನು ಅದರಲ್ಲಿ ತೋರಿಸಬಹುದು.
ಕಳುಹಿಸಿದ ಹಣಕ್ಕೆ ಸಂಬಂಧಿಸಿದ ದಾಖಲೆಯ ಪುಸ್ತಕ~
ದಲ್ಲಿ ದಿನಾಂಕ, ಹಣದ ಮೊತ್ತ, ಅದನ್ನು ಯಾವ ರೂಪದಲ್ಲಿ ಕಳು~
ಹಿಸಲಾಯಿತು, ಯಾವ ಬ್ಯಾಂಕ್ ಅಥವಾ ಖಜಾನೆಗೆ ಜಮಾ ಮಾಡ~
ಲಾಯಿತು, ವ್ಯಕ್ತಿಗೆ ಹಣವನ್ನು ಕಳುಹಿಸಿದಲ್ಲಿ ಅವರ ಹೆಸರು ಮತ್ತು ವಿಳಾಸ
ಇತ್ಯಾದಿ ವಿವರಗಳನ್ನು ಬರೆದಿಡಬೇಕು.</p>

<p>ವೇತನದ ಲೆಕ್ಕದ ಪಟ್ಟಿಗಾಗಿ ಪ್ರತ್ಯೇಕ ದಪ್ತರನ್ನು ತೆಗೆದು, ಎಲ್ಲ
ವಿವರಗಳನ್ನೂ ಬರೆದು ಲೆಕ್ಕದ ಪಟ್ಟಿಯ ಪ್ರತಿಯೊಂದನ್ನು ಅದಕ್ಕೆ ಲಗತ್ತಿಸ~
ಬಹುದು. ಪ್ರತಿ ತಿಂಗಳಿನ ಒಟ್ಟಾರೆ ಮೊತ್ತಕ್ಕೆ ಸಂಬಂಧಿಸಿದ ದಾಖಲೆ
ಪುಸ್ತಕವೊಂದನ್ನು ಇಟ್ಟು, ಒಂದೊಂದು ಬಾಬನ್ನು ವಿಂಗಡಿಸಿ ತೋರಿಸಬಹುದು.</p>

<p>2) ಶೈಕ್ಷಣಿಕ ದಾಖಲೆಗಳು: ವಿದ್ಯಾರ್ಥಿಗಳ ಹಾಜರಾತಿ ದಪ್ತರ,
ಶಿಕ್ಷಕರುಗಳ ಹಾಜರಾತಿ ದಪ್ತರ,
ವೇಳಾಪಟ್ಟಿ ದಾಖಲೆ, ಪರೀಕ್ಷಾ ಫಲಿತಾಂಶಗಳ ದಾಖಲೆ, ತಿಂಗಳ ಪ್ರಗತಿ
ದಪ್ತರ, ಖಾಸಗಿ ಕಲಿಸುವಿಕೆಯ ದಪ್ತರ, ಬಹಿರಂಗ
ಪರೀಕ್ಷೆ ದಪ್ತರ, ಶಿಕ್ಷಕರುಗಳ ದಿನಚರಿಗಳು ಮತ್ತು ಸಮುಚ್ಚಾಯಿಕ ದಾಖಲೆ~
ಗಳು ಶೈಕ್ಷಣಿಕ ದಾಖಲೆಗಳ ಪೈಕಿ
ಸೇರಿವೆ.</p>

<p>ವಿದ್ಯಾರ್ಥಿಗಳ ಹಾಜರಾತಿ ಪುಸ್ತಕದಲ್ಲಿ ಅವರ ಹೆಸರು, ತರಗತಿ ಮತ್ತು
ವಿಭಾಗಗಳನ್ನು ಬರೆಯಲಾಗುವುದು. ಪ್ರತಿ ದಿನಾಂಕಕ್ಕೂ ಅಂಕಿಗಳ ಸಾಲು
ಇರುವುದು. ರಜಾ ದಿನಗಳನ್ನು ಆಯಾ ದಿನಾಂಕದ ಅಂಕಿಗಳ ಸಾಲಿನಲ್ಲಿ
ಸೂಚಿಸಲಾಗುವುದು. ಕೊನೆಯಲ್ಲಿ ಶಾಲೆ೟ು ಕೆಲಸಮಾಡಿದ ದಿನಗಳ
Page 86
ಸಂಖ್ಯೆಯನ್ನೂ ಆಯಾ ವಿದ್ಯಾರ್ಥಿಯು ಹಾಜರಾಗಿದ್ದ ದಿನಗಳ ಸಂಖ್ಯೆ
ಬರೆಯಬೇಕಾಗುವುದು. ಹಾಜರಾತಿ ತೆಗೆದುಕೊಳ್ಳುವ ಉಪಾಧ್ಯಾಯರು,
ಆಯಾ ದಿನಾಂಕದ ಹಾಜರಾತಿಯ ಕೊನೆಯಲ್ಲಿ ತಮ್ಮ ಸಂಕ್ಷಿಪ್ತ ರುಜುವನ್ನು
ಹಾಕಬೇಕು.</p>

<p>ಶಿಕ್ಷಕರುಗಳ ಹಾಗೂ ಸಾಮಾನ್ಯ ಉದ್ಯೋಗಸ್ಥರುಗಳ ಹಾಜರಾತಿಯ
ದಪ್ತರದಲ್ಲಿ ಹೆಸರುಗಳು, ವಿದ್ಯಾರ್ಹತೆಗಳು, ಹುದ್ದೆಗಳು ಮುಂತಾದ ವಿವರ~
ಗಳನ್ನು ಮೊದಲು ಕೊಡುವ ವಾಡಿಕೆಯಿದೆ. ದಿನಾಂಕಗಳಿಗೆ ಸಂಬಂಧಿಸಿದ
ಅಂಕಿಸಾಲಿನಲ್ಲಿ ನೌಕರರುಗಳು ತಮ್ಮ ಸಂಕ್ಷಿಪ್ತ ಸಹಿಯನ್ನು ಹಾಕುವರು.
ರಜಾದಿನಗಳು ಬಂದಲ್ಲಿ ಅವನ್ನು ಅದರಲ್ಲಿ ಸೂಚಿಸಲಾಗುವುದು. ತಿಂಗಳ
ಕೊನೆಯಲ್ಲಿ, ಒಬ್ಬೊಬ್ಬರು ಅಂದಿನವರೆಗೆ ಎಷ್ಟು ದಿವಸಗಳ ಆಕಸ್ಮಿಕ
ರಜೆಗಳನ್ನು ಇನ್ನೂ ಪಡೆಯಲು ಸಾಧ್ಯವಿದೆ ಎಂಬ ಸಂಖ್ಯೆ~
ಯನ್ನು ಕೊಡಲಾಗುವುದು   ರಜೆ - ಚೀಟಿಗಳನ್ನು ಸಂಬಂಧಪಟ್ಟ ಗುಮಾಸ್ತನು
ಸಂರಕ್ಷಿಸಬೇಕಾಗುತ್ತದೆ.</p>

<p>ಇಡೀ ಶಾಲೆಯ ವೇಳಾಪಟ್ಟಿಯನ್ನು ತಯಾರಿಸಿ, ಮುಖ್ಯೋಪಾಧ್ಯಾ~
ಯರ ಕೊಠಡಿಯಲ್ಲೂ ಶಿಕ್ಷಕರುಗಳ ಕೊಠಡಿಯಲ್ಲೂ ಗೋಡೆಗೆ ತಗಲು
ಹಾಕುವ ಪದ್ಧತಿಯಿದೆ. ಪ್ರತಿಯೊಂದು ತರಗತಿಯ ಕೊಠಡಿಯಲ್ಲೂ ಆ
ತರಗತಿಗೆ ಮಾತ್ರ ಅನ್ವಯಿಸುವ ವೇಳಾಪಟ್ಟಿಯನ್ನು ಗೋಡೆಯ ಮೇಲೆ
ಪ್ರದರ್ಶಿಸಲಾಗುವುದು.</p>

<p>ಪರೀಕ್ಷೆಗಳ ಫಲಿತಾಂಶಗಳಿಗೆ ಸಂಬಂಧಿಸಿದ ವಿವರಗಳನ್ನೊಳಗೊಂಡ
ದಾಖಲೆ - ಪುಸ್ತಕವೊಂದು ಅನಿವಾಱ್ಯವಾಗಿದೆ. ಇದನ್ನು ಅಂಕಗಳ
ದಪ್ತರವೆಂದು ಕರೆಯುವುದೂ ಉಂಟು. ಈ ಪುಸ್ತಕದಲ್ಲಿ ಎಲ್ಲ
ತರಗತಿಗಳ ಎಲ್ಲ ವಿಭಾಗಗಳ ವಿದ್ಯಾರ್ಥಿಗಳ ಹೆಸರುಗಳು ಪರೀಕ್ಷಿಸಲ್ಪಟ್ಟ
ವಿಷಯಗಳು, ವಿದ್ಯಾರ್ಥಿಗಳು ಗಳಿಸಿದ ಅಂಕಗಳು, ಸರಾಸರಿ ಶೇಕಡಾವಾರು
ಅಂಕಗಳು, ಪ್ರತಿಯೊಂದು ವಿಷಯದಲ್ಲಿ ವಿದ್ಯಾರ್ಥಿಗಳು ಗಳಿಸಿದ ಅಂಕಗಳ
ಅಂತರ, ಪ್ರಥಮ ದರ್ಜೆಯಲ್ಲಿ ಉತ್ತೀರ್ಣರಾದವರ ಸಂಖ್ಯೆ,
Page 87
ದ್ವಿತೀಯ ದರ್ಜೆ ಮತ್ತು ತೃತೀಯ ದರ್ಜೆಗಳಲ್ಲಿ ಉತ್ತೀರ್ಣರಾದವರ ಸಂಖ್ಯೆ
ಮುಂತಾದ ವಿವರಗಳನ್ನು ಬರೆದಿಡುವ ವಾಡಿಕೆಯಿದೆ.</p>

<p>ಎಸ್.ಎಸ್.ಎಲ್.ಸಿ. ಪರೀಕ್ಷೆಯು ಬಾಹ್ಯ ಪರೀಕ್ಷೆಯಾದ್ದರಿಂದ
ಅದಕ್ಕೆ ಕುಳಿತಿದ್ದ ವಿದ್ಯಾರ್ಥಿಗಳ ಹೆಸರು, ವಿವಿಧ ವಿಷಯಗಳಲ್ಲಿ ಅವರು
ಗಳಿಸಿದ ಅಂಕಗಳು, ವಿವಿಧ ದರ್ಜೆಗಳಲ್ಲಿ ತೇರ್ಗಡೆಯಾದ ವಿದ್ಯಾರ್ಥಿಗಳ ಸಂಖ್ಯೆ,
ಸರಾಸರಿ ಶೇಕಡಾವಾರು ಅಂಕಗಳು ಮುಂತಾದ ಅಂಕಗಳನ್ನು ಬರೆದಿಡಲು
ಪ್ರತ್ಯೇಕ ದಪ್ತರವೊಂದನ್ನು ಅನೇಕ ಶಾಲೆಗಳು ತೆರೆದಿವೆ. ಶಾಲೆಯ ಶೈಕ್ಷಣಿಕ
ಪ್ರಗತಿಯ ಇತಿಹಾಸವನ್ನು ತಿಳಿದುಕೊಳ್ಳಲು ಈ ದಪ್ತರಕ್ಕೆ ಮೊರೆಹೋಗ~
ಬೇಕಾಗುತ್ತದೆ.</p>

<p>ಶಾಲೆಗಳು ಅದರಲ಼್ಲೂ ಖಾಸಗಿ ಶಾಲೆಗಳು ವಾರಕ್ಕೊಮ್ಮೆಯೋ ಪಕ್ಷಕ್ಕೊ~
ಮ್ಮೆಯೋ ಉಪ-ಪರೀಕ್ಷೆಗಳನ್ನು ನಡೆಸಿ, ಆಯಾ ತಿಂಗಳ ಪ್ರಗತಿಯ
ವರದಿಯನ್ನು ಪೋಷಕರಿಗೆ ಕಳುಹಿಸಿಕೊಡುವುದಕ್ಕಾಗಿ, ತಿಂಗಳ - ಪ್ರಗತಿ
ದಪ್ತರವೊಂದನ್ನು ಇಡುವುದುಂಟು. ಅದರಲ್ಲಿ ವಿದ್ಯಾರ್ಥಿಗಳ ಹೆಸರು, ತರಗತಿ,
ವಿವಿಧ ವಿಷಯಗಳಲ಼್ಲಿ ಅವರು ಗಳಿಸಿದ ಅಂಕಗಳು ಮುಂತಾದ ವಿವರಗಳನ್ನು
ಬರೆದಿಡಲಾಗುವುದು.</p>

<p>ಶಿಕ್ಷಣ ಇಲಾಖೆ೟ು ಖಾಸಗಿ ಕಲಿಸುವಿಕೆಯ ಬಗೆಗೆ ನಿರ್ಬಂಧಗ಴ನ್ನು
ವಿಧಿಸಿರುವುದರಿಂದ, ಆ ನಿಯಮಗಳನ಼್ನು ಕಟ್ಟುನಿಟ್ಟಾಗಿ ಪಾಲಿಸುವುದ~
ಕ್ಕೋಸ್ಕರ ಖಾಸಗಿ ಕಲಿಸುವಿಕೆ - ದಪ್ತರನ್ನು ಇಡ಼ಬಹುದು. ಅದರಲ್ಲಿ ಶಿಕ್ಷಕರು~
ಗಳ ಹೆಸರು, ಅವರ ಮನೆಗೆ ಪಾಠ ಹೇಳಿಸಿಕೊಳ್ಳಲು ಹೋಗುವ ವಿದ್ಯಾರ್ಥಿಗಳ
ಹೆಸರುಗಳು, ಅವರ ತರಗತಿಗಳು, ಶಿಕ್ಷಕರು ಇಲಾಖೆಯ ಅಧಿಕಾರಿಗಳಿಂದ
ವಿಶೇಷ ಅನುಮತಿಯನ್ನು ಪಡೆದಿದ್ದರೆ, ಅವಕ್ಕೆ ಸಂಬಂಧಿಸಿದ ವಿವರಗಳು
ಅಥವಾ ಅನುಮತಿ ಪತ್ರದ ಒಂದು ಪ್ರತಿ ಮುಂತಾದವುಗಳನ್ನು ಕೊಡಬೇಕು.</p>

<p>ಶಿಕ್ಷಕರ ದಿನಚರಿಗಳು ಶೈಕ್ಷಣಿಕ ದಾಖಲೆಗಳ ಪೈಕಿ ಒಂದಾಗಿದೆ.
ಅದರಲ್ಲಿ ಅವರು ಆಯಾ ತಿಂಗಳಿನ ಅಂತ್ಯದಲ್ಲಿ ಎಲ್ಲಿಯವರೆಗೆ ಪಠ್ಯವಸ್ತುವನ್ನು
ಬೋಧಿಸಿದರೆಂಬುದರ ವಿವರಗಳನ್ನೂ, ಒಂದು ವೇಳೆ ತಮ್ಮ ಗುರಿಯನ್ನು
Page 88
ಮುಟ್ಟದಿದ್ದಲ್ಲಿ ಅದಕ್ಕೆ ಕಾರಣಗಳನ್ನೂ ಬರೆದಿಡಬೇಕು. ಮುಖ್ಯೋಪಾಧ್ಯಾ~
ಯರು ಅಥವಾ ನಿರೀಕ್ಷಣಾಧಿಕಾರಿಗಳು ಒತ್ತಾಯಪಡಿಸಿದರೆ, ಈ ದಿನಚರಿ
ಪುಸ್ತಕಗಳನ್ನು ಅವರುಗಳಿಗೆ ಒಪ್ಪಿಸಬೇಕಾಗುತ್ತದೆ.</p>

<p>ಸಮುಚ್ಚಾಯಕ ದಾಖಲೆಗಳನ್ನು ಒಂದೆರಡು ದಶಕಗಳಿಂದ ಶಾಲೆಯಲ್ಲಿ
ಸಂರಕ್ಷಿಸುವ ಪದ್ಧತಿ ಬೆಳೆದುಕೊಂಡು ಬಂದಿದೆ. ಒಬ್ಬ ವಿದ್ಯಾರ್ಥಿಯು
ಎಂಟನೆಯ ತರಗತಿಗೆ ದಾಖಲಾದಾಗಿನಿಂದ, ಅವನು ಹತ್ತನೆಯ ತರಗತಿಯ
(ಎಸ್.ಎಸ್.ಎಲ್.ಸಿ.) ಬಾಹ್ಯ ಪರೀಕ್ಷೆಯಲ್ಲಿ ಉತ್ತೀರ್ಣನಾಗಿಯೋ
ಅನುತ್ತೀರ್ಣನಾಗಿಯೋ - ಶಾಲೆಯನ್ನು ಬಿಟ್ಟು ಹೋಗುವವರೆಗೆ, ವಿವಿಧ
ಕಾರ್ಯಕ್ರಮಗಳಲ್ಲಿಯೂ, ಚಟುವಟಿಕೆಗಳಲ್ಲಿಯೂ ಅವನು ತೋರಿಸಿದ ಪ್ರಗತಿ~
ಯನ್ನು ಅಥವಾ ಅದರ ಅಭಾವವನ್ನು ಈ ದಾಖಲೆಗಳು ತೋರಿಸುತ್ತವೆ.
ವಿದ್ಯಾರ್ಥಿಯ ಹೆಸರು, ವಯಸ್ಸು, ಜನ್ಮದಿನಾಂಕ, ಗುರುತಿಸಲು ನೆರವಾಗುವ
ಚಿಹ್ನೆಗಳು, ಅವನ ಶಾರೀರಿಕ ಬೆಳವಣಿಗೆಯ ಅಂಕಿ-ಅಂಶಗಳು, ಪರೀಕ್ಷೆಗಳಲ್ಲೂ
ಉಪ-ಪರೀಕ್ಷೆಗಳಲ್ಲೂ ಅವನು ಗಳಿಸಿದ ಅಂಕಗಳು, ಅವನ ಸ್ವಭಾವ, ನಡತೆ~
ಗಳ ಬಗ್ಗೆ ಉಪಾಧ್ಯಾಯರು ಅವಲೋಕಿಸಿರಬಹುದಾದ ಅಂಶಗಳು ಮುಂತಾ~
ದವುಗಳನ್ನು ಈ ದಾಖಲೆಯಲ್ಲಿ ತೋರಿಸುವಷ್ಟು ವಿಶಾಲ ವ್ಯಾಪ್ತಿಯಿದೆ.</p>

<p>4) ಸಲಕರಣೆ : ದಾಸ್ತಾನು ದಪ್ತರ,
ಪುಸ್ತಕಭಂಡಾರದ ಗ್ರಂಥಗಳ ಪಟ್ಟಿ, ಸೇರಿಕೆ ದಪ್ತರ,
ಪುಸ್ತಕ ಮತ್ತು ಪತ್ರಿಕೆಗಳ ಬಹಿರ್ಗಮನ ದಪ್ತರ, ಕ್ರೀಡಾ
ಸಾಮಗ್ರಿಗಳ ದಾಸ್ತಾನು ಮತ್ತು ಬಹಿರ್ಗಮನ ಪುಸ್ತಕ ಈ ಗುಂಪಿಗೆ ಸೇರು~
ತ್ತವೆ.</p>

<p>ದಾಸ್ತಾನು ದಪ್ತರದಲ್ಲಿ ಶಾಲೆಯ ಚರ ಆಸ್ತಿಯ ವಿವರಗಳನ್ನು ಕೊಡ~
ಬೇಕಾಗುತ್ತದೆ. ವಿವಿಧ ಬಗೆಯ ಉಪಕರಣಗಳ ಮತ಼್ತು ಪೀಠೋಪಕರಣಗಳ
ಸಂಖ್ಯೆ, ಅವುಗಳ ಬೆಲೆ, ಅವುಗಳನ್ನು ಕೊಂಡ ದಿನಾಂಕ, ಅವುಗಳಿಗಾಗಿ
ಹಣವನ್ನು ಪಾವತಿ ಮಾಡಿದ ದಿನಾಂಕ ಇತ್ಯಾದಿ ವಿವರಗಳನ್ನು ಬರೆದಿಡಬೇಕಾ~
ಗಿದೆ. ವರ್ಷಕ್ಕೊಮ್ಮೆಯಾದರೂ ಮುಖ್ಯೋಪಾಧ್ಯಾಯರು ಸ್ವತಃ ಇಲ್ಲವೆ
Page 89
ಸಹೋದ್ಯೋಗಿಗಳ ನೆರವಿನಿಂದ ದಾಸ್ತಾನಿನ ತಪಾಸಣೆ ಮಾಡಬೇಕು. ಅದು
ಸರಿಯಾಗಿದ್ದಲ್ಲಿ ತಪಾಸಣೆ ಮಾಡಿದ ದಿನಾಂಕ, ಮಾಡಿದವರ ಹೆಸರು ಮುಂತಾ~
ದವುಗಳನ್ನು ಬರೆದು, ಅವರ ಸಹಿ ಹಾಕಬೇಕು. ದಾಸ್ತಾನಿನಲ್ಲಿ ವ್ಯತ್ಯಾಸ~
ವಿದ್ದಲ್ಲಿ ವಿವರಣೆಯನ್ನು ಕೊಡಬೇಕಲ್ಲದೆ, ಆ ವ್ಯತ್ಯಾಸಕ್ಕೆ ಕಾರಣರಾದವರ
ಮೇಲೆ ಕೈಗೊಂಡ ಕ್ರಮವನ್ನು ತಿಳಿಸಬೇಕು. ಆಯಾ ತರಗತಿಯ ಕೊಠಡಿ~
ಯಲ್ಲಿರುವ ವಸ್ತುಗಳ ಪಟ್ಟಿಯೊಂದನ್ನು ಸಿದ್ಧಪಡಿಸಿಟ್ಟರೆ ತಪಾಸಣೆಯು ಸುಲಭ~
ವಾಗುವುದು.</p>

<p>ಶಾಲೆಯ ಪುಸ್ತಕಭಂಡಾರದಲ್ಲಿ ಗ್ರಂಥಗಳನ್ನು ವರ್ಗೀಕರಣ ಮಾಡಿ,
ಪ್ರತ್ಯೇಕ ಕಪಾಟುಗಳಲ್ಲೋ, ಬೀರುಗಳಲ್ಲೋ ಅವನ್ನು ಶೇಖರಿಸಿಡುವುದರ
ಜೊತೆಗೆ ಗ್ರಂಥಗಳ ಪಟ್ಟಿಗಳನ್ನು ತಯಾರಿಸಿ, ಅವುಗಳ ಒಂದೊಂದು ಪ್ರತಿ~
ಯನ್ನು, ಅವನ್ನು ಇಟ್ಟಿರುವ ಕಪಾಟು ಅಥವಾ ಬೀರುಗಳ ಮೇಲೆ ನೇತು
ಹಾಕಬೇಕು.</p>

<p>ಪುಸ್ತಕ ಭಂಡಾರಕ್ಕೆ ಕೊಳ್ಳುವ ಗ್ರಂಥಗಳಿಗೆ ಸಂಬಂಧಿಸಿದ ವಿವರಗಳಿ~
ಗಾಗಿ ಸೇರಿಕೆ ದಪ್ತರದ ಅಗತ್ಯವಿದೆ. ಅದರಲ್ಲಿ ಪುಸ್ತಕದ ಸೇರಿಕೆಯ ಸಂಖ್ಯೆ,
ಹೆಸರು, ಗ್ರಂಥಕರ್ತನ ಹೆಸರು, ಆವೃತ್ತಿಯ ಸಂಖ್ಯೆ, ಬೆಲೆ, ಪ್ರಕಟನೆಯ
ವರ್ಷ ಇತ್ಯಾದಿ ವಿವರಗಳನ್ನು ಬರೆದಿಡಬೇಕಾಗುವುದು. ಪುಸ್ತಕಗಳನ್ನು
ಕೊಂಡಿದ್ದುದಕ್ಕೆ ಪಡೆದಿರುವ ರಸೀದಿಗಳನ್ನು ಸಂರಕ್ಷಿಸಬೇಕು. ವರ್ಷಕ್ಕೊಮ್ಮೆ
ಪುಸ್ತಕಭಂಡಾರದ ದಾಸ್ತಾನಿನ ತಪಾಸಣೆಯಾಗಬೇಕು.</p>

<p>ವಿದ್ಯಾರ್ಥಿಗಳಿಗೆ ಪುಸ್ತಕಗಳನ್ನೂ ನಿಯತಕಾಲಿಕ ಪತ್ರಿಕೆಗಳನ್ನೂ
ಎರವಲು ಕೊಡುವುದಕ್ಕಾಗಿ ಇಟ್ಟಿರುವ ದಾಖಲೆಯೇ ಬಹಿರ್ಗಮನ ದಪ್ತರ.
ಅದರಲ್ಲಿ ವಿದ್ಯಾರ್ಥಿಯ ಹೆಸರು, ತರಗತಿ ಮತ್ತು ವಿಭಾಗ, ಗ್ರಂಥದ ಸೇರಿಕೆಯ
ಸಂಖ್ಯೆ; ಗ್ರಂಥದ ಹೆಸರು ಮತ್ತು ಎರವಲು ನೀಡಿದ ದಿನಾಂಕಗಳನ್ನು ಬರೆಯು~
ವುದಲ್ಲದೆ, ಎರವಲು ಪಡೆದವನ ಸಹಿಯನ್ನು ಹಾಕಿಸಿಕೊಳ್ಳಬೇಕು. ಮುಂದೆ
ಆತನು ಪುಸ್ತಕವನ್ನು ಹಿಂತಿರುಗಿಸಿದ ದಿನಾಂಕವನ್ನು ಬರೆದು, ಗ್ರಂಥಾಲಯದಲ್ಲಿ
ಅಧಿಕಾರಿಯು ತನ್ನ ಸಹಿಯನ್ನು ಹಾಕಬೇಕು.</p>

<p>Page 90</p>

<p>ಕ್ರೀಡಾಸಾಮಗ್ರಿಗಳ ದಾಸ್ತಾನು ಮತ್ತು ಎರವಲು ಕೊಡುವುದರ
ಬಗೆಗೆ ಪ್ರತ್ಯೇಕ ದಪ್ತರಗಳನ್ನು ತೆರೆಯಬೇಕಾಗಿದೆ. ಅದರಲ್ಲಿ ಕ್ರೀಡಾ
ಸಾಮಗ್ರಿಗಳ ಹೆಸರುಗಳು, ಅವುಗಳ ಕ್ರಮಸಂಖ್ಯೆ, ಕೊಂಡ ದಿನಾಂಕ, ಬೆಲೆ,
ಹಣವನ್ನು ಪಾವತಿ ಮಾಡಿದುದಕ್ಕೆ ಸಂಬಂಧಿಸಿದ ವಿವರಗಳು ಇತ್ಯಾದಿಗಳನ್ನು
ಬರೆದಿಡಬೇಕು.</p>

<p>ವಿದ್ಯಾರ್ಥಿಗಳಿಗೆ ಕ್ರೀಡಾಸಾಮಗ್ರಿಗಳನ್ನು ಎರವಲು ಕೊಡುವುದಕ್ಕಾಗಿ,
ದಪ್ತರವೊಂದನ಼್ನಿಟ್ಟು, ಅದರಲ್ಲಿ ವಿದ್ಯಾರ್ಥಿಯ ಹೆಸರು, ತರಗತಿ ಮತ್ತು
ವಿಭಾಗ, ಎರವಲು ಕೊಟ್ಟು, ಸಾಮಗ್ರಿಯ ಹೆಸರು ಮತ್ತು ದಿನಾಂಕ ಮುಂತಾ~
ದವುಗಳನ್ನು ಬರೆದು ಅದನ್ನು ವಾಪಸು ಪಡೆದವರು ತಮ್ಮ ಸಹಿಯನ್ನು
ಹಾಕಬೇಕು.</p>

<p>5) ಪತ್ರವ್ಯವಹಾರ : ಪತ್ರವ್ಯವಹಾರಕ಼್ಕೆ ಸಂಬಂಧಿಸಿದ ದಾಖಲೆ~
ಗಳೆಂದರೆ `ಇಂದ' ಮತ್ತು `ಗೆ' ದಪ್ತರ ಮುದ್ದಾಂ ಟಪಾಲು ಪುಸ್ತಕ, ಇಲಾ~
ಖೆಯ ಸುತ್ತೋಲೆಗಳ ಮತ್ತು ಆಜ್ಞೆಗಳ ಕಡತ, ಆಕಸ್ಮಿಕ ರಜೆ ಮಂಜೂರಾ~
ತಿಯ ದಪ್ತರ ಇತ್ಯಾದಿ.</p>

<p>ಶಾಲೆಗೆ ಬಂದ ಪತ್ರಗಳ ಮತ್ತು ಶಾಲೆಯಿಂದ ಕಳುಹಿಸಲ್ಪಟ್ಟ ಪತ್ರಗಳ
ದಿನಾಂಕ, ವಿಳಾಸ, ವಿಷಯ ಮುಂತಾದ ವಿವರಗಳನ್ನು ಸಂಬಂಧಪಟ್ಟ
ಗುಮಾಸ್ತನು `ಇಂದ' ಮತ್ತು `ಗೆ' ಪುಸ್ತಕದಲ್ಲಿ ಬರೆದಿಡಬೇಕು.</p>

<p>ಶಾಲೆಯ ಪತ್ರವನ್ನು ಸ್ಥಳದಲ್ಲಿರುವ ಬೇರೆ ಕಾರ್ಯಾಲಯಕ್ಕೆ ಅಥವಾ
ವ್ಯಕ್ತಿಗೆ ಪ್ರತ್೟ಕ್ಷವಾಗಿ ಕಳುಹಿಸುವುದಾದಲ಼್ಲಿ, ಆ ಪತ್ರದ ಅನುಕ್ರಮ ಸಂಖ್ಯೆ,
ವಿಳಾಸ ಮುಂತಾದವುಗಳನ್ನು ಮುದ್ದಾಂ ಟಪಾಲು ಅನುಕ್ರಮ ಸಂಖ್ಯೆ,
ವಿಳಾಸ ಮುಂತಾದವುಗಳನ್ನು ಮುದ್ದಾಂ ಟಪಾಲು ಪುಸ್ತಕದಲ್ಲಿ ಬರೆದು,
ಅದನ್ನು ಸೇವಕನ ಮೂಲಕ ಸಂಬಂಧಪಟ್ಟವರಿಗೆ ತಲುಪಿಸಬಹುದು. ವಿಳಾಸ~
ದಾರರು ಅಥವಾ ಅವರ ಪರವಾಗಿ ಪತ್ರವನ್ನು ಸ್ವೀಕರಿಸುವವರು ಆ ಪುಸ್ತಕದಲ್ಲಿ
ತಮ್ಮ ಸಹಿಯನ್ನು ಹಾಕಬೇಕು.</p>

<p>ಶಿಕ್ಷಣ ಇಲಾಖೆಯಿಂದ ಬಂದ ಪತ್ರಗಳು ಮತ್ತು ಸುತ್ತೋಲೆಗಳ ಮೇಲೆ
ಮುಖ್ಯೋಪಾಧ್ಯಾ೟ನು ತನ್ನ ಸಂಕ್ಷಿಪ್ತ ಸಹಿಯನ್ನು ಹಾಕುವುದಲ್ಲದೆ,
Page 91
ಅವು ತಲುಪಿದ ದಿನಾಂಕವನ್ನು ಬರೆದು ಒಂದು ಕಡತದಲ್ಲಿ ಸಂಗ್ರಹಿಸಿಡಬೇಕು.
ಕೆಲವು ರೀತಿಯ ಸುತ್ತೋಲೆಗಳನ್ನು ಶಿಕ್ಷಕರುಗಳಿಗೂ ತೋರಿಸಿ, ಅವರುಗಳ
ಸಹಿಯನ್ನು ಹಾಕಿಸಿಕೊಳ್ಳಬೇಕಾಗುತ್ತದೆ.</p>

<p>ಇಲಾಖೆಯಿಂದ ಬರುವ ಪತ್ರಗಳನ್ನು ಮತ್ತು ಸುತ್ತೋಲೆಗಳನ್ನು
ವರ್ಗೀಕರಿಸಿ, ಒಂದೊಂದು ರೀತಿಯ ಪತ್ರಗಳು ಹಾಗೂ ಸುತ್ತೋಲೆಗಳಿಗೆ
ಪ್ರತ್ಯೇಕ ಕಡತಗಳನ್ನಿಡಬಹುದು.</p>

<p>ಉದ್ಯೋಗಸ್ಥರು ಪಡೆದುಕೊಳ್ಳುವ ಆಕಸ್ಮಿಕ ರಜೆಗಳ ವಿವರಗಳನ್ನು
ಒಂದು ದಪ್ತರದಲ್ಲಿ ಬರೆದಿಡುವುದುಂಟು. ಉದ್ಯೋಗಸ್ಥನ ಹೆಸರು, ಹುದ್ದೆ,
ಕೋರಿರುವ ಹಾಗೂ ಮಂಜೂರಾಗಿರುವ ರಜೆ ದಿನಗಳ ಸಂಖ್ಯೆ, ದಿನಾಂಕ, ರಜೆ
ತೆಗೆದುಕೊಳ್ಳಲು ಕಾರಣ ಈ ಅಂಶಗಳನ್ನು ಅದರಲ್ಲಿ ಬರೆದಿಡಬೇಕು.</p>

<p>ಕೆಲವು ಸಲ ಮುಖ್ಯೋಪಾಧ್ಯಾಯನು ತಪ್ಪು ಮಾಡಿದ ಉದ್ಯೋಗಸ್ಥ~
ನಿಂದ ವಿವರಣೆಯನ್ನು ಕೇಳಲು ಮತ್ತು ಎಚ್ಚರಿಕೆ ನೀಡಲು ದಪ್ತರವೊಂದನ್ನು
ಇಡುವ ವಾಡಿಕೆಯಿದೆ. ಇದರಲ್ಲಿ ಮುಖ್ಯೋಪಾಧ್ಯಾಯ ವಿಷಯವನ್ನು
ಸ್ವಹಸ್ತದಿಂದ ಬರೆದು ಸಹಿ ಹಾಕುವನು. ಸೇವಕನು ಅದನ್ನು ಸಂಬಂಧಪಟ್ಟ
ವ್ಯಕ್ತಿಗೆ ತೋರಿಸಿ ಆತನ/ಆಕೆಯ ಸಹಿಯನ್ನು ಹಾಕಿಸಿಕೊಳ್ಳುವನು.</p>

<p>ಈ ರೀತಿ ಮಾಧ್ಯಮಿಕ ಶಾಲೆಯು ಹಲವಾರು ಬಗೆಯ ದಾಖಲೆ-ಪುಸ್ತಕ~
ಗಳನ್ನು ಮತ್ತು ದಪ್ತರುಗಳನ಼್ನು ತೆರೆದು, ಅವುಗಳನ್ನು ಸಂರಕ್ಷಿಸಿಕೊಂಡು
ಬರಬೇಕಾಗುತ್ತದೆ.</p>

<p>Page 92</p>

<p>			ಅಧ್ಯಾಯ - 7</p>

<p>		    ವೇಳಾಪಟ್ಟಿ (Time-Table)</p>

<p>ಯಾವುದೇ ಕಾರ್ಯವನ್ನಾದರೂ ಸಮರ್ಪಕವಾಗಿ ಮಾಡಬೇಕಾದರೆ
ಯೋಜನೆ ಮತ್ತು ವೇಳಾಪಟ್ಟಿ ಅಗತ್ಯವಾಗಿ ಬೇಕು. ಅದೇ ರೀತಿ ಶಾಲೆಯ
ಕೆಲಸವನ್ನು ತೃಪ್ತಿಕರವಾಗಿ ನಡೆಸಿಕೊಂಡು ಹೋಗಲು ವೇಳಾಪಟ್ಟಿಯು
ಅತ್ಯವಶ್ಯಕವಾಗಿದೆ.</p>

<p>ವೇಳಾಪಟ್ಟಿಯೆಂದರೆ ಶಾಲೆಯ ಕಾರ್ಯವನ್ನು ಪ್ರತಿ ದಿವಸವೂ
ಪರಿಣಾಮಕಾರಿಯಾಗಿ ಹಾಗೂ ಸಮರ್ಪಕವಾಗಿ ಕೈಗೊಳ್ಳಲು ರೂಪಿಸಿಕೊಂಡಿ~
ರುವ ಸಾಧನ. ವೇಳಾಪಟ್ಟಿಯನ್ನು ಕನ್ನಡಿಗೆ ಹೋಲಿಸಬಹುದು. ಕನ್ನಡಿಯು
ನಮ್ಮ ಮುಖವನ್ನು ಪ್ರತಿಬಿಂಬಿಸುವಂತೆ, ವೇಳಾಪಟ್ಟಿಯು ಶಾಲೆಯ ವಿವಿಧ
ಚಟುವಟಿಕೆಗಳನ್ನು ಪ್ರತಿಬಿಂಬಿಸುತ್ತದೆ. ಅದನ್ನು ಮೌನ ಮಾರ್ಗದರ್ಶಿ~
ಯೆಂದೂ, ಶಾಲೆಯ ದ್ವಿತೀಯ ಚಹರೆಯೆಂದೂ, ಎರಡನೆಯ ಗಡಿಯಾರ~
ವೆಂದೂ, ಶಾಲಾಡಳಿತದ ಹೃದಯ ಪ್ರಕ್ರಿಯೆಯೆಂದೂ ಬಣ್ಣಿಸಲಾಗಿದೆ.</p>

<p>ಶಾಲೆಯ ವೇಳಾಪಟ್ಟಿಯನ್ನು ವಿವಿಧ ತರಗತಿಗಳ ಮತ್ತು ವಿಭಾಗಗಳ
ಪ್ರತಿಯೊಂದು ಚಟುವಟಿಕೆಗೂ ಮಾಡಿರುವ ಕಾಲದ ವಿಭಜನೆಯ ಯೋಜನೆ~
ಯೆಂದು ತಜ್ಞರು ಅರ್ಥವಿವರಣೆ ಕೊಟ್ಟಿದ್ದಾರೆ.</p>

<p>ಕೆಲಸ ಮಾಡುವ ವೇಳೆ, ಅವಧಿಗಳ ಸಂಖ್ಯೆ, ಬೇರೆ ಬೇರೆ
ಅವಧಿಗಳಲ್ಲಿ ಬೇರೆ ಬೇರೆ ವಿಭಾಗಗಳಿಗೆ ಬೋಧಿಸಬೇಕಾದ ವಿಷಯಗಳು,
ಅವುಗಳನ್ನು ಬೋಧಿಸುವ ಅಧ್ಯಾಪಕರುಗಳ ಹೆಸರುಗಳು, ತರಗತಿಗಳು ನಡೆ~
ಯುವ ಕೊಠಡಿಗಳು, ವಿರಾಮಕಾಲ, ಕ್ರೀಡೆಗಳ ಕಾಲ - ಇವೆಲ್ಲವನ್ನೂ ತೋರಿ~
ಸುವ ನಕ್ಷೆಯನ್ನು ವೇಳಾಪಟ್ಟಿ ಎನ್ನಬಹುದು.</p>

<p>Page 93</p>

<p>ಶಾಲೆಯ ಸಮರ್ಥ ಹಾಗೂ ಪರಿಣಾಮಕಾರಿ ಸಂಘಟನೆಗಾಗಿ ಮುಖ್ಯೋ~
ಪಾಧ್ಯಾಯನು ಬಳಸಬಹುದಾದ ಉಪಕರಣಗಳಲ್ಲಿ ವೇಳಾಪಟ್ಟಿಯು ಅಗ್ರಗಣ್ಯ~
ವಾಗಿದೆ.</p>

<p>ವೇಳಾಪಟ್ಟಿಯಿಂದ ಹಲವಾರು ಪ್ರಯೋಜನಗಳಿವೆ : 1) ಶಾಲೆಯು
ದಕ್ಷತೆಯಿಂದ ಕೆಲಸ ಮಾಡಲು ವೇಳಾಪಟ್ಟಿಯು ನೆರವಾಗುತ್ತದೆ. ಉಪಾ~
ಧ್ಯಾಯರು ತಾವು ಮಾಡಬೇಕಾದ ಕಾರ್ಯವನ್ನು ಮುಂಚಿತವಾಗಿಯೇ
ತಿಳಿದುಕೊಳ್ಳಬಹುದು. ಒಂದು ಗೊತ್ತಾದ ದಿನದಂದು ಯಾವ ಯಾವ
ವಿಷಯಗಳನ್ನು ಬೋಧಿಸಲಾಗುವುದೆಂಬ ಸಂಗತಿಯನ್ನು ವಿದ್ಯಾರ್ಥಿಗಳು
ತಿಳಿದುಕೊಳ್ಳಬಹುದು. ಯಾವ ಯಾವ ತರಗತಿಯಲ್ಲಿ ಯಾವ ಯಾವ
ಚಟುವಟಿಕೆಗಳು ಸಾಗುತ್ತಿವೆ ಮತ್ತು ಯಾವ ಯಾವ ಅಧ್ಯಾಪಕರುಗಳಿಗೆ
ವಿರಾಮವಿದೆ ಎಂಬ ಮಾಹಿತಿಯನ್ನು ಮುಖ್ಯೋಪಾಧ್ಯಾಯನು ಕುಳಿತಲ್ಲಿಯೇ
ತಿಳಿದುಕೊಳ್ಳಬಹುದು.</p>

<p>2) ವೇಳಾಪಟ್ಟಿಯು ಪ್ರಗತಿಯನ್ನು ಕ್ರಮಬದ್ಧಗೊಳಿಸುತ್ತದೆ ಮತ್ತು
ಶೈಥಿಲ್ಯವನ್ನು ತಡೆಗಟ್ಟುತ್ತದೆ. ಶಾಲೆಯ ಉದ್ದೇಶಗಳನ್ನೂ ಧ್ಯೇಯಗಳನ್ನೂ
ಈಡೇರಿಸಿಕೊಳ್ಳಲು ವೇಳಾಪಟ್ಟಿಯು ಅಮೂಲ್ಯ ಸಾಧನವಾಗಿದೆ.</p>

<p>3) ವೇಳಾಪಟ್ಟಿಯು ಆಂತರಿಕ ಮಿತವ್ಯಯವನ್ನು ಸಾಧಿಸಲು
ಸಹಾಯ ಮಾಡುವುದು. ಕಾಲ ಮತ್ತು ಶಕ್ತಿಯ ಅಪವ್ಯಯವನ್ನು ಅದು
ನಿವಾರಿಸುತ್ತದೆ. ಗೊಂದಲ, ಪುನರಾವರ್ತನೆಗಳನ್ನು ಅದು ತಡೆಗಟ್ಟುತ್ತದೆ.</p>

<p>4) ವೇಳಾಪಟ್ಟಿಯು ಹೊಂದಿರುವ ಮಾನಸಿಕ ಮೌಲ್ಯವೆಂದರೆ, ಅದು
ಶಾಲಾ ಜೀವನದಲ್ಲಿ ವ್ಯವಸ್ಥೆಯನ್ನೂ ನೆಮ್ಮದಿಯನ್ನೂ ಉಂಟು ಮಾಡುವು~
ದಲ್ಲದೆ ಆಯಾಸ, ಬೇಸರಗಳಾಗದಂತೆ ನೋಡಿಕೊಳ್ಳುತ್ತದೆ.</p>

<p>5) ವೇಳಾಪಟ್ಟಿಯು ವಿವಿಧ ವಿಷಯಗಳು ಮತ್ತು ಚಟುವಟಿಕೆಗಳಿಗೆ
ಗಮನ ನೀಡಿ, ಅವುಗಳಿಗೆ ಸಲ್ಲಬೇಕಾದ ಸ್ಥಾನವನ್ನೂ ಸಮಯವನ್ನೂ ನಿಶ್ಚಿತ~
ಗೊಳಿಸುತ್ತದೆ.</p>

<p>6) ಸಮಯಪಾಲನೆ, ಕ್ರಮಬದ್ಧತೆ, ವ್ಯವಸ್ಥೆ ಇತ್ಯಾದಿ ಸದ್ಗುಣಗಳನ್ನು
Page 94
ವೇಳಾಪಟ್ಟಿಯು, ಉಪಾಧ್ಯಾಯರುಗಳಲ್ಲೂ ವಿದ್ಯಾರ್ಥಿಗಳಲ್ಲೂ
ಬೆಳೆಸುತ್ತದೆ. ಇದರಿಂದ ಶಾಲೆಯಲ್ಲಿ ಶಿಸ್ತನ್ನು ಸಂರಕ್ಷಿಸಲು ಅನುಕೂಲ~
ವಾಗುವುದು.</p>

<p>7) ಉಪಾಧ್ಯಾಯರುಗಳ ನಡುವೆ ಕಾರ್ಯದ ಹಂಚಿಕೆ ಸರಿಯಾಗಿರು~
ವಂತೆ ಮಾಡಲು ವೇಳಾಪಟ್ಟಿಯು ಸಹಾಯಕವಾಗಿದೆ. ಸಮಾನ ಪ್ರತಿಭೆ,
ಸ್ಥಾನ-ಮಾನಗಳುಳ್ಳ ಶಿಕ್ಷಕರುಗಳಿಗೆ ಸಮಾನವಾದ ಕೆಲಸದ ಹೊರೆ ಬೀಳುವು~
ದರಿಂದ, ಪರಸ್ಪರ ಅಸಮಾಧಾನ, ಅಸೂಯೆಗಳಿಗೆ ದಾರಿಯಾಗುವುದಿಲ್ಲ.</p>

<p>8) ವಿದ್ಯಾರ್ಥಿಗಳ ಶಕ್ತಿ, ಸಾಮರ್ಥ್ಯಗಳಿಗೆ ಅನುಗುಣವಾಗಿ ಶಾಲೆಯ
ಕಾರ್ಯಕ್ರಮದಲ್ಲಿ ಹೊಂದಾಣಿಕೆಯನ್ನುಂಟು ಮಾಡಲು ವೇಳಾಪಟ್ಟಿಗೆ ಸಾಧ್ಯ~
ವಾಗುತ್ತದೆ. ವಿದ್ಯಾರ್ಥಿಗಳ ಮಾನಸಿಕ ಮಟ್ಟ ಮತ್ತು ಅಗತ್ಯಗಳಿಗೆ ಅನುಸಾರ~
ವಾಗಿ ಕೆಲಸವನ್ನು ಹಂಚಬಹುದು.</p>

<p>ವೇಳಾಪಟ್ಟಿಯಲ್ಲಿ ಮೂರು ಬಗೆಗಳಿವೆ. ಅವು ಯಾವುವೆಂದರೆ
ಜೋಡಿಸಿದ ವೇಳಾಪಟ್ಟಿ, ತರಗತಿ - ವೇಳಾಪಟ್ಟಿ
ಮತ್ತು ಶಿಕ್ಷಕರುಗಳ ವೇಳಾಪಟ್ಟಿ.</p>

<p>ಜೋಡಿಸಿದ ವೇಳಾಪಟ್ಟಿಯು ಹೆಸರೇ ಸೂಚಿಸುವಂತೆ ಉಳಿದೆರಡು
ವೇಳಾಪಟ್ಟಿಗಳನ್ನು ಜೋಡಿಸಿಕೊಂಡಿರುತ್ತದೆ. ಅಂದರೆ ಎಲ್ಲ ವೇಳಾಪಟ್ಟಿ~
ಗಳನ್ನೂ ಒಂದುಗೂಡಿಸಲಾಗುತ್ತದೆ.</p>

<p>ತರಗತಿ - ವೇಳಾಪಟ್ಟಿಯು ಉಪಾಧ್ಯಾಯರುಗಳ ಹೆಸರುಗಳನ್ನು ಮತ್ತು
ಪ್ರತಿಯೊಂದು ಅವಧಿಯಲ್ಲಿರುವ ವಿಷಯಗಳನ್ನು ಒಳಗೊಂಡಿರುತ್ತದೆ. ಅದರಲ್ಲಿ
ಆಟಗಳು ಮತ್ತು ಇತರ ಚಟುವಟಿಕೆಗಳನ್ನು ಸೂಚಿಸಲಾಗುವುದು. ತರಗತಿಯ
ವೇಳಾಪಟ್ಟಿಯನ್ನು ವಿದ್ಯಾರ್ಥಿಗಳ ಮಾರ್ಗದರ್ಶನಕ್ಕಾಗಿ ತಯಾರಿಸುತ್ತಾರೆ.</p>

<p>ಶಿಕ್ಷಕರುಗಳ ವೇಳಾಪಟ್ಟಿಯು ಶಾಲೆಯ ಎಲ್ಲ ಉಪಾಧ್ಯಾಯರುಗಳ
ಚಟುವಟಿಕೆಗಳಿಗೆ ಮತ್ತು ಬೋಧನಾ ಅವಧಿಗಳ ಸಂಪೂರ್ಣ ಚಿತ್ರವನ್ನು
ಕೊಡುತ್ತದೆ.</p>

<p>ಶಾಲೆಗಳು ಬಯಸುವುದಾದರೆ ವಿಶೇಷ ವಿಷಯ ವೇಳಾಪಟ್ಟಿ, ಖಾಲಿ
Page 95
ಇರುವ ಅವಧಿಯ ವೇಳಾಪಟ್ಟಿ, ಕ್ರೀಡೆಗಳ ವೇಳಾಪಟ್ಟಿ ಮತ್ತು ಸಹ-ಪಠ್ಯ
ಕ್ರಮ ವೇಳಾಪಟ್ಟಿಗಳನ್ನು ಪ್ರತ್ಯೇಕವಾಗಿ ರಚಿಸಬಹುದು.</p>

<p>ವೇಳಾಪಟ್ಟಿ ರಚನೆಯ ತತ್ವಗಳು : ಶಾಲೆಯ ವೇಳಾಪಟ್ಟಿಯು
ಬಹಳ ಕ್ಲಿಷ್ಟವಾದ, ಜಟಿಲವಾದ ಪ್ರಕ್ರಿಯೆಯಾಗಿದೆ. ಒಂದು ತೃಪ್ತಿಕರವಾದ
ವೇಳಾಪಟ್ಟಿಯನ್ನು ತಯಾರಿಸಲು ಸಾಕಷ್ಟು ಚಿಂತನೆ, ಸಮಯ ಮತ್ತು
ಕುಶಲತೆಗಳು ಅವಶ್ಯಕವಾಗುತ್ತವೆ. ಅದನ್ನು ರಚಿಸುವಾಗ ಅನೇಕ ಅಂಶ~
ಗಳನ್ನು ಗಮನದಲ್ಲಿಟ್ಟುಕೊಳ್ಳಬೇಕಾಗುತ್ತದೆ. ಆತುರದಲ್ಲಿ ಸಿದ್ಧವಾದ ವೇಳಾ~
ಪಟ್ಟಿಯು ಗೊಂದಲ, ಬೇಸರ, ಅಸಮಾಧಾನಗಳಿಗೆ ಕಾರಣವಾಗುತ್ತದೆ.
ಆದುದರಿಂದ ವೇಳಾಪಟ್ಟಿಯನ್ನು ತಯಾರಿಸುವವರು ಅದರ ರಚನೆಯ ತತ್ವ~
ಗಳನ್ನು ಬಲ್ಲವರಾಗಿರಬೇಕು.</p>

<p>1) ವೇಳಾಪಟ್ಟಿಯು ತಯಾರಕರು ಮೊದಲು ಪರಿಶೀಲಿಸಬೇಕಾದ
ಅಂಶವೆಂದರೆ ಶಾಲೆಯ ಮಾದರಿ ಅಥವಾ ನಮೂನೆ. ಎಲ್ಲ ರೀತಿಯ
ಶಾಲೆಗಳಿಗೂ ಒಂದೇ ವಿಧಾನದ ವೇಳಾಪಟ್ಟಿಯನ಼್ನು ತಯಾರಿಸಲು ಸಾಧ್ಯವಿಲ್ಲ.
ಉದಾಹರಣೆಗೆ ಹೇಳುವುದಾದರೆ, ಸಾಧಾರಣ ಶಾಲೆಗಳು, ವಿವಿಧೋದ್ದೇಶ
ಶಾಲೆಗಳು ಮತ್ತು ಮೂಲಶಿಕ್ಷಣ ಶಾಲೆಗಳ ನಡುವೆ ಅಪಾರ ವ್ಯತ್ಯಾಸಗಳು
ಕಂಡುಬರುತ್ತವೆ. ಒಂದು ಬಗೆಯ ಶಾಲೆಯ ಅಗತ್ಯಗಳು ಮತ್ತೊಂದು ಬಗೆಯ
ಶಾಲೆಯ ಅಗತ್ಯಗಳಿಗಿಂತ ಭಿನ್ನವಾಗಿರುತ್ತವೆ. ಸಾರ್ವಜನಿಕ
ಶಾಲೆಗಳು ಸಹ-ಪಠ್ಯಕ್ರಮ ಚಟುವಟಿಕೆಗಳಿಗೆ ಹೆಚ್ಚಿನ ಪ್ರಾಶಸ್ತ್ಯ ನೀಡುವುದ~
ರಿಂದ, ಸಹಜವಾಗಿ೟ೇ ಅಲ್ಲಿನ ವೇಳಾಪಟ್ಟಿಯು ಸಹ - ಪಠ್ಯಕ್ರಮ ಚಟು~
ವಟಿಕೆಗಳಿಗೆ ಇತರ ಶಾಲೆಗಳಿಗಿಂತಲೂ ಹೆಚ್ಚಿನ ಅವಧಿಗಳನ್ನು ಒದಗಿಸುತ್ತವೆ.
ಏಕೋಪಾಧ್ಯಾಯ ಶಾಲೆಯ ವೇಳಾಪಟ್ಟಿಯಲ್ಲಿರುವ ಓರ್ವ ವ್ಯಕ್ತಿಯು ಏಕ~
ಕಾಲದಲ್ಲಿ ನಾಲ್ಕು ತರಗತಿಗಳನ್ನು ನಿರ್ವಹಿಸಲು ಸಾಧ್ಯವಾಗುವ ರೀತಿಯಲ್ಲಿ
ವೇಳಾಪತ್ರಿಕೆಯನ್ನು ತಯಾರಿಸಬೇಕಾಗುವುದು.</p>

<p>2) ವಾರಕ್ಕೆ ಎಷ್ಟು ವೇಳೆ ಸಿಗುತ್ತದೆ ಎಂಬ ಪರಿಶೀಲನೆಯು ವೇಳಾ~
ಪಟ್ಟಿ ರಚನೆಯ ಪ್ರಮುಖ ತತ್ವವಾಗಿದೆ. ದೊರಕುವ ವೇಳೆಯನ್ನು ಎಲ್ಲ
ವಿಷಯಗಳಿಗೂ ಚಟುವಟಿಕೆಗಳಿಗೂ ಹಂಚಬೇಕಾಗುತ್ತದೆ. ಋತು ಮತ್ತು
Page 96
ವರ್ಗಗಳಿಗೆ ಅನುಗುಣವಾಗಿ ಅವಧಿಯ ಕಾಲಪರಿಮಾಣವನ್ನು
ನಿರ್ಧರಿಸಬೇಕಾಗುವುದು. ಕೆಲವು ಪ್ರದೇಶಗಳಲ್ಲಿ ಬೇಸಿಗೆಯಲ್ಲಿ ಹೆಚ್ಚು ಕಾಲ
ತರಗತಿಗಳ಩್ನು ನಡೆಸಲು ಸಾಧ್ಯವಾಗದೆ ಹೋಗಬಹುದು. ಮಾಧ್ಯಮಿಕ
ಶಾಲೆಗಳಲ್ಲಿ 45 ಅಥವಾ 50 ನಿಮಿಷಗಳ ಅವಧಿಯು ಸರಿಹೋಗಬಹುದು.
ಆದರೆ ಪ್ರಾಥಮಿಕ ಅಥವಾ ಪೂರ್ವ ಪ್ರಾಥಮಿಕ ಶಾಲೆಗಳಲ್ಲಿ 30 ಅಥವಾ40
ನಿಮಿಷಗಳು ಆದರ್ಶ ಕಾಲ-ಪರಿಮಾಣವೆನಿಸುವುದು.</p>

<p>3) ಬೋಧನಾ ವಿಷಯಗಳ ಪ್ರಾಮುಖ್ಯತೆ ಹಾಗೂ
ಕ್ಲಿಷ್ಟತೆಯನ್ನು ಗಮನದಲ್ಲಿಟ್ಟುಕೊಂಡು ವೇಳಾಪಟ್ಟಿಯನ್ನು ತಯಾರಿಸಬೇ~
ಕಾಗುತ್ತದೆ. ಸಾಮಾಜಿಕ, ಆರ್ಥಿಕ ಮತ್ತು ಸಾಂಸ್ಕೃತಿಕ ದೃಷ್ಟಿಕೋನಗಳಿಂದ
ಒಂದು ವಿಷಯದ ಪ್ರಾಮುಖ್ಯತೆಯನ್ನು ನಿರ್ಧರಿಸಬೇಕಾಗುತ್ತದೆ. ಮಾಧ್ಯ~
ಮಿಕ ಶಾಲೆಗಳಲ್ಲಿ ಇಂಗ್ಲೀಷ ಭಾಷೆ ಮತ್ತು ಗಣಿತಶಾಸ್ತ್ರಗಳನ್ನು ಕಠಿಣವೂ
ಮಹತ್ವವೂ ಆದ ವಿಷಯಗಳೆಂಬುದಾಗಿ ಪರಿಗಣಿಸಲಾಗಿದೆ. ಈಗೀಗ ಮಾತ್ರ
ಭಾಷೆ ಇಲ್ಲವೇ ಪ್ರಾದೇಶಿಕ ಭಾಷೆಗೆ ಅಗ್ರಸ್ಥಾನವನ್ನು ನೀಡಲಾಗುತ್ತಿದೆ.
ಮುಖ್ಯವಾದ ಹಾಗೂ ಕಷ್ಟಕರವಾದ ವಿಷಯಗಳಿಗೆ ಹೆಚ಼್ಚಿನ ಅವಧಿಗಳನ್ನು
ಮೀಸಲು ಮಾಡುವುದು ವಾಡಿಕೆಯಾಗಿದೆ. ಮೂಲ ಶಿಕ್ಷಣ ಶಾಲೆಯ ಮೂಲ
ಕಸುಬಿಗೂ, ವಿವಿಧೋದ್ದೇಶ ಉನ್ನತ ಪ್ರೌಢಶಾಲೆಗಳಲ್ಲಿ ಐಚ್ಛಿಕ ವಿಷಯ~
ಗಳಿಗೂ ಹೆಚ್ಚಿನ ಸಮಯವನ್ನು ವಿನಿಯೋಗಿಸಲಾಗುತ್ತಿದೆ.</p>

<p>4) ವೇಳಾಪಟ್ಟಿಯನ್ನು ತಯಾರಿಸುವಾಗ ಮಾನಸಿಕ ಸಾಮರ್ಥ್ಯವನ್ನು
ಗಮನದಲ್ಲಿಟ್ಟುಕೊಳ್ಳಬೇಕು. ವಿದೇಶೀ ಭಾಷೆಗಳನ್ನೂ ಗಣಿತಶಾಸ್ತ್ರವನ್ನೂ
ಕಲಿಯಲು ಹೆಚ್ಚಿನ ಮಾನಸಿಕ ಸಾಮರ್ಥ್ಯವು ಅಗತ್ಯವಾದುದರಿಂದ, ವಿದ್ಯಾರ್ಥಿ~
ಗಳಿಗೆ ಆಯಾಸವಾಗಿರುವಾಗ ಅವುಗಳನ್಩ು ಕಲಿಸುವುದು ವ್ಯರ್ಥವಾಗಬಹುದು.
ಆಯಾಸವು ದೈಹಿಕವಾಗಿರಬಹುದು ಇಲ್ಲವೆ ಮಾನಸಿಕವಾಗಿರಬಹುದು.
ಆಯಾಸವು ವಿದ್ಯಾರ್ಥಿಗಳ ಅವಧಾನವನ್ನು ಕುಂಠಿತಗೊಳಿಸುವುದಲ್ಲದೆ, ಅವರ
ಗ್ರಹಣಶಕ್ತಿಯನ್ನು ದುರ್ಬಲಗೊಳಿಸುವುದು. ಮಾನಸಿಕವಾಗಿ ಚುರುಕಾಗಿರ~
ಬೇಕಾದ ವಿಷಯಗಳನ್ನು ಪ್ರಾತಃಕಾಲದಲ್ಲಿ ಕಲಿಸುವುದು ಒಳ್ಳೆಯದು.
ಆಯಾಸವನ್ನುಂಟು ಮಾಡುವ ವಿಷಯಗಳಿಗೆ ಪ್ರಾತಃಕಾಲ ಎರಡನೆಯ ಮತ್ತು
Page 67
ಮೂರನೆಯ ಅವಧಿಗಳೂ, ಮಧ್ಯಾಹ್ನದ ಎರಡನೆಯ ಅವಧಿಯೂ ಯೋಗ್ಯ
ಕಾಲವೆಂದು ಭಾವಿಸಲಾಗಿದೆ. ಮಂಗಳವಾರ ಮತ್ತು ಬುಧವಾರಗಳು ಅಂತಹ
ವಿಷಯಗಳಿಗೆ ಬಹು ಯೋಗ್ಯ ದಿನಗಳೆಂದು ಪರಿಗಣಿಸಲಾಗಿದೆ. ವಾರದ
ಅಂತ್ಯಕ್ಕೆ ಹೋದಂತೆಲ್ಲ, ಮಾನಸಿಕ ಹೊಸತನವು ಕ್ಷೀಣಿಸುತ್ತಾ ಹೋಗುವುದೆಂದು
ಭಾವಿಸಲಾಗಿದೆ.</p>

<p>5) ಒಳ್ಳೆಯ ರೀತಿಯಲ್ಲಿ ಕೆಲಸಮಾಡಲು ಸ್ಥಳ, ಭಂಗಿ
ಮತ್ತು ಉದ್ಯೋಗಗಳ ಬದಲಾವಣೆ ಅಗತ್ಯವೆಂಬ ಅಂಶವನ್ನು ವೇಳಾಪಟ್ಟಿ~
ಯನ್ನು ರಚಿಸುವವರು ಪರಿಶೀಲಿಸಬೇಕು. ಒಂದೇ ಕೊಠಡಿಯಲ್ಲಿ ಬೆಳಿಗ್ಗೆ~
ಯಿಂದ ಸಾಯಂಕಾಲದವರೆಗೂ ಕುಳಿತಿರಬೇಕಾದಲ್ಲಿ ವಿದ್ಯಾರ್ಥಿಗಳಿಗೆ ಬೇಸರ~
ವಾಗುವುದರಲ಼್ಲಿ ಸಂದೇಹವಿಲ್ಲ. ಒಂದೇ ಭಂಗಿಯಲ್ಲಿ ಒಂದೇ ಸಮನೆ ಕೆಲಸ
ಮಾಡುವುದರಿಂದ ಆಯಾಸವು ತಲೆದೋರುವುದು. ಒಂದೇ ರೀತಿಯ ಕೆಲಸ
ಅಥವಾ ಉದ್ಯೋಗವು ನೀರಸವಾಗಿ ಪರಿಣಮಿಸುವುದು. ಕಾರ್ಯಕ್ರಮ
ಅಥವಾ ಚಟುವಟಿಕೆಗಳಲ್ಲಿ ವೈವಿಧ್ಯವಿದ್ದಲ್ಲಿ ವಿದ್ಯಾರ್ಥಿಗಳ ಆಸಕ್ತಿಯನ್ನು
ಉಳಿಸಿಕೊಂಡು ಬರಲು ಸಾಧ್ಯವಾಗುವುದು. ವೈವಿಧ್ಯತೆಯ ದೃಷ್ಟಿಯಿಂದ
ಒಂದು ವಿಷಯವನ್ನು ಒಂದು ಅವಧಿಗಿಂತಲೂ ಹೆಚ್ಚು ಕಾಲ ವಿದ್ಯಾರ್ಥಿಗಳಿಗೆ
ಬೋಧಿಸಕೂಡದು. ಆದರೆ, ವಿಜ್ಞಾನ ಶಾಸ್ತ್ರದ ಪ್ರಯೋಗಕಾಱ್ಯಕ್ಕೆ ಈ
ನಿಯಮವನ್ನು ಅನ್ವಯಿಸುವಂತಿಲ್ಲ.</p>

<p>ಉಪಾಧ್ಯಾಯರಿಗೆ ಬೋಧನಾಕಾಱ್ಯವನ್ನು ಕೊಡುವಾಗ, ಒಂದು ಅವ~
ಧಿಗೆ ಕ್ಲಿಷ್ಟ ವಿಷಯವನ್ನೂ ಮತ್ತೊಂದು ಅವಧಿಗೆ ಸುಲಭವಾದ ವಿಷಯವನ್ನೂ
ಕೊಡುವುದು ಲೇಸು.</p>

<p>6) ವೇಳಾಪಟ್ಟಿಯನ್ನು ರಚಿಸುವಾಗ ಲಭ್ಯವಿರುವ ಸಿಬ್ಬಂದಿ, ಸಲಕ~
ರಣೆ ಮತ್ತು ಸ್ಥಳಾವಕಾಶವನ್ನು ಗಮನದಲ್ಲಿಟ್ಟುಕೊಂಡಿರಬೇಕು.</p>

<p>ಸಾಕಷ್ಟು ಶಿಕ್ಷಕರುಗಳಿಲ್ಲದಿದ್ದರೆ ಮತ್ತು ಅವರ ವಿದ್ಯಾರ್ಹತೆಗಳಲ್ಲಿ
ಕೊರತೆಗಳಿದ್ದರೆ ವೇಳಾಪಟ್ಟಿಯ ರಚನೆ ಸಮಸ್ಯೆಯಾಗುವುದು. ವಿಜ್ಞಾನ,
ಕಲೆ, ಕಸಬುಗಳಿಗಾಗಿ ಪ್ರತ್ಯೇಕ ಕೊಠಡಿಗಳಿದ್ದಲ್ಲಿ, ಆಯಾ ವಿಷಯಗಳನ್ನು
Page 98
ಸಾಧ್ಯವಾದ ಮಟ್ಟಿಗೆ ಆಯಾ ಕೊಠಡಿಗಳಿಗೆ ವಿದ್ಯಾರ್ಥಿಗಳು ಹೋಗುವಂತೆ
ವೇಳಾಪಟ್ಟಿಯಲ್ಲಿ ಸೂಚಿಸಬೇಕು.</p>

<p>ಸಾಕಷ್ಟು ಪೀಠೋಪಕರಣಗಳೂ ಸಲಕರಣೆಗಳೂ ಇಲ್ಲದಿದ್ದಲ್ಲಿ ದೊಡ್ಡ
ತರಗತಿಯನ್ನು ಚಿಕ್ಕ ತಂಡಗಳಾಗಿ ಒಡೆಯಬೇಕಾಗುವುದು.</p>

<p>7) ಉಪಾಧ್ಯಾಯರುಗಳಿಗೆ ಬೀಳುವ ಕೆಲಸದ ಹೊರೆ ಮತ್ತು ಅವರ
ಮುಕ್ತ ಅವಧಿಗಳ಩್ನು ಸಹ, ವೇಳಾಪಟ್ಟಿಯನ್ನು ತಯಾರಿಸುವ
ಮುನ್ನ ಪರಿಶೀಲಿಸಬೇಕು. ಪ್ರತಿಯೊಬ್ಬ ಶಿಕ್ಷಕನಿಗೂ ಕೆಲವಾದರೂ ವಿರಾಮ~
ವಿರುವಂತಹ ಅವಧಿಗಳನ್ನು ಒದಗಿಸಬೇಕಲ್ಲದೆ, ಅವನ್ನು ಸರಿಯಾದ ರೀತಿಯಲ್ಲಿ
ಹಂಚಬೇಕು. ಒಂದೇ ಸಮನೆ ಎರಡು ಅಥವಾ ಮೂರು ಮುಕ್ತ ಅವಧಿಗಳು
ಬರದಂತೆ ನೋಡಿಕೊಳ್ಳುವುದು ಅಪೇಕ್ಷಣೀಯವಾಗಿದೆ. ಸಾಮಾನ್ಯವಾಗಿ
ಶಾಲೆಗಳಲ್ಲಿ 40 ಅವಧಿಗಳಿವೆಯಷ್ಟೇ. ಅವುಗಳ ಪೈಕಿ 8-10 ಅವಧಿಗಳನ್ನು
ಮುಕ್ತಗೊಳಿಸಬಹುದಾಗಿದೆ. ಮುಕ್ತ ಅವಧಿಗಳನ್ನು ನೀಡುವ ಉದ್ದೇಶವು
ಕೇವಲ ಆಯಾಸ ಪರಿಹಾರಕ್ಕಲ್ಲ; ವಿದ್ಯಾರ್ಥಿಗಳ ಲಿಖಿತ ಕೆಲಸಗಳನ್ನು ನೋಡಿ
ಅವುಗಳನ್ನು ತಿದ್ದಲು ವಿರಾಮವಿದ್ದರೆ ಲೇಸು.</p>

<p>8) ವಿದ್ಯಾರ್ಥಿಗಳ ದೃಷ್ಟಿಯಿಂದ ಅವರಿಗೆ ವಿಶ್ರಾಂತಿಯನ್ನೂ ಮನ~
ರಂಜನೆಯನ್ನೂ ಒದಗಿಸಬೇಕಾಗಿರುವುದರಿಂದ, ವೇಳಾಪಟ್ಟಿಯಲ್ಲಿ ಮುಕ್ಕಾಲು
ಅಥವಾ ಒಂದು ಗಂಟೆ ಕಾಲವನ್ನು ವಿರಾಮಕ್ಕಾಗಿ ಪ್ರತಿದಿನವೂ ಮೀಸಲು
ಮಾಡಬೇಕಾಗುವುದು. ಕ್ರೀಡೆ, ಕವಾಯತು, ಶಾಲೆಯ ಬಾನುಲಿ ಪ್ರಸಾರ
ಮುಂತಾದವುಗಳಿಗಾಗಿ ಗೊತ್ತುಮಾಡುವ ಅವಧಿಗಳನ್ನು ಮನರಂಜನೆಯ
ಅವಧಿಗಳೆನ್ನಬಹುದು.</p>

<p>9) ವಿಷಯಗಳು, ಅವಧಿಗಳು ಮತ್ತು ಚಟುವಟಿಕೆಗಳನ್ನು ಉಪಾ~
ಧ್ಯಾಯರುಗಳಿಗೆ ವೇಳಾಪಟ್ಟಿಯಲ್ಲಿ ಹಂಚುವಾಗ, ನಿಷ್ಪಕ್ಷಪಾತದಿಂದ ಎಲ್ಲ~
ರಿಗೂ ನ್ಯಾಯ ದೊರಕುವಂತೆ ನೋಡಿಕೊಳ್ಳಬೇಕು.</p>

<p>10) ವೇಳಾಪಟ್ಟಿ೟ನ್ನು ರಚಿಸುವಾಗ ಗಣನೆಗೆ ತೆಗೆದುಕೊಳ್ಳ~
ಬೇಕಾದ ಇತರ ಅಂಶಗಳೆಂದರೆ ವಿದ್ಯಾ ಇಲಾಖೆಯು ವಿಧಿಸಿರುವ ನಿಯಮ~
ಗಳನ್ನು ಪಾಲಿಸಬೇಕು ಮತ್ತು ವೇಳಾಪಟ್ಟಿಯಲ್ಲಿ ಸಣ್ಣಪುಟ್ಟ ಹೊಂದಾಣಿಕೆಗಳನ್ನು
Page 99
ಮಾಡಲು ಅವಕಾಶವಿರಬೇಕು. ಬೇರೆ ಮಾತಿನಲ್ಲಿ ಹೇಳುವುದಾದರೆ
ವೇಳಾಪಟ್ಟಿಯು ಗಡುಸಾಗಿ ಇರುವುದರ ಬದಲು, ಸ್ಥಿತಿಸ್ಥಾಪಕತ್ವವನ್ನೂ
ಬಾಗುವ ಗುಣವನ್ನೂ ಹೊಂದಿರಬೇಕು.</p>

<p>ವೇಳಾಪಟ್ಟಿಯು ಗಡುಸಾಗಿದ್ದಲ್ಲಿ, ಅದರಿಂದ ವಿದ್ಯಾರ್ಥಿಗಳ ಮತ್ತು
ಉಪಾಧ್ಯಾಯರುಗಳ ಆಸಕ್ತಿಗೆ ಅಡ್ಡಿಯಾಗುವುದೆಂದು ಭಾವಿಸಲಾಗಿದೆ.</p>

<p>Page 100</p>

<p>			ಅಧ್ಯಾಯ - 8</p>

<p>		ಪ್ರವೇಶ ಮತ್ತು ತರಗತಿ ರಚನೆ</p>

<p>ಪ್ರತಿಯೊಂದು ದೇಶದ ಶಿಕ್ಷಣ ಪದ್ಧತಿಯಲ್ಲಿ ಪೂರ್ವ-ಪ್ರಾಥಮಿಕ
ಶಿಕ್ಷಣ, ಪ್ರಾಥಮಿಕ ಶಿಕ್ಷಣ, ಮಾಧ್ಯಮಿಕ ಶಿಕ್ಷಣ ಮತ಼್ತು ಉನ್ನತ ಶಿಕ್ಷಣ~
ಗಳಂತಹ ಹಲವಾರು ಹಂತಗಳಿವೆ. ಪ್ರತಿಯೊಂದು ಹಂತದ ಪ್ರವೇಶಕ್ಕೆ
ಸಂಬಂಧಿಸಿದ ನಿಯಮಗಳನ್ನು ಮಾಡಲಾಗಿದೆ. ಕರ್ನಾಟಕ ರಾಜ್ಯದಲ್ಲಿ
ನರ್ಸರಿ ಮುಂತಾದ ಪೂರ್ವ ಪ್ರಾಥಮಿಕ ಶಾಲೆಗೆ ಪ್ರವೇಶವನ್ನು ಕೋರುವ
ಮಗುವಿಗೆ ಎರಡೂವರೆ ಅಥವಾ ಮೂರು ವರ್ಷಗಳ ವಯಸ್ಸಾಗಿರಬೇಕೆಂಬ
ನಿಯಮವಿದೆ. ಅದೇ ರೀತಿ 5 ವರ್ಷ 10 ತಿಂಗಳುಗಳಿಗೆ ಕಡಿಮೆ ವಯಸ್ಸಾ~
ಗಿರುವ ಮಗುವನ್ನು ಪ್ರಾಥಮಿಕ ಶಾಲೆಗೆ ಸೇರಿಸಿಕೊಳ್ಳುವುದಿಲ್ಲ. ಮಾಧ್ಯ~
ಮಿಕ ಅಥವಾ ಪ್ರೌಢಶಾಲೆಯ ಎಂಟನೆಯ ತರಗತಿಗೆ ಪ್ರವೇಶವನ್ನು ಬಯ~
ಸುವ ವಿದ್ಯಾರ್ಥಿಗೆ ವಯಸ್ಸಿನ ನಿರ್ಬಂಧವಿಲ್ಲದಿದ್ದಾಗ್ಯೂ, ಮಾಧ್ಯಮಿಕ
ಶಾಲೆಯ ಏಳನೆಯ ತರಗತಿಯ ವಾರ್ಷಿಕ ಪರೀಕ್ಷೆಯಲ್ಲಿ ತೇರ್ಗಡೆಯಾಗಿರ~
ಬೇಕೆಂಬ ನಿಯಮವಿದೆ.</p>

<p>ಬೋಧನೆ - ಕಲಿಕೆಯ ಪ್ರಕ್ರಿಯೆಯು ಸಮರ್ಪಕವಾಗಿರಬೇಕೆಂಬ
ಉದ್ದೇಶದಿಂದ, ಹಾಜರಾತಿಗೆ ಸಂಬಂಧಿಸಿದ ನಿಯಮಗಳೂ ಇವೆ.</p>

<p>ನಿರ್ದಿಷ್ಟ ದಿನಾಂಕದೊಳಗೆ ವಿದ್ಯಾರ್ಥಿಗಳು ಪ್ರವೇಶವನ್ನು ಕೋರಿ
ಅರ್ಜಿಗಳನ್ನು ಸಲ್ಲಿಸಬೇಕು. ಈಗ ತರಗತಿ ರಚನೆಯ ಬಗ್ಗೆ ಪ್ರಸ್ತಾಪಿ~
ಸೋಣ.</p>

<p>ತರಗತಿಯೆಂದರೆ ಒಬ್ಬ ಶಿಕ್ಷಕನಿಂದ ಬೋಧಿಸಲ್ಪಡುವ ಹಾಗೂ ಒಟ್ಟಿಗೆ
ಸೇರುವ ಮಕ್ಕಳ (ವಿದ್ಯಾರ್ಥಿಗಳ) ತಂಡ. ಒಬ್ಬ ಅಧ್ಯಾಪಕ ಮಾರ್ಗದರ್ಶನದಲ್ಲಿ
Page 101
ಹಾಗೂ ಒಂದು ಆಡಳಿತ ಮತ್ತು ಬೋಧನಾತ್ಮಕ ಘಟಕದಲ್ಲಿ ನಿಯಮಿತ~
ವಾಗಿ ಸಂಧಿಸಬೇಕೆಂದು ಗೊತ್ತುಮಾಡಲ್ಪಟ್ಟ ವಿದ್ಯಾರ್ಥಿಗಳ ತಂಡವೇ
ತರಗತಿ ಎಂದು ಅಗರವಾಲ್ ಎಂಬ ಗ್ರಂಥಕರ್ತರು ವ್ಯಾಖ್ಯಾನ ಮಾಡಿದ್ದಾರೆ.
ತರಗತಿಯು ನಿಜಕ್ಕೂ ಸಜಾತೀಯತೆಯ ಅತ್ಯುತ಼್ತಮ ಉದಾಹರಣೆಗಳಲ್ಲೊಂದು
ಎಂಬುದಾಗಿ ಕೊಂಡಾಡಿರುವ ಆಡಂ ಎಂಬ ಶಿಕ್ಷಣ ತಜ್ಞನು
ತರಗತಿಯ ವಿದ್ಯಾರ್ಥಿಗಳ ವೈಶಿಷ್ಟ್ಯವನ್ನು ವಿವರಿಸಿದ್ದಾನೆ. ಆತನ ಹೇಳಿಕೆಯ
ಪ್ರಕಾರ, ವಿದ್ಯಾರ್ಥಿಗಳು ಸರಿಸುಮಾರು ಒಂದೇ ವಯಸ್ಸಿನವರು; ಸಮಾಜದ
ಒಂದೇ ದರ್ಜೆಗೆ ಸೇರಿದವರು; ಒಂದೇ ಸಂಪ್ರದಾಯ, ಮತ-ಧರ್ಮಗಳನ್ನು~
ಳ್ಳವರು; ಕ್ರೀಡೆಯ ಬಗ್ಗೆ ಒಂದೇ ಧೋರಣೆಯುಳ್ಳವರು ಮತ್ತು ತರಗತಿಯ
ಕೆಲಸದ ಬಗೆಗೆ ವಿಶಿಷ್ಟವಾಗಿ ಹೇಳುವುದಾದರೆ, ಬಹುಮಟ್ಟಿಗೆ ಒಂದೇ ರೀತಿಯ
ಮಾನಸಿಕ ತೃಪ್ತಿಯನ್ನು ಹೊಂದಿದವರು ಆದರೆ ಇಂದಿನ ಪರಿಸ್ಥಿತಿಯನ್ನು
ಅವಲೋಕನ ಮಾಡಿದಾಗ ತರಗತಿಯಲ್ಲಿರುವ ಮಕ್ಕಳು ಸಮಾಜದ ವಿವಿಧ
ದರ್ಜೆಗಳಿಗೂ ವಿವಿಧ ಮತಗಳಿಗೂ ಸೇರಿದವರೆಂದು ಸ್ಪಷ್ಟವಾಗುವುದು. ಈ
ಹೇಳಿಕೆಯ ತಿರುಳೇನೆಂದರೆ, ಹೆಚ್ಚು ಕಡಿಮೆ ಸಮಾನವಾದ ಆಸಕ್ತಿಗಳು,
ಒಂದೇ ರೀತಿಯ ಸಾಧನೆಗಳು, ಸಾಮರ್ಥ್ಯಗಳು ಮತ್ತು ಧ್ಯೇಯವುಳ್ಳ
ಕಿರಿಯರು ತರಗತಿಯಲ್ಲಿರುತ್ತಾರೆ. ಒಟ್ಟಿನಲ್ಲಿ ತರಗತಿಯನ್ನು ಬೋಧಕಘಟ್ಟ~
ವೆನ್ನಬಹುದು.</p>

<p>ತರಗತಿಯ ರಚನೆಗೆ ಕಾರಣವಾದ ಅಂಶಗಳು ಹಲವಾರು ಇವೆ.
ಸಾರ್ವತ್ರಿಕ ಉಚಿತ ಮತ್ತು ಕಡ್ಡಾಯ ಪ್ರಾಥಮಿಕ ಶಿಕ್ಷಣವನ್ನು ಜಾರಿಗೆ
ತಂದಿರುವ ರಾಷ್ಟ್ರಗಳಲ್ಲಿ ಮಕ್ಕಳನ್ನು ಶಾಲೆಗೆ ಸೇರಿಸುವುದು ಅನಿವಾರ್ಯ~
ವಾಗಿದೆ. ಅದರ ಪರಿಣಾಮವಾಗಿ ತರಗತಿಗಳ ರಚನೆಯಾಗಬೇಕಾಗುತ್ತದೆ.</p>

<p>ಪ್ರಾಥಮಿಕ ಶಿಕ್ಷಣವು ಕಡ್ಡಾಯವಾಗಿರಲಿ, ಬಿಡಲಿ, ಮಕ್ಕಳಿಗೆ ಶಿಕ್ಷಣ
ಅಗತ್ಯವೆಂಬ ಭಾವನೆ ಬಹುಮಂದಿ ಪೋಷಕರಲ್ಲಿ ಬಲವಾಗಿ ಬೇರೂರುತ್ತಿರು~
ವುದರಿಂದಲೂ, ಪೂರ್ಣಕಾಲದ ಉಪಾಧ್ಯಾಯರುಗಳನ್ನು ಪಾಠಪ್ರವಚನ~
ಗಳಿಗಾಗಿ ನೇಮಿಸಿಕೊಳ್ಳುವ ಆರ್ಥಿಕ ಸಾಮರ್ಥ್ಯ ಎಲ್ಲರಿಗೂ ಇರುವುದಿಲ್ಲವಾದ್ದ~
ರಿಂದಲೂ, ಸರ್ಕಾರಕ್ಕೂ ತನ್ನದೇ ಆದ ಇತಿಮಿತಿಗಳಿರುವುದರಿಂದಲೂ ಅನೇಕ
102
ಮಕ್ಕಳಿಗೆ ಸಾಮೂಹಿಕವಾಗಿ ಓರ್ವ ಶಿಕ್ಷಕನಿಂದ ಪಾಠ ಹೇಳಿಸುವ ಪದ್ಧತಿ
ಸಾರ್ವತ್ರಿಕವಾಗಿ ಹಬ್ಬಿದೆ. ಹೀಗೆ ಆರ್ಥಿಕ ಕಾರಣದಿಂದ ವೈಯುಕ್ತಿಕ
ಬೋಧನೆಯ ಬದಲು ತರಗತಿ ಬೋಧನೆ ಅಸ್ತಿತ್ವಕ್ಕೆ ಬಂದಿದೆ.</p>

<p>ತರಗತಿಯ ರಚನೆಗೆ ಸಾಮಾಜಿಕ ಕಾರಣವೂ ಉಂಟು. ಮಾನವನು
ಸಂಘಜೀವಿ. ಅವನು ಒಂಟಿಯಾಗಿರುವುದರ ಬದಲು, ಅನ್ಯರ ಸಹವಾಸವನ್ನು
ಬಯಸುತ್ತಾನೆ. ಎಲ್ಲ ವ್ಯಕ್ತಿಗಳೂ ಶೂನ್ಯತೆಯಲ್ಲಿ ಕಲಿಯಲಾರರು. ಅವರಿಗೆ
ಗುಂಪಿನಲ್ಲಿ ಕುಳಿತು ಕಲಿಯುವುದು ಸುಲಭ. ಸಾಮಾಜಿಕ ತಂಡದಲ್ಲಿ ಕಲೆತು
ಕಲಿಯಲು ತರಗತಿಯ ಪದ್ಧತಿ ಆದರ್ಶಪ್ರಾಯವಾಗಿದೆ. ತರಗತಿಯಲ್ಲಿ ಕುಳಿತು
ಕಲಿಯುವವರು ಸ್ನೇಹಪರತೆಯನ್ನು ಬೆಳೆಸಿಕೊಳ್ಳುವರು. ವೈಯುಕ್ತಿಕ
ಬೋಧನೆ೟ು ಅದಕ್ಕೆ ಸಹಕಾರಿಯಾಗಿಲ್ಲ.</p>

<p>ಶಾಲೆಗೆ ಸೇರುವ ಎಲ್ಲ ಮಕ್ಕಳನ್ನೂ ಒಂದೇ ತಂಡದಲ್ಲಿಡುವುದು ಬಹು~
ತೇಕ ಸಂಸ್ಥೆಗಳಲ್ಲಿ ಸಾಧ್ಯವೂ ಇಲ್ಲ; ಸಾಧುವೂ ಅಲ್ಲ. ಆಡಳಿತದ ಸೌಕಱ್ಯ~
ಕ್ಕಾಗಿ ಬೇರೆ ಬೇರೆ ತರಗತಿಗಳ ರಚನೆ ಅನಿವಾರ್ಯ.</p>

<p>ಶಾಲೆಯಲ್ಲಿರುವ ವಿದ್ಯಾರ್ಥಿಗಳ ಬೌದ್ಧಿಕ ಸಾಧನೆಯು ಒಂದೇ ರೀತಿ~
ಯಲ್ಲಿರುವುದು ಅಪರೂಪ. ಇಲ್ಲವೆಂದರೂ ಸರಿ, ಒಬ್ಬನು ಮನೆಯಲ್ಲಿಯೇ
ಸ್ವಲ್ಪ ಶಿಕ್ಷಣವನ್ನು ಪಡೆದಿರಬಹುದು. ಮತ್ತೊಬ್ಬನಿಗೆ ಅಕ್ಷರಾಭ್ಯಾಸವೇ
ಆಗಿಲ್ಲದಿರಬಹುದು. ಈ ಎರಡು ಬಗೆಯ ವಿದ್ಯಾರ್ಥಿಗಳನ್ನು ಒಂದೇ ಗುಂಪಿಗೆ
ಸೇರಿಸುವುದರ ಬದಲು, ಪ್ರತ್ಯೇಕ ತರಗತಿಗಳ ರಚನೆ೟ು ಸಮರ್ಥನೀಯ~
ವಾಗುವುದು.</p>

<p>ವಿದ್ಯಾರ್ಥಿಗಳ ಸಂಖ್ಯೆ ಹೆಚ್ಚಿದಷ್ಟೂ ಒಂದೇ ತರಗತಿಯನ್ನು ಅನೇಕ
ವಿಭಾಗ ಇಲ್ಲವೇ ವರ್ಗಗಳಾಗಿ ಒಡೆಯುವುದು ಅನಿವಾರ್ಯವಾಗುತ್ತದೆ.
ತರಗತಿಯ ಗಾತ್ರವನ್ನು ನಿರ್ಧರಿಸಲು ಅನೇಕ ಅಂಶಗಳನ್ನು ಗಣ಩ೆಗೆ ತೆಗೆದು~
ಕೊಳ್ಳಬೇಕಾಗುತ್ತದೆ. ಅವುಗಳ ಪೈಕಿ ಮುಖ್ಯವಾದವುಗಳೆಂದರೆ ದರ್ಜೆ,
ಬೋಧನಾವಿಷಯ, ಉಪಾಧ್ಯಾಯರ ವ್ಯಕ್ತಿತ್ವ, ತರಗತಿ ಕೊಠಡಿಯ ಗಾತ್ರ
ಮತ್ತು ವಿಶೇಷ ಉದ್ದೇಶ.</p>

<p>Page 103</p>

<p>ದರ್ಜೆ : ಕೆಳಹಂತದ ತರಗತಿಗಳಲ್ಲಿನ ವಿದ್ಯಾರ್ಥಿಗಳ ಸಂಖ್ಯೆಯು
ಮೇಲಿನ ಹಂತದ ತರಗತಿಗಳ ವಿದ್ಯಾರ್ಥಿಗಳ ಸಂಖ್ಯೆಗಿಂತಲೂ ಕಡಿಮೆ ಇರ~
ಬೇಕು. ಪ್ರಾಥಮಿಕ ಶಾಲೆಗಳಲ್ಲಿ ಅದರಲ್ಲೂ ಮೊದಲಿನ ಒಂದೆರಡು ತರಗತಿ~
ಗಳಲ್ಲಿ, ಶಿಕ್ಷಣಕ್ಕೆ ಭದ್ರ ಬುನಾದಿ ಹಾಕಬೇಕಾಗಿರುವುದರಿಂದ ವೈಯುಕ್ತಿಕ
ಗಮನ ಕೊಡುವುದಕ್ಕಾಗಿ, ಮಕ್ಕಳ ಸಂಖ್ಯೆ ಎಷ್ಟು ಕಡಿಮೆ ಇದ್ದರೆ ಅಷ್ಟೂ
ಒಳ್ಳೆಯದು.</p>

<p>ಸಾಮಾನ್ಯವಾಗಿ ಪ್ರಾಥಮಿಕ ತರಗತಿಗಳಲ್ಲಿ 25 ಕ್ಕೆ ಮೀರದಷ್ಟು
ವಿದ್ಯಾರ್ಥಿಗಳಿರಬೇಕು. ಮಾಧ್ಯಮಿಕ ತರಗತಿಯಲ್ಲಿ ಅವರ ಸಂಖ್ಯೆ 20 ಅಥವಾ
35 ಕ್ಕೆ ಏರಬಹುದು. ಯಾವ ಕಾರಣದಿಂದಲೂ ತರಗತಿಯ ಗಾತ್ರ 45
ವಿದ್ಯಾರ್ಥಿಗಳಿಗಿಂತಲೂ ಜಾಸ್ತಿ ಇರಕೂಡದು.</p>

<p>ಬೋಧನಾ ವಿಷಯ : ಬೋಧನಾ ವಿಷಯವೂ ತರಗತಿಯ ಗಾತ್ರ~
ವನ್ನು ನಿರ್ಧರಿಸುತ್ತದೆ. ಚರಿತ್ರೆ, ಅರ್ಥಶಾಸ್ತ್ರರ, ಭೂಗೋಳ, ಸಂಗೀತ,
ಮತಧರ್ಮ ಮುಂತಾದ ವಿಷಯಗಳನ್ನು ವಿಶಾಲ ತರಗತಿಗಳಿಗೂ ಸುಲಭವಾಗಿ
ಬೋಧಿಸಬಹುದು. ದೈಹಿಕ ವ್ಯಾಯಾಮ ತರಗತಿಗೂ ಅದೇ ಮಾತನ್ನು
ಹೇಳಬಹುದು. ಆದರೆ ಭಾಷೆಗಳನ್ನೂ ಗಣಿತವನ್ನೂ ಬೋಧಿಸಲು ಚಿಕ್ಕ
ತರಗತಿಗಳು ಅಗತ್ಯ. ಈ ವಿಷಯಗಳನ್ನು ಕಲಿಸುವಾಗ ವೈಯುಕ್ತಿಕ ಗಮನ
ನೀಡಬೇಕಾಗುತ್ತದೆ ಮತ್ತು ಲಿಖಿತ ಕೃತಿಗಳನ್ನೂ ತಿದ್ದಲು ಹೆಚ್ಚು ಸಮಯ~
ಬೇಕಾಗುತ್ತದೆ.</p>

<p>ಉಪಾಧ್ಯಾಯರ ವ್ಯಕ್ತಿತ್ವ : ತರಬೇತಿಯಿಲ್ಲದ, ಸಾಧಾರಣ ಬುದ್ಧಿ~
ಶಕ್ತಿಯ ಶಿಕ್ಷಕರುಗಳು ದೊಡ್ಡ ತರಗತಿಗಳಿಗೆ ಪರಿಣಾಮಕಾರಿಯಾಗಿ ಬೋಧಿಸ~
ಲಾರರು. ಪ್ರತಿಭಾವಂತರೂ ಶಿಸ್ತಿನ ಸಿಪಾಯಿಗಳೂ ಆದ ಅಧ್ಯಾಪಕರುಗಳು
ದೊಡ್ಡ ತರಗತಿಗಳನ್ನು ಯಶಸ್ವಿಯಾಗಿ ನಿರ್ವಹಿಸಬಲ್ಲರು.</p>

<p>ತರಗತಿ - ಕೊಠಡಿಯ ಗಾತ್ರ : ಅನೇಕ ಶಾಲೆಗಳಲ್ಲಿ ದೊಡ್ಡ
ಕೊಠಡಿಗಳಿಲ್ಲದಿರಬಹುದು. ಕೊಠಡಿ ಚಿಕ್ಕದಾಗಿದ್ದು ವಿದ್ಯಾರ್ಥಿಗಳ ಸಂಖ್ಯೆ
ಜಾಸ್ತಿಯಿದ್ದಲ್ಲಿ, ಅವರಿಗೆಲ್ಲ ಪೀಠೋಪಕರಣಗಳನ್ನು ಒದಗಿಸುವುದು ಕಷ್ಟವಾಗುವುದು.
Page 104
ವಿದ್ಯಾರ್ಥಿಗಳ ಚಲನವಲನಗಳಿಗೂ ಅಡಚಣೆಯುಂಟಾಗು~
ವುದು. ನಾಲ್ಕು ಮಕ್ಕಳನ್ನು ಕೂರಿಸಬಹುದಾದ ಪೀಠದಲ್ಲಿ ಐದಾರು ಮಂದಿ~
ಯನ್ನು ತುರುಕಿದಲ್ಲಿ ಅಶಾಂತಿ, ಅಶಿಸ್ತುಗಳಿಗೆ ದಾರಿಯಾಗುವುದು. ಆದುದರಿಂದ
ಸ್ಥಳಾವಕಾಶವನ್ನು ಅಲಕ್ಷಿಸುವಂತಿಲ್ಲ.</p>

<p>ವಿಶೇಷ ಉದ್ದೇಶ : ಒಂದು ತರಗತಿಯು ಬೋಧನಾ ಘಟಕವಾಗಿ~
ದ್ದಲ್ಲಿ ಕಡಿಮೆ ವಿದ್ಯಾರ್ಥಿಗಳಿರಬೇಕು. ಅದು ಕೇವಲ ಸಂಘಟನಾ ಘಟಕ~
ವಾಗಿದ್ದಲ್ಲಿ ಹೆಚ಼್ಚು ಮಂದಿ ಇದ್ದರೂ ಬಾಧಕವಲ್ಲ.</p>

<p>ತರಗತಿಗಳ ರಚನೆಯಲ್ಲಿ ನಿಜವಾದ ಸಮಸ್ಯೆಯೆಂದರೆ ಕುಂದಿಲ್ಲದ ವರ್ಗೀ~
ಕರಣ.</p>

<p>ಈಗ ವರ್ಗೀಕರಣದಿಂದಾಗುವ ಪ್ರಯೋಜನಗಳನ್ನೂ, ವರ್ಗೀಕರಣದ
ಆಧಾರಗಳನ್ನು ತಿಳಿದುಕೊಳ್ಳೋಣ.</p>

<p>ವರ್ಗೀಕರಣವು ಸಜಾತೀಯ ಅಥವಾ ಏಕಜಾತೀಯ ಮೂಲತತ್ತ್ವವನ್ನು
ತರಗತಿಯ ಒಳಗೆ ತರಲು (ಪ್ರಾರಂಭಿಸಲು) ಸಹಾಯ ಮಾಡುತ್ತದೆ.</p>

<p>ಉಪಾಧ್ಯಾಯರಿಂದ ಸಮರ್ಥ ರೀತಿಯಲ್ಲಿ ಬೋಧನೆಯಾಗುವುದನ್ನೂ
ವಿದ್ಯಾರ್ಥಿಗಳಿಂದ ಸಮಾನ ರೀತಿಯಲ್ಲಿ ಸಾಧನೆ ಮಾಡುವ ಸಾಧ್ಯತೆಯನ್ನೂ
ವರ್ಗೀಕರಣವು ತೋರಿಸಿಕೊಟ್ಟಿದೆ.</p>

<p>ವಿದ್ಯಾರ್ಥಿಗಳ ವಿವಿಧ ಅಗತ್ಯಗಳನ್ನು ವರ್ಗೀಕರಣವು ಪೂರೈಸುತ್ತದೆ.</p>

<p>ಹೊಂದಾಣಿಕೆಯಲ್ಲಿನ ನ್ಯೂನತೆಯಿಂದ ಉದ್ಭವಿಸುವ ಅನಿಷ್ಟಗಳನ್ನೂ
ಅಶಿಸ್ತನ್ನೂ ಅದು ನಿವಾರಿಸುತ್ತದೆ.</p>

<p>ವಿದ್ಯಾರ್ಥಿಗಳಲ್ಲಿ ತಾವೆಲ್ಲರೂ ಒಂದೇ ಅಂತಸ್ತಿಗೆ ಮತ್ತು ತಂಡಕ್ಕೆ
ಸೇರಿದವರೆಂಬ ಪ್ರಜ್ಞೆಯನ್ನು ವರ್ಗೀಕರಣವು ಸೃಷ್ಟಿಸುತ್ತದೆ.</p>

<p>ಜ್ಞಾನ, ಕುಶಲತೆಗಳು, ಅನ್ವಯ ಮತ್ತು
ಧೋರಣೆಗಳ ಪರಮಾವಧಿ ಪ್ರಯೋಜನಗಳನ್ನು ತರಗತಿಯಿಂದ ಪಡೆಯಲೂ
ವರ್ಗೀಕರಣವು ನೆರವಾಗುತ್ತದೆ.</p>

<p>ವರ್ಗೀಕರಣಕ್ಕೆ ಆಧಾರಗಳು :</p>

<p>ಕಾಲಗಣನೆಯ ವಯಸ್ಸು : ಈಗ
ಸಾರ್ವತ್ರಿಕ ಉಚಿತ ಮತ್ತು ಕಡ್ಡಾಯ ಶಿಕ್ಷಣವನ್ನು ಬಹುತೇಕ ಊರುಗಳಲ್ಲಿ
ಪ್ರಾರಂಭಿಸಿರುವುದರಿಂದ ಆರು ವರ್ಷ ವಯಸ್ಸನ್ನು ಸಮೀಪಿಸಿರುವ ಮಕ್ಕಳೆಲ್ಲರೂ
ಶಾಲೆಗೆ ಸೇರಿ ತರಗತಿ ಎನಿಸಿಕೊಳ್ಳುತ್ತಾರೆ. ಆದರೆ ಕೇವಲ ವಯಸ್ಸಿನ ಆಧಾರದ
ಮೇಲೆ ಮಾಡಲ್ಪಡುವ ವರ್ಗೀಕರಣವು ಅಷ್ಟೇನೂ ತೃಪ್ತಿಕರವಾಗಿರಲಾರದು.
ಏಕೆಂದರೆ, ಒಂದೇ ವಯಸ್ಸಿನ ಹಸುಳೆಗಳೆಲ್ಲರೂ ಸಮಾನವಾದ ಬುದ್ಧಿಶಕ್ತಿ~
ಯುಳ್ಳವರೆಂದು ಹೇಳುವಂತಿಲ್ಲ. ಕೆಲವೊಮ್ಮೆ ಒಂದನೆಯ ತರಗತಿಯ ಮಗ಼ುವು
ನಾಲ್ಕನೆಯ ತರಗತಿಯಲ್ಲಿ ವ್ಯಾಸಂಗ ಮಾಡುತ್ತಿರುವ ಹಾಗೂ ತನಗಿಂತಲೂ
ಹೆಚ್ಚು ವಯಸ್ಸಾದ ಬೇರೆ ಮಗುವಿಗಿಂತಲೂ ಹೆಚ್ಚು ಜಾಣನಿರಬಹುದು.
ಆದುದರಿಂದ ಕಾಲಗಣನೆಯ ವಯಸ್ಸಿಗಿಂತ, ಮಾನಸಿಕ ವಯಸ್ಸನ್ನು ವರ್ಗೀ~
ಕರಣಕ್ಕೆ ಆಧಾರವಾಗಿಟ್ಟುಕೊಳ್ಳುವುದು ಮೇಲು.</p>

<p>2) ಮಾನಸಿಕ ವಯಸ್ಸು : ಮುಂದುವರಿದ
ದೇಶಗಳಲ್ಲಿರುವ ಶಾಲೆಗಳು ಬುದ್ಧಿಶಕ್ತಿ-ಒರೆಗಳಿಂದ
ಮಕ್ಕಳ ಮಾನಸಿಕ ವಯಸ್ಸನ್ನು ಕಂಡುಹಿಡಿದು, ವಿದ್ಯಾರ್ಥಿಗಳ
ವರ್ಗೀಕರಣ ಮಾಡುವ ಪದ್ಧತಿಯನ್ನು ಜಾರಿಗೆ ತಂದಿದ್ದಾರೆ. ಆದರೆ ಬುದ್ಧಿಶಕ್ತಿ
ಒರೆಗಳು ಪ್ರಾಥಮಿಕ ತರಗತಿಗಳ ವರ್ಗೀಕರಣಕ್ಕೆ ಮಾತ್ರ ತುಂಬ
ಸಹಾಯಕವಾಗುತ್ತದೆ. ವಿದ್ಯಾರ್ಥಿಗಳ ಸಾಮರ್ಥ್ಯಕ್ಕೆ ತಕ್ಕಂತೆ ಪ್ರಾಥಮಿಕ
ಶಾಲೆಗಳಲ಼್ಲಿ ವರ್ಗೀಕರಣ ಮಾಡುತ್ತಾರೆ. ಆದರೆ ಉನ್ನತ ದರ್ಜೆಗಳಲ್ಲಿ,
ಸಾಮರ್ಥ್ಯದ ಜೊತೆಗೆ ಸಾಧನೆಯನ್಩ೂ ವರ್ಗೀಕರಣಕ್ಕೆ ಆಧಾರವಾಗಿಟ್ಟು~
ಕೊಳ್ಳುವುದರಿಂದ, ಬುದ್ಧಿಶಕ್ತಿ ಒರೆಗಳನ್ನು ಮಾತ್ರವೇ ಅವಲಂಬಿಸುವಂತಿಲ್ಲ.</p>

<p>3) ಬೈಯೋಟೈಪೋಲಾಜಿಕಲ್್ (Biotypological)
ಪರೀಕ್ಷಾ ಪದ್ಧತಿ : ವೈಯುಕ್ತಿಕ ಮನಶ್ಯಾಸ್ತ್ರ ಮತ್ತು ವೈಯುಕ್ತಿಕ ಜೀವ
ಶಾಸ್ತ್ರಗಳ ವಿಧಾನಗಳನ್ನು ಅನ್ವಯಿಸಿ, ವಿದ್ಯಾರ್ಥಿಗಳ ವರ್ಗೀಕರಣ ಮಾಡುವ
ಬೈಯೊಟೈಪೊಲಾಜಿಕಲ್ ಪರೀಕ್ಷಾ ಪದ್ಧತಿಯನ್ನು ಫ್ರಾನ್ಸ್ ದೇಶದಲ್ಲಿ ಅಳವಡಿಸಿ~
ಕೊಳ್ಳಲಾಗಿದೆ. ಮನುಷ್ಯ ವಿಜ್ಞಾನ, ಲೈಂಗಿಕ ಅಂಶ, ರಾಸಾಯನಿಕ ಮತ್ತು
ಮೂತ್ರಕ್ಕೆ ಸಂಬಂಧಿಸಿದ ಅಂಶ, ಮನೋರೋಗ ಚಿಕಿತ್ಸಕ ಅಂಶಗಳು
Page 106
ಮೊದಲಾದ ಮಗುವಿನ ವ್ಯಕ್ತಿತ್ವಕ್ಕೆ ಸಂಬಂಧಿಸಿದ ವಿವಿಧ ಅಂಶಗಳನ್ನು ಈ
ಪದ್ಧತಿಯು ಒಳಗೊಂಡಿದೆ.</p>

<p>ಆದರೆ ತಾಂತ್ರಿಕ ಕೆಲಸಗಾರರ ಹಾಗೂ ಹಣದ ಅಭಾವವಿರುವ ಭಾರತ~
ದಲ್ಲಿ ಈ ದುಬಾರಿ ವಿಧಾನವನ್ನು ಅನುಸರಿಸಲು ಸಾಧ್ಯವಿಲ್ಲ.</p>

<p>4) ಸಾಮಾಜಿಕ ಪರಿಪಕ್ವತೆ : ಸಾಮಾ~
ಜಿಕ ಪರಿಪಕ್ವತೆಯ ಆಧಾರದ ಮೇಲೂ ವಿದ್ಯಾರ್ಥಿಗಳ ವರ್ಗೀಕರಣ ಮಾಡ~
ಬಹುದು. ವಿವಿಧ ಸಮಾಜಗಳಲ್ಲಿರುವ ಭಿನ್ನತೆಗಳ ಕಾರಣದಿಂದಾಗಿ, ಸಾಮಾ~
ಜಿಕ ಪರಿಪಕ್ವತೆಯನ್ನು ನಿರ್ಧರಿಸುವುದು ಕಷ್ಟವಾಗಿರುವುದರಿಂದ, ಇದನ್ನು
ಅಳವಡಿಸಿಕೊಳ್ಳುವುದು ಸಾಧ್ಯವಾಗಲಾರದು.</p>

<p>5) ಪಾಂಡಿತ್ಯ : ಶಾಲೆಯಲ್ಲಿ ಬೋಧಿಸುವ
ವಿಷಯಗಳಲ್ಲಿ ವಿದ್ಯಾರ್ಥಿಗಳು ಗಳಿಸಿರುವ ಜ್ಞಾನದ ಆಧಾರದ ಮೇಲೆ ಸಹ,
ವಿದ್ಯಾರ್ಥಿಗಳು ವರ್ಗೀಕರಣವನ್ನು ಮಾಡಬಹುದು.</p>

<p>ವರ್ಗೀಕರಣದ ಪ್ರಕ್ರಿಯೆಯಲ್ಲಿ ಸ್ಥಿತಿಸ್ಥಾಪಕತ್ವ ತುಂಬ ಅವಶ್ಯಕ.
ಸಮಾನಾಂತರ ವಿಭಾಗಗಳನ್ನು ತೆರೆಯಬಹುದು. ವಿವಿಧ ವಿಧಾನಗಳನ್ನು
ಅನುಸರಿಸಬಹುದು.</p>

<p>ಎರಡು ಅಥವಾ ಹೆಚ್ಚಿನ ವ್ಯಾಸಂಗದ ವಿಷಯಗಳುಳ್ಳ ತರಗತಿಯ
ಪದ್ಧತಿಯು ಇಂಗ್ಲೆಂಡಿನಲ್ಲಿ ವಾಡಿಕೆಯಲ್ಲಿದೆ. ಎಲ್ಲ ವಿದ್ಯಾರ್ಥಿಗಳಿಗೂ ಒಂದೇ
ರೀತಿಯ ಅಧ್ಯಯನದ ಪದ್ಧತಿ ಇರುವೆಡೆ, ಮೇಧಾವಿಗಳಾದ ವಿದ್ಯಾರ್ಥಿಗಳು
ತ್ವರಿತ ಪ್ರಗತಿಯನ್ನು ಸಾಧಿಸುತ್ತಾರೆ. ಕಲಿಕೆಯಲ್ಲಿ ನಿಧಾನವಾಗಿ ಸಾಗುವ~
ವರು ಮಂದಗತಿಯಲ್ಲೇ ಮುಂದುವರಿಯುತ್ತಾರೆ.</p>

<p>ವಿದ್ಯಾರ್ಥಿಗಳ ತೇರ್ಗಡೆ೟ು ವಾರ್ಷಿಕವಾಗಿರಬಹುದು; ಅರ್ಧವಾರ್ಷಿಕ~
ವಾಗಿರಬಹುದು ಇಲ್ಲವೇ ತ್ರೈಮಾಸಿಕವಾಗಿರಬಹುದು. ಇಮ್ಮಡಿ ಮತ಼್ತು
ವಿಶೇಷ ತೇರ್ಗಡೆಗಳಿಗೂ ಎಡೆಯುಂಟು. ಪ್ರಾಯೋಗಿಕ ತೇರ್ಗಡೆ ಮತ್ತು
ಅವಿಚ್ಛಿನ್ನ ತೇರ್ಗಡೆಗಳಿಗೂ ಅವಕಾಶವಿದೆ. ಆದರೆ ಈಗ ನಮ್ಮ ದೇಶದಲ್ಲಿ
ವಾರ್ಷಿಕ ತೇರ್ಗಡೆಯನ್ನು ಬಹುಮಟ್ಟಿಗೆ ಅನುಸರಿಸುತ್ತಿದ್ದಾರೆ ಎನ್ನಬಹುದು.</p>

<p>Page 107</p>

<p>ತರಗತಿ ಪದ್ಧತಿಯಲ್ಲಿ ಹಲವಾರು ಪ್ರಯೋಜನಗಳಿವೆ. ಆರ್ಥಿಕ
ದೃಷ್ಟಿಯಿಂದ ತರಗತಿ ಮಿತವ್ಯಯವನ್ನು ಸಾಧಿಸುತ್ತದೆ. ಒಬ್ಬೊಬ್ಬ
ವಿದ್ಯಾರ್ಥಿಗೆ ಒಬ್ಬೊಬ್ಬ ಉಪಾಧ್ಯಾಯರನ್ನು ನೇಮಿಸಬೇಕೆಂದರೆ ಎಷ್ಟು
ವೆಚ್ಚವಾಗುವುದೆಂಬುದನ್ನು ಒತ್ತಿ ಹೇಳಬೇಕಾಗಿಲ್ಲ.</p>

<p>ತರಗತಿ ಎಂಬುದು ಕೇವಲ ವಿದ್ಯಾರ್ಥಿಗಳ ಸಮೂಹ. ಅವರೆಲ್ಲರಿಗೂ
ಸಮಾನ ಆಸಕ್ತಿಗಳು ಇರುತ್ತವೆ. ತಮ್ಮ ಸಾಮರ್ಥ್ಯವನ್ನು ಪ್ರದರ್ಶಿಸಿ,
ಅದನ್ನು ಬೇರೆಯವರೊಂದಿಗೆ ತುಲನೆ ಮಾಡಿ ಅಳೆಯುವುದಕ್ಕೆ ಅವಕಾಶವಿದೆ.
ಬೇರೆಯವರನ್ನು ಅನುಕರಣೆ ಮಾಡುವುದರ ಮೂಲಕ ಮತ್ತು ಬೇರೆಯವರ
ಸಹಕಾರವನ್ನು ಪಡೆಯುವುದರ ಮೂಲಕ, ತಮ್ಮ ಚಟುವಟಿಕೆಗಳನ್ನು
ಚುರುಕುಗೊಳಿಸಿಕೊಂಡು ಪ್ರಗತಿ ಸಾಧಿಸಲು ಸಾಧ್ಯವಿದೆ.</p>

<p>ತರಗತಿಗೆ ತನ್ನದೇ ಆದ ಸಾಮುದಾಯಿಕ ಜೀವನವಿರುವುದರಿಂದ
ಸಾಮಾಜಿಕ ಪ್ರಜ್ಞೆಯನ್ನು ಬೆಳೆಸಿಕೊಳ್ಳಲು ಅದು ತರಬೇತಿ ಕೇಂದ್ರವಾಗಿದೆ.
ತನ್ನ ತಂಡದ ಹಿತಾಸಕ್ತಿಗೋಸ್ಕರ, ತನ್ನ ಆಸಕ್ತಿಗಳನ್ನು ತ್ಯಾಗಮಾಡ~
ಬೇಕೆಂಬುದನ್ನು ಮಗುವು ಕಲಿಯುತ್ತದೆ.</p>

<p>ತಂಡದ ಚಟುವಟಿಕೆಗಳಲ್ಲಿ ಭಾಗವಹಿಸುವುದರ ಮೂಲಕ, ಮಗುವು
ಅ಩ೇಕ ಸಾಮಾಜಿಕ ಅಭ್ಯಾಸಗಳನ್ನು ಬೆಳೆಸಿಕೊಳ್ಳುತ್ತದೆ.</p>

<p>ವೈಯಕ್ತಿಕ ಕಾಱ್ಯ ಮತ್ತು ತಂಡದ ಕಾರ್ಯದ ವೇಳೆಯಲ್ಲಿ ಉದ್ಭವಿ~
ಸುವ ತಪ್ಪು ಗ್ರಹಿಕೆಯನ್ನು ಕಂಡುಹಿಡಿಯಲೂ, ಅದನ್ನು ನಿವಾರಿಸಲೂ
ತರಗತಿ ಬೋಧನೆಯು ನೆರವಾಗುವುದು.</p>

<p>ಅನೇಕ ವಿದ್ಯಾರ್ಥಿಗಳು ಏಕ ಕಾಲದಲ್ಲಿ ಓರ್ವ ಶಿಕ್ಷಕರಿಂದ ಪಾಠ
ಹೇಳಿಸಿಕೊಳ್ಳುವುದರಿಂದ ಕಾಲ, ಹಣ ಮತ್ತು ಶಕ್ತಿಗಳ ಸದುಪಯೋಗ~
ವಾಗುತ್ತದೆ. ಅನೇಕ ವಿದ್ಯಾರ್ಥಿಗಳು ಒಂದೇ ರೀತಿಯ ತಪ್ಪುಗಳನ್ನು
ಮಾಡುವ ಸಂಭವವಿರುವುದರಿಂದ, ಒಬ್ಬನು ಮಾಡಿದ ತಪ್ಪುಗಳನ್ನು ಎತ್ತಿ
ತೋರಿಸಿ, ಅದನ್ನು ತಿದ್ದುವುದರಿಂದಲೂ ಎಲ್ಲರಿಗೂ ಏಕಕಾಲದಲ್ಲಿ ಪ್ರಯೋಜನ~
ವಾಗುವುದು; ವೈಯುಕ್ತಿಕ ವಿಧಾನಗಳಿಂದ ಶಿಕ್ಷಣದ ವೆಚ್ಚ ಗಗನಕ್ಕೇರುವುದು.
Page 108
ಆಡಂ ಎಂಬ ಶಿಕ್ಷಣ ತಜ್ಞನು ನುಡಿದಿರುವಂತೆ ಸ್ಫೂರ್ತಿದಾಯಕ
ಬೋಧನೆಗೆ ವ್ಯಷ್ಟಿ ವಿಧಾನಕ್ಕಿಂತಲೂ ಸಮಷ್ಟಿ ವಿಧಾನವು ಲೇಸು. ಸಾಹಿತ್ಯ,
ಮತಧರ್ಮ, ಕಲೆ, ಸಂಗೀತಗಳಲ್ಲಿ ಅಡಗಿರುವ ಭಾವೋನ್ಮಾದವನ್ನು ದೊಡ್ಡ
ತರಗತಿಗಳಲ್ಲಿ ಮಾತ್ರ ಜಾಗೃತಗೊಳಿಸಬಹುದು.</p>

<p>ಇಂದಿನ ಪ್ರಜಾಸತ್ತಾತ್ಮಕ ಹಾಗೂ ಸಮತಾವಾದದ ಯುಗದಲ್ಲಿ
ಸಮಾನತೆ ಮತ್ತು ಸಹಕಾರ ತತ್ತ್ವಗಳನ್ನು ಬೋಧಿಸಲು ತರಗತಿ ಪದ್ಧತಿ೟ು
ಆದರ್ಶಪ್ರಾಯವಾಗಿದೆ.</p>

<p>ವೈಯಕ್ತಿಕ ಬೋಧನೆಯಲ್ಲಿ ಮಗುವು ಉಪಾಧ್ಯಾಯರೊಬ್ಬರಿಂದ
ಮಾತ್ರ ಕಲಿಯಬೇಕಾಗಿದೆ. ತರಗತಿ ಪದ್ಧತಿಯಲ್ಲಿ ಅವನು ಶಿಕ್ಷಕರಿಂದಲೂ
ತನ್ನ ಸಹಪಾಠಿಗಳಿಂದಲೂ ಅನೇಕ ಸಂಗತಿಗಳನ್ನು ಕಲಿಯುತ್ತಾನೆ. ಅದ~
ರಿಂದಾಗಿ ಅವನ ಅನುಭವದ ಕ್ಷೇತ್ರ ವಿಸ್ತರಿಸುತ್ತಾ ಹೋಗುವುದು.</p>

<p>ಇಷ್ಟೆಲ್ಲ ಪ್ರಯೋಜನಗಳಿದ್ದರೂ, ತರಗತಿ ಪದ್ಧತಿಯನ್ನು ಪರಿಪೂರ್ಣ
ಪದ್ಧತಿ ಎನ್ನುವಂತಿಲ್ಲ. ಅದಕ್ಕೆ ತನ್ನದೇ ಆದ ಕೆಲವು ಅನಾನುಕೂಲಗಳಿವೆ.</p>

<p>ವಿದ್ಯಾರ್ಥಿಗಳು ತಮ್ಮದೇ ವೇಗದಲ್ಲಿ ಮತ್ತು ಪ್ರಮಾಣದಲ್ಲಿ
ಪ್ರಗತಿಯನ್ನು ಸಾಧಿಸುತ್ತಾರೆಂಬುದು ಹೊಸ ಸಂಗತಿ ಏನಲ್ಲ. ಆದರೆ ತರಗತಿ
ಪದ್ಧತಿಯು ಸರಾಸರಿ ಮಗುವನ್ನು ಮಾತ್ರ ಗಣನೆಗೆ ತೆಗೆದುಕೊಳ್ಳುವುದರಿಂದ
ವೈಯುಕ್ತಿಕ ಅಗತ್ಯಗಳನ್ನು ಉಪೇಕ್ಷಿಸುತ್ತದೆ.</p>

<p>ಪ್ರತಿಯೊಬ್ಬ ವಿದ್ಯಾರ್ಥಿಗೂ ತನ್ನದೇ ಆದ ವ್ಯಕ್ತಿತ್ವವಿದೆ. ತರಗತಿ
ಬೋಧನೆಯು ಸಾಮಾನ್ಯವಾಗಿ ವ್ಯಕ್ತಿ-ವೈಶಿಷ್ಟ್ಯವನ್ನು ಅಲಕ್ಷಿಸುತ್ತದೆ.
ಸಾಮೂಹಿಕ ಬೋಧನೆಯು ಜ್ಞಾಪಕಶಕ್ತಿಗೆ ಪ್ರಾಧಾನ್ಯ ನೀಡುತ್ತದೆ.
ವೈಯುಕ್ತಿಕ ಬೋಧನೆಯಲ್ಲಿ ಮುಂತೊಡಗುವ ಶಕ್ತಿಯನ್ನೂ ವ್ಯಕ್ತಿತ್ವವನ್ನೂ
ಬೆಳೆಸಿಕೊಳ್ಳಬಹುದು. ತರಗತಿ-ಪದ್ಧತಿಯಲ್ಲಿ ತೆಪ್ಪಗೆ ಕುಳಿತು ಜ್ಞಾನವನ್ನು
ಪಡೆಯುವುದರ ಬದಲು, ಕೆಲಸದಲ್ಲಿ ಇತರರೊಡನೆ ಪಾಲುದಾರನಾಗಬೇಕಾ~
ಗುತ್ತದೆ.</p>

<p>Page 109</p>

<p>ತರಗತಿ-ಪದ್ಧತಿಯು ಗುರು-ಶಿಷ್ಯರ ನಡುವೆ ಆಪ್ತ-ಬಾಂಧವ್ಯವನ್ನೂ,
ನಿಕಟ ಸಂಪರ್ಕವನ್ನೂ ಬೆಳೆಸಲು ಅಡ್ಡಿಯಾಗುತ್ತದೆ. ಅದರಿಂದಾಗಿ ಶಿಕ್ಷಣದ
ಪ್ರಮುಖ ಉದ್ದೇಶಗಳಲ್ಲೊಂದು ನೆರವೇರದೆ ಹೋಗುವುದು.</p>

<p>ತರಗತಿಯಲ್ಲಿ ವಿದ್ಯಾರ್ಥಿಗಳು ಕಿಕ್ಕಿರಿದು ನೆರೆಯುವುದರಿಂದ ಅಶಿಸ್ತು
ತಾಂಡವವಾಡುವುದುಂಟು. ಉಪಾಧ್ಯಾಯರ ಗಮನವನ್ನು ಸೆಳೆಯಲಾರದ
ವಿದ್ಯಾರ್ಥಿಗಳು, ಅವರಿಂದ ಅಲಕ್ಷಿಸಲ್ಪಟ್ಟ ವಿದ್ಯಾರ್ಥಿಗಳು ಗಲಾಟೆ ಮಾಡು~
ವುದರಲ್ಲಿ ಆಶ್ಚರ್ಯವೇನಿಲ್ಲ. ತರಗತಿಯ ದೊಡ್ಡ ಗಾತ್ರದಿಂದಾಗಿ ಮೇಲ್ವಿ~
ಚಾರಣೆಯು ಕಷ್ಟಕರವಾಗುವುದು.</p>

<p>ತರಗತಿ-ಪದ್ಧತಿಯಲ್ಲಿ ಉಪಾಧ್ಯಾಯನ ಶ್ರಮದ ಫಲವನ್ನು ಎಲ್ಲ
ವಿದ್ಯಾರ್ಥಿಗಳೂ ಸಮಾನವಾಗಿ ಅನುಭವಿಸಲಾರರು. ವೈಯಕ್ತಿಕವಾಗಿ ಅದು
ಹೊಂದಿಕೊಳ್ಳುವುದಿಲ್ಲವಾದ್ದರಿಂದ ಗಣನಾರ್ಹವಾಗಿ ವ್ಯರ್ಥವಾಗುವುದು.
ವೈಯುಕ್ತಿಕ ಪದ್ಧತಿಯಲ್ಲಿ ಶಿಕ್ಷಕನ ಪ್ರಯತ್ನವು ಸಾರ್ಥಕವಾಗುವುದರಿಂದ,
ಆತನಿಗೆ ತನ್ನ ದುಡಿಮೆಯಿಂದ ನಿಜವಾದ ತೃಪ್ತಿ ದೊರಕುವುದು.</p>

<p>ತರಗತಿ-ಪದ್ಧತಿಯಲ್ಲಿ ನಿರ್ದಿಷ್ಟ ಕಾಲದಲ್ಲಿ ನಿರ್ದಿಷ್ಟ ವಿಷಯವನ್ನು
ಬೋಧಿಸಬೇಕಾಗುತ್ತದೆ. ಎಲ್ಲರೂ ಏಕರೂಪತೆಯಲ್ಲಿ ಕೆಲಸ ಮಾಡಬೇ~
ಕಾದುದರಿಂದ, ಕೆಲವು ವಿದ್ಯಾರ್ಥಿಗಳು ಕಲಿಯಲು ತುಂಬಾ ಒದ್ದಾಡ~
ಬೇಕಾಗುತ್ತದೆ.</p>

<p>6) ಉಪಾಧ್ಯಾಯರು ಮತ್ತು ತರಗತಿ : ಉಪಾಧ್ಯಾಯರು~
ಗಳನ್ನು ಎರಡು ರೀತಿಯಲ್ಲಿ ವಿಂಗಡಿಸಬಹುದು. ಅವರು ತರಗತಿ ಉಪಾಧ್ಯಾ~
ಯರಾಗಿರಬಹುದು ಅಥವಾ ತಜ್ಞ ಉಪಾಧ್ಯಾಯರಾಗಿರ~
ಬಹುದು. ಇದರ ಅರ್ಥವೇನೆಂದರೆ ಓರ್ವ ಶಿಕ್ಷಕರನ್ನು ಎಲ್ಲ ತರಗತಿಗಳಿಗೂ
ಯಾವುದೋ ನಿರ್ದಿಷ಼್ಟ ವಿಷಯವನ್ನು ಬೋಧಿಸಲು ನೇಮಿಸಬಹುದು ಅಥವಾ
ಓರ್ವ ಶಿಕ್ಷಕರನ್ನು ಒಂದೇ ತರಗತಿಗೆ ಎಲ್ಲ ವಿಷಯಗಳನ್ನೂ ಬೋಧಿಸುವಂತೆ
ನೇಮಿಸಬಹುದು. ಸಾಮಾನ್ಯವಾಗಿ ಪ್ರಾಥಮಿಕ ಶಾಲೆಗಳಲ್ಲಿ, ಅದರಲ್ಲೂ
ಕೆಳಹಂತದ ತರಗತಿಗಳಲ್ಲಿ ಓರ಼್ವ ಉಪಾಧ್ಯಾಯನು ಒಂದು ತರಗತಿಯ
Pagge 110
ಸರ್ವ ವಿದ್ಯಾರ್ಥಿಗಳಿಗೂ ಎಲ್ಲ ವಿಷಯಗಳನ್ನೂ ಬೋಧಿಸಸುವ ಸಂಪ್ರದಾಯ~
ವಿದೆ. ಅಂತಹವರನ್ನು ತರಗತಿ - ಉಪಾಧ್ಯಾಯರೆನ್ನುವರು.</p>

<p>ತರಗತಿ - ಉಪಾಧ್ಯಾಯ ಪದ್ಧತಿಯಲ್ಲಿ ಹಲವಾರು ಪ್ರಯೋಜನಗಳಿವೆ.
ತರಗತಿ - ಉಪಾಧ್ಯಾಯನ ಮತ್ತು ಮಕ್ಕಳ ನಡುವೆ ನಿಕಟ ಸಂಪರ್ಕವಿರುತ್ತದೆ.
ಅದರಿಂದಾಗಿ ಮನಶ್ಯಾಸ್ತ್ರ-ದೃಷ್ಟಿಯಿಂದ ವಿದ್ಯಾರ್ಥಿಯನ್ನು ಚೆನ್ನಾಗಿ ಅರಿತು~
ಕೊಳ್ಳಲು ಸಾಧ್ಯವಾಗುವುದು.</p>

<p>ಆಧುನಿಕ ಪರಿಕಲ್ಪನೆಯ ಪ್ರಕಾರ, ಶಿಕ್ಷಕನು ಮಾರ್ಗದರ್ಶಿ ಅಥವಾ
ನಿರ್ದೇಶಕನ ಪಾತ್ರವನ್ನು ವಹಿಸಬೇಕಾಗಿರುವುದರಿಂದ ಮಕ್ಕಳೊಂದಿಗೆ ಸದಾ
ಸಂಪರ್ಕವನ್ನು ಹೊಂದಿರುವ ತರಗತಿ - ಶಿಕ್ಷಕನು ಆ ನಿರೀಕ್ಷಣೆಯ ಮಟ್ಟಕ್ಕೇರ~
ಬಲ್ಲನು.</p>

<p>ತರಗತಿ - ಉಪಾಧ್ಯಾಯ ಪದ್ಧತಿಯಲ್ಲಿ ಎಲ್ಲ ವಿಷಯಗಳನ್ನೂ ಓರ್ವ
ವ್ಯಕ್ತಿಯೇ ಬೋಧಿಸುವುದರಿಂದ, ವಿವಿಧ ವಿಷಯಗಳ ನಡುವೆ ಐಕ್ಯತೆಯ~
ನ್ನುಂಟು ಮಾಡಲು ಸಾಧ್ಯವಾಗುವುದು. ಮನೆಯಲ್ಲಿ ಮಾಡಿ ಒಪ್ಪಿಸತಕ್ಕ
ಅಭ್ಯಾಸಗಳ ನಡುವೆ ಸಮನ್ವಯವನ್ನು ಸಾಧಿಸಲು ಈ ವ್ಯವಸ್ಥೆಯು ಆದರ್ಶ~
ಪ್ರಾಯವಾಗಿದೆ. ಬೇರೆ ಬೇರೆ ಶಿಕ್ಷಕರು ಬೇರೆ ಬೇರೆ ವಿಷಯಗಳನ್ನು ಬೋಧಿ~
ಸುವ ಸಂದರ್ಭಗಳಲ್ಲಿ ಅವರು ಗೃಹ ಕಾರ್ಯಕ್ಕಾಗಿ ತಮಗೆ ಇಷ್ಟಬಂದ ರೀತಿ~
ಯಲ್ಲಿ ಆದೇಶಗಳನ್ನು ನೀಡುವುದರಿಂದ, ಮಕ್ಕಳಿಗೆ ಅದು ಹೊರೆಯಾಗುವುದು.
ತರಗತಿ - ಉಪಾಧ್ಯಾಯ ಪದ್ಧತಿಯಲ್ಲಿ ಈ ಅಪಾಯವಿರುವುದಿಲ್ಲ.</p>

<p>ಇಡೀ ತರಗತಿಯ ಪ್ರಗತಿ ಓರ್ವ ಶಿಕ್ಷಕನನ್ನು ಅವಲಂಬಿಸಿರುವುದರಿಂದ
ಅವನು ಹೆಚ್ಚು ಹೊಣೆಗಾರಿಕೆಯ ಮನೋಭಾವದಿಂದ ಶ್ರಮಿಸುವನು. ಕಾಲದ
ಮತ್ತು ವಿಷಯಗಳ ನಡುವಣ ಹೊಂದಾಣಿಕೆಗೆ ಇಲ್ಲಿ ಹೆಚ್ಚಿನ ಅವಕಾಶವಿದೆ.</p>

<p>ತಜ್ಞ ಉಪಾಧ್ಯಾಯ - ಪದ್ಧತಿಯೂ ತನ್ನದೇ ಆದ ಅನುಕೂಲಗಳನ್ನು
ಹೊಂದಿದೆ.</p>

<p>ಒಂದೇ ವಿಷಯದಲ್ಲಿ ಆಸಕ್ತಿಯುಳ್ಳ ತಜ್ಞ ಉಪಾಧ್ಯಾಯನು ತನ್ನ
ಜ್ಞಾನದ ಗಡಿಗಳನ್ನು ವಿಸ್ತರಿಸಿಕೊಳ್ಳುತ್ತಾ ಹೋಗುವನು.</p>

<p>Page 111</p>

<p>ಜೀವಶಾಸ್ತ್ರ, ಇತಿಹಾಸ, ಭೂಗೋಳ ಮೊದಲಾದ ವಿಷಯಗಳನ್ನು
ಬೋಧಿಸುವ ತಜ್ಞರುಗಳಿಗೆ ಪ್ರತ್ಯೇಕ ಕೊಠಡಿಯನ್ನು ಒದಗಿಸಿದ್ದೇ ಆದರೆ,
ಅವರು ತಮ್ಮ ವಿಷಯಗಳಿಗೆ ಸಂಬಂಧಿಸಿದ ವಸ್ತುಗಳಿಂದ ಅದನ್ನು ಸಜ್ಜು~
ಗೊಳಿಸುವುದರಲ್ಲಿ ಸಂದೇಹವಿಲ್ಲ. ಸುಸಜ್ಜಿತ ಕೊಠಡಿಯು ವಿದ್ಯಾರ್ಥಿಗಳಿಗೆ
ಸ್ಫೂರ್ತಿದಾಯಕವಾಗಿ, ಅವರಲ್ಲಿ ಜ್ಞಾನದಾಹವನ್ನು ಉಂಟು ಮಾಡು~
ವುದು.</p>

<p>ಸಂಶೋಧನೆಯನ್ನು ಕೈಗೊಳ್ಳಲು ತಜ್ಞ ಉಪಾಧ್ಯಾಯ ಪದ್ಧತಿಯಲ್ಲಿ
ಹೆಚ್ಚಿನ ಅವಕಾಶವಿದೆ.</p>

<p>ಓರ್ವ ಶಿಕ್ಷಕನೇ ಎಲ್ಲ ವಿಷಯಗಳನ್ನೂ ಬೋಧಿಸಿದರೆ ಮಕ್ಕಳಿಗೆ ಬೇಸರ~
ವಾಗುವುದು ಸಹಜ. ಆತನಲ್ಲಿ ದಕ್ಷತೆಯ ಅಭಾವವಿದ್ದರಂತೂ, ಮಕ್ಕಳ
ಪಾಡು ಇನ್ನೂ ಶೋಚನೀಯವಾಗುವುದು. ತಜ್ಞ ಶಿಕ್ಷಕ ಪದ್ಧತಿಯಲ್ಲಿ
ಅಂತಹ ಬೇಸರಕ್ಕೆ ಆಸ್ಪದವಿರುವುದಿಲ್ಲ. ಅದೂ ಅಲ್ಲದೆ ಅನೇಕ ಉಪಾಧ್ಯಾ~
ಯರೊಂದಿಗೆ ವಿದ್ಯಾರ್ಥಿಗಳ ಸಂಪರ್ಕವೇರ್ಪಡುವುದರಿಂದ ಅವರ ದೃಷ್ಟಿಕೋನ
ವಿಶಾಲವಾಗುವುದು.</p>

<p>ತಜ್ಞ ಉಪಾಧ್ಯಾಯ ಪದ್ಧತಿಯಲ್ಲಿ ವೈವಿಧ್ಯಕ಼್ಕೆ ಎಡೆ ಇರುವುದರಿಂದ
ಪಾಠ-ಪ್ರವಚನಗಳು ಸ್ವಾರಸ್ಯಕರವಾಗುವುವು.</p>

<p>ತಜ್ಞ ಶಿಕ್ಷಕನು ಮುಂದಿನ ವರ್ಷವೂ ಅದೇ ತಂಡಕ್ಕೆ ಬೋಧಿಸುವುದ~
ರಿಂದ ಕೆಲಸದ ಅವಿಚ್ಛಿನ್ನತೆಗೆ ಅವಕಾಶವಾಗುವುದು.</p>

<p>ಇಷ್ಟೆಲ್ಲ ಪ್ರಯೋಜನಗಳಿದ್ದರೂ ತಜ್ಞ ಉಪಾಧ್ಯಾಯ ಪದ್ಧತಿಯಲ್ಲಿ
ಪ್ರತ್ಯೇಕತೆಯ ಮನೋಭಾವವನ್ನು ಶಿಕ್ಷಕರು ಬೆಳೆಸಿಕೊಳ್ಳುವ ಸಂಭವವಿದೆ.
ಪಠ್ಯಕ್ರಮದಲ್ಲಿರಬೇಕಾದ ಸಮನ್ವಯೀಕರಣ ಮತ್ತು ಐಕ್ಯತೆಗೆ ಈ
ವ್ಯವಸ್ಥೆಯು ಧಕ್ಕೆಯನ್ನುಂಟು ಮಾಡುತ್ತದೆ.</p>

<p>ತಜ್ಞ-ಉಪಾಧ್ಯಾಯ - ಪದ್ಧತಿಯು ಮೇಲಿನ ತರಗತಿಗಳಿಗೆ, ಅದರಲ್ಲೂ
ಪ್ರೌಢಶಾಲೆಗಳಿಗೆ ಸೂಕ್ತವಾಗಿದೆ.</p>

<p>ಕೆಳ ಪ್ರಾಥಮಿಕ ಶಾಲೆಗಳಲ್ಲಿ ತರಗತಿ-ಉಪಾಧ್ಯಾಯ - ಪದ್ಧತಿಯು
Page 112
ಸೂಕ್ತವಾಗಿದ್ದಾಗ್ಯೂ ವಿಜ್ಞಾನಶಾಸ್ತ್ರ, ರೇಖಾಚಿತ್ರದಂತಹ ವಿಷಯಗಳು
ತಜ್ಞರ ಕೈಯಲ್ಲಿದ್ದರೆ ಹೆಚ್ಚು ಸುರಕ್ಷಿತವೆನಿಸುವುದು.</p>

<p>ಓರ್ವ ಶಿಕ್ಷಕನನ್ನು ಪ್ರತಿವರ್ಷವೂ ಒಂದೇ ತರಗತಿಗೆ ಬೋಧಿಸುವಂತೆ
ಮಾಡುವುದರ ಬದಲು, ಸರದಿಯ ಪ್ರಕಾರ ಬೇರೆ ಬೇರೆ ದರ್ಜೆಗಳಿಗೆ ಬೋಧಿಸಲು
ಅವಕಾಶ ಕೊಡುವುದು ಒಳ್ಳೆಯದು.</p>

<p>Page 113</p>

<p>			ಅಧ್ಯಾಯ - 9</p>

<p>		ಶಿಕ್ಷಣದ ನಿರ್ವಹಣೆಯಲ್ಲಿ ಇತರರ ಪಾತ್ರ</p>

<p>ಶಿಕ್ಷಣದ ನಿರ್ವಹಣೆಯಲ್ಲಿ ಮುಖ್ಯೋಪಾಧ್ಯಾಯರಲ್ಲದೆ ವ್ಯವಸ್ಥಾಪಕ
ವರ್ಗದವರು, ಶಿಕ್ಷಕರುಗಳು ಮತ್ತು ವಿದ್ಯಾರ್ಥಿಗಳು ಸಹ ತಮ್ಮ ತಮ಼್ಮ
ಪಾತ್ರವನ್ನು ವಹಿಸಬೇಕಾಗುತ್ತದೆ. ಅದರ ವಿವರಗಳನ್ನು ಈಗ ತಿಳಿದು~
ಕೊಳ್ಳೋಣ.</p>

<p>1) ವ್ಯವಸ್ಥಾಪಕ ವರ್ಗ : ವ್ಯವಸ್ಥಾಪಕ
ವರ್ಗದ ಪಾತ್ರವೇನೆಂಬುದನ್ನು ಅನುದಾನ - ಸಂಹಿತೆಯಲ್ಲಿ ವಿವರಿಸಲಾಗಿದೆ.
ಅದರ ನಿಯಮಗಳನ್ನು ಪಾಲಿಸಬೇಕಾದುದು ವ್ಯವಸ್ಥಾಪಕ ವರ್ಗದ ಕರ್ತವ್ಯ.
ವಿವಿಧ ದರ್ಜೆಯ ಶಿಕ್ಷಣ ಸಂಸ್ಥೆಗಳಿಗೆ - ಪ್ರಾಥಮಿಕ, ಮಾಧ್ಯಮಿಕ ಮತ್ತು
ಉನ್ನತ - ಬೇರೆ ಬೇರೆ ಸಂಹಿತೆಗಳಿವೆ ಎಂಬುದನ್ನು ಈ ಸಂಬಂಧದಲ್ಲಿ ಉಲ್ಲೇ~
ಖಿಸಬಹುದು. ಖಾಸಗಿ ಶಾಲೆಗಳನ್ನು ಖಾಸಗಿ ಶಿಕ್ಷಣ ಸಂಸ್ಥೆಗಳು ನಡೆಸು~
ವುದರಿಂದ ಆ ಸಂಘ ಅಥವಾ ಸಂಸ್ಥೆಗಳನ್ನು ಸರ್ಕಾರದ ಕಾನೂನು ಪ್ರಕಾರ
ನೊಂದಾಯಿಸಬೇಕಾಗಿರುತ್ತದೆ. ಅನುದಾನ ಪಡೆಯುವ ಸಂಸ್ಥೆಗಳು ತಮ್ಮ
ಶಾಲೆಗಳಿಗೆ ಬೇಕಾದ ಉದ್ಯೋಗಸ್ಥರನ್ನು ಪತ್ರಿಕೆಗಳಲ಼್ಲಿ ಜಾಹಿರಾತುಗಳನ್ನು
ನೀಡುವುದರ ಮೂಲಕ ಅರ್ಜಿಗಳನ್ನು ಆಹ್ವಾನಿಸಬೇಕಾಗುತ್ತದೆ. ಅರ್ಜಿಯ
ಒಂದು ಪ್ರತಿಯನ್ನು ಶಿಕ್ಷಣ ಇಲಾಖೆಯ ಸಂಬಂಧಪಟ್ಟ ಅಧಿಕಾರಿಗೂ
ಅಭ್ಯರ್ಥಿಯು ಕಳುಹಿಸಬೇಕಾಗುತ್ತದೆ. ಸಂದರ್ಶನ ನಡೆಸಿ ಹುದ್ದೆಗಳನ್ನು
ಭರ್ತಿ ಮಾಡುತ್ತದೆ - ಈ ವ್ಯವಸ್ಥಾಪಕ ವರ್ಗ. ಈಗ ಕೋಮುವಾರು ಹಂಚಿ~
ಕೆಯ ಪ್ರಕಾರ ಹುದ್ದೆಗಳನ್ನು ಪರಿಶಿಷ್ಟವರ್ಗ, ಹಿಂದುಳಿದ ವರ್ಗ ಮತ್ತು
Page 114
ಸಾರ್ವತ್ರಿಕ ಅರ್ಹತೆಯ ಹುದ್ದೆಗಳೆಂದು ವಿಂಗಡಿಸಬೇಕಾಗುತ್ತದೆ. ಮೀಸಲು
ಸ್ಥಾನಗಳನ್ನು ಅವಕ್ಕೆ ಅರ್ಹರಾದ ಅಭ್ಯರ್ಥಿಗಳು ದೊರೆಯುವವರೆಗೂ
ಹಾಗೆಯೇ ಉಳಿಸಿಕೊಂಡು ಬರಬೇಕಾಗುತ್ತದೆ. ಆದರೆ ಹಂಗಾಮಿಯಾಗಿ
ಇತರರನ್ನು ಶೈಕ್ಷಣಿಕ ವರ್ಷದ ಅಂತ್ಯದವರೆಗೂ ನೇಮಿಸಿಕೊಳ್ಳಬೇಕಾ~
ಗುತ್ತದೆ.</p>

<p>ಶಾಲೆಗಳನ್ನು ನಡೆಸುವ ಸಂಘ-ಸಂಸ್ಥೆಗಳು ಕಾರ್ಯಕಾರಿ ಅಥವಾ
ಕಾರ್ಯನಿರ್ವಾಹಕ ಸಮಿತಿಯನ್ನು ಹೊಂದಿರಬೇಕಾಗುತ್ತದೆ. ಕಾರ್ಯ
ನಿರ್ವಾಹಕ ಸಮಿತಿಯು ತನ್ನ ಅಧ್ಯಕ಼್ಷ, ಕಾರ್ಯದರ್ಶಿ ಮತ್ತು ಖಜಾಂಚಿ~
ಯರನ್ನು ಆಯ್ಕೆ ಮಾಡುವುದು ಶಾಲೆಯ ಆರ್ಥಿಕ ವ್ಯವಹಾರಗಳಿಗೆ ಅದು
ಹೊಣೆಯಾಗಿದೆ. ಆದರೆ ಶಾಲೆಯ ಕ್ರೀಡೆ, ಪುಸ್ತಕಭಂಡಾರ, ವಿಜ್ಞಾನ
ಮುಂತಾದವುಗಳಿಗೆ ಸಂಬಂಧಿಸಿದ ನಿಧಿಗಳಿದ್ದರೆ, ಅವನ್ನು ಮುಖ್ಯೋಪಾಧ್ಯಾ~
ಯರ ನಿಯಂತ್ರಣಕ್ಕೆ ಒಳಗುಮಾಡಬಹುದು.</p>

<p>ಶಿಕ್ಷಣದಲ್ಲಿ ಆಸಕ್ತಿಯುಳ್ಳವರನ್ನು ಅದರ ಸದಸ್ಯರುಗಳನ್ನಾಗಿ ಆಯ್ಕೆ
ಮಾಡಿಕೊಳ್ಳಬೇಕಾಗುತ್ತದೆ. ಶಾಲೆಯ ಕೆಲಸ ಕಾರ್ಯಗಳು ಸುಸೂತ್ರವಾಗಿ
ಸಾಗುವಂತೆ ನೋಡಿಕೊಳ್ಳುವ ಹೊಣೆ ಕಾರ್ಯನಿರ್ವಾಹಕ ಸಮಿತಿಯದಾಗಿದೆ.
ಉಪಾಧ್ಯಾಯರ ನಿವೃತ್ತಿಯ ನಂತರ ನೀಡಬೇಕಾದ ಸಹಾನುಭೂತಿ ನಿಧಿ
ಭವಿಷ್ಯನಿಧಿ ಮುಂತಾದವುಗಳು
ಜಾರಿಯಲ್ಲಿರುವ ರಾಜ್ಯಗಳಲ್ಲಿ ವ್ಯವಸ್ಥಾಪಕ ವರ್ಗವು ತನ್ನ ವಂತಿಗೆಗಳನ್ನು
ಕಾಲಕಾಲಕ್ಕೆ ಸಲ್ಲಿಸಬೇಕಾಗುತ್ತದೆ.</p>

<p>ಶಾಲೆಯ ಕಟ್ಟಡಗಳ ನಿರ್ಮಾಣ, ದುರಸ಼್ತಿ ಮುಂತಾದವುಗಳನ್ನು
ವ್ಯವಸ್ಥಾಪಕ ವರ್ಗವು ನೋಡಿಕೊಳ್ಳಬೇಕಾಗುತ್ತದೆ. ಸರ್ಕಾರವು ಕೊಡುವ
ಪೋಷಣೆ, ಅನುದಾನಗಳನ್ನು ಸ್ವೀಕರಿಸಿ, ಸಾಲದೆ ಬರುವ ಹಣವನ್ನು
ಒದಗಿಸುವ ನೈತಿಕ ಕರ್ತವ್ಯ ವ್ಯವಸ್ಥಾಪಕ ವರ್ಗದ್ದಾಗಿದೆ.</p>

<p>ವ್ಯವಸ್ಥಾಪಕ ವರ್ಗವು ಶಾಲೆಯ ದೈನಂದಿನ ವ್ಯವಹಾರಗಳಲ್ಲಿ ಅನವ~
ಶ್ಯಕವಾಗಿ ಹಸ್ತಕ್ಷೇಪ ಮಾಡಕೂಡದು. ಹಾಗೆ ಮಾಡಿದಲ್ಲಿ ಉದ್ಯೋಗಸ್ಥರ
ಮಂಡಲಿಯೊಂದಿಗೆ ವಿರಸವುಂಟಾಗಿ ಶೈಕ್ಷಣಿಕ ಪ್ರಗತಿಗೆ ಧಕ್ಕೆಯಾಗುವುದು.</p>

<p>Page 115</p>

<p>ಭವಿಷ್ಯನಿಧಿ ಜಾರಿಯಲ್ಲಿರಬಹುದಾದ ಶಾಲೆಗಳಲ್ಲಿ ಅದನ್ನು ಸಂರಕ್ಷಿಸುವ
ಜವಾಬ್ದಾರಿ ವ್ಯವಸ್ಥಾಪಕ ವರ್ಗದ್ದಾಗಿರುತ್ತದೆ. ವೈಯುಕ್ತಿಕ ಲೆಕ್ಕಕ್ಕೆ ಆಯಾ
ತಿಂಗಳ ವಂತಿಗೆಯ ಹಣವು ಜಮಾ ಆಗುವಂತೆ ಅದು ನೋಡಿಕೊಳ್ಳಬೇಕು.</p>

<p>ಸರ್ಕಾರದ ಸಹಾಯಧನ ಪಡೆಯದ ಶಾಲೆಗಳೂ ಕಾನೂನು ಪ್ರಕಾರ
ನೊಂದಾಯಿಸಿಕೊಂಡಿರುವ ಸಂಘ ಸಂಸ್ಥೆಗಳ ಮೂಲಕ ನಡೆಸಲ್ಪಡಬೇಕಾ~
ಗುತ್ತದೆ. ಅಲ್ಲಿಯೂ ಅಧ್ಯಕ್ಷರು, ಕಾರ್ಯದರ್ಶಿ, ಖಜಾಂಚಿ ಹಾಗೂ ಕೆಲವರು
ಸದಸ್ಯರುಗಳಿಂದ ಕೂಡಿದ ಕಾರ್ಯನಿರ್ವಾಹಕ ಸಮಿತಿಗಳಿರುತ್ತವೆ. ಮುಖ್ಯೋ~
ಪಾಧ್ಯಾಯರೂ ಸೇರಿದಂತೆ ಎಲ್ಲ ಉದ್ಯೋಗಸ್ಥರನ್ನೂ ಅದು ನೇಮಕ ಮಾಡಿ~
ಕೊಳ್ಳಬೇಕಾಗುತ್ತದೆ. ಉತ್ತಮ ರೀತಿಯಲ್ಲಿ ಸೇವೆ ಸಲ್ಲಿಸುತ್ತಿರುವ ಅಂತಹ
ಸಂಘ, ಸಂಸ್ಥೆಗಳು ನಿರ್ದಿಷ್ಟವಾದ ಸೇವಾನಿಯಮಗಳನ್ನು ರೂಪಿಸಿಕೊಂಡು,
ನಿರ್ದಿಷ್ಟ ವೇತನ ಶ್ರೇಣಿಯನ್ನು ಜಾರಿಗೆ ತಂದಿವೆ. ಉದ್ಯೋಗಸ್ಥರು ಕರಾರು
ಪತ್ರಕ್ಕೆ ಸಹಿ ಹಾಕಬೇಕಾಗುತ್ತದೆ.</p>

<p>ವಾಣಿಜ್ಯ ದೃಷ್ಟಿಯಿಂದ ಶಿಕ್ಷಣ ಸಂಸ್ಥೆಗಳನ್ನು ನಡೆಸುತ್ತಿರುವ
ಗಣನೀಯ ಸಂಖ್ಯೆಯ ವ್ಯವಸ್ಥಾಪಕ ವರ್ಗದವರು ತಮ್ಮ ಅನುಕೂಲಕ಼್ಕೆ
ತಕ್ಕಂತೆ ನೌಕರರ ನೇಮಕ, ವೇತನದ ಪಾವತಿ, ಭಡತಿ ಮುಂತಾದವುಗಳನ್ನು
ಮಾಡುವುದುಂಟು.</p>

<p>ಆದರೆ ಅನುದಾನ ಪಡೆಯದ ಖಾಸಗಿ ಸಂಸ್ಥೆಗಳು ಇಲಾಖೆಯ
ಕೆಲವು ನಿಯಮಗಳನ್ನು ಪಾಲಿಸದಿದ್ದಲ್ಲಿ, ಅವಕ್ಕೆ ಕೊಟ್ಟಿರುವ ಮಾನ್ಯತೆಯನ್ನು
ಹಿಂತೆಗೆದುಕೊಳ್ಳಬ಼ಹುದಾಗಿದೆ.</p>

<p>ಕಾರ಼್ಯನಿರ್ವಾಹಕ ಸಮಿತಿ ಮತ್ತು ಶಾಲಾ ಸಿಬ್ಬಂದಿಯ ನಡುವೆ
ಅತ್ಯಂತ ನಿಕಟ ಸಹಕಾರವಿರಬೇಕು. ಕಾರ್ಯನಿರ್ವಾಹಕ ಸಮಿತಿಯು
ಮುಖ್ಯೋಪಾಧ್ಯಾಯರಲ್ಲೂ, ಇತರ ಶಿಕ್ಷಕರುಗಳಲ್ಲೂ ನಂಬಿಕೆ ಇಡುವುದು
ಅಗತ್ಯ.</p>

<p>ಮುಖ್ಯೋಪಾಧ್ಯಾಯರ ಹೊಣೆಗಾರಿಕೆಯ ವ್ಯಾಪ್ತಿ ಎಷ್ಟೆಂಬುದನ್ನು
ಕಾರ್ಯನಿರ್ವಾಹಕ ಸಮಿತಿಯು ನಿರ್ಧರಿಸಿ, ಅದಕ್ಕೆ ಸಂಬಂಧಿಸಿದ ನಿಯಮ~
ಗಳನ್ನು ಚಾಚೂ ತಪ್ಪದೆ ಇಬ್ಬರೂ ಪಾಲಿಸಬೇಕು.</p>

<p>Page 116</p>

<p>ಒಬ್ಬರ ಕ್ಷೇತ್ರವನ್ನು ಮತ್ತೊಬ್ಬರು ಅಕ್ರಮ ಪ್ರವೇಶ ಮಾಡದಿದ್ದಲ್ಲಿ
ಇಬ್ಬರಿಗೂ ಕ್ಷೇಮ.</p>

<p>ಅ಩ೇಕ ಸಂಸ್ಥೆಗಳಲ್ಲಿ ಕಾರ್ಯದರ್ಶಿ ಇಲ್ಲವೇ ಅಧ್ಯಕ್ಷನು ಮಾತ್ರ ಶಾಲೆಯ
ಆಗು-ಹೋಗುಗಳಲ್ಲಿ ಸಕ್ರಿಯ ಪಾತ್ರ ವಹಿಸುವುದುಂಟು. ಶಾಲೆಯ ಅಭ್ಯು~
ದಯಕ್ಕಾಗಿ ಕಾರ್ಯನಿರ್ವಾಹಕ ಸಮಿತಿಯ ಎಲ್ಲ ಸದಸ್ಯರುಗಳೂ ಅತೀವ
ಆಸಕ್ತಿಯನ್ನು ವಹಿಸಬೇಕು.</p>

<p>ಕಾರ್ಯದರ್ಶಿ ಅಥವಾ ಅಧ್ಯಕ್ಷನಿಗೆ ಅಗತ್ಯವಾದ ವಿದ್ಯಾರ್ಹತೆಗಳಿದ್ದಲ್ಲಿ,
ವಾರಕ್ಕೆ ಕೆಲವು ತಾಸುಗಳಷ್ಟು ಕಾಲ ಯಾವುದಾದರೂ ತರಗತಿಗಳಿಗೆ ಬೋಧಿಸಿ~
ದಲ಼್ಲಿ, ಶಾಲೆಯೊಂದಿಗೆ ಹೆಚ್ಚಿನ ಸಂಪರ್ಕವನ್ನಿಟ್ಟುಕೊಳ್ಳಲು ಸಾಧ್ಯವಾಗುವುದು.
ಆದರೆ ಬೋಧಿಸುವ ಸಮಯದಲ್ಲಿ ಮಾತ್ರ ಅವರು ಮುಖ್ಯೋಪಾಧ್ಯಾಯರ
ಹತೋಟಿಗೆ ಒಳಗಾಗಬೇಕು.</p>

<p>ಕಾರ್ಯನಿರ್ವಾಹಕ ಸಮಿತಿಯ ಸದಸ್ಯರುಗಳು ಪಠ್ಯೇತರ ಚಟುವಟಿಕೆ~
ಗಳಾದ ನಾಟಕ, ಸಂಗೀತ, ಬಾಲಚಮುದಳ, ರೆಡ್್ಕ್ರಾಸ್, ಕ್ರೀಡೆಗಳು
ಮುಂತಾದ ವಲಯಗಳಲ್ಲಿ ಸಕ್ರಿಯ ಪಾತ್ರ ವಹಿಸಬಹುದು ಹಾಗೂ ಮಾರ್ಗ~
ದರ್ಶನ ಮಾಡಬಹುದು.</p>

<p>ಯಾವಾಗಲಾದರೊಮ್ಮೆ ಸಂತೋಷ ಕೂಟವ಩್ನೇರ್ಪಡಿಸಿ, ಅದರಲ್ಲಿ
ಕಾರ್ಯನಿರ್ವಾಹಕ ಸಮಿತಿಯವರು ಮತ್ತು ಅಧ್ಯಾಪಕ ವರ್ಗದವರು ಭಾಗ~
ವಹಿಸಿ, ಪರಸ್ಪರ ವಿಚಾರ-ವಿನಿಮಯ ಮಾಡಿಕೊಳ್ಳುವುದು ಅಪೇಕ್ಷಣೀಯ~
ವಾಗಿದೆ.</p>

<p>ಸಿಬ್ಬಂದಿಯ ಪ್ರಯೋಜನಕ್ಕಾಗಿ ವ್ಯವಸ್ಥಾಪಕ ವರ್ಗವು ಉಳಿತಾಯ
ಹಾಗೂ ಸಾಲ ನೀಡುವ ಸಹಕಾರ ಸಂಘವನ್ನು ಸ್ಥಾಪಿಸಬಹುದು.</p>

<p>ತಮ್ಮ ನೌಕರರು ನಿವೃತ್ತಿ ಹೊಂದಿದಾಗ, ಅಕಾಲ ಮರಣಕ್ಕೆ ತುತ್ತಾ~
ದಾಗ ಆರ್ಥಿಕ ನೆರವನ಼್ನು ನೀಡುವುದಕ್ಕಾಗಿ, ಪ್ರಗತಿಶೀಲ ವ್ಯವಸ್ಥಾಪಕವರ್ಗ~
ದವರನೇಕರು, ಉದ್ಯೋಗಸ್ಥರ ಕಲ್ಯಾಣನಿಧಿಯನ್ನು ಏರ್ಪಡಿಸಿದ್ದಾರೆ. ಇದು
ಇತರರಿಗೆ ಅನುಕರಣ ಯೋಗ್ಯವಾಗಿದೆ.</p>

<p>Page 117</p>

<p>2) ಶಿಕ್ಷಣ : ಇಡೀ ಶಿಕ್ಷಣ ಪದ್ಧತಿಯಲ್ಲಿ ಅತ್ಯಂತ ಮುಖ್ಯ ವ್ಯಕ್ತಿ~
ಯೆಂದರೆ ಶಿಕ್ಷಕನು. """"""""ಇಡೀ ಶಾಲಾ ಪದ್ಧತಿಯು ತಿರುಗುತ್ತಿರುವ ತಿರುಗಣೆ
ಗೂಟವೆಂದರೆ ಉಪಾಧ್ಯಾಯನ ವ್ಯಕ್ತಿತ್ವ"""""""" ಎಂಬುದಾಗಿ ಮಾಧ್ಯಮಿಕ ಶಿಕ್ಷಣ
ಮಂಡಲಿಯು ವರ್ಣಿಸಿರುವುದರಲ್ಲಿ ಉತ್ಪ್ರೇಕ್ಷೆಯೇನಿಲ್ಲ. ಖ್ಯಾತ ಶಿಕ್ಷಣತಜ್ಞ~
ರಾಗಿದ್ದ ಹುಮಾಯೂನ್ ಕಬೀರ್ ಅವರು ಹೇಳಿದುದೇನೆಂದರೆ. """"""""ಶಿಕ್ಷಕರುಗಳು
ಅಕ್ಷರಶಃ ರಾಷ್ಟ್ರದ ಹಣೆಯ ಬರಹದ (ವಿಧಿಯ) ಪಂಚಾಯತರು."""""""" ಭಾರತದ
ವಿಧಿಯನ್ನು ಅದರ ತರಗತಿಗಳ ಕೊಠಡಿಯಲ್ಲಿ ರೂಪಿಸಲಾಗುತ್ತಿದೆ, ಎಂಬುದು
ಕೋಠಾರಿ ಆಯೋಗದ ವರದಿಯ ಮೊದಲ ವಾಕ್ಯವೇ ಆಗಿದೆ. ಶಿಕ್ಷಕರುಗಳು
ಪ್ರಾಮಾಣಿಕತೆಯಿಂದ ಹಾಗೂ ದಕ್ಷತೆಯಿಂದ ಕೆಲಸ ಮಾಡಿದಲ್ಲಿ, ರಾಷ್ಟ್ರಶಿಲ್ಪಿ~
ಗಳೂ, ಸಮಾಜ ಸುಧಾರಕರೂ, ರಾಷ್ಟ್ರ ನಿರ್ಮಾಪಕರೂ ಆಗಬಲ್ಲರು.</p>

<p>ಶಿಕ್ಷಕರುಗಳು ಹುಟ್ಟಿನಿಂದಲೇ ಬಂದವರು. ಅವರನ್ನು ತಯಾರಿಸಲು
ಆಗುವುದಿಲ್ಲ ಎಂಬುದಾಗಿ ಹೇಳುತ್ತಿದ್ದ ಕಾಲ ಆಗಿಹೋಯಿತು. ವರ್ಗ
ಶಿಕ್ಷಣದ ಶಕ ಮುಗಿದು, ಜನತಾ ಶಿಕ್ಷಣದ ಶಕ ಆರಂಭವಾಗಿರುವ ಈ ಕಾಲ~
ದಲ್ಲಿ ಶ್ರದ್ಧೆ, ಉತ್ಸಾಹ, ಅಧ್ಯಯನಗಳಿಂದ ಸಾಧಾರಣ ದರ್ಜೆಯ ವ್ಯಕ್ತಿಯೂ
ಉತ್ತಮ ಉಪಾಧ್ಯಾಯನಾಗಲು ಪ್ರಯತ್ನಿಸಬೇಕಾಗಿದೆ.</p>

<p>ಶಿಕ್ಷಕನಿಗೆ ಸಮಾಜದಲ್ಲಿ ಮನ್ನಣೆ, ಗೌರವ, ಅಂತಸ್ತು ದೊರೆಯಬೇಕಾ~
ದರೆ ಆತನು ಕೆಲವು ಒಳ್ಳೆಯ ಗುಣಗಳನ್ನು ಪಡೆದಿರಬೇಕು.</p>

<p>ಶಿಕ್ಷಕ ವೃತ್ತಿಯನ್ನು ಪ್ರವೇಶಿಸುವ ಅಭ್ಯರ್ಥಿಯು ಮೊಟ್ಟ ಮೊದಲನೆಯ~
ದಾಗಿ ತನ್ನ ವೃತ್ತಿಯಲ್ಲಿ ಶ್ರದ್ಧೆ, ನಂಬಿಕೆಗಳನ್ನು ಬೆಳೆಸಿಕೊಳ್ಳಬೇಕು. ಅವನಿಗೆ
ಶಿಕ್ಷಣವು ಉದರನಿಮಿತ್ತವಾಗುವ ಬದಲು ಜೀವಿತದ ಗುರಿಯಾಗಿರಬೇಕು.
ಬೋಧನಾವೃತ್ತಿಯ ಉನ್ನತ ಸಂಪ್ರದಾಯಗಳನ್ನು ಆತನು ಎತ್ತಿ ಹಿಡಿಯ~
ಬೇಕು. ತನ್ನ ವೃತ್ತಿಯ ಘನತೆ ಗೌರವಗಳನ್ನು ತಗ್ಗಿಸುವ ಕೃತ್ಯಗಳಾವು~
ದನ್ನೂ ಆತನು ಎಸಗಕೂಡದು.</p>

<p>ಶಿಕ್ಷಕನು ವಿದ್ಯಾರ್ಥಿಗಳ ಗೆಳೆಯ, ಮಾರ್ಗದರ್ಶಿ ಮತ್ತು ದಾರ್ಶನಿಕ~
ನಾಗಿರಬೇಕು. ಅವನಿಗೆ ತನ್ನದೇ ಆದ ಜೀವನದರ್ಶನವಿರಬೇಕು. ಬಾಳಿನ
ಗುರಿ, ಧ್ಯೇಯ, ಆದರ್ಶಗಳನ್ನು ಅವನು ಮಕ್ಕಳಿಗೆ ಮನವರಿಕೆ ಮಾಡಿಕೊಡಬೇಕು.
Page 118
ನಾಳಿನ ಪೌರರಾದ ಇಂದಿನ ಮಕ್ಕಳು ಸದ್ಗುಣಗಳನ್ನು ಬೆಳೆಸಿಕೊಂಡು
ಆದರ್ಶ ನಾಗರಿಕ಼ರಾಗಿ, ತಮ್ಮ ಬದುಕನ್ನು ಬಂಗಾರ ಮಾಡಿಕೊಂಡು, ತಾವು
ಜೀವನರಂಗದಿಂದ ನಿರ್ಗಮಿಸುವಾಗ ಬಾಳ್ವೆಯ ಮರಳಿನ ಮೇಲೆ ತಮ್ಮ
ಹೆಜ್ಜೆಯ ಗುರುತನ್ನು ಬಿಟ್ಟು ಹೋಗಬೇಕೆಂಬ ಸಂದೇಶವನ್ನು ಅವರು ಗ್ರಹಿಸು~
ವಂತೆ ಮಾಡಬೇಕು.</p>

<p>ಶಿಕ್ಷಕನಲ್ಲಿರಬೇಕಾದ ಮೂಲಭೂತ ಗುಣವೆಂದರೆ ಆತನು ಮಕ್ಕಳನ್ನು
ಪ್ರೀತಿಸಬೇಕು. ಮಕ್ಕಳ ಮೇಲಿನ ಆತನ ಮಮತೆ ಪರಿಶುದ್ಧವಾಗಿರಬೇಕು.
ಮಕ್ಕಳ ಸಮಸ್ಯೆಗಳನ್ನು ಸಹಾನುಭೂತಿಯಿಂದ ಪರಿಹರಿಸಲು ಆತನು ಶ್ರಮಿಸ~
ಬೇಕು. ಮಕ್ಕಳ ಯೋಗಕ್ಷೇಮದಲ್ಲಿ ಆತನು ತೀವ್ರಾಸಕ್ತಿಯನ್ನು ತೋರಿಸ~
ಬೇಕು.</p>

<p>ಶಿಕ್ಷಣಕ್ಕೂ ಮನಶ್ಯಾಸ್ತ್ರಕ್ಕೂ ಸಂಬಂಧವಿದೆ. ಮನಶ್ಯಾಸ್ತ್ರದ ಜ್ಞಾನ~
ವಿಲ್ಲದಿದ್ದರೆ ಬೋಧನೆಯು ಫಲಪ್ರದವಾಗುವುದಿಲ್ಲ. ಆದುದರಿಂದ ಶಿಕ್ಷಕನು
ಮಕ್ಕಳ ಮತ್ತು ಕೌಮಾರ್ಯದವರ ಮನಶ್ಯಾಸ್ತ್ರವನ್ನು ಅಧ್ಯಯನ ಮಾಡ~
ಬೇಕು. ಮಕ್ಕಳಿಗೆ ತಮ್ಮದೇ ಆದ ವ್ಯಕ್ತಿತ್ವವಿದೆ. ವ್ಯಕ್ತಿಗಳೆಲ್ಲರೂ ಒಂದೇ
ರೀತಿ ಇರುವುದಿಲ್ಲ. ವೈಯುಕ್ತಿಕ ಭಿನ್ನತೆಗಳ ಕಾರಣ ಶಿಕ್ಷಕನು ತನ್ನ
ಬೋಧನಾ ವಿಧಾನದಲ್ಲಿ ಮಾರ್ಪಾಡು ಮಾಡಿಕೊಳ್ಳಬೇಕಾಗುತ್ತದೆ. ಕಲಿಕೆ
ಸುಗಮವಾಗಲು ಆಸಕ್ತಿ ಇರಬೇಕು. ಆಸಕ್ತಿಯನ್ನು ಉಂಟುಮಾಡುವುದು
ಶಿಕ್ಷಕನ ಆದ್ಯ ಕರ್ತವ್ಯವಾಗಿದೆ. ಪಾಠವನ಼್ನು ಸ್ವಾರಸ್ಯವಾಗಿ ಬೋಧಿಸಿದರೆ
ಮಕ್ಕಳು ಅವಧಾನದಿಂದ ಅದನ್ನು ಆಲಿಸುವರು. ಮಕ್ಕಳಲ್ಲಿ ಕುಶಲತೆಗಳನ್ನು
ಬೆಳೆಸಲು ಸಾಕಷ್ಟು ಅಭ್ಯಾಸ ಮಾಡಿಸಬೇಕು. ಅಧ್ಯಾಪಕರ ಬೋಧನೆ
ಸಾರ್ಥಕವಾಗಬೇಕಾದರೆ ಕಲಿಕೆಯ ನಿಯಮಗಳನ್ನು ಪಾಲಿಸಬೇಕು. ಹೀಗೆ
ಮನಶ್ಯಾಸ್ತ್ರದ ಸಹಾಯದಿಂದ ಶಿಕ್ಷಕನು ತನ್ನ ವೃತ್ತಿ - ಸಾಮರ್ಥ್ಯವನ್ನು
ಅಭಿವೃದ್ಧಿ ಪಡಿಸಿಕೊಳ್ಳಬಹುದು.</p>

<p>ಶಿಕ್ಷಕನು ತಾನು ಬೋಧಿಸುವ ವಿಷಯದಲ್ಲಿ ಸಾಕಷ್ಟು ಪಾಂಡಿತ್ಯವನ್ನು
ಪಡೆದಿರಬೇಕು. ಅದಕ್ಕಾಗಿ ಅವನು ವಾಚನಾಭ್ಯಾಸವನ್ನು ಸದಾ ಪಾಲಿಸಿ~
ಕೊಂಡು ಬರಬೇಕು. ಶಿಕ್ಷಕನು ಆಜೀವ ಪಱ್ಯಂತ ವಿದ್ಯಾರ್ಥಿಯಾಗಿರಬೇಕು.
Page 119
ತಾನೇ ಇನ್ನೂ ಕಲಿಯುತ್ತಿರುವನೇ ಹೊರತು, ಶಿಕ್ಷಕನು ಎಂದಿಗೂ ನಿಜವಾಗಿ
ಬೋಧಿಸಲಾರನು ಎಂಬುದಾಗಿ ವಿಶ್ವಕವಿ ರವೀಂದ್ರನಾಥ ಟಾಗೂರರು ನುಡಿ~
ದಿರುವುದು ಅರ್ಥಗರ್ಭಿತವಾಗಿದೆ.</p>

<p>ಶಿಕ್ಷಕನು ತನ್ನ ಬೋಧನಾವಿಧಾನದಲ್ಲಿ ಹೊಸ ಪ್ರಯೋಗಗಳನ್ನೂ
ಸಂಶೋಧನೆಗಳನ್ನೂ ಮಾಡುವ ಪ್ರವೃತ್ತಿಯನ್ನು ಬೆಳೆಸಿಕೊಳ್ಳಬೇಕು.</p>

<p>ತರಗತಿಯನ್ನು ಪ್ರವೇಶಿಸುವ ಮುನ್ನ ತನ್ನ ಸಂಸಾರದ ತಾಪತ್ರಯ~
ಗಳನ಼್ನೂ ವೈಯುಕ್ತಿಕ ಚಿಂತೆಗಳನ್ನೂ ಮರೆಯುವುದು ಲೇಸು. ಮುಖ್ಯವಾಗಿ
ಶಿಕ್ಷಕನು ಭಾವನಾತ್ಮಕ ಸ್ಥೈರ್ಯವನ್ನು ಹೊಂದಿರಬೇಕು ಹಾಗೂ ಕೀಳರಿಮೆ~
ಯಿಂದ ಮುಕ್ತನಾಗಬೇಕು.</p>

<p>ಶಿಕ್ಷಕನಿಗೆ ಆತ್ಮವಿಶ್ವಾಸವೂ ಅಗತ್ಯ; ಆತ್ಮವಿಮರ್ಶೆ ಮತ್ತು ಆತ್ಮ
ವಿಶ್ಲೇಷಣೆಗಳೂ ಅಗತ್ಯ. ಆತನಿಗೆ ಆರ್ಥಿಕ ತೃಪ್ತಿ ಇರಬೇಕೇ ವಿನಃ ಜ್ಞಾನ
ತೃಪ್ತಿ ಇರಕೂಡದು.</p>

<p>ಶಿಕ್ಷಕನು ಸದಾ ಮುಖವನ್ನು ಗಂಟು ಹಾಕಿಕೊಂಡಿರುವ ಬದಲು ಹಾಸ್ಯ
ಪ್ರಜ್ಞೆಯನ್ನೂ ಹರ್ಷಚಿತ್ತವನ್ನೂ ಬೆಳೆಸಿಕೊಳ್ಳಬೇಕು. `ನಕ್ಕು ನಗಿಸುವ
ನಗೆಲೇಸು' - ಎಂಬ ಸರ್ವಜ್ಞನ ವಚನದಂತೆ ಆತನು ಇತರರೊಂದಿಗೆ ಬೆರೆತು
ನಗಬೇಕಲ್ಲದೆ, ಇತರರನ್ನು ಅಪಹಾಸ್ಯ ಮಾಡಿ ನಗಬಾರದು.</p>

<p>ಶಿಕ್ಷಕನಿಗೆ ತರಗತಿ ಕೊಠಡಿಯಲ್ಲಿನ ಬೋಧನೆಯಲ್ಲಿ ಎಷ್ಟು ಆಸಕ್ತಿ
ಇರುವುದೋ, ಅಷ್ಟೇ ಆಸಕ್ತಿಯನ್ನು ಪಠ್ಯೇತರ ಚಟುವಟಿಕೆಗಳಲ್ಲಿಯೂ ಬೆಳೆಸಿ~
ಕೊಳ್ಳಬೇಕು. ಆತನು ಕ್ರೀಡಾಪ್ರೇಮಿಯಾಗಿದ್ದು ಮಕ್ಕಳ ವ್ಯವಸ್ಥಿತ ಆಟ~
ಗಳಲ್ಲೂ ಭಾಗವಹಿಸಬೇಕು. ಶಿಕ್ಷಕನು ಎಲ್ಲ ಕಾರ್ಯಕ್ರಮಗಳಲ್ಲೂ ಸಕ್ರಿಯ
ಪಾತ್ರ ವಹಿಸಲು ಒಳ್ಳೆಯ ಸ್ವಾಸ್ಥ್ಯವನ್ನು ಹೊಂದಿರಬೇಕು.</p>

<p>ಶಿಕ್ಷಕನನ್ನು ಅನುಕರಣೆ ಮಾಡುವ ಪ್ರವೃತ್ತಿ ಮಕ್ಕಳಲ್ಲಿರುವುದರಿಂದ
ಆತನು ಅವರಿಗೆ ಮಾದರಿಯಾಗಿರಬೇಕು. ಆತನ ವ್ಯಕ್ತಿತ್ವ ಉನ್ನತಮಟ್ಟ~
ದ್ದಾಗಿರಬೇಕು, ಪ್ರಾಮಾಣಿಕತೆ, ನಿಸ್ಪೃಹತೆ, ದೂರದರ್ಶಿತ್ವ, ತೆರೆದ ಮನಸ್ಸು,
ಸರಳತೆ, ಕಲ್ಪನಾಶಕ್ತಿ ಮುಂತಾದ ಗುಣಗಳನ್ನೂ ಆತನಲ್ಲಿ ನಿರೀಕ್ಷಿಸಲಾಗಿದೆ.
Page 120
ಶಿಕ್ಷಕನನ್ನು ಮಕ್ಕಳು ಹಿಂಜರಿಯದೆ ಸಮೀಪಿಸುವಂತಿರಬೇಕು.
ಆತನನ್ನು ಅವರು ಅವಲಂಬಿಸುವಂತಿರಬೇಕು. ಶಿಕ್ಷಕನು ಸಹ ಸನ್ನಿವೇಶಕ್ಕೆ
ತಕ್ಕಂತೆ ಹೊಂದಿಕೊಳ್ಳುವ ಸಾಮರ್ಥ್ಯವನ್ನು ಪಡೆದಿರಬೇಕು.</p>

<p>1) ಆಡಳಿತದಲ್ಲಿ ಶಿಕ್ಷಕನ ಪಾತ್ರ : ಪ್ರತಿಯೊಂದು ಸಂಸ್ಥೆಯೂ
ತನ್ನದೇ ಆದ ನೀತಿಯನ಼್ನು ಹೊಂದಿದೆ. ಶಿಕ್ಷಣಕ್ಕೆ ಸಂಬಂಧಿಸಿದಂತೆ ಕೆಲವು
ಸಮಿತಿಗಳ ರಚನೆಗೆ ಇಲಾಖೆಯು ಅವಕಾಶ ನೀಡಿದೆ. ಕೆಲವು ಶಿಕ್ಷಕರು
ಸಮಿತಿಗಳ ಸದಸ್ಯರಾಗಿ ಸೇವೆ ಸಲ್ಲಿಸುತ್ತಿದ್ದಾರೆ.</p>

<p>1) ಪಠ್ಯಕ್ರಮದ ಪುನಱ್ರಚನೆ, ಪಠ್ಯಪುಸ್ತಕಗಳ ತಯಾರಿಕೆ ಅಥವಾ
ಸಂಪಾದಕತ್ವ, ಪಠ್ಯಪುಸ್ತಕಗಳ ವಿಮರ್ಶೆ - ಈ ಕಾರ್ಯಕ್ರಮಗಳಲ್ಲಿ ಅನೇಕ
ಅನುಭವಶಾಲಿ ಶಿಕ್ಷಕರುಗಳು ಸೇವೆಯನ್ನು ಇಲಾಖೆಯು ಉಪಯೋಗಿಸಿ~
ಕೊಳ್ಳುತ್ತಿದೆ.</p>

<p>3) ಶಾಲೆಯ ಕಾರ್ಯಕ್ರಮಗಳನ್ನು ಯೋಜಿಸಿ, ಅವುಗಳನ್ನು ಜಾರಿಗೆ
ತರುವ ಹೊಣೆ ಶಿಕ್ಷಕನದಾಗಿದೆ.</p>

<p>4) ವಿದ್ಯಾರ್ಥಿಗಳ ಏಳಿಗೆಗಾಗಿ ಶಿಕ್ಷಕನು ಮಾರ್ಗದರ್ಶನವನ್ನೂ
ಸಲಹೆಗಳನ್ನೂ ಕೊಡಬೇಕಾಗಿದೆ. ವೃತ್ತಿ ಮಾರ್ಗದರ್ಶನವೂ ಅದರ ವ್ಯಾಪ್ತಿಗೆ
ಸೇರಿದೆ.</p>

<p>5) ಶಾಲೆಯ ಪುಸ್ತಕಭಂಡಾರ, ಪ್ರಯೋಗಮಂದಿರ, ಕ್ರೀಡಾರಂಗ~
ಗಳಿಗೆ ಬೇಕಾದ ಸಲಕರಣೆಗಳ ಆಯ್ಕೆಯಲ್ಲಿ ಶಿಕ್ಷಕನ ಸಹಕಾರ ಅಗತ್ಯವಾಗಿದೆ.
ಉತ್ತಮವಾದ ಸಾಮಗ್ರಿಗಳನ್ನು ಕೊಳ್ಳಲು ಆತನು ಯೋಗ್ಯ ಸಲಹೆಗಳನ್ನು
ಕೊಡಬೇಕು. ಅನೇಕ ಸಂದರ್ಭಗಳಲ್ಲಿ ಆತನೇ ಮಾರುಕಟ್ಟೆಗೆ ಹೋಗಿ
ಅವಶ್ಯಕ ವಸ್ತುಗಳನ್ನು ಕೊಳ್ಳಬೇಕಾಗುವುದು.</p>

<p>6) ವಿದ್ಯಾರ್ಥಿಗಳಿಂದ ಶುಲ್ಕ ವಸೂಲಿ ಮಾಡುವುದು; ಅವರ ಅರ್ಜಿ~
ಗಳನ್ನು ಓದಿ ತಪ್ಪುಗಳಿದ್ದರೆ ಸರಿಪಡಿಸುವುದು, ಪ್ರಗತಿ-ವರದಿ ಮತ್ತು
ಸಮುಚ್ಚಾಯಕ ದಾಖಲೆಗಳನ್ನು ಸಿದ್ಧಪಡಿಸುವುದು, ವಿದ್ಯಾರ್ಥಿಗಳ ಹಾಜ~
ರಾತಿ ತೆಗೆದುಕೊಳ್ಳುವುದು - ಇವೆಲ್ಲವೂ ಶಿಕ್ಷಕನ ಕರ್ತವ್ಯಗಳೇ ಆಗಿವೆ.</p>

<p>Page 121</p>

<p>7) ಶಿಕ್ಷಕನು ಶಾಲೆಯಲ್ಲಿರುವ ಸಿಬ್ಬಂದಿ - ಸಲಹಾ ಸಮಿತಿಯ ಸಭೆ~
ಗಳಲ್ಲಿ ಭಾಗವಹಿಸಿ, ತನ್ನ ಅಮೂಲ್ಯ ಸಲಹೆಗಳನ್ನು ನೀಡಬೇಕು.</p>

<p>8) ಶಾಲೆಯ ವೇಳಾಪಟ್ಟಿಯ ರಚನೆಯಲ್ಲಿ ಮುಖ್ಯೋಪಾಧ್ಯಾಯ~
ನಿಗೆ ಸಹಾಯ ಮಾಡಬೇಕು.</p>

<p>9) ಸಹ ಪಠ್ಯಕ್ರಮ ಚಟುವಟಿಕೆಗಳಾದ ವಿದ್ಯಾರ್ಥಿಗಳ ಸಂಘ,
ಚರ್ಚಾಕೂಟ, ರೆಡ್್ಕ್ರಾಸ್ ಸೊಸೈಟಿ, ಬಾಲಚಮೂದಳ, ಕ್ರೀಡೆಗಳು, ಶಾಲಾ
ಪತ್ರಿಕೆ ಮೊದಲಾದ ಯಾವುದಾದರೂ ಒಂದೆರಡು ಬಾಬುಗಳನ್ನು ಪ್ರತಿಯೊಬ್ಬ
ಶಿಕ್ಷಕನೂ ವಹಿಸಿಕೊಂಡು, ಅವುಗಳನ್ನು ಸಂಘಟಿಸಬೇಕಲ್ಲದೆ, ಅವುಗಳಿಗೆ
ಸಂಬಂಧಿಸಿದ ಲೆಕ್ಕ-ಪತ್ರಗಳನ್ನೂ, ದಾಖಲೆಗಳನ್ನೂ ಸಂರಕ್ಷಿಸಬೇಕು.</p>

<p>10) ಪರೀಕ್ಷೆ ಮತ್ತು ಉಪ-ಪರೀಕ್ಷೆಗಳಿಗೆ ಸಂಬಂಧಿಸಿದ ಪ್ರಶ್ನೆ
ಪತ್ರಿಕೆಗಳನ್ನು ತಯಾರಿಸುವುದು, ಪರೀಕ್ಷೆಗಳಿಗೆ ಮುನ್ನ ಆಸನಗಳ ವ್ಯವಸ್ಥೆ,
ಪರೀಕ್ಷೆ ನಡೆಯುವಾಗ ಮೇಲ್ವಿಚಾರಕನಾಗಿರುವುದು, ಉತ಼್ತರ ಪತ್ರಿಕೆಗಳ
ಮೌಲ್ಯ-ಮಾಪನ ಮೊದಲಾದ ಕೆಲಸಗಳಲ್ಲಿ ಪ್ರತಿಯೊಬ್ಬ ಶಿಕ್ಷಕನೂ ಸಹಕರಿ~
ಸಬೇಕಾಗಿದೆ. ಅಂಕಗಳ ದಪ್ತರದಲ್ಲಿ ಅಂಕಗಳನ್ನು ಬರೆಯಲು ಆತನು
ಮುಖ್ಯೋಪಾಧ್ಯಾಯನಿಗೆ ನೆರವು ನೀಡಬೇಕು.</p>

<p>11) ಶಾಲೆಯ ಮೇಲ್ವಿಚಾರಣೆ ಹಾಗೂ ನಿರೀಕ್ಷಣೆಗಾಗಿ ಶಿಕ್ಷಣ
ಇಲಾಖೆಯ ಅಧಿಕಾರಿಗಳು ಬಂದಾಗ, ಶಿಕ್ಷಕನು ಆವಶ್ಯಕ ದಾಖಲೆಗಳನ್ನೆಲ್ಲ
ಅವರ ಮುಂದೆ ಹಾಜರುಪಡಿಸಿ ಅವರೊಂದಿಗೆ ಸಹಕರಿಸಬೇಕು.</p>

<p>12) ಶಾಲೆಯಲ್ಲಿ ಸಮಾರಂಭಗಳೇರ್ಪಟ್ಟಾಗ ಶಿಕ್ಷಕನು ತನಗೆ ಕೊಟ್ಟ
ಕೆಲಸಗಳನ್ನು ಮುತುವರ್ಜಿಯಿಂದ ಮಾಡಿ, ಅವುಗಳ ಯಶಸ್ಸಿಗೆ ತನ್ನ
ಕೊಡುಗೆಯನ್ನು ಸಲ್ಲಿಸಬೇಕು.</p>

<p>13) ಶಾಲೆ ಮತ್ತು ಸಮುದಾಯಗಳ ನಡುವೆ ಮಧುರ ಬಾಂಧವ್ಯ
ಬೆಳೆಸಲು ಮತ್ತು ಪೋಷಕರುಗಳೊಂದಿಗೆ ನಿಕಟ ಸಂಪರ್ಕವನ್ನಿಟ್ಟುಕೊಳ್ಳಲು
ಶಿಕ್ಷಕನು ಶ್ರಮಿಸಬೇಕಾಗಿದೆ. ಕೆಲವೊಮ್ಮೆ ಆತನು ಪೋಷಕರುಗಳ ಗೃಹಕ್ಕೆ
ಭೇಟಿ ನೀಡಿ ಮಾತುಕತೆಯನ಼್ನು ನಡೆಸಬೇಕಾಗುವುದು.</p>

<p>14) ಶಾಲೆಗಳಲ್ಲಿ ಮಧ್ಯಾಹ್ನ-ಭೋಜನದ ಏರ್ಪಾಟು ಇದ್ದಲ್ಲಿ
ಶಿಕ್ಷಕನ ಸಹಕಾರ ಬೇಕೇಬೇಕು.</p>

<p>Page 122</p>

<p>15) ಕೆಲವು ಶಾಲೆಗಳಲ್ಲಿ ಹೊಸ ಶಿಕ್ಷಕರ ಆಯ್ಕೆಯ ಸಮಿತಿಯಲ್ಲಿ
ಹಿರಿಯ ಶಿಕ್ಷಕರಿಗೆ ಪ್ರಾತಿನಿಧ್ಯವಿರುತ್ತದೆ. ಅಂತಹ ಶಿಕ್ಷಕರು ಅಭ್ಯರ್ಥಿಗಳ
ಆಯ್ಕೆಯಲ್ಲಿ ತಮ್ಮ ಪಾತ್ರವನ್ನು ಶ್ರದ್ಧೆಯಿಂದ ವಹಿಸಬೇಕಾಗಿದೆ.</p>

<p>3) ವಿದ್ಯಾರ್ಥಿಗಳು : ಶಾಲೆ ಇರುವುದು ವಿದ್ಯಾರ್ಥಿಗಳಿಗಾಗಿ;
ಎಲ್ಲ ಶೈಕ್ಷಣಿಕ ಕಾರ್ಯಕ್ರಮಗಳನ್ನು ಏರ್ಪಡಿಸುವುದು ಅವರಿಗಾಗಿ.
ಆದುದರಿಂದ ಶೈಕ್ಷಣಿಕ ಆಡಳಿತದ ಕೇಂದ್ರಬಿಂದುವೆಂದರೆ ವಿದ್ಯಾರ್ಥಿಗಳು.</p>

<p>ಶಾಲೆಯ ಕಾರ್ಯವು ಸಮರ್ಥವಾಗಿ ಜರುಗಲು ಶಿಕ್ಷಕರುಗಳ ಮತ್ತು
ವಿದ್ಯಾರ್ಥಿಗಳ ನಡುವೆ ಸೌಹಾರ್ದ ಸಂಬಂಧವಿರಬೇಕಾದುದು ಅತ್ಯವಶ್ಯಕ.
ಅವರುಗಳ ನಡುವೆ ಸಹಕಾರವಿಲ್ಲದಿದ್ದಲ್ಲಿ, ಶೈಕ್ಷಣಿಕ ಧ್ಯೇಯಗಳನ್ನು ಈಡೇರಿಸಿ~
ಕೊಳ್ಳಲು ಸಾಧ್ಯವಾಗುವುದಿಲ್ಲ.</p>

<p>ಈ ಪ್ರಜಾಸತ್ತಾತ್ಮಕ ಯುಗದಲ್ಲಿ ವಿದ್ಯಾರ್ಥಿಗಳ ಅಭಿಪ್ರಾಯಗಳನ್ನೂ,
ಆಸೆ, ಆಶೋತ್ತರಗಳನ್ನೂ ಶಿಕ್ಷಕರುಗಳು ಸಂಪೂರ್ಣವಾಗಿ ತಳ್ಳಿಹಾಕು~
ವಂತಿಲ್ಲ. ವಿದ್ಯಾರ್ಥಿಗಳ ಬ಼ಗೆಗೆ ಉಪಾಧ್ಯಾಯರುಗಳು ಸಹಾನುಭೂತಿ ಮತ್ತು
ಪ್ರೀತಿಯಿಂದ ವರ್ತಿಸಬೇಕಲ್ಲದೆ, ಅವರ ವ್ಯಕ್ತಿತ್ವಕ್ಕೆ ಸಲ್ಲಬೇಕಾದ ಗೌರವವನ್ನು
ಸಲ್ಲಿಸಬೇಕು.</p>

<p>ವ್ಯಾಸಂಗದ ವಿಷಯವನ್ನೂ, ಸಹ ಪಠ್ಯಕ್ರಮ ಚಟುವಟಿಕೆಗಳನ್ನೂ
ಆಯ್ಕೆಮಾಡಿಕೊಳ್ಳಬೇಕಾದಾಗ ಶಿಕ್ಷಕರ ಮಾರ್ಗದರ್ಶನ ಅವರಿಗೆ ಅಗತ್ಯ.
ಕೌಮಾರ್ಯ ದೆಸೆಯಲ್ಲಿರುವ ವಿದ್ಯಾರ್ಥಿಗಳ ಭಾವನಾತ್ಮಕ ಸಮಸ್ಯೆಗಳ
ಪರಿಹಾರಕ್ಕೂ ಶಿಕ್ಷಕರ ಸಲಹೆಗಳು ಅವರಿಗೆ ಅಗತ್ಯ. ಕಿರಿಯರ ದೈಹಿಕ
ಮತ್ತು ಮಾನಸಿಕ ಸ್ವಾಸ್ಥ್ಯಗಳ ಕಡೆಗೆ ಉಪಾಧ್ಯಾಯರುಗಳು ತಮ್ಮ ಗಮನ~
ವನ್ನು ತಿರುಗಿಸಬೇಕಾಗಿದೆ.</p>

<p>ವಿದ್ಯಾರ್ಥಿಗಳಲ್ಲಿ ಹೇರಳವಾಗಿರುವ ಚೈತನ್ಯ, ಉತ್ಸಾಹ, ಆಸಕ್ತಿಗಳು
ರಚನಾತ್ಮಕ ಹಾದಿಯಲ್ಲಿ ಹರಿಯುವಂತೆ ನೋಡಿಕೊಳ್ಳುವ ಹೊಣೆ ಶಿಕ್ಷಕರು~
ಗಳದ್ದಾಗಿದೆ.</p>

<p>ವಿದ್ಯಾರ್ಥಿಗಳು ಶಾಲೆಯ ನಿಯಮಗಳನ್ನು ಪಾಲಿಸಬೇಕು. ಶಾಲೆಗೆ
ನಿಯಮಿತವಾಗಿಯೂ ಸಕಾಲದಲ್ಲಿಯೂ ಬರಬೇಕು.</p>

<p>Page 123</p>

<p>ಶಾಲೆಗೆ ಸಲ್ಲಿಸಬೇಕಾದ ಶುಲ್ಕಗಳನ್ನು ವಿದ್ಯಾರ್ಥಿಗಳು ಗೊತ್ತಾದ ದಿನ~
ದಂದು ಪಾವತಿ ಮಾಡಬೇಕು.</p>

<p>ಶಾಲೆಯ ಪ್ರಾರ್ಥನಾಸಭೆಯಲ್ಲಿ ವಿದ್ಯಾರ್ಥಿಗಳು ಶಿಸ್ತಿನಿಂದ ನಿಲ್ಲಬೇಕು.
ತರಗತಿಯನ್ನು ಪ್ರವೇಶಿಸುವಾಗ ಹಾಗೂ ಹೊರಬ಼ರುವಾಗ ಗದ್ದಲಮಾಡದೆ
ಸಾಲಿನಲ್ಲಿ ಹೋದರೆ ಅವರಿಗೆ ಶ್ರೇಯಸ್ಸು ಆಗುವುದು.</p>

<p>ವಿದ್ಯಾರ್ಥಿಗಳು ಅವಧಾನದಿಂದ ತರಗತಿಯಲ್ಲಿ ಜರುಗುವ ಪಾಠ
ಪ್ರವಚನಗಳನ್ನು ಆಲಿಸಬೇಕು.</p>

<p>ತಾವು ಮನೆಯಲ್ಲಿ ಉತ್ತರಿಸಬೇಕಾದ ಅಭ್ಯಾಸಗಳ ಪುಸ್ತಕಗಳನ್ನು
ಗೊತ್ತುಪಡಿಸಿದ ದಿನಾಂಕದಂದು ಶಿಕ್ಷಕರಿಗೆ ಒಪ್ಪಿಸಬೇಕು.</p>

<p>ಶಾಲೆಯು ಸೂಚಿಸುವ ಯೋಜನೆಗಳಲ್ಲಿ ಮತ್ತು
ಘಟಕ-ಕಾರ್ಯಗಳಲ್ಲಿ ವಿದ್ಯಾರ್ಥಿಗಳು ಉತ್ಸಾಹದಿಂದ ಭಾಗವಹಿಸಬೇಕು.</p>

<p>ಶಾಲೆಯ ಸಮಾರಂಭಗಳ ಯಶಸ್ಸಿಗೆ ವಿದ್ಯಾರ್ಥಿಗಳು ಶ್ರಮಿಸಬೇಕು.</p>

<p>ಶಾಲೆಯು ಕೈಗೊಳ್ಳುವ ಸಾಮಾಜಿಕ ಸೇವೆಗಳಲ್ಲಿ ವಿದ್ಯಾರ್ಥಿಗಳು
ಭಾಗವಹಿಸಬೇಕು.</p>

<p>ಪೀಠೋಪಕರಣ, ಪ್ರಯೋಗಮಂದಿರದಲ್ಲಿರುವ ಉಪಕರಣಗಳು,
ಗ್ರಂಥಾಲಯದಲ್ಲಿರುವ ಪುಸ್ತಕಗಳು, ವಾಚನಾಲಯದಲ್ಲಿರುವ ಪತ್ರಿಕೆಗಳು
ಇತ್ಯಾದಿ ಸಾರ್ವಜನಿಕ ಆಸ್ತಿ-ಪಾಸ್ತಿಗಳನ್ನು ರಕ್ಷಿಸುವುದರಲ್ಲಿ ವಿದ್ಯಾರ್ಥಿಗಳು
ಶಾಲೆಯ ಅಧಿಕಾರಿಗಳೊಂದಿಗೆ ಸಹಕರಿಸಬೇಕು.</p>

<p>ಶಾಲೆಯ ಕಟ್ಟಡಕ್ಕೂ ಸೌಂದರ್ಯಕ್ಕೂ ಹಾನಿಯಾಗುವ ಯಾವ
ಅಹಿತ ಕಾರ್ಯವನ್ನೂ ವಿದ್ಯಾರ್ಥಿಗಳು ಮಾಡಕೂಡದು.</p>

<p>ಶಾಲೆಯ ಕೀರ್ತಿಯು ವಿದ್ಯಾರ್ಥಿಗಳ ಬೌದ್ಧಿಕ ಪ್ರಗತಿಯನ್ನು ಅವ~
ಲಂಬಿಸಿರುವುದರಿಂದ ವಿದ್ಯಾರ್ಥಿಗಳು ಚೆನ್ನಾಗಿ ಅಧ್ಯಯನ ಮಾಡಿ, ಪರೀಕ್ಷೆ~
ಗಳಲ್ಲಿ ಹೆಚ್ಚಿನ ಸಂಖ್ಯೆಯಲ್ಲಿ ಉತ್ತೀರ್ಣರಾಗುವುದರ ಮೂಲಕ, ತಮಗೂ
ತಮ್ಮ ಶಾಲೆಗೂ ಒಳ್ಳೆಯ ಹೆಸರನ್ನು ತರಬೇಕು.</p>

<p>		ಅಧ್ಯಾಯ - 10
	    ಸಹ-ಪಠ್ಯಕ್ರಮ ಚಟುವಟಿಕೆಗಳು</p>

<p>ವ್ಯಕ್ತಿಯ ಸರ್ವತೋಮುಖ ಬೆಳವಣಿಗೆಯೇ ಶಿಕ್ಷಣದದ ಉದ್ದೇಶವಾದು~
ದರಿಂದ, ಪಠ್ಯ-ಪುಸ್ತಕಗಳನ್ನು ಆಧರಿಸಿದ ಕೇವಲ ತರಗತಿ ಕೊಠಡಿಯಲ್ಲಿನ
ಕೆಲಸವು ಮಾನವ ವ್ಯಕ್ತಿತ್ವದ ಸಂಪೂರ್ಣ ವಿಕಾಸಕ್ಕೆ ಏನೇನೂ ಸಾಲದು.
ಸಮತೋಲನದ ಪಠ್ಯಕ್ರಮವು ಸಾಮಾಜಿಕ ಧೋರಣೆಗಳನ್ನೂ, ಸಾಮರ್ಥ್ಯ~
ಗಳನ್ನೂ, ಕುಶಲತೆಗಳನ್ನೂ ಬೆಳೆಸುವಂತಹ ಕಾರ್ಯಕ್ರಮಗಳೆಲ್ಲವನ್ನೂ ಒಳ~
ಗೊಂಡಿರಬೇಕು. ಆದುದರಿಂದ ಶಿಕ್ಷಣವು ಚಟುವಟಿಕೆ-ಆಧಾರಿತವಾಗಿರ~
ಬೇಕು. `ಕಾಯಕದ ಮೂಲಕ ಕಲಿ', `ಬದುಕಿನ ಮೂಲಕ ಕಲಿ' ಇತ್ಯಾದಿ
ಆಧುನಿಕ ಘೋಷಣೆಗಳು ಉತ್ಪಾದಕ ಮತ್ತು ಸೃಜನಾತ್ಮಕ ಚಟುವಟಿಕೆಗಳ
ಮೂಲಕ ಜೀವನ ಕಲೆಯಲ್ಲಿ ತರಬೇತಿ ಕೊಡಬೇಕೆಂಬ ಅಮೂಲ್ಯ ತತ್ತ್ವವನ್ನು
ಒತ್ತಿ ಹೇಳಿವೆ.</p>

<p>ಆಟವಾಡುವುದು, ಹಾಡುವುದು, ಅಭಿನಯಿಸುವುದು, ಮಾತನಾಡು~
ವುದು, ಓದುವುದು ಇತ್ಯಾದಿ ವಿವಿಧ ಚಟುವಟಿಕೆಗಳ ಮೂಲಕ ಮಗುವು
ಕಲಿಯುತ್ತಾನೆಂಬ ಅಂಶವು ಈಗ ಎಲ್ಲರಿಗೂ ಮನವರಿಕೆಯಾಗಿದೆ.</p>

<p>ಒಂದು ಕಾಲದಲ್ಲಿ ಸಹ ಪಠ್ಯಕ್ರಮ ಚಟುವಟಿಕೆಗಳು ಉಪೇಕ್ಷಿಸಲ್ಪ~
ಟ್ಟಿದ್ದವು. ಅವುಗಳು ಅಸ್ತಿತ್ವಕ್ಕೆ ಬಂದ ಮೇಲೆ ಕೆಲವರ ವಿರೋಧವನ್ನು
ಎದುರಿಸಬೇಕಾಯಿತು. ಈಗ ಈ ಚಟುವಟಿಕೆಗಳಿಗೂ ಮಾನ್ಯತೆಯೂ
ಉತ್ತೇಜನವೂ ಲಭಿಸುತ್ತಿವೆ.</p>

<p>ಕೆಲವು ಕಾಲ ಈ ಬಗೆಯ ಚಟುವಟಿಕೆಗಳನ್ನು ಪಠ್ಯೇತರ ಚಟುವಟಿಕೆ~ 
ಗಳೆಂದು ಶಿಕ್ಷಕರು ಕರೆಯುತ್ತಿದ್ದರು. ಆಧುನಿಕ ಶಿಕ್ಷಣ ತಜ್ಞರ ಹೇಳಿಕೆಯ
Page 125
ಪ್ರಕಾರ, ಪಠ್ಯಕ್ರಮವೆಂದರೆ ಶಾಲೆಯಲ್ಲಿ ವಿದ್ಯಾರ್ಥಿಗೆ ಒದಗಿಸುವ ಅನುಭವಗಳ
ಮೊತ್ತ. ಅದರಲ್ಲಿ, ತರಗತಿಯಲ್ಲಿ ಬೋಧಿಸುವ ವಿಷಯಗಳಲ್ಲದೆ ಪ್ರಯೋಗ
ಮಂದಿರದಲ್ಲಿ, ಪುಸ್ತಕಭಂಡಾರದಲ್ಲಿ ಹಾಗೂ ಆಟದ ಮೈದಾನದಲ್ಲಿ ಸಿಗುವ
ಅನುಭವಗಳೆಲ್ಲ ಅಡಕವಾಗಿವೆ. ಈ ದೃಷ್ಟಿಯಿಂದ ಶಾಲೆಯ ಕೆಲಸದ ಹೊರಗೆ
ವಿಧ್ಯುಕ್ತವಾಗಿ ಹಾಗೂ ಸ್ವಯಂ ಪ್ರೇರಣೆಯಿಂದ ಕೈಗೊಳ್ಳುವ ಚಟುವಟಿಕೆಗ~
ಳನ್ನು ಸಹ-ಪಠ್ಯಕ್ರಮ ಚಟುವಟಿಕೆಗಳೆಂದು ಕರೆಯುವ ಪರಿಪಾಠ ಬಳಕೆಗೆ
ಬಂದಿದೆ.</p>

<p>1) ಸಹ - ಪಠ್ಯಕ್ರಮ ಚಟುವಟಿಕೆಗಳಿಂದಾಗುವ ಪ್ರಯೋ~
ಜನಗಳು : ಸಹ-ಪಠ್ಯಕ್ರಮ ಚಟುವಟಿಕೆಗಳು ಮಾನಸಿಕ, ಸಾಮಾಜಿಕ,
ನಾಗರಿಕ, ನೈತಿಕ, ದೈಹಿಕ ಹಾಗೂ ಮನರಂಜಕ ಮೌಲ್ಯಗಳನ್ನು ಹೊಂದಿವೆ.
ವಿರಾಮಕಾಲದ ಸದುಪಯೋಗಕ್ಕೆ ಅವು ಯೋಗ್ಯ ಸಾಧನಗಳಾಗಿವೆ.</p>

<p>X
",0
</p></body></text></cesDoc>