<cesDoc id="hin-w-ranchi-news-03-05-28" lang="hin">
<cesHeader type="text">
<fileDesc>
<titleStmt>
<h.title>hin-w-ranchi-news-03-05-28.txt</h.title>
<respStmt>
<respType>Electronic file created by</respType>
<respName>Department of Linguistics, Lancaster University</respName>
<respType>text collected by</respType>
<respName>Celia Worth and Paul Baker</respName>
<respType>transferred into Unicode by</respType>
<respName>"Unicodify" software by Andrew Hardie</respName>
</respStmt>
</titleStmt>
<publicationStmt>
<distributor>UCREL</distributor>
<pubAddress>Department of Linguistics, Lancaster University, Lancaster, LA1 4YT, UK</pubAddress>
<availability region="WORLD"></availability>
<pubDate>03-08-24</pubDate>
</publicationStmt>
<sourceDesc>
<biblStruct>
<monogr>
<h.title>Internet version of the "Ranchi Express" newspaper (www.ranchiexpress.com), news stories collected on 03-05-28</h.title>
<h.author>Ranchi Express Group</h.author>
<imprint>
<pubPlace>Ranchi, Jharkhand, India</pubPlace>
<publisher>Ranchi Express Group</publisher>
<pubDate>03-05-28</pubDate>
</imprint>
</monogr>
</biblStruct>
</sourceDesc>
</fileDesc>
<encodingDesc>
<projectDesc>Text collected for use in the EMILLE project.</projectDesc>
<samplingDesc>Simple written text only has been transcribed. Diagrams, pictures and tables have been omitted and their place marked with a gap element.
</samplingDesc>
<editorialDecl>
<conformance level="1"></conformance>
</editorialDecl>
</encodingDesc>
<profileDesc>
<creation>
<date>03-08-24</date>
</creation>
<langUsage>Hindi</langUsage>
<wsdUsage>
<writingSystem id="ISO/IEC 10646">Universal Multiple-Octet Coded Character Set (UCS).</writingSystem>
</wsdUsage>
<textClass>
<channel mode="w">print</channel>
<constitution type="composite"></constitution>
<domain type="public"></domain>
<factuality type="fact"></factuality>
</textClass>
<translations></translations>
</profileDesc>
<revisionDesc></revisionDesc>
</cesHeader>

<text>
<body>




<p>संगीनों के
साये में हुई परीक्षा, दो मरे                                                              </p>

<p> </p>

<p>रांची: संगीनों के साये और दहशतजदा माहौल में शिक्षक नियुक्ति
परीक्षा सम्पन्न तो हुई लेकिन एक बच्चे सहित दो लोगों
की जानें लेकर। अलग-अलग जगहों पर हुई हिंसक झड़पों में
दो लोगों की मौतें हुई जबकि कुल २० लोक घायल हुए।
घायलों में १२ पुलिसकर्मी हैं। हिंसक घटनाओं में हुई मौतों
के विरोध में कल झामुमो ने रांची बंद तथा
आदिवासी-मूलवासी जनाधिकार मंच ने झारखंड बंद की
घोषणा की है। झामुमो सुप्रीमो शिबू सोरेन ने हिंसक
घटनाओं को रोक पाने में राज्य सरकार को विफल ठहराते
हुए राष्ट्रपति से मुंडा सरकार को बर्खास्त करने की मांग
की है। शिबू सोरेन कल राजभवन के समक्ष धरना देंगे। परीक्षा
केन्द्रों में हुए उपद्रव और हिंसक घटनाओं के मद्देनजर तीन
केन्द्रों की परीक्षाएं स्थगित कर दी गई हैं। स्थगित परीक्षा
की तिथि बाद में घोषित की जाएगी। झारखंड के गृह
सचिव जे.बी.तुबिद ने बताया कि हिंसा तथा उपद्रव फैलाने
के आरोप में १७६ लोगों को गिरफ्तार किया गया है।
हजारीबाग में झामुमो विधायक टेकलाल महतो को गिरफ्तार
किया गया है। रांची में १०९, जमशेदपुर में १४ तथा हजारीबाग में
५३ लोग गिरफ्तार किये गए हैं। मुख्यमंत्री अर्जुन मुण्डा ने
मामले को गंभीरता से लेते हुए आज की घटना की जांच का
निर्देश दिया है। गृह सचिव जे.बी.तुबिद जांच के प्रभारी बनाये
गए हैं। इधर उपद्रवियों को उकसाने के आरोप में पुलिस ने
संत अलोइस स्कूल के प्राचार्य के खिलाफ मामला दर्ज
किया है। हुलहुण्डू स्थित सेक्रेड हर्ट स्कूल के पास हुई
हिंसक झड़प के दौरान बम फट जाने से मीरा सुमन कुजूर की
मौत हो गई। यहां उपद्रवियों ने परीक्षार्थियों के एडमिट
कार्ड फाड़ डाले तथा उन्हें परीक्षा देने से रोक दिया। यहां
उपद्रवियों के साथ पुलिस की मुठभेड़ हुई। रांची
कालेज के पास परीक्षा समाप्त होने के बाद उत्तेजित लोगों ने
धावा बोल दिया। यहां पुलिस को डेढ़ सौ राउंड गोलियां
चलानी पड़ी। इस गोली चालन में सुधीर साहु नामक एक दस
वर्षीय बच्चे की मौत हो गई। सामलौंग में गिल्लू
मिर्धा नामक एक युवक गोली लगने से गंभीर रूप से
जख्मी हो गया। एडमिट कार्ड तथा उत्तर पुस्तिकाएं फाड़ने की
घटना के समीक्षोपरांत हुलहुण्डू स्थित संत जोसेफ, प्रकाश
विद्यालय तथा सेक्रेड हर्ट स्कूल की परीक्षाएं स्थगित कर दी
गई। इन केन्द्रों पर पुनः परीक्षा ली जाएगी। हिंसक घटनाओं
में घायलों को रिम्स (रांची) में भर्ती कराया गया है। इस घटना
पर तीव्र प्रतिक्रिया व्यक्त करते हुए रांची जेल में बंद
मूलवासी-आदिवासी जनाधिकार मंच के कार्यकारी अध्यक्ष
बंधु तिर्की ने कहा कि सरकार अब भी चेते। उन्होंने कहा
कि सरकार की गलत नीतियों के विरोध में जनाक्रोश
भड़क उठा है। आज की घटना से झारखंड सरकार को सबक
लेकर शीघ्र 'स्थानीय' की परिभाषा घोषित करने की
दिशा में पहल करनी चाहिए। बंद समर्थकों से निपटने तथा
शांतिपूर्ण ढंग से परीक्षा आयोजित करने के लिए परीक्षा
केन्द्रों पर कड़ी सुरक्षा व्यवस्था की गई थी। सघन गश्ती का
कार्यक्रम दिन भर चलता रहा और चौक-चौराहे पर पुलिस
बल तैनात थे। कड़ी सुरक्षा व्यवस्था के बाद भी बंद
समर्थकों ने परीक्षा केन्द्रों में एडमिट कार्ड फाड़े, उत्तर
पुस्तिकाएं लूट ली, पथराव किये और अभ्यर्थियों को
आतंकित किया गया। आधा दर्जन से ज्यादा परीक्षा केन्द्रों
पर आतंक और दहशत का माहौल रहा। कई परीक्षार्थियों को
केन्द्र से जबरन भगा दिया गया। रांची कालेज के पास पुलिस
और बंद समर्थकों के बीच हिंसक झड़पें हुई और इसमें
एक दस वर्षीय बच्चे की पुलिस की गोली लगने से मौत
हो गई। बंद समर्थकों ने यहां पथराव किया। अभ्यर्थियों
के साथ मारपीट की और उन्हें भागने के लिए बाध्य किया।
हुलहुण्डू स्थित सेक्रेड हर्ट स्कूल केन्द्र पर बंद समर्थकों ने
अभ्यर्थियों पर धावा बोला तथा स्कूल को अपने कब्जे में ले
लिया। यहां काफी संख्या में महिलाएं अभ्यर्थियों को खदेड़ रही
थी। पुलिस पर भी पथराव हुए। पुलिस को यहां कई राउण्ड
गोलियां चलानी पड़ी। यहां एक महिला मीरा सुमन कुजूर
की बम विस्फोट से मौत हो गई। आतंक का नंगा नाच
रांची महिला महाविद्यालय, साइंस ब्लॉक में भी जारी रहा। यहां
बंद समर्थकों ने आग लगा दी। अभ्यर्थियों को डराया- धमकाया
गया तथा एडमिट कार्ड फाड़ डाले गए। हरमू स्थित संत
फ्रांसिस स्कूल के पास उपद्रवियों को नियंत्रित करने के लिए
पुलिस को दर्जनों राउंड गोलियां चलानी पड़ी। यहां
उपद्रवियों ने बम विस्फोट किया और जबरन अभ्यर्थियों को
केन्द्र से भगाया गया। लोवाडीह में एसीसी स्कूल तथा
निर्मला स्कूल के पास बंद समर्थकों ने बम विस्फोट
कर आतंक और दहशत का माहौल बनाया। बम विस्फोट के बाद यहां
अफरा-तफरी मच गई। बम विस्फोट में सामलौंग के गिलू
मिर्धा नामक एक व्यक्ति के घायल होने की खबर मिली
है। पुरुलिया रोड में संत अन्ना स्कूल के पास जबर्दस्त पथराव
हुआ। संत अलोइस स्कूल में बंद समर्थक जबरन घुस आए और
अभ्यर्थियों को पीटा तथा एडमिट कार्ड फाड़ डाले। संजय
गांधी कालेज के पास गोली चलने की सूचना है। मारवाड़ी
कालेज तथा मारवाड़ी महिला कालेज में कुछ अभ्यर्थियों के
एडमिट कार्ड फाड़े डाले गए। करमटोली के पास परीक्षा देने
जा रहे अभ्यर्थियों को डराया-धमकाया गया तथा एडमिट कार्ड
छीन लिये गए।रांची के छह केन्द्रों पर व्यवधान के कारण परीक्षा
रद्द कर दी गयी जबकि राज्य के अन्य हिस्सों में परीक्षा
शांतिपूर्ण तरीके से सम्पन्न हो गयी। जमशेदपुर में उपद्रवियों
ने दो ट्रकों तथा एक टेम्पो को आग के हवाले कर दिया। यहां
बंद समर्थकों और पुलिस के बीच सौ चक्र गोलियां भी
चलीं। हजारीबाग, चतरा, डालटनगंज, धनबाद, दुमका, गुमला तथा
लातेहार में बंद का कोई खास प्रभाव नहीं देखा गया और
परीक्षा शांतिपूर्ण ढंग से सम्पन्न हो गयी। गिरिडीह में
पनैडीह के पास भी अभ्रक से लदे एक ट्रैक को बंद
समर्थकों ने पूंक डाला तथा कुछ अन्य वाहनों को भी
नुकसान पहुंचाया। इस घटना में वहां एक चालक बुरी तरह जख्मी
हो गया। हजारीबाग से हमारे संवाददाता के अनुसार झारखंड बंद
के दूसरे दिन यहां आंशिक प्रभाव देखा गया। यहां से झामुमो
के टेकलाल महतो समेत ५३ लोगों को पुलिस ने गिरफ्तार
किया। लातेहार से मिली जानकारी के अनुसार यहां बंद
समर्थकों ने इंटरसिटी एक्सप्रेस ट्रेन को रोक दिया और
रेल लाइन पर धरना दिया। धनबाद से हमारे संवाददाता ने बताया
कि यहां कड़ी सुरक्षा के बीच परीक्षा सम्पन्न हुई। यहां
किसी आप्रिय घटना की सूचना नहीं है। यहां आधा दर्जन से
आधिक बंद समर्थकों को गिरफ्तार किया गया।</p>

<p> </p>

<p>'सर हमलोग मारे
जायेंगे...'</p>

<p></p><p>
रांची: 'सर जल्दी से और फोर्स
भेजिये नहीं तो हमलोगों की जान चली जायेगी।' यह
अनुरोध मोबाइल फोन पर एक सब-इंस्पेक्टर का अपने आला
आधिकारी से था। हरमू स्थित संत फ्रांसिस स्कूल के परीक्षा
केंद्र पर सुबह साढ़े नौ बजे मात्र एक सेक्शन फोर्स का
नेतृत्व कर रहे उक्त सबइंस्पेक्टर के सामने जबउपद्रवियों के
बम और पत्थर गिरने लगे तो वहां मौजूद पुलिसकर्मियों ने
फायरिंग शुरू कर दी। फायरिंग कर रहे पुलिसकर्मियों के
चेहरे पर सबसे ज्यादा खौफ इस बात का था कि गोली खत्म हो
जाने के बाद क्या स्थिति होगी? इधर उपद्रवियों के तरफ से
भारी पथराव और बमों का फेंकना जारी था। यही स्थिति
कमोबेश सामलौंग और हुलहूंडू में भी रही। उपद्रवियों के
आगे पुलिस असहाय दिखी। 'रैफ' के जवान पहली बार सुस्त
दिखे, लेकिन पुलिस कप्तान एम.वी. राव पूरे फार्म में
नजर आये। पुलिस कप्तान ने मौके पर सुस्ती दिखाने के लिये
रैफ के जवानों को डांट भी पिलायी। दरअसल शिक्षकों की
नियुक्ति परीक्षा के विरोध में आयोजित ४८ घंटे के झारखंड
बंद का पहला दिन जब शांतिपूर्वक बीता तो दूसरे दिन
को पुलिस प्रशासन ने हल्के तरीके से लिया। खुफिया
विभाग की निष्क्रियता भी खुलकर उजागर हुई।परिणाम
में कुछ लोगों की जान गयी और दर्जनों लोग घायल हुए।
इतना ही नहीं, हजारों परीक्षार्थी परीक्षा देने से वंचित भी रहे।
परीक्षार्थियों ने भी तौबा की इस तरह की परीक्षा से। कई
के सिर फूटे और खाली पैर कितने परीक्षार्थी लौटे इसकी
गिनती कोई नहीं कर सकता। दिन भर राजधानी मंे जो
हिंसा हुई और जो माहौल रहा, उसने कई सवाल खड़े कर दिये।
पहला प्रश्न तो यह है कि खुफिया विभाग ने किस तरह की
जिम्मेवारी का निर्वाह किया? दूसरा प्रश्न है कि राजधानी
के शहरी क्षेत्रों के स्कूलों, कालेजों को छोड़कर दूरदराज में
संवेदनशील इलाकों मंे परीक्षा केंद्र क्यों बनाये गये? तीसरा
प्रश्न यह उठता है कि पर्याप्त सुरक्षा व्यवस्था का दावा
प्रशासन ने कितना पूरा किया। इसके अलावा और कई प्रश्न
हैं, लेकिन यह भी विचार करने की बात है कि पुलिस प्रशासन
के बीच जो संवाद शून्यता की स्थिति पूरे दिन रही, उसके
लिये जवाबदेह कौन होगा? क्योंकि उपद्रवियों से घिरे
पुलिसकर्मी आधिकांश जगहों पर अपने आला आधिकारियों से
मदद की गुहार लगाते और उन्हें कोसते रहे। बहरहाल नये मुख्यमंत्री
अर्जुन मुंडा ने अपने शासन काल में अपने वादे के अनुरूप
पहली सरकारी नौकरी के लिए परीक्षा तो ले ली। लेकिन
जिस तरह से 'स्थानीयता' के मुद्दे पर भ्रम की स्थिति बनी
हुई है उससे झारखंड और खासकर राजधानी में आगे माहौल
कैसा रहेगा, इस पर पूरी संजीदगी से ध्यान देने की आवश्यकता
है।</p>

<p> </p>

<p>नियुक्ति जिलावार
रोस्टर के आधार पर : मुख्य सचिव</p>

<p></p><p>
रांची: शिक्षकों की नियुक्ति
जिलावार रोस्टर के आधार पर होगी। इसके तहत सरकार द्वारा जिस
जिले में जितना आरक्षण की प्रतिशत निर्धारित होगा उस
पर उस जिला के ही लोगों की नियुक्ति होगी। राज्य के मुख्य
सचिव ए.के. मिश्र ने अपने आवास पर पत्रकारों से बातचीत
करते हुए उक्त बातें कही। श्री मिश्र ने कहा कि स्थानीयता
के आधार पर नौकरियों में प्राथमिकता देने का अर्थ
आरक्षण का ही प्रावधान करना है जबकि उच्चतम न्यायालय के
फैसले के अनुरूप राज्य सरकार एक निश्चित सीमा के बाद
आरक्षण का प्रावधान नहीं कर सकती। उन्होंने कहा कि आरक्षण
का लाभ लेने के लिए राज्य के अनुसूचित जाति, जनजाति
और पिछड़े वर्ग के अभ्यार्थियों को राज्य सरकार के
आधिकारी से एक प्रमाण पत्र लेना होता है जिसमें उसकी स्थानीयता
साबित हो जाती है। श्री मिश्र ने कहा कि प्रदेश में कुछ लोगों
ने जाबूझकर सरकारी नौकरियों में झारखंडियों और गैर
झारखंडियों को तरजीह देने जैसे मामले उठाकर विवाद खड़ा
करने की कोशिश की। जबकि राज्य सरकार इस सम्बन्ध में
विभिन्न माध्यमों से अपनी नीति घोषित की है। इसके
बावजूद दस हजार शिक्षकों की नियुक्ति परीक्षा में विवाद
खड़ा किया गया।</p>

<p> </p>

<p>महिलायें भी पीछे
नहीं रहीं उत्पात मचाने में</p>

<p></p><p>
रांची: प्रशिक्षित प्राथमिक
शिक्षक नियुक्ति परीक्षा के दौरान आज रांची के कई
इलाके रणक्षेत्र बने रहे। परीक्षा विरोधी संगठनों के
समर्थकों ने जहां मौका मिला उत्पात मचाया। उत्पात मचाने
और हिंसाचार में महिलायें भी पीछे नहीं रहीं। महिला
प्रदर्शनकारियों की हिंसा का शिकार रांची कालेज का
विज्ञान भवन बना। आज परीक्षा के दौरान जब रांची कालेज
परिसर में परीक्षा विरोधियों और पुलिस के बीच
संघर्ष चल रही थी, लगभग उसी दौरान महिलाओं का जत्था
कालेज में प्रवेश कर गया। नारे लगाती ये महिलायें अत्यंत
उत्तेजना और आक्रोश में थीं। उन्होंने विज्ञान भवन में आग लगा
दी। इससे एक मोटरसाइकिल और कुछ फर्नीचर जल गये।
हालांकि आग पर समय रहते काबू पा लिया गया, जिससे बड़ा
नुकसान होने से बच गया। बाद में प्रदर्शनकारी महिलायें
नारे लगाती हुयी कालेज से बाहर निकल गयी। खबरों के
अनुसार हुलहुंडू में सेक्रेट हार्ट स्कूल परीक्षा केन्द्र में परीक्षा
के विरोध में उत्पात मचाने वालों में भी कई महिलायें
शामिल थीं। करमटोली, सामलौंग, हरमू, लोआडीह और महिला
कालेज इलाकों में भी महिला प्रदर्शनकारी सक्रिय रहीं।</p>

<p> </p>

<p>५००० से ज्यादा
परीक्षार्थी प्रवेश-पत्र पाने से वंचित</p>

<p></p><p>
रांची: डुप्लीकेट एडमिट कार्ड
नहीं मिल पाने के चलते लगभग पांच हजार अभ्यर्थी परीक्षा देने
से वंचित रह गये। ये परीक्षार्थी आज सुबह से जेपीएससी कार्यालय,
उपायुक्त आवास तथा मुख्यमंत्री आवास में एडमिट कार्ड के
लिए भटकते रहे, लेकिन कोई नतीजा नहीं निकला। अभ्यर्थियों
का आरोप है कि उपायुक्त ने उनकी गुहार पर ध्यान नहीं दिया,
उल्टे जबर्दस्ती उनलोगों को आवास से भगा दिया गया। अभ्यर्थी
आज सुबह पांच से पूर्वाह्न ग्यारह-बारह तक जेपीएससी कार्यालय
के समक्ष डटे थे। कल सड़क जाम के दौरान अभ्यर्थियों को बताया
गया था कि बाकी अभ्यर्थियों के एडमिट कार्ड सुबह सात
बजे से बांटे जायेंगे। लेकिन सुबह से जेपीएससी कार्यालय
में ताला लटका रहा। कार्यालय में सिर्फ सिक्युरिटी
गार्ड ही उपस्थित थे। उपायुक्त जयशंकर तिवारी के यहां
से जबरन भगा दिये गये अभ्यर्थियों में से एक पटना की आशा
झा ने रोते हुए बताया कि वह तीन दिनों से एडमिट कार्ड
के लिए भटक रही है। जेपीएससी आधिकारी हर दिन आश्वासन
देते रहे किन्तु आज तक एडमिट कार्ड नहीं मिल सका। आशा
झा समेत सैकड़ों अभ्यर्थियों का हुजूम उपायुक्त आवास से
भगाये जाने के बाद मुख्यमंत्री अर्जुन मुण्डा के आवास
पहुंचे। यहां अभ्यर्थियों को मुख्यमंत्री से नहीं मिलने दिया गया।
अभ्यर्थियों में से कुछ हाईकोर्ट जाने की सोंच रहे हैं। अभ्यर्थियों
का आरोप है कि एडमिट कार्ड बांटने में भेदभाव की गयी
है। मधेपुरा के कैलाश यादव और त्रिभुवन सिंह का आरोप है
कि दो-दो सौ रुपए लेकर एडमिट कार्ड दिये गए हैं। जिन्होंने
पैसे दिये उन्हें एडमिट कार्ड दे दिये गये। अभ्यर्थियों का यह
भी आरोप है कि एडमिट कार्ड भेजने में जानबूझ कर देर
की गयी। जेपीएससी ने १७ मई को द्वितीयक एडमिट
कार्ड डाक से भेजा और इसके चलते दूरदराज के क्षेत्रों के
अभ्यर्थियों तक एडमिट कार्ड पहुंचे ही नहीं।</p>

<p> </p>

<p>बहाली में
स्थानीय को ही प्राथमिकता : मुंडा</p>

<p></p><p>
रांची: मुख्यमंत्री अर्जुन मुंडा
ने कहा कि सरकार आज भी अपने इस घोषणा पर कायम है
कि शिक्षकों की नियुक्ति में प्राथमिकता स्थानीय लोगों
को ही मिलेगी। उन्होंने कहा कि इसके लिए सरकार कार्यवाही
पूरी कर ली है। सरकार ने तृतीय एवं चतुर्थ वर्ग की
नौकरियों में जिलावार आरक्षण रोस्टर बनाया है। शिक्षकों की
नियुक्ति जिला संवर्ग की नियुक्ति है इसलिए जिस
जिला का जो आरक्षण रोस्टर है नियुक्ति उसी के आधार पर
होगी। इसके बाद ही अन्य जिला के लोगों की नियुक्ति
होगी। उन्होंने कहा कि राजनीतिक दल बेवजह तील का ताड़
बनाकर इसे राजनीतिक मुद्दा बना रहे हैं। उन्होंने कहा कि
भारतीय संविधान के अनुसार देश के किसी भी राज्य के
नागरिक को कहीं भी नौकरी में आवेदन का आधिकार है।
अब यह सरकार पर निर्भर करता है कि वह किसे नौकरी में
प्राथमिकता देगी। उन्होंने कहा कि नियुक्ति में भाषा एवं
संस्कृति को भी आधार बनाया गया है। शिक्षकों की नियुक्ति
के दौरान किया गया हंगामा जनाक्रोश का प्रदर्शन नहीं
बल्कि कुछ लोगों की साजिश है। उपद्रवियों ने हिंसा का नंगा
नाच कर राज्य को कलंकित किया है। उन्होंने कहा कि हिंसा
के कारणों की जांच करने का दायित्व गृहसचिव जे.बी.
तुबिद करेंगे। उन्होंन कहा कि उपद्रव कराने वाले संगठनों
को यह कहने का आधिकार नहीं है कि उन्हें भारतीय लोकतंत्र
पर विश्वास है। अपने आवास पर संवाददाताओं से बातचीत में
मुख्यमंत्री अर्जुन मुंडा ने उक्त बातें कही। श्री मुण्डा ने
कहा कि राज्य की आम जनता नहीं चाहती है कि प्रदेश में
किसी तरह की अशांति हो। इसी का परिणाम है कि राज्य में
कुल १९५ परीक्षा केन्द्रों में से मात्र ५ केन्द्रों पर हंगामा हुआ। १९०
केन्द्रों पर शांतिपूर्ण ढंग से परीक्षा हुई। उन्होंने कहा
कि शुरू से ही कुछ संगठन एक षड्यंत्र के तहत अशांति
फैलाने की कोशिश कर रहे थे ताकि परीक्षार्थी परीक्षा में
शामिल नहीं हो सकें। प्रशासन ने उनके इरादे पर पानी फेर दिया
है। उन्होंने कहा कि पुलिस ने हरसंभव बल प्रयोग को टालने
की कोशिश की। लेकिन उपद्रवियों ने उन्हें बल प्रयोग के
लिए मजबूर कर दिया। उन्होंने कहा कि लोगों को यह समझना
चाहिए कि सरकार जो भी कर रही है, राज्यहित में कर रही है।
श्री मुण्डा ने कहा कि आम नागरिकों के सहयोग से ही सरकार
ने शांतिपूर्वक परीक्षा आयोजित की। यदि आम
नागरिकों का सहयोग नहीं मिलता तो हम सही ढंग से परीक्षा
नहीं करवा पाते। उन्होंने कहा कि वह संविधान द्वारा प्रदत्त एक
दायित्वपूर्ण पद पर हैं। इसलिए उनका यह दायित्व है कि राज्य
में जो भी काम हो सही ढंग से हो। इसके लिए निश्चित रूप से
सही कदम उठायेंगे। उन्होंने कहा कि सभी राजनीतिक दलों
को भी यह समझना चाहिये कि उनके लिए राज्यहित का पार्टी
हित से ज्यादा अहमियत है। इसलिए सभी दलों को चाहिये कि
वे कोई ऐसा काम न करें जिससे जनता भड़के। लेकिन
इसके विपरीत वे लोग राज्य की जनता को भड़काने का
काम कर रहे हैं। खासकर यहां के आदिवासियों को भड़काकर
इस तरह उपद्रव कराया जा रहा है। ईसाई बहुल क्षेत्रों के
परीक्षा केन्द्रों पर ही परीक्षार्थियों पर हमला हुआ है, क्या इस
हमले में ईसाइयों का हाथ है? इस सवाल के जवाब में मुख्यमंत्री
अर्जुन मुंडा ने कहा कि उपद्रव कराने में किसका हाथ है, यह
जांच का विषय है। उन्होंने कहा कि आज ही इस संदर्भ में
उन्होंने गृहसचिव जे.बी. तुबिद को जांच का आदेश दिया है।
श्री तुबिद ही यह जांच कर बतायेंगे कि किस परीक्षा केन्द्र पर
वीक्षकों का क्या सहयोग रहा है और क्या असहयोग रहा है। मुख्यमंत्री
अर्जुन मुंडा ने झामुमो अध्यक्ष शिबू सोरेन के इस बयान
पर कि राजनाथ के इशारे पर मुख्यमंत्री उत्तर प्रदेश के पांच हजार
लोगों को शिक्षक बनाने जा रहे हैं, के जवाब में कहा कि श्री
सोरेन एक जिम्मेदारी वाले पद पर हैं। उन्हें जिम्मेदारीपूर्वक
बयान देना चाहिये। उन्होंेने कहा कि श्री सोरेन को यह
अनुभव नहीं है कि उन्हीं लोगों के बयान से कितने लोग जल
रहे हैं। उन्होंने कहा कि कोई भी विपक्षी पार्टी बेरोजगारों
को नौकरी मिले इसका पक्षधर है। शिक्षकों की नियुक्ति
मामले में भी किसी भी राजनीतिक दल ने अपनी नीति स्पष्ट
नहीं कर पायी। उन्होंने कहा कि जहां तक स्थानीय लोगों की
नियुक्ति के बात की जा रही है पहले नियुक्ति तो होने
दिया जाए तब न यह मुद्दा उठाना अच्छा होता।</p>

<p> </p>

<p>मिशनरियों का
हाथ : भाजपा नेता</p>

<p></p><p>
रांची: भारतीय जनता पार्टी के
प्रदेश प्रशिक्षण प्रमुख तथा वरिष्ठ नेता डा. सूर्यमणि सिंह ने
शिक्षक नियुक्ति परीक्षा के दौरान उपद्रव के लिए सीधे तौर
पर ईसाई मिशनरियों को जिम्मेवार मानते हुए इसके
खिलाफ कार्रवाई की राज्य सरकार से मांग की है। डा.
सूर्यमणि सिंह ने कहा है कि ऐसे स्कूलों की मान्यता
समाप्त कर देनी चाहिए। उन्होंने कहा कि उत्पात मचाने वाले
लोग सरकार को विकास का काम नहीं करने देना चाहते हैं।
उनका एकमात्र उद्देश्य सरकार को आस्थिर करना है। उन्होंने कहा
कि ईसाई मिशनरियां जानबूझकर झारखंड सरकार को
बदनाम करने में लगी हुई हैं। उन्होंने कहा कि आज की
परीक्षा के दौरान कुछ केंद्रों पर मचा उपद्रव इस बात का सबूत है।
श्री सिंह ने कहा कि उपद्रव उन्हीं केंद्रों में आधिक हुआ जहां
ईसाई स्कूलों को परीक्षा केंद्र बनाया गया था। उन्होंने
कहा कि परीक्षा का विरोध करने वाले लोगों का अपना
कोई चरित्र नहीं है। विरोधी तेवर दिखाने वाले तत्व फ्राड
और अपराधी किस्म के लोग हैं। पहले तो इन्होंने सरकार को
रोजगार नहीं देने के लिए बदनाम किया और जब सरकार ने
रोजगार देने के लिए कदम आगे बढ़ाए तो उन्होंने विरोध का
रुख आख्तियार कर लिया। श्री सिंह ने कहा कि ऐसे लोगों की
सही जगह जेल है, जहां अभी वे कैद हैं। श्री सिंह ने सफल
परीक्षा के लिए राज्य सरकार और राज्य की जनता को बधाई
देते हुए अपील की है कि रोज-रोज के अनर्गल बंद के
खिलाफ सड़कों पर उतरें।</p>

<p> </p>

<p>रांची विवि
की आज की परीक्षाएं स्थगित</p>

<p></p><p>
रांची: रांची विश्वविद्यालय द्वारा २८
मई को आयोजित स्नातक, स्नातकोत्तर, विधि सहित अन्य
परीक्षाएं अपरिहार्य कारणों से स्थगित कर दी गयी हैं। २८
मई को स्थगित की गयी परीक्षाओं की अगली तिथि
की घोषणा बाद में की जायेगी। विश्वविद्यालय के
कुलसचिव डा. एल.एन. भगत, परीक्षा नियंत्रक डा. ए.के. महतो
एवं जनसंपर्क आधिकारी एस.एस. अख्तर ने उक्त आशय की
जानकारी दी। </p>

<p> </p>

<p>७ जून को भी
झारखंड बंद</p>

<p></p><p>
रांची: छात्र युवा संघर्ष समिति
ने शिक्षकों की नियुक्ति के लिए आज हुई परीक्षा में व्यापक
हिंसा के खिलाफ ७ जून को झारखंड बंद का आह्वान किया है।
समिति के सह संयोजक उदय शंकर ओझा ने उक्त जानकारी
देते हुए बताया कि गैर आदिवासियों के सम्मान के लिए यह
बंद किया जायेगा।</p>

<p>आभिशप्त
बिहार </p>

<p>मानिये या न मानिये, अपहरण का धंधा
बिहार में उद्योग का दर्जा पा चुका है। इसे यह सम्मान दिलाने
में लालू प्रसाद का कितना योगदान है, यह एक शोध का विषय
है। हालांकि श्री प्रसाद इसे प्रतिशोध का विषय बताकर
विपक्ष को कठघरे में खड़ा कर रहे हैं। प्रख्यात न्यूरो
सर्जन डा. नरेश चंद्रा के अपहरण के मामले में समता पार्टी
के एक विधायक सुनील पांडेय की गिरफ्तारी को श्री
प्रसाद ताजा उदाहरण के तौर पर पेश करते हैं और यह बताना नहीं
भूलते कि गिरफ्तार विधायक दो दर्जन संगीन मामलों में
आभियुक्त हैं। समता विधायक श्री पांडेय को न केवल
रणवीर सेना से सम्बद्ध बताया जा रहा है, उसके अपराध के तार
जम्मू-कश्मीर के आतंकी गिरोहों से भी जुड़े बताये जाते
हैं। अत: राजद सुप्रीमो लालू प्रसाद का यह आरोप निराधार नहीं है
कि विपक्ष उनकी सरकार को बदनाम करने की साजिश में
संलग्न है। लेकिन बिहार की राजनीति को करीब से देखने
वालों को पता नहीं कि आज जो समता या जद (यू) में हैं, कल
तक राजद में ही हुआ करते थे। समता विधायक सुनील पांडेय
की राजनीतिक चर्चा की शुरुआत भी पूर्व केन्द्रीय
मंत्री और राजद सांसद कांति सिंह के साथ हुई थी। अतएव
श्री प्रसाद बिहार के अपहरण उद्योग को विषय की देन
बताकर अपनी बला नहीं टाल सकते। राजद नेता यह भी दावा
करते हैं कि अपहरण को उद्योग ही बनाना होता तो डा. रमेश चंद्र
सरीखे लोग मुक्त कैसे करा लिये जाते? अब तो बाबूबरही
उपचुनाव का परिणाम आ जाने के बाद राजद नेता सीना
ठोककर कहने लगे हैं कि राजद सरकार पर जनता का इतना
आविश्वास होता तो इस उपचुनाव में लालू प्रसाद के उम्मीदवार
की जीत दर्ज कतई नहीं होती। सचमुच यह विडंबना ही
है कि बिहार की इतनी बदनामी के बावजूद लोग राजद को
तिरस्कृत करने को तैयार नहीं हैं जिसने उसे दु:स्वप्न दिये हैं,
विपदाएं दी हैं, अराजकता के जंगल दिये हैं। तो क्या बिहार
के लिए इनसे मुक्ति के रास्ते हमेशा-हमेशा के लिए बंद हो गये
हैं? यह एक ऐसा यक्ष प्रश्न है जिसका उत्तर तलाशना कठिन है।</p>

<p> </p>






</body></text></cesDoc>