<cesDoc id="hin-w-ranchi-news-02-12-19" lang="hin">
<cesHeader type="text">
<fileDesc>
<titleStmt>
<h.title>hin-w-ranchi-news-02-12-19.txt</h.title>
<respStmt>
<respType>Electronic file created by</respType>
<respName>Department of Linguistics, Lancaster University</respName>
<respType>text collected by</respType>
<respName>Celia Worth and Paul Baker</respName>
<respType>transferred into Unicode by</respType>
<respName>"Unicodify" software by Andrew Hardie</respName>
</respStmt>
</titleStmt>
<publicationStmt>
<distributor>UCREL</distributor>
<pubAddress>Department of Linguistics, Lancaster University, Lancaster, LA1 4YT, UK</pubAddress>
<availability region="WORLD"></availability>
<pubDate>03-08-24</pubDate>
</publicationStmt>
<sourceDesc>
<biblStruct>
<monogr>
<h.title>Internet version of the "Ranchi Express" newspaper (www.ranchiexpress.com), news stories collected on 02-12-19</h.title>
<h.author>Ranchi Express Group</h.author>
<imprint>
<pubPlace>Ranchi, Jharkhand, India</pubPlace>
<publisher>Ranchi Express Group</publisher>
<pubDate>02-12-19</pubDate>
</imprint>
</monogr>
</biblStruct>
</sourceDesc>
</fileDesc>
<encodingDesc>
<projectDesc>Text collected for use in the EMILLE project.</projectDesc>
<samplingDesc>Simple written text only has been transcribed. Diagrams, pictures and tables have been omitted and their place marked with a gap element.
</samplingDesc>
<editorialDecl>
<conformance level="1"></conformance>
</editorialDecl>
</encodingDesc>
<profileDesc>
<creation>
<date>03-08-24</date>
</creation>
<langUsage>Hindi</langUsage>
<wsdUsage>
<writingSystem id="ISO/IEC 10646">Universal Multiple-Octet Coded Character Set (UCS).</writingSystem>
</wsdUsage>
<textClass>
<channel mode="w">print</channel>
<constitution type="composite"></constitution>
<domain type="public"></domain>
<factuality type="fact"></factuality>
</textClass>
<translations></translations>
</profileDesc>
<revisionDesc></revisionDesc>
</cesHeader>

<text>
<body>




<p>कोयले में
पत्थर,बंद हो सकता है पतरातू थर्मल                                                </p>

<p></p><p>
रांची : कोयले की भारी कमी
के कारण पतरातू थर्मल पावर स्टेशन के अगले चार दिनों में
बंद होने की आशंका उत्पन्न हो गयी है। कोयले की कमी
को लेकर थर्मल पावर स्टेशन तथा बिजली बोर्ड के
आला आधिकारियों में खलबली मच गयी है। झारखंड विद्युत
बोर्ड के उच्च पदस्थ सूत्रों के अनुसार सेन्ट्रल कोल फील्ड्स
लिमिटेड ने दस दिसम्बर को ढाई हजार मीट्रिक टन कोयले
से लदा एक वैगन भेजा। इसके बाद पुनः १७ दिसम्बर को एक रैक
भेजा गया। पतरातू थर्मल पावर स्टेशन के आधिकारियों ने
जांच के बाद पाया कि कोयले में पत्थर मिले हुए हैं। सूत्रों
के अनुसार कोयले में ३० प्रतिशत पत्थर मिले हुए हैं।
पी.टी.पी.एस. के आधिकारियों ने बिजली बोर्ड के चेयरमैन
राजीव रंजन को घटिया कोयले की आपूर्ति के संबंध में
जानकारी दी। चेयरमैन राजीव रंजन ने तत्काल पी.टी.पी.एस.
के आधिकारियों को कोयले से लदा रैक सी.सी.एल. को
वापस करने का निर्देश दिया। इस निर्देश के आलोक में
पी.टी.पी.एस. के आधिकारियों ने सी.सी.एल. से रैक वापस
लेकर प्लांट में उपयोग होने लायक उपयुक्त कोयले की
आपूर्ति करने का आग्रह किया। बोर्ड अध्यक्ष ने अलग से
सीसीएल के अध्यक्ष सह प्रबंध निदेशक को पत्र लिखकर
आपूर्ति की गयी कोयले के संबंध में जानकारी दी और
आग्रह किया कि पतरातू थर्मल को बेहतर क्वालिटी के
कोयले की आपूर्ति सुनिश्चित की जाये। उन्होंने पत्र में
कहा है कि सी.सी.एल. द्वारा दूसरा रैक भेजा गया परन्तु उसमें
भी ३० प्रतिशत पत्थर मिला है। पीटीपीएस ने दूसरे रैक को
भी लेने से इन्कार कर दिया है। इस रैक में भी ढाई हजार
मीट्रिक टन कोयला लदा है। दोनों रैक थर्मल पावर स्टेशन
की दो लाइनों पर खड़े कर दिए गए हैं जिससे दोनों लाइनें जाम
हो गयी हैं। पावर स्टेशन में कोयला आपूर्ति एकमात्र रेल
मार्ग से ही की जाती है। विद्युत बोर्ड रेलवे एवं
सी.सी.एल. से दोनों रैक हटाने का आग्रह कर रहा है परन्तु
कोई कार्रवाई नहीं की जा रही है। पीटीपीएस के
समक्ष अब यह संकट उत्पन्न हो गया है कि उसके पास मात्र ४० हजार
मीट्रिक टन कोयला ही स्टाक में है जबकि हर समय एक लाख
मीट्रिक टन कोयला स्टाक में रहना चाहिए। पीटीपीएस के
आधिकारियों के समक्ष समस्या यह भी है कि वे पत्थरयुक्त
कोयले का उपयोग प्लांट में नहीं कर सकते। जिस स्तर के
कोयले की आपूर्ति की गयी है यदि उसका उपयोग किया गया
तो चार हजार करोड़ रुपये का प्लांट बैठ जाएगा। पीटीपीएस
में प्रतिदिन आठ हजार मीट्रिक टन कोयले की खपत होती
है। इस तरह इस स्टाक के सहारे प्लांट को चार-पांच दिन ही चलाया
जा सकता है। बोर्ड के सूत्रों के अनुसार पीटीपीएस को
इस तरह की समस्या का सामना कभी नहीं करना पड़ा था। मूल
समस्या कोयले की बजाय पत्थर कोयले की है। यदि
पीटीपीएस को चार दिनों के अंदर अच्छे कोयले की आपूर्ति
नहीं की गयी तो प्लांट को बंद कर देना पड़ेगा। ऐसी स्थिति
में पूरा झारखंड राज्य अंधेरे में डूब जाएगा। पीटीपीएस के
महाप्रबंधक सी.के. सिंह ने विद्युत बोर्ड, रांची के मुख्य
आभियंता (जी.एंड टी), सदस्य (तकनीकी) एस.एन. अखौरी एवं
बोर्ड के अध्यक्ष के सलाहकार को त्राहिमाम संदेश भेजकर
उन्हें कोयले को लेकर उत्पन्न स्थिति से अवगत कराया है।</p>

<p> </p>

<p>झारखंड के
औद्योगिक और पर्यटन विकास पर वार्ता</p>

<p></p><p>
रांची : थाइलैण्ड की एक निजी
कम्पनी अमाता ने झारखंड में औद्योगिक विकास के क्षेत्र में
सहयोग देने और पूंजी निवेश की इच्छुक है। मुख्यमंत्री
बाबूलाल मरांडी और उनके साथ गये प्रतिनिधि मंडल ने आज
इस कम्पनी के विशाल औद्योगिक परिक्षेत्र का परिभ्रमण
किया। अमात का यह औद्योगिक क्षेत्र करीब ४००० एकड़ भूमि
में फैला है और इसमें २०६ औद्योगिक इकाइयां काम कर रही हैं।
मुख्यमंत्री बाबूलाल मरांडी इस औद्योगिक क्षेत्र में उपलब्ध
औद्योगिक एवं संरचनात्मक सुविधाओं का अवलोकन कर अत्यन्त
प्रभावित हुए। बताया गया कि थाइलैण्ड की प्रसिद्ध सी.एच.
करनचांग पब्लिक कम्पनी ने सड़कों के विकास और यातायात
की समस्याओं से संबंधित प्रस्तुतियां पेश की। श्री मरांडी
ने कम्पनी को झारखंड में, खासकर राजधानी रांची में यातायात
व्यवस्था में सहयोग के लिए आमंत्रित किया। एक अन्य कम्पनी
रोजसिन कंस्ट्रक्शन लि. ने सड़क विकास के कार्यों को
पेश किया। बताया गया कि मुख्यमंत्री और उनके
प्रतिनिधिमंडल के सदस्यों ने झारखंड में पर्यटन विकास पर
भी बातचीत की। उन्होंने बताया कि झारखंड में पर्यटन
विकास की बेशुमार संभावनाएं हैं। और राज्य में पर्यटन
को उद्योग का दर्जा देने पर विचार हो रहा। यह भी कहा गया
कि राज्य में निवेशकों को हर संभव सहायता प्रदान की जायेगी
और उन्हें बेहतर माहौल सुलभ कराया जायेगा। सरकार का
निवेशकों के साथ मित्रवत् व्यवहार रहेगा। श्री मरांडी ने
उम्मीद जतायी कि दोनों देश एक-दूसरे के अनुभवों का लाभ
उठायेंगे। श्री मरांडी ने इण्डोथाई ग्रुप को झारखंड में पर्यटन
क्षेत्र में कार्य के लिए झारखंड आने का आमंत्रण दिया। बाद
में मुख्यमंत्री के सम्मान में दूतावास में रात्रि भोज का आयोजन
किया गया। दूतावास द्वारा आयोजित रात्रि भोज में मुख्यमंत्री
समेत उनके प्रतिनिधिमंडल के आठ सदस्य एवं इण्डो-थाई
ग्रुप शामिल हुआ।</p>

<p> </p>

<p>कुछ को खुशियां,कुछ
को गम की सौगात देने वाला है नववर्ष</p>

<p></p><p>
रांची : झारखंड सरकार के कुछ
मंत्रियों को खुशियां का तोहफा तो कुछ को गम की
सौगात देने वाला है नववर्ष। किन्हीं के हाथों से क्रिमी
मंत्रालय फिसलने वाला है तो कुछ ऐसे चेहरे आ रहे हैं, जिन्हें
क्रिमी विभाग तो मिल रहा है लेकिन वे केवल लालबत्ती
की ही आशा लिए हुए थे। विदेश यात्रा से तरोताजा हो कर
लौटने के उपरांत मुख्यमंत्री बाबूलाल मरांडी अपने मंत्रिमंडल
को भी तरोताजा करने वाले हैं। बाबूलाल मरांडी सरकार का
बहुप्रतीक्षित मंत्रिमंडल विस्तार शीतकालीन सत्र के बाद
होगा। शीतकालीन सत्र २३ दिसम्बर से २८ दिसम्बर तक चलेगा। यानी
नववर्ष की शुरूआत में ही मंत्रिमंडल विस्तार की प्रबल
संभावना है। गोड्डा चुनाव में विजयश्री मिलने के बाद मुख्यमंत्री
की खुशी चौगुनी हुई है तो वहीं सबसे भारी बजट वाला
ग्रामीण विकास विभाग का मंत्री पद हथियाने के लिए एक
ओर जहां भाजपा विधायकों के सक्रिय होने की खबर है वहीं
सहयोगी दल के कुछ मंत्री भी इस पद को हथियाने के लिए
एक बार फिर बाबूलाल के लिए सिरदर्द बन सकते हैं।
सिरदर्द बने सहयोगी दलों के कुछ मंत्रियों से मरांडी पहले
से ही तंग हैं। इस मंत्रिमंडल विस्तार में नये चेहरों में चन्द्रेश
उरांव, दिनेश उरांव, देवेन्द्र कुंअर एवं अशोक कुमार अगली
पंक्ति में हैं तो निर्दलीय विधायक और बीस सूत्री कार्यक्रम
कार्यान्वयन समिति के अध्यक्ष माधवलाल सिंह का
कैबिनेट मंत्री बनाया जाना लगभग तय है। भाजपा के अंदरूनी
सूत्रों के अनुसार मुख्यमंत्री बाबूलाल मरांडी ने संभावित
मंत्रियों की सूची लगभग तय कर ली है। बस औपचारिक
घोषणा बाकी है। माधवलाल सिंह गोमियां से निर्दलीय
विधायक हैं और खुद को लंबे समय से उपेक्षित महसूस करते
रहे हैं। बीस सूत्री अध्यक्ष बनाये जाने का भी माधवलाल सिंह ने
विरोध किया था और पदभार संभालने से इनकार कर दिया था।
सूत्रों के अनुसार मुख्यमंत्री ने उन्हें तब मंत्रिमंडल विस्तार में
प्राथमिकता देने का आश्वासन दिया था। दूसरी ओर पथ
निर्माण मंत्री सुदेश महतो से मरांडी की बढ़ती निकटता
का लाभ भी ग्रामीण विकास मंत्रालय का पदभार उन्हें मिलने
की प्रबल संभावना व्यक्त की जा रही है।</p>

<p> </p>

<p>दुमका समेत
तीन जिलों में सेल्यूलर सेवा शुरू</p>

<p></p><p>
दुमका : झारखंड की उप राजधानी
दुमका सहित संथाल परगना प्रक्षेत्र के तीन जिलों में भारतीय
दूरसंचार निगम की सेल्यूलर सेवा काल आन आज से शुरु हो
गई। दूरसंचार निगम दुमका के जिला प्रबंधक एस.एन. सिंह
ने यहां आयोजित एक कार्यक्रम में बी एस एन एल सेल्यूलर
सेवा काल आन का शुभारंभ किया। प्रमंडलीय मुख्यालय दुमका
के साथ गोड्डा एवं साहेबगंज जिले में यह सेवा शुरु की गई
है। देवघर जिले में सेल्यूलर सेवा का लाभ उपभोक्ताओं को
पूर्व से ही मिल रहा है। इस अवसर पर दूरसंचार निगम के
जिला आभियंता पी पी साह ने निगम की कार्य योजना
पर विस्तार से प्रकाश डाला।</p>

<p> </p>

<p>बड़ी मात्रा में
विस्फोटक बरामद,एक गिरफ्तार</p>

<p></p><p>
गुमला : बसिया एवं कमडरा पुलिस
ने बुधवार की सुबह भागीडेरा गांव स्थित रामचन्दर साहु के घर
में संयुक्त रूप से छापामारी कर बड़ी मात्रा में विस्फोटक
सामग्रियां बरामद की। बरामद सामग्री में ६१ पीस जिलेटिन, १०४
मीटर फ्यूज वायर, २ कि.ग्रा. बारूद व आधा कि.ग्रा. युरिया
उल्लेखनीय है। पुलिस ने रामचन्दर साहु को गिरफ्तार कर लिया
है। आभियुक्त रामचन्दर साहु यह विस्फोटक सामग्रियां
एम.सी.सी. को सप्लाई करने वाल था। प्राप्त जानकारी के
अनुसार अज अहले सुबह अनुमंडल पुलिस पदाधिकारी सुधीर
कुमार झा को दूरभाष पर किसी ने यह गुप्त सूचना दी कि
भागोडेरा गांव का रामचन्दर साहु आज प्रतिबंधित नक्सली
संगठन के एरिया कमांडर सोहन महतो को भारी मात्रा में
विस्फोटक सामग्रियों की आपूर्ति करने वाला है। यह सूचना
श्री झा ने बसिया थाना को देते हुए इस पर त्वरित
कार्रवाई का आदेश दिया। तब बसिया के थाना प्रभारी
एस.एन. मंडल व कमडारा के थाना प्रभारीर रवीन्द्र कुमार ने सशस्त्र
पुलिस बल के साथ भागोडेरा गांव स्थित रामचन्दर साहु के घर
में छापामारी कर उक्त विस्फोटक सामग्रियों के साथ रामचन्दर
साहु को गिरफ्तार कर लिया। जबकि उसका भगिना भागरिथ
साहु भागने में सफल रहा। पुलिस गिरफ्तार आभियुक्त रामचन्दर
साहु से फिलहाल सघन पूछताछ कर रही है।</p>

<p> </p>

<p>न्यायपालिका
कमजोर होने से उग्रवाद को और बढ़ावा मिलेगा : यादव</p>

<p></p><p>
रांची : उग्रवाद का सबसे बड़ा
सरगना अमेरिका है। उग्रवाद को यदि जड़ से समाप्त करना है तो
विश्व के सभी विकसित राष्ट्र खुलकर भारत का साथ दे।
क्रांतिकारी साम्यवादी पार्टी के राष्ट्रीय अध्यक्ष रामचन्द्र यादव ने
बातचीत के क्रम में उक्त बातें कही। श्री यादव ने कहा कि
अमेरिका को जब अपना स्वार्थ होता है तभी वह उग्रवाद के
खिलाफ विश्व समुदाय को इकट्ठा होने की अपील करता है।
जब उनका स्वार्थ पूरा हो जाता है तब वही उग्रवाद को बढ़ावा
देने वाले राष्ट्रों को आर्थिक सहायता के साथ-साथ हथियारों
की भी आपूर्ति करता है। उन्होंने कहा कि न्यायपालिका के
कमजोर होने पर उग्रवाद को और बढ़ावा मिलेगा। उन्होंने कहा
कि झारखण्ड में जितना साधन है वैसा विकास नहीं हो रहा है। यहां
जनसंख्या कम है और धन आधिक है। लेकिन यहां की सरकार
प्रकृति से विरासत में मिले संसाधनों का उपयोग नहीं कर
पा रही है। उन्होंने कहा कि सरकार यदि सही इच्छाशक्ति से काम
करे तो ना सिर्फ यह राज्य देश का सबसे विकसित राज्य
बन सकता है बल्कि यहां के लिए नासूर बनी उग्रवाद समस्या भी
समाप्त हो सकती है। श्री यादव ने कहा कि गुजरात में समय पर
चुनाव होता तो कुछ और नतीजा होता। विपक्ष ने गोधरा काण्ड
को लेकर समय से पहले ही सरकार को इस्तीफा दिलवा दिया।
उन्होंने कहा कि अक्षरधाम में हुए हमले ने भाजपा की जीत को
सरल बना दिया। उन्होंने कहा कि देशहित में गुजरात चुनाव का
परिणाम काफी घातक है। श्री यादव ने कहा कि खुशहाल
झारखण्ड के लिए यहां भूमि सुधार कानून को सख्ती से लागू
करना होगा। बिना भूमिवालों को सरकार की जोत की
जमीन उपलब्ध करावे। किसानों को ९० प्रतिशत अनुदान पर
निजी बोरिंग और पम्पसेट मुहैया करायी जाए। शिक्षा के नाम
पर खुल रहे निजी विद्यालयों पर सरकार रोक लगावे।</p>

<p> </p>

<p>इंडाल कम्पनी
को बंदी से बचाने के लिए धरना</p>

<p></p><p>
मुरी : मुरी अल्युमीनियम
फैक्टरी वर्कर्स यूनियन के तत्वावधान में इंडाल
कम्पनी को बंद होने से बचाने के लिए सिल्ली प्रखंड कार्यालय
परिसर में एकदिवसीय धरना कार्यक्रम का आयोजन किया
गया। धरना का नेतृत्व यूनियन के अध्यक्ष जीवराज महतो ने
किया। इसका संचालन विकास गांगुली ने किया। इस धारना
कार्यक्र को सम्बोधित करते हुए अध्यक्ष जीवराज महतो ने
कहा कि मुरी अल्युमीनियम फैक्टरी बाक्साइड के अभाव में
बंदी के कगार पर पहुंचती जाह रही है। इस कारखाने को बंदी
के कगार से बचाने के लिए संघ ने कम्पनी प्रबंधन को एक
ज्ञापन देकर इस समस्या पर पहल करने की अपील की थी
लेकिन इस अपील पर ध्यान नहीं देने की वजह से इसके
विरोध में आज धरना देने की नौबत आयी है। उन्होंने कहा
कि इस समस्या के लिए झारखंड सरकार के उद्योग मंत्री, मुख्यमंत्री
का ध्यान आकृष्ट कराया था, लेकिन इस पर तनिक भी ध्यान
नहीं दिया गया। </p><p>
श्री महतो ने पुन: एक
पत्र द्वारा सरकार का ध्यान आकृष्ट करते हुए कहा है कि जहां
झारखंड सरकार झारखंड में रोजगार एवं विकास के लिए राज्य में
उद्योग लगाने की बात कर रही है। उद्योग मेला लगा रही है, तथा
विदेशों से उद्योग लाने के लिए जोरदार प्रयास किये जा रहे हैं,
वहीं मुरी अल्युमीनियम फैक्टरी इस उद्योग जगत में पूर्ण
सफलता से आगे बढ़ते हुए अच्छी गुणवत्ता के बल पर देश में ही
नहीं, विश्व के कई देशों में अभी खास पहचान बनायी है। इस
धरना कार्यक्रम में गंगाधर महतो, कौशल किशोर महतो,
सैयद फारुख, पी.एल. कुम्हार, जॉय थॉमस, शंकर महतो,
आत्माराम महतो, षष्ठी हजाम, राजेश महतो, विकास महतो,
आदि वक्ताओं ने भी अपने-अपने विचार रखे।</p>

<p> </p>

<p>समाज सेवा में
स्वयंसेवी संगठन आगे आयें : जोबा</p>

<p></p><p>
रांची : पर्यटन, महिला-बाल कल्याण
मंत्री श्रीमती जोबा मांझी ने कहा कि सामाजिक न्याय एवं
कार्य हेतु स्वयंसेवी संस्थाओं को आगे आने की जरूरत
है। वाई.एम.सी.ए. (वी.टी.सी.) में आयोजित दो दिवसीय
चाइल्ड लाइन एण्ड ओरियेन्टेशन कार्यक्रम का दीप प्रज्ज्वलित
कर उद्घाटन करते हुए श्रीमती मांझी ने उक्त बातें कहीं।
उन्होंने कहा कि समाज सेवा के क्षेत्र में लोगों को थोड़ी
कठिनाई जरूर होती है। लेकिन इस कार्य को करने
के आनन्द भी है। आज चाइल्ड लाइन ने असहाय, बेकार एवं बेसहारा
बच्चों का सहारा देने का पुनित कार्य अपने हाथों लिया है।
यह काफी सराहनीय है। चाइल्ड लाइन के कोर्डिनेटर हेमन्त
अग्रवाल ने कहा कि चाइल्ड लाइन के प्रयासों के प्रति लोगों
को जागरुक करना जरूरी है। उन्होंने कहा कि लोग बेसहारा एवं
असहाय बच्चों की सूचना दूरभाष १०९८ पर दे सकते हैं। इस नम्बर
पर कॉल करने पर लोगों को किसी प्रकार का शुल्क नहीं
लगता है एवं यह सेवा २४ घंटे चालू रहती है। कार्यक्रम में लगभग
५० स्वयंसेवी संस्थाओं ने भाग लिया। स्वागत भाषण निदेशक
फादर बेनजामीन लकड़ा ने किया। जबकि सी.एल. रांची शहर
के नोडल संगठन के समन्वयक सुशील सुरेन, डा. एस.के.
साह, सी.एस.एस. के निदेशक राहुल मेहता एवं अय उपस्थित थे।</p>

<p> </p>

<p>२० तक कांग्रेस
सदस्यों के नाम सूचीबद्ध करने का निर्देश</p>

<p></p><p>
रांची : रांची जिला (नगर) कांग्रेस
कमेटी के उपाध्यक्ष कामता उपाध्याय ने सभी प्रखंड अध्यक्ष एवं
प्रखंड प्रभारियों से नगर कांग्रेस अध्यक्ष विजय कुमार साहु के
निर्देशानुसार आग्रह किया है कि सदस्यता आभियान में बनाये गये
कांग्रेस सदस्यों केनाम सूचीबद्ध करते हुए प्राप्त राशि के साथ
२० दिसम्बर तक नगर कार्यालय में जमा कर दे। इसके अलावा
प्रत्येक बूथ में कम से कम दो सक्रिय सदस्य अवश्य बना ले,
जिला, प्रदेश तथा केन्द्रीय स्तर के जो भी नेतागण आपके
प्रखंड में निवास करते हों, उनसे सम्पर्क कर क्रियाशील सदस्यता
का फार्म अवश्य भरवा लें, कांग्रेस फ्रेंड्स के लिये यदि
नगर कार्यालय से कूपन ले लिया हो तो संग्रहित राशि यथाशीघ्र
जमा कर दे तथा यदि कूपन नहीं लिया गया है तो नगर कांग्रेस
कार्यालय शीघ्र कूपन ले लें। </p><p>
श्री उपाध्याय ने सभी
प्रखंड अध्यक्ष एवं प्रभारियों से उक्त बिन्दुओं पर शीघ्र
कार्रवाई करने का आग्रह किया है।</p>

<p>तीन
महत्वपूर्ण विधेयकों को मंजूरी </p>

<p>इस वर्ष संसद के
शीतकालीन सत्र का महत्व इस मायने में बढ़ जाता है कि इसमें
तीन जनहितकारी विधेयकों व विधेयक संशोधनों को
स्वीकृति मिल गई है। ये तीनों विधेयक महिलाओं,
बच्चों और सामान्य जन से संबंधित हैं। इन विधेयकों में साक्ष्य
संशोधन विधेयक को स्वीकृति मिलने से बलात्कार
पीड़िता को अदालत में मिलने वाली मानसिक प्रताड़ना से
बहुत हद तक छुटकारा मिल सकेगा। इस संशोधन विधेयक के
अनुसार अब बलात्कार से संबंधित बहस के दौरान न्यायालय में
पीड़िता के चरित्र संबंधी प्रश्न नहीं पूछे जाएंगे। इस संशोधन
के बाद, संभव है, कुछ और भुक्तभोगी महिलाएं अपराधी को
दंड दिलाने के लिए न्यायालय तक पहुंचने का आत्मबल जुटा
सकें। इसी तरह चौदह वर्ष की उम्र तक के बच्चों के लिए
शिक्षा को मौलिक आधिकार के रूप में संविधान में शामिल
कर लिया जाना भी शीतकालीन सत्र की एक विशेष
उपलब्धि कही जाएगी। बालश्रम को समाप्त करने और भविष्य
के लिए एक शिक्षित और बेहतर पीढ़ी तैयार करने की दिशा
में यह विधेयक उपयोगी सिद्ध होगा। लेकिन बच्चों को यह
आधिकार दिए जाने के साथ-साथ हर बच्चे के लिए शिक्षा
सुविधा उपलब्ध कराना भी आवश्यक है। पर्याप्त संख्या में
प्राथमिक, मध्य एवं उच्च विद्यालयों की स्थापना तथा विद्यालयों
में बच्चों की उपस्थिति सुनिश्चित करने के अलावा उनकी
पढ़ाई अधूरी छोड़ने की प्रवृति को रोकने की समुचित
व्यवस्था की जा सके, तभी इस विधेयक का उद्देश्य सिद्ध हो
सकेगा। संसद ने जिस तीसरे महत्वपूर्ण विधेयक को
स्वीकृति दी है, वह है सूचना पाने का आधिकार। आम आदमी
को सरकारी सूचना पाने का आधिकार मिल जाने से जनता
और सरकार के मध्य जहां पारदर्शिता स्थापित हो सकेगी वहीं
भ्रष्टाचार और आनियमितताओं पर अंकुश लगाना भी संभव
होगा। अन्तत: तीनों विधेयकों को सही तरीके से अमल में
लाया जा सके तभी इनकी सार्थकता है अन्यथा संविधान में
इन्हें दर्ज करने मात्र से काम नहीं चलेगा।</p>

<p> </p>






</body></text></cesDoc>