<cesDoc id="hin-w-ranchi-news-01-09-22" lang="hin">
<cesHeader type="text">
<fileDesc>
<titleStmt>
<h.title>hin-w-ranchi-news-01-09-22.txt</h.title>
<respStmt>
<respType>Electronic file created by</respType>
<respName>Department of Linguistics, Lancaster University</respName>
<respType>text collected by</respType>
<respName>Celia Worth and Paul Baker</respName>
<respType>transferred into Unicode by</respType>
<respName>"Unicodify" software by Andrew Hardie</respName>
</respStmt>
</titleStmt>
<publicationStmt>
<distributor>UCREL</distributor>
<pubAddress>Department of Linguistics, Lancaster University, Lancaster, LA1 4YT, UK</pubAddress>
<availability region="WORLD"></availability>
<pubDate>03-08-24</pubDate>
</publicationStmt>
<sourceDesc>
<biblStruct>
<monogr>
<h.title>Internet version of the "Ranchi Express" newspaper (www.ranchiexpress.com), news stories collected on 01-09-22</h.title>
<h.author>Ranchi Express Group</h.author>
<imprint>
<pubPlace>Ranchi, Jharkhand, India</pubPlace>
<publisher>Ranchi Express Group</publisher>
<pubDate>01-09-22</pubDate>
</imprint>
</monogr>
</biblStruct>
</sourceDesc>
</fileDesc>
<encodingDesc>
<projectDesc>Text collected for use in the EMILLE project.</projectDesc>
<samplingDesc>Simple written text only has been transcribed. Diagrams, pictures and tables have been omitted and their place marked with a gap element.
</samplingDesc>
<editorialDecl>
<conformance level="1"></conformance>
</editorialDecl>
</encodingDesc>
<profileDesc>
<creation>
<date>03-08-24</date>
</creation>
<langUsage>Hindi</langUsage>
<wsdUsage>
<writingSystem id="ISO/IEC 10646">Universal Multiple-Octet Coded Character Set (UCS).</writingSystem>
</wsdUsage>
<textClass>
<channel mode="w">print</channel>
<constitution type="composite"></constitution>
<domain type="public"></domain>
<factuality type="fact"></factuality>
</textClass>
<translations></translations>
</profileDesc>
<revisionDesc></revisionDesc>
</cesHeader>

<text>
<body>




<p>आरक्षण नीति की
घोषणा से राजधानी का माहौल गरमाया,</p><p>
आज झारखंड बंद</p>

<p>·  कई स्थानों पर तोड़फोड़, पत्थरबाजी</p>

<p>·  सिटी एसपी घायल, बच्चों की भी पिटाई</p>

<p>रांची :
झारखंड सरकार द्वारा कल घोषित नयी आरक्षण नीति ने आज
शहर के माहौल को पूरी तरह गर्म कर दिया। एक ओर जहां
आरक्षण से वंचित लोग ज्यादा प्रतिशत के लिये गोलबंद होते
नजर आ रहे हैं, वहीं दूसरी ओर सर्वाधिक आरक्षण प्रतिशत
पाने के बावजूद आदिवासी समुदाय के लोग असंतुष्ट हो गये
हैं। आदिवासियों का आरक्षण ६० प्रतिशत करने की मांग को
लेकर आज दिन भर शहर के मुख्य मार्गों पर रैली-प्रदर्शन और
तोड़फोड़ की घटनायें होती रहीं। मेन रोड में आज कई बार
भगदड़ मची। इस भगदड़ में पुलिस वाले भी भागते नजर आये।
कुछ स्थानों पर तो पुलिस की ही उपस्थिति में तोड़फोड़
की घटनायें हुई। रैली निकालने वाले आदिवासी समुदाय
के लोगों ने गैर आदिवासियों की पिटाई भी की,
लेकिन हिनू चौक पर उस समय मामला उलटा पड़ गया, जब
आदिवासी समुदाय के लोगों ने वहां दुकानें बंद कराने तथा
इंदिरा पैलेस में तोड़फोड़ करने के बाद स्कूल बस से उतरने
वाले बच्चों को मारना-पीटना तथा महिलाओं के साथ दुर्व्यवहार
करना शुरू कर दिया। दुकानदारों एवं स्थानीय लोगों ने इसे
बर्दाश्त नहीं किया और वे एकजुट होकर उन पर टूट पड़े।
मौके पर उपस्थित पुलिसकर्मियों ने तोड़फोड़ एवं मारपीट
करने वाले आदिवासी समुदाय के लोगों को किसी तरह बताया।
हालांकि उस दौरान हुई पत्थरबाजी की घटना में नगर पुलिस
अधीक्षक संपत मीणा को चेहरे पर एक पत्थर लगी, जिससे वह
घायल हो गयीं। </p><p>
आदिवासी छात्र संघ ने
आदिवासियों को सरकारी नौकरियों में ६० प्रतिशत आरक्षण
की मांग को लेकर कल झारखंड बंद का आयोजन किया है।
आदिवासी समुदाय के लोगों को सरकारी नौकरी में ६०
प्रतिशत आरक्षण दिये जाने की मांग को लेकर आदिवासी छात्र
संघ ने आज रैली का आयोजन किया था। रैली के आयोजन
को देखते हुए जिला प्रशासन एवं पुलिस प्रशासन ने शहर के
विभिन्न स्थानों पर दंडाधिकारियों की प्रतिनियुक्ति की
थी तथा सशस्त्र पुलिस बल को तैनात किया था। जमशेदपुर से
रैफ की दो कंपनियां भी रांची बुला ली गयी थीं।
आदिवासी छात्र संघ ने जयपाल सिंह स्टेडियम में रैली का आयोजन
किया। </p><p>
रैली एवं सभा के बाद
हजारों की संख्या में आदिवासी समुदाय के लोग पैदल ही
प्रोजेक्ट भवन के लिये निकल पड़े। जुलूस मेन रोड तक
जिस स्थान से होकर गुजरी, वहां पर पहले ही भगदड़ मच गयी
और सारी दुकानें बंद हो गयीं। इस दौरान जुलूस में शामिल
लोगों ने कुछ वाहनों में तोड़फोड़ भी की। </p>

<p>बालूमाथ पुलिस को एक और
सफलता </p><p>
जमीन
में उग्रवादियों द्वारा गाड़े गये ८ लाख रुपये बरामद</p>

<p>लातेहार
: लातेहार जिले के बालूमाथ थाना से पुलिस ने पुन: एक घर
से जमीन में गड़े हुए लगभग ८ लाख रुपये बरामद करने में
सफलता पाई है। इस छापामारी आभियान का नेतृत्व नवनियुक्त
आरक्षी अधीक्षण अरुण उरांव (भा.प्र.से.) कर रहे थे। आज लातेहार
थाना परिसर में श्री उरांव ने पत्रकारों को बताया कि गुप्त
सूचना के आधार पर बालूमाथ थाना के केड़ू गांव में बाबू
लाल गंझू के घर में छापामारी की गई। पुलिस के आने
की भनक मिलते ही घर के सभी पुरुष सदस्य भाग गये थे,
वहां स्थित महिलाओं की निशानदेही पर घर के घुसने वाले
दरवाजे के पास से जमीन में गड़े हुए एक आईरन केस को
जब्त किये गया जिसमें ७ लाख ९५ हजार, २०० रुपये पाए गए। यह
रकम अलग-अलग पोलिथीन में बंद कर रखी गयी थी। मिले
रुपये में ६ बंडल एक-एक लाख का, तीन बंडल ५०-५० हजार रुपये का
तथा एक बंडल ४५ हजार रुपये का था। श्री उरांव ने बताया कि
जब्त रुपये को लातेहार ले आया गया है तथा लातेहार के एक
दण्डाधिकारी के समक्ष इसकी गिनती की गई। मालूम हो
कि केड़ू गांव बालूमाथ थाना से लगभग ३५ किलोमीटर तथा
हुम्बु पुलिस पिकेट से लगभग ८ किलोमीटर दूर है। सनद रहे
कि अरुण उरांव के यहां पदस्थापित होने के बाद चार दिनों के
अंदर पुलिस को यह तीसरी बड़ी सफलता मिली है। संभवत:
उक्त बरामद नगद राशि प्रतिबंधित उग्रवादी संगठन एमसीसी
की है। इस छापामारी में एसपी अरुण उरांव के साथ लातेहार
डीएसपी अमरजीत बलिहार, सीआरपीएफ के डीएसपी हीरा
कुमार झा, बालूमाथ पुलिस इंसपेक्टर एम.के. शाण्डी, बालूमाथ
थाना प्रभारी राम सागर तिवारी, चन्दवा थाना प्रभारी कामेश्वर
सिंह समेत सीआरपीएफ, जिला पुलिस बल तथा झारखंड पुलिस
बल के सशस्त्र जवान शामिल थे। </p>

<p>तकनीकी शिक्षा में गुणात्मक
सुधार की जरूरत : मरांडी</p>

<p>जमशेदपुर
: झारखंड में शैक्षणिक माहौल में सुधार करने के लिए सरकार प्रयासरत
है। प्राथमिक स्तर से तकनीकि शिक्षा के क्षेत्र में तरक्की
के लिए सरकार ने विशेष योजनाएं बनायी हैं। उन पर अमल
शुरू हो गया है और चार-पांच सालों में नतीजे भी मिलने
लगेंगे। यह कहा झारखंड के मुख्यमंत्री बाबूलाल मरांडी ने।
एक्सएलआरआई परिसर में गोल्डन जुबिली एकेडेमिक ब्लाक
का उद्घाटन करने के बाद आयोजित समारोह में बोलते हुए
उन्होंने झारखंड के पिछड़ेपन की तस्वीर पेश की है और कहा
कि ४५ फीसदी आबादी गरीबी रेखा के नीचे गुजर-बसर
करती है और साक्षरता की दर ५६ फीसदी है। ६५ फीसदी गांवों
तक सड़क नहीं पहुंच पाई है।
</p><p>
इन
बुनियादी सुविधाओं को दुरुस्त करने में थोड़ा वक्त तो
लगेगा ही। उन्होंेने कहा कि दस साल में झारखंड की तस्वीर ही
नहीं, तकदीर भी बदल जाएगी और देश में विकसित राज्य के
रूप में झारखंड की गिनती की जाएगी। उन्होंने कहा कि दुनिया
व देश के विकसित राज्यों के साथ कदम से कदम मिलाकर
चलने के लिए शिक्षा का प्रचार-प्रसार आवश्यक है और जरूरी है
कि शिक्षा को गांवों में रहने वाले गरीबों, दलितों, पिछड़ों
तक पहुंचाया जाए। यह तभी संभव है, जब शैक्षणिक संस्थान भी
इस काम में मदद करें। इस दिशा में बेहतर नतीजों की उम्मीद
की जा रही है। </p><p>
मुख्यमंत्री
श्री मरांडी ने कहा कि प्राथमिक स्तर से ही अंग्रेजी की
पढ़ाई, शिक्षकों व छात्रों की स्कूलों में उपस्थिति को
सुनिश्चित किया जा रहा है। इसी मकसद से शिक्षकों की नियुक्ति
गृह-प्रखंड में करने का फैसला किया गया और स्कूल आने
वाले छात्र को रोजाना एक रुपया देने का नियम बनाया गया है।
उन्होंने कहा कि प्रखंड स्तर पर हर साल पांच प्रतिभाओं का
चुनाव किया जाएगा और उन्हें दो सौ रुपये की छात्रवृत्ति दी
जाएगी। गांव से शहर की दूरी कम करने के लिए तकनीकी
शिक्षा में सुधार पर जोर दिया जा रहा है और स्वयंसेवी संस्थाओं
से मेडिकल व इंजीनियरिंग कालेज खोलने की पेशकश की
गई है और इसके बेहतर परिणाम मिल रहे हैं। </p><p>
ऐसे
संस्थानों को सरकार भरपूर मदद करेगी, पर शर्त यह है कि
गरीब छात्रों को भी प्रवेश मिले। उन्होंने जानकारी दी कि
बीआईटी में ३२० से बढ़ाकर छात्रों की संख्या ५०० कर दी
गई है और इनमें से २५० छात्र झारखंड के होंगे। </p><p>
एक्सएलआरआई
की तारीफ करते हुए उन्होंेने कहा कि इस संस्थान को
आदिवासियों व पिछड़े तबके के छात्रों को प्रशिक्षित करने
के लिए पहल करनी चाहिए। इस बारे में संस्थान के निदेशक
पी.डी. थामस ने भरोसा भी दिया है। इससे पहले टिस्को के
प्रबंध निदेशक बी. मुत्थुरमण ने कहा कि विकास की दौड़
में मुकाबला कराने के लिए शिक्षा जरूरी है। शिक्षा से आगे
बढ़ने व क्षमता बढ़ाने की योग्यता आती है। झारखंड को
सपनों का राज्य बनाने के लिए सिर्फ सरकार के भरोसे
नहीं रहा जा सकता। सबको मिल-जुलकर कोशिश करनी
होगी। स्वागत भाषण पी.डी. थामस ने किया व धन्यवाद
ज्ञापन प्रो. राव ने किया। </p><p>
एक
दिवसीय दौरे पर आए मुख्यमंत्री बाबूलाल मरांडी का भाजपा
कार्यकर्त्ताओं ने स्वागत किया। </p>

<p>हाईकोर्ट ने विद्युत
बोर्ड अध्यक्ष की नियुक्ति रद्द की </p><p>
६
सप्ताह में अध्यक्ष की नियुक्ति का आदेश</p>

<p>रांची
: झारखंड उच्च न्यायालय ने आज झारखंड राज्य विद्युत बोर्ड के
अध्यक्ष राजीव रंजन एवं सदस्य एस.एन. अखौरी की नियुक्ति
को रद्द कर दिया। </p><p>
मुख्य
न्यायाधीश विनोद कुमार गुप्ता एवं न्यायाधीश एम.वाइ. इकबाल
की खंडपीठ ने आज खचाखच भरी अदालत में यह
महत्वपूर्ण फैसला सुनाया। यह फैसला २९ पृष्ठों का है। विद्वान
न्यायाधीशों ने सरकार को आदेश दिया कि वह छह सप्ताह के
अंदर बोर्ड के नए अध्यक्ष एवं सदस्यों की नियुक्ति की
प्रक्रिया पूरी करें। विद्वान न्यायाधीशों ने सरकार को बोर्ड
के नए अध्यक्ष एवं सदस्यों की नियुक्ति के लिए एक उच्च स्तरीय
कमेटी गठित करने का आदेश दिया। यह कमेटी नए अध्यक्ष
एवं सदस्यों को नामों की अनुशंसा करेगी तथा इस पर सरकार
फैसला करेगी। न्यायालय ने यह भी कहा कि जब तक नए अध्यक्ष
एवं सदस्यों की नियुक्ति नहीं हो जाती तब तक वर्तमान
अध्यक्ष राजीव रंजन एवं सदस्य (तकनीक) एस.एन. अखौरी पद पर
बने रहेंगे परन्तु सरकार को हर हालत में छह सप्ताह के अंदर नए अध्यक्ष
एवं सदस्यों की नियुक्ति कर देनी है। उल्लेखनीय है कि
सरकार एच.बी. लाल को बोर्ड का अध्यक्ष बनाना चाहती थी।
इससे संबंधित संचिका मुख्यमंत्री के पास हस्ताक्षर के लिए
भेजी गयी थी परन्तु इसी बीच अरविंद कुमार राय ने उच्च न्यायालय
में एक जनहित याचिका दायर कर दी। याचिका में आग्रह किया
गया कि किसी स्वच्छ छवि वाले व्यक्ति को ही बोर्ड का
अध्यक्ष एवं सदस्य बनाया जाए। इस याचिका पर सुनवाई करते
हुए न्यायालय ने बोर्ड के अध्यक्ष एवं सदस्यों की नियुक्ति
से संबंधित संचिका एवं रिकार्ड न्यायालय में पेश करने
का निर्देश दिया। रिकार्ड एवं संचिका देखने के बाद न्यायालय
ने सरकार को स्वच्छ छवि वाले व्यक्ति को ही बोर्ड का अध्यक्ष
तथा सदस्य की नियुक्ति करने का आदेश दिया। न्यायालय के
इस आदेश के बाद सरकार ने राजीव रंजन को अध्यक्ष तथा एस.एन.
अखौरी को सदस्य (तकनीकी) नियुक्त कर दी। आज न्यायालय
ने कहा कि सरकार ने गलत ढंग से बोर्ड अध्यक्ष पद पर
राजीव रंजन की नियुक्ति कर दी। न्यायालय ने कहा कि
ऐसा लगता है कि राजीव रंजन एवं एस.एन. अखौरी की नियुक्ति
के लिए सरकार ने विचार-विमर्श नहीं किया। </p>

<p>'बिना ऊर्जा के उद्योग की
कल्पना नहीं की जा सकती'</p>

<p>जमशेदपुर
: झारखंड के मुख्यमंत्री बाबूलाल मरांडी ने कहा है कि ऊर्जा
के बिना उद्योग की कल्पना नहीं की जा सकती है तथा उद्योग
के बिना बेरोजगारी की समस्या का निदान संभव नहीं है। मुख्यमंत्री
शुक्रवार को आदित्यपुर स्थित विकास भवन के आयडा
प्रेक्षागृह में आदित्यपुर औद्योगिक क्षेत्र में डीवीसी के माध्यम
से विद्युत आपूर्ति के मामले में एक उच्चस्तरीय बैठक के
पश्चात पत्रकारों से बातचीत कर रहे थे। </p><p>
श्री
मरांडी ने बताया कि बैठक का उद्देश्य लघु व वृहद उद्योगों
की समस्या पर आमने-सामने बैठकर विचार करना था।
बैठक में समय पर बिजली न मिलने की शिकायत करते
हुए इस समस्या के निदान हेतु सुझाव भी दिए गए। एक प्रश्न के
उत्तर में मुख्यमंत्री ने कहा कि अगले दस वर्षों में झारखंड में
पांच हजार से लेकर सात हजार मेगावाट तक बिजली की आवश्यकता
होगी। साथ ही अभी राज्य के पचासी प्रतिशत गांवों में
बिजली भी पहुंचानी होगी। यह बिजली की उत्पादन क्षमता
बढ़ाने पर ही संभव है। इस संबंध में टाटा सहित निजी क्षेत्रों
को भी आमंत्रित किया गया है। साथ ही राज्य सरकार द्वारा
निजी कंपनियों को वितरण क्षेत्र में आगे बढ़ने पर सभी
सहूलियत प्रदान करने का भरोसा दिलाया गया है। मुख्यमंत्री ने
बताया कि राज्य के आधिकांश गांवों में आधारभूत संरचना
के अभाव के कारण बिजली नहीं पहुंच पायी है, इन गांवों
तक बिजली पहुंचाने के लिए राज्य सरकार द्वारा अगले दो
वर्ष में पावर ग्रिड तथा सब स्टेशन को पूरा कर लिया
जाएगा। साथ ही राज्य सरकार लोगों को सस्ती बिजली उपलब्ध
करवाने के लिए पहल करेगी। बैठक में उद्योग मंत्री पशुपति
नाथ सिंह, उद्योग सचिव, वित्त सचिव, ऊर्जा सचिव, डीवीसी
के चेयरमैन, झारखंड राज्य विद्युत बोर्ड के चेयरमैन राजीव
रंजन, एसिया, सिया, सीआईआई तथा लघु उद्योग भारती
के प्रतिनिधि उपस्थित थे। </p><p>
उद्योग
विरोधी कार्रवाई रोकने की मांग </p><p>
इससे
पूर्व झारखंड प्रांत लघु उद्योग भारती ने मुख्यमंत्री बाबूलाल
मरांडी से बिहार राज्य वित्तीय निगम द्वारा की जा रही उद्योग
विरोधी कार्रवाई को रोकने तथा रुग्ण लघु उद्योगों का
पुनर्वास करने की मांग की है। इस संबंध में लघु उद्योग
भारती के प्रांतीय महामंत्री काशीनाथ सिंह के नेतृत्व में
एक प्रतिनिधिमंडल ने शुक्रवार को आयडा परिसर में मुख्यमंत्री
से मुलाकात कर उन्हें त्वरित कार्रवाई हेतु एक पत्र सौंपा
है। </p><p>
पत्र
के अनुसार, झारखंड सरकार की औद्योगिक नीति में रुग्ण
उद्योगों के पुनर्वास के लिए रखा गया प्रावधान सराहनीय है।
लेकिन झारखंड सरकार की औद्योगिक नीति घोषित
होने के बाद बिहार राज्य वित्त निगम ने झारखंड के उद्योगों के
विरुद्ध मुहिम चलाना प्रारंभ कर दिया है, इसके तहत निगम के
प्रबंध निदेशक द्वारा अखबारों में विज्ञापन प्रकाशित करवाकर
पंद्रह दिनों के भीतर सभी बकाया राशि का भुगतान न किए
जाने की स्थिति में कारखानो की नीलामी एवं टेक ओवर
करने की धमकी दी गई है। पत्र के अनुसार, जो बकाया
राशि गत बीस वर्षों से लंबित हैं, उसका पंद्रह दिनों के
भीतर कैसे एकमुश्त भुगतान किया जा सकता है। इसके
बावजूद अगर निगम द्वारा ऐसा किया गया तो यहां के उद्योग
चरमराकर बैठ जाएंगे। वहीं झारखंड सरकार द्वारा औद्योगिक
नीति में रुग्ण उद्योगों के पुनर्वास हेतु व्यापक प्रावधान
को लागू करने में कुछ माह का ही समय लगेगा। </p>

<p>केन्द्र सरकार की विफलता के
विरूद्ध भाकपा का २५ से</p><p>
जेल भरो आन्दोलन</p>

<p>हजारीबाग
: मार्क्सवादी कम्युनिस्ट पार्टी की केन्द्रीय कमेटी के
निर्देश पर वाजपेयी सरकार की विफलता के खिलाफ गत ७
सितम्बर से चलाए जा रहे जनजागरण आभियान के तहत २५ से २७ सितम्बर
तक हजारीबाग जिले में अवस्थित केन्द्र सरकार के कार्यालयों
एवं प्रतिष्ठानों के समक्ष धरना देने का तथा जेल भरो आन्दोलन
चलाया जाएगा। उपर्युक्त जानकारी माकपा के नेता गणेश
कुमार सीटू ने आज जारी अपनी एक प्रेस विज्ञप्ति में देते हुए
बताया कि आन्दोलन को सफल और प्रभावी बनाने की पूरी
तैयारियां कर ली गयी है। </p><p>
विज्ञप्ति
के अनुसार जनजागरण आभियान के तहत इसके पूर्व
विभिन्न क्षेत्रों में जागरण जत्थे निकाले गए। धनबाद से
निकला जत्था गत १९ सितम्बर को राज्य कमेटी के सदस्य
एस.पी. तिवारी एवं रामचन्द्र ठाकुर के साथ हजारीबाग
पहुंचा। हजारीबाग जिला कमेटी के सदस्य ए.पी. सिंह एवं
के.वी. श्रीनिवासन के नेतृत्व में एक जत्थे ने रामगढ़, रांची
रोड, सिरका, गिद्दी, गिद्दी ए, सौंदा डी आदि कोयला क्षेत्रों का
भी भ्रमण किया तथा विभिन्न स्थलों पर जन सभाओं का आयोजन
किया। </p><p>
प्रत्येक
वर्ष एक करोड़ बेरोजगारों को रोजी मुहैया कराने की
केन्द्र सरकार की वादाखिलाफी पर भी तीव्र क्षोभ व्यक्त किया।
माकपा द्वारा हजारीबाग स्थित आयकर कार्यालय का भी २६
सितम्बर को चक्का जाम करने का निर्णय लिया गया है।</p>

<p>संक्षिप्त</p>

<p>रेलवे कालोनी में गोली चली,
युवक घायल</p>

<p>डालटनगंज
: डालटनगंज रेलवे कालोनी में शुक्रवार अपराह्न करीब २ बजे
एक युवक ने संजय राम को गोली मारकर घायल कर दिया। </p><p>
प्राप्त
जानकारी के अनुसार रेलकर्मी चन्द्रिका राम का पुत्र संजय राम
के साथ राजेश का किसी बात को लेकर झगड़ा हुआ। इस क्रम
में राजेश ने कहा कि तुम्हें अभी बता देते हैं। उसने गुस्से
में.३१५ का रिवाल्वर निकाल कर संजय के ऊपर गोली चला दी।
गोली संजय के दाहिने पीठ को छेदते हुए बाहर निकल गयी।
कालोनी निवासियों ने जब गोली की आवाज सुनी तो वे
बाहर निकले तथा संजय को इलाज हेतु डालटनगंज सदर अस्पताल
में भर्ती किया गया। </p><p>
डाक्टरों
ने उसकी गंभीर स्थिति को देखते हुए बेहतर ईलाज हेतु
आर.एम.सी.एच. रांची रैफर कर दिया है। संजय के पिता ने
रेलवे थाना में राजेश के खिलाफ प्राथमिकी दर्ज करायी
है। लोगों के अनुसार प्रेम प्रसंग के कारण यह घटना हुई है।
हमलावर भी रेल आधिकारी का पुत्र है।
</p>

<p>भाभी को बचाने में ननद भी
डूबी</p>

<p>गढ़वा
: गढ़वा नगरपालिका के सीमा पर अवस्थित जोबरईया गांव
के एक अहरा में डूब जाने के कारण सोना देवी (५०) एवं उसकी
ननद सायरा (४०) की मृत्यु शुक्रवार को हो गयी। </p><p>
बताया
जाता है कि औरंगाबाद (बिहार) के पशु व्यापारियों के साथ
दोनों महिलाएं गढ़वा आई थी। जहां भैसों को खिलाने के
लिए घास काटने जोबरईया गांव गई थीं। सोना देवी
फिसल कर आहर में गिर पड़ी, उसको बचाने के लिए शायरा
भी आहर में कूद गई। गांव वाले दोनों को अनुमंडल
अस्पताल ले आए, जहां चिकित्सकों ने दोनों को मृत
घोषित कर दिया। </p>

<p>सरायकेला एवं चांडिल में
आतिक्रमण मुक्ति आभियान के तहत कई मकान, दुकान
तोड़े गये</p>

<p>चाण्डिल
: सरायकेला-खरसावां जिले में चलाये जा रहे आतिक्रमण हटाओ
आभियान के तहत जिला मुख्यालय सरायकेला सदर एवं चाण्डिल
के कपाली पंचायत में आधिकारियों ने आतिक्रमण हटाओ
आभियान के तहत कई स्थानों पर सरकारी जमीन को
आतिक्रमणकारियों से मुक्त कराया।
</p><p>
प्राप्त
जानकारी के अनुसार सरायकेला सदर में पोस्टआफिस, संजय
चौक, अस्पताल व पुराना बस स्टैण्ड के नजदीक सरकारी जमीन
पर अनधिकृत रूप से बनाये गये दुकानों व मकानों को न्यायालय
के आदेशानुसार दण्डाधिकारी की मौजूदगी में तोड़ा गया।
आतिक्रमण हटाओ आभियान का नेतृत्व प्रखंड विकास
पदाधिकारी, सरायकेला कमलेश्वर प्रसाद सिंह कर रहे थे। सदर
थाना प्रभारी सतानन्द सिंह, श्रम एवं प्रवर्तन पदाधिकारी
रामेश्वर उरांव तथा पशु चिकित्सा पदाधिकारी रामेश्वर शर्मा
सहित कई अन्य पदाधिकारी भी मौके पर मौजूद थे।
चाण्डिल में सरायकेला के भूमि सुधार उप समाहर्ता
रामसूचित शर्मा तथा चांडिल के प्रखंड विकास पदाधिकारी
सह अंचलाधिकारी शाहिद अख्तर के संयुक्त नेतृत्व में चलाये
गये आतिक्रमण मुक्ति आभियान के तहत कमाली में सरकारी
जमीन पर अनधिकृत रूप से कब्जा कर बनाये गये चार मकानों
को तोड़कर आतिक्रमण मुक्त कराया गया। इसी क्रम में
फदलोगोड़ा में भी सरकारी जमीन पर बनाये गये एक ढाबे
को ढाहकर आतिक्रमण मुक्त कराया गया। आतिक्रमण मुक्त
आभियान में हल्का बल प्रयोग किया गया।</p>

<p>डाकू को संत मान लेना</p>

<p>अमेरिकी
राष्ट्रपति जार्ज बुश का पाकिस्तान के राष्ट्रपति जनरल
परवेज मुशर्रफ को दिया गया आचरण प्रमाण पत्र एक डाकू
को संत बना देने जैसा लगता है। लोकतंत्र को बंदूकों के
बल लूटने वाले को आज अमेरिका अपना स्वार्थ साधने के
लिए लोकतंत्र का सबसे बड़ा प्रहरी मानने लगा है, इस पर शायद
पूरी दुनिया हैरान हो रही होगी। भारत के लिए भी यह
चौंकाने वाली घटना है। आतंकवादी सांपों को दूध पिलाने
वाले सैनिक तानाशाह आज रातोंरात अमेरिकी नजर में
संवेदनशील सामाजिक प्राणी बन गये हैं। राष्ट्रपति बुश मानते
हैं कि पाकिस्तान को एक मौका दिया गया और उसने साबित
कर दिया कि उसके बारे में जो कुछ कहा जा रहा है, सही नहीं
है। जनरल मुशर्रफ ने साहस भरा कदम उठाया है, जिसे देख
जार्ज बुश गदगद हैं। चूंकि उनका हित साधन हो रहा है,
इसलिए यहां तक उनका सोचना और बोलना तो ठीक है। पर
जब वह आगे कहते हैं कि भारत और पाकिस्तान के लिए यही
सही मौका है जब आतंकवाद से मुक्ति पा लें तो उनकी इस
टिप्पणी पर हैरानी होती है। अमेरिकी विदेशी उपमंत्री
ािश्टिना रोक्का की उस टिप्पणी पर राष्ट्रपति बुश को गौर
करना चाहिए जब उन्होंने पिछले माह के प्रारंभ में पाकिस्तान में
लोकतंत्र बहाल हुए बगैर उस पर लगा प्रतिबंध उठा लेने से
मना कर दिया था। उन्होंने कश्मीर और अफगानिस्तान में
आतंकवादी संगठनों को पाकिस्तान से मिलने वाली मदद
पर भी चिंता व्यक्त की थी। आज अचानक पाकिस्तान के
अपराध की पृष्ठभूमि बदल गयी है और उसकी मदद के एवज में
उसे बहुत कुछ देने की बात की जा रही है। इस घटना से भारत
को सावधान हो जाने की जरूरत है। आस्तीन में आतंकी सांप
पालने वाले लोग आज अमेरिका के हमसफर हो गये हैं। जाहिर
है, अमेरिका से आतंकवाद मिटाने के लिए संघर्ष करने
की उम्मीद नहीं की जा सकती। वह ऐन केन प्रकारेण अपनी
खोयी प्रतिष्ठा बचाने के लिए पाकिस्तान पर मेहरवान होकर
ओसामा बिन लादेन को पकड़ने के लिए उससे मदद लेना
चाहता है। भारत अगर सोचता है कि आतंकवाद के विरुद्ध लड़ने
में अमेरिका गम्भीर है और उसके सहयोग से बहुत कुछ सम्भव
हो सकता है तो इससे बड़ी गलती कुछ हो ही नहीं सकती।
लगता है, पाकिस्तानी और अफगानी आतंकवाद से कश्मीर में
भारत को अकेले लड़ना पड़ेगा। आने वाला कल निस्संदेह भारत
के लिए चुनौतीपूर्ण होगा क्योंकि तब पाकिस्तान
अमेरिका से डर भी नहीं रहा होगा और नहीं आर्थिक तंगी और
अमेरिकी ऋण का दहशत झेल रहा होगा।</p>






</body></text></cesDoc>