<cesDoc id="tam-w-dinakaran-sports-03-05-27" lang="tam">
<cesHeader type="text">
<fileDesc>
<titleStmt>
<h.title>tam-w-dinakaran-sports-03-05-27.txt</h.title>
<respStmt>
<respType>Electronic file created by</respType>
<respName>Department of Linguistics, Lancaster University</respName>
<respType>text collected by</respType>
<respName>Paul Baker and Celia Worth</respName>
<respType>transferred into Unicode by</respType>
<respName>"Unicodify" software by Andrew Hardie</respName>
</respStmt>
</titleStmt>
<publicationStmt>
<distributor>UCREL</distributor>
<pubAddress>Department of Linguistics, Lancaster University, Lancaster, LA1 4YT, UK</pubAddress>
<availability region="WORLD"></availability>
<pubDate>03-08-24</pubDate>
</publicationStmt>
<sourceDesc>
<biblStruct>
<monogr>
<h.title>"Dinakaran" internet news (www.dinakaran.com), news stories collected on 03-05-27</h.title>
<h.author>Dinakaran</h.author>
<imprint>
<pubPlace>Tamil Nadu, India</pubPlace>
<publisher>Dinakaran</publisher>
<pubDate>03-05-27</pubDate>
</imprint>
</monogr>
</biblStruct>
</sourceDesc>
</fileDesc>
<encodingDesc>
<projectDesc>Text collected for use in the EMILLE project.</projectDesc>
<samplingDesc>Simple written text only has been transcribed. Diagrams, pictures and tables have been omitted and their place marked with a gap element.
</samplingDesc>
<editorialDecl>
<conformance level="1"></conformance>
</editorialDecl>
</encodingDesc>
<profileDesc>
<creation>
<date>03-08-24</date>
</creation>
<langUsage>Tamil</langUsage>
<wsdUsage>
<writingSystem id="ISO/IEC 10646">Universal Multiple-Octet Coded Character Set (UCS).</writingSystem>
</wsdUsage>
<textClass>
<channel mode="w">print</channel>
<constitution type="composite"></constitution>
<domain type="public"></domain>
<factuality type="fact"></factuality>
</textClass>
<translations></translations>
</profileDesc>
<revisionDesc></revisionDesc>
</cesHeader>

<text>
<body>




<p>மனவளர்ச்சி குன்றியோர்
சிறப்பு ஒலிம்பிக்: அரசின் உதவிக்காக ஏங்கும் தமிழகஅணி </p>

<p>
 
 
  
  
  
  
  
  
  
  
  
  
  
  
 
 
 

 
<gap desc="illustration"></gap></p>

<p>இந்திய அணியில்
இடம்பெற்றுள்ள தமிழக அணியினருக்கு தமிழ்நாடு விளையாட்டு மேம்பாட்டு ஆணையத்துணைத் தலைவர்
தேவாரம் விளையாட்டு சாதனங்கள் வழங்கிய காட்சி. </p>

<p> </p>

<p>சென்னை, மே 27- மனவளர்ச்சி குன்றியோர்களுக்கான சிறப்பு
ஒலிம்பிக் பந்தயம் அடுத்தமாதம் 21-ந் தேதி முதல் 29-ந்தேதி வரை அயர்லாந்தில் உள்ள
டுப்ளின் நகரில் நடக்க இருக்கிறது. உலகின் பல்வேறு நாடுகள் பங்கேற்கும் இந்தப்போட்டியில்
இந்தியாவில் இருந்து மொத் தம் 83 பேர் கலந்து கொள்கிறார்கள். இதற்காக தேர்வு
செய்யப்பட்டுள்ள இந்திய அணியில் தமிழகத்தை சேர்ந்த 15 பேர் இடம்
பெற்றிருக்கிறார்கள். </p><p>
</p><p>
தடகளம், நீச்சல், கைப்பந்து, கால்பந்து, ஹேன்ட் பால், ரோலர் ஸ்கேட்டிங் உள் பட
மொத்தம் 11 விளையாட்டுகளில் இந்திய அணி பங்கேற்க காத்திருக்கிறது. போட்டியில் கலந்து
கொள்ளும் இந்திய அணிக்கு 3 கட்ட பயிற்சி முகாம் நடந்து முடிந்துள்ளது. முதல் பயிற்சி முகாம்
சென்னையில் நடந்தது. </p><p>
</p><p>
மனவளர்ச்சி குன்றியோர் சிறப்பு ஒலிம்பிக் (இந்தியா) அமைப்பின் தேசிய இயக்குனர்
நாகராஜன் இதுபற்றி கூறுகையில், மனவளர்ச்சி குறையுடன் பிறக்கும் குழந்தைகளை 3 வகையினராக
பிரிக்கலாம். சிலருக்கு கல்வி கற்பித்துக் கொடுக்கலாம். சிலருக்கு செய் முறை தொழில்
கற்றுக் கொடுக்கலாம். ஆனால் இன்னொரு வகையினருக்கு நாம் எதையும் சொல்லிக்கொடுக்க
முடியாது. அவர்களை யாராவது பாதுகாத்துக் கொள்ளத் தான்வேண்டும். என்றார். </p><p>
</p><p>
இந்தப்போட்டியில் கலந்து கொள்வோருக்கு போக்குவரத்து செலவாக தலா ரூ.1 லட்சம் ஆகிறது.
இதில் இந்திய சிறப்பு ஒலிம்பிக் அமைப்பு ரூ.65 ஆயிரம் வரை செலவு செய்கிறது.
மீதிப்பணத்தை சம்பந்தப்பட்ட வீரர்கள் கொடுக்க வேண்டிய சூழ்நிலை ஏற்பட்டுள்ளது.
தமிழகத்தை சேர்ந்த சில வீரர்களால் இந்தப்பணத்தை கொடுக்க முடியாத சிக்கல் எழுந்துள்ளது.
இது போன்ற சிறப்பு ஒலிம்பிக் போட்டியில் கலந்து கொள் வோருக்கு தமிழக அரசு நிதி உதவி
எதுவும் இதுவரை அறி விக்க வில்லை. நல்லநிலை யில;
,Uf;Fk; tPuh;-tPuh';fidSf;nf ,e;j muR epjpia thhp tH';FfpwJ. thH;f;ifapy;
Xu';fl;lg;gl;l ,Jnghd;w mikg;gpdUf;Fk; jkpHf muR ifbfhLj;jhy; mijtpl bghpa
re;njh#k; ntW vJt[k; ,Uf;f KoahJ. nghl;oapy; g';nfw;f MtYld; fhj;jpUf;Fk;
kdtsh;r;rp Fd;wpa ,is"h; xUthplk; btw;wp tha;g;g[ Fwpj;J nfl;lnghJ/ j';fk;
vy;yhk; ekf;Fj;jhd; vd;whh; rphpj;Jf;bfhz:nl thH;f;ifapd; epiwa gf;f';fis gw;wp
bjhpahky; thH;e;J bfhz:oUf;Fk; me;j tPuiu epidj;jJk; nyrhf fz:zPh;
vl;og;ghh;j;jJ ,iwtdpd; cd;dj gilg;gpy;jhd; vj;jid ghugl;rk; </p>

<p> </p>

<p> </p>

<p>ஆஸி. சாதனைக்கு மே.இ.தீவு
முற்றுப்புள்ளி </p>

<p> </p>

<p>
 
<gap desc="illustration"></gap></p>

<p>லாரா </p>

<p> </p>

<p>21 ஒருநாள் போட்டிகளில் வெற்றிபெற்று சாதனை படைத்த
ஆஸ்திரேலியாவின் சாதனைக்கு மேற்கு இந்தியதீவு முற்றுப் புள்ளி வைத்தது. </p><p>
</p><p>
ரிக்கிபாண்டிங் தலைமையிலான ஆஸ்திரேலிய கிரிக்கெட் அணி மேற்கு இந்தியதீவுடன் ஒருநாள்
போட்டிகளில் மோதி வருகிறது. 7 போட்டிகள் கொண்ட தொடரை ஆஸ்திரேலியா ஏற்கனவே 4-0
என்ற புள்ளியில் கைப்பற்றியது. அடுத்தடுத்து 21 ஒருநாள் போட்டிகளில் வெற்றிபெற்று சாதனை
படைத்த ஆஸ்திரேலியாவின் சாதனைக்கு மேற்கு இந்தியதீவு முற்றுப் புள்ளி வைத்தது. இந்த இரு
அணிகளும் 5-வது போட்டியில் மோதியது. முதலில் பேட்டிங் செய்த மேற்கு இந்தியதீவு
நிர்ணயிக்கப்பட்ட 50 ஓவரில் 5 விக்கெட் இழந்து 290 ரன் குவித்தது. காப்டன் லாரா
அதிகபட்சமாக 80 ரன்கள் எடுத்தார். ஹிண்ட்ஸ் 79 ரன்கள் பெற்றார். இந்த இரு வீரர்களும்
முதல் விக்கெட்டுக்கு ஜோடி சேர்ந்து 178 ரன்கள் குவித்தனர். எந்த இலக்கையும் எளிதாக
எட்டும் ஆஸ்திரேலியாவுக்கு இந்தப்போட்டியில் சோதனைதான் மிஞ்சியது. மேற்கு
இந்தியதீவு அணியின் வேகப்பந்து வீச்சாளர்கள் காலிமோர் மற்றும் தில்லான் ஆகியோர்
தொடக்கத்திலேயே சோதனை கொடுத்தனர். இதனால் ஆஸ்திரேலியா நிர்ணயிக் கப்பட்ட ஓவரில்
9 விக்கெட் இழந்து 251 ரன் மட்டுமே பெற்றது. மேற்கு இந்திய தீவு 39 ரன்
வித்தியாசத்தில் வெற்றிவாகை சூடியது. ஆஸ்திரேலிய அணியில் சைமோண்ட்ஸ் அதிகபட்சமாக 77
ரன்கள் எடுத்தார். தில்லான் 3 விக்கெட்டுகள் கைப்பற்றினார். காலிமோர் மற்றும்
சாமுவேல்ஸ் தலா 2 விக்கெட்டுகள் சாய்த்தனர். </p>

<p> </p>

<p> </p>

<p>பிரெஞ்சுஓபன்: செரீனா
வெற்றி </p>

<p>
 
<gap desc="illustration"></gap></p>

<p>செரீனா </p>

<p> </p>

<p>பிரெஞ்சுஓபன் போட்டியில் நம்பர்ஒன் வீராங்கனை செரீனா
வில்லியம்ஸ் எளிதாக வெற்றிபெற்றார். </p><p>
</p><p>
ஆண்டின் 2-வது கிராண்ட்சிலாம் பட்டத்துக்கான டென்னிஸ் பந்தயம் பாரீஸ் நகரில் நடந்து
வருகிறது. இந்தப்போட்டிக்கான முதல் சுற்றில் நம்பர்ஒன் வீராங்கனை செரீனா வில்லியம்ஸ்
எளிதாக வெற்றிபெற்றார். ஜெர்மனி வீராங்கனை பார்பரா ரிட்னரை எதிர்த்து மோதிய செரீனா
6-2 6-1 என்ற புள்ளியில் வெற்றிபெற்றார். நடப்பு சாம்பியனான செரீனா
இந்தப்போட்டியில் தனது 5-வது கிராண்ட் சிலாம் பட்டத்தை கைப்பற்றும் கனவுடன்
காத்திருக்கிறார். கடந்த ஆண்டு நடந்த 4 போட்டிகளிலும் செரீனா வெற்றிபெற்றதை அடுத்து டென்னிஸ்
உலகில் சாதனை படைத்தார். தற்போது 5-வது பட்டத்தை கைப்பற்றி ஸ்டெபி கிராப் சாதனையை
சமன் செய்ய செரீனா காத் திருக்கிறார். ஜூனியர் பிரிவில் கலந்துகொள்ள சென்னை வீரர்
சோம்தேவ் வர்மனுக்கு அனுமதி வழங்கப்பட்டுள்ளது. பெண்கள் பிரிவில் சானியா மிர்சா முக்கிய
சுற்றில் ஆட
fhj;jpUf;fpwhh;. ,e;jpahtpy; ,Ue;J fud;u!;jhfp kw;Wk; rhdh gk;hp
Mfpnahh;fSf;Fk; tha;g;g[ bfhLf;fg;gl;Ls;sJ. </p>

<p> </p>

<p> </p>

<p>சர்வதேச கார் ரேஸ்:
சென்னை வீரர் கரூண் வெற்றி </p>

<p>
 
<gap desc="illustration"></gap></p>

<p>பார்முலா-3 கார்ரேசில்
வெற்றிபெற்ற சென்னை வீரர் கரூண்சந் தூக் (நடுவில்) கோப்பையுடன் இருப்பதை காணலாம். </p>

<p> </p>

<p>சென்னை, மே 27- சர்வதேச கார் ரேஸ் போட்டியில் சென்னை வீரர்
போட்டியின் தொடக்கத்திலேயே முன்னணி பெற்ற கரூண் இந்த ரேசில் முதலிடத்தை எட்டினார். </p><p>
</p><p>
சர்வதேச வீரர்கள் கலந்து கொண்டுள்ள பார்முலா-3 கார் ரேஸ் இங்கிலாந்தில் நடந்து
வருகிறது. இந்தப்போட்டியில் சென்னையை சேர்ந்த கரூண்சந்தூக் கலந்து கொண்டுள்ளார். கடந்த
சில ஆண்டுகளாக சர்வதேச போட்டிகளில் பங்கேற்று சாதனைகள் செய்து வரும் கரூண் நேற்று நடந்த
ரேசிலும் ஆதிக்கம் செய்தார். போட்டியின் தொடக்கத்திலேயே முன்னணி பெற்ற கரூண் இந்த
ரேசில் முதலிடத்தை எட்டினார். பந்தய தூரத்தை 26 நிமிடம், 54.62 விநாடியில் கரூண்
சந்தூக் கடந்தார். இவருக்கு அடுத்தபடியாக வந்த ஸ்டீவ்கீன் 6.43 விநாடிகள் தாமதமாக பந்தய
தூரத்தை கடந்தார். இந்த ரேசில் ஸ்டீவ்கீன் அதிகப்புள்ளிகளுடன் முன்னணி
பெற்றிருக்கிறார். இன்னும் ஒரு ரேசில் வெற்றிபெற்றால் கரூண் மீண்டும் முதலிடத்தை எட்டிப்
பிடிக்க முடியும் என்ற நிலை ஏற்பட்டுள்ளது. </p>

<p> </p>

<p> </p>

<p>அகில இந்திய கூடைப்பந்து
போட்டி: கோவை அணி வெற்றி</p>

<p> </p>

<p>கோவை, மே 27- கோவையில் நேற்று தொடங்கிய அகில இந்திய
கூடைப்பந்து போட்டியில் கோவை அணி வெற்றி பெற்றது. </p><p>
</p><p>
கூடைப்பந்து போட்டி </p><p>
</p><p>
கோவை மாவட்ட கூடைப்பந்து கழகம் சார்பில் நாச்சி முத்து கவுண்டர் கோப்பைக் கான 45-வது
அகில இந்திய ஆண்கள் கூடைப்பந்து போட்டி மற்றும் சி.ஆர்.ஐ. பம்பு கோப்பைக்கான 2-வது
மகளிர் அகில இந்திய கூடைப்பந்து போட்டி கோவை வ.உ.சி. பூங்கா மாநகராட்சி விளையாட்டு திடலில்
நேற்று (திங்கள்) மாலை தொடங்கியது. </p><p>
</p><p>
கோவை அணி வெற்றி </p><p>
</p><p>
முதலில், எஸ்.பி.ஏ.டி. (கோவை) அணியும், ஏ.ஓ.சி. மையம் (செக்கந்தராபாத்) அணியும்
மோதின. இதில், 57-க்கு 86 என்ற புள்ளி கணக்கில் ஏ.ஓ.சி. அணி வெற்றி பெற்றது. 2-வது
நடந்த போட்டியில் கோவை பி.எஸ்.ஜி. அணியும், ஆர்.சி.எப். (கபூர்தலா) அணியும்
மோதின. இதில், 83-க்கு 70 என்ற புள்ளி கணக்கில் கோவை அணி வெற்றி பெற்றது. 3-வது
நடந்த போட்டியில், சிஸ்கோ (ஜாம் ஷெட்பூர்) அணியும், ஓ.எம்.சி.ஏ. (கோவை) அணியும்
மோதின. இதில், 80-க்கு 33 என்ற புள்ளி கணக்கில் சிஸ்கோ அணி வெற்றி பெற்றது. 4-வதாக
நடந்த போட்டியில் கஸ்டம்ஸ் (கொச்சின்) அணியும், ஆர்டிலரி சென்டர் (ஐதராபாத்)
அணியும் மோதின. இதில், 80-க்கு 55 என்ற புள்ளி கணக்கில் கஸ்டம்ஸ் அணி வெற்றி
பெற்றது. </p><p>
</p><p>
தொடர்ந்து போட்டிகள் நடந்து வருகின்றன. வருகிற 31-ந் தேதி மாலை பரிசளிப்பு விழா
நடக்கிறது. </p>

<p> </p>

<p> </p>

<p>மாநில செஸ்: அரவிந்த்
அபாரம் </p>

<p> </p>

<p>சென்னை,
27- 25 வயதிற்குட்பட்டோர்களுக்கான செஸ் பந்தயத்தில் அரவிந்த் அபார வெற்றி பெற்றார்.
</p><p>
</p><p>
25 வயதிற்குட்பட்டோர்களுக்கான செஸ் பந்தயம் சென்னை ஜவகர் வித்யாலயா பள்ளியில் நடந்து
வருகிறது. இதற்கான 4-வது சுற்றில் வீரர் அரவிந்த் அபார வெற்றிபெற்றார். முன்னணி
ஆட்டக்காரர் ராம் கிருஷ்ணனுக்கு எதிராக களம் இறங்கிய அரவிந்த் சிறப்பாக ஆடி வெற்றிவாகை
சூடினார். இதனால் 4 சுற்றுகள் முடிவில் அரவிந்த் 4 புள்ளிகளுடன் முதலிடத்தை தக்க
வைத்துள்ளார். இந்தப்போட்டியில் இன்னும் 7 சுற்றுகள் மிஞ்சி இருக்கின்றன. பூபாலன்,
வினோத்குமார், சையதுஅன்வர், நரசிம்மன் ஆகியோர் அடுத்த இடத்தில் இருக்கிறார்கள்.
பெண்கள் பிரிவில் 4 வீராங்கனைகள் முதலிடத்தை பகிர்ந்து கொண் டுள்ளனர். முந்தைய நாள்
வரை பிரதீபா மற்றும் நபீலா ஆகியோர் தலா 3 புள்ளிகளுடன் முதலிடத்தில் இருந்தனர்.
இவர்களுக்கு இடையே நடந்த நேற்றைய ஆட்டம் டிராவில் முடிந்தது. ஆனால் நிலவொளி மற்றும்
சங்கீதா ஆகியோர் நேற்றைய ஆட்டத்தில் வெற்றி பெற்றதை அடுத்து இவர்களும் முதலிடத்துக்கு
முன்னேறினர். </p>

<p> </p>

<p>சீனியர் ஹாக்கி:
இந்தியன்வங்கி வெற்றி </p>

<p> </p>

<p>சென்னை, மே 27- சீனியர் டிவிசன் ஹாக்கிப்போட்டியில் இந்தியன்
வங்கி 4-1 என்ற கோல் கணக்கில் ஜார்ஜ் பள்ளியை தோற்கடித்தது. </p><p>
</p><p>
சீனியர் டிவிசன் ஹாக்கிப்போட்டி சென்னை எழும்பூர் மேயர் ராதாகிருஷ்ணன் மைதானத்தில்
நடந்து வருகிறது. நேற்றைய ஆட்டத்தில் இந்தியன் வங்கி 4-1 என்ற கோல் கணக்கில் ஜார்ஜ்
பள்ளியை தோற்கடித்தது. நிவாசன் மற்றும் முகமது உசைன் ஆகியோர் தலா 2 கோல் போட்டனர்.
பின்னர் நடந்த மற்றொரு போட்டியில் ஸ்டேட்வங்கி 2-1 என்ற கோல் வித்தியாசத்தில்
இந்திய உணவுக்கழக அணியை தோற்கடித்தது. செட்ரிக் 2 கோல் அடித்தார். </p>

<p> </p>

<p> </p>

<p>குடிசை பகுதியினருக்கு
கால்பந்து பயிற்சி </p>

<p> </p>

<p>சென்னை, மே 27- குடிசைப்பகுதியில் வாழ்வோருக்கு கடந்த சில
நாட்களாக சென்னையில் கால்பந்து பயிற்சி அளிக்கப்பட்டு வருகிறது. </p><p>
</p><p>
குடிசைப்பகுதியில் வாழ்வோருக்கு கடந்த சில நாட்களாக சென்னையில் கால் பந்து பயிற்சி
அளிக்கப்பட்டு வருகிறது. வேல்டுவிசன் அமைப்பு சார்பில் இந்த பயிற் சிகள்
கொடுக்கப்பட்டன. ஸ்டேட்வங்கியின் முன்னாள் வீரர் ஷாமிஅகமது வீரர் களுக்கு பயிற்சிகள்
வழங்கினார். இதற்கான நிறைவு விழா சென்னை வேப்பேரி மருத்துவக்கல்லூரி மைதானத்தில்
நடக்க உள்ளது. தமிழ்நாடு கால்பந்து சங்க பொருளாளர் டேவிட் சிறப்புவிருந்தினராக
கலந்துகொள்கிறார். </p>

<p> </p>

<p> </p>

<p>மாவட்ட செஸ் </p>

<p> </p>

<p>சென்னை, மே 27- சென்னை மாவட்ட செஸ் பந்தயம் அடுத்தமாதம் 7
மற்றும் 8 ஆகிய 2 நாட்கள் கே.கே.நகர் வேளாங்கண்ணி மேனிலைப் பள்ளியில் நடக்க உள்ளது. </p><p>
</p><p>
சென்னை மாவட்ட செஸ் பந்தயம் அடுத்தமாதம் 7 மற்றும் 8 ஆகிய 2 நாட்கள் கே.கே.நகர்
வேளாங்கண்ணி மேனிலைப் பள்ளியில் நடக்க உள்ளது. 19 வயதிற்குட்பட்ட சென்னை மாவட்ட
சேர்ந்த வீரர்-வீராங்கனைகள் மட்டும் இந்தப் போட்டியில் கலந்துகொள்ள முடியும்.
இந்தப்போட்டியில் முதல் 5 இடங்களை எட்டு வோர் மாநில சாம்பியன் பந்தயத்துக்கு தேர்வு
செய்யப்பட உள்ளனர். மேலும் விவரங்களுக்கு, சென்னை மாவட்ட செஸ் சங்கத்தை
தொடர்புகொள்ள வேண்டும். </p>

<p> </p>






</body></text></cesDoc>