<cesDoc id="tam-w-dinakaran-sports-01-03-30" lang="tam">
<cesHeader type="text">
<fileDesc>
<titleStmt>
<h.title>tam-w-dinakaran-sports-01-03-30.txt</h.title>
<respStmt>
<respType>Electronic file created by</respType>
<respName>Department of Linguistics, Lancaster University</respName>
<respType>text collected by</respType>
<respName>Paul Baker and Celia Worth</respName>
<respType>transferred into Unicode by</respType>
<respName>"Unicodify" software by Andrew Hardie</respName>
</respStmt>
</titleStmt>
<publicationStmt>
<distributor>UCREL</distributor>
<pubAddress>Department of Linguistics, Lancaster University, Lancaster, LA1 4YT, UK</pubAddress>
<availability region="WORLD"></availability>
<pubDate>03-08-24</pubDate>
</publicationStmt>
<sourceDesc>
<biblStruct>
<monogr>
<h.title>"Dinakaran" internet news (www.dinakaran.com), news stories collected on 01-03-30</h.title>
<h.author>Dinakaran</h.author>
<imprint>
<pubPlace>Tamil Nadu, India</pubPlace>
<publisher>Dinakaran</publisher>
<pubDate>01-03-30</pubDate>
</imprint>
</monogr>
</biblStruct>
</sourceDesc>
</fileDesc>
<encodingDesc>
<projectDesc>Text collected for use in the EMILLE project.</projectDesc>
<samplingDesc>Simple written text only has been transcribed. Diagrams, pictures and tables have been omitted and their place marked with a gap element.
</samplingDesc>
<editorialDecl>
<conformance level="1"></conformance>
</editorialDecl>
</encodingDesc>
<profileDesc>
<creation>
<date>03-08-24</date>
</creation>
<langUsage>Tamil</langUsage>
<wsdUsage>
<writingSystem id="ISO/IEC 10646">Universal Multiple-Octet Coded Character Set (UCS).</writingSystem>
</wsdUsage>
<textClass>
<channel mode="w">print</channel>
<constitution type="composite"></constitution>
<domain type="public"></domain>
<factuality type="fact"></factuality>
</textClass>
<translations></translations>
</profileDesc>
<revisionDesc></revisionDesc>
</cesHeader>

<text>
<body>




<p>10 ஆயிரம் ரன் சாதனைக்கு
காத்திருக்கும் டெண்டுல்கர்</p>

<p> </p>

<p>
 
 
  
  
  
  
  
  
  
  
  
  
  
  
 
 
 

 
<gap desc="illustration"></gap></p>




 
  
  <p>சச்சின் டெண்டுல்கர் </p>
  
 




<p>சென்னை, மார்ச் 30- இந்திய கிரிக்கெட் அணியின் நம்பிக்கை
நாயகன் சச்சின் டெண்டுல்கர் ஒருநாள் கிரிக்கெட் போட்டியில் 10 ஆயிரம் ரன் கடக்கும்
சாதனைக்கு காத்திருக்கிறார். இதுவரை 265 ஒருநாள் போட்டிகளில் ஆடியுள்ள டெண்டுல்கர் 9
ஆயிரத்து 966 ரன்கள் எடுத்துள்ளார். 10 ஆயிரம் ரன் சாதனை எட்டிப்பிடிக்க இன்னும் 34
ரன்கள் தேவை என்ற நிலையில் இந்தூரில் நாளை நடக்கும் ஆட்டத்தில் டெண்டுல்கர் களம்
இறங்க உள்ளார். ஒருநாள் கிரிக்கெட் போட்டியில் இந்த சாதனையை இன்னும் எந்த வீரரும்
எட்டியது கிடையாது. டெஸ்ட் கிரிக்கெட் போட்டியில் 10 ஆயிரம் ரன் கடந்து சாதனை
படைத்ததும் இந்தியவீரர் (கவாஸ்கர்) என்பது குறிப்பிடத்தக்கது. ஆனால் டெஸ்ட் கிரிக்கெட்டில்
அதிக ரன்குவிப்பு சாதனையை ஆஸ்தி ரேலிய வீரர் பார்டர் தக்க வைத்துள்ளார். ஏற்கனவே
ஒருநாள் போட்டியில் அதிக சதங்கள் (27 சதம்) எடுத்து டெண்டுல்கர் உலக சாதனை படைத்துள்ளது
நினைவு கூறத்தக்கது. </p>

<p> </p>

<p>பந்து பட்டதில் முகம்
வீங்கியது: காயத்தால் திராவிட்டும் விலகல்?</p>

<p> </p>

<p>இந்தூர், மார்ச் 30- பந்து பட்டதால் முகம் வீங்கி திராவிட்
அவதிப்பட்டு வரு கிறார். இதனால் இனிவரும் போட்டிகளில் அவர் பங்கேற் பது சந்தேகத்தை
கிளப்பி உள்ளது. </p><p>
</p><p>
இந்தியா-ஆஸ்திரேலியா அணிகள் மோதும் 3-வது ஒருநாள் கிரிக்கெட் போட்டி இந்தூரில் நாளை
நடக்க உள்ளது. இந்தப்போட்டிக்கான இரு அணி வீரர்களும் நேற்று இந்தூர் வந்து சேர்ந்தனர்.
புனே வில் நடந்த 2-வது போட்டியில் தோல்வி கண்டதால் இந்திய அணி தரப்பில்
பத்திரிகையா ளர்களை யாரும் சந்திக்க வில்லை. முறைப்படியான அனுமதி உத்தரவு இருந்தால்
மட்டுமே ஓட்டலுக்குள் நிருபர்களை அனுமதிக்கும்படி ஓட்டல் காவலர்களுக்கு இந்திய அணி
நிர்வாகம் உத்தரவும் போட்டுள்ளது. </p><p>
</p><p>
சர்வதேச தரம் இல்லை </p><p>
</p><p>
இந்தூர் வந்த இந்தியா மற்றும் ஆஸ்திரேலிய வீரர்களுக்கு பாரம்பரிய முறைப்படி வர வேற்பு
கொடுக்கப்பட்டது. அலங்கரிக்கப்பட்ட யானைகள் புடைசூழ வீரர்கள் ஓட்டலுக்கு அழைத்துச்
செல்லப்பட்டனர். இதன்பின்னர் ஆஸ்திரேலிய வீரர்கள் யானை மீது ஏறி ஜாலியாக சவாரி
செய்தனர். இந்த அனுபவம் கொஞ்சம் வித் தியாசமாக இருந்ததாக ஆஸ்தி ரேலிய காப்டன்
ஸ்டீவ்வாக் கூறினார். கடந்த 98-ம் ஆண்டு இலங்கை அணிக்கு எதிராக இந்தூரில் நடந்த மோதல்
பாதியில் நிறுத்தப்பட்டது. வீரர்களுக்கு அச்சம் உண்டாக்கும் வகையில் பந்து அதிகம்
பவுன்ஸ் ஆனது. இதனால் சர்வதேச தரத்துக்கு இந்தூர் ஆடுகளம் இல்லை என்று குற்றம் சாட்டி
மோதல் பாதியில் நிறுத்தப்பட்டது. இதன் பின்னர் இப்போது முதல்முறையாக சர்வதேச மோதல்
இந்த ஆடுகளத்தில் நடக்க உள்ளது. </p><p>
</p><p>
திராவிட் ஆடுவாரா? </p><p>
</p><p>
பெங்களூரில் நடந்த முதல் போட்டியில் ஆட்டநாயகன் விருது பெற்ற வீரேந்திர ஷேவாக் காயம்
காரணமாக இனிவரும் போட்டிகள் எதிலும் பங்கேற்க முடியாத பரிதாபம் ஏற்பட்டது. இந்தநிலையில்
இந்திய துணை காப்டன் ராகுல் திராவிட் இந்தூர் போட்டியில் ஆடுவாரா? என்ற சந்தேகம்
ஏற்பட்டுள்ளது. புனேவில் நடந்த போட்டியின் போது திராவிட் முகத்தில் பந்துபட்டது. இதில்
திராவிட் முகம் கடுமையாக வீங்கியது. இந்த வீக்கம் இன்னும் குறையாத காரணத்தால் தொடர்ந்து
அவர் போட்டியில் பங்கேற்பாரா? என்ற குழப்பம் தொடர்ந்து நீடிக்கிறது. இது பற்றி அணி
நிர்வாகிகள் யாரும் கருத்து வௌியிட மறுக்கிறார்கள். திராவிட் ஆடாவிட்டால்,
ராபின்சிங், யுவ்ராஜ் ஆகியோர்களில் ஒருவர் வாய்ப்பு பெறுவர். </p>

<p> </p>

<p>இப்போது நான் பெண்கள்
பக்கம் திரும்பி பார்ப்பதில்லை: கங்குலி பேட்டி</p>

<p> </p>

<p>*பெங்களூர்,மார்ச்.30- இப்போது நான் பெண்கள் பக்கம் திரும்பி
கூட பார்்ப்பதில்லை என இந்திய கிரிக்கெட் அணி கேப்டன் கங்குலி கூறினார். </p><p>
</p><p>
பெங்களூர் சின்னசாமி கிரிக் கெட் விளையாட்டு மைதானத்தில் ஆஸ்திரேலியா அணிக்கும்,
இந்திய அணிக்கும் ஒருநாள் கிரிக்கெட் போட்டி நடந்தது. இந்த போட்டியில் இந்தியா 60
ரன்கள் வித்தியாசத்தில் வெற்றி பெற்றது. </p><p>
</p><p>
போட்டியின் முடிவில் கங்குலி நிருபருக்கு பேட்டி அளித் தார். அப்போது அவர் கூறியதா வது:- </p><p>
</p><p>
சின்னசாமி கிரிக்கெட் விளையாட்டு மைதானம் ரன்களை இந்தியாவிற்கு வாரி வழங்கும் தன்மையை
கொண்டது. அதனால் 315 ரன்கள் எடுத்து இருந்தபோதிலும் வெற்றி பெற முடியும் என்ற
நம்பிக்கையே எனக்கு இல்லை. பெவனும், ஹைடனும் அவுட்டானது தான் ஆட்டத்தின் திருப்பு
முனையாக அமைந்தது. </p><p>
</p><p>
அணி ஜெயித்தது </p><p>
</p><p>
பெங்களூர் மைதானம் ஈரமாக இருந்ததால் பந்தை கிரிப் செய்வதில் பிரச்சினை ஏற்பட்டது.
இருந்தாலும் நமது வீரர்கள் நன்றாக பீல்டிங் செய்தனர். முக்கியமாக இளம் வீரர்களுக்குத்
தான் எல்லா பாராட்டுகளும் சேர வேண்டும். நான் நன்றாக ஆடகி றேனோ இல்லையோ என்பதை விட
நம் அணி ஜெயித்தது என் பது தான் முக்கியம். </p><p>
</p><p>
பெண்கள் பக்கம் ... </p><p>
</p><p>
நான் பாமில்தான் இருக்கிறேன். கூடிய விரைவில் என்னுடைய வழக்கமாக ஆட்டத்திற்கு
திரும்புவேன். </p><p>
</p><p>
பேட்டியின்போது சின்ன சாமி விளையாட்டு மைதானத்தில் புதியதாக துவங்கப்பட்டுள்ள பெண்கள்
கேலரி குறித்து கேட்ட போது, </p><p>
</p><p>
இப்போதெல்லாம் நான் பெண்கள் பக்கம் திரும்பி கூட பார்ப்பதில்லை என கூறினார். </p>

<p> </p>

<p>பந்தய நிர்வாகிகள்
தொடர்ந்து நம்பிக்கை: சார்ஜா மோதலில் இந்தியா பங்கேற்கும்</p>

<p> </p>

<p>துபாய், மார்ச் 30- சார்ஜா கிரிக்கெட் போட்டியில் இந்திய அணி
நிச்சயம் பங்கேற்கும் என்று பந்தய அமைப்பாளர்கள் தொடர்ந்து நம்பிக்கையுடன்
காத்திருக்கிறார்கள். </p><p>
</p><p>
சர்வதேச அளவில் அதிக ஒருநாள் கிரிக்கெட் போட்டிகளை நடத்திய பெருமை சார்ஜாவுக்கு உண்டு.
இத் தனைக்கும் சர்வதேச கிரிக்கெட் அணி அங்கு இல்லை என்ற போதும், மற்ற நாடுகளை வர
வழைத்து தொடர்ந்து கிரிக்கெட் போட்டிகள் நடத்தப்பட்டு வருகின்றன. ஆனால் இந்த முறை
சார்ஜா கிரிக்கெட் போட்டியில் சிக்கல் ஏற்பட்டுள்ளது. அடுத்த மாதம் 8-ந்தேதி முதல்
நடப்பதாக அறிவிக்கப்பட்டுள்ள சார்ஜா கிரிக்கெட் போட்டியில் இந்திய அணி
பங்கேற்குமா? என்ற குழப்பம் இன்னும் தீர வில்லை. மத்திய விளையாட் டுத்துறை
வட்டாரங்களில் இது குறித்து விவாதம் நடந்து வருகிறது. ஆனால் இறுதி முடிவு அறிவிக்க மேலும்
சில நாட்கள் ஆகும் என்று தெரிகிறது. </p><p>
</p><p>
இந்திய அணிக்கு மவுசு </p><p>
</p><p>
இதற்கிடையில் சார்ஜா கிரிக்கெட்டில் இந்திய அணி பங்கேற் காது என்று மத்திய
விளையாட்டுத்துறை வட்டாரங்கள் தகவல் தெரிவித்துள்ளன. ஆனால் சார்ஜா கிரிக்கெட்
போட்டிக்கு இந்திய அணியை எப்படியும் வரவழைத்து விட வேண்டும் என்பதில் பந்தய
நிர்வாகிகள் அதிக அக்கறை காட்டுகிறார்கள். இந்திய அணியை அழைப்பதில் இவ்வளவு அக்கறை
என்ன? என்பது கொஞ்சம் வியப்பாகவே இருக்கும். ஆனால் சார்ஜா கிரிக்கெட்
போட்டியில் இந்திய அணி பங்கேற்க வில்லை என்றால், அந்த இழப்பு போட்டியாளர்களை
பெரிதும் பாதிக்கும். உலக அளவில் இந்திய அணிக்கு மட்டுமே அதிக ரசிகர்கள்
இருக்கிறார்கள். உலகின் அத்தனை மூலைகளிலும் இந்தியர்கள் வாழ்வதால், நமது அணியின்
ஆட்டத்தை காண பரவலாக போட்டி நிலவுகிறது. </p><p>
</p><p>
வருமானம் போய்விடும் </p><p>
</p><p>
அதுவும் குறிப்பாக சார்ஜா போன்ற நாடுகளில் இந்திய அணிக்கு என்றே தனிப்பட்ட ரசிகர்கள்
கூட்டம் இருக்கிறது. இந்திய அணியுடன் பாகிஸ்தான் அணி மோதுகிறது என்றால் கேட்கவே
வேண்டாம். சார்ஜா கிரிக்கெட் போட்டியில் இந்தியா மற்றும் பாகிஸ்தான் அணிகள்
பங்கேற்பதை காரணம் காட்டி டெலிவிஷன் ஒளிபரப்பு உரிமை, விளம்பர போர்டுகள் மற்றும் பல
வர்த்தக விளம்பரங்கள் கோடிக்கணக்கில் ஒப்பந்தம் செய்யப்பட்டுள்ளன. திடீரென இந்தியா
விலகிவிட்டால் அனைத்து வருமானமும் நின்று விடும். இதனால்தான் எப்படியாவது இந்திய அணியை
சம்மதிக்க வைத்து விடவேண்டும் என்பதில் போட்டியாளர்கள் முனைப்புடன் செயல்படுகிறார்கள்.
</p><p>
</p><p>
சட்ட விரோதம் </p><p>
</p><p>
ஆனால் இந்த விஷயங்கள் இந்திய அரசுக்கும் தெரியாமல் இல்லை. சார்ஜா கிரிக்கெட்
போட்டியில் பங்கேற்பதில் இந்திய போர்டுக்கு கணிசமான தொகை கிடைக்கும் என்பதால்
போர்டு நிர்வாகிகளும் மத்திய அரசிடம் இருந்து எப்படியாவது அனுமதி பெற்றுவிட வேண்டும் என்று
அதிக ஆசையுடன் செயல்படுகிறார்கள். ஆனால் மத்திய அரசு தற்போது இந்த விஷயத்தில் அதிக
எச்சரிக்கை யுடன் இருக்கிறது. சார்ஜா கிரிக்கெட்டில் இந்தியஅணிக்கு விதிக்கப்பட்டுள்ள
தடைக்கு பாகிஸ்தான் அணி பங்கேற்பது மட்டுமே ஒரு காரணம் கிடையாது. கிரிக்கெட் வீரர்களின்
சட்ட விரோதமான காரியங்களும் இதற்கு ஒரு காரணமாக கூறப் படுகிறது. </p><p>
</p><p>
சி.பி.ஐ. எச்சரிக்கை </p><p>
</p><p>
அதாவது, சார்ஜா போட்டியின் போது கிரிக்கெட் வீரர் கள் சூதாட்டம் போன்ற காரி
யங்களில் எந்தவித நெருக்கடியும் இன்றி ஈடுபடுகிறார்கள். சூதாட்ட புரோக்கர்களும்
எந்த வித பிரச்சினையும் இன்றி கிரிக்கெட் வீரர்களை தொடர்பு கொண்டு பேரம் பேசி
விடுகி றார்கள். இதுதொடர்பாக விசாரணை நடத்திய சி.பி.ஐ. தனது அறிக்கையில் சார்ஜா
கிரிக்கெட்டில் நடந்த சூதாட்டம் பற்றி தௌிவாக விளக்கி உள்ளது. இதனால்தான் மத்திய
அரசு இப்போது கொஞ்சம் அச்சப்படு கிறது. அதுமட்டுமின்றி, தேச துரோகிகள் பலரும்
சார்ஜா கிரிக்கெட் போட்டியின் போது கிரிக்கெட் வீரர்களை தொடர்பு கொண்டு பேரம்
பேசுவதாக சி.பி.ஐ. மத்திய அரசுக்கு தகவல் கூறியுள்ளது. </p><p>
</p><p>
குறிப்பாக முன்னாள் காப்டன் அசாருதீனுக்கு சார்ஜா போட்டியின் போதுதான் கடத்தல் மன்னன்
தாவூத் இப்ராகீமுடன் நெருங்கிய தொடர்பு ஏற் பட்டுள்ளது. இதன்பிறகு பாகிஸ்தான் வீரர்
ஒருவருடன் சேர்ந்து கொண்டு துபாய் வங்கி ஒன்றில் அசாருதீன் ரகசியமாக கோடிக் கணக்கில் பணம்
பதுக்கி வைத் ததாக சி.பி.ஐ. விசாரணையில் தெரிய வந்தது. இதுபோன்ற அனைத்து பிரச்சினைகளை
யும் தடுக்கும் நோக்கில்தான் சார்ஜா கிரிக்கெட்டில் பங்கேற்க இந்திய அணிக்கு அனுமதி
வழங்க மத்திய அரசு தயக்கம் காட்டுகிறது. மத்திய அரசின் இந்த எச்சரிக்கை உணர்வு
பாராட்டப்பட வேண்டிய ஒன்று தான் என்றாலும், சர்வதேச கிரிக்கெட் உறவுகளையும் மனதில்
கொண்டு சிறப்பான ஒரு முடிவு எடுத்தால் நல்லது </p>

<p> </p>

<p>செஸ்: ஆனந்த்-கிராம்னிக்
மோதல் டிராவில் முடிந்தது</p>

<p> </p>

<p>மோன்ட்கார்லோ, மார்ச் 30- கிராம்னிக்குடன் நடந்த கிராண்ட்
மாஸ்டர் செஸ் போட்டியில் ஆனந்த் டிரா செய்தார். </p><p>
</p><p>
தொடர்ந்து 8 சுற்று மோதல் கள் வரை முதலிடத்தை தக்க வைத்திருந்த இந்திய வீரர்
விஸ்வநாதன் ஆனந்த், அடுத்து நடந்த ஆட்டத்தில் கண்ட தோல் வியால் 3-வது இடத்துக்குத்
தள்ளப்பட்டார். கிராண்ட் மாஸ்டர் செஸ் போட்டிக்கான நேற்று நடந்த 10-வது சுற்று
மோதலில் ஆனந்த்-கிராம்னிக் ஆகியோர் மோதினர். முதலில் நடந்த வேக செஸ் போட்டியில்
இரு வீரர் களும் வெற்றிக்கு போராடினர். ஆனால் 76 நகர்த்தலுக்குப் பின் னர் இந்த ஆட்டம்
டிராவில் முடிந்தது. இதையடுத்து நடந்த பிளைன்ட் போல்டு ஆட்டமும் டிராவில் முடிந்ததால், இரு
வீரர்களும் தலா ஒரு புள்ளி பெற்றனர். </p><p>
</p><p>
இன்று கடைசி மோதல் </p><p>
</p><p>
இன்னும் ஒரு சுற்று மோதல் எஞ்சி இருக்கும் நிலையில் ஆனந்த் 12.5 புள்ளிகளுடன் 3-வது
இடத்தில் இருக்கிறார். கிராம்னிக் மற்றும் டோப்லோவ் ஆகியோர் தலா 14 புள்ளிகளுடன்
முதலிடத்தை பகிர்ந்துள்ளனர். இன்று நடக்கும் கடைசி ஆட்டத்தில் ஸ்பெயின் வீரர் ஷிரோவை
எதிர்த்து ஆனந்த் மோதஉள்ளார். இந்த மோதல் நிச்சயம் ஆனந்துக்கு பெரிய சவாலாக இருக்கும்
என்று கருதப்படுகிறது. அதுபோல் கிராம்னிக்-லெகோ ஆகியோர்களும் கடைசி ஆட்டத்தில்
மோதுகிறார்கள். டோப்லோவ் கடைசி ஆட்டத்தில் தரவரிசையில் குறைந்த வீரரை எதிர்த்து
மோதுவதால் சாம்பியன் கோப்பை கைப்பற்றும் வாய்ப்பு அவருக்கு அதிகமாக உள்ளது. </p>

<p> </p>

<p> </p>






</body></text></cesDoc>