<cesDoc id="tam-w-dinakaran-sports-00-09-29" lang="tam">
<cesHeader type="text">
<fileDesc>
<titleStmt>
<h.title>tam-w-dinakaran-sports-00-09-29.txt</h.title>
<respStmt>
<respType>Electronic file created by</respType>
<respName>Department of Linguistics, Lancaster University</respName>
<respType>text collected by</respType>
<respName>Paul Baker and Celia Worth</respName>
<respType>transferred into Unicode by</respType>
<respName>"Unicodify" software by Andrew Hardie</respName>
</respStmt>
</titleStmt>
<publicationStmt>
<distributor>UCREL</distributor>
<pubAddress>Department of Linguistics, Lancaster University, Lancaster, LA1 4YT, UK</pubAddress>
<availability region="WORLD"></availability>
<pubDate>03-08-24</pubDate>
</publicationStmt>
<sourceDesc>
<biblStruct>
<monogr>
<h.title>"Dinakaran" internet news (www.dinakaran.com), news stories collected on 00-09-29</h.title>
<h.author>Dinakaran</h.author>
<imprint>
<pubPlace>Tamil Nadu, India</pubPlace>
<publisher>Dinakaran</publisher>
<pubDate>00-09-29</pubDate>
</imprint>
</monogr>
</biblStruct>
</sourceDesc>
</fileDesc>
<encodingDesc>
<projectDesc>Text collected for use in the EMILLE project.</projectDesc>
<samplingDesc>Simple written text only has been transcribed. Diagrams, pictures and tables have been omitted and their place marked with a gap element.
</samplingDesc>
<editorialDecl>
<conformance level="1"></conformance>
</editorialDecl>
</encodingDesc>
<profileDesc>
<creation>
<date>03-08-24</date>
</creation>
<langUsage>Tamil</langUsage>
<wsdUsage>
<writingSystem id="ISO/IEC 10646">Universal Multiple-Octet Coded Character Set (UCS).</writingSystem>
</wsdUsage>
<textClass>
<channel mode="w">print</channel>
<constitution type="composite"></constitution>
<domain type="public"></domain>
<factuality type="fact"></factuality>
</textClass>
<translations></translations>
</profileDesc>
<revisionDesc></revisionDesc>
</cesHeader>

<text>
<body>




<p>ஹாக்கி: ஹாலந்து-கொரியா
இறுதிக்கு தகுதி இங்கி.யுடன் மோதலில் இந்தியா தோல்வி</p>

<p> </p>

<p>சிட்னி,
செப்.29- சிட்னி ஒலிம்பிக் ஹாக்கிப் போட்டியை பொறுத்தவரை கொரியாவுக்கு அதிர்ஷ்டவச
மாகத்தான் அரைஇறுதி வாய்ப்பு கிடைத்தது. கடைசி லீக் ஆட்டத்தில் ஆஸ்திரேலியா விடம்
தோல்விகண்ட நிலை யில், இந்திய ஆட்டத்தின் முடி வுக்காக காத்திருந்தது. 2-2 என்ற கோல்
கணக்கில் டிரா செய்தால் அரைஇறுதிக்கு தகுதி பெற்றுவிடலாம் என்ற நிலை யில் களம் இறங்கிய
இந்தியா வெற்றிநிலையில் இருந்தது. ஆனால் கடைசி 2 நிமிடத்தில் போலந்து அணி வீரர்
தோமாஸ் அடித்த கோல் மூலம் ஆட்டம் டிராவில் முடிந்தது. அதுமட்டுமின்றி, இந்தியாவுக்
குப்பதில் கொரியா அணி அரை இறுதிக்கு தகுதிபெற்றது. </p><p>
</p><p>
அரைஇறுதி ஆட்டம் </p><p>
</p><p>
பி பிரிவில் 2-வது இடம் பெற்ற கொரியா நேற்றைய அரைஇறுதியில் ஏ பிரிவில் 9
புள்ளிகளுடன் முதலிடம் பெற்ற பாகிஸ்தானை எதிர் கொண் டது. ஆசிய கண்டத்தின் வலு வான
இந்த இருஅணிகளும் தொடக்கம் முதல் விறுவிறுப் புடன் ஆடியது. ஆனால் ஆட்டத்தின் 59-வது
நிமிடத்தில் கியாங் சியோக் கிம் அடித்த பெனால்டி கோல் மூலம் பாகிஸ்தானை தோற்கடித்து
இறுதிப்போட்டிக்கு கொரியா அணி தகுதிபெற்றது. ஒலிம்பிக் ஹாக்கிப்போட்டியின் இறுதி
மோதலுக்கு கொரியா அணி தகுதிபெறுவது இதுவே முதல் முறையாகும். கடந்த 1986-ம் ஆண்டு சியோல்
ஆசிய விளை யாட்டில் பாகிஸ்தானை 2-1 என்ற கோல் கணக்கில் தோற் கடித்து கொரியா
சாம்பியன் பட்டம் வென்றது. அதன்பிறகு தான் கொரிய அணிக்கு சர்வ தேச ஹாக்கி அரங்கில்
ஒரு அறி முகம் கிடைத்தது. ஆனால் இப் போது அந்தஅணி ஒலிம்பிக் இறுதிப்போட்டிக்கு
தகுதிபெற்று தனது சிறந்த அனுபவத்தையும் நிரூபித்து விட்டது. </p><p>
</p><p>
ஹாலந்து வெற்றி </p><p>
</p><p>
மற்றொரு அரைஇறுதியில் நடப்பு உலக சாம்பியன் ஹாலந்து 5-4 என்ற கோல் கணக்கில்
ஆஸ்திரேலியாவை தோற்கடித்து இறுதிப்போட் டிக்கு முன்னேறியது. நிர்ணயிக் கப்பட்ட
ஆட்டத்தின் முடிவில் இருஅணிகளும் கோல்ஏதும் போடாமல் சமநிலையில் இருந் ததால்
டை-பிரேக்கர் ஆட்டம் நடந்தது. அதிகப்படியாக ஒதுக் கப்பட்ட 15 நிமிட ஆட்டத்திலும்
இருஅணிகளும் கோல் போடா மல் இருந்தது குறிப்பிடத்தக்கது. நாளை நடக்கும் இறுதிப்போட்
டியில் ஹாலந்து-கொரியா அணிகள் தங்கப்பதக்கத்துக் கான போட்டியில் மோதுகின் றன. </p><p>
</p><p>
லீக் போட்டியின் முடிவில் அணிகள் பெற்ற புள்ளிகள் அடிப்படையில் முதல் 4 அணி கள் அரைஇறுதி
வாய்ப்பை பெற்றன. அடுத்த 4 அணிகள் (ஒவ் வொரு பிரிவில் இருந்தும் 2 அணிகள் வீதம்) 5
முதல் 8-வது இடங்களுக்கான பலப் பரீட்சையில் மோதின. இதன் படி இந்தியா தனது மோதலில்
இங்கிலாந்தை எதிர்கொண்டது. ஆனால் ஆட்டத்தின் முடிவில் 1-2 என்ற கோல் வித்தியாசத்
தில் இந்தியா தோற்றது. </p><p>
</p><p>
இந்தியாவுக்கு பரிதாபம் </p><p>
</p><p>
அரைஇறுதி வாய்ப்பை துர திர்ஷ்டவசமாக கோட்டைவிட்ட இந்தியஅணியில் தன்ராஜ் பிள்ளை
மற்றும் காப்டன் ரமன் தீப்சிங் ஆகியோர் நேற்றைய ஆட்டத்தில் களம் இறங்க வில்லை.
இந்திய அணியில் திலிப் டிரிக்கி ஆறுதல் கோல் அடித்தார். ஆனால் அடுத்த சில
நிமிடங்களிலேயே இங்கி லாந்து அணியின் கிரேக் பர்ன் காம் மற்றும் காலும்கில்ஸ் ஆகி
யோர் தலா ஒருகோல் போட்டு இந்தியாவை வீழ்த்தினர். மற்றொரு ஆட்டத்தில் ஜெர்மனி 6-2
என்ற கோல் வித்தியாசத் தில் அர்ஜெண்டினாவை தோற் கடித்தது. எனவே 5 மற்றும் 6-வது
இடங்களுக்கான போட்டி யில் ஜெர்மனி-இங்கிலாந்து அணிகளும், 7 மற்றும் 8-வது இடங்களுக்கான
போட்டியில் இந்தியா-அர்ஜெண்டினா அணி களும் பலப்பரீட்சை நடத்துகின் றன. இங்கிலாந்திடம்
தோல்வி கண்டதின்மூலம் தான் ஜெர் மனி அரைஇறுதி வாய்ப்பு கைநழுவிப்போனது என்பது
குறிப்பிடத்தக்கது. முதல் 6 இடங் களை எட்டமுடியாமல் போன தால் அடுத்த ஆண்டு பாகிஸ் தானில்
நடக்க உள்ள சாம்பி யன் கோப்பை ஹாக்கியில் நேரடியாகத்தகுதி பெறும் வாய்ப்பை இந்தியா
இழந்தது. கடந்த அட்லாண்டா ஒலிம்பிக் கில் இந்தியாவுக்கு 8-வது இடம் கிடைத்தது. </p>

<p>31/2 மணிநேர
போராட்டத்தில், கபல்நிகோவ் தங்கம் வென்றார்</p>

<p> </p>

<p>சிட்னி, செப்.29- எதிர்பார்ப்பை உண்டாக்கிய சாபின், ராப்டர்
உள்பட சில முன்னணி ஆட்டக்காரர்கள் தொடக்க ஆட்டங்களிலேயே தோல்வி கண்டு போட்டியில்
இருந்து வௌியேறி விட்ட நிலையில், ஆண்கள் டென்னிஸ் பந்தயத்துக்கான இறுதிமோத லுக்கு ரஷிய
வீரர் கபல்நிகோவ் மற்றும் டாமி ஹாஸ் (ஜெர்மனி) ஆகியோர் முன்னேறினர். ஒலிம் பிக்
போட்டிக்கு முன்னதாக எந்த பந்தயத்திலும் சாம்பியன் பட்டம் வென்றிராத முன்னாள்
நம்பர்ஒன் வீரர் கபல்நிகோவ் புத்துணர்ச்சியோடு களம் புகுந் தார். </p><p>
</p><p>
கபல்நிகோவ் வெற்றி </p><p>
</p><p>
கபல்நிகோவைவிட தர வரிசையில் மிகவும் பின்தங்கி இருந்தாலும், ஹாஸ் சொதப் பலாக
ஆடவில்லை. இதனால் கபல்நிகோவ் அதிகம் போராட வேண்டிய கட்டாயம் ஏற்பட்டது. இறுதியில்
7-6 (7-4) 3-6 6-2 4-6 6-3 என்ற செட்கணக்கில் கபல் நிகோவ் தங்கப்பதக்கம் வென்
றார். ஒலிம்பிக் டென்னிஸ் ஆட் டத்தில் ரஷிய வீரர் ஒருவர் தங் கம் வெல்வது இதுவே முதல்
தடவையாகும். நேற்றைய இறுதி மோதல் 3 மணி 34 நிமிடங்கள் நடந்தது. ஏற்கனவே நடந்த
வெண்கலப்பதக்கத்துக்கான போட்டியில் பிரான்ஸ் வீரர் அர்னால்ட் டி பாஸ்கல் வெற்றி
பெற்றது குறிப்பிடத்தக்கது. </p><p>
</p><p>
வீனசுக்கு 2-வது தங்கம் </p><p>
</p><p>
பெண்களுக்கான இரட்டை யர் இறுதிப்போட்டியும் நேற்று நடந்தது. இதில் அமெரிக்கா வின்
வீனஸ்-செரீனா ஜோடி யும் கிறிஸ்டி பூக்ரெட்-மிரியம் ஓர்மான்ஸ் (ஹாலந்து) ஜோடி யும்
மோதின. எந்தவித போராட்டத்தையும் கொடுக் காத ஹாலந்து வீராங்கனை கள் அமெரிக்க
ஜோடியிடம் 1-6 1-6 என்ற செட்டில் சரண் அடைந்தது. இதனால் இரட்டை யர் ஆட்டத்திலும்
வீனஸ் ஜோடி தங்கம் வென்றது. வீனஸ் வில் லியம்ஸ் ஏற்கனவே நடந்த ஒற் றையர்
ஆட்டத்திலும் தங்கம் வென்றார். கடந்த 1924-ம் ஆண் டுக்குப்பிறகு ஒலிம்பிக் போட்டி யின்
ஒற்றையர் மற்றும் இரட் டையர் மோதலில் தங்கம் வென்ற முதல் வீராங்கனை என்ற சாதனையை
வீனஸ் வில் லியம்ஸ் எட்டினார். முன்ன தாக அமெரிக்காவின் ஹெலன் வில்ஸ் இதே சாதனையை
செய் துள்ளார். </p>

<p> </p>

<p>ஜோன்ஸ் 2-வது தங்கம்:
200மீ. ஓட்டத்தில் வென்றார்</p>

<p> </p>

<p>சிட்னி,
செப்.29- சிட்னி ஒலிம்பிக் போட்டியில் 5 தங்கப்பதக்கம் வெல் வேன் என்று கூறிய,
மரியன் ஜோன்ஸ் தனது 2-வது தங்கத்தை எட்டியுள்ளார். பெண்கள் 200மீ. ஓட்டத்தில் களம்
இறங்கிய மரியன் ஜோன்ஸ் பந் தய தூரத்தை 21.84 விநாடிகளில் கடந்து தங்கம் வென்றார்.
ஏற்கனவே 100மீ. ஓட்டத்திலும் மரியன் ஜோன்ஸ் தங்கப்பதக்கம் வென்றுள்ளார். 24 வய தான
ஜோன்ஸ் நீளம் தாண் டுதல் உள்பட மேலும் 3 போட்டி களில் அடுத்து பங்கேற்க உள்ளார். </p><p>
</p><p>
சுசாந்திகா வெண்கலம் </p><p>
</p><p>
இந்தப்போட்டியில், பவு லின் டேவிஸ் தாம்சன் (பகாமாஸ்) 22.27 விநாடிகளில் ஓடி
வௌ்ளிப்பதக்கம் வென்றார். இலங்கையின் சுசாந்திகா 22.28 விநாடிகளில் பந்தய தூரத்தை
கடந்து வெண்கலப் பதக்கம் கைப்பற்றினார். இலங்கை அணிக்கு கிடைத்த முதல் பதக்கமும்
இதுவாகும். 400மீ. ஓட்டத்தில் தங்கப்பதக்கம் வென்று சாதனை படைத்த ஆஸ்திரேலியாவின்
கேத்தி பிரி மென், 200மீ. ஓட்டத்தில் பரிதாப மான முடிவை சந்திக்க நேர்ந் தது. மோசமாக
ஓடத்தொடங் கிய கேத்தி, பந்தய தூரத்தை 22.53 விநாடிகளில் கடந்து 7-வது இடத்துக்கு
தள்ளப்பட் டார். </p><p>
</p><p>
கிரேக்க வீரர் சாதனை </p><p>
</p><p>
இதே போட்டியின் ஆண் கள் பிரிவில், கிரீஸ் வீரர் கெண்டெரிஸ் 20.09 விநாடி களில் ஓடி
தங்கப்பதக்கம் வென் றார். தகுதி மோதலின் போது ஏற்பட்ட காயம் காரணமாக மவுரீஸ்
கிரீன் மற்றும் மைக்கேல் ஜான்சன் ஆகியோர் பந்தயத் தில் இருந்து விலகினர். 88 ஆண்டு
இடைவௌிக்குப்பிறகு கிரேக்க நாட்டில் இருந்து வீரர் ஒருவர் தடகளத்தில் தங்கம் வெல்வது
இதுவே முதல்முறை ஆகும். </p>

<p> </p>

<p>ஒலிம்பிக் துளிகள்</p>

<p> </p>

<p>நீளம் தாண்டுதல்: தங்கம் வென்றார் பெட்ரோசோ </p><p>
</p><p>
சிட்னி, செப்.29- </p><p>
</p><p>
ஒலிம்பிக் நீளம் தாண்டுதல் (ஆண்கள்) போட்டியில் கியூபா வீரர் இவான் பெட்ரோசோ
தங்கப்பதக்கம் வென்றார். கடந்த அட்லாண்டா ஒலிம்பிக் போட்டியில் 12-வது இடம் பெற்ற
பெட்ரோசோ 8.55மீ. நீளம் தாண்டி தங்கத்தை வென்றார். கார்ல்லூவிஸ் கடந்த 4
ஒலிம்பிக் நீளம் தாண்டுதலில் தங்கம் வென்று சாதனை படைத்தார். இந்த முறை லூவிஸ் கலந்து
கொள்ள வில்லை. </p><p>
</p><p>
பெண்கள் கால்பந்து: நார்வேஅணி தங்கம் </p><p>
</p><p>
சிட்னி, செப்.29- </p><p>
</p><p>
பெண்கள் கால்பந்து போட்டிக் கான இறுதிப்போட்டியில் நார்வே-அமெரிக்கா அணிகள் மோதின.
விறுவிறுப்பாக நடந்த ஆட்டத்தின் முடிவில் நார்வே 3-2 என்ற கோல் வித்தியாசத்தில்
அமெரிக்காவை தோற்கடித்து தங்கப்பதக்கம் வென்றது. முன்னதாக நடந்த
வெண்கலப்பதக்கத்துக்கான ஆட்டத்தில் ஜெர்மனி-பிரேசில் அணிகள் மோதின. இதில் ஜெர் மனி
2-0 என்ற கோலில் பிரே சில் அணியை தோற்கடித்தது. </p><p>
</p><p>
தொடர் ஓட்டம்: பெய்லி விலகினார் </p><p>
</p><p>
சிட்னி, செப்.29- </p><p>
</p><p>
ஆண்களுக்கான 4றூ100மீ. தொடர் ஓட்டத்தில் அமெரிக்கா அணிக்கு பெரிய சவாலாக கனடா அணி
இருக்கும் என்று கணிக்கப்பட்டுள்ளது. ரசிகர் களின் இந்த நம்பிக்கையில் லேசான பின்னடைவு
ஏற்பட் டுள்ளது. கனடா வீரர் டோனோவன் பெய்லி காயம் காரணமாக தகுதிசுற்றில் இருந்து
விலகினார். முன்ன தாக 100மீ. ஓட்டத்தில் இருந்தும் பெய்லி விலகினார். கடந்த அட்
லாண்டா ஒலிம்பிக் 100மீ. ஓட் டத்தில் தங்கப்பதக்கம் வென்ற பெய்லி, சிட்னி
போட்டிகள் எதிலும் தற்போதுவரை கலந்து கொள்ள வில்லை என்பது குறிப்பிடத்தக்கது. </p>

<p> </p>

<p> </p>






</body></text></cesDoc>