<cesDoc id="tam-w-dinakaran-sports-00-09-14" lang="tam">
<cesHeader type="text">
<fileDesc>
<titleStmt>
<h.title>tam-w-dinakaran-sports-00-09-14.txt</h.title>
<respStmt>
<respType>Electronic file created by</respType>
<respName>Department of Linguistics, Lancaster University</respName>
<respType>text collected by</respType>
<respName>Paul Baker and Celia Worth</respName>
<respType>transferred into Unicode by</respType>
<respName>"Unicodify" software by Andrew Hardie</respName>
</respStmt>
</titleStmt>
<publicationStmt>
<distributor>UCREL</distributor>
<pubAddress>Department of Linguistics, Lancaster University, Lancaster, LA1 4YT, UK</pubAddress>
<availability region="WORLD"></availability>
<pubDate>03-08-24</pubDate>
</publicationStmt>
<sourceDesc>
<biblStruct>
<monogr>
<h.title>"Dinakaran" internet news (www.dinakaran.com), news stories collected on 00-09-14</h.title>
<h.author>Dinakaran</h.author>
<imprint>
<pubPlace>Tamil Nadu, India</pubPlace>
<publisher>Dinakaran</publisher>
<pubDate>00-09-14</pubDate>
</imprint>
</monogr>
</biblStruct>
</sourceDesc>
</fileDesc>
<encodingDesc>
<projectDesc>Text collected for use in the EMILLE project.</projectDesc>
<samplingDesc>Simple written text only has been transcribed. Diagrams, pictures and tables have been omitted and their place marked with a gap element.
</samplingDesc>
<editorialDecl>
<conformance level="1"></conformance>
</editorialDecl>
</encodingDesc>
<profileDesc>
<creation>
<date>03-08-24</date>
</creation>
<langUsage>Tamil</langUsage>
<wsdUsage>
<writingSystem id="ISO/IEC 10646">Universal Multiple-Octet Coded Character Set (UCS).</writingSystem>
</wsdUsage>
<textClass>
<channel mode="w">print</channel>
<constitution type="composite"></constitution>
<domain type="public"></domain>
<factuality type="fact"></factuality>
</textClass>
<translations></translations>
</profileDesc>
<revisionDesc></revisionDesc>
</cesHeader>

<text>
<body>




<p>கடைசி நேரத்தில் அடித்தது
அதிர்ஷ்டம்: நிருபமா-மனிஷாவுக்கு ஒலிம்பிக் வாய்ப்பு</p>

<p> </p>

<p>சிட்னி, செப்.14- ஒலிம்பிக் போட்டியில் கலந்து கொள்ளும்
இந்திய அணி ஏற்கனவே சிட்னி சென்று விட்டது. சிட்னியில் வீரர்-வீராங்கனைகள் தொடக்க
விழா நிகழ்ச்சிகளுக் காக ஒத்திகை பார்த்துக் கொண்டு இருக்கிறார்கள். இந்த நிலையில்
இந்தியஅணியின் எண்ணிக்கையில் கூடுதல் செய் யப்பட்டுள்ளது. இந்திய டென் னிஸ்
வீராங்கனைகள் நிருபமா வைத்தியநாதன்-மனிஷா மல் கோத்ரா ஆகியோர் கடைசி நேரத்தில்
வாய்ப்பு பெற்ற அதிர்ஷ்டசாலிகள் ஆவர். </p><p>
</p><p>
காயத்தால் கியூபர் விலகல் </p><p>
</p><p>
நிருபமா-மனிஷா ஜோடி பெண்கள் டென்னிஸ் இரட்டை யர் ஆட்டத்தில் களம் இறங்க உள்ளது.
காயம் காரணமாக கியூபர் போட்டியில் இருந்து விலகினார். இதனால் கியூபர்- ஜனா கண்டர்
ஜோடி இரட்டை யர் மோதலில் இருந்து நீக்கப் பட்டு இந்திய ஜோடிக்கு வாய்ப்பு
கொடுக்கப்பட்டுள்ளது. வாய்ப்பு பெற்ற இருவீராங்கனைகளும் தற்போது இந்தியாவில் இல்லை. </p><p>
</p><p>
கடந்த 98-ம் ஆண்டு பாங் காங்கில் நடந்த ஆசிய விளை யாட்டில் வெண்கலப்பதக்கம் வென்ற
நிருபமா அமெரிக்கா விலும், மனிஷா பாரிஸ் நகரி லும் இருப்பதாக தகவல்கள் வௌியாகி உள்ளன.
எனவே அகில இந்திய டென்னிஸ் சங்கம் மூலமாக இரு வீராங்கனை களையும் தொடர்பு கொள்ள முயற்சிகள்
நடந்து வருகின்றன. </p>

<p> </p>

<p>சிட்னியில் பஸ் டிரைவர்கள்
ஸ்டிரைக்</p>

<p> </p>

<p>சிட்னி, செப்.14- ஒலிம்பிக் போட்டிக்கான ஏற்பாடுகள் ஒருபக்கம்
சிறப்பாக நடந்து கொண் டிருந்தாலும், எதிர்ப்புகளும் வலுத்தவண்ணமே இருக்கிறது. 15 நாட்கள்
சிட்னி நகரில் வௌிநாட்டு பார்வையாளர் களின் வருகை அதிகமாக இருப்பதை ஒட்டி உள்ளூர்
பேருந்து வசதி அதிகமாக்க வேண்டிய கட்டாயம் ஏற்பட்டது. ஆனால் டிரை வர்களுக்கு போதிய வசதி
செய்து கொடுக்காமல் போட்டியாளர்கள் கைவிட்டு விட்டனர். இதனால் கடுப்பாகிப்போன
டிரைவர்கள் ஒலிம்பிக் போட்டியின் போது ஸ்டிரைக்கில் ஈடுபடப்போவதாக அச்சுறுத்தி
உள்ளனர். நேற்றே ஒருசில டிரைவர்கள் சரியான நேரத் துக்கு பேருந்துகளை ஓட்ட வில்லை. இதனால்
ஆஸ்திரேலிய ஜிம்னாஸ்டிக் மற்றும் சில அணிகளின் பயிற்சி பாதிக்கப்பட்டது. இதற்கு
விரைவில் தீர்வு காணவேண்டிய கட்டாயத்துக்கு போட்டி யாளர்கள் தள்ளப்பட்டுள்ளனர். </p>

<p> </p>

<p>நட்சத்திர போட்டியில்
'சிட்னி' ஓலிம்பிக்</p>

<p> </p>

<p>
 
 
  
  
  
  
  
  
  
  
  
  
  
  
 
 
 

 
<gap desc="illustration"></gap></p>




 
  
  <p>முக்கிய போட்டிகள்
  நடக்க இருக்கும் சிட்னி ஒலிம்பிக்கின் மிகப்பெரிய மைதானத்தின் அழகு தோற்றம் </p>
  
 




<p>கிரிக்கெட்டில் பெட்டிங், அமெரிக்க ஓபனில் சம்ராஸ் தோல்வி போன்ற
வேதனைகள் நம்மை வாட்டினாலும், இன்னும் 15 நாளுக்கு விளையாட்டு திரு விழாவான ஒலிம்பிக்
போட்டி சிட்னியில் நடக்கிறது. மில்லினம் ஆண்டின் முதல் ஒலிம்பிக் போட்டி என்பதால்
வழக்கத்தை விட சிட்னிநகரம் தன்னை அதிகமாக அலங்கரித்துக்கொண்டுள்ளது. 300 நாடுகளில்
இருந்து 11 ஆயிரம் வீரர்-வீராங்கனைகள் சாதனை கனவுகளோடு இந்தப் போட்டியில் களம்
கண்டுள்ளனர். இந்தியாவில் இருந்தும் 71 பேர் ஒலிம்பிக் மோதல் களத்தில் உள்ளனர். </p><p>
</p><p>
தடகளம், நீச்சல், டென்னிஸ், ஜிம்னாஸ்டிக், கைப்பந்து, கூடைப்பந்து, கால்பந்து உள்பட
மொத்தம் 32 பிரிவுகளில் போட் டிகள் நடத்தப்படுகின்றன. இந்திய அணி 12
விளையாட்டுகளில் பங்கேற்கிறது. தங்கப்பதக்கத்தை குறிவைத்து களம் கண்டுள்ள
வீரர்-வீராங்கனைகளில் முன்னணி பெற்ற சிலரை பற்றி இங்கே காண்போம். </p><p>
</p><p>
மரியன் ஜோன்ஸ் </p><p>
</p><p>
அதிகமான ரசிகர்கள், கவர்ச் சியான போட்டி என சிட்னி ஒலிம்பிக் பந்தயம் எத் தனையோ
விதத்தில் சிறப்பு பெற்றிருந்தாலும், தடகள வீராங்கனை மரியன் ஜோன்ஸ் விஷயத்திலும்
சிட்னி ஒலிம்பிக் சாதனை பக்கத்தை மாற்றி எழுதும் என்று எதிர்பார்க்கப்படுகிறது. 25
வயதான மரியன் ஜோன்ஸ் 100மீ., 200மீ., நீளம் தாண்டுதல் மற்றும் இரு தொடர் ஓட்டங்கள்
என மொத்தம் 5 போட்டிகளில் கலந்து கொள்ள தகுதிபெற்றுள் ளார். சமீபத்தில் நடந்த உலக
கோப்பை மோதலில் 3 தங்கப் பதக்கம் வென்று சாதனை படைத்தவரான மரியன், இந்த
ஒலிம்பிக்கில் 5 பதக்கம் கைப் பற்றுவேன் என்ற சபதத்துடன் களம் இறங்கியுள்ளார். </p><p>
</p><p>
உலக கோப்பை குண்டு எறிதல் போட்டியில் தங்கப் பதக்கம் வென்ற ஹன்டர் இவரின் கணவர்
ஆவார். பரிதாபம், மரியனின் கணவர் கடைசிநேரத் தில் காயம் காரணமாக ஒலிம்பிக்
போட்டியில் இருந்து விலகி விட்டார். இல்லை என்றால் அவரும் ஒரு தங்கத்தை கைப்பற்றி
சாதனை செய்திருப்பார். ஆனா லும் கணவருக்கு கிடைக்க வேண் டிய பதக்கத்தையும் சேர்த்து நான்
கைப்பற்றுவேன் என்று நம்பிக் கையுடன் சொல்லிக்கொள்ளும் இந்த இளம் வீராங்கனை வாய்
சொல் வீராங்கனை அல்ல. 100மீ. ஓட்டத்தை 10.65 விநாடியில் கடந்து சாதனை செய்துள்ள
ஜோன்ஸ் சிட்னி ஒலிம்பிக் இந்த சாதனையையும் முறியடிப்பேன் என்று கூறியுள்ளார். </p><p>
</p><p>
ஆனாலும் ஜோன்ஸ் நம் பிக்கையில் லேசான தடுமாற்றம் இருக்கிறது. உலக கோப்பை மோதலிலும்
இப்படித்தான் சாதனைக் கனவுகளோடு ஜோன்ஸ் காத்திருக்க 200மீ. ஓட் டம் முடிந்ததும் தசை
பிடிப்பு ஏற்பட்டு தொடர்ந்து கலந்து கொள்ள முடியவில்லை. அது போன்ற பரிதாபம் நடக்காமல்
இருந்தால் நிச்சயம் பெண்கள் தடகள சரித்திரத்தை ஜோன்ஸ் மாற்றி எழுதுவார் என்று நம்ப லாம்.
பெண்கள் தடகளத்தில் இதுவரை யாரும் 4 பதக்கங் களுக்குமேல் பெற்றது கிடையாது. </p><p>
</p><p>
மவுரிஸ் கிரீன் (அமெரிக்கா) </p><p>
</p><p>
உலகின் வேகமான வீரர் மவுரிஸ் கிரீன். சொல் அளவில் நிற்காமல் இதை நிரூபித்தும்
காட்டிவிட்டார். கடந்த 97-ம் ஆண்டு ஏதென்சில் நடந்த உலக சாம்பியன் தடகளத்தில் டோனோ
வன் பெய்லியை தோற்கடித்து 100மீ. ஓட்டத்தில் தங்கம் வெற்றார். தங்கம் என்று மட்டும்
சொல்வதை விட சரித்திரத்தை மாற்றினார் என்பதே சரியாக இருக்கும். 100மீ. ஓட்டத்தில்
9.79விநாடி என்ற புதிய சாத னையை ஏதென்சில்தான் கிரீன் செய்தார். கடந்த 95-ம் ஆண்டே
சர்வதேச அரங்கை கதிகலங்கை வைக்கும் தகுதி பெற்றுவிட்ட போதும், தொடர்ந்து ஏற்பட்ட பல
காயங்கள் அவரின் சாதனைக்கு முட்டுக்கட்டையாகவே இருந்தது. இதனால் ஒலிம்பிக் தகுதி மோதல்
மற்றும் உலக சாம்பியன் தடகளம் ஆகியவைகளில் கிரீன் கலந்து கொள்ளமுடியாத நிலை ஏற்பட்டது.
</p><p>
</p><p>
உள்ளுக்குள் தேக்கி வைத்தி ருந்த வேகத்தை 96-ம் ஆண் டின் பிற்பகுதியில் நிரூபித்து
விட்டார் கிரீன். நடப்பு உலக சாம்பியன் என்ற பெருமையை தக்கவைத் திருந்த கார்ல்
லூவிசை பின்னுக்கு தள்ளிவிட்டு டெக்ஸாஸ் தடகளத் தில் கிரீன் 100மீ. ஓட்டத்தில் முதல்
பரிசை வென்றார். இதன் பின்னர் மீண்டும் கிரீன் பக்கம் அதிர்ஷ்டம் தொடர்ந்து அடிக்க
தொடங்கிவிட்டது. எனவே நிச் சயம் சிட்னி ஒலிம்பிக் போட்டி யில் தனது சாதனையை முந்து
வார் என்ற எதிர்பார்ப்பு ஏற் பட்டுள்ளது. 200மீ. ஓட்டத்தில் காயம் காரணமாக இவர்
கலந்து கொள்ள வில்லை. </p><p>
</p><p>
டோனோவன் பெய்லி (கனடா) </p><p>
</p><p>
33 வயதான கனடா வீரர் டோனோவன் பெய்லி சிட்னி ஒலிம்பிக் 100மீ. ஓட்டத்தில் களம்
இறங்குகிறார். இவரும் அமெரிக்க வீரர் என்ற கருத்து பரவலாக இருந்தாலும், கடந்த 1981-ம்
ஆண்டே ஜமைக்காவில் இருந்து கனடாவுக்கு இடம் பெயர்ந்து விட்டார். தனது 23 வயது வரை தேசிய
தரவரிசை போட்டிகளில் கூட கலந்து கொள்ளாமல் இருந்த பெய்லி கடந்த 95-ம் ஆண்டு நடந்த உலக
சாம்பியன் தடகளத் தில் அனைவரையும் வியப்பில் ஆழ்த்தினார். 100மீ. மற்றும் 4றூ100மீ.
தொடர் ஓட்டத்தில் பெய்லி தங்கப்பதக்கம் கைப்பற் றினார். அமெரிக்க வீரர் லின்
போர்டு கிறிஸ்டி, சம்பந்தப்பட்ட போட்டியில் கலந்துகொள்ளா ததால்தான் பெய்லி வெற்றி
பெற்றார் என்று பரவலாக ஒரு பேச்சு எழுந்தது. இந்த வீண் பேச்சைக்கண்டு கொஞ்சமும்
கலங்காத பெய்லி, அட்லாண்டா ஒலிம்பிக்கில் மீண்டும் தனது திறனை நிரூபித்தார்.
அட்லாண்டா போட்டியில் லின்போர்டு கிறிஸ் டியும் கலந்து கொண்டார் என்பது
குறிப்பிடத்தக்கது. எனவே மவு ரிஸ் கிரீனுக்கு இந்தமுறை பெய்லி கடும் சவாலாக இருப்பார். </p><p>
</p><p>
அலெக்சாண்டர் பொபவ் (ரஷ்யா) </p><p>
</p><p>
தனது 17 வயதில் முதல் உலக மோதலில் பதக்கம் பெற்ற ரஷ்ய நீச்சல் வீரரான பொபவ்,
சிட்னி ஒலிம்பிக்கில் சாதிக்கும் நோக்கில் களம் கண்டுள்ளார். அளவுக்கு அதிகமான
உடல்வளர்ச்சி பற்றி பலர் குறை சொன்னாலும், சிட்னியில் சாதிப்பேன் என்று கங்கணம்
கட்டிக்கொண்டு களத்தில் இறங்கி உள்ளார். இவர் தனது 8 வயது வரை நீச்சல் பற்றி எதுவுமே
தெரியாமல் இருந்தது குறிப்பிடத்தக்கது. </p><p>
</p><p>
இயன் தோர்ப் (ஆஸ்திரேலியா) </p><p>
</p><p>
ஆஸ்திரேலிய வீரர் இயன் தோர்ப்பும் சிட்னி ஒலிம்பிக் நீச் சல் போட்டியில் பதக்கம்
வெல் லும் நம்பிக்கையை உண்டாக்கி உள்ளார். 200மீ., 400மீ. மற்றும் 800மீ. பிரிஸ்டைல்
பிரிவுகளில் ஏற்கனவே பதக்கம் வென்று தோர்ப் சாதனை படைத்துள்ளார். </p><p>
</p><p>
மைக்கேல் ஜான்சன் (அமெரிக்கா) </p><p>
</p><p>
தடகள வரலாற்றில் சிறந்த சாதனையாளர்கள் பட்டியலில் முதல் 15 இடத்துக்குள் மைக்கேல்
ஜான்சனின் சாதனைகள் இடம் பெற்றுள்ளன. கடந்த அட்லாண்டா ஒலிம்பிக் போட்டியில் 200மீ.
மற்றும் 400மீ. ஓட்டத்தில் தங்கம் வென்ற ஜான்சன், அதே நம்பிக் கையில் களம்
புகுந்துள்ளார். வயதாகிவிட்டதால் பல நெருக் கடிகளை சந்திக்க வேண்டிய கட்டாயம் ஜான்சனுக்கு
ஏற்பட் டுள்ளது. ஆனாலும் தன்னால் முடியும் என்ற நம்பிக்கை ஜான் சனை ஊக்கப்படுத்தி உள்ளது.
என்னை அணியில் இருந்து தூக்கி எறியும்வரை நானாக விலக மாட்டேன் என்று கூறியுள்ள
ஜான்சன், 2004 ஒலிம்பிக் போட்டியிலும் பங்கேற்பேன் என்பதை இப்போதே உறுதி செய்து
விட்டார். </p><p>
</p><p>
கேத்தி பிரிமென் (ஆஸ்திரேலியா) </p><p>
</p><p>
பெண்கள் தடகளத்தில் மற்ற வீராங்கனைகளுக்கு கடும் சவால் கொடுக்க ஆஸ்திரேலியாவின்
பிரிமென் காத்திருக்கிறார். உலக சாம்பியன் 400மீ. ஓட்டத்தில் அடுத்தடுத்து 2 முறை
தங்கப் பதக்கத்தை கைப்பற்றி மற்ற வீராங்கனைகளை அச்சம் கொள்ள வைத்துள்ளார். சிட்னி
ஒலிம்பிக் போட்டியில் 400மீ. மற்றும் 4றூ400மீ. ஆகிய பிரிவுகளில் பிரிமென்
பங்கேற்கிறார். </p><p>
</p><p>
இப்படி எத்தனையோ வீரர்- வீராங்கனைகள் இருந்தாலும், புதிய சாதனையாளர்களின் உதயத்தை
யாராலும் தடுக்க முடியாது. கணிப்புகளை பொய்யாக்கி சாதனை பட்டியலை சொந் தமாக்கிக்
கொள்ளும் நோக்கிலும் பல புது முகங்கள் மோதல் களத்தில் உள்ளன. எனவே சிட்னி ஒலிம்பிக்
பழைய வரலாற்றை மாற்றி எழுதும் என்று நம்பலாம் </p>

<p> </p>

<p>தடகளத்தில் தடுமாறும்
இந்தியா</p>

<p> </p>

<p>ஆசைக்கு வேண்டுமானால் ஒலிம்பிக் தடகளத்தில் இந்தியாவுக்கு
பதக்கம் கிடைக்கும் என்று கூறிக்கொள்ளலாம். ஆனால் இந்த விஷயத்தை ஆழமாக கொஞ்சம்
யோசித்துப்பார்த்தால், முக்கிய சுற்றுக்கு முன்னேறுவதே பெரிய கேள்விக் குறியாகத்தான் இருக்
கிறது. இந்த சாதனைக்காகத்தான் ஆண்டாண்டுக்கும் இந்திய அணியினரும் போராடிக் கொண்டு
இருக்கிறார்கள். 4 ஆண்டுக்கு ஒருமுறை ஏதோ ஒரு வௌிநாட்டில் பயிற்சி எடுத் துக்கொள்ளும்
நோக்கில் மட் டுமே இந்திய தடகள நாயகர்கள் ஒலிம்பிக் மோதலுக்கு செல் கிறார்கள்.
சாதிக்கும் எண்ணம் கொஞ்சமும் இல்லாமல் ஏதோ ஒரு சலிப்புடன் செல்லும் இந்திய
வீரர்-வீராங்கனைகளை நினைத் தால் வேதனைதான் மிஞ்சுகிறது. காலம்காலமாக நம்மை
துரத்தும் இந்த பரிதாபத்துக்கு வீரர்களின் உடல்தகுதியில் குறைவா? அல்லது நமது தரத்தில்
முன்னேற்றம் இல்லையா? என்பது இன்னும் சரியா புலப்படவில்லை. </p><p>
</p><p>
வீரர்களிடம் வெறித்தனமான அணுகுமுறை, போதிய பயிற்சி போன்ற சில அம்சங்கள் காணா மல்
போனதுதான் பதக்கம் வெல் லும் கனவு தொடர்ந்து நமக்கு கானல் நீராகவே தோன்றுகிறது.
மில்காசிங் (1960-ம் ஆண்டு), குர்பச்சன்சிங் (1964), ராம் (1976) மற்றும் பி.டி.உஷா
(1984) இப்படி விரல்விட்டு எண்ணக் கூடிய அளவுக்குத்தான் தடகள சாதனையாளர்கள் நம்மிடம்
இருந்துள்ளனர். ஒலிம்பிக் போட்டிகளில் இவர்கள் பதக்கம் வென்றிராவிட்டாலும்கூட, நமக்
கெல்லாம் எட்டாக்கனியாக இருக்கும் ஒலிம்பிக் முக்கிய சுற்று வரை தகுதி பெற்றுள்ளனர். </p><p>
</p><p>
நம்மை தொற்றிக்கொண்ட இந்த பரிதாப முடிவுக்கு வீரர்- வீராங்கனைகளை மட்டும் குறை
சொல்லுவதில் அர்த்தம் கிடையாது. பொறுப்பற்ற இந்திய விளையாட்டுத்துறை நிர்வாகி களும்
முக்கிய காரணம். கடந்த 40 ஆண்டுகளில் மட்டும் 27 ஆயிரம் தடகள பயிற்சியாளர்களை உரு
வாக்க முடிந்த இந்தியாவால் திறமையான ஒரு வீரரைகூட கண்டுபிடிக்க முடியாமல் போனதுதான் பெரிய
கேவலம். </p><p>
</p><p>
இந்த விஷயத்தில் சீனாவுடன் நம்மை ஒப்பிட்டு பார்த்தால் ஓரளவு உண்மை தெரியும். கடந்த
1958-ம் ஆண்டு வரை ஆசிய விளையாட்டுப் போட்டியில் சீனா இடம் பெறவே இல்லை. ஆனால்
இன்றைய நிலையில், சீனாவின் விளையாட்டு சாதனையை நம் மால் வாயைபிளந்து வியப்பாக மட்டுமே
பார்க்க முடிகிறது. காரணம், அறிவியல் சம்பந்தப் பட்ட அவர்களின் விளையாட்டு அணுகுமுறைதான் </p><p>
</p><p>
அதற்காக இந்த ஆண்டே திட்டங்களை மாற்றி சாதிக்க துடிப்பதில் எந்த அர்த்தமும் கிடையாது.
இனிவரும் 2004-ம் ஆண்டு ஒலிம்பிக் போட்டியி லாவது சாதனைக்கு முயற்சிக்க லாம். சாதனை
என்பது பதக்கம் வெல்வதில் மட்டும் கிடையாது, தடகளத்தை பொறுத்தவரை ஒலிம்பிக் முக்கிய
சுற்றுக்கு முன்னேறினாலே அது சாதனை யிலும் பெரிய சாதனைதான் இதற்கான முயற்சியில் திட்ட
மிட்டு இறங்கினால், மில்காசிங் போன்ற தரமான, சாதிக்கும் வீரர்களை உருவாக்கலாம்.
சொல் லில் மட்டுமின்றி, இந்திய விளை யாட் டுத்துறை இந்த விஷயத்தில் கொஞ்சம்
அக்கறை காட்டினால் ஏக்கங்களோடு காத்திருக்கும் இந்திய ரசிகர்களுக்கு லேசான ஆறுதல்
ஏற்படும். </p>

<p> </p>

<p>பயிற்சிக்காக களமிறங்கும்
இந்தியா</p>

<p> </p>

<p>ஒலிம்பிக் போட்டி என்ன தான் உலக அரங்கில் பெரிய
எதிர்பார்ப்பை உண்டாக்கினாலும், இந்தியாவை பொறுத்தவரை பரிதாபம் மட்டுமே பரிசாக கிடைத்து
வருகிறது. கடந்த அட்லாண்டா ஒலிம்பிக் போட்டியில் இந்தியாவுக்கு ஒரே ஒரு வெண்கலப்
பதக்கம் மட்டும்தான் கிடைத்தது. டென்னிஸ் ஒற்றையர் ஆட்டத்தில் லியாண்டர் பெற்ற
வெற்றியால் பதக்கப்பட்டியலில் இந்தியாவும் சேர்க்கப்பட்டது. ஆனால் நம்மை விட
பரப்பளவில் சிறிய நாடுகளாக இருந்தாலும், பதக்க வேட்டையில் மற்ற அணிகள் காட்டும் வேகம்
நமது வீரர்களி டம் காணாமல் போனது தலைகுனிவை உண்டாக்குகிறது. </p><p>
</p><p>
ஆனால் இந்தமுறை சிட்னி ஒலிம்பிக் போட்டியில் இந்தியா வின் பதக்க எண்ணிக்கை கடந்த
ஆண்டைவிட கூடும் என்று எதிர் பார்க்கப்படுகிறது. தடகளப் போட்டியில் நமது அணியினர் இறுதிப்
பலப்பரீட்சைக்கு முன்னேறினால் கூட அது நமக்கு கிடைத்த வெற்றியாக கருதலாம். டென்னிஸ்,
ஹாக்கி, பெண்கள் எடை தூக்குதல், குத்துச்சண்டை ஆகிய 4 பிரிவுகளில் இந்தியா வுக்கு
நிச்சயம் பதக்கம் கிடைக்க வாய்ப்பு இருக்கிறது. </p><p>
</p><p>
பாங்காங் ஆசிய விளையாட்டுப்போட்டியில் தங்கம் வென்றதால் ஒலிம்பிக் ஹாக்கி போட்டிக்கு
இந்தியா நேரடியாகத் தகுதி செய்யப்பட்டது. சிட்னி ஒலிம்பிக்கில் இந்திய அணிக்கு சவாலாக,
அர்ஜென்டினா, ஆஸ்திரேலியா, தென்கொரியா, ஸ்பெயின் மற்றும் போலந்து அணிகள் உள்ளன.
தென் ஆப் பிரிக்கா அணி கடைசி நேரத்தில் போட்டியில் இருந்து விலகிக் கொண்டதால்
அர்ஜென்டினா வுக்கு சிட்னியில் பங்கேற்கும் வாய்ப்பு கிடைத்தது. இந்த ஆட்டம்தான்
இந்தியாவுக்கு மிகவும் முக்கியமானதாகும். வேகமாக ஆடுவதில் திறமை பெற்ற அர்ஜென்டினாவை
வீழ்த்தி விட்டால் மனதளவில் இந்திய அணி தெம்பாகிவிடும். இதன் பின்னர் தென் கொரியா,
போலந்து ஆகிய அணிகளை தோற்கடிக்க இந்தியாவுக்கு எளிதாக வாய்ப்பு உள்ளது. இந்திய அணி
பிரிவில் ஆஸ்திரே லியா மற்றும் ஸ்பெயின் அணிகள் வலுவானதாக கணிக்கப்பட்டுள் ளது. இந்த
இருஅணிகளுடன் தோல்வியை தவிர்த்தாலே அரை இறுதி வாய்பை இந்திய அணி எளிதாக எட்டிவிடும். </p><p>
</p><p>
ரமன்தீப் சிங் தலைமையில் சிட்னி சென்றுள்ள இந்திய அணியில் தன்ராஜ் பிள்ளை,
முகேஷ்குமார், ரியாஸ் போன்ற மூத்த வீரர்கள் இடம் பெற்றுள்ளனர். இந்திய அணி ஒலிம்பிக்
போட்டியில் கடந்த 1980-ம் ஆண்டு கடைசியாக தங்கப் பதக்கம் வென்றது. அப்போது இந்திய
அணியை சாம்பியன் கோப்பைக்கு வழி நடத்தி சென்ற பாஸ்கரன் சிட்னி போட்டிக்கான இந்திய
அணிக்கு பயிற்சியாளராக உள்ளார். எனவே பாஸ்கரனின் முதிர்ந்த அனுபவம் இந்திய வீரர்களுக்கு
கை கொடுக்கும். </p><p>
</p><p>
ஹாக்கி போட்டிக்கு அடுத் தப்படியாக டென்னிஸ் விளை யாட்டில் மட்டுமே இந்தியா பதக்கம்
வெல்லும் என்று உறுதியாக கூறமுடியும். அகாசி, சம்ராஸ் போன்ற வலுவான வீரர்கள் ஒலிம்பிக்கில்
கலந்து கொள்ளாத போதும், ஒற்றையர் ஆட்டத்தை பொறுத்தவரை இந்திய வீரர்கள் இன்னும்
சர்வதேச தரத்துக்கு உயரவில்லை என்றுதான் சொல்ல வேண்டும். ஆனால் இரட்டையர் மோதலில்
இந்தியாவுக்கு நிச்சயம் பதக்கம் உண்டு என்பது வல்லுனர்களின் கணிப்பு. </p><p>
</p><p>
லியாண்டர் பயஸ்-மகேஷ் பூபதி ஆகியோர் தங்களுக்குள் இருந்த பிரிவுக்கு சமீபத்தில் தான்
முற்றுப்புள்ளி வைத்தனர். இதனால் சிட்னியில் இவர்கள் ஒன்றாக இணைந்து களம் இறங்
குகிறார்கள். லியாண்டர்-மகேஷ் ஒன்றாக சேர்ந்து விட்டதால் ஆஸ்திரேலியாவின் உட்டீஸ்
ஜோடிக்கு லேசான நடுக்கம் உண்டாகி உள்ளது. கடந்த ஆண்டு நடந்த 4 கிராண்ட்சிலாம் இறுதிப்
போட்டிக்கும் லியாண்டர்- மகேஷ் ஜோடி முன்னேறியதோடு 2 போட்டிகளில் சாம்பியன்
பட்டத்தையும் வென்றது. அதுமட் டுமின்றி கடந்த ஆண்டு முழுவ தும் இந்திய ஜோடியான லியாண்
டர்-மகேஷ் ஆகியோர்கள்தான் இரட்டையர் தரவரிசையில் முதலிடத்தை தக்க வைத்திருந்தனர்
என்பது குறிப்பிடத்தக்கது. </p><p>
</p><p>
பெண்கள் எடை தூக்குதலில் கர்ணம் மல்லேஸ்வரி, பெய்ஜன் சனமாச்சா, ஷானு ஆகியோரும் பதக்க
நம்பிக்கை ஊட்டி உள்ளனர். ஆசிய விளையாட்டில் தங்கம் வென்ற டிங்கோசிங் (குத்துச் சண்டை)
உடல் தகுதி குறைவு காரணமாக தகுதி நீக்கம் செய்யப்படும் அபாயம் உண்டாகி உள்ளது. ஆனாலும்
கியூபா வீரர்களின் சவாலை சமாளிக்க இந்திய அணியில் ஜித்தேந்தர் சிங், சுரேஷ் சிங்,
குருச்சரண்சிங் ஆகியோர் நம்பிக்கையுடன் காத்திருக்கிறார்கள். மற்றபடி பயிற்சியாவது
எடுக்கலாம் என்ற நோக்கில் தடகளம், பேட்மிண் டன், ஜூடோ, படகு ஓட்டுதல், துப்பாக்கி
சுடுதல், நீச்சல், டேபிள் டென்னிஸ், மல்யுத்தம் ஆகிய போட்டிகளிலும் இந்திய அணியினர்
கலந்து கொள்கிறார்கள். </p>

<p> </p>

<p>விளையாட்டு துளி</p>

<p>  </p>

<p>சிட்னி, செப்.14- ஒலிம்பிக் போட்டியில் பதக்கம் வெல்லும்
கனவில் இந்திய வீரர்-வீராங்கனைகள் சிட்னிக்கு அடிஎடுத்து வைத்துள்ளனர். தொடக்க
விழாவின் போது ஒவ்வொரு நாட்டு வீரர்- வீராங்கனைகளின் அணி வகுப்பு, ஒலிம்பிக்
போட்டியின் சிறப்பு அம்சம் ஆகும். இந்த அணிவகுப்பின்போது இந்திய தேசிய கொடியை
ஏந்திச்செல்லும் வாய்ப்பு டென்னிஸ் வீரர் லியாண்டர் பயசுக்கு வழங்கப்பட்டது. கடந்த
அட்லாண்டா ஒலிம்பிக் போட்டியில் இந்தியாவுக்கு கிடைத்த ஒரேஒரு பதக்கத் தையும் இவர்தான்
வென்றார். </p>

<p>விமானநிலையத்தில்
தாமதம்</p>

<p>இந்த மரியாதையை ஏற்க இவர் வருவாரா? மாட்டாரா? என்ற குழப்பத்தில் ஒட்டு
மொத்த இந்தியஅணியும் தவித்தது. மாற்றுஏற்பாடாக இந்திய ஹாக்கி வீரர் தன்ராஜ்
பிள்ளையும் தேர்வு செய்யப்பட்டார். இந்தநிலையில் அமெரிக் காவில் இருந்து லியாண்டர்
பயஸ் நேற்று சிட்னி வந்து சேர்ந்தார். சிட்னி விமான நிலையத்தில் லியாண்டரின்
பொருட்கள் தவறிவிட்டதால் ஒலிம்பிக் கிராமம் வந்து சேர்வ திலும் தாமதம் ஏற்பட்டது.
இரட்டையர் மோதலில் லியாண் டரின் ஜோடியான மகேஷ் பூபதி இன்று மதியத்திற்குள் சிட்னி
வந்து சேர்வார் என்று தகவல் வௌியாகி உள்ளது. </p>

<p>சிட்னி ஒலிம்பிக் போட்டிக்காக நடந்த போதை மருந்து உபயோக
சோதனையில் சென்போபூ (தைவான்), இவா பிராண்ட் செவா (பல்கேரியா), ஏவ்னியா
எர்மோகோவா (கஜகஸ்தான்) ஆகியோர் சிக்கியுள்ளனர். இதனால் இவர்கள் தடை
செய்யப்படவும் வாய்ப்பு ஏற்பட்டுள்ளது. </p>

<p> </p>






</body></text></cesDoc>