<cesDoc id="tam-w-dinakaran-sports-00-08-24" lang="tam">
<cesHeader type="text">
<fileDesc>
<titleStmt>
<h.title>tam-w-dinakaran-sports-00-08-24.txt</h.title>
<respStmt>
<respType>Electronic file created by</respType>
<respName>Department of Linguistics, Lancaster University</respName>
<respType>text collected by</respType>
<respName>Paul Baker and Celia Worth</respName>
<respType>transferred into Unicode by</respType>
<respName>"Unicodify" software by Andrew Hardie</respName>
</respStmt>
</titleStmt>
<publicationStmt>
<distributor>UCREL</distributor>
<pubAddress>Department of Linguistics, Lancaster University, Lancaster, LA1 4YT, UK</pubAddress>
<availability region="WORLD"></availability>
<pubDate>03-08-24</pubDate>
</publicationStmt>
<sourceDesc>
<biblStruct>
<monogr>
<h.title>"Dinakaran" internet news (www.dinakaran.com), news stories collected on 00-08-24</h.title>
<h.author>Dinakaran</h.author>
<imprint>
<pubPlace>Tamil Nadu, India</pubPlace>
<publisher>Dinakaran</publisher>
<pubDate>00-08-24</pubDate>
</imprint>
</monogr>
</biblStruct>
</sourceDesc>
</fileDesc>
<encodingDesc>
<projectDesc>Text collected for use in the EMILLE project.</projectDesc>
<samplingDesc>Simple written text only has been transcribed. Diagrams, pictures and tables have been omitted and their place marked with a gap element.
</samplingDesc>
<editorialDecl>
<conformance level="1"></conformance>
</editorialDecl>
</encodingDesc>
<profileDesc>
<creation>
<date>03-08-24</date>
</creation>
<langUsage>Tamil</langUsage>
<wsdUsage>
<writingSystem id="ISO/IEC 10646">Universal Multiple-Octet Coded Character Set (UCS).</writingSystem>
</wsdUsage>
<textClass>
<channel mode="w">print</channel>
<constitution type="composite"></constitution>
<domain type="public"></domain>
<factuality type="fact"></factuality>
</textClass>
<translations></translations>
</profileDesc>
<revisionDesc></revisionDesc>
</cesHeader>

<text>
<body>




<p>அழகிகளுடன் ஓட்டலில் கூத்து:
3 பாகிஸ்தான் வீரர்கள் நீக்கம்?</p>

<p> </p>

<p>இஸ்லாமாபாத், ஆக. 24- வாக்கர் யூனுஸ் தலைமையிலான பாகிஸ்தான்
கிரிக்கெட் அணி தற்போது சிங்கப்பூரில் சுற்றுப்பயணம் செய்து 3 நாடு போட்டியில்
ஆடிவருகிறது. சூதாட்ட பிரச்சினை இப்போது தான் ஓரளவு அடங்கி இருக் கிறது. அதற்குள்
பாகிஸ்தான் அணி பற்றிய மற்றொரு செய்தி அனைவரையும் அதிர்ச்சி கொள்ள வைத்துள்ளது.
அழகி களுடன் 3 பாகிஸ்தான் வீரர்கள் கூத்தடித்ததாக சமீபத்தில் பத் திரிகை ஒன்றில்
செய்தி வௌி யானது. சிங்கப்பூர் சுற்றுப்பய ணத்துக்கு அணி புறப்படும் முன்பாக வீரர்கள்
பயிற்சி முகாமில் பங்கேற்றனர். அப் போது அபிரிடி, ஹசன் ராசா, அடிக் உஸ் ஜமான்
(விக்கெட் கீப்பர்) ஆகியோர் அழகிகளை தங்கள் அறைகளுக்குள் அழைத்து சென்றுள்ளனர். பின்
னர் அவர்களுடன் உல்லாசமாக இருந்து விட்டு இந்த விஷயம் வௌியில் தெரியாமல் இருப்பதற்காக
குறிப்பிட்ட அளவு பணத்தையும் கொடுத்துள்ளனர். </p><p>
</p><p>
வீரர்கள் மீது நடவடிக்கை </p><p>
</p><p>
பாகிஸ்தான் பத்திரிகை வௌியிட்ட இந்த செய்தி தற்போது பெரிய பிரச்சினையை கிளப்பி
உள்ளது. சிங்கப்பூர் பயணம் முடிந்து அணி தாயகம் திரும்பியதும் இந்த 3 வீரர்கள் மீதும்
கடும் நடவடிக்கை எடுக் கப்படும் என்று பாகிஸ்தான் போர்டு தரப்பில் கூறப்பட்டுள்ளது.
பாகிஸ்தான் சர்வாதிகாரி முஷாரப் இந்த விஷயம் குறித்து கடுமையான கோபத்தில் உள்ளார்.
எனவே குற்றம் சாட்டப்பட்ட 3 வீரர்களும் உடனடியாக அணியில் இருந்து நீக்கம்
செய்யப்படுவார்கள் என்று எதிர்பார்க்கப்படுகிறது. ஆனால் இந்த குற்றம் குறித்து தங்கள்
நிலைமையை விளக்க வீரர்களுக்கு போதிய வாய்ப்புகள் வழங்கப்படும் என்று பாகிஸ்தான்
போர்டு தெரிவித்தது. </p><p>
</p><p>
குற்றம் சாட்டப்பட்ட 3 பேரும் இளம்வீரர்கள் என்பதால் இவர்களின் எதிர் காலத்தை
கருத்தில் கொண்டு நடவடிக்கை இருக்கும் என்று போர்டு அதிகாரி ஒருவர் தெரி வித்தார்.
விக்கெட் கீப்பர் ஜமான் மீது இந்த ஆண்டில் மட்டும் இது 2-வது பெரிய குற்றச்சாட்டு ஆகும்.
மேற்குஇந்தியதீவு சுற்றுப்பயணத்தின் போது இதே பிரச்சினையில் சிக்கியதால் ஜமான்
உடனடியாக தாயகம் திருப்பி அனுப்பப்பட்டது குறிப்பிடத்தக்கது. இதுகுறித்து முழு அறிக்கை
சமர்பிக்கும்படி பயிற்சியாளர் மியாண்டட்டுக்கும் போர்டு சார்பில் கோரிக்கை
விடப்பட்டுள்ளது. </p>

<p> </p>

<p>தேசிய பெண்கள் ஹாக்கி,
எலினா ஹாட்ரிக் சாதனை: தமிழகம் மீண்டும் வெற்றி</p>

<p> </p>

<p>சென்னை, ஆக.24- தேசிய ஜூனியர் பெண்கள் ஹாக்கிப்போட்டி சென்னை
எழும்பூர் மேயர் ராதாகிருஷ்ணன் ஸ்டேடியத்தில் நடக்கிறது. நேற்றைய ஆட்டத்தில் மோதிய
தமிழக பெண்கள் எந்தவித போராட்டமும் இன்றி எளிதான வெற்றிபெற்றனர். அஸ்ஸாம் அணிக்கு
எதிரான இந்த ஆட்டத்தில் தமிழகம் 22-0 என்ற கோல் கணக்கில் வெற்றிபெற்றது.
முதல்பாதியில் 9 கோல் மட் டுமே அடித்த தமிழக பெண்கள் 2-வது பாதியிலும் ஆதிக்கம்
செய்தனர். அதேசமயம் எதிர் அணிக்கு எந்தவித கோல் வாய்ப்பையும் விட்டுக்கொடுக்காமல்
சாமர்த்தியமாக ஆடியது குறிப்பிடத்தக்கது. </p><p>
</p><p>
எலினா 10 கோல் </p><p>
</p><p>
இந்த ஆட்டத்தில் கிறிஸ்டி எலினா அதிகபட்சமாக 10 கோல்கள் போட்டார். இதில் இரு
ஹாட்ரிக் சாதனை அடங்கும். மற்றபடி தேன்மொழி 4 கோலும், ஜெயசீலி, மரிய அன் பரசு,
நான்சி ஆகியோர் தலா 2 கோலும், சரண்யா மற்றும் தீபா ஆகியோர் தலா ஒருகோலும் போட்டு
தமிழகத்தின் கோல் எண்ணிக்கையை உயர்த்தினர். இத்தோடு 2 மோதல்கள் முடி வில் தமிழகம்
அடித்த கோல் எண்ணிக்கை 34 ஆக உயர்ந்துள்ளது. அதேசமயம் ஒரு கோல் கூட எதிர்அணியிடம்
இருந்து வாங்கவில்லை. முன்னதாக நடந்த முதல்ஆட்டத்தில் தமிழகம் 12-0 என்ற கோல்
வித்தியாசத்தில் மேற்கு வங்காள அணியை தோற்கடித்தது. </p>

<p> </p>

<p>கிராண்ட் மாஸ்டர் செஸ்:
விளாடிமிரோவ் அதிர்ச்சி</p>

<p> </p>

<p>சென்னை, ஆக.24- பென்டாமீடியா கிராண்ட் மாஸ்டர் செஸ் போட்டி
சென்னை கேளம்பாக்கத்தில் நடந்து வருகிறது. இதற்கான நேற்றைய 9-வது சுற்று மோதலில் சென்னை
வீரர் பிரகாஷ் அபார வெற்றிபெற்றார். போட்டியில் கலந்துகொண்டுள்ள மூத்த தரவரிசை
வீரரான விளாடிமிரோவை எதிர் கொண்ட பிரகாஷ் சிறப்பாக ஆடி 41 நகர்த்தலில் வெற்றி
பெற்றார். கஜகஸ்தான் வீரரான விளாடிமிரோவ் தோல்வி சந்தித்தபோதும் இந்த சுற்றுமுடிவில்
6 புள்ளிகளுடன் முதலிடத்தை பிரகாசுடன் பகிர்ந்து கொண்டுள்ளார். </p><p>
</p><p>
9 மோதல்களில் 6 புள்ளிகள் பெற்றதின் மூலம் பிரகாஷ் தனது 2-வது கிராண்ட்மாஸ்டர் தகுதி
பெற்றுள்ளார். இன்னும் ஏற்கனவே கல்கத்தாவில் நடந்த போட்டியில் இந்த தகுதிபெற் றிருப்பது
குறிப்பிடத்தக்கது. இது போல் இன்னும் ஒருபோட்டி யில் பிரகாஷ் சாதித்தால் இந்தியாவின்
கிராண்ட்மாஸ்டர் தகுதியை அவர் எட்டுவார் என்று தலைமை போட்டி கண்காணிப்பாளர் மனுவேல்
ஆரோன் தெரிவித்தார். </p><p>
</p><p>
சசிகிரண் 3-வது இடம் </p><p>
</p><p>
போட்டி தொடக்கம் முதல் புள்ளி பட்டியலில் முன்னணி பெற்ற சசிகிரண் 5.5 புள்ளிகளுடன்
3-வது இடத்தில் உள்ளார். இவருக்கு நேற்றைய நாளில் மோதல் எதுவும் ஒதுக்கப்பட வில்லை.
இந்தியவீரர் ஹரி கிருஷ்ணா மற்றும் ரீபத்பின் சத்தார் (வங்காளதேசம்) ஆகி யோரும்
நேற்றைய மோதல் களில் வெற்றிபெற்றனர். </p>

<p> </p>






</body></text></cesDoc>