<cesDoc id="tam-w-dinakaran-sports-00-12-13" lang="tam">
<cesHeader type="text">
<fileDesc>
<titleStmt>
<h.title>tam-w-dinakaran-sports-00-12-13.txt</h.title>
<respStmt>
<respType>Electronic file created by</respType>
<respName>Department of Linguistics, Lancaster University</respName>
<respType>text collected by</respType>
<respName>Paul Baker and Celia Worth</respName>
<respType>transferred into Unicode by</respType>
<respName>"Unicodify" software by Andrew Hardie</respName>
</respStmt>
</titleStmt>
<publicationStmt>
<distributor>UCREL</distributor>
<pubAddress>Department of Linguistics, Lancaster University, Lancaster, LA1 4YT, UK</pubAddress>
<availability region="WORLD"></availability>
<pubDate>03-08-24</pubDate>
</publicationStmt>
<sourceDesc>
<biblStruct>
<monogr>
<h.title>"Dinakaran" internet news (www.dinakaran.com), news stories collected on 00-12-13</h.title>
<h.author>Dinakaran</h.author>
<imprint>
<pubPlace>Tamil Nadu, India</pubPlace>
<publisher>Dinakaran</publisher>
<pubDate>00-12-13</pubDate>
</imprint>
</monogr>
</biblStruct>
</sourceDesc>
</fileDesc>
<encodingDesc>
<projectDesc>Text collected for use in the EMILLE project.</projectDesc>
<samplingDesc>Simple written text only has been transcribed. Diagrams, pictures and tables have been omitted and their place marked with a gap element.
</samplingDesc>
<editorialDecl>
<conformance level="1"></conformance>
</editorialDecl>
</encodingDesc>
<profileDesc>
<creation>
<date>03-08-24</date>
</creation>
<langUsage>Tamil</langUsage>
<wsdUsage>
<writingSystem id="ISO/IEC 10646">Universal Multiple-Octet Coded Character Set (UCS).</writingSystem>
</wsdUsage>
<textClass>
<channel mode="w">print</channel>
<constitution type="composite"></constitution>
<domain type="public"></domain>
<factuality type="fact"></factuality>
</textClass>
<translations></translations>
</profileDesc>
<revisionDesc></revisionDesc>
</cesHeader>

<text>
<body>




<p>லியாண்டர்-மகேஷ் ஜோடி
சாதிக்குமா? சர்வதேச இரட்டையர் டென்னிஸ்: பெங்களூரில் இன்று தொடக்கம்</p>

<p> </p>

<p>பெங்களூர், டிச.13- இந்தியாவில் டென்னிஸ் ரசி கர்கள் எண்ணிக்கை
நாளுக்கு நாள் அதிகமாகிக் கொண்டி ருப்பதை உணர்ந்து, கடந்த சில ஆண்டுகளாக சென்னையில்
சர்வதேச ஏ.டி.பி. ஒற்றையர் டென்னிஸ் போட்டி நடத்தப் பட்டு வருகிறது. இந்த வரிசை யில்
சர்வதேச இரட்டையர் சாம் பியன் பந்தயம் முதல்முறையாக இந்தியாவில் நடத்தப்படுகிறது.
பெங்களூரில் நடக்கும் இந்தப் போட்டியில் இரட்டையர் டென் னிஸ் தரவரிசையில் முன்னணி
பெற்றுள்ள முதல் 8 ஜோடி பங் கேற்றுள்ளது. ஆனால் ஆஸ்தி ரேலியாவின் மார்க் உட்
போர்டு-டாட் உட்பிரிட்ஜ் ஜோடி இந்தப்போட்டியில் கலந்து கொள்ள வில்லை. </p><p>
</p><p>
லியாண்டர்-மகேஷ் ஜோடி </p><p>
</p><p>
நடப்பு சாம்பியனான னாஉட்டீஸ் ைஜோடி கலந்து கொள் ளாத காரணத்தால், பட்டம் வெல்வதற்கான
சவால் குறைந் துள்ளது. இந்தியாவின் லியாண்டர் பயஸ் மற்றும் மகேஷ் பூபதி ஜோடி இந்த ஆண்டு
பெரிய சாதனைகள் எதையும் செய்ய வில்லை என்ற போதும், நேரடித்தகுதி கொடுக் கப்பட்டது.
கடந்த ஆண்டு விம் பிள்டன், பிரெஞ்சு ஓபன் பட் டங்கள் தவிர மற்ற இரு
கிராண்ட்சிலாம் போட்டிகளின் இறுதி மோதலுக்கு முன்னேறிய இந்திய ஜோடி பின்னர் பிரிந்
தது. சமீபத்தில் நடந்த ஒலிம்பிக் போட்டியின் போது மீண்டும் இந்திய வீரர்கள்
இணைந்தனர். </p><p>
</p><p>
ரூ.1.10 கோடி முதல்பரிசு </p><p>
</p><p>
இதனால் இரட்டையர் டென் னிஸ் போட்டியில் சாம்பியன் பட்டம் வென்று மீண்டும் நம்பர் ஒன்
தகுதியை எட்டும் நெருக்க டிக்கு இந்திய வீரர்கள் தள்ளப் பட்டுள்ளனர். போட்டியில் பங்
கேற்றுள்ள வீரர்களில் இந்திய ஜோடிதான் கடைசி தரவரிசை பெற்றுள்ளது. எனவே இந்திய
வீரர்களின் சாம்பியன் வாய்ப்பு கனவாகவே இருக்கிறது. இருந் தாலும் உள்ளூர் ரசிகர்களின்
உற்சாகத்துக்கு இடையே இந்திய வீரர்கள் ஆதிக்கம் செய்தாலும் ஆச்சரியப் படுவதற்கு இல்லை. </p><p>
</p><p>
மோதலில் பங்கேற்றுள்ள 8 ஜோடியும் இரு பிரிவாக பிரிக் கப்பட்டு ரவுண்ட் ராபின்
முறையில் ஆட்டங்கள் நடக்கின் றன. இந்த சுற்றில் ஒவ்வொரு பிரிவிலும் முதல் இரு இடங் களை
எட்டும் அணிகள் அரை இறுதிக்கு தேர்வு செய்யப்படும். சாம்பியன் பட்டம் வெல்லும் அணிக்கு
ரூ.1.10 கோடி பரிசாக கிடைக்கும். </p>

<p> </p>

<p>சென்னை,
டிச.13- இந்திய கிரிக்கெட்டில் நடந்த சூதாட்டம் பற்றி சி.பி.ஐ. தீவிர விசாரணை நடத்தி
அறிக்கை வௌியிட்டது. சி.பி.ஐ. அறிக்கை தொடர்பாக நடவடிக்கைகள் எடுக்க மத்திய அரசு
ஆலோ சித்து வருகிறது. இதற்கிடையில் சி.பி.ஐ. அறிக்கையில் குற்றம் சாட்டப்பட்ட
வீரர்களிடம் கிரிக் கெட் போர்டு மாதவன் தலை மையில் மேல்விசாரணை நடத் தியது. பின்னர்
மாதவன் சமர்ப் பித்த அறிக்கை தொடர்பாக அசாருதீன், அஜய்சர்மா ஆகி யோர்களுக்கு
ஆயுள்தடையும், பிரபாகர் மற்றும் ஜடேஜாவுக்கு 5 ஆண்டு தடையும் கொடுக் கப்பட்டது. இந்த
தண்டனையை எதிர்த்து மேல்முறையீடு செய்ய வும் கிரிக்கெட் போர்டு சம்பந் தப்பட்ட
வீரர்களுக்கு அனுமதி அளித்தது. ஆனால் தற்போது வரை எந்தவீரரும் மேல்முறை யீடு பற்றி
வாய்திறக்கவே இல்லை. </p><p>
</p><p>
சோப்ராவிடம் விசாரணை </p><p>
</p><p>
இந்தநிலையில் இளம் வீரர் நிகில் சோப்ராவிடம் சென்னை யில் நேற்று மாதவன் விசா ரணை
நடத்தினார். சி.பி.ஐ. அறிக்கையில் இருந்து சோப்ரா பெயர் விடுவிக்கப்பட்ட போதும்,
கிரிக்கெட் போர்டு அவரிடம் விசாரணை நடத்த தீர்மானித்தது. சோப்ராவிடம் மட்டுமின்றி,
கபில்தேவ் மற்றும் அஜித் வடேகர் ஆகியோர்களி டமும் அடுத்து விசாரணை நடக்க உள்ளது.
சென்னை மீனம்பாக்கத்தில் உள்ள நட்சத் திர ஓட்டலில் சோப்ராவிடம் விசாரணை
நடத்தப்பட்டது. காலை 10 மணிக்குத் தொடங் கிய இந்த விசாரணை சரியாக மதியம் 12.30
மணிக்கு முடிந் தது. இதன்பின்னர் விசாரணை அதிகாரி மாதவன் மாலையில் நிருபர்களை
சந்தித்தார். அப் போது அவர் அளித்த பேட்டி விவரம் வருமாறு:- </p><p>
</p><p>
நல்ல ஒத்துழைப்பு </p><p>
</p><p>
கேள்வி:- விசாரணையில் சோப்ராவின் ஒத்துழைப்பு எப் படி இருந்தது? </p><p>
</p><p>
பதில்:- தொடக்கத்தில் மிக வும் பதட்டத்துடன் காணப்பட் டார். பின்னர் அதிக
தெம்புடன் என் கேள்விகளுக்கு அவர் பதில் கூறினார். </p><p>
</p><p>
கேள்வி:-சி.பி.ஐ. அறிக்கை யில் இருந்து தப்பிய அவரிடம் விசாரணை நடத்த வேண்டிய அவசியம்
என்ன? </p><p>
</p><p>
பதில்:- கிரிக்கெட் போர்டு என்னிடம் கூறியதால் நான் விசாரிக்கிறேன். மற்றபடி குறிப்
பிட்ட காரணம் எதுவும் கிடை யாது. மேலும் அவருக்கு கிரிக் கெட் எதிர்காலம் இருப்பதால்
விரைவில் அவர்மீதான அறிக் கையை கிரிக்கெட் போர்டுக்கு கொடுப்பேன். </p><p>
</p><p>
கபில்தேவிடம் விசாரணை </p><p>
</p><p>
கேள்வி:- கபில்தேவிடம் விசாரணை எப்போது? </p><p>
</p><p>
பதில்:- வருகிற 29-ந்தேதி வரை எனக்கு தனிப்பட்ட முறை யில் சில வேலைகள் இருக்கிறது. அது
முடிந்ததும் வருகிற 30-ந் தேதி டெல்லியில் கபில்தேவ் மற்றும் வடேகரிடம் விசா ரணை
நடத்துவேன். </p><p>
</p><p>
கேள்வி:-அசாருதீன், ஜடேஜா உள்பட 5 பேர் மீது உங் கள் அறிக்கையின்படி நட வடிக்கை எடுக்கப்பட்டுள்ளது.
இதில் வருத்தம் இருக்கிறதா? </p><p>
</p><p>
பதில்:- நிச்சயமாக மகன் தண்டிக்கப்பட்ட போது ஒரு தந் தையின் மனநிலை எப்படி
இருக்குமோ? அப்படித்தான் நான் உணர்ந்தேன். எனக்கும் மனிதாபிமானம் உண்டு. அதற் காக
தவறு செய்தான் என்பதற் காக மகனை கண்டிக்காமல் யாரும் விட்டுவிடுவதில்லை. </p><p>
</p><p>
கேள்வி:- அசாருதீன், ஜடேஜா ஆகியோர்கள் விசா ரணையில் நெருக்கடி இருந்த தாக செய்திகள்
வந்துள்ளது பற்றி... </p><p>
</p><p>
பதில்:- (சிரித்துக்கொள் கிறார்) நான் இந்த விஷயத்தில் எந்தவித நெருக்கடியையும் சந்
திக்க வில்லை. சுதந்திரமாக செயல்பட்டேன். </p><p>
</p><p>
இவ்வாறு மாதவன் பேட்டி அளித்தார்.</p>

<p> </p>

<p>தந்தை லட்சுமி நாராயணன்
பேட்டி: அரசு உதவினால் ஒலிம்பிக்கில் எனது மகள் பதக்கம் வெல்வாள்</p>

<p> </p>

<p>சென்னை, டிச.13- பஞ்சாப் மாநிலத்தை சேர்ந்த 20 வயது
வாலிபர் ஒரு வர் இதேபோல் 10 ஆயிரத்து 17 முறை உட்கார்ந்து எழுந்து சாதனை
படைத்திருக்கிறார். எனது மகள் இந்த சாதனையை வரும் 2002-ம் ஆண்டுக்குள் முறியடிப்பாள். </p><p>
</p><p>
ஒலிம்பிக் போட்டி </p><p>
</p><p>
எனது மகள் தனலட்சுமி விளையாட்டுத்துறையில் ஆர் வம் படைத்தவள். 3 யீ வயது முதல் இந்த
பயிற்சியை அவள் மேற்கொண்டு வருகிறாள். அவளுக்கு நிறைய செலவுகள் செய்ய வேண்டியிருக்கிறது.
</p><p>
</p><p>
தமிழக அரசு முன்வந்து எனது மகளுக்கு உதவவேண் டும். அப்படி உதவினால் ஒலிம்பிக் போட்டியில்
எனது மகள் 100 மீட்டர் மற்றும் 200 மீட்டர் ஓட்டப்பந்தயத்தில் கலந்துகொண்டு கண்டிப்பாக
பதக்கம் பெறுவாள். </p><p>
</p><p>
சாதனை </p><p>
</p><p>
இந்த சாதனையை நிகழ்த்த அவள் இரவு - பகல் பாராமல் கடினமாக உழைத்தாள். அவ ளுக்கு நானும்
எனது மனைவி யும் நல்லமுறையில் உற்சாகம் கொடுத்தோம். எப்படியாவது எனது மகளை வைத்து ஏதா
வது ஒரு சாதனை நிகழ்த்த வேண்டும் என திட்டமிட்டு இருந்தேன். அதன்படி இப் போது செய்து
முடித்துவிட் டேன். </p><p>
</p><p>
பெற்றோர்களே காரணம் </p><p>
</p><p>
மாணவி சிற்பா தனலட்சுமி இதுபற்றி கூறியதாவது:- </p><p>
</p><p>
இதுபோன்ற சாதனையை நான் செய்யக்காரணம் எனது தாய் - தந்தையர்தான். அவர் கள் என்னை
நல்லமுறையில் ஊக்குவித்தனர். அதேபோல் எனக்கு பாடம் சொல்லிக் கொடுத்த ஆசிரியைகளும்,
என் னுடன் பயிலும் சக மாணவி களும் என்னை உற்சாகப்படுத் தினர். இதைத்தவிர இன்னும் ஏதாவது
ஒரு புதிய உலக சாதனை செய்யும் முயற்சியில் நான் விரைவில் ஈடுபடுவேன். </p><p>
</p><p>
இவ்வாறு அவர்கள் கூறினர். </p>

<p> </p>

<p>விளையாட்டுத்துளிகள்</p>

<p> </p>

<p>ஆஸி. அணிக்கு கில்கிறிஸ்ட் காப்டன் </p><p>
</p><p>
மெல்போர்ன், டிச.13- மேற்கு இந்தியதீவு அணிக்கு எதிரான 3-வது டெஸ்ட் கிரிக்கெட்
போட்டியில் வருகிற 15-ந்தேதி முதல் ஆஸ்திரேலியா மோத உள் ளது. இந்தப்போட்டியில்
பங்கேற்கும் ஆஸ்திரேலிய அணிக்கு விக் கெட் கீப்பர் கில் கிறிஸ்ட் காப்டனாக தேர்வு
செய்யப்பட்டார். 32 ஆண்டு இடை வௌிக்குப்பிறகு விக்கெட் கீப்பர் ஒருவர் காப்டன்
பதவிக்கு வருவது இதுவே முதல்முறையாகும். 2-வது மோதலின் போது ஸ்டீவ்வாக்கிற்கு முதுகுவலி
ஏற்பட்டது. இதனால் அடுத்த ஆட்டத்தில் அவர் ஆட முடியாத நிலை ஏற்பட்டுள்ளது. </p><p>
</p><p>
தென் மண்டல அணிக்கு திராவிட் காப்டன் </p><p>
</p><p>
சென்னை, டிச.13- துலீப் டிராபிக்கான கிரிக்கெட் போட்டியில் தென்மண்டலம்- வடக்கு மண்டல
அணிகள் அடுத்த மாதம் 4-ந்தேதி விஜயவாடா வில் மோத உள்ளது. இந்தப்போட்டியில் கலந்து
கொள்ளும் தென்மண்டல அணிக்கு ராகுல் திராவிட் காப்டனாக தேர்வு செய் யப்பட்டார். கும்ளே
ஆடமுடியாத நிலை ஏற்பட்டால், ராஜு அணியில் சேர்க்கப்படுவார் என்பதையும்
தேர்வுக்குழுவினர் அறிவித்தனர். தியோதர் டிராபிக்கான தென்மண்டல அணிக்கு தமிழக வீரர்
ராபின்சிங் காப்டனாக தேர்வு செய்யப்பட்டார். </p><p>
</p><p>
மாநில கராத்தே: உமா-சுஜாதா சாம்பியன் </p><p>
</p><p>
சென்னை, டிச.13- 22-வது மாநில சாம்பியன் கராத்தே போட்டி சென்னை யில் நடந்தது. 13-15
வயதிற்குட் பட்ட பெண்கள் பிரிவில் கோவை வீராங்கனை உமா சரஸ்வதி சாம்பியன் பட்டம்
வென்றார். ஹரிதா (கோவை) மற்றும் மிருனாநிலினி (திரு வாரூர்) ஆகியோர் அடுத்த இரு
இடங்களை பெற்றனர். 11 வயது பெண்களுக்கான வண்ண பட்டை போட்டியில் சென்னை வீராங்கனை
சுஜாதா வெற்றி பெற்றார். சென்னை வீராங் கனைகள் இந்துமதி மற்றும் ஆத் மிகா ஆகியோர் 2
மற்றும் 3-வது இடங்களை பெற்றனர். </p><p>
</p><p>
உலக செஸ்: ஆனந்த்-ஆடம்ஸ் மோதல் னாடிரா </p><p>
</p><p>
பைுதுடெல்லி, டிச.13- சர்வதேச சாம்பியன் செஸ் பந்தயம் புதுடெல்லியில் நடந்து வரு கிறது.
நேற்றைய அரைஇறுதியில் இந்திய கிராண்ட் மாஸ்டர் விஸ்வநாதன் ஆனந்த் மற்றும் மைக்கேல்
ஆடம்ஸ் (இங்கி லாந்து) ஆகியோர் மோதினர். விறுவிறுப்பாக நடந்த ஆட்டம் டிரா வில்
முடிந்தது. கறுப்பு நிறக்காய்களுடன் களம் இறங் கிய ஆனந்த் மிகவும் எச்சரிக் கையுடன்
காய்களை நகர்த்தினார். இந்த ஆட்டம் 3 மணி 15 நிமிடம் நடந்தது குறிப்பிடத்தக்கது. இன்று
2-வது மோதல் நடக்கிறது. இதில் வௌ்ளை நிறக்காய்களுடன் ஆனந்த் களம் இறங்குவதால்
வெற்றிவாய்ப்பு பிரகாசமாக உள்ளது. கால்இறுதியில் காலிப்மென்னை ஆனந்த் தோற்கடித்தார்.
</p><p>
</p><p>
தேசிய கார்ரேஸ்: கரூண் வெற்றி </p><p>
</p><p>
சென்னை, டிச.13- </p><p>
</p><p>
ஜே.கே.டயர் தேசிய கார் ரேசுக்கான 4-வது சுற்று மோதல் சென்னை இருங்காட்டுக்கோட்டையில்
நடந்தது. எஸ்டீம் பிரிவில் நடந்த இரு ரேசிலும் சென்னை வீரர் கரூண் சந்தூக் முதலிடம்
பெற்றார். இளம்வீரர் ராதா செல்வராஜ் இரு ரேசிலும் முதலிடத்தை இழந்தார். பிஸ்மி
பிரிவில் நரேன் சத்யநாராயணன் முதலிடம் பெற்றார். 10 ரவுண்ட் கொண்ட இந்த ரேசில்
கரூண் சந்தூக் மற் றும் சரோஷ் ஹரிதா ஆகியோர் அடுத்த இருஇடங்களை எட்டினர்.
இந்தப்பந்தயத்தில் இன்னும் ஒரு சுற்று மோதல் மட்டும் எஞ்சி இருக்கிறது. இதன் முடிவில்
முன்னணி பெறும் வீரருக்கு சாம் பியன் கோப்பை வழங்கப்படும். 5-வது மற்றும் இறுதிரேஸ் அடுத்த
மாதம் நடக்கிறது. </p>

<p> </p>






</body></text></cesDoc>