<cesDoc id="tam-w-dinakaran-sports-02-07-07" lang="tam">
<cesHeader type="text">
<fileDesc>
<titleStmt>
<h.title>tam-w-dinakaran-sports-02-07-07.txt</h.title>
<respStmt>
<respType>Electronic file created by</respType>
<respName>Department of Linguistics, Lancaster University</respName>
<respType>text collected by</respType>
<respName>Paul Baker and Celia Worth</respName>
<respType>transferred into Unicode by</respType>
<respName>"Unicodify" software by Andrew Hardie</respName>
</respStmt>
</titleStmt>
<publicationStmt>
<distributor>UCREL</distributor>
<pubAddress>Department of Linguistics, Lancaster University, Lancaster, LA1 4YT, UK</pubAddress>
<availability region="WORLD"></availability>
<pubDate>03-08-24</pubDate>
</publicationStmt>
<sourceDesc>
<biblStruct>
<monogr>
<h.title>"Dinakaran" internet news (www.dinakaran.com), news stories collected on 02-07-07</h.title>
<h.author>Dinakaran</h.author>
<imprint>
<pubPlace>Tamil Nadu, India</pubPlace>
<publisher>Dinakaran</publisher>
<pubDate>02-07-07</pubDate>
</imprint>
</monogr>
</biblStruct>
</sourceDesc>
</fileDesc>
<encodingDesc>
<projectDesc>Text collected for use in the EMILLE project.</projectDesc>
<samplingDesc>Simple written text only has been transcribed. Diagrams, pictures and tables have been omitted and their place marked with a gap element.
</samplingDesc>
<editorialDecl>
<conformance level="1"></conformance>
</editorialDecl>
</encodingDesc>
<profileDesc>
<creation>
<date>03-08-24</date>
</creation>
<langUsage>Tamil</langUsage>
<wsdUsage>
<writingSystem id="ISO/IEC 10646">Universal Multiple-Octet Coded Character Set (UCS).</writingSystem>
</wsdUsage>
<textClass>
<channel mode="w">print</channel>
<constitution type="composite"></constitution>
<domain type="public"></domain>
<factuality type="fact"></factuality>
</textClass>
<translations></translations>
</profileDesc>
<revisionDesc></revisionDesc>
</cesHeader>

<text>
<body>




<p>ஆஸி. வீரர் லில்லி
சென்னையில் பேட்டி: பந்து வீச்சாளர்களை உருவாக்குவது கடினம்</p>

<p> </p>

<p>சென்னை,
ஜூலை 7- கிரிக்கெட்டில் பேட்ஸ்மென்களை விட பந்துவீச்சாளர்களை உருவாக்குவதுதான் கடி னம்
என்று முன்னாள் வேகப்பந்து வீச்சாளர் லில்லி பேட்டி அளித்தார். </p><p>
</p><p>
சென்னை சேத்துப்பட்டில் அமைந்துள்ள எம்.ஆர்.எப். பேஷ் பவுண்டேஷன் சார்பில் வேகப்பந்து
வீச்சாளர்களுக்கு சிறப்பான பயிற்சி கொடுக்கப்பட்டு வருகிறது. ஆஸ்திரேலியாவின் முன்னாள்
வேகப்பந்து வீச்சாளர் டென்னிஸ் லில்லி கடந்த சில ஆண்டுகளாக இந்த மையத்தில் சிறப்பு
பயிற்சியாளராக இருக்கிறார். நாத், பிர சாத், ஜாகீர்கான், அகர்கர், யோகன்னன்,
நெக்ரா போன்ற இந்தியாவின் வேகப்பந்து வீச்சாளர்கள் மட்டுமின்றி, வாஸ், தில்காரா
போன்ற இலங்கை வீரர்களும் இந்த மையத்தில் பயிற்சி செய்துள்ளனர். </p><p>
</p><p>
சென்னை வந்துள்ள பயிற்சியாளர் லில்லி சென்னையில் நேற்று நிருபர்களுக்கு பேட்டி
அளித்தார். அப்போது அவர் கூறுகையில், கிரிக்கெட்டில் பேட்ஸ்மென்களை உருவாக்குவது மிகவும்
எளிது. ஆனால் பந்துவீச்சாளர்களை உருவாக்கு வது மிகவும் கடினமான விஷ யம். தற்போது பயிற்சி
பெற்று வரும் இளம் வீரர்களில் ஒரே ஒருவர் மட்டும் அதிகப்படியான திறமையுடன் இருக்கிறார்.
நிச்ச யம் அவருக்கு எதிர்காலத்தில் பிரகாசமான வாய்ப்பு உள்ளது. ஆனால் அவரின் பெயரை
குறிப்பிட நான் விரும்பவில்லை. ஒருவேளை அந்த வீரரின் பெயரை நான் சுட்டிக் காட்டி
விட்டால், அவருக்கு அதிகப்படியான பதட்டம் உண்டாகி, கிரிக்கெட் ஆட்டம் பாதிக்கப்படும்
என்றார். 

</p>

<p> </p>

<p>இந்திய கிரிக்கெட் வீரர்
ராபின்சிங் பேட்டி: பயிற்சியாளர் பதவிக்கு, சிறந்த வீரராக இருக்க வேண்டியதில்லை</p>

<p> </p>

<p>மும்பை, ஜூலை 7- </p><p>
</p><p>
இந்திய கிரிக்கெட் அணியின் பயிற்சியாளராக நியமிக்கப்பட்ட ராபின்சிங் அந்த பதவிக்கு,
சிறந்த வீரராக இருக்க வேண்டியதில்லை என்று கூறினார். </p><p>
</p><p>
இந்திய கிரிக்கெட் அணியின் மிகவும் வயதான காலத்தில் காலடி எடுத்து வைத்து நிரந்தர
இடத்தை பிடித்தவர் ராபின்சிங். இந்திய அணியின் நம்பிக்கை ஆல்-ரவுண்டரி தகுதியை எட்டிய
ராபின்சிங், கடந்த சில மாதங்களுக்கு முன்பு இந்திய அணியில் இருந்து நீக்கப்பட்டார்.
ஆனால் 19 வயதிற்குட்பட்ட இந்திய அணிக்கு ராபின்சிங் திடீரென பயிற்சியாளராக
நியமிக்கப்பட்டார். சர்வதேச கிரிக்கெட்டில் இருந்து ஓய்வு பெறுவதற்கு முன்பாகவே
பயிற்சியாளராக நியமிக்கப்பட்டது ராபின்சிங்கை அதிர்ச்சி அடையச்செய்தது. இருந்தாலும்
தனக்கு கிடைத்த இந்த வாய்ப்பை சரியாக பயன்படுத்திக் கொள்ள வேண்டும் என்ற நினைப்பில்
பொறுப்பை ஏற்றுக்கொண்டார். இந்தநிலையில் ராபின்சிங் கூறுகையில், பயிற்சியாளர்
பதவிக்கு சிறந்த வீரராக இருக்க வேண்டிய அவசியம் இல்லை. எனக்குத் தெரிந்த கிரிக்கெட்
நுணுக்கங்களை இளம் வீரர்களுக்கு கற்றுக்கொடுப்பேன். கிரிக்கெட்டை பொறுத்தவரை பீல்டிங்
மிகவும் முக்கியம். அந்த வகையில் பீல்டிங்கில் அதிக கவனம் செலுத்துவேன் என்றார். </p>

<p> </p>

<p> </p>

<p>கார் பந்தய வீரர்
ஷுமேக்கரை சந்திக்கிறார் சச்சின் டெண்டுல்கர்</p>

<p> </p>

<p>எட்பாஸ்டன்,
ஜூலை 7- </p><p>
</p><p>
கார் பந்தய வீரர் ஷுமேக்கரை சச்சின் டெண்டுல்கர் விரைவில் சந்தித்து பேச உள்ளார். </p><p>
</p><p>
பார்முலா-1 கார்ரேசில் நம்பர்ஒன் வீரராக இருப்பவர் மைக்கேல் ஷுமேக்கர். பெராரி
அணிக்காக ஆடி வெற்றிகள் பல குவித்துள்ள ஷுமேக்கர் விரைவில் கார் பந்தயத்தில் இருந்து
ஓய்வு பெறப் போவதாக கடந்த சில நாட்களுக்கு முன்பு பேட்டி அளித்தார். இந்தநிலையில்
இந்தியாவின் நம்பர்ஒன் கிரிக்கெட் வீரர் சச்சின் டெண்டுல்கர் கார்பந்தய வீரர்
ஷுமேக்கரை சந்திக்க உள்ளதாக அதிகாரபூர்வ தகவல் வௌியாகி உள்ளது. இந்திய அணி தற்போது
இங்கிலாந்தில் சுற்றுப்பயணம் செய்து கிரிக்கெட் போட்டிகளில் ஆடிவருகிறது. இலங்கையுடன்
நேற்று நடந்த மோதல் முடிந்த பின்னர் டெண்டுல்கர் கார்பந்தய வீரரை நேரில் சந்திக்க
உள்ளார். </p><p>
</p><p>
கார் பந்தயங்களில் டெண்டுல்கர் அதிக ஆர்வம் கொண்டவர். இதனால் ஷுமேக்கரை சந்திக்க
ஏற்பாடு செய்யும்படி பந்தய அமைப்பாளர்களிடம் டெண்டுல்கர் தனது விருப்பத்தை
தெரிவித்தார். இந்த இரு வீரர்களும் கார் விளம்பரம் ஒன்றில் இணைந்து நடித்தனர். அப்போது
லேசான பழக்கம் ஏற்பட்டுள்ள போதும், ஷுமேக்கரை சந்திக்க டெண்டுல்கர் நேரில் செல்ல
முடிவு செய்துள்ளது இங்கிலாந்து ரசிகர்களுக்கு உற்சாகம் அளித்துள்ளது. பிராட்மென் சாதனையான
29 டெஸ்ட் சதத்தை டெண்டுல்கர் சமன் செய்தபின்னர் பெராரி நிறுவனத்தின் சார்பில் நவீன
கார் ஒன்று வழங்கப்பட்டது குறிப்பிடத்தக்கது. </p>

<p> </p>

<p>அகில இந்திய கிரிக்கெட்:
கெம்பிளாஸ்ட்-இந்தியா சிமெண்ட்ஸ் இறுதி மோதல்</p>

<p> </p>

<p>சென்னை, ஜூலை 7- </p><p>
</p><p>
அகில இந்திய கிரிக்கெட் போட்டி சென்னையில் நடந்து வருகிறது அல்லவா? அதன் இறுதி
மோதல் இன்று நடக்கிறது. இதில் கெம்பிளாஸ்ட்-இந்தியா சிமெண்ட்ஸ் அணிகள் மோதுகின்றன. </p><p>
</p><p>
33-வது அகில இந்திய ஒய்.எஸ்.சி.ஏ. கிரிக்கெட் போட்டி சென்னையில் நடந்து வருகிறது.
இதற்கான சாம்பியன் கோப்பை மோதலுக்கு கெம்பிளாஸ்ட்-இந்தியா சிமெண்ட்ஸ் அணிகள் தகுதி
பெற்றன. சென்னை குருநானக் கல்லூரியில் நடக்கும் இந்தப் போட்டியில் இன்று இரு அணிகளும்
பலப்பரீட்சை நடத்துகின்றன. நடப்பு சாம்பியனான கெம்பிளாஸ்ட் நேற்றைய ஆட்டத்தில்
சிகால் அணியை எதிர்த்து மோதியது. முதலில் பேட்டிங் செய்த கெம்பிளாஸ்ட் அணி நம்பிக்கை
வீரர் சுஜித் சோமசுந்தர் (106 ரன்) உதவியுடன் 232 ரன்கள் குவித்தது. பின்னர் பேட்டிங்
செய்த சிகால் அணி 185 ரன்னுக்கு அனைத்து விக்கெட்டுகளையும் பறி கொடுத்து தோற்றது.
மற்றொரு அரைஇறுதியில் இந்தியா சிமெஸ்ட்ஸ்-இந்தியன் வங்கி அணிகள் மோதின. தொடக்கம்
முதல் தடுமாற்றத்துடன் ஆடிய இந்தியன்வங்கி 154 ரன்னுக்கு சுருண்டது. இந்தியா சிமெண்ட்ஸ்
வீரர் சுனில் விஸ்வநாதன் 26 ரன்னுக்கு 5 விக்கெட்டுகள் சாய்த்தார். பின்னர் ஆடிய
இந்தியா சிமெண்ட்ஸ் 3 விக்கெட் மட்டும் இழந்து வெற்றிபெற்றது. </p>

<p> </p>

<p> </p>

<p>கங்குலி தலைமைக்கு
ஸ்டீவ்வாக் பாராட்டு</p>

<p> </p>

<p>கொல்கத்தா, ஜூலை 7- </p><p>
</p><p>
கங்குலி தலைமை மிகவும் சிறப்பாக உள்ளது என்று ஸ்டீவ்வாக் பாராட்டு தெரிவித்துள்ளார். </p><p>
</p><p>
இந்தியா வந்துள்ள ஆஸ்திரேலிய டெஸ்ட் கிரிக்கெட் காப்டன் ஸ்டீவ்வாக் கொல்கத்தாவில்
நடந்த நிகழ்ச்சியில் கலந்து கொண்டார். இதன்பின்னர் நிருபர்களிடம் பேட்டி அளித்த
ஸ்டீவ்வாக் கூறுகையில், இந்திய கிரிக்கெட் காப்டன் கங்குலி தற்போது சிறப்பாக அணியை
வழிநடத்தி செல்கிறார். முந்தைய காலங்களோடு ஒப்பிடுகையில் கங்குலி வழிநடத்தும் திறமையை
அதிகமாக பெற்று விட்டார். இதனால் சர்வதேச கிரிக்கெட் அரங்கில் தரமான காப்டன்
வரிசையில் கங்குலியும் இடம் பிடித்துள்ளார். அணிக்கு காப்டனாக இருக்க கங்குலி
போன்றவர்கள்தான் தேவை என்றார். </p>

<p> </p>

<p> </p>

<p>துப்பாக்கி சுடும் போட்டி:
தாரணிக்கு 2 தங்கம்</p>

<p> </p>

<p>சென்னை, ஜூலை 7- </p><p>
</p><p>
சென்னை ரைபிள் கிளப் சார்பில் நடத்தப்பட்ட மாநில துப்பாக்கி சுடும் போட்டியில் தாரணி
2 தங்கப்பதக்கம் பெற்றுள்ளார். </p><p>
</p><p>
சென்னை ரைபிள் கிளப் சார்பில் மாநில துப்பாக்கி சுடும் போட்டி சென்னையில் நடந்து
வருகிறது. இந்தப்போட்டிக்கான பெண்கள் பிரிவில் சென்னை வீராங்கனை தாரணி 2 தங்கப்
பதக்கம் கைப்பற்றினார். 10மீ. பீப் சைட் ஏர் ரைபிள் பிரிவில் தாரணி ஒட்டுமொத்தமாக
385 புள்ளிகள் குவித்து தங்கம் வென்றார். இந்தப்போட்டியில் இது புதிய சாதனையாகும்.
முன்னதாக கடந்த ஆண்டு கோவை யில் நடந்த போட்டியில் தாரணி 374 புள்ளிகள் குவித்து
சாதனையை தக்கவைத்திருந்தார். நேற்றைய போட்டியில் இந்த வீராங்கனை தனது சொந்த சாதனையை
முறியடித் தார். 50மீ. ரைபிள் புரோன் பிரிவிலும் தாரணிக்கு தங்கம் கிடைத்தது. இந்த
போட்டிகளுக் கான ஜூனியர் பிரிவிலும் தாரணியே முதலிடம் பிடித்து சாதனை படைத்தது
குறிப்பிடத்தக்கது. </p>

<p> </p>






</body></text></cesDoc>