<cesDoc id="tam-w-dinakaran-sports-01-11-03" lang="tam">
<cesHeader type="text">
<fileDesc>
<titleStmt>
<h.title>tam-w-dinakaran-sports-01-11-03.txt</h.title>
<respStmt>
<respType>Electronic file created by</respType>
<respName>Department of Linguistics, Lancaster University</respName>
<respType>text collected by</respType>
<respName>Paul Baker and Celia Worth</respName>
<respType>transferred into Unicode by</respType>
<respName>"Unicodify" software by Andrew Hardie</respName>
</respStmt>
</titleStmt>
<publicationStmt>
<distributor>UCREL</distributor>
<pubAddress>Department of Linguistics, Lancaster University, Lancaster, LA1 4YT, UK</pubAddress>
<availability region="WORLD"></availability>
<pubDate>03-08-24</pubDate>
</publicationStmt>
<sourceDesc>
<biblStruct>
<monogr>
<h.title>"Dinakaran" internet news (www.dinakaran.com), news stories collected on 01-11-03</h.title>
<h.author>Dinakaran</h.author>
<imprint>
<pubPlace>Tamil Nadu, India</pubPlace>
<publisher>Dinakaran</publisher>
<pubDate>01-11-03</pubDate>
</imprint>
</monogr>
</biblStruct>
</sourceDesc>
</fileDesc>
<encodingDesc>
<projectDesc>Text collected for use in the EMILLE project.</projectDesc>
<samplingDesc>Simple written text only has been transcribed. Diagrams, pictures and tables have been omitted and their place marked with a gap element.
</samplingDesc>
<editorialDecl>
<conformance level="1"></conformance>
</editorialDecl>
</encodingDesc>
<profileDesc>
<creation>
<date>03-08-24</date>
</creation>
<langUsage>Tamil</langUsage>
<wsdUsage>
<writingSystem id="ISO/IEC 10646">Universal Multiple-Octet Coded Character Set (UCS).</writingSystem>
</wsdUsage>
<textClass>
<channel mode="w">print</channel>
<constitution type="composite"></constitution>
<domain type="public"></domain>
<factuality type="fact"></factuality>
</textClass>
<translations></translations>
</profileDesc>
<revisionDesc></revisionDesc>
</cesHeader>

<text>
<body>




<p>கிரிக்கெட்: தொடக்க
வீரர் குழப்பம் தொடர்ந்து நீடிக்கிறது, இந்தியா-தெ.ஆ. மோதும் முதல் டெஸ்ட்</p>

<p> </p>

<p>போலம்போன்டின், நவ. 3- இந்தியா-தென்ஆப்பிரிக்கா அணிகள்
மோதும் முதல் டெஸ்ட் கிரிக்கெட் போட்டி இன்று தொடங்குகிறது. தொடக்க வீரர்கள்
யார்? என்ற குழப்பம் இந்திய அணியில் தொடர்ந்து நீடிக்கிறது. </p><p>
</p><p>
மோசமான தோல்வி, போதிய பயிற்சி இல்லாமை இப்படி எத்தனையோ பிரச்சினை கள் இந்திய
கிரிக்கெட் அணிக்கு பெரிய தலைவலியை உண்டாக்கி உள்ள நிலையில், தென் ஆப்பிரிக்காவுடன்
முதல் டெஸ்ட் மோதல் இன்று தொடங் குகிறது. 3 நாடு ஒருநாள் கிரிக்கெட் போட்டியில்
சாம்பியன் பட்டம் வென்ற உற்சாகத்தில் தென்ஆப்பிரிக்க அணி இன்றைய ஆட்டத்தில் களம்
இறங்க உள்ளது. தொடர்ந்து 9 இறுதிப் போட்டிகளில் தோல்வி கண்டு சோதனையின் உச்சத்தில்
தவிக்கும் இந்தியஅணி இழந்த பெருமையை டெஸ்ட் மோதலில் எட்டிப்பிடிக்க வேண்டும் என்பதில்
குறியாக உள்ளது. </p><p>
</p><p>
கூடுதல் திறமை தேவை </p><p>
</p><p>
ஆனால் வலுவான தென் ஆப்பிரிக்க அணிக்கு எதிராக சாதிப்பது என்பது வெறும் வார்த்தையால்
வசப்படும் ஜாலம் அல்ல. 100 சதவீதத்துக்கும் அதிகமாக இந்திய வீரர்கள் தங்கள் திறனை
வௌிக்காட்டினால் மட்டுமே தென்ஆப்பிரிக்காவை உள்ளூரில் வெற்றி பெற முடியும். ஆனால்
இந்திய அணி வட்டாரத்தில் நிலவிவரும் குழப்பத்துக்கு எல்லையே இல்லாமல் போய்விட்டது.
தொடக்க வீரர் களாக யாரையெல்லாம் களம் இறக்குவது, எத்தனை வேகப் பந்து வீச்சாளர்களை
அணியில் சேர்ப்பது இப்படி எத்தனையோ குழப்பங்கள் எண்ணிக்கை இன்றி நீண்டுக் கொண்டே
போகின்றன. </p><p>
</p><p>
ஜான்ரைட் முடிவு நிராகரிப்பு </p><p>
</p><p>
டெஸ்ட் போட்டி தொடக்க வீரராக கோனர் வில்லியம்ஸ் அணியில் சேர்க்கப்பட்டார். புதிய
வீரரான இவரை தாசுடன் களம் இறங்கச்செய்வது என முதலில் முடிவு எடுக்கப்பட்டது. ஆனால் கடைசி
கட்டத்தில் கோனர் வில்லியம்சை பெவிலியனில் உட்காரச் செய்து விட்டு திராவிட்டை
தொடக்க ஆட்டக்காரராக களம் இறங்கச்செய்யும் முயற்சிகள் நடந்து வருகின்றன.
இதற்கிடையில் அணி பயிற்சியாளர் ஜான்ரைட் இந்தியஅணியில் 5 பந்து வீச்சாளர்களை
சேர்க்க வேண்டும் என்று கூறினார். ஆனால் காப்டன் கங்குலி இந்த கருத்தை ஏற்க மறுத்து விட்டார்.
</p><p>
</p><p>
கெடுபிடியுடன் கங்குலி </p><p>
</p><p>
4 பந்துவீச்சாளர்களுக்கே அணியில் இடம் என்பதில் கங்குலி உறுதியாக இருக்கிறார். அதிலும்
சுழல்பந்து வீச்சாளர்கள் கும்ளே மற்றும் ஹர்பஜன் ஆகிய இருவரையும் அணியில் சேர்க்க
வேண்டும் என்று கங்குலி ஆணித்தரமாக கூறிவிட்டார். இதனால் நாத், அகர்கர், ஜாகீர்கான்
மற்றும் நெக்ரா ஆகியோர்களில் யாருக்கு வாய்ப்பு கொடுப்பது என்பதில் சிக்கல்
ஏற்பட்டுள்ளது. தென் ஆப்பிரிக்கா அணிக்கு எதிராக தங்கள் தாக்குதலை இன்னும் தொடங்காத
நெக்ரா மற்றும் ஜாகீர்கான் ஆகிய இருவரும் இன்றைய மோதலில் களம் இறங்குவார்கள் என்று
நம்பலாம். </p><p>
</p><p>
வலுவுடன் தெ.ஆப்பிரிக்கா </p><p>
</p><p>
தென்ஆப்பிரிக்க மண்ணில் இந்திய அணி இன்னும் ஒரு டெஸ்ட்டில் கூட வெற்றிபெற வில்லை.
கங்குலி தலைமையிலான இந்திய அணி இதற்கு முற்றுப்புள்ளி வைக்குமா? என்பதே தற்போது
பலரின் எதிர்பார்ப்பாக உள்ளது. ஆனால் இந்த சாதனை அவ்வளவு எளிதாக இந்தியாவுக்கு
வசப்பட்டு விடாது என்பது உறுதியாக தெரியும். காரணம் தென்ஆப்பிரிக்க அணியில்,
கிறிஸ்டன், கிப்ஸ், டிப்பினர், பவுச்சர், போலாக், குலுஸ்னர், போயே, காலிஸ் என
நம்பிக்கை நாயகர்களின் பட்டியல் நீண்டுக் கொண்டே போகிறது. இத்தனை வீரர்களின்
தாக்குதலையும் சமாளிப்பது என்பதே இந்தியாவுக்கு பெரிய தலைவலியாக இருக்கும்போது,
சாதிப்பது என்பது நிச்சயம் சோதனையிலும் சோதனைதான் </p>

<p> </p>

<p>இந்தியாவுடன் டெஸ்ட்
கிரிக்கெட்: இங்கி. அணியில் ஜான்சன்-பெல்</p>

<p> </p>

<p>லண்டன், நவ. 3- இந்தியாவுடன் நடக்க உள்ள டெஸ்ட் கிரிக்கெட்
போட்டிக்கான இங்கிலாந்து அணியில் ஜான்சன்-பெல் ஆகிய புதிய வீரர்கள்
சேர்க்கப்பட்டுள்ளனர். </p><p>
</p><p>
பாதுகாப்பு பிரச்சினை காரணமாக இங்கிலாந்து கிரிக்கெட் அணி இந்தியா வருவதில் தொடர்ந்து
குழப்பம் நிலவியது. ஆனால் இந்திய தரப்பில் பாது காப்பு குறித்து உறுதி தெரிவிக்கப்பட்ட
பின்னர் இங்கிலாந்து வீரர்கள் இந்திய பயணம் குறித்து ஆலோசனை நடத்தினர்.
பெரும்பான்மையான வீரர்கள் இந்திய பயணத்துக்கு சம்மதம் தெரிவித்த காரணத்தால் இங்கிலாந்து
அணி திட்ட மிட்டபடி இந்த மாதஇறுதியில் இந்தியா வருகிறது. இந்தியாவில் 3 டெஸ்ட்
போட்டியில் ஆடும் இங்கிலாந்து அணி பின்னர் ஜனவரி மாதம் மீண்டும் இந்தியா வந்து 5
ஒருநாள் போட்டிகளில் மோத உள்ளது. </p><p>
</p><p>
2 புதிய வீரர்கள் </p><p>
</p><p>
டெஸ்ட் போட்டிக்கான இங்கிலாந்து வீரர்கள் நேற்று அறிவிக்கப்பட்டனர். வழக்கம் போல்
அணியில் பெரிய மாற்றங்கள் எதுவும் செய்யப்பட வில்லை. இருந்தாலும், இதுவரை
எந்தப்போட்டிகளிலும் கலந்து கொள்ளாத ரிச்சர்ட் ஜான்சன் மற்றும் மார்ட்டின் பெல்
ஆகியோர் முதல்முறையாக அணியில் வாய்ப்பு பெற்றனர். வேகப்பந்து வீச்சாளர் கேடிக் மற்றும்
கிராப்ட் இந்திய பயணத்தை ரத்து செய்து விட்ட காரணத்தால் புதிய வீரர்கள் இருவர்களுக்கு
வாய்ப்பு கொடுக் கப்பட்டுள்ளது. இந்திய பயணத்தை ரத்து செய்த கேடிக் மற்றும் கிராப்ட்
ஆகியோர்களுக்கு தலா ரூ.18 லட்சம் அபராதமும் விதிக்கப்பட்டுள்ளது குறிப்பிடத்தக்கது. </p><p>
</p><p>
நாசர் உசைன் நம்பிக்கை </p><p>
</p><p>
இங்கிலாந்து அணி கிட்டத்தட்ட 11 ஆண்டு இடைவௌிக்கு பிறகு மீண்டும் இந்தியா வருவது
கிரிக்கெட் ரசிகர்கள் மத்தி யில் பெரிய எதிர்பார்ப்பை உண்டாக்கி உள்ளது. தொடர்ந்து
தோல்விகளை சந்தித்து வந்த இங்கிலாந்து அணி சமீபத்தில் நடந்த போட்டிகளில் சில
வெற்றிகளை பெற்று உலக தரவரிசையில் கொஞ்சம் முன் னேற்றம் கண்டுள்ளது. எனவே இந்திய
பயணத்தில் இங்கி லாந்து வீரர்கள் போராட்டம் கொடுக்கும் வகையில் ஆடுவார்கள் என்பதில்
சந்தேகம் இல்லை. இந்திய பயணம் பற்றி இங்கிலாந்து காப்டன் நாசர் உசைன் கூறுகையில்,
டெண் டுல்கர், கங்குலி, திராவிட், லட் சுமண், ஹர்பஜன் மற்றும் கும்ளே ஆகிய வீரர்களின்
ஆட்டம் உள்ளூரில் யாரும் நினைத்து பார்க்க முடியாத வகையில் இருக்கும். எனவே இந் தியாவை
உள்ளூரில் எதிர்த்து ஆடுவது என்பது பெரிய சிரமமான விஷயம்தான். இருந்தாலும் வெற்றிக்கு
போராடுவோம் என்றார். </p><p>
</p><p>
தேர்வு செய்யப்பட்ட இங்கி லாந்து வீரர்கள் விவரம் வருமாறு:- </p><p>
</p><p>
டிரெஸ்கோதிக், மைக்கேல் வேகன், மார்க் பச்சர், கிரகாம் தோர்ப், நாசர் உசைன் (காப்
டன்), மார்க் ராம்பிரகாஷ், உஸ்மான் அப்சல், வாரன் ஹெக், ஜேம்ஸ் போஸ்டர், கிரேக்
ஒய்ட், அஸ்லே கில்ஸ், மார்ட்டின் பெல், ரிச்சர்ட் டவ் சன், ஜிம்மி ஓர்மான்ட்,
மேத்யூ ஹோகர்ட், ரிச்சர்ட் ஜான்சன். </p>

<p> </p>

<p>சார்ஜா கிரிக்கெட்:
இலங்கையை பாக். வீழ்த்தியது</p>

<p> </p>

<p>சார்ஜா, நவ. 3- சார்ஜாவில் நடந்து வரும் 3 நாடு கிரிக்கெட்
போட்டிக்கான இறுதி மோதலுக்கு இலங்கை- பாகிஸ்தான் அணிகள் தகுதி பெற்றுள்ளன.
இந்தநிலையில் இந்த இரு அணிகளும் மோதிய கடைசி லீக் மோதல் நேற்று நடந்தது. முதலில்
பேட்டிங் செய்த இலங்கை அணி நிர்ணயிக்கப்பட்ட 50 ஓவரில் 9 விக் கெட் இழந்து 272 ரன்
குவித்தது. இலங்கை அணியில் ஜெயவர்த் தனே (84 ரன்), குணவர்த்தனே (57 ரன்) ஆகியோர்
சிறப்பாக ஆடினர். அக்தர் 3 விக்கெட்டுகளும், காப்டன் வாக்கர்யூனுஸ் 2 விக்கெட்டுகளும்
சாய்த்தனர். </p><p>
</p><p>
பின்னர் களம் இறங்கிய பாகிஸ்தான் அணி இன்சமாம், நவீத் லத்தீப்பின் அதிரடி
சதத்தினால் 3 விக்கெட்களை மட்டுமே இழந்து வெற்றி பெற்றது. </p>

<p> </p>






</body></text></cesDoc>