<cesDoc id="tam-w-dinakaran-sports-00-08-02" lang="tam">
<cesHeader type="text">
<fileDesc>
<titleStmt>
<h.title>tam-w-dinakaran-sports-00-08-02.txt</h.title>
<respStmt>
<respType>Electronic file created by</respType>
<respName>Department of Linguistics, Lancaster University</respName>
<respType>text collected by</respType>
<respName>Paul Baker and Celia Worth</respName>
<respType>transferred into Unicode by</respType>
<respName>"Unicodify" software by Andrew Hardie</respName>
</respStmt>
</titleStmt>
<publicationStmt>
<distributor>UCREL</distributor>
<pubAddress>Department of Linguistics, Lancaster University, Lancaster, LA1 4YT, UK</pubAddress>
<availability region="WORLD"></availability>
<pubDate>03-08-24</pubDate>
</publicationStmt>
<sourceDesc>
<biblStruct>
<monogr>
<h.title>"Dinakaran" internet news (www.dinakaran.com), news stories collected on 00-08-02</h.title>
<h.author>Dinakaran</h.author>
<imprint>
<pubPlace>Tamil Nadu, India</pubPlace>
<publisher>Dinakaran</publisher>
<pubDate>00-08-02</pubDate>
</imprint>
</monogr>
</biblStruct>
</sourceDesc>
</fileDesc>
<encodingDesc>
<projectDesc>Text collected for use in the EMILLE project.</projectDesc>
<samplingDesc>Simple written text only has been transcribed. Diagrams, pictures and tables have been omitted and their place marked with a gap element.
</samplingDesc>
<editorialDecl>
<conformance level="1"></conformance>
</editorialDecl>
</encodingDesc>
<profileDesc>
<creation>
<date>03-08-24</date>
</creation>
<langUsage>Tamil</langUsage>
<wsdUsage>
<writingSystem id="ISO/IEC 10646">Universal Multiple-Octet Coded Character Set (UCS).</writingSystem>
</wsdUsage>
<textClass>
<channel mode="w">print</channel>
<constitution type="composite"></constitution>
<domain type="public"></domain>
<factuality type="fact"></factuality>
</textClass>
<translations></translations>
</profileDesc>
<revisionDesc></revisionDesc>
</cesHeader>

<text>
<body>




<p>கிரிக்கெட் பயிற்சியாளர்
கபில்தேவ் நீக்கப்படுகிறார்</p>

<p></p><p>
புதுடெல்லி, ஆக.2- இந்திய
கிரிக்கெட் அணியின் பயிற்சியாளராக சமீபத்தில் கபில்தேவ் தேர்வு செய்யப்பட்டார்.
முன்னாள் காப்டனான இவர் பயிற்சியாளர் பதவிக்கு வந்தபின்னர் இந்திய அணி
சொல்லிக்கொள்ளும்படியான வெற்றிகள் எதையும் பெற வில்லை. ஆனால் ஒப்பந்தத்தின் படி 2
ஆண்டுகள் இவர் தொடர்ந்து பதவி வகிப்பார் என்று கூறப்பட்டது. ஆனால் சமீபத்தில்
கிரிக்கெட் சூதாட்ட பிரச்சினையில் கபில்தேவ் பெயரும் சிக்கியது. பிரபாகர் இதற்கான பல
ஆதாரங்கனை சி.பி.ஐ. அதிகாரிகளிடம் சமர்ப் பித்தார். அதுமட்டுமின்றி, சமீபத்தில்
நாடுமுழுவதும் நடத்தப் பட்ட வருமானவரி சோதனையில் கபில்தேவ் வீட்டில் சில முக்கிய
ஆதாரங்கள் சிக்கியுள் ளது தெரிய வந்துள்ளது. இந்த ஆதாரங்கள் சூதாட்டத்தோடு
சம்பந்தப்பட்டதா? என்று சி.பி.ஐ.அதிகாரிகள் சோதனை நடத்தி வருகிறார்கள். </p><p>
</p><p>
கபில்தேவ் நீக்கம்? </p><p>
</p><p>
இதனால் கூடிய விரைவில் கபில்தேவ் பயிற்சியாளர் பதவி யில் இருந்து நீக்கப்படுவதாக இந்திய
கிரிக்கெட் போர்டு மூத்த நிர்வாகி ஒருவர் தெரிவித்தார். மத்திய விளையாட்டு மந்திரி
திண்ட்சே, சூதாட்ட பிரச்சினையில் சிக்கிய அசாருதீன், கபில்தேவ், ஜடேஜா ஆகியோரை
உடனடியாக நீக்க வேண்டும் என்று சமீபத்தில் கூறினார். ஆனால் சூதாட்ட குற்றச்சாட்டு
நிரூபிக்கப்படும் வரை யாரையும் அணியில் இருந்து நீக்கமுடியாது என்று கிரிக்கெட் போர்டு
தலைவர் ஏ.சி.முத்தையா பேட்டி அளித்தார். ஆனால் தற்போது முத்தையா கூறியதற்கு நேர்மாறாக
கபில்தேவ் நீக்கம் பற்றி செய்திகள் வௌிவந்துள்ளன. அநேகமாக பாகிஸ்தான் அணிக்கு
எதிரான டொரண்டோ கிரிக்கெட் போட்டியின் போதே இந்த அதிரடி அறிவிப்பு வௌிவரும் என்று
எதிர்பார்க்கப்படுகிறது. இதற்காக போர்டு மட்டத்தில் தற்போது ரகசிய விவாதம்
நடந்துவருவதாக தெரிகிறது. </p><p>
</p><p>
போர்டு நடவடிக்கைகள் </p><p>
</p><p>
விஷன்-2000 என்ற பெயரிடப்பட்ட 27 பக்க அறிக்கை ஒன்றை கிரிக்கெட் போர்டு தலைவர்
ஏ.சி.முத்தையா மத்திய விளையாட்டு மந்திரி திண்ட்சேவிடம் நேற்று கொடுத்தார்.
கிரிக்கெட் போர்டின் எதிர்கால திட்டங்கள் குறித்த அனைத்து தகவல்களும் இதில் இடம்பெற்
றுள்ளதாக ஏ.சி.முத்தையா கூறினார். ஆனால் இந்த அறிக்கையில் கிரிக்கெட்டை வளர்க்க
எவ்வளவு நிதி செலவிடப்படுகிறது என்பது பற்றிய தகவல்கள் எதுவும் இடம்பெற வில்லை என்று
விளையாட்டு மந்திரி வட் டாரங்கள் தெரிவிக்கின்றன. மத்திய அரசுக்கு எங்கள்
நடவடிக்கையில் ஏதாவது சந்தேகம் ஏற்பட்டால் அதை வரவேற்கிறோம். அப்படிப்பட்ட
சூழ்நிலையில் சம்பந்தப்பட்ட சந்தேகங்களுக்கு விளக்கம் அளிப்போம் என்று ஏ.சி.முத்தையா
நிருபர்களிடம் கூறினார்.</p>

<p> </p>

<p>வருமானவரி அதிகாரிகள்,
அசார்-ஜடேஜாவிடம் நேரில் விசாரணை</p>

<p>
 
 
  
  
  
  
  
  
  
  
  
  
  
  
 
 
 

 
<gap desc="illustration"></gap></p>




 
  
  <p>இந்திய கிரிக்கெட் வீரர் ஜடேஜா
  வீட்டில் வருமானவரி அதிகாரிகள் நேற்றும் சோதனை நடத்தினர். இதை படம் பிடிக்க முயன்ற
  பத்திரிகை புகைப்படக்காரர் ஒருவரை ஜடேஜா கோபத்துடன் தடுக்க முற்பட்ட காட்சி. </p>
  
 




<p>புதுடெல்லி,
ஆக.2- வருமானவரி அதிகாரிகள் கடந்த மாதம் 20-ந்தேதி நாடு முழுவதும் கிரிக்கெட்வீரர்கள்
வீடுகளில் அதிரடி சோதனை நடத்தினர். முக்கியமான சில ஆவணங்களும் இதில் சிக்கின.
கிரிக்கெட் வீரர்களுக்கு சொந்த மான வங்கி லாக்கர்களை சீல் வைத்தும் நடவடிக்கை
எடுத்தனர். ஆனால் ஜடேஜா, அசாருதீன் உள்பட சில வீரர்கள் அந்த சமயத்தில் லண்டனில்
இருந்தனர். கண்காட்சி கிரிக்கெட் மோதல் முடிந்து இவர்கள் நேற்று தாயகம் திரும்பினர்.
தாயகம் திரும்பியதும் வருமான வரி அதிகாரிகள் நேற்று இந்த இருவர் வீடுகளிலும் சோதனை
நடத்தினர். அசாருதீன், சங்கீதா பிஜ்லானி மற்றும் ஜடேஜா விடம் நீண்டநேரம் விசாரணையும்
நடத்தப்பட்டது. சீல் வைக்கப்பட்ட லாக்கர்களை அசாருதீன் முன்னிலையில் அதிகாரிகள்
திறந்து சோதனை நடத்தினர். அப்போது முக்கிய மான சில ஆவணங்கள் கைப்பற்றப்பட்டதாக
தெரிகிறது. விமான நிலையத்தில் ஜடேஜாவிடம் சோதனை நடத்திய அதிகாரிகள் அவர்
வைத்திருந்த லேப்டாப் கணிப்பொறியையும் கைப்பற்றினர்.</p>

<p> </p>

<p>சென்னையில் இன்று
தொடக்கம்: ஆண்கள்-பெண்கள் அணிகள் மோதும் தேசிய கூடைப்பந்து</p>

<p></p><p>
சென்னை, ஆக.2- ஜெயாஆதித்யா
ஸ்போர்ட்ஸ் அகாடமி சார்பில் தேசிய அளவிலான கூடைப்பந்து போட்டி சென்னை கீழ்பாக்கம்
ஜெ.ஜெ. உள்விளையாட்டு அரங்கத்தில் இன்றுமுதல் வருகிற 6-ந்தேதி வரை நடக்கிறது. ஆண்கள்
பிரி வில், நடப்பு தேசிய சாம்பியன் பஞ்சாப் போலீஸ், விஜயா வங்கி, தமிழ்நாடு,
இந்திய ராணுவம், மேற்கு ரெயில்வே, தென் மத்திய ரெயில்வே ஆகிய 6 அணிகளும், பெண்கள்
பிரிவில் தமிழ்நாடு, கேரளா, மேற்கு ரெயில்வே மற்றும் தெற்கு ரெயில்வே ஆகிய 4 அணிகளும்
பங்கேற்றுள்ளன. </p><p>
</p><p>
ரூ.75 ஆயிரம் முதல்பரிசு </p><p>
</p><p>
ஆண்கள் பிரிவில் லீக் மற் றும் நாக்-அவுட் முறையில் மோதல்கள் நடக்கின்றன. அது போல்பெண்கள்
பிரிவில் ரவுண்ட்-ராபின் முறையில் போட்டிகள் நடக்கின்றன. ஆண்கள் பிரிவில் முதலிடம்
பெறும் அணிக்கு ரூ.75 ஆயிரமும், 2-வது பரிசாக ரூ.50 ஆயிரமும் வழங்கப்படுகிறது. பெண்கள்
ஆட்டத்தில், முதல் பரிசாக ரூ.25 ஆயிரமும், ரூ.15 ஆயிரம் 2-வது பரிசாகவும் வழங்கப்படுகின்
றன. இதுதவிர பந்தயத்தின் முடிவில் சிறந்த தொடர் நாயகன் விருதும் வழங்கப்பட உள் ளது.
இந்தத்தகவல்களை அகாடமி இயக்குனர் செந்தூரேஸ் வரன் சென்னையில் நிருபர் களிடம்
தெரிவித்தார். </p><p>
</p><p>
தமிழக அணிகள்ள </p><p>
</p><p>
இந்தப்போட்டியில் கலந்து கொள்ளும் தமிழக வீரர்- வீராங்கனைகள் விவரம் வரு மாறு:- </p><p>
</p><p>
ஆண்கள்: சிவக்குமார் (காப்டன்), சேவியர், தேவநாதன், மோசஸ் ஜீவானந்தம், கன்னி
யப்பன், சிவசங்கர், தர், கோபிநாத், சுவாமிநாதன், சமீர் அகமது, டோனி லெஸ்லி, சுக
வனேஸ்வரன், செந்தூரேஸ்வரன் (பயிற்சியாளர்), கார்த்தி கேயன் (மேலாளர்) </p><p>
</p><p>
பெண்கள்: ஷியாமளா, வித்யா தரன், ஹெலன் மேரி, அனிதா, தீபா, பி.அனிதா, கவுசிகா
(காப்டன்), வினயா, பெமின், சுகந்தி அன்பு, ரேணுகா தேவி, ப்ரீத்தி.</p>

<p> </p>

<p>இலங்கையுடன் டெஸ்ட்:
தோல்வி நிலையில் தெ.ஆ.</p>

<p></p><p>
கண்டி, ஆக.2- இலங்கைக்கு
எதிரான 2-வது டெஸ்ட் கிரிக்கெட் போட்டியில் தென்ஆப்பிரிக்கா ஆடி வருகிறது. ஏற்கனவே
கேல் மைதானத்தில் நடந்த முதல் டெஸ்ட் போட்டியில் தென்ஆப் பிரிக்கா இன்னிங்ஸ்
தோல்வி கண்டது. இந்தநிலையில் தற்போது கண்டியில் நடக்கும் 2-வது டெஸ்ட் போட்டியிலும்
தோல்வி காணும் அபாய நிலைக்கு தென்ஆப்பிரிக்கா தள்ளப்பட்டுள்ளது. 3-வது நாளில் தனது 2-வது
இன் னிங்சை ஆடிய தென்ஆப்பி ரிக்கா ஆட்டமுடிவில் 192 ரன்னுக்கு 8 விக்கெட்டுகளை இழந் தது. </p><p>
</p><p>
தொடர்ந்து விக்கெட் சரிவு </p><p>
</p><p>
காலிஸ் மற்றும் ரோட்ஸ் ஆகியோர் ஓரளவு தாக்கு பிடித்து தென்ஆப்பிரிக்காவின் ஸ்கோரை
உயரச்செய்தனர். ஆனால் ரோட்ஸ் விக்கெட்டை இலங்கை காப்டன் ஜெயசூர்யா வீழ்த்தியபின்
விக்கெட்டுகள் வீழ்ச்சி தொடர்ச்சியாகி விட்டது. முதல் இன்னிங்சில் இலங்கை 308
ரன்னும், தென் ஆப்பிரிக்கா 253 ரன்களும் எடுத்தன. 2-வது நாள் முடிவில் 260 ரன்னுக்கு 4
விக்கெட்டு களை இழந்திருந்த இலங்கை, நேற்றைய நாளில் மேலும் 48 ரன்கள் சேர்ப்பதற்குள்
மீதி இருந்த 6 விக்கெட்டுகளையும் கோட்டைவிட்டது. அட்டப்பட்டு (120 ரன்) மற்றும்
ரணதுங்கா (54 ரன்) ஆகியோர் 5-வதுவிக் கெட்டுக்கு 104 ரன் சேர்த்தனர். </p><p>
</p><p>
தற்போது வரை தென்ஆப்பிரிக்கா 137 ரன்கள் மட்டுமே அதிகம் பெற்றுள்ளது. இன்னும் 2
விக்கெட்டுகள் மட்டுமே எஞ்சி இருக்கும் நிலையில் இந்த டெஸ்ட்டிலும் தென்ஆப்பிரிக்
காவின் தோல்வி ஓரளவு உறுதியாகி விட்டதாக தெரிகிறது. </p><p>
</p><p>
ஸ்கோர்: தென்ஆப்பிரிக்கா- 253, 192/8, இலங்கை-308 (அட்டப்பட்டு-120, ரணதுங்கா- 54,
போலாக்-3/19, காலிஸ்-2/18)</p>

<p> </p>

<p>பார்முலா ஆசியா ரேஸ்:
தமிழக இளம் வீரர் பார்த்திவா முன்னணி</p>

<p></p><p>
சென்னை, ஆக.2- பார்முலா
ஆசியா சாம்பியன் ரேஸ் செபாங் நகரில் நடந்து வருகிறது. இதற்கான 3 சுற்றுக்கள் முடிவில்
இந்திய வீரர் பார்த்திவா சுரேஷ்வரன் (தமிழ்நாடு) 126 புள்ளிகள் பெற்று முதலிடத்தில்
உள்ளார். 112 புள்ளிகள் பெற்ற வீரர் வெய் லோங் மற்றும் இங்கிலாந்து வீரர் மார்க்
கோடார்ட் ஆகி யோர் அடுத்த இரு இடங்களை பெற்றுள்ளனர். நடந்த 3 ரேசில் பார்த்திவா
முதல், 2-வது மற் றும் 3-வது இடங்களை பெற்றுள்ளார். தமிழக வீரர் பார்த்திவா வின்
மேலாளர் அக்பர் இப்ரா கீம் இதுதொடர்பாக கூறுகை யில், பார்த்திவா குறுகிய காலத்தில்
இமாலய வெற்றிகள் பெற்று வருகிறார். இதே வேகத் தில் இவரின் சாதனை தொடர்ந் தால் கூடிய
சீக்கிரத்தில் பார் முலா-1 ரேஸ் போட்டியில் பங்கெடுக்கவும் வாய்ப்புள்ளது என்றார்.</p>

<p> </p>

<p>சென்னையில் நாளை முதல்,
சர்வதேச பெண்கள் ஸ்குவாஷ்</p>

<p></p><p>
சென்னை, ஆக.2- பெண்களுக்கான
சர்வதேச ஸ்குவாஷ் பந்தயம் நாளை முதல் வருகிற 6-ந்தேதி வரை சென்னையில் உள்ள இந்தியா
சிமெண்ட்ஸ் ஸ்குவாஷ் அகாடமியில் நடக்கிறது. 2-வது முறையாக சென்னையில் நடத்தப்படும்
இந்தப்போட்டியில், இந்தியா, ஆஸ்திரேலியா, எகிப்து, நார்வே, ஸ்காட்லாந்து, மலேசியா,
இங்கிலாந்து ஆகிய நாடுகளில் இருந்து வீராங் கனைகள் கலந்து கொண்டுள் ளனர். </p><p>
</p><p>
சர்வதேச தரவரிசையில் 15-வது இடத்தில் உள்ள ராச்சல் கிரின்காம் (ஆஸ்திரேலியா), சல்மா
சபானா (எகிப்து) ஆகியோர் தவிர, இந்தியாவில் இருந்து மேகலா சுபேதார், வைதேகி ரெட்டி,
பிரியங்கா யாதவ், அனேட்டா டாலா, திவ்யா ராஜன் ஆகியோரும் இந்தப்போட்டியில்
பங்கேற்றுள்ளனர். போட்டியின் மொத்த பரிசுத்தொகையாக ரூ.4.62 லட் சம் வழங்கப்படுகிறது.
தமிழக கைத்தறித்துறை இயக்குனர் தேவிதார் நாளை மாலை 5 மணிக்கு போட்டிகளை தொடங்கி
வைக்கிறார். வருகிற 6-ந்தேதி மாலை நடக்கும் நிறைவு விழாவில், தமிழக விளையாட்டு
மேம்பாட்டு ஆணையத்தின் உறுப்பினர் செயலர் நிரஞ்சன் மார்டி சிறப்பு விருந்தினராக
கலந்து கொண்டு வெற்றிபெற்றவர்களுக்கு பரிசுகள் வழங்குகிறார்.</p>

<p> </p>

<p>சகாரா கிரிக்கெட்: பாக்.
அணியில் அக்தர் ஆடுவாரா?</p>

<p></p><p>
மும்பை, ஆக.2-
இந்தியா-பாகிஸ்தான் அணிகளி டையேயான 5 போட்டிகள் கொண்ட டொரண்டோ கிரிக்கெட்
மோதல் அடுத்தமாதம் நடக்கிறது. ஆண்டுதோறும் நடக்கும் இந்தப்போட்டிக்கான பாகிஸ்தான்
அணியில் வேகப் பந்து வீச்சாளர் அக்தர் ஆடுவதில் சந்தேகம் எழுந்துள்ளது. தோள்பட்டை வலிகாரணமாக
மேற்கு இந்தியதீவு சுற்றுபயணத்தில் இருந்து ஓய்வு எடுத்துவரும் அக்தர் இன்னும் முழுகுணம்
அடையவில்லை. </p><p>
</p><p>
இந்தநிலையில் அணி மருத்துவர், அக்தருக்கு இன்னும் சில வாரங்கள் ஓய்வு தேவை என்று
கிரிக்கெட் போர்டிடம் அறிக்கை தாக்கல் செய்துள்ளார். எனவே பாகிஸ்தான் அணியில்
அக்தர் ஆடுவது அதிக சந்தேகத்தை கிளப்பி உள்ளது. கார்கில் சண்டை காரணமாக கடந்த ஆண்டு
இந்த மோதல்் ரத்து செய்யப்பட்டது குறிப்பிடத்தக்கது.</p>

<p> </p>

<p>உலக கிரிக்கெட்: இந்திய
அணியிடம் ஹாலந்து தோல்வி</p>

<p></p><p>
மும்பை, ஆக.2- 15
வயதிற்குட்பட்டோர்களுக்கான ஜூனியர் உலக கோப்பை கிரிக்கெட் போட்டி இங்கிலாந் தில் நடக்கிறது.
இதற்கான முதல் ஆட்டத்தில் தோல்விகண்ட இந் திய அணி நேற்றைய மோதலில் ஹாலந்தை
எதிர்த்து மோதியது. முதலில் பேட்டிங் செய்த ஹாலந்து அணி 49 ஓவரில் 110 ரன்னுக்கு அனைத்து
விக்கெட்டுகளையும் இழந்தது. இந்திய வீரர்கள், இர்பான் பாதன், தேவ்தாஸ் மற்றும் சுபாஷ்
தீக் ஷித் ஆகியோர் தலா 2 விக்கெட்டுகள் சாய்த்தனர். பின்னர் களம் இறங்கிய
இந்தியஅணி 20.3 ஓவரிலேயே வெற்றி இலக்கை எட்டியது. தொடக்க வீரர் தக்கூர் 56 ரன்களுடன்
ஆட்டம் இழக்காமல் இருந்தார். மற்றொரு வீரர் அபினவ் குமார் 30 ரன் எடுத்தார்.</p>






</body></text></cesDoc>