<cesDoc id="tam-w-dinakaran-sports-01-12-13" lang="tam">
<cesHeader type="text">
<fileDesc>
<titleStmt>
<h.title>tam-w-dinakaran-sports-01-12-13.txt</h.title>
<respStmt>
<respType>Electronic file created by</respType>
<respName>Department of Linguistics, Lancaster University</respName>
<respType>text collected by</respType>
<respName>Paul Baker and Celia Worth</respName>
<respType>transferred into Unicode by</respType>
<respName>"Unicodify" software by Andrew Hardie</respName>
</respStmt>
</titleStmt>
<publicationStmt>
<distributor>UCREL</distributor>
<pubAddress>Department of Linguistics, Lancaster University, Lancaster, LA1 4YT, UK</pubAddress>
<availability region="WORLD"></availability>
<pubDate>03-08-24</pubDate>
</publicationStmt>
<sourceDesc>
<biblStruct>
<monogr>
<h.title>"Dinakaran" internet news (www.dinakaran.com), news stories collected on 01-12-13</h.title>
<h.author>Dinakaran</h.author>
<imprint>
<pubPlace>Tamil Nadu, India</pubPlace>
<publisher>Dinakaran</publisher>
<pubDate>01-12-13</pubDate>
</imprint>
</monogr>
</biblStruct>
</sourceDesc>
</fileDesc>
<encodingDesc>
<projectDesc>Text collected for use in the EMILLE project.</projectDesc>
<samplingDesc>Simple written text only has been transcribed. Diagrams, pictures and tables have been omitted and their place marked with a gap element.
</samplingDesc>
<editorialDecl>
<conformance level="1"></conformance>
</editorialDecl>
</encodingDesc>
<profileDesc>
<creation>
<date>03-08-24</date>
</creation>
<langUsage>Tamil</langUsage>
<wsdUsage>
<writingSystem id="ISO/IEC 10646">Universal Multiple-Octet Coded Character Set (UCS).</writingSystem>
</wsdUsage>
<textClass>
<channel mode="w">print</channel>
<constitution type="composite"></constitution>
<domain type="public"></domain>
<factuality type="fact"></factuality>
</textClass>
<translations></translations>
</profileDesc>
<revisionDesc></revisionDesc>
</cesHeader>

<text>
<body>




<p>கிரிக்கெட்: இந்திய
போராட்டம் தொடங்கியது, ஒய்ட் சதத்தில் இங்கிலாந்து 407 ரன்</p>

<p> </p>

<p>அகமதாபாத், டிச. 13- இந்தியாவுக்கு எதிரான டெஸ்ட் கிரிக்கெட்
போட்டியில் இங்கிலாந்து அணி 407 ரன் குவித்தது. ஒய்ட் டெஸ்ட் போட்டியில் முதல் சதம்
அடித்தார். இந்தியா 2 விக்கெட் இழந்து தவிக்கிறது. </p><p>
</p><p>
மொகலி டெஸ்ட் போட்டியில் இங்கிலாந்துக்கு எதிராக கிடைத்த வெற்றிக்களிப்பு இன்னும்
இந்திய வீரர்களை விட்டு விலகவில்லை என்றே தோன்றுகிறது. கொஞ்சமும் பொறுப்பில்லாத
பீல்டிங், மெத்தனமான பந்துவீச்சு ஆகிய அத்தனையும் தற்போது நடக்கும் 2-வது டெஸ்ட்
போட்டியில் கண்கூடாக தெரிகிறது. முதல் நாள் முடிவில் இங்கிலாந்து அணி 6 விக்கெட்டுகளை
பறிகொடுத்து 277 ரன் எடுத்தது. ஆனாலும் பின்வரிசை வீரர்கள் எந்தவித பதட்டமும் இன்றி
இந்திய பந்து வீச்சை எதிர்கொண்டு ரன் களை குவித்தனர். இதனால் இங்கிலாந்து அணி முதல் இன்
னிங்சில் 407 ரன்கள் குவித்தது. </p><p>
</p><p>
இந்திய வேகப்பந்து வீச்சாளர்கள் நாத் மற்றும் யோகன்னன் ஆகியோர் கொஞ் சமும்
அச்சம் கொடுக்காத நிலையில் கும்ளே மட்டும் இங்கிலாந்து வீரர்களை கொஞ்சம் பீதி
அடைய வைத்தார். ஆனால் மற்றொரு சுழல்பந்து வீச்சாளர் ஹர்பஜன் சிங்கை எதிர் அணியினர்
நன்றாக பதம்பார்த்து விட்டனர். குறிப்பாக கிரேக் ஒய்ட் இந்திய பந்துவீச்சை
தவிடுபொடியாக்கி ரன் குவித்தார். </p><p>
</p><p>
ஒய்ட் 121 ரன் </p><p>
</p><p>
121 ரன்கள் குவித்த ஒய்ட் ஹர்பஜன்சிங் ஓவரில் சிக்சர் ஒன்றும் அடித்தார். முன்னதாக 3
முறை ஆட்டம் இழக்கும் அபாயத்தில் இருந்து தப்பினார். முதல் டெஸ்ட் போட்டியில் சதம்
அடித்து அனைவரின் பாராட்டையும் பெற்ற இந்திய விக்கெட் கீப்பர் தாஸ்குப்தா 2 காட்சுகளை
கோட்டைவிட்டார். அத்தோடு நிற்காமல் ஸ்டம்பிங் வாய்ப்பு ஒன்றையும் குப்தா தவறவிட்டது
அனைவருக்கும் வேதனை உண்டாக்கியது. அதைவிட இந்திய வீரர்களின் பீல்டிங் படுமோசமாக இருந்தது.
ஏதோ கண்காட்சிப் போட்டியில் ஆடுவதைப்போல் இந்திய ஆட்டக்காரர்கள் சோர்ந்து
காணப்பட்டதை இங்கிலாந்து பேட்ஸ்மென்கள் நன்றாக பயன் படுத்திக் கொண்டனர் </p><p>
</p><p>
கும்ளே 7 விக்கெட் </p><p>
</p><p>
இந்திய வட்டாரத்தில் கொஞ்சம் ஆறுதல் உண்டாக்கியவர் கும்ளே மட்டும்தான். முதல்
டெஸ்ட் போட்டியில் 8 விக்கெட்டுகள் கைப்பற்றிய கும்ளே நேற்றைய ஆட்டமுடிவில் 7
விக்கெட்டுகளுடன் பெவிலியன் திரும்பினார். நாத், ஹர்பஜன் ஆகியோர் ஆறுதலுக்காக தலா ஒரு
விக்கெட் சாய்த்தனர். பகுதிநேர பந்துவீச்சாளர் டெண்டுல் கரும் தன் பங்குக்கு ஒரு விக்கெட்
எடுத்தார். பின்னர் களம் இறங்கிய இந்தியா 2-வது நாள் முடிவில் 2 விக்கெட் இழந்து 71 ரன்
பெற்றது. தொடக்க வீரர்கள் இருவரும் பெவிலியன் திரும்பி விட்ட நிலையில் டெண்டுல்கர்
மற்றும் திராவிட் ஆகியோர் களத்தில் இருந்தனர். இந்திய அணி தற்போதுள்ள நிலையில்
இங்கிலாந்தை விட 336 ரன்கள் பின்தங்கி இருக்கிறது. டெஸ்ட் கிரிக்கெட் போட்டியில்
ஒய்ட் தனது முதல் சதத்தை எட்டியது குறிப்பிடத்தக்கது. </p><p>
</p><p>
ஸ்கோர் போர்டு </p><p>
</p><p>
முதல் இன்னிங்ஸ்: இங்கிலாந்து-407 </p><p>
</p><p>
பச்சர் (கா) தாஸ்குப்தா (ப) கும்ளே-51 </p><p>
</p><p>
டிரெஸ்கோதிக் (கா) தாஸ்குப்தா (ப) கும்ளே-99 </p><p>
</p><p>
நாசர் உசைன் எல்.பி.டபிள்யூ. (ப) கும்ளே-01 </p><p>
</p><p>
வேகன் (கா) ஷேவாக் (ப) கும்ளே-11 </p><p>
</p><p>
ராம்பிரகாஷ் (ப) டெண்டுல்கர்-37 </p><p>
</p><p>
பிளின்டாப் (கா) லட்சுமண் (ப) கும்ளே-00 </p><p>
</p><p>
ஒய்ட் (ப) ஹர்பஜன்சிங்-121 </p><p>
</p><p>
போஸ்டர் (கா) டெண்டுல்கர் (ப) கும்ளே-40 </p><p>
</p><p>
கில்ஸ் (ப) கும்ளே-07 </p><p>
</p><p>
டவ்சன் (கா) தாஸ்குப்தா (ப) நாத்-09 </p><p>
</p><p>
ஹோகர்ட் அவுட் இல்லை-04 </p><p>
</p><p>
உதிரிகள்-27 </p><p>
</p><p>
விக்கெட் சரிவு: 1/124 2/144 3/172 4/176 5/180 6/236 7/344 8/360 9/391 </p><p>
</p><p>
பந்துவீச்சு: நாத் 29-7-105-1 </p><p>
</p><p>
யோகன்னன் 17-2-57-0ஹர்பஜன் 35.3-9-78-1 </p><p>
</p><p>
கும்ளே 51-13-115-7டெண்டுல்கர் 10-0-27-1 </p><p>
</p><p>
ஷேவாக் 2-1-4-0 </p><p>
</p><p>
இந்தியா-71/1 </p><p>
</p><p>
தாஸ் (கா) பச்சர் (ப) பிளின்டாப் -41 </p><p>
</p><p>
தாஸ்குப்தா (கா) நாசர்உசைன் (ப) கில்ஸ்-17 </p><p>
</p><p>
திராவிட் அவுட் இல்லை-05 </p><p>
</p><p>
டெண்டுல்கர் அவுட் இல்லை-02 </p><p>
</p><p>
உதிரிகள்-06 </p><p>
</p><p>
விக்கெட் சரிவு: 1/54 2/64 </p><p>
</p><p>
பந்துவீச்சு:ஹோகர்ட் 7-1-10-0 </p><p>
</p><p>
பிளின்டாப் 9-4-11-1கில்ஸ் 15-6-22-1 </p><p>
</p><p>
டவ்சன் 4-0-21-0ஒய்ட் 1-0-1-0 </p>

<p> </p>

<p> </p>

<p>சர்வதேச ஹாக்கி:
ஜப்பானுடன் மோதலில் இந்தியா எளிதான வெற்றி</p>

<p> </p>

<p>கோலாலம்பூர், டிச. 13- ஜப்பான் அணிக்கு எதிரான சர்வதேச
ஹாக்கிப் போட்டியில் இந்தியா எளிதாக வெற்றிபெற்றது. </p><p>
</p><p>
6 நாடுகள் கலந்து கொண்டுள்ள சாம்பியன் கோப்பை ஹாக்கிப்போட்டி கோலாலம் பூரில் நடந்து
வருகிறது. இதற்கான நேற்றைய ஆட்டத்தில் இந்தியா-ஜப்பான் அணிகள் மோதின. சர்வதேச
போட்டி களில் போதிய அனுபவம் பெற்றிராத ஜப்பான் அணி ஆட்டத்தின் தொடக்கம் முதல்
இந்திய தாக்குதலை சமாளிக்க தடுமாறியது. இதனால் முதல்பாதியில் தீபக் தாக்கூர் அடித்த ஒரு
கோல் மூலம் இந்தியா 1-0 என்ற கோல் கணக்கில் முன்னணி பெற்றது. </p><p>
</p><p>
இந்தியா 3 கோல் </p><p>
</p><p>
பின்னர் நடந்த 2-வது பாதி ஆட்டத்திலும் இந்தியாவின் கையே ஓங்கி இருந்தது. முடி வில்
இந்தியா 3-0 என்ற கோல் கணக்கில் வெற்றிபெற்றது. மற்ற இரு கோல்களையும், பிரப் ஜோத்
சிங் மற்றும் தீபக்தாக்கூர் ஆகியோர் அடித்தனர். இதன்மூலம் இந்தியா இந்தப் போட்டியில்
தனது 2-வது வெற்றியை பெற்றது. ஏற்கனவே இந்திய அணி முதல் ஆட்டத்தில் பெல்ஜியத்தை
தோற்கடித்தது குறிப்பிடத்தக்கது. ஒட்டுமொத்தமாக 7 புள்ளிகள் பெற்றுள்ள இந்தியா இன்று
நடக்கும் ஆட்டத்தில் அர்ஜென்டினாவை எதிர்த்து மோத உள்ளது. இந்த ஆட்டத்தில்
வெற்றிபெற்றால் இந்திய அணிக்கு இறுதிப்போட்டியில் ஆடும் வாய்ப்பு கிடைக்கும் என்ற நிலை
ஏற்பட்டுள்ளது. </p>

<p> </p>

<p> </p>

<p>டாக்காவில் பாக்.குடன்
கிரிக்கெட்: இந்திய அணி திடீர் விலகல்</p>

<p> </p>

<p>கொல்கத்தா, டிச. 13- பாகிஸ்தானுடன் டாக்காவில் நடக்க இருந்த 3
நாடு கிரிக்கெட் போட்டியில் இருந்து இந்தியா திடீரென விலகியது. </p><p>
</p><p>
3 நாடுகள் கலந்து கொள்ளும் ஒருநாள் கிரிக்கெட் போட்டி அடுத்த ஆண்டு ஜன வரி 3-ந்தேதி
முதல் 13-ந்தேதி வரை டாக்காவில் நடக்க உள்ளது. பாகிஸ்தான், வங்கதேசம் உள்பட 3 அணிகள்
மோதும் இந்தப்போட்டியில் இருந்து இந்தியா திடீரென விலகியது. இங்கிலாந்து கிரிக்கெட் அணி
தற்போது இந்தியாவுடன் டெஸ்ட் போட்டியில் ஆடிவருகிறது. டெஸ்ட் மோதல்கள் முடிந்ததும்
லண்டன் திரும்பும் இங்கிலாந்து அணி பின்னர் மீண்டும் இந்தியாவுடன் ஒருநாள் கிரிக்கெட்
போட்டியில் மோத உள்ளது. </p><p>
</p><p>
இதற்கு இடைப்பட்ட காலத்தில் டாக்காவில் கிரிக்கெட் போட்டி நடத்த திட்டமிடப்பட்டது.
தொடக்கத்தில் சம்மதம் தெரிவித்த இந்தியா தற்போது வீரர்களுக்கு ஓய்வு கொடுக்கும்
நோக்கில் பந்தயத்தில் இருந்து விலகியுள்ளதாக அறிவித்துள்ளது. </p><p>
</p><p>
கிரிக்கெட் உறவில் விரிசல் </p><p>
</p><p>
கார்கில் சண்டைக்குப் பின்னர் பாகிஸ்தானுடனான இந்திய உறவில் பெரிய விரிசல் ஏற்பட்டது.
இதையடுத்து பாகிஸ் தானுக்கு எதிரான கிரிக்கெட் போட்டிகளில் பங்கேற்க மத்திய அரசு தடை
விதித்தது. இதனால் டாக்கா கிரிக்கெட்டில் கலந்து கொள்ள இந்திய கிரிக்கெட் போர்டு
ஏற்கனவே மத்திய அரசிடம் அனுமதி கேட்டது. இந்திய அணிக்கு அனுமதி கொடுப்பது தொடர்பாக
மத்திய அரசு இறுதிமுடிவு எடுப்பதற்கு இந்திய போர்டு அதிர்ச்சிகரமான இந்த முடிவை
அறிவித்துள்ளது பலருக்கும் பல்வேறு கேள்விகளை உண்டாக்கி உள்ளது. </p><p>
</p><p>
இழப்பை சரிகட்டுவோம் </p><p>
</p><p>
இதற்கு முன்னதாக பல்வேறு சந்தர்ப்பங்களில் இந்திய அணிக்கு கடைசி கட்டத்தில் மத்திய அரசு
அனுமதி மறுத்தது. அதுபோன்ற அசாதாரண சூழ்நிலையை தவிர்க்க வேண்டும் என்ற நோக்கத்தில்
கிரிக்கெட் போர்டு கொஞ்சம் முந்திக் கொண்டு இந்த அறிவிப்பை வௌியிட்டு
விட்டதாக தகவல்கள் தெரிவிக்கின்றன. தற்போது போட்டியில் இருந்து இந்திய அணி
விலகிவிட்டதால் வங்கதேச போர்டுக்கு புதிய சிக்கல் ஏற்பட்டுள்ளது. 2003-ம் ஆண்டு உலக
கோப்பை போட்டி முடிந்ததும் நிச்சயம் வங்கதேசம் சுற்றுப்பயணம் செய்து தற்போதைய இழப்பை
இந்திய அணி சரிகட்டி விடும் என்று போர்டு தலைவர் டால்மியா தனது பேட்டியில் குறிப்
பிட்டுள்ளார். </p>

<p> </p>

<p> </p>

<p>ஐதராபாத்துடன் கிரிக்கெட்:
தடுமாறுகிறது தமிழகம்</p>

<p> </p>

<p>சென்னை, டிச. 13- ஐதராபாத் அணிக்கு எதிரான ரஞ்சி
கிரிக்கெட் போட்டியில் தமிழ்நாடு அணி விக்கெட்டுகளை பறிகொடுத்து போராடி வருகிறது. </p><p>
</p><p>
ஐதராபாத் அணிக்கு எதிரான ரஞ்சி கிரிக்கெட் போட்டியில் தமிழ்நாடு அணி சென்
னையில் மோதி வருகிறது. முதலில் பேட்டிங் செய்த ஐதராபாத் அணி 336 ரன்கள் எடுத்தது.
பின்னர் தமிழ்நாடு அணி நம்பிக்கையுடன் களம் புகுந்தது. தொடக்கத்தில் 2 விக்கெட்டுகளை
பறிகொடுத்த தமிழ்நாடு பின்னர் கொஞ்சம் தாக்குப்பிடித்து ரன் குவித்தது. ஆனாலும்
நேற்றைய 3-வது நாள் முடிவில் தமிழ்நாடு அணி 7 விக்கெட்டுகளை இழந்து 276 ரன்கள் எடுத்தது. </p><p>
</p><p>
தமிழகம் போராடுகிறது </p><p>
</p><p>
இன்னும் 3 விக்கெட்டுகள் மட்டுமே எஞ்சி உள்ள நிலையில் தமிழக அணி ஐதராபாத் அணியை
விட 60 ரன்கள் பின் தங்கி உள்ளது. இன்றைய கடைசிநாளில் தமிழக வீரர்கள்
தாக்குப்பிடித்தால் மட்டுமே முதல் இன்னிங்ஸ் ரன் இழப்பை சரிகட்ட முடியும். இந்த வாய்ப்பை
கோட்டைவிட்டால் முதல் இன்னிங்ஸ் ரன் முன்னணியால் ஐதராபாத் அணிக்கு 5 புள்ளிகளும், தமி
ழகத்துக்கு 3 புள்ளிகளும் வழங்கப்படும். தமிழக அணியில் ஹேமந்த் குமார் (51 ரன்), சரத்
(69 ரன்) மற்றும் அரசு (68 ரன்) ஆகியோர் அரைசதம் எடுத்தனர். </p>

<p> </p>

<p> </p>

<p>தேசிய பெண்கள் செஸ்:
ஹரிகா சாம்பியன்</p>

<p> </p>

<p>சென்னை, டிச. 13- தேசிய பெண்கள் செஸ் போட்டியில் ஆந்திராவின்
ஹரிகா சாம்பியன் கோப்பை வென்றார். </p><p>
</p><p>
19 வயதிற்குட்டோர்களுக்கான தேசிய ஜூனியர் பெண்கள் செஸ் போட்டி சென்னை நேரு
மைதானத்தில் நடந்தது. 11 சுற்றுகள் கொண்ட இந்தப் போட்டிக்கான கடைசி ஆட்டம் நேற்று
நடந்தது. தோல்வி அடைந்தாலும் சாம்பியன் கோப்பை உறுதி என்ற நிலையில் ஹரிகா நேற்றைய
இறுதி ஆட்டத்தில் தமிழகத்தின் டெல் பினுடன் பலப்பரீட்சை நடத்தினார். வௌ்ளை நிறக்காய்களுடன்
ஆடிய ஹரிகா 37-வது நகர்த்தலில் டெல்பினுடன் டிரா செய்தார். இதன்மூலம் ஒட்டுமொத்தமாக 9
புள்ளிகள் பெற்று ஹரிகா சாம்பியன் கோப்பையை கைப்பற்றினார். 12 வயதான ஆந்திரா
வீராங்கனை ஹரிகா இந்த வெற்றியால் உலக கோப்பை மோதலில் கலந்து கொள்ள தேர்வு
செய்யப்பட்டுள்ளார். </p><p>
</p><p>
நிலவொளி பரிதாபம் </p><p>
</p><p>
கொல்கத்தாவை சேர்ந்த மேரி அன்கோம்ஸ் நேற்றைய ஆட்டத்தில் வினோத்னாவை (ஆந்திரா)
தோற்கடித்து 2-வது இடம்பெற்றார். மும்பை வீராங்கனை இஷா கரவாடேவுக்கு 3-வது இடம்
கிடைத்தது. இந்தப் போட்டியில் 2-வது பரிசு பெற்ற மேரி அன்கோம்ஸ் ஆசிய சாம்பியன் செஸ்
போட்டியில் கலந்து கொள்ள இந்தியாவின் சார்பில் தேர்வு செய்யப்பட்டுள்ளார்.
தொடக்கத்தில் சில வெற்றிகள் பெற்று ஆதிக்கம் செய்த தமிழக வீராங்கனை நில வொளி
பின்னர் நடந்த போட் டிகளில் சிறப்பாக ஆடாததால் 10-வது இடத்துக்குத் தள்ளப்பட்டார்.
பின்னர் நடந்த பரிசளிப்பு விழாவில் லயோலா கல்லூரி பங்குத்தந்தை காசிமிர் ராஜ்
சிறப்பு விருந்தினராக கலந்து கொண்டு பரிசுகள் வழங்கினார். </p>

<p> </p>






</body></text></cesDoc>