<cesDoc id="tam-w-dinakaran-sports-03-04-19" lang="tam">
<cesHeader type="text">
<fileDesc>
<titleStmt>
<h.title>tam-w-dinakaran-sports-03-04-19.txt</h.title>
<respStmt>
<respType>Electronic file created by</respType>
<respName>Department of Linguistics, Lancaster University</respName>
<respType>text collected by</respType>
<respName>Paul Baker and Celia Worth</respName>
<respType>transferred into Unicode by</respType>
<respName>"Unicodify" software by Andrew Hardie</respName>
</respStmt>
</titleStmt>
<publicationStmt>
<distributor>UCREL</distributor>
<pubAddress>Department of Linguistics, Lancaster University, Lancaster, LA1 4YT, UK</pubAddress>
<availability region="WORLD"></availability>
<pubDate>03-08-24</pubDate>
</publicationStmt>
<sourceDesc>
<biblStruct>
<monogr>
<h.title>"Dinakaran" internet news (www.dinakaran.com), news stories collected on 03-04-19</h.title>
<h.author>Dinakaran</h.author>
<imprint>
<pubPlace>Tamil Nadu, India</pubPlace>
<publisher>Dinakaran</publisher>
<pubDate>03-04-19</pubDate>
</imprint>
</monogr>
</biblStruct>
</sourceDesc>
</fileDesc>
<encodingDesc>
<projectDesc>Text collected for use in the EMILLE project.</projectDesc>
<samplingDesc>Simple written text only has been transcribed. Diagrams, pictures and tables have been omitted and their place marked with a gap element.
</samplingDesc>
<editorialDecl>
<conformance level="1"></conformance>
</editorialDecl>
</encodingDesc>
<profileDesc>
<creation>
<date>03-08-24</date>
</creation>
<langUsage>Tamil</langUsage>
<wsdUsage>
<writingSystem id="ISO/IEC 10646">Universal Multiple-Octet Coded Character Set (UCS).</writingSystem>
</wsdUsage>
<textClass>
<channel mode="w">print</channel>
<constitution type="composite"></constitution>
<domain type="public"></domain>
<factuality type="fact"></factuality>
</textClass>
<translations></translations>
</profileDesc>
<revisionDesc></revisionDesc>
</cesHeader>

<text>
<body>




<p>முன்னாள் காப்டன் அசாருதீன்
சூடான பேட்டி: கிரிக்கெட் பற்றி பேச மாட்டேன் </p>

<p>
 
 
  
  
  
  
  
  
  
  
  
  
  
  
 
 
 

 
<gap desc="illustration"></gap></p>

<p>அசாருதீன் </p>

<p> </p>

<p>ஐதராபாத், ஏப். 19- என்னுடைய எதிர்கால கிரிக்கெட் வாழ்க்கை
குறித்து இனி நான் எதுவும் பேசமாட்டேன் என்று முன்னாள் காப்டன் அசாருதீன் கூறியுள்ளார். </p><p>
</p><p>
இந்திய கிரிக்கெட்டில் மிகப்பெரிய பூகம் பத்தை கிளப்பியவர் அசாருதீன். கிரிக்கெட்
போட்டியால் புகழின் உச்சத்துக்கு சென்ற அசாருதீன் பின்னர் வௌிவந்த சூதாட்ட பிரச்
சினையில் முக்கிய குற்றவாளியாகி சிக்கிக்கொண்டார். குரோனே உள்பட வௌிநாட்டு
வீரர்களுக்கு சூதாட்ட புரோக்கர்களை அறிமுகப்படுத்தி வைத்தது அசாருதீன் என்ற
அவப்பெயரையும் சம்பாதித்தார். இதனால் இந்திய கிரிக்கெட் போர்டு அவருக்கு ஆயுள் தடை
விதித்துள்ளது. இந்த தடையை எதிர்த்து அசாருதீன் ஐதராபாத் கோர்ட்டில் வழக்குப்
போட்டுள்ளார். </p><p>
</p><p>
இந்த பிரச்சினைக்கு நடுவே சிலகாலம் அமைதியாக இருந்த அசாருதீன் சமீபத்தில் நவீன ஜிம்
ஒன்றை தொடங்கினார். சர்வதேச தரத்துக்கு தொடங்கப்பட்ட இந்த ஜிம் தற்போது
ஐதராபாத்தில் அதிக பிரபலம் அடைந்துள்ளது. இதற்கிடையில் இளம் வீரர்களுக்காக கிரிக்கெட்
அகாடமி தொடங்கவும் அசாருதீன் முடிவு செய்திருக்கிறார். இதுதொடர்பாக அசாருதீன் செய்தி
நிறுவனம் ஒன்றுக்கு சிறப்பு பேட்டி அளித்தார். அப்போது அவர் கூறுகையில், என்னுடைய
எதிர்கால கிரிக்கெட் வாழ்க்கை குறித்து இனி நான் எதுவும் பேசமாட்டேன். என் மீது தற்போது
வழக்கு நடந்து வருகிறது. இந்த வழக்குகள் முடிந்த பின்னர்தான் கிரிக்கெட் வாழ்க்கையை முடிவு
செய்ய முடியும் என்றார். ஆனால் எனக்குத் தெரிந்த கிரிக்கெட்டை இளம் வீரர்களுக்கு
கொடுக்க நான் யாரையும் கேட்கத்தேவையில்லை என்று அசாருதீன் காட்டமாக கூறினார். </p><p>
</p><p>
மேலும் அவர் கூறுகையில், திறமை வாய்ந்த இளம் ஆட்டக்காரர்கள் பலரும் இந் தியாவில்
இருக்கிறார்கள். ஆனால் சர்வதேச போட்டிகளில் அவர்களால் சாதிக்க முடியவில்லை. இதற்கான
குறை என்ன என்பதை நான் அறிந்து கொண்டேன். இந்த குறையை நிவர்த்தி செய்யும் வகையில்
என்னுடைய கிரிக்கெட் அகாடமி அமையும். ஆண்டுக்கு குறைந்தபட்சம் 4 இளம் வீரர்களை இந்திய
அணிக்கு என்னால் உருவாக்கிக் கொடுக்க முடியும் என்ற நம்பிக்கை உள்ளது. சர்வதேச அளவில்
எனக்கு நெருக்கமான சில நண்பர்களை என்னுடைய அகாடமிக்கு அழைத்து பயிற்சி கொடுக்க முடிவு
செய்திருக்கிறேன் என்றார். இதற்கிடையில் சினிமா தயாரிக்கும் வேலையிலும் இறங்கப்போவதாக
அசாருதீன் தெரிவித்தார். இதற்காக சில முன்னணி சினிமா இயக்குனர்களிடம் பேச்சுவார்த்தை
நடந்து வருகிறது. </p><p>
</p><p>
சர்வதேச தரத்துக்கு சினிமா தயாரிக்க முடிவு செய்திருக்கும் அசாருதீன் கிரிக்கெட் அகாடமி
தொடங்க ஆந்திரா அரசிடம் அரசு நிலத்தை கேட்டுள்ளார். ஒருவேளை அரசு நிலம் கிடைக்காவிட்டால்,
ஆந்திராவில் உள்ள கிரிக்கெட் மைதானத்தில் இடம் ஒதுக்கி தருமாறும் அசாருதீன்
கேட்டிருக்கிறார். 99 டெஸ்ட் கிரிக்கெட் போட்டியில் ஆடியிருக்கும் அசாருதீன் இன்னமும்
தனக்கு 100-வது மோதலுக்கான வாய்ப்பு கிடைக்கும் என நம்புகிறார் </p>

<p> </p>

<p> </p>

<p> </p>

<p>இந்தியாவை வீழ்த்தியது
தெ.ஆ. </p>

<p>
 
<gap desc="illustration"></gap></p>

<p>சுமித் </p>

<p> </p>

<p>டாக்கா கிரிக்கெட் போட்டிக்கான கடைசி லீக் ஆட்டத்தில் இந்திய
அணியை தென்ஆப்பிரிக்கா வீழ்த்தியது. </p><p>
</p><p>
டாக்கா கிரிக்கெட் போட்டிக்கான கடைசி லீக் ஆட்டத்தில் இந்தியா-தென்ஆப்பிரிக்கா
அணிகள் மோதின. இரு அணிகளும் ஏற்கனவே இறுதிப் போட்டிக்கு முன்னேறி விட்ட நிலையில்
சம்பிரதாயத்துக்காக இந்த ஆட்டம் நடை பெற்றது. முன்னதாக நடந்த லீக் போட்டியில்
தென்ஆப்பிரிக்காவை 153 ரன் வித்தியாசத்தில் இந்தியா தோற்கடித்தது. இதற்கு
தென்ஆப்பிரிக்கா நேற்றைய ஆட்டத்தில் பதிலடி கொடுத்தது. </p><p>
</p><p>
முதலில் பேட்டிங் செய்த இந்தியா தொடர்ச்சியாக விக்கெட்டுகளை கோட்டைவிட் டது. இதனால்
இந்தியா 215 ரன்னில் சுருண்டது. ஓய்வுக்குப் பின்னர் ஆடிய காப்டன் கங்குலி அதிகபட்சமாக
61 ரன்கள் எடுத்தார். டாசன் 4 விக்கெட்டுகளும், நிட்னி 3 விக்கெட்டுகளும் சாய்த்தனர்.
பின்னர் களம் இறங்கிய தென்ஆப்பிரிக் காவும் தொடக்கத்தில் விக்கெட்டுகளை இழந்தது.
ஆனால் மெக்கென்சி (80 ரன்) மற்றும் பவுச்சர் (44 ரன்) ஆகியோர் நிலைத்து ஆடினர்.
இதனால் 48.4 ஓவரில் 5 விக்கெட் இழந்த நிலையில் தென்ஆப்பிரிக்கா வெற்றிபெற்றது. முதல்
தோல்விக்கு பதிலடி கொடுத்ததின் மூலம் நாளை நடக்க இருக்கும் இறுதிப் போட்டி கூடுதல்
விறுவிறுப்பு பெற்றிருக்கிறது. இந்திய அணியில் ஹர்பஜன்சிங் 3 விக்கெட்டுகள்
கைப்பற்றினார். போட்டியில் கலந்து கொண்ட 3-வது அணியான வங்கதேசம் ஒரு வெற்றிகூட
பெறாமல் போட்டியில் இருந்து வௌியேற்றப்பட்டது. நேற்றைய ஆட்டத்தின் போது துணைகாப்டன்
ஷேவாக் காயம் அடைந்தார். </p>

<p> </p>

<p> </p>

<p>மேற்கு இந்தியதீவுடன்
ஒருநாள் கிரிக்கெட்: ஆஸ்திரேலிய அணி அறிவிப்பு </p>

<p>
 
<gap desc="illustration"></gap></p>

<p>பாண்டிங் </p>

<p>ஸ்டீவ்வாக் தலைமையிலான ஆஸ்திரேலிய கிரிக்கெட் அணி 4 போட்டிகள்
கொண்ட டெஸ்ட் தொடரில் மேற்கு இந்தியதீவு டன் ஆடிவருகிறது. டெஸ்ட் மோதல்கள் முடிந்ததும்
இந்த இரு அணிகளும் 7 ஒருநாள் போட்டிகளில் மோத இருக்கின்றன. இந்தப்போட்டிக்கான
ஆஸ்திரேலிய அணி அறிவிக்கப்பட்டது. 3-வது முறையாக உலக கோப்பை வென்று சாதனை படைத்த
ஆஸ்திரேலிய அணியில் இருந்து நாதன் பிராக்கென் மட்டும் நீக்கப்பட்டுள்ளார். உலக
கோப்பையின் போது காயம் அடைந்த கிலெஸ்பீக்குப்பதிலாக பிராக்கென் சேர்க்கப்பட்டார்.
தற்போது கிலெஸ்பீ முழுகுணம் அடைந்துவிட்டதால் பிராக்கென் தேர்வு செய்யப்பட வில்லை.
மற்றபடி உலக கோப்பையில் ஆடிய அனைத்து வீரர்களுக்கும் வாய்ப்பு கொடுக்கப்பட்டுள்ளது.
காயம் காரணமாக ஓய்வு எடுத்து வரும் மார்ட்டின் தேர்வு செய்யப்பட்டுள்ளார். மனைவிக்கு
உடல்நலக்குறைவு காரணமாக தாயகம் திரும்பிய வேகப்பந்து வீச்சாளர் மெக்ராத்தும் வாய்ப்பு
பெற்றுள்ளது குறிப்பிடத்தக்கது. வீரர்கள் விவரம் வருமாறு:- </p><p>
</p><p>
பாண்டிங் (காப்டன்), கில்கிறிஸ்ட், மைக்கேல் பெவன், பிக்கெல், கிலெஸ்பீ, ஹவுரிட்ஸ்,
ஹார்வி, ஹெய்டன், பிராட்ஹாக், பிரெட்லீ, லேமான், ஜிம்மிமெகர், மார்ட்டின்,
மெக்ராத், சைமோண்ட்ஸ். </p>

<p> </p>

<p> </p>

<p>இங்கிலாந்து கிரிக்கெட்
அணி: டெஸ்ட் அணிக்கு நாசர் காப்டன் </p>

<p>
 
<gap desc="illustration"></gap></p>

<p>நாசர் உசைன் </p>

<p> </p>

<p>இங்கிலாந்து டெஸ்ட் கிரிக்கெட் அணிக்கு நாசர் உசைன் மீண்டும்
காப்டனாக அறிவிக்கப்பட்டுள்ளார். </p><p>
</p><p>
உலக கோப்பை கிரிக்கெட் முடிந்ததும் காப்டன் பதவியில் இருந்து நாசர்உசைன் விலகினார்.
அரசியல் பிரச்சினை காரணமாக இங்கிலாந்து கிரிக்கெட் அணி ஜிம்பாப்வேயில் நடக்க இருந்த
மோதலை புறக்கணித்தது. இதனால் இங்கிலாந்து அணி உலககோப்பையின் முதல் சுற்றோடு
வௌியேற்றப்பட்டது. இந்தநிலையில் இங்கிலாந்து டெஸ்ட் கிரிக்கெட் அணிக்கு நாசர்உசைன்
மீண்டும் காப்டனாக அறிவிக்கப்பட்டுள்ளார். டெஸ்ட் போட்டிகளில் கவனம் செலுத்தப்போவதாக
கூறியதால் நாசருக்கு மீண்டும் வாய்ப்பு கொடுக்கப்பட்டுள்ளதாக தகவல்கள் வௌியாகி
இருக்கிறது. இங்கிலாந்து அணி இன்னும் சில வாரங்களில் ஜிம்பாப்வேயுடன் 2 டெஸ்ட்
போட்டிகளிலும், தென்ஆப்பிரிக்காவுடன் 5 டெஸ்ட் போட்டிகளிலும் மோத உள்ளது. ஆனால்
ஒருநாள் கிரிக்கெட் போட்டிக்கான காப் டன் இன்னும் அறிவிக்கப்படவில்லை. முன்னணி
ஆட்டக்காரர் மைக்கேல் வாகன் இந்த பதவிக்கு நியமிக்கப்பட அதிகமான வாய்ப்பு உள்ளதாக
தெரியவந்துள்ளது. ஆனால் டிரெஸ்கோதிக், கில்ஸ், ஹோலியாக் ஆகியோர்களும் காப்டன்
பதவிக் கான பரிசீலனையில் இருக்கிறார்கள். </p>

<p> </p>

<p> </p>

<p>டெண்டுல்கர் புகைப்பட
கண்காட்சி </p>

<p>
 
<gap desc="illustration"></gap></p>

<p>டெண்டுல்கர் </p>

<p> </p>

<p>சாதனைகள் பலவற்றுக்கு சொந்தக்காரரான டெண்டுல்கரின் புனே ரசிகர்
ஒருவர் சிறப்பு புகைப்பட கண்காட்சிக்கு ஏற்பாடு செய்துள்ளார். </p><p>
</p><p>
இந்தியாவில் மட்டுமின்றி சர்வதேச அளவில் கிரிக்கெட் ரசிகர் அதிகமாக கவர்ந்துள்ள
வீரர் சச்சின்டெண்டுல்கர். நடந்து முடிந்த உலக கோப்பை கிரிக்கெட் போட்டியில் 673
ரன்கள் விளாசி புதிய சாதனை படைத்தார். சாதனைகள் பலவற்றுக்கு சொந்தக்காரரான
டெண்டுல்கருக்கு வருகிற 24-ந்தேதி பிறந்த நாள் ஆகும். இதையொட்டி டெண்டுல்கரின் புனே
ரசிகர் ஒருவர் சிறப்பு புகைப்பட கண்காட்சிக்கு ஏற்பாடு செய்துள்ளார். இளமைக்காலம் முதல்
தற்போதுவரை டெண்டுல்கரின் முக்கிய நிகழ்வுகள் பற்றிய 15 ஆயிரம் புகைப்படங்கள் இந்த
கண்காட்சியில் வைக்க ஏற்பாடுகள் செய்யப்பட்டுள்ளன. பத்திரிகைகளில் வௌியாகி இருக்கும்
செய்திகளும் இந்த கண்காட்சியில் இடம்பெறுகிறது. கண்காட்சியைக் காண டெண்டுல்கரின்
சகோதரி நேரில் வர இருக்கிறார். </p>

<p> </p>

<p> </p>

<p>சார்ஸ் சோதனையின்றி
தங்கி இருக்கிறார்கள்: இந்தியாவில் சீனா வீரர்கள் </p>

<p> </p>

<p>சீனா மற்றும் இந்தோனேசியா ஆகிய நாடுகளை சேர்ந்த வீரர்களிடம்
சார்ஸ் நோய் பரிசோதனை எதுவும் செய்யப்படவில்லை </p><p>
</p><p>
சர்வதேச மல்யுத்தப்போட்டி கவுகாத்தியில் நடக்க இருக்கிறது. இந்தப் போட்டிக்காக
உலகின் பல்வேறு இடங்களில் இருந்தும் வீரர்கள் இந்தியா வந்துள்ளனர். தற்போது உலகையே
பீதியில் உறைய வைத்திருக்கும் சார்ஸ் நோய் அதிகமாக பாதித்து இருக்கும் சீனா மற்றும்
இந்தோனேசியா ஆகிய நாடுகளை சேர்ந்த வீரர்களும் போட்டிக்காக இந்தியா
வந்திருக்கிறார்கள். இந்தியா வந்திறங்கிய இவர்களிடம் சார்ஸ் நோய் பரிசோதனை எதுவும்
செய்யப்பட வில்லை என்பதுதான் மிகப்பெரிய அதிர்ச்சியாக உள்ளது. வௌிநாடுகளில் இருந்து
வரும் அனைவரிடமும் தற்போது சார்ஸ் நோய் பரிசோதனை நடத்தப்பட்டு வரும் நிலையில் இந்த
வீரர்கள் எப்படி சோதனையின்றி தப்பினார்கள் என்பது பெரிய கேள்விக்குறியை கிளப்பி
உள்ளது. போட்டி அமைப்பாளர்களுக்கு சார்ஸ் சோதனை பற்றி எதுவும் தெரியவில்லை என்பது
இன்னும் வேடிக்கையாக உள்ளது. இதனால் சார்ஸ் நோய் பீதி இந்தியாவில் உச்சக்கட்டத்தை
எட்டியுள்ளது. </p>

<p> </p>

<p> </p>

<p>கால்பந்து: தமிழ்நாடு
சாம்பியன் </p>

<p> </p>

<p>21 வயதிற்குட்பட்டோர்களுக்கான தென்மண்டல கால்பந்து போட்டியில்
தமிழ்நாடு அணி 2-1 என்ற கோல் வித்தியாசத்தில் வெற்றிபெற்று சாம்பியன் கோப்பையை
கைப்பற்றியது. </p><p>
</p><p>
21 வயதிற்குட்பட்டோர்களுக்கான தென்மண்டல கால்பந்து போட்டி திருச்சியில் நடந்தது.
தமிழ்நாடு, கேரளா, புதுவை, கர்நாடகம் உள்பட பல அணிகளும் இந்தப்போட்டியில்
கலந்துகொண்டன. இந்தப்போட்டிக்கான நேற்றைய இறுதி ஆட்டத்தில் தமிழ்நாடு-கேரளா அணிகள்
பலப்பரீட்சை நடத்தின. விறுவிறுப்பான ஆட்டத்தின் முடிவில் தமிழ்நாடு 2-1 என்ற கோல்
வித்தியாசத்தில் வெற்றிபெற்று சாம்பியன் கோப்பையை கைப்பற்றியது. தமிழ்நாடு அணியில்
ஜோசப் ராஜ் மற்றும் அசோக் குமார் ஆகியோர் தலா ஒரு கோல் போட்டனர். தமிழகத்தின்
தாக்குதலை சமாளிக்கத் தடுமாறிய கேரளா அணியில் அனீஷ் ஆறுதல் கோல் போட்டார்.
இந்தப்போட்டியில் வெற்றிபெற்றதின் மூலம் மண்டலங்களுக்கு இடையேயான போட்டியில் கலந்து
கொள்ளும் வாய்ப்பு தமிழக அணிக்கு வழங்கப்பட்டது. </p>

<p> </p>

<p> </p>

<p>சீனியர் டிவிசன் கால்பந்து:
ஸ்டேட்வங்கி வெற்றி </p>

<p> </p>

<p>சென்னை,
ஏப். 19- சீனியர் டிவிசன் கோப்பைக்கான கால்பந்து போட்டியில் ஸ்டேட்வங்கி 3-0 என்ற
கோல் வித்தியாசத்தில் வெற்றிபெற்றது. </p><p>
</p><p>
சீனியர் டிவிசன் கோப்பைக்கான கால்பந்து போட்டி சென்னையில் நடந்து வருகிறது. இதற்கான
நேற்றைய ஆட்டத்தில் ஸ்டேட்வங்கி-தமிழ்நாடு சிறப்பு காவல்படை அணிகள் மோதின. ஆட்டம்
தொடங்கிய 2-வது நிமிடத்தில் ஸ்டேட்வங்கி வீரர் முத்துக்கண்ணன் ஒரு கோல் போட்டு தனது
அணியை முன்னணி பெறச் செய்தார். இந்த உத்வேகத்தில் ஆடிய ஸ்டேட்வங்கியை தாக்குப்பிடிக்க
சிறப்பு காவல் படை வீரர்கள் அதிகமாக திணறினர். </p><p>
</p><p>
இதன்பின்னர் ஆட்டத்தின் 50 மற்றும் 55-வது நிமிடங்களில் ஸ்டேட்வங்கி அணி வீரர் பஷீர்
அடுத்தடுத்து கோல் போட்டார். இதனால் ஸ்டேட்வங்கி 3-0 என்ற கோல் வித்தியாசத்தில்
வெற்றிபெற்றது. இன்று நடக்கும் போட்டியில் யங்மென் சோசியல் கிளப் மற்றும் இந்தியன்
வங்கி அணிகள் பலப்பரீட்சை நடத்த உள்ளன. முன்னதாக முதல் டிவிசன் போட்டி நடந்தது. இதில்
பிரைட்டன் ஸ்போர்ட்ஸ் கிளப்- சென்னை துறைமுக அணிகள் மோதின. இதில் பிரைட்டன்
ஸ்போர்ட்ஸ் கிளப் ஒரு கோல் போட்டு வெற்றிபெற்றது. காந்த் வெற்றி கோல் போட்டார்.
</p>

<p> </p>

<p>சென்னை மாவட்ட கைப்பந்து
அணி 24-ந்தேதி தேர்வு </p>

<p> </p>

<p>மாவட்டங்களுக்கு இடையிலான மினி கைப்பந்து போட்டி அடுத்தமாதம்
2-ந் தேதி முதல் 3 நாட்கள் சேலத்தில் நடக்க உள்ளது. </p><p>
</p><p>
மாவட்டங்களுக்கு இடையிலான மினி கைப்பந்து போட்டி அடுத்தமாதம் 2-ந் தேதி முதல் 3 நாட்கள்
சேலத்தில் நடக்க உள்ளது. இந்தப் போட்டியில் கலந்து கொள் ளும் சென்னை அணி வீரர்-
வீராங்கனைகள் வருகிற 24-ந் தேதி தேர்வு செய்யப்படுகிறார்கள். 13 வயதிற்குட்பட்ட
ஆண்கள் மற்றும் பெண்கள் இந்த தேர்வு முகாமில் கலந்துகொள்ள முடியும். சென்னை எழும்பூரில்
உள்ள மேயர் ராதாகிருஷ்ணன் மைதானத்தில் 24-ந்தேதி மாலை 3.30 மணிக்கு தேர்வு நடக்க உள்
ளது. தேர்வு பெறும் அணிக்கு வருகிற 25-ந்தேதி முதல் 30-ந் தேதி சென்னையில் பயிற்சி
அளிக்கப்பட உள்ளது. சென்னை மாவட்ட கைப்பந்து சங்க செயலாளர் ஏ.கே.சித்திரை பாண்டியன்
வௌியிட்ட செய்திக்குறிப்பில் இது கூறப்பட்டுள்ளது. </p>

<p> </p>






</body></text></cesDoc>