<cesDoc id="tam-w-dinakaran-sports-00-12-12" lang="tam">
<cesHeader type="text">
<fileDesc>
<titleStmt>
<h.title>tam-w-dinakaran-sports-00-12-12.txt</h.title>
<respStmt>
<respType>Electronic file created by</respType>
<respName>Department of Linguistics, Lancaster University</respName>
<respType>text collected by</respType>
<respName>Paul Baker and Celia Worth</respName>
<respType>transferred into Unicode by</respType>
<respName>"Unicodify" software by Andrew Hardie</respName>
</respStmt>
</titleStmt>
<publicationStmt>
<distributor>UCREL</distributor>
<pubAddress>Department of Linguistics, Lancaster University, Lancaster, LA1 4YT, UK</pubAddress>
<availability region="WORLD"></availability>
<pubDate>03-08-24</pubDate>
</publicationStmt>
<sourceDesc>
<biblStruct>
<monogr>
<h.title>"Dinakaran" internet news (www.dinakaran.com), news stories collected on 00-12-12</h.title>
<h.author>Dinakaran</h.author>
<imprint>
<pubPlace>Tamil Nadu, India</pubPlace>
<publisher>Dinakaran</publisher>
<pubDate>00-12-12</pubDate>
</imprint>
</monogr>
</biblStruct>
</sourceDesc>
</fileDesc>
<encodingDesc>
<projectDesc>Text collected for use in the EMILLE project.</projectDesc>
<samplingDesc>Simple written text only has been transcribed. Diagrams, pictures and tables have been omitted and their place marked with a gap element.
</samplingDesc>
<editorialDecl>
<conformance level="1"></conformance>
</editorialDecl>
</encodingDesc>
<profileDesc>
<creation>
<date>03-08-24</date>
</creation>
<langUsage>Tamil</langUsage>
<wsdUsage>
<writingSystem id="ISO/IEC 10646">Universal Multiple-Octet Coded Character Set (UCS).</writingSystem>
</wsdUsage>
<textClass>
<channel mode="w">print</channel>
<constitution type="composite"></constitution>
<domain type="public"></domain>
<factuality type="fact"></factuality>
</textClass>
<translations></translations>
</profileDesc>
<revisionDesc></revisionDesc>
</cesHeader>

<text>
<body>




<p>கங்குலி-அகர்கர் மாயாஜால
பந்துவீச்சு: ஜிம்பாப்வே அணியை வீழ்த்தி இந்தியா தொடரை வென்றது</p>

<p> </p>

<p>கான்பூர், டிச.12- டெஸ்ட் போட்டியைப்போல் ஒருநாள் தொடரையும்
கைப் பற்றி விடவேண்டும் என்பதில் இந்திய கிரிக்கெட் அணியினர் நேற்றைய மோதலில்
காட்டிய ஆர்வம் ஒட்டுமொத்த இந்திய ரசிகர்களையும் உற்சாகத்தின் உச்சத்துக்கே கொண்டு
சென் றுள்ளது. ஜிம்பாப்வே அணிக்கு எதிரான 4-வது ஒருநாள் கிரிக் கெட் போட்டியில் இந்தியா
நேற்று ஆடியது. முன்னதாக ஜோத்பூரில் நடந்த ஆட்டத்தில் ஜிம்பாப்வே கடைசி ஒரு பந்து
எஞ்சி இருந்த நிலையில் இந் தியாவை தோற்கடித்து பெரிய அதிர்ச்சி கொடுத்தது. </p><p>
</p><p>
அகர்கர் அபாரம் </p><p>
</p><p>
ஜோத்பூரில் கிடைத்த அதிர்ச் சியை மனதில் வைத்துக் கொண்டு இந்திய வீரர்கள் அதிக
எச்சரிக்கையுடன் நேற் றைய ஆட்டத்தில் களம் இறங் கினர். டாஸ் வென்ற கையோடு பேட்டிங்
செய்த ஜிம்பாப்வே அணி முதல் 15 ஓவரில் விக் கெட் இழப்பின்றி 57 ரன் எடுத் தது. ஆனால்
இதன்பின்னர் தான் ஜிம்பாப்வே அணிக்கு சோதனை தொடங்கியது. சமீப காலமாக விக்கெட்
சாய்க்கத் திணறிய அகர்கர் நேற்றைய ஆட்டத்தில் தேர்வுக்குழுவின ரின் நம்பிக்கையை
நிறைவேற்றி னார். </p><p>
</p><p>
கங்குலி 5 விக்கெட் </p><p>
</p><p>
சிறப்பாக பந்துவீசிய அவர் ஆட்டமுடிவில் 25 ரன் னுக்கு 4 விக்கெட்டுகள் கைப்பற்றினார்.
இவரைவிட ஜிம்பாப்வே அணி யின் பரிதாப ரன்குவிப்புக்கு இந்திய காப்டன் கங்குலியைத் தான்
காரணமாக சொல்ல வேண்டும். நீண்ட இடைவௌிக் குப்பிறகு பந்துவீச்சில் கவனம் செலுத்திய
கங்குலி 34 ரன் விட்டுக்கொடுத்து 5 விக்கெட் டுகள் கைப்பற்றினார். ஒருநாள்
கிரிக்கெட்டில் கங்குலி 5 விக் கெட் எடுப்பது இது 2-வது முறையாகும். ஏற்கனவே டொரண்டோ
கிரிக்கெட் போட் டியில் பாகிஸ்தானுக்கு எதிராக 5 விக்கெட் சாய்த்து சாதனை செய்தார்.
நம்பிக்கை வீரர்கள் ஏ.பிளவர், ஜி.பிளவர், கேம்பல் ஆகிய யாரும் அதிகநேரம் களத் தில்
நிலைக்காததால், ஜிம் பாப்வே அணி 165 ரன்னில் ஆட்டம் இழந்தது. </p><p>
</p><p>
இந்தியா எளிதான வெற்றி </p><p>
</p><p>
இதையடுத்து இந்தியஅணி வழக்கம்போல் அதிரடியாக ரன்குவிப்பை தொடங்கியது. தொடக்க
வீரர்கள் டெண்டுல் கர்-கங்குலி ஆகியோர் முதல் விக்கெட்டுக்கு 157 ரன் குவித்து
இந்தியாவின் வெற்றியை வெகு எளிதாக்கினர். 62 ரன்பெற்ற நிலையில் டெண்டுல்கர் ஆட் டம்
இழந்தார். ஆறுதலாக இந்த ஒரு விக்கெட்டை மட்டுமே ஜிம் பாப்வே பந்துவீச்சாளர்களால்
கைப்பற்ற முடிந்தது. நிர்ணயிக் கப்பட்ட வெற்றி இலக்கை இந் தியா 25 ஓவரின் முடிவிலேயே
பெற்று ஒருநாள் தொடரையும் 3-1 என்ற ஆட்டக்கணக்கில் கைப்பற்றியது. இந்த இருஅணி களும்
மோதும் கடைசி ஆட்டம் வருகிற 14-ந்தேதி ராஜ்கோட் நக ரில் நடக்க உள்ளது. கங்குலி 71
ரன்னுடன் இறுதிவரை ஆட்டம் இழக்காமல் களத்தில் இருந்தார். பந்துவீச்சு மற்றும்
பேட்டிங்கில் பிரகாசித்ததால் கங்குலி ஆட்ட நாயகனாகவும் தேர்வு செய்யப் பட்டார். </p><p>
</p><p>
நேற்றைய போட்டிக்கான இந்திய அணியில் 3 மாற்றங்கள் செய்யப்பட்டன. ஜோஷி, யுவ்
ராஜ்சிங் மற்றும் சோதி ஆகி யோர் நீக்கப்பட்டு, ஆசிஷ்கபூர், ஷேவாக் மற்றும் ராம்
ஆகி யோர் அணியில் வாய்ப்பு பெற் றனர். ஆனால் இவர்களுக்கு திறனை நிரூபிக்கும் வாய்ப்பு
கிடைக்க வில்லை. </p><p>
</p><p>
ஸ்கோர்: ஜிம்பாப்வே-165 (45.4 ஓவர்) (கேம்பல்-32, மடோனா-32, கங்குலி-5/34,
அகர்கர்-4/25), இந்தியா-166/1 (25 ஓவர்) (கங்குலி-71அ.இ., டெண்டுல்கர்-62). </p>

<p> </p>

<p>தமிழ்நாடு பல்கலைக்கழக
தடகளம்: சென்னை அணி ஆதிக்கம்</p>

<p> </p>

<p>சென்னை, டிச.12- தமிழ்நாடு பல்கலைக்கழக அணிகளுக்கான
தடகளப்போட்டிகள் சென்னை நேரு மைதா னத்தில் நேற்று தொடங்கியது. இருநாட்கள் கொண்ட
இந்தப் போட்டியில் சென்னை பல் கலைக்கழகம் தவிர, அண்ணா மலை, அண்ணா, பாரதியார் (கோவை),
பாரதிதாசன் (திருச்சி), அவினாசிலிங்கம் (கோவை), கால்நடை, ராமச்சந் திரா மருத்துவம்
ஆகிய அணி கள் கலந்து கொண்டுள்ளன. நெல்லை மனோன்மணியம் சுந் தரனார், அழகப்பா மற்றும்
காமராஜ் பல்கலைக்கழக அணி கள் போட்டியில் கலந்து கொள்ள வில்லை. </p><p>
</p><p>
364 பேர் பங்கேற்பு </p><p>
</p><p>
8 பல்கலைக்கழகங்களில் இருந்து 194 வீரர்கள் மற்றும் 170 வீராங்கனைகள் இந்தப்
போட்டியில் பங்கேற்றுள்ளனர். நேற்றைய நாளில் மொத்தம் 18 பிரிவுகளில் மோதல்கள்
நடந் தது. இதில் மொத்தம் 12 விளை யாட்டுகளில் சென்னை பல் கலைக்கழகம் முதலிடம் பெற்று
முன்னணி வகித்தது. சென்னை பல்கலைக்கழக அணிக்கு பாரதி தாசன் அணியினர் கடும் சவா லாக
இருந்தனர். நேற்று மதியம் சென்னை எத்திராஜ் பெண்கள் கல்லூரி முதல்வர் இந்திராணி தரன்
போட்டியை தொடங்கி வைத்தார். இன்று மாலை 4 மணிக்கு நடக்கும் பரிசளிப்பு விழாவில்,
தமிழ்நாடு விளை யாட்டு மேம்பாட்டு ஆணைய உறுப்பினர் செயலர் நிரஞ்சர் மார்டி சிறப்பு
விருந்தினராக கலந்து கொள்கிறார். போட் டிக்கு தமிழ்நாடு விளையாட்டு மேம்பாட்டு ஆணையம்
ஸ்பான் சர் செய்துள்ளது. </p><p>
</p><p>
நடந்து முடிந்த போட்டியில் முதல் 3 இடம் பெற்ற வீரர்- வீராங்கனைகள் மற்றும் பல்
கலைக்கழக விவரங்கள் வருமாறு:- </p><p>
</p><p>
ஆண்கள் </p><p>
</p><p>
10000மீ.: முருகபாண்டியன் (சென்னை), ரகுநாத் (பாரதிதாசன்), வீரசீனு (பாரதியார்),
1500மீ. ஓட்டம்: சுந்தர் (பாரதிதாசன்), அனில்லால் (அண்ணாமலை), நல்லமணி சித்தார்
(பாரதிதாசன்), 400மீ. ஓட்டம்: சதீஸ் (சென்னை), சுரேஷ் (பாரதிதாசன்), பார்த்தசாரதி
(சென்னை), ஈட்டிஎறிதல்: வெங் கட கிருஷ்ணன் (சென்னை), ராம கிருஷ்ணன் (சென்னை), முகமது
ரியாஸ் (பாரதிதாசன்), நீளம் தாண் டுதல்: சரவணகுமார் (சென்னை), உதயூர் (சென்னை),
லட்சுமி நாரா யணன் (பாரதியார்), போல்வால்ட்: ராஜாசந்திரசேகரன் (சென்னை), இளம்பரிதி
(பாரதிதாசன்), மகா தேவன் (பாரதிதாசன்), 110மீ. தடை ஓட்டம்: தரன் (சென்னை), சண் முக
வரதன் (சென்னை), சிந்தா மதூர் முகைதீன் (பாரதியார்), 100மீ. ஓட்டம்: அனிஸ்
(சென்னை), சஞ் சய் (சென்னை), அலெக்ஸ் அந் தோணி ராஜ் (பாரதிதாசன்), உயரம்
தாண்டுதல்: பிரீத்தீப்ராஜ்குமார் (பாரதியார்), ஜோஸ்மால்ராஜ் (பாரதி தாசன்), ஆனந்த்
அமிர்தராய் (சென்னை), வட்டுஎறிதல்: கருணா நிதி (பாரதியார்), எட்வின் புஸ்ப ராஜ்
(சென்னை), சிகாமணி (அண்ணாமலை), 4றூ100 தொடர் ஓட்டம்: சென்னை, பாரதிதாசன்,
அண்ணாமலை </p><p>
</p><p>
பெண்கள் </p><p>
</p><p>
1500மீ. ஓட்டம்: கிருஷ்ணவேணி (சென்னை), சுந்தரி (பாரதிதாசன்), பாப்பாத்தி
(பாரதியார்), 400மீ. ஓட் டம்: தாரா ராணி (பாரதிதாசன்), ரோஸ்லின் ஆரோக்யமேரி
(சென்னை), வாணி (சென்னை), குண்டுஎறிதல்: பானுப்பிரியா (அண்ணாமலை), சுபா (பாரதி யார்),
சரவணி (சென்னை), 100மீ. தடை ஓட்டம்: ப்ரியா (சென்னை), பரிமளா தேவி (பாரதியார்),
நூசன் ராஜேந்திரன் (அண்ணா), 100மீ. ஓட்டம்: ப்ரியா (சென்னை), தாரா ராணி
(பாரதிதாசன்), மகேஷ்வரி (பாரதியார்), ஈட்டிஎறிதல்: கிறிஸ்டி பிரான்சிஸ்
(அண்ணாமலை), தமிழ் வாணி (அவினாசி), ஜெயந்தி (சென்னை), 4றூ100மீ. ஓட்டம்: சென்னை,
பாரதிதாசன், பாரதியார். </p>

<p> </p>

<p>விளையாட்டு துளிகள்</p>

<p> </p>

<p>மாநில கால்பந்து: லாரன்ஸ் நினைவு அணி வெற்றி </p><p>
</p><p>
சென்னை, டிச.12- </p><p>
</p><p>
சென்னை பட்டாபிராமில் நடக்கும் மாநில கால்பந்து போட்டிக்கான நேற்றைய ஆட்டத்தில்
லாரன்ஸ் நினைவு கால்பந்து மற்றும் சென்னை துறைமுக அணிகள் மோதின. நிர்ணயிக் கப்பட்ட
நேரமுடிவில் இரு அணிகளும் கோல்போட வில்லை என்பதால் டை-பிரேக் கர் ஆட்டம் நடந்தது.
இதில் லாரன்ஸ் அணி 4-3 என்ற கோல் கணக்கில் துறைமுக அணியை தோற்கடித்தது. வெற்றி பெற்ற
அணியில் மதன் ராஜ், சகாயராஜ், மதியழகன், ஜான்போஸ்கோ ஆகியோர் தலா ஒருகோல்
போட்டனர். துறைமுக அணியில், வேல்முருகன், ராஜேந்திர பிரசாத் மற் றும் பழனி கோல்
போட்டனர். </p><p>
</p><p>
சோப்ராவிடம் சென்னையில் இன்று விசாரணை </p><p>
</p><p>
சென்னை, டிச.12- </p><p>
</p><p>
இந்திய கிரிக்கெட் சூதாட்டம் தொடர்பாக நிகில் சோப்ராவிடம் சென்னை யில் இன்று
விசாரணை நடக்கிறது. ஏற்கனவே விசாரணை நடத்திய சி.பி.ஐ. சோப்ராவின் பெயரை தனது
அறிக்கையில் இருந்து விடுவித்து விட்டபோதும், கிரிக்கெட் போர்டு மேல்விசாரணை அதிகாரி
மாதவன் சோப்ராவிடம் இன்று விசாரணை நடத்துகிறார். அசாருதீன் உள்பட பல வீரர்களிடம்
மாதவன் நடத்திய விசாரணைக்குப்பிறகு அவர்கள் மீது கிரிக்கெட் போர்டு நடவடிக்கை எடுத்தது.
தற்போது சோப்ராவிடம் விசா ரணை நடத்த கிரிக்கெட் போர்டுதான் மாதவனை
கேட்டுக்கொண்டுள் ளது. எனவே சோப்ரா மீதும் நடவடிக்கை எடுக்க போர்டு திட்டமிட்டுள்
ளதோ? என எண்ணத்தோன்றுகிறது. கபில்தேவ் மற்றும் அஜித் வடே கரிடமும் கிரிக்கெட்
போர்டு மேல்விசாரணை நடத்த உள்ளது. </p><p>
</p><p>
உலக செஸ்: அரைஇறுதிக்கு ஆனந்த் தகுதி </p><p>
</p><p>
புதுடெல்லி, டிச.12- </p><p>
</p><p>
சர்வதேச செஸ் சாம்பியன் பந்தயம் புதுடெல்லியில் நடக்கிறது. இந்திய கிராண்ட்மாஸ்டர்
விஸ்வநாதன் ஆனந்த் மற்றும் ரஷிய வீரர் காலிப்மென் ஆகியோர் மோதிய கால்இறுதி
ஆட்டத்தின் இரு மோதல்களும் டிராவில் முடிந்ததால் டை-பிரேக்கர் சுற்று நடந்தது. வேகமாக
காய்களை நகர்த்தும் முதல் ஆட்டத்தில் ஆனந்த் கறுப்பு நிறக்காய்களுடன் ஆடி வெற்றிபெற்
றார். இந்த ஆட்டம் 22 காய்நகர்த்தலில் முடிவுக்கு வந்தது. இதன்பின்னர் நடந்த 2-வது
டை-பிரேக்கர் ஆட்டம் 59 நகர்த்தலுக்குப்பின்னர் டிரா ஆனது. இதனால் ஆனந்த் 1.5-0.5
புள்ளிகளுடன் முன்னணி பெற்று அரைஇறுதிக்கு முன்னேறினார். ஆனந்திடம் தோற்ற காலிப்மென்
நடப்பு சாம்பியன் என்பது குறிப்பிடத்தக்கது. </p><p>
</p><p>
பாக்.குடன் டெஸ்ட்: இங்கிலாந்து வெற்றி </p><p>
</p><p>
கராச்சி, டிச.12- </p><p>
</p><p>
இங்கிலாந்து-பாகிஸ்தான் அணிகள் மோதிய கடைசி டெஸ்ட் கிரிக்கெட் போட்டி கராச்சியில்
நடந்தது. முதல் இன்னிங்சில் 405 ரன் குவித்த பாகிஸ்தான் அணி 2-வது இன்னிங்சில் 158
ரன்னில் சுருண்டது. ஏற் கனவே முதல் இன்னிங்சில் இங்கிலாந்து 388 ரன் பெற்றிருந்ததால், அடுத்து
176 ரன் எடுத்தால் வெற்றி என்ற இலக்கு நிர்ணயிக் கப்பட்டது. நம்பிக்கையுடன் களம்
இறங்கிய இங்கிலாந்து அணி 4 விக்கெட் இழந்து வெற்றி பெற்றது. இதன்மூலம் 1-0 என்ற
ஆட்டக்கணக்கில் இங்கிலாந்து அணி தொடரை யும் கைப்பற்றியது. 39 ஆண்டு இடைவௌிக்குப்பிறகு
பாகிஸ்தானுக்கு எதிரான டெஸ்ட் தொடரை இங்கிலாந்து கைப்பற்றி சாதனை செய்தது. இறுதி வரை
ஆட்டம் இழக்காமல் 64 ரன் எடுத்த கிரகாம் தோர்ப் அணியின் வெற்றிக்கு காரணமாக
இருந்தார். ஸ்கோர்: பாகிஸ்தான்-405, 158, இங்கிலாந்து-388, 176/4 (கிரகாம்
தோர்ப்-64). </p><p>
</p><p>
உலக கிரிக்கெட் போட்டி: அரைஇறுதியில் இந்திய பெண்கள் </p><p>
</p><p>
கிறிஸ்ட்சர்ச், டிச.12- </p><p>
</p><p>
பெண்கள் உலக கோப்பை கிரிக்கெட் போட்டிக்கான நேற்றைய ஆட்டத் தில் இந்தியா-அயர்
லாந்து அணிகள் மோதின. முத லில் ஆடிய இந்தியா நிர்ணயிக் கப்பட்ட ஓவரில் 199 ரன்
பெற்றது. அஞ்சும் சோப்ரா 70 ரன் எடுத்தார். இதன்பின்னர் களம் இறங்கிய அயர்லாந்து
அணி 30 ரன் வித் தியாசத்தில் தோல்வி கண்டது. இதுவரை பங்கேற்ற 6 போட்டிகளில் இந்தியா
8 புள்ளிகள் பெற்று அரைஇறுதி வாய்ப்பை எட்டியது. இந்திய அணி இடம்பெற்றுள்ள பிரிவில்
ஆஸ்திரேலியா மற்றும் நியூசிலாந்து அணிகள் முன்னணி பெற்றுள்ளன. இந்திய அணி அடுத்து இலங்கை
யுடன் மட்டும் மோதஉள்ளது. </p><p>
</p><p>
கங்குலி-தாகியாவுக்கு நடுவர் நோட்டீசு </p><p>
</p><p>
கான்பூர், டிச.12- </p><p>
</p><p>
ஜிம்பாப்வே அணிக்கு எதிரான 4-வது போட்டியின் போது இந்திய காப் டன் கங்குலி மற்றும்
விக்கெட் கீப்பர் தாகியா ஆகியோர் அடிக்கடி ஆட் டத்துக்கு இடையூறு செய்யும் வகையில்
சத்தம் போட்டதாக குற்றம் சாட்டி, இவர்கள் இருவருக்கும் நடுவர் நோட்டீசு அனுப்பி உள்ளார்.
இவர் கள் மீதான நடவடிக்கை பற்றி இன்று ராஜ்கோட்டில் அறிவிக்கப்படு கிறது. கடைசி
மோதலுக்கு இருவரும் நீக்கப்படவும் வாய்ப்பு உள்ளது. </p>

<p> </p>






</body></text></cesDoc>