<cesDoc id="ben-w-literature-story-bsh33" lang="ben">
<cesHeader type="text">
<fileDesc>
<titleStmt>
<h.title>ben-w-literature-story-bsh33.txt</h.title>
<respStmt>
<respType>Electronic file created by</respType>
<respName>Central Institute for Indian Languages, Mysore</respName>
<respType>transferred into Unicode and CES format by</respType>
<respName>"Unicodify" software by Andrew Hardie</respName>
</respStmt></titleStmt>
<publicationStmt>
<distributor>UCREL (on behalf of CIIL)</distributor>
<pubAddress>Department of Linguistics, Lancaster University, Lancaster, LA1 4YT, UK</pubAddress>
<availability region="WORLD"></availability>
<pubDate>03-07-22</pubDate>
</publicationStmt>
<sourceDesc>
<biblStruct>
<monogr>
<h.title>বাড়িবদল</h.title>
<h.author>সঞ্জীবচট</h.author>
<imprint>
<pubPlace>India</pubPlace>
<publisher>Unknown - Book.</publisher>
<pubDate>1989</pubDate>
</imprint>
<idno type="CIIL code">bsh33</idno>
</monogr></biblStruct></sourceDesc></fileDesc>
<encodingDesc>
<projectDesc>Text collected for the CIIL Corpus, subsequently integrated into the EMILLE/CIIL Monolingual Written Corpora.</projectDesc>
<samplingDesc>Simple written text only has been transcribed. Diagrams, pictures and tables have been omitted. Sampling begins at page 08141.</samplingDesc>
<editorialDecl><conformance level="1"></conformance></editorialDecl>
</encodingDesc>
<profileDesc>
<creation><date>03-07-22</date></creation>
<langUsage>Bengali</langUsage>
<wsdUsage>
<writingSystem id="ISO/IEC 10646">Universal Multiple-Octet Coded Character Set (UCS).</writingSystem>
</wsdUsage>
<textClass>
<channel mode="w">print</channel>
<constitution type="composite"></constitution>
<domain type="public"></domain>
<factuality type="fiction"></factuality>
</textClass>
<translations></translations>
</profileDesc>
<revisionDesc></revisionDesc>
</cesHeader>

<text><body>

<p>&lt;একটা চেযার নিযে ভদ্রলোককে আসতে দেখে এগিযে গেলুম ।
ভারি চেযার । একা সামলাতে পারছেন না ।
"" সরুন আমি নিযে য়াচ্ছি । আপনি বইছেন কেন ? আর কেউ নেই ? ""
"" না , আমাকে সাহায়্য় করার মতো কেউ নেই । আমার চেহারা দেখে
আপনি বুঝতে পারবেন না , আমি খুব খাটতে পারি । ""</p>

<p>চেযারটাকে জানলার পাশে আমাদের দিকে মুখ করে রাখা হল ।
কিছু পরেই তিনি পাত্রীকে নিযে এলেন । সাজগোজের কোনও ঘটা
নেই । ফিকে নীল শাড়ি । হাতাওযালা সাদা ব্লাউজ । চুলে একটা
এলো খোঁপা । কপালের ঠিক মাঝখানে ছোট্ট একটা টিপ ।
মেযেটি আমাদের নমস্কার করে চেযারে বসল । পুরো ব্য়াপারটাই
অস্঵স্তিকর । বোকা বোকা , হৃদযহীন , নির্দয একটা ব্য়াপার । দু'
জোড়া চোখ প্রায অসহায একটি মেযেকে খুঁটিযে খুঁটিযে দেখছে ।
আমি সেভাবে না দেখলেও বিকাশ অন্তর্ভেদী দৃষ্টিতে দেখছে ।
মাপজোক করছে । সুন্দরী বউ চাই । ডানাকাটা পরী চাই । লেখা-
পড়ায , চাকরীতে বাল্য়বন্ধু সোমেন মেরে বেরিযে গেছে । হেরে
আছে একটা জাযগায , বিযেতে । পেযেছে খুব , কিন্তু বউ নিঁখুত
সুন্দরী নয । বিকাশ বউ নিযে বেরিযে য়াবে ।</p>

<p>মেযেটি মুখ নিচু করে বসে আছে । ভদ্রলোকের মুখের আদলের
সঙ্গে মেযেটির মুখ মেলে । ধারালো অভিজাত মুখ । চাঁপা ফুলের
মতো গাত্রবর্ণ । লম্বা , ছিপছিপে বেতস লতার মতো চেহারা । ভারি
সুন্দর । বেশ একটা মহিমা আছে । অন্তত আমার চোখে । মেযেটিকে
খুব নম্র , ভীরু মনে হল । মনে হল বসে আছে অসহায অপরাধীর
মতো ।</p>

<p>ভদ্রলোক বলতে লাগলেন , "" ছেলেবেলায দিদি আর জামাইবাবু মারা
য়াবার পর আমার এই ভাগনী আমার কাছেই মানুষ । তখন আমাদের
সাংঘাতিক দুরবস্থা । তবু আমি আমার কর্তব্য় করে গেছি ।
পড়িযেছি , গান শিখিযেছি । নাচ শিখিযেছি । সভ্য়তা , ভদ্রতা ,
সংসারের য়াবতীয কাজ শিখিযেছি । একটাই আমি পারিনি , তা হল
ভাল করে খাওযাতে পারিনি । তার জন্য়ে দাযী আমাদের অভাব ।
আমার রোজগার করবার অক্ষমতা । তবে এই গ্য়ারাণ্টি আমি দিতে পারি ,
এমন মেযে সহজে পাবেন না । দুঃখের সঙ্গে হাত মিলিযে বড় হযেছে ।
ওদিকে বড় ঘরের সংস্কারও কাজ করেছে । মেযেটিকে আপনারা গ্রহণ
করুন । আমার শরীর ক্রমশই ভেঙে আসছে । ""</p>

<p>বিকাশ হঠাতে ফট করে উঠে পড়ল । একেবারে আচমকা ।
ভদ্রলোক অপদস্থ হযে বললেন , "" কি হল ? আমি কি কোন অন্য়ায
করে ফেললুম ? ""
বিকাশ একেবারে গুলি ছোঁড়ার মতো করে বললে , "" য়ে মাল
বিজ্ঞাপনের জোরে বিকোতে হয সে মাল ভাল হয না । ""
মেযেটি শিউরে উঠল ।
ভদ্রলোক বললেন , "" এ কি বলছেন আপনি ! ""
"" ঠিকই বলছি । আপনার ভাগ্নীর স্ত্রী রোগ আছে । ""</p>

<p>আমার পক্ষে আর সহ্য় করা সম্ভব হল না । সমস্ত শক্তি এক করে
বিকাশের ফোলা ফোলা গালে ঠাস করে এক চড় মারলুম । আর
একটা চড় তুলেছিলুম । ভদ্রলোক ছুটে এসে আমার হাত চেপে
ধরলেন । উত্তেজনায তিনি কাঁপছেন । বিকাশের নিতম্বে কষে একটা
লাথি মারার বাসনা হচ্ছিল । বিকাশ মুখ অহংকারে প্রবল , শরীরে
দুর্বল । হন হন করে ঘর ছেড়ে বেরিযে গেল ।</p>

<p>আমি ফিরে তাকালুম । ভীরু মেযেটির ঠোঁট ভযে সাদা হযে
গেছে । বড় বড় পাতা ঘেরা চোখে জল টলটলে । সেই মুহূর্তে
ভেতরের বাড়িতে শাঁখ বেজে উঠল । পূজো হচ্ছে গৃহদেবতার । ঘণ্টা
বাজছে টিং টিং করে । আমি পিছোতে পিছোতে চৌকির ওপরে
গিযে বসলুম । আমার ভীষণ একটা তৃপ্তি হযেছে । একটা অসভ্য় ,
একটা ইতরকে আমি আঘাত করতে পেরেছি । অসীম সুখে আমার
মন ভরে গেছে ।</p>

<p>আর ঠিক সেই মুহূর্তে , য়খন শাঁখ আর ঘণ্টা বাজছে পূজোর ঘরে ,
আমি আমার তুচ্ছ জীবনের সবচেযে সাংঘাতিক একটি সিদ্ধান্ত নিযে
ফেললুম ।  ভদ্রলোককে বললুম , "" আপনি দিন দেখুন , আমি বিযে
করব । আমি বড় চাকরি করি না , তবে মানুষ । বিযে এখন বড়
লোকদের ব্য়বসা , তবু আমি এই ঝুঁকি নেবো । আমার পিতা এসে
পাকা কথা করে য়াবেন । হ্য়াঁ , তার আগে আপনার ভাগনীকে জিজ্ঞেস
করুন , আমাকে পছন্দ কিনা ? ""
ভদ্রলোক আমার কাঁধে হাত রাখলেন , তখনও তার হাত কাঁপছে ।
মেযেটি অস্ফুটে বললে , "" আপনাকে আমি চিনি । ""
"" কি করে ? ""
"" আমি বইযে পড়েছি এমন চরিত্রের কথা । ""
"" আমি বাস্তব নই ! ""
"" কাল বোঝা য়াবে । ""
মেযেটি পূর্ণ দৃষ্টিতে তাকিযে রইল কিছুক্ষণ ; তারপর ধীরে ধীরে
বেরিযে গেল ঘর ছেড়ে । ভদ্রলোক আবেগের গলায বললেন ,
"" তুমি বাস্তব হবে তো ! "" //
করুণা গুনগুন করে গান গাইতে গাইতে পাশের ঘরে চলে গেল ।
সুশোভন হাসতে হাসতে বললেন , জীবন কত সুন্দর বীরেন ! সুখে
থাকবো , আনন্দে থাকবো মনে করলে থাকা য়ায ঢ। কিন্তু মানুষ
এমন আজব জীব , অশান্তি ছাড়া বাঁচতে পারে না । অশান্তি য়েন ভিটামিন ।
মানুষের সবচেযে বড় শত্রু মানুষ , প্রকৃতি নয , বাঘ নয , ভাল্লুক নয ।
আমি এ বেশ আছি বীরেন , বেশ আছি । য়া চলে য়ায , য়ারা চলে
য়ায , তারা সব স্মৃতিতে স্থান পায । স্মৃতির চেযে বড় ঐশ্চর্য়্য় আর
কী আছে ! মনের সেফ ডিপোজিট ভল্ট । কারুর ক্ষমতা নেই কেড়ে
নেয ! মূল্য়বান পাথরের মতো এক একটি তুলে নাও , নাড়াচাড়া কর ,
তারপর আবার রেখে দাও । অনেক ছুটেছি বীরেন । অর্থের পেছনে ,
বিত্তের পেছনে , রূপের পিছনে , য়ৌবনের পেছনে । কিছু পেলুম ,
কিছু পেলুম না , কিছু পেযে হারালুম । এখনও আমার পাযে ছোটাছুটি
আছে , কিন্তু মনে নেই । আমার মন মজেছে অন্য় রসে । আমি অরূপ
রতন পাবার আশায বসে আছি । তোমরা আমাকে আশীর্বাদ করো ।
এ আপনি কী বলছেন ? আমি আপনার ছেলের মতো ।
ছেলের মতো কী গো ! তুমি তো আমার ছেলেই । ভুলে য়েও না
মুখাগ্নি তোমাকেই করতে হবে ।
য়ান , আমি আর আপনার ওই সব দুঃখের কথা শুনতে চাই না  ।
বোকা ছেলে , দুঃখেই তো সবচেযে বেশি আনন্দ । মন মুচড়ে ,
চোখ নিঙড়ে য়ত জল বেরুবে ততই ভেতরটা ভরা নদীর মত ভরে
ভরে উঠবে ।</p>

<p>আমি জীবনে অনেক দুঃখ পেযেছি , দুঃখতে একবারও চরম আনন্দ
বলে মনে হযনি ।
মনে হযনি ? কেন মনে হযনি জানো ? সে-সব দুঃখের কোনওটাই
ঠিক দুঃখের মত দুঃখ ছিল না । সে-সব ছিল কষ্ট । আমরা বলি
না , দুঃখ-কষ্ট ? কষ্টটাকে ফেলে দাও , এইবার দুঃখের কারবারে
এসো । আঃ , তোফা জিনিস । কষ্ট হল দেহের জিনিস আর দুঃখ
হল মনের । সেই রাতের কথা মনে করো বীরেন । আমার দু'হাতের
ওপর শোযানো কাপড়ে জড়ানো আমার তিন বছরের সন্তানের মৃতদেহ ।
কলকাতার রাজপথ ধরে আমি হেঁটে চলেছি ধীরে ধীরে । জীবনের
অবিস্মরণীয স্মৃতি । অবিস্মরণীয দুঃখ । জীবনে রাত তো ফিরে ফিরে
আসবেই । চিতা জ্঵লেছিল , চিতা নিবে গেছে । সে তো বাইরের চিতা ।
ভেতরের চিতা অনবরতই জ্঵লছে । দেখা য়ায না , কিন্তু জ্঵লছেই ।
জীবনের চেযে মৃত্য়ু অনেক গভীর , গম্ভীর । জীবনের তল পাওযা য়ায ,
মৃত্য়র তল পাওযা য়ায না । রহস্য়ময , অন্ধকার পথ । একা য়াত্রী । কই ,
সুখের স্মৃতি তো তেমন মনে নেই , য়েমন মনে আছে দুঃখের স্মৃতি !
জীবনের মধ্য় পথে করুণার মা হঠাত্ চলে গেল । বীরেন , সে কী
য়াওযা ? সে য়ে আরও কাছে আসা । করণার মুখে ওর মাযের
মুখটি একেবারে কেটে বসানো । সেই নাক , সেই চোখ , সেই হাসি ।
হাসলেই গালে সেই একই টোল । সেই এক স্঵ভাব । ওকে দেখি আর
ওর মাযের অভাব মনে দগদগ করে ওঠে । সে আজ নেই বলেই আরো
বেশি করে আছে ।</p>

<p>করুণা ঘরে ঢুকতে ঢুকতে বললে , তোমার সেই এক কথা ।
জীবন মৃত্য়ু , মৃত্য়ু জীবন । ভালো লাগে না বাপু । এবার নির্ঘাত
পাগল হযে য়াবো ।
সুশোভন বললেন ,  পাগল নয , পাগলী ।
ওই হলো । আমার লিঙ্গ-জ্ঞান হারিযে গেছে ।
বীরেন বললে , "" গরমে ঠাণ্ডা খাবো , গলা ধরে য়াবে না তো ? ""
করুণা বললে , "" হ্য়াঁ , তাও তো বটে , রাতে আবার গানের জলসা
আছে তো ? ওস্তাদ বীরেনুদ্দীন খাঁ সাযেবের খেযাল । ""
"" ঠাট্টা করার কি আছে , আমি খুব একটা খারাপ গাই না । ""
"" তা ঠিক , তবে আসর থেকে লোক উঠে য়ায । ""
"" সে আমার গানের বা গলার দোষ নয , য়ুগের দোষ । মানুষের
এমন টেষ্ট হযে গেছে । ""
সুশোভন বললে , "" ভালগার , চিপ । হইচই , রইরই , চিত্কার ,
চেঁচামেচি । য়াক অনেক বাজে বকেছি , এইবার কিছু বিষযের কথা
হোক । বীরেন , তুমি কযেকদিন ছুটি পাবে ? ""
"" আমি তো ছুটিতেই আছি । এক মাস । আজ হল প্রথম দিন ।""
"" ভেরী গুড ! তাহলে চলো দিনকতক দেরাদুন ঘুরে আসি । ""
"" হঠাত্ দেরাদুন ? এখন তো ভীষণ গরম হবে । ""
"" না না কী এমন গরম ! দু'হাত দূরে হরিদ্঵ার । মাথার উপর
মুসৌরী । দু'কদম হাঁটলে বদ্রীনাথ , কেদারনাথ । ""
"" আমরা কী বেড়াতেই য়াবো ? ""
"" বেড়ানোও বলতে পারো , আবার রথ দেখা কলা বেচাও বলতে
পারো । ব্য়াপারটা তোমাকে তাহলে খুলেই বলি । আমার মাথায
আবার একটা আইডিযা এসেছে । //
বীরেন ভেবেছিল , ইণ্টারভিউ বুঝি শেষ হল । তা নয । পর
মুহূর্তেই প্রশ্ন হল , "" মাথায তেল মাখো ? ""
"" আজ্ঞে না । ""
"" দেওযালে মাথা ঠেকিযে বসার বদ-অভ্য়াস আছে ? ""
"" মাঝে মাঝে । ""
"" ছাড়তে হবে । ""
বীরেন ভযে ভযে জিজ্ঞেস করেছিল , "" পাস করেছি ? ""
"" দাঁড়াও , দাঁড়াও য়ুবক , অধৈর্য়্য় হযো না । এখনও একটা বড় প্রশ্ন
বাকি আছে । রাস্তা কী ভাবে হাঁটো ? ""
"" আজ্ঞে ধীরে ধীরে বাঁ দিকে ঘেঁষে । ""
"" তোমার কাছে কেতাবী পদ্ধতি শুনতে চাইনি । রাস্তার দিকে
তাকিযে হাঁটো ? কী মাড়াচ্ছো না-মাড়াচ্ছো দেখে হাঁটো ? না উঠমুখো ?
গোবর , কাদা মাড়ানোর অভ্য়াস আছে ? ""
"" আজ্ঞে না । দেখেই হাঁটি । জুতোর তলা পরিষ্কার রাখার
চেষ্টা করি । ""
"" শোনো । ডিস্টিংশানেই পাশ করলে । তবে কি জানো !
বাঙালীর কথায আর কাজে আকাশ-পাতাল ফারাক দেখা য়ায । বাঙালীর
নীতি কি জানো ? আমি য়া বলি তাই করো , আমি য়া করি তা করো
না । তোমার ওপর কড়া নজর রাখা হবে । কোনও গলতি দেখলে
ওযার্নিং দেওযা হবে । তখন শোধরাবার চেষ্টা করলেই খুশি হবো ।
ঠোঁট ফোলালে চলবে না । ""</p>

<p>বীরেন ঘাবড়ে গিযে বন্ধু অসীমকে বলেছিল , "" ভাই , ও বাড়িতে
আমি এক সপ্তাহ থাকলে ভযে শুকিযে মরে য়াব । তোর ওখানে
ব্য়াপার আছে তাই সযে য়ায , আমার ভাই চলবে না । তোমার
ছাত্রী অসীমার মুখ দেখেছ , য়েন বর্ষার আকাশ । একমাত্র ওযেসিস
ভদ্রমহিলা । তিনি তো আবার মেযের ভযে তটস্থ , তার ওপর ওই
ভাই ! সপ্তাহে বার-দুযেক নিশ্চযই আসেন । ""
"" ব্রাদার , ওটি হল বাইরের আবরণ । অমন পরিবার তুমি দুটি
পাবে না । ঝুনো নারকেল । কঠিন আবরণ সরালেই মিষ্টি জল ,
আর দু'মালা নারকেল । ""</p>

<p>আজকালকার মেসে আর থাকা য়ায না । মোদো-মাতালে কাণ্ড ।
বাধ্য় হযেই বীরেন হলুদ রঙের বাড়ির ছাদের ঘরে আশ্রয নিযেছে ।
পাশে এক মানুষ উঁচুতে ঠাকুর ঘর । পশ্চিম মাথায জলের ট্য়াঙ্ক । কল
লাগানো আছে । জলের অভাব নেই । অসীমা ছাদে একটা ছাদ-বাগান
বানিযে ফেলেছে । ভারি সুন্দর । হরেক রকম , হরেক রঙের ফুল ।
য়েন সুন্দর সুন্দর ফ্রক পরে অজস্র শিশু সারাদিন নেচে চলেছে ।</p>

<p>গলায সাত পাক মাফলার জড়িযে বীরেন খাটে শুযে আছে চোখ
বুজিযে । শরীরের অবস্থা স্টেট বাসের চেযে খারাপ । গলনালী
সাইলেন্সারের মতো বুজে গেছে । চোখ দুটোর রঙ হযেছে ফগ লাইটের
মতন । গাঁটে গাঁটে ব্য়থা । কপালে হাত দিলেই ছ্য়াঁ করে উঠছে ।
পর পর তিন কাপ আইসক্রিম খাওযার ঠেলা সামলাও ! শুযে শুযে
বীরেন ভাবছে পুরুষের জীবনে সবচেযে বড় অভিশাপ সুন্দরী নারী ।
সুন্দরী রমণীর স্নেহে অকাল মৃত্য়ু পর্য়্য়ন্ত ঘটে য়েতে পারে । ও য়দি
খায আর একটা খেতে পারি , ও য়দি খায আর একটা খেতে পারি
- এইভাবে করুণার চাপে রবীন্দ্র সদনের রাতে পর পর তিন কাপ ।
টু ইন ওযান , থ্রি ইন ওযান , পেস্তা । পেট গরম , গলা ঠাণ্ডা ।</p>

<p>প্রিজমের ভিতর দিযে আলো পাশ করালে সাত রঙ । বীরেনের গলা
দিযো শব্দ পাস করালে আট রকম সুরের অর্কেস্ট্রা । একই সঙ্গে বনি
এম , মাইকেল জ্য়াকসন , এল্টন জন । গোটা আমেরিকার মিউজিক্য়াল
ট্য়ালেণ্ট গলায বাসা বেঁধেছে , পোড়ো বাড়ির পাযরার মতো । মনে য়দি
একবার কেউ বাসা বাঁধে , তার সঙ্গে মনে মনেই ঝগড়া চলে । মান
অভিমান চলে । সামনাসামনি এলে বোবা হযে য়েতে হয ।</p>

<p>বীরেন বিছানায চিত্ , কপালে হাত , চোখ বোজানো । ঠ্য়াং দুটো
দু'পাশে ছড়ানো । চোখের সামনে করুণা । অদৃশ্য় করণাকে বীরেন
বলছে , "" তোমার আর কী ! আমার ম্য়াও কে সামলাবে এখন ? "" এইটুকু
মনে মনে বলেছিল । বাকিটা জোরে , "" তুমি এখন মাথাটা টিপে দেবে ? ""
"" কী বললেন ? ""
বীরেন অবাক । আশ্চর্য়্য় ব্য়াপার ! সত্য়য়ুগ এসে গেল নাকি ?
য়াকে উদ্দেশ্য় করে বলা , সে বাতাসে উড়তে উড়তে চলে এল !
করুণা দেবী না কী ! অন্তর্য়্য়ামী ! চোখ খুলতে সাহস হচ্ছে না ।
স্঵প্ন য়দি ভেঙে য়ায । বরং আর একবার পরীক্ষা করা য়াক ।
বীরেন বেশ খেলিযে বললে , "" তুমি এখন টিপে দেবে ? ""
"" ইডিযটের মতো কি য়া-তা বলছেন ? ""
ওরে বাবা রে ! বীরেন ভযে ভযে ডান চোখটা খুলল । ডান
দিকেই দরজা । একটি নারী-শরীরের মধ্য়স্থলে নজর আটকে গেল ।
এ তো করুণা নয । করুণার চেযে চওড়া । চোখ আর একটু ওপর~
দিকে ওঠাতেই সেই দৃঢ় চিবুক , পাতলা ঠোঁট , খাড়া নাক ।
বীরেন পিট পিট করে দু'চোখে তাকিযে , তার অষ্ঠধা কণ্ঠকে য়তদুর
সম্ভব বাগে এনে বললে , "" বিশ্঵াস করুন , মাযের দিব্য়ি বলছি ,
আপনাকে বলিনি । //
বিপুলবাবু একটা কাগজের পেটি নিযে ঘরে ঢুকলেন , "" বুঝলি ,
থ্রি-ইন-ওযান হযেছে । ম্য়ালেরিযা , ডেঙ্গু , ফ্লু । সব একেবারে গুছিযে
এনেছি । ফল , ওষুধ , পথ্য় । ওষুধ , ফ্রুটজুস আর প্রচুর জল ।
এই এখন চলবে । তিন দিন ভোগাবে । মাসখানেক লাগবে নর্মাল
হতে । নে জল আন । আটটা পাঁচ । প্রথম রাউণ্ড ওষুধ চালিযে
দেওযা য়াক । রাতে ফলের রস চলবে না । খাবার ইচ্ছে হলে
ড্রিংকস্ । ""
"" বীরেন ? ""
বিপুলবাবু মৃদুস্঵রে কানের কাছে মুখ নিযে গিযে ডাকলেন ,
"" বীরেন ? ""
বীরেন চোখ মেলে তাকাল ।
"" উঠে বস তো বাবা । ওষুধের আক্রমণ হবে । ""
বীরেন ফ্য়ালফ্য়ালে চোখে তাকাল । বোঝার ক্ষমতা নেই । ওঠার
ক্ষমতা নেই । ছাযা বললে , "" আমি মাথা তুলে ধরছি , তোমরা
খাইযে দাও । ""
মা য়েমন অসুস্থ ছেলেকে কোলে তুলে ধরে , ছাযা বীরেনকে সেই
ভাবে তুলে ধরল । ওষুধ খাওযানো নয তো , য়েন সমবেত সঙ্গীত ।
বড়ি , ক্য়াপসুল , বড়ি , জল - পর পর ঢুকছে । একবার বিষম 
খেল । বিপুলবাবু ব্রহ্মতালুতে এক চাঁটি মেরে সামলে দিলেন ।
"" নাও , এইবার চাপা দিযে শুইযে দাও । ঘুমের ওষুধও আছে ।
নিশ্চিন্তে ঘুমোক । এইবার আমি এক কাপ কফি খাবো বারান্দায
বসে । হ্য়াঁরে অসীমা , চানাচুর আছে স্টকে ? ""
"" আছে মানে ! উপছে পড়ছে । ""</p>

<p>বিপুলবাবু বারান্দায চেযারে বসে মৃদু স্঵রে গান ধরলেন , আছে
দুঃখ , আছে মৃত্য়ু । তার প্রিয গান । একসময বেশ ভাল গলাই ছিল ।
চর্চার অভাবে সুর আর এখন তেমন খেলে না , তবে ভাবে পুষিযে
দেবার চেষ্টা করেন । জীবন আর মৃত্য়ু , দুটির প্রতিই তার সমান
ভালবাসা । বেঁচে থাকতে য়েমন ভাল লাগে , মৃত্য়ুকেও তেমনই
রোমাণ্টিক মনে হয ।
চানাচুরের প্লেট রাখতে রাখতে অসীমা জিজ্ঞেস করলে , "" মামা ,
তুমি আজ থাকবে তো ? ""
"" অবশ্য়ই । এই রাতে তুই আমাকে কোথায তাড়াতে চাস ? ""
"" তাড়াতে চাইব কেন ? তোমার য়ে আবার অদ্ভুত অদ্ভুত সব
খেযাল হয ! ""
"" য়া য়া , ভাব চটকে দিসনি । ভালো করে কফি বানা । ""
বাইরে একটা গাড়ি থামার শব্দ হল । অসীমা বললে , "" কে
আবার এলেন ? ""
"" এ বাড়িতে কে আসবে ! মনে হয সামনের বাড়িতে । বিযে
লাগার কথা । আত্মীযস্঵জনের য়াওযা-আসা শুরু হযেছে । ""
কলিং বেল বাজল ঠিক বিপুলবাবুর মাথার ওপরে ।
"" না রে , এই বাড়িতেই । দাঁড়া আমি দেখছি । তুই চানাচুর হটা । ""
সদর খুললেন , সামনেই ধুতি পাঞ্জাবী পরা বনেদী চেহারার
এক ভদ্রলোক । পাশে সুন্দরী এক তরুণী ।
"" নমস্কার । কিছু মনে করবেন না । এ বাড়িতে বীরেন নামে
কেউ .... । ""
"" আজ্ঞে হ্য়াঁ । বীরেন থাকে । ""
"" আছে সে ? ""
"" আছে , তবে শয়্য়াশাযী । আপনারা ? ""
"" আমরা বীরেনের শুভাকাঙ্ক্ষী । আমার নাম শুশোভন , আমার
মেযে করুণা । ""
"" আসুন ভেতরে আসুন । আমার নাম বিপুল । নামের সঙ্গে
চেহারার মিল আছে । ""
"" আপনারা বিরক্ত হবেন না ? ""
"" আমরা তো সেরকম অভদ্র নই । মা , তুমি আগে এসো তো ,
তোমার বাবা একটু বেশি ফর্মাল । ""
তিন জনে সিঁড়ি বেযে ওপরে উঠছেন । বিপুল হাঁক মারলেন ,
"" অসীমা - ""
"" কী হযেছে বীরেনের ? ""
"" জগাখিচুড়ি । ফ্লু , ম্য়ালেরিযা , ডেঙ্গু , একসঙ্গে । হাই ফিভার ।
ডিলিরিযাম । ""
অসীমা সামনে সিঁড়ির মুখে । বিপুল বললেন , "" আমার ভাগনী
অসীমা । আপনার মেযের বযসী । তবে মামাবাড়ির স্঵াস্থ্য় পেযেছে ।
আমরা মশাই সকলেই য্য়াভারেজ বাঙালীর চেযে লম্বা চওড়া । আমার
ভগ্নীপতি আর্মি অফিসার ছিলেন । য়ুদ্ধেই প্রাণ দিযেছেন । অসীমা ,
এরা বীরেনের পরিচিত , শুভাকাঙ্ক্ষী , শুশোভনবাবু , কন্য়া করুণা । ""
অসীমার বুকটা ছাঁত্ করে উঠল । এই সেই করুণা । এ তো
আইসক্রীমউলী নয ! অসীমা স্঵াভাবিকের চেযেও গম্ভীর গলায বললে ,
"" আসুন , আসুন । ""</p>

<p>করুণা সুশোভনের গা ঘেঁষে দাঁড়াল । অসীমার গলা আর মুখ ,
চোখের ভাব দেখে ঘাবড়ে গেছে । তার স্঵ভাবের সম্পূর্ণ বিপরীত ।
ফিসফিস করে সুশোভনকে বললে , "" বাবা তুমি আগে য়াও । ""
বিপুল শুনে ফেলেছেন । হাসতে হাসতে বললেন , "" ভয নেই মা ।
ওর স্঵ভাবটাই হেড মিস্ট্রেসের মত । বীরেনকেও মাঝে মাঝে ধমকায ।
ওর মা তো মেযের ভযে সিঁটিযে থাকে । সুবিধে করতে পারে না
কেবল আমাকে । ""
 +&gt;*",0
</p></body></text></cesDoc>