<cesDoc id="ben-w-socsci-cater-bhf13" lang="ben">
<cesHeader type="text">
<fileDesc>
<titleStmt>
<h.title>ben-w-socsci-cater-bhf13.txt</h.title>
<respStmt>
<respType>Electronic file created by</respType>
<respName>Central Institute for Indian Languages, Mysore</respName>
<respType>transferred into Unicode and CES format by</respType>
<respName>"Unicodify" software by Andrew Hardie</respName>
</respStmt></titleStmt>
<publicationStmt>
<distributor>UCREL (on behalf of CIIL)</distributor>
<pubAddress>Department of Linguistics, Lancaster University, Lancaster, LA1 4YT, UK</pubAddress>
<availability region="WORLD"></availability>
<pubDate>03-07-22</pubDate>
</publicationStmt>
<sourceDesc>
<biblStruct>
<monogr>
<h.title>বযন.শিল.</h.title>
<h.author>শুকহলা.ম</h.author>
<imprint>
<pubPlace>India</pubPlace>
<publisher>Unknown - Book.</publisher>
<pubDate>1981</pubDate>
</imprint>
<idno type="CIIL code">bhf13</idno>
</monogr></biblStruct></sourceDesc></fileDesc>
<encodingDesc>
<projectDesc>Text collected for the CIIL Corpus, subsequently integrated into the EMILLE/CIIL Monolingual Written Corpora.</projectDesc>
<samplingDesc>Simple written text only has been transcribed. Diagrams, pictures and tables have been omitted. Sampling begins at page 0003.</samplingDesc>
<editorialDecl><conformance level="1"></conformance></editorialDecl>
</encodingDesc>
<profileDesc>
<creation><date>03-07-22</date></creation>
<langUsage>Bengali</langUsage>
<wsdUsage>
<writingSystem id="ISO/IEC 10646">Universal Multiple-Octet Coded Character Set (UCS).</writingSystem>
</wsdUsage>
<textClass>
<channel mode="w">print</channel>
<constitution type="composite"></constitution>
<domain type="public"></domain>
<factuality type="fact"></factuality>
</textClass>
<translations></translations>
</profileDesc>
<revisionDesc></revisionDesc>
</cesHeader>

<text><body>

<p>&lt;বযন শিলহপ া শুকহলা মুখারহজহজী া
পুরুষলর হালকশমহব
ওযলষহট কশট
ফপকরণ - 11 [ 12 , 12 ] নফনহস Patons Moorlend
ডবল নিটিথ ফল , 1 জশডা 9 নথ ও 1 জশডা 8নথ কাতটা ও
8টি বশতাম া
মাপ - ছাতি 38 40 , 42 ঩ঞহচি া ঘাডলর মাঝখান
থলকল লমহবার মাপ , য়থাকহরমল 20.2 [ 20.3 , 21 ] ঩ঞহচি হবল া</p>

<p>সথকলত চিহহন -
সশদ - সশজা , ফদ - ফলহটশ , সশদ জশদ - সশজার
জশডা , জশদ - জশডা , সশদ 1 নি , লু - বাতহাতলর কাতটার
পহরথম ঘরটি সল঩ লা঩নল না বুনল নিচলর লুপল করুন া **
মাঝলর ধথশ বার বার করুন * চিহহনলর নগল ও পরলর ললখা
মাতহর 1 বার঩ করবলন া</p>

<p>পরলট - দুটি
যবার নরমহভ করুন - 9নথ কাতটায 26 ঘর তুলল ( 1
কাতটা সশদ 1 কাতটা ফদ ) 22 কাতটা বুনল ফলহটশ কাতটায শলষ
করুন া</p>

<p>পরবরহতী কাতটা - সশদ 2 সশদ জশদ 1 , সশদ 3 4 বার
সশদ জশদ 1 , সশদ 2 ( 21 ঘর হবল ) া ফল কলটল দিন ,
ঘরগুলি যকটা সলফহহটিপিনল তুলল রাখুন া</p>

<p>ডান দিকলর বুক -
8নথ কাতটায 2টি ঘর তুলুন া
1ম কাতটা ... সশদ 2 া
2য কাতটা - পহরথম ঘরটি 2 বার বুনল 1 ঘর বাডান
সশদ 1 া
3য কাতটা - সশদ 2 , পরলর ঘরল বাডান া
4রহথ কাতটা - পহরথম ঘরল বাডান , সব সশজা া
5ম কাতটা - সশদ 2 , সশদ 1 নি , লু , সশদ 2 শলষলর
ঘরটিতল বাডান া
6ষহঠ কাতটা - পহরথম ঘরল বাডান সব সশজা া
7ম কাতটা - * সশদ 1 , সশদ 1 নি , লু * শলষ সশদ
2 শলষলর ঘরল 1 ঘর বাডান া
8ম কাতটা - 4রহথ কাতটার মত া
9ম কাতটা - সশদ 3 * সশদ 1 নি , লু , * সশদ 2 শলষলর
ঘরল বাডান া
10ম কাতটা - 6ষহঠ কাতটার মত া
11শ কাতটা সশদ 2 * 1 , নি , লু , সশদ 1 *
শলষলর সশজাটিকল 1টি ঘর বাডান া
12শ কাতটা - 4রহথ কাতটার মত া
13শ কাতটা - সশদ 2 * সশদ 1 , লু , সশদ 1 , *
শলষলর 2 ঘর , সশদ 2 ও শলষলর ঘরটিতল বাডান া
6ষহঠ কাতটা থলকল 13শ কাতটা - নরও 2 বার করুন ( 37
ঘর হবল ) শলষলর কাতটায নতুন ঘর বাডান 3 ( 5 , 7 ) মাপ
ধনুয়াযী কাতটায ঘর হবল - 40 ( 42 , 44 ) া</p>

<p>য঩বার নিচলর নমুনা ধনুয়াযী বুনল য়ান :-
পরবরহতী 1ম কাতটা - সব সশদ া
পরবরহতী 2য কাতটা - * সশদ 1 , সশদ 1 নি , লু , সশদ 1
* শলষলর 2 ঘর সশদ া
পরবরহতী 3য কাতটা - সব সশদ া
পরবরহতী 4রহথ কাতটা - সশদ 2 * সশদ 1 নি , লু , সশদ 1
* শলষ পরহয়হয়নহত া
য঩ চার কাতটা বার বার করুন য়তকহষণ না 3 ঩ঞহচি হয ,
কশমরলর দিক থলকল মাপবলন , যবথ কাতটাটি কশমরলর দিকল
শলষ হবল া</p>

<p>পকলট বসান - সশদ 10 ( 12 , 14 ) পরলর 21 ঘর যকটা
সলফহহটিপলনল তুলল রাখুন া য঩বার বাতহাতলর কাতটায
নপনার করা পকলটলর টুকরার ঘরগুলি ( ফলহটশ পিঠ
সামনল রলখল ) সব সশজা বুনুন ও কাতটার বাকি ঘরগুলিও
সব সশজা করুন া</p>

<p>য঩বার নমুনা ধনুয়াযী করল য়ান , পকলট কাতটায
তশলার পরবরহতী কাতটা 4রহথ কাতটা ধনুয়াযী হবল া য঩
কাতটার 1 ঘর বাডান ও পহরতহয়লক 19 কাতটা ধনহতর পহরতি
20শ কাতটায যক ঘর করল পাশলর দিকল বাডান , য়তকহষণ না
কাতটায ঘয হয - 44 ( 46 , 48 ) ( বাডান ঘরগুলিতলও
নমুনা করবলন ) া য঩ ঘরগুলিকল 10.2 ঩ঞহচি বুনুন া
( পাশলর দিকলর মাপ ) কাতটাটির নমুনার 4রহথ কাতটায শলষ
করবলন , বগললর দিকল া নমুনা ঠিক রলখল বগললর ছাতট
ফললুন - ঘর বনহধ করুন 5 ( 6-7 ) ঘর া যরপর পহরতি
কাতটায বগললর দিকল ঘর 1 করল কমান য়তকহষণ না ঘর হয
- 36 ( 37-38 ) যরপর পহরতি সশজা পিঠলর কাতটার 1 ঘর
করল কমান 33 ( 34-35 ) ঘর হবল া ( ধরহথাতহহ 1 কাতটা ধনহতর ) াশ</p>

<p>** করতল হবল 5 ( 3-1 ) কাতটা , বুকলর মাঝখানলর
ধারল শলষ করুন া</p>

<p>*** য঩বার গলার ছাতট ফললুন - গলার দিকল
পহরথমল 1 ঘর কমান যবথ পহরতি 6ষহঠ কাতটার নরমহভল 1 ঘর
করল কমিযল য়ান য়তকহষণ না ঘর হয 25 ( 26-27 )
তারপর পহরতি 8ম কাতটায - 1 ঘর কমান , ঘর হবল - 21
( 22-23 ) য঩বার য঩ ঘরগুলিকল঩ বুনল য়ান , 9.1/2 ঩ঞহচি
বুনল বগললর দিকল শলষ করুন ও কাতধলর ছাতট ফললুন া</p>

<p>1ম কাতটা ... 7 ঘর বনহধ করুন ( 7-7 ) শলষ পরহয়হয়নহত
বুনুন া</p>

<p>2য কাতটা ... সব বুনুন া
3য কাতটা ... 1ম কাতটার মত া
4রহথ কাতটা ... 2য কাতটার মত া
5ম কাতটা ... বাকি ঘরগুলি বনহধ করল ফল কলটল দিন া //
বাচহচার পাঞহচশ ( কহরশলর কাজ )
কহরশলর কাজ করতল হলল	 পহরথমল য়লগুলি জানা দরকার
সলগুলি নিচল দলওযা হল , যগুলি বাথলা করা সমহভব নয
যবথ কহরশলর কাজ নমরা সকলল঩ ঩থরাজী নাম ধনুসারল
করল থাকি া</p>

<p>য়াতরা কহরশলর কাজ পহরথম শিখবলন তাতদলর পকহষল যকটু
মশটা কহরশ ও মশটা ফল নিলল ভাল হয া পহরথমল ফললর
পহরানহতল যকটা ফাতস দিন , যকল নমরা বলব -
1া সহলিপ লুপ -
তারপর য় ফাতসটির মধহয়ল কহরশটি পরিযল তরহজনী দিযল
ফল টান করল মধহয় দিযল নর যক ` লুপ ' টানুন , য঩ভাবল
চলন ত঳রি করুন ` চলন ' হ'ল কহরুশলর কাজলর পহরথম ধাপ া</p>

<p>2া সিঙহগল কহরচলট -
য঩ সললা঩টি কহরশলর কাজলর সব সললা঩ যর মধহয়ল
লমহবায সবচলযল ছশট া কহরশলর পরানশ চলনটি ও তার
পরলর চলনটি ছলডল দিযল , তার পরলর চলনটির মধহয়ল দিযল
কহরশ চালিযল সূতশ টলনল দুটশর মধহয়ল দিযল যকলবারল
চালান া য঩ভাবল পর পর পহরতি চলনল ও নপনার হাতল
ধরা কহরশলর চলনলর মধহয়ল দিযল টলনল টলনল করুন া</p>

<p>3া ডাবহহল কহরচলট -
যটি সমহপূরহণ সিঙহগল কহরচলটলর মত কলবল চলনলর মধহয়ল
কহরশ চালিযল সূতশ টলনল যকসঙহগল না ফললল নর যকবার
সূতশ কহরশলর মাথায নিযল যকসঙহগল টানা া</p>

<p>4া টহরিবল -
যর বললায কহরশলর মাথায যকবার সূতশ নিযল পরলর
ঘরলর মধহয়ল দিযল যকবার লুপ টানুন া তারপর নবার
সূতশ নিযল কহরশলর পহরথম দুটি লুপলর মধহয়ল দিযল যকটা
লুপ টানুন , তারপর নবার নর যকটি লুপ টানুন কহরশলর
পরলর লুপ দুটির মধহয়ল দিযল া</p>

<p>5া ডাবহহল টহরিবল ধথবা লঙ টহরিবল -
যর বললায পহরথমল঩ কহরশলর মাথায দুবার ফল জডিযল
নিযল পহরথম চলনলর মধহয়ল দিযল যকটি লুপ টানুন , তারপর
নবার পরপর দুটি ঘরলর মধহয়ল দিযল যকটি লুপ টানুন ,
তারপর নবার দুটি ঘরলর মধহয়ল দিযল যকটি লুপ টানুন ,
শলষল 2টি ঘরলর মধহয়ল দিযল নবার যকটি লুপ টানুন ,
( 2টি ঘরলর মধহয়ল দিযল টানা 3 বার হবল া ) কহরশল মাতহর
যকটি লুপ থাকবল া</p>

<p>সথকলত চিহহন -
চলন , ডিদ সিদ - ডাবল কহরচলট , টহরি - টহরিবল , হাদ টহরি - হাফহহ
টহরিবল , ( যটি সমহপূরহণ ডাবহহল কহরচলটলর মত , কলবল নরমহভলর
নগল পহরতিবারল঩ কহরশলর মাথায যকবার করল ফল জডিযল
নিযল তিনটি ঘরলর মধহয়ল দিযল যকটি লুপ টানতল হবল া )</p>

<p>বাচহচার পাঞহচশ
মাপ -
পাশলর মাপ - 1.1/2 ঩ঞহচি া
যক঩ 11 নথ ফল বললা কহরশ , যবথ 4 পহলা঩ ফল 4
নফনহস া
পিঠ ও বুক যক঩ রকম করতল হবল া গলা থলকল
নরমহভ করুন া
পহরথম 50টি চলন করুন া</p>

<p>1ম লা঩ন -
কহরশলর চলনটি ছলডল দিযল 2য চলনলর মধহয়ল , 1 ডিদ
সিদ , তারপর পহরতি চলনলর মধহয়ল দিযল 1 ডিদ সিদ করল
শলষ করুন ঘর হবল 49টি া তারপর 2টি চলন করল 2য
লা঩নলর জনহয় ঘুরিযল নিন া</p>

<p>2য লা঩ন - 2য ডিদ সিদর মাথায , 1 হাদ টহরিদ * 1টি চলন , 1 ডিদ
সিদ বাদ দিযল পরপর তিনটি ডিদ সিদর মাথায 3টি হাদ
টহরিদ * তারা চিহহনলর মধহয়লর ধথশটি বার বার করুন , শলষলর
3টি ডিদ সিদ থাকতল 1 চলন , 1 ডিদ সিদ বাদ পরলর 2টি
ডিদ সিদর মাথায 2টি হাদ টহরি , 1টি চলন করল কহরশ ঘুরিযল
নিন , পরলর লা঩নলর জনহয় া</p>

<p>3য লা঩ন -
পহরতি ঘরলর মাথায 1 ডিদ সিদ 3টি চলন করল ঘুরিযল
নিন া</p>

<p>4রহথ লা঩ন -
পহরথম ডিদ সিদর মাথায 2 টহরিদ * 2 ডিদ সিদ বাদ দিযল
1 টহরা঩দ ( তিন কশণা ) পরল ডিদ সিদতল , নবার 2
ডিদ সিদ বাদ দিযল , 1 সলল পরলর ডিদ সিদতল * তারা
চিহহন থলকল * চিহহন পরহয়হয়নহত বার বার করুন া শলষল 6টি ডিদ
সিদ থাকতল 2টি ডিদ সিদ বাদ দিযল পরলর ডিদ সিদতল 1
টহরা঩দ ( তিন কশণা ) , নবার 2 ডিদ সিদ বাদ দিযল শলষলর
ডিদ সিদতল 3টি টহরিদ , 3টি চলন করল ঘুরিযল নিন া</p>

<p>5ম লা঩ন - পহরথম টহরিতল 2টি টহরিদ করুন ( 1 টহরা঩ করুন পরলর ডিদ
সিদ দুটির ফাতকল ও 1টি সলল করুন তার পরলর চলন	
সহপলসল ) 3 বার া 1 টহরা঩ পরলর চলন সহপলসল া ( 3 টহরিদ
1 চলন 3 টহরিদ 1 চলন 3 টহরিদ ) পরলর চলন সহপলসল া * 1
টহরা঩ পরলর চলন সহপলসল , 1 সলল পরলর চলন সহপলসল * শলষল
চলন সহপলসটিতল 1 টহরা঩ ও 3টি চলনলর মাথায 3টি টহরিদ া	
3টি চলন বুনল ঘুরিযল নিন া</p>

<p>6ষহঠ লা঩ন -
2টি টহরিদ পহরথম টহরি টিতল া ( 1 টহরা঩ পরলর চলন
সহপলসল , 1 সলল পরলর চলন সহপলসল 4 বার 1 চলন * 1
সলল পরলর চলন সহপলসল 1 টহরা঩ পরলর চলন সহপলসল *
শলষল 3টি মাথায 3টি টহরিদ 3টি চলন করল ঘুরিযল
নিন া</p>

<p>7ম লা঩ন -
পহরথম টহরিদ টিতল 2টি টহরিদ টহরা঩ পরলর চলন সহপলসল ,
1 সলল , পরলর চলন সহপলসল * শলষলর চলন সহপলস পরহয়হয়নহত *
চিহহনলর মধহয়ল ধথশ করল 1 টহরা঩ শলষ চলন সহপলসল , 3টি
চলনলর মাথায 3টি টহরিদ , 3টি চলন করল ঘুরিযল নিন া</p>

<p>8ম লা঩ন -
পহরথম টহরিদ টিতল 2টি ( 1 টহরা঩ পরলর চলন সহপলসল , 1 সলল
পরলর চলন সহপলসল ) 4 বার পরলর চলন সহপলসল ( 1 টহরা঩ 1
চলন , 1 টহরা঩ ) * 1 সলল পরলর চলন সহপলসল 1 টহরা঩ পরলর
চলন সহপলসল * পুনরাবৃতহতি , শলষলর তিন চলনলর মাথায
3 টহরিদ , 3 চলন করল ঘুরিযল নিন া</p>

<p>9ম লা঩ন -
7ম লা঩নলর মত া</p>

<p>10ম লা঩ন -
পহরথম টহরিদ টিতল 2টি টহরিদ ( 1 টহরা঩ পরলর চলন সহপলসল ,
1 সলল পরলর চলন সহপলসল ) 4 বার , 1 টহরা঩ পরলর চলন
সহপলসল , ( 3 টহরিদ 1 চলন , 3 টহরিদ 1 চলন , 3 টহরিদ ) পরলর চলন
সহপলসল া * 1 টহরা঩ পরলর চলন সহপলসল , 1 সলল পরলর চলন
সহপলসল , পুনরাবৃতহতি * শলষ চলন সহপলস পরহয়হয়নহত শলষলর চলন
সহপলসল , 1 টহরা঩ 3 টহরিদ শলষলর 3টি চলন করল ঘুরিযল নিন া</p>

<p>11শ লা঩ন -
পহরথম টহরিদ-যর মাথায 2 টহরিদ 1 টহরা঩ পরলর চলন সহপলসল ,
1 সলল পরলর চলন সহপলসল 5 বার 1 চলন * 1 সলল পরলর
চলন সহপলসল , 1 টহরি঩ পরলর চলন সহপলসল পুনরাবৃতহতি *
শলষলর 3 চলনলর মাথায 3 টহরিদ , 3টি চলন করল ঘুরিযল
নিন া</p>

<p>12শ লা঩ন -
7ম লা঩নলর মত া</p>

<p>13শ লা঩ন -
পহরথম টহরিদ টিতল 2 টহরিদ 1 টহরা঩ পরলর চলন সহপলসল , 1
সলল পরলর চলন সহপলসল ) * 1 সলল পরলর চলন সহপলসল , 1 টহরা঩
পরলর চলন সহপলসল পুনরাবৃতহতি * শলষলর 3টি চলনলর মাথায
3টি টহরিদ , 3 চলন করল ঘুরিযল নিন া //
25 নমহবর ডলসি হুললর ত঳রি বাচহচার মহয়াটিনী কশট
পহরথমল ডলসি হু঩লটির মাথার দিকল নীচলর দিকল করল
হাতল ধরুন া যখন চলপহটাদিক ফল বুডশ নঙহগুল দিযল
মাঝখানল ধরুন ( বাত হাতল ) া যখন যকটি কাতটার মাথায
ফল জডান ও ঠিক তার বিপরীত দিকলর কাতটার মাথায
জডান , য঩ভাবল যক঩ জাযগায নরও 2 বার জডান , )
মনল রাখবলন মাঝখানল ফল য়লন জডিযল না য়ায া পহরতহয়লক
কাতটার মাথায 3টি করল লুপ হবল া</p>

<p>দহ঵িতীয কাতটার মাথায ফল নিযল য়ান ও তার ঠিক
বিপরীত দিকলর কাতটার সঙহগল পহরথমটির মত যক঩ভাবল ফল
3বার জডান , য঩ভাবল 6 বারল 12টি পাতপডি হবল া যখন
হু঩ল থলকল 6 ঩ঞহচি ফল রলখল কলটল দিন া যখন ছুতচল ফললর
কাতটা ধথশ ভরল পহরতি পাতপডির মধহয়দিযল , মাঝখানল কশনা~
কুনিভাবল ফপর ফপর সললা঩ করুন া যখন সব সূতশ~
গুলির মধহয়ল দিযল ছুতচ তলায ভরল দিন া যখন পহরতি
পাতপডির পহরতি ( 3টি ) সূতশর সঙহগল ধনহয় পাতপডির ( 3টি )
সূতশয বখলযা সললা঩ দিযল শলষ করুন া</p>

<p>যখন কিভাবল ডলসি ফুলগুলি জুডবলন -
য়খন ডিসি ফুলগুলি কহরুশলর সাহায়হয়ল জুডবলন তখন
যকটি করল পিকট করবলন পহরতি 3য পাতপডিতল া ( সমহপূরহণ
কাজটিতল ) যখন পহরথমল কহরশ দিযল ও যকটি ফুললর য়ল
কশন যকটি পাতপডিতল শহলিপ টিচ করুন ; ফুললর সল঩
পাতপডিটি হবল - 1নথ পাতপডি 6চলন , 2নথ পাপডিতল শহলিপ
ষহটিচ , 6 চলন 3নথ পাতপডিতল শহলিপ ষহটিচ 6 চলন , 3নথ
পাপরির শহলিপ ষহটিচলর মধহয়ল শহলিপ ষহটিচ 1ম পিকট , * 6
চলন , 4নথ পাতপডিতল শহলিপ ষহটিচ , 6 চলন , 5নথ পাতপডিতল
শহলিপ ষহটিচ 6 চলন , 6নথ পাতপডিতল শহলিপ ষহটিচ , 7 চলন
6নথ পাতপডির শহলিপ ষহটিচলর মধহয়ল শহলিপ ষহটিচ , 2য পিকট
6 চলন , 7নথ পাতপডিতল শহলিপ ষহটিচ 6 চলন , 8নথ পাপডিতল
শহলিপ ষহটিচ া</p>

<p>যখন ধপর যকটি ফুল নিন , তার য়ল কশন যকটি
পাতপডিতল শহলিপ ষহটিচ দিযল জুডুন , সলটি঩ 1নথ পাতপডি া
6চলন , 2নথ পাতপডিতল শহলিপ ষহটিচ , যখন চলন থলকল কহরুশ
খুলল নগলর ফুললর 7নথ	 পাতপডির শহলিপ ষহটিচলর মধহয়দিযল
খালি কহরুশ চালিযল য়ল চলনটা ছলডল রলখলছলন সলটি টলনল
নিন ও 6চলন , 3নথ পাতপডিতল শহলিপ ষহটিচ 2য ফুলল , 3চলন
যখন চলন থলকল কহরুশ খুলল , 1নথ যললর 6নথ পাতপডি 1ম
পিকটলর মধহয়ল ঘর দিযল চলনটি টানুন ও 3চলন শহলিপ ষহটিচল
3নথ ( 2য ফুললর পাতপডির শহলিপ ষহটিচল ) া যখন * চিহহন
থলকল পুনরাবৃতহতি করুন , পহরতহয়লক 8ম পাতপডিতল যকটি
করল নতুন ফুল জুডবলন া
1ম সারিতল 8টি ফুল জুডুন া</p>

<p>8ম ফুললর সবকটি পাতপডি ঘুরল পহরতি 3য টিতল 1টি
করল পিকট করবলন য়খন 11নথ পাতপডিতল নসবলন ,
তারপর পাশল চারহট দলখুন ও নিমহনলিখিতভাবল ধগহরসর হন ,
** 6 চলন , 12 নথ পাতপডিতল ( 8ম ফুল ) শহলিপ ষহটিচ , 7 চলন
পাতপরির শহলিপ ষহটিচল , শহলিপ , ষহটিচ করুন 12নথ পাতপরিতল
6চলন কহরুশ চলন থলকল খুলল 7ম ফুললর 8ম পাতপরি ও
( 8ম ফুললর 1ম পাতপরির শহলিপ ষহটিচলর মধহয় দিযল কহরুশ
ঢুকিযল ছলডল রাখা চলনটি টলনল শহলিপ ষহটিচ করুন া</p>

<p>6 চলন 9নথ পাতপরিতল 7ম ফুললর শহলিপ ষহটিচ , 3 চলন
কহরুশ খুলল ( 8ম ফুললর , 12নথ পাতপরির পিকটলর
মাঝলর ঘরল কহরুশ ঢুকিযল , ছাডা চলনটি টলনল শহলিপ ষহটিচ ,
3 চলন 9মথ পাতপডিতল শহলিপ ষহটিচ 6চলন , 10নথ পাতপডিতল
শহলিপ ষহটিচ , 6চলন , 11নথ পাতপরিতল শহলিপ ষহটিচ া যখন
** থলকল ** চিহহন বার বার করুন , য়তকহষণ না 1নথ ফুললর
11নথ পাতপডি বশনা হয া</p>

<p>ফুললর 2য সারি - ধপর যকটি ফুল নিন ও কহরুশল ধরা
ঘর ও ফুললর য়ল কশন পাতপডি শহলিপ ষহটিচ দিযল জশডা
দিন , 1নথ পাতপডি 6চলন , 2নথ পাতপডিতল শহলিপ ষহটিচ , কহরুশ
খুলল 1ম সারির 1ম ফুললর 10নথ পাতপডির শহলিপ ষহটিচল
কহরুশ ঢশকান ও ছলডল রাখা চলনটি শহলিপ ষহটিচ করুন া
6 চলন 3নথ পাতপরিতল শহলিপ ষহটিচ 3 চলন কহরুশ খুলল নিন া
ও 1ম সারির 1ম ও 2য ফুল 9নথ ও 12নথ পাতপডি য়ল
2টি পিকট দিযল জশডা হযলছল তার মধহয়ল কহরুশ চালান ও
ছলডল রাখা চলনটি শহলিপ ষহটিচ করুন া 3চলন 3নথ পাতপ~
ডিতল শহলিপ ষহটিচ 6চলন , 4নথ পাতপডিতল শহলিপ ষহটিচ 6চলন
5নথ পাতপডিতল শহলিপ ষহটিচল া</p>

<p>ধপর যকটি ফুল নিন ও য়ল কশন যকটি পাতপডিতল
শহলিপ ষহটিচ করুন , সল঩ পাতপডিটি হবল 6নথ পাতপডি া
6চলন , 7নথ পাতপডিতল শহলিপ ষহটিচ , কহরুশ খুলল নিন নগলর
ফুললর 4নথ পাতপডির শহলিপ ষহটিচল , 3চলন ষহটিচ করুন 6
চলন 8নথ পাতপডিতল শহলিপ ষহটিচ ,	 3চলন কহরুশ খুলল , নিন ও
য়লখানল 12নথ , 9নথ ও 3নথ পাতপডির পিকট 3টি মিললছল
সল঩ শহলিপ ষহটিচল , শহলিপ ষহটিচ করুন , 3চলন , 8নথ পাতপডিতল
শহলিপ ষহটিচ , 6 চলন শহলিপ ষহটিচ 9নথ পাতপডিতল কহরুশ খুলল ,
1ম সারির 2য ফুললর 11নথ পাতপডির মধহয়দিযল কহরুশ ঢুকিযল
ছলডল রাখা চলনটি শহলিপ ষহটিচ করুন , 6চলন 10নথ পাতপডিতল
শহলিপ ষহটিচ , কহরুশ ঢুকিযল ছলডল রাখা চলন শহলিপ ষহটিচ	 করুন
য঩ভাবল য়তগুলি ফুল দরকার ততগুলি না জশডা হওযা
পরহয়হয়নহত পাশলর চারহট দলখল জুডল য়ান া //
ফলহটশ বশনা -
তশলা ঘর সমলত কাতটা নপনার বাতহাতল ধরুন , ডান
হাতলর কাতটা বাতহাতল ধরা কাতটার পহরথম ঘরল ডান দিক থলকল
বাতদিকল ঢুকান , ফল কাতটার ফপর দিযল 1 বার পলতচান ও
ঢশকান ঘরটির মধহয়ল দিযল যকটি নতুন লুপ টলনল ডান
হাতলর কাতটায নিন , বাতহাতলর কাতটার পহরথম লুপটি কাতটা
থলকল ছলডল দিন া</p>

<p>ঘর বনহধ করা -
য়খন ঘর বনহধ করবলন	 তখন 1ম ঘর 2টি বুনল নিন ,
যখন বাত হাতলর কাতটা ডান হাতলর কাতটার বাতদিকল থলকল
ডান দিকল ঢশকান ( 2টি 2রলর ডান দিক থলকল 1ম ঘরল ) ও
সলটি টলনল ডান হাতলর 2য ঘরলর ফপর দিযল ফললল দিন া
নবার যকটি নতুন ঘর সশজা বা ফলহটশ বুনুন ও যক঩
ভাবল কাতটা ঢুকিযল ফপর দিযল ফললুন া
ঘর কমান সব সময 2টি যকসঙহগল বুনল , য়াকল
জশডা বলল , ঘর কমাতল হয া
ঘর বাডান - ধনলক রকম ভাবল঩ হতল পারল া</p>

<p>1ম নিযম - যটি সাধারণতদ ললসি নমুনাতল঩ করা হয ,
ফল বশনার সামনল যনল পরল ঘর সশজা বশনা , যতল 1টি
ফাতক হবল া</p>

<p>ফলহটশ কাতটায ফল পিছন দিকল রলখল঩ পরলর ঘর
ফলহটশ করলল 1 ঘর বলডল য়াবল ও 1টি ফাতকা হবল া
</p></body></text></cesDoc>