<cesDoc id="ben-w-socsci-psych-bps07" lang="ben">
<cesHeader type="text">
<fileDesc>
<titleStmt>
<h.title>ben-w-socsci-psych-bps07.txt</h.title>
<respStmt>
<respType>Electronic file created by</respType>
<respName>Central Institute for Indian Languages, Mysore</respName>
<respType>transferred into Unicode and CES format by</respType>
<respName>"Unicodify" software by Andrew Hardie</respName>
</respStmt></titleStmt>
<publicationStmt>
<distributor>UCREL (on behalf of CIIL)</distributor>
<pubAddress>Department of Linguistics, Lancaster University, Lancaster, LA1 4YT, UK</pubAddress>
<availability region="WORLD"></availability>
<pubDate>03-07-22</pubDate>
</publicationStmt>
<sourceDesc>
<biblStruct>
<monogr>
<h.title>মনোবিদ্য়</h.title>
<h.author>প্রমোদবন</h.author>
<imprint>
<pubPlace>India</pubPlace>
<publisher>Unknown - Book.</publisher>
<pubDate>1987</pubDate>
</imprint>
<idno type="CIIL code">bps07</idno>
</monogr></biblStruct></sourceDesc></fileDesc>
<encodingDesc>
<projectDesc>Text collected for the CIIL Corpus, subsequently integrated into the EMILLE/CIIL Monolingual Written Corpora.</projectDesc>
<samplingDesc>Simple written text only has been transcribed. Diagrams, pictures and tables have been omitted. Sampling begins at page 08335.</samplingDesc>
<editorialDecl><conformance level="1"></conformance></editorialDecl>
</encodingDesc>
<profileDesc>
<creation><date>03-07-22</date></creation>
<langUsage>Bengali</langUsage>
<wsdUsage>
<writingSystem id="ISO/IEC 10646">Universal Multiple-Octet Coded Character Set (UCS).</writingSystem>
</wsdUsage>
<textClass>
<channel mode="w">print</channel>
<constitution type="composite"></constitution>
<domain type="public"></domain>
<factuality type="fact"></factuality>
</textClass>
<translations></translations>
</profileDesc>
<revisionDesc></revisionDesc>
</cesHeader>

<text><body>

<p>&lt;মনোবিদ্য়া । প্রমোদবন্ধু সেনগুপ্ত ।
(9) আমরা উভয চোখের সাহায়্য়েই বস্তু প্রত্য়ক্ষ করি । কিন্তু আমাদের দুই চোখে
বস্তুর য়ে প্রতিকৃতি পড়ে , তার মধ্য়ে সামান্য় পার্থক্য় আছে । অভ্য়াসের জন্য়ই
আমরা দুটি প্রতিকৃতিকে এক করে দেখি । দূরবর্তী বস্তু প্রত্য়ক্ষণ
করার সময প্রতিকৃতির মধ্য়ে পার্থক্য় কমে য়ায এবং নিকটবর্তী
বস্তু প্রত্য়ক্ষণ করার সময দুটি প্রতিকৃতির পার্থক্য় বেশী হয ।
পার্থক্য় সত্ত্঵েও দুটি প্রতিকৃতিকে এক করে দেখার জন্য় আমাদের
মানসিক পরিশ্রম হয । এই মানসিক পরিশ্রমই দূরত্঵ বোধের জ্ঞাপক ।</p>

<p>বার্কলের মতে চক্ষুর সাহায়্য়ে আমরা দূরত্঵ সোজাসুজি প্রত্য়ক্ষ করতে পারি না ।
দৃষ্টি আমাদের বস্তুর মধ্য়ে কতকগুলি চাক্ষুষ লক্ষণ বা সংকেতের ( visual signs )
ইঙ্গিত দেয য়েগুলিকে ব্য়াখ্য়া করে আমরা দূরত্঵ প্রত্য়ক্ষ করতে পারি । এই চাক্ষুষ
লক্ষণগুলি সক্রিয স্পর্শ সংবেদনের মধ্য়স্থতায অর্জিত হয ।
সুতরাং , দূরত্঵ সম্পর্কে আমাদের য়ে প্রত্য়ক্ষ হয তা হল অর্জিত
প্রত্য়ক্ষ ( acquired perception ) । প্রত্য়ক্ষ সম্পর্কে বার্কলের
মতবাদ ` অর্জিত চাক্ষুষ প্রত্য়ক্ষ মতবাদ ' ( The Theory of Acquired Visual
Perception ) নামে পরিচিত ।</p>

<p>বার্কেলর মতের স্঵পক্ষে নিম্নলিখিত য়ুক্তিগুলি উপস্থাপিত করা য়েতে পারে :
(1) চোখে ছানি থাকার জন্য় কতকগুলি শিশু অন্ধ হযেই জন্মগ্রহণ করে ।
অস্ত্রোপচারের সাহায়্য়ে তাদের চোখের ছানি অপসারিত করা হলে য়খন দৃষ্টিশক্তি
ফিরে পায তখন তারা প্রথম প্রথম চোখের সাহায়্য়ে দূরত্঵ নির্ধারণ
করতে পারে না , তাদের মনে হয সব বস্তুই বুঝি তাদের কাছে
আছে । একেবারে চোখের উপরে এসে পড়েছে এই মনে করে তারা অনেক সময
দূরবর্তী বস্তু দেখেও তারা পিছু সরে আসে ।</p>

<p>(2) দৃষ্টিশক্তির সঙ্গে সক্রিয স্পর্শ য়ুক্ত না হওযার জন্য় নবজাত শিশু তার জন্মের
পরে প্রথম কযেকটি মাস কোন বস্তুটি কাছে , আর কোন বস্তুটি দূরে
তা বুঝে উঠতে পারে না । তাই সে হাত বাড়িযে আকাশের চাঁদে হাতে
পেতে চায ।</p>

<p>(3) চিত্রশিল্পী অনেক সময সমান্তরাল রেখাকে অভিসৃত করে এবং তারপর তার
বিভিন্ন অংশে আলো ও ছাযার তারতম্য় সংয়োজন করে বিষযবস্তুর মধ্য়ে ঘনত্঵ের বোধ
এনে দেয বা অনেক সময দুটি সমান্তরাল রেখাকে অভিসৃত , অর্থাত্ সমকেন্দ্রামুখী
করে এক বিন্দুতে মিলিযে দিযে দূরত্঵ের বোধ সৃষ্টি করেন । চিত্রে অঙ্কিত বস্তু দূরত্঵
এবং ঘনত্঵ বোধ আমরা কিভাবে প্রত্য়ক্ষ করি ? আসলে চিত্রের সব
অংশই একটি কাগজের উপর অঙ্কিত করা হযেছে ; কাজেই চিত্রে
অঙ্কিত বস্তুর আসলে কোন ঘনত্঵ নেই । আমরা সোজাসুজি ঘনত্঵
এবং দূরত্঵ এক্ষেত্রে কিছুতেই প্রত্য়ক্ষ করতে পারছি না , কেবলমাত্র
কতকগুলি ` চাক্ষুষ লক্ষণ বা সংকেত ' ( Visual signs ) থেকে দূরত্঵ এবং ঘনত্঵
অনুমান করে নিই ।</p>

<p>(4) আমাদের চোখের গঠন এমনই য়ে , চোখ সোজাসুজি স্থান বা দূরত্঵ প্রত্য়ক্ষ করতে
পারে না । অক্ষিকোটর থেকে অক্ষিগোলক ছুটে বেরিযে গিযে বস্তুর কাছে পৌঁছাতে পারে
না বা দূরত্঵টুকু মেনে নিতে পারে না । আমাদের অক্ষিপট ( Retina ) হল একটি
পর্দার মতো এবং বাইরে থেকে ছবিটি এই পর্দার উপর প্রতিফলিত হয । এই ছবি
তাই দ্঵ি-পরিসরবিশিষ্ট ( Two dimensional ) । ওর দৈর্ঘ্য় ও প্রস্থ আছে ; কিন্তু
সম্মুখ পশ্চাতের পরিসর ( Front-back dimensional ) নেই ।</p>

<p>বার্কলের অর্জিত চাক্ষুষ প্রত্য়ক্ষ মতবাদের সমালোচনা :
স্টাউট , য্য়াঞ্জেল , জেমস প্রমুখ মনোবিদরা বার্কলের পূর্বোক্ত মতবাদের বিরোধিতা
করেন এবং তাঁদের মতে দূরত্঵ সম্পর্কে আমাদের য়ে প্রত্য়ক্ষ , তা অর্জিত প্রত্য়ক্ষ
নয । চোখের সোজাসুজি দুরত্঵ প্রত্য়ক্ষ করার মৌলিক ক্ষমতা আছে । এই বিষযটি
প্রমাণের জন্য় উক্ত মনোবিদরা নিজেদের মতের সপক্ষে নিম্নোক্ত য়ুক্তিগুলি উপস্থাপিত
করেছেন ।</p>

<p>(1) অনেক দূরে অবস্থিত য়ে সব বস্তু , য়েমন - আকাশের তারা , মেঘ , পর্বত ,
সেই সব বস্তুর পারস্পরিক দূরত্঵ নির্ধারণ করা চোখের সাহায়্য়ে সম্ভব , কেননা ,
আমরা য়াতে সক্রিয স্পর্শের সাহায়্য়ে দূরত্঵ অবধারণ করতে পারি , তার জন্য় এই
বস্তুগুলি কখনও আমাদের কাছে এসে উপস্থিত হবে না ।</p>

<p>(2) দূরত্঵ের সুক্ষ্ম তারতম্য় স্পর্শ অপেক্ষা চোখের মাধ্য়মেই প্রত্য়ক্ষ করা য়ায ।
পরস্পরের খুব কাছাকাছি দুটি বিন্দুর মধ্য়ে য়ে দূরত্঵ের ব্য়বধান রযেছে তা চোখের
সাহায়্য়েই অবধারণ করা য়ায , স্পর্শের সাহায়্য়ে নয ।</p>

<p>(3) কতকগুলি চাক্ষুষ অভিজ্ঞতা , বিশেষ করে এক চক্ষুর উপয়োগী ( Monocular )
এবং দুই চক্ষুর উপয়োগী ( Binocular ) প্রত্য়ক্ষে য়ে পেশী অভিজ্ঞতা ঘটে তা
চাক্ষুষ সংকেতলব্ধ নয , দূরত্঵ের সাক্ষাত্ প্রত্য়ক্ষ ।</p>

<p>(4) জেমস্-এর অভিমতানুয়াযী স্থান বা বিস্তার য়েহেতু তিন-পরিসর-বিশিষ্ট ( Three
dimension ) , সেইহেতু চোখের পক্ষে কেবলমাত্র দৈর্ঘ্য় ও প্রস্থ প্রত্য়ক্ষ করা সম্ভব
নয । কেননা , হয চোখ তিন-পরিসর-বিশিষ্ট স্থান , অর্থাত্ দৈর্ঘ্য় , প্রস্থ ও ঘনত্঵
তিনটিই প্রত্য়ক্ষ করে , নযত কিছুই প্রত্য়ক্ষ করে না ।</p>

<p>সিদ্ধান্ত ( Conclusion ) : পূর্বোক্ত অভিয়োগগুলি আনা হলেও বার্কলের মতবাদের
মধ্য়ে য়থেষ্ট সত্য়তা আছে । স্পর্শের সাহায়্য় ছাড়াও শুধুমাত্র চোখের সাহায়্য়ে দুরত্঵
ও ঘনত্঵ প্রত্য়ক্ষ করা য়েতে পারে । কিন্তু সেই দূরত্঵ প্রত্য়ক্ষ দর্শন ও দর্শনের
সংয়ুক্ত প্রক্রিযার মাধ্য়মে য়ে দূরত্঵ের জ্ঞান লাভ করা য়ায , তার
থেকে অনেক পৃথক । স্পর্শনের সাহায়্য়ে য়ে দূরত্঵ের জ্ঞান
লাভ করা য়ায চাক্ষুষ প্রত্য়ক্ষণের তুলনায সেই জ্ঞান অনেক বেশী নির্ভরয়োগ্য় ।
কারণ , (i) শুধুমাত্র চোখের সাহায়্য়ে আমরা য়ে দূরত্঵ প্রত্য়ক্ষ করি , ব্য়ক্তিসাপেক্ষ
এবং ব্য়ক্তিনিরপেক্ষ কারণবশতঃ তার মধ্য়ে তারতম্য় দেখা দিতে পারে । (ii) জন্মান্ধ
ব্য়ক্তি স্পর্শনের সাহায়্য়েই দূরত্঵ের ধারণা করে । আবার অন্ধকারেও স্পর্শনের সাহায়্য়ে
আমরা দূরত্঵ের ধারণা করে থাকি । //
কল্পনার স্঵রূপ ( Nature of Imagination ) :
অতীত অভিজ্ঞতার প্রতিরূপকে নতুনভাবে সাজিযে নিযে য়খন নতুন কোন মানসচিত্র
মনের সামনে তুলে ধরি তখন তাকে বলা হয কল্পনা । বস্তুকে প্রত্য়ক্ষ করার পর তার
একটা প্রতিচ্ছাযা আমাদের মনে থেকে য়ায , তাকে বলা হয প্রতিরূপ ( Image ) ।
এই প্রতিরূপগুলিকে সংয়ুক্ত বা বিয়ুক্ত করে য়ে মানসিক চিত্র
মনের সামনে তুলে ধরা হয তাকে কল্পনা বলে । কল্পনা বা
প্রতিরূপের সাহায়্য়ে য়ে জ্ঞান তাকেই কল্পনা বলা হয । আমরা পক্ষীরাজ ঘোড়া বা
সোনার পাহাড়ের কথা কল্পনা করি । প্রথম ক্ষেত্রে পাখি এবং ঘোড়া উভযই আমরা
প্রত্য়ক্ষ করেছি । পরে পাখির ডানার প্রতিরূপকে ঘোড়ার প্রতিরূপের সঙ্গে য়ুক্ত করে
কল্পনাতে পাই পক্ষীরাজ ঘোড়ার মানস-চিত্র । অনুরূপভাবে সোনা ও পাহাড় উভযের
প্রতিরূপের সাহায়্য়ে পাহাড়ের একটি মানস-চিত্র চোখের সামনে তুলে ধরি ।</p>

<p>কল্পনা হল গঠনমূলক বা সৃষ্টিধর্মী ( constructive or creative ) । য়েমনটি
দেখেছি ঠিক তেমনটি য়দি পুনরুজ্জীবিত করি , তবে তা কল্পনা হবে না , হবে স্মৃতি
( memory ) । কল্পনার ক্ষেত্রে নতুন করে অভিজ্ঞতার প্রতিরূপগুলিকে সাজিযে
গুছিযে নিতে হয । অতীত অভিজ্ঞতার কোন প্রতিরূপ বর্জন করে , কখনও বা বিভিন্ন
অভিজ্ঞতার প্রতিরূপগুলিকে পরস্পরের সঙ্গে য়ুক্ত করে , কখনও বা বাড়িযে , কখনও
কমিযে কল্পনার কাজ চলতে থাকে ।</p>

<p>` কল্পনা ' শব্দটিকে তিনটি অর্থে ব্য়বহার করা য়েতে পারে : (1) ব্য়াপক অর্থে কল্পনা
হল য়ে কোন ধরনের প্রতিরূপের ( Image ) সহাযতায চিন্তা করা । এই অর্থে কল্পনা
স্মরণ ক্রিযাকেও বোঝায ; বিভিন্ন বিষয স্মরণ করার জন্য় আমরা প্রতিরূপের সহাযতা
গ্রহণ করি । (2) সংকীর্ণ অর্থে ` কল্পনা ' হল অতীত অভিজ্ঞতার উপাদন গ্রহণ করে
নতুন ভাবে সাজিযে নতুন চিত্র সৃষ্টি করা , য়ার অভিজ্ঞতা আমরা পূর্বে লাভ করিনি ।
য়েমন - সোনার পাহাড় বা পক্ষীরাজ ঘোড়া । (3) তৃতীয অর্থে কল্পনা হল একেবারে
অবাস্তব কল্পনা । এক্ষেত্রে এমন মানসিক চিত্রের কথা কল্পনা করা হচ্ছে , য়ার উপাদান
আমাদের অভিজ্ঞতা থেকে গ্রহণ করা হযনি , য়া নিছক কল্পনা ; এর উদাহরণ আমরা
কবির কল্পনায দেখতে পাই । য়েমন - হিং টিং ছট । সাধারণতঃ কল্পনাকে দ্঵িতীয অর্থে
গ্রহণ করা হয ।</p>

<p>কল্পনার বৈশিষ্ট্য় : কল্পনার কতকগুলি বৈশিষ্ট্য় আছে য়ার দ্঵ারা অন্য়ান্য় মানসিক প্রক্রিযা
থেকে তাকে পৃথক করা য়ায । কল্পনার ক্ষেত্রে য়থেষ্ট স্঵াধীনতা আছে , কিন্তু সেই স্঵াধীনতাও
একেবারে অবাধ নয , তারও একটা সীমা আছে । কল্পনা হল
অতীত অভিজ্ঞতা থেকে প্রতিরূপ গ্রহণ করে তাকে নতুনভাবে
সাজানো । সুতরাং , প্রতিরূপের জন্য় কল্পনাকে অতীত অভিজ্ঞতার
উপর নির্ভর করতে হয । কল্পনার ক্ষেত্রে আমরা য়েসব প্রতিরূপের
ব্য়বহার করে থাকি , সেইগুলি আমরা সৃষ্টি করি না , সেইগুলিকে গ্রহণ করি পূর্ব
অভিজ্ঞতা থেকে । য়া আমরা কখন প্রত্য়ক্ষ করিনি , য়ার অভিজ্ঞতা আমরা পূর্বে লাভ
করিনি , অর্থাত্ য়া পূর্বে প্রত্য়ক্ষ করা হযনি , তা কল্পনা করা সম্ভব নয ।</p>

<p>এই কারণে কল্পনার সঙ্গে প্রত্য়ক্ষের ঘনিষ্ঠ সম্পর্ক আছে । অতীতে প্রত্য়ক্ষ করা হযেছে
এমন সব বস্তুর প্রতিরূপগুলির সংয়োজন , বিযোজন , বৃদ্ধি , হ্রাস ও নানা প্রকার
বিন্য়াসের মাধ্য়মেই কল্পনা সম্ভব হয । শিঙওযালা খরগোশের কল্পনায
শিঙের প্রতিরূপ ও খরগোশের প্রতিরূপ সংয়োজিত ও বিযোজিত করা
হয । কুড়ি ফুট দীর্ঘ মানুষের কল্পনায সাধারণ মানুষের প্রতিরূপের
বৃদ্ধি এবং লিলিপুটের কল্পনায ঐ প্রতিরূপের হ্রাস লক্ষ্য় করা য়ায । য়খন রামের গাযে
শ্য়ামবাবুর পোশাক ও য়দুবাবুর ছাতার কল্পনা করি তখন বিভিন্ন প্রতিরূপগুলির বিচিত্র
বিন্য়াস লক্ষ্য় করা য়ায । কল্পনায এমন বস্তুর প্রতিরূপ ব্য়বহার করা য়ায না , য়ে
বস্তু প্রত্য়ক্ষ পূর্বে হযনি । কাজেই কল্পনা য়তই বলবতী হোক না কেন তাকে অতীতের
প্রত্য়ক্ষের উপর নির্ভর করতেই হয । আমরা য়েমন এমন কোন ফুলের কল্পনা করতে
পারি না য়া একই সমযে রক্তবর্ণ ও রক্তবর্ণ নয । কল্পনার পক্ষে তর্কবিদ্য়ার চিন্তার
মূল সূত্রগুলি অগ্রাহ্য় করা সম্ভব নয ।</p>

<p>স্মৃতিশক্তি কল্পনাকে প্রভাবিত করে । য়া একেবারেই স্মরণে নেই তাকে কল্পনা করা
সম্ভব হয না । য়ার স্মৃতিশক্তি দুর্বল তার কল্পনাশক্তিও দুর্বল ।</p>

<p>কল্পনা অনেক সময উদ্দেশ্য়ের দ্঵ারা নিযন্ত্রিত হয । আমাদের বিবিন্ন সঙ্কল্পকে বাস্তব
রূপ দেবার জন্য় আমাদের পূর্ব থেকেই অনেক কিছুই কল্পনা করে নিতে হয ।
মনোবিদ্ মারফি ( Murphy ) বলেন , "" আমাদের প্রযোজন
মেটাবার জন্য় আমরা কল্পনা করি । "" একটি পাঠাগারের জন্য়
নতুন একখানা বাড়ির প্রযোজন । পূর্ব থেকেই বাড়িটার একটা নকশা বা কল্পিত
রূপ আমাদের মনের সামনে তুলে ধরি , অবশ্য় এ ক্ষেত্রেও পূর্ব অভিজ্ঞতাই উপাদান
য়ুগিযে দিযে থাকে ।</p>

<p>কতকগুলি বস্তু এবং তার আনুষঙ্গিক গুণ এমনভাবে পরস্পরের সঙ্গে সম্বন্ধ-য়ুক্ত য়ে
একটিকে কল্পনা করতে গেলে আর একটিকেও কল্পনা করতে হয , একটি থেকে আর
একটিকে বিচ্ছিন্ন করে কল্পনা করা য়ায না । য়েমন - অগ্নি আর তার দাহিকা শক্তি ,
দুগ্ধ ও তার শুভ্রতা জল আর তার তরলতা । //
(খ) উত্তর-প্রতিরূপ ( After-Image ) : অনেক সময উদ্দীপক-রহিত
সংবেদনকে বলা হয উত্তর-প্রতিরূপ । অবশ্য় উত্তর-প্রতিরূপকে উত্তর-সংবেদন বা
অনুবেদন ( After sensation ) বলাই উচিত ; য়েহেতু উদ্দীপক অপসারিত
করার পরেও য়ে প্রতিচ্ছবি আমরা পেযে থাকি তা হল আসল সংবেদন । এই
উত্তর-প্রতিরূপ আবার দুই রকমের হতে পারে - (ক) সবর্ণ উত্তর-প্রতিরূপ
( Positive after-image ) এবং (খ) অসবর্ণ উত্তর প্রতিরূপ ( Negative
after-image ) ।</p>

<p>সবর্ণ উত্তর প্রতিরূপ : ভোর বেলায সূর্য়্য়ের দিকে কিছুক্ষণ তাকাবার পরে য়দি
ঘরের মধ্য়ে সাদা দেওযালের দিকে তাকান য়ায তাহলে মনে হয চোখের সামনে
কি য়েন জ্঵লজ্঵ল করছে । এ হল সবর্ণ উত্তর-প্রতিরূপ বা অনুবেদনের দৃষ্টান্ত ।
এক্ষেত্রে অনুবেদন মূল সংবেদন থেকে পৃথক ।</p>

<p>অসবর্ণ উত্তর প্রতিরূপ : এর দৃষ্টান্ত হল , দেওযালে আটকানো এক টুকরো লাল
কাগজের দিকে আধ মিনিট তাকানর পর য়দি আমরা পাশের সাদা দেওযালটির দিকে
তাকাই তাহলে দেওযালটিতে নীল-সবুজের আভা দেখা য়াবে । এক্ষেত্রে অনুবেদন
মূল সংবেদন থেকে পৃথক ।</p>

<p>(গ) পৌনঃপুনিক প্রতিরূর ( Recurrent Image ) : য়ে প্রতিরূপ প্রত্য়ক্ষ বস্তু
অপসারিত হবার পরেও বার বার মানস চোখে ভেসে ওঠে , তাকেই বলা হয
পৌনঃপুনিক প্রতিরূপ । য়েমন , আমার প্রিয বন্ধুটিকে বিদায জানালাম এবং
ট্রেনটি বন্ধুকে নিযে স্টেশন ছেড়ে চলে গেল , তারপর বন্ধুঠির মুখের প্রতিচ্ছবি
বার বার আমার চোখের সামনে ভেসে ওঠে । অনুবীক্ষণ য়ন্ত্রের মধ্য় দিযে কোন
বস্তু অধিক সময ধরে দেখবার পর সেই বস্তুটির প্রতিচ্ছবি বার বার ঘুরে ফিরে
চোখের সামনে ভাসতে থাকে ।</p>

<p>পৌনঃপুনিক প্রতিরূপ স্মৃতি প্রতিরূপ নয । প্রত্য়ক্ষের সঙ্গে সমযের দীর্ঘ ব্য়বধান
থাকলেও পৌনঃপুনিক প্রতিরূপের বিলোপ ঘটে । কিন্তু প্রত্য়ক্ষের সুদীর্ঘকাল পরে
স্মৃতি-প্রতিরূপের আবির্ভাব সম্ভব হয । বন্ধুর প্রতিচ্ছবি থেকে থেকে মনে ভেসে
উঠলেও , বেশ কিছু সমযের ব্য়বধানে সেটি একেবারে অন্তর্হিত হয । কিন্তু দশ
বছর আগে দেখা তাজমহলের প্রতিরূপ আজও মনে জেগে উঠতে পারে ।</p>

<p>উত্তর সংবেদন বা উত্তর প্রতিরূপের সঙ্গে পৌনঃপুনিক প্রতিরূপের পার্থক্য় হল ,
প্রথমটি অবিরামভাবে এবং দ্঵িতীযটি সবিরামভাবে চলতে থাকে । প্রথমটির আবির্ভাব
ও তিরোভাব স্পষ্ট বোঝা য়ায না । কিন্তু দ্঵িতীযটির তা বোঝা য়ায । উত্তর প্রতিরূপ
প্রত্য়ক্ষ রূপের কাছাকাছি , পৌনঃপুনিক প্রতিরূপ স্মৃতির প্রতিরূপের কিছুটা কাছাকাছি ।</p>

<p>(ঘ) প্রাথমিক স্মৃতি-প্রতিরূপ ( Primary Memory Image ) : সময সময স্মৃতি
প্রতিরূপ প্রত্য়ক্ষিত বস্তুর মতো এত স্পষ্ট ও সজীব হযে ওঠে য়ে , তাকে তখন
স্মরণ করার জন্য় কোন ইচ্ছাকৃত চেষ্টার দরকার হয না ; তখন তাকে বলা হয
প্রাথমিক স্মৃতি প্রতিরূপ ( Primary Memory Image ) । পদার্থতত্ত্঵বিদ্ ফেকনার
( Fechner ) এই প্রাথমিক স্মৃতি প্রতিরূপের নামকরণ করেছেন ।</p>

<p>য়খন দুটি বস্তুর ওজনের পারস্পরিক তুলনা করবার জন্য় তাদের একটির পর
একটিকে হাতে তুলে নিযে প্রথম বস্তুটির ওজনের স্মৃতি প্রতিরূপের সঙ্গে দ্঵িতীয
বস্তুটির ওজনের য়ে প্রত্য়ক্ষ , তার তুলনা করা হয , তখন এক্ষেত্রে প্রথম বস্তুটির
য়ে স্মৃতি প্রতিরূপ তাকে বলা হয প্রাথমিক স্মৃতি প্রতিরূপ ( Primary Memory
Image ) । এই প্রতিরূপ আপনা থেকেই মনে আসে , ইচ্ছা করে এঁকে স্মরণ
করবার প্রযোজন হয না । তবে দীর্ঘ সমযের জন্য় একে মনে সংরক্ষিত করে
রাখা য়ায না , এটি মূলত ক্ষণস্থাযী ।</p>

<p>প্রাথমিক স্মৃতি প্রতিরূপ উত্তর প্রতিরূপ নয ; কেননা এটি উত্তর প্রতিরূপের
মতো প্রত্য়ক্ষের অবিরাম রেশ নয । এটি পৌনঃপুনিক প্রতিরূপও নয । কেননা
পৌনঃপুনিক প্রতিরূপ বিনা প্রচেষ্টাতেই থেকে থেকে মনে উদিত হয । কিন্তু প্রাথমিক
স্মৃতি প্রতিরূপের মনের সামনে জাগিযে রাখতে হলে সচেতন প্রযাসের প্রযোজন হয ।
প্রত্য়ক্ষ রূপের প্রতিরূপে রূপান্তরের পথে এটিই শেষ পর্য়্য়ায ।</p>

<p>(ঙ) য়থার্থ স্মৃতি প্রতিরূপ ( Memory Image Proper ) : কোন একটি বস্তু
প্রত্য়ক্ষ করার পর য়খন স্মরণ ক্রিযার সাহায়্য়ে তার একটি প্রতিচ্ছবি আমার মানস
চোখের সামনে তুলে ধরি তখন তাকে বলা হয স্মৃতি-প্রতিরূপ । আমার য়ে বন্ধুটি
আজ দূর দেশে রযেছে তার কথা চিন্তার করার সময তার মুখের একটা প্রতিচ্ছবি
আমার মনে ভেসে ওঠে , এটি য়থার্থ বা পূর্ণাঙ্গ স্মৃতি প্রতিরূপ ।</p>

<p>য়থার্থ স্মৃতি প্রতিরূপে উত্তর প্রতিরূপের মতন প্রত্য়ক্ষজনিত কোন উদ্দীপকের প্রভাব
থাকে না । কোন বস্তু প্রত্য়ক্ষ করার পর তার একটি অনুলিপি মনের সজ্ঞান
স্তরে সংরক্ষিত থাকে । অভিভাবন ( suggestion ) ও অনুষঙ্গের ( association )
সাহায়্য়ে য়খন তাকে প্রতিরূপের মাধ্য়মে মনের সামনে তুলে ধরা হয তখন সেটি হযে
ওঠে একটি পূর্ণাঙ্গ বা য়থার্থ স্মৃতি প্রতিরূপ ।</p>

<p>(চ) আইডেটিক বা ভাব-প্রতিরূপ ( Eidetic Image ) : প্রখ্য়াত জার্মান
মনোবিদ্ ই. আর. য্য়েনেস ( E. R. Jaensch ) এক নতুন ধরনের প্রতিরূপ আবিষ্কার
করেছেন । ভাব-প্রতিরূপ হল এমন একটি দৃষ্টি সম্পর্কীয প্রতিরূপ য়াবে বাস্তব প্রত্য়ক্ষ
থেকে পৃথক করা কষ্টকর হযে দাঁড়ায । সধারণতঃ প্রাপ্তবযস্ক ব্য়ক্তিরা এই প্রতিরূপ
দেখতে পান না এবং অধিকাংশ ক্ষেত্রে বারো থেকে চৌদ্দ বছরের ছেলে মেযেরা এই
প্রতিরূপ দেখতে পায । য়দি এই বযস্ক ছেলেমেযেদের খুব মনোয়োগের সঙ্গে একটি
ছবির দিকে তাকিযে থাকতে বলা হয এবং অনেকক্ষণ তাকাবার
পর একটি সাদা পর্দার উপরে দৃষ্টি ফেরাতে বলা হয , তাহলে তখন
দেখা য়ায য়ে , ছেলেমেযেরা ছবির একটি হুবহু প্রতিচ্ছবি চোখের সামনে দেখতে পায ।
প্রতিচ্ছবিটি য়েন স্঵তঃস্ফূর্তভাবেই চোখের সামনে হাজির হয । এই জাতীয প্রতিরূপকেই
বলা হয আইডেটিক বা ভাব-প্রতিরূপ ( Eidetic Image ) । এই ভাব-প্রতিরূপ ও
অমূল-প্রত্য়ক্ষের ( Hallucination ) মধ্য়ে প্রভেদ এই য়ে , য়াদের মনে এই ধরনের
প্রতিরূপ জাগে তারা প্রতিরূপটির বাস্তব সত্তায বিশ্঵াস করে না , অর্থাত্ এইগুলি য়ে
ব্য়ক্তিসাপেক্ষ , বস্তুনির্ভর নয , সেই বোধ থাকে । সেই কারণে এইগুলিকে বলা হয
কপট অমূল-প্রত্য়ক্ষ ( Pseudo-Hallucination ) । //
অধ্য়াস এবং অমূল প্রত্য়ক্ষ ( Illusion and Hallucination ) :
অধ্য়াস হল এক জাতীয ভ্রান্ত প্রত্য়ক্ষ য়া বিপথগামী কল্পনার প্রভাবে সংবেদনের ভুল
ব্য়াখ্য়ার ফলে ঘটে য়ায । য়েমন - অন্ধকারে দড়িকে সাপ কল্পনা করা ।</p>

<p>বিকারগ্রস্ত কল্পনার প্রভাবের জন্য় বিনা উদ্দীপনায য়খন ভ্রান্ত প্রত্য়ক্ষ ঘটে তখন
তাকে বলা হয অমূল প্রত্য়ক্ষ । য়েমন - ঘরের মধ্য়ে কেউ নেই , কিন্তু কোন ব্য়ক্তি
প্রত্য়ক্ষ করছে য়েন তার সামনে কে দাঁড়িযে আছে ।</p>

<p>বস্তুর বিশেষ গঠন বা প্রকৃতির জন্য় , ইন্দ্রিযের অসুস্থতার জন্য় বা অতীত অভ্য়াস ,
প্রত্য়াশা বা পূর্ব ধারণা , উদ্঵েগ ও ভীতির জন্য় অধ্য়াসের সৃষ্টি হয । য়েমন - অধ্য়াসের
জন্য় আমরা ` Mispirint ' শব্দটিকে ` Misprint ' মনে করে পড়ে য়াই । প্রত্য়াশার
জন্য় , কোন অপরিচিত ব্য়ক্তির কণ্ঠস্঵র শুনেও তাকে আমার এক পরিচিত বন্ধুর কণ্ঠস্঵র
বলে মনে করি , উল্লেখ এবং ভীতির জন্য় রজ্জুকেও সর্প বলে ভ্রম করি ।</p>

<p>অমূল প্রত্য়ক্ষের দৈহিক ও মানসিক কারণ হল , য়থাক্রমে ইন্দ্রিযের কোন ত্রুটি বা
মস্তিষ্কের পদার্থের বিকার , মস্তিষ্কের কোষে অধিক রক্ত সংঞ্চালনের জন্য় মস্তিষ্কের
উত্তেজনা বা কোন বিষয সম্পর্কে অতিরিক্ত চিন্তনক্রিযা প্রভৃতি ।</p>

<p>অধ্য়াস ও অমূল প্রত্য়ক্ষের মধ্য়ে সাদৃশ্য় হল এই য়ে , উভয ক্ষেত্রেই কল্পনার
প্রভাবে ভ্রান্ত প্রত্য়ক্ষ ঘটে । অধ্য়াসের ক্ষেত্রে একটা বস্তুগত ভিত্তি আছে । বাইরের
উদ্দীপক ইন্দ্রিযের উপর ক্রিযা করে অধ্য়াসের সৃষ্টি করে । য়েমন - অন্ধকারে
একটা সাদা কাপড় দেখে মনুষ্য় মূর্তি বলে ভ্রম করা । কিন্তু
অমূল প্রত্য়ক্ষের ক্ষেত্রে কোন বস্তুগত ভিত্তি নেই , অমূল প্রত্য়ক্ষ
হল পুরোপুরি ব্য়ক্তিসাপেক্ষ ( Subjective ) । অমূল প্রত্য়ক্ষের
প্রকৃত কোন উদ্দীপক থাকে না , কল্পনাকেই প্রত্য়ক্ষ বলে ভ্রম হয ।
অধ্য়াসের ক্ষেত্রে প্রকৃত সংবেদন হযে থাকে , কিন্তু তার য়থার্থ ব্য়াখ্য়া করা হয না ।
অধ্য়াস অনেকের হযে থাকে , কিন্তু অমূল প্রত্য়ক্ষ অধ্য়াসের মতো স্঵াভাবিক নয ।
উন্মাদ ব্য়ক্তির ক্ষেত্রেই অমূল প্রত্য়ক্ষ অধিক পরিমাণে সংঘঠিত হযে থাকে ।</p>

<p>য়থার্থ প্রত্য়ক্ষ , অধ্য়াস এবং অমূল প্রত্য়ক্ষ ( Correct Perception , Illusion
and Hallucination ) :
বস্তুটি আসলে য়া তাকে সেই ভাবে প্রত্য়ক্ষ করাই য়থার্থ প্রত্য়ক্ষ । অধ্য়াস হল
ভ্রান্ত প্রত্য়ক্ষ য়া সংবেদনের ভ্রান্ত ব্য়াখ্য়ার জন্য় ঘটে থাকে । বিনা উদ্দীপনায
য়খন ভ্রান্ত প্রত্য়ক্ষ ঘটে তখন তাকে বলা হয অমূল প্রত্য়ক্ষ । একটি উদাহরণের
সাহায়্য়ে এই তিনটি বিষযের পার্থক্য় ভাল করে বুঝে নেওযা য়াক : অন্ধকারে
পথ চলতে চলতে কোন লোক এক খণ্ড দড়ি দেখতে পেল ।
য়দি সে দড়িকে দড়ি বলে বুঝতে পারে তাহলে তাকে
বলা হবে য়থার্থ প্রত্য়ক্ষ ( Correct Perception ) । দড়িকে
য়দি সে সাপ মনে করে , তাহলে হবে অধ্য়াসের ( Illusion ) উদাহরণ । আবার
দড়িও নেই , কোন সাপও নেই , অথচ মনে হল য়েন সামনে একটা সাপ রযেছে ,
তাহলে তা হবে অমূল প্রত্য়ক্ষের ( Hallucination ) উদাহরণ ।</p>

<p>স্঵প্ন ( Dream ) :
সচেতন জাগ্রত অবস্থা এবং গভীর অচেতন নিদ্রিত অবস্থার মধ্য়বর্তী স্তরে প্রত্য়ক্ষের
স্পষ্টতা ও বাস্তবতা নিযে য়ে নিষ্ক্রিয কল্পনা দেখা দেয তাকেই স্঵প্ন বলে । স্঵প্ন হল
নিদ্রাকালীন চেতন অবস্থা । স্঵প্নে আমরা জেগে আছি এমন
কথা বলা চলে না ; আবার একেবারে অচেতন , একথাও বলা
য়ায না । স্঵প্নের মধ্য়ে অধ্য়াস ( Illusion ) এবং অমূল প্রত্য়ক্ষের ( Hallucination )
সংমিশ্রণ ঘটে ।</p>

<p>স্঵প্ন য়দিও আমরা দেখে থাকি , তবুও স্঵প্নের প্রকৃত স্঵রূপ এখনও রহস্য়াবৃত ।
স্঵প্নের কতকগুলি উল্লেখয়োগ্য় বৈশিষ্ট্য়ের কথা উল্লেখ করে আমরা এই স্঵প্নের
স্঵রূপকে বুঝে নেওযার চেষ্টা করতে পারি :</p>

<p>(1) স্঵প্ন দেখা অবস্থায আমরা কতকগুলি প্রতিরূপ প্রত্য়ক্ষ করি । এই প্রতিরূপগুলি
স্঵তঃস্ফূর্তভাবে মনের সচেতন স্তরে আবির্ভূত হয । এই প্রতিরূপগুলিকে মনের সামনে
তুলে ধরার জন্য় আমাদের কোন পরিশ্রম করতে হয না । এই দিক থেকে বিচার
করলে স্঵প্ন নিদ্রাকালীন নিষ্ক্রিয কল্পনার ( Passive
imagination ) রূপবিশেষ । স্঵প্ন দেখার সময মন থেকে ইচ্ছা
এবং বিচারশক্তির নিযন্ত্রণ সম্পূর্ণভাবে তিরোহিত হয ; অভিভাবন
( Suggestion ) এবং অনুষঙ্গের ( Association ) প্রভাবের ফলে প্রতিরূপগুলি
খুশীমত পরস্পরের সঙ্গে য়ুক্ত হযে পড়ে ।</p>

<p>(2) নিদ্রিয অবস্থায বিচারশক্তি সতেজ ও সক্রিয থাকে না । সেই কারণে প্রতিরূপগুলি
অসংলগ্ন , অবিশ্঵াস্য় এবং উদ্ঘটভাবে পরস্পরের সঙ্গে সংয়ুক্ত হযে পড়ে , য়ার জন্য়
স্঵প্নে আমরা অনেক অসম্ভব আজগুবি জিনিস দেখি ।
আমরা স্঵প্ন দেখি য়েন , আমরা বাতাসে উড়ছি , মৃত
লোকের সঙ্গে কথা বলছি , কোন মানুষকে হঠাত্ কোন
বন্য় পশুতে রূপান্তরিত হতে দেখছি বা য়ে কাজ করতে এক বছর সময লাগার কথা ,
তা এক ঘণ্টায করে ফেলেছি । প্রতিরূপগুলি সংয়ুক্ত , বিয়ুক্ত , বর্ধিত , সংক্ষিপ্ত এবং
উদ্দেশ্য় নিযন্ত্রিত হযে স্঵প্নের সৃষ্টি করে থাকে ।</p>

<p>(3) স্঵প্নে মনে হয য়েন প্রতিরূপগুলি বাইরের জগতেরই বস্তু বা বাস্তব ঘটনা এবং
প্রতিরূপগুলির অস্তিত্঵ে আমরা বিশ্঵াস করি । য়তক্ষণ মানুষ স্঵প্ন দেখে , ততক্ষণ
সে স্঵প্নকে স্঵প্ন বলে ধারণা করে না । নিদ্রিত অবস্থায বিচারশক্তি সক্রিয না থাকার
জন্য় স্঵প্নের মধ্য়েও য়ে অসম্ভব এবং অবিশ্঵াস্য় ঘটনা প্রত্য়ক্ষ করা য়ায , সেইগুলিকে
অসম্ভব বা অবিশ্঵াস্য় বলে মনে হয না ।</p>

<p>(4) স্঵প্নের প্রতিচ্ছবি খুব সুস্পষ্ট ও সজীব মনে হয , এতই সুস্পষ্ট ও সজীব
য়ে সেইগুলিকে প্রত্য়ক্ষরূপ ( Percepts ) বলে ভুল করা হয । স্঵প্ন দেখার
সময প্রতিচ্ছবিগুলিকে কখনও অবাস্তব বা অমূলক বলে
ধারণা করা হয না । স্঵প্নের মধ্য়ে য়েসব অদ্ভুত , অবিশ্঵াস্য়
চিত্রগুলি আমাদের মনের সামনে উদ্ভাসিত হয , সেইগুলিকে
এত স্পষ্ট ও সজীব মনে হবার দুটি কারণ নির্দেশ করা য়েতে পারে । প্রথমতঃ ,
স্঵প্নে আমাদের কোন ইন্দ্রিয প্রত্য়ক্ষ ( sense-perception ) হয না । প্রতিরূপগুলিই
চেতনার কেন্দ্রস্থলে বিরাজ করে এবং আমাদের সবটুকু মনোয়োগ এই প্রতিরূপগুলির
উপর নিবিষ্ট থাকার জন্য় প্রতিরূপগুলি এত স্পষ্ট ও সজীব মনে হয । দ্঵িতীযতঃ ,
স্঵প্নে বাস্তব জগতের প্রত্য়ক্ষ রূপগুলির সঙ্গে মনোজগতের
প্রতিরূপগুলিকে পাশাপাশি রেখে তুলনা করার কোন
সুয়োগ থাকে না , তাই কাল্পনিক প্রতিরূপগুলিকে এত
স্পষ্ট ও সজীব মনে হয । জাগ্রত অবস্থায কাল্পনিক চিত্র
আমাদের মনে উদিত হলেও , বাস্তবজগতের প্রত্য়ক্ষগুলির
পাশাপাশি থাকার জন্য় আমরা কোন বস্তুটি বাস্তব ও কোনটি ভ্রান্ত বুঝে নিতে পারি ।
কিন্তু স্঵প্নে বাস্তব জগতের সঙ্গে কোন সংয়োগ থাকে না এবং জাগ্রত অবস্থায আমাদের
মধ্য়ে য়ে বিচারশক্তি সতেজ ও সক্রিয থাকে তা নিদ্রাকালে স্তিমিত হযে পড়ে ; এইজন্য়
প্রতিরূপগুলি স্পষ্ট ও সজীব মনে হয ।
 +&gt;*",0
</p></body></text></cesDoc>