<cesDoc id="ben-w-socsci-politics-bpo09" lang="ben">
<cesHeader type="text">
<fileDesc>
<titleStmt>
<h.title>ben-w-socsci-politics-bpo09.txt</h.title>
<respStmt>
<respType>Electronic file created by</respType>
<respName>Central Institute for Indian Languages, Mysore</respName>
<respType>transferred into Unicode and CES format by</respType>
<respName>"Unicodify" software by Andrew Hardie</respName>
</respStmt></titleStmt>
<publicationStmt>
<distributor>UCREL (on behalf of CIIL)</distributor>
<pubAddress>Department of Linguistics, Lancaster University, Lancaster, LA1 4YT, UK</pubAddress>
<availability region="WORLD"></availability>
<pubDate>03-07-22</pubDate>
</publicationStmt>
<sourceDesc>
<biblStruct>
<monogr>
<h.title>রাষ্ট্রব</h.title>
<h.author>বন্দ্য়োপ</h.author>
<imprint>
<pubPlace>India</pubPlace>
<publisher>Unknown - Book.</publisher>
<pubDate>1987</pubDate>
</imprint>
<idno type="CIIL code">bpo09</idno>
</monogr></biblStruct></sourceDesc></fileDesc>
<encodingDesc>
<projectDesc>Text collected for the CIIL Corpus, subsequently integrated into the EMILLE/CIIL Monolingual Written Corpora.</projectDesc>
<samplingDesc>Simple written text only has been transcribed. Diagrams, pictures and tables have been omitted. Sampling begins at page 12329.</samplingDesc>
<editorialDecl><conformance level="1"></conformance></editorialDecl>
</encodingDesc>
<profileDesc>
<creation><date>03-07-22</date></creation>
<langUsage>Bengali</langUsage>
<wsdUsage>
<writingSystem id="ISO/IEC 10646">Universal Multiple-Octet Coded Character Set (UCS).</writingSystem>
</wsdUsage>
<textClass>
<channel mode="w">print</channel>
<constitution type="composite"></constitution>
<domain type="public"></domain>
<factuality type="fact"></factuality>
</textClass>
<translations></translations>
</profileDesc>
<revisionDesc></revisionDesc>
</cesHeader>

<text><body>

<p>&lt;রাষ্ট্রবিজ্ঞান পরিচয , অধ্য়াপক বন্দ্য়োপাধ্য়ায ।
মার্কসবাদীগণ বিশ্঵াস করেন য়ে , সমাজতান্ত্রিক বিপ্লব তাহার লক্ষ্য় , পদ্ধতি
প্রস্তুতির দিক হইতে অতীতের অ-সমাজতান্ত্রিক বিপ্লব হইতে অধিক তাত্পর্য়্য়পূর্ণ ।
সমাজতান্ত্রিক সমাজ প্রতিষ্ঠার পূর্বের সকল সমাজব্য়বস্থায অর্থাত্ দাস-ব্য়বস্থা
সামন্ত ব্য়বস্থা এবং পুঁজিবাদী ব্য়বস্থায উত্পাদনের উপকরনের উপর ব্য়ক্তিগত
মালিকানা প্রতিষ্ঠিত থাকে । ইতিহাসের বিভিন্ন আমলাতান্ত্রিক বিপ্লব বা বুর্জোযা
বিপ্লব সামাজিক , অর্থনৈতিক ও রাজনৈতিক বিবিধ পরিবর্তনের
সূচনা করিলেও ব্য়ক্তি-মালিকানার অবসান ঘটায নাই । সমাজ~
তান্ত্রিক বিপ্লব শ্রেণী সংগ্রামের অবসান ঘটাইযা , উত্পাদনের
উপাদানের উপর সামাজিক মালিকানা প্রতিষ্ঠা করিযা সর্বহারা
শ্রেণীর সমাজ প্রতিষ্ঠার লক্ষ্য়কে কার্য়্য়করী করিবার প্রযাস । দ্঵ান্দ্঵িক বস্তুবাদের
বৈজ্ঞানিক বিশ্঵সৃষ্টির উপর ভিত্তিশীল সমাজতান্ত্রিক বিপ্লব শ্রেণীহীন শোষণহীন
নূতন সমাজ প্রতিষ্ঠার ক্ষেত্রে সফল প্রযাস বলা য়াইতে পারে ।</p>

<p>মার্কসীয চিন্তাধারায লেনিনের অবদান ( Lenin's contribution to
Marxism ) :
সমাজ বিকাশের বৈজ্ঞানিক দৃষ্টিভঙ্গীর উপর ভিত্তি করিযা মার্কসবাদ গড়িযা
উঠিযাছে । সুতরাং বৈজ্ঞানিক মতবাদ হিসাবে মার্কসবাদ স্থিতিশীল নহে , গতিশীল ।
মার্কসবাদ এক জীবন্ত বিপ্লবী শিক্ষা য়াহা প্রতিনিযত বিকশিত ও উন্নত হইযাছে ।
মার্কস ও এঙ্গেলস য়াহার বনিযাদ স্থাপন করেন , সেই বিপ্লবী তত্ত্঵কে নূতন ঐতিহাসিক
পরিস্থিতিতে অগ্রসর করিবার প্রযোজন ছিল । সেই মহান কর্তব্য় সম্পাদন করেন
ভ্লাদিমির ইলিচ লেনিন ( Vladimir Iyich Lenin ) এবং তাঁহার পর রাশিযার
জোসেফ স্তালিন ও চীনে মাও-সে-তুঙ্ ।</p>

<p>( 1 ) লেনিনবাদের অন্য়তম গুরুত্঵পূর্ণ দিক হইল তত্ত্঵ ও বাস্তবের সমন্঵য , লেনিন
এই শিক্ষা দিযেছিলেন য়ে মার্কসীয তত্ত্঵ের মূলসূত্রগুলিকে বাস্তব বৈপ্লবিক পরিপ্রেক্ষিতে
প্রযোগ করিযা তাহাদের য়থার্থ্য় বিচার করিতে হইবে । অনেকে অভিয়োগ করেন য়ে ,
তত্ত্঵ অপেক্ষা বাস্তব কর্মকাণ্ডের উপর তিনি অধিক গুরুত্঵ আরোপ
করিযাছেন । এই অভিয়োগ সম্পূর্ণ ভিত্তিহীন য়াহা লেনিনের
বিখ্য়াত উক্তি "" বিপ্লবী মতাদর্শ ব্য়তীত বিপ্লবী আন্দোলন
সফল হইতে পারে না "" হইতে সুস্পষ্টভাবে প্রমাণিত হয ।
বিপ্লবী কর্মকাণ্ডের সহিত সংয়োগ বিচ্ছিন্ন মতবাদ লক্ষ্য়হীন হইযা পড়ে তাহা লেনিন
দৃঢ় প্রত্য়যে উপলব্ধি করিযাছিলেন ।</p>

<p>( 2 ) লেনিন সাম্রাজ্য়বাদকে সমাজতান্ত্রিক বিপ্লবের পূর্ব মূহুর্ত বলিযা চিহ্নিত
করেন । এই অধ্য়াযে সর্বহারার বিপ্লবের প্রকৃতি , গতি-পরিণতি , ` সর্বহারার প্রধান্য়~
মূলক ভূমিকা ' সম্পর্কে লেনিন নূতন আলোকপাত করেন ।
লেনিনের পূর্বে এই ধারণা ছিল য়ে , য়ে দেশে অধিকতর শিল্প
বিকাশ হইযাছে , য়ে দেশে সর্বহারা বা শ্রমিক শ্রেণী সংখ্য়াগরিষ্ঠ
সেখানেও প্রথম সর্বহারার বিপ্লব অনুষ্ঠিত হইবে । লেনিন এই
মতের সম্পূর্ণ বিরোধিতা করেন । শিল্প-সমৃদ্ধ দেশেই য়ে প্রথম সর্বহারার বিপ্লব
ঘটিবে এরূপ কোন স্থিরতা নাই । সাম্রাজ্য়বাদের শৃঙ্খল য়েখানে সর্বাপেক্ষা দুর্বল
সেখানেই বিপ্লব সংঘটিত হইতে পারে । তাহা ছাড়া লেনিনের পূর্বে মার্কসবাদিগণ
বিশ্঵াস করেন য়ে , শিল্প অনুন্নত দেশে বিপ্লব সমাধা হইলে তাহা বুর্জোযা বিপ্লবে
পরিণত হইবে । বুর্জোযা বিপ্লব এবং সর্বহারার বিপ্লবের মধ্য়ে এক গভীর ব্য়বধান
রহিযাছে অর্থাত্ বুর্জোযারা বিপ্লবের মাধ্য়মে ক্ষমতায অধিষ্ঠিত হইযা ধনতন্ত্রকে
অধিকতর বিকশিত করিবে এবং ইহার ফলে সর্বহারার বিপ্লব দেখা দিবে । লেনিনের
মতে , বুর্জোযা গণতান্ত্রিক বিপ্লব এবং সর্বহারার বিপ্লব একই শৃঙ্খলে আবদ্ধ ।</p>

<p>লেনিনের নূতন অবদান হইল জারতন্ত্র ও সামন্ততন্ত্রের বিরূদ্ধে এবং ধনতন্ত্রের বিরূদ্ধে
সংগ্রামে সর্বহারা শ্রেণী প্রাধান্য় সুস্পষ্টভাবে ঘোষণা করা । 1905 সালে রাশিযার প্রথম
বিপ্লবের পূর্বে লেনিন তাঁহার ` দুই কৌশল ' ( Two Tactics ) পুস্তিকায বুর্জোযা
গণতান্ত্রিক বিপ্লব এবং সর্বহারার বিপ্লবে সর্বহারার নেতৃত্঵ের কথা ঘোষণা করেন ।
লেনিনের বিপ্লবী নেতৃত্঵ে রাশিযার বিপ্লবে সর্বহারার ভূমিকা প্রমাণিত হয । বিপ্লব
সম্পর্কে এই দৃষ্টিভঙ্গীর দ্঵ারাই লেনিন শিল্পে অনুন্নত রাশিযার অর্থাত্ একটি দেশে
বিপ্লবের মাধ্য়মে সমাজতন্ত্র প্রতিষ্ঠার লক্ষ্য়কে বাস্তবে রূপদান করেন । ইহাও লেনিনের
নূতন অবদান বলা য়ায ( "" Lenin's new contribution....was : he proved
that a complete socialist could be built in a country with a dictator-
ship of the proletariat surrounded by imperialist states ...... "" Statin ) ।</p>

<p>( 3 ) মার্কস ও এঙ্গেলস সর্বহারার বিপ্লবের মাধ্য়মে পুঁজিবাদী সমাজব্য়বস্থার
অবসান এবং সর্বহারা অর্থাত্ শ্রমিক শ্রেণীর রাজনৈতিক ক্ষমতায অধিষ্ঠিত হওযা বা
সর্বহারার একনাযকত্঵ প্রতিষ্ঠার কথা ঘোষণা করিযাছিলেন । মার্কসের সর্বহারার
একনাযকত্঵ ধারণাটিকে লেনিন শ্রমিক বিপ্লবের গুরুত্঵পূর্ণ দিক বলিযা গ্রহণ করেন ।
সমাজতন্ত্র প্রতিষ্ঠার ক্ষেত্রে লেনিন সর্বহারার একনাযকত্঵কে প্রধান
হাতিযার বলিযা মনে করেন । সর্বহারার বিপ্লবে ক্ষমতাচ্য়ুত
শোষক শ্রেণীর প্রতিরোধ ধ্঵ংস করিবার জন্য় , বিপ্লবের সুফলগুলিকে সংগঠিত করিবার
জন্য় এবং পরিণতিতে সমাজতান্ত্রিক সমাজ গঠনের জন্য় সর্বহারা শ্রেণীর একনাযকত্঵
একান্ত অপরিহার্য়্য় । লেনিনের মতে , পুঁজিবাদ হইতে সাম্য়বাদে উত্তরণের অধ্য়ায
রাষ্ট্রের রূপ হইবে শ্রমিক শ্রেণীর একনাযকত্঵ । //
তৃতীযত , গণতান্ত্রিক সমাজবাদ রাষ্ট্রের শ্রেণী চরিত্র অস্঵ীকার করে এবং রাষ্ট্রকে
সংখ্য়াগরিষ্ঠের মুক্তির হাতিযার হিসাবে কল্পনা করে । মার্কসবাদ ইহার সমালোচনা
করে । বৈষম্য়মূলক সমাজে আর্থিক দিক হইতে প্রতিপত্তিশালী
শ্রেণীই শাসন ক্ষমতা অধিকার করে এবং রাষ্ট্রয়ন্ত্রের মাধ্য়মে
সংখ্য়াগরিষ্ঠের কল্য়াণ সাধন অপেক্ষা মুষ্টিমেয শাসক-শ্রেণীর
স্঵ার্থ সংরক্ষণ করে । পুঁজিবাদী রাষ্ট্র কখনও শ্রমিক-শ্রেণীর য়থার্থ কল্য়াণ করিতে
পারে না । একমাত্র শ্রেণীহীন সমাজতান্ত্রিক রাষ্ট্রে রাষ্ট্র জনগণের ব্য়াপক কল্য়াণ
সাধনে সমর্থ ।</p>

<p>চতুর্থত , গণতান্ত্রিক সমাজবাদ ব্য়ক্তিগত সম্পত্তির অধিকার স্঵ীকার করিযা
সমাজতন্ত্র প্রতিষ্ঠা করিতে চাহে - ইহা সম্পূর্ণ পরস্পরবিরোধী । বুর্জোযা কাঠামো
ব্য়ক্তিগত সম্পত্তির পবিত্র অধিকারের উপর কোনরূপ হস্তক্ষেপ
স্঵ীকার করিতে পারে না ; সুতরাং ব্য়ক্তিগত সম্পত্তির বিলোপ~
সাধন না করিযা সামাজিক মালিকানা প্রতিষ্ঠার য়ুক্তি সম্পূর্ণ
ভ্রান্ত । বুর্জোযা শাসনব্য়বস্থার শিল্প-বাণিজ্য়ের সামাজিকীকরণ বা জাতীযকরণ
ধনিক শ্রেণীর স্঵ার্থ সংরক্ষণ করে এবং আমলাতান্ত্রিক প্রাধান্য় প্রতিষ্ঠা করে ।
মার্কসবাদ বিশ্঵াস করে , অর্থনৈতিক বৈষম্য়ের চোরাবালির উপর রাজনৈতিক বা
সামাজিক সাম্য় প্রতিষ্ঠাত হইতে পারে না । ইহার ফলে গণতন্ত্র ও সমাজতন্ত্র কোনটি
সার্থক হয না ।</p>

<p>পঞ্চমত , গণতান্ত্রিক সমাজবাদ সমাজতন্ত্র প্রতিষ্ঠার নামে রাষ্ট্রীয একচেটিযা
পুঁজিবাদকেই প্রশ্রয দেয । রাষ্ট্রের ক্ষমতা বৃদ্ধির দ্঵ারা জাতীয স্঵ার্থ , শিল্প শান্তি ও
নিরাপত্তার নামে রাষ্ট্রয়ন্ত্র শ্রমিক শ্রেণীর ন্য়াযসঙ্গত আন্দোলনকে
দমন করে । রাষ্ট্রীয নিযন্ত্রণে একচেটিযা পুঁজিবাদের ভিত্তির
উপর ফ্য়াসীবাদের উদ্ভব ঘটে । সুতরাং গণতান্ত্রিক সমাজবাদের
গর্ভে ফ্য়াসীবাদের জন্ম হয ।</p>

<p>মার্কসবাদী সমালোচনা ব্য়তীত ব্য়ক্তি-স্঵াধীনতার সমর্থনে গোঁড়া উদারনৈতিক
লেখকগণের অনেকেও গণতান্ত্রিক সমাজবাদের সমালোচনা করেন । হাযেক ( F. Van
Hayek ) এবং পপার ( k. Poppar ) এই সমালোচকগণের
অন্য়তম । সমালোচনার মূল বক্তব্য় হইল : ( 1 ) গণতান্ত্রিক
সমাজবাদ সমষ্টিবাদে ( collectivism ) পরিণত হয এবং রাষ্ট্রের
ব্য়াপক ক্ষমতা স্঵ীকার করিযা ব্য়ক্তি-স্঵াধীনতা বিপন্ন করে ।</p>

<p>( 2 ) অর্থনৈতিক পরিকল্পনার উপর গুরুত্঵ আরোপ করিযা ব্য়ক্তিগত ও স্঵াধীন
উদ্য়োগে নিরূত্সাহের সঞ্চার করে । ( 3 ) রাষ্ট্রের ক্ষমতা বৃদ্ধিতে আমলাতান্ত্রিক
প্রাধান্য় প্রতিষ্ঠিত হয । ( 4 ) সমালোচকগণ আরও বলেন য়ে , জাতীযকরণের ফলে
স্঵াধীন শিল্পাযন-বিকাশের পথে প্রতিবন্ধকতার সৃষ্টি হয এবং উত্পাদন ব্য়াহত হয ।
( 5 ) এই ব্য়বস্থায অপচযমূলক ব্য়য বৃদ্ধি পায এবং আর্থিক প্রযোজন পূরণের জন্য়
সাধারণ মানুষের উপর ব্য়াপক হারে কর ধার্য়্য় করা হয ।</p>

<p>গণতান্ত্রিক সমাজবাদের বিরূদ্ধে এই সমালোচনা সত্ত্঵েও বলা য়ায য়ে , বর্তমান
য়ুগে উদারনৈতিক দৃষ্টিভঙ্গীর সহিত সমন্঵য সাধন করিযা গণতান্ত্রিক সমাজবাদ
সমাজকল্য়াণ রাষ্ট্রের তত্ত্঵ প্রতিষ্ঠায সহাযতা করিযাছে এবং মার্কসীয মতবাদের এক
শক্তিশালী বিকল্প হিসাবে বর্তমান পৃথিবীর ব্য়াপক অংশে প্রভাব বিস্তার করিযাছে । //
সর্বোদযে সমাজের আর্দশ হইল রাষ্ট্রের নিযন্ত্রণবিহীন শোষণহীন এক সমাজ~
ব্য়বস্থা । বর্তমান শাসন কাঠামোর মাধ্য়মে তাহা সম্ভব নহে । সর্বোদয সমাজে গ্রাম~
পঞ্চাযেতগুলি সাধারণ মানুষের দ্঵ারাই নির্বাচিত হইবে , কোন দলগত ভিত্তিতে নহে ।
সর্বোদয পাশ্চাত্ত্য় গণতান্ত্রিক দেশগুলির দলীয শাসনব্য়বস্থার তীব্র বিরোধিতা
করে । রাজনৈতিক দল , সংখ্য়াগরিষ্ঠের শাসন , ক্ষমতার কেন্দ্রীকরণ
গান্ধীজীর আর্দশ সমাজব্য়বস্থা প্রতিষ্ঠিত করিতে পারিবে বলিযা
তিনি বিশ্঵াস করিতেন । সত্য় , অহিংসা ও ভ্রাতৃত্঵বোধ অনুপ্রাণিত
জনগণই সর্বোদয সমাজের মূল ভিত্তি । এই সমাজে জাতি , বর্ণ , শ্রেণীর বৈষম্য় থাকিবে
না , শোষণ থাকিবে না । সর্বব্য়াপী ভালবাসা ও সহয়োগিতাই প্রাধান্য় লাভ করিবে ।
কেন্দ্রীয কর্তৃত্঵ের পরিবর্তে গ্রামীণ রাজনৈতিক ও অর্থনৈতিক স্঵াতন্ত্র্য়ই হইবে
সাংগঠনিক ভিত্তি । অর্থনৈতিক বিকেন্দ্রীকরণের দ্঵ারা স্঵-নিযন্ত্রিত ও স্঵াবলম্বী
অর্থনীতি গড়িযা তুলিতে পারিলেই উত্পাদন ব্য়বস্থা সার্থকভাবে পরিচালিত হইবে ।
অনাড়ম্বর জীবনয়াপন এবং মহান চিন্তাই হইবে ব্য়ক্তি-জীবনের লক্ষ্য় । প্রত্য়েকে
আপন সামর্থ্য় অনুয়াযী সমাজের জন্য় কার্য়্য় করিবে এবং সমাজের নিকট হইতে অন্য়ের
প্রযোজনের সহিত সামঞ্জস্য় রক্ষা করিযা আপন প্রযোজন পূরণের সামগ্রী লাভ
করিবে । সমাজে সংখ্য়াগরিষ্ঠের শাসন বা স্঵ৈরাচার থাকিবে না । এই সমাজ হইবে
কুসংস্কারমুক্ত , সংকীর্ণতামুক্ত , ধর্মনিরপেক্ষ সমাজ । এই সর্বোদয সমাজ গঠনের জন্য়
` লোকশক্তি ' জাগ্রত করিবার উপর গান্ধীজী বিশেষ গুরুত্঵ আরোপ করিযাছেন ।
প্রেম , মৈত্রী , সহয়োগিতা , আত্মত্য়াগ , সহিষ্ণুতা ও অহিংসার মাধ্য়মেই ` লোকশক্তি '
জাগ্রত হইতে পারে । লোকশক্তিই সমাজ প্রগতির মূল । সুতরাং শ্রেণীবিদ্঵েষহীন , রাষ্ট্রীয
কর্তৃত্঵হীন , সত্য় , অহিংস , প্রেম , সহয়োগিতা-ভিত্তিক অর্থনৈতিক স্঵াবলম্বী সমাজই
গান্ধীজীর সর্বোদয সমাজ ।</p>

<p>আচার্য়্য় বিনোবা ভাবে সংক্ষেপে ` সর্বোদয ' কে ব্য়াখ্য়া করিযা বলিযাছেন য়ে , প্রথম
পর্য়্য়াযে প্রতিষ্ঠিত হইবে গ্রাম-রাজ ( government by village ) এবং পরবর্তী
পর্য়্য়াযে প্রতিষ্ঠিত হইবে রাম-রাজ ( Ram Raj ) । গ্রাম-রাজের পর্বে রাষ্ট্রের অস্তিত্঵
বিলুপ্ত হয নাই , কিন্তু রাষ্ট্রের প্রকৃতিগত পরিবর্তন ঘটে । পরবর্তী পর্য়্য়াযে হইল
কর্তৃত্঵হীন শাসনহীন , রাম রাজ্য় বা সর্বোদয সমাজ । ইহাই হইল বৈকুণ্ঠ বা স্঵র্গরাজ্য়
( kingdom of God ) ।</p>

<p>সমালোচনা ( Criticism ) : গান্ধীজীর সর্বোদয তত্ত্঵ বর্তমানে নানাদিক হইতে
সমালোচনার সম্মুখীন হইযাছে ।
প্রথমত , সর্বোদয আদর্শ এবং সর্বোদয সমাজকে অনেকে কল্পনাসর্বস্঵ এবং
অবাস্তব ধারণা বলিযা থাকেন । সর্বোদযের আর্দশ মহান হইলেও বাস্তব জগতে
সম্পূর্ণভাবে সেই আদর্শ নীতির ভিত্তিতে কোন সমাজব্য়বস্থা
গঠন অসম্ভব । গান্ধীজী নিজেই একথা স্঵ীকার করিযাছিলেন
য়ে ` সেই স্঵র্ণয়ুগের কথা বর্তমানে কল্পনা ' করিতে পারা
য়ায না । গান্ধীজী মানব প্রকৃতির বাস্তব রূপটিকে উপেক্ষা করিযাছেন । ঈর্ষা ,
স্঵ার্থপরতা , সঞ্চয আকাঙ্খা মানুষের সহজাত । সুতরাং সেই মানুষের দ্঵ারা অহিংসা ,
সত্য় ও সহয়োগিতাভিত্তিক সর্বোদয সমাজ প্রতিষ্ঠা কিরূপে সম্ভব ? সর্বোদয আদর্শের
মূল বনিযাদ হইল মানব প্রকৃতির রূপান্তর ; তাহা সম্ভব না হইলে উপরি-সৌধ গড়িযা
উঠিতে পারে না । ভারতের সমগ্র পঞ্চাযেতী রাজ ব্য়বস্থার পর্য়্য়ালোচনা করিলে
উন্নযনের ক্ষেত্রে পশ্চাত্পদতা সুস্পষ্টভাবে লক্ষ্য়ণীয । এই পরিবেশ সর্বোদয আদর্শের
অনুকূল হইতে পারে না ।</p>

<p>দ্঵িতীযত , গান্ধীজী সর্বোদয সমাজে ` দলহীন গণতন্ত্র ' ( partyless democracy )
প্রতিষ্ঠিত হইবে বলিযা কল্পনা করিযাছেন । রাজনৈতিক দল ব্য়তীত গণতান্ত্রিক
শাসনব্য়বস্থার কল্পনা ` সোনার পাথর বাটি 'র মত বলিযা
সমালোচনা করা হয । শ্রেণীবিভক্ত সমাজে বিভিন্ন স্঵ার্থের
পরিপ্রেক্ষিতে নানা রাজনৈতিক দলের অস্তিত্঵ অপরিহার্য়্য় । তাহা
ছাড়া বাস্তব জগতে বর্তমানে গণতান্ত্রিক শাসনব্য়বস্থা বলিতে দলীয শাসনব্য়বস্থাই
বোঝায । গ্রামীন জীবনে দলহীন পরিচালনব্য়বস্থার কোন সম্ভাবনা স্঵ীকৃত হইলেও
জাতীয জীবনে বৃহত্তর ক্ষেত্রে তাহা সম্ভব নয ।</p>

<p>তৃতীযত , গান্ধীজীর সর্বোদয আদর্শে সংখ্য়াগরিষ্ঠের শাসনের তীব্র সমালোচনা
করা হয । সংখ্য়াগরিষ্ঠের স্঵ৈরাচারী সম্ভাবনা দূর করিবার জন্য় ` সকলের সম্মতির
উপর প্রতিষ্ঠিত ' শাসনব্য়বস্থার কথা বলা হয । সমালোচকগণ
এই দৃষ্টিভঙ্গীকে নিতান্তই অয়ৌক্তিক বলিযা অভিহিত
করেন । বাস্তব ক্ষেত্রে আইন প্রণযন বা য়ে কোন রাজনৈতিক
সমস্য়ায সকলের ঐক্য়মত ( unanimity ) প্রতিষ্ঠা সম্ভব হয না । গণতন্ত্রের অর্থই
হইল সংখ্য়াগরিষ্ঠের দ্঵ারা শাসন পরিচালনা । সর্বোদয এই বাস্তব সত্য়টিকে
অস্঵ীকার করে ।</p>

<p>চতুর্থত , সর্বোদয তত্ত্঵ সমাজের বিকাশ ও গতিপ্রকৃতিকে বৈজ্ঞানিক দৃষ্টিতে বিচার
বিশ্লেষণ করিবার প্রযোজনীযতা সম্পূর্ণ উপেক্ষা করিযাছে । বাস্তবক্ষেত্রে ধনবৈষম্য়~
মূলক সমাজব্য়বস্থায শ্রেণী-বিভাগ অবশ্য়ম্ভাবীরূপে দেখা দেয ।
সুতরাং এই বাস্তব সত্য় অস্঵ীকার করিযা শ্রেণী সমঝোতা বা
শ্রেণী-সহয়োগিতার কথা প্রচার করা বৈজ্ঞানিক দৃষ্টিভঙ্গী হইতে পারে না ।</p>

<p>পঞ্চমত , গান্ধীজী শাসনমুক্ত সমাজ পরিচালনায সকলের অংশগ্রহণের কথা বলিযা
প্রত্য়ক্ষ গণতন্ত্রকে রূপাযিত করিতে চাহিযাছেন । প্রাচীন য়ুগের গ্রীসে ও প্রাচীন
ভারতের জনপদগুলিতে প্রত্য়ক্ষ গণতন্ত্র সম্ভব হইলেও বর্তমান
য়ুগের বৃহদাযতন জনবহুল সমাজে প্রত্য়ক্ষ গণতন্ত্রের প্রবর্তন
কোন রাষ্ট্রবিজ্ঞানীই সমর্থন করেন না । জনগণ সকলেই
শাসনব্য়বস্থায অংশগ্রহণ করিবে - সেই ধারণা বর্তমানে অচল । //
স্঵ৈরতান্ত্রিক ব্য়বস্থা সংকটকালে বা বিশেষ অবস্থার উপয়োগী বলিযা অনেক লেখক
অভিমত পোষণ করিলেও গণতান্ত্রিক রীতিনীতির সম্পূর্ণ অস্঵ীকৃতির জন্য় ইহাকে কাম্য়
ব্য়বস্থা বলিযা মনে করা য়ায না । বাস্তবে ইহা এক প্রতিক্রিযাশীল রাজনৈতিক ব্য়বস্থা
ব্য়তীত অপর কিছু নহে ।</p>

<p>ফ্য়াসীবাদী সর্বত্মাক ব্য়বস্থা ( Fascist Totalitarian System ) :
বিংশ শতাব্দীতে য়োগায়োগ ব্য়বস্থা ও আধুনিক য়ান্ত্রিক কলাকৌশল উদ্ভাবনের
দ্঵ারা সমাজজীবনে ব্য়াপক পরিবর্তন ও আধুনিকীকরণের ফলেই সর্বাত্মক ব্য়বস্থার
বাস্তব রূপাযণ সম্ভব হয । অধ্য়াপক ফাইনার সর্বাত্মক ব্য়বস্থার দুইটি শর্তের উল্লেখ
করিযাছেন । প্রথমত , সমগ্র সমাজ জীবনের উপর রাজনৈতিক
দৃষ্টিভঙ্গীর সুপ্রতিষ্ঠিত প্রাধান্য় । দ্঵িতীযত , সমাজে একটি মাত্র
রাজনৈতিক দৃষ্টিভঙ্গী বা মতাদর্শের অস্তিত্঵ থাকিবে , কোন বিরোধিতার অবকাশ থাকিবে
না । উদারনৈতিক গণতন্ত্রের বৈশিষ্ট্য়ের সহিত সর্বাত্মক ব্য়বস্থার বৈশিষ্ট্য়ের ইহা মূল
পার্থক্য় । অধ্য়াপক ফাইনার ( S. E. Finer ) , অধ্য়াপক য্য়ালান বল্ ( Alan R. Ball )
প্রমুখ লেখকগণ ফ্য়াসীবাদী রাজনৈতিক ব্য়বস্থাকে সর্বত্মাক ব্য়বস্থা বলিযা মনে করেন ।
ফ্য়াসীবাদী দৃষ্টিতে সর্বাত্মক রাষ্ট্রই হইল রাজনৈতিক ব্য়বস্থার আদর্শ । ফ্য়াসীবাদী রাজনৈতিক
ব্য়বস্থার মধ্য়েই সর্বাত্মক ব্য়বস্থার বৈশিষ্ট্য় পরিলক্ষিত হয ।</p>

<p>বৈশিষ্ট্য় : য্য়ালান বল্ ফ্য়াসীবাদী সর্বাত্মক ব্য়বস্থার কযেকটি সাধারণ বৈশিষ্ট্য়ের
কথা উল্লেখ করিযাছেন । এইগুলি হইল :
( 1 ) সামাজিক ও ব্য়ক্তি-জীবনের সকল কার্য়্য়কলাপ তত্ত্঵গতভাবে সম্পূর্ণ সরকারের
এক্তিযারভুক্ত বলিযা এই ব্য়বস্থা স্঵ীকার করে ।
( 2 ) এই ব্য়বস্থায রাজনৈতিক ও আইনগতভাবে একটিমাত্র রাজনৈতিক দলের
নিরঙ্কুশ প্রাধান্য় প্রতিষ্ঠিত হয । সকল রাজনৈতিক কার্য়্য়কলাপ এই দলের মাধ্য়মে
পরিচালিত হয এবং এই দলই প্রতিয়োগিতা , বিরোধিতা ও নিযোগের একমাত্র প্রতিষ্ঠান
হিসাবে কার্য়্য় করে ।
( 3 ) তত্ত্঵ের দিক হইতে একটি ব্য়াপক রাজনৈতিক মতাদর্শ এই ব্য়বস্থায সকল
রাজনৈতিক কার্য়্য়াবলী নিযন্ত্রণ করে ।
(4 ) বিচার বিভাগ ও গণসংয়োগ মাধ্য়মগুলি কঠোরভাবে সরকারের দ্঵ারা নিযন্ত্রিত
হয । উদারনৈতিক গণতন্ত্রে নাগরিকের য়ে অধিকার স্঵ীকৃত তাহা এই ব্য়বস্থায সম্পূর্ণ
খর্ব করা হয ।
( 5 ) ফ্য়াসীবাদী সর্বাত্মক ব্য়বস্থা জনসমর্থন আদাযের জন্য় জনগণকে এই ব্য়বস্থার
সমর্থনে সংগঠিত করিতে সর্বদা সচেষ্ট হয এবং এই রাজনৈতিক ব্য়বস্থার একটি
গণতান্ত্রিক ভিত্তি প্রদানে সক্রিয থাকে । জনগণের অংশগ্রহণ ও সম্মতির মাধ্য়মে এই
রাজনৈতিক ব্য়বস্থা বৈধ রূপ লাভ করে ।</p>

<p>এই বৈশিষ্ট্য়গুলি ব্য়তীত অন্য়ান্য় কযেকটি বৈশিষ্ট্য়েরও উল্লেখ করা য়ায । প্রথমত ,
ফ্য়াসীবাদী ব্য়বস্থায সামাজিক , অর্থনৈতিক , রাজনৈতিক , সকল দিক্ হইতেই ক্ষমতা
মুষ্টিমেয বাছাই করা ব্য়ক্তির ( elite ) হস্তে কেন্দ্রীভূত হয । এই ব্য়বস্থার মূলমন্ত্র হয ,
` এক দল , এক নেতা , এক রাষ্ট্র ' ( one party , one leader
one state ) । দ্঵িতীযত , একটিমাত্র দলই একচেটিযা ক্ষমতা ভোগ
করে ; কোনরূপ বিরোধিতা সহ্য় করা হয না । মত প্রকাশের স্঵াধীনতা , সংবাদপত্রের
স্঵াধীনতা , সভা-সমিতির অধিকার , ধর্মঘট অধিকার বলপ্রযোগের মাধ্য়মে দমন
করা হয ।</p>

<p>তৃতীযত , এই রাজনৈতিক ব্য়বস্থায ব্য়ক্তিকে রাষ্ট্রের বেদীমূলে উত্সর্গ করা হয ।
সর্বাত্মক দৃষ্টিভঙ্গী ব্য়ক্তিজীবনকে সম্পূর্ণভাবে গ্রাস করে , ব্য়ক্তি-স্঵াধীনতা অর্থহীন হইযা
দাঁড়ায ।</p>

<p>চতুর্থত , রাজনৈতিক উদ্দেশ্য়সাধনের জন্য় ফ্য়াসীবাদী ব্য়বস্থার হিংসা
( violence ) , সন্ত্রাস ( terror ) স্঵াভাবিক অঙ্গ হইযা দাঁড়ায । দমনপীড়ন , সন্ত্রাস সৃষ্টি
ভীতি প্রদর্শন প্রভৃতির মাধ্য়মে বলপূর্বক শাসনব্য়বস্থার প্রতি আনুগত্য় লাভের
চেষ্টা হয ।</p>

<p>পঞ্চমত , ফ্য়াসীবাদ অন্ধ জাতীযতাবাদকে প্রশ্রয দিযা সাম্রাজ্য়বাদ ও য়ুদ্ধবাদকে
সমর্থন করে ; ফ্য়াসীবাদী দৃষ্টিতে ` চিরন্তন য়ুদ্ধের মাধ্য়মে মানুষ সমৃদ্ধিলাভ করিযাছে ,
শান্তির পথে মানুষের ধ্঵ংস অনিবার্য়্য় ' । আন্তর্জাতিক শান্তি ` কাপুরুষের স্঵প্ন ' ব্য়তীত
কিছু নহে । সুতরাং য়ুদ্ধ মানবজীবনের ক্ষেত্রে অপরিহার্য়্য় ও স্঵াভাবিক প্রযোজন বলিযা
গণ্য় হয । //
ষষ্ঠত , জনগণের গণতান্ত্রিক ধ্য়ান-ধারণার শ্রদ্ধা মর্য়্য়াদাপূর্ণ মনোভাব থাকা বিশেষ
প্রযোজন । স্঵াযত্তশাসনের অভিজ্ঞতা এবং বিভিন্ন অংশের রাজনৈতিক সংগঠনের
ক্ষমতার সমতা য়ুক্তরাষ্ট্র ব্য়বস্থার সফলতার জন্য় প্রযোজন । কোন
একটি অঞ্চলে স্঵ৈরতান্ত্রিক শাসনব্য়বস্থা প্রবর্তিত হইলে অন্য়ান্য়
অংশে গণতান্ত্রিক ব্য়বস্থা প্রবর্তনে তাহা অন্তরায হইযা দাঁড়াইবে । সুতরাং য়ুক্তরাষ্ট্রীয
ব্য়বস্থার সহিত গণতান্ত্রিক শাসনব্য়বস্থার ঘনিষ্ট সম্পর্ক রহিযাছে ।</p>

<p>সপ্তমত , য়ুক্তরাষ্ট্র গঠনের অন্য়ান্য় শর্ত উপস্থিত থাকিলেও উপয়ুক্ত নেতৃত্঵ের অভাবে
য়ুক্তরাষ্ট্র গঠন নাও সম্ভব হইতে পারে । সাহসী , বিবেচক ও দূরদৃষ্টিসম্পন্ন নেতৃত্঵
জনগণের মধ্য়ে ঐক্য়ের মনোভাব সঞ্চারে বিশেষ গুরুত্঵পূর্ণ ভূমিকা গ্রহণ করিতে
পারে । নেতৃত্঵ের প্রকৃতির উপর য়ুক্তরাষ্ট্রের অস্তিত্঵ ও স্থাযিত্঵
অনেকাংশে নির্ভরশীল । মার্কিন য়ুক্তরাষ্ট্রের ইতিহাসে ওযাশিংটন
( George Washington ) , ফ্রাঙ্কলিন্ ( Benjamin Franklin ) , উইলসন
( James Wilson ) , লিঙ্কন ( Abraham Lincoln ) প্রভৃতির নেতৃত্঵ে মার্কিন
য়ুক্তরাষ্ট্রীয শাসনব্য়বস্থার সাফল্য়ে উল্লেখ্য় অংশগ্রহণ করিযাছে ।</p>

<p>পরিশেষে বলা য়াইতে পারে য়ে , য়ুক্তরাষ্ট্রীয ব্য়বস্থার জন্য় শুধু অনুকূল পরিবেশই
য়থেষ্ট নহে , জনগণের আগ্রহ , সচেতনতা ও সক্রিয ভূমিকা গ্রহণের আন্তরিক প্রযাসও
বিশেষ গুরুত্঵পূর্ণ । অঙ্গরাজ্য়ের জনগণ য়দি আঞ্চলিক স্঵ার্থের
গণ্ডী উত্তীর্ণ হইযা য়ুক্তরাষ্ট্র সংরক্ষণে আগ্রহী না হয , তাহা
হইলে জাতীয ঐক্য় ও আঞ্চলিক স্঵াতন্ত্রের সার্থক সমন্঵য হইতে
পারে না । য়ুক্তরাষ্ট্র ব্য়বস্থাকে গ্রহণ ও সংরক্ষণ করিবার জন্য় শিক্ষিত , সচেতন
নিষ্ঠাবান ও দাযিত্঵শীল নাগরিক প্রযোজন ।</p>

<p>( ক ) য়ুক্তরাষ্ট্র ও রাষ্ট্র-সমবাযের পার্থক্য় ( Distinction between
Federation and Confederation ) :
য়ুক্তরাষ্ট্র ও রাষ্ট্র-সমবাযের উদ্ভবগত কিছু সাদৃশ্য় থাকিলেও য়ুক্তরাষ্ট্র এবং রাষ্ট্র~
সমবায এক জিনিস নহে । য়খন কযেকটি সার্বভৌম রাষ্ট্র নিজেদের স্঵াধীন সত্তা
বিসর্জন না দিযা সমান স্঵ার্থজড়িত নির্দিষ্ট বিষযে চুক্তিবদ্ধ
হইযা এক কেন্দ্রীয শাসনব্য়বস্থার মাধ্য়মে কার্য়্য় করে , তাহাকে
রাষ্ট্র-সমবায ( Confederation ) বলা য়ায । অধ্য়াপক হলের ( Hall) মতে , রাষ্ট্র~
সমবায হইল কতকগুলি রাষ্ট্রের সংঘ য়াহারা বিশেয় উদ্দেশ্য়ের জন্য় কিছু পরিমাণে
তাহাদের স্঵াধীনতা স্থাযীভাবে বিসর্জন দিতে প্রস্তুত থাকে ।</p>

<p>সমবাযী রাষ্ট্রগুলি তাহাদের স্঵াধীন সত্তা সম্পূর্ণ বিসর্জন দেয না বলিযা রাষ্ট্র-সমবায
নূতন কোন সার্বভৌম রাষ্ট্রের সৃষ্টি করে না । রাষ্ট্র-সমবাযের সদস্য় রাষ্ট্রগুলি য়ে
কোন সময এই সমবায ত্য়াগ করিতে পারে । আমেরিকার প্রথম রাষ্ট্র-সমবায
( 1781-89 ) , জার্মান রাষ্ট্র-সমবায ( 1815-66 ) , সাম্প্রতিক কালের উত্তর
আটলাণ্টিক চুক্তি সংস্থা ( NATO ) , দক্ষিণ-পূর্ব এশিযা চুক্তি সংস্থা ( SEATO ) ,
পারস্পরিক অর্থনৈতিক সাহায়্য় পরিষদ ( CMEA ) রাষ্ট্র-সমবাযের উল্লেখয়োগ্য়
উদাহরণ । য়ুক্তরাষ্ট্রের সহিত রাষ্ট্র-সমবাযের মূল পার্থক্য় সংক্ষেপে বিবৃত করা
য়াইতে পারে ।</p>

<p>( 1 ) য়ুক্তরাষ্ট্রীয শাসনব্য়বস্থায অনেকগুলি ক্ষুদ্র ক্ষুদ্র রাজ্য় তাহাদের সার্বভৌম
সত্তা বিসর্জন দিযা সম্পূর্ণ নূতন একটি সার্বভৌম রাষ্ট্র সৃষ্টি
করে । কিন্তু রাষ্ট্র-সমবায কতকগুলি স্঵াধীন রাষ্ট্রের একত্র
সমাবেশ , ইহাতে নূতন কোন সার্বভৌম রাষ্ট্রের উদ্ভব
হয না ।</p>

<p>( 2 ) য়ুক্তরাষ্ট্রের অন্য়তম অপরিহার্য়্য় শর্ত হইল একটি অনমনীয সংবিধান । কোন
অংশ ইচ্ছামত আইনগত সংগঠনের রূপ পরিবর্তন করিতে পারে
না । রাষ্ট্র-সমবাযের ভিত্তি হইল স্঵েচ্ছাপ্রণোদিত চুক্তি । এই
চুক্তির বাধ্য়বাধকতা নির্ভর করে চুক্তিতে অংশগ্রহণকারী রাষ্ট্রের
ইচ্ছার উপর । সমবাযী রাষ্ট্রের ইচ্ছায চুক্তির শর্ত পরিবর্তিত হইতে পারে ।</p>

<p>( 3 ) য়ুক্তরাষ্ট্রের অঙ্গরাজ্য়গুলি ইচ্ছামত য়ুক্তরাষ্ট্র হইতে বিচ্ছিন্ন হইতে পারে না ।
তাহাদের য়ুক্তরাষ্ট্র পরিত্য়াগ করিবার ( সোভিযেট ইউনিযনের
সীমাবদ্ধ ক্ষেত্র ছাড়া ) আইনগত অধিকার নাই । রাষ্ট্র-সমবাযের
অন্তর্ভুক্ত সদস্য় রাষ্ট্রগুলি য়ে-কোন ক্ষেত্রে সমবায হইতে বিচ্ছিন্ন
হইতে পারে । তাহা ছাড়া য়ুক্তরাষ্ট্র হইল স্থাযী সংগঠন ; কিন্তু রাষ্ট্র-সমবায
অস্থাযী সংস্থা ।</p>

<p>( 4 ) য়ুক্তরাষ্ট্রের একটি নির্দিষ্ট ভৌগোলিক এলাকা থাকে । রাষ্ট্র সমবাযের
এই নির্দিষ্ট ভূখণ্ড থাকে না । রাষ্ট্র-সমবাযের অন্তর্গত রাষ্ট্রগুলির
স্঵তন্ত্র ও নিজস্঵ ভৌগোলিক অস্তিত্঵ অক্ষুন্ন থাকে ।</p>

<p>( 5 ) য়ুক্তরাষ্ট্রীয শাসনব্য়বস্থায কেন্দ্রীয সরকারের সহিত নাগরিকের প্রত্য়ক্ষ
সম্পর্ক থাকে । কেন্দ্রীয সরকারের আইন , আদেশ , নির্দেশ
নাগরিককে প্রত্য়ক্ষভাবে স্পর্শ করিতে পারে । কিন্তু রাষ্ট্র-সমবাযের
কেন্দ্রীয সংগঠন প্রত্য়ক্ষভাবে নাগরিকের উপর কোন কর্তৃত্঵ করিতে
পারে না । সমবাযী রাষ্ট্রগুলির মাধ্য়মেই নাগরিকের নিকট
পৌঁছানো সম্ভব , কারণ নাগরিকগণ সকলেই নিজ নিজ রাষ্ট্রের নাগরিক । //
( 1 ) বর্তমান য়ুগে য়ুদ্ধের সহিত অতীত দিনের য়ুদ্ধের ব্য়াপক পার্থক্য়
রহিযাছে । বর্তমানের য়ুদ্ধ সামগ্রিক য়ুদ্ধ - সামরিক ও অসামরিক ব্য়ক্তি জীবনের
উপর তাহার প্রভাব সমান । য়ুদ্ধের ভযাবহ বিপদে দেশের প্রতিরক্ষার জন্য় স্঵াভাবিক~
ভাবে কেন্দ্রীয সরকারের ক্ষমতা বৃদ্ধি পায ; য়ুদ্ধের প্রযোজনে য়ে প্রস্তুতি ও কর্মপন্থা
নির্ধারণ করিতে হয তাহা আঞ্চলিক স্঵াতন্ত্র্য় সম্পূর্ণ স্঵ীকার করিযা সম্ভব হয
না । য়ুদ্ধাবস্থার মোকাবিলার জন্য় কেন্দ্রীয সরকারের সকল শক্তি
সংহত করিতে হয । বর্তমান য়ুগের দুইটি বিশ্঵য়ুদ্ধের অভিজ্ঞতা
প্রমাণ করিযাছে য়ে য়ুদ্ধের বিভীষিকা হইতে পরিত্রাণের পন্থা অনুসন্ধানে য়ুক্তরাষ্ট্রীয
ব্য়বস্থায কেন্দ্রীয সরকারের ক্ষমতা বৃদ্ধি স্঵াভাবিকভাবে দেখা দিবে ।</p>

<p>( 2 ) অর্থনৈতিক সংকটও কেন্দ্রপ্রবণতার কারণ হিসাবে উল্লেখ করা য়ায । সমগ্র দেশে
তীব্র অর্থনৈতিক সংকট দেখা দিলে তাহার অশুভ প্রতিক্রিযা জাতীয জীবনকে আচ্ছন্ন
করিযা ফেলে । মূল্য়বৃদ্ধি , মন্দা বাজার , বেকারত্঵ , উত্পাদন হ্রাস প্রভৃতি সমস্য়া
সরকারকে বিভ্রান্ত করে । আঞ্চলিকভাবে বা বিক্ষিপ্তভাবে এই অর্থনৈতিক সংকটের
সমাধান হইতে পারে না । বিংশ শতাব্দীর তৃতীয দশকে মার্কিন
য়ুক্তরাষ্ট্র এবং পৃথিবীব্য়াপী মন্দা বাজারের ( Great Depression )
সমস্য়ায রাষ্ট্রপতি রুজভেল্ট ( Roosevelt ) এক অর্থনৈতিক পরিকল্পনা ( New Deal )
গ্রহণ করেন । কেন্দ্রীয সরকারের উদ্য়োগে বলিষ্ঠ রাজস্঵ নীতি ও অর্থনৈতিক কর্মসূচী
গ্রহণের মাধ্য়মে মার্কিন য়ুক্তরাষ্ট্রের সংকটের অবসান ঘটে । সুতরাং অর্থনৈতিক সংকটে
কেন্দ্রীয সরকার স্঵াভাবিবভাবে অধিক ক্ষমতার অধিকারী হয ।</p>

<p>( 3 ) বর্তমান দিনে জনকল্য়াণ রাষ্ট্রের ( welfare state ) আদর্শ বহুল প্রচারিত
ও স্঵ীকৃত হইযাছে । ইহার ফলে গণতান্ত্রিক শাসনব্য়বস্থায
সরকারের কার্য়্য়াবলীর জন্য় সরকার আগ্রহী হইযাছে । শিক্ষার
ব্য়বস্থা , জনস্঵াস্থ্য়ের উন্নতি , কর্মসংস্থানের নিশ্চিত সুয়োগ ,
সামাজিক নিরাপত্তা , এমন কি বিভিন্ন সাংস্কৃতিক কর্মসূচী গ্রহণের মাধ্য়মে জনজীবনের
কল্য়াণসাধনে সরকার ব্রতী হইযাছে । জনকল্য়াণমূলক কর্মসূচীর সার্থক রূপাযণ ও
সামগ্রীক অর্থনৈতিক উন্নযনের জন্য় কেন্দ্রীয পরিকল্পনা অপরিহার্য়্য় । এই অবস্থা
স্঵াভাবিক নিযমেই কেন্দ্রীয সরকারের ক্ষমতা বৃদ্ধি করিযাছে ।</p>

<p>( 4 ) য়ুক্তরাষ্ট্রে সাধারণ অবস্থায আঞ্চলিক সমস্য়ার উপয়ুক্ত সমাধান এবং আঞ্চলিক
বৈশিষ্ট্য় সংরক্ষণের জন্য় আঞ্চলিক সরকারের নিজস্঵ ক্ষমতা ও স্঵াতন্ত্র্য় স্঵ীকৃত হয ।
বর্তমান পরিবহণ ব্য়বস্থার অভাবনীয উন্নতি বিভিন্ন অঞ্চলের ভৌগোলিক ব্য়বধান দূর
করিযাছে । দেশের এক প্রান্ত হইতে অপর প্রান্তে সংবাদ প্রেরণে , তথ্য় সংগ্রহে ,
সাহায়্য় প্রেরণের সমস্য়া বড় হইযা দেখা দেয না । বন্য়া ,
মহামারীর ন্য়ায বিপর্য়্য়যের মোকাবিলা করিবার জন্য় রাজ্য়সরকার
ও কেন্দ্রীয সরকারের সহয়োগিতার প্রযোজন হয । তাহা ছাড়া
ব্য়বসা-বাণিজ্য় বর্তমান রাজ্য়ের অভ্য়ন্তরীণ বিষয না হইযা আন্তঃরাজ্য় গুরুত্঵ লাভ
করিযাছে । শিল্পের সম্প্রসারণ , শিল্পোত্পাদন , কাঁচামাল সংগ্রহ , বিক্রয বাজার প্রভৃতির
সমস্য়া একক ভাবে কোন রাজ্য়ের অধীন নহে ।</p>

<p>সমাজকল্য়াণ রাষ্ট্রে সামগ্রিক অর্থনৈতিক উন্নযন ও বিকাশের জন্য় অর্থনৈতিক
পরিকল্পনা ( economic pianning ) একান্তই প্রযোজন । ঐক্য়বদ্ধ অর্থনৈতিক
কর্মসূচী ও পরিকল্পনার সুষ্ঠু রূপাযণ কোন রাজ্য়ের দাযিত্঵ে সম্ভব হয না , ইহার জন্য়
প্রযোজন কেন্দ্রীয সংগঠন ও নেতৃত্঵ ।</p>

<p>( 5 ) সাম্প্রতিককালে য়ুক্তরাষ্ট্র ব্য়বস্থা সম্পর্কে বিভিন্ন দেশে জনগণের দৃষ্টিভঙ্গীর
ব্য়াপক পরিবর্তন হইযাছে । সমান অধিকার ও মর্য়্য়াদার দাবি , আর্থিক বাজার সম্প্রসারণ ,
উত্পন্ন পণ্য়ের মান নিযন্ত্রণ , অর্থনৈতিক স্থাযিত্঵ ও সামাজিক
নিরাপত্তার দাবির জন্য় পুরানো দিনের আঞ্চলিক অধিকার নীতির
উপর আস্থার পরিবর্তে জনগণের জাতীয সরকারের প্রতি আনুগত্য়
বৃদ্ধি । দৈনন্দিন জীবনের গুরুত্঵পূর্ণ সমস্য়াগুলির সমাধান রাজ্য়ের সীমিত সংগতিতে
সম্ভব নহে , এই ধারণাই জাতীয ঐক্য়বদ্ধ নীতির প্রতি সাধারণের আনুগত্য় সঞ্চার
করিযাছে ।</p>

<p>( 6 ) দ্঵িতীয বিশ্঵য়ুদ্ধোত্তর পৃথিবীতে সমাজতান্ত্রিক ও পুঁজিবাদী শিবিরের মধ্য়ে
ঠাণ্ডা লড়াই , উভয মতাদর্শভিত্তিক রাষ্ট্রগুলির প্রভাব বিস্তারের প্রচেষ্টা , সামরিক শক্তি
বৃদ্ধির উদ্য়োগ , পারমাণবিক অস্ত্র নির্মাণের প্রতিয়োগিতা প্রভৃতির
ফলে উদ্ভূত আন্তর্জাতিক পরিবেশে কোন দেশেই কেন্দ্রীয সরকার
ব্য়তীত কোন আঞ্চলিক সরকারের পক্ষে সঠিক পন্থা নির্দেশ করা সহজসাধ্য় নহে ।
পুঁজিবাদী ব্য়বস্থার একচেটিযা পরিণতি ও প্রকৃতি কেন্দ্রীয ক্ষমতা সম্প্রসারণে সহাযতা
করিযাছে ।</p>

<p>এই সকল কারণের জন্য়ই অনেক লেখক বলেন য়ে , য়ুক্তরাষ্ট্রের চিরাচরিত ধারণার
অর্থাত্ দুই ধরণের সরকারের স্঵তন্ত্র ও স্঵াধীন ভূমিকার গুরুত্঵ বর্তমানে হ্রাস পাইযাছে ।
কেন্দ্রীয সরকারের সহিত সহয়োগিতামূলক দৃষ্টিভঙ্গী বর্তমান পরিস্থিতিতে য়ুক্তরাষ্ট্রে
প্রযোজনীয হইযা পড়িযাছে । য়ুক্তরাষ্ট্রীয ভিত্তিতে গঠিত কোন রাজনৈতিক ব্য়বস্থা
কঠোর ক্ষমতা বণ্টনের বিলাসিতা বা অষ্টাদশ শতাব্দীর সামাজিক ও অর্থনৈতিক
পরিবেশের চূড়ান্ত স্঵াতন্ত্র্য়ের দাবিকে প্রশ্রয দিতে পারে না । সহয়োগিতামূলক
মনোভাবই মার্কিন য়ুক্তরাষ্ট্র , কানাডা , অস্ট্রেলিযা , সুইজারল্য়াণ্ড , ভারত প্রভৃতি
য়ুক্তরাষ্ট্রীয ব্য়বস্থায পরিলক্ষিত হয । প্রসঙ্গতঃ উল্লেখ করা য়ায য়ে , কেন্দ্রীয সরকারের
প্রাধান্য় স্঵ীকৃত হইলেও য়ুক্তরাষ্ট্রের কাঠামোগত বৈশিষ্ট্য় সম্পূর্ণ উপেক্ষিত হয নাই ।
 +&gt;*",0
</p></body></text></cesDoc>